Source: USDA Branded Food Products Database Release December 2017 Software v.3.8.6.4 2017-10-02
Report Run at: December 17, 2017 20:16 EST
"Nutrient data for: 45081710, 0% MILKFAT STRAINED NON-FAT YOGURT, UPC: 898248001046"
Food Group:  Branded Food Products Database
Common Name:

Nutrient,Unit,Data points,Std. Error,"1 CONTAINER = 150.0g",1Value per 100 g,
Proximates
"Energy",kcal,--,--,100,67
"Protein",g,--,--,13.99,9.33
"Total lipid (fat)",g,--,--,0.00,0.00
"Carbohydrate, by difference",g,--,--,10.99,7.33
"Fiber, total dietary",g,--,--,0.0,0.0
"Sugars, total",g,--,--,9.00,6.00
Minerals
"Calcium, Ca",mg,--,--,150,100
"Iron, Fe",mg,--,--,0.00,0.00
"Sodium, Na",mg,--,--,56,37
Vitamins
"Vitamin C, total ascorbic acid",mg,--,--,0.0,0.0
"Vitamin A, IU",IU,--,--,0,0
Lipids
"Fatty acids, total saturated",g,--,--,0.000,0.000
"Fatty acids, total trans",g,--,--,0.000,0.000
"Cholesterol",mg,--,--,0,0
Amino Acids
Other
Ingredients
"PASTEURIZED SKIM MILK, ORGANIC AGAVE NECTAR, PASSION FRUIT, POMEGRANATE, LIVE ACTIVE CULTURES: B. LACTIS, L. ACIDOPHILUS, L. DELBRUECKII SUBSP. BULGARICUS, L. DELBRUECKII SUBSP. LACTIS, S. THERMOPHILUS" Date available: 06/24/2017 Date last updated by company: 06/24/2017
