Source: USDA Branded Food Products Database Release December 2017 Software v.3.8.6.4 2017-10-02
Report Run at: December 17, 2017 11:55 EST
"Nutrient data for: 45189562, 1% LOWFAT MILK, UPC: 011110505798"
Food Group:  Branded Food Products Database
Common Name:

Nutrient,Unit,Data points,Std. Error,"8.0 OZA = 240.0g",1Value per 100 g,
Proximates
"Energy",kcal,--,--,180,75
"Protein",g,--,--,7.99,3.33
"Total lipid (fat)",g,--,--,3.00,1.25
"Carbohydrate, by difference",g,--,--,31.99,13.33
"Fiber, total dietary",g,--,--,1.0,0.4
"Sugars, total",g,--,--,30.00,12.50
Minerals
"Calcium, Ca",mg,--,--,300,125
"Iron, Fe",mg,--,--,0.36,0.15
"Potassium, K",mg,--,--,430,179
"Sodium, Na",mg,--,--,199,83
Vitamins
"Vitamin C, total ascorbic acid",mg,--,--,0.0,0.0
"Vitamin A, IU",IU,--,--,749,312
"Vitamin D",IU,--,--,101,42
Lipids
"Fatty acids, total saturated",g,--,--,1.992,0.830
"Fatty acids, total trans",g,--,--,0.000,0.000
"Cholesterol",mg,--,--,14,6
Amino Acids
Other
Ingredients
"SKIM MILK, MILK, FRUCTOSE CORN SYRUP, SUGAR, COCOA PROCESSED WITH ALKALI, SALT, CARRAGEENAN, ARTIFICIAL FLAVOR, VITAMIN A PALMITATE, VITAMIN D3." Date available: 08/21/2017 Date last updated by company: 08/21/2017
