Source: USDA Branded Food Products Database Release December 2017 Software v.3.8.6.4 2017-10-02
Report Run at: December 17, 2017 20:15 EST
"Nutrient data for: 45229746, 1% MILKFAT LOWFAT YOGURT, CALCIUM FORTIFIED, UPC: 070552404144"
Food Group:  Branded Food Products Database
Common Name:

Nutrient,Unit,Data points,Std. Error,"1 cup = 227.0g",1Value per 100 g,
Proximates
"Energy",kcal,--,--,211,93
"Protein",g,--,--,6.99,3.08
"Total lipid (fat)",g,--,--,2.00,0.88
"Carbohydrate, by difference",g,--,--,41.00,18.06
"Fiber, total dietary",g,--,--,0.0,0.0
"Sugars, total",g,--,--,35.00,15.42
Minerals
"Calcium, Ca",mg,--,--,699,308
"Iron, Fe",mg,--,--,0.27,0.12
"Potassium, K",mg,--,--,370,163
"Sodium, Na",mg,--,--,120,53
Vitamins
"Vitamin C, total ascorbic acid",mg,--,--,0.0,0.0
"Vitamin A, IU",IU,--,--,1124,495
"Vitamin D",IU,--,--,120,53
Lipids
"Fatty acids, total saturated",g,--,--,0.999,0.440
"Fatty acids, total trans",g,--,--,0.000,0.000
"Cholesterol",mg,--,--,9,4
Amino Acids
Other
Ingredients
"CULTURED PASTEURIZED GRADE A LOW FAT MILK, SUGAR, WATER, MODIFIED FOOD STARCH, CALCIUM PHOSPHATE, NATURAL FLAVOR CARRAGEENAN, PECTIN, CITRIC ACID, POTASSIUM SORBATE (TO MAINTAIN FRESHNESS), VANILLA EXTRACT, ANNATTO EXTRACT AND TURMERIC (COLOR), VITAMIN A PALMITATE, VITAMIN D3." Date available: 07/14/2017 Date last updated by company: 07/14/2017
