Source: USDA Branded Food Products Database Release December 2017 Software v.3.8.6.4 2017-10-02
Report Run at: December 17, 2017 03:21 EST
"Nutrient data for: 45316156, 10 + BIO ACTIVE MANUKA HONEY, UPC: 852469004309"
Food Group:  Branded Food Products Database
Common Name:

Nutrient,Unit,Data points,Std. Error,"1 Tbsp = 21.0g",1Value per 100 g,
Proximates
"Energy",kcal,--,--,70,333
"Protein",g,--,--,0.00,0.00
"Total lipid (fat)",g,--,--,0.00,0.00
"Carbohydrate, by difference",g,--,--,17.00,80.95
"Sugars, total",g,--,--,15.00,71.43
Minerals
"Sodium, Na",mg,--,--,1,5
Vitamins
Lipids
Amino Acids
Other
Ingredients
"100% PURE NEW ZEALAND HONEY" Date available: 07/14/2017 Date last updated by company: 07/14/2017
