Source: USDA Branded Food Products Database Release December 2017 Software v.3.8.6.4 2017-10-02
Report Run at: December 18, 2017 15:17 EST
"Nutrient data for: 45280839, 100% JUICE PASTEURIZED ORANGE JUICE, UPC: 092825098645"
Food Group:  Branded Food Products Database
Common Name:

Nutrient,Unit,Data points,Std. Error,"8.0 OZA = 240.0g",1Value per 100 g,
Proximates
"Energy",kcal,--,--,120,50
"Protein",g,--,--,0.00,0.00
"Total lipid (fat)",g,--,--,0.00,0.00
"Carbohydrate, by difference",g,--,--,28.99,12.08
"Sugars, total",g,--,--,28.99,12.08
Minerals
"Sodium, Na",mg,--,--,36,15
Vitamins
"Vitamin C, total ascorbic acid",mg,--,--,90.0,37.5
Lipids
Amino Acids
Other
Ingredients
"FILTERED WATER, ORANGE JUICE CONCENTRATE, ASCORBIC ACID (VITAMIN C).*" Date available: 07/14/2017 Date last updated by company: 07/14/2017
