Source: USDA Branded Food Products Database Release December 2017 Software v.3.8.6.4 2017-10-02
Report Run at: December 19, 2017 03:56 EST
"Nutrient data for: 45101043, 100% WHOLE WHEAT BREAD, UPC: 024126017162"
Food Group:  Branded Food Products Database
Common Name:

Nutrient,Unit,Data points,Std. Error,"1 SLICE = 28.0g",1Value per 100 g,
Proximates
"Energy",kcal,--,--,60,214
"Protein",g,--,--,3.00,10.71
"Total lipid (fat)",g,--,--,1.00,3.57
"Carbohydrate, by difference",g,--,--,12.00,42.86
"Fiber, total dietary",g,--,--,2.0,7.1
"Sugars, total",g,--,--,2.00,7.14
Minerals
"Calcium, Ca",mg,--,--,20,71
"Iron, Fe",mg,--,--,1.29,4.59
"Sodium, Na",mg,--,--,125,446
Vitamins
"Vitamin C, total ascorbic acid",mg,--,--,0.0,0.0
"Thiamin",mg,--,--,0.280,1.000
"Riboflavin",mg,--,--,0.061,0.217
"Niacin",mg,--,--,2.142,7.650
"Vitamin A, IU",IU,--,--,0,0
Lipids
"Fatty acids, total saturated",g,--,--,0.000,0.000
"Fatty acids, total trans",g,--,--,0.000,0.000
"Cholesterol",mg,--,--,0,0
Amino Acids
Other
Ingredients
"STONE GROUND WHOLE WHEAT FLOUR, WATER, SUGAR, YEAST, WHEAT GLUTEN, CONTAINS 2% OR LESS OF THE FOLLOWING: SOYBEAN OIL, SALT, HONEY, DOUGH CONDITIONERS (ETHOXYLATED MONO & DIGLYCERIDES, MONOGLYCERIDES, SODIUM STEAROYL LACTYLATE, ASCORBIC ACID), CALCIUM PROPIONATE (TO RETAIN FRESHNESS), YEAST NUTRIENTS (CALCIUM SULFATE, MONOCALCIUM PHOSPHATE, AMMONIUM SULFATE), FUMARIC ACID, WHEAT STARCH, WHEAT BRAN, SOY LECITHIN." Date available: 07/14/2017 Date last updated by company: 07/14/2017
