Source: USDA Branded Food Products Database Release December 2017 Software v.3.8.6.4 2017-10-02
Report Run at: December 18, 2017 04:18 EST
"Nutrient data for: 45018660, 100% ORGANIC COCONUT FLAKES, UPC: 043182005227"
Food Group:  Branded Food Products Database
Common Name:

Nutrient,Unit,Data points,Std. Error,"3.0 Tbsp = 15.0g",1Value per 100 g,
Proximates
"Energy",kcal,--,--,110,733
"Protein",g,--,--,1.00,6.67
"Total lipid (fat)",g,--,--,10.00,66.67
"Carbohydrate, by difference",g,--,--,4.00,26.67
"Fiber, total dietary",g,--,--,2.0,13.3
"Sugars, total",g,--,--,1.00,6.67
Minerals
"Calcium, Ca",mg,--,--,0,0
"Iron, Fe",mg,--,--,0.96,6.40
"Potassium, K",mg,--,--,80,533
"Sodium, Na",mg,--,--,5,33
Vitamins
"Vitamin C, total ascorbic acid",mg,--,--,0.0,0.0
"Vitamin A, IU",IU,--,--,0,0
Lipids
"Fatty acids, total saturated",g,--,--,9.000,60.000
"Fatty acids, total trans",g,--,--,0.000,0.000
"Cholesterol",mg,--,--,0,0
Amino Acids
Other
Ingredients
"ORGANIC COCONUT (SLICED AND DEHYDRATED)." Date available: 07/14/2017 Date last updated by company: 07/14/2017
