Source: USDA Branded Food Products Database Release December 2017 Software v.3.8.6.4 2017-10-02
Report Run at: December 17, 2017 10:31 EST
"Nutrient data for: 45330225, 100% PURE PEANUT OIL, UPC: 041512084546"
Food Group:  Branded Food Products Database
Common Name:

Nutrient,Unit,Data points,Std. Error,"1 Tbsp = 14.0g",1Value per 100 g,
Proximates
"Energy",kcal,--,--,130,929
"Protein",g,--,--,0.00,0.00
"Total lipid (fat)",g,--,--,14.00,100.00
"Carbohydrate, by difference",g,--,--,0.00,0.00
Minerals
"Sodium, Na",mg,--,--,0,0
Vitamins
Lipids
"Fatty acids, total saturated",g,--,--,2.500,17.860
"Fatty acids, total monounsaturated",g,--,--,7.000,50.000
"Fatty acids, total polyunsaturated",g,--,--,4.000,28.570
"Fatty acids, total trans",g,--,--,0.000,0.000
"Cholesterol",mg,--,--,0,0
Amino Acids
Other
Ingredients
"FULLY REFINED PEANUT OIL. TBHQ AND CITRIC ACID ADDED TO HELP PRESERVE FRESHNESS. DIMETHYLPOLYSILOXANE, AN ANTI-FOAM AGENT ADDED." Date available: 10/13/2017 Date last updated by company: 10/13/2017
