Source: USDA Branded Food Products Database Release December 2017 Software v.3.8.6.4 2017-10-02
Report Run at: December 17, 2017 06:51 EST
"Nutrient data for: 45314065, 100% EXTRA VIRGIN OLIVE OIL SPRAY, UPC: 041790600162"
Food Group:  Branded Food Products Database
Common Name:

Nutrient,Unit,Data points,Std. Error,"0.333 SEC. SPRAY = 0.37g",1Value per 100 g,
Proximates
"Energy",kcal,--,--,0,0
"Protein",g,--,--,0.00,0.00
"Total lipid (fat)",g,--,--,0.00,0.00
"Carbohydrate, by difference",g,--,--,0.00,0.00
Minerals
"Sodium, Na",mg,--,--,0,0
Vitamins
Lipids
"Fatty acids, total saturated",g,--,--,0.000,0.000
"Fatty acids, total trans",g,--,--,0.000,0.000
"Cholesterol",mg,--,--,0,0
Amino Acids
Other
Ingredients
"EXTRA VIRGIN OLIVE OIL." Date available: 07/17/2017 Date last updated by company: 07/17/2017
