Source: USDA Branded Food Products Database Release December 2017 Software v.3.8.6.4 2017-10-02
Report Run at: December 17, 2017 23:38 EST
"Nutrient data for: 45203195, 100% NATURAL FALAFEL, UPC: 852616001069"
Food Group:  Branded Food Products Database
Common Name:

Nutrient,Unit,Data points,Std. Error,"2.0 PATTIES = 56.0g",1Value per 100 g,
Proximates
"Energy",kcal,--,--,180,321
"Protein",g,--,--,12.00,21.43
"Total lipid (fat)",g,--,--,2.00,3.57
"Carbohydrate, by difference",g,--,--,32.00,57.14
"Fiber, total dietary",g,--,--,6.0,10.7
"Sugars, total",g,--,--,6.00,10.71
Minerals
"Calcium, Ca",mg,--,--,120,214
"Iron, Fe",mg,--,--,5.47,9.76
"Sodium, Na",mg,--,--,20,36
Vitamins
"Vitamin C, total ascorbic acid",mg,--,--,14.6,26.0
"Vitamin A, IU",IU,--,--,607,1084
Lipids
"Fatty acids, total saturated",g,--,--,0.000,0.000
"Fatty acids, total trans",g,--,--,0.000,0.000
"Cholesterol",mg,--,--,0,0
Amino Acids
Other
Ingredients
"CHICK PEAS, ONION, PARSLEY, SESAME, GARLIC, SPICES." Date available: 07/14/2017 Date last updated by company: 07/14/2017
