Source: USDA Branded Food Products Database Release December 2017 Software v.3.8.6.4 2017-10-02
Report Run at: December 16, 2017 23:26 EST
"Nutrient data for: 45151197, 100% APPLE JUICE, UPC: 031200327970"
Food Group:  Branded Food Products Database
Common Name:

Nutrient,Unit,Data points,Std. Error,"1 CUP = 240.0g",1Value per 100 g,
Proximates
"Energy",kcal,--,--,110,46
"Protein",g,--,--,0.00,0.00
"Total lipid (fat)",g,--,--,0.00,0.00
"Carbohydrate, by difference",g,--,--,28.01,11.67
"Sugars, total",g,--,--,28.01,11.67
Minerals
"Iron, Fe",mg,--,--,0.36,0.15
"Potassium, K",mg,--,--,240,100
"Sodium, Na",mg,--,--,36,15
Vitamins
Lipids
Amino Acids
Other
Ingredients
"APPLE JUICE (FILTERED WATER, APPLE JUICE FROM CONCENTRATE)" Date available: 11/05/2016 Date last updated by company: 11/05/2016
