Source: USDA Branded Food Products Database Release December 2017 Software v.3.8.6.4 2017-10-02
Report Run at: December 17, 2017 10:14 EST
"Nutrient data for: 45288890, 100% PURE GROUND BEEF CHUCK, UPC: 076338420353"
Food Group:  Branded Food Products Database
Common Name:

Nutrient,Unit,Data points,Std. Error,"4.0 ONZ = 112.0g",1Value per 100 g,
Proximates
"Energy",kcal,--,--,280,250
"Protein",g,--,--,20.00,17.86
"Total lipid (fat)",g,--,--,21.00,18.75
"Carbohydrate, by difference",g,--,--,0.00,0.00
Minerals
"Iron, Fe",mg,--,--,1.37,1.22
"Sodium, Na",mg,--,--,75,67
Vitamins
Lipids
"Fatty acids, total saturated",g,--,--,7.997,7.140
"Cholesterol",mg,--,--,80,71
Amino Acids
Other
Ingredients
"GROUND BEEF" Date available: 07/14/2017 Date last updated by company: 07/14/2017
