Source: USDA Branded Food Products Database Release December 2017 Software v.3.8.6.4 2017-10-02
Report Run at: December 18, 2017 15:31 EST
"Nutrient data for: 45287417, 100% JUICE VINEYARD GRAPE, UPC: 028700119662"
Food Group:  Branded Food Products Database
Common Name:

Nutrient,Unit,Data points,Std. Error,"1 BOTTLE = 296.0g",1Value per 100 g,
Proximates
"Energy",kcal,--,--,160,54
"Protein",g,--,--,0.00,0.00
"Total lipid (fat)",g,--,--,0.00,0.00
"Carbohydrate, by difference",g,--,--,39.99,13.51
"Sugars, total",g,--,--,33.00,11.15
Minerals
"Potassium, K",mg,--,--,391,132
"Sodium, Na",mg,--,--,21,7
Vitamins
Lipids
Amino Acids
Other
Ingredients
"FRUIT JUICES FROM CONCENTRATE (WATER, CONCENTRATED JUICES OF APPLES, GRAPES AND PEARS); NATURAL FLAVORS." Date available: 07/14/2017 Date last updated by company: 07/14/2017
