Source: USDA Branded Food Products Database Release December 2017 Software v.3.8.6.4 2017-10-02
Report Run at: December 17, 2017 10:21 EST
"Nutrient data for: 45170101, 100% PURE JUICE, UPC: 868636000029"
Food Group:  Branded Food Products Database
Common Name:

Nutrient,Unit,Data points,Std. Error,"1 OUNCE = 28.0g",1Value per 100 g,
Proximates
"Energy",kcal,--,--,13,46
"Protein",g,--,--,0.00,0.00
"Total lipid (fat)",g,--,--,0.00,0.00
"Carbohydrate, by difference",g,--,--,3.00,10.71
"Fiber, total dietary",g,--,--,0.0,0.0
"Sugars, total",g,--,--,3.00,10.71
Minerals
"Calcium, Ca",mg,--,--,0,0
"Iron, Fe",mg,--,--,0.00,0.00
"Sodium, Na",mg,--,--,1,4
Vitamins
"Vitamin C, total ascorbic acid",mg,--,--,2.4,8.6
"Vitamin A, IU",IU,--,--,0,0
Lipids
"Fatty acids, total saturated",g,--,--,0.000,0.000
"Fatty acids, total trans",g,--,--,0.000,0.000
"Cholesterol",mg,--,--,0,0
Amino Acids
Other
Ingredients
"CRANBERRIES" Date available: 07/14/2017 Date last updated by company: 07/14/2017
