Source: USDA Branded Food Products Database Release December 2017 Software v.3.8.6.4 2017-10-02
Report Run at: December 16, 2017 22:53 EST
"Nutrient data for: 45101953, 100% ALL NATURAL BEEF TOP SIRLOIN STEAK, UPC: 810088020872"
Food Group:  Branded Food Products Database
Common Name:

Nutrient,Unit,Data points,Std. Error,"4.0 ONZ = 112.0g",1Value per 100 g,
Proximates
"Energy",kcal,--,--,120,107
"Protein",g,--,--,24.00,21.43
"Total lipid (fat)",g,--,--,3.00,2.68
"Carbohydrate, by difference",g,--,--,0.00,0.00
Minerals
"Iron, Fe",mg,--,--,2.05,1.83
"Sodium, Na",mg,--,--,50,45
Vitamins
Lipids
"Fatty acids, total saturated",g,--,--,0.997,0.890
"Cholesterol",mg,--,--,55,49
Amino Acids
Other
Ingredients
"GRASS FED BEEF." Date available: 10/13/2017 Date last updated by company: 10/13/2017
