Source: USDA Branded Food Products Database Release December 2017 Software v.3.8.6.4 2017-10-02
Report Run at: December 19, 2017 03:58 EST
"Nutrient data for: 45231885, 100% WHOLE WHEAT BREAD, UPC: 072220008586"
Food Group:  Branded Food Products Database
Common Name:

Nutrient,Unit,Data points,Std. Error,"1 SLICE = 43.0g",1Value per 100 g,
Proximates
"Energy",kcal,--,--,100,233
"Protein",g,--,--,4.00,9.30
"Total lipid (fat)",g,--,--,1.50,3.49
"Carbohydrate, by difference",g,--,--,20.00,46.51
"Fiber, total dietary",g,--,--,3.0,7.0
"Sugars, total",g,--,--,3.00,6.98
Minerals
"Calcium, Ca",mg,--,--,0,0
"Iron, Fe",mg,--,--,1.26,2.92
"Sodium, Na",mg,--,--,140,326
Vitamins
"Vitamin C, total ascorbic acid",mg,--,--,0.0,0.0
"Vitamin A, IU",IU,--,--,0,0
Lipids
"Fatty acids, total saturated",g,--,--,0.000,0.000
"Fatty acids, total trans",g,--,--,0.000,0.000
"Cholesterol",mg,--,--,0,0
Amino Acids
Other
Ingredients
"ORGANIC WHOLE WHEAT FLOUR, FILTERED WATER, ORGANIC CRACKED WHEAT, ORGANIC BROWN SUGAR, ORGANIC VITAL WHEAT GLUTEN, ORGANIC HONEY, CONTAINS 2% OR LESS OF EACH OF THE FOLLOWING: YEAST, SEA SALT, ORGANIC SOYBEAN OIL, ORGANIC CULTURED WHEAT FLOUR, ORGANIC WHEAT BRAN, ORGANIC SESAME SEED, ORGANIC OATS, ENZYMES, DOUGH CONDITIONERS (ASCORBIC ACID)." Date available: 07/14/2017 Date last updated by company: 07/14/2017
