Source: USDA Branded Food Products Database Release December 2017 Software v.3.8.6.4 2017-10-02
Report Run at: December 17, 2017 12:42 EST
"Nutrient data for: 45123257, 100% REAL ICE ICE CREAM, UPC: 041900025434"
Food Group:  Branded Food Products Database
Common Name:

Nutrient,Unit,Data points,Std. Error,"0.5 cup = 68.0g",1Value per 100 g,
Proximates
"Energy",kcal,--,--,130,191
"Protein",g,--,--,3.00,4.41
"Total lipid (fat)",g,--,--,7.00,10.29
"Carbohydrate, by difference",g,--,--,17.00,25.00
"Fiber, total dietary",g,--,--,1.0,1.5
"Sugars, total",g,--,--,12.00,17.65
Minerals
"Calcium, Ca",mg,--,--,80,118
"Iron, Fe",mg,--,--,0.81,1.19
"Sodium, Na",mg,--,--,45,66
Vitamins
"Vitamin C, total ascorbic acid",mg,--,--,0.0,0.0
"Vitamin A, IU",IU,--,--,225,331
Lipids
"Fatty acids, total saturated",g,--,--,3.998,5.880
"Fatty acids, total trans",g,--,--,0.000,0.000
"Cholesterol",mg,--,--,25,37
Amino Acids
Other
Ingredients
"MILKFAT AND NONFAT MILK, SUGAR, CORN SYRUP, COCOA (PROCESSED WITH ALKALI), HIGH FRUCTOSE CORN SYRUP, WHEY, CONTAINS LESS THAN 2% OF CELLULOSE GUM, GUAR GUM, CARRAGEENAN, MONO AND DIGLYCERIDES." Date available: 07/14/2017 Date last updated by company: 07/14/2017
