Source: USDA Branded Food Products Database Release December 2017 Software v.3.8.6.4 2017-10-02
Report Run at: December 18, 2017 04:18 EST
"Nutrient data for: 45015252, 100% ORGANIC COCONUT FLOUR, UPC: 043182005241"
Food Group:  Branded Food Products Database
Common Name:

Nutrient,Unit,Data points,Std. Error,"2.0 Tbsp = 15.0g",1Value per 100 g,
Proximates
"Energy",kcal,--,--,70,467
"Protein",g,--,--,3.00,20.00
"Total lipid (fat)",g,--,--,2.50,16.67
"Carbohydrate, by difference",g,--,--,9.00,60.00
"Fiber, total dietary",g,--,--,6.0,40.0
"Sugars, total",g,--,--,1.00,6.67
Minerals
"Calcium, Ca",mg,--,--,0,0
"Iron, Fe",mg,--,--,6.00,40.00
"Sodium, Na",mg,--,--,30,200
Vitamins
"Vitamin C, total ascorbic acid",mg,--,--,0.0,0.0
"Vitamin A, IU",IU,--,--,0,0
Lipids
"Fatty acids, total saturated",g,--,--,1.999,13.330
"Fatty acids, total trans",g,--,--,0.000,0.000
"Cholesterol",mg,--,--,0,0
Amino Acids
Other
Ingredients
"ORGANIC COCONUT FLOUR." Date available: 07/14/2017 Date last updated by company: 07/14/2017
