Source: USDA Branded Food Products Database Release December 2017 Software v.3.8.6.4 2017-10-02
Report Run at: December 17, 2017 08:47 EST
"Nutrient data for: 45138016, 100% LEMON JUICE, UPC: 713733712293"
Food Group:  Branded Food Products Database
Common Name:

Nutrient,Unit,Data points,Std. Error,"1 tsp = 5.0g",1Value per 100 g,
Proximates
"Energy",kcal,--,--,0,0
"Protein",g,--,--,0.00,0.00
"Total lipid (fat)",g,--,--,0.00,0.00
"Carbohydrate, by difference",g,--,--,0.00,0.00
Minerals
"Sodium, Na",mg,--,--,0,0
Vitamins
Lipids
Amino Acids
Other
Ingredients
"LEMON JUICE FROM CONCENTRATE WATER, CONCENTRATED LEMON JUICE), SODIUM BENZOATE (PRESERVATIVE) AND LEMON OIL." Date available: 08/29/2017 Date last updated by company: 08/29/2017
