Source: USDA Branded Food Products Database Release December 2017 Software v.3.8.6.4 2017-10-02
Report Run at: December 17, 2017 00:44 EST
"Nutrient data for: 45187460, 100% ARTISAN FOODS, 100% TAMALES, JALAPENO PEPPER & QUESO FRESCO, UPC: 730792981118"
Food Group:  Branded Food Products Database
Common Name:

Nutrient,Unit,Data points,Std. Error,"1 TAMALE = 144.0g",1Value per 100 g,
Proximates
"Energy",kcal,--,--,190,132
"Protein",g,--,--,4.00,2.78
"Total lipid (fat)",g,--,--,9.99,6.94
"Carbohydrate, by difference",g,--,--,22.00,15.28
"Fiber, total dietary",g,--,--,3.0,2.1
"Sugars, total",g,--,--,2.00,1.39
Minerals
"Calcium, Ca",mg,--,--,81,56
"Iron, Fe",mg,--,--,1.07,0.74
"Sodium, Na",mg,--,--,370,257
Vitamins
"Vitamin C, total ascorbic acid",mg,--,--,12.4,8.6
"Vitamin A, IU",IU,--,--,442,307
Lipids
"Fatty acids, total saturated",g,--,--,1.498,1.040
"Fatty acids, total trans",g,--,--,0.000,0.000
"Cholesterol",mg,--,--,4,3
Amino Acids
Other
Ingredients
"INSTANT CORN MASA MIX (GROUND STONE CORN, LIME JUICE), CORN OIL, SALT, ALUMINUM FREE, BAKING POWDER (MONO-CALCIUM PHOSPHATE, SODIUM BICARBONATE, NON-GENETICALLY MODIFIED CORN STARCH), VEGETABLE STOCK (WATER, ZUCCHINI SQUASH, ONION, CELERY, CARROTS, POTATOES, GREEN PEAS), FARMERS CHEESE (CULTURED PASTEURIZED MILK, SALT, ENZYMES), JALAPENO PEPPERS." Date available: 10/18/2017 Date last updated by company: 10/18/2017
