Source: USDA Branded Food Products Database Release December 2017 Software v.3.8.6.4 2017-10-02
Report Run at: December 19, 2017 03:13 EST
"Nutrient data for: 45112427, 100% WHOLE GRAIN BREAD, UPC: 072250025232"
Food Group:  Branded Food Products Database
Common Name:

Nutrient,Unit,Data points,Std. Error,"1 SLICE = 26.0g",1Value per 100 g,
Proximates
"Energy",kcal,--,--,70,269
"Protein",g,--,--,4.00,15.38
"Total lipid (fat)",g,--,--,1.50,5.77
"Carbohydrate, by difference",g,--,--,12.00,46.15
"Fiber, total dietary",g,--,--,2.0,7.7
"Sugars, total",g,--,--,2.00,7.69
Minerals
"Calcium, Ca",mg,--,--,0,0
"Iron, Fe",mg,--,--,0.80,3.08
"Potassium, K",mg,--,--,0,0
"Sodium, Na",mg,--,--,115,442
Vitamins
"Vitamin C, total ascorbic acid",mg,--,--,0.0,0.0
"Vitamin A, IU",IU,--,--,0,0
"Vitamin D",IU,--,--,0,0
Lipids
"Fatty acids, total saturated",g,--,--,0.000,0.000
"Fatty acids, total monounsaturated",g,--,--,0.000,0.000
"Fatty acids, total polyunsaturated",g,--,--,1.001,3.850
"Fatty acids, total trans",g,--,--,0.000,0.000
"Cholesterol",mg,--,--,0,0
Amino Acids
Other
Ingredients
"WHOLE WHEAT FLOUR, WATER, WHEAT GLUTEN, SUGAR, YEAST, BROWN SUGAR, CONTAINS 2% OR LESS OF EACH OF THE FOLLOWING, FLAX SEED, WHOLE RYE FLOUR, SALT, ROLLED OATS, SOYBEAN OIL, BARLEY FLAKES, TRITICALE FLOUR, CULTURED WHEAT FLOUR, SUNFLOWER SEED, VINEGAR, MONOGLYCERIDES, ENZYMES, ASCORBIC ACID, WHEAT STARCH, WHOLE AMARANTH, HULLED WHOLE MILLET, WHOLE KHORASAN WHEAT FLOUR, WHOLE BROWN RICE FLOUR, WHOLE BUCKWHEAT FLOUR, WHOLE MILLED CORN, WHOLE SPELT FLOUR, MONOCALCIUM PHOSPHATE, SOY LECITHIN, CALCIUM SULFATE. TOPPED WITH WHOLE AMARANTH SEED, FLAXSEED, AND WHEAT BRAN." Date available: 09/07/2017 Date last updated by company: 09/07/2017
