Source: USDA Branded Food Products Database Release December 2017 Software v.3.8.6.4 2017-10-02
Report Run at: December 16, 2017 23:26 EST
"Nutrient data for: 45179242, 100% APPLE JUICE, UPC: 011150017220"
Food Group:  Branded Food Products Database
Common Name:

Nutrient,Unit,Data points,Std. Error,"8.0 OZA = 240.0g",1Value per 100 g,
Proximates
"Energy",kcal,--,--,120,50
"Protein",g,--,--,0.00,0.00
"Total lipid (fat)",g,--,--,0.00,0.00
"Carbohydrate, by difference",g,--,--,28.01,11.67
"Sugars, total",g,--,--,28.01,11.67
Minerals
"Sodium, Na",mg,--,--,36,15
Vitamins
Lipids
Amino Acids
Other
Ingredients
"WATER, ORGANIC APPLE JUICE CONCENTRATE." Date available: 06/25/2017 Date last updated by company: 06/25/2017
