Source: USDA Branded Food Products Database Release December 2017 Software v.3.8.6.4 2017-10-02
Report Run at: December 17, 2017 10:00 EST
"Nutrient data for: 45287001, 100% PURE BEEF SANDWICH STEAKS, UPC: 7350461110"
Food Group:  Branded Food Products Database
Common Name:

Nutrient,Unit,Data points,Std. Error,"1 COOKED PORTION = 32.0g",1Value per 100 g,
Proximates
"Energy",kcal,--,--,100,312
"Protein",g,--,--,5.00,15.62
"Total lipid (fat)",g,--,--,9.00,28.12
"Carbohydrate, by difference",g,--,--,0.00,0.00
"Fiber, total dietary",g,--,--,0.0,0.0
"Sugars, total",g,--,--,0.00,0.00
Minerals
"Calcium, Ca",mg,--,--,0,0
"Iron, Fe",mg,--,--,1.91,5.97
"Sodium, Na",mg,--,--,20,62
Vitamins
"Vitamin C, total ascorbic acid",mg,--,--,0.0,0.0
"Vitamin A, IU",IU,--,--,0,0
Lipids
"Fatty acids, total saturated",g,--,--,3.501,10.940
"Fatty acids, total trans",g,--,--,0.000,0.000
"Cholesterol",mg,--,--,25,78
Amino Acids
Other
Ingredients
"BEEF" Date available: 08/21/2017 Date last updated by company: 08/21/2017
