Source: USDA Branded Food Products Database Release December 2017 Software v.3.8.6.4 2017-10-02
Report Run at: December 18, 2017 04:05 EST
"Nutrient data for: 45316824, 100% ORGANIC CANNELLINI BEANS, UPC: 661475114458"
Food Group:  Branded Food Products Database
Common Name:

Nutrient,Unit,Data points,Std. Error,"0.5 cup = 130.0g",1Value per 100 g,
Proximates
"Energy",kcal,--,--,124,95
"Protein",g,--,--,9.80,7.54
"Total lipid (fat)",g,--,--,0.90,0.69
"Carbohydrate, by difference",g,--,--,19.80,15.23
"Fiber, total dietary",g,--,--,7.0,5.4
"Sugars, total",g,--,--,0.00,0.00
Minerals
"Calcium, Ca",mg,--,--,49,38
"Iron, Fe",mg,--,--,3.06,2.35
"Sodium, Na",mg,--,--,350,269
Vitamins
"Vitamin C, total ascorbic acid",mg,--,--,4.2,3.2
"Vitamin A, IU",IU,--,--,250,192
Lipids
"Fatty acids, total saturated",g,--,--,0.000,0.000
"Fatty acids, total trans",g,--,--,0.000,0.000
"Cholesterol",mg,--,--,0,0
Amino Acids
Other
Ingredients
"ORGANIC CANNELLINI BEANS, WATER, SEA SALT." Date available: 07/14/2017 Date last updated by company: 07/14/2017
