Source: USDA Branded Food Products Database Release December 2017 Software v.3.8.6.4 2017-10-02
Report Run at: December 19, 2017 03:55 EST
"Nutrient data for: 45055688, 100% WHOLE WHEAT BAGELS, UPC: 071010200162"
Food Group:  Branded Food Products Database
Common Name:

Nutrient,Unit,Data points,Std. Error,"1 BAGEL = 95.0g",1Value per 100 g,
Proximates
"Energy",kcal,--,--,220,232
"Protein",g,--,--,11.00,11.58
"Total lipid (fat)",g,--,--,1.50,1.58
"Carbohydrate, by difference",g,--,--,46.00,48.42
"Fiber, total dietary",g,--,--,7.0,7.4
"Sugars, total",g,--,--,5.00,5.26
Minerals
"Calcium, Ca",mg,--,--,80,84
"Iron, Fe",mg,--,--,3.13,3.29
"Potassium, K",mg,--,--,240,253
"Sodium, Na",mg,--,--,430,453
Vitamins
"Vitamin C, total ascorbic acid",mg,--,--,0.0,0.0
"Thiamin",mg,--,--,0.000,0.000
"Riboflavin",mg,--,--,0.136,0.143
"Niacin",mg,--,--,2.316,2.438
"Vitamin A, IU",IU,--,--,0,0
Lipids
"Fatty acids, total saturated",g,--,--,0.000,0.000
"Fatty acids, total monounsaturated",g,--,--,0.000,0.000
"Fatty acids, total polyunsaturated",g,--,--,0.998,1.050
"Fatty acids, total trans",g,--,--,0.000,0.000
"Cholesterol",mg,--,--,0,0
Amino Acids
Other
Ingredients
"WHOLE WHEAT FLOUR, WATER, WHEAT GLUTEN, HIGH FRUCTOSE CORN SYRUP, CONTAINS 2% OR LESS OF THE FOLLOWING: DEGERMINATED YELLOW CORN MEAL, WHEAT BRAN, SALT, HONEY, WHEAT FLOUR, INVERT SUGAR, YEAST, CORN SYRUP, PRESERVATIVES (CALCIUM PROPIONATE, PROPIONIC ACID, PHOSPHORIC ACID), WHEAT STARCH, MONOGLYCERIDES, GUAR GUM, SODIUM STEAROYL LACTYLATE, ENZYMES, ASCORBIC ACID (DOUGH CONDITIONER), SILICON DIOXIDE, L-CYSTEINE, SOY FLOUR, CALCIUM SULFATE, CALCIUM PEROXIDE, DIBASIC AMMONIUM PHOSPHATE, HYDROGENATED SOYBEAN OIL, AZODICARBONAMIDE, DICALCIUM PHOSPHATE." Date available: 06/24/2017 Date last updated by company: 06/24/2017
