Source: USDA Branded Food Products Database Release December 2017 Software v.3.8.6.4 2017-10-02
Report Run at: December 18, 2017 15:23 EST
"Nutrient data for: 45226999, 100% JUICE, UPC: 085239665152"
Food Group:  Branded Food Products Database
Common Name:

Nutrient,Unit,Data points,Std. Error,"8.0 OZA = 240.0g",1Value per 100 g,
Proximates
"Energy",kcal,--,--,161,67
"Protein",g,--,--,0.00,0.00
"Total lipid (fat)",g,--,--,0.00,0.00
"Carbohydrate, by difference",g,--,--,40.01,16.67
"Fiber, total dietary",g,--,--,0.0,0.0
"Sugars, total",g,--,--,40.01,16.67
Minerals
"Calcium, Ca",mg,--,--,0,0
"Iron, Fe",mg,--,--,0.00,0.00
"Sodium, Na",mg,--,--,36,15
Vitamins
"Vitamin C, total ascorbic acid",mg,--,--,72.0,30.0
"Vitamin A, IU",IU,--,--,0,0
Lipids
"Fatty acids, total saturated",g,--,--,0.000,0.000
"Fatty acids, total trans",g,--,--,0.000,0.000
"Cholesterol",mg,--,--,0,0
Amino Acids
Other
Ingredients
"FILTERED WATER, WHITE GRAPE JUICE CONCENTRATE, WHITE GRAPE JUICE, CITRIC ACID, ASCORBIC ACID (VITAMIN C), POTASSIUM METABISULFITE (ADDED TO MAINTAIN FLAVOR AND FRESHNESS)." Date available: 07/14/2017 Date last updated by company: 07/14/2017
