Source: USDA Branded Food Products Database Release December 2017 Software v.3.8.6.4 2017-10-02
Report Run at: December 17, 2017 10:11 EST
"Nutrient data for: 45236604, 100% PURE FLORIDA PASTEURIZED ORANGE JUICE, NO PULP, UPC: 016300151199"
Food Group:  Branded Food Products Database
Common Name:

Nutrient,Unit,Data points,Std. Error,"8.0 OZA = 240.0g",1Value per 100 g,
Proximates
"Energy",kcal,--,--,110,46
"Protein",g,--,--,1.99,0.83
"Total lipid (fat)",g,--,--,0.00,0.00
"Carbohydrate, by difference",g,--,--,25.99,10.83
"Sugars, total",g,--,--,22.01,9.17
Minerals
"Potassium, K",mg,--,--,451,188
"Sodium, Na",mg,--,--,0,0
Vitamins
"Vitamin C, total ascorbic acid",mg,--,--,72.0,30.0
"Thiamin",mg,--,--,0.000,0.000
"Niacin",mg,--,--,0.799,0.333
Lipids
Amino Acids
Other
Ingredients
"PASTEURIZED ORANGE JUICE." Date available: 06/25/2017 Date last updated by company: 06/25/2017
