Source: USDA Branded Food Products Database Release December 2017 Software v.3.8.6.4 2017-10-02
Report Run at: December 17, 2017 02:47 EST
"Nutrient data for: 45079010, 100% DURUM WHEAT SEMOLINA PASTA, UPC: 740500962605"
Food Group:  Branded Food Products Database
Common Name:

Nutrient,Unit,Data points,Std. Error,"0.5 CUP DRY PASTA AND 2 1/2 TBSP SAUCE MIX) | (ABOUT = 71.0g",1Value per 100 g,
Proximates
"Energy",kcal,--,--,260,366
"Protein",g,--,--,10.00,14.08
"Total lipid (fat)",g,--,--,2.00,2.82
"Carbohydrate, by difference",g,--,--,50.00,70.42
"Fiber, total dietary",g,--,--,2.0,2.8
"Sugars, total",g,--,--,7.00,9.86
Minerals
"Calcium, Ca",mg,--,--,80,113
"Iron, Fe",mg,--,--,2.53,3.57
"Sodium, Na",mg,--,--,750,1056
Vitamins
"Vitamin C, total ascorbic acid",mg,--,--,0.0,0.0
"Vitamin A, IU",IU,--,--,0,0
Lipids
"Fatty acids, total saturated",g,--,--,1.001,1.410
"Fatty acids, total trans",g,--,--,0.000,0.000
"Cholesterol",mg,--,--,5,7
Amino Acids
Other
Ingredients
"PASTA (DURUM WHEAT SEMOLINA), WHEY, CORN STARCH, NONFAT MILK, NATURAL FLAVORS, SALT, CHEDDAR CHEESE (CULTURED MILK, SALT, ENZYMES), CREAM, BUTTERMILK, MALTODEXTRIN, DISODIUM PHOSPHATE, BLUE CHEESE (CULTURED PASTEURIZED MILK, SALT, ENZYMES), CITRIC ACID, YEAST EXTRACT, ANNATTO AND PAPRIKA EXTRACT, CHICKEN FAT." Date available: 10/13/2017 Date last updated by company: 10/13/2017
