Source: USDA Branded Food Products Database Release December 2017 Software v.3.8.6.4 2017-10-02
Report Run at: December 17, 2017 07:06 EST
"Nutrient data for: 45201007, 1000 FAJITA ISLAND DRESSING & DIPPING SAUCE, UPC: 739555350123"
Food Group:  Branded Food Products Database
Common Name:

Nutrient,Unit,Data points,Std. Error,"2.0 Tbsp = 30.0g",1Value per 100 g,
Proximates
"Energy",kcal,--,--,140,467
"Protein",g,--,--,0.00,0.00
"Total lipid (fat)",g,--,--,14.00,46.67
"Carbohydrate, by difference",g,--,--,4.00,13.33
"Fiber, total dietary",g,--,--,0.0,0.0
"Sugars, total",g,--,--,2.00,6.67
Minerals
"Calcium, Ca",mg,--,--,0,0
"Iron, Fe",mg,--,--,0.00,0.00
"Sodium, Na",mg,--,--,240,800
Vitamins
"Vitamin C, total ascorbic acid",mg,--,--,0.0,0.0
"Vitamin A, IU",IU,--,--,203,677
Lipids
"Fatty acids, total saturated",g,--,--,2.001,6.670
"Fatty acids, total trans",g,--,--,0.000,0.000
"Cholesterol",mg,--,--,10,33
Amino Acids
Other
Ingredients
"SOYBEAN OIL, WATER, RELISH {CUCUMBERS, HIGH FRUCTOSE CORN SYRUP, DISTILLED VINEGAR, SALT, XANTHAN GUM, LESS THAT 1/10TH OF 1% SODIUM BENZOATE (PRESERVATIVE), NATURAL FLAVORS, CALCIUM CHLORIDE), CORN SYRUP, EGGS, DISTILLED VINEGAR, SALT, GARLIC POWDER, CHILI PEPPER, ONION POWDER, MONOSODIUM GLUTAMATE, TOMATO PASTE, SPICE, SODIUM BENZOATE AND POTASSIUM SORBATE (PRESERVATIVES), PROPYLENE GLYCOL ALGINATE, XANTHAM GUM, PAPRIKA POLYSORBATE 80, NATURAL FLAVORS, CALCIUM DISODIUM EDTA (TO PRESERVE FRESHNESS)." Date available: 07/14/2017 Date last updated by company: 07/14/2017
