Source: USDA Branded Food Products Database Release December 2017 Software v.3.8.6.4 2017-10-02
Report Run at: December 18, 2017 15:41 EST
"Nutrient data for: 45225300, 12 JUMBO EGGS, UPC: 041303026571"
Food Group:  Branded Food Products Database
Common Name:

Nutrient,Unit,Data points,Std. Error,"1 EGG = 63.0g",1Value per 100 g,
Proximates
"Energy",kcal,--,--,90,143
"Protein",g,--,--,8.00,12.70
"Total lipid (fat)",g,--,--,6.00,9.52
"Carbohydrate, by difference",g,--,--,0.00,0.00
"Fiber, total dietary",g,--,--,0.0,0.0
"Sugars, total",g,--,--,0.00,0.00
Minerals
"Calcium, Ca",mg,--,--,35,56
"Iron, Fe",mg,--,--,1.00,1.59
"Potassium, K",mg,--,--,87,138
"Sodium, Na",mg,--,--,90,143
Vitamins
Lipids
"Fatty acids, total saturated",g,--,--,1.997,3.170
"Fatty acids, total trans",g,--,--,0.000,0.000
"Cholesterol",mg,--,--,235,373
Amino Acids
Other
Ingredients
"EGGS" Date available: 02/27/2017 Date last updated by company: 02/27/2017
