Source: USDA Branded Food Products Database Release December 2017 Software v.3.8.6.4 2017-10-02
Report Run at: December 17, 2017 20:36 EST
"Nutrient data for: 45205324, 12 MINI CRABCAKES, UPC: 074331905181"
Food Group:  Branded Food Products Database
Common Name:

Nutrient,Unit,Data points,Std. Error,"5.0 PIECES = 106.0g",1Value per 100 g,
Proximates
"Energy",kcal,--,--,210,198
"Protein",g,--,--,13.00,12.26
"Total lipid (fat)",g,--,--,12.00,11.32
"Carbohydrate, by difference",g,--,--,11.00,10.38
"Fiber, total dietary",g,--,--,1.0,0.9
"Sugars, total",g,--,--,1.00,0.94
Minerals
"Calcium, Ca",mg,--,--,80,75
"Iron, Fe",mg,--,--,0.58,0.55
"Sodium, Na",mg,--,--,460,434
Vitamins
"Vitamin C, total ascorbic acid",mg,--,--,2.9,2.7
"Vitamin A, IU",IU,--,--,160,151
Lipids
"Fatty acids, total saturated",g,--,--,2.003,1.890
"Fatty acids, total trans",g,--,--,0.000,0.000
"Cholesterol",mg,--,--,60,57
Amino Acids
Other
Ingredients
"LUMP BLUE CRAB MEAT, BREAD CRUMBS (WHEAT FLOUR, YEAST, EVAPORATED CANE JUICE, SEA SALT), ALL NATURAL MAYONNAISE (SOYBEAN OIL, EGG YOLKS, WATER, DISTILLED VINEGAR, SALT, CIDER VINEGAR, EGG WHITE SOLIDS, OLEORESIN PAPRIKA, NATURAL FLAVOR), WATER, DICED ONION, DICED CELERY, HALF AND HALF CREAMER (CREAM, MILK), POTATO STARCH, CONTAINS 2% OR LESS OF THE FOLLOWING: DISTILLED VINEGAR, MUSTARD SEED, SALT, WHITE WINE, CITRIC ACID, TARTARIC ACID, SPICES, DICED GARLIC, CELERY SEED, PAPRIKA, PARSLEY." Date available: 07/14/2017 Date last updated by company: 07/14/2017
