Source: USDA Branded Food Products Database Release December 2017 Software v.3.8.6.4 2017-10-02
Report Run at: December 17, 2017 00:49 EST
"Nutrient data for: 45085827, 15 BEAN SOUP, UPC: 02511328"
Food Group:  Branded Food Products Database
Common Name:

Nutrient,Unit,Data points,Std. Error,"0.5 CUP COOKED) | (APPROX. = 35.0g",1Value per 100 g,
Proximates
"Energy",kcal,--,--,120,343
"Protein",g,--,--,8.00,22.86
"Total lipid (fat)",g,--,--,0.50,1.43
"Carbohydrate, by difference",g,--,--,20.00,57.14
"Fiber, total dietary",g,--,--,9.0,25.7
"Sugars, total",g,--,--,1.00,2.86
Minerals
"Calcium, Ca",mg,--,--,40,114
"Iron, Fe",mg,--,--,2.57,7.35
"Potassium, K",mg,--,--,470,1343
"Sodium, Na",mg,--,--,70,200
Vitamins
"Vitamin C, total ascorbic acid",mg,--,--,0.0,0.0
"Vitamin A, IU",IU,--,--,0,0
Lipids
"Fatty acids, total saturated",g,--,--,0.000,0.000
"Fatty acids, total trans",g,--,--,0.000,0.000
"Cholesterol",mg,--,--,0,0
Amino Acids
Other
Ingredients
"CONTAINS 15 OF THESE VARIETIES: NORTHERN, PINTO, LARGE LIMA, YELLOWEYE BEAN, GARBANZO, BABY LIMA, GREEN SPLIT PEA, KIDNEY, CRANBERRY BEAN, SMALL WHITE, PINK BEAN, SMALL RED, YELLOW SPLIT PEA, LENTIL, NAVY, WHITE KIDNEY, BLACK BEAN. SEASONING PACKET INGREDIENTS: HYDROLYZED SOY PROTEIN, MALTODEXTRIN, SALT, ARTIFICIAL FLAVORINGS (INCLUDING ARTIFICIAL SMOKE FLAVOR), SILICON DIOXIDE (ADDED LESS THAN 2% AS AN ANTI-CAKING AGENT)." Date available: 07/14/2017 Date last updated by company: 07/14/2017
