Source: USDA Branded Food Products Database Release December 2017 Software v.3.8.6.4 2017-10-02
Report Run at: December 17, 2017 08:19 EST
"Nutrient data for: 45210881, 2 LAYER CAKE, UPC: 851823004061"
Food Group:  Branded Food Products Database
Common Name:

Nutrient,Unit,Data points,Std. Error,"1 SLICE (0.07 OF CAKE) = 92.0g",1Value per 100 g,
Proximates
"Energy",kcal,--,--,340,370
"Protein",g,--,--,2.00,2.17
"Total lipid (fat)",g,--,--,13.00,14.13
"Carbohydrate, by difference",g,--,--,55.00,59.78
"Fiber, total dietary",g,--,--,0.0,0.0
"Sugars, total",g,--,--,41.00,44.57
Minerals
"Calcium, Ca",mg,--,--,0,0
"Iron, Fe",mg,--,--,0.00,0.00
"Sodium, Na",mg,--,--,280,304
Vitamins
"Vitamin C, total ascorbic acid",mg,--,--,0.0,0.0
"Vitamin A, IU",IU,--,--,0,0
Lipids
"Fatty acids, total saturated",g,--,--,2.999,3.260
"Fatty acids, total trans",g,--,--,0.000,0.000
"Cholesterol",mg,--,--,20,22
Amino Acids
Other
Ingredients
"CAKE: SUGAR, WHEAT FOUR (FLOUR, MALTED BARLEY FLOUR, NIACIN, REDUCED IRON, THIAMINE MONONITRATE, RIBOFLAVIN, FOLIC ACID), WATER, EGGS, SOYBEAN OIL, EGG WHITES, HIGH FRUCTOSE CORN SYRUP, LEAVENING (BAKING SODA, SODIUM ACID PYROPHOSPHATE, MONOCALCIUM PHOSPHATE, SODIUM ALUMINUM PHOSPHATE, ALUMINUM SULFATE), NONFAT MILK, MODIFIED CORNSTARCH, SALT, WHEY, WHEAT STARCH, SOY LECITHIN, PALM &/OR PALM KERNEL OILS, MONO-& DIGLYCERIDES, POLYGLYCEROL ESTERS OF FATTY ACIDS, DATEM, WHEAT PROTEIN ISOLATE, PROPYLENE GLYCOL MONOESTERS OF FATS & FATTY ACIDS, POLYSORBATE 60, XANTHAN GUM, NATURAL & ARTIFICIAL FLAVOR, SODIUM CARBOXYMETHYLCELLULOSE, GLYCERIN, YELLOW 5, YELLOW 6, POTASSIUM SORBATE, SODIUM BENZOATE, CARRAGEENAN GUM, CITRIC ACID.; FROSTING: SUGAR, CREAM CHEESE (PASTEURIZED MILK & CREAM, NONFAT MILK, CHEESE CULTURE, SALT, CAROB BEAN GUM, GUAR GUM, XANTHAN GUM, ALGINATE, NATURAL FLAVOR), VEGETABLE OIL (PARTIALLY HYDROGENATED SOY & COTTONSEED), DEXTROSE, MONO & DIGLYCERIDES, CORNSTARCH, SOY OIL, CORN SYRUP SOLIDS, SALT, NATURAL FLAVOR, SODIUM CASEINATE (MILK), BENZOIC ACID, POLYSORBATE 60, LACTIC ACID, PROPYL GALLATE, ARTIFICIAL COLOR, CORNSTARCH, PECANS" Date available: 10/10/2017 Date last updated by company: 10/10/2017
