Source: USDA Branded Food Products Database Release December 2017 Software v.3.8.6.4 2017-10-02
Report Run at: December 17, 2017 20:15 EST
"Nutrient data for: 45264330, 2% MILKFAT COTTAGE CHEESE WITH SEA SALT, UPC: 071043004157"
Food Group:  Branded Food Products Database
Common Name:

Nutrient,Unit,Data points,Std. Error,"0.5 cup = 112.0g",1Value per 100 g,
Proximates
"Energy",kcal,--,--,90,80
"Protein",g,--,--,12.00,10.71
"Total lipid (fat)",g,--,--,2.50,2.23
"Carbohydrate, by difference",g,--,--,5.00,4.46
"Fiber, total dietary",g,--,--,0.0,0.0
"Sugars, total",g,--,--,4.00,3.57
Minerals
"Calcium, Ca",mg,--,--,100,89
"Iron, Fe",mg,--,--,0.00,0.00
"Sodium, Na",mg,--,--,390,348
Vitamins
"Vitamin C, total ascorbic acid",mg,--,--,0.0,0.0
"Vitamin A, IU",IU,--,--,0,0
Lipids
"Fatty acids, total saturated",g,--,--,1.501,1.340
"Fatty acids, total trans",g,--,--,0.000,0.000
"Cholesterol",mg,--,--,10,9
Amino Acids
Other
Ingredients
"CULTURED GRADE A PASTEURIZED NONFAT MILK, MILK, CREAM, SEA SALT, GUAR GUM, MONO AND DIGLYCERIDES, XANTHAN GUM, AND LOCUST BEAN GUM." Date available: 09/12/2017 Date last updated by company: 09/12/2017
