Source: USDA Branded Food Products Database Release December 2017 Software v.3.8.6.4 2017-10-02
Report Run at: December 19, 2017 00:11 EST
"Nutrient data for: 45272712, 20 CARDS & CANDY, UPC: 073168342121"
Food Group:  Branded Food Products Database
Common Name:

Nutrient,Unit,Data points,Std. Error,"1 BAG = 76.0g",1Value per 100 g,
Proximates
"Energy",kcal,--,--,280,368
"Protein",g,--,--,4.00,5.26
"Total lipid (fat)",g,--,--,0.00,0.00
"Carbohydrate, by difference",g,--,--,66.00,86.84
"Fiber, total dietary",g,--,--,0.0,0.0
"Sugars, total",g,--,--,43.00,56.58
Minerals
"Calcium, Ca",mg,--,--,0,0
"Iron, Fe",mg,--,--,0.00,0.00
"Sodium, Na",mg,--,--,20,26
Vitamins
"Vitamin C, total ascorbic acid",mg,--,--,0.0,0.0
"Vitamin A, IU",IU,--,--,0,0
Lipids
"Fatty acids, total saturated",g,--,--,0.000,0.000
"Fatty acids, total trans",g,--,--,0.000,0.000
"Cholesterol",mg,--,--,0,0
Amino Acids
Other
Ingredients
"MALTOSE SYRUP, SUGAR, WATER, GELATIN, MODIFIED CORN STARCH, DEXTROSE, APPLE JUICE CONCENTRATE, CITRIC ACID, MALIC ACID, ARTIFICIAL FLAVOR, PECTIN, TARTARIC ACID, FUMARIC ACID, SODIUM CITRATE, FD&C RED NO. 40" Date available: 07/14/2017 Date last updated by company: 07/14/2017
