Source: USDA Branded Food Products Database Release December 2017 Software v.3.8.6.4 2017-10-02
Report Run at: December 17, 2017 06:29 EST
"Nutrient data for: 45168282, 365 EVERYDAY VALUE, WHOLE WHEAT ENGLISH MUFFINS, UPC: 099482456047"
Food Group:  Branded Food Products Database
Common Name:

Nutrient,Unit,Data points,Std. Error,"1 MUFFIN = 66.0g",1Value per 100 g,
Proximates
"Energy",kcal,--,--,130,197
"Protein",g,--,--,5.00,7.58
"Total lipid (fat)",g,--,--,1.00,1.52
"Carbohydrate, by difference",g,--,--,26.00,39.39
"Fiber, total dietary",g,--,--,4.0,6.1
"Sugars, total",g,--,--,1.00,1.52
Minerals
"Calcium, Ca",mg,--,--,20,30
"Iron, Fe",mg,--,--,1.20,1.82
"Sodium, Na",mg,--,--,260,394
Vitamins
"Vitamin C, total ascorbic acid",mg,--,--,0.0,0.0
"Vitamin A, IU",IU,--,--,0,0
Lipids
"Fatty acids, total saturated",g,--,--,0.000,0.000
"Fatty acids, total trans",g,--,--,0.000,0.000
"Cholesterol",mg,--,--,0,0
Amino Acids
Other
Ingredients
"WHOLE WHEAT FLOUR, WATER, YEAST, CONTAINS 2% OR LESS OF THE FOLLOWING: CORNMEAL, VITAL WHEAT GLUTEN, SALT, SUGAR, HONEY, DISTILLED WHITE VINEGAR, EXPELLER PRESSED PALM OIL, ASCORBIC ACID (VITAMIN C), MICROBIAL ENZYMES, CULTURED WHEAT FLOUR, NONFAT DRY MILK." Date available: 07/14/2017 Date last updated by company: 07/14/2017
