Source: USDA Branded Food Products Database Release December 2017 Software v.3.8.6.4 2017-10-02
Report Run at: December 17, 2017 06:07 EST
"Nutrient data for: 45168208, 365 EVERYDAY VALUE, CHUNKY BLUE CHEESE DRESSING, UPC: 099482453688"
Food Group:  Branded Food Products Database
Common Name:

Nutrient,Unit,Data points,Std. Error,"2.0 Tbsp = 30.0g",1Value per 100 g,
Proximates
"Energy",kcal,--,--,150,500
"Protein",g,--,--,1.00,3.33
"Total lipid (fat)",g,--,--,15.00,50.00
"Carbohydrate, by difference",g,--,--,1.00,3.33
"Sugars, total",g,--,--,1.00,3.33
Minerals
"Calcium, Ca",mg,--,--,40,133
"Sodium, Na",mg,--,--,270,900
Vitamins
Lipids
"Fatty acids, total saturated",g,--,--,3.000,10.000
"Cholesterol",mg,--,--,15,50
Amino Acids
Other
Ingredients
"ORGANIC EXPELLER PRESSED SOYBEAN OIL, WATER, ORGANIC BLUE CHEESE (CULTURED PASTEURIZED ORGANIC MILK, SALT, MICROBIAL ENZYMES), ORGANIC BUTTERMILK, ORGANIC DISTILLED WHITE VINEGAR, ORGANIC EGG YOLKS, CONTAINS LESS THAN 2% OF THE FOLLOWING: ORGANIC CANE SUGAR, SEA SALT, ORGANIC MUSTARD SEED, ORGANIC APPLE CIDER VINEGAR, ORGANIC DRIED GARLIC, SALT, XANTHAN GUM, NATURAL FLAVOR." Date available: 10/13/2017 Date last updated by company: 10/13/2017
