Source: USDA Branded Food Products Database Release December 2017 Software v.3.8.6.4 2017-10-02
Report Run at: December 17, 2017 06:26 EST
"Nutrient data for: 45168106, 365 EVERYDAY VALUE, ROASTED VERDE SALSA, UPC: 099482447908"
Food Group:  Branded Food Products Database
Common Name:

Nutrient,Unit,Data points,Std. Error,"2.0 Tbsp = 30.0g",1Value per 100 g,
Proximates
"Energy",kcal,--,--,10,33
"Protein",g,--,--,0.00,0.00
"Total lipid (fat)",g,--,--,0.00,0.00
"Carbohydrate, by difference",g,--,--,2.00,6.67
"Fiber, total dietary",g,--,--,1.0,3.3
"Sugars, total",g,--,--,1.00,3.33
Minerals
"Calcium, Ca",mg,--,--,0,0
"Iron, Fe",mg,--,--,0.00,0.00
"Potassium, K",mg,--,--,80,267
"Sodium, Na",mg,--,--,150,500
Vitamins
"Vitamin C, total ascorbic acid",mg,--,--,8.0,26.7
"Vitamin A, IU",IU,--,--,166,555
Lipids
"Fatty acids, total saturated",g,--,--,0.000,0.000
"Fatty acids, total trans",g,--,--,0.000,0.000
"Cholesterol",mg,--,--,0,0
Amino Acids
Other
Ingredients
"TOMATILLOS, ROASTED JALAPENO PEPPERS, ROASTED TOMATO PUREE, WATER, ONIONS, SALT, DISTILLED VINEGAR, LIME JUICE, CILANTRO, GARLIC, CUMIN, NATURAL FLAVOR." Date available: 07/14/2017 Date last updated by company: 07/14/2017
