Source: USDA Branded Food Products Database Release December 2017 Software v.3.8.6.4 2017-10-02
Report Run at: December 17, 2017 06:21 EST
"Nutrient data for: 45029396, 365 EVERYDAY VALUE, ORGANIC RAISIN BRAN CEREAL, UPC: 099482439033"
Food Group:  Branded Food Products Database
Common Name:

Nutrient,Unit,Data points,Std. Error,"1 cup = 55.0g",1Value per 100 g,
Proximates
"Energy",kcal,--,--,180,327
"Protein",g,--,--,4.00,7.27
"Total lipid (fat)",g,--,--,1.00,1.82
"Carbohydrate, by difference",g,--,--,44.00,80.00
"Fiber, total dietary",g,--,--,6.0,10.9
"Sugars, total",g,--,--,15.00,27.27
Minerals
"Calcium, Ca",mg,--,--,20,36
"Iron, Fe",mg,--,--,1.44,2.62
"Potassium, K",mg,--,--,240,436
"Sodium, Na",mg,--,--,120,218
Vitamins
"Vitamin C, total ascorbic acid",mg,--,--,0.0,0.0
"Vitamin A, IU",IU,--,--,0,0
Lipids
"Fatty acids, total saturated",g,--,--,0.000,0.000
"Fatty acids, total monounsaturated",g,--,--,0.000,0.000
"Fatty acids, total polyunsaturated",g,--,--,0.000,0.000
"Fatty acids, total trans",g,--,--,0.000,0.000
"Cholesterol",mg,--,--,0,0
Amino Acids
Other
Ingredients
"ORGANIC WHOLE WHEAT (WITH ADDED WHEAT BRAN), ORGANIC RAISINS (ORGANIC RAISINS, ORGANIC EXPELLER PRESSED CANOLA OIL), ORGANIC CANE SUGAR, ORGANIC CANE SYRUP, ORGANIC BARLEY MALT EXTRACT, SEA SALT, MIXED TOCOPHEROLS (VITAMIN E) ADDED TO MAINTAIN FRESHNESS." Date available: 06/24/2017 Date last updated by company: 06/24/2017
