Source: USDA Branded Food Products Database Release December 2017 Software v.3.8.6.4 2017-10-02
Report Run at: December 17, 2017 06:23 EST
"Nutrient data for: 45167939, 365 EVERYDAY VALUE, PART SKIM RICOTTA CHEESE, UPC: 099482436490"
Food Group:  Branded Food Products Database
Common Name:

Nutrient,Unit,Data points,Std. Error,"0.25 cup = 62.0g",1Value per 100 g,
Proximates
"Energy",kcal,--,--,80,129
"Protein",g,--,--,5.00,8.06
"Total lipid (fat)",g,--,--,5.00,8.06
"Carbohydrate, by difference",g,--,--,2.00,3.23
"Fiber, total dietary",g,--,--,0.0,0.0
"Sugars, total",g,--,--,2.00,3.23
Minerals
"Calcium, Ca",mg,--,--,200,323
"Iron, Fe",mg,--,--,0.00,0.00
"Sodium, Na",mg,--,--,80,129
Vitamins
"Vitamin C, total ascorbic acid",mg,--,--,0.0,0.0
"Vitamin A, IU",IU,--,--,266,429
Lipids
"Fatty acids, total saturated",g,--,--,3.001,4.840
"Fatty acids, total trans",g,--,--,0.000,0.000
"Cholesterol",mg,--,--,20,32
Amino Acids
Other
Ingredients
"PASTEURIZED MILK, WHEY (MILK), DISTILLED WHITE VINEGAR, SALT, XANTHAN GUM, LOCUST BEAN GUM, GUAR GUM." Date available: 07/14/2017 Date last updated by company: 07/14/2017
