Source: USDA Branded Food Products Database Release December 2017 Software v.3.8.6.4 2017-10-02
Report Run at: December 17, 2017 06:26 EST
"Nutrient data for: 45167863, 365 EVERYDAY VALUE, SMALL BATCH BREAD CLASSIC WHITE BREAD, UPC: 099482430986"
Food Group:  Branded Food Products Database
Common Name:

Nutrient,Unit,Data points,Std. Error,"1 SLICE = 43.0g",1Value per 100 g,
Proximates
"Energy",kcal,--,--,100,233
"Protein",g,--,--,3.00,6.98
"Total lipid (fat)",g,--,--,1.00,2.33
"Carbohydrate, by difference",g,--,--,20.00,46.51
"Fiber, total dietary",g,--,--,1.0,2.3
"Sugars, total",g,--,--,2.00,4.65
Minerals
"Calcium, Ca",mg,--,--,0,0
"Iron, Fe",mg,--,--,1.26,2.92
"Potassium, K",mg,--,--,30,70
"Sodium, Na",mg,--,--,180,419
Vitamins
"Vitamin C, total ascorbic acid",mg,--,--,1.4,3.3
"Thiamin",mg,--,--,0.000,0.000
"Riboflavin",mg,--,--,0.102,0.237
"Niacin",mg,--,--,1.396,3.247
"Vitamin A, IU",IU,--,--,0,0
Lipids
"Fatty acids, total saturated",g,--,--,0.000,0.000
"Fatty acids, total trans",g,--,--,0.000,0.000
"Cholesterol",mg,--,--,0,0
Amino Acids
Other
Ingredients
"ORGANIC WHEAT FLOUR, WATER, ORGANIC EVAPORATED CANE JUICE, ORGANIC OAT FIBER, ORGANIC EXPELLER PRESSED HIGH OLEIC SUNFLOWER AND/OR SAFFLOWER SEED OIL, ORGANIC POTATO FLOUR, SEA SALT, ORGANIC OAT FLOUR, ORGANIC VINEGAR, YEAST, ORGANIC VITAL WHEAT GLUTEN, ORGANIC CULTURED WHEAT STARCH, ORGANIC WHOLE WHEAT FLOUR, ASCORBIC ACID (VITAMIN C), MICROBIAL ENZYMES." Date available: 07/14/2017 Date last updated by company: 07/14/2017
