Source: USDA Branded Food Products Database Release December 2017 Software v.3.8.6.4 2017-10-02
Report Run at: December 17, 2017 06:20 EST
"Nutrient data for: 45241189, 365 EVERYDAY VALUE, ORGANIC LIQUID STEVIA EXTRACT, UPC: 099482450779"
Food Group:  Branded Food Products Database
Common Name:

Nutrient,Unit,Data points,Std. Error,"4.0 DROPS = 0.13g",1Value per 100 g,
Proximates
"Energy",kcal,--,--,0,0
"Protein",g,--,--,0.00,0.00
"Total lipid (fat)",g,--,--,0.00,0.00
"Carbohydrate, by difference",g,--,--,0.00,0.00
"Sugars, total",g,--,--,0.00,0.00
Minerals
"Sodium, Na",mg,--,--,0,0
Vitamins
Lipids
"Cholesterol",mg,--,--,0,0
Amino Acids
Other
Ingredients
"ORGANIC STEVIA EXTRACT (STEVIA REBAUDIANA) (LEAF) IN A BASE OF DEIONIZED WATER AND 11% ORGANIC ALCOHOL." Date available: 07/14/2017 Date last updated by company: 07/14/2017
