Source: USDA Branded Food Products Database Release December 2017 Software v.3.8.6.4 2017-10-02
Report Run at: December 17, 2017 06:16 EST
"Nutrient data for: 45168073, 365 EVERYDAY VALUE, ORGANIC CAYENNE PEPPER, UPC: 099482445393"
Food Group:  Branded Food Products Database
Common Name:

Nutrient,Unit,Data points,Std. Error,"0.25 tsp = 0.6g",1Value per 100 g,
Proximates
"Energy",kcal,--,--,0,0
"Protein",g,--,--,0.00,0.00
"Total lipid (fat)",g,--,--,0.00,0.00
"Carbohydrate, by difference",g,--,--,0.00,0.00
Minerals
"Sodium, Na",mg,--,--,0,0
Vitamins
"Vitamin A, IU",IU,--,--,16666,2777750
Lipids
Amino Acids
Other
Ingredients
"ORGANIC CAYENNE PEPPER." Date available: 07/14/2017 Date last updated by company: 07/14/2017
