Source: USDA Branded Food Products Database Release December 2017 Software v.3.8.6.4 2017-10-02
Report Run at: December 17, 2017 06:29 EST
"Nutrient data for: 45233368, 365 EVERYDAY VALUE, WHOLE FOODS MARKET, GREEK YOGURT STRAWBERRY, UPC: 099482442125"
Food Group:  Branded Food Products Database
Common Name:

Nutrient,Unit,Data points,Std. Error,"1 CONTAINER = 150.0g",1Value per 100 g,
Proximates
"Energy",kcal,--,--,150,100
"Protein",g,--,--,12.00,8.00
"Total lipid (fat)",g,--,--,0.00,0.00
"Carbohydrate, by difference",g,--,--,25.01,16.67
"Fiber, total dietary",g,--,--,1.1,0.7
"Sugars, total",g,--,--,17.00,11.33
Minerals
"Calcium, Ca",mg,--,--,400,267
"Iron, Fe",mg,--,--,0.00,0.00
"Potassium, K",mg,--,--,280,187
"Sodium, Na",mg,--,--,64,43
Vitamins
"Vitamin C, total ascorbic acid",mg,--,--,4.0,2.7
"Vitamin A, IU",IU,--,--,0,0
Lipids
"Fatty acids, total saturated",g,--,--,0.000,0.000
"Fatty acids, total trans",g,--,--,0.000,0.000
"Cholesterol",mg,--,--,10,7
Amino Acids
Other
Ingredients
"YOGURT (GRADE A PASTEURIZED NONFAT MILK), STRAWBERRY FRUIT PREPARATION (SUGAR, STRAWBERRIES, WATER, PECTIN, NATURAL FLAVORS. LEMON JUICE CONCENTRATE), LIVE AND ACTIVE CULTURES (S. THERMOPHILUS, L. BULGARICUS)." Date available: 07/14/2017 Date last updated by company: 07/14/2017
