Source: USDA Branded Food Products Database Release December 2017 Software v.3.8.6.4 2017-10-02
Report Run at: December 17, 2017 06:20 EST
"Nutrient data for: 45100346, 365 EVERYDAY VALUE, ORGANIC MILK CHOCOLATE, UPC: 099482439170"
Food Group:  Branded Food Products Database
Common Name:

Nutrient,Unit,Data points,Std. Error,"0.5 BAR) | ( = 43.0g",1Value per 100 g,
Proximates
"Energy",kcal,--,--,250,581
"Protein",g,--,--,3.00,6.98
"Total lipid (fat)",g,--,--,18.00,41.86
"Carbohydrate, by difference",g,--,--,20.00,46.51
"Fiber, total dietary",g,--,--,1.0,2.3
"Sugars, total",g,--,--,19.00,44.19
Minerals
"Calcium, Ca",mg,--,--,100,233
"Iron, Fe",mg,--,--,0.42,0.98
"Sodium, Na",mg,--,--,35,81
Vitamins
"Vitamin C, total ascorbic acid",mg,--,--,0.0,0.0
"Vitamin A, IU",IU,--,--,117,271
Lipids
"Fatty acids, total saturated",g,--,--,12.001,27.910
"Fatty acids, total trans",g,--,--,0.000,0.000
"Cholesterol",mg,--,--,5,12
Amino Acids
Other
Ingredients
"ORGANIC CANE SUGAR**, ORGANIC COCA BUTTER**, ORGANIC WHOLE MILK POWDER, ORGANIC CHOCOLATE LIQUOR**, ORGANIC VANILLA EXTRACT**." Date available: 07/14/2017 Date last updated by company: 07/14/2017
