Source: USDA Branded Food Products Database Release December 2017 Software v.3.8.6.4 2017-10-02
Report Run at: December 17, 2017 06:16 EST
"Nutrient data for: 45168181, 365 EVERYDAY VALUE, ORGANIC BLACK FOREST UNCURED HAM, UPC: 099482452629"
Food Group:  Branded Food Products Database
Common Name:

Nutrient,Unit,Data points,Std. Error,"6.0 -7 SLICES) | (ABOUT = 56.0g",1Value per 100 g,
Proximates
"Energy",kcal,--,--,60,107
"Protein",g,--,--,11.00,19.64
"Total lipid (fat)",g,--,--,1.00,1.79
"Carbohydrate, by difference",g,--,--,1.00,1.79
"Fiber, total dietary",g,--,--,0.0,0.0
"Sugars, total",g,--,--,1.00,1.79
Minerals
"Calcium, Ca",mg,--,--,0,0
"Iron, Fe",mg,--,--,0.71,1.26
"Potassium, K",mg,--,--,190,339
"Sodium, Na",mg,--,--,360,643
Vitamins
"Vitamin C, total ascorbic acid",mg,--,--,0.0,0.0
"Vitamin A, IU",IU,--,--,0,0
Lipids
"Fatty acids, total saturated",g,--,--,0.000,0.000
"Fatty acids, total trans",g,--,--,0.000,0.000
"Cholesterol",mg,--,--,35,62
Amino Acids
Other
Ingredients
"ORGANIC PORK, WATER, ORGANIC DISTILLED WHITE VINEGAR, SALT, ORGANIC EVAPORATED CANE SUGAR, ORGANIC MOLASSES, CELERY POWDER, ORGANIC SPICE EXTRACTIVES (ORGANIC CINNAMON, ORGANIC CLOVE, ORGANIC CAPSICUM)." Date available: 07/14/2017 Date last updated by company: 07/14/2017
