Source: USDA Branded Food Products Database Release December 2017 Software v.3.8.6.4 2017-10-02
Report Run at: December 17, 2017 06:06 EST
"Nutrient data for: 45079642, 365 EVERYDAY VALUE, CANNELLINI BEANS, UPC: 099482441661"
Food Group:  Branded Food Products Database
Common Name:

Nutrient,Unit,Data points,Std. Error,"0.5 cup = 130.0g",1Value per 100 g,
Proximates
"Energy",kcal,--,--,100,77
"Protein",g,--,--,6.01,4.62
"Total lipid (fat)",g,--,--,0.49,0.38
"Carbohydrate, by difference",g,--,--,17.00,13.08
"Fiber, total dietary",g,--,--,6.0,4.6
"Sugars, total",g,--,--,1.00,0.77
Minerals
"Calcium, Ca",mg,--,--,40,31
"Iron, Fe",mg,--,--,1.79,1.38
"Potassium, K",mg,--,--,520,400
"Sodium, Na",mg,--,--,5,4
Vitamins
"Vitamin C, total ascorbic acid",mg,--,--,0.0,0.0
"Vitamin A, IU",IU,--,--,0,0
Lipids
"Fatty acids, total saturated",g,--,--,0.000,0.000
"Fatty acids, total trans",g,--,--,0.000,0.000
"Cholesterol",mg,--,--,0,0
Amino Acids
Other
Ingredients
"ORGANIC CANNELLINI BEANS, WATER." Date available: 06/24/2017 Date last updated by company: 06/24/2017
