Source: USDA Branded Food Products Database Release December 2017 Software v.3.8.6.4 2017-10-02
Report Run at: December 17, 2017 06:06 EST
"Nutrient data for: 45167963, 365 EVERYDAY VALUE, BEEF LASAGNA, UPC: 099482438524"
Food Group:  Branded Food Products Database
Common Name:

Nutrient,Unit,Data points,Std. Error,"1 TRAY = 269.0g",1Value per 100 g,
Proximates
"Energy",kcal,--,--,479,178
"Protein",g,--,--,22.00,8.18
"Total lipid (fat)",g,--,--,12.99,4.83
"Carbohydrate, by difference",g,--,--,73.01,27.14
"Fiber, total dietary",g,--,--,12.9,4.8
"Sugars, total",g,--,--,3.01,1.12
Minerals
"Calcium, Ca",mg,--,--,100,37
"Iron, Fe",mg,--,--,3.25,1.21
"Potassium, K",mg,--,--,511,190
"Sodium, Na",mg,--,--,409,152
Vitamins
"Vitamin C, total ascorbic acid",mg,--,--,6.5,2.4
"Vitamin A, IU",IU,--,--,363,135
Lipids
"Fatty acids, total saturated",g,--,--,4.492,1.670
"Fatty acids, total trans",g,--,--,0.000,0.000
"Cholesterol",mg,--,--,30,11
Amino Acids
Other
Ingredients
"ORGANIC WHOLE WHEAT FLOUR, FILTERED WATER, ORGANIC BEEF, ORGANIC CONCENTRATED CRUSHED TOMATOES, ORGANIC ONION, ORGANIC PROVOLONE CHEESE (CULTURED PASTEURIZED ORGANIC MILK, SALT, MICROBIAL ENZYMES [POWDERED CELLULOSE (TO PREVENT CAKING}]), ORGANIC EXPELLER PRESSED CANOLA OIL, ORGANIC GARLIC, ORGANIC BROWN RICE SYRUP, ORGANIC SPINACH, SEA SALT, ORGANIC ONION POWDER, ORGANIC BASIL, ORGANIC BLACK PEPPER, ORGANIC GARLIC POWDER, ORGANIC OREGANO, ORGANIC PARSLEY." Date available: 07/14/2017 Date last updated by company: 07/14/2017
