Source: USDA Branded Food Products Database Release December 2017 Software v.3.8.6.4 2017-10-02
Report Run at: December 17, 2017 06:07 EST
"Nutrient data for: 45168380, 365 EVERYDAY VALUE, CANTINA STYLE SALSA, MILD POBLANO, UPC: 099482461065"
Food Group:  Branded Food Products Database
Common Name:

Nutrient,Unit,Data points,Std. Error,"2.0 Tbsp = 28.0g",1Value per 100 g,
Proximates
"Energy",kcal,--,--,5,18
"Protein",g,--,--,0.00,0.00
"Total lipid (fat)",g,--,--,0.00,0.00
"Carbohydrate, by difference",g,--,--,2.00,7.14
"Fiber, total dietary",g,--,--,0.0,0.0
"Sugars, total",g,--,--,1.00,3.57
Minerals
"Calcium, Ca",mg,--,--,0,0
"Iron, Fe",mg,--,--,0.64,2.29
"Potassium, K",mg,--,--,20,71
"Sodium, Na",mg,--,--,110,393
Vitamins
"Vitamin C, total ascorbic acid",mg,--,--,6.4,22.9
"Vitamin A, IU",IU,--,--,535,1912
Lipids
"Fatty acids, total saturated",g,--,--,0.000,0.000
"Fatty acids, total trans",g,--,--,0.000,0.000
"Cholesterol",mg,--,--,0,0
Amino Acids
Other
Ingredients
"TOMATOES (TOMATOES, TOMATO JUICE, SALT, CITRIC ACID, CALCIUM CHLORIDE), ONION, GREEN BELL PEPPER, CILANTRO, POBLANO PEPPER, VINEGAR, SALT, SEA SALT, GARLIC, LIME JUICE, CITRIC ACID, CUMIN." Date available: 07/14/2017 Date last updated by company: 07/14/2017
