Source: USDA Branded Food Products Database Release December 2017 Software v.3.8.6.4 2017-10-02
Report Run at: December 17, 2017 06:08 EST
"Nutrient data for: 45167981, 365 EVERYDAY VALUE, COFFEE CREAMER, HAZELNUT NATURALLY FLAVORED, UPC: 099482439408"
Food Group:  Branded Food Products Database
Common Name:

Nutrient,Unit,Data points,Std. Error,"1 Tbsp = 15.0g",1Value per 100 g,
Proximates
"Energy",kcal,--,--,35,233
"Protein",g,--,--,0.00,0.00
"Total lipid (fat)",g,--,--,1.50,10.00
"Carbohydrate, by difference",g,--,--,5.00,33.33
"Fiber, total dietary",g,--,--,0.0,0.0
"Sugars, total",g,--,--,5.00,33.33
Minerals
"Calcium, Ca",mg,--,--,20,133
"Iron, Fe",mg,--,--,0.00,0.00
"Potassium, K",mg,--,--,25,167
"Sodium, Na",mg,--,--,25,167
Vitamins
"Vitamin C, total ascorbic acid",mg,--,--,0.0,0.0
"Vitamin A, IU",IU,--,--,0,0
Lipids
"Fatty acids, total saturated",g,--,--,0.000,0.000
"Fatty acids, total trans",g,--,--,0.000,0.000
"Cholesterol",mg,--,--,0,0
Amino Acids
Other
Ingredients
"ORGANIC NONFAT MILK, ORGANIC CANE SUGAR, ORGANIC EXPELLER PRESSED SOYBEAN OIL, SOY LECITHIN (EMULSIFIER), NATURAL FLAVORS, SODIUM PHOSPHATE, SODIUM CITRATE, LACTASE ENZYME, CARRAGEENAN." Date available: 07/14/2017 Date last updated by company: 07/14/2017
