Source: USDA Branded Food Products Database Release December 2017 Software v.3.8.6.4 2017-10-02
Report Run at: December 17, 2017 06:10 EST
"Nutrient data for: 45168065, 365 EVERYDAY VALUE, FISH FILLETS, UPC: 099482444242"
Food Group:  Branded Food Products Database
Common Name:

Nutrient,Unit,Data points,Std. Error,"1 FILLET = 65.0g",1Value per 100 g,
Proximates
"Energy",kcal,--,--,130,200
"Protein",g,--,--,6.00,9.23
"Total lipid (fat)",g,--,--,6.00,9.23
"Carbohydrate, by difference",g,--,--,12.00,18.46
"Fiber, total dietary",g,--,--,0.0,0.0
"Sugars, total",g,--,--,0.00,0.00
Minerals
"Calcium, Ca",mg,--,--,0,0
"Iron, Fe",mg,--,--,0.94,1.45
"Potassium, K",mg,--,--,70,108
"Sodium, Na",mg,--,--,240,369
Vitamins
"Vitamin C, total ascorbic acid",mg,--,--,0.0,0.0
"Vitamin A, IU",IU,--,--,0,0
Lipids
"Fatty acids, total saturated",g,--,--,1.001,1.540
"Fatty acids, total monounsaturated",g,--,--,1.502,2.310
"Fatty acids, total polyunsaturated",g,--,--,3.497,5.380
"Fatty acids, total trans",g,--,--,0.000,0.000
"Cholesterol",mg,--,--,20,31
Amino Acids
Other
Ingredients
"POLLOCK, UNBLEACHED ENRICHED WHEAT FLOUR (WHEAT FLOUR, NIACIN, FERROUS SULFATE, THIAMINE MONONITRATE, RIBOFLAVIN, FOLIC ACID), CANOLA OIL, WATER, ENRICHED WHEAT FLOUR (WHEAT FLOUR, NIACIN, REDUCED IRON, THIAMINE MONONITRATE, RIBOFLAVIN, FOLIC ACID), MODIFIED CORNSTARCH, CONTAINS 2% OR LESS OF: SUGAR*, WHEAT STARCH, SALT, LEAVENING (SODIUM ACID PYROPHOSPHATE, SODIUM BICARBONATE), WHEY (MILK), YEAST, ONION POWDER." Date available: 07/14/2017 Date last updated by company: 07/14/2017
