Source: USDA Branded Food Products Database Release December 2017 Software v.3.8.6.4 2017-10-02
Report Run at: December 18, 2017 14:31 EST
"Nutrient data for: 45159401, 3J FOODS, ROASTED SEAWEED WITH SESAME OIL, UPC: 809023461528"
Food Group:  Branded Food Products Database
Common Name:

Nutrient,Unit,Data points,Std. Error,"10.0 PIECES = 5.0g",1Value per 100 g,
Proximates
"Energy",kcal,--,--,30,600
"Protein",g,--,--,1.00,20.00
"Total lipid (fat)",g,--,--,2.00,40.00
"Carbohydrate, by difference",g,--,--,1.00,20.00
Minerals
"Sodium, Na",mg,--,--,65,1300
Vitamins
"Vitamin C, total ascorbic acid",mg,--,--,36.0,720.0
"Vitamin A, IU",IU,--,--,12500,250000
Lipids
Amino Acids
Other
Ingredients
"SEAWEED, SESAME OIL, SALT." Date available: 10/13/2017 Date last updated by company: 10/13/2017
