Source: USDA Branded Food Products Database Release December 2017 Software v.3.8.6.4 2017-10-02
Report Run at: December 19, 2017 01:40 EST
"Nutrient data for: 45190001, 4 CHEESE BLEND RISING CRUST PIZZA, UPC: 018894315971"
Food Group:  Branded Food Products Database
Common Name:

Nutrient,Unit,Data points,Std. Error,"0.167 PIZZA = 133.0g",1Value per 100 g,
Proximates
"Energy",kcal,--,--,290,218
"Protein",g,--,--,12.00,9.02
"Total lipid (fat)",g,--,--,9.00,6.77
"Carbohydrate, by difference",g,--,--,41.00,30.83
"Fiber, total dietary",g,--,--,2.0,1.5
"Sugars, total",g,--,--,5.00,3.76
Minerals
"Calcium, Ca",mg,--,--,200,150
"Iron, Fe",mg,--,--,1.05,0.79
"Sodium, Na",mg,--,--,801,602
Vitamins
"Vitamin C, total ascorbic acid",mg,--,--,7.0,5.3
"Vitamin A, IU",IU,--,--,440,331
Lipids
"Fatty acids, total saturated",g,--,--,4.003,3.010
"Fatty acids, total trans",g,--,--,0.000,0.000
"Cholesterol",mg,--,--,20,15
Amino Acids
Other
Ingredients
"CRUST (WHEAT FLOUR, WATER, SOYBEAN OIL, SUGAR, SALT, YEAST, LEAVENING [SODIUM BICARBONATE, SODIUM ALUMINIUM PHOSPHATE], NATURAL & ARTIFICIAL FLAVOR, CORN MEAL & SOY LECITHIN), CHEESES (LOW MOISTURE PART SKIM MOZZARELLA CHEESE [PASTEURIZED PART SKIM MILK, CHEESE CULTURES, SALT, ENZYMES], PARMESAN AND ROMANO CHEESE BLEND [BOTH MADE FROM PASTEURIZED COW'S MILK, CHEESE CULTURES, SALT, ENZYMES], ASIAGO CHEESE [PASTEURIZED MILK, CHEESE CULTURES, SALT, ENZYMES]), SAUCE (WATER, TOMATO PASTE, SALT, SPICES, DEHYDRATED GARLIC, NATURAL FLAVORS, SUGAR, MALIC ACID)." Date available: 07/14/2017 Date last updated by company: 07/14/2017
