Source: USDA Branded Food Products Database Release December 2017 Software v.3.8.6.4 2017-10-02
Report Run at: December 19, 2017 01:48 EST
"Nutrient data for: 45293218, 4 COUNT WHOOPIE PIES STRAWBERRY, UPC: 041144553700"
Food Group:  Branded Food Products Database
Common Name:

Nutrient,Unit,Data points,Std. Error,"1 WHOOPIE PIE = 113.0g",1Value per 100 g,
Proximates
"Energy",kcal,--,--,490,434
"Protein",g,--,--,2.99,2.65
"Total lipid (fat)",g,--,--,24.00,21.24
"Carbohydrate, by difference",g,--,--,66.00,58.41
"Fiber, total dietary",g,--,--,1.0,0.9
"Sugars, total",g,--,--,49.00,43.36
Minerals
"Calcium, Ca",mg,--,--,20,18
"Iron, Fe",mg,--,--,0.47,0.42
"Sodium, Na",mg,--,--,431,381
Vitamins
"Vitamin C, total ascorbic acid",mg,--,--,0.0,0.0
"Vitamin A, IU",IU,--,--,0,0
Lipids
"Fatty acids, total saturated",g,--,--,6.995,6.190
"Fatty acids, total trans",g,--,--,0.000,0.000
"Cholesterol",mg,--,--,45,40
Amino Acids
Other
Ingredients
"SUGAR, SOYBEAN OIL, ENRICHED FLOUR BLEACHED (WHEAT FLOUR, MALTED BARLEY FLOUR, NIACIN, REDUCED IRON, THIAMINE, RIBOFLAVIN, FOLIC ACID), EGGS, VEGETABLE SHORTENING (INTERESTERIFIED SOYBEAN OIL, HYDROGENATED PALM OIL, MONO- AND DIGLYCERIDES, POLYSORBATE 60, TBHQ, CITRIC ACID), PALM OIL, WHEAT STARCH, WHEY, FOOD STARCH-MODIFIED, LEAVENING (BAKING SODA, SODIUM ALUMINUM PHOSPHATE, SODIUM ACID PYROPHOSPHATE, MONOCALCIUM PHOSPHATE, MONOCALCIUM PHOSPHATE), SALT, CORN STARCH, EMULSIFIER BLEND(PROPYLENE GLYCOL MONOESTERS OF FATS AND FATTY ACIDS, MONO- AND DIGLYCERIDES, SOY LECITHIN, BHT, CITRIC ACID PRESERVATIVE), DEGERMINATED YELLOW CORN FLOUR, PROPYLENE GLYCOL, DEXTROSE, WHEAT GLUTEN, CELLULOSE GUM, SODIUM STEAROYL LACTYLATE, XANTHAN GUM, GUAR GUM, NATURAL AND ARTIFICIAL FLAVORS, ETHYL ALCOHOL, EGG YOLKS, SOY LECITHIN, RED 40, WHEAT FLOUR, TRIACETIN, BLUE 1, BETA-CAROTENE COLOR," Date available: 07/14/2017 Date last updated by company: 07/14/2017
