Source: USDA Branded Food Products Database Release December 2017 Software v.3.8.6.4 2017-10-02
Report Run at: December 15, 2017 22:27 EST
"Nutrient data for: 45207597, 5 ADORABLE ASSORTED TRUFFLE PIG CHOCOLATES, UPC: 031044041100"
Food Group:  Branded Food Products Database
Common Name:

Nutrient,Unit,Data points,Std. Error,"2.0 pieces = 23.0g",1Value per 100 g,
Proximates
"Energy",kcal,--,--,130,565
"Protein",g,--,--,2.00,8.70
"Total lipid (fat)",g,--,--,9.00,39.13
"Carbohydrate, by difference",g,--,--,11.00,47.83
"Fiber, total dietary",g,--,--,1.0,4.3
"Sugars, total",g,--,--,10.00,43.48
Minerals
"Calcium, Ca",mg,--,--,40,174
"Iron, Fe",mg,--,--,1.57,6.81
"Sodium, Na",mg,--,--,20,87
Vitamins
"Vitamin C, total ascorbic acid",mg,--,--,0.0,0.0
"Vitamin A, IU",IU,--,--,0,0
Lipids
"Fatty acids, total saturated",g,--,--,5.000,21.740
"Fatty acids, total trans",g,--,--,0.000,0.000
"Cholesterol",mg,--,--,5,22
Amino Acids
Other
Ingredients
"SUGAR, COCOA BUTTER, COCOA MASS, WHOLE MILK POWDER, CORN SYRUP, PEANUTS, COCONUT OIL, SKIM MILK POWDER, BUTTER OIL, HAZELNUT BUTTER, CREAM, SWEETENED CONDENSED MILK, SOYA LECITHIN, DEXTROSE, PALM OIL, NATURAL FLAVOURS, SALT, TOCOPHEROLS." Date available: 07/14/2017 Date last updated by company: 07/14/2017
