Source: USDA Branded Food Products Database Release December 2017 Software v.3.8.6.4 2017-10-02
Report Run at: December 18, 2017 06:50 EST
"Nutrient data for: 45061184, 5-STAR BARBECUE SAUCE, UPC: 022531189016"
Food Group:  Branded Food Products Database
Common Name:

Nutrient,Unit,Data points,Std. Error,"2.0 Tbsp = 32.0g",1Value per 100 g,
Proximates
"Energy",kcal,--,--,45,141
"Protein",g,--,--,1.00,3.12
"Total lipid (fat)",g,--,--,0.00,0.00
"Carbohydrate, by difference",g,--,--,10.00,31.25
"Fiber, total dietary",g,--,--,1.0,3.1
"Sugars, total",g,--,--,9.00,28.12
Minerals
"Calcium, Ca",mg,--,--,20,62
"Iron, Fe",mg,--,--,0.61,1.90
"Sodium, Na",mg,--,--,190,594
Vitamins
"Vitamin C, total ascorbic acid",mg,--,--,6.1,19.0
"Vitamin A, IU",IU,--,--,169,528
Lipids
"Fatty acids, total saturated",g,--,--,0.000,0.000
"Fatty acids, total trans",g,--,--,0.000,0.000
"Cholesterol",mg,--,--,0,0
Amino Acids
Other
Ingredients
"BROWN SUGAR, WATER, TOMATO PASTE, MUSTARD (DISTILLED VINEGAR, WATER, MUSTARD SEED, SALT, TURMERIC, PAPRIKA, SPICE, GARLIC POWDER), ONIONS, VINEGAR, SOY SAUCE (WATER, WHEAT, SOYBEANS, SALT), WORCESTERSHIRE SAUCE (DISTILLED VINEGAR, MOLASSES, CORN SYRUP, WATER, SALT, CARAMEL COLOR, GARLIC POWDER, SUGAR, SPICES, TAMARIND, NATURAL FLAVOR), CELERY, BELL PEPPER, SALT, LEMON JUICE, SPICES, JALAPENO PEPPERS, GARLIC POWDER, ORANGE PEEL, NATURAL HICKORY SMOKE, CORN STARCH, XANTHAN GUM (A NATURAL THICKENER), CILANTRO, AND CARAMEL COLOR." Date available: 07/14/2017 Date last updated by company: 07/14/2017
