Source: USDA Branded Food Products Database Release December 2017 Software v.3.8.6.4 2017-10-02
Report Run at: December 18, 2017 08:33 EST
"Nutrient data for: 45319750, 5, SUGARFREE GUM, WATERMELON PRISM, UPC: 022000116024"
Food Group:  Branded Food Products Database
Common Name:

Nutrient,Unit,Data points,Std. Error,"1 STICK = 2.7g",1Value per 100 g,
Proximates
"Energy",kcal,--,--,5,185
"Protein",g,--,--,0.00,0.00
"Total lipid (fat)",g,--,--,0.00,0.00
"Carbohydrate, by difference",g,--,--,2.00,74.07
"Sugars, total",g,--,--,0.00,0.00
Minerals
"Sodium, Na",mg,--,--,0,0
Vitamins
Lipids
Amino Acids
Other
Ingredients
"MADE OF SORBITOL GUM BASE, GLYCEROL, NATURAL AND ARTIFICIAL FLAVORS; LESS THAN 2% OF HYDROGENATED STARCH HYDROLYSATE, CITRIC ACID, ASPANTAME-ACUSULFAME, SOY LECITHIN, MALIC ACID, MANNITOL, FUMARIC ACID, ASPARTAME, ACESULFAME COLORS (RED 40, RED 40 LAKE), BHT (TO MAINTAIN FRESHNESS)." Date available: 06/25/2017 Date last updated by company: 06/25/2017
