Source: USDA Branded Food Products Database Release December 2017 Software v.3.8.6.4 2017-10-02
Report Run at: December 17, 2017 03:02 EST
"Nutrient data for: 45191119, 6 BIG MINT DIPPERS, UPC: 070778820056"
Food Group:  Branded Food Products Database
Common Name:

Nutrient,Unit,Data points,Std. Error,"1 BAR = 66.0g",1Value per 100 g,
Proximates
"Energy",kcal,--,--,170,258
"Protein",g,--,--,2.00,3.03
"Total lipid (fat)",g,--,--,9.00,13.64
"Carbohydrate, by difference",g,--,--,20.00,30.30
"Fiber, total dietary",g,--,--,1.0,1.5
"Sugars, total",g,--,--,15.00,22.73
Minerals
"Calcium, Ca",mg,--,--,60,91
"Iron, Fe",mg,--,--,0.00,0.00
"Sodium, Na",mg,--,--,45,68
Vitamins
"Vitamin C, total ascorbic acid",mg,--,--,0.0,0.0
"Vitamin A, IU",IU,--,--,0,0
Lipids
"Fatty acids, total saturated",g,--,--,7.999,12.120
"Fatty acids, total trans",g,--,--,0.000,0.000
"Cholesterol",mg,--,--,10,15
Amino Acids
Other
Ingredients
"FROZEN DAIRY DESSERT: NONFAT MILK, SUGAR, CORN SYRUP, SWEETCREAM BUTTERMILK, CREAM, HIGH FRUCTOSE CORN SYRUP, WHEY PROTEIN CONCENTRATE, WHEY, CONTAINS LESS THAN 2% OF NATURAL FLAVOR, GUAR GUM, MONO AND DIGLYCERIDES, XANTHAN GUM, POLYSORBATE 80, CARRAGEENAN, YELLOW #5, BLUE #1, ANNATTO (COLOR). COATING: COCONUT OIL, SUGAR, NATURAL COCOA AND COCOA (PROCESSED WITH ALKALI), WHEY, NONFAT MILK, CHOCOLATE LIQUOR, SOYBEAN OIL, SOY LECITHIN, NATURAL AND ARTIFICIAL FLAVOR." Date available: 07/14/2017 Date last updated by company: 07/14/2017
