Source: USDA Branded Food Products Database Release December 2017 Software v.3.8.6.4 2017-10-02
Report Run at: December 18, 2017 22:37 EST
"Nutrient data for: 45259981, 7"""" CAKE, UPC: 748924602770"
Food Group:  Branded Food Products Database
Common Name:

Nutrient,Unit,Data points,Std. Error,"4.0 ONZ = 113.0g",1Value per 100 g,
Proximates
"Energy",kcal,--,--,470,416
"Protein",g,--,--,4.00,3.54
"Total lipid (fat)",g,--,--,32.00,28.32
"Carbohydrate, by difference",g,--,--,41.00,36.28
"Fiber, total dietary",g,--,--,1.0,0.9
"Sugars, total",g,--,--,25.00,22.12
Minerals
"Calcium, Ca",mg,--,--,40,35
"Iron, Fe",mg,--,--,1.20,1.06
"Sodium, Na",mg,--,--,260,230
Vitamins
"Vitamin C, total ascorbic acid",mg,--,--,0.0,0.0
"Vitamin A, IU",IU,--,--,829,734
Lipids
"Fatty acids, total saturated",g,--,--,12.995,11.500
"Fatty acids, total trans",g,--,--,0.000,0.000
"Cholesterol",mg,--,--,60,53
Amino Acids
Other
Ingredients
"CREAM CHEESE (PASTEURIZED MILK AND CREAM, CHEESE CULTURE, SALT, CAROB BEAN GUM), CAKE BASE (SUGAR, ENRICHED BLEACHED FLOUR [WHEAT FLOUR, NIACIN, IRON, THIAMIN, MONONITRATE RIBOFLAVIN, FOLIC ACID], SOYBEAN OIL, MODIFIED CORN STARCH, WHEY, PROPYLENE GLYCOL MONOESTERS OF FATTY ACIDS, MONO AND DIGLYCERIDES, LEAVAENING [BAKING SODA, SODIUM ALUMINUM PHOSPHATE], VITAL WHEAT GLUTEN, SALT, SODIUM STEAROYL LACTYLATE, GUAR GUM, XANTHAN GUM, NATURAL AND ARTIFICIAL FLAVOR, EGG, SOY FLOUR), SUGAR, SOYBEAN OIL, WATER, CORN SYRUP, PALM AND HYDROGENATED PALM OIL, EGGS, CONTAINS LESS THAN 2% OF THE FOLLOWING: RED COLOR (WATER, PROPYLENE GLYCOL, FD&C RED 40 LAKE, FD&C RED 40, FD&C YELLOW 5, XANTHAN GUM, FD&C RED 3), FOOD STARCH MODIFIED, COCOA POWDER, MONO AND DIGLYCERIDES, SOYBEAN LECITHIN, PROPYLENE GLYCOL MONO AND DIESTERS OF FATTY ACIDS, GLYCERYL LACTO ESTERS OF FATTY ACIDS, BUTTER EMULSION (ARTIFICIAL BUTTER FLAVOR, PROPYLENE GLYCOL, WATER, VEGETABLE GUM), POLYSORBATE 60, POTASSIUM SORBATE & SODIUM BENZOATE (PRESERVATIVES), NATURAL & ARTIFICIAL FLAVORS, DEXTROSE, SALT, TITANIUM DIOXIDE, CARRAGEENAN, GLUCONO DELTA LACTONE CORN STARCH, FD&C YELLOW 5, YELLOW 6, ANNATTO COLOR, VITAMIN A PALMITATE, CARAMEL COLOR." Date available: 10/10/2017 Date last updated by company: 10/10/2017
