Source: USDA Branded Food Products Database Release December 2017 Software v.3.8.6.4 2017-10-02
Report Run at: December 17, 2017 08:38 EST
"Nutrient data for: 45186957, 7 FISHES, I.Q.F. SWAI BELLY FLAP NUGGETS, UPC: 860211000127"
Food Group:  Branded Food Products Database
Common Name:

Nutrient,Unit,Data points,Std. Error,"100.0 GRM = 100.0g",1Value per 100 g,
Proximates
"Energy",kcal,--,--,552,552
"Protein",g,--,--,7.20,7.20
"Total lipid (fat)",g,--,--,58.10,58.10
"Carbohydrate, by difference",g,--,--,0.00,0.00
"Fiber, total dietary",g,--,--,0.0,0.0
"Sugars, total",g,--,--,0.00,0.00
Minerals
"Calcium, Ca",mg,--,--,5,5
"Iron, Fe",mg,--,--,0.13,0.13
"Sodium, Na",mg,--,--,33,33
Vitamins
"Vitamin C, total ascorbic acid",mg,--,--,0.0,0.0
"Vitamin A, IU",IU,--,--,0,0
Lipids
"Fatty acids, total saturated",g,--,--,25.900,25.900
"Fatty acids, total trans",g,--,--,0.900,0.900
"Cholesterol",mg,--,--,148,148
Amino Acids
Other
Ingredients
"SWAI BELLY FLAP" Date available: 05/31/2017 Date last updated by company: 05/31/2017
