Source: USDA Branded Food Products Database Release December 2017 Software v.3.8.6.4 2017-10-02
Report Run at: December 18, 2017 00:19 EST
"Nutrient data for: 45026797, 7 GRAIN HOT CEREAL, UPC: 039978001078"
Food Group:  Branded Food Products Database
Common Name:

Nutrient,Unit,Data points,Std. Error,"0.25 cup = 41.0g",1Value per 100 g,
Proximates
"Energy",kcal,--,--,140,341
"Protein",g,--,--,6.00,14.63
"Total lipid (fat)",g,--,--,1.50,3.66
"Carbohydrate, by difference",g,--,--,28.00,68.29
"Fiber, total dietary",g,--,--,6.0,14.6
"Sugars, total",g,--,--,1.00,2.44
Minerals
"Calcium, Ca",mg,--,--,20,49
"Iron, Fe",mg,--,--,1.40,3.42
"Sodium, Na",mg,--,--,0,0
Vitamins
"Vitamin C, total ascorbic acid",mg,--,--,0.0,0.0
"Vitamin A, IU",IU,--,--,0,0
Lipids
"Fatty acids, total saturated",g,--,--,0.000,0.000
"Fatty acids, total trans",g,--,--,0.000,0.000
"Cholesterol",mg,--,--,0,0
Amino Acids
Other
Ingredients
"WHOLE GRAIN WHEAT, RYE, OATS, TRITICALE (WHEAT), BARLEY, BROWN RICE, OAT BRAN AND FLAXSEED." Date available: 10/04/2017 Date last updated by company: 10/04/2017
