Source: USDA Branded Food Products Database Release December 2017 Software v.3.8.6.4 2017-10-02
Report Run at: December 18, 2017 00:18 EST
"Nutrient data for: 45333286, 7 - GRAIN BAGUETTE, UPC: 043832123509"
Food Group:  Branded Food Products Database
Common Name:

Nutrient,Unit,Data points,Std. Error,"1 ONZ = 28.0g",1Value per 100 g,
Proximates
"Energy",kcal,--,--,50,179
"Protein",g,--,--,3.00,10.71
"Total lipid (fat)",g,--,--,0.00,0.00
"Carbohydrate, by difference",g,--,--,11.00,39.29
"Fiber, total dietary",g,--,--,2.0,7.1
"Sugars, total",g,--,--,1.00,3.57
Minerals
"Calcium, Ca",mg,--,--,0,0
"Iron, Fe",mg,--,--,0.64,2.29
"Sodium, Na",mg,--,--,170,607
Vitamins
"Vitamin C, total ascorbic acid",mg,--,--,0.0,0.0
"Vitamin A, IU",IU,--,--,0,0
Lipids
"Fatty acids, total saturated",g,--,--,0.000,0.000
"Fatty acids, total trans",g,--,--,0.000,0.000
"Cholesterol",mg,--,--,0,0
Amino Acids
Other
Ingredients
"WHOLE SPROUTED GRAINS OF RED WHEAT BERRIES, QUINOA, OAT GROATS, RYE BERRIES, BARLEY, AMARANTH, AND MILLET, WATER, 100% WHOLE WHEAT FLOUR, VITAL WHEAT GLUTEN, OAT FIBER, SALT, ORGANIC HONEY, CULTURED WHEAT, YEAST, MOLASSES." Date available: 10/13/2017 Date last updated by company: 10/13/2017
