Source: USDA Branded Food Products Database Release December 2017 Software v.3.8.6.4 2017-10-02
Report Run at: December 17, 2017 20:06 EST
"Nutrient data for: 45137693, 7-SELECT, SODA, BERRY, UPC: 052548504526"
Food Group:  Branded Food Products Database
Common Name:

Nutrient,Unit,Data points,Std. Error,"8.0 OZA = 240.0g",1Value per 100 g,
Proximates
"Energy",kcal,--,--,134,56
"Protein",g,--,--,0.00,0.00
"Total lipid (fat)",g,--,--,0.00,0.00
"Carbohydrate, by difference",g,--,--,33.00,13.75
"Sugars, total",g,--,--,33.00,13.75
Minerals
"Sodium, Na",mg,--,--,24,10
Vitamins
Lipids
Amino Acids
Other
Ingredients
"CARBONATED WATER, HIGH FRUCTOSE CORN SYRUP, CITRIC ACID, SODIUM BENZOATE (PRESERVATIVE), NATURAL AND ARTIFICIAL FLAVORS, RED #40, AND BLUE #1." Date available: 07/14/2017 Date last updated by company: 07/14/2017
