Source: USDA Branded Food Products Database Release December 2017 Software v.3.8.6.4 2017-10-02
Report Run at: December 17, 2017 20:05 EST
"Nutrient data for: 45164354, 7 SELECT, POTATO CHIPS, HOT ITALIAN SAUSAGE, UPC: 052548565909"
Food Group:  Branded Food Products Database
Common Name:

Nutrient,Unit,Data points,Std. Error,"24.0 CHIPS | ABOUT = 28.0g",1Value per 100 g,
Proximates
"Energy",kcal,--,--,150,536
"Protein",g,--,--,2.00,7.14
"Total lipid (fat)",g,--,--,10.00,35.71
"Carbohydrate, by difference",g,--,--,15.00,53.57
"Fiber, total dietary",g,--,--,1.0,3.6
"Sugars, total",g,--,--,2.00,7.14
Minerals
"Calcium, Ca",mg,--,--,0,0
"Iron, Fe",mg,--,--,0.64,2.29
"Magnesium, Mg",mg,--,--,29,102
"Phosphorus, P",mg,--,--,71,255
"Potassium, K",mg,--,--,260,929
"Sodium, Na",mg,--,--,210,750
"Zinc, Zn",mg,--,--,0.30,1.07
"Copper, Cu",mg,--,--,0.160,0.571
"Manganese, Mn",mg,--,--,0.000,0.000
Vitamins
"Vitamin C, total ascorbic acid",mg,--,--,16.1,57.4
"Thiamin",mg,--,--,0.000,0.000
"Niacin",mg,--,--,1.428,5.100
"Pantothenic acid",mg,--,--,0.400,1.429
"Vitamin B-6",mg,--,--,0.357,1.276
"Vitamin A, IU",IU,--,--,179,638
Lipids
"Fatty acids, total saturated",g,--,--,1.501,5.360
"Fatty acids, total monounsaturated",g,--,--,2.500,8.930
"Fatty acids, total polyunsaturated",g,--,--,6.000,21.430
"Fatty acids, total trans",g,--,--,0.000,0.000
"Cholesterol",mg,--,--,0,0
Amino Acids
Other
Ingredients
"POTATOES, VEGETABLE OIL (CONTAINS ONE OR MORE OF THE FOLLOWING: CORN, SUNFLOWER, OR CANOLA OIL), SALT, DEXTROSE, ONION POWDER, SPICE, TOMATO POWDER, MALTODEXTRIN (FROM CORN), MONOSODIUM GLUTAMATE, TORULA YEAST, GARLIC POWDER, DEHYDRATED GREEN BELL PEPPER, GUM ARABIC, YEAST EXTRACT, NATURAL & ARTIFICIAL FLAVOR, OLIVE OIL, MEDIUM CHAIN TRIGLYCERIDES (COCONUT AND/OR PALM KERNEL OIL), PAPRIKA OLEORESIN (COLOR), CITRIC ACID, AND SMOKE FLAVORING." Date available: 07/14/2017 Date last updated by company: 07/14/2017
