Source: USDA Branded Food Products Database Release December 2017 Software v.3.8.6.4 2017-10-02
Report Run at: December 19, 2017 05:49 EST
"Nutrient data for: 45105916, 72% DARK CHOCOLATE WITH SEA SALT AND CARAMEL, UPC: 692774005864"
Food Group:  Branded Food Products Database
Common Name:

Nutrient,Unit,Data points,Std. Error,"10.0 SQUARES = 42.0g",1Value per 100 g,
Proximates
"Energy",kcal,--,--,230,548
"Protein",g,--,--,4.00,9.52
"Total lipid (fat)",g,--,--,18.00,42.86
"Carbohydrate, by difference",g,--,--,16.00,38.10
"Fiber, total dietary",g,--,--,3.0,7.1
"Sugars, total",g,--,--,11.00,26.19
Minerals
"Calcium, Ca",mg,--,--,20,48
"Iron, Fe",mg,--,--,0.64,1.53
"Sodium, Na",mg,--,--,2,5
Vitamins
"Vitamin C, total ascorbic acid",mg,--,--,1.4,3.4
"Vitamin A, IU",IU,--,--,0,0
Lipids
"Fatty acids, total saturated",g,--,--,11.000,26.190
"Fatty acids, total trans",g,--,--,0.000,0.000
"Cholesterol",mg,--,--,0,0
Amino Acids
Other
Ingredients
"ORGANIC COCOA MASS*, ORGANIC RAW CANE SUGAR*, SEA SALT* (<1%), NATURAL CARAMEL FLAVOR* (<1%), SOY LECITHIN (AN EMULSIFIER), ORGANIC FAT-REDUCED COCOA POWDER*." Date available: 06/25/2017 Date last updated by company: 06/25/2017
