Source: USDA Branded Food Products Database Release December 2017 Software v.3.8.6.4 2017-10-02
Report Run at: December 18, 2017 23:24 EST
"Nutrient data for: 45152900, 75% COCOA SUPERIOR DARK CHOCOLATES, UPC: 088468573038"
Food Group:  Branded Food Products Database
Common Name:

Nutrient,Unit,Data points,Std. Error,"5.0 PIECES = 38.0g",1Value per 100 g,
Proximates
"Energy",kcal,--,--,210,553
"Protein",g,--,--,3.00,7.89
"Total lipid (fat)",g,--,--,17.00,44.74
"Carbohydrate, by difference",g,--,--,9.00,23.68
"Fiber, total dietary",g,--,--,4.0,10.5
"Sugars, total",g,--,--,8.00,21.05
Minerals
"Calcium, Ca",mg,--,--,20,53
"Iron, Fe",mg,--,--,0.00,0.00
"Sodium, Na",mg,--,--,0,0
Vitamins
"Vitamin C, total ascorbic acid",mg,--,--,0.0,0.0
"Vitamin A, IU",IU,--,--,0,0
Lipids
"Fatty acids, total saturated",g,--,--,11.001,28.950
"Fatty acids, total trans",g,--,--,0.000,0.000
"Cholesterol",mg,--,--,0,0
Amino Acids
Other
Ingredients
"COCOA BEANS, SUGAR, COCOA BUTTER, BOURBON VANILLA." Date available: 07/14/2017 Date last updated by company: 07/14/2017
