Source: USDA Branded Food Products Database Release December 2017 Software v.3.8.6.4 2017-10-02
Report Run at: December 19, 2017 05:52 EST
"Nutrient data for: 45330350, 80% DARK STONE GROUND CHOCOLATE, UPC: 856072004626"
Food Group:  Branded Food Products Database
Common Name:

Nutrient,Unit,Data points,Std. Error,"0.5 PACKAGE = 35.0g",1Value per 100 g,
Proximates
"Energy",kcal,--,--,210,600
"Protein",g,--,--,3.00,8.57
"Total lipid (fat)",g,--,--,13.00,37.14
"Carbohydrate, by difference",g,--,--,14.00,40.00
"Fiber, total dietary",g,--,--,6.0,17.1
"Sugars, total",g,--,--,6.00,17.14
Minerals
"Calcium, Ca",mg,--,--,100,286
"Iron, Fe",mg,--,--,1.03,2.94
"Sodium, Na",mg,--,--,46,131
Vitamins
"Vitamin C, total ascorbic acid",mg,--,--,5.1,14.7
"Vitamin A, IU",IU,--,--,0,0
Lipids
"Fatty acids, total saturated",g,--,--,8.998,25.710
"Cholesterol",mg,--,--,0,0
Amino Acids
Other
Ingredients
"ORGANIC CACAO, ORGANIC CANE SUGAR, ORGANIC COCONUT, ORGANIC ALMONDS, ORGANIC COCOA BUTTER, ORGANIC COCONUT OIL, NATURAL COCONUT FLAVOR, SEA SALT, NATURAL COFFEE FLAVOR, ORGANIC VANILLA." Date available: 10/13/2017 Date last updated by company: 10/13/2017
