Source: USDA Branded Food Products Database Release December 2017 Software v.3.8.6.4 2017-10-02
Report Run at: December 15, 2017 22:18 EST
"Nutrient data for: 45248606, A COLLECTION OF FINE BELGIAN CHOCOLATES, UPC: 042201000984"
Food Group:  Branded Food Products Database
Common Name:

Nutrient,Unit,Data points,Std. Error,"3.0 PIECES | ABOUT = 42.0g",1Value per 100 g,
Proximates
"Energy",kcal,--,--,230,548
"Protein",g,--,--,2.00,4.76
"Total lipid (fat)",g,--,--,15.00,35.71
"Carbohydrate, by difference",g,--,--,23.00,54.76
"Fiber, total dietary",g,--,--,2.0,4.8
"Sugars, total",g,--,--,19.00,45.24
Minerals
"Calcium, Ca",mg,--,--,40,95
"Iron, Fe",mg,--,--,1.29,3.06
"Sodium, Na",mg,--,--,15,36
Vitamins
"Vitamin C, total ascorbic acid",mg,--,--,0.0,0.0
"Vitamin A, IU",IU,--,--,0,0
Lipids
"Fatty acids, total saturated",g,--,--,9.001,21.430
"Fatty acids, total trans",g,--,--,0.000,0.000
"Cholesterol",mg,--,--,5,12
Amino Acids
Other
Ingredients
"DARK CHOCOLATE (UNSWEETENED CHOCOLATE, SUGAR, COCOA BUTTER, BUTTER OIL, EMULSIFIER: SOY LECITHIN, NATURAL VANILLA FLAVOR), MILK CHOCOLATE (SUGAR, MILK, COCOA BUTTER, UNSWEETENED CHOCOLATE, LACTOSE, EMULSIFIER: SOY LECITHIN, NATURAL VANILLA FLAVOR), SUGAR, WHITE CHOCOLATE (SUGAR, COCOA BUTTER, MILK, NON-FAT MILK, EMULSIFIER: SOY LECITHIN, NATURAL VANILLA FLAVOR), VEGETABLE FAT (COCONUT, PALM KERNEL, PALM, SUNFLOWER, SHEA, RAPESEED), BUTTER OIL, HAZELNUTS, SORBITOL SYRUP, GLUCOSE SYRUP, NATURAL FLAVORS, CONTAINS LESS THAN 2% OF THE FOLLOWING: SPICES, UNSWEETENED CHOCOLATE, WHEY, COCOA BUTTER, LACTOSE, ALMONDS, COCONUT, RASPBERRIES, BUTTERFAT, ORANGE PEEL, RICE FLOUR, HAZELNUT OIL, STRAWBERRIES, COFFEE, WHEAT FLOUR, REDUCED FAT COCOA POWDER, POMEGRANATE JUICE, INVERT SUGAR, ELDERBERRY POWDER, CONDENSED MILK, MALTODEXTRIN, WHEAT STARCH, COCOA NIBS, SALT, HIMALAYA SALT, CARAMELIZED SUGAR, VANILLA EXTRACT, VANILLA SEEDS, PASSION FRUIT, MILK PROTEIN, EGGS, WATER, FRUCTOSE, HIGH FRUCTOSESYRUP, INVERT SUGAR SYRUP, LAC-RESIN, ANHYDROUS BUTTERFAT, SOY FLOUR, RAISING AGENT: BAKING SODA, DEXTROSE, GELLING AGENT: CITRUS FRUIT PECTIN, BARLEY FLOUR, HUMECTANT: GLYCEROL, ACIDITY REGULATOR: CITRIC ACID, POTATO STARCH, THICKENER: SODIUM ALGINATE, POTASSIUM ALUMINUM SILICATE, EMULSIFIERS (MONO- AND DIGLYCERIDES OF FATTY ACIDS, SUNFLOWER LECITHIN, SOY LECITHIN), ANTIOXIDANTS (TOCOPHEROL, ASCORBIC ACID), STABILIZERS (GUM ARABIC, CARAGEENAN), ADDED COLOR (BLUE 1, BLUE 2, COHINEAL, CARAMEL, CURCUMINE, PAPRIKA, BEETROOT, TITANIUM OXIDE, BETA CAROTENE), ALCOHOL." Date available: 07/14/2017 Date last updated by company: 07/14/2017
