Source: USDA Branded Food Products Database Release December 2017 Software v.3.8.6.4 2017-10-02
Report Run at: December 15, 2017 22:18 EST
"Nutrient data for: 45264537, A COOKING CONNECTION SELECTION NOCINO HOLIDAY GLAZE ARTISAN RECIPE, UPC: 011246671923"
Food Group:  Branded Food Products Database
Common Name:

Nutrient,Unit,Data points,Std. Error,"1 Tbsp = 16.0g",1Value per 100 g,
Proximates
"Energy",kcal,--,--,30,188
"Protein",g,--,--,0.00,0.00
"Total lipid (fat)",g,--,--,0.00,0.00
"Carbohydrate, by difference",g,--,--,8.00,50.00
"Fiber, total dietary",g,--,--,0.0,0.0
"Sugars, total",g,--,--,7.00,43.75
Minerals
"Calcium, Ca",mg,--,--,0,0
"Iron, Fe",mg,--,--,0.00,0.00
"Sodium, Na",mg,--,--,25,156
Vitamins
"Vitamin C, total ascorbic acid",mg,--,--,0.0,0.0
"Vitamin A, IU",IU,--,--,0,0
Lipids
"Fatty acids, total saturated",g,--,--,0.000,0.000
"Fatty acids, total trans",g,--,--,0.000,0.000
"Cholesterol",mg,--,--,0,0
Amino Acids
Other
Ingredients
"WATER, BROWN SUGAR, SUGAR, DLION MUSTARD (MUSTARD SEEDS, DISTILLED VINEGAR, WHITE WINE, CITRIC ACID, TARTARIC ACID), MAPLE SYRUP, CIDER VINEGAR, BOURBON, HONEY, CORNSTARCH, ORANGE PEEL, NOCINO (WALNUTS), FIG PASTE, WORCESTERSHIRE SAUCE (MOLASSES, CORN SYRUP, CARAMEL COLOR, TAMARIND , GARLIC, SPICES, HORSERADISH, NATURAL FLAVORS, SEA SALT, CRUSHED RED PEPPERS, XANTHAN GUM." Date available: 07/14/2017 Date last updated by company: 07/14/2017
