Source: USDA Branded Food Products Database Release December 2017 Software v.3.8.6.4 2017-10-02
Report Run at: December 17, 2017 01:03 EST
"Nutrient data for: 45188018, A SIMPLY SCRUMPTIOUS BROWNIE, UPC: 861185000007"
Food Group:  Branded Food Products Database
Common Name:

Nutrient,Unit,Data points,Std. Error,"0.5 PIECE = 42.0g",1Value per 100 g,
Proximates
"Energy",kcal,--,--,160,381
"Protein",g,--,--,2.00,4.76
"Total lipid (fat)",g,--,--,8.00,19.05
"Carbohydrate, by difference",g,--,--,21.00,50.00
"Fiber, total dietary",g,--,--,1.0,2.4
"Sugars, total",g,--,--,20.00,47.62
Minerals
"Calcium, Ca",mg,--,--,0,0
"Iron, Fe",mg,--,--,1.03,2.45
"Sodium, Na",mg,--,--,21,50
Vitamins
"Vitamin C, total ascorbic acid",mg,--,--,0.0,0.0
"Vitamin A, IU",IU,--,--,191,454
Lipids
"Fatty acids, total saturated",g,--,--,4.998,11.900
"Fatty acids, total trans",g,--,--,0.000,0.000
"Cholesterol",mg,--,--,15,36
Amino Acids
Other
Ingredients
"BUTTER (SWEET CREAM, SALT), SUGAR, EGGS, 100% CACAO, GARBANZO BEAN FLOUR, POTATO STARCH, TOPIOCA FLOUR, SORGHUM FLOUR, FAVA BEAN FLOUR, VANILLA EXTRACT" Date available: 07/14/2017 Date last updated by company: 07/14/2017
