Source: USDA Branded Food Products Database Release December 2017 Software v.3.8.6.4 2017-10-02
Report Run at: December 17, 2017 01:23 EST
"Nutrient data for: 45034351, A TASTE OF THAI, COCONUT GINGER RICE, UPC: 070650800312"
Food Group:  Branded Food Products Database
Common Name:

Nutrient,Unit,Data points,Std. Error,"0.75 cup = 50.0g",1Value per 100 g,
Proximates
"Energy",kcal,--,--,200,400
"Protein",g,--,--,4.00,8.00
"Total lipid (fat)",g,--,--,3.00,6.00
"Carbohydrate, by difference",g,--,--,36.00,72.00
"Fiber, total dietary",g,--,--,1.0,2.0
"Sugars, total",g,--,--,1.00,2.00
Minerals
"Calcium, Ca",mg,--,--,20,40
"Iron, Fe",mg,--,--,0.33,0.65
"Sodium, Na",mg,--,--,400,800
Vitamins
"Vitamin C, total ascorbic acid",mg,--,--,0.0,0.0
"Vitamin A, IU",IU,--,--,0,0
Lipids
"Fatty acids, total saturated",g,--,--,1.000,2.000
"Fatty acids, total trans",g,--,--,0.000,0.000
"Cholesterol",mg,--,--,0,0
Amino Acids
Other
Ingredients
"RICE (JASMINE RICE), COCONUT MILK POWDER (COCONUT, MALTODEXTRIN, MONO AND DIGLYCERIDE (AN EMULSIFIER), DIPOTASSIUM PHOSPHATE, SILICON DIOXIDE (TO PREVENT CAKING)). SEASONING (SALT, HYDROLYZED VEGETABLE PROTEIN (CORN PROTEIN, YEAST EXTRACT, PALM OIL), RED BELL PEPPER, SUGAR, DEXTROSE, SOYBEAN OIL, GALANGAL GINGER POWDER, CHILI POWDER, FRIED SHALLOT KAFFIRLIME LEAF POWDER, LEMONGRASS POWDER, CITRIC ACID, SPICES (TURMERIC, GINGER), SILICON DIOXIDE (TO PREVENT CAKING))." Date available: 07/14/2017 Date last updated by company: 07/14/2017
