Source: USDA Branded Food Products Database Release December 2017 Software v.3.8.6.4 2017-10-02
Report Run at: December 17, 2017 01:24 EST
"Nutrient data for: 45034366, A TASTE OF THAI, PEANUT SAUCE & COATING MIX, UPC: 070650800541"
Food Group:  Branded Food Products Database
Common Name:

Nutrient,Unit,Data points,Std. Error,"2.0 Tbsp = 25.0g",1Value per 100 g,
Proximates
"Energy",kcal,--,--,120,480
"Protein",g,--,--,2.00,8.00
"Total lipid (fat)",g,--,--,5.00,20.00
"Carbohydrate, by difference",g,--,--,15.00,60.00
"Fiber, total dietary",g,--,--,1.0,4.0
"Sugars, total",g,--,--,13.00,52.00
Minerals
"Calcium, Ca",mg,--,--,40,160
"Iron, Fe",mg,--,--,1.22,4.87
"Sodium, Na",mg,--,--,280,1120
Vitamins
"Vitamin C, total ascorbic acid",mg,--,--,0.0,0.0
"Vitamin A, IU",IU,--,--,0,0
Lipids
"Fatty acids, total saturated",g,--,--,0.800,3.200
"Fatty acids, total trans",g,--,--,0.000,0.000
"Cholesterol",mg,--,--,0,0
Amino Acids
Other
Ingredients
"SUGAR, PEANUTS, SPICES (CHILI, KAFFIR LIME LEAVES, LEMONGRASS, ONION), MODIFIED TAPIOCA STARCH, DEXTROSE, HYDROLYZED SOYBEAN PROTEIN, SALT, TRICALCIUM PHOSPHATE (AN ANTI-CAKING AGENT), POTASSIUM CHLORIDE, YEAST EXTRACT, MALIC ACID." Date available: 07/14/2017 Date last updated by company: 07/14/2017
