Source: USDA Branded Food Products Database Release December 2017 Software v.3.8.6.4 2017-10-02
Report Run at: December 15, 2017 22:12 EST
"Nutrient data for: 45091765, ABC, JELLY SNACK, TARO, UPC: 4711269687135"
Food Group:  Branded Food Products Database
Common Name:

Nutrient,Unit,Data points,Std. Error,"123.0 GRM = 123.0g",1Value per 100 g,
Proximates
"Energy",kcal,--,--,100,81
"Protein",g,--,--,0.00,0.00
"Total lipid (fat)",g,--,--,0.00,0.00
"Carbohydrate, by difference",g,--,--,25.01,20.33
"Fiber, total dietary",g,--,--,0.0,0.0
"Sugars, total",g,--,--,22.00,17.89
Minerals
"Calcium, Ca",mg,--,--,0,0
"Iron, Fe",mg,--,--,0.00,0.00
"Sodium, Na",mg,--,--,70,57
Vitamins
"Vitamin C, total ascorbic acid",mg,--,--,0.0,0.0
"Vitamin A, IU",IU,--,--,0,0
Lipids
"Fatty acids, total saturated",g,--,--,0.000,0.000
"Fatty acids, total trans",g,--,--,0.000,0.000
"Cholesterol",mg,--,--,0,0
Amino Acids
Other
Ingredients
"WATER, SUGAR, COCONUT,SEAWEED EXTRACT, CITRIC ACID, TARO FLAVOR, TITANIUM DIOXIDE, FD&C(BLUE#1, RED#40)." Date available: 08/10/2017 Date last updated by company: 08/10/2017
