Source: USDA Branded Food Products Database Release December 2017 Software v.3.8.6.4 2017-10-02
Report Run at: December 15, 2017 22:12 EST
"Nutrient data for: 45167405, ABE'S, DEVIL'S FOOD MUFFIN, UPC: 044261720970"
Food Group:  Branded Food Products Database
Common Name:

Nutrient,Unit,Data points,Std. Error,"1 MUFFIN | ABOUT = 71.0g",1Value per 100 g,
Proximates
"Energy",kcal,--,--,400,563
"Protein",g,--,--,3.00,4.23
"Total lipid (fat)",g,--,--,25.00,35.21
"Carbohydrate, by difference",g,--,--,44.00,61.97
"Fiber, total dietary",g,--,--,2.0,2.8
"Sugars, total",g,--,--,23.00,32.39
Minerals
"Calcium, Ca",mg,--,--,0,0
"Iron, Fe",mg,--,--,2.09,2.95
"Sodium, Na",mg,--,--,260,366
Vitamins
"Vitamin C, total ascorbic acid",mg,--,--,0.0,0.0
"Vitamin A, IU",IU,--,--,0,0
Lipids
"Fatty acids, total saturated",g,--,--,2.002,2.820
"Fatty acids, total trans",g,--,--,0.000,0.000
"Cholesterol",mg,--,--,0,0
Amino Acids
Other
Ingredients
"NON-GMO FLOUR, NON-GMO SUGAR, NON-GMO CANOLA OIL, COCOA POWDER, VINEGAR, BAKING SODA (SODIUM BICARBONATE), SALT." Date available: 07/14/2017 Date last updated by company: 07/14/2017
