Source: USDA Branded Food Products Database Release December 2017 Software v.3.8.6.4 2017-10-02
Report Run at: December 15, 2017 22:13 EST
"Nutrient data for: 45196685, ABOUND NUT BAR, UPC: 050428528082"
Food Group:  Branded Food Products Database
Common Name:

Nutrient,Unit,Data points,Std. Error,"1 BAR = 40.0g",1Value per 100 g,
Proximates
"Energy",kcal,--,--,190,475
"Protein",g,--,--,4.00,10.00
"Total lipid (fat)",g,--,--,12.00,30.00
"Carbohydrate, by difference",g,--,--,20.00,50.00
"Fiber, total dietary",g,--,--,3.0,7.5
"Sugars, total",g,--,--,13.00,32.50
Minerals
"Calcium, Ca",mg,--,--,60,150
"Iron, Fe",mg,--,--,0.72,1.80
"Sodium, Na",mg,--,--,15,38
Vitamins
"Vitamin C, total ascorbic acid",mg,--,--,30.0,75.0
"Vitamin A, IU",IU,--,--,2500,6250
Lipids
"Fatty acids, total saturated",g,--,--,1.000,2.500
"Fatty acids, total trans",g,--,--,0.000,0.000
"Cholesterol",mg,--,--,0,0
Amino Acids
Other
Ingredients
"ALMONDS, DEHYDRATED CRANBERRIES (CRANBERRIES, SUGAR, SUNFLOWER OIL), MACADAMIA NUTS, HONEY, CRISP RICE (RICE FLOUR, SUGAR, CALCIUM CARBONATE, SALT), RICE SYRUP, FRUCTOOLIGOSACCHARIDES, SOY LECITHIN (AN EMULSIFIER), DRIED UNSWEETENED COCONUT, VITAMINS A, C, AND E." Date available: 10/13/2017 Date last updated by company: 10/13/2017
