Source: USDA Branded Food Products Database Release December 2017 Software v.3.8.6.4 2017-10-02
Report Run at: December 15, 2017 22:16 EST
"Nutrient data for: 45130160, AC2 Hot And Sweet Popcorn, UNPREPARED, GTIN: 00076150623031"
Food Group:  Branded Food Products Database
Common Name:

Nutrient,Unit,Data points,Std. Error,"1 Cup Popped = 7.92g",1Value per 100 g,
Proximates
"Energy",kcal,--,--,40,505
"Protein",g,--,--,1.00,12.63
"Total lipid (fat)",g,--,--,2.00,25.25
"Carbohydrate, by difference",g,--,--,5.00,63.13
"Fiber, total dietary",g,--,--,1.0,12.6
"Sugars, total",g,--,--,0.00,0.00
Minerals
"Calcium, Ca",mg,--,--,0,0
"Iron, Fe",mg,--,--,0.00,0.00
"Potassium, K",mg,--,--,15,189
"Sodium, Na",mg,--,--,45,568
Vitamins
"Vitamin C, total ascorbic acid",mg,--,--,0.0,0.0
"Vitamin A, IU",IU,--,--,0,0
Lipids
"Fatty acids, total saturated",g,--,--,1.000,12.630
"Fatty acids, total monounsaturated",g,--,--,0.500,6.310
"Fatty acids, total polyunsaturated",g,--,--,0.000,0.000
"Fatty acids, total trans",g,--,--,0.000,0.000
"Cholesterol",mg,--,--,0,0
Amino Acids
Other
Ingredients
"Popping Corn, Palm Oil, Butter, Salt, Less than 2% of: Chili Pepper, Spices, Sugar, Garlic Powder, Natural and Artificial Flavor, Sucralose, Dried White Distilled Vinegar, Autolyzed Yeast, Oleoresin Paprika (Color), TBHQ and Citric Acid (for freshness). CONTAINS: MILK." Date available: 10/12/2017 Date last updated by company: 10/12/2017
