Source: USDA Branded Food Products Database Release December 2017 Software v.3.8.6.4 2017-10-02
Report Run at: December 15, 2017 22:16 EST
"Nutrient data for: 45274267, ACIDIFIED SOUR CREAM, UPC: 814633015924"
Food Group:  Branded Food Products Database
Common Name:

Nutrient,Unit,Data points,Std. Error,"2.0 Tbsp = 31.0g",1Value per 100 g,
Proximates
"Energy",kcal,--,--,60,194
"Protein",g,--,--,1.00,3.23
"Total lipid (fat)",g,--,--,6.00,19.35
"Carbohydrate, by difference",g,--,--,2.00,6.45
"Fiber, total dietary",g,--,--,0.0,0.0
"Sugars, total",g,--,--,1.00,3.23
Minerals
"Calcium, Ca",mg,--,--,40,129
"Iron, Fe",mg,--,--,0.00,0.00
"Potassium, K",mg,--,--,55,177
"Sodium, Na",mg,--,--,190,613
Vitamins
"Vitamin C, total ascorbic acid",mg,--,--,2.0,6.3
"Vitamin A, IU",IU,--,--,322,1040
Lipids
"Fatty acids, total saturated",g,--,--,3.500,11.290
"Fatty acids, total trans",g,--,--,0.000,0.000
"Cholesterol",mg,--,--,20,65
Amino Acids
Other
Ingredients
"GRADE A MILK PASTEURIZED AND HOMOGENIZED, FOOD STARCH MODIFIED (CORN), WHEY, SALT, SODIUM PHOSPHATE (SODIUM TRIPOLYPHOSPHATE), CITRIC ACID, LACTIC ACID, MONO AND DIGLYCERIDES, PHOSPHORIC ACID, NATURAL FLAVOR, GUAR GUM, CARRAGEENAN, LOCUST BEAN GUM, AND POTASSIUM SORBATE." Date available: 07/14/2017 Date last updated by company: 07/14/2017
