Source: USDA Branded Food Products Database Release December 2017 Software v.3.8.6.4 2017-10-02
Report Run at: December 15, 2017 22:21 EST
"Nutrient data for: 45135022, ACT II Movie Theater Butter, UNPREPARED, GTIN: 00076150232141"
Food Group:  Branded Food Products Database
Common Name:

Nutrient,Unit,Data points,Std. Error,"2.0 tbsp (34g) unpopped (makes about 4.5 cups popped) = 34.0g",1Value per 100 g,
Proximates
"Energy",kcal,--,--,150,441
"Protein",g,--,--,2.00,5.88
"Total lipid (fat)",g,--,--,8.00,23.53
"Carbohydrate, by difference",g,--,--,19.00,55.88
"Fiber, total dietary",g,--,--,3.0,8.8
"Sugars, total",g,--,--,0.00,0.00
Minerals
"Calcium, Ca",mg,--,--,0,0
"Iron, Fe",mg,--,--,0.72,2.12
"Potassium, K",mg,--,--,60,176
"Sodium, Na",mg,--,--,370,1088
Vitamins
"Vitamin C, total ascorbic acid",mg,--,--,0.0,0.0
"Vitamin A, IU",IU,--,--,0,0
Lipids
"Fatty acids, total saturated",g,--,--,3.998,11.760
"Fatty acids, total monounsaturated",g,--,--,2.499,7.350
"Fatty acids, total polyunsaturated",g,--,--,1.000,2.940
"Fatty acids, total trans",g,--,--,0.000,0.000
"Cholesterol",mg,--,--,0,0
Amino Acids
Other
Ingredients
"Popping Corn, Palm Oil, Salt, Less than 2% of: Butter, Natural Flavor, Color Added, TBHQ and Citric Acid (for freshness). CONTAINS: MILK." Date available: 10/12/2017 Date last updated by company: 10/12/2017
