Source: USDA Branded Food Products Database Release December 2017 Software v.3.8.6.4 2017-10-02
Report Run at: December 15, 2017 22:23 EST
"Nutrient data for: 45236795, ADIRONDACK BEVERAGES, GINGER ALE, RASPBERRY, UPC: 071698020618"
Food Group:  Branded Food Products Database
Common Name:

Nutrient,Unit,Data points,Std. Error,"8.0 OZA = 240.0g",1Value per 100 g,
Proximates
"Energy",kcal,--,--,79,33
"Protein",g,--,--,0.00,0.00
"Total lipid (fat)",g,--,--,0.00,0.00
"Carbohydrate, by difference",g,--,--,21.00,8.75
"Sugars, total",g,--,--,21.00,8.75
Minerals
"Sodium, Na",mg,--,--,36,15
Vitamins
Lipids
Amino Acids
Other
Ingredients
"CRYSTAL CLEAR CARBONATED WATER, HIGH FRUCTOSE CORN SYRUP, CITRIC ACID, NATURAL FLAVOR, SODIUM BENZOATE (A PRESERVATIVE), AND ARTIFICIAL COLORS (RED# 40, BLUE #1)." Date available: 06/25/2017 Date last updated by company: 06/25/2017
