Source: USDA Branded Food Products Database Release December 2017 Software v.3.8.6.4 2017-10-02
Report Run at: December 15, 2017 22:25 EST
"Nutrient data for: 45210219, ADOBO ALL PURPOSE SEASONING, UPC: 041331039048"
Food Group:  Branded Food Products Database
Common Name:

Nutrient,Unit,Data points,Std. Error,"0.25 tsp = 1.0g",1Value per 100 g,
Proximates
"Energy",kcal,--,--,0,0
"Protein",g,--,--,0.00,0.00
"Total lipid (fat)",g,--,--,0.00,0.00
"Carbohydrate, by difference",g,--,--,0.00,0.00
Minerals
"Sodium, Na",mg,--,--,350,35000
Vitamins
Lipids
"Fatty acids, total saturated",g,--,--,0.000,0.000
"Fatty acids, total trans",g,--,--,0.000,0.000
Amino Acids
Other
Ingredients
"SALT, GRANULATED GARLIC, TRICALCIUM PHOSPHATE AS ANTICAKING AGENT, TURMERIC, BLACK PEPPER, OREGANO, ANNATTO AND CULANTRO." Date available: 07/14/2017 Date last updated by company: 07/14/2017
