Source: USDA Branded Food Products Database Release December 2017 Software v.3.8.6.4 2017-10-02
Report Run at: December 15, 2017 22:31 EST
"Nutrient data for: 45150522, AGED WHITE CHEDDAR LENTIL CHIPS, UPC: 858641003245"
Food Group:  Branded Food Products Database
Common Name:

Nutrient,Unit,Data points,Std. Error,"16.0 CHIPS | ABOUT = 28.0g",1Value per 100 g,
Proximates
"Energy",kcal,--,--,120,429
"Protein",g,--,--,4.00,14.29
"Total lipid (fat)",g,--,--,4.50,16.07
"Carbohydrate, by difference",g,--,--,16.00,57.14
"Fiber, total dietary",g,--,--,1.0,3.6
"Sugars, total",g,--,--,1.00,3.57
Minerals
"Calcium, Ca",mg,--,--,0,0
"Iron, Fe",mg,--,--,0.00,0.00
"Sodium, Na",mg,--,--,200,714
Vitamins
"Vitamin C, total ascorbic acid",mg,--,--,0.0,0.0
"Vitamin A, IU",IU,--,--,0,0
Lipids
"Fatty acids, total saturated",g,--,--,0.000,0.000
"Fatty acids, total trans",g,--,--,0.000,0.000
"Cholesterol",mg,--,--,0,0
Amino Acids
Other
Ingredients
"LENTIL FLOUR, CORN FLOUR, EXPELLER PRESSED SUNFLOWER OIL, RICE FLOUR, CORN STARCH, POTATO STARCH, SALT, GREEN PEPPER POWDER, WHEY POWDER, TAPIOCA MALTODEXTRIN, WHITE CHEDDAR CHEESE (MILK, SALT, CHEESE CULTURE, ENZYMES), WHEY, BUTTERMILK, NATURAL FLAVORS, SUGAR, YEAST EXTRACT, CITRIC ACID, SPICES." Date available: 07/14/2017 Date last updated by company: 07/14/2017
