Source: USDA Branded Food Products Database Release December 2017 Software v.3.8.6.4 2017-10-02
Report Run at: December 15, 2017 22:35 EST
"Nutrient data for: 45140172, AHOLD, BAKED WHOLE WHEAT CRACKERS, UPC: 688267155802"
Food Group:  Branded Food Products Database
Common Name:

Nutrient,Unit,Data points,Std. Error,"7.0 CRACKERS = 31.0g",1Value per 100 g,
Proximates
"Energy",kcal,--,--,120,387
"Protein",g,--,--,3.00,9.68
"Total lipid (fat)",g,--,--,2.50,8.06
"Carbohydrate, by difference",g,--,--,24.00,77.42
"Fiber, total dietary",g,--,--,3.0,9.7
"Sugars, total",g,--,--,0.00,0.00
Minerals
"Calcium, Ca",mg,--,--,0,0
"Iron, Fe",mg,--,--,2.32,7.49
"Sodium, Na",mg,--,--,170,548
Vitamins
"Vitamin C, total ascorbic acid",mg,--,--,0.0,0.0
"Vitamin A, IU",IU,--,--,0,0
Lipids
"Fatty acids, total saturated",g,--,--,0.000,0.000
"Fatty acids, total monounsaturated",g,--,--,1.001,3.230
"Fatty acids, total polyunsaturated",g,--,--,1.500,4.840
"Fatty acids, total trans",g,--,--,0.000,0.000
"Cholesterol",mg,--,--,0,0
Amino Acids
Other
Ingredients
"WHOLE GRAIN WHEAT, CANOLA AND/OR SOYBEAN AND/OR PALM OIL WITH TBHQ ADDED AS A PRESERVATIVE, SALT." Date available: 07/14/2017 Date last updated by company: 07/14/2017
