Source: USDA Branded Food Products Database Release December 2017 Software v.3.8.6.4 2017-10-02
Report Run at: December 16, 2017 22:25 EST
"Nutrient data for: 45140167, AHOLD, MICROWAVE POPCORN, ULTIMATE BUTTER, UPC: 688267122934"
Food Group:  Branded Food Products Database
Common Name:

Nutrient,Unit,Data points,Std. Error,"2.0 Tbsp = 33.0g",1Value per 100 g,
Proximates
"Energy",kcal,--,--,160,485
"Protein",g,--,--,2.00,6.06
"Total lipid (fat)",g,--,--,10.00,30.30
"Carbohydrate, by difference",g,--,--,17.00,51.52
"Fiber, total dietary",g,--,--,4.0,12.1
"Sugars, total",g,--,--,0.00,0.00
Minerals
"Calcium, Ca",mg,--,--,0,0
"Iron, Fe",mg,--,--,1.09,3.31
"Sodium, Na",mg,--,--,380,1152
Vitamins
"Vitamin C, total ascorbic acid",mg,--,--,0.0,0.0
"Vitamin A, IU",IU,--,--,0,0
Lipids
"Fatty acids, total saturated",g,--,--,5.000,15.150
"Fatty acids, total monounsaturated",g,--,--,3.501,10.610
"Fatty acids, total polyunsaturated",g,--,--,1.000,3.030
"Fatty acids, total trans",g,--,--,0.000,0.000
"Cholesterol",mg,--,--,0,0
Amino Acids
Other
Ingredients
"POPCORN, PALM OIL WITH PRESERVATIVE (TBHQ), SALT, NATURAL AND ARTIFICIAL FLAVOR, COLOR (ANNATTO EXTRACT)." Date available: 07/14/2017 Date last updated by company: 07/14/2017
