Source: USDA Branded Food Products Database Release December 2017 Software v.3.8.6.4 2017-10-02
Report Run at: December 16, 2017 22:34 EST
"Nutrient data for: 45043941, AHOLD, TOFFEE ICE CREAM BARS, MILK CHOCOLATE, UPC: 688267150081"
Food Group:  Branded Food Products Database
Common Name:

Nutrient,Unit,Data points,Std. Error,"1 BAR = 51.0g",1Value per 100 g,
Proximates
"Energy",kcal,--,--,180,353
"Protein",g,--,--,2.00,3.92
"Total lipid (fat)",g,--,--,13.00,25.49
"Carbohydrate, by difference",g,--,--,13.00,25.49
"Fiber, total dietary",g,--,--,0.0,0.0
"Sugars, total",g,--,--,13.00,25.49
Minerals
"Calcium, Ca",mg,--,--,80,157
"Iron, Fe",mg,--,--,0.00,0.00
"Sodium, Na",mg,--,--,50,98
Vitamins
"Vitamin C, total ascorbic acid",mg,--,--,0.0,0.0
"Vitamin A, IU",IU,--,--,200,392
Lipids
"Fatty acids, total saturated",g,--,--,10.001,19.610
"Fatty acids, total monounsaturated",g,--,--,1.499,2.940
"Fatty acids, total polyunsaturated",g,--,--,0.000,0.000
"Fatty acids, total trans",g,--,--,0.000,0.000
"Cholesterol",mg,--,--,15,29
Amino Acids
Other
Ingredients
"ICE CREAM: MILKFAT AND NONFAT MILK, HIGH FRUCTOSE CORN SYRUP, CORN SYRUP, BUTTERMILK, SUGAR, WHEY, MONO- AND DIGLYCERIDES, GUAR GUM, XANTHAN GUM, POLYSORBATE 80, ARTIFICIAL FLAVOR, LOCUST BEAN GUM, CARRAGEENAN, ANNATTO (COLOR), MILK CHOCOLATE COATING: COCONUT OIL, SUGAR, COCOA AND COCOA PROCESSED WITH ALKALI, CHOCOLATE LIQUOR, WHOLE MILK POWDER, PARTIALLY HYDROGENATED SOYBEAN OIL, NATURAL AND ARTIFICIAL FLAVORS, SOY LECITHIN, SALT, VANILLIN. CANDY: SUGAR, CORN SYRUP, COCONUT OIL, WHEY, SLAT, NATURAL AND ARTIFICIAL FLAVOR, SOY LECITHIN." Date available: 06/24/2017 Date last updated by company: 06/24/2017
