Source: USDA Branded Food Products Database Release December 2017 Software v.3.8.6.4 2017-10-02
Report Run at: December 16, 2017 21:48 EST
"Nutrient data for: 45135890, AHOLD, CREAMY ITALIAN DRESSING, UPC: 688267070914"
Food Group:  Branded Food Products Database
Common Name:

Nutrient,Unit,Data points,Std. Error,"2.0 Tbsp = 30.0g",1Value per 100 g,
Proximates
"Energy",kcal,--,--,110,367
"Protein",g,--,--,0.00,0.00
"Total lipid (fat)",g,--,--,10.00,33.33
"Carbohydrate, by difference",g,--,--,4.00,13.33
"Fiber, total dietary",g,--,--,1.0,3.3
"Sugars, total",g,--,--,2.00,6.67
Minerals
"Calcium, Ca",mg,--,--,0,0
"Iron, Fe",mg,--,--,0.00,0.00
"Sodium, Na",mg,--,--,250,833
Vitamins
"Vitamin C, total ascorbic acid",mg,--,--,0.0,0.0
"Vitamin A, IU",IU,--,--,0,0
Lipids
"Fatty acids, total saturated",g,--,--,1.500,5.000
"Fatty acids, total trans",g,--,--,0.000,0.000
"Cholesterol",mg,--,--,5,17
Amino Acids
Other
Ingredients
"WATER, SOYBEAN OIL, VINEGAR, HIGH FRUCTOSE CORN SYRUP, MALTODEXTRIN, GARLIC**, BUTTERMILK, CONTAINS LESS THAN 2% OF: SALT, WHEY, ONION**, NONFAT DRY MILK, XANTHAN GUM, PHOSPHORIC ACID, RED BELL PEPPERS**, SPICES, SORBIC ACID AND SODIUM BENZOATE AND CALCIUM DISODIUM EDTA (PRESERVATIVES), AUTOLYZED YEAST, POLYSORBATE 60, PROPYLENE GLYCOL ALGINATE" Date available: 06/24/2017 Date last updated by company: 06/24/2017
