Source: USDA Branded Food Products Database Release December 2017 Software v.3.8.6.4 2017-10-02
Report Run at: December 16, 2017 22:32 EST
"Nutrient data for: 45044180, AHOLD, SIMPLY ENJOY, NEW YORK STYLE CLASSIC CHEESECAKE, UPC: 688267151835"
Food Group:  Branded Food Products Database
Common Name:

Nutrient,Unit,Data points,Std. Error,"1 SLICE = 85.0g",1Value per 100 g,
Proximates
"Energy",kcal,--,--,280,329
"Protein",g,--,--,5.00,5.88
"Total lipid (fat)",g,--,--,14.00,16.47
"Carbohydrate, by difference",g,--,--,33.00,38.82
"Fiber, total dietary",g,--,--,1.0,1.2
"Sugars, total",g,--,--,23.00,27.06
Minerals
"Calcium, Ca",mg,--,--,60,71
"Iron, Fe",mg,--,--,0.53,0.62
"Sodium, Na",mg,--,--,150,176
Vitamins
"Vitamin C, total ascorbic acid",mg,--,--,0.0,0.0
"Vitamin A, IU",IU,--,--,588,692
Lipids
"Fatty acids, total saturated",g,--,--,7.998,9.410
"Fatty acids, total trans",g,--,--,0.000,0.000
"Cholesterol",mg,--,--,70,82
Amino Acids
Other
Ingredients
"PASTEURIZED MILK AND CREAM, SUGAR, EGG, WHEAT FLOUR, UNBLEACHED WHEAT FLOUR, WHOLE WHEAT FLOUR, PALM OIL, NONFAT DRY MILK, SOYBEAN OIL, SODIUM PHOSPHATE (PRESERVATIVE), CORNSTARCH, MOLASSES, NATURAL FLAVOR, MODIFIED TAPIOCA STARCH, SALT, CHEESE CULTURE, MALTED BARLEY FLOUR, MODIFIED FOOD STARCH, GUAR GUM, CAROB BEAN GUM, SODIUM BICARBONATE, CARRAGEENAN, HONEY, XANTHAN GUM, NIACIN, IRON, THIAMIN MONONITRATE, RIBOFLAVIN, FOLIC ACID, ENZYME." Date available: 07/14/2017 Date last updated by company: 07/14/2017
