Source: USDA Branded Food Products Database Release December 2017 Software v.3.8.6.4 2017-10-02
Report Run at: December 16, 2017 22:27 EST
"Nutrient data for: 45046994, AHOLD, NATURE'S PROMISE, SWEET MASHED POTATOES WITH SWEET BROWN SUGAR AND BUTTER, UPC: 688267161414"
Food Group:  Branded Food Products Database
Common Name:

Nutrient,Unit,Data points,Std. Error,"0.5 cup = 122.0g",1Value per 100 g,
Proximates
"Energy",kcal,--,--,120,98
"Protein",g,--,--,2.00,1.64
"Total lipid (fat)",g,--,--,2.50,2.05
"Carbohydrate, by difference",g,--,--,23.00,18.85
"Fiber, total dietary",g,--,--,3.0,2.5
"Sugars, total",g,--,--,10.00,8.20
Minerals
"Calcium, Ca",mg,--,--,40,33
"Iron, Fe",mg,--,--,0.29,0.24
"Sodium, Na",mg,--,--,190,156
Vitamins
"Vitamin C, total ascorbic acid",mg,--,--,6.1,5.0
"Vitamin A, IU",IU,--,--,7172,5879
Lipids
"Fatty acids, total saturated",g,--,--,1.501,1.230
"Fatty acids, total trans",g,--,--,0.000,0.000
"Cholesterol",mg,--,--,5,4
Amino Acids
Other
Ingredients
"SWEET POTATOES, WHOLE MILK, BROWN SUGAR, BUTTER (SWEET CREAM, SALT), SALT, SPICES, NISIN PREPARATION." Date available: 07/14/2017 Date last updated by company: 07/14/2017
