Source: USDA Branded Food Products Database Release December 2017 Software v.3.8.6.4 2017-10-02
Report Run at: December 16, 2017 22:32 EST
"Nutrient data for: 45047164, AHOLD, SIMPLY ENJOY, GELATO, PEPPERMINT KISS, UPC: 688267157738"
Food Group:  Branded Food Products Database
Common Name:

Nutrient,Unit,Data points,Std. Error,"0.5 cup = 67.0g",1Value per 100 g,
Proximates
"Energy",kcal,--,--,140,209
"Protein",g,--,--,3.00,4.48
"Total lipid (fat)",g,--,--,7.00,10.45
"Carbohydrate, by difference",g,--,--,18.00,26.87
"Fiber, total dietary",g,--,--,0.0,0.0
"Sugars, total",g,--,--,13.00,19.40
Minerals
"Calcium, Ca",mg,--,--,80,119
"Iron, Fe",mg,--,--,0.00,0.00
"Sodium, Na",mg,--,--,45,67
Vitamins
"Vitamin C, total ascorbic acid",mg,--,--,0.0,0.0
"Vitamin A, IU",IU,--,--,113,168
Lipids
"Fatty acids, total saturated",g,--,--,6.003,8.960
"Fatty acids, total trans",g,--,--,0.000,0.000
"Cholesterol",mg,--,--,5,7
Amino Acids
Other
Ingredients
"MILK, PURE CANE SUGAR, GLUCOSE, FRESH CREAM, COCONUT OIL, COCOA, SOY LECITHIN, MALTODEXTRIN, FRUCTOSE, CITRIC ACID, MONO- AND DIGLYCERIDES, TRAGACANTH GUM, GUAR GUM, TARA GUM, CARRAGEENAN, NATURAL AND ARTIFICIAL FLAVORS." Date available: 07/14/2017 Date last updated by company: 07/14/2017
