Source: USDA Branded Food Products Database Release December 2017 Software v.3.8.6.4 2017-10-02
Report Run at: December 16, 2017 22:29 EST
"Nutrient data for: 45158184, AHOLD, PLUOT SODA, UPC: 688267159121"
Food Group:  Branded Food Products Database
Common Name:

Nutrient,Unit,Data points,Std. Error,"1 BOTTLE = 355.0g",1Value per 100 g,
Proximates
"Energy",kcal,--,--,170,48
"Protein",g,--,--,0.00,0.00
"Total lipid (fat)",g,--,--,0.00,0.00
"Carbohydrate, by difference",g,--,--,42.99,12.11
"Sugars, total",g,--,--,42.00,11.83
Minerals
"Sodium, Na",mg,--,--,11,3
Vitamins
Lipids
Amino Acids
Other
Ingredients
"SPARKLING WATER, APPLE JUICE FROM CONCENTRATE, CANE SUGAR, NATURAL FLAVORS, CITRIC ACID, FRUIT AND VEGETABLE JUICE (FOR COLOR)." Date available: 07/14/2017 Date last updated by company: 07/14/2017
