Source: USDA Branded Food Products Database Release December 2017 Software v.3.8.6.4 2017-10-02
Report Run at: December 16, 2017 22:03 EST
"Nutrient data for: 45206828, AIDELLS, SMOKED CHICKEN SAUSAGE, SPINACH & FETA, UPC: 764014813529"
Food Group:  Branded Food Products Database
Common Name:

Nutrient,Unit,Data points,Std. Error,"1 LINK = 85.0g",1Value per 100 g,
Proximates
"Energy",kcal,--,--,160,188
"Protein",g,--,--,14.00,16.47
"Total lipid (fat)",g,--,--,11.00,12.94
"Carbohydrate, by difference",g,--,--,2.00,2.35
"Fiber, total dietary",g,--,--,1.0,1.2
"Sugars, total",g,--,--,1.00,1.18
Minerals
"Calcium, Ca",mg,--,--,60,71
"Iron, Fe",mg,--,--,0.85,1.00
"Sodium, Na",mg,--,--,600,706
Vitamins
"Vitamin C, total ascorbic acid",mg,--,--,1.4,1.7
"Vitamin A, IU",IU,--,--,412,485
Lipids
"Fatty acids, total saturated",g,--,--,3.001,3.530
"Fatty acids, total trans",g,--,--,0.000,0.000
"Cholesterol",mg,--,--,95,112
Amino Acids
Other
Ingredients
"CHICKEN, SPINACH, FETA CHEESE (PASTEURIZED PART-SKIM MILK, CHEESE CULTURE, SALT, AND ENZYMES), SALT, GARLIC, SPICES, AND CELERY POWDER, IN A PORK CASING." Date available: 07/14/2017 Date last updated by company: 07/14/2017
