Source: USDA Branded Food Products Database Release December 2017 Software v.3.8.6.4 2017-10-02
Report Run at: December 16, 2017 22:04 EST
"Nutrient data for: 45120496, AIRHEADS CANDY, UPC: 073390010546"
Food Group:  Branded Food Products Database
Common Name:

Nutrient,Unit,Data points,Std. Error,"1 BAR = 42.0g",1Value per 100 g,
Proximates
"Energy",kcal,--,--,170,405
"Protein",g,--,--,0.00,0.00
"Total lipid (fat)",g,--,--,2.00,4.76
"Carbohydrate, by difference",g,--,--,39.00,92.86
"Sugars, total",g,--,--,23.00,54.76
Minerals
"Sodium, Na",mg,--,--,20,48
Vitamins
Lipids
"Fatty acids, total saturated",g,--,--,1.499,3.570
"Fatty acids, total trans",g,--,--,0.000,0.000
Amino Acids
Other
Ingredients
"SUGAR, CORN SYRUP, MALTODEXTRIN, DEXTROSE, MODIFIED FOOD STARCH (CORN), PARTIALLY HYDROGENATED SOYBEAN OIL, PALM OIL, CONTAINS LESS THAN 2% OF: CITRIC ACID, WATER, ARTIFICIAL FLAVORS, RED 40, BLUE 1, YELLOW 6, YELLOW 5." Date available: 09/26/2017 Date last updated by company: 09/26/2017
