Source: USDA Branded Food Products Database Release December 2017 Software v.3.8.6.4 2017-10-02
Report Run at: December 16, 2017 22:05 EST
"Nutrient data for: 45227355, AIRHEADS, FRUIT BITES CANDY, WATERMELON, BLUE RASPBERRY, CHERRY, ORANGE, WHITE MYSTERY, UPC: 073390014360"
Food Group:  Branded Food Products Database
Common Name:

Nutrient,Unit,Data points,Std. Error,"1 BAG = 57.0g",1Value per 100 g,
Proximates
"Energy",kcal,--,--,230,404
"Protein",g,--,--,0.00,0.00
"Total lipid (fat)",g,--,--,2.00,3.51
"Carbohydrate, by difference",g,--,--,53.00,92.98
"Sugars, total",g,--,--,40.00,70.18
Minerals
"Sodium, Na",mg,--,--,0,0
Vitamins
Lipids
"Fatty acids, total saturated",g,--,--,2.001,3.510
"Fatty acids, total trans",g,--,--,0.000,0.000
Amino Acids
Other
Ingredients
"SUGAR, GLUCOSE SYRUP, MALTODEXTRIN, DEXTROSE, HYDROGENATED COCONUT OIL; CONTAINS LESS THAN 2% OF: CITRIC ACID, MODIFIED CORN STARCH, SORBITOL, GLYCEROL, ARTIFICIAL FLAVORS, CARNAUBA WAX, RICE STARCH, BEESWAX, SHELLAC, GELLAN GUM, SUCROSE FATTY ACID ESTERS, ARTIFICIAL COLORS, RED 40, YELLOW 6, BLUE 1, YELLOW 5." Date available: 10/07/2017 Date last updated by company: 10/07/2017
