Source: USDA Branded Food Products Database Release December 2017 Software v.3.8.6.4 2017-10-02
Report Run at: December 16, 2017 22:08 EST
"Nutrient data for: 45092186, AKIYAMA, SWEET TAKUAN, UPC: 087902851008"
Food Group:  Branded Food Products Database
Common Name:

Nutrient,Unit,Data points,Std. Error,"1 ONZ = 28.35g",1Value per 100 g,
Proximates
"Energy",kcal,--,--,15,53
"Protein",g,--,--,0.00,0.00
"Total lipid (fat)",g,--,--,0.00,0.00
"Carbohydrate, by difference",g,--,--,4.00,14.11
"Fiber, total dietary",g,--,--,1.0,3.5
"Sugars, total",g,--,--,3.00,10.58
Minerals
"Calcium, Ca",mg,--,--,0,0
"Iron, Fe",mg,--,--,0.00,0.00
"Sodium, Na",mg,--,--,210,741
Vitamins
"Vitamin C, total ascorbic acid",mg,--,--,0.0,0.0
"Vitamin A, IU",IU,--,--,0,0
Lipids
"Fatty acids, total saturated",g,--,--,0.000,0.000
"Cholesterol",mg,--,--,0,0
Amino Acids
Other
Ingredients
"DAIKON (RADISH), WATER, RICE VINEGAR (WATER, RICE, GRAIN ALCOHOL, SALT), DISTILLED WHITE VINEGAR, SUGAR, SALT, MONOSODIUM GLUTAMATE, CITRIC ACID, MIRIN (WATER, CORN SYRUP, DEXTROSE, WHITE VINEGAR, SALT), AMINO ACID SEASONING (YEAST EXTRACT, DEXTRIN, AMINO ACID, SALT), FD & C YELLOW NO. 5 (TARTRAZINE)." Date available: 06/25/2017 Date last updated by company: 06/25/2017
