Source: USDA Branded Food Products Database Release December 2017 Software v.3.8.6.4 2017-10-02
Report Run at: December 16, 2017 22:42 EST
"Nutrient data for: 45027907, AL FRESCO, CHICKEN SAUSAGE, SPICY JALAPENO, UPC: 030771097107"
Food Group:  Branded Food Products Database
Common Name:

Nutrient,Unit,Data points,Std. Error,"1 LINK = 85.0g",1Value per 100 g,
Proximates
"Energy",kcal,--,--,130,153
"Protein",g,--,--,14.00,16.47
"Total lipid (fat)",g,--,--,7.00,8.24
"Carbohydrate, by difference",g,--,--,2.00,2.35
"Sugars, total",g,--,--,1.00,1.18
Minerals
"Calcium, Ca",mg,--,--,20,24
"Iron, Fe",mg,--,--,0.70,0.82
"Sodium, Na",mg,--,--,440,518
Vitamins
"Vitamin C, total ascorbic acid",mg,--,--,3.1,3.7
"Vitamin A, IU",IU,--,--,129,152
Lipids
"Fatty acids, total saturated",g,--,--,1.998,2.350
"Fatty acids, total trans",g,--,--,0.000,0.000
"Cholesterol",mg,--,--,65,76
Amino Acids
Other
Ingredients
"SKINLESS CHICKEN MEAT, ROASTED RED PEPPERS (RED PEPPERS, WATER, CITRIC ACID), WATER, CONTAINS 2% OR LESS OF SEA SALT, SUGAR, JALAPENO PEPPERS, ONION POWDER, GARLIC POWDER, NATURAL FLAVORS, IN A NATURAL PORK CASING." Date available: 10/04/2017 Date last updated by company: 10/04/2017
