Source: USDA Branded Food Products Database Release December 2017 Software v.3.8.6.4 2017-10-02
Report Run at: December 16, 2017 22:08 EST
"Nutrient data for: 45261299, ALABAMA'S ORGANIC MILK, UPC: 696859247590"
Food Group:  Branded Food Products Database
Common Name:

Nutrient,Unit,Data points,Std. Error,"1 cup = 240.0g",1Value per 100 g,
Proximates
"Energy",kcal,--,--,166,69
"Protein",g,--,--,7.99,3.33
"Total lipid (fat)",g,--,--,1.99,0.83
"Carbohydrate, by difference",g,--,--,28.01,11.67
"Fiber, total dietary",g,--,--,1.0,0.4
"Sugars, total",g,--,--,25.99,10.83
Minerals
"Calcium, Ca",mg,--,--,290,121
"Iron, Fe",mg,--,--,0.36,0.15
"Sodium, Na",mg,--,--,180,75
Vitamins
"Vitamin C, total ascorbic acid",mg,--,--,0.0,0.0
"Vitamin A, IU",IU,--,--,499,208
"Vitamin D",IU,--,--,101,42
Lipids
"Fatty acids, total saturated",g,--,--,1.992,0.830
"Fatty acids, total trans",g,--,--,0.000,0.000
"Cholesterol",mg,--,--,10,4
Amino Acids
Other
Ingredients
"ALABAMA'S ORGANIC GRADE A LOWFAT MILK ORGANIC CANE SUGAR, ORGANIC DUTCH COCOA (PROCESSED WITH ALKALI), ORGANIC COCOA, ORGANIC TAPIOCA STARCH, SEA SALT, CARRAGEENAN, ORGANIC VANILLA, GMO-FREE VITAMIN A PALMITATE. GMO-FREE VITAMIN D3." Date available: 07/14/2017 Date last updated by company: 07/14/2017
