Source: USDA Branded Food Products Database Release December 2017 Software v.3.8.6.4 2017-10-02
Report Run at: December 16, 2017 22:10 EST
"Nutrient data for: 45203181, ALASKAN SALMON, UPC: 851981001162"
Food Group:  Branded Food Products Database
Common Name:

Nutrient,Unit,Data points,Std. Error,"10.0 ONZ = 283.0g",1Value per 100 g,
Proximates
"Energy",kcal,--,--,241,85
"Protein",g,--,--,17.01,6.01
"Total lipid (fat)",g,--,--,4.50,1.59
"Carbohydrate, by difference",g,--,--,27.99,9.89
"Fiber, total dietary",g,--,--,4.0,1.4
"Sugars, total",g,--,--,9.99,3.53
Minerals
"Calcium, Ca",mg,--,--,40,14
"Iron, Fe",mg,--,--,0.99,0.35
"Sodium, Na",mg,--,--,589,208
Vitamins
"Vitamin C, total ascorbic acid",mg,--,--,16.4,5.8
"Vitamin A, IU",IU,--,--,2066,730
Lipids
"Fatty acids, total saturated",g,--,--,0.509,0.180
"Fatty acids, total trans",g,--,--,0.000,0.000
"Cholesterol",mg,--,--,25,9
Amino Acids
Other
Ingredients
"WILD CAUGHT** ALASKAN SALMON, *RED BELL PEPPER, *BROWN RICE, *SUGAR SNAP PEAS, *CARROTS, WATER, *MISO PASTE (FILTERED WATER, *WHOLE SOYBEANS, *RICE, SEA SALT, KOJI STARTER (ASPERGILLUS ORYZAE)), RICE WINE (WATER, RICE, SALT), *QUINOA, *BROWN SUGAR, *WHEAT FREE TAMARI SAUCE (WATER, ORGANIC SOYBEANS, SALT AND ORGANIC ALCOHOL {TO RETAIN FRESHNESS}), *GINGER ROOT, *SESAME SEEDS, *COCONUT AMINOS, *ORGANIC INGREDIENTS)" Date available: 07/14/2017 Date last updated by company: 07/14/2017
