Source: USDA Branded Food Products Database Release December 2017 Software v.3.8.6.4 2017-10-02
Report Run at: December 16, 2017 22:10 EST
"Nutrient data for: 45317689, ALASKAN SALMON BITES, UPC: 028029210644"
Food Group:  Branded Food Products Database
Common Name:

Nutrient,Unit,Data points,Std. Error,"7.0 BITES = 108.0g",1Value per 100 g,
Proximates
"Energy",kcal,--,--,180,167
"Protein",g,--,--,15.99,14.81
"Total lipid (fat)",g,--,--,12.00,11.11
"Carbohydrate, by difference",g,--,--,2.00,1.85
"Fiber, total dietary",g,--,--,0.0,0.0
"Sugars, total",g,--,--,1.00,0.93
Minerals
"Calcium, Ca",mg,--,--,21,19
"Iron, Fe",mg,--,--,0.57,0.53
"Sodium, Na",mg,--,--,291,269
Vitamins
"Vitamin C, total ascorbic acid",mg,--,--,7.1,6.6
"Vitamin A, IU",IU,--,--,315,292
Lipids
"Fatty acids, total saturated",g,--,--,1.004,0.930
"Fatty acids, total monounsaturated",g,--,--,6.005,5.560
"Fatty acids, total polyunsaturated",g,--,--,3.996,3.700
"Fatty acids, total trans",g,--,--,0.000,0.000
"Cholesterol",mg,--,--,40,37
Amino Acids
Other
Ingredients
"PINK AND/OR KETA SALMON, VEGETABLE OIL (SOYBEAN AND/OR CANOLA), RED BELL PEPPER, WHITE ONION, GREEN ONION, CONTAINS 2% OR LESS OF: POTATO EXTRACT, SALT, ONION POWDER, DRY RED PEPPER FLAKES, MUSTARD FLOUR, GARLIC POWDER, DRIED CHIVES, BLACK PEPPER, SODIUM ASCORBATE, BEET JUICE (COLOR), ANNATTO (COLOR), ROSEMARY EXTRACT." Date available: 06/24/2017 Date last updated by company: 06/24/2017
