Source: USDA Branded Food Products Database Release December 2017 Software v.3.8.6.4 2017-10-02
Report Run at: December 16, 2017 22:13 EST
"Nutrient data for: 45173034, ALBERTSONS BAKERY, LA BREA SLICED ARTISAN COUNTRY WHITE SOURDOUGH, UPC: 041144299240"
Food Group:  Branded Food Products Database
Common Name:

Nutrient,Unit,Data points,Std. Error,"1 SLICE = 57.0g",1Value per 100 g,
Proximates
"Energy",kcal,--,--,140,246
"Protein",g,--,--,5.00,8.77
"Total lipid (fat)",g,--,--,0.00,0.00
"Carbohydrate, by difference",g,--,--,30.00,52.63
"Fiber, total dietary",g,--,--,1.0,1.8
"Sugars, total",g,--,--,0.00,0.00
Minerals
"Calcium, Ca",mg,--,--,0,0
"Iron, Fe",mg,--,--,1.58,2.77
"Sodium, Na",mg,--,--,350,614
Vitamins
"Vitamin C, total ascorbic acid",mg,--,--,0.0,0.0
"Vitamin A, IU",IU,--,--,0,0
Lipids
"Fatty acids, total saturated",g,--,--,0.000,0.000
"Fatty acids, total trans",g,--,--,0.000,0.000
"Cholesterol",mg,--,--,0,0
Amino Acids
Other
Ingredients
"UNBLEACHED FLOUR (WHEAT FLOUR, MALTED BARLEY FLOUR), WATER, SOUR CULTURE, CONTAINS LESS THAN 2% OF EACH OF THE FOLLOWING: SALT, WHEAT GERM, SEMOLINA, NIACIN, REDUCED IRON, THIAMINE, RIBOFLAVIN, FOLIC ACID, FERROUS SULFATE" Date available: 07/14/2017 Date last updated by company: 07/14/2017
