Source: USDA Branded Food Products Database Release December 2017 Software v.3.8.6.4 2017-10-02
Report Run at: December 16, 2017 22:13 EST
"Nutrient data for: 45173083, ALBERTSONS BAKERY, EGG BAGEL, UPC: 041144798187"
Food Group:  Branded Food Products Database
Common Name:

Nutrient,Unit,Data points,Std. Error,"0.5 BAGEL = 57.0g",1Value per 100 g,
Proximates
"Energy",kcal,--,--,140,246
"Protein",g,--,--,4.00,7.02
"Total lipid (fat)",g,--,--,0.50,0.88
"Carbohydrate, by difference",g,--,--,29.00,50.88
"Fiber, total dietary",g,--,--,1.0,1.8
"Sugars, total",g,--,--,2.00,3.51
Minerals
"Calcium, Ca",mg,--,--,0,0
"Iron, Fe",mg,--,--,3.47,6.09
"Sodium, Na",mg,--,--,240,421
Vitamins
"Vitamin C, total ascorbic acid",mg,--,--,0.0,0.0
"Vitamin A, IU",IU,--,--,0,0
Lipids
"Fatty acids, total saturated",g,--,--,0.000,0.000
"Fatty acids, total trans",g,--,--,0.000,0.000
"Cholesterol",mg,--,--,5,9
Amino Acids
Other
Ingredients
"ENRICHED FLOUR (WHEAT FLOUR, MALTED BARLEY FLOUR, NIACIN, REDUCED IRON, THIAMIN, RIBOFLAVIN, FOLIC ACID), WATER, EGGS, BROWN SUGAR, SUGAR, SALT, YEAST, MALTED BARLEY FLOUR, MOLASSES POWDER (MOLASSES, WHEAT STARCH, SILICON DIOXIDE), BETA CAROTENE (COLOR), DATEM, MONO- AND DIGLYCERIDES (EMULSIFIER), AMMONIUM, CHLORIDE, ASCORBIC ACID, WHEAT FLOUR, ENZYMES, POTASSIUMIODATE, L-CYSTEINE, CALCIUM SULFATE." Date available: 10/13/2017 Date last updated by company: 10/13/2017
