Source: USDA Branded Food Products Database Release December 2017 Software v.3.8.6.4 2017-10-02
Report Run at: December 16, 2017 22:13 EST
"Nutrient data for: 45256970, ALBERTSONS BAKERY, ORANGE BUTTERFLAKE ROLLS, UPC: 041144778981"
Food Group:  Branded Food Products Database
Common Name:

Nutrient,Unit,Data points,Std. Error,"1 ROLL = 57.0g",1Value per 100 g,
Proximates
"Energy",kcal,--,--,177,311
"Protein",g,--,--,3.00,5.26
"Total lipid (fat)",g,--,--,6.00,10.53
"Carbohydrate, by difference",g,--,--,24.00,42.11
"Fiber, total dietary",g,--,--,1.0,1.8
"Sugars, total",g,--,--,11.00,19.30
Minerals
"Calcium, Ca",mg,--,--,0,0
"Iron, Fe",mg,--,--,1.27,2.22
"Sodium, Na",mg,--,--,228,400
Vitamins
"Vitamin C, total ascorbic acid",mg,--,--,0.0,0.0
"Vitamin A, IU",IU,--,--,219,385
Lipids
"Fatty acids, total saturated",g,--,--,2.001,3.510
"Fatty acids, total trans",g,--,--,0.000,0.000
"Cholesterol",mg,--,--,6,11
Amino Acids
Other
Ingredients
"NATURAL FLAVOR, SOY LECITHIN, BETA CAROTENE, VITAMIN A PALMITETA ADDED, FRESH YEAST, DEXTROSE, SUGAR, EGGS, DRY MILK, BUTTER, DOUGH CONDITIONER (WHEAT FLOUR, DIACETY, TARTARIC ACID ESTERS OF MONO-DIGLYCERIDES (DATEM), DEXTROSE, SOYBEAN OIL), DEXTROSE, SOYBEAN OIL, ENZYMES, GLAZE: SUGAR, MALTODEXTRIN, AGAR, CELLULOSE GUM, POTASSIUM SORBATE, CITRIC ACID, MONO AND DIGLYCERIDES, ORANGE FLAVORING, GLUCOSE SYRUP, ORANGE CONCENTRATE, ACID, CITRIC ACID(E330), NATURAL ORANGE FLAVOURING, COLOUR (BETA CAROTENE (E160A 1), SODIUM METABISULPHITE (E223)), CORN SYRUP, STEARIC ACID, ARTIFICIAL COLOR, AGAR, GUAR GUM, PECTIN, DEXTROSE, CITRIC ACID, SODIUM HEXAMETAPHOSPHATE, NATURAL AND ARTIFICIAL FLAVOR." Date available: 07/14/2017 Date last updated by company: 07/14/2017
