Source: USDA Branded Food Products Database Release December 2017 Software v.3.8.6.4 2017-10-02
Report Run at: December 16, 2017 22:17 EST
"Nutrient data for: 45191964, ALESSIO'S, HOME STYLE JUMBO CHEESE RAVIOLI, UPC: 631148040124"
Food Group:  Branded Food Products Database
Common Name:

Nutrient,Unit,Data points,Std. Error,"4.0 RAVIOLI = 113.0g",1Value per 100 g,
Proximates
"Energy",kcal,--,--,270,239
"Protein",g,--,--,10.99,9.73
"Total lipid (fat)",g,--,--,6.99,6.19
"Carbohydrate, by difference",g,--,--,40.00,35.40
"Fiber, total dietary",g,--,--,2.0,1.8
"Sugars, total",g,--,--,0.99,0.88
Minerals
"Calcium, Ca",mg,--,--,150,133
"Iron, Fe",mg,--,--,5.98,5.29
"Sodium, Na",mg,--,--,190,168
Vitamins
"Vitamin C, total ascorbic acid",mg,--,--,0.0,0.0
"Vitamin A, IU",IU,--,--,443,392
Lipids
"Fatty acids, total saturated",g,--,--,2.994,2.650
"Fatty acids, total trans",g,--,--,0.000,0.000
"Cholesterol",mg,--,--,45,40
Amino Acids
Other
Ingredients
"FILLING: RICOTTA CHEESE (PASTEURIZED WHEY, CREAM AND MILK), MOZZARELLA CHEESE (CULTURED PASTEURIZED SKIM MILK, CREAM, SALT) GRATED PARMESAN [PASTEURIZED PART SKIM COWS MILK, CHEESE CULTURE, SALT, RENNET, POWERED CELLULOSE (AN ANTI-CAKING AGENT) CALCIUM PROPIONATE (A PRESERVATIVE)]. PASTEURIZED EGGS, PARSLEY, BLACK PEPPER, AND SPICES. DOUGH: ENRICHED DURUM WHEAT FLOUR (WHEAT FLOUR, NIACIN, FERROUS SULFATE, THIAMINE, MONONITRATE, RIBOFLAVIN, FOLIC ACID), EGGS, WATER, SOUR CREAM, (CULTURED MILK, CULTURED CREAM, WHEY PROTEIN, CONCENTRATE MODIFIED FOOD STARCH, GUAR GUM, SODIUM PHOSPHATE, LOCUST BEAN GUM, POTASSIUM SORBATE) VEGETABLE OIL, SALT." Date available: 07/14/2017 Date last updated by company: 07/14/2017
