Source: USDA Branded Food Products Database Release December 2017 Software v.3.8.6.4 2017-10-02
Report Run at: December 16, 2017 22:43 EST
"Nutrient data for: 45160731, ALKANATER, SESAME CANDY, UPC: 692551000051"
Food Group:  Branded Food Products Database
Common Name:

Nutrient,Unit,Data points,Std. Error,"2.0 ONZ = 56.7g",1Value per 100 g,
Proximates
"Energy",kcal,--,--,340,600
"Protein",g,--,--,9.00,15.87
"Total lipid (fat)",g,--,--,17.00,29.98
"Carbohydrate, by difference",g,--,--,30.00,52.91
"Fiber, total dietary",g,--,--,2.0,3.5
"Sugars, total",g,--,--,21.00,37.04
Minerals
"Calcium, Ca",mg,--,--,50,88
"Iron, Fe",mg,--,--,2.86,5.04
"Sodium, Na",mg,--,--,30,53
Vitamins
"Vitamin C, total ascorbic acid",mg,--,--,0.0,0.0
"Vitamin A, IU",IU,--,--,0,0
Lipids
"Fatty acids, total saturated",g,--,--,2.500,4.410
"Cholesterol",mg,--,--,0,0
Amino Acids
Other
Ingredients
"TAHINA (47%) (SESAME SEEDS), SUGAR, PISTACHIO (10%) HALAWA ROOT EXTRACT (2%), VANILLA, CITRIC ACID." Date available: 07/14/2017 Date last updated by company: 07/14/2017
