Source: USDA Branded Food Products Database Release December 2017 Software v.3.8.6.4 2017-10-02
Report Run at: December 16, 2017 22:48 EST
"Nutrient data for: 45218850, ALL NATURAL YOGURT, UPC: 040232036798"
Food Group:  Branded Food Products Database
Common Name:

Nutrient,Unit,Data points,Std. Error,"1 CONTAINER = 170.0g",1Value per 100 g,
Proximates
"Energy",kcal,--,--,100,59
"Protein",g,--,--,4.00,2.35
"Total lipid (fat)",g,--,--,4.00,2.35
"Carbohydrate, by difference",g,--,--,13.01,7.65
"Fiber, total dietary",g,--,--,1.0,0.6
"Sugars, total",g,--,--,6.00,3.53
Minerals
"Calcium, Ca",mg,--,--,150,88
"Iron, Fe",mg,--,--,0.36,0.21
"Sodium, Na",mg,--,--,180,106
Vitamins
"Vitamin C, total ascorbic acid",mg,--,--,15.0,8.8
"Vitamin A, IU",IU,--,--,7001,4118
Lipids
"Fatty acids, total saturated",g,--,--,2.499,1.470
"Fatty acids, total trans",g,--,--,0.000,0.000
"Cholesterol",mg,--,--,15,9
Amino Acids
Other
Ingredients
"PASTEURIZED WHOLE MILK, ROASTED BUTTERNUT SQUASH, FRESH SAGE, SEA SALT, MAPLE SUGAR, CINNAMON, NUTMEG, CLOVE, LIVE ACTIVE CULTURES." Date available: 07/14/2017 Date last updated by company: 07/14/2017
