Source: USDA Branded Food Products Database Release December 2017 Software v.3.8.6.4 2017-10-02
Report Run at: December 16, 2017 23:01 EST
"Nutrient data for: 45209656, ALL NATURAL MILK CHOCOLATE MARSHMALLOW EGG, UPC: 691355301005"
Food Group:  Branded Food Products Database
Common Name:

Nutrient,Unit,Data points,Std. Error,"1 EGG = 42.0g",1Value per 100 g,
Proximates
"Energy",kcal,--,--,160,381
"Protein",g,--,--,2.00,4.76
"Total lipid (fat)",g,--,--,6.00,14.29
"Carbohydrate, by difference",g,--,--,27.00,64.29
"Fiber, total dietary",g,--,--,0.0,0.0
"Sugars, total",g,--,--,22.00,52.38
Minerals
"Calcium, Ca",mg,--,--,40,95
"Iron, Fe",mg,--,--,0.43,1.02
"Sodium, Na",mg,--,--,85,202
Vitamins
Lipids
"Fatty acids, total saturated",g,--,--,3.499,8.330
"Fatty acids, total trans",g,--,--,0.000,0.000
"Cholesterol",mg,--,--,5,12
Amino Acids
Other
Ingredients
"MILK CHOCOLATE (SUGAR, MILK, COCOA BUTTER, CHOCOLATE LIQUOR, AND SOY LECITHIN), CORN SYRUP, SUGAR, WATER, INVERT SUGAR, GELATIN, SALT, VANILLA." Date available: 10/19/2017 Date last updated by company: 10/19/2017
