Source: USDA Branded Food Products Database Release December 2017 Software v.3.8.6.4 2017-10-02
Report Run at: December 16, 2017 22:47 EST
"Nutrient data for: 45261585, ALL NATURAL ULTRA PREMIUM ICE CREAM, UPC: 852504005056"
Food Group:  Branded Food Products Database
Common Name:

Nutrient,Unit,Data points,Std. Error,"0.5 cup = 85.0g",1Value per 100 g,
Proximates
"Energy",kcal,--,--,190,224
"Protein",g,--,--,3.00,3.53
"Total lipid (fat)",g,--,--,11.00,12.94
"Carbohydrate, by difference",g,--,--,20.00,23.53
"Fiber, total dietary",g,--,--,0.0,0.0
"Sugars, total",g,--,--,17.00,20.00
Minerals
"Calcium, Ca",mg,--,--,100,118
"Iron, Fe",mg,--,--,0.00,0.00
"Sodium, Na",mg,--,--,50,59
Vitamins
"Vitamin C, total ascorbic acid",mg,--,--,0.0,0.0
"Vitamin A, IU",IU,--,--,450,529
Lipids
"Fatty acids, total saturated",g,--,--,7.004,8.240
"Fatty acids, total trans",g,--,--,0.000,0.000
"Cholesterol",mg,--,--,45,53
Amino Acids
Other
Ingredients
"MILK, CREAM, SKIM MILK, SUGAR, BUTTERMILK SOLIDS, CORN SYRUP SOLIDS, BLACK CHERRIES (BLACK CHERRIES, CANE SUGAR SYRUP, CHERRY FLAVOR, NATURAL FLAVORS, PECTIN, CITRIC ACID, LOCUST BEAN GUM), NATURAL CHERRY FLAVOR, BRANDY FLAVOR (MWNI), ORANGE COGNAC FLAVOR (MWNI), GUAR GUM, LOCUST BEAN GUM, BEET COLOR (SUGAR, RED BEET EXTRACTIVES, WATER, CITRIC ACID, SODIUM BENZOATE, POTASSIUM SORBATE) AND CARRAGEENAN." Date available: 07/14/2017 Date last updated by company: 07/14/2017
