Source: USDA Branded Food Products Database Release December 2017 Software v.3.8.6.4 2017-10-02
Report Run at: December 16, 2017 23:01 EST
"Nutrient data for: 45254827, ALL NATURAL MUESLI WITH EXOTIC FRUIT, UPC: 805385230017"
Food Group:  Branded Food Products Database
Common Name:

Nutrient,Unit,Data points,Std. Error,"3.18 ONZ = 100.0g",1Value per 100 g,
Proximates
"Protein",g,--,--,6.40,6.40
"Total lipid (fat)",g,--,--,5.20,5.20
"Carbohydrate, by difference",g,--,--,59.80,59.80
"Fiber, total dietary",g,--,--,0.0,0.0
Minerals
"Sodium, Na",mg,--,--,0,0
Vitamins
Lipids
"Fatty acids, total saturated",g,--,--,1.000,1.000
"Fatty acids, total trans",g,--,--,0.000,0.000
"Cholesterol",mg,--,--,10,10
Amino Acids
Other
Ingredients
"FLAKES 60% (WHEAT FLAKES, CATS FLAKES, RICE FLAKES, CORNFLAKES), FRUITS 40% (RASINS, DRIED PAPAYA, DREAD PINEAPPLE, BANANA-CRISPS)" Date available: 10/13/2017 Date last updated by company: 10/13/2017
