Source: USDA Branded Food Products Database Release December 2017 Software v.3.8.6.4 2017-10-02
Report Run at: December 16, 2017 22:55 EST
"Nutrient data for: 45237220, ALL NATURAL CLAM & CORN CHOWDER, UPC: 043787015904"
Food Group:  Branded Food Products Database
Common Name:

Nutrient,Unit,Data points,Std. Error,"0.5 cup = 120.0g",1Value per 100 g,
Proximates
"Energy",kcal,--,--,90,75
"Protein",g,--,--,7.00,5.83
"Total lipid (fat)",g,--,--,1.50,1.25
"Carbohydrate, by difference",g,--,--,13.00,10.83
"Fiber, total dietary",g,--,--,1.0,0.8
"Sugars, total",g,--,--,2.00,1.67
Minerals
"Calcium, Ca",mg,--,--,40,33
"Iron, Fe",mg,--,--,0.72,0.60
"Sodium, Na",mg,--,--,480,400
Vitamins
"Vitamin C, total ascorbic acid",mg,--,--,6.0,5.0
"Vitamin A, IU",IU,--,--,200,167
Lipids
"Fatty acids, total saturated",g,--,--,0.000,0.000
"Fatty acids, total trans",g,--,--,0.000,0.000
"Cholesterol",mg,--,--,14,12
Amino Acids
Other
Ingredients
"CLAMS AND CLAM JUICE, SWEET CORN, POTATOES, WATER, CELERY, ONIONS, RICE FLOUR, ORGANIC TAPIOCA STARCH, SALT, SOYBEAN OIL, RED BELL PEPPERS, NATURAL FLAVORINGS*, YEAST EXTRACT, XANTHAN GUM AND SPICES." Date available: 06/24/2017 Date last updated by company: 06/24/2017
