Source: USDA Branded Food Products Database Release December 2017 Software v.3.8.6.4 2017-10-02
Report Run at: December 16, 2017 22:51 EST
"Nutrient data for: 45004153, ALL PURPOSE SALT FREE SEASONING, UPC: 032251050282"
Food Group:  Branded Food Products Database
Common Name:

Nutrient,Unit,Data points,Std. Error,"0.25 tsp = 0.7g",1Value per 100 g,
Proximates
"Energy",kcal,--,--,0,0
"Protein",g,--,--,0.00,0.00
"Total lipid (fat)",g,--,--,0.00,0.00
"Carbohydrate, by difference",g,--,--,0.00,0.00
Minerals
"Sodium, Na",mg,--,--,0,0
Vitamins
Lipids
Amino Acids
Other
Ingredients
"SPICES, ONION, GARLIC, TOMATO, CARROT, ORANGE PEEL, CORN SYRUP SOLIDS, LEMON JUICE SOLIDS, CITRIC ACID, AND OIL OF LEMON." Date available: 07/14/2017 Date last updated by company: 07/14/2017
