Source: USDA Branded Food Products Database Release December 2017 Software v.3.8.6.4 2017-10-02
Report Run at: December 16, 2017 22:44 EST
"Nutrient data for: 45197732, ALL NATURAL YOGURT, UPC: 687652600606"
Food Group:  Branded Food Products Database
Common Name:

Nutrient,Unit,Data points,Std. Error,"6.0 ONZ = 170.0g",1Value per 100 g,
Proximates
"Energy",kcal,--,--,121,71
"Protein",g,--,--,6.00,3.53
"Total lipid (fat)",g,--,--,6.00,3.53
"Carbohydrate, by difference",g,--,--,8.01,4.71
"Fiber, total dietary",g,--,--,0.0,0.0
"Sugars, total",g,--,--,8.01,4.71
Minerals
"Calcium, Ca",mg,--,--,250,147
"Iron, Fe",mg,--,--,0.00,0.00
"Sodium, Na",mg,--,--,80,47
Vitamins
"Vitamin C, total ascorbic acid",mg,--,--,0.0,0.0
"Vitamin A, IU",IU,--,--,299,176
Lipids
"Fatty acids, total saturated",g,--,--,3.995,2.350
"Fatty acids, total monounsaturated",g,--,--,0.000,0.000
"Fatty acids, total polyunsaturated",g,--,--,0.000,0.000
"Fatty acids, total trans",g,--,--,0.000,0.000
"Cholesterol",mg,--,--,26,15
Amino Acids
Other
Ingredients
"GRADE A PASTEURIZED GRAZIERS WHOLE MILK, CREAM, NON-FAT MILK, LIVE ACTIVE CULTURES: L. BULGARICUS, S. THERMOPHILUS, L. ACIDOPHILUS, L. CASEI, BIFIDOBACTERIUM, CULTURED AFTER PASTEURIZATION." Date available: 07/14/2017 Date last updated by company: 07/14/2017
