Source: USDA Branded Food Products Database Release December 2017 Software v.3.8.6.4 2017-10-02
Report Run at: December 16, 2017 22:59 EST
"Nutrient data for: 45226283, ALL NATURAL GROUND BEEF, UPC: 658761357347"
Food Group:  Branded Food Products Database
Common Name:

Nutrient,Unit,Data points,Std. Error,"4.0 ONZ = 112.0g",1Value per 100 g,
Proximates
"Energy",kcal,--,--,349,312
"Protein",g,--,--,19.00,16.96
"Total lipid (fat)",g,--,--,30.00,26.79
"Carbohydrate, by difference",g,--,--,0.00,0.00
Minerals
"Iron, Fe",mg,--,--,1.80,1.61
"Sodium, Na",mg,--,--,60,54
Vitamins
Lipids
"Fatty acids, total saturated",g,--,--,11.995,10.710
"Cholesterol",mg,--,--,80,71
Amino Acids
Other
Ingredients
"GROUND BEEF" Date available: 12/31/2016 Date last updated by company: 12/31/2016
