Source: USDA Branded Food Products Database Release December 2017 Software v.3.8.6.4 2017-10-02
Report Run at: December 16, 2017 22:54 EST
"Nutrient data for: 45212792, ALL NATURAL BUBBLE GUM, UPC: 856293003255"
Food Group:  Branded Food Products Database
Common Name:

Nutrient,Unit,Data points,Std. Error,"2.0 PIECES = 4.0g",1Value per 100 g,
Proximates
"Energy",kcal,--,--,10,250
"Protein",g,--,--,0.00,0.00
"Total lipid (fat)",g,--,--,0.00,0.00
"Carbohydrate, by difference",g,--,--,3.00,75.00
"Sugars, total",g,--,--,3.00,75.00
Minerals
"Sodium, Na",mg,--,--,0,0
Vitamins
"Vitamin A, IU",IU,--,--,2500,62500
Lipids
Amino Acids
Other
Ingredients
"CANE SUGAR, GLUCOSE, GUM BASE (CONTAINS NATURAL CHICLE), BROWN RICE SYRUP, GUM ARABIC, NATURAL FLAVORS (INCLUDING LEMON, GRAPEFRUIT, WATERMELON, POMEGRANATE), SUNFLOWER LECITHIN, NATURAL COLORS (INCLUDING: RED BEET, BERRY EXTRACT, PAPRIKA EXTRACT, BETA CAROTENE, CHLOROPHYLLIN), CARNAUBA WAX." Date available: 07/14/2017 Date last updated by company: 07/14/2017
