Source: USDA Branded Food Products Database Release December 2017 Software v.3.8.6.4 2017-10-02
Report Run at: December 16, 2017 22:43 EST
"Nutrient data for: 45193039, ALL AMERICAN HALF SUB, UPC: 011110110961"
Food Group:  Branded Food Products Database
Common Name:

Nutrient,Unit,Data points,Std. Error,"1 SUB = 266.0g",1Value per 100 g,
Proximates
"Energy",kcal,--,--,649,244
"Protein",g,--,--,38.01,14.29
"Total lipid (fat)",g,--,--,33.01,12.41
"Carbohydrate, by difference",g,--,--,54.00,20.30
"Fiber, total dietary",g,--,--,2.1,0.8
"Sugars, total",g,--,--,6.01,2.26
Minerals
"Calcium, Ca",mg,--,--,700,263
"Iron, Fe",mg,--,--,1.89,0.71
"Sodium, Na",mg,--,--,1559,586
Vitamins
"Vitamin C, total ascorbic acid",mg,--,--,1.3,0.5
"Vitamin A, IU",IU,--,--,920,346
Lipids
"Fatty acids, total saturated",g,--,--,16.013,6.020
"Fatty acids, total trans",g,--,--,0.000,0.000
"Cholesterol",mg,--,--,104,39
Amino Acids
Other
Ingredients
"SUB ROLL (ENRICHED WHEAT FLOUR (WHEAT AND MALTED BARLEY FLOUR, NIACIN, REDUCED IRON, THIAMINE MONONITRATE, RIBOFLAVIN, FOLIC ACID], WATER, CONTAINS 2% OR LESS OF: YEAST, SUGAR, SALT, MALTED BARLEY EXTRACT, WHEAT GLUTEN VEGETABLE OIL [CANOLA OIL OR SOYBEAN OIL]. FURMARIC ACID, PRESERVATIVES [CALCIUM PROPIONATE PHOSPHORIC ACID, SODIUM PROPIONATE], WHEAT STARCH DOUGH CONDITIONERS (MONO AND DIGLYCERIDES, ETHOXYLATED MONO AND DIGLYCERIDES, POLYSORBATE 60, ASCORBIC ACID, ENZYMES], LACTIC ACID, SODIUM DIACETATE, HYDROGENATED VEGETABLE OIL (SOYBEAN, PALM AND/OR COTTONSEED OIL]), CHEDDAR CHEESE (PASTEURIZED MILK, CHEESE CULTURE, SALT, ENZYMES, ANNATTO [COLOR]), BEEF BOLOGNA (BEEF, WATER, SALT, CONTAINS LESS THAN 2% OF NONFAT DRY MILK, CORN SYRUP, SUGAR, ISOLATED SOY PROTEIN, FLAVORING, DEXTROSE, SODIUM PHOSPHATE PAPRIKA, ONION POWDER, SODIUM ERYTHORBATE, SODIUM NITRITE), SWISS CHEESE (PART-SKIM MILK, CHEESE CULTURE, SALT, ENZYMES), SALAMI (BEEF AND PORK, WATER, NONFAT DRY MILK, CONTAINS LESS THAN 2% OF CORN SYRUP, MUSTARD POWDER, SALT, SPICES, GARLIC POWDER ISOLATED SOY PROTEIN, DEXTROSE, SODIUM ERYTHORBATE, SODIUM NITRITE), HAM (CURED WITH WATER, CONTAINS LESS THAN 2% OF: SALT, SUGAR, DEXTROSE, POTASSIUM LACTATE, SODIUM DIACETATE, SODIUM PHOSPHATE, SODIUM ERYTHORBATE, SODIUM NITRITE), LETTUCE, RED ONIONS." Date available: 07/14/2017 Date last updated by company: 07/14/2017
