Source: USDA Branded Food Products Database Release December 2017 Software v.3.8.6.4 2017-10-02
Report Run at: December 16, 2017 22:51 EST
"Nutrient data for: 45211037, ALL PURPOSE MUFFIN MIX, UPC: 856928004589"
Food Group:  Branded Food Products Database
Common Name:

Nutrient,Unit,Data points,Std. Error,"0.06 PKG. = 29.0g",1Value per 100 g,
Proximates
"Energy",kcal,--,--,110,379
"Protein",g,--,--,0.40,1.38
"Total lipid (fat)",g,--,--,0.00,0.00
"Carbohydrate, by difference",g,--,--,27.00,93.10
"Fiber, total dietary",g,--,--,1.0,3.4
"Sugars, total",g,--,--,14.00,48.28
Minerals
"Calcium, Ca",mg,--,--,20,69
"Iron, Fe",mg,--,--,0.50,1.71
"Sodium, Na",mg,--,--,180,621
Vitamins
"Vitamin C, total ascorbic acid",mg,--,--,0.0,0.0
"Vitamin A, IU",IU,--,--,0,0
Lipids
"Fatty acids, total saturated",g,--,--,0.000,0.000
"Fatty acids, total trans",g,--,--,0.000,0.000
"Cholesterol",mg,--,--,0,0
Amino Acids
Other
Ingredients
"GLUTEN FREE FLOUR (PREMIUM CASSAVA FLOUR, UNMODIFIED POTATO STARCH, ORGANIC COCONUT FLOUT, XANTHAN GUM (EMULSIFIER)), PURE CANE SUGAR, BAKING POWDER (RAISING AGENTS: SODIUM ACID PYROPHOSPHATE, SODIUM BICARBONATE, CORN STARCH AND MONOCALCIUM PHOSPHATE), SEA SALT, ORGANIC VANILLA FLAVOR" Date available: 07/14/2017 Date last updated by company: 07/14/2017
