Source: USDA Branded Food Products Database Release December 2017 Software v.3.8.6.4 2017-10-02
Report Run at: December 16, 2017 22:46 EST
"Nutrient data for: 45081560, ALL NATURAL TAMALE SAUCE, UPC: 094922144171"
Food Group:  Branded Food Products Database
Common Name:

Nutrient,Unit,Data points,Std. Error,"0.25 cup = 65.0g",1Value per 100 g,
Proximates
"Energy",kcal,--,--,50,77
"Protein",g,--,--,1.00,1.54
"Total lipid (fat)",g,--,--,3.50,5.38
"Carbohydrate, by difference",g,--,--,5.00,7.69
"Fiber, total dietary",g,--,--,1.0,1.5
"Sugars, total",g,--,--,0.00,0.00
Minerals
"Calcium, Ca",mg,--,--,20,31
"Iron, Fe",mg,--,--,0.73,1.12
"Sodium, Na",mg,--,--,360,554
Vitamins
"Vitamin C, total ascorbic acid",mg,--,--,2.4,3.7
"Vitamin A, IU",IU,--,--,1522,2341
Lipids
"Fatty acids, total saturated",g,--,--,0.000,0.000
"Fatty acids, total trans",g,--,--,0.000,0.000
"Cholesterol",mg,--,--,0,0
Amino Acids
Other
Ingredients
"WATER, NATURAL SPICES, CANOLA OIL, LEMON JUICE, CORN STARCH, GARLIC, CHICKEN BASE V(CHICKEN MEAT WITH NATURAL JUICES, SALT, ORGANIC CANE JUICE SOLIDS, MALTODEXTRIN (FROM CORN), CHICKEN FAT, YEAST EXTRACT, NATURAL FLAVORS, ONION, POTATO FLOUR, SPICE EXTRACTIVES, TURMERIC), SALT, WHEAT FLOUR." Date available: 06/25/2017 Date last updated by company: 06/25/2017
