Source: USDA Branded Food Products Database Release December 2017 Software v.3.8.6.4 2017-10-02
Report Run at: December 16, 2017 22:51 EST
"Nutrient data for: 45061814, ALL PURPOSE GOURMET SAUCE, UPC: 078122070942"
Food Group:  Branded Food Products Database
Common Name:

Nutrient,Unit,Data points,Std. Error,"2.0 Tbsp = 32.0g",1Value per 100 g,
Proximates
"Energy",kcal,--,--,30,94
"Protein",g,--,--,0.00,0.00
"Total lipid (fat)",g,--,--,0.00,0.00
"Carbohydrate, by difference",g,--,--,7.00,21.88
"Fiber, total dietary",g,--,--,0.0,0.0
"Sugars, total",g,--,--,7.00,21.88
Minerals
"Calcium, Ca",mg,--,--,0,0
"Iron, Fe",mg,--,--,0.00,0.00
"Sodium, Na",mg,--,--,190,594
Vitamins
"Vitamin C, total ascorbic acid",mg,--,--,8.1,25.4
"Vitamin A, IU",IU,--,--,507,1584
Lipids
"Fatty acids, total saturated",g,--,--,0.000,0.000
"Fatty acids, total trans",g,--,--,0.000,0.000
"Cholesterol",mg,--,--,0,0
Amino Acids
Other
Ingredients
"INGREDIENTS: TOMATO SAUCE (WATER, TOMATO PASTE), DARK BROWN SUGAR, HOT SAUCE (RED PEPPERS, VINEGAR, SALT, GARLIC), APPLE CIDER VINEGAR, SUGAR, WORCESTERSHIRE SAUCE (DISTILLED VINEGAR, MOLASSES, CORN SYRUP, WATER, SALT, CARAMEL COLOR, DEHYDRATED GARLIC, SUGAR, SPICES, TAMARIND, NATURAL FLAVOR), VINEGAR, GARLIC, LEMON JUICE (WATER, CONCENTRATED LEMON JUICE, SODIUM BENZOATE, SODIUM METABISULFITE), SALT, SEASONED SALT (SALT, SUGAR, SPICES INCLUDING PAPRIKA AND TURMERIC, ONION, CORN STARCH, GARLIC AND NATURAL FLAVORS), SPICES, ONION, NATURAL SMOKE FLAVOR, POTASSIUM SORBATE (TO PRESERVE FRESHNESS)." Date available: 07/14/2017 Date last updated by company: 07/14/2017
