Source: USDA Branded Food Products Database Release December 2017 Software v.3.8.6.4 2017-10-02
Report Run at: December 16, 2017 22:53 EST
"Nutrient data for: 45208190, ALL NATURAL BANANA WALNUT GRANOLA, UPC: 053089000027"
Food Group:  Branded Food Products Database
Common Name:

Nutrient,Unit,Data points,Std. Error,"0.333 cup = 40.0g",1Value per 100 g,
Proximates
"Energy",kcal,--,--,140,350
"Protein",g,--,--,3.00,7.50
"Total lipid (fat)",g,--,--,5.00,12.50
"Carbohydrate, by difference",g,--,--,22.00,55.00
"Fiber, total dietary",g,--,--,2.0,5.0
"Sugars, total",g,--,--,9.00,22.50
Minerals
"Calcium, Ca",mg,--,--,20,50
"Iron, Fe",mg,--,--,0.99,2.48
"Sodium, Na",mg,--,--,0,0
Vitamins
"Vitamin C, total ascorbic acid",mg,--,--,0.0,0.0
"Vitamin A, IU",IU,--,--,0,0
Lipids
"Fatty acids, total saturated",g,--,--,2.000,5.000
"Fatty acids, total trans",g,--,--,0.000,0.000
"Cholesterol",mg,--,--,0,0
Amino Acids
Other
Ingredients
"ROLLED OATS, BROWN SUGAR, HONEY, WALNUTS, BANANA CHIPS (BANANAS, EXPELLER PRESSED COCONUT OIL, SUGAR, NATURAL FLAVOR), CANOLA OIL, SWEETENED COCONUT FLAKES, FLAX SEED, BANANAS, MAPLE SYRUP NATURAL VANILLA FLAVOR." Date available: 07/14/2017 Date last updated by company: 07/14/2017
