Source: USDA Branded Food Products Database Release December 2017 Software v.3.8.6.4 2017-10-02
Report Run at: December 16, 2017 22:49 EST
"Nutrient data for: 45025071, ALL-FRUIT SMOOTHIE STRAWBERRY BANANA, UPC: 079947000084"
Food Group:  Branded Food Products Database
Common Name:

Nutrient,Unit,Data points,Std. Error,"1 cup = 140.0g",1Value per 100 g,
Proximates
"Energy",kcal,--,--,80,57
"Protein",g,--,--,0.99,0.71
"Carbohydrate, by difference",g,--,--,20.01,14.29
"Fiber, total dietary",g,--,--,2.9,2.1
"Sugars, total",g,--,--,10.00,7.14
Minerals
"Calcium, Ca",mg,--,--,20,14
"Iron, Fe",mg,--,--,0.21,0.15
"Potassium, K",mg,--,--,321,229
Vitamins
"Vitamin C, total ascorbic acid",mg,--,--,11.2,8.0
"Vitamin A, IU",IU,--,--,14,10
Lipids
"Fatty acids, total saturated",g,--,--,0.000,0.000
"Fatty acids, total monounsaturated",g,--,--,0.000,0.000
"Fatty acids, total polyunsaturated",g,--,--,0.000,0.000
"Fatty acids, total trans",g,--,--,0.000,0.000
Amino Acids
Other
Ingredients
"STRAWBERRIES, BANANAS" Date available: 10/04/2017 Date last updated by company: 10/04/2017
