Source: USDA Branded Food Products Database Release December 2017 Software v.3.8.6.4 2017-10-02
Report Run at: December 16, 2017 22:59 EST
"Nutrient data for: 45291737, ALL NATURAL ICE CREAM, UPC: 07203698010"
Food Group:  Branded Food Products Database
Common Name:

Nutrient,Unit,Data points,Std. Error,"0.667 cup = 88.0g",1Value per 100 g,
Proximates
"Energy",kcal,--,--,190,216
"Protein",g,--,--,3.00,3.41
"Total lipid (fat)",g,--,--,12.00,13.64
"Carbohydrate, by difference",g,--,--,20.00,22.73
"Fiber, total dietary",g,--,--,0.0,0.0
"Sugars, total",g,--,--,19.00,21.59
Minerals
"Calcium, Ca",mg,--,--,97,110
"Iron, Fe",mg,--,--,0.00,0.00
"Potassium, K",mg,--,--,138,157
"Sodium, Na",mg,--,--,55,62
Vitamins
"Vitamin D",IU,--,--,0,0
Lipids
"Fatty acids, total saturated",g,--,--,6.996,7.950
"Fatty acids, total trans",g,--,--,0.000,0.000
"Cholesterol",mg,--,--,35,40
Amino Acids
Other
Ingredients
"MILK, CREAM, SUGAR, BORDEAUX STYLE CHERRIES (CHERRIES, CONCENTRATED CHERRY JUICE, ETHYL ALCOHOL, LOCUST BEAN GUM, GUAR GUM, NATURAL FLAVOR)." Date available: 09/22/2017 Date last updated by company: 09/22/2017
