Source: USDA Branded Food Products Database Release December 2017 Software v.3.8.6.4 2017-10-02
Report Run at: December 16, 2017 22:44 EST
"Nutrient data for: 45049395, ALLA NORMA SAUCE, UPC: 041220846566"
Food Group:  Branded Food Products Database
Common Name:

Nutrient,Unit,Data points,Std. Error,"0.5 cup = 120.0g",1Value per 100 g,
Proximates
"Energy",kcal,--,--,60,50
"Protein",g,--,--,2.00,1.67
"Total lipid (fat)",g,--,--,3.00,2.50
"Carbohydrate, by difference",g,--,--,5.00,4.17
"Fiber, total dietary",g,--,--,3.0,2.5
"Sugars, total",g,--,--,4.00,3.33
Minerals
"Calcium, Ca",mg,--,--,20,17
"Iron, Fe",mg,--,--,7.61,6.34
"Potassium, K",mg,--,--,500,417
"Sodium, Na",mg,--,--,750,625
Vitamins
"Vitamin C, total ascorbic acid",mg,--,--,3.1,2.6
"Vitamin A, IU",IU,--,--,528,440
Lipids
"Fatty acids, total saturated",g,--,--,0.504,0.420
"Fatty acids, total trans",g,--,--,0.000,0.000
"Cholesterol",mg,--,--,0,0
Amino Acids
Other
Ingredients
"TOMATO PUREE, TOMATO PULP, EGGPLANTS, EXTRA VIRGIN OLIVE OIL, ONIONS, SALT, GARLIC, BASIL, CITRIC ACID (ACIDIFIERS)." Date available: 06/25/2017 Date last updated by company: 06/25/2017
