Source: USDA Branded Food Products Database Release December 2017 Software v.3.8.6.4 2017-10-02
Report Run at: December 16, 2017 22:45 EST
"Nutrient data for: 45170517, ALLENS, CUT ITALIAN GREEN BEANS, UPC: 034700012551"
Food Group:  Branded Food Products Database
Common Name:

Nutrient,Unit,Data points,Std. Error,"0.5 cup = 119.0g",1Value per 100 g,
Proximates
"Energy",kcal,--,--,20,17
"Protein",g,--,--,1.00,0.84
"Total lipid (fat)",g,--,--,0.00,0.00
"Carbohydrate, by difference",g,--,--,4.00,3.36
"Fiber, total dietary",g,--,--,2.0,1.7
"Sugars, total",g,--,--,1.00,0.84
Minerals
"Calcium, Ca",mg,--,--,60,50
"Iron, Fe",mg,--,--,1.18,0.99
"Potassium, K",mg,--,--,120,101
"Sodium, Na",mg,--,--,140,118
Vitamins
"Vitamin C, total ascorbic acid",mg,--,--,1.3,1.1
"Vitamin A, IU",IU,--,--,219,184
Lipids
"Fatty acids, total saturated",g,--,--,0.000,0.000
"Fatty acids, total trans",g,--,--,0.000,0.000
"Cholesterol",mg,--,--,0,0
Amino Acids
Other
Ingredients
"ITALIAN GREEN BEANS, WATER, SALT." Date available: 07/14/2017 Date last updated by company: 07/14/2017
