Source: USDA Branded Food Products Database Release December 2017 Software v.3.8.6.4 2017-10-02
Report Run at: December 16, 2017 22:47 EST
"Nutrient data for: 45091335, ALLENS, SEASONED TURNIP GREENS, UPC: 034700214115"
Food Group:  Branded Food Products Database
Common Name:

Nutrient,Unit,Data points,Std. Error,"0.5 cup = 118.0g",1Value per 100 g,
Proximates
"Energy",kcal,--,--,35,30
"Protein",g,--,--,1.99,1.69
"Total lipid (fat)",g,--,--,0.50,0.42
"Carbohydrate, by difference",g,--,--,5.00,4.24
"Fiber, total dietary",g,--,--,2.0,1.7
"Sugars, total",g,--,--,1.99,1.69
Minerals
"Calcium, Ca",mg,--,--,150,127
"Iron, Fe",mg,--,--,1.19,1.01
"Potassium, K",mg,--,--,130,110
"Sodium, Na",mg,--,--,400,339
Vitamins
"Vitamin C, total ascorbic acid",mg,--,--,6.6,5.6
"Vitamin A, IU",IU,--,--,3856,3268
Lipids
"Fatty acids, total saturated",g,--,--,0.000,0.000
"Fatty acids, total trans",g,--,--,0.000,0.000
"Cholesterol",mg,--,--,0,0
Amino Acids
Other
Ingredients
"TURNIP GREENS, WATER, SUGAR, SALT, MINCED ONION, HYDROLYZED CORN PROTEIN, SODIUM DIACETATE, SPICES, ARTIFICIAL FLAVOR (NATURAL SMOKE FLAVOR, CARAMEL COLOR, SPICE EXTRACTIVES), AUTOLYZED YEAST EXTRACT, MALTODEXTRIN, DISODIUM INOSINATE." Date available: 07/14/2017 Date last updated by company: 07/14/2017
