Source: USDA Branded Food Products Database Release December 2017 Software v.3.8.6.4 2017-10-02
Report Run at: December 16, 2017 22:46 EST
"Nutrient data for: 45205194, ALLENS, SEASONED BAKED BEANS, UPC: 034700422176"
Food Group:  Branded Food Products Database
Common Name:

Nutrient,Unit,Data points,Std. Error,"0.5 cup = 129.0g",1Value per 100 g,
Proximates
"Energy",kcal,--,--,150,116
"Protein",g,--,--,6.00,4.65
"Total lipid (fat)",g,--,--,1.50,1.16
"Carbohydrate, by difference",g,--,--,29.00,22.48
"Fiber, total dietary",g,--,--,5.0,3.9
"Sugars, total",g,--,--,11.00,8.53
Minerals
"Calcium, Ca",mg,--,--,40,31
"Iron, Fe",mg,--,--,1.82,1.41
"Potassium, K",mg,--,--,290,225
"Sodium, Na",mg,--,--,590,457
Vitamins
"Vitamin C, total ascorbic acid",mg,--,--,1.2,0.9
"Vitamin A, IU",IU,--,--,0,0
Lipids
"Fatty acids, total saturated",g,--,--,0.000,0.000
"Fatty acids, total monounsaturated",g,--,--,0.000,0.000
"Fatty acids, total polyunsaturated",g,--,--,1.006,0.780
"Fatty acids, total trans",g,--,--,0.000,0.000
"Cholesterol",mg,--,--,0,0
Amino Acids
Other
Ingredients
"PREPARED NAVY BEANS, WATER, SUGAR, BROWN SUGAR, CORN SYRUP, SALT, FOOD STARCH-MODIFIED, BACON (CURED WITH WATER, SALT, SUGAR, SODIUM PHOSPHATE, SODIUM ERYTHORBATE AND SODIUM NITRATE), DEXTROSE, SPICE, CARAMEL COLORING, ONION POWDER, HYDROLYZED CORN PROTEIN, NATURAL SMOKE FLAVOR, GARLIC POWDER, SOYBEAN OIL, NATURAL FLAVORINGS." Date available: 07/14/2017 Date last updated by company: 07/14/2017
