Source: USDA Branded Food Products Database Release December 2017 Software v.3.8.6.4 2017-10-02
Report Run at: December 16, 2017 22:48 EST
"Nutrient data for: 45030451, ALLENS, TOMATOES & OKRA, UPC: 034700854106"
Food Group:  Branded Food Products Database
Common Name:

Nutrient,Unit,Data points,Std. Error,"0.5 cup = 125.0g",1Value per 100 g,
Proximates
"Energy",kcal,--,--,35,28
"Protein",g,--,--,0.00,0.00
"Total lipid (fat)",g,--,--,0.00,0.00
"Carbohydrate, by difference",g,--,--,7.00,5.60
"Fiber, total dietary",g,--,--,4.0,3.2
"Sugars, total",g,--,--,3.00,2.40
Minerals
"Calcium, Ca",mg,--,--,80,64
"Iron, Fe",mg,--,--,0.38,0.30
"Potassium, K",mg,--,--,130,104
"Sodium, Na",mg,--,--,320,256
Vitamins
"Vitamin C, total ascorbic acid",mg,--,--,0.0,0.0
"Vitamin A, IU",IU,--,--,416,333
Lipids
"Fatty acids, total saturated",g,--,--,0.000,0.000
"Fatty acids, total trans",g,--,--,0.000,0.000
"Cholesterol",mg,--,--,0,0
Amino Acids
Other
Ingredients
"TOMATOES, OKRA, WATER, SUGAR, SALT, ONION POWDER, GARLIC POWDER, CITRIC ACID, DEHYDRATED ONIONS, BLACK PEPPER, CALCIUM CHLORIDE ADDED TO HELP MAINTAIN FIRMNESS." Date available: 09/13/2017 Date last updated by company: 09/13/2017
