Source: USDA Branded Food Products Database Release December 2017 Software v.3.8.6.4 2017-10-02
Report Run at: December 16, 2017 22:58 EST
"Nutrient data for: 45271130, ALMOND CAKE, UPC: 866047000225"
Food Group:  Branded Food Products Database
Common Name:

Nutrient,Unit,Data points,Std. Error,"1 CAKE = 108.0g",1Value per 100 g,
Proximates
"Energy",kcal,--,--,450,417
"Protein",g,--,--,8.00,7.41
"Total lipid (fat)",g,--,--,26.00,24.07
"Carbohydrate, by difference",g,--,--,49.00,45.37
"Fiber, total dietary",g,--,--,3.0,2.8
"Sugars, total",g,--,--,38.01,35.19
Minerals
"Calcium, Ca",mg,--,--,100,93
"Iron, Fe",mg,--,--,1.07,0.99
"Sodium, Na",mg,--,--,291,269
Vitamins
"Vitamin C, total ascorbic acid",mg,--,--,0.0,0.0
"Vitamin A, IU",IU,--,--,370,343
Lipids
"Fatty acids, total saturated",g,--,--,11.005,10.190
"Fatty acids, total trans",g,--,--,0.497,0.460
"Cholesterol",mg,--,--,130,120
Amino Acids
Other
Ingredients
"SUGAR, EGGS, ALMONDS, BUTTER (CREAM, NATURAL FLAVORING), GLUTEN FREE FLOUR (GARBANZO BEAN FLOUR, POTATO STARCH, TAPIOCA FLOUR, WHITE SORGHUM FLOUR, FAVA BEAN FLOUR) BAKING POWDER (SODIUM ACID PYROPHOSPHATE, SODIUM BICARBONATE, CORN STARCH, AND MONOCALCIUM PHOSPHATE), SALT, ALMOND EXTRACT (ETHYL ALCOHOL, WATER, OIL OF BITTER ALMOND)." Date available: 07/14/2017 Date last updated by company: 07/14/2017
