Source: USDA Branded Food Products Database Release December 2017 Software v.3.8.6.4 2017-10-02
Report Run at: December 16, 2017 23:16 EST
"Nutrient data for: 45323205, ALMOND TOFFEE, UPC: 635104170191"
Food Group:  Branded Food Products Database
Common Name:

Nutrient,Unit,Data points,Std. Error,"3.0 PIECES = 42.5g",1Value per 100 g,
Proximates
"Energy",kcal,--,--,210,494
"Protein",g,--,--,2.00,4.71
"Total lipid (fat)",g,--,--,16.00,37.65
"Carbohydrate, by difference",g,--,--,19.00,44.71
"Fiber, total dietary",g,--,--,2.0,4.7
"Sugars, total",g,--,--,16.00,37.65
Minerals
"Calcium, Ca",mg,--,--,20,47
"Iron, Fe",mg,--,--,1.70,3.99
"Sodium, Na",mg,--,--,75,176
Vitamins
"Vitamin C, total ascorbic acid",mg,--,--,0.0,0.0
"Vitamin A, IU",IU,--,--,353,831
Lipids
"Fatty acids, total saturated",g,--,--,7.998,18.820
"Fatty acids, total trans",g,--,--,0.000,0.000
"Cholesterol",mg,--,--,25,59
Amino Acids
Other
Ingredients
"BUTTER (PASTEURIZED CREAM, SALT), SUGAR, ALMONDS, SUNFLOWER LECITHIN, SALT, SEMISWEET CHOCOLATE (UNSWEETENED CHOCOLATE PROCESSED WITH POTASSIUM CARBONATE, SUGAR, COCOA BUTTER, SUNFLOWER AND/OR SOY LECITHIN, VANILLA)." Date available: 07/14/2017 Date last updated by company: 07/14/2017
