Source: USDA Branded Food Products Database Release December 2017 Software v.3.8.6.4 2017-10-02
Report Run at: December 16, 2017 23:00 EST
"Nutrient data for: 45269441, ALMOND CRUNCH, UPC: 853152100629"
Food Group:  Branded Food Products Database
Common Name:

Nutrient,Unit,Data points,Std. Error,"1 BAR = 85.0g",1Value per 100 g,
Proximates
"Energy",kcal,--,--,370,435
"Protein",g,--,--,9.00,10.59
"Total lipid (fat)",g,--,--,18.00,21.18
"Carbohydrate, by difference",g,--,--,48.00,56.47
"Fiber, total dietary",g,--,--,6.0,7.1
"Sugars, total",g,--,--,19.00,22.35
Minerals
"Calcium, Ca",mg,--,--,80,94
"Iron, Fe",mg,--,--,1.27,1.50
"Sodium, Na",mg,--,--,25,29
Vitamins
"Vitamin C, total ascorbic acid",mg,--,--,0.0,0.0
"Vitamin A, IU",IU,--,--,0,0
Lipids
"Fatty acids, total saturated",g,--,--,1.998,2.350
"Fatty acids, total trans",g,--,--,0.000,0.000
"Cholesterol",mg,--,--,0,0
Amino Acids
Other
Ingredients
"TAPIOCA SYRUP+, OATS+, DATES+, SUNFLOWER SEEDS+, CASHEW BUTTER+ (CASHEWS+, SUNFLOWER OIL+), ALMOND BUTTER, CASHEW PIECES, FLAX SEEDS+, SESAME SEEDS+, ALMONDS, CRISP BROWN RICE+, DRIED CANE SYRUP+, EXPELLER PRESSED CANOLA OIL+, SLICED ALMONDS+, GLYCERIN, RICE SYRUP+, NATURAL FLAVORS, OAT FLOUR, PUMPKIN SEEDS+, MOLASSES+, SALT." Date available: 07/14/2017 Date last updated by company: 07/14/2017
