Source: USDA Branded Food Products Database Release December 2017 Software v.3.8.6.4 2017-10-02
Report Run at: December 16, 2017 23:14 EST
"Nutrient data for: 45322876, ALMONDS, UPC: 041570051795"
Food Group:  Branded Food Products Database
Common Name:

Nutrient,Unit,Data points,Std. Error,"1 PACKAGE = 43.0g",1Value per 100 g,
Proximates
"Energy",kcal,--,--,260,605
"Protein",g,--,--,9.00,20.93
"Total lipid (fat)",g,--,--,23.00,53.49
"Carbohydrate, by difference",g,--,--,7.00,16.28
"Fiber, total dietary",g,--,--,4.0,9.3
"Sugars, total",g,--,--,2.00,4.65
Minerals
"Calcium, Ca",mg,--,--,116,270
"Iron, Fe",mg,--,--,1.67,3.89
"Magnesium, Mg",mg,--,--,116,270
"Potassium, K",mg,--,--,280,651
"Sodium, Na",mg,--,--,230,535
Vitamins
"Vitamin C, total ascorbic acid",mg,--,--,0.0,0.0
"Vitamin A, IU",IU,--,--,0,0
Lipids
"Fatty acids, total saturated",g,--,--,2.000,4.650
"Fatty acids, total trans",g,--,--,0.000,0.000
"Cholesterol",mg,--,--,0,0
Amino Acids
Other
Ingredients
"ALMONDS, VEGETABLE OIL (CANOLA, SAFFLOWER AND/OR SUNFLOWER), SALT, CORN MALTODEXTRIN, NATURAL HICKORY SMOKE FLAVOR, YEAST, HYDROLYZED CORN AND SOY PROTEIN, NATURAL FLAVORS." Date available: 08/22/2017 Date last updated by company: 08/22/2017
