Source: USDA Branded Food Products Database Release December 2017 Software v.3.8.6.4 2017-10-02
Report Run at: December 16, 2017 23:09 EST
"Nutrient data for: 45048110, ALMONDS SPICY SALSA, UPC: 896700001627"
Food Group:  Branded Food Products Database
Common Name:

Nutrient,Unit,Data points,Std. Error,"1 ONZ = 28.0g",1Value per 100 g,
Proximates
"Energy",kcal,--,--,170,607
"Protein",g,--,--,6.00,21.43
"Total lipid (fat)",g,--,--,15.00,53.57
"Carbohydrate, by difference",g,--,--,5.00,17.86
"Fiber, total dietary",g,--,--,3.0,10.7
"Sugars, total",g,--,--,1.00,3.57
Minerals
"Calcium, Ca",mg,--,--,80,286
"Iron, Fe",mg,--,--,1.93,6.88
"Magnesium, Mg",mg,--,--,143,510
"Potassium, K",mg,--,--,200,714
"Sodium, Na",mg,--,--,70,250
Vitamins
"Vitamin C, total ascorbic acid",mg,--,--,0.0,0.0
"Vitamin A, IU",IU,--,--,179,638
Lipids
"Fatty acids, total saturated",g,--,--,1.000,3.570
"Fatty acids, total trans",g,--,--,0.000,0.000
"Cholesterol",mg,--,--,0,0
Amino Acids
Other
Ingredients
"ALMONDS, VEGETABLE OIL (CANOLA AND/OR SAFFLOWER), TOMATO POWDER, SALT, ONION POWDER, GARLIC POWDER, SPICES, SUGAR, DEXTROSE, VINEGAR POWDER, (MALTODEXTRIN, VINEGAR, MODIFIED FOOD STARCH), JALAPENO PEPPER, CITRIC ACID, OLEORESIN PAPRIKA, CILANTRO, NATURAL FLAVOR, SPICE EXTRACTIVE SILICON DIOXIDE." Date available: 06/25/2017 Date last updated by company: 06/25/2017
