Source: USDA Branded Food Products Database Release December 2017 Software v.3.8.6.4 2017-10-02
Report Run at: December 16, 2017 23:16 EST
"Nutrient data for: 45150806, ALMOND TOFFEE BAR, UPC: 017109328706"
Food Group:  Branded Food Products Database
Common Name:

Nutrient,Unit,Data points,Std. Error,"1 PIECE = 43.0g",1Value per 100 g,
Proximates
"Energy",kcal,--,--,240,558
"Protein",g,--,--,2.00,4.65
"Total lipid (fat)",g,--,--,17.00,39.53
"Carbohydrate, by difference",g,--,--,20.00,46.51
"Fiber, total dietary",g,--,--,1.0,2.3
"Sugars, total",g,--,--,18.00,41.86
Minerals
"Calcium, Ca",mg,--,--,40,93
"Iron, Fe",mg,--,--,0.42,0.98
"Sodium, Na",mg,--,--,110,256
Vitamins
"Vitamin C, total ascorbic acid",mg,--,--,0.0,0.0
"Vitamin A, IU",IU,--,--,465,1081
Lipids
"Fatty acids, total saturated",g,--,--,9.000,20.930
"Fatty acids, total trans",g,--,--,0.499,1.160
"Cholesterol",mg,--,--,35,81
Amino Acids
Other
Ingredients
"BUTTER, SUGAR, MILK CHOCOLATE (SUGAR, MILK CHOCOLATE (SUGAR, MILK COCOA BUTTER, CHOCOLATE LIQUOR, SOY LECITHIN - AN EMULSIFIER, AND VANILLA), ALMONDS." Date available: 07/14/2017 Date last updated by company: 07/14/2017
