Source: USDA Branded Food Products Database Release December 2017 Software v.3.8.6.4 2017-10-02
Report Run at: December 16, 2017 22:57 EST
"Nutrient data for: 45192299, ALMOND BUTTER, UPC: 728028321630"
Food Group:  Branded Food Products Database
Common Name:

Nutrient,Unit,Data points,Std. Error,"2.0 Tbsp = 27.0g",1Value per 100 g,
Proximates
"Energy",kcal,--,--,160,593
"Protein",g,--,--,4.00,14.81
"Total lipid (fat)",g,--,--,14.00,51.85
"Carbohydrate, by difference",g,--,--,7.00,25.93
"Fiber, total dietary",g,--,--,2.0,7.4
"Sugars, total",g,--,--,4.00,14.81
Minerals
"Calcium, Ca",mg,--,--,60,222
"Iron, Fe",mg,--,--,1.33,4.94
"Sodium, Na",mg,--,--,0,0
Vitamins
"Vitamin C, total ascorbic acid",mg,--,--,0.0,0.0
"Vitamin A, IU",IU,--,--,0,0
Lipids
"Fatty acids, total saturated",g,--,--,3.000,11.110
"Fatty acids, total trans",g,--,--,0.000,0.000
"Cholesterol",mg,--,--,0,0
Amino Acids
Other
Ingredients
"ROASTED ALMONDS, RAW HONEY, ORGANIC EXTRA VIRGIN COCONUT OIL." Date available: 07/14/2017 Date last updated by company: 07/14/2017
