Source: USDA Branded Food Products Database Release December 2017 Software v.3.8.6.4 2017-10-02
Report Run at: December 16, 2017 23:05 EST
"Nutrient data for: 45243055, ALMONDMILK, UPC: 041570110294"
Food Group:  Branded Food Products Database
Common Name:

Nutrient,Unit,Data points,Std. Error,"1 BOTTLE = 295.0g",1Value per 100 g,
Proximates
"Energy",kcal,--,--,130,44
"Protein",g,--,--,2.01,0.68
"Total lipid (fat)",g,--,--,3.01,1.02
"Carbohydrate, by difference",g,--,--,24.01,8.14
"Fiber, total dietary",g,--,--,0.9,0.3
"Sugars, total",g,--,--,22.01,7.46
Minerals
"Calcium, Ca",mg,--,--,487,165
"Iron, Fe",mg,--,--,1.18,0.40
"Potassium, K",mg,--,--,280,95
"Sodium, Na",mg,--,--,189,64
Vitamins
"Vitamin C, total ascorbic acid",mg,--,--,0.0,0.0
"Vitamin A, IU",IU,--,--,407,138
"Vitamin D",IU,--,--,97,33
Lipids
"Fatty acids, total saturated",g,--,--,0.000,0.000
"Fatty acids, total monounsaturated",g,--,--,2.006,0.680
"Fatty acids, total polyunsaturated",g,--,--,0.502,0.170
"Fatty acids, total trans",g,--,--,0.000,0.000
"Cholesterol",mg,--,--,0,0
Amino Acids
Other
Ingredients
"ALMONDMILK (FILTERED WATER, ALMONDS), CANE SUGAR, COCOA (DUTCH PROCESS), CALCIUM CARBONATE, SEA SALT, POTASSIUM CITRATE, NATURAL FLAVORS, SUNFLOWER LECITHIN, GELLAN GUM, VITAMIN A PALMITATE, VITAMIN D2, D-ALPHA-TOCOPHEROL (NATURAL VITAMIN E)." Date available: 08/22/2017 Date last updated by company: 08/22/2017
