Source: USDA Branded Food Products Database Release December 2017 Software v.3.8.6.4 2017-10-02
Report Run at: December 16, 2017 23:14 EST
"Nutrient data for: 45312651, ALMONDS, UPC: 719283237590"
Food Group:  Branded Food Products Database
Common Name:

Nutrient,Unit,Data points,Std. Error,"0.25 CUP | ABOUT = 28.0g",1Value per 100 g,
Proximates
"Energy",kcal,--,--,160,571
"Protein",g,--,--,3.00,10.71
"Total lipid (fat)",g,--,--,8.00,28.57
"Carbohydrate, by difference",g,--,--,21.00,75.00
"Fiber, total dietary",g,--,--,2.0,7.1
"Sugars, total",g,--,--,18.00,64.29
Minerals
"Calcium, Ca",mg,--,--,40,143
"Iron, Fe",mg,--,--,1.29,4.59
"Potassium, K",mg,--,--,0,0
"Sodium, Na",mg,--,--,35,125
Vitamins
"Vitamin C, total ascorbic acid",mg,--,--,0.0,0.0
"Vitamin A, IU",IU,--,--,0,0
Lipids
"Fatty acids, total saturated",g,--,--,0.501,1.790
"Fatty acids, total monounsaturated",g,--,--,0.000,0.000
"Fatty acids, total polyunsaturated",g,--,--,0.000,0.000
"Fatty acids, total trans",g,--,--,0.000,0.000
"Cholesterol",mg,--,--,0,0
Amino Acids
Other
Ingredients
"ALMONDS, SUGAR, WATER, FLAVORING (CANE SUGAR, WATER, NATURAL FLAVORS, SALT, CITRIC ACID [PRESERVATIVE], SODIUM BENZOATE [PRESERVATIVE], POTASSIUM SORBATE [PRESERVATIVE], CARAMEL COLOR), SALT." Date available: 08/27/2017 Date last updated by company: 08/27/2017
