Source: USDA Branded Food Products Database Release December 2017 Software v.3.8.6.4 2017-10-02
Report Run at: December 16, 2017 23:17 EST
"Nutrient data for: 45323214, ALMOND TOFFEE, UPC: 635104174212"
Food Group:  Branded Food Products Database
Common Name:

Nutrient,Unit,Data points,Std. Error,"3.0 PIECES = 43.0g",1Value per 100 g,
Proximates
"Energy",kcal,--,--,220,512
"Protein",g,--,--,2.00,4.65
"Total lipid (fat)",g,--,--,16.00,37.21
"Carbohydrate, by difference",g,--,--,19.00,44.19
"Fiber, total dietary",g,--,--,2.0,4.7
"Sugars, total",g,--,--,16.00,37.21
Minerals
"Calcium, Ca",mg,--,--,20,47
"Iron, Fe",mg,--,--,1.67,3.89
"Sodium, Na",mg,--,--,80,186
Vitamins
"Vitamin C, total ascorbic acid",mg,--,--,0.0,0.0
"Vitamin A, IU",IU,--,--,349,812
Lipids
"Fatty acids, total saturated",g,--,--,7.998,18.600
"Fatty acids, total trans",g,--,--,0.000,0.000
"Cholesterol",mg,--,--,25,58
Amino Acids
Other
Ingredients
"BUTTER (PASTEURIZED CREAM, SALT), SUGAR, ALMONDS, SUNFLOWER LECITHIN, SALT, SEMISWEET CHOCOLATE (UNSWEETENED CHOCOLATE PROCESSED WITH POTASSIUM CARBONATE, SUGAR, COCOA BUTTER, SUNFLOWER AND/OR SOY LECITHIN, VANILLA)." Date available: 07/14/2017 Date last updated by company: 07/14/2017
