Source: USDA Branded Food Products Database Release December 2017 Software v.3.8.6.4 2017-10-02
Report Run at: December 16, 2017 23:01 EST
"Nutrient data for: 45118337, ALMOND DREAM, NON-DAIRY YOGURT, STRAWBERRY, UPC: 084253269711"
Food Group:  Branded Food Products Database
Common Name:

Nutrient,Unit,Data points,Std. Error,"1 cup = 227.0g",1Value per 100 g,
Proximates
"Energy",kcal,--,--,179,79
"Protein",g,--,--,2.00,0.88
"Total lipid (fat)",g,--,--,3.50,1.54
"Carbohydrate, by difference",g,--,--,38.00,16.74
"Fiber, total dietary",g,--,--,4.1,1.8
"Sugars, total",g,--,--,23.99,10.57
Minerals
"Calcium, Ca",mg,--,--,250,110
"Iron, Fe",mg,--,--,0.54,0.24
"Sodium, Na",mg,--,--,45,20
Vitamins
"Vitamin C, total ascorbic acid",mg,--,--,1.8,0.8
"Vitamin A, IU",IU,--,--,0,0
Lipids
"Fatty acids, total saturated",g,--,--,0.000,0.000
"Fatty acids, total trans",g,--,--,0.000,0.000
"Cholesterol",mg,--,--,0,0
Amino Acids
Other
Ingredients
"ALMOND BASE (WATER, ALMONDS), STRAWBERRY BLEND (EVAPORATED CANE SYRUP, STRAWBERRIES, NATURAL FLAVOR, FRUIT AND VEGETABLE JUICE FOR COLOR), EVAPORATED CANE SYRUP, STABILIZER BLEND (TAPIOCA MALTODEXTRIN, CORN STARCH, CAROB BEAN GUM, PECTIN), TAPIOCA FIBER, TRICALCIUM PHOSPHATE, NATURAL FLAVOR, CULTURES*, ANTIMICROBIAL (FROM CULTURE)" Date available: 09/13/2017 Date last updated by company: 09/13/2017
