Source: USDA Branded Food Products Database Release December 2017 Software v.3.8.6.4 2017-10-02
Report Run at: December 16, 2017 23:20 EST
"Nutrient data for: 45323649, ALOE VERA JUICE A DIETARY SUPPLEMENT, UPC: 026395841288"
Food Group:  Branded Food Products Database
Common Name:

Nutrient,Unit,Data points,Std. Error,"2.0 OZA = 59.0g",1Value per 100 g,
Proximates
"Energy",kcal,--,--,4,7
"Carbohydrate, by difference",g,--,--,1.00,1.69
Minerals
"Calcium, Ca",mg,--,--,35,59
"Magnesium, Mg",mg,--,--,4,7
"Sodium, Na",mg,--,--,15,25
Vitamins
Lipids
Amino Acids
Other
Ingredients
"CITRIC ACID (PH STABILIZER)" Date available: 07/14/2017 Date last updated by company: 07/14/2017
