Source: USDA Branded Food Products Database Release December 2017 Software v.3.8.6.4 2017-10-02
Report Run at: December 16, 2017 23:22 EST
"Nutrient data for: 45219304, ALOE VERA JUICE, UPC: 853768004083"
Food Group:  Branded Food Products Database
Common Name:

Nutrient,Unit,Data points,Std. Error,"500.0 MLT = 500.0g",1Value per 100 g,
Proximates
"Energy",kcal,--,--,40,8
"Protein",g,--,--,0.00,0.00
"Total lipid (fat)",g,--,--,0.00,0.00
"Carbohydrate, by difference",g,--,--,10.00,2.00
"Fiber, total dietary",g,--,--,0.0,0.0
"Sugars, total",g,--,--,9.50,1.90
Minerals
"Sodium, Na",mg,--,--,25,5
Vitamins
Lipids
Amino Acids
Other
Ingredients
"ALOE VERA JUICE (40%), ALOE PULP (12%), WATER, SUCROSE, DEXTROSE, CITRIC ACID, GRAPE FLAVOR, E211." Date available: 07/14/2017 Date last updated by company: 07/14/2017
