Source: USDA Branded Food Products Database Release December 2017 Software v.3.8.6.4 2017-10-02
Report Run at: December 16, 2017 23:19 EST
"Nutrient data for: 45142429, ALOE VERA DRINK, UPC: 022652192148"
Food Group:  Branded Food Products Database
Common Name:

Nutrient,Unit,Data points,Std. Error,"240.0 MLT = 240.0g",1Value per 100 g,
Proximates
"Energy",kcal,--,--,89,37
"Protein",g,--,--,0.00,0.00
"Total lipid (fat)",g,--,--,0.00,0.00
"Carbohydrate, by difference",g,--,--,22.01,9.17
"Fiber, total dietary",g,--,--,0.0,0.0
"Sugars, total",g,--,--,10.01,4.17
Minerals
"Calcium, Ca",mg,--,--,300,125
"Iron, Fe",mg,--,--,0.00,0.00
"Sodium, Na",mg,--,--,19,8
Vitamins
"Vitamin C, total ascorbic acid",mg,--,--,48.0,20.0
"Vitamin A, IU",IU,--,--,0,0
Lipids
"Fatty acids, total saturated",g,--,--,0.000,0.000
"Fatty acids, total trans",g,--,--,0.000,0.000
"Cholesterol",mg,--,--,0,0
Amino Acids
Other
Ingredients
"PURIFIED WATER, SUGAR, ALOE VERA GEL, CITRIC ACID, ARTIFICIAL STRAWBERRY FLAVOR, HONEY, CALCIUM LACTATE, VITAMIN C, SODIUM CITRATE, COCHINEAL EXTRACT, GELLAN GUM, CARAMEL EXTRACT, SUCRALOSE." Date available: 07/14/2017 Date last updated by company: 07/14/2017
