Source: USDA Branded Food Products Database Release December 2017 Software v.3.8.6.4 2017-10-02
Report Run at: December 16, 2017 23:20 EST
"Nutrient data for: 45329993, ALOE VERA DRINK, UPC: 851802004365"
Food Group:  Branded Food Products Database
Common Name:

Nutrient,Unit,Data points,Std. Error,"1 cup = 240.0g",1Value per 100 g,
Proximates
"Energy",kcal,--,--,91,38
"Protein",g,--,--,0.00,0.00
"Total lipid (fat)",g,--,--,0.00,0.00
"Carbohydrate, by difference",g,--,--,22.01,9.17
"Sugars, total",g,--,--,21.00,8.75
Minerals
"Calcium, Ca",mg,--,--,41,17
"Iron, Fe",mg,--,--,0.00,0.00
"Sodium, Na",mg,--,--,36,15
Vitamins
"Vitamin C, total ascorbic acid",mg,--,--,6.0,2.5
"Vitamin A, IU",IU,--,--,0,0
Lipids
"Fatty acids, total saturated",g,--,--,0.000,0.000
"Fatty acids, total trans",g,--,--,0.000,0.000
"Cholesterol",mg,--,--,0,0
Amino Acids
Other
Ingredients
"PURIFIED WATER, ALOE VERA PULP, WHITE CANE SUGAR, CITRIC ACID, CALCIUM LACTATE, STRAWBERRY FLAVOR, SODIUM CITRATE, CITRUS FLAVOR, STRAWBERRY EXTRACT, VITAMIN C, GELLAN GUM, COCHINEAL EXTRACT CARMINE, STEVIA" Date available: 09/23/2017 Date last updated by company: 09/23/2017
