Source: USDA Branded Food Products Database Release December 2017 Software v.3.8.6.4 2017-10-02
Report Run at: December 16, 2017 23:06 EST
"Nutrient data for: 45019555, ALPINA, GREEK NON FAT STRAINED YOGURT, MANGO, UPC: 083322015372"
Food Group:  Branded Food Products Database
Common Name:

Nutrient,Unit,Data points,Std. Error,"5.3 ONZ = 150.0g",1Value per 100 g,
Proximates
"Energy",kcal,--,--,120,80
"Protein",g,--,--,12.00,8.00
"Total lipid (fat)",g,--,--,0.00,0.00
"Carbohydrate, by difference",g,--,--,18.00,12.00
"Fiber, total dietary",g,--,--,0.3,0.2
"Sugars, total",g,--,--,10.99,7.33
Minerals
"Calcium, Ca",mg,--,--,150,100
"Iron, Fe",mg,--,--,0.00,0.00
"Potassium, K",mg,--,--,0,0
"Sodium, Na",mg,--,--,40,27
Vitamins
"Vitamin C, total ascorbic acid",mg,--,--,2.7,1.8
"Vitamin A, IU",IU,--,--,0,0
Lipids
"Fatty acids, total saturated",g,--,--,0.000,0.000
"Fatty acids, total trans",g,--,--,0.000,0.000
"Cholesterol",mg,--,--,4,3
Amino Acids
Other
Ingredients
"CULTURED PASTEURIZED GRADE A NONFAT MILK, MANGOES (MANGOES, SUGAR, WATER, CORN STARCH, NATURAL FLAVOR, LEMON JUICE CONCENTRATE, ANNATTO EXTRACT (FOR COLOR)), LIVE ACTIVE CULTURES." Date available: 06/25/2017 Date last updated by company: 06/25/2017
