Source: USDA Branded Food Products Database Release December 2017 Software v.3.8.6.4 2017-10-02
Report Run at: December 16, 2017 23:06 EST
"Nutrient data for: 45019547, ALPINA, GREEK NONFAT YOGURT, VANILLA BEAN, UPC: 083322014610"
Food Group:  Branded Food Products Database
Common Name:

Nutrient,Unit,Data points,Std. Error,"6.0 ONZ = 170.0g",1Value per 100 g,
Proximates
"Energy",kcal,--,--,190,112
"Protein",g,--,--,14.01,8.24
"Total lipid (fat)",g,--,--,4.50,2.65
"Carbohydrate, by difference",g,--,--,25.99,15.29
"Fiber, total dietary",g,--,--,2.0,1.2
"Sugars, total",g,--,--,14.01,8.24
Minerals
"Calcium, Ca",mg,--,--,201,118
"Iron, Fe",mg,--,--,0.71,0.42
"Potassium, K",mg,--,--,240,141
"Sodium, Na",mg,--,--,54,32
Vitamins
"Vitamin C, total ascorbic acid",mg,--,--,0.0,0.0
"Vitamin A, IU",IU,--,--,0,0
Lipids
"Fatty acids, total saturated",g,--,--,1.003,0.590
"Fatty acids, total trans",g,--,--,0.000,0.000
"Cholesterol",mg,--,--,5,3
Amino Acids
Other
Ingredients
"CULTURED PASTEURIZED GRADE A NONFAT MILK, VANILLA BEAN SYRUP (WATER, CORN STARCH, NATURAL FLAVOR, VANILLA BEAN, LEMON JUICE CONCENTRATE, CARAMEL COLOR), LIVE ACTIVE CULTURES. GRANOLAS: CERTIFIED GLUTEN FREE OATS, WILDFLOWER HONEY, CANOLA OIL, PISTACHIO NUTS, CRYSTALLIZED GINGER (GINGER, SUGAR), GROUND CLOVE, GROUND CARDAMOM, CINNAMON, GROUND GINGER, SALT." Date available: 06/25/2017 Date last updated by company: 06/25/2017
