Source: USDA Branded Food Products Database Release December 2017 Software v.3.8.6.4 2017-10-02
Report Run at: December 16, 2017 23:12 EST
"Nutrient data for: 45158779, AMANO, MADAGASCAR SAMBIRANO VALLEY DARK CHOCOLATE, UPC: 892990001187"
Food Group:  Branded Food Products Database
Common Name:

Nutrient,Unit,Data points,Std. Error,"1.4 ONZ = 40.0g",1Value per 100 g,
Proximates
"Energy",kcal,--,--,202,505
"Protein",g,--,--,3.00,7.50
"Total lipid (fat)",g,--,--,17.00,42.50
"Carbohydrate, by difference",g,--,--,19.00,47.50
"Fiber, total dietary",g,--,--,4.0,10.0
"Sugars, total",g,--,--,12.00,30.00
Minerals
"Calcium, Ca",mg,--,--,20,50
"Iron, Fe",mg,--,--,5.18,12.94
"Sodium, Na",mg,--,--,6,15
Vitamins
"Vitamin C, total ascorbic acid",mg,--,--,0.0,0.0
"Vitamin A, IU",IU,--,--,0,0
Lipids
"Fatty acids, total saturated",g,--,--,10.000,25.000
"Fatty acids, total trans",g,--,--,0.000,0.000
"Cholesterol",mg,--,--,0,0
Amino Acids
Other
Ingredients
"COCOA BEANS, PURE CANE SUGAR, COCOA BUTTER, WHOLE VANILLA BEANS." Date available: 07/14/2017 Date last updated by company: 07/14/2017
