Source: USDA Branded Food Products Database Release December 2017 Software v.3.8.6.4 2017-10-02
Report Run at: December 16, 2017 23:17 EST
"Nutrient data for: 45232606, AMAZONAS RAINFOREST PRODUCT, SALVADORIAN WHITE BEANS, UPC: 742987124224"
Food Group:  Branded Food Products Database
Common Name:

Nutrient,Unit,Data points,Std. Error,"0.25 cup = 44.0g",1Value per 100 g,
Proximates
"Energy",kcal,--,--,160,364
"Protein",g,--,--,8.00,18.18
"Total lipid (fat)",g,--,--,0.50,1.14
"Carbohydrate, by difference",g,--,--,18.00,40.91
"Fiber, total dietary",g,--,--,10.0,22.7
"Sugars, total",g,--,--,2.00,4.55
Minerals
"Calcium, Ca",mg,--,--,60,136
"Iron, Fe",mg,--,--,2.70,6.14
"Sodium, Na",mg,--,--,0,0
Vitamins
"Vitamin C, total ascorbic acid",mg,--,--,3.6,8.2
"Vitamin A, IU",IU,--,--,0,0
Lipids
"Fatty acids, total saturated",g,--,--,0.000,0.000
"Fatty acids, total trans",g,--,--,0.000,0.000
"Cholesterol",mg,--,--,0,0
Amino Acids
Other
Ingredients
"SALVADORIAN WHITE BEANS" Date available: 03/23/2017 Date last updated by company: 03/23/2017
