Source: USDA Branded Food Products Database Release December 2017 Software v.3.8.6.4 2017-10-02
Report Run at: December 16, 2017 23:15 EST
"Nutrient data for: 45228135, AMAZ!N PRUNES WITH PITS, UPC: 802763010896"
Food Group:  Branded Food Products Database
Common Name:

Nutrient,Unit,Data points,Std. Error,"7.0 PRUNES | ABOUT = 40.0g",1Value per 100 g,
Proximates
"Energy",kcal,--,--,100,250
"Protein",g,--,--,1.00,2.50
"Total lipid (fat)",g,--,--,0.00,0.00
"Carbohydrate, by difference",g,--,--,26.00,65.00
"Fiber, total dietary",g,--,--,3.0,7.5
"Sugars, total",g,--,--,15.00,37.50
Minerals
"Calcium, Ca",mg,--,--,20,50
"Iron, Fe",mg,--,--,0.36,0.90
"Potassium, K",mg,--,--,290,725
"Sodium, Na",mg,--,--,0,0
Vitamins
"Vitamin C, total ascorbic acid",mg,--,--,0.0,0.0
"Vitamin A, IU",IU,--,--,300,750
Lipids
"Fatty acids, total saturated",g,--,--,0.000,0.000
"Fatty acids, total trans",g,--,--,0.000,0.000
"Cholesterol",mg,--,--,0,0
Amino Acids
Other
Ingredients
"WHOLE PRUNES (DRIED PLUMS), POTASSIUM SORBATE (AS A PRESERVATIVE)." Date available: 07/14/2017 Date last updated by company: 07/14/2017
