Source: USDA Branded Food Products Database Release December 2017 Software v.3.8.6.4 2017-10-02
Report Run at: December 16, 2017 23:14 EST
"Nutrient data for: 45228136, AMAZIN PRUNE JUICE, UPC: 070450110802"
Food Group:  Branded Food Products Database
Common Name:

Nutrient,Unit,Data points,Std. Error,"5.5 OZA = 163.0g",1Value per 100 g,
Proximates
"Energy",kcal,--,--,121,74
"Protein",g,--,--,2.00,1.23
"Total lipid (fat)",g,--,--,0.00,0.00
"Carbohydrate, by difference",g,--,--,29.00,17.79
"Fiber, total dietary",g,--,--,2.0,1.2
"Sugars, total",g,--,--,17.00,10.43
Minerals
"Calcium, Ca",mg,--,--,20,12
"Iron, Fe",mg,--,--,0.52,0.32
"Magnesium, Mg",mg,--,--,23,14
"Phosphorus, P",mg,--,--,29,18
"Potassium, K",mg,--,--,290,178
"Sodium, Na",mg,--,--,34,21
"Zinc, Zn",mg,--,--,0.60,0.37
"Copper, Cu",mg,--,--,0.200,0.123
"Manganese, Mn",mg,--,--,0.000,0.000
Vitamins
"Vitamin C, total ascorbic acid",mg,--,--,0.0,0.0
"Riboflavin",mg,--,--,0.200,0.123
"Niacin",mg,--,--,2.355,1.445
"Vitamin B-6",mg,--,--,0.236,0.145
"Vitamin A, IU",IU,--,--,147,90
Lipids
"Fatty acids, total saturated",g,--,--,0.000,0.000
"Fatty acids, total trans",g,--,--,0.000,0.000
"Cholesterol",mg,--,--,0,0
Amino Acids
Other
Ingredients
"100% PRUNE JUICE" Date available: 07/14/2017 Date last updated by company: 07/14/2017
