Source: USDA Branded Food Products Database Release December 2017 Software v.3.8.6.4 2017-10-02
Report Run at: December 16, 2017 23:15 EST
"Nutrient data for: 45050863, AMAZONAS, ANNATO SEED SEASONING, UPC: 742987130508"
Food Group:  Branded Food Products Database
Common Name:

Nutrient,Unit,Data points,Std. Error,"1 Tbsp = 25.0g",1Value per 100 g,
Proximates
"Energy",kcal,--,--,40,160
"Protein",g,--,--,0.00,0.00
"Total lipid (fat)",g,--,--,0.00,0.00
"Carbohydrate, by difference",g,--,--,10.00,40.00
"Fiber, total dietary",g,--,--,0.0,0.0
"Sugars, total",g,--,--,10.00,40.00
Minerals
"Calcium, Ca",mg,--,--,0,0
"Iron, Fe",mg,--,--,0.00,0.00
"Sodium, Na",mg,--,--,200,800
Vitamins
"Vitamin C, total ascorbic acid",mg,--,--,0.0,0.0
"Vitamin A, IU",IU,--,--,0,0
Lipids
"Fatty acids, total saturated",g,--,--,0.000,0.000
"Fatty acids, total trans",g,--,--,0.000,0.000
"Cholesterol",mg,--,--,0,0
Amino Acids
Other
Ingredients
"ANNATO SEED (NATURAL COLOR), SPICES, VINEGAR, IODIZED SALT, WATER, GRANULED GARLIC, CORMEAL, SODIUM BENZOATE AS PRESERVATIVES." Date available: 06/25/2017 Date last updated by company: 06/25/2017
