Source: USDA Branded Food Products Database Release December 2017 Software v.3.8.6.4 2017-10-02
Report Run at: December 16, 2017 23:17 EST
"Nutrient data for: 45233417, AMBASSADOR, COLOMBIAN STYLE CHAMPAGNE COLA, UPC: 021883148214"
Food Group:  Branded Food Products Database
Common Name:

Nutrient,Unit,Data points,Std. Error,"12.0 OZA = 354.0g",1Value per 100 g,
Proximates
"Energy",kcal,--,--,149,42
"Protein",g,--,--,0.00,0.00
"Total lipid (fat)",g,--,--,0.00,0.00
"Carbohydrate, by difference",g,--,--,40.00,11.30
"Sugars, total",g,--,--,40.00,11.30
Minerals
"Sodium, Na",mg,--,--,21,6
Vitamins
Lipids
Amino Acids
Other
Ingredients
"PURIFIED CARBONATED WATER, SUGAR, FRUCTOSE, NATURAL AND ARTIFICIAL FLAVORS, ARTIFICIALLY COLORED (CONTAINS F.D.&C. YELLOW #5) CITRIC ACID AND LESS THAN 1/10 OF 1% SODIUM BENZOATE AS A PRESERVATIVE." Date available: 06/25/2017 Date last updated by company: 06/25/2017
