Source: USDA Branded Food Products Database Release December 2017 Software v.3.8.6.4 2017-10-02
Report Run at: December 16, 2017 23:30 EST
"Nutrient data for: 45248986, AMERICA'S CHOICE, DUTCH FUDGE COOKIES, UPC: 754807201152"
Food Group:  Branded Food Products Database
Common Name:

Nutrient,Unit,Data points,Std. Error,"2.0 COOKIES = 30.0g",1Value per 100 g,
Proximates
"Energy",kcal,--,--,140,467
"Protein",g,--,--,1.00,3.33
"Total lipid (fat)",g,--,--,6.00,20.00
"Carbohydrate, by difference",g,--,--,20.00,66.67
"Fiber, total dietary",g,--,--,1.0,3.3
"Sugars, total",g,--,--,9.00,30.00
Minerals
"Iron, Fe",mg,--,--,1.80,6.00
"Sodium, Na",mg,--,--,130,433
Vitamins
Lipids
"Fatty acids, total saturated",g,--,--,3.000,10.000
"Fatty acids, total monounsaturated",g,--,--,2.499,8.330
"Fatty acids, total polyunsaturated",g,--,--,0.501,1.670
"Fatty acids, total trans",g,--,--,0.000,0.000
"Cholesterol",mg,--,--,0,0
Amino Acids
Other
Ingredients
"ENRICHED BLEACHED WHEAT FLOUR (BLEACHED WHEAT FLOUR, NIACIN, REDUCED IRON, THIAMIN MONONITRATE, RIBOFLAVIN AND FOLIC ACID), SUGAR, PALM OIL, COCOA, HIGH FRUCTOSE CORN SYRUP, CONTAINS TWO PERCENT OR LESS OF: ARTIFICIAL COLOR (CARAMEL COLOR, FD&C RED #40, YELLOW #6, AND BLUE #1), COCOA PROCESSED WITH ALKALI, SALT, NATURAL AND ARTIFICIAL FLAVORS, SODIUM BICARBONATE, AMMONIUM BICARBONATE, SOY LECITHIN (AN EMULSIFIER) AND MONOCALCIUM PHOSPHATE." Date available: 09/29/2017 Date last updated by company: 09/29/2017
