Source: USDA Branded Food Products Database Release December 2017 Software v.3.8.6.4 2017-10-02
Report Run at: December 16, 2017 23:27 EST
"Nutrient data for: 45119497, AMERICAN PRIDE, WILD ALASKA POLLOCK FLAKY FILLETS WITH A LEMON PEPPER CRUST, LEMON PEPPER, UPC: 070737014700"
Food Group:  Branded Food Products Database
Common Name:

Nutrient,Unit,Data points,Std. Error,"2.0 FILLETS = 112.0g",1Value per 100 g,
Proximates
"Energy",kcal,--,--,280,250
"Protein",g,--,--,13.00,11.61
"Total lipid (fat)",g,--,--,12.00,10.71
"Carbohydrate, by difference",g,--,--,30.00,26.79
"Fiber, total dietary",g,--,--,1.0,0.9
"Sugars, total",g,--,--,1.00,0.89
Minerals
"Calcium, Ca",mg,--,--,20,18
"Iron, Fe",mg,--,--,1.10,0.98
"Sodium, Na",mg,--,--,340,304
Vitamins
"Vitamin C, total ascorbic acid",mg,--,--,0.0,0.0
"Vitamin A, IU",IU,--,--,76,68
Lipids
"Fatty acids, total saturated",g,--,--,2.005,1.790
"Fatty acids, total trans",g,--,--,0.000,0.000
"Cholesterol",mg,--,--,40,36
Amino Acids
Other
Ingredients
"ALASKA POLLOCK, ENRICHED WHEAT FLOUR (FLOUR, NIACIN, FERROUS SULFATE, THIAMINE MONONITRATE, RIBOFLAVIN, FOLIC ACID), VEGETABLE OIL (CANOLA, COTTONSEED AND/OR SOYBEAN), WATER, WHEAT FLOUR, MODIFIED CORN STARCH, CONTAINS 2% OR LESS OF: YELLOW CORN FLOUR, POTATO FLOUR, FLAVORED BITS [CORN SYRUP, ENRICHED BLEACHED WHEAT FLOUR (FLOUR, NIACIN, REDUCED IRON, THIAMINE MONONITRATE, RIBOFLAVIN, FOLIC ACID), CORN CEREAL, PARTIALLY HYDROGENATED COTTONSEED AND/OR SOYBEAN OIL, JALAPENO POWDER, NATURAL FLAVOR], GUAR GUM, ENRICHED WHEAT FLOUR (FLOUR, NIACIN, REDUCED IRON, THIAMINE MONONITRATE, RIBOFLAVIN, FOLIC ACID), XANTHAN GUM, SUGAR, SOY FLOUR, YELLOW CORN MEAL, NONFAT MILK, CORN STARCH, LEMON JUICE SOLIDS, SALT, GARLIC POWDER, SPICES, ONION POWDER, TAPIOCA DEXTRIN, WHEAT STARCH, DEXTROSE, NATURAL FLAVORS, DEHYDRATED ONION, YEAST, CORN SYRUP SOLIDS, LEAVENING (SODIUM ACID PYROPHOSPHATE, SODIUM BICARBONATE, SODIUM PYROPHOSPHATE), SOYBEAN OIL SHORTENING, EXTRACTIVES OF TURMERIC AND PAPRIKA (COLOR)." Date available: 06/25/2017 Date last updated by company: 06/25/2017
