Source: USDA Branded Food Products Database Release December 2017 Software v.3.8.6.4 2017-10-02
Report Run at: December 16, 2017 23:28 EST
"Nutrient data for: 45174600, AMERICAN SINGLES YELLOW CHEESE, UPC: 041268195114"
Food Group:  Branded Food Products Database
Common Name:

Nutrient,Unit,Data points,Std. Error,"1 SLICE = 19.0g",1Value per 100 g,
Proximates
"Energy",kcal,--,--,60,316
"Protein",g,--,--,3.00,15.79
"Total lipid (fat)",g,--,--,4.50,23.68
"Carbohydrate, by difference",g,--,--,2.00,10.53
"Fiber, total dietary",g,--,--,0.0,0.0
"Sugars, total",g,--,--,1.00,5.26
Minerals
"Calcium, Ca",mg,--,--,262,1379
"Iron, Fe",mg,--,--,0.10,0.53
"Potassium, K",mg,--,--,37,195
"Sodium, Na",mg,--,--,240,1263
Vitamins
Lipids
"Fatty acids, total saturated",g,--,--,2.500,13.160
"Fatty acids, total trans",g,--,--,0.000,0.000
"Cholesterol",mg,--,--,15,79
Amino Acids
Other
Ingredients
"AMERICAN CHEESE (MILK, CHEESE CULTURE, SALT, ENZYMES), WATER, WHEY, MILKFAT, MODIFIED STARCH, SODIUM CITRATE, TRICALCIUM PHOSPHATE, SALT, SORBIC ACID AS A PRESERVATIVE, LACTIC ACID, COLOR ADDED AND VITAMIN D3." Date available: 10/13/2017 Date last updated by company: 10/13/2017
