Source: USDA Branded Food Products Database Release December 2017 Software v.3.8.6.4 2017-10-02
Report Run at: December 16, 2017 23:23 EST
"Nutrient data for: 45044593, AMERICAN FLATBREAD, HANDMADE THIN & CRISPY PIZZA BAKED IN A WOOD-FIRED OVEN, PESTO & CHEESE, UPC: 731789430336"
Food Group:  Branded Food Products Database
Common Name:

Nutrient,Unit,Data points,Std. Error,"0.5 PIZZA = 145.0g",1Value per 100 g,
Proximates
"Energy",kcal,--,--,580,400
"Protein",g,--,--,14.01,9.66
"Total lipid (fat)",g,--,--,32.00,22.07
"Carbohydrate, by difference",g,--,--,61.00,42.07
"Fiber, total dietary",g,--,--,2.0,1.4
"Sugars, total",g,--,--,3.00,2.07
Minerals
"Calcium, Ca",mg,--,--,349,241
"Iron, Fe",mg,--,--,1.94,1.34
"Sodium, Na",mg,--,--,1190,821
Vitamins
"Vitamin C, total ascorbic acid",mg,--,--,4.8,3.3
"Vitamin A, IU",IU,--,--,1009,696
Lipids
"Fatty acids, total saturated",g,--,--,10.005,6.900
"Fatty acids, total trans",g,--,--,0.000,0.000
"Cholesterol",mg,--,--,41,28
Amino Acids
Other
Ingredients
"CRUST: TAPIOCA STARCH, WHOLE MILK, POTATO STARCH, EGG WHITES, VERMONT CHEDDAR CHEESE (COW MILK, SELECT CULTURES, SALT, ENZYMES), CANOLA OIL, KOSHER SALT, MOZZARELLA CHEESE (WHOLE MILK, VEGETABLE RENNET, SALT), PARMESAN CHEESE (CULTURED MILK, VEGETABLE RENNET, SALT). TOPPINGS: MOZZARELLA CHEESE (WHOLE MILK, VEGETABLE RENNET, SALT), EXTRA VIRGIN OLIVE OIL, CANOLA OIL, FRESH BASIL, PARMESAN CHEESE (CULTURED MILK, VEGETABLE RENNET, SALT), SALTED BUTTER, FRESH ORGANIC PARSLEY, TOASTED PINE NUTS, GRANA CHEESE (WHOLE MILK FROM JERSEY COWS, VEGETABLE RENNET, SALT), GARLIC OIL (EXTRA VIRGIN OLIVE OIL, ORGANIC CANOLA OIL, FRESH ORGANIC GARLIC, HERBS, SEA SALT." Date available: 06/24/2017 Date last updated by company: 06/24/2017
