Source: USDA Branded Food Products Database Release December 2017 Software v.3.8.6.4 2017-10-02
Report Run at: December 16, 2017 23:32 EST
"Nutrient data for: 45152062, AMERICA'S ORIGINAL BUBBLE GUM, UPC: 059642180113"
Food Group:  Branded Food Products Database
Common Name:

Nutrient,Unit,Data points,Std. Error,"1 PIECE = 6.0g",1Value per 100 g,
Proximates
"Energy",kcal,--,--,20,333
"Protein",g,--,--,0.00,0.00
"Total lipid (fat)",g,--,--,0.00,0.00
"Carbohydrate, by difference",g,--,--,5.00,83.33
"Sugars, total",g,--,--,5.00,83.33
Minerals
"Sodium, Na",mg,--,--,0,0
Vitamins
Lipids
Amino Acids
Other
Ingredients
"SUGAR, DEXTROSE, CORN SYRUP (GLUCOSE), GUM BASE HIGH FRUCTOSE CORN SYRUP, ARTIFICIAL FLAVORS, ARTIFICIAL COLOR (FD&C RED 3), CORN STARCH, BHT (TO MAINTAIN FRESHNESS)." Date available: 07/14/2017 Date last updated by company: 07/14/2017
