Source: USDA Branded Food Products Database Release December 2017 Software v.3.8.6.4 2017-10-02
Report Run at: December 16, 2017 23:31 EST
"Nutrient data for: 45161099, AMERICA'S CHOICE, TROPICAL TIDES - ORANGE PUNCH DRINK, UPC: 754807341155"
Food Group:  Branded Food Products Database
Common Name:

Nutrient,Unit,Data points,Std. Error,"8.0 OZA = 240.0g",1Value per 100 g,
Proximates
"Energy",kcal,--,--,60,25
"Protein",g,--,--,0.00,0.00
"Total lipid (fat)",g,--,--,0.00,0.00
"Carbohydrate, by difference",g,--,--,13.99,5.83
"Sugars, total",g,--,--,13.99,5.83
Minerals
"Sodium, Na",mg,--,--,106,44
Vitamins
"Vitamin C, total ascorbic acid",mg,--,--,60.0,25.0
Lipids
Amino Acids
Other
Ingredients
"FILTERED WATER, HIGH FRUCTOSE CORN SYRUP, LESS THAN 2% OF: CONCENTRATED JUICES (APPLE, CLARIFIED PINEAPPLE, PASSIONFRUIT, ORANGE), FRUIT PUREES (APRICOT, PAPAYA, GUAVA), ASCORBIC ACID (VITAMIN C), CITRIC ACID, NATURAL AND ARTIFICIAL FLAVOR, PECTIN, GUM ACACIA, ESTER GUM, YELLOW 6, SUCRALOSE, POTASSIUM SORBATE (PRESERVATIVE), SODIUM HEXAMETAPHOSPHATE (PRESERVATIVE)." Date available: 07/14/2017 Date last updated by company: 07/14/2017
