Source: USDA Branded Food Products Database Release December 2017 Software v.3.8.6.4 2017-10-02
Report Run at: December 16, 2017 23:27 EST
"Nutrient data for: 45208154, AMERICAN SANDWICH SLICES SINGLES, UPC: 051933053328"
Food Group:  Branded Food Products Database
Common Name:

Nutrient,Unit,Data points,Std. Error,"1 SLICE = 19.0g",1Value per 100 g,
Proximates
"Energy",kcal,--,--,45,237
"Protein",g,--,--,1.00,5.26
"Total lipid (fat)",g,--,--,3.50,18.42
"Carbohydrate, by difference",g,--,--,3.00,15.79
"Fiber, total dietary",g,--,--,0.0,0.0
"Sugars, total",g,--,--,1.00,5.26
Minerals
"Calcium, Ca",mg,--,--,100,526
"Iron, Fe",mg,--,--,0.00,0.00
"Sodium, Na",mg,--,--,250,1316
Vitamins
"Vitamin C, total ascorbic acid",mg,--,--,0.0,0.0
"Vitamin A, IU",IU,--,--,0,0
Lipids
"Fatty acids, total saturated",g,--,--,2.001,10.530
"Fatty acids, total trans",g,--,--,0.000,0.000
"Cholesterol",mg,--,--,0,0
Amino Acids
Other
Ingredients
"WATER, INTERESTERIFIED SOYBEAN OIL, FOOD STARCH-MODIFIED, WHEY (FROM MILK), GELATIN, SODIUM CITRATE, CALCIUM PHOSPHATE, SALT, SODIUM PHOSPHATE, ARTIFICIAL AND NATURAL FLAVORS, LACTIC ACID, SORBIC ACID (PRESERVATIVE), XANTHAN GUM, LOCUST BEAN GUM, GUAR GUM" Date available: 09/23/2017 Date last updated by company: 09/23/2017
