Source: USDA Branded Food Products Database Release December 2017 Software v.3.8.6.4 2017-10-02
Report Run at: December 16, 2017 23:40 EST
"Nutrient data for: 45027876, AMY'S, COOL SCOOPS, ORGANIC COCONUT MILK NON-DAIRY FROZEN DESSERT, CHOCOLATE, UPC: 042272009473"
Food Group:  Branded Food Products Database
Common Name:

Nutrient,Unit,Data points,Std. Error,"0.5 cup = 94.0g",1Value per 100 g,
Proximates
"Energy",kcal,--,--,180,191
"Protein",g,--,--,2.00,2.13
"Total lipid (fat)",g,--,--,12.00,12.77
"Carbohydrate, by difference",g,--,--,15.00,15.96
"Fiber, total dietary",g,--,--,2.0,2.1
"Sugars, total",g,--,--,12.00,12.77
Minerals
"Calcium, Ca",mg,--,--,0,0
"Iron, Fe",mg,--,--,2.30,2.45
"Sodium, Na",mg,--,--,90,96
Vitamins
"Vitamin C, total ascorbic acid",mg,--,--,0.0,0.0
"Vitamin A, IU",IU,--,--,0,0
Lipids
"Fatty acids, total saturated",g,--,--,10.998,11.700
"Fatty acids, total trans",g,--,--,0.000,0.000
"Cholesterol",mg,--,--,0,0
Amino Acids
Other
Ingredients
"(VEGAN): ORGANIC COCONUT MILK, ORGANIC AGAVE NECTAR, ORGANIC UNSWEETENED COCOA POWDER, ORGANIC DARK CHOCOLATE (ORGANIC CHOCOLATE LIQUOR, ORGANIC CANE SUGAR, ORGANIC COCOA BUTTER, ORGANIC SUNFLOWER LECITHIN(), ORGANIC VANILLA EXTRACT, SEA SALT, ORGANIC GUAR GUM." Date available: 07/14/2017 Date last updated by company: 07/14/2017
