Source: USDA Branded Food Products Database Release December 2017 Software v.3.8.6.4 2017-10-02
Report Run at: December 16, 2017 23:42 EST
"Nutrient data for: 45027625, ANCEL, GUAVA MARMALADE, UPC: 074566131317"
Food Group:  Branded Food Products Database
Common Name:

Nutrient,Unit,Data points,Std. Error,"1 Tbsp = 19.0g",1Value per 100 g,
Proximates
"Energy",kcal,--,--,45,237
"Protein",g,--,--,0.00,0.00
"Total lipid (fat)",g,--,--,0.00,0.00
"Carbohydrate, by difference",g,--,--,11.00,57.89
"Fiber, total dietary",g,--,--,0.5,2.6
"Sugars, total",g,--,--,10.00,52.63
Minerals
"Calcium, Ca",mg,--,--,40,211
"Iron, Fe",mg,--,--,6.09,32.03
"Sodium, Na",mg,--,--,0,0
Vitamins
"Vitamin C, total ascorbic acid",mg,--,--,30.4,160.2
"Vitamin A, IU",IU,--,--,0,0
Lipids
"Fatty acids, total saturated",g,--,--,0.000,0.000
"Fatty acids, total trans",g,--,--,0.000,0.000
"Cholesterol",mg,--,--,0,0
Amino Acids
Other
Ingredients
"SUGAR, GUAVA PULP, FD&C RED #3, FD&C RED #40, FD&C YELLOW #6." Date available: 06/25/2017 Date last updated by company: 06/25/2017
