Source: USDA Branded Food Products Database Release December 2017 Software v.3.8.6.4 2017-10-02
Report Run at: December 16, 2017 23:43 EST
"Nutrient data for: 45078854, ANCHO CHILI PODS, UPC: 714444001317"
Food Group:  Branded Food Products Database
Common Name:

Nutrient,Unit,Data points,Std. Error,"1 ONZ = 28.0g",1Value per 100 g,
Proximates
"Energy",kcal,--,--,79,282
"Protein",g,--,--,3.00,10.71
"Total lipid (fat)",g,--,--,2.00,7.14
"Carbohydrate, by difference",g,--,--,14.00,50.00
"Fiber, total dietary",g,--,--,6.0,21.4
"Sugars, total",g,--,--,0.00,0.00
Minerals
"Calcium, Ca",mg,--,--,20,71
"Iron, Fe",mg,--,--,4.37,15.62
"Sodium, Na",mg,--,--,12,43
Vitamins
"Vitamin C, total ascorbic acid",mg,--,--,0.9,3.1
"Vitamin A, IU",IU,--,--,8143,29082
Lipids
"Fatty acids, total saturated",g,--,--,0.000,0.000
"Fatty acids, total trans",g,--,--,0.000,0.000
"Cholesterol",mg,--,--,0,0
Amino Acids
Other
Ingredients
"INGREDIENTS: DRIED ANCHO CHILI PODS." Date available: 06/24/2017 Date last updated by company: 06/24/2017
