Source: USDA Branded Food Products Database Release December 2017 Software v.3.8.6.4 2017-10-02
Report Run at: December 16, 2017 23:44 EST
"Nutrient data for: 45077740, ANCIENT GRAIN IVORY TEFF, UPC: 078858525044"
Food Group:  Branded Food Products Database
Common Name:

Nutrient,Unit,Data points,Std. Error,"1 WRAP = 36.0g",1Value per 100 g,
Proximates
"Energy",kcal,--,--,110,306
"Protein",g,--,--,1.00,2.78
"Total lipid (fat)",g,--,--,3.00,8.33
"Carbohydrate, by difference",g,--,--,18.00,50.00
"Fiber, total dietary",g,--,--,1.0,2.8
"Sugars, total",g,--,--,0.00,0.00
Minerals
"Calcium, Ca",mg,--,--,60,167
"Iron, Fe",mg,--,--,1.65,4.58
"Sodium, Na",mg,--,--,190,528
Vitamins
"Vitamin C, total ascorbic acid",mg,--,--,0.0,0.0
"Vitamin A, IU",IU,--,--,0,0
Lipids
"Fatty acids, total saturated",g,--,--,0.500,1.390
"Fatty acids, total trans",g,--,--,0.000,0.000
"Cholesterol",mg,--,--,0,0
Amino Acids
Other
Ingredients
"WATER, TAPIOCA FLOUR, WHOLE GRAIN IVORY TEFF FLOUR, BROWN RICE FLOUR, EXPELLER PRESSED CANOLA OIL, SOY LECITHIN, CONTAINS 2% OR LESS OF EACH OF: GUAR GUM, CELLULOSE GUM, MALTODEXTRIN, CARRAGEENAN, HONEY, MONOGLYCERIDE, NON-ALUMINUM BAKING POWDER (MONOCALCIUM PHOSPHATE, SODIUM BICARBONATE, CORN STARCH), SEA SALT, TO MAINTAIN FRESHNESS (SORBIC ACID, CALCIUM PROPIONATE)." Date available: 07/14/2017 Date last updated by company: 07/14/2017
