Source: USDA Branded Food Products Database Release December 2017 Software v.3.8.6.4 2017-10-02
Report Run at: December 16, 2017 23:44 EST
"Nutrient data for: 45188540, ANCIENT GRAIN GRANOLA + PUFFS CEREAL, UPC: 855140002489"
Food Group:  Branded Food Products Database
Common Name:

Nutrient,Unit,Data points,Std. Error,"1 cup = 28.0g",1Value per 100 g,
Proximates
"Energy",kcal,--,--,130,464
"Protein",g,--,--,3.00,10.71
"Total lipid (fat)",g,--,--,4.50,16.07
"Carbohydrate, by difference",g,--,--,18.00,64.29
"Fiber, total dietary",g,--,--,2.0,7.1
"Sugars, total",g,--,--,4.00,14.29
Minerals
"Calcium, Ca",mg,--,--,0,0
"Iron, Fe",mg,--,--,0.00,0.00
"Sodium, Na",mg,--,--,80,286
Vitamins
"Vitamin C, total ascorbic acid",mg,--,--,0.0,0.0
"Vitamin A, IU",IU,--,--,0,0
Lipids
"Fatty acids, total saturated",g,--,--,2.500,8.930
"Fatty acids, total trans",g,--,--,0.000,0.000
"Cholesterol",mg,--,--,0,0
Amino Acids
Other
Ingredients
"CRANBERRY PECAN ANCIENT GRAIN GRANOLA (ORGANIC GLUTEN-FREE OATS, ORGANIC COCONUT PALM SUGAR, ORGANIC RAW VIRGIN COCONUT OIL, ORGANIC PUFFED AMARANTH, ORGANIC QUINOA FLAKES, ORGANIC MILLET FLAKES, ORGANIC PECANS, DRIED CRANBERRIES, ORGANIC SUNFLOWER SEEDS, ORGANIC SALBA CHIA SEEDS, ORGANIC CINNAMON, SEA SALT), ORGANIC MILLET PUFFS." Date available: 07/14/2017 Date last updated by company: 07/14/2017
