Source: USDA Branded Food Products Database Release December 2017 Software v.3.8.6.4 2017-10-02
Report Run at: December 16, 2017 23:47 EST
"Nutrient data for: 45042892, ANCIENT HARVEST, QUINOA ORGANIC TRI-COLOR GRAINS HARMONY BLEND, UPC: 089125180002"
Food Group:  Branded Food Products Database
Common Name:

Nutrient,Unit,Data points,Std. Error,"0.25 cup = 44.0g",1Value per 100 g,
Proximates
"Energy",kcal,--,--,170,386
"Protein",g,--,--,5.00,11.36
"Total lipid (fat)",g,--,--,2.50,5.68
"Carbohydrate, by difference",g,--,--,30.00,68.18
"Fiber, total dietary",g,--,--,2.0,4.5
"Sugars, total",g,--,--,3.00,6.82
Minerals
"Calcium, Ca",mg,--,--,0,0
"Iron, Fe",mg,--,--,1.84,4.18
"Phosphorus, P",mg,--,--,164,372
"Sodium, Na",mg,--,--,3,6
Vitamins
"Vitamin C, total ascorbic acid",mg,--,--,0.0,0.0
"Riboflavin",mg,--,--,0.122,0.277
"Vitamin A, IU",IU,--,--,0,0
Lipids
"Fatty acids, total saturated",g,--,--,0.000,0.000
"Fatty acids, total trans",g,--,--,0.000,0.000
"Cholesterol",mg,--,--,0,0
Amino Acids
Other
Ingredients
"BLEND OF ORGANIC WHOLE GRAIN WHITE, RED AND BLACK QUINOA" Date available: 08/10/2017 Date last updated by company: 08/10/2017
