Source: USDA Branded Food Products Database Release December 2017 Software v.3.8.6.4 2017-10-02
Report Run at: December 16, 2017 23:44 EST
"Nutrient data for: 45016510, ANCIENT GRAIN GRANOLA., UPC: 855140002168"
Food Group:  Branded Food Products Database
Common Name:

Nutrient,Unit,Data points,Std. Error,"0.333 cup = 30.0g",1Value per 100 g,
Proximates
"Energy",kcal,--,--,130,433
"Protein",g,--,--,3.00,10.00
"Total lipid (fat)",g,--,--,5.00,16.67
"Carbohydrate, by difference",g,--,--,18.00,60.00
"Fiber, total dietary",g,--,--,2.0,6.7
"Sugars, total",g,--,--,7.00,23.33
Minerals
"Calcium, Ca",mg,--,--,0,0
"Iron, Fe",mg,--,--,0.00,0.00
"Sodium, Na",mg,--,--,105,350
Vitamins
"Vitamin C, total ascorbic acid",mg,--,--,0.0,0.0
"Vitamin A, IU",IU,--,--,0,0
Lipids
"Fatty acids, total saturated",g,--,--,3.000,10.000
"Fatty acids, total trans",g,--,--,0.000,0.000
"Cholesterol",mg,--,--,0,0
Amino Acids
Other
Ingredients
"ORGANIC GLUTEN-FREE OATS, ORGANIC COCONUT SUGAR, ORGANIC RAW VIRGIN COCONUT OIL, DRIED BLUEBERRIES (BLUEBERRIES, SUGAR, SUNFLOWER OIL), ORGANIC SUNFLOWER SEEDS, ORGANIC PUFFED AMARANTH, ORGANIC HEMP SEEDS, ORGANIC MILLET FLAKES, ORGANIC QUINOA FLAKES, ORGANIC CHIA SEEDS, ORGANIC CINNAMON, SALT." Date available: 08/10/2017 Date last updated by company: 08/10/2017
