Source: USDA Branded Food Products Database Release December 2017 Software v.3.8.6.4 2017-10-02
Report Run at: December 16, 2017 23:49 EST
"Nutrient data for: 45197551, ANDOUILLE CHICKEN SAUSAGE, UPC: 072745644085"
Food Group:  Branded Food Products Database
Common Name:

Nutrient,Unit,Data points,Std. Error,"1 LINK = 76.0g",1Value per 100 g,
Proximates
"Energy",kcal,--,--,140,184
"Protein",g,--,--,14.00,18.42
"Total lipid (fat)",g,--,--,9.00,11.84
"Carbohydrate, by difference",g,--,--,1.00,1.32
"Fiber, total dietary",g,--,--,0.0,0.0
"Sugars, total",g,--,--,0.00,0.00
Minerals
"Calcium, Ca",mg,--,--,20,26
"Iron, Fe",mg,--,--,0.52,0.68
"Sodium, Na",mg,--,--,490,645
Vitamins
"Vitamin C, total ascorbic acid",mg,--,--,0.8,1.1
"Vitamin A, IU",IU,--,--,144,190
Lipids
"Fatty acids, total saturated",g,--,--,2.500,3.290
"Fatty acids, total trans",g,--,--,0.000,0.000
"Cholesterol",mg,--,--,60,79
Amino Acids
Other
Ingredients
"CHICKEN RAISED WITHOUT ANTIBIOTICS. CONTAINS 2% OR LESS OF SEA SALT, WATER, VINEGAR, SPICE, CELERY POWDER, EVAPORATED CANE SYRUP, PAPRIKA, ONION, GARLIC, EXTRACT OF OREGANO, PARSELY, IN A NATURAL PORK CASING." Date available: 07/14/2017 Date last updated by company: 07/14/2017
