Source: USDA Branded Food Products Database Release December 2017 Software v.3.8.6.4 2017-10-02
Report Run at: December 16, 2017 23:49 EST
"Nutrient data for: 45276355, ANDOUILLE SAUSAGE, UPC: 013451426985"
Food Group:  Branded Food Products Database
Common Name:

Nutrient,Unit,Data points,Std. Error,"2.0 ONZ = 56.0g",1Value per 100 g,
Proximates
"Energy",kcal,--,--,110,196
"Protein",g,--,--,9.00,16.07
"Total lipid (fat)",g,--,--,8.00,14.29
"Carbohydrate, by difference",g,--,--,2.00,3.57
"Sugars, total",g,--,--,1.00,1.79
Minerals
"Iron, Fe",mg,--,--,0.71,1.26
"Sodium, Na",mg,--,--,470,839
Vitamins
Lipids
"Fatty acids, total saturated",g,--,--,2.498,4.460
"Cholesterol",mg,--,--,35,62
Amino Acids
Other
Ingredients
"PORK, WATER, PORK STOMACHS, CONTAINS LESS THAN 2% OF SALT, FLAVORINGS, SMOKE FLAVORING (MALTODEXTRIN, NATURAL HICKORY SMOKE FLAVORING), DEXTROSE, POTASSIUM LACTATE, SODIUM PHOSPHATE, SODIUM DIACETATE, SODIUM ERYTHORBATE, SODIUM NITRITE." Date available: 09/21/2017 Date last updated by company: 09/21/2017
