Source: USDA Branded Food Products Database Release December 2017 Software v.3.8.6.4 2017-10-02
Report Run at: December 16, 2017 23:11 EST
"Nutrient data for: 45174107, ANGELIC BAKEHOUSE, SPROUTED SEVEN-GRAIN BREAD, UPC: 043832123592"
Food Group:  Branded Food Products Database
Common Name:

Nutrient,Unit,Data points,Std. Error,"1 SLICE = 28.0g",1Value per 100 g,
Proximates
"Energy",kcal,--,--,60,214
"Protein",g,--,--,3.00,10.71
"Total lipid (fat)",g,--,--,0.00,0.00
"Carbohydrate, by difference",g,--,--,11.00,39.29
"Fiber, total dietary",g,--,--,2.0,7.1
"Sugars, total",g,--,--,1.00,3.57
Minerals
"Calcium, Ca",mg,--,--,0,0
"Iron, Fe",mg,--,--,1.29,4.59
"Sodium, Na",mg,--,--,130,464
Vitamins
"Vitamin C, total ascorbic acid",mg,--,--,0.0,0.0
"Vitamin A, IU",IU,--,--,0,0
Lipids
"Fatty acids, total saturated",g,--,--,0.000,0.000
"Fatty acids, total trans",g,--,--,0.000,0.000
"Cholesterol",mg,--,--,0,0
Amino Acids
Other
Ingredients
"WHOLE SPROUTED GRAINS OF RED WHEAT BERRIES, QUINOA, OAT GROATS, RYE BERRIES, BARLEY, AMARANTH, AND MILLET, WATER, WHEAT FLOUR, VITAL WHEAT GLUTEN, 100% DOMESTIC HONEY, OAT FIBER, SALT, CULTURED WHEAT, MOLASSES, YEAST." Date available: 07/14/2017 Date last updated by company: 07/14/2017
