Source: USDA Branded Food Products Database Release December 2017 Software v.3.8.6.4 2017-10-02
Report Run at: December 16, 2017 23:10 EST
"Nutrient data for: 45111579, ANGEL HAIR PASTA IN MEAT SAUCE, UPC: 073369070250"
Food Group:  Branded Food Products Database
Common Name:

Nutrient,Unit,Data points,Std. Error,"1 PACKAGE = 213.0g",1Value per 100 g,
Proximates
"Energy",kcal,--,--,271,127
"Protein",g,--,--,9.99,4.69
"Total lipid (fat)",g,--,--,5.01,2.35
"Carbohydrate, by difference",g,--,--,46.01,21.60
"Fiber, total dietary",g,--,--,3.0,1.4
"Sugars, total",g,--,--,6.01,2.82
Minerals
"Calcium, Ca",mg,--,--,60,28
"Iron, Fe",mg,--,--,2.47,1.16
"Sodium, Na",mg,--,--,371,174
Vitamins
"Vitamin C, total ascorbic acid",mg,--,--,5.5,2.6
"Vitamin A, IU",IU,--,--,916,430
Lipids
"Fatty acids, total saturated",g,--,--,1.491,0.700
"Fatty acids, total trans",g,--,--,0.000,0.000
"Cholesterol",mg,--,--,11,5
Amino Acids
Other
Ingredients
"COOKED ENRICHED MACARONI PRODUCT (WATER, ENRICHED SEMOLINA [SEMOLINA, NIACIN, FERROUS SULFATE, THIAMINE MONONITRATE, RIBOFLAVIN, FOLIC ACID]), WATER, DICED TOMATOES (TOMATOES, TOMATO JUICE, CALCIUM CHLORIDE, CITRIC ACID), TOMATO PASTE, BEEF, CARROTS, ONIONS, LESS THAN 2% OF PORK, PARMESAN CHEESE (PASTEURIZED PART SKIM MILK, CULTURES, SALT, ENZYMES), GRANULATED SUGAR, BEEF BASE (ROASTED BEEF AND CONCENTRATED BEEF STOCK, SALT, HYDROLYZED SOY, CORN AND WHEAT PROTEIN, CORN OIL, SUGAR, AUTOLYZED YEAST EXTRACT, FLAVORINGS [CONTAINS OLEORESIN OF CELERY SEED], MALTODEXTRIN, WHEY, DEXTROSE, CARAMEL COLOR), CANOLA OIL, ENRICHED BLEACHED WHEAT FLOUR (WHEAT FLOUR, NIACIN, REDUCED IRON, THIAMINE MONONITRATE, RIBOFLAVIN, FOLIC ACID), SALT, MODIFIED FOOD STARCH, SPICES, GRANULATED GARLIC, XANTHAN GUM, MALTODEXTRIN AND NATURAL FLAVOR." Date available: 07/14/2017 Date last updated by company: 07/14/2017
