Source: USDA Branded Food Products Database Release December 2017 Software v.3.8.6.4 2017-10-02
Report Run at: December 16, 2017 23:12 EST
"Nutrient data for: 45002851, ANGEL'S RECIPES, ALL PURPOSE FLOUR BLEND, UPC: 858438002116"
Food Group:  Branded Food Products Database
Common Name:

Nutrient,Unit,Data points,Std. Error,"0.25 cup = 37.0g",1Value per 100 g,
Proximates
"Energy",kcal,--,--,88,238
"Protein",g,--,--,0.00,0.00
"Total lipid (fat)",g,--,--,0.00,0.00
"Carbohydrate, by difference",g,--,--,21.00,56.76
"Fiber, total dietary",g,--,--,0.3,0.7
"Sugars, total",g,--,--,0.00,0.00
Minerals
"Calcium, Ca",mg,--,--,0,0
"Iron, Fe",mg,--,--,0.00,0.00
"Sodium, Na",mg,--,--,0,0
Vitamins
"Vitamin C, total ascorbic acid",mg,--,--,0.0,0.0
"Vitamin A, IU",IU,--,--,0,0
Lipids
"Fatty acids, total saturated",g,--,--,0.000,0.000
"Fatty acids, total trans",g,--,--,0.000,0.000
"Cholesterol",mg,--,--,0,0
Amino Acids
Other
Ingredients
"POTATO STARCH, SORGHUM FLOUR, TAPIOCA FLOUR, WHITE RICE FLOUR, XANTHAN GUM" Date available: 07/14/2017 Date last updated by company: 07/14/2017
