Source: USDA Branded Food Products Database Release December 2017 Software v.3.8.6.4 2017-10-02
Report Run at: December 16, 2017 23:15 EST
"Nutrient data for: 45282127, ANGUS CHEESEBURGER, UPC: 071421208771"
Food Group:  Branded Food Products Database
Common Name:

Nutrient,Unit,Data points,Std. Error,"1 SANDWICH = 174.0g",1Value per 100 g,
Proximates
"Energy",kcal,--,--,510,293
"Protein",g,--,--,26.00,14.94
"Total lipid (fat)",g,--,--,26.00,14.94
"Carbohydrate, by difference",g,--,--,40.00,22.99
"Fiber, total dietary",g,--,--,1.9,1.1
"Sugars, total",g,--,--,6.00,3.45
Minerals
"Calcium, Ca",mg,--,--,150,86
"Iron, Fe",mg,--,--,2.89,1.66
"Sodium, Na",mg,--,--,860,494
Vitamins
"Vitamin C, total ascorbic acid",mg,--,--,1.9,1.1
"Vitamin A, IU",IU,--,--,162,93
Lipids
"Fatty acids, total saturated",g,--,--,10.005,5.750
"Fatty acids, total trans",g,--,--,0.992,0.570
"Cholesterol",mg,--,--,85,49
Amino Acids
Other
Ingredients
"FLAMEBROILED ANGUS BEEF STEAK-CHOPPED AND FORMED: BEEF, SALT, SODIUM PHOSPHATES, SPICE. SESAME SEED BUN: ENRICHED BLEACHED WHEAT FLOUR (WHEAT FLOUR, NIACIN, REDUCED IRON, THIAMINE MONONITRATE, RIBOFLAVIN, FOLIC ACID, ENZYME), WATER, SUGAR, SOYBEAN OIL, SESAME SEEDS, CONTAINS 2% OR LESS OF: YEAST (YEAST, SORBITAN MONOSTEARATE, ASCORBIC ACID), SALT, MONOGLYCERIDES WITH ASCORBIC ACID AND CITRIC ACID (ANTIOXIDANTS), CALCIUM PROPIONATE (PRESERVATIVE), CALCIUM SULFATE, ENZYMES, WHEAT STARCH, ASCORBIC ACID. PASTEURIZED PROCESS AMERICAN CHEESE: CULTURED MILK, WATER, CREAM, SODIUM CITRATE, SALT, SODIUM PHOSPHATE, SORBIC ACID (PRESERVATIVE), LACTIC ACID, ARTIFICIAL COLOR, ENZYMES, SOY LECITHIN." Date available: 08/07/2017 Date last updated by company: 08/07/2017
