Source: USDA Branded Food Products Database Release December 2017 Software v.3.8.6.4 2017-10-02
Report Run at: December 16, 2017 23:15 EST
"Nutrient data for: 45106169, ANGUS CORNED BEEF SLICED, UPC: 078742074122"
Food Group:  Branded Food Products Database
Common Name:

Nutrient,Unit,Data points,Std. Error,"2.0 ONZ = 56.0g",1Value per 100 g,
Proximates
"Energy",kcal,--,--,60,107
"Protein",g,--,--,10.00,17.86
"Total lipid (fat)",g,--,--,2.00,3.57
"Carbohydrate, by difference",g,--,--,1.00,1.79
"Fiber, total dietary",g,--,--,0.0,0.0
"Sugars, total",g,--,--,0.00,0.00
Minerals
"Calcium, Ca",mg,--,--,0,0
"Iron, Fe",mg,--,--,1.06,1.89
"Sodium, Na",mg,--,--,460,821
Vitamins
"Vitamin C, total ascorbic acid",mg,--,--,0.0,0.0
"Vitamin A, IU",IU,--,--,0,0
Lipids
"Fatty acids, total saturated",g,--,--,0.498,0.890
"Fatty acids, total trans",g,--,--,0.000,0.000
"Cholesterol",mg,--,--,25,45
Amino Acids
Other
Ingredients
"CURED WITH: WATER, CONTAINS LESS THAN 2% POTASSIUM LACTATE, SALT, SUGAR, SODIUM PHOSPHATES, SODIUM DIACETATE, FLAVORINGS, SODIUM ERYTHORBATE, SODIUM NITRITE." Date available: 10/13/2017 Date last updated by company: 10/13/2017
