Source: USDA Branded Food Products Database Release December 2017 Software v.3.8.6.4 2017-10-02
Report Run at: December 16, 2017 23:17 EST
"Nutrient data for: 45168609, ANISA'S SECRETS, LEMON DILL, UPC: 640265995170"
Food Group:  Branded Food Products Database
Common Name:

Nutrient,Unit,Data points,Std. Error,"0.25 tsp = 0.06g",1Value per 100 g,
Proximates
"Energy",kcal,--,--,0,0
"Protein",g,--,--,0.00,0.00
"Total lipid (fat)",g,--,--,0.00,0.00
"Carbohydrate, by difference",g,--,--,0.00,0.00
Minerals
"Sodium, Na",mg,--,--,160,266667
Vitamins
Lipids
Amino Acids
Other
Ingredients
"DILL LEAF, LEMON GRANULES, SUMAC GRANULATED GARLIC, GRANULATED ONION, CAYENNE PEPPER, GINGER, CITRIC ACID, SEA SALT." Date available: 01/06/2017 Date last updated by company: 01/06/2017
