Source: USDA Branded Food Products Database Release December 2017 Software v.3.8.6.4 2017-10-02
Report Run at: December 16, 2017 23:30 EST
"Nutrient data for: 45191652, ANN MARIE'S, SUGAR FREE MUFFINS, BANANA NUT, UPC: 079879308234"
Food Group:  Branded Food Products Database
Common Name:

Nutrient,Unit,Data points,Std. Error,"1 MUFFIN = 57.0g",1Value per 100 g,
Proximates
"Energy",kcal,--,--,170,298
"Protein",g,--,--,3.00,5.26
"Total lipid (fat)",g,--,--,10.00,17.54
"Carbohydrate, by difference",g,--,--,23.00,40.35
"Fiber, total dietary",g,--,--,0.0,0.0
"Sugars, total",g,--,--,0.00,0.00
Minerals
"Calcium, Ca",mg,--,--,60,105
"Iron, Fe",mg,--,--,0.70,1.22
"Sodium, Na",mg,--,--,270,474
Vitamins
"Vitamin C, total ascorbic acid",mg,--,--,0.0,0.0
"Vitamin A, IU",IU,--,--,96,169
Lipids
"Fatty acids, total saturated",g,--,--,2.001,3.510
"Fatty acids, total trans",g,--,--,0.000,0.000
"Cholesterol",mg,--,--,45,79
Amino Acids
Other
Ingredients
"MALTITOL, ENRICHED WHEAT FLOUR BLEACHED (FLOUR, NIACIN, REDUCED IRON, THIAMIN MONONITRATE, RIBOFLAVIN, FOLIC ACID), WHOLE EGGS, SOYBEAN OIL, WATER, FOOD STARCH MODIFIED, WALNUTS, WHEY (MILK), LEAVENING (SODIUM ALUMINUM PHOSPHATE, BAKING SODA, ALUMINUM SULFATE), WHEAT GLUTEN, SALT, PROPYLENE GLYCOL, MONO & DIESTERS, MONO & DIGLYCERIDES, SODIUM STEAROYL LACTYLATE, ACESULFAME POTASSIUM, NATURAL AND ARTIFICIAL FLAVOR, SODIUM PROPIONATE, POTASSIUM SORBATE (PRESERVATIVE), TRICALCIUM PHOSPHATE, ASCORBIC ACID (DOUGH CONDITIONER), CITRIC ACID, SOY FLOUR, SUCRALOSE." Date available: 07/14/2017 Date last updated by company: 07/14/2017
