Source: USDA Branded Food Products Database Release December 2017 Software v.3.8.6.4 2017-10-02
Report Run at: December 16, 2017 23:30 EST
"Nutrient data for: 45037779, ANN'S HOUSE, ISLAND TRIO, UPC: 038718203529"
Food Group:  Branded Food Products Database
Common Name:

Nutrient,Unit,Data points,Std. Error,"0.25 cup = 40.0g",1Value per 100 g,
Proximates
"Energy",kcal,--,--,140,350
"Protein",g,--,--,0.00,0.00
"Total lipid (fat)",g,--,--,0.00,0.00
"Carbohydrate, by difference",g,--,--,36.00,90.00
"Fiber, total dietary",g,--,--,1.0,2.5
"Sugars, total",g,--,--,28.00,70.00
Minerals
"Calcium, Ca",mg,--,--,60,150
"Iron, Fe",mg,--,--,0.36,0.90
"Sodium, Na",mg,--,--,95,238
Vitamins
"Vitamin C, total ascorbic acid",mg,--,--,0.0,0.0
"Vitamin A, IU",IU,--,--,0,0
Lipids
"Fatty acids, total saturated",g,--,--,0.000,0.000
"Fatty acids, total trans",g,--,--,0.000,0.000
"Cholesterol",mg,--,--,0,0
Amino Acids
Other
Ingredients
"DRIED PINEAPPLE (PINEAPPLE, SUGAR, CITRIC ACID, SULFUR DIOXIDE [TO PRESERVE COLOR]), DRIED MANGO (MANGO, SUGAR, CITRIC ACID, SULFUR DIOXIDE [TO PRESERVE COLOR], YELLOW 5, YELLOW 6), DRIED KIWI (KIWI, SUGAR, CITRIC ACID, SULFUR DIOXIDE [TO PRESERVE COLOR], BLUE 1, YELLOW 5)." Date available: 07/14/2017 Date last updated by company: 07/14/2017
