Source: USDA Branded Food Products Database Release December 2017 Software v.3.8.6.4 2017-10-02
Report Run at: December 16, 2017 23:26 EST
"Nutrient data for: 45327833, ANNIES MAC CHS MILD CHDR, UNPREPARED, GTIN: 00013562001361"
Food Group:  Branded Food Products Database
Common Name:

Nutrient,Unit,Data points,Std. Error,"1 Package = 57.0g",1Value per 100 g,
Proximates
"Energy",kcal,--,--,220,386
"Protein",g,--,--,7.00,12.28
"Total lipid (fat)",g,--,--,5.00,8.77
"Carbohydrate, by difference",g,--,--,37.00,64.91
"Fiber, total dietary",g,--,--,2.0,3.5
"Sugars, total",g,--,--,2.00,3.51
Minerals
"Calcium, Ca",mg,--,--,40,70
"Iron, Fe",mg,--,--,0.72,1.26
"Potassium, K",mg,--,--,210,368
"Sodium, Na",mg,--,--,380,667
Vitamins
"Vitamin D",IU,--,--,0,0
Lipids
"Fatty acids, total saturated",g,--,--,2.998,5.260
"Fatty acids, total trans",g,--,--,0.000,0.000
"Cholesterol",mg,--,--,10,18
Amino Acids
Other
Ingredients
"ORGANIC PASTA (ORGANIC WHEAT FLOUR, ORGANIC WHOLE GRAIN WHEAT FLOUR), TAPIOCA STARCH, BUTTER, NONFAT MILK, CORN STARCH, DRIED CHEDDAR CHEESE (CULTURED PASTEURIZED MILK, SALT, NON-ANIMAL ENZYMES), ORGANIC COCONUT OIL, SALT, WHEY, POTASSIUM CHLORIDE, NATURAL FLAVOR, CULTURED WHOLE MILK, SUNFLOWER LECITHIN, SODIUM PHOSPHATE, ANNATTO EXTRACT (FOR COLOR), SILICON DIOXIDE (FOR ANTICAKING). " Date available: 10/10/2017 Date last updated by company: 08/28/2017
