Source: USDA Branded Food Products Database Release December 2017 Software v.3.8.6.4 2017-10-02
Report Run at: December 16, 2017 23:26 EST
"Nutrient data for: 45321475, ANNIES MAC CHS SHELLS WHITE CHDR, UNPREPARED, GTIN: 00013562300631"
Food Group:  Branded Food Products Database
Common Name:

Nutrient,Unit,Data points,Std. Error,"2.5 OZ (71g) = 71.0g",1Value per 100 g,
Proximates
"Energy",kcal,--,--,260,366
"Protein",g,--,--,10.00,14.08
"Total lipid (fat)",g,--,--,3.50,4.93
"Carbohydrate, by difference",g,--,--,48.00,67.61
"Fiber, total dietary",g,--,--,2.0,2.8
"Sugars, total",g,--,--,4.00,5.63
Minerals
"Calcium, Ca",mg,--,--,100,141
"Iron, Fe",mg,--,--,0.72,1.01
"Sodium, Na",mg,--,--,550,775
Vitamins
"Vitamin C, total ascorbic acid",mg,--,--,0.0,0.0
"Thiamin",mg,--,--,0.000,0.000
"Vitamin A, IU",IU,--,--,0,0
Lipids
"Fatty acids, total saturated",g,--,--,2.002,2.820
"Fatty acids, total trans",g,--,--,0.000,0.000
"Cholesterol",mg,--,--,10,14
Amino Acids
Other
Ingredients
"ORGANIC PASTA (ORGANIC WHEAT FLOUR), DRIED ORGANIC CHEDDAR CHEESE (ORGANIC CULTURED PASTEURIZED MILK, SALT, NON-ANIMAL ENZYMES), ORGANIC WHEY, SALT, SODIUM PHOSPHATE, SILICON DIOXIDE (FOR ANTICAKING)." Date available: 10/10/2017 Date last updated by company: 07/03/2017
