Source: USDA Branded Food Products Database Release December 2017 Software v.3.8.6.4 2017-10-02
Report Run at: December 16, 2017 23:20 EST
"Nutrient data for: 45311019, ANNIES BUNNIES BKD SNCK CRCKRS WHITE CHDR, UNPREPARED, GTIN: 00013562000876"
Food Group:  Branded Food Products Database
Common Name:

Nutrient,Unit,Data points,Std. Error,"48.0 Crackers (30g) = 30.0g",1Value per 100 g,
Proximates
"Energy",kcal,--,--,150,500
"Protein",g,--,--,3.00,10.00
"Total lipid (fat)",g,--,--,7.00,23.33
"Carbohydrate, by difference",g,--,--,19.00,63.33
"Fiber, total dietary",g,--,--,1.0,3.3
"Sugars, total",g,--,--,1.00,3.33
Minerals
"Calcium, Ca",mg,--,--,0,0
"Iron, Fe",mg,--,--,0.00,0.00
"Sodium, Na",mg,--,--,150,500
Vitamins
"Vitamin C, total ascorbic acid",mg,--,--,0.0,0.0
"Vitamin A, IU",IU,--,--,0,0
Lipids
"Fatty acids, total saturated",g,--,--,0.999,3.330
"Fatty acids, total trans",g,--,--,0.000,0.000
"Cholesterol",mg,--,--,0,0
Amino Acids
Other
Ingredients
"ORGANIC WHEAT FLOUR, EXPELLER-PRESSED SUNFLOWER OIL, DRIED CHEDDAR CHEESE (CULTURED PASTEURIZED MILK, CHEESE CULTURES, SALT, ENZYMES), WHEY, CHEDDAR CHEESE (PASTEURIZED MILK, CHEESE CULTURES, SALT, ENZYMES), SALT, YEAST, NONFAT MILK, BUTTER, CULTURED WHOLE MILK, ONION POWDER, CELERY SEED POWDER, ENZYMES, ANNATTO EXTRACT (FOR COLOR)." Date available: 06/21/2017 Date last updated by company: 06/20/2017
