Source: USDA Branded Food Products Database Release December 2017 Software v.3.8.6.4 2017-10-02
Report Run at: December 16, 2017 23:28 EST
"Nutrient data for: 45327805, ANNIES ORG DRESSING GODDESS, UNPREPARED, GTIN: 00092325333529"
Food Group:  Branded Food Products Database
Common Name:

Nutrient,Unit,Data points,Std. Error,"2.0 Tbsp = 30.0g",1Value per 100 g,
Proximates
"Energy",kcal,--,--,120,400
"Protein",g,--,--,1.00,3.33
"Total lipid (fat)",g,--,--,12.00,40.00
"Carbohydrate, by difference",g,--,--,2.00,6.67
"Fiber, total dietary",g,--,--,1.0,3.3
"Sugars, total",g,--,--,0.00,0.00
Minerals
"Calcium, Ca",mg,--,--,0,0
"Iron, Fe",mg,--,--,0.36,1.20
"Potassium, K",mg,--,--,0,0
"Sodium, Na",mg,--,--,340,1133
Vitamins
"Vitamin D",IU,--,--,0,0
Lipids
"Fatty acids, total saturated",g,--,--,0.999,3.330
"Fatty acids, total trans",g,--,--,0.000,0.000
"Cholesterol",mg,--,--,0,0
Amino Acids
Other
Ingredients
"EXPELLER-PRESSED CANOLA OIL*, WATER, APPLE CIDER VINEGAR*, TAHINI* (TOASTED SESAME SEED PASTE), SOY SAUCE* (WATER, SOYBEANS*, WHEAT*, SALT, ALCOHOL*), LEMON JUICE CONCENTRATE*, SEA SALT, DRIED GARLIC*, TOASTED SESAME SEEDS*, DRIED PARSLEY*, DRIED CHIVES*, XANTHAN GUM. *ORGANIC " Date available: 10/10/2017 Date last updated by company: 09/21/2017
