Source: USDA Branded Food Products Database Release December 2017 Software v.3.8.6.4 2017-10-02
Report Run at: December 16, 2017 23:20 EST
"Nutrient data for: 45139426, ANNIE'S, CHEWY GLUTEN FREE GRANOLA BARS, OATMEAL COOKIE, UPC: 013562460519"
Food Group:  Branded Food Products Database
Common Name:

Nutrient,Unit,Data points,Std. Error,"1 BAR = 28.0g",1Value per 100 g,
Proximates
"Energy",kcal,--,--,110,393
"Protein",g,--,--,1.00,3.57
"Total lipid (fat)",g,--,--,3.00,10.71
"Carbohydrate, by difference",g,--,--,21.00,75.00
"Fiber, total dietary",g,--,--,3.0,10.7
"Sugars, total",g,--,--,7.00,25.00
Minerals
"Calcium, Ca",mg,--,--,0,0
"Iron, Fe",mg,--,--,0.36,1.29
"Sodium, Na",mg,--,--,10,36
Vitamins
"Vitamin C, total ascorbic acid",mg,--,--,0.0,0.0
"Vitamin A, IU",IU,--,--,0,0
Lipids
"Fatty acids, total saturated",g,--,--,1.000,3.570
"Fatty acids, total trans",g,--,--,0.000,0.000
"Cholesterol",mg,--,--,0,0
Amino Acids
Other
Ingredients
"GLUTEN FREE TOASTED OATS (WHOLE GRAIN OATS, ORGANIC CANE SUGAR, CANOLA OIL, MIXED TOCOPHEROLS), TAPIOCA SYRUP, RICE CRISP, RAISINS, PALM OIL, ORGANIC TAPIOCA SYRUP SOLIDS, ORGANIC CANE SYRUP, RICE FIBER, ORGANIC INULIN, NATURAL FLAVORS, ORGANIC CINNAMON," Date available: 11/09/2016 Date last updated by company: 11/09/2016
