Source: USDA Branded Food Products Database Release December 2017 Software v.3.8.6.4 2017-10-02
Report Run at: December 16, 2017 23:29 EST
"Nutrient data for: 45139385, ANNIE'S, REAL AGED CHEDDAR MACARONI & CHEESE, UPC: 013562000593"
Food Group:  Branded Food Products Database
Common Name:

Nutrient,Unit,Data points,Std. Error,"1 PACKAGE = 57.0g",1Value per 100 g,
Proximates
"Energy",kcal,--,--,220,386
"Protein",g,--,--,7.00,12.28
"Total lipid (fat)",g,--,--,4.50,7.89
"Carbohydrate, by difference",g,--,--,37.00,64.91
"Fiber, total dietary",g,--,--,3.0,5.3
"Sugars, total",g,--,--,2.00,3.51
Minerals
"Calcium, Ca",mg,--,--,80,140
"Iron, Fe",mg,--,--,0.72,1.26
"Sodium, Na",mg,--,--,400,702
Vitamins
"Vitamin C, total ascorbic acid",mg,--,--,0.0,0.0
"Vitamin A, IU",IU,--,--,100,175
Lipids
"Fatty acids, total saturated",g,--,--,2.998,5.260
"Fatty acids, total trans",g,--,--,0.000,0.000
"Cholesterol",mg,--,--,5,9
Amino Acids
Other
Ingredients
"ORGANIC WHEAT MACARONI (ORGANIC WHEAT FLOUR, ORGANIC WHOLE GRAIN WHEAT FLOUR), TAPIOCA STARCH, CHEDDAR CHEESE (CULTURED PASTEURIZED MILK, SALT, NON-ANIMAL ENZYMES), NONFAT DRY MILK, CORN STARCH, ORGANIC COCONUT OIL, WHEY, BUTTER, SALT, CULTURED WHOLE MILK" Date available: 11/09/2016 Date last updated by company: 11/09/2016
