Source: USDA Branded Food Products Database Release December 2017 Software v.3.8.6.4 2017-10-02
Report Run at: December 16, 2017 23:20 EST
"Nutrient data for: 45139412, ANNIE'S, COOKIE BITES, LEMON DROP, UPC: 013562001682"
Food Group:  Branded Food Products Database
Common Name:

Nutrient,Unit,Data points,Std. Error,"6.0 COOKIES = 30.0g",1Value per 100 g,
Proximates
"Energy",kcal,--,--,150,500
"Protein",g,--,--,2.00,6.67
"Total lipid (fat)",g,--,--,8.00,26.67
"Carbohydrate, by difference",g,--,--,19.00,63.33
"Fiber, total dietary",g,--,--,1.0,3.3
"Sugars, total",g,--,--,7.00,23.33
Minerals
"Calcium, Ca",mg,--,--,0,0
"Iron, Fe",mg,--,--,0.00,0.00
"Sodium, Na",mg,--,--,65,217
Vitamins
"Vitamin C, total ascorbic acid",mg,--,--,0.0,0.0
"Vitamin A, IU",IU,--,--,0,0
Lipids
"Fatty acids, total saturated",g,--,--,3.000,10.000
"Fatty acids, total trans",g,--,--,0.000,0.000
"Cholesterol",mg,--,--,0,0
Amino Acids
Other
Ingredients
"ORGANIC WHEAT FLOUR, ORGANIC CANE SUGAR, SALTED BUTTER, ORGANIC WHOLE WHEAT GRAHAM FLOUR, EXPELLER-PRESSED SUNFLOWER OIL, SEA SALT, NATURAL FLAVOR, LEMON OIL, BAKING SODA, MIXED TOCOPHEROLS (VITAMIN E) TO PROTECT FLAVOR, LACTIC ACID." Date available: 11/09/2016 Date last updated by company: 11/09/2016
