Source: USDA Branded Food Products Database Release December 2017 Software v.3.8.6.4 2017-10-02
Report Run at: December 16, 2017 23:27 EST
"Nutrient data for: 45244474, ANNIES ORG BUNNY FRT SNCKS TROPICAL TREAT, UNPREPARED, GTIN: 00013562011001"
Food Group:  Branded Food Products Database
Common Name:

Nutrient,Unit,Data points,Std. Error,"1 pouch (23g) = 23.0g",1Value per 100 g,
Proximates
"Energy",kcal,--,--,70,304
"Protein",g,--,--,0.00,0.00
"Total lipid (fat)",g,--,--,0.00,0.00
"Carbohydrate, by difference",g,--,--,19.00,82.61
"Fiber, total dietary",g,--,--,0.0,0.0
"Sugars, total",g,--,--,11.00,47.83
Minerals
"Calcium, Ca",mg,--,--,0,0
"Iron, Fe",mg,--,--,0.00,0.00
"Sodium, Na",mg,--,--,55,239
Vitamins
"Vitamin C, total ascorbic acid",mg,--,--,60.0,260.9
"Vitamin A, IU",IU,--,--,0,0
Lipids
"Fatty acids, total saturated",g,--,--,0.000,0.000
"Fatty acids, total trans",g,--,--,0.000,0.000
"Cholesterol",mg,--,--,0,0
Amino Acids
Other
Ingredients
"ORGANIC TAPIOCA SYRUP, ORGANIC CANE SUGAR, ORGANIC TAPIOCA SYRUP SOLIDS, ORGANIC PEAR JUICE CONCENTRATE, WATER, PECTIN, CITRIC ACID, SODIUM CITRATE, ASCORBIC ACID (VITAMIN C), NATURAL FLAVOR, ORGANIC SUNFLOWER OIL, ORGANIC COLOR (ORGANIC BLACK CARROT, ORGANIC BLACKCURRANT, ORGANIC ANNATTO, ORGANIC TURMERIC EXTRACTS), ORGANIC CARNAUBA WAX." Date available: 10/18/2017 Date last updated by company: 08/16/2017
