Source: USDA Branded Food Products Database Release December 2017 Software v.3.8.6.4 2017-10-02
Report Run at: December 16, 2017 23:31 EST
"Nutrient data for: 45162404, ANTHON BERG, CHOCOLATE COVERED MARZIPAN, UPC: 074540988432"
Food Group:  Branded Food Products Database
Common Name:

Nutrient,Unit,Data points,Std. Error,"1 PIECES = 27.0g",1Value per 100 g,
Proximates
"Energy",kcal,--,--,120,444
"Protein",g,--,--,2.00,7.41
"Total lipid (fat)",g,--,--,6.00,22.22
"Carbohydrate, by difference",g,--,--,14.00,51.85
"Fiber, total dietary",g,--,--,1.0,3.7
"Sugars, total",g,--,--,10.00,37.04
Minerals
"Calcium, Ca",mg,--,--,0,0
"Iron, Fe",mg,--,--,1.33,4.94
"Sodium, Na",mg,--,--,10,37
Vitamins
"Vitamin C, total ascorbic acid",mg,--,--,0.0,0.0
"Vitamin A, IU",IU,--,--,0,0
Lipids
"Fatty acids, total saturated",g,--,--,2.001,7.410
"Fatty acids, total trans",g,--,--,0.000,0.000
"Cholesterol",mg,--,--,0,0
Amino Acids
Other
Ingredients
"SUGAR, CHOCOLATE LIQUOR, PLUMS, ALMONDS, APRICOT KERNELS, GLUCOSE SYRUP, MADEIRA, ETHYL ALCOHOL, COCOA BUTTER, MILK FAT, RAPESEED LECITHIN, FOOD STARCH-MODIFIED, SORBIC ACID (PRESERVATIVE), CITRIC ACID(ACIDIFIER)." Date available: 07/14/2017 Date last updated by company: 07/14/2017
