Source: USDA Branded Food Products Database Release December 2017 Software v.3.8.6.4 2017-10-02
Report Run at: December 16, 2017 23:32 EST
"Nutrient data for: 45270171, ANTIOXIDANT MIX BAG, UPC: 824295136806"
Food Group:  Branded Food Products Database
Common Name:

Nutrient,Unit,Data points,Std. Error,"1 PACKAGE = 28.0g",1Value per 100 g,
Proximates
"Energy",kcal,--,--,130,464
"Protein",g,--,--,3.00,10.71
"Total lipid (fat)",g,--,--,8.00,28.57
"Carbohydrate, by difference",g,--,--,14.00,50.00
"Fiber, total dietary",g,--,--,2.0,7.1
"Sugars, total",g,--,--,9.00,32.14
Minerals
"Calcium, Ca",mg,--,--,40,143
"Iron, Fe",mg,--,--,1.29,4.59
"Magnesium, Mg",mg,--,--,107,383
"Sodium, Na",mg,--,--,0,0
"Manganese, Mn",mg,--,--,0.560,2.000
Vitamins
"Vitamin C, total ascorbic acid",mg,--,--,2.2,7.7
"Vitamin A, IU",IU,--,--,0,0
Lipids
"Fatty acids, total saturated",g,--,--,1.000,3.570
"Fatty acids, total trans",g,--,--,0.000,0.000
"Cholesterol",mg,--,--,0,0
Amino Acids
Other
Ingredients
"ALMONDS, DRIED SWEETENED CRANBERRIES (CRANBERRIES, SUGAR, EXPELLER PRESSED SUNFLOWER OIL), DRIED SWEETENED BLUEBERRIES (CULTIVATED BLUEBERRIES, SUGAR, EXPELLER PRESSED SUNFLOWER OIL), CASHEWS, PEPITAS, EXPELLER PRESSED SUNFLOWER OIL." Date available: 07/14/2017 Date last updated by company: 07/14/2017
