Source: USDA Branded Food Products Database Release December 2017 Software v.3.8.6.4 2017-10-02
Report Run at: December 16, 2017 23:33 EST
"Nutrient data for: 45199020, ANTIPASTI REGIONALI CAPONATA, UPC: 085917920245"
Food Group:  Branded Food Products Database
Common Name:

Nutrient,Unit,Data points,Std. Error,"0.25 cup = 60.0g",1Value per 100 g,
Proximates
"Energy",kcal,--,--,80,133
"Protein",g,--,--,1.00,1.67
"Total lipid (fat)",g,--,--,6.00,10.00
"Carbohydrate, by difference",g,--,--,6.00,10.00
"Fiber, total dietary",g,--,--,1.0,1.7
"Sugars, total",g,--,--,3.00,5.00
Minerals
"Calcium, Ca",mg,--,--,0,0
"Iron, Fe",mg,--,--,0.60,1.00
"Sodium, Na",mg,--,--,250,417
Vitamins
"Vitamin C, total ascorbic acid",mg,--,--,2.0,3.3
"Vitamin A, IU",IU,--,--,83,139
Lipids
"Fatty acids, total saturated",g,--,--,1.002,1.670
"Fatty acids, total trans",g,--,--,0.000,0.000
"Cholesterol",mg,--,--,0,0
Amino Acids
Other
Ingredients
"EGGPLANTS, TOMATOES, OLIVE OIL. ONIONS, CELERY, TOMATO PASTE, BLACK OLIVES, WHITE WINE VINEGAR, SUGAR, CAPERS, SEA SALT, BASIL, ACIDITY REGULATOR, CITRIC ACID." Date available: 07/14/2017 Date last updated by company: 07/14/2017
