Source: USDA Branded Food Products Database Release December 2017 Software v.3.8.6.4 2017-10-02
Report Run at: December 16, 2017 23:41 EST
"Nutrient data for: 45240597, APPLE CIDER VINEGAR, UPC: 853311003693"
Food Group:  Branded Food Products Database
Common Name:

Nutrient,Unit,Data points,Std. Error,"2.0 | ABOUT = 240.0g",1Value per 100 g,
Proximates
"Energy",kcal,--,--,24,10
"Protein",g,--,--,0.00,0.00
"Total lipid (fat)",g,--,--,0.00,0.00
"Carbohydrate, by difference",g,--,--,4.99,2.08
"Sugars, total",g,--,--,1.99,0.83
Minerals
"Sodium, Na",mg,--,--,19,8
Vitamins
"Vitamin C, total ascorbic acid",mg,--,--,49.4,20.6
Lipids
Amino Acids
Other
Ingredients
"PURIFIED WATER, APPLE CIDER VINEGAR*, KEVITA PROBIOTIC CULTURE* (BACILLUS COAGULANS GBI-30 6086, L.RHAMNOSUS, L.PLANTARUM, L.PARACASEI), APPLE JUICE CONCENTRATE*, GINGER WHOLE PLANT EXTRACT*, CHILI PEPPER WHOLE PLANT EXTRACT*, LIME WHOLE PLANT EXTRACT*, ASCORBIC ACID (VITAMIN C), STEVIA LEAF EXTRACT*, LACTIC ACID (FERMENTED)." Date available: 08/10/2017 Date last updated by company: 08/10/2017
