Source: USDA Branded Food Products Database Release December 2017 Software v.3.8.6.4 2017-10-02
Report Run at: December 16, 2017 23:39 EST
"Nutrient data for: 45035550, APPLE SAUCE, UPC: 037323125189"
Food Group:  Branded Food Products Database
Common Name:

Nutrient,Unit,Data points,Std. Error,"0.5 cup = 126.0g",1Value per 100 g,
Proximates
"Energy",kcal,--,--,89,71
"Protein",g,--,--,0.00,0.00
"Total lipid (fat)",g,--,--,0.00,0.00
"Carbohydrate, by difference",g,--,--,23.00,18.25
"Fiber, total dietary",g,--,--,2.0,1.6
"Sugars, total",g,--,--,19.00,15.08
Minerals
"Sodium, Na",mg,--,--,10,8
Vitamins
Lipids
Amino Acids
Other
Ingredients
"APPLES, SUGAR AND WATER. ASCORBIC ACID TO MAINTAIN COLOR." Date available: 07/14/2017 Date last updated by company: 07/14/2017
