Source: USDA Branded Food Products Database Release December 2017 Software v.3.8.6.4 2017-10-02
Report Run at: December 16, 2017 23:37 EST
"Nutrient data for: 45135637, APPLE CARAMEL BLOSSOMS, UPC: 5051379054496"
Food Group:  Branded Food Products Database
Common Name:

Nutrient,Unit,Data points,Std. Error,"4.0 ONZ = 114.0g",1Value per 100 g,
Proximates
"Energy",kcal,--,--,350,307
"Protein",g,--,--,3.00,2.63
"Total lipid (fat)",g,--,--,18.00,15.79
"Carbohydrate, by difference",g,--,--,42.00,36.84
"Fiber, total dietary",g,--,--,1.0,0.9
"Sugars, total",g,--,--,17.00,14.91
Minerals
"Calcium, Ca",mg,--,--,21,18
"Iron, Fe",mg,--,--,1.57,1.38
"Sodium, Na",mg,--,--,329,289
Vitamins
"Vitamin C, total ascorbic acid",mg,--,--,1.4,1.2
"Vitamin A, IU",IU,--,--,0,0
Lipids
"Fatty acids, total saturated",g,--,--,8.995,7.890
"Fatty acids, total trans",g,--,--,0.000,0.000
"Cholesterol",mg,--,--,15,13
Amino Acids
Other
Ingredients
"APPLES, ENRICHED WHEAT FLOUR (WHEAT FLOUR, NIACIN, REDUCED IRON, THIAMIN MONONITRATE, RIBOFLAVIN, FOLIC ACID), PALM OIL, SUGAR, WATER, CORN SYRUP, HEAVY CREAM (CREAM, MILK, SKIM MILK POWDER, DEXTROSE, CARRAGEENAN, MONO- AND DI-GLYCERIDES, CELLULOSE GUM, SODIUM CITRATE), MODIFIED CORN STARCH, BUTTER (CREAM, SALT), EGGS, GLAZE (SUGAR, AGAR), SALT, DEXTROSE, WHITE VINEGAR, CONCENTRATED LEMON JUICE, MODIFIED TAPIOCA STARCH, NATURAL FLAVOR, CINNAMON, MOLASSES, YEAST, ENZYMES, SOY LECITHIN, CARAMEL COLOR." Date available: 06/24/2017 Date last updated by company: 06/24/2017
