Source: USDA Branded Food Products Database Release December 2017 Software v.3.8.6.4 2017-10-02
Report Run at: December 16, 2017 23:46 EST
"Nutrient data for: 45136334, APPLE & EVE, JUICE, WHITE GRAPE RASPBERRY, UPC: 076301845053"
Food Group:  Branded Food Products Database
Common Name:

Nutrient,Unit,Data points,Std. Error,"6.75 OZA = 200.0g",1Value per 100 g,
Proximates
"Energy",kcal,--,--,100,50
"Protein",g,--,--,0.00,0.00
"Total lipid (fat)",g,--,--,0.00,0.00
"Carbohydrate, by difference",g,--,--,21.00,10.50
"Sugars, total",g,--,--,18.00,9.00
Minerals
"Calcium, Ca",mg,--,--,20,10
"Sodium, Na",mg,--,--,16,8
Vitamins
"Vitamin C, total ascorbic acid",mg,--,--,72.0,36.0
Lipids
Amino Acids
Other
Ingredients
"100% FRUIT JUICE (FILTERED WATER SUFFICIENT TO RECONSTITUTE APPLE, PEAR, JUJUBE FRUIT, WHITE GRAPE AND RASPBERRY JUICE CONCENTRATES) NATURAL FLAVORS, CITRIC ACID, ASCORBIC ACID (VITAMIN C), CALCIUM LACTATE, CALCIUM GLUCONATE, VEGETABLE COLOR." Date available: 06/25/2017 Date last updated by company: 06/25/2017
