Source: USDA Branded Food Products Database Release December 2017 Software v.3.8.6.4 2017-10-02
Report Run at: December 16, 2017 23:38 EST
"Nutrient data for: 45082149, APPLE SAUCE, UPC: 041250938187"
Food Group:  Branded Food Products Database
Common Name:

Nutrient,Unit,Data points,Std. Error,"0.5 cup = 124.0g",1Value per 100 g,
Proximates
"Energy",kcal,--,--,81,65
"Protein",g,--,--,0.00,0.00
"Total lipid (fat)",g,--,--,0.00,0.00
"Carbohydrate, by difference",g,--,--,22.00,17.74
"Fiber, total dietary",g,--,--,1.0,0.8
"Sugars, total",g,--,--,18.00,14.52
Minerals
"Calcium, Ca",mg,--,--,0,0
"Iron, Fe",mg,--,--,0.00,0.00
"Sodium, Na",mg,--,--,0,0
Vitamins
"Vitamin C, total ascorbic acid",mg,--,--,6.8,5.5
"Vitamin A, IU",IU,--,--,0,0
Lipids
"Fatty acids, total saturated",g,--,--,0.000,0.000
"Fatty acids, total trans",g,--,--,0.000,0.000
"Cholesterol",mg,--,--,0,0
Amino Acids
Other
Ingredients
"APPLES, SUGAR, WATER, ASCORBIC ACID (VITAMIN C)." Date available: 07/14/2017 Date last updated by company: 07/14/2017
