Source: USDA Branded Food Products Database Release December 2017 Software v.3.8.6.4 2017-10-02
Report Run at: December 16, 2017 23:46 EST
"Nutrient data for: 45273252, APPLE FRITTERS, UPC: 697941840255"
Food Group:  Branded Food Products Database
Common Name:

Nutrient,Unit,Data points,Std. Error,"1 FRITTER = 113.0g",1Value per 100 g,
Proximates
"Energy",kcal,--,--,370,327
"Protein",g,--,--,4.99,4.42
"Total lipid (fat)",g,--,--,12.00,10.62
"Carbohydrate, by difference",g,--,--,60.00,53.10
"Fiber, total dietary",g,--,--,2.0,1.8
"Sugars, total",g,--,--,31.00,27.43
Minerals
"Calcium, Ca",mg,--,--,20,18
"Iron, Fe",mg,--,--,0.88,0.78
"Sodium, Na",mg,--,--,340,301
Vitamins
"Vitamin C, total ascorbic acid",mg,--,--,5.9,5.2
"Vitamin A, IU",IU,--,--,0,0
Lipids
"Fatty acids, total saturated",g,--,--,4.995,4.420
"Fatty acids, total monounsaturated",g,--,--,4.497,3.980
"Fatty acids, total polyunsaturated",g,--,--,2.497,2.210
"Fatty acids, total trans",g,--,--,0.000,0.000
"Cholesterol",mg,--,--,0,0
Amino Acids
Other
Ingredients
"RAISED DONUT MIX (ENRICHED WHEAT FLOUR BLEACHED [FLOUR, MALTED BARLEY FLOUR, NIACIN, IRON, THIAMINE MONONITRATE, RIBOFLAVIN, FOLIC ACID], SOYBEAN OIL, DEXTROSE, SALT, LEAVENING [SODIUM ACID PYROPHOSPHATE, BAKING SODA], SOY FLOUR, MONO & DIGLYCERIDES, WHEY, SODIUM STEAROYL LACTYLATE, MALTODEXTRIN, NATURAL AND ARTIFICIAL FLAVORS, CORN SYRUP SOLIDS, WHOLE EGGS, GUAR GUM, ACACIA GUM, CORN OIL, FOOD STARCH-MODIFIED, BETA CAROTENE [COLOR], CARAMEL COLOR, ENZYMES, WATER, POLYSORBATE 80, ASCORBIC ACID [DOUGH CONDITIONER], ALPHA TOCOPHEROLS AS PRESERVATIVE), ICING SUGAR (SUGAR, MALTODEXTRINS), WATER, APPLE PIECES (APPLES [PREPARED WITH ASCORBIC ACID, CITRIC ACID, AND SALT], HIGH FRUCTOSE CORN SYRUP, WATER, SUGAR, MODIFIED CORN STARCH, CONTAINS 2% OR LESS OF THE FOLLOWING: LEMON JUICE, APPLE JUICE CONCENTRATE, POTASSIUM SORBATE [PRESERVATIVE], CINNAMON, SALT, ARTIFICIAL FLAVOR, CITRIC ACID, NUTMEG), PALM OIL, CORN SYRUP, SPICES, YEAST, ARTIFICIAL FLAVORS." Date available: 07/14/2017 Date last updated by company: 07/14/2017
