Source: USDA Branded Food Products Database Release December 2017 Software v.3.8.6.4 2017-10-02
Report Run at: December 16, 2017 23:55 EST
"Nutrient data for: 45278018, APPLEWODO SMOKED UNCURED BACON FULLY COOKED, UPC: 725439951852"
Food Group:  Branded Food Products Database
Common Name:

Nutrient,Unit,Data points,Std. Error,"4.0 SLICES = 17.0g",1Value per 100 g,
Proximates
"Energy",kcal,--,--,100,588
"Protein",g,--,--,2.00,11.76
"Total lipid (fat)",g,--,--,9.00,52.94
"Carbohydrate, by difference",g,--,--,0.00,0.00
"Fiber, total dietary",g,--,--,0.0,0.0
"Sugars, total",g,--,--,1.00,5.88
Minerals
"Calcium, Ca",mg,--,--,0,0
"Iron, Fe",mg,--,--,0.00,0.00
"Sodium, Na",mg,--,--,330,1941
Vitamins
"Vitamin C, total ascorbic acid",mg,--,--,0.0,0.0
"Vitamin A, IU",IU,--,--,0,0
Lipids
"Fatty acids, total saturated",g,--,--,3.000,17.650
"Fatty acids, total trans",g,--,--,0.000,0.000
"Cholesterol",mg,--,--,15,88
Amino Acids
Other
Ingredients
"PORK WATER, SALT, TURBINADO SUGAR, NATURAL FLAVORINGS." Date available: 07/14/2017 Date last updated by company: 07/14/2017
