Source: USDA Branded Food Products Database Release December 2017 Software v.3.8.6.4 2017-10-02
Report Run at: December 16, 2017 23:51 EST
"Nutrient data for: 45029718, APPLESNAX, APPLE SAUCE WITH CINNAMON, UPC: 055369900485"
Food Group:  Branded Food Products Database
Common Name:

Nutrient,Unit,Data points,Std. Error,"0.666 cup = 140.0g",1Value per 100 g,
Proximates
"Energy",kcal,--,--,99,71
"Protein",g,--,--,0.00,0.00
"Total lipid (fat)",g,--,--,0.00,0.00
"Carbohydrate, by difference",g,--,--,25.00,17.86
"Fiber, total dietary",g,--,--,2.0,1.4
"Sugars, total",g,--,--,21.00,15.00
Minerals
"Calcium, Ca",mg,--,--,0,0
"Iron, Fe",mg,--,--,0.00,0.00
"Potassium, K",mg,--,--,55,39
"Sodium, Na",mg,--,--,25,18
Vitamins
"Vitamin C, total ascorbic acid",mg,--,--,12.0,8.6
"Vitamin A, IU",IU,--,--,0,0
Lipids
"Fatty acids, total saturated",g,--,--,0.000,0.000
"Fatty acids, total trans",g,--,--,0.000,0.000
"Cholesterol",mg,--,--,0,0
Amino Acids
Other
Ingredients
"APPLES, HIGH FRUCTOSE CORN SYRUP, WATER, VITAMIN C (ASCORBIC ACID), NATURAL FLAVOR, SPICES." Date available: 07/14/2017 Date last updated by company: 07/14/2017
