Source: USDA Branded Food Products Database Release December 2017 Software v.3.8.6.4 2017-10-02
Report Run at: December 16, 2017 23:52 EST
"Nutrient data for: 45276003, APPLES & SAUCE, UPC: 863511000316"
Food Group:  Branded Food Products Database
Common Name:

Nutrient,Unit,Data points,Std. Error,"0.5 cup = 124.0g",1Value per 100 g,
Proximates
"Energy",kcal,--,--,110,89
"Protein",g,--,--,0.00,0.00
"Total lipid (fat)",g,--,--,0.00,0.00
"Carbohydrate, by difference",g,--,--,26.00,20.97
"Fiber, total dietary",g,--,--,1.0,0.8
"Sugars, total",g,--,--,23.00,18.55
Minerals
"Sodium, Na",mg,--,--,40,32
Vitamins
Lipids
"Fatty acids, total saturated",g,--,--,0.000,0.000
"Fatty acids, total trans",g,--,--,0.000,0.000
Amino Acids
Other
Ingredients
"APPLES, WHITE GRAPE JUICE CONCENTRATE, SALT, LEMON JUICE, SPICES, DUE TO VERY MINIMAL PROCESSING THIS APPLESAUCE MAY CONTAIN SEEDS OR SEEDPODS." Date available: 07/14/2017 Date last updated by company: 07/14/2017
