Source: USDA Branded Food Products Database Release December 2017 Software v.3.8.6.4 2017-10-02
Report Run at: December 16, 2017 23:33 EST
"Nutrient data for: 45224935, APPLE PIE, UPC: 021130092789"
Food Group:  Branded Food Products Database
Common Name:

Nutrient,Unit,Data points,Std. Error,"0.125 PIE = 120.0g",1Value per 100 g,
Proximates
"Energy",kcal,--,--,350,292
"Protein",g,--,--,3.00,2.50
"Total lipid (fat)",g,--,--,19.00,15.83
"Carbohydrate, by difference",g,--,--,43.00,35.83
"Fiber, total dietary",g,--,--,2.0,1.7
"Sugars, total",g,--,--,20.00,16.67
Minerals
"Calcium, Ca",mg,--,--,0,0
"Iron, Fe",mg,--,--,0.37,0.31
"Sodium, Na",mg,--,--,250,208
Vitamins
"Vitamin C, total ascorbic acid",mg,--,--,2.5,2.1
"Vitamin A, IU",IU,--,--,0,0
Lipids
"Fatty acids, total saturated",g,--,--,9.000,7.500
"Fatty acids, total trans",g,--,--,0.000,0.000
"Cholesterol",mg,--,--,0,0
Amino Acids
Other
Ingredients
"APPLES. ENRICHED UNBLEACHED FLOUR (WHEAT FLOUR, NIACIN, REDUCED IRON, THIAMINE MONONITRATE, RIBOFLAVIN, FOLIC ACID), PALM OIL, WATER, HIGH FRUCTOSE CORN SYRUP, SUGAR, MODIFIED FOOD STARCH, SALT, DEXTROSE, CINNAMON AND XANTHAN GUM." Date available: 07/14/2017 Date last updated by company: 07/14/2017
