Source: USDA Branded Food Products Database Release December 2017 Software v.3.8.6.4 2017-10-02
Report Run at: December 16, 2017 23:46 EST
"Nutrient data for: 45186041, APPLE & EVE, 100% JUICE, PUNCH, UPC: 076301722132"
Food Group:  Branded Food Products Database
Common Name:

Nutrient,Unit,Data points,Std. Error,"8.0 OZA = 240.0g",1Value per 100 g,
Proximates
"Energy",kcal,--,--,120,50
"Protein",g,--,--,0.00,0.00
"Total lipid (fat)",g,--,--,0.00,0.00
"Carbohydrate, by difference",g,--,--,28.99,12.08
"Sugars, total",g,--,--,25.01,10.42
Minerals
"Sodium, Na",mg,--,--,29,12
Vitamins
"Vitamin C, total ascorbic acid",mg,--,--,72.0,30.0
Lipids
Amino Acids
Other
Ingredients
"100% FRUIT JUICE (FILTERED WATER SUFFICIENT TO RECONSTITUTE APPLE, JUJUBE FRUIT, PEAR, CHERRY AND PINEAPPLE JUICE CONCENTRATES), NATURAL FLAVORS, VEGETABLE COLOR, CITRIC ACID, ASCORBIC ACID (VITAMIN C)." Date available: 06/25/2017 Date last updated by company: 06/25/2017
