Source: USDA Branded Food Products Database Release December 2017 Software v.3.8.6.4 2017-10-02
Report Run at: December 16, 2017 23:54 EST
"Nutrient data for: 45290746, APPLES WITH CARAMEL DIP AND PRETZELS, UPC: 074641073051"
Food Group:  Branded Food Products Database
Common Name:

Nutrient,Unit,Data points,Std. Error,"1 TRAY = 44.0g",1Value per 100 g,
Proximates
"Energy",kcal,--,--,100,227
"Protein",g,--,--,1.00,2.27
"Total lipid (fat)",g,--,--,2.50,5.68
"Carbohydrate, by difference",g,--,--,19.00,43.18
"Fiber, total dietary",g,--,--,1.0,2.3
"Sugars, total",g,--,--,10.00,22.73
Minerals
"Calcium, Ca",mg,--,--,20,45
"Iron, Fe",mg,--,--,0.70,1.58
"Potassium, K",mg,--,--,30,68
"Sodium, Na",mg,--,--,150,341
Vitamins
"Vitamin C, total ascorbic acid",mg,--,--,46.4,105.4
"Vitamin A, IU",IU,--,--,0,0
Lipids
"Fatty acids, total saturated",g,--,--,1.500,3.410
"Fatty acids, total trans",g,--,--,0.000,0.000
"Cholesterol",mg,--,--,0,0
Amino Acids
Other
Ingredients
"APPLES (APPLES, CALCIUM ASCORBATE [PROMOTE COLOR AND TEXTURE RETENTION]), CARAMEL DIP (CORN SYRUP, WATER, SUGAR, PALM OIL, BROWN SUGAR [SUGAR, MOLASSES], NONFAT DRY MILK, BUTTER [PASTEURIZED CREAM, SALT], MODIFIED CORN STARCH, CONTAINS LESS THAN 2% OF DISODIUM PHOSPHATE, SALT, NATURAL AND ARTIFICIAL FLAVOR, MONO- AND DIGLYCERIDES, CARAMEL COLOR), PRETZELS (ENRICHED FLOUR [WHEAT FLOUR, NIACIN, REDUCED IRON, THIAMINE, MONONITRATE, RIBOFLAVIN, FOLIC ACID], WATER, SALT, MALT, DEXTROSE, CANOLA OIL, YEAST, SODIUM BICARBONATE)." Date available: 10/12/2017 Date last updated by company: 10/12/2017
