Source: USDA Branded Food Products Database Release December 2017 Software v.3.8.6.4 2017-10-02
Report Run at: December 16, 2017 23:35 EST
"Nutrient data for: 45296175, APPLE APRICOT SAUCE, UPC: 036192122947"
Food Group:  Branded Food Products Database
Common Name:

Nutrient,Unit,Data points,Std. Error,"0.5 cup = 126.0g",1Value per 100 g,
Proximates
"Energy",kcal,--,--,71,56
"Protein",g,--,--,1.00,0.79
"Total lipid (fat)",g,--,--,0.00,0.00
"Carbohydrate, by difference",g,--,--,19.00,15.08
"Fiber, total dietary",g,--,--,2.0,1.6
"Sugars, total",g,--,--,14.99,11.90
Minerals
"Potassium, K",mg,--,--,210,167
"Sodium, Na",mg,--,--,0,0
Vitamins
"Vitamin C, total ascorbic acid",mg,--,--,10.0,7.9
"Vitamin A, IU",IU,--,--,417,331
Lipids
Amino Acids
Other
Ingredients
"ORGANIC APPLES, ORGANIC APRICOT PUREE, ORGANIC APPLE JUICE CONCENTRATE, ASCORBIC ACID (TO MAINTAIN COLOR)." Date available: 07/14/2017 Date last updated by company: 07/14/2017
