Source: USDA Branded Food Products Database Release December 2017 Software v.3.8.6.4 2017-10-02
Report Run at: December 16, 2017 23:41 EST
"Nutrient data for: 45261534, APPLE CIDER VINEGAR, UPC: 041130261046"
Food Group:  Branded Food Products Database
Common Name:

Nutrient,Unit,Data points,Std. Error,"1 Tbsp = 15.0g",1Value per 100 g,
Proximates
"Energy",kcal,--,--,0,0
"Protein",g,--,--,0.00,0.00
"Total lipid (fat)",g,--,--,0.00,0.00
"Carbohydrate, by difference",g,--,--,0.00,0.00
Minerals
"Sodium, Na",mg,--,--,0,0
Vitamins
Lipids
Amino Acids
Other
Ingredients
"APPLE CIDER VINEGAR (DILUTED WITH WATER TO THE UNIFORM PICKLING AND TABLE STRENGTH OF 5% ACIDITY)." Date available: 07/14/2017 Date last updated by company: 07/14/2017
