Source: USDA Branded Food Products Database Release December 2017 Software v.3.8.6.4 2017-10-02
Report Run at: December 16, 2017 23:40 EST
"Nutrient data for: 45194909, APPLE SAUCE, UPC: 028700347812"
Food Group:  Branded Food Products Database
Common Name:

Nutrient,Unit,Data points,Std. Error,"1 POUCH = 90.0g",1Value per 100 g,
Proximates
"Energy",kcal,--,--,45,50
"Protein",g,--,--,0.00,0.00
"Total lipid (fat)",g,--,--,0.00,0.00
"Carbohydrate, by difference",g,--,--,13.00,14.44
"Fiber, total dietary",g,--,--,2.0,2.2
"Sugars, total",g,--,--,11.00,12.22
Minerals
"Sodium, Na",mg,--,--,0,0
Vitamins
"Vitamin C, total ascorbic acid",mg,--,--,46.7,51.9
Lipids
Amino Acids
Other
Ingredients
"APPLES; WATER; STRAWBERRY PUREE; CONCENTRATED STRAWBERRY PUREE; NATURAL FLAVOR; ASCORBIC ACID (VITAMIN C); TOMATO EXTRACT (FOR COLOR)." Date available: 07/14/2017 Date last updated by company: 07/14/2017
