Source: USDA Branded Food Products Database Release December 2017 Software v.3.8.6.4 2017-10-02
Report Run at: December 16, 2017 23:42 EST
"Nutrient data for: 45290639, APPLE & CINNAMON GRANOLA, UPC: 758940600131"
Food Group:  Branded Food Products Database
Common Name:

Nutrient,Unit,Data points,Std. Error,"0.25 cup = 28.0g",1Value per 100 g,
Proximates
"Energy",kcal,--,--,120,429
"Protein",g,--,--,2.00,7.14
"Total lipid (fat)",g,--,--,4.00,14.29
"Carbohydrate, by difference",g,--,--,18.00,64.29
"Fiber, total dietary",g,--,--,2.0,7.1
"Sugars, total",g,--,--,5.00,17.86
Minerals
"Calcium, Ca",mg,--,--,20,71
"Iron, Fe",mg,--,--,1.41,5.05
"Sodium, Na",mg,--,--,30,107
Vitamins
"Vitamin C, total ascorbic acid",mg,--,--,0.0,0.0
"Vitamin A, IU",IU,--,--,0,0
Lipids
"Fatty acids, total saturated",g,--,--,0.000,0.000
"Fatty acids, total trans",g,--,--,0.000,0.000
"Cholesterol",mg,--,--,0,0
Amino Acids
Other
Ingredients
"OATS, MAPLE SYRUP, OAT FLOUR, CRISPED RICE (RICE FLOUR), SUGAR, MALT EXTRACT, SALT, BROWN RICE SYRUP, HAZELNUTS, SUNFLOWER SEEDS, EXPELLER PRESSED HIGH OLEIC SUNFLOWER OIL, UNSULPHURED *DRIED APPLES, *CINNAMON, *VANILLA, SEA SALT" Date available: 07/14/2017 Date last updated by company: 07/14/2017
