Source: USDA Branded Food Products Database Release December 2017 Software v.3.8.6.4 2017-10-02
Report Run at: December 16, 2017 23:35 EST
"Nutrient data for: 45331813, APPLES, ALMONDS & CHEESE, UPC: 824862701079"
Food Group:  Branded Food Products Database
Common Name:

Nutrient,Unit,Data points,Std. Error,"1 CONTAINER = 163.0g",1Value per 100 g,
Proximates
"Energy",kcal,--,--,261,160
"Protein",g,--,--,9.99,6.13
"Total lipid (fat)",g,--,--,18.00,11.04
"Carbohydrate, by difference",g,--,--,18.00,11.04
"Fiber, total dietary",g,--,--,6.0,3.7
"Sugars, total",g,--,--,9.99,6.13
Minerals
"Calcium, Ca",mg,--,--,249,153
"Iron, Fe",mg,--,--,0.75,0.46
"Sodium, Na",mg,--,--,191,117
Vitamins
"Vitamin C, total ascorbic acid",mg,--,--,68.8,42.2
"Vitamin A, IU",IU,--,--,4693,2879
Lipids
"Fatty acids, total saturated",g,--,--,5.004,3.070
"Fatty acids, total trans",g,--,--,0.000,0.000
"Cholesterol",mg,--,--,20,12
Amino Acids
Other
Ingredients
"CARROTS, APPLES (APPLES AND CALCIUM ASCORBATE [VITAMIN C CALCIUM SALT]), ALMONDS, COLBY-JACK CHEESE (COLBY CHEESE [PASTEURIZED MILK, CHEESE CULTURE, SALT, ENZYMES, ANNATTO {VEGETABLE COLOR}], MONTEREY JACK CHEESE [PASTEURIZED MILK, CHEESE CULTURE, SALT, ENZYMES])." Date available: 10/13/2017 Date last updated by company: 10/13/2017
