Source: USDA Branded Food Products Database Release December 2017 Software v.3.8.6.4 2017-10-02
Report Run at: December 17, 2017 00:04 EST
"Nutrient data for: 45034185, AQUA STAR, SEAFOOD MEDLEY, UPC: 731149920538"
Food Group:  Branded Food Products Database
Common Name:

Nutrient,Unit,Data points,Std. Error,"4.0 OUNCES = 113.0g",1Value per 100 g,
Proximates
"Energy",kcal,--,--,60,53
"Protein",g,--,--,12.00,10.62
"Total lipid (fat)",g,--,--,0.50,0.44
"Carbohydrate, by difference",g,--,--,0.99,0.88
"Fiber, total dietary",g,--,--,0.0,0.0
"Sugars, total",g,--,--,0.00,0.00
Minerals
"Calcium, Ca",mg,--,--,20,18
"Iron, Fe",mg,--,--,1.36,1.20
"Sodium, Na",mg,--,--,290,257
Vitamins
"Vitamin C, total ascorbic acid",mg,--,--,0.0,0.0
"Vitamin A, IU",IU,--,--,150,133
Lipids
"Fatty acids, total saturated",g,--,--,0.000,0.000
"Fatty acids, total trans",g,--,--,0.000,0.000
"Cholesterol",mg,--,--,140,124
Amino Acids
Other
Ingredients
"SQUID, COOKED MUSSELS, OCTOPUS, SHRIMP, SALT, SODIUM TRIPOLYPHOSPHATE." Date available: 06/24/2017 Date last updated by company: 06/24/2017
