Source: USDA Branded Food Products Database Release December 2017 Software v.3.8.6.4 2017-10-02
Report Run at: December 17, 2017 00:03 EST
"Nutrient data for: 45241476, AQUARIUS, SOFT DRINK, UPC: 4902102069359"
Food Group:  Branded Food Products Database
Common Name:

Nutrient,Unit,Data points,Std. Error,"3.38 OZA = 100.0g",1Value per 100 g,
Proximates
"Energy",kcal,--,--,19,19
"Protein",g,--,--,0.00,0.00
"Total lipid (fat)",g,--,--,0.00,0.00
"Carbohydrate, by difference",g,--,--,4.70,4.70
"Fiber, total dietary",g,--,--,0.0,0.0
"Sugars, total",g,--,--,4.70,4.70
Minerals
"Calcium, Ca",mg,--,--,0,0
"Iron, Fe",mg,--,--,0.00,0.00
"Sodium, Na",mg,--,--,34,34
Vitamins
"Vitamin C, total ascorbic acid",mg,--,--,0.0,0.0
"Vitamin A, IU",IU,--,--,0,0
Lipids
"Fatty acids, total saturated",g,--,--,0.000,0.000
"Fatty acids, total trans",g,--,--,0.000,0.000
"Cholesterol",mg,--,--,0,0
Amino Acids
Other
Ingredients
"WATER, HI-FRUCTOSE CORN SYRUP, HONEY, SODIUM CHLORIDE, SEAWEED EXTRACT, ROYAL JELLY, CITRIC ACID, SODIUM CITRATE, ARTIFICIAL FLAVOR, ARGININE ,POTASSIUM CHLORIDE, MAGNESIUM CHLORIDE, CALCIUM LACTATE ASCORBIC ACID (VITAMIN C), SUCRALOSE OLEUICE, VALINE, LEUCINE." Date available: 06/25/2017 Date last updated by company: 06/25/2017
