Source: USDA Branded Food Products Database Release December 2017 Software v.3.8.6.4 2017-10-02
Report Run at: December 17, 2017 00:10 EST
"Nutrient data for: 45224182, ARCHWAY, GINGERBREAD MAN COOKIES, UPC: 027500095435"
Food Group:  Branded Food Products Database
Common Name:

Nutrient,Unit,Data points,Std. Error,"6.0 COOKIES = 32.0g",1Value per 100 g,
Proximates
"Energy",kcal,--,--,150,469
"Protein",g,--,--,2.00,6.25
"Total lipid (fat)",g,--,--,6.00,18.75
"Carbohydrate, by difference",g,--,--,23.00,71.88
"Fiber, total dietary",g,--,--,1.0,3.1
"Sugars, total",g,--,--,10.00,31.25
Minerals
"Calcium, Ca",mg,--,--,0,0
"Iron, Fe",mg,--,--,1.69,5.28
"Sodium, Na",mg,--,--,135,422
Vitamins
"Vitamin C, total ascorbic acid",mg,--,--,0.0,0.0
"Vitamin A, IU",IU,--,--,0,0
Lipids
"Fatty acids, total saturated",g,--,--,0.998,3.120
"Fatty acids, total monounsaturated",g,--,--,3.002,9.380
"Fatty acids, total polyunsaturated",g,--,--,1.501,4.690
"Fatty acids, total trans",g,--,--,0.000,0.000
"Cholesterol",mg,--,--,0,0
Amino Acids
Other
Ingredients
"ENRICHED FLOUR (BLEACHED AND UNBLEACHED WHEAT FLOUR, NIACIN, REDUCED IRON, THIAMINE MONONITRATE, RIBOFLAVIN, FOLIC ACID), SUGAR, VEGETABLE OIL (CONTAINS ONE OR MORE OF THE FOLLOWING: CANOLA OIL, CORN OIL, PALM OIL, SOYBEAN OIL), MOLASSES, SPICES, SALT, BAKING SODA, WHOLE EGGS, SOY LECITHIN (EMULSIFIER), DAIRY WHEY, CORN SYRUP." Date available: 07/14/2017 Date last updated by company: 07/14/2017
