Source: USDA Branded Food Products Database Release December 2017 Software v.3.8.6.4 2017-10-02
Report Run at: December 17, 2017 00:08 EST
"Nutrient data for: 45050458, ARCHER FARMS, GLAZED DONUT MUFFIN MUFFIN MIX, UPC: 085239442234"
Food Group:  Branded Food Products Database
Common Name:

Nutrient,Unit,Data points,Std. Error,"0.083 DRY MIX, (93G PREPARED) = 52.0g",1Value per 100 g,
Proximates
"Energy",kcal,--,--,190,365
"Protein",g,--,--,3.00,5.77
"Total lipid (fat)",g,--,--,0.50,0.96
"Carbohydrate, by difference",g,--,--,44.00,84.62
"Fiber, total dietary",g,--,--,1.0,1.9
"Sugars, total",g,--,--,23.00,44.23
Minerals
"Calcium, Ca",mg,--,--,0,0
"Iron, Fe",mg,--,--,0.83,1.60
"Sodium, Na",mg,--,--,250,481
Vitamins
"Vitamin C, total ascorbic acid",mg,--,--,0.0,0.0
"Vitamin A, IU",IU,--,--,0,0
Lipids
"Fatty acids, total saturated",g,--,--,0.499,0.960
"Fatty acids, total trans",g,--,--,0.000,0.000
"Cholesterol",mg,--,--,0,0
Amino Acids
Other
Ingredients
"MUFFIN MIX: ENRICHED WHEAT FLOUR (BLEACHED WHEAT FLOUR, ENZYME, NIACIN, IRON, THIAMIN MONONITRATE, RIBOFLAVIN, FOLIC ACID), SUGAR, LIGHT BROWN SUGAR, BAKING POWDER (SODIUM ACID PYROPHOSPHATE, SODIUM BICARBONATE, CORN STARCH, MONOCALCIUM PHOSPHATE), SALT, GROUND NUTMEG, SODIUM BICARBONATE, NATURAL VANILLA FLAVOR. GLAZE MIX: POWDERED SUGAR (SUGAR, CORN STARCH), NATURAL VANILLA FLAVOR." Date available: 06/25/2017 Date last updated by company: 06/25/2017
