Source: USDA Branded Food Products Database Release December 2017 Software v.3.8.6.4 2017-10-02
Report Run at: December 17, 2017 00:13 EST
"Nutrient data for: 45043640, ARDENNE FARM, ALL NATURAL BAKING MIX, OATMEAL COOKIE, UPC: 854442005174"
Food Group:  Branded Food Products Database
Common Name:

Nutrient,Unit,Data points,Std. Error,"0.05 OF PACKAGE = 22.7g",1Value per 100 g,
Proximates
"Energy",kcal,--,--,80,352
"Protein",g,--,--,2.00,8.81
"Total lipid (fat)",g,--,--,0.50,2.20
"Carbohydrate, by difference",g,--,--,18.00,79.30
"Fiber, total dietary",g,--,--,1.0,4.4
"Sugars, total",g,--,--,7.00,30.84
Minerals
"Calcium, Ca",mg,--,--,0,0
"Iron, Fe",mg,--,--,0.63,2.79
"Sodium, Na",mg,--,--,110,485
Vitamins
"Vitamin C, total ascorbic acid",mg,--,--,0.0,0.0
"Vitamin A, IU",IU,--,--,0,0
Lipids
"Fatty acids, total saturated",g,--,--,0.000,0.000
"Fatty acids, total trans",g,--,--,0.000,0.000
"Cholesterol",mg,--,--,0,0
Amino Acids
Other
Ingredients
"GLUTEN FREE OATS, GLUTEN FREE FLOUR BLEND (WHITE RICE FLOUR, BROWN RICE FLOUR, POTATO STARCH, TAPIOCA FLOUR), BROWN SUGAR, CANE SUGAR, POWDERED SUGAR, BAKING SODA, SALT, XANTHAN GUM, NATURAL VANILLA." Date available: 07/14/2017 Date last updated by company: 07/14/2017
