Source: USDA Branded Food Products Database Release December 2017 Software v.3.8.6.4 2017-10-02
Report Run at: December 17, 2017 00:15 EST
"Nutrient data for: 45159704, ARIEL BAKERY & PATISSERIE, COOKIES, PUFF PASTRY COCOA BAR, UPC: 898792002322"
Food Group:  Branded Food Products Database
Common Name:

Nutrient,Unit,Data points,Std. Error,"2.0 COOKIES = 30.0g",1Value per 100 g,
Proximates
"Energy",kcal,--,--,150,500
"Protein",g,--,--,2.00,6.67
"Total lipid (fat)",g,--,--,6.00,20.00
"Carbohydrate, by difference",g,--,--,19.00,63.33
"Fiber, total dietary",g,--,--,1.0,3.3
"Sugars, total",g,--,--,6.00,20.00
Minerals
"Calcium, Ca",mg,--,--,0,0
"Iron, Fe",mg,--,--,0.30,1.00
"Sodium, Na",mg,--,--,100,333
Vitamins
"Vitamin C, total ascorbic acid",mg,--,--,0.0,0.0
"Vitamin A, IU",IU,--,--,0,0
Lipids
"Fatty acids, total saturated",g,--,--,3.000,10.000
"Fatty acids, total trans",g,--,--,0.000,0.000
"Cholesterol",mg,--,--,0,0
Amino Acids
Other
Ingredients
"WHEAT FLOUR, BLEND OF VEGETABLE FATS AND OILS (PALM AND SOY, PARTIALLY HYDROGENATED), WATER, SUGAR, SALT, MONO- AND DIGLYCERIDES SOY LECITHIN, COCOA (PROCESSED WITH ALKALI), CITRIC ACID, SORBIC ACID (PRESERVATIVE), VANILLIN ARTIFICIAL FLAVORS, COLORED WITH BETA CAROTENE." Date available: 07/14/2017 Date last updated by company: 07/14/2017
