Source: USDA Branded Food Products Database Release December 2017 Software v.3.8.6.4 2017-10-02
Report Run at: December 17, 2017 00:16 EST
"Nutrient data for: 45160431, ARIZONA, COWBOY COCKTAIL - WATERMELON JUICE COCKTAIL, UPC: 613008740603"
Food Group:  Branded Food Products Database
Common Name:

Nutrient,Unit,Data points,Std. Error,"1 CAN = 340.0g",1Value per 100 g,
Proximates
"Energy",kcal,--,--,119,35
"Protein",g,--,--,0.00,0.00
"Total lipid (fat)",g,--,--,0.00,0.00
"Carbohydrate, by difference",g,--,--,31.01,9.12
"Fiber, total dietary",g,--,--,0.0,0.0
"Sugars, total",g,--,--,29.00,8.53
Minerals
"Calcium, Ca",mg,--,--,0,0
"Iron, Fe",mg,--,--,0.00,0.00
"Sodium, Na",mg,--,--,10,3
Vitamins
"Vitamin C, total ascorbic acid",mg,--,--,10.5,3.1
"Vitamin A, IU",IU,--,--,0,0
Lipids
"Fatty acids, total saturated",g,--,--,0.000,0.000
"Fatty acids, total trans",g,--,--,0.000,0.000
"Cholesterol",mg,--,--,0,0
Amino Acids
Other
Ingredients
"FILTER WATER, PEAR JUICE CONCENTRATE, SUGAR, MANGO PUREE, PINEAPPLE JUICE FROM CONCENTRATE, CITRIC ACID, KIWI JUICE FROM CONCENTRATE, WATERMELON JUICE FROM CONCENTRATE FRUIT & VEGETABLE JUICE FOR COLOR, NATURAL FLAVOR, CHERRY JUICE FROM CONCENTRATE, GUM ACACIA, ASCORBIC ACID (VITAMIN C), ESTER GUM." Date available: 07/14/2017 Date last updated by company: 07/14/2017
