Source: USDA Branded Food Products Database Release December 2017 Software v.3.8.6.4 2017-10-02
Report Run at: December 17, 2017 00:17 EST
"Nutrient data for: 45144595, ARIZONA, GREEN TEA WITH GINSENG AND HONEY, UPC: 613008743734"
Food Group:  Branded Food Products Database
Common Name:

Nutrient,Unit,Data points,Std. Error,"8.0 OZA = 240.0g",1Value per 100 g,
Proximates
"Energy",kcal,--,--,60,25
"Protein",g,--,--,0.00,0.00
"Total lipid (fat)",g,--,--,0.00,0.00
"Carbohydrate, by difference",g,--,--,16.99,7.08
"Fiber, total dietary",g,--,--,0.0,0.0
"Sugars, total",g,--,--,16.01,6.67
Minerals
"Calcium, Ca",mg,--,--,0,0
"Iron, Fe",mg,--,--,0.00,0.00
"Sodium, Na",mg,--,--,10,4
Vitamins
"Vitamin C, total ascorbic acid",mg,--,--,60.0,25.0
"Vitamin A, IU",IU,--,--,0,0
Lipids
"Fatty acids, total saturated",g,--,--,0.000,0.000
"Fatty acids, total trans",g,--,--,0.000,0.000
"Cholesterol",mg,--,--,0,0
Amino Acids
Other
Ingredients
"PREMIUM BREWED GREEN TEA USING FILTERED WATER, CANE SUGAR HONEY, NATURAL FLAVOR, ASCORBIC ACID (VITAMIN C), CITRIC ACID, GINSENG EXTRACT." Date available: 07/14/2017 Date last updated by company: 07/14/2017
