Source: USDA Branded Food Products Database Release December 2017 Software v.3.8.6.4 2017-10-02
Report Run at: December 17, 2017 00:21 EST
"Nutrient data for: 45102764, ARMOUR, MEATBALLS, ORIGINAL, UPC: 027815001657"
Food Group:  Branded Food Products Database
Common Name:

Nutrient,Unit,Data points,Std. Error,"6.0 MEATBALLS = 85.0g",1Value per 100 g,
Proximates
"Energy",kcal,--,--,260,306
"Protein",g,--,--,12.00,14.12
"Total lipid (fat)",g,--,--,21.00,24.71
"Carbohydrate, by difference",g,--,--,5.00,5.88
"Fiber, total dietary",g,--,--,0.0,0.0
"Sugars, total",g,--,--,1.00,1.18
Minerals
"Calcium, Ca",mg,--,--,40,47
"Iron, Fe",mg,--,--,2.47,2.91
"Sodium, Na",mg,--,--,610,718
Vitamins
"Vitamin C, total ascorbic acid",mg,--,--,0.0,0.0
"Vitamin A, IU",IU,--,--,0,0
Lipids
"Fatty acids, total saturated",g,--,--,7.998,9.410
"Fatty acids, total trans",g,--,--,0.000,0.000
"Cholesterol",mg,--,--,25,29
Amino Acids
Other
Ingredients
"MEAT INGREDIENTS (PORK, BEEF), MECHANICALLY SEPARATED CHICKEN, WATER, TEXTURED SOY FLOUR, BREAD CRUMBS (WHEAT FLOUR, BLEACHED WHEAT FLOUR, LEAVENING [SODIUM BICARBONATE, SODIUM ALUMINUM PHOSPHATE], DEXTROSE), SOY PROTEIN CONCENTRATE, CONTAINS 2% OR LESS OF SALT, DEHYDRATED ONION, SPICES, SODIUM PHOSPHATE, SUGAR, FLAVORINGS, CITRIC ACID, CARAMEL COLOR." Date available: 06/25/2017 Date last updated by company: 06/25/2017
