Source: USDA Branded Food Products Database Release December 2017 Software v.3.8.6.4 2017-10-02
Report Run at: December 17, 2017 00:23 EST
"Nutrient data for: 45112511, ARNIE'S, OAT BRAN HAMBURGER BUNS, UPC: 076185001255"
Food Group:  Branded Food Products Database
Common Name:

Nutrient,Unit,Data points,Std. Error,"1 ROLL = 50.0g",1Value per 100 g,
Proximates
"Energy",kcal,--,--,120,240
"Protein",g,--,--,5.00,10.00
"Total lipid (fat)",g,--,--,2.50,5.00
"Carbohydrate, by difference",g,--,--,20.00,40.00
"Fiber, total dietary",g,--,--,2.0,4.0
"Sugars, total",g,--,--,2.00,4.00
Minerals
"Calcium, Ca",mg,--,--,20,40
"Iron, Fe",mg,--,--,1.08,2.16
"Sodium, Na",mg,--,--,200,400
Vitamins
"Vitamin C, total ascorbic acid",mg,--,--,1.2,2.4
"Vitamin A, IU",IU,--,--,0,0
Lipids
"Fatty acids, total saturated",g,--,--,0.500,1.000
"Fatty acids, total trans",g,--,--,0.000,0.000
"Cholesterol",mg,--,--,5,10
Amino Acids
Other
Ingredients
"ENRICHED WHEAT FLOUR (WHEAT FLOUR, NIACIN, REDUCED IRON, THIAMINE MONONITRATE, RIBOFLAVIN, FOLIC ACID), WATER, OAT BRAN, VITAL WHEAT GLUTEN, DEXTROSE, WHOLE EGGS, SHORTENING (PARTIALLY HYDROGENATED SOYBEAN OIL, MONO- AND DIGLYCERIDES, AND PARTIALLY HYDROGENATED COTTONSEED OIL), WHEAT BRAN, YEAST, SALT, MALTED BARLEY FLOUR, ASCORBIC ACID, ENZYMES, BEET FIBER, SODIUM STEAROYL LACTYLATE, WHITE VINEGAR CALCIUM PROPIONATE, WHOLE MILK" Date available: 06/24/2017 Date last updated by company: 06/24/2017
