Source: USDA Branded Food Products Database Release December 2017 Software v.3.8.6.4 2017-10-02
Report Run at: December 17, 2017 00:24 EST
"Nutrient data for: 45033795, ARNOLD, CLASSIC POTATO BREAD, UPC: 073410026540"
Food Group:  Branded Food Products Database
Common Name:

Nutrient,Unit,Data points,Std. Error,"1 SLICE = 35.0g",1Value per 100 g,
Proximates
"Energy",kcal,--,--,90,257
"Protein",g,--,--,3.00,8.57
"Total lipid (fat)",g,--,--,1.00,2.86
"Carbohydrate, by difference",g,--,--,17.00,48.57
"Fiber, total dietary",g,--,--,1.0,2.9
"Sugars, total",g,--,--,2.00,5.71
Minerals
"Calcium, Ca",mg,--,--,40,114
"Iron, Fe",mg,--,--,1.54,4.41
"Sodium, Na",mg,--,--,135,386
Vitamins
"Vitamin C, total ascorbic acid",mg,--,--,0.0,0.0
"Thiamin",mg,--,--,0.000,0.000
"Riboflavin",mg,--,--,0.068,0.194
"Niacin",mg,--,--,1.142,3.263
"Vitamin A, IU",IU,--,--,0,0
Lipids
"Fatty acids, total saturated",g,--,--,0.000,0.000
"Fatty acids, total monounsaturated",g,--,--,0.000,0.000
"Fatty acids, total polyunsaturated",g,--,--,0.000,0.000
"Fatty acids, total trans",g,--,--,0.000,0.000
"Cholesterol",mg,--,--,0,0
Amino Acids
Other
Ingredients
"UNBLEACHED ENRICHED WHEAT FLOUR [FLOUR, MALTED BARLEY FLOUR, REDUCED IRON, NIACIN, THIAMIN MONONITRATE (VITAMIN B1), RIBOFLAVIN (VITAMIN B2), FOLIC ACID], WATER, SUGAR, WHEAT GLUTEN, POTATO FLOUR, YEAST, SOYBEAN OIL, SALT, MONOGLYCERIDES, CORN FLOUR, CALCIUM PROPIONATE (PRESERVATIVE), DATEM, CALCIUM SULFATE, REB A (NATURAL STEVIA LEAF SWEETENER), ANNATTO COLOR, TURMERIC COLOR, SOY LECITHIN, CITRIC ACID, GRAIN VINEGAR, ARTIFICIAL FLAVOR, POTASSIUM IODATE." Date available: 06/24/2017 Date last updated by company: 06/24/2017
