Source: USDA Branded Food Products Database Release December 2017 Software v.3.8.6.4 2017-10-02
Report Run at: December 17, 2017 00:27 EST
"Nutrient data for: 45016584, ARROWHEAD MILLS, ORGANIC OAT BRAN FLAKES, UPC: 074333374909"
Food Group:  Branded Food Products Database
Common Name:

Nutrient,Unit,Data points,Std. Error,"1 cup = 34.0g",1Value per 100 g,
Proximates
"Energy",kcal,--,--,140,412
"Protein",g,--,--,5.00,14.71
"Total lipid (fat)",g,--,--,2.50,7.35
"Carbohydrate, by difference",g,--,--,24.00,70.59
"Fiber, total dietary",g,--,--,4.0,11.8
"Sugars, total",g,--,--,3.00,8.82
Minerals
"Calcium, Ca",mg,--,--,20,59
"Iron, Fe",mg,--,--,2.33,6.85
"Potassium, K",mg,--,--,140,412
"Sodium, Na",mg,--,--,80,235
Vitamins
"Vitamin C, total ascorbic acid",mg,--,--,19.4,57.1
"Thiamin",mg,--,--,0.340,1.000
"Riboflavin",mg,--,--,0.055,0.162
"Niacin",mg,--,--,0.000,0.000
"Vitamin A, IU",IU,--,--,0,0
Lipids
"Fatty acids, total saturated",g,--,--,0.000,0.000
"Fatty acids, total monounsaturated",g,--,--,1.000,2.940
"Fatty acids, total polyunsaturated",g,--,--,1.000,2.940
"Fatty acids, total trans",g,--,--,0.000,0.000
"Cholesterol",mg,--,--,0,0
Amino Acids
Other
Ingredients
"ORGANIC OAT BRAN, ORGANIC WHOLE GRAIN OAT FLOUR, ORGANIC FRUIT JUICE CONCENTRATE (ORGANIC PEAR OR ORGANIC APPLE OR ORGANIC GRAPE), ORGANIC WHOLE GRAIN OAT FLAKES, SEA SALT, ASCORBIC ACID (VITAMIN C) AND NATURAL VITAMIN E (TO PRESERVE FRESHNESS)." Date available: 09/20/2017 Date last updated by company: 09/20/2017
