Source: USDA Branded Food Products Database Release December 2017 Software v.3.8.6.4 2017-10-02
Report Run at: December 17, 2017 00:29 EST
"Nutrient data for: 45085099, ARROWROOT, UPC: 04020611"
Food Group:  Branded Food Products Database
Common Name:

Nutrient,Unit,Data points,Std. Error,"1.33 Tbsp = 11.0g",1Value per 100 g,
Proximates
"Energy",kcal,--,--,35,318
"Protein",g,--,--,0.00,0.00
"Total lipid (fat)",g,--,--,0.00,0.00
"Carbohydrate, by difference",g,--,--,9.00,81.82
Minerals
"Sodium, Na",mg,--,--,0,0
Vitamins
Lipids
Amino Acids
Other
Ingredients
"ARROWROOT" Date available: 03/22/2017 Date last updated by company: 03/22/2017
