Source: USDA Branded Food Products Database Release December 2017 Software v.3.8.6.4 2017-10-02
Report Run at: December 17, 2017 00:28 EST
"Nutrient data for: 45091351, ARROWHEAD MILLS, ORGANIC QUINOA, UPC: 074333476672"
Food Group:  Branded Food Products Database
Common Name:

Nutrient,Unit,Data points,Std. Error,"0.33 cup = 43.0g",1Value per 100 g,
Proximates
"Energy",kcal,--,--,160,372
"Protein",g,--,--,6.00,13.95
"Total lipid (fat)",g,--,--,2.50,5.81
"Carbohydrate, by difference",g,--,--,30.00,69.77
"Fiber, total dietary",g,--,--,3.0,7.0
"Sugars, total",g,--,--,0.00,0.00
Minerals
"Calcium, Ca",mg,--,--,20,47
"Iron, Fe",mg,--,--,3.77,8.76
"Phosphorus, P",mg,--,--,209,487
"Potassium, K",mg,--,--,320,744
"Sodium, Na",mg,--,--,10,23
Vitamins
"Vitamin C, total ascorbic acid",mg,--,--,0.0,0.0
"Thiamin",mg,--,--,0.000,0.000
"Riboflavin",mg,--,--,0.170,0.395
"Niacin",mg,--,--,1.256,2.921
"Vitamin A, IU",IU,--,--,0,0
Lipids
"Fatty acids, total saturated",g,--,--,0.000,0.000
"Fatty acids, total trans",g,--,--,0.000,0.000
"Cholesterol",mg,--,--,0,0
Amino Acids
Other
Ingredients
"ORGANIC QUINOA." Date available: 06/25/2017 Date last updated by company: 06/25/2017
