Source: USDA Branded Food Products Database Release December 2017 Software v.3.8.6.4 2017-10-02
Report Run at: December 17, 2017 00:27 EST
"Nutrient data for: 45087252, ARROWHEAD MILLS, ORGANIC BULGUR WHEAT, UPC: 074333385202"
Food Group:  Branded Food Products Database
Common Name:

Nutrient,Unit,Data points,Std. Error,"0.25 cup = 44.0g",1Value per 100 g,
Proximates
"Energy",kcal,--,--,150,341
"Protein",g,--,--,5.00,11.36
"Total lipid (fat)",g,--,--,0.50,1.14
"Carbohydrate, by difference",g,--,--,33.00,75.00
"Fiber, total dietary",g,--,--,8.0,18.2
"Sugars, total",g,--,--,0.00,0.00
Minerals
"Calcium, Ca",mg,--,--,20,45
"Iron, Fe",mg,--,--,1.23,2.79
"Potassium, K",mg,--,--,105,239
"Sodium, Na",mg,--,--,5,11
Vitamins
"Vitamin C, total ascorbic acid",mg,--,--,0.0,0.0
"Niacin",mg,--,--,2.272,5.164
"Vitamin A, IU",IU,--,--,0,0
Lipids
"Fatty acids, total saturated",g,--,--,0.000,0.000
"Fatty acids, total monounsaturated",g,--,--,0.000,0.000
"Fatty acids, total polyunsaturated",g,--,--,0.502,1.140
"Fatty acids, total trans",g,--,--,0.000,0.000
"Cholesterol",mg,--,--,0,0
Amino Acids
Other
Ingredients
"ORGANIC PARBOILED WHOLE BULGUR WHEAT." Date available: 07/14/2017 Date last updated by company: 07/14/2017
