Source: USDA Branded Food Products Database Release December 2017 Software v.3.8.6.4 2017-10-02
Report Run at: December 17, 2017 00:28 EST
"Nutrient data for: 45016520, ARROWHEAD MILLS, SHREDDED WHEAT, BITE SIZE CEREAL, UPC: 074333377535"
Food Group:  Branded Food Products Database
Common Name:

Nutrient,Unit,Data points,Std. Error,"1 cup = 49.0g",1Value per 100 g,
Proximates
"Energy",kcal,--,--,190,388
"Protein",g,--,--,6.00,12.24
"Total lipid (fat)",g,--,--,1.00,2.04
"Carbohydrate, by difference",g,--,--,38.00,77.55
"Fiber, total dietary",g,--,--,6.0,12.2
"Sugars, total",g,--,--,2.00,4.08
Minerals
"Calcium, Ca",mg,--,--,20,41
"Iron, Fe",mg,--,--,1.10,2.25
"Potassium, K",mg,--,--,150,306
"Sodium, Na",mg,--,--,5,10
Vitamins
"Vitamin C, total ascorbic acid",mg,--,--,0.0,0.0
"Thiamin",mg,--,--,0.000,0.000
"Riboflavin",mg,--,--,0.035,0.071
"Niacin",mg,--,--,3.062,6.249
"Vitamin A, IU",IU,--,--,0,0
Lipids
"Fatty acids, total saturated",g,--,--,0.206,0.420
"Fatty acids, total monounsaturated",g,--,--,0.000,0.000
"Fatty acids, total polyunsaturated",g,--,--,0.500,1.020
"Fatty acids, total trans",g,--,--,0.000,0.000
"Cholesterol",mg,--,--,0,0
Amino Acids
Other
Ingredients
"ORGANIC WHOLE GRAIN WHEAT, NATURAL VITAMIN E (TO PRESERVE FRESHNESS)." Date available: 10/04/2017 Date last updated by company: 10/04/2017
