Source: USDA Branded Food Products Database Release December 2017 Software v.3.8.6.4 2017-10-02
Report Run at: December 17, 2017 00:37 EST
"Nutrient data for: 45050374, ARTIFICIALLY FLAVORED, UPC: 041380233381"
Food Group:  Branded Food Products Database
Common Name:

Nutrient,Unit,Data points,Std. Error,"1 SERVING = 32.0g",1Value per 100 g,
Proximates
"Energy",kcal,--,--,140,438
"Protein",g,--,--,1.00,3.12
"Total lipid (fat)",g,--,--,4.00,12.50
"Carbohydrate, by difference",g,--,--,25.00,78.12
"Fiber, total dietary",g,--,--,1.0,3.1
"Sugars, total",g,--,--,12.00,37.50
Minerals
"Iron, Fe",mg,--,--,1.13,3.52
"Sodium, Na",mg,--,--,120,375
Vitamins
Lipids
"Fatty acids, total saturated",g,--,--,1.501,4.690
"Fatty acids, total trans",g,--,--,0.000,0.000
Amino Acids
Other
Ingredients
"INGREDIENTS: ENRICHED FLOUR** (WHEAT FLOUR, NIACIN, REDUCED IRON, THIAMIN MONONITRATE {VITAMIN B1}, RIBOFLAVIN {VITAMIN B2}, FOLIC ACID), SUGAR, VEGETABLE OIL 9CONTAINS ONE OR MORE OF THE FOLLOWING: CANOLA PALM, SOYBEAN WITH TBHQ FOR FRESHNESS), CONTAINS TWO PERCENT OR LESS OF: HIGH FRUCTOSE CORN SYRUP, WHEY (FROM MILK), EGGS, NATURAL AND ARTFICIAL FLAVORS, SALT, BAKING SODA, SOY LECITHIN (EMULSIFIER)." Date available: 06/25/2017 Date last updated by company: 06/25/2017
