Source: USDA Branded Food Products Database Release December 2017 Software v.3.8.6.4 2017-10-02
Report Run at: December 17, 2017 00:42 EST
"Nutrient data for: 45047616, ARTISAN BREAD, UPC: 859564004005"
Food Group:  Branded Food Products Database
Common Name:

Nutrient,Unit,Data points,Std. Error,"1 SLICE, ABOUT = 32.0g",1Value per 100 g,
Proximates
"Energy",kcal,--,--,110,344
"Protein",g,--,--,2.00,6.25
"Total lipid (fat)",g,--,--,4.00,12.50
"Carbohydrate, by difference",g,--,--,16.00,50.00
"Fiber, total dietary",g,--,--,1.0,3.1
"Sugars, total",g,--,--,8.00,25.00
Minerals
"Calcium, Ca",mg,--,--,20,62
"Iron, Fe",mg,--,--,0.56,1.75
"Sodium, Na",mg,--,--,105,328
Vitamins
"Vitamin C, total ascorbic acid",mg,--,--,0.0,0.0
"Vitamin A, IU",IU,--,--,156,488
Lipids
"Fatty acids, total saturated",g,--,--,1.501,4.690
"Fatty acids, total trans",g,--,--,0.000,0.000
"Cholesterol",mg,--,--,15,47
Amino Acids
Other
Ingredients
"UNBLEACHED WHEAT FLOUR (WHEAT FLOUR, BARLEY FLOUR, NIACIN, REDUCED IRON, THIAMIN MONONITRATE, RIBOFLAVIN, FOLIC ACID), GRANULATED SUGAR, CINNAMON, CANOLA OIL, WATER, WHOLE EGGS, BUTTER, POWDERED MILK, YEAST, POWDERED SUGAR, SEA SALT." Date available: 06/24/2017 Date last updated by company: 06/24/2017
