Source: USDA Branded Food Products Database Release December 2017 Software v.3.8.6.4 2017-10-02
Report Run at: December 17, 2017 00:48 EST
"Nutrient data for: 45162155, ARTISAN TROPIC, PLANTAIN STRIPS, NATURALLY SWEET, UPC: 868706000119"
Food Group:  Branded Food Products Database
Common Name:

Nutrient,Unit,Data points,Std. Error,"18.0 PIECES = 43.0g",1Value per 100 g,
Proximates
"Energy",kcal,--,--,210,488
"Protein",g,--,--,1.00,2.33
"Total lipid (fat)",g,--,--,9.00,20.93
"Carbohydrate, by difference",g,--,--,31.00,72.09
"Fiber, total dietary",g,--,--,10.0,23.3
"Sugars, total",g,--,--,16.00,37.21
Minerals
"Calcium, Ca",mg,--,--,20,47
"Iron, Fe",mg,--,--,0.84,1.95
"Sodium, Na",mg,--,--,10,23
Vitamins
"Vitamin C, total ascorbic acid",mg,--,--,5.6,13.0
"Vitamin A, IU",IU,--,--,0,0
Lipids
"Fatty acids, total saturated",g,--,--,3.999,9.300
"Fatty acids, total trans",g,--,--,0.000,0.000
"Cholesterol",mg,--,--,0,0
Amino Acids
Other
Ingredients
"PLANTAINS, PALM OIL." Date available: 07/14/2017 Date last updated by company: 07/14/2017
