Source: USDA Branded Food Products Database Release December 2017 Software v.3.8.6.4 2017-10-02
Report Run at: December 17, 2017 00:35 EST
"Nutrient data for: 45281240, ARTIFICIAL BUTTER FLAVORED SYRUP, UPC: 075450833317"
Food Group:  Branded Food Products Database
Common Name:

Nutrient,Unit,Data points,Std. Error,"0.25 cup = 60.0g",1Value per 100 g,
Proximates
"Energy",kcal,--,--,230,383
"Protein",g,--,--,0.00,0.00
"Total lipid (fat)",g,--,--,0.00,0.00
"Carbohydrate, by difference",g,--,--,57.00,95.00
"Sugars, total",g,--,--,19.00,31.67
Minerals
"Sodium, Na",mg,--,--,20,33
Vitamins
Lipids
Amino Acids
Other
Ingredients
"CORN SYRUP, WATER, LIQUID SUGAR, CARAMEL COLOR, SALT, ARTIFICIAL FLAVOR, POTASSIUM SORBATE (A PRESERVATIVE)." Date available: 07/14/2017 Date last updated by company: 07/14/2017
