Source: USDA Branded Food Products Database Release December 2017 Software v.3.8.6.4 2017-10-02
Report Run at: December 17, 2017 00:30 EST
"Nutrient data for: 45081371, ARTICHOKE BOTTOMS, UPC: 041277349577"
Food Group:  Branded Food Products Database
Common Name:

Nutrient,Unit,Data points,Std. Error,"3.0 PIECES WITH LIQUID = 130.0g",1Value per 100 g,
Proximates
"Energy",kcal,--,--,49,38
"Protein",g,--,--,3.00,2.31
"Total lipid (fat)",g,--,--,0.00,0.00
"Carbohydrate, by difference",g,--,--,9.00,6.92
"Fiber, total dietary",g,--,--,1.9,1.5
"Sugars, total",g,--,--,2.00,1.54
Minerals
"Calcium, Ca",mg,--,--,40,31
"Iron, Fe",mg,--,--,1.44,1.11
"Sodium, Na",mg,--,--,380,292
Vitamins
"Vitamin C, total ascorbic acid",mg,--,--,4.8,3.7
"Vitamin A, IU",IU,--,--,200,154
Lipids
"Fatty acids, total saturated",g,--,--,0.000,0.000
"Fatty acids, total trans",g,--,--,0.000,0.000
"Cholesterol",mg,--,--,0,0
Amino Acids
Other
Ingredients
"ARTICHOKE BOTTOMS, WATER, SALT, CITRIC ACID." Date available: 07/14/2017 Date last updated by company: 07/14/2017
