Source: USDA Branded Food Products Database Release December 2017 Software v.3.8.6.4 2017-10-02
Report Run at: December 17, 2017 00:39 EST
"Nutrient data for: 45286817, ARTISANAL SRIRACHA KETCHUP, UPC: 859638003293"
Food Group:  Branded Food Products Database
Common Name:

Nutrient,Unit,Data points,Std. Error,"1 Tbsp = 18.0g",1Value per 100 g,
Proximates
"Energy",kcal,--,--,25,139
"Protein",g,--,--,1.00,5.56
"Total lipid (fat)",g,--,--,0.00,0.00
"Carbohydrate, by difference",g,--,--,6.00,33.33
"Sugars, total",g,--,--,4.00,22.22
Minerals
"Sodium, Na",mg,--,--,30,167
Vitamins
"Vitamin A, IU",IU,--,--,338,1878
Lipids
Amino Acids
Other
Ingredients
"TOMATO PASTE, BROWN SUGAR, APPLE CIDER VINEGAR, WATER, SEA WITH SRIRACHA (SEA SALT, SRIRACHA SAUCE), SPICES." Date available: 07/14/2017 Date last updated by company: 07/14/2017
