Source: USDA Branded Food Products Database Release December 2017 Software v.3.8.6.4 2017-10-02
Report Run at: December 17, 2017 00:31 EST
"Nutrient data for: 45120571, ARTICHOKE HEARTS, UPC: 760236289890"
Food Group:  Branded Food Products Database
Common Name:

Nutrient,Unit,Data points,Std. Error,"5.0 PIECES = 100.0g",1Value per 100 g,
Proximates
"Energy",kcal,--,--,30,30
"Protein",g,--,--,2.00,2.00
"Total lipid (fat)",g,--,--,0.00,0.00
"Carbohydrate, by difference",g,--,--,7.00,7.00
"Fiber, total dietary",g,--,--,4.0,4.0
"Sugars, total",g,--,--,2.00,2.00
Minerals
"Calcium, Ca",mg,--,--,40,40
"Iron, Fe",mg,--,--,0.47,0.47
"Sodium, Na",mg,--,--,300,300
Vitamins
"Vitamin C, total ascorbic acid",mg,--,--,11.7,11.7
"Vitamin A, IU",IU,--,--,390,390
Lipids
"Fatty acids, total saturated",g,--,--,0.000,0.000
"Fatty acids, total trans",g,--,--,0.000,0.000
"Cholesterol",mg,--,--,0,0
Amino Acids
Other
Ingredients
"ARTICHOKE HEARTS, WATER, SALT, CITRIC ACID." Date available: 07/14/2017 Date last updated by company: 07/14/2017
