Source: USDA Branded Food Products Database Release December 2017 Software v.3.8.6.4 2017-10-02
Report Run at: December 17, 2017 00:44 EST
"Nutrient data for: 45082266, ARTISAN GELATO & SORBETTO, UPC: 797043784980"
Food Group:  Branded Food Products Database
Common Name:

Nutrient,Unit,Data points,Std. Error,"4.0 ONZ = 104.0g",1Value per 100 g,
Proximates
"Energy",kcal,--,--,230,221
"Protein",g,--,--,3.00,2.88
"Total lipid (fat)",g,--,--,13.00,12.50
"Carbohydrate, by difference",g,--,--,28.00,26.92
"Fiber, total dietary",g,--,--,0.0,0.0
"Sugars, total",g,--,--,25.00,24.04
Minerals
"Calcium, Ca",mg,--,--,100,96
"Iron, Fe",mg,--,--,0.18,0.17
"Sodium, Na",mg,--,--,260,250
Vitamins
"Vitamin C, total ascorbic acid",mg,--,--,0.6,0.6
"Vitamin A, IU",IU,--,--,192,185
Lipids
"Fatty acids, total saturated",g,--,--,7.998,7.690
"Fatty acids, total trans",g,--,--,0.000,0.000
"Cholesterol",mg,--,--,40,38
Amino Acids
Other
Ingredients
"MILK, CREAM, SUGAR, CORN SYRUP, BUTTER, BROWN SUGAR, CARAMEL SAUCE (NONFAT MILK, SUGAR, GLUCOSE, VANILLA, SODIUM BICARBONATE), COVERED CASHEWS (CASHEWS, SUGAR, CHOCOLATE LIQUOR, COCOA BUTTER, SOYA LECITHIN ADDED AS AN EMULSIFIER AND VANILLA EXTRACT), NONFAT DRY MILK, SEA SALT, VEGETABLE STABILIZER." Date available: 09/26/2017 Date last updated by company: 09/26/2017
