Source: USDA Branded Food Products Database Release December 2017 Software v.3.8.6.4 2017-10-02
Report Run at: December 17, 2017 00:30 EST
"Nutrient data for: 45179918, ARTICHOKE DIP, UPC: 826766780853"
Food Group:  Branded Food Products Database
Common Name:

Nutrient,Unit,Data points,Std. Error,"2.0 Tbsp = 30.0g",1Value per 100 g,
Proximates
"Energy",kcal,--,--,80,267
"Protein",g,--,--,2.00,6.67
"Total lipid (fat)",g,--,--,7.00,23.33
"Carbohydrate, by difference",g,--,--,3.00,10.00
"Fiber, total dietary",g,--,--,0.0,0.0
"Sugars, total",g,--,--,1.00,3.33
Minerals
"Calcium, Ca",mg,--,--,60,200
"Iron, Fe",mg,--,--,0.00,0.00
"Sodium, Na",mg,--,--,160,533
Vitamins
"Vitamin C, total ascorbic acid",mg,--,--,10.0,33.3
"Vitamin A, IU",IU,--,--,500,1667
Lipids
"Fatty acids, total saturated",g,--,--,3.501,11.670
"Fatty acids, total trans",g,--,--,0.000,0.000
"Cholesterol",mg,--,--,20,67
Amino Acids
Other
Ingredients
"CREAM CHEESE (PASTEURIZED MILK AND CREAM, CHEESE CULTURE, SALT, STABILIZERS [CAROB BEAN AND/OR XANTHAN AND/OR GUAR GUM) LITE MAYONNAISE (WATER, CANOLA OIL, EGG YOLK, DISTILLED VINEGAR, MODIFIED CORN STARCH, SUGAR, SALT, MUSTARD FLOUR, LEMON JUICE CONCENTRATE, XANTHAN GUM), RED BELL PEPPER, PARMESAN CHEESE (PASTEURIZED PART-SKIM MILK, CHEESE CULTURE, SALT, ENZYMES, POWDERED CELLULOSE [ANTI-CAKING AGENT]), MARINATED ARTICHOKE HEARTS (QUARTERED ARTICHOKE HEARTS, WATER, VEGETABLE OIL [ SOYBEAN AND/OR SUNFLOWER OIL], VINEGAR SPICES, SALT, CITRIC ACID AND ASCORBIC ACID TO PRESERVE COLOR), PANKO BREAD CRUMBS (BLEACHED WHEAT FLOUR, DEXTROSE, SALT, YEAST), MINCED GARLIC IN WATER (GARLIC, WATER, CITRIC ACID), LEMON PEPPER (BLACK PEPPER, SALT, MODIFIED FOOD STARCH, CITRIC ACID, LEMON PEEL, SUGAR, GARLIC, ONION, NATURAL FLAVOR, RIBOFLAVIN [FOR COLOR])." Date available: 07/14/2017 Date last updated by company: 07/14/2017
