Source: USDA Branded Food Products Database Release December 2017 Software v.3.8.6.4 2017-10-02
Report Run at: December 17, 2017 00:37 EST
"Nutrient data for: 45266024, ARTIFICIALLY FLAVORED, UPC: 052548587468"
Food Group:  Branded Food Products Database
Common Name:

Nutrient,Unit,Data points,Std. Error,"1 PIECE = 60.0g",1Value per 100 g,
Proximates
"Energy",kcal,--,--,215,358
"Protein",g,--,--,2.00,3.33
"Total lipid (fat)",g,--,--,0.00,0.00
"Carbohydrate, by difference",g,--,--,50.00,83.33
"Fiber, total dietary",g,--,--,0.0,0.0
"Sugars, total",g,--,--,37.00,61.67
Minerals
"Calcium, Ca",mg,--,--,0,0
"Iron, Fe",mg,--,--,0.00,0.00
"Sodium, Na",mg,--,--,5,8
Vitamins
"Vitamin C, total ascorbic acid",mg,--,--,0.0,0.0
"Vitamin A, IU",IU,--,--,0,0
Lipids
"Fatty acids, total saturated",g,--,--,0.000,0.000
"Fatty acids, total trans",g,--,--,0.000,0.000
"Cholesterol",mg,--,--,0,0
Amino Acids
Other
Ingredients
"SUGAR, CORN SYRUP, WATER, SORBITOL, GELATIN, CORN STARCH, ARTIFICIAL FLAVOR, ARTIFICIAL COLORS (FD&C RED 40, RED 3, BLUE 1, YELLOW 5, YELLOW 6), POTASSIUM SORBATE ( A PRESERVATIVE)." Date available: 07/14/2017 Date last updated by company: 07/14/2017
