Source: USDA Branded Food Products Database Release December 2017 Software v.3.8.6.4 2017-10-02
Report Run at: December 17, 2017 00:31 EST
"Nutrient data for: 45054533, ARTICHOKE HEARTS, QUARTERED & MARINATED, UPC: 026662750183"
Food Group:  Branded Food Products Database
Common Name:

Nutrient,Unit,Data points,Std. Error,"3.0 ONZ = 85.0g",1Value per 100 g,
Proximates
"Energy",kcal,--,--,50,59
"Protein",g,--,--,2.00,2.35
"Total lipid (fat)",g,--,--,2.00,2.35
"Carbohydrate, by difference",g,--,--,5.00,5.88
"Fiber, total dietary",g,--,--,1.0,1.2
"Sugars, total",g,--,--,1.00,1.18
Minerals
"Calcium, Ca",mg,--,--,20,24
"Iron, Fe",mg,--,--,1.10,1.30
"Sodium, Na",mg,--,--,460,541
Vitamins
"Vitamin C, total ascorbic acid",mg,--,--,7.3,8.6
"Vitamin A, IU",IU,--,--,0,0
Lipids
"Fatty acids, total saturated",g,--,--,0.000,0.000
"Fatty acids, total trans",g,--,--,0.000,0.000
"Cholesterol",mg,--,--,0,0
Amino Acids
Other
Ingredients
"INGREDIENTS: QUARTERED ARTICHOKE HEARTS, WATER, VEGETABLE OIL (SOY AND / OR SUNFLOWER OIL), VINEGAR, SALT, SPICES, CITRIC AND ASCORBIC ACID (TO PRESERVE COLOR)" Date available: 06/25/2017 Date last updated by company: 06/25/2017
