Source: USDA Branded Food Products Database Release December 2017 Software v.3.8.6.4 2017-10-02
Report Run at: December 17, 2017 00:35 EST
"Nutrient data for: 45266945, ARTICHOKES, UPC: 073651340016"
Food Group:  Branded Food Products Database
Common Name:

Nutrient,Unit,Data points,Std. Error,"0.5 cup = 130.0g",1Value per 100 g,
Proximates
"Energy",kcal,--,--,49,38
"Protein",g,--,--,2.00,1.54
"Total lipid (fat)",g,--,--,0.00,0.00
"Carbohydrate, by difference",g,--,--,8.00,6.15
"Fiber, total dietary",g,--,--,4.0,3.1
"Sugars, total",g,--,--,2.00,1.54
Minerals
"Calcium, Ca",mg,--,--,40,31
"Iron, Fe",mg,--,--,0.36,0.28
"Sodium, Na",mg,--,--,430,331
Vitamins
"Vitamin C, total ascorbic acid",mg,--,--,3.6,2.8
"Vitamin A, IU",IU,--,--,100,77
Lipids
"Fatty acids, total saturated",g,--,--,0.000,0.000
"Fatty acids, total monounsaturated",g,--,--,0.000,0.000
"Fatty acids, total polyunsaturated",g,--,--,0.000,0.000
"Fatty acids, total trans",g,--,--,0.000,0.000
"Cholesterol",mg,--,--,0,0
Amino Acids
Other
Ingredients
"ARTICHOKE HEARTS, WATER, SALT, CITRIC ACID" Date available: 07/14/2017 Date last updated by company: 07/14/2017
