Source: USDA Branded Food Products Database Release December 2017 Software v.3.8.6.4 2017-10-02
Report Run at: December 17, 2017 00:36 EST
"Nutrient data for: 45236656, ARTIFICIALLY FLAVORED GRAPE SODA, UPC: 041497441976"
Food Group:  Branded Food Products Database
Common Name:

Nutrient,Unit,Data points,Std. Error,"12.0 OZA = 355.0g",1Value per 100 g,
Proximates
"Energy",kcal,--,--,192,54
"Protein",g,--,--,0.00,0.00
"Total lipid (fat)",g,--,--,0.00,0.00
"Carbohydrate, by difference",g,--,--,49.98,14.08
"Sugars, total",g,--,--,49.98,14.08
Minerals
"Sodium, Na",mg,--,--,39,11
Vitamins
Lipids
Amino Acids
Other
Ingredients
"CARBONATED WATER, HIGH FRUCTOSE CORN SYRUP, TARTARIC ACID, CITRIC ACID, POTASSIUM BENZOATE (A PRESERVATIVE), NATURAL AND ARTIFICIAL FLAVOR, GRAPE JUICE FROM CONCENTRATE, GUM ACACIA, RED 40, BLUE 1." Date available: 06/25/2017 Date last updated by company: 06/25/2017
