Source: USDA Branded Food Products Database Release December 2017 Software v.3.8.6.4 2017-10-02
Report Run at: December 17, 2017 00:34 EST
"Nutrient data for: 45316047, ARTICHOKE SAUCE, UPC: 070670005681"
Food Group:  Branded Food Products Database
Common Name:

Nutrient,Unit,Data points,Std. Error,"0.25 cup = 60.0g",1Value per 100 g,
Proximates
"Energy",kcal,--,--,60,100
"Protein",g,--,--,1.00,1.67
"Total lipid (fat)",g,--,--,4.00,6.67
"Carbohydrate, by difference",g,--,--,6.00,10.00
"Fiber, total dietary",g,--,--,2.0,3.3
"Sugars, total",g,--,--,1.00,1.67
Minerals
"Calcium, Ca",mg,--,--,20,33
"Iron, Fe",mg,--,--,0.76,1.27
"Sodium, Na",mg,--,--,300,500
Vitamins
"Vitamin C, total ascorbic acid",mg,--,--,19.0,31.7
"Vitamin A, IU",IU,--,--,211,352
Lipids
"Fatty acids, total saturated",g,--,--,0.000,0.000
"Fatty acids, total trans",g,--,--,0.000,0.000
"Cholesterol",mg,--,--,0,0
Amino Acids
Other
Ingredients
"ARTICHOKES, TOMATOES, ONIONS, GREEN OLIVES, LEMON JUICE, SUNFLOWER OIL, OLIVE OIL, SALT, VINEGAR, CORIANDER AND SPICES." Date available: 07/14/2017 Date last updated by company: 07/14/2017
