Source: USDA Branded Food Products Database Release December 2017 Software v.3.8.6.4 2017-10-02
Report Run at: December 17, 2017 01:03 EST
"Nutrient data for: 45170051, ASI, WILD AMERICAN YAUPON TEA, ARONIA BERRY, UPC: 864928000128"
Food Group:  Branded Food Products Database
Common Name:

Nutrient,Unit,Data points,Std. Error,"1 BOTTLE = 414.0g",1Value per 100 g,
Proximates
"Energy",kcal,--,--,41,10
"Protein",g,--,--,0.00,0.00
"Total lipid (fat)",g,--,--,0.00,0.00
"Carbohydrate, by difference",g,--,--,8.98,2.17
"Sugars, total",g,--,--,8.98,2.17
Minerals
"Potassium, K",mg,--,--,0,0
"Sodium, Na",mg,--,--,0,0
Vitamins
Lipids
Amino Acids
Other
Ingredients
"FILTERED WATER, ORGANIC YAUPON LEAVES, ORGANICS ARONIA JUICE, ORGANIC CANE SUGAR, BICARBONATE OF SODA (TO PRESERVE ANTIOXIDANTS)" Date available: 07/14/2017 Date last updated by company: 07/14/2017
