Source: USDA Branded Food Products Database Release December 2017 Software v.3.8.6.4 2017-10-02
Report Run at: December 17, 2017 00:59 EST
"Nutrient data for: 45103641, ASIAN HOME GOURMET, SPICE PASTE, MILD, UPC: 015205465103"
Food Group:  Branded Food Products Database
Common Name:

Nutrient,Unit,Data points,Std. Error,"1 Tbsp = 13.0g",1Value per 100 g,
Proximates
"Energy",kcal,--,--,35,269
"Protein",g,--,--,1.00,7.69
"Total lipid (fat)",g,--,--,2.00,15.38
"Carbohydrate, by difference",g,--,--,3.00,23.08
"Fiber, total dietary",g,--,--,1.0,7.7
"Sugars, total",g,--,--,2.00,15.38
Minerals
"Calcium, Ca",mg,--,--,0,0
"Iron, Fe",mg,--,--,0.00,0.00
"Sodium, Na",mg,--,--,470,3615
Vitamins
"Vitamin C, total ascorbic acid",mg,--,--,0.0,0.0
"Vitamin A, IU",IU,--,--,0,0
Lipids
"Fatty acids, total saturated",g,--,--,0.000,0.000
"Fatty acids, total trans",g,--,--,0.000,0.000
"Cholesterol",mg,--,--,5,38
Amino Acids
Other
Ingredients
"GALANGAL, SHALLOTS, SOYBEAN OIL, SUGAR, SALT, RED CHILLIES, DRIED SHRIMP, GARLIC, LEMONGRASS, TURMERIC." Date available: 07/14/2017 Date last updated by company: 07/14/2017
