Source: USDA Branded Food Products Database Release December 2017 Software v.3.8.6.4 2017-10-02
Report Run at: December 17, 2017 01:03 EST
"Nutrient data for: 45039946, ASIAN YOGURT, UPC: 850864004047"
Food Group:  Branded Food Products Database
Common Name:

Nutrient,Unit,Data points,Std. Error,"1 CONTAINER = 170.0g",1Value per 100 g,
Proximates
"Energy",kcal,--,--,110,65
"Protein",g,--,--,12.00,7.06
"Total lipid (fat)",g,--,--,0.00,0.00
"Carbohydrate, by difference",g,--,--,14.99,8.82
"Fiber, total dietary",g,--,--,0.0,0.0
"Sugars, total",g,--,--,14.99,8.82
Minerals
"Calcium, Ca",mg,--,--,350,206
"Phosphorus, P",mg,--,--,250,147
"Potassium, K",mg,--,--,330,194
"Sodium, Na",mg,--,--,95,56
Vitamins
Lipids
"Fatty acids, total saturated",g,--,--,0.000,0.000
"Fatty acids, total trans",g,--,--,0.000,0.000
"Cholesterol",mg,--,--,10,6
Amino Acids
Other
Ingredients
"CULTURED PASTEURIZED GRADE A NONFAT MILK, WATER, MILK PROTEIN CONCENTRATE, CANE SUGAR, WHEY PROTEIN CONCENTRATE, MANGO CONCENTRATE, NATURAL FLAVOR, COCONUT CREAM, LOCUST BEAN GUM, PECTIN, LEMON JUICE CONCENTRATE, ORGANIC REBIANA." Date available: 09/01/2017 Date last updated by company: 09/01/2017
