Source: USDA Branded Food Products Database Release December 2017 Software v.3.8.6.4 2017-10-02
Report Run at: December 17, 2017 01:02 EST
"Nutrient data for: 45199821, ASIAN STYLE NOODLE SALAD WITH CHICKEN, UPC: 098487101808"
Food Group:  Branded Food Products Database
Common Name:

Nutrient,Unit,Data points,Std. Error,"1 SALAD = 227.0g",1Value per 100 g,
Proximates
"Energy",kcal,--,--,400,176
"Protein",g,--,--,12.01,5.29
"Total lipid (fat)",g,--,--,24.99,11.01
"Carbohydrate, by difference",g,--,--,33.01,14.54
"Fiber, total dietary",g,--,--,4.1,1.8
"Sugars, total",g,--,--,11.01,4.85
Minerals
"Calcium, Ca",mg,--,--,41,18
"Iron, Fe",mg,--,--,1.11,0.49
"Sodium, Na",mg,--,--,640,282
Vitamins
"Vitamin C, total ascorbic acid",mg,--,--,5.4,2.4
"Vitamin A, IU",IU,--,--,4318,1902
Lipids
"Fatty acids, total saturated",g,--,--,3.995,1.760
"Fatty acids, total trans",g,--,--,0.000,0.000
"Cholesterol",mg,--,--,20,9
Amino Acids
Other
Ingredients
"ROMAINE LETTUCE, SESAME DRESSING (SOYBEAN OIL, SUGAR, SOY SAUCE [WATER, SOYBEANS, SALT, SODIUM BENZOATE AS A PRESERVATIVE], WATER, DISTILLED VINEGAR, TOASTED SESAME OIL, RICE VINEGAR, CONTAINS LESS THAN 2% OF TOMATO PASTE, SPICES, SESAME SEED, DEHYDRATED RED BELL PEPPER, XANTHAN GUM, SORBIC ACID, DEHYDRATED GARLIC, MUSTARD SEED, DEHYDRATED ONION, POTASSIUM SORBATE [A PRESERVATIVE], CARRAGEENAN, CALCIUM DISODIUM EDTA ADDED TO PROTECT FLAVOR), WHOLE GRAIN NOODLES (NOODLES [WHOLE DURUM WHEAT FLOUR, SEMOLINA, DURUM WHEAT FLOUR, OAT FIBER], CANOLA OIL, EXTRA VIRGIN OLIVE OIL), WHITE MEAT CHICKEN (CHICKEN BREAST WITH RIB MEAT, WATER, LESS THAN 2% RICE STARCH, VINEGAR, SALT, SUGAR), WONTON STRIPS (ENRICHED FLOUR [WHEAT FLOUR, NIACIN, REDUCED IRON, THIAMIN MONONITRATE, RIBOFLAVIN, FOLIC ACID, ENZYMES], VEGETABLE OIL [SOYBEAN AND/OR COTTONSEED OIL], WATER, CORNSTARCH, SALT, SODIUM BENZOATE [PRESERVATIVE]), CARROT, RED BELL PEPPER, GREEN ONION, FRESH CILANTRO." Date available: 07/14/2017 Date last updated by company: 07/14/2017
