Source: USDA Branded Food Products Database Release December 2017 Software v.3.8.6.4 2017-10-02
Report Run at: December 17, 2017 00:59 EST
"Nutrient data for: 45222354, ASIAN KITCHEN MEAL BOWL ORANGE CHICKEN, UPC: 5051379080600"
Food Group:  Branded Food Products Database
Common Name:

Nutrient,Unit,Data points,Std. Error,"1 CONTAINER = 369.0g",1Value per 100 g,
Proximates
"Energy",kcal,--,--,720,195
"Protein",g,--,--,20.00,5.42
"Total lipid (fat)",g,--,--,17.01,4.61
"Carbohydrate, by difference",g,--,--,118.01,31.98
"Fiber, total dietary",g,--,--,0.0,0.0
"Sugars, total",g,--,--,27.01,7.32
Minerals
"Calcium, Ca",mg,--,--,59,16
"Iron, Fe",mg,--,--,2.07,0.56
"Sodium, Na",mg,--,--,701,190
Vitamins
"Vitamin C, total ascorbic acid",mg,--,--,1.5,0.4
"Vitamin A, IU",IU,--,--,0,0
Lipids
"Fatty acids, total saturated",g,--,--,2.509,0.680
"Fatty acids, total trans",g,--,--,0.000,0.000
"Cholesterol",mg,--,--,33,9
Amino Acids
Other
Ingredients
"COOKED RICE [LONG GRAIN RICE (ENRICHED WITH: NIACIN, FERRIC ORTHOPHOSPHATE, THIAMIN MONONITRATE, FOLIC ACID), WATER], BATTERED CHICKEN [CHICKEN BREAST MEAT, WATER, BLEACHED ENRICHED FLOUR (WHEAT FLOUR, NIACIN, IRON, THIAMIN MONONITRATE, RIBOFLAVIN, FOLIC ACID), CORN STARCH, CONTAINS LESS THAN 2% OF: DEXTRIN, DEXTROSE, EGG WHITE, EGG YOLK, SODIUM ACID PYROPHOSPHATE, SODIUM BICARBONATE, MONOCALCIUM PHOSPHATE, MODIFIED POTATO STARCH, NONFAT DRY MILK, RICE FLOUR, SALT, SODIUM PHOSPHATE, XANTHAN GUM, COOKED IN VEGETABLE OIL)], ORANGE SAUCE {WATER, SUGAR, KETCHUP [TOMATO CONCENTRATE (TOMATO PASTE, WATER), SUGAR, DISTILLED VINEGAR, SALT, DEHYDRATED ONION, SALT, CLOVE OIL, CASSIA, SILICON DIOXIDE, CAPSICUM, PIMENTO EXTRACT, NUTMEG OIL, ONION EXTRACT, GARLIC OIL], RICE VINEGAR, CANOLA OIL, CORN STARCH, SOY SAUCE (WATER, WHEAT, SOYBEAN, SALT, ALCOHOL, VINEGAR, LACTIC ACID), SESAME OIL, ORANGE ZEST (ORANGE PEEL, WATER, CITRIC ACID)}." Date available: 07/14/2017 Date last updated by company: 07/14/2017
