Source: USDA Branded Food Products Database Release December 2017 Software v.3.8.6.4 2017-10-02
Report Run at: December 17, 2017 01:21 EST
"Nutrient data for: 45189492, ASSORTED STRUDEL BITE, UPC: 0000020048358"
Food Group:  Branded Food Products Database
Common Name:

Nutrient,Unit,Data points,Std. Error,"3.0 PIECES = 56.0g",1Value per 100 g,
Proximates
"Energy",kcal,--,--,210,375
"Protein",g,--,--,1.00,1.79
"Total lipid (fat)",g,--,--,12.00,21.43
"Carbohydrate, by difference",g,--,--,27.00,48.21
"Fiber, total dietary",g,--,--,1.0,1.8
"Sugars, total",g,--,--,12.00,21.43
Minerals
"Calcium, Ca",mg,--,--,0,0
"Iron, Fe",mg,--,--,0.00,0.00
"Sodium, Na",mg,--,--,90,161
Vitamins
"Vitamin C, total ascorbic acid",mg,--,--,0.0,0.0
"Vitamin A, IU",IU,--,--,0,0
Lipids
"Fatty acids, total saturated",g,--,--,5.998,10.710
"Fatty acids, total trans",g,--,--,0.000,0.000
"Cholesterol",mg,--,--,0,0
Amino Acids
Other
Ingredients
"PASTRY DOUGH [UNBLEACHED ENRICHED WHEAT FLOUR (WHEAT FLOUR, MALTED BARLEY FLOUR, ASCORBIC ACID, NIACIN, THIAMIN MONONITRATE, RIBOFLAVIN, FOLIC ACID), WATER, SHORTENING (PALM OIL, BETA-CAROTENE [FOR COLOR]), SUGAR, SALT], FRUIT FILLING [WATER, SUGAR, APPLES (APPLES, CITRIC ACID, SALT), RASPBERRIES, BLUEBERRIES, CORN SYRUP, MODIFIED CORN STARCH, CONTAINS 2% OR LESS OF THE FOLLOWING: (LEMON JUICE, CINNAMON, APPLE CONCENTRATE, NATURAL FLAVOR, CITRIC ACID, GELLAN GUM, SALT, NUTMEG)]." Date available: 07/14/2017 Date last updated by company: 07/14/2017
