Source: USDA Branded Food Products Database Release December 2017 Software v.3.8.6.4 2017-10-02
Report Run at: December 17, 2017 01:13 EST
"Nutrient data for: 45207164, ASSORTED CHOCOLATE TRUFFLES, UPC: 009542007201"
Food Group:  Branded Food Products Database
Common Name:

Nutrient,Unit,Data points,Std. Error,"3.0 BALLS = 36.0g",1Value per 100 g,
Proximates
"Energy",kcal,--,--,230,639
"Protein",g,--,--,2.00,5.56
"Total lipid (fat)",g,--,--,18.00,50.00
"Carbohydrate, by difference",g,--,--,15.00,41.67
"Fiber, total dietary",g,--,--,1.0,2.8
"Sugars, total",g,--,--,14.00,38.89
Minerals
"Calcium, Ca",mg,--,--,40,111
"Iron, Fe",mg,--,--,0.50,1.39
"Sodium, Na",mg,--,--,30,83
Vitamins
"Vitamin C, total ascorbic acid",mg,--,--,0.0,0.0
"Vitamin A, IU",IU,--,--,139,386
Lipids
"Fatty acids, total saturated",g,--,--,13.000,36.110
"Fatty acids, total trans",g,--,--,0.000,0.000
"Cholesterol",mg,--,--,5,14
Amino Acids
Other
Ingredients
"SUGAR, VEGETABLE OIL (COCONUT, PALM KERNEL), COCOA BUTTER, MILK, CHOCOLATE, SKIM MILK, CARAMEL PASTE (SUGAR, COCOA BUTTER, CREAM, SALT, SOY LECITHIN (EMULSIFIER)), MILKFAT, SOY LECITHIN (EMULSIFIER), BARLEY MALT POWDER, NATURAL AND ARTIFICIAL FLAVORS, SALT." Date available: 07/14/2017 Date last updated by company: 07/14/2017
