Source: USDA Branded Food Products Database Release December 2017 Software v.3.8.6.4 2017-10-02
Report Run at: December 17, 2017 01:21 EST
"Nutrient data for: 45214376, ASSORTED TOFFEE, UPC: 049022802384"
Food Group:  Branded Food Products Database
Common Name:

Nutrient,Unit,Data points,Std. Error,"8.0 PIECES = 44.0g",1Value per 100 g,
Proximates
"Energy",kcal,--,--,190,432
"Protein",g,--,--,1.00,2.27
"Total lipid (fat)",g,--,--,7.00,15.91
"Carbohydrate, by difference",g,--,--,31.00,70.45
"Fiber, total dietary",g,--,--,0.0,0.0
"Sugars, total",g,--,--,19.00,43.18
Minerals
"Calcium, Ca",mg,--,--,20,45
"Iron, Fe",mg,--,--,0.00,0.00
"Sodium, Na",mg,--,--,95,216
Vitamins
"Vitamin C, total ascorbic acid",mg,--,--,0.0,0.0
"Vitamin A, IU",IU,--,--,0,0
Lipids
"Fatty acids, total saturated",g,--,--,4.998,11.360
"Fatty acids, total trans",g,--,--,0.000,0.000
"Cholesterol",mg,--,--,0,0
Amino Acids
Other
Ingredients
"CORN SYRUP, SUGAR, WHEY POWDER, PALM OIL AND/OR PALM KERNEL OIL, CHOCOLATE LIQUOR, SWEETENED CONDENSED WHOLE MILK, MONO AND DIGLYCERIDES, NATURAL AND ARTIFICIAL FLAVORS, SALT AND SOYA LECITHIN." Date available: 07/14/2017 Date last updated by company: 07/14/2017
