Source: USDA Branded Food Products Database Release December 2017 Software v.3.8.6.4 2017-10-02
Report Run at: December 17, 2017 01:10 EST
"Nutrient data for: 45265068, ASSORTED CHOCOLATE CARAMELS, UPC: 031290111848"
Food Group:  Branded Food Products Database
Common Name:

Nutrient,Unit,Data points,Std. Error,"2.0 PIECES = 32.0g",1Value per 100 g,
Proximates
"Energy",kcal,--,--,130,406
"Protein",g,--,--,1.00,3.12
"Total lipid (fat)",g,--,--,7.00,21.88
"Carbohydrate, by difference",g,--,--,17.00,53.12
"Fiber, total dietary",g,--,--,1.0,3.1
"Sugars, total",g,--,--,14.00,43.75
Minerals
"Calcium, Ca",mg,--,--,40,125
"Iron, Fe",mg,--,--,1.13,3.52
"Sodium, Na",mg,--,--,60,188
Vitamins
"Vitamin C, total ascorbic acid",mg,--,--,0.0,0.0
"Vitamin A, IU",IU,--,--,0,0
Lipids
"Fatty acids, total saturated",g,--,--,4.998,15.620
"Fatty acids, total trans",g,--,--,0.000,0.000
"Cholesterol",mg,--,--,5,16
Amino Acids
Other
Ingredients
"SUGAR, SWEETENED CONDENSED MILK, CORN SYRUP, INVERT SUGAR, EVAPORATED MILK (VITAMIN D3), COCOA BUTTER, HEAVY CREAM, UNSWEETENED CHOCOLATE PROCESSED WITH ALKALI, PARTIALLY HYDROGENATED PALM KERNEL OIL, UNSWEETENED CHOCOLATE, SKIM MILK POWDER, BROWN SUGAR, PECANS, MILK POWDER, BUTTER OIL (MILK), BREAKFAST COCOA, EMULSIFIER (SOY LECITHIN), SALT, NATURAL FLAVOR, NATURAL FLAVOR (WALNUT)." Date available: 07/14/2017 Date last updated by company: 07/14/2017
