Source: USDA Branded Food Products Database Release December 2017 Software v.3.8.6.4 2017-10-02
Report Run at: December 17, 2017 01:14 EST
"Nutrient data for: 45102392, ASSORTED COOKIES SANDWICH CREME, UPC: 011225021657"
Food Group:  Branded Food Products Database
Common Name:

Nutrient,Unit,Data points,Std. Error,"3.0 COOKIES = 32.0g",1Value per 100 g,
Proximates
"Energy",kcal,--,--,150,469
"Protein",g,--,--,1.00,3.12
"Total lipid (fat)",g,--,--,5.00,15.62
"Carbohydrate, by difference",g,--,--,24.00,75.00
"Fiber, total dietary",g,--,--,1.0,3.1
"Sugars, total",g,--,--,11.00,34.38
Minerals
"Iron, Fe",mg,--,--,1.13,3.52
"Sodium, Na",mg,--,--,105,328
Vitamins
Lipids
"Fatty acids, total saturated",g,--,--,1.501,4.690
"Fatty acids, total trans",g,--,--,0.000,0.000
Amino Acids
Other
Ingredients
"ENRICHED FLOUR (BLEACHED WHEAT FLOUR, NIACIN, REDUCED IRON, THIAMIN MONONITRATE {VITAMIN B1}, RIBOFLAVIN {VITAMIN B2}, FOLIC ACID), SUGAR, VEGETABLE OIL (CONTAINS ONE OR MORE OF THE FOLLOWING: PALM, CANOLA, SOYBEAN WITH TBHQ FOR FRESHNESS), CORN SYRUP, DEXTROSE, CORN FLOUR, CONTAINS TWO PERCENT OR LESS OF: COCOA (PROCESSED WITH ALKALI), SALT, CORNSTARCH, BAKING SODA, SOY LECITHIN (EMULSIFIER), ARTIFICIAL COLOR (YELLOW 5, YELLOW 6), NATURAL AND ARTIFICIAL FLAVORS." Date available: 10/05/2017 Date last updated by company: 10/05/2017
