Source: USDA Branded Food Products Database Release December 2017 Software v.3.8.6.4 2017-10-02
Report Run at: December 17, 2017 01:17 EST
"Nutrient data for: 45216525, ASSORTED FRUIT GUMMI BEARS, UPC: 634418523709"
Food Group:  Branded Food Products Database
Common Name:

Nutrient,Unit,Data points,Std. Error,"12.0 PIECES = 40.0g",1Value per 100 g,
Proximates
"Energy",kcal,--,--,120,300
"Protein",g,--,--,2.00,5.00
"Total lipid (fat)",g,--,--,0.00,0.00
"Carbohydrate, by difference",g,--,--,29.00,72.50
"Fiber, total dietary",g,--,--,0.0,0.0
"Sugars, total",g,--,--,19.00,47.50
Minerals
"Calcium, Ca",mg,--,--,0,0
"Iron, Fe",mg,--,--,0.00,0.00
"Sodium, Na",mg,--,--,10,25
Vitamins
"Vitamin C, total ascorbic acid",mg,--,--,0.0,0.0
"Vitamin A, IU",IU,--,--,0,0
Lipids
"Fatty acids, total saturated",g,--,--,0.000,0.000
"Fatty acids, total trans",g,--,--,0.000,0.000
"Cholesterol",mg,--,--,0,0
Amino Acids
Other
Ingredients
"CORN SYRUP (FROM CORN), SUGAR (FROM BEETS), GELATIN, CITRIC ACID, NATURAL AND ARTIFICIAL FLAVORS, PECTIN (DERIVED FROM FRUIT), FD&C YELLOW #5, YELLOW #6, BLUE #1, RED #40, VEGETABLE OIL (COCONUT) AND CARNAUBA LEAF WAX (TO PREVENT STICKING)." Date available: 07/14/2017 Date last updated by company: 07/14/2017
