Source: USDA Branded Food Products Database Release December 2017 Software v.3.8.6.4 2017-10-02
Report Run at: December 17, 2017 01:11 EST
"Nutrient data for: 45143495, ASSORTED CHOCOLATES, UPC: 052745651948"
Food Group:  Branded Food Products Database
Common Name:

Nutrient,Unit,Data points,Std. Error,"2.0 PIECES = 32.0g",1Value per 100 g,
Proximates
"Energy",kcal,--,--,140,438
"Protein",g,--,--,1.00,3.12
"Total lipid (fat)",g,--,--,7.00,21.88
"Carbohydrate, by difference",g,--,--,20.00,62.50
"Fiber, total dietary",g,--,--,1.0,3.1
"Sugars, total",g,--,--,17.00,53.12
Minerals
"Calcium, Ca",mg,--,--,20,62
"Iron, Fe",mg,--,--,1.13,3.52
"Sodium, Na",mg,--,--,25,78
Vitamins
"Vitamin C, total ascorbic acid",mg,--,--,1.9,5.8
"Vitamin A, IU",IU,--,--,156,488
Lipids
"Fatty acids, total saturated",g,--,--,4.000,12.500
"Fatty acids, total trans",g,--,--,0.000,0.000
"Cholesterol",mg,--,--,5,16
Amino Acids
Other
Ingredients
"SUGAR, MILK CHOCOLATE (SUGAR, COCOA BUTTER, CHOCOLATE LIQUOR, MILK, SOY LECITHIN (AN EMULSIFIER) AND VANILLA), DARK CHOCOLATE (SUGAR, CHOCOLATE LIQUOR (PROCESSED WITH ALKALI), COCOA BUTTER, MILK, BUTTERFAT, SOY LECITHIN, VANILLA), WATER, CORN SYRUP, WHITE CONFECTION (SUGAR, FRACTIONATED PALM KERNEL OIL, NONFAT MILK, WHOLE MILK, PARTIALLY HYDROGENATED PALM OIL, GLYCEROL-LACTO ESTERS OF FATTY ACIDS {AN EMULSIFIER}, SOY LECITHIN, VANILLA, SALT), CHOCOLATE LIQUOR, SALTED BUTTER (CREAM, SALT), CREAM, INVERT SUGAR, ULTRA-PASTEURIZED LIGHT CREAM (MILK, CREAM, DISODIUM PHOSPHATE, SODIUM CITRATE, CARRAGEENAN), DARK CONFECTION (SUGAR, PALM KERNEL OIL, COCOA PROCESSED WITH ALKALI, LACTOSE (FROM MILK), SOY LECITHIN, SORBITAN TRISTEARATE, NATURAL VANILLA EXTRACT), TOASTED COCONUT (COCONUT, SUGAR, DEXTROSE, AND SALT), MILK CONFECTION (SUGAR, PALM KERNEL OIL, NONFAT MILK, WHOLE MILK, COCOA POWDER, HYDROGENATED PALM OIL, COCOA (PROCESSED WITH ALKALI), SORBITAN TRISTEARATE (AN EMULSIFIER), SOY LECITHIN AND NATURAL VANILLA), SWEETENED CONDENSED MILK (MILK, SUGAR, SKIM MILK), NATURAL RASPBERRY FLAVOR (WATER, SUGAR, CORN SYRUP, PROPYLENE GLYCOL, CORN STARCH MODIFIED, CITRIC ACID, FD&C NO.40 AND FD&C BLUE NO.1, POTASSIUM SORBATE AND SODIUM BENZOATE), NATURAL STRAWBERRY FLAVOR (STRAWBERRY PUREE, WATER, SUGAR, CORN SYRUP, STRAWBERRY JUICE CONCENTRATE AND OTHER FRUIT JUICE CONCENTRATES, CORN STARCH-MODIFIED, CITRIC ACID, FD&C RED NO.40 AND FD&C BLUE NO.1, POTASSIUM SORBATE AND SODIUM BENZOATE), STRAWBERRY POWDER, DEXTROSE, RASPBERRY POWDER, SALT, NATURAL AND ARTIFICIAL VANILLA FLAVOR (GLYCERINE, PROPYLENE, GLYCOL, WATER, SUGAR, CARAMEL COLOR (SULFITES), ALCOHOL, SODIUM BENZOATE AND POTASSIUM SORBATE), INVERTASE (GLYCEROL AND INVERTASE FROM SACCHAROMYCES CEREVISIAE), YELLOW COLOR (SOY LECITHIN, PROPYLENE GLYCOL AND FD&C YELLOW NO.5 LAKE), INVERTASE (FOOD ENZYME DERIVED FROM SACCHAROMYCES CEREVISIAE), AN ANTIOXIDANT (PROPYLENE GLYCOL, TBHQ, CITRIC ACID)." Date available: 07/14/2017 Date last updated by company: 07/14/2017
