Source: USDA Branded Food Products Database Release December 2017 Software v.3.8.6.4 2017-10-02
Report Run at: December 17, 2017 01:15 EST
"Nutrient data for: 45176133, ASSORTED DONUT HOLES, UPC: 077890380529"
Food Group:  Branded Food Products Database
Common Name:

Nutrient,Unit,Data points,Std. Error,"5.0 DONUT HOLES = 58.0g",1Value per 100 g,
Proximates
"Energy",kcal,--,--,250,431
"Protein",g,--,--,3.00,5.17
"Total lipid (fat)",g,--,--,13.00,22.41
"Carbohydrate, by difference",g,--,--,30.00,51.72
"Fiber, total dietary",g,--,--,1.0,1.7
"Sugars, total",g,--,--,15.00,25.86
Minerals
"Calcium, Ca",mg,--,--,20,34
"Iron, Fe",mg,--,--,1.03,1.77
"Potassium, K",mg,--,--,55,95
"Sodium, Na",mg,--,--,250,431
Vitamins
"Vitamin C, total ascorbic acid",mg,--,--,0.0,0.0
"Vitamin A, IU",IU,--,--,0,0
Lipids
"Fatty acids, total saturated",g,--,--,5.997,10.340
"Fatty acids, total trans",g,--,--,0.000,0.000
"Cholesterol",mg,--,--,5,9
Amino Acids
Other
Ingredients
"ENRICHED WHEAT FLOUR (WHEAT FLOUR, NIACIN, REDUCED IRON, THIAMIN MONONITRATE [VITAMIN B1], RIBOFLAVIN [VITAMIN B2], FOLIC ACID), DEXTROSE, PALM OIL, SUGAR, WATER, SOYBEAN OIL, CORNSTARCH, LEAVENING (BAKING SODA, SODIUM ACID PYROPHOSPHATE, MONOCALCIUM PHOSPHATE). CONTAINS 2% OR LESS OF THE FOLLOWING: NONFAT MILK, SOY FLOUR, EGG YOLK, CINNAMON, EMULSIFIERS (MONO AND DIGLYCERIDES, SOY LECITHIN), SALT, WHEAT STARCH, WHEAT GERM, NUTMEG OIL, NATURAL FLAVOR, TITANIUM DIOXIDE AND BETA CAROTENE (FOR COLOR)." Date available: 07/14/2017 Date last updated by company: 07/14/2017
