Source: USDA Branded Food Products Database Release December 2017 Software v.3.8.6.4 2017-10-02
Report Run at: December 17, 2017 01:09 EST
"Nutrient data for: 45219513, ASSORTED BAKLAVA, UPC: 855967004048"
Food Group:  Branded Food Products Database
Common Name:

Nutrient,Unit,Data points,Std. Error,"2.0 ONZ = 57.0g",1Value per 100 g,
Proximates
"Energy",kcal,--,--,230,404
"Protein",g,--,--,2.00,3.51
"Total lipid (fat)",g,--,--,11.00,19.30
"Carbohydrate, by difference",g,--,--,18.00,31.58
"Fiber, total dietary",g,--,--,1.0,1.8
"Sugars, total",g,--,--,6.00,10.53
Minerals
"Calcium, Ca",mg,--,--,20,35
"Iron, Fe",mg,--,--,0.35,0.61
"Sodium, Na",mg,--,--,25,44
Vitamins
Lipids
"Fatty acids, total saturated",g,--,--,3.500,6.140
"Fatty acids, total trans",g,--,--,0.000,0.000
"Cholesterol",mg,--,--,0,0
Amino Acids
Other
Ingredients
"WHEAT FLOUR, ALMONDS, CASHEWS, PISTACHIOS, WALNUTS, PURE VEGETABLE GHEE, WATER, SUGAR, SALT, SOY BEAN OIL, CORN STARCH, LEMON JUICE, ORANGE BLOSSOM, ROSE WATER" Date available: 10/19/2017 Date last updated by company: 10/19/2017
