Source: USDA Branded Food Products Database Release December 2017 Software v.3.8.6.4 2017-10-02
Report Run at: December 17, 2017 01:29 EST
"Nutrient data for: 45202226, ATLANTIC SALMON WITH CATALINA ISLAND SPICE RUB, UPC: 748252103314"
Food Group:  Branded Food Products Database
Common Name:

Nutrient,Unit,Data points,Std. Error,"4.0 ONZ = 110.0g",1Value per 100 g,
Proximates
"Energy",kcal,--,--,230,209
"Protein",g,--,--,24.00,21.82
"Total lipid (fat)",g,--,--,13.00,11.82
"Carbohydrate, by difference",g,--,--,2.00,1.82
"Fiber, total dietary",g,--,--,0.0,0.0
"Sugars, total",g,--,--,0.00,0.00
Minerals
"Calcium, Ca",mg,--,--,20,18
"Iron, Fe",mg,--,--,0.28,0.25
"Sodium, Na",mg,--,--,470,427
Vitamins
"Vitamin C, total ascorbic acid",mg,--,--,3.7,3.4
"Vitamin A, IU",IU,--,--,77,70
Lipids
"Fatty acids, total saturated",g,--,--,2.497,2.270
"Fatty acids, total trans",g,--,--,0.000,0.000
"Cholesterol",mg,--,--,65,59
Amino Acids
Other
Ingredients
"ATLANTIC SALMON (COLOR ADDED), SPICE BLEND (SPICES, MODIFIED CORNSTARCH, SALT, AUTOLYZED YEAST EXTRACT, DEHYDRATED ONION, OLEORESIN PAPRIKA {COLOR}, FULLY REFINED SOYBEAN OIL, WITH NO MORE THAN 2% SILICON DIOXIDE AS ANTICAKING AGENT)." Date available: 07/14/2017 Date last updated by company: 07/14/2017
