Source: USDA Branded Food Products Database Release December 2017 Software v.3.8.6.4 2017-10-02
Report Run at: December 17, 2017 01:27 EST
"Nutrient data for: 45261561, ATLANTIC COAST STUFFED CLAMS, UPC: 074331904009"
Food Group:  Branded Food Products Database
Common Name:

Nutrient,Unit,Data points,Std. Error,"1 CLAM = 85.0g",1Value per 100 g,
Proximates
"Energy",kcal,--,--,180,212
"Protein",g,--,--,6.00,7.06
"Total lipid (fat)",g,--,--,11.00,12.94
"Carbohydrate, by difference",g,--,--,15.00,17.65
"Fiber, total dietary",g,--,--,1.0,1.2
"Sugars, total",g,--,--,1.00,1.18
Minerals
"Calcium, Ca",mg,--,--,60,71
"Iron, Fe",mg,--,--,1.44,1.69
"Sodium, Na",mg,--,--,590,694
Vitamins
"Vitamin C, total ascorbic acid",mg,--,--,2.4,2.8
"Vitamin A, IU",IU,--,--,500,588
Lipids
"Fatty acids, total saturated",g,--,--,1.998,2.350
"Fatty acids, total trans",g,--,--,0.000,0.000
"Cholesterol",mg,--,--,15,18
Amino Acids
Other
Ingredients
"WATER, WHOLE MILK, MARGARINE (LIQUID AND PARTIALLY HYDROGENATED SOYBEAN OIL, WATER, SALT, VEGETABLE MONO & DIGLYCERIDES, SOY LECITHIN, SODIUM BENZOATE (PRESERVATIVE), CITRIC ACID, ARTIFICIAL BUTTER FLAVOR, BETA CAROTENE, VITAMIN A PALMITATE, CALCIUM DISDIUM EDTA ADDED TO PROTECT FLAVOR), ENRICEHD WHEAT FLOUR (ENRCHED WITH NIACIN, REDUCED IORN, THIAMINE MONONITRATE, RIBOFLAVIN, FOLIC ACID), DICED ONION, DICED CELERY, SOY PROTEIN CONCENTRATE, PASTEURIZED WHOLE EGG. COOKED MEAL, COLOR (TURMERIC AND ANNATTO EXTRACT), DOUGH CONDITIONER (ASCORBIC ACID, AZODICARBONAMIDE), CITRIC ACID, BUTTER(PASTEURIZED CREAM, SALT), DEHYDRATED POTATOES, AUTOLYZED YEAST FLAVORING, ONION POWDER, DEXTROSE, MALTODEXTRIN, DISODIUM INOSINATE AND GUANYLATE, CORN STARCH, METHYL CELLULOSE, XANTHAN GUM, GUARA GUM, PARSLEY, AUTOLYZED YEAST EXTRACT, SEA SALT, HYDROLYZED SOY PROTEIN, HYDROLYZED CORN GLUTEN, THIAMINE HYDROCHLORIDE, SODIUM ACID PYROPHOSPHATE, SODIUM BICARBONATE, CALCIUM, PHOSPHATE, CALCIUM SULFATE, SPICES, THYME." Date available: 07/14/2017 Date last updated by company: 07/14/2017
