Source: USDA Branded Food Products Database Release December 2017 Software v.3.8.6.4 2017-10-02
Report Run at: December 17, 2017 01:28 EST
"Nutrient data for: 45196347, ATLANTIC SALMON, UPC: 037071111021"
Food Group:  Branded Food Products Database
Common Name:

Nutrient,Unit,Data points,Std. Error,"4.0 ONZ = 113.0g",1Value per 100 g,
Proximates
"Energy",kcal,--,--,240,212
"Protein",g,--,--,18.00,15.93
"Total lipid (fat)",g,--,--,12.00,10.62
"Carbohydrate, by difference",g,--,--,15.00,13.27
"Fiber, total dietary",g,--,--,0.0,0.0
"Sugars, total",g,--,--,12.99,11.50
Minerals
"Calcium, Ca",mg,--,--,20,18
"Iron, Fe",mg,--,--,0.54,0.48
"Sodium, Na",mg,--,--,631,558
Vitamins
"Vitamin C, total ascorbic acid",mg,--,--,2.7,2.4
"Vitamin A, IU",IU,--,--,37,33
Lipids
"Fatty acids, total saturated",g,--,--,2.994,2.650
"Fatty acids, total trans",g,--,--,0.000,0.000
"Cholesterol",mg,--,--,50,44
Amino Acids
Other
Ingredients
"ATLANTIC SALMON (FISH), BROWN SUGAR, WATER, SPICES, DEHYDRATED ONION, SEA SALT, MALTODEXTRINE, MAPLE SUGAR, FLAVOR, NATURAL SMOKE FLAVOR." Date available: 07/14/2017 Date last updated by company: 07/14/2017
