Source: USDA Branded Food Products Database Release December 2017 Software v.3.8.6.4 2017-10-02
Report Run at: December 17, 2017 01:28 EST
"Nutrient data for: 45279856, ATLANTIC SALMON, UPC: 015292200663"
Food Group:  Branded Food Products Database
Common Name:

Nutrient,Unit,Data points,Std. Error,"5.0 ONZ = 142.0g",1Value per 100 g,
Proximates
"Energy",kcal,--,--,371,261
"Protein",g,--,--,23.00,16.20
"Total lipid (fat)",g,--,--,30.00,21.13
"Carbohydrate, by difference",g,--,--,0.99,0.70
"Fiber, total dietary",g,--,--,0.0,0.0
"Sugars, total",g,--,--,0.00,0.00
Minerals
"Calcium, Ca",mg,--,--,20,14
"Iron, Fe",mg,--,--,0.21,0.15
"Sodium, Na",mg,--,--,740,521
Vitamins
"Vitamin C, total ascorbic acid",mg,--,--,2.8,2.0
"Vitamin A, IU",IU,--,--,119,84
Lipids
"Fatty acids, total saturated",g,--,--,4.501,3.170
"Fatty acids, total trans",g,--,--,0.000,0.000
"Cholesterol",mg,--,--,60,42
Amino Acids
Other
Ingredients
"ATLANTIC SALMON (COLOR ADDED), OLIVE OIL BLEND (CANOLA OIL AND OLIVE OIL), WATER, SALT, SUGAR, SPICES, ONION POWDER, GARLIC POWDER, MALTODEXTRIN, PAPRIKA, NATURAL HICKORY SMOKE FLAVOR." Date available: 07/14/2017 Date last updated by company: 07/14/2017
