Source: USDA Branded Food Products Database Release December 2017 Software v.3.8.6.4 2017-10-02
Report Run at: December 17, 2017 01:26 EST
"Nutrient data for: 45187551, ATLANTAFRESH, GREEK YOGURT, MANGO, PINEAPPLE, HABANERO, UPC: 797734166880"
Food Group:  Branded Food Products Database
Common Name:

Nutrient,Unit,Data points,Std. Error,"1 CONTAINER = 168.0g",1Value per 100 g,
Proximates
"Energy",kcal,--,--,139,83
"Protein",g,--,--,13.99,8.33
"Total lipid (fat)",g,--,--,0.00,0.00
"Carbohydrate, by difference",g,--,--,22.01,13.10
"Lactose",g,--,--,5.01,2.98
Minerals
Vitamins
Lipids
Amino Acids
Other
Ingredients
"CULTURED PASTEURIZED NON-FAT MILK, PINEAPPLE, MANGO, PURE CANE SUGAR, BROWN SUGAR, ORANGE JUICE, GINGER, HABANERO PEPPERS, MANGO, PINEAPPLE AND GINGER EXTRACTS. LIVE AND ACTIVE CULTURES: S. THERMOPHILUS, L. BULGARICUS, L. ACIDOPHILUS, BIFIDUS." Date available: 12/14/2016 Date last updated by company: 12/14/2016
