Source: USDA Branded Food Products Database Release December 2017 Software v.3.8.6.4 2017-10-02
Report Run at: December 17, 2017 01:26 EST
"Nutrient data for: 45187558, ATLANTAFRESH, GREEK YOGURT, UPC: 797734166972"
Food Group:  Branded Food Products Database
Common Name:

Nutrient,Unit,Data points,Std. Error,"6.0 ONZ = 168.0g",1Value per 100 g,
Proximates
"Energy",kcal,--,--,91,54
"Protein",g,--,--,17.00,10.12
"Total lipid (fat)",g,--,--,0.00,0.00
"Carbohydrate, by difference",g,--,--,6.00,3.57
"Lactose",g,--,--,5.01,2.98
Minerals
Vitamins
Lipids
Amino Acids
Other
Ingredients
"CULTURED PASTEURIZED NON-FAT MILK, LIVE AND ACTIVE CULTURES: S.THERMOPHILUS, L. BULGARICUS, L. ACIDOPHILUS, BIFIDUS." Date available: 10/10/2016 Date last updated by company: 10/10/2016
