Source: USDA Branded Food Products Database Release December 2017 Software v.3.8.6.4 2017-10-02
Report Run at: December 17, 2017 01:30 EST
"Nutrient data for: 45032564, ATTITUDE FRAICHE, BABY ROMAINE MIX, UPC: 888048000318"
Food Group:  Branded Food Products Database
Common Name:

Nutrient,Unit,Data points,Std. Error,"2.5 cup = 50.0g",1Value per 100 g,
Proximates
"Energy",kcal,--,--,15,30
"Protein",g,--,--,1.00,2.00
"Total lipid (fat)",g,--,--,0.20,0.40
"Carbohydrate, by difference",g,--,--,2.00,4.00
"Fiber, total dietary",g,--,--,1.0,2.0
"Sugars, total",g,--,--,1.00,2.00
Minerals
"Calcium, Ca",mg,--,--,20,40
"Iron, Fe",mg,--,--,1.23,2.45
"Sodium, Na",mg,--,--,40,80
Vitamins
"Vitamin C, total ascorbic acid",mg,--,--,20.4,40.8
"Vitamin A, IU",IU,--,--,2550,5100
Lipids
"Fatty acids, total saturated",g,--,--,0.000,0.000
"Fatty acids, total trans",g,--,--,0.000,0.000
"Cholesterol",mg,--,--,0,0
Amino Acids
Other
Ingredients
"BABY GREEN ROMAINE, GREEN LEAF, BABY RED ROMAINE, RED LEAF, OAK LEAF, LOLLA ROSA, TANGO LEAF, INGREDIENTS MAY VARY." Date available: 07/14/2017 Date last updated by company: 07/14/2017
