Source: USDA Branded Food Products Database Release December 2017 Software v.3.8.6.4 2017-10-02
Report Run at: December 17, 2017 01:31 EST
"Nutrient data for: 45331908, AU GRATIN POTATOES & HAM, UPC: 738912022673"
Food Group:  Branded Food Products Database
Common Name:

Nutrient,Unit,Data points,Std. Error,"1 PACKAGE = 340.0g",1Value per 100 g,
Proximates
"Energy",kcal,--,--,320,94
"Protein",g,--,--,22.00,6.47
"Total lipid (fat)",g,--,--,14.99,4.41
"Carbohydrate, by difference",g,--,--,24.00,7.06
"Fiber, total dietary",g,--,--,3.1,0.9
"Sugars, total",g,--,--,2.99,0.88
Minerals
"Calcium, Ca",mg,--,--,99,29
"Iron, Fe",mg,--,--,1.02,0.30
"Sodium, Na",mg,--,--,1020,300
Vitamins
"Vitamin C, total ascorbic acid",mg,--,--,10.2,3.0
"Vitamin A, IU",IU,--,--,286,84
Lipids
"Fatty acids, total saturated",g,--,--,5.984,1.760
"Fatty acids, total trans",g,--,--,0.000,0.000
"Cholesterol",mg,--,--,71,21
Amino Acids
Other
Ingredients
"WATER, COOKED HAM, SMOKE FLAVOR ADDED (HAM, WATER, SALT, SUGAR, SODIUM PHOSPHATE, SODIUM ERYTHORBATE, NATURAL SMOKE FLAVOR, SODIUM NITRITE), ROASTED RED POTATOES, GREEN BEANS, MUSHROOMS, HALF AND HALF (MILK, CREAM), LESS THAN 2% OF PASTEURIZED PROCESS CHEESE SPREAD (AMERICAN CHEESE [PASTEURIZED MILK, CHEESE CULTURE, SALT, ENZYMES], WATER, WHEY, SODIUM PHOSPHATE, CONTAINS LESS THAN 2% OF MILKFAT, SALT, SODIUM-ALGINATE, LACTIC ACID, APOCAROTENAL [COLOR]), CHEDDAR CLUB CHEESE (CHEDDAR CHEESE [PASTEURIZED MILK, CHEESE CULTURE, SALT, ENZYMES], WATER, SALT, ANNATTO [COLOR]), MODIFIED FOOD STARCH, CANOLA OIL, CHEESE FLAVOR (CHEDDAR CHEESE [PASTEURIZED MILK, CULTURES, SALT, ENZYMES], WATER, YEAST EXTRACT, NATURAL FLAVORS, DISODIUM PHOSPHATE, XANTHAN GUM), MALTODEXTRIN, RICE WINE VINEGAR (WATER, RICE), YEAST EXTRACT, CHEESE FLAVOR (MALTODEXTRIN, NONFAT DRY MILK, MILKFAT, NATURAL FLAVOR, SALT, DISODIUM PHOSPHATE), BLUE CHEESE POWDER (BLUE CHEESE [PASTEURIZED MILK, SALT, CHEESE CULTURE, ENZYMES]), XANTHAN GUM, CHEESE FLAVOR (CHEDDAR CHEESE [MILK, CULTURES, SALT, ENZYMES], MALTODEXTRIN, WHEY POWDER, MODIFIED CORN STARCH, NATURAL FLAVOR, DISODIUM PHOSPHATE, MILKFAT), PARMESAN FLAVOR (PARMESAN CHEESE [MILK, CULTURE, SALT, ENZYMES], WATER, NONFAT DRY MILK, DISODIUM PHOSPHATE, SALT), MUSTARD FLOUR, SPICE." Date available: 10/13/2017 Date last updated by company: 10/13/2017
