Source: USDA Branded Food Products Database Release December 2017 Software v.3.8.6.4 2017-10-02
Report Run at: December 17, 2017 01:32 EST
"Nutrient data for: 45315303, AU JUS GRAVY MIX, UPC: 04656701106"
Food Group:  Branded Food Products Database
Common Name:

Nutrient,Unit,Data points,Std. Error,"0.5 tsp = 2.5g",1Value per 100 g,
Proximates
"Energy",kcal,--,--,5,200
"Protein",g,--,--,0.00,0.00
"Total lipid (fat)",g,--,--,0.00,0.00
"Carbohydrate, by difference",g,--,--,1.00,40.00
"Fiber, total dietary",g,--,--,0.0,0.0
"Sugars, total",g,--,--,0.00,0.00
Minerals
"Calcium, Ca",mg,--,--,0,0
"Iron, Fe",mg,--,--,0.00,0.00
"Sodium, Na",mg,--,--,300,12000
Vitamins
"Vitamin C, total ascorbic acid",mg,--,--,0.0,0.0
"Vitamin A, IU",IU,--,--,0,0
Lipids
"Fatty acids, total saturated",g,--,--,0.000,0.000
"Fatty acids, total trans",g,--,--,0.000,0.000
"Cholesterol",mg,--,--,0,0
Amino Acids
Other
Ingredients
"SALT, CORN STARCH, DEXTROSE, HYDROLYZED CORN AND SOY PROTEIN, AND WHEAT GLUTEN, BEEF FAT, CARAMEL COLOR, ONION, CORN SYRUP SOLIDS, GARLIC, SPICE, CELERY, SODIUM CARBOXYMETHYL CELLULOSE (THICKENER), SODIUM CASEINATE (MILK), NATURAL FLAVOR." Date available: 07/14/2017 Date last updated by company: 07/14/2017
