Source: USDA Branded Food Products Database Release December 2017 Software v.3.8.6.4 2017-10-02
Report Run at: December 17, 2017 01:31 EST
"Nutrient data for: 45004125, AUGUSTA'S, PIMENTO CHEESE, UPC: 094922851628"
Food Group:  Branded Food Products Database
Common Name:

Nutrient,Unit,Data points,Std. Error,"2.0 Tbsp = 30.0g",1Value per 100 g,
Proximates
"Energy",kcal,--,--,130,433
"Protein",g,--,--,4.00,13.33
"Total lipid (fat)",g,--,--,11.00,36.67
"Carbohydrate, by difference",g,--,--,1.00,3.33
"Fiber, total dietary",g,--,--,0.0,0.0
"Sugars, total",g,--,--,0.00,0.00
Minerals
"Calcium, Ca",mg,--,--,100,333
"Iron, Fe",mg,--,--,0.00,0.00
"Sodium, Na",mg,--,--,100,333
Vitamins
"Vitamin C, total ascorbic acid",mg,--,--,0.0,0.0
"Vitamin A, IU",IU,--,--,334,1112
Lipids
"Fatty acids, total saturated",g,--,--,3.999,13.330
"Fatty acids, total trans",g,--,--,0.000,0.000
"Cholesterol",mg,--,--,20,67
Amino Acids
Other
Ingredients
"EXTRA SHARP CHEESE (PASTEURIZED MILK, CHEESE CULTURES, SALT, ENZYMES, VEGETABLE COLOR), MAYONNAISE (SOYBEAN OIL, EGG YOLKS, WATER, DISTILLED VINEGAR, SALT, MUSTARD FLOUR), PIMENTOS, ONIONS, NATURAL FLAVORS AND SPICES." Date available: 07/14/2017 Date last updated by company: 07/14/2017
