Source: USDA Branded Food Products Database Release December 2017 Software v.3.8.6.4 2017-10-02
Report Run at: December 17, 2017 01:35 EST
"Nutrient data for: 45042640, AUNT MILLIE'S, SWIRL BREAD, CRANBERRY-APPLE, UPC: 071314059015"
Food Group:  Branded Food Products Database
Common Name:

Nutrient,Unit,Data points,Std. Error,"1 SLICE = 35.0g",1Value per 100 g,
Proximates
"Energy",kcal,--,--,100,286
"Protein",g,--,--,3.00,8.57
"Total lipid (fat)",g,--,--,1.00,2.86
"Carbohydrate, by difference",g,--,--,21.00,60.00
"Fiber, total dietary",g,--,--,1.0,2.9
"Sugars, total",g,--,--,5.00,14.29
Minerals
"Calcium, Ca",mg,--,--,20,57
"Iron, Fe",mg,--,--,1.54,4.41
"Sodium, Na",mg,--,--,140,400
Vitamins
"Vitamin C, total ascorbic acid",mg,--,--,0.0,0.0
"Thiamin",mg,--,--,0.350,1.000
"Riboflavin",mg,--,--,0.136,0.389
"Niacin",mg,--,--,2.858,8.166
"Vitamin A, IU",IU,--,--,0,0
Lipids
"Fatty acids, total saturated",g,--,--,0.000,0.000
"Fatty acids, total monounsaturated",g,--,--,0.000,0.000
"Fatty acids, total polyunsaturated",g,--,--,0.000,0.000
"Fatty acids, total trans",g,--,--,0.000,0.000
"Cholesterol",mg,--,--,0,0
Amino Acids
Other
Ingredients
"ENRICHED UNBLEACHED FLOUR [WHEAT FLOUR, MALTED BARLEY FLOUR, REDUCED IRON, THIAMINE MONONITRATE (VITAMIN B1), RIBOFLAVIN (VITAMIN B2), NIACIN (VITAMIN B3) FOLIC ACID], WATER, DRIED CRANBERRIES, BROWN SUGAR, YEAST, SOYBEAN OIL, CANOLA OIL, WHEAT GLUTEN, CINNAMON, DRIED APPLES, SALT, WHEAT STARCH, CALCIUM,PROPIONATE (A PRESERVATIVE), SODIUM STEAROYL LACTYLATE, NATURAL ARTIFICIAL FLAVOR, CALCIUM SULFATE, CARAMEL COLOR, GUAR GUM, CITRIC ACID, ASCORBIC ACID, SOY LECITHIN." Date available: 07/14/2017 Date last updated by company: 07/14/2017
