Source: USDA Branded Food Products Database Release December 2017 Software v.3.8.6.4 2017-10-02
Report Run at: December 17, 2017 01:33 EST
"Nutrient data for: 45122356, AUNT JEMIMA, GRIDDLE POPPERS, GRIDDLE PUFFS, VERY BERRY, UPC: 019600055556"
Food Group:  Branded Food Products Database
Common Name:

Nutrient,Unit,Data points,Std. Error,"7.0 POPPERS = 60.0g",1Value per 100 g,
Proximates
"Energy",kcal,--,--,200,333
"Protein",g,--,--,3.00,5.00
"Total lipid (fat)",g,--,--,10.00,16.67
"Carbohydrate, by difference",g,--,--,23.00,38.33
"Fiber, total dietary",g,--,--,1.0,1.7
"Sugars, total",g,--,--,9.00,15.00
Minerals
"Calcium, Ca",mg,--,--,20,33
"Iron, Fe",mg,--,--,0.00,0.00
"Sodium, Na",mg,--,--,270,450
Vitamins
"Vitamin C, total ascorbic acid",mg,--,--,0.0,0.0
"Vitamin A, IU",IU,--,--,0,0
Lipids
"Fatty acids, total saturated",g,--,--,1.002,1.670
"Fatty acids, total trans",g,--,--,0.000,0.000
"Cholesterol",mg,--,--,20,33
Amino Acids
Other
Ingredients
"WHEAT FLOUR, WATER, VEGETABLE OIL (CANOLA, COCONUT), EGG, CRANBERRIES (CRANBERRIES, SUGAR, SUNFLOWER OIL), SUGAR, SKIM MILK POWDER, LEAVENING AGENTS (BAKING SODA, SODIUM ACID PYROPHOSPHATE), EGG WHITE POWDER, SALT, CITRIC ACID, SUNFLOWER LECITHIN, NATURAL FLAVORING (NATURAL FLAVORING, WHEAT STARCH), XANTHAN GUM." Date available: 08/14/2017 Date last updated by company: 08/14/2017
