Source: USDA Branded Food Products Database Release December 2017 Software v.3.8.6.4 2017-10-02
Report Run at: December 17, 2017 01:33 EST
"Nutrient data for: 45122697, AUNT JEMIMA, BLUEBERRY WAFFLES, BLUEBERRY, UPC: 019600062202"
Food Group:  Branded Food Products Database
Common Name:

Nutrient,Unit,Data points,Std. Error,"2.0 WAFFLES = 70.0g",1Value per 100 g,
Proximates
"Energy",kcal,--,--,180,257
"Protein",g,--,--,4.00,5.71
"Total lipid (fat)",g,--,--,5.00,7.14
"Carbohydrate, by difference",g,--,--,29.00,41.43
"Fiber, total dietary",g,--,--,1.0,1.4
"Sugars, total",g,--,--,5.00,7.14
Minerals
"Calcium, Ca",mg,--,--,80,114
"Iron, Fe",mg,--,--,1.75,2.50
"Phosphorus, P",mg,--,--,182,260
"Potassium, K",mg,--,--,75,107
"Sodium, Na",mg,--,--,330,471
Vitamins
"Vitamin C, total ascorbic acid",mg,--,--,0.0,0.0
"Thiamin",mg,--,--,0.000,0.000
"Riboflavin",mg,--,--,0.170,0.243
"Niacin",mg,--,--,2.428,3.469
"Vitamin A, IU",IU,--,--,0,0
Lipids
"Fatty acids, total saturated",g,--,--,1.001,1.430
"Fatty acids, total trans",g,--,--,0.000,0.000
"Cholesterol",mg,--,--,5,7
Amino Acids
Other
Ingredients
"ENRICHED WHEAT FLOUR (FLOUR, NIACIN [VITAMIN B3], REDUCED IRON, THIAMIN MONONITRATE [VITAMIN B1], RIBOFLAVIN [VITAMIN B2], FOLIC ACID [VITAMIN B9], WATER, WHEY, SOYBEAN OIL, BLUEBERRY BITS (SUGAR, DEXTROSE, SOYBEAN OIL, SOY PROTEIN, DRIED BLUEBERRIES, NATURAL FLAVOR, CELLULOSE GUM, SALT, CARROT JUICE EXTRACT [COLOR], BLUEBERRY EXTRACT [COLOR], SUGAR. CONTAINS 2% OR LESS OF: BAKING POWDER (SODIUM ACID PYROPHOSPHATE, BAKING SODA, WHOLE EGGS, CALCIUM CHLORIDE, SALT, NATURAL, FLAVOR, ANNATTO EXTRACT (COLOR), SOY FLOUR, SOY LECITHIN." Date available: 06/25/2017 Date last updated by company: 06/25/2017
