Source: USDA Branded Food Products Database Release December 2017 Software v.3.8.6.4 2017-10-02
Report Run at: December 17, 2017 01:37 EST
"Nutrient data for: 45229950, AUSSIE STYLE YOGURT, FRUIT ON THE BOTTOM, UPC: 075450229301"
Food Group:  Branded Food Products Database
Common Name:

Nutrient,Unit,Data points,Std. Error,"1 CONTAINER = 227.0g",1Value per 100 g,
Proximates
"Energy",kcal,--,--,279,123
"Protein",g,--,--,14.01,6.17
"Total lipid (fat)",g,--,--,11.01,4.85
"Carbohydrate, by difference",g,--,--,33.01,14.54
"Fiber, total dietary",g,--,--,0.9,0.4
"Sugars, total",g,--,--,32.01,14.10
Minerals
"Calcium, Ca",mg,--,--,449,198
"Iron, Fe",mg,--,--,0.00,0.00
"Potassium, K",mg,--,--,320,141
"Sodium, Na",mg,--,--,104,46
Vitamins
"Vitamin C, total ascorbic acid",mg,--,--,1.8,0.8
"Vitamin A, IU",IU,--,--,300,132
"Vitamin D",IU,--,--,16,7
Lipids
"Fatty acids, total saturated",g,--,--,6.992,3.080
"Fatty acids, total trans",g,--,--,0.000,0.000
"Cholesterol",mg,--,--,41,18
Amino Acids
Other
Ingredients
"CULTURED PASTEURIZED GRADE A MILK, CANE SUGAR, RASPBERRIES, WATER, CREAM, MILK PROTEIN ISOLATE, ORGANIC HONEY, PECTIN, KOSHER GELATIN, CALCIUM CHLORIDE, CAROB BEAN GUM, FRUIT AND VEGETABLE JUICE (COLOR), LEMON JUICE CONCENTRATE, NATURAL FLAVOR, AGAR. CONTAINS LIVE AND ACTIVE CULTURES (S. THERMOPHILUS, L. BULGARICUS, L. CASEI, L. ACIDOPHILUS, B. LACTIC, LACTOBACILLUS LACTIS)" Date available: 07/14/2017 Date last updated by company: 07/14/2017
