Source: USDA Branded Food Products Database Release December 2017 Software v.3.8.6.4 2017-10-02
Report Run at: December 17, 2017 01:41 EST
"Nutrient data for: 45264081, AUTHENTIC FLOUR TORTILLAS, UPC: 036035000609"
Food Group:  Branded Food Products Database
Common Name:

Nutrient,Unit,Data points,Std. Error,"1 TORTILLA = 31.0g",1Value per 100 g,
Proximates
"Energy",kcal,--,--,110,355
"Protein",g,--,--,3.00,9.68
"Total lipid (fat)",g,--,--,2.50,8.06
"Carbohydrate, by difference",g,--,--,19.00,61.29
"Fiber, total dietary",g,--,--,1.0,3.2
"Sugars, total",g,--,--,1.00,3.23
Minerals
"Calcium, Ca",mg,--,--,0,0
"Iron, Fe",mg,--,--,1.92,6.18
"Sodium, Na",mg,--,--,280,903
Vitamins
"Vitamin C, total ascorbic acid",mg,--,--,0.0,0.0
"Vitamin A, IU",IU,--,--,0,0
Lipids
"Fatty acids, total saturated",g,--,--,1.001,3.230
"Fatty acids, total trans",g,--,--,0.000,0.000
"Cholesterol",mg,--,--,0,0
Amino Acids
Other
Ingredients
"ENRICHED FLOUR (BLEACHED WHAT FLOUR, NIACIN, REDUCED IRON, THIAMINE MONONITRATE, RIBOFLAVIN, FOLIC ACID), WATER, VEGETABLE SHORTENING (SOYBEAN OIL AND COTTONSEED OIL, VEGETABLE MONO & DIGLYCERIDES, CITRIC ACID), LEAVENING, (SODIUM BICARBONATE, CORN STARCH, SODIUM ALUMINUM SULFATE, CALCIUM SULFATE, MONOCALCIUM PHOSPHATE), SALT, DEXTROSE, SORBIC ACID, SODIUM PROPIONATE, (TO PRESERVE FRESHNESS), CELLULOSE GUM, GUAR GUM, XANTHAN GUM, FUMARIC ACID, AND DOUGH CONDITIONER (SODIUM METABISULFITE)" Date available: 07/14/2017 Date last updated by company: 07/14/2017
