Source: USDA Branded Food Products Database Release December 2017 Software v.3.8.6.4 2017-10-02
Report Run at: December 17, 2017 02:02 EST
"Nutrient data for: 45195160, AUTHENTIC ITALIAN SOUP, UPC: 033150001160"
Food Group:  Branded Food Products Database
Common Name:

Nutrient,Unit,Data points,Std. Error,"1 cup = 253.0g",1Value per 100 g,
Proximates
"Energy",kcal,--,--,149,59
"Protein",g,--,--,4.00,1.58
"Total lipid (fat)",g,--,--,4.50,1.78
"Carbohydrate, by difference",g,--,--,23.00,9.09
"Fiber, total dietary",g,--,--,6.1,2.4
"Sugars, total",g,--,--,11.01,4.35
Minerals
"Calcium, Ca",mg,--,--,101,40
"Iron, Fe",mg,--,--,5.24,2.07
"Sodium, Na",mg,--,--,539,213
Vitamins
"Vitamin C, total ascorbic acid",mg,--,--,23.3,9.2
"Vitamin A, IU",IU,--,--,1209,478
Lipids
"Fatty acids, total saturated",g,--,--,0.506,0.200
"Fatty acids, total trans",g,--,--,0.000,0.000
"Cholesterol",mg,--,--,0,0
Amino Acids
Other
Ingredients
"PULP OF TOMATOES (TOMATOES, CITRIC ACID), WATER, ONION, EXTRA VIRGIN , OLIVE OIL, BASIL, GARLIC, SEA SALT, RICE SYRUP FROM ORGANIC FARMING, BLACK PEPPER" Date available: 07/14/2017 Date last updated by company: 07/14/2017
