Source: USDA Branded Food Products Database Release December 2017 Software v.3.8.6.4 2017-10-02
Report Run at: December 17, 2017 01:40 EST
"Nutrient data for: 45187984, AUTHENTIC BELGIAN CUISINE WAFFLES, UPC: 857554003649"
Food Group:  Branded Food Products Database
Common Name:

Nutrient,Unit,Data points,Std. Error,"1 WAFFLE = 80.0g",1Value per 100 g,
Proximates
"Energy",kcal,--,--,224,280
"Protein",g,--,--,5.00,6.25
"Total lipid (fat)",g,--,--,9.00,11.25
"Carbohydrate, by difference",g,--,--,30.00,37.50
"Fiber, total dietary",g,--,--,1.0,1.2
"Sugars, total",g,--,--,7.00,8.75
Minerals
"Calcium, Ca",mg,--,--,40,50
"Iron, Fe",mg,--,--,0.95,1.19
"Sodium, Na",mg,--,--,234,292
Vitamins
"Vitamin C, total ascorbic acid",mg,--,--,0.0,0.0
"Vitamin A, IU",IU,--,--,0,0
Lipids
"Fatty acids, total saturated",g,--,--,6.000,7.500
"Fatty acids, total trans",g,--,--,0.000,0.000
"Cholesterol",mg,--,--,16,20
Amino Acids
Other
Ingredients
"WAFFLE: WHEAT FLOUR (WHEAT FLOUR, MALT FLOUR, MONO-DIGLYCERIDES, ASCORBIC ACID, ENZYMES), WATER, VEGETABLE OIL EMULSION (VEGETABLE OIL {PALM OIL}, WATER, SALT, EMULSIFIERS {LECITHINS, MONO-DIGLYCERIDES), CITRIC ACID, NATURAL FLAVORING, COLOR {CAROTENES}), BUTTER (PASTEURIZED CREAM, BETA CAROTENES {COLOR}), EGGS, SUGAR, YEAST, WHOLE MILK POWDER, SALT. CHOCOLATE FILLING: WHOLE MILK, SUGAR, CORNSTARCH-MODIFIED, VEGETABLE FAT (COCONUT OIL), 80% CHOCOLATE (COCOA MASS, SUGAR, LOW FAT COCOA POWDER, EMULSIFIERS {SOY LECITHIN}, GELATIN, COLOR (BETA CAROTENES})." Date available: 07/14/2017 Date last updated by company: 07/14/2017
