Source: USDA Branded Food Products Database Release December 2017 Software v.3.8.6.4 2017-10-02
Report Run at: December 17, 2017 02:04 EST
"Nutrient data for: 45254414, AUTHENTIC SPREADABLE PUB CHEESE, UPC: 070153290443"
Food Group:  Branded Food Products Database
Common Name:

Nutrient,Unit,Data points,Std. Error,"2.0 Tbsp = 23.0g",1Value per 100 g,
Proximates
"Energy",kcal,--,--,80,348
"Protein",g,--,--,2.00,8.70
"Total lipid (fat)",g,--,--,7.00,30.43
"Carbohydrate, by difference",g,--,--,1.00,4.35
"Fiber, total dietary",g,--,--,0.0,0.0
"Sugars, total",g,--,--,1.00,4.35
Minerals
"Calcium, Ca",mg,--,--,60,261
"Iron, Fe",mg,--,--,0.00,0.00
"Sodium, Na",mg,--,--,150,652
Vitamins
"Vitamin C, total ascorbic acid",mg,--,--,0.0,0.0
"Vitamin A, IU",IU,--,--,218,946
Lipids
"Fatty acids, total saturated",g,--,--,4.501,19.570
"Fatty acids, total trans",g,--,--,0.000,0.000
"Cholesterol",mg,--,--,25,109
Amino Acids
Other
Ingredients
"CULTURED PASTEURIZED MILK AND CREAM, CHEDDAR CHEESE (CULTURED PASTEURIZED MILK, SALT, MICROBIAL ENZYMES), PORT WINE, SKIM MILK, SALT, LOCUST BEAN AND GUAR GUMS (STABILIZERS), SORBIC ACID (TO PROTECT FLAVOR), COLOR ADDED INCLUDING APOCAROTENAL, RED #40, CARMINE AND BLUE #2." Date available: 07/14/2017 Date last updated by company: 07/14/2017
