Source: USDA Branded Food Products Database Release December 2017 Software v.3.8.6.4 2017-10-02
Report Run at: December 17, 2017 02:05 EST
"Nutrient data for: 45214127, AUTUMN MIX CANDY, UPC: 041420550812"
Food Group:  Branded Food Products Database
Common Name:

Nutrient,Unit,Data points,Std. Error,"15.0 PIECES = 41.0g",1Value per 100 g,
Proximates
"Energy",kcal,--,--,150,366
"Protein",g,--,--,0.00,0.00
"Total lipid (fat)",g,--,--,0.00,0.00
"Carbohydrate, by difference",g,--,--,37.00,90.24
"Fiber, total dietary",g,--,--,0.0,0.0
"Sugars, total",g,--,--,29.00,70.73
Minerals
"Calcium, Ca",mg,--,--,0,0
"Iron, Fe",mg,--,--,0.00,0.00
"Sodium, Na",mg,--,--,75,183
Vitamins
"Vitamin C, total ascorbic acid",mg,--,--,0.0,0.0
"Vitamin A, IU",IU,--,--,0,0
Lipids
"Fatty acids, total saturated",g,--,--,0.000,0.000
"Fatty acids, total trans",g,--,--,0.000,0.000
"Cholesterol",mg,--,--,0,0
Amino Acids
Other
Ingredients
"SUGAR, CORN SYRUP, CONFECTIONER'S GLAZE, SALT, COCOA POWDER, HYDROGENATED PALM KERNEL OIL, GELATIN, DEXTROSE, HONEY, ARTIFICIAL FLAVOR, SESAME OIL, YELLOW 6, YELLOW 5, RED 3, SOY LECITHIN, BLUE 1, RED 40." Date available: 07/14/2017 Date last updated by company: 07/14/2017
