Source: USDA Branded Food Products Database Release December 2017 Software v.3.8.6.4 2017-10-02
Report Run at: December 17, 2017 02:06 EST
"Nutrient data for: 45333197, AUTUMN TAFFY, UPC: 618650192473"
Food Group:  Branded Food Products Database
Common Name:

Nutrient,Unit,Data points,Std. Error,"6.0 PIECES = 40.0g",1Value per 100 g,
Proximates
"Energy",kcal,--,--,150,375
"Protein",g,--,--,0.00,0.00
"Total lipid (fat)",g,--,--,3.00,7.50
"Carbohydrate, by difference",g,--,--,32.00,80.00
"Fiber, total dietary",g,--,--,0.0,0.0
"Sugars, total",g,--,--,19.00,47.50
Minerals
"Calcium, Ca",mg,--,--,0,0
"Iron, Fe",mg,--,--,0.00,0.00
"Sodium, Na",mg,--,--,120,300
Vitamins
"Vitamin C, total ascorbic acid",mg,--,--,0.0,0.0
"Vitamin A, IU",IU,--,--,0,0
Lipids
"Fatty acids, total saturated",g,--,--,2.500,6.250
"Fatty acids, total trans",g,--,--,0.000,0.000
"Cholesterol",mg,--,--,0,0
Amino Acids
Other
Ingredients
"CORN SYRUP, SUGAR, VEGETABLE OIL (PALM KERNEL OIL, AND/OR PARTIALLY HYDROGENATED COCONUT OIL, OR PARTIALLY HYDROGENATED SOYBEAN OIL), EGG ALBUMIN, CITRIC AND/OR MALIC ACID, COCOA, SALT, SOY LECITHIN (AN EMULSIFIER), NATURAL AND ARTIFICIAL FLAVORS, COMBINATIONS OF FD&C (RED #3, RED #40, BLUE #1, BLUE #2, YELLOW #5, YELLOW #6)." Date available: 10/13/2017 Date last updated by company: 10/13/2017
