Source: USDA Branded Food Products Database Release December 2017 Software v.3.8.6.4 2017-10-02
Report Run at: December 17, 2017 02:07 EST
"Nutrient data for: 45257894, AVOCADO HOT SAUCE, UPC: 702168656708"
Food Group:  Branded Food Products Database
Common Name:

Nutrient,Unit,Data points,Std. Error,"1 tsp = 5.0g",1Value per 100 g,
Proximates
"Energy",kcal,--,--,5,100
"Protein",g,--,--,0.00,0.00
"Total lipid (fat)",g,--,--,0.00,0.00
"Carbohydrate, by difference",g,--,--,0.00,0.00
"Fiber, total dietary",g,--,--,0.0,0.0
"Sugars, total",g,--,--,0.00,0.00
Minerals
"Calcium, Ca",mg,--,--,0,0
"Iron, Fe",mg,--,--,0.00,0.00
"Sodium, Na",mg,--,--,15,300
Vitamins
"Vitamin C, total ascorbic acid",mg,--,--,24.4,487.0
"Vitamin A, IU",IU,--,--,0,0
Lipids
"Fatty acids, total saturated",g,--,--,0.000,0.000
"Fatty acids, total trans",g,--,--,0.000,0.000
"Cholesterol",mg,--,--,0,0
Amino Acids
Other
Ingredients
"DISTILLED VINEGAR, WATER, JALAPENOS, AVOCADO, ONION, DICED TOMATOES (TOMATOES, TOMATO JUICE, CITRIC ACID, CALCIUM CHLORIDE), SOYBEAN OIL, CILANTRO, SALT, GARLIC, LIME JUICE CONCENTRATE, TAPIOCA STARCH, ASCORBIC ACID, BIRDS EYE CHILI POWDER, LIME OIL." Date available: 07/14/2017 Date last updated by company: 07/14/2017
