Source: USDA Branded Food Products Database Release December 2017 Software v.3.8.6.4 2017-10-02
Report Run at: December 17, 2017 02:10 EST
"Nutrient data for: 45206372, AWESOME FOODS, PISTACHIOS STICK, UPC: 898667002211"
Food Group:  Branded Food Products Database
Common Name:

Nutrient,Unit,Data points,Std. Error,"35.5 GRM = 35.5g",1Value per 100 g,
Proximates
"Energy",kcal,--,--,310,873
"Protein",g,--,--,13.00,36.62
"Total lipid (fat)",g,--,--,25.00,70.42
"Carbohydrate, by difference",g,--,--,14.00,39.44
"Fiber, total dietary",g,--,--,2.0,5.6
"Sugars, total",g,--,--,3.00,8.45
Minerals
"Calcium, Ca",mg,--,--,40,113
"Iron, Fe",mg,--,--,5.07,14.28
"Sodium, Na",mg,--,--,40,113
Vitamins
"Vitamin C, total ascorbic acid",mg,--,--,3.4,9.5
"Vitamin A, IU",IU,--,--,0,0
Lipids
"Fatty acids, total saturated",g,--,--,4.001,11.270
"Fatty acids, total trans",g,--,--,0.000,0.000
"Cholesterol",mg,--,--,0,0
Amino Acids
Other
Ingredients
"PISTACHIOS * FILTERED WATER, FESH LEMON JUICE* DILL* PARSLEY GRANULATED ONION * GRANULATED GARLIC* BLACK PEPPER* HIMALAYAN CRYSTAL SALT ORGANIC" Date available: 08/28/2017 Date last updated by company: 08/28/2017
