Source: USDA Branded Food Products Database Release December 2017 Software v.3.8.6.4 2017-10-02
Report Run at: December 17, 2017 04:54 EST
"Nutrient data for: 45032817, AXELROD, FAT FREE YOGURT, MIXED BERRY, UPC: 071700448829"
Food Group:  Branded Food Products Database
Common Name:

Nutrient,Unit,Data points,Std. Error,"1 CONTAINER = 170.0g",1Value per 100 g,
Proximates
"Energy",kcal,--,--,90,53
"Protein",g,--,--,6.00,3.53
"Total lipid (fat)",g,--,--,0.00,0.00
"Carbohydrate, by difference",g,--,--,17.00,10.00
"Fiber, total dietary",g,--,--,0.0,0.0
"Sugars, total",g,--,--,12.00,7.06
Minerals
"Calcium, Ca",mg,--,--,201,118
"Iron, Fe",mg,--,--,0.00,0.00
"Potassium, K",mg,--,--,270,159
"Sodium, Na",mg,--,--,100,59
Vitamins
"Vitamin C, total ascorbic acid",mg,--,--,0.0,0.0
"Vitamin A, IU",IU,--,--,0,0
Lipids
"Fatty acids, total saturated",g,--,--,0.000,0.000
"Fatty acids, total trans",g,--,--,0.000,0.000
"Cholesterol",mg,--,--,5,3
Amino Acids
Other
Ingredients
"CULTURED PASTEURIZED NONFAT MILK, WHEY PROTEIN CONCENTRATE, MODIFIED CORN STARCH, FRUCTOSE, BLUEBERRIES, RASPBERRIES, BLACKBERRIES, WHEY, NATURAL FLAVORS, CARRAGEENAN, PECTIN, ASPARTAME*, CITRIC ACID, POTASSIUM SORBATE (TO PRESERVE FRESHNESS), RED 40 AND BLUE 1." Date available: 07/14/2017 Date last updated by company: 07/14/2017
