Source: USDA Branded Food Products Database Release December 2017 Software v.3.8.6.4 2017-10-02
Report Run at: December 17, 2017 04:55 EST
"Nutrient data for: 45189713, AZUCAR BAKERY, DULCE DE LECHE ALFAJOR COOKIES, UPC: 859369004002"
Food Group:  Branded Food Products Database
Common Name:

Nutrient,Unit,Data points,Std. Error,"1 EACH = 17.0g",1Value per 100 g,
Proximates
"Energy",kcal,--,--,90,529
"Protein",g,--,--,1.00,5.88
"Total lipid (fat)",g,--,--,6.00,35.29
"Carbohydrate, by difference",g,--,--,8.00,47.06
"Fiber, total dietary",g,--,--,0.0,0.0
"Sugars, total",g,--,--,4.00,23.53
Minerals
"Calcium, Ca",mg,--,--,0,0
"Iron, Fe",mg,--,--,0.00,0.00
"Sodium, Na",mg,--,--,65,382
Vitamins
"Vitamin C, total ascorbic acid",mg,--,--,0.0,0.0
"Vitamin A, IU",IU,--,--,6617,38926
Lipids
"Fatty acids, total saturated",g,--,--,1.499,8.820
"Fatty acids, total trans",g,--,--,0.000,0.000
"Cholesterol",mg,--,--,0,0
Amino Acids
Other
Ingredients
"UNBLEACHED FLOUR, CORNSTARCH, POWDER SUGAR, MILK, VEGETABLE OIL BLEND." Date available: 07/14/2017 Date last updated by company: 07/14/2017
