Source: USDA Branded Food Products Database Release December 2017 Software v.3.8.6.4 2017-10-02
Report Run at: December 17, 2017 00:34 EST
"Nutrient data for: 45254374, B.B. BAKERY, CINNAMON BREAD, UPC: 071052051050"
Food Group:  Branded Food Products Database
Common Name:

Nutrient,Unit,Data points,Std. Error,"1 SLICE = 58.0g",1Value per 100 g,
Proximates
"Energy",kcal,--,--,140,241
"Protein",g,--,--,5.00,8.62
"Total lipid (fat)",g,--,--,3.00,5.17
"Carbohydrate, by difference",g,--,--,26.00,44.83
"Fiber, total dietary",g,--,--,2.0,3.4
"Sugars, total",g,--,--,5.00,8.62
Minerals
"Calcium, Ca",mg,--,--,14,24
"Iron, Fe",mg,--,--,1.00,1.72
"Potassium, K",mg,--,--,100,172
"Sodium, Na",mg,--,--,115,198
Vitamins
"Vitamin D",IU,--,--,0,0
Lipids
"Fatty acids, total saturated",g,--,--,0.000,0.000
"Fatty acids, total trans",g,--,--,0.000,0.000
"Cholesterol",mg,--,--,5,9
Amino Acids
Other
Ingredients
"ENRICHED FLOUR [WHEAT FLOUR, MALTED BARLEY FLOUR, NIACIN (A B VITAMIN), IRON, ASCORBIC ACID (VITAMIN C), VITAMIN B1, RIBOFLAVIN (B2), FOLIC ACID], WATER, WHOLE WHEAT FLOUR, MULTI-GRAIN FLOUR, BRAN, SUGAR, CINNAMON, SOYBEAN OIL AND/OR CANOLA OIL, VITAL WHEAT GLUTEN, DRIED WHOLE EGG, SALT, CULTURED WHEAT FLOUR, YEAST, COLORS (TURMERIC, PAPRIKA), NATURAL ENZYMES" Date available: 10/19/2017 Date last updated by company: 10/19/2017
