Source: USDA Branded Food Products Database Release December 2017 Software v.3.8.6.4 2017-10-02
Report Run at: December 17, 2017 13:23 EST
"Nutrient data for: 45139778, B&M, ORIGINAL BAKED BEANS, UPC: 047800330494"
Food Group:  Branded Food Products Database
Common Name:

Nutrient,Unit,Data points,Std. Error,"0.5 cup = 131.0g",1Value per 100 g,
Proximates
"Energy",kcal,--,--,160,122
"Protein",g,--,--,7.00,5.34
"Total lipid (fat)",g,--,--,1.00,0.76
"Carbohydrate, by difference",g,--,--,30.00,22.90
"Fiber, total dietary",g,--,--,8.0,6.1
"Sugars, total",g,--,--,9.00,6.87
Minerals
"Calcium, Ca",mg,--,--,60,46
"Iron, Fe",mg,--,--,2.69,2.05
"Sodium, Na",mg,--,--,390,298
Vitamins
"Vitamin C, total ascorbic acid",mg,--,--,0.0,0.0
"Vitamin A, IU",IU,--,--,0,0
Lipids
"Fatty acids, total saturated",g,--,--,0.498,0.380
"Fatty acids, total trans",g,--,--,0.000,0.000
"Cholesterol",mg,--,--,5,4
Amino Acids
Other
Ingredients
"BAKED SMALL PEA BEANS WITH PORK IN SAUCE CONTAINING WATER, SUGAR, MOLASSES, SALT, DEHYDRATED ONION AND GARLIC, DEXTROSE, SPICE, NATURAL FLAVORS, MUSTARD FLOUR." Date available: 07/14/2017 Date last updated by company: 07/14/2017
