Source: USDA Branded Food Products Database Release December 2017 Software v.3.8.6.4 2017-10-02
Report Run at: December 18, 2017 20:55 EST
"Nutrient data for: 45098156, B.T. MCELRATH, BUTTERED TOAST CHOCOLATE BAR, UPC: 693868500210"
Food Group:  Branded Food Products Database
Common Name:

Nutrient,Unit,Data points,Std. Error,"0.5 BAR = 43.0g",1Value per 100 g,
Proximates
"Energy",kcal,--,--,240,558
"Protein",g,--,--,3.00,6.98
"Total lipid (fat)",g,--,--,14.00,32.56
"Carbohydrate, by difference",g,--,--,24.00,55.81
"Fiber, total dietary",g,--,--,1.0,2.3
"Sugars, total",g,--,--,19.00,44.19
Minerals
"Calcium, Ca",mg,--,--,60,140
"Iron, Fe",mg,--,--,1.26,2.92
"Sodium, Na",mg,--,--,65,151
Vitamins
"Vitamin C, total ascorbic acid",mg,--,--,0.0,0.0
"Vitamin A, IU",IU,--,--,0,0
Lipids
"Fatty acids, total saturated",g,--,--,9.000,20.930
"Fatty acids, total trans",g,--,--,0.000,0.000
"Cholesterol",mg,--,--,10,23
Amino Acids
Other
Ingredients
"MILK CHOCOLATE (PURE CANE SUGAR, FULL CREAM MILK, COCOA BUTTER CACAO BEANS, SOYA LECITHIN, VANILLA BEANS), SOURDOUGH BREAD (ENRICHED WHEAT FLOUR, SEA SALT, MALT, YEAST), TURBINADO SUGAR, SALTED BUTTER, NATURAL FLAVOR." Date available: 07/14/2017 Date last updated by company: 07/14/2017
