Source: USDA Branded Food Products Database Release December 2017 Software v.3.8.6.4 2017-10-02
Report Run at: December 17, 2017 05:02 EST
"Nutrient data for: 45271638, BABY RUTH BAR, UPC: 028000848262"
Food Group:  Branded Food Products Database
Common Name:

Nutrient,Unit,Data points,Std. Error,"2.0 BARS = 37.0g",1Value per 100 g,
Proximates
"Energy",kcal,--,--,170,459
"Protein",g,--,--,2.00,5.41
"Total lipid (fat)",g,--,--,8.00,21.62
"Carbohydrate, by difference",g,--,--,24.00,64.86
"Fiber, total dietary",g,--,--,1.0,2.7
"Sugars, total",g,--,--,20.00,54.05
Minerals
"Calcium, Ca",mg,--,--,20,54
"Iron, Fe",mg,--,--,0.00,0.00
"Sodium, Na",mg,--,--,85,230
Vitamins
"Vitamin C, total ascorbic acid",mg,--,--,0.0,0.0
"Vitamin A, IU",IU,--,--,0,0
Lipids
"Fatty acids, total saturated",g,--,--,4.499,12.160
"Fatty acids, total trans",g,--,--,0.000,0.000
"Cholesterol",mg,--,--,0,0
Amino Acids
Other
Ingredients
"SUGAR, ROASTED PEANUTS, CORN SYRUP, HYDROGENATED PALM KERNEL AND COCONUT OIL, NONFAT MILK, COCOA, HIGH FRUCTOSE CORN SYRUP, GLYCERIN, AND LESS THAN 1% OF DEXTROSE, DAIRY PRODUCT SOLIDS, SALT, SOY LECITHIN, SOYBEAN OIL, CARRAGEENAN, TBHQ AND CITRIC ACID (TO PRESERVED FRESHNESS), LACTIC ACID ESTERS." Date available: 07/14/2017 Date last updated by company: 07/14/2017
