Source: USDA Branded Food Products Database Release December 2017 Software v.3.8.6.4 2017-10-02
Report Run at: December 17, 2017 04:59 EST
"Nutrient data for: 45292932, BABY CLAMS SMOKED - IN OIL, UPC: 073230000638"
Food Group:  Branded Food Products Database
Common Name:

Nutrient,Unit,Data points,Std. Error,"0.33 cup = 47.0g",1Value per 100 g,
Proximates
"Energy",kcal,--,--,90,191
"Protein",g,--,--,10.00,21.28
"Total lipid (fat)",g,--,--,5.00,10.64
"Carbohydrate, by difference",g,--,--,2.00,4.26
"Fiber, total dietary",g,--,--,2.0,4.3
"Sugars, total",g,--,--,0.00,0.00
Minerals
"Calcium, Ca",mg,--,--,40,85
"Iron, Fe",mg,--,--,19.53,41.56
"Sodium, Na",mg,--,--,330,702
Vitamins
"Vitamin C, total ascorbic acid",mg,--,--,0.0,0.0
"Vitamin A, IU",IU,--,--,361,769
Lipids
"Fatty acids, total saturated",g,--,--,1.499,3.190
"Fatty acids, total trans",g,--,--,0.000,0.000
"Cholesterol",mg,--,--,45,96
Amino Acids
Other
Ingredients
"SMOKED BABY CLAMS, SOY BEAN OIL, SALT" Date available: 10/13/2017 Date last updated by company: 10/13/2017
