Source: USDA Branded Food Products Database Release December 2017 Software v.3.8.6.4 2017-10-02
Report Run at: December 17, 2017 05:13 EST
"Nutrient data for: 45276912, BACON RANCH DRESSING, UPC: 07078426005"
Food Group:  Branded Food Products Database
Common Name:

Nutrient,Unit,Data points,Std. Error,"2.0 Tbsp = 30.0g",1Value per 100 g,
Proximates
"Energy",kcal,--,--,110,367
"Protein",g,--,--,1.00,3.33
"Total lipid (fat)",g,--,--,11.00,36.67
"Carbohydrate, by difference",g,--,--,2.00,6.67
"Fiber, total dietary",g,--,--,0.0,0.0
"Sugars, total",g,--,--,2.00,6.67
Minerals
"Calcium, Ca",mg,--,--,0,0
"Iron, Fe",mg,--,--,0.00,0.00
"Sodium, Na",mg,--,--,300,1000
Vitamins
"Vitamin C, total ascorbic acid",mg,--,--,0.0,0.0
"Vitamin A, IU",IU,--,--,0,0
Lipids
"Fatty acids, total saturated",g,--,--,2.001,6.670
"Fatty acids, total trans",g,--,--,0.000,0.000
"Cholesterol",mg,--,--,10,33
Amino Acids
Other
Ingredients
"WATER, SOYBEAN OIL, DISTILLED VINEGAR, SUGAR, EGG YOLK, SALT, CONTAINS LESS THAN 2% OF BACON (BACON, WATER, SALT, SODIUM ERYTHORBATE, SODIUM NITRITE, SMOKE FLAVORING, SUGAR, DEXTROSE, BROWN SUGAR, SODIUM PHOSPHATES, POTASSIUM CHLORIDE, FLAVORING), MODIFIED FOOD STARCH, WHEY, DRIED BUTTERMILK, PHOSPHORIC ACID, XANTHAN GUM, DRIED GARLIC, SPICE, NATURAL FLAVOR, POTASSIUM SORBATE AND CALCIUM DISODIUM EDTA (AS PRESERVATIVES)." Date available: 07/14/2017 Date last updated by company: 07/14/2017
