Source: USDA Branded Food Products Database Release December 2017 Software v.3.8.6.4 2017-10-02
Report Run at: December 17, 2017 05:10 EST
"Nutrient data for: 45220886, BACON CHEDDAR BRATWURST, UPC: 717265136046"
Food Group:  Branded Food Products Database
Common Name:

Nutrient,Unit,Data points,Std. Error,"1 LINK = 85.0g",1Value per 100 g,
Proximates
"Energy",kcal,--,--,300,353
"Protein",g,--,--,14.00,16.47
"Total lipid (fat)",g,--,--,26.00,30.59
"Carbohydrate, by difference",g,--,--,2.00,2.35
"Fiber, total dietary",g,--,--,0.0,0.0
"Sugars, total",g,--,--,0.00,0.00
Minerals
"Calcium, Ca",mg,--,--,150,176
"Iron, Fe",mg,--,--,0.23,0.27
"Sodium, Na",mg,--,--,790,929
Vitamins
"Vitamin C, total ascorbic acid",mg,--,--,0.0,0.0
"Vitamin A, IU",IU,--,--,129,152
Lipids
"Fatty acids, total saturated",g,--,--,9.996,11.760
"Fatty acids, total trans",g,--,--,0.000,0.000
"Cholesterol",mg,--,--,60,71
Amino Acids
Other
Ingredients
"PORK, BACON (CURED WITH WATER, SALT, SODIUM PHOSPHATE, SUGAR, SODIUM ERYTHORBATE, SODIUM NITRITE, FLAVORINGS), PASTEURIZED PROCESSED CHEDDAR CHEESE [CHEDDAR CHEESE ({CULTURED MILK, SALT, ENZYMES}, WATER, CREAM, SODIUM PHOSPHATES, SALT, VEGETABLE COLOR, ENZYMES), POWDERED CELLULOSE (TO PREVENT CAKING), POTASSIUM SORBATE (PRESERVATIVE), NATAMYCIN (PRESERVATIVE)], WATER, CONTAINS 2% OR LESS OF SALT, TREHALOSE, FLAVORINGS, SUGAR, CITRIC ACID, SODIUM PROPIONATE, SODIUM BENZOATE." Date available: 07/14/2017 Date last updated by company: 07/14/2017
