Source: USDA Branded Food Products Database Release December 2017 Software v.3.8.6.4 2017-10-02
Report Run at: December 17, 2017 05:16 EST
"Nutrient data for: 45212821, BACON WRAPPED TURKEY TENDERLOIN FILET, UPC: 857492001219"
Food Group:  Branded Food Products Database
Common Name:

Nutrient,Unit,Data points,Std. Error,"1 FILLET = 140.0g",1Value per 100 g,
Proximates
"Energy",kcal,--,--,220,157
"Protein",g,--,--,26.00,18.57
"Total lipid (fat)",g,--,--,12.00,8.57
"Carbohydrate, by difference",g,--,--,0.00,0.00
"Fiber, total dietary",g,--,--,0.0,0.0
"Sugars, total",g,--,--,0.00,0.00
Minerals
"Calcium, Ca",mg,--,--,20,14
"Iron, Fe",mg,--,--,0.87,0.62
"Sodium, Na",mg,--,--,440,314
Vitamins
"Vitamin C, total ascorbic acid",mg,--,--,0.0,0.0
"Vitamin A, IU",IU,--,--,0,0
Lipids
"Fatty acids, total saturated",g,--,--,4.494,3.210
"Fatty acids, total trans",g,--,--,0.000,0.000
"Cholesterol",mg,--,--,76,54
Amino Acids
Other
Ingredients
"TURKEY, WATER, HYDROLYZED PROTEIN FROM MILK AND GELATIN, SODIUM PHOSPHATE. BACON: (CURED WITH A SOLUTION OF WATER, SALT, SUGAR, SODIUM PHOSPHATE, SODIUM ERYTHORBAT SODIUM NITRITE). CONTAINS UP TO 20% SOLUTION." Date available: 07/14/2017 Date last updated by company: 07/14/2017
