Source: USDA Branded Food Products Database Release December 2017 Software v.3.8.6.4 2017-10-02
Report Run at: December 17, 2017 05:10 EST
"Nutrient data for: 45268113, BACON CHEDDAR CHEESEBURGERS, UPC: 704639970023"
Food Group:  Branded Food Products Database
Common Name:

Nutrient,Unit,Data points,Std. Error,"1 burger = 151.0g",1Value per 100 g,
Proximates
"Energy",kcal,--,--,450,298
"Protein",g,--,--,26.00,17.22
"Total lipid (fat)",g,--,--,38.01,25.17
"Carbohydrate, by difference",g,--,--,0.00,0.00
"Fiber, total dietary",g,--,--,0.0,0.0
"Sugars, total",g,--,--,1.00,0.66
Minerals
"Calcium, Ca",mg,--,--,80,53
"Iron, Fe",mg,--,--,0.82,0.54
"Sodium, Na",mg,--,--,461,305
Vitamins
"Vitamin C, total ascorbic acid",mg,--,--,0.6,0.4
"Vitamin A, IU",IU,--,--,56,37
Lipids
"Fatty acids, total saturated",g,--,--,17.999,11.920
"Fatty acids, total trans",g,--,--,1.495,0.990
"Cholesterol",mg,--,--,100,66
Amino Acids
Other
Ingredients
"USDA BEEF CHUCK, CHEDDAR CHEESE [(PASTEURIZED MILK, CHEESE CULTURE, SALT, ENZYMES), WATER, MILK FAT, SODIUM PHOSPHATE, SODIUM HEXAMETAPHOSPHATE, SALT, ARTIFICIAL COLOR, POTATO STARCH, CORN STARCH, POWDERED CELLULOSE (ADDED TO PREVENT CAKING)], BACON (CURED WITH WATER, SALT, SUGAR, SODIUM NITRITE. MAY CONTAIN NATURAL SMOKE FLAVORING, SODIUM PHOSPHATE, SODIUM ERYTHORBATE, SODIUM ASCORBATE)." Date available: 07/14/2017 Date last updated by company: 07/14/2017
