Source: USDA Branded Food Products Database Release December 2017 Software v.3.8.6.4 2017-10-02
Report Run at: December 17, 2017 05:12 EST
"Nutrient data for: 45254499, BACON HORSERADISH DIP & SPREAD, UPC: 673166006546"
Food Group:  Branded Food Products Database
Common Name:

Nutrient,Unit,Data points,Std. Error,"2.0 Tbsp = 32.0g",1Value per 100 g,
Proximates
"Energy",kcal,--,--,90,281
"Protein",g,--,--,2.00,6.25
"Total lipid (fat)",g,--,--,8.00,25.00
"Carbohydrate, by difference",g,--,--,4.00,12.50
"Fiber, total dietary",g,--,--,0.0,0.0
"Sugars, total",g,--,--,2.00,6.25
Minerals
"Calcium, Ca",mg,--,--,40,125
"Iron, Fe",mg,--,--,0.56,1.75
"Sodium, Na",mg,--,--,260,812
Vitamins
"Vitamin C, total ascorbic acid",mg,--,--,18.8,58.6
"Vitamin A, IU",IU,--,--,469,1466
Lipids
"Fatty acids, total saturated",g,--,--,4.499,14.060
"Fatty acids, total trans",g,--,--,0.000,0.000
"Cholesterol",mg,--,--,25,78
Amino Acids
Other
Ingredients
"CREAM CHEESE (PASTEURIZED MILK AND CREAM, CHEESE CULTURE, SALT, STABILIZERS (CAROB BEAN AND/OR XANTHAN GUM AND/OR GUAR GUMS)), SOUR CREAM, SEASONING MIX [BACON BITS (SOY FLOUR, SOYBEAN OIL WITH TBHQ, SALT, HYDROLYZED SOY PROTEIN, YEAST EXTRACT, NATURAL SMOKE FLAVOR, SUNFLOWER OIL, SUGAR, PARTIALLY HYDROGENATED SOYBEAN OIL, DEXTROSE, YEAST, CARAMEL COLOR, RED #3 AND/OR RED#40, HYDROLYZED VEGETABLE PROTEIN (SOY AND CORN), SALT, PARTIALLY HYDROGENATED VEGETABLE OIL (COTTONSEED, SOYBEAN), SOY LECITHIN, NATURAL FLAVOR), DEXTROSE, HORSERADISH*, SALT, MALTODEXTRIN, HICKORY SMOKE SALT (SEA SALT, MALTODEXTRIN, HICKORY SMOKE FLAVOR (WITH SUNFLOWER OIL, CANOLA OIL), CITRIC ACID, MONOSODIUM GLUMATE, BEEF BROTH (SALT, AUTOLYZED YEAST, DEXTROSE, , POTATO FLOUR, LACTOSE, CARAMEL*, CELERY, ONION*, GARLIC*, CORN STARCH AND SPICES), GROUND MUSTARD SEED, PARSLEY, SILICON DIOXIDE, ASCORBIC ACID], NATURAL FLAVORS" Date available: 09/27/2017 Date last updated by company: 09/27/2017
