Source: USDA Branded Food Products Database Release December 2017 Software v.3.8.6.4 2017-10-02
Report Run at: December 17, 2017 05:15 EST
"Nutrient data for: 45230089, BACON WRAPPED SHRIMP, UPC: 079300014970"
Food Group:  Branded Food Products Database
Common Name:

Nutrient,Unit,Data points,Std. Error,"5.0 SHRIMP) | (ABOUT = 112.0g",1Value per 100 g,
Proximates
"Energy",kcal,--,--,270,241
"Protein",g,--,--,20.00,17.86
"Total lipid (fat)",g,--,--,20.00,17.86
"Carbohydrate, by difference",g,--,--,2.00,1.79
"Fiber, total dietary",g,--,--,0.0,0.0
"Sugars, total",g,--,--,1.00,0.89
Minerals
"Calcium, Ca",mg,--,--,60,54
"Iron, Fe",mg,--,--,0.55,0.49
"Sodium, Na",mg,--,--,890,795
Vitamins
"Vitamin C, total ascorbic acid",mg,--,--,0.0,0.0
"Vitamin A, IU",IU,--,--,380,339
Lipids
"Fatty acids, total saturated",g,--,--,9.005,8.040
"Fatty acids, total trans",g,--,--,0.000,0.000
"Cholesterol",mg,--,--,136,121
Amino Acids
Other
Ingredients
"SHRIMP [WATER, SODIUM TRIPOLYPHOSPHATE (TO RETAIN MOISTURE), SALT, SULPHITING AGENTS (PRESERVATIVE)], BACON (CURED WITH WATER, SALT, SUGAR, SMOKE FLAVORING, SODIUM PHOSPHATES, SODIUM ERYTHORBATE, SODIUM NITRITE), CREAM CHEESE [PASTEURIZED CULTURED MILK AND CREAM, SALT, STABILIZERS (XANTHAN AND/OR CAROB BEAN AND/OR GUAR GUMS)], SRIRACHA CHILI SAUCE [CHILI, SUGAR, SALT, GARLIC, DISTILLED VINEGAR, POTASSIUM SORBATE AND SODIUM BISULFITE (AS PRESERVATIVES), XANTHAN GUM]." Date available: 07/14/2017 Date last updated by company: 07/14/2017
