Source: USDA Branded Food Products Database Release December 2017 Software v.3.8.6.4 2017-10-02
Report Run at: December 17, 2017 05:20 EST
"Nutrient data for: 45225216, BAGELS, UPC: 039217118123"
Food Group:  Branded Food Products Database
Common Name:

Nutrient,Unit,Data points,Std. Error,"1 BAGEL = 85.0g",1Value per 100 g,
Proximates
"Energy",kcal,--,--,210,247
"Protein",g,--,--,9.00,10.59
"Total lipid (fat)",g,--,--,1.50,1.76
"Carbohydrate, by difference",g,--,--,42.00,49.41
"Fiber, total dietary",g,--,--,8.0,9.4
"Sugars, total",g,--,--,4.00,4.71
Minerals
"Calcium, Ca",mg,--,--,80,94
"Iron, Fe",mg,--,--,1.06,1.25
"Sodium, Na",mg,--,--,400,471
Vitamins
"Vitamin C, total ascorbic acid",mg,--,--,0.0,0.0
"Vitamin A, IU",IU,--,--,0,0
Lipids
"Fatty acids, total saturated",g,--,--,0.000,0.000
"Fatty acids, total trans",g,--,--,0.000,0.000
"Cholesterol",mg,--,--,0,0
Amino Acids
Other
Ingredients
"WHOLE WHEAT FLOUR, WATER, SUGAR CANE FIBER, WHEAT GLUTEN, BROWN SUGAR, SUGAR, SALT, HONEY, SOYBEAN OIL, YEAST, MALT, GUAR GUM, CALCIUM PROPIONATE (MOLD INHIBITOR), & ENZYME." Date available: 07/14/2017 Date last updated by company: 07/14/2017
