Source: USDA Branded Food Products Database Release December 2017 Software v.3.8.6.4 2017-10-02
Report Run at: December 17, 2017 05:18 EST
"Nutrient data for: 45023301, BAGELADIES, BAKE'MMM YUMMY BAGELS, CINNAMON RAISIN, UPC: 834080003053"
Food Group:  Branded Food Products Database
Common Name:

Nutrient,Unit,Data points,Std. Error,"1 BAGEL = 100.0g",1Value per 100 g,
Proximates
"Energy",kcal,--,--,190,190
"Protein",g,--,--,7.00,7.00
"Total lipid (fat)",g,--,--,0.50,0.50
"Carbohydrate, by difference",g,--,--,40.00,40.00
"Fiber, total dietary",g,--,--,3.0,3.0
"Sugars, total",g,--,--,5.00,5.00
Minerals
"Sodium, Na",mg,--,--,220,220
Vitamins
Lipids
"Fatty acids, total saturated",g,--,--,0.000,0.000
"Fatty acids, total polyunsaturated",g,--,--,0.500,0.500
"Fatty acids, total trans",g,--,--,0.000,0.000
"Cholesterol",mg,--,--,0,0
Amino Acids
Other
Ingredients
"ORGANIC WHEAT FLOUR, FILTERED WATER, ORGANIC RAISINS, ORGANIC CANE SUGAR, SALT, ORGANIC CINNAMON, YEAST, ORGANIC CORN MEAL." Date available: 10/02/2017 Date last updated by company: 10/02/2017
