Source: USDA Branded Food Products Database Release December 2017 Software v.3.8.6.4 2017-10-02
Report Run at: December 17, 2017 05:22 EST
"Nutrient data for: 45024171, BAHLSEN, WAFFELETTEN ROLLS, MILK, UPC: 070569219502"
Food Group:  Branded Food Products Database
Common Name:

Nutrient,Unit,Data points,Std. Error,"4.0 PIECES = 29.0g",1Value per 100 g,
Proximates
"Energy",kcal,--,--,160,552
"Protein",g,--,--,2.00,6.90
"Total lipid (fat)",g,--,--,8.00,27.59
"Carbohydrate, by difference",g,--,--,18.00,62.07
"Fiber, total dietary",g,--,--,1.0,3.4
"Sugars, total",g,--,--,10.00,34.48
Minerals
"Calcium, Ca",mg,--,--,0,0
"Iron, Fe",mg,--,--,1.24,4.28
"Sodium, Na",mg,--,--,60,207
Vitamins
"Vitamin C, total ascorbic acid",mg,--,--,4.1,14.3
"Vitamin A, IU",IU,--,--,0,0
Lipids
"Fatty acids, total saturated",g,--,--,6.000,20.690
"Fatty acids, total trans",g,--,--,0.000,0.000
"Cholesterol",mg,--,--,5,17
Amino Acids
Other
Ingredients
"WHEAT FLOUR, SUGAR, HYDROGENATED PALM OIL, COCOA BUTTER, SKIM MILK, CHOCOLATE LIQUOR, SWEET WHEY POWDER, BUTTER OIL, EGG YOLK, SUNFLOWER LECITHIN, SALT, MILK, LACTOSE, SODIUM BICARBONATE, SPICE, NATURAL FLAVORING." Date available: 06/25/2017 Date last updated by company: 06/25/2017
