Source: USDA Branded Food Products Database Release December 2017 Software v.3.8.6.4 2017-10-02
Report Run at: December 17, 2017 05:23 EST
"Nutrient data for: 45232524, BAILEYS, COFFEE CREAMER, VANILLA BROWN SUGAR, NON - ALCOHOLIC, UPC: 044100106279"
Food Group:  Branded Food Products Database
Common Name:

Nutrient,Unit,Data points,Std. Error,"1 Tbsp = 15.0g",1Value per 100 g,
Proximates
"Energy",kcal,--,--,35,233
"Protein",g,--,--,0.00,0.00
"Total lipid (fat)",g,--,--,1.50,10.00
"Carbohydrate, by difference",g,--,--,5.00,33.33
"Fiber, total dietary",g,--,--,0.0,0.0
"Sugars, total",g,--,--,5.00,33.33
Minerals
"Calcium, Ca",mg,--,--,0,0
"Iron, Fe",mg,--,--,0.00,0.00
"Sodium, Na",mg,--,--,35,233
Vitamins
"Vitamin C, total ascorbic acid",mg,--,--,0.0,0.0
"Vitamin A, IU",IU,--,--,0,0
Lipids
"Fatty acids, total saturated",g,--,--,1.000,6.670
"Fatty acids, total trans",g,--,--,0.000,0.000
"Cholesterol",mg,--,--,5,33
Amino Acids
Other
Ingredients
"SUGAR, WATER, CREAM*, NATURAL AND ARTIFICIAL FLAVORS, DISOIUM PHOSPHATE, SODIUM CASEINATE*, ARTIFICIAL COLOR, SALT AND CARRAGEENAN." Date available: 06/25/2017 Date last updated by company: 06/25/2017
