Source: USDA Branded Food Products Database Release December 2017 Software v.3.8.6.4 2017-10-02
Report Run at: December 17, 2017 05:23 EST
"Nutrient data for: 45316008, BAJA STYLE FISH TACO SAUCE, UPC: 070670002949"
Food Group:  Branded Food Products Database
Common Name:

Nutrient,Unit,Data points,Std. Error,"1 Tbsp = 14.0g",1Value per 100 g,
Proximates
"Energy",kcal,--,--,80,571
"Protein",g,--,--,0.00,0.00
"Total lipid (fat)",g,--,--,9.00,64.29
"Carbohydrate, by difference",g,--,--,0.00,0.00
Minerals
"Sodium, Na",mg,--,--,65,464
Vitamins
Lipids
"Fatty acids, total saturated",g,--,--,1.000,7.140
"Cholesterol",mg,--,--,5,36
Amino Acids
Other
Ingredients
"VEGETABLE OILS (SOYBEAN, CANOLA), WATER, EGGS, GARLIC, WHITE DISTILLED VINEGAR, SALT, SUGAR, MUSTARD SEED, CULTURED REDUCED FAT BUTTERMILK, CITRIC ACID, CORN SYRUP, LIME JUICE CONCENTRATE, LEMON JUICE, NATURAL VITAMIN E (PROTECTS FLAVOR), GUMS (XANTHAN, GUAR), PRESERVATIVES (SODIUM BENZOATE, SORBIC ACID), SODIUM ALGINATE, SPICES, PROPYLENE GLYCOL, CALCIUM DISODIUM EDTA (RETAINS PRODUCT FRESHNESS), NATURAL FLAVORS, POTASSIUM SORBATE (PRESERVATIVE), MALIC ACID, DEXTROSE, AUTOLYZED YEAST, WHEAT, SOYBEANS." Date available: 07/14/2017 Date last updated by company: 07/14/2017
