Source: USDA Branded Food Products Database Release December 2017 Software v.3.8.6.4 2017-10-02
Report Run at: December 17, 2017 05:23 EST
"Nutrient data for: 45093030, BAJAMAR, OCTOPUS IN VEGETABLE OIL, UPC: 072728007814"
Food Group:  Branded Food Products Database
Common Name:

Nutrient,Unit,Data points,Std. Error,"0.25 cup = 55.0g",1Value per 100 g,
Proximates
"Energy",kcal,--,--,80,145
"Protein",g,--,--,11.00,20.00
"Total lipid (fat)",g,--,--,3.00,5.45
"Carbohydrate, by difference",g,--,--,3.00,5.45
"Fiber, total dietary",g,--,--,0.0,0.0
"Sugars, total",g,--,--,0.00,0.00
Minerals
"Calcium, Ca",mg,--,--,60,109
"Iron, Fe",mg,--,--,2.23,4.05
"Sodium, Na",mg,--,--,150,273
Vitamins
"Vitamin C, total ascorbic acid",mg,--,--,0.0,0.0
"Vitamin A, IU",IU,--,--,155,281
Lipids
"Fatty acids, total saturated",g,--,--,0.501,0.910
"Fatty acids, total trans",g,--,--,0.000,0.000
"Cholesterol",mg,--,--,45,82
Amino Acids
Other
Ingredients
"OCTOPUS, VEGETABLE OIL, SEQUESTRANT (E-452) AND SALT ADDED." Date available: 06/25/2017 Date last updated by company: 06/25/2017
