Source: USDA Branded Food Products Database Release December 2017 Software v.3.8.6.4 2017-10-02
Report Run at: December 17, 2017 05:34 EST
"Nutrient data for: 45259892, BAKED SNACK CRACKERS, UPC: 024100940295"
Food Group:  Branded Food Products Database
Common Name:

Nutrient,Unit,Data points,Std. Error,"1 PACKAGE = 29.0g",1Value per 100 g,
Proximates
"Energy",kcal,--,--,150,517
"Protein",g,--,--,2.00,6.90
"Total lipid (fat)",g,--,--,7.00,24.14
"Carbohydrate, by difference",g,--,--,18.00,62.07
"Fiber, total dietary",g,--,--,1.0,3.4
"Sugars, total",g,--,--,0.00,0.00
Minerals
"Calcium, Ca",mg,--,--,0,0
"Iron, Fe",mg,--,--,1.86,6.42
"Sodium, Na",mg,--,--,200,690
Vitamins
"Vitamin C, total ascorbic acid",mg,--,--,0.0,0.0
"Vitamin A, IU",IU,--,--,0,0
Lipids
"Fatty acids, total saturated",g,--,--,1.499,5.170
"Fatty acids, total monounsaturated",g,--,--,2.001,6.900
"Fatty acids, total polyunsaturated",g,--,--,3.500,12.070
"Fatty acids, total trans",g,--,--,0.000,0.000
"Cholesterol",mg,--,--,0,0
Amino Acids
Other
Ingredients
"ENRICHED FLOUR (WHEAT FLOUR, NIACIN, REDUCED IRON, THIAMIN MONONITRATE [VITAMIN BIB RIBOFLAVIN [VITAMIN B2], FOLIC ACID), VEGETABLE OIL (SOYBEAN AND PALM OIL WITH TBHQ FOR FRESHNESS), WHITE CHEDDAR AND CHEDDAR CHEESE (MILK, CHEESE CULTURES, SALT, ENZYMES), CONTAINS TWO PERCENT OR LESS OF SALT, WHEY, MALTODEXTRIN, MONOSODIUM GLUTAMATE, LEAVENING (YEAST, BAKING SODA), WHEY PROTEIN CONCENTRATE, BUTTER (CREAM, SALT), NATURAL AND ARTIFICIAL FLAVOR, LACTIC ACID, CALCIUM LACTATE, CITRIC ACID, DISODIUM PHOSPHATE, TURMERIC EXTRACT FOR COLOR, ANNATTO EXTRACT FOR COLOR, SOY LECITHIN." Date available: 07/14/2017 Date last updated by company: 07/14/2017
