Source: USDA Branded Food Products Database Release December 2017 Software v.3.8.6.4 2017-10-02
Report Run at: December 17, 2017 05:29 EST
"Nutrient data for: 45263880, BAKED CORN SNACKS POPPERS, UPC: 041262278127"
Food Group:  Branded Food Products Database
Common Name:

Nutrient,Unit,Data points,Std. Error,"1 BAG = 35.0g",1Value per 100 g,
Proximates
"Energy",kcal,--,--,180,514
"Protein",g,--,--,2.00,5.71
"Total lipid (fat)",g,--,--,10.00,28.57
"Carbohydrate, by difference",g,--,--,21.00,60.00
"Fiber, total dietary",g,--,--,0.0,0.0
"Sugars, total",g,--,--,2.00,5.71
Minerals
"Calcium, Ca",mg,--,--,0,0
"Iron, Fe",mg,--,--,0.00,0.00
"Sodium, Na",mg,--,--,250,714
Vitamins
"Vitamin C, total ascorbic acid",mg,--,--,0.0,0.0
"Vitamin A, IU",IU,--,--,0,0
Lipids
"Fatty acids, total saturated",g,--,--,2.499,7.140
"Fatty acids, total trans",g,--,--,0.000,0.000
"Cholesterol",mg,--,--,0,0
Amino Acids
Other
Ingredients
"YELLOW CORN MEAL, VEGETABLE OIL (CONTAINS ONE OR MORE OF THE FOLLOWING: CORN, COTTONSEED, SUNFLOWER, SOYBEAN OR CANOLA OIL), WHEY, CORN STARCH, DEXTROSE, MALTODEXTRIN, SALT, JALAPENO PEPPER, CHEDDAR CHEESE (CULTURED MILK, SALT, ENZYMES), BUTTERMILK SOLIDS, ONION, BUTTER, MONOSODIUM GLUTAMATE, BUTTER OIL, NATURAL AND ARTIFICIAL FLAVORS, TORULA YEAST, GARLIC, YELLOW 6 LAKE, SODIUM PHOSPHATE, YELLOW 5 LAKE, EXTRACTIVES OF PAPRIKA, YELLOW 5, YELLOW 6, AUTOLYZED YEAST EXTRACT, THIAMIN HYDROCHLORIDE, FRUCTOSE, DISODIUM GUANYLATE, DISODIUM INOSINATE." Date available: 07/14/2017 Date last updated by company: 07/14/2017
