Source: USDA Branded Food Products Database Release December 2017 Software v.3.8.6.4 2017-10-02
Report Run at: December 17, 2017 05:43 EST
"Nutrient data for: 45171106, BAKERY FRESH GOODNESS, VALENTINE FUDGE ICED BROWNIES, UPC: 011110261014"
Food Group:  Branded Food Products Database
Common Name:

Nutrient,Unit,Data points,Std. Error,"0.111 CAKE = 46.0g",1Value per 100 g,
Proximates
"Energy",kcal,--,--,230,500
"Protein",g,--,--,2.00,4.35
"Total lipid (fat)",g,--,--,8.00,17.39
"Carbohydrate, by difference",g,--,--,38.00,82.61
"Fiber, total dietary",g,--,--,1.0,2.2
"Sugars, total",g,--,--,27.00,58.70
Minerals
"Calcium, Ca",mg,--,--,0,0
"Iron, Fe",mg,--,--,0.31,0.68
"Sodium, Na",mg,--,--,115,250
Vitamins
"Vitamin C, total ascorbic acid",mg,--,--,0.0,0.0
"Vitamin A, IU",IU,--,--,0,0
Lipids
"Fatty acids, total saturated",g,--,--,1.500,3.260
"Fatty acids, total monounsaturated",g,--,--,2.498,5.430
"Fatty acids, total polyunsaturated",g,--,--,4.002,8.700
"Fatty acids, total trans",g,--,--,0.000,0.000
"Cholesterol",mg,--,--,10,22
Amino Acids
Other
Ingredients
"BROWNIE- BLEACHED ENRICHED FLOUR (BLEACHED WHEAT FLOUR, NIACIN, FERROUS SULFATE, THIAMINE MONONITRATE, RIBOFLAVIN, FOLIC ACID), SUGAR, WATER, SOYBEAN OIL, COCOA PROCESSED WITH ALKALI, EGGS, EGG WHITE. CONTAINS 2% OR LESS OF: SALT, BAKING SODA, CORN STARCH, ARTIFICIAL FLAVORS, NONFAT MILK, SOY LECITHIN. ICING- SUGAR, WATER, COCOA (TREATED WITH ALKALI), CORN SYRUP, VEGETABLE SHORTENING (PARTIALLY HYDROGENATED SOYBEAN AND COTTONSEED OIL, MONO- AND DIGLYCERIDES, POLYSORBATE 60). CONTAINS 2% OR LESS OF: SALT, DEXTROSE, CORN STARCH, NATURAL AND ARTIFICIAL FLAVORS, EMULSIFIERS (SORBITAN MONOSTEARATE, MONO- AND DIGLYCERIDES, POLYSORBATE 60). QUINS- SUGAR, CORNSTARCH, RICE FLOUR, PARTIALLY HYDROGENATED VEGETABLE SHORTENING (SOYBEAN, COTTONSEED), GUM ARABIC, XANTHAN GUM, NATURAL AND ARTIFICIAL FLAVOR, MONO- AND DIGLYCERIDES, TITANIUM DIOXIDE (COLOR), RED 40, POLYSORBATE 60, RED 3." Date available: 09/27/2017 Date last updated by company: 09/27/2017
