Source: USDA Branded Food Products Database Release December 2017 Software v.3.8.6.4 2017-10-02
Report Run at: December 17, 2017 05:27 EST
"Nutrient data for: 45313583, BAKED CHEESE BALLS, UPC: 617403102042"
Food Group:  Branded Food Products Database
Common Name:

Nutrient,Unit,Data points,Std. Error,"1 ONZ = 28.0g",1Value per 100 g,
Proximates
"Energy",kcal,--,--,140,500
"Protein",g,--,--,2.00,7.14
"Total lipid (fat)",g,--,--,10.00,35.71
"Carbohydrate, by difference",g,--,--,14.00,50.00
"Fiber, total dietary",g,--,--,1.0,3.6
"Sugars, total",g,--,--,1.00,3.57
Minerals
"Calcium, Ca",mg,--,--,20,71
"Iron, Fe",mg,--,--,0.64,2.29
"Sodium, Na",mg,--,--,480,1714
Vitamins
"Vitamin C, total ascorbic acid",mg,--,--,0.0,0.0
"Vitamin A, IU",IU,--,--,0,0
Lipids
"Fatty acids, total saturated",g,--,--,1.000,3.570
"Fatty acids, total trans",g,--,--,0.000,0.000
"Cholesterol",mg,--,--,5,18
Amino Acids
Other
Ingredients
"CORN BALLS (CORN MEAL, SUNFLOWER OIL), SUNFLOWER OIL, CHEESE SEASONING (WHEY, MALTODEXTRIN, SALT, CHEDDAR CHEESE[ CULTURED MILK, SALT, ENZYMES], BLUE CHEESE[ MILK, SALT, CULTURES, ENZYMES], LACTIC ACID, CITRIC ACID, YELLOW #6 LAKE, DISODIUM PHOSPHATE, YELLOW #5 LAKE, DISODIUM INOSINATE, DISODIUM GUANYLATE), SALT." Date available: 09/08/2017 Date last updated by company: 09/08/2017
