Source: USDA Branded Food Products Database Release December 2017 Software v.3.8.6.4 2017-10-02
Report Run at: December 17, 2017 05:27 EST
"Nutrient data for: 45218114, BAKED CARAMEL APPLE PIE, UPC: 796220067472"
Food Group:  Branded Food Products Database
Common Name:

Nutrient,Unit,Data points,Std. Error,"0.1 PIE = 119.0g",1Value per 100 g,
Proximates
"Energy",kcal,--,--,290,244
"Protein",g,--,--,2.00,1.68
"Total lipid (fat)",g,--,--,12.99,10.92
"Carbohydrate, by difference",g,--,--,41.00,34.45
"Fiber, total dietary",g,--,--,1.0,0.8
"Sugars, total",g,--,--,22.00,18.49
Minerals
"Calcium, Ca",mg,--,--,80,67
"Iron, Fe",mg,--,--,1.13,0.95
"Sodium, Na",mg,--,--,290,244
Vitamins
"Vitamin C, total ascorbic acid",mg,--,--,12.6,10.6
"Vitamin A, IU",IU,--,--,0,0
Lipids
"Fatty acids, total saturated",g,--,--,5.998,5.040
"Fatty acids, total trans",g,--,--,0.000,0.000
"Cholesterol",mg,--,--,0,0
Amino Acids
Other
Ingredients
"APPLES (APPLES, ASCORBIC ACID, CITRIC ACID, SALT), ENRICHED FLOUR (WHEAT FLOUR, NIACIN, REDUCED IRON, THIAMIN MONONITRATE, RIBOFLAVIN, FOLIC ACID), WATER, SUGAR, VEGETABLE OIL (PALM, SOYBEAN), CARAMEL VARIEGATE (CORN SYRUP, WATER, SWEETENED CONDENSED SKIM MILK [CONDENSED SKIM MILK, SUGAR], SUGAR, MODIFIED CORN STARCH, BUTTER, SALT, POTASSIUM SORBATE [PRESERVATIVE], NATURAL FLAVOR, SODIUM BICARBONATE), MODIFIED FOOD STARCH, CORN SYRUP, SALT, DEXTROSE, COLOR (ANNATTO EXTRACT, TURMERIC), NONFAT DRY MILK FORTIFIED WITH VITAMINS A AND D, CALCIUM PROPIONATE AND SODIUM BENZOATE (PRESERVATIVES), CINNAMON, XANTHAN GUM, BAKING GLOSS (MALTODEXTRIN, SODIUM ALGINATE, SOY LECITHIN, SILICON DIOXIDE, MONO- AND DIGLYCERIDES), CITRIC ACID." Date available: 07/14/2017 Date last updated by company: 07/14/2017
