Source: USDA Branded Food Products Database Release December 2017 Software v.3.8.6.4 2017-10-02
Report Run at: December 17, 2017 05:37 EST
"Nutrient data for: 45267764, BAKE, FRY, OR GRILL SEAFOOD, CHICKEN, CHOPS, BISCUITS, AND PARTY SNACKS, UPC: 706868071038"
Food Group:  Branded Food Products Database
Common Name:

Nutrient,Unit,Data points,Std. Error,"1 tsp = 3.0g",1Value per 100 g,
Proximates
"Energy",kcal,--,--,10,333
"Protein",g,--,--,0.00,0.00
"Total lipid (fat)",g,--,--,0.00,0.00
"Carbohydrate, by difference",g,--,--,2.00,66.67
"Fiber, total dietary",g,--,--,0.0,0.0
"Sugars, total",g,--,--,0.00,0.00
Minerals
"Calcium, Ca",mg,--,--,0,0
"Iron, Fe",mg,--,--,0.00,0.00
"Sodium, Na",mg,--,--,100,3333
Vitamins
"Vitamin C, total ascorbic acid",mg,--,--,0.0,0.0
"Vitamin A, IU",IU,--,--,0,0
Lipids
"Fatty acids, total saturated",g,--,--,0.000,0.000
"Fatty acids, total trans",g,--,--,0.000,0.000
"Cholesterol",mg,--,--,0,0
Amino Acids
Other
Ingredients
"CORN FLOUR, WHEAT FLOUR, SALT MONOCALCIUM PHOSPHATE, SODIUM BICARBONATE, SPICES, CRACKER MEAL, NIACIN, IRON, THIAMINE, RIBOFLAVIN, NONFAT DRY MILK, PASTEURIZED DRIED EGGS AND SWEET DAIRY WHEY." Date available: 07/14/2017 Date last updated by company: 07/14/2017
