Source: USDA Branded Food Products Database Release December 2017 Software v.3.8.6.4 2017-10-02
Report Run at: December 17, 2017 05:34 EST
"Nutrient data for: 45209989, BAKED SNACK CRACKERS, UPC: 036800392380"
Food Group:  Branded Food Products Database
Common Name:

Nutrient,Unit,Data points,Std. Error,"40.0 CRACKERS = 30.0g",1Value per 100 g,
Proximates
"Energy",kcal,--,--,120,400
"Protein",g,--,--,2.00,6.67
"Total lipid (fat)",g,--,--,5.00,16.67
"Carbohydrate, by difference",g,--,--,18.00,60.00
"Fiber, total dietary",g,--,--,1.0,3.3
"Sugars, total",g,--,--,1.00,3.33
Minerals
"Calcium, Ca",mg,--,--,20,67
"Iron, Fe",mg,--,--,1.20,4.00
"Sodium, Na",mg,--,--,180,600
Vitamins
"Vitamin C, total ascorbic acid",mg,--,--,0.0,0.0
"Vitamin A, IU",IU,--,--,0,0
Lipids
"Fatty acids, total saturated",g,--,--,0.501,1.670
"Fatty acids, total trans",g,--,--,0.000,0.000
"Cholesterol",mg,--,--,0,0
Amino Acids
Other
Ingredients
"ENRICHED FLOUR (WHEAT FLOUR, NIACIN, REDUCED IRON, THIAMIN MONONITRATE, RIBOFLAVIN, FOLIC ACID), SUNFLOWER AND/OR CANOLA OIL (CONTAINS ASCORBIC ACID AND ROSEMARY EXTRACT FOR FRESHNESS), NATURAL CHEDDAR FLAVOR (SKIM MILK CHEESE, [PASTEURIZED MILK, WHEY PROTEIN, CHEESE CULTURES, SALT, ENZYMES], NATURAL FLAVORS, SALT, CREAM, YEAST EXTRACT, SODIUM PHOSPHATE, POTASSIUM SORBATE (PRESERVATIVE), XANTHAN GUM, SODIUM CITRATE), SUGAR, CHEDDAR CHEESE (PASTEURIZED MILK, CHEESE CULTURES, SALT, ENZYMES), SALT, MALTED BARLEY EXTRACT, LEAVENING (SODIUM ACID PYROPHOSPHATE, MONOCALCIUM PHOSPHATE, CALCIUM SULFATE, SODIUM BICARBONATE, AMMONIUM BICARBONATE), CORNSTARCH, YEAST, LACTIC ACID, ANNATTO (COLOR), ENZYMES, SODIUM METABISULFITE." Date available: 07/14/2017 Date last updated by company: 07/14/2017
