Source: USDA Branded Food Products Database Release December 2017 Software v.3.8.6.4 2017-10-02
Report Run at: December 17, 2017 05:39 EST
"Nutrient data for: 45253954, BAKER'S HARVEST, SNAPZ CRACKERS, CHEDDAR, BACON, UPC: 023300402275"
Food Group:  Branded Food Products Database
Common Name:

Nutrient,Unit,Data points,Std. Error,"15.0 CRACKERS = 30.0g",1Value per 100 g,
Proximates
"Energy",kcal,--,--,150,500
"Protein",g,--,--,3.00,10.00
"Total lipid (fat)",g,--,--,7.00,23.33
"Carbohydrate, by difference",g,--,--,18.00,60.00
"Fiber, total dietary",g,--,--,1.0,3.3
"Sugars, total",g,--,--,1.00,3.33
Minerals
"Calcium, Ca",mg,--,--,40,133
"Iron, Fe",mg,--,--,1.80,6.00
"Sodium, Na",mg,--,--,210,700
Vitamins
"Vitamin C, total ascorbic acid",mg,--,--,0.0,0.0
"Vitamin A, IU",IU,--,--,0,0
Lipids
"Fatty acids, total saturated",g,--,--,0.501,1.670
"Fatty acids, total trans",g,--,--,0.000,0.000
"Cholesterol",mg,--,--,0,0
Amino Acids
Other
Ingredients
"ENRICHED FLOUR (WHEAT FLOUR, NIACIN, REDUCED IRON, THIAMIN MONONITRATE, RIBOFLAVIN, FOLIC ACID), SUNFLOWER OIL, SEMOLINA, CHEDDAR AND BACON FLAVORED SEASONING (DEXTROSE, SALT, CHEDDAR CHEESE [PASTEURIZED MILK, CHEESE CULTURE, SALT, CALCIUM CHLORIDE, ENZYMES], SUNFLOWER OIL, AUTOLYZED YEAST EXTRACT, WHEY, NATURAL CHEDDAR CHEESE FLAVOR, BUTTERMILK POWDER, SMOKED TORULA YEAST, NATURAL FLAVOR, SILICON DIOXIDE [ANTI-CAKING AGENT], DISODIUM PHOSPHATE, LACTIC ACID, CALCIUM LACTATE, TURMERIC EXTRACT [COLOR], PAPRIKA EXTRACT [COLOR]), CORN STARCH, AUTOLYZED YEAST, SALT, MALTED BARLEY EXTRACT, RED PEPPER FLAKES, CALCIUM PHOSPHATE, SODIUM BICARBONATE, AMMONIUM BICARBONATE." Date available: 07/14/2017 Date last updated by company: 07/14/2017
