Source: USDA Branded Food Products Database Release December 2017 Software v.3.8.6.4 2017-10-02
Report Run at: December 17, 2017 05:29 EST
"Nutrient data for: 45231093, BAKED CORN PUFFS, UPC: 085239602669"
Food Group:  Branded Food Products Database
Common Name:

Nutrient,Unit,Data points,Std. Error,"36.0 PUFFS | ABOUT = 28.0g",1Value per 100 g,
Proximates
"Energy",kcal,--,--,130,464
"Protein",g,--,--,4.00,14.29
"Total lipid (fat)",g,--,--,7.00,25.00
"Carbohydrate, by difference",g,--,--,14.00,50.00
"Fiber, total dietary",g,--,--,2.0,7.1
"Sugars, total",g,--,--,2.00,7.14
Minerals
"Calcium, Ca",mg,--,--,0,0
"Iron, Fe",mg,--,--,0.64,2.29
"Sodium, Na",mg,--,--,160,571
Vitamins
"Vitamin C, total ascorbic acid",mg,--,--,0.0,0.0
"Vitamin A, IU",IU,--,--,0,0
Lipids
"Fatty acids, total saturated",g,--,--,1.999,7.140
"Fatty acids, total trans",g,--,--,0.000,0.000
"Cholesterol",mg,--,--,0,0
Amino Acids
Other
Ingredients
"CORNMEAL, PEANUT BUTTER (PEANUTS), PEANUT FLOUR, COCONUT OIL, SUGAR, SEA SALT, MOLASSES." Date available: 07/14/2017 Date last updated by company: 07/14/2017
