Source: USDA Branded Food Products Database Release December 2017 Software v.3.8.6.4 2017-10-02
Report Run at: December 17, 2017 05:39 EST
"Nutrient data for: 45199928, BAKERS DOZEN EVERYTHING ROLLS, UPC: 657846982627"
Food Group:  Branded Food Products Database
Common Name:

Nutrient,Unit,Data points,Std. Error,"1 ROLL = 35.0g",1Value per 100 g,
Proximates
"Energy",kcal,--,--,90,257
"Protein",g,--,--,3.00,8.57
"Total lipid (fat)",g,--,--,0.50,1.43
"Carbohydrate, by difference",g,--,--,13.00,37.14
"Fiber, total dietary",g,--,--,1.0,2.9
"Sugars, total",g,--,--,1.00,2.86
Minerals
"Calcium, Ca",mg,--,--,20,57
"Iron, Fe",mg,--,--,1.54,4.41
"Sodium, Na",mg,--,--,250,714
Vitamins
"Vitamin C, total ascorbic acid",mg,--,--,5.1,14.7
"Vitamin A, IU",IU,--,--,0,0
Lipids
"Fatty acids, total saturated",g,--,--,0.000,0.000
"Fatty acids, total trans",g,--,--,0.000,0.000
"Cholesterol",mg,--,--,0,0
Amino Acids
Other
Ingredients
"WHEAT FLOUR (NIACIN, IRON, THIAMIN MONONITRATE, RIBOFLAVIN, FOLIC ACID) FILTERED WATER, SUGAR,SOYBEAN OIL, YEAST, SALT, DEXTROSE, ASCORBIC ACID, POPPY SEEDS, SESAME SEEDS, SEA SALT, CARAWAY SEEDS, GARLIC, CORN MEAL." Date available: 07/14/2017 Date last updated by company: 07/14/2017
