Source: USDA Branded Food Products Database Release December 2017 Software v.3.8.6.4 2017-10-02
Report Run at: December 17, 2017 05:39 EST
"Nutrient data for: 45250560, BAKER'S BATCH, SOFT BAKED COOKIES, ICED LEMON, UPC: 054924006068"
Food Group:  Branded Food Products Database
Common Name:

Nutrient,Unit,Data points,Std. Error,"1 COOKIES = 28.0g",1Value per 100 g,
Proximates
"Energy",kcal,--,--,120,429
"Protein",g,--,--,6.00,21.43
"Total lipid (fat)",g,--,--,5.00,17.86
"Carbohydrate, by difference",g,--,--,15.00,53.57
"Fiber, total dietary",g,--,--,0.0,0.0
"Sugars, total",g,--,--,8.00,28.57
Minerals
"Calcium, Ca",mg,--,--,0,0
"Iron, Fe",mg,--,--,1.29,4.59
"Sodium, Na",mg,--,--,95,339
Vitamins
"Vitamin C, total ascorbic acid",mg,--,--,0.0,0.0
"Vitamin A, IU",IU,--,--,0,0
Lipids
"Fatty acids, total saturated",g,--,--,2.500,8.930
"Fatty acids, total trans",g,--,--,0.000,0.000
"Cholesterol",mg,--,--,5,18
Amino Acids
Other
Ingredients
"ENRICHED FLOUR (BLEACHED WHEAT FLOUR, NIACIN, REDUCED IRON, THIAMINE MONONITRATE, RIBOFLAVIN, FOLIC ACID), INTERESTERIFIED SOYBEAN OIL SHORTENING, HIGH FRUCTOSE CORN SYRUP, SUGAR, ENRICHED FLOUR (UNBLEACHED WHEAT FLOUR, NIACIN, REDUCED IRON, THIAMINE MONONITRATE, RIBOFLAVIN, FOLIC ACID, CORN SYRUP, WATER, MODIFIED CORN STARCH, GLYCERINE, EGGS, SALT, BAKING SODA, NATURAL AND ARTIFICIAL FLAVOR MONO AND DIGLYCERIDES, FD&C YELLOW #5, ICING: FONDO ICING SUGAR, KOSHER FISH GELATIN, NATURAL AND ARTIFICIAL FLAVOR FD& C YELLOW #5." Date available: 07/14/2017 Date last updated by company: 07/14/2017
