Source: USDA Branded Food Products Database Release December 2017 Software v.3.8.6.4 2017-10-02
Report Run at: December 17, 2017 05:30 EST
"Nutrient data for: 45283090, BAKED CRUNCHY COCONUT CHIPS, UPC: 013971030013"
Food Group:  Branded Food Products Database
Common Name:

Nutrient,Unit,Data points,Std. Error,"0.5 cup = 30.0g",1Value per 100 g,
Proximates
"Energy",kcal,--,--,170,567
"Protein",g,--,--,2.00,6.67
"Total lipid (fat)",g,--,--,11.00,36.67
"Carbohydrate, by difference",g,--,--,16.00,53.33
"Fiber, total dietary",g,--,--,6.0,20.0
"Sugars, total",g,--,--,10.00,33.33
Minerals
"Calcium, Ca",mg,--,--,0,0
"Iron, Fe",mg,--,--,0.96,3.20
"Sodium, Na",mg,--,--,85,283
Vitamins
"Vitamin C, total ascorbic acid",mg,--,--,1.6,5.3
"Vitamin A, IU",IU,--,--,0,0
Lipids
"Fatty acids, total saturated",g,--,--,9.999,33.330
"Fatty acids, total trans",g,--,--,0.000,0.000
"Cholesterol",mg,--,--,0,0
Amino Acids
Other
Ingredients
"COCONUTS, CANE SUGAR, HONEY, SEA SALT" Date available: 07/14/2017 Date last updated by company: 07/14/2017
