Source: USDA Branded Food Products Database Release December 2017 Software v.3.8.6.4 2017-10-02
Report Run at: December 17, 2017 05:31 EST
"Nutrient data for: 45279246, BAKED OATMEAL WITH BLUEBERRIES, UPC: 077890404850"
Food Group:  Branded Food Products Database
Common Name:

Nutrient,Unit,Data points,Std. Error,"1 MUFFIN = 127.0g",1Value per 100 g,
Proximates
"Energy",kcal,--,--,290,228
"Protein",g,--,--,5.99,4.72
"Total lipid (fat)",g,--,--,14.00,11.02
"Carbohydrate, by difference",g,--,--,36.00,28.35
"Fiber, total dietary",g,--,--,6.0,4.7
"Sugars, total",g,--,--,7.00,5.51
Minerals
"Calcium, Ca",mg,--,--,60,47
"Iron, Fe",mg,--,--,1.13,0.89
"Sodium, Na",mg,--,--,370,291
Vitamins
"Vitamin C, total ascorbic acid",mg,--,--,0.0,0.0
"Vitamin A, IU",IU,--,--,64,50
Lipids
"Fatty acids, total saturated",g,--,--,1.499,1.180
"Fatty acids, total trans",g,--,--,0.000,0.000
"Cholesterol",mg,--,--,0,0
Amino Acids
Other
Ingredients
"ROLLED OATS, ORGANIC ALMONDMILK ((FILTERED WATER, ORGANIC ALMONDS), ORGANIC EVAPORATED CANE SYRUP, TRICALCIUM PHOSPHATE, POTASSIUM CITRATE, SEA SALT, NATURAL FLAVORS, ORGANIC LOCUST BEAN GUM, GELLAN GUM, ORGANIC SUNFLOWER LECITHIN, ORGANIC VANILLA EXTRACT, VITAMIN A PALMITATE, VITAMIN D2, DL-ALPHA TOCOPHEROL ACETATE (VITAMIN E)), WILD BLUEBERRIES, WATER, CANOLA OIL, SUGAR, MAPLE SYRUP, 2% OR LESS OF EACH: GROUND FLAXSEED, LEAVENING (SODIUM ACID PYROPHOSPHATE, BAKING SODA), VANILLA EXTRACT, CORNSTARCH, CINNAMON, SALT, SUNFLOWER OIL." Date available: 07/14/2017 Date last updated by company: 07/14/2017
