Source: USDA Branded Food Products Database Release December 2017 Software v.3.8.6.4 2017-10-02
Report Run at: December 17, 2017 05:29 EST
"Nutrient data for: 45217162, BAKED CORN SNACKS, UPC: 041262283978"
Food Group:  Branded Food Products Database
Common Name:

Nutrient,Unit,Data points,Std. Error,"23.0 pieces) | ( = 28.0g",1Value per 100 g,
Proximates
"Energy",kcal,--,--,150,536
"Protein",g,--,--,1.00,3.57
"Total lipid (fat)",g,--,--,8.00,28.57
"Carbohydrate, by difference",g,--,--,18.00,64.29
"Fiber, total dietary",g,--,--,1.0,3.6
"Sugars, total",g,--,--,2.00,7.14
Minerals
"Calcium, Ca",mg,--,--,0,0
"Iron, Fe",mg,--,--,0.00,0.00
"Sodium, Na",mg,--,--,210,750
Vitamins
"Vitamin C, total ascorbic acid",mg,--,--,0.0,0.0
"Vitamin A, IU",IU,--,--,0,0
Lipids
"Fatty acids, total saturated",g,--,--,1.999,7.140
"Fatty acids, total trans",g,--,--,0.000,0.000
"Cholesterol",mg,--,--,0,0
Amino Acids
Other
Ingredients
"CORN MEAL, VEGETABLE OIL (MAY CONTAIN ONE OR MORE OF THE FOLLOWING: CORN, COTTONSEED, SUNFLOWER, SUNFLOWER, SOYBEAN OR CANOLA OIL), SUGAR, SALT, HONEY, CORN FLOUR, WHEY, FRUCTOSE, ONION POWDER, MONOSODIUM GLUTAMATE, DEXTROSE MONOHYDRATE, WHEAT STARCH, CHEDDAR CHEESE (CULTURED MILK, SALT, ENZYMES), NATURAL FLAVORS, TOMATO POWDER, BUTTERMILK, SPICES, RED 40 LAKE, BUTTER, MALTODEXTRIN, YELLOW 5 LAKE, GARLIC POWDER, PAPRIKA EXTRACT, BUTTER OIL, SODIUM PHOSPHATE, PAPRIKA, PARTIALLY HYDROGENATED SOYBEAN 5, YELLOW 6, ANNATTO (COLOR), AUTOLYZED YEAST EXTRACT, THIAMIN HYDROCHLORIDE, DISODIUM GUANYLATE, DISODIUM INOSINATE." Date available: 07/14/2017 Date last updated by company: 07/14/2017
