Source: USDA Branded Food Products Database Release December 2017 Software v.3.8.6.4 2017-10-02
Report Run at: December 17, 2017 05:39 EST
"Nutrient data for: 45171010, BAKERS BEST, WHITE BREAD, UPC: 000236555909"
Food Group:  Branded Food Products Database
Common Name:

Nutrient,Unit,Data points,Std. Error,"1 SLICE = 34.0g",1Value per 100 g,
Proximates
"Energy",kcal,--,--,80,235
"Protein",g,--,--,3.00,8.82
"Total lipid (fat)",g,--,--,0.50,1.47
"Carbohydrate, by difference",g,--,--,17.00,50.00
"Fiber, total dietary",g,--,--,1.0,2.9
"Sugars, total",g,--,--,2.00,5.88
Minerals
"Calcium, Ca",mg,--,--,0,0
"Iron, Fe",mg,--,--,1.59,4.67
"Sodium, Na",mg,--,--,170,500
Vitamins
"Vitamin C, total ascorbic acid",mg,--,--,0.0,0.0
"Thiamin",mg,--,--,0.340,1.000
"Riboflavin",mg,--,--,0.136,0.400
"Niacin",mg,--,--,1.764,5.188
"Vitamin A, IU",IU,--,--,0,0
Lipids
"Fatty acids, total saturated",g,--,--,0.000,0.000
"Fatty acids, total trans",g,--,--,0.000,0.000
"Cholesterol",mg,--,--,0,0
Amino Acids
Other
Ingredients
"ENRICHED BLEACHED FLOUR (WHEAT FLOUR, MALT BARLEY FLOUR, NIACIN, FERROUS SULFATE, THIAMINE MONO-NITRATE, RIBOFLAVIN, FOLIC ACID), WATER, SUGAR, YEAST, ETHOXYLATED MON-DIGLYCERIDES, SALT, DIACETYL TARTARIC ACID ESTERS OF MONO-DIGLYCERIDES (DATEM), POLYSORBATE 60, CALCIUM SULFATE, SOYA LECITHIN, VEGETABLE SHORTENING (SOYBEAN, COTTONSEED, AND/OR CANOLA OILS), PROPIONIC ACID, POTASSIUM BROMATE, ASCORBIC ACID, SODIUM PROPIONATE (A PRESERVATIVES), L. CYSTEINE, ENZYME, PHOSPHORIC ACID, AZODICARBONMIDE (ADA)." Date available: 07/14/2017 Date last updated by company: 07/14/2017
