Source: USDA Branded Food Products Database Release December 2017 Software v.3.8.6.4 2017-10-02
Report Run at: December 17, 2017 05:47 EST
"Nutrient data for: 45187840, BAKLAVA BAKERY, PITA BREAD, UPC: 855023001042"
Food Group:  Branded Food Products Database
Common Name:

Nutrient,Unit,Data points,Std. Error,"1 PITA = 57.0g",1Value per 100 g,
Proximates
"Energy",kcal,--,--,150,263
"Protein",g,--,--,8.00,14.04
"Total lipid (fat)",g,--,--,0.00,0.00
"Carbohydrate, by difference",g,--,--,32.00,56.14
"Fiber, total dietary",g,--,--,3.0,5.3
"Sugars, total",g,--,--,1.00,1.75
Minerals
"Calcium, Ca",mg,--,--,80,140
"Iron, Fe",mg,--,--,1.58,2.77
"Sodium, Na",mg,--,--,160,281
Vitamins
"Vitamin C, total ascorbic acid",mg,--,--,0.0,0.0
"Vitamin A, IU",IU,--,--,0,0
Lipids
"Fatty acids, total saturated",g,--,--,0.000,0.000
"Fatty acids, total trans",g,--,--,0.000,0.000
"Cholesterol",mg,--,--,0,0
Amino Acids
Other
Ingredients
"100% WHOLE WHEAT UNBLEACHED FLOUR, WATER, HONEY, YEAST, SALT." Date available: 07/14/2017 Date last updated by company: 07/14/2017
