Source: USDA Branded Food Products Database Release December 2017 Software v.3.8.6.4 2017-10-02
Report Run at: December 17, 2017 05:48 EST
"Nutrient data for: 45093026, BALDOM, GELATIN OLI, PINEAPPLE, UPC: 787545004853"
Food Group:  Branded Food Products Database
Common Name:

Nutrient,Unit,Data points,Std. Error,"0.5 cup = 21.0g",1Value per 100 g,
Proximates
"Energy",kcal,--,--,80,381
"Protein",g,--,--,2.00,9.52
"Total lipid (fat)",g,--,--,0.00,0.00
"Carbohydrate, by difference",g,--,--,0.02,0.09
"Fiber, total dietary",g,--,--,0.0,0.0
"Sugars, total",g,--,--,18.00,85.71
Minerals
"Sodium, Na",mg,--,--,75,357
Vitamins
"Vitamin C, total ascorbic acid",mg,--,--,17.1,81.6
Lipids
"Fatty acids, total saturated",g,--,--,0.000,0.000
"Fatty acids, total trans",g,--,--,0.000,0.000
"Cholesterol",mg,--,--,0,0
Amino Acids
Other
Ingredients
"SUGAR, GELATIN, FUMARIC ACID, SODIUM CITRATE, ARTIFICIAL FLAVOR, SALT, ASCORBIC ACID, COLOR FD&C YELLOW5, BHA." Date available: 10/13/2017 Date last updated by company: 10/13/2017
