Source: USDA Branded Food Products Database Release December 2017 Software v.3.8.6.4 2017-10-02
Report Run at: December 17, 2017 05:53 EST
"Nutrient data for: 45281380, BALSAMIC VINAIGRETTE DRESSING, UPC: 07078425999"
Food Group:  Branded Food Products Database
Common Name:

Nutrient,Unit,Data points,Std. Error,"2.0 Tbsp = 30.0g",1Value per 100 g,
Proximates
"Energy",kcal,--,--,90,300
"Protein",g,--,--,0.00,0.00
"Total lipid (fat)",g,--,--,9.00,30.00
"Carbohydrate, by difference",g,--,--,3.00,10.00
"Fiber, total dietary",g,--,--,0.0,0.0
"Sugars, total",g,--,--,2.00,6.67
Minerals
"Calcium, Ca",mg,--,--,0,0
"Iron, Fe",mg,--,--,0.00,0.00
"Sodium, Na",mg,--,--,290,967
Vitamins
"Vitamin C, total ascorbic acid",mg,--,--,0.0,0.0
"Vitamin A, IU",IU,--,--,0,0
Lipids
"Fatty acids, total saturated",g,--,--,0.999,3.330
"Fatty acids, total trans",g,--,--,0.000,0.000
"Cholesterol",mg,--,--,0,0
Amino Acids
Other
Ingredients
"VEGETABLE OIL (SOYBEAN AND/OR CANOLA OIL, EXTRA VIRGIN OLIVE OIL), WATER, BALSAMIC VINEGAR (CONTAINS SULFITES), DISTILLED VINEGAR, SUGAR, SALT, CONTAINS LESS THAN 2% GARLIC, SPICE, ONION, RED BELL PEPPER, XANTHAN GUM, PAPRIKA, CALCIUM DISODIUM EDTA TO PROTECT FLAVOR." Date available: 07/14/2017 Date last updated by company: 07/14/2017
