Source: USDA Branded Food Products Database Release December 2017 Software v.3.8.6.4 2017-10-02
Report Run at: December 16, 2017 23:29 EST
"Nutrient data for: 45243452, BALSAMIC VINEGAR, UPC: 833272000238"
Food Group:  Branded Food Products Database
Common Name:

Nutrient,Unit,Data points,Std. Error,"1 Tbsp = 15.0g",1Value per 100 g,
Proximates
"Energy",kcal,--,--,16,107
"Protein",g,--,--,0.30,2.00
"Total lipid (fat)",g,--,--,0.00,0.00
"Carbohydrate, by difference",g,--,--,2.90,19.33
"Fiber, total dietary",g,--,--,0.0,0.0
"Sugars, total",g,--,--,2.90,19.33
Minerals
"Sodium, Na",mg,--,--,1,7
Vitamins
Lipids
"Fatty acids, total saturated",g,--,--,0.000,0.000
"Fatty acids, total trans",g,--,--,0.000,0.000
"Cholesterol",mg,--,--,0,0
Amino Acids
Other
Ingredients
"GRAPE MUST, BALSAMIC VINEGAR OF MODENA IGP (MIN 39%)." Date available: 06/25/2017 Date last updated by company: 06/25/2017
