Source: USDA Branded Food Products Database Release December 2017 Software v.3.8.6.4 2017-10-02
Report Run at: December 16, 2017 23:27 EST
"Nutrient data for: 45219953, BALSAMIC VINEGAR OF MODENA, UPC: 073210002164"
Food Group:  Branded Food Products Database
Common Name:

Nutrient,Unit,Data points,Std. Error,"1 Tbsp = 15.0g",1Value per 100 g,
Proximates
"Energy",kcal,--,--,40,267
"Protein",g,--,--,0.00,0.00
"Total lipid (fat)",g,--,--,0.00,0.00
"Carbohydrate, by difference",g,--,--,9.00,60.00
"Sugars, total",g,--,--,9.00,60.00
Minerals
"Sodium, Na",mg,--,--,5,33
Vitamins
Lipids
"Fatty acids, total saturated",g,--,--,0.000,0.000
"Fatty acids, total trans",g,--,--,0.000,0.000
"Cholesterol",mg,--,--,0,0
Amino Acids
Other
Ingredients
"COOKED GRAPE MUST, WINE VINEGAR, CARAMEL COLOR, POTASSIUM METABISULFITE. 6% ACIDITY." Date available: 07/14/2017 Date last updated by company: 07/14/2017
