Source: USDA Branded Food Products Database Release December 2017 Software v.3.8.6.4 2017-10-02
Report Run at: December 16, 2017 23:35 EST
"Nutrient data for: 45211232, BANANA PECAN CRUNCH POWER GRANOLA, UPC: 861551000037"
Food Group:  Branded Food Products Database
Common Name:

Nutrient,Unit,Data points,Std. Error,"1 ONZ = 28.0g",1Value per 100 g,
Proximates
"Energy",kcal,--,--,140,500
"Protein",g,--,--,3.00,10.71
"Total lipid (fat)",g,--,--,8.00,28.57
"Carbohydrate, by difference",g,--,--,14.00,50.00
"Fiber, total dietary",g,--,--,3.0,10.7
"Sugars, total",g,--,--,5.00,17.86
Minerals
"Calcium, Ca",mg,--,--,20,71
"Iron, Fe",mg,--,--,3.54,12.63
"Sodium, Na",mg,--,--,30,107
Vitamins
"Vitamin C, total ascorbic acid",mg,--,--,0.0,0.0
"Vitamin A, IU",IU,--,--,0,0
Lipids
"Fatty acids, total saturated",g,--,--,2.500,8.930
"Fatty acids, total trans",g,--,--,0.000,0.000
"Cholesterol",mg,--,--,0,0
Amino Acids
Other
Ingredients
"WHOLE GRAIN ROLLED OATS; SUNFLOWER SEEDS; DRIED BANANA CHIPS (BANANA, COCONUT OIL, TURBINADO SUGAR, BANANA FLAVOR) PECANS STEEL CUT OATS, PUMPKIN SEEDS, ALMONDS, SESAME SEEDS, FLAX SEEDS, OAT BRAN, HONEY, CANOLA OIL, CINNAMON AND SEA SALT." Date available: 07/14/2017 Date last updated by company: 07/14/2017
