Source: USDA Branded Food Products Database Release December 2017 Software v.3.8.6.4 2017-10-02
Report Run at: December 16, 2017 23:36 EST
"Nutrient data for: 45197303, BANANA PEPPER RINGS, UPC: 070253283567"
Food Group:  Branded Food Products Database
Common Name:

Nutrient,Unit,Data points,Std. Error,"12.0 SLICES | ABOUT = 28.0g",1Value per 100 g,
Proximates
"Energy",kcal,--,--,0,0
"Protein",g,--,--,0.00,0.00
"Total lipid (fat)",g,--,--,0.00,0.00
"Carbohydrate, by difference",g,--,--,1.00,3.57
Minerals
"Sodium, Na",mg,--,--,460,1643
Vitamins
Lipids
Amino Acids
Other
Ingredients
"FRESH BANANA PEPPERS, WATER, VINEGAR, SALT, MALIC & LACTIC ACID, CALCIUM CHLORIDE, SODIUM BENZOATE & SODIUM METABISULFITE (PRESERVATIVES), YELLOW 5." Date available: 07/14/2017 Date last updated by company: 07/14/2017
