Source: USDA Branded Food Products Database Release December 2017 Software v.3.8.6.4 2017-10-02
Report Run at: December 16, 2017 23:41 EST
"Nutrient data for: 45134645, BANQUET Cheesy Chicken Marinara Dinner, UNPREPARED, GTIN: 00031000811068"
Food Group:  Branded Food Products Database
Common Name:

Nutrient,Unit,Data points,Std. Error,"1 Patty with Sauce (113g/4oz) = 113.0g",1Value per 100 g,
Proximates
"Energy",kcal,--,--,170,150
"Protein",g,--,--,8.00,7.08
"Total lipid (fat)",g,--,--,8.99,7.96
"Carbohydrate, by difference",g,--,--,12.99,11.50
"Fiber, total dietary",g,--,--,3.1,2.7
"Sugars, total",g,--,--,4.00,3.54
Minerals
"Calcium, Ca",mg,--,--,60,53
"Iron, Fe",mg,--,--,0.72,0.64
"Potassium, K",mg,--,--,420,372
"Sodium, Na",mg,--,--,400,354
Vitamins
"Vitamin C, total ascorbic acid",mg,--,--,1.2,1.1
"Vitamin A, IU",IU,--,--,299,265
Lipids
"Fatty acids, total saturated",g,--,--,2.497,2.210
"Fatty acids, total trans",g,--,--,0.000,0.000
"Cholesterol",mg,--,--,15,13
Amino Acids
Other
Ingredients
"MARINARA SAUCE: Water, Tomatoes, Sugar, Modified Corn Starch, Soybean Oil, Crushed Garlic (Garlic, Citric Acid), Onions, Worcestershire Sauce (Vinegar, Molasses, High Fructose Corn Syrup, Anchovies, Water, Onions, Salt, Garlic, Tamarind Concentrate, Cloves, Natural Flavorings, Chili Pepper Extract), Salt, Whole Basil, Dehydrated Onion, Flavor (Potassium Chloride, Ammonium Chloride, Yeast Extract, Natural Flavor [Lactic Acid, Citric Acid]), Ground Fennel, Citric Acid. BREADED WHITE MEAT CHICKEN PATTY: White Meat Chicken (Chicken Breast with Rib Meat, Ground White Meat Chicken, Chicken Skin), Water, Breader (Wheat Flour, Sugar, Partially Hydrogenated Soybean Oil with TBHQ, Salt, Yeast, and Calcium Propionate), Cheese Blend (Low Moisture Part-Skim Mozzarella Cheese [Part-Skim Milk, Cheese Culture, Salt, Enzymes], American Cheese [Milk, Cheese Culture, Salt, Enzymes], Water, Cream, Sodium Phosphate, Salt), Textured Vegetable Protein Product (Soy Protein Concentrate, Zinc Oxide, Niacinamide, Ferrous Sulfate, Copper Gluconate, Vitamin A Palmitate, Calcium Pantothenate, Thiamine Mononitrate, Pyridoxine Hydrochloride, Riboflavin, Cyanocobalamin), Batter ([Yellow Corn Flour, Bleached Wheat Flour, Salt, Leavening {Sodium Acid Pyrophosphate, Sodium Bicarbonate}, Guar Gum, Nonfat Dry Milk, Spices, And Dried Whole Eggs] Seasoning [Salt, Garlic, Spices, Onion, and Red Bell Pepper]), Soy Protein Concentrate With Less Than 2% Soy Lecithin, Onion Powder, Salt, Potassium Chloride and Magnesium Carbonate, Sodium Phosphate. CONTAINS: FISH (ANCHOVIES), WHEAT, MILK, SOY, EGGS." Date available: 10/12/2017 Date last updated by company: 10/12/2017
