Source: USDA Branded Food Products Database Release December 2017 Software v.3.8.6.4 2017-10-02
Report Run at: December 16, 2017 23:45 EST
"Nutrient data for: 45134486, BANQUET Meat Lasagna, UNPREPARED, GTIN: 00031000180218"
Food Group:  Branded Food Products Database
Common Name:

Nutrient,Unit,Data points,Std. Error,"1 Meal (227g) = 227.0g",1Value per 100 g,
Proximates
"Energy",kcal,--,--,270,119
"Protein",g,--,--,13.01,5.73
"Total lipid (fat)",g,--,--,6.99,3.08
"Carbohydrate, by difference",g,--,--,38.00,16.74
"Fiber, total dietary",g,--,--,4.1,1.8
"Sugars, total",g,--,--,6.99,3.08
Minerals
"Calcium, Ca",mg,--,--,79,35
"Iron, Fe",mg,--,--,1.79,0.79
"Potassium, K",mg,--,--,595,262
"Sodium, Na",mg,--,--,350,154
Vitamins
"Vitamin C, total ascorbic acid",mg,--,--,2.5,1.1
"Vitamin A, IU",IU,--,--,499,220
Lipids
"Fatty acids, total saturated",g,--,--,2.497,1.100
"Fatty acids, total trans",g,--,--,0.000,0.000
"Cholesterol",mg,--,--,9,4
Amino Acids
Other
Ingredients
"Meat and Cheese Sauce Blend (Water, Tomato Paste, Beef And Pork [Beef and Pork, Salt, Flavoring], Mozzarella Cheese (Pasteurized Milk, Cultures, Salt, Enzymes), Cottage Cheese (Cultured Skim Milk, Enzymes), Sugar, Modified Corn Starch, Soybean Oil, Crushed Garlic (Garlic, Citric Acid), Parmesan Cheese (Part-Skim Milk, Cheese Culture, Salt, Enzymes]), Onions, Worcestershire Sauce [Vinegar, Molasses, High Fructose Corn Syrup, Anchovies, Water, Onions, Salt, Garlic, Tamarind Concetrate, Cloves, Natural Flavorings, Chili Pepper Extract, Salt, Whole Basil, Dehydrated Onion, Flavor [Potassium Chloride, Ammonium Chloride, Yeast Extract, Flavoring, Citric Acid, Lactic Acid], Ground Fennel, Citric Acid). Cooked Pasta (Water, Enriched Wheat Flour [Semolina Wheat Flour, Niacin, Iron, Thiamine Mononitrate {Vitamin B1}, Riboflavin {Vitamin B2}, and Folic Acid], Egg Whites, Soybean Oil). CONTAINS: EGG, FISH (Anchovies), MILK, WHEAT" Date available: 10/12/2017 Date last updated by company: 10/11/2017
