Source: USDA Branded Food Products Database Release December 2017 Software v.3.8.6.4 2017-10-02
Report Run at: December 16, 2017 23:43 EST
"Nutrient data for: 45133987, BANQUET Classic Pepper Steak Meal, UNPREPARED, GTIN: 00031000007188"
Food Group:  Branded Food Products Database
Common Name:

Nutrient,Unit,Data points,Std. Error,"1 Meal (283g) = 283.0g",1Value per 100 g,
Proximates
"Energy",kcal,--,--,320,113
"Protein",g,--,--,12.00,4.24
"Total lipid (fat)",g,--,--,12.99,4.59
"Carbohydrate, by difference",g,--,--,39.00,13.78
"Fiber, total dietary",g,--,--,3.1,1.1
"Sugars, total",g,--,--,2.01,0.71
Minerals
"Calcium, Ca",mg,--,--,79,28
"Iron, Fe",mg,--,--,1.44,0.51
"Potassium, K",mg,--,--,269,95
"Sodium, Na",mg,--,--,1109,392
Vitamins
"Vitamin C, total ascorbic acid",mg,--,--,2.3,0.8
"Vitamin A, IU",IU,--,--,750,265
Lipids
"Fatty acids, total saturated",g,--,--,3.990,1.410
"Fatty acids, total monounsaturated",g,--,--,6.000,2.120
"Fatty acids, total polyunsaturated",g,--,--,2.490,0.880
"Fatty acids, total trans",g,--,--,0.000,0.000
"Cholesterol",mg,--,--,45,16
Amino Acids
Other
Ingredients
"COOKED RICE BLEND: Water, White Rice, Celery, Carrots, Broccoli, Green Onions, Soy Sauce (Water, Wheat, Soybeans, Salt, Alcohol, Vinegar, Lactic Acid), Soybean Oil, Caramel Color. SAUCE: Water, Soy Sauce (Water, Wheat, Soybeans, Salt, Alcohol, Vinegar, Lactic Acid), Green Bell Pepper, Red Bell Peppers, Modified Corn Starch, Tomato Paste, Sugar, Salt, Dehydrated Onion, Sherry Wine, Granulated Garlic, Spices. PATTY: Mechanically Separated Chicken, Pork, Water, Beef, Textured Vegetable Protein (Soy Flour, Caramel Color), Breader (Enriched Bleached Wheat Flour [Bleached Wheat Flour, Niacin, Reduced Iron, Thiamine Mononitrate, Riboflavin, Folic Acid], Durum Flour, Leavening [Sodium Bicarbonate, Sodium Acid Pyrophosphate], Yeast), Soy Protein Concentrate, Salt, Dehydrated Onion, Flavorings, Caramel Color, Sodium Tripolyphosphate, Dextrose, Natural Flavors, Citric Acid, Soy Lecithin. CONTAINS: SOY, WHEAT." Date available: 10/11/2017 Date last updated by company: 10/09/2017
