Source: USDA Branded Food Products Database Release December 2017 Software v.3.8.6.4 2017-10-02
Report Run at: December 16, 2017 23:47 EST
"Nutrient data for: 45188756, BAOCCONCINI FRESH MOZZARELLA CHEESE, UPC: 7707363540244"
Food Group:  Branded Food Products Database
Common Name:

Nutrient,Unit,Data points,Std. Error,"1 BALL = 50.0g",1Value per 100 g,
Proximates
"Energy",kcal,--,--,130,260
"Protein",g,--,--,8.00,16.00
"Total lipid (fat)",g,--,--,11.00,22.00
"Carbohydrate, by difference",g,--,--,0.00,0.00
"Fiber, total dietary",g,--,--,0.0,0.0
"Sugars, total",g,--,--,0.00,0.00
Minerals
"Calcium, Ca",mg,--,--,200,400
"Iron, Fe",mg,--,--,0.00,0.00
"Sodium, Na",mg,--,--,200,400
Vitamins
"Vitamin C, total ascorbic acid",mg,--,--,0.0,0.0
"Vitamin A, IU",IU,--,--,500,1000
Lipids
"Fatty acids, total saturated",g,--,--,9.000,18.000
"Fatty acids, total trans",g,--,--,0.000,0.000
"Cholesterol",mg,--,--,15,30
Amino Acids
Other
Ingredients
"PASTEURIZED BUFFALO MILK, SALT, CHEESE CULTURES, RENNET, LACTIC ACID (NATURAL PRESERVATIVE)." Date available: 07/14/2017 Date last updated by company: 07/14/2017
