Source: USDA Branded Food Products Database Release December 2017 Software v.3.8.6.4 2017-10-02
Report Run at: December 16, 2017 23:55 EST
"Nutrient data for: 45194445, BAR-B-Q SAUCE, UPC: 028239003203"
Food Group:  Branded Food Products Database
Common Name:

Nutrient,Unit,Data points,Std. Error,"2.0 Tbsp = 30.0g",1Value per 100 g,
Proximates
"Energy",kcal,--,--,45,150
"Protein",g,--,--,0.00,0.00
"Total lipid (fat)",g,--,--,0.00,0.00
"Carbohydrate, by difference",g,--,--,11.00,36.67
"Fiber, total dietary",g,--,--,1.0,3.3
"Sugars, total",g,--,--,5.00,16.67
Minerals
"Calcium, Ca",mg,--,--,0,0
"Iron, Fe",mg,--,--,0.36,1.20
"Sodium, Na",mg,--,--,240,800
Vitamins
"Vitamin C, total ascorbic acid",mg,--,--,1.2,4.0
"Vitamin A, IU",IU,--,--,100,333
Lipids
Amino Acids
Other
Ingredients
"TOMATO KETCHUP (RED RIPE TOMATOES, DISTILLED VINEGAR, HIGH FRUCTOSE CORN SYRUP, CORN SYRUP, SALT, ONION POWDER, SPICE, NATURAL FLAVORING), SUGAR, DISTILLED VINEGAR (DILUTED WITH WATER), SPICES (CONTAINS MUSTARD FLOUR), WORCESTERSHIRE SAUCE (DISTILLED VINEGAR, MOLASSES, CORN SYRUP, WATER, SALT, CARAMEL COLOR, GARLIC POWDER, SUGAR, SPICES, TAMARIND, NATURAL FLAVOR), LIQUID HICKORY SMOKE, SALT, MOLASSES." Date available: 12/31/2016 Date last updated by company: 12/31/2016
