Source: USDA Branded Food Products Database Release December 2017 Software v.3.8.6.4 2017-10-02
Report Run at: December 16, 2017 23:56 EST
"Nutrient data for: 45325426, BAR-B-Q SAUCE, UPC: 076286222245"
Food Group:  Branded Food Products Database
Common Name:

Nutrient,Unit,Data points,Std. Error,"2.0 Tbsp = 35.0g",1Value per 100 g,
Proximates
"Energy",kcal,--,--,35,100
"Protein",g,--,--,0.00,0.00
"Total lipid (fat)",g,--,--,0.00,0.00
"Carbohydrate, by difference",g,--,--,8.00,22.86
"Fiber, total dietary",g,--,--,0.0,0.0
"Sugars, total",g,--,--,3.00,8.57
Minerals
"Calcium, Ca",mg,--,--,0,0
"Iron, Fe",mg,--,--,0.61,1.74
"Sodium, Na",mg,--,--,360,1029
Vitamins
"Vitamin C, total ascorbic acid",mg,--,--,8.1,23.2
"Vitamin A, IU",IU,--,--,507,1449
Lipids
"Fatty acids, total saturated",g,--,--,0.000,0.000
"Fatty acids, total trans",g,--,--,0.000,0.000
"Cholesterol",mg,--,--,0,0
Amino Acids
Other
Ingredients
"TOMATO CONCENTRATE (MADE FROM VINE RIPENED TOMATOES, HIGH FRUCTOSE CORN SYRUP, DISTILLED VINEGAR, SALT, ONION POWDER. GARLIC POWDER, NATURAL FLAVORS.) SUGAR, CELERY, SPICES. 1/10 OF 1% POTASSIUM SORBATE PRESERVATIVE ADDED." Date available: 10/13/2017 Date last updated by company: 10/13/2017
