Source: USDA Branded Food Products Database Release December 2017 Software v.3.8.6.4 2017-10-02
Report Run at: December 16, 2017 23:55 EST
"Nutrient data for: 45204296, BAR-B-Q SAUCE, UPC: 866443000102"
Food Group:  Branded Food Products Database
Common Name:

Nutrient,Unit,Data points,Std. Error,"1 Tbsp = 15.0g",1Value per 100 g,
Proximates
"Energy",kcal,--,--,54,360
"Protein",g,--,--,1.00,6.67
"Total lipid (fat)",g,--,--,1.00,6.67
"Carbohydrate, by difference",g,--,--,14.00,93.33
"Fiber, total dietary",g,--,--,1.0,6.7
"Sugars, total",g,--,--,13.00,86.67
Minerals
"Sodium, Na",mg,--,--,320,2133
Vitamins
Lipids
"Fatty acids, total saturated",g,--,--,0.000,0.000
"Fatty acids, total trans",g,--,--,0.000,0.000
"Cholesterol",mg,--,--,0,0
Amino Acids
Other
Ingredients
"TOMATOE CONCENTRATE, MOLASSES, DISTILLED VINEGAR, PEPPER SAUCE, GARLIC BROWN SUGAR, BLACK PEPPER AND SPICES." Date available: 07/14/2017 Date last updated by company: 07/14/2017
