Source: USDA Branded Food Products Database Release December 2017 Software v.3.8.6.4 2017-10-02
Report Run at: December 16, 2017 23:57 EST
"Nutrient data for: 45197826, BAR-B-QUE SWEET BUNS, UPC: 074016015266"
Food Group:  Branded Food Products Database
Common Name:

Nutrient,Unit,Data points,Std. Error,"1 BUN = 57.0g",1Value per 100 g,
Proximates
"Energy",kcal,--,--,170,298
"Protein",g,--,--,6.00,10.53
"Total lipid (fat)",g,--,--,2.50,4.39
"Carbohydrate, by difference",g,--,--,31.00,54.39
"Fiber, total dietary",g,--,--,1.0,1.8
"Sugars, total",g,--,--,2.00,3.51
Minerals
"Calcium, Ca",mg,--,--,60,105
"Iron, Fe",mg,--,--,1.74,3.05
"Sodium, Na",mg,--,--,380,667
Vitamins
"Vitamin C, total ascorbic acid",mg,--,--,0.0,0.0
"Thiamin",mg,--,--,0.570,1.000
"Riboflavin",mg,--,--,0.170,0.298
"Niacin",mg,--,--,1.930,3.386
"Vitamin A, IU",IU,--,--,0,0
Lipids
"Fatty acids, total saturated",g,--,--,0.502,0.880
"Fatty acids, total monounsaturated",g,--,--,0.502,0.880
"Fatty acids, total polyunsaturated",g,--,--,1.499,2.630
"Fatty acids, total trans",g,--,--,0.000,0.000
"Cholesterol",mg,--,--,0,0
Amino Acids
Other
Ingredients
"ENRICHED BLEACHED FLOUR (BLEACHED FLOUR, NIACIN, IRON, THIAMINE, RIBOFLAVIN AND FOLIC ACID), WATER, YEAST, SUGAR, SOYBEAN OIL, SALT, WHEAT GLUTEN, CALCIUM PROPIONATE (PRESERVATIVE), SODIUM STEAROYL LACTYLATE, MONO-DIGLYCERIDES, WHEAT FLOUR, GUAR GUM, CORN SYRUP SOLIDS, CORN FLOUR, TURMERIC, SPICE AND COLORING, CORN MEAL, DEXTROSE, EGG YOLK, SOYA LECITHIN, CALCIUM STEAROYL LACTYLATE, DATEM, CALCIUM SULFATE, POTASSIUM IODATE, ASCORBIC ACID, L-CYSTEINE, ENZYME, AZODICARBONAMIDE (ADA), BETA CAROTENE, NATURAL AND ARTIFICIAL FLAVORS." Date available: 07/14/2017 Date last updated by company: 07/14/2017
