Source: USDA Branded Food Products Database Release December 2017 Software v.3.8.6.4 2017-10-02
Report Run at: December 16, 2017 23:57 EST
"Nutrient data for: 45179055, BAR CAKE, UPC: 734781902917"
Food Group:  Branded Food Products Database
Common Name:

Nutrient,Unit,Data points,Std. Error,"0.083 CAKE = 85.0g",1Value per 100 g,
Proximates
"Energy",kcal,--,--,270,318
"Protein",g,--,--,3.00,3.53
"Total lipid (fat)",g,--,--,16.00,18.82
"Carbohydrate, by difference",g,--,--,32.00,37.65
"Fiber, total dietary",g,--,--,1.0,1.2
"Sugars, total",g,--,--,24.00,28.24
Minerals
"Calcium, Ca",mg,--,--,40,47
"Iron, Fe",mg,--,--,2.12,2.49
"Sodium, Na",mg,--,--,180,212
Vitamins
"Vitamin C, total ascorbic acid",mg,--,--,0.0,0.0
"Vitamin A, IU",IU,--,--,0,0
Lipids
"Fatty acids, total saturated",g,--,--,7.998,9.410
"Fatty acids, total trans",g,--,--,0.000,0.000
"Cholesterol",mg,--,--,45,53
Amino Acids
Other
Ingredients
"SUGAR, CREAM, WATER, ENRICHED FLOUR (WHEAT FLOUR, NIACIN, IRON, THIAMINE MONONITRATE, RIBOFLAVIN, FOLIC ACID), WHOLE EGGS, UNSWEETENED CHOCOLATE, SOYBEAN OIL, COCOA (WITH ALKALI), HIGH FRUCTOSE CORN SYRUP, BUTTER, EGG WHITES, WHOLE MILK, NONFAT DRY MILK, MODIFIED FOOD STARCH, CONDENSED NONFAT MILK, COCOA BUTTER, HYDROGENATED COCONUT OIL, SODIUM BICARBONATE, PROPYLENE GLYCOL, SALT, PALM OIL (SOY LECITHIN), COCOA MASS, CHOCOLATE LIQUOR, CELLULOSE GUM, NATURAL AND ARTIFICIAL FLAVORS, GELATIN, CORN SYRUP, MONO- AND DIGLYCERIDES, CREAM OF TARTAR, CARRAGEENAN, LACTOSE, WHEY, ASCORBIC ACID, CITRIC ACID, SODIUM ALGINATE, SODIUM ACID PYROPHOSPHATE, GUAR GUM, TRIETHYL CITRATE, CORNSTARCH, BUTTER OIL, MONOCALCIUM PHOSPHATE, POTASSIUM SORBATE (PRESERVATIVE), CARAMEL COLOR." Date available: 07/14/2017 Date last updated by company: 07/14/2017
