Source: USDA Branded Food Products Database Release December 2017 Software v.3.8.6.4 2017-10-02
Report Run at: December 17, 2017 00:00 EST
"Nutrient data for: 45023980, BAR HARBOR, LOBSTER CORN CHOWDER, NEW ENGLAND STYLE, UPC: 070718000937"
Food Group:  Branded Food Products Database
Common Name:

Nutrient,Unit,Data points,Std. Error,"0.75 cup = 195.0g",1Value per 100 g,
Proximates
"Energy",kcal,--,--,121,62
"Protein",g,--,--,6.01,3.08
"Total lipid (fat)",g,--,--,3.49,1.79
"Carbohydrate, by difference",g,--,--,15.00,7.69
"Fiber, total dietary",g,--,--,1.0,0.5
"Sugars, total",g,--,--,0.99,0.51
Minerals
"Calcium, Ca",mg,--,--,20,10
"Iron, Fe",mg,--,--,0.90,0.46
"Sodium, Na",mg,--,--,380,195
Vitamins
"Vitamin C, total ascorbic acid",mg,--,--,4.5,2.3
"Vitamin A, IU",IU,--,--,125,64
Lipids
"Fatty acids, total saturated",g,--,--,2.008,1.030
"Fatty acids, total trans",g,--,--,0.000,0.000
"Cholesterol",mg,--,--,35,18
Amino Acids
Other
Ingredients
"WATER, MINCED LOBSTER, POTATOES, NON-GMO CORN, WHEAT FLOUR, BUTTER (MILK, SALT), ONIONS, NATIVE TAPIOCA STARCH, SEA SALT, SEASONED SALT (SALT, , SUGAR, PAPRIKA, TURMERIC, ONION, NON-GMO CORNSTARCH, GARLIC) AND PEPPER." Date available: 06/25/2017 Date last updated by company: 06/25/2017
