Source: USDA Branded Food Products Database Release December 2017 Software v.3.8.6.4 2017-10-02
Report Run at: December 17, 2017 00:00 EST
"Nutrient data for: 45121019, BAR HARBOR, ALL NATURAL SMOKED WILD KIPPERS, UPC: 070718001187"
Food Group:  Branded Food Products Database
Common Name:

Nutrient,Unit,Data points,Std. Error,"0.25 CUP = 55.0g",1Value per 100 g,
Proximates
"Energy",kcal,--,--,110,200
"Protein",g,--,--,11.00,20.00
"Total lipid (fat)",g,--,--,8.00,14.55
"Carbohydrate, by difference",g,--,--,0.00,0.00
"Fiber, total dietary",g,--,--,0.0,0.0
"Sugars, total",g,--,--,0.00,0.00
Minerals
"Calcium, Ca",mg,--,--,40,73
"Iron, Fe",mg,--,--,0.72,1.31
"Sodium, Na",mg,--,--,230,418
Vitamins
"Vitamin C, total ascorbic acid",mg,--,--,0.0,0.0
"Vitamin A, IU",IU,--,--,0,0
Lipids
"Fatty acids, total saturated",g,--,--,1.001,1.820
"Fatty acids, total trans",g,--,--,0.000,0.000
"Cholesterol",mg,--,--,35,64
Amino Acids
Other
Ingredients
"WOOD SMOKED HERRING FILLLETS, SALT." Date available: 06/25/2017 Date last updated by company: 06/25/2017
