Source: USDA Branded Food Products Database Release December 2017 Software v.3.8.6.4 2017-10-02
Report Run at: December 16, 2017 23:47 EST
"Nutrient data for: 45166013, BARAZEK, UPC: 738960230143"
Food Group:  Branded Food Products Database
Common Name:

Nutrient,Unit,Data points,Std. Error,"4.0 PCS. = 25.0g",1Value per 100 g,
Proximates
"Energy",kcal,--,--,105,420
"Protein",g,--,--,3.00,12.00
"Total lipid (fat)",g,--,--,6.00,24.00
"Carbohydrate, by difference",g,--,--,10.00,40.00
"Fiber, total dietary",g,--,--,1.0,4.0
"Sugars, total",g,--,--,5.00,20.00
Minerals
"Calcium, Ca",mg,--,--,20,80
"Iron, Fe",mg,--,--,0.72,2.88
"Sodium, Na",mg,--,--,15,60
Vitamins
"Vitamin C, total ascorbic acid",mg,--,--,0.0,0.0
"Vitamin A, IU",IU,--,--,0,0
Lipids
"Fatty acids, total saturated",g,--,--,4.000,16.000
"Fatty acids, total trans",g,--,--,0.000,0.000
"Cholesterol",mg,--,--,0,0
Amino Acids
Other
Ingredients
"SESAME 32.16%, FLOUR 21.44%, SUGAR 18.76%, VEGETABLE GHEE 13.4%, PISTACHIO 8.05%, WATER 5.36%, YEAST 0.8%, MAHLAB 0.03%." Date available: 07/14/2017 Date last updated by company: 07/14/2017
