Source: USDA Branded Food Products Database Release December 2017 Software v.3.8.6.4 2017-10-02
Report Run at: December 16, 2017 23:49 EST
"Nutrient data for: 45264681, BARBECUE POTATOES, UPC: 014500016768"
Food Group:  Branded Food Products Database
Common Name:

Nutrient,Unit,Data points,Std. Error,"1 cup = 109.0g",1Value per 100 g,
Proximates
"Energy",kcal,--,--,150,138
"Protein",g,--,--,3.00,2.75
"Total lipid (fat)",g,--,--,4.00,3.67
"Carbohydrate, by difference",g,--,--,25.00,22.94
"Fiber, total dietary",g,--,--,3.1,2.8
"Sugars, total",g,--,--,3.00,2.75
Minerals
"Calcium, Ca",mg,--,--,20,18
"Iron, Fe",mg,--,--,0.84,0.77
"Sodium, Na",mg,--,--,490,450
Vitamins
"Vitamin C, total ascorbic acid",mg,--,--,0.0,0.0
"Vitamin A, IU",IU,--,--,585,537
Lipids
"Fatty acids, total saturated",g,--,--,0.501,0.460
"Fatty acids, total trans",g,--,--,0.000,0.000
"Cholesterol",mg,--,--,0,0
Amino Acids
Other
Ingredients
"ROASTED RED POTATOES, MESQUITE BARBECUE SEASONING (SUGAR, SALT, ONION POWDER, SPICE, TOMATO POWDER, NATURAL FLAVORS [INCLUDING EXTRACTIVES OF CELERY SEED], MALTODEXTRIN, YEAST EXTRACT, GARLIC POWDER, TORULA YEAST, BARLEY MALT EXTRACT, EXTRACTIVES OF PAPRIKA, CITRIC ACID, NATURAL SMOKE FLAVOR [INCLUDING MESQUITE]), EXTRA VIRGIN OLIVE OIL." Date available: 07/14/2017 Date last updated by company: 07/14/2017
