Source: USDA Branded Food Products Database Release December 2017 Software v.3.8.6.4 2017-10-02
Report Run at: December 16, 2017 23:54 EST
"Nutrient data for: 45143649, BARBER'S, LEMONADE, UPC: 070810005489"
Food Group:  Branded Food Products Database
Common Name:

Nutrient,Unit,Data points,Std. Error,"8.0 OZA = 240.0g",1Value per 100 g,
Proximates
"Energy",kcal,--,--,110,46
"Protein",g,--,--,0.00,0.00
"Total lipid (fat)",g,--,--,0.00,0.00
"Carbohydrate, by difference",g,--,--,28.01,11.67
"Fiber, total dietary",g,--,--,0.0,0.0
"Sugars, total",g,--,--,27.00,11.25
Minerals
"Calcium, Ca",mg,--,--,0,0
"Iron, Fe",mg,--,--,0.00,0.00
"Sodium, Na",mg,--,--,10,4
Vitamins
"Vitamin C, total ascorbic acid",mg,--,--,18.0,7.5
"Vitamin A, IU",IU,--,--,0,0
Lipids
"Fatty acids, total saturated",g,--,--,0.000,0.000
"Fatty acids, total trans",g,--,--,0.000,0.000
"Cholesterol",mg,--,--,0,0
Amino Acids
Other
Ingredients
"WATER, HIGH FRUCTOSE CORN SYRUP, CONTAINS LESS THAN 2% OF LEMON JUICE CONCENTRATE, ORANGE JUICE CONCENTRATE, CITRIC ACID, LEMON PULP, ASCORBIC ACID (VITAMIN C), NATURAL FLAVORS." Date available: 08/29/2017 Date last updated by company: 08/29/2017
