Source: USDA Branded Food Products Database Release December 2017 Software v.3.8.6.4 2017-10-02
Report Run at: December 16, 2017 23:48 EST
"Nutrient data for: 45170810, BARBARA'S, SNACKIMALS, COOKIES, CHOCOLATE CHIP, UPC: 070617001561"
Food Group:  Branded Food Products Database
Common Name:

Nutrient,Unit,Data points,Std. Error,"10.0 COOKIES = 30.0g",1Value per 100 g,
Proximates
"Energy",kcal,--,--,120,400
"Protein",g,--,--,1.00,3.33
"Total lipid (fat)",g,--,--,4.00,13.33
"Carbohydrate, by difference",g,--,--,19.00,63.33
"Fiber, total dietary",g,--,--,0.0,0.0
"Sugars, total",g,--,--,8.00,26.67
Minerals
"Calcium, Ca",mg,--,--,0,0
"Iron, Fe",mg,--,--,1.20,4.00
"Sodium, Na",mg,--,--,80,267
Vitamins
"Vitamin C, total ascorbic acid",mg,--,--,0.0,0.0
"Vitamin A, IU",IU,--,--,0,0
Lipids
"Fatty acids, total saturated",g,--,--,0.000,0.000
"Fatty acids, total trans",g,--,--,0.000,0.000
"Cholesterol",mg,--,--,0,0
Amino Acids
Other
Ingredients
"ORGANIC UNBLEACHED WHEAT, ORGANIC CANE SUGAR, ORGANIC EXPELLER PRESSED SUNFLOWER OR SAFFLOWER OIL, CHOCOLATE CHIPS (CANE SUGAR, UNSWEETENED CHOCOLATE, COCOA BUTTER, SOY LECITHIN, VANILLA), UNSULFURED CANE MOLASSES, NATURAL VANILLA FLAVOR WITH OTHER NATURAL FLAVORS, SEA SALT, BAKING SODA." Date available: 06/25/2017 Date last updated by company: 06/25/2017
