Source: USDA Branded Food Products Database Release December 2017 Software v.3.8.6.4 2017-10-02
Report Run at: December 16, 2017 23:53 EST
"Nutrient data for: 45220880, BARBEQUE SAUCE, UPC: 713456248765"
Food Group:  Branded Food Products Database
Common Name:

Nutrient,Unit,Data points,Std. Error,"2.0 Tbsp = 41.0g",1Value per 100 g,
Proximates
"Energy",kcal,--,--,70,171
"Protein",g,--,--,0.00,0.00
"Total lipid (fat)",g,--,--,0.00,0.00
"Carbohydrate, by difference",g,--,--,17.00,41.46
"Fiber, total dietary",g,--,--,0.0,0.0
"Sugars, total",g,--,--,17.00,41.46
Minerals
"Calcium, Ca",mg,--,--,20,49
"Iron, Fe",mg,--,--,3.04,7.42
"Sodium, Na",mg,--,--,360,878
Vitamins
"Vitamin C, total ascorbic acid",mg,--,--,6.1,14.8
"Vitamin A, IU",IU,--,--,507,1237
Lipids
"Fatty acids, total saturated",g,--,--,0.000,0.000
"Fatty acids, total trans",g,--,--,0.000,0.000
"Cholesterol",mg,--,--,0,0
Amino Acids
Other
Ingredients
"WATER, SUGAR, TOMATO PASTE, BROWN SUGAR, DISTILLED VINEGAR, MOLASSES, TOMATOES (TOMATOES, TOMATO PUREE, SALT, CITRIC ACID), DEXTROSE, SALT, SMOKE FLAVOR (WATER, NATURAL MESQUITE SMOKE FLAVOR, VINEGAR, MOLASSES, CARAMEL COLOR), SPICES, ONION POWDER, NATURAL FLAVOR, CARAMEL COLOR, DEHYDRATED GARLIC." Date available: 07/14/2017 Date last updated by company: 07/14/2017
