Source: USDA Branded Food Products Database Release December 2017 Software v.3.8.6.4 2017-10-02
Report Run at: December 16, 2017 23:49 EST
"Nutrient data for: 45289641, BARBECUE POTATO CHIPS, UPC: 078742082844"
Food Group:  Branded Food Products Database
Common Name:

Nutrient,Unit,Data points,Std. Error,"24.0 CHIPS) | (ABOUT = 28.0g",1Value per 100 g,
Proximates
"Energy",kcal,--,--,150,536
"Protein",g,--,--,1.00,3.57
"Total lipid (fat)",g,--,--,10.00,35.71
"Carbohydrate, by difference",g,--,--,16.00,57.14
"Fiber, total dietary",g,--,--,1.0,3.6
"Sugars, total",g,--,--,2.00,7.14
Minerals
"Calcium, Ca",mg,--,--,6,21
"Iron, Fe",mg,--,--,0.00,0.00
"Potassium, K",mg,--,--,260,929
"Sodium, Na",mg,--,--,150,536
Vitamins
"Vitamin D",IU,--,--,0,0
Lipids
"Fatty acids, total saturated",g,--,--,1.501,5.360
"Fatty acids, total monounsaturated",g,--,--,2.500,8.930
"Fatty acids, total polyunsaturated",g,--,--,6.000,21.430
"Fatty acids, total trans",g,--,--,0.000,0.000
"Cholesterol",mg,--,--,0,0
Amino Acids
Other
Ingredients
"POTATOES, VEGETABLE OIL (CONTAINS ONE OR MORE OF THE FOLLOWING: CORN, SUNFLOWER, OR CANOLA OIL), SUGAR, DEXTROSE, SALT, SPICES, FRUCTOSE, ONION POWDER, TORULA YEAST, TOMATO POWDER, EXTRACT OF MALTED BARLEY AND CORN, MONOSODIUM GLUTAMATE, MALTODEXTRIN, GARLIC POWDER, EXTRACTIVES OF PAPRIKA, NATURAL SMOKE FLAVOR, CARAMEL COLOR, CITRIC ACID, MODIFIED CORNSTARCH, NATURAL FLAVORS." Date available: 09/22/2017 Date last updated by company: 09/22/2017
