Source: USDA Branded Food Products Database Release December 2017 Software v.3.8.6.4 2017-10-02
Report Run at: December 16, 2017 23:58 EST
"Nutrient data for: 45031199, BARCEL, TAKIS, VERY HOT TORTILLA CHIPS, HABANERO & LIME, UPC: 757528008697"
Food Group:  Branded Food Products Database
Common Name:

Nutrient,Unit,Data points,Std. Error,"13.0 PIECES | ABOUT = 30.0g",1Value per 100 g,
Proximates
"Energy",kcal,--,--,160,533
"Protein",g,--,--,2.00,6.67
"Total lipid (fat)",g,--,--,9.00,30.00
"Carbohydrate, by difference",g,--,--,17.00,56.67
"Fiber, total dietary",g,--,--,2.0,6.7
"Sugars, total",g,--,--,0.00,0.00
Minerals
"Calcium, Ca",mg,--,--,40,133
"Iron, Fe",mg,--,--,0.60,2.00
"Sodium, Na",mg,--,--,310,1033
Vitamins
"Vitamin C, total ascorbic acid",mg,--,--,0.0,0.0
"Vitamin A, IU",IU,--,--,0,0
Lipids
"Fatty acids, total saturated",g,--,--,2.499,8.330
"Fatty acids, total trans",g,--,--,0.000,0.000
"Cholesterol",mg,--,--,0,0
Amino Acids
Other
Ingredients
"CORN MASA FLOUR (PROCESSED WITH LIME), SOYBEAN AND/OR PALM AND/OR CANOLA OIL, MALTODEXTRIN, IODIZED SALT, CITRIC ACID, DEXTROSE, MONOSODIUM GLUTAMATE, SUGAR, ONION POWDER, NATURAL AND ARTIFICIAL FLAVORS, ARTIFICIAL COLORS (RED 40 LAKE, YELLOW 6 LAKE, YELLOW 5, AND BLUE 1 LAKE), GARLIC POWDER, ACACIA GUM, TOCOPHEROL, MANNITOL." Date available: 07/14/2017 Date last updated by company: 07/14/2017
