Source: USDA Branded Food Products Database Release December 2017 Software v.3.8.6.4 2017-10-02
Report Run at: December 17, 2017 00:02 EST
"Nutrient data for: 45036239, BARILLA, THIN SPAGHETTI, UPC: 076808534139"
Food Group:  Branded Food Products Database
Common Name:

Nutrient,Unit,Data points,Std. Error,"0.143 BOX | ABOUT = 56.0g",1Value per 100 g,
Proximates
"Energy",kcal,--,--,200,357
"Protein",g,--,--,7.00,12.50
"Total lipid (fat)",g,--,--,1.50,2.68
"Carbohydrate, by difference",g,--,--,41.00,73.21
"Fiber, total dietary",g,--,--,6.0,10.7
"Sugars, total",g,--,--,2.00,3.57
Minerals
"Iron, Fe",mg,--,--,4.50,8.04
"Magnesium, Mg",mg,--,--,200,357
"Phosphorus, P",mg,--,--,375,670
"Sodium, Na",mg,--,--,10,18
Vitamins
Lipids
"Fatty acids, total saturated",g,--,--,0.000,0.000
"Fatty acids, total trans",g,--,--,0.000,0.000
"Cholesterol",mg,--,--,0,0
Amino Acids
Other
Ingredients
"WHOLE GRAIN DURUM WHEAT FLOUR, SEMOLINA (WHEAT), DURUM WHEAT FLOUR OAT FIBER." Date available: 10/13/2017 Date last updated by company: 10/13/2017
