Source: USDA Branded Food Products Database Release December 2017 Software v.3.8.6.4 2017-10-02
Report Run at: December 17, 2017 00:07 EST
"Nutrient data for: 45083624, BARLEY MALT POWDER, UPC: 030042501043"
Food Group:  Branded Food Products Database
Common Name:

Nutrient,Unit,Data points,Std. Error,"1 tsp = 4.0g",1Value per 100 g,
Proximates
"Energy",kcal,--,--,16,400
"Total lipid (fat)",g,--,--,0.00,0.00
"Carbohydrate, by difference",g,--,--,4.00,100.00
"Sugars, total",g,--,--,4.00,100.00
Minerals
"Potassium, K",mg,--,--,30,750
Vitamins
Lipids
Amino Acids
Other
Ingredients
"DRY BARLEY MALT." Date available: 06/25/2017 Date last updated by company: 06/25/2017
