Source: USDA Branded Food Products Database Release December 2017 Software v.3.8.6.4 2017-10-02
Report Run at: December 17, 2017 00:09 EST
"Nutrient data for: 45146962, BARON CHOCOLATIER, PREMIUM MILK CHOCOLATE TRUFFLES, ORANGE, UPC: 819077014519"
Food Group:  Branded Food Products Database
Common Name:

Nutrient,Unit,Data points,Std. Error,"4.0 PRAINES = 42.0g",1Value per 100 g,
Proximates
"Energy",kcal,--,--,210,500
"Protein",g,--,--,2.00,4.76
"Total lipid (fat)",g,--,--,11.00,26.19
"Carbohydrate, by difference",g,--,--,25.00,59.52
"Fiber, total dietary",g,--,--,1.0,2.4
"Sugars, total",g,--,--,22.00,52.38
Minerals
"Calcium, Ca",mg,--,--,80,190
"Iron, Fe",mg,--,--,0.43,1.02
"Sodium, Na",mg,--,--,35,83
Vitamins
"Vitamin C, total ascorbic acid",mg,--,--,0.0,0.0
"Vitamin A, IU",IU,--,--,0,0
Lipids
"Fatty acids, total saturated",g,--,--,7.001,16.670
"Fatty acids, total trans",g,--,--,0.000,0.000
"Cholesterol",mg,--,--,5,12
Amino Acids
Other
Ingredients
"MILK CHOCOLATE [SUGAR, COCOA BUTTER, DRY WHOLE MILK, CHOCOLATE, NONFAT DRY MILK, SOY LECITHIN (EMULSIFIER), NATURAL VANILLA FLAVORING], FILLING [SUGAR, VEGETABLE FAT (PALM, SHEA NUT), NONFAT DRY MILK, WHEY, YOGHURT POWDER (FROM MILK), CITRIC ACID (ACIDITY REGULATOR), SOY LECITHIN (EMULSIFIER)], ORANGE FILLING [GLUCOSE - FRUCTOSE SYRUP FROM WHEAT, GLUCOSE SYRUP FROM WHEAT, APPLE PUREE, BRAZILIAN ORANGE JUICE FROM CONCENTRATE, SORBITOL SYRUP (HUMECTANT), NATURAL FLAVOR, CITRIC ACID (ACIDITY REGULATOR), TARTARIC ACID (ACIDITY REGULATOR), PAPRIKA EXTRACT FOR COLOR]." Date available: 07/14/2017 Date last updated by company: 07/14/2017
