Source: USDA Branded Food Products Database Release December 2017 Software v.3.8.6.4 2017-10-02
Report Run at: December 17, 2017 00:11 EST
"Nutrient data for: 45164922, BARRICINI, MILK & DARK CHOCOLATE COVERED ALMONDS, UPC: 075655232243"
Food Group:  Branded Food Products Database
Common Name:

Nutrient,Unit,Data points,Std. Error,"11.0 PIECES = 42.0g",1Value per 100 g,
Proximates
"Energy",kcal,--,--,220,524
"Protein",g,--,--,4.00,9.52
"Total lipid (fat)",g,--,--,17.00,40.48
"Carbohydrate, by difference",g,--,--,19.00,45.24
"Fiber, total dietary",g,--,--,3.0,7.1
"Sugars, total",g,--,--,14.00,33.33
Minerals
"Calcium, Ca",mg,--,--,60,143
"Iron, Fe",mg,--,--,2.14,5.10
"Sodium, Na",mg,--,--,10,24
Vitamins
"Vitamin C, total ascorbic acid",mg,--,--,0.0,0.0
"Vitamin A, IU",IU,--,--,0,0
Lipids
"Fatty acids, total saturated",g,--,--,6.002,14.290
"Fatty acids, total trans",g,--,--,0.000,0.000
"Cholesterol",mg,--,--,0,0
Amino Acids
Other
Ingredients
"MILK CHOCOLATE (SUGAR, COCOA BUTTER, MILK, CHOCOLATE LIQUOR, SOY LECITHIN - AN EMULSIFIER, VANILLA), DARK CHOCOLATE (SUGAR, CHOCOLATE LIQUOR - PROCESSED WITH ALKALI, COCOA BUTTER, SOY LECITHIN - AN EMULSIFIER, VANILLA), ALMONDS, CONFECTIONERS GLAZE." Date available: 07/14/2017 Date last updated by company: 07/14/2017
