Source: USDA Branded Food Products Database Release December 2017 Software v.3.8.6.4 2017-10-02
Report Run at: December 17, 2017 00:12 EST
"Nutrient data for: 45256846, BARS, UPC: 021908460260"
Food Group:  Branded Food Products Database
Common Name:

Nutrient,Unit,Data points,Std. Error,"1 BAR = 45.0g",1Value per 100 g,
Proximates
"Energy",kcal,--,--,190,422
"Protein",g,--,--,4.00,8.89
"Total lipid (fat)",g,--,--,9.00,20.00
"Carbohydrate, by difference",g,--,--,25.00,55.56
"Fiber, total dietary",g,--,--,3.0,6.7
"Sugars, total",g,--,--,18.00,40.00
Minerals
"Calcium, Ca",mg,--,--,30,67
"Iron, Fe",mg,--,--,1.40,3.11
"Potassium, K",mg,--,--,290,644
"Sodium, Na",mg,--,--,0,0
Vitamins
"Vitamin C, total ascorbic acid",mg,--,--,0.0,0.0
"Vitamin A, IU",IU,--,--,0,0
"Vitamin D",IU,--,--,0,0
Lipids
"Fatty acids, total saturated",g,--,--,1.498,3.330
"Fatty acids, total monounsaturated",g,--,--,5.000,11.110
"Fatty acids, total polyunsaturated",g,--,--,1.498,3.330
"Fatty acids, total trans",g,--,--,0.000,0.000
"Cholesterol",mg,--,--,0,0
Amino Acids
Other
Ingredients
"DATES, CASHEWS, ALMONDS, RAISINS, CINNAMON, GINGER, ALLSPICE, VANILLA EXTRACT." Date available: 10/13/2017 Date last updated by company: 10/13/2017
