Source: USDA Branded Food Products Database Release December 2017 Software v.3.8.6.4 2017-10-02
Report Run at: December 17, 2017 00:14 EST
"Nutrient data for: 45101623, BARTELS FARMS, CERTIFIED ORGANIC GROUND BEEF, UPC: 810088021008"
Food Group:  Branded Food Products Database
Common Name:

Nutrient,Unit,Data points,Std. Error,"4.0 ONZ = 112.0g",1Value per 100 g,
Proximates
"Energy",kcal,--,--,240,214
"Protein",g,--,--,22.00,19.64
"Total lipid (fat)",g,--,--,17.00,15.18
"Carbohydrate, by difference",g,--,--,0.00,0.00
Minerals
"Iron, Fe",mg,--,--,1.37,1.22
"Sodium, Na",mg,--,--,55,49
Vitamins
Lipids
"Fatty acids, total saturated",g,--,--,7.000,6.250
"Cholesterol",mg,--,--,69,62
Amino Acids
Other
Ingredients
"ORGANIC BEEF." Date available: 06/25/2017 Date last updated by company: 06/25/2017
