Source: USDA Branded Food Products Database Release December 2017 Software v.3.8.6.4 2017-10-02
Report Run at: December 17, 2017 00:16 EST
"Nutrient data for: 45108989, BARU, MARSHMALLOWS IN MILK CHOCOLATE, UPC: 5425031752028"
Food Group:  Branded Food Products Database
Common Name:

Nutrient,Unit,Data points,Std. Error,"2.0 PIECES = 27.0g",1Value per 100 g,
Proximates
"Energy",kcal,--,--,120,444
"Protein",g,--,--,1.00,3.70
"Total lipid (fat)",g,--,--,4.50,16.67
"Carbohydrate, by difference",g,--,--,18.00,66.67
"Fiber, total dietary",g,--,--,0.2,0.9
"Sugars, total",g,--,--,17.00,62.96
Minerals
"Calcium, Ca",mg,--,--,40,148
"Iron, Fe",mg,--,--,0.67,2.47
"Sodium, Na",mg,--,--,10,37
Vitamins
"Vitamin C, total ascorbic acid",mg,--,--,0.0,0.0
"Vitamin A, IU",IU,--,--,0,0
Lipids
"Fatty acids, total saturated",g,--,--,2.500,9.260
"Fatty acids, total trans",g,--,--,0.000,0.000
"Cholesterol",mg,--,--,5,19
Amino Acids
Other
Ingredients
"MARSHMALLOWS IN MILK CHOCOLATE INGREDIENTS: MARSHMALLOW (52 %) (GLUCOSE FRUCTOSE SYRUP, SUGAR, WATER, DEXTROSE, GELATIN, CORN STARCH, HONEY, GROUND VANILLA BEAN, ACIDITY REGULATOR (LACTIC ACID)), MILK CHOCOLATE(48 %) (SUGAR, COCOA BUTTER, WHOLE MILK POWDER, COCOA MASS, EMULSIFIER (SOYA LECITHIN), NATURAL FLAVOUR (VANILLA)), MILK CHOCOLATE CONTAINS COCOA SOLIDS 35 % MINIMUM AND MILK SOLIDS 22 % MINIMUM." Date available: 06/25/2017 Date last updated by company: 06/25/2017
