Source: USDA Branded Food Products Database Release December 2017 Software v.3.8.6.4 2017-10-02
Report Run at: December 17, 2017 00:21 EST
"Nutrient data for: 45010150, BASHAS', COTTAGE CHEESE, UPC: 031903000811"
Food Group:  Branded Food Products Database
Common Name:

Nutrient,Unit,Data points,Std. Error,"0.5 cup = 110.0g",1Value per 100 g,
Proximates
"Energy",kcal,--,--,110,100
"Protein",g,--,--,13.00,11.82
"Total lipid (fat)",g,--,--,4.50,4.09
"Carbohydrate, by difference",g,--,--,5.00,4.55
"Fiber, total dietary",g,--,--,0.0,0.0
"Sugars, total",g,--,--,3.00,2.73
Minerals
"Calcium, Ca",mg,--,--,100,91
"Iron, Fe",mg,--,--,0.00,0.00
"Sodium, Na",mg,--,--,370,336
Vitamins
"Vitamin C, total ascorbic acid",mg,--,--,0.0,0.0
"Vitamin A, IU",IU,--,--,200,182
Lipids
"Fatty acids, total saturated",g,--,--,3.003,2.730
"Fatty acids, total trans",g,--,--,0.000,0.000
"Cholesterol",mg,--,--,20,18
Amino Acids
Other
Ingredients
"CULTURED NONFAT MILK AND MILK, SALT, GUAR GUM XANTHAN GUM, MONO AND DIGLYERIDES, CARRAGEENAN, CAROB BEAN GUM, SORBIC ACID, CITRIC ACID, CARBON DIOXIDE (TO PROTECT FLAVOR)." Date available: 06/24/2017 Date last updated by company: 06/24/2017
