Source: USDA Branded Food Products Database Release December 2017 Software v.3.8.6.4 2017-10-02
Report Run at: December 17, 2017 00:25 EST
"Nutrient data for: 45212528, BASMATI RICE, UPC: 813568001446"
Food Group:  Branded Food Products Database
Common Name:

Nutrient,Unit,Data points,Std. Error,"100.0 GRM = 100.0g",1Value per 100 g,
Proximates
"Energy",kcal,--,--,364,364
"Protein",g,--,--,19.00,19.00
"Total lipid (fat)",g,--,--,6.00,6.00
"Carbohydrate, by difference",g,--,--,61.00,61.00
"Fiber, total dietary",g,--,--,17.0,17.0
"Sugars, total",g,--,--,11.00,11.00
Minerals
"Calcium, Ca",mg,--,--,50,50
"Iron, Fe",mg,--,--,2.83,2.83
"Sodium, Na",mg,--,--,24,24
Vitamins
"Vitamin C, total ascorbic acid",mg,--,--,4.2,4.2
"Vitamin A, IU",IU,--,--,22,22
Lipids
"Fatty acids, total saturated",g,--,--,1.000,1.000
"Cholesterol",mg,--,--,0,0
Amino Acids
Other
Ingredients
"BASMATI RICE." Date available: 10/13/2017 Date last updated by company: 10/13/2017
