Source: USDA Branded Food Products Database Release December 2017 Software v.3.8.6.4 2017-10-02
Report Run at: December 17, 2017 00:27 EST
"Nutrient data for: 45049708, BATCH, ICE CREAM, GREEN (TEA), UPC: 837654968581"
Food Group:  Branded Food Products Database
Common Name:

Nutrient,Unit,Data points,Std. Error,"0.5 cup = 98.0g",1Value per 100 g,
Proximates
"Energy",kcal,--,--,230,235
"Protein",g,--,--,5.00,5.10
"Total lipid (fat)",g,--,--,16.00,16.33
"Carbohydrate, by difference",g,--,--,18.00,18.37
"Fiber, total dietary",g,--,--,0.0,0.0
"Sugars, total",g,--,--,17.00,17.35
Minerals
"Calcium, Ca",mg,--,--,100,102
"Iron, Fe",mg,--,--,0.40,0.41
"Sodium, Na",mg,--,--,60,61
Vitamins
"Vitamin C, total ascorbic acid",mg,--,--,0.0,0.0
"Vitamin A, IU",IU,--,--,843,860
Lipids
"Fatty acids, total saturated",g,--,--,8.996,9.180
"Fatty acids, total trans",g,--,--,0.000,0.000
"Cholesterol",mg,--,--,135,138
Amino Acids
Other
Ingredients
"MILK, CREAM, ORGANIC CANE SUGAR*, EGG YOLKS, NON FAT MILK, MATCHA" Date available: 06/24/2017 Date last updated by company: 06/24/2017
