Source: USDA Branded Food Products Database Release December 2017 Software v.3.8.6.4 2017-10-02
Report Run at: December 17, 2017 00:29 EST
"Nutrient data for: 45162187, BAUDUCCO, BREAKFAST COOKIE, MILK & CEREALS, UPC: 875754003351"
Food Group:  Branded Food Products Database
Common Name:

Nutrient,Unit,Data points,Std. Error,"5.0 PIECES = 33.0g",1Value per 100 g,
Proximates
"Energy",kcal,--,--,140,424
"Protein",g,--,--,3.00,9.09
"Total lipid (fat)",g,--,--,4.50,13.64
"Carbohydrate, by difference",g,--,--,21.00,63.64
"Fiber, total dietary",g,--,--,4.0,12.1
"Sugars, total",g,--,--,7.00,21.21
Minerals
"Calcium, Ca",mg,--,--,20,61
"Iron, Fe",mg,--,--,1.64,4.96
"Sodium, Na",mg,--,--,75,227
Vitamins
"Vitamin C, total ascorbic acid",mg,--,--,0.0,0.0
"Vitamin A, IU",IU,--,--,0,0
Lipids
"Fatty acids, total saturated",g,--,--,2.000,6.060
"Fatty acids, total trans",g,--,--,0.000,0.000
"Cholesterol",mg,--,--,0,0
Amino Acids
Other
Ingredients
"WHEAT FLOUR, SUGAR, GRANOLA, VEGETABLE OIL SHORTENING (PARTIALLY HYDROGENATED PALM), OAT FLAKES, WHOLE OAT FLOUR, WHEAT BRAN, POLYDEXTROSE MARGARINE, WHOLE MILK, RICE FLAKES, WHEY PERMEATE, INVERT SUGAR, WHOLE WHEAT FLOUR, WHOLE RYE FLOUR, SALT EMULSIFIER: SOY LECITHIN (INS 322), CHEMICAL BAKING POWDER: AMMONIUM BICARBONATE (INS 503II) AND SODIUM BICARBONATE (INS 500II) AND NATURAL FLAVORS." Date available: 07/14/2017 Date last updated by company: 07/14/2017
