Source: USDA Branded Food Products Database Release December 2017 Software v.3.8.6.4 2017-10-02
Report Run at: December 17, 2017 00:30 EST
"Nutrient data for: 45009729, BAVETTE, FLAVORED PASTA, UPC: 020038630086"
Food Group:  Branded Food Products Database
Common Name:

Nutrient,Unit,Data points,Std. Error,"55.0 GRM = 55.0g",1Value per 100 g,
Proximates
"Energy",kcal,--,--,196,356
"Protein",g,--,--,6.70,12.18
"Total lipid (fat)",g,--,--,0.40,0.73
"Carbohydrate, by difference",g,--,--,41.80,76.00
"Fiber, total dietary",g,--,--,0.6,1.1
"Sugars, total",g,--,--,0.53,0.96
Minerals
"Calcium, Ca",mg,--,--,19,35
"Iron, Fe",mg,--,--,2.48,4.50
"Sodium, Na",mg,--,--,38,69
Vitamins
"Vitamin C, total ascorbic acid",mg,--,--,0.0,0.0
"Vitamin A, IU",IU,--,--,0,0
Lipids
"Fatty acids, total saturated",g,--,--,0.083,0.150
"Fatty acids, total trans",g,--,--,0.000,0.000
"Cholesterol",mg,--,--,0,0
Amino Acids
Other
Ingredients
"DURUM WHEAT SEMOLINA, WATER, CHILI POWDER AND 4% RED BEET POWDER 0.2%." Date available: 06/24/2017 Date last updated by company: 06/24/2017
