Source: USDA Branded Food Products Database Release December 2017 Software v.3.8.6.4 2017-10-02
Report Run at: December 17, 2017 00:33 EST
"Nutrient data for: 45146255, BAZOOKA CANDY BRANDS, RINGPOP, WATERMELON, UPC: 041116011597"
Food Group:  Branded Food Products Database
Common Name:

Nutrient,Unit,Data points,Std. Error,"1 PIECE = 14.0g",1Value per 100 g,
Proximates
"Energy",kcal,--,--,60,429
"Protein",g,--,--,0.00,0.00
"Total lipid (fat)",g,--,--,0.00,0.00
"Carbohydrate, by difference",g,--,--,14.00,100.00
"Sugars, total",g,--,--,11.00,78.57
Minerals
"Sodium, Na",mg,--,--,55,393
Vitamins
Lipids
"Fatty acids, total trans",g,--,--,0.000,0.000
Amino Acids
Other
Ingredients
"SUGAR, CORN SYRUP, BUFFERED LACTIC ACID, ARTIFICIAL FLAVOR, PEAR JUICE CONCENTRATE, ARTIFICIAL COLOR (TURMERIC), BLUE 1." Date available: 07/14/2017 Date last updated by company: 07/14/2017
