Source: USDA Branded Food Products Database Release December 2017 Software v.3.8.6.4 2017-10-02
Report Run at: December 17, 2017 00:35 EST
"Nutrient data for: 45269419, BBQ CHICKEN TERIYAKI, UPC: 852724255514"
Food Group:  Branded Food Products Database
Common Name:

Nutrient,Unit,Data points,Std. Error,"1 cup = 150.0g",1Value per 100 g,
Proximates
"Energy",kcal,--,--,250,167
"Protein",g,--,--,31.99,21.33
"Total lipid (fat)",g,--,--,1.50,1.00
"Carbohydrate, by difference",g,--,--,16.00,10.67
"Fiber, total dietary",g,--,--,0.0,0.0
"Sugars, total",g,--,--,15.00,10.00
Minerals
"Calcium, Ca",mg,--,--,0,0
"Iron, Fe",mg,--,--,0.00,0.00
"Sodium, Na",mg,--,--,810,540
Vitamins
"Vitamin C, total ascorbic acid",mg,--,--,0.0,0.0
"Vitamin A, IU",IU,--,--,0,0
Lipids
"Fatty acids, total saturated",g,--,--,3.000,2.000
"Cholesterol",mg,--,--,120,80
Amino Acids
Other
Ingredients
"WHOLE MUSCLE CHICKEN LEG MEAT, WATER, SUGAR, SOY SAUCE (WATER, SUGAR, SOYBEANS, SALT, WHEAT, FLOUR, EXTRACT OF MUSHROOM), SALT, LIME JUICE, GREEN ONION, GARLIC GINGER. SAUCE PACKETS: WATER, SUGAR, SOY SAUCE (WATER, SUGAR, SOYBEANS, SALT, WHEAT, FLOUR, EXTRACT OF MUSHROOM), MODIFIED FOOD STARCH, LIME JUICE, SALT, GREEN ONION, GARLIC, GINGER." Date available: 07/14/2017 Date last updated by company: 07/14/2017
