Source: USDA Branded Food Products Database Release December 2017 Software v.3.8.6.4 2017-10-02
Report Run at: December 17, 2017 00:38 EST
"Nutrient data for: 45085195, BBQ SAUCE, UPC: 047600003659"
Food Group:  Branded Food Products Database
Common Name:

Nutrient,Unit,Data points,Std. Error,"2.0 Tbsp = 34.0g",1Value per 100 g,
Proximates
"Energy",kcal,--,--,50,147
"Protein",g,--,--,0.00,0.00
"Total lipid (fat)",g,--,--,0.00,0.00
"Carbohydrate, by difference",g,--,--,13.00,38.24
"Sugars, total",g,--,--,11.00,32.35
Minerals
"Sodium, Na",mg,--,--,220,647
Vitamins
"Vitamin C, total ascorbic acid",mg,--,--,6.1,17.9
"Vitamin A, IU",IU,--,--,169,497
Lipids
Amino Acids
Other
Ingredients
"TOMATO PUREE (WATER, TOMATO PASTE), SUGAR, VINEGAR, BROWN SUGAR, FOOD STARCH-MODIFIED, SALT, NATURAL APPLEWOOD SMOKE FLAVOR, MOLASSES, CARAMEL COLOR, SPICES, XANTHAN GUM, ONION, RED PEPPER, GARLIC." Date available: 07/14/2017 Date last updated by company: 07/14/2017
