Source: USDA Branded Food Products Database Release December 2017 Software v.3.8.6.4 2017-10-02
Report Run at: December 17, 2017 00:37 EST
"Nutrient data for: 45275358, BBQ SAUCE, RICH & SASSY, UPC: 780993520036"
Food Group:  Branded Food Products Database
Common Name:

Nutrient,Unit,Data points,Std. Error,"2.0 Tbsp = 37.0g",1Value per 100 g,
Proximates
"Energy",kcal,--,--,60,162
"Protein",g,--,--,1.00,2.70
"Total lipid (fat)",g,--,--,0.00,0.00
"Carbohydrate, by difference",g,--,--,14.00,37.84
"Fiber, total dietary",g,--,--,0.0,0.0
"Sugars, total",g,--,--,13.00,35.14
Minerals
"Calcium, Ca",mg,--,--,20,54
"Iron, Fe",mg,--,--,0.61,1.64
"Sodium, Na",mg,--,--,360,973
Vitamins
"Vitamin C, total ascorbic acid",mg,--,--,0.0,0.0
"Vitamin A, IU",IU,--,--,169,457
Lipids
"Fatty acids, total saturated",g,--,--,0.000,0.000
"Fatty acids, total trans",g,--,--,0.000,0.000
"Cholesterol",mg,--,--,0,0
Amino Acids
Other
Ingredients
"HIGH FRUCTOSE CORN SYRUP, TOMATO PASTE, WATER, DISTILLED VINEGAR, PINEAPPLE JUICE CONCENTRATE, MOLASSES, SALT, HONEY, SOYBEAN OIL, BARLEY MALT FLOUR (BARLEY GLUTEN), SPICES, HYDROLYZED SOY PROTEIN, NATURAL SMOKE FLAVOR, ONION POWDER, MUSTARD BRAN, GARLIC POWDER, SODIUM BENZOATE (PRESERVATIVE), NATURAL AND ARTIFICIAL FLAVORS, CARAMEL COLOR, COFFEE, TURMERIC (COLOR)." Date available: 07/14/2017 Date last updated by company: 07/14/2017
