Source: USDA Branded Food Products Database Release December 2017 Software v.3.8.6.4 2017-10-02
Report Run at: December 17, 2017 00:40 EST
"Nutrient data for: 45201486, BBQ SAUCE, UPC: 786754300022"
Food Group:  Branded Food Products Database
Common Name:

Nutrient,Unit,Data points,Std. Error,"2.0 Tbsp = 30.0g",1Value per 100 g,
Proximates
"Energy",kcal,--,--,45,150
"Protein",g,--,--,0.00,0.00
"Total lipid (fat)",g,--,--,0.00,0.00
"Carbohydrate, by difference",g,--,--,12.00,40.00
"Sugars, total",g,--,--,11.00,36.67
Minerals
"Sodium, Na",mg,--,--,115,383
Vitamins
Lipids
Amino Acids
Other
Ingredients
"KETCHUP [TOMATOES, HIGH FRUCTOSE CORN SYRUP, DISTILLED VINEGAR, SALT, LESS THAN 2% OF ONION POWDER, GARLIC POWDER, NATURAL FLAVORS], CHIPOTLE PUREE CHIPOTLE PEPPERS, SALT, CITRIC ACID, HONEY, TOMATO PASTE, WHITE DISTILLED VINEGAR, MOLASSES, BROWN SUGAR, CRUSHED RED PEPPER, LIQUID SMOKE, WHITE PEPPER NATURAL RASPBERRY FLAVOR." Date available: 07/14/2017 Date last updated by company: 07/14/2017
