Source: USDA Branded Food Products Database Release December 2017 Software v.3.8.6.4 2017-10-02
Report Run at: December 17, 2017 00:40 EST
"Nutrient data for: 45204186, BBQ SAUCE, UPC: 859296002171"
Food Group:  Branded Food Products Database
Common Name:

Nutrient,Unit,Data points,Std. Error,"1 Tbsp = 17.0g",1Value per 100 g,
Proximates
"Energy",kcal,--,--,60,353
"Protein",g,--,--,0.00,0.00
"Total lipid (fat)",g,--,--,0.00,0.00
"Carbohydrate, by difference",g,--,--,15.00,88.24
"Sugars, total",g,--,--,15.00,88.24
Minerals
"Sodium, Na",mg,--,--,5,29
Vitamins
"Vitamin C, total ascorbic acid",mg,--,--,8.1,47.8
Lipids
Amino Acids
Other
Ingredients
"WATER, SMOKED TOMATO PASTE, MOLASSES, DISTILLED VINEGAR, BLACK CHERRIES, BROWN SUGAR, HONEY, NATURAL MESQUITE SMOKE FLAVOR, SPICES, CARMELIZED ONION, GARLIC, TAMARIND, NATURAL FLAVOR, CORN LIQUOR, SEA SALT." Date available: 09/02/2017 Date last updated by company: 09/02/2017
