Source: USDA Branded Food Products Database Release December 2017 Software v.3.8.6.4 2017-10-02
Report Run at: December 17, 2017 00:42 EST
"Nutrient data for: 45323350, BBQ SAUCE, UPC: 665591893143"
Food Group:  Branded Food Products Database
Common Name:

Nutrient,Unit,Data points,Std. Error,"2.0 Tbsp = 36.0g",1Value per 100 g,
Proximates
"Energy",kcal,--,--,90,250
"Protein",g,--,--,0.00,0.00
"Total lipid (fat)",g,--,--,0.00,0.00
"Carbohydrate, by difference",g,--,--,23.00,63.89
"Fiber, total dietary",g,--,--,0.0,0.0
"Sugars, total",g,--,--,22.00,61.11
Minerals
"Calcium, Ca",mg,--,--,0,0
"Iron, Fe",mg,--,--,0.61,1.69
"Sodium, Na",mg,--,--,460,1278
Vitamins
"Vitamin C, total ascorbic acid",mg,--,--,2.0,5.6
"Vitamin A, IU",IU,--,--,507,1408
Lipids
"Fatty acids, total saturated",g,--,--,0.000,0.000
"Fatty acids, total trans",g,--,--,0.000,0.000
"Cholesterol",mg,--,--,0,0
Amino Acids
Other
Ingredients
"BROWN SUGAR, KETCHUP (RED RIPE TOMATOES, DISTILLED VINEGAR, HIGH FRUCTOSE CORN SYRUP, CORN SYRUP, SALT, ONION POWDER, NATURAL FLAVOR), APPLE CIDER VINEGAR, SUGAR, SALT, SPICE, CHILI POWDER (CHILI PEPPER, SPICES, SALT, GARLIC POWDER), PAPRIKA, WORCESTERSHIRE SAUCE (DISTILLED VINEGAR, MOLASSES, WATER, CORN SYRUP, SALT, CARAMEL COLOR, SUGAR, SPICES, ANCHOVIES, NATURAL FLAVORS (SOY) AND TAMARIND EXTRACT), VANILLA EXTRACT, DRIED GARLIC, AND SPICES." Date available: 07/14/2017 Date last updated by company: 07/14/2017
