Source: USDA Branded Food Products Database Release December 2017 Software v.3.8.6.4 2017-10-02
Report Run at: December 17, 2017 00:35 EST
"Nutrient data for: 45257243, BBQ CHICKEN SALAD, UPC: 040232156694"
Food Group:  Branded Food Products Database
Common Name:

Nutrient,Unit,Data points,Std. Error,"1 PACKAGE = 260.0g",1Value per 100 g,
Proximates
"Energy",kcal,--,--,369,142
"Protein",g,--,--,10.01,3.85
"Total lipid (fat)",g,--,--,30.00,11.54
"Carbohydrate, by difference",g,--,--,15.99,6.15
"Fiber, total dietary",g,--,--,3.1,1.2
"Sugars, total",g,--,--,6.01,2.31
Minerals
"Calcium, Ca",mg,--,--,99,38
"Iron, Fe",mg,--,--,0.57,0.22
"Sodium, Na",mg,--,--,551,212
Vitamins
"Vitamin C, total ascorbic acid",mg,--,--,9.6,3.7
"Vitamin A, IU",IU,--,--,1885,725
Lipids
"Fatty acids, total saturated",g,--,--,6.006,2.310
"Fatty acids, total trans",g,--,--,0.000,0.000
"Cholesterol",mg,--,--,44,17
Amino Acids
Other
Ingredients
"ICEBERG LETTUCE, ROMAINE LETTUCE, RANCH DRESSING (FILTERED WATER, SOYBEAN OIL, WHITE VINEGAR, SUGAR, EGG YOLKS, SALT, BUTTERMILK, ONION PUREE, MUSTARD FLOUR, GARLIC PUREE, CILANTRO, YEAST POWDER, BLACK PEPPER, LACTIC ACID, DILLWEED, LEMON JUICE CONCENTRATE, XANTHAN GUM), PICO DE GALLO (ROMA TOMATOES, YELLOW ONION, GREEN BELL PEPPER, ONION WATER, JALAPENO PEPPER, CILANTRO LEAVES, VINEGAR, SALT, SUGAR, LIME JUICE BLACK PEPPER, ONION POWDER, CHIPOLTE POWDER, GARLIC), CHICKEN BREAST (CHICKEN BREAST WITH RIB MEAT, WATER, SEASONING [SALT, SUGAR, SPICE EXTRACTIVES ON A DEXTROSE CARRIER] AND SODIUM PHOSPHATES), LIGHTLY SALTED TORTILLA STRIPS (CORN MASA FLOUR, SUNFLOWER, SAFFLOWER, CANOLA AND/OR CORN OIL, SALT), SHREDDED FOUR CHEESE BLEND (MONTEREY JACK AND QUESO QUESADILLA CHEESE [PASTEURIZED MILK, CHEESE CULTURE, SALT, ENZYMES], ASADERO AND CHEDDAR CHEESE [PASTEURIZED MILK, CHEESE CULTURE, SALT, ENZYMES], ASADERO AND CHEDDAR CHEESE [PASTEURIZED MILK, CHEESE CULTURE, SALT, ENZYMES, ANNATO AND {VEGETABLE COLOR}], POTATO STARCH AND POWDERED CELLULOSE [TO PREVENT CAKING], NATAMYCIN [A NATURAL MOLD INHIBITOR]), BBQ CHICKEN SPRINKLE (PROCESED FROM: SUGAR TOMATO POWDER, VINEGAR POWDER [VINEGAR SOLIDS, RICE FLOUR], PAPRIKA, ONION AND GARLIC POWDER, SPICES, YEAST EXTRACT, NATURAL SMOKE FLAVOR AND NOT MORE THAN 2% SILICON DIOXIDE ADDED TO PREVENT CAKING)." Date available: 07/14/2017 Date last updated by company: 07/14/2017
