Source: USDA Branded Food Products Database Release December 2017 Software v.3.8.6.4 2017-10-02
Report Run at: December 17, 2017 00:42 EST
"Nutrient data for: 45276414, BBQ SAUCE, UPC: 094922224224"
Food Group:  Branded Food Products Database
Common Name:

Nutrient,Unit,Data points,Std. Error,"2.0 Tbsp = 30.0g",1Value per 100 g,
Proximates
"Energy",kcal,--,--,40,133
"Protein",g,--,--,0.00,0.00
"Total lipid (fat)",g,--,--,0.00,0.00
"Carbohydrate, by difference",g,--,--,10.00,33.33
"Fiber, total dietary",g,--,--,0.0,0.0
"Sugars, total",g,--,--,8.00,26.67
Minerals
"Calcium, Ca",mg,--,--,0,0
"Iron, Fe",mg,--,--,0.61,2.03
"Sodium, Na",mg,--,--,290,967
Vitamins
"Vitamin C, total ascorbic acid",mg,--,--,2.0,6.8
"Vitamin A, IU",IU,--,--,169,563
Lipids
"Fatty acids, total saturated",g,--,--,0.000,0.000
"Fatty acids, total trans",g,--,--,0.000,0.000
"Cholesterol",mg,--,--,0,0
Amino Acids
Other
Ingredients
"TOMATO CONCENTRATE, SUGAR, MOLASSES, HOT PEPPERS, NATURAL HICKORY SMOKED FLAVOR, WORCESTERSHIRE SAUCE, VINEGAR, FRUIT CONCENTRATE, MUSTARD AND SPECIAL BLEND." Date available: 07/14/2017 Date last updated by company: 07/14/2017
