Source: USDA Branded Food Products Database Release December 2017 Software v.3.8.6.4 2017-10-02
Report Run at: December 17, 2017 00:40 EST
"Nutrient data for: 45202817, BBQ SAUCE, UPC: 853091003005"
Food Group:  Branded Food Products Database
Common Name:

Nutrient,Unit,Data points,Std. Error,"2.0 Tbsp = 30.0g",1Value per 100 g,
Proximates
"Energy",kcal,--,--,50,167
"Protein",g,--,--,0.00,0.00
"Total lipid (fat)",g,--,--,0.00,0.00
"Carbohydrate, by difference",g,--,--,13.00,43.33
"Sugars, total",g,--,--,13.00,43.33
Minerals
"Iron, Fe",mg,--,--,0.61,2.03
"Sodium, Na",mg,--,--,220,733
Vitamins
"Vitamin C, total ascorbic acid",mg,--,--,2.0,6.8
"Vitamin A, IU",IU,--,--,338,1127
Lipids
Amino Acids
Other
Ingredients
"KETCHUP (TOMATOES, DISTILLED VINEGAR, HIGH FRUCTOSE CORN SYRUP, CORN SYRUP, SALT, SPICES, ONION POWDER, NATURAL FLAVOR), BROWN SUGAR, SUGAR, HONEY, APPLE CIDER VINEGAR, UN-SULPHERED MOLASSES, SPICES, PEPPER SAUCE (DISTILLED VINEGAR, RED PEPPER, SALT), SMOKE FLAVOR, RED PEPPER, BLACK PEPPER, DRIED GARLIC AND ONION." Date available: 07/14/2017 Date last updated by company: 07/14/2017
