Source: USDA Branded Food Products Database Release December 2017 Software v.3.8.6.4 2017-10-02
Report Run at: December 17, 2017 00:37 EST
"Nutrient data for: 45204319, BBQ SAUCE & RUBS, UPC: 868134000118"
Food Group:  Branded Food Products Database
Common Name:

Nutrient,Unit,Data points,Std. Error,"2.0 Tbsp = 30.0g",1Value per 100 g,
Proximates
"Energy",kcal,--,--,45,150
"Protein",g,--,--,1.00,3.33
"Total lipid (fat)",g,--,--,0.00,0.00
"Carbohydrate, by difference",g,--,--,12.00,40.00
"Fiber, total dietary",g,--,--,0.0,0.0
"Sugars, total",g,--,--,11.00,36.67
Minerals
"Calcium, Ca",mg,--,--,0,0
"Iron, Fe",mg,--,--,0.61,2.03
"Sodium, Na",mg,--,--,115,383
Vitamins
"Vitamin C, total ascorbic acid",mg,--,--,4.0,13.5
"Vitamin A, IU",IU,--,--,169,563
Lipids
"Fatty acids, total saturated",g,--,--,0.000,0.000
"Fatty acids, total trans",g,--,--,0.000,0.000
"Cholesterol",mg,--,--,0,0
Amino Acids
Other
Ingredients
"TOMATO PUREE (WATER, TOMATO PASTE, SUGAR, HONEY, VINEGAR, SALT MODIFIED FOOD STARCH, ONION, GARLIC, PINEAPPLE JUICE CONCENTRATE, NATURAL SMOKE FLAVORS, SPICES." Date available: 07/14/2017 Date last updated by company: 07/14/2017
