Source: USDA Branded Food Products Database Release December 2017 Software v.3.8.6.4 2017-10-02
Report Run at: December 17, 2017 00:44 EST
"Nutrient data for: 45273978, BBQ SEASONING, UPC: 018894250036"
Food Group:  Branded Food Products Database
Common Name:

Nutrient,Unit,Data points,Std. Error,"10.0 GRM = 10.0g",1Value per 100 g,
Proximates
"Energy",kcal,--,--,18,181
"Protein",g,--,--,0.30,3.00
"Total lipid (fat)",g,--,--,0.30,3.00
"Carbohydrate, by difference",g,--,--,4.00,40.00
"Fiber, total dietary",g,--,--,0.6,6.0
Minerals
"Calcium, Ca",mg,--,--,14,136
"Iron, Fe",mg,--,--,0.90,9.00
"Sodium, Na",mg,--,--,401,4006
Vitamins
"Vitamin C, total ascorbic acid",mg,--,--,1.3,13.0
"Vitamin A, IU",IU,--,--,758,7575
Lipids
Amino Acids
Other
Ingredients
"SALT, SUGAR, DEXTROSE, PAPRIKA, DEHYDRATED GARLIC, TURMERIC & SILICON DIOXIDE ADDED TO PREVENT CAKING." Date available: 07/14/2017 Date last updated by company: 07/14/2017
