Source: USDA Branded Food Products Database Release December 2017 Software v.3.8.6.4 2017-10-02
Report Run at: December 17, 2017 00:41 EST
"Nutrient data for: 45235987, BBQ SAUCE, UPC: 044284860110"
Food Group:  Branded Food Products Database
Common Name:

Nutrient,Unit,Data points,Std. Error,"2.0 Tbsp = 36.0g",1Value per 100 g,
Proximates
"Energy",kcal,--,--,50,139
"Protein",g,--,--,1.00,2.78
"Total lipid (fat)",g,--,--,1.00,2.78
"Carbohydrate, by difference",g,--,--,12.00,33.33
"Fiber, total dietary",g,--,--,0.0,0.0
"Sugars, total",g,--,--,11.00,30.56
Minerals
"Calcium, Ca",mg,--,--,0,0
"Iron, Fe",mg,--,--,0.61,1.69
"Sodium, Na",mg,--,--,330,917
Vitamins
"Vitamin C, total ascorbic acid",mg,--,--,6.1,16.9
"Vitamin A, IU",IU,--,--,338,939
Lipids
"Fatty acids, total saturated",g,--,--,0.000,0.000
"Fatty acids, total trans",g,--,--,0.000,0.000
"Cholesterol",mg,--,--,0,0
Amino Acids
Other
Ingredients
"KETCHUP (WATER, TOMATO CONCENTRATE, CORN SYURP, HIGH FRUCTOSE CORN SYRUP, DISTILLED VINEGAR, SALT, ONION POWDER AND NATURAL FLAVORING), HONEY, SCOTTS SAUCE (VINEGAR, SALT, PEPPERS AND SPICES), BROWN SUGAR, STEAK SAUCE (TOMATO PASTE, HIGH FRUCTOSE CORN SYRUP MALT VINEGAR, DISTILLED VINEGAR, SALT, SPICES, APPLE JUICE CONCENTRATE, SOYBEAN OIL, TURMERIC, DEHYDRATED ONION, XANTHAN GUM, POTASSIUM SORBATE AND SODIUM BENZOATE [PRESERVATIVES], DEHYDRATED GARLIC, CARAMEL COLOR), GARLIC (GARLIC, WATER), BUTTER (PASTEURIZED CREAM, SALT), CIDER VINEGAR, GREEN ONION, SOIDUM BENZOATE AND POTASSIUM SORBATE (PRESERVATIVES)." Date available: 06/25/2017 Date last updated by company: 06/25/2017
