Source: USDA Branded Food Products Database Release December 2017 Software v.3.8.6.4 2017-10-02
Report Run at: December 17, 2017 00:42 EST
"Nutrient data for: 45273115, BBQ SAUCE, UPC: 867206000100"
Food Group:  Branded Food Products Database
Common Name:

Nutrient,Unit,Data points,Std. Error,"1 Tbsp = 14.0g",1Value per 100 g,
Proximates
"Energy",kcal,--,--,15,107
"Protein",g,--,--,0.00,0.00
"Total lipid (fat)",g,--,--,0.00,0.00
"Carbohydrate, by difference",g,--,--,3.00,21.43
"Fiber, total dietary",g,--,--,0.3,1.8
"Sugars, total",g,--,--,3.00,21.43
Minerals
"Calcium, Ca",mg,--,--,0,0
"Iron, Fe",mg,--,--,0.61,4.35
"Sodium, Na",mg,--,--,188,1343
Vitamins
"Vitamin C, total ascorbic acid",mg,--,--,10.2,72.5
"Vitamin A, IU",IU,--,--,338,2414
Lipids
"Fatty acids, total saturated",g,--,--,0.000,0.000
"Fatty acids, total trans",g,--,--,0.000,0.000
"Cholesterol",mg,--,--,0,0
Amino Acids
Other
Ingredients
"HIGH FRUCTOSE CORN SYRUP, VINEGAR, TOMATO PASTE, PINEAPPLE JUICE, LIQUID SMOKE, SUGAR, TAMARIND, SODIUM BENZOATE, MUSTARD, TOMATOES, SOY SAUCE, WORCESTERSHIRE SAUCE, ONION POWDER, GARLIC POWDER, CREOLE SEASONING." Date available: 07/14/2017 Date last updated by company: 07/14/2017
