Source: USDA Branded Food Products Database Release December 2017 Software v.3.8.6.4 2017-10-02
Report Run at: December 17, 2017 00:44 EST
"Nutrient data for: 45324635, BBQ SEASONED PORK JERKY, UPC: 020501673817"
Food Group:  Branded Food Products Database
Common Name:

Nutrient,Unit,Data points,Std. Error,"1 ONZ = 26.0g",1Value per 100 g,
Proximates
"Energy",kcal,--,--,70,269
"Protein",g,--,--,9.00,34.62
"Total lipid (fat)",g,--,--,1.50,5.77
"Carbohydrate, by difference",g,--,--,5.00,19.23
"Fiber, total dietary",g,--,--,0.0,0.0
"Sugars, total",g,--,--,4.00,15.38
Minerals
"Calcium, Ca",mg,--,--,0,0
"Iron, Fe",mg,--,--,0.00,0.00
"Sodium, Na",mg,--,--,270,1038
Vitamins
"Vitamin C, total ascorbic acid",mg,--,--,0.0,0.0
"Vitamin A, IU",IU,--,--,0,0
Lipids
"Fatty acids, total saturated",g,--,--,0.000,0.000
"Fatty acids, total trans",g,--,--,0.000,0.000
"Cholesterol",mg,--,--,25,96
Amino Acids
Other
Ingredients
"PORK, BROWN SUGAR, WATER, SOY SAUCE (WATER, SOYBEANS, RICE, SALT), BBQ SEASONING (SEA SALT, SPICES INCLUDING CELERY SEED, PAPRIKA, DEHYDRATED GARLIC, SUGAR, ONION POWDER, CITRIC ACID). CONTAINS 2% OR LESS OF SALT, FLAVORINGS, LEMON JUICE CONCENTRATE, SODIUM NITRITE, CITRIC ACID." Date available: 10/13/2017 Date last updated by company: 10/13/2017
