Source: USDA Branded Food Products Database Release December 2017 Software v.3.8.6.4 2017-10-02
Report Run at: December 17, 2017 00:40 EST
"Nutrient data for: 45204158, BBQ SAUCE, UPC: 858320000268"
Food Group:  Branded Food Products Database
Common Name:

Nutrient,Unit,Data points,Std. Error,"2.0 Tbsp = 30.0g",1Value per 100 g,
Proximates
"Energy",kcal,--,--,45,150
"Protein",g,--,--,0.00,0.00
"Total lipid (fat)",g,--,--,0.00,0.00
"Carbohydrate, by difference",g,--,--,10.00,33.33
"Fiber, total dietary",g,--,--,0.0,0.0
"Sugars, total",g,--,--,0.00,0.00
Minerals
"Sodium, Na",mg,--,--,210,700
Vitamins
Lipids
"Fatty acids, total saturated",g,--,--,0.000,0.000
"Fatty acids, total trans",g,--,--,0.000,0.000
"Cholesterol",mg,--,--,0,0
Amino Acids
Other
Ingredients
"WATER, XYLITOL, TOMATO PASTE, DISTILLED VINEGAR, MODIFIED TAPIOCA STARCH, SALT, SPICES, SOYBEAN OIL, HYDROLYZED VEGETABLE PROTEIN, CITRIC ACID, ONION, GARLIC, PAPRIKA, LIQUID SMOKE, NATURAL FLAVORINGS." Date available: 07/14/2017 Date last updated by company: 07/14/2017
