Source: USDA Branded Food Products Database Release December 2017 Software v.3.8.6.4 2017-10-02
Report Run at: December 17, 2017 00:38 EST
"Nutrient data for: 45050195, BBQ SAUCE, UPC: 072287190163"
Food Group:  Branded Food Products Database
Common Name:

Nutrient,Unit,Data points,Std. Error,"2.0 Tbsp = 35.0g",1Value per 100 g,
Proximates
"Energy",kcal,--,--,25,71
"Protein",g,--,--,0.00,0.00
"Total lipid (fat)",g,--,--,0.00,0.00
"Carbohydrate, by difference",g,--,--,6.00,17.14
"Fiber, total dietary",g,--,--,0.0,0.0
"Sugars, total",g,--,--,5.00,14.29
Minerals
"Calcium, Ca",mg,--,--,0,0
"Iron, Fe",mg,--,--,0.00,0.00
"Sodium, Na",mg,--,--,500,1429
Vitamins
"Vitamin C, total ascorbic acid",mg,--,--,2.0,5.8
"Vitamin A, IU",IU,--,--,338,966
Lipids
"Fatty acids, total saturated",g,--,--,0.000,0.000
"Fatty acids, total trans",g,--,--,0.000,0.000
"Cholesterol",mg,--,--,0,0
Amino Acids
Other
Ingredients
"WATER, KETCHUP (RED RIPE TOMATOES, DISTILLED VINEGAR, HIGH FRUCTOSE CORN SYRUP, CORN SYRUP, SALT, SPICE, ONION POWDER, NATURAL FLAVORING), MUSTARD (WATER, DISTILLED VINEGAR, MUSTARD SEED, MUSTARD BRAN, SALT, TUMERIC), SUGAR, VINEGAR, SALT, WORCESTERSHIRE SAUCE (WATER, DISTILLED VINEGAR, SALT, SUGAR, HYDROLYZED SOY PROTEIN, CORN SYRUP SOLIDS, CITRIC ACID, CARAMEL COLOR, GARLIC POWER, ONION POWDER, BLACK PEPPER, SPICES, SPICE EXTRACTIVES, SILICON DIOXIDE), TOMATO SEASONING." Date available: 06/25/2017 Date last updated by company: 06/25/2017
