Source: USDA Branded Food Products Database Release December 2017 Software v.3.8.6.4 2017-10-02
Report Run at: December 17, 2017 00:45 EST
"Nutrient data for: 45187288, BEAGLE BAY ORGANICS, RAW SAUERKRAUT, CARROT & DILL, UPC: 654367229521"
Food Group:  Branded Food Products Database
Common Name:

Nutrient,Unit,Data points,Std. Error,"2.0 Tbsp = 30.0g",1Value per 100 g,
Proximates
"Energy",kcal,--,--,10,33
"Protein",g,--,--,1.00,3.33
"Total lipid (fat)",g,--,--,0.00,0.00
"Carbohydrate, by difference",g,--,--,2.00,6.67
"Fiber, total dietary",g,--,--,1.0,3.3
Minerals
"Calcium, Ca",mg,--,--,20,67
"Sodium, Na",mg,--,--,180,600
Vitamins
"Vitamin C, total ascorbic acid",mg,--,--,39.0,130.0
Lipids
Amino Acids
Other
Ingredients
"GREEN CABBAGE*, CARROTS*, DILL*, CELTIC SEA SALT." Date available: 07/14/2017 Date last updated by company: 07/14/2017
