Source: USDA Branded Food Products Database Release December 2017 Software v.3.8.6.4 2017-10-02
Report Run at: December 17, 2017 00:48 EST
"Nutrient data for: 45257463, BEAN SOUP MIX, UPC: 074175315900"
Food Group:  Branded Food Products Database
Common Name:

Nutrient,Unit,Data points,Std. Error,"0.25 cup = 38.0g",1Value per 100 g,
Proximates
"Energy",kcal,--,--,80,211
"Protein",g,--,--,8.00,21.05
"Total lipid (fat)",g,--,--,0.00,0.00
"Carbohydrate, by difference",g,--,--,23.00,60.53
"Fiber, total dietary",g,--,--,13.0,34.2
"Sugars, total",g,--,--,1.00,2.63
Minerals
"Calcium, Ca",mg,--,--,40,105
"Iron, Fe",mg,--,--,1.42,3.74
"Sodium, Na",mg,--,--,80,211
Vitamins
"Vitamin C, total ascorbic acid",mg,--,--,0.0,0.0
"Vitamin A, IU",IU,--,--,0,0
Lipids
"Fatty acids, total saturated",g,--,--,0.000,0.000
"Fatty acids, total trans",g,--,--,0.000,0.000
"Cholesterol",mg,--,--,0,0
Amino Acids
Other
Ingredients
"CONTAINS 16 OF THE FOLLOWING VARIETES: LARGE LIMA BEANS, SMALL WHITE BEANS, RED KIDNEY BEANS, BABY LIMA BEANS, GREAT NORTHERN BEANS, SPECKLED LIMA BEANS, BLACK BEANS, GREEN BABY LIMA BEANS, PINTO BEANS, CRANBERRY BEANS, PINK BEANS, WHOLE GREEN PEAS, YELLOW SPLIT PEAS, LENTILS, GREEN SPLIT PEAS, SMALL RED BEANS, NAVY BEANS, BLACKEYE PEAS, CHICKEN FLAVOR PACKET INGREDIENTS: SALT, MALTODEXTRIN, DEXTROSE, MODIFIED FOOD STARCH, SUGAR, ONION, HYDROLYZED CORN PROTEIN, NATURAL AND ARTIFICIAL FLAVORS, OLEORESIN, TURMERIC." Date available: 08/10/2017 Date last updated by company: 08/10/2017
