Source: USDA Branded Food Products Database Release December 2017 Software v.3.8.6.4 2017-10-02
Report Run at: December 17, 2017 00:45 EST
"Nutrient data for: 45267377, BEAN & CHEESE WRAP, UPC: 614294201052"
Food Group:  Branded Food Products Database
Common Name:

Nutrient,Unit,Data points,Std. Error,"5.25 ONZ = 149.0g",1Value per 100 g,
Proximates
"Energy",kcal,--,--,270,181
"Protein",g,--,--,12.99,8.72
"Total lipid (fat)",g,--,--,10.00,6.71
"Carbohydrate, by difference",g,--,--,36.00,24.16
"Fiber, total dietary",g,--,--,7.0,4.7
"Sugars, total",g,--,--,3.99,2.68
Minerals
"Calcium, Ca",mg,--,--,200,134
"Iron, Fe",mg,--,--,3.38,2.27
"Sodium, Na",mg,--,--,520,349
Vitamins
"Vitamin C, total ascorbic acid",mg,--,--,3.4,2.3
"Vitamin A, IU",IU,--,--,375,252
Lipids
"Fatty acids, total saturated",g,--,--,5.006,3.360
"Fatty acids, total trans",g,--,--,0.000,0.000
"Cholesterol",mg,--,--,19,13
Amino Acids
Other
Ingredients
"TORTILLA (ORGANIC UNBLEACHED FLOUR, WATER, NON-GMO EXPELLER PRESSED SAFFLOWER OIL, ORGANIC WHOLE WHEAT, SALT, MONOGLYCERIDES, LEAVENING [SODIUM ACID PYROPHOSPHATE, SODIUM BICARBONATE, NON-GMO CORN STARCH, MONOCALCIUM PHOSPHATE], CULTURED WHEAT FLOUR, GUAR GUM, CITRIC ACID), ORGANIC PINTO BEANS, MONTEREY JACK CHEESE (PASTEURIZED MILK-FREE OF ARTIFICIAL HORMONES (RBGH), CULTURE, SALT, ENZYMES), CHEDDAR CHEESE (PASTEURIZED MILK-FREE OF ARTIFICIAL HORMONES (RBGH), CULTURE, SALT, ENZYMES, ANNATTO), SALSA (ORGANIC TOMATOES, ONION, CILANTRO, LEMON JUICE, APPLE CIDER VINEGAR, GARLIC, JALAPENO, SEA SALT, SPICES, CITRIC ACID, BLACK PEPPER, CULTURED DEXTROSE), ONION, GARLIC, ORGANIC CANOLA OIL, KOSHER SALT, MILD CHILI POWDER AND SPICES." Date available: 10/13/2017 Date last updated by company: 10/13/2017
