Source: USDA Branded Food Products Database Release December 2017 Software v.3.8.6.4 2017-10-02
Report Run at: December 17, 2017 00:50 EST
"Nutrient data for: 45139749, BEAR CREEK COUNTRY KITCHENS, PASTA MIX, CHICKEN, UPC: 760263911306"
Food Group:  Branded Food Products Database
Common Name:

Nutrient,Unit,Data points,Std. Error,"1 CUP PREPARED (DRY) = 70.0g",1Value per 100 g,
Proximates
"Energy",kcal,--,--,270,386
"Protein",g,--,--,8.00,11.43
"Total lipid (fat)",g,--,--,3.50,5.00
"Carbohydrate, by difference",g,--,--,50.00,71.43
"Fiber, total dietary",g,--,--,4.0,5.7
"Sugars, total",g,--,--,5.00,7.14
Minerals
"Calcium, Ca",mg,--,--,20,29
"Iron, Fe",mg,--,--,3.60,5.14
"Sodium, Na",mg,--,--,980,1400
Vitamins
"Vitamin C, total ascorbic acid",mg,--,--,0.0,0.0
"Vitamin A, IU",IU,--,--,0,0
Lipids
"Fatty acids, total saturated",g,--,--,1.498,2.140
"Fatty acids, total trans",g,--,--,0.000,0.000
"Cholesterol",mg,--,--,0,0
Amino Acids
Other
Ingredients
"ENRICHED PASTA (WHEAT FLOUR, REDUCED IRON, THIAMINE MONONITRATE, RIBOFLAVIN AND FOLIC ACID), MODIFIED CORN STARCH, CORN SYRUP SOLIDS, PALM OIL, CHICKEN FAT, COOKED CHICKEN, ONIONS, CARROTS, PEAS, RED AND GREEN BELL PEPPERS, CELERY, SODIUM CASEINATE (MILK PROTEIN), TAPIOCA DEXTRIN, SALT, NATURAL AND ARTIFICIAL FLAVORS, HYDROLYZED CORN PROTEIN, MONO AND DIGLYCERIDES, SUGAR, MEDIUM CHAIN TRIGLYCERIDES, DIPOTASSIUM PHOSPHATE, SPICES, GARLIC, BLACK PEPPER, SAGE, TURMERIC, ANNATTO, SUNFLOWER OIL, GUM ARABIC, DISODIUM INOSINATE AND DISODIUM GUANYLATE." Date available: 07/14/2017 Date last updated by company: 07/14/2017
