Source: USDA Branded Food Products Database Release December 2017 Software v.3.8.6.4 2017-10-02
Report Run at: December 17, 2017 00:55 EST
"Nutrient data for: 45146932, BEBETO, WACKY STICKS, LEMON VANILLA, UPC: 818480010255"
Food Group:  Branded Food Products Database
Common Name:

Nutrient,Unit,Data points,Std. Error,"4.0 PIECES = 38.0g",1Value per 100 g,
Proximates
"Energy",kcal,--,--,140,368
"Protein",g,--,--,1.00,2.63
"Total lipid (fat)",g,--,--,0.00,0.00
"Carbohydrate, by difference",g,--,--,34.00,89.47
"Fiber, total dietary",g,--,--,0.0,0.0
"Sugars, total",g,--,--,24.00,63.16
Minerals
"Sodium, Na",mg,--,--,0,0
Vitamins
Lipids
"Fatty acids, total saturated",g,--,--,0.999,2.630
"Fatty acids, total trans",g,--,--,0.000,0.000
"Cholesterol",mg,--,--,0,0
Amino Acids
Other
Ingredients
"SUGAR, CORN SYRUP, WHEAT FLOUR, PALM OIL, ACIDULANTS (CITRIC ACID, MALIC ACID), MODIFIED CORN STARCH, DEXTROSE, FRUIT JUICE CONCENTRATE, SORBITOL, BEEF GELATINE, ARTIFICIAL FLAVORS, MONO-AND DI-GLYCERIDES, COLOR (YELLOW NO.5)." Date available: 07/14/2017 Date last updated by company: 07/14/2017
