Source: USDA Branded Food Products Database Release December 2017 Software v.3.8.6.4 2017-10-02
Report Run at: December 17, 2017 00:56 EST
"Nutrient data for: 45161674, BEDRE, DARK CHOCOLATE, RASPBERRY, UPC: 843444002090"
Food Group:  Branded Food Products Database
Common Name:

Nutrient,Unit,Data points,Std. Error,"1 BAR = 57.0g",1Value per 100 g,
Proximates
"Energy",kcal,--,--,300,526
"Protein",g,--,--,2.00,3.51
"Total lipid (fat)",g,--,--,18.00,31.58
"Carbohydrate, by difference",g,--,--,33.00,57.89
"Fiber, total dietary",g,--,--,2.0,3.5
"Sugars, total",g,--,--,25.00,43.86
Minerals
"Calcium, Ca",mg,--,--,20,35
"Iron, Fe",mg,--,--,1.27,2.22
"Sodium, Na",mg,--,--,70,123
Vitamins
"Vitamin C, total ascorbic acid",mg,--,--,0.0,0.0
"Vitamin A, IU",IU,--,--,0,0
Lipids
"Fatty acids, total saturated",g,--,--,11.001,19.300
"Fatty acids, total trans",g,--,--,0.000,0.000
"Cholesterol",mg,--,--,10,18
Amino Acids
Other
Ingredients
"SEMISWEET CHOCOLATE COATING (SUGAR, CHOCOLATE LIQUOR [PROCESSED WITH ALKALI], COCOA BUTTER, MILK FAT, SOY LECITHIN [AN EMULSIFIER], VANILLA), CARAMEL (CORN SYRUP, BUTTER, SUGAR, HYDROGENATED COCONUT OIL, FRUCTOSE, MILK, EMULSIFIERS [MONO AND DIGLYCERIDES AND SOY LECITHIN], SALT, NATURAL AND ARTIFICIAL FLAVORS, TBHQ AND CITRIC ACID [TO PRESERVE FRESHNESS]), AND RASPBERRY COMPOUND (SEEDLESS RASPBERRY, SUGAR, FOOD ACID [CITRIC AND ASCORBIC], PECTIN NATURAL FLAVOR, PLANT EXTRACTIVES AND/OR FD&C RED #40, RED #3, BLUE #1, [MAY CONTAIN SODIUM BENZOATE])." Date available: 07/14/2017 Date last updated by company: 07/14/2017
