Source: USDA Branded Food Products Database Release December 2017 Software v.3.8.6.4 2017-10-02
Report Run at: December 17, 2017 01:37 EST
"Nutrient data for: 45159170, BEE'S WATER, HONEY WATER, ORANGE, UPC: 895741002136"
Food Group:  Branded Food Products Database
Common Name:

Nutrient,Unit,Data points,Std. Error,"8.0 OZA = 240.0g",1Value per 100 g,
Proximates
"Energy",kcal,--,--,41,17
"Protein",g,--,--,0.00,0.00
"Total lipid (fat)",g,--,--,0.00,0.00
"Carbohydrate, by difference",g,--,--,10.99,4.58
"Sugars, total",g,--,--,9.00,3.75
Minerals
"Sodium, Na",mg,--,--,0,0
Vitamins
"Vitamin C, total ascorbic acid",mg,--,--,90.0,37.5
"Vitamin A, IU",IU,--,--,1874,781
Lipids
Amino Acids
Other
Ingredients
"FILTERED WATER, HONEY, NATURAL FLAVORS, CITRIC ACID, ASCORBIC ACID (VITAMIN C), PHOSPHORIC ACID, BETA CAROTENE AS COLOR, MALIC ACID, VEGETABLE JUICE FOR COLOR, VITAMIN A PALMITATE, D-ALPHA TOCOPHEROL ACETATE (VITAMIN E)." Date available: 07/14/2017 Date last updated by company: 07/14/2017
