Source: USDA Branded Food Products Database Release December 2017 Software v.3.8.6.4 2017-10-02
Report Run at: December 17, 2017 01:09 EST
"Nutrient data for: 45275663, BEEF HOT DOG, UPC: 073608059510"
Food Group:  Branded Food Products Database
Common Name:

Nutrient,Unit,Data points,Std. Error,"50.0 GRM = 50.0g",1Value per 100 g,
Proximates
"Energy",kcal,--,--,150,300
"Protein",g,--,--,7.00,14.00
"Total lipid (fat)",g,--,--,13.00,26.00
"Carbohydrate, by difference",g,--,--,2.00,4.00
"Fiber, total dietary",g,--,--,0.0,0.0
"Sugars, total",g,--,--,1.00,2.00
Minerals
"Calcium, Ca",mg,--,--,0,0
"Iron, Fe",mg,--,--,0.79,1.58
"Sodium, Na",mg,--,--,520,1040
Vitamins
"Vitamin C, total ascorbic acid",mg,--,--,0.0,0.0
"Vitamin A, IU",IU,--,--,0,0
Lipids
"Fatty acids, total saturated",g,--,--,5.000,10.000
"Cholesterol",mg,--,--,30,60
Amino Acids
Other
Ingredients
"BEEF, WATER, SALT, CONTAINS LESS THAN 2% OF FLAVORINGS, CORN SYRUP, DEXTROSE, POTASSIUM LACTATE, SODIUM PHOSPHATE, EXTRACTIVES OF PAPRIKA, SODIUM DIACETATE, SODIUM ERYTHORBATE, SODIUM NITRITE." Date available: 07/14/2017 Date last updated by company: 07/14/2017
