Source: USDA Branded Food Products Database Release December 2017 Software v.3.8.6.4 2017-10-02
Report Run at: December 17, 2017 01:21 EST
"Nutrient data for: 45255858, BEEF PATTIES, UPC: 887751100186"
Food Group:  Branded Food Products Database
Common Name:

Nutrient,Unit,Data points,Std. Error,"4.0 ONZ = 112.0g",1Value per 100 g,
Proximates
"Energy",kcal,--,--,370,330
"Protein",g,--,--,16.00,14.29
"Total lipid (fat)",g,--,--,29.00,25.89
"Carbohydrate, by difference",g,--,--,6.00,5.36
"Fiber, total dietary",g,--,--,5.0,4.5
"Sugars, total",g,--,--,1.00,0.89
Minerals
"Calcium, Ca",mg,--,--,40,36
"Iron, Fe",mg,--,--,2.05,1.83
"Sodium, Na",mg,--,--,650,580
Vitamins
"Vitamin C, total ascorbic acid",mg,--,--,0.0,0.0
"Vitamin A, IU",IU,--,--,0,0
Lipids
"Fatty acids, total saturated",g,--,--,13.003,11.610
"Fatty acids, total trans",g,--,--,2.005,1.790
"Cholesterol",mg,--,--,65,58
Amino Acids
Other
Ingredients
"BEEF, BEEF HEARTS, WATER, TEXTURED VEGETABLE PROTEIN (SOY FLOUR), SOY PROTEIN CONCENTRATE, SEASONING (SALT, MALTODEXTRIN, SUGAR, DISODIUM INOSINATE, DISODIUM GUANYLATE, NATURAL FLAVORS, EXTRACTIVES OF TURMERIC)." Date available: 08/29/2017 Date last updated by company: 08/29/2017
