Source: USDA Branded Food Products Database Release December 2017 Software v.3.8.6.4 2017-10-02
Report Run at: December 17, 2017 01:18 EST
"Nutrient data for: 45326129, BEEF JERKY, UPC: 054500194707"
Food Group:  Branded Food Products Database
Common Name:

Nutrient,Unit,Data points,Std. Error,"1 ONZ = 28.0g",1Value per 100 g,
Proximates
"Energy",kcal,--,--,80,286
"Protein",g,--,--,10.00,35.71
"Total lipid (fat)",g,--,--,1.50,5.36
"Carbohydrate, by difference",g,--,--,6.00,21.43
"Fiber, total dietary",g,--,--,0.0,0.0
"Sugars, total",g,--,--,6.00,21.43
Minerals
"Calcium, Ca",mg,--,--,0,0
"Iron, Fe",mg,--,--,2.57,9.19
"Sodium, Na",mg,--,--,420,1500
Vitamins
"Vitamin C, total ascorbic acid",mg,--,--,0.0,0.0
"Vitamin A, IU",IU,--,--,0,0
Lipids
"Fatty acids, total saturated",g,--,--,0.000,0.000
"Fatty acids, total trans",g,--,--,0.000,0.000
"Cholesterol",mg,--,--,25,89
Amino Acids
Other
Ingredients
"BEEF, BROWN SUGAR, WATER, CONTAINS 2% OR LESS: SALT, APPLE CIDER VINEGAR, DEHYDRATED TOMATO, BOURBON (KENTUCKY BOURBON, SALT), NATURAL FLAVOR, DEHYDRATED GARLIC, DEHYDRATED ONION, RICE BRAN OIL, SOY SAUCE (WATER, SOYBEANS, SALT, SUGAR), MODIFIED FOOD STARCH, DRIED BEEF STOCK, SODIUM NITRITE, AUTOLYZED YEAST EXTRACT, DEXTRIN, NATURAL SMOKE FLAVOR." Date available: 08/11/2017 Date last updated by company: 08/11/2017
