Source: USDA Branded Food Products Database Release December 2017 Software v.3.8.6.4 2017-10-02
Report Run at: December 17, 2017 01:07 EST
"Nutrient data for: 45182376, BEEF FRANKS, UPC: 041190464296"
Food Group:  Branded Food Products Database
Common Name:

Nutrient,Unit,Data points,Std. Error,"1 FRANK = 50.0g",1Value per 100 g,
Proximates
"Energy",kcal,--,--,140,280
"Protein",g,--,--,5.00,10.00
"Total lipid (fat)",g,--,--,13.00,26.00
"Carbohydrate, by difference",g,--,--,1.00,2.00
"Fiber, total dietary",g,--,--,0.0,0.0
"Sugars, total",g,--,--,0.00,0.00
Minerals
"Calcium, Ca",mg,--,--,0,0
"Iron, Fe",mg,--,--,0.59,1.19
"Sodium, Na",mg,--,--,400,800
Vitamins
"Vitamin C, total ascorbic acid",mg,--,--,1.3,2.6
"Vitamin A, IU",IU,--,--,0,0
Lipids
"Fatty acids, total saturated",g,--,--,5.000,10.000
"Fatty acids, total trans",g,--,--,0.000,0.000
"Cholesterol",mg,--,--,25,50
Amino Acids
Other
Ingredients
"BEEF, WATER, SALT, CONTAINS LESS THAN 2% OF: HYDROLYZED CORN PROTEIN, SORBITOL, GARLIC POWDER, FLAVORINGS, SODIUM PHOSPHATE, PAPRIKA, ASCORBIC ACID (VITAMIN C), SODIUM NITRITE." Date available: 10/13/2017 Date last updated by company: 10/13/2017
