Source: USDA Branded Food Products Database Release December 2017 Software v.3.8.6.4 2017-10-02
Report Run at: December 17, 2017 01:08 EST
"Nutrient data for: 45077158, BEEF GRAVY, UPC: 011213168258"
Food Group:  Branded Food Products Database
Common Name:

Nutrient,Unit,Data points,Std. Error,"0.25 cup = 60.0g",1Value per 100 g,
Proximates
"Energy",kcal,--,--,25,42
"Protein",g,--,--,1.00,1.67
"Total lipid (fat)",g,--,--,1.00,1.67
"Carbohydrate, by difference",g,--,--,3.00,5.00
"Fiber, total dietary",g,--,--,0.0,0.0
"Sugars, total",g,--,--,0.00,0.00
Minerals
"Calcium, Ca",mg,--,--,0,0
"Iron, Fe",mg,--,--,0.00,0.00
"Sodium, Na",mg,--,--,270,450
Vitamins
"Vitamin C, total ascorbic acid",mg,--,--,0.0,0.0
"Vitamin A, IU",IU,--,--,0,0
Lipids
"Fatty acids, total saturated",g,--,--,0.498,0.830
"Fatty acids, total trans",g,--,--,0.000,0.000
"Cholesterol",mg,--,--,0,0
Amino Acids
Other
Ingredients
"BEEF STOCK, MODIFIED CORNSTARCH, WHEAT FLOUR, CONTAINS LESS THAN 2% OF: BEEF FAT, GRAVY FLAVOR BASE (HYDROLYZED CORN, SOY AND WHEAT PROTEINS, FLAVORING [CONTAINS NATURAL BEEF JUICES], SALT, YEAST EXTRACT, CORN SYRUP SOLIDS, MALTODEXTRIN, POTATO MALTODEXTRIN, DISODIUM PHOSPHATE, ONION POWDER, BEEF FAT, GUM ARABIC, GARLIC POWDER, PEPPER, NATURAL FLAVOR, LACTIC ACID), SALT, DEXTROSE, MONOSODIUM GLUTAMATE, CARAMEL COLOR, DISODIUM INOSINATE, DISODIUM GUANYLATE." Date available: 07/14/2017 Date last updated by company: 07/14/2017
