Source: USDA Branded Food Products Database Release December 2017 Software v.3.8.6.4 2017-10-02
Report Run at: December 17, 2017 01:27 EST
"Nutrient data for: 45256291, BEEF & SPINACH RAVIOLI, UPC: 04656702644"
Food Group:  Branded Food Products Database
Common Name:

Nutrient,Unit,Data points,Std. Error,"1 cup = 140.0g",1Value per 100 g,
Proximates
"Energy",kcal,--,--,309,221
"Protein",g,--,--,14.99,10.71
"Total lipid (fat)",g,--,--,4.49,3.21
"Carbohydrate, by difference",g,--,--,55.01,39.29
"Fiber, total dietary",g,--,--,2.9,2.1
"Sugars, total",g,--,--,3.00,2.14
Minerals
"Calcium, Ca",mg,--,--,80,57
"Iron, Fe",mg,--,--,1.81,1.29
"Potassium, K",mg,--,--,220,157
"Sodium, Na",mg,--,--,470,336
Vitamins
"Vitamin C, total ascorbic acid",mg,--,--,2.4,1.7
"Vitamin A, IU",IU,--,--,1250,893
Lipids
"Fatty acids, total saturated",g,--,--,1.498,1.070
"Fatty acids, total trans",g,--,--,0.000,0.000
"Cholesterol",mg,--,--,20,14
Amino Acids
Other
Ingredients
"PASTA: EXTRA FANCY DURUM FLOUR (DRUM WHEAT FLOUR NIACIN, FERROUS SULFATE,THIAMINE MONONITRATE, RIBOFLAVIN, FOLIC ACID), WATER , WHOLE EGGS. FILLING: BEEF (BEEF, WATER), WATER, BREAD CRUMBS (ENRICHED UNBLEACHEDWHEAT FLOUR [MALTED BARLEY FLOUR, ASCORBIC ACID {ADDED AS A DOUGH CONDITIONER}, NIACIN, FERROUS SULFATE, THIAMINE MONONITRATE, RIBOFLAVIN, FOLIC ACID[, WATER, CANOLA OIL, SUGAR SALT, GRANULATED GARLIC AND YEAST), SPINACH, ROMANO CHEESE (PASTEURIZED COW'S MILK, CHEESE CULTURE,SALT, ENZYMES), BEEF RAVIOLI SEASONING (SALT, ONION, YEAST EXTRACT, SPICES, GARLIC, PARSLEY, SPINACH, SILICON DIOXIDE [ANTI-CAKING AGENT])." Date available: 07/14/2017 Date last updated by company: 07/14/2017
