Source: USDA Branded Food Products Database Release December 2017 Software v.3.8.6.4 2017-10-02
Report Run at: December 17, 2017 01:27 EST
"Nutrient data for: 45201665, BEEF STEAK BURGERS, UPC: 742158147212"
Food Group:  Branded Food Products Database
Common Name:

Nutrient,Unit,Data points,Std. Error,"1 PATTY = 113.0g",1Value per 100 g,
Proximates
"Energy",kcal,--,--,270,239
"Protein",g,--,--,19.00,16.81
"Total lipid (fat)",g,--,--,21.00,18.58
"Carbohydrate, by difference",g,--,--,2.00,1.77
"Fiber, total dietary",g,--,--,0.0,0.0
"Sugars, total",g,--,--,0.99,0.88
Minerals
"Calcium, Ca",mg,--,--,99,88
"Iron, Fe",mg,--,--,1.36,1.20
"Sodium, Na",mg,--,--,250,221
Vitamins
"Vitamin C, total ascorbic acid",mg,--,--,4.5,4.0
"Vitamin A, IU",IU,--,--,150,133
Lipids
"Fatty acids, total saturated",g,--,--,8.995,7.960
"Fatty acids, total trans",g,--,--,0.994,0.880
"Cholesterol",mg,--,--,75,66
Amino Acids
Other
Ingredients
"GROUND BEEF DERIVED FROM STEAK CUTS, FIRE ROASTED ONION & PEPPER MIX (ONIONS, GREEN BELL PEPPERS, RED BELL PEPPERS), PASTEURIZED PROCESSED MOZZARELLA CHEESE (LOW-MOISTURE PART-SKIM MOZZARELLA CHEESE [PART-SKIM MILK, CULTURES, SALT, ENZYMES], WATER, CREAM, SODIUM PHOSPHATES, SALT, LACTIC ACID, AND SORBIC ACID [PRESERVATIVE], POWDERED CELLULOSE [TO PREVENT CAKING], POTASSIUM SORBATE AND NATAMYCIN [PRESERVATIVES])." Date available: 07/14/2017 Date last updated by company: 07/14/2017
