Source: USDA Branded Food Products Database Release December 2017 Software v.3.8.6.4 2017-10-02
Report Run at: December 17, 2017 01:04 EST
"Nutrient data for: 45001828, BEEF CHUNK TENDER STEAK, UPC: 037600093798"
Food Group:  Branded Food Products Database
Common Name:

Nutrient,Unit,Data points,Std. Error,"1 STEAK = 128.0g",1Value per 100 g,
Proximates
"Energy",kcal,--,--,150,117
"Protein",g,--,--,24.00,18.75
"Total lipid (fat)",g,--,--,6.00,4.69
"Carbohydrate, by difference",g,--,--,2.00,1.56
Minerals
"Calcium, Ca",mg,--,--,0,0
"Iron, Fe",mg,--,--,1.79,1.40
"Sodium, Na",mg,--,--,370,289
Vitamins
Lipids
"Fatty acids, total saturated",g,--,--,2.496,1.950
"Cholesterol",mg,--,--,76,59
Amino Acids
Other
Ingredients
"BEEF BROTH, POTASSIUM LACTATE, SODIUM PHOSPHATE, SALT, SODIUM DIACETATE, FLAVORING." Date available: 07/14/2017 Date last updated by company: 07/14/2017
