Source: USDA Branded Food Products Database Release December 2017 Software v.3.8.6.4 2017-10-02
Report Run at: December 17, 2017 01:17 EST
"Nutrient data for: 45230885, BEEF JERKY, UPC: 044900300860"
Food Group:  Branded Food Products Database
Common Name:

Nutrient,Unit,Data points,Std. Error,"1 ONZ = 28.0g",1Value per 100 g,
Proximates
"Energy",kcal,--,--,80,286
"Protein",g,--,--,10.00,35.71
"Total lipid (fat)",g,--,--,0.50,1.79
"Carbohydrate, by difference",g,--,--,9.00,32.14
"Fiber, total dietary",g,--,--,0.0,0.0
"Sugars, total",g,--,--,6.00,21.43
Minerals
"Calcium, Ca",mg,--,--,0,0
"Iron, Fe",mg,--,--,1.93,6.88
"Sodium, Na",mg,--,--,560,2000
Vitamins
"Vitamin C, total ascorbic acid",mg,--,--,0.0,0.0
"Vitamin A, IU",IU,--,--,0,0
Lipids
"Fatty acids, total saturated",g,--,--,0.000,0.000
"Fatty acids, total trans",g,--,--,0.000,0.000
"Cholesterol",mg,--,--,10,36
Amino Acids
Other
Ingredients
"BEEF, CORN SYRUP SOLIDS, BROWN SUGAR, SUGAR, WATER, SOY SAUCE (WATER, WHEAT, SOYBEANS, SALT), SALT, SPICES AND NATURAL FLAVORINGS, NATURAL SMOKE FLAVOR, BEEF STOCK, SODIUM NITRITE." Date available: 07/14/2017 Date last updated by company: 07/14/2017
