Source: USDA Branded Food Products Database Release December 2017 Software v.3.8.6.4 2017-10-02
Report Run at: December 17, 2017 01:06 EST
"Nutrient data for: 45181784, BEEF FRANKS, UPC: 030034088187"
Food Group:  Branded Food Products Database
Common Name:

Nutrient,Unit,Data points,Std. Error,"1 LINK = 53.0g",1Value per 100 g,
Proximates
"Energy",kcal,--,--,150,283
"Protein",g,--,--,6.00,11.32
"Total lipid (fat)",g,--,--,13.00,24.53
"Carbohydrate, by difference",g,--,--,0.00,0.00
"Fiber, total dietary",g,--,--,0.0,0.0
"Sugars, total",g,--,--,0.00,0.00
Minerals
"Calcium, Ca",mg,--,--,0,0
"Iron, Fe",mg,--,--,0.75,1.41
"Sodium, Na",mg,--,--,480,906
Vitamins
"Vitamin C, total ascorbic acid",mg,--,--,0.0,0.0
"Vitamin A, IU",IU,--,--,104,196
Lipids
"Fatty acids, total saturated",g,--,--,6.000,11.320
"Fatty acids, total trans",g,--,--,0.000,0.000
"Cholesterol",mg,--,--,30,57
Amino Acids
Other
Ingredients
"BEEF, WATER, SALT, FLAVORINGS, SODIUM PHOSPHATE, PAPRIKA, SPICES, SODIUM ERYTHORBATE, SODIUM NITRITE." Date available: 07/14/2017 Date last updated by company: 07/14/2017
