Source: USDA Branded Food Products Database Release December 2017 Software v.3.8.6.4 2017-10-02
Report Run at: December 17, 2017 00:58 EST
"Nutrient data for: 45199183, BEEF & BEAN CHIMICHANGAS, UPC: 079606020125"
Food Group:  Branded Food Products Database
Common Name:

Nutrient,Unit,Data points,Std. Error,"1 CHIMICHANGA = 113.0g",1Value per 100 g,
Proximates
"Energy",kcal,--,--,350,310
"Protein",g,--,--,8.00,7.08
"Total lipid (fat)",g,--,--,18.00,15.93
"Carbohydrate, by difference",g,--,--,38.00,33.63
"Fiber, total dietary",g,--,--,3.1,2.7
"Sugars, total",g,--,--,0.99,0.88
Minerals
"Calcium, Ca",mg,--,--,40,35
"Iron, Fe",mg,--,--,4.66,4.12
"Sodium, Na",mg,--,--,299,265
Vitamins
"Vitamin C, total ascorbic acid",mg,--,--,2.0,1.8
"Vitamin A, IU",IU,--,--,518,458
Lipids
"Fatty acids, total saturated",g,--,--,4.995,4.420
"Fatty acids, total trans",g,--,--,0.000,0.000
"Cholesterol",mg,--,--,15,13
Amino Acids
Other
Ingredients
"FILLING: WATER, BEEF, PINTO BEANS, CEREAL (DEGERMED YELLOW CORN FLOUR, BLEACHED WHEAT FLOUR ENRICHED [NIACIN, REDUCED IRON, THIAMINE, MONONITRATE RIBOFLAVIN, FOLIC ACID], RICE, OAT FLOUR), TEXTURED VEGETABLE PROTEIN (SOY FLOUR, CARAMEL COLOR, ZINC OXIDE, FERROUS SULFATE, NIACINAMIDE, CALCIUM PANTOTHENATE, PYRIDOXINE HYDROCHLORIDE, RIBOFLAVIN, THIAMINE MONONITRATE, VITAMIN A PALMITATE, VITAMIN B12), DEHYDRATED ONION, CORN FLOUR (STONEGROUND CORN MASA FLOUR, TRACE OF LIME), SALT, PAPRIKA, SPICES, JALAPENO PUREE (JALAPENO PEPPERS, WATER, CITRIC ACID), GARLIC POWDER. TORTILLA: ENRICHED FLOUR (BLEACHED WHEAT FLOUR, NIACIN, IRON, THIAMINE MONONITRATE, RIBOFLAVIN, FOLIC ACID), WATER, VEGETABLE OIL (SOYBEAN, CANOLA AND/OR CORN OIL), BAKING POWDER (SODIUM BICARBONATE, CORN STARCH, SODIUM ALUMINUM SULFATE, CALCIUM SULFATE, MONOCALCIUM PHOSPHATE), MODIFIED FOOD STARCH, SALT, GUAR GUM, DOUGH CONDITIONER (SODIUM METABISULFITE, CORN STARCH, MICROCRYSTALLINE CELLULOSE, DICALCIUM PHOSPHATE). FRIED IN: VEGETABLE OIL (SOYBEAN, CANOLA AND/OR CORN OIL)." Date available: 07/14/2017 Date last updated by company: 07/14/2017
