Source: USDA Branded Food Products Database Release December 2017 Software v.3.8.6.4 2017-10-02
Report Run at: December 17, 2017 00:59 EST
"Nutrient data for: 45207883, BEEF BOUILLON CUBES, UPC: 041351000233"
Food Group:  Branded Food Products Database
Common Name:

Nutrient,Unit,Data points,Std. Error,"1 CUBE = 4.0g",1Value per 100 g,
Proximates
"Energy",kcal,--,--,5,125
"Protein",g,--,--,0.00,0.00
"Total lipid (fat)",g,--,--,0.00,0.00
"Carbohydrate, by difference",g,--,--,1.00,25.00
Minerals
"Sodium, Na",mg,--,--,1120,28000
Vitamins
Lipids
Amino Acids
Other
Ingredients
"SALT, MONOSODIUM GLUTAMATE, SUGAR, CORN STARCH, HYDROGENATED PALM AND PALM OLEIN OILS, LESS THAN 2% OF BEEF MEAT, WATER, CARAMEL COLOR, DISODIUM INOSINATE, SPICES, ARTIFICIAL AND NATURAL FRIED ONION FLAVORS, AND TBHQ (PRESERVATIVE)." Date available: 09/08/2017 Date last updated by company: 09/08/2017
