Source: USDA Branded Food Products Database Release December 2017 Software v.3.8.6.4 2017-10-02
Report Run at: December 17, 2017 01:25 EST
"Nutrient data for: 45081365, BEEF SEASONING, UPC: 042743202723"
Food Group:  Branded Food Products Database
Common Name:

Nutrient,Unit,Data points,Std. Error,"0.25 tsp = 1.1g",1Value per 100 g,
Proximates
"Energy",kcal,--,--,0,0
"Protein",g,--,--,0.00,0.00
"Total lipid (fat)",g,--,--,0.00,0.00
"Carbohydrate, by difference",g,--,--,0.00,0.00
Minerals
"Sodium, Na",mg,--,--,220,20000
Vitamins
"Vitamin A, IU",IU,--,--,4545,413227
Lipids
Amino Acids
Other
Ingredients
"SALT, PAPRIKA DEHYDRATED GARLIC, BLACK PEPPER, CHILI PEPPER, SUGAR, CELERY, MUSTARD SEED, DEHYDRATED ONION, SPICES, CONTAINS LESS THAN 2% OF THE FOLLOWING: MONOSODIUM GLUTAMATE, LEMON PEEL, CORN STARCH, BEEF FAT, HYDROLYZED CORN PROTEIN, DRIED CHICKEN MEAT, AUTOLYZED YEAST EXTRACT, CHICKEN FAT, NATURAL FLAVOR, MALTODEXTRIN, DISODIUM INOSINATE, CITRIC ACID, YELLOW 5, ANNATTO (COLOR), YELLOW 6, SILICON DIOXIDE (TO PREVENT CAKING)." Date available: 06/25/2017 Date last updated by company: 06/25/2017
