Source: USDA Branded Food Products Database Release December 2017 Software v.3.8.6.4 2017-10-02
Report Run at: December 17, 2017 01:20 EST
"Nutrient data for: 45216252, BEEF PATTIES, UPC: 030034083397"
Food Group:  Branded Food Products Database
Common Name:

Nutrient,Unit,Data points,Std. Error,"1 PATTY = 151.0g",1Value per 100 g,
Proximates
"Energy",kcal,--,--,411,272
"Protein",g,--,--,26.00,17.22
"Total lipid (fat)",g,--,--,32.00,21.19
"Carbohydrate, by difference",g,--,--,3.00,1.99
"Fiber, total dietary",g,--,--,0.0,0.0
"Sugars, total",g,--,--,0.00,0.00
Minerals
"Calcium, Ca",mg,--,--,100,66
"Iron, Fe",mg,--,--,1.53,1.01
"Sodium, Na",mg,--,--,760,503
Vitamins
"Vitamin C, total ascorbic acid",mg,--,--,0.0,0.0
"Vitamin A, IU",IU,--,--,56,37
Lipids
"Fatty acids, total saturated",g,--,--,13.998,9.270
"Fatty acids, total trans",g,--,--,0.997,0.660
"Cholesterol",mg,--,--,95,63
Amino Acids
Other
Ingredients
"BEEF, PASTEURIZED PROCESS BLUE CHEESE (BLUE CHEESE [CULTURED MILK, WATER, CREAM, SKIM MILK, SODIUM PHOSPHATES, TITANIUM DIOXIDE {COLOR}, GUAR GUM, SORBIC ACID {PRESERVATIVE}, ENZYMES, CELLULOSE POWDER {TO PREVENT CAKING}, POTASSIUM SORBATE AND NATAMYCIN {PRESERVATIVES}]), SEASONING (SPICE, ENCAPSULATED SALT [SALT, PARTIALLY HYDROGENATED SOYBEAN OIL], NATURAL FLAVOR [MALTODEXTRIN, POTASSIUM CHLORIDE], ONION POWDER), WATER, NATURAL FLAVOR." Date available: 08/29/2017 Date last updated by company: 08/29/2017
