Source: USDA Branded Food Products Database Release December 2017 Software v.3.8.6.4 2017-10-02
Report Run at: December 17, 2017 00:57 EST
"Nutrient data for: 45256988, BEEF AND CHEDDAR PASTA MELT KIT, UPC: 027182516563"
Food Group:  Branded Food Products Database
Common Name:

Nutrient,Unit,Data points,Std. Error,"9.0 ONZ = 252.0g",1Value per 100 g,
Proximates
"Energy",kcal,--,--,421,167
"Protein",g,--,--,22.00,8.73
"Total lipid (fat)",g,--,--,19.00,7.54
"Carbohydrate, by difference",g,--,--,39.01,15.48
"Fiber, total dietary",g,--,--,2.0,0.8
"Sugars, total",g,--,--,4.99,1.98
Minerals
"Calcium, Ca",mg,--,--,101,40
"Iron, Fe",mg,--,--,2.67,1.06
"Sodium, Na",mg,--,--,879,349
Vitamins
"Vitamin C, total ascorbic acid",mg,--,--,0.0,0.0
"Vitamin A, IU",IU,--,--,398,158
Lipids
"Fatty acids, total saturated",g,--,--,8.996,3.570
"Fatty acids, total trans",g,--,--,0.000,0.000
"Cholesterol",mg,--,--,76,30
Amino Acids
Other
Ingredients
"BEEF. SAUCE INGREDIENTS: WATER, CREAM, CHEESE FLAVOR (WHEY, CHEESE [GRANULAR AND BLUE {PASTEURIZED MILK, CHEESE CULTURE, SALT, ENZYMES}], SUNFLOWER OIL, MALTODEXTRIN, SALT, SODIUM PHOSPHATE, CITRIC ACID, LACTIC ACID), CHEESE FLAVOR (CHEDDAR CHEESE [PASTEURIZED MILK, CHEESE CULTURES, SALT, ENZYMES], WHEY, BUTTERMILK SOLIDS, SALT, SODIUM PHOSPHATE, LACTIC ACID, YELLOW 5, YELLOW 6), MODIFIED CORN STARCH, SALT, SOYBEAN OIL, GARLIC POWDER, POLYSORBATE 60, ONION POWDER, XANTHAN GUM, SPICE. PASTA INGREDIENTS: WATER, ENRICHED DURUM WHEAT SEMOLINA (SEMOLINA, NIACIN, FERROUS SULFATE, THIAMINE MONONITRATE, RIBOFLAVIN, FOLIC ACID), CANOLA OIL." Date available: 07/14/2017 Date last updated by company: 07/14/2017
