Source: USDA Branded Food Products Database Release December 2017 Software v.3.8.6.4 2017-10-02
Report Run at: December 17, 2017 01:06 EST
"Nutrient data for: 45134137, Beef Franks 7? 5/1, UNPREPARED, GTIN: 00074956184633"
Food Group:  Branded Food Products Database
Common Name:

Nutrient,Unit,Data points,Std. Error,"1 Frank (91g) = 91.0g",1Value per 100 g,
Proximates
"Energy",kcal,--,--,280,308
"Protein",g,--,--,10.00,10.99
"Total lipid (fat)",g,--,--,25.00,27.47
"Carbohydrate, by difference",g,--,--,3.00,3.30
"Fiber, total dietary",g,--,--,0.0,0.0
"Sugars, total",g,--,--,0.00,0.00
Minerals
"Calcium, Ca",mg,--,--,0,0
"Iron, Fe",mg,--,--,1.44,1.58
"Potassium, K",mg,--,--,150,165
"Sodium, Na",mg,--,--,830,912
Vitamins
"Vitamin C, total ascorbic acid",mg,--,--,0.0,0.0
"Vitamin A, IU",IU,--,--,0,0
Lipids
"Fatty acids, total saturated",g,--,--,10.001,10.990
"Fatty acids, total monounsaturated",g,--,--,12.003,13.190
"Fatty acids, total polyunsaturated",g,--,--,1.001,1.100
"Fatty acids, total trans",g,--,--,1.001,1.100
"Cholesterol",mg,--,--,45,49
Amino Acids
Other
Ingredients
"Beef, Water, Contains 2% or less of: Salt, Spice, Sodium Lactate, Paprika, Hydrolyzed Soy Protein, Garlic Powder, Sodium Diacetate, Sodium Erythorbate, Flavoring, Sodium Nitrite. CONTAINS: SOY." Date available: 10/12/2017 Date last updated by company: 10/10/2017
