Source: USDA Branded Food Products Database Release December 2017 Software v.3.8.6.4 2017-10-02
Report Run at: December 17, 2017 00:58 EST
"Nutrient data for: 45285046, BEEF BARLEY & VEGETABLE SOUP, UPC: 751570913480"
Food Group:  Branded Food Products Database
Common Name:

Nutrient,Unit,Data points,Std. Error,"1 cup = 227.0g",1Value per 100 g,
Proximates
"Energy",kcal,--,--,150,66
"Protein",g,--,--,8.99,3.96
"Total lipid (fat)",g,--,--,5.99,2.64
"Carbohydrate, by difference",g,--,--,16.00,7.05
"Fiber, total dietary",g,--,--,3.0,1.3
"Sugars, total",g,--,--,3.00,1.32
Minerals
"Calcium, Ca",mg,--,--,20,9
"Iron, Fe",mg,--,--,5.83,2.57
"Potassium, K",mg,--,--,302,133
"Sodium, Na",mg,--,--,899,396
Vitamins
"Vitamin D",IU,--,--,9,4
Lipids
"Fatty acids, total saturated",g,--,--,3.496,1.540
"Fatty acids, total trans",g,--,--,0.000,0.000
"Cholesterol",mg,--,--,30,13
Amino Acids
Other
Ingredients
"WATER, BARLEY, DICED TOMATO (TOMATOES, TOMATO JUICE, SALT, CALCIUM CHLORIDE, CITRIC ACID), BEEF, MUSHROOM, PEAS, CARROT, GREEN BEANS, CELERY, ONION, BUTTER (SWEET CREAM, NATURAL FLAVORING), FLOUR (WHEAT FLOUR, MALTED BARLEY FLOUR, NIACIN, IRON, THIAMIN MONONITRATE, RIBOFLAVIN, FOLIC ACID), GREEN LENTIL, BEEF BASE (BEEF STOCK, NATURAL FLAVOR, SALT, SUGAR AND BEEF FAT), MUSHROOM BASE (MUSHROOM CONCENTRATE, NATURAL FLAVOR, SUGAR, SALT, YEAST EXTRACT AND XANTHAN GUM), SALT, CHICKEN BASE (CHICKEN STOCK, NATURAL FLAVOR, SALT, SUGAR AND XANTHAN GUM), THYME, BLACK PEPPER.S" Date available: 07/14/2017 Date last updated by company: 07/14/2017
