Source: USDA Branded Food Products Database Release December 2017 Software v.3.8.6.4 2017-10-02
Report Run at: December 17, 2017 01:05 EST
"Nutrient data for: 45239452, BEEF FLAVORED BROTH, UPC: 084253240246"
Food Group:  Branded Food Products Database
Common Name:

Nutrient,Unit,Data points,Std. Error,"1 cup = 240.0g",1Value per 100 g,
Proximates
"Energy",kcal,--,--,19,8
"Protein",g,--,--,1.01,0.42
"Total lipid (fat)",g,--,--,1.01,0.42
"Carbohydrate, by difference",g,--,--,1.99,0.83
"Fiber, total dietary",g,--,--,0.0,0.0
"Sugars, total",g,--,--,1.01,0.42
Minerals
"Calcium, Ca",mg,--,--,0,0
"Iron, Fe",mg,--,--,0.00,0.00
"Sodium, Na",mg,--,--,125,52
Vitamins
"Vitamin C, total ascorbic acid",mg,--,--,0.0,0.0
"Vitamin A, IU",IU,--,--,0,0
Lipids
"Fatty acids, total saturated",g,--,--,0.000,0.000
"Fatty acids, total trans",g,--,--,0.000,0.000
"Cholesterol",mg,--,--,5,2
Amino Acids
Other
Ingredients
"ORGANIC BEEF BROTH (FILTERED WATER, ORGANIC BEEF), ORGANIC ONIONS, ORGANIC CELERY, ORGANIC BEEF FLAVOR, ORGANIC CARROTS, ORGANIC GARLIC, ORGANIC CARAMEL COLOR, NATURAL FLAVORS (WITH YEAST EXTRACT), SEA SALT, ORGANIC SPICES." Date available: 06/24/2017 Date last updated by company: 06/24/2017
