Source: USDA Branded Food Products Database Release December 2017 Software v.3.8.6.4 2017-10-02
Report Run at: December 17, 2017 01:26 EST
"Nutrient data for: 45284481, BEEF SMOKED SAUSAGE, UPC: 011291022329"
Food Group:  Branded Food Products Database
Common Name:

Nutrient,Unit,Data points,Std. Error,"1 LINK = 91.0g",1Value per 100 g,
Proximates
"Energy",kcal,--,--,250,275
"Protein",g,--,--,10.00,10.99
"Total lipid (fat)",g,--,--,21.00,23.08
"Carbohydrate, by difference",g,--,--,4.00,4.40
"Fiber, total dietary",g,--,--,0.0,0.0
"Sugars, total",g,--,--,2.00,2.20
Minerals
"Calcium, Ca",mg,--,--,20,22
"Iron, Fe",mg,--,--,0.87,0.96
"Sodium, Na",mg,--,--,960,1055
Vitamins
"Vitamin C, total ascorbic acid",mg,--,--,0.0,0.0
"Vitamin A, IU",IU,--,--,0,0
Lipids
"Fatty acids, total saturated",g,--,--,7.999,8.790
"Fatty acids, total trans",g,--,--,0.000,0.000
"Cholesterol",mg,--,--,55,60
Amino Acids
Other
Ingredients
"BEEF, WATER, SALT, DEXTROSE, CORN SYRUP SOLIDS, CONTAINS LESS THAN 2% OF SODIUM LACTATE, MUSTARD, FLAVORINGS (SPICES & SPICE EXTRACTIVES), SODIUM PHOSPHATE, SODIUM DIACETATE, SODIUM ERYTHORBATE, SODIUM NITRITE." Date available: 07/14/2017 Date last updated by company: 07/14/2017
