Source: USDA Branded Food Products Database Release December 2017 Software v.3.8.6.4 2017-10-02
Report Run at: December 17, 2017 01:21 EST
"Nutrient data for: 45220663, BEEF PATTIES, UPC: 658761250624"
Food Group:  Branded Food Products Database
Common Name:

Nutrient,Unit,Data points,Std. Error,"1 PATTY = 150.0g",1Value per 100 g,
Proximates
"Energy",kcal,--,--,470,313
"Protein",g,--,--,25.99,17.33
"Total lipid (fat)",g,--,--,40.01,26.67
"Carbohydrate, by difference",g,--,--,1.00,0.67
"Fiber, total dietary",g,--,--,0.0,0.0
"Sugars, total",g,--,--,0.00,0.00
Minerals
"Calcium, Ca",mg,--,--,150,100
"Iron, Fe",mg,--,--,1.53,1.02
"Sodium, Na",mg,--,--,660,440
Vitamins
"Vitamin C, total ascorbic acid",mg,--,--,0.0,0.0
"Vitamin A, IU",IU,--,--,114,76
Lipids
"Fatty acids, total saturated",g,--,--,16.995,11.330
"Fatty acids, total trans",g,--,--,1.995,1.330
"Cholesterol",mg,--,--,116,77
Amino Acids
Other
Ingredients
"BLACK ANGUS BEEF, PROCESS CHEDDAR CHEESE (CHEDDAR CHEESE [CULTURED MILK, SALT, ENZYMES], WATER, SODIUM PHOSPHATES, ARTIFICIAL COLOR, CELLULOSE POWDER [TO PREVENT CAKING]), HICKORY BACON (CURED WITH WATER, SALT, SUGAR, SODIUM NITRATE, SODIUM PHOSPHATE, SODIUM ERYTHORBATE, SODIUM ASCORBATE, NATURAL FLAVORING), SEASONING (SALT, SPICES, DEHYDRATED GARLIC, DEHYDRATED ONION, MUSTARD SEED), ONION POWDER." Date available: 08/29/2017 Date last updated by company: 08/29/2017
