Source: USDA Branded Food Products Database Release December 2017 Software v.3.8.6.4 2017-10-02
Report Run at: December 17, 2017 01:24 EST
"Nutrient data for: 45289620, BEEF SAUSAGE SNACK STICKS, UPC: 041303063125"
Food Group:  Branded Food Products Database
Common Name:

Nutrient,Unit,Data points,Std. Error,"1 STICK = 25.0g",1Value per 100 g,
Proximates
"Energy",kcal,--,--,110,440
"Protein",g,--,--,5.00,20.00
"Total lipid (fat)",g,--,--,9.00,36.00
"Carbohydrate, by difference",g,--,--,1.00,4.00
"Fiber, total dietary",g,--,--,0.0,0.0
"Sugars, total",g,--,--,1.00,4.00
Minerals
"Calcium, Ca",mg,--,--,0,0
"Iron, Fe",mg,--,--,0.72,2.88
"Sodium, Na",mg,--,--,380,1520
Vitamins
"Vitamin C, total ascorbic acid",mg,--,--,0.0,0.0
"Vitamin A, IU",IU,--,--,0,0
Lipids
"Fatty acids, total saturated",g,--,--,4.000,16.000
"Fatty acids, total trans",g,--,--,0.000,0.000
"Cholesterol",mg,--,--,20,80
Amino Acids
Other
Ingredients
"BEEF, SALT, CONTAINS 2% OR LESS OF: CORN SYRUP SOLIDS, SPICES, DEXTROSE, LACTIC ACID STARTER CULTURE, NATURAL FLAVORINGS, SODIUM ERYTHORBATE, GARLIC POWDER, SODIUM NITRITE, WATER." Date available: 07/14/2017 Date last updated by company: 07/14/2017
