Source: USDA Branded Food Products Database Release December 2017 Software v.3.8.6.4 2017-10-02
Report Run at: December 17, 2017 01:13 EST
"Nutrient data for: 45191933, BEEF JERKY, UPC: 615953456134"
Food Group:  Branded Food Products Database
Common Name:

Nutrient,Unit,Data points,Std. Error,"1 ONZ = 28.0g",1Value per 100 g,
Proximates
"Energy",kcal,--,--,85,304
"Protein",g,--,--,11.00,39.29
"Total lipid (fat)",g,--,--,1.00,3.57
"Carbohydrate, by difference",g,--,--,8.00,28.57
"Fiber, total dietary",g,--,--,0.0,0.0
"Sugars, total",g,--,--,8.00,28.57
Minerals
"Calcium, Ca",mg,--,--,0,0
"Iron, Fe",mg,--,--,1.93,6.88
"Sodium, Na",mg,--,--,300,1071
Vitamins
"Vitamin C, total ascorbic acid",mg,--,--,4.3,15.3
"Vitamin A, IU",IU,--,--,357,1275
Lipids
"Fatty acids, total saturated",g,--,--,0.501,1.790
"Fatty acids, total trans",g,--,--,0.000,0.000
"Cholesterol",mg,--,--,20,71
Amino Acids
Other
Ingredients
"100% GRASS-FED BEEF, BBQ SAUCE (WATER, HONEY, TOMATO PASTE, CANE SUGAR, DEHYDRATED CANE JUICE, VINEGAR, SALT, MOLASSES, SPICES (BLACK PEPPER, CHILI POWDER, MUSTARD, CELERY, TURMERIC, CLOVES), ONION, NATURAL SMOKE FLAVOR), WORCESTERSHIRE SAUCE (DISTILLED WHITE VINEGAR, MOLASSES, WATER, SUGAR, ONIONS, ANCHOVIES, SALT, GARLIC, CLOVES, TAMARIND EXTRACT, NATURAL FLAVORINGS, CHILI PEPPER EXTRACT), APPLE CIDER VINEGAR, BROWN SUGAR, LIQUID HICKORY SMOKE (WATER, NATURAL HICKORY SMOKE CONCENTRATE), CHIPOTLE PEPPER, SALT, GARLIC, PAPRIKA, BLACK PEPPER." Date available: 07/14/2017 Date last updated by company: 07/14/2017
