Source: USDA Branded Food Products Database Release December 2017 Software v.3.8.6.4 2017-10-02
Report Run at: December 17, 2017 01:16 EST
"Nutrient data for: 45219475, BEEF JERKY, UPC: 855481005057"
Food Group:  Branded Food Products Database
Common Name:

Nutrient,Unit,Data points,Std. Error,"1 ONZ = 28.0g",1Value per 100 g,
Proximates
"Energy",kcal,--,--,80,286
"Protein",g,--,--,11.00,39.29
"Total lipid (fat)",g,--,--,1.00,3.57
"Carbohydrate, by difference",g,--,--,2.00,7.14
"Fiber, total dietary",g,--,--,0.0,0.0
"Sugars, total",g,--,--,1.00,3.57
Minerals
"Calcium, Ca",mg,--,--,0,0
"Iron, Fe",mg,--,--,1.29,4.59
"Sodium, Na",mg,--,--,370,1321
Vitamins
"Vitamin C, total ascorbic acid",mg,--,--,32.1,114.8
"Vitamin A, IU",IU,--,--,0,0
Lipids
"Fatty acids, total saturated",g,--,--,0.000,0.000
"Fatty acids, total trans",g,--,--,0.000,0.000
"Cholesterol",mg,--,--,20,71
Amino Acids
Other
Ingredients
"BEEF, BROWN SUGAR, WATER, APPLE JUICE, SALT, HONEY, LEMON JUICE, NATURAL FLAVORINGS, SPICES [BLACK PEPPER], LIQUID SMOKE, SODIUM NITRITE." Date available: 07/14/2017 Date last updated by company: 07/14/2017
