Source: USDA Branded Food Products Database Release December 2017 Software v.3.8.6.4 2017-10-02
Report Run at: December 17, 2017 01:34 EST
"Nutrient data for: 45215179, BEER BATTERED FILLETS, UPC: 011110846815"
Food Group:  Branded Food Products Database
Common Name:

Nutrient,Unit,Data points,Std. Error,"2.0 FILLETS = 100.0g",1Value per 100 g,
Proximates
"Energy",kcal,--,--,230,230
"Protein",g,--,--,10.00,10.00
"Total lipid (fat)",g,--,--,12.00,12.00
"Carbohydrate, by difference",g,--,--,21.00,21.00
"Fiber, total dietary",g,--,--,2.0,2.0
"Sugars, total",g,--,--,5.00,5.00
Minerals
"Calcium, Ca",mg,--,--,0,0
"Iron, Fe",mg,--,--,0.61,0.61
"Sodium, Na",mg,--,--,590,590
Vitamins
"Vitamin C, total ascorbic acid",mg,--,--,0.0,0.0
"Vitamin A, IU",IU,--,--,0,0
Lipids
"Fatty acids, total saturated",g,--,--,2.000,2.000
"Fatty acids, total trans",g,--,--,0.000,0.000
"Cholesterol",mg,--,--,25,25
Amino Acids
Other
Ingredients
"POLLOCK, (SODIUM TRIPOLYPHOSPHATE [TO RETAIN MOISTURE]). PREDUST: WHEAT FLOUR, MODIFIED CORN STARCH, CORN STARCH, PALM OIL, ARTIFICIAL FLAVOR. BATTER MIX: WHEAT FLOUR, WATER, CORN STARCH, PALM OIL, LEAVENING (SODIUM ACID PYROPHOSPHATE, SODIUM BICARBONATE), SALT, BEER (WATER, BARLEY, MALT, CORN, HOPS, YEAST), COLOR (TURMERIC, EXTRACTIVE, DEXTROSE, PAPRIKA EXTRACTIVE), YEAST EXTRACT. PREFRIED IN SOYBEAN OIL." Date available: 07/14/2017 Date last updated by company: 07/14/2017
