Source: USDA Branded Food Products Database Release December 2017 Software v.3.8.6.4 2017-10-02
Report Run at: December 17, 2017 01:35 EST
"Nutrient data for: 45290454, BEER BATTERED HADDOCK FISH FILLETS, UPC: 018894329237"
Food Group:  Branded Food Products Database
Common Name:

Nutrient,Unit,Data points,Std. Error,"2.0 PORTIONS = 104.0g",1Value per 100 g,
Proximates
"Energy",kcal,--,--,300,288
"Protein",g,--,--,12.00,11.54
"Total lipid (fat)",g,--,--,18.00,17.31
"Carbohydrate, by difference",g,--,--,22.00,21.15
"Fiber, total dietary",g,--,--,1.0,1.0
"Sugars, total",g,--,--,1.00,0.96
Minerals
"Calcium, Ca",mg,--,--,40,38
"Iron, Fe",mg,--,--,1.47,1.41
"Sodium, Na",mg,--,--,520,500
Vitamins
"Vitamin C, total ascorbic acid",mg,--,--,0.0,0.0
"Vitamin A, IU",IU,--,--,0,0
Lipids
"Fatty acids, total saturated",g,--,--,3.505,3.370
"Fatty acids, total trans",g,--,--,0.000,0.000
"Cholesterol",mg,--,--,25,24
Amino Acids
Other
Ingredients
"HADDOCK, VEGETABLE OIL (CANOLA, COTTONSEED, AND/OR SOYBEAN), ENRICHED WHEAT FLOUR (FLOUR, NIACIN, REDUCED IRON, THIAMINE MONONITRATE, RIBOFLAVIN, FOLIC ACID), WATER, ENRICHED BLEACHED WHEAT FLOUR (FLOUR, NIACIN, REDUCED IRON, THIAMINE MONONITRATE, RIBOFLAVIN, FOLIC ACID), MODIFIED CORN STARCH, CONTAINS 2% OR LESS OF: WHEAT STARCH, BEER (MALTED BARLEY, CORN SYRUP, HOPS, YEAST), PALM OIL, GUAR GUM, SALT, MALTODEXTRIN, SUGAR, YELLOW CORN FLOUR, SOY PROTEIN, DEXTROSE, LEAVENING (SODIUM BICARBONATE, SODIUM ACID PYROPHOSPHATE, MONOCALCIUM PHOSPHATE, CALCIUM LACTATE), YEAST, VINEGAR, CITRIC ACID, BARLEY MALT EXTRACT POWDER, NATURAL FLAVORS, SODIUM CASEINATE (FROM MILK WITH SOY LECITHIN) SODIUM TRIPOLYPHOSPHATE (TO RETAIN MOISTURE)." Date available: 07/14/2017 Date last updated by company: 07/14/2017
