Source: USDA Branded Food Products Database Release December 2017 Software v.3.8.6.4 2017-10-02
Report Run at: December 17, 2017 01:40 EST
"Nutrient data for: 45044779, BEIGEL BEIGEL, CRACKER CRISPS SESAME MINI CRACKERS, UPC: 008982000216"
Food Group:  Branded Food Products Database
Common Name:

Nutrient,Unit,Data points,Std. Error,"16.0 CRACKERS | ABOUT = 28.0g",1Value per 100 g,
Proximates
"Energy",kcal,--,--,140,500
"Protein",g,--,--,3.00,10.71
"Total lipid (fat)",g,--,--,6.00,21.43
"Carbohydrate, by difference",g,--,--,18.00,64.29
"Fiber, total dietary",g,--,--,1.0,3.6
"Sugars, total",g,--,--,1.00,3.57
Minerals
"Calcium, Ca",mg,--,--,0,0
"Iron, Fe",mg,--,--,1.29,4.59
"Sodium, Na",mg,--,--,140,500
Vitamins
"Vitamin C, total ascorbic acid",mg,--,--,0.0,0.0
"Vitamin A, IU",IU,--,--,0,0
Lipids
"Fatty acids, total saturated",g,--,--,2.999,10.710
"Fatty acids, total trans",g,--,--,0.000,0.000
"Cholesterol",mg,--,--,0,0
Amino Acids
Other
Ingredients
"WHEAT FLOUR, PALM OIL (WITH TBHQ FOR FRESHNESS), SESAME SEEDS, MALT, YEAST, SALT, MOLASSES, LEAVENING AGENT (SODIUM BICARBONATE), SUGAR, THICKENERS (GUM ARABIC, GUAR GUM, CARBOXYMETHYL CELLULOSE), ARTIFICIAL COLOR (CARAMEL)." Date available: 07/14/2017 Date last updated by company: 07/14/2017
