Source: USDA Branded Food Products Database Release December 2017 Software v.3.8.6.4 2017-10-02
Report Run at: December 17, 2017 01:43 EST
"Nutrient data for: 45209591, BELGIAN DARK CHOCOLATE, UPC: 688267012471"
Food Group:  Branded Food Products Database
Common Name:

Nutrient,Unit,Data points,Std. Error,"3.0 SQUARES = 38.0g",1Value per 100 g,
Proximates
"Energy",kcal,--,--,260,684
"Protein",g,--,--,4.00,10.53
"Total lipid (fat)",g,--,--,19.00,50.00
"Carbohydrate, by difference",g,--,--,14.00,36.84
"Fiber, total dietary",g,--,--,6.0,15.8
"Sugars, total",g,--,--,4.00,10.53
Minerals
"Calcium, Ca",mg,--,--,20,53
"Iron, Fe",mg,--,--,11.84,31.16
"Sodium, Na",mg,--,--,0,0
Vitamins
"Vitamin C, total ascorbic acid",mg,--,--,0.0,0.0
"Vitamin A, IU",IU,--,--,0,0
Lipids
"Fatty acids, total saturated",g,--,--,12.000,31.580
"Fatty acids, total trans",g,--,--,0.000,0.000
"Cholesterol",mg,--,--,0,0
Amino Acids
Other
Ingredients
"COCOA LIQUOR, SUGAR, COCOA BUTTER, SOY LECITHIN (EMULSIFIER), NATURAL VANILLA FLAVORING." Date available: 07/14/2017 Date last updated by company: 07/14/2017
