Source: USDA Branded Food Products Database Release December 2017 Software v.3.8.6.4 2017-10-02
Report Run at: December 17, 2017 01:43 EST
"Nutrient data for: 45208404, BELGIAN DARK CHOCOLATE, UPC: 07203671034"
Food Group:  Branded Food Products Database
Common Name:

Nutrient,Unit,Data points,Std. Error,"3.0 SQUARES = 38.0g",1Value per 100 g,
Proximates
"Energy",kcal,--,--,210,553
"Protein",g,--,--,3.00,7.89
"Total lipid (fat)",g,--,--,14.00,36.84
"Carbohydrate, by difference",g,--,--,22.00,57.89
"Fiber, total dietary",g,--,--,3.0,7.9
"Sugars, total",g,--,--,15.00,39.47
Minerals
"Calcium, Ca",mg,--,--,0,0
"Iron, Fe",mg,--,--,7.11,18.70
"Sodium, Na",mg,--,--,5,13
Vitamins
"Vitamin C, total ascorbic acid",mg,--,--,0.0,0.0
"Vitamin A, IU",IU,--,--,0,0
Lipids
"Fatty acids, total saturated",g,--,--,7.999,21.050
"Fatty acids, total trans",g,--,--,0.000,0.000
"Cholesterol",mg,--,--,5,13
Amino Acids
Other
Ingredients
"COCOA LIQUOR SUGAR, ALMONDS 6%, CANDIED ORANGE ZEST 5% (ORANGE ZEST, SUGAR, GLUCOSE SYRUP, CITRIC ACID [ACIDITY REGULATOR]), COCOA BUTTER, BUTTER OIL, NATURAL ORANGE FLAVORING, SOY LECITHIN (AN EMULSIFIER). DARK CHOCOLATE: COCOA SOLIDS MINIMUM 57%" Date available: 07/14/2017 Date last updated by company: 07/14/2017
