Source: USDA Branded Food Products Database Release December 2017 Software v.3.8.6.4 2017-10-02
Report Run at: December 17, 2017 01:42 EST
"Nutrient data for: 45208405, BELGIAN CHOCOLATE, UPC: 07203671035"
Food Group:  Branded Food Products Database
Common Name:

Nutrient,Unit,Data points,Std. Error,"3.0 SQUARES = 38.0g",1Value per 100 g,
Proximates
"Energy",kcal,--,--,220,579
"Protein",g,--,--,2.00,5.26
"Total lipid (fat)",g,--,--,13.00,34.21
"Carbohydrate, by difference",g,--,--,22.00,57.89
"Fiber, total dietary",g,--,--,3.0,7.9
"Sugars, total",g,--,--,15.00,39.47
Minerals
"Calcium, Ca",mg,--,--,0,0
"Iron, Fe",mg,--,--,7.11,18.70
"Sodium, Na",mg,--,--,0,0
Vitamins
"Vitamin C, total ascorbic acid",mg,--,--,0.0,0.0
"Vitamin A, IU",IU,--,--,0,0
Lipids
"Fatty acids, total saturated",g,--,--,7.999,21.050
"Fatty acids, total trans",g,--,--,0.000,0.000
"Cholesterol",mg,--,--,5,13
Amino Acids
Other
Ingredients
"COCOA LIQUOR, SUGAR, COCOA BUTTER, BUTTER OIL, SOY LECITHIN (AN EMULSIFIER)." Date available: 07/14/2017 Date last updated by company: 07/14/2017
