Source: USDA Branded Food Products Database Release December 2017 Software v.3.8.6.4 2017-10-02
Report Run at: December 17, 2017 01:51 EST
"Nutrient data for: 45148363, BELLA VADO, !00% CALIFORNIA AVOCADO OIL, JALAPENO, UPC: 895996002585"
Food Group:  Branded Food Products Database
Common Name:

Nutrient,Unit,Data points,Std. Error,"1 Tbsp = 14.0g",1Value per 100 g,
Proximates
"Energy",kcal,--,--,120,857
"Protein",g,--,--,0.00,0.00
"Total lipid (fat)",g,--,--,14.00,100.00
"Carbohydrate, by difference",g,--,--,0.00,0.00
Minerals
"Sodium, Na",mg,--,--,0,0
Vitamins
Lipids
"Fatty acids, total saturated",g,--,--,2.500,17.860
"Fatty acids, total monounsaturated",g,--,--,9.001,64.290
"Fatty acids, total polyunsaturated",g,--,--,3.000,21.430
Amino Acids
Other
Ingredients
"AVOCADO OIL & JALAPENO OIL" Date available: 07/14/2017 Date last updated by company: 07/14/2017
