Source: USDA Branded Food Products Database Release December 2017 Software v.3.8.6.4 2017-10-02
Report Run at: December 17, 2017 01:52 EST
"Nutrient data for: 45098651, BELL & EVANS, TIME SAVERS, GRILLED CHICKEN BREASTS, UPC: 738985271459"
Food Group:  Branded Food Products Database
Common Name:

Nutrient,Unit,Data points,Std. Error,"1 FILLET = 78.0g",1Value per 100 g,
Proximates
"Energy",kcal,--,--,100,128
"Protein",g,--,--,22.00,28.21
"Total lipid (fat)",g,--,--,1.50,1.92
"Carbohydrate, by difference",g,--,--,0.00,0.00
"Fiber, total dietary",g,--,--,0.0,0.0
"Sugars, total",g,--,--,0.00,0.00
Minerals
"Calcium, Ca",mg,--,--,20,26
"Iron, Fe",mg,--,--,0.39,0.50
"Potassium, K",mg,--,--,310,397
"Sodium, Na",mg,--,--,290,372
Vitamins
"Vitamin C, total ascorbic acid",mg,--,--,0.0,0.0
"Vitamin A, IU",IU,--,--,0,0
Lipids
"Fatty acids, total saturated",g,--,--,0.000,0.000
"Fatty acids, total trans",g,--,--,0.000,0.000
"Cholesterol",mg,--,--,60,77
Amino Acids
Other
Ingredients
"BONELESS, SKINLESS CHICKEN BREASTS, WATER, SEA SALT, RICE STARCH." Date available: 09/05/2017 Date last updated by company: 09/05/2017
