Source: USDA Branded Food Products Database Release December 2017 Software v.3.8.6.4 2017-10-02
Report Run at: December 17, 2017 01:56 EST
"Nutrient data for: 45025258, BELLWETHER FARMS, SHEEP MILK YOGURT, BLACKBERRY, UPC: 705118500502"
Food Group:  Branded Food Products Database
Common Name:

Nutrient,Unit,Data points,Std. Error,"1 CONTAINER = 170.0g",1Value per 100 g,
Proximates
"Energy",kcal,--,--,190,112
"Protein",g,--,--,8.01,4.71
"Total lipid (fat)",g,--,--,5.00,2.94
"Carbohydrate, by difference",g,--,--,28.00,16.47
"Fiber, total dietary",g,--,--,1.0,0.6
"Sugars, total",g,--,--,19.99,11.76
Minerals
"Calcium, Ca",mg,--,--,250,147
"Iron, Fe",mg,--,--,0.00,0.00
"Sodium, Na",mg,--,--,70,41
Vitamins
"Vitamin C, total ascorbic acid",mg,--,--,2.4,1.4
"Vitamin A, IU",IU,--,--,0,0
Lipids
"Fatty acids, total saturated",g,--,--,3.502,2.060
"Fatty acids, total trans",g,--,--,0.000,0.000
"Cholesterol",mg,--,--,20,12
Amino Acids
Other
Ingredients
"PASTEURIZED SHEEP MILK, FRUIT (BLACKBERRIES, SUGAR, PECTIN), LIVE, ACTIVE CULTURES: S. THERMOPHILUS, L. BULGARICUS, L. ACIDOPHILUS & BIFIDUS." Date available: 07/14/2017 Date last updated by company: 07/14/2017
