Source: USDA Branded Food Products Database Release December 2017 Software v.3.8.6.4 2017-10-02
Report Run at: December 17, 2017 01:55 EST
"Nutrient data for: 45006274, BELL-VIEW, PIMENTO SPREAD, SWEET PICKLE, UPC: 073405175024"
Food Group:  Branded Food Products Database
Common Name:

Nutrient,Unit,Data points,Std. Error,"1 Tbsp = 15.0g",1Value per 100 g,
Proximates
"Energy",kcal,--,--,50,333
"Protein",g,--,--,0.00,0.00
"Total lipid (fat)",g,--,--,4.00,26.67
"Carbohydrate, by difference",g,--,--,2.00,13.33
"Fiber, total dietary",g,--,--,0.0,0.0
"Sugars, total",g,--,--,2.00,13.33
Minerals
"Sodium, Na",mg,--,--,105,700
Vitamins
Lipids
"Fatty acids, total saturated",g,--,--,0.500,3.330
"Fatty acids, total trans",g,--,--,0.000,0.000
"Cholesterol",mg,--,--,5,33
Amino Acids
Other
Ingredients
"SOYBEAN OIL, CHOPPED PICKLES, WATER DISTILLED VINEGAR, EGG YOLKS, CORN SYRUP, SALT, PIMENTOS, SPICES AND NATURAL FLAVORINGS, ONION, GARLIC, PARSLEY FLAKES, SODIUM BENZOATE (A PRESERVATIVE), XANTHAN GUM, AND CALCIUM DISODIUM EDTA ADDED TO PROTECT FLAVOR." Date available: 07/14/2017 Date last updated by company: 07/14/2017
