Source: USDA Branded Food Products Database Release December 2017 Software v.3.8.6.4 2017-10-02
Report Run at: December 17, 2017 01:50 EST
"Nutrient data for: 45180168, BELLA MARIA, TRADITIONAL SPANISH TORTA, EXTRA VIRGIN OLIVE OIL, UPC: 820581048471"
Food Group:  Branded Food Products Database
Common Name:

Nutrient,Unit,Data points,Std. Error,"1 TORTA = 30.0g",1Value per 100 g,
Proximates
"Energy",kcal,--,--,140,467
"Protein",g,--,--,2.00,6.67
"Total lipid (fat)",g,--,--,5.00,16.67
"Carbohydrate, by difference",g,--,--,22.00,73.33
"Fiber, total dietary",g,--,--,0.0,0.0
"Sugars, total",g,--,--,6.00,20.00
Minerals
"Calcium, Ca",mg,--,--,0,0
"Iron, Fe",mg,--,--,1.20,4.00
"Sodium, Na",mg,--,--,100,333
Vitamins
"Vitamin C, total ascorbic acid",mg,--,--,0.0,0.0
"Vitamin A, IU",IU,--,--,0,0
Lipids
"Fatty acids, total saturated",g,--,--,0.999,3.330
"Fatty acids, total trans",g,--,--,0.000,0.000
"Cholesterol",mg,--,--,0,0
Amino Acids
Other
Ingredients
"WHEAT FLOUR, EXTRA VIRGIN OLIVE OIL (25%), WATER, SUGAR, ANISEED, SALT, SESAME SEEDS, NATURAL ANISE ESSENCE." Date available: 07/14/2017 Date last updated by company: 07/14/2017
