Source: USDA Branded Food Products Database Release December 2017 Software v.3.8.6.4 2017-10-02
Report Run at: December 17, 2017 01:56 EST
"Nutrient data for: 45024665, BELMONT PEANUTS, ARTISAN CHILI SERIES GOURMET VIRGINIA PEANUTS, CHIPOTLE + SEA SALT, UPC: 858582001874"
Food Group:  Branded Food Products Database
Common Name:

Nutrient,Unit,Data points,Std. Error,"0.25 cup = 30.0g",1Value per 100 g,
Proximates
"Energy",kcal,--,--,170,567
"Protein",g,--,--,8.00,26.67
"Total lipid (fat)",g,--,--,14.00,46.67
"Carbohydrate, by difference",g,--,--,6.00,20.00
"Fiber, total dietary",g,--,--,3.0,10.0
"Sugars, total",g,--,--,1.00,3.33
Minerals
"Calcium, Ca",mg,--,--,20,67
"Iron, Fe",mg,--,--,0.60,2.00
"Sodium, Na",mg,--,--,40,133
Vitamins
"Vitamin C, total ascorbic acid",mg,--,--,0.0,0.0
"Vitamin A, IU",IU,--,--,0,0
Lipids
"Fatty acids, total saturated",g,--,--,2.001,6.670
"Fatty acids, total trans",g,--,--,0.000,0.000
"Cholesterol",mg,--,--,0,0
Amino Acids
Other
Ingredients
"PEANUTS, CANOLA OIL, SEASONING (SEA SALT, SUGAR, DEXTROSE, SPICES, ONION POWDER AND GARLIC POWDER, CORN STARCH, MALTODEXTRIN, XANTHAN GUM, CITRIC ACID, LEMON JUICE POWDER, VINEGAR POWDER, NATURAL AND ARTIFICIAL FLAVORS, SPICE EXTRACTIVES, EXTRACTIVE OF PAPRIKA, WITH CALCIUM STEARATE AND SILICON DIOXIDE ADDED TO PREVENT CAKING)." Date available: 06/25/2017 Date last updated by company: 06/25/2017
