Source: USDA Branded Food Products Database Release December 2017 Software v.3.8.6.4 2017-10-02
Report Run at: December 17, 2017 01:58 EST
"Nutrient data for: 45032370, BEMARKCA, TROPICAL CANDY DULCE DE MANI, UPC: 8832200000120"
Food Group:  Branded Food Products Database
Common Name:

Nutrient,Unit,Data points,Std. Error,"23.0 GRM = 23.0g",1Value per 100 g,
Proximates
"Energy",kcal,--,--,70,304
"Protein",g,--,--,0.00,0.00
"Total lipid (fat)",g,--,--,2.00,8.70
"Carbohydrate, by difference",g,--,--,12.00,52.17
"Fiber, total dietary",g,--,--,0.0,0.0
"Sugars, total",g,--,--,11.00,47.83
Minerals
"Calcium, Ca",mg,--,--,40,174
"Iron, Fe",mg,--,--,1.57,6.81
"Sodium, Na",mg,--,--,0,0
Vitamins
"Vitamin C, total ascorbic acid",mg,--,--,0.0,0.0
"Vitamin A, IU",IU,--,--,0,0
Lipids
"Fatty acids, total saturated",g,--,--,0.200,0.870
"Fatty acids, total trans",g,--,--,0.000,0.000
"Cholesterol",mg,--,--,0,0
Amino Acids
Other
Ingredients
"SUGAR, PEANUT." Date available: 07/14/2017 Date last updated by company: 07/14/2017
