Source: USDA Branded Food Products Database Release December 2017 Software v.3.8.6.4 2017-10-02
Report Run at: December 17, 2017 02:00 EST
"Nutrient data for: 45080300, BEN & JERRY'S, ICE CREAM, BREWED TO MATTER, UPC: 076840505425"
Food Group:  Branded Food Products Database
Common Name:

Nutrient,Unit,Data points,Std. Error,"1 cup = 106.0g",1Value per 100 g,
Proximates
"Energy",kcal,--,--,280,264
"Protein",g,--,--,4.00,3.77
"Total lipid (fat)",g,--,--,17.00,16.04
"Carbohydrate, by difference",g,--,--,29.00,27.36
"Fiber, total dietary",g,--,--,1.0,0.9
"Sugars, total",g,--,--,24.99,23.58
Minerals
"Calcium, Ca",mg,--,--,100,94
"Iron, Fe",mg,--,--,1.44,1.36
"Sodium, Na",mg,--,--,50,47
Vitamins
"Vitamin C, total ascorbic acid",mg,--,--,0.0,0.0
"Vitamin A, IU",IU,--,--,500,472
Lipids
"Fatty acids, total saturated",g,--,--,11.003,10.380
"Fatty acids, total trans",g,--,--,0.000,0.000
"Cholesterol",mg,--,--,70,66
Amino Acids
Other
Ingredients
"CREAM, SKIM MILK, LIQUID SUGAR (SUGAR, WATER), WATER, SUGAR, DRIED CANE SYRUP, COFFEE EXTRACT, COCONUT OIL, EGG YOLKS, COCOA (PROCESSED WITH ALKALI), BUTTER (CREAM, SALT), CORN SYRUP, COCOA, COCOA POWDER, WHEAT FLOUR, CHOCOLATE LIQUOR, CANOLA OIL, CARRAGEENAN, GUAR GUM, NATURAL FLAVOR, SOY LECITHIN, SALT, VANILLA EXTRACT, MILK FAT, BAKING SODA." Date available: 07/14/2017 Date last updated by company: 07/14/2017
