Source: USDA Branded Food Products Database Release December 2017 Software v.3.8.6.4 2017-10-02
Report Run at: December 17, 2017 01:58 EST
"Nutrient data for: 45080310, BEN & JERRY'S, CHOCOLATE CHERRY GARCIA, UPC: 076840036745"
Food Group:  Branded Food Products Database
Common Name:

Nutrient,Unit,Data points,Std. Error,"1 cup = 109.0g",1Value per 100 g,
Proximates
"Energy",kcal,--,--,261,239
"Protein",g,--,--,4.00,3.67
"Total lipid (fat)",g,--,--,14.00,12.84
"Carbohydrate, by difference",g,--,--,32.00,29.36
"Fiber, total dietary",g,--,--,2.0,1.8
"Sugars, total",g,--,--,27.00,24.77
Minerals
"Calcium, Ca",mg,--,--,100,92
"Iron, Fe",mg,--,--,2.70,2.48
"Sodium, Na",mg,--,--,35,32
Vitamins
"Vitamin C, total ascorbic acid",mg,--,--,0.0,0.0
"Vitamin A, IU",IU,--,--,400,367
Lipids
"Fatty acids, total saturated",g,--,--,9.003,8.260
"Fatty acids, total trans",g,--,--,0.000,0.000
"Cholesterol",mg,--,--,45,41
Amino Acids
Other
Ingredients
"CREAM, LIQUID SUGAR (SUGAR, WATER), SKIM MILK, WATER, CHERRIES, SUGAR, COCOA (PROCESSED WITH ALKALI), COCONUT OIL, EGG YOLKS, FRUIT AND VEGETABLE CONCENTRATES (COLOR), COCOA POWDER, GUAR GUM, NATURAL FLAVOR, LEMON JUICE CONCENTRATE, CARRAGEENAN, MILK FAT, SOY LECITHIN, VANILLA EXTRACT." Date available: 07/14/2017 Date last updated by company: 07/14/2017
