Source: USDA Branded Food Products Database Release December 2017 Software v.3.8.6.4 2017-10-02
Report Run at: December 17, 2017 02:01 EST
"Nutrient data for: 45080274, BEN & JERRY'S, ICE CREAM, TRIPLE CARAMEL CHUNK, UPC: 076840100774"
Food Group:  Branded Food Products Database
Common Name:

Nutrient,Unit,Data points,Std. Error,"1 cup = 107.0g",1Value per 100 g,
Proximates
"Energy",kcal,--,--,270,252
"Protein",g,--,--,4.00,3.74
"Total lipid (fat)",g,--,--,15.00,14.02
"Carbohydrate, by difference",g,--,--,32.00,29.91
"Fiber, total dietary",g,--,--,0.0,0.0
"Sugars, total",g,--,--,29.00,27.10
Minerals
"Calcium, Ca",mg,--,--,100,93
"Iron, Fe",mg,--,--,0.00,0.00
"Sodium, Na",mg,--,--,100,93
Vitamins
"Vitamin C, total ascorbic acid",mg,--,--,0.0,0.0
"Vitamin A, IU",IU,--,--,500,467
Lipids
"Fatty acids, total saturated",g,--,--,10.005,9.350
"Fatty acids, total trans",g,--,--,0.000,0.000
"Cholesterol",mg,--,--,65,61
Amino Acids
Other
Ingredients
"CREAM, SKIM MILK, WATER, LIQUID SUGAR (SUGAR, WATER), CORN SYRUP, SUGAR, EGG YOLKS, COCONUT OIL, BUTTER (CREAM, SALT), MILK, COCOA (PROCESSED WITH ALKALI), SALT, GUAR GUM, CARRAGEENAN, VANILLA EXTRACT, SODIUM BICARBONATE, COCOA, SOY LECITHIN, NATURAL FLAVOR." Date available: 07/14/2017 Date last updated by company: 07/14/2017
