Source: USDA Branded Food Products Database Release December 2017 Software v.3.8.6.4 2017-10-02
Report Run at: December 17, 2017 02:02 EST
"Nutrient data for: 45057066, BENNETTS, ORIGINAL CHILI SOUCE, UPC: 041820052015"
Food Group:  Branded Food Products Database
Common Name:

Nutrient,Unit,Data points,Std. Error,"1 Tbsp = 16.0g",1Value per 100 g,
Proximates
"Energy",kcal,--,--,15,94
"Protein",g,--,--,0.00,0.00
"Total lipid (fat)",g,--,--,0.00,0.00
"Carbohydrate, by difference",g,--,--,4.00,25.00
"Fiber, total dietary",g,--,--,0.0,0.0
"Sugars, total",g,--,--,3.00,18.75
Minerals
"Calcium, Ca",mg,--,--,0,0
"Iron, Fe",mg,--,--,0.00,0.00
"Sodium, Na",mg,--,--,140,875
Vitamins
"Vitamin C, total ascorbic acid",mg,--,--,30.4,190.2
"Vitamin A, IU",IU,--,--,676,4228
Lipids
"Fatty acids, total saturated",g,--,--,0.000,0.000
"Fatty acids, total trans",g,--,--,0.000,0.000
"Cholesterol",mg,--,--,0,0
Amino Acids
Other
Ingredients
"WATER, RELISH (PICKLES, HIGH FRUCTOSE CORN SYRUP, VINEGAR, ALUM, SODIUM BENZOATE [PRESERVATIVE], XANTHAN GUM, NATURAL FLAVORS, POLYSORBATE 80), TOMATO PASTE, HIGH FRUCTOSE CORN SYRUP, VINEGAR, SALT, DEHYDRATED RED BELL PEPPERS AND ONIONS, MUSTARD FLOUR, MUSTARD SEED, GARLIC POWDER." Date available: 07/14/2017 Date last updated by company: 07/14/2017
