Source: USDA Branded Food Products Database Release December 2017 Software v.3.8.6.4 2017-10-02
Report Run at: December 17, 2017 02:02 EST
"Nutrient data for: 45047198, BENTO EXPRESS, CALIFORNIA ROLL, UPC: 670452700348"
Food Group:  Branded Food Products Database
Common Name:

Nutrient,Unit,Data points,Std. Error,"9.0 PIECES = 200.0g",1Value per 100 g,
Proximates
"Energy",kcal,--,--,340,170
"Protein",g,--,--,7.00,3.50
"Total lipid (fat)",g,--,--,14.00,7.00
"Carbohydrate, by difference",g,--,--,47.00,23.50
"Fiber, total dietary",g,--,--,2.0,1.0
"Sugars, total",g,--,--,9.00,4.50
Minerals
"Calcium, Ca",mg,--,--,100,50
"Iron, Fe",mg,--,--,0.50,0.25
"Sodium, Na",mg,--,--,480,240
Vitamins
"Vitamin C, total ascorbic acid",mg,--,--,2.6,1.3
"Vitamin A, IU",IU,--,--,0,0
Lipids
"Fatty acids, total saturated",g,--,--,2.000,1.000
"Fatty acids, total trans",g,--,--,0.000,0.000
"Cholesterol",mg,--,--,4,2
Amino Acids
Other
Ingredients
"SEASONED WHITE RICE [WATER, RICE, SUGAR, CIDER VINEGAR (DISTILLED VINEGAR, CARAMEL COLOR, CIDER FLAVOR), CANOLA OIL, PRETZEL M SALT, CREAM BASE (SKIM MILK, CREAM, GELATIN)], IMITATION CRAB MEAT [WATER, SURIMI (ALASKA POLLOCK, EGG WHITE POWDER, SORBITOL, SODIUM PHOSPHATES), WHEAT STARCH, MODIFIED TAPIOCA STARCH, SUGAR, SALT, PALM OIL, CRAB EXTRACT (SOY), CRAB FLAVOR, COLOR, CALCIUM CARBONATE], CUCUMBER, AVOCADO, MAYONNAISE (SOYBEAN OIL, WATER, WHOLE EGGS AND EGG YOLKS, VINEGAR, SALT, SUGAR, LEMON JUICE, CALCIUM DISODIUM EDTA TO PROTECT QUALITY, NATURAL FLAVORS), SESAME SEEDS, SEAWEED, L- CYSTEINE HYDROCHLORIDE, CALCIUM CHLORIDE, CALCIUM CARBONATE, CITRIC ACID, MALIC ACID, TARTARIC ACID." Date available: 07/14/2017 Date last updated by company: 07/14/2017
