Source: USDA Branded Food Products Database Release December 2017 Software v.3.8.6.4 2017-10-02
Report Run at: December 17, 2017 02:08 EST
"Nutrient data for: 45258251, BERRY CONFIT, UPC: 852304003245"
Food Group:  Branded Food Products Database
Common Name:

Nutrient,Unit,Data points,Std. Error,"2.0 Tbsp = 30.0g",1Value per 100 g,
Proximates
"Energy",kcal,--,--,40,133
"Protein",g,--,--,0.00,0.00
"Total lipid (fat)",g,--,--,0.00,0.00
"Carbohydrate, by difference",g,--,--,11.00,36.67
"Fiber, total dietary",g,--,--,0.8,2.8
"Sugars, total",g,--,--,10.00,33.33
Minerals
"Calcium, Ca",mg,--,--,0,0
"Iron, Fe",mg,--,--,0.00,0.00
"Sodium, Na",mg,--,--,0,0
Vitamins
"Vitamin C, total ascorbic acid",mg,--,--,0.0,0.0
"Vitamin A, IU",IU,--,--,0,0
Lipids
"Fatty acids, total saturated",g,--,--,0.000,0.000
"Fatty acids, total trans",g,--,--,0.000,0.000
"Cholesterol",mg,--,--,0,0
Amino Acids
Other
Ingredients
"WATER, SUGAR, BLUEBERRIES, BLACKBERRY, RE WINE VINEGAR, ROASTED ONION, DARK BROWN SUGAR (SUGAR, MOLASSES), MOLASSES, LEMON, PECTIN, WORCESTERSHIRE SAUCE (DISTILLED WHITE VINEGAR, MOLASSES, WATER, SUGAR, ONIONS, ANCHOVIES, SALT, GRACI, CLOVES, TAMARIND, EXTRACT, NATURAL FLAVORINGS, CHILI PEPPERS EXTRACT), DISTILLED VINEGAR, CELLULOSE GUM, ANCHO PEPPERS, CINNAMON, XANTHAN GUM, BLACK PEPPER, SMOKED PAPRIKA, CHIPOTLE PEPPER (DRIED), AND NATURAL LAVENDER FLAVOR." Date available: 07/14/2017 Date last updated by company: 07/14/2017
