Source: USDA Branded Food Products Database Release December 2017 Software v.3.8.6.4 2017-10-02
Report Run at: December 17, 2017 02:08 EST
"Nutrient data for: 45282764, BERRY LATTICE PIE, UPC: 815360014631"
Food Group:  Branded Food Products Database
Common Name:

Nutrient,Unit,Data points,Std. Error,"0.2 PIE = 136.0g",1Value per 100 g,
Proximates
"Energy",kcal,--,--,360,265
"Protein",g,--,--,4.00,2.94
"Total lipid (fat)",g,--,--,18.01,13.24
"Carbohydrate, by difference",g,--,--,49.00,36.03
"Fiber, total dietary",g,--,--,2.0,1.5
"Sugars, total",g,--,--,24.00,17.65
Minerals
"Calcium, Ca",mg,--,--,39,29
"Iron, Fe",mg,--,--,1.01,0.74
"Potassium, K",mg,--,--,140,103
"Sodium, Na",mg,--,--,260,191
Vitamins
"Vitamin D",IU,--,--,0,0
Lipids
"Fatty acids, total saturated",g,--,--,9.003,6.620
"Fatty acids, total trans",g,--,--,0.000,0.000
"Cholesterol",mg,--,--,0,0
Amino Acids
Other
Ingredients
"BLACKBERRIES, WATER, ENRICHED FLOUR (FLOUR, NIACIN, REDUCED IRON, THIAMINE MONONITRATE, RIBOFLAVIN, FOLIC ACID), SUGAR, PALM OIL, FOOD STARCH-MODIFIED, CONTAINS LESS THAN 2% OF: SALT, DEXTROSE, CORN SYRUP, SORBIC ACID, APPLE CIDER VINEGAR, CAROB BEAN GUM, CELLULOSE GUM, AGAR, CALCIUM PROPIONATE." Date available: 10/13/2017 Date last updated by company: 10/13/2017
