Source: USDA Branded Food Products Database Release December 2017 Software v.3.8.6.4 2017-10-02
Report Run at: December 17, 2017 02:07 EST
"Nutrient data for: 45290761, BERRY BLEND, UPC: 078742198200"
Food Group:  Branded Food Products Database
Common Name:

Nutrient,Unit,Data points,Std. Error,"8.0 OZA = 240.0g",1Value per 100 g,
Proximates
"Energy",kcal,--,--,70,29
"Protein",g,--,--,0.00,0.00
"Total lipid (fat)",g,--,--,0.00,0.00
"Carbohydrate, by difference",g,--,--,18.00,7.50
"Sugars, total",g,--,--,16.01,6.67
Minerals
"Potassium, K",mg,--,--,19,8
"Sodium, Na",mg,--,--,36,15
Vitamins
"Vitamin C, total ascorbic acid",mg,--,--,60.0,25.0
"Vitamin A, IU",IU,--,--,1001,417
Lipids
Amino Acids
Other
Ingredients
"FILTERED WATER, HIGH FRUCTOSE CORN SYRUP, CARROT JUICE FROM CONCENTRATE (FILTERED WATER, CARROT JUICE CONCENTRATE), A FRUIT JUICE BLEND (FILTERED WATER, APPLE JUICE CONCENTRATE, CHERRY JUICE CONCENTRATE, STRAWBERRY JUICE CONCENTRATE, RED RASPBERRY JUICE CONCENTRATE, BLACKBERRY JUICE CONCENTRATE), CONTAINS LESS THAN 2% OF: NATURAL FLAVORS, CITRIC ACID, MALIC ACID, ASCORBIC ACID (VITAMIN C), SUCRALOSE, RED 40." Date available: 07/14/2017 Date last updated by company: 07/14/2017
