Source: USDA Branded Food Products Database Release December 2017 Software v.3.8.6.4 2017-10-02
Report Run at: December 17, 2017 02:06 EST
"Nutrient data for: 45288829, BERRIES & MANGO, UPC: 049022854673"
Food Group:  Branded Food Products Database
Common Name:

Nutrient,Unit,Data points,Std. Error,"1 SERVING = 255.1g",1Value per 100 g,
Proximates
"Energy",kcal,--,--,120,47
"Protein",g,--,--,1.99,0.78
"Total lipid (fat)",g,--,--,0.99,0.39
"Carbohydrate, by difference",g,--,--,30.99,12.15
"Fiber, total dietary",g,--,--,5.1,2.0
"Sugars, total",g,--,--,24.00,9.41
Minerals
"Sodium, Na",mg,--,--,0,0
Vitamins
Lipids
"Fatty acids, total saturated",g,--,--,0.204,0.080
"Fatty acids, total trans",g,--,--,0.000,0.000
"Cholesterol",mg,--,--,0,0
Amino Acids
Other
Ingredients
"MANGO, STRAWBERRY, BLUEBERRY." Date available: 09/22/2017 Date last updated by company: 09/22/2017
