Source: USDA Branded Food Products Database Release December 2017 Software v.3.8.6.4 2017-10-02
Report Run at: December 17, 2017 02:14 EST
"Nutrient data for: 45134868, BERTOLLI Ricotta Lobster Ravioli In A Seafood Bisque, UNPREPARED, GTIN: 00031000650247"
Food Group:  Branded Food Products Database
Common Name:

Nutrient,Unit,Data points,Std. Error,"0.5 Package (340g) = 340.0g",1Value per 100 g,
Proximates
"Energy",kcal,--,--,309,91
"Protein",g,--,--,12.00,3.53
"Total lipid (fat)",g,--,--,12.99,3.82
"Carbohydrate, by difference",g,--,--,36.99,10.88
"Fiber, total dietary",g,--,--,6.1,1.8
"Sugars, total",g,--,--,5.98,1.76
Minerals
"Calcium, Ca",mg,--,--,201,59
"Iron, Fe",mg,--,--,1.80,0.53
"Potassium, K",mg,--,--,422,124
"Sodium, Na",mg,--,--,1108,326
Vitamins
"Vitamin C, total ascorbic acid",mg,--,--,3.7,1.1
"Vitamin A, IU",IU,--,--,2999,882
Lipids
"Fatty acids, total saturated",g,--,--,5.984,1.760
"Fatty acids, total monounsaturated",g,--,--,2.992,0.880
"Fatty acids, total polyunsaturated",g,--,--,2.992,0.880
"Fatty acids, total trans",g,--,--,0.000,0.000
"Cholesterol",mg,--,--,54,16
Amino Acids
Other
Ingredients
"Bisque (Water, Sherry Wine, Onions, Butter [Cream, Salt], Tomato Paste, Carrots, Wheat Flour, Celery, Soybean Oil, Less Than 2% Of: Spices, Salt, Garlic, Sugar, Shrimp Shell Powder, Natural Flavors, Shrimp Powder, Cod Powder, Yeast Extract, Fish Flavor [Contains Cod, Blue Whiting, Haddock, Pollock, Redfish, Halibut], Onion Powder, Succinic Acid), Ricotta and Lobster Ravioli (Durum Wheat Flour, Water, Ricotta Cheese [Pasteurized Whey, Milk Fat, Milk], Lobster Meat, Whole Eggs, Bread Crumbs [Wheat Flour, Sugar, Soybean Oil, Yeast], Romano Cheese [Pasteurized Cow's Milk, Cultures, Salt, Enzymes], Salt, Lobster Extract Powder [Spiny Lobster Extract Powder {Maltodextrin, Salt, Spiny Lobster Paste}, Yeast Extract Powder {Yeast Extract, Maltodextrin, Salt}, Maltodextrin], Lobster Extract [Contains Salt], Sugar, Onion Powder, Garlic Powder, Parsley), Vegetables (Carrots And Celery), Cooked Shrimp (Shrimp, Salt, Sodium Tripolyphosphate [To Retain Moisture]). CONTAINS: CRUSTACEAN SHELLFISH (LOBSTER, SHRIMP, SPINY LOBSTER), EGG, FISH (BLUE WHITING, COD, HADDOCK, HALIBUT, POLLOCK, REDFISH), MILK, WHEAT" Date available: 10/12/2017 Date last updated by company: 10/12/2017
