Source: USDA Branded Food Products Database Release December 2017 Software v.3.8.6.4 2017-10-02
Report Run at: December 17, 2017 02:14 EST
"Nutrient data for: 45135089, BERTOLLI Meatball Pie, UNPREPARED, GTIN: 00031000900502"
Food Group:  Branded Food Products Database
Common Name:

Nutrient,Unit,Data points,Std. Error,"1 torta (283g) = 283.0g",1Value per 100 g,
Proximates
"Energy",kcal,--,--,679,240
"Protein",g,--,--,15.99,5.65
"Total lipid (fat)",g,--,--,39.00,13.78
"Carbohydrate, by difference",g,--,--,66.99,23.67
"Fiber, total dietary",g,--,--,7.1,2.5
"Sugars, total",g,--,--,9.00,3.18
Minerals
"Calcium, Ca",mg,--,--,300,106
"Iron, Fe",mg,--,--,3.59,1.27
"Potassium, K",mg,--,--,419,148
"Sodium, Na",mg,--,--,1090,385
Vitamins
"Vitamin C, total ascorbic acid",mg,--,--,2.3,0.8
"Vitamin A, IU",IU,--,--,999,353
Lipids
"Fatty acids, total saturated",g,--,--,17.999,6.360
"Fatty acids, total monounsaturated",g,--,--,8.009,2.830
"Fatty acids, total polyunsaturated",g,--,--,9.990,3.530
"Fatty acids, total trans",g,--,--,0.000,0.000
"Cholesterol",mg,--,--,40,14
Amino Acids
Other
Ingredients
"FILLING: CRUSHED TOMATOES IN PUREE (DICED TOMATOES, TOMATO PUREE, CITRIC ACID), CHEESE BLEND (RICOTTA CHEESE [WHEY, CREAM, VINEGAR, CARRAGEENAN], CREAM, WATER, MOZZARELLA CHEESE [PASTEURIZED MILK, CULTURES, SALT, ENZYMES], PARMESAN CHEESE [PASTEURIZED MILK, CULTURES, SALT, ENZYMES], DRIED EGG WHITES, PARSLEY, METHYLCELLULOSE, SALT, SPICE, GARLIC POWDER, ONION POWDER), MEATBALL (PORK, BEEF, WATER, ONIONS, BREADER (ENRICHED BLEACHED WHEAT FLOUR {BLEACHED WHEAT FLOUR, NIACIN, REDUCED IRON, THIAMINE MONONITRATE, RIBOFLAVIN, FOLIC ACID}, DURUM FLOUR, LEAVENING {SODIUM BICARBONATE, SODIUM ACID PYROPHOSPHATE}, YEAST), TEXTURED SOY PROTEIN CONCENTRATE [SOY PROTEIN, SOY CARBOHYDRATE, CARAMEL COLOR], SOY PROTEIN CONCENTRATE, TOMATO PASTE, SALT, FLAVORING, POTASSIUM CHLORIDE, CARAMEL COLOR, SOY LECITHIN, MONO- AND DIGLYCERIDES, SOYBEAN OIL, SUNFLOWER LECITHIN), MOZZARELLA CHEESE (PASTEURIZED MILK, NONFAT MILK, CULTURES, SALT, ENZYMES), ONIONS, WATER, TOMATO PUREE (WATER, TOMATO PASTE), OLIVE OIL, SUGAR, GARLIC PUREE (CRUSHED GARLIC, CITRIC ACID), SALT, MODIFIED CORN STARCH, BASIL, METHYLCELLULOSE, PARSLEY, SOYBEAN OIL, SPICES, CITRIC ACID. CRUST: (ENRICHED WHEAT FLOUR (WHEAT FLOUR, NIACIN, REDUCED IRON, THIAMINE MONONITRATE, RIBOFLAVIN, FOLIC ACID) , INTERESTERIFIED SOYBEAN OIL, WATER, SALT, MODIFIED WHEY, CARAMEL COLOR, WHEAT FLOUR. SPICE TOPPING: LESS THAN 2% OF SALT, DRIED GARLIC, DRIED ONIONS, SPICES, DRIED RED BELL PEPPER. CONTAINS: EGG,MILK,SOY,WHEAT." Date available: 10/12/2017 Date last updated by company: 10/12/2017
