Source: USDA Branded Food Products Database Release December 2017 Software v.3.8.6.4 2017-10-02
Report Run at: December 17, 2017 02:12 EST
"Nutrient data for: 45249754, BERTOLLI, CLASSIC MEAL FOR 2, ROASTED CHICKEN  & LINGUINE, UPC: 036200057063"
Food Group:  Branded Food Products Database
Common Name:

Nutrient,Unit,Data points,Std. Error,"0.5 PACKAGE, PER CONTAINER = 340.0g",1Value per 100 g,
Proximates
"Energy",kcal,--,--,411,121
"Protein",g,--,--,24.00,7.06
"Total lipid (fat)",g,--,--,17.00,5.00
"Carbohydrate, by difference",g,--,--,39.00,11.47
"Fiber, total dietary",g,--,--,4.1,1.2
"Sugars, total",g,--,--,7.00,2.06
Minerals
"Calcium, Ca",mg,--,--,201,59
"Iron, Fe",mg,--,--,1.56,0.46
"Sodium, Na",mg,--,--,1231,362
Vitamins
"Vitamin C, total ascorbic acid",mg,--,--,1.4,0.4
"Vitamin A, IU",IU,--,--,1003,295
Lipids
"Fatty acids, total saturated",g,--,--,5.984,1.760
"Fatty acids, total trans",g,--,--,0.000,0.000
"Cholesterol",mg,--,--,82,24
Amino Acids
Other
Ingredients
"CRUSHED TOMATOES IN PUREE. BLANCHED LINGUINE PASTA [ WATER, ENRICHED SEMOLINA [ DURUM WHEAT SEMOLINA, NIACIN, FERROUS SULFATE, THIAMIN MONONITRATE, RIBOFLAVIN, FOLIC ACID], WHOLE EGGS, SUNFLOWER OIL), FULLY COOKED SKINLESS BONELESS GRILLED GARLIC CHICKEN BREAST STRIPS WITH RIB MEAT [ CHICKEN BREAST MEAT WITH RIB MEAL WATER, SEASONING (DEXTROSE, DEHYDRATED ONION, DEHYDRATED GARLIC, FLAVORING), ISOLATED SOY PROTEIN PRODUCT [ ISOLATED SOY PROTEIN, MODIFIED FOOD STARCH, CORN STARCH, CARRAGEENAN, SOY LECITHIN), SALT, SODIUM PHOSPHATES), MOZZARELLA CHEESE (WHOLE PASTEURIZED MILK, NONFAT MILK, CHEESE CULTURES, SALT, ENZYMES), ZUCCHINI, WATER, SOYBEAN OIL, SALT, BASIL, SPICES." Date available: 06/25/2017 Date last updated by company: 06/25/2017
