Source: USDA Branded Food Products Database Release December 2017 Software v.3.8.6.4 2017-10-02
Report Run at: December 17, 2017 02:39 EST
"Nutrient data for: 45066784, BEST FOODS, REAL MAYONNAISE, UPC: 048001440524"
Food Group:  Branded Food Products Database
Common Name:

Nutrient,Unit,Data points,Std. Error,"1 Tbsp = 13.0g",1Value per 100 g,
Proximates
"Energy",kcal,--,--,90,692
"Protein",g,--,--,0.00,0.00
"Total lipid (fat)",g,--,--,10.00,76.92
"Carbohydrate, by difference",g,--,--,0.00,0.00
Minerals
"Sodium, Na",mg,--,--,90,692
Vitamins
Lipids
"Fatty acids, total saturated",g,--,--,1.500,11.540
"Fatty acids, total monounsaturated",g,--,--,2.500,19.230
"Fatty acids, total polyunsaturated",g,--,--,5.999,46.150
"Cholesterol",mg,--,--,5,38
Amino Acids
Other
Ingredients
"SOYBEAN OIL, WATER, WHOLE EGGS AND EGG YOLKS (WHOLE EGGS AND EGG YOLKS), VINEGAR, SALT, SUGAR, LEMON JUICE CONCENTRATE, CALCIUM DISODIUM EDTA (USED TO PROTECT QUALITY), NATURAL FLAVORS." Date available: 09/23/2016 Date last updated by company: 09/23/2016
