Source: USDA Branded Food Products Database Release December 2017 Software v.3.8.6.4 2017-10-02
Report Run at: December 17, 2017 02:43 EST
"Nutrient data for: 45169806, BETSY'S BEST, GOURMET PEANUT BUTTER, CINNAMON, CHIA SEEDS, UPC: 857034004005"
Food Group:  Branded Food Products Database
Common Name:

Nutrient,Unit,Data points,Std. Error,"2.0 Tbsp = 32.0g",1Value per 100 g,
Proximates
"Energy",kcal,--,--,180,562
"Protein",g,--,--,6.00,18.75
"Total lipid (fat)",g,--,--,14.00,43.75
"Carbohydrate, by difference",g,--,--,9.00,28.12
"Fiber, total dietary",g,--,--,4.0,12.5
"Sugars, total",g,--,--,3.00,9.38
Minerals
"Calcium, Ca",mg,--,--,40,125
"Iron, Fe",mg,--,--,1.13,3.52
"Sodium, Na",mg,--,--,95,297
Vitamins
"Vitamin C, total ascorbic acid",mg,--,--,0.0,0.0
"Vitamin A, IU",IU,--,--,0,0
Lipids
"Fatty acids, total saturated",g,--,--,2.000,6.250
"Fatty acids, total trans",g,--,--,0.000,0.000
"Cholesterol",mg,--,--,0,0
Amino Acids
Other
Ingredients
"PEANUTS, CHIA SEEDS, DEMERARA SUGAR, ORGANIC HONEY, CINNAMON, SUNFLOWER OIL, PINK HIMALAYAN SALT, ORGANIC STEVIA LEAF EXTRACT, NATURAL FLAVORS." Date available: 07/14/2017 Date last updated by company: 07/14/2017
