Source: USDA Branded Food Products Database Release December 2017 Software v.3.8.6.4 2017-10-02
Report Run at: December 17, 2017 02:44 EST
"Nutrient data for: 45146939, BETTER MADE, FLAVORED POPCORN, UPC: 041633002627"
Food Group:  Branded Food Products Database
Common Name:

Nutrient,Unit,Data points,Std. Error,"3.0 CUPS = 53.1g",1Value per 100 g,
Proximates
"Energy",kcal,--,--,320,603
"Protein",g,--,--,3.00,5.65
"Total lipid (fat)",g,--,--,25.00,47.08
"Carbohydrate, by difference",g,--,--,22.00,41.43
"Fiber, total dietary",g,--,--,4.0,7.5
"Sugars, total",g,--,--,2.00,3.77
Minerals
"Calcium, Ca",mg,--,--,20,38
"Iron, Fe",mg,--,--,0.68,1.28
"Sodium, Na",mg,--,--,240,452
Vitamins
"Vitamin C, total ascorbic acid",mg,--,--,0.0,0.0
"Vitamin A, IU",IU,--,--,0,0
Lipids
"Fatty acids, total saturated",g,--,--,6.999,13.180
"Fatty acids, total monounsaturated",g,--,--,4.498,8.470
"Fatty acids, total polyunsaturated",g,--,--,12.999,24.480
"Fatty acids, total trans",g,--,--,0.000,0.000
"Cholesterol",mg,--,--,0,0
Amino Acids
Other
Ingredients
"POPCORN, VEGETABLE OIL (CONTAINS ONE OR MORE OF THE FOLLOWING: COTTONSEED AND CANOLA OIL), SEASONING (CHEDDAR CHEESE (PASTEURIZED MILK, SALT, ANNATTO EXTRACT, CULTURE, ENZYMES), BUTTER (CREAM, WATER, SALT), WHEY, BUTTERMILK, NON FAT MILK, SALT, LACTIC ACID, ARTIFICIAL FLAVOR, DISODIUM INOSINATE & GUANYLATE, SILICON DIOXIDE, TOCOPHEROLS, ASCORBYL PALMITATE, DISODIUM PHOSPHATE)." Date available: 07/14/2017 Date last updated by company: 07/14/2017
