Source: USDA Branded Food Products Database Release December 2017 Software v.3.8.6.4 2017-10-02
Report Run at: December 17, 2017 02:46 EST
"Nutrient data for: 45016313, BETTER'N, PEANUT BUTTER, BANANA, UPC: 016459200441"
Food Group:  Branded Food Products Database
Common Name:

Nutrient,Unit,Data points,Std. Error,"2.0 Tbsp = 32.0g",1Value per 100 g,
Proximates
"Energy",kcal,--,--,100,312
"Protein",g,--,--,4.00,12.50
"Total lipid (fat)",g,--,--,2.00,6.25
"Carbohydrate, by difference",g,--,--,13.00,40.62
"Fiber, total dietary",g,--,--,2.0,6.2
"Sugars, total",g,--,--,2.00,6.25
Minerals
"Calcium, Ca",mg,--,--,40,125
"Iron, Fe",mg,--,--,0.61,1.90
"Sodium, Na",mg,--,--,190,594
Vitamins
"Vitamin C, total ascorbic acid",mg,--,--,8.1,25.4
"Vitamin A, IU",IU,--,--,0,0
Lipids
"Fatty acids, total saturated",g,--,--,0.000,0.000
"Fatty acids, total monounsaturated",g,--,--,0.998,3.120
"Fatty acids, total polyunsaturated",g,--,--,0.998,3.120
"Fatty acids, total trans",g,--,--,0.000,0.000
"Cholesterol",mg,--,--,0,0
Amino Acids
Other
Ingredients
"PEANUTS (AS DEFATTED PEANUT FLOUR, PEANUT BUTTER AND NATURAL PEANUT OILS), PURE WATER, TAPIOCA SYRUP, RICE SYRUP, VEGETABLE GLYCERINE, CANE SUGAR, BANANA, NATURAL COLORS AND FLAVORS, SALT, CALCIUM CARBONATE, LECITHIN, TOCOPHEROL (VITAMIN E), SODIUM ASCORBATE (VITAMIN C)." Date available: 08/18/2017 Date last updated by company: 08/18/2017
