Source: USDA Branded Food Products Database Release December 2017 Software v.3.8.6.4 2017-10-02
Report Run at: December 17, 2017 02:44 EST
"Nutrient data for: 45187355, BETTER BITES, CHOCOLATE ENROBED CAKE BALL, VERY STRAWBERRY, UPC: 700729531013"
Food Group:  Branded Food Products Database
Common Name:

Nutrient,Unit,Data points,Std. Error,"1 PACKAGE = 39.0g",1Value per 100 g,
Proximates
"Energy",kcal,--,--,116,297
"Protein",g,--,--,1.00,2.56
"Total lipid (fat)",g,--,--,5.00,12.82
"Carbohydrate, by difference",g,--,--,11.00,28.21
"Fiber, total dietary",g,--,--,1.0,2.6
"Sugars, total",g,--,--,10.00,25.64
Minerals
"Calcium, Ca",mg,--,--,40,103
"Iron, Fe",mg,--,--,1.11,2.84
"Sodium, Na",mg,--,--,55,141
Vitamins
"Vitamin C, total ascorbic acid",mg,--,--,0.0,0.0
"Vitamin A, IU",IU,--,--,103,263
Lipids
"Fatty acids, total saturated",g,--,--,2.001,5.130
"Fatty acids, total monounsaturated",g,--,--,0.998,2.560
"Fatty acids, total polyunsaturated",g,--,--,0.998,2.560
"Fatty acids, total trans",g,--,--,0.000,0.000
"Cholesterol",mg,--,--,0,0
Amino Acids
Other
Ingredients
"ORGANIC CANE SUGAR, WHITE RICE FLOUR, RICE MILK (FILTERED WATER, BROWN RICE, OIL (EXPELLER PRESSED CANOLA, SAFFLOWER, AND/OR SUNFLOWER), TRICALCIUM PHOSPHATE, NATURAL VANILLA FLAVOR WITH OTHER NATURAL FLAVORS, SEA SALT, VITAMIN A PALMITATE, VITAMIN D2, VITAMIN B12), VEGAN BUTTER (OIL BLEND (PALM FRUIT, CANOLA, AND OLIVE OILS), WATER, SALT, NATURAL FLAVOR, SUNFLOWER LECITHIN, LACTIC ACID (NON-DAIRY), ANNATTO EXTRACT (COLOR)), POTATO STARCH, WATER, TAPIOCA FLOUR, EGG REPLACER (POTATO STARCH, TAPIOCA FLOUR, LEAVENING (CALCIUM LACTATE (NON-DAIRY CALCIUM CARBONATE, CREAM OF TARTAR), CELLULOSE GUM, MODIFIED CELLULOSE), BAKING POWDER (MONOCALCIUM PHOSPHATE, POTATO STARCH, POTASSIUM BICARBONATE), NATURAL FLAVOR, DISTILLED WHITE VINEGAR, XANTHAN GUM, SALT, CHOCOLATE (EVAPORATED CANE JUICE, NATURAL CHOCOLATE LIQUOR (NON-ALCOHOLIC), NON-DAIRY COCOA BUTTER), PGPR (NON-GMO EMULSIFIER), SUGAR COLORED WITH NATURAL RED DYE (PLANT EXTRACTIVE)." Date available: 10/10/2017 Date last updated by company: 10/10/2017
