Source: USDA Branded Food Products Database Release December 2017 Software v.3.8.6.4 2017-10-02
Report Run at: December 17, 2017 02:43 EST
"Nutrient data for: 45138202, BETTER BEANS BETTER COFFEE, UPC: 8801037035384"
Food Group:  Branded Food Products Database
Common Name:

Nutrient,Unit,Data points,Std. Error,"1 tsp = 2.0g",1Value per 100 g,
Proximates
"Energy",kcal,--,--,7,350
"Protein",g,--,--,0.00,0.00
"Total lipid (fat)",g,--,--,0.00,0.00
"Carbohydrate, by difference",g,--,--,1.00,50.00
Minerals
"Sodium, Na",mg,--,--,2,100
Vitamins
Lipids
"Fatty acids, total saturated",g,--,--,0.000,0.000
"Fatty acids, total trans",g,--,--,0.000,0.000
"Cholesterol",mg,--,--,0,0
Amino Acids
Other
Ingredients
"COFFEE" Date available: 09/23/2016 Date last updated by company: 09/23/2016
