Source: USDA Branded Food Products Database Release December 2017 Software v.3.8.6.4 2017-10-02
Report Run at: December 17, 2017 02:49 EST
"Nutrient data for: 45318877, BETTY CROCKER, PARLOR PERFECT, ICE CREAM TOPPINGS, PRALINE CRUNCH, UPC: 071169714022"
Food Group:  Branded Food Products Database
Common Name:

Nutrient,Unit,Data points,Std. Error,"1 tsp = 3.0g",1Value per 100 g,
Proximates
"Energy",kcal,--,--,15,500
"Protein",g,--,--,0.00,0.00
"Total lipid (fat)",g,--,--,0.00,0.00
"Carbohydrate, by difference",g,--,--,3.00,100.00
"Sugars, total",g,--,--,2.00,66.67
Minerals
"Sodium, Na",mg,--,--,0,0
Vitamins
Lipids
Amino Acids
Other
Ingredients
"SUGAR, CORNSTARCH, COCONUT, PARTIALLY HYDROGENATED VEGETABLE OIL (COTTONSEED, SOYBEAN), CORN SYRUP, CARAMEL COLOR, NATURAL AND ARTIFICIAL FLAVOR, SALT, CONFECTIONER'S GLAZE. CARNAUBA WAX." Date available: 07/14/2017 Date last updated by company: 07/14/2017
