Source: USDA Branded Food Products Database Release December 2017 Software v.3.8.6.4 2017-10-02
Report Run at: December 17, 2017 02:54 EST
"Nutrient data for: 45209071, BHAKRI FLOUR, UPC: 011433158725"
Food Group:  Branded Food Products Database
Common Name:

Nutrient,Unit,Data points,Std. Error,"0.25 cup = 46.0g",1Value per 100 g,
Proximates
"Energy",kcal,--,--,175,380
"Protein",g,--,--,5.00,10.87
"Total lipid (fat)",g,--,--,1.00,2.17
"Carbohydrate, by difference",g,--,--,36.00,78.26
"Fiber, total dietary",g,--,--,1.0,2.2
"Sugars, total",g,--,--,0.00,0.00
Minerals
"Calcium, Ca",mg,--,--,0,0
"Iron, Fe",mg,--,--,1.96,4.25
"Sodium, Na",mg,--,--,10,22
Vitamins
"Vitamin C, total ascorbic acid",mg,--,--,0.0,0.0
"Vitamin A, IU",IU,--,--,0,0
Lipids
"Fatty acids, total saturated",g,--,--,0.000,0.000
"Fatty acids, total trans",g,--,--,0.000,0.000
"Cholesterol",mg,--,--,0,0
Amino Acids
Other
Ingredients
"WHEAT." Date available: 07/14/2017 Date last updated by company: 07/14/2017
