Source: USDA Branded Food Products Database Release December 2017 Software v.3.8.6.4 2017-10-02
Report Run at: December 17, 2017 03:06 EST
"Nutrient data for: 45171833, BIG WIN, COFFEE CREAMER, HAZELNUT, UPC: 011822660082"
Food Group:  Branded Food Products Database
Common Name:

Nutrient,Unit,Data points,Std. Error,"4.0 tsp = 12.0g",1Value per 100 g,
Proximates
"Energy",kcal,--,--,60,500
"Protein",g,--,--,0.00,0.00
"Total lipid (fat)",g,--,--,2.00,16.67
"Carbohydrate, by difference",g,--,--,9.00,75.00
"Fiber, total dietary",g,--,--,0.0,0.0
"Sugars, total",g,--,--,7.00,58.33
Minerals
"Calcium, Ca",mg,--,--,0,0
"Iron, Fe",mg,--,--,0.00,0.00
"Potassium, K",mg,--,--,50,417
"Sodium, Na",mg,--,--,5,42
Vitamins
"Vitamin C, total ascorbic acid",mg,--,--,0.0,0.0
"Vitamin A, IU",IU,--,--,0,0
Lipids
"Fatty acids, total saturated",g,--,--,1.000,8.330
"Fatty acids, total monounsaturated",g,--,--,1.000,8.330
"Fatty acids, total polyunsaturated",g,--,--,0.000,0.000
"Fatty acids, total trans",g,--,--,0.000,0.000
"Cholesterol",mg,--,--,0,0
Amino Acids
Other
Ingredients
"SUGAR, VEGETABLE OIL (CONTAINS ONE OR MORE OF THE FOLLOWING: PALM, PALM KERNEL, COCONUT, SOYBEAN), CORN SYRUP, SOLIDS, CONTAINS LESS THAT 2% OF NATURAL AND ARTIFICIAL FLAVOR, SODIUM CASSEINATE (A MILK DERIVATIVE), DIPOTASSIUM PHOSPHATE, MONO-AND DIGLYCERIDES, SILICON DIOXIDE, SOY LECITHIN." Date available: 07/14/2017 Date last updated by company: 07/14/2017
