Source: USDA Branded Food Products Database Release December 2017 Software v.3.8.6.4 2017-10-02
Report Run at: December 17, 2017 03:08 EST
"Nutrient data for: 45181175, BIG WIN, MACARONI CHEESE, UPC: 011822551779"
Food Group:  Branded Food Products Database
Common Name:

Nutrient,Unit,Data points,Std. Error,"0.33 BOX | ABOUT = 70.0g",1Value per 100 g,
Proximates
"Energy",kcal,--,--,250,357
"Protein",g,--,--,8.00,11.43
"Total lipid (fat)",g,--,--,1.00,1.43
"Carbohydrate, by difference",g,--,--,52.00,74.29
"Fiber, total dietary",g,--,--,2.0,2.9
"Sugars, total",g,--,--,7.00,10.00
Minerals
"Calcium, Ca",mg,--,--,40,57
"Iron, Fe",mg,--,--,1.80,2.57
"Sodium, Na",mg,--,--,500,714
Vitamins
"Vitamin C, total ascorbic acid",mg,--,--,0.0,0.0
"Vitamin A, IU",IU,--,--,0,0
Lipids
"Fatty acids, total saturated",g,--,--,0.000,0.000
"Fatty acids, total trans",g,--,--,0.000,0.000
"Cholesterol",mg,--,--,0,0
Amino Acids
Other
Ingredients
"ENRICHED MACARONI PRODUCT (WHEAT FLOUR, NIACIN, FERROUS SULFATE, THIAMIN MONONITRATE, RIBOFLAVIN, FOLIC ACID), CHEESE SAUCE MIX (MALTODEXTRIN, WHEY, WHEAT FLOUR, DAIRY PRODUCT SOLIDS, NATURAL FLAVORS, SALT, MODIFIED TAPIOCA STARCH, POTASSIUM CHLORIDE, CHEDDAR CHEESE [PASTEURIZED MILK, CHEESE CULTURES, SALT, ENZYMES], ANNATTO EXTRACT [COLOR], TURMERIC EXTRACT [COLOR], DISODIUM PHOSPHATE, TITANIUM DIOXIDE [COLOR], RIBOFLAVIN [COLOR], SOYBEAN OIL, SILICON DIOXIDE)." Date available: 10/12/2016 Date last updated by company: 10/12/2016
