Source: USDA Branded Food Products Database Release December 2017 Software v.3.8.6.4 2017-10-02
Report Run at: December 17, 2017 02:59 EST
"Nutrient data for: 45183953, BIG FARM BEEF PATTIES, UPC: 079821100152"
Food Group:  Branded Food Products Database
Common Name:

Nutrient,Unit,Data points,Std. Error,"1 PATTY = 196.0g",1Value per 100 g,
Proximates
"Energy",kcal,--,--,510,260
"Protein",g,--,--,31.01,15.82
"Total lipid (fat)",g,--,--,43.00,21.94
"Carbohydrate, by difference",g,--,--,0.00,0.00
"Fiber, total dietary",g,--,--,1.0,0.5
"Sugars, total",g,--,--,1.00,0.51
Minerals
"Calcium, Ca",mg,--,--,39,20
"Iron, Fe",mg,--,--,1.18,0.60
"Sodium, Na",mg,--,--,480,245
Vitamins
"Vitamin C, total ascorbic acid",mg,--,--,0.0,0.0
"Vitamin A, IU",IU,--,--,0,0
Lipids
"Fatty acids, total saturated",g,--,--,18.992,9.690
"Fatty acids, total trans",g,--,--,2.999,1.530
"Cholesterol",mg,--,--,139,71
Amino Acids
Other
Ingredients
"BEEF, WATER, SPICE, SALT." Date available: 08/07/2017 Date last updated by company: 08/07/2017
