Source: USDA Branded Food Products Database Release December 2017 Software v.3.8.6.4 2017-10-02
Report Run at: December 17, 2017 03:04 EST
"Nutrient data for: 45023249, BIG SPOON ROASTERS, PEANUT BUTTER, UPC: 793573184238"
Food Group:  Branded Food Products Database
Common Name:

Nutrient,Unit,Data points,Std. Error,"2.0 Tbsp = 29.06g",1Value per 100 g,
Proximates
"Energy",kcal,--,--,170,585
"Protein",g,--,--,7.00,24.09
"Total lipid (fat)",g,--,--,14.00,48.18
"Carbohydrate, by difference",g,--,--,7.00,24.09
"Fiber, total dietary",g,--,--,2.0,6.9
"Sugars, total",g,--,--,2.00,6.88
Minerals
"Iron, Fe",mg,--,--,1.24,4.26
"Sodium, Na",mg,--,--,30,103
Vitamins
Lipids
"Fatty acids, total saturated",g,--,--,1.999,6.880
"Fatty acids, total trans",g,--,--,0.000,0.000
"Cholesterol",mg,--,--,0,0
Amino Acids
Other
Ingredients
"PEANUTS RAW WILDFLOWER HONEY ORGANIC COCONUT OIL SEA SALT." Date available: 09/29/2017 Date last updated by company: 09/29/2017
