Source: USDA Branded Food Products Database Release December 2017 Software v.3.8.6.4 2017-10-02
Report Run at: December 17, 2017 03:17 EST
"Nutrient data for: 45181243, BIG Y, STEAMING EASY GREEN BEANS, UPC: 018894320609"
Food Group:  Branded Food Products Database
Common Name:

Nutrient,Unit,Data points,Std. Error,"0.67 cup = 85.0g",1Value per 100 g,
Proximates
"Energy",kcal,--,--,25,29
"Protein",g,--,--,1.00,1.18
"Total lipid (fat)",g,--,--,0.00,0.00
"Carbohydrate, by difference",g,--,--,5.00,5.88
"Fiber, total dietary",g,--,--,3.0,3.5
"Sugars, total",g,--,--,2.00,2.35
Minerals
"Calcium, Ca",mg,--,--,40,47
"Iron, Fe",mg,--,--,0.72,0.85
"Sodium, Na",mg,--,--,10,12
Vitamins
"Vitamin C, total ascorbic acid",mg,--,--,9.0,10.6
"Vitamin A, IU",IU,--,--,400,471
Lipids
"Fatty acids, total saturated",g,--,--,0.000,0.000
"Fatty acids, total trans",g,--,--,0.000,0.000
"Cholesterol",mg,--,--,0,0
Amino Acids
Other
Ingredients
"GREEN BEANS." Date available: 07/14/2017 Date last updated by company: 07/14/2017
