Source: USDA Branded Food Products Database Release December 2017 Software v.3.8.6.4 2017-10-02
Report Run at: December 17, 2017 03:10 EST
"Nutrient data for: 45156213, BIG WIN, SWEET CHIPS & NUTS TRAIL MIX, UPC: 011822584838"
Food Group:  Branded Food Products Database
Common Name:

Nutrient,Unit,Data points,Std. Error,"0.33 cup = 47.0g",1Value per 100 g,
Proximates
"Energy",kcal,--,--,230,489
"Protein",g,--,--,6.00,12.77
"Total lipid (fat)",g,--,--,15.00,31.91
"Carbohydrate, by difference",g,--,--,22.00,46.81
"Fiber, total dietary",g,--,--,2.0,4.3
"Sugars, total",g,--,--,16.00,34.04
Minerals
"Calcium, Ca",mg,--,--,40,85
"Iron, Fe",mg,--,--,0.77,1.63
"Sodium, Na",mg,--,--,45,96
Vitamins
"Vitamin C, total ascorbic acid",mg,--,--,0.0,0.0
"Vitamin A, IU",IU,--,--,0,0
Lipids
"Fatty acids, total saturated",g,--,--,4.000,8.510
"Fatty acids, total trans",g,--,--,0.000,0.000
"Cholesterol",mg,--,--,0,0
Amino Acids
Other
Ingredients
"PEANUTS, RAISINS COATED WITH LESS THAN 1% SUNFLOWER AND/OR CANOLA OIL, MILK CHOCOLATE CHIPS (SUGAR, COCOA BUTTER, WHOLE MILK POWDER, CHOCOLATE LIQUOR, SOY LECITHIN, VANILLIN ARTIFICIAL FLAVORING), PEANUT BUTTER CHIPS (SUGAR, PARTIALLY HYDROGENATED PALM KERNEL OIL, PARTIALLY DEFATTED PEANUT FLOUR, NONFAT MILK POWDER, WHEY POWDER, PEANUT BUTTER [PEANUTS, HYDROGENATED RAPESEED AND COTTONSEED OIL], DEXTROSE, SALT AND SOY LECITHIN), ALMONDS, CASHEWS, DRIED SWEETENED CRANBERRIES (CRANBERRIES, SUGAR, SUNFLOWER OIL), VEGETABLE OIL (PEANUT, COTTONSEED, SOYBEAN AND/OR SUNFLOWER SEED), SEA SALT." Date available: 07/14/2017 Date last updated by company: 07/14/2017
