Source: USDA Branded Food Products Database Release December 2017 Software v.3.8.6.4 2017-10-02
Report Run at: December 17, 2017 03:18 EST
"Nutrient data for: 45171706, BIG Y, WHOLE WHEAT PTA BREAD, UPC: 018894462514"
Food Group:  Branded Food Products Database
Common Name:

Nutrient,Unit,Data points,Std. Error,"1 PITA = 71.0g",1Value per 100 g,
Proximates
"Energy",kcal,--,--,180,254
"Protein",g,--,--,7.00,9.86
"Total lipid (fat)",g,--,--,1.50,2.11
"Carbohydrate, by difference",g,--,--,34.00,47.89
"Fiber, total dietary",g,--,--,5.0,7.0
"Sugars, total",g,--,--,1.00,1.41
Minerals
"Calcium, Ca",mg,--,--,60,85
"Iron, Fe",mg,--,--,0.26,0.36
"Sodium, Na",mg,--,--,220,310
Vitamins
"Vitamin C, total ascorbic acid",mg,--,--,0.0,0.0
"Vitamin A, IU",IU,--,--,0,0
Lipids
"Fatty acids, total saturated",g,--,--,0.000,0.000
"Fatty acids, total trans",g,--,--,0.000,0.000
"Cholesterol",mg,--,--,0,0
Amino Acids
Other
Ingredients
"WHOLE WHEAT FLOUR, WATER, SUGAR, YEAST, SALT, CALCIUM PROPIONATE (TO RETARD SPOILAGE)." Date available: 07/14/2017 Date last updated by company: 07/14/2017
