Source: USDA Branded Food Products Database Release December 2017 Software v.3.8.6.4 2017-10-02
Report Run at: December 17, 2017 02:58 EST
"Nutrient data for: 45217307, BIG CONE WITH MILK CANDY, UPC: 709434800223"
Food Group:  Branded Food Products Database
Common Name:

Nutrient,Unit,Data points,Std. Error,"1 ONZ = 28.0g",1Value per 100 g,
Proximates
"Energy",kcal,--,--,110,393
"Protein",g,--,--,2.00,7.14
"Total lipid (fat)",g,--,--,1.00,3.57
"Carbohydrate, by difference",g,--,--,22.00,78.57
"Fiber, total dietary",g,--,--,3.0,10.7
"Sugars, total",g,--,--,10.00,35.71
Minerals
"Calcium, Ca",mg,--,--,40,143
"Iron, Fe",mg,--,--,0.00,0.00
"Sodium, Na",mg,--,--,40,143
Vitamins
"Vitamin C, total ascorbic acid",mg,--,--,0.0,0.0
"Vitamin A, IU",IU,--,--,0,0
Lipids
"Fatty acids, total saturated",g,--,--,0.501,1.790
"Fatty acids, total trans",g,--,--,0.000,0.000
"Cholesterol",mg,--,--,5,18
Amino Acids
Other
Ingredients
"GOAT MILK, CORN SYRUP, SUGAR, PECAN, SODIUM BICARBONATE, CONE: WHEAT FLOUR, VEGETABLE OIL, SUGAR, SOY LECITHIN, BAKING POWDER, IODIZED SALT, ARTIFICIAL COLOR FD&C ANATTO AND CARAMEL COLOR" Date available: 07/14/2017 Date last updated by company: 07/14/2017
