Source: USDA Branded Food Products Database Release December 2017 Software v.3.8.6.4 2017-10-02
Report Run at: December 17, 2017 03:03 EST
"Nutrient data for: 45149941, BIG PRETZELS, UPC: 814094020130"
Food Group:  Branded Food Products Database
Common Name:

Nutrient,Unit,Data points,Std. Error,"20.0 GRM = 20.0g",1Value per 100 g,
Proximates
"Energy",kcal,--,--,76,380
"Protein",g,--,--,2.00,10.00
"Total lipid (fat)",g,--,--,1.00,5.00
"Carbohydrate, by difference",g,--,--,13.00,65.00
"Fiber, total dietary",g,--,--,1.0,5.0
"Sugars, total",g,--,--,0.00,0.00
Minerals
"Calcium, Ca",mg,--,--,0,0
"Iron, Fe",mg,--,--,0.00,0.00
"Sodium, Na",mg,--,--,380,1900
Vitamins
"Vitamin C, total ascorbic acid",mg,--,--,0.0,0.0
"Vitamin A, IU",IU,--,--,0,0
Lipids
"Fatty acids, total saturated",g,--,--,0.600,3.000
"Fatty acids, total trans",g,--,--,0.000,0.000
"Cholesterol",mg,--,--,0,0
Amino Acids
Other
Ingredients
"WHEAT FLOUR* (86%), SALT (6%), PALM FAT*, YEAST, BARLEY MALT EXTRACT*, ACIDITY REGULATOR (SODIUM HYDROXIDE)" Date available: 07/14/2017 Date last updated by company: 07/14/2017
