Source: USDA Branded Food Products Database Release December 2017 Software v.3.8.6.4 2017-10-02
Report Run at: December 17, 2017 03:02 EST
"Nutrient data for: 45187021, BIG PAPA'S, SOUTHERN SAUCE, UPC: 000309512075"
Food Group:  Branded Food Products Database
Common Name:

Nutrient,Unit,Data points,Std. Error,"2.0 Tbsp = 32.0g",1Value per 100 g,
Proximates
"Energy",kcal,--,--,80,250
"Protein",g,--,--,0.00,0.00
"Total lipid (fat)",g,--,--,0.00,0.00
"Carbohydrate, by difference",g,--,--,14.00,43.75
"Fiber, total dietary",g,--,--,0.0,0.0
"Sugars, total",g,--,--,11.00,34.38
Minerals
"Calcium, Ca",mg,--,--,0,0
"Iron, Fe",mg,--,--,0.00,0.00
"Sodium, Na",mg,--,--,380,1188
Vitamins
"Vitamin C, total ascorbic acid",mg,--,--,25.4,79.3
"Vitamin A, IU",IU,--,--,0,0
Lipids
"Fatty acids, total saturated",g,--,--,0.000,0.000
"Cholesterol",mg,--,--,0,0
Amino Acids
Other
Ingredients
"CATSUP, VINEGAR, BROWN SUGAR, APRICOTS, ENZYMES PEPPER, SUGAR, GARLIC SALT, PEPPER AND LIQUID SMOKE, WORCESTERSHIRE SAUCE AND SECRET SPICES." Date available: 07/14/2017 Date last updated by company: 07/14/2017
