Source: USDA Branded Food Products Database Release December 2017 Software v.3.8.6.4 2017-10-02
Report Run at: December 17, 2017 03:20 EST
"Nutrient data for: 45012144, BIMBO, CRISPY WHEELS, UPC: 074323091045"
Food Group:  Branded Food Products Database
Common Name:

Nutrient,Unit,Data points,Std. Error,"33.0 g = 33.0g",1Value per 100 g,
Proximates
"Energy",kcal,--,--,160,485
"Protein",g,--,--,1.00,3.03
"Total lipid (fat)",g,--,--,8.00,24.24
"Carbohydrate, by difference",g,--,--,22.00,66.67
"Fiber, total dietary",g,--,--,0.0,0.0
"Sugars, total",g,--,--,10.00,30.30
Minerals
"Calcium, Ca",mg,--,--,40,121
"Iron, Fe",mg,--,--,1.20,3.64
"Sodium, Na",mg,--,--,140,424
Vitamins
"Vitamin C, total ascorbic acid",mg,--,--,0.0,0.0
"Thiamin",mg,--,--,0.000,0.000
"Riboflavin",mg,--,--,0.034,0.103
"Niacin",mg,--,--,0.666,2.018
"Vitamin A, IU",IU,--,--,0,0
Lipids
"Fatty acids, total saturated",g,--,--,2.501,7.580
"Fatty acids, total monounsaturated",g,--,--,1.502,4.550
"Fatty acids, total polyunsaturated",g,--,--,4.000,12.120
"Fatty acids, total trans",g,--,--,0.000,0.000
"Cholesterol",mg,--,--,15,45
Amino Acids
Other
Ingredients
"SUGAR, WHEAT STARCH, WATER, COTTONSEED OIL, WHEAT FLOUR, EGG, PARTIALLY HYDROGENATED PALM OIL, SOY LECITHIN, NONFAT MILK, IODIZED SALT, BAKING SODA, SODIUM ALUMINUM SULFATE, CALCIUM SULFATE, MONOCALCIUM PHOSPHATE, TBHQ (ANTIOXIDANT), THIAMIN MONONITRATE, RIBOFLAVIN, NIACIN, FOLIC ACID, FERROUS SULFATE, ZINC OXIDE." Date available: 06/25/2017 Date last updated by company: 06/25/2017
