Source: USDA Branded Food Products Database Release December 2017 Software v.3.8.6.4 2017-10-02
Report Run at: December 17, 2017 03:22 EST
"Nutrient data for: 45216744, BIO-K PLUS, PROBIOTIC FERMENTED SOY, MANGO, UPC: 626608001814"
Food Group:  Branded Food Products Database
Common Name:

Nutrient,Unit,Data points,Std. Error,"1 BOTTLE = 104.0g",1Value per 100 g,
Proximates
"Energy",kcal,--,--,50,48
"Protein",g,--,--,3.00,2.88
"Total lipid (fat)",g,--,--,0.00,0.00
"Carbohydrate, by difference",g,--,--,9.00,8.65
"Sugars, total",g,--,--,9.00,8.65
Minerals
"Sodium, Na",mg,--,--,40,38
Vitamins
Lipids
"Cholesterol",mg,--,--,0,0
Amino Acids
Other
Ingredients
"WATER, DRIED CANE SYRUP?, SOY PROTEIN ISOLATE, ACTIVE CULTURES OF L. ACIDOPHILUS CL1285, L. CASEI LBC80R AND L. RHAMNOSUS CLR2, NUTRITIONAL YEAST, NATURAL MANGO FLAVOR*, CALCIUM CITRATE, PECTIN" Date available: 09/23/2016 Date last updated by company: 09/23/2016
