Source: USDA Branded Food Products Database Release December 2017 Software v.3.8.6.4 2017-10-02
Report Run at: December 17, 2017 03:27 EST
"Nutrient data for: 45056313, BIRDS EYE, SWEET KERNEL CORN, UPC: 014500024398"
Food Group:  Branded Food Products Database
Common Name:

Nutrient,Unit,Data points,Std. Error,"0.67 cup = 90.0g",1Value per 100 g,
Proximates
"Energy",kcal,--,--,70,78
"Protein",g,--,--,3.00,3.33
"Total lipid (fat)",g,--,--,1.00,1.11
"Carbohydrate, by difference",g,--,--,14.00,15.56
"Fiber, total dietary",g,--,--,2.0,2.2
"Sugars, total",g,--,--,6.00,6.67
Minerals
"Calcium, Ca",mg,--,--,0,0
"Iron, Fe",mg,--,--,0.34,0.38
"Sodium, Na",mg,--,--,0,0
Vitamins
"Vitamin C, total ascorbic acid",mg,--,--,5.7,6.3
"Vitamin A, IU",IU,--,--,94,105
Lipids
"Fatty acids, total saturated",g,--,--,0.000,0.000
"Fatty acids, total monounsaturated",g,--,--,0.000,0.000
"Fatty acids, total polyunsaturated",g,--,--,0.000,0.000
"Fatty acids, total trans",g,--,--,0.000,0.000
"Cholesterol",mg,--,--,0,0
Amino Acids
Other
Ingredients
"CORN." Date available: 07/14/2017 Date last updated by company: 07/14/2017
