Source: USDA Branded Food Products Database Release December 2017 Software v.3.8.6.4 2017-10-02
Report Run at: December 17, 2017 03:26 EST
"Nutrient data for: 45122674, BIRDS EYE, STEAMFRESH, LIGHTLY SEASONED GARLIC BABY PEAS & MUSHROOMS, UPC: 014500015358"
Food Group:  Branded Food Products Database
Common Name:

Nutrient,Unit,Data points,Std. Error,"0.75 cup = 86.0g",1Value per 100 g,
Proximates
"Energy",kcal,--,--,80,93
"Protein",g,--,--,4.00,4.65
"Total lipid (fat)",g,--,--,2.00,2.33
"Carbohydrate, by difference",g,--,--,12.00,13.95
"Fiber, total dietary",g,--,--,3.0,3.5
"Sugars, total",g,--,--,4.00,4.65
Minerals
"Calcium, Ca",mg,--,--,20,23
"Iron, Fe",mg,--,--,0.71,0.83
"Sodium, Na",mg,--,--,340,395
Vitamins
"Vitamin C, total ascorbic acid",mg,--,--,5.9,6.9
"Vitamin A, IU",IU,--,--,297,345
Lipids
"Fatty acids, total saturated",g,--,--,0.000,0.000
"Fatty acids, total trans",g,--,--,0.000,0.000
"Cholesterol",mg,--,--,0,0
Amino Acids
Other
Ingredients
"PEAS, MUSHROOMS, SEASONING (SALT, SUGAR, GARLIC POWDER, DEHYDRATED ONION, MALTODEXTRIN, DEHYDRATED GARLIC, SPICE, NATURAL FLAVOR, SOY LECITHIN) SOYBEAN OIL." Date available: 06/25/2017 Date last updated by company: 06/25/2017
