Source: USDA Branded Food Products Database Release December 2017 Software v.3.8.6.4 2017-10-02
Report Run at: December 17, 2017 03:26 EST
"Nutrient data for: 45122776, BIRDS EYE, STEAMFRESH, PENNE WITH SPINACH IN A PARMESAN SAUCE, UPC: 014500015525"
Food Group:  Branded Food Products Database
Common Name:

Nutrient,Unit,Data points,Std. Error,"1.66 cup = 192.0g",1Value per 100 g,
Proximates
"Energy",kcal,--,--,300,156
"Protein",g,--,--,5.99,3.12
"Total lipid (fat)",g,--,--,4.49,2.34
"Carbohydrate, by difference",g,--,--,52.99,27.60
"Fiber, total dietary",g,--,--,1.9,1.0
"Sugars, total",g,--,--,3.00,1.56
Minerals
"Calcium, Ca",mg,--,--,60,31
"Iron, Fe",mg,--,--,0.00,0.00
"Sodium, Na",mg,--,--,770,401
Vitamins
"Vitamin C, total ascorbic acid",mg,--,--,9.2,4.8
"Vitamin A, IU",IU,--,--,509,265
Lipids
"Fatty acids, total saturated",g,--,--,0.499,0.260
"Fatty acids, total trans",g,--,--,0.000,0.000
"Cholesterol",mg,--,--,0,0
Amino Acids
Other
Ingredients
"COOKED WHITE RICE (WATER, RICE), BROCCOLI, CARROTS, ONIONS, SEASONING (MALTODEXTRIN, WHEY SALT, FOOD STARCH-MODIFIED, HYDROLYZED CORN, PROTEIN DEHYDRATED ONIONS, YEAST EXTRACT, DEHYDRATED RED PEPPERS, NATURAL FLAVORS, SOYBEAN OIL, GARLIC POWDER, SPICES, CORN SYRUP SOLIDS, TURMERIC POWDER, AND DIGLYCERIDES, SAFFLOWER OIL, SODIUM PHOSPHATE,SODIUM CASEINATE, CHICKEN FAT, GUM ACACIA, SUGAR, DEHYDRATED CHICKEN BROTH, SUNFLOWER OIL), SOYBEAN." Date available: 06/30/2017 Date last updated by company: 06/30/2017
