Source: USDA Branded Food Products Database Release December 2017 Software v.3.8.6.4 2017-10-02
Report Run at: December 17, 2017 03:26 EST
"Nutrient data for: 45122835, BIRDS EYE, STEAMFRESH, LIGHTLY SAUCED CREAMED SPINACH, UPC: 014500014276"
Food Group:  Branded Food Products Database
Common Name:

Nutrient,Unit,Data points,Std. Error,"1.25 cup = 114.0g",1Value per 100 g,
Proximates
"Energy",kcal,--,--,90,79
"Protein",g,--,--,4.00,3.51
"Total lipid (fat)",g,--,--,5.00,4.39
"Carbohydrate, by difference",g,--,--,5.00,4.39
"Fiber, total dietary",g,--,--,1.0,0.9
"Sugars, total",g,--,--,1.00,0.88
Minerals
"Calcium, Ca",mg,--,--,100,88
"Iron, Fe",mg,--,--,0.70,0.61
"Sodium, Na",mg,--,--,320,281
Vitamins
"Vitamin C, total ascorbic acid",mg,--,--,1.1,1.0
"Vitamin A, IU",IU,--,--,2412,2116
Lipids
"Fatty acids, total saturated",g,--,--,2.998,2.630
"Fatty acids, total trans",g,--,--,0.000,0.000
"Cholesterol",mg,--,--,15,13
Amino Acids
Other
Ingredients
"SPINACH, SAUCE (WATER, HALF AND HALF [MILK, CREAM], BUTTER [CREAM, SALT], PARMESAN CHEESE [PASTEURIZED PART SKIM MILK, CULTURE, SALT, ENZYMES], CORN STARCH, GARLIC POWDER, SALT, XANTHAN GUM, SPICES)." Date available: 06/25/2017 Date last updated by company: 06/25/2017
