Source: USDA Branded Food Products Database Release December 2017 Software v.3.8.6.4 2017-10-02
Report Run at: December 17, 2017 03:25 EST
"Nutrient data for: 45122161, BIRDS EYE, ROTINI & VEGETABLES, UPC: 014500005427"
Food Group:  Branded Food Products Database
Common Name:

Nutrient,Unit,Data points,Std. Error,"1 cup = 115.0g",1Value per 100 g,
Proximates
"Energy",kcal,--,--,100,87
"Protein",g,--,--,3.00,2.61
"Total lipid (fat)",g,--,--,2.00,1.74
"Carbohydrate, by difference",g,--,--,17.00,14.78
"Fiber, total dietary",g,--,--,2.0,1.7
"Sugars, total",g,--,--,4.00,3.48
Minerals
"Calcium, Ca",mg,--,--,20,17
"Iron, Fe",mg,--,--,1.22,1.06
"Sodium, Na",mg,--,--,430,374
Vitamins
"Vitamin C, total ascorbic acid",mg,--,--,20.4,17.7
"Vitamin A, IU",IU,--,--,1272,1106
Lipids
"Fatty acids, total saturated",g,--,--,1.000,0.870
"Fatty acids, total trans",g,--,--,0.000,0.000
"Cholesterol",mg,--,--,5,4
Amino Acids
Other
Ingredients
"COOKED ENRICHED MACARONI PRODUCT (WATER, ENRICHED MACARONI PRODUCT (DURUM WHEAT SEMOLINA, NIACIN, FERROUS SULFATE, THIAMINE MONONITRATE, RIBOFLAVIN, FOLIC ACID)), BROCCOLI, CORN, WATER, CARROTS. CONTAINS 2% OR LESS OF: BUTTER SEASONING (BUTTER [CREAM, SALT], SALT, NON FAT MILK, HYDROLYZED CORN AND SOY PROTEIN, MODIFIED CORN STARCH, AUTOLYZED YEAST EXTRACT, WHEY, MODIFIED BUTTER OIL, ARTIFICIAL FLAVOR, SPICE, MALTODEXTRIN, CORN SYRUP SOLIDS, GARLIC POWDER, GUAR GUM, TURMERIC EXTRACT [COLOR], ANNATTO EXTRACT [COLOR]), MODIFIED FOOD STARCH, GARLIC, SUGAR, BUTTER (CREAM, SALT), SALT, ROASTED GARLIC (GARLIC, WATER, PHOSPHORIC ACID), BUTTER FLAVOR (MALTODEXTRIN, ENZYME MODIFIED BUTTER, SALT, DEHYDRATED BUTTER, SHORTENING POWDER, GUAR GUM, SODIUM BICARBONATE, ANNATTO AND TURMERIC [FOR COLOR]), SPICES, SODIUM STEAROYL LACTYLATE, NATURAL FLAVOR." Date available: 07/14/2017 Date last updated by company: 07/14/2017
