Source: USDA Branded Food Products Database Release December 2017 Software v.3.8.6.4 2017-10-02
Report Run at: December 17, 2017 03:25 EST
"Nutrient data for: 45122762, BIRDS EYE, PASTA & VEGETABLES IN A CREAMY CHEESE SAUCE, UPC: 014500005441"
Food Group:  Branded Food Products Database
Common Name:

Nutrient,Unit,Data points,Std. Error,"1 cup = 126.0g",1Value per 100 g,
Proximates
"Energy",kcal,--,--,140,111
"Protein",g,--,--,5.00,3.97
"Total lipid (fat)",g,--,--,3.99,3.17
"Carbohydrate, by difference",g,--,--,22.00,17.46
"Fiber, total dietary",g,--,--,2.0,1.6
"Sugars, total",g,--,--,3.99,3.17
Minerals
"Calcium, Ca",mg,--,--,40,32
"Iron, Fe",mg,--,--,1.68,1.33
"Sodium, Na",mg,--,--,490,389
Vitamins
"Vitamin C, total ascorbic acid",mg,--,--,9.3,7.4
"Vitamin A, IU",IU,--,--,774,614
Lipids
"Fatty acids, total saturated",g,--,--,2.003,1.590
"Fatty acids, total monounsaturated",g,--,--,0.995,0.790
"Fatty acids, total polyunsaturated",g,--,--,0.000,0.000
"Fatty acids, total trans",g,--,--,0.000,0.000
"Cholesterol",mg,--,--,5,4
Amino Acids
Other
Ingredients
"COOKED ENRICHED MACARONI PRODUCT (WATER, ENRICHED MACARONI PRODUCT (DURUM WHEAT SEMOLINA, NIACIN, FERROUS SULFATE, THIAMINE MONONITRATE, RIBOFLAVIN, FOLIC ACID)), WATER, BROCCOLI, CORN, CARROTS, PASTEURIZED PROCESS CHEESE SAUCE CONCENTRATE (MILK, PALM OIL, WHEY, WATER, MALTODEXTRIN, SODIUM PHOSPHATE, CORN SYRUP SOLIDS, CONTAINS LESS THAN 2% OF: CHEESE CULTURE, CITRIC ACID, ENZYMES, LACTIC ACID, SALT, SODIUM ALGINATE, SUGAR, XANTHAN GUM), SEASONING (PALM OIL, CHEDDAR AND PARMESAN CHEESES [CULTURED MILK, SALT, ENZYMES], NATURAL FLAVORS, SALT, MODIFIED CORN STARCH, WHEY POWDER, CORN MALTODEXTRIN, ENRICHED FLOUR [WHEAT FLOUR, NIACIN, REDUCED IRON, THIAMINE MONONITRATE, RIBOFLAVIN, FOLIC ACID], ONION POWDER, BUTTER [CREAM, SALT], DISODIUM PHOSPHATE, YEAST EXTRACT, GARLIC POWDER, SPICES, SODIUM CASEINATE), MODIFIED FOOD STARCH, SALT, NATURAL CHEDDAR CHEESE FLAVOR (CHEDDAR, SEMI-SOFT AND BLUE CHEESE [PASTEURIZED MILK, CHEESE CULTURES, SALT, ENZYMES], WHEY, SALT, CITRIC ACID), CHEESE FLAVOR (CREAM, CHEDDAR CHEESE [MILK, STARTER CULTURE, SALT, ENZYMES], NATURAL FLAVORS, YEAST EXTRACT, SODIUM CITRATE, WATER, DISODIUM PHOSPHATE), DISODIUM PHOSPHATE, ANNATTO EXTRACT (COLOR), ONION POWDER." Date available: 09/02/2017 Date last updated by company: 09/02/2017
