Source: USDA Branded Food Products Database Release December 2017 Software v.3.8.6.4 2017-10-02
Report Run at: December 16, 2017 23:50 EST
"Nutrient data for: 45280790, BIRTHDAY PARTY SANDWICH, UPC: 070640008582"
Food Group:  Branded Food Products Database
Common Name:

Nutrient,Unit,Data points,Std. Error,"1 SANDWICH = 73.0g",1Value per 100 g,
Proximates
"Energy",kcal,--,--,170,233
"Protein",g,--,--,3.00,4.11
"Total lipid (fat)",g,--,--,5.00,6.85
"Carbohydrate, by difference",g,--,--,30.00,41.10
"Fiber, total dietary",g,--,--,1.0,1.4
"Sugars, total",g,--,--,16.00,21.92
Minerals
"Calcium, Ca",mg,--,--,80,110
"Iron, Fe",mg,--,--,0.00,0.00
"Potassium, K",mg,--,--,105,144
"Sodium, Na",mg,--,--,95,130
Vitamins
"Vitamin C, total ascorbic acid",mg,--,--,0.0,0.0
"Vitamin A, IU",IU,--,--,200,274
Lipids
"Fatty acids, total saturated",g,--,--,3.000,4.110
"Fatty acids, total trans",g,--,--,0.000,0.000
"Cholesterol",mg,--,--,15,21
Amino Acids
Other
Ingredients
"REDUCED FAT ICE CREAM [MILK, CREAM, SUGAR, CORN SYRUP, SKIM MILK, WHEY, BUTTERMILK, BLUE FROSTING SWIRL {CORN SYRUP, HIGH FRUCTOSE CORN SYRUP, WATER, STABILIZERS (FOOD STARCH-MODIFIED, CELLULOSE GUM, DEXTROSE, CARRAGEENAN, GUM ARABIC, CITRIC ACID, TRICALCIUM PHOSPHATE, SILICON DIOXIDE), TITANIUM DIOXIDE FOR COLOR, ARTIFICIAL FLAVOR, CITRIC ACID, BLUE 1}, CANDY PIECES {SUGAR, RICE FLOUR, CORNSTARCH, PALM OIL, CONFECTIONER'S GLAZE, ACACIA GUM, XANTHAN GUM, NATURAL & ARTIFICIAL FLAVOR, TITANIUM DIOXIDE FOR COLOR, YELLOW 5, BLUE 1, RED 3, YELLOW 6, MONO AND DIGLYCERIDES, POLYSORBATE 60}, CONTAINS LESS THAN 1% OF NATURAL AND ARTIFICIAL FLAVORS, MONO AND DIGLYCERIDES, CAROB BEAN GUM, CELLULOSE GUM, CARRAGEENAN, VITAMIN A PALMITATE], WAFERS (WHEAT FLOUR, SUGAR, SOYBEAN AND PALM OIL, HIGH FRUCTOSE CORN SYRUP, CORN SYRUP, FOOD STARCH-MODIFIED, SOY LECITHIN, SALT, ARTIFICIAL FLAVOR, BAKING SODA, MONO AND DIGLYCERIDES, CAROB BEAN GUM, CELLULOSE GUM, CARRAGEENAN)." Date available: 07/14/2017 Date last updated by company: 07/14/2017
