Source: USDA Branded Food Products Database Release December 2017 Software v.3.8.6.4 2017-10-02
Report Run at: December 17, 2017 03:27 EST
"Nutrient data for: 45316442, BIRTHDAY CAKE BAR, UPC: 072250020794"
Food Group:  Branded Food Products Database
Common Name:

Nutrient,Unit,Data points,Std. Error,"1 CAKE = 77.0g",1Value per 100 g,
Proximates
"Energy",kcal,--,--,310,403
"Protein",g,--,--,2.00,2.60
"Total lipid (fat)",g,--,--,11.00,14.29
"Carbohydrate, by difference",g,--,--,50.00,64.94
"Fiber, total dietary",g,--,--,1.0,1.3
"Sugars, total",g,--,--,34.00,44.16
Minerals
"Calcium, Ca",mg,--,--,20,26
"Iron, Fe",mg,--,--,0.47,0.61
"Potassium, K",mg,--,--,0,0
"Sodium, Na",mg,--,--,210,273
Vitamins
"Vitamin D",IU,--,--,0,0
Lipids
"Fatty acids, total saturated",g,--,--,3.003,3.900
"Fatty acids, total trans",g,--,--,0.000,0.000
"Cholesterol",mg,--,--,10,13
Amino Acids
Other
Ingredients
"SUGAR, ENRICHED BLEACHED FLOUR (WHEAT FLOUR, NIACIN, REDUCED IRON, THIAMIN MONONITRATE, RIBOFLAVIN, FOLIC ACID), VEGETABLE SHORTENING (SOYBEAN OIL, PALM OIL, AND HYDROGENATED COTTONSEED OIL), NONFAT MILK, EGG WHITES, CORN SYRUP, HIGH FRUCTOSE CORN SYRUP, COLOR BITS (SUGAR, DEXTROSE, WHEAT STARCH, MODIFIED CORN STARCH, CANOLA OIL, CELLULOSE GUM, YELLOW 5 LAKE, RED 40 LAKE, BLUE 2 LAKE, RED 3, BLUE 1 LAKE, BLUE 1), WHEY (MILK), EGGS, CONTAINS 2% OR LESS OF EACH OF THE FOLLOWING: LIQUID SUCROSE, CORN STARCH, GLYCERINE, LEAVENING (SODIUM ACID PYROPHOSPHATE, SODIUM BICARBONATE, MONOCALCIUM PHOSPHATE), MONO- AND DIGLYCERIDES, MODIFIED CORN STARCH, WHEAT FLOUR, SOY LECITHIN, SALT, NATURAL AND ARTIFICIAL FLAVOR (CONTAINS MILK AND EGG INGREDIENTS), WHEY (MILK) PROTEIN, BUTTER (MADE FROM MILK), XANTHAN GUM, BLEACHED WHEAT FLOUR, SORBITAN MONOSTEARATE, POLYSORBATE 60, CALCIUM SULFATE, SPICES, MONOGLYCERIDES, AGAR, ENZYMES, GUAR GUM, POLYSORBATE 80, CARAMEL COLOR, ANNATTO (COLOR), DEXTROSE, LACTIC ACID, SORBIC ACID (TO RETARD SPOILAGE), TOPPED WITH SPRINKLES (SUGAR, CORN STARCH, PARTIALLY HYDROGENATED VEGETABLE OIL [COTTONSEED AND/OR SOYBEAN], SOY LECITHIN, DEXTRIN, CONFECTIONERS GLAZE, NATURAL AND ARTIFICIAL FLAVOR, RED 40 LAKE, CARNAUBA WAX, YELLOW 6 LAKE, BLUE 1 LAKE, YELLOW 5 LAKE, RED 3, BLUE 1, RED 40)." Date available: 07/14/2017 Date last updated by company: 07/14/2017
