Source: USDA Branded Food Products Database Release December 2017 Software v.3.8.6.4 2017-10-02
Report Run at: December 17, 2017 03:28 EST
"Nutrient data for: 45191750, BIRTHDAY CAKE ICE CREAM SANDWICHES, UPC: 087932003576"
Food Group:  Branded Food Products Database
Common Name:

Nutrient,Unit,Data points,Std. Error,"1 SANDWICH = 56.0g",1Value per 100 g,
Proximates
"Energy",kcal,--,--,160,286
"Protein",g,--,--,2.00,3.57
"Total lipid (fat)",g,--,--,6.00,10.71
"Carbohydrate, by difference",g,--,--,26.00,46.43
"Fiber, total dietary",g,--,--,1.0,1.8
"Sugars, total",g,--,--,14.00,25.00
Minerals
"Calcium, Ca",mg,--,--,40,71
"Iron, Fe",mg,--,--,0.00,0.00
"Sodium, Na",mg,--,--,115,205
Vitamins
"Vitamin C, total ascorbic acid",mg,--,--,0.0,0.0
"Vitamin A, IU",IU,--,--,100,179
Lipids
"Fatty acids, total saturated",g,--,--,3.500,6.250
"Fatty acids, total trans",g,--,--,0.000,0.000
"Cholesterol",mg,--,--,15,27
Amino Acids
Other
Ingredients
"MILKFAT AND NONFAT MILK, HIGH FRUCTOSE CORN SYRUP, BLUE FROSTING VARIEGATE [SUGAR, WATER, HIGH FRUCTOSE CORN SYRUP, CORN STARCH - MODIFIED, TITANIUM DIOXIDE (COLOR), NATURAL AND ARTIFICIAL FLAVORS, SALT, POTASSIUM SORBATE (PRESERVATIVE), BLUE 1], CORN SYRUP, SPRINKLES [SUGAR, CORNSTARCH, PARTIALLY HYDROGENATED VEGETABLE OIL (COTTONSEED, SOYBEAN), SOY LECITHIN, DEXTRIN, CONFECTIONER'S GLAZE, RED 40 LAKE, YELLOW 6 LAKE, NATURAL AND ARTIFICIAL FLAVOR, CARNAUBA WAX, YELLOW 5 LAKE, BLUE 1 LAKE, RED 3, RED 40], SUGAR, BUTTERMILK, WHEY, CONTAINS LESS THAN 2% OF NATURAL AND ARTIFICIAL FLAVOR, GUAR GUM, MONO AND DIGLYCERIDES, XANTHAN GUM, POLYSORBATE 80, CELLULOSE GUM, CARRAGEENAN, WAFERS: BLEACHED WHEAT FLOUR, SUGAR, PALM OIL, CONTAINS 2% OR LESS OF CORN STARCH - MODIFIED, SALT, HIGH FRUCTOSE CORN SYRUP, BAKING SODA, NATURAL FLAVOR, SOY LECITHIN." Date available: 07/14/2017 Date last updated by company: 07/14/2017
