Source: USDA Branded Food Products Database Release December 2017 Software v.3.8.6.4 2017-10-02
Report Run at: December 16, 2017 23:51 EST
"Nutrient data for: 45097975, BISCOTTI, UPC: 852358003246"
Food Group:  Branded Food Products Database
Common Name:

Nutrient,Unit,Data points,Std. Error,"1 COOKIE = 31.0g",1Value per 100 g,
Proximates
"Energy",kcal,--,--,150,484
"Protein",g,--,--,3.00,9.68
"Total lipid (fat)",g,--,--,6.00,19.35
"Carbohydrate, by difference",g,--,--,20.00,64.52
"Fiber, total dietary",g,--,--,1.0,3.2
"Sugars, total",g,--,--,8.00,25.81
Minerals
"Calcium, Ca",mg,--,--,40,129
"Iron, Fe",mg,--,--,1.74,5.62
"Sodium, Na",mg,--,--,130,419
Vitamins
"Vitamin C, total ascorbic acid",mg,--,--,0.0,0.0
"Vitamin A, IU",IU,--,--,322,1040
Lipids
"Fatty acids, total saturated",g,--,--,3.001,9.680
"Fatty acids, total trans",g,--,--,0.000,0.000
"Cholesterol",mg,--,--,30,97
Amino Acids
Other
Ingredients
"UNBLEACHED FLOUR (WHEAT FLOUR, MALTED BARLEY FLOUR, NIACIN, IRON, THIAMINE MONONITRATE, RIBOFLAVIN, FOLIC ACID), SUGAR, UNSALTED BUTTER (CREAM), EGGS, ALMONDS, CONTAINS LESS THAN 2% REDUCED SODIUM BAKING POWDER (CALCIUM ACID PYROPHOSPHATE, CORN STARCH, SODIUM BICARBONATE, POTASSIUM BICARBONATE, MONOCALCIUM PHOISPHATE), ORANGE PEEL, SALT, NATURAL FLAVORS." Date available: 06/25/2017 Date last updated by company: 06/25/2017
