Source: USDA Branded Food Products Database Release December 2017 Software v.3.8.6.4 2017-10-02
Report Run at: December 16, 2017 23:55 EST
"Nutrient data for: 45249363, BISCUIT THINS, UPC: 819898019755"
Food Group:  Branded Food Products Database
Common Name:

Nutrient,Unit,Data points,Std. Error,"1 PACK = 44.0g",1Value per 100 g,
Proximates
"Energy",kcal,--,--,210,477
"Protein",g,--,--,6.00,13.64
"Total lipid (fat)",g,--,--,8.00,18.18
"Carbohydrate, by difference",g,--,--,26.00,59.09
"Fiber, total dietary",g,--,--,3.0,6.8
"Sugars, total",g,--,--,8.00,18.18
Minerals
"Calcium, Ca",mg,--,--,20,45
"Iron, Fe",mg,--,--,0.82,1.86
"Sodium, Na",mg,--,--,220,500
Vitamins
"Vitamin C, total ascorbic acid",mg,--,--,0.0,0.0
"Vitamin A, IU",IU,--,--,0,0
Lipids
"Fatty acids, total saturated",g,--,--,0.999,2.270
"Fatty acids, total trans",g,--,--,0.000,0.000
"Cholesterol",mg,--,--,15,34
Amino Acids
Other
Ingredients
"WHOLE GRAIN OAT FLOUR, WHOLE GRAIN OATS, SUGAR, CANOLA OIL, WHOLE GRAIN WHEAT FLOUR, COFFEE (WATER, SPRAY DRIED COFFEE), WHEY PROTEIN CONCENTRATE, NATURAL FLAVOR, INVERT SYRUP, LEAVENING (BAKING SODA, SODIUM ACID PYROPHOSPHATE, MONOCALCIUM PHOSPHATE), SOY LECITHIN, SALT." Date available: 07/14/2017 Date last updated by company: 07/14/2017
