Source: USDA Branded Food Products Database Release December 2017 Software v.3.8.6.4 2017-10-02
Report Run at: December 16, 2017 23:50 EST
"Nutrient data for: 45212223, BISCOTTI BITES, UPC: 718604973414"
Food Group:  Branded Food Products Database
Common Name:

Nutrient,Unit,Data points,Std. Error,"3.0 COOKIES = 26.0g",1Value per 100 g,
Proximates
"Energy",kcal,--,--,110,423
"Protein",g,--,--,2.00,7.69
"Total lipid (fat)",g,--,--,4.50,17.31
"Carbohydrate, by difference",g,--,--,17.00,65.38
"Fiber, total dietary",g,--,--,1.0,3.8
"Sugars, total",g,--,--,10.00,38.46
Minerals
"Calcium, Ca",mg,--,--,20,77
"Iron, Fe",mg,--,--,1.38,5.32
"Sodium, Na",mg,--,--,60,231
Vitamins
"Vitamin C, total ascorbic acid",mg,--,--,0.0,0.0
"Vitamin A, IU",IU,--,--,192,740
Lipids
"Fatty acids, total saturated",g,--,--,2.501,9.620
"Fatty acids, total trans",g,--,--,0.000,0.000
"Cholesterol",mg,--,--,20,77
Amino Acids
Other
Ingredients
"WHEAT FLOUR, SUGAR, EGGS, BITTERSWEET CHOCOLATE (CHOCOLATE LIQUOR PROCESSED WITH ALKALI, SUGAR, COCOA BUTTER, BUTTERFAT, SOY LECITHIN [AN EMULSIFIER], VANILLA), BUTTER, SEMI-SWEET CHOCOLATE CHIPS (SUGAR, CHOCOLATE LIQUOR, COCOA BUTTER, SOY LECITHIN [AN EMULSIFIER]), COCOA (PROCESSED WITH ALKALI), MINT CRUNCHLETS (SUGAR, CORN SYRUP, CORN FLAKES, WHEAT FLOUR, PALM OIL, PEPPERMINT OIL, RED 40), BAKING POWDER (SODIUM ACID PYROPHOSPHATE, BAKING SODA, CORN STARCH, MONOCALCIUM PHOSPHATE), SALT, MALTED BARLEY FLOUR." Date available: 07/14/2017 Date last updated by company: 07/14/2017
