Source: USDA Branded Food Products Database Release December 2017 Software v.3.8.6.4 2017-10-02
Report Run at: December 16, 2017 23:54 EST
"Nutrient data for: 45333626, BISCUITS, UPC: 011152218717"
Food Group:  Branded Food Products Database
Common Name:

Nutrient,Unit,Data points,Std. Error,"1.31 ONZ = 37.0g",1Value per 100 g,
Proximates
"Energy",kcal,--,--,190,514
"Protein",g,--,--,3.00,8.11
"Total lipid (fat)",g,--,--,9.00,24.32
"Carbohydrate, by difference",g,--,--,24.00,64.86
"Fiber, total dietary",g,--,--,0.0,0.0
"Sugars, total",g,--,--,8.00,21.62
Minerals
"Calcium, Ca",mg,--,--,80,216
"Iron, Fe",mg,--,--,0.48,1.31
"Sodium, Na",mg,--,--,160,432
Vitamins
"Vitamin C, total ascorbic acid",mg,--,--,0.0,0.0
"Vitamin A, IU",IU,--,--,0,0
Lipids
"Fatty acids, total saturated",g,--,--,4.000,10.810
"Fatty acids, total trans",g,--,--,0.000,0.000
"Cholesterol",mg,--,--,5,14
Amino Acids
Other
Ingredients
"WHEAT FLOUR, SUGAR, PALM OIL SHORTENING, SESAME, SALT, LEAVENING AGENTS(AMMONIUM HYDROGEN CARBONATE, SODIUM HYDROGEN CARBONATE), CALCIUM CARBONATE, GLUCOSE, YEAST, FLOUR TREATMENT AGENT(SODIUM METABISULFITE), SOY LECITHIN, ARTIFICIAL FLAVOR, COLORS (BETA-CAROTENE, CARAMEL)." Date available: 10/19/2017 Date last updated by company: 10/19/2017
