Source: USDA Branded Food Products Database Release December 2017 Software v.3.8.6.4 2017-10-02
Report Run at: December 16, 2017 23:50 EST
"Nutrient data for: 45108852, BISCOTTI BROTHERS, BISCOTTI COOKIES, CHOCOLATE DIPPED ALMOND, UPC: 672824390041"
Food Group:  Branded Food Products Database
Common Name:

Nutrient,Unit,Data points,Std. Error,"1 PIECE = 35.0g",1Value per 100 g,
Proximates
"Energy",kcal,--,--,170,486
"Protein",g,--,--,3.00,8.57
"Total lipid (fat)",g,--,--,7.00,20.00
"Carbohydrate, by difference",g,--,--,24.00,68.57
"Fiber, total dietary",g,--,--,1.0,2.9
"Sugars, total",g,--,--,14.00,40.00
Minerals
"Calcium, Ca",mg,--,--,40,114
"Iron, Fe",mg,--,--,1.54,4.41
"Sodium, Na",mg,--,--,60,171
Vitamins
"Vitamin C, total ascorbic acid",mg,--,--,0.0,0.0
"Vitamin A, IU",IU,--,--,143,409
Lipids
"Fatty acids, total saturated",g,--,--,2.999,8.570
"Fatty acids, total trans",g,--,--,0.000,0.000
"Cholesterol",mg,--,--,25,71
Amino Acids
Other
Ingredients
"ENRICHED WHEAT FLOUR (WHEAT FLOUR, NIACIN, REDUCED IRON, THIAMINE MONONITRATE, RIBOFLAVIN, FOLIC ACID), MALTED BARLEY FLOUR, SUGAR DARK CHOCOLATE CONFECTIONERY, (SUGAR, PALM KENRNEL AND PALM OIL, COCOA POWDER PROCESSED WITH ALKALI, COCOA POWDER, SKIM MILK, WHEY FROM MILK, LACTOSE FROM MILK, SOY LECITHIN, VANILLA EXTRACT), ALMONDS, EGGS, BUTTER (CREAM, SALT), WHITE CONFECTIONERY COATING (SUGAR, PALM KERNEL AND PALM OIL, WHEY FROM MILK, NONFAT MILK, SOY LECITHIN, VANILLA), ALUMINUM FREE BAKING POWDER (SODIUM ACID PYROPHOSPHATE, SODIUM BICARBONATE, CORNSTARCH, MONOCALCIUM PHOSPHATE), AND NATURAL ALMOND FLAVOUR." Date available: 06/25/2017 Date last updated by company: 06/25/2017
