Source: USDA Branded Food Products Database Release December 2017 Software v.3.8.6.4 2017-10-02
Report Run at: December 17, 2017 00:03 EST
"Nutrient data for: 45053343, BIT-O-HONEY, UPC: 041497499144"
Food Group:  Branded Food Products Database
Common Name:

Nutrient,Unit,Data points,Std. Error,"6.0 PIECES = 40.0g",1Value per 100 g,
Proximates
"Energy",kcal,--,--,150,375
"Protein",g,--,--,1.00,2.50
"Total lipid (fat)",g,--,--,3.00,7.50
"Carbohydrate, by difference",g,--,--,32.00,80.00
"Fiber, total dietary",g,--,--,0.0,0.0
"Sugars, total",g,--,--,19.00,47.50
Minerals
"Calcium, Ca",mg,--,--,20,50
"Sodium, Na",mg,--,--,120,300
Vitamins
Lipids
"Fatty acids, total saturated",g,--,--,2.000,5.000
Amino Acids
Other
Ingredients
"CORN SYRUP, SUGAR, NONFAT MILK, HYDROGENATED COCONUT OIL, ALMONDS, LESS THAN 2% OF HONEY, SALT, EGG WHITES, CANOLA AND/OR SAFFLOWER AND/OR PALM OIL, MODIFIED SOY PROTEIN, NATURAL FLAVOR, TBHQ AND CITRIC ACID (TO PRESERVE FRESHNESS)." Date available: 06/25/2017 Date last updated by company: 06/25/2017
