Source: USDA Branded Food Products Database Release December 2017 Software v.3.8.6.4 2017-10-02
Report Run at: December 17, 2017 00:02 EST
"Nutrient data for: 45081785, BITES, UPC: 743490001101"
Food Group:  Branded Food Products Database
Common Name:

Nutrient,Unit,Data points,Std. Error,"43.0 g = 43.0g",1Value per 100 g,
Proximates
"Energy",kcal,--,--,100,233
"Protein",g,--,--,1.00,2.33
"Total lipid (fat)",g,--,--,6.00,13.95
"Carbohydrate, by difference",g,--,--,13.00,30.23
"Fiber, total dietary",g,--,--,1.0,2.3
"Sugars, total",g,--,--,9.00,20.93
Minerals
"Calcium, Ca",mg,--,--,20,47
"Iron, Fe",mg,--,--,0.36,0.84
"Sodium, Na",mg,--,--,0,0
Vitamins
"Vitamin C, total ascorbic acid",mg,--,--,2.4,5.6
"Vitamin A, IU",IU,--,--,0,0
Lipids
"Fatty acids, total saturated",g,--,--,2.498,5.810
"Fatty acids, total trans",g,--,--,0.000,0.000
"Cholesterol",mg,--,--,0,0
Amino Acids
Other
Ingredients
"BANANAS, CHOCOLATES (SUGAR, CHOCOLATE LIQUOR, COCOA BUTTER, WHOLE MILK, SOY LECITHIN [EMULSIFIER], VANILLA), PEANUT OIL." Date available: 06/25/2017 Date last updated by company: 06/25/2017
