Source: USDA Branded Food Products Database Release December 2017 Software v.3.8.6.4 2017-10-02
Report Run at: December 17, 2017 00:02 EST
"Nutrient data for: 45080554, BITE SIZE WAFER COOKIES, UPC: 076580004882"
Food Group:  Branded Food Products Database
Common Name:

Nutrient,Unit,Data points,Std. Error,"29.0 g = 29.0g",1Value per 100 g,
Proximates
"Energy",kcal,--,--,150,517
"Protein",g,--,--,3.00,10.34
"Total lipid (fat)",g,--,--,8.00,27.59
"Carbohydrate, by difference",g,--,--,16.00,55.17
"Fiber, total dietary",g,--,--,1.0,3.4
"Sugars, total",g,--,--,9.00,31.03
Minerals
"Calcium, Ca",mg,--,--,60,207
"Iron, Fe",mg,--,--,0.62,2.14
"Sodium, Na",mg,--,--,60,207
Vitamins
"Vitamin C, total ascorbic acid",mg,--,--,0.0,0.0
"Vitamin A, IU",IU,--,--,0,0
Lipids
"Fatty acids, total saturated",g,--,--,7.001,24.140
"Fatty acids, total trans",g,--,--,0.000,0.000
"Cholesterol",mg,--,--,5,17
Amino Acids
Other
Ingredients
"INGREDIENTS: UNBLEACHED WHEAT FLOUR, COCONUT OIL, WHEY POWDER (MILK), SUGAR, SKIMMED MILK POWDER, CREAM POWDER, SOY FLOUR, GLUCOSE SYRUP, COCONUT FLAKES, BARLEY MALT EXTRACT, DEXTROSE, HAZELNUTS, COCOA PROCESSED WITH ALKALI, MASCARPONE POWDER (MILK), COFFEE POWDER, LEAVING AGENTS (SODIUMHYDROGEN CARBONATE, DISODIUM DIPHOSPHATE), EMULSIFIER, SPICES, NATURAL VANILLA PODS." Date available: 06/24/2017 Date last updated by company: 06/24/2017
