Source: USDA Branded Food Products Database Release December 2017 Software v.3.8.6.4 2017-10-02
Report Run at: December 16, 2017 23:58 EST
"Nutrient data for: 45263010, BITE-CANDIES CANDIES, UPC: 022000136244"
Food Group:  Branded Food Products Database
Common Name:

Nutrient,Unit,Data points,Std. Error,"0.25 CUP | ABOUT = 40.0g",1Value per 100 g,
Proximates
"Energy",kcal,--,--,160,400
"Protein",g,--,--,0.00,0.00
"Total lipid (fat)",g,--,--,1.50,3.75
"Carbohydrate, by difference",g,--,--,37.00,92.50
"Fiber, total dietary",g,--,--,0.0,0.0
"Sugars, total",g,--,--,30.00,75.00
Minerals
"Calcium, Ca",mg,--,--,0,0
"Iron, Fe",mg,--,--,0.00,0.00
"Sodium, Na",mg,--,--,15,38
Vitamins
"Vitamin C, total ascorbic acid",mg,--,--,0.0,0.0
"Vitamin A, IU",IU,--,--,0,0
Lipids
"Fatty acids, total saturated",g,--,--,1.500,3.750
"Fatty acids, total trans",g,--,--,0.000,0.000
"Cholesterol",mg,--,--,0,0
Amino Acids
Other
Ingredients
"SUGAR, CORN SYRUP, HYDROGENATED PALM KERNEL OIL; LESS THAN 2% OF: CITRIC ACID, TAPIOCA DEXTRIN, MODIFIED CORN STARCH, NATURAL AND ARTIFICIAL FLAVORS, COLORS (TITANIUM DIOXIDE, YELLOW 5 LAKE, BLUE 1 LAKE, YELLOW 6 LAKE, RED 40 LAKE, YELLOW 6, RED 40, BLUE 1), SODIUM CITRATE, CARNAUBA WAX." Date available: 07/14/2017 Date last updated by company: 07/14/2017
