Source: USDA Branded Food Products Database Release December 2017 Software v.3.8.6.4 2017-10-02
Report Run at: December 17, 2017 00:01 EST
"Nutrient data for: 45220085, BITE-SIZED SOFT PRETZELS, UPC: 085239607213"
Food Group:  Branded Food Products Database
Common Name:

Nutrient,Unit,Data points,Std. Error,"5.0 PRETZELS & 0.333 CHEESE SAUCE PACKET = 73.0g",1Value per 100 g,
Proximates
"Energy",kcal,--,--,140,192
"Protein",g,--,--,4.00,5.48
"Total lipid (fat)",g,--,--,0.50,0.68
"Carbohydrate, by difference",g,--,--,31.00,42.47
"Fiber, total dietary",g,--,--,1.0,1.4
"Sugars, total",g,--,--,1.00,1.37
Minerals
"Calcium, Ca",mg,--,--,0,0
"Iron, Fe",mg,--,--,2.10,2.87
"Sodium, Na",mg,--,--,110,151
Vitamins
"Vitamin C, total ascorbic acid",mg,--,--,0.0,0.0
"Vitamin A, IU",IU,--,--,0,0
Lipids
"Fatty acids, total saturated",g,--,--,0.000,0.000
"Fatty acids, total trans",g,--,--,0.000,0.000
"Cholesterol",mg,--,--,0,0
Amino Acids
Other
Ingredients
"PRETZEL (ENRICHED FLOUR [WHEAT FLOUR, MALTED BARLEY FLOUR, NIACIN, REDUCED IRON, THIAMIN MONONITRATE, RIBOFLAVIN, FOLIC ACID], WATER, YEAST, CORN SYRUP, BICARBONATE AND CARBONATE OF SODA), NACHO CHEESE SAUCE (WATER, WHITE CHEDDAR CHEESE [PASTEURIZED MILK, CHEESE CULTURES, SALT, ENZYMES], FULLY REFINED SOYBEAN OIL, NONFAT DRY MILK, REDUCED LACTOSE WHEY, WHEY, SODIUM PHOSPHATES, CONTAINS LESS THAN 2% OF: APOCAROTENAL [COLOR], CITRIC ACID, DEXTROSE, JALAPENO PEPPER, LACTIC ACID, NATURAL FLAVOR, SPICES, SALT, SORBIC ACID [PRESERVATIVE], WHEY PROTEIN CONCENTRATE, YEAST EXTRACT)." Date available: 07/14/2017 Date last updated by company: 07/14/2017
