Source: USDA Branded Food Products Database Release December 2017 Software v.3.8.6.4 2017-10-02
Report Run at: December 16, 2017 23:59 EST
"Nutrient data for: 45248320, BITE SIZE CANDIES, UPC: 022000012050"
Food Group:  Branded Food Products Database
Common Name:

Nutrient,Unit,Data points,Std. Error,"1.4 ONZ = 40.0g",1Value per 100 g,
Proximates
"Energy",kcal,--,--,160,400
"Protein",g,--,--,0.00,0.00
"Total lipid (fat)",g,--,--,1.50,3.75
"Carbohydrate, by difference",g,--,--,37.00,92.50
"Fiber, total dietary",g,--,--,0.0,0.0
"Sugars, total",g,--,--,30.00,75.00
Minerals
"Calcium, Ca",mg,--,--,0,0
"Iron, Fe",mg,--,--,0.00,0.00
"Sodium, Na",mg,--,--,10,25
Vitamins
"Vitamin C, total ascorbic acid",mg,--,--,0.0,0.0
"Vitamin A, IU",IU,--,--,0,0
Lipids
"Fatty acids, total saturated",g,--,--,1.500,3.750
"Fatty acids, total trans",g,--,--,0.000,0.000
"Cholesterol",mg,--,--,0,0
Amino Acids
Other
Ingredients
"SUGAR, CORN SYRUP HYDROGENATED PALM KERNEL OIL LESS THAN 2% OF: CITRIC ACID, TAPIOCA DEXTRIN, MODIFIED CORN STARCH, NATURAL AND ARTIFICIAL FLAVORS, COLORS (RED 40 LAKE, THIAMIN DIOXIDE, RED 40, YELLOW 5 LAKE, YELLOW 5, YELLOW 6, BLUE 2 LAKE, BLUE 1, LAKE), SODIUM CITRATE, CARNUBA WAX." Date available: 07/14/2017 Date last updated by company: 07/14/2017
