Source: USDA Branded Food Products Database Release December 2017 Software v.3.8.6.4 2017-10-02
Report Run at: December 17, 2017 00:02 EST
"Nutrient data for: 45224866, BITES, MOIST LEMON CAKE WITH BRIGHT, TANGY FINISH, UPC: 013609019632"
Food Group:  Branded Food Products Database
Common Name:

Nutrient,Unit,Data points,Std. Error,"1 BITE = 18.0g",1Value per 100 g,
Proximates
"Energy",kcal,--,--,70,389
"Protein",g,--,--,1.00,5.56
"Total lipid (fat)",g,--,--,3.00,16.67
"Carbohydrate, by difference",g,--,--,10.00,55.56
"Fiber, total dietary",g,--,--,0.0,0.0
"Sugars, total",g,--,--,6.00,33.33
Minerals
"Calcium, Ca",mg,--,--,20,111
"Iron, Fe",mg,--,--,1.60,8.89
"Sodium, Na",mg,--,--,40,222
Vitamins
"Vitamin C, total ascorbic acid",mg,--,--,0.0,0.0
"Vitamin A, IU",IU,--,--,444,2469
Lipids
"Fatty acids, total saturated",g,--,--,1.001,5.560
"Fatty acids, total monounsaturated",g,--,--,1.499,8.330
"Fatty acids, total polyunsaturated",g,--,--,0.000,0.000
"Fatty acids, total trans",g,--,--,0.000,0.000
"Cholesterol",mg,--,--,15,83
Amino Acids
Other
Ingredients
"SUGAR, UNBLEACHED FLOUR (WHEAT FLOUR, MALTED BARLEY FLOUR, NIACIN, IRON, THIAMIN MONONITRATE, RIBOFLAVIN, FOLIC ACID), WHOLE EGGS, UNSALTED BUTTER, CANOLA OIL, SOUR CREAM (CULTURED PASTEURIZED CREAM, MILK, NONFAT MILK, ENZYME), BUTTERMILK (CULTURED LOWFAT MILK, CONDENSED SKIM MILK, SALT, SODIUM CITRATE, VITAMIN A PALMITATE, VITAMIN D3), WATER, LEMON PEEL, LEMON OIL, LEMON JUICE CONCENTRATE, GLYCERINE, SALT, BAKING POWDER (SODIUM ACID PYROPHOSPHATE, BICARBONATE SODA, CORN STARCH, MONOCALCIUM PHOSPHATE), BAKING SODA, SOY LECITHIN (EMULSIFIER), GUAR GUM, XANTHAN GUM, TURMERIC (COLOR)." Date available: 10/08/2017 Date last updated by company: 10/08/2017
