Source: USDA Branded Food Products Database Release December 2017 Software v.3.8.6.4 2017-10-02
Report Run at: December 17, 2017 00:04 EST
"Nutrient data for: 45200385, BITTER ORANGE PEEL IN SYRUP, UPC: 709434800506"
Food Group:  Branded Food Products Database
Common Name:

Nutrient,Unit,Data points,Std. Error,"2.0 ONZ = 56.7g",1Value per 100 g,
Proximates
"Energy",kcal,--,--,160,282
"Protein",g,--,--,0.00,0.00
"Total lipid (fat)",g,--,--,0.50,0.88
"Carbohydrate, by difference",g,--,--,39.00,68.78
"Fiber, total dietary",g,--,--,0.0,0.0
"Sugars, total",g,--,--,35.00,61.73
Minerals
"Calcium, Ca",mg,--,--,20,35
"Iron, Fe",mg,--,--,0.32,0.56
"Sodium, Na",mg,--,--,10,18
Vitamins
"Vitamin C, total ascorbic acid",mg,--,--,2.1,3.7
"Vitamin A, IU",IU,--,--,0,0
Lipids
"Fatty acids, total saturated",g,--,--,0.000,0.000
"Fatty acids, total trans",g,--,--,0.000,0.000
"Cholesterol",mg,--,--,0,0
Amino Acids
Other
Ingredients
"BITTER ORANGE PEEL, CANE SUGAR, CITRIC ACID, SODIUM BENZOATE." Date available: 07/14/2017 Date last updated by company: 07/14/2017
