Source: USDA Branded Food Products Database Release December 2017 Software v.3.8.6.4 2017-10-02
Report Run at: December 17, 2017 00:04 EST
"Nutrient data for: 45326224, BITTERSWEET CHOCOLATE, UPC: 815871011549"
Food Group:  Branded Food Products Database
Common Name:

Nutrient,Unit,Data points,Std. Error,"0.333 BAR = 33.0g",1Value per 100 g,
Proximates
"Energy",kcal,--,--,210,636
"Protein",g,--,--,2.00,6.06
"Total lipid (fat)",g,--,--,19.00,57.58
"Carbohydrate, by difference",g,--,--,9.00,27.27
"Fiber, total dietary",g,--,--,3.0,9.1
"Sugars, total",g,--,--,5.00,15.15
Minerals
"Calcium, Ca",mg,--,--,0,0
"Iron, Fe",mg,--,--,0.00,0.00
"Sodium, Na",mg,--,--,0,0
Vitamins
"Vitamin C, total ascorbic acid",mg,--,--,0.0,0.0
"Vitamin A, IU",IU,--,--,0,0
Lipids
"Fatty acids, total saturated",g,--,--,11.999,36.360
"Fatty acids, total trans",g,--,--,0.000,0.000
"Cholesterol",mg,--,--,0,0
Amino Acids
Other
Ingredients
"CHOCOLATE LIQUOR, SUGAR, COCOA BUTTER, ARTIFICIAL FLAVOR (VANILLIN). FINEST BITTERSWEET CHOCOLATE CONTAINS COCOA SOLIDS: 85% MIN." Date available: 08/14/2017 Date last updated by company: 08/14/2017
