Source: USDA Branded Food Products Database Release December 2017 Software v.3.8.6.4 2017-10-02
Report Run at: December 17, 2017 00:18 EST
"Nutrient data for: 45221631, BLACK CHERRY POP SODA, UPC: 780369114128"
Food Group:  Branded Food Products Database
Common Name:

Nutrient,Unit,Data points,Std. Error,"1 BOTTLE = 355.0g",1Value per 100 g,
Proximates
"Energy",kcal,--,--,149,42
"Protein",g,--,--,0.00,0.00
"Total lipid (fat)",g,--,--,0.00,0.00
"Carbohydrate, by difference",g,--,--,37.98,10.70
"Sugars, total",g,--,--,36.99,10.42
Minerals
"Sodium, Na",mg,--,--,46,13
Vitamins
Lipids
Amino Acids
Other
Ingredients
"WATER, CANE SUGAR, BEET JUICE CONCENTRATE (FOR COLOR), GRAPE JUICE CONCENTRATE (FOR COLOR), NATURAL FLAVOR, AND SODIUM BENZOATE AS A PRESERVATIVE." Date available: 10/13/2017 Date last updated by company: 10/13/2017
