Source: USDA Branded Food Products Database Release December 2017 Software v.3.8.6.4 2017-10-02
Report Run at: December 17, 2017 00:17 EST
"Nutrient data for: 45324064, BLACK BUTTERCREAM FONDANT, UPC: 853651002684"
Food Group:  Branded Food Products Database
Common Name:

Nutrient,Unit,Data points,Std. Error,"2.0 ONZ = 57.0g",1Value per 100 g,
Proximates
"Energy",kcal,--,--,250,439
"Protein",g,--,--,0.00,0.00
"Total lipid (fat)",g,--,--,8.00,14.04
"Carbohydrate, by difference",g,--,--,46.00,80.70
"Fiber, total dietary",g,--,--,0.0,0.0
"Sugars, total",g,--,--,40.00,70.18
Minerals
"Calcium, Ca",mg,--,--,0,0
"Iron, Fe",mg,--,--,0.00,0.00
"Sodium, Na",mg,--,--,20,35
Vitamins
"Vitamin C, total ascorbic acid",mg,--,--,0.0,0.0
"Vitamin A, IU",IU,--,--,0,0
Lipids
"Fatty acids, total saturated",g,--,--,7.000,12.280
"Fatty acids, total trans",g,--,--,0.000,0.000
"Cholesterol",mg,--,--,0,0
Amino Acids
Other
Ingredients
"SUGAR (SUGAR, POWDERED SUGAR), PARTIALLY HYDROGENATED PALM KERNEL OIL, NON-FAT DRY MILK, SOY LECITHIN (EMULSIFIER), ARTIFICIAL FLAVOR, CANE SUGAR, CORNSTARCH, GLUCOSE FRUCTOSE, WATER, SALT, VANILLA, BUTTER FLAVOR, FD&C RED NO. 40, FD&C YELLOW NO. 3, FD&C BLUE NO. 1, CARBOXYMETHYL CELLULOSE, GUM ARABIC, VEGETABLE GLYCERIN." Date available: 08/10/2017 Date last updated by company: 08/10/2017
