Source: USDA Branded Food Products Database Release December 2017 Software v.3.8.6.4 2017-10-02
Report Run at: December 17, 2017 00:07 EST
"Nutrient data for: 45316842, BLACK BEAN QUINOA SALAD, UPC: 767335011209"
Food Group:  Branded Food Products Database
Common Name:

Nutrient,Unit,Data points,Std. Error,"2.6 ONZ = 73.0g",1Value per 100 g,
Proximates
"Energy",kcal,--,--,320,438
"Protein",g,--,--,14.00,19.18
"Total lipid (fat)",g,--,--,4.00,5.48
"Carbohydrate, by difference",g,--,--,57.00,78.08
"Fiber, total dietary",g,--,--,15.0,20.5
"Sugars, total",g,--,--,3.00,4.11
Minerals
"Calcium, Ca",mg,--,--,170,233
"Iron, Fe",mg,--,--,9.32,12.77
"Sodium, Na",mg,--,--,190,260
Vitamins
"Vitamin C, total ascorbic acid",mg,--,--,9.2,12.6
"Vitamin A, IU",IU,--,--,1150,1576
Lipids
"Fatty acids, total saturated",g,--,--,0.000,0.000
"Fatty acids, total trans",g,--,--,0.000,0.000
"Cholesterol",mg,--,--,0,0
Amino Acids
Other
Ingredients
"ORGANIC QUINOA, BLACK BEANS, DEHYDRATED VEGETABLES (TOMATO, ONION, GARLIC, SHALLOT, CILANTRO), YEAST EXTRACT, ORGANIC CANE SUGAR, LIME JUICE POWDER, SPICES, TURMERIC POWDER." Date available: 07/14/2017 Date last updated by company: 07/14/2017
