Source: USDA Branded Food Products Database Release December 2017 Software v.3.8.6.4 2017-10-02
Report Run at: December 17, 2017 00:09 EST
"Nutrient data for: 45108279, BLACK BEANS, UPC: 041331024655"
Food Group:  Branded Food Products Database
Common Name:

Nutrient,Unit,Data points,Std. Error,"0.5 cup = 122.0g",1Value per 100 g,
Proximates
"Energy",kcal,--,--,90,74
"Protein",g,--,--,7.00,5.74
"Total lipid (fat)",g,--,--,0.50,0.41
"Carbohydrate, by difference",g,--,--,19.00,15.57
"Fiber, total dietary",g,--,--,6.0,4.9
"Sugars, total",g,--,--,1.00,0.82
Minerals
"Calcium, Ca",mg,--,--,40,33
"Iron, Fe",mg,--,--,1.92,1.57
"Sodium, Na",mg,--,--,460,377
Vitamins
"Vitamin C, total ascorbic acid",mg,--,--,0.0,0.0
"Vitamin A, IU",IU,--,--,0,0
Lipids
"Fatty acids, total saturated",g,--,--,0.000,0.000
"Fatty acids, total trans",g,--,--,0.000,0.000
"Cholesterol",mg,--,--,0,0
Amino Acids
Other
Ingredients
"BLACK BEANS, WATER AND SALT." Date available: 07/14/2017 Date last updated by company: 07/14/2017
