Source: USDA Branded Food Products Database Release December 2017 Software v.3.8.6.4 2017-10-02
Report Run at: December 17, 2017 02:06 EST
"Nutrient data for: 45275100, BLACK -N- BLUE STOMP, UPC: 043519000642"
Food Group:  Branded Food Products Database
Common Name:

Nutrient,Unit,Data points,Std. Error,"8.0 OZA = 240.0g",1Value per 100 g,
Proximates
"Energy",kcal,--,--,101,42
"Protein",g,--,--,0.00,0.00
"Total lipid (fat)",g,--,--,0.00,0.00
"Carbohydrate, by difference",g,--,--,24.00,10.00
"Sugars, total",g,--,--,19.99,8.33
Minerals
"Iron, Fe",mg,--,--,0.72,0.30
"Sodium, Na",mg,--,--,10,4
Vitamins
"Vitamin C, total ascorbic acid",mg,--,--,30.0,12.5
Lipids
Amino Acids
Other
Ingredients
"BLUEBERRIES, BLACKCURRANT JUICE, APPLES, VITAMIN C" Date available: 07/14/2017 Date last updated by company: 07/14/2017
