Source: USDA Branded Food Products Database Release December 2017 Software v.3.8.6.4 2017-10-02
Report Run at: December 17, 2017 00:21 EST
"Nutrient data for: 45286335, BLACKEYE PEAS, UPC: 021130099429"
Food Group:  Branded Food Products Database
Common Name:

Nutrient,Unit,Data points,Std. Error,"0.5 cup = 81.0g",1Value per 100 g,
Proximates
"Energy",kcal,--,--,120,148
"Protein",g,--,--,8.00,9.88
"Total lipid (fat)",g,--,--,0.50,0.62
"Carbohydrate, by difference",g,--,--,22.00,27.16
"Fiber, total dietary",g,--,--,5.0,6.2
"Sugars, total",g,--,--,0.00,0.00
Minerals
"Calcium, Ca",mg,--,--,20,25
"Iron, Fe",mg,--,--,1.89,2.33
"Sodium, Na",mg,--,--,20,25
Vitamins
"Vitamin C, total ascorbic acid",mg,--,--,0.0,0.0
"Vitamin A, IU",IU,--,--,0,0
Lipids
"Fatty acids, total saturated",g,--,--,0.000,0.000
"Fatty acids, total trans",g,--,--,0.000,0.000
"Cholesterol",mg,--,--,0,0
Amino Acids
Other
Ingredients
"BLACKEYE PEAS, WATER." Date available: 10/04/2017 Date last updated by company: 10/04/2017
