Source: USDA Branded Food Products Database Release December 2017 Software v.3.8.6.4 2017-10-02
Report Run at: December 17, 2017 00:22 EST
"Nutrient data for: 45053561, BLACK FOREST GIRL, EXTRA BROAD EGG NOODLES, UPC: 075502008809"
Food Group:  Branded Food Products Database
Common Name:

Nutrient,Unit,Data points,Std. Error,"2.0 cup = 55.0g",1Value per 100 g,
Proximates
"Energy",kcal,--,--,200,364
"Protein",g,--,--,8.00,14.55
"Total lipid (fat)",g,--,--,2.00,3.64
"Carbohydrate, by difference",g,--,--,37.00,67.27
"Fiber, total dietary",g,--,--,2.0,3.6
"Sugars, total",g,--,--,3.00,5.45
Minerals
"Calcium, Ca",mg,--,--,20,36
"Sodium, Na",mg,--,--,5,9
Vitamins
"Vitamin C, total ascorbic acid",mg,--,--,0.0,0.0
"Vitamin A, IU",IU,--,--,0,0
Lipids
"Fatty acids, total saturated",g,--,--,0.501,0.910
"Fatty acids, total trans",g,--,--,0.000,0.000
"Cholesterol",mg,--,--,40,73
Amino Acids
Other
Ingredients
"DURUM WHEAT SEMOLINA, WHOLE EGGS PASTEURIZED." Date available: 10/04/2017 Date last updated by company: 10/04/2017
