Source: USDA Branded Food Products Database Release December 2017 Software v.3.8.6.4 2017-10-02
Report Run at: December 17, 2017 00:10 EST
"Nutrient data for: 45079620, BLACK BEANS, UPC: 099482421168"
Food Group:  Branded Food Products Database
Common Name:

Nutrient,Unit,Data points,Std. Error,"0.5 cup = 130.0g",1Value per 100 g,
Proximates
"Energy",kcal,--,--,110,85
"Protein",g,--,--,6.99,5.38
"Total lipid (fat)",g,--,--,1.00,0.77
"Carbohydrate, by difference",g,--,--,21.00,16.15
"Fiber, total dietary",g,--,--,6.0,4.6
"Sugars, total",g,--,--,1.00,0.77
Minerals
"Calcium, Ca",mg,--,--,40,31
"Iron, Fe",mg,--,--,1.79,1.38
"Potassium, K",mg,--,--,471,362
"Sodium, Na",mg,--,--,280,215
Vitamins
"Vitamin C, total ascorbic acid",mg,--,--,0.0,0.0
"Vitamin A, IU",IU,--,--,0,0
Lipids
"Fatty acids, total saturated",g,--,--,0.000,0.000
"Fatty acids, total trans",g,--,--,0.000,0.000
"Cholesterol",mg,--,--,0,0
Amino Acids
Other
Ingredients
"ORGANIC BLACK BEANS, WATER CONTAINS LESS THAN 1% OF: ORGANIC SPICES (ORGANIC CAYENNE PEPPER, ORGANIC CUMIN POWDER, ORGANIC CORIANDER POWDER, ORGANIC OREGANO), SEA SALT, ORGANIC TOMATO PASTE, ORGANIC CHILI PEPPER ORGANIC CANE SUGAR, ORGANIC CORNSTARCH, ORGANIC EXPELLER PRESSED CANOLA OIL, ORGANIC ONION POWDER, ORGANIC BROWN RICE FLOUR, ORGANIC DISTILLED WHITE VINEGAR, ORGANIC GARLIC POWDER." Date available: 06/24/2017 Date last updated by company: 06/24/2017
