Source: USDA Branded Food Products Database Release December 2017 Software v.3.8.6.4 2017-10-02
Report Run at: December 17, 2017 02:10 EST
"Nutrient data for: 45242509, BLACK SCOTTIE, 100% NATURAL CHAI CONCENTRATE, UPC: 710684116200"
Food Group:  Branded Food Products Database
Common Name:

Nutrient,Unit,Data points,Std. Error,"8.0 OZ. DRINK | PER = 20.0g",1Value per 100 g,
Proximates
"Energy",kcal,--,--,70,350
"Total lipid (fat)",g,--,--,0.00,0.00
"Carbohydrate, by difference",g,--,--,17.00,85.00
"Sugars, total",g,--,--,15.00,75.00
Minerals
"Sodium, Na",mg,--,--,0,0
Vitamins
Lipids
Amino Acids
Other
Ingredients
"SUGAR, FRESHLY BREWED BLACK TEA, SPICES, HONEY, NATURAL COLOR, NATURAL FLAVORS, CITRIC ACID." Date available: 10/13/2017 Date last updated by company: 10/13/2017
