Source: USDA Branded Food Products Database Release December 2017 Software v.3.8.6.4 2017-10-02
Report Run at: December 17, 2017 00:21 EST
"Nutrient data for: 45315643, BLACKEYE PEAS, UPC: 04656701259"
Food Group:  Branded Food Products Database
Common Name:

Nutrient,Unit,Data points,Std. Error,"0.25 cup = 47.0g",1Value per 100 g,
Proximates
"Energy",kcal,--,--,160,340
"Protein",g,--,--,11.00,23.40
"Total lipid (fat)",g,--,--,0.50,1.06
"Carbohydrate, by difference",g,--,--,28.00,59.57
"Fiber, total dietary",g,--,--,5.0,10.6
"Sugars, total",g,--,--,3.00,6.38
Minerals
"Calcium, Ca",mg,--,--,60,128
"Iron, Fe",mg,--,--,2.68,5.70
"Sodium, Na",mg,--,--,10,21
Vitamins
"Vitamin C, total ascorbic acid",mg,--,--,0.9,1.9
"Vitamin A, IU",IU,--,--,0,0
Lipids
"Fatty acids, total saturated",g,--,--,0.000,0.000
"Fatty acids, total trans",g,--,--,0.000,0.000
"Cholesterol",mg,--,--,0,0
Amino Acids
Other
Ingredients
"BLACKEYE PEAS." Date available: 08/22/2017 Date last updated by company: 08/22/2017
