Source: USDA Branded Food Products Database Release December 2017 Software v.3.8.6.4 2017-10-02
Report Run at: December 17, 2017 00:22 EST
"Nutrient data for: 45155497, BLACK FOREST, CANDY DROPS, MIXED FRUIT, UPC: 041420550591"
Food Group:  Branded Food Products Database
Common Name:

Nutrient,Unit,Data points,Std. Error,"3.0 PIECES = 17.0g",1Value per 100 g,
Proximates
"Energy",kcal,--,--,70,412
"Protein",g,--,--,0.00,0.00
"Total lipid (fat)",g,--,--,0.00,0.00
"Carbohydrate, by difference",g,--,--,16.00,94.12
"Sugars, total",g,--,--,12.00,70.59
Minerals
"Sodium, Na",mg,--,--,0,0
Vitamins
Lipids
Amino Acids
Other
Ingredients
"ORGANIC TAPIOCA SYRUP, ORGANIC EVAPORATED CANE SYRUP, CITRIC ACID, NATURAL FLAVORS, FRUIT AND VEGETABLE JUICES ADDED FOR COLOR (GRAPE, RADISH, APPLE, BLACKCURRANT, BEET)." Date available: 07/14/2017 Date last updated by company: 07/14/2017
