Source: USDA Branded Food Products Database Release December 2017 Software v.3.8.6.4 2017-10-02
Report Run at: December 17, 2017 00:15 EST
"Nutrient data for: 45119105, BLACK BEAR, SLICED YELLOW AMERICAN CHEESE, UPC: 630003262121"
Food Group:  Branded Food Products Database
Common Name:

Nutrient,Unit,Data points,Std. Error,"0.75 ONZ = 21.0g",1Value per 100 g,
Proximates
"Energy",kcal,--,--,80,381
"Protein",g,--,--,5.00,23.81
"Total lipid (fat)",g,--,--,7.00,33.33
"Carbohydrate, by difference",g,--,--,1.00,4.76
Minerals
"Calcium, Ca",mg,--,--,100,476
"Sodium, Na",mg,--,--,320,1524
Vitamins
"Vitamin A, IU",IU,--,--,476,2267
Lipids
"Fatty acids, total saturated",g,--,--,5.000,23.810
"Fatty acids, total trans",g,--,--,0.000,0.000
"Cholesterol",mg,--,--,20,95
Amino Acids
Other
Ingredients
"AMERICAN CHEESE (CULTURED MILK, SALT, ENZYMES), AGED CHEDDAR CHEESE* (CULTURED MILK, SALT, ENZYMES), CREAM, SODIUM PHOSPHATE, SALT, ARTIFICIAL COLOR" Date available: 10/13/2017 Date last updated by company: 10/13/2017
