Source: USDA Branded Food Products Database Release December 2017 Software v.3.8.6.4 2017-10-02
Report Run at: December 17, 2017 00:09 EST
"Nutrient data for: 45059567, BLACK BEANS, UPC: 041318020977"
Food Group:  Branded Food Products Database
Common Name:

Nutrient,Unit,Data points,Std. Error,"0.5 cup = 130.0g",1Value per 100 g,
Proximates
"Energy",kcal,--,--,140,108
"Protein",g,--,--,6.99,5.38
"Total lipid (fat)",g,--,--,1.00,0.77
"Carbohydrate, by difference",g,--,--,25.00,19.23
"Fiber, total dietary",g,--,--,6.0,4.6
"Sugars, total",g,--,--,6.01,4.62
Minerals
"Calcium, Ca",mg,--,--,40,31
"Iron, Fe",mg,--,--,1.79,1.38
"Sodium, Na",mg,--,--,480,369
Vitamins
"Vitamin C, total ascorbic acid",mg,--,--,0.0,0.0
"Vitamin A, IU",IU,--,--,0,0
Lipids
"Fatty acids, total saturated",g,--,--,0.000,0.000
"Fatty acids, total trans",g,--,--,0.000,0.000
"Cholesterol",mg,--,--,0,0
Amino Acids
Other
Ingredients
"PREPARED BLACK BEANS, WATER, SALT, FERROUS GLUCONATE, CALCIUM CHLORIDE TO HELP MAINTAIN FIRMNESS." Date available: 07/14/2017 Date last updated by company: 07/14/2017
