Source: USDA Branded Food Products Database Release December 2017 Software v.3.8.6.4 2017-10-02
Report Run at: December 17, 2017 00:17 EST
"Nutrient data for: 45213291, BLACKBERRY TEA & SAGE FRUIT SPREAD, UPC: 011246493501"
Food Group:  Branded Food Products Database
Common Name:

Nutrient,Unit,Data points,Std. Error,"1 Tbsp = 21.0g",1Value per 100 g,
Proximates
"Energy",kcal,--,--,40,190
"Protein",g,--,--,0.00,0.00
"Total lipid (fat)",g,--,--,0.00,0.00
"Carbohydrate, by difference",g,--,--,11.00,52.38
"Fiber, total dietary",g,--,--,0.0,0.0
"Sugars, total",g,--,--,10.00,47.62
Minerals
"Calcium, Ca",mg,--,--,0,0
"Iron, Fe",mg,--,--,0.00,0.00
"Sodium, Na",mg,--,--,0,0
Vitamins
"Vitamin C, total ascorbic acid",mg,--,--,4.1,19.3
"Vitamin A, IU",IU,--,--,0,0
Lipids
"Fatty acids, total saturated",g,--,--,0.000,0.000
"Fatty acids, total trans",g,--,--,0.000,0.000
"Cholesterol",mg,--,--,0,0
Amino Acids
Other
Ingredients
"SUGAR, BLACKBERRIES, WATER, LEMON JUICE (FROM CONCENTRATE), BLACK TEA, PECTIN, SAGE, MONOCALCIUM PHOSPHATE MONOHYDRATE (LEAVENING AGENT), CITRIC ACID." Date available: 07/14/2017 Date last updated by company: 07/14/2017
