Source: USDA Branded Food Products Database Release December 2017 Software v.3.8.6.4 2017-10-02
Report Run at: December 17, 2017 02:05 EST
"Nutrient data for: 45151550, BLACK LICORICE, UPC: 041364001708"
Food Group:  Branded Food Products Database
Common Name:

Nutrient,Unit,Data points,Std. Error,"19.0 BITES = 40.0g",1Value per 100 g,
Proximates
"Energy",kcal,--,--,140,350
"Protein",g,--,--,1.00,2.50
"Total lipid (fat)",g,--,--,0.00,0.00
"Carbohydrate, by difference",g,--,--,33.00,82.50
"Sugars, total",g,--,--,12.00,30.00
Minerals
"Sodium, Na",mg,--,--,45,112
Vitamins
Lipids
"Fatty acids, total saturated",g,--,--,0.000,0.000
"Fatty acids, total trans",g,--,--,0.000,0.000
Amino Acids
Other
Ingredients
"CORN SYRUP, WHEAT FLOUR, MOLASSES, CARAMEL COLORING, LICORICE EXTRACT, SALT, ANISE FLAVOR." Date available: 07/14/2017 Date last updated by company: 07/14/2017
