Source: USDA Branded Food Products Database Release December 2017 Software v.3.8.6.4 2017-10-02
Report Run at: December 17, 2017 02:15 EST
"Nutrient data for: 45325621, BLACK & WHITE ICED COOKIES, UPC: 856701006267"
Food Group:  Branded Food Products Database
Common Name:

Nutrient,Unit,Data points,Std. Error,"1 COOKIE = 25.0g",1Value per 100 g,
Proximates
"Energy",kcal,--,--,100,400
"Protein",g,--,--,1.00,4.00
"Total lipid (fat)",g,--,--,5.00,20.00
"Carbohydrate, by difference",g,--,--,13.00,52.00
"Fiber, total dietary",g,--,--,0.0,0.0
"Sugars, total",g,--,--,9.00,36.00
Minerals
"Calcium, Ca",mg,--,--,0,0
"Iron, Fe",mg,--,--,0.72,2.88
"Sodium, Na",mg,--,--,65,260
Vitamins
"Vitamin C, total ascorbic acid",mg,--,--,0.0,0.0
"Vitamin A, IU",IU,--,--,0,0
Lipids
"Fatty acids, total saturated",g,--,--,2.000,8.000
"Fatty acids, total monounsaturated",g,--,--,1.000,4.000
"Fatty acids, total polyunsaturated",g,--,--,1.000,4.000
"Fatty acids, total trans",g,--,--,0.000,0.000
"Cholesterol",mg,--,--,15,60
Amino Acids
Other
Ingredients
"SUGAR, WATER, CORN SYRUP, EGGS, SOYBEAN OIL, BLEACHED WHEAT FLOUR, VEGETABLE SHORTENING (PALM OIL, FRACTIONATED PALM OIL, SOY LECITHIN), ENRICHED FLOUR BLEACHED (WHEAT FLOUR, MALTED BARLEY FLOUR, NIACIN, REDUCED IRON, THIAMINE MONONITRATE, RIBOFLAVIN, FOLIC ACID), HYDROGENATED PALM KERNEL OIL, CONTAINS LESS THAN 2% OF EACH OF THE FOLLOWING: EMULSIFIER BLEND (PROPYLENE GLYCOL MONOESTERS, MONO- AND DIGLYCERIDES, CITRIC ACID), FOOD STARCH-MODIFIED, WHEY, COCOA PROCESSED WITH ALKALI, LEAVENING (SODIUM ALUMINUM PHOSPHATE, BAKING SODA), SALT, POTASSIUM SORBATE PRESERVATIVE, WHEAT STARCH, WHEAT GLUTEN, NATURAL AND ARTIFICIAL FLAVORS, TITANIUM DIOXIDE COLOR, CELLULOSE GUM, ETHYL ALCOHOL, SODIUM STEAROYL LACTYLATE, POLYGLYCEROL ESTERS OF FATTY ACIDS, MONOESTERS OF FATS AND FATTY ACIDS, AGAR-AGAR, SORBITOL, LOCUST BEAN GUM, XANTHAN GUM, PROPYLPARABEN PRESERVATIVE, METHYLPARABEN PRESERVATIVE." Date available: 08/11/2017 Date last updated by company: 08/11/2017
