Source: USDA Branded Food Products Database Release December 2017 Software v.3.8.6.4 2017-10-02
Report Run at: December 17, 2017 00:22 EST
"Nutrient data for: 45053913, BLACK FOREST BRATWURST, UPC: 031506203060"
Food Group:  Branded Food Products Database
Common Name:

Nutrient,Unit,Data points,Std. Error,"1 SAUSAGE = 90.0g",1Value per 100 g,
Proximates
"Energy",kcal,--,--,240,267
"Protein",g,--,--,13.00,14.44
"Total lipid (fat)",g,--,--,21.00,23.33
"Carbohydrate, by difference",g,--,--,0.00,0.00
"Fiber, total dietary",g,--,--,0.0,0.0
"Sugars, total",g,--,--,0.00,0.00
Minerals
"Calcium, Ca",mg,--,--,0,0
"Iron, Fe",mg,--,--,0.22,0.24
"Sodium, Na",mg,--,--,550,611
Vitamins
"Vitamin C, total ascorbic acid",mg,--,--,0.0,0.0
"Vitamin A, IU",IU,--,--,0,0
Lipids
"Fatty acids, total saturated",g,--,--,6.003,6.670
"Cholesterol",mg,--,--,50,56
Amino Acids
Other
Ingredients
"PORK, WATER, SALT, SPICES, ONION POWDER" Date available: 06/25/2017 Date last updated by company: 06/25/2017
