Source: USDA Branded Food Products Database Release December 2017 Software v.3.8.6.4 2017-10-02
Report Run at: December 17, 2017 02:10 EST
"Nutrient data for: 45203970, BLACK SESAME, UPC: 4715635852080"
Food Group:  Branded Food Products Database
Common Name:

Nutrient,Unit,Data points,Std. Error,"1 PACK = 95.0g",1Value per 100 g,
Proximates
"Energy",kcal,--,--,338,356
"Protein",g,--,--,12.30,12.95
"Total lipid (fat)",g,--,--,5.70,6.00
"Carbohydrate, by difference",g,--,--,58.90,62.00
"Fiber, total dietary",g,--,--,2.8,2.9
"Sugars, total",g,--,--,7.60,8.00
Minerals
"Calcium, Ca",mg,--,--,120,126
"Iron, Fe",mg,--,--,1.05,1.10
"Sodium, Na",mg,--,--,905,953
Vitamins
"Vitamin C, total ascorbic acid",mg,--,--,0.0,0.0
"Vitamin A, IU",IU,--,--,0,0
Lipids
"Fatty acids, total saturated",g,--,--,0.902,0.950
"Fatty acids, total trans",g,--,--,0.000,0.000
"Cholesterol",mg,--,--,0,0
Amino Acids
Other
Ingredients
"NOODLE (WHEAT FLOUR, BLACK SESAME POWDER, BAMBOO CARBON POWDER, WATER, SALT). SAUCE: SOY SAUCE (SOYA BEANS, WATER, SALT, SUGAR), SESAME OIL (SOYBEAN OIL, WHITE SESAME OIL), FLAVORING AGENTS (CITRIC ACID)" Date available: 07/14/2017 Date last updated by company: 07/14/2017
