Source: USDA Branded Food Products Database Release December 2017 Software v.3.8.6.4 2017-10-02
Report Run at: December 17, 2017 00:23 EST
"Nutrient data for: 45282819, BLACK FOREST HAM & PROVOLONE HALF SUB, UPC: 722515250571"
Food Group:  Branded Food Products Database
Common Name:

Nutrient,Unit,Data points,Std. Error,"1 SUB = 248.0g",1Value per 100 g,
Proximates
"Energy",kcal,--,--,481,194
"Protein",g,--,--,34.99,14.11
"Total lipid (fat)",g,--,--,14.01,5.65
"Carbohydrate, by difference",g,--,--,50.00,20.16
"Fiber, total dietary",g,--,--,3.0,1.2
"Sugars, total",g,--,--,5.01,2.02
Minerals
"Calcium, Ca",mg,--,--,300,121
"Iron, Fe",mg,--,--,2.03,0.82
"Sodium, Na",mg,--,--,1781,718
Vitamins
"Vitamin C, total ascorbic acid",mg,--,--,1.2,0.5
"Vitamin A, IU",IU,--,--,704,284
Lipids
"Fatty acids, total saturated",g,--,--,6.994,2.820
"Fatty acids, total trans",g,--,--,0.000,0.000
"Cholesterol",mg,--,--,79,32
Amino Acids
Other
Ingredients
"HAM (CURED WITH WATER, SALT, SUGAR, DEXTROSE, SODIUM PHOSPHATE, HONEY, SODIUM ERYTHORBATE, SODIUM NITRITE, COATED WITH CARAMEL COLOR), SUB ROLL (ENRICHED WHEAT AND MALTED BARLEY FLOUR [CONTAINS NIACIN, REDUCED IRON, THIAMINE MONONITRATE, RIBOFLAVIN, FOLIC ACID], WATER, WHOLE WHEAT FLOUR, OATS, HONEY, YEAST, SUGAR, SALT, WHEAT GLUTEN, VEGETABLE OIL (CANOLA AND/OR SOYBEAN OIL], RYE, CORN WHEAT, BARLEY, FLAXSEED, CARAMEL COLOR, WHEAT STARCH, CALCIUM PROPIONATE [PRESERVATIVE], MILLET, BROWN RICE, TRITICALE, DOUGH CONDITIONERS [ASCORBIC ACID, ENZYMES]), PROVOLONE CHEESE (PASTEURIZED MILK, CHEESE CULTURES, SALT, ENZYMES), LETTUCE." Date available: 07/14/2017 Date last updated by company: 07/14/2017
