Source: USDA Branded Food Products Database Release December 2017 Software v.3.8.6.4 2017-10-02
Report Run at: December 17, 2017 00:06 EST
"Nutrient data for: 45117563, BLACK BEAN HUMMUS, UPC: 896863001731"
Food Group:  Branded Food Products Database
Common Name:

Nutrient,Unit,Data points,Std. Error,"2.0 Tbsp = 28.0g",1Value per 100 g,
Proximates
"Energy",kcal,--,--,40,143
"Protein",g,--,--,2.00,7.14
"Total lipid (fat)",g,--,--,2.00,7.14
"Carbohydrate, by difference",g,--,--,5.00,17.86
"Fiber, total dietary",g,--,--,2.0,7.1
"Sugars, total",g,--,--,1.00,3.57
Minerals
"Calcium, Ca",mg,--,--,0,0
"Iron, Fe",mg,--,--,1.22,4.35
"Sodium, Na",mg,--,--,120,429
Vitamins
"Vitamin A, IU",IU,--,--,0,0
Lipids
"Fatty acids, total saturated",g,--,--,0.000,0.000
"Fatty acids, total trans",g,--,--,0.000,0.000
"Cholesterol",mg,--,--,0,0
Amino Acids
Other
Ingredients
"BLACK BEANS, WATER, TOMATO PASTE, CANOLA & OLIVE OIL, TAHINI (GROUND SESAME), SPICES, HONEY, TAMARI SOY SAUCE, APPLE CIDER VINEGAR, CORN, GARLIC, PINEAPPLE, SALT, CITRIC ACID, PEPPERS, LIME JUICE CONCENTRATE, POTASSIUM SORBATE TO MAINTAIN FRESHNESS." Date available: 07/14/2017 Date last updated by company: 07/14/2017
