Source: USDA Branded Food Products Database Release December 2017 Software v.3.8.6.4 2017-10-02
Report Run at: December 17, 2017 00:14 EST
"Nutrient data for: 45179030, BLACK BEAR, BUFFALO BLUE, UPC: 630003999225"
Food Group:  Branded Food Products Database
Common Name:

Nutrient,Unit,Data points,Std. Error,"2.0 Tbsp = 31.0g",1Value per 100 g,
Proximates
"Energy",kcal,--,--,90,290
"Protein",g,--,--,5.00,16.13
"Total lipid (fat)",g,--,--,7.00,22.58
"Carbohydrate, by difference",g,--,--,3.00,9.68
"Fiber, total dietary",g,--,--,0.0,0.0
"Sugars, total",g,--,--,0.00,0.00
Minerals
"Calcium, Ca",mg,--,--,150,484
"Iron, Fe",mg,--,--,0.00,0.00
"Sodium, Na",mg,--,--,410,1323
Vitamins
"Vitamin C, total ascorbic acid",mg,--,--,0.0,0.0
"Vitamin A, IU",IU,--,--,406,1310
Lipids
"Fatty acids, total saturated",g,--,--,3.999,12.900
"Fatty acids, total trans",g,--,--,0.000,0.000
"Cholesterol",mg,--,--,15,48
Amino Acids
Other
Ingredients
"NY CHEDDAR CHEESE (CULTURED MILK, ENZYMES, SALT), WATER, ALMONDS, WHEY, DISTILLED VINEGAR, MILK FAT, RED CAYENNE PEPPERS, DRIED BLUE CHEESE (CULTURED MILK, SALT, ENZYMES), SALT, SOYBEAN OIL, CAYENNE PEPPER, CHICKEN FAT, NATURAL BUTTER FLAVOR, MALTODEXTRIN, MONOSODIUM GLUTAMATE, MODIFIED FOOD STARCH, HYDROLYZED CORN PROTEIN, DRIED ONION, DRIED GARLIC, GUAR GUM AND/OR LOCUST BEAN GUM, DISODIUM INOSINATE, DISODIUM GUANYLATE, DEHYDRATED COOKED CHICKEN, DRIED PARSLEY, CITRIC ACID, XANTHAN GUM, SPICES, POTASSIUM SORBATE, DISODIUM PHOSPHATE, CALCIUM STEARATE, SILICON DIOXIDE, TURMERIC EXTRACT, LESS THAN 2% NATURAL FLAVOR (SOY, AUTOLYZED YEAST EXTRACT, SUGAR, LACTIC ACID), ARTIFICIAL FLAVOR." Date available: 07/14/2017 Date last updated by company: 07/14/2017
