Source: USDA Branded Food Products Database Release December 2017 Software v.3.8.6.4 2017-10-02
Report Run at: December 17, 2017 00:10 EST
"Nutrient data for: 45048087, BLACK BEANS, UPC: 071692000050"
Food Group:  Branded Food Products Database
Common Name:

Nutrient,Unit,Data points,Std. Error,"0.0 none = 130.0g",1Value per 100 g,
Proximates
"Energy",kcal,--,--,140,108
"Protein",g,--,--,9.00,6.92
"Total lipid (fat)",g,--,--,0.49,0.38
"Carbohydrate, by difference",g,--,--,25.00,19.23
"Fiber, total dietary",g,--,--,6.0,4.6
"Sugars, total",g,--,--,1.00,0.77
Minerals
"Calcium, Ca",mg,--,--,60,46
"Iron, Fe",mg,--,--,1.79,1.38
"Sodium, Na",mg,--,--,480,369
Vitamins
"Vitamin C, total ascorbic acid",mg,--,--,0.0,0.0
"Vitamin A, IU",IU,--,--,0,0
Lipids
"Fatty acids, total saturated",g,--,--,0.000,0.000
"Fatty acids, total trans",g,--,--,0.000,0.000
"Cholesterol",mg,--,--,0,0
Amino Acids
Other
Ingredients
"WATER, BLACK BEANS, SALT, CALCIUM CHLORIDE" Date available: 06/25/2017 Date last updated by company: 06/25/2017
