Source: USDA Branded Food Products Database Release December 2017 Software v.3.8.6.4 2017-10-02
Report Run at: December 17, 2017 00:07 EST
"Nutrient data for: 45324931, BLACK BEAN LAYER DIP, UPC: 041130382994"
Food Group:  Branded Food Products Database
Common Name:

Nutrient,Unit,Data points,Std. Error,"2.0 Tbsp = 30.0g",1Value per 100 g,
Proximates
"Energy",kcal,--,--,35,117
"Protein",g,--,--,1.00,3.33
"Total lipid (fat)",g,--,--,2.00,6.67
"Carbohydrate, by difference",g,--,--,3.00,10.00
"Fiber, total dietary",g,--,--,1.0,3.3
"Sugars, total",g,--,--,1.00,3.33
Minerals
"Calcium, Ca",mg,--,--,20,67
"Iron, Fe",mg,--,--,1.80,6.00
"Sodium, Na",mg,--,--,160,533
Vitamins
"Vitamin D",IU,--,--,0,0
Lipids
"Fatty acids, total saturated",g,--,--,0.999,3.330
"Fatty acids, total trans",g,--,--,0.000,0.000
"Cholesterol",mg,--,--,5,17
Amino Acids
Other
Ingredients
"BLACK BEANS (BLACK BEANS, WATER, SALT, FERROUS GLUCONATE), TOMATOES (TOMATOES, TOMATO JUICE), SOUR CREAM (CULTURED CREAM), CHEDDAR CHEESE (CULTURED PASTEURIZED MILK, SALT, ENZYMES, ANNATTO COLOR), ASSORTED PEPPERS (GREEN BELL, JALAPENO), TOMATO PASTE, ONION, AVOCADO, WATER, LESS THAN 2%: GARLIC, CANOLA OIL, CILANTRO, SALT, GREEN CHILES (GREEN CHILE, WATER), CITRIC ACID, SPICES, ONION AND GARLIC POWDER, VINEGAR, CARROT FIBER, APPLE CIDER VINEGAR, MODIFIED CORNSTARCH, SMOKED PAPRIKA, WHEY, GELATIN (BEEF), LACTIC ACID, GUMS (XANTHAN, GUAR, LOCUST BEAN), CARRAGEENAN, CALCIUM SULFATE, NATAMYCIN (NATURAL MOLD INHIBITOR), SODIUM TRIPOLYPHOSPHATE, NATURAL FLAVORS, CALCIUM CHLORIDE, ASCORBIC ACID, SODIUM BENZOATE AND POTASSIUM SORBATE (MAINTAINS FRESHNESS)." Date available: 09/25/2017 Date last updated by company: 09/25/2017
