Source: USDA Branded Food Products Database Release December 2017 Software v.3.8.6.4 2017-10-02
Report Run at: December 17, 2017 02:06 EST
"Nutrient data for: 45275227, BLACK MOLE PASTE, UPC: 7503020431005"
Food Group:  Branded Food Products Database
Common Name:

Nutrient,Unit,Data points,Std. Error,"0.25 cup = 55.0g",1Value per 100 g,
Proximates
"Energy",kcal,--,--,230,418
"Protein",g,--,--,4.00,7.27
"Total lipid (fat)",g,--,--,7.00,12.73
"Carbohydrate, by difference",g,--,--,38.00,69.09
"Fiber, total dietary",g,--,--,6.0,10.9
"Sugars, total",g,--,--,18.00,32.73
Minerals
"Calcium, Ca",mg,--,--,100,182
"Iron, Fe",mg,--,--,3.60,6.55
"Sodium, Na",mg,--,--,680,1236
Vitamins
"Vitamin C, total ascorbic acid",mg,--,--,0.0,0.0
Lipids
"Fatty acids, total saturated",g,--,--,1.502,2.730
"Fatty acids, total trans",g,--,--,0.000,0.000
"Cholesterol",mg,--,--,0,0
Amino Acids
Other
Ingredients
"MULATO CHILI, MEXICAN PASILLA CHILI, CANOLA OIL, SALT, PLANTAIN, SESAME SEED, FRIED GARLIC, ONION, THYME, CLOVE, CINNAMON, CUMIN, BLACK PEPPER, OREGANO, FRIED PEANUT, WALNUT, RAISINS, ALMONDS, SUGAR, SODIUM BENZOATE AS A PRESERVATIVE." Date available: 07/14/2017 Date last updated by company: 07/14/2017
