Source: USDA Branded Food Products Database Release December 2017 Software v.3.8.6.4 2017-10-02
Report Run at: December 17, 2017 00:23 EST
"Nutrient data for: 45276241, BLACK FOREST HAM PRETZEL SANDWICH, UPC: 722515251080"
Food Group:  Branded Food Products Database
Common Name:

Nutrient,Unit,Data points,Std. Error,"1 SANDWICH = 283.0g",1Value per 100 g,
Proximates
"Energy",kcal,--,--,580,205
"Protein",g,--,--,29.01,10.25
"Total lipid (fat)",g,--,--,24.99,8.83
"Carbohydrate, by difference",g,--,--,59.01,20.85
"Fiber, total dietary",g,--,--,2.0,0.7
"Sugars, total",g,--,--,11.01,3.89
Minerals
"Calcium, Ca",mg,--,--,79,28
"Iron, Fe",mg,--,--,1.78,0.63
"Sodium, Na",mg,--,--,2199,777
Vitamins
"Vitamin C, total ascorbic acid",mg,--,--,0.6,0.2
"Vitamin A, IU",IU,--,--,620,219
Lipids
"Fatty acids, total saturated",g,--,--,9.990,3.530
"Fatty acids, total trans",g,--,--,0.000,0.000
"Cholesterol",mg,--,--,96,34
Amino Acids
Other
Ingredients
"HAM (CURED WITH WATER, SALT, SUGAR, DEXTROSE, SODIUM PHOSPHATE HONEY, SODIUM ERYTHORBATE, SODIUM NITRITE; COATED WITH CARAMEL COLOR), PRETZEL ROLL (ENRICHED WHEAT FLOUR [WHEAT FLOUR, MALTED BARLEY FLOUR, NIACIN, REDUCED IRON, THIAMINE MONONITRATE, RIBOFLAVIN, FOLIC ACID], WATER, VEGETABLE OIL SHORTENING [PALM OIL, MODIFIED PALM OIL], SUGAR, YEAST, BUTTER [PASTEURIZED CREAM, STARTER CULTURE, LACTIC ACID], SALT, CONTAINS 2% OR LESS OF: CULTURED WHEAT FLOUR, VINEGAR, SOYBEAN OIL, CALCIUM SULFATE, DOUGH CONDITIONERS [ASCORBIC ACID, ENZYMES], SODIUM HYDROXIDE), HAVARTI CHEESE (PASTEURIZED MILK, CHEESE CULTURES, SALT, ENZYMES), HONEY MUSTARD DRESSING (SOYBEAN OIL, WATER, DISTILLED VINEGAR, HONEY, SUGAR, MUSTARD SEED, EGG YOLK, SALT, NATURAL FLAVOR, XANTHAN GUM, POTASSIUM SORBATE AND SODIUM BENZOATE [PRESERVATIVE], SPICE, PROPYLENE GLYCOL ALGINATE, CALCIUM DISODIUM EDTA ADDED TO PROTECT FLAVOR), LETTUCE." Date available: 07/14/2017 Date last updated by company: 07/14/2017
