Source: USDA Branded Food Products Database Release December 2017 Software v.3.8.6.4 2017-10-02
Report Run at: December 17, 2017 02:16 EST
"Nutrient data for: 45130564, BLAKES Meatloaf And Mashed Potatoes, UNPREPARED, GTIN: 00017873705352"
Food Group:  Branded Food Products Database
Common Name:

Nutrient,Unit,Data points,Std. Error,"1 cup (227g) = 227.0g",1Value per 100 g,
Proximates
"Energy",kcal,--,--,311,137
"Protein",g,--,--,11.01,4.85
"Total lipid (fat)",g,--,--,18.00,7.93
"Carbohydrate, by difference",g,--,--,23.99,10.57
"Fiber, total dietary",g,--,--,3.0,1.3
"Sugars, total",g,--,--,3.00,1.32
Minerals
"Calcium, Ca",mg,--,--,59,26
"Iron, Fe",mg,--,--,1.79,0.79
"Potassium, K",mg,--,--,0,0
"Sodium, Na",mg,--,--,350,154
Vitamins
"Vitamin C, total ascorbic acid",mg,--,--,21.1,9.3
"Vitamin A, IU",IU,--,--,499,220
Lipids
"Fatty acids, total saturated",g,--,--,8.989,3.960
"Fatty acids, total monounsaturated",g,--,--,0.000,0.000
"Fatty acids, total polyunsaturated",g,--,--,0.000,0.000
"Fatty acids, total trans",g,--,--,0.000,0.000
"Cholesterol",mg,--,--,70,31
Amino Acids
Other
Ingredients
"Red skin mashed potatoes [potato, milk, butter (pasteurized sweet cream, salt), sea salt, white pepper, roasted garlic], gravy [water, onion, tomato paste, peas, butter (pasteurized sweet cream, salt), unbleached wheat flour, beef stock, natural flavor, sea salt, garlic, thyme, black pepper], meatloaf [cooked ground beef**, whole eggs (whole egg, citric acid), breadcrumbs (wheat flour, palm oil, salt, yeast), onion, tomato paste, olive oil, cream, romano cheese (pasteurized sheep milk, cheese cultures, salt, enzymes, starch, powedered cellulose (anti-caking agent), green peppers, red peppers, roasted garlic, evaporated cane syrup, sea salt, basil, honey, oregano, chili powder, black pepper, thyme, cayenne pepper]. CONTAINS: Milk, Wheat, Eggs." Date available: 10/12/2017 Date last updated by company: 10/11/2017
