Source: USDA Branded Food Products Database Release December 2017 Software v.3.8.6.4 2017-10-02
Report Run at: December 17, 2017 03:49 EST
"Nutrient data for: 45272673, BLENDED LOWFAT YOGURT, UPC: 07078402367"
Food Group:  Branded Food Products Database
Common Name:

Nutrient,Unit,Data points,Std. Error,"1 CONTAINER = 170.0g",1Value per 100 g,
Proximates
"Energy",kcal,--,--,160,94
"Protein",g,--,--,6.00,3.53
"Total lipid (fat)",g,--,--,1.50,0.88
"Carbohydrate, by difference",g,--,--,30.00,17.65
"Fiber, total dietary",g,--,--,0.0,0.0
"Sugars, total",g,--,--,25.99,15.29
Minerals
"Calcium, Ca",mg,--,--,150,88
"Iron, Fe",mg,--,--,0.00,0.00
"Potassium, K",mg,--,--,240,141
"Sodium, Na",mg,--,--,80,47
Vitamins
"Vitamin C, total ascorbic acid",mg,--,--,2.4,1.4
"Vitamin A, IU",IU,--,--,100,59
Lipids
"Fatty acids, total saturated",g,--,--,1.003,0.590
"Fatty acids, total trans",g,--,--,0.000,0.000
"Cholesterol",mg,--,--,10,6
Amino Acids
Other
Ingredients
"CULTURED PASTEURIZED GRADE A LOWFAT MILK, SUGAR, STRAWBERRIES, CORN SYRUP, BANANA PUREE CONCENTRATE, MODIFIED CORNSTARCH, KOSHER GELATIN, NATURAL FLAVORS, CITRIC ACID, POTASSIUM SORBATE (TO MAINTAIN FRESHNESS), RED 40. CONTAINS ACTIVE YOGURT CULTURES WITH L. BULGARICUS, S. THERMOPHILUS, BIFIDUS, L. ACIDOPHILUS, L. CASEI CULTURES." Date available: 07/14/2017 Date last updated by company: 07/14/2017
