Source: USDA Branded Food Products Database Release December 2017 Software v.3.8.6.4 2017-10-02
Report Run at: December 17, 2017 03:43 EST
"Nutrient data for: 45287395, BLENDED FRUIT SNACK, UPC: 028700350515"
Food Group:  Branded Food Products Database
Common Name:

Nutrient,Unit,Data points,Std. Error,"1 POUCH = 90.0g",1Value per 100 g,
Proximates
"Energy",kcal,--,--,60,67
"Protein",g,--,--,0.00,0.00
"Total lipid (fat)",g,--,--,0.00,0.00
"Carbohydrate, by difference",g,--,--,14.00,15.56
"Fiber, total dietary",g,--,--,2.0,2.2
"Sugars, total",g,--,--,10.00,11.11
Minerals
"Iron, Fe",mg,--,--,0.20,0.22
"Potassium, K",mg,--,--,115,128
"Sodium, Na",mg,--,--,0,0
Vitamins
"Vitamin C, total ascorbic acid",mg,--,--,33.3,37.0
Lipids
Amino Acids
Other
Ingredients
"APPLES, WATER, PEAR JUICE CONCENTRATE, OATS, BLUEBERRY PUREE, BLACKBERRY PUREE, NATURAL FLAVORS, ASCORBIC ACID (VITAMIN C), CINNAMON." Date available: 07/14/2017 Date last updated by company: 07/14/2017
