Source: USDA Branded Food Products Database Release December 2017 Software v.3.8.6.4 2017-10-02
Report Run at: December 17, 2017 03:53 EST
"Nutrient data for: 45240592, BLEND OF 3 JUICES, UPC: 082592634108"
Food Group:  Branded Food Products Database
Common Name:

Nutrient,Unit,Data points,Std. Error,"12.0 fl oz = 355.0g",1Value per 100 g,
Proximates
"Energy",kcal,--,--,138,39
"Protein",g,--,--,0.99,0.28
"Total lipid (fat)",g,--,--,0.00,0.00
"Carbohydrate, by difference",g,--,--,33.02,9.30
"Sugars, total",g,--,--,30.00,8.45
Minerals
"Calcium, Ca",mg,--,--,21,6
"Potassium, K",mg,--,--,309,87
"Sodium, Na",mg,--,--,11,3
Vitamins
"Vitamin C, total ascorbic acid",mg,--,--,35.9,10.1
Lipids
Amino Acids
Other
Ingredients
"PINEAPPLE JUICE, CUCUMBER JUICE, FILTERED WATER, LEMON JUICE, LEMON OIL." Date available: 06/25/2017 Date last updated by company: 06/25/2017
