Source: USDA Branded Food Products Database Release December 2017 Software v.3.8.6.4 2017-10-02
Report Run at: December 17, 2017 03:45 EST
"Nutrient data for: 45283443, BLENDED GREEK, UPC: 086854065587"
Food Group:  Branded Food Products Database
Common Name:

Nutrient,Unit,Data points,Std. Error,"1 cup = 227.0g",1Value per 100 g,
Proximates
"Energy",kcal,--,--,191,84
"Protein",g,--,--,19.00,8.37
"Total lipid (fat)",g,--,--,0.00,0.00
"Carbohydrate, by difference",g,--,--,29.01,12.78
"Fiber, total dietary",g,--,--,0.9,0.4
"Sugars, total",g,--,--,26.99,11.89
Minerals
"Calcium, Ca",mg,--,--,200,88
"Iron, Fe",mg,--,--,0.27,0.12
"Potassium, K",mg,--,--,379,167
"Sodium, Na",mg,--,--,100,44
Vitamins
"Vitamin C, total ascorbic acid",mg,--,--,1.8,0.8
"Vitamin A, IU",IU,--,--,0,0
Lipids
"Fatty acids, total saturated",g,--,--,0.000,0.000
"Fatty acids, total trans",g,--,--,0.000,0.000
"Cholesterol",mg,--,--,9,4
Amino Acids
Other
Ingredients
"CULTURED PASTEURIZED SKIM MILK, SUGAR, STRAWBERRIES, NATURAL FLAVOR, PECTIN, LOCUST BEAN GUM, SODIUM CITRATE, LACTIC ACID, FRUIT AND VEGETABLE JUICE CONCENTRATE FOR COLOR, AND CALCIUM CHLORIDE." Date available: 07/14/2017 Date last updated by company: 07/14/2017
