Source: USDA Branded Food Products Database Release December 2017 Software v.3.8.6.4 2017-10-02
Report Run at: December 17, 2017 03:50 EST
"Nutrient data for: 45204876, BLENDED NONFAT YOGURT, UPC: 9348603002115"
Food Group:  Branded Food Products Database
Common Name:

Nutrient,Unit,Data points,Std. Error,"1 CONTAINER = 170.0g",1Value per 100 g,
Proximates
"Energy",kcal,--,--,121,71
"Protein",g,--,--,5.00,2.94
"Total lipid (fat)",g,--,--,0.00,0.00
"Carbohydrate, by difference",g,--,--,23.00,13.53
"Fiber, total dietary",g,--,--,0.0,0.0
"Sugars, total",g,--,--,18.00,10.59
Minerals
"Calcium, Ca",mg,--,--,201,118
"Iron, Fe",mg,--,--,0.00,0.00
"Potassium, K",mg,--,--,250,147
"Sodium, Na",mg,--,--,85,50
Vitamins
"Vitamin C, total ascorbic acid",mg,--,--,1.2,0.7
"Vitamin A, IU",IU,--,--,500,294
"Vitamin D",IU,--,--,80,47
Lipids
"Fatty acids, total saturated",g,--,--,0.000,0.000
"Fatty acids, total trans",g,--,--,0.000,0.000
"Cholesterol",mg,--,--,0,0
Amino Acids
Other
Ingredients
"CULTURED PASTEURIZED GRADE A NONFAT MILK, SUGAR, CHERRIES, MODIFIED CORN STRACH, FRUCTOSE, MILK PROTEIN CONCENTRATE, KOSHER GELATIN, NATURAL FLAVORS, POMEGRANATE JUICE CONCENTRATE, GELLAN GUM, LEMON JUICE CONCENTRATE, VITAMIN A PALMITATE, VITAMIN D 3. CONTAINS L. ACIDOPHILUS, BIFIDUS, AND L. CASEI LIVE & ACTIVE CULTURES." Date available: 10/13/2017 Date last updated by company: 10/13/2017
