Source: USDA Branded Food Products Database Release December 2017 Software v.3.8.6.4 2017-10-02
Report Run at: December 17, 2017 03:46 EST
"Nutrient data for: 45195443, BLENDED GREEK YOGURT, UPC: 077890389577"
Food Group:  Branded Food Products Database
Common Name:

Nutrient,Unit,Data points,Std. Error,"5.3 ONZ = 150.0g",1Value per 100 g,
Proximates
"Energy",kcal,--,--,130,87
"Protein",g,--,--,12.00,8.00
"Total lipid (fat)",g,--,--,2.50,1.67
"Carbohydrate, by difference",g,--,--,15.00,10.00
"Fiber, total dietary",g,--,--,1.1,0.7
"Sugars, total",g,--,--,13.99,9.33
Minerals
"Calcium, Ca",mg,--,--,150,100
"Iron, Fe",mg,--,--,0.00,0.00
"Potassium, K",mg,--,--,180,120
"Sodium, Na",mg,--,--,50,33
Vitamins
"Vitamin C, total ascorbic acid",mg,--,--,1.4,0.9
"Vitamin A, IU",IU,--,--,1416,944
Lipids
"Fatty acids, total saturated",g,--,--,1.500,1.000
"Fatty acids, total trans",g,--,--,0.000,0.000
"Cholesterol",mg,--,--,15,10
Amino Acids
Other
Ingredients
"CULTURED PASTEURIZED GRADE A NONFAT MILK, GRADE A CREAM. CONTAINS THE FOLLOWING LIVE CULTURES: L. BULGARICUS, STREPTOCOCCUS THERMOPHILUS, L. ACIDOPHILUS, BIFIDUS, L. CASEI. FRUIT PREPARATION: PUMPKIN PUREE, SUGAR, NATURAL FLAVORS, PECTIN, LACTIC ACID, LOCUST BEAN GUM, SPICES, SALT, ANNATTO EXTRACT (COLOR)." Date available: 07/14/2017 Date last updated by company: 07/14/2017
