Source: USDA Branded Food Products Database Release December 2017 Software v.3.8.6.4 2017-10-02
Report Run at: December 17, 2017 03:48 EST
"Nutrient data for: 45220296, BLENDED LOWFAT YOGURT, UPC: 077890329030"
Food Group:  Branded Food Products Database
Common Name:

Nutrient,Unit,Data points,Std. Error,"6.0 ONZ = 170.0g",1Value per 100 g,
Proximates
"Energy",kcal,--,--,170,100
"Protein",g,--,--,5.00,2.94
"Total lipid (fat)",g,--,--,1.50,0.88
"Carbohydrate, by difference",g,--,--,34.00,20.00
"Fiber, total dietary",g,--,--,0.0,0.0
"Sugars, total",g,--,--,30.00,17.65
Minerals
"Calcium, Ca",mg,--,--,201,118
"Iron, Fe",mg,--,--,0.00,0.00
"Potassium, K",mg,--,--,230,135
"Sodium, Na",mg,--,--,116,68
Vitamins
"Vitamin C, total ascorbic acid",mg,--,--,3.6,2.1
"Vitamin A, IU",IU,--,--,500,294
"Vitamin D",IU,--,--,80,47
Lipids
"Fatty acids, total saturated",g,--,--,1.003,0.590
"Fatty acids, total trans",g,--,--,0.000,0.000
"Cholesterol",mg,--,--,10,6
Amino Acids
Other
Ingredients
"CULTURED PASTEURIZED GRADE A LOWFAT MILK, SUGAR, STRAWBERRIES, MODIFIED CORN STARCH, WHEY, NATURAL FLAVORS, KOSHER GELATIN, CITRIC ACID, GELLAN GUM, VITAMIN A PALMITATE, VITAMIN D3. CONTAINS THE FOLLOWING LIVE AND ACTIVE CULTURES: ACIDOPHILUS, BIFIDUS, L. CASEI." Date available: 07/14/2017 Date last updated by company: 07/14/2017
