Source: USDA Branded Food Products Database Release December 2017 Software v.3.8.6.4 2017-10-02
Report Run at: December 17, 2017 04:44 EST
"Nutrient data for: 45295892, BLEU CHEESE SALAD DRESSING & DIP, UPC: 070829508469"
Food Group:  Branded Food Products Database
Common Name:

Nutrient,Unit,Data points,Std. Error,"2.0 Tbsp = 30.0g",1Value per 100 g,
Proximates
"Energy",kcal,--,--,140,467
"Protein",g,--,--,2.00,6.67
"Total lipid (fat)",g,--,--,15.00,50.00
"Carbohydrate, by difference",g,--,--,2.00,6.67
"Fiber, total dietary",g,--,--,0.0,0.0
"Sugars, total",g,--,--,1.00,3.33
Minerals
"Calcium, Ca",mg,--,--,40,133
"Iron, Fe",mg,--,--,0.00,0.00
"Sodium, Na",mg,--,--,190,633
Vitamins
"Vitamin C, total ascorbic acid",mg,--,--,0.0,0.0
"Vitamin A, IU",IU,--,--,0,0
Lipids
"Fatty acids, total saturated",g,--,--,3.999,13.330
"Fatty acids, total trans",g,--,--,0.000,0.000
"Cholesterol",mg,--,--,15,50
Amino Acids
Other
Ingredients
"MAYONNAISE [VEGETABLE OIL (SOYBEAN OIL AND/OR CANOLA OIL), EGG YOLKS, CIDER VINEGAR, LEMON JUICE, WATER, SALT, SUGAR, MUSTARD FLOUR, ONION POWDER], SOUR CREAM DRESSING (CULTURED MILK, CREAM, CULTURED MILK POWDER, GELATIN), BLEU CHEESE (PASTEURIZED MILK, CHEESE CULTURES, SALT, ENZYMES, NATAMYCIN (TO PROTECT FLAVOR)), BUTTERMILK (CULTURED PASTEURIZED PART-SKIM MILK, NONFAT MILK POWDER, SALT), WATER, DISTILLED VINEGAR, SALT, GARLIC POWDER, SPICES, XANTHAN GUM, MONOSODIUM GLUTAMATE." Date available: 06/24/2017 Date last updated by company: 06/24/2017
