Source: USDA Branded Food Products Database Release December 2017 Software v.3.8.6.4 2017-10-02
Report Run at: December 17, 2017 04:44 EST
"Nutrient data for: 45255736, BLINIS COCKTAIL, UPC: 3562562666027"
Food Group:  Branded Food Products Database
Common Name:

Nutrient,Unit,Data points,Std. Error,"3.0 BLINIS = 13.5g",1Value per 100 g,
Proximates
"Energy",kcal,--,--,33,244
"Protein",g,--,--,1.00,7.41
"Total lipid (fat)",g,--,--,1.00,7.41
"Carbohydrate, by difference",g,--,--,5.00,37.04
"Fiber, total dietary",g,--,--,0.0,0.0
"Sugars, total",g,--,--,1.00,7.41
Minerals
"Calcium, Ca",mg,--,--,10,74
"Iron, Fe",mg,--,--,0.00,0.00
"Sodium, Na",mg,--,--,89,659
Vitamins
"Vitamin C, total ascorbic acid",mg,--,--,0.0,0.0
"Vitamin A, IU",IU,--,--,0,0
Lipids
"Fatty acids, total saturated",g,--,--,0.100,0.740
"Fatty acids, total trans",g,--,--,0.000,0.000
"Cholesterol",mg,--,--,2,15
Amino Acids
Other
Ingredients
"WATER, WHEAT FLOUR, SUNFLOWER OIL, LACTOSE, MILK PROTEINS, SKIMMED MILK POWDER, WHEY POWDER, DEHYDRATED EGG WHITES AND WHOLE EGGS, RAISING AGENT: DISODIUM DIPHOSPHATE, SODIUM BICARBONATE, SALT, ANTIOXIDANT: ASCORBIC ACID." Date available: 09/25/2017 Date last updated by company: 09/25/2017
