Source: USDA Branded Food Products Database Release December 2017 Software v.3.8.6.4 2017-10-02
Report Run at: December 17, 2017 04:45 EST
"Nutrient data for: 45207150, BLONDIE, UPC: 20044749"
Food Group:  Branded Food Products Database
Common Name:

Nutrient,Unit,Data points,Std. Error,"1 PIECE = 99.0g",1Value per 100 g,
Proximates
"Energy",kcal,--,--,470,475
"Protein",g,--,--,5.00,5.05
"Total lipid (fat)",g,--,--,23.00,23.23
"Carbohydrate, by difference",g,--,--,64.00,64.65
"Fiber, total dietary",g,--,--,2.0,2.0
"Sugars, total",g,--,--,42.00,42.42
Minerals
"Calcium, Ca",mg,--,--,100,101
"Iron, Fe",mg,--,--,0.58,0.59
"Sodium, Na",mg,--,--,380,384
Vitamins
"Vitamin C, total ascorbic acid",mg,--,--,0.0,0.0
"Vitamin A, IU",IU,--,--,0,0
Lipids
"Fatty acids, total saturated",g,--,--,5.000,5.050
"Fatty acids, total trans",g,--,--,0.000,0.000
"Cholesterol",mg,--,--,45,45
Amino Acids
Other
Ingredients
"BROWN CANE SUGAR, ENRICHED UNBLEACHED FLOUR (UNBLEACHED WHEAT FLOUR, NIACIN, REDUCED IRON, THIAMIN MONONITRATE, RIBOFLAVIN, FOLIC ACID), SEMI SWEET CHOCOLATE CHIPS (SUGAR, CHOCOLATE LIQUOR, COCOA BUTTER, SOY LECITHIN, VANILLA), CANOLA OIL, EGG, WATER, NATURAL FLAVOR, BAKING POWDER (SODIUM ACID PYROPHOSPHATE, SODIUM BICARBONATE, MONOCALCIUM PHOSPHATE,CORN STARCH)." Date available: 10/08/2017 Date last updated by company: 10/08/2017
