Source: USDA Branded Food Products Database Release December 2017 Software v.3.8.6.4 2017-10-02
Report Run at: December 17, 2017 04:45 EST
"Nutrient data for: 45237993, BLOOD ORANGE, UPC: 041244990276"
Food Group:  Branded Food Products Database
Common Name:

Nutrient,Unit,Data points,Std. Error,"1 BOTTLE = 296.0g",1Value per 100 g,
Proximates
"Energy",kcal,--,--,121,41
"Protein",g,--,--,0.00,0.00
"Total lipid (fat)",g,--,--,0.00,0.00
"Carbohydrate, by difference",g,--,--,30.99,10.47
"Fiber, total dietary",g,--,--,0.0,0.0
"Sugars, total",g,--,--,30.99,10.47
Minerals
"Calcium, Ca",mg,--,--,21,7
"Iron, Fe",mg,--,--,0.00,0.00
"Potassium, K",mg,--,--,74,25
"Sodium, Na",mg,--,--,9,3
Vitamins
"Vitamin C, total ascorbic acid",mg,--,--,9.8,3.3
"Riboflavin",mg,--,--,0.000,0.000
"Niacin",mg,--,--,0.323,0.109
"Vitamin A, IU",IU,--,--,0,0
Lipids
"Fatty acids, total saturated",g,--,--,0.000,0.000
"Fatty acids, total trans",g,--,--,0.000,0.000
"Cholesterol",mg,--,--,0,0
Amino Acids
Other
Ingredients
"FILTERED WATER, SUGAR, BLOOD ORANGE JUICE CONCENTRATE, CITRIC ACID, FRUIT JUICE FOR COLOR, NATURAL FLAVORS, AND GUM ARABIC." Date available: 07/14/2017 Date last updated by company: 07/14/2017
