Source: USDA Branded Food Products Database Release December 2017 Software v.3.8.6.4 2017-10-02
Report Run at: December 17, 2017 04:45 EST
"Nutrient data for: 45314878, BLOOD ORANGE LEMONADE, UPC: 022198008378"
Food Group:  Branded Food Products Database
Common Name:

Nutrient,Unit,Data points,Std. Error,"12.0 OZA = 360.0g",1Value per 100 g,
Proximates
"Energy",kcal,--,--,140,39
"Total lipid (fat)",g,--,--,0.00,0.00
"Carbohydrate, by difference",g,--,--,36.00,10.00
"Sugars, total",g,--,--,33.98,9.44
Minerals
"Sodium, Na",mg,--,--,0,0
Vitamins
"Vitamin C, total ascorbic acid",mg,--,--,110.2,30.6
Lipids
"Fatty acids, total saturated",g,--,--,0.000,0.000
"Fatty acids, total trans",g,--,--,0.000,0.000
Amino Acids
Other
Ingredients
"WATER, SUGAR, BLOOD ORANGE JUICE CONCENTRATE, LEMON JUICE CONCENTRATE, NATURAL FLAVORS, CITRIC ACID, ASCORBIC ACID (VITAMIN C), EXBERRY FRUIT YELLOW AND EXBERRY PINK BLOSSOM." Date available: 09/25/2017 Date last updated by company: 09/25/2017
