Source: USDA Branded Food Products Database Release December 2017 Software v.3.8.6.4 2017-10-02
Report Run at: December 17, 2017 04:45 EST
"Nutrient data for: 45217452, BLOOD ORANGE SPARKLING, UPC: 725439980999"
Food Group:  Branded Food Products Database
Common Name:

Nutrient,Unit,Data points,Std. Error,"8.0 OZA = 240.0g",1Value per 100 g,
Proximates
"Energy",kcal,--,--,91,38
"Protein",g,--,--,0.00,0.00
"Total lipid (fat)",g,--,--,0.00,0.00
"Carbohydrate, by difference",g,--,--,22.99,9.58
"Fiber, total dietary",g,--,--,0.0,0.0
"Sugars, total",g,--,--,22.99,9.58
Minerals
"Sodium, Na",mg,--,--,0,0
Vitamins
Lipids
"Cholesterol",mg,--,--,0,0
Amino Acids
Other
Ingredients
"CARBONATED WATER, SUGAR, NATURAL ORANGE FLAVOR WITH OTHER NATURAL FLAVORS (INCLUDING BLOOD ORANGE JUICE FROM CONCENTRATE), CITRIC ACID, PURPLE CARROT JUICE FROM CONCENTRATE (AS COLOR)." Date available: 07/14/2017 Date last updated by company: 07/14/2017
