Source: USDA Branded Food Products Database Release December 2017 Software v.3.8.6.4 2017-10-02
Report Run at: December 17, 2017 05:50 EST
"Nutrient data for: 45166779, BLUE PRINT, COLD PRESSED JUICE, ARUGULA KALE APPLE ROMAINE CELERY CUCUMBER LEMON GINGER, UPC: 852043003643"
Food Group:  Branded Food Products Database
Common Name:

Nutrient,Unit,Data points,Std. Error,"1 BOTTLE = 473.0g",1Value per 100 g,
Proximates
"Energy",kcal,--,--,128,27
"Protein",g,--,--,2.98,0.63
"Total lipid (fat)",g,--,--,0.99,0.21
"Carbohydrate, by difference",g,--,--,26.02,5.50
"Fiber, total dietary",g,--,--,0.9,0.2
"Sugars, total",g,--,--,25.02,5.29
Minerals
"Calcium, Ca",mg,--,--,199,42
"Iron, Fe",mg,--,--,0.57,0.12
"Sodium, Na",mg,--,--,57,12
Vitamins
"Vitamin C, total ascorbic acid",mg,--,--,9.0,1.9
"Vitamin A, IU",IU,--,--,255,54
Lipids
"Fatty acids, total saturated",g,--,--,0.000,0.000
"Fatty acids, total trans",g,--,--,0.000,0.000
"Cholesterol",mg,--,--,0,0
Amino Acids
Other
Ingredients
"ORGANIC JUICE FROM: ORGANIC VEGETABLES (ORGANIC ROMAINE, ORGANIC CELERY, ORGANIC ARUGULA, ORGANIC CUCUMBERS, ORGANIC KALE), ORGANIC APPLE, ORGANIC GINGER, ORGANIC LEMON." Date available: 07/14/2017 Date last updated by company: 07/14/2017
