Source: USDA Branded Food Products Database Release December 2017 Software v.3.8.6.4 2017-10-02
Report Run at: December 17, 2017 05:48 EST
"Nutrient data for: 45323384, BLUE LAKE GREEN BEANS, UPC: 016700012465"
Food Group:  Branded Food Products Database
Common Name:

Nutrient,Unit,Data points,Std. Error,"0.5 cup = 121.0g",1Value per 100 g,
Proximates
"Energy",kcal,--,--,25,21
"Protein",g,--,--,1.00,0.83
"Total lipid (fat)",g,--,--,0.00,0.00
"Carbohydrate, by difference",g,--,--,4.01,3.31
"Fiber, total dietary",g,--,--,1.0,0.8
"Sugars, total",g,--,--,1.00,0.83
Minerals
"Calcium, Ca",mg,--,--,29,24
"Iron, Fe",mg,--,--,0.80,0.66
"Potassium, K",mg,--,--,120,99
"Sodium, Na",mg,--,--,140,116
Vitamins
"Vitamin D",IU,--,--,0,0
Lipids
"Fatty acids, total saturated",g,--,--,0.000,0.000
"Fatty acids, total trans",g,--,--,0.000,0.000
"Cholesterol",mg,--,--,0,0
Amino Acids
Other
Ingredients
"GREEN BEANS, WATER, SALT." Date available: 09/25/2017 Date last updated by company: 09/25/2017
