Source: USDA Branded Food Products Database Release December 2017 Software v.3.8.6.4 2017-10-02
Report Run at: December 17, 2017 04:58 EST
"Nutrient data for: 45279797, BLUEBERRY MUFFIN, UPC: 035751113051"
Food Group:  Branded Food Products Database
Common Name:

Nutrient,Unit,Data points,Std. Error,"0.333 MUFFINS | ABOUT = 52.0g",1Value per 100 g,
Proximates
"Energy",kcal,--,--,190,365
"Protein",g,--,--,3.00,5.77
"Total lipid (fat)",g,--,--,10.00,19.23
"Carbohydrate, by difference",g,--,--,22.00,42.31
"Fiber, total dietary",g,--,--,0.0,0.0
"Sugars, total",g,--,--,12.00,23.08
Minerals
"Calcium, Ca",mg,--,--,60,115
"Iron, Fe",mg,--,--,1.52,2.93
"Sodium, Na",mg,--,--,135,260
Vitamins
"Vitamin C, total ascorbic acid",mg,--,--,0.0,0.0
"Vitamin A, IU",IU,--,--,0,0
Lipids
"Fatty acids, total saturated",g,--,--,2.501,4.810
"Fatty acids, total trans",g,--,--,0.000,0.000
"Cholesterol",mg,--,--,35,67
Amino Acids
Other
Ingredients
"BLEACHED WHEAT FLOUR ENRICHED (NIACIN, REDUCED IRON, THIAMINE MONONITRATE, RIBOFLAVIN, MALTED BARLEY FLOUR, ASCORBIC ACID, FOLIC ACID), GRANULATED SUGAR, EGGS, SOYBEAN OIL, WATER, BLUEBERRIES, PALM OIL (WITH MONO & DIGLYCERIDES, POLYSORBATE 60, CITRIC ACID ADDED AS A PRESERVATIVE), INVERT SUGAR, DRY MILK, MODIFIED FOOD STARCH, BAKING POWDER, POTASSIUM SORBATE & SODIUM PROPIONATE (ADDED TO PRESERVE FRESHNESS), SALT, SODIUM STEAROYL LACTYLATE, GLUCONO-1, 5, LACTONE, XANTHAN GUM, GUAR GUM, VANILLA FLAVOR, NATURAL & ARTIFICIAL FLAVORS." Date available: 07/14/2017 Date last updated by company: 07/14/2017
