Source: USDA Branded Food Products Database Release December 2017 Software v.3.8.6.4 2017-10-02
Report Run at: December 17, 2017 04:58 EST
"Nutrient data for: 45112226, BLUEBERRY MUFFINS, UPC: 072030013398"
Food Group:  Branded Food Products Database
Common Name:

Nutrient,Unit,Data points,Std. Error,"1 POUCH = 47.0g",1Value per 100 g,
Proximates
"Energy",kcal,--,--,180,383
"Protein",g,--,--,2.00,4.26
"Total lipid (fat)",g,--,--,8.00,17.02
"Carbohydrate, by difference",g,--,--,26.00,55.32
"Fiber, total dietary",g,--,--,0.0,0.0
"Sugars, total",g,--,--,15.00,31.91
Minerals
"Calcium, Ca",mg,--,--,20,43
"Iron, Fe",mg,--,--,0.00,0.00
"Sodium, Na",mg,--,--,200,426
Vitamins
"Vitamin C, total ascorbic acid",mg,--,--,0.0,0.0
"Vitamin A, IU",IU,--,--,0,0
Lipids
"Fatty acids, total saturated",g,--,--,1.499,3.190
"Fatty acids, total monounsaturated",g,--,--,2.002,4.260
"Fatty acids, total polyunsaturated",g,--,--,4.000,8.510
"Fatty acids, total trans",g,--,--,0.000,0.000
"Cholesterol",mg,--,--,25,53
Amino Acids
Other
Ingredients
"SUGAR, BLEACHED WHEAT FLOUR, SOYBEAN OIL, BLUEBERRIES, EGGS, WATER, GLYCERIN, MODIFIED CORNSTARCH, WHEY (MILK), LEAVENING (BAKING SODA, SODIUM PHOSPHATE, SODIUM ACID PYROPHOSPHATE, MONOCALCIUM PHOSPHATE), NATURAL & ARTIFICIAL FLAVORS, SALT, MONO- AND DIGLYCERIDES, CORN FLOUR, POTASSIUM SORBATE (PRESERVATIVE), WHEY PROTEIN CONCENTRATE, SODIUM STEAROYL LACTYLATE, SOY LECITHIN, SORBITAN MONOSTEARATE, XANTHAN GUM, POLYSORBATE 60, CELLULOSE GUM, CALCIUM SULFATE, CALCIUM PHOSPHATE, CORN STARCH, CARAMEL COLOR." Date available: 07/14/2017 Date last updated by company: 07/14/2017
