Source: USDA Branded Food Products Database Release December 2017 Software v.3.8.6.4 2017-10-02
Report Run at: December 17, 2017 05:49 EST
"Nutrient data for: 45126215, BLUE PLATE, REAL MAYONNAISE, UPC: 047900502241"
Food Group:  Branded Food Products Database
Common Name:

Nutrient,Unit,Data points,Std. Error,"1 Tbsp = 14.0g",1Value per 100 g,
Proximates
"Energy",kcal,--,--,100,714
"Protein",g,--,--,0.00,0.00
"Total lipid (fat)",g,--,--,11.00,78.57
"Carbohydrate, by difference",g,--,--,0.00,0.00
Minerals
"Sodium, Na",mg,--,--,80,571
Vitamins
Lipids
"Fatty acids, total saturated",g,--,--,1.499,10.710
"Fatty acids, total trans",g,--,--,0.000,0.000
"Cholesterol",mg,--,--,10,71
Amino Acids
Other
Ingredients
"SOYBEAN OIL, DISTILLED VINEGAR, EGG YOLKS, WATER, SUGAR, SALT, CALCIUM DISODIUM EDTA AS A PRESERVATIVE AND NATURAL FLAVORS." Date available: 07/14/2017 Date last updated by company: 07/14/2017
