Source: USDA Branded Food Products Database Release December 2017 Software v.3.8.6.4 2017-10-02
Report Run at: December 17, 2017 05:46 EST
"Nutrient data for: 45237480, BLUE DIAMOND ALMONDS, ALMOND BREEZE, ALMOND MILK COCONUT MILK BLEND, VANILLA, ALMOND, COCONUT, UPC: 041570089750"
Food Group:  Branded Food Products Database
Common Name:

Nutrient,Unit,Data points,Std. Error,"1 cup = 240.0g",1Value per 100 g,
Proximates
"Energy",kcal,--,--,70,29
"Protein",g,--,--,1.01,0.42
"Total lipid (fat)",g,--,--,3.00,1.25
"Carbohydrate, by difference",g,--,--,10.01,4.17
"Fiber, total dietary",g,--,--,0.0,0.0
"Sugars, total",g,--,--,9.00,3.75
Minerals
"Calcium, Ca",mg,--,--,451,188
"Iron, Fe",mg,--,--,0.72,0.30
"Magnesium, Mg",mg,--,--,17,7
"Phosphorus, P",mg,--,--,19,8
"Potassium, K",mg,--,--,161,67
"Sodium, Na",mg,--,--,125,52
Vitamins
"Vitamin C, total ascorbic acid",mg,--,--,0.0,0.0
"Vitamin A, IU",IU,--,--,499,208
"Vitamin D",IU,--,--,101,42
Lipids
"Fatty acids, total saturated",g,--,--,1.008,0.420
"Fatty acids, total monounsaturated",g,--,--,1.008,0.420
"Fatty acids, total polyunsaturated",g,--,--,0.504,0.210
"Fatty acids, total trans",g,--,--,0.000,0.000
"Cholesterol",mg,--,--,0,0
Amino Acids
Other
Ingredients
"ALMONDMILK (FILTERED WATER, ALMONDS), COCONUTMILK (FILTERED WATER, COCONUT CREAM), EVAPORATED CANE JUICE, CALCIUM CARBONATE, NATURAL FLAVORS, POTASSIUM CITRATE, SEA SALT, SUNFLOWER LECITHIN, GELLAN GUM, VITAMIN A PALMITATE, VITAMIN D2, D-ALPHA-TOCOPHEROL (NATURAL VITAMIN E)." Date available: 07/14/2017 Date last updated by company: 07/14/2017
