Source: USDA Branded Food Products Database Release December 2017 Software v.3.8.6.4 2017-10-02
Report Run at: December 17, 2017 05:48 EST
"Nutrient data for: 45026461, BLUE MOUNTAIN COUNTRY, HOT JAMAICAN JERK CURRY SEASONING, UPC: 009349003550"
Food Group:  Branded Food Products Database
Common Name:

Nutrient,Unit,Data points,Std. Error,"6.0 ONZ = 170.0g",1Value per 100 g,
Proximates
"Energy",kcal,--,--,0,0
"Protein",g,--,--,0.00,0.00
"Total lipid (fat)",g,--,--,0.00,0.00
"Carbohydrate, by difference",g,--,--,0.00,0.00
Minerals
"Sodium, Na",mg,--,--,20,12
Vitamins
Lipids
Amino Acids
Other
Ingredients
"TUMERIC, ALLSPICE, PEPPER, CORIANDER, FENUGREEK, SALT, CUMIN, GARLIC, ONION, NUTMEG, CINNAMON, THYME, AND SPICES." Date available: 07/14/2017 Date last updated by company: 07/14/2017
