Source: USDA Branded Food Products Database Release December 2017 Software v.3.8.6.4 2017-10-02
Report Run at: December 17, 2017 05:02 EST
"Nutrient data for: 45332329, BLUEBONNET, WHEY PROTEIN ISOLATE, UPC: 743715015661"
Food Group:  Branded Food Products Database
Common Name:

Nutrient,Unit,Data points,Std. Error,"1 PACKET = 33.0g",1Value per 100 g,
Proximates
"Energy",kcal,--,--,125,379
"Protein",g,--,--,26.00,78.79
"Total lipid (fat)",g,--,--,0.50,1.52
"Carbohydrate, by difference",g,--,--,3.00,9.09
"Sugars, total",g,--,--,1.50,4.55
Minerals
"Calcium, Ca",mg,--,--,130,394
"Magnesium, Mg",mg,--,--,20,61
"Phosphorus, P",mg,--,--,70,212
"Potassium, K",mg,--,--,160,485
"Sodium, Na",mg,--,--,60,182
Vitamins
Lipids
"Fatty acids, total saturated",g,--,--,0.502,1.520
"Cholesterol",mg,--,--,15,45
Amino Acids
Other
Ingredients
"UNDENATURED WHEY PROTEIN ISOLATE, NATURAL VANILLA FLAVOR, NON-GMO SUNFLOWER LECITHIN, STEAVIA EXTRACT (RED A)." Date available: 07/14/2017 Date last updated by company: 07/14/2017
