Source: USDA Branded Food Products Database Release December 2017 Software v.3.8.6.4 2017-10-02
Report Run at: December 17, 2017 05:42 EST
"Nutrient data for: 45067312, BLUE CHEESE PASTA SAUCE, UPC: 688267165375"
Food Group:  Branded Food Products Database
Common Name:

Nutrient,Unit,Data points,Std. Error,"0.5 cup = 113.0g",1Value per 100 g,
Proximates
"Energy",kcal,--,--,60,53
"Protein",g,--,--,2.00,1.77
"Total lipid (fat)",g,--,--,3.50,3.10
"Carbohydrate, by difference",g,--,--,4.99,4.42
"Fiber, total dietary",g,--,--,2.0,1.8
"Sugars, total",g,--,--,4.00,3.54
Minerals
"Calcium, Ca",mg,--,--,20,18
"Iron, Fe",mg,--,--,1.53,1.35
"Sodium, Na",mg,--,--,350,310
Vitamins
"Vitamin C, total ascorbic acid",mg,--,--,6.3,5.6
"Vitamin A, IU",IU,--,--,529,468
Lipids
"Fatty acids, total saturated",g,--,--,0.497,0.440
"Fatty acids, total trans",g,--,--,0.000,0.000
"Cholesterol",mg,--,--,5,4
Amino Acids
Other
Ingredients
"ITALIAN TOMATOES, TOMATO PUREE (WATER, TOMATO PASTE), BLUE CHEESE (PASTEURIZED MILK, CHEESE CULTURE, SALT, ENZYMES, POWDERED CELLULOSE, NATAMYCIN), OLIVE OIL, ONIONS, BACON (PORK, WATER, SALT, TURBINADO SUGAR, SEASONING [CULTURED CELERY JUICE POWDER, SEA SALT]), GARLIC PUREE (GARLIC, WATER), SEA SALT, BACON FLAVOR (YEAST EXTRACT, NATURAL FLAVOR, SALT, SUGAR, BACON FAT, WATER, NATURAL SMOKE FLAVOR), BASIL, NATURAL HICKORY SMOKE FLAVOR, BLACK PEPPER, OREGANO." Date available: 07/14/2017 Date last updated by company: 07/14/2017
