Source: USDA Branded Food Products Database Release December 2017 Software v.3.8.6.4 2017-10-02
Report Run at: December 17, 2017 05:47 EST
"Nutrient data for: 45228661, BLUE GOO BUGS GUMMY CANDY, MINI SEASONAL, UPC: 819893024266"
Food Group:  Branded Food Products Database
Common Name:

Nutrient,Unit,Data points,Std. Error,"8.0 PIECES = 40.0g",1Value per 100 g,
Proximates
"Energy",kcal,--,--,130,325
"Protein",g,--,--,3.00,7.50
"Total lipid (fat)",g,--,--,0.00,0.00
"Carbohydrate, by difference",g,--,--,30.00,75.00
"Sugars, total",g,--,--,22.00,55.00
Minerals
"Sodium, Na",mg,--,--,15,38
Vitamins
Lipids
"Fatty acids, total trans",g,--,--,0.000,0.000
Amino Acids
Other
Ingredients
"CORN SYRUP, SUGAR, WATER, GELATIN, DEXTROSE, CITRIC ACID, PECTIN, LACTIC ACID, SODIUM LACTATE, ARTIFICIAL FLAVORS, BEESWAX, CARNAUBA WAX, PALM AND COCONUT OIL, COLORS (FD&C RED 40, FD&C BLUE 1)." Date available: 07/14/2017 Date last updated by company: 07/14/2017
