Source: USDA Branded Food Products Database Release December 2017 Software v.3.8.6.4 2017-10-02
Report Run at: December 17, 2017 05:47 EST
"Nutrient data for: 45061362, BLUE DIAMOND, TOASTED COCONUT ALMONDS, UPC: 438980073040"
Food Group:  Branded Food Products Database
Common Name:

Nutrient,Unit,Data points,Std. Error,"1 ONZ = 28.0g",1Value per 100 g,
Proximates
"Energy",kcal,--,--,160,571
"Protein",g,--,--,6.00,21.43
"Total lipid (fat)",g,--,--,14.00,50.00
"Carbohydrate, by difference",g,--,--,7.00,25.00
"Fiber, total dietary",g,--,--,3.0,10.7
"Sugars, total",g,--,--,3.00,10.71
Minerals
"Calcium, Ca",mg,--,--,60,214
"Iron, Fe",mg,--,--,1.93,6.88
"Magnesium, Mg",mg,--,--,143,510
"Potassium, K",mg,--,--,190,679
"Sodium, Na",mg,--,--,35,125
Vitamins
"Vitamin C, total ascorbic acid",mg,--,--,0.0,0.0
"Vitamin A, IU",IU,--,--,0,0
Lipids
"Fatty acids, total saturated",g,--,--,1.000,3.570
"Fatty acids, total trans",g,--,--,0.000,0.000
"Cholesterol",mg,--,--,0,0
Amino Acids
Other
Ingredients
"ALMONDS, SUGAR, CORN MALTODEXTRIN, BROWN SUGAR, SEA SALT, GUM ARABIC, NATURAL FLAVORS (COCONUT), CARAMEL COLOR, SPICE AND REBIANA (STEVIA EXTRACT)." Date available: 07/14/2017 Date last updated by company: 07/14/2017
