Source: USDA Branded Food Products Database Release December 2017 Software v.3.8.6.4 2017-10-02
Report Run at: December 17, 2017 05:37 EST
"Nutrient data for: 45109276, BLUE BUNNY, BLUE RIBBON, ICE CREAM CHOCOLATE & VANILLA, UPC: 070640011605"
Food Group:  Branded Food Products Database
Common Name:

Nutrient,Unit,Data points,Std. Error,"0.5 cup = 64.0g",1Value per 100 g,
Proximates
"Energy",kcal,--,--,110,172
"Protein",g,--,--,2.00,3.12
"Total lipid (fat)",g,--,--,4.50,7.03
"Carbohydrate, by difference",g,--,--,16.00,25.00
"Fiber, total dietary",g,--,--,0.0,0.0
"Sugars, total",g,--,--,11.00,17.19
Minerals
"Calcium, Ca",mg,--,--,80,125
"Iron, Fe",mg,--,--,0.40,0.63
"Potassium, K",mg,--,--,150,234
"Sodium, Na",mg,--,--,45,70
Vitamins
"Vitamin C, total ascorbic acid",mg,--,--,0.0,0.0
"Vitamin A, IU",IU,--,--,337,527
Lipids
"Fatty acids, total saturated",g,--,--,3.002,4.690
"Fatty acids, total trans",g,--,--,0.000,0.000
"Cholesterol",mg,--,--,20,31
Amino Acids
Other
Ingredients
"MILK, BUTTERMILK, WHEY, CREAM, CORN SYRUP, SKIM MILK, HIGH FRUCTOSE CORN SYRUP, SUGAR, CONTAINS 2% OR LESS OF COCOA PROCESSED WITH ALKALI, MONO & DIGLYCERIDES, CAROB BEAN GUM, GUAR GUM, VANILLA EXTRACT, ARTIFICIAL FLAVOR, CELLULOSE GEL, CELLULOSE GUM, CARRAGEENAN, VITAMIN A PALMITATE, CARAMEL COLOR, ANNATTO FOR COLOR." Date available: 07/14/2017 Date last updated by company: 07/14/2017
