Source: USDA Branded Food Products Database Release December 2017 Software v.3.8.6.4 2017-10-02
Report Run at: December 17, 2017 05:52 EST
"Nutrient data for: 45136955, BLUE SKY, ORGANIC ROOT BEER ENCORE SODA, UPC: 042175197307"
Food Group:  Branded Food Products Database
Common Name:

Nutrient,Unit,Data points,Std. Error,"1 CAN = 354.0g",1Value per 100 g,
Proximates
"Energy",kcal,--,--,170,48
"Protein",g,--,--,0.00,0.00
"Total lipid (fat)",g,--,--,0.00,0.00
"Carbohydrate, by difference",g,--,--,43.01,12.15
"Sugars, total",g,--,--,43.01,12.15
Minerals
"Sodium, Na",mg,--,--,35,10
Vitamins
Lipids
Amino Acids
Other
Ingredients
"FILTERED CARBONATED WATER, ORGANIC CANE JUICE, NATURAL ROOT BEER FLAVOR, CARAMEL COLOR AND CITRIC ACID." Date available: 07/14/2017 Date last updated by company: 07/14/2017
