Source: USDA Branded Food Products Database Release December 2017 Software v.3.8.6.4 2017-10-02
Report Run at: December 17, 2017 04:55 EST
"Nutrient data for: 45276292, BLUEBERRIES, UPC: 041303011904"
Food Group:  Branded Food Products Database
Common Name:

Nutrient,Unit,Data points,Std. Error,"1 cup = 155.0g",1Value per 100 g,
Proximates
"Energy",kcal,--,--,70,45
"Protein",g,--,--,1.01,0.65
"Total lipid (fat)",g,--,--,1.01,0.65
"Carbohydrate, by difference",g,--,--,19.00,12.26
"Fiber, total dietary",g,--,--,4.0,2.6
"Sugars, total",g,--,--,13.00,8.39
Minerals
"Calcium, Ca",mg,--,--,12,8
"Iron, Fe",mg,--,--,0.29,0.19
"Potassium, K",mg,--,--,84,54
"Sodium, Na",mg,--,--,0,0
Vitamins
"Vitamin D",IU,--,--,0,0
Lipids
"Fatty acids, total saturated",g,--,--,0.000,0.000
"Fatty acids, total trans",g,--,--,0.000,0.000
"Cholesterol",mg,--,--,0,0
Amino Acids
Other
Ingredients
"BLUEBERRIES." Date available: 10/13/2017 Date last updated by company: 10/13/2017
