Source: USDA Branded Food Products Database Release December 2017 Software v.3.8.6.4 2017-10-02
Report Run at: December 17, 2017 05:52 EST
"Nutrient data for: 45159153, BLUE SKY TREATS, BRIGHT WORMS, UPC: 891707000109"
Food Group:  Branded Food Products Database
Common Name:

Nutrient,Unit,Data points,Std. Error,"6.0 PIECES = 42.0g",1Value per 100 g,
Proximates
"Energy",kcal,--,--,150,357
"Protein",g,--,--,2.00,4.76
"Total lipid (fat)",g,--,--,0.00,0.00
"Carbohydrate, by difference",g,--,--,34.00,80.95
"Sugars, total",g,--,--,22.00,52.38
Minerals
"Sodium, Na",mg,--,--,35,83
Vitamins
Lipids
"Fatty acids, total saturated",g,--,--,0.000,0.000
"Cholesterol",mg,--,--,0,0
Amino Acids
Other
Ingredients
"CORN SYRUP, SUCROSE, GELATIN, TARTARIC ACID, LACTIC ACID, SODIUM, MALIC ACID, FUMARIC ACID, ADIPIC ACID, SORBITOL, MODIFIED CORN STARCH, TITANIUM DIOXIDE, ARTIFICIAL AND NATURAL FLAVOR, YELLOW NO. 5, RED NO. 40, BLUE NO. 1." Date available: 07/14/2017 Date last updated by company: 07/14/2017
