Source: USDA Branded Food Products Database Release December 2017 Software v.3.8.6.4 2017-10-02
Report Run at: December 17, 2017 04:55 EST
"Nutrient data for: 45091681, BLUEBERRY AND HAZELNUT OATMEAL, UPC: 039978011848"
Food Group:  Branded Food Products Database
Common Name:

Nutrient,Unit,Data points,Std. Error,"1 CONTAINER = 71.0g",1Value per 100 g,
Proximates
"Energy",kcal,--,--,290,408
"Protein",g,--,--,7.00,9.86
"Total lipid (fat)",g,--,--,7.00,9.86
"Carbohydrate, by difference",g,--,--,49.00,69.01
"Fiber, total dietary",g,--,--,8.0,11.3
"Sugars, total",g,--,--,13.00,18.31
Minerals
"Calcium, Ca",mg,--,--,52,73
"Iron, Fe",mg,--,--,2.00,2.82
"Sodium, Na",mg,--,--,310,437
Vitamins
"Vitamin D",IU,--,--,0,0
Lipids
"Fatty acids, total saturated",g,--,--,1.001,1.410
"Fatty acids, total trans",g,--,--,0.000,0.000
"Cholesterol",mg,--,--,0,0
Amino Acids
Other
Ingredients
"GLUTEN FREE WHOLE GRAIN OATS, CANE SUGAR, HAZELNUTS, DRIED BLUEBERRIES, CHIA SEED, FLAXSEED, BLUEBERRY POWDER, SEA SALT." Date available: 09/22/2017 Date last updated by company: 09/22/2017
