Source: USDA Branded Food Products Database Release December 2017 Software v.3.8.6.4 2017-10-02
Report Run at: December 17, 2017 04:59 EST
"Nutrient data for: 45250116, BLUEBERRY POMEGRANTE, UPC: 180332000685"
Food Group:  Branded Food Products Database
Common Name:

Nutrient,Unit,Data points,Std. Error,"0.5 cup = 28.0g",1Value per 100 g,
Proximates
"Energy",kcal,--,--,140,500
"Protein",g,--,--,3.00,10.71
"Total lipid (fat)",g,--,--,9.00,32.14
"Carbohydrate, by difference",g,--,--,13.00,46.43
"Fiber, total dietary",g,--,--,1.0,3.6
"Sugars, total",g,--,--,6.00,21.43
Minerals
"Calcium, Ca",mg,--,--,20,71
"Iron, Fe",mg,--,--,1.93,6.88
"Sodium, Na",mg,--,--,90,321
Vitamins
"Vitamin C, total ascorbic acid",mg,--,--,0.0,0.0
"Vitamin A, IU",IU,--,--,0,0
Lipids
"Fatty acids, total saturated",g,--,--,1.501,5.360
"Fatty acids, total monounsaturated",g,--,--,5.001,17.860
"Fatty acids, total polyunsaturated",g,--,--,1.999,7.140
"Fatty acids, total trans",g,--,--,0.000,0.000
"Cholesterol",mg,--,--,0,0
Amino Acids
Other
Ingredients
"ORGANIC DRY ROASTED NUTS AND SEEDS (ORGANIC CASHEWS, ORGANIC ALMONDS, ORGANIC PUMPKIN SEEDS, ORGANIC SUNFLOWER SEEDS, ORGANIC FLAX SEEDS), ORGANIC RICE SYRUP, ORGANIC CANE SUGAR, ORGANIC CRISP RICE PEARLS (ORGANIC RICE FLOUR, ORGANIC SUGAR, SALT), ORGANIC ZANTE CURRANTS, SEA SALT, ORGANIC DRIED BLUEBERRIES (ORGANIC BLUEBERRIES, ORGANIC SUGAR, ORGANIC SUNFLOWER OIL), NATURAL FLAVORS, ORGANIC POMEGRANATE POWDER (ORGANIC POMEGRANATE, ORGANIC MALTODEXTRIN)." Date available: 07/14/2017 Date last updated by company: 07/14/2017
