Source: USDA Branded Food Products Database Release December 2017 Software v.3.8.6.4 2017-10-02
Report Run at: December 17, 2017 13:24 EST
"Nutrient data for: 45098244, BOAR'S HEAD BRANDS, BIANCO O'ORO, ITALIAN DRY SALAME, UPC: 042421160307"
Food Group:  Branded Food Products Database
Common Name:

Nutrient,Unit,Data points,Std. Error,"1 ONZ = 28.0g",1Value per 100 g,
Proximates
"Energy",kcal,--,--,110,393
"Protein",g,--,--,7.00,25.00
"Total lipid (fat)",g,--,--,8.00,28.57
"Carbohydrate, by difference",g,--,--,1.00,3.57
Minerals
"Calcium, Ca",mg,--,--,20,71
"Iron, Fe",mg,--,--,1.41,5.05
"Sodium, Na",mg,--,--,470,1679
Vitamins
Lipids
"Fatty acids, total saturated",g,--,--,3.500,12.500
"Fatty acids, total trans",g,--,--,0.000,0.000
"Cholesterol",mg,--,--,25,89
Amino Acids
Other
Ingredients
"PORK, SALT, LESS THAN 2% DEXTROSE, SPICES, WINE, SODIUM ASCORBATE, NATURAL FLAVORINGS, LACTIC ACID STARTER CULTURE, SODIUM NITRITE, SODIUM NITRATE." Date available: 07/14/2017 Date last updated by company: 07/14/2017
