Source: USDA Branded Food Products Database Release December 2017 Software v.3.8.6.4 2017-10-02
Report Run at: December 17, 2017 13:23 EST
"Nutrient data for: 45017700, BOAR'S HEAD, ALL NATURAL FETA CHEESE CRUMBLES, UPC: 042421059328"
Food Group:  Branded Food Products Database
Common Name:

Nutrient,Unit,Data points,Std. Error,"0.25 cup = 28.0g",1Value per 100 g,
Proximates
"Energy",kcal,--,--,60,214
"Protein",g,--,--,5.00,17.86
"Total lipid (fat)",g,--,--,4.00,14.29
"Carbohydrate, by difference",g,--,--,1.00,3.57
"Fiber, total dietary",g,--,--,0.0,0.0
"Sugars, total",g,--,--,0.00,0.00
Minerals
"Calcium, Ca",mg,--,--,60,214
"Iron, Fe",mg,--,--,0.00,0.00
"Sodium, Na",mg,--,--,370,1321
Vitamins
"Vitamin C, total ascorbic acid",mg,--,--,0.0,0.0
"Vitamin A, IU",IU,--,--,357,1275
Lipids
"Fatty acids, total saturated",g,--,--,2.500,8.930
"Fatty acids, total trans",g,--,--,0.000,0.000
"Cholesterol",mg,--,--,15,54
Amino Acids
Other
Ingredients
"PASTEURIZED MILK, SALT, CHEESE CULTURES, ENZYMES, POTATO STRACH" Date available: 06/25/2017 Date last updated by company: 06/25/2017
