Source: USDA Branded Food Products Database Release December 2017 Software v.3.8.6.4 2017-10-02
Report Run at: December 17, 2017 13:33 EST
"Nutrient data for: 45196911, BOB'S 47 OKLOBERFEST BRATWURST, UPC: 070247177469"
Food Group:  Branded Food Products Database
Common Name:

Nutrient,Unit,Data points,Std. Error,"1 GRILLED LINK = 82.0g",1Value per 100 g,
Proximates
"Energy",kcal,--,--,270,329
"Protein",g,--,--,14.00,17.07
"Total lipid (fat)",g,--,--,22.00,26.83
"Carbohydrate, by difference",g,--,--,2.00,2.44
"Fiber, total dietary",g,--,--,0.0,0.0
"Sugars, total",g,--,--,1.00,1.22
Minerals
"Calcium, Ca",mg,--,--,40,49
"Iron, Fe",mg,--,--,0.48,0.59
"Sodium, Na",mg,--,--,700,854
Vitamins
"Vitamin C, total ascorbic acid",mg,--,--,0.0,0.0
"Vitamin A, IU",IU,--,--,0,0
Lipids
"Fatty acids, total saturated",g,--,--,8.003,9.760
"Fatty acids, total trans",g,--,--,0.000,0.000
"Cholesterol",mg,--,--,60,73
Amino Acids
Other
Ingredients
"PORK, BEER, LESS THAN 2% OF THE FOLLOWING: SALT, DEXTROSE, FLAVORINGS, CORN SYRUP SOLIDS, WATER." Date available: 07/14/2017 Date last updated by company: 07/14/2017
