Source: USDA Branded Food Products Database Release December 2017 Software v.3.8.6.4 2017-10-02
Report Run at: December 17, 2017 13:31 EST
"Nutrient data for: 45170639, BOB EVANS, SAUSAGE GRAVY STUFFERS, UPC: 075900007107"
Food Group:  Branded Food Products Database
Common Name:

Nutrient,Unit,Data points,Std. Error,"1 BISCUIT = 112.0g",1Value per 100 g,
Proximates
"Energy",kcal,--,--,270,241
"Protein",g,--,--,7.00,6.25
"Total lipid (fat)",g,--,--,12.00,10.71
"Carbohydrate, by difference",g,--,--,35.00,31.25
"Fiber, total dietary",g,--,--,1.0,0.9
"Sugars, total",g,--,--,2.00,1.79
Minerals
"Calcium, Ca",mg,--,--,60,54
"Iron, Fe",mg,--,--,2.25,2.01
"Sodium, Na",mg,--,--,840,750
Vitamins
"Vitamin C, total ascorbic acid",mg,--,--,0.0,0.0
"Vitamin A, IU",IU,--,--,0,0
Lipids
"Fatty acids, total saturated",g,--,--,7.997,7.140
"Fatty acids, total trans",g,--,--,0.000,0.000
"Cholesterol",mg,--,--,4,4
Amino Acids
Other
Ingredients
"BISCUIT {BISCUIT MIX [ENRICHED FLOUR BLEACHED (WHEAT FLOUR, NIACIN, IRON, THIAMIN MONONITRATE, RIBOFLAVIN, FOLIC ACID), HYDROGENATED PALM KERNEL OIL, LEAVENING (BAKING SODA, SODIUM ALUMINUM PHOSPHATE, MONOCALCIUM PHOSPHATE), PARTIALLY HYDROGENATED SOYBEAN AND COTTONSEED OIL, SALT, BUTTERMILK, DEXTROSE, SOY FLOUR, EGG], WATER, WHEAT GLUTEN}, FILLING {WATER, GRAVY MIX [FOOD STARCH-MODIFIED, MALTODEXTRIN, ENRICHED BLEACHED FLOUR (WHEAT FLOUR, NIACIN, REDUCED IRON, THIAMIN MONONITRATE, RIBOFLAVIN, FOLIC ACID), PALM OIL, SALT, CORN SYRUP SOLIDS, PARTIALLY HYDROGENATED SOYBEAN AND/OR COTTONSEED OIL, SUGAR, CONTAINS LESS THAN 2% OF: BLACK PEPPER, BACON FAT (WITH TBHQ), SODIUM CASEINATE (A MILK DERIVATIVE), HYDROLYZED VEGETABLE PROTEIN (CORN, SOY AND/OR WHEAT), DIPOTASSIUM PHOSPHATE, MONOGLYCERIDES, AUTOLYZED YEAST EXTRACT, MONO AND DIGLYCERIDES, NATURAL AND ARTIFICIAL FLAVOR, SODIUM CITRATE, POTASSIUM CHLORIDE, CARRAGEENAN, DISODIUM GUANYLATE, DISODIUM INOSINATE, COLOR ADDED], FULLY COOKED PORK SAUSAGE CRUMBLE [PORK, WATER, SEASONING (SEA SALT, CANE SUGAR, NATURAL FLAVORINGS, SPICES), NATURAL FLAVOR], MODIFIED FOOD STARCH, WHEY PROTEIN CONCENTRATE}." Date available: 09/25/2017 Date last updated by company: 09/25/2017
