Source: USDA Branded Food Products Database Release December 2017 Software v.3.8.6.4 2017-10-02
Report Run at: December 17, 2017 13:30 EST
"Nutrient data for: 45170629, BOB EVANS, PORK SAUSAGE LINKS, ORIGINAL, UPC: 075900000740"
Food Group:  Branded Food Products Database
Common Name:

Nutrient,Unit,Data points,Std. Error,"3.0 LINKS PAN FRIED = 51.0g",1Value per 100 g,
Proximates
"Energy",kcal,--,--,140,275
"Protein",g,--,--,9.00,17.65
"Total lipid (fat)",g,--,--,11.00,21.57
"Carbohydrate, by difference",g,--,--,0.00,0.00
"Fiber, total dietary",g,--,--,0.0,0.0
"Sugars, total",g,--,--,0.00,0.00
Minerals
"Calcium, Ca",mg,--,--,0,0
"Iron, Fe",mg,--,--,0.78,1.52
"Sodium, Na",mg,--,--,320,627
Vitamins
"Vitamin C, total ascorbic acid",mg,--,--,0.0,0.0
"Vitamin A, IU",IU,--,--,0,0
Lipids
"Fatty acids, total saturated",g,--,--,4.498,8.820
"Fatty acids, total trans",g,--,--,0.000,0.000
"Cholesterol",mg,--,--,25,49
Amino Acids
Other
Ingredients
"PORK, WATER, SEASONING (SALT, CONTAINS 2% OR LESS OF EACH OF THE FOLLOWING: DEXTROSE, SPICES, FLAVORING, MONOSODIUM GLUTAMATE, MALTODEXTRIN, NATURAL FLAVOR), POTASSIUM LACTATE. FORMED IN A COLLAGEN CASING." Date available: 07/14/2017 Date last updated by company: 07/14/2017
