Source: USDA Branded Food Products Database Release December 2017 Software v.3.8.6.4 2017-10-02
Report Run at: December 17, 2017 18:52 EST
"Nutrient data for: 45021849, BOB'S RED MILL, WHOLE GRAIN MILLET GRITS, UPC: 039978003980"
Food Group:  Branded Food Products Database
Common Name:

Nutrient,Unit,Data points,Std. Error,"0.25 cup = 47.0g",1Value per 100 g,
Proximates
"Energy",kcal,--,--,180,383
"Protein",g,--,--,5.00,10.64
"Total lipid (fat)",g,--,--,2.00,4.26
"Carbohydrate, by difference",g,--,--,36.00,76.60
"Fiber, total dietary",g,--,--,3.0,6.4
"Sugars, total",g,--,--,0.00,0.00
Minerals
"Calcium, Ca",mg,--,--,0,0
"Iron, Fe",mg,--,--,1.03,2.20
"Sodium, Na",mg,--,--,0,0
Vitamins
"Vitamin C, total ascorbic acid",mg,--,--,0.0,0.0
"Vitamin A, IU",IU,--,--,0,0
Lipids
"Fatty acids, total saturated",g,--,--,0.000,0.000
"Fatty acids, total trans",g,--,--,0.000,0.000
"Cholesterol",mg,--,--,0,0
Amino Acids
Other
Ingredients
"WHOLE GRAIN MILLET." Date available: 06/25/2017 Date last updated by company: 06/25/2017
