Source: USDA Branded Food Products Database Release December 2017 Software v.3.8.6.4 2017-10-02
Report Run at: December 17, 2017 18:56 EST
"Nutrient data for: 45243269, BOHAE, BOKBUNJAWON PRIME, BLACK RASPBERRY, UPC: 8801139012368"
Food Group:  Branded Food Products Database
Common Name:

Nutrient,Unit,Data points,Std. Error,"20.0 MLT = 20.0g",1Value per 100 g,
Proximates
"Energy",kcal,--,--,55,275
"Protein",g,--,--,0.00,0.00
"Total lipid (fat)",g,--,--,0.00,0.00
"Carbohydrate, by difference",g,--,--,14.00,70.00
Minerals
"Sodium, Na",mg,--,--,12,60
Vitamins
Lipids
Amino Acids
Other
Ingredients
"BLACK RASPBERRY JUICE, CYSTALLINE FRUCTOSE, ISOMALTOOLIGOSACCHARIDE, CITRIC ACID, VITAMINC, GLYCINE, HIGH FRUCTOSE CORN SYRUP, SODIUM CITRATE, WATER." Date available: 06/25/2017 Date last updated by company: 06/25/2017
