Source: USDA Branded Food Products Database Release December 2017 Software v.3.8.6.4 2017-10-02
Report Run at: December 17, 2017 18:57 EST
"Nutrient data for: 45258431, BOILED SHRIMP POPPERS, UPC: 882639504803"
Food Group:  Branded Food Products Database
Common Name:

Nutrient,Unit,Data points,Std. Error,"2.0 - 3/4 OZ APPETIZERS = 43.0g",1Value per 100 g,
Proximates
"Energy",kcal,--,--,80,186
"Protein",g,--,--,3.00,6.98
"Total lipid (fat)",g,--,--,2.50,5.81
"Carbohydrate, by difference",g,--,--,12.00,27.91
"Fiber, total dietary",g,--,--,0.0,0.0
"Sugars, total",g,--,--,0.00,0.00
Minerals
"Calcium, Ca",mg,--,--,0,0
"Iron, Fe",mg,--,--,0.71,1.65
"Sodium, Na",mg,--,--,160,372
Vitamins
"Vitamin C, total ascorbic acid",mg,--,--,2.4,5.5
"Vitamin A, IU",IU,--,--,197,459
Lipids
"Fatty acids, total saturated",g,--,--,0.000,0.000
"Fatty acids, total trans",g,--,--,0.000,0.000
"Cholesterol",mg,--,--,10,23
Amino Acids
Other
Ingredients
"FILLING: SHELLFISH (SHRIMP, SURIMI), CORN, RICE, GARLIC, LEMON JUICE, MUSHROOMS, PARSLEY, LIQUID CRAB BOIL (WATER, POLYSORBATE 80, EXTRACTIVES OF: RED PEPPER, BAY, CLOVE, BLACK PEPPER, THYME, MARJORAM AND ARTIFICIAL SPICE FLAVORS), WHEAT, SUGAR, YEAST, SOY BEAN OIL, MODIFIED FOOD STARCH, CORN STARCH, DEHYDRATED ONION, SALT, FOOD STARCH MODIFIED, STABILIZER (CORN STARCH, METHYLCELLULOSE, EGG WHITE POWDER, XANTHAN GUM, GUAR GUM), ONION POWDER, SALT, FLAVOR (NATURAL FLAVOR, MALTODEXTRIN), SPICES. COATING: ENRICHED WHEAT FLOUR (ENRICHED WITH NIACIN, REDUCED IRON, THIAMINE, MONONITRATE, RIBOFLAVIN, FOLIC ACID), SUGAR, YEAST, SOYBEAN OIL, SALT, YELLOW CORN FLOUR, MODIFIED CORN STARCH, SALT, LEAVENING (SODIUM ACID PYROPHOSPHATE AND SODIUM BICARBONATE), AND SPICE." Date available: 10/13/2017 Date last updated by company: 10/13/2017
