Source: USDA Branded Food Products Database Release December 2017 Software v.3.8.6.4 2017-10-02
Report Run at: December 17, 2017 18:57 EST
"Nutrient data for: 45257938, BOIL-IN-BAG BROWN RICE PRECOOKED WHOLE GRAIN, UPC: 688267043994"
Food Group:  Branded Food Products Database
Common Name:

Nutrient,Unit,Data points,Std. Error,"0.5 cup = 50.0g",1Value per 100 g,
Proximates
"Energy",kcal,--,--,180,360
"Protein",g,--,--,4.00,8.00
"Total lipid (fat)",g,--,--,1.50,3.00
"Carbohydrate, by difference",g,--,--,39.00,78.00
"Fiber, total dietary",g,--,--,2.0,4.0
"Sugars, total",g,--,--,0.00,0.00
Minerals
"Calcium, Ca",mg,--,--,0,0
"Iron, Fe",mg,--,--,0.33,0.65
"Sodium, Na",mg,--,--,0,0
Vitamins
"Vitamin C, total ascorbic acid",mg,--,--,0.0,0.0
"Vitamin A, IU",IU,--,--,0,0
Lipids
"Fatty acids, total saturated",g,--,--,0.000,0.000
"Fatty acids, total trans",g,--,--,0.000,0.000
"Cholesterol",mg,--,--,0,0
Amino Acids
Other
Ingredients
"PRECOOKED PARBOILED WHOLE GRAIN BROWN RICE." Date available: 07/14/2017 Date last updated by company: 07/14/2017
