Source: USDA Branded Food Products Database Release December 2017 Software v.3.8.6.4 2017-10-02
Report Run at: December 18, 2017 02:52 EST
"Nutrient data for: 45040383, BOLLETJE, RYE BREAD, PUMPERNICKEL, UPC: 8710482001175"
Food Group:  Branded Food Products Database
Common Name:

Nutrient,Unit,Data points,Std. Error,"100.0 GRM = 100.0g",1Value per 100 g,
Proximates
"Energy",kcal,--,--,190,190
"Protein",g,--,--,4.50,4.50
"Total lipid (fat)",g,--,--,1.90,1.90
"Carbohydrate, by difference",g,--,--,35.00,35.00
Minerals
Vitamins
Lipids
Amino Acids
Other
Ingredients
"BROKEN WHOLEMEAL RYE, WATER, SALT, ACID (LACTIC ACID), WHEAT BRAN, WHEAT FLOUR." Date available: 10/13/2017 Date last updated by company: 10/13/2017
