Source: USDA Branded Food Products Database Release December 2017 Software v.3.8.6.4 2017-10-02
Report Run at: December 18, 2017 02:54 EST
"Nutrient data for: 45149644, BOMBI CRAYON, BUBBLE GUM, UPC: 758424001737"
Food Group:  Branded Food Products Database
Common Name:

Nutrient,Unit,Data points,Std. Error,"1 PIECE = 10.0g",1Value per 100 g,
Proximates
"Energy",kcal,--,--,34,340
"Protein",g,--,--,0.00,0.00
"Total lipid (fat)",g,--,--,0.00,0.00
"Carbohydrate, by difference",g,--,--,10.00,100.00
"Fiber, total dietary",g,--,--,2.0,20.0
"Sugars, total",g,--,--,9.00,90.00
Minerals
"Calcium, Ca",mg,--,--,0,0
"Iron, Fe",mg,--,--,0.00,0.00
"Sodium, Na",mg,--,--,0,0
Vitamins
"Vitamin C, total ascorbic acid",mg,--,--,0.0,0.0
"Vitamin A, IU",IU,--,--,0,0
Lipids
"Fatty acids, total saturated",g,--,--,0.000,0.000
"Cholesterol",mg,--,--,0,0
Amino Acids
Other
Ingredients
"SUGAR, GUM BASE, CORN SYRUP, DEXTROSE, STARCH, CITRIC ACID, ARTIFICIAL FLAVORS & COLORS FD&C, RED 40, BLUE 1, YELLOW 5, YELLOW 6, BHT TO MAINTAIN FRESHNESS." Date available: 07/14/2017 Date last updated by company: 07/14/2017
