Source: USDA Branded Food Products Database Release December 2017 Software v.3.8.6.4 2017-10-02
Report Run at: December 18, 2017 02:55 EST
"Nutrient data for: 45118278, BON APPETIT, POUND CAKE, UPC: 035751114263"
Food Group:  Branded Food Products Database
Common Name:

Nutrient,Unit,Data points,Std. Error,"1 SLICE = 113.0g",1Value per 100 g,
Proximates
"Energy",kcal,--,--,431,381
"Protein",g,--,--,6.00,5.31
"Total lipid (fat)",g,--,--,24.00,21.24
"Carbohydrate, by difference",g,--,--,49.00,43.36
"Fiber, total dietary",g,--,--,1.0,0.9
"Sugars, total",g,--,--,29.00,25.66
Minerals
"Calcium, Ca",mg,--,--,150,133
"Iron, Fe",mg,--,--,1.02,0.90
"Sodium, Na",mg,--,--,360,319
Vitamins
"Vitamin C, total ascorbic acid",mg,--,--,0.0,0.0
"Vitamin A, IU",IU,--,--,71,63
Lipids
"Fatty acids, total saturated",g,--,--,8.995,7.960
"Fatty acids, total trans",g,--,--,0.000,0.000
"Cholesterol",mg,--,--,80,71
Amino Acids
Other
Ingredients
"GRANULATED SUGAR, BLEACHED WHEAT FLOUR ENRICHED (NIACIN, REDUCED IRON, THIAMINE MONONITRATE, RIBOFLAVIN, MALTED BARLEY FLOUR, ASCORBIC ACID, FOLIC ACID), EGGS, PALM OIL (WITH MONO & DIGLYCERIDES, POLYSORBATE 60, CITRIC ACID ADDED AS A PRESERVATIVE), WATER, SOYBEAN OIL, EGG WHITES, INVERT SUGAR, DRY MILK, BAKING POWDER, MODIFIED FOOD STARCH, SALT, POTASSIUM SORBATE & SODIUM PROPIONATE (ADDED TO PRESERVE FRESHNESS), GLOUCONO-1, 5, LACTONE, SODIUM STEAROYL LACTYLATE, XANTHAN GUM, GUAR GUM, SALT, NATURAL & ARTIFICIAL FLAVORS, FD&C YELLOW 5, YELLOW 6." Date available: 10/09/2017 Date last updated by company: 10/09/2017
