Source: USDA Branded Food Products Database Release December 2017 Software v.3.8.6.4 2017-10-02
Report Run at: December 18, 2017 03:00 EST
"Nutrient data for: 45211599, BONELESS PORK CENTER CUT CHOPS, UPC: 085239030325"
Food Group:  Branded Food Products Database
Common Name:

Nutrient,Unit,Data points,Std. Error,"5.0 ONZ = 142.0g",1Value per 100 g,
Proximates
"Energy",kcal,--,--,210,148
"Protein",g,--,--,26.00,18.31
"Total lipid (fat)",g,--,--,10.00,7.04
"Carbohydrate, by difference",g,--,--,0.00,0.00
Minerals
"Iron, Fe",mg,--,--,0.43,0.30
"Sodium, Na",mg,--,--,361,254
Vitamins
Lipids
"Fatty acids, total saturated",g,--,--,3.493,2.460
"Cholesterol",mg,--,--,89,63
Amino Acids
Other
Ingredients
"PORK, *SOLUTION INGREDIENTS: WATER, POTASSIUM LACTATE, SODIUM PHOSPHATES, SALT, SODIUM DIACETATE." Date available: 10/18/2017 Date last updated by company: 10/18/2017
