Source: USDA Branded Food Products Database Release December 2017 Software v.3.8.6.4 2017-10-02
Report Run at: December 18, 2017 03:03 EST
"Nutrient data for: 45064955, BONITO AND EGG MULTI PURPOSE SEASONING, UPC: 074410059545"
Food Group:  Branded Food Products Database
Common Name:

Nutrient,Unit,Data points,Std. Error,"1 Tbsp = 5.0g",1Value per 100 g,
Proximates
"Energy",kcal,--,--,20,400
"Protein",g,--,--,1.00,20.00
"Total lipid (fat)",g,--,--,1.00,20.00
"Carbohydrate, by difference",g,--,--,1.00,20.00
"Fiber, total dietary",g,--,--,0.0,0.0
"Sugars, total",g,--,--,1.00,20.00
Minerals
"Calcium, Ca",mg,--,--,0,0
"Iron, Fe",mg,--,--,0.00,0.00
"Sodium, Na",mg,--,--,240,4800
Vitamins
"Vitamin C, total ascorbic acid",mg,--,--,0.0,0.0
"Vitamin A, IU",IU,--,--,0,0
Lipids
"Fatty acids, total saturated",g,--,--,0.000,0.000
"Fatty acids, total trans",g,--,--,0.000,0.000
"Cholesterol",mg,--,--,0,0
Amino Acids
Other
Ingredients
"ROASTED WHITE SESAME SEED, DRIED SHAVED BONITO, SUGAR, SALT, ROASTED BLACK SEA WEED, SOY SAUCE (WATER, SOYBEAN, WHEAT, SALT), DEHYDRATED EGG, CORNSTARCH, KELP EXTRACT, SWEET RICE WINE (RICE, DEXTROSE, SALT), YEAST EXTRACT, DRIED GREEN SEAWEED, VEGETABLE OIL, CARAMEL COLOR & B-CAROTENE." Date available: 07/14/2017 Date last updated by company: 07/14/2017
