Source: USDA Branded Food Products Database Release December 2017 Software v.3.8.6.4 2017-10-02
Report Run at: December 18, 2017 03:04 EST
"Nutrient data for: 45333067, BOO BRACELETS JEWELRY CANDY, UPC: 073563005461"
Food Group:  Branded Food Products Database
Common Name:

Nutrient,Unit,Data points,Std. Error,"1 PIECE = 12.0g",1Value per 100 g,
Proximates
"Energy",kcal,--,--,45,375
"Protein",g,--,--,0.00,0.00
"Total lipid (fat)",g,--,--,0.00,0.00
"Carbohydrate, by difference",g,--,--,11.00,91.67
"Sugars, total",g,--,--,9.00,75.00
Minerals
"Sodium, Na",mg,--,--,0,0
Vitamins
Lipids
Amino Acids
Other
Ingredients
"GLUCOSE, CITRIC ACID, ARTIFICIAL FLAVORS, MAGNESIUM STEARATE, YELLOW 5, YELLOW 6, RED 40, BLUE 1." Date available: 10/13/2017 Date last updated by company: 10/13/2017
