Source: USDA Branded Food Products Database Release December 2017 Software v.3.8.6.4 2017-10-02
Report Run at: December 18, 2017 03:05 EST
"Nutrient data for: 45022315, BOOKBINDER'S, SOUTHWEST STYLE CHIPOTLE MUSTARD, UPC: 071851800484"
Food Group:  Branded Food Products Database
Common Name:

Nutrient,Unit,Data points,Std. Error,"1 tsp = 5.0g",1Value per 100 g,
Proximates
"Energy",kcal,--,--,5,100
"Protein",g,--,--,0.00,0.00
"Total lipid (fat)",g,--,--,0.00,0.00
"Carbohydrate, by difference",g,--,--,0.00,0.00
Minerals
"Sodium, Na",mg,--,--,60,1200
Vitamins
Lipids
Amino Acids
Other
Ingredients
"DISTILLED VINEGAR, WATER, MUSTARD SEED, SUGAR, CHIPOTLE PEPPERS, SALT, DEHYDRATED RED AND GREEN BELL PEPPERS, DEHYDRATED HORSERADISH, CITRIC ACID, OLEORESIN PAPRIKA, SPICES, POTASSIUM SORBATE AND SODIUM BENZOATE ADDED AS PRESERVATIVES." Date available: 06/25/2017 Date last updated by company: 06/25/2017
