Source: USDA Branded Food Products Database Release December 2017 Software v.3.8.6.4 2017-10-02
Report Run at: December 18, 2017 03:05 EST
"Nutrient data for: 45007085, BOOKBINDER'S, SASSY CREAMY HORSERADISH SAUCE, UPC: 071851800460"
Food Group:  Branded Food Products Database
Common Name:

Nutrient,Unit,Data points,Std. Error,"1 tsp = 5.0g",1Value per 100 g,
Proximates
"Energy",kcal,--,--,15,300
"Protein",g,--,--,0.00,0.00
"Total lipid (fat)",g,--,--,1.00,20.00
"Carbohydrate, by difference",g,--,--,1.00,20.00
Minerals
"Sodium, Na",mg,--,--,40,800
Vitamins
Lipids
"Fatty acids, total trans",g,--,--,0.000,0.000
Amino Acids
Other
Ingredients
"WATER, SOYBEAN OIL, HORSERADISH, DISTILLED VINEGAR, HIGH FRUCTOSE CORN SYRUP, CORN STARCH, SUGAR, SALT, EGG YOLKS, MUSTARD FLOUR, LEMON JUICE CONCENTRATE, ARTIFICIAL FLAVORING, XANTHAN GUM, EDTA-CALCIUM DISODIUM (TO PROTECT COLOR AND FLAVOR)." Date available: 07/14/2017 Date last updated by company: 07/14/2017
