Source: USDA Branded Food Products Database Release December 2017 Software v.3.8.6.4 2017-10-02
Report Run at: December 18, 2017 03:06 EST
"Nutrient data for: 45034617, BORDEN, AMERICAN 2% MILK SINGLES, UPC: 053000006930"
Food Group:  Branded Food Products Database
Common Name:

Nutrient,Unit,Data points,Std. Error,"1 SLICE = 19.0g",1Value per 100 g,
Proximates
"Energy",kcal,--,--,45,237
"Protein",g,--,--,3.00,15.79
"Total lipid (fat)",g,--,--,3.00,15.79
"Carbohydrate, by difference",g,--,--,2.00,10.53
"Fiber, total dietary",g,--,--,0.0,0.0
"Sugars, total",g,--,--,0.00,0.00
Minerals
"Calcium, Ca",mg,--,--,300,1579
"Iron, Fe",mg,--,--,0.00,0.00
"Sodium, Na",mg,--,--,280,1474
Vitamins
"Vitamin C, total ascorbic acid",mg,--,--,0.0,0.0
"Vitamin A, IU",IU,--,--,526,2771
Lipids
"Fatty acids, total saturated",g,--,--,2.001,10.530
"Fatty acids, total trans",g,--,--,0.000,0.000
"Cholesterol",mg,--,--,10,53
Amino Acids
Other
Ingredients
"MILK, SKIM MILK, WHEY, MILK PROTEIN CONCENTRATE, BUTTERMILK, SODIUM CITRATE, CALCIUM PHOSPHATE, CONTAINS 2% OR LESS OF SALT, MALTODEXTRIN, SODIUM PHOSPHATE, LACTIC ACID, SORBIC ACID (PRESERVATIVE), XANTHAN GUM, LOCUST BEAN GUM, GUAR GUM, NATURAL FLAVOR, COLOR ADDED, CHEESE CULTURES, ENZYMES, VITAMIN A PALMITATE." Date available: 06/24/2017 Date last updated by company: 06/24/2017
