Source: USDA Branded Food Products Database Release December 2017 Software v.3.8.6.4 2017-10-02
Report Run at: December 18, 2017 03:09 EST
"Nutrient data for: 45018885, BORGIA, LONG STEM ROMAN ARTICHOKES, UPC: 023817704039"
Food Group:  Branded Food Products Database
Common Name:

Nutrient,Unit,Data points,Std. Error,"3.5 ONZ = 30.0g",1Value per 100 g,
Proximates
"Energy",kcal,--,--,27,90
"Protein",g,--,--,0.50,1.67
"Total lipid (fat)",g,--,--,2.00,6.67
"Carbohydrate, by difference",g,--,--,1.20,4.00
"Fiber, total dietary",g,--,--,1.0,3.3
"Sugars, total",g,--,--,0.10,0.33
Minerals
"Sodium, Na",mg,--,--,237,790
Vitamins
Lipids
"Fatty acids, total saturated",g,--,--,0.219,0.730
"Fatty acids, total trans",g,--,--,0.000,0.000
"Cholesterol",mg,--,--,0,0
Amino Acids
Other
Ingredients
"ARTICHOKES, SUNFLOWER SEED OIL, WINE VINEGAR, SUGAR, SALT, NATURAL FLAVORS, CITRIC ACID (ACIDITY REGULATOR), L-ASCORBIC ACID (ANTIOXIDANT)." Date available: 06/25/2017 Date last updated by company: 06/25/2017
