Source: USDA Branded Food Products Database Release December 2017 Software v.3.8.6.4 2017-10-02
Report Run at: December 18, 2017 03:10 EST
"Nutrient data for: 45195862, BORRACHO BEANS, UPC: 041220909278"
Food Group:  Branded Food Products Database
Common Name:

Nutrient,Unit,Data points,Std. Error,"0.5 cup = 130.0g",1Value per 100 g,
Proximates
"Energy",kcal,--,--,100,77
"Protein",g,--,--,5.00,3.85
"Total lipid (fat)",g,--,--,1.50,1.15
"Carbohydrate, by difference",g,--,--,15.00,11.54
"Fiber, total dietary",g,--,--,4.0,3.1
"Sugars, total",g,--,--,1.00,0.77
Minerals
"Calcium, Ca",mg,--,--,40,31
"Iron, Fe",mg,--,--,1.08,0.83
"Sodium, Na",mg,--,--,439,338
Vitamins
"Vitamin C, total ascorbic acid",mg,--,--,3.6,2.8
"Vitamin A, IU",IU,--,--,100,77
Lipids
"Fatty acids, total saturated",g,--,--,0.000,0.000
"Fatty acids, total trans",g,--,--,0.000,0.000
"Cholesterol",mg,--,--,0,0
Amino Acids
Other
Ingredients
"WATER, PINTO BEANS, SHINER BOCK BEER, ONIONS, TOMATOES, CHICKEN BROTH, JALAPENO PEPPERS CRUSHED TOMATOES, SOYBEA OIL, SALT, CILANTRO, HYDROLYZED SOY PROTEIN, GARLIC." Date available: 07/14/2017 Date last updated by company: 07/14/2017
