Source: USDA Branded Food Products Database Release December 2017 Software v.3.8.6.4 2017-10-02
Report Run at: December 18, 2017 03:10 EST
"Nutrient data for: 45114276, BORR'S HEAD, ROASTED RED PEPPER HUMMUS, UPC: 042421161625"
Food Group:  Branded Food Products Database
Common Name:

Nutrient,Unit,Data points,Std. Error,"2.0 Tbsp = 28.0g",1Value per 100 g,
Proximates
"Energy",kcal,--,--,70,250
"Protein",g,--,--,2.00,7.14
"Total lipid (fat)",g,--,--,5.00,17.86
"Carbohydrate, by difference",g,--,--,4.00,14.29
"Fiber, total dietary",g,--,--,1.0,3.6
"Sugars, total",g,--,--,1.00,3.57
Minerals
"Calcium, Ca",mg,--,--,0,0
"Iron, Fe",mg,--,--,0.64,2.29
"Potassium, K",mg,--,--,35,125
"Sodium, Na",mg,--,--,135,482
Vitamins
"Vitamin C, total ascorbic acid",mg,--,--,2.2,7.7
"Vitamin A, IU",IU,--,--,179,638
Lipids
"Fatty acids, total saturated",g,--,--,0.501,1.790
"Fatty acids, total monounsaturated",g,--,--,3.500,12.500
"Fatty acids, total polyunsaturated",g,--,--,1.000,3.570
"Fatty acids, total trans",g,--,--,0.000,0.000
"Cholesterol",mg,--,--,0,0
Amino Acids
Other
Ingredients
"STEAMED CHICKPEAS, ROASTED RED PEPPER, SESAME TAHINI (PURE CRUSHED SESAME SEEDS), SUNFLOWER OIL, OLIVE OIL, WATER, SEA SALT, CITRIC ACID, GUAR GUM, PAPRIKA. TOPPING: ROASTED RED PEPPERS, (WATER, SALT, CITRIC ACID), WHITE VINEGAR, GARLIC ORGANIC SUGAR, BASIL, SEA SALT, GUAR GUM." Date available: 06/25/2017 Date last updated by company: 06/25/2017
