Source: USDA Branded Food Products Database Release December 2017 Software v.3.8.6.4 2017-10-02
Report Run at: December 18, 2017 03:10 EST
"Nutrient data for: 45096721, BOSCOLI FAMILY, JALAPENO OLIVE SALAD, UPC: 760661124568"
Food Group:  Branded Food Products Database
Common Name:

Nutrient,Unit,Data points,Std. Error,"1 Tbsp = 25.0g",1Value per 100 g,
Proximates
"Energy",kcal,--,--,70,280
"Protein",g,--,--,0.00,0.00
"Total lipid (fat)",g,--,--,6.00,24.00
"Carbohydrate, by difference",g,--,--,5.00,20.00
"Fiber, total dietary",g,--,--,1.0,4.0
"Sugars, total",g,--,--,0.00,0.00
Minerals
"Calcium, Ca",mg,--,--,0,0
"Iron, Fe",mg,--,--,0.00,0.00
"Sodium, Na",mg,--,--,290,1160
Vitamins
"Vitamin C, total ascorbic acid",mg,--,--,0.0,0.0
"Vitamin A, IU",IU,--,--,600,2400
Lipids
"Fatty acids, total saturated",g,--,--,1.000,4.000
"Fatty acids, total trans",g,--,--,0.000,0.000
"Cholesterol",mg,--,--,0,0
Amino Acids
Other
Ingredients
"OLIVES, CANOLA OIL, EXTRA VIRGIN OIL, CAULIFLOWER, CARROTS, CELERY, SWEET PEPPERS, JALAPENO PEPPERS, SLICED BLACK OLIVES, CAPERS AND OTHER SPICES." Date available: 06/25/2017 Date last updated by company: 06/25/2017
