Source: USDA Branded Food Products Database Release December 2017 Software v.3.8.6.4 2017-10-02
Report Run at: December 18, 2017 03:12 EST
"Nutrient data for: 45109395, BOSTON MARKET, CHICKEN POT PIE, UPC: 738912022482"
Food Group:  Branded Food Products Database
Common Name:

Nutrient,Unit,Data points,Std. Error,"1 cup = 190.0g",1Value per 100 g,
Proximates
"Energy",kcal,--,--,450,237
"Protein",g,--,--,9.99,5.26
"Total lipid (fat)",g,--,--,30.00,15.79
"Carbohydrate, by difference",g,--,--,35.00,18.42
"Fiber, total dietary",g,--,--,2.1,1.1
"Sugars, total",g,--,--,4.01,2.11
Minerals
"Calcium, Ca",mg,--,--,21,11
"Iron, Fe",mg,--,--,2.32,1.22
"Sodium, Na",mg,--,--,680,358
Vitamins
"Vitamin C, total ascorbic acid",mg,--,--,1.5,0.8
"Vitamin A, IU",IU,--,--,644,339
Lipids
"Fatty acids, total saturated",g,--,--,12.996,6.840
"Fatty acids, total trans",g,--,--,1.007,0.530
"Cholesterol",mg,--,--,15,8
Amino Acids
Other
Ingredients
"FILLING: WATER, MARINATED COOKED WHITE CHICKEN (CHICKEN BREAST WITH RIB MEAT, WATER, SALT, CARRAGEENAN, SODIUM PHOSPHATES), CARROTS, GRAVY MIX (MODIFIED FOOD STARCH, WHEAT FLOUR [WHEAT FLOUR, NIACIN, REDUCED IRON, THIAMINE MONONITRATE, RIBOFLAVIN, ENZYME, FOLIC ACID], CREAM SAUCE BASE [COCONUT OIL, CORN SYRUP SOLIDS, SODIUM CASEINATE, MONO AND DIGLYCERIDES, DIPOTASSIUM PHOSPHATE], SWEET WHEY, SALT, YEAST EXTRACT, CHICKEN FAT, XANTHAN GUM, SUGAR, CHICKEN BROTH POWDER, DISODIUM INOSINATE AND DISODIUM GUANYLATE, ONION POWDER, GARLIC POWDER, NATURAL FLAVOR, SPICES, TURMERIC [COLOR]), CORN, PEAS, ONION, CELERY. CRUST: BLEACHED ENRICHED WHEAT FLOUR (WHEAT FLOUR, NIACIN, REDUCED IRON, THIAMINE MONONITRATE, RIBOFLAVIN, FOLIC ACID), SHORTENING (SOYBEAN OIL, HYDROGENATED SOYBEAN OIL), WATER, DOUGH CONDITIONER (WHEAT FLOUR, DEXTROSE, CORN STARCH,S ALT, SODIUM PROPIONATE [PRESERVATIVE], 2% OR LESS OF SODIUM ALUMINOSILICATE, SODIUM METABISULFITE), DEXTROSE, SALT, SODIUM BICARBONATE." Date available: 07/14/2017 Date last updated by company: 07/14/2017
