Source: USDA Branded Food Products Database Release December 2017 Software v.3.8.6.4 2017-10-02
Report Run at: December 18, 2017 03:12 EST
"Nutrient data for: 45111077, BOSTON MARKET, CHICKEN PARMESAN, UPC: 738912022321"
Food Group:  Branded Food Products Database
Common Name:

Nutrient,Unit,Data points,Std. Error,"1 PACKAGE = 371.0g",1Value per 100 g,
Proximates
"Energy",kcal,--,--,419,113
"Protein",g,--,--,20.00,5.39
"Total lipid (fat)",g,--,--,10.98,2.96
"Carbohydrate, by difference",g,--,--,60.99,16.44
"Fiber, total dietary",g,--,--,4.8,1.3
"Sugars, total",g,--,--,10.98,2.96
Minerals
"Calcium, Ca",mg,--,--,148,40
"Iron, Fe",mg,--,--,1.89,0.51
"Sodium, Na",mg,--,--,790,213
Vitamins
"Vitamin C, total ascorbic acid",mg,--,--,6.3,1.7
"Vitamin A, IU",IU,--,--,393,106
Lipids
"Fatty acids, total saturated",g,--,--,3.005,0.810
"Fatty acids, total trans",g,--,--,0.000,0.000
"Cholesterol",mg,--,--,30,8
Amino Acids
Other
Ingredients
"COOKED ENRICHED MACARONI PRODUCT (WATER, DURUM SEMOLINA [ENRICHED WITH NIACIN, FERROUS SULFATE, THIAMINE MONONITRATE, RIBOFLAVIN, FOLIC ACID]), WATER, COOKED BREADED CHICKEN BREAST PATTY WITH RIB MEAT (CHICKEN BREAST WITH RIB MEAT, WATER, ENRICHED WHEAT FLOUR [WHEAT FLOUR, WHEAT STARCH, NIACIN, REDUCED IRON, THIAMINE MONONITRATE, RIBOFLAVIN, FOLIC ACID], ENRICHED BLEACHED WHEAT FLOUR [WHEAT FLOUR, WHEAT STARCH, NIACIN, REDUCED IRON, THIAMINE MONONITRATE, RIBOFLAVIN, FOLIC ACID], CONTAINS 2% OR LESS OF ISOLATED SOY PROTEIN, SALT, CORN STARCH, DEXTROSE, MODIFIED FOOD STARCH, TAPIOCA DEXTRIN, WHEAT GLUTEN, SODIUM PHOSPHATE, SEASONING [YEAST EXTRACT, SALT, SOY SAUCE SOLIDS {SOYBEANS, WHEAT, SALT}, SUGAR, MALTODEXTRIN, CHICKEN POWDER, FLAVOR, VEGETABLE OIL, CHICKEN BROTH, TAPIOCA STARCH, THIAMINE HYDROCHLORIDE, LACTIC ACID, CITRIC ACID, CHICKEN FAT], SOYBEAN OIL, GARLIC POWDER, SPICE, MODIFIED CORN STARCH, LEAVENING [SODIUM ALUMINUM PHOSPHATE, SODIUM BICARBONATE], SODIUM BICARBONATE, EXTRACTIVES OF PAPRIKA, YEAST, MALT SYRUP), DICED TOMATOES (TOMATOES, TOMATO JUICE, CALCIUM CHLORIDE, CITRIC ACID), TOMATO PASTE, LOW MOISTURE PART SKIM MOZZARELLA CHEESE (CHEESE [CULTURED PASTEURIZED PART SKIM MILK, SALT, ENZYMES], MODIFIED FOOD STARCH), LESS THAN 2% OF ONIONS, SUGAR, GARLIC (WITH WATER AND CITRIC ACID), CANOLA OIL, BURGUNDY WINE (WINE, SALT), GRATED CHEESE BLEND (PARMESAN, ROMANO AND ASIAGO CHEESES [CULTURED COW'S MILK, SALT, ENZYMES], NATURAL FLAVOR, CELLULOSE, SALT), GRANULATED GARLIC, TOMATO POWDER (DEHYDRATED TOMATO PASTE), SALT, TOMATO PASTE FLAVOR (NATURAL FLAVOR, MALTODEXTRIN, GUM ARABIC, PROPYLENE GLYCOL, CORN STARCH), SPICES, TOASTED ONION POWDER, MODIFIED FOOD STARCH, XANTHAN GUM." Date available: 07/14/2017 Date last updated by company: 07/14/2017
