Source: USDA Branded Food Products Database Release December 2017 Software v.3.8.6.4 2017-10-02
Report Run at: December 18, 2017 03:12 EST
"Nutrient data for: 45109628, BOSTON MARKET, CHICKEN WITH BBQ SAUCE, UPC: 738912022543"
Food Group:  Branded Food Products Database
Common Name:

Nutrient,Unit,Data points,Std. Error,"1 PACKAGE = 383.0g",1Value per 100 g,
Proximates
"Energy",kcal,--,--,372,97
"Protein",g,--,--,19.99,5.22
"Total lipid (fat)",g,--,--,6.01,1.57
"Carbohydrate, by difference",g,--,--,58.98,15.40
"Fiber, total dietary",g,--,--,3.1,0.8
"Sugars, total",g,--,--,27.00,7.05
Minerals
"Calcium, Ca",mg,--,--,61,16
"Iron, Fe",mg,--,--,0.73,0.19
"Sodium, Na",mg,--,--,1298,339
Vitamins
"Vitamin C, total ascorbic acid",mg,--,--,7.7,2.0
"Vitamin A, IU",IU,--,--,253,66
Lipids
"Fatty acids, total saturated",g,--,--,1.494,0.390
"Fatty acids, total trans",g,--,--,0.000,0.000
"Cholesterol",mg,--,--,54,14
Amino Acids
Other
Ingredients
"WATER, COOKED GLAZED ROTISSERIE SEASONED WHITE CHICKEN (BONELESS SKINLESS WHITE CHICKEN, WATER, SEASONING [SALT, SUGAR, MALTODEXTRIN, FLAVORINGS, MODIFIED FOOD STARCH, CHICKEN BROTH, AUTOLYZED YEAST, SOY LECITHIN], SEASONING [SODIUM PHOSPHATE, SALT, CORN SYRUP SOLIDS, SUGAR, MODIFIED FOOD STARCH, SOY LECITHIN, ALGIN, SODIUM CITRATE, XANTHAN GUM]. GLAZED WITH: WATER, APPLE CIDER VINEGAR, SEASONING [SORBITOL, SUGAR, GARLIC POWDER, XANTHAN GUM, NATURAL FLAVOR], SEASONING [CORN SYRUP SOLIDS, MODIFIED CORN STARCH, METHYLCELLULOSE, GLYCINE, SALT, SOY LECITHIN, XANTHAN GUM]), POTATO FLAKES AND GRANULES (POTATOES, MONO AND DIGLYCERIDES, SODIUM ACID PYROPHOSPHATE, CITRIC ACID, FRESHNESS PRESERVED WITH SODIUM BISULFITE, BHA AND BHT), DARK BROWN SUGAR, TOMATO PASTE, MOLASSES, LESS THAN 2% OF DISTILLED WHITE VINEGAR, MILK SOLIDS (CREAM, MILKFAT, NONFAT MILK), MODIFIED FOOD STARCH, SALT, CANOLA OIL, NATURAL SMOKE FLAVOR, GRANULATED GARLIC, PAPRIKA, MUSTARD FLOUR, SPICE, GRANULATED ONION, CHILI POWDER (CHILI PEPPERS, SPICES, SALT, GARLIC POWDER), XANTHAN GUM." Date available: 09/28/2017 Date last updated by company: 09/28/2017
