Source: USDA Branded Food Products Database Release December 2017 Software v.3.8.6.4 2017-10-02
Report Run at: December 18, 2017 03:14 EST
"Nutrient data for: 45320373, BOTTLE CAPS, SODA POP CANDY, ROOT BEER, CHERRY, COLA, ORANGE, GRAPE, UPC: 079200000660"
Food Group:  Branded Food Products Database
Common Name:

Nutrient,Unit,Data points,Std. Error,"8.0 PIECES = 15.0g",1Value per 100 g,
Proximates
"Energy",kcal,--,--,60,400
"Protein",g,--,--,0.00,0.00
"Total lipid (fat)",g,--,--,0.00,0.00
"Carbohydrate, by difference",g,--,--,14.00,93.33
"Sugars, total",g,--,--,13.00,86.67
Minerals
"Sodium, Na",mg,--,--,0,0
Vitamins
Lipids
Amino Acids
Other
Ingredients
"DEXTROSE, MALTODEXTRIN, AND LESS THAN 2% OF CALCIUM STEARATE, MALIC ACID, NATURAL FLAVORS, ANNATTO EXTRACT COLOR, CARAMEL COLOR, VEGETABLE JUICE COLOR, BLUE 1 LAKE, BLUE 2 LAKE, RED 40 LAKE, YELLOW 5 LAKE, YELLOW 6 LAKE." Date available: 07/14/2017 Date last updated by company: 07/14/2017
