Source: USDA Branded Food Products Database Release December 2017 Software v.3.8.6.4 2017-10-02
Report Run at: December 18, 2017 03:15 EST
"Nutrient data for: 45179350, BOUILLON CUBES, UPC: 741643036475"
Food Group:  Branded Food Products Database
Common Name:

Nutrient,Unit,Data points,Std. Error,"1 CUBE = 3.7g",1Value per 100 g,
Proximates
"Energy",kcal,--,--,5,135
"Protein",g,--,--,0.00,0.00
"Total lipid (fat)",g,--,--,0.00,0.00
"Carbohydrate, by difference",g,--,--,1.00,27.03
"Fiber, total dietary",g,--,--,0.0,0.0
"Sugars, total",g,--,--,1.00,27.03
Minerals
"Calcium, Ca",mg,--,--,0,0
"Iron, Fe",mg,--,--,0.00,0.00
"Sodium, Na",mg,--,--,890,24054
Vitamins
"Vitamin C, total ascorbic acid",mg,--,--,0.0,0.0
"Vitamin A, IU",IU,--,--,0,0
Lipids
"Fatty acids, total saturated",g,--,--,0.000,0.000
"Fatty acids, total trans",g,--,--,0.000,0.000
"Cholesterol",mg,--,--,0,0
Amino Acids
Other
Ingredients
"SALT, SUGAR, CORN SYRUP SOLIDS, HYDROLYZED CORN PROTEIN, CHICKEN*, MONOSODIUM GLUTAMATE, SODIUM BICARBONATE, CONTAINS LESS THAN 2% OF: SILICON DIOXIDE, ONION POWDER, YEAST EXTRACT, DISODIUM INOSINATE AND DISODIUM GUANYLATE, MALTODEXTRIN, GARLIC POWDER, CARAMEL COLOR, TURMERIC (FOR COLOR), SPICE, WATER, CHICKEN FAT, CHICKEN BROTH*, SOYBEAN OIL, NATURAL AND ARTIFICIAL FLAVOR, DRIED YEAST, SOY SAUCE (WHEAT, SOYBEANS, AND SALT), THIAMINE HYDROCHLORIDE (FLAVOR ENHANCER)." Date available: 07/14/2017 Date last updated by company: 07/14/2017
