Source: USDA Branded Food Products Database Release December 2017 Software v.3.8.6.4 2017-10-02
Report Run at: December 18, 2017 03:19 EST
"Nutrient data for: 45330831, BOURBON STEAK, UPC: 078742249445"
Food Group:  Branded Food Products Database
Common Name:

Nutrient,Unit,Data points,Std. Error,"1 TRAY = 368.0g",1Value per 100 g,
Proximates
"Energy",kcal,--,--,372,101
"Protein",g,--,--,23.99,6.52
"Total lipid (fat)",g,--,--,12.00,3.26
"Carbohydrate, by difference",g,--,--,40.00,10.87
"Fiber, total dietary",g,--,--,5.9,1.6
"Sugars, total",g,--,--,17.00,4.62
Minerals
"Calcium, Ca",mg,--,--,88,24
"Iron, Fe",mg,--,--,1.99,0.54
"Potassium, K",mg,--,--,751,204
"Sodium, Na",mg,--,--,990,269
Vitamins
Lipids
"Fatty acids, total saturated",g,--,--,5.998,1.630
"Fatty acids, total trans",g,--,--,0.000,0.000
"Cholesterol",mg,--,--,29,8
Amino Acids
Other
Ingredients
"WATER, ROASTED SEASONED PRIME RIB BEEF STEAK AND MODIFIED FOOD STARCH PRODUCT (BEEF, BEEF BROTH, CONTAINS LESS THAN 2% MODIFIED CORNSTARCH, SALT, SEASONING [TURBINADO SUGAR, SODIUM CARBONATE, SEA SALT, FLAVOR], DEXTROSE, CORN SYRUP SOLIDS, CARAMEL COLOR, SPICE EXTRACTIVES), SWEET POTATOES, BROCCOLI, RED BELL PEPPER, POTATOES, BROWN SUGAR, CREAM, ONION, TOMATO PASTE, BEEF STOCK, SALTED BOURBON (BOURBON, SALT), CHIPOTLE PUREE (CHIPOTLE PEPPER, WATER, SALT, VINEGAR), BEEF BASE (BEEF BROTH [CONTAINS NATURAL FLAVOR], SALT, HYDROLYZED SOY PROTEIN, CORNSTARCH), CORNSTARCH, BUTTER, GARLIC (GARLIC, WATER), WORCESTERSHIRE SAUCE (DISTILLED WHITE VINEGAR, MOLASSES, SUGAR, WATER, SALT, ONIONS, ANCHOVIES, GARLIC, CLOVES, TAMARIND EXTRACT, NATURAL FLAVORINGS, CHILI PEPPER EXTRACT), FRUIT JUICE (COLOR), SPICE." Date available: 10/13/2017 Date last updated by company: 10/13/2017
