Source: USDA Branded Food Products Database Release December 2017 Software v.3.8.6.4 2017-10-02
Report Run at: December 18, 2017 03:22 EST
"Nutrient data for: 45240008, BOYLAN BOTTLING CO, CANE SUGAR SODA, BLACK CHERRY, UPC: 760712040014"
Food Group:  Branded Food Products Database
Common Name:

Nutrient,Unit,Data points,Std. Error,"1 BOTTLE = 355.0g",1Value per 100 g,
Proximates
"Energy",kcal,--,--,170,48
"Protein",g,--,--,0.00,0.00
"Total lipid (fat)",g,--,--,0.00,0.00
"Carbohydrate, by difference",g,--,--,42.00,11.83
"Fiber, total dietary",g,--,--,0.0,0.0
"Sugars, total",g,--,--,42.00,11.83
Minerals
"Sodium, Na",mg,--,--,0,0
Vitamins
Lipids
"Fatty acids, total saturated",g,--,--,0.000,0.000
"Fatty acids, total trans",g,--,--,0.000,0.000
"Cholesterol",mg,--,--,0,0
Amino Acids
Other
Ingredients
"CARBONATED WATER, CANE SUGAR, CITRIC ACID, CARAMEL COLOR, NATURAL BLACK CHERRY FLAVORS, FRUIT AND VEGETABLE JUICES FOR COLOR." Date available: 06/25/2017 Date last updated by company: 06/25/2017
