Source: USDA Branded Food Products Database Release December 2017 Software v.3.8.6.4 2017-10-02
Report Run at: December 18, 2017 03:22 EST
"Nutrient data for: 45213884, BOYSENBERRY PIE, UPC: 041144779650"
Food Group:  Branded Food Products Database
Common Name:

Nutrient,Unit,Data points,Std. Error,"0.125 PIE = 135.0g",1Value per 100 g,
Proximates
"Energy",kcal,--,--,350,259
"Protein",g,--,--,3.00,2.22
"Total lipid (fat)",g,--,--,16.00,11.85
"Carbohydrate, by difference",g,--,--,50.00,37.04
"Fiber, total dietary",g,--,--,4.0,3.0
"Sugars, total",g,--,--,22.00,16.30
Minerals
"Calcium, Ca",mg,--,--,20,15
"Iron, Fe",mg,--,--,0.66,0.49
"Sodium, Na",mg,--,--,470,348
Vitamins
"Vitamin C, total ascorbic acid",mg,--,--,0.0,0.0
"Vitamin A, IU",IU,--,--,93,69
Lipids
"Fatty acids, total saturated",g,--,--,7.007,5.190
"Fatty acids, total trans",g,--,--,0.000,0.000
"Cholesterol",mg,--,--,0,0
Amino Acids
Other
Ingredients
"BOYSENBERRIES, WHEAT FLOUR, SUGAR, PALM OIL, SOYBEAN OIL, WATER, MODIFIED TAPIOCA STARCH, MARGARINE, WATER, SALT, WHEY (MILK), MONO-AND DIGLYCERIDES, SOY LECITHIN, NATURAL FLAVOR, BETACAROTENE COLOR, VITAMIN A PALMITATE, DEXTROSE, CITRIC ACID AND ERYTHORBIC ACID." Date available: 07/14/2017 Date last updated by company: 07/14/2017
