Source: USDA Branded Food Products Database Release December 2017 Software v.3.8.6.4 2017-10-02
Report Run at: December 18, 2017 03:27 EST
"Nutrient data for: 45173824, BRACH'S, STAR BRITES PEPPERMINT CANDY, UPC: 041420112010"
Food Group:  Branded Food Products Database
Common Name:

Nutrient,Unit,Data points,Std. Error,"3.0 PIECES = 15.0g",1Value per 100 g,
Proximates
"Energy",kcal,--,--,60,400
"Protein",g,--,--,0.00,0.00
"Total lipid (fat)",g,--,--,0.00,0.00
"Carbohydrate, by difference",g,--,--,15.00,100.00
"Sugars, total",g,--,--,10.00,66.67
Minerals
"Sodium, Na",mg,--,--,0,0
Vitamins
Lipids
Amino Acids
Other
Ingredients
"CORN SYRUP, SUGAR, TITANIUM DIOXIDE [COLOR],PEPPERMINT OIL, RED 40, RED 3, BLUE 1, YELLOW 6." Date available: 07/14/2017 Date last updated by company: 07/14/2017
