Source: USDA Branded Food Products Database Release December 2017 Software v.3.8.6.4 2017-10-02
Report Run at: December 18, 2017 03:25 EST
"Nutrient data for: 45276525, BRACH'S JELLY BEANS & 4 STICKERS, UPC: 768395506162"
Food Group:  Branded Food Products Database
Common Name:

Nutrient,Unit,Data points,Std. Error,"28.0 PIECES = 40.0g",1Value per 100 g,
Proximates
"Energy",kcal,--,--,140,350
"Protein",g,--,--,0.00,0.00
"Total lipid (fat)",g,--,--,0.00,0.00
"Carbohydrate, by difference",g,--,--,37.00,92.50
"Sugars, total",g,--,--,29.00,72.50
Minerals
"Sodium, Na",mg,--,--,0,0
Vitamins
Lipids
Amino Acids
Other
Ingredients
"SUGAR, CORN SYRUP, MODIFIED FOOD STARCH (CORN), ACACIA (GUM ARABIC), CONFECTIONER'S GLAZE (SHELLAC), NATURAL AND ARTIFICIAL FLAVORS, CARNAUBA WAX, RED 40, YELLOW 5, YELLOW 6, BLUE 1, WHITE MINERAL OIL." Date available: 07/14/2017 Date last updated by company: 07/14/2017
