Source: USDA Branded Food Products Database Release December 2017 Software v.3.8.6.4 2017-10-02
Report Run at: December 18, 2017 03:23 EST
"Nutrient data for: 45163854, BRACH'S, CARAMELS, CHERRY VANILLA, UPC: 041420020124"
Food Group:  Branded Food Products Database
Common Name:

Nutrient,Unit,Data points,Std. Error,"5.0 PIECES = 41.0g",1Value per 100 g,
Proximates
"Energy",kcal,--,--,160,390
"Protein",g,--,--,0.00,0.00
"Total lipid (fat)",g,--,--,3.00,7.32
"Carbohydrate, by difference",g,--,--,34.00,82.93
"Sugars, total",g,--,--,22.00,53.66
Minerals
"Sodium, Na",mg,--,--,70,171
Vitamins
Lipids
"Fatty acids, total saturated",g,--,--,3.001,7.320
Amino Acids
Other
Ingredients
"CORN SYRUP, SUGAR, HYDROGENATED PALM KERNEL OIL, NATURAL AND ARTIFICIAL FLAVORS, SALT, MODIFIED FOOD STARCH (CORN), RED 40, ENZYME MODIFIED SOY PROTEIN, EGG WHITES, WHITE MINERAL OIL, SOY LECITHIN, RED 3, BLUE 1, YELLOW 6." Date available: 10/13/2017 Date last updated by company: 10/13/2017
