Source: USDA Branded Food Products Database Release December 2017 Software v.3.8.6.4 2017-10-02
Report Run at: December 18, 2017 03:28 EST
"Nutrient data for: 45149922, BRAD'S, RAW CRUNCHY KALE NASTY HOT SUNFLOWER SEED & CASHEW VEGAN CHEEZE, UPC: 813104020030"
Food Group:  Branded Food Products Database
Common Name:

Nutrient,Unit,Data points,Std. Error,"1 ONZ = 28.0g",1Value per 100 g,
Proximates
"Energy",kcal,--,--,134,479
"Protein",g,--,--,5.00,17.86
"Total lipid (fat)",g,--,--,9.00,32.14
"Carbohydrate, by difference",g,--,--,12.00,42.86
"Fiber, total dietary",g,--,--,2.0,7.1
"Sugars, total",g,--,--,1.00,3.57
Minerals
"Calcium, Ca",mg,--,--,90,321
"Iron, Fe",mg,--,--,3.54,12.63
"Sodium, Na",mg,--,--,147,525
Vitamins
"Vitamin C, total ascorbic acid",mg,--,--,133.9,478.3
"Vitamin A, IU",IU,--,--,16965,60588
Lipids
"Fatty acids, total saturated",g,--,--,1.000,3.570
"Fatty acids, total trans",g,--,--,0.000,0.000
"Cholesterol",mg,--,--,0,0
Amino Acids
Other
Ingredients
"**KALE, **RED BELL PEPPERS, **SUNFLOWER SEEDS, **CASHEWS, **LEMON JUICE, **CHICKPEA MISO (RICE, CHICKPEAS, SEA SALT, WATER, KOJI SPORES (ASPERGILLUS ORYZAE)), HIMALAYAN SALT, **JALAPENO POWDER, **CAYENNE POWDER" Date available: 07/14/2017 Date last updated by company: 07/14/2017
