Source: USDA Branded Food Products Database Release December 2017 Software v.3.8.6.4 2017-10-02
Report Run at: December 18, 2017 03:31 EST
"Nutrient data for: 45216106, BRANDED CHICKEN & BEEF HOT LINKS, UPC: 029599005579"
Food Group:  Branded Food Products Database
Common Name:

Nutrient,Unit,Data points,Std. Error,"1 LINK = 91.0g",1Value per 100 g,
Proximates
"Energy",kcal,--,--,260,286
"Protein",g,--,--,10.00,10.99
"Total lipid (fat)",g,--,--,22.00,24.18
"Carbohydrate, by difference",g,--,--,5.00,5.49
"Fiber, total dietary",g,--,--,0.0,0.0
"Sugars, total",g,--,--,2.00,2.20
Minerals
"Calcium, Ca",mg,--,--,60,66
"Iron, Fe",mg,--,--,0.66,0.72
"Sodium, Na",mg,--,--,810,890
Vitamins
"Vitamin C, total ascorbic acid",mg,--,--,0.7,0.8
"Vitamin A, IU",IU,--,--,60,66
Lipids
"Fatty acids, total saturated",g,--,--,7.999,8.790
"Fatty acids, total trans",g,--,--,0.000,0.000
"Cholesterol",mg,--,--,85,93
Amino Acids
Other
Ingredients
"MECHANICALLY SEPARATED CHICKEN, BEEF, WATER, SOY PROTEIN CONCENTRATE & 2% OR LESS OF SALT, CORN SYRUP SOLIDS, FLAVORINGS AND COLORING, DEXTROSE, SUGAR, SODIUM PHOSPHATE, SODIUM ERYTHORBATE, AUTOLYZED YEAST EXTRACT, SODIUM NITRITE, CEREAL (GROUND CORN, WHEAT, RYE, OATS & RICE)." Date available: 07/14/2017 Date last updated by company: 07/14/2017
