Source: USDA Branded Food Products Database Release December 2017 Software v.3.8.6.4 2017-10-02
Report Run at: December 18, 2017 03:35 EST
"Nutrient data for: 45198789, BRATWURST WITH PEPPERED JERKY, UPC: 079228300117"
Food Group:  Branded Food Products Database
Common Name:

Nutrient,Unit,Data points,Std. Error,"1 SAUSAGA = 85.0g",1Value per 100 g,
Proximates
"Energy",kcal,--,--,240,282
"Protein",g,--,--,12.00,14.12
"Total lipid (fat)",g,--,--,20.00,23.53
"Carbohydrate, by difference",g,--,--,2.00,2.35
"Fiber, total dietary",g,--,--,0.0,0.0
"Sugars, total",g,--,--,1.00,1.18
Minerals
"Calcium, Ca",mg,--,--,20,24
"Iron, Fe",mg,--,--,0.70,0.82
"Sodium, Na",mg,--,--,870,1024
Vitamins
"Vitamin C, total ascorbic acid",mg,--,--,0.0,0.0
"Vitamin A, IU",IU,--,--,65,76
Lipids
"Fatty acids, total saturated",g,--,--,7.004,8.240
"Fatty acids, total trans",g,--,--,0.000,0.000
"Cholesterol",mg,--,--,55,65
Amino Acids
Other
Ingredients
"PORK, WATER, BEEF, JERKY (SLICED BEEF, BROWN SUGAR, WATER, SALT, PAPAYA JUICE, BLACK PEPPER, VINEGAR, GARLIC POWDER, NATURAL SMOKE FLAVOR, SODIUM NITRITE, MONOSODIUM GLUTAMATE, CITRIC ACID) WITH 2% OR LESS OF THE FOLLOWING: SALT, FLAVORING, BROWN SUGAR, PAPRIKA, SODIUM PHOSPHATE, DEHYDRATED GARLIC, SODIUM ERYTHORBATE, SODIUM NITRITE, BEEF COLLAGEN CASING." Date available: 07/14/2017 Date last updated by company: 07/14/2017
