Source: USDA Branded Food Products Database Release December 2017 Software v.3.8.6.4 2017-10-02
Report Run at: December 18, 2017 03:51 EST
"Nutrient data for: 45230231, BREAD, UPC: 681131136235"
Food Group:  Branded Food Products Database
Common Name:

Nutrient,Unit,Data points,Std. Error,"1 """" SLICE = 48.0g",1Value per 100 g,
Proximates
"Energy",kcal,--,--,150,312
"Protein",g,--,--,5.00,10.42
"Total lipid (fat)",g,--,--,1.00,2.08
"Carbohydrate, by difference",g,--,--,31.00,64.58
"Fiber, total dietary",g,--,--,1.0,2.1
"Sugars, total",g,--,--,0.00,0.00
Minerals
"Calcium, Ca",mg,--,--,20,42
"Iron, Fe",mg,--,--,1.88,3.91
"Potassium, K",mg,--,--,70,146
"Sodium, Na",mg,--,--,320,667
Vitamins
"Vitamin C, total ascorbic acid",mg,--,--,2.5,5.2
"Vitamin A, IU",IU,--,--,0,0
Lipids
"Fatty acids, total saturated",g,--,--,0.000,0.000
"Fatty acids, total monounsaturated",g,--,--,0.000,0.000
"Fatty acids, total polyunsaturated",g,--,--,0.000,0.000
"Fatty acids, total trans",g,--,--,0.000,0.000
"Cholesterol",mg,--,--,0,0
Amino Acids
Other
Ingredients
"ENRICHED FLOUR (WHEAT FLOUR, NIACIN, REDUCED IRON, ASCORBIC ACID ADDED AS A DOUGH CONDITIONER, THIAMINE MONONITRATE, RIBOFLAVIN, ENZYME, FOLIC ACID), WATER, GARLIC (GARLIC, CANOLA OIL), SALT, SEMOLINA, YEAST, NATURAL FLAVOR, GARLIC POWDER, ASCORBIC ACID, ENZYMES." Date available: 07/14/2017 Date last updated by company: 07/14/2017
