Source: USDA Branded Food Products Database Release December 2017 Software v.3.8.6.4 2017-10-02
Report Run at: December 18, 2017 03:56 EST
"Nutrient data for: 45047970, BREAKFAST PORK HAM, UPC: 074854356620"
Food Group:  Branded Food Products Database
Common Name:

Nutrient,Unit,Data points,Std. Error,"2.0 ONZ = 56.0g",1Value per 100 g,
Proximates
"Energy",kcal,--,--,70,125
"Protein",g,--,--,8.00,14.29
"Total lipid (fat)",g,--,--,3.00,5.36
"Carbohydrate, by difference",g,--,--,1.00,1.79
"Fiber, total dietary",g,--,--,0.2,0.4
"Sugars, total",g,--,--,0.00,0.00
Minerals
"Calcium, Ca",mg,--,--,0,0
"Iron, Fe",mg,--,--,0.71,1.26
"Sodium, Na",mg,--,--,410,732
Vitamins
"Vitamin C, total ascorbic acid",mg,--,--,0.0,0.0
"Vitamin A, IU",IU,--,--,0,0
Lipids
"Fatty acids, total saturated",g,--,--,1.002,1.790
"Cholesterol",mg,--,--,20,36
Amino Acids
Other
Ingredients
"PORK, WATER, MODIFIED FOOD STARCH, SOYA PROTEIN ISOLATE, SALT, TOMATO CONCENTRATE SPICES(PEPPER, NUTMEG), CARRAGEENAN, VEGETABALES(GARLIC, PAPRIKA), SODIUM NITRITE, SODIUM CITRATE, MONOSODIUM GLUTAMATE, SODIUM ERYTHORBATE" Date available: 06/25/2017 Date last updated by company: 06/25/2017
