Source: USDA Branded Food Products Database Release December 2017 Software v.3.8.6.4 2017-10-02
Report Run at: December 18, 2017 03:46 EST
"Nutrient data for: 45194375, BREADED NEW ENGLAND COD FILLET WITH A BLEND OF SLICED CARROTS, UPC: 018894904373"
Food Group:  Branded Food Products Database
Common Name:

Nutrient,Unit,Data points,Std. Error,"0.5 PACKAGE = 170.0g",1Value per 100 g,
Proximates
"Energy",kcal,--,--,150,88
"Protein",g,--,--,14.99,8.82
"Total lipid (fat)",g,--,--,7.00,4.12
"Carbohydrate, by difference",g,--,--,10.00,5.88
"Fiber, total dietary",g,--,--,3.1,1.8
"Sugars, total",g,--,--,4.00,2.35
Minerals
"Calcium, Ca",mg,--,--,60,35
"Iron, Fe",mg,--,--,0.36,0.21
"Sodium, Na",mg,--,--,330,194
Vitamins
"Vitamin C, total ascorbic acid",mg,--,--,2.4,1.4
"Vitamin A, IU",IU,--,--,750,441
Lipids
"Fatty acids, total saturated",g,--,--,2.499,1.470
"Fatty acids, total trans",g,--,--,0.000,0.000
"Cholesterol",mg,--,--,41,24
Amino Acids
Other
Ingredients
"CARROT BLEND (ORANGE AND YELLOW CARROTS, CANOLA OIL, KOSHER SALT, BLACK PEPPER), BREADED COD FISH (BONELESS, SKINLESS COD LOIN [COD, SODIUM TRIPOLYPHOSPHATE] BREADED WITH CRUSHED CRACKERS [UNBLEACHED ENRICHED FLOWER (WHEAT FLOUR, NIACIN, REDUCED IRON, THIAMINE MONONITRATE, RIBOFLAVIN, FOLIC ACID), SOYBEAN OIL, SUGAR, PARTIALLY HYDROGENATED COTTONSEED OIL, SALT, LEAVENING (BAKING SODA AND/OR CALCIUM PHOSPHATE), HIGH FRUCTOSE CORN SYRUP, SOY LECITHIN, NATURAL FLAVOR, MALTED BARLEY FLOUR], BREAD CRUMBS [BLEACHED WHEAT FLOUR, DEXTROSE, SALT, YEAST], CHEDDAR CHEESE [PASTEURIZED MILK, CHEESE CULTURE, SALT, ENZYMES, ANNATTO (VEGETABLE COLOR)], BLENDED OIL [CANOLA OIL, EXTRA VIRGIN OLIVE OIL], PARMESAN CHEESE [PASTEURIZED COW'S MILK, CHEESE CULTURE, SALT, RENNET, CALCIUM PROPIONATE (PRESERVATIVE)], KOSHER SALT, PARSLEY FLAKES, BASIL, BLACK PEPPER, OREGANO), LEMON SAUCE (CHICKEN STOCK [WATER, CHICKEN, BASE (COOKED CHICKEN MEAT, SALT, CHICKEN FAT, MALTODEXTRIN, EVAPORATED CANE SYRUP, YEAST EXTRACT, DRIED WHEY, NATURAL FLAVORS, CORN OIL, SOYBEAN OIL, EXTRACTIVES OF TURMERIC AND ANNATTO, CARROT JUICE POWDER)], BUTTER (PASTEURIZED CREAM, SALT), LEMON JUICE, FLOUR (UNBLEACHED WHEAT FLOUR, MALTED BARLEY FLOUR, NIACIN, REDUCED IRON, THIAMIN MONONITRATE, RIBOFLAVIN, FOLIC ACID), WHITE PEPPER)." Date available: 07/14/2017 Date last updated by company: 07/14/2017
