Source: USDA Branded Food Products Database Release December 2017 Software v.3.8.6.4 2017-10-02
Report Run at: December 18, 2017 03:54 EST
"Nutrient data for: 45049639, BREAKFAST BURRITO, UPC: 027086184318"
Food Group:  Branded Food Products Database
Common Name:

Nutrient,Unit,Data points,Std. Error,"1 BURRITO = 198.0g",1Value per 100 g,
Proximates
"Energy",kcal,--,--,541,273
"Protein",g,--,--,32.00,16.16
"Total lipid (fat)",g,--,--,21.01,10.61
"Carbohydrate, by difference",g,--,--,53.00,26.77
"Fiber, total dietary",g,--,--,2.0,1.0
"Sugars, total",g,--,--,2.00,1.01
Minerals
"Calcium, Ca",mg,--,--,101,51
"Iron, Fe",mg,--,--,3.82,1.93
"Sodium, Na",mg,--,--,1420,717
Vitamins
"Vitamin C, total ascorbic acid",mg,--,--,1.8,0.9
"Vitamin A, IU",IU,--,--,354,179
Lipids
"Fatty acids, total saturated",g,--,--,7.009,3.540
"Fatty acids, total trans",g,--,--,0.000,0.000
"Cholesterol",mg,--,--,305,154
Amino Acids
Other
Ingredients
"FILLING: WHOLE EGGS, BACON (CURED WITH: WATER, SALT, SUGAR, SODIUM PHOSPHATES, SODIUM ERYTHORBATE, SODIUM NITRITE AND MAY CONTAIN ONE OR MORE OF THE FOLLOWING: HONEY, SOY SAUCE (WATER, WHEAT, SOYBEANS, SALT), HYDROLYZED SOY PROTEIN, FLAVORINGS, SMOKE FLAVORING, SPICE EXTRACTIVES), THREE CHEESES (PASTEURIZED PROCESS AMERICAN CHEESE, CHEDDAR CHEESE AND MONTEREY JACK CHEESE[ CULTURED PASTEURIZED MILK, SALT, ENZYMES, NATURAL VEGETABLE COLORING {ANNATTO AND/OR APOCAROTENAL}, WATER, SODIUM CITRATE, MILKFAT, AND MAY CONTAIN CALCIUM CHIORIDE]), ONIONS GREEN CHILES, CONTAINS 2% OR LESS OF: BELL PEPPERS, MODIFIED FOOD STARCH, WATER, FLAVORINGS, SALT, CHILE PEPPER (RED CHILE PEPPERS, CITRIC ACID), BELL PEPPER (BELL PEPPERS, WATER, CITRIC ACID), CITRIC ACID, VLNEGAR. TORTILLA: ENRICHED FLOUR(BLEACHED WHEAT FLOUR, NIACIN, FERROUS SULFATE, THIAMINE MONONITRATE, RIBOFLAVIN & FOLIC ACID), WATER, SOYBEAN OIL, SALT, BAKING POWDER (SODIUM BICARBONATE, SODIUM ALUMINUM SULFATE, CORN STARCH, CALCIUM SULFATE, MONOCALCIUM PHOSPHATE), EMULSIFIER (SODIUM STEAROYL LACTYLATE AND GUAR GUM), GUAR GUM, SODIUM METABISULFITE (DOUGH CONDITIONER)." Date available: 06/25/2017 Date last updated by company: 06/25/2017
