Source: USDA Branded Food Products Database Release December 2017 Software v.3.8.6.4 2017-10-02
Report Run at: December 18, 2017 03:48 EST
"Nutrient data for: 45180401, BREAD LOAF, UPC: 852636000035"
Food Group:  Branded Food Products Database
Common Name:

Nutrient,Unit,Data points,Std. Error,"2.0 ONZ = 57.0g",1Value per 100 g,
Proximates
"Energy",kcal,--,--,180,316
"Protein",g,--,--,6.00,10.53
"Total lipid (fat)",g,--,--,7.00,12.28
"Carbohydrate, by difference",g,--,--,27.00,47.37
"Fiber, total dietary",g,--,--,2.0,3.5
"Sugars, total",g,--,--,0.00,0.00
Minerals
"Calcium, Ca",mg,--,--,60,105
"Iron, Fe",mg,--,--,1.58,2.77
"Sodium, Na",mg,--,--,120,211
Vitamins
"Vitamin C, total ascorbic acid",mg,--,--,0.0,0.0
"Vitamin A, IU",IU,--,--,0,0
Lipids
"Fatty acids, total saturated",g,--,--,0.502,0.880
"Cholesterol",mg,--,--,0,0
Amino Acids
Other
Ingredients
"WHOLEGRAIN FLOUR, BIGA STARTER, MILK, BUTTER, WATER, YEAST, SUGAR, SALT." Date available: 07/14/2017 Date last updated by company: 07/14/2017
