Source: USDA Branded Food Products Database Release December 2017 Software v.3.8.6.4 2017-10-02
Report Run at: December 18, 2017 03:46 EST
"Nutrient data for: 45260081, BREADED ONION RINGS, UPC: 050700072487"
Food Group:  Branded Food Products Database
Common Name:

Nutrient,Unit,Data points,Std. Error,"5.0 PIECES = 84.0g",1Value per 100 g,
Proximates
"Energy",kcal,--,--,200,238
"Protein",g,--,--,3.00,3.57
"Total lipid (fat)",g,--,--,8.00,9.52
"Carbohydrate, by difference",g,--,--,30.00,35.71
"Fiber, total dietary",g,--,--,3.0,3.6
"Sugars, total",g,--,--,4.00,4.76
Minerals
"Calcium, Ca",mg,--,--,40,48
"Iron, Fe",mg,--,--,0.73,0.87
"Sodium, Na",mg,--,--,350,417
Vitamins
"Vitamin C, total ascorbic acid",mg,--,--,2.4,2.9
"Vitamin A, IU",IU,--,--,0,0
Lipids
"Fatty acids, total saturated",g,--,--,1.504,1.790
"Fatty acids, total monounsaturated",g,--,--,1.999,2.380
"Fatty acids, total polyunsaturated",g,--,--,4.502,5.360
"Fatty acids, total trans",g,--,--,0.000,0.000
"Cholesterol",mg,--,--,0,0
Amino Acids
Other
Ingredients
"WATER, BLEACHED WHEAT FLOUR DEHYDRATED MINCED ONION, SUGAR, WHEAT STARCH. CONTAINS 2% OR LESS OF THE FOLLOWING: WHEAT FLOUR, METHYCELLULOSE MODIFIED FOOD STARCH, SALT, CELLULOSE GUAR YELLOW CORN FLOUR, DEXTROSE, SODIUM ALGINATE, SODIUM TRIPOLYPHOSPHATE, CALCIUM CHLORIDE, YEAST, EXTRACTIVES OF PAPRIKA, PARTIALLY HYDROGENATED SOYBEAN OIL, HYDROXYPROPYLMETHLCELLULOSE, SORBITE LEAVENING (SODIUM ACID PYROPHOSPHATE, SODIUM BICARBOINATE), NATURAL FLAVOR." Date available: 07/14/2017 Date last updated by company: 07/14/2017
