Source: USDA Branded Food Products Database Release December 2017 Software v.3.8.6.4 2017-10-02
Report Run at: December 18, 2017 03:59 EST
"Nutrient data for: 45197474, BREAKFAST TOPPER, UPC: 647125301317"
Food Group:  Branded Food Products Database
Common Name:

Nutrient,Unit,Data points,Std. Error,"1 ROUNDED TEASPOON) | (ABOUT = 4.0g",1Value per 100 g,
Proximates
"Energy",kcal,--,--,21,525
"Protein",g,--,--,1.00,25.00
"Total lipid (fat)",g,--,--,1.50,37.50
"Carbohydrate, by difference",g,--,--,1.00,25.00
"Fiber, total dietary",g,--,--,1.0,25.0
"Sugars, total",g,--,--,1.00,25.00
Minerals
"Calcium, Ca",mg,--,--,0,0
"Iron, Fe",mg,--,--,0.00,0.00
"Sodium, Na",mg,--,--,0,0
Vitamins
"Vitamin C, total ascorbic acid",mg,--,--,0.0,0.0
"Vitamin A, IU",IU,--,--,0,0
Lipids
"Fatty acids, total saturated",g,--,--,1.000,25.000
"Fatty acids, total trans",g,--,--,0.000,0.000
"Cholesterol",mg,--,--,0,0
Amino Acids
Other
Ingredients
"SHREDDED COCONUT, SUNFLOWER KERNELS, BROWN FLAXSEED MEAL, CHIA SEEDS, GROUND CINNAMON, TRI COLOR QUINOA GRAINS, CACAO POWDER, PUMPKIN SEEDS." Date available: 09/02/2017 Date last updated by company: 09/02/2017
