Source: USDA Branded Food Products Database Release December 2017 Software v.3.8.6.4 2017-10-02
Report Run at: December 18, 2017 03:41 EST
"Nutrient data for: 45221218, BREADED CATFISH NUGGETS, UPC: 763719000685"
Food Group:  Branded Food Products Database
Common Name:

Nutrient,Unit,Data points,Std. Error,"4.0 ONZ = 112.0g",1Value per 100 g,
Proximates
"Energy",kcal,--,--,160,143
"Protein",g,--,--,17.00,15.18
"Total lipid (fat)",g,--,--,4.50,4.02
"Carbohydrate, by difference",g,--,--,14.00,12.50
"Fiber, total dietary",g,--,--,1.0,0.9
"Sugars, total",g,--,--,1.00,0.89
Minerals
"Calcium, Ca",mg,--,--,0,0
"Iron, Fe",mg,--,--,0.82,0.73
"Sodium, Na",mg,--,--,650,580
Vitamins
"Vitamin C, total ascorbic acid",mg,--,--,0.0,0.0
"Vitamin A, IU",IU,--,--,0,0
Lipids
"Fatty acids, total saturated",g,--,--,0.997,0.890
"Fatty acids, total monounsaturated",g,--,--,0.997,0.890
"Fatty acids, total polyunsaturated",g,--,--,0.000,0.000
"Fatty acids, total trans",g,--,--,0.000,0.000
"Cholesterol",mg,--,--,45,40
Amino Acids
Other
Ingredients
"CATFISH. WATER. YELLOW CORN MEAL. YELLOW CORN FLOUR. WHEAT FLOUR. SALT. SPICES. PARTIALLY HYDROGENATED SOYBEAN OIL. GARLIC POWDER. ONION POWDER. LEAVENING (SODIUM ALUMINIUM PHOSPHATE. SODIUM BICARBONATE). XANTHAN GUM. GUAR GUM. LESS THAN 2% SILICON DIOXIDE TO PREVENT CAKING. SODIUM TRIPOLYPHOSPHATE. SODIUM HEXAMETAPHOSPHATE. ASCORBIC ACID. AND CITRIC ACID." Date available: 07/14/2017 Date last updated by company: 07/14/2017
