Source: USDA Branded Food Products Database Release December 2017 Software v.3.8.6.4 2017-10-02
Report Run at: December 18, 2017 03:52 EST
"Nutrient data for: 45270800, BREAD, UPC: 657082029070"
Food Group:  Branded Food Products Database
Common Name:

Nutrient,Unit,Data points,Std. Error,"1.1 ONZ = 32.0g",1Value per 100 g,
Proximates
"Energy",kcal,--,--,70,219
"Protein",g,--,--,2.00,6.25
"Total lipid (fat)",g,--,--,0.00,0.00
"Carbohydrate, by difference",g,--,--,14.00,43.75
"Fiber, total dietary",g,--,--,1.0,3.1
"Sugars, total",g,--,--,0.00,0.00
Minerals
"Calcium, Ca",mg,--,--,0,0
"Iron, Fe",mg,--,--,0.56,1.75
"Sodium, Na",mg,--,--,150,469
Vitamins
"Vitamin C, total ascorbic acid",mg,--,--,0.0,0.0
"Vitamin A, IU",IU,--,--,0,0
Lipids
"Fatty acids, total saturated",g,--,--,0.000,0.000
"Fatty acids, total trans",g,--,--,0.000,0.000
"Cholesterol",mg,--,--,0,0
Amino Acids
Other
Ingredients
"WHEAT FLOUR, WATER, WHOLE GRAIN FLOUR, (RYE AND WHEAT), SEA SALT, YEAST, MALTED BARLEY FLOUR." Date available: 07/14/2017 Date last updated by company: 07/14/2017
