Source: USDA Branded Food Products Database Release December 2017 Software v.3.8.6.4 2017-10-02
Report Run at: December 18, 2017 03:50 EST
"Nutrient data for: 45178415, BREAD, UPC: 681131122184"
Food Group:  Branded Food Products Database
Common Name:

Nutrient,Unit,Data points,Std. Error,"0.125 LOAF = 57.0g",1Value per 100 g,
Proximates
"Energy",kcal,--,--,170,298
"Protein",g,--,--,7.00,12.28
"Total lipid (fat)",g,--,--,5.00,8.77
"Carbohydrate, by difference",g,--,--,24.00,42.11
"Fiber, total dietary",g,--,--,1.0,1.8
"Sugars, total",g,--,--,1.00,1.75
Minerals
"Calcium, Ca",mg,--,--,80,140
"Iron, Fe",mg,--,--,1.27,2.22
"Sodium, Na",mg,--,--,320,561
Vitamins
"Vitamin C, total ascorbic acid",mg,--,--,0.0,0.0
"Vitamin A, IU",IU,--,--,0,0
Lipids
"Fatty acids, total saturated",g,--,--,2.502,4.390
"Fatty acids, total trans",g,--,--,0.000,0.000
"Cholesterol",mg,--,--,10,18
Amino Acids
Other
Ingredients
"ENRICHED WHEAT FLOUR (WHEAT FLOUR, NIACIN, REDUCED IRON, THIAMIN MONONITRATE, RIBOFLAVIN, FOLIC ACID), WATER, CHEDDAR CHEESE [PASTEURIZED MILK, CHEESE CULTURE, SALT, ENZYMES, ANNATTO (COLOR), CELLULOSE (ANTICAKING), NATAMYCIN (NATURAL MOLD INHIBITOR)], YEAST, SUGAR, VEGETABLE OIL (SOYBEAN AND/OR CANOLA), SALT, WHEAT GLUTEN, CHEDDAR CHEESE SEASONING [MALTODEXTRIN, NATURAL FLAVORS, WHEY (MILK), SALT, CITRIC ACID], SOY LECITHIN, VEGETABLE MONOGLYCERIDES. TOPPING: CHEDDAR CHEESE [PASTEURIZED MILK, CHEESE CULTURE, SALT, ENZYMES, ANNATTO (COLOR), CELLULOSE (ANTICAKING), NATAMYCIN (NATURAL MOLD INHIBITOR)]." Date available: 07/14/2017 Date last updated by company: 07/14/2017
