Source: USDA Branded Food Products Database Release December 2017 Software v.3.8.6.4 2017-10-02
Report Run at: December 18, 2017 03:57 EST
"Nutrient data for: 45322678, BREAKFAST SAUSAGE LINKS, UPC: 021130140923"
Food Group:  Branded Food Products Database
Common Name:

Nutrient,Unit,Data points,Std. Error,"3.0 PAN FRIED LINKS = 55.0g",1Value per 100 g,
Proximates
"Energy",kcal,--,--,180,327
"Protein",g,--,--,11.00,20.00
"Total lipid (fat)",g,--,--,15.00,27.27
"Carbohydrate, by difference",g,--,--,2.00,3.64
"Sugars, total",g,--,--,1.00,1.82
Minerals
"Calcium, Ca",mg,--,--,20,36
"Iron, Fe",mg,--,--,0.36,0.65
"Sodium, Na",mg,--,--,420,764
Vitamins
Lipids
"Fatty acids, total saturated",g,--,--,5.000,9.090
"Fatty acids, total trans",g,--,--,0.000,0.000
"Cholesterol",mg,--,--,40,73
Amino Acids
Other
Ingredients
"PORK, WATER, CORN SYRUP, CONTAINS LESS THAN 2% OF SALT, DEXTROSE, FLAVORING, BHA, PROPYL GALLATE, CITRIC ACID. STUFFED IN COLLAGEN CASINGS." Date available: 10/13/2017 Date last updated by company: 10/13/2017
