Source: USDA Branded Food Products Database Release December 2017 Software v.3.8.6.4 2017-10-02
Report Run at: December 18, 2017 04:00 EST
"Nutrient data for: 45271430, BREATH FRESHENING SWEETENED WITH 100% XYLITOL, UPC: 853401001011"
Food Group:  Branded Food Products Database
Common Name:

Nutrient,Unit,Data points,Std. Error,"2.0 PIECES = 2.5g",1Value per 100 g,
Proximates
"Energy",kcal,--,--,5,200
"Protein",g,--,--,0.00,0.00
"Total lipid (fat)",g,--,--,0.00,0.00
"Carbohydrate, by difference",g,--,--,2.00,80.00
Minerals
"Sodium, Na",mg,--,--,0,0
Vitamins
Lipids
Amino Acids
Other
Ingredients
"XYLITOL, GUM BASE, NATURAL FRUIT FLAVOR, VITAMIN B12, CALCIUM CITRATE (PH REGULATOR), CALCIUM GLUCONATE (PH REGULATOR)." Date available: 07/14/2017 Date last updated by company: 07/14/2017
