Source: USDA Branded Food Products Database Release December 2017 Software v.3.8.6.4 2017-10-02
Report Run at: December 18, 2017 03:41 EST
"Nutrient data for: 45199817, BREADED CHEESE RAVIOLI, UPC: 097137306365"
Food Group:  Branded Food Products Database
Common Name:

Nutrient,Unit,Data points,Std. Error,"5.0 (ROT FRIED) RAVIOLS = 113.0g",1Value per 100 g,
Proximates
"Energy",kcal,--,--,250,221
"Protein",g,--,--,12.00,10.62
"Total lipid (fat)",g,--,--,8.00,7.08
"Carbohydrate, by difference",g,--,--,31.00,27.43
"Fiber, total dietary",g,--,--,1.0,0.9
"Sugars, total",g,--,--,0.00,0.00
Minerals
"Calcium, Ca",mg,--,--,200,177
"Iron, Fe",mg,--,--,1.14,1.01
"Sodium, Na",mg,--,--,290,257
Vitamins
"Vitamin C, total ascorbic acid",mg,--,--,0.0,0.0
"Vitamin A, IU",IU,--,--,425,376
Lipids
"Fatty acids, total saturated",g,--,--,4.497,3.980
"Fatty acids, total trans",g,--,--,0.000,0.000
"Cholesterol",mg,--,--,66,58
Amino Acids
Other
Ingredients
"DURUM WHEAT FLOUR (ENRICHED WITH IRON (FERROUS SULFATE) AND B VITAMINS (NIACIN, THIAMIN, RIBOFLAVIN, FOLIC ACID)), WHOLE MILK RICOTTA CHEESE (SWEET WHEY, WHOLE MILK, SWEET CREAM, CULTURE, VINEGAR AND SALT), WHOLE EGG, MOZZARELLA CHEESE (PASTEURIZED PART SKIM MILK, CHEESE CULTURE, SALT, ENZYMES), WATER, BREAD CRUMBS (WHEAT FLOUR, SUGAR, CANOLA OIL, SALT, YEAST), HALF & HALF (MILK, CREAM), ROMANO CHEESE (PASTEURIZED COW'S MILK, CHEESE CULTURES, SALT, ENZYMES, POWDERED CELLULOSE ADDED TO PREVENT CAKING), FLOUR BLEND (YELLOW CORN FLOUR, WHEAT FLOUR SOYBEAN OIL, EXTRACTIVES OF TURMERIC AND PAPRIKA), PARMESAN CHEESE (PASTEURIZED PART-SKIM COW'S MILK, CHEESE CULTURES, SALT, ENZYMES, POWDERED CELLULOSE ADDED TO PREVENT CAKING), PARSLEY, SALT, BLACK PEPPER." Date available: 07/14/2017 Date last updated by company: 07/14/2017
