Source: USDA Branded Food Products Database Release December 2017 Software v.3.8.6.4 2017-10-02
Report Run at: December 18, 2017 03:37 EST
"Nutrient data for: 45086156, BREAD & BUTTER CHIPS, UPC: 886926216844"
Food Group:  Branded Food Products Database
Common Name:

Nutrient,Unit,Data points,Std. Error,"6.0 CHIPS | ABOUT = 28.0g",1Value per 100 g,
Proximates
"Energy",kcal,--,--,0,0
"Protein",g,--,--,0.00,0.00
"Total lipid (fat)",g,--,--,0.00,0.00
"Carbohydrate, by difference",g,--,--,1.00,3.57
"Sugars, total",g,--,--,0.00,0.00
Minerals
"Sodium, Na",mg,--,--,190,679
Vitamins
Lipids
Amino Acids
Other
Ingredients
"CUCUMBERS, WATER, VINEGAR, SALT, MUSTARD SEEDS, ONION FLAKES, CELERY SEEDS, CALCIUM CHLORIDE, 0.1% SODIUM BENZOATE (PRESERVATIVE), SUCRALOSE (SPLENDA BRAND), XANTHAN GUM, AND YELLOW 5." Date available: 07/14/2017 Date last updated by company: 07/14/2017
