Source: USDA Branded Food Products Database Release December 2017 Software v.3.8.6.4 2017-10-02
Report Run at: December 18, 2017 03:38 EST
"Nutrient data for: 45279374, BREAD & BUTTER PICKLE CHIPS, UPC: 041268160006"
Food Group:  Branded Food Products Database
Common Name:

Nutrient,Unit,Data points,Std. Error,"5.0 SLICES | ABOUT = 28.0g",1Value per 100 g,
Proximates
"Energy",kcal,--,--,25,89
"Protein",g,--,--,0.00,0.00
"Total lipid (fat)",g,--,--,0.00,0.00
"Carbohydrate, by difference",g,--,--,6.00,21.43
"Sugars, total",g,--,--,5.00,17.86
Minerals
"Sodium, Na",mg,--,--,170,607
Vitamins
Lipids
Amino Acids
Other
Ingredients
"FRESH CUCUMBERS, WATER, HIGH FRUCTOSE CORN SYRUP, VINEGAR, SALT, SPICES, CALCIUM CHLORIDE, YELLOW 5, NATURAL FLAVORS, POLYSORBATE 80." Date available: 07/14/2017 Date last updated by company: 07/14/2017
