Source: USDA Branded Food Products Database Release December 2017 Software v.3.8.6.4 2017-10-02
Report Run at: December 18, 2017 03:53 EST
"Nutrient data for: 45273438, BREAKFAST BISCUITS, UPC: 078742133294"
Food Group:  Branded Food Products Database
Common Name:

Nutrient,Unit,Data points,Std. Error,"1 PACK = 50.0g",1Value per 100 g,
Proximates
"Energy",kcal,--,--,230,460
"Protein",g,--,--,3.00,6.00
"Total lipid (fat)",g,--,--,8.00,16.00
"Carbohydrate, by difference",g,--,--,36.00,72.00
"Fiber, total dietary",g,--,--,3.0,6.0
"Sugars, total",g,--,--,12.00,24.00
Minerals
"Calcium, Ca",mg,--,--,0,0
"Iron, Fe",mg,--,--,4.50,9.00
"Potassium, K",mg,--,--,110,220
"Sodium, Na",mg,--,--,180,360
Vitamins
"Vitamin C, total ascorbic acid",mg,--,--,0.0,0.0
"Vitamin A, IU",IU,--,--,0,0
Lipids
"Fatty acids, total saturated",g,--,--,0.500,1.000
"Fatty acids, total monounsaturated",g,--,--,5.000,10.000
"Fatty acids, total polyunsaturated",g,--,--,2.500,5.000
"Fatty acids, total trans",g,--,--,0.000,0.000
"Cholesterol",mg,--,--,0,0
Amino Acids
Other
Ingredients
"GRAIN BLEND (RYE, OATS), ENRICHED FLOUR (WHEAT FLOUR, NIACIN, REDUCED IRON, THIAMINE MONONITRATE, RIBOFLAVIN, FOLIC ACID), HIGH OLEIC CANOLA OIL, SUGAR, WHOLE WHEAT FLOUR, DRIED CANE SYRUP, SWEETENED DRIED BLUEBERRIES (BLUEBERRIES, SUGAR, SUNFLOWER OIL), WATER, CONTAINS LESS THAN 2% OF EACH OF THE FOLLOWING: INVERT SUGAR, EXTRACTS OF MALTED BARLEY AND CORN, BAKING SODA, PROPYLENE GLYCOL, SOY LECITHIN, AMMONIUM BICARBONATE, SALT, SODIUM ACID PYROPHOSPHATE, NATURAL FLAVORS, DEXTROSE, REDUCED IRON, NIACINAMIDE, ZINC SULFATE, THIAMINE MONONITRATE." Date available: 07/14/2017 Date last updated by company: 07/14/2017
