Source: USDA Branded Food Products Database Release December 2017 Software v.3.8.6.4 2017-10-02
Report Run at: December 18, 2017 03:59 EST
"Nutrient data for: 45257792, BREAST MEAT CHICKEN SALAD SANDWICH, UPC: 657815040259"
Food Group:  Branded Food Products Database
Common Name:

Nutrient,Unit,Data points,Std. Error,"1 PACKAGE = 165.0g",1Value per 100 g,
Proximates
"Energy",kcal,--,--,399,242
"Protein",g,--,--,17.00,10.30
"Total lipid (fat)",g,--,--,16.00,9.70
"Carbohydrate, by difference",g,--,--,41.00,24.85
"Fiber, total dietary",g,--,--,4.0,2.4
"Sugars, total",g,--,--,5.00,3.03
Minerals
"Calcium, Ca",mg,--,--,150,91
"Iron, Fe",mg,--,--,5.35,3.24
"Sodium, Na",mg,--,--,480,291
Vitamins
"Vitamin C, total ascorbic acid",mg,--,--,0.0,0.0
"Vitamin A, IU",IU,--,--,0,0
Lipids
"Fatty acids, total saturated",g,--,--,3.498,2.120
"Cholesterol",mg,--,--,50,30
Amino Acids
Other
Ingredients
"FRIDGESOFT WHEAT: ENRICHED WHEAT FLOUR (WHEAT FLOUR, MALTED BARLEY FLOUR, NIACIN, IRON, THIAMINE MONONITRATE, RIBOFLAVIN, FOLIC ACID), WATER, CRACKED WHEAT, SUGAR, PALM OIL, YEAST, SALT, DOUGH CONDITIONER (WHEAT FLOUR, ENZYMES, SOYBEAN OIL), CALCIUM PROPIONATE, DOUGH STRENGTHENER (SODIUM STEAROYL LACTYLATE), CARAMEL COLOR, DOUGH CONDITIONER (WHEAT FLOUR, DIACETYL TARTARIC ACID ESTERS OF MONO-DIGLYCERIDES [DATEM], CONTAINS 2% OR LESS OF: SOYBEAN OIL, L. CYSTEINE, ENZYME, ASCORBIC ACID, AZODICARBONAMIDE [ADA]): CHICKEN BREAST SALAD: ROASTED CHICKEN, WHITE MEAT CHICKEN BREAST, SALT, SODIUM PHOSPHATE, WATER, SOYBEAN OIL, HIGH FRUCTOSE CORN SYRUP, DISTILLED VINEGAR, FOOD STARCH-MODIFIED, EGG YOLK, CONTAINS LESS THAN 2% CALCIUM DISODIUM EDTA ADDED TO PROTECT FLAVOR, KITCHEN DELUXE CHICKEN FLAVOR: SALT, BEEF FAT, (BEEF TALLOW, BHA, BHT, AND CITRIC ACID ADDED TO PROTECT FLAVOR), FOOD STARCH-MODIFIED (CORN) SUGAR, MONOSODIUM GLUTAMATE, CHICKEN FAT, NATURAL FLAVOR, SPICE AND COLORING, NATURAL CARROT FLAVOR, DISODIUM INOSINATE AND DISODIUM GUANYLATE CELERY, SALT, DEHYDRATED ONIONS." Date available: 07/14/2017 Date last updated by company: 07/14/2017
