Source: USDA Branded Food Products Database Release December 2017 Software v.3.8.6.4 2017-10-02
Report Run at: December 18, 2017 03:56 EST
"Nutrient data for: 45199877, BREAKFAST MUFFINS, UPC: 632674835116"
Food Group:  Branded Food Products Database
Common Name:

Nutrient,Unit,Data points,Std. Error,"1 PACKAGE = 51.0g",1Value per 100 g,
Proximates
"Energy",kcal,--,--,140,275
"Protein",g,--,--,7.00,13.73
"Total lipid (fat)",g,--,--,2.00,3.92
"Carbohydrate, by difference",g,--,--,27.00,52.94
"Fiber, total dietary",g,--,--,6.0,11.8
"Sugars, total",g,--,--,9.00,17.65
Minerals
"Calcium, Ca",mg,--,--,40,78
"Iron, Fe",mg,--,--,1.16,2.28
"Sodium, Na",mg,--,--,220,431
Vitamins
"Vitamin C, total ascorbic acid",mg,--,--,0.0,0.0
"Vitamin A, IU",IU,--,--,0,0
Lipids
"Fatty acids, total saturated",g,--,--,1.000,1.960
"Fatty acids, total trans",g,--,--,0.000,0.000
"Cholesterol",mg,--,--,5,10
Amino Acids
Other
Ingredients
"WATER, WHOLE WHEAT FLOUR, ENRICHED BLEACHED WHEAT FLOUR (WHEAT FLOUR, MALTED BARLEY FLOUR, NIACIN, REDUCED IRON, THIAMINE MONONITRATE, RIBOFLAVIN, FOLIC ACID), INULIN SYRUP, WHEAT PROTEIN ISOLATE, SUGAR, DEFATTED SOY FLOUR, RAISIN PASTE, WHITE CONFECTIONERY COATING (SUGAR, PALM KERNEL AND PALM OIL, TITANIUM DIOXIDE (COLOR), NONFAT MILK, SOY LECITHIN, NATURAL FLAVOR, MONO AND DIGLYCERIDES), CONTAINS LESS THAN 2% OF: GLYCERIN, MALTITOL, FOOD STARCH-MODIFIED, PALM OIL, RESISTANT MALTODEXTRIN, CINNAMON, EGGS, BAKING SODA, NATURAL BROWNED BUTTER FLAVOR, SODIUM ALUMINUM PHOSPHATE, SALT, CORN FIBER, POTASSIUM SORBATE (PRESERVATIVE), MONOCALCIUM PHOSPHATE, SODIUM CARBOXMETHYLCELLULOSE, REBAUDIOSIDE A, MONK FRUIT EXTRACT, ENZYMES." Date available: 07/14/2017 Date last updated by company: 07/14/2017
