Source: USDA Branded Food Products Database Release December 2017 Software v.3.8.6.4 2017-10-02
Report Run at: December 18, 2017 03:52 EST
"Nutrient data for: 45199675, BREAKFAST BARS, UPC: 602652200052"
Food Group:  Branded Food Products Database
Common Name:

Nutrient,Unit,Data points,Std. Error,"2.0 BARS = 50.0g",1Value per 100 g,
Proximates
"Energy",kcal,--,--,230,460
"Protein",g,--,--,5.00,10.00
"Total lipid (fat)",g,--,--,11.00,22.00
"Carbohydrate, by difference",g,--,--,28.00,56.00
"Fiber, total dietary",g,--,--,5.0,10.0
"Sugars, total",g,--,--,8.00,16.00
Minerals
"Calcium, Ca",mg,--,--,40,80
"Iron, Fe",mg,--,--,0.86,1.73
"Sodium, Na",mg,--,--,135,270
Vitamins
"Vitamin C, total ascorbic acid",mg,--,--,0.0,0.0
"Vitamin A, IU",IU,--,--,0,0
Lipids
"Fatty acids, total saturated",g,--,--,1.500,3.000
"Fatty acids, total trans",g,--,--,0.000,0.000
"Cholesterol",mg,--,--,0,0
Amino Acids
Other
Ingredients
"OATS, DRIED CANE SYRUP, PEANUTS, CANOLA OIL, BROWN RICE FLOUR, OAT FLOUR, PEANUT BUTTER (PEANUTS, SALT), GUM ACACIA, WATER, RAISIN PASTE, PEANUTS OIL, PEANUT FLOUR, SALT, MILLET, HONEY, BUCKWHEAT, AMARANTH, QUINOA, VITAMIN E (TO MAINTAIN FRESHNESS)." Date available: 07/14/2017 Date last updated by company: 07/14/2017
