Source: USDA Branded Food Products Database Release December 2017 Software v.3.8.6.4 2017-10-02
Report Run at: December 18, 2017 03:46 EST
"Nutrient data for: 45229956, BREADED MUSHROOMS, UPC: 075450229479"
Food Group:  Branded Food Products Database
Common Name:

Nutrient,Unit,Data points,Std. Error,"5.0 PIECES = 85.0g",1Value per 100 g,
Proximates
"Energy",kcal,--,--,200,235
"Protein",g,--,--,4.00,4.71
"Total lipid (fat)",g,--,--,12.00,14.12
"Carbohydrate, by difference",g,--,--,21.00,24.71
"Fiber, total dietary",g,--,--,1.0,1.2
"Sugars, total",g,--,--,2.00,2.35
Minerals
"Calcium, Ca",mg,--,--,20,24
"Iron, Fe",mg,--,--,1.08,1.27
"Sodium, Na",mg,--,--,390,459
Vitamins
"Vitamin C, total ascorbic acid",mg,--,--,1.2,1.4
"Vitamin A, IU",IU,--,--,0,0
Lipids
"Fatty acids, total saturated",g,--,--,1.998,2.350
"Fatty acids, total trans",g,--,--,0.000,0.000
"Cholesterol",mg,--,--,0,0
Amino Acids
Other
Ingredients
"MUSHROOMS, BLEACHED WHEAT FLOUR, VEGETABLE OIL (SOYBEAN AND/OR CANOLA OIL), UNBLEACHED ENRICHED FLOUR (WHEAT FLOUR, NIACIN, REDUCED IRON, THIAMINE MONONITRATE, RIBOFLAVIN, FOLIC ACID), WATER, FOOD STARCH MODIFIED, ENRICHED WHEAT FLOUR (WHEAT FLOUR, NIACIN, REDUCED IRON, THIAMINE MONONITRATE, RIBOFLAVIN, FOLIC ACID), YELLOW CORN FLOUR, BLEACHED ENRICHED WHEAT FLOUR (WHEAT FLOUR, NIACIN, REDUCED IRON, THIAMIN MONONITRATE, RIBOFLAVIN, FOLIC ACID), SALT, SUGAR, WHEY, SOYBEAN OIL, DEXTROSE, LEAVENING (SODIUM BICARBONATE, SODIUM ACID PYROPHOSPHATE, MONOCALCIUM PHOSPHATE, CALCIUM LACTATE), SPICE, DEHYDRATED GARLIC AND ONION, EGG WHITES, SOY FLOUR, YEAST, CARAMEL COLOR, NONFAT DRY MILK, GUAR GUM, CORN STARCH, PAPRIKA EXTRACT, ANNATTO EXTRACT, GUM ARABIC, MALTED BARLEY FLOUR, SPICE EXTRACTIVE, SORBITOL, PARTIALLY HYDROGENATED SOYBEAN OIL, SOY LECITHIN, CARBOXYMETHYLCELLULOSE GUM." Date available: 07/14/2017 Date last updated by company: 07/14/2017
