Source: USDA Branded Food Products Database Release December 2017 Software v.3.8.6.4 2017-10-02
Report Run at: December 18, 2017 04:00 EST
"Nutrient data for: 45032655, BRECKENRIDGE FARMS, BREAD & BUTTER RELISH, UPC: 639277053855"
Food Group:  Branded Food Products Database
Common Name:

Nutrient,Unit,Data points,Std. Error,"1 Tbsp = 15.0g",1Value per 100 g,
Proximates
"Energy",kcal,--,--,15,100
"Protein",g,--,--,0.00,0.00
"Total lipid (fat)",g,--,--,0.00,0.00
"Carbohydrate, by difference",g,--,--,3.00,20.00
"Sugars, total",g,--,--,3.00,20.00
Minerals
"Sodium, Na",mg,--,--,105,700
Vitamins
Lipids
Amino Acids
Other
Ingredients
"CUCUMBERS, SUGAR, WATER, VINEGAR, SALT, RED BELL PEPPERS, DEHYDRATED ONION, MUSTARD SEED, CELERY SEED, CALCIUM CHLORIDE, YELLOW 5." Date available: 07/14/2017 Date last updated by company: 07/14/2017
