Source: USDA Branded Food Products Database Release December 2017 Software v.3.8.6.4 2017-10-02
Report Run at: December 18, 2017 20:11 EST
"Nutrient data for: 45094129, BREYERS, CHOCOLATE COOKIE DOUGH WITH CARAMEL & VANILLA ICE CREAM WITH CARAMEL SWIRL AND CHOCOLATE COOKIE PIECES, UPC: 077567201829"
Food Group:  Branded Food Products Database
Common Name:

Nutrient,Unit,Data points,Std. Error,"1 cup = 70.0g",1Value per 100 g,
Proximates
"Energy",kcal,--,--,150,214
"Protein",g,--,--,2.00,2.86
"Total lipid (fat)",g,--,--,7.00,10.00
"Carbohydrate, by difference",g,--,--,20.00,28.57
"Fiber, total dietary",g,--,--,0.0,0.0
"Sugars, total",g,--,--,13.00,18.57
Minerals
"Calcium, Ca",mg,--,--,60,86
"Iron, Fe",mg,--,--,1.08,1.54
"Sodium, Na",mg,--,--,75,107
Vitamins
"Vitamin C, total ascorbic acid",mg,--,--,0.0,0.0
"Vitamin A, IU",IU,--,--,200,286
Lipids
"Fatty acids, total saturated",g,--,--,3.997,5.710
"Fatty acids, total trans",g,--,--,0.000,0.000
"Cholesterol",mg,--,--,15,21
Amino Acids
Other
Ingredients
"MILK, CREAM, CORN SYRUP, CARAMEL SWIRL [SUGAR, WATER, CORN SYRUP, HIGH FRUCTOSE CORN SYRUP, NONFAT MILK SOLIDS, BUTTER (CREAM, SALT), SALT, MOLASSES, PECTIN, SOY LECITHIN, NATURAL FLAVOR, POTASSIUM SORBATE (PRESERVATIVE), SODIUM CITRATE, LACTIC ACID], CHOCOLATE COOKIE DOUGH PIECES [WHEAT FLOUR, SUGAR, PALM OIL, CORN SYRUP, CANOLA OIL, WATER, DUTCHED COCOA (PROCESSED WITH ALKALI), NATURAL FLAVOR, SALT], LIQUID SUGAR (SUGAR, WATER), WHEY, LESS THAN 2% OF: VEGETABLE GUMS (GUAR, CAROB BEAN), MONO AND DIGLYCERIDES, NATURAL FLAVOR, POLYSORBATE 80." Date available: 07/14/2017 Date last updated by company: 07/14/2017
