Source: USDA Branded Food Products Database Release December 2017 Software v.3.8.6.4 2017-10-02
Report Run at: December 18, 2017 20:13 EST
"Nutrient data for: 45234450, BREYERS, FROZEN DAIRY DESSERT, SUMMER BERRY COBBLER, UPC: 077567255815"
Food Group:  Branded Food Products Database
Common Name:

Nutrient,Unit,Data points,Std. Error,"0.5 cup = 68.0g",1Value per 100 g,
Proximates
"Energy",kcal,--,--,140,206
"Protein",g,--,--,1.00,1.47
"Total lipid (fat)",g,--,--,3.50,5.15
"Carbohydrate, by difference",g,--,--,25.00,36.76
"Fiber, total dietary",g,--,--,0.0,0.0
"Sugars, total",g,--,--,16.00,23.53
Minerals
"Calcium, Ca",mg,--,--,40,59
"Iron, Fe",mg,--,--,0.00,0.00
"Sodium, Na",mg,--,--,40,59
Vitamins
"Vitamin C, total ascorbic acid",mg,--,--,2.7,4.0
"Vitamin A, IU",IU,--,--,337,496
Lipids
"Fatty acids, total saturated",g,--,--,1.999,2.940
"Fatty acids, total trans",g,--,--,0.000,0.000
"Cholesterol",mg,--,--,10,15
Amino Acids
Other
Ingredients
"MILK, STRAWBERRY SWIRL [WATER, SUGAR, CORN SYRUP, SKIM MILK, STRAWBERRIES, DEXTROSE, BEET JUICE CONCENTRATE (FOR COLOR), CITRIC ACID, MALIC ACID, NATURAL FLAVOR, CAROB BEAN GUM, PECTIN, GUAR GUM, ASCORBIC ACID, ANNATTO (FOR COLOR), RED 40], CORN SYRUP, SUGAR, CINNAMON BISCUIT PIECES [SUGAR, UNENRICHED WHEAT FLOUR, BUTTER (CREAM, SALT), SOYBEAN OIL, PASTEURIZED EGGS, CINNAMON, SALT], BLACK RASPBERRY BASE [CORN SYRUP, BLACK RASPBERRY PUREE, RASPBERRY PUREE, COLOR ADDED, BEET JUICE COLOR, CITRIC ACID, NATURAL FLAVOR, CAROB BEAN GUM], CREAM, CONTAINS 2% OR LESS OF EACH OF THE FOLLOWING: WHEY, CAROB BEAN GUM, MONO AND DIGLYCERIDES, CARRAGEENAN, VITAMIN A PALMITATE, TARA GUM, GUAR GUM." Date available: 07/14/2017 Date last updated by company: 07/14/2017
