Source: USDA Branded Food Products Database Release December 2017 Software v.3.8.6.4 2017-10-02
Report Run at: December 18, 2017 20:13 EST
"Nutrient data for: 45093386, BREYERS, GELATO INDULGENCES, GELATO, CAPPUCCINO, UPC: 077567426918"
Food Group:  Branded Food Products Database
Common Name:

Nutrient,Unit,Data points,Std. Error,"1 cup = 69.0g",1Value per 100 g,
Proximates
"Energy",kcal,--,--,130,188
"Protein",g,--,--,2.00,2.90
"Total lipid (fat)",g,--,--,5.00,7.25
"Carbohydrate, by difference",g,--,--,19.00,27.54
"Fiber, total dietary",g,--,--,0.0,0.0
"Sugars, total",g,--,--,14.00,20.29
Minerals
"Calcium, Ca",mg,--,--,60,87
"Iron, Fe",mg,--,--,0.00,0.00
"Sodium, Na",mg,--,--,40,58
Vitamins
"Vitamin C, total ascorbic acid",mg,--,--,0.0,0.0
"Vitamin A, IU",IU,--,--,400,580
Lipids
"Fatty acids, total saturated",g,--,--,3.001,4.350
"Fatty acids, total trans",g,--,--,0.000,0.000
"Cholesterol",mg,--,--,15,22
Amino Acids
Other
Ingredients
"MILK, SUGAR, CREAM, CORN SYRUP, COFFEE EXTRACT, CONTAINS 2% OR LESS OF EACH OF THE FOLLOWING: WHEY, UNSWEETENED CHOCOLATE, VEGETABLE GUMS (CAROB BEAN, GUAR, TARA), MONO AND DIGLYCERIDES, COCOA BUTTER, DEXTROSE, CARRAGEENAN, SOY LECITHIN, NATURAL FLAVOR, VITAMIN A PALMITATE." Date available: 07/14/2017 Date last updated by company: 07/14/2017
