Source: USDA Branded Food Products Database Release December 2017 Software v.3.8.6.4 2017-10-02
Report Run at: December 18, 2017 20:17 EST
"Nutrient data for: 45121290, BRINKERS, NUSCO, 100% NATURAL SPREAD, HAZELNUT CHOCOLATE, UPC: 8710573441507"
Food Group:  Branded Food Products Database
Common Name:

Nutrient,Unit,Data points,Std. Error,"100.0 GRM = 100.0g",1Value per 100 g,
Proximates
"Energy",kcal,--,--,559,559
"Protein",g,--,--,6.40,6.40
"Total lipid (fat)",g,--,--,36.80,36.80
"Carbohydrate, by difference",g,--,--,49.50,49.50
"Fiber, total dietary",g,--,--,3.8,3.8
"Sugars, total",g,--,--,48.50,48.50
Minerals
"Sodium, Na",mg,--,--,50,50
Vitamins
Lipids
"Fatty acids, total saturated",g,--,--,5.200,5.200
Amino Acids
Other
Ingredients
"SUGAR, VEGETABLE OILS (RAPESEED , PALM), HAZELNUTS 13%, LOW FAT COCOA POWDER 7.5%, SKIMMED MILK POWDER, EMULSIFER: SOY LECITHIN, BOURBON VANILLA EXTRACT." Date available: 10/06/2017 Date last updated by company: 10/06/2017
