Source: USDA Branded Food Products Database Release December 2017 Software v.3.8.6.4 2017-10-02
Report Run at: December 18, 2017 20:17 EST
"Nutrient data for: 45199910, BRIOCHE BUNS, UPC: 657082002035"
Food Group:  Branded Food Products Database
Common Name:

Nutrient,Unit,Data points,Std. Error,"1 ROLL = 47.0g",1Value per 100 g,
Proximates
"Energy",kcal,--,--,140,298
"Protein",g,--,--,3.00,6.38
"Total lipid (fat)",g,--,--,2.00,4.26
"Carbohydrate, by difference",g,--,--,26.00,55.32
"Fiber, total dietary",g,--,--,1.0,2.1
"Sugars, total",g,--,--,5.00,10.64
Minerals
"Calcium, Ca",mg,--,--,0,0
"Iron, Fe",mg,--,--,1.53,3.26
"Sodium, Na",mg,--,--,230,489
Vitamins
"Vitamin C, total ascorbic acid",mg,--,--,9.6,20.4
"Vitamin A, IU",IU,--,--,0,0
Lipids
"Fatty acids, total saturated",g,--,--,0.000,0.000
"Fatty acids, total trans",g,--,--,0.000,0.000
"Cholesterol",mg,--,--,10,21
Amino Acids
Other
Ingredients
"UNBLEACHED ENRICHED FLOUR (WHEAT FLOUR, MALTED BARLEY FLOUR, NIACIN, REDUCED IRON, THIAMINE MONONITRATE, RIBOFLAVIN, FOLIC ACID), WATER, SUGAR, EGGS (WHOLE EGGS, CITRIC ACID ADDED TO PRESERVE COLOR), OLIVE OIL, PALM OIL, HONEY, SALT, YEAST, DOUGH CONDITIONER (FORTIFIED WHEAT FLOUR, ASCORBIC ACID, ENZYMES)." Date available: 07/14/2017 Date last updated by company: 07/14/2017
