Source: USDA Branded Food Products Database Release December 2017 Software v.3.8.6.4 2017-10-02
Report Run at: December 18, 2017 20:19 EST
"Nutrient data for: 45197895, BRISLING SARDINES, UPC: 074027005188"
Food Group:  Branded Food Products Database
Common Name:

Nutrient,Unit,Data points,Std. Error,"0.5 cup = 47.0g",1Value per 100 g,
Proximates
"Energy",kcal,--,--,117,249
"Protein",g,--,--,9.00,19.15
"Total lipid (fat)",g,--,--,9.00,19.15
"Carbohydrate, by difference",g,--,--,0.00,0.00
"Fiber, total dietary",g,--,--,0.0,0.0
"Sugars, total",g,--,--,0.00,0.00
Minerals
"Calcium, Ca",mg,--,--,50,106
"Iron, Fe",mg,--,--,1.63,3.46
"Sodium, Na",mg,--,--,320,681
Vitamins
"Vitamin C, total ascorbic acid",mg,--,--,0.0,0.0
"Vitamin A, IU",IU,--,--,0,0
Lipids
"Fatty acids, total saturated",g,--,--,2.002,4.260
"Fatty acids, total trans",g,--,--,0.000,0.000
"Cholesterol",mg,--,--,15,32
Amino Acids
Other
Ingredients
"SMOKED BRISLING SARDINES (70%), REFINED OLIVE OIL, SALT, SMOKE FLAVOR." Date available: 10/13/2017 Date last updated by company: 10/13/2017
