Source: USDA Branded Food Products Database Release December 2017 Software v.3.8.6.4 2017-10-02
Report Run at: December 18, 2017 20:19 EST
"Nutrient data for: 45235115, BRISK, HALF & HALF JUICE DRINK, ICED TEA, CHERRY LIMEADE, UPC: 012000042706"
Food Group:  Branded Food Products Database
Common Name:

Nutrient,Unit,Data points,Std. Error,"8.0 OZA = 240.0g",1Value per 100 g,
Proximates
"Energy",kcal,--,--,41,17
"Protein",g,--,--,0.00,0.00
"Total lipid (fat)",g,--,--,0.00,0.00
"Carbohydrate, by difference",g,--,--,10.99,4.58
"Sugars, total",g,--,--,10.99,4.58
Minerals
"Sodium, Na",mg,--,--,74,31
Vitamins
Lipids
Amino Acids
Other
Ingredients
"WATER, HIGH FRUCTOSE CORN SYRUP, CITRIC ACID, LEMON JUICE CONCENTRATE, NATURAL FLAVOR, SODIUM HEXAMETAPHOSPHATE (TO PROTECT FLAVOR), POTASSIUM SORBATE (PRESERVES FLAVOR), CITRUS PECTIN, ACESULFAME POTASSIUM, GLYCEROL ESTER OF ROSIN, SUCRALOSE, CALCIUM DISODIUM EDTA (TO PROTECT FLAVOR), RED 40, BLUE 1." Date available: 06/25/2017 Date last updated by company: 06/25/2017
