Source: USDA Branded Food Products Database Release December 2017 Software v.3.8.6.4 2017-10-02
Report Run at: December 18, 2017 20:20 EST
"Nutrient data for: 45122637, BRITISH BLEND, PREMIUM BLACK TEA, UPC: 011156054502"
Food Group:  Branded Food Products Database
Common Name:

Nutrient,Unit,Data points,Std. Error,"1 TEA BAG, MAKES 8 FL. OZ. = 2.5g",1Value per 100 g,
Proximates
"Energy",kcal,--,--,0,0
"Protein",g,--,--,0.00,0.00
"Total lipid (fat)",g,--,--,0.00,0.00
"Carbohydrate, by difference",g,--,--,1.00,40.00
Minerals
"Sodium, Na",mg,--,--,0,0
Vitamins
Lipids
Amino Acids
Other
Ingredients
"BLACK TEA" Date available: 08/05/2017 Date last updated by company: 08/05/2017
