Source: USDA Branded Food Products Database Release December 2017 Software v.3.8.6.4 2017-10-02
Report Run at: December 18, 2017 20:23 EST
"Nutrient data for: 45270871, BROCCOLI CHEESE SOUP, UPC: 716815492304"
Food Group:  Branded Food Products Database
Common Name:

Nutrient,Unit,Data points,Std. Error,"1 cup = 245.0g",1Value per 100 g,
Proximates
"Energy",kcal,--,--,260,106
"Protein",g,--,--,13.99,5.71
"Total lipid (fat)",g,--,--,16.00,6.53
"Carbohydrate, by difference",g,--,--,16.00,6.53
"Fiber, total dietary",g,--,--,1.0,0.4
"Sugars, total",g,--,--,10.00,4.08
Minerals
"Calcium, Ca",mg,--,--,451,184
"Iron, Fe",mg,--,--,0.71,0.29
"Sodium, Na",mg,--,--,1061,433
Vitamins
"Vitamin C, total ascorbic acid",mg,--,--,29.9,12.2
"Vitamin A, IU",IU,--,--,1250,510
Lipids
"Fatty acids, total saturated",g,--,--,8.992,3.670
"Fatty acids, total trans",g,--,--,0.000,0.000
"Cholesterol",mg,--,--,44,18
Amino Acids
Other
Ingredients
"EVAPORATED MILK (WATER, MILK, DIPOTASSIUM PHOSPHATE, CARRAGEENAN, VITAMIN D3), BROCCOLI, AMERICAN CHEESE (CULTURED MILK AND SKIM MILK, CREAM, SODIUM PHOSPHATE, SALT, COLORED WITH PAPRIKA AND ANNATTO, ENZYMES), SPICES (BLEACHED ENRICHED WHEAT FLOUR {CONTAINS NIACIN, REDUCED IRON, THIAMINE MONONITRATE, RIBOFLAVIN, AND FOLIC ACID}, MODIFIED CORN AND TAPIOCA STARCH, CORN MALTODEXTRIN, SALT, YEAST EXTRACT, SUGAR, WHEY POWDER, SKIM MILK SOIDS, COOKED CHICKEN FAT, HYDROLYZED SOY PROTEIN, NON-FAT MILK SOLIDS, SPICES, VEGETABLE GUMS (GUAR, XANTHAN AND CAROB BEAN GUMS), NATURAL FLAVORS, ONION POWDER, EXTRACTIVES OF TURMERIC AND PAPRIKA, SUNFLOWER OIL), BUTTER, ONION." Date available: 07/14/2017 Date last updated by company: 07/14/2017
