Source: USDA Branded Food Products Database Release December 2017 Software v.3.8.6.4 2017-10-02
Report Run at: December 18, 2017 20:23 EST
"Nutrient data for: 45330385, BROCCOLI & CHEESE POTATO, UPC: 782796027958"
Food Group:  Branded Food Products Database
Common Name:

Nutrient,Unit,Data points,Std. Error,"1 POTATO = 454.0g",1Value per 100 g,
Proximates
"Energy",kcal,--,--,672,148
"Protein",g,--,--,22.02,4.85
"Total lipid (fat)",g,--,--,27.01,5.95
"Carbohydrate, by difference",g,--,--,87.99,19.38
"Fiber, total dietary",g,--,--,10.9,2.4
"Sugars, total",g,--,--,6.99,1.54
Minerals
"Calcium, Ca",mg,--,--,400,88
"Iron, Fe",mg,--,--,1.77,0.39
"Sodium, Na",mg,--,--,1562,344
Vitamins
"Vitamin C, total ascorbic acid",mg,--,--,4.1,0.9
"Vitamin A, IU",IU,--,--,23,5
Lipids
"Fatty acids, total saturated",g,--,--,13.983,3.080
"Fatty acids, total trans",g,--,--,0.000,0.000
"Cholesterol",mg,--,--,68,15
Amino Acids
Other
Ingredients
"MASHED POTATOES (POTATOES, SODIUM METABISULFITE (TO PRESERVE FRESHNESS)), POTATO SKIN, CHEDDAR CHEESE (CULTURED PASTEURIZED MILK, SALT, CHEESE COLOR, ENZYMES), SOUR CREAM (GRADE A CULTURED MILK, CREAM, NONFAT MILK POWDER, GELATIN), 2% MILK (REDUCED FAT MILK, NON FAT MILK (SKIM/FAT FREE MILK), VITAMIN A PALMITATE, VITAMIN D3), HOMESTYLE RANCH DRESSING (SOYBEAN OIL, WATER, BUTTERMILK, EGG YOLK, DISTILLED VINEGAR, CONTAINS LESS THAN 2% OF SALT, MONOSODIUM GLUTAMATE, MODIFIED FOOD STARCH, BUTTERMILK SOLIDS, SUGAR, GARLIC, SPICE, CITRIC ACID, XANTHAN GUM, ONION, SORBIC ACID, NATURAL FLAVOR (MILK), CALCIUM DISODIUM EDTA TO PROTECT FLAVOR, EGG WHITES), WHITE ONION, BROCCOLI FLORETS, GREEN ONION, SALT, SEASONING (ONION, SPICES (BLACK PEPPER, PARSLEY, CELERY SEED, BASIL, BAY, MARJORAM, OREGANO, SAVORY, THYME, CAYENNE PEPPER, CORIANDER, CUMIN, MUSTARD, ROSEMARY), GARLIC, CARROT, ORANGE PEEL, TOMATO, LEMON JUICE POWDER, CITRIC ACID, OIL OF LEMON), BLACK PEPPER." Date available: 10/13/2017 Date last updated by company: 10/13/2017
