Source: USDA Branded Food Products Database Release December 2017 Software v.3.8.6.4 2017-10-02
Report Run at: December 18, 2017 20:23 EST
"Nutrient data for: 45200230, BROCCOLI & CHEESE SOUP, UPC: 688267154959"
Food Group:  Branded Food Products Database
Common Name:

Nutrient,Unit,Data points,Std. Error,"1 CONTAINER = 284.0g",1Value per 100 g,
Proximates
"Energy",kcal,--,--,369,130
"Protein",g,--,--,14.00,4.93
"Total lipid (fat)",g,--,--,27.01,9.51
"Carbohydrate, by difference",g,--,--,17.01,5.99
"Fiber, total dietary",g,--,--,2.0,0.7
"Sugars, total",g,--,--,4.00,1.41
Minerals
"Calcium, Ca",mg,--,--,400,141
"Iron, Fe",mg,--,--,0.31,0.11
"Sodium, Na",mg,--,--,869,306
Vitamins
"Vitamin C, total ascorbic acid",mg,--,--,23.3,8.2
"Vitamin A, IU",IU,--,--,1295,456
Lipids
"Fatty acids, total saturated",g,--,--,15.989,5.630
"Fatty acids, total trans",g,--,--,0.000,0.000
"Cholesterol",mg,--,--,80,28
Amino Acids
Other
Ingredients
"VEGETABLE STOCK (WATER, VEGETABLE BASE [CARROTS, ONIONS, CELERY, SALT, SUGAR, MALTODEXTRIN, CORN OIL, YEAST EXTRACT, NATURAL FLAVOR, POTATO STARCH), LIGHT CREAM, BROCCOLI CHEDDAR CHEESE (PASTEURIZED MILK, CHEESE CULTURE, SALT, ENZYMES, ANNATTO, POWDERED CELLULOSE [TO PREVENT CAKING]), MONTEREY JACK CHEESE (PASTEURIZED MILK, CHEESE CULTURE, SALT, ENZYMES, POWDERED CELLULOSE [TO PREVENT CAKING]), CONTAINS 2% OR LESS OF: ROMANO CHEESE (SHEEP'S MILK, CHEESE CULTURE, SALT, ENZYMES, CELLULOSE [TO PREVENT CAKING]), MODIFIED FOOD STARCH, CHEESE FLAVOR (WHEY, NON-FAT DRY MILK, NATURAL FLAVORS [CHEDDAR CHEESE {MILK, SALT, CULTURE, ENZYME}, BUTTERMILK, SODIUM PHOSPHATE], SALT, MALTODEXTRIN, SILICON DIOXIDE, MODIFIED FOOD STARCH), BUTTER (CREAM, SALT), WHEAT FLOUR, HOT PEPPER SAUCE (DISTILLED VINEGAR, RED PEPPER, SALT), NISIN PREPARATION, SPICE." Date available: 07/14/2017 Date last updated by company: 07/14/2017
