Source: USDA Branded Food Products Database Release December 2017 Software v.3.8.6.4 2017-10-02
Report Run at: December 18, 2017 20:26 EST
"Nutrient data for: 45226136, BROCCOLI FLORETS, UPC: 078742116952"
Food Group:  Branded Food Products Database
Common Name:

Nutrient,Unit,Data points,Std. Error,"1 cup = 85.0g",1Value per 100 g,
Proximates
"Energy",kcal,--,--,30,35
"Protein",g,--,--,3.00,3.53
"Total lipid (fat)",g,--,--,0.00,0.00
"Carbohydrate, by difference",g,--,--,5.00,5.88
"Fiber, total dietary",g,--,--,3.0,3.5
"Sugars, total",g,--,--,1.00,1.18
Minerals
"Calcium, Ca",mg,--,--,40,47
"Iron, Fe",mg,--,--,0.72,0.85
"Potassium, K",mg,--,--,150,176
"Sodium, Na",mg,--,--,20,24
Vitamins
"Vitamin C, total ascorbic acid",mg,--,--,36.0,42.4
"Vitamin A, IU",IU,--,--,750,882
Lipids
"Fatty acids, total saturated",g,--,--,0.000,0.000
"Fatty acids, total monounsaturated",g,--,--,0.000,0.000
"Fatty acids, total polyunsaturated",g,--,--,0.000,0.000
"Fatty acids, total trans",g,--,--,0.000,0.000
"Cholesterol",mg,--,--,0,0
Amino Acids
Other
Ingredients
"BROCCOLI." Date available: 08/10/2017 Date last updated by company: 08/10/2017
