Source: USDA Branded Food Products Database Release December 2017 Software v.3.8.6.4 2017-10-02
Report Run at: December 18, 2017 20:22 EST
"Nutrient data for: 45196246, BROCCOLI CHEDDAR PREMIUM SOUP, UPC: 041735083623"
Food Group:  Branded Food Products Database
Common Name:

Nutrient,Unit,Data points,Std. Error,"1 cup = 245.0g",1Value per 100 g,
Proximates
"Energy",kcal,--,--,311,127
"Protein",g,--,--,11.00,4.49
"Total lipid (fat)",g,--,--,24.01,9.80
"Carbohydrate, by difference",g,--,--,14.99,6.12
"Fiber, total dietary",g,--,--,1.0,0.4
"Sugars, total",g,--,--,1.00,0.41
Minerals
"Calcium, Ca",mg,--,--,299,122
"Iron, Fe",mg,--,--,0.37,0.15
"Sodium, Na",mg,--,--,760,310
Vitamins
"Vitamin C, total ascorbic acid",mg,--,--,1.2,0.5
"Vitamin A, IU",IU,--,--,750,306
Lipids
"Fatty acids, total saturated",g,--,--,14.994,6.120
"Fatty acids, total trans",g,--,--,0.000,0.000
"Cholesterol",mg,--,--,71,29
Amino Acids
Other
Ingredients
"WATER, CHEDDAR CHEESE (MILK, CHEESE CULTURES, SALT, ENZYMES), BROCCOLI, LIGHT CREAM (MILK, CREAM), RICE FLOUR, BUTTER CREAM, SALT), ONIONS, OLIVE OIL, SEA SALT, GARLIC, SPICES, ANNATTO," Date available: 07/14/2017 Date last updated by company: 07/14/2017
