Source: USDA Branded Food Products Database Release December 2017 Software v.3.8.6.4 2017-10-02
Report Run at: December 18, 2017 20:23 EST
"Nutrient data for: 45331790, BROCCOLI CHEDDAR STUFFED SHELLS, UPC: 074847400095"
Food Group:  Branded Food Products Database
Common Name:

Nutrient,Unit,Data points,Std. Error,"2.0 SHELLS = 113.0g",1Value per 100 g,
Proximates
"Energy",kcal,--,--,180,159
"Protein",g,--,--,8.99,7.96
"Total lipid (fat)",g,--,--,2.99,2.65
"Carbohydrate, by difference",g,--,--,29.00,25.66
"Fiber, total dietary",g,--,--,2.0,1.8
"Sugars, total",g,--,--,0.99,0.88
Minerals
"Calcium, Ca",mg,--,--,115,102
"Iron, Fe",mg,--,--,0.99,0.88
"Potassium, K",mg,--,--,142,126
"Sodium, Na",mg,--,--,160,142
Vitamins
"Vitamin D",IU,--,--,0,0
Lipids
"Fatty acids, total saturated",g,--,--,1.503,1.330
"Fatty acids, total monounsaturated",g,--,--,0.000,0.000
"Fatty acids, total polyunsaturated",g,--,--,0.000,0.000
"Fatty acids, total trans",g,--,--,0.000,0.000
"Cholesterol",mg,--,--,20,18
Amino Acids
Other
Ingredients
"ENRICHED SEMOLINA FLOUR (SEMOLINA FLOUR [NIACIN, FERROUS SULFATE, THIAMINE MONONITRATE, RIBOFLAVIN, FOLIC ACID]), WATER, RICOTTA CHEESE (WHEY, VINEGAR, SALT), MILK, BROCCOLI, LOW-MOISTURE PART-SKIM MOZZARELLA CHEESE ([PASTEURIZED MILK, CHEESE CULTURES, SALT, ENZYMES], POTATO STARCH, CANOLA OIL, AND CELLULOSE POWDER ADDED TO PREVENT CAKING), CHEDDAR SEASONING BASE (CHEDDAR CHEESE [CULTURED PASTEURIZED MILK, SALT, ENZYMES], NONFAT MILK, MALTODEXTRIN, BUTTER [CREAM, SALT], SALT, DISODIUM PHOSPHATE, YEAST EXTRACT, NATURAL FLAVOR, EXTRACTIVES OF ANNATTO), PASTEURIZED EGGS, CORN STARCH, SALT, GARLIC, TURMERIC (COLOR)." Date available: 10/13/2017 Date last updated by company: 10/13/2017
