Source: USDA Branded Food Products Database Release December 2017 Software v.3.8.6.4 2017-10-02
Report Run at: December 18, 2017 20:34 EST
"Nutrient data for: 45118082, BROOKS, QUICK CHILI MIX, UPC: 023000966053"
Food Group:  Branded Food Products Database
Common Name:

Nutrient,Unit,Data points,Std. Error,"0.5 cup = 130.0g",1Value per 100 g,
Proximates
"Energy",kcal,--,--,110,85
"Protein",g,--,--,5.00,3.85
"Total lipid (fat)",g,--,--,0.49,0.38
"Carbohydrate, by difference",g,--,--,19.99,15.38
"Fiber, total dietary",g,--,--,9.0,6.9
"Sugars, total",g,--,--,2.00,1.54
Minerals
"Calcium, Ca",mg,--,--,40,31
"Iron, Fe",mg,--,--,3.81,2.93
"Sodium, Na",mg,--,--,390,300
Vitamins
"Vitamin C, total ascorbic acid",mg,--,--,5.1,3.9
"Vitamin A, IU",IU,--,--,634,488
Lipids
"Fatty acids, total saturated",g,--,--,0.000,0.000
"Fatty acids, total trans",g,--,--,0.000,0.000
"Cholesterol",mg,--,--,0,0
Amino Acids
Other
Ingredients
"COOKED SMALL RED BEANS (BEANS, WATER), WATER, CONTAINS 2% OR LESS OF HIGH FRUCTOSE CORN SYRUP, WHEAT FLOUR, TOMATO PASTE, SPICES, SALT, CORN FLOUR, SOYBEAN OIL, NATURAL FLAVORS." Date available: 06/25/2017 Date last updated by company: 06/25/2017
