Source: USDA Branded Food Products Database Release December 2017 Software v.3.8.6.4 2017-10-02
Report Run at: December 18, 2017 20:31 EST
"Nutrient data for: 45157830, BROOKSHIRE'S, CINNAMON IMPERIALS, UPC: 092825111719"
Food Group:  Branded Food Products Database
Common Name:

Nutrient,Unit,Data points,Std. Error,"44.0 PIECES = 18.0g",1Value per 100 g,
Proximates
"Energy",kcal,--,--,70,389
"Protein",g,--,--,0.00,0.00
"Total lipid (fat)",g,--,--,0.00,0.00
"Carbohydrate, by difference",g,--,--,17.00,94.44
"Fiber, total dietary",g,--,--,0.0,0.0
"Sugars, total",g,--,--,15.00,83.33
Minerals
"Calcium, Ca",mg,--,--,0,0
"Iron, Fe",mg,--,--,0.00,0.00
"Sodium, Na",mg,--,--,0,0
Vitamins
"Vitamin C, total ascorbic acid",mg,--,--,0.0,0.0
"Vitamin A, IU",IU,--,--,0,0
Lipids
"Fatty acids, total saturated",g,--,--,0.000,0.000
"Fatty acids, total trans",g,--,--,0.000,0.000
"Cholesterol",mg,--,--,0,0
Amino Acids
Other
Ingredients
"SUGAR, CORN, SYRUP, ARTIFICIAL FLAVORS, MALTODEXTRIN, RED 40, CARNAUBA WAX, TITANIUM DIOXIDE (COLOR)." Date available: 07/14/2017 Date last updated by company: 07/14/2017
