Source: USDA Branded Food Products Database Release December 2017 Software v.3.8.6.4 2017-10-02
Report Run at: December 18, 2017 20:49 EST
"Nutrient data for: 45288632, BROWN SUGAR HAM, UPC: 492271601015"
Food Group:  Branded Food Products Database
Common Name:

Nutrient,Unit,Data points,Std. Error,"2.0 ONZ = 56.0g",1Value per 100 g,
Proximates
"Energy",kcal,--,--,90,161
"Protein",g,--,--,9.00,16.07
"Total lipid (fat)",g,--,--,4.50,8.04
"Carbohydrate, by difference",g,--,--,3.00,5.36
"Fiber, total dietary",g,--,--,0.0,0.0
"Sugars, total",g,--,--,3.00,5.36
Minerals
"Calcium, Ca",mg,--,--,0,0
"Iron, Fe",mg,--,--,0.35,0.63
"Sodium, Na",mg,--,--,590,1054
Vitamins
"Vitamin C, total ascorbic acid",mg,--,--,0.0,0.0
"Vitamin A, IU",IU,--,--,0,0
Lipids
"Fatty acids, total saturated",g,--,--,1.501,2.680
"Fatty acids, total trans",g,--,--,0.000,0.000
"Cholesterol",mg,--,--,30,54
Amino Acids
Other
Ingredients
"WATER, FRUCTOSE, BROWN SUGAR, CONTAINS 2% OR LESS OF SALT, FLAVORING (PROPYLENE GLYCOL, INVERT SUGAR, ETHYL ALCOHOL, LACTIC ACID, NATURAL FLAVOR, CARAMEL COLOR), SPICES, POTASSIUM LACTATE, SODIUM LACTATE, SODIUM PHOSPHATES, SODIUM DIACETATE, SODIUM ERYTHORBATE, SODIUM NITRITE." Date available: 07/14/2017 Date last updated by company: 07/14/2017
