Source: USDA Branded Food Products Database Release December 2017 Software v.3.8.6.4 2017-10-02
Report Run at: December 18, 2017 20:46 EST
"Nutrient data for: 45258421, BROWN RICE SCOOTERS SNACK, UPC: 864223000083"
Food Group:  Branded Food Products Database
Common Name:

Nutrient,Unit,Data points,Std. Error,"1 PIECE = 71.0g",1Value per 100 g,
Proximates
"Energy",kcal,--,--,110,155
"Protein",g,--,--,4.00,5.63
"Total lipid (fat)",g,--,--,1.50,2.11
"Carbohydrate, by difference",g,--,--,19.00,26.76
"Sugars, total",g,--,--,3.00,4.23
Minerals
"Sodium, Na",mg,--,--,180,254
Vitamins
Lipids
Amino Acids
Other
Ingredients
"PARTIALLY MILLED BROWN (HAIGA) RICE, ORGANIC CHICKEN, ORGANIC EDAMAME, GLUTEN FREE SOY SAUCE, SAKE, MIRIN, BROWN SUGAR, SCALLIONS, ROASTED SESAME SEEDS. RICE WINE VINEGAR, KOSHER SALT." Date available: 10/19/2017 Date last updated by company: 10/19/2017
