Source: USDA Branded Food Products Database Release December 2017 Software v.3.8.6.4 2017-10-02
Report Run at: December 18, 2017 20:46 EST
"Nutrient data for: 45332744, BROWN RICE PROTEIN CONCENTRATE, UPC: 790011218074"
Food Group:  Branded Food Products Database
Common Name:

Nutrient,Unit,Data points,Std. Error,"2.0 Tbsp = 19.0g",1Value per 100 g,
Proximates
"Energy",kcal,--,--,60,316
"Protein",g,--,--,12.00,63.16
"Total lipid (fat)",g,--,--,0.00,0.00
"Carbohydrate, by difference",g,--,--,3.00,15.79
"Fiber, total dietary",g,--,--,1.0,5.3
"Sugars, total",g,--,--,0.00,0.00
Minerals
"Calcium, Ca",mg,--,--,50,263
"Iron, Fe",mg,--,--,5.68,29.92
"Sodium, Na",mg,--,--,10,53
Vitamins
"Vitamin C, total ascorbic acid",mg,--,--,1.3,6.6
"Vitamin A, IU",IU,--,--,104,547
Lipids
"Fatty acids, total saturated",g,--,--,0.000,0.000
"Fatty acids, total trans",g,--,--,0.000,0.000
"Cholesterol",mg,--,--,0,0
Amino Acids
Other
Ingredients
"NON-GMO ORGANIC BROWN RICE PROTEIN, ORGANIC COCOA POWDER, NATURAL ORGANIC CHOCOLATE FLAVOR, NATURAL ORGANIC VANILLA FLAVOR, ORGANIC GUM ACACIA, ORGANIC GUAR GUM AND XANTHAN GUM." Date available: 07/14/2017 Date last updated by company: 07/14/2017
