Source: USDA Branded Food Products Database Release December 2017 Software v.3.8.6.4 2017-10-02
Report Run at: December 18, 2017 20:44 EST
"Nutrient data for: 45316332, BROWNIE, UPC: 091428991513"
Food Group:  Branded Food Products Database
Common Name:

Nutrient,Unit,Data points,Std. Error,"2.4 ONZ = 68.0g",1Value per 100 g,
Proximates
"Energy",kcal,--,--,243,357
"Protein",g,--,--,3.00,4.41
"Total lipid (fat)",g,--,--,9.00,13.24
"Carbohydrate, by difference",g,--,--,40.00,58.82
"Fiber, total dietary",g,--,--,2.0,2.9
"Sugars, total",g,--,--,27.00,39.71
Minerals
"Sodium, Na",mg,--,--,127,187
Vitamins
Lipids
"Fatty acids, total saturated",g,--,--,1.999,2.940
"Fatty acids, total trans",g,--,--,0.000,0.000
"Cholesterol",mg,--,--,20,29
Amino Acids
Other
Ingredients
"SUGAR, ENRICHED BLEACHED FLOUR (BLEACHED WHEAT FLOUR, MALTED BARLEY FLOUR, NIACIN, IRON (REDUCED), THIAMINE, MONONITRATE, RIBOFLAVIN, FOLIC ACID), SOYBEAN OIL, WATER, EGGS, COCOA (PROCESSED WITH ALKALI), BAKING POWDER (SODIUM ACID PYROPHOSPHATE, SODIUM BICARBONATE, CORN STARCH, CALCIUM SULFATE, MONO CALCIUM PHOSPHATE), SALT." Date available: 09/25/2017 Date last updated by company: 09/25/2017
