Source: USDA Branded Food Products Database Release December 2017 Software v.3.8.6.4 2017-10-02
Report Run at: December 18, 2017 20:45 EST
"Nutrient data for: 45291323, BROWN RICE CHIPS, UPC: 852406003730"
Food Group:  Branded Food Products Database
Common Name:

Nutrient,Unit,Data points,Std. Error,"12.0 CHIPS) | (ABOUT = 28.0g",1Value per 100 g,
Proximates
"Energy",kcal,--,--,140,500
"Protein",g,--,--,3.00,10.71
"Total lipid (fat)",g,--,--,6.00,21.43
"Carbohydrate, by difference",g,--,--,19.00,67.86
"Fiber, total dietary",g,--,--,3.0,10.7
"Sugars, total",g,--,--,0.00,0.00
Minerals
"Potassium, K",mg,--,--,160,571
"Sodium, Na",mg,--,--,110,393
Vitamins
Lipids
"Fatty acids, total saturated",g,--,--,0.501,1.790
"Fatty acids, total monounsaturated",g,--,--,1.999,7.140
"Fatty acids, total polyunsaturated",g,--,--,2.999,10.710
"Fatty acids, total trans",g,--,--,0.000,0.000
"Cholesterol",mg,--,--,0,0
Amino Acids
Other
Ingredients
"LUKE'S ORGANIC GRAIN & SEED BLEND (WHOLE GRAIN BROWN RICE, BROWN RICE FLOUR, MILLET FLOUR, QUINOA FLOUR, AMARANTH FLOUR), LUKE'S ORGANIC OIL BLEND (SUNFLOWER, SAFFLOWER AND/OR RED PALM OLEIN), ORGANIC SESAME SEEDS, SEA SALT, ORGANIC NATURAL COLOR" Date available: 09/23/2017 Date last updated by company: 09/23/2017
