Source: USDA Branded Food Products Database Release December 2017 Software v.3.8.6.4 2017-10-02
Report Run at: December 18, 2017 20:44 EST
"Nutrient data for: 45314709, BROWNING, UPC: 055270840498"
Food Group:  Branded Food Products Database
Common Name:

Nutrient,Unit,Data points,Std. Error,"1 Tbsp = 15.0g",1Value per 100 g,
Proximates
"Energy",kcal,--,--,40,267
"Protein",g,--,--,0.00,0.00
"Total lipid (fat)",g,--,--,0.00,0.00
"Carbohydrate, by difference",g,--,--,10.00,66.67
"Sugars, total",g,--,--,7.00,46.67
Minerals
"Sodium, Na",mg,--,--,15,100
Vitamins
Lipids
Amino Acids
Other
Ingredients
"CANE SUGAR, WATER, CARAMEL, SALT, SODIUM BENZOATE (PRESERVATIVE)" Date available: 07/14/2017 Date last updated by company: 07/14/2017
