Source: USDA Branded Food Products Database Release December 2017 Software v.3.8.6.4 2017-10-02
Report Run at: December 18, 2017 20:40 EST
"Nutrient data for: 45180467, BROWNIE MIX, UPC: 851152005197"
Food Group:  Branded Food Products Database
Common Name:

Nutrient,Unit,Data points,Std. Error,"27.0 GRM = 27.0g",1Value per 100 g,
Proximates
"Energy",kcal,--,--,100,370
"Protein",g,--,--,2.00,7.41
"Total lipid (fat)",g,--,--,2.00,7.41
"Carbohydrate, by difference",g,--,--,22.00,81.48
"Fiber, total dietary",g,--,--,2.0,7.4
"Sugars, total",g,--,--,14.00,51.85
Minerals
"Calcium, Ca",mg,--,--,0,0
"Iron, Fe",mg,--,--,2.13,7.90
"Sodium, Na",mg,--,--,115,426
Vitamins
"Vitamin C, total ascorbic acid",mg,--,--,0.0,0.0
"Vitamin A, IU",IU,--,--,0,0
Lipids
"Fatty acids, total saturated",g,--,--,0.999,3.700
"Fatty acids, total trans",g,--,--,0.000,0.000
"Cholesterol",mg,--,--,0,0
Amino Acids
Other
Ingredients
"CANE SUGAR, GLUTEN-FREE WHOLE GRAIN OAT FLOUR, COCOA POWDER, CHOCOLATE CHIPS (SUGAR, UNSWEETENED CHOCOLATE, COCOA BUTTER, SOY LECITHIN, NATURAL FLAVOR), BROWN RICE FLOUR, CONTAINS 2% OR LESS OF: BAKING SODA AND SEA SALT." Date available: 07/14/2017 Date last updated by company: 07/14/2017
