Source: USDA Branded Food Products Database Release December 2017 Software v.3.8.6.4 2017-10-02
Report Run at: December 18, 2017 20:42 EST
"Nutrient data for: 45180380, BROWNIES, UPC: 851748005075"
Food Group:  Branded Food Products Database
Common Name:

Nutrient,Unit,Data points,Std. Error,"0.33 BROWNIE = 38.0g",1Value per 100 g,
Proximates
"Energy",kcal,--,--,170,447
"Protein",g,--,--,2.00,5.26
"Total lipid (fat)",g,--,--,9.00,23.68
"Carbohydrate, by difference",g,--,--,22.00,57.89
"Fiber, total dietary",g,--,--,1.0,2.6
"Sugars, total",g,--,--,17.00,44.74
Minerals
"Calcium, Ca",mg,--,--,0,0
"Iron, Fe",mg,--,--,1.14,2.99
"Sodium, Na",mg,--,--,190,500
Vitamins
"Vitamin C, total ascorbic acid",mg,--,--,0.0,0.0
"Vitamin A, IU",IU,--,--,0,0
Lipids
"Fatty acids, total saturated",g,--,--,3.500,9.210
"Fatty acids, total trans",g,--,--,0.000,0.000
"Cholesterol",mg,--,--,15,39
Amino Acids
Other
Ingredients
"SEMI SWEET CHOCOLATE CHIPS (SUGAR, CHOCOLATE, COCOA BUTTER, MILK FAT, SOY LECITHIN, NATURAL AND ARTIFICIAL FLAVORS, MILK), SUGAR, ENRICHED FLOUR (WHEAT FLOUR, NIACIN, IRON, THIAMINE MONONITRATE, RIBOFLAVIN), SOYBEAN OIL, EGGS, WATER, INVERT SUGAR, CARAMEL (CORN SYRUP, SUGAR, SWEETENED CONDENSED MILK [PASTEURIZED MILK, SUGAR], GLYCERIN, HEAVY CREAM, HYDROGENATED VEGETABLE OIL [COCONUT, SOYBEAN], BUTTER [CREAM, SALT], CORN STARCH MODIFIED, MILK PROTEIN ISOLATE, NATURAL FLAVOR, PECTIN, PROPYLENE GLYCOL ALGINATE, DISODIUM PHOSPHATE, SOY LECITHIN, XANTHAN GUM, TOCOPHEROL [VITAMIN E] TO PRESERVE FRESHNESS), COCOA PROCESSED WITH ALKALI, PARTIALLY HYDROGENATED SOYBEAN AND/OR COTTONSEED OIL, HIGH FRUCTOSE CORN SYRUP, CORN SYRUP, CORN STARCH, SALT, TAPIOCA MALTODEXTRIN, NATURAL AND ARTIFICIAL FLAVORS, POTASSIUM SORBATE (PRESERVATIVE), MONO AND DIGLYCERIDES, XANTHAN GUM, POLYSORBATE 60." Date available: 07/14/2017 Date last updated by company: 07/14/2017
