Source: USDA Branded Food Products Database Release December 2017 Software v.3.8.6.4 2017-10-02
Report Run at: December 18, 2017 20:44 EST
"Nutrient data for: 45280154, BROWN 'N' SERVE ROLLS, UPC: 041268129249"
Food Group:  Branded Food Products Database
Common Name:

Nutrient,Unit,Data points,Std. Error,"1 ROLL = 31.0g",1Value per 100 g,
Proximates
"Energy",kcal,--,--,80,258
"Protein",g,--,--,3.00,9.68
"Total lipid (fat)",g,--,--,1.00,3.23
"Carbohydrate, by difference",g,--,--,14.00,45.16
"Fiber, total dietary",g,--,--,1.0,3.2
"Sugars, total",g,--,--,1.00,3.23
Minerals
"Calcium, Ca",mg,--,--,60,194
"Iron, Fe",mg,--,--,1.16,3.75
"Sodium, Na",mg,--,--,140,452
Vitamins
"Vitamin C, total ascorbic acid",mg,--,--,0.0,0.0
"Vitamin A, IU",IU,--,--,0,0
Lipids
"Fatty acids, total saturated",g,--,--,0.000,0.000
"Fatty acids, total trans",g,--,--,0.000,0.000
"Cholesterol",mg,--,--,0,0
Amino Acids
Other
Ingredients
"UNBLEACHED ENRICHED FLOUR (WHEAT FLOUR, MALTED BARLEY FLOUR, NIACIN, REDUCED IRON, THIAMIN MONONITRATE, RIBOFLAVIN, FOLIC ACID), WATER, HIGH FRUCTOSE CORN SYRUP, SOYBEAN OIL, YEAST, CONTAINS 2% OR LESS OF EACH OF THE FOLLOWING: WHEAT GLUTEN, SALT, DOUGH CONDITIONERS (CONTAINS ONE OR MORE OF THE FOLLOWING: SODIUM STEAROYL LACTYLATE, CALCIUM STEAROYL LACTYLATE, MONOGLYCERIDES, MONO- AND DIGLYCERIDES, DISTILLED MONOGLYCERIDES, CALCIUM PEROXIDE, CALCIUM IODATE, DATEM, ETHOXYLATED MONO- AND DIGLYCERIDES, ENZYMES, ASCORBIC ACID), SOY FLOUR, MALTODEXTRIN, CALCIUM SULFATE, VINEGAR, AMMONIUM SULFATE, DEXTROSE, SUGAR, SOY LECITHIN, CORN STARCH, CALCIUM CARBONATE, MONOCALCIUM PHOSPHATE, CALCIUM PROPIONATE (TO RETARD SPOILAGE)." Date available: 07/14/2017 Date last updated by company: 07/14/2017
