Source: USDA Branded Food Products Database Release December 2017 Software v.3.8.6.4 2017-10-02
Report Run at: December 18, 2017 20:41 EST
"Nutrient data for: 45264635, BROWNIE MIX, UPC: 015400174053"
Food Group:  Branded Food Products Database
Common Name:

Nutrient,Unit,Data points,Std. Error,"0.056 PACKAGE (ABOUT 3 TBSP. DRY MIX) = 29.0g",1Value per 100 g,
Proximates
"Energy",kcal,--,--,110,379
"Protein",g,--,--,1.00,3.45
"Total lipid (fat)",g,--,--,1.00,3.45
"Carbohydrate, by difference",g,--,--,25.00,86.21
"Fiber, total dietary",g,--,--,1.0,3.4
"Sugars, total",g,--,--,17.00,58.62
Minerals
"Calcium, Ca",mg,--,--,0,0
"Iron, Fe",mg,--,--,1.49,5.14
"Sodium, Na",mg,--,--,100,345
Vitamins
"Vitamin C, total ascorbic acid",mg,--,--,0.0,0.0
"Vitamin A, IU",IU,--,--,0,0
Lipids
"Fatty acids, total saturated",g,--,--,0.000,0.000
"Fatty acids, total trans",g,--,--,0.000,0.000
"Cholesterol",mg,--,--,0,0
Amino Acids
Other
Ingredients
"SUGAR, ENRICHED BLEACHED FLOUR (BLEACHED WHEAT FLOUR, NIACIN, IRON, THIAMINE MONONITRATE, RIBOFLAVIN, FOLIC ACID), COCOA (PROCESSED WITH ALKALI), VEGETABLE SHORTENING (CONTAINS ONE OR MORE OF THE FOLLOWING: CANOLA AND/OR PALM OIL AND/OR SOYBEAN) WITH PRESERVATIVE (TBHQ), CONTAINS 2% OR LESS OF: SALT, CORN STARCH, ARTIFICIAL FLAVOR." Date available: 10/13/2017 Date last updated by company: 10/13/2017
