Source: USDA Branded Food Products Database Release December 2017 Software v.3.8.6.4 2017-10-02
Report Run at: December 18, 2017 20:47 EST
"Nutrient data for: 45172514, BROWN'S, CLASSIC TEXAS TOAST, UPC: 033273213143"
Food Group:  Branded Food Products Database
Common Name:

Nutrient,Unit,Data points,Std. Error,"1 SLICE = 56.0g",1Value per 100 g,
Proximates
"Energy",kcal,--,--,140,250
"Protein",g,--,--,5.00,8.93
"Total lipid (fat)",g,--,--,1.50,2.68
"Carbohydrate, by difference",g,--,--,27.00,48.21
"Fiber, total dietary",g,--,--,1.0,1.8
"Sugars, total",g,--,--,2.00,3.57
Minerals
"Calcium, Ca",mg,--,--,40,71
"Iron, Fe",mg,--,--,1.28,2.29
"Sodium, Na",mg,--,--,270,482
Vitamins
"Vitamin C, total ascorbic acid",mg,--,--,0.0,0.0
"Vitamin A, IU",IU,--,--,0,0
Lipids
"Fatty acids, total saturated",g,--,--,0.000,0.000
"Fatty acids, total trans",g,--,--,0.000,0.000
"Cholesterol",mg,--,--,0,0
Amino Acids
Other
Ingredients
"ENRICHED WHEAT FLOUR (WHEAT FLOUR, BARLEY MALT, NIACIN, IRON, THIAMINE MONONITRATE, RIBOFLAVIN, FOLIC ACID), WATER, CORN SYRUP, YEAST, CONTAINS 2% OR LESS OF THE FOLLOWING: SOYBEAN OIL, WHEAT GLUTEN, SALT, DOUGH CONDITIONERS (MONO & DIGLYCERIDES, SODIUM STEAROYL LACTYLATE, ASCORBIC ACID, CALCIUM PEROXIDE, AZODICARBONAMIDE), CORN FLOUR, TURMERIC, PAPRIKA, NATURAL AND ARTIFICIAL FLAVORS, YEAST NUTRIENTS (MONOCALCIUM PHOSPHATE, CALCIUM SULFATE, AMMONIUM SULFATE), SOY LECITHIN, CALCIUM PROPIONATE AND POTASSIUM SORBATE (PRESERVATIVES), ENZYMES." Date available: 07/14/2017 Date last updated by company: 07/14/2017
