Source: USDA Branded Food Products Database Release December 2017 Software v.3.8.6.4 2017-10-02
Report Run at: December 18, 2017 20:45 EST
"Nutrient data for: 45275069, BROWN POTATOES, UPC: 038259101520"
Food Group:  Branded Food Products Database
Common Name:

Nutrient,Unit,Data points,Std. Error,"1 cup = 84.0g",1Value per 100 g,
Proximates
"Energy",kcal,--,--,70,83
"Protein",g,--,--,2.00,2.38
"Total lipid (fat)",g,--,--,0.00,0.00
"Carbohydrate, by difference",g,--,--,16.00,19.05
"Fiber, total dietary",g,--,--,2.0,2.4
"Sugars, total",g,--,--,1.00,1.19
Minerals
"Calcium, Ca",mg,--,--,9,11
"Iron, Fe",mg,--,--,0.36,0.43
"Potassium, K",mg,--,--,280,333
"Sodium, Na",mg,--,--,40,48
Vitamins
"Vitamin D",IU,--,--,0,0
Lipids
"Fatty acids, total saturated",g,--,--,0.000,0.000
"Fatty acids, total monounsaturated",g,--,--,0.000,0.000
"Fatty acids, total polyunsaturated",g,--,--,0.000,0.000
"Fatty acids, total trans",g,--,--,0.000,0.000
"Cholesterol",mg,--,--,0,0
Amino Acids
Other
Ingredients
"POTATOES, DISODIUM DIHYDROGEN PYROPHOSPHATE (TO PROMOTE COLOR RETENTION), DEXTROSE." Date available: 10/13/2017 Date last updated by company: 10/13/2017
