Source: USDA Branded Food Products Database Release December 2017 Software v.3.8.6.4 2017-10-02
Report Run at: December 18, 2017 20:39 EST
"Nutrient data for: 45267688, BROWNIE BITES, UPC: 688267180637"
Food Group:  Branded Food Products Database
Common Name:

Nutrient,Unit,Data points,Std. Error,"1 BROWNIE = 28.0g",1Value per 100 g,
Proximates
"Energy",kcal,--,--,140,500
"Protein",g,--,--,1.00,3.57
"Total lipid (fat)",g,--,--,7.00,25.00
"Carbohydrate, by difference",g,--,--,18.00,64.29
"Fiber, total dietary",g,--,--,1.0,3.6
"Sugars, total",g,--,--,12.00,42.86
Minerals
"Calcium, Ca",mg,--,--,0,0
"Iron, Fe",mg,--,--,0.52,1.84
"Sodium, Na",mg,--,--,55,196
Vitamins
"Vitamin C, total ascorbic acid",mg,--,--,0.0,0.0
"Vitamin A, IU",IU,--,--,0,0
Lipids
"Fatty acids, total saturated",g,--,--,1.999,7.140
"Fatty acids, total trans",g,--,--,0.000,0.000
"Cholesterol",mg,--,--,0,0
Amino Acids
Other
Ingredients
"POWDERED SUGAR (SUGAR, CORN STARCH), BLEACHED WHEAT FLOUR, SUGAR, SOYBEAN OIL, WATER, EGG WHITES, PALM OIL, HYDROGENATED PALM KERNEL OIL, COCOA, CONTAINS LESS THAN 2% OF EACH OF THE FOLLOWING: WHEAT STARCH, CORN SYRUP, NATURAL AND ARTIFICIAL FLAVORS, INULIN, SALT, POTASSIUM SORBATE PRESERVATIVE, COFFEE, MONO- AND DIGLYCERIDES, RAPESEED OIL, BAKING SODA, ETHYL ALCOHOL, NONFAT MILK, GLYCEROL, SOY LECITHIN, SODIUM STEAROYL LACTYLATE, WHEAT FIBER, CALCIUM STEAROYL LACTYLATE, METHYLCELLULOSE." Date available: 07/14/2017 Date last updated by company: 07/14/2017
