Source: USDA Branded Food Products Database Release December 2017 Software v.3.8.6.4 2017-10-02
Report Run at: December 18, 2017 20:39 EST
"Nutrient data for: 45178781, BROWNIE BRITTLE, UPC: 711747017243"
Food Group:  Branded Food Products Database
Common Name:

Nutrient,Unit,Data points,Std. Error,"1 ONZ = 28.0g",1Value per 100 g,
Proximates
"Energy",kcal,--,--,120,429
"Protein",g,--,--,1.00,3.57
"Total lipid (fat)",g,--,--,4.00,14.29
"Carbohydrate, by difference",g,--,--,21.00,75.00
"Fiber, total dietary",g,--,--,1.0,3.6
"Sugars, total",g,--,--,14.00,50.00
Minerals
"Calcium, Ca",mg,--,--,0,0
"Iron, Fe",mg,--,--,1.54,5.51
"Sodium, Na",mg,--,--,75,268
Vitamins
"Vitamin C, total ascorbic acid",mg,--,--,0.0,0.0
"Vitamin A, IU",IU,--,--,0,0
Lipids
"Fatty acids, total saturated",g,--,--,1.999,7.140
"Fatty acids, total trans",g,--,--,0.000,0.000
"Cholesterol",mg,--,--,0,0
Amino Acids
Other
Ingredients
"ENRICHED WHEAT FLOUR BLEACHED (FLOUR, NIACIN, IRON, THIAMINE MONONITRATE, RIBOFLAVIN, FOLIC ACID), POWDERED SUGAR, SUGAR, PALM KERNEL, PALM OIL, COCOA PROCESSED WITH ALKALI, CORN SYRUP SOLIDS, SOYBEAN OIL, DRY EGG WHITES, CORN STARCH, SALT, CARAMEL COLOR, DEXTROSE LEAVENING (BAKING SODA), SOY LECITHIN, NATURAL FLAVOR, NONFAT DRY MILK" Date available: 07/14/2017 Date last updated by company: 07/14/2017
