Source: USDA Branded Food Products Database Release December 2017 Software v.3.8.6.4 2017-10-02
Report Run at: December 18, 2017 20:42 EST
"Nutrient data for: 45207626, BROWNIES, UPC: 032913018117"
Food Group:  Branded Food Products Database
Common Name:

Nutrient,Unit,Data points,Std. Error,"1 BROWNIE = 46.0g",1Value per 100 g,
Proximates
"Energy",kcal,--,--,180,391
"Protein",g,--,--,2.00,4.35
"Total lipid (fat)",g,--,--,6.00,13.04
"Carbohydrate, by difference",g,--,--,31.00,67.39
"Fiber, total dietary",g,--,--,1.0,2.2
"Sugars, total",g,--,--,22.00,47.83
Minerals
"Calcium, Ca",mg,--,--,0,0
"Iron, Fe",mg,--,--,0.63,1.36
"Sodium, Na",mg,--,--,125,272
Vitamins
"Vitamin C, total ascorbic acid",mg,--,--,0.0,0.0
"Vitamin A, IU",IU,--,--,0,0
Lipids
"Fatty acids, total saturated",g,--,--,2.001,4.350
"Fatty acids, total trans",g,--,--,0.000,0.000
"Cholesterol",mg,--,--,0,0
Amino Acids
Other
Ingredients
"POWDERED SUGAR WATER, ENRICHED WHEAT FLOUR BLEACHED (FLOUR, NIACIN, IRON, THIAMINE MONONITRATE, RIBOFLAVIN, FOLIC ACID), SUGAR, PALM OIL, CORN SYRUP, COCOA [PROCESSED WITH ALKALI], SOYBEAN OIL, HIGH FRUCTOSE CORN SYRUP, EGG WHITES, SALT, CARAMEL COLOR, LEAVENING (BAKING SODA, SODIUM ALUMINUM PHOSPHATE), MONO & DIGLYCERIDES, SOY LECITHIN, DEXTROSE, POLYSORBATE 60, SODIUM PROPIONATE AND SORBIC ACID (AS PRESERVATIVES), CORN FLOUR, NATURAL AND ARTIFICIAL FLAVORS, NONFAT DRY MILK, RED 40, CORNSTARCH, CELLULOSE GUM, XANTHAN GUM." Date available: 07/14/2017 Date last updated by company: 07/14/2017
