Source: USDA Branded Food Products Database Release December 2017 Software v.3.8.6.4 2017-10-02
Report Run at: December 18, 2017 20:54 EST
"Nutrient data for: 45268958, BRUSSELS SPROUTS WITH MAPLE BUTTER & CAYENNE, UPC: 826766821037"
Food Group:  Branded Food Products Database
Common Name:

Nutrient,Unit,Data points,Std. Error,"1 cup = 85.0g",1Value per 100 g,
Proximates
"Energy",kcal,--,--,70,82
"Protein",g,--,--,3.00,3.53
"Total lipid (fat)",g,--,--,4.00,4.71
"Carbohydrate, by difference",g,--,--,8.00,9.41
"Fiber, total dietary",g,--,--,3.0,3.5
"Sugars, total",g,--,--,2.00,2.35
Minerals
"Calcium, Ca",mg,--,--,40,47
"Iron, Fe",mg,--,--,1.08,1.27
"Sodium, Na",mg,--,--,40,47
Vitamins
"Vitamin C, total ascorbic acid",mg,--,--,66.0,77.6
"Vitamin A, IU",IU,--,--,500,588
Lipids
"Fatty acids, total saturated",g,--,--,1.003,1.180
"Fatty acids, total trans",g,--,--,0.000,0.000
"Cholesterol",mg,--,--,5,6
Amino Acids
Other
Ingredients
"BRUSSELS SPROUTS, MAPLE BUTTER (SPREADABLE BUTTER [PASTEURIZED CREAM, CANOLA OIL, SALT], MAPLE FLAVOR, MAPLE SYRUP, AGAVE, SEA SALT), CAYENNE PEPPER." Date available: 09/16/2017 Date last updated by company: 09/16/2017
