Source: USDA Branded Food Products Database Release December 2017 Software v.3.8.6.4 2017-10-02
Report Run at: December 18, 2017 21:01 EST
"Nutrient data for: 45311144, BTY CRK MSHD POT RSTD GRLC, UNPREPARED, GTIN: 00016000461475"
Food Group:  Branded Food Products Database
Common Name:

Nutrient,Unit,Data points,Std. Error,"0.333 cup as pkgd (23g) = 23.0g",1Value per 100 g,
Proximates
"Energy",kcal,--,--,80,348
"Protein",g,--,--,2.00,8.70
"Total lipid (fat)",g,--,--,0.00,0.00
"Carbohydrate, by difference",g,--,--,17.00,73.91
"Fiber, total dietary",g,--,--,1.0,4.3
"Sugars, total",g,--,--,0.00,0.00
Minerals
"Calcium, Ca",mg,--,--,0,0
"Iron, Fe",mg,--,--,0.00,0.00
"Potassium, K",mg,--,--,280,1217
"Sodium, Na",mg,--,--,410,1783
Vitamins
"Vitamin C, total ascorbic acid",mg,--,--,0.0,0.0
"Vitamin A, IU",IU,--,--,0,0
Lipids
"Fatty acids, total saturated",g,--,--,0.000,0.000
"Fatty acids, total trans",g,--,--,0.000,0.000
"Cholesterol",mg,--,--,0,0
Amino Acids
Other
Ingredients
"POTATOES*, SALT, SUGAR, ROASTED GARLIC*, MALTODEXTRIN, MONO AND DIGLYCERIDES, GARLIC*, MONOSODIUM GLUTAMATE, SPICE, NATURAL AND ARTIFICIAL FLAVOR, VEGETABLE OIL (CANOLA, SOYBEAN AND/OR SUNFLOWER OIL), PARSLEY*, SILICON DIOXIDE (ANTICAKING AGENT), COLOR ADDED, NONFAT MILK. FRESHNESS PRESERVED BY SODIUM ACID PYROPHOSPHATE, SODIUM BISULFITE, CITRIC ACID. *DRIED" Date available: 10/17/2017 Date last updated by company: 10/17/2017
