Source: USDA Branded Food Products Database Release December 2017 Software v.3.8.6.4 2017-10-02
Report Run at: December 18, 2017 20:58 EST
"Nutrient data for: 45311025, BTY CRK DELIGHTS BROWNIE MIX SALTED CRML, UNPREPARED, GTIN: 00016000477360"
Food Group:  Branded Food Products Database
Common Name:

Nutrient,Unit,Data points,Std. Error,"0.062 pkg (33g mix) = 33.0g",1Value per 100 g,
Proximates
"Energy",kcal,--,--,120,364
"Protein",g,--,--,1.00,3.03
"Total lipid (fat)",g,--,--,1.50,4.55
"Carbohydrate, by difference",g,--,--,26.00,78.79
"Fiber, total dietary",g,--,--,1.0,3.0
"Sugars, total",g,--,--,18.00,54.55
Minerals
"Calcium, Ca",mg,--,--,0,0
"Iron, Fe",mg,--,--,1.08,3.27
"Potassium, K",mg,--,--,70,212
"Sodium, Na",mg,--,--,140,424
Vitamins
"Vitamin C, total ascorbic acid",mg,--,--,0.0,0.0
"Vitamin A, IU",IU,--,--,0,0
Lipids
"Fatty acids, total saturated",g,--,--,1.000,3.030
"Fatty acids, total trans",g,--,--,0.000,0.000
"Cholesterol",mg,--,--,0,0
Amino Acids
Other
Ingredients
"SUGAR, SEA SALT CARAMEL FILLING (SWEETENED CONDENSED SKIM MILK [SKIM MILK, SUGAR, CORN SYRUP], CORN SYRUP, SUGAR, WATER, BUTTER [CREAM, SALT], MODIFIED CORN STARCH, SEA SALT, GELLAN GUM, MONO AND DIGLYCERIDES, BAKING SODA, XANTHAN GUM), ENRICHED FLOUR BLEACHED (WHEAT FLOUR, NIACIN, IRON, THIAMIN MONONITRATE, RIBOFLAVIN, FOLIC ACID), COCOA PROCESSED WITH ALKALI, CORN SYRUP. CONTAINS 2% OR LESS OF: PALM OIL, CORN STARCH, SALT, CAROB POWDER, ARTIFICIAL FLAVOR." Date available: 10/10/2017 Date last updated by company: 06/20/2017
