Source: USDA Branded Food Products Database Release December 2017 Software v.3.8.6.4 2017-10-02
Report Run at: December 18, 2017 20:59 EST
"Nutrient data for: 45311040, BTY CRK FRT BY THE FT FRT FLVRD SNCKS STRWBRY, UNPREPARED, GTIN: 00016000493001"
Food Group:  Branded Food Products Database
Common Name:

Nutrient,Unit,Data points,Std. Error,"1 roll (21g) = 21.0g",1Value per 100 g,
Proximates
"Energy",kcal,--,--,80,381
"Protein",g,--,--,0.00,0.00
"Total lipid (fat)",g,--,--,1.00,4.76
"Carbohydrate, by difference",g,--,--,17.00,80.95
"Fiber, total dietary",g,--,--,0.0,0.0
"Sugars, total",g,--,--,10.00,47.62
Minerals
"Calcium, Ca",mg,--,--,0,0
"Iron, Fe",mg,--,--,0.00,0.00
"Sodium, Na",mg,--,--,50,238
Vitamins
"Vitamin C, total ascorbic acid",mg,--,--,6.0,28.6
"Vitamin A, IU",IU,--,--,0,0
Lipids
"Fatty acids, total saturated",g,--,--,0.500,2.380
"Fatty acids, total trans",g,--,--,0.000,0.000
"Cholesterol",mg,--,--,0,0
Amino Acids
Other
Ingredients
"SUGAR, MALTODEXTRIN, CORN SYRUP, PEAR PUREE CONCENTRATE, PALM OIL. CONTAINS 2% OR LESS OF: CARRAGEENAN, CITRIC ACID, MONOGLYCERIDES, SODIUM CITRATE, ACETYLATED MONOGLYCERIDES, MALIC ACID, XANTHAN GUM, VITAMIN C (ASCORBIC ACID), LOCUST BEAN GUM, POTASSIUM CITRATE, NATURAL FLAVOR, RED 40." Date available: 10/13/2017 Date last updated by company: 10/12/2017
