Source: USDA Branded Food Products Database Release December 2017 Software v.3.8.6.4 2017-10-02
Report Run at: December 18, 2017 21:02 EST
"Nutrient data for: 45311139, BTY CRK POTATO MIX SCALLOPED, UNPREPARED, GTIN: 00016000274891"
Food Group:  Branded Food Products Database
Common Name:

Nutrient,Unit,Data points,Std. Error,"0.5 cup as pkgd (27g) = 27.0g",1Value per 100 g,
Proximates
"Energy",kcal,--,--,90,333
"Protein",g,--,--,2.00,7.41
"Total lipid (fat)",g,--,--,0.00,0.00
"Carbohydrate, by difference",g,--,--,21.00,77.78
"Fiber, total dietary",g,--,--,1.0,3.7
"Sugars, total",g,--,--,1.00,3.70
Minerals
"Calcium, Ca",mg,--,--,0,0
"Iron, Fe",mg,--,--,0.36,1.33
"Potassium, K",mg,--,--,400,1481
"Sodium, Na",mg,--,--,450,1667
Vitamins
"Vitamin C, total ascorbic acid",mg,--,--,0.0,0.0
"Vitamin A, IU",IU,--,--,0,0
Lipids
"Fatty acids, total saturated",g,--,--,0.000,0.000
"Fatty acids, total trans",g,--,--,0.000,0.000
"Cholesterol",mg,--,--,0,0
Amino Acids
Other
Ingredients
"POTATOES*, ENRICHED FLOUR (WHEAT FLOUR, NIACIN, IRON, THIAMIN MONONITRATE, RIBOFLAVIN, FOLIC ACID), MALTODEXTRIN, CORN STARCH, SALT, POTASSIUM PHOSPHATE. CONTAINS LESS THAN 0.5% OF: MONOSODIUM GLUTAMATE, VEGETABLE OIL (CANOLA, SOYBEAN, AND/OR SUNFLOWER  OIL), POTASSIUM CHLORIDE, SUGAR, WHEY, PAPRIKA, CELERY*, ONION*, WHEAT STARCH, NATURAL FLAVOR, MONO AND DIGLYCERIDES, SOY FLOUR, NONFAT MILK, LACTIC ACID, YEAST EXTRACT, ENZYME MODIFIED CHEDDAR CHEESE (MILK, CHEESE CULTURES, SALT, ENZYMES), CALCIUM LACTATE, SPICE, SILICON DIOXIDE (ANTICAKING AGENT), ENZYME MODIFIED CREAM, COLOR (YELLOW LAKES 5 & 6, BETA CAROTENE), BLUE CHEESE* (MILK, SALT, CHEESE CULTURES, ENZYMES), ENZYME MODIFIED BLUE CHEESE (MILK, CHEESE CULTURES, SALT, ENZYMES), SOY LECITHIN, DISODIUM INOSINATE AND GUANYLATE, SODIUM PHOSPHATE. FRESHNESS PRESERVED BY SODIUM BISULFITE. *DRIED" Date available: 10/20/2017 Date last updated by company: 10/18/2017
