Source: USDA Branded Food Products Database Release December 2017 Software v.3.8.6.4 2017-10-02
Report Run at: December 18, 2017 20:58 EST
"Nutrient data for: 45310591, BTY CRK DELIGHTS SUPER MOIST CAKE MIX TRPL CHOC FUDGE, UNPREPARED, GTIN: 00016000410015"
Food Group:  Branded Food Products Database
Common Name:

Nutrient,Unit,Data points,Std. Error,"0.1 pkg (43g mix) = 43.0g",1Value per 100 g,
Proximates
"Energy",kcal,--,--,160,372
"Protein",g,--,--,2.00,4.65
"Total lipid (fat)",g,--,--,2.00,4.65
"Carbohydrate, by difference",g,--,--,34.00,79.07
"Fiber, total dietary",g,--,--,1.0,2.3
"Sugars, total",g,--,--,18.00,41.86
Minerals
"Calcium, Ca",mg,--,--,80,186
"Iron, Fe",mg,--,--,1.80,4.19
"Potassium, K",mg,--,--,105,244
"Sodium, Na",mg,--,--,380,884
Vitamins
"Vitamin C, total ascorbic acid",mg,--,--,0.0,0.0
"Vitamin A, IU",IU,--,--,0,0
Lipids
"Fatty acids, total saturated",g,--,--,1.501,3.490
"Fatty acids, total trans",g,--,--,0.000,0.000
"Cholesterol",mg,--,--,0,0
Amino Acids
Other
Ingredients
"ENRICHED FLOUR BLEACHED (WHEAT FLOUR, NIACIN, IRON, THIAMIN MONONITRATE, RIBOFLAVIN, FOLIC ACID), SUGAR, COCOA PROCESSED WITH ALKALI (RED DUTCHED AND DARK DUTCHED), CORN SYRUP, CHOCOLATE CHIPS (SUGAR, CHOCOLATE LIQUOR, COCOA BUTTER, SOY LECITHIN, ARTIFICIAL FLAVOR [VANILLIN]), LEAVENING (BAKING SODA, MONOCALCIUM PHOSPHATE, SODIUM ALUMINUM PHOSPHATE). CONTAINS 2% OR LESS OF: CORN STARCH, MODIFIED CORN STARCH, PALM OIL, CAROB POWDER, PROPYLENE GLYCOL MONO AND DIESTERS OF FATTY ACIDS, DISTILLED MONOGLYCERIDES, SALT, DICALCIUM PHOSPHATE, SODIUM STEAROYL LACTYLATE, XANTHAN GUM, CELLULOSE GUM, ARTIFICIAL FLAVOR." Date available: 10/20/2017 Date last updated by company: 10/20/2017
