Source: USDA Branded Food Products Database Release December 2017 Software v.3.8.6.4 2017-10-02
Report Run at: December 18, 2017 21:00 EST
"Nutrient data for: 45310861, BTY CRK FRT GUSHERS FRT FLVRD SNCKS SUPER SOUR, UNPREPARED, GTIN: 00016000417199"
Food Group:  Branded Food Products Database
Common Name:

Nutrient,Unit,Data points,Std. Error,"1 pouch (26g) = 26.0g",1Value per 100 g,
Proximates
"Energy",kcal,--,--,90,346
"Protein",g,--,--,0.00,0.00
"Total lipid (fat)",g,--,--,1.50,5.77
"Carbohydrate, by difference",g,--,--,21.00,80.77
"Fiber, total dietary",g,--,--,0.0,0.0
"Sugars, total",g,--,--,12.00,46.15
Minerals
"Calcium, Ca",mg,--,--,0,0
"Iron, Fe",mg,--,--,0.00,0.00
"Sodium, Na",mg,--,--,45,173
Vitamins
"Vitamin C, total ascorbic acid",mg,--,--,6.0,23.1
"Vitamin A, IU",IU,--,--,0,0
Lipids
"Fatty acids, total saturated",g,--,--,0.499,1.920
"Fatty acids, total trans",g,--,--,0.000,0.000
"Cholesterol",mg,--,--,0,0
Amino Acids
Other
Ingredients
"SUGAR, CORN SYRUP, DRIED CORN SYRUP, PEAR PUREE CONCENTRATE, MODIFIED CORN STARCH, FRUCTOSE, MALTODEXTRIN, PALM OIL. CONTAINS 2% OR LESS OF: CITRIC ACID, COTTONSEED OIL, GLYCERIN, CARRAGEENAN, GRAPE JUICE CONCENTRATE, MONOGLYCERIDES, SODIUM CITRATE, MALIC ACID, POTASSIUM CITRATE, VITAMIN C (ASCORBIC ACID), NATURAL FLAVOR, AGAR-AGAR, COLOR (RED 40, BLUE 1, YELLOW 5), XANTHAN GUM." Date available: 10/23/2017 Date last updated by company: 10/12/2017
