Source: USDA Branded Food Products Database Release December 2017 Software v.3.8.6.4 2017-10-02
Report Run at: December 18, 2017 21:07 EST
"Nutrient data for: 45153149, BUBBLEGUM NATURAL CHEWING GUM POUCH, UPC: 649815002108"
Food Group:  Branded Food Products Database
Common Name:

Nutrient,Unit,Data points,Std. Error,"2.0 PIECES = 2.5g",1Value per 100 g,
Proximates
"Energy",kcal,--,--,5,200
"Protein",g,--,--,0.00,0.00
"Total lipid (fat)",g,--,--,0.00,0.00
"Carbohydrate, by difference",g,--,--,2.00,80.00
"Sugars, total",g,--,--,2.00,80.00
Minerals
"Sodium, Na",mg,--,--,0,0
Vitamins
Lipids
Amino Acids
Other
Ingredients
"CANE SUGAR, GLUCOSE, GUM BASE (CHICLE, CALCIUM CARBONATE, CANDELILLA WAX, DEHYDRATED CITRUS PEELS), BROWN RICE SYRUP, NATURAL FLAVORS, GUM ARABIC, RESINOUS GLAZE, BEESWAX, CARNAUBA WAX AND RED BEET COLOR." Date available: 09/14/2017 Date last updated by company: 09/14/2017
