Source: USDA Branded Food Products Database Release December 2017 Software v.3.8.6.4 2017-10-02
Report Run at: December 18, 2017 21:09 EST
"Nutrient data for: 45152938, BUBBLES CANDY, UPC: 093539120523"
Food Group:  Branded Food Products Database
Common Name:

Nutrient,Unit,Data points,Std. Error,"1 POUCH = 20.0g",1Value per 100 g,
Proximates
"Energy",kcal,--,--,0,0
"Protein",g,--,--,0.00,0.00
"Total lipid (fat)",g,--,--,0.00,0.00
"Carbohydrate, by difference",g,--,--,0.00,0.00
Minerals
"Sodium, Na",mg,--,--,30,150
Vitamins
Lipids
Amino Acids
Other
Ingredients
"WATER, CONTAINS 2% OR LESS OF: SODIUM LAURYL SULFATE, XANTHAN GUM, CARBOXYMETHYCELLULOSE, SALT, SUCRALOSE (ARTIFICIAL SWEETENER), NATURAL AND ARTIFICIAL GRAPE FLAVOR, SODIUM BENZOATE (PRESERVATIVE), POTASSIUM SORBATE (PRESERVATIVE)." Date available: 07/14/2017 Date last updated by company: 07/14/2017
