Source: USDA Branded Food Products Database Release December 2017 Software v.3.8.6.4 2017-10-02
Report Run at: December 18, 2017 21:08 EST
"Nutrient data for: 45049344, BUBBLE GUM, UPC: 747500006964"
Food Group:  Branded Food Products Database
Common Name:

Nutrient,Unit,Data points,Std. Error,"8.0 PIECES, PER CONTAINER = 3.0g",1Value per 100 g,
Proximates
"Energy",kcal,--,--,10,333
"Protein",g,--,--,0.00,0.00
"Total lipid (fat)",g,--,--,0.00,0.00
"Carbohydrate, by difference",g,--,--,2.00,66.67
"Sugars, total",g,--,--,2.00,66.67
Minerals
"Sodium, Na",mg,--,--,0,0
Vitamins
Lipids
Amino Acids
Other
Ingredients
"SUGAR, GUM BASE, CORN SYRUP, GLYCEROL, NATURAL AND ARTIFICIAL FLAVORS, TARTARIC ACID, SOY LECITHIN, CITRIC ACID, ACESULFAME K, RED 40 LAKE, ASPARTAME, BLUE 1 LAKE, CORN STARCH, BHT (TO MAINTAIN FRESHNESS. PHENYLKETONURICS: CONTAINS PHENYLALANINE" Date available: 06/25/2017 Date last updated by company: 06/25/2017
