Source: USDA Branded Food Products Database Release December 2017 Software v.3.8.6.4 2017-10-02
Report Run at: December 18, 2017 21:06 EST
"Nutrient data for: 45231278, BUBBLE GUMBALLS, UPC: 042897660431"
Food Group:  Branded Food Products Database
Common Name:

Nutrient,Unit,Data points,Std. Error,"1 PIECE = 6.0g",1Value per 100 g,
Proximates
"Energy",kcal,--,--,15,250
"Protein",g,--,--,0.00,0.00
"Total lipid (fat)",g,--,--,0.00,0.00
"Carbohydrate, by difference",g,--,--,5.00,83.33
"Sugars, total",g,--,--,4.00,66.67
Minerals
"Sodium, Na",mg,--,--,0,0
Vitamins
Lipids
Amino Acids
Other
Ingredients
"SUGAR, GUM BASE, CORN SYRUP; LESS THAN 2% OF: GLYCEROL, NATURAL AND ARTIFICIAL FLAVOR, MALTODEXTRIN, SOY LECITHIN, ASPARTAME, ASPARTAME-ACESULFAME SALT, COLOR (RED 40, RED 40 LAKE), CORN STARCH AND BHT (TO MAINTAIN FRESHNESS)." Date available: 07/14/2017 Date last updated by company: 07/14/2017
