Source: USDA Branded Food Products Database Release December 2017 Software v.3.8.6.4 2017-10-02
Report Run at: December 18, 2017 21:07 EST
"Nutrient data for: 45282797, BUBBLE GUM EGGS, UPC: 041420013713"
Food Group:  Branded Food Products Database
Common Name:

Nutrient,Unit,Data points,Std. Error,"1 PIECE = 5.0g",1Value per 100 g,
Proximates
"Energy",kcal,--,--,15,300
"Protein",g,--,--,0.00,0.00
"Total lipid (fat)",g,--,--,0.00,0.00
"Carbohydrate, by difference",g,--,--,4.00,80.00
"Fiber, total dietary",g,--,--,0.0,0.0
"Sugars, total",g,--,--,4.00,80.00
Minerals
"Calcium, Ca",mg,--,--,0,0
"Iron, Fe",mg,--,--,0.00,0.00
"Sodium, Na",mg,--,--,0,0
Vitamins
"Vitamin C, total ascorbic acid",mg,--,--,0.0,0.0
"Vitamin A, IU",IU,--,--,0,0
Lipids
"Fatty acids, total saturated",g,--,--,0.000,0.000
"Fatty acids, total trans",g,--,--,0.000,0.000
"Cholesterol",mg,--,--,0,0
Amino Acids
Other
Ingredients
"SUGAR, DEXTROSE, CORN SYRUP, GUM BASE, NATURAL AND ARTIFICIAL FLAVORS, CONFECTIONER'S GLAZE (SHELLAC), TAPIOCA DEXTRIN, CARNAUBA WAX, RED 3, RED 40, YELLOW 5, YELLOW 6, BLUE 1, BLUE 1 LAKE, TITANIUM DIOXIDE [COLOR], BHT (TO MAINTAIN FRESHNESS), SOY LECITHIN." Date available: 07/14/2017 Date last updated by company: 07/14/2017
