Source: USDA Branded Food Products Database Release December 2017 Software v.3.8.6.4 2017-10-02
Report Run at: December 18, 2017 21:08 EST
"Nutrient data for: 45274018, BUBBLE GUM, UPC: 03410109"
Food Group:  Branded Food Products Database
Common Name:

Nutrient,Unit,Data points,Std. Error,"1 PIECE = 8.0g",1Value per 100 g,
Proximates
"Energy",kcal,--,--,25,312
"Protein",g,--,--,0.00,0.00
"Total lipid (fat)",g,--,--,0.00,0.00
"Carbohydrate, by difference",g,--,--,6.00,75.00
"Sugars, total",g,--,--,5.00,62.50
Minerals
"Sodium, Na",mg,--,--,0,0
Vitamins
Lipids
Amino Acids
Other
Ingredients
"SUGAR; GUM BASE; CORN SYRUP; CONTAINS 2% OR LESS OF: NATURAL FLAVOR AND ARTIFICIAL FLAVOR; CITRIC ACID; MALIC ACID; MALTODEXTRIN; LECITHIN (SOY); BHT, TO MAINTAIN FRESHNESS; ARTIFICIAL COLOR [YELLOW 5 LAKE]." Date available: 07/14/2017 Date last updated by company: 07/14/2017
