Source: USDA Branded Food Products Database Release December 2017 Software v.3.8.6.4 2017-10-02
Report Run at: December 18, 2017 21:09 EST
"Nutrient data for: 45231585, BUCHA, ORGANIC LIVE KOMBUCHA TEA, RASPBERRY POMEGRANATE, UPC: 853874004045"
Food Group:  Branded Food Products Database
Common Name:

Nutrient,Unit,Data points,Std. Error,"8.0 OZA = 240.0g",1Value per 100 g,
Proximates
"Energy",kcal,--,--,48,20
"Protein",g,--,--,0.00,0.00
"Total lipid (fat)",g,--,--,0.00,0.00
"Carbohydrate, by difference",g,--,--,12.00,5.00
"Fiber, total dietary",g,--,--,0.0,0.0
"Sugars, total",g,--,--,12.00,5.00
Minerals
"Sodium, Na",mg,--,--,0,0
Vitamins
Lipids
"Fatty acids, total saturated",g,--,--,0.000,0.000
"Fatty acids, total trans",g,--,--,0.000,0.000
"Cholesterol",mg,--,--,0,0
Amino Acids
Other
Ingredients
"ORGANIC LIVE KOMBUCHA (PURIFIED WATER, ORGANIC EVAPORATED CANE JUICE, ORGANIC BLACK TEA, KOMBUCHA CULTURE), ORGANIC POMEGRANATE JUICE CONCENTRATE, ORGANIC RASPBERRY JUICE CONCENTRATE, ORGANIC ELDERFLOWER FLAVOR AND OTHER NATURAL FLAVORS, ORGANIC BLUEBERRY COLOR, RED CABBAGE COLOR AND ORGANIC LOCUST BEAN GUM AND BACILLUS COAGULANS GBI-30 6086." Date available: 07/14/2017 Date last updated by company: 07/14/2017
