Source: USDA Branded Food Products Database Release December 2017 Software v.3.8.6.4 2017-10-02
Report Run at: December 18, 2017 21:10 EST
"Nutrient data for: 45169431, BUCKLEBERRY FOODS, ESPRESSO CACAO CRUNCH, UPC: 851662006059"
Food Group:  Branded Food Products Database
Common Name:

Nutrient,Unit,Data points,Std. Error,"1 PIECE = 26.0g",1Value per 100 g,
Proximates
"Energy",kcal,--,--,100,385
"Protein",g,--,--,1.00,3.85
"Total lipid (fat)",g,--,--,7.00,26.92
"Carbohydrate, by difference",g,--,--,8.00,30.77
"Fiber, total dietary",g,--,--,1.0,3.8
"Sugars, total",g,--,--,7.00,26.92
Minerals
"Calcium, Ca",mg,--,--,20,77
"Iron, Fe",mg,--,--,0.69,2.67
"Sodium, Na",mg,--,--,0,0
Vitamins
"Vitamin C, total ascorbic acid",mg,--,--,0.0,0.0
"Vitamin A, IU",IU,--,--,0,0
Lipids
"Fatty acids, total saturated",g,--,--,4.501,17.310
"Fatty acids, total trans",g,--,--,0.000,0.000
"Cholesterol",mg,--,--,0,0
Amino Acids
Other
Ingredients
"MAPLE SYRUP, COCONUT OIL, CASHES, DATES, ALMONDS, CACAO NIBS, COCOA, ESPRESSO" Date available: 07/14/2017 Date last updated by company: 07/14/2017
