Source: USDA Branded Food Products Database Release December 2017 Software v.3.8.6.4 2017-10-02
Report Run at: December 18, 2017 21:10 EST
"Nutrient data for: 45143119, BUCK WILD, TORTILLA CHIPS, GARLIC SEA SALT, UPC: 041449471709"
Food Group:  Branded Food Products Database
Common Name:

Nutrient,Unit,Data points,Std. Error,"10.0 CHIPS | ABOUT = 28.0g",1Value per 100 g,
Proximates
"Energy",kcal,--,--,140,500
"Protein",g,--,--,1.00,3.57
"Total lipid (fat)",g,--,--,9.00,32.14
"Carbohydrate, by difference",g,--,--,13.00,46.43
"Fiber, total dietary",g,--,--,1.0,3.6
"Sugars, total",g,--,--,1.00,3.57
Minerals
"Calcium, Ca",mg,--,--,20,71
"Iron, Fe",mg,--,--,0.64,2.29
"Sodium, Na",mg,--,--,160,571
Vitamins
"Vitamin C, total ascorbic acid",mg,--,--,0.0,0.0
"Vitamin A, IU",IU,--,--,0,0
Lipids
"Fatty acids, total saturated",g,--,--,1.000,3.570
"Fatty acids, total monounsaturated",g,--,--,6.000,21.430
"Fatty acids, total polyunsaturated",g,--,--,2.500,8.930
"Fatty acids, total trans",g,--,--,0.000,0.000
"Cholesterol",mg,--,--,0,0
Amino Acids
Other
Ingredients
"YELLOW CORN, CANOLA AND/OR SUNFLOWER OIL, WHITE CORN, SEASONING (GARLIC POWDER,BUTTER [CREAM, SALT], WHEY, MALTODEXTRIN, BROWN SUGAR, SEA SALT, SALT, DEXTROSE, NONFAT MILK, ONION POWDER, YEAST EXTRACT, OLIVE OIL, NATURAL FLAVORS, SPICE, CARAMEL COLOR), FLAX SEEDS, CHIA SEEDS, NATURAL FLAVOR." Date available: 07/14/2017 Date last updated by company: 07/14/2017
