Source: USDA Branded Food Products Database Release December 2017 Software v.3.8.6.4 2017-10-02
Report Run at: December 18, 2017 21:18 EST
"Nutrient data for: 45214537, BUFFALO STYLE CHICKEN BREAST, UPC: 052294070160"
Food Group:  Branded Food Products Database
Common Name:

Nutrient,Unit,Data points,Std. Error,"2.0 SLICES = 56.0g",1Value per 100 g,
Proximates
"Energy",kcal,--,--,45,80
"Protein",g,--,--,10.00,17.86
"Total lipid (fat)",g,--,--,0.50,0.89
"Carbohydrate, by difference",g,--,--,0.00,0.00
"Fiber, total dietary",g,--,--,0.0,0.0
"Sugars, total",g,--,--,0.00,0.00
Minerals
"Calcium, Ca",mg,--,--,0,0
"Iron, Fe",mg,--,--,0.71,1.26
"Sodium, Na",mg,--,--,220,393
Vitamins
"Vitamin C, total ascorbic acid",mg,--,--,0.0,0.0
"Vitamin A, IU",IU,--,--,0,0
Lipids
"Fatty acids, total saturated",g,--,--,0.000,0.000
"Fatty acids, total trans",g,--,--,0.000,0.000
"Cholesterol",mg,--,--,20,36
Amino Acids
Other
Ingredients
"CHICKEN BREAST, CHICKEN BROTH, RICE STARCH, SUGAR, DEXTROSE, CONTAINS LESS THAN 2% OF: SEA SALT, SODIUM PHOSPHATE, POTASSIUM PHOSPHATE, VINEGAR POWDER (VINEGAR EXTRACT, MALTODEXTRIN), PAPRIKA, RED PEPPER, YEAST EXTRACT, CITRIC ACID, EXTRACTIVES OF PAPRIKA AND SPICES." Date available: 07/14/2017 Date last updated by company: 07/14/2017
