Source: USDA Branded Food Products Database Release December 2017 Software v.3.8.6.4 2017-10-02
Report Run at: December 18, 2017 21:20 EST
"Nutrient data for: 45200745, BUFFALO STYLE MAC & CHEESE, UPC: 688267169397"
Food Group:  Branded Food Products Database
Common Name:

Nutrient,Unit,Data points,Std. Error,"1 cup = 140.0g",1Value per 100 g,
Proximates
"Energy",kcal,--,--,360,257
"Protein",g,--,--,10.00,7.14
"Total lipid (fat)",g,--,--,21.99,15.71
"Carbohydrate, by difference",g,--,--,32.00,22.86
"Fiber, total dietary",g,--,--,2.0,1.4
"Sugars, total",g,--,--,2.00,1.43
Minerals
"Calcium, Ca",mg,--,--,150,107
"Iron, Fe",mg,--,--,1.44,1.03
"Sodium, Na",mg,--,--,540,386
Vitamins
"Vitamin C, total ascorbic acid",mg,--,--,0.0,0.0
"Vitamin A, IU",IU,--,--,300,214
Lipids
"Fatty acids, total saturated",g,--,--,4.998,3.570
"Fatty acids, total trans",g,--,--,0.000,0.000
"Cholesterol",mg,--,--,29,21
Amino Acids
Other
Ingredients
"COOKED WHITE PENNE RIGATE (PASTA [SEMOLINA, DURUM FLOUR, NIACIN, IRON {FERROUS SULFATE}, THIAMIN MONONITRATE, RIBOFLAVIN, FOLIC ACID], CANOLA OIL, EXTRA VIRGIN OLIVE OIL), BLUE CHEESE DRESSING (CANOLA OIL, CULTURED BUTTERMILK [SKIM MILK, WHEY, WATER, SKIM MILK SOLIDS, WHEY SOLIDS, CORNSTARCH, TAPIOCA STARCH, DISODIUM PHOSPHATE, CARRAGEENAN GUM, LOCUST BEAN GUM, CULTURE], PEPPER SAUCE [CAYENNE RED PEPPERS, VINEGAR, SALT, GARLIC], BLUE CHEESE [MILK, SALT, CULTURE, ENZYMES], WATER, EGG YOLK, SALT, DISTILLED VINEGAR, SUGAR, MALTODEXTRIN, CULTURED DEXTROSE, XANTHAN GUM, CARRAGEENAN GUM, DRIED GARLIC, MUSTARD FLOUR, SPICE), CHEESE SAUCE (MILK, SHARP WHITE CHEDDAR CHEESE [PASTEURIZED MILK, CHEESE CULTURE, SALT, ENZYMES], BUTTER, CORNSTARCH, SUGAR, SALT, PEPPER), MOZZARELLA AND AMERICAN CHEESE BLEND (PASTEURIZED PROCESS CHEESE [LOW MOISTURE PART-SKIM MOZZARELLA CHEESE {PASTEURIZED MILK, CHEESE CULTURE, SALT, ENZYMES}, CHEDDAR CHEESE {PASTEURIZED MILK, CHEESE CULTURE, SALT, ENZYMES}, CREAM, WATER, SODIUM PHOSPHATE, SALT], POTATO STARCH AND POWDERED CELLULOSE [TO PREVENT CAKING], NATAMYCIN [A NATURAL MOLD INHIBITOR]), BLUE CHEESE CRUMBLES (BLUE CHEESE [PASTEURIZED MILK, CHEESE CULTURES, SALT, ENZYMES, PENICILLIUM ROQUEFORTII], POWDERED CELLULOSE [TO PREVENT CAKING], NATAMYCIN [TO PROTECT FLAVOR])." Date available: 10/13/2017 Date last updated by company: 10/13/2017
