Source: USDA Branded Food Products Database Release December 2017 Software v.3.8.6.4 2017-10-02
Report Run at: December 18, 2017 21:19 EST
"Nutrient data for: 45196752, BUFFALO-STYLE CHICKEN STRIPS, UPC: 041268188703"
Food Group:  Branded Food Products Database
Common Name:

Nutrient,Unit,Data points,Std. Error,"3.0 ONZ = 84.0g",1Value per 100 g,
Proximates
"Energy",kcal,--,--,200,238
"Protein",g,--,--,13.00,15.48
"Total lipid (fat)",g,--,--,11.00,13.10
"Carbohydrate, by difference",g,--,--,11.00,13.10
"Fiber, total dietary",g,--,--,0.0,0.0
"Sugars, total",g,--,--,0.00,0.00
Minerals
"Calcium, Ca",mg,--,--,0,0
"Iron, Fe",mg,--,--,1.09,1.30
"Sodium, Na",mg,--,--,960,1143
Vitamins
"Vitamin C, total ascorbic acid",mg,--,--,0.0,0.0
"Vitamin A, IU",IU,--,--,0,0
Lipids
"Fatty acids, total saturated",g,--,--,1.999,2.380
"Fatty acids, total monounsaturated",g,--,--,2.503,2.980
"Fatty acids, total polyunsaturated",g,--,--,5.998,7.140
"Fatty acids, total trans",g,--,--,0.000,0.000
"Cholesterol",mg,--,--,35,42
Amino Acids
Other
Ingredients
"BONELESS, SKINLESS CHICKEN BREAST STRIPS WITH RIB MEAT, CHICKEN BROTH, MODIFIED FOOD STARCH, SALT, MALTODEXTRIN, SODIUM PHOSPHATES, SODIUM DIACETATE, VINEGAR POWDER (MALTODEXTRIN, MODIFIED FOOD STARCH, VINEGAR), DEHYDRATED ONION, DEHYDRATED GARLIC, NATURAL FLAVOR, SPICE EXTRACTIVE, XANTHAN GUM, CAROB BEAN GUM, GUAR GUM. BREADED WITH: WHEAT FLOUR, WATER, SALT, SPICES, DEXTROSE, YELLOW CORN FLOUR, EXTRACTIVES OF PAPRIKA, BUTTERMILK POWDER. BREADING SET IN VEGETABLE OIL. GLAZED WITH: AGED CAYENNE RED PEPPERS, VINEGAR, WATER, SALT, XANTHAN GUM, GARLIC." Date available: 07/14/2017 Date last updated by company: 07/14/2017
