Source: USDA Branded Food Products Database Release December 2017 Software v.3.8.6.4 2017-10-02
Report Run at: December 18, 2017 21:24 EST
"Nutrient data for: 45247188, BULL'S-EYE, EVERYDAY BARBECUE SAUCE, HONEY, UPC: 019582000544"
Food Group:  Branded Food Products Database
Common Name:

Nutrient,Unit,Data points,Std. Error,"2.0 Tbsp = 36.0g",1Value per 100 g,
Proximates
"Energy",kcal,--,--,60,167
"Protein",g,--,--,0.00,0.00
"Total lipid (fat)",g,--,--,0.00,0.00
"Carbohydrate, by difference",g,--,--,14.00,38.89
"Fiber, total dietary",g,--,--,0.0,0.0
"Sugars, total",g,--,--,12.00,33.33
Minerals
"Calcium, Ca",mg,--,--,0,0
"Iron, Fe",mg,--,--,0.00,0.00
"Sodium, Na",mg,--,--,280,778
Vitamins
"Vitamin C, total ascorbic acid",mg,--,--,0.0,0.0
"Vitamin A, IU",IU,--,--,0,0
Lipids
"Fatty acids, total saturated",g,--,--,0.000,0.000
"Fatty acids, total trans",g,--,--,0.000,0.000
"Cholesterol",mg,--,--,0,0
Amino Acids
Other
Ingredients
"HIGH FRUCTOSE CORN SYRUP, VINEGAR. WATER, TOMATO PASTE, MODIFIED CORNSTARCH, HONEY, CONTAINS LESS THAN 2% OF SALT, MOLASSES, NATURAL HICKORY SMOKE FLAVOR, MUSTARD FLOUR, POTASSIUM SORBATE (TO PRESERVE FRESHNESS), SPICE, DRIED GARLIC, DRIED ONIONS, CARAMEL COLOR, PAPRIKA" Date available: 07/14/2017 Date last updated by company: 07/14/2017
