Source: USDA Branded Food Products Database Release December 2017 Software v.3.8.6.4 2017-10-02
Report Run at: December 18, 2017 21:26 EST
"Nutrient data for: 45223067, BUMBLE BEE, PRIME FILLET, ALBACORE TUNA WITH PESTO & OLIVE OIL, UPC: 086600000183"
Food Group:  Branded Food Products Database
Common Name:

Nutrient,Unit,Data points,Std. Error,"0.25 CUP) | DRAINED (ABOUT = 56.0g",1Value per 100 g,
Proximates
"Energy",kcal,--,--,80,143
"Protein",g,--,--,10.00,17.86
"Total lipid (fat)",g,--,--,4.50,8.04
"Carbohydrate, by difference",g,--,--,1.00,1.79
"Fiber, total dietary",g,--,--,0.0,0.0
"Sugars, total",g,--,--,0.00,0.00
Minerals
"Calcium, Ca",mg,--,--,20,36
"Iron, Fe",mg,--,--,0.55,0.98
"Sodium, Na",mg,--,--,300,536
Vitamins
"Vitamin C, total ascorbic acid",mg,--,--,1.8,3.3
"Vitamin A, IU",IU,--,--,455,813
Lipids
"Fatty acids, total saturated",g,--,--,0.498,0.890
"Fatty acids, total monounsaturated",g,--,--,0.000,0.000
"Fatty acids, total polyunsaturated",g,--,--,0.000,0.000
"Fatty acids, total trans",g,--,--,0.000,0.000
"Cholesterol",mg,--,--,20,36
Amino Acids
Other
Ingredients
"WHITE TUNA, OLIVE OIL, BASIL, WATER, GARLIC, SEA SALT, CORN STARCH, CITRIC ACID, YEAST EXTRACT, NATURAL FLAVORS, SPICE." Date available: 07/14/2017 Date last updated by company: 07/14/2017
