Source: USDA Branded Food Products Database Release December 2017 Software v.3.8.6.4 2017-10-02
Report Run at: December 18, 2017 21:28 EST
"Nutrient data for: 45279180, BUMBLEBERRY BLOSSOMS, UPC: 021130085651"
Food Group:  Branded Food Products Database
Common Name:

Nutrient,Unit,Data points,Std. Error,"1 BLOSSOM = 113.0g",1Value per 100 g,
Proximates
"Energy",kcal,--,--,340,301
"Protein",g,--,--,4.00,3.54
"Total lipid (fat)",g,--,--,15.00,13.27
"Carbohydrate, by difference",g,--,--,48.00,42.48
"Fiber, total dietary",g,--,--,2.0,1.8
"Sugars, total",g,--,--,20.00,17.70
Minerals
"Calcium, Ca",mg,--,--,0,0
"Iron, Fe",mg,--,--,1.36,1.20
"Sodium, Na",mg,--,--,240,212
Vitamins
"Vitamin C, total ascorbic acid",mg,--,--,1.8,1.6
"Vitamin A, IU",IU,--,--,0,0
Lipids
"Fatty acids, total saturated",g,--,--,8.000,7.080
"Fatty acids, total trans",g,--,--,0.000,0.000
"Cholesterol",mg,--,--,10,9
Amino Acids
Other
Ingredients
"ENRICHED WHEAT FLOUR (WHEAT FLOUR, NIACIN, REDUCED IRON, THIAMINE MONONITRATE, RIBOFLAVIN, FOLIC ACID), APPLES, VEGETABLE OIL SHORTENING (PALM AND MODIFIED PALM OILS), SUGAR, WATER, BLUEBERRIES, BROWN SUGAR, BLACKBERRIES, MODIFIED FOOD STARCH, RASPBERRIES, BUTTER (CREAM, SALT), GLAZE (SUGAR, AGAR, COLOR), OATS, EGG, SALT, DEXTROSE, WHITE VINEGAR, CONCENTRATED LEMON JUICE, CINNAMON, YEAST, ENZYMES, NATURAL FLAVOR." Date available: 07/14/2017 Date last updated by company: 07/14/2017
