Source: USDA Branded Food Products Database Release December 2017 Software v.3.8.6.4 2017-10-02
Report Run at: December 18, 2017 21:29 EST
"Nutrient data for: 45103580, BUN MAM SOUP SEASONING, UPC: 005216437701"
Food Group:  Branded Food Products Database
Common Name:

Nutrient,Unit,Data points,Std. Error,"0.5 CUBE = 9.0g",1Value per 100 g,
Proximates
"Energy",kcal,--,--,25,278
"Protein",g,--,--,0.70,7.78
"Total lipid (fat)",g,--,--,0.50,5.56
"Carbohydrate, by difference",g,--,--,4.40,48.89
"Sugars, total",g,--,--,4.40,48.89
Minerals
"Sodium, Na",mg,--,--,730,8111
Vitamins
Lipids
"Fatty acids, total trans",g,--,--,0.000,0.000
Amino Acids
Other
Ingredients
"SALT, SUGAR, MONOSODIUM GLUTAMATE AND SPICES" Date available: 06/25/2017 Date last updated by company: 06/25/2017
