Source: USDA Branded Food Products Database Release December 2017 Software v.3.8.6.4 2017-10-02
Report Run at: December 18, 2017 21:31 EST
"Nutrient data for: 45329601, BUN, UPC: 076410021102"
Food Group:  Branded Food Products Database
Common Name:

Nutrient,Unit,Data points,Std. Error,"1 BUN = 85.0g",1Value per 100 g,
Proximates
"Energy",kcal,--,--,340,400
"Protein",g,--,--,5.00,5.88
"Total lipid (fat)",g,--,--,15.00,17.65
"Carbohydrate, by difference",g,--,--,45.00,52.94
"Fiber, total dietary",g,--,--,1.0,1.2
"Sugars, total",g,--,--,24.00,28.24
Minerals
"Calcium, Ca",mg,--,--,200,235
"Iron, Fe",mg,--,--,0.94,1.10
"Sodium, Na",mg,--,--,190,224
Vitamins
"Vitamin C, total ascorbic acid",mg,--,--,0.0,0.0
"Vitamin A, IU",IU,--,--,0,0
Lipids
"Fatty acids, total saturated",g,--,--,7.998,9.410
"Fatty acids, total trans",g,--,--,0.000,0.000
"Cholesterol",mg,--,--,0,0
Amino Acids
Other
Ingredients
"ENRICHED BLEACHED WHEAT FLOUR (BLEACHED FLOUR, MALTED BARLEY FLOUR, NIACIN, REDUCED IRON, THIAMINE MONONITRATE, RIBOFLAVIN, FOLIC ACID), SUGAR, WATER, VEGETABLE OIL (CONTAINS ONE OR MORE OF THE FOLLOWING OILS: COTTONSEED OIL, PALM OIL, SOYBEAN OIL), HIGH FRUCTOSE CORN SYRUP, CONTAINS 2% OR LESS OF THE FOLLOWING: YEAST, SOY FLOUR, DEXTROSE, HONEY, MONO- AND DIGLYCERIDES, NONFAT DRY MILK, DAIRY WHEY, WHEAT STARCH, SALT, YELLOW CORN FLOUR, AGAR GUM, LEAVENING (SODIUM ACID PYROPHOSPHATE, BAKING SODA, MONOCALCIUM PHOSPHATE), VITAL WHEAT GLUTEN, PRESERVATIVES (CALCIUM PROPIONATE, POTASSIUM SORBATE, SODIUM BENZOATE, METHYL AND PROPYL PARABENS), SPICES, SODIUM STEAROYL LACTYLATE, ETHOXYLATED MONO-DIGLYCERIEDS GUAR GUM, NATURAL AND ARTIFICAL FLAVOR, YEAST NUTRIENTS (CALCIUM CARBONATE, AMMONIUM SULFATE AND/OR AMMONIUM CHLORIDE, CORNSTARCH AND CALCIUM SULFATE), AZODICARBONAMIDE, ASCORBIC ACID, COLORED WITH EXTRACTS OF ANNATTO AND TURMERIC, L-CYSTEINE, CELLULOSE GUM, TITANIUM DIOXIDE, EGG WHITES." Date available: 10/04/2017 Date last updated by company: 10/04/2017
