Source: USDA Branded Food Products Database Release December 2017 Software v.3.8.6.4 2017-10-02
Report Run at: December 18, 2017 21:31 EST
"Nutrient data for: 45307918, BUN SIZE BEEF FRANKS, UPC: 054500193298"
Food Group:  Branded Food Products Database
Common Name:

Nutrient,Unit,Data points,Std. Error,"1 FRANK = 53.0g",1Value per 100 g,
Proximates
"Energy",kcal,--,--,180,340
"Protein",g,--,--,6.00,11.32
"Total lipid (fat)",g,--,--,15.00,28.30
"Carbohydrate, by difference",g,--,--,4.00,7.55
"Fiber, total dietary",g,--,--,0.0,0.0
"Sugars, total",g,--,--,1.00,1.89
Minerals
"Calcium, Ca",mg,--,--,0,0
"Iron, Fe",mg,--,--,0.75,1.41
"Potassium, K",mg,--,--,230,434
"Sodium, Na",mg,--,--,510,962
Vitamins
"Vitamin C, total ascorbic acid",mg,--,--,1.3,2.4
"Vitamin A, IU",IU,--,--,0,0
Lipids
"Fatty acids, total saturated",g,--,--,6.000,11.320
"Fatty acids, total trans",g,--,--,1.002,1.890
"Cholesterol",mg,--,--,30,57
Amino Acids
Other
Ingredients
"BEEF, WATER, CORN SYRUP, CONTAINS 2% OR LESS: SALT, POTASSIUM LACTATE, BEEF STOCK, SODIUM PHOSPHATES, FLAVORINGS, SODIUM DIACETATE, SODIUM ERYTHORBATE, SODIUM NITRITE, EXTRACTIVES OF PAPRIKA." Date available: 07/14/2017 Date last updated by company: 07/14/2017
