Source: USDA Branded Food Products Database Release December 2017 Software v.3.8.6.4 2017-10-02
Report Run at: December 18, 2017 21:31 EST
"Nutrient data for: 45181480, BUN SIZE FRANKS, UPC: 02114002611"
Food Group:  Branded Food Products Database
Common Name:

Nutrient,Unit,Data points,Std. Error,"1 FRANK = 53.0g",1Value per 100 g,
Proximates
"Energy",kcal,--,--,180,340
"Protein",g,--,--,6.00,11.32
"Total lipid (fat)",g,--,--,15.00,28.30
"Carbohydrate, by difference",g,--,--,4.00,7.55
"Fiber, total dietary",g,--,--,0.0,0.0
"Sugars, total",g,--,--,2.00,3.77
Minerals
"Calcium, Ca",mg,--,--,40,75
"Iron, Fe",mg,--,--,0.38,0.71
"Sodium, Na",mg,--,--,440,830
Vitamins
"Vitamin C, total ascorbic acid",mg,--,--,0.0,0.0
"Vitamin A, IU",IU,--,--,0,0
Lipids
"Fatty acids, total saturated",g,--,--,4.998,9.430
"Fatty acids, total trans",g,--,--,0.000,0.000
"Cholesterol",mg,--,--,35,66
Amino Acids
Other
Ingredients
"BEEF AND PORK, MECHANICALLY SEPARATED TURKEY, WATER, CORN SYRUP, DEXTROSE, SALT, CONTAINS 2% OR LESS OF: FLAVORINGS, SODIUM PHOSPHATES, SODIUM ERYTHORBATE, PAPRIKA EXTRACTIVE, SODIUM NITRITE, ENCASED IN BEEF COLLAGEN." Date available: 07/14/2017 Date last updated by company: 07/14/2017
