Source: USDA Branded Food Products Database Release December 2017 Software v.3.8.6.4 2017-10-02
Report Run at: December 18, 2017 21:29 EST
"Nutrient data for: 45158615, BUNDLE ORGANIC, PASTEURIZED JUICE BEVERAGE, UPC: 853140005004"
Food Group:  Branded Food Products Database
Common Name:

Nutrient,Unit,Data points,Std. Error,"8.0 OZA = 236.0g",1Value per 100 g,
Proximates
"Energy",kcal,--,--,80,34
"Protein",g,--,--,0.00,0.00
"Total lipid (fat)",g,--,--,0.99,0.42
"Carbohydrate, by difference",g,--,--,16.99,7.20
"Fiber, total dietary",g,--,--,0.0,0.0
"Sugars, total",g,--,--,16.00,6.78
Minerals
"Calcium, Ca",mg,--,--,99,42
"Iron, Fe",mg,--,--,4.58,1.94
"Potassium, K",mg,--,--,219,93
"Sodium, Na",mg,--,--,14,6
Vitamins
"Vitamin C, total ascorbic acid",mg,--,--,6.1,2.6
"Vitamin A, IU",IU,--,--,153,65
"Vitamin D",IU,--,--,59,25
Lipids
"Fatty acids, total saturated",g,--,--,0.000,0.000
"Fatty acids, total trans",g,--,--,0.000,0.000
"Cholesterol",mg,--,--,0,0
Amino Acids
Other
Ingredients
"ORGANIC APPLE JUICE, FILTERED WATER, ORGANIC LEMON JUICE, ORGANIC GINGER JUICE, ORGANIC KALE, ORGANIC CHIA OIL, CALCIUM CITRATE, ORGANIC SUNFLOWER LECITHIN, VITAMIN D3, IRON, FOLIC ACID." Date available: 07/14/2017 Date last updated by company: 07/14/2017
