Source: USDA Branded Food Products Database Release December 2017 Software v.3.8.6.4 2017-10-02
Report Run at: December 18, 2017 21:28 EST
"Nutrient data for: 45240349, BUNDABERG, FLAVOURED SPARKLING DRINK, PEACH, UPC: 9311493002404"
Food Group:  Branded Food Products Database
Common Name:

Nutrient,Unit,Data points,Std. Error,"100.0 MLT = 100.0g",1Value per 100 g,
Proximates
"Energy",kcal,--,--,47,47
"Protein",g,--,--,0.00,0.00
"Total lipid (fat)",g,--,--,0.00,0.00
"Carbohydrate, by difference",g,--,--,11.50,11.50
"Fiber, total dietary",g,--,--,0.0,0.0
"Sugars, total",g,--,--,11.50,11.50
Minerals
Vitamins
Lipids
"Fatty acids, total saturated",g,--,--,0.000,0.000
Amino Acids
Other
Ingredients
"CARBONATED WATER, CANE SUGAR, PEACH JUICE FROM CONCENTRATE (5%), PEACH BREW (WATER, PEACH FRUIT, SUGAR, YEAST), FLAVOURINGS, ACID (CITRIC ACID), PRESERVATIVES (E202, E211), COLOURS (MIXED CAROTENES, LYCOPENE), STABILISER (E415), ANTIOXIDANT (ASCORBIC ACID)." Date available: 07/14/2017 Date last updated by company: 07/14/2017
