Source: USDA Branded Food Products Database Release December 2017 Software v.3.8.6.4 2017-10-02
Report Run at: December 18, 2017 21:29 EST
"Nutrient data for: 45324205, BUNDT CAKE MIX, UPC: 078742199214"
Food Group:  Branded Food Products Database
Common Name:

Nutrient,Unit,Data points,Std. Error,"0.083 PACKAGE MIX = 59.0g",1Value per 100 g,
Proximates
"Energy",kcal,--,--,220,373
"Protein",g,--,--,4.00,6.78
"Total lipid (fat)",g,--,--,2.50,4.24
"Carbohydrate, by difference",g,--,--,45.00,76.27
"Fiber, total dietary",g,--,--,1.0,1.7
"Sugars, total",g,--,--,26.00,44.07
Minerals
"Calcium, Ca",mg,--,--,20,34
"Iron, Fe",mg,--,--,0.73,1.24
"Potassium, K",mg,--,--,100,169
"Sodium, Na",mg,--,--,440,746
Vitamins
"Vitamin C, total ascorbic acid",mg,--,--,0.0,0.0
"Vitamin A, IU",IU,--,--,0,0
Lipids
"Fatty acids, total saturated",g,--,--,1.499,2.540
"Fatty acids, total monounsaturated",g,--,--,0.501,0.850
"Fatty acids, total polyunsaturated",g,--,--,0.000,0.000
"Fatty acids, total trans",g,--,--,0.000,0.000
"Cholesterol",mg,--,--,0,0
Amino Acids
Other
Ingredients
"CAKE MIX (SUGAR, BLEACHED WHEAT FLOUR, COCOA POWDER [PROCESSED WITH ALKALI], PALM OIL, LEAVENING [SODIUM BICARBONATE, SODIUM ALUMINUM PHOSPHATE, SODIUM ACID PYROPHOSPHATE, CALCIUM CARBONATE, ALUMINUM SULFATE], VITAL WHEAT GLUTEN, FOOD STARCH-MODIFIED, SODIUM CASEINATE, CORNSTARCH, WHEAT GLUTEN, ISOLATED SOY PROTEIN, SALT, WHEY, PROPYLENE GLYCOL MONO- AND DIESTERS OF FATS AND FATTY ACIDS, MONO- AND DIGLYCERIDES, RED 40, NATURAL AND ARTIFICIAL FLAVORS, XANTHAN GUM, SODIUM STEAROYL LACTYLATE, SODIUM ALGINATE, GUAR GUM, LACTIC ACID, SOY LECITHIN), VANILLA ICING (POWDERED SUGAR [SUGAR, CORNSTARCH], WATER, SUGAR, CORN SYRUP, FOOD STARCH-MODIFIED, VEGETABLE SHORTENING [PALM OIL, MONO- AND DIGLYCERIDES, POLYSORBATE 60], TITANIUM DIOXIDE [COLOR], SALT, POTASSIUM SORBATE [PRESERVATIVE], AGAR-AGAR, NATURAL FLAVOR, PECTIN, MONO- AND DIGLYCERIDES, CITRIC ACID, XANTHAN GUM)." Date available: 09/11/2017 Date last updated by company: 09/11/2017
