Source: USDA Branded Food Products Database Release December 2017 Software v.3.8.6.4 2017-10-02
Report Run at: December 18, 2017 21:31 EST
"Nutrient data for: 45276365, BUNNY TEETH LOLLIPOP, UPC: 6936756216928"
Food Group:  Branded Food Products Database
Common Name:

Nutrient,Unit,Data points,Std. Error,"1 PIECE = 23.0g",1Value per 100 g,
Proximates
"Energy",kcal,--,--,90,391
"Protein",g,--,--,0.00,0.00
"Total lipid (fat)",g,--,--,0.00,0.00
"Carbohydrate, by difference",g,--,--,22.00,95.65
"Fiber, total dietary",g,--,--,0.0,0.0
"Sugars, total",g,--,--,18.00,78.26
Minerals
"Calcium, Ca",mg,--,--,0,0
"Iron, Fe",mg,--,--,0.00,0.00
"Sodium, Na",mg,--,--,0,0
Vitamins
"Vitamin C, total ascorbic acid",mg,--,--,0.0,0.0
"Vitamin A, IU",IU,--,--,0,0
Lipids
"Fatty acids, total saturated",g,--,--,0.000,0.000
"Fatty acids, total trans",g,--,--,0.000,0.000
"Cholesterol",mg,--,--,0,0
Amino Acids
Other
Ingredients
"BLUE POP - ARTIFICIALLY FLAVORED BLUEBERRY INGREDIENTS: SUGAR, CORN SYRUP, PALM OIL, ARTIFICIAL FLAVOR, FD&C BLUE NO. 1. RED POP - ARTIFICIALLY FLAVORED WATERMELLON INGREDIENTS: SUGAR, CORN SYRUP, PALM OIL, ARTIFICIAL FLAVOR, FD&C RED NO. 40." Date available: 07/14/2017 Date last updated by company: 07/14/2017
