Source: USDA Branded Food Products Database Release December 2017 Software v.3.8.6.4 2017-10-02
Report Run at: December 18, 2017 21:32 EST
"Nutrient data for: 45189378, BURGER SEASONING, UPC: 892805004822"
Food Group:  Branded Food Products Database
Common Name:

Nutrient,Unit,Data points,Std. Error,"0.375 tsp = 1.3g",1Value per 100 g,
Proximates
"Energy",kcal,--,--,5,385
"Protein",g,--,--,0.00,0.00
"Total lipid (fat)",g,--,--,0.00,0.00
"Carbohydrate, by difference",g,--,--,1.00,76.92
Minerals
"Sodium, Na",mg,--,--,125,9615
Vitamins
"Vitamin C, total ascorbic acid",mg,--,--,46.2,3550.2
Lipids
Amino Acids
Other
Ingredients
"SALT, SUGAR, BLACK PEPPER, DRIED ONION, DRIED GARLIC, LEMON PEEL GRANULES, CANOLA OIL, CITRIC ACID, HICKORY SMOKE POWDER, AND LEMON OIL." Date available: 07/14/2017 Date last updated by company: 07/14/2017
