Source: USDA Branded Food Products Database Release December 2017 Software v.3.8.6.4 2017-10-02
Report Run at: December 18, 2017 21:32 EST
"Nutrient data for: 45088091, BURGER SPICE RUB, UPC: 856663004103"
Food Group:  Branded Food Products Database
Common Name:

Nutrient,Unit,Data points,Std. Error,"2.0 tsp = 7.0g",1Value per 100 g,
Proximates
"Energy",kcal,--,--,20,286
"Protein",g,--,--,0.00,0.00
"Total lipid (fat)",g,--,--,0.00,0.00
"Carbohydrate, by difference",g,--,--,4.00,57.14
"Fiber, total dietary",g,--,--,0.0,0.0
"Sugars, total",g,--,--,3.00,42.86
Minerals
"Calcium, Ca",mg,--,--,80,1143
"Iron, Fe",mg,--,--,2.57,36.75
"Sodium, Na",mg,--,--,730,10429
Vitamins
"Vitamin C, total ascorbic acid",mg,--,--,0.0,0.0
"Vitamin A, IU",IU,--,--,714,10207
Lipids
"Fatty acids, total saturated",g,--,--,0.000,0.000
"Fatty acids, total trans",g,--,--,0.000,0.000
"Cholesterol",mg,--,--,0,0
Amino Acids
Other
Ingredients
"SALT, SUGAR, BROWN SUGAR, DEHYDRATED ONION, SPICES, CORN SYRUP SOLIDS, ONION POWDER, GARLIC POWDER, PAPRIKA, BEEF STOCK, CHIPOTLE PEPPER, DEHYDRATED PARSLEY, CARAMEL COLOR, SOY SAUCE (FERMENTED WHEAT, SOYBEANS, SALT, MALTODEXTRIN, CARAMEL COLOR), NATURAL FLAVOR, TAMARIND, NOT MORE THAN 2% SILICON DIOXIDE ADDED TO PREVENT CAKING." Date available: 07/14/2017 Date last updated by company: 07/14/2017
