Source: USDA Branded Food Products Database Release December 2017 Software v.3.8.6.4 2017-10-02
Report Run at: December 18, 2017 21:33 EST
"Nutrient data for: 45170062, BURNING BUSH, KOSHER HOT SAUCE, UPC: 865956000005"
Food Group:  Branded Food Products Database
Common Name:

Nutrient,Unit,Data points,Std. Error,"1 Tbsp = 13.0g",1Value per 100 g,
Proximates
"Energy",kcal,--,--,3,23
"Total lipid (fat)",g,--,--,0.00,0.00
"Carbohydrate, by difference",g,--,--,0.70,5.38
Minerals
Vitamins
Lipids
"Cholesterol",mg,--,--,0,0
Amino Acids
Other
Ingredients
"WATER, WHITE VINEGAR, ORGANIC TOMATO PASTE, CHILI PEPPERS, SEA SALT, HERBS AND SPICES." Date available: 10/13/2017 Date last updated by company: 10/13/2017
