Source: USDA Branded Food Products Database Release December 2017 Software v.3.8.6.4 2017-10-02
Report Run at: December 18, 2017 21:34 EST
"Nutrient data for: 45326160, BURNT PEANUTS, UPC: 761706140437"
Food Group:  Branded Food Products Database
Common Name:

Nutrient,Unit,Data points,Std. Error,"38.0 PIECES = 40.0g",1Value per 100 g,
Proximates
"Energy",kcal,--,--,180,450
"Protein",g,--,--,4.00,10.00
"Total lipid (fat)",g,--,--,8.00,20.00
"Carbohydrate, by difference",g,--,--,26.00,65.00
"Fiber, total dietary",g,--,--,1.0,2.5
"Sugars, total",g,--,--,20.00,50.00
Minerals
"Calcium, Ca",mg,--,--,0,0
"Iron, Fe",mg,--,--,0.45,1.12
"Sodium, Na",mg,--,--,15,38
Vitamins
"Vitamin C, total ascorbic acid",mg,--,--,0.0,0.0
"Vitamin A, IU",IU,--,--,0,0
Lipids
"Fatty acids, total saturated",g,--,--,1.000,2.500
"Fatty acids, total trans",g,--,--,0.000,0.000
"Cholesterol",mg,--,--,0,0
Amino Acids
Other
Ingredients
"SUGAR, PEANUTS, CORN SYRUP, TAPIOCA DEXTRIN, CONFECTIONER'S GLAZE, NATURAL AND ARTIFICIAL FLAVOR, ARTIFICIAL COLORS INCLUDING (RED 40, YELLOW 6, YELLOW 5, BLUE 1), SALT." Date available: 08/11/2017 Date last updated by company: 08/11/2017
