Source: USDA Branded Food Products Database Release December 2017 Software v.3.8.6.4 2017-10-02
Report Run at: December 18, 2017 21:33 EST
"Nutrient data for: 45176033, BURNETT DAIRY, STRING CHEESE, PEPPERONI PIZZA, UPC: 054783505948"
Food Group:  Branded Food Products Database
Common Name:

Nutrient,Unit,Data points,Std. Error,"1 STICK | ABOUT = 24.0g",1Value per 100 g,
Proximates
"Energy",kcal,--,--,70,292
"Protein",g,--,--,6.00,25.00
"Total lipid (fat)",g,--,--,5.00,20.83
"Carbohydrate, by difference",g,--,--,1.00,4.17
"Fiber, total dietary",g,--,--,0.0,0.0
"Sugars, total",g,--,--,0.00,0.00
Minerals
"Calcium, Ca",mg,--,--,150,625
"Iron, Fe",mg,--,--,0.00,0.00
"Sodium, Na",mg,--,--,125,521
Vitamins
"Vitamin C, total ascorbic acid",mg,--,--,0.0,0.0
"Vitamin A, IU",IU,--,--,416,1735
Lipids
"Fatty acids, total saturated",g,--,--,3.499,14.580
"Fatty acids, total trans",g,--,--,0.000,0.000
"Cholesterol",mg,--,--,20,83
Amino Acids
Other
Ingredients
"CHEESE: PASTEURIZED CULTURED COW'S MILK, SALT, AND ENZYMES. PEPPERONI: PORK, BEEF, WATER, LESS THAN 2% OF FLAVORINGS, SALT, PAPRIKA, DEXTROSE, SODIUM ERYTHORBATE, CITRIC ACID, SODIUM NITRITE. PEPPERONI SEASONING: SPICES, AND DEHYDRATED GARLIC." Date available: 07/14/2017 Date last updated by company: 07/14/2017
