Source: USDA Branded Food Products Database Release December 2017 Software v.3.8.6.4 2017-10-02
Report Run at: December 18, 2017 21:35 EST
"Nutrient data for: 45194761, BURRITO STYLE FLOUR TORTILLAS, UPC: 043354007271"
Food Group:  Branded Food Products Database
Common Name:

Nutrient,Unit,Data points,Std. Error,"1 TORTILLAS = 60.0g",1Value per 100 g,
Proximates
"Energy",kcal,--,--,190,317
"Protein",g,--,--,5.00,8.33
"Total lipid (fat)",g,--,--,5.00,8.33
"Carbohydrate, by difference",g,--,--,30.00,50.00
"Fiber, total dietary",g,--,--,3.0,5.0
"Sugars, total",g,--,--,0.00,0.00
Minerals
"Calcium, Ca",mg,--,--,20,33
"Iron, Fe",mg,--,--,0.66,1.10
"Sodium, Na",mg,--,--,330,550
Vitamins
"Vitamin C, total ascorbic acid",mg,--,--,0.0,0.0
"Vitamin A, IU",IU,--,--,0,0
Lipids
"Fatty acids, total saturated",g,--,--,1.998,3.330
"Fatty acids, total monounsaturated",g,--,--,1.002,1.670
"Fatty acids, total polyunsaturated",g,--,--,1.998,3.330
"Fatty acids, total trans",g,--,--,0.000,0.000
"Cholesterol",mg,--,--,0,0
Amino Acids
Other
Ingredients
"ENRICHED FLOUR (BLEACHED WHEAT FLOUR. NIACIN, REDUCED IRON, THIAMINE MONONITRATE, RIBOFLAVIN, FOLIC ACID). WATER, SHORTENING (SOYBEAN OIL AND HYDROGENATED SOYBEAN OIL), CONTAINS 2% OR LESS OF LEAVENING (SODIUM BICARBONATE, SODIUM ALUMINUM SULFATE. SODIUM ALUMINUM PHOSPHATE), DOUGH CONDITIONERS (MONO-AND DIGLYCERIDES. CALCIUM SULFATE. ENZYMES, L-CYSTEINE MONOHYDROCHLORIDE), VITAL WHEAT GLUTEN, SODIUM PROPIONATE (PRESERVATIVE). FUMARIC ACID, SALT, POTASSIUM SORBATE (PRESERVATIVE), CORNSTARCH, SOY FLOUR. CELLULOSE GUM, WHEAT STARCH, CANOLA OIL, XANTHAN GUM. MICROCRYSTALLINE CELLULOSE" Date available: 07/14/2017 Date last updated by company: 07/14/2017
