Source: USDA Branded Food Products Database Release December 2017 Software v.3.8.6.4 2017-10-02
Report Run at: December 18, 2017 21:36 EST
"Nutrient data for: 45326032, BURRITOS, UPC: 071007159343"
Food Group:  Branded Food Products Database
Common Name:

Nutrient,Unit,Data points,Std. Error,"1 BURRITO = 142.0g",1Value per 100 g,
Proximates
"Energy",kcal,--,--,290,204
"Protein",g,--,--,12.99,9.15
"Total lipid (fat)",g,--,--,7.99,5.63
"Carbohydrate, by difference",g,--,--,43.00,30.28
"Fiber, total dietary",g,--,--,1.0,0.7
"Sugars, total",g,--,--,0.00,0.00
Minerals
"Calcium, Ca",mg,--,--,60,42
"Iron, Fe",mg,--,--,2.66,1.87
"Sodium, Na",mg,--,--,420,296
Vitamins
"Vitamin C, total ascorbic acid",mg,--,--,6.0,4.2
"Vitamin A, IU",IU,--,--,98,69
Lipids
"Fatty acids, total saturated",g,--,--,2.499,1.760
"Fatty acids, total trans",g,--,--,0.000,0.000
"Cholesterol",mg,--,--,20,14
Amino Acids
Other
Ingredients
"FLOUR TORTILLA (WHEAT FLOUR [ENRICHED WITH NIACIN, REDUCED IRON, THIAMIN MONONITRATE, RIBOFLAVIN, FOLIC ACID], WATER, VEGETABLE OIL (SOYBEAN, CANOLA, PALM AND/OR CORN OIL), SALT, DOUGH CONDITIONERS (YEAST, WHEAT GLUTEN, SUGAR, GUAR GUM, FOOD STARCH, SODIUM METABISULFITE), COOKED BEEF STEAK (WITH BROTH, SALT), WATER, GREEN CHILIES (WITH SALT, CITRIC ACID, CALCIUM CHLORIDE), CHEESES, CHEDDAR CHEESE (CULTURED PASTEURIZED MILK, SALT, ENZYMES, ANNATTO COLOR), MONTEREY JACK CHEESE (CULTURED PASTEURIZED MILK, SALT, ENZYMES), LOW MOISTURE MOZZARELLA CHEESE (PASTEURIZED MILK, CHEESE CULTURES, SALT, ENZYMES), CONTAINS 2% OR LESS MODIFIED CORN STARCH, TOMATOES (WITH JUICE, CITRIC ACID, CALCIUM CHLORIDE), DEHYDRATED ONION, JALAPENO PEPPER (WITH SALT, ACETIC ACID, CALCIUM CHLORIDE), BEEF FLAVOR (BEEF BROTH, BEEF FAT, FLAVOR, SALT), SALT, FLAVOR, SPICES, GROUND CHILI PEPPER." Date available: 10/13/2017 Date last updated by company: 10/13/2017
