Source: USDA Branded Food Products Database Release December 2017 Software v.3.8.6.4 2017-10-02
Report Run at: December 18, 2017 21:37 EST
"Nutrient data for: 45223912, BURRITO, UPC: 693436000302"
Food Group:  Branded Food Products Database
Common Name:

Nutrient,Unit,Data points,Std. Error,"1 BURRITO = 198.0g",1Value per 100 g,
Proximates
"Energy",kcal,--,--,390,197
"Protein",g,--,--,19.01,9.60
"Total lipid (fat)",g,--,--,2.00,1.01
"Carbohydrate, by difference",g,--,--,75.99,38.38
"Fiber, total dietary",g,--,--,11.1,5.6
"Sugars, total",g,--,--,2.00,1.01
Minerals
"Calcium, Ca",mg,--,--,59,30
"Iron, Fe",mg,--,--,3.19,1.61
"Sodium, Na",mg,--,--,410,207
Vitamins
"Vitamin C, total ascorbic acid",mg,--,--,1.8,0.9
"Vitamin A, IU",IU,--,--,0,0
Lipids
"Fatty acids, total saturated",g,--,--,0.000,0.000
"Fatty acids, total trans",g,--,--,0.000,0.000
"Cholesterol",mg,--,--,0,0
Amino Acids
Other
Ingredients
"BLACK BEANS, GRILLED PEPPERS, CORN, CIDER VINEGAR, SOYBEAN OIL, SEA SALT AND SPICES. TORTILLA: ENRICHED WHEAT FLOUR, (MALTED BARLEY, VITAMINS B2, B3, B9 & IRON), CONTAINS 2% OR LESS OF: POTATO & CORN STARCH, BAKING POWDER, CELLULOSE AND GUAR GUM" Date available: 07/14/2017 Date last updated by company: 07/14/2017
