Source: USDA Branded Food Products Database Release December 2017 Software v.3.8.6.4 2017-10-02
Report Run at: December 18, 2017 21:37 EST
"Nutrient data for: 45197105, BURRITO, UPC: 071007147432"
Food Group:  Branded Food Products Database
Common Name:

Nutrient,Unit,Data points,Std. Error,"1 BURRITO = 128.0g",1Value per 100 g,
Proximates
"Energy",kcal,--,--,270,211
"Protein",g,--,--,11.00,8.59
"Total lipid (fat)",g,--,--,12.01,9.38
"Carbohydrate, by difference",g,--,--,30.00,23.44
"Fiber, total dietary",g,--,--,1.0,0.8
"Sugars, total",g,--,--,2.00,1.56
Minerals
"Calcium, Ca",mg,--,--,60,47
"Iron, Fe",mg,--,--,2.96,2.31
"Sodium, Na",mg,--,--,480,375
Vitamins
"Vitamin C, total ascorbic acid",mg,--,--,1.3,1.0
"Vitamin A, IU",IU,--,--,219,171
Lipids
"Fatty acids, total saturated",g,--,--,3.994,3.120
"Fatty acids, total trans",g,--,--,0.000,0.000
"Cholesterol",mg,--,--,100,78
Amino Acids
Other
Ingredients
"FLOUR TORTILLA (WHEAT FLOUR (ENRICHED WITH NIACIN, REDUCED IRON, THIAMIN MONONITRATE, RIBOFLAVIN, FOLIC ACID), WATER, VEGETABLE OIL (SOYBEAN, SUNFLOWER, CANOLA AND/OR CORN OIL), DOUGH CONDITIONERS (SALT, YEAST, CELLULOSE GUM, GUAR GUM), WHEAT STARCH, ENZYMES, SODIUM METABISULFITE, SODIUM STEAROYL LACTYLATE, L-CYSTEINE, MONO AND DIGLYCERIDES, DICALCIUM PHOSPHATE, MONOCRYSTALLINE CELLULOSE), SCRAMBLED EGGS (PASTEURIZED WHOLE EGGS, NON FAT MILK, SOYBEAN OIL, MODIFIED FOOD STARCH, SALT, XANTHAN GUM, CITRIC ACID, BUTTER FLAVOR (MALTODEXTRIN, NATURAL BUTTER FLAVOR, ANNATTO AND TURMERIC (ADDED FOR COLOR)), SPICE), WATER, PORK SAUSAGE (PORK, WATER, SALT, SPICES, CORN SYRUP SOLIDS, SUGAR, AUTOLYZED YEAST EXTRACT, SPICE EXTRACTIVE), CHEESE SAUCE (WATER, AGED CHEDDAR CHEESE (CULTURED MILK, SALT, ENZYMES, ANNATTO COLOR), PARTIALLY HYDROGENATED SOYBEAN OIL, MODIFIED CORN STARCH, CREAM CHEESE [PASTEURIZED MILK AND CREAM, CHEESE CULTURE, SALT, STABILIZERS (XANTHAN, GUAR, CAROB BEAN GUMS)], CONTAINS 2% OR LESS OF SODIUM PHOSPHATE, NONFAT DRY MILK, SALT, WHEY, CELLULOSE GUM, LACTIC ACID, PROPIONIC ACID, SUGAR, MONOGLYCERIDES, YEAST EXTRACT, BUTTER OIL, NATURAL FLAVOR, ANNATTO COLOR, FD&C YELLOW NO. 6), ONION, MONTEREY JACK CHEESE (PASTEURIZED MILK, CHEESE CULTURES, SALT, ENZYMES), POTATOES (WITH SALT), TOMATOES (WITH JUICE, CITRIC ACID, CALCIUM CHLORIDE), BACON (CURED WITH WATER, SALT, SUGAR, SMOKE FLAVORING, SODIUM PHOSPHATES, SODIUM ERYTHORBATE, SODIUM NITRITE), CONTAINS 2% OR LESS MODIFIED CORN STARCH, JALAPENO PEPPERS (WITH SALT, ACETIC ACID, CALCIUM CHLORIDE), SALT, SPICE." Date available: 07/26/2017 Date last updated by company: 07/26/2017
