Source: USDA Branded Food Products Database Release December 2017 Software v.3.8.6.4 2017-10-02
Report Run at: December 18, 2017 21:35 EST
"Nutrient data for: 45220647, BURRITO SEASONED BEEF, UPC: 648036001976"
Food Group:  Branded Food Products Database
Common Name:

Nutrient,Unit,Data points,Std. Error,"1 cup = 63.0g",1Value per 100 g,
Proximates
"Energy",kcal,--,--,70,111
"Protein",g,--,--,11.00,17.46
"Total lipid (fat)",g,--,--,3.00,4.76
"Carbohydrate, by difference",g,--,--,3.00,4.76
"Fiber, total dietary",g,--,--,1.0,1.6
"Sugars, total",g,--,--,1.00,1.59
Minerals
"Calcium, Ca",mg,--,--,0,0
"Iron, Fe",mg,--,--,0.32,0.50
"Sodium, Na",mg,--,--,370,587
Vitamins
"Vitamin C, total ascorbic acid",mg,--,--,0.0,0.0
"Vitamin A, IU",IU,--,--,0,0
Lipids
"Fatty acids, total saturated",g,--,--,1.002,1.590
"Fatty acids, total trans",g,--,--,0.000,0.000
"Cholesterol",mg,--,--,30,48
Amino Acids
Other
Ingredients
"COOKED BEEF, WATER, BURRITO SEASONING (SPICES, DEXTROSE, SALT, STARCH, PAPRIKA OLEORESIN, CITRIC ACID, SILICON DIOXIDE), TOMATO EXTRACT." Date available: 07/14/2017 Date last updated by company: 07/14/2017
