Source: USDA Branded Food Products Database Release December 2017 Software v.3.8.6.4 2017-10-02
Report Run at: December 18, 2017 21:39 EST
"Nutrient data for: 45244276, BUSH'S COCINA LATINA Frijoles Cubanos 15 oz, UNPREPARED, GTIN: 00039400014638"
Food Group:  Branded Food Products Database
Common Name:

Nutrient,Unit,Data points,Std. Error,"0.5 cup = 130.0g",1Value per 100 g,
Proximates
"Energy",kcal,--,--,100,77
"Protein",g,--,--,5.00,3.85
"Total lipid (fat)",g,--,--,3.00,2.31
"Carbohydrate, by difference",g,--,--,16.00,12.31
"Fiber, total dietary",g,--,--,3.0,2.3
"Sugars, total",g,--,--,2.00,1.54
Minerals
"Calcium, Ca",mg,--,--,40,31
"Iron, Fe",mg,--,--,1.08,0.83
"Potassium, K",mg,--,--,309,238
"Sodium, Na",mg,--,--,460,354
Vitamins
"Vitamin C, total ascorbic acid",mg,--,--,0.0,0.0
"Vitamin A, IU",IU,--,--,0,0
Lipids
"Fatty acids, total saturated",g,--,--,0.000,0.000
"Fatty acids, total trans",g,--,--,0.000,0.000
"Cholesterol",mg,--,--,0,0
Amino Acids
Other
Ingredients
"WATER, PREPARED BLACK BEANS, RED AND GREEN BELL PEPPER, OLIVE OIL, GARLIC, LESS THAN 1% OF: ONION, SPICE, WINE, RED WINE VINEGAR, TURMERIC, SUGAR, SALT, AND MODIFIED CORN STARCH." Date available: 10/10/2017 Date last updated by company: 08/07/2017
