Source: USDA Branded Food Products Database Release December 2017 Software v.3.8.6.4 2017-10-02
Report Run at: December 18, 2017 21:40 EST
"Nutrient data for: 45244355, BUSH'S Field Peas with Snaps  15.8 oz, UNPREPARED, GTIN: 00039400013877"
Food Group:  Branded Food Products Database
Common Name:

Nutrient,Unit,Data points,Std. Error,"0.5 cup = 130.0g",1Value per 100 g,
Proximates
"Energy",kcal,--,--,81,62
"Protein",g,--,--,5.00,3.85
"Total lipid (fat)",g,--,--,0.00,0.00
"Carbohydrate, by difference",g,--,--,16.00,12.31
"Fiber, total dietary",g,--,--,1.9,1.5
"Sugars, total",g,--,--,0.00,0.00
Minerals
"Calcium, Ca",mg,--,--,20,15
"Iron, Fe",mg,--,--,1.44,1.11
"Potassium, K",mg,--,--,211,162
"Sodium, Na",mg,--,--,430,331
Vitamins
"Vitamin C, total ascorbic acid",mg,--,--,0.0,0.0
"Vitamin A, IU",IU,--,--,0,0
Lipids
"Fatty acids, total saturated",g,--,--,0.000,0.000
"Fatty acids, total monounsaturated",g,--,--,0.000,0.000
"Fatty acids, total polyunsaturated",g,--,--,0.000,0.000
"Fatty acids, total trans",g,--,--,0.000,0.000
"Cholesterol",mg,--,--,0,0
Amino Acids
Other
Ingredients
"Prepared Field Peas, Water, Cut Snap Beans, Salt, and Disodium EDTA (Promotes Color Retention)." Date available: 10/19/2017 Date last updated by company: 10/19/2017
