Source: USDA Branded Food Products Database Release December 2017 Software v.3.8.6.4 2017-10-02
Report Run at: December 18, 2017 21:42 EST
"Nutrient data for: 45244339, BUSH'S Pinto Beans in a Mild Chili Sauce  111 oz, UNPREPARED, GTIN: 00039400016960"
Food Group:  Branded Food Products Database
Common Name:

Nutrient,Unit,Data points,Std. Error,"0.5 cup = 130.0g",1Value per 100 g,
Proximates
"Energy",kcal,--,--,110,85
"Protein",g,--,--,6.01,4.62
"Total lipid (fat)",g,--,--,1.00,0.77
"Carbohydrate, by difference",g,--,--,19.99,15.38
"Fiber, total dietary",g,--,--,6.0,4.6
"Sugars, total",g,--,--,2.00,1.54
Minerals
"Calcium, Ca",mg,--,--,40,31
"Iron, Fe",mg,--,--,1.44,1.11
"Sodium, Na",mg,--,--,530,408
Vitamins
"Vitamin C, total ascorbic acid",mg,--,--,0.0,0.0
"Vitamin A, IU",IU,--,--,0,0
Lipids
"Fatty acids, total saturated",g,--,--,0.000,0.000
"Fatty acids, total monounsaturated",g,--,--,0.000,0.000
"Fatty acids, total polyunsaturated",g,--,--,0.000,0.000
"Fatty acids, total trans",g,--,--,0.000,0.000
"Cholesterol",mg,--,--,0,0
Amino Acids
Other
Ingredients
"Prepared Pinto Beans, Water, Contains Less than 2% of: Salt, Modified Corn Starch, Tomato Paste, Spices, Corn Oil, Sugar, Garlic Powder, Onion Powder, Extractive of Paprika." Date available: 10/10/2017 Date last updated by company: 08/07/2017
