Source: USDA Branded Food Products Database Release December 2017 Software v.3.8.6.4 2017-10-02
Report Run at: December 18, 2017 21:39 EST
"Nutrient data for: 45244308, BUSH'S Cannellini Beans  15.5 oz, UNPREPARED, GTIN: 00039400018704"
Food Group:  Branded Food Products Database
Common Name:

Nutrient,Unit,Data points,Std. Error,"0.5 cup = 130.0g",1Value per 100 g,
Proximates
"Energy",kcal,--,--,90,69
"Protein",g,--,--,6.99,5.38
"Total lipid (fat)",g,--,--,0.00,0.00
"Carbohydrate, by difference",g,--,--,19.01,14.62
"Fiber, total dietary",g,--,--,6.0,4.6
"Sugars, total",g,--,--,0.00,0.00
Minerals
"Calcium, Ca",mg,--,--,81,62
"Iron, Fe",mg,--,--,2.70,2.08
"Potassium, K",mg,--,--,270,208
"Sodium, Na",mg,--,--,270,208
Vitamins
"Vitamin C, total ascorbic acid",mg,--,--,0.0,0.0
"Vitamin A, IU",IU,--,--,0,0
Lipids
"Fatty acids, total saturated",g,--,--,0.000,0.000
"Fatty acids, total monounsaturated",g,--,--,0.000,0.000
"Fatty acids, total polyunsaturated",g,--,--,0.000,0.000
"Fatty acids, total trans",g,--,--,0.000,0.000
"Cholesterol",mg,--,--,0,0
Amino Acids
Other
Ingredients
"Prepared Cannellini Beans (White Kidney Beans), Water, Salt, Calcium Chloride (Firming Agent), and Calcium Disodium EDTA (Promotes Color Retention)." Date available: 10/10/2017 Date last updated by company: 08/07/2017
