Source: USDA Branded Food Products Database Release December 2017 Software v.3.8.6.4 2017-10-02
Report Run at: December 18, 2017 21:43 EST
"Nutrient data for: 45244288, BUSH'S White Chili Beans  15.5 oz, UNPREPARED, GTIN: 00039400015017"
Food Group:  Branded Food Products Database
Common Name:

Nutrient,Unit,Data points,Std. Error,"0.5 cup = 130.0g",1Value per 100 g,
Proximates
"Energy",kcal,--,--,100,77
"Protein",g,--,--,6.01,4.62
"Total lipid (fat)",g,--,--,0.00,0.00
"Carbohydrate, by difference",g,--,--,19.99,15.38
"Fiber, total dietary",g,--,--,6.0,4.6
"Sugars, total",g,--,--,0.00,0.00
Minerals
"Calcium, Ca",mg,--,--,100,77
"Iron, Fe",mg,--,--,1.79,1.38
"Potassium, K",mg,--,--,520,400
"Sodium, Na",mg,--,--,400,308
Vitamins
"Vitamin C, total ascorbic acid",mg,--,--,0.0,0.0
"Vitamin A, IU",IU,--,--,0,0
Lipids
"Fatty acids, total saturated",g,--,--,0.000,0.000
"Fatty acids, total monounsaturated",g,--,--,0.000,0.000
"Fatty acids, total polyunsaturated",g,--,--,0.000,0.000
"Fatty acids, total trans",g,--,--,0.000,0.000
"Cholesterol",mg,--,--,0,0
Amino Acids
Other
Ingredients
"Prepared Great Northern Beans, Water, Modified Corn Starch, Salt, Garlic Powder, Spices, Chicken Base, Onion Powder, Calcium Chloride (Firming Agent), Calcium disodium EDTA (Promotes Color Retention)," Date available: 10/19/2017 Date last updated by company: 10/19/2017
