Source: USDA Branded Food Products Database Release December 2017 Software v.3.8.6.4 2017-10-02
Report Run at: December 18, 2017 21:38 EST
"Nutrient data for: 45244397, BUSH'S Baked Beans with Honey  28 oz, UNPREPARED, GTIN: 00039400019855"
Food Group:  Branded Food Products Database
Common Name:

Nutrient,Unit,Data points,Std. Error,"0.5 cup = 130.0g",1Value per 100 g,
Proximates
"Energy",kcal,--,--,170,131
"Protein",g,--,--,6.99,5.38
"Total lipid (fat)",g,--,--,1.50,1.15
"Carbohydrate, by difference",g,--,--,32.01,24.62
"Fiber, total dietary",g,--,--,4.9,3.8
"Sugars, total",g,--,--,15.00,11.54
Minerals
"Calcium, Ca",mg,--,--,60,46
"Iron, Fe",mg,--,--,1.44,1.11
"Sodium, Na",mg,--,--,520,400
Vitamins
"Vitamin C, total ascorbic acid",mg,--,--,0.0,0.0
"Vitamin A, IU",IU,--,--,0,0
Lipids
"Fatty acids, total saturated",g,--,--,0.000,0.000
"Fatty acids, total monounsaturated",g,--,--,0.000,0.000
"Fatty acids, total polyunsaturated",g,--,--,0.000,0.000
"Fatty acids, total trans",g,--,--,0.000,0.000
"Cholesterol",mg,--,--,0,0
Amino Acids
Other
Ingredients
"Prepared White Beans, Water, Sugar, Brown Sugar, Bacon, Salt, Honey, Mustard (Vinegar, Water, Mustard Seed, Salt, Natural Flavor), Modified Corn Starch, Onion Powder, Caramel Color, Spices, Garlic Powder." Date available: 10/10/2017 Date last updated by company: 08/07/2017
