Source: USDA Branded Food Products Database Release December 2017 Software v.3.8.6.4 2017-10-02
Report Run at: December 18, 2017 21:43 EST
"Nutrient data for: 45172866, BUSSETO FOODS, DICED PANCETTA, UPC: 038101003163"
Food Group:  Branded Food Products Database
Common Name:

Nutrient,Unit,Data points,Std. Error,"1 ONZ = 28.0g",1Value per 100 g,
Proximates
"Energy",kcal,--,--,120,429
"Protein",g,--,--,5.00,17.86
"Total lipid (fat)",g,--,--,11.00,39.29
"Carbohydrate, by difference",g,--,--,1.00,3.57
Minerals
"Sodium, Na",mg,--,--,410,1464
Vitamins
Lipids
"Fatty acids, total saturated",g,--,--,4.001,14.290
"Fatty acids, total trans",g,--,--,0.000,0.000
"Cholesterol",mg,--,--,25,89
Amino Acids
Other
Ingredients
"PORK BELLIES, SALT AND LESS THAN 2% OF THE FOLLOWING: NATURAL FLAVORINGS, SUGAR SODIUM NITRATE, SODIUM ASCORBATE, SODIUM NITRITE, LACTIC ACID STARTER CULTURE." Date available: 07/14/2017 Date last updated by company: 07/14/2017
