Source: USDA Branded Food Products Database Release December 2017 Software v.3.8.6.4 2017-10-02
Report Run at: December 18, 2017 22:00 EST
"Nutrient data for: 45111672, BUTTER PECAN ICE CREAM, UPC: 070640012459"
Food Group:  Branded Food Products Database
Common Name:

Nutrient,Unit,Data points,Std. Error,"0.5 cup = 67.0g",1Value per 100 g,
Proximates
"Energy",kcal,--,--,150,224
"Protein",g,--,--,3.00,4.48
"Total lipid (fat)",g,--,--,9.00,13.43
"Carbohydrate, by difference",g,--,--,15.00,22.39
"Fiber, total dietary",g,--,--,0.0,0.0
"Sugars, total",g,--,--,13.00,19.40
Minerals
"Calcium, Ca",mg,--,--,100,149
"Iron, Fe",mg,--,--,0.00,0.00
"Potassium, K",mg,--,--,135,201
"Sodium, Na",mg,--,--,90,134
Vitamins
"Vitamin C, total ascorbic acid",mg,--,--,0.0,0.0
"Vitamin A, IU",IU,--,--,225,336
Lipids
"Fatty acids, total saturated",g,--,--,4.502,6.720
"Fatty acids, total trans",g,--,--,0.000,0.000
"Cholesterol",mg,--,--,25,37
Amino Acids
Other
Ingredients
"MILK, SKIM MILK, CREAM, SUGAR, PECANS (PECANS, COTTONSEED OIL, BUTTER), CORN SYRUP, CONTAINS 1% OR LESS OF VANILLA EXTRACT, NATURAL FLAVOR, GROUND VANILLA BEANS, SALT, CAROB BEAN GUM, GUAR GUM, CARRAGEENAN, MONO & DIGLYCERIDES, CELLULOSE GEL, CELLULOSE GUM, ANNATTO FOR COLOR." Date available: 07/14/2017 Date last updated by company: 07/14/2017
