Source: USDA Branded Food Products Database Release December 2017 Software v.3.8.6.4 2017-10-02
Report Run at: December 18, 2017 21:48 EST
"Nutrient data for: 45196612, BUTTER CHICKEN COOKING SAUCE WITH ROASTED SPICES, UPC: 051179126701"
Food Group:  Branded Food Products Database
Common Name:

Nutrient,Unit,Data points,Std. Error,"2.0 Tbsp = 25.0g",1Value per 100 g,
Proximates
"Energy",kcal,--,--,90,360
"Protein",g,--,--,2.00,8.00
"Total lipid (fat)",g,--,--,6.50,26.00
"Carbohydrate, by difference",g,--,--,7.00,28.00
"Fiber, total dietary",g,--,--,2.0,8.0
"Sugars, total",g,--,--,2.00,8.00
Minerals
"Calcium, Ca",mg,--,--,20,80
"Iron, Fe",mg,--,--,0.73,2.92
"Sodium, Na",mg,--,--,600,2400
Vitamins
"Vitamin C, total ascorbic acid",mg,--,--,0.0,0.0
"Vitamin A, IU",IU,--,--,2536,10144
Lipids
"Fatty acids, total saturated",g,--,--,1.500,6.000
"Fatty acids, total trans",g,--,--,0.000,0.000
"Cholesterol",mg,--,--,0,0
Amino Acids
Other
Ingredients
"SUNFLOWER OIL, ONION, TOMATO PASTE, CASHEWNUT, SALT, SPICES (CHILLI, CORIANDER, CUMIN, FENNEL, CARDAMOM, NUTMEG, PEPPER, TURMERIC, MINT LEAVES, MUSTARD, CINNAMON, STAR ANISE, FENUGREEK, CLOVE), SUGAR, GARLIC POWDER, GINGER POWDER, CITRIC ACID (ACIDIFYING AGENT, E330), PAPRIKA (NATURAL COLOR, E160C)." Date available: 07/14/2017 Date last updated by company: 07/14/2017
