Source: USDA Branded Food Products Database Release December 2017 Software v.3.8.6.4 2017-10-02
Report Run at: December 18, 2017 22:01 EST
"Nutrient data for: 45317806, BUTTERSCOTCH AND CARAMEL SOFT CREMES, UPC: 494981111037"
Food Group:  Branded Food Products Database
Common Name:

Nutrient,Unit,Data points,Std. Error,"7.0 PIECES = 42.0g",1Value per 100 g,
Proximates
"Energy",kcal,--,--,180,429
"Protein",g,--,--,1.00,2.38
"Total lipid (fat)",g,--,--,7.00,16.67
"Carbohydrate, by difference",g,--,--,30.00,71.43
"Fiber, total dietary",g,--,--,0.0,0.0
"Sugars, total",g,--,--,19.00,45.24
Minerals
"Calcium, Ca",mg,--,--,40,95
"Iron, Fe",mg,--,--,0.00,0.00
"Sodium, Na",mg,--,--,140,333
Vitamins
"Vitamin C, total ascorbic acid",mg,--,--,0.0,0.0
"Vitamin A, IU",IU,--,--,119,283
Lipids
"Fatty acids, total saturated",g,--,--,4.998,11.900
"Fatty acids, total trans",g,--,--,0.000,0.000
"Cholesterol",mg,--,--,5,12
Amino Acids
Other
Ingredients
"CORN SYRUP; SWEETENED CONDENSED MILK (MILK; SUGAR); HIGH FRUCTOSE CORN SYRUP; PALM KERNEL OIL; SUGAR; GLYCERIN; DAIRY BUTTER (MILK); CONTAINS 2% OR LESS OF: GLYCERYL MONOSTEARATE; SALT; NATURAL FLAVORS; SOY LECITHIN; DISODIUM PHOSPHATE; CARAMEL COLOR; TOCOPHEROLS, TO MAINTAIN FRESHNESS; SODIUM CARBONATE; ARTIFICIAL COLOR (YELLOW 5; RED 40; BLUE 1; YELLOW 6); MINERAL OIL." Date available: 07/14/2017 Date last updated by company: 07/14/2017
