Source: USDA Branded Food Products Database Release December 2017 Software v.3.8.6.4 2017-10-02
Report Run at: December 18, 2017 21:51 EST
"Nutrient data for: 45284491, BUTTERFLY COOKIES, UPC: 795130036523"
Food Group:  Branded Food Products Database
Common Name:

Nutrient,Unit,Data points,Std. Error,"6.0 COOKIES = 31.0g",1Value per 100 g,
Proximates
"Energy",kcal,--,--,140,452
"Protein",g,--,--,2.00,6.45
"Total lipid (fat)",g,--,--,4.50,14.52
"Carbohydrate, by difference",g,--,--,23.00,74.19
"Fiber, total dietary",g,--,--,1.0,3.2
"Sugars, total",g,--,--,7.00,22.58
Minerals
"Calcium, Ca",mg,--,--,0,0
"Iron, Fe",mg,--,--,0.00,0.00
"Sodium, Na",mg,--,--,125,403
Vitamins
"Vitamin C, total ascorbic acid",mg,--,--,0.0,0.0
"Vitamin A, IU",IU,--,--,0,0
Lipids
"Fatty acids, total saturated",g,--,--,2.000,6.450
"Fatty acids, total monounsaturated",g,--,--,2.000,6.450
"Fatty acids, total polyunsaturated",g,--,--,0.499,1.610
"Fatty acids, total trans",g,--,--,0.000,0.000
"Cholesterol",mg,--,--,0,0
Amino Acids
Other
Ingredients
"WHEAT FLOUR, SUGAR, PALM OIL, GLUCOSE SYRUP, MALT SYRUP, AMMONIUM BICARBONATE, SALT, SODIUM BICARBONATE, SODIUM METABISULFITE." Date available: 07/14/2017 Date last updated by company: 07/14/2017
