Source: USDA Branded Food Products Database Release December 2017 Software v.3.8.6.4 2017-10-02
Report Run at: December 18, 2017 21:47 EST
"Nutrient data for: 45048265, BUTTER BEANS, UPC: 041303004166"
Food Group:  Branded Food Products Database
Common Name:

Nutrient,Unit,Data points,Std. Error,"0.5 cup = 130.0g",1Value per 100 g,
Proximates
"Energy",kcal,--,--,100,77
"Protein",g,--,--,5.00,3.85
"Total lipid (fat)",g,--,--,1.00,0.77
"Carbohydrate, by difference",g,--,--,19.01,14.62
"Fiber, total dietary",g,--,--,6.0,4.6
"Sugars, total",g,--,--,1.00,0.77
Minerals
"Calcium, Ca",mg,--,--,40,31
"Iron, Fe",mg,--,--,2.70,2.08
"Sodium, Na",mg,--,--,380,292
Vitamins
"Vitamin C, total ascorbic acid",mg,--,--,0.0,0.0
"Vitamin A, IU",IU,--,--,0,0
Lipids
"Fatty acids, total saturated",g,--,--,0.000,0.000
"Fatty acids, total trans",g,--,--,0.000,0.000
"Cholesterol",mg,--,--,0,0
Amino Acids
Other
Ingredients
"PREPARED LARGE LIMA BEANS, WATER, SALT, CALCIUM CHLORIDE (FIRMING AGENT), CALCIUM DISODIUM EDTA (FOR COLOR RETENTION)." Date available: 06/25/2017 Date last updated by company: 06/25/2017
