Source: USDA Branded Food Products Database Release December 2017 Software v.3.8.6.4 2017-10-02
Report Run at: December 18, 2017 21:52 EST
"Nutrient data for: 45329902, BUTTERMILK BAR, UPC: 041981081183"
Food Group:  Branded Food Products Database
Common Name:

Nutrient,Unit,Data points,Std. Error,"1 BAR = 71.0g",1Value per 100 g,
Proximates
"Energy",kcal,--,--,240,338
"Protein",g,--,--,2.60,3.66
"Total lipid (fat)",g,--,--,3.20,4.51
"Carbohydrate, by difference",g,--,--,50.00,70.42
"Fiber, total dietary",g,--,--,2.0,2.8
"Sugars, total",g,--,--,15.00,21.13
Minerals
"Calcium, Ca",mg,--,--,0,0
"Iron, Fe",mg,--,--,1.39,1.96
"Sodium, Na",mg,--,--,312,439
Vitamins
"Vitamin C, total ascorbic acid",mg,--,--,0.0,0.0
"Vitamin A, IU",IU,--,--,0,0
Lipids
"Fatty acids, total saturated",g,--,--,0.604,0.850
"Fatty acids, total trans",g,--,--,0.000,0.000
"Cholesterol",mg,--,--,13,18
Amino Acids
Other
Ingredients
"ENRICHED WHEAT FLOUR (FLOUR, IRON, NIACIN, THIAMINE, MONONITRATE, RIBOFLAVIN, FOLIC ACID), WATER, VEGETABLE OIL (MAY CONTAIN 1 OR MORE OF THE FOLLOWING: SOYBEAN OIL, COTTONSEED OIL), NONFAT MILK, DEXTROSE, EGG YOLK, SOY FLOUR, BAKING POWDER, CORN FLOUR, SALT, SUGAR, POWDERED BUTTERMILK, POTATO FLOUR, LECITHIN AND STARCH." Date available: 10/04/2017 Date last updated by company: 10/04/2017
