Source: USDA Branded Food Products Database Release December 2017 Software v.3.8.6.4 2017-10-02
Report Run at: December 18, 2017 21:53 EST
"Nutrient data for: 45293002, BUTTERMILK BISCUITS 4CT, UPC: 722515916279"
Food Group:  Branded Food Products Database
Common Name:

Nutrient,Unit,Data points,Std. Error,"1 BISCUIT = 73.0g",1Value per 100 g,
Proximates
"Energy",kcal,--,--,240,329
"Protein",g,--,--,4.00,5.48
"Total lipid (fat)",g,--,--,11.00,15.07
"Carbohydrate, by difference",g,--,--,31.00,42.47
"Fiber, total dietary",g,--,--,2.0,2.7
"Sugars, total",g,--,--,4.00,5.48
Minerals
"Calcium, Ca",mg,--,--,100,137
"Iron, Fe",mg,--,--,1.23,1.69
"Sodium, Na",mg,--,--,480,658
Vitamins
"Vitamin C, total ascorbic acid",mg,--,--,0.0,0.0
"Vitamin A, IU",IU,--,--,342,469
Lipids
"Fatty acids, total saturated",g,--,--,4.497,6.160
"Fatty acids, total trans",g,--,--,0.000,0.000
"Cholesterol",mg,--,--,0,0
Amino Acids
Other
Ingredients
"ENRICHED FLOUR (WHEAT FLOUR, MALTED BARLEY FLOUR, NIACIN, REDUCED IRON, THIAMINE MONONITRATE, RIBOFLAVIN, FOLIC ACID), BUTTERMILK (CULTURED NONFAT MILK, FOOD STARCH-MODIFIED, SALT, CARRAGEENAN, LOCUST BEAN GUM, SODIUM CITRATE, VITAMIN A PALMITATE, VITAMIN D3), MARGARINE (PALM OIL, WATER, SOYBEAN OIL, SALT, WHEY, MONO- AND DIGLYCERIDES, SOY LECITHIN, NATURAL BUTTER FLAVOR, BETA CAROTENE FOR COLOR, VITAMIN A PALMITATE), WHEAT FLOUR, WATER, DEXTROSE, BAKING POWDER (SODIUM ACID PYROPHOSPHATE, SODIUM BICARBONATE, CORN STARCH, MONOCALCIUM PHOSPHATE), SALT." Date available: 07/14/2017 Date last updated by company: 07/14/2017
