Source: USDA Branded Food Products Database Release December 2017 Software v.3.8.6.4 2017-10-02
Report Run at: December 18, 2017 22:06 EST
"Nutrient data for: 45043460, BUTTERY EXPLOSION, MOVIE THEATER EXTRA BUTTER MICROWAVE POPCORN, UPC: 075201102327"
Food Group:  Branded Food Products Database
Common Name:

Nutrient,Unit,Data points,Std. Error,"2.0 Tbsp = 30.0g",1Value per 100 g,
Proximates
"Energy",kcal,--,--,160,533
"Protein",g,--,--,3.00,10.00
"Total lipid (fat)",g,--,--,10.00,33.33
"Carbohydrate, by difference",g,--,--,17.00,56.67
"Fiber, total dietary",g,--,--,5.0,16.7
"Sugars, total",g,--,--,0.00,0.00
Minerals
"Calcium, Ca",mg,--,--,0,0
"Iron, Fe",mg,--,--,1.08,3.60
"Sodium, Na",mg,--,--,340,1133
Vitamins
"Vitamin C, total ascorbic acid",mg,--,--,1.2,4.0
"Vitamin A, IU",IU,--,--,600,2000
Lipids
"Fatty acids, total saturated",g,--,--,2.001,6.670
"Fatty acids, total trans",g,--,--,3.000,10.000
"Cholesterol",mg,--,--,0,0
Amino Acids
Other
Ingredients
"COUSIN WILLIE'S YELLOW GOURMET POPCORN, PARTIALLY HYDROGENATED SOYBEAN OIL, SALT, NATURAL AND ARTIFICIAL BUTTER FLAVORS, SOY LECITHIN AND BETA-CAROTENE." Date available: 03/22/2017 Date last updated by company: 03/22/2017
