Source: USDA Branded Food Products Database Release December 2017 Software v.3.8.6.4 2017-10-02
Report Run at: December 18, 2017 22:01 EST
"Nutrient data for: 45290956, BUTTER PECAN REDUCED FAT ICE CREAM, UPC: 03003400290"
Food Group:  Branded Food Products Database
Common Name:

Nutrient,Unit,Data points,Std. Error,"0.666 cup = 89.0g",1Value per 100 g,
Proximates
"Energy",kcal,--,--,170,191
"Protein",g,--,--,5.00,5.62
"Total lipid (fat)",g,--,--,8.00,8.99
"Carbohydrate, by difference",g,--,--,23.00,25.84
"Fiber, total dietary",g,--,--,1.0,1.1
"Sugars, total",g,--,--,6.00,6.74
Minerals
"Calcium, Ca",mg,--,--,160,180
"Iron, Fe",mg,--,--,0.00,0.00
"Sodium, Na",mg,--,--,110,124
Vitamins
"Vitamin D",IU,--,--,0,0
Lipids
"Fatty acids, total saturated",g,--,--,2.501,2.810
"Fatty acids, total monounsaturated",g,--,--,3.996,4.490
"Fatty acids, total polyunsaturated",g,--,--,1.504,1.690
"Fatty acids, total trans",g,--,--,0.000,0.000
"Cholesterol",mg,--,--,15,17
Amino Acids
Other
Ingredients
"MILKFAT AND NONFAT MILK, MALTODEXTRIN, PECANS (PECANS, COTTONSEED OIL, SALT, BUTTER), LACTITOL, CONTAINS LESS THAN 2% OF NATURAL FLAVORS, CELLULOSE GEL, MONO AND DIGLYCERIDES, CELLULOSE GUM, SUCRALOSE, CARRAGEENAN, CARAMEL COLOR, MOLASSES, VITAMIN A PALMITATE." Date available: 09/22/2017 Date last updated by company: 09/22/2017
