Source: USDA Branded Food Products Database Release December 2017 Software v.3.8.6.4 2017-10-02
Report Run at: December 18, 2017 21:52 EST
"Nutrient data for: 45314375, BUTTERMILK BAKING MIX, UPC: 041460203273"
Food Group:  Branded Food Products Database
Common Name:

Nutrient,Unit,Data points,Std. Error,"0.33 cup = 35.0g",1Value per 100 g,
Proximates
"Energy",kcal,--,--,140,400
"Protein",g,--,--,3.00,8.57
"Total lipid (fat)",g,--,--,4.00,11.43
"Carbohydrate, by difference",g,--,--,22.00,62.86
"Fiber, total dietary",g,--,--,1.0,2.9
"Sugars, total",g,--,--,2.00,5.71
Minerals
"Calcium, Ca",mg,--,--,100,286
"Iron, Fe",mg,--,--,0.51,1.47
"Sodium, Na",mg,--,--,480,1371
Vitamins
"Vitamin C, total ascorbic acid",mg,--,--,0.0,0.0
"Vitamin A, IU",IU,--,--,0,0
Lipids
"Fatty acids, total saturated",g,--,--,1.998,5.710
"Fatty acids, total trans",g,--,--,0.000,0.000
"Cholesterol",mg,--,--,0,0
Amino Acids
Other
Ingredients
"UNBLEACHED WHEAT FLOUR, PALM OIL, WHEY, SALT, BAKING SODA, SODIUM ALUMINUM PHOSPHATE (LEAVENING), SUGAR, BUTTERMILK." Date available: 07/14/2017 Date last updated by company: 07/14/2017
