Source: USDA Branded Food Products Database Release December 2017 Software v.3.8.6.4 2017-10-02
Report Run at: December 18, 2017 22:01 EST
"Nutrient data for: 45077666, BUTTERSCOTCH BAKING CHIPS, UPC: 041250001270"
Food Group:  Branded Food Products Database
Common Name:

Nutrient,Unit,Data points,Std. Error,"30.0 PIECES = 15.0g",1Value per 100 g,
Proximates
"Energy",kcal,--,--,80,533
"Protein",g,--,--,0.00,0.00
"Total lipid (fat)",g,--,--,4.00,26.67
"Carbohydrate, by difference",g,--,--,11.00,73.33
"Fiber, total dietary",g,--,--,0.0,0.0
"Sugars, total",g,--,--,11.00,73.33
Minerals
"Calcium, Ca",mg,--,--,0,0
"Iron, Fe",mg,--,--,0.00,0.00
"Sodium, Na",mg,--,--,15,100
Vitamins
"Vitamin C, total ascorbic acid",mg,--,--,0.0,0.0
"Vitamin A, IU",IU,--,--,0,0
Lipids
"Fatty acids, total saturated",g,--,--,3.499,23.330
"Fatty acids, total trans",g,--,--,0.000,0.000
"Cholesterol",mg,--,--,0,0
Amino Acids
Other
Ingredients
"SUGAR, PARTIALLY HYDROGENATED PALM KERNAL OIL, COCONUT OIL, NONFAT DRY MILK, DRY WHEY, SOY LECITHIN, YELLOW 6 LAKE, YELLOW 5, AKE, BLUE 2 LAKE, NATURAL AND ARTIFICIAL FLAVORING ADDED, AND SALT." Date available: 06/24/2017 Date last updated by company: 06/24/2017
