Source: USDA Branded Food Products Database Release December 2017 Software v.3.8.6.4 2017-10-02
Report Run at: December 18, 2017 21:48 EST
"Nutrient data for: 45238457, BUTTER CHICKEN SIMMER SAUCE, UPC: 085239305195"
Food Group:  Branded Food Products Database
Common Name:

Nutrient,Unit,Data points,Std. Error,"0.5 cup = 120.0g",1Value per 100 g,
Proximates
"Energy",kcal,--,--,140,117
"Protein",g,--,--,2.00,1.67
"Total lipid (fat)",g,--,--,9.00,7.50
"Carbohydrate, by difference",g,--,--,13.00,10.83
"Fiber, total dietary",g,--,--,2.0,1.7
"Sugars, total",g,--,--,9.00,7.50
Minerals
"Calcium, Ca",mg,--,--,40,33
"Iron, Fe",mg,--,--,0.54,0.45
"Sodium, Na",mg,--,--,680,567
Vitamins
"Vitamin C, total ascorbic acid",mg,--,--,0.6,0.5
"Vitamin A, IU",IU,--,--,374,312
Lipids
"Fatty acids, total saturated",g,--,--,5.004,4.170
"Fatty acids, total trans",g,--,--,0.000,0.000
"Cholesterol",mg,--,--,30,25
Amino Acids
Other
Ingredients
"CREAM, WATER, TOMATO PASTE, SUGAR, GARLIC, GINGER, CONTAINS 2% OR LESS OF: SPICES, SALT, BUTTER, ROASTED GARLIC, PAPRIKA, CITRUS FIBER, CITRIC ACID, TURMERIC, CARRAGEENAN, MONO- AND DIGLYCERIDES, CELLULOSE GUM, POLYSORBATE 80, SODIUM CITRATE." Date available: 07/14/2017 Date last updated by company: 07/14/2017
