Source: USDA Branded Food Products Database Release December 2017 Software v.3.8.6.4 2017-10-02
Report Run at: December 18, 2017 21:54 EST
"Nutrient data for: 45272091, BUTTERMILK PANCAKE MIX, UPC: 078716001505"
Food Group:  Branded Food Products Database
Common Name:

Nutrient,Unit,Data points,Std. Error,"0.333 cup = 50.0g",1Value per 100 g,
Proximates
"Energy",kcal,--,--,180,360
"Protein",g,--,--,5.00,10.00
"Total lipid (fat)",g,--,--,1.00,2.00
"Carbohydrate, by difference",g,--,--,36.00,72.00
"Fiber, total dietary",g,--,--,1.0,2.0
"Sugars, total",g,--,--,5.00,10.00
Minerals
"Calcium, Ca",mg,--,--,100,200
"Iron, Fe",mg,--,--,2.16,4.32
"Sodium, Na",mg,--,--,480,960
Vitamins
"Vitamin C, total ascorbic acid",mg,--,--,0.0,0.0
"Vitamin A, IU",IU,--,--,0,0
Lipids
"Fatty acids, total saturated",g,--,--,0.000,0.000
"Fatty acids, total trans",g,--,--,0.000,0.000
"Cholesterol",mg,--,--,10,20
Amino Acids
Other
Ingredients
"CAKE FLOUR (BLEACHED WHEAT FLOUR, NIACIN, REDUCED IRON, THIAMINE MONONITRATE, RIBOFLAVIN, FOLIC ACID), SUGAR, SOY FLOUR, DEXTROSE, SOYBEAN OIL, BUTTERMILK POWDER, BAKING SODA, CORN STARCH, SODIUM ACID PYROPHOSPHATE, SALT, MONOCALCIUM PHOSPHATE, WHOLE EGGS (WHOLE EGGS, SODIUM SILICOALUMINATE [AS AN ANTICAKING AGENT])." Date available: 07/14/2017 Date last updated by company: 07/14/2017
