Source: USDA Branded Food Products Database Release December 2017 Software v.3.8.6.4 2017-10-02
Report Run at: December 19, 2017 00:54 EST
"Nutrient data for: 45137518, C&C, SODA, GRAPE, UPC: 041699128149"
Food Group:  Branded Food Products Database
Common Name:

Nutrient,Unit,Data points,Std. Error,"1 CAN = 355.0g",1Value per 100 g,
Proximates
"Energy",kcal,--,--,181,51
"Protein",g,--,--,0.00,0.00
"Total lipid (fat)",g,--,--,0.00,0.00
"Carbohydrate, by difference",g,--,--,43.98,12.39
"Sugars, total",g,--,--,43.98,12.39
Minerals
"Sodium, Na",mg,--,--,36,10
Vitamins
Lipids
Amino Acids
Other
Ingredients
"CARBONATED WATER, HIGH FRUCTOSE CORN SYRUP, TARTARIC ACID, CITRIC ACID, SODIUM BENZOATE (PRESERVATIVE), ARTIFICIAL FLAVOR, RED #40, AND BLUE#1." Date available: 07/14/2017 Date last updated by company: 07/14/2017
