Source: USDA Branded Food Products Database Release December 2017 Software v.3.8.6.4 2017-10-02
Report Run at: December 18, 2017 22:19 EST
"Nutrient data for: 45239527, CAESAR DRESSING, UPC: 021130480586"
Food Group:  Branded Food Products Database
Common Name:

Nutrient,Unit,Data points,Std. Error,"2.0 Tbsp = 30.0g",1Value per 100 g,
Proximates
"Energy",kcal,--,--,120,400
"Protein",g,--,--,1.00,3.33
"Total lipid (fat)",g,--,--,12.00,40.00
"Carbohydrate, by difference",g,--,--,2.00,6.67
"Fiber, total dietary",g,--,--,0.0,0.0
"Sugars, total",g,--,--,1.00,3.33
Minerals
"Calcium, Ca",mg,--,--,40,133
"Iron, Fe",mg,--,--,0.00,0.00
"Sodium, Na",mg,--,--,300,1000
Vitamins
"Vitamin C, total ascorbic acid",mg,--,--,0.0,0.0
"Vitamin A, IU",IU,--,--,0,0
Lipids
"Fatty acids, total saturated",g,--,--,2.001,6.670
"Fatty acids, total trans",g,--,--,0.000,0.000
"Cholesterol",mg,--,--,15,50
Amino Acids
Other
Ingredients
"SOYBEAN OIL, WATER, ROMANO AND PARMESAN CHEESE (PASTEURIZED MILK, SALT, CULTURE, ENZYMES), DISTILLED VINEGAR, EGG YOLK, LESS THAN 2%: NATURAL FLAVORS, MOLASSES, TAMARIND, CORN SYRUP, SUGAR, SALT, BUTTERMILK, WHEY, SODIUM CASEINATE, LACTIC ACID, GARLIC POWDER, RED WINE VINEGAR, MODIFIED CORN STARCH, ANCHOVIES (FISH), SPICES, PHOSPHORIC ACID, LEMON JUICE CONCENTRATE, ONION POWDER, ARTIFICIAL FLAVORS, DEHYDRATED CHEDDAR CHEESE (CULTURED MILK, SALT, ENZYMES), MONOSODIUM GLUTAMATE, DISODIUM PHOSPHATE, CITRIC ACID, XANTHAN GUM, POTASSIUM SORBATE AND CALCIUM DISODIUM EDTA TO PRESERVE FLAVOR, DISODIUM INOSINATE, DISODIUM GUANYLATE, CARAMEL COLOR, PROPYLENE GLYCOL ALGINATE." Date available: 06/24/2017 Date last updated by company: 06/24/2017
