Source: USDA Branded Food Products Database Release December 2017 Software v.3.8.6.4 2017-10-02
Report Run at: December 18, 2017 22:23 EST
"Nutrient data for: 45172980, CAFE VALLEY BAKERY, CINNAMON STREUSEL LOAF CAKE, UPC: 040697600473"
Food Group:  Branded Food Products Database
Common Name:

Nutrient,Unit,Data points,Std. Error,"1 SLICE = 57.0g",1Value per 100 g,
Proximates
"Energy",kcal,--,--,230,404
"Protein",g,--,--,2.00,3.51
"Total lipid (fat)",g,--,--,10.00,17.54
"Carbohydrate, by difference",g,--,--,32.00,56.14
"Fiber, total dietary",g,--,--,1.0,1.8
"Sugars, total",g,--,--,20.00,35.09
Minerals
"Calcium, Ca",mg,--,--,20,35
"Iron, Fe",mg,--,--,1.01,1.77
"Sodium, Na",mg,--,--,135,237
Vitamins
"Vitamin C, total ascorbic acid",mg,--,--,0.0,0.0
"Vitamin A, IU",IU,--,--,70,123
Lipids
"Fatty acids, total saturated",g,--,--,2.502,4.390
"Fatty acids, total trans",g,--,--,0.000,0.000
"Cholesterol",mg,--,--,30,53
Amino Acids
Other
Ingredients
"SUGAR, ENRICHED BLEACHED WHEAT FLOUR (FLOUR, NIACIN, REDUCED IRON, THIAMINE MONONITRATE, RIBOFLAVIN, FOLIC ACID), LIQUID SOYBEAN OIL, WHOLE EGGS, WATER, CINNAMON DROPS (SUGAR, PALM OIL, CINNAMON, NON FAT DRY MILK, SOY LECITHIN), BROWN SUGAR, FOOD STARCH-MODIFIED, WHEY (MILK), CONTAINS 2% OR LESS OF EACH: SALT, CINNAMON, MARGARINE (INTERESTERIFIED SOYBEAN OIL, WATER, MONO AND DIGLYCERIDES, SOY LECITHIN, SODIUM BENZOATE, ARTIFICIAL FLAVOR, BETA CAROTENE [COLOR], VITAMIN A PALMITATE ADDED), EMULSIFIER (MONO AND DIGLYCERIDES, PROPYLENE GLYCOL ESTER OF FATTY ACIDS, SODIUM STEAROYL LACTYLATE), LEAVENING (SODIUM BICARBONATE, SODIUM ALUMINUM PHOSPHATE), VITAL WHEAT GLUTEN, SORBITAN MONOSTEARATE, SODIUM PROPIONATE AND POTASSIUM SORBATE (PRESERVATIVES), CALCIUM ACETATE, NONFAT MILK, XANTHAN GUM, GUAR GUM, NATURAL FLAVORS, COCOA POWDER, POLYSORBATE 60, EGG WHITES, SOY FLOUR." Date available: 07/14/2017 Date last updated by company: 07/14/2017
