Source: USDA Branded Food Products Database Release December 2017 Software v.3.8.6.4 2017-10-02
Report Run at: December 18, 2017 22:21 EST
"Nutrient data for: 45198014, CAFE BREAKS PUDDING, UPC: 071079056601"
Food Group:  Branded Food Products Database
Common Name:

Nutrient,Unit,Data points,Std. Error,"99.0 GRM = 99.0g",1Value per 100 g,
Proximates
"Energy",kcal,--,--,90,91
"Protein",g,--,--,1.00,1.01
"Total lipid (fat)",g,--,--,1.50,1.52
"Carbohydrate, by difference",g,--,--,18.00,18.18
"Fiber, total dietary",g,--,--,0.0,0.0
"Sugars, total",g,--,--,13.00,13.13
Minerals
"Calcium, Ca",mg,--,--,40,40
"Iron, Fe",mg,--,--,0.00,0.00
"Sodium, Na",mg,--,--,90,91
Vitamins
"Vitamin C, total ascorbic acid",mg,--,--,0.0,0.0
"Vitamin A, IU",IU,--,--,0,0
Lipids
"Fatty acids, total saturated",g,--,--,0.000,0.000
"Fatty acids, total monounsaturated",g,--,--,1.000,1.010
"Fatty acids, total polyunsaturated",g,--,--,0.000,0.000
"Fatty acids, total trans",g,--,--,0.000,0.000
"Cholesterol",mg,--,--,0,0
Amino Acids
Other
Ingredients
"NONFAT MILK, WATER, SUGAR, MODIFIED FOOD STARCH, CANOLA OIL, CONTAINS LESS THAN 1 PERCENT OF: COFFEE EXTRACT*, NATURAL AND ARTIFICIAL FLAVORS, CARAGEENAN, SALT, SODIUM STEAROYL LACTYLATE." Date available: 07/14/2017 Date last updated by company: 07/14/2017
