Source: USDA Branded Food Products Database Release December 2017 Software v.3.8.6.4 2017-10-02
Report Run at: December 18, 2017 22:22 EST
"Nutrient data for: 45037326, CAFE ESCAPES, HOT COCOA, MILK CHOCOLATE, UPC: 099555098013"
Food Group:  Branded Food Products Database
Common Name:

Nutrient,Unit,Data points,Std. Error,"1 K-CUP PACK = 15.0g",1Value per 100 g,
Proximates
"Energy",kcal,--,--,70,467
"Protein",g,--,--,1.00,6.67
"Total lipid (fat)",g,--,--,3.00,20.00
"Carbohydrate, by difference",g,--,--,10.00,66.67
"Fiber, total dietary",g,--,--,1.0,6.7
"Sugars, total",g,--,--,8.00,53.33
Minerals
"Calcium, Ca",mg,--,--,0,0
"Iron, Fe",mg,--,--,3.60,24.00
"Sodium, Na",mg,--,--,180,1200
Vitamins
"Vitamin C, total ascorbic acid",mg,--,--,0.0,0.0
"Vitamin A, IU",IU,--,--,0,0
Lipids
"Fatty acids, total saturated",g,--,--,2.501,16.670
"Fatty acids, total trans",g,--,--,0.000,0.000
"Cholesterol",mg,--,--,0,0
Amino Acids
Other
Ingredients
"SUGAR, COCONUT OIL, COCOA (PROCESSED WITH ALKALI), NONFAT DRY MILK, WHEY SOLIDS, SALT, BITTERSWEET CHOCOLATE POWDER (SUGAR, UNSWEETENED CHOCOLATE, COCOA, NATURAL VANILLA FLAVOR), CONTAINS LESS THAN 2% OF SODIUM CASEINATE, DIPOTASSIUM PHOSPHATE, MONO- AND DIGLYCERIDES, ACESULFAME POTASSIUM, NATURAL FLAVOR, SUCRALOSE." Date available: 06/24/2017 Date last updated by company: 06/24/2017
