Source: USDA Branded Food Products Database Release December 2017 Software v.3.8.6.4 2017-10-02
Report Run at: December 18, 2017 22:25 EST
"Nutrient data for: 45331030, CAFFEINE GUM, UPC: 022000027856"
Food Group:  Branded Food Products Database
Common Name:

Nutrient,Unit,Data points,Std. Error,"1 PIECE = 2.5g",1Value per 100 g,
Proximates
"Energy",kcal,--,--,5,200
"Protein",g,--,--,0.00,0.00
"Total lipid (fat)",g,--,--,0.00,0.00
"Carbohydrate, by difference",g,--,--,2.00,80.00
"Sugars, total",g,--,--,0.00,0.00
Minerals
"Sodium, Na",mg,--,--,0,0
Vitamins
Lipids
Amino Acids
Other
Ingredients
"SORBITOL, MALTITOL, GUM BASE, GLYCEROL, NATURAL AND ARTIFICIAL FLAVORS, CAFFEINE, LESS THAN 2% OF: ACACIA, SOY LECITHIN, ASPARTAME, SUCRALOSE, ACESULFAME K, BHT (TO MAINTAIN FRESHNESS), CARNAUBA WAX." Date available: 10/13/2017 Date last updated by company: 10/13/2017
