Source: USDA Branded Food Products Database Release December 2017 Software v.3.8.6.4 2017-10-02
Report Run at: December 18, 2017 22:24 EST
"Nutrient data for: 45289241, CAFFEINE-FREE ORGANIC ROOIBOS TEA, UPC: 856598003394"
Food Group:  Branded Food Products Database
Common Name:

Nutrient,Unit,Data points,Std. Error,"1 BOTTLE = 16.9g",1Value per 100 g,
Proximates
"Energy",kcal,--,--,5,28
"Protein",g,--,--,0.00,0.00
"Total lipid (fat)",g,--,--,0.00,0.00
"Carbohydrate, by difference",g,--,--,1.20,7.10
"Sugars, total",g,--,--,1.13,6.71
Minerals
"Sodium, Na",mg,--,--,0,0
Vitamins
"Vitamin C, total ascorbic acid",mg,--,--,2.6,15.3
Lipids
Amino Acids
Other
Ingredients
"FILTERED WATER, ORGANIC CANE SUGAR, ORGANIC ROOIBOS TEA EXTRACT, ORGANIC LEMON JUICE CONCENTRATE, NATURAL FLAVOR, ORGANIC ROOIBOS TEA ESSENCE, CITRIC ACID, VITAMIN C (ASCORBIC ACID)." Date available: 07/14/2017 Date last updated by company: 07/14/2017
