Source: USDA Branded Food Products Database Release December 2017 Software v.3.8.6.4 2017-10-02
Report Run at: December 18, 2017 22:26 EST
"Nutrient data for: 45005061, CAINS, DRESSING, PEPPERCORN PARMESAN, UPC: 045200084702"
Food Group:  Branded Food Products Database
Common Name:

Nutrient,Unit,Data points,Std. Error,"2.0 Tbsp = 30.0g",1Value per 100 g,
Proximates
"Energy",kcal,--,--,150,500
"Protein",g,--,--,1.00,3.33
"Total lipid (fat)",g,--,--,15.00,50.00
"Carbohydrate, by difference",g,--,--,2.00,6.67
"Fiber, total dietary",g,--,--,0.0,0.0
"Sugars, total",g,--,--,2.00,6.67
Minerals
"Calcium, Ca",mg,--,--,20,67
"Iron, Fe",mg,--,--,0.00,0.00
"Sodium, Na",mg,--,--,320,1067
Vitamins
"Vitamin C, total ascorbic acid",mg,--,--,0.0,0.0
"Vitamin A, IU",IU,--,--,0,0
Lipids
"Fatty acids, total saturated",g,--,--,2.499,8.330
"Fatty acids, total trans",g,--,--,0.000,0.000
"Cholesterol",mg,--,--,5,17
Amino Acids
Other
Ingredients
"SOYBEAN OIL, DISTILLED VINEGAR, WATER, HIGH FRUCTOSE CORN SYRUP, PARMESAN CHEESE (PASTEURIZED MILK, CULTURE, SALT, ENZYMES, CORN STARCH, AND CELLULOSE), SALT EGG YOLKS, NON FAT DRY MILK, DRIED BUTTERMILK (MILK, CULTURES), BLACK PEPPER, LACTIC ACID, MONOSODIUM GLUTAMATE, XANTHAN GUM, GARLIC, ONION, POTASSIUM SORBATE (PRESERVATIVE) AND NATURAL FLAVOR. CALCIUM DISODIUM EDTA ADDED TO PROTECT FLAVOR." Date available: 07/14/2017 Date last updated by company: 07/14/2017
