Source: USDA Branded Food Products Database Release December 2017 Software v.3.8.6.4 2017-10-02
Report Run at: December 18, 2017 22:27 EST
"Nutrient data for: 45261482, CAJETA DE LECHE CARAMEL MILK, UPC: 820202005210"
Food Group:  Branded Food Products Database
Common Name:

Nutrient,Unit,Data points,Std. Error,"2.0 ONZ = 57.0g",1Value per 100 g,
Proximates
"Energy",kcal,--,--,90,158
"Protein",g,--,--,1.00,1.75
"Total lipid (fat)",g,--,--,1.50,2.63
"Carbohydrate, by difference",g,--,--,19.00,33.33
"Fiber, total dietary",g,--,--,0.0,0.0
"Sugars, total",g,--,--,18.00,31.58
Minerals
"Calcium, Ca",mg,--,--,40,70
"Iron, Fe",mg,--,--,0.00,0.00
"Sodium, Na",mg,--,--,30,53
Vitamins
"Vitamin C, total ascorbic acid",mg,--,--,0.0,0.0
"Vitamin A, IU",IU,--,--,0,0
Lipids
"Fatty acids, total saturated",g,--,--,0.998,1.750
"Fatty acids, total trans",g,--,--,0.000,0.000
"Cholesterol",mg,--,--,5,9
Amino Acids
Other
Ingredients
"COW MILK, SUGAR, GLUCOSE, SODIUM BICARBONATE, SORBITOS, CARRAGEINE, SALT, XANTHAN GUM, SODIUM BENZOATE AND POTASSIUM SORBATE AS PRESERVE." Date available: 10/13/2017 Date last updated by company: 10/13/2017
