Source: USDA Branded Food Products Database Release December 2017 Software v.3.8.6.4 2017-10-02
Report Run at: December 18, 2017 22:31 EST
"Nutrient data for: 45139592, CAJUN STYLE TURKEY BREAST, UPC: 042222860703"
Food Group:  Branded Food Products Database
Common Name:

Nutrient,Unit,Data points,Std. Error,"2.0 ONZ = 56.0g",1Value per 100 g,
Proximates
"Energy",kcal,--,--,50,89
"Protein",g,--,--,12.00,21.43
"Total lipid (fat)",g,--,--,0.50,0.89
"Carbohydrate, by difference",g,--,--,1.00,1.79
"Fiber, total dietary",g,--,--,0.0,0.0
"Sugars, total",g,--,--,0.00,0.00
Minerals
"Calcium, Ca",mg,--,--,0,0
"Iron, Fe",mg,--,--,0.55,0.98
"Sodium, Na",mg,--,--,480,857
Vitamins
"Vitamin C, total ascorbic acid",mg,--,--,0.0,0.0
"Vitamin A, IU",IU,--,--,0,0
Lipids
"Fatty acids, total saturated",g,--,--,0.000,0.000
"Fatty acids, total trans",g,--,--,0.000,0.000
"Cholesterol",mg,--,--,25,45
Amino Acids
Other
Ingredients
"TURKEY BREAST MEAT, WATER, SEASONING (SALT, SUGAR, ONION POWDER, GARLIC POWDER, HYDROLYZED CORN PROTEIN, NATURAL FLAVORINGS, OLEORESIN PAPRIKA), CONTAINS 2% OR LESS SODIUM PHOSPHATE, SALT, SUGAR, SODIUM ACETATE, SODIUM DIACETATE, SODIUM NITRITE, SODIUM ERYTHORBATE, COATED WITH: SPICES, SALT, DEHYDRATED ONION, NATURAL SMOKE FLAVORING, DEHYDRATED GARLIC, OLEORESIN PAPRIKA, FLAVORING." Date available: 10/13/2017 Date last updated by company: 10/13/2017
