Source: USDA Branded Food Products Database Release December 2017 Software v.3.8.6.4 2017-10-02
Report Run at: December 18, 2017 22:30 EST
"Nutrient data for: 45255108, CAJUN STYLE ANDOUILLE, UPC: 764014458058"
Food Group:  Branded Food Products Database
Common Name:

Nutrient,Unit,Data points,Std. Error,"1 LINK = 85.0g",1Value per 100 g,
Proximates
"Energy",kcal,--,--,160,188
"Protein",g,--,--,15.00,17.65
"Total lipid (fat)",g,--,--,11.00,12.94
"Carbohydrate, by difference",g,--,--,1.00,1.18
"Fiber, total dietary",g,--,--,0.0,0.0
"Sugars, total",g,--,--,1.00,1.18
Minerals
"Iron, Fe",mg,--,--,0.47,0.55
"Sodium, Na",mg,--,--,690,812
Vitamins
"Vitamin A, IU",IU,--,--,129,152
Lipids
"Fatty acids, total saturated",g,--,--,4.003,4.710
"Fatty acids, total trans",g,--,--,0.000,0.000
"Cholesterol",mg,--,--,50,59
Amino Acids
Other
Ingredients
"PORK, WATER, SALT, GARLIC SPICES INCLUDE WHITE PEPPER, RED PEPPER AND BLACK PEPPER SUGAR, PAPRIKA, CELERY POWDER AND DEHYDRATED ONION." Date available: 10/12/2017 Date last updated by company: 10/12/2017
