Source: USDA Branded Food Products Database Release December 2017 Software v.3.8.6.4 2017-10-02
Report Run at: December 18, 2017 22:29 EST
"Nutrient data for: 45208855, CAJUN SEASONING, UPC: 011110018519"
Food Group:  Branded Food Products Database
Common Name:

Nutrient,Unit,Data points,Std. Error,"0.25 tsp = 1.0g",1Value per 100 g,
Proximates
"Energy",kcal,--,--,0,0
"Protein",g,--,--,0.00,0.00
"Total lipid (fat)",g,--,--,0.00,0.00
"Carbohydrate, by difference",g,--,--,0.00,0.00
Minerals
"Sodium, Na",mg,--,--,270,27000
Vitamins
Lipids
Amino Acids
Other
Ingredients
"SALT, SPICES (INCLUDING CHILI AND RED PEPPER), MALTODEXTRIN, GARLIC*, ONION*, SILICON DIOXIDE (ANTICAKING AGENT), OLEORESIN PAPRIKA (FOR COLOR), NATURAL FLAVOR." Date available: 07/14/2017 Date last updated by company: 07/14/2017
