Source: USDA Branded Food Products Database Release December 2017 Software v.3.8.6.4 2017-10-02
Report Run at: December 18, 2017 22:34 EST
"Nutrient data for: 45060511, CAKE MATE, SPRINKLES DECOR, CHOCOLATE, UPC: 05205518"
Food Group:  Branded Food Products Database
Common Name:

Nutrient,Unit,Data points,Std. Error,"1 tsp = 4.0g",1Value per 100 g,
Proximates
"Energy",kcal,--,--,20,500
"Protein",g,--,--,0.00,0.00
"Total lipid (fat)",g,--,--,1.00,25.00
"Carbohydrate, by difference",g,--,--,3.00,75.00
"Sugars, total",g,--,--,2.00,50.00
Minerals
"Sodium, Na",mg,--,--,0,0
Vitamins
Lipids
Amino Acids
Other
Ingredients
"SUGAR, PARTIALLY HYDROGENATED VEGETABLE OIL (COTTONSEED, SOYBEAN), CORNSTARCH, COCOA PROCESSED WITH ALKALI, DEXTRIN, CARNAUBA WAX, CONFECTIONER'S GLAZE, SOY LECITHIN. NATURAL AND ARTIFICIAL FLAVOR" Date available: 09/20/2017 Date last updated by company: 09/20/2017
