Source: USDA Branded Food Products Database Release December 2017 Software v.3.8.6.4 2017-10-02
Report Run at: December 18, 2017 22:34 EST
"Nutrient data for: 45093195, CAKE MIX, UPC: 058336175015"
Food Group:  Branded Food Products Database
Common Name:

Nutrient,Unit,Data points,Std. Error,"2.0 Tbsp = 36.0g",1Value per 100 g,
Proximates
"Energy",kcal,--,--,130,361
"Protein",g,--,--,2.00,5.56
"Total lipid (fat)",g,--,--,0.00,0.00
"Carbohydrate, by difference",g,--,--,31.00,86.11
"Fiber, total dietary",g,--,--,1.0,2.8
"Sugars, total",g,--,--,16.00,44.44
Minerals
"Calcium, Ca",mg,--,--,0,0
"Iron, Fe",mg,--,--,0.80,2.22
"Sodium, Na",mg,--,--,270,750
Vitamins
"Vitamin C, total ascorbic acid",mg,--,--,1.3,3.7
"Vitamin A, IU",IU,--,--,0,0
Lipids
"Fatty acids, total saturated",g,--,--,0.000,0.000
"Fatty acids, total trans",g,--,--,0.000,0.000
"Cholesterol",mg,--,--,0,0
Amino Acids
Other
Ingredients
"ORGANIC SUGAR, ORGANIC WHEAT FLOUR, BAKING SODA, CREAM OF TARTAR, ORGANIC VANILLA FLAVOR, SEA SALT, ORGANIC GUM BLEND (ORGANIC GUAR GUM AND LOCUST BEAN GUMS)." Date available: 06/25/2017 Date last updated by company: 06/25/2017
