Source: USDA Branded Food Products Database Release December 2017 Software v.3.8.6.4 2017-10-02
Report Run at: December 18, 2017 22:31 EST
"Nutrient data for: 45270463, CAKE BARS, UPC: 021908440637"
Food Group:  Branded Food Products Database
Common Name:

Nutrient,Unit,Data points,Std. Error,"1 BAR = 45.0g",1Value per 100 g,
Proximates
"Energy",kcal,--,--,190,422
"Protein",g,--,--,4.00,8.89
"Total lipid (fat)",g,--,--,7.00,15.56
"Carbohydrate, by difference",g,--,--,27.00,60.00
"Fiber, total dietary",g,--,--,4.0,8.9
"Sugars, total",g,--,--,20.00,44.44
Minerals
"Calcium, Ca",mg,--,--,40,89
"Iron, Fe",mg,--,--,0.64,1.42
"Sodium, Na",mg,--,--,5,11
Vitamins
"Vitamin C, total ascorbic acid",mg,--,--,8.0,17.8
"Vitamin A, IU",IU,--,--,0,0
Lipids
"Fatty acids, total saturated",g,--,--,0.500,1.110
"Fatty acids, total monounsaturated",g,--,--,4.000,8.890
"Fatty acids, total polyunsaturated",g,--,--,1.998,4.440
"Fatty acids, total trans",g,--,--,0.000,0.000
"Cholesterol",mg,--,--,0,0
Amino Acids
Other
Ingredients
"DATES, ALMONDS, DRIED PINEAPPLE." Date available: 07/14/2017 Date last updated by company: 07/14/2017
