Source: USDA Branded Food Products Database Release December 2017 Software v.3.8.6.4 2017-10-02
Report Run at: December 18, 2017 22:37 EST
"Nutrient data for: 45316740, CAKE, UPC: 072714003912"
Food Group:  Branded Food Products Database
Common Name:

Nutrient,Unit,Data points,Std. Error,"0.125 CAKE = 64.0g",1Value per 100 g,
Proximates
"Energy",kcal,--,--,230,359
"Protein",g,--,--,2.00,3.12
"Total lipid (fat)",g,--,--,11.00,17.19
"Carbohydrate, by difference",g,--,--,29.00,45.31
"Fiber, total dietary",g,--,--,0.0,0.0
"Sugars, total",g,--,--,20.00,31.25
Minerals
"Calcium, Ca",mg,--,--,20,31
"Iron, Fe",mg,--,--,1.13,1.76
"Sodium, Na",mg,--,--,210,328
Vitamins
"Vitamin C, total ascorbic acid",mg,--,--,0.0,0.0
"Vitamin A, IU",IU,--,--,0,0
Lipids
"Fatty acids, total saturated",g,--,--,6.003,9.380
"Fatty acids, total trans",g,--,--,0.000,0.000
"Cholesterol",mg,--,--,20,31
Amino Acids
Other
Ingredients
"SUGAR, WATER, ENRICHED WHEAT FLOUR (WHEAT FLOUR, NIACIN, REDUCED IRON, THIAMINE MONONITRATE, RIBOFLAVIN, FOLIC ACID), SOYBEAN OIL, LIQUID WHOLE EGGS, HYDROGENATED COCONUT OIL, CORN SYRUP SOLIDS. CONTAINS 2% OR LESS OF AGAR, CITRUS FIBER, DEXTROSE, GLYCERIN, GROUND FLAXSEED, LEAVENING (SODIUM ACID PYROPHOSPHATE, SODIUM BICARBONATE, MONOCALCIUM PHOSPHATE), MILK CHOCOLATE CURLS [SUGAR, CHOCOLATE LIQUOR, COCOA BUTTER, WHOLE MILK POWDER, NONFAT DRY MILK, SOY LECITHIN (ADDED AS AN EMULSIFIER), NATURAL VANILLA FLAVOR], MONO- AND DIGLYCERIDES, NATURAL FLAVOR, NONFAT DRY MILK, RICE STARCH, SALT." Date available: 07/14/2017 Date last updated by company: 07/14/2017
