Source: USDA Branded Food Products Database Release December 2017 Software v.3.8.6.4 2017-10-02
Report Run at: December 18, 2017 22:31 EST
"Nutrient data for: 45272445, CAKE AND COOKIE INSPIRED CHOCOLATES, UPC: 031290114917"
Food Group:  Branded Food Products Database
Common Name:

Nutrient,Unit,Data points,Std. Error,"3.0 PIECES = 38.0g",1Value per 100 g,
Proximates
"Energy",kcal,--,--,190,500
"Protein",g,--,--,2.00,5.26
"Total lipid (fat)",g,--,--,12.00,31.58
"Carbohydrate, by difference",g,--,--,20.00,52.63
"Fiber, total dietary",g,--,--,1.0,2.6
"Sugars, total",g,--,--,16.00,42.11
Minerals
"Calcium, Ca",mg,--,--,40,105
"Iron, Fe",mg,--,--,1.90,4.99
"Sodium, Na",mg,--,--,40,105
Vitamins
"Vitamin C, total ascorbic acid",mg,--,--,0.0,0.0
"Vitamin A, IU",IU,--,--,131,346
Lipids
"Fatty acids, total saturated",g,--,--,7.999,21.050
"Fatty acids, total trans",g,--,--,0.000,0.000
"Cholesterol",mg,--,--,10,26
Amino Acids
Other
Ingredients
"SUGAR, COCOA BUTTER, UNSWEETENED CHOCOLATE PROCESSED WITH ALKALI, MILK POWDER, HEAVY CREAM, BUTTER (UNSALTED), CORN SYRUP, UNSWEETENED CHOCOLATE, SORBITOL, SWEETENED CONDENSED MILK, HIGH FRUCTOSE CORN SYRUP, SKIM MILK POWDER, SKIM MILK, BREAKFAST COCOA, BUTTER OIL (MILK), BROWN SUGAR, VEGETABLE OIL (PALM KERNEL), VEGETABLE OIL (PALM), XYLITOL, HYDROGENATED PALM KERNEL OIL, EMULSIFIER (SOY LECITHIN), GLYCERIN, NATURAL FLAVOR, VEGETABLE OIL (SOYBEAN/COTTONSEED), NATURAL & ARTIFICIAL FLAVOR, SALT, RED 40 ALUMINUM LAKE, WATER, INVERTASE, CORN STARCH, VINEGAR, NATURAL FLAVOR (SOY), DEXTROSE (CORN), CONFECTIONER'S GLAZE, RED 40, RED 3, YELLOW 5, YELLOW 6, BLUE 1, CARNAUBA WAX." Date available: 07/14/2017 Date last updated by company: 07/14/2017
