Source: USDA Branded Food Products Database Release December 2017 Software v.3.8.6.4 2017-10-02
Report Run at: December 18, 2017 22:38 EST
"Nutrient data for: 45261077, CALABRESE SALAME, UPC: 021130111718"
Food Group:  Branded Food Products Database
Common Name:

Nutrient,Unit,Data points,Std. Error,"1 CALZONE = 235.0g",1Value per 100 g,
Proximates
"Energy",kcal,--,--,630,268
"Protein",g,--,--,31.00,13.19
"Total lipid (fat)",g,--,--,30.01,12.77
"Carbohydrate, by difference",g,--,--,61.99,26.38
"Fiber, total dietary",g,--,--,3.1,1.3
"Sugars, total",g,--,--,5.99,2.55
Minerals
"Calcium, Ca",mg,--,--,350,149
"Iron, Fe",mg,--,--,9.66,4.11
"Sodium, Na",mg,--,--,1760,749
Vitamins
"Vitamin C, total ascorbic acid",mg,--,--,1.4,0.6
"Vitamin A, IU",IU,--,--,298,127
Lipids
"Fatty acids, total saturated",g,--,--,10.011,4.260
"Fatty acids, total trans",g,--,--,0.000,0.000
"Cholesterol",mg,--,--,85,36
Amino Acids
Other
Ingredients
"ENRICHED WHEAT FLOUR (WHEAT FLOUR, MALTED BARLEY FLOUR, NIACIN, REDUCED IRON, THIAMINE MONONITRATE [VITAMIN B1], RIBOFLAVIN [VITAMIN B2], FOLIC ACID), CALABRESE SALAME (PORK, SALT, NONFAT DRY MILK, SUGAR, CORN SYRUP, WINE, RED PEPPER, SPICES, CHILI PEPPER, GARLIC, LACTIC ACID STARTER CULTURE, SODIUM NITRITE, SODIUM NITRATE), WATER, SHREDDED MOZZARELLA (PASTEURIZED PART-SKIM MILK, CHEESE CULTURES, SALT, ENZYMES), TOMATO PASTE, BASIL PESTO (CANOLA OIL, BASIL, PARMESAN CHEESE [PASTEURIZED PART-SKIM COWS MILK, CHEESE CULTURE, SALT, ENZYMES], GARLIC, WATER, RICE VINEGAR, SALT, BLACK PEPPER), ASIAGO CHEESE (PASTEURIZED PART-SKIM MILK, CHEESE CULTURE, SALT, ENZYMES, FLOW AGENT [LESS THAN 2% MICROCELLULOSE CRYSTALLINE ADDED TO PREVENT CAKING]), SHREDDED CHEDDAR CHEESE (PASTEURIZED MILK, CHEESE CULTURE, SALT, ENZYMES, ANNATTO COLOR), SUGAR, GARLIC, SALT, YEAST, POTASSIUM SORBATE AND CALCIUM PROPIONATE (PRESERAVTIVES), OREGANO, RED CHILI PEPPER, CAYENNE PEPPER, CANOLA OIL." Date available: 09/28/2017 Date last updated by company: 09/28/2017
