Source: USDA Branded Food Products Database Release December 2017 Software v.3.8.6.4 2017-10-02
Report Run at: December 18, 2017 22:39 EST
"Nutrient data for: 45199863, CALCOTS SAUCE, UPC: 649192030046"
Food Group:  Branded Food Products Database
Common Name:

Nutrient,Unit,Data points,Std. Error,"2.0 Tbsp = 30.0g",1Value per 100 g,
Proximates
"Energy",kcal,--,--,137,456
"Protein",g,--,--,0.90,3.00
"Total lipid (fat)",g,--,--,13.80,46.00
"Carbohydrate, by difference",g,--,--,2.20,7.33
"Fiber, total dietary",g,--,--,0.6,2.0
"Sugars, total",g,--,--,1.00,3.33
Minerals
"Calcium, Ca",mg,--,--,13,43
"Iron, Fe",mg,--,--,1.37,4.57
"Sodium, Na",mg,--,--,138,460
Vitamins
"Vitamin C, total ascorbic acid",mg,--,--,2.8,9.3
"Vitamin A, IU",IU,--,--,550,1832
Lipids
"Fatty acids, total saturated",g,--,--,1.701,5.670
"Fatty acids, total trans",g,--,--,0.000,0.000
"Cholesterol",mg,--,--,1,3
Amino Acids
Other
Ingredients
"TOMATO, OLIVE OIL, SUNFLOWER OIL, WATER, TOASTED ALMONDS, WINE VINEGAR, SPICES, SALT, GARLIC AND STABILIZER: XANTHAN GUM." Date available: 07/14/2017 Date last updated by company: 07/14/2017
