Source: USDA Branded Food Products Database Release December 2017 Software v.3.8.6.4 2017-10-02
Report Run at: December 18, 2017 22:39 EST
"Nutrient data for: 45112438, CALCIUM FORTIFIED ENRICHED BREAD, UPC: 072250011372"
Food Group:  Branded Food Products Database
Common Name:

Nutrient,Unit,Data points,Std. Error,"2.0 SLICES = 57.0g",1Value per 100 g,
Proximates
"Energy",kcal,--,--,140,246
"Protein",g,--,--,4.00,7.02
"Total lipid (fat)",g,--,--,1.50,2.63
"Carbohydrate, by difference",g,--,--,29.00,50.88
"Fiber, total dietary",g,--,--,2.0,3.5
"Sugars, total",g,--,--,5.00,8.77
Minerals
"Calcium, Ca",mg,--,--,350,614
"Iron, Fe",mg,--,--,2.37,4.16
"Sodium, Na",mg,--,--,180,316
Vitamins
"Vitamin C, total ascorbic acid",mg,--,--,1.0,1.8
"Thiamin",mg,--,--,0.570,1.000
"Riboflavin",mg,--,--,0.223,0.392
"Niacin",mg,--,--,1.754,3.077
"Vitamin A, IU",IU,--,--,0,0
"Vitamin D",IU,--,--,140,246
Lipids
"Fatty acids, total saturated",g,--,--,0.000,0.000
"Fatty acids, total monounsaturated",g,--,--,0.000,0.000
"Fatty acids, total polyunsaturated",g,--,--,0.502,0.880
"Fatty acids, total trans",g,--,--,0.000,0.000
"Cholesterol",mg,--,--,0,0
Amino Acids
Other
Ingredients
"UNBLEACHED ENRICHED FLOUR (WHEAT FLOUR, MALTED BARLEY FLOUR, NIACIN, REDUCED IRON, THIAMIN MONONITRATE, RIBOFLAVIN, FOLIC ACID), WATER, HIGH FRUCTOSE CORN SYRUP, YEAST, CONTAINS 2% OR LESS OF EACH OF THE FOLLOWING: CALCIUM CARBONATE, SOYBEAN OIL, WHEAT GLUTEN, SALT, DOUGH CONDITIONERS (CONTAINS ONE OR MORE OF THE FOLLOWING: SODIUM STEAROYL LACTYLATE, CALCIUM STEAROYL LACTYLATE, MONOGLYCERIDES, MONO-AND DIGLYCERIDES, DISTILLED MONOGLYCERIDES, CALCIUM PEROXIDE, CALCIUM IODATE, DATEM, ETHOXYLATED MONO-AND DIGLYCERIDES, ENZYMES, ASCORBIC ACID), VINEGAR, MONOCALCIUM PHOSPHATE, YEAST EXTRACT, MODIFIED CORN STARCH, SUCROSE, SUGAR, SOY LECITHIN, CHOLECALCIFEROL (VITAMIN D3), SOY FLOUR, AMMONIUM SULFATE, CALCIUM SULFATE, CALCIUM PROPIONATE (TO RETARD SPOILAGE)." Date available: 07/14/2017 Date last updated by company: 07/14/2017
