Source: USDA Branded Food Products Database Release December 2017 Software v.3.8.6.4 2017-10-02
Report Run at: December 18, 2017 22:51 EST
"Nutrient data for: 45315732, CALIFORNIA STYLE BARBECUE SAUCE, UPC: 081867800033"
Food Group:  Branded Food Products Database
Common Name:

Nutrient,Unit,Data points,Std. Error,"2.0 Tbsp = 34.0g",1Value per 100 g,
Proximates
"Energy",kcal,--,--,50,147
"Protein",g,--,--,1.00,2.94
"Total lipid (fat)",g,--,--,1.50,4.41
"Carbohydrate, by difference",g,--,--,9.00,26.47
"Fiber, total dietary",g,--,--,1.0,2.9
"Sugars, total",g,--,--,6.00,17.65
Minerals
"Calcium, Ca",mg,--,--,20,59
"Iron, Fe",mg,--,--,1.22,3.58
"Sodium, Na",mg,--,--,390,1147
Vitamins
"Vitamin C, total ascorbic acid",mg,--,--,4.0,11.9
"Vitamin A, IU",IU,--,--,338,994
Lipids
"Fatty acids, total saturated",g,--,--,0.000,0.000
"Fatty acids, total trans",g,--,--,0.000,0.000
"Cholesterol",mg,--,--,0,0
Amino Acids
Other
Ingredients
"TOMATO PUREE (TOMATO PASTE, WATER, CITRIC ACID), WATER, BROWN SUGAR, WHEAT FREE TAMARI SOY SAUCE (WATER, SOYBEANS, SALT, ALCOHOL), CORN SYRUP, WORCESTERSHIRE SAUCE (DISTILLED VINEGAR, CORN SYRUP, WATER, SALT, GARLIC POWDER, SPICES, TAMARIND, NATURAL FLAVOR), SPICES, EXPELLER PRESSED CANOLA OIL, WHITE DISTILLED VINEGAR, GARLIC (GARLIC, CITRIC ACID), CABERNET SAUVIGNON WINE (GRAPES & SULFITES), NATURAL HICKORY LIQUID SMOKE (WATER, NATURAL HICKORY SMOKE FLAVOR), SALT, ONION (ONION, CITRIC ACID), CORN STARCH, LEMON JUICE CONCENTRATE, XANTHAN GUM (A NATURAL GUM TO HOLD EMULSION)." Date available: 07/14/2017 Date last updated by company: 07/14/2017
