Source: USDA Branded Food Products Database Release December 2017 Software v.3.8.6.4 2017-10-02
Report Run at: December 18, 2017 22:41 EST
"Nutrient data for: 45169229, CALIFIA FARMS, MATCHA ALMOND MILK WITH CEREMONIAL GREEN TEA, UPC: 813636020294"
Food Group:  Branded Food Products Database
Common Name:

Nutrient,Unit,Data points,Std. Error,"10.5 OZA = 310.0g",1Value per 100 g,
Proximates
"Energy",kcal,--,--,90,29
"Protein",g,--,--,2.02,0.65
"Total lipid (fat)",g,--,--,3.50,1.13
"Carbohydrate, by difference",g,--,--,12.00,3.87
"Fiber, total dietary",g,--,--,0.9,0.3
"Sugars, total",g,--,--,10.01,3.23
Minerals
"Calcium, Ca",mg,--,--,499,161
"Iron, Fe",mg,--,--,0.56,0.18
"Sodium, Na",mg,--,--,220,71
Vitamins
"Vitamin C, total ascorbic acid",mg,--,--,0.0,0.0
"Vitamin A, IU",IU,--,--,0,0
Lipids
"Fatty acids, total saturated",g,--,--,0.000,0.000
"Fatty acids, total trans",g,--,--,0.000,0.000
"Cholesterol",mg,--,--,0,0
Amino Acids
Other
Ingredients
"MATCHA GREEN TEA (WATER, CEREMONIAL GREEN TEA) ALMONDMILK (WATER, CALIFORNIA ALMONDS) MAPLE SYRUP, LESS THAN 2% OF THE FOLLOWING: GREEN TEA EXTRACT, CALCIUM CARBONATE, NATURAL FLAVORS, SEA SALT, SUNFLOWER LECITHIN, POTASSIUM CITRATE, LOCUST BEAN GUM, GELLAN GUM." Date available: 10/13/2017 Date last updated by company: 10/13/2017
