Source: USDA Branded Food Products Database Release December 2017 Software v.3.8.6.4 2017-10-02
Report Run at: December 18, 2017 22:43 EST
"Nutrient data for: 45279891, CALIFORNIA BLEND, UPC: 035826059161"
Food Group:  Branded Food Products Database
Common Name:

Nutrient,Unit,Data points,Std. Error,"1 cup = 95.0g",1Value per 100 g,
Proximates
"Energy",kcal,--,--,30,32
"Protein",g,--,--,1.00,1.05
"Total lipid (fat)",g,--,--,0.00,0.00
"Carbohydrate, by difference",g,--,--,5.00,5.26
"Fiber, total dietary",g,--,--,2.0,2.1
"Sugars, total",g,--,--,3.00,3.16
Minerals
"Calcium, Ca",mg,--,--,20,21
"Iron, Fe",mg,--,--,0.00,0.00
"Sodium, Na",mg,--,--,0,0
Vitamins
"Vitamin C, total ascorbic acid",mg,--,--,21.5,22.6
"Vitamin A, IU",IU,--,--,671,706
Lipids
"Fatty acids, total saturated",g,--,--,0.000,0.000
"Fatty acids, total trans",g,--,--,0.000,0.000
"Cholesterol",mg,--,--,0,0
Amino Acids
Other
Ingredients
"BROCCOLI, CAULIFLOWER, CARROTS." Date available: 07/14/2017 Date last updated by company: 07/14/2017
