Source: USDA Branded Food Products Database Release December 2017 Software v.3.8.6.4 2017-10-02
Report Run at: December 18, 2017 22:46 EST
"Nutrient data for: 45159706, CALIFORNIA GOLD, PRUNE JUICE, UPC: 898886113163"
Food Group:  Branded Food Products Database
Common Name:

Nutrient,Unit,Data points,Std. Error,"8.0 fl oz = 240.0g",1Value per 100 g,
Proximates
"Energy",kcal,--,--,180,75
"Protein",g,--,--,3.00,1.25
"Total lipid (fat)",g,--,--,0.00,0.00
"Carbohydrate, by difference",g,--,--,42.00,17.50
"Fiber, total dietary",g,--,--,2.9,1.2
"Sugars, total",g,--,--,25.01,10.42
Minerals
"Calcium, Ca",mg,--,--,19,8
"Iron, Fe",mg,--,--,0.72,0.30
"Potassium, K",mg,--,--,430,179
"Sodium, Na",mg,--,--,50,21
Vitamins
"Vitamin C, total ascorbic acid",mg,--,--,0.0,0.0
"Vitamin A, IU",IU,--,--,199,83
Lipids
"Fatty acids, total saturated",g,--,--,0.000,0.000
"Fatty acids, total trans",g,--,--,0.000,0.000
"Cholesterol",mg,--,--,0,0
Amino Acids
Other
Ingredients
"PRUNE JUICE" Date available: 09/28/2016 Date last updated by company: 09/28/2016
