Source: USDA Branded Food Products Database Release December 2017 Software v.3.8.6.4 2017-10-02
Report Run at: December 18, 2017 22:54 EST
"Nutrient data for: 45045712, CALISE BAKERY, SPILT SUB ROLLS, UPC: 075199001411"
Food Group:  Branded Food Products Database
Common Name:

Nutrient,Unit,Data points,Std. Error,"1 ROLL = 71.0g",1Value per 100 g,
Proximates
"Energy",kcal,--,--,190,268
"Protein",g,--,--,7.00,9.86
"Total lipid (fat)",g,--,--,1.50,2.11
"Carbohydrate, by difference",g,--,--,36.00,50.70
"Fiber, total dietary",g,--,--,1.0,1.4
"Sugars, total",g,--,--,2.00,2.82
Minerals
"Calcium, Ca",mg,--,--,80,113
"Iron, Fe",mg,--,--,1.90,2.68
"Sodium, Na",mg,--,--,370,521
Vitamins
"Vitamin C, total ascorbic acid",mg,--,--,0.0,0.0
"Vitamin A, IU",IU,--,--,0,0
"Vitamin D",IU,--,--,8,11
Lipids
"Fatty acids, total saturated",g,--,--,0.000,0.000
"Fatty acids, total trans",g,--,--,0.000,0.000
"Cholesterol",mg,--,--,0,0
Amino Acids
Other
Ingredients
"ENRICHED FLOUR (WHEAT FLOUR UNBLEACHED, MALTED BARLEY FLOUR, NIACIN, REDUCED IRON, THIAMINE MONONITRATE, RIBOFLAVIN, FOLIC ACID), WATER, WHEAT GLUTEN, CONTAINS LESS THAN 2% OF: CALCIUM PROPIONATE (TO RETAIN FRESHNESS), DISTILLED MONOGLYCERIDES (ALL VEGETABLE ORIGIN), ASCORBIC ACID, ENZYMES, CALCIUM SULFATE, SALT, SOYBEAN OIL, SUGAR, YEAST." Date available: 06/24/2017 Date last updated by company: 06/24/2017
