Source: USDA Branded Food Products Database Release December 2017 Software v.3.8.6.4 2017-10-02
Report Run at: December 18, 2017 22:46 EST
"Nutrient data for: 45027246, CALIFORNIA GIRL, QUARTERED & MARINATED ARTICHOKE HEARTS, UPC: 052391100609"
Food Group:  Branded Food Products Database
Common Name:

Nutrient,Unit,Data points,Std. Error,"1 ONZ = 28.0g",1Value per 100 g,
Proximates
"Energy",kcal,--,--,20,71
"Protein",g,--,--,0.00,0.00
"Total lipid (fat)",g,--,--,1.00,3.57
"Carbohydrate, by difference",g,--,--,3.00,10.71
"Fiber, total dietary",g,--,--,2.0,7.1
"Sugars, total",g,--,--,0.00,0.00
Minerals
"Calcium, Ca",mg,--,--,10,36
"Iron, Fe",mg,--,--,1.67,5.97
"Sodium, Na",mg,--,--,80,286
Vitamins
"Vitamin C, total ascorbic acid",mg,--,--,16.7,59.7
"Vitamin A, IU",IU,--,--,232,829
Lipids
"Fatty acids, total saturated",g,--,--,0.000,0.000
"Fatty acids, total trans",g,--,--,0.000,0.000
"Cholesterol",mg,--,--,0,0
Amino Acids
Other
Ingredients
"QUARTERED ARTICHOKE HEARTS. WATER, VEGETABLE OIL (SOYBEAN AND/OR SUNFLOWER OIL), VINEGAR, SALT, SPICES, CITRIC AND ASCORBIC ACID (TO PRESERVE COLOR)" Date available: 06/25/2017 Date last updated by company: 06/25/2017
