Source: USDA Branded Food Products Database Release December 2017 Software v.3.8.6.4 2017-10-02
Report Run at: December 18, 2017 22:52 EST
"Nutrient data for: 45044908, CALIFORNIA SUN-DRY, SOUTHWESTERN-STYLE SUN-DRIED TOMATOES HALVES WITH SPICE, UPC: 738203118115"
Food Group:  Branded Food Products Database
Common Name:

Nutrient,Unit,Data points,Std. Error,"0.5 ONZ = 14.0g",1Value per 100 g,
Proximates
"Energy",kcal,--,--,30,214
"Protein",g,--,--,1.00,7.14
"Total lipid (fat)",g,--,--,0.00,0.00
"Carbohydrate, by difference",g,--,--,6.00,42.86
"Fiber, total dietary",g,--,--,2.0,14.3
"Sugars, total",g,--,--,4.00,28.57
Minerals
"Calcium, Ca",mg,--,--,0,0
"Iron, Fe",mg,--,--,1.80,12.86
"Sodium, Na",mg,--,--,160,1143
Vitamins
"Vitamin C, total ascorbic acid",mg,--,--,6.0,42.9
"Vitamin A, IU",IU,--,--,1000,7143
Lipids
"Fatty acids, total saturated",g,--,--,0.000,0.000
"Fatty acids, total trans",g,--,--,0.000,0.000
"Cholesterol",mg,--,--,0,0
Amino Acids
Other
Ingredients
"SUN-DRIED TOMATO HALVES, ONION, GARLIC, SPICES, CHILI PEPPER, SALT, CITRIC ACID, AND SULPHUR DIOXIDE (TO RETAIN COLOR)." Date available: 07/14/2017 Date last updated by company: 07/14/2017
