Source: USDA Branded Food Products Database Release December 2017 Software v.3.8.6.4 2017-10-02
Report Run at: December 18, 2017 22:42 EST
"Nutrient data for: 45288394, CALIFOPRNIA EXTRA VIRGIN AVOCADO OIL, UPC: 856769006087"
Food Group:  Branded Food Products Database
Common Name:

Nutrient,Unit,Data points,Std. Error,"1 Tbsp = 14.0g",1Value per 100 g,
Proximates
"Energy",kcal,--,--,124,886
"Total lipid (fat)",g,--,--,14.00,100.00
Minerals
"Sodium, Na",mg,--,--,0,0
Vitamins
Lipids
"Fatty acids, total saturated",g,--,--,2.001,14.290
"Fatty acids, total monounsaturated",g,--,--,10.000,71.430
"Cholesterol",mg,--,--,0,0
Amino Acids
Other
Ingredients
"100% PURE AVOCADO OIL" Date available: 09/22/2017 Date last updated by company: 09/22/2017
