Source: USDA Branded Food Products Database Release December 2017 Software v.3.8.6.4 2017-10-02
Report Run at: December 18, 2017 22:43 EST
"Nutrient data for: 45324161, CALIFORNIA COASTAL BLUE CHEESE, UPC: 741563865421"
Food Group:  Branded Food Products Database
Common Name:

Nutrient,Unit,Data points,Std. Error,"1 ONZ = 28.0g",1Value per 100 g,
Proximates
"Energy",kcal,--,--,101,361
"Protein",g,--,--,6.00,21.43
"Total lipid (fat)",g,--,--,8.00,28.57
"Carbohydrate, by difference",g,--,--,2.00,7.14
"Fiber, total dietary",g,--,--,0.0,0.0
"Sugars, total",g,--,--,0.00,0.00
Minerals
"Calcium, Ca",mg,--,--,130,464
"Iron, Fe",mg,--,--,0.00,0.00
"Sodium, Na",mg,--,--,218,779
Vitamins
"Vitamin C, total ascorbic acid",mg,--,--,0.0,0.0
"Vitamin A, IU",IU,--,--,357,1275
Lipids
"Fatty acids, total saturated",g,--,--,5.001,17.860
"Fatty acids, total trans",g,--,--,0.000,0.000
"Cholesterol",mg,--,--,27,96
Amino Acids
Other
Ingredients
"PASTEURIZED CULTURED COW'S MILK (MILK), SALT, ENZYMES, PENICILLIUM ROQUEFORTI." Date available: 08/11/2017 Date last updated by company: 08/11/2017
