Source: USDA Branded Food Products Database Release December 2017 Software v.3.8.6.4 2017-10-02
Report Run at: December 18, 2017 22:54 EST
"Nutrient data for: 45237265, CALM CHAMOMILE AND VANILLA, CARBONATED TEA, UPC: 854322005010"
Food Group:  Branded Food Products Database
Common Name:

Nutrient,Unit,Data points,Std. Error,"1 BOTTLE = 355.0g",1Value per 100 g,
Proximates
"Energy",kcal,--,--,0,0
"Protein",g,--,--,0.00,0.00
"Total lipid (fat)",g,--,--,0.00,0.00
"Carbohydrate, by difference",g,--,--,0.00,0.00
Minerals
"Sodium, Na",mg,--,--,11,3
Vitamins
Lipids
Amino Acids
Other
Ingredients
"FILTERED SPARKLING WATER, INFUSED BOTANICAL BLEND (ORGANIC CHAMOMILE, ORGANIC ELDER FLOWER, ORGANIC YARROW, ORGANIC LAVENDER), NATURAL FLAVORS, MALIC ACID" Date available: 06/24/2017 Date last updated by company: 06/24/2017
