Source: USDA Branded Food Products Database Release December 2017 Software v.3.8.6.4 2017-10-02
Report Run at: December 18, 2017 22:55 EST
"Nutrient data for: 45144022, CALPICO, NON CARBONATED SOFT DRINK, LYCHEE, UPC: 075545006268"
Food Group:  Branded Food Products Database
Common Name:

Nutrient,Unit,Data points,Std. Error,"8.0 OZA = 240.0g",1Value per 100 g,
Proximates
"Energy",kcal,--,--,110,46
"Protein",g,--,--,1.01,0.42
"Total lipid (fat)",g,--,--,0.00,0.00
"Carbohydrate, by difference",g,--,--,27.00,11.25
"Sugars, total",g,--,--,25.99,10.83
Minerals
"Calcium, Ca",mg,--,--,19,8
"Sodium, Na",mg,--,--,55,23
Vitamins
Lipids
Amino Acids
Other
Ingredients
"WATER, SUGAR, NONFAT DRY MILK (TREATED WITH A LACTIC ACID CULTURE), LACTIC ACID, LYCHEE JUICE CONCENTRATE, SOY FIBER, NATURAL AND ARTIFICIAL FLAVORS, CITRIC ACID, SODIUM CITRATE" Date available: 07/14/2017 Date last updated by company: 07/14/2017
