Source: USDA Branded Food Products Database Release December 2017 Software v.3.8.6.4 2017-10-02
Report Run at: December 18, 2017 22:57 EST
"Nutrient data for: 45233026, CAMARONAZO, TOMATO & SHRIMP COCKTAIL PICANTE, SPICY, UPC: 899541001054"
Food Group:  Branded Food Products Database
Common Name:

Nutrient,Unit,Data points,Std. Error,"8.0 OZA = 240.0g",1Value per 100 g,
Proximates
"Energy",kcal,--,--,70,29
"Protein",g,--,--,1.99,0.83
"Total lipid (fat)",g,--,--,0.00,0.00
"Carbohydrate, by difference",g,--,--,15.00,6.25
"Fiber, total dietary",g,--,--,1.0,0.4
"Sugars, total",g,--,--,9.00,3.75
Minerals
"Calcium, Ca",mg,--,--,19,8
"Iron, Fe",mg,--,--,0.72,0.30
"Sodium, Na",mg,--,--,1099,458
Vitamins
"Vitamin C, total ascorbic acid",mg,--,--,210.0,87.5
"Vitamin A, IU",IU,--,--,401,167
Lipids
"Fatty acids, total saturated",g,--,--,0.000,0.000
"Fatty acids, total trans",g,--,--,0.000,0.000
"Cholesterol",mg,--,--,0,0
Amino Acids
Other
Ingredients
"WATER, TOMATO CONCENTRATE, HIGH FRUCTOSE CORN SYRUP, MONOSODIUM GLUTAMTE, SALT, JALAPENO PEPPERS, CIRTIC ACID, NATURAL FLAVORS, ASCORBIC ACID (VITAMIN C), SHRIMP EXTRACT, HYDROLYZED SOY PROTEIN, CORN GLUTEN, XANTHAN GUM, ONION POWDER, GARLIC POWDER, SPICE, MALTODEXTRIN ACETIC ACID, CALCIUM CHLORIDE, RED 40." Date available: 07/14/2017 Date last updated by company: 07/14/2017
