Source: USDA Branded Food Products Database Release December 2017 Software v.3.8.6.4 2017-10-02
Report Run at: December 18, 2017 22:59 EST
"Nutrient data for: 45135354, CAMPBELL'S CHUNKY SOUP BEEF & BARLEY, UNPREPARED, GTIN: 00051000233455"
Food Group:  Branded Food Products Database
Common Name:

Nutrient,Unit,Data points,Std. Error,"1 cup = 245.0g",1Value per 100 g,
Proximates
"Energy",kcal,--,--,140,57
"Protein",g,--,--,7.01,2.86
"Total lipid (fat)",g,--,--,2.01,0.82
"Carbohydrate, by difference",g,--,--,23.01,9.39
"Fiber, total dietary",g,--,--,3.9,1.6
"Sugars, total",g,--,--,5.00,2.04
Minerals
"Calcium, Ca",mg,--,--,39,16
"Iron, Fe",mg,--,--,1.00,0.41
"Sodium, Na",mg,--,--,789,322
Vitamins
"Vitamin C, total ascorbic acid",mg,--,--,1.2,0.5
"Vitamin A, IU",IU,--,--,1499,612
Lipids
"Fatty acids, total saturated",g,--,--,1.00,0.41
"Fatty acids, total trans",g,--,--,0.00,0.00
"Cholesterol",mg,--,--,15,6
Amino Acids
Other
Ingredients
"WATER, BEEF STOCK, SEASONED BEEF-BEEF BROTH AND MODIFIED CORNSTARCH PRODUCT (BEEF, BEEF BROTH, SALT, MODIFIED CORNSTARCH, SODIUM PHOSPHATE, SPICE), TOMATO PUREE (WATER, TOMATO PASTE), CARROTS, POTATOES, TOASTED BARLEY, CELERY, PEAS, CORN, CONTAINS LESS THAN 2% OF: MODIFIED FOOD STARCH, DEHYDRATED ONIONS, SUGAR, MONOSODIUM GLUTAMATE, SALT, YEAST EXTRACT, CARAMEL COLOR, LACTIC ACID, SPICE, HYDROLYZED SOY PROTEIN, HYDROLYZED WHEAT GLUTEN, FLAVORING, ONION EXTRACT." Date last updated by company: 10/21/2016
