Source: USDA Branded Food Products Database Release December 2017 Software v.3.8.6.4 2017-10-02
Report Run at: December 18, 2017 23:06 EST
"Nutrient data for: 45135324, CAMPBELL'S SOUP CHICKEN PASTA, UNPREPARED, GTIN: 00051000225405"
Food Group:  Branded Food Products Database
Common Name:

Nutrient,Unit,Data points,Std. Error,"1 cup = 245.0g",1Value per 100 g,
Proximates
"Energy",kcal,--,--,71,29
"Protein",g,--,--,2.99,1.22
"Total lipid (fat)",g,--,--,1.00,0.41
"Carbohydrate, by difference",g,--,--,13.01,5.31
"Fiber, total dietary",g,--,--,1.0,0.4
"Sugars, total",g,--,--,2.01,0.82
Minerals
"Calcium, Ca",mg,--,--,17,7
"Iron, Fe",mg,--,--,0.00,0.00
"Sodium, Na",mg,--,--,480,196
Vitamins
"Vitamin C, total ascorbic acid",mg,--,--,0.0,0.0
"Vitamin A, IU",IU,--,--,1250,510
Lipids
"Fatty acids, total saturated",g,--,--,0.49,0.20
"Fatty acids, total trans",g,--,--,0.00,0.00
"Cholesterol",mg,--,--,5,2
Amino Acids
Other
Ingredients
"CHICKEN STOCK*, PASTA* (WHEAT FLOUR*, EGG WHITES*), CARROTS*, CELERY*, CONTAINS LESS THAN 2% OF: CONCENTRATED CHICKEN BROTH FLAVOR* (CHICKEN BROTH* [CHICKEN STOCK*, SEA SALT], CHICKEN FLAVOR* [CHICKEN FLAVOR*, SEA SALT], CHICKEN FAT*, SEA SALT, YEAST EXTRACT, VEGETABLE FLAVORING* [CARROTS*, ONIONS*], VEGETABLES* [CELERY*, CARROTS*, ONIONS*], TOMATO PASTE*, TURMERIC* FOR COLOR, DEHYDRATED CARROTS*, DEHYDRATED ONIONS*, POTATO FLOUR*, FLAVORING, CANOLA OIL*, FLAVORING*), CARROT PUREE*, POTATO STARCH*, CHICKEN FAT*, SUGAR*, SEA SALT, VEGETABLES* (CARROTS*, ONIONS*, CELERY*), DEHYDRATED ONIONS*, TOMATO PASTE*, MOLASSES*, YEAST EXTRACT*, SPICE*, DEHYDRATED GARLIC*, DEHYDRATED CARROT*, POTATO FLOUR*, FLAVORING, FLAVORING*, CANOLA OIL*.            *ORGANIC.    CONTAINS: ORGANIC EGG, ORGANIC WHEAT." Date last updated by company: 10/21/2016
