Source: USDA Branded Food Products Database Release December 2017 Software v.3.8.6.4 2017-10-02
Report Run at: December 18, 2017 23:07 EST
"Nutrient data for: 45135301, CAMPBELL'S SOUP CREAM ONION, UNPREPARED, GTIN: 00051000016171"
Food Group:  Branded Food Products Database
Common Name:

Nutrient,Unit,Data points,Std. Error,"0.5 cup condensed soup = 124.0g",1Value per 100 g,
Proximates
"Energy",kcal,--,--,100,81
"Protein",g,--,--,1.00,0.81
"Total lipid (fat)",g,--,--,6.00,4.84
"Carbohydrate, by difference",g,--,--,9.99,8.06
"Fiber, total dietary",g,--,--,2.0,1.6
"Sugars, total",g,--,--,4.01,3.23
Minerals
"Calcium, Ca",mg,--,--,25,20
"Iron, Fe",mg,--,--,0.00,0.00
"Sodium, Na",mg,--,--,790,637
Vitamins
"Vitamin C, total ascorbic acid",mg,--,--,0.0,0.0
"Vitamin A, IU",IU,--,--,200,161
Lipids
"Fatty acids, total saturated",g,--,--,1.50,1.21
"Fatty acids, total trans",g,--,--,0.00,0.00
"Cholesterol",mg,--,--,5,4
Amino Acids
Other
Ingredients
"WATER, VEGETABLE OIL (CORN, COTTONSEED, CANOLA, AND/OR SOYBEAN), DEHYDRATED ONIONS, MODIFIED FOOD STARCH, WHEAT FLOUR, CONTAINS LESS THAN 2% OF: SAUTERNE WINE, SALT, DEHYDRATED WHEY, BUTTER (CREAM [MILK]), SOY PROTEIN CONCENTRATE, MONOSODIUM GLUTAMATE, FLAVORING, YEAST EXTRACT, BETA CAROTENE FOR COLOR." Date last updated by company: 10/21/2016
