Source: USDA Branded Food Products Database Release December 2017 Software v.3.8.6.4 2017-10-02
Report Run at: December 18, 2017 23:09 EST
"Nutrient data for: 45135500, CAMPBELL'S SOUP STEAK, UNPREPARED, GTIN: 00051000141996"
Food Group:  Branded Food Products Database
Common Name:

Nutrient,Unit,Data points,Std. Error,"1 cup = 245.0g",1Value per 100 g,
Proximates
"Energy",kcal,--,--,130,53
"Protein",g,--,--,6.00,2.45
"Total lipid (fat)",g,--,--,3.50,1.43
"Carbohydrate, by difference",g,--,--,19.01,7.76
"Fiber, total dietary",g,--,--,2.0,0.8
"Sugars, total",g,--,--,7.01,2.86
Minerals
"Calcium, Ca",mg,--,--,47,19
"Iron, Fe",mg,--,--,2.01,0.82
"Sodium, Na",mg,--,--,789,322
Vitamins
"Vitamin C, total ascorbic acid",mg,--,--,0.0,0.0
"Vitamin A, IU",IU,--,--,1000,408
Lipids
"Fatty acids, total saturated",g,--,--,1.49,0.61
"Fatty acids, total trans",g,--,--,0.00,0.00
"Cholesterol",mg,--,--,15,6
Amino Acids
Other
Ingredients
"WATER, SALISBURY STEAK (BEEF, WATER, DEHYDRATED ONION, FLAVORING, SALT, CARAMEL COLOR), CARROTS, POTATOES, MUSHROOMS, TOMATO PUREE (WATER, TOMATO PASTE), CELERY, MODIFIED CORN STARCH, CONTAINS LESS THAN 2% OF: GREEN PEPPERS, WHEAT FLOUR, DEHYDRATED ONIONS, SUGAR, SALT, MONOSODIUM GLUTAMATE, BEEF BROTH, BEEF STOCK, YEAST EXTRACT, BEEF, DEHYDRATED GARLIC, FLAVORING, SPICE, BEEF FAT, CARAMEL COLOR, LACTIC ACID." Date last updated by company: 10/21/2016
