Source: USDA Branded Food Products Database Release December 2017 Software v.3.8.6.4 2017-10-02
Report Run at: December 18, 2017 23:03 EST
"Nutrient data for: 45135476, CAMPBELL'S PASTA SPAGHETTIOS W FRANKS, UNPREPARED, GTIN: 00051000232847"
Food Group:  Branded Food Products Database
Common Name:

Nutrient,Unit,Data points,Std. Error,"1 cup = 252.0g",1Value per 100 g,
Proximates
"Energy",kcal,--,--,209,83
"Protein",g,--,--,9.00,3.57
"Total lipid (fat)",g,--,--,6.00,2.38
"Carbohydrate, by difference",g,--,--,29.01,11.51
"Fiber, total dietary",g,--,--,3.0,1.2
"Sugars, total",g,--,--,11.01,4.37
Minerals
"Calcium, Ca",mg,--,--,252,100
"Iron, Fe",mg,--,--,6.00,2.38
"Sodium, Na",mg,--,--,600,238
Vitamins
"Vitamin C, total ascorbic acid",mg,--,--,0.0,0.0
"Vitamin A, IU",IU,--,--,499,198
Lipids
"Fatty acids, total saturated",g,--,--,1.99,0.79
"Fatty acids, total trans",g,--,--,0.00,0.00
"Cholesterol",mg,--,--,20,8
Amino Acids
Other
Ingredients
"WATER, TOMATO PUREE (WATER, TOMATO PASTE), CHICKEN AND PORK FRANKFURTERS MADE WITH CHICKEN, PORK AND BEEF (MECHANICALLY SEPARATED CHICKEN, PORK, WATER, CORN SYRUP, SALT, BEEF, MODIFIED FOOD STARCH, DEXTROSE, ASCORBIC ACID, SODIUM NITRITE, NATURAL FLAVORS), ENRICHED PASTA (WHEAT FLOUR, NIACIN, FERROUS SULFATE, THIAMINE MONONITRATE, RIBOFLAVIN, FOLIC ACID), HIGH FRUCTOSE CORN SYRUP, CONTAINS LESS THAN 2% OF: PREPARED MUSTARD (DISTILLED VINEGAR, WATER, MUSTARD SEED, SALT, TURMERIC, PAPRIKA, SPICE, DEHYDRATED GARLIC), ENZYME MODIFIED CHEDDAR CHEESE (CHEDDAR CHEESE [CULTURED MILK, SALT, ENZYMES, CALCIUM CHLORIDE], WATER, DISODIUM PHOSPHATE, ENZYMES), SALT, CARROT JUICE CONCENTRATE, FLAVORING, CITRIC ACID, ENZYME MODIFIED BUTTER, RECONSTITUTED SKIM MILK, MONOPOTASSIUM PHOSPHATE, DEHYDRATED GARLIC, ONION EXTRACT" Date last updated by company: 10/21/2016
