Source: USDA Branded Food Products Database Release December 2017 Software v.3.8.6.4 2017-10-02
Report Run at: December 18, 2017 23:02 EST
"Nutrient data for: 45135494, CAMPBELL'S HOMESTYLE SOUP CLAM CHOWDER-FF, UNPREPARED, GTIN: 00051000126320"
Food Group:  Branded Food Products Database
Common Name:

Nutrient,Unit,Data points,Std. Error,"1 cup = 245.0g",1Value per 100 g,
Proximates
"Energy",kcal,--,--,100,41
"Protein",g,--,--,5.00,2.04
"Total lipid (fat)",g,--,--,1.49,0.61
"Carbohydrate, by difference",g,--,--,16.00,6.53
"Fiber, total dietary",g,--,--,1.0,0.4
"Sugars, total",g,--,--,1.00,0.41
Minerals
"Calcium, Ca",mg,--,--,20,8
"Iron, Fe",mg,--,--,1.00,0.41
"Sodium, Na",mg,--,--,789,322
Vitamins
"Vitamin C, total ascorbic acid",mg,--,--,0.0,0.0
"Vitamin A, IU",IU,--,--,0,0
Lipids
"Fatty acids, total saturated",g,--,--,1.00,0.41
"Fatty acids, total trans",g,--,--,0.00,0.00
"Cholesterol",mg,--,--,10,4
Amino Acids
Other
Ingredients
"CLAM STOCK, POTATOES, CLAMS, WATER, CELERY, CREAM (MILK), MODIFIED FOOD STARCH, CONTAINS LESS THAN 2% OF: WHEAT FLOUR, TITANIUM DIOXIDE, SALT, MONOSODIUM GLUTAMATE, SUGAR, ONIONS*, SODIUM PHOSPHATE, SPICES, DISODIUM INOSINATE, DISODIUM GUANYLATE, FLAVORING (CONTAINS COD), CELERY EXTRACT, ONION EXTRACT, SUCCINIC ACID, BUTTER (CREAM, SALT)*, BUTTERMILK, ENZYME MODIFIED BUTTER, SOY SAUCE (SOYBEANS, WHEAT, SALT), SKIM MILK, WHEY PROTEIN CONCENTRATE, ENZYME MODIFIED BUTTER FAT AND OIL, WHEY, SOY LECITHIN.    *DRIED" Date last updated by company: 10/21/2016
