Source: USDA Branded Food Products Database Release December 2017 Software v.3.8.6.4 2017-10-02
Report Run at: December 18, 2017 23:04 EST
"Nutrient data for: 45135312, CAMPBELL'S SAUCES STEAK BEANS RICE, UNPREPARED, GTIN: 00051000219213"
Food Group:  Branded Food Products Database
Common Name:

Nutrient,Unit,Data points,Std. Error,"1 pouch = 255.0g",1Value per 100 g,
Proximates
"Energy",kcal,--,--,230,90
"Protein",g,--,--,9.00,3.53
"Total lipid (fat)",g,--,--,1.99,0.78
"Carbohydrate, by difference",g,--,--,45.01,17.65
"Fiber, total dietary",g,--,--,4.1,1.6
"Sugars, total",g,--,--,3.01,1.18
Minerals
"Calcium, Ca",mg,--,--,79,31
"Iron, Fe",mg,--,--,1.99,0.78
"Sodium, Na",mg,--,--,760,298
Vitamins
"Vitamin C, total ascorbic acid",mg,--,--,1.3,0.5
"Vitamin A, IU",IU,--,--,750,294
Lipids
"Fatty acids, total saturated",g,--,--,0.51,0.20
"Fatty acids, total trans",g,--,--,0.00,0.00
"Cholesterol",mg,--,--,10,4
Amino Acids
Other
Ingredients
"WATER, RICE, SEASONED COOKED BEEF STEAK (BEEF, BEEF BROTH, SALT, SODIUM PHOSHATE), RED BELL PEPPERS, CORN, ONIONS, GREEN BELL PEPPERS, COOKED BLACK BEANS, MODIFIED FOOD STARCH, CONTAINS LESS THAN 2% OF: CHIPOTLE ADOBO PUREE (WATER, ONION, DEHYDRATED CHIPOTLE PEPPERS, TOMATO PASTE, CANOLA OIL, SUGAR, VINEGAR, SALT, GARLIC, NATURAL SMOKE FLAVORING, SPICE), TOMATO PASTE, SALT, SPICES, CILANTRO, PAPRIKA, LIME JUICE CONCENTRATE, GARLIC*, ONIONS*.  *DEHYDRATED." Date last updated by company: 10/21/2016
