Source: USDA Branded Food Products Database Release December 2017 Software v.3.8.6.4 2017-10-02
Report Run at: December 18, 2017 22:58 EST
"Nutrient data for: 45135425, CAMPBELL'S BEANS BEANS BOURBON BROWN SUGAR, UNPREPARED, GTIN: 00051000213013"
Food Group:  Branded Food Products Database
Common Name:

Nutrient,Unit,Data points,Std. Error,"0.5 cup = 130.0g",1Value per 100 g,
Proximates
"Energy",kcal,--,--,140,108
"Protein",g,--,--,6.01,4.62
"Total lipid (fat)",g,--,--,0.49,0.38
"Carbohydrate, by difference",g,--,--,28.00,21.54
"Fiber, total dietary",g,--,--,6.0,4.6
"Sugars, total",g,--,--,10.00,7.69
Minerals
"Calcium, Ca",mg,--,--,72,55
"Iron, Fe",mg,--,--,2.00,1.54
"Sodium, Na",mg,--,--,480,369
Vitamins
"Vitamin C, total ascorbic acid",mg,--,--,0.0,0.0
"Vitamin A, IU",IU,--,--,0,0
Lipids
"Fatty acids, total saturated",g,--,--,0.00,0.00
"Fatty acids, total trans",g,--,--,0.00,0.00
"Cholesterol",mg,--,--,0,0
Amino Acids
Other
Ingredients
"WATER, PEA BEANS, TOMATO PUREE (WATER, TOMATO PASTE), SUGAR, BROWN SUGAR (SUGAR, INVERT SUGAR, MOLASSES), CONTAINS LESS THAN 2% OF: PREPARED MUSTARD (DISTILLED VINEGAR, WATER, MUSTARD SEED, SALT, TURMERIC, PAPRIKA, SPICE, DEHYDRATED GARLIC), SALT, MODIFIED FOOD STARCH, DISTILLED VINEGAR, UNSULPHURED MOLASSES, DEHYDRATED ONIONS, CARAMEL COLOR, FLAVORING, DEHYDRATED GARLIC, BOURBON. MAY CONTAIN TRACES OF WHEAT" Date last updated by company: 10/21/2016
