Source: USDA Branded Food Products Database Release December 2017 Software v.3.8.6.4 2017-10-02
Report Run at: December 18, 2017 23:02 EST
"Nutrient data for: 45135238, CAMPBELL'S HEALTHY REQUEST SOUP LENTIL, UNPREPARED, GTIN: 00051000203885"
Food Group:  Branded Food Products Database
Common Name:

Nutrient,Unit,Data points,Std. Error,"0.5 cup condensed soup = 126.0g",1Value per 100 g,
Proximates
"Energy",kcal,--,--,140,111
"Protein",g,--,--,8.00,6.35
"Total lipid (fat)",g,--,--,0.50,0.40
"Carbohydrate, by difference",g,--,--,25.00,19.84
"Fiber, total dietary",g,--,--,4.0,3.2
"Sugars, total",g,--,--,3.00,2.38
Minerals
"Calcium, Ca",mg,--,--,47,37
"Iron, Fe",mg,--,--,3.00,2.38
"Sodium, Na",mg,--,--,410,325
Vitamins
"Vitamin C, total ascorbic acid",mg,--,--,0.0,0.0
"Vitamin A, IU",IU,--,--,1000,794
Lipids
"Fatty acids, total saturated",g,--,--,0.00,0.00
"Fatty acids, total trans",g,--,--,0.00,0.00
"Cholesterol",mg,--,--,0,0
Amino Acids
Other
Ingredients
"WATER, LENTILS, TOMATO PUREE (WATER, TOMATO PASTE), CARROTS, MODIFIED FOOD STARCH, DICED TOMATOES IN TOMATO JUICE, CONTAINS LESS THAN 2% OF: SPINACH, SALT, POTASSIUM CHLORIDE, DEHYDRATED ONIONS, FLAVORING, CHEDDAR CHEESE (MILK, CULTURES, SALT, ENZYMES), PARMESAN CHEESE (MILK, CULTURES, SALT, ENZYMES), SUGAR, CONCENTRATED LEMON JUICE, SPICES, DEHYDRATED GARLIC, GARLIC, YEAST EXTRACT, DEHYDRATED TOMATO, TOMATO PASTE, OLIVE OIL, SOY SAUCE (WATER, SOYBEANS, WHEAT, SALT), DISODIUM INOSINATE AND DISODIUM GUANYLATE, TOMATOES, LACTIC ACID." Date last updated by company: 10/21/2016
