Source: USDA Branded Food Products Database Release December 2017 Software v.3.8.6.4 2017-10-02
Report Run at: December 18, 2017 23:04 EST
"Nutrient data for: 45135326, CAMPBELL'S SAUCES CHEESE CHICKEN QUESADILLA, UNPREPARED, GTIN: 00051000219190"
Food Group:  Branded Food Products Database
Common Name:

Nutrient,Unit,Data points,Std. Error,"1 pouch = 255.0g",1Value per 100 g,
Proximates
"Energy",kcal,--,--,270,106
"Protein",g,--,--,14.00,5.49
"Total lipid (fat)",g,--,--,9.00,3.53
"Carbohydrate, by difference",g,--,--,40.01,15.69
"Fiber, total dietary",g,--,--,4.1,1.6
"Sugars, total",g,--,--,4.00,1.57
Minerals
"Calcium, Ca",mg,--,--,255,100
"Iron, Fe",mg,--,--,0.99,0.39
"Sodium, Na",mg,--,--,890,349
Vitamins
"Vitamin C, total ascorbic acid",mg,--,--,1.3,0.5
"Vitamin A, IU",IU,--,--,400,157
Lipids
"Fatty acids, total saturated",g,--,--,5.00,1.96
"Fatty acids, total trans",g,--,--,0.00,0.00
"Cholesterol",mg,--,--,41,16
Amino Acids
Other
Ingredients
"WATER, PASTEURIZED PROCESS CHEDDAR CHEESE (CHEDDAR CHEESE [MILK, CULTURES, SALT, ENZYMES], WATER, SODIUM PHOSPHATE, MILK FAT, SALT, APOCAROTENAL FOR COLOR), RICE, COOKED PINTO BEANS, CHICKEN MEAT, POTATO STARCH, GREEN BELL PEPPERS, RED BELL PEPPERS, CORN, ONIONS, CONTAINS LESS THAN 2% OF: JALAPENO PEPPERS, WATER, SUGAR, YEAST EXTRACT, DISTILLED VINEGAR, DISODIUM PHOSPHATE, SALT, GARLIC*, GRANULAR CHEESE (MILK, CULTURES, SALT, ENZYMES), ONIONS*, CUMIN, CHILI PEPPER, MODIFIED FOOD STARCH, WHITE CORN FLOUR, SOY PROTEIN CONCENTRATE, SODIUM PHOSPHATE, WHEY, SPICES, ROMANO CHEESE (COW'S MILK, CULTURES, SALT, ENZYMES), CHICKEN STOCK, LACTIC ACID, SODIUM CITRATE, CHICKEN*, FLAVORING, CHICKEN FAT.  *DEHYDRATED" Date last updated by company: 10/21/2016
