Source: USDA Branded Food Products Database Release December 2017 Software v.3.8.6.4 2017-10-02
Report Run at: December 18, 2017 22:59 EST
"Nutrient data for: 45135256, CAMPBELL'S CHUNKY SOUP CHICKEN, UNPREPARED, GTIN: 00051000211651"
Food Group:  Branded Food Products Database
Common Name:

Nutrient,Unit,Data points,Std. Error,"1 cup = 245.0g",1Value per 100 g,
Proximates
"Energy",kcal,--,--,179,73
"Protein",g,--,--,7.01,2.86
"Total lipid (fat)",g,--,--,8.99,3.67
"Carbohydrate, by difference",g,--,--,17.00,6.94
"Fiber, total dietary",g,--,--,2.0,0.8
"Sugars, total",g,--,--,2.01,0.82
Minerals
"Calcium, Ca",mg,--,--,34,14
"Iron, Fe",mg,--,--,1.00,0.41
"Sodium, Na",mg,--,--,789,322
Vitamins
"Vitamin C, total ascorbic acid",mg,--,--,0.0,0.0
"Vitamin A, IU",IU,--,--,1250,510
Lipids
"Fatty acids, total saturated",g,--,--,2.99,1.22
"Fatty acids, total trans",g,--,--,0.00,0.00
"Cholesterol",mg,--,--,34,14
Amino Acids
Other
Ingredients
"CHICKEN STOCK, SPAETZLE DUMPLINGS (WATER, ENRICHED WHEAT FLOUR [WHEAT FLOUR, MALTED BARLEY FLOUR, NIACIN, FERROUS SULFATE, THIAMINE MONONITRATE, RIBOFLAVIN, FOLIC ACID], EGGS, ENRICHED DURUM WHEAT FLOUR [DURUM WHEAT FLOUR, NIACIN, FERROUS SULFATE, THIAMINE MONONITRATE, RIBOFLAVIN, FOLIC ACID], SALT,  SPICES, NATURAL FLAVOR, TURMERIC FOR COLOR), CHICKEN MEAT, CARROTS, CELERY, VEGETABLE OIL, PEAS, CONTAINS LESS THAN 2% OF: CORN, MODIFIED FOOD STARCH, WATER, SALT, WHEAT FLOUR, SUGAR, FLAVORING, MONOSODIUM GLUTAMATE, SOY PROTEIN CONCENTRATE, CREAM (MILK)**, ONIONS**, CHICKEN FAT, CHICKEN BROTH**, SPICES, CANE SUGAR, NONFAT DRY MILK, SODIUM PHOSPHATE, SOY PROTEIN ISOLATE, YEAST EXTRACT, POTATO FLOUR, ONIONS, BETA CAROTENE FOR COLOR, CHICKEN**, SUNFLOWER LECITHIN, CARROTS**.     **DEHYDRATED" Date last updated by company: 10/21/2016
