Source: USDA Branded Food Products Database Release December 2017 Software v.3.8.6.4 2017-10-02
Report Run at: December 18, 2017 23:21 EST
"Nutrient data for: 45253779, CANDY CRUSH, FRUIT SNACKS, ASSORTED, UPC: 000790350378"
Food Group:  Branded Food Products Database
Common Name:

Nutrient,Unit,Data points,Std. Error,"6.0 PIECES = 14.0g",1Value per 100 g,
Proximates
"Energy",kcal,--,--,40,286
"Protein",g,--,--,1.00,7.14
"Total lipid (fat)",g,--,--,0.00,0.00
"Carbohydrate, by difference",g,--,--,10.00,71.43
"Fiber, total dietary",g,--,--,0.0,0.0
"Sugars, total",g,--,--,6.00,42.86
Minerals
"Iron, Fe",mg,--,--,0.00,0.00
"Sodium, Na",mg,--,--,0,0
Vitamins
"Vitamin C, total ascorbic acid",mg,--,--,171.4,1224.5
"Vitamin A, IU",IU,--,--,0,0
Lipids
"Fatty acids, total saturated",g,--,--,0.000,0.000
"Fatty acids, total trans",g,--,--,0.000,0.000
"Cholesterol",mg,--,--,0,0
Amino Acids
Other
Ingredients
"CORN SYRUP, SUGAR, WATER, APPLE JUICE CONCENTRATE, MODIFIED FOOD STARCH (CORN), GELATIN, DEXTROSE, APPLE PUREE, CITRIC ACID, ARTIFICIAL FLAVOR, ASCORBIC ACID, MINERAL OIL, CARNUBA WAX, ARTIFICIAL COLORS (FD&C RED 40, YELLOW 5, YELLOW 6, BLUE 1)." Date available: 07/14/2017 Date last updated by company: 07/14/2017
