Source: USDA Branded Food Products Database Release December 2017 Software v.3.8.6.4 2017-10-02
Report Run at: December 18, 2017 23:19 EST
"Nutrient data for: 45061342, CANDY COATED MILK CARAMELS, UPC: 498981262003"
Food Group:  Branded Food Products Database
Common Name:

Nutrient,Unit,Data points,Std. Error,"28.0 PIECES = 41.0g",1Value per 100 g,
Proximates
"Energy",kcal,--,--,160,390
"Protein",g,--,--,0.00,0.00
"Total lipid (fat)",g,--,--,1.50,3.66
"Carbohydrate, by difference",g,--,--,38.00,92.68
"Sugars, total",g,--,--,30.00,73.17
Minerals
"Sodium, Na",mg,--,--,40,98
Vitamins
Lipids
Amino Acids
Other
Ingredients
"SUGAR, CORN SYRUP, INVERT SUGAR, PARTIALLY HYDROGENATE SOYBEAN OIL, DRY WHOLE MILK, MODIFIED FOOD STARCH, WHEY, NATURAL AND ARTIFICIAL FLAVORS, CONFECTIONER'S GLAZE, SALT, CARAMEL COLOR, ARTIFICIAL COLORS (INCLUDING FD&C YELLOW 5, RED 40, YELLOW 6, AND BLUE 1), SOY LECITHIN, WHITE MINERAL OIL." Date available: 10/13/2017 Date last updated by company: 10/13/2017
