Source: USDA Branded Food Products Database Release December 2017 Software v.3.8.6.4 2017-10-02
Report Run at: December 18, 2017 23:24 EST
"Nutrient data for: 45214734, CANDY MELTS, UPC: 070896802231"
Food Group:  Branded Food Products Database
Common Name:

Nutrient,Unit,Data points,Std. Error,"16.0 PIECES = 40.0g",1Value per 100 g,
Proximates
"Energy",kcal,--,--,220,550
"Protein",g,--,--,0.00,0.00
"Total lipid (fat)",g,--,--,12.00,30.00
"Carbohydrate, by difference",g,--,--,27.00,67.50
"Fiber, total dietary",g,--,--,0.0,0.0
"Sugars, total",g,--,--,27.00,67.50
Minerals
"Calcium, Ca",mg,--,--,20,50
"Iron, Fe",mg,--,--,0.00,0.00
"Sodium, Na",mg,--,--,45,112
Vitamins
"Vitamin C, total ascorbic acid",mg,--,--,0.0,0.0
"Vitamin A, IU",IU,--,--,0,0
Lipids
"Fatty acids, total saturated",g,--,--,11.000,27.500
"Fatty acids, total trans",g,--,--,0.000,0.000
"Cholesterol",mg,--,--,0,0
Amino Acids
Other
Ingredients
"SUGAR, PARTIALLY HYDROGENATED PALM KERNEL OIL, REDUCED MINERAL WHEY POWDER, WHOLE MILK SOLIDS, NONFAT DRY MILK SOLIDS, FD&C, RED #40 LAKE, FD&C BLUE #2 LAKE, SOY LECITHIN, NATURAL AND ARTIFICIAL FLAVOR, SALT." Date available: 07/14/2017 Date last updated by company: 07/14/2017
