Source: USDA Branded Food Products Database Release December 2017 Software v.3.8.6.4 2017-10-02
Report Run at: December 18, 2017 23:22 EST
"Nutrient data for: 45250215, CANDY CRUSH, RAINBOW BITES, STRAWBERRY, WATERMELON, UPC: 000790320067"
Food Group:  Branded Food Products Database
Common Name:

Nutrient,Unit,Data points,Std. Error,"13.0 PIECES = 40.0g",1Value per 100 g,
Proximates
"Energy",kcal,--,--,150,375
"Protein",g,--,--,1.00,2.50
"Total lipid (fat)",g,--,--,0.50,1.25
"Carbohydrate, by difference",g,--,--,35.00,87.50
"Fiber, total dietary",g,--,--,0.0,0.0
"Sugars, total",g,--,--,27.00,67.50
Minerals
"Iron, Fe",mg,--,--,0.00,0.00
"Sodium, Na",mg,--,--,45,112
Vitamins
"Vitamin C, total ascorbic acid",mg,--,--,0.0,0.0
"Vitamin A, IU",IU,--,--,0,0
Lipids
"Fatty acids, total saturated",g,--,--,0.000,0.000
"Fatty acids, total trans",g,--,--,0.000,0.000
"Cholesterol",mg,--,--,0,0
Amino Acids
Other
Ingredients
"SUGAR, CORN SYRUP, WHEAT FLOUR, MODIFIED CORN STARCH, PALM OIL, GELATIN, LACTIC ACID, MALIC ACID, CITRIC ACID, ARTIFICIAL FLAVORS, SODIUM ACTATE, TRISODIUM CITRATE, SALT, MONO AND DIGLYCERIDES, GLYCEROL, ARTIFICIAL COLORS: FD&C BLUE1, YELLOW 5, YELLOW 6, RED 40, TITANIUM DIOXIDE." Date available: 07/14/2017 Date last updated by company: 07/14/2017
