Source: USDA Branded Food Products Database Release December 2017 Software v.3.8.6.4 2017-10-02
Report Run at: December 18, 2017 23:34 EST
"Nutrient data for: 45159914, CANDY-VILLE, PARTY TIME! JELLY BEANS, CARRIBEAN PUNCH, UPC: 863686000135"
Food Group:  Branded Food Products Database
Common Name:

Nutrient,Unit,Data points,Std. Error,"36.0 PIECES = 40.0g",1Value per 100 g,
Proximates
"Energy",kcal,--,--,140,350
"Protein",g,--,--,0.00,0.00
"Total lipid (fat)",g,--,--,0.00,0.00
"Carbohydrate, by difference",g,--,--,36.00,90.00
"Sugars, total",g,--,--,28.00,70.00
Minerals
"Sodium, Na",mg,--,--,40,100
Vitamins
Lipids
"Fatty acids, total saturated",g,--,--,0.000,0.000
"Fatty acids, total trans",g,--,--,0.000,0.000
"Cholesterol",mg,--,--,0,0
Amino Acids
Other
Ingredients
"SUGAR, CORN SYRUP, MODIFIED FOOD STARCH, CONTAINS LESS THAN 0.5% OF THE FOLLOWING INGREDIENTS: SODIUM CITRATE, PECTIN, NATURAL AND ARTIFICIAL FLAVORS, CITRIC ACID, CONFECTIONERS GLAZE, CARNAUBA WAX, WHITE MINERAL OIL, MAGNESIUM HYDROXIDE, ARTIFICIAL COLOR, RED #40, YELLOW #5 (TARTRAZINE), YELLOW #6, BLUE #1, RED #3." Date available: 07/14/2017 Date last updated by company: 07/14/2017
