Source: USDA Branded Food Products Database Release December 2017 Software v.3.8.6.4 2017-10-02
Report Run at: December 18, 2017 23:19 EST
"Nutrient data for: 45274956, CANDY COOKIES, UPC: 492180100548"
Food Group:  Branded Food Products Database
Common Name:

Nutrient,Unit,Data points,Std. Error,"1 COOKIE = 36.0g",1Value per 100 g,
Proximates
"Energy",kcal,--,--,150,417
"Protein",g,--,--,2.00,5.56
"Total lipid (fat)",g,--,--,6.00,16.67
"Carbohydrate, by difference",g,--,--,24.00,66.67
"Fiber, total dietary",g,--,--,1.0,2.8
"Sugars, total",g,--,--,14.00,38.89
Minerals
"Calcium, Ca",mg,--,--,0,0
"Iron, Fe",mg,--,--,1.50,4.17
"Sodium, Na",mg,--,--,160,444
Vitamins
"Vitamin C, total ascorbic acid",mg,--,--,0.0,0.0
"Vitamin A, IU",IU,--,--,278,772
Lipids
"Fatty acids, total saturated",g,--,--,2.999,8.330
"Fatty acids, total trans",g,--,--,0.000,0.000
"Cholesterol",mg,--,--,10,28
Amino Acids
Other
Ingredients
"ENRICHED BLEACHED WHEAT FLOUR (FLOUR, NIACIN, REDUCED IRON, THIAMINE MONONITRATE, RIBOFLAVIN, FOLIC ACID), SUGAR, CANDY GEMS (DARK CHOCOLATE [SUGAR, CHOCOLATE LIQUOR, COCOA BUTTER, MILK FAT, SOY LECITHIN, VANILLIN (ARTIFICIAL FLAVOR)], SUGAR, ARTIFICIAL COLORING [RED 40 LAKE, YELLOW 5 LAKE, YELLOW 5, BLUE 1, BLUE 1 LAKE], CORN SYRUP, GUM ARABIC, CONFECTIONER'S GLAZE), MARGARINE (PALM OIL, WATER, SOYBEAN OIL, SALT, MONO- & DIGLYCERIDES, ANNATTO [COLOR], CALCIUM DISODIUM EDTA [PRESERVATIVE], ARTIFICIAL FLAVOR, VITAMIN A PALMITATE), INVERT SUGAR, EGGS, COCOA (PROCESSED WITH ALKALI), CONTAINS 2% OR LESS OF: FRUCTOSE, MODIFIED FOOD STARCH, LEAVENING (BAKING SODA, SODIUM ALUMINUM SULFATE, MONOCALCIUM PHOSPHATE), NATURAL FLAVORS, SALT, CORN STARCH, WHEY." Date available: 07/14/2017 Date last updated by company: 07/14/2017
