Source: USDA Branded Food Products Database Release December 2017 Software v.3.8.6.4 2017-10-02
Report Run at: December 18, 2017 23:28 EST
"Nutrient data for: 45215989, CANDY TWISTS, UPC: 085239555354"
Food Group:  Branded Food Products Database
Common Name:

Nutrient,Unit,Data points,Std. Error,"4.0 TWISTS = 43.0g",1Value per 100 g,
Proximates
"Energy",kcal,--,--,150,349
"Protein",g,--,--,1.00,2.33
"Total lipid (fat)",g,--,--,0.50,1.16
"Carbohydrate, by difference",g,--,--,35.00,81.40
"Fiber, total dietary",g,--,--,0.0,0.0
"Sugars, total",g,--,--,18.00,41.86
Minerals
"Calcium, Ca",mg,--,--,0,0
"Iron, Fe",mg,--,--,0.42,0.98
"Sodium, Na",mg,--,--,120,279
Vitamins
"Vitamin C, total ascorbic acid",mg,--,--,0.0,0.0
"Vitamin A, IU",IU,--,--,0,0
Lipids
"Fatty acids, total saturated",g,--,--,0.000,0.000
"Fatty acids, total trans",g,--,--,0.000,0.000
"Cholesterol",mg,--,--,0,0
Amino Acids
Other
Ingredients
"CORN SYRUP, SUGAR, ENRICHED WHEAT FLOUR (WHEAT, NIACIN, IRON, THIAMIN, RIBOFLAVIN, FOLIC ACID), HIGH FRUCTOSE CORN SYRUP, MODIFIED CORN STARCH, WATER, GLYCERIN, PALM OIL, SALT, CITRIC ACID, ARTIFICIAL FLAVOR, SOY MONO AND DIGLYCERIDES, POTASSIUM SORBATE (PRESERVATIVE), ARTIFICIAL COLORS (RED 40, BLUE 1)." Date available: 07/14/2017 Date last updated by company: 07/14/2017
