Source: USDA Branded Food Products Database Release December 2017 Software v.3.8.6.4 2017-10-02
Report Run at: December 18, 2017 23:25 EST
"Nutrient data for: 45146084, CANDY PUMPKINS, UPC: 768395500894"
Food Group:  Branded Food Products Database
Common Name:

Nutrient,Unit,Data points,Std. Error,"0.5 CONTAINER = 16.0g",1Value per 100 g,
Proximates
"Energy",kcal,--,--,60,375
"Protein",g,--,--,0.00,0.00
"Total lipid (fat)",g,--,--,0.00,0.00
"Carbohydrate, by difference",g,--,--,15.00,93.75
"Sugars, total",g,--,--,12.00,75.00
Minerals
"Sodium, Na",mg,--,--,0,0
Vitamins
Lipids
Amino Acids
Other
Ingredients
"GLUCOSE POWDER, CORNSTARCH, DEXTRIN, MAGNESIUM STEARATE, GUM ARABIC, ARTIFICIAL FLAVOR, CARNAUBA WAX, SHELLAC, YELLOW 5, BLUE 1." Date available: 07/14/2017 Date last updated by company: 07/14/2017
