Source: USDA Branded Food Products Database Release December 2017 Software v.3.8.6.4 2017-10-02
Report Run at: December 18, 2017 23:15 EST
"Nutrient data for: 45271389, CANDY CANE CARAMELS, UPC: 811455012414"
Food Group:  Branded Food Products Database
Common Name:

Nutrient,Unit,Data points,Std. Error,"11.0 PCS = 40.0g",1Value per 100 g,
Proximates
"Energy",kcal,--,--,190,475
"Protein",g,--,--,1.00,2.50
"Total lipid (fat)",g,--,--,11.00,27.50
"Carbohydrate, by difference",g,--,--,26.00,65.00
"Fiber, total dietary",g,--,--,1.0,2.5
"Sugars, total",g,--,--,21.00,52.50
Minerals
"Calcium, Ca",mg,--,--,20,50
"Iron, Fe",mg,--,--,0.90,2.25
"Sodium, Na",mg,--,--,40,100
Vitamins
"Vitamin C, total ascorbic acid",mg,--,--,0.0,0.0
"Vitamin A, IU",IU,--,--,0,0
Lipids
"Fatty acids, total saturated",g,--,--,7.000,17.500
"Fatty acids, total trans",g,--,--,0.000,0.000
"Cholesterol",mg,--,--,5,12
Amino Acids
Other
Ingredients
"WHITE CHOCOLATE (SUGAR, COCOA BUTTER, WHOLE MILK, SOY LECITHIN, VANILLA), DARK CHOCOLATE (SUGAR, COCOA MASS [PROCESSED WITH ALKALI], COCOA BUTTER, BUTTER OIL, SOY LECITHIN, VANILLA), CORN SYRUP, SUGAR, CREAM (MILK), PALM KERNAL OIL, SALT, SOY LECITHIN, COLOR ADDED (BEET JUICE CONCENTRATE, TURMERIC, TITANIUM DIOXIDE), NATURAL FLAVOR, TAPIOCA SYRUP, TAPIOCA DEXTRIN, CONFECTIONER'S GLAZE." Date available: 07/14/2017 Date last updated by company: 07/14/2017
