Source: USDA Branded Food Products Database Release December 2017 Software v.3.8.6.4 2017-10-02
Report Run at: December 18, 2017 23:27 EST
"Nutrient data for: 45152817, CANDY STICKS, UPC: 083933220066"
Food Group:  Branded Food Products Database
Common Name:

Nutrient,Unit,Data points,Std. Error,"1 PKG = 2.5g",1Value per 100 g,
Proximates
"Energy",kcal,--,--,10,400
"Protein",g,--,--,0.00,0.00
"Total lipid (fat)",g,--,--,0.00,0.00
"Carbohydrate, by difference",g,--,--,2.00,80.00
"Sugars, total",g,--,--,2.00,80.00
Minerals
"Sodium, Na",mg,--,--,0,0
Vitamins
Lipids
"Fatty acids, total trans",g,--,--,0.000,0.000
Amino Acids
Other
Ingredients
"SUGAR, CORN STARCH, GLUCOSE SYRUP, TAPIOCA, BEEF GELATIN, ARTIFICIAL FLAVOURS." Date available: 07/14/2017 Date last updated by company: 07/14/2017
