Source: USDA Branded Food Products Database Release December 2017 Software v.3.8.6.4 2017-10-02
Report Run at: December 18, 2017 23:26 EST
"Nutrient data for: 45118046, CANDY ROLLS, UPC: 011206002668"
Food Group:  Branded Food Products Database
Common Name:

Nutrient,Unit,Data points,Std. Error,"1 ROLL = 7.0g",1Value per 100 g,
Proximates
"Energy",kcal,--,--,25,357
"Protein",g,--,--,0.00,0.00
"Total lipid (fat)",g,--,--,0.00,0.00
"Carbohydrate, by difference",g,--,--,6.00,85.71
"Sugars, total",g,--,--,6.00,85.71
Minerals
"Sodium, Na",mg,--,--,0,0
Vitamins
Lipids
Amino Acids
Other
Ingredients
"DEXTROSE, CITRIC ACID, CALCIUM STEARATE, NATURAL AND ARTIFICIAL FLAVORS COLORS, (RED 40 LAKE, YELLOW 5 LAKE, YELLOW 6 LAKE, BLUE 2 LAKE)." Date available: 10/07/2017 Date last updated by company: 10/07/2017
