Source: USDA Branded Food Products Database Release December 2017 Software v.3.8.6.4 2017-10-02
Report Run at: December 18, 2017 23:14 EST
"Nutrient data for: 45146557, CANDY AND STICKERS, UPC: 041376703607"
Food Group:  Branded Food Products Database
Common Name:

Nutrient,Unit,Data points,Std. Error,"1 PACKAGE = 28.0g",1Value per 100 g,
Proximates
"Energy",kcal,--,--,100,357
"Protein",g,--,--,0.00,0.00
"Total lipid (fat)",g,--,--,0.00,0.00
"Carbohydrate, by difference",g,--,--,25.00,89.29
"Sugars, total",g,--,--,19.00,67.86
Minerals
"Sodium, Na",mg,--,--,0,0
Vitamins
Lipids
Amino Acids
Other
Ingredients
"DRIED GLUCOSE SYRUP, GLUCOSE SYRUP, DEXTRIN, MAGNESIUM STEARATE, CITRIC ACID, ARTIFICIAL FLAVORS, ARTIFICIAL COLORS (RED 40, BLUE 1)." Date available: 07/14/2017 Date last updated by company: 07/14/2017
