Source: USDA Branded Food Products Database Release December 2017 Software v.3.8.6.4 2017-10-02
Report Run at: December 18, 2017 23:23 EST
"Nutrient data for: 45325410, CANDY & DISPENSER, UPC: 073621002333"
Food Group:  Branded Food Products Database
Common Name:

Nutrient,Unit,Data points,Std. Error,"1 ROLL = 9.0g",1Value per 100 g,
Proximates
"Energy",kcal,--,--,35,389
"Protein",g,--,--,0.00,0.00
"Total lipid (fat)",g,--,--,0.00,0.00
"Carbohydrate, by difference",g,--,--,9.00,100.00
"Fiber, total dietary",g,--,--,0.0,0.0
"Sugars, total",g,--,--,9.00,100.00
Minerals
"Calcium, Ca",mg,--,--,0,0
"Iron, Fe",mg,--,--,0.00,0.00
"Sodium, Na",mg,--,--,0,0
Vitamins
"Vitamin D",IU,--,--,0,0
Lipids
"Fatty acids, total saturated",g,--,--,0.000,0.000
"Fatty acids, total trans",g,--,--,0.000,0.000
"Cholesterol",mg,--,--,0,0
Amino Acids
Other
Ingredients
"SUGAR, CORN SYRUP, ADIPIC ACID, HYDROGENATED PALM KERNEL & PALM OIL, MONO & DIGLYCERIDES, NATURAL & ARTIFICIAL FLAVORS, ARTIFICIAL COLORS FD&C RED 3, YELLOW 5, YELLOW 6, BLUE 2." Date available: 08/16/2017 Date last updated by company: 08/16/2017
