Source: USDA Branded Food Products Database Release December 2017 Software v.3.8.6.4 2017-10-02
Report Run at: December 18, 2017 23:25 EST
"Nutrient data for: 45144567, CANDYRIFIC, CANDY, UPC: 609454648020"
Food Group:  Branded Food Products Database
Common Name:

Nutrient,Unit,Data points,Std. Error,"1 PACK = 8.0g",1Value per 100 g,
Proximates
"Energy",kcal,--,--,30,375
"Protein",g,--,--,0.00,0.00
"Total lipid (fat)",g,--,--,0.00,0.00
"Carbohydrate, by difference",g,--,--,7.00,87.50
"Fiber, total dietary",g,--,--,0.0,0.0
"Sugars, total",g,--,--,7.00,87.50
Minerals
"Calcium, Ca",mg,--,--,0,0
"Iron, Fe",mg,--,--,0.00,0.00
"Sodium, Na",mg,--,--,0,0
Vitamins
"Vitamin C, total ascorbic acid",mg,--,--,0.0,0.0
"Vitamin A, IU",IU,--,--,0,0
Lipids
"Fatty acids, total saturated",g,--,--,0.000,0.000
"Fatty acids, total trans",g,--,--,0.000,0.000
"Cholesterol",mg,--,--,0,0
Amino Acids
Other
Ingredients
"DEXTROSE, CALCIUM STEARATE, TAPIOCA DEXTRIN, CONFECTIONER'S GLAZE (SHELLAC), CARNAUBA WAX, NATURAL FLAVORS, NATURAL COLORS (TURMERIC, BETA CAROTENE, BEET POWDER)." Date available: 07/14/2017 Date last updated by company: 07/14/2017
