Source: USDA Branded Food Products Database Release December 2017 Software v.3.8.6.4 2017-10-02
Report Run at: December 18, 2017 23:25 EST
"Nutrient data for: 45283700, CANDY MUSTACHES, UPC: 070896260611"
Food Group:  Branded Food Products Database
Common Name:

Nutrient,Unit,Data points,Std. Error,"3.0 AVERAGE PIECES = 2.0g",1Value per 100 g,
Proximates
"Energy",kcal,--,--,5,250
"Protein",g,--,--,0.00,0.00
"Total lipid (fat)",g,--,--,0.00,0.00
"Carbohydrate, by difference",g,--,--,2.00,100.00
"Sugars, total",g,--,--,1.00,50.00
Minerals
"Sodium, Na",mg,--,--,0,0
Vitamins
Lipids
Amino Acids
Other
Ingredients
"DEXTROSE, CORN STARCH, DEXTRIN, MAGNESIUM STEARATE, GUM ARABIC, ARTIFICIAL FLAVOR, CONFECTIONERS' GLAZE, CARNAUBA WAX, FD&C YELLOW #5, FD&C RED #40, FD&C BLUE #1." Date available: 07/14/2017 Date last updated by company: 07/14/2017
