Source: USDA Branded Food Products Database Release December 2017 Software v.3.8.6.4 2017-10-02
Report Run at: December 18, 2017 23:44 EST
"Nutrient data for: 45323306, CANTINA SALSA, UPC: 719212950040"
Food Group:  Branded Food Products Database
Common Name:

Nutrient,Unit,Data points,Std. Error,"2.0 Tbsp = 33.0g",1Value per 100 g,
Proximates
"Energy",kcal,--,--,10,30
"Protein",g,--,--,1.00,3.03
"Total lipid (fat)",g,--,--,0.00,0.00
"Carbohydrate, by difference",g,--,--,2.00,6.06
"Sugars, total",g,--,--,0.00,0.00
Minerals
"Sodium, Na",mg,--,--,190,576
Vitamins
Lipids
Amino Acids
Other
Ingredients
"TOMATOES, JALAPENO PEPPERS, WATER, TOMATO PASTE, SALT, DEHYDRATED GARLIC" Date available: 07/14/2017 Date last updated by company: 07/14/2017
