Source: USDA Branded Food Products Database Release December 2017 Software v.3.8.6.4 2017-10-02
Report Run at: December 18, 2017 23:54 EST
"Nutrient data for: 45155721, CAP 10, SPARKLING MINERAL WATER, ORANGE-MANGO, UPC: 046121261487"
Food Group:  Branded Food Products Database
Common Name:

Nutrient,Unit,Data points,Std. Error,"8.0 OZA = 240.0g",1Value per 100 g,
Proximates
"Energy",kcal,--,--,0,0
"Protein",g,--,--,0.00,0.00
"Total lipid (fat)",g,--,--,0.00,0.00
"Carbohydrate, by difference",g,--,--,0.00,0.00
Minerals
"Calcium, Ca",mg,--,--,19,8
"Sodium, Na",mg,--,--,10,4
Vitamins
Lipids
"Fatty acids, total trans",g,--,--,0.000,0.000
Amino Acids
Other
Ingredients
"CARBONATED MINERAL WATER, NATURAL FLAVOR." Date available: 07/14/2017 Date last updated by company: 07/14/2017
