Source: USDA Branded Food Products Database Release December 2017 Software v.3.8.6.4 2017-10-02
Report Run at: December 18, 2017 23:48 EST
"Nutrient data for: 45162853, CAPE COD, POTATO CHIPS, SWEET & SPICY, UPC: 020685000317"
Food Group:  Branded Food Products Database
Common Name:

Nutrient,Unit,Data points,Std. Error,"18.0 CHIPS | APPROX. = 28.0g",1Value per 100 g,
Proximates
"Energy",kcal,--,--,150,536
"Protein",g,--,--,2.00,7.14
"Total lipid (fat)",g,--,--,8.00,28.57
"Carbohydrate, by difference",g,--,--,16.00,57.14
"Fiber, total dietary",g,--,--,1.0,3.6
"Sugars, total",g,--,--,1.00,3.57
Minerals
"Calcium, Ca",mg,--,--,0,0
"Iron, Fe",mg,--,--,0.64,2.29
"Sodium, Na",mg,--,--,160,571
Vitamins
"Vitamin C, total ascorbic acid",mg,--,--,21.4,76.5
"Vitamin A, IU",IU,--,--,0,0
Lipids
"Fatty acids, total saturated",g,--,--,0.501,1.790
"Fatty acids, total trans",g,--,--,0.000,0.000
"Cholesterol",mg,--,--,0,0
Amino Acids
Other
Ingredients
"POTATOES, CANOLA OIL, DEXTROSE, SALT, SUGAR, ONION POWDER, MALTODEXTRIN, TORULA YEAST, JALAPENO PEPPER POWDER, AUTOLYZED YEAST EXTRACT, GARLIC POWDER, GREEN BELL PEPPER POWDER, SPICE, NATURAL FLAVOR, PAPRIKA EXTRACT, CITRIC ACID (ACIDULANT), SODIUM DIACETATE." Date available: 07/14/2017 Date last updated by company: 07/14/2017
