Source: USDA Branded Food Products Database Release December 2017 Software v.3.8.6.4 2017-10-02
Report Run at: December 18, 2017 23:46 EST
"Nutrient data for: 45113309, CAPE COD, KETTLE COOKED POTATO CHIPS, JALAPENO, UPC: 020685079535"
Food Group:  Branded Food Products Database
Common Name:

Nutrient,Unit,Data points,Std. Error,"18.0 CHIPS | ABOUT = 28.0g",1Value per 100 g,
Proximates
"Energy",kcal,--,--,140,500
"Protein",g,--,--,2.00,7.14
"Total lipid (fat)",g,--,--,7.00,25.00
"Carbohydrate, by difference",g,--,--,18.00,64.29
"Fiber, total dietary",g,--,--,1.0,3.6
"Sugars, total",g,--,--,1.00,3.57
Minerals
"Calcium, Ca",mg,--,--,0,0
"Iron, Fe",mg,--,--,0.64,2.29
"Sodium, Na",mg,--,--,180,643
Vitamins
"Vitamin C, total ascorbic acid",mg,--,--,10.7,38.3
"Vitamin A, IU",IU,--,--,0,0
Lipids
"Fatty acids, total saturated",g,--,--,0.501,1.790
"Fatty acids, total trans",g,--,--,0.000,0.000
"Cholesterol",mg,--,--,0,0
Amino Acids
Other
Ingredients
"POTATOES, CANOLA OIL, DEXTROSE, SALT, SUGAR, ONION POWDER, MALTODEXTRIN, TORULA YEAST, JALAPENO PEPPER POWDER, GARLIC POWDER, YEAST EXTRACT, GREEN BELL PEPPER POWDER, CITRIC ACID, NATURAL FLAVOR, SPICE, DRY VINEGAR, PAPRIKA EXTRACT." Date available: 07/14/2017 Date last updated by company: 07/14/2017
