Source: USDA Branded Food Products Database Release December 2017 Software v.3.8.6.4 2017-10-02
Report Run at: December 18, 2017 23:46 EST
"Nutrient data for: 45015139, CAPE COD, KETTLE COOKED POTATO CHIPS, AGED WHITE CHEDDAR & SOUR CREAM, UPC: 020685001284"
Food Group:  Branded Food Products Database
Common Name:

Nutrient,Unit,Data points,Std. Error,"18.0 CHIPS | ABOUT = 28.0g",1Value per 100 g,
Proximates
"Energy",kcal,--,--,140,500
"Protein",g,--,--,1.00,3.57
"Total lipid (fat)",g,--,--,8.00,28.57
"Carbohydrate, by difference",g,--,--,17.00,60.71
"Fiber, total dietary",g,--,--,1.0,3.6
"Sugars, total",g,--,--,1.00,3.57
Minerals
"Calcium, Ca",mg,--,--,0,0
"Iron, Fe",mg,--,--,0.64,2.29
"Sodium, Na",mg,--,--,240,857
Vitamins
"Vitamin C, total ascorbic acid",mg,--,--,21.4,76.5
"Vitamin A, IU",IU,--,--,0,0
Lipids
"Fatty acids, total saturated",g,--,--,0.501,1.790
"Fatty acids, total trans",g,--,--,0.000,0.000
"Cholesterol",mg,--,--,0,0
Amino Acids
Other
Ingredients
"POTATOES, CANOLA OIL, SALT, WHEY, CHEDDAR, MONTEREY JACK, AND SWISS CHEESES (CULTURED MILK, SALT, ENZYMES), MALTODEXTRIN, SOUR CREAM BLEND (CULTURED CREAM, NONFAT DRY MILK), ONION POWDER, BUTTERMILK, NONFAT DRY MILK, DEXTROSE, VINEGAR POWDER, NATURAL FLAVORS, WHEY PROTEIN CONCENTRATE, DISODIUM PHOSPHATE, GARLIC POWDER, CITRIC ACID, YEAST, LACTIC ACID." Date available: 07/14/2017 Date last updated by company: 07/14/2017
