Source: USDA Branded Food Products Database Release December 2017 Software v.3.8.6.4 2017-10-02
Report Run at: December 18, 2017 23:47 EST
"Nutrient data for: 45224168, CAPE COD, KETTLE COOKED POTATO CHIPS, SEA SALT & VINEGAR, UPC: 020685000584"
Food Group:  Branded Food Products Database
Common Name:

Nutrient,Unit,Data points,Std. Error,"1 PACKGES = 53.2g",1Value per 100 g,
Proximates
"Energy",kcal,--,--,270,508
"Protein",g,--,--,3.00,5.64
"Total lipid (fat)",g,--,--,13.00,24.44
"Carbohydrate, by difference",g,--,--,35.00,65.79
"Fiber, total dietary",g,--,--,2.0,3.8
"Sugars, total",g,--,--,0.00,0.00
Minerals
"Calcium, Ca",mg,--,--,0,0
"Iron, Fe",mg,--,--,0.68,1.27
"Sodium, Na",mg,--,--,450,846
Vitamins
"Vitamin C, total ascorbic acid",mg,--,--,11.3,21.2
"Vitamin A, IU",IU,--,--,0,0
Lipids
"Fatty acids, total saturated",g,--,--,1.000,1.880
"Fatty acids, total trans",g,--,--,0.000,0.000
"Cholesterol",mg,--,--,0,0
Amino Acids
Other
Ingredients
"POTATOES, CANOLA OIL, MALTODEXTRIN, SEA SALT, VINEGAR POWDER, MALIC ACID, CITRIC ACID, SALT, DEXTROSE, ACETIC ACID, SUGAR, APPLE CIDER VINEGAR POWDER." Date available: 07/14/2017 Date last updated by company: 07/14/2017
