Source: USDA Branded Food Products Database Release December 2017 Software v.3.8.6.4 2017-10-02
Report Run at: December 18, 2017 23:50 EST
"Nutrient data for: 45168973, CAPE SEASONING, SOUL BLEND, UPC: 736211303059"
Food Group:  Branded Food Products Database
Common Name:

Nutrient,Unit,Data points,Std. Error,"0.7 GRM = 0.7g",1Value per 100 g,
Proximates
"Energy",kcal,--,--,0,0
"Protein",g,--,--,0.00,0.00
"Total lipid (fat)",g,--,--,0.00,0.00
"Carbohydrate, by difference",g,--,--,0.00,0.00
Minerals
"Sodium, Na",mg,--,--,55,7857
Vitamins
Lipids
"Cholesterol",mg,--,--,0,0
Amino Acids
Other
Ingredients
"GARLIC, ONION, CAYENNE PEPPER, BLACK PEPPER, SEA SALT, PAPRIKA, PARSLEY, BASIL, OREGANO AND THYME" Date available: 07/14/2017 Date last updated by company: 07/14/2017
