Source: USDA Branded Food Products Database Release December 2017 Software v.3.8.6.4 2017-10-02
Report Run at: December 18, 2017 23:46 EST
"Nutrient data for: 45023714, CAPE COD, KETTLE COOKED POTATO CHIPS, ORIGINAL, UPC: 020685185199"
Food Group:  Branded Food Products Database
Common Name:

Nutrient,Unit,Data points,Std. Error,"1 PACKAGE = 28.4g",1Value per 100 g,
Proximates
"Energy",kcal,--,--,140,493
"Protein",g,--,--,2.00,7.04
"Total lipid (fat)",g,--,--,8.00,28.17
"Carbohydrate, by difference",g,--,--,17.00,59.86
"Fiber, total dietary",g,--,--,1.0,3.5
"Sugars, total",g,--,--,0.00,0.00
Minerals
"Calcium, Ca",mg,--,--,0,0
"Iron, Fe",mg,--,--,0.63,2.23
"Sodium, Na",mg,--,--,150,528
Vitamins
"Vitamin C, total ascorbic acid",mg,--,--,21.1,74.4
"Vitamin A, IU",IU,--,--,0,0
Lipids
"Fatty acids, total saturated",g,--,--,0.500,1.760
"Fatty acids, total trans",g,--,--,0.000,0.000
"Cholesterol",mg,--,--,0,0
Amino Acids
Other
Ingredients
"POTATOES, CANOLA OIL, SALT." Date available: 06/25/2017 Date last updated by company: 06/25/2017
