Source: USDA Branded Food Products Database Release December 2017 Software v.3.8.6.4 2017-10-02
Report Run at: December 18, 2017 23:52 EST
"Nutrient data for: 45147456, CAPPUCCINO DRINK MIX, UPC: 051933349070"
Food Group:  Branded Food Products Database
Common Name:

Nutrient,Unit,Data points,Std. Error,"1 cup = 15.0g",1Value per 100 g,
Proximates
"Energy",kcal,--,--,80,533
"Protein",g,--,--,0.00,0.00
"Total lipid (fat)",g,--,--,4.50,30.00
"Carbohydrate, by difference",g,--,--,9.00,60.00
"Sugars, total",g,--,--,5.00,33.33
Minerals
"Sodium, Na",mg,--,--,170,1133
Vitamins
Lipids
"Fatty acids, total saturated",g,--,--,4.500,30.000
"Fatty acids, total trans",g,--,--,0.000,0.000
"Cholesterol",mg,--,--,0,0
Amino Acids
Other
Ingredients
"PARTIALLY HYDROGENATED VEGETABLE OIL (MAY CONTAIN COCONUT, SOYBEAN, SUNFLOWER, PALM AND/OR CANOLA), SUGAR, CORN SYRUP SOLIDS, INSTANT COFFEE, SODIUM CASEINATE, SALT, COCOA (PROCESSED WITH ALKALI), DIPOTASSIUM PHOSPHATE, NATURAL AND ARTIFICIAL FLAVORS, CORNSTARCH, MONO-AND DIGLYCERIDES, SILICON DIOXIDE, SOY LECITHIN, ARTIFICIAL COLOR, SUCRALOSE." Date available: 07/14/2017 Date last updated by company: 07/14/2017
