Source: USDA Branded Food Products Database Release December 2017 Software v.3.8.6.4 2017-10-02
Report Run at: December 18, 2017 23:52 EST
"Nutrient data for: 45155787, CAPPUCCINO GREAT COFFEE, UPC: 049177033060"
Food Group:  Branded Food Products Database
Common Name:

Nutrient,Unit,Data points,Std. Error,"1 cup = 15.0g",1Value per 100 g,
Proximates
"Energy",kcal,--,--,60,400
"Protein",g,--,--,0.00,0.00
"Total lipid (fat)",g,--,--,1.50,10.00
"Carbohydrate, by difference",g,--,--,11.00,73.33
"Fiber, total dietary",g,--,--,0.0,0.0
"Sugars, total",g,--,--,8.00,53.33
Minerals
"Calcium, Ca",mg,--,--,0,0
"Iron, Fe",mg,--,--,0.00,0.00
"Sodium, Na",mg,--,--,70,467
Vitamins
"Vitamin C, total ascorbic acid",mg,--,--,0.0,0.0
"Vitamin A, IU",IU,--,--,0,0
Lipids
"Fatty acids, total saturated",g,--,--,1.500,10.000
"Fatty acids, total trans",g,--,--,0.000,0.000
"Cholesterol",mg,--,--,0,0
Amino Acids
Other
Ingredients
"SUGAR, CREAMER [PARTIALLY HYDROGENATED COCONUT AND SOYBEAN OILS, CORN SYRUP SOLIDS, SODIUM CASEINATE (A MILK DERIVATIVE), DIPOTASSIUM PHOSPHATE, SUGAR, MONO- AND DIGLYCERIDES, SILICON DIOXIDE, SODIUM STEAROYL LACTYLATE, SOY LECITHIN, ARTIFICIAL FLAVOR, ANNATTO AND TURMERIC], MALTODEXTRIN, CORN SYRUP SOLIDS, WHEY, INSTANT COFFEE, COCOA (PROCESSED WITH ALKALI), SODIUM ALUMINOSILICATE (TO PREVENT CAKING), CELLULOSE GUM, SALT." Date available: 07/14/2017 Date last updated by company: 07/14/2017
