Source: USDA Branded Food Products Database Release December 2017 Software v.3.8.6.4 2017-10-02
Report Run at: December 18, 2017 23:53 EST
"Nutrient data for: 45153983, CAPPUCCINO, MADE WITH 100% PREMIUM ARABICA COFFEE, UPC: 812881021025"
Food Group:  Branded Food Products Database
Common Name:

Nutrient,Unit,Data points,Std. Error,"1.4 ONZ = 40.0g",1Value per 100 g,
Proximates
"Energy",kcal,--,--,210,525
"Protein",g,--,--,3.00,7.50
"Total lipid (fat)",g,--,--,14.00,35.00
"Carbohydrate, by difference",g,--,--,21.00,52.50
"Fiber, total dietary",g,--,--,1.0,2.5
"Sugars, total",g,--,--,19.00,47.50
Minerals
"Calcium, Ca",mg,--,--,100,250
"Iron, Fe",mg,--,--,0.45,1.12
"Sodium, Na",mg,--,--,70,175
Vitamins
"Vitamin C, total ascorbic acid",mg,--,--,0.0,0.0
"Vitamin A, IU",IU,--,--,125,312
Lipids
"Fatty acids, total saturated",g,--,--,8.000,20.000
"Fatty acids, total trans",g,--,--,0.000,0.000
"Cholesterol",mg,--,--,5,12
Amino Acids
Other
Ingredients
"SUGAR, COFFEE MASS: (MIXED FATS & OILS[*], COFFEE), DAIRY INGREDIENTS: (SKIM MILK POWDER, WHEY POWDER, BUTTER OIL), COCOA SOLIDS: (COCOA LIQUOR, COCOA POWDER), EMULSIFIERS: (SOY LECITHIN, PGPR), NATURAL VANILLA FLAVOR, SALT." Date available: 09/12/2017 Date last updated by company: 09/12/2017
