Source: USDA Branded Food Products Database Release December 2017 Software v.3.8.6.4 2017-10-02
Report Run at: December 18, 2017 23:52 EST
"Nutrient data for: 45154720, CAPPUCCINO CAFE STYLE DRINK MIX, UPC: 018400314450"
Food Group:  Branded Food Products Database
Common Name:

Nutrient,Unit,Data points,Std. Error,"3.0 Tbsp = 27.0g",1Value per 100 g,
Proximates
"Energy",kcal,--,--,120,444
"Protein",g,--,--,0.00,0.00
"Total lipid (fat)",g,--,--,3.50,12.96
"Carbohydrate, by difference",g,--,--,21.00,77.78
"Fiber, total dietary",g,--,--,0.0,0.0
"Sugars, total",g,--,--,15.00,55.56
Minerals
"Calcium, Ca",mg,--,--,0,0
"Iron, Fe",mg,--,--,0.00,0.00
"Sodium, Na",mg,--,--,210,778
Vitamins
"Vitamin C, total ascorbic acid",mg,--,--,0.0,0.0
"Vitamin A, IU",IU,--,--,0,0
Lipids
"Fatty acids, total saturated",g,--,--,3.499,12.960
"Fatty acids, total trans",g,--,--,0.000,0.000
"Cholesterol",mg,--,--,0,0
Amino Acids
Other
Ingredients
"SUGAR, NONDAIRY CREAMER (CORN SYRUP SOLIDS, HYDROGENATED COCONUT OIL, SODIUM CASEINATE (MILK DERIVATIVE), DIPOTASSIUM PHOSPHATE, SODIUM TRIPOLYPHOSPHATE, MONO AND DIGLYCERIDES, DATEM, SODIUM ALUMINOSILICATE, NATURAL FLAVOR), MALTODEXTRIN, INSTANT COFFEE, SALT, COCOA (PROCESSED WITH ALKALI), NATURAL AND ARTIFICIAL FLAVOR, CARBOXYLMETHYL CELLULOSE GUM, SILICON DIOXIDE (ANTICAKING AGENT)." Date available: 10/13/2017 Date last updated by company: 10/13/2017
