Source: USDA Branded Food Products Database Release December 2017 Software v.3.8.6.4 2017-10-02
Report Run at: December 18, 2017 23:53 EST
"Nutrient data for: 45324286, CAPPUCCINO MIX, UPC: 036069941039"
Food Group:  Branded Food Products Database
Common Name:

Nutrient,Unit,Data points,Std. Error,"1 SINGLE SERVE CUP = 15.0g",1Value per 100 g,
Proximates
"Energy",kcal,--,--,70,467
"Protein",g,--,--,0.00,0.00
"Total lipid (fat)",g,--,--,4.00,26.67
"Carbohydrate, by difference",g,--,--,9.00,60.00
"Fiber, total dietary",g,--,--,0.0,0.0
"Sugars, total",g,--,--,5.00,33.33
Minerals
"Calcium, Ca",mg,--,--,0,0
"Iron, Fe",mg,--,--,0.00,0.00
"Sodium, Na",mg,--,--,240,1600
Vitamins
"Vitamin C, total ascorbic acid",mg,--,--,0.0,0.0
"Vitamin A, IU",IU,--,--,0,0
Lipids
"Fatty acids, total saturated",g,--,--,3.499,23.330
"Fatty acids, total trans",g,--,--,0.000,0.000
"Cholesterol",mg,--,--,0,0
Amino Acids
Other
Ingredients
"CORN SYRUP SOLIDS, COCONUT OIL, SUGAR, SALT, MALTODEXTRIN, INSTANT COFFEE, NATURAL AND ARTIFICIAL FLAVOR, SODIUM CASEINATE, DIPOTASSIUM PHOSPHATE, MONO- AND DIGLYCERIDES, CORNSTARCH, SILICON DIOXIDE, SUCRALOSE, CELLULOSE GUM." Date available: 08/11/2017 Date last updated by company: 08/11/2017
