Source: USDA Branded Food Products Database Release December 2017 Software v.3.8.6.4 2017-10-02
Report Run at: December 19, 2017 00:07 EST
"Nutrient data for: 45214932, CARAMEL STRAWBERRY FILLED HARD CANDIES, UPC: 072799036881"
Food Group:  Branded Food Products Database
Common Name:

Nutrient,Unit,Data points,Std. Error,"2.0 PIECES = 12.0g",1Value per 100 g,
Proximates
"Energy",kcal,--,--,50,417
"Protein",g,--,--,0.00,0.00
"Total lipid (fat)",g,--,--,1.00,8.33
"Carbohydrate, by difference",g,--,--,10.00,83.33
"Fiber, total dietary",g,--,--,0.0,0.0
"Sugars, total",g,--,--,8.00,66.67
Minerals
"Calcium, Ca",mg,--,--,0,0
"Iron, Fe",mg,--,--,0.00,0.00
"Sodium, Na",mg,--,--,25,208
Vitamins
"Vitamin C, total ascorbic acid",mg,--,--,0.0,0.0
"Vitamin A, IU",IU,--,--,0,0
Lipids
"Fatty acids, total saturated",g,--,--,0.500,4.170
"Fatty acids, total trans",g,--,--,0.000,0.000
"Cholesterol",mg,--,--,5,42
Amino Acids
Other
Ingredients
"SUGAR, GLUCOSE SYRUP, GLUCOSE FRUCTOSE SYRUP, CREAM, CONDENSED WHEY, BUTTER, CONDENSED SKIMMED MILK, CANE SUGAR SYRUP, SALT, BUTTERFAT, CONCENTRATED STRAWBERRY JUICE, WHEY PRODUCT, ACIDIFIER (CITRIC ACID, LACTIC ACID), EMULSIFIER LECITHIN (SOY), ARTIFICIAL FLAVORS, COLOR ELDERBERRY JUICE." Date available: 07/14/2017 Date last updated by company: 07/14/2017
