Source: USDA Branded Food Products Database Release December 2017 Software v.3.8.6.4 2017-10-02
Report Run at: December 18, 2017 23:58 EST
"Nutrient data for: 45263798, CARAMEL CASHEW TRAIL MIX, UPC: 035826103833"
Food Group:  Branded Food Products Database
Common Name:

Nutrient,Unit,Data points,Std. Error,"0.25 cup = 30.0g",1Value per 100 g,
Proximates
"Energy",kcal,--,--,160,533
"Protein",g,--,--,4.00,13.33
"Total lipid (fat)",g,--,--,10.00,33.33
"Carbohydrate, by difference",g,--,--,14.00,46.67
"Fiber, total dietary",g,--,--,1.0,3.3
"Sugars, total",g,--,--,10.00,33.33
Minerals
"Calcium, Ca",mg,--,--,20,67
"Iron, Fe",mg,--,--,0.60,2.00
"Sodium, Na",mg,--,--,80,267
Vitamins
"Vitamin C, total ascorbic acid",mg,--,--,0.0,0.0
"Vitamin A, IU",IU,--,--,0,0
Lipids
"Fatty acids, total saturated",g,--,--,3.000,10.000
"Fatty acids, total trans",g,--,--,0.000,0.000
"Cholesterol",mg,--,--,0,0
Amino Acids
Other
Ingredients
"PEANUTS (PEANUTS, PEANUT OIL, SALT), MILK CHOCOLATE CARAMEL BITES (MILK CHOCOLATE [SUGAR, COCOA BUTTER, MILK, CHOCOLATE LIQUOR, SOY LECITHIN, ARTIFICIAL FLAVOR, SALT], CORN SYRUP, SWEETENED CONDENSED MILK [MILK, SKIM MILK, SUGAR], SUGAR, HYDROGENATED VEGETABLE OIL [PALM KERNEL AND SOYBEAN OIL], EVAPORATED MILK (MILK, VITAMIN D), SALT, NATURAL AND ARTIFICIAL FLAVOR, GUM ARABIC, MODIFIED CORNSTARCH, COCONUT OIL, CONFECTIONER'S GLAZE, XANTHAN GUM), CASHEWS (CASHEWS, PEANUT OIL, SALT), M&M'S MILK CHOCOLATE CANDIES (MILK CHOCOLATE [SUGAR, CHOCOLATE, SKIM MILK, COCOA BUTTER, LACTOSE, MILKFAT, SOY LECITHIN, SALT, ARTIFICIAL FLAVORS], SUGAR, CORNSTARCH, LESS THAN 1%- CORN SYRUP, DEXTRIN, COLORING [INCLUDES BLUE 1 LAKE, YELLOW 6, RED 40, YELLOW 5, BLUE 1, RED 40 LAKE, BLUE 2 LAKE, YELLOW 6 LAKE, YELLOW 5 LAKE, BLUE 2], GUM ACACIA)." Date available: 07/14/2017 Date last updated by company: 07/14/2017
