Source: USDA Branded Food Products Database Release December 2017 Software v.3.8.6.4 2017-10-02
Report Run at: December 19, 2017 00:07 EST
"Nutrient data for: 45326583, CARAMELS, UPC: 766684007376"
Food Group:  Branded Food Products Database
Common Name:

Nutrient,Unit,Data points,Std. Error,"3.0 PIECES = 38.0g",1Value per 100 g,
Proximates
"Energy",kcal,--,--,140,368
"Protein",g,--,--,1.00,2.63
"Total lipid (fat)",g,--,--,5.00,13.16
"Carbohydrate, by difference",g,--,--,23.00,60.53
"Fiber, total dietary",g,--,--,0.0,0.0
"Sugars, total",g,--,--,14.00,36.84
Minerals
"Calcium, Ca",mg,--,--,40,105
"Iron, Fe",mg,--,--,0.00,0.00
"Sodium, Na",mg,--,--,95,250
Vitamins
"Vitamin C, total ascorbic acid",mg,--,--,0.0,0.0
"Vitamin A, IU",IU,--,--,131,346
Lipids
"Fatty acids, total saturated",g,--,--,2.500,6.580
"Fatty acids, total trans",g,--,--,0.000,0.000
"Cholesterol",mg,--,--,10,26
Amino Acids
Other
Ingredients
"CORN SYRUP, SWEETENED CONDENSED MILK, CREAM, SUGAR, ALMONDS, BUTTER, EVAPORATED MILK, CHOCOLATE LIQUOR PROCESSED WITH ALKALI, PALM OIL, SEA SALT, ARTIFICIAL FLAVOR, BHA & BHT (TO PRESERVE FRESHNESS), DIPOTASSIUM PHOSPHATE, VITAMIN D3, GUAR GUM, CARRAGEENAN, LOCUST BEAN GUM, SOY LECITHIN (AN EMULSIFIER), EGG WHITES." Date available: 10/13/2017 Date last updated by company: 10/13/2017
