Source: USDA Branded Food Products Database Release December 2017 Software v.3.8.6.4 2017-10-02
Report Run at: December 19, 2017 00:06 EST
"Nutrient data for: 45272409, CARAMEL PUFFS, UPC: 028400639538"
Food Group:  Branded Food Products Database
Common Name:

Nutrient,Unit,Data points,Std. Error,"25.0 PIECES | ABOUT = 28.0g",1Value per 100 g,
Proximates
"Energy",kcal,--,--,160,571
"Protein",g,--,--,1.00,3.57
"Total lipid (fat)",g,--,--,10.00,35.71
"Carbohydrate, by difference",g,--,--,16.00,57.14
"Fiber, total dietary",g,--,--,1.0,3.6
"Sugars, total",g,--,--,4.00,14.29
Minerals
"Calcium, Ca",mg,--,--,19,68
"Iron, Fe",mg,--,--,0.36,1.29
"Potassium, K",mg,--,--,25,89
"Sodium, Na",mg,--,--,135,482
Vitamins
Lipids
"Fatty acids, total saturated",g,--,--,1.501,5.360
"Fatty acids, total trans",g,--,--,0.000,0.000
"Cholesterol",mg,--,--,0,0
Amino Acids
Other
Ingredients
"ENRICHED CORN MEAL (CORN MEAL, FERROUS SULFATE, NIACIN, THIAMIN MONONITRATE, RIBOFLAVIN, FOLIC ACID), VEGETABLE OIL (CORN, CANOLA AND/OR SUNFLOWER OIL), CARAMEL SEASONING (SUGAR, SKIM MILK, BROWN SUGAR, SALT, BUTTER [CREAM, SALT], GUM ARABIC, MALTODEXTRIN [MADE FROM CORN], LACTOSE SUNFLOWER OIL, NATURAL FLAVOR, ARTIFICIAL COLOR [YELLOW 6 LAKE, YELLOW 5 LAKE, BLUE 2 LAKE], AND BUTTERMILK)." Date available: 02/01/2017 Date last updated by company: 02/01/2017
