Source: USDA Branded Food Products Database Release December 2017 Software v.3.8.6.4 2017-10-02
Report Run at: December 19, 2017 00:04 EST
"Nutrient data for: 45092042, CARAMEL LIGHT ICE CREAM BARS, UPC: 075856001600"
Food Group:  Branded Food Products Database
Common Name:

Nutrient,Unit,Data points,Std. Error,"1 BAR = 83.0g",1Value per 100 g,
Proximates
"Energy",kcal,--,--,270,325
"Protein",g,--,--,2.00,2.41
"Total lipid (fat)",g,--,--,16.00,19.28
"Carbohydrate, by difference",g,--,--,30.00,36.14
"Fiber, total dietary",g,--,--,0.5,0.6
"Sugars, total",g,--,--,22.00,26.51
Minerals
"Calcium, Ca",mg,--,--,80,96
"Iron, Fe",mg,--,--,0.36,0.43
"Sodium, Na",mg,--,--,145,175
Vitamins
"Vitamin C, total ascorbic acid",mg,--,--,0.0,0.0
"Vitamin A, IU",IU,--,--,200,241
Lipids
"Fatty acids, total saturated",g,--,--,12.002,14.460
"Fatty acids, total trans",g,--,--,0.000,0.000
"Cholesterol",mg,--,--,15,18
Amino Acids
Other
Ingredients
"NONFAT MILK, SUGAR, COCONUT OIL, MILK, CORN SYRUP, PRETZEL PIECES (WHEAT FLOUR, WATER, MALT, CANOLA OIL, SALT, YEAST, BAKING SODA), CREAM, WHEY, CORN SYRUP SOLIDS, CHOCOLATE, LESS THAN 1% OF: BUTTER (CREAM, SALT), MILK FAT, SOYBEAN OIL, PECTIN, COCOA PROCESSED WITH ALKALI, SALT, MONO AND DIGLYCERIDES, SOY LECITHIN, LOCUST BEAN GUM, GUAR GUM, VANILLA EXTRACT, CARRAGEENAN, CARAMEL COLOR, ARTIFICIAL FLAVOR, NATURAL FLAVOR, VITAMIN A PALMITATE." Date available: 08/14/2017 Date last updated by company: 08/14/2017
