Source: USDA Branded Food Products Database Release December 2017 Software v.3.8.6.4 2017-10-02
Report Run at: December 19, 2017 00:03 EST
"Nutrient data for: 45258647, CARAMELIZED ONION & ROASTED RED PEPPER SAUCE, UPC: 895979001017"
Food Group:  Branded Food Products Database
Common Name:

Nutrient,Unit,Data points,Std. Error,"0.25 cup = 60.0g",1Value per 100 g,
Proximates
"Energy",kcal,--,--,130,217
"Protein",g,--,--,2.00,3.33
"Total lipid (fat)",g,--,--,12.00,20.00
"Carbohydrate, by difference",g,--,--,4.00,6.67
"Fiber, total dietary",g,--,--,1.0,1.7
"Sugars, total",g,--,--,2.00,3.33
Minerals
"Calcium, Ca",mg,--,--,60,100
"Iron, Fe",mg,--,--,0.00,0.00
"Sodium, Na",mg,--,--,280,467
Vitamins
"Vitamin C, total ascorbic acid",mg,--,--,37.5,62.5
"Vitamin A, IU",IU,--,--,833,1389
Lipids
"Fatty acids, total saturated",g,--,--,1.998,3.330
"Fatty acids, total trans",g,--,--,0.000,0.000
"Cholesterol",mg,--,--,5,8
Amino Acids
Other
Ingredients
"ONIONS, RED BELL PEPPERS, OLIVE OIL, PECORINO ROMANO PARMIGIANO CHEESES, ITALIAN PARSLEY, AND SPICES." Date available: 07/14/2017 Date last updated by company: 07/14/2017
