Source: USDA Branded Food Products Database Release December 2017 Software v.3.8.6.4 2017-10-02
Report Run at: December 19, 2017 00:03 EST
"Nutrient data for: 45267658, CARAMEL JELLY ROLL, UPC: 610878500177"
Food Group:  Branded Food Products Database
Common Name:

Nutrient,Unit,Data points,Std. Error,"2.0 ONZ = 57.0g",1Value per 100 g,
Proximates
"Energy",kcal,--,--,174,305
"Protein",g,--,--,3.00,5.26
"Total lipid (fat)",g,--,--,3.00,5.26
"Carbohydrate, by difference",g,--,--,33.00,57.89
"Fiber, total dietary",g,--,--,0.0,0.0
"Sugars, total",g,--,--,24.00,42.11
Minerals
"Calcium, Ca",mg,--,--,30,53
"Iron, Fe",mg,--,--,0.79,1.39
"Sodium, Na",mg,--,--,94,165
Vitamins
"Vitamin C, total ascorbic acid",mg,--,--,0.0,0.0
"Vitamin A, IU",IU,--,--,438,769
Lipids
"Fatty acids, total saturated",g,--,--,0.998,1.750
"Fatty acids, total trans",g,--,--,0.000,0.000
"Cholesterol",mg,--,--,34,60
Amino Acids
Other
Ingredients
"MILK CARAMEL (NON-FAT MILK, SUGAR, GLUCOSE, SOYBEAN OIL, SODIUM BICARBONATE, POTASSIUM SORBATE), SUGAR, WATER, EGGS, BLEACHED WHEAT FLOUR, WHIPPED CREAM (WATER, PARTIALLY HYDROGENATED PALM KERNEL OIL, SUGAR, CORN SYRUP, CONTAINS LESS THAN 2% OF: POLISORBATE 60, CARBOHYDRATE GUM, ARTIFICIAL FLAVOR, SALT, SODIUM STEAROYL LACTYLATE, SORBITAN MONOSTEARATE, SODIUM CITRATE, SOY LECITHIN, XANTHAN GUM, COLORED WITH ANNATTO), NATURAL SLICED ALMONDS, CORN SYRUP, BAKING POWDER (SODIUM ACID PYROPHOSPHATE, SODIUM BICARBONATE, CORN STARCH, MONOCALCIUM PHOSPHATE), EMULSIFIER (WATER, SORBITAN MONOESTEARATE, POILISORBATE 60, MONO -DIGLYCERIDES, SODIUM PROPIONATE, AND PHOSPHORIC ACID), NON FAT DRY MILK, N & A VANILLA FLAVOR (CONTAINS SULFITES), PIE CREAM FILLING (FOOD STARCH MODIFIED, DEXTROSE, SALT, TITANIUM DIOXIDE, SODIUM PROPIONATE, POTASSIUM SORBATE, BETA CAROTENE, ARTIFICIAL FLAVOR), SALT, POTASSIUM SORBATE, SORBIC ACID AND CALCIUM PROPIONATE (PRESERVATIVES) AND CINNAMON STICKS." Date available: 07/14/2017 Date last updated by company: 07/14/2017
