Source: USDA Branded Food Products Database Release December 2017 Software v.3.8.6.4 2017-10-02
Report Run at: December 19, 2017 00:01 EST
"Nutrient data for: 45121479, CARAMEL DEER TRAXX ICE CREAM, UPC: 070438101792"
Food Group:  Branded Food Products Database
Common Name:

Nutrient,Unit,Data points,Std. Error,"0.5 cup = 64.0g",1Value per 100 g,
Proximates
"Energy",kcal,--,--,150,234
"Protein",g,--,--,2.00,3.12
"Total lipid (fat)",g,--,--,7.00,10.94
"Carbohydrate, by difference",g,--,--,19.00,29.69
"Fiber, total dietary",g,--,--,0.0,0.0
"Sugars, total",g,--,--,16.00,25.00
Minerals
"Calcium, Ca",mg,--,--,80,125
"Iron, Fe",mg,--,--,0.00,0.00
"Sodium, Na",mg,--,--,70,109
Vitamins
"Vitamin C, total ascorbic acid",mg,--,--,1.3,2.1
"Vitamin A, IU",IU,--,--,225,352
Lipids
"Fatty acids, total saturated",g,--,--,4.499,7.030
"Fatty acids, total trans",g,--,--,0.000,0.000
"Cholesterol",mg,--,--,25,39
Amino Acids
Other
Ingredients
"MILK, CREAM, SUGAR, CORN SYRUP, HIGH FRUCTOSE CORN SYRUP, SKIM MILK, WHEY, BUTTERMILK, COCONUT OIL, SWEETENED CONDENSED MILK, BUTTER, MODIFIED FOOD STARCH, ALKALIZED COCOA, MONO AND DIGLYCERIDES, NATURAL FLAVORS, ARTIFICIAL FLAVOR, SALT, CELLULOSE GUM, PALM KERNEL OIL, SOY LECITHIN, SODIUM CITRATE, SODIUM BICARBONATE, GUAR GUM, POLYSORBATE 80, ANNATTO (COLOR), CARRAGEENAN." Date available: 07/14/2017 Date last updated by company: 07/14/2017
