Source: USDA Branded Food Products Database Release December 2017 Software v.3.8.6.4 2017-10-02
Report Run at: December 19, 2017 00:07 EST
"Nutrient data for: 45269353, CARAMELS, UPC: 854794006287"
Food Group:  Branded Food Products Database
Common Name:

Nutrient,Unit,Data points,Std. Error,"4.0 PIECES = 41.0g",1Value per 100 g,
Proximates
"Energy",kcal,--,--,180,439
"Protein",g,--,--,0.00,0.00
"Total lipid (fat)",g,--,--,8.00,19.51
"Carbohydrate, by difference",g,--,--,28.00,68.29
"Fiber, total dietary",g,--,--,0.0,0.0
"Sugars, total",g,--,--,18.00,43.90
Minerals
"Calcium, Ca",mg,--,--,20,49
"Iron, Fe",mg,--,--,0.00,0.00
"Sodium, Na",mg,--,--,55,134
Vitamins
"Vitamin C, total ascorbic acid",mg,--,--,0.0,0.0
"Vitamin A, IU",IU,--,--,366,893
Lipids
"Fatty acids, total saturated",g,--,--,5.002,12.200
"Fatty acids, total trans",g,--,--,0.000,0.000
"Cholesterol",mg,--,--,25,61
Amino Acids
Other
Ingredients
"ORIGINAL, SEA SALT, VANILLA" Date available: 07/14/2017 Date last updated by company: 07/14/2017
