Source: USDA Branded Food Products Database Release December 2017 Software v.3.8.6.4 2017-10-02
Report Run at: December 18, 2017 23:58 EST
"Nutrient data for: 45104838, CARAMEL CASHEW TRAIL MIX, UPC: 021130294213"
Food Group:  Branded Food Products Database
Common Name:

Nutrient,Unit,Data points,Std. Error,"3.0 Tbsp = 30.0g",1Value per 100 g,
Proximates
"Energy",kcal,--,--,160,533
"Protein",g,--,--,4.00,13.33
"Total lipid (fat)",g,--,--,10.00,33.33
"Carbohydrate, by difference",g,--,--,14.00,46.67
"Fiber, total dietary",g,--,--,1.0,3.3
"Sugars, total",g,--,--,9.00,30.00
Minerals
"Calcium, Ca",mg,--,--,20,67
"Iron, Fe",mg,--,--,1.20,4.00
"Sodium, Na",mg,--,--,80,267
Vitamins
"Vitamin C, total ascorbic acid",mg,--,--,0.0,0.0
"Vitamin A, IU",IU,--,--,0,0
Lipids
"Fatty acids, total saturated",g,--,--,3.000,10.000
"Fatty acids, total trans",g,--,--,0.000,0.000
"Cholesterol",mg,--,--,0,0
Amino Acids
Other
Ingredients
"PEANUTS (PEANUT, PEANUT OIL, SALT), MILK CHOCOLATE CARAMEL BITES(MILK CHOCOLATE[SUGAR, COCOA BUTTER, MILK, CHOCOLATE LIQUOR, SOY LECITHIN ARTIFICIAL FLAVORS, SALT], CORN SYRUP, SWEETENED CONDENSED MILK[MILK, SKIM MILK, SUGAR], SUGAR, PARTIALLY HYDROGENATED VEGETABLE OIL [PALM KERNEL, SOYBEAN, COTTONSEED, COCONUT AND/OR PALM OIL], EVAPORATED MILK, SALT, NATURAL AND ARTIFICIAL FLAVOR, GUM ARABIC, MODIFIED CORN STARCH, CONFECTIONERS GLAZE, XANTHAN GUM), M&M'S MILK CHOCOLATE CANDIES (MILK CHOCOLATE[SUGAR, CHOCOLATE, SKIM MILK, COCOA BUTTE, LACTOSE, MILKFAT SOY LECITHIN, SALT, ARTIFICIAL FLAVORS], SUGAR, CORNSTARCH, CONTAINS LESS THAN 1% OF: CORN SYRUP, DEXTRIN, COLORING (INCLUDES RED 40 LAKE, RED 40 BLUE 1, YELLOW 6, 1 LAKE, YELLOW 5, BLUE 2 LAKE, YELLOW 6 LAKE, YELLOW 5 LAKE, BLUE 2] , GUM ACACIA), CASHEWS (CASHEWS, PEANUT OIL, SALT)." Date available: 06/25/2017 Date last updated by company: 06/25/2017
