Source: USDA Branded Food Products Database Release December 2017 Software v.3.8.6.4 2017-10-02
Report Run at: December 18, 2017 23:57 EST
"Nutrient data for: 45184549, CARAMEL APPLE WITH PEANUTS, UPC: 628055012023"
Food Group:  Branded Food Products Database
Common Name:

Nutrient,Unit,Data points,Std. Error,"1 GRAMS = 150.0g",1Value per 100 g,
Proximates
"Energy",kcal,--,--,300,200
"Protein",g,--,--,7.00,4.67
"Total lipid (fat)",g,--,--,12.00,8.00
"Carbohydrate, by difference",g,--,--,37.01,24.67
"Fiber, total dietary",g,--,--,3.0,2.0
"Sugars, total",g,--,--,34.99,23.33
Minerals
"Calcium, Ca",mg,--,--,60,40
"Iron, Fe",mg,--,--,1.00,0.67
"Sodium, Na",mg,--,--,130,87
Vitamins
"Vitamin C, total ascorbic acid",mg,--,--,5.5,3.7
"Vitamin A, IU",IU,--,--,93,62
Lipids
"Fatty acids, total saturated",g,--,--,1.995,1.330
"Fatty acids, total trans",g,--,--,0.000,0.000
"Cholesterol",mg,--,--,2,1
Amino Acids
Other
Ingredients
"APPLE, PEANUTS, CORN SYRUP, SUGAR, CONDENSED MILK, SHORTENING (HYDROGENATED PALM KERNEL OIL & SOY LECITHIN), EVAPORATED MILK, NATURAL & ARTIFICIAL FLAVORS, CARRAGEENAN, SALT." Date available: 10/13/2017 Date last updated by company: 10/13/2017
