Source: USDA Branded Food Products Database Release December 2017 Software v.3.8.6.4 2017-10-02
Report Run at: December 19, 2017 00:10 EST
"Nutrient data for: 45241580, CARBONATED SOFT DRINK, UPC: 4987035089315"
Food Group:  Branded Food Products Database
Common Name:

Nutrient,Unit,Data points,Std. Error,"120.0 MLT = 120.0g",1Value per 100 g,
Proximates
"Energy",kcal,--,--,79,66
"Protein",g,--,--,0.00,0.00
"Total lipid (fat)",g,--,--,0.00,0.00
"Carbohydrate, by difference",g,--,--,19.00,15.83
"Fiber, total dietary",g,--,--,0.0,0.0
"Sugars, total",g,--,--,19.00,15.83
Minerals
"Sodium, Na",mg,--,--,2,2
Vitamins
Lipids
"Fatty acids, total saturated",g,--,--,0.000,0.000
"Fatty acids, total trans",g,--,--,0.000,0.000
"Cholesterol",mg,--,--,0,0
Amino Acids
Other
Ingredients
"SUGAR, HIGH FRUCTOSE CORN SYRUP, HONEY, SALT, ARTIFICIAL FLAVOR, VITAMIN C, CITRIC ACID, CAFEINE, NIACINAMIDE, VITAMIN B6 & B2, VITAMIN P ISOLEUCINE, TREONINE, PHENYLALANINE, MONOSODIUM GLUTAMATE." Date available: 07/14/2017 Date last updated by company: 07/14/2017
