Source: USDA Branded Food Products Database Release December 2017 Software v.3.8.6.4 2017-10-02
Report Run at: December 19, 2017 00:11 EST
"Nutrient data for: 45112776, CARDINI'S, LIGHT GREEK VINAIGRETTE DRESSING, UPC: 071475010962"
Food Group:  Branded Food Products Database
Common Name:

Nutrient,Unit,Data points,Std. Error,"2.0 Tbsp = 30.0g",1Value per 100 g,
Proximates
"Energy",kcal,--,--,50,167
"Protein",g,--,--,0.00,0.00
"Total lipid (fat)",g,--,--,4.50,15.00
"Carbohydrate, by difference",g,--,--,2.00,6.67
"Fiber, total dietary",g,--,--,0.0,0.0
"Sugars, total",g,--,--,2.00,6.67
Minerals
"Calcium, Ca",mg,--,--,0,0
"Iron, Fe",mg,--,--,0.00,0.00
"Sodium, Na",mg,--,--,280,933
Vitamins
"Vitamin C, total ascorbic acid",mg,--,--,0.0,0.0
"Vitamin A, IU",IU,--,--,0,0
Lipids
"Fatty acids, total saturated",g,--,--,0.999,3.330
"Fatty acids, total trans",g,--,--,0.000,0.000
"Cholesterol",mg,--,--,0,0
Amino Acids
Other
Ingredients
"WATER, SOYBEAN OIL, RED WINE VINEGAR, DISTILLED VINEGAR, FETA CHEESE (PART SKIM MILK, CHEESE CULTURES, SALT, ENZYMES), SUGAR, SALT, DEHYDRATED GARLIC, EXTRA VIRGIN OLIVE OIL, SPICES, MUSTARD GARLIC, EXTRA VIRGIN OLIVE OIL, CONCENTRATE, CULTURED WHEY, POTASSIUM SORBATE AND SODIUM BENZOATE ADDED AS PRESERVATIVE, XANTHAN GUM, NATURAL FLAVOR, ANNATTO COLOR." Date available: 06/25/2017 Date last updated by company: 06/25/2017
