Source: USDA Branded Food Products Database Release December 2017 Software v.3.8.6.4 2017-10-02
Report Run at: December 19, 2017 00:15 EST
"Nutrient data for: 45152028, CARMARSH DARK CHOCOLATE, UPC: 052745728671"
Food Group:  Branded Food Products Database
Common Name:

Nutrient,Unit,Data points,Std. Error,"2.0 PIECES = 40.0g",1Value per 100 g,
Proximates
"Energy",kcal,--,--,160,400
"Protein",g,--,--,1.00,2.50
"Total lipid (fat)",g,--,--,7.00,17.50
"Carbohydrate, by difference",g,--,--,25.00,62.50
"Fiber, total dietary",g,--,--,1.0,2.5
"Sugars, total",g,--,--,18.00,45.00
Minerals
"Calcium, Ca",mg,--,--,20,50
"Iron, Fe",mg,--,--,0.45,1.12
"Sodium, Na",mg,--,--,20,50
Vitamins
"Vitamin C, total ascorbic acid",mg,--,--,0.0,0.0
"Vitamin A, IU",IU,--,--,125,312
Lipids
"Fatty acids, total saturated",g,--,--,4.000,10.000
"Fatty acids, total trans",g,--,--,0.000,0.000
"Cholesterol",mg,--,--,5,12
Amino Acids
Other
Ingredients
"DARK CHOCOLATE (SUGAR, CHOCOLATE LIQUOR (PROCESSED WITH ALKALI), COCOA BUTTER, MILK, BUTTER FAT, SOY LECITHIN (AN EMULSFIER), VANILLA), CORN SYRUP, SWEETENED CONDENSED MILK (MILK, SUGAR, SKIM MILK), SUGAR, BROWN SUGAR, WATER, DARK CONFECTION (SUGAR, PALM KERNEL OIL, COCOA PROCESSED WITH ALKALI, LACTOSE (FROM MILK), SOY LECITHIN, SORBITAN TRISTEARATE, NATURAL VANILLA EXTRACT), GELATIN BUTTER (CREAM, SALT), CREAM, INVERT SUGAR, PARTIALLY HYDROGENATED VEGETABLE OIL (COTTONSEED, SOYBEAN), GELATIN EGG WHITES, SALT, NATURAL AND ARTIFICIAL VANILLA FLAVOR (GLYCERINE, PROPYLENE GLYCOL, WATER, SUGAR, CARAMEL COLOR (SULFITES), ALCOHOL, SODIUM BENZOATE AND POTASSIUM SORBATE), CON" Date available: 07/14/2017 Date last updated by company: 07/14/2017
