Source: USDA Branded Food Products Database Release December 2017 Software v.3.8.6.4 2017-10-02
Report Run at: December 19, 2017 00:15 EST
"Nutrient data for: 45217846, CARNE ASADA SOUP, UPC: 20043049"
Food Group:  Branded Food Products Database
Common Name:

Nutrient,Unit,Data points,Std. Error,"1 CONTAINER = 312.0g",1Value per 100 g,
Proximates
"Energy",kcal,--,--,240,77
"Protein",g,--,--,13.01,4.17
"Total lipid (fat)",g,--,--,10.02,3.21
"Carbohydrate, by difference",g,--,--,24.99,8.01
"Fiber, total dietary",g,--,--,5.0,1.6
"Sugars, total",g,--,--,6.99,2.24
Minerals
"Calcium, Ca",mg,--,--,59,19
"Iron, Fe",mg,--,--,2.12,0.68
"Sodium, Na",mg,--,--,789,253
Vitamins
"Vitamin C, total ascorbic acid",mg,--,--,28.4,9.1
"Vitamin A, IU",IU,--,--,786,252
Lipids
"Fatty acids, total saturated",g,--,--,2.496,0.800
"Fatty acids, total trans",g,--,--,0.000,0.000
"Cholesterol",mg,--,--,25,8
Amino Acids
Other
Ingredients
"TOMATOES (TOMATO, TOMATO JUICE, SALT, CALCIUM CHLORIDE, CITRIC ACID), WATER, COOKED BEEF [BEEF, WATER, CONTAINS LESS THAN 2% OF: SOY SAUCE, WATER, WHEAT, SOYBEAN, SALT), MODIFIED POTATO STARCH, NATURAL FLAVOR, SOYBEAN OIL, LIME JUICE POWDER (CORN SYRUP, LIME JUICE, LIME OIL), SODIUM PHOSPHATE, SPICES], BLACK BEANS (BLACK BEANS, WATER, SALT, CALCIUM CHLORIDE), CORN, KIDNEY BEANS, BELL PEPPER, ONION, SALT, CANOLA OIL, BEEF BASE (BEEF STOCK, NATURAL FLAVOR, SALT, YEAST EXTRACT, SUGAR, BEEF FAT), SUGAR, JALAPENO PEPPER, CORN STARCH, GARLIC PUREE, CHIPOTLE POWDER, CILANTRO, ANCHO CHILI POWDER, SMOKED PAPRIKA (PAPRIKA, SILICON DIOXIDE, ETHOXYQUIN, SMOKE OIL), CUMIN POWDER." Date available: 07/14/2017 Date last updated by company: 07/14/2017
