Source: USDA Branded Food Products Database Release December 2017 Software v.3.8.6.4 2017-10-02
Report Run at: December 19, 2017 00:18 EST
"Nutrient data for: 45147146, CAROUSEL, EASTER BUBBLE GUM, UPC: 042897655215"
Food Group:  Branded Food Products Database
Common Name:

Nutrient,Unit,Data points,Std. Error,"2.0 PIECES = 4.0g",1Value per 100 g,
Proximates
"Energy",kcal,--,--,10,250
"Protein",g,--,--,0.00,0.00
"Total lipid (fat)",g,--,--,0.00,0.00
"Carbohydrate, by difference",g,--,--,3.00,75.00
"Sugars, total",g,--,--,3.00,75.00
Minerals
"Sodium, Na",mg,--,--,0,0
Vitamins
Lipids
Amino Acids
Other
Ingredients
"SUGAR, GLUCOSE SYRUP, GUM BASE, CORN STARCH, ARTIFICIAL FLAVORS, CITRIC ACID, GLYCERINE, SOY LECITHIN, MALIC ACID, GUM ARABIC, CARNAUBA WAX, ARTIFICIAL COLORS (RED 40, YELLOW 5, YELLOW 6, BLUE 1), BHT (TO MAINTAIN FRESHNESS)." Date available: 07/14/2017 Date last updated by company: 07/14/2017
