Source: USDA Branded Food Products Database Release December 2017 Software v.3.8.6.4 2017-10-02
Report Run at: December 19, 2017 00:23 EST
"Nutrient data for: 45182511, CARROTS & FETA, UPC: 041268203475"
Food Group:  Branded Food Products Database
Common Name:

Nutrient,Unit,Data points,Std. Error,"110.0 GRM = 110.0g",1Value per 100 g,
Proximates
"Energy",kcal,--,--,100,91
"Protein",g,--,--,2.00,1.82
"Total lipid (fat)",g,--,--,6.00,5.45
"Carbohydrate, by difference",g,--,--,8.00,7.27
"Fiber, total dietary",g,--,--,2.0,1.8
"Sugars, total",g,--,--,5.00,4.55
Minerals
"Calcium, Ca",mg,--,--,0,0
"Iron, Fe",mg,--,--,0.00,0.00
"Sodium, Na",mg,--,--,460,418
Vitamins
"Vitamin C, total ascorbic acid",mg,--,--,0.0,0.0
"Vitamin A, IU",IU,--,--,2273,2066
Lipids
"Fatty acids, total saturated",g,--,--,5.995,5.450
"Fatty acids, total trans",g,--,--,0.000,0.000
"Cholesterol",mg,--,--,15,14
Amino Acids
Other
Ingredients
"CARROTS, FETA CHEESE (PASTEURIZED PART SKIM MILK, CULTURES, SALT, ENZYMES), OLIVE OIL, SALT, SUMAC (SUMAC, SOUR SALT), BLACK PEPPER, NISIN, PHOSPHORIC ACID , MINT." Date available: 10/11/2017 Date last updated by company: 10/11/2017
