Source: USDA Branded Food Products Database Release December 2017 Software v.3.8.6.4 2017-10-02
Report Run at: December 19, 2017 00:21 EST
"Nutrient data for: 45285776, CARROT GINGER SOUP, UPC: 880632002647"
Food Group:  Branded Food Products Database
Common Name:

Nutrient,Unit,Data points,Std. Error,"1 cup = 241.0g",1Value per 100 g,
Proximates
"Energy",kcal,--,--,140,58
"Protein",g,--,--,2.00,0.83
"Total lipid (fat)",g,--,--,8.00,3.32
"Carbohydrate, by difference",g,--,--,14.00,5.81
"Fiber, total dietary",g,--,--,2.9,1.2
"Sugars, total",g,--,--,6.99,2.90
Minerals
"Calcium, Ca",mg,--,--,41,17
"Iron, Fe",mg,--,--,0.72,0.30
"Sodium, Na",mg,--,--,610,253
Vitamins
"Vitamin C, total ascorbic acid",mg,--,--,9.2,3.8
"Vitamin A, IU",IU,--,--,16774,6960
Lipids
"Fatty acids, total saturated",g,--,--,6.989,2.900
"Fatty acids, total trans",g,--,--,0.000,0.000
"Cholesterol",mg,--,--,0,0
Amino Acids
Other
Ingredients
"WATER, CARROT, COCONUT MILK (COCONUT EXTRACT, WATER, XANTHAN GUM), CARROT JUICE CONCENTRATE, GINGER, ONION, TAMARI (WATER, ORGANIC WHOLE SOYBEANS, SALT, ORGANIC VINEGAR), RICE STARCH, LIME JUICE, SEA SALT, BROWN SUGAR, OLIVE OIL, SPICES, NISIN." Date available: 07/14/2017 Date last updated by company: 07/14/2017
