Source: USDA Branded Food Products Database Release December 2017 Software v.3.8.6.4 2017-10-02
Report Run at: December 19, 2017 00:21 EST
"Nutrient data for: 45263473, CARROT DIPPERS WITH RANCH DIP, UPC: 078783602094"
Food Group:  Branded Food Products Database
Common Name:

Nutrient,Unit,Data points,Std. Error,"1 SNACK PACK (APPROX. 57G CARROTS & 14G RANCH DIP) = 71.0g",1Value per 100 g,
Proximates
"Energy",kcal,--,--,50,70
"Protein",g,--,--,1.00,1.41
"Total lipid (fat)",g,--,--,3.00,4.23
"Carbohydrate, by difference",g,--,--,6.00,8.45
"Fiber, total dietary",g,--,--,2.0,2.8
"Sugars, total",g,--,--,4.00,5.63
Minerals
"Calcium, Ca",mg,--,--,20,28
"Iron, Fe",mg,--,--,0.26,0.36
"Sodium, Na",mg,--,--,160,225
Vitamins
"Vitamin C, total ascorbic acid",mg,--,--,3.4,4.8
"Vitamin A, IU",IU,--,--,2817,3968
Lipids
"Fatty acids, total saturated",g,--,--,0.000,0.000
"Fatty acids, total trans",g,--,--,0.000,0.000
"Cholesterol",mg,--,--,5,7
Amino Acids
Other
Ingredients
"CARROTS, RANCH DIP, (CULTURED BUTTERMILK, CANOLA OIL, WATER, EGG YOLK, SALT, DISTILLED VINEGAR, SUGAR, MODIFIED CORN STARCH, DRIED ONION, GREEN ONIONS, CIDER VINEGAR, DRIED GARLIC, XANTHAN GUM, SKIM MILK POWDER BLEND (DAIRY WHEY, SODIUM CASEINATE, SKIM MILK POWDER), SPICES)." Date available: 07/14/2017 Date last updated by company: 07/14/2017
