Source: USDA Branded Food Products Database Release December 2017 Software v.3.8.6.4 2017-10-02
Report Run at: December 19, 2017 00:24 EST
"Nutrient data for: 45212859, CARROTS, UPC: 864098000003"
Food Group:  Branded Food Products Database
Common Name:

Nutrient,Unit,Data points,Std. Error,"1 MEDIUM CARROT = 78.0g",1Value per 100 g,
Proximates
"Energy",kcal,--,--,30,38
"Protein",g,--,--,1.00,1.28
"Total lipid (fat)",g,--,--,0.00,0.00
"Carbohydrate, by difference",g,--,--,7.00,8.97
"Fiber, total dietary",g,--,--,2.0,2.6
"Sugars, total",g,--,--,5.00,6.41
Minerals
"Calcium, Ca",mg,--,--,20,26
"Iron, Fe",mg,--,--,0.39,0.50
"Potassium, K",mg,--,--,250,321
"Sodium, Na",mg,--,--,60,77
Vitamins
"Vitamin C, total ascorbic acid",mg,--,--,6.6,8.4
"Vitamin A, IU",IU,--,--,5994,7684
Lipids
"Fatty acids, total saturated",g,--,--,0.000,0.000
"Fatty acids, total trans",g,--,--,0.000,0.000
"Cholesterol",mg,--,--,0,0
Amino Acids
Other
Ingredients
"CARROTS." Date available: 07/14/2017 Date last updated by company: 07/14/2017
