Source: USDA Branded Food Products Database Release December 2017 Software v.3.8.6.4 2017-10-02
Report Run at: December 19, 2017 00:26 EST
"Nutrient data for: 45313070, CARR'S, THIN SAVOURY CRACKERS, POPPY & SESAME, UPC: 059290574531"
Food Group:  Branded Food Products Database
Common Name:

Nutrient,Unit,Data points,Std. Error,"4.0 CRACKERS = 16.0g",1Value per 100 g,
Proximates
"Energy",kcal,--,--,80,500
"Protein",g,--,--,1.00,6.25
"Total lipid (fat)",g,--,--,4.00,25.00
"Carbohydrate, by difference",g,--,--,10.00,62.50
"Fiber, total dietary",g,--,--,1.0,6.2
"Sugars, total",g,--,--,0.00,0.00
Minerals
"Calcium, Ca",mg,--,--,20,125
"Iron, Fe",mg,--,--,2.25,14.06
"Sodium, Na",mg,--,--,80,500
Vitamins
"Vitamin C, total ascorbic acid",mg,--,--,0.0,0.0
"Vitamin A, IU",IU,--,--,0,0
Lipids
"Fatty acids, total saturated",g,--,--,0.499,3.120
"Fatty acids, total trans",g,--,--,1.000,6.250
"Cholesterol",mg,--,--,0,0
Amino Acids
Other
Ingredients
"ENRICHED FLOUR (WHEAT FLOUR, NIACIN, REDUCED IRON, THIAMIN MONONITRATE, RIBOFLAVIN, FOLIC ACID), PARTIALLY HYDROGENATED CANOLA OIL, POPPY SEEDS, SESAME SEEDS, YEAST, SALT, SOYA FLOUR, SUGAR, AMMONIUM BICARBONATE, SODIUM METABISULFATE." Date available: 07/14/2017 Date last updated by company: 07/14/2017
