Source: USDA Branded Food Products Database Release December 2017 Software v.3.8.6.4 2017-10-02
Report Run at: December 19, 2017 00:24 EST
"Nutrient data for: 45178191, CARROTS, SNAP PEAS & PITA CHIPS WITH RANCH DIP VEGGIE SNACKERS, UPC: 732313848818"
Food Group:  Branded Food Products Database
Common Name:

Nutrient,Unit,Data points,Std. Error,"1 TRAY = 134.0g",1Value per 100 g,
Proximates
"Energy",kcal,--,--,159,119
"Protein",g,--,--,4.01,2.99
"Total lipid (fat)",g,--,--,6.99,5.22
"Carbohydrate, by difference",g,--,--,21.00,15.67
"Fiber, total dietary",g,--,--,2.9,2.2
"Sugars, total",g,--,--,6.99,5.22
Minerals
"Calcium, Ca",mg,--,--,40,30
"Iron, Fe",mg,--,--,1.50,1.12
"Sodium, Na",mg,--,--,330,246
Vitamins
"Vitamin C, total ascorbic acid",mg,--,--,9.4,7.0
"Vitamin A, IU",IU,--,--,4179,3119
Lipids
"Fatty acids, total saturated",g,--,--,0.496,0.370
"Fatty acids, total trans",g,--,--,0.000,0.000
"Cholesterol",mg,--,--,5,4
Amino Acids
Other
Ingredients
"SNAP PEAS, CARROTS, PITA CHIPS: ENRICHED WHEAT FLOUR (WHEAT FLOUR, MALTED BARLEY FLOUR, NIACIN, REDUCED IRON, THIAMIN MONONITRATE, RIBOFLAVIN, FOLIC ACID), HIGH OLEIC SUNFLOWER (TOCOPHEROLS AND ROSEMARY EXTRACT [TO PRESERVE FRESHNESS]), WHEAT BRAN, WHOLE WHEAT FLOUR, VITAL WHEAT GLUTEN, BARLEY FLOUR, SUGAR CANE FIBER, SESAME SEEDS, LESS THAN 2% OF: FLAXSEED, YEAST, SUGAR, ROLLED OATS, YELLOW CORN MEAL, MILLET, SEA SALT, SALT, LITE COUNTRY RANCH DRESSING: LOW FAT BUTTERMILK (SKIM MILK, WHEY, WATER, SKIM MILK, SOLIDS, WHEY SOLIDS, CORN STARCH, TAPIOCA STARCH, DISODIUM PHOSPHATE, CARRAGEENAN GUM, LOCUST BEAN GUM, CULTURE), WATER, CANOLA OIL, EGG YOLK, SUGAR, MODIFIED CORN STARCH, SALT, DISTILLED VINEGAR, MALTODEXTRIN, CIDER VINEGAR, DRIED GARLIC, SPICES, DRIED ONION, POTASSIUM SORBATE AND SODIUM BENZOATE (PRESERVATIVE), XANTHAN GUM, MUSTARD FLOUR." Date available: 07/14/2017 Date last updated by company: 07/14/2017
