Source: USDA Branded Food Products Database Release December 2017 Software v.3.8.6.4 2017-10-02
Report Run at: December 19, 2017 00:20 EST
"Nutrient data for: 45260214, CARROT CAKE, UPC: 895797002562"
Food Group:  Branded Food Products Database
Common Name:

Nutrient,Unit,Data points,Std. Error,"0.125 CAKE = 86.0g",1Value per 100 g,
Proximates
"Energy",kcal,--,--,320,372
"Protein",g,--,--,2.00,2.33
"Total lipid (fat)",g,--,--,14.00,16.28
"Carbohydrate, by difference",g,--,--,50.00,58.14
"Fiber, total dietary",g,--,--,1.0,1.2
"Sugars, total",g,--,--,40.00,46.51
Minerals
"Calcium, Ca",mg,--,--,20,23
"Iron, Fe",mg,--,--,0.34,0.39
"Sodium, Na",mg,--,--,130,151
Vitamins
"Vitamin C, total ascorbic acid",mg,--,--,0.0,0.0
"Vitamin A, IU",IU,--,--,1163,1352
Lipids
"Fatty acids, total saturated",g,--,--,3.001,3.490
"Fatty acids, total trans",g,--,--,0.000,0.000
"Cholesterol",mg,--,--,35,41
Amino Acids
Other
Ingredients
"CARROTS - WHITE RICE FLOUR - SUGAR - CANOLA OIL - EGGS - TAPIOCA FLOUR - CINNAMON - SODA - EGG REPLACER - ALUMINUM FREE BAKING POWDER - XANTHAN GUM - VANILLA - SEA-SALT, FROSTING: POWDRED SUGAR - CREAM CHEESE - BUTTER - VANILLA - MILK." Date available: 07/14/2017 Date last updated by company: 07/14/2017
