Source: USDA Branded Food Products Database Release December 2017 Software v.3.8.6.4 2017-10-02
Report Run at: December 19, 2017 00:22 EST
"Nutrient data for: 45191959, CARROT PICKLE IN OIL, UPC: 620514004440"
Food Group:  Branded Food Products Database
Common Name:

Nutrient,Unit,Data points,Std. Error,"2.0 Tbsp = 30.0g",1Value per 100 g,
Proximates
"Energy",kcal,--,--,70,233
"Protein",g,--,--,0.50,1.67
"Total lipid (fat)",g,--,--,7.00,23.33
"Carbohydrate, by difference",g,--,--,3.50,11.67
"Fiber, total dietary",g,--,--,1.0,3.3
"Sugars, total",g,--,--,1.00,3.33
Minerals
"Calcium, Ca",mg,--,--,20,67
"Iron, Fe",mg,--,--,1.20,4.00
"Sodium, Na",mg,--,--,230,767
Vitamins
"Vitamin C, total ascorbic acid",mg,--,--,3.0,10.0
"Vitamin A, IU",IU,--,--,4834,16112
Lipids
"Fatty acids, total saturated",g,--,--,0.999,3.330
"Fatty acids, total trans",g,--,--,0.000,0.000
"Cholesterol",mg,--,--,0,0
Amino Acids
Other
Ingredients
"CARROT (67%), CANOLA OIL, MIXED SPICES, SALT, ACETIC ACID (E260), CITRIC ACID, (E330), CALCIUM CHLORIDE (E509) AS FIRMING AGENT, POTASSIUM SORBATE (E202) AND SODIUM METABISULPHITE (E223) AS PRESERVATIVES." Date available: 07/14/2017 Date last updated by company: 07/14/2017
