Source: USDA Branded Food Products Database Release December 2017 Software v.3.8.6.4 2017-10-02
Report Run at: December 19, 2017 00:20 EST
"Nutrient data for: 45099796, CARROT CAKE, UPC: 049800155510"
Food Group:  Branded Food Products Database
Common Name:

Nutrient,Unit,Data points,Std. Error,"1 MINI DESSERT = 34.0g",1Value per 100 g,
Proximates
"Energy",kcal,--,--,170,500
"Protein",g,--,--,1.00,2.94
"Total lipid (fat)",g,--,--,9.00,26.47
"Carbohydrate, by difference",g,--,--,21.00,61.76
"Fiber, total dietary",g,--,--,1.0,2.9
"Sugars, total",g,--,--,14.00,41.18
Minerals
"Calcium, Ca",mg,--,--,0,0
"Iron, Fe",mg,--,--,0.85,2.49
"Sodium, Na",mg,--,--,125,368
Vitamins
"Vitamin C, total ascorbic acid",mg,--,--,0.0,0.0
"Vitamin A, IU",IU,--,--,1176,3460
Lipids
"Fatty acids, total saturated",g,--,--,3.998,11.760
"Fatty acids, total trans",g,--,--,0.000,0.000
"Cholesterol",mg,--,--,5,15
Amino Acids
Other
Ingredients
"SUGAR, MARGARINE (PALM OIL, WATER, SOYBEAN OIL SALT, MONO AND DIGLYCERIDES, SOY LECITHIN, TO PRESERVE FRESHNESS (POTASSIUM SORBATE), VITAMIN A PALMITATE), ENRICHED UNBLEACHED WHEAT FLOUR (WHEAT FLOUR, NIACIN, REDUCED IRON, THIAMINE MONONITRATE, RIBOFLAVIN, FOLIC ACID), CARROTS, RAISINS, OATS, CREAM CHEESE (MIL, CREAM (FORM MILK), CHEESE CULTURE, SALT, CAROB BEAN GUM), CONTAINS LESS THAN 2% OF THE FOLLOWING: MOLASSES, INVERT SUGAR, LEAVENING (SODIUM ACID PYROPHOSPHATE, BAKING SODA, MONOCALCIUM PHOSPHATE), EGGS, NATURAL FLAVOR, MODIFIED CORNSTARCH, CINNAMON, SOY LECITHIN, SALT, SPICES, CORN SYRUP SOLIDS, CALCIUM PHOSPHATE, EGG WHITES, POLYSORBATE 60." Date available: 07/14/2017 Date last updated by company: 07/14/2017
