Source: USDA Branded Food Products Database Release December 2017 Software v.3.8.6.4 2017-10-02
Report Run at: December 19, 2017 00:28 EST
"Nutrient data for: 45242060, CASA DE DULCE, PEANUT MAZAPAN, UPC: 034494002028"
Food Group:  Branded Food Products Database
Common Name:

Nutrient,Unit,Data points,Std. Error,"1 ONZ = 28.0g",1Value per 100 g,
Proximates
"Energy",kcal,--,--,140,500
"Protein",g,--,--,1.00,3.57
"Total lipid (fat)",g,--,--,6.00,21.43
"Carbohydrate, by difference",g,--,--,24.00,85.71
"Fiber, total dietary",g,--,--,1.0,3.6
"Sugars, total",g,--,--,19.00,67.86
Minerals
"Sodium, Na",mg,--,--,5,18
Vitamins
Lipids
"Fatty acids, total saturated",g,--,--,1.000,3.570
"Fatty acids, total trans",g,--,--,0.000,0.000
"Cholesterol",mg,--,--,0,0
Amino Acids
Other
Ingredients
"SUGAR, PEANUTS, AND ARTIFICIAL FLAVORING" Date available: 06/25/2017 Date last updated by company: 06/25/2017
