Source: USDA Branded Food Products Database Release December 2017 Software v.3.8.6.4 2017-10-02
Report Run at: December 19, 2017 00:28 EST
"Nutrient data for: 45050343, CASA CARDENAS, HAZELNUT SPREAD, HAZELNUTS SPREAD, UPC: 811371100134"
Food Group:  Branded Food Products Database
Common Name:

Nutrient,Unit,Data points,Std. Error,"2.0 Tbsp = 31.0g",1Value per 100 g,
Proximates
"Energy",kcal,--,--,170,548
"Protein",g,--,--,2.00,6.45
"Total lipid (fat)",g,--,--,11.00,35.48
"Carbohydrate, by difference",g,--,--,16.00,51.61
"Fiber, total dietary",g,--,--,1.0,3.2
"Sugars, total",g,--,--,15.00,48.39
Minerals
"Calcium, Ca",mg,--,--,40,129
"Iron, Fe",mg,--,--,1.74,5.62
"Sodium, Na",mg,--,--,15,48
Vitamins
"Vitamin C, total ascorbic acid",mg,--,--,0.0,0.0
"Vitamin A, IU",IU,--,--,0,0
Lipids
"Fatty acids, total saturated",g,--,--,2.499,8.060
"Fatty acids, total trans",g,--,--,0.000,0.000
"Cholesterol",mg,--,--,0,0
Amino Acids
Other
Ingredients
"SUGAR, VEGETABLE OIL (RAPESEED, PALM), HAZELNUTS 13%, FAT REDUCED COCOA, SKIMMED MILK POWDER, EMULSIFIER (SUNFLOWER LECITHIN), FLAVOURING." Date available: 06/25/2017 Date last updated by company: 06/25/2017
