Source: USDA Branded Food Products Database Release December 2017 Software v.3.8.6.4 2017-10-02
Report Run at: December 19, 2017 00:30 EST
"Nutrient data for: 45038177, CASA MEXICANA, CHICKEN FAJITAS SEASONING MIX, UPC: 854880002117"
Food Group:  Branded Food Products Database
Common Name:

Nutrient,Unit,Data points,Std. Error,"0.25 ONZ = 7.0g",1Value per 100 g,
Proximates
"Energy",kcal,--,--,20,286
"Protein",g,--,--,1.00,14.29
"Total lipid (fat)",g,--,--,0.50,7.14
"Carbohydrate, by difference",g,--,--,3.00,42.86
"Fiber, total dietary",g,--,--,1.0,14.3
"Sugars, total",g,--,--,1.00,14.29
Minerals
"Iron, Fe",mg,--,--,5.14,73.47
"Sodium, Na",mg,--,--,680,9714
Vitamins
"Vitamin C, total ascorbic acid",mg,--,--,8.6,122.5
"Vitamin A, IU",IU,--,--,8928,127550
Lipids
Amino Acids
Other
Ingredients
"SPICES (PAPRIKA, OREGANO, CUMIN), SALT, CHIPOTLE AND PASILLA CHILE, ONION, GARLIC, MALTODEXTRIN, SILICON DIOXIDE (A NATURAL ANTI-CAKING AGENT)." Date available: 07/14/2017 Date last updated by company: 07/14/2017
