Source: USDA Branded Food Products Database Release December 2017 Software v.3.8.6.4 2017-10-02
Report Run at: December 19, 2017 00:32 EST
"Nutrient data for: 45238147, CASCADIAN FARM, CHEWY GRANOLA BARS, VANILLA CHIP, UPC: 021908406763"
Food Group:  Branded Food Products Database
Common Name:

Nutrient,Unit,Data points,Std. Error,"1 BAR = 35.0g",1Value per 100 g,
Proximates
"Energy",kcal,--,--,140,400
"Protein",g,--,--,2.00,5.71
"Total lipid (fat)",g,--,--,3.00,8.57
"Carbohydrate, by difference",g,--,--,26.00,74.29
"Fiber, total dietary",g,--,--,1.0,2.9
"Sugars, total",g,--,--,9.00,25.71
Minerals
"Iron, Fe",mg,--,--,0.36,1.03
"Sodium, Na",mg,--,--,90,257
Vitamins
Lipids
"Fatty acids, total saturated",g,--,--,1.001,2.860
"Fatty acids, total trans",g,--,--,0.000,0.000
"Cholesterol",mg,--,--,0,0
Amino Acids
Other
Ingredients
"GRANOLA* (ROLLED OATS*, TAPIOCA SYRUP*, SUGAR*, SUNFLOWER OIL*, SEA SALT, VANILLA EXTRACT*, BAKING SODA), TAPIOCA SYRUP*, CRISP RICE* (RICE FLOUR*, SUGAR*, RAISIN JUICE CONCENTRATE*, SEA SALT, ANNATTO COLOR*), VANILLA CHIPS* (SUGAR*, COCOA BUTTER*, VANILL" Date available: 11/06/2016 Date last updated by company: 11/06/2016
