Source: USDA Branded Food Products Database Release December 2017 Software v.3.8.6.4 2017-10-02
Report Run at: December 19, 2017 00:35 EST
"Nutrient data for: 45240970, CASERA, SODA DRINK, TAMARIND, UPC: 755230025001"
Food Group:  Branded Food Products Database
Common Name:

Nutrient,Unit,Data points,Std. Error,"8.0 OZA = 240.0g",1Value per 100 g,
Proximates
"Energy",kcal,--,--,101,42
"Protein",g,--,--,0.00,0.00
"Total lipid (fat)",g,--,--,0.00,0.00
"Carbohydrate, by difference",g,--,--,25.01,10.42
"Sugars, total",g,--,--,25.01,10.42
Minerals
"Sodium, Na",mg,--,--,24,10
Vitamins
Lipids
Amino Acids
Other
Ingredients
"CARBONATED WATER, HIGH FRUCTOSE CORN SYRUP, SUGAR, TAMARIND EXTRACTS, TARTARIC ACID, CITRIC ACID, VEGETABLE GUM, YELLOW 5, RED 40, BLUE 1, ACESULFAME POTASSIUM, SODIUM BENZOATE (AS PRESERVATIVE)." Date available: 06/24/2017 Date last updated by company: 06/24/2017
