Source: USDA Branded Food Products Database Release December 2017 Software v.3.8.6.4 2017-10-02
Report Run at: December 19, 2017 00:36 EST
"Nutrient data for: 45277400, CASESAR DRESSING, UPC: 041512034497"
Food Group:  Branded Food Products Database
Common Name:

Nutrient,Unit,Data points,Std. Error,"2.0 Tbsp = 28.0g",1Value per 100 g,
Proximates
"Energy",kcal,--,--,70,250
"Protein",g,--,--,1.00,3.57
"Total lipid (fat)",g,--,--,7.00,25.00
"Carbohydrate, by difference",g,--,--,1.00,3.57
"Fiber, total dietary",g,--,--,0.0,0.0
"Sugars, total",g,--,--,1.00,3.57
Minerals
"Calcium, Ca",mg,--,--,0,0
"Iron, Fe",mg,--,--,0.00,0.00
"Sodium, Na",mg,--,--,180,643
Vitamins
"Vitamin C, total ascorbic acid",mg,--,--,0.0,0.0
"Vitamin A, IU",IU,--,--,0,0
Lipids
"Fatty acids, total saturated",g,--,--,1.501,5.360
"Fatty acids, total monounsaturated",g,--,--,1.501,5.360
"Fatty acids, total polyunsaturated",g,--,--,3.500,12.500
"Fatty acids, total trans",g,--,--,0.000,0.000
"Cholesterol",mg,--,--,5,18
Amino Acids
Other
Ingredients
"WATER, SOYBEAN OIL, CORN VINEGAR, PARMESAN CHEESE (PASTEURIZED MILK, CHEESE CULTURES, SALT, ENZYMES), SUGAR, CONTAINS LESS THAN 2% OF SALT, EGG YOLKS, FOOD STARCH-MODIFIED, SPICES (INCLUDES MUSTARD), DISTILLED VINEGAR, GARLIC*, LEMON JUICE CONCENTRATE, ONION*, XANTHAN GUM, PROPYLENE GLYCOL ALGINATE, ANCHOVY EXTRACT, SODIUM BENZOATE (A PRESERVATIVE), CARAMEL COLOR, CALCIUM DISODIUM EDTA ADDED TO PROTECT FLAVOR." Date available: 07/14/2017 Date last updated by company: 07/14/2017
