Source: USDA Branded Food Products Database Release December 2017 Software v.3.8.6.4 2017-10-02
Report Run at: December 19, 2017 00:37 EST
"Nutrient data for: 45196361, CASHEW CHIA FRUIT & NUT BAR, UPC: 042563603281"
Food Group:  Branded Food Products Database
Common Name:

Nutrient,Unit,Data points,Std. Error,"1 BAR = 40.0g",1Value per 100 g,
Proximates
"Energy",kcal,--,--,190,475
"Protein",g,--,--,5.00,12.50
"Total lipid (fat)",g,--,--,12.00,30.00
"Carbohydrate, by difference",g,--,--,18.00,45.00
"Fiber, total dietary",g,--,--,3.0,7.5
"Sugars, total",g,--,--,8.00,20.00
Minerals
"Calcium, Ca",mg,--,--,40,100
"Iron, Fe",mg,--,--,1.80,4.50
"Sodium, Na",mg,--,--,0,0
Vitamins
"Vitamin C, total ascorbic acid",mg,--,--,0.0,0.0
"Vitamin A, IU",IU,--,--,0,0
Lipids
"Fatty acids, total saturated",g,--,--,1.500,3.750
"Fatty acids, total trans",g,--,--,0.000,0.000
"Cholesterol",mg,--,--,0,0
Amino Acids
Other
Ingredients
"RAISINS*, CASHEWS*, SUNFLOWER SEEDS*, AGAVE NECTAR*, ALMONDS*, WALNUTS*, BROWN RICE SYRUP*, BRAZIL NUTS*, WHOLE GRAIN BROWN RICE CRISPS*, CHIA SEEDS*, PUMPKIN SEEDS*, SUNFLOWER OIL BLEND* (SUNFLOWER OIL*, MIXED TOCOPHEROLS [VITAMIN E], ROSEMARY EXTRACT*)" Date available: 07/14/2017 Date last updated by company: 07/14/2017
