Source: USDA Branded Food Products Database Release December 2017 Software v.3.8.6.4 2017-10-02
Report Run at: December 19, 2017 00:43 EST
"Nutrient data for: 45331911, CASHEWS, UPC: 010300933809"
Food Group:  Branded Food Products Database
Common Name:

Nutrient,Unit,Data points,Std. Error,"0.25 CUP | ABOUT = 28.0g",1Value per 100 g,
Proximates
"Energy",kcal,--,--,140,500
"Protein",g,--,--,3.00,10.71
"Total lipid (fat)",g,--,--,9.00,32.14
"Carbohydrate, by difference",g,--,--,13.00,46.43
"Fiber, total dietary",g,--,--,1.0,3.6
"Sugars, total",g,--,--,7.00,25.00
Minerals
"Calcium, Ca",mg,--,--,13,46
"Iron, Fe",mg,--,--,1.00,3.57
"Potassium, K",mg,--,--,100,357
"Sodium, Na",mg,--,--,150,536
Vitamins
"Vitamin D",IU,--,--,0,0
Lipids
"Fatty acids, total saturated",g,--,--,1.501,5.360
"Fatty acids, total monounsaturated",g,--,--,5.001,17.860
"Fatty acids, total polyunsaturated",g,--,--,1.501,5.360
"Fatty acids, total trans",g,--,--,0.000,0.000
"Cholesterol",mg,--,--,0,0
Amino Acids
Other
Ingredients
"CASHEWS, SUGAR, TAPIOCA SYRUP, PUMPKIN SPICE SEASONING (SUGAR, SEA SALT, SPICES), CANOLA OIL, VANILLA EXTRACT, NATURAL FLAVOR, CINNAMON, SOY LECITHIN, ROSEMARY EXTRACT (TO PRESERVE FRESHNESS)." Date available: 10/13/2017 Date last updated by company: 10/13/2017
