Source: USDA Branded Food Products Database Release December 2017 Software v.3.8.6.4 2017-10-02
Report Run at: December 19, 2017 00:39 EST
"Nutrient data for: 45145447, CASHEW & SESAME STICKS, UPC: 722648712465"
Food Group:  Branded Food Products Database
Common Name:

Nutrient,Unit,Data points,Std. Error,"0.25 cup = 32.0g",1Value per 100 g,
Proximates
"Energy",kcal,--,--,180,562
"Protein",g,--,--,4.00,12.50
"Total lipid (fat)",g,--,--,14.00,43.75
"Carbohydrate, by difference",g,--,--,13.00,40.62
"Fiber, total dietary",g,--,--,1.0,3.1
"Sugars, total",g,--,--,1.00,3.12
Minerals
"Calcium, Ca",mg,--,--,20,62
"Iron, Fe",mg,--,--,1.69,5.28
"Sodium, Na",mg,--,--,330,1031
Vitamins
"Vitamin C, total ascorbic acid",mg,--,--,0.0,0.0
"Vitamin A, IU",IU,--,--,0,0
Lipids
"Fatty acids, total saturated",g,--,--,2.000,6.250
"Fatty acids, total trans",g,--,--,0.000,0.000
"Cholesterol",mg,--,--,0,0
Amino Acids
Other
Ingredients
"SESAME STICK (UNBLEACHED WHEAT FLOUR [CONTAINS MALTED BARLEY FLOUR AS A NATURAL ENZYME ADDITIVE], SOYBEAN OIL, SESAME SEEDS, BULGAR WHEAT, SALT, BEET POWDER, TURMERIC, CASHEWS, COTTONSEED AND PEANUTS OILS, SALT." Date available: 07/14/2017 Date last updated by company: 07/14/2017
