Source: USDA Branded Food Products Database Release December 2017 Software v.3.8.6.4 2017-10-02
Report Run at: December 19, 2017 00:37 EST
"Nutrient data for: 45199253, CASHEW CHICKEN STIR-FRY, UPC: 079893108612"
Food Group:  Branded Food Products Database
Common Name:

Nutrient,Unit,Data points,Std. Error,"1 TRAY = 230.0g",1Value per 100 g,
Proximates
"Energy",kcal,--,--,221,96
"Protein",g,--,--,22.01,9.57
"Total lipid (fat)",g,--,--,8.99,3.91
"Carbohydrate, by difference",g,--,--,12.99,5.65
"Fiber, total dietary",g,--,--,3.0,1.3
"Sugars, total",g,--,--,2.99,1.30
Minerals
"Calcium, Ca",mg,--,--,39,17
"Iron, Fe",mg,--,--,0.92,0.40
"Sodium, Na",mg,--,--,591,257
Vitamins
"Vitamin C, total ascorbic acid",mg,--,--,3.0,1.3
"Vitamin A, IU",IU,--,--,1060,461
Lipids
"Fatty acids, total saturated",g,--,--,2.001,0.870
"Fatty acids, total trans",g,--,--,0.000,0.000
"Cholesterol",mg,--,--,51,22
Amino Acids
Other
Ingredients
"COOKED WHITE MEAT CHICKEN (WHITE MEAT CHICKEN, WATER, SOYBEAN OIL, MODIFIED CORN STARCH, CARRAGEENAN, SODIUM PHOSPHATES, SALT, TOMATO PASTE, SPICES, ONION POWDER, ENRICHED WHEAT FLOUR [BLEACHED FLOUR, NIACIN, REDUCED IRON, THIAMINE MONONITRATE, RIBOFLAVIN, FOLIC ACID], NONFAT DRY MILK), WATER, KALE, MUSHROOMS, SUGAR SNAP PEAS, RED BELL PEPPER, CASHEW NUTS (CASHEWS, CANOLA OIL), SOY SAUCE (WATER, WHEAT, SOYBEANS, SALT, ALCOHOL, VINEGAR, LACTIC ACID), MODIFIED CORN STARCH, OYSTER FLAVORED SAUCE (WATER, SUGAR, SALT, OYSTER EXTRACTIVES [OYSTER, WATER, SALT], MODIFIED CORN STARCH, CARAMEL COLOR), SALT, CHICKEN BROTH CONCENTRATE (CHICKEN BROTH, CHICKEN FLAVOR, VEGETABLES [CARROT, ONION, CELERY], SEA SALT, FLAVORING, POTATO FLOUR, ONION POWDER), XANTHAN GUM, SESAME SEED OIL, WOK FLAVOR (PARTIALLY HYDROGENATED SOYBEAN OIL, SESAME OIL, CANOLA OIL, RICE SALAD OIL, NATURAL FLAVOR [CONTAINS MILK]), GARLIC, GINGER, SPICES." Date available: 07/14/2017 Date last updated by company: 07/14/2017
