Source: USDA Branded Food Products Database Release December 2017 Software v.3.8.6.4 2017-10-02
Report Run at: December 19, 2017 00:45 EST
"Nutrient data for: 45100779, CASTLE GOOD, NATURALLY SMOKED PROVOLONE CHEESE, UPC: 711565204566"
Food Group:  Branded Food Products Database
Common Name:

Nutrient,Unit,Data points,Std. Error,"1 SLICE = 23.0g",1Value per 100 g,
Proximates
"Energy",kcal,--,--,80,348
"Protein",g,--,--,5.00,21.74
"Total lipid (fat)",g,--,--,6.00,26.09
"Carbohydrate, by difference",g,--,--,0.00,0.00
"Fiber, total dietary",g,--,--,0.0,0.0
"Sugars, total",g,--,--,0.00,0.00
Minerals
"Calcium, Ca",mg,--,--,150,652
"Iron, Fe",mg,--,--,0.00,0.00
"Sodium, Na",mg,--,--,160,696
Vitamins
"Vitamin C, total ascorbic acid",mg,--,--,0.0,0.0
"Vitamin A, IU",IU,--,--,435,1891
Lipids
"Fatty acids, total saturated",g,--,--,3.501,15.220
"Fatty acids, total trans",g,--,--,0.000,0.000
"Cholesterol",mg,--,--,20,87
Amino Acids
Other
Ingredients
"PROVOLONE CHEESE WITH SMOKE FLAVOR (PASTEURIZED MILK, CHEESE CULTURES, SALT, ENZYMES, NATURAL SMOKE FLAVOR)." Date available: 07/14/2017 Date last updated by company: 07/14/2017
