Source: USDA Branded Food Products Database Release December 2017 Software v.3.8.6.4 2017-10-02
Report Run at: December 19, 2017 00:45 EST
"Nutrient data for: 45277478, CAST IRON SKILLET RED VELVET PANCAKE, UPC: 732346000580"
Food Group:  Branded Food Products Database
Common Name:

Nutrient,Unit,Data points,Std. Error,"0.25 PACKAGE = 28.0g",1Value per 100 g,
Proximates
"Energy",kcal,--,--,100,357
"Protein",g,--,--,1.00,3.57
"Total lipid (fat)",g,--,--,0.50,1.79
"Carbohydrate, by difference",g,--,--,23.00,82.14
"Fiber, total dietary",g,--,--,1.0,3.6
"Sugars, total",g,--,--,12.00,42.86
Minerals
"Calcium, Ca",mg,--,--,0,0
"Iron, Fe",mg,--,--,2.06,7.35
"Sodium, Na",mg,--,--,310,1107
Vitamins
"Vitamin C, total ascorbic acid",mg,--,--,0.0,0.0
"Vitamin A, IU",IU,--,--,0,0
Lipids
"Fatty acids, total saturated",g,--,--,0.000,0.000
"Fatty acids, total trans",g,--,--,0.000,0.000
"Cholesterol",mg,--,--,0,0
Amino Acids
Other
Ingredients
"ENRICHED WHEAT FLOUR (WHEAT FLOUR, NIACIN, IRON, THIAMINE MONONITRATE, RIBOFLAVIN, FOLIC ACID), SUGAR, LEAVENING (SODIUM ACID PYROPHOSPHATE, SODIUM BICARBONATE), COCOA (PROCESSED WITH ALKALI), SALT, SOYBEAN OIL, ARTIFICIAL FLAVOR, RED 40." Date available: 07/14/2017 Date last updated by company: 07/14/2017
