Source: USDA Branded Food Products Database Release December 2017 Software v.3.8.6.4 2017-10-02
Report Run at: December 19, 2017 00:52 EST
"Nutrient data for: 45273048, CAYENNE  BEEF WITH PORK, UPC: 854837006052"
Food Group:  Branded Food Products Database
Common Name:

Nutrient,Unit,Data points,Std. Error,"1 BAR = 42.0g",1Value per 100 g,
Proximates
"Energy",kcal,--,--,140,333
"Protein",g,--,--,20.00,47.62
"Total lipid (fat)",g,--,--,5.00,11.90
"Carbohydrate, by difference",g,--,--,2.00,4.76
"Fiber, total dietary",g,--,--,0.0,0.0
"Sugars, total",g,--,--,2.00,4.76
Minerals
"Calcium, Ca",mg,--,--,60,143
"Iron, Fe",mg,--,--,1.03,2.45
"Sodium, Na",mg,--,--,370,881
Vitamins
"Vitamin C, total ascorbic acid",mg,--,--,0.0,0.0
"Vitamin A, IU",IU,--,--,0,0
Lipids
"Fatty acids, total saturated",g,--,--,1.999,4.760
"Cholesterol",mg,--,--,40,95
Amino Acids
Other
Ingredients
"GRASS-FED BEEF, PORK, BEEF STOCK, ORGANIC BROWN SUGAR, ENCAPSULATED LACTIC ACID, SEA SALT, RED PEPPER, CELERY JUICE POWDER, ONION AND GARLIC POWDER, BLACK PEPPER, LIQUID SMOKE, CORIANDER, GROUND CELERY SEED, FENNEL, NUTMEG." Date available: 07/14/2017 Date last updated by company: 07/14/2017
