Source: USDA Branded Food Products Database Release December 2017 Software v.3.8.6.4 2017-10-02
Report Run at: December 19, 2017 00:56 EST
"Nutrient data for: 45002963, CEDARS COMPANY, WHEAT PITA BREAD, UPC: 606476050558"
Food Group:  Branded Food Products Database
Common Name:

Nutrient,Unit,Data points,Std. Error,"1 PITA = 28.0g",1Value per 100 g,
Proximates
"Energy",kcal,--,--,74,264
"Protein",g,--,--,3.00,10.71
"Total lipid (fat)",g,--,--,1.00,3.57
"Carbohydrate, by difference",g,--,--,15.00,53.57
"Fiber, total dietary",g,--,--,2.0,7.1
"Sugars, total",g,--,--,0.00,0.00
Minerals
"Calcium, Ca",mg,--,--,0,0
"Iron, Fe",mg,--,--,1.61,5.74
"Sodium, Na",mg,--,--,149,532
Vitamins
"Vitamin C, total ascorbic acid",mg,--,--,0.0,0.0
"Vitamin A, IU",IU,--,--,0,0
Lipids
"Fatty acids, total saturated",g,--,--,0.199,0.710
"Cholesterol",mg,--,--,0,0
Amino Acids
Other
Ingredients
"ENRICHED WHEAT FLOUR (UNBLEACHED FLOUR), NIACIN, REDUCED IRON, THIAMINE MONONITRATE RIBOFLAVIN, FOLIC ACID, WATER, YEAST, SALT, SUGAR, CALCIUM, PROPLONATS (NO RETARD SPOLLAGE)" Date available: 07/14/2017 Date last updated by company: 07/14/2017
