Source: USDA Branded Food Products Database Release December 2017 Software v.3.8.6.4 2017-10-02
Report Run at: December 19, 2017 00:55 EST
"Nutrient data for: 45274970, CEDAR PLANKED ATLANTIC SALMON, UPC: 037071109011"
Food Group:  Branded Food Products Database
Common Name:

Nutrient,Unit,Data points,Std. Error,"4.0 ONZ = 113.0g",1Value per 100 g,
Proximates
"Energy",kcal,--,--,231,204
"Protein",g,--,--,21.00,18.58
"Total lipid (fat)",g,--,--,15.00,13.27
"Carbohydrate, by difference",g,--,--,4.00,3.54
"Fiber, total dietary",g,--,--,0.0,0.0
"Sugars, total",g,--,--,2.99,2.65
Minerals
"Calcium, Ca",mg,--,--,20,18
"Iron, Fe",mg,--,--,0.54,0.48
"Sodium, Na",mg,--,--,440,389
Vitamins
"Vitamin C, total ascorbic acid",mg,--,--,0.9,0.8
"Vitamin A, IU",IU,--,--,0,0
Lipids
"Fatty acids, total saturated",g,--,--,3.503,3.100
"Fatty acids, total monounsaturated",g,--,--,6.000,5.310
"Fatty acids, total polyunsaturated",g,--,--,4.000,3.540
"Fatty acids, total trans",g,--,--,0.000,0.000
"Cholesterol",mg,--,--,55,49
Amino Acids
Other
Ingredients
"ATLANTIC SALMON, BROWN SUGAR, WATER, SPICES, DEHYDRATED ONION, SEA SALT, MALTODEXTRIN, MAPLE SUGAR, FLAVOR, NATURAL SMOKE FLAVOR." Date available: 07/14/2017 Date last updated by company: 07/14/2017
