Source: USDA Branded Food Products Database Release December 2017 Software v.3.8.6.4 2017-10-02
Report Run at: December 19, 2017 00:54 EST
"Nutrient data for: 45040136, CEDARLANE NATURAL FOODS, ROASTED CHILE RELLENO, UPC: 038794994601"
Food Group:  Branded Food Products Database
Common Name:

Nutrient,Unit,Data points,Std. Error,"10.0 ONZ = 284.0g",1Value per 100 g,
Proximates
"Energy",kcal,--,--,381,134
"Protein",g,--,--,23.00,8.10
"Total lipid (fat)",g,--,--,19.00,6.69
"Carbohydrate, by difference",g,--,--,33.99,11.97
"Fiber, total dietary",g,--,--,11.1,3.9
"Sugars, total",g,--,--,5.99,2.11
Minerals
"Calcium, Ca",mg,--,--,449,158
"Iron, Fe",mg,--,--,4.94,1.74
"Sodium, Na",mg,--,--,659,232
Vitamins
"Vitamin C, total ascorbic acid",mg,--,--,32.9,11.6
"Vitamin A, IU",IU,--,--,6180,2176
Lipids
"Fatty acids, total saturated",g,--,--,9.997,3.520
"Fatty acids, total trans",g,--,--,0.000,0.000
"Cholesterol",mg,--,--,51,18
Amino Acids
Other
Ingredients
"CHILE RELLENO FILLING (MONTEREY JACK CHEESE {PASTEURIZED MILK, CHEESE CULTURES, SALT, ENZYMES}, CHILE POBLANO, CHEDDAR CHEESE {PASTEURIZED CULTURED MILK, SALT, ANNATTO [COLOR], ENZYMES}, FAT FREE CHEDDAR CHEESE {SKIM MILK CHEESE [CULTURED MILK, SALT, ENZYMES], NONFAT DRY MILK, WATER, SODIUM CITRATE, NATURAL CHEDDAR FLAVOR, XANTHAN GUM, LOCUST BEAN GUM, GUAR GUM, PAPRIKA AND TURMERIC [COLOR]}, GREEN ONIONS, CORNSTARCH, CILANTRO, GARLIC, POWDER, BLACK PEPPER, CAYENNE PEPPER, SPICE), CHILE RELLENO SAUCE (CRUSHED TOMATOES {CRUSHED TOMATOES, TOMATO PUREE, SALT, CITRIC ACID, AND CALCIUM CHLORIDE}, TOMATO PUREE {WATER, TOMATO PASTE}, WATER, ONIONS, GREEN CHILI PEPPERS, CILANTRO, CORNSTARCH, GARLIC POWDER, SALT, SPICE, CITRIC ACID), CHILE POBLANO." Date available: 08/07/2017 Date last updated by company: 08/07/2017
