Source: USDA Branded Food Products Database Release December 2017 Software v.3.8.6.4 2017-10-02
Report Run at: December 19, 2017 01:00 EST
"Nutrient data for: 45188788, CELERY & PEANUT BUTTER CUP, UPC: 887241796721"
Food Group:  Branded Food Products Database
Common Name:

Nutrient,Unit,Data points,Std. Error,"7.5 ONZ = 213.0g",1Value per 100 g,
Proximates
"Energy",kcal,--,--,271,127
"Protein",g,--,--,9.99,4.69
"Total lipid (fat)",g,--,--,22.00,10.33
"Carbohydrate, by difference",g,--,--,13.99,6.57
"Fiber, total dietary",g,--,--,4.9,2.3
"Sugars, total",g,--,--,7.01,3.29
Minerals
"Calcium, Ca",mg,--,--,60,28
"Iron, Fe",mg,--,--,0.17,0.08
"Sodium, Na",mg,--,--,330,155
Vitamins
"Vitamin C, total ascorbic acid",mg,--,--,1.1,0.5
"Vitamin A, IU",IU,--,--,177,83
Lipids
"Fatty acids, total saturated",g,--,--,4.494,2.110
"Fatty acids, total trans",g,--,--,0.000,0.000
"Cholesterol",mg,--,--,0,0
Amino Acids
Other
Ingredients
"CELERY, PEANUT BUTTER (MADE FROM ROASTED PEANUTS AND SUGAR, CONTAINS 2% OR LESS OF MOLASSES, FULLY HYDROGENATED VEGETABLE OILS [RAPESEED AND SOYBEAN], MONO AND DIGLYCERIDES, SALT)." Date available: 08/30/2017 Date last updated by company: 08/30/2017
