Source: USDA Branded Food Products Database Release December 2017 Software v.3.8.6.4 2017-10-02
Report Run at: December 19, 2017 00:58 EST
"Nutrient data for: 45060526, CELEBRATION BY SWEETWORKS, SIXLETS CHOCOLATEY CANDIES, UPC: 800093932833"
Food Group:  Branded Food Products Database
Common Name:

Nutrient,Unit,Data points,Std. Error,"8.0 PCS = 7.0g",1Value per 100 g,
Proximates
"Energy",kcal,--,--,30,429
"Protein",g,--,--,0.00,0.00
"Total lipid (fat)",g,--,--,1.50,21.43
"Carbohydrate, by difference",g,--,--,5.00,71.43
"Sugars, total",g,--,--,5.00,71.43
Minerals
"Sodium, Na",mg,--,--,15,214
Vitamins
Lipids
"Fatty acids, total saturated",g,--,--,1.000,14.290
Amino Acids
Other
Ingredients
"SUGAR, DEXTROSE, HYDROGENATED PALM KERNEL OIL, REDUCED PROTEIN WHEY (MILK), COCOA, CORN SYRUP, LECITHIN (SOY), NATURAL AND ARTIFICIAL FLAVORS, TAPIOCA DEXTRIN, CARNAUBA WAX, SALT, COLORS (YELLOW 5 & 6, RED 3 & 40, BLUE 1, TITANIUM DIOXIDE, BLUE 1 LAKE)." Date available: 07/14/2017 Date last updated by company: 07/14/2017
