Source: USDA Branded Food Products Database Release December 2017 Software v.3.8.6.4 2017-10-02
Report Run at: December 19, 2017 00:57 EST
"Nutrient data for: 45158425, CELEBRATION BY FREY, GUMBALLS, UPC: 800093741114"
Food Group:  Branded Food Products Database
Common Name:

Nutrient,Unit,Data points,Std. Error,"1 PC = 7.6g",1Value per 100 g,
Proximates
"Energy",kcal,--,--,25,329
"Total lipid (fat)",g,--,--,0.20,2.63
"Carbohydrate, by difference",g,--,--,6.00,78.95
"Sugars, total",g,--,--,6.00,78.95
Minerals
"Calcium, Ca",mg,--,--,80,1053
Vitamins
Lipids
"Fatty acids, total saturated",g,--,--,0.100,1.320
"Fatty acids, total trans",g,--,--,0.000,0.000
"Cholesterol",mg,--,--,0,0
Amino Acids
Other
Ingredients
"SUGAR, DEXTROSE, CORN SYRUP, GUM BASE (SOY), NATURAL AND ARTIFICIAL FLAVORS, GLYCERIN, TAPIOCA DEXTRIN, CARNAUBA WAX, HPMC, BEES WAX, MICA BASED PEARLESCENT PIGMENT, COLORS (YELLOW 5 &6, RED 3, BLUE 1, TITANIUM DIOXIDE), BHT (TO MAINTAIN FRESHNESS)." Date available: 10/13/2017 Date last updated by company: 10/13/2017
