Source: USDA Branded Food Products Database Release December 2017 Software v.3.8.6.4 2017-10-02
Report Run at: December 19, 2017 00:59 EST
"Nutrient data for: 45202542, CELERY & CARROT STICKS, UPC: 782796021512"
Food Group:  Branded Food Products Database
Common Name:

Nutrient,Unit,Data points,Std. Error,"3.0 ONZ = 85.0g",1Value per 100 g,
Proximates
"Energy",kcal,--,--,15,18
"Protein",g,--,--,0.00,0.00
"Total lipid (fat)",g,--,--,0.00,0.00
"Carbohydrate, by difference",g,--,--,4.00,4.71
"Fiber, total dietary",g,--,--,1.0,1.2
"Sugars, total",g,--,--,2.00,2.35
Minerals
"Calcium, Ca",mg,--,--,20,24
"Iron, Fe",mg,--,--,0.36,0.42
"Sodium, Na",mg,--,--,60,71
Vitamins
"Vitamin C, total ascorbic acid",mg,--,--,3.6,4.2
"Vitamin A, IU",IU,--,--,4500,5294
Lipids
"Fatty acids, total saturated",g,--,--,0.000,0.000
"Fatty acids, total trans",g,--,--,0.000,0.000
"Cholesterol",mg,--,--,0,0
Amino Acids
Other
Ingredients
"CELERY, CARROTS, WATER." Date available: 09/15/2017 Date last updated by company: 09/15/2017
