Source: USDA Branded Food Products Database Release December 2017 Software v.3.8.6.4 2017-10-02
Report Run at: December 19, 2017 01:02 EST
"Nutrient data for: 45122452, CELESTE, SUPREME PIZZA, UPC: 019600046707"
Food Group:  Branded Food Products Database
Common Name:

Nutrient,Unit,Data points,Std. Error,"1 PIZZA = 169.0g",1Value per 100 g,
Proximates
"Energy",kcal,--,--,370,219
"Protein",g,--,--,10.00,5.92
"Total lipid (fat)",g,--,--,18.00,10.65
"Carbohydrate, by difference",g,--,--,42.00,24.85
"Fiber, total dietary",g,--,--,2.0,1.2
"Sugars, total",g,--,--,4.01,2.37
Minerals
"Calcium, Ca",mg,--,--,150,89
"Iron, Fe",mg,--,--,3.11,1.84
"Sodium, Na",mg,--,--,799,473
Vitamins
"Vitamin C, total ascorbic acid",mg,--,--,13.9,8.2
"Vitamin A, IU",IU,--,--,346,205
Lipids
"Fatty acids, total saturated",g,--,--,7.994,4.730
"Fatty acids, total monounsaturated",g,--,--,5.002,2.960
"Fatty acids, total polyunsaturated",g,--,--,4.005,2.370
"Fatty acids, total trans",g,--,--,0.000,0.000
"Cholesterol",mg,--,--,15,9
Amino Acids
Other
Ingredients
"TOPPING: SAUCE (WATER, TOMATO PASTE, SEASONING (SALT, SPICES, SUGAR, DEHYDRATED GARLIC), FLAVOR BLEND (MALTODEXTRIN, DEXTROSE, NATURAL SPICES OLEORESINS), MODIFIED CORN STARCH, XANTHAN GUM), IMITATION MOZZARELLA BLEND (WATER, PALM OIL, MODIFIED POTATO STARCH, RENNET CASEIN, MODIFIED CORN STARCH, SODIUM CITRATE, SALT, SODIUM PHOSPHATE, NATURAL FLAVOR, CARRAGEENAN, LACTIC ACID, TITANIUM DIOXIDE), MOZZARELLA [PASTEURIZED CULTURED REDUCED FAT MILK, SALT, ENZYMES], COOKED SAUSAGE MADE WITH PORK-CHICKEN ADDED (PORK, MECHANICALLY SEPARATED CHICKEN, WATER, SEASONING (SPICES, SALT, DEXTROSE, PAPRIKA, BHT, TBHQ, CITRIC ACID), MUSHROOMS, DICED PEPPERONI MADE WITH PORK-CHICKEN ADDED-SMOKE FLAVOR ADDED (PORK, MECHANICALLY SEPARATED CHICKEN, SALT, SPICES, WATER, DEXTROSE, SEASONING (NATURAL SPICE EXTRACTIVES, EXTRACTIVES OF PAPRIKA, NATURAL SMOKE FLAVOR, BHA, BHT, CITRIC ACID), LACTIC ACID STARTER CULTURE, SODIUM NITRITE), GREEN BELL PEPPERS, ONIONS, RED BELL PEPPERS. CRUST: WHEAT FLOUR WITH MALTED BARLEY FLOUR, WATER, SHORTENING FLAKE (PALM OIL, SOY LECITHIN, BUTTER FLAVOR [COTTONSEED OIL, FLAVOR], AND BETA CAROTENE), SOYBEAN OIL, YEAST, HIGH FRUCTOSE CORN SYRUP, SALT, FERMENTED WHEAT FLOUR, CULTURED CORN SYRUP SOLIDS, DOUGH CONDITIONER (L-CYSTEINE MONOHYDROCHLORIDE)." Date available: 09/11/2017 Date last updated by company: 09/11/2017
