Source: USDA Branded Food Products Database Release December 2017 Software v.3.8.6.4 2017-10-02
Report Run at: December 19, 2017 00:57 EST
"Nutrient data for: 45161333, CELEBRATION BY SWEETWORKS, GUMBALLS CANDY, UPC: 800093749349"
Food Group:  Branded Food Products Database
Common Name:

Nutrient,Unit,Data points,Std. Error,"1 PIECE = 8.0g",1Value per 100 g,
Proximates
"Energy",kcal,--,--,25,312
"Protein",g,--,--,0.00,0.00
"Total lipid (fat)",g,--,--,0.00,0.00
"Carbohydrate, by difference",g,--,--,6.00,75.00
"Fiber, total dietary",g,--,--,0.0,0.0
"Sugars, total",g,--,--,6.00,75.00
Minerals
"Calcium, Ca",mg,--,--,100,1250
"Iron, Fe",mg,--,--,0.00,0.00
"Sodium, Na",mg,--,--,0,0
Vitamins
"Vitamin C, total ascorbic acid",mg,--,--,0.0,0.0
"Vitamin A, IU",IU,--,--,0,0
Lipids
"Fatty acids, total saturated",g,--,--,0.000,0.000
"Fatty acids, total trans",g,--,--,0.000,0.000
"Cholesterol",mg,--,--,0,0
Amino Acids
Other
Ingredients
"SUGAR, DEXTROSE, CORN SYRUP, GUM BASE (SOY), GLYCERIN, RESINOUS GLAZE (CONFECTIONER'S GLAZE), NATURAL AND ARTIFICIAL FLAVORS, TAPIOCA DEXTRIN, CARNAUBA WAX, COLOURS (YELLOW 6, RED 40, BLUE 2, TITANIUM DIOXIDE, YELLOW 6 LAKE, RED 40 LAKE, BLUE 2 LAKE), BHT (TO MAINTAIN FRESHNESS)." Date available: 07/14/2017 Date last updated by company: 07/14/2017
