Source: USDA Branded Food Products Database Release December 2017 Software v.3.8.6.4 2017-10-02
Report Run at: December 19, 2017 00:58 EST
"Nutrient data for: 45214949, CELEBRATIONS POPS, UPC: 072965763245"
Food Group:  Branded Food Products Database
Common Name:

Nutrient,Unit,Data points,Std. Error,"15.0 GRM = 15.0g",1Value per 100 g,
Proximates
"Energy",kcal,--,--,60,400
"Protein",g,--,--,0.00,0.00
"Total lipid (fat)",g,--,--,0.00,0.00
"Carbohydrate, by difference",g,--,--,15.00,100.00
"Fiber, total dietary",g,--,--,0.0,0.0
"Sugars, total",g,--,--,12.00,80.00
Minerals
"Calcium, Ca",mg,--,--,0,0
"Iron, Fe",mg,--,--,0.00,0.00
"Sodium, Na",mg,--,--,0,0
Vitamins
"Vitamin C, total ascorbic acid",mg,--,--,0.0,0.0
"Vitamin A, IU",IU,--,--,0,0
Lipids
"Fatty acids, total saturated",g,--,--,0.000,0.000
"Fatty acids, total trans",g,--,--,0.000,0.000
"Cholesterol",mg,--,--,0,0
Amino Acids
Other
Ingredients
"SUGAR, CORN SYRUP, NATURAL OR ARTIFICIAL FLAVOR, CITRIC ACID, CARAMEL COLOR, ARTIFICIAL COLOR (BLUE 1, BLUE 2, BLUE 2 LAKE, RED 3, RED 40, RED 40 LAKE, YELLOW 5, YELLOW 6, YELLOW 6 LAKE, TITANIUM DIOXIDE." Date available: 07/14/2017 Date last updated by company: 07/14/2017
