Source: USDA Branded Food Products Database Release December 2017 Software v.3.8.6.4 2017-10-02
Report Run at: December 19, 2017 01:05 EST
"Nutrient data for: 45222436, CELIA'S HOT WRAPS FLOUR TORTILLAS, UPC: 890971002307"
Food Group:  Branded Food Products Database
Common Name:

Nutrient,Unit,Data points,Std. Error,"1 TORTILLA = 50.0g",1Value per 100 g,
Proximates
"Energy",kcal,--,--,130,260
"Protein",g,--,--,3.00,6.00
"Total lipid (fat)",g,--,--,3.00,6.00
"Carbohydrate, by difference",g,--,--,23.00,46.00
"Fiber, total dietary",g,--,--,1.0,2.0
"Sugars, total",g,--,--,0.00,0.00
Minerals
"Calcium, Ca",mg,--,--,100,200
"Iron, Fe",mg,--,--,1.58,3.17
"Sodium, Na",mg,--,--,230,460
Vitamins
"Vitamin C, total ascorbic acid",mg,--,--,0.0,0.0
"Vitamin A, IU",IU,--,--,0,0
Lipids
"Fatty acids, total saturated",g,--,--,0.500,1.000
"Fatty acids, total trans",g,--,--,0.000,0.000
"Cholesterol",mg,--,--,0,0
Amino Acids
Other
Ingredients
"ENRICHED WHEAT FLOUR (NIACIN, REDUCED IRON, THIAMIN MONONITRATE, RIBOFLAVIN, ENZYME, FOLIC ACID), WATER, VEGETABLE SHORTENING (HYDROGENATED SOYBEAN OIL), CONTAINS 2% OR LESS OF THE FOLLOWING: SALT, MONO AND DIGLYCERIDES, DEXTROSE, SODIUM BICARBONATE, CALCIUM PROPIONATE, POTASSIUM SORBATE, SODIUM ALUMINUM SULFATE, FUMARIC ACID, SODIUM ALUMINUM PHOSPHATE, CORN STARCH, YEAST, GUAR GUM, XANTHAN GUM, CMC GUM, ENZYME (WHEAT STARCH AND MICROCRYSTALLINE CELLULOSE), SODIUM METABISULFITE, SUGAR, HOT SAUCE POWDER (HOT SAUCE [AGED CAYENNE RED PEPPERS AND GARLIC]), LACTIC ACID, CITRIC ACID, MALIC ACID, DRIED VINEGAR POWDER (MALTODEXTRIN, WHITE DISTILLED VINEGAR, MODIFIED FOOD STARCH), GARLIC POWDER, OLEORESIN PAPRIKA, NATURAL AND ARTIFICIAL FLAVORS, PEPPERS, VINEGAR, BENZOATE OF SODA AND HOT MORE THAN 2 PERCENT OF SILICON DIOXIDE USED AS A PROCESSING AID." Date available: 07/14/2017 Date last updated by company: 07/14/2017
