Source: USDA Branded Food Products Database Release December 2017 Software v.3.8.6.4 2017-10-02
Report Run at: December 19, 2017 01:05 EST
"Nutrient data for: 45224092, CELLA'S, DARK CHOCOLATE COVERED CHERRIES, UPC: 011228000604"
Food Group:  Branded Food Products Database
Common Name:

Nutrient,Unit,Data points,Std. Error,"3.0 PIECES = 43.0g",1Value per 100 g,
Proximates
"Energy",kcal,--,--,150,349
"Protein",g,--,--,1.00,2.33
"Total lipid (fat)",g,--,--,7.00,16.28
"Carbohydrate, by difference",g,--,--,29.00,67.44
"Fiber, total dietary",g,--,--,1.0,2.3
"Sugars, total",g,--,--,21.00,48.84
Minerals
"Calcium, Ca",mg,--,--,20,47
"Iron, Fe",mg,--,--,0.84,1.95
"Sodium, Na",mg,--,--,10,23
Vitamins
"Vitamin C, total ascorbic acid",mg,--,--,0.0,0.0
"Vitamin A, IU",IU,--,--,0,0
Lipids
"Fatty acids, total saturated",g,--,--,3.999,9.300
"Fatty acids, total trans",g,--,--,0.000,0.000
"Cholesterol",mg,--,--,0,0
Amino Acids
Other
Ingredients
"SEMI-SWEET CHOCOLATE {SUGAR, CHOCOLATE, COCOA BUTTER, SOY LECITHIN (AN EMULSIFIER)}, CHERRIES TREATED WITH SULFUR DIOXIDE (A PRESERVATIVE), SUGAR, CORN SYRUP, CITRIC ACID, SODIUM BENZOATE (A PRESERVATIVE), ARTIFICIAL FLAVOR, CALCIUM CHLORIDE, ARTIFICIAL COLOR (FD&C RED 40), MILK." Date available: 07/14/2017 Date last updated by company: 07/14/2017
