Source: USDA Branded Food Products Database Release December 2017 Software v.3.8.6.4 2017-10-02
Report Run at: December 19, 2017 01:08 EST
"Nutrient data for: 45016671, CENTO, MARINATED ROASTED PEPPERS, UPC: 070796601484"
Food Group:  Branded Food Products Database
Common Name:

Nutrient,Unit,Data points,Std. Error,"1 ONZ = 30.0g",1Value per 100 g,
Proximates
"Energy",kcal,--,--,15,50
"Protein",g,--,--,0.00,0.00
"Total lipid (fat)",g,--,--,1.00,3.33
"Carbohydrate, by difference",g,--,--,1.00,3.33
"Fiber, total dietary",g,--,--,0.0,0.0
"Sugars, total",g,--,--,1.00,3.33
Minerals
"Calcium, Ca",mg,--,--,0,0
"Iron, Fe",mg,--,--,0.00,0.00
"Sodium, Na",mg,--,--,100,333
Vitamins
"Vitamin C, total ascorbic acid",mg,--,--,25.0,83.3
"Vitamin A, IU",IU,--,--,833,2778
Lipids
"Fatty acids, total saturated",g,--,--,0.000,0.000
"Fatty acids, total trans",g,--,--,0.000,0.000
"Cholesterol",mg,--,--,0,0
Amino Acids
Other
Ingredients
"RED SWEET PEPPER, WATER, OLIVE OIL, EXTRA VIRGIN OLIVE OIL, GARLIC, VINEGAR, SEA SALT AND CITRIC ACID." Date available: 06/25/2017 Date last updated by company: 06/25/2017
