Source: USDA Branded Food Products Database Release December 2017 Software v.3.8.6.4 2017-10-02
Report Run at: December 19, 2017 01:08 EST
"Nutrient data for: 45009506, CENTO, MARINARA PASTA SUCE, UPC: 070796900143"
Food Group:  Branded Food Products Database
Common Name:

Nutrient,Unit,Data points,Std. Error,"0.5 cup = 124.0g",1Value per 100 g,
Proximates
"Energy",kcal,--,--,60,48
"Protein",g,--,--,1.00,0.81
"Total lipid (fat)",g,--,--,3.00,2.42
"Carbohydrate, by difference",g,--,--,6.00,4.84
"Fiber, total dietary",g,--,--,2.0,1.6
"Sugars, total",g,--,--,4.01,3.23
Minerals
"Calcium, Ca",mg,--,--,20,16
"Iron, Fe",mg,--,--,0.38,0.31
"Sodium, Na",mg,--,--,360,290
Vitamins
"Vitamin C, total ascorbic acid",mg,--,--,9.5,7.7
"Vitamin A, IU",IU,--,--,528,426
Lipids
"Fatty acids, total saturated",g,--,--,0.000,0.000
"Fatty acids, total trans",g,--,--,0.000,0.000
"Cholesterol",mg,--,--,0,0
Amino Acids
Other
Ingredients
"IMPORTED WHOLE PEELED ITALIAN TOMATOES, ONIONS, PURE OLIVE OIL, GARLIC, EXTRA VIRGIN OLIVE OIL, SEA SALT, SPICES." Date available: 06/24/2017 Date last updated by company: 06/24/2017
