Source: USDA Branded Food Products Database Release December 2017 Software v.3.8.6.4 2017-10-02
Report Run at: December 19, 2017 01:07 EST
"Nutrient data for: 45022945, CENTO, CHEF'S CUT, PEPPERONCINI, UPC: 070796600418"
Food Group:  Branded Food Products Database
Common Name:

Nutrient,Unit,Data points,Std. Error,"1 ONZ = 28.0g",1Value per 100 g,
Proximates
"Energy",kcal,--,--,5,18
"Protein",g,--,--,0.00,0.00
"Total lipid (fat)",g,--,--,0.00,0.00
"Carbohydrate, by difference",g,--,--,2.00,7.14
"Fiber, total dietary",g,--,--,1.0,3.6
"Sugars, total",g,--,--,0.00,0.00
Minerals
"Sodium, Na",mg,--,--,200,714
Vitamins
Lipids
"Fatty acids, total saturated",g,--,--,0.000,0.000
"Fatty acids, total trans",g,--,--,0.000,0.000
"Cholesterol",mg,--,--,0,0
Amino Acids
Other
Ingredients
"PEPPERONCINI, WATER, VINEGAR, SALT, CITRIC ACID, FD&C YELLOW #5, SODIUM BISULFITE TO PRESERVE COLOR AND BENZOATE OF SODA AS A PRESERVATIVE" Date available: 08/22/2017 Date last updated by company: 08/22/2017
