Source: USDA Branded Food Products Database Release December 2017 Software v.3.8.6.4 2017-10-02
Report Run at: December 19, 2017 01:11 EST
"Nutrient data for: 45178789, CERAMIC GOBLET WITH CANDY CONVERSATION HEARTS, UPC: 768395496029"
Food Group:  Branded Food Products Database
Common Name:

Nutrient,Unit,Data points,Std. Error,"10.0 PIECES = 15.0g",1Value per 100 g,
Proximates
"Energy",kcal,--,--,60,400
"Protein",g,--,--,0.00,0.00
"Total lipid (fat)",g,--,--,0.00,0.00
"Carbohydrate, by difference",g,--,--,14.00,93.33
"Sugars, total",g,--,--,13.00,86.67
Minerals
"Sodium, Na",mg,--,--,0,0
Vitamins
Lipids
Amino Acids
Other
Ingredients
"SUGAR, CORN SYRUP, CORNSTARCH, GLYCERIN, GELATIN, ARTIFICIAL FLAVOR, RED 3, YELLOW 5, YELLOW 6, BLUE 1, RED 40" Date available: 07/14/2017 Date last updated by company: 07/14/2017
