Source: USDA Branded Food Products Database Release December 2017 Software v.3.8.6.4 2017-10-02
Report Run at: December 19, 2017 01:14 EST
"Nutrient data for: 45327169, CEREAL, UPC: 042400404170"
Food Group:  Branded Food Products Database
Common Name:

Nutrient,Unit,Data points,Std. Error,"0.75 cup = 29.0g",1Value per 100 g,
Proximates
"Energy",kcal,--,--,110,379
"Protein",g,--,--,2.00,6.90
"Total lipid (fat)",g,--,--,0.00,0.00
"Carbohydrate, by difference",g,--,--,26.00,89.66
"Fiber, total dietary",g,--,--,0.0,0.0
"Sugars, total",g,--,--,16.00,55.17
Minerals
"Calcium, Ca",mg,--,--,0,0
"Iron, Fe",mg,--,--,0.62,2.14
"Phosphorus, P",mg,--,--,104,357
"Potassium, K",mg,--,--,50,172
"Sodium, Na",mg,--,--,65,224
"Zinc, Zn",mg,--,--,0.30,1.03
Vitamins
"Vitamin C, total ascorbic acid",mg,--,--,0.0,0.0
"Thiamin",mg,--,--,0.870,3.000
"Niacin",mg,--,--,0.690,2.379
"Pantothenic acid",mg,--,--,0.690,2.379
"Vitamin A, IU",IU,--,--,0,0
Lipids
"Fatty acids, total saturated",g,--,--,0.000,0.000
"Fatty acids, total trans",g,--,--,0.000,0.000
"Cholesterol",mg,--,--,0,0
Amino Acids
Other
Ingredients
"SUGAR, WHEAT, CORN SYRUP, SALT, HONEY, CARAMEL COLOR. VITAMINS AND MINERALS: THIAMIN MONONITRATE (VITAMIN B1), CALCIUM PANTOTHENATE (VITAMIN B5), FOLIC ACID." Date available: 10/13/2017 Date last updated by company: 10/13/2017
