Source: USDA Branded Food Products Database Release December 2017 Software v.3.8.6.4 2017-10-02
Report Run at: December 19, 2017 01:16 EST
"Nutrient data for: 45215829, CERVELAT SUMMER SAUSAGE, UPC: 080703120502"
Food Group:  Branded Food Products Database
Common Name:

Nutrient,Unit,Data points,Std. Error,"2.0 ONZ = 56.0g",1Value per 100 g,
Proximates
"Energy",kcal,--,--,150,268
"Protein",g,--,--,9.00,16.07
"Total lipid (fat)",g,--,--,12.00,21.43
"Carbohydrate, by difference",g,--,--,1.00,1.79
"Fiber, total dietary",g,--,--,0.0,0.0
"Sugars, total",g,--,--,0.00,0.00
Minerals
"Calcium, Ca",mg,--,--,20,36
"Iron, Fe",mg,--,--,1.06,1.89
"Sodium, Na",mg,--,--,560,1000
Vitamins
"Vitamin C, total ascorbic acid",mg,--,--,1.2,2.1
"Vitamin A, IU",IU,--,--,0,0
Lipids
"Fatty acids, total saturated",g,--,--,3.998,7.140
"Fatty acids, total trans",g,--,--,0.000,0.000
"Cholesterol",mg,--,--,45,80
Amino Acids
Other
Ingredients
"PORK, PORK HEARTS, BEEF, WATER, SALT, NONFAT DRY MILK, ISOLATED SOY PROTEIN, SUGAR, FLAVORINGS, GARLIC, SMOKE FLAVOR, SODIUM ERYTHORBATE, SODIUM NITRITE AND SPICE EXTRACTIVES." Date available: 07/14/2017 Date last updated by company: 07/14/2017
