Source: USDA Branded Food Products Database Release December 2017 Software v.3.8.6.4 2017-10-02
Report Run at: December 19, 2017 01:19 EST
"Nutrient data for: 45229545, CHAI, UPC: 041303063286"
Food Group:  Branded Food Products Database
Common Name:

Nutrient,Unit,Data points,Std. Error,"1 K-CUP POD = 14.0g",1Value per 100 g,
Proximates
"Energy",kcal,--,--,60,429
"Protein",g,--,--,1.00,7.14
"Total lipid (fat)",g,--,--,2.50,17.86
"Carbohydrate, by difference",g,--,--,9.00,64.29
"Fiber, total dietary",g,--,--,0.0,0.0
"Sugars, total",g,--,--,7.00,50.00
Minerals
"Calcium, Ca",mg,--,--,20,143
"Iron, Fe",mg,--,--,0.00,0.00
"Sodium, Na",mg,--,--,230,1643
Vitamins
"Vitamin C, total ascorbic acid",mg,--,--,0.0,0.0
"Vitamin A, IU",IU,--,--,0,0
Lipids
"Fatty acids, total saturated",g,--,--,2.500,17.860
"Fatty acids, total trans",g,--,--,0.000,0.000
"Cholesterol",mg,--,--,0,0
Amino Acids
Other
Ingredients
"SUGAR, CREAMER (HYDROGENATED COCONUT OIL, GLUCOSE SYRUP, SALT, SODIUM CASEINATE (A MILK DERIVATIVE), SODIUM POLYPHOSPHATE, DIPOTASSIUM PHOSPHATE, SODIUM STEAROYL-2-LACTYLATE, NATURAL AND ARTIFICIAL FLAVOR), NONFAT DRY MILK, INSTANT TEA, NATURAL AND ARTIFICIAL FLAVORS, SALT, COCOA (PROCESSED WITH ALKALI), SUCRALOSE, ACESULFAME POTASSIUM." Date available: 07/14/2017 Date last updated by company: 07/14/2017
