Source: USDA Branded Food Products Database Release December 2017 Software v.3.8.6.4 2017-10-02
Report Run at: December 19, 2017 01:19 EST
"Nutrient data for: 45010271, CHAI TEA LATTE POWDERED MIX, UPC: 707082700087"
Food Group:  Branded Food Products Database
Common Name:

Nutrient,Unit,Data points,Std. Error,"1 PACKET = 31.0g",1Value per 100 g,
Proximates
"Energy",kcal,--,--,130,419
"Protein",g,--,--,2.00,6.45
"Total lipid (fat)",g,--,--,1.00,3.23
"Carbohydrate, by difference",g,--,--,27.00,87.10
"Fiber, total dietary",g,--,--,0.0,0.0
"Sugars, total",g,--,--,25.00,80.65
Minerals
"Calcium, Ca",mg,--,--,60,194
"Iron, Fe",mg,--,--,0.00,0.00
"Sodium, Na",mg,--,--,120,387
Vitamins
"Vitamin C, total ascorbic acid",mg,--,--,0.0,0.0
"Vitamin A, IU",IU,--,--,0,0
Lipids
"Fatty acids, total saturated",g,--,--,0.499,1.610
"Fatty acids, total trans",g,--,--,0.000,0.000
"Cholesterol",mg,--,--,5,16
Amino Acids
Other
Ingredients
"SUGAR, DRIED WHOLE MILK, DRIED NONFAT MILK, DRIED HONEY, TAPIOCA MALTODEXTRIN, INSTANT BLACK TEA, NATURAL FLAVOR, SALT" Date available: 07/14/2017 Date last updated by company: 07/14/2017
