Source: USDA Branded Food Products Database Release December 2017 Software v.3.8.6.4 2017-10-02
Report Run at: December 19, 2017 01:23 EST
"Nutrient data for: 45094707, CHAOKOH, QUAIL EGG IN BRINE, UPC: 044738074186"
Food Group:  Branded Food Products Database
Common Name:

Nutrient,Unit,Data points,Std. Error,"6.0 EGGS DRAINED = 52.0g",1Value per 100 g,
Proximates
"Energy",kcal,--,--,90,173
"Protein",g,--,--,7.00,13.46
"Total lipid (fat)",g,--,--,6.00,11.54
"Carbohydrate, by difference",g,--,--,1.00,1.92
"Fiber, total dietary",g,--,--,1.0,1.9
"Sugars, total",g,--,--,0.00,0.00
Minerals
"Calcium, Ca",mg,--,--,20,38
"Iron, Fe",mg,--,--,2.67,5.13
"Sodium, Na",mg,--,--,121,233
Vitamins
"Vitamin C, total ascorbic acid",mg,--,--,0.0,0.0
"Vitamin A, IU",IU,--,--,634,1220
Lipids
"Fatty acids, total saturated",g,--,--,2.501,4.810
"Fatty acids, total trans",g,--,--,0.000,0.000
"Cholesterol",mg,--,--,325,625
Amino Acids
Other
Ingredients
"QUAIL EGG, WATER, SALT, CITRIC ACID (AS ANTIOXIDANT), TETRASODIUM PYROPHOSPHATE (AS FIRMING AGENT)." Date available: 06/25/2017 Date last updated by company: 06/25/2017
