Source: USDA Branded Food Products Database Release December 2017 Software v.3.8.6.4 2017-10-02
Report Run at: December 19, 2017 01:26 EST
"Nutrient data for: 45202058, CHARMED BAR, BAR, CASHEW BUTTER APPLE-RAGEOUS, UPC: 851159005046"
Food Group:  Branded Food Products Database
Common Name:

Nutrient,Unit,Data points,Std. Error,"1 PACKAGE = 50.0g",1Value per 100 g,
Proximates
"Energy",kcal,--,--,230,460
"Protein",g,--,--,5.00,10.00
"Total lipid (fat)",g,--,--,14.00,28.00
"Carbohydrate, by difference",g,--,--,25.00,50.00
"Fiber, total dietary",g,--,--,3.0,6.0
"Sugars, total",g,--,--,13.00,26.00
Minerals
"Calcium, Ca",mg,--,--,60,120
"Iron, Fe",mg,--,--,2.70,5.40
"Sodium, Na",mg,--,--,75,150
Vitamins
Lipids
"Fatty acids, total saturated",g,--,--,3.500,7.000
Amino Acids
Other
Ingredients
"HONEY, CASHEWS, CASHEW BUTTER (CASHEWS), SUNFLOWER SEEDS, RAISINS, APPLES, COCONUT, CINNAMON, SEA SALT." Date available: 10/02/2017 Date last updated by company: 10/02/2017
