Source: USDA Branded Food Products Database Release December 2017 Software v.3.8.6.4 2017-10-02
Report Run at: December 19, 2017 01:25 EST
"Nutrient data for: 45251997, CHARLOTTE'S, COOKIES, PEANUT BUTTER FUDGE, UPC: 628834045006"
Food Group:  Branded Food Products Database
Common Name:

Nutrient,Unit,Data points,Std. Error,"1 COOKIE = 32.0g",1Value per 100 g,
Proximates
"Energy",kcal,--,--,120,375
"Protein",g,--,--,3.00,9.38
"Total lipid (fat)",g,--,--,6.00,18.75
"Carbohydrate, by difference",g,--,--,19.00,59.38
"Fiber, total dietary",g,--,--,1.0,3.1
"Sugars, total",g,--,--,12.00,37.50
Minerals
"Calcium, Ca",mg,--,--,0,0
"Iron, Fe",mg,--,--,1.13,3.52
"Sodium, Na",mg,--,--,50,156
Vitamins
"Vitamin C, total ascorbic acid",mg,--,--,0.0,0.0
"Vitamin A, IU",IU,--,--,156,488
Lipids
"Fatty acids, total saturated",g,--,--,1.501,4.690
"Fatty acids, total trans",g,--,--,0.000,0.000
"Cholesterol",mg,--,--,0,0
Amino Acids
Other
Ingredients
"SUGAR, ROLLED OATS, PEANUT BUTTER (PEANUTS, SUGAR, DEXTROSE/SUCROSE, HYDROGENATED VEGETABLE OILS [SOYBEAN, COTTONSEED, RAPESEED], SALT), MARGARINE (NON-HYDROGENATED VEGETABLE OIL [SOYBEAN OIL, MODIFIED PALM OIL], WATER, SALT, WHEY POWDER [MILK], SOY LECITHIN, MONOGLYCERIDES, NATURAL FLAVOR [ANNATTO EXTRACT ADDED FOR COLOR], VITAMIN A PALMITATE, VITAMIN D3), MILK, WATER, COCOA, GLUCOSE, ARTIFICIAL FLAVOR." Date available: 07/14/2017 Date last updated by company: 07/14/2017
