Source: USDA Branded Food Products Database Release December 2017 Software v.3.8.6.4 2017-10-02
Report Run at: December 19, 2017 01:24 EST
"Nutrient data for: 45169917, CHARLES CHOCOLATES, CHOCOLATES, UPC: 859033004413"
Food Group:  Branded Food Products Database
Common Name:

Nutrient,Unit,Data points,Std. Error,"31.0 GRM = 31.0g",1Value per 100 g,
Proximates
"Energy",kcal,--,--,170,548
"Protein",g,--,--,2.00,6.45
"Total lipid (fat)",g,--,--,13.00,41.94
"Carbohydrate, by difference",g,--,--,14.00,45.16
"Fiber, total dietary",g,--,--,2.0,6.5
"Sugars, total",g,--,--,10.00,32.26
Minerals
"Calcium, Ca",mg,--,--,20,65
"Iron, Fe",mg,--,--,2.32,7.49
"Sodium, Na",mg,--,--,40,129
Vitamins
"Vitamin C, total ascorbic acid",mg,--,--,0.0,0.0
"Vitamin A, IU",IU,--,--,0,0
Lipids
"Fatty acids, total saturated",g,--,--,3.999,12.900
"Fatty acids, total trans",g,--,--,0.000,0.000
"Cholesterol",mg,--,--,0,0
Amino Acids
Other
Ingredients
"HAZELNUTS, 41% MILK CHOCOLATE (PURE CANE SUGAR, COCOA BUTTER, FULL CREAM MILK, COCOA BEANS, SOYA LECITHIN, VANILLA BEANS), PURE CANE SUGAR, 65% BITTERSWEET CHOCOLATE (COCOA BEANS, PURE CANE SUGAR, COCOA BUTTER, SOYA LECITHIN, VANILLA BEANS), FEUILLETINE (FLOUR, SUGAR, CLARIFIED BUTTER, MILK, SALT, BARLEY MALT FLOUR, BAKING SODA), COCOA BUTTER, VANILLA BEANS, SALT." Date available: 08/25/2017 Date last updated by company: 08/25/2017
