Source: USDA Branded Food Products Database Release December 2017 Software v.3.8.6.4 2017-10-02
Report Run at: December 19, 2017 01:28 EST
"Nutrient data for: 45157240, CHASE CANDY COMPANY, PECO FLAKE, UPC: 078184339445"
Food Group:  Branded Food Products Database
Common Name:

Nutrient,Unit,Data points,Std. Error,"2.0 ONZ = 57.0g",1Value per 100 g,
Proximates
"Energy",kcal,--,--,282,495
"Protein",g,--,--,1.00,1.75
"Total lipid (fat)",g,--,--,13.00,22.81
"Carbohydrate, by difference",g,--,--,36.00,63.16
"Fiber, total dietary",g,--,--,2.0,3.5
"Sugars, total",g,--,--,23.00,40.35
Minerals
"Calcium, Ca",mg,--,--,20,35
"Iron, Fe",mg,--,--,1.42,2.49
"Sodium, Na",mg,--,--,18,32
Vitamins
"Vitamin C, total ascorbic acid",mg,--,--,1.0,1.8
"Vitamin A, IU",IU,--,--,88,154
Lipids
"Fatty acids, total saturated",g,--,--,6.002,10.530
"Fatty acids, total trans",g,--,--,0.000,0.000
"Cholesterol",mg,--,--,1,2
Amino Acids
Other
Ingredients
"SUGAR, PEANUTS, CORN SYRUP, COCONUT, SALT & YELLOW #5." Date available: 07/14/2017 Date last updated by company: 07/14/2017
