Source: USDA Branded Food Products Database Release December 2017 Software v.3.8.6.4 2017-10-02
Report Run at: December 19, 2017 01:29 EST
"Nutrient data for: 45257743, CHATT PATA PAKORA MIX, UPC: 620514001241"
Food Group:  Branded Food Products Database
Common Name:

Nutrient,Unit,Data points,Std. Error,"3.0 Tbsp = 30.0g",1Value per 100 g,
Proximates
"Energy",kcal,--,--,70,233
"Protein",g,--,--,7.00,23.33
"Total lipid (fat)",g,--,--,1.00,3.33
"Carbohydrate, by difference",g,--,--,18.00,60.00
"Fiber, total dietary",g,--,--,9.0,30.0
"Sugars, total",g,--,--,1.00,3.33
Minerals
"Calcium, Ca",mg,--,--,30,100
"Iron, Fe",mg,--,--,3.90,13.00
"Sodium, Na",mg,--,--,390,1300
Vitamins
"Vitamin C, total ascorbic acid",mg,--,--,3.0,10.0
"Vitamin A, IU",IU,--,--,584,1945
Lipids
"Fatty acids, total saturated",g,--,--,0.000,0.000
"Fatty acids, total trans",g,--,--,0.000,0.000
"Cholesterol",mg,--,--,0,0
Amino Acids
Other
Ingredients
"GRAM FLOUR, RICE FLOUR, RED CHILLI, SALT, CORIANDER, CUMIN SEED, SUGAR, FENUGREEK LEAF, AMORPHOUS SILICON DIOXIDE (E551) AS ANTICAKING AGENT, SODIUM BICARBONATE (E500) AS RAISING AGENT, LACTIC ACID (E270), ASAFOETIDA." Date available: 08/10/2017 Date last updated by company: 08/10/2017
