Source: USDA Branded Food Products Database Release December 2017 Software v.3.8.6.4 2017-10-02
Report Run at: December 19, 2017 01:31 EST
"Nutrient data for: 45277535, CHEDDAR CHEESE AND BACON STUFFED POTATO SKINS, UPC: 041268192861"
Food Group:  Branded Food Products Database
Common Name:

Nutrient,Unit,Data points,Std. Error,"2.0 PIECES = 72.0g",1Value per 100 g,
Proximates
"Energy",kcal,--,--,160,222
"Protein",g,--,--,5.00,6.94
"Total lipid (fat)",g,--,--,10.00,13.89
"Carbohydrate, by difference",g,--,--,12.00,16.67
"Fiber, total dietary",g,--,--,2.0,2.8
"Sugars, total",g,--,--,1.00,1.39
Minerals
"Calcium, Ca",mg,--,--,80,111
"Iron, Fe",mg,--,--,1.27,1.77
"Sodium, Na",mg,--,--,380,528
Vitamins
"Vitamin C, total ascorbic acid",mg,--,--,10.7,14.8
"Vitamin A, IU",IU,--,--,118,164
Lipids
"Fatty acids, total saturated",g,--,--,3.002,4.170
"Fatty acids, total trans",g,--,--,0.000,0.000
"Cholesterol",mg,--,--,10,14
Amino Acids
Other
Ingredients
"POTATO SHELL (POTATO, CANOLA OIL), CHEESE SAUCE (WATER, CULTURED MILK, CANOLA OIL, CREAM, WHEY, MODIFIED FOOD STARCH (TAPIOCA AND CORN), SODIUM PHOSPHATES, (CHEDDAR CHEESE (PASTEURIZED MILK, CULTURE, SALT, ENZYMES), WATER, DISODIUM PHOSPHATE, NATURAL FLAVORS, ANHYDROUS BUTTER OIL AND ZANTHAN GUM), SALT, LACTIC ACID, SORBIC ACID (PRESERVATIVE), APO-CAROTENAL COLOR, ENZYMES), BACON (BACON CURED WITH WATER, SALT, SODIUM ERYTHORBATE, SODIUM NITRITE. MAY CONTAIN: SUGAR, SMOKE FLAVORING, SODIUM PHOSPHATE), CHEDDAR CHEESE (PASTEURIZED CULTURED MILK, SALT, ENZYMES, ANNATTO), WATER, CHEDDAR CHEESE BLEND (WHEY, CHEDDAR CHEESE (CULTURED MILK, SALT, ENZYMES), MALTODEXTRIN, BUTTERMILK, SALT, CANOLA OIL, DISODIUM PHOSPHATE, LACTIC ACID, COLOR (YELLOW 5 AND 6, ANNATTO EXTRACT)), MALTODEXTRIN, MODIFIED FOOD STARCH, WHEY PROTEIN CONCENTRATE, SALT, FLAVOR, YEAST EXTRACT, XANTHAN GUM SODIUM ALGINATE, DISODIUM INOSINATE, BUTTERMILK POWDER, NONFAT DRY MILK, WHEY, DEXTRIN, SUGAR, CALCIUM LACTATE, ONION POWDER" Date available: 07/14/2017 Date last updated by company: 07/14/2017
