Source: USDA Branded Food Products Database Release December 2017 Software v.3.8.6.4 2017-10-02
Report Run at: December 19, 2017 01:29 EST
"Nutrient data for: 45201661, CHEDDAR & BACON BEEF STEAK BURGERS, UPC: 742158147175"
Food Group:  Branded Food Products Database
Common Name:

Nutrient,Unit,Data points,Std. Error,"1 PATTY = 113.0g",1Value per 100 g,
Proximates
"Energy",kcal,--,--,320,283
"Protein",g,--,--,21.00,18.58
"Total lipid (fat)",g,--,--,25.00,22.12
"Carbohydrate, by difference",g,--,--,0.99,0.88
"Fiber, total dietary",g,--,--,0.0,0.0
"Sugars, total",g,--,--,0.00,0.00
Minerals
"Calcium, Ca",mg,--,--,80,71
"Iron, Fe",mg,--,--,1.36,1.20
"Sodium, Na",mg,--,--,400,354
Vitamins
"Vitamin C, total ascorbic acid",mg,--,--,0.0,0.0
"Vitamin A, IU",IU,--,--,75,66
Lipids
"Fatty acids, total saturated",g,--,--,0.994,0.880
"Fatty acids, total trans",g,--,--,0.994,0.880
"Cholesterol",mg,--,--,85,75
Amino Acids
Other
Ingredients
"GROUND BEEF DERIVED FROM STEAK CUTS, CHEDDAR STYLE HI-MELT CHEESE (PASTEURIZED PROCESS CHEDDAR CHEESE [CHEDDAR CHEESE [CULTURED MILK, SALT, ENZYMES], WATER, CREAM, SODIUM PHOSPHATES, SALT, AND BETA CAROTENE], POWDERED CELLULOSE [TO PREVENT CAKING], POTASSIUM SORBATE AND NATAMYCIN [PRESERVATIVES]), PRE-COOKED BACON BITS (CURED WITH WATER, SALT, SUGAR, SMOKE FLAVORING, SODIUM PHOSPHATES, SODIUM ERYTHORBATE, SODIUM NITRITE)." Date available: 10/13/2017 Date last updated by company: 10/13/2017
