Source: USDA Branded Food Products Database Release December 2017 Software v.3.8.6.4 2017-10-02
Report Run at: December 19, 2017 01:38 EST
"Nutrient data for: 45087323, CHEDDAR STYLE SLICES, UPC: 871459000220"
Food Group:  Branded Food Products Database
Common Name:

Nutrient,Unit,Data points,Std. Error,"1 SLICE = 20.0g",1Value per 100 g,
Proximates
"Energy",kcal,--,--,60,300
"Protein",g,--,--,1.00,5.00
"Total lipid (fat)",g,--,--,4.50,22.50
"Carbohydrate, by difference",g,--,--,5.00,25.00
Minerals
"Sodium, Na",mg,--,--,115,575
Vitamins
Lipids
"Fatty acids, total saturated",g,--,--,2.000,10.000
"Fatty acids, total trans",g,--,--,0.000,0.000
"Cholesterol",mg,--,--,0,0
Amino Acids
Other
Ingredients
"FILTERED WATER, TAPIOCA STARCH, PALM FRUIT OIL EXPELLER PRESSED NON GMO CANOLA OIL AND/OR EXPELLER PRESSED NON GMO SAFFLOWER OIL COCONUT OIL, PEA PROTEIN ISOLATE, NATURAL VEGAN FLAVORS, VEGETABLE GLYCERINE, BROWN RICE SYRUP, SEA SALT, YEAST EXTRACT, XANTHAN GUM, LACTIC ACID(VEGAN, FOR FLAVOR), ANNATTO(FOR COLOR), CARRAGEENAN, TITANIUM DIOXIDE(A NATURALLY OCCURRING MINERAL), VEGAN ENZYME." Date available: 10/18/2017 Date last updated by company: 10/18/2017
