Source: USDA Branded Food Products Database Release December 2017 Software v.3.8.6.4 2017-10-02
Report Run at: December 19, 2017 01:32 EST
"Nutrient data for: 45055635, CHEDDAR CHEESE STRAWS MADE WITH THE FINEST SHARP CHEDDAR CHEESE & SPICES, UPC: 072036760760"
Food Group:  Branded Food Products Database
Common Name:

Nutrient,Unit,Data points,Std. Error,"8.0 STRAWS = 28.0g",1Value per 100 g,
Proximates
"Energy",kcal,--,--,160,571
"Protein",g,--,--,5.00,17.86
"Total lipid (fat)",g,--,--,10.00,35.71
"Carbohydrate, by difference",g,--,--,11.00,39.29
"Fiber, total dietary",g,--,--,0.0,0.0
"Sugars, total",g,--,--,0.00,0.00
Minerals
"Calcium, Ca",mg,--,--,100,357
"Iron, Fe",mg,--,--,0.64,2.29
"Sodium, Na",mg,--,--,115,411
Vitamins
"Vitamin C, total ascorbic acid",mg,--,--,0.0,0.0
"Vitamin A, IU",IU,--,--,357,1275
Lipids
"Fatty acids, total saturated",g,--,--,6.000,21.430
"Fatty acids, total trans",g,--,--,0.000,0.000
"Cholesterol",mg,--,--,20,71
Amino Acids
Other
Ingredients
"CHEDDAR CHEESE (CULTURED MILK, SALT, ENZYMES, ANNATTO COLOR), WHEAT FLOUR, PALM OIL, SOY LECITHIN (EMULSIFIER), CAYENNE, SEA SALT" Date available: 06/24/2017 Date last updated by company: 06/24/2017
