Source: USDA Branded Food Products Database Release December 2017 Software v.3.8.6.4 2017-10-02
Report Run at: December 19, 2017 01:37 EST
"Nutrient data for: 45099152, CHEDDAR MELT TOPPING SHREDDED IMITATION CHEDDAR CHEESE, UPC: 011110504845"
Food Group:  Branded Food Products Database
Common Name:

Nutrient,Unit,Data points,Std. Error,"0.25 cup = 28.0g",1Value per 100 g,
Proximates
"Energy",kcal,--,--,90,321
"Protein",g,--,--,3.00,10.71
"Total lipid (fat)",g,--,--,7.00,25.00
"Carbohydrate, by difference",g,--,--,3.00,10.71
"Fiber, total dietary",g,--,--,0.0,0.0
"Sugars, total",g,--,--,0.00,0.00
Minerals
"Calcium, Ca",mg,--,--,80,286
"Iron, Fe",mg,--,--,0.00,0.00
"Sodium, Na",mg,--,--,320,1143
Vitamins
"Vitamin C, total ascorbic acid",mg,--,--,0.0,0.0
"Vitamin A, IU",IU,--,--,0,0
Lipids
"Fatty acids, total saturated",g,--,--,1.501,5.360
"Fatty acids, total trans",g,--,--,2.500,8.930
"Cholesterol",mg,--,--,0,0
Amino Acids
Other
Ingredients
"WATER, PARTIALLY HYDROGENATED SOYBEAN OIL, CASEIN, SODIUM CITRATE, SALT, MODIFIED CORN AND POTATO STARCH, LACTIC ACID, SODIUM PHOSPHATE, SORBIC ACID (PRESERVATIVE), CARRAGEENAN, LOCUST BEAN GUM, ANNATTO AND B-APO-8""-CAROTENAL (FOR COLOR), DEXTROSE AND CALCIUM SULFATE ADDED TO PREVENT CAKING , NATAMYCIN (A NATURAL MOLD INHIBITOR)." Date available: 07/14/2017 Date last updated by company: 07/14/2017
