Source: USDA Branded Food Products Database Release December 2017 Software v.3.8.6.4 2017-10-02
Report Run at: December 19, 2017 01:36 EST
"Nutrient data for: 45323629, CHEDDAR KANGAROOS SNACK CRACKERS, UPC: 011110801180"
Food Group:  Branded Food Products Database
Common Name:

Nutrient,Unit,Data points,Std. Error,"1 POUCH = 28.0g",1Value per 100 g,
Proximates
"Energy",kcal,--,--,130,464
"Protein",g,--,--,3.00,10.71
"Total lipid (fat)",g,--,--,6.00,21.43
"Carbohydrate, by difference",g,--,--,17.00,60.71
"Fiber, total dietary",g,--,--,1.0,3.6
"Sugars, total",g,--,--,1.00,3.57
Minerals
"Calcium, Ca",mg,--,--,35,125
"Iron, Fe",mg,--,--,1.00,3.57
"Sodium, Na",mg,--,--,250,893
Vitamins
Lipids
"Fatty acids, total saturated",g,--,--,1.000,3.570
"Fatty acids, total trans",g,--,--,0.000,0.000
"Cholesterol",mg,--,--,5,18
Amino Acids
Other
Ingredients
"ORGANIC ENRICHED FLOUR (ORGANIC WHEAT FLOUR, NIACIN, REDUCED IRON, THIAMINE MONONITRATE, RIBOFLAVIN, FOLIC ACID), ORGANIC SUNFLOWER OIL, ORGANIC CHEDDAR CHEESE (ORGANIC PASTEURIZED MILK, CULTURES, SEA SALT, ENZYMES), ORGANIC CANE SUGAR, SEA SALT, LEAVENING (SODIUM BICARBONATE, YEAST, MONOCALCIUM PHOSPHATE, AMMONIUM BICARBONATE), CITRIC ACID, ORGANIC ONION POWDER, ENZYMES, NATURAL FLAVOR, ORGANIC COLOR (ANNATTO)." Date available: 07/14/2017 Date last updated by company: 07/14/2017
