Source: USDA Branded Food Products Database Release December 2017 Software v.3.8.6.4 2017-10-02
Report Run at: December 19, 2017 01:57 EST
"Nutrient data for: 45322815, CHEESE PUFFS, UPC: 070617000625"
Food Group:  Branded Food Products Database
Common Name:

Nutrient,Unit,Data points,Std. Error,"0.75 cup = 28.0g",1Value per 100 g,
Proximates
"Energy",kcal,--,--,150,536
"Protein",g,--,--,2.00,7.14
"Total lipid (fat)",g,--,--,10.00,35.71
"Carbohydrate, by difference",g,--,--,15.00,53.57
"Fiber, total dietary",g,--,--,1.0,3.6
"Sugars, total",g,--,--,1.00,3.57
Minerals
"Calcium, Ca",mg,--,--,20,71
"Iron, Fe",mg,--,--,0.64,2.29
"Sodium, Na",mg,--,--,160,571
Vitamins
"Vitamin C, total ascorbic acid",mg,--,--,0.0,0.0
"Vitamin A, IU",IU,--,--,0,0
Lipids
"Fatty acids, total saturated",g,--,--,1.501,5.360
"Fatty acids, total monounsaturated",g,--,--,6.000,21.430
"Fatty acids, total polyunsaturated",g,--,--,1.000,3.570
"Fatty acids, total trans",g,--,--,0.000,0.000
"Cholesterol",mg,--,--,0,0
Amino Acids
Other
Ingredients
"YELLOW CORNMEAL, EXPELLER PRESSED HIGH OLEIC (SUNFLOWER, SAFFLOWER AND/OR CANOLA) OIL, AGED CHEDDAR CHEESE [PASTEURIZED MILK+, SALT, ANNATTO EXTRACT (FOR COLOR), CHEESE CULTURES+, ENZYMES], WHEY (MILK+), BUTTERMILK+, SALT, BUTTER+, SOYBEAN OIL, BLUE CHEESE (PASTEURIZED MILK+, SALT, CHEESE CULTURES+, ENZYMES), LACTIC ACID, NATURAL FLAVORS, ANNATTO AND PAPRIKA EXTRACTS (FOR COLOR)." Date available: 08/31/2017 Date last updated by company: 08/31/2017
