Source: USDA Branded Food Products Database Release December 2017 Software v.3.8.6.4 2017-10-02
Report Run at: December 19, 2017 01:55 EST
"Nutrient data for: 45190120, CHEESE PIZZA, UPC: 021130098279"
Food Group:  Branded Food Products Database
Common Name:

Nutrient,Unit,Data points,Std. Error,"0.25 pizza = 124.0g",1Value per 100 g,
Proximates
"Energy",kcal,--,--,290,234
"Protein",g,--,--,14.00,11.29
"Total lipid (fat)",g,--,--,14.00,11.29
"Carbohydrate, by difference",g,--,--,26.99,21.77
"Fiber, total dietary",g,--,--,2.0,1.6
"Sugars, total",g,--,--,3.00,2.42
Minerals
"Calcium, Ca",mg,--,--,350,282
"Iron, Fe",mg,--,--,1.13,0.91
"Sodium, Na",mg,--,--,600,484
Vitamins
"Vitamin C, total ascorbic acid",mg,--,--,5.7,4.6
"Vitamin A, IU",IU,--,--,786,634
Lipids
"Fatty acids, total saturated",g,--,--,7.006,5.650
"Fatty acids, total trans",g,--,--,0.000,0.000
"Cholesterol",mg,--,--,40,32
Amino Acids
Other
Ingredients
"TOPPINGS: LOW MOISTURE MOZZARELLA CHEESE (PASTEURIZED MILK, CHEESE CULTURES, SALT, ENZYMES), SAUCE (WATER, TOMATO PASTE, SOYBEAN OIL, SEASONING [SALT, PAPRIKA, SPICES, ONION POWDER, GARLIC POWDER, PARAMESAN CHEESE {PASTEURIZED CULTURED PART-SKIM MILK, SALT, ENZYMES}], SALT, SPICE), CRUST: FLOUR (WHEAT, SOYBEAN OIL, YEAST, SALT, DEXTROSE." Date available: 07/14/2017 Date last updated by company: 07/14/2017
