Source: USDA Branded Food Products Database Release December 2017 Software v.3.8.6.4 2017-10-02
Report Run at: December 19, 2017 02:06 EST
"Nutrient data for: 45067807, CHEESY MAC MEALS, UPC: 718122374830"
Food Group:  Branded Food Products Database
Common Name:

Nutrient,Unit,Data points,Std. Error,"7.0 ONZ = 198.0g",1Value per 100 g,
Proximates
"Energy",kcal,--,--,230,116
"Protein",g,--,--,9.01,4.55
"Total lipid (fat)",g,--,--,7.01,3.54
"Carbohydrate, by difference",g,--,--,32.00,16.16
"Fiber, total dietary",g,--,--,3.0,1.5
"Sugars, total",g,--,--,6.00,3.03
Minerals
"Calcium, Ca",mg,--,--,150,76
"Iron, Fe",mg,--,--,1.43,0.72
"Sodium, Na",mg,--,--,370,187
Vitamins
"Vitamin C, total ascorbic acid",mg,--,--,5.9,3.0
"Vitamin A, IU",IU,--,--,3940,1990
Lipids
"Fatty acids, total saturated",g,--,--,4.495,2.270
"Fatty acids, total trans",g,--,--,0.000,0.000
"Cholesterol",mg,--,--,20,10
Amino Acids
Other
Ingredients
"ORGANIC MACARONI (ORGANIC DURUM SEMOLINA), ORGANIC SKIM MILK (ORGANIC PASTEURIZED SKIM MILK, VITAMIN A, VITAMIN D), ORGANIC GREEN PEAS, ORGANIC SWEET POTATO, ORGANIC BUTTERNUT SQUASH, ORGANIC CHEESE POWDER (ORGANIC CHEDDAR CHEESE [ORGANIC PASTEURIZED MILK, SALT, CHEESE CULTURES, ENZYMES], ORGANIC TAPIOCA MALTODEXTRIN, SOFT, LACTIC ACID, ORGANIC ANNATTO [NATURAL COLOR], CITRIC ACID, NATURAL MIXED TOCOPHEROLS); ORGANIC BUTTER (ORGANIC SWEET CREAM, SALT)." Date available: 07/14/2017 Date last updated by company: 07/14/2017
