Source: USDA Branded Food Products Database Release December 2017 Software v.3.8.6.4 2017-10-02
Report Run at: December 19, 2017 01:46 EST
"Nutrient data for: 45262560, CHEESE CAKE, UPC: 041303782491"
Food Group:  Branded Food Products Database
Common Name:

Nutrient,Unit,Data points,Std. Error,"1 SLICE = 125.0g",1Value per 100 g,
Proximates
"Energy",kcal,--,--,360,288
"Protein",g,--,--,6.00,4.80
"Total lipid (fat)",g,--,--,20.00,16.00
"Carbohydrate, by difference",g,--,--,42.00,33.60
"Fiber, total dietary",g,--,--,1.0,0.8
"Sugars, total",g,--,--,30.00,24.00
Minerals
"Calcium, Ca",mg,--,--,40,32
"Iron, Fe",mg,--,--,0.72,0.58
"Sodium, Na",mg,--,--,430,344
Vitamins
"Vitamin C, total ascorbic acid",mg,--,--,0.0,0.0
"Vitamin A, IU",IU,--,--,100,80
Lipids
"Fatty acids, total saturated",g,--,--,11.000,8.800
"Fatty acids, total trans",g,--,--,0.000,0.000
"Cholesterol",mg,--,--,80,64
Amino Acids
Other
Ingredients
"CREAM CHEESE (PASTEURIZED MILK AND CREAM, CHEESE CULTURE, SALT, STABILZERS (CAROB AND/OR XANTHAN AND/OR GUMS)), WATER, WHEY PROTEIN CONCENTRATE, MODIFIED FOOD STARCH, SALT, CREAM, LACTIC ACID, MILK, POTASSIUM SORBATE (PRESERVATIVE), XANTHAN GUM ,CHEESE CULTURE, NATURAL; FLAVOR, ENZYMES,), SUGAR, EGGS, CHOCOLATE COOKIE CRUMB (ENRICHED FLOUR (WHEAT FLOUR, NIACIN, REDUCED IRON, THIAMINE MONONITRATE, RIBOFLAVIN, FOLIC ACID), SUGAR, VEGETABLE OIL SHORTENING (PARTIALLY HYDROGENATED SOYBEAN AND/OR COTTONSEED OILS), COCOA PROCESSED WITH ALKALI, HIGH FRUCTOSE CORN SYRUP, CORN FLOUR, SALT, DEXTROSE, SODIUM BICARBONATE, SOY LECITHIN), SOUR CREAM (CULTURED CREAM, FOOD STARCH-MODIFIED, SODIUM PHOSPHATE, GUAR GUM, CARRAGEENAN, LOCUST BEAN GUM, POTASSIUM SORBATE (TO PRESERVE FRESHNESS)), CHERRY PUREE (HIGH FRUCTOSE CORN SYRUP, WATER, CHERRIES, MODIFIED FOOD STARCH, SUGAR, NATURAL AND ARTIFICIAL FLAVOR, SALT, SODIUM CITRATE, POTASSIUM SORBATE AND SODIUM BENZOATE, XANTHAN GUM, CITRATE ACID, FD&C RED#40, FD&C BLUE #1), MARGARINE (PALM OIL, WATER, SALT, MONO AND DIGLYCERIDES, ARTIFICIAL FLAVOR, COLORED WITH ANNATTO, CALCIUM DISODIUM EDTA, VITAMIN C PALMITATE ADDED), WATER, RED VELVET CAKE (SUGAR, ENRICHED WHEAT FLOUR BLEACHED (FLOUR, NIACIN, REDUCED IRON, THIAMINE MONONITRATE, RIBOFLAVIN, FOLIC ACID), DRY EGG WHITES, SOYBEAN OIL, COCOA PROCESSED WITH ALKALI, LEAVENING (BAKING SODA, SODIUM ACID PYROPHOSPHATE, SODIUM ALUMINUM PHOSPHATE, MONOCALCIUM PHOSPHATE, ALUMINUM SULFATE), FOOD STARCH-MODIFIED, DRY EGG YORK, PROPYLENE GLYCOL MONO & DIESTERS OF FATTY ACIDS, MONO & DIGLYCERIDES, DEXTROSE, SALT, SORBITAN MONOSTEARATE, NONFAT MILK SOLIDS, NON-FAT DRY MILK, RED 40, NATURAL AND ARTIFICIAL FLAVOR, SOY LECITHIN, CELLULOSE GUM, XANTHAN GUM, POLYSORBATE 60, WATER, CORN SYRUP, POLYSORBATE 80, GLYCERIN, CARAMEL COLOR), HYDROX COOKIES (ENRICHED FLOUR, WHEAT FLOUR, NIACIN, REDUCED IRON, THIAMINE MONONITRATE, RIBOFLAVIN, FOLIC ACID, SUGAR, SOYBEAN OIL, COCOA, CHOCOLATE LIQUOR, HIGH FRUCTOSE CORN SYRUP, SODIUM BICARBONATE, SALT, DEXTROSE, YELLOW CORN FLOUR, SOY LECITHIN), SEMIISWEET CHOCOLATE (SUGAR, CHOCOLATE LIQUOR, COCOA BUTTER, SOYA LECITHIN (AN EMULSIFIER(, VANILLA), CORNSTARCH, BUTTERMILK SOLIDS, SOYBEAN OIL, VANILLA, CAKE FLOUR (WHEAT FLOUR, NIACIN, IRON, THIAMIN MONONITRATE, RIBOFLAVIN, FOLIC ACID), FLOUR (WHEAT FLOUR, MALTED BARLEY FLOUR, NIACIN, IRON, THIAMIN MONONITRATE, RIBOFLAVIN, FOLIC ACID), COCOA POWDER, FILTERED WATER, CONCENTRATED ORANGE JUICE, LEMON JUICE, CULTURED WHEAT FLOUR, CORN SYRUP, SODIUM BICARBONATE, SALT, INVENT SUGAR SYRUP, RED COLORING (WATER, PROPYLENE GLYCOL, RED 40, BLUE 2)" Date available: 10/10/2017 Date last updated by company: 10/10/2017
