Source: USDA Branded Food Products Database Release December 2017 Software v.3.8.6.4 2017-10-02
Report Run at: December 19, 2017 02:01 EST
"Nutrient data for: 45286410, CHEESE STUFFED STICKS, UPC: 021333980241"
Food Group:  Branded Food Products Database
Common Name:

Nutrient,Unit,Data points,Std. Error,"1 STICK = 65.0g",1Value per 100 g,
Proximates
"Energy",kcal,--,--,200,308
"Protein",g,--,--,7.00,10.77
"Total lipid (fat)",g,--,--,8.00,12.31
"Carbohydrate, by difference",g,--,--,25.00,38.46
"Fiber, total dietary",g,--,--,1.0,1.5
"Sugars, total",g,--,--,0.00,0.00
Minerals
"Calcium, Ca",mg,--,--,100,154
"Iron, Fe",mg,--,--,1.89,2.90
"Sodium, Na",mg,--,--,330,508
Vitamins
"Vitamin C, total ascorbic acid",mg,--,--,3.1,4.8
"Vitamin A, IU",IU,--,--,393,604
Lipids
"Fatty acids, total saturated",g,--,--,2.502,3.850
"Fatty acids, total trans",g,--,--,0.000,0.000
"Cholesterol",mg,--,--,10,15
Amino Acids
Other
Ingredients
"BREADSTICK: ENRICHED FLOUR (BLEACHED WHEAT FLOUR, NIACIN, REDUCED IRON, THIAMINE MONONITRATE, RIBOFLAVIN, FOLIC ACID), WATER, LOW MOISTURE PART-SKIM MOZZARELLA CHEESE (PASTEURIZED PART-SKIM MILK, CHEESE CULTURES, SALT, ENZYMES), SOYBEAN OIL, CONTAINS 2% OR LESS OF: SUGAR, CORN STARCH, SALT, YEAST, MONOGLYCERIDES, PROPIONIC ACID, PHOSPHORIC ACID, WHEAT GLUTEN, DATEM, L-CYSTEINE, ENZYMES, ASCORBIC ACID, AZODICARBONAMIDE. SPREAD: NATURAL OIL BLEND (SOYBEAN, PALM FRUIT, PALM KERNEL), WATER, GARLIC, SWEET CREAM BUTTERMILK, SALT, CONTAINS 2% OR LESS OF: SPICES, SOY LECITHIN, XANTHAN GUM, LACTIC ACID, ONION POWDER, MONO- AND DIGLYCERIDES, POLYSORBATE 60, POTASSIUM SORBATE AND CALCIUM DISODIUM EDTA (USED TO PROTECT QUALITY), CITRIC ACID, VITAMIN A PALMITATE, BETA CAROTENE (FOR COLOR), NATURAL AND ARTIFICIAL FLAVORS." Date available: 09/28/2017 Date last updated by company: 09/28/2017
