Source: USDA Branded Food Products Database Release December 2017 Software v.3.8.6.4 2017-10-02
Report Run at: December 19, 2017 01:44 EST
"Nutrient data for: 45177879, CHEESECAKE, UPC: 603812022071"
Food Group:  Branded Food Products Database
Common Name:

Nutrient,Unit,Data points,Std. Error,"4.0 ONZ = 113.0g",1Value per 100 g,
Proximates
"Energy",kcal,--,--,380,336
"Protein",g,--,--,6.00,5.31
"Total lipid (fat)",g,--,--,26.00,23.01
"Carbohydrate, by difference",g,--,--,35.00,30.97
"Fiber, total dietary",g,--,--,2.0,1.8
"Sugars, total",g,--,--,23.00,20.35
Minerals
"Calcium, Ca",mg,--,--,80,71
"Iron, Fe",mg,--,--,1.44,1.27
"Sodium, Na",mg,--,--,390,345
Vitamins
"Vitamin C, total ascorbic acid",mg,--,--,0.0,0.0
"Vitamin A, IU",IU,--,--,750,664
Lipids
"Fatty acids, total saturated",g,--,--,14.001,12.390
"Fatty acids, total trans",g,--,--,0.000,0.000
"Cholesterol",mg,--,--,115,102
Amino Acids
Other
Ingredients
"CREAM CHEESE (CULTURED CREAM AND MILK, SALT, XANTHAN, CAROB BEAN, GUAR GUMS), SUGAR, FLOUR (UNBLEACHED WHEAT FLOUR, MALTED BARLEY FLOUR, NIACIN, IRON, FOLIC ACID, THIAMINE MONONITRATE, RIBOFLAVIN), EGGS, SOUR CREAM (CREAM, MILK, ENZYMES), PALM FRUIT OIL, COCOA, BUTTER (CREAM, SALT), SUGARCANE FIBER, HONEY, IRISH CREAM FLAVOR (CARAMEL COLOR, PROPYLENE GLYCOL, WATER, FD&C RED 40, ETHYL ALCOHOL, SALT) BAKING SODA, SALT, SOY LECITHIN, VANILLA EXTRACT." Date available: 05/08/2017 Date last updated by company: 05/08/2017
