Source: USDA Branded Food Products Database Release December 2017 Software v.3.8.6.4 2017-10-02
Report Run at: December 19, 2017 01:58 EST
"Nutrient data for: 45203467, CHEESE RAVIOLI WITH KALE PESTO SAUCE, UPC: 5051379090197"
Food Group:  Branded Food Products Database
Common Name:

Nutrient,Unit,Data points,Std. Error,"1 TRAY = 255.0g",1Value per 100 g,
Proximates
"Energy",kcal,--,--,370,145
"Protein",g,--,--,14.00,5.49
"Total lipid (fat)",g,--,--,14.00,5.49
"Carbohydrate, by difference",g,--,--,45.01,17.65
"Fiber, total dietary",g,--,--,2.0,0.8
"Sugars, total",g,--,--,9.00,3.53
Minerals
"Calcium, Ca",mg,--,--,199,78
"Iron, Fe",mg,--,--,1.10,0.43
"Sodium, Na",mg,--,--,599,235
Vitamins
"Vitamin C, total ascorbic acid",mg,--,--,0.0,0.0
"Vitamin A, IU",IU,--,--,1148,450
Lipids
"Fatty acids, total saturated",g,--,--,4.998,1.960
"Fatty acids, total trans",g,--,--,0.000,0.000
"Cholesterol",mg,--,--,64,25
Amino Acids
Other
Ingredients
"CHEESE RAVIOLI [ENRICHED DURUM FLOUR (DURUM WHEAT FLOUR, NIACIN, FERROUS SULFATE, THIAMIN MONONITRATE, RIBOFLAVIN, FOLIC ACID), WATER, PART SKIM RICOTTA CHEESE (WHEY, CREAM, VINEGAR, CARRAGEENAN), WHOLE EGGS, CREAM CHEESE POWDER [CREAM CHEESE (CREAM, MILK, SKIM MILK, DRIED WHEY, CHEESE CULTURES, SALT, ENZYMES), DRIED WHEY, NATURAL FLAVOR, TOCOPHEROLS], PARMESAN CHEESE (PASTEURIZED MILK, CHEESE CULTURES, SALT, ENZYMES), ROMANO CHEESE MADE FROM COW'S MILK (PASTEURIZED CULTURED MILK, SALT, ENZYMES), MODIFIED CORN STARCH, SALT, GARLIC POWDER, DEHYDRATED PARSLEY FLAKES), NONFAT MILK (FAT FREE MILK, NONFAT MILK SOLIDS, VITAMIN A PALMITATE, VITAMIN D3), WATER, TOMATOES, KALE, BASIL PESTO SAUCE [BASIL, CANOLA OIL, WATER, PARMESAN CHEESE (PART SKIM COW'S MILK, CHEESE CULTURE, SALT, ENZYMES), GRANULATED GARLIC, SALT], ONION, PARMESAN CHEESE (PASTEURIZED CULTURED MILK, ENZYMES, SALT), BASIL, CREAM (CREAM, CARRAGEENAN), ENRICHED WHEAL FLOUR (BLEACHED FLOUR, NIACIN, REDUCED IRON, THIAMIN MONONITRATE, RIBOFLAVIN, FOLIC ACID), MODIFIED CORN STARCH, LOWER SODIUM SEA SALT (SEA SALT, POTASSIUM CHLORIDE, MAGNESIUM SALTS), PARMESAN CHEESE FLAVOR [GRANULAR AND PARMESAN CHEESES (PASTEURIZED MILK, CHEESE CULTURES, SALT, ENZYMES), WATER, SALT, LACTIC ACID, CITRIC ACID], SOYBEAN OIL, GARLIC POWDER, SOY LECITHIN, SPICES." Date available: 07/14/2017 Date last updated by company: 07/14/2017
