Source: USDA Branded Food Products Database Release December 2017 Software v.3.8.6.4 2017-10-02
Report Run at: December 19, 2017 01:59 EST
"Nutrient data for: 45331504, CHEESE, SAUSAGE, & MUSHROOM PIZZA, UPC: 897846002110"
Food Group:  Branded Food Products Database
Common Name:

Nutrient,Unit,Data points,Std. Error,"0.143 PIZZA = 134.0g",1Value per 100 g,
Proximates
"Energy",kcal,--,--,300,224
"Protein",g,--,--,14.00,10.45
"Total lipid (fat)",g,--,--,12.01,8.96
"Carbohydrate, by difference",g,--,--,33.00,24.63
"Fiber, total dietary",g,--,--,2.0,1.5
"Sugars, total",g,--,--,4.01,2.99
Minerals
"Calcium, Ca",mg,--,--,300,224
"Iron, Fe",mg,--,--,1.57,1.17
"Sodium, Na",mg,--,--,610,455
Vitamins
"Vitamin C, total ascorbic acid",mg,--,--,3.5,2.6
"Vitamin A, IU",IU,--,--,582,434
Lipids
"Fatty acids, total saturated",g,--,--,4.998,3.730
"Fatty acids, total trans",g,--,--,0.000,0.000
"Cholesterol",mg,--,--,25,19
Amino Acids
Other
Ingredients
"CRUST: FLOUR (WHEAT, MALTED BARLEY), WATER, YEAST, SOYBEAN OIL, DEXTROSE, SALT, LEAVENING (SODIUM ALUMINUM PHOSPHATE, SODIUM BICARBONATE), L-CYSTEINE AND SOY LECITHIN, CALCIUM PROPIONATE ADDED TO RETARD SPOILAGE OF CRUST. CHEESE: MOZZARELLA: LOW MOISTURE PART SKIM MOZZARELLA (PASTEURIZED PART-SKIM MILK, CHEESE CULTURE, SALT, ENZYMES). SAUCE: TOMATO PASTE, TOMATO PUREE, WATER, GRATED PARMESAN AND ROMANO CHEESE (PASTEURIZED COW'S MILK, CHEESE CULTURE, SALT, ENZYMES, POWDERED CELLULOSE), SALT, SPICES, GARLIC AND CITRIC ACID. PRECOOKED SAUSAGE: PORK, WATER, SPICES, SALT, CORN SYRUP SOLIDS, PAPRIKA, NATURAL FLAVORINGS & SUGAR. MUSHROOMS." Date available: 10/13/2017 Date last updated by company: 10/13/2017
