Source: USDA Branded Food Products Database Release December 2017 Software v.3.8.6.4 2017-10-02
Report Run at: December 19, 2017 01:46 EST
"Nutrient data for: 45285604, CHEESECAKE, UPC: 785397121391"
Food Group:  Branded Food Products Database
Common Name:

Nutrient,Unit,Data points,Std. Error,"123.0 GRM = 123.0g",1Value per 100 g,
Proximates
"Energy",kcal,--,--,430,350
"Protein",g,--,--,6.00,4.88
"Total lipid (fat)",g,--,--,34.00,27.64
"Carbohydrate, by difference",g,--,--,25.01,20.33
"Fiber, total dietary",g,--,--,0.2,0.2
"Sugars, total",g,--,--,19.00,15.45
Minerals
"Calcium, Ca",mg,--,--,100,81
"Iron, Fe",mg,--,--,0.37,0.30
"Sodium, Na",mg,--,--,330,268
Vitamins
"Vitamin C, total ascorbic acid",mg,--,--,1.2,1.0
"Vitamin A, IU",IU,--,--,1271,1033
Lipids
"Fatty acids, total saturated",g,--,--,22.005,17.890
"Fatty acids, total monounsaturated",g,--,--,6.999,5.690
"Fatty acids, total trans",g,--,--,1.501,1.220
"Cholesterol",mg,--,--,130,106
Amino Acids
Other
Ingredients
"CREAM CHEESE (PASTEURIZED MILK AND CREAM, CHEESE CULTURE, SALT, STABILIZERS [CAROB BEAN AND/OR XANTHAN AND/OR GUAR GUM]), CREAM (NONFAT MILK, CARRAGEENAN, MONO AND DIGLYCERIDES, POLYSORBATE 80), SUGAR, VANILLA CRUMB (WHEAT FLOUR, CANE SUGAR, PALM OIL, WHEY [MILK], SALT, SODIUM BICARBONATE, NATURAL BUTTER VANILLA FLAVOR), WHOLE MILK, WHOLE EGGS, POWDERED SUGAR, MARGARINE (PALM OIL, PALM FRACTIONS, WATER, SALT, EMULSIFIERS [SOYA LECITHIN, DISTILLED MONOGLYCERIDES], NATURAL BUTTER FLAVOR, CITRIC ACID [AS ANTIOXIDANT], VITAMIN A & BETA-CAROTENE), WHITE COATING (SUGAR, FRACTIONATED PALM KERNEL OIL, WHEY POWDER, NONFAT MILK POWDER, SOY LECITHIN [EMULSIFIER], TITANIUM DIOXIDE [ARTIFICIAL COLOR], AND NATURAL FLAVORS), EGG YOLKS, BUTTER (CREAM), CORN STARCH, BANANA PUREE EXTRACT, ARTIFICIAL VANILLA FLAVOR." Date available: 07/27/2017 Date last updated by company: 07/27/2017
