Source: USDA Branded Food Products Database Release December 2017 Software v.3.8.6.4 2017-10-02
Report Run at: December 19, 2017 01:44 EST
"Nutrient data for: 45168478, CHEESECAKE, UPC: 610358991716"
Food Group:  Branded Food Products Database
Common Name:

Nutrient,Unit,Data points,Std. Error,"2.0 ONZ = 57.0g",1Value per 100 g,
Proximates
"Energy",kcal,--,--,210,368
"Protein",g,--,--,4.00,7.02
"Total lipid (fat)",g,--,--,14.00,24.56
"Carbohydrate, by difference",g,--,--,16.00,28.07
"Fiber, total dietary",g,--,--,0.0,0.0
"Sugars, total",g,--,--,11.00,19.30
Minerals
"Calcium, Ca",mg,--,--,40,70
"Iron, Fe",mg,--,--,1.58,2.77
"Sodium, Na",mg,--,--,105,184
Vitamins
"Vitamin C, total ascorbic acid",mg,--,--,0.0,0.0
"Vitamin A, IU",IU,--,--,1097,1924
Lipids
"Fatty acids, total saturated",g,--,--,9.000,15.790
"Fatty acids, total trans",g,--,--,0.000,0.000
"Cholesterol",mg,--,--,80,140
Amino Acids
Other
Ingredients
"CREAM CHEESE, ORGANIC EVAPORATED CANE JUICE, EGGS, UNSALTED BUTTER, BROWN RICE FLOUR, EGG YOLK, HEAVY CREAM, POTATO STARCH, RICE FLOUR, QUINOA, COCONUT FLOUR, TAPIOCA STARCH, LEMON PUREE, VANILLA EXTRACT, XANTHAN GUM, SEA SALT." Date available: 07/14/2017 Date last updated by company: 07/14/2017
