Source: USDA Branded Food Products Database Release December 2017 Software v.3.8.6.4 2017-10-02
Report Run at: December 19, 2017 01:51 EST
"Nutrient data for: 45207939, CHEESE FOOD, UPC: 041711553218"
Food Group:  Branded Food Products Database
Common Name:

Nutrient,Unit,Data points,Std. Error,"1 ONZ = 28.0g",1Value per 100 g,
Proximates
"Energy",kcal,--,--,90,321
"Protein",g,--,--,5.00,17.86
"Total lipid (fat)",g,--,--,7.00,25.00
"Carbohydrate, by difference",g,--,--,2.00,7.14
"Fiber, total dietary",g,--,--,0.0,0.0
"Sugars, total",g,--,--,2.00,7.14
Minerals
"Calcium, Ca",mg,--,--,150,536
"Iron, Fe",mg,--,--,0.00,0.00
"Sodium, Na",mg,--,--,200,714
Vitamins
"Vitamin C, total ascorbic acid",mg,--,--,0.0,0.0
"Vitamin A, IU",IU,--,--,357,1275
Lipids
"Fatty acids, total saturated",g,--,--,4.500,16.070
"Fatty acids, total trans",g,--,--,0.000,0.000
"Cholesterol",mg,--,--,20,71
Amino Acids
Other
Ingredients
"NY CHEDDAR CHEESE (CULTURED MILK, SALT, ENZYMES, ANNATTO (COLOR)), WATER, WHEY, PORT WINE, MILK FAT, RED #40, GUAR GUM, SALT, POTASSIUM SORBATE TO RETARD MOLD, DISODIUM PHOSPHATE, ARTIFICIAL COLOR." Date available: 07/14/2017 Date last updated by company: 07/14/2017
