Source: USDA Branded Food Products Database Release December 2017 Software v.3.8.6.4 2017-10-02
Report Run at: December 19, 2017 01:45 EST
"Nutrient data for: 45207237, CHEESECAKE, UPC: 011110846389"
Food Group:  Branded Food Products Database
Common Name:

Nutrient,Unit,Data points,Std. Error,"1 CAKE = 113.0g",1Value per 100 g,
Proximates
"Energy",kcal,--,--,410,363
"Protein",g,--,--,4.99,4.42
"Total lipid (fat)",g,--,--,27.00,23.89
"Carbohydrate, by difference",g,--,--,39.00,34.51
"Fiber, total dietary",g,--,--,1.0,0.9
"Sugars, total",g,--,--,28.00,24.78
Minerals
"Calcium, Ca",mg,--,--,80,71
"Iron, Fe",mg,--,--,1.20,1.06
"Sodium, Na",mg,--,--,280,248
Vitamins
"Vitamin C, total ascorbic acid",mg,--,--,4.0,3.5
"Vitamin A, IU",IU,--,--,1382,1223
Lipids
"Fatty acids, total saturated",g,--,--,16.001,14.160
"Fatty acids, total trans",g,--,--,0.994,0.880
"Cholesterol",mg,--,--,85,75
Amino Acids
Other
Ingredients
"CREAM (CREAM, MILK, SKIM MILK POWDER, CARRAGEENAN, MONO AND DIGLYCERIDES, CELLULOSE GUM, POLYSORBATE 80, SODIUM CITRATE), CREAM CHEESE (MILK, BACTERIAL CULTURE, SALT, GUAR GUM, CAROB BEAN GUM), GRAHAM CRUMB (ENRICHED FLOUR [WHEAT FLOUR, NIACIN, REDUCED IRON, THIAMINE MONONITRATE, RIBOFLAVIN, FOLIC ACID], GRAHAM FLOUR, SUGAR, SOYBEAN AND PALM OILS, CORN SYRUP, MOLASSES, HONEY, SALT, SODIUM BICARBONATE), SUGAR, SWEETENED CONDENSED MILK (MILK, SUGAR, LACTOSE), BUTTER (CREAM, SALT), WATER, KEY LIME JUICE CONCENTRATE, SKIM MILK POWDER, LIME PUREE (LIME JUICE CONCENTRATE, WATER, PULP CELLS, LIME OIL, GROUND LIME PEEL), GELATIN, NATURAL FLAVOR, BLACKSTRAP MOLASSES, MODIFIED TAPIOCA STARCH, COLOR (FRUITS/VEGETABLE JUICE), SPICE." Date available: 10/08/2017 Date last updated by company: 10/08/2017
