Source: USDA Branded Food Products Database Release December 2017 Software v.3.8.6.4 2017-10-02
Report Run at: December 19, 2017 02:05 EST
"Nutrient data for: 45229154, CHEESY CHICKEN, UPC: 014500016072"
Food Group:  Branded Food Products Database
Common Name:

Nutrient,Unit,Data points,Std. Error,"1 CUP COOKED | FROZEN, = 191.0g",1Value per 100 g,
Proximates
"Energy",kcal,--,--,201,105
"Protein",g,--,--,13.01,6.81
"Total lipid (fat)",g,--,--,4.51,2.36
"Carbohydrate, by difference",g,--,--,25.00,13.09
"Fiber, total dietary",g,--,--,1.9,1.0
"Sugars, total",g,--,--,3.99,2.09
Minerals
"Calcium, Ca",mg,--,--,151,79
"Iron, Fe",mg,--,--,1.47,0.77
"Sodium, Na",mg,--,--,590,309
Vitamins
"Vitamin C, total ascorbic acid",mg,--,--,21.4,11.2
"Vitamin A, IU",IU,--,--,204,107
Lipids
"Fatty acids, total saturated",g,--,--,2.006,1.050
"Fatty acids, total trans",g,--,--,0.000,0.000
"Cholesterol",mg,--,--,25,13
Amino Acids
Other
Ingredients
"COOKED ENRICHED PASTA (WATER, ENRICHED PASTA (SEMOLINA WHEAT, NIACIN, FERROUS SULFATE, THIAMINE MONONITRATE, RIBOFLAVIN, FOLIC ACID)), SAUCE (WATER, CHEDDAR CHEESE SEASONING (CHEDDAR CHEESE [CULTURED PASTEURIZED MILK, SALT, ENZYMES], WHEY, BUTTERMILK, SALT, DISODIUM PHOSPHATE, CITRIC ACID, PAPRIKA, EXTRACTIVES OF ANNATTO AND TURMERIC), CHEDDAR CHEESE (PASTEURIZED WHOLE MILK, CHEESE CULTURES, SALT, ENZYMES, ANNATTO COLOR), NONFAT MILK, PARMESAN CHEESE ([PASTEURIZED PART SKIM MILK, CHEESE CULTURES, SALT, ENZYMES], STARCH AND CELLULOSE [ANTI-CAKING AGENT]), DISTILLED WHITE VINEGAR, MODIFIED FOOD STARCH, SALT, BUTTER CONCENTRATE [BUTTER (CREAM, SALT), FLAVOR], GARLIC POWDER, CHEDDAR CHEESE FLAVOR, NATURAL FLAVORS, XANTHAN GUM, SPICES, MODIFIED FOOD STARCH AND ANNATTO EXTRACT (COLOR)), BROCCOLI, COOKED DICED CHICKEN BREAST WITH RIB MEAT (CHICKEN BREAST WITH RIB MEAT, WATER, ISOLATED SOY PROTEIN PRODUCT [ISOLATED SOY PROTEIN, MODIFIED FOOD STARCH, STARCH, CARRAGEENAN WITH LESS THAN 2% SOY LECITHIN], SALT, SODIUM PHOSPHATES, CARRAGEENAN)." Date available: 07/14/2017 Date last updated by company: 07/14/2017
