Source: USDA Branded Food Products Database Release December 2017 Software v.3.8.6.4 2017-10-02
Report Run at: December 19, 2017 01:48 EST
"Nutrient data for: 45144446, CHEESE CURLS, UPC: 092825092957"
Food Group:  Branded Food Products Database
Common Name:

Nutrient,Unit,Data points,Std. Error,"21.0 CURLS | ABOUT = 28.0g",1Value per 100 g,
Proximates
"Energy",kcal,--,--,160,571
"Protein",g,--,--,1.00,3.57
"Total lipid (fat)",g,--,--,10.00,35.71
"Carbohydrate, by difference",g,--,--,15.00,53.57
"Fiber, total dietary",g,--,--,0.0,0.0
"Sugars, total",g,--,--,1.00,3.57
Minerals
"Calcium, Ca",mg,--,--,10,36
"Iron, Fe",mg,--,--,1.00,3.57
"Potassium, K",mg,--,--,17,61
"Sodium, Na",mg,--,--,290,1036
Vitamins
"Vitamin C, total ascorbic acid",mg,--,--,0.0,0.0
"Vitamin A, IU",IU,--,--,100,357
Lipids
"Fatty acids, total saturated",g,--,--,1.999,7.140
"Fatty acids, total trans",g,--,--,0.000,0.000
"Cholesterol",mg,--,--,0,0
Amino Acids
Other
Ingredients
"ENRICHED YELLOW CORN (YELLOW CORN, THIAMIN MONONITRATE, RIBOFLAVIN, NIACIN, FERROUS SULFATE, FOLIC ACID), VEGETABLE OIL (CONTAINS ONE OR MORE OF THE FOLLOWING: CORN, SUNFLOWER OR CANOLA OIL), CHEESE SEASONING (WHEY, COCONUT OIL, MALTODEXTRIN, SALT, CHEDDAR CHEESE [PASTEURIZED MILK, CHEESE CULTURES, SALT, ENZYMES] DISODIUM PHOSPHATE, NATURAL AND ARTIFICIAL FLAVORS, MONOSODIUM GLUTAMATE, SODIUM CASEINATE, YELLOW 6, YELLOW 5, CITRIC ACID), SALT." Date available: 08/11/2017 Date last updated by company: 08/11/2017
