Source: USDA Branded Food Products Database Release December 2017 Software v.3.8.6.4 2017-10-02
Report Run at: December 19, 2017 01:56 EST
"Nutrient data for: 45331435, CHEESE PIZZA, UPC: 782796019076"
Food Group:  Branded Food Products Database
Common Name:

Nutrient,Unit,Data points,Std. Error,"1 PIECE = 82.0g",1Value per 100 g,
Proximates
"Energy",kcal,--,--,180,220
"Protein",g,--,--,7.00,8.54
"Total lipid (fat)",g,--,--,6.00,7.32
"Carbohydrate, by difference",g,--,--,26.00,31.71
"Fiber, total dietary",g,--,--,2.0,2.4
"Sugars, total",g,--,--,2.00,2.44
Minerals
"Calcium, Ca",mg,--,--,150,183
"Iron, Fe",mg,--,--,4.28,5.22
"Sodium, Na",mg,--,--,420,512
Vitamins
"Vitamin C, total ascorbic acid",mg,--,--,0.0,0.0
"Vitamin A, IU",IU,--,--,0,0
Lipids
"Fatty acids, total saturated",g,--,--,3.001,3.660
"Fatty acids, total trans",g,--,--,0.000,0.000
"Cholesterol",mg,--,--,15,18
Amino Acids
Other
Ingredients
"PIZZA CRUST (ENRICHED WHEAT FLOUR [NIACIN, IRON, THIAMINE, RIBOFLAVIN, FOLIC ACID], WATER, YEAST, SALT, CANOLA OIL SUGAR, MALT [MALTED BARLEY, WHEAT FLOUR, DEXTROSE], CALCIUM PROPIONATE AND POTASSIUM SORBATE (TO RETARD SPOILAGE)), MOZZARELLA CHEESE (CULTURED PASTEURIZED MILK, SALT, ENZYMES, POWDERED CELLULOSE (TO PREVENT CAKING)), PIZZA SAUCE (FRESH VINE-RIPENED CALIFORNIA TOMATOES, SEA SALT, SUGAR, EXTRA VIRGIN OLIVE OIL, SUNFLOWER OIL, SPICES, DEHYDRATED GARLIC, NATURALLY DERIVED CITRIC ACID), PARMESAN CHEESE ([PASTEURIZED PART-SKIM MILK, CHEESE CULTURE, SALT, ENZYMES], POWDERED CELLULOSE TO PREVENT CAKING, NATAMYCIN TO PROTECT FLAVOR)." Date available: 10/13/2017 Date last updated by company: 10/13/2017
