Source: USDA Branded Food Products Database Release December 2017 Software v.3.8.6.4 2017-10-02
Report Run at: December 19, 2017 01:56 EST
"Nutrient data for: 45232670, CHEESE PIZZA, UPC: 042272001941"
Food Group:  Branded Food Products Database
Common Name:

Nutrient,Unit,Data points,Std. Error,"1 PIZZA = 176.0g",1Value per 100 g,
Proximates
"Energy",kcal,--,--,421,239
"Protein",g,--,--,18.00,10.23
"Total lipid (fat)",g,--,--,17.00,9.66
"Carbohydrate, by difference",g,--,--,49.00,27.84
"Fiber, total dietary",g,--,--,3.0,1.7
"Sugars, total",g,--,--,4.00,2.27
Minerals
"Calcium, Ca",mg,--,--,299,170
"Iron, Fe",mg,--,--,2.99,1.70
"Sodium, Na",mg,--,--,720,409
Vitamins
"Vitamin C, total ascorbic acid",mg,--,--,4.0,2.3
"Vitamin A, IU",IU,--,--,444,252
Lipids
"Fatty acids, total saturated",g,--,--,6.002,3.410
"Fatty acids, total trans",g,--,--,0.000,0.000
"Cholesterol",mg,--,--,19,11
Amino Acids
Other
Ingredients
"ORGANIC UNBLEACHED WHEAT FLOUR WITH ORGANIC WHEAT GERM AND ORGANIC WHEAT BRAN, FILTERED WATER, PART-SKIM MOZZARELLA CHEESE (PASTEURIZED PART-SKIM MILK, CULTURE, SALT, ENZYMES, [WITHOUT ANIMAL ENZYMES OR RENNET]), ORGANIC TOMATO PUREE, ORGANIC EXTRA VIRGIN OLIVE OIL, ORGANIC HONEY, SEA SALT, ORGANIC RED ONIONS, EXPELLER PRESSED HIGH OLEIC SAFFLOWER AND/OR SUNFLOWER OIL, YEAST, SPICES*, ORGANIC GARLIC, BLACK PEPPER." Date available: 07/14/2017 Date last updated by company: 07/14/2017
