Source: USDA Branded Food Products Database Release December 2017 Software v.3.8.6.4 2017-10-02
Report Run at: December 19, 2017 01:57 EST
"Nutrient data for: 45291313, CHEESE PUFFS SNACKS, UPC: 028400087612"
Food Group:  Branded Food Products Database
Common Name:

Nutrient,Unit,Data points,Std. Error,"1 PACKAGE = 28.3g",1Value per 100 g,
Proximates
"Energy",kcal,--,--,160,565
"Protein",g,--,--,2.00,7.07
"Total lipid (fat)",g,--,--,10.00,35.34
"Carbohydrate, by difference",g,--,--,16.00,56.54
"Fiber, total dietary",g,--,--,1.0,3.5
"Sugars, total",g,--,--,1.00,3.53
Minerals
"Calcium, Ca",mg,--,--,19,67
"Iron, Fe",mg,--,--,0.36,1.27
"Potassium, K",mg,--,--,60,212
"Sodium, Na",mg,--,--,300,1060
Vitamins
Lipids
"Fatty acids, total saturated",g,--,--,1.500,5.300
"Fatty acids, total trans",g,--,--,0.000,0.000
"Cholesterol",mg,--,--,0,0
Amino Acids
Other
Ingredients
"ENRICHED CORN MEAL (CORN MEAL, FERROUS SULFATE, NIACIN, THIAMIN MONONITRATE, RIBOFLAVIN, FOLIC ACID), VEGETABLE OIL (CORN, CANOLA, AND/OR SUNFLOWER OIL), CHEESE SEASONING (WHEY, CHEDDAR CHEESE [MILK, CHEESE CULTURES, SALT, ENZYMES], CANOLA OIL, MALTODEXTRIN [MADE FROM CORN], NATURAL AND ARTIFICIAL FLAVORS, SALT, WHEY PROTEIN CONCENTRATE, MONOSODIUM GLUTAMATE, LACTIC ACID, CITRIC ACID, ARTIFICIAL COLOR [YELLOW 6]), AND SALT." Date available: 05/17/2017 Date last updated by company: 05/17/2017
