Source: USDA Branded Food Products Database Release December 2017 Software v.3.8.6.4 2017-10-02
Report Run at: December 19, 2017 01:45 EST
"Nutrient data for: 45207813, CHEESE CAKE, UPC: 041268750108"
Food Group:  Branded Food Products Database
Common Name:

Nutrient,Unit,Data points,Std. Error,"0.167 CAKE = 680.0g",1Value per 100 g,
Proximates
"Energy",kcal,--,--,408,60
"Protein",g,--,--,7.00,1.03
"Total lipid (fat)",g,--,--,21.01,3.09
"Carbohydrate, by difference",g,--,--,48.01,7.06
"Fiber, total dietary",g,--,--,1.4,0.2
"Sugars, total",g,--,--,32.03,4.71
Minerals
"Calcium, Ca",mg,--,--,150,22
"Iron, Fe",mg,--,--,1.77,0.26
"Sodium, Na",mg,--,--,401,59
Vitamins
"Vitamin C, total ascorbic acid",mg,--,--,0.0,0.0
"Vitamin A, IU",IU,--,--,401,59
Lipids
"Fatty acids, total saturated",g,--,--,11.016,1.620
"Fatty acids, total trans",g,--,--,0.476,0.070
"Cholesterol",mg,--,--,48,7
Amino Acids
Other
Ingredients
"OREO(R) COOKIE PIECES (SUGAR, ENRICHED UNBLEACHED WHEAT FLOUR (WHEAT FLOUR, NIACIN, REDUCED IRON, THIAIMINE MONONITRATE, RIBOFLAVIN, FOLIC ACID), HIGH OLEIC CANOLA AND OR PALM AND OR CANOLA AND OR SOYBEAN OILS, COCOA ALKALI PROCESSED, HIGH FRUCTOSE CORN S" Date available: 12/14/2016 Date last updated by company: 12/14/2016
