Source: USDA Branded Food Products Database Release December 2017 Software v.3.8.6.4 2017-10-02
Report Run at: December 19, 2017 01:40 EST
"Nutrient data for: 45263873, CHEESE BREAD ROLLS PANDEBONO, UPC: 099336006077"
Food Group:  Branded Food Products Database
Common Name:

Nutrient,Unit,Data points,Std. Error,"1 UNIT = 61.0g",1Value per 100 g,
Proximates
"Energy",kcal,--,--,159,261
"Protein",g,--,--,8.00,13.11
"Total lipid (fat)",g,--,--,9.00,14.75
"Carbohydrate, by difference",g,--,--,11.00,18.03
"Fiber, total dietary",g,--,--,1.0,1.6
"Sugars, total",g,--,--,11.00,18.03
Minerals
"Calcium, Ca",mg,--,--,230,377
"Iron, Fe",mg,--,--,0.15,0.24
"Sodium, Na",mg,--,--,288,472
Vitamins
"Vitamin C, total ascorbic acid",mg,--,--,2.0,3.2
"Vitamin A, IU",IU,--,--,82,134
Lipids
"Fatty acids, total saturated",g,--,--,6.002,9.840
"Fatty acids, total trans",g,--,--,0.000,0.000
"Cholesterol",mg,--,--,36,59
Amino Acids
Other
Ingredients
"WHITE CHEESE (PASTEURIZED MILK, SALT, CALCIUM CHLORIDE, CULTURES (SOY PROTEIN, WHEY, LACTIC ACID), RENNET AND ENZYMES), TAPIOCA STARCH, EGGS, SUGAR, MILK AND WATER." Date available: 08/28/2017 Date last updated by company: 08/28/2017
