Source: USDA Branded Food Products Database Release December 2017 Software v.3.8.6.4 2017-10-02
Report Run at: December 19, 2017 01:48 EST
"Nutrient data for: 45257565, CHEESE DANISH, UPC: 078742100487"
Food Group:  Branded Food Products Database
Common Name:

Nutrient,Unit,Data points,Std. Error,"1 DANISH = 113.0g",1Value per 100 g,
Proximates
"Energy",kcal,--,--,390,345
"Protein",g,--,--,6.00,5.31
"Total lipid (fat)",g,--,--,22.00,19.47
"Carbohydrate, by difference",g,--,--,44.00,38.94
"Fiber, total dietary",g,--,--,1.0,0.9
"Sugars, total",g,--,--,21.00,18.58
Minerals
"Calcium, Ca",mg,--,--,80,71
"Iron, Fe",mg,--,--,0.88,0.78
"Potassium, K",mg,--,--,90,80
"Sodium, Na",mg,--,--,450,398
Vitamins
"Vitamin C, total ascorbic acid",mg,--,--,0.0,0.0
"Vitamin A, IU",IU,--,--,365,323
Lipids
"Fatty acids, total saturated",g,--,--,8.995,7.960
"Fatty acids, total monounsaturated",g,--,--,6.995,6.190
"Fatty acids, total polyunsaturated",g,--,--,4.497,3.980
"Fatty acids, total trans",g,--,--,0.000,0.000
"Cholesterol",mg,--,--,35,31
Amino Acids
Other
Ingredients
"ENRICHED WHEAT FLOUR (WHEAT FLOUR, NIACIN, REDUCED IRON, THIAMINE MONONITRATE, RIBOFLAVIN, FOLIC ACID), MARGARINE (PALM OIL, SOYBEAN OIL, WATER, SALT, CONTAINS LESS THAN 2% OF: VEGETABLE MONO & DIGLYCERIDES, SOY LECITHIN, SODIUM BENZOATE [PRESERVATIVE], CITRIC ACID, NATURAL AND ARTIFICIAL FLAVOR, VITAMIN A PALMITATE ADDED, BETA CAROTENE [COLOR]; WHEY), WATER, POWDERED SUGAR, WHOLE EGGS, MILK, NEUFCHATEL CHEESE (CULTURED PASTEURIZED MILK AND (CREAM SALT, CAROB BEAN GUM), SUGAR, MARGARINE (PALM OIL, WATER, SOYBEAN OIL, SALT, CONTAINS LESS THAN 2% OF VEGETABLE MONO & DIGLYCERIDES SOY LECITHIN, SODIUM BENZOATE [PRESERVATIVE, CITRIC ACID, NATURAL AND ARTIFICIAL FLAVOR BETA CAROTENE (COLOR], VITAMIN A PALMITATE ADDED) SHORTENING (PALM OIL SOY LECITHIN), FRUCTOSE CORN SYRUP, NONFAT MILK, (CONTAINS 2% OR LESS OF CORN SYRUP, HYDRATED MONOGLYCERIDE (WATER AND MONOGLYCERIDES WITH PROPIONIOACID AND PHOSPHORIC ACID (PRESERVATIVES)), YEAST, MILK PROTEIN CONCENTRATE SALT, CHEESE CULTURE, GLYCERINE, TAPIOCA DEXTRIN, MICROCRYSTALLINE CELLULOSE, CAROB BEAN GUM, FOOD STARCH-MODIFIED LACTIC ACID, ARTIFICIAL FLAVOR, MONO- AND DIGLYCERIDES, SODIUM STEAROYL LACTYLATE, CITRIC ACID, AGAR-AGAR, WHEY, CALCIUM LACTATE, LEMON JUICE CONCENTRATE, ARTIFICIAL COLOR. ASCORBIC APOCAROTENAL (FOR COLOR), CALCIUM PROPIONATE POTASSIUM SORBATE (PRESERVATIVES)." Date available: 07/14/2017 Date last updated by company: 07/14/2017
