Source: USDA Branded Food Products Database Release December 2017 Software v.3.8.6.4 2017-10-02
Report Run at: December 19, 2017 02:02 EST
"Nutrient data for: 45190564, CHEESE TORTELLINI, UPC: 041268157075"
Food Group:  Branded Food Products Database
Common Name:

Nutrient,Unit,Data points,Std. Error,"1 cup = 100.0g",1Value per 100 g,
Proximates
"Energy",kcal,--,--,180,180
"Protein",g,--,--,7.00,7.00
"Total lipid (fat)",g,--,--,2.00,2.00
"Carbohydrate, by difference",g,--,--,32.00,32.00
"Fiber, total dietary",g,--,--,2.0,2.0
"Sugars, total",g,--,--,1.00,1.00
Minerals
"Calcium, Ca",mg,--,--,60,60
"Iron, Fe",mg,--,--,2.52,2.52
"Potassium, K",mg,--,--,0,0
"Sodium, Na",mg,--,--,300,300
Vitamins
"Vitamin C, total ascorbic acid",mg,--,--,0.0,0.0
"Vitamin A, IU",IU,--,--,140,140
Lipids
"Fatty acids, total saturated",g,--,--,1.000,1.000
"Fatty acids, total monounsaturated",g,--,--,0.000,0.000
"Fatty acids, total polyunsaturated",g,--,--,0.000,0.000
"Fatty acids, total trans",g,--,--,0.000,0.000
"Cholesterol",mg,--,--,10,10
Amino Acids
Other
Ingredients
"DOUGH MIXTURE: ENRICHED SEMOLINA FLOUR (SEMOLINA FLOUR {NIACIN, FERROUS SULFATE, THIAMINE MONONITRATE, RIBOFLAVIN, FOLIC ACID}), PASTEURIZED EGGS, WATER, TURMERIC. FILLING: RICOTTA CHEESE (WHEY, CREAM, VINEGAR, SALT, STABILIZERS), CRACKER MEAL (ENRICHED WHEAT FLOUR {NIACIN, FERROUS SULFATE, THIAMINE MONONITRATE, RIBOFLAVIN, FOLIC ACID}, SOYBEAN OIL), ROMANO CHEESE (PASTEURIZED COW'S/SHEEP'S MILK, CHEESE CULTURE, SALT, ENZYMES), SALT, GARLIC POWDER, NATURAL FLAVORING, SPICES." Date available: 07/14/2017 Date last updated by company: 07/14/2017
