Source: USDA Branded Food Products Database Release December 2017 Software v.3.8.6.4 2017-10-02
Report Run at: December 19, 2017 02:06 EST
"Nutrient data for: 45196258, CHEESY RICE BITES APPETIZER, UPC: 036800421660"
Food Group:  Branded Food Products Database
Common Name:

Nutrient,Unit,Data points,Std. Error,"2.0 PIECES = 42.0g",1Value per 100 g,
Proximates
"Energy",kcal,--,--,100,238
"Protein",g,--,--,3.00,7.14
"Total lipid (fat)",g,--,--,5.00,11.90
"Carbohydrate, by difference",g,--,--,10.00,23.81
"Fiber, total dietary",g,--,--,0.0,0.0
"Sugars, total",g,--,--,0.00,0.00
Minerals
"Calcium, Ca",mg,--,--,60,143
"Iron, Fe",mg,--,--,0.73,1.74
"Sodium, Na",mg,--,--,120,286
Vitamins
"Vitamin C, total ascorbic acid",mg,--,--,2.4,5.8
"Vitamin A, IU",IU,--,--,202,482
Lipids
"Fatty acids, total saturated",g,--,--,1.999,4.760
"Fatty acids, total trans",g,--,--,0.000,0.000
"Cholesterol",mg,--,--,10,24
Amino Acids
Other
Ingredients
"COOKED WHITE PRICE (RICE, WATER, SALT), FONTINA CHEESE (PASTEURIZED MILK, CHEESE CULTURES, SALT, ENZYMES), ONIONS, BREAD CRUMBS (UNBLEACHED UNBROMATED WHEAT FLOUR FLOUR,. SUGAR, SALT, YEAST, ASCORBIC ACID ADDED AS DOUGH CONDITIONER), SOYBEAN OIL, PARMESAN CHEESE (PASTEURIZED MILK, CHEESE CULTURE, ENZYMES, SALT), GREEN ONIONS, UNBLEACHED ENRICHED FLOUR (WHEAT FLOUR ENRICHED (NIACIN, REDUCED IRON, THIAMINE MONONITRATE, RIBOFLAVIN, FOLIC ACID), MALTED BARLEY FLOUR), MOZZARELLA CHEESE (PASTEURIZED MILK, CHEESE (LOW MOISTURE PART SKIM MOZZARELLA CHEESE (PASTEURIZED MILK, CHEESE CULTURES, SALT, ENZYMES), RICE FLOUR AND CELLULOSE POWDER ADDED TO PREVENT CAKING, NATAMYCIN), BUTTER (PASTEURIZED CREAM), EGG WASH (EGGS, WATER), OLIVE OIL, LEMON JUICE SEA SALT, CHICKEN BASE (OVEN ROASTED CHICKEN WITH NATURAL JUICES, SALT, SUGAR, RENDERED CHICKEN FAT, ONION POWDER, TORULA YEST, COOKED DEHYDRATED CHICKEN MEAT TURMERIC, NATURAL FLAVORS), PARSLEY, BLACK PEPPER." Date available: 07/14/2017 Date last updated by company: 07/14/2017
