Source: USDA Branded Food Products Database Release December 2017 Software v.3.8.6.4 2017-10-02
Report Run at: December 19, 2017 01:55 EST
"Nutrient data for: 45190927, CHEESE PIZZA, UPC: 049022847668"
Food Group:  Branded Food Products Database
Common Name:

Nutrient,Unit,Data points,Std. Error,"0.333 PIZZA = 137.0g",1Value per 100 g,
Proximates
"Energy",kcal,--,--,300,219
"Protein",g,--,--,15.00,10.95
"Total lipid (fat)",g,--,--,14.00,10.22
"Carbohydrate, by difference",g,--,--,29.00,21.17
"Fiber, total dietary",g,--,--,2.1,1.5
"Sugars, total",g,--,--,3.00,2.19
Minerals
"Calcium, Ca",mg,--,--,349,255
"Iron, Fe",mg,--,--,1.03,0.75
"Sodium, Na",mg,--,--,710,518
Vitamins
"Vitamin C, total ascorbic acid",mg,--,--,5.1,3.7
"Vitamin A, IU",IU,--,--,570,416
Lipids
"Fatty acids, total saturated",g,--,--,7.001,5.110
"Fatty acids, total trans",g,--,--,0.000,0.000
"Cholesterol",mg,--,--,25,18
Amino Acids
Other
Ingredients
"TOPPING: LOW MOISTURE PART-SKIM MOZZARELLA CHEESE (PASTEURIZED PART-SKIM MILK, CHEESE CULTURES, SALT, ENZYMES), SAUCE (WATER, TOMATO PASTE, SOYBEAN OIL, SEASONING [SALT, SUGAR, MODIFIED FOOD STARCH, SPICE, GARLIC POWDER, XANTHAN GUM, HYDROLYZED CORN, SOY, WHEAT PROTEIN, AUTOLYZED YEAST EXTRACT, PARTIALLY HYDROGENATED SOYBEAN AND COTTONSEED OILS]). CRUST: WHEAT FLOUR, WATER, SOYBEAN OIL, PALM OIL, YEAST, WHEAT PROTEIN ISOLATE (WHEAT GLUTEN, LACTIC ACID), WHITE CORN MEAL, NATURAL FLAVOR, BETA CAROTENE (COLOR), DEXTROSE, SALT." Date available: 07/14/2017 Date last updated by company: 07/14/2017
