Source: USDA Branded Food Products Database Release December 2017 Software v.3.8.6.4 2017-10-02
Report Run at: December 19, 2017 01:52 EST
"Nutrient data for: 45257961, CHEESE LASAGNA, UPC: 688267154805"
Food Group:  Branded Food Products Database
Common Name:

Nutrient,Unit,Data points,Std. Error,"1 PACKAGE = 343.0g",1Value per 100 g,
Proximates
"Energy",kcal,--,--,532,155
"Protein",g,--,--,20.99,6.12
"Total lipid (fat)",g,--,--,20.00,5.83
"Carbohydrate, by difference",g,--,--,65.00,18.95
"Fiber, total dietary",g,--,--,5.1,1.5
"Sugars, total",g,--,--,10.02,2.92
Minerals
"Calcium, Ca",mg,--,--,298,87
"Iron, Fe",mg,--,--,1.47,0.43
"Sodium, Na",mg,--,--,710,207
Vitamins
"Vitamin C, total ascorbic acid",mg,--,--,4.8,1.4
"Vitamin A, IU",IU,--,--,511,149
Lipids
"Fatty acids, total saturated",g,--,--,8.987,2.620
"Fatty acids, total trans",g,--,--,0.000,0.000
"Cholesterol",mg,--,--,96,28
Amino Acids
Other
Ingredients
"LASAGNA SANDWICH (COOKED MACARONI PRODUCT [ENRICHED SEMOLINA, WATER, NIACIN, IRON, THIAMINE MONONITRATE, RIBOFLAVIN, FOLIC ACID], WHOLE EGGS, WHITE PEPPER, SPICES, RICOTTA CHEESE MIX [WHOLE MILK RICOTTA CHEESE, WHOLE EGGS, ROMANO CHEESE, SALT, PARSLEY, SEASONING], XANTHAN/LOCUST BEAN/GUAR GUMS [STABILIZERS], PASTEURIZED WHOLE EGGS , BREAD CRUMBS [BLEACHED WHEAT FLOUR, DEXTROSE, YEAST, SALT], MODIFIED FOOD STARCH, SEASONING), VEGETABLE BLEND (EGGPLANT, ZUCCHINI, RED PEPPERS, SUNFLOWER OIL), DICED TOMATOES (TOMATOES, TOMATO JUICE, SALT, CITRIC ACID, CALCIUM CHLORIDE), CRUSHED TOMATOES, SALT AND CITRIC ACID), IMPORTED BLENDED OIL (CANOLA OIL, EXTRA VIRGIN OLIVE OIL), SUGAR, SPICES, SALT, XANTHAN GUM, GARLIC POWDER." Date available: 07/14/2017 Date last updated by company: 07/14/2017
