Source: USDA Branded Food Products Database Release December 2017 Software v.3.8.6.4 2017-10-02
Report Run at: December 19, 2017 02:15 EST
"Nutrient data for: 45011681, CHEF MERITO, STEAK & MEAT SEASONING, UPC: 052287200161"
Food Group:  Branded Food Products Database
Common Name:

Nutrient,Unit,Data points,Std. Error,"0.125 tsp = 0.71g",1Value per 100 g,
Proximates
"Energy",kcal,--,--,0,0
"Protein",g,--,--,0.00,0.00
"Total lipid (fat)",g,--,--,0.00,0.00
Minerals
"Sodium, Na",mg,--,--,160,22535
Vitamins
"Vitamin C, total ascorbic acid",mg,--,--,0.0,0.0
"Vitamin A, IU",IU,--,--,0,0
Lipids
Amino Acids
Other
Ingredients
"SALT, SUGAR, PAPRIKA, GARLIC, MSG (A NATURAL FLAVOR ENHANCER DERIVED FROM COM OR BEETS), CITRIC ACID, OREGANO, CUMIN, ONION, BLACK PEPPER, NATURAL FLAVORS, SILICON DIOXIDE, PAPAIN, AND FD&C YELLOW #6." Date available: 06/24/2017 Date last updated by company: 06/24/2017
