Source: USDA Branded Food Products Database Release December 2017 Software v.3.8.6.4 2017-10-02
Report Run at: December 19, 2017 02:11 EST
"Nutrient data for: 45134539, CHEF BOYARDEE Italian Sausage Marinara, UNPREPARED, GTIN: 00064144753505"
Food Group:  Branded Food Products Database
Common Name:

Nutrient,Unit,Data points,Std. Error,"1 cup (245g) = 245.0g",1Value per 100 g,
Proximates
"Energy",kcal,--,--,201,82
"Protein",g,--,--,8.01,3.27
"Total lipid (fat)",g,--,--,6.00,2.45
"Carbohydrate, by difference",g,--,--,28.00,11.43
"Fiber, total dietary",g,--,--,3.9,1.6
"Sugars, total",g,--,--,6.00,2.45
Minerals
"Calcium, Ca",mg,--,--,20,8
"Iron, Fe",mg,--,--,1.45,0.59
"Potassium, K",mg,--,--,549,224
"Sodium, Na",mg,--,--,960,392
Vitamins
"Vitamin C, total ascorbic acid",mg,--,--,0.0,0.0
"Vitamin A, IU",IU,--,--,100,41
Lipids
"Fatty acids, total saturated",g,--,--,2.009,0.820
"Fatty acids, total monounsaturated",g,--,--,2.499,1.020
"Fatty acids, total polyunsaturated",g,--,--,1.004,0.410
"Fatty acids, total trans",g,--,--,0.000,0.000
"Cholesterol",mg,--,--,10,4
Amino Acids
Other
Ingredients
"Water, Tomatoes (Tomato Puree, Water), Enriched Pasta (Durum Wheat Semolina, Egg White, Niacin, Reduced Iron, Thiamine Mononitrate [Vitamin B1], Riboflavin [Vitamin B2], Folic Acid), Cooked Italian Sausage (Pork, Seasoning [Spices, Salt, Corn Syrup Solids, Paprika, Garlic Powder, Caramel Color, Flavoring, Disodium Inosinate, Disodium Guanylate, Citric Acid], Water, Salt, Sodium Tripolyphosphate), Diced Tomatoes with Juice, LESS THAN 2% OF: Sugar, Salt, Garlic Powder, Modified Corn Starch, Sea Salt, Romano Cheese Paste (Romano Cheese from Cow's Milk [Pasteurized Milk, Cultures, Salt, Enzymes], Water, Salt, Sodium Phosphate, Flavorings, Xanthan Gum), Carrot Fiber, Spices, Dehydrated Onion, Citric Acid, Calcium Chloride, Soybean Oil, Sesame Oil, Coconut Oil, Flavorings. CONTAINS: EGG, MILK, WHEAT" Date available: 10/12/2017 Date last updated by company: 10/12/2017
