Source: USDA Branded Food Products Database Release December 2017 Software v.3.8.6.4 2017-10-02
Report Run at: December 19, 2017 02:17 EST
"Nutrient data for: 45036782, CHEF'S CUT, REAL CHICKEN JERKY, HONEY BARBECUE, UPC: 858959005030"
Food Group:  Branded Food Products Database
Common Name:

Nutrient,Unit,Data points,Std. Error,"1 ONZ = 28.0g",1Value per 100 g,
Proximates
"Energy",kcal,--,--,80,286
"Protein",g,--,--,12.00,42.86
"Total lipid (fat)",g,--,--,1.50,5.36
"Carbohydrate, by difference",g,--,--,3.00,10.71
"Fiber, total dietary",g,--,--,0.0,0.0
"Sugars, total",g,--,--,3.00,10.71
Minerals
"Calcium, Ca",mg,--,--,0,0
"Iron, Fe",mg,--,--,0.00,0.00
"Sodium, Na",mg,--,--,190,679
Vitamins
"Vitamin C, total ascorbic acid",mg,--,--,0.0,0.0
"Vitamin A, IU",IU,--,--,0,0
Lipids
"Fatty acids, total saturated",g,--,--,0.000,0.000
"Cholesterol",mg,--,--,45,161
Amino Acids
Other
Ingredients
"CHICKEN BREAST, BBQ SEASONING [HONEY GRANULES (REFINERY SYRUP, HONEY), SUGAR, BROWN SUGAR, SALT, ONION AND GARLIC POWDER, SMOKE FLAVORING (MALTODEXTRIN, NATURAL SMOKE FLAVOR), MOLASSES GRANULES (REFINERS SYRUP, CANE MILL MOLASSES, CANE CARAMEL COLOR), SPICES, PAPRIKA, CITRIC ACID, SPICE EXTRACTIVES], CELERY POWDER, SEA SALT, VINEGAR. *NO NITRITES - EXCEPT FOR THOSE NATURALLY OCCURRING IN CELERY POWDER AND SEA SALT." Date available: 07/14/2017 Date last updated by company: 07/14/2017
