Source: USDA Branded Food Products Database Release December 2017 Software v.3.8.6.4 2017-10-02
Report Run at: December 19, 2017 02:12 EST
"Nutrient data for: 45134238, CHEF BOYARDEE Mini Bites Spaghetti And Meatballs, UNPREPARED, GTIN: 00064144048816"
Food Group:  Branded Food Products Database
Common Name:

Nutrient,Unit,Data points,Std. Error,"1 cup (251g) = 251.0g",1Value per 100 g,
Proximates
"Energy",kcal,--,--,261,104
"Protein",g,--,--,9.01,3.59
"Total lipid (fat)",g,--,--,10.99,4.38
"Carbohydrate, by difference",g,--,--,29.99,11.95
"Fiber, total dietary",g,--,--,3.0,1.2
"Sugars, total",g,--,--,8.01,3.19
Minerals
"Calcium, Ca",mg,--,--,20,8
"Iron, Fe",mg,--,--,1.81,0.72
"Potassium, K",mg,--,--,620,247
"Sodium, Na",mg,--,--,600,239
Vitamins
"Vitamin C, total ascorbic acid",mg,--,--,0.0,0.0
"Vitamin A, IU",IU,--,--,301,120
Lipids
"Fatty acids, total saturated",g,--,--,3.489,1.390
"Fatty acids, total monounsaturated",g,--,--,4.493,1.790
"Fatty acids, total polyunsaturated",g,--,--,2.008,0.800
"Fatty acids, total trans",g,--,--,0.000,0.000
"Cholesterol",mg,--,--,20,8
Amino Acids
Other
Ingredients
"Tomatoes (Tomato Puree, Water), Cooked Enriched Spaghetti (Water, Enriched Wheat Flour [Durum Wheat Semolina, Niacin, Reduced Iron, Thiamine Mononitrate {Vitamin B1}, Riboflavin {Vitamin B2}, Folic Acid], Wheat Protein Isolate [Wheat Gluten, Phosphate, Lactic Acid], Glyceryl Monostearate), Water, Meatballs (Pork, Dark Chicken, Mechanically Separated Chicken, Beef, Water, Crackermeal [Enriched Wheat Flour {Bleached Wheat Flour, Niacin, Reduced Iron, Thiamine Mononitrate, Riboflavin, Folic Acid}, May Contain Guar Gum], Soy Protein Concentrate, Salt, Caramel Color, Flavorings, Soybean Oil, Citric Acid), High Fructose Corn Syrup, LESS THAN 2% OF: Modified Corn Starch, Salt, Sea Salt, Dehydrated Onions, Potassium Chloride, Citric Acid, Hydrolyzed Corn Gluten, Soy Protein and Wheat Gluten, Maltodextrin, Soy Sauce (Fermented Soybeans, Salt), Ammonium Chloride, Enzyme Modified Cheese (Cheddar Cheese [Pasteurized Milk, Cultures, Salt, Enzymes], Water, Sodium Phosphate, Xanthan Gum), Yeast Extract, Flavorings, Lactic Acid. CONTAINS: MILK, SOY, WHEAT" Date available: 10/11/2017 Date last updated by company: 10/10/2017
