Source: USDA Branded Food Products Database Release December 2017 Software v.3.8.6.4 2017-10-02
Report Run at: December 19, 2017 02:13 EST
"Nutrient data for: 45130607, CHEF BOYARDEE Sports Forkables, UNPREPARED, GTIN: 00064144046997"
Food Group:  Branded Food Products Database
Common Name:

Nutrient,Unit,Data points,Std. Error,"1 cup (251g) = 251.0g",1Value per 100 g,
Proximates
"Energy",kcal,--,--,241,96
"Protein",g,--,--,8.01,3.19
"Total lipid (fat)",g,--,--,6.00,2.39
"Carbohydrate, by difference",g,--,--,38.00,15.14
"Fiber, total dietary",g,--,--,4.0,1.6
"Sugars, total",g,--,--,6.00,2.39
Minerals
"Calcium, Ca",mg,--,--,151,60
"Iron, Fe",mg,--,--,1.43,0.57
"Potassium, K",mg,--,--,630,251
"Sodium, Na",mg,--,--,600,239
Vitamins
"Vitamin C, total ascorbic acid",mg,--,--,0.0,0.0
"Vitamin A, IU",IU,--,--,201,80
Lipids
"Fatty acids, total saturated",g,--,--,2.008,0.800
"Fatty acids, total monounsaturated",g,--,--,2.008,0.800
"Fatty acids, total polyunsaturated",g,--,--,1.004,0.400
"Fatty acids, total trans",g,--,--,0.000,0.000
"Cholesterol",mg,--,--,10,4
Amino Acids
Other
Ingredients
"Tomatoes (Tomato Puree, Water), Water, Enriched Pasta (Semolina Wheat Flour, Whole Wheat Flour, Wheat Protein Isolate [Wheat Gluten, Phosphate, Lactic Acid], Calcium Carbonate), Meatballs (Pork, Dark Chicken, Mechanically Separated Chicken, Beef, Water, Crackermeal [Bleached Wheat Flour, Niacin, Iron, Thiamine Mononitrate, Riboflavin, Folic Acid], Soy Protein Concentrate, Salt, Caramel Color, Flavorings, Soybean Oil, Citric Acid), High Fructose Corn Syrup, LESS THAN 2% OF: Modified Corn Starch, Cheese (Enzyme Modified Cheddar and Pasteurized Process Cheddar [Pasteurized Milk, Cultures, Salt, Enzymes], Water, Cream, Milkfat, Sodium Phosphate, Salt, Xanthan Gum, Vitamin A Palmitate and Apo-Carotenal [Colors]), Sea Salt, Salt, Flavorings, Xanthan Gum, Onion Powder, Maltodextrin, Autolyzed Yeast Extract, Citric Acid.  CONTAINS:  MILK, SOY, WHEAT" Date available: 10/11/2017 Date last updated by company: 10/07/2017
