Source: USDA Branded Food Products Database Release December 2017 Software v.3.8.6.4 2017-10-02
Report Run at: December 19, 2017 02:14 EST
"Nutrient data for: 45011688, CHEF MERITO, MARINADE FOR CARNE AL PASTOR, UPC: 052287001201"
Food Group:  Branded Food Products Database
Common Name:

Nutrient,Unit,Data points,Std. Error,"1 GRM = 1.0g",1Value per 100 g,
Proximates
"Energy",kcal,--,--,0,0
"Protein",g,--,--,0.00,0.00
"Total lipid (fat)",g,--,--,0.00,0.00
"Carbohydrate, by difference",g,--,--,0.00,0.00
"Fiber, total dietary",g,--,--,0.0,0.0
"Sugars, total",g,--,--,0.00,0.00
Minerals
"Calcium, Ca",mg,--,--,0,0
"Iron, Fe",mg,--,--,0.00,0.00
"Sodium, Na",mg,--,--,55,5500
Vitamins
"Vitamin C, total ascorbic acid",mg,--,--,0.0,0.0
"Vitamin A, IU",IU,--,--,0,0
Lipids
"Fatty acids, total saturated",g,--,--,0.000,0.000
"Fatty acids, total trans",g,--,--,0.000,0.000
"Cholesterol",mg,--,--,0,0
Amino Acids
Other
Ingredients
"WATER, PINEAPPLE CONCENTRATE, (WATER, CITRIC ACID, POTASSIUM SORBATE, SODIUM BENZOATE), SALT, PAPRIKA, VINEGAR, GARLIC, ORANGE DRINK CONCENTRATE (SUGAR, WATER, NATURAL AND ARTIFICIAL FLAVORS, CITRIC ACID, APPLE CONCENTRATE, ORANGE CONCENTRATE, LIME CONCENTRATE, TANGERINE CONCENTRATE, GRAPEFRUIT CONCENTRATE, MODIFIED FOOD STARCH, ASCORBIC ACID, NATURAL GUM, POTASSIUM SORBATE, SODIUM BENZOATE, FD&C YELLOW 5, FD&C YELLOW 6, THIAMINE MONONITRATE), ONION, CORN FLOUR, SUGAR, CITRIC ACID, MONOSODIUM GLUTAMATE, OREGANO, PAPRIKA, BLACK PEPPER, CHILLIES, NATURAL FLAVORS, CLOVES, AND FD&C YELLOW 6." Date available: 06/24/2017 Date last updated by company: 06/24/2017
