Source: USDA Branded Food Products Database Release December 2017 Software v.3.8.6.4 2017-10-02
Report Run at: December 19, 2017 02:18 EST
"Nutrient data for: 45327256, CHEF'S RECIPE CHICKEN NOODLE SOUP, UPC: 761088191751"
Food Group:  Branded Food Products Database
Common Name:

Nutrient,Unit,Data points,Std. Error,"1 cup = 245.0g",1Value per 100 g,
Proximates
"Energy",kcal,--,--,130,53
"Protein",g,--,--,8.01,3.27
"Total lipid (fat)",g,--,--,5.00,2.04
"Carbohydrate, by difference",g,--,--,12.01,4.90
"Fiber, total dietary",g,--,--,1.0,0.4
"Sugars, total",g,--,--,1.00,0.41
Minerals
"Calcium, Ca",mg,--,--,20,8
"Iron, Fe",mg,--,--,0.71,0.29
"Sodium, Na",mg,--,--,691,282
Vitamins
"Vitamin C, total ascorbic acid",mg,--,--,1.2,0.5
"Vitamin A, IU",IU,--,--,1499,612
Lipids
"Fatty acids, total saturated",g,--,--,0.000,0.000
"Fatty acids, total trans",g,--,--,0.000,0.000
"Cholesterol",mg,--,--,29,12
Amino Acids
Other
Ingredients
"CHICKEN STOCK (WATER, SPICE, GARLIC, SALT, BLACK PEPPER), BONELESS CHICKEN BREAST - TRIM MEAT, ONIONS, CARROTS, MEDIUM EGG NOODLE (SEMOLINA, DURUM FLOUR, EGGS, ENRICHED WITH IRON (FERROUS SULFATE) AND B VITAMINS (NIACIN, THIAMIN MONONITRATE, RIBOFLAVIN, FOLIC ACID), WATER, CELERY, MODIFIED FOOD STARCH, CULTURED DEXTROSE/MALTODEXTRIN, SALT, CHICKEN BASE (SALT, SUGAR, CHICKEN FAT, MALTODEXTRIN, HYDROLYZED CORN SOY WHEAT GLUTEN PROTEIN, ONION POWDER, AUTOLYZED YEAST EXTRACT, TURMERIC [COLOR], NATURAL FLAVORINGS), ONION POWDER, GARLIC POWDER, BLACK PEPPER, PARSLEY, WHITE PEPPER, YELLOW FOOD COLOR (WATER, YELLOW 5, YELLOW 6, CITRIC ACID, SODIUM BENZOATE [PRESERVATIVES])." Date available: 10/13/2017 Date last updated by company: 10/13/2017
