Source: USDA Branded Food Products Database Release December 2017 Software v.3.8.6.4 2017-10-02
Report Run at: December 19, 2017 02:12 EST
"Nutrient data for: 45134667, CHEF BOYARDEE Microwaveable Mini Ravioli and Meatballs, UNPREPARED, GTIN: 00064144047567"
Food Group:  Branded Food Products Database
Common Name:

Nutrient,Unit,Data points,Std. Error,"1 bowl = 212.0g",1Value per 100 g,
Proximates
"Energy",kcal,--,--,250,118
"Protein",g,--,--,7.99,3.77
"Total lipid (fat)",g,--,--,10.01,4.72
"Carbohydrate, by difference",g,--,--,31.99,15.09
"Fiber, total dietary",g,--,--,3.0,1.4
"Sugars, total",g,--,--,6.00,2.83
Minerals
"Calcium, Ca",mg,--,--,19,9
"Iron, Fe",mg,--,--,1.80,0.85
"Potassium, K",mg,--,--,310,146
"Sodium, Na",mg,--,--,600,283
Vitamins
"Vitamin C, total ascorbic acid",mg,--,--,0.0,0.0
"Vitamin A, IU",IU,--,--,199,94
Lipids
"Fatty acids, total saturated",g,--,--,3.498,1.650
"Fatty acids, total monounsaturated",g,--,--,4.007,1.890
"Fatty acids, total polyunsaturated",g,--,--,1.505,0.710
"Fatty acids, total trans",g,--,--,0.000,0.000
"Cholesterol",mg,--,--,15,7
Amino Acids
Other
Ingredients
"Tomatoes (Tomato Puree, Water), Water, Meatballs (Pork, Dark Chicken, Mechanically Separated Chicken, Beef, Water, Crackermeal [Enriched Wheat Flour {Bleached Wheat Flour, Niacin, Reduced Iron, Thiamine Mononitrate, Riboflavin, Folic Acid}, May Contain Guar Gum], Soy Protein Concentrate, Salt, Caramel Color, Flavorings, Soybean Oil, Citric Acid), Enriched Wheat Flour (Wheat Flour, Malted Barley Flour, Niacin, Reduced Iron, Thiamine Mononitrate [Vitamin B1], Riboflavin [Vitamin B2], Folic Acid), High Fructose Corn Syrup, Beef, Crackermeal (Enriched Wheat Flour [Bleached Wheat Flour, Niacin, Reduced Iron, Thiamine Mononitrate, Riboflavin, Folic Acid], May Also Contain Guar Gum), LESS THAN 2% OF: Modified Corn Starch, Salt, Bleached Wheat Flour, Soybean Oil, Carrots, Textured Vegetable Protein (Soy Protein Concentrate, Caramel Color), Caramel Color, , Enzyme Modified Cheese (Cheddar Cheese [Pasteurized Milk, Cultures, Salt, Enzymes], Cream, Water, Salt, Sodium Phosphate, Xanthan Gum, Carotenal [Color]), Flavorings. CONTAINS: MILK, SOY, WHEAT" Date available: 10/12/2017 Date last updated by company: 10/12/2017
