Source: USDA Branded Food Products Database Release December 2017 Software v.3.8.6.4 2017-10-02
Report Run at: December 19, 2017 02:13 EST
"Nutrient data for: 45134267, CHEF BOYARDEE Whole Grain Beefaroni, UNPREPARED, GTIN: 00064144041336"
Food Group:  Branded Food Products Database
Common Name:

Nutrient,Unit,Data points,Std. Error,"1 cup (249g) = 249.0g",1Value per 100 g,
Proximates
"Energy",kcal,--,--,249,100
"Protein",g,--,--,8.99,3.61
"Total lipid (fat)",g,--,--,10.01,4.02
"Carbohydrate, by difference",g,--,--,30.00,12.05
"Fiber, total dietary",g,--,--,4.0,1.6
"Sugars, total",g,--,--,6.00,2.41
Minerals
"Calcium, Ca",mg,--,--,40,16
"Iron, Fe",mg,--,--,1.44,0.58
"Potassium, K",mg,--,--,680,273
"Sodium, Na",mg,--,--,749,301
Vitamins
"Vitamin C, total ascorbic acid",mg,--,--,0.0,0.0
"Vitamin A, IU",IU,--,--,299,120
Lipids
"Fatty acids, total saturated",g,--,--,4.009,1.610
"Fatty acids, total monounsaturated",g,--,--,4.009,1.610
"Fatty acids, total polyunsaturated",g,--,--,0.498,0.200
"Fatty acids, total trans",g,--,--,0.000,0.000
"Cholesterol",mg,--,--,15,6
Amino Acids
Other
Ingredients
"Tomatoes (Tomato Puree, Water) , Water, Pasta (Whole Wheat Flour, Durum Wheat Semolina), Beef, LESS THAN 2% OF: High Fructose Corn Syrup, Textured Vegetable Protein (Soy Flour, Caramel Color), Salt, Sea Salt, Modified Corn Starch, Enzyme Modified Cheese (Cheddar Cheese [Pasteurized Milk, Cultures, Salt, Enzymes], Water, Sodium Phosphate, Xanthan Gum), Potassium Chloride, Flavorings, Ammonium Chloride, Citric Acid, Yeast Extract, Lactic Acid, Soybean Oil.  CONTAINS:  MILK, SOY, WHEAT" Date available: 10/11/2017 Date last updated by company: 10/11/2017
