Source: USDA Branded Food Products Database Release December 2017 Software v.3.8.6.4 2017-10-02
Report Run at: December 19, 2017 02:15 EST
"Nutrient data for: 45223727, CHEF ROBERT IRVINE'S, FIT CRUNCH, WHEY PROTEIN BAKED BAR, CHOCOLATE CHIP COOKIE DOUGH, UPC: 839138002644"
Food Group:  Branded Food Products Database
Common Name:

Nutrient,Unit,Data points,Std. Error,"1 BAR = 88.0g",1Value per 100 g,
Proximates
"Energy",kcal,--,--,380,432
"Protein",g,--,--,30.00,34.09
"Total lipid (fat)",g,--,--,16.00,18.18
"Carbohydrate, by difference",g,--,--,27.00,30.68
"Fiber, total dietary",g,--,--,2.0,2.3
"Sugars, total",g,--,--,6.00,6.82
Minerals
"Calcium, Ca",mg,--,--,80,91
"Iron, Fe",mg,--,--,0.82,0.93
"Potassium, K",mg,--,--,100,114
"Sodium, Na",mg,--,--,320,364
Vitamins
"Vitamin C, total ascorbic acid",mg,--,--,0.5,0.6
"Vitamin A, IU",IU,--,--,182,207
Lipids
"Fatty acids, total saturated",g,--,--,7.999,9.090
"Fatty acids, total monounsaturated",g,--,--,6.002,6.820
"Fatty acids, total polyunsaturated",g,--,--,1.998,2.270
"Fatty acids, total trans",g,--,--,0.000,0.000
"Cholesterol",mg,--,--,20,23
Amino Acids
Other
Ingredients
"PROPRIETARY FORTIFX PROTEIN BLEND (WHEY PROTEIN ISOLATE, WHEY PROTEIN CONCENTRATE), SOY PROTEIN ISOLATE, MALTITOL, VEGETABLE GLYCERIN, VEGETABLE OILS (PALM, PALM KERNEL), SORBITOL, COCOA (PROCESSED WITH ALKALI), PALM OIL, GELATIN, CORN SYRUP, SUGAR, AND WATER. CONTAINS 2% OR LESS OF THE FOLLOWING: COCOA BUTTER RICE FLOUR, SUNFLOWER OIL, SOY LECITHIN, NATURAL FLAVORS, SALT, SOYBEAN OIL, BAKING SODA, MALTODEXTRIN, SODIUM CASEINATE, PROPYLENE GLYCOL MONOESTERS, TAPIOCA STARCH, ACETYLATED MONOGLYCERIDES, MONO AND DIGLYCERIDES, SUCRALOSE, POTASSIUM SORBATE, WHEY, BETA-CAROTENE, VITAMIN A PALMITATE, NATURAL TOCOPHEROLS, PEANUTS, ALMONDS, AND SILICON DIOXIDE." Date available: 09/14/2017 Date last updated by company: 09/14/2017
