Source: USDA Branded Food Products Database Release December 2017 Software v.3.8.6.4 2017-10-02
Report Run at: December 19, 2017 02:13 EST
"Nutrient data for: 45134294, CHEF BOYARDEE Spaghetti And Meatballs, UNPREPARED, GTIN: 00064144043224"
Food Group:  Branded Food Products Database
Common Name:

Nutrient,Unit,Data points,Std. Error,"1 cup (257g) = 257.0g",1Value per 100 g,
Proximates
"Energy",kcal,--,--,260,101
"Protein",g,--,--,8.99,3.50
"Total lipid (fat)",g,--,--,11.00,4.28
"Carbohydrate, by difference",g,--,--,30.99,12.06
"Fiber, total dietary",g,--,--,3.1,1.2
"Sugars, total",g,--,--,7.99,3.11
Minerals
"Calcium, Ca",mg,--,--,21,8
"Iron, Fe",mg,--,--,1.44,0.56
"Potassium, K",mg,--,--,380,148
"Sodium, Na",mg,--,--,799,311
Vitamins
"Vitamin C, total ascorbic acid",mg,--,--,0.0,0.0
"Vitamin A, IU",IU,--,--,301,117
Lipids
"Fatty acids, total saturated",g,--,--,4.009,1.560
"Fatty acids, total monounsaturated",g,--,--,5.011,1.950
"Fatty acids, total polyunsaturated",g,--,--,2.005,0.780
"Fatty acids, total trans",g,--,--,0.000,0.000
"Cholesterol",mg,--,--,21,8
Amino Acids
Other
Ingredients
"Tomatoes (Tomato Puree, Water), Cooked Enriched Spaghetti (Water, Enriched Wheat Flour [Durum Wheat Semolina, Niacin, Reduced Iron, Thiamine Mononitrate {Vitamin B1}, Riboflavin {Vitamin B2}, Folic Acid], Wheat Protein Isolate [Wheat Gluten, Sodium Phosphate, Lactic Acid], Glyceryl Monostearate), Meatballs (Pork, Dark Chicken, Mechanically Separated Chicken, Beef, Water, Crackermeal [Enriched Wheat Flour {Bleached Wheat Flour, Niacin, Reduced Iron, Thiamine Mononitrate, Riboflavin, Folic Acid}, May Contain Guar Gum], Soy Protein Concentrate, Salt, Caramel Color, Flavorings, Soybean Oil, Citric Acid), Water, High Fructose Corn Syrup, LESS THAN 2% OF: Modified Corn Starch, Salt, Dehydrated Onion, Hydrolyzed Corn and Wheat Gluten and Soy Protein, Citric Acid, Flavorings, Enzyme Modified Cheese (Cheddar Cheese [Pasteurized Milk, Cultures, Salt, Enzymes], Water, Sodium Phosphate, Xanthan Gum). CONTAINS: MILK, SOY, WHEAT" Date available: 10/12/2017 Date last updated by company: 10/11/2017
