Source: USDA Branded Food Products Database Release December 2017 Software v.3.8.6.4 2017-10-02
Report Run at: December 19, 2017 02:12 EST
"Nutrient data for: 45134933, CHEF BOYARDEE Microwave Lasagna Big Bowl, UNPREPARED, GTIN: 00064144863570"
Food Group:  Branded Food Products Database
Common Name:

Nutrient,Unit,Data points,Std. Error,"1 cup (249g) = 249.0g",1Value per 100 g,
Proximates
"Energy",kcal,--,--,239,96
"Protein",g,--,--,8.99,3.61
"Total lipid (fat)",g,--,--,7.99,3.21
"Carbohydrate, by difference",g,--,--,32.99,13.25
"Fiber, total dietary",g,--,--,4.0,1.6
"Sugars, total",g,--,--,10.01,4.02
Minerals
"Calcium, Ca",mg,--,--,40,16
"Iron, Fe",mg,--,--,1.79,0.72
"Potassium, K",mg,--,--,961,386
"Sodium, Na",mg,--,--,749,301
Vitamins
"Vitamin C, total ascorbic acid",mg,--,--,0.0,0.0
"Vitamin A, IU",IU,--,--,299,120
Lipids
"Fatty acids, total saturated",g,--,--,2.988,1.200
"Fatty acids, total monounsaturated",g,--,--,2.988,1.200
"Fatty acids, total polyunsaturated",g,--,--,0.498,0.200
"Fatty acids, total trans",g,--,--,0.000,0.000
"Cholesterol",mg,--,--,15,6
Amino Acids
Other
Ingredients
"TOMATOES (TOMATO PUREE, WATER), ENRICHED PASTA (DURUM WHEAT SEMOLINA, EGG WHITE, NIACIN, REDUCED IRON, THIAMINE MONONITRATE [VITAMIN B1], RIBOFLAVIN [VITAMIN B2] AND FOLIC ACID), WATER, BEEF, DICED TOMATOES WITH JUICE, HIGH FRUCTOSE CORN SYRUP, LESS THAN 2% OF: DEHYDRATED ONION, TEXTURED VEGETABLE PROTEIN (SOY FLOUR, CARAMEL COLOR), SALT, SEA SALT, MODIFIED CORN STARCH, BLEACHED WHEAT FLOUR, GARLIC, ROMANO CHEESE PASTE (ROMANO CHEESE MADE FROM COW'S MILK [PASTEURIZED MILK, CULTURES, SALT, ENZYMES], WATER, SALT, FLAVORINGS, SODIUM PHOSPHATE,  XANTHAN GUM), POTASSIUM CHLORIDE, SPICES, CITRIC ACID, AMMONIUM CHLORIDE, YEAST EXTRACT, FLAVORING, LACTIC ACID.  CONTAINS:  EGG, MILK, SOY, WHEAT" Date available: 10/12/2017 Date last updated by company: 10/11/2017
