Source: USDA Branded Food Products Database Release December 2017 Software v.3.8.6.4 2017-10-02
Report Run at: December 19, 2017 02:30 EST
"Nutrient data for: 45275319, CHERRY TOMATOES IN TOMATO JUICE, UPC: 800975500297"
Food Group:  Branded Food Products Database
Common Name:

Nutrient,Unit,Data points,Std. Error,"0.5 cup = 123.0g",1Value per 100 g,
Proximates
"Energy",kcal,--,--,25,20
"Protein",g,--,--,1.00,0.81
"Total lipid (fat)",g,--,--,0.00,0.00
"Carbohydrate, by difference",g,--,--,4.00,3.25
"Fiber, total dietary",g,--,--,1.0,0.8
"Sugars, total",g,--,--,3.00,2.44
Minerals
"Calcium, Ca",mg,--,--,30,24
"Iron, Fe",mg,--,--,0.95,0.77
"Sodium, Na",mg,--,--,16,13
Vitamins
"Vitamin C, total ascorbic acid",mg,--,--,22.1,18.0
"Vitamin A, IU",IU,--,--,1321,1074
Lipids
"Fatty acids, total saturated",g,--,--,0.000,0.000
"Fatty acids, total trans",g,--,--,0.000,0.000
"Cholesterol",mg,--,--,0,0
Amino Acids
Other
Ingredients
"CHERRY TOMATOES, TOMATO JUICE. ACIDITY REGULATOR: CITRIC ACID E330." Date available: 10/13/2017 Date last updated by company: 10/13/2017
