Source: USDA Branded Food Products Database Release December 2017 Software v.3.8.6.4 2017-10-02
Report Run at: December 19, 2017 02:30 EST
"Nutrient data for: 45292346, CHERRY SOURS, UPC: 052548603052"
Food Group:  Branded Food Products Database
Common Name:

Nutrient,Unit,Data points,Std. Error,"10.0 PIECES = 29.0g",1Value per 100 g,
Proximates
"Energy",kcal,--,--,100,345
"Protein",g,--,--,0.00,0.00
"Total lipid (fat)",g,--,--,0.00,0.00
"Carbohydrate, by difference",g,--,--,27.00,93.10
"Sugars, total",g,--,--,20.00,68.97
Minerals
"Sodium, Na",mg,--,--,0,0
Vitamins
Lipids
Amino Acids
Other
Ingredients
"SUGAR, CORN SYRUP, MODIFIED FOOD STARCH (CORN), FUMARIC ACID, MALIC ACID, ARTIFICIAL FLAVOR, CONFECTIONER'S GLAZE (SHELLAC), CITRIC ACID, CARNAUBA WAX, LACTIC ACID, RED 40, ACACIA (GUM ARABIC), SODIUM LACTATE, WHITE MINERAL OIL, SODIUM CITRATE." Date available: 07/14/2017 Date last updated by company: 07/14/2017
