Source: USDA Branded Food Products Database Release December 2017 Software v.3.8.6.4 2017-10-02
Report Run at: December 19, 2017 02:22 EST
"Nutrient data for: 45190072, CHERRY APPLE CHUTNEY, UPC: 020138003230"
Food Group:  Branded Food Products Database
Common Name:

Nutrient,Unit,Data points,Std. Error,"2.0 Tbsp = 56.0g",1Value per 100 g,
Proximates
"Energy",kcal,--,--,100,179
"Protein",g,--,--,0.00,0.00
"Total lipid (fat)",g,--,--,0.00,0.00
"Carbohydrate, by difference",g,--,--,25.00,44.64
"Fiber, total dietary",g,--,--,1.0,1.8
"Sugars, total",g,--,--,23.00,41.07
Minerals
"Calcium, Ca",mg,--,--,0,0
"Iron, Fe",mg,--,--,0.00,0.00
"Sodium, Na",mg,--,--,25,45
Vitamins
"Vitamin C, total ascorbic acid",mg,--,--,1.1,1.9
"Vitamin A, IU",IU,--,--,90,160
Lipids
"Fatty acids, total saturated",g,--,--,0.000,0.000
"Fatty acids, total trans",g,--,--,0.000,0.000
"Cholesterol",mg,--,--,0,0
Amino Acids
Other
Ingredients
"SUGAR, WATER, CHERRIES, APPLES, DISTILLED VINEGAR, JALAPENO PEPPERS,(WITH SALT, VINEGAR, AND WATER). PECTIN, GARAM MASALA (CUMIN, CORIANDER, CARDAMOM, BLACK PEPPER, CLOVES, MACE, CINNAMON, AND BAY LEAVES), SPICES." Date available: 07/14/2017 Date last updated by company: 07/14/2017
