Source: USDA Branded Food Products Database Release December 2017 Software v.3.8.6.4 2017-10-02
Report Run at: December 19, 2017 02:20 EST
"Nutrient data for: 45166319, CHERI'S DESERT HARVEST, PRICKLY PEAR CACTUS JELLY CANDIES, UPC: 794949005812"
Food Group:  Branded Food Products Database
Common Name:

Nutrient,Unit,Data points,Std. Error,"1 PIECES = 15.0g",1Value per 100 g,
Proximates
"Energy",kcal,--,--,40,267
"Protein",g,--,--,0.00,0.00
"Total lipid (fat)",g,--,--,0.00,0.00
"Carbohydrate, by difference",g,--,--,9.00,60.00
"Sugars, total",g,--,--,7.00,46.67
Minerals
"Sodium, Na",mg,--,--,15,100
Vitamins
Lipids
Amino Acids
Other
Ingredients
"PURE CANE SUGAR, ORGANIC PRICKLY PEAR CACTUS JUICE, CORN SYRUP, CITRUS PECTIN, CITRIC ACID, NATURAL CITRUS EXTRACT, SODIUM CITRATE." Date available: 07/14/2017 Date last updated by company: 07/14/2017
