Source: USDA Branded Food Products Database Release December 2017 Software v.3.8.6.4 2017-10-02
Report Run at: December 19, 2017 02:40 EST
"Nutrient data for: 45204710, CHEWY GRANOLA BARS, UPC: 888670025529"
Food Group:  Branded Food Products Database
Common Name:

Nutrient,Unit,Data points,Std. Error,"1 BAR = 25.0g",1Value per 100 g,
Proximates
"Energy",kcal,--,--,110,440
"Protein",g,--,--,1.00,4.00
"Total lipid (fat)",g,--,--,3.50,14.00
"Carbohydrate, by difference",g,--,--,18.00,72.00
"Fiber, total dietary",g,--,--,1.0,4.0
"Sugars, total",g,--,--,7.00,28.00
Minerals
"Calcium, Ca",mg,--,--,20,80
"Iron, Fe",mg,--,--,1.73,6.91
"Sodium, Na",mg,--,--,40,160
Vitamins
"Vitamin C, total ascorbic acid",mg,--,--,0.0,0.0
"Vitamin A, IU",IU,--,--,0,0
Lipids
"Fatty acids, total saturated",g,--,--,1.500,6.000
"Fatty acids, total trans",g,--,--,0.000,0.000
"Cholesterol",mg,--,--,0,0
Amino Acids
Other
Ingredients
"GRANOLA (WHOLE GRAIN ROLLED OATS, WHOLE GRAIN WHEAT FLAKES, BROWN SUGAR, SOYBEAN OIL, HONEY, SALT, FANCY MOLASSES), CORN SYRUP, CHOCOLATE CHIPS (SUGAR, UNSWEETENED CHOCOLATE, COCOA BUTTER, SOY LECITHIN, NATURAL VANILLA EXTRACT), CRISP RICE (RICE FLOUR, SUGAR, SALT, CALCIUM CARBONATE, BARLEY MALT EXTRACT, DISTILLED MONOGLYCERIDES), WHEY POWDER, BROWN SUGAR, DRIED UNSWEETENED COCONUT (CONTAINS SULFITES), CANOLA OIL, SOY LECITHIN, GLYCERIN, NATURAL FLAVOR." Date available: 07/14/2017 Date last updated by company: 07/14/2017
