Source: USDA Branded Food Products Database Release December 2017 Software v.3.8.6.4 2017-10-02
Report Run at: December 19, 2017 02:37 EST
"Nutrient data for: 45163522, CHEWY CHOCOLATE CHIP COOKIES, UPC: 036800412200"
Food Group:  Branded Food Products Database
Common Name:

Nutrient,Unit,Data points,Std. Error,"2.0 COOKIES = 31.0g",1Value per 100 g,
Proximates
"Energy",kcal,--,--,140,452
"Protein",g,--,--,1.00,3.23
"Total lipid (fat)",g,--,--,6.00,19.35
"Carbohydrate, by difference",g,--,--,21.00,67.74
"Fiber, total dietary",g,--,--,1.0,3.2
"Sugars, total",g,--,--,10.00,32.26
Minerals
"Calcium, Ca",mg,--,--,0,0
"Iron, Fe",mg,--,--,2.90,9.37
"Potassium, K",mg,--,--,40,129
"Sodium, Na",mg,--,--,85,274
Vitamins
"Vitamin C, total ascorbic acid",mg,--,--,0.0,0.0
"Vitamin A, IU",IU,--,--,0,0
Lipids
"Fatty acids, total saturated",g,--,--,2.499,8.060
"Fatty acids, total monounsaturated",g,--,--,2.000,6.450
"Fatty acids, total polyunsaturated",g,--,--,2.000,6.450
"Fatty acids, total trans",g,--,--,0.000,0.000
"Cholesterol",mg,--,--,0,0
Amino Acids
Other
Ingredients
"ENRICHED FLOUR (BLEACHED AND UNBLEACHED WHEAT FLOUR, NIACIN, REDUCED IRON, THIAMINE MONONITRATE, RIBOFLAVIN, FOLIC ACID), SEMISWEET CHOCOLATE CHIPS (SUGAR, CHOCOLATE, COCOA BUTTER, DEXTROSE, SOY LECITHIN, VANILLIN), HIGH FRUCTOSE CORN SYRUP, VEGETABLE OIL (CONTAINS ONE OR MORE OF THE FOLLOWING: CANOLA OIL, CORN OIL, PALM OIL, SOYBEAN OIL), SUGAR, DEXTROSE, MODIFIED CORNSTARCH, SALT, GLYCERIN, SODIUM BICARBONATE (LEAVENING), NATURAL AND ARTIFICIAL FLAVORS, SOY LECITHIN (EMULSIFIER), MOLASSES, ANNATTO EXTRACT (COLOR), CARAMEL COLOR." Date available: 07/14/2017 Date last updated by company: 07/14/2017
