Source: USDA Branded Food Products Database Release December 2017 Software v.3.8.6.4 2017-10-02
Report Run at: December 19, 2017 02:35 EST
"Nutrient data for: 45152198, CHEWY CANDIES, UPC: 070970472428"
Food Group:  Branded Food Products Database
Common Name:

Nutrient,Unit,Data points,Std. Error,"23.0 PIECES = 40.0g",1Value per 100 g,
Proximates
"Energy",kcal,--,--,140,350
"Protein",g,--,--,0.00,0.00
"Total lipid (fat)",g,--,--,0.00,0.00
"Carbohydrate, by difference",g,--,--,36.00,90.00
"Sugars, total",g,--,--,25.00,62.50
Minerals
"Sodium, Na",mg,--,--,30,75
Vitamins
Lipids
"Fatty acids, total saturated",g,--,--,0.000,0.000
"Fatty acids, total trans",g,--,--,0.000,0.000
"Cholesterol",mg,--,--,0,0
Amino Acids
Other
Ingredients
"SUGAR, CORN SYRUP, MODIFIED FOOD STARCH, FRUIT JUICE FROM CONCENTRATE (PEAR, ORANGE, STRAWBERRY, CHERRY, LIME, LEMON), CONTAINS LESS THAN 2% OF THE FOLLOWING: CITRIC ACID, MALIC ACID, FUMARIC ACID, SODIUM CITRATE, NATURAL AND ARTIFICIAL FLAVORS, DEXTRIN, CONFECTIONERS GLAZE, CARNAUBA WAX, MEDIUM CHAIN TRIGLYCERIDES, ARTIFICIAL COLOR, RED #40, YELLOW #5 (TARTRAZINE), YELLOW #6." Date available: 07/14/2017 Date last updated by company: 07/14/2017
