Source: USDA Branded Food Products Database Release December 2017 Software v.3.8.6.4 2017-10-02
Report Run at: December 19, 2017 02:41 EST
"Nutrient data for: 45263635, CHEWY GRANOLA BARS, UPC: 085239040362"
Food Group:  Branded Food Products Database
Common Name:

Nutrient,Unit,Data points,Std. Error,"1 BAR = 24.0g",1Value per 100 g,
Proximates
"Energy",kcal,--,--,100,417
"Protein",g,--,--,2.00,8.33
"Total lipid (fat)",g,--,--,2.50,10.42
"Carbohydrate, by difference",g,--,--,18.00,75.00
"Fiber, total dietary",g,--,--,1.0,4.2
"Sugars, total",g,--,--,7.00,29.17
Minerals
"Calcium, Ca",mg,--,--,20,83
"Iron, Fe",mg,--,--,0.60,2.50
"Sodium, Na",mg,--,--,40,167
Vitamins
"Vitamin C, total ascorbic acid",mg,--,--,0.0,0.0
"Vitamin A, IU",IU,--,--,0,0
Lipids
"Fatty acids, total saturated",g,--,--,0.499,2.080
"Fatty acids, total trans",g,--,--,0.000,0.000
"Cholesterol",mg,--,--,0,0
Amino Acids
Other
Ingredients
"GRANOLA (WHOLE ROLLED OATS, SUGAR, RICE FLOUR, WHEAT FLAKES, CANOLA AND/OR SOYBEAN OIL, MOLASSES, SODIUM BICARBONATE, SOY LECITHIN, CALCIUM CARBONATE, SALT), CORN SYRUP, CRISP RICE (RICE FLOUR, SUGAR, CALCIUM CARBONATE, DRY MALT EXTRACT [MALT EXTRACT, CORN SOLIDS], SALT), WHITE CHOCOLATE CHUNKS (SUGAR, COCOA BUTTER, WHOLE MILK POWDER, SOY LECITHIN, NATURAL FLAVOR), CANDY SPRINKLES (SUGAR, CORN STARCH, PARTIALLY HYDROGENATED VEGETABLE OIL [COTTONSEED AND/OR SOYBEAN], COCOA [PROCESSED WITH ALKALI], SOY LECITHIN, DEXTRIN, CONFECTIONER'S GLAZE, ARTIFICIAL COLOR [YELLOW 6 LAKE, YELLOW 5 LAKE], CARNAUBA WAX, NATURAL AND ARTIFICIAL FLAVOR), CANOLA AND/OR SOYBEAN OIL, GLYCERIN, DRIED UNSWEETENED COCONUT, FRUCTOSE, HONEY, SOY LECITHIN, SALT, SKIM MILK POWDER, ASCORBIC ACID, CITRIC ACID, ROSEMARY EXTRACT, ARTIFICIAL FLAVOR." Date available: 07/14/2017 Date last updated by company: 07/14/2017
