Source: USDA Branded Food Products Database Release December 2017 Software v.3.8.6.4 2017-10-02
Report Run at: December 19, 2017 02:43 EST
"Nutrient data for: 45156938, CHEWY LEMONHEAD, FLAVOR FUSERS, CANDY, UPC: 041420053054"
Food Group:  Branded Food Products Database
Common Name:

Nutrient,Unit,Data points,Std. Error,"26.0 PIECES = 40.0g",1Value per 100 g,
Proximates
"Energy",kcal,--,--,140,350
"Protein",g,--,--,0.00,0.00
"Total lipid (fat)",g,--,--,0.00,0.00
"Carbohydrate, by difference",g,--,--,36.00,90.00
"Sugars, total",g,--,--,27.00,67.50
Minerals
"Sodium, Na",mg,--,--,5,12
Vitamins
Lipids
Amino Acids
Other
Ingredients
"SUGAR, CORN SYRUP, MODIFIED FOOD STARCH (CORN), CITRIC ACID, CONFECTIONER'S GLAZE (SHELLAC), NATURAL AND ARTIFICIAL FLAVORS, ACACIA (GUM ARABIC), TITANIUM DIOXIDE [COLOR], SODIUM CITRATE, WHITE MINERAL OIL, CARNAUBA WAX, RED 40, YELLOW 5, RED 40 LAKE, YELLOW 6 LAKE, BLUE 1 LAKE, BLUE 1." Date available: 07/14/2017 Date last updated by company: 07/14/2017
