Source: USDA Branded Food Products Database Release December 2017 Software v.3.8.6.4 2017-10-02
Report Run at: December 19, 2017 02:39 EST
"Nutrient data for: 45105191, CHEWY GINGER CANDY, UPC: 051299111304"
Food Group:  Branded Food Products Database
Common Name:

Nutrient,Unit,Data points,Std. Error,"10.0 PCS = 40.0g",1Value per 100 g,
Proximates
"Energy",kcal,--,--,160,400
"Protein",g,--,--,1.00,2.50
"Total lipid (fat)",g,--,--,1.00,2.50
"Carbohydrate, by difference",g,--,--,38.00,95.00
"Fiber, total dietary",g,--,--,1.0,2.5
"Sugars, total",g,--,--,32.00,80.00
Minerals
"Sodium, Na",mg,--,--,0,0
Vitamins
Lipids
"Fatty acids, total saturated",g,--,--,0.000,0.000
"Fatty acids, total trans",g,--,--,0.000,0.000
"Cholesterol",mg,--,--,0,0
Amino Acids
Other
Ingredients
"CANE SUGAR, GINGER, TAPIOCA STARCH, NATURAL ORANGE FLAVOR." Date available: 06/25/2017 Date last updated by company: 06/25/2017
