Source: USDA Branded Food Products Database Release December 2017 Software v.3.8.6.4 2017-10-02
Report Run at: December 19, 2017 02:34 EST
"Nutrient data for: 45091728, CHEWY ASSORTED FRUIT FLAVORED CANDIES, UPC: 070970471254"
Food Group:  Branded Food Products Database
Common Name:

Nutrient,Unit,Data points,Std. Error,"0.25 CUP | ABOUT = 42.0g",1Value per 100 g,
Proximates
"Energy",kcal,--,--,150,357
"Protein",g,--,--,0.00,0.00
"Total lipid (fat)",g,--,--,0.00,0.00
"Carbohydrate, by difference",g,--,--,37.00,88.10
"Sugars, total",g,--,--,26.00,61.90
Minerals
"Sodium, Na",mg,--,--,30,71
Vitamins
Lipids
"Fatty acids, total saturated",g,--,--,0.000,0.000
"Fatty acids, total trans",g,--,--,0.000,0.000
"Cholesterol",mg,--,--,0,0
Amino Acids
Other
Ingredients
"SUGAR, CORN SYRUP, MODIFIED FOOD STARCH, FRUIT JUICE FROM CONCENTRATE (PEAR, ORANGE, STRAWBERRY, CHERRY, LIME, LEMON), CONTAINS LESS THAN 2% OF THE FOLLOWING: CITRIC ACID, MALIC ACID, FUMARIC ACID, SODIUM CITRATE, NATURAL AND ARTIFICIAL FLAVORS, DEXTRIN, CONFECTIONERS GLAZE, CARNAUBA WAX, MEDIUM CHAIN TRIGLYCERIDES, RED #40, YELLOW #5 (TARTRAZINE), YELLOW #6, BLUE #1." Date available: 07/14/2017 Date last updated by company: 07/14/2017
