Source: USDA Branded Food Products Database Release December 2017 Software v.3.8.6.4 2017-10-02
Report Run at: December 19, 2017 02:34 EST
"Nutrient data for: 45208887, CHEWS, UPC: 085629054900"
Food Group:  Branded Food Products Database
Common Name:

Nutrient,Unit,Data points,Std. Error,"1 PIECE = 14.0g",1Value per 100 g,
Proximates
"Energy",kcal,--,--,70,500
"Protein",g,--,--,0.00,0.00
"Total lipid (fat)",g,--,--,3.00,21.43
"Carbohydrate, by difference",g,--,--,10.00,71.43
"Fiber, total dietary",g,--,--,0.0,0.0
"Sugars, total",g,--,--,7.00,50.00
Minerals
"Calcium, Ca",mg,--,--,0,0
"Iron, Fe",mg,--,--,0.00,0.00
"Sodium, Na",mg,--,--,130,929
Vitamins
"Vitamin C, total ascorbic acid",mg,--,--,0.0,0.0
"Vitamin A, IU",IU,--,--,0,0
Lipids
"Fatty acids, total saturated",g,--,--,2.001,14.290
"Fatty acids, total trans",g,--,--,0.000,0.000
"Cholesterol",mg,--,--,5,36
Amino Acids
Other
Ingredients
"CORN SYRUP, MILK CHOCOLATE (SUGAR, COCOA BUTTER, CHOCOLATE LIQUOR, WHOLE MILK POWDER, SOY LECITHIN, VANILLA), SUGAR, HALF AND HALF (MILK, CREAM), CREAM (CREAM, CARRAGEENAN), EVAPORATED MILK WITH VITAMIN D ADDED, PALM AND OR COCONUT OIL, BUTTER (CREAM, SALT), SEA SALT, VANILLA, SOY LECITHIN." Date available: 09/07/2017 Date last updated by company: 09/07/2017
