Source: USDA Branded Food Products Database Release December 2017 Software v.3.8.6.4 2017-10-02
Report Run at: December 19, 2017 02:55 EST
"Nutrient data for: 45042174, CHI-CHI'S, RESTAURANT STYLE SALSA, MEDIUM, UPC: 037600459419"
Food Group:  Branded Food Products Database
Common Name:

Nutrient,Unit,Data points,Std. Error,"2.0 Tbsp = 30.0g",1Value per 100 g,
Proximates
"Energy",kcal,--,--,10,33
"Protein",g,--,--,0.00,0.00
"Total lipid (fat)",g,--,--,0.00,0.00
"Carbohydrate, by difference",g,--,--,2.00,6.67
"Sugars, total",g,--,--,1.00,3.33
Minerals
"Sodium, Na",mg,--,--,170,567
Vitamins
"Vitamin C, total ascorbic acid",mg,--,--,2.0,6.8
Lipids
Amino Acids
Other
Ingredients
"TOMATOES (CONTAINS TOMATO JUICE, CITRIC ACID, CALCIUM CHLORIDE), JALAPENO PEPPERS, WATER, ONIONS, TOMATO PASTE, CONTAINS 2% OR LESS OF SALT, CITRIC ACID, SPICES, GARLIC POWDER, ONION POWDER, SODIUM BENZOATE (PRESERVATIVE), WHITE DISTILLED VINEGAR." Date available: 10/13/2017 Date last updated by company: 10/13/2017
