Source: USDA Branded Food Products Database Release December 2017 Software v.3.8.6.4 2017-10-02
Report Run at: December 19, 2017 02:48 EST
"Nutrient data for: 45084038, CHIA BAR COFFEE, UPC: 852684003132"
Food Group:  Branded Food Products Database
Common Name:

Nutrient,Unit,Data points,Std. Error,"1 BAR = 25.0g",1Value per 100 g,
Proximates
"Energy",kcal,--,--,100,400
"Protein",g,--,--,3.00,12.00
"Total lipid (fat)",g,--,--,5.00,20.00
"Carbohydrate, by difference",g,--,--,13.00,52.00
"Fiber, total dietary",g,--,--,3.0,12.0
"Sugars, total",g,--,--,5.00,20.00
Minerals
"Calcium, Ca",mg,--,--,60,240
"Iron, Fe",mg,--,--,1.15,4.61
"Magnesium, Mg",mg,--,--,51,205
"Sodium, Na",mg,--,--,45,180
Vitamins
"Vitamin C, total ascorbic acid",mg,--,--,1.9,7.7
"Vitamin A, IU",IU,--,--,0,0
Lipids
"Fatty acids, total saturated",g,--,--,1.000,4.000
"Fatty acids, total monounsaturated",g,--,--,2.000,8.000
"Fatty acids, total polyunsaturated",g,--,--,2.000,8.000
"Fatty acids, total trans",g,--,--,0.000,0.000
"Cholesterol",mg,--,--,0,0
Amino Acids
Other
Ingredients
"WHITE CHIA SEES, BROWN RICE SYRUP, ORGANIC CASHEW BUTTER, ROLLED OATS, ALMONDS, ORGANIC DARK CHOCOLATE CHIPS (ORGANIC CANE SUGAR, ORGANIC COCOA LIQUOR, ORGANIC COCOA BUTTER, ORGANIC VANILLA), ORGANIC AGAVE SYRUP, ARABIC GUM ORGANIC BROWN RICE CRISPS (ORGANIC BROWN RICE, ORGANIC BROWN RICE SYRUP, SEA SALT), NATURAL FLAVORS, POWDERED COFFEE, SEA SALT, MIXED TOCOPHEROLS (NATURAL VITAMIN E)." Date available: 07/14/2017 Date last updated by company: 07/14/2017
