Source: USDA Branded Food Products Database Release December 2017 Software v.3.8.6.4 2017-10-02
Report Run at: December 19, 2017 02:48 EST
"Nutrient data for: 45315472, CHIA BARS, UPC: 852684003590"
Food Group:  Branded Food Products Database
Common Name:

Nutrient,Unit,Data points,Std. Error,"1 BAR = 25.0g",1Value per 100 g,
Proximates
"Energy",kcal,--,--,110,440
"Protein",g,--,--,4.00,16.00
"Total lipid (fat)",g,--,--,7.00,28.00
"Carbohydrate, by difference",g,--,--,12.00,48.00
"Fiber, total dietary",g,--,--,4.0,16.0
"Sugars, total",g,--,--,4.00,16.00
Minerals
"Calcium, Ca",mg,--,--,60,240
"Iron, Fe",mg,--,--,1.73,6.91
"Magnesium, Mg",mg,--,--,64,256
"Sodium, Na",mg,--,--,50,200
Vitamins
"Vitamin C, total ascorbic acid",mg,--,--,0.0,0.0
"Vitamin A, IU",IU,--,--,0,0
Lipids
"Fatty acids, total saturated",g,--,--,0.500,2.000
"Fatty acids, total monounsaturated",g,--,--,2.000,8.000
"Fatty acids, total polyunsaturated",g,--,--,2.000,8.000
"Fatty acids, total trans",g,--,--,0.000,0.000
"Cholesterol",mg,--,--,0,0
Amino Acids
Other
Ingredients
"WHITE CHIA SEEDS, ALMONDS, BROWN RICE SYRUP, GLUTEN FREE ROLLED OATS, ORGANIC AGAVE SYRUP, ORGANIC BROWN RICE CRISPS (ORGANIC BROWN RICE, ORGANIC BROWN RICE SYRUP, SEA SALT), ARABIC GUM, NATURAL FLAVORS, MIXED TOCOPHEROLS (NATURAL VITAMIN E), SEA SALT." Date available: 07/14/2017 Date last updated by company: 07/14/2017
