Source: USDA Branded Food Products Database Release December 2017 Software v.3.8.6.4 2017-10-02
Report Run at: December 19, 2017 02:48 EST
"Nutrient data for: 45037503, CHIA BLACKBERRY FRUIT SPREAD, UPC: 084672702349"
Food Group:  Branded Food Products Database
Common Name:

Nutrient,Unit,Data points,Std. Error,"1 Tbsp = 18.0g",1Value per 100 g,
Proximates
"Energy",kcal,--,--,50,278
"Protein",g,--,--,0.00,0.00
"Total lipid (fat)",g,--,--,0.50,2.78
"Carbohydrate, by difference",g,--,--,11.00,61.11
"Fiber, total dietary",g,--,--,2.0,11.1
"Sugars, total",g,--,--,7.00,38.89
Minerals
"Sodium, Na",mg,--,--,0,0
Vitamins
Lipids
Amino Acids
Other
Ingredients
"BLACKBERRIES, CANE SUGAR, CHIA SEEDS, LIME JUICE." Date available: 07/14/2017 Date last updated by company: 07/14/2017
