Source: USDA Branded Food Products Database Release December 2017 Software v.3.8.6.4 2017-10-02
Report Run at: December 19, 2017 02:51 EST
"Nutrient data for: 45231160, CHIA SQUEEZE, UPC: 856516002829"
Food Group:  Branded Food Products Database
Common Name:

Nutrient,Unit,Data points,Std. Error,"1 POUCH = 99.0g",1Value per 100 g,
Proximates
"Energy",kcal,--,--,70,71
"Protein",g,--,--,2.00,2.02
"Total lipid (fat)",g,--,--,2.00,2.02
"Carbohydrate, by difference",g,--,--,10.00,10.10
"Fiber, total dietary",g,--,--,4.0,4.0
"Sugars, total",g,--,--,7.00,7.07
Minerals
"Calcium, Ca",mg,--,--,40,40
"Iron, Fe",mg,--,--,0.18,0.18
"Potassium, K",mg,--,--,70,71
"Sodium, Na",mg,--,--,10,10
Vitamins
Lipids
Amino Acids
Other
Ingredients
"HYDRATED ORGANIC CHIA SEEDS (WATER, ORGANIC CHIA SEEDS), ORGANIC APPLE PUREE, ORGANIC GRAPE JUICE CONCENTRATE, ORGANIC BLACKBERRY PUREE, ORGANIC BLACKBERRY JUICE CONCENTRATE, ORGANIC PURPLE CARROT JUICE CONCENTRATE, CITRIC ACID, ORGANIC NATURAL BLACKBERRY FLAVOR, ORGANIC NATURAL BLUEBERRY FLAVOR." Date available: 07/14/2017 Date last updated by company: 07/14/2017
