Source: USDA Branded Food Products Database Release December 2017 Software v.3.8.6.4 2017-10-02
Report Run at: December 19, 2017 02:51 EST
"Nutrient data for: 45148031, CHIA VIE, INFUSIONS, GROUND CHIA BEVERAGE, PEAR MINT, UPC: 859045002131"
Food Group:  Branded Food Products Database
Common Name:

Nutrient,Unit,Data points,Std. Error,"1 BOTTLE = 355.0g",1Value per 100 g,
Proximates
"Energy",kcal,--,--,50,14
"Protein",g,--,--,0.99,0.28
"Total lipid (fat)",g,--,--,1.99,0.56
"Carbohydrate, by difference",g,--,--,6.00,1.69
"Fiber, total dietary",g,--,--,2.1,0.6
"Sugars, total",g,--,--,4.01,1.13
Minerals
"Calcium, Ca",mg,--,--,39,11
"Iron, Fe",mg,--,--,0.35,0.10
"Magnesium, Mg",mg,--,--,32,9
"Phosphorus, P",mg,--,--,39,11
"Potassium, K",mg,--,--,60,17
"Sodium, Na",mg,--,--,14,4
Vitamins
Lipids
"Fatty acids, total saturated",g,--,--,0.000,0.000
"Fatty acids, total trans",g,--,--,0.000,0.000
"Cholesterol",mg,--,--,0,0
Amino Acids
Other
Ingredients
"WATER, APPLE JUICE CONCENTRATE, GROUND CHIA SEEDS. CITRIC ACID XANTHAN GUM, STEVIA, NATURAL PEAR MINT FLAVOR, BETA-CAROTENE (COLOR)." Date available: 10/11/2017 Date last updated by company: 10/11/2017
