Source: USDA Branded Food Products Database Release December 2017 Software v.3.8.6.4 2017-10-02
Report Run at: December 19, 2017 03:47 EST
"Nutrient data for: 45205426, CHICKEN TORTILLA SOUP, UPC: 099482801533"
Food Group:  Branded Food Products Database
Common Name:

Nutrient,Unit,Data points,Std. Error,"8.0 ONZ = 227.0g",1Value per 100 g,
Proximates
"Energy",kcal,--,--,141,62
"Protein",g,--,--,7.99,3.52
"Total lipid (fat)",g,--,--,4.99,2.20
"Carbohydrate, by difference",g,--,--,18.00,7.93
"Fiber, total dietary",g,--,--,3.0,1.3
"Sugars, total",g,--,--,3.00,1.32
Minerals
"Calcium, Ca",mg,--,--,59,26
"Iron, Fe",mg,--,--,1.95,0.86
"Sodium, Na",mg,--,--,869,383
Vitamins
"Vitamin C, total ascorbic acid",mg,--,--,29.1,12.8
"Vitamin A, IU",IU,--,--,3237,1426
Lipids
"Fatty acids, total saturated",g,--,--,0.999,0.440
"Fatty acids, total trans",g,--,--,0.000,0.000
"Cholesterol",mg,--,--,20,9
Amino Acids
Other
Ingredients
"WATER, DICED TOMATO (TOMATOES, TOMATO JUICE, SALT, CALCIUM CHLORIDE, CITRIC ACID), ONION, BONELESS SKINLESS CHICKEN BREAST, TOMATO SAUCE (TOMATOES, SALT, RED PEPPER, DEHYDRATED ONION, DEHYDRATED GARLIC, SPICE EXTRACTIVE, CITRIC ACID), CARROT, CELERY, TORTILLA (WHITE CORN, CORN OR SUNFLOWER SEED OIL, SEA SALT, WATER, TRACE OF LIME), POBLANO PEPPER, TOMATO PASTE (TOMATOES), ANCHO PASTE (ANCHO CHILI, WATER, ORANGE JUICE), SALT, CHICKEN BASE (CHICKEN STOCK, NATURAL FLAVOR, SALT, SUGAR AND XANTHAN GUM), LIME JUICE, CILANTRO, CUMIN, PAPRIKA, CHILI POWDER, BLACK PEPPER." Date available: 07/14/2017 Date last updated by company: 07/14/2017
