Source: USDA Branded Food Products Database Release December 2017 Software v.3.8.6.4 2017-10-02
Report Run at: December 19, 2017 03:04 EST
"Nutrient data for: 45194927, CHICKEN BREAST TENDERLOIN FRITTERS, UPC: 023700043245"
Food Group:  Branded Food Products Database
Common Name:

Nutrient,Unit,Data points,Std. Error,"4.0 ONZ = 112.0g",1Value per 100 g,
Proximates
"Energy",kcal,--,--,240,214
"Protein",g,--,--,16.00,14.29
"Total lipid (fat)",g,--,--,11.00,9.82
"Carbohydrate, by difference",g,--,--,19.00,16.96
"Fiber, total dietary",g,--,--,0.0,0.0
"Sugars, total",g,--,--,0.00,0.00
Minerals
"Calcium, Ca",mg,--,--,0,0
"Iron, Fe",mg,--,--,0.00,0.00
"Sodium, Na",mg,--,--,940,839
Vitamins
"Vitamin C, total ascorbic acid",mg,--,--,0.0,0.0
"Vitamin A, IU",IU,--,--,0,0
Lipids
"Fatty acids, total saturated",g,--,--,1.501,1.340
"Fatty acids, total monounsaturated",g,--,--,3.002,2.680
"Fatty acids, total polyunsaturated",g,--,--,6.003,5.360
"Fatty acids, total trans",g,--,--,0.000,0.000
"Cholesterol",mg,--,--,25,22
Amino Acids
Other
Ingredients
"CHICKEN BREAST TENDERLOINS, WHEAT FLOUR, WATER, CONTAINS 2% OR LESS OF THE FOLLOWING: CITRIC ACID, DRIED EGG WHITES, GARLIC POWDER, LEAVENING (SODIUM ACID PYROPHOSPHATE, SODIUM BICARBONATE, MONOCALCIUM PHOSPHATE), LEMON JUICE POWDER (CORN SYRUP SOLIDS, LEMON JUICE SOLIDS, LEMON OIL, BHT), MODIFIED FOOD STARCH, OLEORESINS PAPRIKA AND TURMERIC, ONION POWDER, SALT, SODIUM PHOSPHATES, SPICE EXTRACTIVES, SPICES, SUGAR, WHEAT GLUTEN, YELLOW CORN FLOUR." Date available: 07/14/2017 Date last updated by company: 07/14/2017
