Source: USDA Branded Food Products Database Release December 2017 Software v.3.8.6.4 2017-10-02
Report Run at: December 19, 2017 03:28 EST
"Nutrient data for: 45278232, CHICKEN NOODLE, UPC: 075450064667"
Food Group:  Branded Food Products Database
Common Name:

Nutrient,Unit,Data points,Std. Error,"1 cup = 245.0g",1Value per 100 g,
Proximates
"Energy",kcal,--,--,91,37
"Protein",g,--,--,5.00,2.04
"Total lipid (fat)",g,--,--,2.50,1.02
"Carbohydrate, by difference",g,--,--,11.00,4.49
"Fiber, total dietary",g,--,--,1.0,0.4
"Sugars, total",g,--,--,1.00,0.41
Minerals
"Calcium, Ca",mg,--,--,20,8
"Iron, Fe",mg,--,--,0.71,0.29
"Potassium, K",mg,--,--,105,43
"Sodium, Na",mg,--,--,801,327
Vitamins
"Vitamin C, total ascorbic acid",mg,--,--,0.0,0.0
"Vitamin A, IU",IU,--,--,1749,714
Lipids
"Fatty acids, total saturated",g,--,--,0.490,0.200
"Fatty acids, total monounsaturated",g,--,--,1.004,0.410
"Fatty acids, total polyunsaturated",g,--,--,0.490,0.200
"Fatty acids, total trans",g,--,--,0.000,0.000
"Cholesterol",mg,--,--,15,6
Amino Acids
Other
Ingredients
"CHICKEN BROTH, CARROTS, COOKED CHICKEN MEAT (CHICKEN DARK MEAT, ISOLATED SOY PROTEIN, SALT, FOOD STARCH, SODIUM PHOSPHATE), ENRICHED EGG NOODLES (ENRICHED DURUM WHEAT FLOUR [NIACIN, FERROUS SULFATE, THIAMINE MONONITRATE, RIBOFLAVIN, FOLIC ACID], WHOLE EGG, EGG WHITES, WHEAT GLUTEN), CELERY, CONTAINS 2% OR LESS OF CORN STARCH, SALT, CHICKEN FAT, HYDROLYZED SOY PROTEIN, MONOSODIUM GLUTAMATE, ONION POWDER, SUGAR, NATURAL FLAVORS, DEXTROSE, CITRIC ACID, GARLIC POWDER, DEHYDRATED PARSLEY, AUTOLYZED YEAST EXTRACT, MALTODEXTRIN, MONO AND DIGLYCERIDES, XANTHAN GUM, CELERY JUICE CONCENTRATE, BETA CAROTENE (COLOR)." Date available: 07/14/2017 Date last updated by company: 07/14/2017
