Source: USDA Branded Food Products Database Release December 2017 Software v.3.8.6.4 2017-10-02
Report Run at: December 19, 2017 02:56 EST
"Nutrient data for: 45327024, CHICKEN AND BACON COBB SALAD, UPC: 826766951574"
Food Group:  Branded Food Products Database
Common Name:

Nutrient,Unit,Data points,Std. Error,"1 CONTAINER = 318.0g",1Value per 100 g,
Proximates
"Energy",kcal,--,--,550,173
"Protein",g,--,--,26.01,8.18
"Total lipid (fat)",g,--,--,45.00,14.15
"Carbohydrate, by difference",g,--,--,11.00,3.46
"Fiber, total dietary",g,--,--,4.1,1.3
"Sugars, total",g,--,--,4.99,1.57
Minerals
"Calcium, Ca",mg,--,--,200,63
"Iron, Fe",mg,--,--,1.18,0.37
"Sodium, Na",mg,--,--,1059,333
Vitamins
"Vitamin C, total ascorbic acid",mg,--,--,5.4,1.7
"Vitamin A, IU",IU,--,--,5282,1661
Lipids
"Fatty acids, total saturated",g,--,--,8.014,2.520
"Fatty acids, total trans",g,--,--,0.000,0.000
"Cholesterol",mg,--,--,184,58
Amino Acids
Other
Ingredients
"LETTUCE, DRESSING (CANOLA OIL, NON FAT BUTTERMILK [WHEY, WATER, SKIM MILK POWDER, CORN STARCH, TAPIOCA STARCH, CARRAGEENAN GUM, LOCUST BEAN GUM, CULTURE], BLUE CHEESE [MILK, SALT, CULTURE, ENZYMES], WATER, EGG YOLK, DISTILLED VINEGAR, SALT, SUGAR, MALTODEXTRIN, CULTURED DEXTROSE, DRIED GARLIC, MUSTARD FLOUR, XANTHAN GUM, GUAR GUM), GRILLED WHITE CHICKEN (CHICKEN BREAST WITH RIB MEAT, WATER, POTATO STARCH, SEA SALT), HARD COOKED EGG (HARD COOKED EGGS, WATER. CITRIC ACID, SODIUM BENZOATE, AND NISIN PREPARATION [AS PRESERVATIVES]), GRAPE TOMATOES, GREEN ONION, BLUE CHEESE (MILK, CHEESE CULTURES, SALT, ENZYMES, POWDERED CELLULOSE TO PREVENT CAKING, NATAMYCIN TO PROTECT FLAVOR), FULLY COOKED SMOKED BACON (CURED WITH WATER, SALT, SMOKE FLAVORING, SODIUM PHOSPHATE, SODIUM ERYTHORBATE, SODIUM NITRITE. MAY CONTAIN SUGAR, BROWN SUGAR)." Date available: 10/13/2017 Date last updated by company: 10/13/2017
