Source: USDA Branded Food Products Database Release December 2017 Software v.3.8.6.4 2017-10-02
Report Run at: December 19, 2017 03:54 EST
"Nutrient data for: 45108249, CHICK PEAS, UPC: 041331024198"
Food Group:  Branded Food Products Database
Common Name:

Nutrient,Unit,Data points,Std. Error,"0.5 cup = 122.0g",1Value per 100 g,
Proximates
"Energy",kcal,--,--,100,82
"Protein",g,--,--,6.00,4.92
"Total lipid (fat)",g,--,--,2.00,1.64
"Carbohydrate, by difference",g,--,--,20.00,16.39
"Fiber, total dietary",g,--,--,7.0,5.7
"Sugars, total",g,--,--,1.00,0.82
Minerals
"Calcium, Ca",mg,--,--,40,33
"Iron, Fe",mg,--,--,4.79,3.93
"Sodium, Na",mg,--,--,360,295
Vitamins
"Vitamin C, total ascorbic acid",mg,--,--,0.0,0.0
"Vitamin A, IU",IU,--,--,0,0
Lipids
"Fatty acids, total saturated",g,--,--,0.000,0.000
"Fatty acids, total trans",g,--,--,0.000,0.000
"Cholesterol",mg,--,--,0,0
Amino Acids
Other
Ingredients
"CHICK PEAS, WATER, SALT AND DISODIUM EDTA ADDED TO PROMOTE COLOR RETENTION." Date available: 07/25/2017 Date last updated by company: 07/25/2017
