Source: USDA Branded Food Products Database Release December 2017 Software v.3.8.6.4 2017-10-02
Report Run at: December 19, 2017 03:25 EST
"Nutrient data for: 45314331, CHICKEN MEAT WITH CURRANT & SESAME BBQ SEASONING BITES, UPC: 858284002728"
Food Group:  Branded Food Products Database
Common Name:

Nutrient,Unit,Data points,Std. Error,"6.0 PIECES = 28.0g",1Value per 100 g,
Proximates
"Energy",kcal,--,--,90,321
"Protein",g,--,--,9.00,32.14
"Total lipid (fat)",g,--,--,2.50,8.93
"Carbohydrate, by difference",g,--,--,8.00,28.57
"Fiber, total dietary",g,--,--,1.0,3.6
"Sugars, total",g,--,--,6.00,21.43
Minerals
"Calcium, Ca",mg,--,--,0,0
"Iron, Fe",mg,--,--,1.29,4.59
"Sodium, Na",mg,--,--,290,1036
Vitamins
"Vitamin C, total ascorbic acid",mg,--,--,0.0,0.0
"Vitamin A, IU",IU,--,--,0,0
Lipids
"Fatty acids, total saturated",g,--,--,0.501,1.790
"Cholesterol",mg,--,--,40,143
Amino Acids
Other
Ingredients
"NATURAL* CHICKEN, ORGANIC CURRANTS, SEA SALT, GARLIC, ONION, SESAME SEEDS, SESAME OIL, GINGER, BLACK PEPPER, RED PEPPER FLAKES, RED PEPPER." Date available: 06/06/2017 Date last updated by company: 06/06/2017
