Source: USDA Branded Food Products Database Release December 2017 Software v.3.8.6.4 2017-10-02
Report Run at: December 19, 2017 03:00 EST
"Nutrient data for: 45058906, CHICKEN BREAST FILLETS, UPC: 024105775755"
Food Group:  Branded Food Products Database
Common Name:

Nutrient,Unit,Data points,Std. Error,"4.0 ONZ = 112.0g",1Value per 100 g,
Proximates
"Energy",kcal,--,--,110,98
"Protein",g,--,--,24.00,21.43
"Total lipid (fat)",g,--,--,1.50,1.34
"Carbohydrate, by difference",g,--,--,0.00,0.00
Minerals
"Iron, Fe",mg,--,--,0.55,0.49
"Sodium, Na",mg,--,--,190,170
Vitamins
Lipids
"Fatty acids, total saturated",g,--,--,0.000,0.000
"Fatty acids, total trans",g,--,--,0.000,0.000
"Cholesterol",mg,--,--,65,58
Amino Acids
Other
Ingredients
"WATER, SEA SALT, EVAPORATED CANE JUICE, SODIUM CARBONATE, NATURAL FLAVORING." Date available: 10/17/2017 Date last updated by company: 10/17/2017
