Source: USDA Branded Food Products Database Release December 2017 Software v.3.8.6.4 2017-10-02
Report Run at: December 19, 2017 03:40 EST
"Nutrient data for: 45181710, CHICKEN SEASONING, UPC: 021248280825"
Food Group:  Branded Food Products Database
Common Name:

Nutrient,Unit,Data points,Std. Error,"0.25 tsp = 1.4g",1Value per 100 g,
Proximates
"Energy",kcal,--,--,0,0
"Protein",g,--,--,0.00,0.00
"Total lipid (fat)",g,--,--,0.00,0.00
"Carbohydrate, by difference",g,--,--,1.00,71.43
Minerals
"Sodium, Na",mg,--,--,125,8929
Vitamins
Lipids
Amino Acids
Other
Ingredients
"SPICES (ROSEMARY, BLACK PEPPER, OREGANO, BASIL), SEA SALT, ORANGE AND LEMON PEEL, DEHYDRATED GARLIC AND ONION, AND CITRIC ACID." Date available: 07/14/2017 Date last updated by company: 07/14/2017
