Source: USDA Branded Food Products Database Release December 2017 Software v.3.8.6.4 2017-10-02
Report Run at: December 19, 2017 03:49 EST
"Nutrient data for: 45212937, CHICKEN WINGETTES, UPC: 896775000877"
Food Group:  Branded Food Products Database
Common Name:

Nutrient,Unit,Data points,Std. Error,"4.0 PIECES = 114.0g",1Value per 100 g,
Proximates
"Energy",kcal,--,--,230,202
"Protein",g,--,--,18.00,15.79
"Total lipid (fat)",g,--,--,18.00,15.79
"Carbohydrate, by difference",g,--,--,0.00,0.00
"Fiber, total dietary",g,--,--,0.0,0.0
"Sugars, total",g,--,--,0.00,0.00
Minerals
"Calcium, Ca",mg,--,--,0,0
"Iron, Fe",mg,--,--,0.81,0.71
"Sodium, Na",mg,--,--,200,175
Vitamins
"Vitamin C, total ascorbic acid",mg,--,--,0.0,0.0
"Vitamin A, IU",IU,--,--,74,65
Lipids
"Fatty acids, total saturated",g,--,--,4.503,3.950
"Fatty acids, total trans",g,--,--,0.000,0.000
"Cholesterol",mg,--,--,86,75
Amino Acids
Other
Ingredients
"CHICKEN WINGETTES SOLUTION: CHICKEN,WATER, SODIUM POLYPHOSPHATES, SALT, CARRAGEENAN, GUAR GUM, XANTHAN GUM AND MALTODEXTRIN." Date available: 07/14/2017 Date last updated by company: 07/14/2017
