Source: USDA Branded Food Products Database Release December 2017 Software v.3.8.6.4 2017-10-02
Report Run at: December 19, 2017 03:38 EST
"Nutrient data for: 45104868, CHICKEN, SALT-FREE, UPC: 605021000253"
Food Group:  Branded Food Products Database
Common Name:

Nutrient,Unit,Data points,Std. Error,"0.25 tsp = 0.7g",1Value per 100 g,
Proximates
"Energy",kcal,--,--,0,0
"Protein",g,--,--,0.00,0.00
"Total lipid (fat)",g,--,--,0.00,0.00
"Carbohydrate, by difference",g,--,--,0.00,0.00
Minerals
"Potassium, K",mg,--,--,5,714
"Sodium, Na",mg,--,--,0,0
Vitamins
Lipids
"Fatty acids, total trans",g,--,--,0.000,0.000
Amino Acids
Other
Ingredients
"GARLIC, ONION, SPICES (BLACK PEPPER, SWEET CHILI PEPPER, OREGANO, ROSEMARY, BASIL, SAGE, THYME, CAYENNE PEPPER, BAY, MARJORAM, SAVORY, CORIANDER, CUMIN, MUSTARD), CARROTS, PAPRIKA,ORANGE PEEL, LEMON JUICE SOLIDS, CITRIC ACID, NATURAL LEMON FLAVOR." Date available: 06/25/2017 Date last updated by company: 06/25/2017
