Source: USDA Branded Food Products Database Release December 2017 Software v.3.8.6.4 2017-10-02
Report Run at: December 19, 2017 03:02 EST
"Nutrient data for: 45197501, CHICKEN BREAST PATTIES, UPC: 051933338715"
Food Group:  Branded Food Products Database
Common Name:

Nutrient,Unit,Data points,Std. Error,"1 PATTY = 82.0g",1Value per 100 g,
Proximates
"Energy",kcal,--,--,190,232
"Protein",g,--,--,14.00,17.07
"Total lipid (fat)",g,--,--,9.00,10.98
"Carbohydrate, by difference",g,--,--,14.00,17.07
"Fiber, total dietary",g,--,--,1.0,1.2
"Sugars, total",g,--,--,0.00,0.00
Minerals
"Calcium, Ca",mg,--,--,20,24
"Iron, Fe",mg,--,--,1.12,1.37
"Sodium, Na",mg,--,--,380,463
Vitamins
"Vitamin C, total ascorbic acid",mg,--,--,0.0,0.0
"Vitamin A, IU",IU,--,--,0,0
Lipids
"Fatty acids, total saturated",g,--,--,2.001,2.440
"Fatty acids, total trans",g,--,--,0.000,0.000
"Cholesterol",mg,--,--,35,43
Amino Acids
Other
Ingredients
"CHICKEN BREAST WITH RIB MEAT, WHEAT FLOUR, WATER, CONTAINS 2% OR LESS OF CORN STARCH, ISOLATED SOY PROTEIN, WHOLE WHEAT FLOUR, TEXTURED SOY FLOUR, SALT, MODIFIED FOOD STARCH, CHICKEN BROTH POWDER (MALTODEXTRIN, DEHYDRATED CHICKEN BROTH, SALT, FLAVORS) SEA SALT, DEXTROSE, YEAST, SODIUM PHOSPHATES, YELLOW CORN FLOUR, EXTRACTIVES OF PAPRIKA, TURBINADO SUGAR, GARLIC POWDER, AUTOLYZED YEAST EXTRACT, ONION POWDER, SPICES, SPICE EXTRACTIVES" Date available: 07/14/2017 Date last updated by company: 07/14/2017
