Source: USDA Branded Food Products Database Release December 2017 Software v.3.8.6.4 2017-10-02
Report Run at: December 19, 2017 03:51 EST
"Nutrient data for: 45267264, CHICKEN WITH RICE SOUP, UPC: 099482806293"
Food Group:  Branded Food Products Database
Common Name:

Nutrient,Unit,Data points,Std. Error,"8.0 ONZ = 227.0g",1Value per 100 g,
Proximates
"Energy",kcal,--,--,250,110
"Protein",g,--,--,8.99,3.96
"Total lipid (fat)",g,--,--,16.00,7.05
"Carbohydrate, by difference",g,--,--,17.00,7.49
"Fiber, total dietary",g,--,--,2.0,0.9
"Sugars, total",g,--,--,2.00,0.88
Minerals
"Calcium, Ca",mg,--,--,41,18
"Iron, Fe",mg,--,--,1.16,0.51
"Sodium, Na",mg,--,--,490,216
Vitamins
"Vitamin C, total ascorbic acid",mg,--,--,6.6,2.9
"Vitamin A, IU",IU,--,--,540,238
Lipids
"Fatty acids, total saturated",g,--,--,7.990,3.520
"Fatty acids, total trans",g,--,--,0.000,0.000
"Cholesterol",mg,--,--,66,29
Amino Acids
Other
Ingredients
"WATER, ONION, BONELESS SKINLESS CHICKEN BREAST, HEAVY CREAM (CREAM, CARRAGEENAN), BROWN RICE, CARROT, CELERY, RICE FLOUR, WILD RICE, CHICKEN BASE (CHICKEN STOCK, NATURAL FLAVOR, SALT, SUGAR AND XANTHAN GUM), BUTTER (SWEET CREAM, NATURAL FLAVORING), FLOUR (WHEAT FLOUR, MALTED BARLEY FLOUR, NIACIN, IRON, THIAMIN MONONITRATE, RIBOFLAVIN, FOLIC ACID), GARLIC, SALT, PARSLEY, CANOLA OIL, THYME, WHITE PEPPER." Date available: 10/13/2017 Date last updated by company: 10/13/2017
