Source: USDA Branded Food Products Database Release December 2017 Software v.3.8.6.4 2017-10-02
Report Run at: December 19, 2017 03:33 EST
"Nutrient data for: 45222314, CHICKEN PHILLY STEAK, UPC: 897455002211"
Food Group:  Branded Food Products Database
Common Name:

Nutrient,Unit,Data points,Std. Error,"4.0 ONZ = 113.0g",1Value per 100 g,
Proximates
"Energy",kcal,--,--,120,106
"Protein",g,--,--,14.00,12.39
"Total lipid (fat)",g,--,--,4.99,4.42
"Carbohydrate, by difference",g,--,--,2.99,2.65
"Fiber, total dietary",g,--,--,0.0,0.0
"Sugars, total",g,--,--,0.99,0.88
Minerals
"Calcium, Ca",mg,--,--,0,0
"Iron, Fe",mg,--,--,1.08,0.96
"Sodium, Na",mg,--,--,125,111
Vitamins
"Vitamin C, total ascorbic acid",mg,--,--,0.0,0.0
"Vitamin A, IU",IU,--,--,0,0
Lipids
"Fatty acids, total saturated",g,--,--,2.497,2.210
"Fatty acids, total trans",g,--,--,0.000,0.000
"Cholesterol",mg,--,--,85,75
Amino Acids
Other
Ingredients
"CHICKEN, WATER, SOY PROTEIN CONCENTRATE, DEXTROSE, SODIUM PHOSPHATE, MODIFIED CORN STARCH, SALT, ISOLATED SOY PROTEIN, HYDROLYZED SOY PROTEIN." Date available: 07/14/2017 Date last updated by company: 07/14/2017
