Source: USDA Branded Food Products Database Release December 2017 Software v.3.8.6.4 2017-10-02
Report Run at: December 19, 2017 03:45 EST
"Nutrient data for: 45215265, CHICKEN THIGH MEAT FOR FAJITAS, UPC: 011110965660"
Food Group:  Branded Food Products Database
Common Name:

Nutrient,Unit,Data points,Std. Error,"4.0 ONZ = 114.0g",1Value per 100 g,
Proximates
"Energy",kcal,--,--,120,105
"Protein",g,--,--,20.00,17.54
"Total lipid (fat)",g,--,--,4.00,3.51
"Carbohydrate, by difference",g,--,--,2.00,1.75
"Fiber, total dietary",g,--,--,0.0,0.0
"Sugars, total",g,--,--,0.00,0.00
Minerals
"Calcium, Ca",mg,--,--,21,18
"Iron, Fe",mg,--,--,1.07,0.94
"Sodium, Na",mg,--,--,660,579
Vitamins
"Vitamin C, total ascorbic acid",mg,--,--,0.0,0.0
"Vitamin A, IU",IU,--,--,74,65
Lipids
"Fatty acids, total saturated",g,--,--,1.003,0.880
"Fatty acids, total monounsaturated",g,--,--,1.003,0.880
"Fatty acids, total polyunsaturated",g,--,--,1.003,0.880
"Fatty acids, total trans",g,--,--,0.000,0.000
"Cholesterol",mg,--,--,80,70
Amino Acids
Other
Ingredients
"BONELESS SKINLESS CHICKEN THIGH, WATER, CONTAINS 2% OR LESS OF: NATURAL FLAVOR, SPICE, SALT, YEAST EXTRACT, CITRIC ACID, SODIUM LACTATE AND SODIUM PHOSPHATE." Date available: 07/14/2017 Date last updated by company: 07/14/2017
