Source: USDA Branded Food Products Database Release December 2017 Software v.3.8.6.4 2017-10-02
Report Run at: December 19, 2017 03:11 EST
"Nutrient data for: 45282516, CHICKEN CAESAR, SALAD BOWL, UPC: 030223048275"
Food Group:  Branded Food Products Database
Common Name:

Nutrient,Unit,Data points,Std. Error,"1 PKG. = 177.0g",1Value per 100 g,
Proximates
"Energy",kcal,--,--,200,113
"Protein",g,--,--,16.99,9.60
"Total lipid (fat)",g,--,--,12.00,6.78
"Carbohydrate, by difference",g,--,--,6.99,3.95
"Fiber, total dietary",g,--,--,1.9,1.1
"Sugars, total",g,--,--,2.00,1.13
Minerals
"Calcium, Ca",mg,--,--,99,56
"Iron, Fe",mg,--,--,1.13,0.64
"Sodium, Na",mg,--,--,620,350
Vitamins
"Vitamin C, total ascorbic acid",mg,--,--,3.7,2.1
"Vitamin A, IU",IU,--,--,6328,3575
Lipids
"Fatty acids, total saturated",g,--,--,3.505,1.980
"Fatty acids, total trans",g,--,--,0.000,0.000
"Cholesterol",mg,--,--,44,25
Amino Acids
Other
Ingredients
"ROMAINE LETTUCE, SEASONED CHICKEN BREAST MEAT WITH RIB MEAT CHICKEN BREAST MEAT WITH RIB MEAT, WATER, LESS THAN 2% SOY PROTEIN CONCENTRATE, SODIUM LACTATE, SALT, MODIFIED FOOD STARCH, CARRAGEENAN, SODIUM PHOSPHATE), CAESAR DRESSING (WATER, CANOLA OIL, GARLIC, PARMESAN CHEESE [SKIM MILK, CULTURE, SALT, ENZYMES], DIJON MUSTARD [WATER, MUSTARD SEED, DISTILLED VINEGAR, SALT, WHITE WINE, CITRIC ACID, TURMERIC {COLOR}, TARTARIC ACID, SPICES], EGG YOLK, DISTILLED VINEGAR, DRIED GARLIC, SALT, PEPPER SAUCE [CAYENNE PEPPERS, DISTILLED VINEGAR, WATER, SALT, GARLIC POWDER[, LEMON JUICE CONCENTRATE, SUGAR, MODIFIED CORN STARCH, MUSTARD FLOUR, XANTHAN GUM, SPICE, ANCHOVIES, PROPYLENE GLYCOL ALGINATE), PARMESAN CHEESE (PARMESAN CHEESE [MILK, CHEESE CULTURE, SALT, ENZYMES], POTATO STARCH AND POWDERED CELLULOSE [TO PREVENT CAKING], NATAMYCIN [A NATURAL MOLD INHIBITOR])." Date available: 07/14/2017 Date last updated by company: 07/14/2017
