Source: USDA Branded Food Products Database Release December 2017 Software v.3.8.6.4 2017-10-02
Report Run at: December 19, 2017 03:19 EST
"Nutrient data for: 45117490, CHICKEN FRIED RICE, UPC: 054347311084"
Food Group:  Branded Food Products Database
Common Name:

Nutrient,Unit,Data points,Std. Error,"1 PACKAGE = 340.0g",1Value per 100 g,
Proximates
"Energy",kcal,--,--,469,138
"Protein",g,--,--,19.99,5.88
"Total lipid (fat)",g,--,--,9.01,2.65
"Carbohydrate, by difference",g,--,--,77.01,22.65
"Fiber, total dietary",g,--,--,4.1,1.2
"Sugars, total",g,--,--,10.00,2.94
Minerals
"Calcium, Ca",mg,--,--,41,12
"Iron, Fe",mg,--,--,2.07,0.61
"Sodium, Na",mg,--,--,1380,406
Vitamins
"Vitamin C, total ascorbic acid",mg,--,--,11.9,3.5
"Vitamin A, IU",IU,--,--,860,253
Lipids
"Fatty acids, total saturated",g,--,--,1.496,0.440
"Fatty acids, total trans",g,--,--,0.000,0.000
"Cholesterol",mg,--,--,24,7
Amino Acids
Other
Ingredients
"BOWL (COOKED RICE, FULLY COOKED CHICKEN BREAST STRIPS (CHICKEN BREAST WITH RIB MEAT, WATER, POTATO STARCH, CONTAINS 2% OR LESS OF: SALT, CARRAGEENAN, YEAST EXTRACT, BLACK PEPPER, PAPRIKA, GARLIC POWDER, NATURAL FLAVOR), SAUCE (SOY SAUCE (WATER, WHEAT, SOYBEANS, SALT), SESAME OIL, RAISIN JUICE CONCENTRATE, NATURALLY BREWED SOY SAUCE (WATER, WHEAT, SOYBEANS, SALT, MALTODEXTRIN), SEASONINGS (SUGAR, YEAST EXTRACT, SALT, TEA POWDER, SOY LECITHIN, XANTHAN GUM, SPICE EXTRACT, CITRIC ACID), VEGETABLE OIL, SALT), WHITE ONIONS, CARROTS, EDAMAME, RED BELL PEPPER, EGG PRODUCT (WHOLE EGGS, SKIM MILK, SOYBEAN OIL, CORN STARCH, SALT, XANTHAN GUM, CITRIC ACID).) VEGETABLE EGG ROLL (FILLING: (CABBAGE, CARROTS, SUGAR, GREEN ONION, SOY PROTEIN CONCENTRATE, SALT, CORNSTARCH, YEAST EXTRACT, POTASSIUM CHLORIDE, VEGETABLE FLAVOR (CORN STARCH, SALT, CANOLA OIL, NATURAL FLAVOR, YEAST EXTRACT), ONION POWDER, GARLIC POWDER, SPICES, NATURAL FLAVOR (GUM ARABIC, NATURAL FLAVOR, SALT)), WRAPPER: (WHEAT FLOUR, WATER, PALM OIL, CONTAINS 2% OR LESS OF: SALT, SOY LECITHIN.), FRIED IN VEGETABLE OIL." Date available: 07/14/2017 Date last updated by company: 07/14/2017
