Source: USDA Branded Food Products Database Release December 2017 Software v.3.8.6.4 2017-10-02
Report Run at: December 19, 2017 03:27 EST
"Nutrient data for: 45221382, CHICKEN NOODLE SOUP, UPC: 722452151412"
Food Group:  Branded Food Products Database
Common Name:

Nutrient,Unit,Data points,Std. Error,"1 cup = 227.0g",1Value per 100 g,
Proximates
"Energy",kcal,--,--,129,57
"Protein",g,--,--,8.99,3.96
"Total lipid (fat)",g,--,--,3.50,1.54
"Carbohydrate, by difference",g,--,--,16.00,7.05
"Fiber, total dietary",g,--,--,0.9,0.4
"Sugars, total",g,--,--,3.00,1.32
Minerals
"Calcium, Ca",mg,--,--,20,9
"Iron, Fe",mg,--,--,1.16,0.51
"Sodium, Na",mg,--,--,1010,445
Vitamins
"Vitamin C, total ascorbic acid",mg,--,--,3.9,1.7
"Vitamin A, IU",IU,--,--,2699,1189
Lipids
"Fatty acids, total saturated",g,--,--,0.999,0.440
"Fatty acids, total trans",g,--,--,0.000,0.000
"Cholesterol",mg,--,--,41,18
Amino Acids
Other
Ingredients
"WATER, CHICKEN MEAT, EGG NOODLES [ENRICHED WHEAT FLOUR (WHEAT FLOUR, MALTED BARLEY FLOUR, NIACIN, FERROUS SULFATE, THIAMINE MONONITRATE, RIBOFLAVIN, FOLIC ACID), EGGS, WATER, SALT], CARROTS, ONIONS, CELERY, CHICKEN BASE [COOKED CHICKEN (CHICKEN MEAT, CHICKEN STOCK, CHICKEN FAT), SALT, SUGAR, SWEET DAIRY WHEY, HYDROLYZED CORN PROTEIN, HYDROGENATED SOYBEAN OIL, MODIFIED CORN STARCH, ONION POWDER, NATURAL FLAVOR, DISODIUM INOSINATE, DISODIUM GUANYLATE, SOY LECITHIN, TURMERIC], BUTTER (PASTEURIZED CREAM, SALT), MODIFIED FOOD STARCH, GARLIC, SPICES, CHICKEN FAT, SALT." Date available: 07/14/2017 Date last updated by company: 07/14/2017
