Source: USDA Branded Food Products Database Release December 2017 Software v.3.8.6.4 2017-10-02
Report Run at: December 19, 2017 03:03 EST
"Nutrient data for: 45203425, CHICKEN BREAST RINGS WITH RIB MEAT, UPC: 889752167915"
Food Group:  Branded Food Products Database
Common Name:

Nutrient,Unit,Data points,Std. Error,"102.0 GRM = 102.0g",1Value per 100 g,
Proximates
"Energy",kcal,--,--,220,216
"Protein",g,--,--,20.00,19.61
"Total lipid (fat)",g,--,--,8.00,7.84
"Carbohydrate, by difference",g,--,--,16.00,15.69
"Fiber, total dietary",g,--,--,1.0,1.0
"Sugars, total",g,--,--,1.00,0.98
Minerals
"Calcium, Ca",mg,--,--,40,39
"Iron, Fe",mg,--,--,1.50,1.47
"Sodium, Na",mg,--,--,860,843
Vitamins
"Vitamin C, total ascorbic acid",mg,--,--,0.0,0.0
"Vitamin A, IU",IU,--,--,84,82
Lipids
"Fatty acids, total saturated",g,--,--,1.999,1.960
"Fatty acids, total trans",g,--,--,0.000,0.000
"Cholesterol",mg,--,--,30,29
Amino Acids
Other
Ingredients
"CHICKEN BREAST WITH RIB MEAT, WATER, VEGETABLE PROTEIN PRODUCT [SOY PROTEIN CONCENTRATE, ZINC OXIDE, NIACINAMIDE, FERROUS SULFATE, COPPER GLUCONATE, VITAMIN A PALMITATE CALCIUM PANTOTHENATE, THIAMINE MONONITRATE (B1), PYRIDOXINE HYDROCHLORIDE (B6), RIBOFLAVIN (B2), AND CYANOCOBALAMIN (B12)], CHICKEN SKIN, SOY PROTEIN CONCENTRATE, SEASONING (SALT, HYDROLYZED CORN & SOY PROTEIN, SODIUM PHOSPHATE, DRIED ONION, DRIED GARLIC AND SPICES), TRICALCIUM PHOSPHATES. BATTERED WITH: WATER, BLEACHED WHEAT FLOUR, PARTIALLY HYDROGENATED VEGETABLE OIL (SOYBEAN AND COTTONSEED), LEAVENING (DISODIUM PYROPHOSPHATE, BAKING SODA), YELLOW CORN FLOUR, SUGAR, SALT, SODIUM ALUMINOSILICATE, DEXTROSE. BREADED WITH: BLEACHED WHEAT FLOUR, YEAST, SUGAR, YELLOW CORN FLOUR, SALT AND OLEORESIN PAPRIKA. BREADING IS SET IN VEGETABLE OIL." Date available: 07/14/2017 Date last updated by company: 07/14/2017
