Source: USDA Branded Food Products Database Release December 2017 Software v.3.8.6.4 2017-10-02
Report Run at: December 19, 2017 02:59 EST
"Nutrient data for: 45229940, CHICKEN BOUILLON, UPC: 075450021394"
Food Group:  Branded Food Products Database
Common Name:

Nutrient,Unit,Data points,Std. Error,"1 tsp = 4.0g",1Value per 100 g,
Proximates
"Energy",kcal,--,--,5,125
"Protein",g,--,--,0.00,0.00
"Total lipid (fat)",g,--,--,0.00,0.00
"Carbohydrate, by difference",g,--,--,1.00,25.00
"Sugars, total",g,--,--,1.00,25.00
Minerals
"Sodium, Na",mg,--,--,960,24000
Vitamins
Lipids
"Fatty acids, total saturated",g,--,--,0.000,0.000
Amino Acids
Other
Ingredients
"SALT, CORN SYRUP SOLIDS, SUGAR, HYDROLYZED CORN PROTEIN, MONOSODIUM GLUTAMATE, CONTAINS LESS THAN 2% OF: YEAST EXTRACT, ONION POWDER, SPICE SILICON DIOXIDE (ANTI-CAKING AGENT), TURMERIC (FOR COLOR), SUNFLOWER OIL CITRIC ACID, DEHYDRATED PARSLEY." Date available: 07/14/2017 Date last updated by company: 07/14/2017
