Source: USDA Branded Food Products Database Release December 2017 Software v.3.8.6.4 2017-10-02
Report Run at: December 19, 2017 03:37 EST
"Nutrient data for: 45049769, CHICKEN SALAD, UPC: 071763000149"
Food Group:  Branded Food Products Database
Common Name:

Nutrient,Unit,Data points,Std. Error,"0.33 cup = 82.0g",1Value per 100 g,
Proximates
"Energy",kcal,--,--,120,146
"Protein",g,--,--,9.00,10.98
"Total lipid (fat)",g,--,--,5.00,6.10
"Carbohydrate, by difference",g,--,--,8.00,9.76
"Fiber, total dietary",g,--,--,0.0,0.0
"Sugars, total",g,--,--,5.00,6.10
Minerals
"Calcium, Ca",mg,--,--,40,49
"Iron, Fe",mg,--,--,1.84,2.25
"Sodium, Na",mg,--,--,640,780
Vitamins
"Vitamin C, total ascorbic acid",mg,--,--,2.0,2.5
"Vitamin A, IU",IU,--,--,1707,2082
Lipids
"Fatty acids, total saturated",g,--,--,1.501,1.830
"Fatty acids, total trans",g,--,--,0.000,0.000
"Cholesterol",mg,--,--,35,43
Amino Acids
Other
Ingredients
"CHICKEN (CHICKEN, MECHANICALLY SALT), DRESSING (SOYBEAN OIL, VINEGAR, WATER, HIGH FRUCTOSE CORN SYRUP, EGG YOLK MODIFIED FOOD STARCH: SALT, PAPRIKA, CALCIUM DISODIUM EDTA TO PROTECT FLAVOR), COOKED (CELERY, WATER, FOOD STARCH MODIFIED SUGAR, CELLULOSE GUM, LOCUST BEAN GUM, CITRIC ACID: 0. 1% POTASSIUM SORBATE ADDED AS A PRESERVATIVE), PICKLES (CUCUMBERS, CORN SYRUP, VINEGAR, SALT, CALCIUM CHLORIDE, 0. 1% SODIUM BENZOATE AS PRESERVATIVE XANTHAN GUM, NATURAL AND ARTIFICIAL FLAVORS, POLYSORBATE 80), CARROTS, CRACKER MEAL (ENRICHED FLOUR CONTAINING NIACIN, REDUCED IRON, THIAMINE, MONONITRATE, CHICKEN SEASONING (SALT, ONION POWDER, MONOSODIUM GLUTAMATE, AND SPICE EXTRACTIONS OF PEPPER, CITRIC ACID." Date available: 06/25/2017 Date last updated by company: 06/25/2017
