Source: USDA Branded Food Products Database Release December 2017 Software v.3.8.6.4 2017-10-02
Report Run at: December 19, 2017 03:34 EST
"Nutrient data for: 45200269, CHICKEN POT PIE, UPC: 647146102108"
Food Group:  Branded Food Products Database
Common Name:

Nutrient,Unit,Data points,Std. Error,"1 cup = 226.0g",1Value per 100 g,
Proximates
"Energy",kcal,--,--,359,159
"Protein",g,--,--,12.99,5.75
"Total lipid (fat)",g,--,--,16.00,7.08
"Carbohydrate, by difference",g,--,--,43.01,19.03
"Fiber, total dietary",g,--,--,2.9,1.3
"Sugars, total",g,--,--,3.01,1.33
Minerals
"Calcium, Ca",mg,--,--,41,18
"Iron, Fe",mg,--,--,0.59,0.26
"Sodium, Na",mg,--,--,920,407
Vitamins
"Vitamin C, total ascorbic acid",mg,--,--,2.7,1.2
"Vitamin A, IU",IU,--,--,1659,734
Lipids
"Fatty acids, total saturated",g,--,--,8.995,3.980
"Cholesterol",mg,--,--,70,31
Amino Acids
Other
Ingredients
"CRUST (RICE FLOUR, CORN STARCH, TAPIOCA, DEXTRIN, XANTHAN GUM, RICE EXTRACT, PALM SHORTENING, WATER, EGGS, (POTATO STARCH, TREHALOSE, CARROT FIBER), SALT, SUGAR, GARLIC POWDER) WATER, POTATOES, CHICKEN, CARROTS, PEAS, ONIONS, CORN, CORN STARCH, SOUP BASE (CHICKEN BROTH, SALT, FLAVORINGS), SALT, PEPPER" Date available: 07/14/2017 Date last updated by company: 07/14/2017
