Source: USDA Branded Food Products Database Release December 2017 Software v.3.8.6.4 2017-10-02
Report Run at: December 19, 2017 03:05 EST
"Nutrient data for: 45270039, CHICKEN BREAST, UPC: 042222860901"
Food Group:  Branded Food Products Database
Common Name:

Nutrient,Unit,Data points,Std. Error,"2.0 ONZ = 56.0g",1Value per 100 g,
Proximates
"Energy",kcal,--,--,50,89
"Protein",g,--,--,12.00,21.43
"Total lipid (fat)",g,--,--,1.00,1.79
"Carbohydrate, by difference",g,--,--,0.00,0.00
"Fiber, total dietary",g,--,--,0.0,0.0
"Sugars, total",g,--,--,0.00,0.00
Minerals
"Calcium, Ca",mg,--,--,20,36
"Iron, Fe",mg,--,--,0.35,0.63
"Sodium, Na",mg,--,--,450,804
Vitamins
"Vitamin C, total ascorbic acid",mg,--,--,0.0,0.0
"Vitamin A, IU",IU,--,--,0,0
Lipids
"Fatty acids, total saturated",g,--,--,0.000,0.000
"Fatty acids, total trans",g,--,--,0.000,0.000
"Cholesterol",mg,--,--,30,54
Amino Acids
Other
Ingredients
"CHICKEN BREAST MEAT, WATER, SEASONING (SALT, MALTODEXTRIN, SUGAR, DEXTROSE, RENDERED CHICKEN FAT, DEHYDRATED CHICKEN BROTH, SPICE EXTRACTIVES), CONTAINS 2% OR LESS OF DEXTROSE, SODIUM PHOSPHATE, SALT, SODIUM ACETATE, SODIUM DIACETATE. COATED WITH: NATURAL SMOKE FLAVOR, ONION POWDER, GARLIC POWDER, BROWN SUGAR, DEHYDRATED CARROT, SPICES, NATURAL FLAVOR, CARAMEL COLOR, EXTRACTIVES OF ANNATTO." Date available: 07/14/2017 Date last updated by company: 07/14/2017
