Source: USDA Branded Food Products Database Release December 2017 Software v.3.8.6.4 2017-10-02
Report Run at: December 19, 2017 03:01 EST
"Nutrient data for: 45203109, CHICKEN BREAST NUGGETS, UPC: 835107190107"
Food Group:  Branded Food Products Database
Common Name:

Nutrient,Unit,Data points,Std. Error,"4.0 NUGGE`TS = 78.0g",1Value per 100 g,
Proximates
"Energy",kcal,--,--,230,295
"Protein",g,--,--,11.00,14.10
"Total lipid (fat)",g,--,--,17.00,21.79
"Carbohydrate, by difference",g,--,--,10.00,12.82
"Fiber, total dietary",g,--,--,1.0,1.3
"Sugars, total",g,--,--,0.00,0.00
Minerals
"Calcium, Ca",mg,--,--,0,0
"Iron, Fe",mg,--,--,1.97,2.52
"Sodium, Na",mg,--,--,590,756
Vitamins
"Vitamin C, total ascorbic acid",mg,--,--,1.3,1.7
"Vitamin A, IU",IU,--,--,218,279
Lipids
"Fatty acids, total saturated",g,--,--,6.997,8.970
"Fatty acids, total trans",g,--,--,0.000,0.000
"Cholesterol",mg,--,--,30,38
Amino Acids
Other
Ingredients
"GROUND CHICKEN BREAST WITH RIB MEAT, WATER, MODIFIED FOOD STARCH, SALT, SODIUM PHOSPHATE, BATTERED WITH WATER, ENRICHED WHEAT FLOUR (ENRICHED WITH NIACIN, REDUCED IRON, THIAMINE MONONITRATE, RIBOFLAVIN, FOLIC ACID), SALT, WHEY, LEAVENING (SODIUM ALUMINUM PHOSPHATE, SODIUM BICARBONATE), SPICE, GARLIC POWDER, OLEORESIN PAPRIKA. BREADED WITH: ENRICHED WHEAT FLOUR (FLOUR, NIACIN, REDUCED IRON, THIAMINE MONONITRATE, RIBOFLAVIN, FOLIC ACID), SALT, DEXTROSE, LEAVENING (SODIUM BICARBONATE, SODIUM ACID PYROPHOSPHATE, MONOCALCIUM PHOSPHATE), MONOGLYCERIDES, PARTIALLY HYDROGENATED SOYBEAN OIL, OLEORESIN PAPRIKA, BREADING SET IN VEGETABLE OIL." Date available: 07/14/2017 Date last updated by company: 07/14/2017
