Source: USDA Branded Food Products Database Release December 2017 Software v.3.8.6.4 2017-10-02
Report Run at: December 19, 2017 03:24 EST
"Nutrient data for: 45265615, CHICKEN MARSALA & ROASTED RED SKIN POTATOES, UPC: 03100650162"
Food Group:  Branded Food Products Database
Common Name:

Nutrient,Unit,Data points,Std. Error,"0.5 PACKAGE = 340.0g",1Value per 100 g,
Proximates
"Energy",kcal,--,--,289,85
"Protein",g,--,--,19.99,5.88
"Total lipid (fat)",g,--,--,9.01,2.65
"Carbohydrate, by difference",g,--,--,33.01,9.71
"Fiber, total dietary",g,--,--,5.1,1.5
"Sugars, total",g,--,--,7.99,2.35
Minerals
"Calcium, Ca",mg,--,--,61,18
"Iron, Fe",mg,--,--,0.61,0.18
"Potassium, K",mg,--,--,870,256
"Sodium, Na",mg,--,--,1000,294
Vitamins
"Vitamin C, total ascorbic acid",mg,--,--,5.1,1.5
"Vitamin A, IU",IU,--,--,173,51
Lipids
"Fatty acids, total saturated",g,--,--,3.502,1.030
"Fatty acids, total trans",g,--,--,0.000,0.000
"Cholesterol",mg,--,--,75,22
Amino Acids
Other
Ingredients
"SAUCE (MARSALA WINE, WATER, CONCENTRATED CHICKEN BROTH, CREAM, MUSHROOMS, BUTTER, ONIONS, SOYBEAN OIL, RICE STARCH, LESS THAN 2% OF: GARLIC, SPICES, SALT, MOLASSES, BEEF EXTRACT FLAVOR [CONTAINS BEEF EXTRACT, FLAVOR], LACTIC ACID, NATURAL FLAVOR, POTASSIUM SORBATE), ROASTED RED SKIN POTATOES (RED SKIN POTATOES, CANOLA OIL, OLIVE OIL, CITRIC ACID, DEXTROSE), SEASONED WHITE MEAT CHICKEN (CHICKEN BREAST WITH RIB MEAT, WATER, LESS THAN 2% OF: NATURAL FLAVORINGS, SUGAR, OLIVE OIL, ISOLATED SOY PROTEIN, SALT, POTATO STARCH), VEGETABLES (CRIMINI MUSHROOMS, GREEN BEANS)." Date available: 08/07/2017 Date last updated by company: 08/07/2017
