Source: USDA Branded Food Products Database Release December 2017 Software v.3.8.6.4 2017-10-02
Report Run at: December 19, 2017 03:22 EST
"Nutrient data for: 45276831, CHICKEN IN MOLE SAUCE, UPC: 070132106307"
Food Group:  Branded Food Products Database
Common Name:

Nutrient,Unit,Data points,Std. Error,"1 cup = 245.0g",1Value per 100 g,
Proximates
"Energy",kcal,--,--,179,73
"Protein",g,--,--,24.01,9.80
"Total lipid (fat)",g,--,--,6.00,2.45
"Carbohydrate, by difference",g,--,--,7.01,2.86
"Fiber, total dietary",g,--,--,0.0,0.0
"Sugars, total",g,--,--,1.00,0.41
Minerals
"Calcium, Ca",mg,--,--,20,8
"Iron, Fe",mg,--,--,0.24,0.10
"Sodium, Na",mg,--,--,659,269
Vitamins
"Vitamin C, total ascorbic acid",mg,--,--,0.2,0.1
"Vitamin A, IU",IU,--,--,279,114
Lipids
"Fatty acids, total saturated",g,--,--,2.009,0.820
"Fatty acids, total trans",g,--,--,0.000,0.000
"Cholesterol",mg,--,--,59,24
Amino Acids
Other
Ingredients
"CHICKEN BROTH (WATER, TOMATO PASTE, LARD, CHICKEN BROTH CONCENTRATE {CHICKEN FAT, CHICKEN BROTH, DRIED SOY SAUCE (SOYBEANS, WHEAT, SALT), YEAST EXTRACT, DRIED WHEY, KONJAC GUM, CORNSTARCH, FLAVORING}, MODIFIED FOOD STARCH, SPICES), CHICKEN." Date available: 07/14/2017 Date last updated by company: 07/14/2017
