Source: USDA Branded Food Products Database Release December 2017 Software v.3.8.6.4 2017-10-02
Report Run at: December 19, 2017 03:14 EST
"Nutrient data for: 45270662, CHICKEN CORN CHOWDER, UPC: 07078425226"
Food Group:  Branded Food Products Database
Common Name:

Nutrient,Unit,Data points,Std. Error,"1 cup = 245.0g",1Value per 100 g,
Proximates
"Energy",kcal,--,--,179,73
"Protein",g,--,--,7.01,2.86
"Total lipid (fat)",g,--,--,8.01,3.27
"Carbohydrate, by difference",g,--,--,21.00,8.57
"Fiber, total dietary",g,--,--,2.0,0.8
"Sugars, total",g,--,--,3.99,1.63
Minerals
"Calcium, Ca",mg,--,--,0,0
"Iron, Fe",mg,--,--,0.71,0.29
"Sodium, Na",mg,--,--,701,286
Vitamins
"Vitamin C, total ascorbic acid",mg,--,--,2.5,1.0
"Vitamin A, IU",IU,--,--,2499,1020
Lipids
"Fatty acids, total saturated",g,--,--,1.494,0.610
"Fatty acids, total monounsaturated",g,--,--,2.009,0.820
"Fatty acids, total polyunsaturated",g,--,--,3.993,1.630
"Fatty acids, total trans",g,--,--,0.000,0.000
"Cholesterol",mg,--,--,10,4
Amino Acids
Other
Ingredients
"CHICKEN BROTH, CORN, POTATOES, COOKED WHITE CHICKEN MEAT (WHITE MEAT CHICKEN, WATER, SALT, CORNSTARCH, SODIUM PHOSPHATE, MONO- AND DIGLYCERIDES), CARROTS, SOYBEAN OIL, CELERY, CONTAINS LESS THAN 2% OF MODIFIED FOOD STARCH, CORN PUREE, SOY PROTEIN CONCENTRATE, WHEAT FLOUR, SALT, SUGAR, BACON (CURED WITH WATER, SALT, SUGAR, SMOKE FLAVORING, SODIUM PHOSPHATES, SODIUM ERYTHORBATE, SODIUM NITRITE), DEHYDRATED ONION, YEAST EXTRACT, CHICKEN FAT, CREAM, NATURAL FLAVORS, TITANIUM DIOXIDE (COLOR), SODIUM PHOSPHATE, DISODIUM INOSINATE AND DISODIUM GUANYLATE, BUTTER (CREAM, SALT), DEHYDRATED PARSLEY, SPICE, BETA CAROTENE (COLOR), SOY LECITHIN, DEHYDRATED CHIVES." Date available: 07/14/2017 Date last updated by company: 07/14/2017
