Source: USDA Branded Food Products Database Release December 2017 Software v.3.8.6.4 2017-10-02
Report Run at: December 19, 2017 03:46 EST
"Nutrient data for: 45328958, CHICKEN TIKKA MASALA WITH BASMATI RICE, UPC: 04656703346"
Food Group:  Branded Food Products Database
Common Name:

Nutrient,Unit,Data points,Std. Error,"1 cup = 250.0g",1Value per 100 g,
Proximates
"Energy",kcal,--,--,260,104
"Protein",g,--,--,17.00,6.80
"Total lipid (fat)",g,--,--,8.00,3.20
"Carbohydrate, by difference",g,--,--,33.00,13.20
"Fiber, total dietary",g,--,--,2.0,0.8
"Sugars, total",g,--,--,3.00,1.20
Minerals
"Calcium, Ca",mg,--,--,40,16
"Iron, Fe",mg,--,--,1.40,0.56
"Sodium, Na",mg,--,--,330,132
Vitamins
"Vitamin C, total ascorbic acid",mg,--,--,0.0,0.0
"Vitamin A, IU",IU,--,--,390,156
Lipids
"Fatty acids, total saturated",g,--,--,1.000,0.400
"Fatty acids, total trans",g,--,--,0.000,0.000
"Cholesterol",mg,--,--,40,16
Amino Acids
Other
Ingredients
"CHICKEN BREAST, WATER, CRUSHED TOMATOES, CANOLA OIL, ONIONS, YOGURT (MODIFIED MILK INGREDIENTS, MODIFIED CORNSTARCH, CARRAGEENAN, PECTIN, BACTERIAL CULTURE), SPICES, SALT, GARLIC, GINGER, FRESH CILANTRO, SUGAR, MODIFIED CORNSTARCH, FENUGREEK LEAVES, CITRIC ACID. RICE: RICE, WATER." Date available: 10/13/2017 Date last updated by company: 10/13/2017
