Source: USDA Branded Food Products Database Release December 2017 Software v.3.8.6.4 2017-10-02
Report Run at: December 19, 2017 03:24 EST
"Nutrient data for: 45236148, CHICKEN MARINADE, UPC: 780993417787"
Food Group:  Branded Food Products Database
Common Name:

Nutrient,Unit,Data points,Std. Error,"1 Tbsp = 15.0g",1Value per 100 g,
Proximates
"Energy",kcal,--,--,10,67
"Protein",g,--,--,0.00,0.00
"Total lipid (fat)",g,--,--,0.00,0.00
"Carbohydrate, by difference",g,--,--,3.00,20.00
"Fiber, total dietary",g,--,--,0.0,0.0
"Sugars, total",g,--,--,2.00,13.33
Minerals
"Calcium, Ca",mg,--,--,0,0
"Iron, Fe",mg,--,--,0.00,0.00
"Sodium, Na",mg,--,--,350,2333
Vitamins
"Vitamin C, total ascorbic acid",mg,--,--,0.0,0.0
"Vitamin A, IU",IU,--,--,300,2000
Lipids
"Fatty acids, total saturated",g,--,--,0.000,0.000
"Fatty acids, total trans",g,--,--,0.000,0.000
"Cholesterol",mg,--,--,0,0
Amino Acids
Other
Ingredients
"WATER, HIGH FRUCTOSE CORN SYRUP, APPLE CIDER VINEGAR, DISTILLED VINEGAR, SALT, MODIFIED TAPIOCA STARCH, MINCED GARLIC, DRIED CARROT, SOYBEAN OIL, LEMON JUICE CONCENTRATE, MINCED ONION, DRIED RED BELL PEPPER, XANTHAN GUM, SPICES, PROPOLYENE GLYCOL ALGINATE, POTASSIUM SORBATE (PRESERVATIVE), CITRIC ACID, ARTIFICIAL COLORS, CARAMEL COLOR, NATURAL FLAVORS, CALCIUM DISODIUM EDTA (TO PROTECT FLAVOR)." Date available: 07/14/2017 Date last updated by company: 07/14/2017
