Source: USDA Branded Food Products Database Release December 2017 Software v.3.8.6.4 2017-10-02
Report Run at: December 19, 2017 03:06 EST
"Nutrient data for: 45123870, CHICKEN & BROCCOLI, JUICY WHITE MEAT CHICKEN AND BROCCOLI FLORETS WITH A SAVORY SOY GARLIC SAUCE, UPC: 695119120369"
Food Group:  Branded Food Products Database
Common Name:

Nutrient,Unit,Data points,Std. Error,"1 cup = 170.0g",1Value per 100 g,
Proximates
"Energy",kcal,--,--,240,141
"Protein",g,--,--,12.00,7.06
"Total lipid (fat)",g,--,--,8.99,5.29
"Carbohydrate, by difference",g,--,--,28.00,16.47
"Fiber, total dietary",g,--,--,3.1,1.8
"Sugars, total",g,--,--,14.01,8.24
Minerals
"Calcium, Ca",mg,--,--,41,24
"Iron, Fe",mg,--,--,0.83,0.49
"Sodium, Na",mg,--,--,930,547
Vitamins
"Vitamin C, total ascorbic acid",mg,--,--,34.3,20.2
"Vitamin A, IU",IU,--,--,860,506
Lipids
"Fatty acids, total saturated",g,--,--,1.003,0.590
"Fatty acids, total trans",g,--,--,0.000,0.000
"Cholesterol",mg,--,--,15,9
Amino Acids
Other
Ingredients
"WATER, SUGAR, SOY SAUCE (WATER, WHEAT, SOYBEANS, SALT, ALCOHOL, VINEGAR, LACTIC ACID), CORN STARCH, CHICKEN BASE [ROASTED CHICKEN, SALT, MALTODEXTRIN, YEAST EXTRACT, CHICKEN FAT, CORN STARCH, SUGAR, ONION POWDER, TURMERIC (COLOR), NATURAL FLAVOR], SOYBEAN OIL, RICE VINEGAR, GUAJILLO PEPPERS (WITH CITRIC ACID), CONTAINS 2% OR LESS OF: SHERRY WINE, DEHYDRATED GARLIC, SESAME OIL, GARLIC POWDER, NATURAL FLAVOR (POTATO MALTODEXTRIN, NATURAL FLAVOR, GUM ARABIC), SALT, SPICES, ONION POWDER. VEGETABLES: BROCCOLI. CHICKEN: CHICKEN BREAST MEAT, WATER, CORN STARCH, POTATO STARCH, SODIUM BICARBONATE, SALT, FULLY COOKED IN VEGETABLE OIL (SOYBEAN OIL, CANOLA OIL)." Date available: 09/05/2017 Date last updated by company: 09/05/2017
