Source: USDA Branded Food Products Database Release December 2017 Software v.3.8.6.4 2017-10-02
Report Run at: December 19, 2017 03:33 EST
"Nutrient data for: 45263370, CHICKEN PATTIES, UPC: 023700033840"
Food Group:  Branded Food Products Database
Common Name:

Nutrient,Unit,Data points,Std. Error,"1 PIECE = 76.0g",1Value per 100 g,
Proximates
"Energy",kcal,--,--,200,263
"Protein",g,--,--,9.00,11.84
"Total lipid (fat)",g,--,--,13.00,17.11
"Carbohydrate, by difference",g,--,--,10.00,13.16
"Fiber, total dietary",g,--,--,0.0,0.0
"Sugars, total",g,--,--,0.00,0.00
Minerals
"Calcium, Ca",mg,--,--,0,0
"Iron, Fe",mg,--,--,0.40,0.53
"Sodium, Na",mg,--,--,400,526
Vitamins
"Vitamin C, total ascorbic acid",mg,--,--,0.0,0.0
"Vitamin A, IU",IU,--,--,0,0
Lipids
"Fatty acids, total saturated",g,--,--,3.002,3.950
"Fatty acids, total monounsaturated",g,--,--,5.001,6.580
"Fatty acids, total polyunsaturated",g,--,--,4.499,5.920
"Fatty acids, total trans",g,--,--,0.000,0.000
"Cholesterol",mg,--,--,35,46
Amino Acids
Other
Ingredients
"CHICKEN, WATER, SALT AND NATURAL FLAVOR. BREADED WITH: WHEAT FLOUR, WATER, WHEAT STARCH, WHITE WHOLE WHEAT FLOUR, SALT, YELLOW CORN FLOUR, CORN STARCH, DRIED ONION, DRIED GARLIC, DRIED YEAST, BROWN SUGAR, EXTRACTIVES OF PAPRIKA, AND SPICES. BREADING SET IN VEGETABLE OIL." Date available: 07/14/2017 Date last updated by company: 07/14/2017
