Source: USDA Branded Food Products Database Release December 2017 Software v.3.8.6.4 2017-10-02
Report Run at: December 19, 2017 03:51 EST
"Nutrient data for: 45058643, CHICKEN WITH BARBECUE SAUCE, UPC: 037600505925"
Food Group:  Branded Food Products Database
Common Name:

Nutrient,Unit,Data points,Std. Error,"0.5 TRAY = 106.0g",1Value per 100 g,
Proximates
"Energy",kcal,--,--,151,142
"Protein",g,--,--,12.00,11.32
"Total lipid (fat)",g,--,--,5.00,4.72
"Carbohydrate, by difference",g,--,--,14.00,13.21
"Fiber, total dietary",g,--,--,1.0,0.9
"Sugars, total",g,--,--,10.00,9.43
Minerals
"Calcium, Ca",mg,--,--,20,19
"Iron, Fe",mg,--,--,0.95,0.90
"Sodium, Na",mg,--,--,740,698
Vitamins
"Vitamin C, total ascorbic acid",mg,--,--,0.0,0.0
"Vitamin A, IU",IU,--,--,0,0
Lipids
"Fatty acids, total saturated",g,--,--,2.003,1.890
"Fatty acids, total trans",g,--,--,0.000,0.000
"Cholesterol",mg,--,--,45,42
Amino Acids
Other
Ingredients
"COOKED CHICKEN (MOSTLY DARK CHICKEN MEAT, WATER, SALT, ISOLATED SOY PROTEIN, SODIUM LACTATE, SODIUM PHOSPHATES, ANTIOXIDANT BLEND [MIXED TOCOPHEROLS, CORN STARCH, SILICON DIOXIDE]), TOMATOES (WATER, TOMATO PASTE), VINEGAR, BROWN SUGAR, MODIFIED CORNSTARCH, CONCENTRATED CRUSHED TOMATOES, APPLE CIDER VINEGAR, MOLASSES, CONTAINS 2% OR LESS OF FLAVORING, SPICES, YEAST EXTRACT, SALT, WATER, HYDROLYZED CORN PROTEIN, CHILI POWDER (CHILI PEPPERS, FLAVORINGS), SMOKE FLAVORING, CITRIC ACID, SUCRALOSE." Date available: 06/24/2017 Date last updated by company: 06/24/2017
