Source: USDA Branded Food Products Database Release December 2017 Software v.3.8.6.4 2017-10-02
Report Run at: December 19, 2017 03:48 EST
"Nutrient data for: 45024201, CHICKEN & VEGETABLE MINI SPRING ROLLS, UPC: 010878341112"
Food Group:  Branded Food Products Database
Common Name:

Nutrient,Unit,Data points,Std. Error,"2.0 PIECES AND SAUCE = 82.0g",1Value per 100 g,
Proximates
"Energy",kcal,--,--,160,195
"Protein",g,--,--,4.00,4.88
"Total lipid (fat)",g,--,--,7.00,8.54
"Carbohydrate, by difference",g,--,--,21.00,25.61
"Fiber, total dietary",g,--,--,2.0,2.4
"Sugars, total",g,--,--,7.00,8.54
Minerals
"Calcium, Ca",mg,--,--,20,24
"Iron, Fe",mg,--,--,0.00,0.00
"Sodium, Na",mg,--,--,300,366
Vitamins
"Vitamin C, total ascorbic acid",mg,--,--,0.0,0.0
"Vitamin A, IU",IU,--,--,244,298
Lipids
"Fatty acids, total saturated",g,--,--,0.000,0.000
"Fatty acids, total trans",g,--,--,0.000,0.000
"Cholesterol",mg,--,--,10,12
Amino Acids
Other
Ingredients
"FILLING: CABBAGE, CHICKEN, GREEN ONIONS, CARROTS, EVAPORATED CANE JUICE, EXPELLER PRESSED VEGETABLE OIL (SOYBEAN AND/OR CANOLA), ORGANIC WHOLE WHEAT FLOUR, CONTAINS LESS THAN 2% OF THE FOLLOWING: SALT, GINGER, EXPELLER PRESSED SESAME SEED OIL, GARLIC, SPICE, WRAPPER: WATER, ORGANIC WHEAT FLOUR, EXPELLER PRESSED VEGETABLE OIL (SOYBEAN AND/OR CANOLA), EVAPORATED CANE JUICE, SALT, FRIED IN EXPELLER PRESSED VEGETABLE OIL (SOYBEAN AND/OR CANOLA). SAUCE: WATER, EVAPORATED CANE JUICE, TOMATO PASTE, RICE VINEGAR, CORN STARCH, SOY SAUCE (WATER, SOYBEANS, WHEAT, SALT), SALT, CITRIC ACID, NATURAL FLAVORS." Date available: 06/25/2017 Date last updated by company: 06/25/2017
