Source: USDA Branded Food Products Database Release December 2017 Software v.3.8.6.4 2017-10-02
Report Run at: December 19, 2017 03:07 EST
"Nutrient data for: 45233907, CHICKEN BROTH, UPC: 011110747075"
Food Group:  Branded Food Products Database
Common Name:

Nutrient,Unit,Data points,Std. Error,"1 cup = 240.0g",1Value per 100 g,
Proximates
"Energy",kcal,--,--,10,4
"Protein",g,--,--,1.01,0.42
"Total lipid (fat)",g,--,--,0.00,0.00
"Carbohydrate, by difference",g,--,--,0.00,0.00
"Fiber, total dietary",g,--,--,0.0,0.0
"Sugars, total",g,--,--,0.00,0.00
Minerals
"Calcium, Ca",mg,--,--,10,4
"Iron, Fe",mg,--,--,0.00,0.00
"Sodium, Na",mg,--,--,799,333
Vitamins
"Vitamin C, total ascorbic acid",mg,--,--,0.0,0.0
"Vitamin A, IU",IU,--,--,0,0
Lipids
"Fatty acids, total saturated",g,--,--,0.000,0.000
"Fatty acids, total trans",g,--,--,0.000,0.000
"Cholesterol",mg,--,--,0,0
Amino Acids
Other
Ingredients
"CHICKEN STOCK, CONTAINS LESS THAN 2% OF: SEA SALT, SALT, SUGAR, NATURAL FLAVORING, DEHYDRATED ONIONS, YEAST EXTRACT, CHICKEN FAT, CARROT JUICE CONCENTRATE, CELERY, ONIONS." Date available: 06/24/2017 Date last updated by company: 06/24/2017
