Source: USDA Branded Food Products Database Release December 2017 Software v.3.8.6.4 2017-10-02
Report Run at: December 19, 2017 03:40 EST
"Nutrient data for: 45050822, CHICKEN SEASONING, UPC: 089836189523"
Food Group:  Branded Food Products Database
Common Name:

Nutrient,Unit,Data points,Std. Error,"0.25 tsp = 0.4g",1Value per 100 g,
Proximates
"Energy",kcal,--,--,0,0
"Protein",g,--,--,0.00,0.00
"Total lipid (fat)",g,--,--,0.00,0.00
"Carbohydrate, by difference",g,--,--,0.00,0.00
Minerals
"Sodium, Na",mg,--,--,30,7500
Vitamins
Lipids
Amino Acids
Other
Ingredients
"ORGANIC GARLIC, SEA SALT, ORGANIC SAGE, ORGANIC ONION, ORGANIC ROSEMARY, ORGANIC THYME, ORGANIC OREGANO, ORGANIC MARJORAM, ORGANIC BLACK PEPPER, ORGANIC FENNEL, ORGANIC CORIANDER, ORGANIC PEPPERMINT, ORGANIC BAY LEAF." Date available: 08/11/2017 Date last updated by company: 08/11/2017
