Source: USDA Branded Food Products Database Release December 2017 Software v.3.8.6.4 2017-10-02
Report Run at: December 19, 2017 03:26 EST
"Nutrient data for: 45280758, CHICKEN NOODLE CONDENSED SOUP, UPC: 085239187418"
Food Group:  Branded Food Products Database
Common Name:

Nutrient,Unit,Data points,Std. Error,"0.5 cup = 123.0g",1Value per 100 g,
Proximates
"Energy",kcal,--,--,60,49
"Protein",g,--,--,3.00,2.44
"Total lipid (fat)",g,--,--,2.00,1.63
"Carbohydrate, by difference",g,--,--,8.00,6.50
"Fiber, total dietary",g,--,--,1.0,0.8
"Sugars, total",g,--,--,1.00,0.81
Minerals
"Calcium, Ca",mg,--,--,0,0
"Iron, Fe",mg,--,--,0.71,0.58
"Potassium, K",mg,--,--,410,333
"Sodium, Na",mg,--,--,410,333
Vitamins
"Vitamin C, total ascorbic acid",mg,--,--,0.0,0.0
"Vitamin A, IU",IU,--,--,1993,1620
Lipids
"Fatty acids, total saturated",g,--,--,0.504,0.410
"Fatty acids, total monounsaturated",g,--,--,0.504,0.410
"Fatty acids, total polyunsaturated",g,--,--,0.504,0.410
"Fatty acids, total trans",g,--,--,0.000,0.000
"Cholesterol",mg,--,--,15,12
Amino Acids
Other
Ingredients
"CHICKEN BROTH, ENRICHED EGG NOODLES (ENRICHED WHEAT FLOUR [NIACIN, FERROUS SULFATE, THIAMINE MONONITRATE, RIBOFLAVIN, FOLIC ACID], WHOLE EGGS, EGG WHITES), COOKED CHICKEN MEAT, CARROTS, MODIFIED CORN STARCH, CONTAINS LESS THAN 1% CHICKEN FAT, POTASSIUM CHLORIDE, SALT, HIGH FRUCTOSE CORN SYRUP, SOYBEAN OIL, SEA SALT, ONION POWDER, DISODIUM INOSINATE, DISODIUM GUANYLATE, YEAST EXTRACT, INULIN, MALTODEXTRIN, ISOLATED SOY PROTEIN, COOKED CHICKEN, GARLIC POWDER, DEXTROSE, SODIUM PHOSPHATE, NATURAL FLAVOR, L-CYSTEINE HYDROCHLORIDE SPICES, CARROT JUICE SOLIDS, FLAVOR, ONION BROTH, TORULA YEAST, TOMATO POWDER, BETA CAROTENE (FOR COLOR), SOY LECITHIN." Date available: 07/14/2017 Date last updated by company: 07/14/2017
