Source: USDA Branded Food Products Database Release December 2017 Software v.3.8.6.4 2017-10-02
Report Run at: December 19, 2017 03:51 EST
"Nutrient data for: 45202413, CHICKEN WITH CITRUS BUTTER DINNER AT HOME, UPC: 761088840918"
Food Group:  Branded Food Products Database
Common Name:

Nutrient,Unit,Data points,Std. Error,"1 CHICKEN BREAST = 170.0g",1Value per 100 g,
Proximates
"Energy",kcal,--,--,270,159
"Protein",g,--,--,30.00,17.65
"Total lipid (fat)",g,--,--,14.01,8.24
"Carbohydrate, by difference",g,--,--,2.01,1.18
"Fiber, total dietary",g,--,--,0.0,0.0
"Sugars, total",g,--,--,0.00,0.00
Minerals
"Calcium, Ca",mg,--,--,20,12
"Iron, Fe",mg,--,--,0.71,0.42
"Sodium, Na",mg,--,--,479,282
Vitamins
"Vitamin C, total ascorbic acid",mg,--,--,3.1,1.8
"Vitamin A, IU",IU,--,--,201,118
Lipids
"Fatty acids, total saturated",g,--,--,4.998,2.940
"Fatty acids, total trans",g,--,--,0.000,0.000
"Cholesterol",mg,--,--,116,68
Amino Acids
Other
Ingredients
"BONELESS SKINLESS CHICKEN BREAST, LEMON PARSLEY BUTTER (BUTTER [CREAM, SALT], WATER, MINCED GARLIC, SHALLOTS, LEMON JUICE, PARSLEY, SRIRACHA SAUCE [CHILI, SUGAR, SALT, GARLIC, VINEGAR, POTASSIUM SORBATE, SODIUM BISULFITE, XANTHAN GUM], BLACK PEPPER, SALT, MODIFIED FOOD STARCH), LIME JUICE, CHIPOTLE PEPPERS (WATER, TOMATO PUREE, VEGETABLE OIL [CORN OR SAFFLOWER], WHEAT FLOUR, SALT, VINEGAR, STARCH, ONION POWDER, GARLIC POWDER, CARAMEL COLOR, SPICES), BLENDED OIL (CANOLA OIL AND EXTRA VIRGIN OLIVE OIL), WATER, CILANTRO, RED JALAPENO, SALT, GARLIC (GARLIC, WATER), BAY LEAVES, BLACK PEPPER, MODIFIED FOOD STARCH (CORN), MALTODEXTRIN." Date available: 07/14/2017 Date last updated by company: 07/14/2017
