Source: USDA Branded Food Products Database Release December 2017 Software v.3.8.6.4 2017-10-02
Report Run at: December 19, 2017 03:03 EST
"Nutrient data for: 45263340, CHICKEN BREAST STRIPS, UPC: 023700033673"
Food Group:  Branded Food Products Database
Common Name:

Nutrient,Unit,Data points,Std. Error,"3.0 ONZ = 84.0g",1Value per 100 g,
Proximates
"Energy",kcal,--,--,190,226
"Protein",g,--,--,14.00,16.67
"Total lipid (fat)",g,--,--,9.00,10.71
"Carbohydrate, by difference",g,--,--,13.00,15.48
"Fiber, total dietary",g,--,--,1.0,1.2
"Sugars, total",g,--,--,0.00,0.00
Minerals
"Calcium, Ca",mg,--,--,0,0
"Iron, Fe",mg,--,--,0.36,0.43
"Sodium, Na",mg,--,--,180,214
Vitamins
"Vitamin C, total ascorbic acid",mg,--,--,0.0,0.0
"Vitamin A, IU",IU,--,--,0,0
Lipids
"Fatty acids, total saturated",g,--,--,3.503,4.170
"Fatty acids, total monounsaturated",g,--,--,1.999,2.380
"Fatty acids, total polyunsaturated",g,--,--,3.998,4.760
"Fatty acids, total trans",g,--,--,0.000,0.000
"Cholesterol",mg,--,--,35,42
Amino Acids
Other
Ingredients
"BONELESS, SKINLESS CHICKEN BREAST WITH RIB MEAT, WATER, RICE FLOUR, CONTAINS 2% OR LESS THAN THE FOLLOWING: ANNATTO EXTRACT, CHICKEN FAT, CORN STARCH, DRIED CHICKEN BROTH, DRIED GARLIC, DRIED ONION, GARLIC POWDER, NATURAL FLAVOR, ONION POWDER, PAPRIKA EXTRACT, SALT, SOYBEAN OIL, SPICES, SUGAR, TORULA YEAST, XANTHAN GUM, YELLOW CORN FLOUR. BREADING SET IN VEGETABLE OIL." Date available: 07/14/2017 Date last updated by company: 07/14/2017
