Source: USDA Branded Food Products Database Release December 2017 Software v.3.8.6.4 2017-10-02
Report Run at: December 19, 2017 03:34 EST
"Nutrient data for: 45201380, CHICKEN POT PIE BITES, UPC: 725439984478"
Food Group:  Branded Food Products Database
Common Name:

Nutrient,Unit,Data points,Std. Error,"4.0 PIECES = 76.0g",1Value per 100 g,
Proximates
"Energy",kcal,--,--,360,474
"Protein",g,--,--,21.00,27.63
"Total lipid (fat)",g,--,--,26.00,34.21
"Carbohydrate, by difference",g,--,--,9.00,11.84
"Fiber, total dietary",g,--,--,0.0,0.0
"Sugars, total",g,--,--,1.00,1.32
Minerals
"Calcium, Ca",mg,--,--,300,395
"Iron, Fe",mg,--,--,1.21,1.59
"Sodium, Na",mg,--,--,1100,1447
Vitamins
"Vitamin C, total ascorbic acid",mg,--,--,1.4,1.8
"Vitamin A, IU",IU,--,--,839,1104
Lipids
"Fatty acids, total saturated",g,--,--,13.999,18.420
"Fatty acids, total trans",g,--,--,0.000,0.000
"Cholesterol",mg,--,--,210,276
Amino Acids
Other
Ingredients
"PUFF PASTRY (ENRICHED UNBLEACHED WHEAT FLOUR [WHEAT FLOUR, NIACIN, REDUCED IRON, THIAMIN MONONITRATE, RIBOFLAVIN, FOLIC ACID], BUTTER [PASTEURIZED SWEET CREAM], WATER, SALT), GRILLED CHICKEN (BONELESS, SKINLESS CHICKEN BREAST WITH RIB MEAT, WATER, CANOLA OIL, MODIFIED POTATO STARCH, SALT, SUGAR, LEMON JUICE CONCENTRATE, GRANULATED GARLIC, BLACK PEPPER), WATER, MILK, MUSHROOMS, BUTTERNUT SQUASH, CARROTS, ONIONS, BUTTER (CREAM, NATURAL FLAVORING), GREEN PEAS, PANKO (UNBLEACHED UNBROMATED WHEAT FLOUR, SUGAR, SALT, YEAST, ASCORBIC ACID ADDED AS DOUGH CONDITIONER), ENRICHED FLOUR (WHEAT FLOUR ENRICHED WITH NIACIN, REDUCED IRON, THIAMIN MONONITRATE, RIBOFLAVIN, FOLIC ACID), CELERY, FENNEL, CHICKEN BASE (OVEN ROASTED CHICKEN WITH NATURAL JUICES, SALT, SUGAR, RENDERED CHICKEN FAT, ONION POWDER, TORULA YEAST, COOKED DEHYDRATED CHICKEN MEAT, TURMERIC, NATURAL FLAVORS), CANOLA OIL, TOMATO PASTE (TOMATOES), SEA SALT, PARSLEY, SOY SAUCE (WATER, WHEAT, SOYBEANS, SALT, SODIUM BENZOATE [PRESERVATIVE]), LEMON JUICE, BLACK PEPPER." Date available: 10/13/2017 Date last updated by company: 10/13/2017
