Source: USDA Branded Food Products Database Release December 2017 Software v.3.8.6.4 2017-10-02
Report Run at: December 19, 2017 03:14 EST
"Nutrient data for: 45330484, CHICKEN COOKING STOCK, UPC: 018894141808"
Food Group:  Branded Food Products Database
Common Name:

Nutrient,Unit,Data points,Std. Error,"1 cup = 245.0g",1Value per 100 g,
Proximates
"Energy",kcal,--,--,20,8
"Protein",g,--,--,3.99,1.63
"Total lipid (fat)",g,--,--,0.00,0.00
"Carbohydrate, by difference",g,--,--,1.00,0.41
"Fiber, total dietary",g,--,--,0.0,0.0
"Sugars, total",g,--,--,1.00,0.41
Minerals
"Calcium, Ca",mg,--,--,0,0
"Iron, Fe",mg,--,--,0.00,0.00
"Sodium, Na",mg,--,--,510,208
Vitamins
"Vitamin C, total ascorbic acid",mg,--,--,0.0,0.0
"Vitamin A, IU",IU,--,--,0,0
Lipids
"Fatty acids, total saturated",g,--,--,0.000,0.000
"Fatty acids, total trans",g,--,--,0.000,0.000
"Cholesterol",mg,--,--,0,0
Amino Acids
Other
Ingredients
"CHICKEN STOCK (WATER, CONCENTRATED CHICKEN STOCK), CONTAINS LESS THAN 2% OF THE FOLLOWING: SALT, DEXTROSE, VEGETABLE STOCK (CARROT, ONION, CELERY, SEA SALT), CONCENTRATED CABBAGE JUICE, DRIED PARSLEY." Date available: 10/13/2017 Date last updated by company: 10/13/2017
