Source: USDA Branded Food Products Database Release December 2017 Software v.3.8.6.4 2017-10-02
Report Run at: December 19, 2017 03:35 EST
"Nutrient data for: 45328936, CHICKEN, RICE & BEANS BURRITOS, UPC: 071007055829"
Food Group:  Branded Food Products Database
Common Name:

Nutrient,Unit,Data points,Std. Error,"1 BURRITO = 113.0g",1Value per 100 g,
Proximates
"Energy",kcal,--,--,231,204
"Protein",g,--,--,10.00,8.85
"Total lipid (fat)",g,--,--,4.99,4.42
"Carbohydrate, by difference",g,--,--,36.00,31.86
"Fiber, total dietary",g,--,--,1.0,0.9
"Sugars, total",g,--,--,0.99,0.88
Minerals
"Calcium, Ca",mg,--,--,20,18
"Iron, Fe",mg,--,--,3.34,2.96
"Sodium, Na",mg,--,--,360,319
Vitamins
"Vitamin C, total ascorbic acid",mg,--,--,1.5,1.3
"Vitamin A, IU",IU,--,--,124,110
Lipids
"Fatty acids, total saturated",g,--,--,0.994,0.880
"Fatty acids, total trans",g,--,--,0.000,0.000
"Cholesterol",mg,--,--,5,4
Amino Acids
Other
Ingredients
"WATER, ENRICHED WHEAT FLOUR (ENRICHED WITH NIACIN, REDUCED IRON, THIAMIN MONONITRATE, RIBOFLAVIN, FOLIC ACID), COOKED CHICKEN - COOKED CHICKEN (CHICKEN, WATER, MODIFIED FOOD STARCH, SALT, SODIUM PHOSPHATE), BEANS, VEGETABLE OIL (SOYBEAN, CANOLA, PALM, AND/OR CORN OIL), CONTAINS 2% OR LESS - GREEN CHILI (WITH CITRIC ACID), TEXTURED VEGETABLE PROTEIN (SOY FLOUR), TOMATO PASTE (TOMATOES), PARBOILED RICE (ENRICHED WITH NIACIN, IRON, THIAMIN MONONITRATE, FOLIC ACID), ONION, MODIFIED CORN STARCH, CHICKEN FLAVOR (SALT, DEXTROSE, CHICKEN FAT, HYDROLYZED SOY PROTEIN, WHEY POWDER (DAIRY), CHICKEN POWDER, TURMERIC), SALT, DOUGH CONDITIONERS (YEAST, WHEAT GLUTEN, SUGAR, GUAR GUM, FOOD STARCH, SODIUM METABISULFITE), JALAPENO PUREE (WITH SALT, ACETIC ACID), PAPRIKA, CHILI PEPPER, FLAVOR, SPICES." Date available: 10/13/2017 Date last updated by company: 10/13/2017
