Source: USDA Branded Food Products Database Release December 2017 Software v.3.8.6.4 2017-10-02
Report Run at: December 19, 2017 02:58 EST
"Nutrient data for: 45199619, CHICKEN BITES WITH FRISCO SAUCE, UPC: 086688100065"
Food Group:  Branded Food Products Database
Common Name:

Nutrient,Unit,Data points,Std. Error,"4.0 CHUNKS = 114.0g",1Value per 100 g,
Proximates
"Energy",kcal,--,--,220,193
"Protein",g,--,--,15.00,13.16
"Total lipid (fat)",g,--,--,8.00,7.02
"Carbohydrate, by difference",g,--,--,21.00,18.42
"Fiber, total dietary",g,--,--,1.0,0.9
"Sugars, total",g,--,--,6.00,5.26
Minerals
"Calcium, Ca",mg,--,--,21,18
"Iron, Fe",mg,--,--,1.07,0.94
"Sodium, Na",mg,--,--,420,368
Vitamins
"Vitamin C, total ascorbic acid",mg,--,--,1.8,1.6
"Vitamin A, IU",IU,--,--,74,65
Lipids
"Fatty acids, total saturated",g,--,--,1.505,1.320
"Fatty acids, total trans",g,--,--,0.000,0.000
"Cholesterol",mg,--,--,40,35
Amino Acids
Other
Ingredients
"WHITE CHICKEN MEAT, WATER, STARCH, SALT, SODIUM PHOSPHATE, PREDUSTED AND BATTERED WITH: ENRICHED WHEAT FLOUR (ENRICHED WITH NIACIN, REDUCED IRON, THIAMINE MONONITRATE, RIBOFLAVIN, FOLIC ACID), MODIFIED CORN STARCH, SUGAR, XANTHAN GUM, WHEY, BREADED WITH: ENRICHED WHEAT FLOUR (ENRICHED WITH NIACIN, REDUCED IRON, THIAMINE MONONITRATE, RIBOFLAVIN, FOLIC ACID), BLEACHED WHEAT FLOUR, SUGAR, SLAT, WHEY, SPICES, NATURAL BUTTER FLAVOR (CONTAINS PALM OIL, NATURAL FLAVORS, MEDIUM CHAIN TRIGLYCERIDES), EXTRACTIVES OF PAPRIKA. BREADING SET IN SOYBEAN OIL. SAN FRANCISCO DRESSING: SOYBEAN OIL, HIGH FRUCTOSE CORN SYRUP, (CUCUMBERS, WATER, SALT, VINEGAR, CALCIUM CHLORIDE), HIGH FRUCTOSE CORN SYRUP, CABBAGE, DISTILLED WHITE VINEGAR, SALT, ALUM, XANTHAN GUM, SODIUM BENZOATE AND POTASSIUM SORBATE AS PRESERVATIVES, FLAVORING, DEHYDRATED RED PEPPERS, TURMERIC OLEORESIN, POLYSORBATE 80], SUGAR, SALT, EGG YOLK, HONEY, PROPYLENE GLYCOL ALGINATE, MONOGLYCERIDES, MUSTARD FLOUR, LEMON JUICE CONCENTRATE, MOLASSES, CORN SYRUP, CALCIUM DISODIUM EDTA (TO PROTECT FLAVOR), EXTRACTIVES OF PAPRIKA, CARAMEL COLOR, GARLIC POWDER, SPICES, TAMARIND, FLAVOR, ASCORBIC ACID, CITRIC ACID" Date available: 07/14/2017 Date last updated by company: 07/14/2017
