Source: USDA Branded Food Products Database Release December 2017 Software v.3.8.6.4 2017-10-02
Report Run at: December 19, 2017 03:20 EST
"Nutrient data for: 45257697, CHICKEN FRIED RICE, UPC: 081697558135"
Food Group:  Branded Food Products Database
Common Name:

Nutrient,Unit,Data points,Std. Error,"0.5 PACKAGE = 298.0g",1Value per 100 g,
Proximates
"Energy",kcal,--,--,349,117
"Protein",g,--,--,16.00,5.37
"Total lipid (fat)",g,--,--,2.00,0.67
"Carbohydrate, by difference",g,--,--,66.01,22.15
"Fiber, total dietary",g,--,--,3.9,1.3
"Sugars, total",g,--,--,19.01,6.38
Minerals
"Calcium, Ca",mg,--,--,39,13
"Iron, Fe",mg,--,--,1.19,0.40
"Sodium, Na",mg,--,--,1049,352
Vitamins
"Vitamin C, total ascorbic acid",mg,--,--,6.0,2.0
"Vitamin A, IU",IU,--,--,1636,549
Lipids
"Fatty acids, total saturated",g,--,--,0.000,0.000
"Fatty acids, total trans",g,--,--,0.000,0.000
"Cholesterol",mg,--,--,30,10
Amino Acids
Other
Ingredients
"COOKED LONG GRAIN WHITE RICE. VEGETABLE BLEND (CARROTS, ONIONS, GREEN PEAS, RED BELL PEPPERS). SAUCE (WATER, SUGAR, SOY SAUCE [WATER, WHEAT, SOYBEANS, SALT], SHERRY WINE, HOISIN SAUCE [SUGAR, WATER, SWEET POTATO, SALT, MODIFIED CORN STARCH, SOYBEANS, SPICES, SESAME SEEDS, WHEAT FLOUR, GARLIC, CHILI PEPPER, ACETIC ACID], MODIFIED CORN STARCH, CHICKEN FAT, XANTHAN GUM, GUAR GUM, DEHYDRATED GARLIC AND ONION, BEEF STOCK, CHICKEN BROTH, SPICES). WHITE MEAT CHICKEN (CHICKEN WHITE MEAT, WATER, MODIFIED TAPIOCA STARCH, SALT, SODIUM PHOSPHATE)." Date available: 09/09/2017 Date last updated by company: 09/09/2017
