Source: USDA Branded Food Products Database Release December 2017 Software v.3.8.6.4 2017-10-02
Report Run at: December 19, 2017 03:41 EST
"Nutrient data for: 45033288, CHICKEN SOUP BASE, UPC: 411010983106"
Food Group:  Branded Food Products Database
Common Name:

Nutrient,Unit,Data points,Std. Error,"0.75 tsp = 3.0g",1Value per 100 g,
Proximates
"Energy",kcal,--,--,0,0
"Protein",g,--,--,0.00,0.00
"Total lipid (fat)",g,--,--,0.00,0.00
"Carbohydrate, by difference",g,--,--,0.00,0.00
Minerals
"Sodium, Na",mg,--,--,840,28000
Vitamins
Lipids
Amino Acids
Other
Ingredients
"SALT, HYDROLYZED CORN PROTEIN, CORN STARCH, ONION POWDER, MALTODEXTRIN, MONOSODIUM GLUTAMATE, TURMERIC COLOR, DEXTROSE, TRICALCIUM PHOSPHATE, SUGAR, SILICON DIOXIDE, NATURAL AND ARTIFICIAL FLAVORS, AND YELLOW LAKE 6." Date available: 06/24/2017 Date last updated by company: 06/24/2017
