Source: USDA Branded Food Products Database Release December 2017 Software v.3.8.6.4 2017-10-02
Report Run at: December 19, 2017 03:47 EST
"Nutrient data for: 45200622, CHICKEN, UPC: 688267150005"
Food Group:  Branded Food Products Database
Common Name:

Nutrient,Unit,Data points,Std. Error,"0.5 PACKAGE = 340.0g",1Value per 100 g,
Proximates
"Energy",kcal,--,--,350,103
"Protein",g,--,--,22.00,6.47
"Total lipid (fat)",g,--,--,5.98,1.76
"Carbohydrate, by difference",g,--,--,51.00,15.00
"Fiber, total dietary",g,--,--,6.1,1.8
"Sugars, total",g,--,--,7.99,2.35
Minerals
"Calcium, Ca",mg,--,--,82,24
"Iron, Fe",mg,--,--,1.02,0.30
"Potassium, K",mg,--,--,581,171
"Sodium, Na",mg,--,--,1170,344
Vitamins
"Vitamin C, total ascorbic acid",mg,--,--,17.3,5.1
"Vitamin A, IU",IU,--,--,1720,506
Lipids
"Fatty acids, total saturated",g,--,--,1.496,0.440
"Fatty acids, total trans",g,--,--,0.000,0.000
"Cholesterol",mg,--,--,44,13
Amino Acids
Other
Ingredients
"COOKED BROWN RICE, CHICKEN (CHICKEN WHITE MEAT, WATER, SALT, MODIFIED CORNSTARCH, SODIUM PHOSPHATE), SAUCE (WATER, SOY SAUCE [WATER, WHEAT, SOYBEANS, SALT, SODIUM BENZOATE {PRESERVATIVE}], SUGAR, MODIFIED CORNSTARCH, SHERRY WINE, MUSHROOM FLAVORED DARK SOY SAUCE [SOY SAUCE {WATER, SALT, SOYBEAN, WHEAT FLOUR}, CARAMEL COLOR, SUGAR, NATURAL AND ARTIFICIAL FLAVOR, DISODIUM INOSINATE AND GUANYLATE {FLAVOR ENHANCERS}, SODIUM BENZOATE {PRESERVATIVE}], CONTAINS 2% OR LESS OF: DISTILLED VINEGAR, SESAME OIL, AUTOLYZED YEAST EXTRACT, GINGER, GARLIC, NATURAL FLAVORINGS, CARAMEL COLOR, SALT), VEGETABLES (BROCCOLI, BOK CHOY, SNOW PEAS, CARROTS), TOASTED SESAME SEEDS." Date available: 07/14/2017 Date last updated by company: 07/14/2017
