Source: USDA Branded Food Products Database Release December 2017 Software v.3.8.6.4 2017-10-02
Report Run at: December 19, 2017 02:58 EST
"Nutrient data for: 45282928, CHICKEN BOLOGNA, UPC: 015900064151"
Food Group:  Branded Food Products Database
Common Name:

Nutrient,Unit,Data points,Std. Error,"1 SLICE = 32.0g",1Value per 100 g,
Proximates
"Energy",kcal,--,--,70,219
"Protein",g,--,--,5.00,15.62
"Total lipid (fat)",g,--,--,5.00,15.62
"Carbohydrate, by difference",g,--,--,3.00,9.38
"Fiber, total dietary",g,--,--,0.0,0.0
"Sugars, total",g,--,--,1.00,3.12
Minerals
"Calcium, Ca",mg,--,--,0,0
"Iron, Fe",mg,--,--,0.62,1.94
"Sodium, Na",mg,--,--,370,1156
Vitamins
"Vitamin C, total ascorbic acid",mg,--,--,0.0,0.0
"Vitamin A, IU",IU,--,--,0,0
Lipids
"Fatty acids, total saturated",g,--,--,1.501,4.690
"Fatty acids, total trans",g,--,--,0.000,0.000
"Cholesterol",mg,--,--,20,62
Amino Acids
Other
Ingredients
"MECHANICALLY SEPARATED CHICKEN, WATER, CORN SYRUP, SALT, MODIFIED CORN STARCH, 2% OR LESS OF THE FOLLOWING: FLAVORINGS, POTASSIUM LACTATE, POTASSIUM ACETATE, SODIUM DIACETATE, SODIUM PHOSPHATES, SODIUM ERYTHORBATE, SODIUM NITRITE, DEXTROSE, OLEORESIN OF PAPRIKA." Date available: 07/14/2017 Date last updated by company: 07/14/2017
