Source: USDA Branded Food Products Database Release December 2017 Software v.3.8.6.4 2017-10-02
Report Run at: December 19, 2017 03:55 EST
"Nutrient data for: 45285598, CHICORY HERBAL 'COFFEE' MEDIUM ROAST, UPC: 795239800803"
Food Group:  Branded Food Products Database
Common Name:

Nutrient,Unit,Data points,Std. Error,"1 Tbsp = 300.0g",1Value per 100 g,
Proximates
"Energy",kcal,--,--,21,7
"Protein",g,--,--,0.00,0.00
"Total lipid (fat)",g,--,--,0.00,0.00
"Carbohydrate, by difference",g,--,--,3.99,1.33
"Fiber, total dietary",g,--,--,0.9,0.3
"Sugars, total",g,--,--,0.99,0.33
Minerals
"Calcium, Ca",mg,--,--,0,0
"Iron, Fe",mg,--,--,0.00,0.00
"Potassium, K",mg,--,--,66,22
"Sodium, Na",mg,--,--,21,7
Vitamins
"Vitamin C, total ascorbic acid",mg,--,--,0.0,0.0
"Vitamin A, IU",IU,--,--,0,0
Lipids
"Fatty acids, total saturated",g,--,--,0.000,0.000
"Fatty acids, total trans",g,--,--,0.000,0.000
"Cholesterol",mg,--,--,0,0
Amino Acids
Other
"Caffeine",mg,--,--,0,0
Ingredients
"ORGANIC CAROB, ORGANIC BARLEY, ORGANIC CHICORY, DATES, ALMONDS, NATURAL MOCHA FLAVOR, ORGANIC FIGS, COCOA POWDER." Date available: 04/10/2017 Date last updated by company: 04/10/2017
