Source: USDA Branded Food Products Database Release December 2017 Software v.3.8.6.4 2017-10-02
Report Run at: December 19, 2017 03:34 EST
"Nutrient data for: 45275981, CHICKEN POT STICKERS APPETIZER, UPC: 036800422469"
Food Group:  Branded Food Products Database
Common Name:

Nutrient,Unit,Data points,Std. Error,"3.0 POT STICKERS & 1 SAUCE PACKET (93G) = 93.0g",1Value per 100 g,
Proximates
"Energy",kcal,--,--,140,151
"Protein",g,--,--,7.00,7.53
"Total lipid (fat)",g,--,--,3.00,3.23
"Carbohydrate, by difference",g,--,--,20.00,21.51
"Fiber, total dietary",g,--,--,1.0,1.1
"Sugars, total",g,--,--,2.00,2.15
Minerals
"Calcium, Ca",mg,--,--,0,0
"Iron, Fe",mg,--,--,1.31,1.41
"Sodium, Na",mg,--,--,600,645
Vitamins
"Vitamin C, total ascorbic acid",mg,--,--,8.2,8.8
"Vitamin A, IU",IU,--,--,685,737
Lipids
"Fatty acids, total saturated",g,--,--,0.502,0.540
"Fatty acids, total trans",g,--,--,0.000,0.000
"Cholesterol",mg,--,--,15,16
Amino Acids
Other
Ingredients
"POT STICKERS: CHICKEN MEAT, ENRICHED WHEAT FLOUR (WHEAT FLOUR, NIACIN, REDUCED IRON, THIAMINE MONONITRATE, RIBOFLAVIN, FOLIC ACID), CABBAGE, WATER, CARROTS, CELERY, GREEN ONION, CONTAINS 2% OR LESS OF SUGAR, SESAME OIL, CHICKEN BASE FLAVOR (SALT, YEAST EXTRACT, SUGAR, MALTODEXTRIN FROM TAPIOCA, CHICKEN BROTH, DEHYDRATED ONION, CANOLA OIL, SPICE, NATURAL FLAVOR), SALT, COOKING WINE (RICE WINE, SALT, CARAMEL COLOR), GINGER, GARLIC POWDER, SOY SAUCE (WATER, WHEAT, SOYBEANS, SALT, CONTAINS LESS THAN 0.1% OF SODIUM BENZOATE AS PRESERVATIVE), SALT, YEAST EXTRACT ENHANCER (YEAST EXTRACT, CANOLA OIL), WHITE PEPPER, AND CORN STARCH AS PROCESSING AID. SOY SAUCE: WATER, SALT, HYDROLYZED SOY & CORN PROTEIN, CARAMEL COLOR, CONTAINS LESS THAN 0.1% OF SODIUM BENZOATE." Date available: 07/14/2017 Date last updated by company: 07/14/2017
