Source: USDA Branded Food Products Database Release December 2017 Software v.3.8.6.4 2017-10-02
Report Run at: December 19, 2017 03:06 EST
"Nutrient data for: 45123986, CHICKEN & BROCCOLI NOODLES, UPC: 695119820016"
Food Group:  Branded Food Products Database
Common Name:

Nutrient,Unit,Data points,Std. Error,"0.5 PACKAGE = 312.0g",1Value per 100 g,
Proximates
"Energy",kcal,--,--,331,106
"Protein",g,--,--,18.00,5.77
"Total lipid (fat)",g,--,--,3.99,1.28
"Carbohydrate, by difference",g,--,--,55.01,17.63
"Fiber, total dietary",g,--,--,4.1,1.3
"Sugars, total",g,--,--,11.01,3.53
Minerals
"Calcium, Ca",mg,--,--,41,13
"Iron, Fe",mg,--,--,1.68,0.54
"Potassium, K",mg,--,--,159,51
"Sodium, Na",mg,--,--,1151,369
Vitamins
"Vitamin C, total ascorbic acid",mg,--,--,56.2,18.0
"Vitamin A, IU",IU,--,--,1095,351
Lipids
"Fatty acids, total saturated",g,--,--,0.499,0.160
"Fatty acids, total trans",g,--,--,0.000,0.000
"Cholesterol",mg,--,--,25,8
Amino Acids
Other
Ingredients
"NOODLES [ENRICHED WHEAT FLOUR (WHEAT FLOUR, NIACIN, REDUCED IRON, THIAMINE MONONITRATE, RIBOFLAVIN, FOLIC ACID), WATER, POTATO STARCH, SALT], BROCCOLI, SAUCE [WATER, HOISIN SAUCE (SUGAR, WATER, SWEET POTATO, SALT, MODIFIED CORNSTARCH, SOYBEANS, SPICES, SESAME SEEDS, WHEAT FLOUR, GARLIC, CHILI PEPPER, ACETIC ACID), OYSTER FLAVORED SAUCE (WATER, SUGAR, SALT, OYSTER EXTRACT {OYSTER, WATER, SALT}, MODIFIED CORNSTARCH, CARAMEL COLOR), ONIONS, SOY SAUCE (WATER, WHEAT, SOYBEANS, SALT), SUGAR, SOYBEAN OIL, GARLIC, BLACK SOY SAUCE (WATER, MOLASSES, SOY SAUCE {WATER, SOYBEAN, SALT, WHEAT FLOUR}, SALT, CARAMEL COLOR), CONTAINS 2% OR LESS OF: CORNSTARCH, VINEGAR, ROASTED GARLIC, CHICKEN BASE (ROASTED CHICKEN, SALT, MALTODEXTRIN, YEAST EXTRACT, CHICKEN FAT, CORNSTARCH, ONION POWDER, TURMERIC {COLOR}, NATURAL FLAVOR), SALT, YEAST EXTRACT, SPICES, DEHYDRATED GARLIC], WHITE MEAT CHICKEN BREAST [CHICKEN BREAST MEAT, WATER, RICE STARCH, SALT, SODIUM BICARBONATE, BLACK PEPPER], RED BELL PEPPERS." Date available: 10/17/2017 Date last updated by company: 10/17/2017
