Source: USDA Branded Food Products Database Release December 2017 Software v.3.8.6.4 2017-10-02
Report Run at: December 19, 2017 03:02 EST
"Nutrient data for: 45197750, CHICKEN BREAST PATTIES, UPC: 064563228783"
Food Group:  Branded Food Products Database
Common Name:

Nutrient,Unit,Data points,Std. Error,"1 PIECE = 79.0g",1Value per 100 g,
Proximates
"Energy",kcal,--,--,160,203
"Protein",g,--,--,11.00,13.92
"Total lipid (fat)",g,--,--,8.00,10.13
"Carbohydrate, by difference",g,--,--,11.00,13.92
"Fiber, total dietary",g,--,--,1.0,1.3
"Sugars, total",g,--,--,0.00,0.00
Minerals
"Calcium, Ca",mg,--,--,20,25
"Iron, Fe",mg,--,--,1.55,1.96
"Sodium, Na",mg,--,--,540,684
Vitamins
"Vitamin C, total ascorbic acid",mg,--,--,0.0,0.0
"Vitamin A, IU",IU,--,--,107,136
Lipids
"Fatty acids, total saturated",g,--,--,1.003,1.270
"Fatty acids, total trans",g,--,--,0.000,0.000
"Cholesterol",mg,--,--,20,25
Amino Acids
Other
Ingredients
"BONELESS SKINLESS CHICKEN BREAST WITH RIB MEAT, WATER, ENRICHED BLEACHED WHEAT FLOUR (NIACIN (VITAMIN B3), REDUCED IRON, THIAMINE MONONITRATE (VITAMIN B1), RIBOFLAVIN (VITAMIN B2), FOLIC ACID), ISOLATED SOY PROTEIN. CONTAINS 2% OR LESS OF THE FOLLOWING: WHOLE GRAIN WHEAT FLOUR, MODIFIED CORN STARCH, SALT, SEA SALT, DEHYDRATED CAYENNE PEPPER SAUCE [CAYENNE PEPPER SAUCE (AGED CAYENNE PEPPERS, DISTILLED VINEGAR, SALT, GARLIC POWDER), MALTODEXTRIN, NATURAL FLAVOR], FLAVOR, ONION POWDER, SPICES, LEAVENING (SODIUM ACID PYROPHOSPHATE, SODIUM BICARBONATE), YELLOW CORN FLOUR, SUGAR, GARLIC POWDER, EXTRACTIVE OF PAPRIKA, TOMATO POWDER, DEXTROSE, YEAST EXTRACT, DEHYDRATED CHICKEN BROTH, SODIUM DIACETATE, JALAPENO PEPPER POWDER, NATURAL FLAVOR, CANOLA OIL, CARAMEL COLOR, GUAR GUM, YEAST, DOUGH CONDITIONER (ASCORBIC ACID, L-CYSTEINE MONOHYDROCHLORIDE), FLAX MEAL." Date available: 10/13/2017 Date last updated by company: 10/13/2017
