Source: USDA Branded Food Products Database Release December 2017 Software v.3.8.6.4 2017-10-02
Report Run at: December 19, 2017 03:46 EST
"Nutrient data for: 45262002, CHICKEN TIKKA MASALA WITH LENTIL RICE, UPC: 767226003825"
Food Group:  Branded Food Products Database
Common Name:

Nutrient,Unit,Data points,Std. Error,"1 cup = 213.0g",1Value per 100 g,
Proximates
"Energy",kcal,--,--,249,117
"Protein",g,--,--,22.00,10.33
"Total lipid (fat)",g,--,--,2.49,1.17
"Carbohydrate, by difference",g,--,--,31.99,15.02
"Fiber, total dietary",g,--,--,0.0,0.0
"Sugars, total",g,--,--,2.00,0.94
Minerals
"Calcium, Ca",mg,--,--,40,19
"Iron, Fe",mg,--,--,5.33,2.50
"Sodium, Na",mg,--,--,601,282
Vitamins
"Vitamin C, total ascorbic acid",mg,--,--,1.5,0.7
"Vitamin A, IU",IU,--,--,132,62
Lipids
"Fatty acids, total saturated",g,--,--,1.001,0.470
"Fatty acids, total trans",g,--,--,0.000,0.000
"Cholesterol",mg,--,--,55,26
Amino Acids
Other
Ingredients
"CHICKEN TIKKA MASALA (WHITE MEAT CHICKEN, TIKKA SAUCE [TOMATO SAUCE {TOMATO PUREE (WATER, TOMATO PASTE), EVAPORTED CANE SYRUP, DISTILLED VINEGAR, SALT, ONION POWDER, NATURAL FLAVOR}, WATER, ONIONS, BUTTER {CREAM AND SALT}, GINGER, TOMATO PASTE, EXPELLER PRESSED CANOLA OIL, GARLIC, CHICKPEA FLOUR, SEA SALT, TAPIOCA STARCH, SUGAR, GARAM MASALA {CORIANDER, CUMIN, CHILI, GINGER, CLOVE, CINNAMON, BAY LEAF, SPICES}, JALAPENO, CURRY PASTE {LEMON GRASS, GARLIC, SHALLOT, SALT, GALANGAL, DRIED RED CHILI, CORIANDER SEED, KAFFIR LIME PEEL, CUMIN, CINNAMON, MACE, TURMERIC, CARDAMOM], PAPRIKA, CILANTRO, CAYENNE PEPPER, CINNAMON, TURMERIC, GUM [XANTHAN GUM, GUAR GUM, AND CARRAGEENAN], FENUGREEK POWDER, LEMON JUICE CONCENTRATE (100%), CARDAMOM OLEORESIN, GLUCONO DELTA LACTONE, CULTURED DEXTROSE], WATER, CREAM), RICE (WATER, RICE, LENTIL, EXPELLER PRESSED CANOLA OIL, CULTURED DEXTROSE, CUMIN, GLUCONO DELTA LACTONE, SALT)." Date available: 07/14/2017 Date last updated by company: 07/14/2017
