Source: USDA Branded Food Products Database Release December 2017 Software v.3.8.6.4 2017-10-02
Report Run at: December 19, 2017 03:47 EST
"Nutrient data for: 45135759, CHICKEN TORTILLA, UPC: 725342412587"
Food Group:  Branded Food Products Database
Common Name:

Nutrient,Unit,Data points,Std. Error,"1 cup = 254.0g",1Value per 100 g,
Proximates
"Energy",kcal,--,--,130,51
"Protein",g,--,--,7.01,2.76
"Total lipid (fat)",g,--,--,1.50,0.59
"Carbohydrate, by difference",g,--,--,22.00,8.66
"Fiber, total dietary",g,--,--,3.0,1.2
"Sugars, total",g,--,--,3.00,1.18
Minerals
"Calcium, Ca",mg,--,--,20,8
"Iron, Fe",mg,--,--,1.45,0.57
"Sodium, Na",mg,--,--,790,311
Vitamins
"Vitamin C, total ascorbic acid",mg,--,--,0.0,0.0
"Vitamin A, IU",IU,--,--,300,118
Lipids
"Fatty acids, total saturated",g,--,--,0.508,0.200
"Fatty acids, total monounsaturated",g,--,--,0.508,0.200
"Fatty acids, total polyunsaturated",g,--,--,0.508,0.200
"Fatty acids, total trans",g,--,--,0.000,0.000
"Cholesterol",mg,--,--,10,4
Amino Acids
Other
Ingredients
"WATER, TOMATOES*, COOKED CHICKEN MEAT*, CORN*, RICE*, GREEN BELL PAPER*, BLACK BEANS*, TOMATO PASTE*, TOASTED CORN FLOUR*, CONTAINS LES THAN 1% OF: SEA SALT, TOMATO PUREE*, CORN STARCH*, CUMIN POWDER*, CANE JUICE*, DRIED RED CHILI PEPPER*, ONION POWDER*," Date available: 11/10/2016 Date last updated by company: 11/10/2016
