Source: USDA Branded Food Products Database Release December 2017 Software v.3.8.6.4 2017-10-02
Report Run at: December 19, 2017 03:29 EST
"Nutrient data for: 45217548, CHICKEN NUGGETS, UPC: 045421856218"
Food Group:  Branded Food Products Database
Common Name:

Nutrient,Unit,Data points,Std. Error,"5.0 PIECES = 96.0g",1Value per 100 g,
Proximates
"Energy",kcal,--,--,220,229
"Protein",g,--,--,13.00,13.54
"Total lipid (fat)",g,--,--,11.00,11.46
"Carbohydrate, by difference",g,--,--,16.00,16.67
"Fiber, total dietary",g,--,--,1.0,1.0
"Sugars, total",g,--,--,2.00,2.08
Minerals
"Calcium, Ca",mg,--,--,60,62
"Iron, Fe",mg,--,--,0.96,1.00
"Sodium, Na",mg,--,--,700,729
Vitamins
"Vitamin C, total ascorbic acid",mg,--,--,1.1,1.1
"Vitamin A, IU",IU,--,--,88,92
Lipids
"Fatty acids, total saturated",g,--,--,3.504,3.650
"Fatty acids, total trans",g,--,--,0.000,0.000
"Cholesterol",mg,--,--,35,36
Amino Acids
Other
Ingredients
"CHICKEN BREAST WITH RIB MEAT, WATER, BLEACHED WHEAT FLOUR, ENRICHED WHEAT FLOUR (WHEAT FLOUR, NIACIN, REDUCED IRON, THIAMINE MONONITRATE, RIBOFLAVIN, FOLIC ACID), PASTEURIZED PROCESS CHEDDAR (CHEDDAR CHEESE {CULTURED PASTEURIZED MILK, SALT, ENZYMES}, WATER, CREAM, SODIUM PHOSPHATE, SALT, SORBIC ACID, ARTIFICIAL COLOR), SEASONING (WHEY, CHEESE {GRANULAR AND BLUE [MILK, CHEESE CULTURE, SALT, ENZYMES]}, MALTODEXTRIN, SALT, YEAST EXTRACT, SODIUM DIACETATE, PARTIALLY HYDROGENATED SOYBEAN OIL, WHEY PROTEIN CONCENTRATE, LACTOSE, CITRIC ACID, ENZYME MODIFIED CHEDDAR CHEESE {MILK, CHEESE CULTURES, SALT, ENZYMES}, SPICE, LACTIC ACID, DISODIUM INOSINATE AND DISODIUM GUANYLATE, BUTTER FLAVOR, YELLOW #5, YELLOW #6), ENRICHED BLEACHED WHEAT FLOUR (WHEAT FLOUR, NIACIN, FERROUS SULFATE, THIAMINE MONONITRATE, RIBOFLAVIN, FOLIC ACID), TEXTURED SOY FLOUR, CONTAINS 2% OR LESS OF BACON PIECES (PORK, CURED WITH {WATER, SALT, SUGAR, SODIUM PHOSPHATES, SODIUM ERYTHORBATE, SODIUM NITRITE, SMOKE FLAVORING), MODIFIED FOOD STARCH, SALT, ISOLATED SOY PRODUCT, YELLOW CORN FLOUR, DEXTROSE, SODIUM PHOSPHATES, LEAVENING (SODIUM ACID PYROPHOSPHATE, SODIUM BICARBONATE), WHEAT FLOUR, WHEAT GLUTEN, EGG WHITES, SPICES, SOYBEAN OIL, YEAST, EXTRACTIVES OF PAPRIKA." Date available: 07/14/2017 Date last updated by company: 07/14/2017
