Source: USDA Branded Food Products Database Release December 2017 Software v.3.8.6.4 2017-10-02
Report Run at: December 19, 2017 03:28 EST
"Nutrient data for: 45282138, CHICKEN NOODLE SOUP, UPC: 688267176920"
Food Group:  Branded Food Products Database
Common Name:

Nutrient,Unit,Data points,Std. Error,"1 cup = 245.0g",1Value per 100 g,
Proximates
"Energy",kcal,--,--,110,45
"Protein",g,--,--,11.00,4.49
"Total lipid (fat)",g,--,--,2.50,1.02
"Carbohydrate, by difference",g,--,--,11.00,4.49
"Fiber, total dietary",g,--,--,2.0,0.8
"Sugars, total",g,--,--,2.01,0.82
Minerals
"Calcium, Ca",mg,--,--,20,8
"Iron, Fe",mg,--,--,1.08,0.44
"Sodium, Na",mg,--,--,500,204
Vitamins
"Vitamin C, total ascorbic acid",mg,--,--,2.5,1.0
"Vitamin A, IU",IU,--,--,1749,714
Lipids
"Fatty acids, total saturated",g,--,--,0.490,0.200
"Fatty acids, total trans",g,--,--,0.000,0.000
"Cholesterol",mg,--,--,29,12
Amino Acids
Other
Ingredients
"CHICKEN BROTH, CHICKEN (CHICKEN, WATER, RICE STARCH, SALT), ONIONS, CELERY, PASTA (DURUM WHEAT FLOUR, EGGS, EGG WHITES, NIACIN, IRON [FERROUS SULFATE], THIAMIN MONONITRATE, RIBOFLAVIN, FOLIC ACID), CARROTS, CONTAINS 2% OR LESS OF: ORGANIC ROASTED CHICKEN FLAVOR (ORGANIC CHICKEN FLAVOR, SEA SALT), ORGANIC CANOLA OIL, GARLIC SALT, PARSLEY, THYME, YEAST, ACACIA & XANTHAN GUM, NISIN PREPARATION++, SPICES." Date available: 07/14/2017 Date last updated by company: 07/14/2017
