Source: USDA Branded Food Products Database Release December 2017 Software v.3.8.6.4 2017-10-02
Report Run at: December 19, 2017 02:52 EST
"Nutrient data for: 45288653, CHICAGO CLASSIC PIZZA SAUCE, UPC: 635519132517"
Food Group:  Branded Food Products Database
Common Name:

Nutrient,Unit,Data points,Std. Error,"0.25 cup = 60.0g",1Value per 100 g,
Proximates
"Energy",kcal,--,--,20,33
"Protein",g,--,--,1.00,1.67
"Total lipid (fat)",g,--,--,0.00,0.00
"Carbohydrate, by difference",g,--,--,4.00,6.67
"Fiber, total dietary",g,--,--,0.0,0.0
"Sugars, total",g,--,--,4.00,6.67
Minerals
"Calcium, Ca",mg,--,--,20,33
"Iron, Fe",mg,--,--,1.52,2.54
"Sodium, Na",mg,--,--,180,300
Vitamins
"Vitamin C, total ascorbic acid",mg,--,--,19.0,31.7
"Vitamin A, IU",IU,--,--,1057,1761
Lipids
"Fatty acids, total saturated",g,--,--,0.000,0.000
"Fatty acids, total trans",g,--,--,0.000,0.000
"Cholesterol",mg,--,--,0,0
Amino Acids
Other
Ingredients
"TOMATOES, WATER, GARLIC, EXTRA VIRGIN OLIVE OIL, SALT, OREGANO, BASIL, BLACK PEPPER." Date available: 07/14/2017 Date last updated by company: 07/14/2017
