Source: USDA Branded Food Products Database Release December 2017 Software v.3.8.6.4 2017-10-02
Report Run at: December 19, 2017 03:18 EST
"Nutrient data for: 45272162, CHICKEN FLAVORED VEGETARIAN MEAT SUBSTITUTE, UPC: 000946701573"
Food Group:  Branded Food Products Database
Common Name:

Nutrient,Unit,Data points,Std. Error,"0.25 cup = 26.0g",1Value per 100 g,
Proximates
"Energy",kcal,--,--,90,346
"Protein",g,--,--,11.00,42.31
"Total lipid (fat)",g,--,--,3.00,11.54
"Carbohydrate, by difference",g,--,--,7.00,26.92
"Fiber, total dietary",g,--,--,4.0,15.4
"Sugars, total",g,--,--,2.00,7.69
Minerals
"Calcium, Ca",mg,--,--,60,231
"Iron, Fe",mg,--,--,3.81,14.64
"Sodium, Na",mg,--,--,550,2115
Vitamins
"Vitamin C, total ascorbic acid",mg,--,--,0.0,0.0
"Vitamin A, IU",IU,--,--,0,0
Lipids
"Fatty acids, total saturated",g,--,--,0.000,0.000
"Fatty acids, total trans",g,--,--,0.000,0.000
"Cholesterol",mg,--,--,0,0
Amino Acids
Other
Ingredients
"TEXTURED SOY FLOUR, SOYBEAN OIL, SALT, AUTOLYZED YEAST EXTRACT, HYDROLYZED CORN PROTEIN, NATURAL SMOKE FLAVORING, THIAMINE HYDROCHLORIDE, DEXTROSE, DISODIUM INOSINATE, DISODIUM GUANYLATE." Date available: 07/14/2017 Date last updated by company: 07/14/2017
