Source: USDA Branded Food Products Database Release December 2017 Software v.3.8.6.4 2017-10-02
Report Run at: December 19, 2017 02:58 EST
"Nutrient data for: 45281013, CHICKEN BEAN & RICE BURRITO, UPC: 891627008087"
Food Group:  Branded Food Products Database
Common Name:

Nutrient,Unit,Data points,Std. Error,"1 BURRITO = 85.0g",1Value per 100 g,
Proximates
"Energy",kcal,--,--,180,212
"Protein",g,--,--,7.00,8.24
"Total lipid (fat)",g,--,--,5.00,5.88
"Carbohydrate, by difference",g,--,--,26.00,30.59
"Fiber, total dietary",g,--,--,2.0,2.4
"Sugars, total",g,--,--,1.00,1.18
Minerals
"Calcium, Ca",mg,--,--,40,47
"Iron, Fe",mg,--,--,1.19,1.40
"Sodium, Na",mg,--,--,200,235
Vitamins
"Vitamin C, total ascorbic acid",mg,--,--,4.0,4.7
"Vitamin A, IU",IU,--,--,165,194
Lipids
"Fatty acids, total saturated",g,--,--,1.998,2.350
"Fatty acids, total trans",g,--,--,0.000,0.000
"Cholesterol",mg,--,--,10,12
Amino Acids
Other
Ingredients
"FILLING: PINTO BEANS+, COOKED CHICKEN, RICE, TOMATOES IN JUICE (TOMATOES, CALCIUM CHLORIDE, CITRIC ACID), CHEDDAR CHEESE (PASTEURIZED MILK, CHEESE CULTURES, SALT, ENZYMES), CORN, ONIONS, GUAJILLO CHILE PASTE, GARLIC, SPICES, CORN STARCH, SALT, JALAPENOS, LIME JUICE, CANOLA OIL. TORTILLA: WHEAT FLOUR, CANOLA OIL, PALM OIL+, BAKING POWDER, SALT, GUAR GUM." Date available: 07/14/2017 Date last updated by company: 07/14/2017
