Source: USDA Branded Food Products Database Release December 2017 Software v.3.8.6.4 2017-10-02
Report Run at: December 19, 2017 03:35 EST
"Nutrient data for: 45257722, CHICKEN QUESADILLA, UPC: 602050110694"
Food Group:  Branded Food Products Database
Common Name:

Nutrient,Unit,Data points,Std. Error,"1 QUESADILLA = 113.0g",1Value per 100 g,
Proximates
"Energy",kcal,--,--,270,239
"Protein",g,--,--,18.00,15.93
"Total lipid (fat)",g,--,--,10.00,8.85
"Carbohydrate, by difference",g,--,--,27.00,23.89
"Fiber, total dietary",g,--,--,2.0,1.8
"Sugars, total",g,--,--,0.00,0.00
Minerals
"Calcium, Ca",mg,--,--,200,177
"Iron, Fe",mg,--,--,4.46,3.95
"Sodium, Na",mg,--,--,490,434
Vitamins
"Vitamin C, total ascorbic acid",mg,--,--,0.0,0.0
"Vitamin A, IU",IU,--,--,372,329
Lipids
"Fatty acids, total saturated",g,--,--,4.497,3.980
"Fatty acids, total trans",g,--,--,0.000,0.000
"Cholesterol",mg,--,--,40,35
Amino Acids
Other
Ingredients
"TORTILLA (ENRICHED FLOUR [WHEAT FLOUR, NIACIN, IRON, THIAMINE MONONITRATE, RIBOFLAVIN, FOLIC ACID], WATER, SOYBEAN OIL, SALT, VITAL WHEAT GLUTEN, GUAR GUM, BAKING POWDER, EMULSIFIER [SODIUM STEAROYL LACTYLATE AND GUAR GUM], DOUGH CONDITIONER [INVERTED SUGAR, CARBOXYMETHYLCELLELOSE GUM, SODIUM METABISULFITE]), GRILLED CHICKEN WHITE BREAST MEAT (WHITE CHICKEN BREAST MEAT, CHICKEN BROTH, WATER, SALT, MODIFIED FOOD STARCH, ISOLATED SOY PROTEIN, SALT, CARRAGEENAN, GARLIC AND ONION POWDER, SODIUM PHOSPHATE, WHITE PEPPER, GREEN SAUCE (WATER, TOMATILLOS [TOMATILLOS, CITRIC ACID], CORN STARCH, JALAPENO PEPPERS [GREEN JALAPENO PEPPERS, WATER, VINEGAR, SALT], SUGAR, SEA SALT, CILANTRO, ONION POWDERS AND GARLIC POWDER, MODIFIED FOOD STARCH), CHEESE MIX (JACK CHEESE [GRADE A PASTEURIZED MILK, SALT, ENZYMES, CULTURES], CHEDDAR CHEESE [GRADE A PASTEURIZED MILK, SALT, ANNATTO COLOR, ENZYMES, CULTURES), JALAPENOS [JALAPENOS, WATER, VINEGAR, SALT]." Date available: 07/14/2017 Date last updated by company: 07/14/2017
