Source: USDA Branded Food Products Database Release December 2017 Software v.3.8.6.4 2017-10-02
Report Run at: December 19, 2017 03:18 EST
"Nutrient data for: 45328663, CHICKEN & FINGERLING POTATOES, UPC: 717854040037"
Food Group:  Branded Food Products Database
Common Name:

Nutrient,Unit,Data points,Std. Error,"1 PACKAGE = 283.0g",1Value per 100 g,
Proximates
"Energy",kcal,--,--,260,92
"Protein",g,--,--,18.99,6.71
"Total lipid (fat)",g,--,--,9.99,3.53
"Carbohydrate, by difference",g,--,--,24.99,8.83
"Fiber, total dietary",g,--,--,4.0,1.4
"Sugars, total",g,--,--,3.99,1.41
Minerals
"Calcium, Ca",mg,--,--,59,21
"Iron, Fe",mg,--,--,1.25,0.44
"Sodium, Na",mg,--,--,611,216
Vitamins
"Vitamin C, total ascorbic acid",mg,--,--,14.4,5.1
"Vitamin A, IU",IU,--,--,345,122
Lipids
"Fatty acids, total saturated",g,--,--,3.000,1.060
"Fatty acids, total trans",g,--,--,0.000,0.000
"Cholesterol",mg,--,--,51,18
Amino Acids
Other
Ingredients
"FINGERLING POTATOES, ROASTED SEASONED NATURAL* CHICKEN BREAST MEAT WITH RIB MEAT (CHICKEN BREAST MEAT WITH RIB MEAT, WATER, LESS THAN 2% ORGANIC CORN STARCH, NATURAL FLAVORS, SEA SALT, SPICE), WATER, ROASTED CARROTS, ASPARAGUS, HALF AND HALF (MILK, CREAM), CHABLIS WINE (WITH SALT), WHOLE GRAIN DIJON MUSTARD (WATER, MUSTARD SEED, DISTILLED VINEGAR, SALT, WHITE WINE, CITRIC ACID, TARTARIC ACID, SPICES), LESS THAN 2% OF CHICKEN FAT, CHICKEN BROTH, DIJON MUSTARD (DISTILLED VINEGAR, WATER, MUSTARD SEED, SALT, WHITE WINE, CITRIC ACID, TARTARIC ACID, SPICES), CORN STARCH, OLIVE OIL, GARLIC PUREE, SALT, GRANULATED ONION, SPICES, MUSTARD FLOUR, XANTHAN GUM." Date available: 10/13/2017 Date last updated by company: 10/13/2017
