Source: USDA Branded Food Products Database Release December 2017 Software v.3.8.6.4 2017-10-02
Report Run at: December 19, 2017 03:56 EST
"Nutrient data for: 45192074, CHIKAB HANDMADE FINE NOODLE, UPC: 678108320315"
Food Group:  Branded Food Products Database
Common Name:

Nutrient,Unit,Data points,Std. Error,"3.52 ONZ = 100.0g",1Value per 100 g,
Proximates
"Energy",kcal,--,--,358,358
"Protein",g,--,--,11.00,11.00
"Total lipid (fat)",g,--,--,1.20,1.20
"Carbohydrate, by difference",g,--,--,76.00,76.00
"Fiber, total dietary",g,--,--,0.0,0.0
"Sugars, total",g,--,--,2.00,2.00
Minerals
"Calcium, Ca",mg,--,--,0,0
"Iron, Fe",mg,--,--,0.00,0.00
"Sodium, Na",mg,--,--,932,932
Vitamins
"Vitamin C, total ascorbic acid",mg,--,--,0.0,0.0
"Vitamin A, IU",IU,--,--,0,0
Lipids
"Fatty acids, total saturated",g,--,--,0.900,0.900
"Fatty acids, total trans",g,--,--,0.000,0.000
"Cholesterol",mg,--,--,0,0
Amino Acids
Other
Ingredients
"WHEAT FLOUR, RICE POWDER, SALT" Date available: 07/14/2017 Date last updated by company: 07/14/2017
