Source: USDA Branded Food Products Database Release December 2017 Software v.3.8.6.4 2017-10-02
Report Run at: December 19, 2017 03:56 EST
"Nutrient data for: 45025337, CHIK'N TENDERS, UPC: 833735000126"
Food Group:  Branded Food Products Database
Common Name:

Nutrient,Unit,Data points,Std. Error,"1 cup = 85.0g",1Value per 100 g,
Proximates
"Energy",kcal,--,--,90,106
"Protein",g,--,--,10.00,11.76
"Total lipid (fat)",g,--,--,2.00,2.35
"Carbohydrate, by difference",g,--,--,9.00,10.59
"Fiber, total dietary",g,--,--,4.0,4.7
"Sugars, total",g,--,--,1.00,1.18
Minerals
"Calcium, Ca",mg,--,--,120,141
"Iron, Fe",mg,--,--,0.23,0.27
"Sodium, Na",mg,--,--,390,459
Vitamins
"Vitamin C, total ascorbic acid",mg,--,--,0.0,0.0
"Vitamin A, IU",IU,--,--,0,0
Lipids
"Fatty acids, total saturated",g,--,--,0.501,0.590
"Fatty acids, total trans",g,--,--,0.000,0.000
"Cholesterol",mg,--,--,0,0
Amino Acids
Other
Ingredients
"MYCOPROTEIN (92%), REHYDRATED EGG WHITE, NATURAL FLAVOR (FROM NON MEAT SOURCES, CONTAINS YEAST EXTRACT, ONION, SAGE & SUGAR). CONTAINS 2% OR LESS OF PEA FIBER, FIRMING AGENTS: CALCIUM CHLORIDE, CALCIUM ACETATE." Date available: 07/14/2017 Date last updated by company: 07/14/2017
