Source: USDA Branded Food Products Database Release December 2017 Software v.3.8.6.4 2017-10-02
Report Run at: December 19, 2017 04:07 EST
"Nutrient data for: 45109630, CHILI'S, QUESO FRIED CHICKEN BITES, UPC: 717854470186"
Food Group:  Branded Food Products Database
Common Name:

Nutrient,Unit,Data points,Std. Error,"1 PACKAGE = 284.0g",1Value per 100 g,
Proximates
"Energy",kcal,--,--,341,120
"Protein",g,--,--,18.01,6.34
"Total lipid (fat)",g,--,--,15.00,5.28
"Carbohydrate, by difference",g,--,--,33.99,11.97
"Fiber, total dietary",g,--,--,2.0,0.7
"Sugars, total",g,--,--,1.99,0.70
Minerals
"Calcium, Ca",mg,--,--,151,53
"Iron, Fe",mg,--,--,0.99,0.35
"Sodium, Na",mg,--,--,1329,468
Vitamins
"Vitamin C, total ascorbic acid",mg,--,--,12.5,4.4
"Vitamin A, IU",IU,--,--,275,97
Lipids
"Fatty acids, total saturated",g,--,--,5.992,2.110
"Fatty acids, total trans",g,--,--,0.000,0.000
"Cholesterol",mg,--,--,51,18
Amino Acids
Other
Ingredients
"WATER, CHICKEN BREAST FRITTERS WITH RIB MEAT (CHICKEN BREAST FRITTERS WITH RIB MEAT, WATER, MODIFIED FOOD STARCH, SALT, MODIFIED CORN STARCH, SOY FLOUR, DEXTROSE, SPICES, GARLIC POWDER, WHEAT GLUTEN, ONION POWDER, PAPRIKA, DRIED WHEY, DRIED WHOLE EGGS, SPICE EXTRACTIVES, SILICON DIOXIDE, EXTRACTIVES OF PAPRIKA), POTATO FLAKES AND GRANULES (POTATOES, MONO AND DIGLYCERIDES, SODIUM ACID PHOSPHATE, CITRIC ACID, FRESHNESS PRESERVED WITH SODIUM BISULFITE, BHA AND BHT), HALF AND HALF (MILK, CREAM), PASTEURIZED PROCESS HOT PEPPER JACK CHEESE FOOD (CULTURED MILK, WATER, SKIM MILK, WHEY, SODIUM PHOSPHATES, RED AND GREEN JALAPENO PEPPERS, CREAM, SALT, NATURAL FLAVOR ENZYMES), BELL PEPPERS, MODIFIED FOOD STARCH, LESS THAN 2% OF PROVOLONE CHEESE (PASTEURIZED MILK, CHEESE CULTURES, SALT, ENZYMES), JALAPENO PEPPERS (WITH WATER, VINEGAR AND SALT), RED JALAPENO PEPPERS, MILK SOLIDS (CREAM, MILKFAT, NONFAT MILK), DISODIUM PHOSPHATE, SALT, MALTODEXTRIN, NATURAL CHEESE FLAVORS (CHEDDAR, PARMESAN, AND LIMBURGER CHEESE [MILK, CULTURES, SALT, ENZYMES], MALTODEXTRIN, WATER, NONFAT DRY MILK, MILKFAT, WHEY POWDER, MODIFIED CORN STARCH, NATURAL FLAVOR, DISODIUM PHOSPHATE, SALT, ALCOHOL, XANTHAN GUM), GRANULATED GARLIC, XANTHAN GUM, SPICES, GARLIC (WITH WATER AND CITRIC ACID), GROUND CHIPOTLE CHILI PEPPER." Date available: 08/07/2017 Date last updated by company: 08/07/2017
