Source: USDA Branded Food Products Database Release December 2017 Software v.3.8.6.4 2017-10-02
Report Run at: December 19, 2017 03:59 EST
"Nutrient data for: 45283839, CHILI BEANS WITH PINTO BEANS, UPC: 011225577949"
Food Group:  Branded Food Products Database
Common Name:

Nutrient,Unit,Data points,Std. Error,"0.5 cup = 130.0g",1Value per 100 g,
Proximates
"Energy",kcal,--,--,120,92
"Protein",g,--,--,6.99,5.38
"Total lipid (fat)",g,--,--,0.49,0.38
"Carbohydrate, by difference",g,--,--,21.00,16.15
"Fiber, total dietary",g,--,--,6.0,4.6
"Sugars, total",g,--,--,1.00,0.77
Minerals
"Calcium, Ca",mg,--,--,60,46
"Iron, Fe",mg,--,--,1.79,1.38
"Sodium, Na",mg,--,--,550,423
Vitamins
"Vitamin C, total ascorbic acid",mg,--,--,1.2,0.9
"Vitamin A, IU",IU,--,--,0,0
Lipids
"Fatty acids, total saturated",g,--,--,0.000,0.000
"Fatty acids, total trans",g,--,--,0.000,0.000
"Cholesterol",mg,--,--,0,0
Amino Acids
Other
Ingredients
"PREPARED PINTO BEANS, WATER, SALT, MODIFIED CORN STARCH, CHILI POWDER, TOMATO PASTE, SUGAR, CHILI SEASONINGS (CHILI PEPPER AND SPICES, SALT, DEHYDRATED GARLIC), RED PEPPER, GARLIC, ONION, CALCIUM CHLORIDE (FIRMING AGENT)." Date available: 07/14/2017 Date last updated by company: 07/14/2017
