Source: USDA Branded Food Products Database Release December 2017 Software v.3.8.6.4 2017-10-02
Report Run at: December 19, 2017 03:56 EST
"Nutrient data for: 45332306, CHILDRENS NUTRITIONAL DRINK, UPC: 050428475744"
Food Group:  Branded Food Products Database
Common Name:

Nutrient,Unit,Data points,Std. Error,"1 BOTTLE = 8.0g",1Value per 100 g,
Proximates
"Energy",kcal,--,--,8,100
"Protein",g,--,--,0.23,2.92
"Total lipid (fat)",g,--,--,0.30,3.75
"Carbohydrate, by difference",g,--,--,1.10,13.75
"Fiber, total dietary",g,--,--,0.1,0.8
"Sugars, total",g,--,--,0.77,9.58
Minerals
"Calcium, Ca",mg,--,--,8,104
"Iron, Fe",mg,--,--,0.14,1.71
"Potassium, K",mg,--,--,12,154
"Sodium, Na",mg,--,--,3,38
Vitamins
"Vitamin C, total ascorbic acid",mg,--,--,1.2,15.2
"Vitamin A, IU",IU,--,--,25,317
Lipids
"Fatty acids, total saturated",g,--,--,0.034,0.420
"Fatty acids, total monounsaturated",g,--,--,0.200,2.500
"Fatty acids, total polyunsaturated",g,--,--,0.050,0.620
"Fatty acids, total trans",g,--,--,0.000,0.000
"Cholesterol",mg,--,--,0,2
Amino Acids
Other
Ingredients
"WATER, SUGAR (SUCROSE), MALTODEXTRIN (CORN), MILK PROTEIN CONCENTRATE, HIGH-OLEIC (SAFFLOWER OR SUNFLOWER) OIL, CANOLA OIL, COCOA (PROCESSED WITH ALKALI), SOY PROTEIN ISOLATE, LESS THAN 0.5% OF: SHORT CHAIN FRUCTO-OLIGOSACCHARIDES (SCFOS) POTASSIUM CHLORIDE, MAGNESIUM PHOSPHATE, CELLULOSE GEL, CALCIUM PHOSPHATE, CALCIUM CARBONATE, FISH (TUNA) OIL, NATURAL AND ARTIFICIAL FLAVORS, POTASSIUM PHOSPHATE, SALT (SODIUM CHLORIDE), CHOLINE CHLORIDE, ASCORBIC ACID, SOY LECITHIN, MONOGLYCERIDES, POTASSIUM CITRATE, CELLULOSE GUM, CARRAGEENAN, POTASSIUM HYDROXIDE, M-INOSITOL, TAURINE, FERROUS SULFATE, VITAMIN E ACETATE, L-CARNITINE, ZINC SULFATE, CALCIUM PANTOTHENATE, NIACINAMIDE, FD&C RED NO. 3, MANGANESE SULFATE, THIAMINE HYDROCHLORIDE, PYRIDOXINE HYDROCHLORIDE, RIBOFLAVIN, LUTEIN, COPPER SULFATE, VITAMIN A PALMITATE, FOLIC ACID, CHROMIUM CHLORIDE, BIOTIN, SODIUM SELENITE, SODIUM MOLYBDATE, POTASSIUM IODIDE, PHYLLOQUINONE, VITAMIN D, CYANOCOBALAMIN." Date available: 07/14/2017 Date last updated by company: 07/14/2017
