Source: USDA Branded Food Products Database Release December 2017 Software v.3.8.6.4 2017-10-02
Report Run at: December 19, 2017 04:07 EST
"Nutrient data for: 45288652, CHILI STARTER SEASONING, UPC: 635519139707"
Food Group:  Branded Food Products Database
Common Name:

Nutrient,Unit,Data points,Std. Error,"1 tsp = 3.5g",1Value per 100 g,
Proximates
"Energy",kcal,--,--,10,286
"Protein",g,--,--,0.00,0.00
"Total lipid (fat)",g,--,--,0.00,0.00
"Carbohydrate, by difference",g,--,--,2.00,57.14
Minerals
"Iron, Fe",mg,--,--,5.14,146.93
"Sodium, Na",mg,--,--,290,8286
Vitamins
Lipids
"Fatty acids, total trans",g,--,--,0.000,0.000
Amino Acids
Other
Ingredients
"SPICES* (DEHYDRATED PARSLEY, DEHYDRATED CHILI PEPPER, BLACK PEPPER, CUMIN, DEHYDRATED OREGANO), SEA SALT, DEHYDRATED ONION*, DEHYDRATED GARLIC*, RICE MALTODEXTRIN*, CANE SUGAR*, DEHYDRATED LEMON PEEL*, CITRIC ACID, WHITE DISTILLED VINEGAR*, SUNFLOWER OIL*, DEHYDRATED JALAPENO*, NATURAL FLAVOR." Date available: 09/22/2017 Date last updated by company: 09/22/2017
