Source: USDA Branded Food Products Database Release December 2017 Software v.3.8.6.4 2017-10-02
Report Run at: December 19, 2017 04:01 EST
"Nutrient data for: 45222301, CHILI LIME VEGGIE SKINNIE, UPC: 858641003153"
Food Group:  Branded Food Products Database
Common Name:

Nutrient,Unit,Data points,Std. Error,"22.0 CHIPS | ABOUT = 28.0g",1Value per 100 g,
Proximates
"Energy",kcal,--,--,130,464
"Protein",g,--,--,1.00,3.57
"Total lipid (fat)",g,--,--,5.00,17.86
"Carbohydrate, by difference",g,--,--,20.00,71.43
"Fiber, total dietary",g,--,--,2.0,7.1
"Sugars, total",g,--,--,1.00,3.57
Minerals
"Calcium, Ca",mg,--,--,0,0
"Iron, Fe",mg,--,--,0.64,2.29
"Sodium, Na",mg,--,--,380,1357
Vitamins
"Vitamin C, total ascorbic acid",mg,--,--,0.0,0.0
"Vitamin A, IU",IU,--,--,535,1912
Lipids
"Fatty acids, total saturated",g,--,--,0.000,0.000
"Fatty acids, total trans",g,--,--,0.000,0.000
"Cholesterol",mg,--,--,0,0
Amino Acids
Other
Ingredients
"POTATO GRANULES, EXPELLER PRESSED SAFFLOWER OIL, POTATO STARCH, POTATO FLAKES, SALT, CHILI PEPPER, SUGAR, CITRIC ACID, SPINACH POWDER, TOMATO POWDER, BEETROOT POWDER, MALTODEXTRIN, PAPRIKA, NATURAL FLAVORS, EXTRACTIVES OF PAPRIKA, LIME JUICE SOLIDS, SPICE, YEAST EXTRACT, LACTIC ACID, MALIC ACID, DEXTROSE, GARLIC POWDER, ONION POWDER, AND VINEGAR, SOYBEAN OIL, CALCIUM STEARATE." Date available: 07/14/2017 Date last updated by company: 07/14/2017
