Source: USDA Branded Food Products Database Release December 2017 Software v.3.8.6.4 2017-10-02
Report Run at: December 19, 2017 04:11 EST
"Nutrient data for: 45199622, CHILLI SAUCE, UPC: 620514005935"
Food Group:  Branded Food Products Database
Common Name:

Nutrient,Unit,Data points,Std. Error,"1 Tbsp = 16.0g",1Value per 100 g,
Proximates
"Energy",kcal,--,--,25,156
"Protein",g,--,--,0.00,0.00
"Total lipid (fat)",g,--,--,0.00,0.00
"Carbohydrate, by difference",g,--,--,6.00,37.50
"Fiber, total dietary",g,--,--,0.3,1.6
"Sugars, total",g,--,--,5.00,31.25
Minerals
"Calcium, Ca",mg,--,--,0,0
"Iron, Fe",mg,--,--,0.61,3.80
"Sodium, Na",mg,--,--,85,531
Vitamins
"Vitamin C, total ascorbic acid",mg,--,--,4.1,25.4
"Vitamin A, IU",IU,--,--,507,3169
Lipids
"Cholesterol",mg,--,--,0,0
Amino Acids
Other
Ingredients
"WATER, MANGO PULP (25%), SUGAR, RED CHILI (3%), MODIFIED STARCH, XANTHAN GUM (E415) AS THICKENER, SALT, MIXED SPICES, CITRIC ACID (E330), ACETIC ACID (E260), SODIUM CITRATE (E331) AS ACIDITY REGULATOR, POTASSIUM SORBATE (E202) & SODIUM METABISULPHITE (E223) AS PRESERVATIVE, ARTIFICIAL MANGO FLAVOR." Date available: 07/14/2017 Date last updated by company: 07/14/2017
