Source: USDA Branded Food Products Database Release December 2017 Software v.3.8.6.4 2017-10-02
Report Run at: December 19, 2017 04:05 EST
"Nutrient data for: 45003274, CHILI SAUCE, UPC: 846462100120"
Food Group:  Branded Food Products Database
Common Name:

Nutrient,Unit,Data points,Std. Error,"2.0 Tbsp = 20.0g",1Value per 100 g,
Proximates
"Energy",kcal,--,--,20,100
"Protein",g,--,--,0.00,0.00
"Total lipid (fat)",g,--,--,0.00,0.00
"Carbohydrate, by difference",g,--,--,5.00,25.00
"Fiber, total dietary",g,--,--,1.0,5.0
"Sugars, total",g,--,--,3.00,15.00
Minerals
"Calcium, Ca",mg,--,--,10,50
"Iron, Fe",mg,--,--,0.61,3.04
"Sodium, Na",mg,--,--,300,1500
Vitamins
"Vitamin C, total ascorbic acid",mg,--,--,0.0,0.0
"Vitamin A, IU",IU,--,--,254,1268
Lipids
"Fatty acids, total saturated",g,--,--,0.000,0.000
"Fatty acids, total trans",g,--,--,0.000,0.000
"Cholesterol",mg,--,--,0,0
Amino Acids
Other
Ingredients
"CHILI 15% WATER, GARLIC 12%, VINEGAR, SUGAR, SALT" Date available: 06/25/2017 Date last updated by company: 06/25/2017
