Source: USDA Branded Food Products Database Release December 2017 Software v.3.8.6.4 2017-10-02
Report Run at: December 19, 2017 04:07 EST
"Nutrient data for: 45110643, CHILI'S, SOUTHWESTERN STYLE POTATO SKINS, BIG BOLD, UPC: 717854470865"
Food Group:  Branded Food Products Database
Common Name:

Nutrient,Unit,Data points,Std. Error,"2.0 PIECES = 91.0g",1Value per 100 g,
Proximates
"Energy",kcal,--,--,190,209
"Protein",g,--,--,6.00,6.59
"Total lipid (fat)",g,--,--,8.00,8.79
"Carbohydrate, by difference",g,--,--,23.00,25.27
"Fiber, total dietary",g,--,--,6.0,6.6
"Sugars, total",g,--,--,1.00,1.10
Minerals
"Calcium, Ca",mg,--,--,20,22
"Iron, Fe",mg,--,--,2.52,2.77
"Sodium, Na",mg,--,--,260,286
Vitamins
"Vitamin C, total ascorbic acid",mg,--,--,11.2,12.3
"Vitamin A, IU",IU,--,--,187,205
Lipids
"Fatty acids, total saturated",g,--,--,1.001,1.100
"Fatty acids, total trans",g,--,--,0.000,0.000
"Cholesterol",mg,--,--,10,11
Amino Acids
Other
Ingredients
"POTATO SHELLS (POTATOES, CANOLA OIL), COOKED CHICKEN BREAST WITH RIB MEAT (CHICKEN BREAST WITH RIB MEAT, WATER, SALT, SODIUM PHOSPHATE), CHEDDAR CHEESE SAUCE (WATER, AGED CHEDDAR CHEESE [CULTURED MILK, SALT, ENZYMES, ANNATTO COLOR], SOYBEAN OIL, MODIFIED CORN STARCH, SODIUM PHOSPHATE, SALT, CELLULOSE GUM, MONO AND DIGLYCERIDES, SPICE, YEAST EXTRACT, ANNATTO COLOR), WATER, CANOLA OIL, SEASONING MIX (CORN SYRUP SOLIDS, TOMATO POWDER, MODIFIED CORN STARCH, SALT, SUGAR, SPICES, DEXTROSE, ONION POWDER, GARLIC POWDER, XANTHAN GUM, FLAVORING [MALTODEXTRIN, NATURAL FLAVOR {CONTAINS NATURAL SMOKE FLAVOR}, MODIFIED FOOD STARCH, CORN SYRUP SOLIDS, DEFATTED WHEAT GERM, REFINERY SYRUP POWDER, BROWN SUGAR, TRICALCIUM PHOSPHATE, MOLASSES POWDER, CARAMEL COLOR], SOYBEAN OIL), BELL PEPPERS, GREEN ONIONS, JALAPENO PEPPERS." Date available: 07/14/2017 Date last updated by company: 07/14/2017
