Source: USDA Branded Food Products Database Release December 2017 Software v.3.8.6.4 2017-10-02
Report Run at: December 19, 2017 03:58 EST
"Nutrient data for: 45042032, CHILES HABANEROS, UPC: 859082003801"
Food Group:  Branded Food Products Database
Common Name:

Nutrient,Unit,Data points,Std. Error,"2.0 ONZ = 56.0g",1Value per 100 g,
Proximates
"Energy",kcal,--,--,10,18
"Protein",g,--,--,1.00,1.79
"Total lipid (fat)",g,--,--,0.00,0.00
"Carbohydrate, by difference",g,--,--,5.00,8.93
"Fiber, total dietary",g,--,--,2.0,3.6
"Sugars, total",g,--,--,1.00,1.79
Minerals
"Calcium, Ca",mg,--,--,0,0
"Iron, Fe",mg,--,--,0.00,0.00
"Sodium, Na",mg,--,--,15,27
Vitamins
"Vitamin C, total ascorbic acid",mg,--,--,2.1,3.8
"Vitamin A, IU",IU,--,--,179,319
Lipids
"Fatty acids, total trans",g,--,--,0.000,0.000
"Cholesterol",mg,--,--,0,0
Amino Acids
Other
Ingredients
"PICKLED HABANERO PEPPER, WATER, VINEGAR, SALT AND CITRIC ACID." Date available: 10/13/2017 Date last updated by company: 10/13/2017
