Source: USDA Branded Food Products Database Release December 2017 Software v.3.8.6.4 2017-10-02
Report Run at: December 19, 2017 03:59 EST
"Nutrient data for: 45142472, CHILI CHEESE, UPC: 024622571380"
Food Group:  Branded Food Products Database
Common Name:

Nutrient,Unit,Data points,Std. Error,"27.0 PIECES = 28.0g",1Value per 100 g,
Proximates
"Energy",kcal,--,--,130,464
"Protein",g,--,--,1.00,3.57
"Total lipid (fat)",g,--,--,6.00,21.43
"Carbohydrate, by difference",g,--,--,18.00,64.29
"Fiber, total dietary",g,--,--,1.0,3.6
"Sugars, total",g,--,--,1.00,3.57
Minerals
"Calcium, Ca",mg,--,--,20,71
"Iron, Fe",mg,--,--,0.64,2.29
"Sodium, Na",mg,--,--,470,1679
Vitamins
"Vitamin C, total ascorbic acid",mg,--,--,0.0,0.0
"Vitamin A, IU",IU,--,--,357,1275
Lipids
"Fatty acids, total saturated",g,--,--,1.501,5.360
"Fatty acids, total trans",g,--,--,0.000,0.000
"Cholesterol",mg,--,--,0,0
Amino Acids
Other
Ingredients
"DEGERMED YELLOW CORN MEAL, COTTONSEED OR CANOLA OIL, WHEAT FLOUR, DEHYDRATED POTATO, SALT, MALTODEXTRIN, WHEY, SPICES AND SPICE EXTRACTIVES, CHEDDAR CHEESE (PASTEURIZED MILK, SALT, CHEESE CULTURES, ENZYMES), MONOSODIUM GLUTAMATE, PARTIALLY HYDROGENATED SOYBEAN OIL, EXTRACTIVES OF PAPRIKA, SOYBEAN OIL, NATURAL AND ARTIFICIAL FLAVORS, CITRIC ACID, HYDROLYZED CORN PROTEIN, DISODIUM INOSINATE AND DISODIUM GUANYLATE, BUTTER (CREAM), BLUE CHEESE (PASTEURIZED MILK, SALT, CHEESE CULTURES, ENZYMES), LACTIC ACID, BUTTERMILK, SODIUM CITRATE, CORN STARCH, ONION POWDER, WHEY PROTEIN CONCENTRATE, GARLIC POWDER, NONFAT DRY MILK, YELLOW 6, YELLOW 5, ANNATTO COLOR, TOCOPHEROLS (VITAMIN E), INACTIVE YEAST, AUTOLYZED YEAST EXTRACT, ASCORBYL PALMITATE (A SOURCE OF VITAMIN C), BHT." Date available: 07/14/2017 Date last updated by company: 07/14/2017
