Source: USDA Branded Food Products Database Release December 2017 Software v.3.8.6.4 2017-10-02
Report Run at: December 19, 2017 04:00 EST
"Nutrient data for: 45199304, CHILI FIXINS WITH HABANERO PEPPER, UPC: 089382112105"
Food Group:  Branded Food Products Database
Common Name:

Nutrient,Unit,Data points,Std. Error,"1 cup = 53.0g",1Value per 100 g,
Proximates
"Energy",kcal,--,--,180,340
"Protein",g,--,--,10.00,18.87
"Total lipid (fat)",g,--,--,1.00,1.89
"Carbohydrate, by difference",g,--,--,33.00,62.26
"Fiber, total dietary",g,--,--,11.0,20.8
"Sugars, total",g,--,--,3.00,5.66
Minerals
"Calcium, Ca",mg,--,--,80,151
"Iron, Fe",mg,--,--,3.40,6.41
"Sodium, Na",mg,--,--,75,142
Vitamins
"Vitamin C, total ascorbic acid",mg,--,--,4.5,8.5
"Vitamin A, IU",IU,--,--,1651,3115
Lipids
"Fatty acids, total saturated",g,--,--,0.000,0.000
"Cholesterol",mg,--,--,0,0
Amino Acids
Other
Ingredients
"PINTO BEANS, BLACK BEANS, PACKET 1 (CHILE POWDER, ONION, GARLIC, OREGANO, CUMIN), PACKET 2 (MASA FLOUR), PACKET 3 (GROUND HABANERO PEPPER)." Date available: 07/14/2017 Date last updated by company: 07/14/2017
