Source: USDA Branded Food Products Database Release December 2017 Software v.3.8.6.4 2017-10-02
Report Run at: December 19, 2017 04:00 EST
"Nutrient data for: 45198983, CHILI GARLIC EGGPLANT PUFF VEGETABLE HORS D'OEUVRES, UPC: 077890392775"
Food Group:  Branded Food Products Database
Common Name:

Nutrient,Unit,Data points,Std. Error,"2.0 PIECES = 34.0g",1Value per 100 g,
Proximates
"Energy",kcal,--,--,100,294
"Protein",g,--,--,2.00,5.88
"Total lipid (fat)",g,--,--,6.00,17.65
"Carbohydrate, by difference",g,--,--,10.00,29.41
"Fiber, total dietary",g,--,--,1.0,2.9
"Sugars, total",g,--,--,1.00,2.94
Minerals
"Calcium, Ca",mg,--,--,0,0
"Iron, Fe",mg,--,--,1.80,5.29
"Sodium, Na",mg,--,--,160,471
Vitamins
"Vitamin C, total ascorbic acid",mg,--,--,0.0,0.0
"Vitamin A, IU",IU,--,--,500,1471
Lipids
"Fatty acids, total saturated",g,--,--,2.499,7.350
"Fatty acids, total trans",g,--,--,0.000,0.000
"Cholesterol",mg,--,--,0,0
Amino Acids
Other
Ingredients
"PUFF PASTRY DOUGH (ENRICHED WHEAT FLOUR [FLOUR, NIACIN, REDUCED IRON, THIAMINE MONONITRATE, RIBOFLAVIN, ASCORBIC ACID, FOLIC ACID, ENZYMES], PALM OIL, WATER, SALT, NATURAL FLAVOR), EGGPLANT, BARBEQUE SAUCE (SUGAR, WATER, TOMATO PASTE, MOLASSES, DISTILLED VINEGAR, SALT, CORN STARCH, NATURAL SMOKE FLAVOR, CARAMEL COLOR, CITRIC ACID, ONION POWDER, GARLIC POWDER, CUMIN), SCALLIONS, SHALLOTS, CELERY, RED PEPPER, CORN OIL, GARLIC (CHOPPED GARLIC, WATER, CORN OIL, CITRIC ACID), ARBOL (CHILI PEPPER), SEA SALT, CILANTRO, CORN STARCH, SESAME OIL, RICE WINE VINEGAR (REDUCED WITH WATER TO 4.5% ACIDITY), WATER, BLACK PEPPER." Date available: 07/14/2017 Date last updated by company: 07/14/2017
