Source: USDA Branded Food Products Database Release December 2017 Software v.3.8.6.4 2017-10-02
Report Run at: December 19, 2017 03:59 EST
"Nutrient data for: 45271698, CHILI CHEESE, SMOKED SAUSAGE, UPC: 077782021615"
Food Group:  Branded Food Products Database
Common Name:

Nutrient,Unit,Data points,Std. Error,"1 LINK = 66.0g",1Value per 100 g,
Proximates
"Energy",kcal,--,--,210,318
"Protein",g,--,--,8.00,12.12
"Total lipid (fat)",g,--,--,18.00,27.27
"Carbohydrate, by difference",g,--,--,3.00,4.55
"Fiber, total dietary",g,--,--,0.0,0.0
"Sugars, total",g,--,--,1.00,1.52
Minerals
"Calcium, Ca",mg,--,--,40,61
"Iron, Fe",mg,--,--,0.60,0.91
"Sodium, Na",mg,--,--,490,742
Vitamins
"Vitamin C, total ascorbic acid",mg,--,--,0.0,0.0
"Vitamin A, IU",IU,--,--,250,379
Lipids
"Fatty acids, total saturated",g,--,--,5.999,9.090
"Fatty acids, total trans",g,--,--,0.000,0.000
"Cholesterol",mg,--,--,40,61
Amino Acids
Other
Ingredients
"PORK, WATER, PASTEURIZED PROCESS CHEDDAR CHEESE ([CHEDDAR CHEESE (PASTEURIZED MILK, CHEESE CULTURE, SALT, ENZYMES), WATER, MILKFAT, SODIUM PHOSPHATE, SALT, SORBIC ACID, APO-CAROTENAL], POWDERED CELLULOSE) AND LESS THAN 2% OF THE FOLLOWING: CORN SYRUP, SALT, POTASSIUM LACTATE, CHILI PEPPER, DEHYDRATED ONION, SPICES, DEXTROSE, ONION POWDER, TOMATO POWDER, SODIUM PHOSPHATE, MONOSODIUM GLUTAMATE, GARLIC POWDER, SODIUM DIACETATE, BROWN SUGAR, SODIUM ERYTHORBATE, NATURAL AND ARTIFICIAL FLAVORS (WITH MODIFIED FOOD STARCH, SUCCINIC ACID), MALTODEXTRIN, SODIUM NITRITE, COLLAGEN CASING." Date available: 07/14/2017 Date last updated by company: 07/14/2017
