Source: USDA Branded Food Products Database Release December 2017 Software v.3.8.6.4 2017-10-02
Report Run at: December 19, 2017 04:13 EST
"Nutrient data for: 45067104, CHIMI SALSA, UPC: 852988006051"
Food Group:  Branded Food Products Database
Common Name:

Nutrient,Unit,Data points,Std. Error,"2.0 Tbsp = 30.0g",1Value per 100 g,
Proximates
"Energy",kcal,--,--,20,67
"Protein",g,--,--,0.00,0.00
"Total lipid (fat)",g,--,--,1.50,5.00
"Carbohydrate, by difference",g,--,--,2.00,6.67
"Sugars, total",g,--,--,1.00,3.33
Minerals
"Sodium, Na",mg,--,--,120,400
Vitamins
Lipids
Amino Acids
Other
Ingredients
"ROASTED TOMATILLO, WATER, LIME JUICE FROM CONCENTRATE, FLAT LEAF PARSLEY, RED WINE VINEGAR, EXTRA VIRGIN OLIVE OIL, RED ONION, CILANTRO, GARLIC, SALT, SERRANO PEPPER, ARBOL PEPPER AND CUMIN." Date available: 10/18/2017 Date last updated by company: 10/18/2017
