Source: USDA Branded Food Products Database Release December 2017 Software v.3.8.6.4 2017-10-02
Report Run at: December 19, 2017 04:12 EST
"Nutrient data for: 45138125, CHIMICHANGA STEAK & CHEESE, UPC: 073202892513"
Food Group:  Branded Food Products Database
Common Name:

Nutrient,Unit,Data points,Std. Error,"1 CHIMICHANGA = 142.0g",1Value per 100 g,
Proximates
"Energy",kcal,--,--,349,246
"Protein",g,--,--,12.99,9.15
"Total lipid (fat)",g,--,--,15.00,10.56
"Carbohydrate, by difference",g,--,--,38.99,27.46
"Fiber, total dietary",g,--,--,2.0,1.4
"Sugars, total",g,--,--,0.99,0.70
Minerals
"Calcium, Ca",mg,--,--,80,56
"Iron, Fe",mg,--,--,3.71,2.61
"Sodium, Na",mg,--,--,650,458
Vitamins
"Vitamin C, total ascorbic acid",mg,--,--,5.0,3.5
"Vitamin A, IU",IU,--,--,412,290
Lipids
"Fatty acids, total saturated",g,--,--,4.501,3.170
"Fatty acids, total trans",g,--,--,0.000,0.000
"Cholesterol",mg,--,--,26,18
Amino Acids
Other
Ingredients
"FILLING: BEEF STEAK, WATER, GREEN CHILE PEPPERS (GREEN CHILES, CITRIC ACID), CHEDDAR CHEESE (PASTEURIZED MILK, CHEESE CULTURES, SALT, ENZYMES, ANNATTO), ONIONS, CONTAINS LESS THAN 2% OF: MONTEREY JACK CHEESE (PASTEURIZED MILK, CHEESE CULTURES, SALT, ENZYMES), TOMATO PASTE, GREEN BELL PEPPERS, CRUSHED RED PEPPER, LONG GRAIN ENRICHED PARBOILED RICE (PARBOILED RICE ENRICHED WITH NIACIN, IRON, THIAMINE, FOLIC ACID), BLEACHED ENRICHED FLOUR (WHEAT FLOUR, NIACIN, REDUCED IRON, THIAMINE MONONITRATE, RIBOFLAVIN, FOLIC ACID), BEEF FLAVOR (BEEF STOCK POWDER, SALT, SUGAR, NATURAL FLAVOR, THIAMIN HYDROCHLORIDE), FLAVORINGS, MODIFIED FOOD STARCH, SOYBEAN OIL, CARAMEL COLOR, SALT. TORTILLA: BLEACHED ENRICHED FLOUR (WHEAT FLOUR, NIACIN, REDUCED IRON, THIAMINE MONONITRATE, RIBOFLAVIN, FOLIC ACID), WATER, SOYBEAN OIL, CORN FLOUR, SALT, DOUGH CONDITIONER (WHEY, L-CYSTEINE HYDROCHLORIDE), GUAR GUM, SODIUM STEAROYL LACTYLATE, LEAVENING (SODIUM BICARBONATE, CORN STARCH, SODIUM ALUMINUM SULFATE, CALCIUM SULFATE, MONOCALCIUM PHOSPHATE). PREFRIED IN VEGETABLE OIL." Date available: 10/19/2017 Date last updated by company: 10/19/2017
