Source: USDA Branded Food Products Database Release December 2017 Software v.3.8.6.4 2017-10-02
Report Run at: December 19, 2017 04:12 EST
"Nutrient data for: 45085108, CHIMICHURRI SEASONING, UPC: 04021018"
Food Group:  Branded Food Products Database
Common Name:

Nutrient,Unit,Data points,Std. Error,"1 tsp = 1.0g",1Value per 100 g,
Proximates
"Energy",kcal,--,--,0,0
"Protein",g,--,--,0.00,0.00
"Total lipid (fat)",g,--,--,0.00,0.00
"Carbohydrate, by difference",g,--,--,1.00,100.00
Minerals
"Sodium, Na",mg,--,--,55,5500
Vitamins
Lipids
Amino Acids
Other
Ingredients
"SPICES, SALT, GARLIC, RED PEPPER, LEMON OIL." Date available: 08/14/2017 Date last updated by company: 08/14/2017
