Source: USDA Branded Food Products Database Release December 2017 Software v.3.8.6.4 2017-10-02
Report Run at: December 19, 2017 04:15 EST
"Nutrient data for: 45315990, CHINESE STYLE EGG DROP SOUP MIX, UPC: 070670001942"
Food Group:  Branded Food Products Database
Common Name:

Nutrient,Unit,Data points,Std. Error,"0.25 PACKET = 10.0g",1Value per 100 g,
Proximates
"Energy",kcal,--,--,30,300
"Protein",g,--,--,0.00,0.00
"Total lipid (fat)",g,--,--,0.00,0.00
"Carbohydrate, by difference",g,--,--,8.00,80.00
"Sugars, total",g,--,--,2.00,20.00
Minerals
"Sodium, Na",mg,--,--,730,7300
Vitamins
Lipids
Amino Acids
Other
Ingredients
"POTATO STARCH, SUGAR, SALT, CORN STARCH, ONION POWDER, NATURAL FLAVOR (FLAVOR, SALT, YEAST EXTRACT, AND MALTODEXTRIN), SPICE EXTRACTS (FOR COLOR AND FLAVOR)." Date available: 09/25/2017 Date last updated by company: 09/25/2017
