Source: USDA Branded Food Products Database Release December 2017 Software v.3.8.6.4 2017-10-02
Report Run at: December 19, 2017 04:16 EST
"Nutrient data for: 45197000, CHINESE STYLE LOBSTER EGG ROLLS, UPC: 042203302109"
Food Group:  Branded Food Products Database
Common Name:

Nutrient,Unit,Data points,Std. Error,"1 PIECE = 85.0g",1Value per 100 g,
Proximates
"Energy",kcal,--,--,140,165
"Protein",g,--,--,5.00,5.88
"Total lipid (fat)",g,--,--,3.00,3.53
"Carbohydrate, by difference",g,--,--,22.00,25.88
"Fiber, total dietary",g,--,--,1.0,1.2
"Sugars, total",g,--,--,3.00,3.53
Minerals
"Calcium, Ca",mg,--,--,30,35
"Iron, Fe",mg,--,--,0.36,0.42
"Sodium, Na",mg,--,--,540,635
Vitamins
"Vitamin C, total ascorbic acid",mg,--,--,1.8,2.1
"Vitamin A, IU",IU,--,--,0,0
Lipids
"Fatty acids, total saturated",g,--,--,1.003,1.180
"Fatty acids, total trans",g,--,--,0.000,0.000
"Cholesterol",mg,--,--,0,0
Amino Acids
Other
Ingredients
"BLEACHED ENRICHED WHEAT FLOUR (NIACIN, REDUCED IRON,THIAMINE MONO-NITRATE, RIBOFLAVIN, FOLIC ACID, MALTED BARLEY FLOIC ACID, MALTED BARLEY FLOUR, POTASSIUM BROMATE), CARBBAGE, CELERY, WATER, SOY BEAN OIL AND/OR CANOLA OIL (TBHQ & CITRIC ACID ADDED), CARROT, LOBSTER (SALT, SODIUM TRIPOLYPHOSPHATE ADDED (TO RETAIN MOISTURE), ONION, WHOLE EGG, SALT, SUGAR, SOY SAUCE (WATER, WHEAT, SOYBEANS, SALT, LESS THAN 0.1 OF 1% SODIUM BENZOATE ADDED AS A PRESERVATIVE), CORN STARCH, SESAME SEED OIL, SPICES, XANTHAN GUM, FD&C YELLOW #5 AND #6." Date available: 07/14/2017 Date last updated by company: 07/14/2017
