Source: USDA Branded Food Products Database Release December 2017 Software v.3.8.6.4 2017-10-02
Report Run at: December 19, 2017 04:22 EST
"Nutrient data for: 45217584, CHIPOTLE SALSA, UPC: 04656702515"
Food Group:  Branded Food Products Database
Common Name:

Nutrient,Unit,Data points,Std. Error,"2.0 Tbsp = 32.0g",1Value per 100 g,
Proximates
"Energy",kcal,--,--,15,47
"Protein",g,--,--,0.00,0.00
"Total lipid (fat)",g,--,--,0.00,0.00
"Carbohydrate, by difference",g,--,--,3.00,9.38
"Fiber, total dietary",g,--,--,1.0,3.1
"Sugars, total",g,--,--,1.00,3.12
Minerals
"Calcium, Ca",mg,--,--,0,0
"Iron, Fe",mg,--,--,0.56,1.75
"Sodium, Na",mg,--,--,190,594
Vitamins
"Vitamin C, total ascorbic acid",mg,--,--,9.4,29.3
"Vitamin A, IU",IU,--,--,781,2441
Lipids
"Fatty acids, total saturated",g,--,--,0.000,0.000
"Fatty acids, total trans",g,--,--,0.000,0.000
"Cholesterol",mg,--,--,0,0
Amino Acids
Other
Ingredients
"DICED TOMATOES, ROASTED YELLOW ONIONS, WATER, TOMATO PUREE (WATER, TOMATO PASTE), JALAPENO PEPPERS, RED BELL PEPPERS, GREEN BELL PEPPERS, CORN SYRUP, ROASTED RED BELL PEPPERS, SALT, VINEGAR, SUGAR, NATURAL FLAVORS, CHIPOTLE CHILI PEPPERS*, GARLIC, SOYBEAN OIL, ANCHO CHILI PEPPERS*, CULTURED WHEY, CHILI PEPPERS*, CILANTRO*." Date available: 07/14/2017 Date last updated by company: 07/14/2017
