Source: USDA Branded Food Products Database Release December 2017 Software v.3.8.6.4 2017-10-02
Report Run at: December 19, 2017 04:20 EST
"Nutrient data for: 45204263, CHIPOTLE MUSTARD, UPC: 863702000019"
Food Group:  Branded Food Products Database
Common Name:

Nutrient,Unit,Data points,Std. Error,"1 tsp = 5.0g",1Value per 100 g,
Proximates
"Energy",kcal,--,--,5,100
"Protein",g,--,--,0.00,0.00
"Total lipid (fat)",g,--,--,0.00,0.00
"Carbohydrate, by difference",g,--,--,1.00,20.00
Minerals
"Sodium, Na",mg,--,--,45,900
Vitamins
Lipids
Amino Acids
Other
Ingredients
"VINEGAR, MUSTARD SEED, CHIPOTLE PEPPERS IN ADOBO SAUCE (CHIPOTLE PEPPERS, TOMATOES, VINEGAR, ONIONS, VEGETABLE OIL, SUGAR, SALT, PAPRIKA, GARLIC, SPICES) MUSTARD POWDER, WATER, SPICES, SALT." Date available: 07/14/2017 Date last updated by company: 07/14/2017
