Source: USDA Branded Food Products Database Release December 2017 Software v.3.8.6.4 2017-10-02
Report Run at: December 19, 2017 04:19 EST
"Nutrient data for: 45170350, CHIPOTLE CHILLI MAYONNAISE, UPC: 5060103391370"
Food Group:  Branded Food Products Database
Common Name:

Nutrient,Unit,Data points,Std. Error,"15.0 GRM = 15.0g",1Value per 100 g,
Proximates
"Energy",kcal,--,--,95,633
"Protein",g,--,--,0.30,2.00
"Total lipid (fat)",g,--,--,10.20,68.00
"Carbohydrate, by difference",g,--,--,0.30,2.00
"Fiber, total dietary",g,--,--,0.0,0.0
"Sugars, total",g,--,--,0.30,2.00
Minerals
"Calcium, Ca",mg,--,--,0,0
"Iron, Fe",mg,--,--,0.18,1.20
"Sodium, Na",mg,--,--,0,1
Vitamins
"Vitamin C, total ascorbic acid",mg,--,--,0.0,0.0
"Vitamin A, IU",IU,--,--,50,333
Lipids
"Fatty acids, total saturated",g,--,--,0.799,5.330
"Fatty acids, total trans",g,--,--,0.000,0.000
"Cholesterol",mg,--,--,19,127
Amino Acids
Other
Ingredients
"CHIPOTLE CHILLI MAYONNAISE 195G: RAPESSED OIL (66%), FREE RANGE PASTEURIZED EGG YOLK (12%) (EGG YOLK, SALT), WATER, CHIPOTLE CHILLI PASTE (6%) (CHIPOTLE PUREE, WATER, VINEGAR, SALT, TOMATO PUREE), WHITE GRAPE VINEGAR, SUGAR, DIJON MUSTARD (WATER, MUSTARD SEEDS, SPIRIT VINEGAR, SALT), CONCENTRATED LEMON JUICE." Date available: 07/14/2017 Date last updated by company: 07/14/2017
