Source: USDA Branded Food Products Database Release December 2017 Software v.3.8.6.4 2017-10-02
Report Run at: December 19, 2017 04:20 EST
"Nutrient data for: 45221340, CHIPOTLE KETCHUP, UPC: 788624097193"
Food Group:  Branded Food Products Database
Common Name:

Nutrient,Unit,Data points,Std. Error,"1 Tbsp = 17.0g",1Value per 100 g,
Proximates
"Energy",kcal,--,--,50,294
"Protein",g,--,--,0.00,0.00
"Total lipid (fat)",g,--,--,1.00,5.88
"Carbohydrate, by difference",g,--,--,12.00,70.59
"Fiber, total dietary",g,--,--,0.0,0.0
"Sugars, total",g,--,--,5.00,29.41
Minerals
"Calcium, Ca",mg,--,--,0,0
"Iron, Fe",mg,--,--,0.00,0.00
"Sodium, Na",mg,--,--,25,147
Vitamins
"Vitamin C, total ascorbic acid",mg,--,--,8.1,47.8
"Vitamin A, IU",IU,--,--,338,1988
Lipids
"Fatty acids, total saturated",g,--,--,0.000,0.000
"Fatty acids, total trans",g,--,--,0.000,0.000
"Cholesterol",mg,--,--,0,0
Amino Acids
Other
Ingredients
"TOMATOES (TOMATOES, TOMATO JUICE, SALT, CITRIC ACID, CALCIUM CHLORIDE), CORN SYRUP (CORN SYRUP, WATER, POTASSIUM SORBATE, PHOSPHORIC ACID, NATURAL FLAVORS), RED WINE VINEGAR, MAPLE SYRUP, RED ONION, OLIVE OIL, BROWN SUGAR, CELERY, SPICES, GARLIC, JALAPENO PEPPER, SWEET BASIL, SMOKED PAPRIKA, ONION POWDER." Date available: 09/28/2017 Date last updated by company: 09/28/2017
