Source: USDA Branded Food Products Database Release December 2017 Software v.3.8.6.4 2017-10-02
Report Run at: December 19, 2017 04:25 EST
"Nutrient data for: 45149514, CHIPS, UPC: 737094215781"
Food Group:  Branded Food Products Database
Common Name:

Nutrient,Unit,Data points,Std. Error,"0.5 cup = 30.0g",1Value per 100 g,
Proximates
"Energy",kcal,--,--,150,500
"Protein",g,--,--,0.00,0.00
"Total lipid (fat)",g,--,--,6.00,20.00
"Carbohydrate, by difference",g,--,--,22.00,73.33
"Fiber, total dietary",g,--,--,3.0,10.0
"Sugars, total",g,--,--,15.00,50.00
Minerals
"Calcium, Ca",mg,--,--,0,0
"Iron, Fe",mg,--,--,0.48,1.60
"Sodium, Na",mg,--,--,20,67
Vitamins
"Vitamin C, total ascorbic acid",mg,--,--,1.6,5.3
"Vitamin A, IU",IU,--,--,0,0
Lipids
"Fatty acids, total saturated",g,--,--,0.501,1.670
Amino Acids
Other
Ingredients
"APPLE, CANOLA OIL, DEXTRIN." Date available: 07/14/2017 Date last updated by company: 07/14/2017
