Source: USDA Branded Food Products Database Release December 2017 Software v.3.8.6.4 2017-10-02
Report Run at: December 19, 2017 04:20 EST
"Nutrient data for: 45274170, CHIPOTLE PASTA, UPC: 601732818125"
Food Group:  Branded Food Products Database
Common Name:

Nutrient,Unit,Data points,Std. Error,"4.0 ONZ = 113.0g",1Value per 100 g,
Proximates
"Energy",kcal,--,--,125,111
"Protein",g,--,--,8.99,7.96
"Total lipid (fat)",g,--,--,0.99,0.88
"Carbohydrate, by difference",g,--,--,22.00,19.47
"Fiber, total dietary",g,--,--,2.0,1.8
"Sugars, total",g,--,--,0.99,0.88
Minerals
"Calcium, Ca",mg,--,--,0,0
"Iron, Fe",mg,--,--,2.79,2.47
"Sodium, Na",mg,--,--,25,22
Vitamins
"Vitamin C, total ascorbic acid",mg,--,--,2.6,2.3
"Vitamin A, IU",IU,--,--,774,685
Lipids
"Fatty acids, total saturated",g,--,--,0.000,0.000
"Fatty acids, total trans",g,--,--,0.000,0.000
"Cholesterol",mg,--,--,0,0
Amino Acids
Other
Ingredients
"PENNE PASTA: PASTA: ENRICHED DURUM SEMOLINA (NIACIN, FERROUS, TRIAMINE MONONITRATE, RIBOFLAVIN, FOLIC ACID. MAY CONTAIN EGG), CHIPOTLE SAUCE: (CRUSHED TOMATOES, TOMATO SAUCE, CHIPOTLE PEPPERS, VEGETABLE OIL, PINTO BEANS, ROASTED RED PEPPERS, FRESH GARLIC, DISTILLED WHITE VINEGAR, SEA SALT, OREGANO, ROSEMARY, BASIL, RED PEPPER, GRANULATED GARLIC, GRANULATED ONION POWDER, ONION, PARSLEY, PAPRIKA AND CELERY)" Date available: 07/14/2017 Date last updated by company: 07/14/2017
