Source: USDA Branded Food Products Database Release December 2017 Software v.3.8.6.4 2017-10-02
Report Run at: December 19, 2017 04:19 EST
"Nutrient data for: 45050915, CHIPOTLE GARLIC SALSA, UPC: 681131329286"
Food Group:  Branded Food Products Database
Common Name:

Nutrient,Unit,Data points,Std. Error,"2.0 Tbsp = 28.0g",1Value per 100 g,
Proximates
"Energy",kcal,--,--,10,36
"Protein",g,--,--,0.00,0.00
"Total lipid (fat)",g,--,--,0.00,0.00
"Carbohydrate, by difference",g,--,--,2.00,7.14
"Fiber, total dietary",g,--,--,0.0,0.0
"Sugars, total",g,--,--,1.00,3.57
Minerals
"Calcium, Ca",mg,--,--,0,0
"Iron, Fe",mg,--,--,0.00,0.00
"Sodium, Na",mg,--,--,125,446
Vitamins
"Vitamin C, total ascorbic acid",mg,--,--,6.4,22.9
"Vitamin A, IU",IU,--,--,357,1275
Lipids
"Fatty acids, total saturated",g,--,--,0.000,0.000
"Fatty acids, total trans",g,--,--,0.000,0.000
"Cholesterol",mg,--,--,0,0
Amino Acids
Other
Ingredients
"TOMATOES WITH SEASONING (TOMATOES, TOMATO JUICE, SUGAR, SALT, SEASONING [DEHYDRATED ONION, CITRIC ACID, DEHYDRATED CELERY, DEHYDRATED GARLIC], JALAPENO PEPPER, VINEGAR, CALCIUM CHLORIDE), ONION, JALAPENO PEPPER, CILANTRO, VINEGAR, GREEN BELL PEPPER, GARLIC, SALT, SUGAR, CHIPOTLE POWDER, CUMIN, LIME JUICE, CITRIC ACID." Date available: 06/25/2017 Date last updated by company: 06/25/2017
