Source: USDA Branded Food Products Database Release December 2017 Software v.3.8.6.4 2017-10-02
Report Run at: December 19, 2017 04:21 EST
"Nutrient data for: 45324483, CHIPOTLE PORK SAUSAGE, UPC: 759661825612"
Food Group:  Branded Food Products Database
Common Name:

Nutrient,Unit,Data points,Std. Error,"4.0 ONZ = 112.0g",1Value per 100 g,
Proximates
"Energy",kcal,--,--,280,250
"Protein",g,--,--,17.00,15.18
"Total lipid (fat)",g,--,--,20.00,17.86
"Carbohydrate, by difference",g,--,--,6.00,5.36
"Fiber, total dietary",g,--,--,1.0,0.9
"Sugars, total",g,--,--,2.00,1.79
Minerals
"Calcium, Ca",mg,--,--,20,18
"Iron, Fe",mg,--,--,0.71,0.63
"Sodium, Na",mg,--,--,670,598
Vitamins
"Vitamin C, total ascorbic acid",mg,--,--,1.2,1.1
"Vitamin A, IU",IU,--,--,196,175
Lipids
"Fatty acids, total saturated",g,--,--,7.000,6.250
"Cholesterol",mg,--,--,69,62
Amino Acids
Other
Ingredients
"PORK, CHIPOTLE PEPPERS IN SAUCE (CHIPOTLE PEPPERS, WATER, TOMATO PUREE, VEGETABLE OIL (CORN OR SAFFLOWER), WHEAT FLOUR, SALT, VINEGAR, STARCH, ONION POWDER, GARLIC POWDER, CARAMEL COLOR, SPICES), POTATO STARCH, TOMATO POWDER, SALT, SUGAR, DEHYDRATED ONION, CITRUS FIBER, DEHYDRATED GARLIC, CHIPOTLE FLAVOR (SUNFLOWER OIL, NATURAL FLAVOR, EXTRACTIVES OF PAPRIKA), GROUND CUMIN, NATURAL FLAVOR, PACKED IN NATURAL PORK CASING." Date available: 08/10/2017 Date last updated by company: 08/10/2017
