Source: USDA Branded Food Products Database Release December 2017 Software v.3.8.6.4 2017-10-02
Report Run at: December 19, 2017 05:21 EST
"Nutrient data for: 45161580, CHOCOLATERIE, DONUT CHOCOLATES, UPC: 819952010261"
Food Group:  Branded Food Products Database
Common Name:

Nutrient,Unit,Data points,Std. Error,"1 PIECES = 19.5g",1Value per 100 g,
Proximates
"Energy",kcal,--,--,120,615
"Protein",g,--,--,1.00,5.13
"Total lipid (fat)",g,--,--,7.00,35.90
"Carbohydrate, by difference",g,--,--,10.00,51.28
"Fiber, total dietary",g,--,--,1.0,5.1
"Sugars, total",g,--,--,9.00,46.15
Minerals
"Calcium, Ca",mg,--,--,20,103
"Iron, Fe",mg,--,--,4.06,20.82
"Sodium, Na",mg,--,--,15,77
Vitamins
"Vitamin C, total ascorbic acid",mg,--,--,0.0,0.0
"Vitamin A, IU",IU,--,--,0,0
Lipids
"Fatty acids, total saturated",g,--,--,5.000,25.640
"Fatty acids, total trans",g,--,--,0.000,0.000
"Cholesterol",mg,--,--,5,26
Amino Acids
Other
Ingredients
"SUGAR, MILK CHOCOLATE (SUGAR, COCOA BUTTER, MILK, UNSWEETENED CHOCOLATE, LACTOSE, NATURAL FLAVOR, SOY LECITHIN AS AN EMULSIFIER), WHITE CHOCOLATE (SUGAR, COCOA BUTTER, MILK, SOY LECITHIN AS AN EMULSIFIER, VANILLA FLAVOR), DARK CHOCOLATE (UNSWEETENED CHOCOLATE, SUGAR, COCOA BUTTER, BUTTERFAT, SOY LECITHIN AS AN EMULSIFIER), VEGETABLE OILS (PALM. SUNFLOWER), MIX OF WHITE AND MILK CHOCOLATE (SUGAR, COCOA BUTTER, MILK, UNSWEETENED CHOCOLATE, NATURAL FLAVOR, SOY LECITHIN AS AN EMULSIFIER). VEGETABLE FATS (COCONUT, PALM, PALM KERNEL, SUNFLOWER), COCOA BUTTER, UNSWEETENED CHOCOLATE, MILK, NONFAT MILK. CONTAINS LESS THAN 2% OF THE FOLLOWING: BUTTERFAT, LACTOSE, WHEY POWDER, PINK CHOCOLATE (SUGAR, COCOA BUTTER, MILK, NONFAT MILK, SOY LECITHIN AS AN EMULSIFIER, NATURAL FLAVOR. CARMINE), SOY LECITHIN AS AN EMULSIFIER, NATURAL FLAVOR. STRAWBERRY. FOOD STARCH, GLUCOSE SYRUP, SPICE, BEESWAX, COLOR ADDED (PAPRIKA EXTRACT, TURMERIC)." Date available: 09/06/2017 Date last updated by company: 09/06/2017
