Source: USDA Branded Food Products Database Release December 2017 Software v.3.8.6.4 2017-10-02
Report Run at: December 19, 2017 04:58 EST
"Nutrient data for: 45274555, CHOCOLATE CRANBERRY CRUNCH TRAIL MIX, UPC: 085239880500"
Food Group:  Branded Food Products Database
Common Name:

Nutrient,Unit,Data points,Std. Error,"0.25 cup = 36.0g",1Value per 100 g,
Proximates
"Energy",kcal,--,--,170,472
"Protein",g,--,--,3.00,8.33
"Total lipid (fat)",g,--,--,10.00,27.78
"Carbohydrate, by difference",g,--,--,20.00,55.56
"Fiber, total dietary",g,--,--,2.0,5.6
"Sugars, total",g,--,--,14.00,38.89
Minerals
"Calcium, Ca",mg,--,--,40,111
"Iron, Fe",mg,--,--,0.80,2.22
"Sodium, Na",mg,--,--,10,28
Vitamins
"Vitamin C, total ascorbic acid",mg,--,--,0.0,0.0
"Vitamin A, IU",IU,--,--,0,0
Lipids
"Fatty acids, total saturated",g,--,--,1.501,4.170
"Fatty acids, total trans",g,--,--,0.000,0.000
"Cholesterol",mg,--,--,0,0
Amino Acids
Other
Ingredients
"ALMONDS, MILK CHOCOLATE CRANBERRIES (MILK CHOCOLATE [SUGAR, WHOLE MILK, COCOA BUTTER, CHOCOLATE LIQUOR, SOY LECITHIN, VANILLA], DRIED SWEETENED CRANBERRIES [CRANBERRIES, SUGAR, SUNFLOWER OIL], GUM ACACIA, SUGAR, CONFECTIONER'S GLAZE), RAISINS COATED WITH LESS THAN 1% SUNFLOWER AND/OR CANOLA OIL, DRIED SWEETENED PINEAPPLE (PINEAPPLE, SUGAR, CITRIC ACID), WALNUTS, VEGETABLE OIL (PEANUT, COTTONSEED, SOYBEAN AND/OR SUNFLOWER SEED)." Date available: 07/14/2017 Date last updated by company: 07/14/2017
