Source: USDA Branded Food Products Database Release December 2017 Software v.3.8.6.4 2017-10-02
Report Run at: December 19, 2017 04:53 EST
"Nutrient data for: 45287837, CHOCOLATE COATED COOKIES WITH PEANUTS & CREAM FILLING, UPC: 858218006365"
Food Group:  Branded Food Products Database
Common Name:

Nutrient,Unit,Data points,Std. Error,"2.0 COOKIES = 30.0g",1Value per 100 g,
Proximates
"Energy",kcal,--,--,160,533
"Protein",g,--,--,1.00,3.33
"Total lipid (fat)",g,--,--,9.00,30.00
"Carbohydrate, by difference",g,--,--,17.00,56.67
"Fiber, total dietary",g,--,--,0.0,0.0
"Sugars, total",g,--,--,10.00,33.33
Minerals
"Sodium, Na",mg,--,--,15,50
Vitamins
Lipids
"Fatty acids, total saturated",g,--,--,6.000,20.000
"Fatty acids, total trans",g,--,--,0.501,1.670
"Cholesterol",mg,--,--,0,0
Amino Acids
Other
Ingredients
"FILLING (SUGAR, SUNFLOWER OIL, WHEY POWDER, SOY FLOUR, FULLY HYDROGENATED PALM OIL), EMULSIFIER (SOY LECITHIN), ARTIFICIAL FLAVOR), COCOA TOPPING (SUGAR, FULLY HYDROGENATED PALM OIL, COCOA POWDER, CORN STARCH, EMULSIFIERS (PGPR, SOY LECITHIN), ARTIFICIAL FLAVOR), FLOUR, SUGAR, PEANUTS, PALM OIL, MILK POWDER, SOY FLOUR, LEAVENING (SODIUM BICARBONATE, AMMONIUM BICARBONATE, SALT, EMULSIFIER (SOY LECITHIN), ARTIFICIAL FLAVOR." Date available: 09/22/2017 Date last updated by company: 09/22/2017
