Source: USDA Branded Food Products Database Release December 2017 Software v.3.8.6.4 2017-10-02
Report Run at: December 19, 2017 05:16 EST
"Nutrient data for: 45105445, CHOCOLATE NEGRO 65% COCOA DARK CHOCOLATE, UPC: 666785203212"
Food Group:  Branded Food Products Database
Common Name:

Nutrient,Unit,Data points,Std. Error,"3.0 BLOCKS. = 37.5g",1Value per 100 g,
Proximates
"Energy",kcal,--,--,210,560
"Protein",g,--,--,1.00,2.67
"Total lipid (fat)",g,--,--,14.00,37.33
"Carbohydrate, by difference",g,--,--,19.00,50.67
"Fiber, total dietary",g,--,--,2.0,5.3
"Sugars, total",g,--,--,15.00,40.00
Minerals
"Calcium, Ca",mg,--,--,0,0
"Iron, Fe",mg,--,--,3.60,9.60
"Sodium, Na",mg,--,--,5,13
Vitamins
"Vitamin C, total ascorbic acid",mg,--,--,0.0,0.0
"Vitamin A, IU",IU,--,--,0,0
Lipids
"Fatty acids, total saturated",g,--,--,7.999,21.330
"Fatty acids, total trans",g,--,--,0.000,0.000
"Cholesterol",mg,--,--,0,0
Amino Acids
Other
Ingredients
"CHOCOLATE LIQUOR; SUGAR; COCOA BUTTER VANILLA; LECITHIN, AN EMULSIFIER." Date available: 06/25/2017 Date last updated by company: 06/25/2017
