Source: USDA Branded Food Products Database Release December 2017 Software v.3.8.6.4 2017-10-02
Report Run at: December 19, 2017 04:40 EST
"Nutrient data for: 45318601, CHOCOLATE CANDIES, UPC: 040000486633"
Food Group:  Branded Food Products Database
Common Name:

Nutrient,Unit,Data points,Std. Error,"1 PACK = 39.7g",1Value per 100 g,
Proximates
"Energy",kcal,--,--,190,479
"Protein",g,--,--,2.00,5.04
"Total lipid (fat)",g,--,--,8.00,20.15
"Carbohydrate, by difference",g,--,--,28.00,70.53
"Fiber, total dietary",g,--,--,1.0,2.5
"Sugars, total",g,--,--,25.00,62.97
Minerals
"Calcium, Ca",mg,--,--,40,101
"Iron, Fe",mg,--,--,0.45,1.14
"Sodium, Na",mg,--,--,30,76
Vitamins
"Vitamin C, total ascorbic acid",mg,--,--,0.0,0.0
"Vitamin A, IU",IU,--,--,0,0
Lipids
"Fatty acids, total saturated",g,--,--,4.998,12.590
"Fatty acids, total trans",g,--,--,0.000,0.000
"Cholesterol",mg,--,--,5,13
Amino Acids
Other
Ingredients
"MILK CHOCOLATE (SUGAR, CHOCOLATE, SKIM MILK, COCOA BUTTER, LACTOSE, MILKFAT, SOY LECITHIN, SALT, ARTIFICIAL FLAVORS), SUGAR, CORNSTARCH, LESS THAN 1% - CORN SYRUP, DEXTRIN, COLORING (INCLUDES BLUE 1 LAKE, RED 40, YELLOW 5, BLUE 1, RED 40 LAKE, YELLOW 5 LAKE, YELLOW 6, YELLOW 6 LAKE, BLUE 2, BLUE 2 LAKE), ARTIFICIAL AND NATURAL FLAVORS, GUM ACACIA." Date available: 07/14/2017 Date last updated by company: 07/14/2017
