Source: USDA Branded Food Products Database Release December 2017 Software v.3.8.6.4 2017-10-02
Report Run at: December 19, 2017 05:30 EST
"Nutrient data for: 45289374, CHOCOLATE WAFER BITES., UPC: 050428567685"
Food Group:  Branded Food Products Database
Common Name:

Nutrient,Unit,Data points,Std. Error,"8.0 PIECES = 30.0g",1Value per 100 g,
Proximates
"Energy",kcal,--,--,150,500
"Protein",g,--,--,2.00,6.67
"Total lipid (fat)",g,--,--,8.00,26.67
"Carbohydrate, by difference",g,--,--,18.00,60.00
"Fiber, total dietary",g,--,--,1.0,3.3
"Sugars, total",g,--,--,11.00,36.67
Minerals
"Calcium, Ca",mg,--,--,12,40
"Iron, Fe",mg,--,--,2.00,6.67
"Potassium, K",mg,--,--,0,0
"Sodium, Na",mg,--,--,50,167
Vitamins
"Vitamin D",IU,--,--,0,0
Lipids
"Fatty acids, total saturated",g,--,--,6.000,20.000
"Fatty acids, total trans",g,--,--,0.000,0.000
"Cholesterol",mg,--,--,0,0
Amino Acids
Other
Ingredients
"COCOA CREAM (SUGAR, NON-HYDROGENATED VEGETABLE OIL [COCONUT AND/OR PALM OIL], COCOA POWDER, COCOA MASS, CORN STARCH, MILK POWDER, SOY LECITHIN, SALT, CITRIC ACID, ARTIFICIAL FLAVOR), WAFERS (WHEAT FLOUR, COCOA POWDER, NON-HYDROGENATED VEGETABLE OIL [PALM OIL], EGG, SALT, LEAVENING (AMMONIUM HYDROGEN CARBONATE), ARTIFICIAL FLAVOR)." Date available: 09/22/2017 Date last updated by company: 09/22/2017
