Source: USDA Branded Food Products Database Release December 2017 Software v.3.8.6.4 2017-10-02
Report Run at: December 19, 2017 05:32 EST
"Nutrient data for: 45219978, CHOCOLATEY COATED MATZOS, UPC: 073490132254"
Food Group:  Branded Food Products Database
Common Name:

Nutrient,Unit,Data points,Std. Error,"1 PIECE = 55.0g",1Value per 100 g,
Proximates
"Energy",kcal,--,--,270,491
"Protein",g,--,--,3.00,5.45
"Total lipid (fat)",g,--,--,11.00,20.00
"Carbohydrate, by difference",g,--,--,40.00,72.73
"Fiber, total dietary",g,--,--,1.0,1.8
"Sugars, total",g,--,--,16.00,29.09
Minerals
"Calcium, Ca",mg,--,--,0,0
"Iron, Fe",mg,--,--,0.98,1.78
"Sodium, Na",mg,--,--,5,9
Vitamins
"Vitamin C, total ascorbic acid",mg,--,--,0.0,0.0
"Vitamin A, IU",IU,--,--,0,0
Lipids
"Fatty acids, total saturated",g,--,--,8.998,16.360
"Fatty acids, total trans",g,--,--,0.000,0.000
"Cholesterol",mg,--,--,0,0
Amino Acids
Other
Ingredients
"COATED MATZO: WHEAT FLOUR, SUGAR, PALM OIL, COCOA POWDER, WATER, ARTIFICIAL VANILLA FLAVOR. SPRINKLES: SUGAR, TAPIOCA STARCH, ARTIFICIAL FD&C FOOD COLORS (YELLOW #5, YELLOW #6, RED #3, RED #40 AND BLUE #1)." Date available: 07/14/2017 Date last updated by company: 07/14/2017
