Source: USDA Branded Food Products Database Release December 2017 Software v.3.8.6.4 2017-10-02
Report Run at: December 19, 2017 05:10 EST
"Nutrient data for: 45287542, CHOCOLATE LOVER'S CAKE MIX, UPC: 4251601"
Food Group:  Branded Food Products Database
Common Name:

Nutrient,Unit,Data points,Std. Error,"1 POUCH = 72.0g",1Value per 100 g,
Proximates
"Energy",kcal,--,--,300,417
"Protein",g,--,--,4.00,5.56
"Total lipid (fat)",g,--,--,9.00,12.50
"Carbohydrate, by difference",g,--,--,53.00,73.61
"Fiber, total dietary",g,--,--,2.0,2.8
"Sugars, total",g,--,--,32.00,44.44
Minerals
"Calcium, Ca",mg,--,--,80,111
"Iron, Fe",mg,--,--,1.50,2.08
"Sodium, Na",mg,--,--,380,528
Vitamins
"Vitamin C, total ascorbic acid",mg,--,--,0.0,0.0
"Vitamin A, IU",IU,--,--,0,0
Lipids
"Fatty acids, total saturated",g,--,--,5.998,8.330
"Fatty acids, total trans",g,--,--,0.000,0.000
"Cholesterol",mg,--,--,40,56
Amino Acids
Other
Ingredients
"SUGAR, WHEAT FLOUR, PALM OIL AND PALM KERNEL OIL, COCOA POWDER PROCESSED WITH ALKALI, DRIED WHOLE EGGS, WHEAT STARCH, LEAVENING (SODIUM BICARBONATE, MONOCALCIUM PHOSPHATE, SODIUM ALUMINUM PHOSPHATE), COCOA POWDER, SALT, NATURAL FLAVOR, SOY LECITHIN, WHEY POWDER." Date available: 07/14/2017 Date last updated by company: 07/14/2017
