Source: USDA Branded Food Products Database Release December 2017 Software v.3.8.6.4 2017-10-02
Report Run at: December 19, 2017 05:34 EST
"Nutrient data for: 45324376, CHOCOLIT, UPC: 077245107016"
Food Group:  Branded Food Products Database
Common Name:

Nutrient,Unit,Data points,Std. Error,"2.0 tsp = 16.0g",1Value per 100 g,
Proximates
"Energy",kcal,--,--,60,375
"Protein",g,--,--,1.00,6.25
"Total lipid (fat)",g,--,--,0.50,3.12
"Carbohydrate, by difference",g,--,--,14.00,87.50
"Fiber, total dietary",g,--,--,0.0,0.0
Minerals
"Sodium, Na",mg,--,--,0,0
Vitamins
Lipids
Amino Acids
Other
Ingredients
"SUGAR, COCOA POWDER, SOY LECITHIN, ARTIFICIAL FLAVOR (VANILLIN)." Date available: 08/10/2017 Date last updated by company: 08/10/2017
