Source: USDA Branded Food Products Database Release December 2017 Software v.3.8.6.4 2017-10-02
Report Run at: December 19, 2017 04:35 EST
"Nutrient data for: 45263860, CHOCOLATE CAKE ROLLED WITH PEANUT BUTTER CREAMY FILLING, UPC: 888109111960"
Food Group:  Branded Food Products Database
Common Name:

Nutrient,Unit,Data points,Std. Error,"3.0 CAKES = 93.0g",1Value per 100 g,
Proximates
"Energy",kcal,--,--,380,409
"Protein",g,--,--,5.00,5.38
"Total lipid (fat)",g,--,--,17.00,18.28
"Carbohydrate, by difference",g,--,--,56.00,60.22
"Fiber, total dietary",g,--,--,3.0,3.2
"Sugars, total",g,--,--,42.00,45.16
Minerals
"Calcium, Ca",mg,--,--,20,22
"Iron, Fe",mg,--,--,1.24,1.33
"Sodium, Na",mg,--,--,210,226
Vitamins
"Vitamin C, total ascorbic acid",mg,--,--,0.0,0.0
"Vitamin A, IU",IU,--,--,0,0
Lipids
"Fatty acids, total saturated",g,--,--,9.998,10.750
"Fatty acids, total trans",g,--,--,0.000,0.000
"Cholesterol",mg,--,--,5,5
Amino Acids
Other
Ingredients
"SUGAR, WATER, BLEACHED ENRICHED WHEAT FLOUR [WHEAT FLOUR, NIACIN, FERROUS SULFATE (IRON), THIAMIN MONONITRATE, RIBOFLAVIN, FOLIC ACID], PEANUT BUTTER (DRY ROASTED PEANUTS, SALT, HYDROGENATED CANOLA AND/OR COTTONSEED OIL), HYDROGENATED PALM KERNEL OIL, CORN SYRUP, SHORTENING (PALM OIL, MONO AND DIGLYCERIDES), COCOA (PROCESSED WITH ALKALI), PEANUT MEAL, INVERT SYRUP. CONTAINS 2% OR LESS: WHEY, POLYDEXTROSE, GLYCERIN, EGGS, SOY FLOUR, MODIFIED WHEY, CALCIUM SODIUM CASEINATE, SOY PROTEIN ISOLATE, SOYBEAN OIL, WHEY PROTEIN CONCENTRATE, SOY LECITHIN, SALT, NATURAL AND ARTIFICIAL FLAVOR, DISTILLED MONOGLYCERIDES, MONO- AND DIGLYCERIDE, CARAMEL COLOR, SORBIC ACID AND NATAMYCIN (TO RETAIN FRESHNESS), LEAVENING (SODIUM ACID PYROPHOSPHATE, BAKING SODA, CORN STARCH, MONOCALCIUM PHOSPHATE), ENZYMES." Date available: 10/10/2017 Date last updated by company: 10/10/2017
