Source: USDA Branded Food Products Database Release December 2017 Software v.3.8.6.4 2017-10-02
Report Run at: December 19, 2017 05:07 EST
"Nutrient data for: 45257390, CHOCOLATE GOURMET TOPPING, UPC: 619140003583"
Food Group:  Branded Food Products Database
Common Name:

Nutrient,Unit,Data points,Std. Error,"1 tsp = 3.0g",1Value per 100 g,
Proximates
"Energy",kcal,--,--,12,400
"Protein",g,--,--,0.00,0.00
"Total lipid (fat)",g,--,--,0.00,0.00
"Carbohydrate, by difference",g,--,--,3.00,100.00
"Sugars, total",g,--,--,0.00,0.00
Minerals
"Sodium, Na",mg,--,--,0,0
Vitamins
Lipids
"Fatty acids, total trans",g,--,--,0.000,0.000
Amino Acids
Other
Ingredients
"MALTODEXTRIN, COCOA POWDER, SUGAR, NATURAL AND ARTIFICIAL FLAVOR, SILICON DIOXIDE (AS AN ANTI-CAKING AGENT), PARTIALLY HYDROGENATED VEGETABLE (SOYBEAN/COTTONSEED) OIL." Date available: 07/14/2017 Date last updated by company: 07/14/2017
