Source: USDA Branded Food Products Database Release December 2017 Software v.3.8.6.4 2017-10-02
Report Run at: December 19, 2017 05:01 EST
"Nutrient data for: 45051508, CHOCOLATE DIPPED CREAM PUFFS, UPC: 072036983121"
Food Group:  Branded Food Products Database
Common Name:

Nutrient,Unit,Data points,Std. Error,"5.0 PUFFS = 87.0g",1Value per 100 g,
Proximates
"Energy",kcal,--,--,340,391
"Protein",g,--,--,5.00,5.75
"Total lipid (fat)",g,--,--,24.00,27.59
"Carbohydrate, by difference",g,--,--,28.00,32.18
"Fiber, total dietary",g,--,--,1.0,1.1
"Sugars, total",g,--,--,21.00,24.14
Minerals
"Calcium, Ca",mg,--,--,60,69
"Iron, Fe",mg,--,--,2.48,2.85
"Sodium, Na",mg,--,--,50,57
Vitamins
"Vitamin C, total ascorbic acid",mg,--,--,0.0,0.0
"Vitamin A, IU",IU,--,--,690,793
Lipids
"Fatty acids, total saturated",g,--,--,14.999,17.240
"Fatty acids, total trans",g,--,--,0.000,0.000
"Cholesterol",mg,--,--,85,98
Amino Acids
Other
Ingredients
"WHIPPED DAIRY CREAM, SUGAR, EGGS, WATER, ENRICHED WHEAT FLOUR (WHEAT FLOUR, MALTED BARELY FLOUR, NIACIN, REDUCED IRON, THIAMINE MONONITRATE [VITAMIN B1], RIBOFLAVIN [VITAMIN B2], FOLIC ACID), COCONUT OIL, PALM OIL, WHOLE MILK POWDER, PALM KERNEL OIL, SOYBEAN OIL, SKIM MILK POWDER, COCOA POWDER, COCOA POWDER WITH ALKALI, MODIFIED POTATO STARCH, MILK FAT, COCOA BUTTER, CARBOXY METHYL CELLULOSE, SOYA LECITHIN, BOURBON VANILLA FLAVOR, VANILLA EXTRACT." Date available: 06/25/2017 Date last updated by company: 06/25/2017
