Source: USDA Branded Food Products Database Release December 2017 Software v.3.8.6.4 2017-10-02
Report Run at: December 19, 2017 05:34 EST
"Nutrient data for: 45280407, CHOCOLATY FAT FREE FROZEN YOGURT, UPC: 021130096787"
Food Group:  Branded Food Products Database
Common Name:

Nutrient,Unit,Data points,Std. Error,"0.5 cup = 71.0g",1Value per 100 g,
Proximates
"Energy",kcal,--,--,90,127
"Protein",g,--,--,3.00,4.23
"Total lipid (fat)",g,--,--,0.00,0.00
"Carbohydrate, by difference",g,--,--,19.00,26.76
"Fiber, total dietary",g,--,--,0.0,0.0
"Sugars, total",g,--,--,13.00,18.31
Minerals
"Calcium, Ca",mg,--,--,100,141
"Iron, Fe",mg,--,--,0.81,1.14
"Sodium, Na",mg,--,--,65,92
Vitamins
"Vitamin C, total ascorbic acid",mg,--,--,1.3,1.9
"Vitamin A, IU",IU,--,--,0,0
Lipids
"Fatty acids, total saturated",g,--,--,0.000,0.000
"Fatty acids, total trans",g,--,--,0.000,0.000
"Cholesterol",mg,--,--,0,0
Amino Acids
Other
Ingredients
"NONFAT MILK, SUGAR, CULTURED NONFAT MILK, CORN SYRUP, MILK*, MALTODEXTRIN, COCOA PROCESSED WITH ALKALI*, CONTAINS LESS THAN 2% OF: MONO- AND DIGLYCERIDES, CELLULOSE GEL, CELLULOSE GUM, LOCUST BEAN GUM, CARRAGEENAN, DEXTROSE." Date available: 07/14/2017 Date last updated by company: 07/14/2017
