Source: USDA Branded Food Products Database Release December 2017 Software v.3.8.6.4 2017-10-02
Report Run at: December 19, 2017 05:07 EST
"Nutrient data for: 45051234, CHOCOLATE GRAHAM, UPC: 041497556151"
Food Group:  Branded Food Products Database
Common Name:

Nutrient,Unit,Data points,Std. Error,"2.0 WHOLE CRACKERS = 31.0g",1Value per 100 g,
Proximates
"Energy",kcal,--,--,130,419
"Protein",g,--,--,2.00,6.45
"Total lipid (fat)",g,--,--,2.50,8.06
"Carbohydrate, by difference",g,--,--,24.00,77.42
"Fiber, total dietary",g,--,--,1.0,3.2
"Sugars, total",g,--,--,7.00,22.58
Minerals
"Iron, Fe",mg,--,--,1.74,5.62
"Sodium, Na",mg,--,--,135,435
Vitamins
Lipids
"Fatty acids, total saturated",g,--,--,0.499,1.610
"Fatty acids, total monounsaturated",g,--,--,0.499,1.610
"Fatty acids, total polyunsaturated",g,--,--,1.001,3.230
"Fatty acids, total trans",g,--,--,0.000,0.000
"Cholesterol",mg,--,--,0,0
Amino Acids
Other
Ingredients
"INGREDIENTS: ENRICHED FLOUR** (WHEAT FLOUR, NIACIN, REDUCED IRON, THAIMIN MONONITRATE {VITAMIN B1}, FOLIC ACID), SUGAR, CORN SYRUP, WHOLE WHEAT FLOUR**, VEGETABLE OIL (CONTAINS ONE OR MORE OF THE FOLLOWING: PALM, CANOLA, SOYBEAN), CHOCOLATE, COCOA (PROCESSED WITH ALKALI), CONTAINS TWO PERCENT OR LESS OF: LEAVENING (BAKING SODA, CALCIUM PHOSPHATE), HONEY, SALT, NATURAL AND ARTIFICIAL FLAVORS." Date available: 10/13/2017 Date last updated by company: 10/13/2017
