Source: USDA Branded Food Products Database Release December 2017 Software v.3.8.6.4 2017-10-02
Report Run at: December 19, 2017 04:54 EST
"Nutrient data for: 45267421, CHOCOLATE COIN, STAR OF DAVID DREIDEL PUCKER UPS GUMBALLS YELLOW CRYBABY TEARS MINI BEADS, UPC: 629014011903"
Food Group:  Branded Food Products Database
Common Name:

Nutrient,Unit,Data points,Std. Error,"0.045 KIT = 47.0g",1Value per 100 g,
Proximates
"Energy",kcal,--,--,180,383
"Protein",g,--,--,2.00,4.26
"Total lipid (fat)",g,--,--,5.00,10.64
"Carbohydrate, by difference",g,--,--,34.00,72.34
"Fiber, total dietary",g,--,--,2.0,4.3
"Sugars, total",g,--,--,22.00,46.81
Minerals
"Calcium, Ca",mg,--,--,0,0
"Iron, Fe",mg,--,--,0.72,1.53
"Sodium, Na",mg,--,--,120,255
Vitamins
"Vitamin C, total ascorbic acid",mg,--,--,0.0,0.0
"Vitamin A, IU",IU,--,--,0,0
Lipids
"Fatty acids, total saturated",g,--,--,2.500,5.320
"Fatty acids, total trans",g,--,--,0.000,0.000
"Cholesterol",mg,--,--,0,0
Amino Acids
Other
Ingredients
"GINGERBREAD: ENRICHED BLEACHED WHEAT FLOUR (WHEAT FLOUR, ASCORBIC ACID, ENZYME, NIACIN, IRON, THIAMIN MONONITRATE, RIBOFLAVIN, FOLIC ACID), SUGAR, SHORTEING (PALM AND MODIFIED PALM OILS), MOLASSES, WATER, CINNAMON, LEAVENING (SODIUM BICARBONATE), GINGER, SALT, CARAMEL COLOR. PRE-MADE ICING: POWDERED SUGAR, WATER, PALM OIL, CORN SYRUP, CORNSTARCH, MODIFIED CORNSTARCH, SALT, EMULSIFIERS (MONO- AND DIGLYCERIDES, POLYSORBATE 60), ARTIFICIAL FLAVOR, COLORS (TITANIUM DIOXIDE, FD&C YELLOW 5, FD&C BLUE 1, FD&C RED 40), PRESERVATIVE - POTASSIUM SORBATE, CITRIC ACID. GUM BELLS: SUGAR, DEXTROSE, CORN SYRUP, GUM BASE (SOY), CORNSTARCH, NATURAL AND ARTIFICIAL FLAVORS, GLYCERINE, TAPICOA DEXTRIN, COLORS (TITANIUM DIOXIDE, FD&C RED 40, FD&C YELLOW 5, FD&C BLUE 1), CONFECTIONER'S GLAZE, CARNAUBA WAX, BHT (TO MAINTAIN FRESHNESS). PUCKER UP CANDY: DEXTROSE, CORN SYRUP, CITRIC ACID, CALCIUM STEARATE, TAPIOCA DEXTRIN, COLORS (TITANIUM DIOXIDE, FD&C RED 40, FD&C YELLOW 5, FD&C YELLOW 6, FD&C BLUE 1). CONFECTIONER'S GLAZE, CARNAUBA WAX, ARTIFICIAL FLAVORS, MINI BEADS: DEXTROSE, CORN SYRUP, CITRIC ACID, CALCIUM STEARATE, TAPIOCA DEXTRIN, COLORS (TITANIUM DIOXIDE, FD&C RED 40, FD&C YELLOW 5, FD&C YELLOW 6, FD&C BLUES 1), CONFECTIONER'S GLAZE, CARNAUBA WAX, ARTIFICIAL FLAVORS. CRYBABY TEARS: DEXTROSE, CORN SYRUP, CITRIC ACID, CALCIUM STEARATE, TAPIOCA DEXTRIN, COLORS (TITANIUM DIOXIDE, FD&C YELLOW 5), CONFECTIONER'S GLAZE, CARNAUBA WAX, ARTIFICIAL FLAVORS. CHOCOLATE COINS: MILK CHOCOLATE, SOY LECITHIN (AN EMULSIFIER), ARTIFICIAL FLAVOR), SUGAR DREIDEL, SUGAR, EGG WHITE SOLIDS, MODIFIED CORNSTARCH, COLOR (FD&C BLUE 1, FD&C BLUE 2, FD&C RED 3, FD&C RED 40, FD&C YELLOW 5, FD&C RED 3, FD&C YELLOW 6). STAR OF DAVID: SUGAR, EGG WHITE SOLIDS, MODIFIED CORNSTARCH, FD&C BLUE 1." Date available: 04/13/2017 Date last updated by company: 04/13/2017
