Source: USDA Branded Food Products Database Release December 2017 Software v.3.8.6.4 2017-10-02
Report Run at: December 19, 2017 05:06 EST
"Nutrient data for: 45192271, CHOCOLATE FUDGE PIE WITH WHIPPED TOPPING, UPC: 722515913964"
Food Group:  Branded Food Products Database
Common Name:

Nutrient,Unit,Data points,Std. Error,"0.333 PIE = 106.0g",1Value per 100 g,
Proximates
"Energy",kcal,--,--,420,396
"Protein",g,--,--,5.00,4.72
"Total lipid (fat)",g,--,--,24.00,22.64
"Carbohydrate, by difference",g,--,--,47.00,44.34
"Fiber, total dietary",g,--,--,3.0,2.8
"Sugars, total",g,--,--,32.00,30.19
Minerals
"Calcium, Ca",mg,--,--,60,57
"Iron, Fe",mg,--,--,1.70,1.60
"Sodium, Na",mg,--,--,280,264
Vitamins
"Vitamin C, total ascorbic acid",mg,--,--,0.0,0.0
"Vitamin A, IU",IU,--,--,236,223
Lipids
"Fatty acids, total saturated",g,--,--,8.003,7.550
"Fatty acids, total trans",g,--,--,0.000,0.000
"Cholesterol",mg,--,--,35,33
Amino Acids
Other
Ingredients
"FILLING (SUGAR, WATER, CANOLA OIL (WITH CITRIC ACID), EGGS, NONFAT DRY MILK, COCOA, CORN SYRUP SOLIDS, SOYBEAN OIL, WHEAT AND MALTED BARLEY FLOUR (CONTAINS NIACIN, REDUCED IRON, THIAMIN, RIBOFLAVIN, FOLIC ACID), MODIFIED FOOD STARCH, PALM OIL, SALT, SOY LECITHIN, ARTIFICIAL FLAVOR, MONO AND DIGLYCERIDES), CRUST (WHEAT FLOUR, VEGETABLE SHORTENING (PALM OIL, SOYBEAN OIL, MONO AND DIGLYCERIDES), WATER, DEXTROSE, SALT, NONFAT DRY MILK), WHIPPED TOPPING (WATER, SUGAR, PARTIALLY HYDROGENATED PALM KERNEL OIL, DEXTROSE, CORN SYRUP, SODIUM CASEINATE, POTASSIUM SORBATE AND SODIUM BENZOATE (AS PRESERVATIVES), CARBOHYDRATE GUM, POLYSORBATE 60, ARTIFICIAL FLAVOR, SALT, SOY PROTEIN ISOLATE, POLYGLYCEROL ESTERS OF FATTY ACIDS, MONO AND DIGLYCERIDES, SODIUM CITRATE, DISODIUM PHOSPHATE, SOY LECITHIN, XANTHAN GUM)." Date available: 07/14/2017 Date last updated by company: 07/14/2017
