Source: USDA Branded Food Products Database Release December 2017 Software v.3.8.6.4 2017-10-02
Report Run at: December 19, 2017 05:29 EST
"Nutrient data for: 45203827, CHOCOLATE, UPC: 868841000029"
Food Group:  Branded Food Products Database
Common Name:

Nutrient,Unit,Data points,Std. Error,"2.0 Tbsp = 32.0g",1Value per 100 g,
Proximates
"Energy",kcal,--,--,170,531
"Protein",g,--,--,6.00,18.75
"Total lipid (fat)",g,--,--,12.00,37.50
"Carbohydrate, by difference",g,--,--,12.00,37.50
"Fiber, total dietary",g,--,--,3.0,9.4
"Sugars, total",g,--,--,5.00,15.62
Minerals
"Calcium, Ca",mg,--,--,20,62
"Iron, Fe",mg,--,--,2.81,8.79
"Sodium, Na",mg,--,--,80,250
"Zinc, Zn",mg,--,--,1.20,3.75
Vitamins
"Vitamin C, total ascorbic acid",mg,--,--,0.0,0.0
"Vitamin A, IU",IU,--,--,0,0
Lipids
"Fatty acids, total saturated",g,--,--,2.499,7.810
"Fatty acids, total trans",g,--,--,0.000,0.000
"Cholesterol",mg,--,--,0,0
Amino Acids
Other
Ingredients
"SUNFLOWER SEEDS, SUGAR, CHOCOLATE, PALM OIL, SALT." Date available: 07/14/2017 Date last updated by company: 07/14/2017
