Source: USDA Branded Food Products Database Release December 2017 Software v.3.8.6.4 2017-10-02
Report Run at: December 19, 2017 05:24 EST
"Nutrient data for: 45259620, CHOCOLATE SOUFFLE, UPC: 041318430073"
Food Group:  Branded Food Products Database
Common Name:

Nutrient,Unit,Data points,Std. Error,"1 PC, (300G) = 150.0g",1Value per 100 g,
Proximates
"Energy",kcal,--,--,591,394
"Protein",g,--,--,10.01,6.67
"Total lipid (fat)",g,--,--,46.99,31.33
"Carbohydrate, by difference",g,--,--,49.01,32.67
"Fiber, total dietary",g,--,--,4.0,2.7
"Sugars, total",g,--,--,48.00,32.00
Minerals
"Calcium, Ca",mg,--,--,0,0
"Iron, Fe",mg,--,--,0.00,0.00
"Sodium, Na",mg,--,--,106,71
Vitamins
"Vitamin C, total ascorbic acid",mg,--,--,0.0,0.0
"Vitamin A, IU",IU,--,--,0,0
Lipids
"Fatty acids, total saturated",g,--,--,24.000,16.000
"Fatty acids, total trans",g,--,--,1.500,1.000
"Cholesterol",mg,--,--,128,85
Amino Acids
Other
Ingredients
"25% DARK CHOCOLATE [COCOA MASS, SUGAR, COCOA BUTTER, COCOA (20-22% FAT), MILK FAT, EMULSIFIERS (SORBITAN TRISTEARATE, SOY LECITHIN), VANILLIN], 23% EGGS, 17% SUGAR, 14% VEGETABLE SHORTENINGS [VEGETABLE FATS AND OILS (PARTIALLY HYDROGENATED), WATER, EMULSIFIER (LECITHIN, MONO AND DI-GLYCERIDES OF FATTY ACID), PRESERVATIVE (POTASSIUM SORBATE), ANTIOXIDANTS (BHA), ACIDIFIER (CITRIC ACID), COLORING AGENT (A-CAROTENE)], 10% WHEAT FLOUR, 10% MILK CREAM 35% FAT [CREAM, THICKENER (CARRAGEENAN), EMULSIFIER (MONO AND DI-GLYCERIDES OF FATTY ACID)], BUTTER." Date available: 08/30/2017 Date last updated by company: 08/30/2017
