Source: USDA Branded Food Products Database Release December 2017 Software v.3.8.6.4 2017-10-02
Report Run at: December 19, 2017 04:35 EST
"Nutrient data for: 45279305, CHOCOLATE CAKE WITH CREAMY FILLING, UPC: 888109010904"
Food Group:  Branded Food Products Database
Common Name:

Nutrient,Unit,Data points,Std. Error,"2.0 CAKES = 77.0g",1Value per 100 g,
Proximates
"Energy",kcal,--,--,260,338
"Protein",g,--,--,3.00,3.90
"Total lipid (fat)",g,--,--,9.00,11.69
"Carbohydrate, by difference",g,--,--,42.00,54.55
"Fiber, total dietary",g,--,--,1.0,1.3
"Sugars, total",g,--,--,29.00,37.66
Minerals
"Calcium, Ca",mg,--,--,20,26
"Iron, Fe",mg,--,--,1.49,1.94
"Sodium, Na",mg,--,--,360,468
Vitamins
"Vitamin C, total ascorbic acid",mg,--,--,0.0,0.0
"Vitamin A, IU",IU,--,--,0,0
Lipids
"Fatty acids, total saturated",g,--,--,4.497,5.840
"Fatty acids, total trans",g,--,--,0.000,0.000
"Cholesterol",mg,--,--,15,19
Amino Acids
Other
Ingredients
"WATER, SUGAR, BLEACHED ENRICHED WHEAT FLOUR [WHEAT FLOUR, NIACIN, FERROUS SULFATE (IRON), THIAMIN MONONITRATE, RIBOFLAVIN, FOLIC ACID], CORN SYRUP, HIGH FRUCTOSE CORN SYRUP, ANIMAL AND VEGETABLE SHORTENING (TALLOW, HYDROGENATED TALLOW, COTTONSEED OIL, MONO AND DIGLYCERIDES, POLYSORBATE 60, SOY LECITHIN), SHORTENING (PALM OIL, MONO AND DIGLYCERIDES), COCOA PROCESSED WITH ALKALI, GLYCERIN, CONTAINS 2% OR LESS: MODIFIED CORN STARCH, SOY LECITHIN, EGG WHITES, EGGS, BAKING SODA, NATURAL AND ARTIFICIAL FLAVOR, SALT, SORBIC ACID (TO RETAIN FRESHNESS), DEXTROSE, DEFATTED SOY FLOUR, WHEY, SODIUM ALUMINUM PHOSPHATE, CELLULOSE GUM, CALCIUM SODIUM CASEINATE, SODIUM ACID PYROPHOSPHATE, SOY PROTEIN ISOLATE, MONOCALCIUM PHOSPHATE, GUAR GUM, FUMARIC ACID, ENZYMES." Date available: 07/14/2017 Date last updated by company: 07/14/2017
