Source: USDA Branded Food Products Database Release December 2017 Software v.3.8.6.4 2017-10-02
Report Run at: December 19, 2017 04:33 EST
"Nutrient data for: 45326292, CHOCOLATE BAR, UPC: 653407140093"
Food Group:  Branded Food Products Database
Common Name:

Nutrient,Unit,Data points,Std. Error,"1 BAR = 34.0g",1Value per 100 g,
Proximates
"Energy",kcal,--,--,160,471
"Protein",g,--,--,6.00,17.65
"Total lipid (fat)",g,--,--,12.00,35.29
"Carbohydrate, by difference",g,--,--,10.00,29.41
"Fiber, total dietary",g,--,--,4.0,11.8
"Sugars, total",g,--,--,6.00,17.65
Minerals
"Calcium, Ca",mg,--,--,10,29
"Iron, Fe",mg,--,--,0.79,2.33
"Sodium, Na",mg,--,--,1,3
Vitamins
"Vitamin C, total ascorbic acid",mg,--,--,0.0,0.0
"Vitamin A, IU",IU,--,--,0,0
Lipids
"Fatty acids, total saturated",g,--,--,6.001,17.650
"Fatty acids, total trans",g,--,--,0.000,0.000
"Cholesterol",mg,--,--,0,0
Amino Acids
Other
Ingredients
"DARK CHOCOLATE (CHOCOLATE LIQUOR, SUGAR, COCOA BUTTER, SOYLECITHIN (<1%), VANILLA (<1%)), PEANUTS, HEMP PROTEIN, POWDERED PEANUT BUTTER, SEA SALT, PEANUT BUTTER OIL" Date available: 09/12/2017 Date last updated by company: 09/12/2017
