Source: USDA Branded Food Products Database Release December 2017 Software v.3.8.6.4 2017-10-02
Report Run at: December 19, 2017 04:41 EST
"Nutrient data for: 45314010, CHOCOLATE CARAMEL PUDDING, UPC: 043000073223"
Food Group:  Branded Food Products Database
Common Name:

Nutrient,Unit,Data points,Std. Error,"1 SNACK = 110.0g",1Value per 100 g,
Proximates
"Energy",kcal,--,--,120,109
"Protein",g,--,--,2.00,1.82
"Total lipid (fat)",g,--,--,2.00,1.82
"Carbohydrate, by difference",g,--,--,23.00,20.91
"Fiber, total dietary",g,--,--,1.0,0.9
"Sugars, total",g,--,--,18.00,16.36
Minerals
"Calcium, Ca",mg,--,--,60,55
"Iron, Fe",mg,--,--,0.33,0.30
"Sodium, Na",mg,--,--,170,155
Vitamins
"Vitamin C, total ascorbic acid",mg,--,--,0.0,0.0
"Vitamin A, IU",IU,--,--,182,165
Lipids
"Fatty acids, total saturated",g,--,--,1.496,1.360
"Fatty acids, total trans",g,--,--,0.000,0.000
"Cholesterol",mg,--,--,6,5
Amino Acids
Other
Ingredients
"FILLING: SKIM MILK, WATER, SUGAR, CREAM, MODIFIED FOOD STARCH, COCOA PROCESSED WITH ALKALI, CONTAINS LESS THAN 2% OF GELATIN, SALT, SODIUM STEAROYL LACTYLATE (FOR SMOOTH TEXTURE), NATURAL AND ARTIFICIAL FLAVOR, VITAMIN A PALMITATE, VITAMIN D3. TOPPING: WATER, SKIM MILK, SUGAR, MODIFIED FOOD STARCH, CONTAINS LESS THAN 2% OF CAROB BEAN GUM, HYDROGENATED VEGETABLE OIL (COCONUT AND PALM KERNEL OILS), SALT, SODIUM STEAROYL LACTYLATE (FOR SMOOTH TEXTURE), ARTIFICIAL COLOR, NATURAL FLAVOR, YELLOW 6, VITAMIN A PALMITATE, VITAMIN D3." Date available: 07/14/2017 Date last updated by company: 07/14/2017
