Source: USDA Branded Food Products Database Release December 2017 Software v.3.8.6.4 2017-10-02
Report Run at: December 19, 2017 04:41 EST
"Nutrient data for: 45135688, CHOCOLATE CARAMEL NUT CLUSTERS, UPC: 071725728470"
Food Group:  Branded Food Products Database
Common Name:

Nutrient,Unit,Data points,Std. Error,"8.0 PIECES = 34.0g",1Value per 100 g,
Proximates
"Energy",kcal,--,--,170,500
"Protein",g,--,--,4.00,11.76
"Total lipid (fat)",g,--,--,9.00,26.47
"Carbohydrate, by difference",g,--,--,20.00,58.82
"Fiber, total dietary",g,--,--,1.0,2.9
"Sugars, total",g,--,--,12.00,35.29
Minerals
"Calcium, Ca",mg,--,--,40,118
"Iron, Fe",mg,--,--,0.53,1.56
"Sodium, Na",mg,--,--,50,147
Vitamins
"Vitamin C, total ascorbic acid",mg,--,--,0.0,0.0
"Vitamin A, IU",IU,--,--,0,0
Lipids
"Fatty acids, total saturated",g,--,--,3.998,11.760
"Fatty acids, total trans",g,--,--,0.000,0.000
"Cholesterol",mg,--,--,0,0
Amino Acids
Other
Ingredients
"PEANUTS, MILK CHOCOLATE (SUGAR, COCOA BUTTER, MILK, CHOCOLATE LIQUOR, SOY LECITHIN (AN EMULSIFIER), ARTIFICIAL FLAVOR, SALT), CORN SYRUP, SWEETENED CONDENSED MILK (MILK, SKIM MILK, SUGAR), SUGAR, PARTIALLY HYDROGENATED VEGETABLE OIL (PALM KERNEL AND/OR SOYBEAN AND/OR COTTONSEED AND/OR COCONUT AND/OR PALM), WHEY, COCOA (PROCESSED WITH ALKALI), SALT, NATURAL AND ARTIFICIAL FLAVORS, SOY LECITHIN (AN EMULSIFIER)." Date available: 06/24/2017 Date last updated by company: 06/24/2017
