Source: USDA Branded Food Products Database Release December 2017 Software v.3.8.6.4 2017-10-02
Report Run at: December 19, 2017 04:31 EST
"Nutrient data for: 45209152, CHOCOLATE ALMONDS, UPC: 608819255149"
Food Group:  Branded Food Products Database
Common Name:

Nutrient,Unit,Data points,Std. Error,"0.25 cup = 30.0g",1Value per 100 g,
Proximates
"Energy",kcal,--,--,160,533
"Protein",g,--,--,1.00,3.33
"Total lipid (fat)",g,--,--,5.00,16.67
"Carbohydrate, by difference",g,--,--,21.00,70.00
"Fiber, total dietary",g,--,--,1.0,3.3
"Sugars, total",g,--,--,11.00,36.67
Minerals
"Calcium, Ca",mg,--,--,30,100
"Iron, Fe",mg,--,--,0.60,2.00
"Sodium, Na",mg,--,--,14,47
Vitamins
"Vitamin C, total ascorbic acid",mg,--,--,0.0,0.0
"Vitamin A, IU",IU,--,--,0,0
Lipids
"Fatty acids, total saturated",g,--,--,3.000,10.000
"Fatty acids, total trans",g,--,--,0.000,0.000
"Cholesterol",mg,--,--,2,7
Amino Acids
Other
Ingredients
"MILK CHOC, (SUGAR, COCOA BUTTER, MILK, CHOC, LIQUOR, SOY LECITHIN, (AN EMULSIFIER) AND ARTIFICIAL FLAVOR (VANILLIN) ALMONDS, GUM ARABIC, CORN SYRUP, SUGAR, AND CERTIFIED CONFECTIONERS GLAZE (FOOD GRADE LAC RESIN)." Date available: 07/14/2017 Date last updated by company: 07/14/2017
