Source: USDA Branded Food Products Database Release December 2017 Software v.3.8.6.4 2017-10-02
Report Run at: December 19, 2017 04:34 EST
"Nutrient data for: 45017978, CHOCOLATE CAKE MIX, UPC: 850403000073"
Food Group:  Branded Food Products Database
Common Name:

Nutrient,Unit,Data points,Std. Error,"0.062 PKG., MIX = 46.0g",1Value per 100 g,
Proximates
"Energy",kcal,--,--,170,370
"Protein",g,--,--,2.00,4.35
"Total lipid (fat)",g,--,--,0.50,1.09
"Carbohydrate, by difference",g,--,--,40.00,86.96
"Fiber, total dietary",g,--,--,2.0,4.3
"Sugars, total",g,--,--,21.00,45.65
Minerals
"Calcium, Ca",mg,--,--,0,0
"Iron, Fe",mg,--,--,2.35,5.10
"Sodium, Na",mg,--,--,210,457
Vitamins
"Vitamin C, total ascorbic acid",mg,--,--,0.0,0.0
"Vitamin A, IU",IU,--,--,0,0
Lipids
"Fatty acids, total saturated",g,--,--,0.000,0.000
"Fatty acids, total trans",g,--,--,0.000,0.000
"Cholesterol",mg,--,--,0,0
Amino Acids
Other
Ingredients
"CANE SUGAR, SWEET BROWN RICE FLOUR, TAPIOCA STARCH, COCOA (PROCESSED WITH ALKALI), ARROWROOT POWDER, RICE SYRUP SOLIDS (RICE SYRUP SOLIDS, RICE PROTEIN, TOCOPHEROLS), CITRUS FIBER, BAKING SODA, SALT AND CREAM OF TARTAR." Date available: 07/17/2017 Date last updated by company: 07/17/2017
