Source: USDA Branded Food Products Database Release December 2017 Software v.3.8.6.4 2017-10-02
Report Run at: December 19, 2017 04:42 EST
"Nutrient data for: 45188047, CHOCOLATE CHEEZECAKE, UPC: 871459001388"
Food Group:  Branded Food Products Database
Common Name:

Nutrient,Unit,Data points,Std. Error,"1 SLICE = 100.0g",1Value per 100 g,
Proximates
"Energy",kcal,--,--,360,360
"Protein",g,--,--,3.00,3.00
"Total lipid (fat)",g,--,--,21.00,21.00
"Carbohydrate, by difference",g,--,--,39.00,39.00
"Fiber, total dietary",g,--,--,3.0,3.0
"Sugars, total",g,--,--,22.00,22.00
Minerals
"Calcium, Ca",mg,--,--,100,100
"Iron, Fe",mg,--,--,0.86,0.86
"Sodium, Na",mg,--,--,380,380
Vitamins
"Vitamin C, total ascorbic acid",mg,--,--,1.4,1.4
"Vitamin A, IU",IU,--,--,0,0
Lipids
"Fatty acids, total saturated",g,--,--,15.000,15.000
"Fatty acids, total trans",g,--,--,0.000,0.000
"Cholesterol",mg,--,--,0,0
Amino Acids
Other
Ingredients
"CHEEZECAKE FILLING (FILTERED WATER, CANE SUGAR, CREAMED COCONUT, COCONUT OIL, TAPIOCA STARCH, NON-GMO EXPELLER PRESSED: CANOLA AND/OR SAFFLOWER OIL, COCOA POWDER (PROCESSED WITH ALKALI), POTATO STARCH, VANILLA EXTRACT, PEA PROTEIN ISOLATE, SEA SALT, CAROB POWDER, VEGAN NATURAL FLAVORS, VEGETABLE GLYCERINE, SODIUM ALGINATE, XANTHAN GUM, LACTIC ACID (VEGAN), TRICALCIUM PHOSPHATE, CULTURED SUGAR, AGAVE SYRUP, VEGAN ENZYME.), GLUTEN-FREE CRUST (TAPIOCA STARCH, CANE SUGAR, COCONUT OIL, BROWN RICE FLOUR, FILTERED WATER, WHITE WHOLE GRAIN SORGHUM FLOUR, POTATO STARCH, COCOA POWDER (PROCESSED WITH ALKALI), NON-GMO EXPELLER PRESSED: CANOLA AND/OR SAFFLOWER OIL, MILLED FLAX SEED, VANILLA EXTRACT, PSYLLIUM, LEAVENING (SODIUM ACID PYROPHOSPHATE, SODIUM BICARBONATE, MONOCALCIUM PHOSPHATE), SEA SALT, XANTHAN GUM, SUNFLOWER LECITHIN, CARAMEL COLOR.)" Date available: 09/29/2017 Date last updated by company: 09/29/2017
