Source: USDA Branded Food Products Database Release December 2017 Software v.3.8.6.4 2017-10-02
Report Run at: December 19, 2017 04:36 EST
"Nutrient data for: 45318294, CHOCOLATE CANDIES, SNACK MIX, UPC: 040000457640"
Food Group:  Branded Food Products Database
Common Name:

Nutrient,Unit,Data points,Std. Error,"0.33 cup = 38.0g",1Value per 100 g,
Proximates
"Energy",kcal,--,--,190,500
"Protein",g,--,--,4.00,10.53
"Total lipid (fat)",g,--,--,10.00,26.32
"Carbohydrate, by difference",g,--,--,22.00,57.89
"Fiber, total dietary",g,--,--,2.0,5.3
"Sugars, total",g,--,--,13.00,34.21
Minerals
"Calcium, Ca",mg,--,--,20,53
"Iron, Fe",mg,--,--,0.95,2.49
"Sodium, Na",mg,--,--,125,329
Vitamins
"Vitamin C, total ascorbic acid",mg,--,--,1.6,4.2
"Vitamin A, IU",IU,--,--,131,346
Lipids
"Fatty acids, total saturated",g,--,--,2.998,7.890
"Fatty acids, total trans",g,--,--,0.000,0.000
"Cholesterol",mg,--,--,5,13
Amino Acids
Other
Ingredients
"M&M'S BRAND PEANUT CHOCOLATE CANDIES [MILK CHOCOLATE (SUGAR, CHOCOLATE, COCOA BUTTER, SKIM MILK, LACTOSE, MILKFAT, PEANUTS, SOY LECITHIN, SALT, ARTIFICIAL FLAVORS), SUGAR, PEANUTS, CORNSTARCH, CORN SYRUP, GUM ACACIA, COLORING (INCLUDES BLUE 1 LAKE, YELLOW 6, RED 40 LAKE, YELLOW 5, RED 40, BLUE 1, BLUE 2 LAKE, YELLOW 6 LAKE, YELLOW 5 LAKE, BLUE 2), DEXTRIN], SHORTBREAD COOKIES [ENRICHED BLEACHED AND UNBLEACHED WHEAT FLOUR (WHEAT FLOUR, MALTED BARLEY FLOUR, NIACIN, REDUCED IRON, THIAMINE MONONITRATE, RIBOFLAVIN, FOLIC ACID), SUGAR, BUTTER, EGGS, CORN STARCH, SALT, NATURAL FLAVORS, BAKING SODA], ALMONDS (ALMONDS, SALT), PRETZELS [ENRICHED WHEAT FLOUR (WHEAT FLOUR, NIACIN, REDUCED IRON, THIAMINE MONONITRATE, RIBOFLAVIN, FOLIC ACID), SALT, MALT, VEGETABLE OIL (CANOLA OIL, CORN OIL, AND/OR SOYBEAN OIL), LEAVENING (YEAST, BAKING SODA AND/OR AMMONIUM BICARBONATE)]." Date available: 07/14/2017 Date last updated by company: 07/14/2017
