Source: USDA Branded Food Products Database Release December 2017 Software v.3.8.6.4 2017-10-02
Report Run at: December 19, 2017 04:42 EST
"Nutrient data for: 45315550, CHOCOLATE CHERRY FUDGE BROWNIE, UPC: 854758001136"
Food Group:  Branded Food Products Database
Common Name:

Nutrient,Unit,Data points,Std. Error,"0.5 cup = 73.0g",1Value per 100 g,
Proximates
"Energy",kcal,--,--,130,178
"Protein",g,--,--,1.00,1.37
"Total lipid (fat)",g,--,--,7.00,9.59
"Carbohydrate, by difference",g,--,--,21.00,28.77
"Fiber, total dietary",g,--,--,5.0,6.8
"Sugars, total",g,--,--,9.00,12.33
Minerals
"Calcium, Ca",mg,--,--,0,0
"Iron, Fe",mg,--,--,1.18,1.62
"Potassium, K",mg,--,--,60,82
"Sodium, Na",mg,--,--,40,55
Vitamins
"Vitamin C, total ascorbic acid",mg,--,--,2.0,2.7
"Vitamin A, IU",IU,--,--,0,0
Lipids
"Fatty acids, total saturated",g,--,--,6.001,8.220
"Fatty acids, total trans",g,--,--,0.000,0.000
"Cholesterol",mg,--,--,0,0
Amino Acids
Other
Ingredients
"ORGANIC COCONUT MILK, WATER, ORGANIC FAIR TRADE CERTIFIED AGAVE NECTAR, ORGANIC INULIN, ORGANIC TAPIOCA SYRUP SOLIDS, RED CHERRY BASE (RED CHERRIES, ORGANIC SUGAR, WATER, CORN STARCH, NATURAL FLAVORS, PECTIN, CITRIC ACID, PURPLE CARROT CONCENTRATE [COLOR], LOCUST BEAN GUM), BROWNE BITS (GRANULATED SUGAR CANE, WHITE RICE FLOUR, TAPIOCA FLOUR, POTATO STARCH, GUAR GUM, EVAPORATED CANE JUICE, COCOA, CONTAINS LESS THAN 2% OF: MADAGASCAR BOURBON PURE VANILLA EXTRACT, LEAVENING (CALCIUM LACTATE GRANULATED PLAIN SALT, ESPRESSO POWDER), ORGANIC FAIR TRADE CERTIFIED COCOA POWDER (ALKALIZED), ORGANIC GUAR GUM, SEA SALT, ORGANIC LOCUST BEAN GUM." Date available: 07/14/2017 Date last updated by company: 07/14/2017
