Source: USDA Branded Food Products Database Release December 2017 Software v.3.8.6.4 2017-10-02
Report Run at: December 19, 2017 04:33 EST
"Nutrient data for: 45208816, CHOCOLATE BITES, UPC: 008229101126"
Food Group:  Branded Food Products Database
Common Name:

Nutrient,Unit,Data points,Std. Error,"1.2 ONZ = 34.1g",1Value per 100 g,
Proximates
"Energy",kcal,--,--,150,440
"Protein",g,--,--,0.70,2.05
"Total lipid (fat)",g,--,--,9.20,26.98
"Carbohydrate, by difference",g,--,--,20.00,58.65
"Fiber, total dietary",g,--,--,0.0,0.0
"Sugars, total",g,--,--,14.80,43.40
Minerals
"Calcium, Ca",mg,--,--,20,59
"Iron, Fe",mg,--,--,0.79,2.32
"Sodium, Na",mg,--,--,105,308
Vitamins
"Vitamin C, total ascorbic acid",mg,--,--,0.0,0.0
"Thiamin",mg,--,--,0.000,0.000
"Riboflavin",mg,--,--,0.025,0.073
"Niacin",mg,--,--,0.294,0.862
"Vitamin A, IU",IU,--,--,0,0
Lipids
"Fatty acids, total saturated",g,--,--,4.201,12.320
"Fatty acids, total trans",g,--,--,1.402,4.110
"Cholesterol",mg,--,--,8,23
Amino Acids
Other
Ingredients
"SUGAR, ENRICHED WHEAT FLOUR BLEACHED (FLOUR, MALTED BARLEY FLOUR, NIACIN, REDUCED IRON, THIAMINE MONONITRATE, RIBOFLAVIN, FOLIC ACID), PARTIALLY HYDROGENATED VEGETABLE OIL (SOYBEAN AND/OR COTTONSEED OIL) AND PALM KERNAL OIL, WHEY, WATER, EGG YOLK, SOYBEAN OIL, SOY FLOUR, SOUR CREAM (CREAM, CULTURED NONFAT MILK, NONFAT DRY MILK SOLIDS, WHOLE MILK SOLIDS, LACTIC ACID, ALPHA TOCOPHEROLS AS PRESERVATIVE), COCOA POWDER, NONFAT MILK, CORN SYRUP, LEAVENING (SODIUM ACID PYROPHOSPHATE, BAKING SODA, MONOCALCIUM PHOSPHATE), CORN STARCH, WHEAT STARCH, SALT, CALCIUM CARBONATE, SOY LECITHIN, DEXTROSE, MONO & DIGLYCERIDES, SPICE, AGAR, PROPYLENE GLYCOL, SORBITAN MONOSTEARATE, CELLULOSE GUM, SALT, NATURAL AND ARTIFICIAL FLAVOR, CORN OIL, BETA CAROTENE AS COLOR, CITRIC ACID, ALPHA TOCOPHEROLS AS PRESERVATIVE." Date available: 07/14/2017 Date last updated by company: 07/14/2017
