Source: USDA Branded Food Products Database Release December 2017 Software v.3.8.6.4 2017-10-02
Report Run at: December 19, 2017 04:36 EST
"Nutrient data for: 45318349, CHOCOLATE CANDIES, PEANUT MADE WITH REAL MILK CHOCOLATE, UPC: 040000315537"
Food Group:  Branded Food Products Database
Common Name:

Nutrient,Unit,Data points,Std. Error,"1.5 ONZ = 42.0g",1Value per 100 g,
Proximates
"Energy",kcal,--,--,220,524
"Protein",g,--,--,4.00,9.52
"Total lipid (fat)",g,--,--,11.00,26.19
"Carbohydrate, by difference",g,--,--,26.00,61.90
"Fiber, total dietary",g,--,--,1.0,2.4
"Sugars, total",g,--,--,22.00,52.38
Minerals
"Calcium, Ca",mg,--,--,40,95
"Iron, Fe",mg,--,--,0.43,1.02
"Sodium, Na",mg,--,--,20,48
Vitamins
"Vitamin C, total ascorbic acid",mg,--,--,1.4,3.4
"Thiamin",mg,--,--,0.000,0.000
"Riboflavin",mg,--,--,0.034,0.081
"Niacin",mg,--,--,1.142,2.719
"Vitamin A, IU",IU,--,--,119,283
Lipids
"Fatty acids, total saturated",g,--,--,4.498,10.710
"Fatty acids, total trans",g,--,--,0.000,0.000
"Cholesterol",mg,--,--,5,12
Amino Acids
Other
Ingredients
"MILK CHOCOLATE (SUGAR, CHOCOLATE, COCOA BUTTER, SKIM MILK, LACTOSE, MILKFAT, PEANUTS, SOY LECITHIN, SALT, ARTIFICIAL FLAVORS), SUGAR, PEANUTS, CORNSTARCH, LESS THAN 1% - CORN SYRUP, GUM ACACIA, COLORING (INCLUDES RED 40, YELLOW 5, BLUE 1, YELLOW 5 LAKE, RED 40 LAKE, BLUE 1 LAKE, YELLOW 6, BLUE 2 LAKE, YELLOW 6 LAKE, BLUE 2), DEXTRIN." Date available: 07/14/2017 Date last updated by company: 07/14/2017
