Source: USDA Branded Food Products Database Release December 2017 Software v.3.8.6.4 2017-10-02
Report Run at: December 19, 2017 05:02 EST
"Nutrient data for: 45175539, CHOCOLATE DIPPED KRISY JUNIORS DOUGHNUTS, UPC: 072470810014"
Food Group:  Branded Food Products Database
Common Name:

Nutrient,Unit,Data points,Std. Error,"4.0 PIECES = 60.0g",1Value per 100 g,
Proximates
"Energy",kcal,--,--,290,483
"Protein",g,--,--,2.00,3.33
"Total lipid (fat)",g,--,--,20.00,33.33
"Carbohydrate, by difference",g,--,--,27.00,45.00
"Fiber, total dietary",g,--,--,1.0,1.7
"Sugars, total",g,--,--,14.00,23.33
Minerals
"Calcium, Ca",mg,--,--,20,33
"Iron, Fe",mg,--,--,1.32,2.20
"Sodium, Na",mg,--,--,240,400
Vitamins
"Vitamin C, total ascorbic acid",mg,--,--,0.0,0.0
"Vitamin A, IU",IU,--,--,0,0
Lipids
"Fatty acids, total saturated",g,--,--,13.002,21.670
"Fatty acids, total trans",g,--,--,0.000,0.000
"Cholesterol",mg,--,--,15,25
Amino Acids
Other
Ingredients
"CHOCOLATE COMPOUND COATING (SUGAR, HYDROGENATED PALM KERNEL OIL, COCOA POWDER, COCOA POWDER PROCESSED WITH ALKALI, DISTILLED MONOGLYCERIDES, SOYA LECITHIN, SALT, VANILLIN), ENRICHED WHEAT FLOUR (WHEAT FLOUR, MALTED BARLEY FLOUR, NIACIN, IRON, THIAMINE MONONITRATE, RIBOFLAVIN, FOLIC ACID), VEGETABLE SHORTENING (PALM OIL, PARTIALLY HYDROGENATED SOYBEAN OIL, PARTIALLY HYDROGENATED COTTONSEED OIL, COTTONSEED OIL, BHT AND CITRIC ACID), WATER, SUGAR, SOYBEAN OIL, EGG YOLKS, SOY FLOUR, WHEY, SODIUM ACID PYROPHOSPHATE, DEXTROSE, SODIUM BICARBONATE, NATURAL AND ARTIFICIAL FLAVOR, SALT, NONFAT DRY MILK, MODIFIED FOOD STARCH, SOY LECITHIN, SODIUM PROPIONATE (TO MAINTAIN FRESHNESS), SODIUM CARBOXYMETHYL CELLULOSE GUM, MONO AND DIGLYCERIDES, PROPYLENE GLYCOL MONOESTERS." Date available: 07/14/2017 Date last updated by company: 07/14/2017
