Source: USDA Branded Food Products Database Release December 2017 Software v.3.8.6.4 2017-10-02
Report Run at: December 19, 2017 05:37 EST
"Nutrient data for: 45210980, CHOCOROOMS, MILK & DARK COMBINATION WITH CRISPY CRACKER, UPC: 072320700540"
Food Group:  Branded Food Products Database
Common Name:

Nutrient,Unit,Data points,Std. Error,"38.0 GRM = 38.0g",1Value per 100 g,
Proximates
"Energy",kcal,--,--,210,553
"Protein",g,--,--,3.00,7.89
"Total lipid (fat)",g,--,--,12.00,31.58
"Carbohydrate, by difference",g,--,--,23.00,60.53
"Fiber, total dietary",g,--,--,3.0,7.9
"Sugars, total",g,--,--,14.00,36.84
Minerals
"Calcium, Ca",mg,--,--,60,158
"Iron, Fe",mg,--,--,1.90,4.99
"Sodium, Na",mg,--,--,35,92
Vitamins
"Vitamin C, total ascorbic acid",mg,--,--,7.9,20.8
"Vitamin A, IU",IU,--,--,0,0
Lipids
"Fatty acids, total saturated",g,--,--,7.999,21.050
"Fatty acids, total trans",g,--,--,0.000,0.000
"Cholesterol",mg,--,--,5,13
Amino Acids
Other
Ingredients
"SUGAR, WHEAT FLOUR, COCOA MASS, VEGETABLE OILS (PALM, SUNFLOWER, SHEA, ILLIPE, CANOLA, SAL), WHOLE MILK POWDER, COCOA BUTTER, LACTOSE, SHORTENING (PALM), CONDENSED MILK POWDER, NONFAT DRY MILK, EMULSIFIERS (SOY LECITHIN, GLYCERIN FATTY ACID ESTER, SUCROSE FATTY ACID ESTER), HIGH-FRUCTOSE CORN SYRUP, CREAM POWDER, LEAVENINGS (SODIUM BICARBONATE, AMMONIUM ACID CARBONATE), MALT EXTRACT, YEAST, SALT, NATURAL AND ARTIFICIAL FLAVORS." Date available: 07/14/2017 Date last updated by company: 07/14/2017
