Source: USDA Branded Food Products Database Release December 2017 Software v.3.8.6.4 2017-10-02
Report Run at: December 19, 2017 05:35 EST
"Nutrient data for: 45159590, CHOCOMAKER, DIPPING CANDY BAR, VANILLA, UPC: 879826002259"
Food Group:  Branded Food Products Database
Common Name:

Nutrient,Unit,Data points,Std. Error,"1.4 ONZ = 40.0g",1Value per 100 g,
Proximates
"Energy",kcal,--,--,220,550
"Protein",g,--,--,1.00,2.50
"Total lipid (fat)",g,--,--,12.00,30.00
"Carbohydrate, by difference",g,--,--,27.00,67.50
"Fiber, total dietary",g,--,--,0.0,0.0
"Sugars, total",g,--,--,27.00,67.50
Minerals
"Calcium, Ca",mg,--,--,20,50
"Iron, Fe",mg,--,--,0.00,0.00
"Sodium, Na",mg,--,--,25,62
Vitamins
"Vitamin C, total ascorbic acid",mg,--,--,0.0,0.0
"Vitamin A, IU",IU,--,--,0,0
Lipids
"Fatty acids, total saturated",g,--,--,11.000,27.500
"Fatty acids, total trans",g,--,--,0.000,0.000
"Cholesterol",mg,--,--,0,0
Amino Acids
Other
Ingredients
"SUGAR, PALM KERNEL OIL AND HYDROGENATED PALM KERNEL OIL, REDUCED MINERAL WHEY POWDER, WHOLE MILK, NONFAT DRY MILK, SOY LECITHIN (AN EMULSIFIER), SALT AND VANILLIN" Date available: 07/14/2017 Date last updated by company: 07/14/2017
