Source: USDA Branded Food Products Database Release December 2017 Software v.3.8.6.4 2017-10-02
Report Run at: December 19, 2017 05:22 EST
"Nutrient data for: 45233460, CHOCOLATE SANDWICH COOKIES, UPC: 041498157791"
Food Group:  Branded Food Products Database
Common Name:

Nutrient,Unit,Data points,Std. Error,"2.0 COOKIES, PER CONTAINER ABOUT = 29.0g",1Value per 100 g,
Proximates
"Energy",kcal,--,--,140,483
"Protein",g,--,--,1.00,3.45
"Total lipid (fat)",g,--,--,6.00,20.69
"Carbohydrate, by difference",g,--,--,21.00,72.41
"Fiber, total dietary",g,--,--,1.0,3.4
"Sugars, total",g,--,--,13.00,44.83
Minerals
"Calcium, Ca",mg,--,--,0,0
"Iron, Fe",mg,--,--,1.24,4.28
"Potassium, K",mg,--,--,40,138
"Sodium, Na",mg,--,--,105,362
Vitamins
"Vitamin C, total ascorbic acid",mg,--,--,0.0,0.0
"Vitamin A, IU",IU,--,--,0,0
Lipids
"Fatty acids, total saturated",g,--,--,2.500,8.620
"Fatty acids, total monounsaturated",g,--,--,2.001,6.900
"Fatty acids, total polyunsaturated",g,--,--,1.499,5.170
"Fatty acids, total trans",g,--,--,0.000,0.000
"Cholesterol",mg,--,--,0,0
Amino Acids
Other
Ingredients
"SUGAR, ENRICHED FLOUR (WHEAT FLOUR, NIACIN, REDUCED IRON, THIAMIN MONONITRATE, RIBOFLAVIN, FOLIC ACID), VEGETABLE OIL (CONTAINS ONE OR MORE OF THE FOLLOWING: CANOLA OIL, CORN OIL, PALM OIL, SOYBEAN OIL), COCOA (PROCESSED WITH ALKALI), HIGH FRUCTOSE CORN SYRUP, SALT, SODIUM BICARBONATE (LEAVENING), ARTIFICIAL FLAVOR, SOY LECITHIN (EMULSIFIER), CHOCOLATE." Date available: 06/25/2017 Date last updated by company: 06/25/2017
