Source: USDA Branded Food Products Database Release December 2017 Software v.3.8.6.4 2017-10-02
Report Run at: December 19, 2017 05:04 EST
"Nutrient data for: 45248422, CHOCOLATE FILLING ASSORTED TRUFFLES, UPC: 031290099344"
Food Group:  Branded Food Products Database
Common Name:

Nutrient,Unit,Data points,Std. Error,"4.0 PIECES = 41.0g",1Value per 100 g,
Proximates
"Energy",kcal,--,--,200,488
"Protein",g,--,--,2.00,4.88
"Total lipid (fat)",g,--,--,12.00,29.27
"Carbohydrate, by difference",g,--,--,21.00,51.22
"Fiber, total dietary",g,--,--,1.0,2.4
"Sugars, total",g,--,--,16.00,39.02
Minerals
"Calcium, Ca",mg,--,--,40,98
"Iron, Fe",mg,--,--,2.20,5.36
"Sodium, Na",mg,--,--,30,73
Vitamins
"Vitamin C, total ascorbic acid",mg,--,--,0.0,0.0
"Vitamin A, IU",IU,--,--,122,298
Lipids
"Fatty acids, total saturated",g,--,--,6.999,17.070
"Fatty acids, total trans",g,--,--,0.000,0.000
"Cholesterol",mg,--,--,15,37
Amino Acids
Other
Ingredients
"HEAVY CREAM, SUGAR, CORN SYRUP, UNSWEETENED CHOCOLATE, UNSWEETENED CHOCOLATE PROCESSED WITH ALKALI, COCOA BUTTER, INVERT SUGAR, MILK POWDER, SKIM MILK POWDER, WATER, BUTTER OIL, EMULSIFIER (SOY LECITHIN), SKIM MILK, NATURAL FLAVOR, ANTIOXIDANT (TOCOPHEROLS)." Date available: 07/14/2017 Date last updated by company: 07/14/2017
