Source: USDA Branded Food Products Database Release December 2017 Software v.3.8.6.4 2017-10-02
Report Run at: December 19, 2017 04:45 EST
"Nutrient data for: 45177869, CHOCOLATE CHIP COOKIES, UPC: 708423080653"
Food Group:  Branded Food Products Database
Common Name:

Nutrient,Unit,Data points,Std. Error,"1 COOKIE PREPARED = 17.0g",1Value per 100 g,
Proximates
"Energy",kcal,--,--,70,412
"Protein",g,--,--,0.00,0.00
"Total lipid (fat)",g,--,--,1.00,5.88
"Carbohydrate, by difference",g,--,--,15.00,88.24
"Fiber, total dietary",g,--,--,0.0,0.0
"Sugars, total",g,--,--,9.00,52.94
Minerals
"Calcium, Ca",mg,--,--,0,0
"Iron, Fe",mg,--,--,0.00,0.00
"Sodium, Na",mg,--,--,85,500
Vitamins
"Vitamin C, total ascorbic acid",mg,--,--,0.0,0.0
"Vitamin A, IU",IU,--,--,0,0
Lipids
"Fatty acids, total saturated",g,--,--,0.000,0.000
"Fatty acids, total trans",g,--,--,0.000,0.000
"Cholesterol",mg,--,--,0,0
Amino Acids
Other
Ingredients
"SUGAR, SPECIALTY FLOUR (RICE FLOUR, POTATO STARCH, RICE STARCH), CHOCOLATE CHIPS (SUGAR, UNSWEETENED CHOCOLATE, COCOA BUTTER, SOY LECITHIN [AN EMULSIFIER]), MOLASSES POWDER, VANILLA POWDER,S ALT, BAKING SODA, XANTHAN GUM." Date available: 07/14/2017 Date last updated by company: 07/14/2017
