Source: USDA Branded Food Products Database Release December 2017 Software v.3.8.6.4 2017-10-02
Report Run at: December 19, 2017 05:37 EST
"Nutrient data for: 45093872, CHOCO PERFECTION, MILK EUROPEAN CHOCOLATE, UPC: 689076935128"
Food Group:  Branded Food Products Database
Common Name:

Nutrient,Unit,Data points,Std. Error,"1 BAR = 50.0g",1Value per 100 g,
Proximates
"Energy",kcal,--,--,181,362
"Protein",g,--,--,1.00,2.00
"Total lipid (fat)",g,--,--,17.00,34.00
"Carbohydrate, by difference",g,--,--,27.00,54.00
"Fiber, total dietary",g,--,--,14.0,28.0
"Sugars, total",g,--,--,0.00,0.00
Minerals
"Calcium, Ca",mg,--,--,170,340
"Iron, Fe",mg,--,--,2.70,5.40
"Sodium, Na",mg,--,--,0,0
Vitamins
"Vitamin C, total ascorbic acid",mg,--,--,0.0,0.0
"Vitamin A, IU",IU,--,--,0,0
Lipids
"Fatty acids, total saturated",g,--,--,11.000,22.000
"Fatty acids, total trans",g,--,--,0.000,0.000
"Cholesterol",mg,--,--,0,0
Amino Acids
Other
Ingredients
"DRY COCOA SOLIDS: 55, CHICORY ROOT FIBER*, ERYTHRITOL*, COCOA BUTTER, CALCIUM CARBONATE BUTTER OIL, SOY LECITHIN, VANILLA EXTRACT" Date available: 06/25/2017 Date last updated by company: 06/25/2017
