Source: USDA Branded Food Products Database Release December 2017 Software v.3.8.6.4 2017-10-02
Report Run at: December 19, 2017 05:02 EST
"Nutrient data for: 45066719, CHOCOLATE DIP, UPC: 072457324442"
Food Group:  Branded Food Products Database
Common Name:

Nutrient,Unit,Data points,Std. Error,"2.0 Tbsp = 30.0g",1Value per 100 g,
Proximates
"Energy",kcal,--,--,0,0
"Protein",g,--,--,0.00,0.00
"Total lipid (fat)",g,--,--,0.00,0.00
"Carbohydrate, by difference",g,--,--,0.00,0.00
"Fiber, total dietary",g,--,--,0.0,0.0
"Sugars, total",g,--,--,0.00,0.00
Minerals
"Calcium, Ca",mg,--,--,0,0
"Iron, Fe",mg,--,--,0.00,0.00
"Sodium, Na",mg,--,--,35,117
Vitamins
"Vitamin C, total ascorbic acid",mg,--,--,0.0,0.0
"Vitamin A, IU",IU,--,--,0,0
Lipids
"Fatty acids, total saturated",g,--,--,0.000,0.000
"Fatty acids, total trans",g,--,--,0.000,0.000
"Cholesterol",mg,--,--,0,0
Amino Acids
Other
Ingredients
"INGREDIENTS*: PURIFIED WATER, VEGETABLE FIBER, DEFATTED COCOA POWDER, CARAMEL COLOR, XANTHAN GUM, SUCRALOSE, SALT, CELLULOSE GEL, CHOCOLATE FLAVOR, SODIUM ACID SULFATE, VANILLA FLAVOR, COFFEE FLAVOR, POTASSIUM SORBATE, SODIUM BENZOATE (TO PRESERVE FRESHNESS), CREAM FLAVOR (NON DAIRY)." Date available: 07/14/2017 Date last updated by company: 07/14/2017
