Source: USDA Branded Food Products Database Release December 2017 Software v.3.8.6.4 2017-10-02
Report Run at: December 19, 2017 05:38 EST
"Nutrient data for: 45154277, CHOCOTREASURE, CHOCOLATE + TOY SURPRISE, UPC: 852923002780"
Food Group:  Branded Food Products Database
Common Name:

Nutrient,Unit,Data points,Std. Error,"0.5 EGG = 12.0g",1Value per 100 g,
Proximates
"Energy",kcal,--,--,60,500
"Protein",g,--,--,2.00,16.67
"Total lipid (fat)",g,--,--,3.00,25.00
"Carbohydrate, by difference",g,--,--,7.00,58.33
"Fiber, total dietary",g,--,--,0.0,0.0
"Sugars, total",g,--,--,6.00,50.00
Minerals
"Calcium, Ca",mg,--,--,30,250
"Iron, Fe",mg,--,--,0.75,6.25
"Sodium, Na",mg,--,--,15,125
Vitamins
"Vitamin C, total ascorbic acid",mg,--,--,0.0,0.0
"Vitamin A, IU",IU,--,--,0,0
Lipids
"Fatty acids, total saturated",g,--,--,2.000,16.670
"Fatty acids, total trans",g,--,--,0.000,0.000
"Cholesterol",mg,--,--,0,0
Amino Acids
Other
Ingredients
"SUGAR, COCOA BUTTER, WHOLE MILK POWDER, SKIM MILK POWDER, COCOA MASS, LACTOSE, EMULSIFIER (SOYA LECITHIN E322), VANILLIN COCOA SOLIDS MINIMUM 30%" Date available: 07/14/2017 Date last updated by company: 07/14/2017
