Source: USDA Branded Food Products Database Release December 2017 Software v.3.8.6.4 2017-10-02
Report Run at: December 19, 2017 05:18 EST
"Nutrient data for: 45152933, CHOCOLATE PEANUT CLUSTERS, UPC: 092825111832"
Food Group:  Branded Food Products Database
Common Name:

Nutrient,Unit,Data points,Std. Error,"4.0 PIECES = 40.0g",1Value per 100 g,
Proximates
"Energy",kcal,--,--,220,550
"Protein",g,--,--,6.00,15.00
"Total lipid (fat)",g,--,--,16.00,40.00
"Carbohydrate, by difference",g,--,--,16.00,40.00
"Fiber, total dietary",g,--,--,2.0,5.0
"Sugars, total",g,--,--,13.00,32.50
Minerals
"Calcium, Ca",mg,--,--,40,100
"Iron, Fe",mg,--,--,0.45,1.12
"Sodium, Na",mg,--,--,70,175
Vitamins
"Vitamin C, total ascorbic acid",mg,--,--,0.0,0.0
"Vitamin A, IU",IU,--,--,0,0
Lipids
"Fatty acids, total saturated",g,--,--,5.000,12.500
"Fatty acids, total trans",g,--,--,0.000,0.000
"Cholesterol",mg,--,--,5,12
Amino Acids
Other
Ingredients
"MILK CHOCOLATE (SUGAR, CHOCOLATE LIQUOR, COCOA BUTTER, WHOLE MILK POWDER, SOY LECITHIN [AN EMULSIFIER], VANILLIN [AN ARTIFICIAL FLAVOR]), PEANUTS, SALT." Date available: 07/14/2017 Date last updated by company: 07/14/2017
