Source: USDA Branded Food Products Database Release December 2017 Software v.3.8.6.4 2017-10-02
Report Run at: December 19, 2017 05:06 EST
"Nutrient data for: 45272995, CHOCOLATE FUDGE BROWNIE, UPC: 842096102042"
Food Group:  Branded Food Products Database
Common Name:

Nutrient,Unit,Data points,Std. Error,"1 NBAR = 65.0g",1Value per 100 g,
Proximates
"Energy",kcal,--,--,260,400
"Protein",g,--,--,18.00,27.69
"Total lipid (fat)",g,--,--,11.00,16.92
"Carbohydrate, by difference",g,--,--,25.00,38.46
"Fiber, total dietary",g,--,--,5.0,7.7
"Sugars, total",g,--,--,11.00,16.92
Minerals
"Calcium, Ca",mg,--,--,40,62
"Iron, Fe",mg,--,--,2.77,4.26
"Sodium, Na",mg,--,--,135,208
Vitamins
"Vitamin C, total ascorbic acid",mg,--,--,0.0,0.0
"Vitamin A, IU",IU,--,--,0,0
Lipids
"Fatty acids, total saturated",g,--,--,2.502,3.850
"Fatty acids, total trans",g,--,--,0.000,0.000
"Cholesterol",mg,--,--,0,0
Amino Acids
Other
Ingredients
"CASHEW BUTTER*, PUMPKIN SEED PROTEIN*, TAPIOCA SYRUP*, DARK CHOCOLATE*, (CACAO NIBS*, COCONUT SUGAR*, CACAO BUTTER*), PEA PROTEIN*, LIQUID AGAVE INULIN*, PEA CRISPS*, (PEA PROTEIN*, RICE FLOUR*), CACAO POWDER*, ACACIA GUM*, VANILLA EXTRACT*, SEA SALT, MONK FRUIT EXTRACT." Date available: 07/14/2017 Date last updated by company: 07/14/2017
