Source: USDA Branded Food Products Database Release December 2017 Software v.3.8.6.4 2017-10-02
Report Run at: December 19, 2017 04:33 EST
"Nutrient data for: 45318450, CHOCOLATE BAR, UPC: 040000422082"
Food Group:  Branded Food Products Database
Common Name:

Nutrient,Unit,Data points,Std. Error,"1 BAR = 54.4g",1Value per 100 g,
Proximates
"Energy",kcal,--,--,240,441
"Protein",g,--,--,1.00,1.84
"Total lipid (fat)",g,--,--,7.00,12.87
"Carbohydrate, by difference",g,--,--,42.00,77.21
"Fiber, total dietary",g,--,--,1.0,1.8
"Sugars, total",g,--,--,36.00,66.18
Minerals
"Calcium, Ca",mg,--,--,20,37
"Iron, Fe",mg,--,--,0.33,0.61
"Sodium, Na",mg,--,--,95,175
Vitamins
"Vitamin C, total ascorbic acid",mg,--,--,0.0,0.0
"Vitamin A, IU",IU,--,--,0,0
Lipids
"Fatty acids, total saturated",g,--,--,4.999,9.190
"Fatty acids, total trans",g,--,--,0.000,0.000
"Cholesterol",mg,--,--,5,9
Amino Acids
Other
Ingredients
"MILK CHOCOLATE (SUGAR, CHOCOLATE, COCOA BUTTER, SKIM MILK, LACTOSE, MILKFAT, SOY LECITHIN), SUGAR, CORN SYRUP, HYDROGENATED PALM KERNEL OIL AND/OR PALM OIL, LESS THAN 2% - COCOA POWDER PROCESSED WITH ALKALI, SALT, EGG WHITES, ARTIFICIAL AND NATURAL FLAVORS." Date available: 07/14/2017 Date last updated by company: 07/14/2017
