Source: USDA Branded Food Products Database Release December 2017 Software v.3.8.6.4 2017-10-02
Report Run at: December 19, 2017 05:12 EST
"Nutrient data for: 45147320, CHOCOLATE MALT BALLS, UPC: 049022919044"
Food Group:  Branded Food Products Database
Common Name:

Nutrient,Unit,Data points,Std. Error,"5.0 PIECES = 40.0g",1Value per 100 g,
Proximates
"Energy",kcal,--,--,180,450
"Protein",g,--,--,1.00,2.50
"Total lipid (fat)",g,--,--,7.00,17.50
"Carbohydrate, by difference",g,--,--,30.00,75.00
"Fiber, total dietary",g,--,--,1.0,2.5
"Sugars, total",g,--,--,27.00,67.50
Minerals
"Calcium, Ca",mg,--,--,40,100
"Iron, Fe",mg,--,--,0.45,1.12
"Sodium, Na",mg,--,--,25,62
Vitamins
"Vitamin C, total ascorbic acid",mg,--,--,0.0,0.0
"Vitamin A, IU",IU,--,--,0,0
Lipids
"Fatty acids, total saturated",g,--,--,4.500,11.250
"Fatty acids, total trans",g,--,--,0.000,0.000
"Cholesterol",mg,--,--,5,12
Amino Acids
Other
Ingredients
"MILK CHOCOLATE (SUGAR, COCOA BUTTER, CHOCOLATE LIQUOR, WHOLE MILK POWDER, SOY LECITHIN [AN EMULSIFIER], SALT, VANILLA), SUGAR, MALT CENTER (CORN SYRUP, CONFECTIONERY COATING [SUGAR, HYDROGENATED PALM KERNEL OIL, COCOA POWDER, WHEY POWDER, NONFAT MILK POWDER, SOY LECITHIN (AN EMULSIFIER), VANILLA], SUGAR, DAIRY BLEND [WHEY, WHEY PROTEIN IN CONCENTRATE], MALT POWDER [MALTED BARLEY, WHEAT, MILK, HYDROLYZED WHEAT GLUTEN, SODIUM BICARBONATE, SALT], NATURAL AND ARTIFICIAL FLAVORS), ARTIFICIAL COLORING (INCLUDES TITANIUM DIOXIDE, RED 40 LAKE, YELLOW 5 LAKE, YELLOW 5, BLUE 1, BLUE 1 LAKE), CORN SYRUP, GUM ARABIC, RED AND GREEN GLITTER (GUM ARABIC, RED 40, BLUE 1, YELLOW 5), CONFECTIONER'S GLAZE, CARNAUBA WAX, BEESWAX." Date available: 07/14/2017 Date last updated by company: 07/14/2017
