Source: USDA Branded Food Products Database Release December 2017 Software v.3.8.6.4 2017-10-02
Report Run at: December 19, 2017 05:39 EST
"Nutrient data for: 45027050, CHOMPIE'S, SESAME BAGEL, UPC: 096784169200"
Food Group:  Branded Food Products Database
Common Name:

Nutrient,Unit,Data points,Std. Error,"0.5 BAGEL = 57.0g",1Value per 100 g,
Proximates
"Energy",kcal,--,--,160,281
"Protein",g,--,--,6.00,10.53
"Total lipid (fat)",g,--,--,2.00,3.51
"Carbohydrate, by difference",g,--,--,30.00,52.63
"Fiber, total dietary",g,--,--,1.0,1.8
"Sugars, total",g,--,--,2.00,3.51
Minerals
"Calcium, Ca",mg,--,--,80,140
"Iron, Fe",mg,--,--,1.39,2.44
"Sodium, Na",mg,--,--,280,491
Vitamins
"Vitamin C, total ascorbic acid",mg,--,--,0.0,0.0
"Vitamin A, IU",IU,--,--,0,0
Lipids
"Fatty acids, total saturated",g,--,--,0.000,0.000
"Fatty acids, total trans",g,--,--,0.000,0.000
"Cholesterol",mg,--,--,0,0
Amino Acids
Other
Ingredients
"UNBLEACHED HIGH GLUTEN FLOUR (ENRICHED WITH NIACIN, IRON, ASCOROBIC ACID, THIAMIN, RIBOFLAVIN, FOLIC ACID, ENZYME), PURIFIED WATER, SESAME SEEDS, GOLDEN BROWN SUGAR, BARLEY MALT, PURE CANE SUGAR, SALT, CORNMEAL, FRESH YEAST, NATURAL GRAIN VINEGAR, DISTILLED MONOGLYCERIDES GUAR GUM, CALCIUM PROPIONATE, NATURAL ENZYME, SOY LECITHIN." Date available: 06/25/2017 Date last updated by company: 06/25/2017
