Source: USDA Branded Food Products Database Release December 2017 Software v.3.8.6.4 2017-10-02
Report Run at: December 19, 2017 05:48 EST
"Nutrient data for: 45226438, CHOPPED SPINACH, UPC: 71754412806"
Food Group:  Branded Food Products Database
Common Name:

Nutrient,Unit,Data points,Std. Error,"0.33 cup = 81.0g",1Value per 100 g,
Proximates
"Energy",kcal,--,--,20,25
"Protein",g,--,--,2.00,2.47
"Total lipid (fat)",g,--,--,0.00,0.00
"Carbohydrate, by difference",g,--,--,2.00,2.47
"Fiber, total dietary",g,--,--,2.0,2.5
"Sugars, total",g,--,--,1.00,1.23
Minerals
"Calcium, Ca",mg,--,--,63,78
"Iron, Fe",mg,--,--,0.38,0.47
"Sodium, Na",mg,--,--,110,136
Vitamins
"Vitamin C, total ascorbic acid",mg,--,--,6.0,7.4
"Vitamin A, IU",IU,--,--,5771,7125
Lipids
"Fatty acids, total saturated",g,--,--,0.000,0.000
"Fatty acids, total trans",g,--,--,0.000,0.000
"Cholesterol",mg,--,--,0,0
Amino Acids
Other
Ingredients
"SPINACH." Date available: 10/13/2017 Date last updated by company: 10/13/2017
