Source: USDA Branded Food Products Database Release December 2017 Software v.3.8.6.4 2017-10-02
Report Run at: December 19, 2017 05:50 EST
"Nutrient data for: 45130453, Chop Suey Vegetables, UNPREPARED, GTIN: 00044300126442"
Food Group:  Branded Food Products Database
Common Name:

Nutrient,Unit,Data points,Std. Error,"0.5 cup (116g) = 116.0g",1Value per 100 g,
Proximates
"Energy",kcal,--,--,15,13
"Protein",g,--,--,1.00,0.86
"Total lipid (fat)",g,--,--,0.00,0.00
"Carbohydrate, by difference",g,--,--,3.00,2.59
"Fiber, total dietary",g,--,--,1.0,0.9
"Sugars, total",g,--,--,1.00,0.86
Minerals
"Calcium, Ca",mg,--,--,20,17
"Iron, Fe",mg,--,--,0.00,0.00
"Potassium, K",mg,--,--,106,91
"Sodium, Na",mg,--,--,510,440
Vitamins
"Vitamin C, total ascorbic acid",mg,--,--,9.0,7.8
"Vitamin A, IU",IU,--,--,0,0
Lipids
"Fatty acids, total saturated",g,--,--,0.000,0.000
"Fatty acids, total monounsaturated",g,--,--,0.000,0.000
"Fatty acids, total polyunsaturated",g,--,--,0.000,0.000
"Fatty acids, total trans",g,--,--,0.000,0.000
"Cholesterol",mg,--,--,0,0
Amino Acids
Other
Ingredients
"Bean Sprouts, Water, Celery, Onions, Less Than 2% Of: Mushrooms, Red Bell Peppers, Salt, Sugar, Autolyzed Yeast Extract, Dehydrated Garlic, Ascorbic And Citric Acid (To Protect Color), Natural Flavor." Date available: 10/12/2017 Date last updated by company: 09/14/2017
