Source: USDA Branded Food Products Database Release December 2017 Software v.3.8.6.4 2017-10-02
Report Run at: December 19, 2017 05:44 EST
"Nutrient data for: 45019333, CHOPPED LEAF SPINACH, UPC: 011150044615"
Food Group:  Branded Food Products Database
Common Name:

Nutrient,Unit,Data points,Std. Error,"0.5 cup = 115.0g",1Value per 100 g,
Proximates
"Energy",kcal,--,--,30,26
"Protein",g,--,--,2.00,1.74
"Total lipid (fat)",g,--,--,0.00,0.00
"Carbohydrate, by difference",g,--,--,4.00,3.48
"Fiber, total dietary",g,--,--,2.0,1.7
"Sugars, total",g,--,--,0.00,0.00
Minerals
"Calcium, Ca",mg,--,--,100,87
"Iron, Fe",mg,--,--,1.22,1.06
"Sodium, Na",mg,--,--,360,313
Vitamins
"Vitamin C, total ascorbic acid",mg,--,--,16.9,14.7
"Vitamin A, IU",IU,--,--,2826,2457
Lipids
"Fatty acids, total saturated",g,--,--,0.000,0.000
"Fatty acids, total trans",g,--,--,0.000,0.000
"Cholesterol",mg,--,--,0,0
Amino Acids
Other
Ingredients
"SPINACH, WATER, SALT." Date available: 06/25/2017 Date last updated by company: 06/25/2017
