Source: USDA Branded Food Products Database Release December 2017 Software v.3.8.6.4 2017-10-02
Report Run at: December 19, 2017 05:48 EST
"Nutrient data for: 45279538, CHOPPED SPINACH, UPC: 021130091843"
Food Group:  Branded Food Products Database
Common Name:

Nutrient,Unit,Data points,Std. Error,"1 cup = 81.0g",1Value per 100 g,
Proximates
"Energy",kcal,--,--,30,37
"Protein",g,--,--,2.00,2.47
"Total lipid (fat)",g,--,--,0.00,0.00
"Carbohydrate, by difference",g,--,--,3.00,3.70
"Fiber, total dietary",g,--,--,1.0,1.2
"Sugars, total",g,--,--,1.00,1.23
Minerals
"Calcium, Ca",mg,--,--,80,99
"Iron, Fe",mg,--,--,0.75,0.93
"Sodium, Na",mg,--,--,120,148
Vitamins
"Vitamin C, total ascorbic acid",mg,--,--,1.3,1.6
"Vitamin A, IU",IU,--,--,2624,3239
Lipids
"Fatty acids, total saturated",g,--,--,0.000,0.000
"Fatty acids, total trans",g,--,--,0.000,0.000
"Cholesterol",mg,--,--,0,0
Amino Acids
Other
Ingredients
"SPINACH." Date available: 08/10/2017 Date last updated by company: 08/10/2017
