Source: USDA Branded Food Products Database Release December 2017 Software v.3.8.6.4 2017-10-02
Report Run at: December 19, 2017 05:44 EST
"Nutrient data for: 45261745, CHOPPED OCEAN CLAMS, UPC: 08056409"
Food Group:  Branded Food Products Database
Common Name:

Nutrient,Unit,Data points,Std. Error,"2.0 ONZ = 56.0g",1Value per 100 g,
Proximates
"Energy",kcal,--,--,25,45
"Protein",g,--,--,3.00,5.36
"Total lipid (fat)",g,--,--,0.00,0.00
"Carbohydrate, by difference",g,--,--,3.00,5.36
"Fiber, total dietary",g,--,--,0.0,0.0
"Sugars, total",g,--,--,0.00,0.00
Minerals
"Calcium, Ca",mg,--,--,0,0
"Iron, Fe",mg,--,--,0.55,0.98
"Potassium, K",mg,--,--,5,9
"Sodium, Na",mg,--,--,250,446
Vitamins
"Vitamin C, total ascorbic acid",mg,--,--,0.0,0.0
"Vitamin A, IU",IU,--,--,0,0
Lipids
"Fatty acids, total saturated",g,--,--,0.000,0.000
"Fatty acids, total monounsaturated",g,--,--,0.000,0.000
"Fatty acids, total polyunsaturated",g,--,--,0.000,0.000
"Fatty acids, total trans",g,--,--,0.000,0.000
"Cholesterol",mg,--,--,5,9
Amino Acids
Other
Ingredients
"CLAMS IN THEIR NATURAL JUICE, WATER, SALT, SUGAR, SODIUM TRIPOLYPHOSPHATE (TO RETAIN NATURAL JUICES), CALCIUM DISODIUM EDTA (TO PROTECT COLOR)." Date available: 07/14/2017 Date last updated by company: 07/14/2017
