Source: USDA Branded Food Products Database Release December 2017 Software v.3.8.6.4 2017-10-02
Report Run at: December 19, 2017 05:52 EST
"Nutrient data for: 45266294, CHORIZO, UPC: 073541323082"
Food Group:  Branded Food Products Database
Common Name:

Nutrient,Unit,Data points,Std. Error,"1 ONZ = 28.0g",1Value per 100 g,
Proximates
"Energy",kcal,--,--,120,429
"Protein",g,--,--,8.00,28.57
"Total lipid (fat)",g,--,--,10.00,35.71
"Carbohydrate, by difference",g,--,--,1.00,3.57
"Fiber, total dietary",g,--,--,0.0,0.0
"Sugars, total",g,--,--,0.00,0.00
Minerals
"Calcium, Ca",mg,--,--,0,0
"Iron, Fe",mg,--,--,2.83,10.10
"Sodium, Na",mg,--,--,620,2214
Vitamins
"Vitamin C, total ascorbic acid",mg,--,--,11.8,42.1
"Vitamin A, IU",IU,--,--,785,2805
Lipids
"Fatty acids, total saturated",g,--,--,2.500,8.930
"Fatty acids, total trans",g,--,--,0.000,0.000
"Cholesterol",mg,--,--,65,232
Amino Acids
Other
Ingredients
"PORK, SALT, PAPRIKA, DEXTROSE, GARLIC, LACTIC ACID STARTER CULTURE, SODIUM ERYTHORBATE, SODIUM NITRITE." Date available: 09/08/2017 Date last updated by company: 09/08/2017
