Source: USDA Branded Food Products Database Release December 2017 Software v.3.8.6.4 2017-10-02
Report Run at: December 19, 2017 05:51 EST
"Nutrient data for: 45200588, CHORIZO SAUSAGE, UPC: 721714016056"
Food Group:  Branded Food Products Database
Common Name:

Nutrient,Unit,Data points,Std. Error,"2.5 ONZ = 71.0g",1Value per 100 g,
Proximates
"Energy",kcal,--,--,180,254
"Protein",g,--,--,12.00,16.90
"Total lipid (fat)",g,--,--,13.00,18.31
"Carbohydrate, by difference",g,--,--,1.00,1.41
Minerals
"Iron, Fe",mg,--,--,0.56,0.79
"Sodium, Na",mg,--,--,510,718
Vitamins
Lipids
"Fatty acids, total saturated",g,--,--,4.501,6.340
"Cholesterol",mg,--,--,45,63
Amino Acids
Other
Ingredients
"PORK, WATER, SALT, POTASSIUM LACTATE, SPICES, POTASSIUM, ACETATE, DEHYDRATED GARLIC, NATURAL FLAVORINGS." Date available: 10/19/2017 Date last updated by company: 10/19/2017
