Source: USDA Branded Food Products Database Release December 2017 Software v.3.8.6.4 2017-10-02
Report Run at: December 19, 2017 05:52 EST
"Nutrient data for: 45041647, CHOSEN BLEND OIL BEST FOR BAKING, UPC: 853807005200"
Food Group:  Branded Food Products Database
Common Name:

Nutrient,Unit,Data points,Std. Error,"1 Tbsp = 14.0g",1Value per 100 g,
Proximates
"Energy",kcal,--,--,126,900
"Protein",g,--,--,0.00,0.00
"Total lipid (fat)",g,--,--,14.00,100.00
"Carbohydrate, by difference",g,--,--,0.00,0.00
"Fiber, total dietary",g,--,--,0.0,0.0
"Sugars, total",g,--,--,0.00,0.00
Minerals
"Calcium, Ca",mg,--,--,0,0
"Iron, Fe",mg,--,--,0.00,0.00
"Sodium, Na",mg,--,--,0,0
Vitamins
"Vitamin C, total ascorbic acid",mg,--,--,0.0,0.0
"Vitamin A, IU",IU,--,--,0,0
Lipids
"Fatty acids, total saturated",g,--,--,2.001,14.290
"Fatty acids, total monounsaturated",g,--,--,10.000,71.430
"Fatty acids, total polyunsaturated",g,--,--,2.001,14.290
"Fatty acids, total trans",g,--,--,0.000,0.000
"Cholesterol",mg,--,--,0,0
Amino Acids
Other
Ingredients
"ORGANIC HIGH OLEIC* SAFFLOWER OIL, AVOCADO OIL, COCONUT OIL." Date available: 07/14/2017 Date last updated by company: 07/14/2017
