Source: USDA Branded Food Products Database Release December 2017 Software v.3.8.6.4 2017-10-02
Report Run at: December 19, 2017 05:53 EST
"Nutrient data for: 45324859, CHOW MEIN QUICK & EASY SEASONING MIX, UPC: 011152286594"
Food Group:  Branded Food Products Database
Common Name:

Nutrient,Unit,Data points,Std. Error,"1 tsp = 3.0g",1Value per 100 g,
Proximates
"Energy",kcal,--,--,10,333
"Protein",g,--,--,0.00,0.00
"Total lipid (fat)",g,--,--,0.00,0.00
"Carbohydrate, by difference",g,--,--,2.00,66.67
"Fiber, total dietary",g,--,--,0.0,0.0
"Sugars, total",g,--,--,0.00,0.00
Minerals
"Calcium, Ca",mg,--,--,0,0
"Iron, Fe",mg,--,--,0.00,0.00
"Sodium, Na",mg,--,--,200,6667
Vitamins
"Vitamin C, total ascorbic acid",mg,--,--,0.0,0.0
"Vitamin A, IU",IU,--,--,0,0
Lipids
"Fatty acids, total saturated",g,--,--,0.000,0.000
"Fatty acids, total trans",g,--,--,0.000,0.000
"Cholesterol",mg,--,--,0,0
Amino Acids
Other
Ingredients
"MODIFIED CORNSTARCH, SALT, SUGAR, BEEF FLAVOR, CHICKEN FLAVOR (CHICKEN, CHICKEN SKIN, CHICKEN BROTH, SALT, NATURAL FLAVOR), SOY SAUCE POWDER (SOY SAUCE [WATER, SOYBEANS, WHEAT, SALT], MALTODEXTRIN, SALT), HYDROLYZED VEGETABLE PROTEIN (HYDROLYZED CORN GLUTEN, WHEAT PROTEIN, SOY PROTEIN, AUTOLYZED YEAST EXTRACT, HYDROGENATED SOYBEAN AND COTTONSEED OIL), GARLIC POWDER, NONFAT DRY MILK, SHERRY WINE POWDER (MALTODEXTRIN, MODIFIED CORNSTARCH, SHERRY WINE SOLIDS, CORN SYRUP, MALIC ACID, SULFITES, NATURAL FLAVOR), GINGER POWDER, CARAMEL COLOR, SPICES, TORULA YEAST EXTRACT." Date available: 08/11/2017 Date last updated by company: 08/11/2017
