Source: USDA Branded Food Products Database Release December 2017 Software v.3.8.6.4 2017-10-02
Report Run at: December 19, 2017 05:54 EST
"Nutrient data for: 45208342, CHRISMAS CANDY CAKE DECORATIONS, UPC: 071169820884"
Food Group:  Branded Food Products Database
Common Name:

Nutrient,Unit,Data points,Std. Error,"2.0 PIECES = 3.5g",1Value per 100 g,
Proximates
"Energy",kcal,--,--,10,286
"Protein",g,--,--,0.00,0.00
"Total lipid (fat)",g,--,--,0.00,0.00
"Carbohydrate, by difference",g,--,--,3.00,85.71
"Sugars, total",g,--,--,3.00,85.71
Minerals
"Sodium, Na",mg,--,--,0,0
Vitamins
Lipids
Amino Acids
Other
Ingredients
"SUGAR, EGG WHITE SOLIDS, DISTILLED VINEGAR, RED 3, SODIUM BENZOATE (PRESERVATIVE), YELLOW 5, RED 40, YELLOW 6, BLUE 1." Date available: 07/14/2017 Date last updated by company: 07/14/2017
