Source: USDA Branded Food Products Database Release December 2017 Software v.3.8.6.4 2017-10-02
Report Run at: December 19, 2017 06:00 EST
"Nutrient data for: 45055119, CHUNK HUM, UPC: 032251085086"
Food Group:  Branded Food Products Database
Common Name:

Nutrient,Unit,Data points,Std. Error,"2.0 ONZ = 56.0g",1Value per 100 g,
Proximates
"Energy",kcal,--,--,90,161
"Protein",g,--,--,9.00,16.07
"Total lipid (fat)",g,--,--,6.00,10.71
"Carbohydrate, by difference",g,--,--,1.00,1.79
"Fiber, total dietary",g,--,--,0.0,0.0
"Sugars, total",g,--,--,1.00,1.79
Minerals
"Calcium, Ca",mg,--,--,0,0
"Iron, Fe",mg,--,--,0.00,0.00
"Sodium, Na",mg,--,--,560,1000
Vitamins
"Vitamin C, total ascorbic acid",mg,--,--,0.0,0.0
"Vitamin A, IU",IU,--,--,0,0
Lipids
"Fatty acids, total saturated",g,--,--,1.999,3.570
"Fatty acids, total trans",g,--,--,0.000,0.000
"Cholesterol",mg,--,--,40,71
Amino Acids
Other
Ingredients
"HAM (CURED WITH WATER, SALT, SUGAR, SPICES, CARRAGEENAN, SODIUM PHOSPHATE, SODIUM ERYTHORBATE, SODIUM NITRITE), SMOKE FLAVOR." Date available: 06/24/2017 Date last updated by company: 06/24/2017
