Source: USDA Branded Food Products Database Release December 2017 Software v.3.8.6.4 2017-10-02
Report Run at: December 19, 2017 06:10 EST
"Nutrient data for: 45130329, Chunky Crushed Tomatoes - #10 Can, UNPREPARED, GTIN: 00027000380659"
Food Group:  Branded Food Products Database
Common Name:

Nutrient,Unit,Data points,Std. Error,"0.5 cup (121g) = 121.0g",1Value per 100 g,
Proximates
"Energy",kcal,--,--,35,29
"Protein",g,--,--,2.00,1.65
"Total lipid (fat)",g,--,--,0.00,0.00
"Carbohydrate, by difference",g,--,--,7.01,5.79
"Fiber, total dietary",g,--,--,2.1,1.7
"Sugars, total",g,--,--,4.01,3.31
Minerals
"Calcium, Ca",mg,--,--,21,17
"Iron, Fe",mg,--,--,0.73,0.60
"Potassium, K",mg,--,--,340,281
"Sodium, Na",mg,--,--,380,314
Vitamins
"Vitamin C, total ascorbic acid",mg,--,--,9.0,7.4
"Vitamin A, IU",IU,--,--,500,413
Lipids
"Fatty acids, total saturated",g,--,--,0.000,0.000
"Fatty acids, total monounsaturated",g,--,--,0.000,0.000
"Fatty acids, total polyunsaturated",g,--,--,0.000,0.000
"Fatty acids, total trans",g,--,--,0.000,0.000
"Cholesterol",mg,--,--,0,0
Amino Acids
Other
Ingredients
"Vine-Ripened Tomatoes, Less than 2% of: Salt, Citric Acid, Calcium Chloride." Date available: 10/12/2017 Date last updated by company: 10/12/2017
