Source: USDA Branded Food Products Database Release December 2017 Software v.3.8.6.4 2017-10-02
Report Run at: December 19, 2017 06:08 EST
"Nutrient data for: 45275438, CHUNKY BLUE CHEESE DRESSING, UPC: 041321005206"
Food Group:  Branded Food Products Database
Common Name:

Nutrient,Unit,Data points,Std. Error,"2.0 Tbsp = 30.0g",1Value per 100 g,
Proximates
"Energy",kcal,--,--,30,100
"Protein",g,--,--,1.00,3.33
"Total lipid (fat)",g,--,--,0.00,0.00
"Carbohydrate, by difference",g,--,--,7.00,23.33
"Fiber, total dietary",g,--,--,1.0,3.3
"Sugars, total",g,--,--,3.00,10.00
Minerals
"Calcium, Ca",mg,--,--,20,67
"Iron, Fe",mg,--,--,0.00,0.00
"Sodium, Na",mg,--,--,310,1033
Vitamins
"Vitamin C, total ascorbic acid",mg,--,--,0.0,0.0
"Vitamin A, IU",IU,--,--,0,0
Lipids
"Fatty acids, total saturated",g,--,--,0.000,0.000
"Fatty acids, total monounsaturated",g,--,--,0.000,0.000
"Fatty acids, total polyunsaturated",g,--,--,0.000,0.000
"Fatty acids, total trans",g,--,--,0.000,0.000
"Cholesterol",mg,--,--,0,0
Amino Acids
Other
Ingredients
"WATER, MALTODEXTRIN, WHEY (MILK), DISTILLED VINEGAR, SUGAR. CONTAINS 2% OR LESS OF: SALT, MODIFIED CORN STARCH, BLUE CHEESE CHUNKS** [WATER, AGED BLUE CHEESE (MILK, CHEESE CULTURES, SALT, ENZYMES), PALM OIL, SODIUM AND CALCIUM CASEINATES, SALT, LACTIC ACID, CELLULOSE GUM, SODIUM PHOSPHATE, POTASSIUM SORBATE (PRESERVATIVE), XANTHAN GUM, LOCUST BEAN GUM], CELLULOSE GEL, WHITE MUSTARD PASTE (DISTILLED VINEGAR, MUSTARD SEED, WATER), PHOSPHORIC ACID, YEAST EXTRACT, BLUE CHEESE (MILK, CHEESE CULTURES, SALT, ENZYMES), XANTHAN GUM, COLOR ADDED, PROPYLENE GLYCOL ALGINATE, CELLULOSE GUM, NATURAL FLAVORS, SOYBEAN OIL**, NONFAT DRIED MILK, GREEN ONION*, SPICES, LACTIC ACID, ENZYME MODIFIED BUTTER FAT** (BUTTER FAT, ENZYMES), DISODIUM INOSINATE AND DISODIUM GUANYLATE, DL-ALPHA-TOCOPHEROL ACETATE (VITAMIN E), SORBIC ACID AND SODIUM BENZOATE AND CALCIUM DISODIUM EDTA (TO PROTECT QUALITY)." Date available: 07/14/2017 Date last updated by company: 07/14/2017
