Source: USDA Branded Food Products Database Release December 2017 Software v.3.8.6.4 2017-10-02
Report Run at: December 19, 2017 06:15 EST
"Nutrient data for: 45258353, CHUNKY STYLE TUNA SALAD DELUXE, UPC: 851909002370"
Food Group:  Branded Food Products Database
Common Name:

Nutrient,Unit,Data points,Std. Error,"1 ONZ = 28.0g",1Value per 100 g,
Proximates
"Energy",kcal,--,--,70,250
"Protein",g,--,--,4.00,14.29
"Total lipid (fat)",g,--,--,4.50,16.07
"Carbohydrate, by difference",g,--,--,3.00,10.71
"Fiber, total dietary",g,--,--,0.0,0.0
"Sugars, total",g,--,--,1.00,3.57
Minerals
"Calcium, Ca",mg,--,--,0,0
"Iron, Fe",mg,--,--,0.00,0.00
"Sodium, Na",mg,--,--,250,893
Vitamins
"Vitamin C, total ascorbic acid",mg,--,--,6.0,21.4
"Vitamin A, IU",IU,--,--,0,0
Lipids
"Fatty acids, total saturated",g,--,--,0.501,1.790
"Fatty acids, total trans",g,--,--,0.000,0.000
"Cholesterol",mg,--,--,10,36
Amino Acids
Other
Ingredients
"TUNA, MAYONNAISE (SOYBEAN OIL/COTTON SEED OIL, EGGS, VINEGAR), MUSTARD, SALT, SUGAR, PEPPER, LESS THAN 1/10TH OF 1% POTASSIUM SORBATE, SODIUM BENZOATE TO PRESERVE FLAVOR." Date available: 08/28/2017 Date last updated by company: 08/28/2017
