Source: USDA Branded Food Products Database Release December 2017 Software v.3.8.6.4 2017-10-02
Report Run at: December 19, 2017 06:08 EST
"Nutrient data for: 45059301, CHUNKY BAKED POTATOES WITH CHEDDAR & BACON, UPC: 035826081704"
Food Group:  Branded Food Products Database
Common Name:

Nutrient,Unit,Data points,Std. Error,"1 cup = 245.0g",1Value per 100 g,
Proximates
"Energy",kcal,--,--,191,78
"Protein",g,--,--,6.00,2.45
"Total lipid (fat)",g,--,--,8.01,3.27
"Carbohydrate, by difference",g,--,--,24.99,10.20
"Fiber, total dietary",g,--,--,2.0,0.8
"Sugars, total",g,--,--,2.01,0.82
Minerals
"Calcium, Ca",mg,--,--,20,8
"Iron, Fe",mg,--,--,0.71,0.29
"Potassium, K",mg,--,--,341,139
"Sodium, Na",mg,--,--,789,322
Vitamins
"Vitamin C, total ascorbic acid",mg,--,--,9.1,3.7
"Vitamin A, IU",IU,--,--,0,0
Lipids
"Fatty acids, total saturated",g,--,--,2.009,0.820
"Fatty acids, total trans",g,--,--,0.000,0.000
"Cholesterol",mg,--,--,10,4
Amino Acids
Other
Ingredients
"CHICKEN BROTH, POTATOES, ROASTED POTATOES, MODIFIED CORN STARCH, CONTAINS 2% OR LESS OF SMOKED BACON (BACON [CURED WITH WATER, SALT, SUGAR, SODIUM PHOSPHATES, SODIUM ERYTHORBATE, SODIUM NITRITE], SMOKE FLAVORING), SOYBEAN OIL, WHEAT FLOUR, CREAM, SALT, SUGAR, DEHYDRATED ONIONS, SKIM MILK POWDER, CHEDDAR CHEESE (PASTEURIZED MILK, CHEESE CULTURES, SALT, ENZYMES, ANNATO [VEGETABLE COLOR]), BUTTER, DEHYDRATED POTATO FLAKES, CHEDDAR CHEESE FLAVOR (CREAM, CHEDDAR CHEESE [MILK, STARTER CULTURE, SALT, ENZYMES], WATER, LACTIC ACID, CITRIC ACID, ACETIC ACID, DISODIUM PHOSPHATE, XANTHAN GUM), HYDROLYZED TORULA AND BREWERS YEAST, YEAST EXTRACT, SOY PROTEIN CONCENTRATE, BACON FAT, NATURAL FLAVOR (CONTAINS MILK), GARLIC POWDER, MALTODEXTRIN, SMOKE FLAVOR, MALTED BARLEY FLOUR, PORK BROTH, DEHYDRATED PARSLEY, DISODIUM PHOSPHATE, POTATO FLOUR, AUTOLYZED YEAST EXTRACT, DISODIUM INOSINATE, DISODIUM GUANYLATE, HISTIDINE, ENZYME MODIFIED CHEDDAR AND ROMANO CHEESE (PASTEURIZED MILK, CULTURES, SALT AND ENZYMES), DRIED YEAST, SOY LECITHIN." Date available: 06/24/2017 Date last updated by company: 06/24/2017
