Source: USDA Branded Food Products Database Release December 2017 Software v.3.8.6.4 2017-10-02
Report Run at: December 19, 2017 06:08 EST
"Nutrient data for: 45277043, CHUNKY BLUE CHEESE, UPC: 075450034974"
Food Group:  Branded Food Products Database
Common Name:

Nutrient,Unit,Data points,Std. Error,"2.0 Tbsp = 29.0g",1Value per 100 g,
Proximates
"Energy",kcal,--,--,120,414
"Protein",g,--,--,0.00,0.00
"Total lipid (fat)",g,--,--,13.00,44.83
"Carbohydrate, by difference",g,--,--,2.00,6.90
"Fiber, total dietary",g,--,--,0.0,0.0
"Sugars, total",g,--,--,1.00,3.45
Minerals
"Calcium, Ca",mg,--,--,0,0
"Iron, Fe",mg,--,--,0.00,0.00
"Sodium, Na",mg,--,--,340,1172
Vitamins
"Vitamin C, total ascorbic acid",mg,--,--,0.0,0.0
"Vitamin A, IU",IU,--,--,0,0
Lipids
"Fatty acids, total saturated",g,--,--,2.001,6.900
"Fatty acids, total trans",g,--,--,0.000,0.000
"Cholesterol",mg,--,--,0,0
Amino Acids
Other
Ingredients
"SOYBEAN OIL, WATER, VINEGAR, BLUE CHEESE (WATER, AGED BLUE CHEESE [MILK, CHEESE CULTURES, SALT, ENZYMES], PARTIALLY HYDROGENATED SOYBEAN OIL, SODIUM AND CALCIUM CASEINATES, SALT, LACTIC ACID, MICROCRYSTALLINE CELLULOSE, POTASSIUM SORBATE [PRESERVATIVE], XANTHAN GUM, LOCUST BEAN GUM), SUGAR, SALT, CONTAINS LESS THAN 2% OF: NATURAL AND ARTIFICIAL FLAVORS, XANTHAN GUM, PHOSPHORIC ACID, PROPYLENE GLYCOL ALGINATE, POLYSORBATE 60, POTASSIUM SORBATE AND CALCIUM DISODIUM EDTA AS PRESERVATIVES, GARLIC*, ONION*, LACTIC ACID, ARTIFICIAL COLOR, VITAMIN E (DL ALPHA TOCOPHEROL ACETATE), BETA CAROTENE (COLOR)." Date available: 07/14/2017 Date last updated by company: 07/14/2017
