Source: USDA Branded Food Products Database Release December 2017 Software v.3.8.6.4 2017-10-02
Report Run at: December 19, 2017 06:07 EST
"Nutrient data for: 45275188, CHUNKY ALL-NATURAL ENERGY NUT BUTTER, UPC: 804879462958"
Food Group:  Branded Food Products Database
Common Name:

Nutrient,Unit,Data points,Std. Error,"2.0 Tbsp = 32.0g",1Value per 100 g,
Proximates
"Energy",kcal,--,--,190,594
"Protein",g,--,--,5.00,15.62
"Total lipid (fat)",g,--,--,16.00,50.00
"Carbohydrate, by difference",g,--,--,9.00,28.12
"Fiber, total dietary",g,--,--,3.0,9.4
"Sugars, total",g,--,--,4.00,12.50
Minerals
"Calcium, Ca",mg,--,--,40,125
"Iron, Fe",mg,--,--,2.25,7.03
"Sodium, Na",mg,--,--,25,78
Vitamins
"Vitamin C, total ascorbic acid",mg,--,--,0.0,0.0
"Vitamin A, IU",IU,--,--,0,0
Lipids
"Fatty acids, total saturated",g,--,--,4.000,12.500
"Fatty acids, total trans",g,--,--,0.000,0.000
"Cholesterol",mg,--,--,0,0
Amino Acids
Other
Ingredients
"ALMONDS, HAZELNUTS, PEANUTS, BITTERSWEET CHOCOLATE (CACAO BEANS, SUGAR, SUNFLOWER LECITHIN, VANILLA), COCONUT OIL, HONEY, COFFEE BEANS, SUNFLOWER LECITHIN, FLAX SEEDS, SEA SALT, VANILLA BEANS" Date available: 09/18/2017 Date last updated by company: 09/18/2017
