Source: USDA Branded Food Products Database Release December 2017 Software v.3.8.6.4 2017-10-02
Report Run at: December 19, 2017 06:11 EST
"Nutrient data for: 45039068, CHUNKY MARINARA PASTA SAUCE, UPC: 719283594280"
Food Group:  Branded Food Products Database
Common Name:

Nutrient,Unit,Data points,Std. Error,"0.5 cup = 125.0g",1Value per 100 g,
Proximates
"Energy",kcal,--,--,60,48
"Protein",g,--,--,2.00,1.60
"Total lipid (fat)",g,--,--,1.50,1.20
"Carbohydrate, by difference",g,--,--,10.00,8.00
"Fiber, total dietary",g,--,--,3.0,2.4
"Sugars, total",g,--,--,5.00,4.00
Minerals
"Calcium, Ca",mg,--,--,40,32
"Iron, Fe",mg,--,--,1.14,0.91
"Sodium, Na",mg,--,--,490,392
Vitamins
"Vitamin C, total ascorbic acid",mg,--,--,6.4,5.1
"Vitamin A, IU",IU,--,--,422,338
Lipids
"Fatty acids, total saturated",g,--,--,0.000,0.000
"Fatty acids, total trans",g,--,--,0.000,0.000
"Cholesterol",mg,--,--,0,0
Amino Acids
Other
Ingredients
"TOMATO PUREE (WATER, TOMATO PASTE), DICED TOMATOES IN JUICE, IMPORTED OLIVE OIL, SALT, DEHYDRATED ONIONS, GARLIC, CITRIC ACID, SPICES, ONION POWDER, AND PARSLEY." Date available: 06/24/2017 Date last updated by company: 06/24/2017
