Source: USDA Branded Food Products Database Release December 2017 Software v.3.8.6.4 2017-10-02
Report Run at: December 19, 2017 06:13 EST
"Nutrient data for: 45063886, CHUNKY SALSA, UPC: 073731009543"
Food Group:  Branded Food Products Database
Common Name:

Nutrient,Unit,Data points,Std. Error,"2.0 Tbsp = 32.0g",1Value per 100 g,
Proximates
"Energy",kcal,--,--,10,31
"Protein",g,--,--,0.00,0.00
"Total lipid (fat)",g,--,--,0.00,0.00
"Carbohydrate, by difference",g,--,--,2.00,6.25
"Fiber, total dietary",g,--,--,0.0,0.0
"Sugars, total",g,--,--,2.00,6.25
Minerals
"Calcium, Ca",mg,--,--,0,0
"Iron, Fe",mg,--,--,0.00,0.00
"Sodium, Na",mg,--,--,110,344
Vitamins
"Vitamin C, total ascorbic acid",mg,--,--,3.7,11.7
"Vitamin A, IU",IU,--,--,156,488
Lipids
"Fatty acids, total saturated",g,--,--,0.000,0.000
"Fatty acids, total trans",g,--,--,0.000,0.000
"Cholesterol",mg,--,--,0,0
Amino Acids
Other
Ingredients
"TOMATOES, WATER, TOMATO PASTE, ONIONS, JALAPENO PEPPERS, BELL PEPPERS, VINEGAR, DEHYDRATED ONIONS, SALT, DEHYDRATED GARLIC, SUGAR." Date available: 07/14/2017 Date last updated by company: 07/14/2017
