Source: USDA Branded Food Products Database Release December 2017 Software v.3.8.6.4 2017-10-02
Report Run at: December 19, 2017 06:14 EST
"Nutrient data for: 45290006, CHUNKY SALSA, UPC: 817974021432"
Food Group:  Branded Food Products Database
Common Name:

Nutrient,Unit,Data points,Std. Error,"2.0 Tbsp = 31.0g",1Value per 100 g,
Proximates
"Energy",kcal,--,--,10,32
"Protein",g,--,--,0.00,0.00
"Total lipid (fat)",g,--,--,0.00,0.00
"Carbohydrate, by difference",g,--,--,2.00,6.45
"Fiber, total dietary",g,--,--,0.0,0.0
"Sugars, total",g,--,--,1.00,3.23
Minerals
"Calcium, Ca",mg,--,--,0,0
"Iron, Fe",mg,--,--,0.61,1.96
"Potassium, K",mg,--,--,0,0
"Sodium, Na",mg,--,--,140,452
Vitamins
"Vitamin D",IU,--,--,0,0
Lipids
"Fatty acids, total saturated",g,--,--,0.000,0.000
"Fatty acids, total trans",g,--,--,0.000,0.000
"Cholesterol",mg,--,--,0,0
Amino Acids
Other
Ingredients
"ORGANIC DICED TOMATOES, WATER, ORGANIC CRUSHED TOMATOES, ORGANIC ONIONS, ORGANIC JALAPENO PEPPERS, ORGANIC CILANTRO, ORGANIC CIDER VINEGAR, SEA SALT, ORGANIC LIME JUICE CONCENTRATE, ORGANIC CUMIN, ORGANIC GARLIC, ORGANIC BLACK PEPPER." Date available: 09/22/2017 Date last updated by company: 09/22/2017
