Source: USDA Branded Food Products Database Release December 2017 Software v.3.8.6.4 2017-10-02
Report Run at: December 19, 2017 06:15 EST
"Nutrient data for: 45199716, CHUNKY VEGETABLE BEEF SOUP, UPC: 607880032611"
Food Group:  Branded Food Products Database
Common Name:

Nutrient,Unit,Data points,Std. Error,"1 cup = 245.0g",1Value per 100 g,
Proximates
"Energy",kcal,--,--,120,49
"Protein",g,--,--,8.99,3.67
"Total lipid (fat)",g,--,--,1.49,0.61
"Carbohydrate, by difference",g,--,--,19.01,7.76
"Fiber, total dietary",g,--,--,2.9,1.2
"Sugars, total",g,--,--,2.01,0.82
Minerals
"Calcium, Ca",mg,--,--,39,16
"Iron, Fe",mg,--,--,1.45,0.59
"Potassium, K",mg,--,--,730,298
"Sodium, Na",mg,--,--,480,196
Vitamins
"Vitamin C, total ascorbic acid",mg,--,--,3.7,1.5
"Vitamin A, IU",IU,--,--,4001,1633
Lipids
"Fatty acids, total saturated",g,--,--,0.490,0.200
"Fatty acids, total trans",g,--,--,0.000,0.000
"Cholesterol",mg,--,--,20,8
Amino Acids
Other
Ingredients
"WATER, CARROTS, POTATOES, SEASONED COOKED BEEF (BEEF, WATER, SALT, SODIUM PHOSPHATE), CELERY TOMATO PUREE (WATER, TOMATO PASTE), DICED TOMATOES (TOMATOES, TOMATO JUICE, SALT, CITRIC ACID, CALCIUM CHLORIDE), CORN, GREEN BEANS, PEAS MODIFIED FOOD STARCH, CONTAINS LESS THAN 2% OF: BEEF FLAVOR (BEEF BROTH, NATURAL FLAVOR), YEAST EXTRACT, HYDROLYZED WHEAT GLUTEN, POTASSIUM CHLORIDE, VEGETABLE BASE (COOKED VEGETABLES [CARROT, CELERY, ONIONS], SUGAR, SALT, CORN OIL, AUTOLYZED YEAST EXTRACT, FLAVORINGS), FLAVORING (MALTODEXTRIN, NATURAL FLAVOR, MODIFIED TAPIOCA STARCH, SALT), DRY BEEF STOCK, HYDROLYZED YEAST WITH A MAXIMUM OF 2% PARTIALLY HYDROGENATED SOYBEAN OIL, ONION POWDER, SEA SALT, GARLIC POWDER, DISODIUM INOSINATE, DISODIUM GUANYLATE, NATURAL FLAVOR, LACTIC ACID." Date available: 07/14/2017 Date last updated by company: 07/14/2017
