Source: USDA Branded Food Products Database Release December 2017 Software v.3.8.6.4 2017-10-02
Report Run at: December 19, 2017 06:09 EST
"Nutrient data for: 45272746, CHUNKY CHOCOLATE CHIP COOKIES, UPC: 075450230932"
Food Group:  Branded Food Products Database
Common Name:

Nutrient,Unit,Data points,Std. Error,"2.0 COOKIES = 32.0g",1Value per 100 g,
Proximates
"Energy",kcal,--,--,150,469
"Protein",g,--,--,1.00,3.12
"Total lipid (fat)",g,--,--,8.00,25.00
"Carbohydrate, by difference",g,--,--,20.00,62.50
"Fiber, total dietary",g,--,--,1.0,3.1
"Sugars, total",g,--,--,9.00,28.12
Minerals
"Calcium, Ca",mg,--,--,20,62
"Iron, Fe",mg,--,--,0.00,0.00
"Potassium, K",mg,--,--,35,109
"Sodium, Na",mg,--,--,105,328
Vitamins
"Vitamin C, total ascorbic acid",mg,--,--,0.0,0.0
"Vitamin A, IU",IU,--,--,0,0
Lipids
"Fatty acids, total saturated",g,--,--,3.501,10.940
"Fatty acids, total trans",g,--,--,0.000,0.000
"Cholesterol",mg,--,--,0,0
Amino Acids
Other
Ingredients
"UNBLEACHED ENRICHED FLOUR (WHEAT FLOUR, NIACIN, REDUCED IRON, THIAMINE MONONITRATE, RIBOFLAVIN, FOLIC ACID), CHOCOLATE CHIPS AND CHUNKS (SUGAR, CHOCOLATE LIQUOR, COCOA BUTTER, DEXTROSE, SOY LECITHIN, VANILLIN), PALM OIL AND SOYBEAN OIL, SUGAR, LEAVENING (SODIUM BICARBONATE, AMMONIUM BICARBONATE, MONOCALCIUM PHOSPHATE), MOLASSES, HIGH FRUCTOSE CORN SYRUP, CORNSTARCH, SALT, NATURAL AND ARTIFICIAL FLAVORS, SOY LECITHIN (EMULSIFIER), CARAMEL COLOR." Date available: 07/14/2017 Date last updated by company: 07/14/2017
