Source: USDA Branded Food Products Database Release December 2017 Software v.3.8.6.4 2017-10-02
Report Run at: December 19, 2017 06:11 EST
"Nutrient data for: 45237621, CHUNKY HOT GIARDINIERA, UPC: 187839000224"
Food Group:  Branded Food Products Database
Common Name:

Nutrient,Unit,Data points,Std. Error,"2.0 Tbsp = 1.0g",1Value per 100 g,
Proximates
"Energy",kcal,--,--,2,167
"Protein",g,--,--,0.00,0.00
"Total lipid (fat)",g,--,--,0.15,15.00
"Carbohydrate, by difference",g,--,--,0.03,3.33
"Fiber, total dietary",g,--,--,0.0,0.0
"Sugars, total",g,--,--,0.00,0.00
Minerals
"Sodium, Na",mg,--,--,11,1133
Vitamins
Lipids
"Fatty acids, total saturated",g,--,--,0.017,1.670
"Fatty acids, total trans",g,--,--,0.000,0.000
"Cholesterol",mg,--,--,0,0
Amino Acids
Other
Ingredients
"SELECT PEPPERS, CAULIFLOWER, CELERY, CARROTS, OLIVES, SPICES, PURE SOYBEAN OIL." Date available: 10/13/2017 Date last updated by company: 10/13/2017
