Source: USDA Branded Food Products Database Release December 2017 Software v.3.8.6.4 2017-10-02
Report Run at: December 19, 2017 06:07 EST
"Nutrient data for: 45257226, CHUNK WHITE TUNA IN WATER, UPC: 046567030760"
Food Group:  Branded Food Products Database
Common Name:

Nutrient,Unit,Data points,Std. Error,"1 POUCH = 74.0g",1Value per 100 g,
Proximates
"Energy",kcal,--,--,90,122
"Protein",g,--,--,21.00,28.38
"Total lipid (fat)",g,--,--,1.00,1.35
"Carbohydrate, by difference",g,--,--,2.00,2.70
"Fiber, total dietary",g,--,--,0.0,0.0
"Sugars, total",g,--,--,0.00,0.00
Minerals
"Calcium, Ca",mg,--,--,0,0
"Iron, Fe",mg,--,--,0.83,1.12
"Sodium, Na",mg,--,--,290,392
Vitamins
"Vitamin C, total ascorbic acid",mg,--,--,0.0,0.0
"Vitamin A, IU",IU,--,--,0,0
Lipids
"Fatty acids, total saturated",g,--,--,0.000,0.000
"Fatty acids, total trans",g,--,--,0.000,0.000
"Cholesterol",mg,--,--,55,74
Amino Acids
Other
Ingredients
"ALBACORE TUNA, WATER, SALT." Date available: 07/14/2017 Date last updated by company: 07/14/2017
