Source: USDA Branded Food Products Database Release December 2017 Software v.3.8.6.4 2017-10-02
Report Run at: December 19, 2017 06:08 EST
"Nutrient data for: 45196286, CHUNKY BEEF, UPC: 042187429472"
Food Group:  Branded Food Products Database
Common Name:

Nutrient,Unit,Data points,Std. Error,"1 cup = 245.0g",1Value per 100 g,
Proximates
"Energy",kcal,--,--,130,53
"Protein",g,--,--,8.01,3.27
"Total lipid (fat)",g,--,--,2.01,0.82
"Carbohydrate, by difference",g,--,--,18.01,7.35
"Fiber, total dietary",g,--,--,2.9,1.2
"Sugars, total",g,--,--,2.99,1.22
Minerals
"Calcium, Ca",mg,--,--,20,8
"Iron, Fe",mg,--,--,1.08,0.44
"Potassium, K",mg,--,--,419,171
"Sodium, Na",mg,--,--,860,351
Vitamins
"Vitamin C, total ascorbic acid",mg,--,--,5.9,2.4
"Vitamin A, IU",IU,--,--,3501,1429
Lipids
"Fatty acids, total saturated",g,--,--,0.490,0.200
"Fatty acids, total monounsaturated",g,--,--,0.490,0.200
"Fatty acids, total polyunsaturated",g,--,--,1.004,0.410
"Fatty acids, total trans",g,--,--,0.000,0.000
"Cholesterol",mg,--,--,10,4
Amino Acids
Other
Ingredients
"BEEF STOCK, CARROTS, POTATOES, COOKED BEEF, TOMATO PUREE (WATER, TOMATO PASTE), PEAS, CELERY, CONTAINS 2% OR LESS OF THE FOLLOWING: MODIFIED FOOD STARCH, WHEAT FLOUR, SALT, MONOSODIUM GLUTAMATE, SOYBEAN OIL, DEHYDRATED ONIONS, CARAMEL COLOR, POTASSIUM CHLORIDE, SODIUM PHOSPHATE, YEAST EXTRACT, VEGETABLE POWDER (CONTAINS BROCCOLI, TOMATO, GREEN PEPPER, MUSHROOM, AND ASPARAGUS), NATURAL FLAVOR, WHEAT STARCH, AUTOLYZED YEAST EXTRACT, ROAST BEEF, BEEF EXTRACT, SPICE, SUCCINIC ACID, DISODIUM INSONATE, DISODIUM GUANYLATE." Date available: 07/14/2017 Date last updated by company: 07/14/2017
