Source: USDA Branded Food Products Database Release December 2017 Software v.3.8.6.4 2017-10-02
Report Run at: December 19, 2017 06:16 EST
"Nutrient data for: 45253583, CHURN LIGHT STYLE ICE CREAM, UPC: 011213011554"
Food Group:  Branded Food Products Database
Common Name:

Nutrient,Unit,Data points,Std. Error,"0.5 cup = 60.0g",1Value per 100 g,
Proximates
"Energy",kcal,--,--,120,200
"Protein",g,--,--,3.00,5.00
"Total lipid (fat)",g,--,--,5.00,8.33
"Carbohydrate, by difference",g,--,--,16.00,26.67
"Fiber, total dietary",g,--,--,0.0,0.0
"Sugars, total",g,--,--,13.00,21.67
Minerals
"Calcium, Ca",mg,--,--,100,167
"Iron, Fe",mg,--,--,0.00,0.00
"Sodium, Na",mg,--,--,60,100
Vitamins
"Vitamin C, total ascorbic acid",mg,--,--,0.0,0.0
"Vitamin A, IU",IU,--,--,113,188
Lipids
"Fatty acids, total saturated",g,--,--,1.998,3.330
"Fatty acids, total trans",g,--,--,0.000,0.000
"Cholesterol",mg,--,--,10,17
Amino Acids
Other
Ingredients
"MILKFAT AND NONFAT MILK, SUGAR, SWEETCREAM BUTTERMILK, CORN SYRUP, PECANS (PECANS, COTTONSEED OIL, BUTTER, SALT), CONTAINS LESS THAN 2% OF WHEY, MONO- AND DIGLYCERIDES, GUAR GUM, TARA GUM, CELLULOSE GUM, PROPYLENE GLYCOL MONOESTER, XANTHAN GUM, CARRAGEENAN, NATURAL FLAVORS, MOLASSES, ANNATTO (COLOR), CARAMEL COLOR, VITAMIN A PALMITATE." Date available: 07/14/2017 Date last updated by company: 07/14/2017
