Source: USDA Branded Food Products Database Release December 2017 Software v.3.8.6.4 2017-10-02
Report Run at: December 19, 2017 06:19 EST
"Nutrient data for: 45169101, CIAO BELLA, HONEY ALMOND NOUGAT, UPC: 799512013010"
Food Group:  Branded Food Products Database
Common Name:

Nutrient,Unit,Data points,Std. Error,"0.5 cup = 102.0g",1Value per 100 g,
Proximates
"Energy",kcal,--,--,200,196
"Protein",g,--,--,6.00,5.88
"Total lipid (fat)",g,--,--,5.00,4.90
"Carbohydrate, by difference",g,--,--,31.00,30.39
"Fiber, total dietary",g,--,--,1.0,1.0
"Sugars, total",g,--,--,29.00,28.43
Minerals
"Calcium, Ca",mg,--,--,190,186
"Iron, Fe",mg,--,--,0.20,0.20
"Sodium, Na",mg,--,--,72,71
Vitamins
"Vitamin C, total ascorbic acid",mg,--,--,0.7,0.7
"Vitamin A, IU",IU,--,--,112,110
Lipids
"Fatty acids, total saturated",g,--,--,2.999,2.940
"Fatty acids, total trans",g,--,--,0.000,0.000
"Cholesterol",mg,--,--,18,18
Amino Acids
Other
Ingredients
"CREAM MILK, SUGAR, NONFAT DRY MILK POWDER, TAPIOCA SYRUP, HONEY ALMOND NOUGAT (ALMONDS, SUGAR, HONEY, EGG WHITES, SALT), ALMONDS, LEMON JUICE, VANILLA EXTRACT, ALMOND EXTRACT, GUAR GUM, LOCUST BEAN GUM, SALT." Date available: 07/14/2017 Date last updated by company: 07/14/2017
