Source: USDA Branded Food Products Database Release December 2017 Software v.3.8.6.4 2017-10-02
Report Run at: December 19, 2017 06:21 EST
"Nutrient data for: 45270601, CILANTRO LIME RICE, UPC: 041735001917"
Food Group:  Branded Food Products Database
Common Name:

Nutrient,Unit,Data points,Std. Error,"4.0 ONZ = 113.0g",1Value per 100 g,
Proximates
"Energy",kcal,--,--,170,150
"Protein",g,--,--,4.00,3.54
"Total lipid (fat)",g,--,--,0.00,0.00
"Carbohydrate, by difference",g,--,--,35.00,30.97
"Fiber, total dietary",g,--,--,1.0,0.9
"Sugars, total",g,--,--,0.99,0.88
Minerals
"Calcium, Ca",mg,--,--,40,35
"Iron, Fe",mg,--,--,0.58,0.51
"Sodium, Na",mg,--,--,70,62
Vitamins
"Vitamin C, total ascorbic acid",mg,--,--,1.5,1.3
"Vitamin A, IU",IU,--,--,40,35
Lipids
"Fatty acids, total saturated",g,--,--,0.000,0.000
"Fatty acids, total trans",g,--,--,0.000,0.000
"Cholesterol",mg,--,--,0,0
Amino Acids
Other
Ingredients
"WATER, PARBOILED RICE, LIME JUICE CONCENTRATE, CHICKEN STOCK (CHICKEN STOCK, SALT), YEAST EXTRACT (YEAST EXTRACT, NATURAL FLAVOR, SALT), CILANTRO, CHILI FLAKES, SALT, BLACK PEPPER." Date available: 08/28/2017 Date last updated by company: 08/28/2017
