Source: USDA Branded Food Products Database Release December 2017 Software v.3.8.6.4 2017-10-02
Report Run at: December 19, 2017 06:21 EST
"Nutrient data for: 45215973, CILANTRO LIME RICE, UPC: 085239266809"
Food Group:  Branded Food Products Database
Common Name:

Nutrient,Unit,Data points,Std. Error,"0.25 DRY MIX, 1 CUP PREPARED (147G) = 60.0g",1Value per 100 g,
Proximates
"Energy",kcal,--,--,220,367
"Protein",g,--,--,5.00,8.33
"Total lipid (fat)",g,--,--,1.00,1.67
"Carbohydrate, by difference",g,--,--,46.00,76.67
"Fiber, total dietary",g,--,--,2.0,3.3
"Sugars, total",g,--,--,1.00,1.67
Minerals
"Calcium, Ca",mg,--,--,40,67
"Iron, Fe",mg,--,--,2.70,4.50
"Sodium, Na",mg,--,--,480,800
Vitamins
"Vitamin C, total ascorbic acid",mg,--,--,1.8,3.0
"Vitamin A, IU",IU,--,--,150,250
Lipids
"Fatty acids, total saturated",g,--,--,0.402,0.670
"Fatty acids, total trans",g,--,--,0.000,0.000
"Cholesterol",mg,--,--,1,1
Amino Acids
Other
Ingredients
"PARBOILED LONG GRAIN RICE, CORN*, SALT, LIME JUICE POWDER (CORN SYRUP, LIME JUICE WITH ADDED LIME OIL), CHICKEN FAT* (CHICKEN FAT, CHICKEN BROTH, NATURAL FLAVOR [EXTRACT OF ROSEMARY]), GARLIC POWDER, GREEN ONIONS*, CILANTRO*, NATURAL FLAVOR, SPICES, YEAST EXTRACT." Date available: 07/14/2017 Date last updated by company: 07/14/2017
