Source: USDA Branded Food Products Database Release December 2017 Software v.3.8.6.4 2017-10-02
Report Run at: December 19, 2017 06:27 EST
"Nutrient data for: 45281314, CINNAMON COFFEECAKE FIBER BARS, UPC: 041268196395"
Food Group:  Branded Food Products Database
Common Name:

Nutrient,Unit,Data points,Std. Error,"1 BAR = 25.0g",1Value per 100 g,
Proximates
"Energy",kcal,--,--,90,360
"Protein",g,--,--,1.00,4.00
"Total lipid (fat)",g,--,--,3.00,12.00
"Carbohydrate, by difference",g,--,--,18.00,72.00
"Fiber, total dietary",g,--,--,5.0,20.0
"Sugars, total",g,--,--,8.00,32.00
Minerals
"Calcium, Ca",mg,--,--,0,0
"Iron, Fe",mg,--,--,0.57,2.30
"Phosphorus, P",mg,--,--,64,256
"Sodium, Na",mg,--,--,75,300
Vitamins
"Vitamin C, total ascorbic acid",mg,--,--,0.0,0.0
"Vitamin A, IU",IU,--,--,0,0
Lipids
"Fatty acids, total saturated",g,--,--,1.500,6.000
"Fatty acids, total trans",g,--,--,0.000,0.000
"Cholesterol",mg,--,--,0,0
Amino Acids
Other
Ingredients
"ENRICHED BLEACHED FLOUR (WHEAT FLOUR, NIACIN, REDUCED IRON, THIAMINE MONONITRATE, RIBOFLAVIN, FOLIC ACID), FRUCTOOLIGOSACCHARIDES, SUGAR, CINNAMON PIECES (SUGAR, PALM AND/OR PALM KERNEL OIL, CINNAMON, SOY LECITHIN - AN EMULSIFIER), CINNAMON FLAVORED DRIZZLE (SUGAR, PALM KERNEL OIL, NONFAT DRY MILK SOLIDS, YOGURT POWDER, WHOLE MILK SOLIDS, SOY LECITHIN - AN EMULSIFIER, NATURAL FLAVOR, GROUND CINNAMON, SALT), SUGAR CANE FIBER, FRUCTOSE, PALM AND/OR PALM KERNEL OIL, GLYCERIN, CANOLA AND/OR SOYBEAN OIL, DRIED EGG WHITES (CONTAINS BAKERS YEAST, CITRIC ACID), SODIUM BICARBONATE, SODIUM ALUMINUM PHOSPHATE, ALUMINUM SULFATE, SALT, CINNAMON, SOY LECITHIN - AN EMULSIFIER, GUM BLEND (XANTHAN GUM, LOCUST BEAN GUM, GUAR GUM), NATURAL FLAVOR." Date available: 07/14/2017 Date last updated by company: 07/14/2017
