Source: USDA Branded Food Products Database Release December 2017 Software v.3.8.6.4 2017-10-02
Report Run at: December 19, 2017 06:24 EST
"Nutrient data for: 45079490, CINNAMON APPLE SAUCE, UPC: 037323114770"
Food Group:  Branded Food Products Database
Common Name:

Nutrient,Unit,Data points,Std. Error,"0.5 cup = 128.0g",1Value per 100 g,
Proximates
"Energy",kcal,--,--,100,78
"Protein",g,--,--,0.00,0.00
"Total lipid (fat)",g,--,--,0.00,0.00
"Carbohydrate, by difference",g,--,--,25.00,19.53
"Fiber, total dietary",g,--,--,2.0,1.6
"Sugars, total",g,--,--,21.00,16.41
Minerals
"Sodium, Na",mg,--,--,10,8
Vitamins
Lipids
Amino Acids
Other
Ingredients
"APPLES, SUGAR, WATER, CINNAMON AND ASCORBIC ACID TO MAINTAIN COLOR." Date available: 07/14/2017 Date last updated by company: 07/14/2017
