Source: USDA Branded Food Products Database Release December 2017 Software v.3.8.6.4 2017-10-02
Report Run at: December 19, 2017 06:35 EST
"Nutrient data for: 45123563, CINNAMON ROLLS WITH CREAM CHEESE ICING, UPC: 708820334007"
Food Group:  Branded Food Products Database
Common Name:

Nutrient,Unit,Data points,Std. Error,"1 ROLL WITH ICING = 44.0g",1Value per 100 g,
Proximates
"Energy",kcal,--,--,160,364
"Protein",g,--,--,2.00,4.55
"Total lipid (fat)",g,--,--,6.00,13.64
"Carbohydrate, by difference",g,--,--,22.00,50.00
"Fiber, total dietary",g,--,--,1.0,2.3
"Sugars, total",g,--,--,10.00,22.73
Minerals
"Calcium, Ca",mg,--,--,0,0
"Iron, Fe",mg,--,--,2.05,4.65
"Sodium, Na",mg,--,--,290,659
Vitamins
"Vitamin C, total ascorbic acid",mg,--,--,0.0,0.0
"Vitamin A, IU",IU,--,--,0,0
Lipids
"Fatty acids, total saturated",g,--,--,3.001,6.820
"Fatty acids, total monounsaturated",g,--,--,2.002,4.550
"Fatty acids, total polyunsaturated",g,--,--,0.999,2.270
"Fatty acids, total trans",g,--,--,0.000,0.000
"Cholesterol",mg,--,--,5,11
Amino Acids
Other
Ingredients
"ENRICHED BLEACHED FLOUR [WHEAT FLOUR, NIACIN, IRON, THIAMIN MONONITRATE (VITAMIN B1), RIBOFLAVIN (VITAMIN B2), FOLIC ACID], SUGAR, WATER, VEGETABLE OIL (PALM, SOYBEAN AND/OR COTTONSEED OILS), WHEY. CONTAINS 2% OR LESS OF EACH OF THE FOLLOWING: LEAVENING (BAKING SODA, SODIUM ACID PYROPHOSPHATE, SODIUM ALUMINUM PHOSPHATE), CINNAMON, EGGS, CREAM CHEESE (CULTURED CREAM, NONFAT MILK), CORN SYRUP, SALT, CORN STARCH, MODIFIED WHEAT STARCH, MONO- AND DIGLYCERIDES, NATURAL AND ARTIFICIAL FLAVORS, MALTODEXTRIN, GUMS (XANTHAN, GUAR, CAROB BEAN), POLYSORBATE 60, COLORED WITH (TITANIUM DIOXIDE, YELLOW 5, YELLOW 6), SORBIC ACID (PRESERVATIVE), SOY FLOUR." Date available: 07/14/2017 Date last updated by company: 07/14/2017
