Source: USDA Branded Food Products Database Release December 2017 Software v.3.8.6.4 2017-10-02
Report Run at: December 19, 2017 06:30 EST
"Nutrient data for: 45205552, CINNAMON MINTS, UPC: 700596000100"
Food Group:  Branded Food Products Database
Common Name:

Nutrient,Unit,Data points,Std. Error,"1 PIECE = 0.6g",1Value per 100 g,
Proximates
"Energy",kcal,--,--,1,200
"Protein",g,--,--,0.00,0.00
"Total lipid (fat)",g,--,--,0.00,0.00
"Carbohydrate, by difference",g,--,--,0.50,83.33
Minerals
"Sodium, Na",mg,--,--,0,0
Vitamins
Lipids
Amino Acids
Other
Ingredients
"XYLITOL, CALCIUM LACTATE, MAGNESIUM STEARATE, GUM ARABIC, NATURAL CINNAMON OIL, & BEESWAX (GLAZING AGENT)." Date available: 07/14/2017 Date last updated by company: 07/14/2017
