Source: USDA Branded Food Products Database Release December 2017 Software v.3.8.6.4 2017-10-02
Report Run at: December 19, 2017 06:34 EST
"Nutrient data for: 45218875, CINNAMON ROLLS, UPC: 041144806110"
Food Group:  Branded Food Products Database
Common Name:

Nutrient,Unit,Data points,Std. Error,"2.0 ROLLS = 57.0g",1Value per 100 g,
Proximates
"Energy",kcal,--,--,210,368
"Protein",g,--,--,2.00,3.51
"Total lipid (fat)",g,--,--,9.00,15.79
"Carbohydrate, by difference",g,--,--,31.00,54.39
"Fiber, total dietary",g,--,--,1.0,1.8
"Sugars, total",g,--,--,17.00,29.82
Minerals
"Calcium, Ca",mg,--,--,40,70
"Iron, Fe",mg,--,--,2.37,4.16
"Sodium, Na",mg,--,--,230,404
Vitamins
"Vitamin C, total ascorbic acid",mg,--,--,0.0,0.0
"Vitamin A, IU",IU,--,--,0,0
Lipids
"Fatty acids, total saturated",g,--,--,2.502,4.390
"Fatty acids, total trans",g,--,--,0.000,0.000
"Cholesterol",mg,--,--,0,0
Amino Acids
Other
Ingredients
"ENRICHED WHEAT FLOUR (WHEAT FLOUR, NIACIN, REDUCED IRON, THIAMINE, RIBOFLAVIN, FOLIC ACID), SUGAR, NON-HYDROGENATED VEGETABLE OIL, MARGARINE [SOYBEAN & MODIFIED PALM OILS, SALT, WHEY POWDER, SOYBEAN LECITHIN, MONO & DIGLYCERIDES, NATURAL FLAVOR, CITRIC ACID, VITAMIN A PALMITATE, VITAMIN D3, COLOR (ANNATTO)], GLAZE [WATER, SUGAR, GLUCOSE, HONEY, CITRIC ACID, ARTIFICIAL FLAVOR, AGAR, PECTIN, SODIUM ALGINATE, SODIUM BENZOATE, MONO & DIGLYCERIDES], PARTLY SKIMMED MILK, CINNAMON, POTATO STARCH, MOLASSES, LEAVENING (SODIUM ACID PYROPHOSPHATE, SODIUM BICARBONATE, CORN STARCH, MONOCALCIUM PHOSPHATE, CALCIUM SULFATE), MONO & DIGLYCERIDES, SALT, VINEGAR." Date available: 07/14/2017 Date last updated by company: 07/14/2017
