Source: USDA Branded Food Products Database Release December 2017 Software v.3.8.6.4 2017-10-02
Report Run at: December 19, 2017 06:36 EST
"Nutrient data for: 45260866, CINNAMON & SPEARMINT HOLIDAY SPICE DROPS, UPC: 049022805279"
Food Group:  Branded Food Products Database
Common Name:

Nutrient,Unit,Data points,Std. Error,"16.0 PIECES = 40.0g",1Value per 100 g,
Proximates
"Energy",kcal,--,--,140,350
"Protein",g,--,--,0.00,0.00
"Total lipid (fat)",g,--,--,0.00,0.00
"Carbohydrate, by difference",g,--,--,34.00,85.00
"Sugars, total",g,--,--,22.00,55.00
Minerals
"Sodium, Na",mg,--,--,5,12
Vitamins
Lipids
Amino Acids
Other
Ingredients
"SUGAR, CORN SYRUP, MODIFIED FOOD STARCH, NATURAL AND ARTIFICIAL FLAVORS, ARTIFICIAL COLORS (INCLUDING FD&C: RED #40, YELLOW #5, AND BLUE #1), OIL OF SPEARMINT." Date available: 07/14/2017 Date last updated by company: 07/14/2017
