Source: USDA Branded Food Products Database Release December 2017 Software v.3.8.6.4 2017-10-02
Report Run at: December 19, 2017 06:33 EST
"Nutrient data for: 45081183, CINNAMON RICE PUDDING, UPC: 073491083036"
Food Group:  Branded Food Products Database
Common Name:

Nutrient,Unit,Data points,Std. Error,"1 SNACK CUP = 113.0g",1Value per 100 g,
Proximates
"Energy",kcal,--,--,110,97
"Protein",g,--,--,4.00,3.54
"Total lipid (fat)",g,--,--,2.00,1.77
"Carbohydrate, by difference",g,--,--,21.00,18.58
"Fiber, total dietary",g,--,--,0.0,0.0
"Sugars, total",g,--,--,12.99,11.50
Minerals
"Calcium, Ca",mg,--,--,99,88
"Iron, Fe",mg,--,--,0.00,0.00
"Sodium, Na",mg,--,--,125,111
Vitamins
"Vitamin C, total ascorbic acid",mg,--,--,0.0,0.0
"Vitamin A, IU",IU,--,--,0,0
Lipids
"Fatty acids, total saturated",g,--,--,0.994,0.880
"Fatty acids, total trans",g,--,--,0.000,0.000
"Cholesterol",mg,--,--,15,13
Amino Acids
Other
Ingredients
"REDUCED FAT MILK, RICE, SUGAR, CONTAINS LESS THAN 2% OF EGGS, SALT, NATURAL FLAVORS, CINNAMON, LEMON JUICE CONCENTRATE." Date available: 06/25/2017 Date last updated by company: 06/25/2017
