Source: USDA Branded Food Products Database Release December 2017 Software v.3.8.6.4 2017-10-02
Report Run at: December 19, 2017 06:23 EST
"Nutrient data for: 45285230, CINNA-APPLE WALNUT WITH REAL APPLES, UPC: 072400060069"
Food Group:  Branded Food Products Database
Common Name:

Nutrient,Unit,Data points,Std. Error,"1 PACKET = 35.0g",1Value per 100 g,
Proximates
"Energy",kcal,--,--,130,371
"Protein",g,--,--,2.00,5.71
"Total lipid (fat)",g,--,--,0.00,0.00
"Carbohydrate, by difference",g,--,--,28.00,80.00
"Fiber, total dietary",g,--,--,1.0,2.9
"Sugars, total",g,--,--,11.00,31.43
Minerals
"Calcium, Ca",mg,--,--,200,571
"Iron, Fe",mg,--,--,9.90,28.29
"Sodium, Na",mg,--,--,130,371
Vitamins
"Vitamin C, total ascorbic acid",mg,--,--,0.0,0.0
"Thiamin",mg,--,--,0.700,2.000
"Riboflavin",mg,--,--,0.668,1.908
"Niacin",mg,--,--,9.428,26.937
"Vitamin B-6",mg,--,--,0.786,2.245
"Vitamin A, IU",IU,--,--,1572,4490
Lipids
"Fatty acids, total saturated",g,--,--,0.000,0.000
"Fatty acids, total trans",g,--,--,0.000,0.000
"Cholesterol",mg,--,--,0,0
Amino Acids
Other
Ingredients
"WHEAT FARINA, SUGAR, DRIED APPLES, BROWN SUGAR, CINNAMON, CALCIUM CARBONATE, WALNUTS, SALT, NATURAL FLAVORS, DEFATTED WHEAT GERM, GUAR GUM, FERRIC ORTHOPHOSPHATE (IRON), VITAMIN A PALMITATE, NIACIN (VITAMIN B3), RIBOFLAVIN (VITAMIN B2), PYRIDOXINE HYDROCHLORIDE (VITAMIN B6), THIAMINE MONONITRATE (VITAMIN B1), FOLIC ACID, BHT (TO PRESERVE FRESHNESS)." Date available: 07/14/2017 Date last updated by company: 07/14/2017
