Source: USDA Branded Food Products Database Release December 2017 Software v.3.8.6.4 2017-10-02
Report Run at: December 19, 2017 06:32 EST
"Nutrient data for: 45112130, CINNAMON RAISIN PRE-SLICED BAGELS, UPC: 048121135416"
Food Group:  Branded Food Products Database
Common Name:

Nutrient,Unit,Data points,Std. Error,"1 BAGEL = 46.0g",1Value per 100 g,
Proximates
"Energy",kcal,--,--,110,239
"Protein",g,--,--,4.00,8.70
"Total lipid (fat)",g,--,--,1.00,2.17
"Carbohydrate, by difference",g,--,--,25.00,54.35
"Fiber, total dietary",g,--,--,5.0,10.9
"Sugars, total",g,--,--,6.00,13.04
Minerals
"Calcium, Ca",mg,--,--,40,87
"Iron, Fe",mg,--,--,2.59,5.62
"Sodium, Na",mg,--,--,160,348
Vitamins
"Vitamin C, total ascorbic acid",mg,--,--,0.0,0.0
"Thiamin",mg,--,--,0.000,0.000
"Riboflavin",mg,--,--,0.122,0.265
"Niacin",mg,--,--,1.434,3.117
"Vitamin A, IU",IU,--,--,0,0
Lipids
"Fatty acids, total saturated",g,--,--,0.000,0.000
"Fatty acids, total monounsaturated",g,--,--,0.000,0.000
"Fatty acids, total polyunsaturated",g,--,--,0.000,0.000
"Fatty acids, total trans",g,--,--,0.000,0.000
"Cholesterol",mg,--,--,0,0
Amino Acids
Other
Ingredients
"UNBLEACHED ENRICHED WHEAT FLOUR [FLOUR, MALTED BARLEY FLOUR, REDUCED IRON, NIACIN, THIAMIN MONONITRATE (VITAMIN B1), RIBOFLAVIN (VITAMIN B2), FOLIC ACID], WATER, SUGAR, CELLULOSE FIBER, RAISINS, WHEAT GLUTEN, CORNMEAL, YEAST, POLYDEXTROSE, SALT, MONOGLYCERIDES, MOLASSES, PRESERVATIVES (CALCIUM PROPIONATE, SORBIC ACID), CARAMEL COLOR, GUAR GUM, CINNAMON, SOYBEAN OIL, XANTHAN GUM, NATURAL FLAVOR, REB A (NATURAL STEVIA LEAF SWEETENER), CORN SYRUP, SOY LECITHIN." Date available: 07/14/2017 Date last updated by company: 07/14/2017
