Source: USDA Branded Food Products Database Release December 2017 Software v.3.8.6.4 2017-10-02
Report Run at: December 19, 2017 06:37 EST
"Nutrient data for: 45259672, CINNAMON SWIRL BREAD, UPC: 070678562742"
Food Group:  Branded Food Products Database
Common Name:

Nutrient,Unit,Data points,Std. Error,"0.0833 OF A LOAF = 43.0g",1Value per 100 g,
Proximates
"Energy",kcal,--,--,140,326
"Protein",g,--,--,3.00,6.98
"Total lipid (fat)",g,--,--,4.50,10.47
"Carbohydrate, by difference",g,--,--,24.00,55.81
"Fiber, total dietary",g,--,--,1.0,2.3
"Sugars, total",g,--,--,7.00,16.28
Minerals
"Calcium, Ca",mg,--,--,60,140
"Iron, Fe",mg,--,--,1.26,2.92
"Sodium, Na",mg,--,--,180,419
Vitamins
"Vitamin C, total ascorbic acid",mg,--,--,1.4,3.3
"Vitamin A, IU",IU,--,--,0,0
Lipids
"Fatty acids, total saturated",g,--,--,1.501,3.490
"Fatty acids, total trans",g,--,--,0.000,0.000
"Cholesterol",mg,--,--,0,0
Amino Acids
Other
Ingredients
"ENRICHED WHEAT FLOUR (WHEAT FLOUR, NIACIN, REDUCED IRON, THIAMINE MONONITRATE, RIBOFLAVIN, FOLIC ACID), WATER, SUGAR, SOYBEAN OIL, PALM OIL AND/OR PALM KERNEL OIL, CONTAINS 2% OR LESS OF THE FOLLOWING: CINNAMON, OAT FIBER, YEAST, WHEAT GLUTEN, SALT, MONO AND DIGLYCERIDES, UNSALTED BUTTER (CREAM), NATURAL AND ARTIFICIAL FLAVOR, POLYSORBATE 60, CALCIUM SULFATE, ENZYMES, CALCIUM PROPIONATE (PRESERVATIVE), SODIUM STEAROYL LACTYLATE, SOY LECITHIN, NON FAT DRY MILK, RICE FLOUR, MODIFIED FOOD STARCH, NATURAL EXTRACTIVES OF CASSIA." Date available: 07/14/2017 Date last updated by company: 07/14/2017
