Source: USDA Branded Food Products Database Release December 2017 Software v.3.8.6.4 2017-10-02
Report Run at: December 19, 2017 06:39 EST
"Nutrient data for: 45169371, CIOLO FOODS, PIMENTO CHEESE SPREAD, UPC: 847847004118"
Food Group:  Branded Food Products Database
Common Name:

Nutrient,Unit,Data points,Std. Error,"2.0 Tbsp = 28.0g",1Value per 100 g,
Proximates
"Energy",kcal,--,--,120,429
"Protein",g,--,--,4.00,14.29
"Total lipid (fat)",g,--,--,11.00,39.29
"Carbohydrate, by difference",g,--,--,1.00,3.57
"Fiber, total dietary",g,--,--,0.0,0.0
"Sugars, total",g,--,--,0.00,0.00
Minerals
"Calcium, Ca",mg,--,--,150,536
"Iron, Fe",mg,--,--,0.00,0.00
"Sodium, Na",mg,--,--,150,536
Vitamins
"Vitamin C, total ascorbic acid",mg,--,--,0.0,0.0
"Vitamin A, IU",IU,--,--,357,1275
Lipids
"Fatty acids, total saturated",g,--,--,4.001,14.290
"Fatty acids, total trans",g,--,--,0.000,0.000
"Cholesterol",mg,--,--,20,71
Amino Acids
Other
Ingredients
"CHEDDAR CHEESE (CULTURED PASTEURIZED MILK, SALT, ENZYMES, ANNATTO), MAYONNAISE (EXPELLER-PRESSED CANOLA OIL, CAGE-FREE EGG YOLKS, WATER, HONEY, DISTILLED VINEGAR, CAGE-FREE WHOLE EGG, SALT, SPICE, LEMON JUICE CONCENTRATE, TOCOPHEROLS (VITAMIN E)), WHITE CHEDDAR CHEESE (CULTURED PASTEURIZED MILK, SALT, ENZYMES), ROASTED RED PEPPERS (FIRE-ROASTED PIMENTO PEPPERS, WATER, SALT. CITRIC ACID), RED ONION, GREEN ONION, GARLIC, DILL, CITRIC ACID." Date available: 07/14/2017 Date last updated by company: 07/14/2017
