Source: USDA Branded Food Products Database Release December 2017 Software v.3.8.6.4 2017-10-02
Report Run at: December 19, 2017 06:41 EST
"Nutrient data for: 45275307, CIRCUS PEANUTS CANDY, UPC: 041420021497"
Food Group:  Branded Food Products Database
Common Name:

Nutrient,Unit,Data points,Std. Error,"1 PACKAGE = 71.0g",1Value per 100 g,
Proximates
"Energy",kcal,--,--,270,380
"Protein",g,--,--,1.00,1.41
"Total lipid (fat)",g,--,--,0.00,0.00
"Carbohydrate, by difference",g,--,--,65.00,91.55
"Fiber, total dietary",g,--,--,0.0,0.0
"Sugars, total",g,--,--,44.00,61.97
Minerals
"Calcium, Ca",mg,--,--,0,0
"Iron, Fe",mg,--,--,0.00,0.00
"Sodium, Na",mg,--,--,20,28
Vitamins
"Vitamin C, total ascorbic acid",mg,--,--,0.0,0.0
"Vitamin A, IU",IU,--,--,0,0
Lipids
"Fatty acids, total saturated",g,--,--,0.000,0.000
"Fatty acids, total trans",g,--,--,0.000,0.000
"Cholesterol",mg,--,--,0,0
Amino Acids
Other
Ingredients
"SUGAR, CORN SYRUP, GELATIN, HIGH FRUCTOSE CORN SYRUP, YELLOW CORN SYRUP, YELLOW 6, ARTIFICIAL FLAVOR." Date available: 07/14/2017 Date last updated by company: 07/14/2017
