Source: USDA Branded Food Products Database Release December 2017 Software v.3.8.6.4 2017-10-02
Report Run at: December 19, 2017 06:42 EST
"Nutrient data for: 45188013, CISSE COCOA CO, SUPER THINS, BROWNIE THINS, UPC: 859283003273"
Food Group:  Branded Food Products Database
Common Name:

Nutrient,Unit,Data points,Std. Error,"1 ONZ = 28.0g",1Value per 100 g,
Proximates
"Energy",kcal,--,--,120,429
"Protein",g,--,--,2.00,7.14
"Total lipid (fat)",g,--,--,6.00,21.43
"Carbohydrate, by difference",g,--,--,18.00,64.29
"Fiber, total dietary",g,--,--,2.0,7.1
"Sugars, total",g,--,--,12.00,42.86
Minerals
"Calcium, Ca",mg,--,--,0,0
"Iron, Fe",mg,--,--,2.57,9.19
"Sodium, Na",mg,--,--,125,446
Vitamins
"Vitamin C, total ascorbic acid",mg,--,--,0.0,0.0
"Vitamin A, IU",IU,--,--,143,511
Lipids
"Fatty acids, total saturated",g,--,--,2.999,10.710
"Fatty acids, total trans",g,--,--,0.000,0.000
"Cholesterol",mg,--,--,25,89
Amino Acids
Other
Ingredients
"ORGANIC CANE SUGAR, CHOCOLATE CHIPS (COCOA BEANS, SUGAR, SOY LECITHIN, VANILLA), BUTTER, WHEAT FLOUR, ORGANIC COCOA POWDER, PUMPKIN SEED, DRIED CRANBERRIES (CRANBERRIES, SUGAR, SUNFLOWER OIL), WHOLE DRIED EGG POWDER, TAPIOCA STARCH. BAKING SODA, SEA SALT,BAKING POWDER (SODIUM ACID PYROPHOSPHATE, BICARBONATR SODA, CORN STARCH, MONOCALCIUM PHOSPHATE), GROUND VANILLA BEAN." Date available: 07/14/2017 Date last updated by company: 07/14/2017
