Source: USDA Branded Food Products Database Release December 2017 Software v.3.8.6.4 2017-10-02
Report Run at: December 19, 2017 06:43 EST
"Nutrient data for: 45283516, CITRUS HERB SALMON, UPC: 615433300704"
Food Group:  Branded Food Products Database
Common Name:

Nutrient,Unit,Data points,Std. Error,"5.0 ONZ = 142.0g",1Value per 100 g,
Proximates
"Energy",kcal,--,--,300,211
"Protein",g,--,--,29.00,20.42
"Total lipid (fat)",g,--,--,19.00,13.38
"Carbohydrate, by difference",g,--,--,2.00,1.41
"Fiber, total dietary",g,--,--,0.3,0.2
"Sugars, total",g,--,--,0.00,0.00
Minerals
"Calcium, Ca",mg,--,--,20,14
"Iron, Fe",mg,--,--,0.43,0.30
"Sodium, Na",mg,--,--,400,282
Vitamins
"Vitamin C, total ascorbic acid",mg,--,--,5.7,4.0
"Vitamin A, IU",IU,--,--,719,506
Lipids
"Fatty acids, total saturated",g,--,--,4.004,2.820
"Fatty acids, total trans",g,--,--,0.000,0.000
"Cholesterol",mg,--,--,80,56
Amino Acids
Other
Ingredients
"FARM RAISED ATLANTIC SALMON, SPICES, SALT, MALTODEXTRIN, CORN SYRUP SOLIDS, DEHYDRATED GARLIC, DEHYDRATED ORANGE PEEL, CITRIC ACID, DEHYDRATED RED BELL PEPPER, PAPRIKA, DEHYDRATED PARSLEY, EXTRACTIVES OF PAPRIKA, LIME JUICE SOLIDS, CONCENTRATED LEMON JUICE, CANOLA OIL, NATURAL FLAVORS, SILICON DIOXIDE, CALCIUM SILICATE, COLOR ADDED." Date available: 07/14/2017 Date last updated by company: 07/14/2017
