Source: USDA Branded Food Products Database Release December 2017 Software v.3.8.6.4 2017-10-02
Report Run at: December 19, 2017 06:43 EST
"Nutrient data for: 45138554, CITRUS PUNCH, UPC: 050200700002"
Food Group:  Branded Food Products Database
Common Name:

Nutrient,Unit,Data points,Std. Error,"1 POUCH = 6.0g",1Value per 100 g,
Proximates
"Energy",kcal,--,--,1,22
"Protein",g,--,--,0.00,0.00
"Total lipid (fat)",g,--,--,0.00,0.00
"Carbohydrate, by difference",g,--,--,0.33,5.56
"Sugars, total",g,--,--,0.33,5.56
Minerals
"Sodium, Na",mg,--,--,4,64
Vitamins
"Vitamin C, total ascorbic acid",mg,--,--,2.7,45.1
"Thiamin",mg,--,--,0.000,0.000
Lipids
Amino Acids
Other
Ingredients
"WATER, HIGH FRUCTOSE CORN SYRUP AND 2% OR LESS OF EACH OF THE FOLLOWING: CONCENTRATED JUICES (ORANGE, APPLE, GRAPEFRUIT, TANGERINE, LIME), CITRIC ACID, MALIC ACID, ASCORBIC ACID (VITAMIN C), THIAMIN HYDROCHLORIDE (VITAMIN B1), NATURAL FLAVORS, SUCRALOSE, SODIUM HEXAMETAPHOSPHATE, POTASSIUM SORBATE TO PROTECT FLAVOR, YELLOW #5, YELLOW #6 AND CALCIUM DISODIUM EDTA TO PROTECT COLOR." Date available: 07/14/2017 Date last updated by company: 07/14/2017
