Source: USDA Branded Food Products Database Release December 2017 Software v.3.8.6.4 2017-10-02
Report Run at: December 19, 2017 06:49 EST
"Nutrient data for: 45163986, CLANCY'S, CHEESY GARLIC BREAD POTATO CHIPS, UPC: 041498222031"
Food Group:  Branded Food Products Database
Common Name:

Nutrient,Unit,Data points,Std. Error,"12.0 CHIPS | ABOUT = 28.0g",1Value per 100 g,
Proximates
"Energy",kcal,--,--,150,536
"Protein",g,--,--,1.00,3.57
"Total lipid (fat)",g,--,--,9.00,32.14
"Carbohydrate, by difference",g,--,--,16.00,57.14
"Fiber, total dietary",g,--,--,1.0,3.6
"Sugars, total",g,--,--,0.00,0.00
Minerals
"Calcium, Ca",mg,--,--,0,0
"Iron, Fe",mg,--,--,0.64,2.29
"Sodium, Na",mg,--,--,135,482
Vitamins
"Vitamin C, total ascorbic acid",mg,--,--,10.7,38.3
"Vitamin A, IU",IU,--,--,0,0
Lipids
"Fatty acids, total saturated",g,--,--,1.999,7.140
"Fatty acids, total trans",g,--,--,0.000,0.000
"Cholesterol",mg,--,--,0,0
Amino Acids
Other
Ingredients
"POTATOES, VEGETABLE OIL (CONTAINS ONE OR MORE OF THE FOLLOWING: COTTONSEED OIL, CORN OIL), SEASONING (MALTODEXTRIN, WHEY POWDER, NATURAL FLAVOR, GARLIC POWDER, ONION POWDER, SALT, CHEESE POWDER [CHEDDAR CHEESE {MILK INGREDIENTS, BACTERIAL CULTURE, SALT, MICROBIAL ENZYMES}, NATURAL FLAVOR, DISODIUM PHOSPHATE], ANNATTO EXTRACT, SILICON DIOXIDE, SOUR CREAM POWDER [SOUR CREAM {MILK INGREDIENTS, BACTERIAL CULTURE}, CITRIC ACID], SUNFLOWER OIL, LACTIC ACID, CITRIC ACID), SALT." Date available: 07/14/2017 Date last updated by company: 07/14/2017
