Source: USDA Branded Food Products Database Release December 2017 Software v.3.8.6.4 2017-10-02
Report Run at: December 19, 2017 07:13 EST
"Nutrient data for: 45282211, CLASSIC PEANUT BUTTER SQUEEZE PACKS, UPC: 855188003820"
Food Group:  Branded Food Products Database
Common Name:

Nutrient,Unit,Data points,Std. Error,"1 PACK = 14.0g",1Value per 100 g,
Proximates
"Energy",kcal,--,--,80,571
"Protein",g,--,--,3.00,21.43
"Total lipid (fat)",g,--,--,7.00,50.00
"Carbohydrate, by difference",g,--,--,3.00,21.43
"Fiber, total dietary",g,--,--,2.0,14.3
"Sugars, total",g,--,--,1.00,7.14
Minerals
"Calcium, Ca",mg,--,--,0,0
"Iron, Fe",mg,--,--,0.00,0.00
"Sodium, Na",mg,--,--,15,107
Vitamins
"Vitamin C, total ascorbic acid",mg,--,--,0.0,0.0
"Vitamin A, IU",IU,--,--,0,0
Lipids
"Fatty acids, total saturated",g,--,--,1.000,7.140
"Fatty acids, total trans",g,--,--,0.000,0.000
"Cholesterol",mg,--,--,0,0
Amino Acids
Other
Ingredients
"DRY ROASTED PEANUTS, PALM FRUIT OIL*." Date available: 04/10/2017 Date last updated by company: 04/10/2017
