Source: USDA Branded Food Products Database Release December 2017 Software v.3.8.6.4 2017-10-02
Report Run at: December 19, 2017 07:12 EST
"Nutrient data for: 45051450, CLASSIC PASTA, CHEESE RAVIOLI, UPC: 041497029372"
Food Group:  Branded Food Products Database
Common Name:

Nutrient,Unit,Data points,Std. Error,"4.0 RAVIOLI = 147.0g",1Value per 100 g,
Proximates
"Energy",kcal,--,--,270,184
"Protein",g,--,--,12.00,8.16
"Total lipid (fat)",g,--,--,9.00,6.12
"Carbohydrate, by difference",g,--,--,37.00,25.17
"Fiber, total dietary",g,--,--,1.0,0.7
"Sugars, total",g,--,--,3.00,2.04
Minerals
"Calcium, Ca",mg,--,--,150,102
"Iron, Fe",mg,--,--,3.59,2.44
"Potassium, K",mg,--,--,65,44
"Sodium, Na",mg,--,--,350,238
Vitamins
"Vitamin C, total ascorbic acid",mg,--,--,0.0,0.0
"Vitamin A, IU",IU,--,--,531,361
Lipids
"Fatty acids, total saturated",g,--,--,4.498,3.060
"Fatty acids, total monounsaturated",g,--,--,1.999,1.360
"Fatty acids, total polyunsaturated",g,--,--,0.500,0.340
"Fatty acids, total trans",g,--,--,0.000,0.000
"Cholesterol",mg,--,--,54,37
Amino Acids
Other
Ingredients
"RICOTTA CHEESE (WHEY, WHOLE MILK, CREAM, VINEGAR, SALT, CARRANGEENAN, XANTHAN GUM, LOCUST BEAN GUM, GUAR GUM), COOKED PASTA (ENRICHED DURUM WHEAT FLOUR [DURUM FLOUR, NIACIN, REDUCED IRON, THIAMINE MONONITRATE, RIBOFLAVIN, FOLIC ACID], WATER, DRIED WHOLE EGGS), MODIFIED CORN STARCH, ROMANO CHEESE (PASTEURIZED SHEEP'S AND/OR COW'S MILK, RENNET, SALT, CHEESE CULTURES, ENZYMES), WATER, DRIED WHOLE EGGS, SALT, MOZZARELLA CHEESE (PASTEURIZED WHOLE MILK, CHEESE CULTURES, SALT, ENZYMES), PARSLEY, PARMESAN CHEESE (PASTEURIZED PART SKIM MILK, CHEESE CULTURES, SALT, ENZYMES), BLACK PEPPER." Date available: 06/25/2017 Date last updated by company: 06/25/2017
