Source: USDA Branded Food Products Database Release December 2017 Software v.3.8.6.4 2017-10-02
Report Run at: December 19, 2017 06:55 EST
"Nutrient data for: 45213056, CLASSIC CHEESE RAVIOLI, UPC: 008009995020"
Food Group:  Branded Food Products Database
Common Name:

Nutrient,Unit,Data points,Std. Error,"4.0 FOR ONE SIDE OF PACKAGE | ABOUT = 100.0g",1Value per 100 g,
Proximates
"Energy",kcal,--,--,180,180
"Protein",g,--,--,13.00,13.00
"Total lipid (fat)",g,--,--,12.00,12.00
"Carbohydrate, by difference",g,--,--,24.00,24.00
"Fiber, total dietary",g,--,--,1.0,1.0
"Sugars, total",g,--,--,1.00,1.00
Minerals
"Calcium, Ca",mg,--,--,250,250
"Iron, Fe",mg,--,--,2.02,2.02
"Sodium, Na",mg,--,--,500,500
Vitamins
"Vitamin C, total ascorbic acid",mg,--,--,0.0,0.0
"Vitamin A, IU",IU,--,--,1050,1050
Lipids
"Fatty acids, total saturated",g,--,--,7.000,7.000
"Fatty acids, total trans",g,--,--,0.000,0.000
"Cholesterol",mg,--,--,50,50
Amino Acids
Other
Ingredients
"FILLING: RICOTTA CHEESE (MILK, WHEY, CREAM, VINEGAR, SALT, NATURAL STABILIZERS [XANTHAN GUM, LOCUST BEAN GUM, GUAR GUM]), CHEDDAR CHEESE (MILK, ENZYMES, SALT), MOZZARELLA CHEESE (PASTEURIZED WHOLE MILK, CULTURE, SALT, ENZYMES), BRIE CHEESE (PASTEURIZED CULTURED MILK AND CREAM, SALT, ENZYMES), MILK, PARMESAN FLAVOR (PARMESAN CHEESE {MILK, CULTURE, SALT, ENZYMES}, SALT, YEAST EXTRACT, UNSALTED BUTTER, CORN OIL, OLIVE OIL, CREME POWDER, SUGAR AND NATURAL FLAVORING), BREADCRUMB (WHEAT FLOUR, EVAPORATED CANE SYRUP, YEAST, SEA SALT), EGGS, SALT, BLACK PEPPER." Date available: 07/14/2017 Date last updated by company: 07/14/2017
