Source: USDA Branded Food Products Database Release December 2017 Software v.3.8.6.4 2017-10-02
Report Run at: December 19, 2017 07:10 EST
"Nutrient data for: 45140367, CLASSICO, FAMILY FAVORITES, PASTA SAUCE, UPC: 041129424605"
Food Group:  Branded Food Products Database
Common Name:

Nutrient,Unit,Data points,Std. Error,"0.5 cup = 125.0g",1Value per 100 g,
Proximates
"Energy",kcal,--,--,80,64
"Protein",g,--,--,2.00,1.60
"Total lipid (fat)",g,--,--,2.50,2.00
"Carbohydrate, by difference",g,--,--,12.00,9.60
"Fiber, total dietary",g,--,--,2.0,1.6
"Sugars, total",g,--,--,9.00,7.20
Minerals
"Calcium, Ca",mg,--,--,40,32
"Iron, Fe",mg,--,--,1.52,1.22
"Sodium, Na",mg,--,--,420,336
Vitamins
"Vitamin C, total ascorbic acid",mg,--,--,2.5,2.0
"Vitamin A, IU",IU,--,--,792,634
Lipids
"Fatty acids, total saturated",g,--,--,0.000,0.000
"Fatty acids, total trans",g,--,--,0.000,0.000
"Cholesterol",mg,--,--,0,0
Amino Acids
Other
Ingredients
"TOMATO PUREE (WATER, TOMATO PASTE), DICED TOMATOES, TOMATO JUICE, SUGAR, CONTAINS 2% OR LESS OF: OLIVE OIL, SALT, BASIL, DEHYDRATED ONION, SPICES, DEHYDRATED GARLIC, CITRIC ACID, CALCIUM CHLORIDE." Date available: 07/14/2017 Date last updated by company: 07/14/2017
