Source: USDA Branded Food Products Database Release December 2017 Software v.3.8.6.4 2017-10-02
Report Run at: December 19, 2017 06:57 EST
"Nutrient data for: 45194844, CLASSIC CLUB ROLLS, UPC: 035826086631"
Food Group:  Branded Food Products Database
Common Name:

Nutrient,Unit,Data points,Std. Error,"1 ROLL = 32.0g",1Value per 100 g,
Proximates
"Energy",kcal,--,--,80,250
"Protein",g,--,--,3.00,9.38
"Total lipid (fat)",g,--,--,1.00,3.12
"Carbohydrate, by difference",g,--,--,15.00,46.88
"Fiber, total dietary",g,--,--,2.0,6.2
"Sugars, total",g,--,--,1.00,3.12
Minerals
"Calcium, Ca",mg,--,--,60,188
"Iron, Fe",mg,--,--,1.69,5.28
"Sodium, Na",mg,--,--,150,469
Vitamins
"Vitamin C, total ascorbic acid",mg,--,--,0.0,0.0
"Thiamin",mg,--,--,0.320,1.000
"Riboflavin",mg,--,--,0.102,0.319
"Niacin",mg,--,--,1.876,5.862
"Vitamin A, IU",IU,--,--,0,0
Lipids
"Fatty acids, total saturated",g,--,--,0.000,0.000
"Fatty acids, total monounsaturated",g,--,--,0.000,0.000
"Fatty acids, total polyunsaturated",g,--,--,0.499,1.560
"Fatty acids, total trans",g,--,--,0.000,0.000
"Cholesterol",mg,--,--,0,0
Amino Acids
Other
Ingredients
"UNBLEACHED ENRICHED FLOUR (WHEAT FLOUR, MALTED BARLEY FLOUR, NIACIN, REDUCED IRON, THIAMIN MONONITRATE, RIBOFLAVIN, FOLIC ACID), WATER, HIGH FRUCTOSE CORN SYRUP, SOYBEAN OIL, YEAST, CONTAINS 2% OR LESS OF EACH OF THE FOLLOWING: WHEAT GLUTEN, SALT, HONEY, DOUGH CONDITIONERS (CONTAINS ONE OR MORE OF ME FOLLOWING: SODIUM STEAROYL LACTYLATE, CALCIUM STEAROYL LACTYLATE, MONOGLYCERIDES, MONO-AND DIGLYCERIDES, DISTILLED MONOGLYCERIDES, CALCIUM PEROXIDE, CALCIUM IODATE, DATEM, ETHOXYLATED MONO-AND DIGLYCERIDES, ENZYMES, ASCORBIC ACID), SOY FLOUR, DEXTROSE, MALTODEXTRIN, MALTED BARLEY FLOUR, CALCIUM SULFATE, VINEGAR, CALCIUM PHOSPHATE, WHEAT STARCH, SOY LECITHIN, SUGAR, HYDROGENATED SOYBEAN OIL, CALCIUM CARBONATE, MONOCALCIUM PHOSPHATE, CALCIUM PROPIONATE (TO RETARD SPOILAGE)" Date available: 07/14/2017 Date last updated by company: 07/14/2017
