Source: USDA Branded Food Products Database Release December 2017 Software v.3.8.6.4 2017-10-02
Report Run at: December 19, 2017 07:22 EST
"Nutrient data for: 45333443, CLASSIC UNCURED WIENERS, UPC: 044700097014"
Food Group:  Branded Food Products Database
Common Name:

Nutrient,Unit,Data points,Std. Error,"1 LINK = 45.0g",1Value per 100 g,
Proximates
"Energy",kcal,--,--,110,244
"Protein",g,--,--,5.00,11.11
"Total lipid (fat)",g,--,--,10.00,22.22
"Carbohydrate, by difference",g,--,--,1.00,2.22
"Fiber, total dietary",g,--,--,0.0,0.0
"Sugars, total",g,--,--,1.00,2.22
Minerals
"Calcium, Ca",mg,--,--,60,133
"Iron, Fe",mg,--,--,0.88,1.96
"Sodium, Na",mg,--,--,420,933
Vitamins
"Vitamin C, total ascorbic acid",mg,--,--,5.8,13.0
"Vitamin A, IU",IU,--,--,0,0
Lipids
"Fatty acids, total saturated",g,--,--,3.001,6.670
"Fatty acids, total trans",g,--,--,0.000,0.000
"Cholesterol",mg,--,--,35,78
Amino Acids
Other
Ingredients
"MECHANICALLY SEPARATED TURKEY, MECHANICALLY SEPARATED CHICKEN, PORK, WATER, CULTURED DEXTROSE*, CONTAINS LESS THAN 2% OF DEXTROSE, SALT, CORN SYRUP, DISTILLED WHITE VINEGAR*, CULTURED CELERY JUICE*, SODIUM PHOSPHATE, CHERRY POWDER, FLAVOR." Date available: 10/14/2017 Date last updated by company: 10/14/2017
