Source: USDA Branded Food Products Database Release December 2017 Software v.3.8.6.4 2017-10-02
Report Run at: December 19, 2017 07:14 EST
"Nutrient data for: 45121679, CLASSIC PIZZA, UPC: 031205053003"
Food Group:  Branded Food Products Database
Common Name:

Nutrient,Unit,Data points,Std. Error,"0.167 PIZZA = 146.0g",1Value per 100 g,
Proximates
"Energy",kcal,--,--,340,233
"Protein",g,--,--,18.00,12.33
"Total lipid (fat)",g,--,--,18.99,13.01
"Carbohydrate, by difference",g,--,--,29.00,19.86
"Fiber, total dietary",g,--,--,3.9,2.7
"Sugars, total",g,--,--,0.99,0.68
Minerals
"Calcium, Ca",mg,--,--,250,171
"Iron, Fe",mg,--,--,2.41,1.65
"Sodium, Na",mg,--,--,840,575
Vitamins
"Vitamin C, total ascorbic acid",mg,--,--,1.6,1.1
"Vitamin A, IU",IU,--,--,400,274
Lipids
"Fatty acids, total saturated",g,--,--,6.001,4.110
"Fatty acids, total trans",g,--,--,0.000,0.000
"Cholesterol",mg,--,--,45,31
Amino Acids
Other
Ingredients
"CRUST: (WHEAT FLOUR, WATER, CORN OIL, YEAST, SALT), WHOLE MILK MOZZARELLA CHEESE: (PASTEURIZED MILK, CHEESE CULTURES, SALT, ENZYMES), SAUCE: (TOMATO PUREE, WATER, OREGANO, SALT, BLACK PEPPER), SAUSAGE: (PORK, SALT, SPICES, FLAVORING), MUSHROOMS." Date available: 07/14/2017 Date last updated by company: 07/14/2017
