Source: USDA Branded Food Products Database Release December 2017 Software v.3.8.6.4 2017-10-02
Report Run at: December 19, 2017 07:21 EST
"Nutrient data for: 45276438, CLASSIC TUNA SALAD, UPC: 071419885212"
Food Group:  Branded Food Products Database
Common Name:

Nutrient,Unit,Data points,Std. Error,"0.5 PACKAGE = 85.0g",1Value per 100 g,
Proximates
"Energy",kcal,--,--,200,235
"Protein",g,--,--,14.00,16.47
"Total lipid (fat)",g,--,--,14.00,16.47
"Carbohydrate, by difference",g,--,--,1.00,1.18
"Fiber, total dietary",g,--,--,0.0,0.0
"Sugars, total",g,--,--,0.00,0.00
Minerals
"Calcium, Ca",mg,--,--,0,0
"Iron, Fe",mg,--,--,0.59,0.70
"Sodium, Na",mg,--,--,400,471
Vitamins
"Vitamin C, total ascorbic acid",mg,--,--,0.0,0.0
"Vitamin A, IU",IU,--,--,0,0
Lipids
"Fatty acids, total saturated",g,--,--,1.003,1.180
"Fatty acids, total trans",g,--,--,0.000,0.000
"Cholesterol",mg,--,--,40,47
Amino Acids
Other
Ingredients
"TUNA (TUNA, WATER SALT), MAYONNAISE (EXPELLER-PRESSED CANOLA OIL, EGG YOLK, WATER, HONEY, DISTILLED VINEGAR, WHOLE EGG, CONTAINS LESS THAN 2% OF SALT, SPICE, LEMON JUICE CONCENTRATE), CELERY, RED ONION, CULTURED DEXTROSE, LEMON JUICE, BLACK PEPPER." Date available: 07/14/2017 Date last updated by company: 07/14/2017
