Source: USDA Branded Food Products Database Release December 2017 Software v.3.8.6.4 2017-10-02
Report Run at: December 19, 2017 07:16 EST
"Nutrient data for: 45280069, CLASSIC POTATO SALAD, UPC: 092825145417"
Food Group:  Branded Food Products Database
Common Name:

Nutrient,Unit,Data points,Std. Error,"0.5 cup = 134.0g",1Value per 100 g,
Proximates
"Energy",kcal,--,--,220,164
"Protein",g,--,--,2.00,1.49
"Total lipid (fat)",g,--,--,13.00,9.70
"Carbohydrate, by difference",g,--,--,25.00,18.66
"Fiber, total dietary",g,--,--,2.0,1.5
"Sugars, total",g,--,--,9.00,6.72
Minerals
"Calcium, Ca",mg,--,--,0,0
"Iron, Fe",mg,--,--,0.38,0.28
"Potassium, K",mg,--,--,320,239
"Sodium, Na",mg,--,--,670,500
Vitamins
"Vitamin C, total ascorbic acid",mg,--,--,6.3,4.7
"Vitamin A, IU",IU,--,--,209,156
Lipids
"Fatty acids, total saturated",g,--,--,2.506,1.870
"Fatty acids, total trans",g,--,--,0.000,0.000
"Cholesterol",mg,--,--,9,7
Amino Acids
Other
Ingredients
"POTATOES, MAYONNAISE (SOYBEAN OIL, WATER, EGG YOLKS, VINEGAR, SUGAR, SALT, MUSTARD FLOUR), WATER, SWEET PICKLE RELISH (CUCUMBERS, HIGH FRUCTOSE CORN SYRUP, WATER, VINEGAR, SALT, MODIFIED FOOD STARCH, CALCIUM CHLORIDE, SODIUM BENZOATE [PRESERVATIVES], NATURAL FLAVORINGS), HIGH FRUCTOSE CORN SYRUP, SUGAR, DICED RED PEPPER (BELL PEPPERS, WATER AND CITRIC ACID), ONIONS, MUSTARD (VINEGAR, WATER, MUSTARD SEED, SALT, SPICES, YELLOW #5 FOOD COLOR, TURMERIC AND FLAVORING), SALT, GREEN BELL PEPPER, CARROTS, MODIFIED CORN STARCH, VINEGAR, POTASSIUM SORBATE AND SODIUM BENZOATE ADDED TO PROTECT FLAVOR, XANTHAN GUM." Date available: 07/14/2017 Date last updated by company: 07/14/2017
