Source: USDA Branded Food Products Database Release December 2017 Software v.3.8.6.4 2017-10-02
Report Run at: December 19, 2017 07:22 EST
"Nutrient data for: 45078882, CLASSIC WHIP DRESSING, UPC: 011110023049"
Food Group:  Branded Food Products Database
Common Name:

Nutrient,Unit,Data points,Std. Error,"1 Tbsp = 17.0g",1Value per 100 g,
Proximates
"Energy",kcal,--,--,40,235
"Protein",g,--,--,0.00,0.00
"Total lipid (fat)",g,--,--,3.50,20.59
"Carbohydrate, by difference",g,--,--,3.00,17.65
"Fiber, total dietary",g,--,--,0.0,0.0
"Sugars, total",g,--,--,3.00,17.65
Minerals
"Calcium, Ca",mg,--,--,0,0
"Iron, Fe",mg,--,--,0.00,0.00
"Sodium, Na",mg,--,--,130,765
Vitamins
"Vitamin C, total ascorbic acid",mg,--,--,0.0,0.0
"Vitamin A, IU",IU,--,--,0,0
Lipids
"Fatty acids, total saturated",g,--,--,0.500,2.940
"Fatty acids, total trans",g,--,--,0.000,0.000
"Cholesterol",mg,--,--,5,29
Amino Acids
Other
Ingredients
"INGREDIENTS: WATER, HIGH FRUCTOSE CORN SYRUP, SOYBEAN OIL, VINEGAR, MODIFIED CORN STARCH, CELLULOSE GEL, CELLULOSE GUM, EGG YOLKS, SALT, CONTAINS LESS THAN 2% OF: PROPYLENE GLYCOL, OLIVE OIL, CITRIC ACID, GUM ARABIC, COCONUT OIL, TRIGLYCERIDES, TOCOPHEROLS, YELLOW 6, TITANIUM DOIXIDE (FOR COLOR), XANTHAN GUM, MUSTARD FLOUR, PAPRIKA, SODIUM BENZOATE AND POTASSIUM SORBATE AND CALCIUM DIOSODIUM EDTA (PRESERVATIVES)." Date available: 06/24/2017 Date last updated by company: 06/24/2017
