Source: USDA Branded Food Products Database Release December 2017 Software v.3.8.6.4 2017-10-02
Report Run at: December 19, 2017 06:59 EST
"Nutrient data for: 45121146, CLASSIC CRUST HAWAIIAN STYLE PIZZA, UPC: 072180567420"
Food Group:  Branded Food Products Database
Common Name:

Nutrient,Unit,Data points,Std. Error,"0.25 PIZZA = 134.0g",1Value per 100 g,
Proximates
"Energy",kcal,--,--,310,231
"Protein",g,--,--,11.00,8.21
"Total lipid (fat)",g,--,--,11.00,8.21
"Carbohydrate, by difference",g,--,--,41.00,30.60
"Fiber, total dietary",g,--,--,2.0,1.5
"Sugars, total",g,--,--,6.99,5.22
Minerals
"Calcium, Ca",mg,--,--,150,112
"Iron, Fe",mg,--,--,3.93,2.93
"Potassium, K",mg,--,--,269,201
"Sodium, Na",mg,--,--,600,448
Vitamins
"Vitamin C, total ascorbic acid",mg,--,--,7.0,5.2
"Vitamin A, IU",IU,--,--,437,326
Lipids
"Fatty acids, total saturated",g,--,--,4.998,3.730
"Fatty acids, total trans",g,--,--,0.000,0.000
"Cholesterol",mg,--,--,15,11
Amino Acids
Other
Ingredients
"ENRICHED FLOUR (WHEAT FLOUR, MALTED BARLEY FLOUR, NIACIN, REDUCED IRON, THIAMINE MONONITRATE, RIBOFLAVIN, FOLIC ACID), WATER, LOW MOISTURE PART SKIM MOZZARELLA CHEESE (CULTURED PASTEURIZED PART SKIM MILK, SALT, ENZYMES), PINEAPPLE, TOMATO PASTE, CANADIAN STYLE BACON WATER ADDED CHUNKED AND FORMED FROM PORK SIRLOIN HIPS {CURED WITH WATER, SALT, POTASSIUM LACTATE, SUGAR, SODIUM PHOSPHATES, SMOKE FLAVORING, SODIUM DIACETATE, SODIUM ERYTHORBATE, SODIUM NITRITE), YEAST, CONTAINS 2% OR LESS OF: PALM OIL, SMOKE-FLAVORED PROVOLONE CHEESE (CULTURED PASTEURIZED MILK, SALT, ENZYMES, SMOKE FLAVORING), SUGAR, VEGETABLE OIL (SOYBEAN AND/OR CANOLA OIL), SALT, MODIFIED FOOD STARCH, SPICE, MALTODEXTRIN, DRIED GARLIC, HYDROLYZED SOY AND CORN PROTEIN, PAPRIKA, DRIED ONION, WHEAT STARCH, L-CYSTEINE HYDROCHLORIDE, AMMONIUM SULFATE, SOY LECITHIN, NATURAL FLAVOR, ENZYMES (CONTAINS WHEAT), ASCORBIC ACID." Date available: 07/14/2017 Date last updated by company: 07/14/2017
