Source: USDA Branded Food Products Database Release December 2017 Software v.3.8.6.4 2017-10-02
Report Run at: December 19, 2017 06:52 EST
"Nutrient data for: 45200736, CLASSIC BARBECUE SAUCE, UPC: 727517101159"
Food Group:  Branded Food Products Database
Common Name:

Nutrient,Unit,Data points,Std. Error,"2.0 Tbsp = 28.0g",1Value per 100 g,
Proximates
"Energy",kcal,--,--,25,89
"Protein",g,--,--,0.00,0.00
"Total lipid (fat)",g,--,--,0.00,0.00
"Carbohydrate, by difference",g,--,--,6.00,21.43
"Fiber, total dietary",g,--,--,0.0,0.0
"Sugars, total",g,--,--,0.00,0.00
Minerals
"Calcium, Ca",mg,--,--,0,0
"Iron, Fe",mg,--,--,0.00,0.00
"Sodium, Na",mg,--,--,150,536
Vitamins
"Vitamin C, total ascorbic acid",mg,--,--,2.0,7.2
"Vitamin A, IU",IU,--,--,0,0
Lipids
"Fatty acids, total saturated",g,--,--,0.000,0.000
"Cholesterol",mg,--,--,0,0
Amino Acids
Other
Ingredients
"TOMATO SAUCE, (WATER, TOMATO PASTE, SALT) SUGAR, VINEGAR, MOLASSES HOT SAUCE (PEPPERS, VINEGAR, SALT), FRESH ONION, FRESH GARLIC WITH OIL, CORN STARCH WORCESTERSHIRE SAUCE (DISTILLED VINEGAR, MOLASSES, CORN SYRUP, WATER, SALT, CARAMEL COLOR, GARLIC POWDER, SUGAR, SPICES, ANCHOVIES AND NATURAL FLAVORINGS), NATURAL HICKORY FLAVORING, SPICES, THICKENER (XANTHAN GUM), AGED KENTUCKY BOURBON (0.12%), LEMON JUICE, ACID (CITRIC ACID), CAYENNE PEPPER." Date available: 07/14/2017 Date last updated by company: 07/14/2017
