Source: USDA Branded Food Products Database Release December 2017 Software v.3.8.6.4 2017-10-02
Report Run at: December 19, 2017 07:07 EST
"Nutrient data for: 45269005, CLASSIC KID'S SNACK BREAK BOX, UPC: 826766846641"
Food Group:  Branded Food Products Database
Common Name:

Nutrient,Unit,Data points,Std. Error,"1 CONT = 263.0g",1Value per 100 g,
Proximates
"Energy",kcal,--,--,371,141
"Protein",g,--,--,26.01,9.89
"Total lipid (fat)",g,--,--,19.99,7.60
"Carbohydrate, by difference",g,--,--,25.01,9.51
"Fiber, total dietary",g,--,--,2.9,1.1
"Sugars, total",g,--,--,17.99,6.84
Minerals
"Calcium, Ca",mg,--,--,450,171
"Iron, Fe",mg,--,--,0.76,0.29
"Sodium, Na",mg,--,--,550,209
Vitamins
"Vitamin C, total ascorbic acid",mg,--,--,2.6,1.0
"Vitamin A, IU",IU,--,--,5589,2125
Lipids
"Fatty acids, total saturated",g,--,--,10.993,4.180
"Fatty acids, total trans",g,--,--,0.500,0.190
"Cholesterol",mg,--,--,84,32
Amino Acids
Other
Ingredients
"GRAPES, CARROTS, CHEDDAR CHEESE (CULTURED PASTEURIZED MILK, SALT, ENZYMES, ANNATO COLOR [IF COLORED]), HONEY ROASTED TURKEY BREAST (TURKEY BREAST, WATER, HONEY, SEA SALT, SODIUM CARBONATE AND NATURAL FLAVORINGS). HONEY ROASTED TURKEY BREAST, CARROTS, CHEDDAR CHEESE & GRAPES" Date available: 07/14/2017 Date last updated by company: 07/14/2017
