Source: USDA Branded Food Products Database Release December 2017 Software v.3.8.6.4 2017-10-02
Report Run at: December 19, 2017 07:19 EST
"Nutrient data for: 45265159, CLASSIC SPINACH SALAD WITH HOT BACON DRESSING, UPC: 023933932415"
Food Group:  Branded Food Products Database
Common Name:

Nutrient,Unit,Data points,Std. Error,"14.08 ONZ = 399.0g",1Value per 100 g,
Proximates
"Energy",kcal,--,--,459,115
"Protein",g,--,--,24.70,6.19
"Total lipid (fat)",g,--,--,22.78,5.71
"Carbohydrate, by difference",g,--,--,37.59,9.42
"Fiber, total dietary",g,--,--,6.4,1.6
"Sugars, total",g,--,--,26.89,6.74
Minerals
"Calcium, Ca",mg,--,--,192,48
"Iron, Fe",mg,--,--,2.19,0.55
"Sodium, Na",mg,--,--,1548,388
Vitamins
"Vitamin C, total ascorbic acid",mg,--,--,19.6,4.9
"Vitamin A, IU",IU,--,--,4984,1249
Lipids
"Fatty acids, total saturated",g,--,--,6.703,1.680
"Fatty acids, total trans",g,--,--,0.120,0.030
"Cholesterol",mg,--,--,219,55
Amino Acids
Other
Ingredients
"BABY SPINACH, DRESSING (VINEGAR, WATER, ONION, CELERY, BACON, VEG OIL, CORNSTARCH, HAM BASE [SMKD HAM, SALT, DEXTROSE, SUGAR, AUTOLYZED YEAST EXTRACT, HAM FLVR, DRY WHEY, NATR FLVR, XANTHAN GUM], SALT, GRAN ONION/GARLIC, PARSLEY), HARD BOILED EGG, TOMATO, RED ONION, BACON BITS." Date available: 08/29/2017 Date last updated by company: 08/29/2017
