Source: USDA Branded Food Products Database Release December 2017 Software v.3.8.6.4 2017-10-02
Report Run at: December 19, 2017 07:15 EST
"Nutrient data for: 45288939, CLASSIC PLAIN CREAM CHEESE ALTERNATIVE SPREAD & DIP MINIS, UPC: 077172667270"
Food Group:  Branded Food Products Database
Common Name:

Nutrient,Unit,Data points,Std. Error,"1 MINI = 37.0g",1Value per 100 g,
Proximates
"Energy",kcal,--,--,100,270
"Protein",g,--,--,2.00,5.41
"Total lipid (fat)",g,--,--,11.00,29.73
"Carbohydrate, by difference",g,--,--,1.00,2.70
"Fiber, total dietary",g,--,--,0.0,0.0
"Sugars, total",g,--,--,0.00,0.00
Minerals
"Calcium, Ca",mg,--,--,60,162
"Iron, Fe",mg,--,--,0.00,0.00
"Sodium, Na",mg,--,--,160,432
Vitamins
"Vitamin C, total ascorbic acid",mg,--,--,0.0,0.0
"Vitamin A, IU",IU,--,--,0,0
Lipids
"Fatty acids, total saturated",g,--,--,4.999,13.510
"Fatty acids, total monounsaturated",g,--,--,3.001,8.110
"Fatty acids, total polyunsaturated",g,--,--,1.498,4.050
"Fatty acids, total trans",g,--,--,0.000,0.000
"Cholesterol",mg,--,--,0,0
Amino Acids
Other
Ingredients
"FILTERED WATER, COCONUT OIL, MID-OLEIC SUNFLOWER OIL, SOY PROTEIN CONCENTRATE, CORNSTARCH, SEA SALT, TRICALCIUM PHOSPHATE, NATURAL VEGAN FLAVORS, ORGANIC LOCUST BEAN GUM, XANTHAN GUM, ORGANIC GUAR GUM, VEGAN CULTURE." Date available: 07/14/2017 Date last updated by company: 07/14/2017
