Source: USDA Branded Food Products Database Release December 2017 Software v.3.8.6.4 2017-10-02
Report Run at: December 19, 2017 07:01 EST
"Nutrient data for: 45280901, CLASSIC FRENCH DRESSING, UPC: 041268149230"
Food Group:  Branded Food Products Database
Common Name:

Nutrient,Unit,Data points,Std. Error,"2.0 Tbsp = 30.0g",1Value per 100 g,
Proximates
"Energy",kcal,--,--,120,400
"Protein",g,--,--,0.00,0.00
"Total lipid (fat)",g,--,--,11.00,36.67
"Carbohydrate, by difference",g,--,--,5.00,16.67
"Fiber, total dietary",g,--,--,0.0,0.0
"Sugars, total",g,--,--,5.00,16.67
Minerals
"Calcium, Ca",mg,--,--,0,0
"Iron, Fe",mg,--,--,0.00,0.00
"Potassium, K",mg,--,--,15,50
"Sodium, Na",mg,--,--,180,600
Vitamins
"Vitamin C, total ascorbic acid",mg,--,--,0.0,0.0
"Vitamin A, IU",IU,--,--,0,0
Lipids
"Fatty acids, total saturated",g,--,--,1.500,5.000
"Fatty acids, total monounsaturated",g,--,--,2.499,8.330
"Fatty acids, total polyunsaturated",g,--,--,6.000,20.000
"Fatty acids, total trans",g,--,--,0.000,0.000
"Cholesterol",mg,--,--,0,0
Amino Acids
Other
Ingredients
"VEGETABLE OIL (CANOLA AND/OR SOYBEAN OIL), WATER, HIGH FRUCTOSE CORN SYRUP, CIDER VINEGAR, TOMATO PASTE, CONTAINS LESS THAN 2% OF SALT, MUSTARD FLOUR, DISTILLED VINEGAR, ONION POWDER, XANTHAN GUM, PAPRIKA EXTRACT (FOR COLOR), PROPYLENE GLYCOL ALGINATE, CALCIUM DISODIUM EDTA TO PROTECT FLAVOR." Date available: 07/14/2017 Date last updated by company: 07/14/2017
