Source: USDA Branded Food Products Database Release December 2017 Software v.3.8.6.4 2017-10-02
Report Run at: December 19, 2017 06:56 EST
"Nutrient data for: 45268068, CLASSIC CHOCOLATE CONFECTIONS, UPC: 69135589320"
Food Group:  Branded Food Products Database
Common Name:

Nutrient,Unit,Data points,Std. Error,"64.0 GRM = 64.0g",1Value per 100 g,
Proximates
"Energy",kcal,--,--,330,516
"Protein",g,--,--,5.00,7.81
"Total lipid (fat)",g,--,--,19.00,29.69
"Carbohydrate, by difference",g,--,--,36.00,56.25
"Fiber, total dietary",g,--,--,2.0,3.1
"Sugars, total",g,--,--,31.00,48.44
Minerals
"Calcium, Ca",mg,--,--,100,156
"Iron, Fe",mg,--,--,0.00,0.00
"Sodium, Na",mg,--,--,110,172
Vitamins
"Vitamin C, total ascorbic acid",mg,--,--,1.9,2.9
"Vitamin A, IU",IU,--,--,0,0
Lipids
"Fatty acids, total saturated",g,--,--,11.002,17.190
"Fatty acids, total trans",g,--,--,0.000,0.000
"Cholesterol",mg,--,--,10,16
Amino Acids
Other
Ingredients
"MILK CHOCOLATE (SUGAR, COCOA BUTTER, COCOA MASS, WHOLE MILK POWDER, SOY LECITHIN [EMULSIFIER], AND NATURAL VANILLA EXTRACT), SALTED POTATO CHIPS (POTATOES, VEGETABLE OIL [CONTAINS ONE OR MORE OF THE FOLLOWING: COTTONSEED, SUNFLOWER] AND SEA SALT), ARTIFICIAL BACON BITS (TEXTURED SOY FLOUR, PARTIALLY HYDROGENATED VEGETABLE OIL [SOYBEAN], SALT, NATURAL AND ARTIFICIAL FLAVORS, DEXTROSE, FD&C RED #3 AND 40)." Date available: 10/11/2017 Date last updated by company: 10/11/2017
