Source: USDA Branded Food Products Database Release December 2017 Software v.3.8.6.4 2017-10-02
Report Run at: December 19, 2017 07:04 EST
"Nutrient data for: 45114298, CLASSIC HOT DOG BUNS, UPC: 071319000982"
Food Group:  Branded Food Products Database
Common Name:

Nutrient,Unit,Data points,Std. Error,"1 BUN = 43.0g",1Value per 100 g,
Proximates
"Energy",kcal,--,--,110,256
"Protein",g,--,--,4.00,9.30
"Total lipid (fat)",g,--,--,1.50,3.49
"Carbohydrate, by difference",g,--,--,21.00,48.84
"Fiber, total dietary",g,--,--,1.0,2.3
"Sugars, total",g,--,--,3.00,6.98
Minerals
"Calcium, Ca",mg,--,--,60,140
"Iron, Fe",mg,--,--,1.67,3.89
"Sodium, Na",mg,--,--,200,465
Vitamins
"Vitamin C, total ascorbic acid",mg,--,--,0.0,0.0
"Thiamin",mg,--,--,0.430,1.000
"Riboflavin",mg,--,--,0.136,0.316
"Niacin",mg,--,--,2.326,5.409
"Vitamin A, IU",IU,--,--,0,0
Lipids
"Fatty acids, total saturated",g,--,--,0.000,0.000
"Fatty acids, total trans",g,--,--,0.000,0.000
"Cholesterol",mg,--,--,0,0
Amino Acids
Other
Ingredients
"ENRICHED WHEAT FLOUR (WHEAT FLOUR, MALTED BARLEY FLOUR, NIACIN, IRON, THIAMINE MONONITRATE, RIBOFLAVIN, FOLIC ACID), WATER, CORN SYRUP, SOY OIL, CONTAINS 2% OR LESS OF THE FOLLOWING: WHEAT GLUTEN, SALT, DOUGH CONDITIONERS (MONOGLYCERIDES, ASCORBIC ACID), YEAST NUTRIENTS (CALCIUM SULFATE, MONOCALCIUM PHOSPHATE), CALCIUM PROPIONATE (A PRESERVATIVE), ENZYME." Date available: 07/14/2017 Date last updated by company: 07/14/2017
