Source: USDA Branded Food Products Database Release December 2017 Software v.3.8.6.4 2017-10-02
Report Run at: December 19, 2017 07:22 EST
"Nutrient data for: 45120884, CLASSIC VEGETABLES MIXED VEGETABLES, UPC: 048800165758"
Food Group:  Branded Food Products Database
Common Name:

Nutrient,Unit,Data points,Std. Error,"0.666 cup = 85.0g",1Value per 100 g,
Proximates
"Energy",kcal,--,--,50,59
"Protein",g,--,--,2.00,2.35
"Total lipid (fat)",g,--,--,0.00,0.00
"Carbohydrate, by difference",g,--,--,10.00,11.76
"Fiber, total dietary",g,--,--,2.0,2.4
"Sugars, total",g,--,--,4.00,4.71
Minerals
"Calcium, Ca",mg,--,--,20,24
"Iron, Fe",mg,--,--,0.36,0.42
"Sodium, Na",mg,--,--,65,76
Vitamins
"Vitamin C, total ascorbic acid",mg,--,--,3.6,4.2
"Vitamin A, IU",IU,--,--,1000,1176
Lipids
"Fatty acids, total saturated",g,--,--,0.000,0.000
"Fatty acids, total trans",g,--,--,0.000,0.000
"Cholesterol",mg,--,--,0,0
Amino Acids
Other
Ingredients
"CARROTS, GREEN BEANS, PEAS, CORN AND SALT." Date available: 07/14/2017 Date last updated by company: 07/14/2017
