Source: USDA Branded Food Products Database Release December 2017 Software v.3.8.6.4 2017-10-02
Report Run at: December 19, 2017 07:06 EST
"Nutrient data for: 45194376, CLASSIC ITALIAN MEATBALLS WITH SPAGHETTI AND MARINARA SAUCE, UPC: 018894904380"
Food Group:  Branded Food Products Database
Common Name:

Nutrient,Unit,Data points,Std. Error,"0.5 PACKAGE = 227.0g",1Value per 100 g,
Proximates
"Energy",kcal,--,--,311,137
"Protein",g,--,--,22.00,9.69
"Total lipid (fat)",g,--,--,13.01,5.73
"Carbohydrate, by difference",g,--,--,25.99,11.45
"Fiber, total dietary",g,--,--,2.0,0.9
"Sugars, total",g,--,--,4.99,2.20
Minerals
"Calcium, Ca",mg,--,--,100,44
"Iron, Fe",mg,--,--,1.66,0.73
"Sodium, Na",mg,--,--,940,414
Vitamins
"Vitamin C, total ascorbic acid",mg,--,--,7.5,3.3
"Vitamin A, IU",IU,--,--,61,27
Lipids
"Fatty acids, total saturated",g,--,--,4.495,1.980
"Fatty acids, total trans",g,--,--,0.000,0.000
"Cholesterol",mg,--,--,84,37
Amino Acids
Other
Ingredients
"MARINARA SAUCE (DICED TOMATOES [TOMATOES, TOMATO JUICE SALT, CALCIUM CHLORIDE (FIRMING AGENT), CITRIC ACID], CRUSHED TOMATOES [TOMATOES, SALT, CITRIC ACID], WATER, ONION, TOMATO PASTE [TOMATOES], BLENDED OIL [CANOLA OIL, EXTRA VIRGIN OLIVE OIL], GARLIC, FOOD STARCH - MODIFIED [CORN], KOSHER SALT, BASIL, PARSLEY, OREGANO, CHILI PEPPER), MEATBALLS (BEEF, PORK, PARMESAN CHEESE [PASTEURIZED COW'S MILK, CHEESE CULTURE, SALT, RENNET AND AGED OVER 10 MONTHS, CALCIUM PROPIONATE (PRESERVATIVE)], WHOLE EGGS WITH CITRIC ACID, BREAD CRUMBS [BLEACHED WHEAT FLOUR, DEXTROSE, SALT, YEAST], GARLIC, PARSLEY, KOSHER SALT, BLACK PEPPER, CARAMEL COLOR [CONTAINS SULFITES]), SPAGHETTI (WATER, PASTA [SEMOLINA (WHEAT), DURUM FLOUR, NIACIN, IRON (FERROUS SULFATE), THIAMINE MONONITRATE, RIBOFLAVIN, FOLIC ACID], KOSHER SALT)." Date available: 07/14/2017 Date last updated by company: 07/14/2017
