Source: USDA Branded Food Products Database Release December 2017 Software v.3.8.6.4 2017-10-02
Report Run at: December 19, 2017 07:24 EST
"Nutrient data for: 45281510, CLAW CRABMEAT, UPC: 07203678107"
Food Group:  Branded Food Products Database
Common Name:

Nutrient,Unit,Data points,Std. Error,"0.25 CUP = 56.0g",1Value per 100 g,
Proximates
"Energy",kcal,--,--,45,80
"Protein",g,--,--,11.00,19.64
"Total lipid (fat)",g,--,--,0.00,0.00
"Carbohydrate, by difference",g,--,--,0.00,0.00
Minerals
"Calcium, Ca",mg,--,--,80,143
"Iron, Fe",mg,--,--,0.55,0.98
"Sodium, Na",mg,--,--,230,411
Vitamins
Lipids
"Cholesterol",mg,--,--,50,89
Amino Acids
Other
Ingredients
"PASTEURIZED CRABMEAT (PORTUNUS PELAGICUS), SODIUM ACID PYROPHOSPHATE TO PROMOTE COLOR RETENTION." Date available: 07/14/2017 Date last updated by company: 07/14/2017
