Source: USDA Branded Food Products Database Release December 2017 Software v.3.8.6.4 2017-10-02
Report Run at: December 19, 2017 07:30 EST
"Nutrient data for: 45163525, CLEAR VALUE, BUTTERSCOTCH DISCS, UPC: 036800412453"
Food Group:  Branded Food Products Database
Common Name:

Nutrient,Unit,Data points,Std. Error,"3.0 PCS = 17.0g",1Value per 100 g,
Proximates
"Energy",kcal,--,--,70,412
"Protein",g,--,--,0.00,0.00
"Total lipid (fat)",g,--,--,1.00,5.88
"Carbohydrate, by difference",g,--,--,16.00,94.12
"Fiber, total dietary",g,--,--,0.0,0.0
"Sugars, total",g,--,--,12.00,70.59
Minerals
"Calcium, Ca",mg,--,--,0,0
"Iron, Fe",mg,--,--,0.00,0.00
"Sodium, Na",mg,--,--,70,412
Vitamins
"Vitamin C, total ascorbic acid",mg,--,--,0.0,0.0
"Vitamin A, IU",IU,--,--,0,0
Lipids
"Fatty acids, total saturated",g,--,--,0.000,0.000
"Fatty acids, total trans",g,--,--,0.000,0.000
"Cholesterol",mg,--,--,0,0
Amino Acids
Other
Ingredients
"SUGAR, CORN SYRUP, HYDROGENATED PALM OIL, SALT, SOY LECITHIN, ARTIFICIAL FLAVOR, ARTIFICIAL COLORS: FD&C YELLOW #5 AND RED #40, BHT." Date available: 07/14/2017 Date last updated by company: 07/14/2017
