Source: USDA Branded Food Products Database Release December 2017 Software v.3.8.6.4 2017-10-02
Report Run at: December 19, 2017 07:29 EST
"Nutrient data for: 45266732, CLEAR PIPING GEL, UPC: 070896399878"
Food Group:  Branded Food Products Database
Common Name:

Nutrient,Unit,Data points,Std. Error,"2.0 Tbsp = 38.0g",1Value per 100 g,
Proximates
"Energy",kcal,--,--,100,263
"Protein",g,--,--,0.00,0.00
"Total lipid (fat)",g,--,--,0.00,0.00
"Carbohydrate, by difference",g,--,--,25.00,65.79
"Sugars, total",g,--,--,18.00,47.37
Minerals
"Sodium, Na",mg,--,--,15,39
Vitamins
Lipids
Amino Acids
Other
Ingredients
"CORN SYRUP, SUGAR, WATER, FOOD STARCH - MODIFIED (CORN), AGAR GUM, CITRIC ACID, POTASSIUM SORBATE (PRESERVATIVE), SODIUM CITRATE." Date available: 07/14/2017 Date last updated by company: 07/14/2017
