Source: USDA Branded Food Products Database Release December 2017 Software v.3.8.6.4 2017-10-02
Report Run at: December 19, 2017 07:32 EST
"Nutrient data for: 45248475, CLEAR VALUE, SRTIPED SHORTBREAD FUDGE COOKIES, UPC: 036800306684"
Food Group:  Branded Food Products Database
Common Name:

Nutrient,Unit,Data points,Std. Error,"3.0 COOKIES = 35.0g",1Value per 100 g,
Proximates
"Energy",kcal,--,--,170,486
"Protein",g,--,--,2.00,5.71
"Total lipid (fat)",g,--,--,7.00,20.00
"Carbohydrate, by difference",g,--,--,25.00,71.43
"Fiber, total dietary",g,--,--,1.0,2.9
"Sugars, total",g,--,--,11.00,31.43
Minerals
"Calcium, Ca",mg,--,--,0,0
"Iron, Fe",mg,--,--,1.54,4.41
"Sodium, Na",mg,--,--,125,357
Vitamins
"Vitamin C, total ascorbic acid",mg,--,--,0.0,0.0
"Vitamin A, IU",IU,--,--,0,0
Lipids
"Fatty acids, total saturated",g,--,--,4.000,11.430
"Fatty acids, total trans",g,--,--,0.000,0.000
"Cholesterol",mg,--,--,0,0
Amino Acids
Other
Ingredients
"ENRICHED FLOUR (WHEAT FLOUR, NIACIN, REDUCED IRON, THIAMINE MONONITRATE, RIBOFLAVIN, FOLIC ACID), SUGAR, VEGETABLE OIL SHORTENING (PALM KERNEL AND PALM OILS), HIGH FRUCTOSE CORN SYRUP, COCOA (PROCESSED WITH ALKALI), CORNSTARCH, SALT, BAKING SODA, SOY LECITHIN, ARTIFICIAL FLAVOR, AMMONIUM BICARBONATE." Date available: 07/14/2017 Date last updated by company: 07/14/2017
