Source: USDA Branded Food Products Database Release December 2017 Software v.3.8.6.4 2017-10-02
Report Run at: December 19, 2017 07:32 EST
"Nutrient data for: 45029607, CLEMENTE JACQUES, PREMIUM NACHO SLICED JALAPENO PEPPERS, UPC: 078883760113"
Food Group:  Branded Food Products Database
Common Name:

Nutrient,Unit,Data points,Std. Error,"0.25 cup = 32.0g",1Value per 100 g,
Proximates
"Energy",kcal,--,--,5,16
"Protein",g,--,--,0.00,0.00
"Total lipid (fat)",g,--,--,0.00,0.00
"Carbohydrate, by difference",g,--,--,1.00,3.12
"Fiber, total dietary",g,--,--,1.0,3.1
"Sugars, total",g,--,--,1.00,3.12
Minerals
"Iron, Fe",mg,--,--,0.56,1.75
"Sodium, Na",mg,--,--,360,1125
Vitamins
"Vitamin A, IU",IU,--,--,469,1466
Lipids
Amino Acids
Other
Ingredients
"JALAPENO PEPPERS, WATER, VINEGAR, IODIZED SALT, ONION, SUGAR, SPICES AND GARLIC." Date available: 06/24/2017 Date last updated by company: 06/24/2017
