Source: USDA Branded Food Products Database Release December 2017 Software v.3.8.6.4 2017-10-02
Report Run at: December 19, 2017 07:33 EST
"Nutrient data for: 45149005, CLEVER CANDY, GUMMY CHICKEN FEET & GUMMY FRIED EGGS, UPC: 618645312848"
Food Group:  Branded Food Products Database
Common Name:

Nutrient,Unit,Data points,Std. Error,"6.0 PIECES = 40.0g",1Value per 100 g,
Proximates
"Energy",kcal,--,--,130,325
"Protein",g,--,--,1.00,2.50
"Total lipid (fat)",g,--,--,0.00,0.00
"Carbohydrate, by difference",g,--,--,31.00,77.50
"Fiber, total dietary",g,--,--,0.0,0.0
"Sugars, total",g,--,--,22.00,55.00
Minerals
"Calcium, Ca",mg,--,--,0,0
"Iron, Fe",mg,--,--,0.00,0.00
"Sodium, Na",mg,--,--,20,50
Vitamins
"Vitamin C, total ascorbic acid",mg,--,--,0.0,0.0
"Vitamin A, IU",IU,--,--,0,0
Lipids
"Fatty acids, total saturated",g,--,--,0.000,0.000
"Fatty acids, total trans",g,--,--,0.000,0.000
"Cholesterol",mg,--,--,0,0
Amino Acids
Other
Ingredients
"CORN SYRUP, SUGAR, GELATIN, WATER, SORBITOL, MODIFIED CORNSTARCH, CITRIC ACID, CORNSTARCH, LACTIC ACID, SODIUM LACTATE, PECTIN, NATURAL AND ARTIFICIAL FLAVORS, VEGETABLE OIL (COCONUT, PALM AND PALM KERNEL OILS), CARNAUBA WAX, BEESWAX, TURMERIC (COLOR), ARTIFICIAL COLORS (YELLOW 5, RED 40, BLUE 1, TITANIUM DIOXIDE)." Date available: 07/14/2017 Date last updated by company: 07/14/2017
