Source: USDA Branded Food Products Database Release December 2017 Software v.3.8.6.4 2017-10-02
Report Run at: December 19, 2017 07:33 EST
"Nutrient data for: 45227476, CLEVERFOODIES, SCRAMBLE, MEDITERRANEAN SMALL-BATCH SIMMERED VEGETABLES, UPC: 857037005023"
Food Group:  Branded Food Products Database
Common Name:

Nutrient,Unit,Data points,Std. Error,"2.0 Tbsp = 29.0g",1Value per 100 g,
Proximates
"Energy",kcal,--,--,35,121
"Protein",g,--,--,2.00,6.90
"Total lipid (fat)",g,--,--,1.00,3.45
"Carbohydrate, by difference",g,--,--,6.00,20.69
"Fiber, total dietary",g,--,--,2.0,6.9
"Sugars, total",g,--,--,2.00,6.90
Minerals
"Calcium, Ca",mg,--,--,28,97
"Iron, Fe",mg,--,--,1.00,3.45
"Potassium, K",mg,--,--,48,166
"Sodium, Na",mg,--,--,90,310
Vitamins
"Vitamin D",IU,--,--,0,0
Lipids
"Fatty acids, total saturated",g,--,--,0.000,0.000
"Fatty acids, total trans",g,--,--,0.000,0.000
"Cholesterol",mg,--,--,0,0
Amino Acids
Other
Ingredients
"TOMATOES (TOMATO, TOMATO PUREE, TOMATO JUICE, SALT), ONION, RED AND YELLOW BELL PEPPER, KALAMATA OLIVES, PARSLEY, GARLIC, BASIL, CAPERS, SUNFLOWER OIL, OLIVE OIL, SPICES, CITRIC ACID, OREGANO." Date available: 09/17/2017 Date last updated by company: 09/17/2017
