Source: USDA Branded Food Products Database Release December 2017 Software v.3.8.6.4 2017-10-02
Report Run at: December 19, 2017 07:36 EST
"Nutrient data for: 45157982, CLIF, KIT'S ORGANIC, FRUIT & NUT BAR, DARK CHOCOLATE, ALMOND COCONUT, UPC: 722252141224"
Food Group:  Branded Food Products Database
Common Name:

Nutrient,Unit,Data points,Std. Error,"1 BAR = 48.0g",1Value per 100 g,
Proximates
"Energy",kcal,--,--,200,417
"Protein",g,--,--,4.00,8.33
"Total lipid (fat)",g,--,--,11.00,22.92
"Carbohydrate, by difference",g,--,--,25.00,52.08
"Fiber, total dietary",g,--,--,5.0,10.4
"Sugars, total",g,--,--,20.00,41.67
Minerals
"Calcium, Ca",mg,--,--,40,83
"Iron, Fe",mg,--,--,0.90,1.88
"Potassium, K",mg,--,--,360,750
"Sodium, Na",mg,--,--,105,219
Vitamins
"Vitamin C, total ascorbic acid",mg,--,--,0.0,0.0
"Vitamin A, IU",IU,--,--,0,0
Lipids
"Fatty acids, total saturated",g,--,--,3.998,8.330
"Fatty acids, total monounsaturated",g,--,--,5.002,10.420
"Fatty acids, total polyunsaturated",g,--,--,1.498,3.120
"Fatty acids, total trans",g,--,--,0.000,0.000
"Cholesterol",mg,--,--,0,0
Amino Acids
Other
Ingredients
"ORGANIC DATES, ORGANIC ALMONDS, ORGANIC UNSWEETENED DARK CHOCOLATE, ORGANIC COCONUT, ORGANIC VIRGIN COCONUT OIL, SEA SALT." Date available: 07/14/2017 Date last updated by company: 07/14/2017
