Source: USDA Branded Food Products Database Release December 2017 Software v.3.8.6.4 2017-10-02
Report Run at: December 19, 2017 07:35 EST
"Nutrient data for: 45158035, CLIF, HYDRATION ELECTROLYTE DRINK MIX, LEMON LIME-ADE, UPC: 722252121714"
Food Group:  Branded Food Products Database
Common Name:

Nutrient,Unit,Data points,Std. Error,"0.5 SCOOP, MAKES 8 OZ = 11.0g",1Value per 100 g,
Proximates
"Energy",kcal,--,--,40,364
"Protein",g,--,--,0.00,0.00
"Total lipid (fat)",g,--,--,0.00,0.00
"Carbohydrate, by difference",g,--,--,10.00,90.91
"Fiber, total dietary",g,--,--,0.0,0.0
"Sugars, total",g,--,--,10.00,90.91
Minerals
"Calcium, Ca",mg,--,--,20,182
"Iron, Fe",mg,--,--,0.00,0.00
"Magnesium, Mg",mg,--,--,36,331
"Potassium, K",mg,--,--,25,227
"Sodium, Na",mg,--,--,125,1136
Vitamins
"Vitamin C, total ascorbic acid",mg,--,--,0.0,0.0
"Vitamin A, IU",IU,--,--,0,0
Lipids
"Fatty acids, total saturated",g,--,--,0.000,0.000
"Fatty acids, total trans",g,--,--,0.000,0.000
Amino Acids
Other
Ingredients
"ORGANIC GLUCOSE, ORGANIC DRIED CANE SYRUP, CITRIC ACID, SEA SALT, CALCIUM CITRATE, MAGNESIUM CITRATE, POTASSIUM CITRATE, NATURAL FLAVOR. WE SOURCE INGREDIENTS THAT ARE NOT GENETICALLY ENGINEERED." Date available: 07/14/2017 Date last updated by company: 07/14/2017
