Source: USDA Branded Food Products Database Release December 2017 Software v.3.8.6.4 2017-10-02
Report Run at: December 19, 2017 07:44 EST
"Nutrient data for: 45023144, CLOVER VALLEY, FLAVORED SYRUP, CHOCOLATE, UPC: 041550010064"
Food Group:  Branded Food Products Database
Common Name:

Nutrient,Unit,Data points,Std. Error,"2.0 Tbsp = 38.0g",1Value per 100 g,
Proximates
"Energy",kcal,--,--,100,263
"Protein",g,--,--,1.00,2.63
"Total lipid (fat)",g,--,--,0.00,0.00
"Carbohydrate, by difference",g,--,--,24.00,63.16
"Fiber, total dietary",g,--,--,1.0,2.6
"Sugars, total",g,--,--,16.00,42.11
Minerals
"Calcium, Ca",mg,--,--,0,0
"Iron, Fe",mg,--,--,1.22,3.20
"Sodium, Na",mg,--,--,25,66
Vitamins
"Vitamin C, total ascorbic acid",mg,--,--,0.0,0.0
"Vitamin A, IU",IU,--,--,0,0
Lipids
"Fatty acids, total saturated",g,--,--,0.000,0.000
"Fatty acids, total trans",g,--,--,0.000,0.000
"Cholesterol",mg,--,--,0,0
Amino Acids
Other
Ingredients
"HIGH FRUCTOSE CORN SYRUP, CORP SYRUP, WATER, SUGAR, COCOA, CONTAINS 2% OR LESS OF POTASSIUM SORBATE (A PRESERVATIVE), SALT, MONO AND DI-GLYCERDES*, POLYSORBATE 60 (ANEMULSIFIER), XANTHAN GUM, AND VANILLIN (AN ARTIFICIAL FLAVOR)." Date available: 06/25/2017 Date last updated by company: 06/25/2017
