Source: USDA Branded Food Products Database Release December 2017 Software v.3.8.6.4 2017-10-02
Report Run at: December 19, 2017 07:42 EST
"Nutrient data for: 45174485, CLOVER VALLEY, CHEESE & STICKS, CHEESE DIP WITH BREAD STICKS, UPC: 046100036044"
Food Group:  Branded Food Products Database
Common Name:

Nutrient,Unit,Data points,Std. Error,"1 UNIT = 21.0g",1Value per 100 g,
Proximates
"Energy",kcal,--,--,70,333
"Protein",g,--,--,1.00,4.76
"Total lipid (fat)",g,--,--,3.00,14.29
"Carbohydrate, by difference",g,--,--,11.00,52.38
"Fiber, total dietary",g,--,--,0.3,1.2
"Sugars, total",g,--,--,3.00,14.29
Minerals
"Calcium, Ca",mg,--,--,20,95
"Iron, Fe",mg,--,--,0.86,4.08
"Sodium, Na",mg,--,--,240,1143
Vitamins
"Vitamin C, total ascorbic acid",mg,--,--,0.0,0.0
"Vitamin A, IU",IU,--,--,238,1133
Lipids
"Fatty acids, total saturated",g,--,--,1.000,4.760
"Fatty acids, total monounsaturated",g,--,--,1.000,4.760
"Fatty acids, total polyunsaturated",g,--,--,0.000,0.000
"Fatty acids, total trans",g,--,--,0.000,0.000
"Cholesterol",mg,--,--,5,24
Amino Acids
Other
Ingredients
"ENRICHED FLOUR (WHEAT FLOUR, NIACIN, REDUCED IRON, THIAMINE MONONITRATE [VITAMIN B1], RIBOFLAVIN [VITAMIN B2], FOLIC ACID), WATER, CHEDDAR AND OTHER NATURAL CHEESE (PASTEURIZED MILK, CHEESE CULTURE, SALT, ENZYMES, ANNATTO [VEGETABLE COLOR]), SUGAR, WHEY, MILKFAT, CANOLA OIL, CONTAINS 2% OR LESS OF: MALTODEXTRIN, SODIUM PHOSPHATE, CORN SYRUP SOLIDS, SALT, PARTIALLY HYDROGENATED SOYBEAN OIL, LACTIC ACID, SORBIC ACID (PRESERVATIVE), APO-CAROTENAL (COLOR), XANTHAN GUM, YEAST EXTRACT, SODIUM BICARBONATE, SODIUM ALGINATE, NATURAL FLAVOR, DISTILLED MONOGLYCERIDES, ASCORBIC ACID, CITRIC ACID." Date available: 07/14/2017 Date last updated by company: 07/14/2017
