Source: USDA Branded Food Products Database Release December 2017 Software v.3.8.6.4 2017-10-02
Report Run at: December 19, 2017 07:50 EST
"Nutrient data for: 45146327, CLOVER VALLEY, SPICY TOMATO JUICE, UPC: 041152423613"
Food Group:  Branded Food Products Database
Common Name:

Nutrient,Unit,Data points,Std. Error,"8.0 OZA = 240.0g",1Value per 100 g,
Proximates
"Energy",kcal,--,--,50,21
"Protein",g,--,--,0.00,0.00
"Total lipid (fat)",g,--,--,0.00,0.00
"Carbohydrate, by difference",g,--,--,12.00,5.00
"Fiber, total dietary",g,--,--,1.0,0.4
"Sugars, total",g,--,--,9.00,3.75
Minerals
"Calcium, Ca",mg,--,--,0,0
"Iron, Fe",mg,--,--,0.36,0.15
"Sodium, Na",mg,--,--,629,262
Vitamins
"Vitamin C, total ascorbic acid",mg,--,--,9.1,3.8
"Vitamin A, IU",IU,--,--,1001,417
Lipids
Amino Acids
Other
Ingredients
"FILTERED WATER, TOMATO CONCENTRATE, SALT, NATURAL FLAVOR, CITRIC ACID." Date available: 07/14/2017 Date last updated by company: 07/14/2017
