Source: USDA Branded Food Products Database Release December 2017 Software v.3.8.6.4 2017-10-02
Report Run at: December 19, 2017 07:41 EST
"Nutrient data for: 45242506, CLOVER VALLEY, BUTTERMILK RANCH DRESSING, UPC: 051974171333"
Food Group:  Branded Food Products Database
Common Name:

Nutrient,Unit,Data points,Std. Error,"2.0 Tbsp = 30.0g",1Value per 100 g,
Proximates
"Energy",kcal,--,--,110,367
"Protein",g,--,--,0.00,0.00
"Total lipid (fat)",g,--,--,11.00,36.67
"Carbohydrate, by difference",g,--,--,2.00,6.67
"Sugars, total",g,--,--,2.00,6.67
Minerals
"Sodium, Na",mg,--,--,290,967
Vitamins
Lipids
"Fatty acids, total saturated",g,--,--,2.001,6.670
"Cholesterol",mg,--,--,10,33
Amino Acids
Other
Ingredients
"WATER, SOYBEAN OIL, VINEGAR, SUGAR,EGG YOLK, SALT, CONTAINS LESS THAN 2% OF WHEY, DRIED ONION, BUTTERMILK, MODIFIED FOOD STARCH, MONOSODIUM GLUTAMATE, PHOSPHORIC ACID, XANTHAN GUM, DRIED GARLIC, SPICE, POLYSORBATE 60, NATURAL FLAVOR, POTASSIUM SORBATE AND CALCIUM DISODIUM EDTA (AS PRESERVATIVES)." Date available: 10/13/2017 Date last updated by company: 10/13/2017
