Source: USDA Branded Food Products Database Release December 2017 Software v.3.8.6.4 2017-10-02
Report Run at: December 18, 2017 23:11 EST
"Nutrient data for: 45055355, CLUB 6 ROLLS, UPC: 070287002257"
Food Group:  Branded Food Products Database
Common Name:

Nutrient,Unit,Data points,Std. Error,"1 ROLL = 65.0g",1Value per 100 g,
Proximates
"Energy",kcal,--,--,190,292
"Protein",g,--,--,6.00,9.23
"Total lipid (fat)",g,--,--,2.00,3.08
"Carbohydrate, by difference",g,--,--,37.00,56.92
"Fiber, total dietary",g,--,--,1.0,1.5
"Sugars, total",g,--,--,2.00,3.08
Minerals
"Calcium, Ca",mg,--,--,100,154
"Iron, Fe",mg,--,--,2.08,3.20
"Sodium, Na",mg,--,--,370,569
Vitamins
"Vitamin C, total ascorbic acid",mg,--,--,0.0,0.0
"Thiamin",mg,--,--,0.000,0.000
"Riboflavin",mg,--,--,0.170,0.262
"Niacin",mg,--,--,2.308,3.551
"Vitamin A, IU",IU,--,--,0,0
Lipids
"Fatty acids, total saturated",g,--,--,0.501,0.770
"Fatty acids, total trans",g,--,--,0.000,0.000
"Cholesterol",mg,--,--,0,0
Amino Acids
Other
Ingredients
"ENRICHED FLOUR (WHEAT FLOUR, MALTED BARLEY FLOUR, NIACIN, REDUCED IRON, THIAMIN MONONITRATE, RIBOFLAVIN, FOLIC ACID), WATER, HIGH FRUCTOSE CORN SYRUP, YEAST, CONTAINS 2% OR LESS OF EACH OF THE FOLLOWING: SOYBEAN OIL, SALT, WHEAT FLOUR, DEXTROSE, CALCIUM PROPIONATE (A PRESERVATIVE), MONO AND DIGLYCERIDES, MALTED BARLEY FLOUR, CALCIUM SULFATE, DATEM, CORN STARCH, AMMONIUM SULFATE, ASCORBIC ACID (DOUGH CONDITIONER), ENZYMES, POTASSIUM IODATE, AZODICARBONAMIDE, HIGH OLEIC CANOLA OIL, L - CYSTEINE, PROPIONIC ACID (A PRESERVATIVE), PHOSPHATE ACID (A PRESERVATIVE)." Date available: 06/24/2017 Date last updated by company: 06/24/2017
