Source: USDA Branded Food Products Database Release December 2017 Software v.3.8.6.4 2017-10-02
Report Run at: December 18, 2017 23:14 EST
"Nutrient data for: 45265036, COASTAL SEAFOOD BOIL, UPC: 024732280790"
Food Group:  Branded Food Products Database
Common Name:

Nutrient,Unit,Data points,Std. Error,"16.0 ONZ = 454.0g",1Value per 100 g,
Proximates
"Energy",kcal,--,--,631,139
"Protein",g,--,--,51.98,11.45
"Total lipid (fat)",g,--,--,34.00,7.49
"Carbohydrate, by difference",g,--,--,31.01,6.83
"Fiber, total dietary",g,--,--,4.1,0.9
"Sugars, total",g,--,--,4.99,1.10
Minerals
"Calcium, Ca",mg,--,--,150,33
"Iron, Fe",mg,--,--,6.95,1.53
"Sodium, Na",mg,--,--,1821,401
Vitamins
"Vitamin C, total ascorbic acid",mg,--,--,15.4,3.4
"Vitamin A, IU",IU,--,--,4508,993
Lipids
"Fatty acids, total saturated",g,--,--,12.984,2.860
"Fatty acids, total trans",g,--,--,0.000,0.000
"Cholesterol",mg,--,--,241,53
Amino Acids
Other
Ingredients
"SEAFOOD BLEND [SHRIMP (SODIUM TRIPOLYPHOSPHATE TO RETAIN MOISTURE), SNOW CRAB, MUSSELS IN SHELL, CLAMS IN SHELL], CORN, SAUCE (WATER, ONION, WHITE WINE [WINE, SALT], ROASTED GARLIC PUREE [ROASTED GARLIC, WATER], SPICES, CANOLA OIL, VEGETABLE BASE [COOKED VEGETABLES (CARROTS, ONIONS, CELERY), SALT, SUGAR, CORN OIL, POTATO FLOUR, CARROT POWDER], OLD BAY SEASONING (CELERY SALT [SALT, CELERY SEED], SPICES), STARCH AND GUM BLEND [CORN STARCH, GUM ARABIC, XANTHAN GUM, GUAR GUM], SUGAR, NATURAL FLAVOR (CONTAINS MILK), YEAST EXTRACT, ROASTED RED BELL PEPPER, DEHYDRATED ONION, TARA GUM, OIL OF LEMON), SAUSAGE (PORK, SPICES, SALT, WATER, CORN SYRUP SOLIDS, PAPRIKA, LEMON JUICE POWDER [CORN SYRUP SOLIDS, LEMON JUICE SOLIDS, LEMON OIL], FLAVORINGS, DISODIUM INOSINATE AND DISODIUM GUANYLATE), RED POTATO, BUTTER (PASTEURIZED CREAM [MILK], SALT), RED BELL PEPPER, GREEN BELL PEPPER, CARROT, ONION." Date available: 08/21/2017 Date last updated by company: 08/21/2017
