Source: USDA Branded Food Products Database Release December 2017 Software v.3.8.6.4 2017-10-02
Report Run at: December 18, 2017 23:15 EST
"Nutrient data for: 45227305, COBBLESTONE BREAD CO, ARTISAN LONG LOAF SOURDOUGH BREAD, UPC: 072250072502"
Food Group:  Branded Food Products Database
Common Name:

Nutrient,Unit,Data points,Std. Error,"1 SLICE = 23.0g",1Value per 100 g,
Proximates
"Energy",kcal,--,--,60,261
"Protein",g,--,--,2.00,8.70
"Total lipid (fat)",g,--,--,0.00,0.00
"Carbohydrate, by difference",g,--,--,12.00,52.17
"Fiber, total dietary",g,--,--,0.0,0.0
"Sugars, total",g,--,--,0.00,0.00
Minerals
"Calcium, Ca",mg,--,--,20,87
"Iron, Fe",mg,--,--,1.57,6.81
"Sodium, Na",mg,--,--,125,543
Vitamins
"Vitamin C, total ascorbic acid",mg,--,--,0.0,0.0
"Vitamin A, IU",IU,--,--,0,0
Lipids
"Fatty acids, total saturated",g,--,--,0.000,0.000
"Fatty acids, total trans",g,--,--,0.000,0.000
"Cholesterol",mg,--,--,0,0
Amino Acids
Other
Ingredients
"ENRICHED WHEAT FLOUR (NIACIN, REDUCED IRON, THIAMINE MONONITRATE, RIBOFLAVIN, FOLIC ACID), MALTED BARLEY FLOUR, WATER, SALT, CALCIUM SULFATS, ENZYMES, CALCIUM PROPIONATE, YEAST, SODIUM STEAROYL LACTYLATE, DIACETYL TARTARIC ACID ESTERS OF MONO-DIGLYCERIDES (DATEM), ASCORBIC ACID, VEGETABLE OIL (SOYBEAN OIL/CANOLA) AND AZODICARBONAMIDE." Date available: 07/14/2017 Date last updated by company: 07/14/2017
