Source: USDA Branded Food Products Database Release December 2017 Software v.3.8.6.4 2017-10-02
Report Run at: December 18, 2017 23:17 EST
"Nutrient data for: 45160952, COBORN'S GLUTEN FREE BAKERY, COOKIES, CHOCOLATE CHIP, UPC: 733147205204"
Food Group:  Branded Food Products Database
Common Name:

Nutrient,Unit,Data points,Std. Error,"1 COOKIE = 43.0g",1Value per 100 g,
Proximates
"Energy",kcal,--,--,190,442
"Protein",g,--,--,1.00,2.33
"Total lipid (fat)",g,--,--,9.00,20.93
"Carbohydrate, by difference",g,--,--,29.00,67.44
"Fiber, total dietary",g,--,--,1.0,2.3
"Sugars, total",g,--,--,16.00,37.21
Minerals
"Calcium, Ca",mg,--,--,0,0
"Iron, Fe",mg,--,--,1.67,3.89
"Sodium, Na",mg,--,--,300,698
Vitamins
"Vitamin C, total ascorbic acid",mg,--,--,0.0,0.0
"Vitamin A, IU",IU,--,--,233,541
Lipids
"Fatty acids, total saturated",g,--,--,5.001,11.630
"Fatty acids, total trans",g,--,--,0.000,0.000
"Cholesterol",mg,--,--,30,70
Amino Acids
Other
Ingredients
"COOKIE BASE (RICE FLOUR, RICE STARCH, FOOD STARCH MODIFIED, BROWN RICE FLOUR, BAKING SODA, GUM ARABIC, NATURAL FLAVOR, SALT), BUTTER (PASTEURIZED CREAM, SALT), SEMI-SWEET CHOCOLATE PIECES (UNSWEETENED CHOCOLATE, SUGAR, SOY LECITHIN [EMULSIFIER], VANILLIN [ARTIFICIAL FLAVOR), BROWN SUGAR, SUGAR, WHOLE EGGS, CORN SYRUP, WATER, SALT, ARTIFICIAL VANILLA FLAVOR (WATER, PROPYLENE GLYCOL, ARTIFICIAL FLAVORS, CITRIC ACID)." Date available: 07/14/2017 Date last updated by company: 07/14/2017
