Source: USDA Branded Food Products Database Release December 2017 Software v.3.8.6.4 2017-10-02
Report Run at: December 18, 2017 23:20 EST
"Nutrient data for: 45058991, COCKTAIL SAUCE FOR SEAFOOD, UPC: 011110764157"
Food Group:  Branded Food Products Database
Common Name:

Nutrient,Unit,Data points,Std. Error,"0.25 cup = 69.0g",1Value per 100 g,
Proximates
"Energy",kcal,--,--,100,145
"Protein",g,--,--,1.00,1.45
"Total lipid (fat)",g,--,--,0.00,0.00
"Carbohydrate, by difference",g,--,--,25.00,36.23
"Fiber, total dietary",g,--,--,1.0,1.4
"Sugars, total",g,--,--,13.00,18.84
Minerals
"Calcium, Ca",mg,--,--,0,0
"Iron, Fe",mg,--,--,0.30,0.44
"Sodium, Na",mg,--,--,650,942
Vitamins
"Vitamin C, total ascorbic acid",mg,--,--,2.4,3.5
"Vitamin A, IU",IU,--,--,169,245
Lipids
"Fatty acids, total saturated",g,--,--,0.000,0.000
"Fatty acids, total trans",g,--,--,0.000,0.000
"Cholesterol",mg,--,--,0,0
Amino Acids
Other
Ingredients
"CORN SYRUP, TOMATOES, TOMATO PUREE (WATER, TOMATO PASTE), PREPARED HORSERADISH (HORSE-RADISH, VINEGAR, SALT), VINEGAR, WATER, SUGAR, SALT, DRIED GARLIC, DRIED ONION, NATURAL FLAVOR, POTASSIUM SORBATE AND SODIUM BENZOATE (PRESERVATIVES), XAN-THAN GUM, RED 40." Date available: 08/11/2017 Date last updated by company: 08/11/2017
