Source: USDA Branded Food Products Database Release December 2017 Software v.3.8.6.4 2017-10-02
Report Run at: December 18, 2017 23:22 EST
"Nutrient data for: 45228375, COCKTAIL, UPC: 041331127356"
Food Group:  Branded Food Products Database
Common Name:

Nutrient,Unit,Data points,Std. Error,"1 CAN = 284.0g",1Value per 100 g,
Proximates
"Energy",kcal,--,--,179,63
"Protein",g,--,--,0.00,0.00
"Total lipid (fat)",g,--,--,0.65,0.23
"Carbohydrate, by difference",g,--,--,46.01,16.20
"Fiber, total dietary",g,--,--,0.0,0.0
"Sugars, total",g,--,--,46.01,16.20
Minerals
"Calcium, Ca",mg,--,--,0,0
"Iron, Fe",mg,--,--,0.00,0.00
"Sodium, Na",mg,--,--,0,0
Vitamins
"Vitamin C, total ascorbic acid",mg,--,--,50.8,17.9
"Vitamin A, IU",IU,--,--,85,30
Lipids
"Fatty acids, total saturated",g,--,--,0.000,0.000
"Fatty acids, total trans",g,--,--,0.000,0.000
"Cholesterol",mg,--,--,0,0
Amino Acids
Other
Ingredients
"WATER, PASSION FRUIT CONCENTRATE, HIGH FRUCTOSE CORN SYRUP, CORN SYRUP, ASCORBIC ACID (VITAMIN C)." Date available: 07/14/2017 Date last updated by company: 07/14/2017
