Source: USDA Branded Food Products Database Release December 2017 Software v.3.8.6.4 2017-10-02
Report Run at: December 18, 2017 23:20 EST
"Nutrient data for: 45062380, COCKTAIL SAUCE, UPC: 730076761238"
Food Group:  Branded Food Products Database
Common Name:

Nutrient,Unit,Data points,Std. Error,"0.25 cup = 68.0g",1Value per 100 g,
Proximates
"Energy",kcal,--,--,80,118
"Protein",g,--,--,1.00,1.47
"Total lipid (fat)",g,--,--,1.50,2.21
"Carbohydrate, by difference",g,--,--,18.00,26.47
"Fiber, total dietary",g,--,--,1.0,1.5
"Sugars, total",g,--,--,4.00,5.88
Minerals
"Calcium, Ca",mg,--,--,0,0
"Iron, Fe",mg,--,--,0.00,0.00
"Sodium, Na",mg,--,--,880,1294
Vitamins
"Vitamin C, total ascorbic acid",mg,--,--,0.0,0.0
"Vitamin A, IU",IU,--,--,0,0
Lipids
"Fatty acids, total saturated",g,--,--,0.000,0.000
"Fatty acids, total trans",g,--,--,0.000,0.000
"Cholesterol",mg,--,--,0,0
Amino Acids
Other
Ingredients
"WATER, SUGAR, TOMATO PASTE, WHITE VINEGAR, CHOPPED PICKLES, MODIFIED FOOD STARCH, SALT, SOYBEAN OR CANOLA OIL, DEXTROSE, MALTODEXTRIN, SPICES, DEHYDRATED RED BELL PEPPERS, POTASSIUM SORBATE AND SODIUM BENZOATE (AS PRESERVATIVES), LEMON JUICE CONCENTRATE, NATURAL AND ARTIFICIAL FLAVORS, CITRIC ACID, BEET POWDER, GUAR GUM, XANTHAN GUM, PROPYLENE GLYCOL ALGINATE." Date available: 08/11/2017 Date last updated by company: 08/11/2017
