Source: USDA Branded Food Products Database Release December 2017 Software v.3.8.6.4 2017-10-02
Report Run at: December 18, 2017 23:21 EST
"Nutrient data for: 45331362, COCKTAIL SAUCE, UPC: 07789084032"
Food Group:  Branded Food Products Database
Common Name:

Nutrient,Unit,Data points,Std. Error,"0.25 cup = 56.0g",1Value per 100 g,
Proximates
"Energy",kcal,--,--,40,71
"Protein",g,--,--,1.00,1.79
"Total lipid (fat)",g,--,--,0.00,0.00
"Carbohydrate, by difference",g,--,--,8.00,14.29
"Fiber, total dietary",g,--,--,1.0,1.8
"Sugars, total",g,--,--,8.00,14.29
Minerals
"Potassium, K",mg,--,--,125,223
"Sodium, Na",mg,--,--,350,625
Vitamins
Lipids
Amino Acids
Other
Ingredients
"KETCHUP (TOMATO CONCENTRATE, SUGAR, DISTILLED VINEGAR, SALT, CONTAINS 2% OR LESS OF EACH: ONION POWDER, SPICE, NATURAL FLAVORINGS), VINEGAR, HORSERADISH, WORCESTERSHIRE (DISTILLED VINEGAR, MOLASSES, WATER, CORN SYRUP, SALT, CARAMEL COLOR, SUGAR, SPICES, ANCHOVIES, NATURAL FLAVOR [SOY], TAMARIND EXTRACT)." Date available: 10/13/2017 Date last updated by company: 10/13/2017
