Source: USDA Branded Food Products Database Release December 2017 Software v.3.8.6.4 2017-10-02
Report Run at: December 18, 2017 23:22 EST
"Nutrient data for: 45105200, COCOA-DUSTED ALMONDS, UPC: 085239199084"
Food Group:  Branded Food Products Database
Common Name:

Nutrient,Unit,Data points,Std. Error,"0.25 cup = 31.0g",1Value per 100 g,
Proximates
"Energy",kcal,--,--,180,581
"Protein",g,--,--,5.00,16.13
"Total lipid (fat)",g,--,--,13.00,41.94
"Carbohydrate, by difference",g,--,--,11.00,35.48
"Fiber, total dietary",g,--,--,2.0,6.5
"Sugars, total",g,--,--,7.00,22.58
Minerals
"Calcium, Ca",mg,--,--,100,323
"Iron, Fe",mg,--,--,1.74,5.62
"Sodium, Na",mg,--,--,70,226
Vitamins
"Vitamin C, total ascorbic acid",mg,--,--,0.0,0.0
"Vitamin A, IU",IU,--,--,0,0
Lipids
"Fatty acids, total saturated",g,--,--,1.001,3.230
"Fatty acids, total trans",g,--,--,0.000,0.000
"Cholesterol",mg,--,--,0,0
Amino Acids
Other
Ingredients
"ALMONDS, SEASONING (SUGAR, FRUCTOSE, COCOA POWDER, NATURAL FLAVORS, BUTTER POWDER [BUTTER {CREAM, SALT}, NONFAT MILK, BHA {PRESERVATIVE}], DEXTROSE, MOLASSES POWDER [REFINERS SYRUP, CANE MOLASSES, CANE CARAMEL COLOR], TRICALCIUM PHOSPHATE [ANTI-CAKING AGENT]), SUGAR, CORN SYRUP, CONTAINS LESS THAN 1% OF THE FOLLOWING: SWEETENED CONDENSED MILK (MILK, SUGAR), BUTTER (CREAM, SALT), PEANUT OIL, SOY LECITHIN, SALT, NATURAL FLAVOR (SUGAR, GLYCERINE, CARAMEL COLOR, NATURAL FLAVOR), BAKING SODA." Date available: 09/29/2017 Date last updated by company: 09/29/2017
