Source: USDA Branded Food Products Database Release December 2017 Software v.3.8.6.4 2017-10-02
Report Run at: December 18, 2017 23:39 EST
"Nutrient data for: 45324550, COCONUT TURMERIC CHOCOLATE CLUSTERS, UPC: 874492004347"
Food Group:  Branded Food Products Database
Common Name:

Nutrient,Unit,Data points,Std. Error,"5.0 PIECES = 40.0g",1Value per 100 g,
Proximates
"Energy",kcal,--,--,230,575
"Protein",g,--,--,3.00,7.50
"Total lipid (fat)",g,--,--,15.00,37.50
"Carbohydrate, by difference",g,--,--,21.00,52.50
"Fiber, total dietary",g,--,--,5.0,12.5
"Sugars, total",g,--,--,11.00,27.50
Minerals
"Calcium, Ca",mg,--,--,20,50
"Iron, Fe",mg,--,--,4.50,11.25
"Sodium, Na",mg,--,--,0,0
Vitamins
"Vitamin C, total ascorbic acid",mg,--,--,0.0,0.0
"Vitamin A, IU",IU,--,--,0,0
Lipids
"Fatty acids, total saturated",g,--,--,10.000,25.000
"Fatty acids, total trans",g,--,--,0.000,0.000
"Cholesterol",mg,--,--,0,0
Amino Acids
Other
Ingredients
"COCOA BEANS*+, CANE SUGAR*+, COCONUT*+, COCOA BUTTER*+, CRISPED SORGHUM FLAKES*, CRISPED QUINOA*+, LOW FAT COCOA POWDER*+ (WITH ASCORBIC ACID FOR COLOR RETENTION), GROUND TURMERIC*, GROUND VANILLA BEAN*+." Date available: 08/10/2017 Date last updated by company: 08/10/2017
