Source: USDA Branded Food Products Database Release December 2017 Software v.3.8.6.4 2017-10-02
Report Run at: December 18, 2017 23:41 EST
"Nutrient data for: 45333323, COCONUT WATER WITH PULP, UPC: 023545305010"
Food Group:  Branded Food Products Database
Common Name:

Nutrient,Unit,Data points,Std. Error,"1 CAN = 500.0g",1Value per 100 g,
Proximates
"Energy",kcal,--,--,200,40
"Protein",g,--,--,1.00,0.20
"Total lipid (fat)",g,--,--,1.50,0.30
"Carbohydrate, by difference",g,--,--,45.00,9.00
"Fiber, total dietary",g,--,--,0.0,0.0
"Sugars, total",g,--,--,41.00,8.20
Minerals
"Calcium, Ca",mg,--,--,40,8
"Iron, Fe",mg,--,--,0.80,0.16
"Potassium, K",mg,--,--,330,66
"Sodium, Na",mg,--,--,75,15
Vitamins
"Vitamin C, total ascorbic acid",mg,--,--,0.0,0.0
"Vitamin A, IU",IU,--,--,0,0
Lipids
"Fatty acids, total saturated",g,--,--,1.000,0.200
"Fatty acids, total trans",g,--,--,0.000,0.000
"Cholesterol",mg,--,--,0,0
Amino Acids
Other
Ingredients
"COCONUT WATER, WATER, SUGAR, YOUNG COCONUT PULP, SODIUM METABISULPHITE (TO RETAIN COLOR)." Date available: 10/13/2017 Date last updated by company: 10/13/2017
