Source: USDA Branded Food Products Database Release December 2017 Software v.3.8.6.4 2017-10-02
Report Run at: December 18, 2017 23:22 EST
"Nutrient data for: 45331880, COCOA BISCUITS FILLED WITH MILK CHOCOLATE AND CREAM, UPC: 853240003382"
Food Group:  Branded Food Products Database
Common Name:

Nutrient,Unit,Data points,Std. Error,"7.0 PIECES | ABOUT = 55.0g",1Value per 100 g,
Proximates
"Energy",kcal,--,--,290,527
"Protein",g,--,--,3.00,5.45
"Total lipid (fat)",g,--,--,16.00,29.09
"Carbohydrate, by difference",g,--,--,30.00,54.55
"Fiber, total dietary",g,--,--,1.0,1.8
"Sugars, total",g,--,--,14.00,25.45
Minerals
"Calcium, Ca",mg,--,--,20,36
"Iron, Fe",mg,--,--,2.00,3.64
"Potassium, K",mg,--,--,224,407
"Sodium, Na",mg,--,--,100,182
Vitamins
"Vitamin D",IU,--,--,0,0
Lipids
"Fatty acids, total saturated",g,--,--,9.999,18.180
"Fatty acids, total trans",g,--,--,0.000,0.000
"Cholesterol",mg,--,--,0,0
Amino Acids
Other
Ingredients
"WHEAT FLOUR, CREAM (SUGAR, PALM OIL, MILK POWDER, SOY LECITHIN, NATURAL FLAVOR, PALM OIL, SUGAR, MILK CHOCOLATE (SUGAR, COCOA BUTTER, MILK POWDER, COCOA MASS, SOY LECITHIN, NATURAL FLAVOR, COCOA SOLIDS), COCOA POWDER, MILK POWDER, GLUCOSE SYRUP, EGG, SALT, NATURAL FLAVOR, SOY LECITHIN, SODIUM HYDROGEN CARBONATE, AMMONIUM HYDROGEN CARBONATE" Date available: 10/13/2017 Date last updated by company: 10/13/2017
