Source: USDA Branded Food Products Database Release December 2017 Software v.3.8.6.4 2017-10-02
Report Run at: December 18, 2017 23:42 EST
"Nutrient data for: 45090403, COCO-ROONS, LEMON PIE, UPC: 850370005125"
Food Group:  Branded Food Products Database
Common Name:

Nutrient,Unit,Data points,Std. Error,"1 COOKIE = 22.0g",1Value per 100 g,
Proximates
"Energy",kcal,--,--,80,364
"Protein",g,--,--,1.00,4.55
"Total lipid (fat)",g,--,--,6.00,27.27
"Carbohydrate, by difference",g,--,--,6.00,27.27
"Fiber, total dietary",g,--,--,1.0,4.5
"Sugars, total",g,--,--,4.00,18.18
Minerals
"Calcium, Ca",mg,--,--,20,91
"Iron, Fe",mg,--,--,0.82,3.72
"Sodium, Na",mg,--,--,30,136
Vitamins
"Vitamin C, total ascorbic acid",mg,--,--,0.0,0.0
"Vitamin A, IU",IU,--,--,0,0
Lipids
"Fatty acids, total saturated",g,--,--,3.001,13.640
"Fatty acids, total trans",g,--,--,0.000,0.000
"Cholesterol",mg,--,--,0,0
Amino Acids
Other
Ingredients
"DRIED UNSWEETENED COCONUT*, ALMOND FLOUR*, UNFILTERED MAPLE SYRUP*, COLD-PRESSED COCONUT OIL*, LEMON ZEST*, VANILLA EXTRACT*, HIMALAYAN CRYSTAL SALT." Date available: 06/25/2017 Date last updated by company: 06/25/2017
