Source: USDA Branded Food Products Database Release December 2017 Software v.3.8.6.4 2017-10-02
Report Run at: December 18, 2017 23:38 EST
"Nutrient data for: 45332898, COCONUT PROTEIN BLEND, UPC: 742392930427"
Food Group:  Branded Food Products Database
Common Name:

Nutrient,Unit,Data points,Std. Error,"2.0 SCOOPS = 38.0g",1Value per 100 g,
Proximates
"Energy",kcal,--,--,130,342
"Protein",g,--,--,20.00,52.63
"Total lipid (fat)",g,--,--,3.00,7.89
"Carbohydrate, by difference",g,--,--,11.00,28.95
"Fiber, total dietary",g,--,--,8.0,21.1
"Sugars, total",g,--,--,3.00,7.89
Minerals
"Calcium, Ca",mg,--,--,68,179
"Iron, Fe",mg,--,--,5.00,13.16
"Potassium, K",mg,--,--,257,676
"Sodium, Na",mg,--,--,105,276
Vitamins
"Vitamin D",IU,--,--,0,0
Lipids
"Fatty acids, total saturated",g,--,--,1.501,3.950
"Fatty acids, total trans",g,--,--,0.000,0.000
"Cholesterol",mg,--,--,0,0
Amino Acids
Other
Ingredients
"COCONUT POWDER, PUMPKIN POWDER, PEA POWDER." Date available: 08/11/2017 Date last updated by company: 08/11/2017
