Source: USDA Branded Food Products Database Release December 2017 Software v.3.8.6.4 2017-10-02
Report Run at: December 18, 2017 23:40 EST
"Nutrient data for: 45239575, COCONUT WATER, UPC: 854413001204"
Food Group:  Branded Food Products Database
Common Name:

Nutrient,Unit,Data points,Std. Error,"10.0 OZA = 300.0g",1Value per 100 g,
Proximates
"Energy",kcal,--,--,96,32
"Protein",g,--,--,0.00,0.00
"Total lipid (fat)",g,--,--,0.00,0.00
"Carbohydrate, by difference",g,--,--,24.00,8.00
"Sugars, total",g,--,--,12.00,4.00
Minerals
"Calcium, Ca",mg,--,--,21,7
"Iron, Fe",mg,--,--,0.87,0.29
"Sodium, Na",mg,--,--,51,17
Vitamins
"Vitamin C, total ascorbic acid",mg,--,--,0.0,0.0
"Vitamin A, IU",IU,--,--,0,0
Lipids
"Fatty acids, total saturated",g,--,--,0.000,0.000
"Fatty acids, total trans",g,--,--,0.000,0.000
"Cholesterol",mg,--,--,0,0
Amino Acids
Other
Ingredients
"YOUNG COCONUT WATER" Date available: 06/24/2017 Date last updated by company: 06/24/2017
