Source: USDA Branded Food Products Database Release December 2017 Software v.3.8.6.4 2017-10-02
Report Run at: December 18, 2017 23:39 EST
"Nutrient data for: 45083932, COCONUT TOFU DESSERT, UPC: 057864000332"
Food Group:  Branded Food Products Database
Common Name:

Nutrient,Unit,Data points,Std. Error,"1 CONTAINER = 150.0g",1Value per 100 g,
Proximates
"Energy",kcal,--,--,110,73
"Protein",g,--,--,5.00,3.33
"Total lipid (fat)",g,--,--,2.50,1.67
"Carbohydrate, by difference",g,--,--,17.00,11.33
"Fiber, total dietary",g,--,--,0.0,0.0
"Sugars, total",g,--,--,17.00,11.33
Minerals
"Calcium, Ca",mg,--,--,100,67
"Iron, Fe",mg,--,--,0.41,0.27
"Sodium, Na",mg,--,--,4,3
Vitamins
"Vitamin C, total ascorbic acid",mg,--,--,0.0,0.0
"Vitamin A, IU",IU,--,--,0,0
Lipids
"Fatty acids, total saturated",g,--,--,0.000,0.000
"Fatty acids, total trans",g,--,--,0.000,0.000
"Cholesterol",mg,--,--,0,0
Amino Acids
Other
Ingredients
"WATER, SOYBEANS, SUGAR, NATURAL FLAVOR, CALCIUM SULFATE." Date available: 06/25/2017 Date last updated by company: 06/25/2017
