Source: USDA Branded Food Products Database Release December 2017 Software v.3.8.6.4 2017-10-02
Report Run at: December 18, 2017 23:24 EST
"Nutrient data for: 45291058, COCOA ROAST ALMONDS, UPC: 010300884699"
Food Group:  Branded Food Products Database
Common Name:

Nutrient,Unit,Data points,Std. Error,"1 BAG = 85.0g",1Value per 100 g,
Proximates
"Energy",kcal,--,--,490,576
"Protein",g,--,--,17.00,20.00
"Total lipid (fat)",g,--,--,42.00,49.41
"Carbohydrate, by difference",g,--,--,20.00,23.53
"Fiber, total dietary",g,--,--,9.0,10.6
"Sugars, total",g,--,--,4.00,4.71
Minerals
"Calcium, Ca",mg,--,--,200,235
"Iron, Fe",mg,--,--,2.12,2.49
"Potassium, K",mg,--,--,570,671
"Sodium, Na",mg,--,--,75,88
Vitamins
"Vitamin C, total ascorbic acid",mg,--,--,0.0,0.0
"Vitamin A, IU",IU,--,--,0,0
Lipids
"Fatty acids, total saturated",g,--,--,3.502,4.120
"Fatty acids, total monounsaturated",g,--,--,26.002,30.590
"Fatty acids, total polyunsaturated",g,--,--,9.996,11.760
"Fatty acids, total trans",g,--,--,0.000,0.000
"Cholesterol",mg,--,--,0,0
Amino Acids
Other
Ingredients
"ALMONDS, NATURAL AND ARTIFICIAL FLAVORS, COCOA POWDER (PROCESSED WITH ALKALI), POTATO STARCH, MODIFIED FOOD STARCH, SALT, ACESULFAME POTASSIUM, SUCRALOSE." Date available: 08/24/2017 Date last updated by company: 08/24/2017
