Source: USDA Branded Food Products Database Release December 2017 Software v.3.8.6.4 2017-10-02
Report Run at: December 18, 2017 23:30 EST
"Nutrient data for: 45326303, COCONUT CRISPS, UPC: 691355897904"
Food Group:  Branded Food Products Database
Common Name:

Nutrient,Unit,Data points,Std. Error,"0.33 cup = 30.0g",1Value per 100 g,
Proximates
"Energy",kcal,--,--,120,400
"Protein",g,--,--,1.00,3.33
"Total lipid (fat)",g,--,--,4.00,13.33
"Carbohydrate, by difference",g,--,--,19.00,63.33
"Fiber, total dietary",g,--,--,0.0,0.0
"Sugars, total",g,--,--,15.00,50.00
Minerals
"Calcium, Ca",mg,--,--,5,17
"Iron, Fe",mg,--,--,0.00,0.00
"Sodium, Na",mg,--,--,125,417
Vitamins
"Vitamin D",IU,--,--,0,0
Lipids
"Fatty acids, total saturated",g,--,--,2.001,6.670
"Fatty acids, total trans",g,--,--,0.000,0.000
"Cholesterol",mg,--,--,0,0
Amino Acids
Other
Ingredients
"CORN SYRUP, SUGAR, PEANUTS, COCONUT, CONTAINS LESS THAN 2% OF BAKING SODA, SALT, CINNAMON, NUTMEG." Date available: 10/18/2017 Date last updated by company: 10/18/2017
