Source: USDA Branded Food Products Database Release December 2017 Software v.3.8.6.4 2017-10-02
Report Run at: December 18, 2017 23:30 EST
"Nutrient data for: 45088974, COCONUT CRUNCH PREMIUM PUFFED CORN, UPC: 851710001883"
Food Group:  Branded Food Products Database
Common Name:

Nutrient,Unit,Data points,Std. Error,"1 PACKAGE = 35.0g",1Value per 100 g,
Proximates
"Energy",kcal,--,--,170,486
"Protein",g,--,--,1.00,2.86
"Total lipid (fat)",g,--,--,8.00,22.86
"Carbohydrate, by difference",g,--,--,23.00,65.71
"Fiber, total dietary",g,--,--,1.0,2.9
"Sugars, total",g,--,--,13.00,37.14
Minerals
"Calcium, Ca",mg,--,--,20,57
"Iron, Fe",mg,--,--,0.51,1.47
"Sodium, Na",mg,--,--,35,100
Vitamins
"Vitamin C, total ascorbic acid",mg,--,--,0.0,0.0
"Vitamin A, IU",IU,--,--,143,409
Lipids
"Fatty acids, total saturated",g,--,--,5.999,17.140
"Fatty acids, total trans",g,--,--,0.000,0.000
"Cholesterol",mg,--,--,10,29
Amino Acids
Other
Ingredients
"CANE SUGAR, NON-GMO CORN MEAL, COCONUT, CORN SYRUP, BUTTER (CREAM, MILK, SALT), ORGANIC COCONUT OIL, MOLASSES, NATURAL FLAVOR, VANILLA EXTRACT, SEA SALT." Date available: 07/14/2017 Date last updated by company: 07/14/2017
