Source: USDA Branded Food Products Database Release December 2017 Software v.3.8.6.4 2017-10-02
Report Run at: December 18, 2017 23:27 EST
"Nutrient data for: 45201711, COCONUT BLISS, LOW GLYCEMIC AGAVE SWEETENED VEGAN, UPC: 896767001332"
Food Group:  Branded Food Products Database
Common Name:

Nutrient,Unit,Data points,Std. Error,"75.0 GRM = 75.0g",1Value per 100 g,
Proximates
"Energy",kcal,--,--,180,240
"Protein",g,--,--,2.00,2.67
"Total lipid (fat)",g,--,--,11.00,14.67
"Carbohydrate, by difference",g,--,--,18.00,24.00
"Fiber, total dietary",g,--,--,3.0,4.0
"Sugars, total",g,--,--,11.00,14.67
Minerals
"Calcium, Ca",mg,--,--,0,0
"Iron, Fe",mg,--,--,2.30,3.07
"Sodium, Na",mg,--,--,10,13
Vitamins
"Vitamin C, total ascorbic acid",mg,--,--,1.9,2.6
"Vitamin A, IU",IU,--,--,0,0
Lipids
"Fatty acids, total saturated",g,--,--,9.000,12.000
"Fatty acids, total trans",g,--,--,0.000,0.000
"Cholesterol",mg,--,--,0,0
Amino Acids
Other
Ingredients
"ORGANIC COCONUT MILK (ORGANIC COCONUT, WATER, GUAR GUM*), ORGANIC AGAVE SYRUP, ORGANIC FAIR TRADE COCOA (PROCESSED WITH ALKALI), ORGANIC VANILLA EXTRACT." Date available: 09/20/2017 Date last updated by company: 09/20/2017
