Source: USDA Branded Food Products Database Release December 2017 Software v.3.8.6.4 2017-10-02
Report Run at: December 18, 2017 23:22 EST
"Nutrient data for: 45269941, COCOA COOKIE BUTTER, UPC: 4002309009179"
Food Group:  Branded Food Products Database
Common Name:

Nutrient,Unit,Data points,Std. Error,"2.0 Tbsp = 37.0g",1Value per 100 g,
Proximates
"Energy",kcal,--,--,210,568
"Protein",g,--,--,1.00,2.70
"Total lipid (fat)",g,--,--,13.00,35.14
"Carbohydrate, by difference",g,--,--,22.00,59.46
"Fiber, total dietary",g,--,--,1.0,2.7
"Sugars, total",g,--,--,16.00,43.24
Minerals
"Calcium, Ca",mg,--,--,0,0
"Iron, Fe",mg,--,--,0.00,0.00
"Sodium, Na",mg,--,--,50,135
Vitamins
"Vitamin C, total ascorbic acid",mg,--,--,0.0,0.0
"Vitamin A, IU",IU,--,--,338,914
Lipids
"Fatty acids, total saturated",g,--,--,3.500,9.460
"Fatty acids, total trans",g,--,--,0.000,0.000
"Cholesterol",mg,--,--,0,0
Amino Acids
Other
Ingredients
"SUGAR, DARK COCOA COOKIES (WHEAT FLOUR, SUGAR, PALM OIL, MEDIUM FAT COCOA, GLUCOSE-FRUCTOSE SYRUP, AMMONIUM CARBONATE SODIUM BICARBONATE, SALT), RAPESEED OIL, PALM OIL, MALTODEXTRIN, MEDIUM FAT COCOA, SUNFLOWER LECITHIN, SALT." Date available: 07/14/2017 Date last updated by company: 07/14/2017
