Source: USDA Branded Food Products Database Release December 2017 Software v.3.8.6.4 2017-10-02
Report Run at: December 18, 2017 23:34 EST
"Nutrient data for: 45224517, COCONUT MILK, UPC: 707425600227"
Food Group:  Branded Food Products Database
Common Name:

Nutrient,Unit,Data points,Std. Error,"3.0 Tbsp = 50.0g",1Value per 100 g,
Proximates
"Energy",kcal,--,--,62,124
"Protein",g,--,--,1.00,2.00
"Total lipid (fat)",g,--,--,8.00,16.00
"Carbohydrate, by difference",g,--,--,1.00,2.00
"Fiber, total dietary",g,--,--,0.0,0.0
"Sugars, total",g,--,--,1.00,2.00
Minerals
"Calcium, Ca",mg,--,--,10,20
"Iron, Fe",mg,--,--,0.86,1.73
"Sodium, Na",mg,--,--,9,18
Vitamins
"Vitamin C, total ascorbic acid",mg,--,--,0.0,0.0
"Vitamin A, IU",IU,--,--,0,0
Lipids
"Fatty acids, total saturated",g,--,--,8.000,16.000
"Fatty acids, total trans",g,--,--,0.000,0.000
"Cholesterol",mg,--,--,0,0
Amino Acids
Other
Ingredients
"WATER, COCONUT MILK 24%, POTASSIUM METABISULPHITE (E224) AS PRESERVATIVE" Date available: 10/13/2017 Date last updated by company: 10/13/2017
