Source: USDA Branded Food Products Database Release December 2017 Software v.3.8.6.4 2017-10-02
Report Run at: December 18, 2017 23:33 EST
"Nutrient data for: 45109909, COCONUT MILK NON-DAIRY FROZEN DESSERT, UPC: 744473470037"
Food Group:  Branded Food Products Database
Common Name:

Nutrient,Unit,Data points,Std. Error,"0.5 cup = 85.0g",1Value per 100 g,
Proximates
"Energy",kcal,--,--,160,188
"Protein",g,--,--,1.00,1.18
"Total lipid (fat)",g,--,--,8.00,9.41
"Carbohydrate, by difference",g,--,--,21.00,24.71
"Fiber, total dietary",g,--,--,3.0,3.5
"Sugars, total",g,--,--,17.00,20.00
Minerals
"Calcium, Ca",mg,--,--,0,0
"Iron, Fe",mg,--,--,0.51,0.60
"Sodium, Na",mg,--,--,55,65
Vitamins
"Vitamin C, total ascorbic acid",mg,--,--,3.4,4.0
"Vitamin A, IU",IU,--,--,0,0
Lipids
"Fatty acids, total saturated",g,--,--,7.004,8.240
"Fatty acids, total trans",g,--,--,0.000,0.000
"Cholesterol",mg,--,--,0,0
Amino Acids
Other
Ingredients
"ORGANIC COCONUTMILK (FILTERED WATER, ORGANIC COCONUT), ORGANIC CANE SUGAR, OREGON MARIONBERRY PUREE, MIXED BERRY SWIRL (OREGON MARIONBERRY PUREE CONCENTRATE, ORGANIC CANE SUGAR, APPLE JUICE CONCENTRATE, OREGON JUICE CONCENTRATES [BLUEBERRY AND BLACKBERRY], OREGON RASPBERRIES, PECTIN), ORGANIC COCONUT OIL, ACACIA GUM, BAKING SODA, LOCUST BEAN GUM, CITRIC ACID, GUAR GUM, NATURAL FLAVOR." Date available: 07/14/2017 Date last updated by company: 07/14/2017
