Source: USDA Branded Food Products Database Release December 2017 Software v.3.8.6.4 2017-10-02
Report Run at: December 18, 2017 23:35 EST
"Nutrient data for: 45332902, COCONUT NON-DAIRY BEVERAGE, UPC: 052603043137"
Food Group:  Branded Food Products Database
Common Name:

Nutrient,Unit,Data points,Std. Error,"240.0 ML = 8.0g",1Value per 100 g,
Proximates
"Energy",kcal,--,--,3,38
"Protein",g,--,--,0.03,0.42
"Total lipid (fat)",g,--,--,0.17,2.08
"Carbohydrate, by difference",g,--,--,0.33,4.17
"Fiber, total dietary",g,--,--,0.0,0.0
"Sugars, total",g,--,--,0.30,3.75
Minerals
"Calcium, Ca",mg,--,--,0,0
"Iron, Fe",mg,--,--,0.01,0.15
"Sodium, Na",mg,--,--,4,52
Vitamins
"Vitamin C, total ascorbic acid",mg,--,--,0.0,0.0
"Vitamin A, IU",IU,--,--,0,0
Lipids
"Fatty acids, total saturated",g,--,--,0.166,2.080
"Fatty acids, total trans",g,--,--,0.000,0.000
"Cholesterol",mg,--,--,0,0
Amino Acids
Other
Ingredients
"WATER, COCONUT CREAM (COCONUT MILK, WATER, XANTHAN GUM), NATURAL CANE SUGAR, NATURAL FLAVORS, TRIPOTASSIUM CITRATE, SODIUM CITRATE, SEA SALT, CARRAGEENAN, GELLAN GUM." Date available: 10/13/2017 Date last updated by company: 10/13/2017
