Source: USDA Branded Food Products Database Release December 2017 Software v.3.8.6.4 2017-10-02
Report Run at: December 18, 2017 23:43 EST
"Nutrient data for: 45285358, COD FILLETS, UPC: 689076540315"
Food Group:  Branded Food Products Database
Common Name:

Nutrient,Unit,Data points,Std. Error,"1 FILLET | APPROX = 113.0g",1Value per 100 g,
Proximates
"Energy",kcal,--,--,90,80
"Protein",g,--,--,20.00,17.70
"Total lipid (fat)",g,--,--,0.99,0.88
"Carbohydrate, by difference",g,--,--,0.00,0.00
"Fiber, total dietary",g,--,--,0.0,0.0
"Sugars, total",g,--,--,0.00,0.00
Minerals
"Calcium, Ca",mg,--,--,20,18
"Iron, Fe",mg,--,--,0.27,0.24
"Sodium, Na",mg,--,--,60,53
Vitamins
"Vitamin C, total ascorbic acid",mg,--,--,0.9,0.8
"Vitamin A, IU",IU,--,--,75,66
Lipids
"Fatty acids, total saturated",g,--,--,0.000,0.000
"Fatty acids, total trans",g,--,--,0.000,0.000
"Cholesterol",mg,--,--,50,44
Amino Acids
Other
Ingredients
"COD FILLETS, SODIUM TRIPOLYPHOSPHATE (TO RETAIN MOISTURE)." Date available: 07/14/2017 Date last updated by company: 07/14/2017
