Source: USDA Branded Food Products Database Release December 2017 Software v.3.8.6.4 2017-10-02
Report Run at: December 18, 2017 23:47 EST
"Nutrient data for: 45212093, COFFEE CREAMER, UPC: 688267033995"
Food Group:  Branded Food Products Database
Common Name:

Nutrient,Unit,Data points,Std. Error,"4.0 tsp = 12.0g",1Value per 100 g,
Proximates
"Energy",kcal,--,--,60,500
"Protein",g,--,--,0.00,0.00
"Total lipid (fat)",g,--,--,3.00,25.00
"Carbohydrate, by difference",g,--,--,9.00,75.00
"Fiber, total dietary",g,--,--,0.0,0.0
"Sugars, total",g,--,--,6.00,50.00
Minerals
"Potassium, K",mg,--,--,35,292
"Sodium, Na",mg,--,--,5,42
Vitamins
Lipids
"Fatty acids, total saturated",g,--,--,1.500,12.500
"Fatty acids, total monounsaturated",g,--,--,1.500,12.500
"Fatty acids, total polyunsaturated",g,--,--,0.000,0.000
"Fatty acids, total trans",g,--,--,0.000,0.000
"Cholesterol",mg,--,--,0,0
Amino Acids
Other
Ingredients
"SUGAR, PARTIALLY HYDROGENATED PALM OIL, CORN SYRUP SOLIDS, SODIUM CASEINATE (A MILK DERIVATIVE), DIPOTASSIUM PHOSPHATE, ARTIFICIAL FLAVOR, MONO-AND DIGLYCERIDES, SILICON DIOXIDE, SOY LECITHIN." Date available: 07/14/2017 Date last updated by company: 07/14/2017
