Source: USDA Branded Food Products Database Release December 2017 Software v.3.8.6.4 2017-10-02
Report Run at: December 18, 2017 23:50 EST
"Nutrient data for: 45212319, COFFEE FLAVORING, UPC: 737384291020"
Food Group:  Branded Food Products Database
Common Name:

Nutrient,Unit,Data points,Std. Error,"0.042 BOTTLE, (ABOUT) = 2.0g",1Value per 100 g,
Proximates
"Energy",kcal,--,--,0,0
"Protein",g,--,--,0.00,0.00
"Total lipid (fat)",g,--,--,0.00,0.00
"Carbohydrate, by difference",g,--,--,0.00,0.00
"Sugars, total",g,--,--,0.00,0.00
Minerals
"Sodium, Na",mg,--,--,0,0
Vitamins
Lipids
Amino Acids
Other
Ingredients
"WATER, NATURAL AND ARTIFICIAL FLAVOR, SUCRALOSE, CELLULOSE GUM, CARAMEL COLOR, SODIUM BENZOATE AND POTASSIUM SORBATE (PRESERVATIVES), CITRIC ACID." Date available: 08/11/2017 Date last updated by company: 08/11/2017
