Source: USDA Branded Food Products Database Release December 2017 Software v.3.8.6.4 2017-10-02
Report Run at: December 18, 2017 23:49 EST
"Nutrient data for: 45281540, COFFEE CREAMER, UPC: 02114018732"
Food Group:  Branded Food Products Database
Common Name:

Nutrient,Unit,Data points,Std. Error,"1 Tbsp = 15.0g",1Value per 100 g,
Proximates
"Energy",kcal,--,--,30,200
"Protein",g,--,--,0.00,0.00
"Total lipid (fat)",g,--,--,1.00,6.67
"Carbohydrate, by difference",g,--,--,5.00,33.33
"Fiber, total dietary",g,--,--,0.0,0.0
"Sugars, total",g,--,--,5.00,33.33
Minerals
"Sodium, Na",mg,--,--,0,0
Vitamins
Lipids
"Fatty acids, total saturated",g,--,--,0.000,0.000
"Fatty acids, total monounsaturated",g,--,--,1.000,6.670
"Fatty acids, total polyunsaturated",g,--,--,0.000,0.000
"Fatty acids, total trans",g,--,--,0.000,0.000
"Cholesterol",mg,--,--,0,0
Amino Acids
Other
Ingredients
"WATER, SUGAR, HIGH OLEIC CANOLA OIL, CONTAINS LESS THAN 2% OF: SODIUM CASEINATE* (A MILK DERIVATIVE), MONO- AND DIGLYCERIDES, CORN SYRUP SOLIDS, DIPOTASSIUM PHOSPHATE, SODIUM STEAROYL LACTYLATE, CARRAGEENAN, NATURAL AND ARTIFICIAL FLAVOR, POLYSORBATE 60." Date available: 07/14/2017 Date last updated by company: 07/14/2017
