Source: USDA Branded Food Products Database Release December 2017 Software v.3.8.6.4 2017-10-02
Report Run at: December 18, 2017 23:52 EST
"Nutrient data for: 45286304, COFFEE TIME, COFFEE SYRUP, UPC: 073103121507"
Food Group:  Branded Food Products Database
Common Name:

Nutrient,Unit,Data points,Std. Error,"2.0 Tbsp = 1.0g",1Value per 100 g,
Proximates
"Energy",kcal,--,--,3,333
"Protein",g,--,--,0.00,0.00
"Total lipid (fat)",g,--,--,0.00,0.00
"Carbohydrate, by difference",g,--,--,0.77,76.67
"Sugars, total",g,--,--,0.60,60.00
Minerals
"Sodium, Na",mg,--,--,0,33
Vitamins
Lipids
Amino Acids
Other
Ingredients
"HIGH FRUCTOSE CORN SYRUP, CORN SYRUP, COFFEE EXTRACT, CARAMEL COLOR AND POTASSIUM SORBATE." Date available: 06/24/2017 Date last updated by company: 06/24/2017
