Source: USDA Branded Food Products Database Release December 2017 Software v.3.8.6.4 2017-10-02
Report Run at: December 18, 2017 23:49 EST
"Nutrient data for: 45289646, COFFEE CREAMER, UPC: 717544208105"
Food Group:  Branded Food Products Database
Common Name:

Nutrient,Unit,Data points,Std. Error,"1 Tbsp = 15.0g",1Value per 100 g,
Proximates
"Energy",kcal,--,--,35,233
"Protein",g,--,--,0.00,0.00
"Total lipid (fat)",g,--,--,1.50,10.00
"Carbohydrate, by difference",g,--,--,5.00,33.33
"Fiber, total dietary",g,--,--,0.0,0.0
"Sugars, total",g,--,--,5.00,33.33
Minerals
"Calcium, Ca",mg,--,--,0,0
"Iron, Fe",mg,--,--,0.00,0.00
"Sodium, Na",mg,--,--,0,0
Vitamins
"Vitamin C, total ascorbic acid",mg,--,--,0.0,0.0
"Vitamin A, IU",IU,--,--,0,0
Lipids
"Fatty acids, total saturated",g,--,--,0.000,0.000
"Fatty acids, total trans",g,--,--,0.000,0.000
"Cholesterol",mg,--,--,0,0
Amino Acids
Other
Ingredients
"WATER, SUGAR, HIGH OLEIC SOYBEAN OIL, CORN SYRUP SOLIDS, LESS THAN 2% OF: SODIUM CASEINATE (A MILK DERIVATIVE)*, DIPOTASSIUM PHOSPHATE, DATEM, NATURAL AND ARTIFICIAL FLAVORS, POLYSORBATE 60, CARRAGEENAN, MIXED TOCOPHEROLS (FOR FRESHNESS)." Date available: 07/28/2017 Date last updated by company: 07/28/2017
