Source: USDA Branded Food Products Database Release December 2017 Software v.3.8.6.4 2017-10-02
Report Run at: December 18, 2017 23:44 EST
"Nutrient data for: 45210995, COFFEE ALMOND TOFFEE, UPC: 855239003281"
Food Group:  Branded Food Products Database
Common Name:

Nutrient,Unit,Data points,Std. Error,"1 PIECE = 37.0g",1Value per 100 g,
Proximates
"Energy",kcal,--,--,200,541
"Protein",g,--,--,1.00,2.70
"Total lipid (fat)",g,--,--,14.00,37.84
"Carbohydrate, by difference",g,--,--,19.00,51.35
"Fiber, total dietary",g,--,--,1.0,2.7
"Sugars, total",g,--,--,17.00,45.95
Minerals
"Calcium, Ca",mg,--,--,20,54
"Iron, Fe",mg,--,--,0.97,2.63
"Sodium, Na",mg,--,--,90,243
Vitamins
"Vitamin C, total ascorbic acid",mg,--,--,0.0,0.0
"Vitamin A, IU",IU,--,--,406,1096
Lipids
"Fatty acids, total saturated",g,--,--,7.999,21.620
"Fatty acids, total trans",g,--,--,0.000,0.000
"Cholesterol",mg,--,--,25,68
Amino Acids
Other
Ingredients
"SUGAR, BUTTER (CREAM, SALT), SEMISWEET CHOCOLATE (CHOCOLATE LIQUOR, SUGAR, COCOA BUTTER, SOY LECITHIN, VANILLA), ALMONDS, COFFEE, SOY LECITHIN, SEA SALT." Date available: 07/14/2017 Date last updated by company: 07/14/2017
