Source: USDA Branded Food Products Database Release December 2017 Software v.3.8.6.4 2017-10-02
Report Run at: December 18, 2017 23:55 EST
"Nutrient data for: 45287923, COLA, UPC: 011110906298"
Food Group:  Branded Food Products Database
Common Name:

Nutrient,Unit,Data points,Std. Error,"1 CAN = 221.0g",1Value per 100 g,
Proximates
"Energy",kcal,--,--,110,50
"Protein",g,--,--,0.00,0.00
"Total lipid (fat)",g,--,--,0.00,0.00
"Carbohydrate, by difference",g,--,--,27.01,12.22
"Sugars, total",g,--,--,25.99,11.76
Minerals
"Sodium, Na",mg,--,--,4,2
Vitamins
Lipids
Amino Acids
Other
Ingredients
"CARBONATED WATER, HIGH FRUCTOSE CORN SYRUP, CARAMEL COLOR, PHOSPHORIC ACID, NATURAL FLAVOR, CAFFEINE." Date available: 07/14/2017 Date last updated by company: 07/14/2017
