Source: USDA Branded Food Products Database Release December 2017 Software v.3.8.6.4 2017-10-02
Report Run at: December 18, 2017 23:57 EST
"Nutrient data for: 45177945, COLBY AND MONTEREY JACK CHEESE, UPC: 078767000564"
Food Group:  Branded Food Products Database
Common Name:

Nutrient,Unit,Data points,Std. Error,"1 SLICE = 17.0g",1Value per 100 g,
Proximates
"Energy",kcal,--,--,70,412
"Protein",g,--,--,4.00,23.53
"Total lipid (fat)",g,--,--,5.00,29.41
"Carbohydrate, by difference",g,--,--,0.00,0.00
"Fiber, total dietary",g,--,--,0.0,0.0
"Sugars, total",g,--,--,0.00,0.00
Minerals
"Calcium, Ca",mg,--,--,100,588
"Iron, Fe",mg,--,--,0.00,0.00
"Sodium, Na",mg,--,--,110,647
Vitamins
"Vitamin C, total ascorbic acid",mg,--,--,0.0,0.0
"Vitamin A, IU",IU,--,--,588,3459
Lipids
"Fatty acids, total saturated",g,--,--,3.500,20.590
"Fatty acids, total trans",g,--,--,0.000,0.000
"Cholesterol",mg,--,--,15,88
Amino Acids
Other
Ingredients
"COLBY CHEESE (PASTEURIZED MILK, CHEESE CULTURE, SALT, ENZYMES, ANNATTO [COLOR]), MONTEREY JACK CHEESE (PASTEURIZED MILK, CHEESE CULTURE, SALT, ENZYMES)." Date available: 07/14/2017 Date last updated by company: 07/14/2017
