Source: USDA Branded Food Products Database Release December 2017 Software v.3.8.6.4 2017-10-02
Report Run at: December 19, 2017 00:02 EST
"Nutrient data for: 45135736, COLBY, UPC: 072018013266"
Food Group:  Branded Food Products Database
Common Name:

Nutrient,Unit,Data points,Std. Error,"1 SLICE | ABOUT = 21.0g",1Value per 100 g,
Proximates
"Energy",kcal,--,--,110,524
"Protein",g,--,--,7.00,33.33
"Total lipid (fat)",g,--,--,9.00,42.86
"Carbohydrate, by difference",g,--,--,1.00,4.76
"Fiber, total dietary",g,--,--,0.0,0.0
"Sugars, total",g,--,--,0.00,0.00
Minerals
"Calcium, Ca",mg,--,--,200,952
"Iron, Fe",mg,--,--,0.00,0.00
"Sodium, Na",mg,--,--,170,810
Vitamins
"Vitamin C, total ascorbic acid",mg,--,--,0.0,0.0
"Vitamin A, IU",IU,--,--,714,3402
Lipids
"Fatty acids, total saturated",g,--,--,5.500,26.190
"Fatty acids, total trans",g,--,--,0.000,0.000
"Cholesterol",mg,--,--,30,143
Amino Acids
Other
Ingredients
"PASTEURIZED MILK, CHEESE CULTURES, SALT, ENZYMES, ANNATTO (VEGETABLE COLOR)." Date available: 08/28/2017 Date last updated by company: 08/28/2017
