Source: USDA Branded Food Products Database Release December 2017 Software v.3.8.6.4 2017-10-02
Report Run at: December 19, 2017 00:01 EST
"Nutrient data for: 45177743, COLBY & MONTEREY JACK CHEESE CUBES, UPC: 078742049113"
Food Group:  Branded Food Products Database
Common Name:

Nutrient,Unit,Data points,Std. Error,"4.0 CUBES = 28.0g",1Value per 100 g,
Proximates
"Energy",kcal,--,--,110,393
"Protein",g,--,--,7.00,25.00
"Total lipid (fat)",g,--,--,9.00,32.14
"Carbohydrate, by difference",g,--,--,1.00,3.57
"Fiber, total dietary",g,--,--,0.0,0.0
"Sugars, total",g,--,--,0.00,0.00
Minerals
"Calcium, Ca",mg,--,--,200,714
"Iron, Fe",mg,--,--,0.00,0.00
"Sodium, Na",mg,--,--,170,607
Vitamins
"Vitamin C, total ascorbic acid",mg,--,--,0.0,0.0
"Vitamin A, IU",IU,--,--,535,1912
Lipids
"Fatty acids, total saturated",g,--,--,5.001,17.860
"Fatty acids, total trans",g,--,--,0.000,0.000
"Cholesterol",mg,--,--,30,107
Amino Acids
Other
Ingredients
"COLBY JACK CHEESE (PASTEURIZED MILK, CHEESE CULTURES, SALT, ENZYMES, ANNATTO EXTRACT (COLOR)." Date available: 07/14/2017 Date last updated by company: 07/14/2017
