Source: USDA Branded Food Products Database Release December 2017 Software v.3.8.6.4 2017-10-02
Report Run at: December 18, 2017 23:59 EST
"Nutrient data for: 45287774, COLBY/JACK CHEESE STICKS, UPC: 070038644279"
Food Group:  Branded Food Products Database
Common Name:

Nutrient,Unit,Data points,Std. Error,"1 PIECE = 24.0g",1Value per 100 g,
Proximates
"Energy",kcal,--,--,90,375
"Protein",g,--,--,6.00,25.00
"Total lipid (fat)",g,--,--,7.00,29.17
"Carbohydrate, by difference",g,--,--,0.00,0.00
"Fiber, total dietary",g,--,--,0.0,0.0
"Sugars, total",g,--,--,0.00,0.00
Minerals
"Calcium, Ca",mg,--,--,150,625
"Iron, Fe",mg,--,--,0.00,0.00
"Sodium, Na",mg,--,--,150,625
Vitamins
"Vitamin C, total ascorbic acid",mg,--,--,0.0,0.0
"Vitamin A, IU",IU,--,--,625,2604
Lipids
"Fatty acids, total saturated",g,--,--,4.500,18.750
"Fatty acids, total trans",g,--,--,0.000,0.000
"Cholesterol",mg,--,--,25,104
Amino Acids
Other
Ingredients
"PASTEURIZED MILK, CHEESE CULTURE, SALT, ENZYMES, ANNATTO COLOR (IN COLBY CHEESE)." Date available: 07/14/2017 Date last updated by company: 07/14/2017
