Source: USDA Branded Food Products Database Release December 2017 Software v.3.8.6.4 2017-10-02
Report Run at: December 19, 2017 00:03 EST
"Nutrient data for: 45151169, COLD BREW COFFEE, UPC: 030034096694"
Food Group:  Branded Food Products Database
Common Name:

Nutrient,Unit,Data points,Std. Error,"8.0 OZA = 237.0g",1Value per 100 g,
Proximates
"Energy",kcal,--,--,100,42
"Protein",g,--,--,5.00,2.11
"Total lipid (fat)",g,--,--,1.99,0.84
"Carbohydrate, by difference",g,--,--,17.99,7.59
"Sugars, total",g,--,--,11.99,5.06
Minerals
"Calcium, Ca",mg,--,--,199,84
"Iron, Fe",mg,--,--,0.00,0.00
"Sodium, Na",mg,--,--,171,72
Vitamins
"Vitamin C, total ascorbic acid",mg,--,--,1.9,0.8
"Vitamin A, IU",IU,--,--,152,64
Lipids
"Fatty acids, total saturated",g,--,--,0.995,0.420
"Fatty acids, total trans",g,--,--,0.000,0.000
"Cholesterol",mg,--,--,9,4
Amino Acids
Other
Ingredients
"REDUCED FAT MILK, ORGANIC COFFEE CONCENTRATE, WATER, ERYTHRITOL, SUGAR, NATURAL FLAVORS, SALT, MONK FRUIT EXTRACT, CARRAGEENAN, POTASSIUM PHOSPHATES" Date available: 07/14/2017 Date last updated by company: 07/14/2017
