Source: USDA Branded Food Products Database Release December 2017 Software v.3.8.6.4 2017-10-02
Report Run at: December 19, 2017 00:02 EST
"Nutrient data for: 45285216, COLD BREW COFFEE. BLACK., UPC: 021130250523"
Food Group:  Branded Food Products Database
Common Name:

Nutrient,Unit,Data points,Std. Error,"9.5 OZA = 281.0g",1Value per 100 g,
Proximates
"Energy",kcal,--,--,6,2
"Protein",g,--,--,0.00,0.00
"Total lipid (fat)",g,--,--,0.00,0.00
"Carbohydrate, by difference",g,--,--,0.00,0.00
Minerals
"Sodium, Na",mg,--,--,45,16
Vitamins
Lipids
Amino Acids
Other
Ingredients
"WATER, ARABICA COFFEE." Date available: 07/14/2017 Date last updated by company: 07/14/2017
