Source: USDA Branded Food Products Database Release December 2017 Software v.3.8.6.4 2017-10-02
Report Run at: December 19, 2017 00:05 EST
"Nutrient data for: 45207516, COLD PACK CHEESE FOOD, UPC: 025231024410"
Food Group:  Branded Food Products Database
Common Name:

Nutrient,Unit,Data points,Std. Error,"2.0 Tbsp = 28.0g",1Value per 100 g,
Proximates
"Energy",kcal,--,--,90,321
"Protein",g,--,--,5.00,17.86
"Total lipid (fat)",g,--,--,7.00,25.00
"Carbohydrate, by difference",g,--,--,3.00,10.71
"Sugars, total",g,--,--,2.00,7.14
Minerals
"Calcium, Ca",mg,--,--,150,536
"Sodium, Na",mg,--,--,220,786
Vitamins
"Vitamin A, IU",IU,--,--,535,1912
Lipids
"Fatty acids, total saturated",g,--,--,4.001,14.290
"Fatty acids, total trans",g,--,--,0.000,0.000
"Cholesterol",mg,--,--,20,71
Amino Acids
Other
Ingredients
"SHARP CHEDDAR CHEESE AGED 9 MONTHS (MADE FROM PASTEURIZED CULTURED MILK, SALT, AND ENZYMES), WATER, REDUCED LACTOSE WHEY, CREAM, PORT WINE, WHEY, SORBIC ACID (A PRESERVATIVE), SEA SALT, GUAR GUM, ANNATTO COLOR, LACTIC ACID, RED #40." Date available: 10/19/2017 Date last updated by company: 10/19/2017
