Source: USDA Branded Food Products Database Release December 2017 Software v.3.8.6.4 2017-10-02
Report Run at: December 19, 2017 00:09 EST
"Nutrient data for: 45196669, COLD WATER LOBSTER TAILS WITH BUTTER, UPC: 041130812170"
Food Group:  Branded Food Products Database
Common Name:

Nutrient,Unit,Data points,Std. Error,"1 LOBSTER TAIL & 1 BUTTER = 92.0g",1Value per 100 g,
Proximates
"Energy",kcal,--,--,130,141
"Protein",g,--,--,14.00,15.22
"Total lipid (fat)",g,--,--,9.00,9.78
"Carbohydrate, by difference",g,--,--,0.00,0.00
"Fiber, total dietary",g,--,--,0.0,0.0
"Sugars, total",g,--,--,0.00,0.00
Minerals
"Calcium, Ca",mg,--,--,60,65
"Iron, Fe",mg,--,--,0.33,0.36
"Sodium, Na",mg,--,--,410,446
Vitamins
"Vitamin C, total ascorbic acid",mg,--,--,0.0,0.0
"Vitamin A, IU",IU,--,--,277,301
Lipids
"Fatty acids, total saturated",g,--,--,4.996,5.430
"Fatty acids, total trans",g,--,--,0.000,0.000
"Cholesterol",mg,--,--,125,136
Amino Acids
Other
Ingredients
"LOBSTER, BUTTER (CREAM, SALT)." Date available: 07/14/2017 Date last updated by company: 07/14/2017
