Source: USDA Branded Food Products Database Release December 2017 Software v.3.8.6.4 2017-10-02
Report Run at: December 19, 2017 00:11 EST
"Nutrient data for: 45082566, COLE'S SARDINES, PORTUGUESE SARDINES IN PURE OLIVE OIL, UPC: 891953001202"
Food Group:  Branded Food Products Database
Common Name:

Nutrient,Unit,Data points,Std. Error,"1 CAN DRAINED = 80.0g",1Value per 100 g,
Proximates
"Energy",kcal,--,--,230,288
"Protein",g,--,--,23.50,29.38
"Total lipid (fat)",g,--,--,18.00,22.50
"Carbohydrate, by difference",g,--,--,0.00,0.00
"Fiber, total dietary",g,--,--,0.0,0.0
"Sugars, total",g,--,--,0.00,0.00
Minerals
"Calcium, Ca",mg,--,--,450,562
"Iron, Fe",mg,--,--,2.68,3.35
"Sodium, Na",mg,--,--,400,500
Vitamins
"Vitamin C, total ascorbic acid",mg,--,--,0.0,0.0
"Vitamin A, IU",IU,--,--,0,0
Lipids
"Fatty acids, total saturated",g,--,--,3.600,4.500
"Fatty acids, total trans",g,--,--,0.096,0.120
"Cholesterol",mg,--,--,62,78
Amino Acids
Other
Ingredients
"PORTUGUESE SARDINES (PILCHARDUS WALBAUM), NORTHEAST ATLANTIC FAO (27), OLIVE OIL AND SEA SALT." Date available: 06/25/2017 Date last updated by company: 06/25/2017
