Source: USDA Branded Food Products Database Release December 2017 Software v.3.8.6.4 2017-10-02
Report Run at: December 19, 2017 00:11 EST
"Nutrient data for: 45333508, COLESLAW, UPC: 038259116500"
Food Group:  Branded Food Products Database
Common Name:

Nutrient,Unit,Data points,Std. Error,"0.5 cup = 105.0g",1Value per 100 g,
Proximates
"Energy",kcal,--,--,190,181
"Protein",g,--,--,1.00,0.95
"Total lipid (fat)",g,--,--,14.00,13.33
"Carbohydrate, by difference",g,--,--,14.00,13.33
"Fiber, total dietary",g,--,--,2.0,1.9
"Sugars, total",g,--,--,11.00,10.48
Minerals
"Calcium, Ca",mg,--,--,20,19
"Iron, Fe",mg,--,--,0.00,0.00
"Potassium, K",mg,--,--,187,178
"Sodium, Na",mg,--,--,290,276
Vitamins
"Vitamin D",IU,--,--,0,0
Lipids
"Fatty acids, total saturated",g,--,--,2.499,2.380
"Fatty acids, total trans",g,--,--,0.000,0.000
"Cholesterol",mg,--,--,10,10
Amino Acids
Other
Ingredients
"CABBAGE, MAYONNAISE (SOYBEAN OIL, WATER, EGG YOLKS, VINEGAR, SALT), SUGAR, CARROT, ONION, SALT, VINEGAR, CITRIC ACID, ASCORBIC ACID, SODIUM ERYTHORBATE, MODIFIED CORN STARCH, XANTHAN GUM, POTASSIUM SORBATE (PRESERVATIVE), SODIUM BENZOATE (PRESERVATIVE), DRIED CHIVES." Date available: 10/14/2017 Date last updated by company: 10/14/2017
