Source: USDA Branded Food Products Database Release December 2017 Software v.3.8.6.4 2017-10-02
Report Run at: December 19, 2017 00:13 EST
"Nutrient data for: 45227733, COLLEGE INN, CHICKEN BROTH, UPC: 024000622505"
Food Group:  Branded Food Products Database
Common Name:

Nutrient,Unit,Data points,Std. Error,"1 cup = 240.0g",1Value per 100 g,
Proximates
"Energy",kcal,--,--,14,6
"Protein",g,--,--,1.01,0.42
"Total lipid (fat)",g,--,--,1.01,0.42
"Carbohydrate, by difference",g,--,--,1.01,0.42
"Fiber, total dietary",g,--,--,0.0,0.0
"Sugars, total",g,--,--,1.01,0.42
Minerals
"Calcium, Ca",mg,--,--,0,0
"Iron, Fe",mg,--,--,0.00,0.00
"Potassium, K",mg,--,--,0,0
"Sodium, Na",mg,--,--,869,362
Vitamins
"Vitamin C, total ascorbic acid",mg,--,--,0.0,0.0
"Vitamin A, IU",IU,--,--,0,0
Lipids
"Fatty acids, total saturated",g,--,--,0.000,0.000
"Fatty acids, total trans",g,--,--,0.000,0.000
"Cholesterol",mg,--,--,0,0
Amino Acids
Other
Ingredients
"CHICKEN BROTH, CONTAINS LESS THAN 1% OF THE FOLLOWING: SALT, DEXTROSE, CHICKEN FAT, NATURAL FLAVORS, AUTOLYZED YEAST EXTRACT, CARROT JUICE CONCENTRATE, ONION JUICE CONCENTRATE, XANTHAN GUM." Date available: 07/14/2017 Date last updated by company: 07/14/2017
