Source: USDA Branded Food Products Database Release December 2017 Software v.3.8.6.4 2017-10-02
Report Run at: December 19, 2017 00:13 EST
"Nutrient data for: 45146222, COLLETTIES, SWEDISH LEMON COOKIES, UPC: 040232170584"
Food Group:  Branded Food Products Database
Common Name:

Nutrient,Unit,Data points,Std. Error,"1 COOKIE = 26.0g",1Value per 100 g,
Proximates
"Energy",kcal,--,--,130,500
"Protein",g,--,--,1.00,3.85
"Total lipid (fat)",g,--,--,7.00,26.92
"Carbohydrate, by difference",g,--,--,13.00,50.00
"Fiber, total dietary",g,--,--,0.0,0.0
"Sugars, total",g,--,--,6.00,23.08
Minerals
"Calcium, Ca",mg,--,--,0,0
"Iron, Fe",mg,--,--,0.69,2.67
"Sodium, Na",mg,--,--,80,308
Vitamins
"Vitamin C, total ascorbic acid",mg,--,--,0.0,0.0
"Vitamin A, IU",IU,--,--,385,1479
Lipids
"Fatty acids, total saturated",g,--,--,4.501,17.310
"Fatty acids, total trans",g,--,--,0.000,0.000
"Cholesterol",mg,--,--,20,77
Amino Acids
Other
Ingredients
"FLOUR (WHEAT FLOUR, MALTED BARLEY FLOUR, NIACIN, IRON, THIAMINE MONONITRATE, RIBOFLAVIN, FOLIC ACID), BUTTER (CREAM, SALT), POWDERED SUGAR (SUGAR, CORNSTARCH), ALMONDS, DONUT SUGAR (DEXTROSE, CORN STARCH, PARTIALLY HYDROGENATED VEGETABLE OIL (SOYBEAN AND/OR COTTONSEED OIL), TITANIUM DIOXIDE (AS COLOR), RICE FLOUR, HYDROGENATED COTTONSEED OIL, ARTIFICIAL FLAVOR), NATURAL FLAVORING, SALT." Date available: 07/14/2017 Date last updated by company: 07/14/2017
