Source: USDA Branded Food Products Database Release December 2017 Software v.3.8.6.4 2017-10-02
Report Run at: December 19, 2017 00:15 EST
"Nutrient data for: 45143546, COLORADO, TRAIL MIX, UPC: 064777813164"
Food Group:  Branded Food Products Database
Common Name:

Nutrient,Unit,Data points,Std. Error,"0.33 cup = 50.0g",1Value per 100 g,
Proximates
"Energy",kcal,--,--,280,560
"Protein",g,--,--,10.00,20.00
"Total lipid (fat)",g,--,--,19.00,38.00
"Carbohydrate, by difference",g,--,--,17.00,34.00
"Fiber, total dietary",g,--,--,3.0,6.0
"Sugars, total",g,--,--,9.00,18.00
Minerals
"Calcium, Ca",mg,--,--,40,80
"Iron, Fe",mg,--,--,1.44,2.88
"Sodium, Na",mg,--,--,0,0
Vitamins
"Vitamin C, total ascorbic acid",mg,--,--,0.0,0.0
"Vitamin A, IU",IU,--,--,0,0
Lipids
"Fatty acids, total saturated",g,--,--,3.000,6.000
"Fatty acids, total trans",g,--,--,0.000,0.000
"Cholesterol",mg,--,--,0,0
Amino Acids
Other
Ingredients
"PEANUTS, SUNFLOWER SEEDS, THOMPSON RAISINS, PUMPKIN SEEDS, CASHEWS, ALMONDS, SOYBEAN AND/OR PEANUT OIL, PALM AND SUNFLOWER OIL, SULFUR DIOXIDE (PRESERVATIVE)." Date available: 07/14/2017 Date last updated by company: 07/14/2017
