Source: USDA Branded Food Products Database Release December 2017 Software v.3.8.6.4 2017-10-02
Report Run at: December 19, 2017 00:13 EST
"Nutrient data for: 45104679, COLOMBIANA MAZAMORRA, UPC: 038225000031"
Food Group:  Branded Food Products Database
Common Name:

Nutrient,Unit,Data points,Std. Error,"0.66 cup = 113.0g",1Value per 100 g,
Proximates
"Energy",kcal,--,--,390,345
"Protein",g,--,--,8.00,7.08
"Total lipid (fat)",g,--,--,0.50,0.44
"Carbohydrate, by difference",g,--,--,89.00,78.76
"Fiber, total dietary",g,--,--,1.0,0.9
Minerals
"Calcium, Ca",mg,--,--,0,0
"Iron, Fe",mg,--,--,0.35,0.31
"Sodium, Na",mg,--,--,0,0
Vitamins
"Vitamin C, total ascorbic acid",mg,--,--,0.0,0.0
"Vitamin A, IU",IU,--,--,64,57
Lipids
"Fatty acids, total saturated",g,--,--,0.000,0.000
"Fatty acids, total trans",g,--,--,0.000,0.000
"Cholesterol",mg,--,--,0,0
Amino Acids
Other
Ingredients
"DEGERMINATED YELLOW CORN GRITS, DEGERMINATED WHITE CORNMEAL." Date available: 08/24/2017 Date last updated by company: 08/24/2017
