Source: USDA Branded Food Products Database Release December 2017 Software v.3.8.6.4 2017-10-02
Report Run at: December 19, 2017 00:18 EST
"Nutrient data for: 45088788, COLUMBUS, LITE ITALIAN DRY SALAME, UPC: 073007107096"
Food Group:  Branded Food Products Database
Common Name:

Nutrient,Unit,Data points,Std. Error,"8.0 SLICES = 28.0g",1Value per 100 g,
Proximates
"Energy",kcal,--,--,60,214
"Protein",g,--,--,8.00,28.57
"Total lipid (fat)",g,--,--,3.00,10.71
"Carbohydrate, by difference",g,--,--,1.00,3.57
"Fiber, total dietary",g,--,--,0.0,0.0
"Sugars, total",g,--,--,0.00,0.00
Minerals
"Calcium, Ca",mg,--,--,20,71
"Iron, Fe",mg,--,--,0.71,2.53
"Sodium, Na",mg,--,--,530,1893
Vitamins
"Vitamin C, total ascorbic acid",mg,--,--,0.0,0.0
"Vitamin A, IU",IU,--,--,0,0
Lipids
"Fatty acids, total saturated",g,--,--,1.000,3.570
"Fatty acids, total trans",g,--,--,0.000,0.000
"Cholesterol",mg,--,--,30,107
Amino Acids
Other
Ingredients
"PORK, SALT AND CONTAINS LESS THAN 2% OF THE FOLLOWING: DEXTROSE, NATURAL FLAVORINGS, WINE, SODIUM ASCORBATE, LACTIC ACID STARTER CULTURE, SODIUM NITRITE, SODIUM NITRATE." Date available: 06/25/2017 Date last updated by company: 06/25/2017
