Source: USDA Branded Food Products Database Release December 2017 Software v.3.8.6.4 2017-10-02
Report Run at: December 19, 2017 00:21 EST
"Nutrient data for: 45060743, COMPLETE PANCAKE AND WAFFLE MIX, UPC: 011110882172"
Food Group:  Branded Food Products Database
Common Name:

Nutrient,Unit,Data points,Std. Error,"0.5 CUP DRY MIX = 64.0g",1Value per 100 g,
Proximates
"Energy",kcal,--,--,230,359
"Protein",g,--,--,4.00,6.25
"Total lipid (fat)",g,--,--,3.50,5.47
"Carbohydrate, by difference",g,--,--,46.00,71.88
"Fiber, total dietary",g,--,--,1.0,1.6
"Sugars, total",g,--,--,9.00,14.06
Minerals
"Calcium, Ca",mg,--,--,60,94
"Iron, Fe",mg,--,--,1.13,1.76
"Sodium, Na",mg,--,--,640,1000
Vitamins
"Vitamin C, total ascorbic acid",mg,--,--,0.0,0.0
"Vitamin A, IU",IU,--,--,0,0
Lipids
"Fatty acids, total saturated",g,--,--,1.997,3.120
"Fatty acids, total trans",g,--,--,0.000,0.000
"Cholesterol",mg,--,--,0,0
Amino Acids
Other
Ingredients
"INGREDIENTS: ENRICHED BLEACHED FLOUR (WHEAT FLOUR, NIACIN REDUCED IRON, THIAMINE MONONITRATE, RIBOFLAVIN, FOLIC ACID, MALTED BARLEY FLOUR, ENZYMES, ASCORBIC ACID), SUGAR, CONTAINS 2% OF LESS OF THE FOLLOWING: BAKING SODA, SODIUM ALUMINUM PHOSPHATE, MONOCALCIUM PHOSPHATE, PROPYLENE GLYCOL MONOESTER, MONO-DIGLYCERIDES, SODIUM STEAROYLLACTYLATE, MONOGLYCERIDE, SOYBEAN OIL, DEXTROSE, SOY FLOUR, SALT, PALM OIL, CORN SYRUP SOLDS, NATURAL AND ARTIFICIAL FLAVORS (CONTAINS MILK DERIVATIVES), SODIUM CASEINATE (MILK PROTEIN), DIPOTASSIUM PHOSPHATE, FOOD STARCH-MODIFIED." Date available: 07/14/2017 Date last updated by company: 07/14/2017
