Source: USDA Branded Food Products Database Release December 2017 Software v.3.8.6.4 2017-10-02
Report Run at: December 19, 2017 00:21 EST
"Nutrient data for: 45029102, COMPLETE ORIGINAL PANCAKE & WAFFLE MIX, UPC: 041497366132"
Food Group:  Branded Food Products Database
Common Name:

Nutrient,Unit,Data points,Std. Error,"4.0 """" PANCAKES PREPARED | THREE = 39.0g",1Value per 100 g,
Proximates
"Energy",kcal,--,--,140,359
"Protein",g,--,--,3.00,7.69
"Total lipid (fat)",g,--,--,1.50,3.85
"Carbohydrate, by difference",g,--,--,27.00,69.23
"Fiber, total dietary",g,--,--,1.0,2.6
"Sugars, total",g,--,--,6.00,15.38
Minerals
"Calcium, Ca",mg,--,--,100,256
"Iron, Fe",mg,--,--,1.48,3.79
"Sodium, Na",mg,--,--,470,1205
Vitamins
"Vitamin C, total ascorbic acid",mg,--,--,0.0,0.0
"Vitamin A, IU",IU,--,--,0,0
Lipids
"Fatty acids, total saturated",g,--,--,0.000,0.000
"Fatty acids, total trans",g,--,--,0.000,0.000
"Cholesterol",mg,--,--,10,26
Amino Acids
Other
Ingredients
"ENRICHED BLEACHED FLOUR (BLEACHED WHEAT FLOUR, MALTED BARLEY FLOUR, NIACIN, IRON, THIAMINE MONONITRATE, RIBOFLAVIN, FOLIC ACID), SUGAR, LEAVENING (BAKING SODA, SODIUM ALUMINUM PHOSPHATE, MONOCALCIUM PHOSPHATE), DEXTROSE, SOYBEAN OIL, SALT, EGG YOLK, NATURAL AND ARTIFICIAL FLAVOR, CALCIUM CARBONATE, CORN STARCH, EGG WHITE, XANTHAN GUM." Date available: 06/24/2017 Date last updated by company: 06/24/2017
