Source: USDA Branded Food Products Database Release December 2017 Software v.3.8.6.4 2017-10-02
Report Run at: December 19, 2017 00:22 EST
"Nutrient data for: 45057591, COMPLETE PANCAKE & WAFFLE MIX, UPC: 644209301423"
Food Group:  Branded Food Products Database
Common Name:

Nutrient,Unit,Data points,Std. Error,"3.0 - 4"""" PANCAKES) | MIX (APPROX. = 47.0g",1Value per 100 g,
Proximates
"Energy",kcal,--,--,170,362
"Protein",g,--,--,5.00,10.64
"Total lipid (fat)",g,--,--,1.50,3.19
"Carbohydrate, by difference",g,--,--,32.00,68.09
"Fiber, total dietary",g,--,--,1.0,2.1
"Sugars, total",g,--,--,7.00,14.89
Minerals
"Calcium, Ca",mg,--,--,150,319
"Iron, Fe",mg,--,--,2.30,4.89
"Phosphorus, P",mg,--,--,128,272
"Potassium, K",mg,--,--,10,21
"Sodium, Na",mg,--,--,410,872
Vitamins
"Vitamin C, total ascorbic acid",mg,--,--,0.0,0.0
"Thiamin",mg,--,--,0.000,0.000
"Riboflavin",mg,--,--,0.170,0.362
"Niacin",mg,--,--,1.702,3.621
"Vitamin A, IU",IU,--,--,0,0
Lipids
"Fatty acids, total saturated",g,--,--,0.000,0.000
"Fatty acids, total trans",g,--,--,0.000,0.000
"Cholesterol",mg,--,--,5,11
Amino Acids
Other
Ingredients
"BLEACHED WHEAT FLOUR (WHEAT FLOUR [ENRICHED WITH NIACIN, REDUCED IRON, THIAMINE MONONITRATE, RIBOFLAVIN, FOLIC ACID], MALTED BARLEY FLOUR), SUGAR, SOY FLOUR (SOY FLOUR, SOYBEAN OIL, SOY LECITHIN), LEAVENING (SODIUM BICARBONATE, SODIUM ALUMINUM PHOSPHATE, MONOCALCIUM PHOSPHATE), WHEY POWDER. CONTAINS 2% OR LESS OF: DEXTROSE, VEGETABLE OIL SHORTENING (PARTIALLY HYDROGENATED SOYBEAN OIL), SALT, DRIED WHOLE EGGS, CALCIUM CARBONATE, NATURAL AND ARTIFICIAL FLAVOR (MALTODEXTRIN, NATURAL AND ARTIFICIAL FLAVOR), NONFAT DRY MILK, SODIUM CASEINATE, MONO- AND DIGLYCERIDES." Date available: 08/10/2017 Date last updated by company: 08/10/2017
