Source: USDA Branded Food Products Database Release December 2017 Software v.3.8.6.4 2017-10-02
Report Run at: December 19, 2017 00:23 EST
"Nutrient data for: 45172247, CONCHA MIX MEXICAN ASSORTED PASTRY, UPC: 027331096090"
Food Group:  Branded Food Products Database
Common Name:

Nutrient,Unit,Data points,Std. Error,"2.0 ONZ = 57.0g",1Value per 100 g,
Proximates
"Energy",kcal,--,--,220,386
"Protein",g,--,--,4.00,7.02
"Total lipid (fat)",g,--,--,10.00,17.54
"Carbohydrate, by difference",g,--,--,28.00,49.12
"Fiber, total dietary",g,--,--,1.0,1.8
"Sugars, total",g,--,--,10.00,17.54
Minerals
"Calcium, Ca",mg,--,--,20,35
"Iron, Fe",mg,--,--,1.39,2.44
"Sodium, Na",mg,--,--,170,298
Vitamins
"Vitamin C, total ascorbic acid",mg,--,--,0.0,0.0
"Vitamin A, IU",IU,--,--,96,169
Lipids
"Fatty acids, total saturated",g,--,--,4.497,7.890
"Fatty acids, total trans",g,--,--,0.000,0.000
"Cholesterol",mg,--,--,15,26
Amino Acids
Other
Ingredients
"FLOUR (BLEACHED WHEAT FLOUR, MALTED BARLEY FLOUR, NIACIN, REDUCED IRON, POTASSIUM BROMATE, THIAMINE MONONITRATE, RIBOFLAVIN, FOLIC ACID), SUGAR, SHORTENING (PALM OIL WITH MONO AND DIGLYCERIDES), WATER, POWDER EGGS (WHEAT, EGGS, SOYBEAN OIL, CONTAIN 2% OR LESS OF THE FOLLOWING CARBOXYMETHYLCELLULOSE, SOY LECITHIN, SODIUM BICARBONATE, SALT, COLORS (ANNATTO EXTRAC, TURMERIC)), MARGARINE (PARTIALLY HYDROGENATED SOYBEAN AND COTTONSEED OIL, WATER, SALT, MONO AND DIGLYCERIDES, SOY LECITHIN, SODIUM BENZOATE, ARTIFICIALLY FLAVORED, BETA CAROTENE, VITAMIN A). CONTAIN 2% OR LESS THAN THE FOLLOWING ORANGE AND BUTTER ARTIFICIAL FLAVORS (WATER, PROPYLENE GLYCOL, NATURAL AND ARTIFICIAL FLAVORS, XANTHAN GUM, BHA), YEAST, BAKING POWDER (CORN STARCH, SODIUM BICARBONATE, SODIUM ALUMINUM SULFATE, MONOCALCIUM PHOSPHATE), CALCIUM PROPIONATE, SALT, POWDER MILK (MILK PROTEIN CONCENTRATE, NONFAT DRY MILK, LACTOSE), POWDER COCOA, ARTIFICIAL COLORS (WATER, HIGH FRUCTOSE CORN SYRUP, GLYCERINE, FD&C YELLOW 5, SUGAR, MODIFIED FOOD STARCH, FD&C YELLOW 6, FD&C RED 3, CARRAGEENAN, POTASSIUM SORBATE, SODIUM BENZOATE, CITRIC ACID, XANTHAN GUM), ENZYMES." Date available: 07/14/2017 Date last updated by company: 07/14/2017
