Source: USDA Branded Food Products Database Release December 2017 Software v.3.8.6.4 2017-10-02
Report Run at: December 19, 2017 00:24 EST
"Nutrient data for: 45027536, CONCORD FOODS, ORIGINAL SALAD TOPPING, UPC: 041409002417"
Food Group:  Branded Food Products Database
Common Name:

Nutrient,Unit,Data points,Std. Error,"1 Tbsp = 7.0g",1Value per 100 g,
Proximates
"Energy",kcal,--,--,30,429
"Protein",g,--,--,2.00,28.57
"Total lipid (fat)",g,--,--,1.00,14.29
"Carbohydrate, by difference",g,--,--,3.00,42.86
"Fiber, total dietary",g,--,--,0.5,7.1
"Sugars, total",g,--,--,0.00,0.00
Minerals
"Calcium, Ca",mg,--,--,20,286
"Iron, Fe",mg,--,--,2.57,36.75
"Sodium, Na",mg,--,--,115,1643
Vitamins
"Vitamin C, total ascorbic acid",mg,--,--,0.0,0.0
"Vitamin A, IU",IU,--,--,3571,51021
Lipids
"Fatty acids, total saturated",g,--,--,0.200,2.860
"Fatty acids, total trans",g,--,--,0.000,0.000
"Cholesterol",mg,--,--,0,0
Amino Acids
Other
Ingredients
"SOY PROTEIN BITS (SOY FLOUR, CARAMEL COLOR, RED 3), DEHYDRATED ONION, SOYBEANS, SUNFLOWER SEEDS, SOYBEAN OIL, SALT, DEHYDRATED CARROT, TOMATO, AND GREEN BEANS, SPICES, DEXTROSE, NATURAL FLAVOR, BUTTER OIL (FROM MILK), TBHQ TO PROTECT FLAVOR." Date available: 07/14/2017 Date last updated by company: 07/14/2017
