Source: USDA Branded Food Products Database Release December 2017 Software v.3.8.6.4 2017-10-02
Report Run at: December 19, 2017 00:24 EST
"Nutrient data for: 45241926, CONCHITA, SQUID CHUNKS IN INK SAUCE, UPC: 075370006570"
Food Group:  Branded Food Products Database
Common Name:

Nutrient,Unit,Data points,Std. Error,"0.25 cup = 55.0g",1Value per 100 g,
Proximates
"Energy",kcal,--,--,80,145
"Protein",g,--,--,6.50,11.82
"Total lipid (fat)",g,--,--,4.20,7.64
"Carbohydrate, by difference",g,--,--,2.40,4.36
"Fiber, total dietary",g,--,--,1.0,1.8
"Sugars, total",g,--,--,0.00,0.00
Minerals
"Calcium, Ca",mg,--,--,40,73
"Iron, Fe",mg,--,--,1.67,3.03
"Sodium, Na",mg,--,--,260,473
Vitamins
"Vitamin C, total ascorbic acid",mg,--,--,0.0,0.0
"Vitamin A, IU",IU,--,--,309,562
Lipids
"Fatty acids, total saturated",g,--,--,0.501,0.910
"Fatty acids, total trans",g,--,--,0.000,0.000
"Cholesterol",mg,--,--,44,80
Amino Acids
Other
Ingredients
"SQUID, VEGETABLE OIL, ONION, TOMATO, INK, RICE FLOUR, SPICES, SALT AND VEGETABLE FIBRE (POTATO AND BAMBOO)." Date available: 06/25/2017 Date last updated by company: 06/25/2017
