Source: USDA Branded Food Products Database Release December 2017 Software v.3.8.6.4 2017-10-02
Report Run at: December 19, 2017 00:23 EST
"Nutrient data for: 45207549, CONCHAS, UPC: 027331010010"
Food Group:  Branded Food Products Database
Common Name:

Nutrient,Unit,Data points,Std. Error,"1 CONCHA = 58.0g",1Value per 100 g,
Proximates
"Energy",kcal,--,--,213,367
"Protein",g,--,--,8.00,13.79
"Total lipid (fat)",g,--,--,5.00,8.62
"Carbohydrate, by difference",g,--,--,33.00,56.90
"Fiber, total dietary",g,--,--,1.0,1.7
"Sugars, total",g,--,--,8.00,13.79
Minerals
"Calcium, Ca",mg,--,--,90,155
"Iron, Fe",mg,--,--,1.37,2.36
"Sodium, Na",mg,--,--,160,276
Vitamins
"Vitamin C, total ascorbic acid",mg,--,--,0.0,0.0
"Vitamin A, IU",IU,--,--,0,0
Lipids
"Fatty acids, total saturated",g,--,--,2.001,3.450
"Fatty acids, total trans",g,--,--,0.000,0.000
"Cholesterol",mg,--,--,9,16
Amino Acids
Other
Ingredients
"BLEACHED WHEAT FLOUR (MALTED BARLEY FLOUR, ENRICHED WITH NIACIN, REDUCED IRON, THIAMIN MONONITRATE, RIBOFLAVIN, FOLIC ACID), SUGAR, VEGETABLE SHORTENING (PARTIALLY HYDROGENATED SOYBEAN, OR COTTON SEED), WATER, DEXTROSE, WHOLE EGGS SOLIDS, SALT, YEST, ARTIFICIAL VANILLA (WATER, ETHYL ALCOHOL, GLYCERIN & CARAMEL COLOR), CINNAMON, TURMERIC, YELLOW 5, YELLOW 6, RED 3, COCOA, CONTAINS 2% OR LESS OF CITRIC ACID, SODIUM PROPIONATE, SODIUM BENZOATE, POTASSIUM SORBATE, L. CYSTEINE ENZYME, ASCORBIC ACID, CALCIUM PROPIONATE." Date available: 07/14/2017 Date last updated by company: 07/14/2017
