Source: USDA Branded Food Products Database Release December 2017 Software v.3.8.6.4 2017-10-02
Report Run at: December 19, 2017 00:23 EST
"Nutrient data for: 45182539, CONCENTRATE WITH VITAMIN C, UPC: 041220864195"
Food Group:  Branded Food Products Database
Common Name:

Nutrient,Unit,Data points,Std. Error,"8.0 OZA = 240.0g",1Value per 100 g,
Proximates
"Energy",kcal,--,--,91,38
"Protein",g,--,--,0.00,0.00
"Total lipid (fat)",g,--,--,0.00,0.00
"Carbohydrate, by difference",g,--,--,21.00,8.75
"Sugars, total",g,--,--,16.99,7.08
Minerals
"Potassium, K",mg,--,--,319,133
"Sodium, Na",mg,--,--,36,15
Vitamins
"Vitamin C, total ascorbic acid",mg,--,--,78.0,32.5
Lipids
Amino Acids
Other
Ingredients
"WHITE GRAPEFRUIT JUICE FROM CONCENTRATE (FILTERED WATER, WHITE GRAPEFRUIT JUICE CONCENTRATE), ASCORBIC ACID (VITAMIN C)*." Date available: 07/14/2017 Date last updated by company: 07/14/2017
