Source: USDA Branded Food Products Database Release December 2017 Software v.3.8.6.4 2017-10-02
Report Run at: December 19, 2017 00:24 EST
"Nutrient data for: 45095876, CONCORD FOODS, MASHED POTATO SEASONING MIX, ROASTED GARLIC & HERBS, UPC: 041409002288"
Food Group:  Branded Food Products Database
Common Name:

Nutrient,Unit,Data points,Std. Error,"1.5 tsp = 3.5g",1Value per 100 g,
Proximates
"Energy",kcal,--,--,10,286
"Protein",g,--,--,0.00,0.00
"Total lipid (fat)",g,--,--,0.00,0.00
"Carbohydrate, by difference",g,--,--,2.00,57.14
"Fiber, total dietary",g,--,--,0.0,0.0
"Sugars, total",g,--,--,0.00,0.00
Minerals
"Calcium, Ca",mg,--,--,0,0
"Iron, Fe",mg,--,--,0.00,0.00
"Sodium, Na",mg,--,--,470,13429
Vitamins
"Vitamin C, total ascorbic acid",mg,--,--,0.0,0.0
"Vitamin A, IU",IU,--,--,0,0
Lipids
"Fatty acids, total saturated",g,--,--,0.000,0.000
"Fatty acids, total trans",g,--,--,0.000,0.000
"Cholesterol",mg,--,--,0,0
Amino Acids
Other
Ingredients
"MALTODEXTRIN, SALT, GARLIC, PARSLEY, SPICES, DEXTROSE, SOYBEAN OIL, HYDROLYZED SOY PROTEIN, PARTIALLY HYDROGENATED SOYBEAN AND COTTONSEED OIL, LESS THAN 2% OF AUTOLYZED YEAST EXTRACT, NATURAL FLAVOR, DISODIUM INOSINATE, AND DISODIUM GUANYLATE" Date available: 06/25/2017 Date last updated by company: 06/25/2017
