Source: USDA Branded Food Products Database Release December 2017 Software v.3.8.6.4 2017-10-02
Report Run at: December 19, 2017 00:27 EST
"Nutrient data for: 45195280, CONDENSED CHICKEN NOODLE SOUP, UPC: 035826094681"
Food Group:  Branded Food Products Database
Common Name:

Nutrient,Unit,Data points,Std. Error,"0.5 cup = 123.0g",1Value per 100 g,
Proximates
"Energy",kcal,--,--,60,49
"Protein",g,--,--,3.00,2.44
"Total lipid (fat)",g,--,--,2.00,1.63
"Carbohydrate, by difference",g,--,--,9.00,7.32
"Fiber, total dietary",g,--,--,1.0,0.8
"Sugars, total",g,--,--,0.00,0.00
Minerals
"Calcium, Ca",mg,--,--,0,0
"Iron, Fe",mg,--,--,0.71,0.58
"Sodium, Na",mg,--,--,900,732
Vitamins
"Vitamin C, total ascorbic acid",mg,--,--,0.0,0.0
"Vitamin A, IU",IU,--,--,598,486
Lipids
"Fatty acids, total saturated",g,--,--,0.504,0.410
"Fatty acids, total trans",g,--,--,0.000,0.000
"Cholesterol",mg,--,--,15,12
Amino Acids
Other
Ingredients
"CHICKEN BROTH, ENRICHED EGG NOODLES (ENRICHED WHEAT FLOUR [WHEAT FLOUR, NIACIN, FERROUS SULFATE, THIAMINE MONONITRATE, RIBOFLAVIN, FOLIC ACID], WHOLE EGGS, EGG WHITES), COOKED CHICKEN MEAT, CONTAINS 2% OR LESS OF SALT, CORN STARCH, CHICKEN FAT, MONOSODIUM GLUTAMATE, SOY PROTEIN ISOLATE, DEXTROSE, GARLIC POWDER, SODIUM PHOSPHATE, CORN MALTODEXTRIN, PAPRIKA, ACACIA GUM, NATURAL FLAVORING, PARTIALLY HYDROGENATED SOYBEAN OIL, SUGAR, BETA CAROTENE (FOR COLOR)." Date available: 07/14/2017 Date last updated by company: 07/14/2017
