Source: USDA Branded Food Products Database Release December 2017 Software v.3.8.6.4 2017-10-02
Report Run at: December 19, 2017 00:30 EST
"Nutrient data for: 45199714, CONDENSED VEGETABLE WITH BEEF STOCK SOUP, UPC: 607880032604"
Food Group:  Branded Food Products Database
Common Name:

Nutrient,Unit,Data points,Std. Error,"0.5 cup = 129.0g",1Value per 100 g,
Proximates
"Energy",kcal,--,--,80,62
"Protein",g,--,--,3.01,2.33
"Total lipid (fat)",g,--,--,1.01,0.78
"Carbohydrate, by difference",g,--,--,14.00,10.85
"Fiber, total dietary",g,--,--,3.0,2.3
"Sugars, total",g,--,--,3.01,2.33
Minerals
"Calcium, Ca",mg,--,--,0,0
"Iron, Fe",mg,--,--,2.73,2.12
"Sodium, Na",mg,--,--,829,643
Vitamins
"Vitamin C, total ascorbic acid",mg,--,--,0.0,0.0
"Vitamin A, IU",IU,--,--,4748,3681
Lipids
"Fatty acids, total saturated",g,--,--,0.000,0.000
"Fatty acids, total trans",g,--,--,0.000,0.000
"Cholesterol",mg,--,--,5,4
Amino Acids
Other
Ingredients
"BEEF STOCK, POTATOES, CARROTS, WATER, PEAS, GREEN BEANS, TOMATO PASTE, ENRICHED PASTA (WHEAT FLOUR, WATER, EGG WHITE, NIACIN, IRON [FERROUS SULFATE], THIAMINE MONONITRATE, RIBOFLAVIN, FOLIC ACID), CORN, HIGH FRUCTOSE CORN SYRUP, CONTAINS LESS THAN 2% OF: MODIFIED FOOD STARCH, CELERY, ONIONS, SALT, MONOSODIUM GLUTAMATE, SOYBEAN OIL, BEEF FAT, VINEGAR, YEAST EXTRACT, ONION POWDER, GARLIC POWDER, DISODIUM GUANYLATE, DISODIUM INOSINATE, OLEORESIN PAPRIKA, NATURAL FLAVOR." Date available: 07/14/2017 Date last updated by company: 07/14/2017
