Source: USDA Branded Food Products Database Release December 2017 Software v.3.8.6.4 2017-10-02
Report Run at: December 19, 2017 00:27 EST
"Nutrient data for: 45077890, CONDENSED CREAM OF MUSHROOM SOUP, UPC: 041318030921"
Food Group:  Branded Food Products Database
Common Name:

Nutrient,Unit,Data points,Std. Error,"0.5 cup = 123.0g",1Value per 100 g,
Proximates
"Energy",kcal,--,--,90,73
"Protein",g,--,--,1.00,0.81
"Total lipid (fat)",g,--,--,7.00,5.69
"Carbohydrate, by difference",g,--,--,6.00,4.88
"Fiber, total dietary",g,--,--,1.0,0.8
"Sugars, total",g,--,--,0.00,0.00
Minerals
"Calcium, Ca",mg,--,--,0,0
"Iron, Fe",mg,--,--,0.00,0.00
"Sodium, Na",mg,--,--,649,528
Vitamins
"Vitamin C, total ascorbic acid",mg,--,--,0.0,0.0
"Vitamin A, IU",IU,--,--,0,0
Lipids
"Fatty acids, total saturated",g,--,--,0.996,0.810
"Fatty acids, total trans",g,--,--,0.000,0.000
"Cholesterol",mg,--,--,0,0
Amino Acids
Other
Ingredients
"WATER, MUSHROOMS, SOYBEAN OIL, MODIFIED CORN STARCH, WHEAT FLOUR, CONTAINS 2% OR LESS OF SEA SALT, CREAM, DRIED WHEY, SOY PROTEIN CONCENTRATE, MALTODEXTRIN, NATURAL AND ARTIFICIAL FLAVOR, MONOSODIUM GLUTAMATE, YEAST EXTRACT, DISODIUM PHOSPHATE, MONOPOTASSIUM GLUTAMATE, POTASSIUM CHLORIDE, HYDROLYZED CORN PROTEIN, DISODIUM INOSINATE, DISODIUM GUANYLATE, SORBITOL, GARLIC POWDER." Date available: 07/14/2017 Date last updated by company: 07/14/2017
