Source: USDA Branded Food Products Database Release December 2017 Software v.3.8.6.4 2017-10-02
Report Run at: December 19, 2017 00:32 EST
"Nutrient data for: 45262639, CONFETTI MINI CUPCAKES, UPC: 078742027975"
Food Group:  Branded Food Products Database
Common Name:

Nutrient,Unit,Data points,Std. Error,"3.0 CUPCAKES = 71.0g",1Value per 100 g,
Proximates
"Energy",kcal,--,--,280,394
"Protein",g,--,--,2.00,2.82
"Total lipid (fat)",g,--,--,10.00,14.08
"Carbohydrate, by difference",g,--,--,44.00,61.97
"Fiber, total dietary",g,--,--,1.0,1.4
"Sugars, total",g,--,--,30.00,42.25
Minerals
"Calcium, Ca",mg,--,--,0,0
"Iron, Fe",mg,--,--,0.81,1.14
"Sodium, Na",mg,--,--,210,296
Vitamins
"Vitamin C, total ascorbic acid",mg,--,--,0.0,0.0
"Vitamin A, IU",IU,--,--,0,0
Lipids
"Fatty acids, total saturated",g,--,--,3.500,4.930
"Fatty acids, total trans",g,--,--,0.000,0.000
"Cholesterol",mg,--,--,20,28
Amino Acids
Other
Ingredients
"SUGAR, WATER, BLEACHED ENRICHED WHEAT FLOUR (FLOUR, NIACIN, REDUCED IRON, THIAMINE MONONITRATE, RIBOFLAVIN, FOLIC ACID), VEGETABLE OIL (SOYBEAN, PALM, CANOLA OILS, MAY ALSO CONTAIN PALM KERNEL OIL), RICE FLOUR, EGGS, MODIFIED CORNSTARCH, CORNSTARCH, PARTIALLY HYDROGENATED VEGETABLE OIL (SOYBEAN, COTTONSEED), CORN SYRUP, LEAVENING (BAKING SODA, SODIUM ACID PYROPHOSPHATE, MONOCALCIUM PHOSPHATE, SODIUM ALUMINIUM PHOSPHATE, ALUMINIUM SULFATE), NONFAT MILK, EGG WHITES, SALT, WHEY (MILK), MONO- AND DIGLYCERIDES, SOY LECITHIN, WHEAT STARCH, HYDROGENATED PALM KERNEL OIL, GUAR GUM, POLYSORBATE 60, CONFECTIONER'S GLAZE, POLYGLYCEROL ESTERS OF FATTY ACIDS, POTASSIUM SORBATE (PRESERVATIVE), GLYCERIN, GUM ARABIC, SODIUM CARBOXYMETHYLCELLULOSE, NATURAL & ARTIFICIAL FLAVORS, DEXTRIN, CARRAGEENAN GUM, SODIUM STEAROYL LACTYLATE, CARNAUBA WAX, WHEAT PROTEIN ISOLATE, DATEM, CALCIUM STEAROYL-2-LACTYLATE, XANTHAN GUM, METHYCELLULOSE, RED 40, YELLOW 5, BLUE 1, YELLOW 6, TITANIUM DIOXIDE (COLOR)." Date available: 07/14/2017 Date last updated by company: 07/14/2017
