Source: USDA Branded Food Products Database Release December 2017 Software v.3.8.6.4 2017-10-02
Report Run at: December 19, 2017 00:31 EST
"Nutrient data for: 45224753, CONFETTI CUPCAKES, UPC: 010995071947"
Food Group:  Branded Food Products Database
Common Name:

Nutrient,Unit,Data points,Std. Error,"3.0 CUPCAKES = 71.0g",1Value per 100 g,
Proximates
"Energy",kcal,--,--,270,380
"Protein",g,--,--,2.00,2.82
"Total lipid (fat)",g,--,--,11.00,15.49
"Carbohydrate, by difference",g,--,--,43.00,60.56
"Fiber, total dietary",g,--,--,1.0,1.4
"Sugars, total",g,--,--,30.00,42.25
Minerals
"Calcium, Ca",mg,--,--,0,0
"Iron, Fe",mg,--,--,0.81,1.14
"Sodium, Na",mg,--,--,200,282
Vitamins
"Vitamin C, total ascorbic acid",mg,--,--,0.0,0.0
"Vitamin A, IU",IU,--,--,0,0
Lipids
"Fatty acids, total saturated",g,--,--,4.501,6.340
"Fatty acids, total trans",g,--,--,0.000,0.000
"Cholesterol",mg,--,--,20,28
Amino Acids
Other
Ingredients
"SUGAR, WATER, BLEACHED ENRICHED WHEAT FLOUR (FLOUR, NIACIN, REDUCED IRON, THIAMINE MONONITRATE, RIBOFLAVIN, FOLIC ACID), VEGETABLE OIL (PALM, SOYBEAN, PALM KERNEL, CANOLA), CORNSTARCH, EGGS, FOOD STARCH-MODIFIED, CORN SYRUP, LEAVENING (BAKING SODA, SODIUM ACID PYROPHOSPHATE, MONOCALCIUM PHOSPHATE, SODIUM ALUMINUM PHOSPHATE, ALUMINUM SULFATE], NONFAT MILK, EGG WHITES, SALT, MONO- AND DIGLYCERIDES, WHEY [MILK], WHEAT STARCH, SOY LECITHIN, POLYGLYCEROL ESTERS OF FATTY ACIDS, GUAR GUM, POLYSORBATE 60, NATURAL & ARTIFICIAL FLAVORS, POTASSIUM SORBATE (PRESERVATIVE), GLYCERIN, GUM ARABIC, SODIUM STEAROYL LACTYLATE, DATEM, WHEAT PROTEIN ISOLATE, BLUE 1, CALCIUM STEAROYL-2-LACTYLATE, SODIUM CARBOXYMETHYLCELLULOSE, XANTHAN GUM, METHYLCELLULOSE, YELLOW 5, YELLOW 6, RED 40, DEXTRIN, CONFECTIONER'S GLAZE, RED 40 LAKE, YELLOW 5 LAKE, BLUE 1 LAKE, CARNAUBA WAX, YELLOW 6 LAKE" Date available: 07/14/2017 Date last updated by company: 07/14/2017
