Source: USDA Branded Food Products Database Release December 2017 Software v.3.8.6.4 2017-10-02
Report Run at: December 19, 2017 00:32 EST
"Nutrient data for: 45289281, CONFETTI SLAW, UPC: 718129021119"
Food Group:  Branded Food Products Database
Common Name:

Nutrient,Unit,Data points,Std. Error,"1 cup = 104.0g",1Value per 100 g,
Proximates
"Energy",kcal,--,--,70,67
"Protein",g,--,--,1.00,0.96
"Total lipid (fat)",g,--,--,0.50,0.48
"Carbohydrate, by difference",g,--,--,15.00,14.42
"Fiber, total dietary",g,--,--,2.0,1.9
"Sugars, total",g,--,--,11.00,10.58
Minerals
"Calcium, Ca",mg,--,--,40,38
"Iron, Fe",mg,--,--,0.07,0.07
"Sodium, Na",mg,--,--,520,500
Vitamins
"Vitamin C, total ascorbic acid",mg,--,--,8.8,8.5
"Vitamin A, IU",IU,--,--,370,356
Lipids
"Fatty acids, total saturated",g,--,--,0.000,0.000
"Fatty acids, total trans",g,--,--,0.000,0.000
"Cholesterol",mg,--,--,0,0
Amino Acids
Other
Ingredients
"GREEN CABBAGE, BROCCOLI STEMS, CARROTS, SEASONED RICE VINEGAR (RICE VINEGAR [WATER, RICE], SUGAR, SALT), RED BELL PEPPER, SUGAR, RED ONION, DISTILLED VINEGAR, APPLE JUICE CONCENTRATE, RED CABBAGE, WATER, SOYBEAN OIL, SODIUM BENZOATE AND POTASSIUM SORBATE ADDED TO PROTECT FLAVOR, POPPY SEED, SEA SALT, CITRIC ACID, SPICE, MODIFIED CORN STARCH, XANTHAN GUM." Date available: 07/14/2017 Date last updated by company: 07/14/2017
