Source: USDA Branded Food Products Database Release December 2017 Software v.3.8.6.4 2017-10-02
Report Run at: December 19, 2017 00:32 EST
"Nutrient data for: 45210564, CONFISERIE CHOCOLADE, UPC: 816095010066"
Food Group:  Branded Food Products Database
Common Name:

Nutrient,Unit,Data points,Std. Error,"6.0 PIECES = 40.0g",1Value per 100 g,
Proximates
"Energy",kcal,--,--,220,550
"Protein",g,--,--,2.00,5.00
"Total lipid (fat)",g,--,--,13.00,32.50
"Carbohydrate, by difference",g,--,--,22.00,55.00
"Fiber, total dietary",g,--,--,0.5,1.2
"Sugars, total",g,--,--,21.00,52.50
Minerals
"Calcium, Ca",mg,--,--,60,150
"Iron, Fe",mg,--,--,0.90,2.25
"Sodium, Na",mg,--,--,20,50
Vitamins
"Vitamin C, total ascorbic acid",mg,--,--,0.0,0.0
"Vitamin A, IU",IU,--,--,125,312
Lipids
"Fatty acids, total saturated",g,--,--,9.000,22.500
"Fatty acids, total trans",g,--,--,0.000,0.000
"Cholesterol",mg,--,--,10,25
Amino Acids
Other
Ingredients
"SUGAR, COCOA BUTTER, WHOLE MILK POWDER, LIME FRUIT FILLING: (SUGAR, LIMES, LIME JUICE FROM CONCENTRATE, GLUCOSE-FRUCTOSE SYRUP (OF WHEAT), THICKENER: PECTIN, ACIDITY REGULATORS: SODIUM CITRATE), YOGURT 3.5% FAT, COCOA MASS, LACTOSE, BUTTER, SOY LECITHIN (EMULSIFIER), FLAVOURING, ACID: LEMON, VODKA FLAVOURING (0.4%), INVERTASE (HUMECTANT)." Date available: 07/14/2017 Date last updated by company: 07/14/2017
