Source: USDA Branded Food Products Database Release December 2017 Software v.3.8.6.4 2017-10-02
Report Run at: December 19, 2017 00:31 EST
"Nutrient data for: 45179584, CONFETTI CAKEIRE BAR CAKE, UPC: 770118227971"
Food Group:  Branded Food Products Database
Common Name:

Nutrient,Unit,Data points,Std. Error,"0.028 OF CAKE = 162.0g",1Value per 100 g,
Proximates
"Energy",kcal,--,--,599,370
"Protein",g,--,--,5.99,3.70
"Total lipid (fat)",g,--,--,40.00,24.69
"Carbohydrate, by difference",g,--,--,56.00,34.57
"Fiber, total dietary",g,--,--,1.0,0.6
"Sugars, total",g,--,--,42.01,25.93
Minerals
"Calcium, Ca",mg,--,--,49,30
"Iron, Fe",mg,--,--,0.53,0.33
"Sodium, Na",mg,--,--,309,191
Vitamins
"Vitamin C, total ascorbic acid",mg,--,--,0.0,0.0
"Vitamin A, IU",IU,--,--,371,229
Lipids
"Fatty acids, total saturated",g,--,--,20.995,12.960
"Fatty acids, total trans",g,--,--,0.000,0.000
"Cholesterol",mg,--,--,170,105
Amino Acids
Other
Ingredients
"HEAVY CREAM (CREAM, MILK SOLIDS, CELLULOSE GEL, CARRAGEENAN, CELLULOSE GUM), CREAM CHEESE (CREAM, MILK, NONFAT MILK, SALT, GUAR GUM, PROPYLENE GLYCOL ALGINATE, CARRAGEENAN, CAROB BEAN GUM, BACTERIAL CULTURE), ENRICHED WHEAT FLOUR (WHEAT FLOUR, NIACIN, IRON, THIAMINE MONONITRATE, MARGARINE (MODIFIED PALM OIL, MODIFIED PALM KERNEL OIL, CANOLA OIL, WATER, SALT, WHEY, VEGETABLE MONOGLYCERIDES, SOY LECITHIN, CITRIC ACID, NATURAL FLAVOR, VITAMIN A PALMITATE, COLORED WITH BETA-CAROTENE, CHOLECALCIFEROL), EGGS, ICING SUGAR (SUGAR, CORN STARCH), WATER, WHITE CHOCOLATE PEARLS (WHITE CHOCOLATE [SUGAR, WHOLE MILK POWDER, COCOA BUTTER, SOY LECITHIN, FLAVOR], RICE BALLS [RICE FLOUR, SUGAR, MALT EXTRACT (WHEAT), SALT], SHELLAC, VEGETABLE OIL, ETHYL ALCOHOL, GUM ARABIC, SUGAR, GLUCOSE, CITRIC ACID), FROZEN YOLK MIX (EGG YOLK, SUGAR) SEMI-SWEET CHOCOLATE (SUGAR, CHOCOLATE LIQUOR, COCOA BUTTER, SOY LECITHIN, NATURAL FLAVOR) WHITE CHOCOLATEY COATING (SUGAR, FRACTIONATED PALM KERNEL OIL, WHEY, NONFAT MILK, SOY LECITHIN, NATURAL FLAVOR), CANOLA OIL, CONFETTI SPRINKLES (CORN SYRUP, ENRICHED WHEAT FLOUR [NIACIN, THIAMIN MONONITRATE RIBOFLAVIN, FOLIC ACID], CORN CEREAL, COTTONSEED AND/OR SOYBEAN OILS." Date available: 10/13/2017 Date last updated by company: 10/13/2017
