Source: USDA Branded Food Products Database Release December 2017 Software v.3.8.6.4 2017-10-02
Report Run at: December 19, 2017 00:32 EST
"Nutrient data for: 45138247, CONIMEX, SWEET SOY SAUCE, UPC: 044406080365"
Food Group:  Branded Food Products Database
Common Name:

Nutrient,Unit,Data points,Std. Error,"1 Tbsp = 15.0g",1Value per 100 g,
Proximates
"Energy",kcal,--,--,45,300
"Protein",g,--,--,1.00,6.67
"Total lipid (fat)",g,--,--,0.00,0.00
"Carbohydrate, by difference",g,--,--,10.00,66.67
"Fiber, total dietary",g,--,--,0.0,0.0
"Sugars, total",g,--,--,10.00,66.67
Minerals
"Calcium, Ca",mg,--,--,20,133
"Iron, Fe",mg,--,--,1.80,12.00
"Sodium, Na",mg,--,--,730,4867
Vitamins
"Vitamin C, total ascorbic acid",mg,--,--,0.0,0.0
"Vitamin A, IU",IU,--,--,0,0
Lipids
"Fatty acids, total saturated",g,--,--,0.000,0.000
"Fatty acids, total trans",g,--,--,0.000,0.000
"Cholesterol",mg,--,--,0,0
Amino Acids
Other
Ingredients
"SUGAR, SOY SAUCE 26.5% (WATER, SOY BEAN, SALT, WHEAT, POTASSIUM SORBATE), MOLASSES, WATER, SALT, BURNT SUGAR SYRUP, POTASSIUM SORBATE, FLAVOUR." Date available: 06/25/2017 Date last updated by company: 06/25/2017
