Source: USDA Branded Food Products Database Release December 2017 Software v.3.8.6.4 2017-10-02
Report Run at: December 19, 2017 00:34 EST
"Nutrient data for: 45215505, CONVERSATION HEARTS CANDY, UPC: 077890341766"
Food Group:  Branded Food Products Database
Common Name:

Nutrient,Unit,Data points,Std. Error,"40.0 PCS = 40.0g",1Value per 100 g,
Proximates
"Energy",kcal,--,--,160,400
"Protein",g,--,--,0.00,0.00
"Total lipid (fat)",g,--,--,0.00,0.00
"Carbohydrate, by difference",g,--,--,39.00,97.50
"Fiber, total dietary",g,--,--,0.0,0.0
"Sugars, total",g,--,--,38.00,95.00
Minerals
"Calcium, Ca",mg,--,--,0,0
"Iron, Fe",mg,--,--,0.00,0.00
"Sodium, Na",mg,--,--,0,0
Vitamins
"Vitamin C, total ascorbic acid",mg,--,--,0.0,0.0
"Vitamin A, IU",IU,--,--,0,0
Lipids
"Fatty acids, total saturated",g,--,--,0.000,0.000
"Fatty acids, total trans",g,--,--,0.000,0.000
"Cholesterol",mg,--,--,0,0
Amino Acids
Other
Ingredients
"SUGAR, CORN SYRUP, CORNSTARCH, GELATIN, NATURAL AND ARTIFICIAL FLAVORS, VEGETABLE GUMS (GUM ARABIC AND XANTHAN), ARTIFICIAL COLORS (FD&C RED #3, RED #40, YELLOW #5, YELLOW #6, BLUE #!)." Date available: 07/14/2017 Date last updated by company: 07/14/2017
