Source: USDA Branded Food Products Database Release December 2017 Software v.3.8.6.4 2017-10-02
Report Run at: December 19, 2017 00:37 EST
"Nutrient data for: 45283501, COOKED PEELED, DEVEINED, TAIL-OFF, UPC: 078742133768"
Food Group:  Branded Food Products Database
Common Name:

Nutrient,Unit,Data points,Std. Error,"23.0 SHRIMP | EDIBLE / ABOUT = 85.0g",1Value per 100 g,
Proximates
"Energy",kcal,--,--,90,106
"Protein",g,--,--,20.00,23.53
"Total lipid (fat)",g,--,--,1.00,1.18
"Carbohydrate, by difference",g,--,--,0.00,0.00
"Fiber, total dietary",g,--,--,0.0,0.0
"Sugars, total",g,--,--,0.00,0.00
Minerals
"Calcium, Ca",mg,--,--,60,71
"Iron, Fe",mg,--,--,0.36,0.42
"Sodium, Na",mg,--,--,200,235
Vitamins
"Vitamin C, total ascorbic acid",mg,--,--,0.0,0.0
"Vitamin A, IU",IU,--,--,0,0
Lipids
"Fatty acids, total saturated",g,--,--,0.000,0.000
"Fatty acids, total trans",g,--,--,0.000,0.000
"Cholesterol",mg,--,--,160,188
Amino Acids
Other
Ingredients
"SHRIMP, SALT, SODIUM TRIPOLYPHOSPHATE (TO RETAIN MOISTURES)." Date available: 07/14/2017 Date last updated by company: 07/14/2017
