Source: USDA Branded Food Products Database Release December 2017 Software v.3.8.6.4 2017-10-02
Report Run at: December 19, 2017 00:53 EST
"Nutrient data for: 45164157, COOKIES, UPC: 045100250221"
Food Group:  Branded Food Products Database
Common Name:

Nutrient,Unit,Data points,Std. Error,"3.0 COOKIES = 36.0g",1Value per 100 g,
Proximates
"Energy",kcal,--,--,170,472
"Protein",g,--,--,2.00,5.56
"Total lipid (fat)",g,--,--,6.00,16.67
"Carbohydrate, by difference",g,--,--,27.00,75.00
"Fiber, total dietary",g,--,--,1.0,2.8
"Sugars, total",g,--,--,13.00,36.11
Minerals
"Calcium, Ca",mg,--,--,20,56
"Iron, Fe",mg,--,--,1.00,2.78
"Sodium, Na",mg,--,--,180,500
Vitamins
"Vitamin C, total ascorbic acid",mg,--,--,0.0,0.0
"Vitamin A, IU",IU,--,--,0,0
Lipids
"Fatty acids, total saturated",g,--,--,2.002,5.560
"Fatty acids, total monounsaturated",g,--,--,2.002,5.560
"Fatty acids, total polyunsaturated",g,--,--,2.498,6.940
"Fatty acids, total trans",g,--,--,0.000,0.000
"Cholesterol",mg,--,--,0,0
Amino Acids
Other
Ingredients
"ENRICHED FLOUR (WHEAT FLOUR, NIACIN, REDUCED IRON, THIAMINE MONONITRATE, RIBOFLAVIN, FOLIC ACID), SUGAR, VEGETABLE OIL (CONTAINS ONE OR MORE OF THE FOLLOWING: CANOLA OIL, CORN OIL, PALM OIL, SOYBEAN OIL), DEXTROSE, CORN SYRUP, CONTAINS 2% OR LESS OF THE FOLLOWING: CARAMEL COLOR, HIGH FRUCTOSE CORN SYRUP, CORNSTARCH, LEAVENING (SODIUM BICARBONATE, MONOCALCIUM PHOSPHATE), COCOA (PROCESSED WITH ALKALI), SALT, ARTIFICIAL FLAVOR, SOY LECITHIN (EMULSIFIER)." Date available: 07/14/2017 Date last updated by company: 07/14/2017
