Source: USDA Branded Food Products Database Release December 2017 Software v.3.8.6.4 2017-10-02
Report Run at: December 19, 2017 00:45 EST
"Nutrient data for: 45126935, COOKIE DOUGH, UPC: 857128001842"
Food Group:  Branded Food Products Database
Common Name:

Nutrient,Unit,Data points,Std. Error,"1 BAR = 32.0g",1Value per 100 g,
Proximates
"Energy",kcal,--,--,100,312
"Protein",g,--,--,10.00,31.25
"Total lipid (fat)",g,--,--,3.00,9.38
"Carbohydrate, by difference",g,--,--,14.00,43.75
"Fiber, total dietary",g,--,--,11.0,34.4
"Sugars, total",g,--,--,0.00,0.00
Minerals
"Calcium, Ca",mg,--,--,50,156
"Iron, Fe",mg,--,--,0.00,0.00
"Sodium, Na",mg,--,--,35,109
Vitamins
"Vitamin C, total ascorbic acid",mg,--,--,0.0,0.0
"Vitamin A, IU",IU,--,--,0,0
Lipids
"Fatty acids, total saturated",g,--,--,2.000,6.250
"Fatty acids, total trans",g,--,--,0.000,0.000
"Cholesterol",mg,--,--,5,16
Amino Acids
Other
Ingredients
"PROTEIN BLEND (WHEY PROTEIN ISOLATE, WHEY PROTEIN CONCENTRATE), ISOMALTO-OLIGOSACCHARIDES (PREBIOTIC FIBER), ALMONDS, UNSWEETENED CHOCOLATE, ERYTHRITOL, INULIN, COCOA BUTTER, SOY LECITHIN, NATURAL FLAVORS, STEVIA, SUCRALOSE." Date available: 10/05/2017 Date last updated by company: 10/05/2017
