Source: USDA Branded Food Products Database Release December 2017 Software v.3.8.6.4 2017-10-02
Report Run at: December 19, 2017 00:41 EST
"Nutrient data for: 45225863, COOKED SHRIMP, UPC: 075391024577"
Food Group:  Branded Food Products Database
Common Name:

Nutrient,Unit,Data points,Std. Error,"3.0 ONZ = 85.0g",1Value per 100 g,
Proximates
"Energy",kcal,--,--,84,99
"Protein",g,--,--,18.00,21.18
"Total lipid (fat)",g,--,--,1.00,1.18
"Carbohydrate, by difference",g,--,--,0.00,0.00
"Fiber, total dietary",g,--,--,0.0,0.0
"Sugars, total",g,--,--,0.00,0.00
Minerals
"Calcium, Ca",mg,--,--,30,35
"Iron, Fe",mg,--,--,2.70,3.18
"Sodium, Na",mg,--,--,190,224
Vitamins
"Vitamin A, IU",IU,--,--,100,118
Lipids
"Fatty acids, total saturated",g,--,--,0.000,0.000
"Fatty acids, total trans",g,--,--,0.000,0.000
"Cholesterol",mg,--,--,166,195
Amino Acids
Other
Ingredients
"SHRIMP, SODIUM TRIPOLYPHOSPHATE (TO RETAIN MOISTURE), SODIUM BISULFITE (PRESERVATIVE)" Date available: 10/17/2017 Date last updated by company: 10/17/2017
