Source: USDA Branded Food Products Database Release December 2017 Software v.3.8.6.4 2017-10-02
Report Run at: December 19, 2017 00:44 EST
"Nutrient data for: 45327275, COOKIE CANDY CORN, UPC: 041420025945"
Food Group:  Branded Food Products Database
Common Name:

Nutrient,Unit,Data points,Std. Error,"15.0 PIECES = 31.0g",1Value per 100 g,
Proximates
"Energy",kcal,--,--,110,355
"Protein",g,--,--,0.00,0.00
"Total lipid (fat)",g,--,--,0.00,0.00
"Carbohydrate, by difference",g,--,--,28.00,90.32
"Fiber, total dietary",g,--,--,0.0,0.0
"Sugars, total",g,--,--,22.00,70.97
Minerals
"Calcium, Ca",mg,--,--,0,0
"Iron, Fe",mg,--,--,0.00,0.00
"Sodium, Na",mg,--,--,60,194
Vitamins
"Vitamin D",IU,--,--,0,0
Lipids
"Fatty acids, total saturated",g,--,--,0.000,0.000
"Fatty acids, total trans",g,--,--,0.000,0.000
"Cholesterol",mg,--,--,0,0
Amino Acids
Other
Ingredients
"SUGAR, CORN SYRUP, CONFECTIONER'S GLAZE (SHELLAC), SALT, NATURAL AND ARTIFICIAL FLAVORS, DEXTROSE, GELATIN, HONEY, SESAME OIL, RED 40, YELLOW 6, YELLOW 5, BLUE 1." Date available: 10/13/2017 Date last updated by company: 10/13/2017
