Source: USDA Branded Food Products Database Release December 2017 Software v.3.8.6.4 2017-10-02
Report Run at: December 19, 2017 00:52 EST
"Nutrient data for: 45148419, COOKIES, UPC: 075450004533"
Food Group:  Branded Food Products Database
Common Name:

Nutrient,Unit,Data points,Std. Error,"2.0 COOKIES = 36.0g",1Value per 100 g,
Proximates
"Energy",kcal,--,--,180,500
"Protein",g,--,--,1.00,2.78
"Total lipid (fat)",g,--,--,9.00,25.00
"Carbohydrate, by difference",g,--,--,25.00,69.44
"Fiber, total dietary",g,--,--,1.0,2.8
"Sugars, total",g,--,--,16.00,44.44
Minerals
"Calcium, Ca",mg,--,--,0,0
"Iron, Fe",mg,--,--,1.50,4.17
"Potassium, K",mg,--,--,50,139
"Sodium, Na",mg,--,--,125,347
Vitamins
"Vitamin C, total ascorbic acid",mg,--,--,0.0,0.0
"Vitamin A, IU",IU,--,--,0,0
Lipids
"Fatty acids, total saturated",g,--,--,5.000,13.890
"Fatty acids, total monounsaturated",g,--,--,2.498,6.940
"Fatty acids, total polyunsaturated",g,--,--,1.001,2.780
"Fatty acids, total trans",g,--,--,0.000,0.000
"Cholesterol",mg,--,--,0,0
Amino Acids
Other
Ingredients
"SUGAR, ENRICHED FLOUR (WHEAT FLOUR, NIACIN, REDUCED IRON, THIAMINE MONONITRATE, RIBOFLAVIN, FOLIC ACID), VEGETABLE OIL SHORTENING (PALM KERNEL AND PALM OILS), COCOA (PROCESSED WITH ALKALI), CORNSTARCH, MODIFIED CORN STARCH, HIGH FRUCTOSE CORN SYRUP, SALT, SOY LECITHIN, BAKING SODA, AMMONIUM BICARBONATE, PEPPERMINT OIL, ARTIFICIAL FLAVOR." Date available: 07/14/2017 Date last updated by company: 07/14/2017
