Source: USDA Branded Food Products Database Release December 2017 Software v.3.8.6.4 2017-10-02
Report Run at: December 19, 2017 00:59 EST
"Nutrient data for: 45252527, COOKIE, UPC: 078742100531"
Food Group:  Branded Food Products Database
Common Name:

Nutrient,Unit,Data points,Std. Error,"1 COOKIE = 114.0g",1Value per 100 g,
Proximates
"Energy",kcal,--,--,520,456
"Protein",g,--,--,7.00,6.14
"Total lipid (fat)",g,--,--,24.00,21.05
"Carbohydrate, by difference",g,--,--,72.00,63.16
"Fiber, total dietary",g,--,--,5.0,4.4
"Sugars, total",g,--,--,42.00,36.84
Minerals
"Calcium, Ca",mg,--,--,60,53
"Iron, Fe",mg,--,--,0.79,0.69
"Sodium, Na",mg,--,--,180,158
Vitamins
"Vitamin C, total ascorbic acid",mg,--,--,0.0,0.0
"Vitamin A, IU",IU,--,--,220,193
Lipids
"Fatty acids, total saturated",g,--,--,12.996,11.400
"Fatty acids, total trans",g,--,--,0.000,0.000
"Cholesterol",mg,--,--,65,57
Amino Acids
Other
Ingredients
"WHEAT FLOUR, SEMI-SWEET CHOCOLATE CHIPS (SUGAR, CHOCOLATE, COCOA BUTTER, MILKFAT, SOY LECITHIN, NATURAL FLAVORS, UNSALTED BUTTER (CREAM, MILK SOLIDS), SUGAR, BROWN SUGAR, WHOLE EGGS, VANILLA EXTRACT, BAKING POWDER (SODIUM ACID PYROPHOSPHATE, SODIUM BICARBONATE, CORNSTARCH, MONOCALCIUM PHOSPHATE), SALT." Date available: 07/14/2017 Date last updated by company: 07/14/2017
