Source: USDA Branded Food Products Database Release December 2017 Software v.3.8.6.4 2017-10-02
Report Run at: December 19, 2017 00:46 EST
"Nutrient data for: 45283965, COOKIE DOUGH, UPC: 733913010391"
Food Group:  Branded Food Products Database
Common Name:

Nutrient,Unit,Data points,Std. Error,"1 BAR = 38.0g",1Value per 100 g,
Proximates
"Energy",kcal,--,--,150,395
"Protein",g,--,--,10.00,26.32
"Total lipid (fat)",g,--,--,4.00,10.53
"Carbohydrate, by difference",g,--,--,18.00,47.37
"Fiber, total dietary",g,--,--,3.0,7.9
"Sugars, total",g,--,--,4.00,10.53
Minerals
"Calcium, Ca",mg,--,--,40,105
"Iron, Fe",mg,--,--,0.38,1.00
"Phosphorus, P",mg,--,--,63,166
"Potassium, K",mg,--,--,80,211
"Sodium, Na",mg,--,--,75,197
Vitamins
"Vitamin C, total ascorbic acid",mg,--,--,0.0,0.0
"Riboflavin",mg,--,--,0.071,0.188
"Vitamin B-6",mg,--,--,0.211,0.554
"Vitamin A, IU",IU,--,--,0,0
Lipids
"Fatty acids, total saturated",g,--,--,0.999,2.630
"Fatty acids, total trans",g,--,--,0.000,0.000
"Cholesterol",mg,--,--,5,13
Amino Acids
Other
Ingredients
"GLUTEN FREE ORGANIC ROLLED OATS, SMART PROTEIN BLEND [WHEY PROTEIN CONCENTRATE, WHEY PROTEIN ISOLATE, CALCIUM CASEINATE, HYDROLYZED WHEY PROTEIN], CHOCOLATE CHIPS [SUGAR, COCOA BUTTER, CHOCOLATE, LIQUOR, MILK, NON-GMO SOY LECITHIN, NATURAL FLAVORS], VEGETABLE GLYCERINE, INULIN, NON-GMO SOY PROTEIN ISOLATE, GELATIN, WATER, ORGANIC SUNFLOWER OIL, YOGURT COATING [SUGAR, PALM KERNEL OIL, WHEY POWDER, SKIM MILK POWDER, YOGURT POWDER (SKIM MILK AND LACTIC ACID), NON-GMO SOY LECITHIN (AS AN EMULSIFIER)], ORGANIC SUGAR, NATURAL FLAVORS, SEA SALT, STEVIA." Date available: 07/14/2017 Date last updated by company: 07/14/2017
