Source: USDA Branded Food Products Database Release December 2017 Software v.3.8.6.4 2017-10-02
Report Run at: December 19, 2017 00:35 EST
"Nutrient data for: 45185405, COOKED EASY PEEL SHRIMP IQF, UPC: 746167110342"
Food Group:  Branded Food Products Database
Common Name:

Nutrient,Unit,Data points,Std. Error,"7.0 SHRIMP | ABOUT = 85.0g",1Value per 100 g,
Proximates
"Energy",kcal,--,--,80,94
"Protein",g,--,--,18.00,21.18
"Total lipid (fat)",g,--,--,1.00,1.18
"Carbohydrate, by difference",g,--,--,0.00,0.00
"Fiber, total dietary",g,--,--,0.0,0.0
"Sugars, total",g,--,--,0.00,0.00
Minerals
"Calcium, Ca",mg,--,--,40,47
"Iron, Fe",mg,--,--,0.36,0.42
"Sodium, Na",mg,--,--,190,224
Vitamins
"Vitamin A, IU",IU,--,--,200,235
Lipids
"Fatty acids, total saturated",g,--,--,0.000,0.000
"Fatty acids, total trans",g,--,--,0.000,0.000
"Cholesterol",mg,--,--,165,194
Amino Acids
Other
Ingredients
"SHRIMP, WATER, SODIUM TRIPOLYPHOSPHATE (TO RETAIN MOISTURE), SALT." Date available: 07/14/2017 Date last updated by company: 07/14/2017
