Source: USDA Branded Food Products Database Release December 2017 Software v.3.8.6.4 2017-10-02
Report Run at: December 19, 2017 01:02 EST
"Nutrient data for: 45081658, COOKWELL & COMPANY, ESCABECHE STYLE SALSA, UPC: 186337000514"
Food Group:  Branded Food Products Database
Common Name:

Nutrient,Unit,Data points,Std. Error,"2.0 Tbsp = 30.0g",1Value per 100 g,
Proximates
"Energy",kcal,--,--,10,33
"Protein",g,--,--,0.00,0.00
"Total lipid (fat)",g,--,--,0.00,0.00
"Carbohydrate, by difference",g,--,--,2.00,6.67
"Fiber, total dietary",g,--,--,0.0,0.0
"Sugars, total",g,--,--,1.00,3.33
Minerals
"Calcium, Ca",mg,--,--,0,0
"Iron, Fe",mg,--,--,0.00,0.00
"Sodium, Na",mg,--,--,120,400
Vitamins
"Vitamin C, total ascorbic acid",mg,--,--,8.1,27.1
"Vitamin A, IU",IU,--,--,338,1127
Lipids
"Fatty acids, total saturated",g,--,--,0.000,0.000
"Fatty acids, total trans",g,--,--,0.000,0.000
"Cholesterol",mg,--,--,0,0
Amino Acids
Other
Ingredients
"ROASTED TOMATO, ROASTED ONION, JALAPENO PEPPERS (JALAPENO PEPPERS, WATER, VINEGAR, CARROTS, SALT, ONIONS, SESAME SEED OIL, GARLIC AND SPICES), ROASTED GARLIC, CILANTRO, KOSHER SALT, LEMON JUICE FROM CONCENTRATE, LIME JUICE CONCENTRATE, AND SPICE." Date available: 09/18/2017 Date last updated by company: 09/18/2017
