Source: USDA Branded Food Products Database Release December 2017 Software v.3.8.6.4 2017-10-02
Report Run at: December 19, 2017 00:55 EST
"Nutrient data for: 45212560, COOKIES, UPC: 816059017117"
Food Group:  Branded Food Products Database
Common Name:

Nutrient,Unit,Data points,Std. Error,"1 COOKIE = 38.0g",1Value per 100 g,
Proximates
"Energy",kcal,--,--,150,395
"Protein",g,--,--,1.00,2.63
"Total lipid (fat)",g,--,--,5.00,13.16
"Carbohydrate, by difference",g,--,--,25.00,65.79
"Fiber, total dietary",g,--,--,0.0,0.0
"Sugars, total",g,--,--,16.00,42.11
Minerals
"Calcium, Ca",mg,--,--,20,53
"Iron, Fe",mg,--,--,0.95,2.49
"Sodium, Na",mg,--,--,90,237
Vitamins
"Vitamin C, total ascorbic acid",mg,--,--,0.0,0.0
"Vitamin A, IU",IU,--,--,131,346
Lipids
"Fatty acids, total saturated",g,--,--,0.999,2.630
"Fatty acids, total trans",g,--,--,0.000,0.000
"Cholesterol",mg,--,--,5,13
Amino Acids
Other
Ingredients
"SUGAR, ENRICHED BLEACHED WHEAT FLOUR (FLOUR, NIACIN, REDUCED IRON, THIAMINE MONONITRATE, RIBOFLAVIN, FOLIC ACID), MARGARINE (PALM OIL, WATER, SOYBEAN OIL, SALT, CONTAINS 2% OR LESS OF: MONO & DIGLYCERIDES, CALCIUM DISODIUM EDTA [PRESERVATIVE] ARTIFICIAL FLAVOR, VITAMIN A PALMITATE), WATER, EGGS, CONTAINS 2% OR LESS OF: CORNSTARCH, VEGETABLE OIL (FRACTIONATED PALM KERNEL) GLUCOSE, SOY LECITHIN, COLORS (CARMINE, RED #3, RED #40, RED #40 LAKE) GUM ARABIC, CARNAUBA WAX, CONFECTIONER'S GLAZE, CORN SYRUP, LEAVENING (BAKING SODA, SODIUM ALUMINUM SULFATE, MONOCALCIUM PHOSPHATE), NONFAT MILK, NATURAL & ARTIFICIAL FLAVOR, GUAR GUM, XANTHAN GUM, POLYSORBATE 60 (/PRESERVATIVE)." Date available: 07/14/2017 Date last updated by company: 07/14/2017
