Source: USDA Branded Food Products Database Release December 2017 Software v.3.8.6.4 2017-10-02
Report Run at: December 19, 2017 00:42 EST
"Nutrient data for: 45226587, COOKED SHRIMP WITH SAUCE, UPC: 802622011040"
Food Group:  Branded Food Products Database
Common Name:

Nutrient,Unit,Data points,Std. Error,"3.0 OZ SHRIMP AND 1 OZ SAUCE = 113.0g",1Value per 100 g,
Proximates
"Energy",kcal,--,--,90,80
"Protein",g,--,--,14.00,12.39
"Total lipid (fat)",g,--,--,0.00,0.00
"Carbohydrate, by difference",g,--,--,6.99,6.19
"Fiber, total dietary",g,--,--,1.0,0.9
"Sugars, total",g,--,--,6.99,6.19
Minerals
"Calcium, Ca",mg,--,--,40,35
"Iron, Fe",mg,--,--,0.00,0.00
"Sodium, Na",mg,--,--,610,540
Vitamins
"Vitamin C, total ascorbic acid",mg,--,--,0.0,0.0
"Vitamin A, IU",IU,--,--,150,133
Lipids
"Fatty acids, total saturated",g,--,--,0.000,0.000
"Fatty acids, total trans",g,--,--,0.000,0.000
"Cholesterol",mg,--,--,145,128
Amino Acids
Other
Ingredients
"COOKED SHRIMP: SHRIMP, SALT. COCKTAIL SAUCE: TOMATO PASTE, WATER, PREPARED HORSERADISH (HORSERADISH, WATER, VINEGAR, SALT, SOYBEAN OIL, ARTIFICIAL MUSTARD FLAVOR) SUGAR, VINEGAR, SALT, SPICES (ONION AND GARLIC), XANTHAN GUM, POTASSIUM SORBATE, SODIUM BENZOATE, ARTIFICIAL HORSERADISH FLAVOR, RED 40." Date available: 07/14/2017 Date last updated by company: 07/14/2017
