Source: USDA Branded Food Products Database Release December 2017 Software v.3.8.6.4 2017-10-02
Report Run at: December 19, 2017 00:49 EST
"Nutrient data for: 45197465, COOKIES & CREAM PIE FILLING MIX, UPC: 072392029433"
Food Group:  Branded Food Products Database
Common Name:

Nutrient,Unit,Data points,Std. Error,"0.167 PACKAGE = 26.0g",1Value per 100 g,
Proximates
"Energy",kcal,--,--,100,385
"Protein",g,--,--,0.00,0.00
"Total lipid (fat)",g,--,--,1.00,3.85
"Carbohydrate, by difference",g,--,--,23.00,88.46
"Fiber, total dietary",g,--,--,0.0,0.0
"Sugars, total",g,--,--,17.00,65.38
Minerals
"Calcium, Ca",mg,--,--,20,77
"Iron, Fe",mg,--,--,1.18,4.53
"Sodium, Na",mg,--,--,310,1192
Vitamins
"Vitamin C, total ascorbic acid",mg,--,--,0.0,0.0
"Vitamin A, IU",IU,--,--,0,0
Lipids
"Fatty acids, total saturated",g,--,--,0.000,0.000
"Fatty acids, total trans",g,--,--,0.000,0.000
"Cholesterol",mg,--,--,0,0
Amino Acids
Other
Ingredients
"SUGAR, COOKIE PIECES (BLEACHED WHEAT FLOUR, SUGAR, COCOA (PROCESSES WITH ALKALI), PALM OIL, CORN SYRUP, CORN FLOUR, SOY LECITHIN, BAKING SODA, SALT, NATURAL AND ARTIFICIAL FLAVORS), MODIFIED FOOD STARCH, CONTAINS 2% OR LESS OF THE FOLLOWING: ARTIFICIAL COLOR, DISODIUM PHOSPHATE, TETRASODIUM PYROPHOSPHATE, ARTIFICIAL FLAVORS, SALT, COCOA (PROCESSED WITH ALKALI), MONO- AND DIGLYCERIDES, CALCIUM SULFATE, COTTONSEED OIL, TBHQ AND CITRIC ACID TO PRESERVE FRESHNESS." Date available: 07/14/2017 Date last updated by company: 07/14/2017
