Source: USDA Branded Food Products Database Release December 2017 Software v.3.8.6.4 2017-10-02
Report Run at: December 19, 2017 00:47 EST
"Nutrient data for: 45212951, COOKIE MIX, UPC: 899904001295"
Food Group:  Branded Food Products Database
Common Name:

Nutrient,Unit,Data points,Std. Error,"14.0 GRM = 14.0g",1Value per 100 g,
Proximates
"Energy",kcal,--,--,57,407
"Protein",g,--,--,1.00,7.14
"Total lipid (fat)",g,--,--,1.00,7.14
"Carbohydrate, by difference",g,--,--,12.00,85.71
"Fiber, total dietary",g,--,--,0.3,1.8
"Sugars, total",g,--,--,7.00,50.00
Minerals
"Calcium, Ca",mg,--,--,10,71
"Iron, Fe",mg,--,--,1.03,7.34
"Sodium, Na",mg,--,--,36,257
Vitamins
"Vitamin C, total ascorbic acid",mg,--,--,0.0,0.0
"Vitamin A, IU",IU,--,--,0,0
Lipids
"Fatty acids, total saturated",g,--,--,0.400,2.860
"Fatty acids, total trans",g,--,--,0.000,0.000
"Cholesterol",mg,--,--,0,0
Amino Acids
Other
Ingredients
"UNBLEACHED FLOUR, SUGAR, LIGHT BROWN SUGAR, CHOCOLATE CHIPS (CHOCOLATE LIQUOR, COCOA BUTTER, SOY LECITHIN-AN EMULSIFIER, VANILLA), DRIED CHERRIES, OATS, NATURAL FLAVORING, BAKING POWDER, SEA SALT." Date available: 07/14/2017 Date last updated by company: 07/14/2017
