Source: USDA Branded Food Products Database Release December 2017 Software v.3.8.6.4 2017-10-02
Report Run at: December 19, 2017 00:44 EST
"Nutrient data for: 45211046, COOKIE CRISPS, UPC: 073866500274"
Food Group:  Branded Food Products Database
Common Name:

Nutrient,Unit,Data points,Std. Error,"2.0 COOKIES = 38.0g",1Value per 100 g,
Proximates
"Energy",kcal,--,--,170,447
"Protein",g,--,--,2.00,5.26
"Total lipid (fat)",g,--,--,9.00,23.68
"Carbohydrate, by difference",g,--,--,22.00,57.89
"Fiber, total dietary",g,--,--,1.0,2.6
"Sugars, total",g,--,--,13.00,34.21
Minerals
"Calcium, Ca",mg,--,--,20,53
"Iron, Fe",mg,--,--,0.95,2.49
"Sodium, Na",mg,--,--,95,250
Vitamins
"Vitamin C, total ascorbic acid",mg,--,--,0.0,0.0
"Vitamin A, IU",IU,--,--,527,1386
Lipids
"Fatty acids, total saturated",g,--,--,6.000,15.790
"Fatty acids, total trans",g,--,--,0.000,0.000
"Cholesterol",mg,--,--,20,53
Amino Acids
Other
Ingredients
"BLEACHED WHEAT FLOUR(BLEACHED WHEAT FLOUR, MALTED BARLEY FLOUR, NIACIN, REDUCED IRON. POTASSIUM BROMATE, THIAMINE, MONONITRATE, RIBOFLAVIN, FOLIC ACID), BUTTER, CHOCOLATE CHIPS(SUGAR, CHOCOLATE LIQUOR, COCOA BUTTER, DEXTROSE, SOY LECITHIN), SUGAR, BROWN SUGAR, HEAVY CREAM, COCOA, BAKING SODA, SALT." Date available: 07/14/2017 Date last updated by company: 07/14/2017
