Source: USDA Branded Food Products Database Release December 2017 Software v.3.8.6.4 2017-10-02
Report Run at: December 19, 2017 00:44 EST
"Nutrient data for: 45252191, COOKIE CRUSH, SUGAR COOKIES, UPC: 012265069265"
Food Group:  Branded Food Products Database
Common Name:

Nutrient,Unit,Data points,Std. Error,"1.75 COOKIES = 30.0g",1Value per 100 g,
Proximates
"Energy",kcal,--,--,130,433
"Protein",g,--,--,1.00,3.33
"Total lipid (fat)",g,--,--,5.00,16.67
"Carbohydrate, by difference",g,--,--,20.00,66.67
"Fiber, total dietary",g,--,--,0.0,0.0
"Sugars, total",g,--,--,9.00,30.00
Minerals
"Calcium, Ca",mg,--,--,0,0
"Iron, Fe",mg,--,--,1.20,4.00
"Sodium, Na",mg,--,--,70,233
Vitamins
"Vitamin C, total ascorbic acid",mg,--,--,0.0,0.0
"Vitamin A, IU",IU,--,--,0,0
Lipids
"Fatty acids, total saturated",g,--,--,1.500,5.000
"Fatty acids, total trans",g,--,--,1.500,5.000
"Cholesterol",mg,--,--,0,0
Amino Acids
Other
Ingredients
"ENRICHED BLEACHED FLOUR (WHEAT, NIACIN, REDUCED IRON, THIAMINE MONONITRATE, RIBOFLAVIN, FOLIC ACID), SUGAR, VEGETABLE SHORTENING (PARTIALLY HYDROGENATED SOYBEAN AND COTTONSEED OILS, LECITHIN, TBHQ AND CITRIC ACID IN PROPYLENE GLYCOL [PRESERVATIVES]), WATER, CORN SUGAR, NATURAL AND ARTIFICIAL FLAVORS (CONTAINS MILK), COCOA (ALKALI), SALT, SOY LECITHIN, (FD&C YELLOW #5 & #6, RED #40), SODIUM BICARBONATE, CARAMEL COLOR." Date available: 07/14/2017 Date last updated by company: 07/14/2017
