Source: USDA Branded Food Products Database Release December 2017 Software v.3.8.6.4 2017-10-02
Report Run at: December 19, 2017 00:48 EST
"Nutrient data for: 45229990, COOKIE SANDWICHES, UPC: 076410904375"
Food Group:  Branded Food Products Database
Common Name:

Nutrient,Unit,Data points,Std. Error,"1 PACKAGE, 6 COOKIES = 45.0g",1Value per 100 g,
Proximates
"Energy",kcal,--,--,220,489
"Protein",g,--,--,2.00,4.44
"Total lipid (fat)",g,--,--,9.00,20.00
"Carbohydrate, by difference",g,--,--,32.00,71.11
"Fiber, total dietary",g,--,--,1.0,2.2
"Sugars, total",g,--,--,15.00,33.33
Minerals
"Calcium, Ca",mg,--,--,0,0
"Iron, Fe",mg,--,--,0.40,0.89
"Sodium, Na",mg,--,--,130,289
Vitamins
"Vitamin C, total ascorbic acid",mg,--,--,0.0,0.0
"Vitamin A, IU",IU,--,--,0,0
Lipids
"Fatty acids, total saturated",g,--,--,3.001,6.670
"Fatty acids, total monounsaturated",g,--,--,3.001,6.670
"Fatty acids, total polyunsaturated",g,--,--,1.998,4.440
"Fatty acids, total trans",g,--,--,0.000,0.000
"Cholesterol",mg,--,--,0,0
Amino Acids
Other
Ingredients
"ENRICHED FLOUR (WHEAT FLOUR, NIACIN, REDUCED IRON, THIAMINE MONONITRATE, RIBOFLAVIN, FOLIC ACID), SUGAR, VEGETABLE OIL (CONTAINS ONE OR MORE OF THE FOLLOWING: PALM OIL, SOYBEAN OIL, CANOLA OIL, CORN OIL), DEXTROSE, CORN SYRUP, SALT, LEAVENING (SODIUM BICARBONATE, AMMONIUM BICARBONATE), NATURAL AND ARTIFICIAL FLAVORS, SOY LECITHIN (EMULSIFIER)." Date available: 07/14/2017 Date last updated by company: 07/14/2017
