Source: USDA Branded Food Products Database Release December 2017 Software v.3.8.6.4 2017-10-02
Report Run at: December 19, 2017 00:35 EST
"Nutrient data for: 45043970, COOKED BRATWURST TRADITIONAL GERMAN SAUSAGE, UPC: 753633001431"
Food Group:  Branded Food Products Database
Common Name:

Nutrient,Unit,Data points,Std. Error,"1 LINK = 90.0g",1Value per 100 g,
Proximates
"Energy",kcal,--,--,230,256
"Protein",g,--,--,12.00,13.33
"Total lipid (fat)",g,--,--,21.00,23.33
"Carbohydrate, by difference",g,--,--,0.00,0.00
"Fiber, total dietary",g,--,--,0.0,0.0
"Sugars, total",g,--,--,0.00,0.00
Minerals
"Calcium, Ca",mg,--,--,40,44
"Iron, Fe",mg,--,--,1.02,1.13
"Sodium, Na",mg,--,--,570,633
Vitamins
"Vitamin C, total ascorbic acid",mg,--,--,0.0,0.0
"Vitamin A, IU",IU,--,--,0,0
Lipids
"Fatty acids, total saturated",g,--,--,8.001,8.890
"Fatty acids, total trans",g,--,--,0.000,0.000
"Cholesterol",mg,--,--,55,61
Amino Acids
Other
Ingredients
"PORK, WATER, VEAL, SALT, SODIUM LACTATE, MILK, SPICES, FLAVORINGS, SODIUM PHOSPHATE, DEXTROSE, SODIUM DIACETATE, CITRIC ACID." Date available: 06/24/2017 Date last updated by company: 06/24/2017
