Source: USDA Branded Food Products Database Release December 2017 Software v.3.8.6.4 2017-10-02
Report Run at: December 19, 2017 00:50 EST
"Nutrient data for: 45280627, COOKIES'N CREAM ICE CREAM, UPC: 021130081677"
Food Group:  Branded Food Products Database
Common Name:

Nutrient,Unit,Data points,Std. Error,"0.5 cup = 65.0g",1Value per 100 g,
Proximates
"Energy",kcal,--,--,150,231
"Protein",g,--,--,2.00,3.08
"Total lipid (fat)",g,--,--,8.00,12.31
"Carbohydrate, by difference",g,--,--,17.00,26.15
"Fiber, total dietary",g,--,--,0.0,0.0
"Sugars, total",g,--,--,13.00,20.00
Minerals
"Calcium, Ca",mg,--,--,80,123
"Iron, Fe",mg,--,--,0.40,0.62
"Sodium, Na",mg,--,--,65,100
Vitamins
"Vitamin C, total ascorbic acid",mg,--,--,0.0,0.0
"Vitamin A, IU",IU,--,--,225,346
Lipids
"Fatty acids, total saturated",g,--,--,4.498,6.920
"Fatty acids, total trans",g,--,--,0.000,0.000
"Cholesterol",mg,--,--,25,38
Amino Acids
Other
Ingredients
"MILK, CREAM, SUGAR, CHOCOLATY SANDWICH COOKIE (SUGAR, ENRICHED FLOUR [WHEAT FLOUR, NIACIN, REDUCED IRON, THIAMIN MONONITRATE, RIBOFLAVIN, FOLIC ACID], VEGETABLE OIL [SOYBEAN, PALM, PALM KERNEL OIL WITH TBHQ {PRESERVATIVE}], COCOA PROCESSED WITH ALKALI, INVERT SUGAR, CONTAINS TWO PERCENT OR LESS OF YELLOW CORN FLOUR, CHOCOLATE, CORNSTARCH, SALT, LEAVENING [BAKING SODA, MONOCALCIUM PHOSPHATE], WHEY, NATURAL AND ARTIFICIAL FLAVOR, SOY LECITHIN), CORN SYRUP, NONFAT MILK, WHEY, CONTAINS LESS THAN 2% OF: VANILLIN (AN ARTIFICIAL FLAVOR), MONO- AND DIGLYCERIDES, GUAR GUM, LOCUST BEAN GUM, POLYSORBATE 80, CARRAGEENAN, ANNATTO (FOR COLOR)." Date available: 07/14/2017 Date last updated by company: 07/14/2017
