Source: USDA Branded Food Products Database Release December 2017 Software v.3.8.6.4 2017-10-02
Report Run at: December 19, 2017 00:43 EST
"Nutrient data for: 45265784, COOKIE BARS, UPC: 040000490722"
Food Group:  Branded Food Products Database
Common Name:

Nutrient,Unit,Data points,Std. Error,"2.0 COOKIES = 50.7g",1Value per 100 g,
Proximates
"Energy",kcal,--,--,250,493
"Protein",g,--,--,2.00,3.94
"Total lipid (fat)",g,--,--,12.00,23.67
"Carbohydrate, by difference",g,--,--,34.00,67.06
"Fiber, total dietary",g,--,--,1.0,2.0
"Sugars, total",g,--,--,24.00,47.34
Minerals
"Calcium, Ca",mg,--,--,40,79
"Iron, Fe",mg,--,--,0.35,0.70
"Sodium, Na",mg,--,--,100,197
Vitamins
"Vitamin A, IU",IU,--,--,100,197
Lipids
"Fatty acids, total saturated",g,--,--,7.002,13.810
"Fatty acids, total trans",g,--,--,0.000,0.000
"Cholesterol",mg,--,--,5,10
Amino Acids
Other
Ingredients
"MILK CHOCOLATE (SUGAR, COCOA BUTTER, CHOCOLATE, SKIM MILK, LACTOSE, MILKFAT, SOY LECITHIN, PGPR, ARTIFICIAL FLAVORS), SUGAR, ENRICHED WHEAT FLOUR (WHEAT FLOUR, NIACIN, REDUCED IRON, THIAMINE MONONITRATE, RIBOFLAVIN, FOLIC ACID), PALM OIL, CORN SYRUP, SKIM MILK, DEXTROSE, LESS THAN 2% - FOOD STARCH-MODIFIED, SALT, COCOA POWDER, BAKING SODA, SOY LECITHIN, ARTIFICIAL FLAVOR." Date available: 07/14/2017 Date last updated by company: 07/14/2017
