Source: USDA Branded Food Products Database Release December 2017 Software v.3.8.6.4 2017-10-02
Report Run at: December 19, 2017 00:59 EST
"Nutrient data for: 45263855, COOKING KIT, UPC: 858717004534"
Food Group:  Branded Food Products Database
Common Name:

Nutrient,Unit,Data points,Std. Error,"1 CUP PREPARED | ABOUT = 72.0g",1Value per 100 g,
Proximates
"Energy",kcal,--,--,280,389
"Protein",g,--,--,6.00,8.33
"Total lipid (fat)",g,--,--,6.00,8.33
"Carbohydrate, by difference",g,--,--,51.00,70.83
"Fiber, total dietary",g,--,--,3.0,4.2
"Sugars, total",g,--,--,2.00,2.78
Minerals
"Calcium, Ca",mg,--,--,40,56
"Iron, Fe",mg,--,--,0.90,1.25
"Sodium, Na",mg,--,--,300,417
Vitamins
"Vitamin C, total ascorbic acid",mg,--,--,7.5,10.4
"Vitamin A, IU",IU,--,--,187,260
Lipids
"Fatty acids, total saturated",g,--,--,2.498,3.470
"Fatty acids, total trans",g,--,--,0.000,0.000
"Cholesterol",mg,--,--,0,0
Amino Acids
Other
Ingredients
"GRAIN PACKET - SHORT GRAIN BROWN RICE (SHORT GRAIN MILLED RICE, BAMBOO EXTRACT). SAUCE PACKET - SOY NUT BUTTER (TOASTED SOY, SOY OIL, CANE SUGAR, MONOGLYCERIDE, SEA SALT), WATER, TAMARI SOY SAUCE (WATER, SOYBEANS, SALT, SUGAR), SUGAR, RICE VINEGAR, SESAME OIL, CONTAINS LESS THAN 2% OF EACH OF THE FOLLOWING: SRIRACHA CHILI SAUCE (RED CHILI PEPPER, VINEGAR, SUGAR, GARLIC, SALT, NATURAL FLAVOR), CITRIC ACID, SUNFLOWER LECITHIN, GINGER POWDER, GARLIC POWDER, XANTHAN GUM. SPICE PACKET - COCONUT MILK POWDER (COCONUT MILK, TAPIOCA SYRUP, SUGAR ESTERS), TOASTED SESAME SEEDS, RED BELL PEPPERS*, SEA SALT, SILICON DIOXIDE, SUGAR, CORIANDER, TURMERIC, LEMON GRASS." Date available: 07/14/2017 Date last updated by company: 07/14/2017
