Source: USDA Branded Food Products Database Release December 2017 Software v.3.8.6.4 2017-10-02
Report Run at: December 19, 2017 00:51 EST
"Nutrient data for: 45163546, COOKIES UNITED, MINIONS DESPICABLE ME, EASTER DECORATED COOKIE, UPC: 037695162546"
Food Group:  Branded Food Products Database
Common Name:

Nutrient,Unit,Data points,Std. Error,"1 COOKIE = 50.0g",1Value per 100 g,
Proximates
"Energy",kcal,--,--,220,440
"Protein",g,--,--,2.00,4.00
"Total lipid (fat)",g,--,--,6.00,12.00
"Carbohydrate, by difference",g,--,--,39.00,78.00
"Fiber, total dietary",g,--,--,1.0,2.0
"Sugars, total",g,--,--,23.00,46.00
Minerals
"Calcium, Ca",mg,--,--,40,80
"Iron, Fe",mg,--,--,1.08,2.16
"Sodium, Na",mg,--,--,85,170
Vitamins
"Vitamin C, total ascorbic acid",mg,--,--,0.0,0.0
"Vitamin A, IU",IU,--,--,100,200
Lipids
"Fatty acids, total saturated",g,--,--,3.000,6.000
"Fatty acids, total trans",g,--,--,0.000,0.000
"Cholesterol",mg,--,--,0,0
Amino Acids
Other
Ingredients
"ENRICHED WHEAT FLOUR (WHEAT FLOUR, NIACIN, REDUCED IRON, THIAMINE MONONITRATE, RIBOFLAVIN, FOLIC ACID), SUGAR, INVERT SUGAR, PALM OIL SHORTENING, MARGARINE (PALM OIL, WATER, SALT, VEGETABLE MONO-AND DIGLYCERIDES, SOY LECITHIN, PRESERVATIVES (SODIUM BENZOATE, CITRIC ACID), ARTIFICIAL FLAVOR, BETA-CAROTENE {COLOR}, VITAMIN A PALMITATE), EGGS, NATURAL AND ARTIFICIAL FLAVORS, SALT, CREAM OF TARTAR, SODIUM BICARBONATE, WHEY POWDER {MILK}, ICING INGREDIENTS: SUGAR, INVERT SUGAR, WATER, SOY OIL, EGG WHITES, CREAM OF TARTAR, NATURAL AND ARTIFICIAL FLAVOR, TITANIUM DIOXIDE, YELLOW 5, YELLOW 6, RED 3, RED 40, BLUE 1, BLUE 2." Date available: 07/14/2017 Date last updated by company: 07/14/2017
