Source: USDA Branded Food Products Database Release December 2017 Software v.3.8.6.4 2017-10-02
Report Run at: December 19, 2017 01:00 EST
"Nutrient data for: 45197728, COOKING SAUCE CHILI STARTER, UPC: 073848002765"
Food Group:  Branded Food Products Database
Common Name:

Nutrient,Unit,Data points,Std. Error,"0.5 cup = 125.0g",1Value per 100 g,
Proximates
"Energy",kcal,--,--,80,64
"Protein",g,--,--,4.00,3.20
"Total lipid (fat)",g,--,--,1.00,0.80
"Carbohydrate, by difference",g,--,--,16.00,12.80
"Fiber, total dietary",g,--,--,3.0,2.4
"Sugars, total",g,--,--,3.00,2.40
Minerals
"Calcium, Ca",mg,--,--,80,64
"Iron, Fe",mg,--,--,0.91,0.73
"Sodium, Na",mg,--,--,890,712
Vitamins
"Vitamin C, total ascorbic acid",mg,--,--,200.9,160.7
"Vitamin A, IU",IU,--,--,508,406
Lipids
"Fatty acids, total saturated",g,--,--,0.200,0.160
"Fatty acids, total trans",g,--,--,0.000,0.000
"Cholesterol",mg,--,--,0,0
Amino Acids
Other
Ingredients
"GOOD CLEAN INGREDIENTS: BEANS (BLACK, RED KIDNEY, WHITE), TOMATOES, RED & GREEN BELL PEPPERS, ONIONS, CAYENNE PEPPER SAUCE (AGED CAYENNE PEPPERS, DISTILLED VINEGAR, SALT, GARLIC), GARLIC, SPICES, ROASTED GARLIC, CORN STARCH, ANCHO & CHIPOTLE CHILI POWDER, SEA SALT, ASCORBIC ACID (VITAMIN C), NATURAL FLAVOR, GUAR GUM." Date available: 07/14/2017 Date last updated by company: 07/14/2017
