Source: USDA Branded Food Products Database Release December 2017 Software v.3.8.6.4 2017-10-02
Report Run at: December 19, 2017 00:35 EST
"Nutrient data for: 45221109, COOKED BRATWURST, UPC: 741745101590"
Food Group:  Branded Food Products Database
Common Name:

Nutrient,Unit,Data points,Std. Error,"1 LINK = 80.0g",1Value per 100 g,
Proximates
"Energy",kcal,--,--,230,288
"Protein",g,--,--,11.00,13.75
"Total lipid (fat)",g,--,--,24.00,30.00
"Carbohydrate, by difference",g,--,--,2.00,2.50
"Fiber, total dietary",g,--,--,0.0,0.0
"Sugars, total",g,--,--,0.00,0.00
Minerals
"Calcium, Ca",mg,--,--,20,25
"Iron, Fe",mg,--,--,0.50,0.62
"Sodium, Na",mg,--,--,1040,1300
Vitamins
"Vitamin C, total ascorbic acid",mg,--,--,0.0,0.0
"Vitamin A, IU",IU,--,--,0,0
Lipids
"Fatty acids, total saturated",g,--,--,7.000,8.750
"Fatty acids, total trans",g,--,--,0.000,0.000
"Cholesterol",mg,--,--,55,69
Amino Acids
Other
Ingredients
"PORK, WATER, SALT, SODIUM LACTATE, DEXTROSE, SPICES, MONOSODIUM GLUTAMATE, SODIUM DIACETATE, LEMON JUICE POWDER (CORN SYRUP SOLIDS, LEMON JUICE SOLIDS, LEMON OIL), SPICE EXTRACTIVES. IN HOG CASINGS." Date available: 09/08/2017 Date last updated by company: 09/08/2017
