Source: USDA Branded Food Products Database Release December 2017 Software v.3.8.6.4 2017-10-02
Report Run at: December 19, 2017 00:48 EST
"Nutrient data for: 45234972, COOKIES AND CREME, UPC: 753656709215"
Food Group:  Branded Food Products Database
Common Name:

Nutrient,Unit,Data points,Std. Error,"1 BAR = 60.0g",1Value per 100 g,
Proximates
"Energy",kcal,--,--,230,383
"Protein",g,--,--,20.00,33.33
"Total lipid (fat)",g,--,--,7.00,11.67
"Carbohydrate, by difference",g,--,--,25.00,41.67
"Fiber, total dietary",g,--,--,1.0,1.7
"Sugars, total",g,--,--,0.00,0.00
Minerals
"Calcium, Ca",mg,--,--,80,133
"Iron, Fe",mg,--,--,0.96,1.60
"Sodium, Na",mg,--,--,180,300
Vitamins
"Vitamin C, total ascorbic acid",mg,--,--,0.0,0.0
"Vitamin A, IU",IU,--,--,0,0
Lipids
"Fatty acids, total saturated",g,--,--,3.498,5.830
"Fatty acids, total trans",g,--,--,0.000,0.000
"Cholesterol",mg,--,--,5,8
Amino Acids
Other
Ingredients
"PROTEIN BLEND (WHEY PROTEIN ISOLATE, SOY PROTEIN ISOLATE, CASEIN, CALCIUM CASEINATE), COATING (MALTITOL, COCOA BUTTER, MILK FAT, SODIUM CASEINATE, SOY LECITHIN, NATURAL FLAVORS, TOCOPHEROLS), GLYCERIN, MALTITOL, WATER, PEANUTS, ALKALIZED COCOA, SOY CRISPS (SOY PROTEIN ISOLATE, RICE FLOUR, SALT), COCOA SOY CRISPS (SOY PROTEIN ISOLATE, ALKALIZED COCOA, TAPIOCA STARCH), NATURAL FLAVORS, CANOLA OIL, SOY LECITHIN, CHOCOLATE, SEA SALT." Date available: 06/25/2017 Date last updated by company: 06/25/2017
