Source: USDA Branded Food Products Database Release December 2017 Software v.3.8.6.4 2017-10-02
Report Run at: December 19, 2017 00:42 EST
"Nutrient data for: 45255341, COOKED SHRIMP WITH COCKTAIL SAUCE, UPC: 085239073407"
Food Group:  Branded Food Products Database
Common Name:

Nutrient,Unit,Data points,Std. Error,"3.0 OZ COOKED SHRIMP & 1 OZ SAUCE = 113.0g",1Value per 100 g,
Proximates
"Energy",kcal,--,--,90,80
"Protein",g,--,--,12.99,11.50
"Total lipid (fat)",g,--,--,0.99,0.88
"Carbohydrate, by difference",g,--,--,6.99,6.19
"Fiber, total dietary",g,--,--,1.0,0.9
"Sugars, total",g,--,--,6.99,6.19
Minerals
"Calcium, Ca",mg,--,--,20,18
"Iron, Fe",mg,--,--,0.00,0.00
"Sodium, Na",mg,--,--,960,850
Vitamins
"Vitamin C, total ascorbic acid",mg,--,--,0.0,0.0
"Vitamin A, IU",IU,--,--,0,0
Lipids
"Fatty acids, total saturated",g,--,--,0.000,0.000
"Fatty acids, total trans",g,--,--,0.000,0.000
"Cholesterol",mg,--,--,120,106
Amino Acids
Other
Ingredients
"SHRIMP (LITOPENAEUS VANNAMEI), SALT, SODIUM TRIPOLYPHOSPHATE, COCKTAIL SAUCE: WATER, TOMATO PASTE, SUGAR, HORSERADISH (HORSERADISH, WATER, VINEGAR, SALT, SOYBEAN OIL, ARTIFICIAL FLAVOR), SALT, CITRIC ACID, ACETIC ACID, MODIFIED TAPIOCA STARCH, XANTHAN GUM, CARRAGEENAN, SPICES, ONION, GARLIC." Date available: 07/14/2017 Date last updated by company: 07/14/2017
