Source: USDA Branded Food Products Database Release December 2017 Software v.3.8.6.4 2017-10-02
Report Run at: December 19, 2017 00:55 EST
"Nutrient data for: 45212134, COOKIES, UPC: 698997809456"
Food Group:  Branded Food Products Database
Common Name:

Nutrient,Unit,Data points,Std. Error,"2.0 COOKIES = 45.0g",1Value per 100 g,
Proximates
"Energy",kcal,--,--,200,444
"Protein",g,--,--,2.00,4.44
"Total lipid (fat)",g,--,--,10.00,22.22
"Carbohydrate, by difference",g,--,--,28.00,62.22
"Fiber, total dietary",g,--,--,2.0,4.4
"Sugars, total",g,--,--,16.00,35.56
Minerals
"Calcium, Ca",mg,--,--,0,0
"Iron, Fe",mg,--,--,2.00,4.44
"Sodium, Na",mg,--,--,140,311
Vitamins
"Vitamin C, total ascorbic acid",mg,--,--,0.0,0.0
"Vitamin A, IU",IU,--,--,222,493
Lipids
"Fatty acids, total saturated",g,--,--,5.998,13.330
"Fatty acids, total trans",g,--,--,0.000,0.000
"Cholesterol",mg,--,--,35,78
Amino Acids
Other
Ingredients
"DRIED CANE SYRUP, BUTTER, SEMI-SWEET CHOCOLATE CHIPS (CANE SUGAR, CHOCOLATE LIQUOR, COCOA BUTTER), BROWN RICE FLOUR, TAPIOCA STARCH, SUGAR, EGGS, COCOA POWDER (PROCESSED WITH ALKALI), WATER, POTATO STARCH, VANILLA EXTRACT, SALT, XANTHAN GUM, BAKING SODA." Date available: 07/14/2017 Date last updated by company: 07/14/2017
