Source: USDA Branded Food Products Database Release December 2017 Software v.3.8.6.4 2017-10-02
Report Run at: December 19, 2017 00:43 EST
"Nutrient data for: 45184772, COOKED WHITE SHRIMP, UPC: 659878008375"
Food Group:  Branded Food Products Database
Common Name:

Nutrient,Unit,Data points,Std. Error,"3.5 ONZ = 100.0g",1Value per 100 g,
Proximates
"Energy",kcal,--,--,60,60
"Protein",g,--,--,12.00,12.00
"Total lipid (fat)",g,--,--,1.00,1.00
"Carbohydrate, by difference",g,--,--,0.00,0.00
"Fiber, total dietary",g,--,--,0.0,0.0
"Sugars, total",g,--,--,0.00,0.00
Minerals
"Calcium, Ca",mg,--,--,20,20
"Iron, Fe",mg,--,--,0.00,0.00
"Sodium, Na",mg,--,--,450,450
Vitamins
"Vitamin C, total ascorbic acid",mg,--,--,0.0,0.0
"Vitamin A, IU",IU,--,--,0,0
Lipids
"Fatty acids, total saturated",g,--,--,0.000,0.000
"Fatty acids, total trans",g,--,--,0.000,0.000
"Cholesterol",mg,--,--,115,115
Amino Acids
Other
Ingredients
"WHITE SHRIMP, SODIUM TRIPOLYPHOSPHATE (TO RETAIN MOISTURE), SALT" Date available: 07/14/2017 Date last updated by company: 07/14/2017
