Source: USDA Branded Food Products Database Release December 2017 Software v.3.8.6.4 2017-10-02
Report Run at: December 19, 2017 01:00 EST
"Nutrient data for: 45204215, COOKING SAUCE BY CHEF SHARONE HAKMAN, UPC: 861170000074"
Food Group:  Branded Food Products Database
Common Name:

Nutrient,Unit,Data points,Std. Error,"0.25 cup = 63.0g",1Value per 100 g,
Proximates
"Energy",kcal,--,--,30,48
"Protein",g,--,--,1.00,1.59
"Total lipid (fat)",g,--,--,1.00,1.59
"Carbohydrate, by difference",g,--,--,5.00,7.94
"Fiber, total dietary",g,--,--,1.0,1.6
"Sugars, total",g,--,--,3.00,4.76
Minerals
"Calcium, Ca",mg,--,--,20,32
"Iron, Fe",mg,--,--,0.37,0.58
"Sodium, Na",mg,--,--,320,508
Vitamins
"Vitamin C, total ascorbic acid",mg,--,--,1.2,1.9
"Vitamin A, IU",IU,--,--,507,805
Lipids
"Fatty acids, total saturated",g,--,--,0.000,0.000
"Fatty acids, total trans",g,--,--,0.000,0.000
"Cholesterol",mg,--,--,0,0
Amino Acids
Other
Ingredients
"WATER, GROUND TOMATOES IN PUREE, ONION PUREE, TOMATO PASTE, CARROTS, GREEN BELL PEPPERS, GARLIC, SUGAR, SALT, ORGANIC CANOLA OIL, ONIONS, SWEET SMOKED PAPRIKA, PAPRIKA, SPICY SMOKED PAPRIKA, CHIPOTLE MORITA PEPPER, BLACK PEPPER, OREGANO, THYME, PARSLEY, CITRIC ACID, BAY LEAF." Date available: 07/14/2017 Date last updated by company: 07/14/2017
