Source: USDA Branded Food Products Database Release December 2017 Software v.3.8.6.4 2017-10-02
Report Run at: December 19, 2017 00:40 EST
"Nutrient data for: 45210077, COOKED SHRIMP, UPC: 041130810466"
Food Group:  Branded Food Products Database
Common Name:

Nutrient,Unit,Data points,Std. Error,"7.0 -9 SHRIMP | APPROX = 85.0g",1Value per 100 g,
Proximates
"Energy",kcal,--,--,60,71
"Protein",g,--,--,12.00,14.12
"Total lipid (fat)",g,--,--,1.00,1.18
"Carbohydrate, by difference",g,--,--,0.00,0.00
"Fiber, total dietary",g,--,--,0.0,0.0
"Sugars, total",g,--,--,0.00,0.00
Minerals
"Calcium, Ca",mg,--,--,40,47
"Iron, Fe",mg,--,--,0.00,0.00
"Sodium, Na",mg,--,--,480,565
Vitamins
"Vitamin C, total ascorbic acid",mg,--,--,0.0,0.0
"Vitamin A, IU",IU,--,--,0,0
Lipids
"Fatty acids, total saturated",g,--,--,0.000,0.000
"Fatty acids, total trans",g,--,--,0.000,0.000
"Cholesterol",mg,--,--,95,112
Amino Acids
Other
Ingredients
"SHRIMP, SODIUM TRIPOLYPHOSPHATE (TO RETAIN MOISTURE), SALT." Date available: 07/14/2017 Date last updated by company: 07/14/2017
