Source: USDA Branded Food Products Database Release December 2017 Software v.3.8.6.4 2017-10-02
Report Run at: December 19, 2017 00:54 EST
"Nutrient data for: 45210401, COOKIES, UPC: 046214176124"
Food Group:  Branded Food Products Database
Common Name:

Nutrient,Unit,Data points,Std. Error,"1 COOKIE = 25.0g",1Value per 100 g,
Proximates
"Energy",kcal,--,--,120,480
"Protein",g,--,--,2.00,8.00
"Total lipid (fat)",g,--,--,6.00,24.00
"Carbohydrate, by difference",g,--,--,15.00,60.00
"Fiber, total dietary",g,--,--,1.0,4.0
"Sugars, total",g,--,--,9.00,36.00
Minerals
"Calcium, Ca",mg,--,--,40,160
"Iron, Fe",mg,--,--,7.20,28.80
"Sodium, Na",mg,--,--,60,240
Vitamins
"Vitamin C, total ascorbic acid",mg,--,--,0.0,0.0
"Vitamin A, IU",IU,--,--,0,0
Lipids
"Fatty acids, total saturated",g,--,--,3.500,14.000
"Fatty acids, total trans",g,--,--,0.000,0.000
"Cholesterol",mg,--,--,10,40
Amino Acids
Other
Ingredients
"WHEAT, FLOUR, MILK CHOCOLATE 18% (SUGAR, COCOA BUTTER, WHOLE MILK POWDER, CHOCOLATE LIQUOR, SKIMMED MILK POWDER, CHOCOLATE LIQUOR, SKIMMED MILK POWDER, EMULSIFIER: SOYA LECITHIN), DARK CHOCOLATE 18% (SUGAR, CHOCOLATE LIQUOR, COCOA POWDER, DEXTROSE, COCOA BUTTER, EMULSIFIER: SOYA LECITHIN), SUGAR, VEGETABLE OIL (PALM OIL, SUNFLOWER OIL), GLUCOSE SYRUP, BUTTER, OAT MEAL, WHOLE EGG POWDER, RAISING AGENTS (DISODIUM DIPHOSPHATES AND SODIUM BI-CARBONATE), GLUCOSE-FRUCTOSE SYRUP, SALT, EGG WHITE POWDER, WHOLE MILK POWDER, EMULSIFIER: SOYA LECITHIN, SUNFLOWER LECITHIN; CARAMEL (SUGAR, GLUCOSE SYRUP), NATURAL VANILLA AND NATURAL CARAMEL FLAVOR." Date available: 07/14/2017 Date last updated by company: 07/14/2017
