Source: USDA Branded Food Products Database Release December 2017 Software v.3.8.6.4 2017-10-02
Report Run at: December 19, 2017 00:50 EST
"Nutrient data for: 45190522, COOKIES 'N CREAM ICE CREAM SANDWICHES, UPC: 041130614002"
Food Group:  Branded Food Products Database
Common Name:

Nutrient,Unit,Data points,Std. Error,"1 SANDWICH = 60.0g",1Value per 100 g,
Proximates
"Energy",kcal,--,--,170,283
"Protein",g,--,--,3.00,5.00
"Total lipid (fat)",g,--,--,6.00,10.00
"Carbohydrate, by difference",g,--,--,27.00,45.00
"Fiber, total dietary",g,--,--,1.0,1.7
"Sugars, total",g,--,--,14.00,23.33
Minerals
"Calcium, Ca",mg,--,--,40,67
"Iron, Fe",mg,--,--,0.00,0.00
"Sodium, Na",mg,--,--,140,233
Vitamins
"Vitamin C, total ascorbic acid",mg,--,--,0.0,0.0
"Vitamin A, IU",IU,--,--,100,167
Lipids
"Fatty acids, total saturated",g,--,--,3.498,5.830
"Fatty acids, total trans",g,--,--,0.000,0.000
"Cholesterol",mg,--,--,15,25
Amino Acids
Other
Ingredients
"ICE CREAM: MILKFAT AND NONFAT MILK, SWEET CREAM BUTTERMILK, CHOCOLATY COOKIE CRUNCH (COOKIE CRUNCH [ENRICHED WHEAT FLOUR {WHEAT FLOUR, NIACIN, REDUCED IRON, THIAMINE MONONITRATE, RIBOFLAVIN, FOLIC ACID}, SUGAR, VEGETABLE OIL SHORTENING {PALM AND CANOLA OIL}, CARAMEL COLOR, COCOA PROCESSED WITH ALKALI, CORN SYRUP, SALT, BAKING SODA, SOY LECITHIN], CHOCOLATY COATING [COCONUT OIL, SUGAR, HYDROGENATED VEGETABLE OIL {COCONUT AND SOY}, COCOA, CORNSTARCH, SOY LECITHIN, COCOA PROCESSED WITH ALKALI, SALT, NATURAL FLAVOR, MILK]), SUGAR, CORN SYRUP, HIGH FRUCTOSE CORN SYRUP, WHEY, MONO AND DIGLYCERIDES, NATURAL AND ARTIFICIAL FLAVORS, GUAR GUM, CALCIUM SULFATE, POLYSORBATE 80, CAROB BEAN GUM, CARRAGEENAN. WAFERS: BLEACHED WHEAT FLOUR, SUGAR, CARAMEL COLOR, DEXTROSE, PALM OIL, CORN FLOUR, CONTAINS 2% OR LESS OF: COCOA, HIGH FRUCTOSE CORN SYRUP, BAKING SODA, MODIFIED CORN STARCH, SALT, MONO AND DIGLYCERIDES, SOY LECITHIN." Date available: 07/14/2017 Date last updated by company: 07/14/2017
