Source: USDA Branded Food Products Database Release December 2017 Software v.3.8.6.4 2017-10-02
Report Run at: December 19, 2017 01:04 EST
"Nutrient data for: 45205693, COOP'S MICROCREMERY, HAND MADE HOT FUDGE, UPC: 768917900027"
Food Group:  Branded Food Products Database
Common Name:

Nutrient,Unit,Data points,Std. Error,"2.0 Tbsp = 30.0g",1Value per 100 g,
Proximates
"Energy",kcal,--,--,112,373
"Protein",g,--,--,1.20,4.00
"Total lipid (fat)",g,--,--,6.90,23.00
"Carbohydrate, by difference",g,--,--,13.60,45.33
"Fiber, total dietary",g,--,--,1.5,5.0
"Sugars, total",g,--,--,11.60,38.67
Minerals
"Calcium, Ca",mg,--,--,10,33
"Iron, Fe",mg,--,--,3.84,12.80
"Potassium, K",mg,--,--,105,350
"Sodium, Na",mg,--,--,52,172
Vitamins
"Vitamin C, total ascorbic acid",mg,--,--,0.0,0.0
"Vitamin A, IU",IU,--,--,0,0
Lipids
"Fatty acids, total saturated",g,--,--,5.601,18.670
"Fatty acids, total trans",g,--,--,0.000,0.000
"Cholesterol",mg,--,--,0,0
Amino Acids
Other
Ingredients
"COCONUT CREAM (FRESH EXTRACTED COCONUT, WATER, NATURAL STABILIZERS - <.1%: XANTHAN, CARRAGEENAN, GUAR GUM), CANE SUGAR*, BROWN CANE SUGAR*, UNSWEETENED PURE CHOCOLATE, DUTCH PROCESS COCOA POWDER, COCONUT OIL, SALT," Date available: 07/14/2017 Date last updated by company: 07/14/2017
