Source: USDA Branded Food Products Database Release December 2017 Software v.3.8.6.4 2017-10-02
Report Run at: December 19, 2017 01:22 EST
"Nutrient data for: 45236829, CORN TORTILLAS, UPC: 027331001346"
Food Group:  Branded Food Products Database
Common Name:

Nutrient,Unit,Data points,Std. Error,"2.0 TORTILLAS = 52.0g",1Value per 100 g,
Proximates
"Energy",kcal,--,--,90,173
"Protein",g,--,--,4.00,7.69
"Total lipid (fat)",g,--,--,1.00,1.92
"Carbohydrate, by difference",g,--,--,16.00,30.77
"Fiber, total dietary",g,--,--,2.0,3.8
"Sugars, total",g,--,--,1.00,1.92
Minerals
"Calcium, Ca",mg,--,--,40,77
"Iron, Fe",mg,--,--,2.67,5.13
"Sodium, Na",mg,--,--,50,96
Vitamins
"Vitamin C, total ascorbic acid",mg,--,--,0.0,0.0
"Vitamin A, IU",IU,--,--,0,0
Lipids
"Fatty acids, total saturated",g,--,--,0.198,0.380
"Fatty acids, total trans",g,--,--,0.000,0.000
"Cholesterol",mg,--,--,0,0
Amino Acids
Other
Ingredients
"CORN (SPECIALLY GROUND CORN TREATED WITH WATER AND LIME (CALCIUM HYDROXIDE)), WATER, SODIUM PROPIONATE (PROPIONIC ACID, SODIUM HYDROXIDE) METHYLPARABEN AND PROPYLPARABEN, CMC." Date available: 06/25/2017 Date last updated by company: 06/25/2017
