Source: USDA Branded Food Products Database Release December 2017 Software v.3.8.6.4 2017-10-02
Report Run at: December 19, 2017 01:22 EST
"Nutrient data for: 45196981, CORN TORTILLAS, UPC: 089949970070"
Food Group:  Branded Food Products Database
Common Name:

Nutrient,Unit,Data points,Std. Error,"2.0 TORTILLAS = 47.0g",1Value per 100 g,
Proximates
"Energy",kcal,--,--,120,255
"Protein",g,--,--,4.00,8.51
"Total lipid (fat)",g,--,--,1.00,2.13
"Carbohydrate, by difference",g,--,--,25.00,53.19
"Fiber, total dietary",g,--,--,1.0,2.1
"Sugars, total",g,--,--,0.00,0.00
Minerals
"Calcium, Ca",mg,--,--,40,85
"Iron, Fe",mg,--,--,0.84,1.79
"Sodium, Na",mg,--,--,0,0
Vitamins
"Vitamin C, total ascorbic acid",mg,--,--,0.0,0.0
"Thiamin",mg,--,--,0.000,0.000
"Riboflavin",mg,--,--,0.000,0.000
"Niacin",mg,--,--,0.936,1.991
"Vitamin A, IU",IU,--,--,0,0
Lipids
"Fatty acids, total saturated",g,--,--,0.000,0.000
"Fatty acids, total monounsaturated",g,--,--,0.000,0.000
"Fatty acids, total polyunsaturated",g,--,--,1.001,2.130
"Fatty acids, total trans",g,--,--,0.000,0.000
"Cholesterol",mg,--,--,0,0
Amino Acids
Other
Ingredients
"WHOLE GRAIN STONEGROUND CORN, WATER, TRACE OF LIME." Date available: 07/14/2017 Date last updated by company: 07/14/2017
