Source: USDA Branded Food Products Database Release December 2017 Software v.3.8.6.4 2017-10-02
Report Run at: December 19, 2017 01:12 EST
"Nutrient data for: 45216857, CORNED BEEF HASH, UPC: 037600484848"
Food Group:  Branded Food Products Database
Common Name:

Nutrient,Unit,Data points,Std. Error,"1 cup = 236.0g",1Value per 100 g,
Proximates
"Energy",kcal,--,--,380,161
"Protein",g,--,--,18.01,7.63
"Total lipid (fat)",g,--,--,24.00,10.17
"Carbohydrate, by difference",g,--,--,22.00,9.32
"Fiber, total dietary",g,--,--,1.9,0.8
"Sugars, total",g,--,--,0.99,0.42
Minerals
"Calcium, Ca",mg,--,--,19,8
"Iron, Fe",mg,--,--,1.51,0.64
"Sodium, Na",mg,--,--,989,419
Vitamins
"Vitamin C, total ascorbic acid",mg,--,--,0.0,0.0
"Vitamin A, IU",IU,--,--,0,0
Lipids
"Fatty acids, total saturated",g,--,--,10.998,4.660
"Cholesterol",mg,--,--,80,34
Amino Acids
Other
Ingredients
"BEEF, REHYDRATED POTATOES, WATER, CONTAINS 2% OR LESS OF: SALT, SUGAR, FLAVORING, SPICE, SODIUM NITRITE." Date available: 10/13/2017 Date last updated by company: 10/13/2017
