Source: USDA Branded Food Products Database Release December 2017 Software v.3.8.6.4 2017-10-02
Report Run at: December 19, 2017 01:09 EST
"Nutrient data for: 45291887, CORN CHIPS, UPC: 028400040044"
Food Group:  Branded Food Products Database
Common Name:

Nutrient,Unit,Data points,Std. Error,"1 PACKAGE = 28.3g",1Value per 100 g,
Proximates
"Energy",kcal,--,--,160,565
"Protein",g,--,--,2.00,7.07
"Total lipid (fat)",g,--,--,10.00,35.34
"Carbohydrate, by difference",g,--,--,16.00,56.54
"Fiber, total dietary",g,--,--,1.0,3.5
"Sugars, total",g,--,--,1.00,3.53
Minerals
"Calcium, Ca",mg,--,--,38,134
"Iron, Fe",mg,--,--,0.00,0.00
"Potassium, K",mg,--,--,53,187
"Sodium, Na",mg,--,--,270,954
Vitamins
Lipids
"Fatty acids, total saturated",g,--,--,1.500,5.300
"Fatty acids, total trans",g,--,--,0.000,0.000
"Cholesterol",mg,--,--,0,0
Amino Acids
Other
Ingredients
"CORN, CORN OIL, SALT, WHEY, CHEDDAR CHEESE (MILK, CHEESE CULTURES, SALT, ENZYMES), SPICES, WHEY PROTEIN CONCENTRATE, MALTODEXTRIN (MADE FROM CORN), TOMATO POWDER, MONOSODIUM GLUTAMATE, ONION POWDER, ROMANO CHEESE (COW'S MILK, CHEESE CULTURES, SALT, ENZYMES), DEXTROSE, SUGAR, BUTTERMILK, BUTTER (CREAM, SALT), CITRIC ACID, NATURAL FLAVOR, SUNFLOWER OIL, GARLIC POWDER, ANNATTO EXTRACT, DISODIUM INOSINATE, DISODIUM GUANYLATE, AND CARAMEL COLOR." Date available: 05/24/2017 Date last updated by company: 05/24/2017
