Source: USDA Branded Food Products Database Release December 2017 Software v.3.8.6.4 2017-10-02
Report Run at: December 19, 2017 01:23 EST
"Nutrient data for: 45222266, CORN TOSTADAS, UPC: 856526004004"
Food Group:  Branded Food Products Database
Common Name:

Nutrient,Unit,Data points,Std. Error,"3.0 PIECES = 32.4g",1Value per 100 g,
Proximates
"Energy",kcal,--,--,244,754
"Protein",g,--,--,3.00,9.26
"Total lipid (fat)",g,--,--,12.00,37.04
"Carbohydrate, by difference",g,--,--,31.00,95.68
"Fiber, total dietary",g,--,--,2.0,6.2
"Sugars, total",g,--,--,0.00,0.00
Minerals
"Calcium, Ca",mg,--,--,0,0
"Iron, Fe",mg,--,--,0.56,1.72
"Sodium, Na",mg,--,--,250,772
Vitamins
"Vitamin C, total ascorbic acid",mg,--,--,0.0,0.0
"Vitamin A, IU",IU,--,--,0,0
Lipids
"Fatty acids, total saturated",g,--,--,3.000,9.260
"Fatty acids, total monounsaturated",g,--,--,1.999,6.170
"Fatty acids, total polyunsaturated",g,--,--,6.000,18.520
"Fatty acids, total trans",g,--,--,0.000,0.000
"Cholesterol",mg,--,--,0,0
Amino Acids
Other
Ingredients
"CORN FLOUR, WATER, VEGETABLE OIL (CONTAINS ONE OR MORE OF THE FOLLOWING: COTTON OIL, PALM OLEIN OIL, CANOLA OIL OR SOYBEAN OIL), IODIZED SEA SALT, LEAVENING AGENT (SODIUM BICARBONATE, SODIUM ACID PYROPHOSPHATE, MONOCALCIUM PHOSPHATE), CITRIC ACID, FD&C YELLOW NO. 5, FD&C YELLOW NO. 6 AND FD&C RED NO. 40." Date available: 07/14/2017 Date last updated by company: 07/14/2017
