Source: USDA Branded Food Products Database Release December 2017 Software v.3.8.6.4 2017-10-02
Report Run at: December 19, 2017 01:19 EST
"Nutrient data for: 45264899, CORN SNACKS, UPC: 028400034036"
Food Group:  Branded Food Products Database
Common Name:

Nutrient,Unit,Data points,Std. Error,"23.0 PIECES | ABOUT = 28.0g",1Value per 100 g,
Proximates
"Energy",kcal,--,--,160,571
"Protein",g,--,--,2.00,7.14
"Total lipid (fat)",g,--,--,9.00,32.14
"Carbohydrate, by difference",g,--,--,16.00,57.14
"Fiber, total dietary",g,--,--,1.0,3.6
"Sugars, total",g,--,--,1.00,3.57
Minerals
"Calcium, Ca",mg,--,--,30,107
"Iron, Fe",mg,--,--,0.00,0.00
"Potassium, K",mg,--,--,40,143
"Sodium, Na",mg,--,--,200,714
Vitamins
Lipids
"Fatty acids, total saturated",g,--,--,1.501,5.360
"Fatty acids, total trans",g,--,--,0.000,0.000
"Cholesterol",mg,--,--,0,0
Amino Acids
Other
Ingredients
"CORN, CORN OIL, HONEY BBQ SEASONING (SALT, MALTODEXTRIN [MADE FROM CORN], SUGAR, BROWN SUGAR, ONION POWDER, MONOSODIUM GLUTAMATE, DEXTROSE, HONEY SOLIDS, SPICES, TOMATO POWDER, MOLASSES SOLIDS, YEAST EXTRACT, ARTIFICIAL COLOR [YELLOW 5 LAKE, YELLOW 6 LAKE, BLUE 2 LAKE, RED 40, YELLOW 5, BLUE 1], NATURAL AND ARTIFICIAL FLAVORS, GARLIC POWDER, CORN STARCH, CITRIC ACID, DISODIUM INOSINATE, AND DISODIUM GUANYLATE)." Date available: 03/23/2017 Date last updated by company: 03/23/2017
