Source: USDA Branded Food Products Database Release December 2017 Software v.3.8.6.4 2017-10-02
Report Run at: December 19, 2017 01:07 EST
"Nutrient data for: 45106108, CORNBREAD MIX, UPC: 00557375"
Food Group:  Branded Food Products Database
Common Name:

Nutrient,Unit,Data points,Std. Error,"47.0 g = 78.0g",1Value per 100 g,
Proximates
"Energy",kcal,--,--,170,218
"Protein",g,--,--,2.00,2.56
"Total lipid (fat)",g,--,--,0.50,0.64
"Carbohydrate, by difference",g,--,--,39.00,50.00
"Fiber, total dietary",g,--,--,1.0,1.3
"Sugars, total",g,--,--,15.00,19.23
Minerals
"Calcium, Ca",mg,--,--,80,103
"Iron, Fe",mg,--,--,0.72,0.92
"Sodium, Na",mg,--,--,270,346
Vitamins
"Vitamin C, total ascorbic acid",mg,--,--,1.2,1.5
"Vitamin A, IU",IU,--,--,0,0
Lipids
"Fatty acids, total saturated",g,--,--,0.00,0.00
"Fatty acids, total trans",g,--,--,0.00,0.00
"Cholesterol",mg,--,--,0,0
Amino Acids
Other
Ingredients
"SUGAR, CORNMEAL, BROWN RICE FLOUR, POTATO STARCH, TAPIOCA STARCH, BAKING POWDER (MONOCALCIUM PHOSPHATE, SODIUM BICARBONATE, CORN STARCH), RICE FLOUR, CORN, NATURAL VANILLA FLAVOR (MALTODEXTRIN, NATURAL FLAVOR), SALT, XANTHAN GUM." Date last updated by company: 05/15/2016
