Source: USDA Branded Food Products Database Release December 2017 Software v.3.8.6.4 2017-10-02
Report Run at: December 19, 2017 01:23 EST
"Nutrient data for: 45270221, CORN TORTILLAS, UPC: 071007401558"
Food Group:  Branded Food Products Database
Common Name:

Nutrient,Unit,Data points,Std. Error,"3.0 TAQUITOS = 85.0g",1Value per 100 g,
Proximates
"Energy",kcal,--,--,170,200
"Protein",g,--,--,7.00,8.24
"Total lipid (fat)",g,--,--,7.00,8.24
"Carbohydrate, by difference",g,--,--,21.00,24.71
"Fiber, total dietary",g,--,--,2.0,2.4
"Sugars, total",g,--,--,0.00,0.00
Minerals
"Calcium, Ca",mg,--,--,40,47
"Iron, Fe",mg,--,--,2.70,3.18
"Sodium, Na",mg,--,--,410,482
Vitamins
"Vitamin C, total ascorbic acid",mg,--,--,0.0,0.0
"Vitamin A, IU",IU,--,--,200,235
Lipids
"Fatty acids, total saturated",g,--,--,1.003,1.180
"Fatty acids, total trans",g,--,--,0.000,0.000
"Cholesterol",mg,--,--,15,18
Amino Acids
Other
Ingredients
"WATER, STONEGROUND CORN MASA FLOUR WITH A TRACE OF LIME, COOKED BEEF STEAK (WITH BROTH, SALT), VEGETABLE OIL (SOYBEAN, SUNFLOWER, CANOLA AND/OR CORN OIL), COOKED SEASONED BEEF CRUMBLES (BEEF, SALT, SPICE EXTRACTIVE), GREEN CHILIES, CONTAINS 2% OR LESS ONIONS, TEXTURED SOY FLOUR (WITH CARAMEL COLOR), SALT, MODIFIED CORN STARCH, BEEF FLAVOR (WITH BEEF STOCK, BEEF BROTH, SALT, SOY SAUCE (WATER, WHEAT, SOYBEANS, SALT), SMOKE FLAVOR, GRILL FLAVOR FROM VEGETABLE OIL), SPICES, FLAVOR, PAPRIKA, APPLE CIDER VINEGAR, CHILI PEPPER, BROWN SUGAR." Date available: 07/14/2017 Date last updated by company: 07/14/2017
