Source: USDA Branded Food Products Database Release December 2017 Software v.3.8.6.4 2017-10-02
Report Run at: December 19, 2017 01:07 EST
"Nutrient data for: 45329498, CORNBREAD & MUFFIN MIX, UPC: 041512139505"
Food Group:  Branded Food Products Database
Common Name:

Nutrient,Unit,Data points,Std. Error,"0.25 cup = 35.0g",1Value per 100 g,
Proximates
"Energy",kcal,--,--,130,371
"Protein",g,--,--,2.00,5.71
"Total lipid (fat)",g,--,--,0.00,0.00
"Carbohydrate, by difference",g,--,--,28.00,80.00
"Fiber, total dietary",g,--,--,1.0,2.9
"Sugars, total",g,--,--,9.00,25.71
Minerals
"Calcium, Ca",mg,--,--,0,0
"Iron, Fe",mg,--,--,0.82,2.35
"Sodium, Na",mg,--,--,300,857
Vitamins
"Vitamin C, total ascorbic acid",mg,--,--,0.0,0.0
"Vitamin A, IU",IU,--,--,0,0
Lipids
"Fatty acids, total saturated",g,--,--,0.000,0.000
"Fatty acids, total trans",g,--,--,0.000,0.000
"Cholesterol",mg,--,--,0,0
Amino Acids
Other
Ingredients
"UNBLEACHED ENRICHED FLOURS (WHEAT FLOUR, MALTED BARLEY FLOUR, NIACIN, IRON, THIAMIN MONONITRATE, RIBOFLAVIN, FOLIC ACID), DEGERMED YELLOW CORN MEAL, SUGAR, YELLOW CORN FLOUR, SALT, SODIUM ACID PYROPHOSPHATE (LEAVENING), DEXTROSE, BAKING SODA / SODIUM BICARBONATE (LEAVENING), MONOCALCIUM PHOSPHATE (LEAVENING)." Date available: 10/13/2017 Date last updated by company: 10/13/2017
