Source: USDA Branded Food Products Database Release December 2017 Software v.3.8.6.4 2017-10-02
Report Run at: December 19, 2017 01:10 EST
"Nutrient data for: 45196662, CORN DOGS, UPC: 051933055308"
Food Group:  Branded Food Products Database
Common Name:

Nutrient,Unit,Data points,Std. Error,"1 CORN DOG = 76.0g",1Value per 100 g,
Proximates
"Energy",kcal,--,--,200,263
"Protein",g,--,--,7.00,9.21
"Total lipid (fat)",g,--,--,8.00,10.53
"Carbohydrate, by difference",g,--,--,25.00,32.89
"Fiber, total dietary",g,--,--,1.0,1.3
"Sugars, total",g,--,--,8.00,10.53
Minerals
"Calcium, Ca",mg,--,--,40,53
"Iron, Fe",mg,--,--,0.40,0.53
"Sodium, Na",mg,--,--,490,645
Vitamins
"Vitamin C, total ascorbic acid",mg,--,--,0.0,0.0
"Vitamin A, IU",IU,--,--,0,0
Lipids
"Fatty acids, total saturated",g,--,--,3.002,3.950
"Fatty acids, total trans",g,--,--,0.000,0.000
"Cholesterol",mg,--,--,25,33
Amino Acids
Other
Ingredients
"WATER, ENRICHED FLOUR (WHEAT FLOUR, NIACIN, IRON, THIAMINE MONONITRATE, RIBOFLAVIN, FOLIC ACID), SUGAR, DEGERMED YELLOW CORN MEAL, SALT, LEAVENING (SODIUM ACID PYROPHOSPHATE, SODIUM BICARBONATE), SOY FLOUR, SOYBEAN OIL, DRIED HONEY, ONION POWDER, SOY LECITHIN, NONFAT MILK, EGG, COOKED IN VEGETABLE OIL (CONTAINS ONE OR MORE OF: CORN OIL, COTTONSEED OIL, SOYBEAN OIL), CHICKEN FRANK INGREDIENTS: MECHANICALLY SEPARATED CHICKEN, WATER, DEXTROSE, SALT, CONTAINS 2% OR LESS OF CORN SYRUP, SPICES, SODIUM PHOSPHATE, FLAVORINGS, PAPRIKA AND PAPRIKA OLEORESIN, SODIUM ERYTHORBATE, SODIUM NITRITE." Date available: 07/14/2017 Date last updated by company: 07/14/2017
