Source: USDA Branded Food Products Database Release December 2017 Software v.3.8.6.4 2017-10-02
Report Run at: December 19, 2017 01:23 EST
"Nutrient data for: 45327583, CORN TOSTADAS, UPC: 044774115065"
Food Group:  Branded Food Products Database
Common Name:

Nutrient,Unit,Data points,Std. Error,"3.0 PIECES = 34.0g",1Value per 100 g,
Proximates
"Energy",kcal,--,--,160,471
"Protein",g,--,--,2.00,5.88
"Total lipid (fat)",g,--,--,9.00,26.47
"Carbohydrate, by difference",g,--,--,18.00,52.94
"Fiber, total dietary",g,--,--,1.0,2.9
"Sugars, total",g,--,--,0.00,0.00
Minerals
"Calcium, Ca",mg,--,--,10,29
"Iron, Fe",mg,--,--,1.17,3.43
"Sodium, Na",mg,--,--,325,956
Vitamins
"Vitamin C, total ascorbic acid",mg,--,--,0.0,0.0
"Vitamin A, IU",IU,--,--,0,0
Lipids
"Fatty acids, total saturated",g,--,--,1.000,2.940
"Fatty acids, total monounsaturated",g,--,--,1.000,2.940
"Fatty acids, total polyunsaturated",g,--,--,2.499,7.350
"Fatty acids, total trans",g,--,--,0.000,0.000
"Cholesterol",mg,--,--,0,0
Amino Acids
Other
Ingredients
"CORN FLOUR, WATER, VEGETABLE OIL (COTTON SEED AND/OR SOYBEAN OIL), IODIZED SALT, LEAVENING AGENT (SODIUM BICARBONATE, SODIUM ACID PYROPHOSPHATE, MONOCALCIUM PHOSPHATE), CITRIC ACID, ANTIOXIDANTS (BHA & BHT), YELLOW NO. 5 AND YELLOW NO. 6, RED 40." Date available: 07/14/2017 Date last updated by company: 07/14/2017
