Source: USDA Branded Food Products Database Release December 2017 Software v.3.8.6.4 2017-10-02
Report Run at: December 19, 2017 01:24 EST
"Nutrient data for: 45187565, COSMO CELEBRATION SAUCES, MUSHROOM MARINARA SAUCE, UPC: 798304368161"
Food Group:  Branded Food Products Database
Common Name:

Nutrient,Unit,Data points,Std. Error,"0.5 cup = 128.0g",1Value per 100 g,
Proximates
"Energy",kcal,--,--,79,62
"Protein",g,--,--,2.00,1.56
"Total lipid (fat)",g,--,--,5.00,3.91
"Carbohydrate, by difference",g,--,--,8.00,6.25
"Fiber, total dietary",g,--,--,1.0,0.8
"Sugars, total",g,--,--,5.00,3.91
Minerals
"Calcium, Ca",mg,--,--,40,31
"Iron, Fe",mg,--,--,0.76,0.59
"Sodium, Na",mg,--,--,210,164
Vitamins
"Vitamin C, total ascorbic acid",mg,--,--,19.1,14.9
"Vitamin A, IU",IU,--,--,792,619
Lipids
"Fatty acids, total saturated",g,--,--,0.499,0.390
"Fatty acids, total trans",g,--,--,0.000,0.000
"Cholesterol",mg,--,--,0,0
Amino Acids
Other
Ingredients
"DICED TOMATOES (TOMATOES, TOMATO JUICE, CITRIC ACID, CALCIUM CHLORIDE), WATER, TOMATO PASTE, SHIITAKE MUSHROOMS, OLIVE OIL, ONIONS, SALT, GARLIC PUREE (GARLIC, CITRIC ACID), SPICES, CITRIC ACID, BASIL." Date available: 07/14/2017 Date last updated by company: 07/14/2017
