Source: USDA Branded Food Products Database Release December 2017 Software v.3.8.6.4 2017-10-02
Report Run at: December 19, 2017 01:25 EST
"Nutrient data for: 45209867, COTIJA POLVO MEXICAN STYLE CRUMBLED CHEESE, UPC: 723175831025"
Food Group:  Branded Food Products Database
Common Name:

Nutrient,Unit,Data points,Std. Error,"1 ONZ = 28.0g",1Value per 100 g,
Proximates
"Energy",kcal,--,--,100,357
"Protein",g,--,--,6.00,21.43
"Total lipid (fat)",g,--,--,8.00,28.57
"Carbohydrate, by difference",g,--,--,1.00,3.57
"Fiber, total dietary",g,--,--,0.4,1.6
"Sugars, total",g,--,--,0.00,0.00
Minerals
"Calcium, Ca",mg,--,--,200,714
"Iron, Fe",mg,--,--,0.00,0.00
"Sodium, Na",mg,--,--,380,1357
Vitamins
"Vitamin C, total ascorbic acid",mg,--,--,0.0,0.0
"Vitamin A, IU",IU,--,--,535,1912
Lipids
"Fatty acids, total saturated",g,--,--,5.001,17.860
"Fatty acids, total trans",g,--,--,0.000,0.000
"Cholesterol",mg,--,--,25,89
Amino Acids
Other
Ingredients
"CULTURED PASTEURIZED MILK, SALT, ENZYMES, FREE FLOW POWDER (POTATO STARCH, CORN STARCH, DEXTROSE, CALCIUM SULFATE, NATAMYCIN & ENZYME) ADDED TO PREVENT CAKING." Date available: 10/13/2017 Date last updated by company: 10/13/2017
