Source: USDA Branded Food Products Database Release December 2017 Software v.3.8.6.4 2017-10-02
Report Run at: December 19, 2017 01:29 EST
"Nutrient data for: 45289699, COTTAGE CHEESE, UPC: 717544202653"
Food Group:  Branded Food Products Database
Common Name:

Nutrient,Unit,Data points,Std. Error,"0.5 cup = 110.0g",1Value per 100 g,
Proximates
"Energy",kcal,--,--,110,100
"Protein",g,--,--,13.00,11.82
"Total lipid (fat)",g,--,--,6.00,5.45
"Carbohydrate, by difference",g,--,--,4.00,3.64
"Fiber, total dietary",g,--,--,0.0,0.0
"Sugars, total",g,--,--,3.00,2.73
Minerals
"Calcium, Ca",mg,--,--,80,73
"Iron, Fe",mg,--,--,0.00,0.00
"Sodium, Na",mg,--,--,360,327
Vitamins
"Vitamin C, total ascorbic acid",mg,--,--,0.0,0.0
"Vitamin A, IU",IU,--,--,200,182
Lipids
"Fatty acids, total saturated",g,--,--,3.498,3.180
"Fatty acids, total trans",g,--,--,0.000,0.000
"Cholesterol",mg,--,--,20,18
Amino Acids
Other
Ingredients
"CULTURED GRADE A PASTEURIZED NONFAT MILK, CREAM, SALT, LOCUST BEAN GUM, CITRIC ACID, CARRAGEENAN, CARBON DIOXIDE (TO MAINTAIN FRESHNESS), ENZYMES." Date available: 07/14/2017 Date last updated by company: 07/14/2017
