Source: USDA Branded Food Products Database Release December 2017 Software v.3.8.6.4 2017-10-02
Report Run at: December 19, 2017 01:34 EST
"Nutrient data for: 45155967, COTTONDALE, LITTLE BEAUTY MILK CHOCOLATE BUNNY, UPC: 050428501993"
Food Group:  Branded Food Products Database
Common Name:

Nutrient,Unit,Data points,Std. Error,"1 PIECE = 28.0g",1Value per 100 g,
Proximates
"Energy",kcal,--,--,150,536
"Protein",g,--,--,1.00,3.57
"Total lipid (fat)",g,--,--,8.00,28.57
"Carbohydrate, by difference",g,--,--,19.00,67.86
"Fiber, total dietary",g,--,--,1.0,3.6
"Sugars, total",g,--,--,18.00,64.29
Minerals
"Calcium, Ca",mg,--,--,0,0
"Iron, Fe",mg,--,--,1.29,4.59
"Sodium, Na",mg,--,--,15,54
Vitamins
"Vitamin C, total ascorbic acid",mg,--,--,0.0,0.0
"Vitamin A, IU",IU,--,--,0,0
Lipids
"Fatty acids, total saturated",g,--,--,7.000,25.000
"Fatty acids, total trans",g,--,--,0.000,0.000
"Cholesterol",mg,--,--,0,0
Amino Acids
Other
Ingredients
"SUGAR, HYDROGENATED VEGETABLE OIL (PALM KERNEL AND/OR PALM), WHEY, COCOA (PROCESSED WITH ALKALI), LACTOSE, SKIM MILK, SOY LECITHIN (EMULSIFIER), VANILLIN (ARTIFICIAL FLAVOR) AND U.S. CERTIFIED COLORS (FD&C BLUE #1, BLUE #2, RED #40, YELLOW #5 AND YELLOW #6 LAKES AND RED #3)." Date available: 07/14/2017 Date last updated by company: 07/14/2017
