Source: USDA Branded Food Products Database Release December 2017 Software v.3.8.6.4 2017-10-02
Report Run at: December 19, 2017 01:30 EST
"Nutrient data for: 45323313, COTTAGE DOUBLES, UPC: 049900000321"
Food Group:  Branded Food Products Database
Common Name:

Nutrient,Unit,Data points,Std. Error,"1 CONTAINER = 133.0g",1Value per 100 g,
Proximates
"Energy",kcal,--,--,110,83
"Protein",g,--,--,9.00,6.77
"Total lipid (fat)",g,--,--,2.00,1.50
"Carbohydrate, by difference",g,--,--,12.99,9.77
"Fiber, total dietary",g,--,--,0.0,0.0
"Sugars, total",g,--,--,10.00,7.52
Minerals
"Calcium, Ca",mg,--,--,150,113
"Iron, Fe",mg,--,--,0.00,0.00
"Sodium, Na",mg,--,--,340,256
Vitamins
"Vitamin C, total ascorbic acid",mg,--,--,0.9,0.7
"Vitamin A, IU",IU,--,--,247,186
"Vitamin D",IU,--,--,60,45
Lipids
"Fatty acids, total saturated",g,--,--,1.503,1.130
"Fatty acids, total trans",g,--,--,0.000,0.000
"Cholesterol",mg,--,--,15,11
Amino Acids
Other
Ingredients
"LOWFAT COTTAGE CHEESE (CULTURED PASTEURIZED GRADE A SKIM MILK, MILK AND CREAM, WHEY, CONTAINS LESS THAN 2% OF MODIFIED FOOD STARCH, SALT, CALCIUM PHOSPHATE, POTASSIUM SORBATE TO PRESERVE FRESHNESS, XANTHAN GUM, GUAR GUM, NATURAL FLAVOR, VITAMIN A PALMITATE, VITAMIN D3); BLUEBERRY TOPPING (WATER, BLUEBERRIES, SUGAR, MODIFIED FOOD STARCH, NATURAL FLAVOR, CITRIC ACID)." Date available: 07/14/2017 Date last updated by company: 07/14/2017
