Source: USDA Branded Food Products Database Release December 2017 Software v.3.8.6.4 2017-10-02
Report Run at: December 19, 2017 01:34 EST
"Nutrient data for: 45157214, COTTONDALE, LITTLE BEAUTY CANDY WITH COOKIE PIECES, COOKIES & CREME, UPC: 050428502228"
Food Group:  Branded Food Products Database
Common Name:

Nutrient,Unit,Data points,Std. Error,"1 PIECE = 28.0g",1Value per 100 g,
Proximates
"Energy",kcal,--,--,150,536
"Protein",g,--,--,2.00,7.14
"Total lipid (fat)",g,--,--,8.00,28.57
"Carbohydrate, by difference",g,--,--,18.00,64.29
"Fiber, total dietary",g,--,--,0.0,0.0
"Sugars, total",g,--,--,17.00,60.71
Minerals
"Calcium, Ca",mg,--,--,40,143
"Iron, Fe",mg,--,--,0.00,0.00
"Sodium, Na",mg,--,--,30,107
Vitamins
"Vitamin C, total ascorbic acid",mg,--,--,0.0,0.0
"Vitamin A, IU",IU,--,--,0,0
Lipids
"Fatty acids, total saturated",g,--,--,7.000,25.000
"Fatty acids, total trans",g,--,--,0.000,0.000
"Cholesterol",mg,--,--,5,18
Amino Acids
Other
Ingredients
"SUGAR, HYDROGENATED VEGETABLE OIL (PALM KERNEL AND/OR PALM), WHEY, SKIM MILK, COOKIE (MADE FROM BLEACHED WHEAT FLOUR, SUGAR, COCOA [PROCESSED WITH ALKALI], PALM OIL, CORN SYRUP, CORN FLOUR, SOY LECITHIN, BAKING SODA, SALT AND NATURAL AND ARTIFICIAL FLAVORS), LACTOSE, SOY LECITHIN (EMULSIFIER), VANILLIN (ARTIFICIAL FLAVOR)." Date available: 07/14/2017 Date last updated by company: 07/14/2017
