Source: USDA Branded Food Products Database Release December 2017 Software v.3.8.6.4 2017-10-02
Report Run at: December 19, 2017 01:27 EST
"Nutrient data for: 45047909, COTTAGE CHEESE, UPC: 041900077419"
Food Group:  Branded Food Products Database
Common Name:

Nutrient,Unit,Data points,Std. Error,"0.5 cup = 113.0g",1Value per 100 g,
Proximates
"Energy",kcal,--,--,90,80
"Protein",g,--,--,12.00,10.62
"Total lipid (fat)",g,--,--,1.50,1.33
"Carbohydrate, by difference",g,--,--,6.00,5.31
"Fiber, total dietary",g,--,--,0.0,0.0
"Sugars, total",g,--,--,4.00,3.54
Minerals
"Calcium, Ca",mg,--,--,99,88
"Iron, Fe",mg,--,--,0.00,0.00
"Sodium, Na",mg,--,--,470,416
Vitamins
"Vitamin C, total ascorbic acid",mg,--,--,0.0,0.0
"Vitamin A, IU",IU,--,--,194,172
Lipids
"Fatty acids, total saturated",g,--,--,0.994,0.880
"Fatty acids, total trans",g,--,--,0.000,0.000
"Cholesterol",mg,--,--,10,9
Amino Acids
Other
Ingredients
"CULTURED NONFAT MILK, CREAM, LESS THAN 2% OF WHEY, SALT, , AMLTODEXTRIN, GUAR GUM, CITRIC ACID, CARRAGEENAN, MONO AND DIGLYCERIDES, LOCUST BEAN GUM, POLYSORBATE 80, POTASSIUM SORBATE(PRESERVATIVE), NATURAL AND ARTIFICIAL FLAVOR, VITAMIN A PALMITATE, ENZYME" Date available: 06/25/2017 Date last updated by company: 06/25/2017
