Source: USDA Branded Food Products Database Release December 2017 Software v.3.8.6.4 2017-10-02
Report Run at: December 19, 2017 01:28 EST
"Nutrient data for: 45225678, COTTAGE CHEESE, UPC: 070852524016"
Food Group:  Branded Food Products Database
Common Name:

Nutrient,Unit,Data points,Std. Error,"0.5 cup = 113.0g",1Value per 100 g,
Proximates
"Energy",kcal,--,--,120,106
"Protein",g,--,--,14.00,12.39
"Total lipid (fat)",g,--,--,4.99,4.42
"Carbohydrate, by difference",g,--,--,2.99,2.65
"Fiber, total dietary",g,--,--,0.0,0.0
"Sugars, total",g,--,--,2.99,2.65
Minerals
"Calcium, Ca",mg,--,--,80,71
"Iron, Fe",mg,--,--,0.00,0.00
"Sodium, Na",mg,--,--,340,301
Vitamins
"Vitamin C, total ascorbic acid",mg,--,--,0.0,0.0
"Vitamin A, IU",IU,--,--,194,172
Lipids
"Fatty acids, total saturated",g,--,--,2.994,2.650
"Fatty acids, total trans",g,--,--,0.000,0.000
"Cholesterol",mg,--,--,20,18
Amino Acids
Other
Ingredients
"CULTURED NONFAT MILK, MILK, CREAM, SALT, STABILIZER (GUAR GUM, XANTHAN GUM, CARRAGEENAN, LOCUST BEAN GUM), CARBON DIOXIDE (TO MAINTAIN FRESHNESS)." Date available: 07/14/2017 Date last updated by company: 07/14/2017
