Source: USDA Branded Food Products Database Release December 2017 Software v.3.8.6.4 2017-10-02
Report Run at: December 19, 2017 01:34 EST
"Nutrient data for: 45274797, COTTO SALAMI, UPC: 076819000685"
Food Group:  Branded Food Products Database
Common Name:

Nutrient,Unit,Data points,Std. Error,"1 SLICE = 32.0g",1Value per 100 g,
Proximates
"Energy",kcal,--,--,90,281
"Protein",g,--,--,5.00,15.62
"Total lipid (fat)",g,--,--,8.00,25.00
"Carbohydrate, by difference",g,--,--,1.00,3.12
"Fiber, total dietary",g,--,--,0.0,0.0
"Sugars, total",g,--,--,0.00,0.00
Minerals
"Calcium, Ca",mg,--,--,20,62
"Iron, Fe",mg,--,--,0.62,1.94
"Sodium, Na",mg,--,--,380,1188
Vitamins
"Vitamin C, total ascorbic acid",mg,--,--,0.0,0.0
"Vitamin A, IU",IU,--,--,0,0
Lipids
"Fatty acids, total saturated",g,--,--,2.499,7.810
"Fatty acids, total trans",g,--,--,0.000,0.000
"Cholesterol",mg,--,--,20,62
Amino Acids
Other
Ingredients
"BEEF AND PORK, WATER, NONFAT DRY MILK, CORN SYRUP, SALT, SPICES, SODIUM CITRATE, SODIUM DIACETATE, GARLIC, SODIUM ERYTHORBATE, SODIUM NITRITE." Date available: 07/14/2017 Date last updated by company: 07/14/2017
