Source: USDA Branded Food Products Database Release December 2017 Software v.3.8.6.4 2017-10-02
Report Run at: December 19, 2017 01:25 EST
"Nutrient data for: 45286760, COTTAGE CHEESE CREAMY SMALL CURD, UPC: 856491006072"
Food Group:  Branded Food Products Database
Common Name:

Nutrient,Unit,Data points,Std. Error,"0.5 cup = 113.0g",1Value per 100 g,
Proximates
"Energy",kcal,--,--,110,97
"Protein",g,--,--,14.00,12.39
"Total lipid (fat)",g,--,--,4.50,3.98
"Carbohydrate, by difference",g,--,--,2.99,2.65
"Fiber, total dietary",g,--,--,0.0,0.0
"Sugars, total",g,--,--,2.99,2.65
Minerals
"Calcium, Ca",mg,--,--,150,133
"Iron, Fe",mg,--,--,0.00,0.00
"Sodium, Na",mg,--,--,390,345
Vitamins
"Vitamin C, total ascorbic acid",mg,--,--,0.0,0.0
"Vitamin A, IU",IU,--,--,194,172
Lipids
"Fatty acids, total saturated",g,--,--,2.994,2.650
"Fatty acids, total trans",g,--,--,0.000,0.000
"Cholesterol",mg,--,--,15,13
Amino Acids
Other
Ingredients
"CULTURED SKIM MILK, SKIM MILK, CREAM, MILK PROTEIN CONCENTRATE, SALT, POTASSIUM SORBATE (PRESERVATIVE), ENZYMES." Date available: 07/14/2017 Date last updated by company: 07/14/2017
