Source: USDA Branded Food Products Database Release December 2017 Software v.3.8.6.4 2017-10-02
Report Run at: December 19, 2017 01:34 EST
"Nutrient data for: 45090103, COUGAR MOUNTAIN, GOURMET COOKIES, CHOCOLATE CHUNK, UPC: 096343220014"
Food Group:  Branded Food Products Database
Common Name:

Nutrient,Unit,Data points,Std. Error,"3.5 ONZ = 99.0g",1Value per 100 g,
Proximates
"Energy",kcal,--,--,410,414
"Protein",g,--,--,5.00,5.05
"Total lipid (fat)",g,--,--,16.00,16.16
"Carbohydrate, by difference",g,--,--,65.00,65.66
"Fiber, total dietary",g,--,--,2.0,2.0
"Sugars, total",g,--,--,37.00,37.37
Minerals
"Calcium, Ca",mg,--,--,40,40
"Iron, Fe",mg,--,--,1.37,1.38
"Sodium, Na",mg,--,--,470,475
Vitamins
"Vitamin C, total ascorbic acid",mg,--,--,0.0,0.0
"Vitamin A, IU",IU,--,--,101,102
Lipids
"Fatty acids, total saturated",g,--,--,6.999,7.070
"Fatty acids, total trans",g,--,--,0.000,0.000
"Cholesterol",mg,--,--,30,30
Amino Acids
Other
Ingredients
"UNBLEACHED WHEAT FLOUR (FLOUR, NIACIN, REDUCED IRON, REDUCED IRON, THIAMINE MONONITRATE, RIBOFLAVIN, FOLID ACID), BROWN SUGAR, CHOCOLATE (SUGAR, CHOCOLATE LIQUOR, COCOA BUTTER, SAY LECITHIN, VANILLA), SUGAR, BUTTER(CREAM, SALT), EXPELLER-PRESSED CANOLA OIL, SKIM MILK, EGGS, BAKING SODA, SEA SALT, VANILLA." Date available: 06/25/2017 Date last updated by company: 06/25/2017
