Source: USDA Branded Food Products Database Release December 2017 Software v.3.8.6.4 2017-10-02
Report Run at: December 19, 2017 01:39 EST
"Nutrient data for: 45173279, COUNTRY FARMS, STONE GROUND WHOLE WHEAT BREAD, UPC: 041163975804"
Food Group:  Branded Food Products Database
Common Name:

Nutrient,Unit,Data points,Std. Error,"1 SLICE = 43.0g",1Value per 100 g,
Proximates
"Energy",kcal,--,--,110,256
"Protein",g,--,--,5.00,11.63
"Total lipid (fat)",g,--,--,1.50,3.49
"Carbohydrate, by difference",g,--,--,19.00,44.19
"Fiber, total dietary",g,--,--,3.0,7.0
"Sugars, total",g,--,--,3.00,6.98
Minerals
"Calcium, Ca",mg,--,--,0,0
"Iron, Fe",mg,--,--,1.26,2.92
"Sodium, Na",mg,--,--,190,442
Vitamins
"Vitamin C, total ascorbic acid",mg,--,--,0.0,0.0
"Thiamin",mg,--,--,0.000,0.000
"Riboflavin",mg,--,--,0.000,0.000
"Niacin",mg,--,--,1.396,3.247
"Vitamin A, IU",IU,--,--,0,0
Lipids
"Fatty acids, total saturated",g,--,--,0.000,0.000
"Fatty acids, total monounsaturated",g,--,--,0.000,0.000
"Fatty acids, total polyunsaturated",g,--,--,0.499,1.160
"Fatty acids, total trans",g,--,--,0.000,0.000
"Cholesterol",mg,--,--,0,0
Amino Acids
Other
Ingredients
"WHOLE WHEAT FLOUR, WATER, SUGAR, WHEAT GLUTEN, BULGUR WHEAT, YEAST, SOYBEAN OIL, SALT, MOLASSES, GRAIN VINEGAR, WHEAT BRAN, ENZYME MODIFIED SOY LECITHIN, SOY LECITHIN, CALCIUM SULFATE." Date available: 07/14/2017 Date last updated by company: 07/14/2017
