Source: USDA Branded Food Products Database Release December 2017 Software v.3.8.6.4 2017-10-02
Report Run at: December 19, 2017 01:41 EST
"Nutrient data for: 45184209, COUNTRY HAM PORK SIDE MEAT, UPC: 0091271001230"
Food Group:  Branded Food Products Database
Common Name:

Nutrient,Unit,Data points,Std. Error,"2.0 ONZ = 56.0g",1Value per 100 g,
Proximates
"Energy",kcal,--,--,391,698
"Protein",g,--,--,5.00,8.93
"Total lipid (fat)",g,--,--,41.00,73.21
"Carbohydrate, by difference",g,--,--,0.00,0.00
Minerals
"Iron, Fe",mg,--,--,0.71,1.26
"Sodium, Na",mg,--,--,667,1191
Vitamins
Lipids
"Fatty acids, total saturated",g,--,--,15.999,28.570
"Cholesterol",mg,--,--,54,96
Amino Acids
Other
Ingredients
"CURED WITH SALT, WHITE SUGAR, BLACK PEPPER, SODIUM NITRITE." Date available: 10/19/2017 Date last updated by company: 10/19/2017
