Source: USDA Branded Food Products Database Release December 2017 Software v.3.8.6.4 2017-10-02
Report Run at: December 19, 2017 01:43 EST
"Nutrient data for: 45236022, COUNTRY MEATS, UPC: 021002005022"
Food Group:  Branded Food Products Database
Common Name:

Nutrient,Unit,Data points,Std. Error,"0.5 ONZ = 14.0g",1Value per 100 g,
Proximates
"Energy",kcal,--,--,105,750
"Protein",g,--,--,5.00,35.71
"Total lipid (fat)",g,--,--,12.00,85.71
"Carbohydrate, by difference",g,--,--,0.00,0.00
Minerals
"Sodium, Na",mg,--,--,70,500
Vitamins
Lipids
"Fatty acids, total saturated",g,--,--,4.999,35.710
"Fatty acids, total trans",g,--,--,0.000,0.000
"Cholesterol",mg,--,--,5,36
Amino Acids
Other
Ingredients
"COUNTRY CURED PORK FAT, SKIN ATTACHED, CURED WITH SALT, SUGARS, SODIUM NITRATE, SODIUM NITRITE, SEASONING: SALT, GROUND CHILIS, PAPRIKA, PEPPER, ONION POWDER, AND CAYENNE PEPPER." Date available: 06/25/2017 Date last updated by company: 06/25/2017
