Source: USDA Branded Food Products Database Release December 2017 Software v.3.8.6.4 2017-10-02
Report Run at: December 19, 2017 01:40 EST
"Nutrient data for: 45086603, COUNTRY FRESH, VEGETABLE DIP, UPC: 071600017606"
Food Group:  Branded Food Products Database
Common Name:

Nutrient,Unit,Data points,Std. Error,"2.0 Tbsp = 31.0g",1Value per 100 g,
Proximates
"Energy",kcal,--,--,60,194
"Protein",g,--,--,1.00,3.23
"Total lipid (fat)",g,--,--,5.00,16.13
"Carbohydrate, by difference",g,--,--,2.00,6.45
"Fiber, total dietary",g,--,--,0.0,0.0
"Sugars, total",g,--,--,2.00,6.45
Minerals
"Calcium, Ca",mg,--,--,40,129
"Iron, Fe",mg,--,--,0.00,0.00
"Sodium, Na",mg,--,--,320,1032
Vitamins
"Vitamin C, total ascorbic acid",mg,--,--,0.0,0.0
"Vitamin A, IU",IU,--,--,322,1040
Lipids
"Fatty acids, total saturated",g,--,--,3.500,11.290
"Fatty acids, total trans",g,--,--,0.000,0.000
"Cholesterol",mg,--,--,20,65
Amino Acids
Other
Ingredients
"CULTURED MILK, CREAM, WHEY, DILL DIP SEASONING (SALT, ONION, MONOSODIUM GLUTAMATE, HYDROLYZED SOY AND CORN PROTEINS, SPICE, LACTOSE, PARSLEY FLAKES, SPICE EXTRACTIVES INCLUDING PAPRIKA), MODIFIED CORN STARCH, SODIUM PHOSPHATE, GUAR GUM, CARRAGEENAN, CALCIUM SULFATE, LOCUST BEAN GUM, AND POTASSIUM SORBATE (TO PROTECT FLAVOR)." Date available: 06/25/2017 Date last updated by company: 06/25/2017
