Source: USDA Branded Food Products Database Release December 2017 Software v.3.8.6.4 2017-10-02
Report Run at: December 19, 2017 01:43 EST
"Nutrient data for: 45051901, COUNTRY MAID, MACARONI SALAD, UPC: 021739310017"
Food Group:  Branded Food Products Database
Common Name:

Nutrient,Unit,Data points,Std. Error,"0.5 cup = 140.0g",1Value per 100 g,
Proximates
"Energy",kcal,--,--,500,357
"Protein",g,--,--,9.00,6.43
"Total lipid (fat)",g,--,--,25.00,17.86
"Carbohydrate, by difference",g,--,--,56.00,40.00
"Fiber, total dietary",g,--,--,2.0,1.4
"Sugars, total",g,--,--,10.00,7.14
Minerals
"Calcium, Ca",mg,--,--,20,14
"Iron, Fe",mg,--,--,1.81,1.29
"Sodium, Na",mg,--,--,589,421
Vitamins
"Vitamin C, total ascorbic acid",mg,--,--,2.4,1.7
"Vitamin A, IU",IU,--,--,500,357
Lipids
"Fatty acids, total saturated",g,--,--,4.004,2.860
"Fatty acids, total trans",g,--,--,0.000,0.000
"Cholesterol",mg,--,--,29,21
Amino Acids
Other
Ingredients
"MACARONI (DURUM, WHEAT SEMOLINA ENRICHED WITH IRON [FERROUS SULFATE] AND B VITAMINS [NIACIN, THIAMIN MONONITRATE, RIBOFLAVIN, FOLIC ACID]), SALAD DRESSING (SOYBEAN OIL, WATER, HIGH FRUCTOSE CORN SYRUP, DISTILLED VINEGAR, EGG YOLKS, MODIFIED CORN STARCH, SALT, MUSTARD FLOUR, ONION POWDER, CALCIUM DISODIUM EDTA , NATURAL FLAVOR.) WATER, MAYONNAISE (SOYBEAN OIL, WHOLE EGGS AND EGG YOLKS, VINEGAR, WATER,SALT, SUGAR, LEMON JUICE [FROM CONCENTRATE], NATURAL FLAVORS), SWEET, VINEGAR, SALT, (CUCUMBERS, HIGH FRUCTOSE CORN SYRUP,WATER, VINEGAR,SALT, CALCIUM CHLORIDE, XANTHAN GUM, SODIUM BENZOATE AS PRESERVATIVES, NATURAL FLAVORING, OLERESIN TURMERIC, ALUM, POLYSORBATE 80), EGGS, CARROTS, CELERY, SUGAR, RED PEPPERS, MUSTARD (WATER, VINEGAR, MUSTARD SEED,SALT, TURMERIC, SPICES), ONIONS, SALT, POTASSIUM SORBATE AS A PRESERVATIVES, CELERY SEEDS, BLACK PEPPER." Date available: 06/24/2017 Date last updated by company: 06/24/2017
