Source: USDA Branded Food Products Database Release December 2017 Software v.3.8.6.4 2017-10-02
Report Run at: December 19, 2017 01:37 EST
"Nutrient data for: 45080576, COUNTRY CROCK, CALCIUM WITH VITAMIN D, 35% VEGETABLE OIL SPREAD, UPC: 027400250620"
Food Group:  Branded Food Products Database
Common Name:

Nutrient,Unit,Data points,Std. Error,"1 Tbsp = 14.0g",1Value per 100 g,
Proximates
"Energy",kcal,--,--,45,321
"Protein",g,--,--,0.00,0.00
"Total lipid (fat)",g,--,--,5.00,35.71
"Carbohydrate, by difference",g,--,--,0.00,0.00
Minerals
"Calcium, Ca",mg,--,--,100,714
"Sodium, Na",mg,--,--,100,714
Vitamins
"Vitamin A, IU",IU,--,--,1690,12075
"Vitamin D",IU,--,--,80,571
Lipids
"Fatty acids, total saturated",g,--,--,1.499,10.710
"Fatty acids, total monounsaturated",g,--,--,1.000,7.140
"Fatty acids, total polyunsaturated",g,--,--,2.500,17.860
"Fatty acids, total trans",g,--,--,0.000,0.000
Amino Acids
Other
Ingredients
"PURIFIED WATER, SOYBEAN OIL, PALM KERNEL AND PALM OIL, TRICALCIUM PHOSPHATE, SALT, MONO AND DIGLYCERIDES, LACTIC ACID, XANTHAN GUM, LECITHIN (SOY), POTASSIUM SORBATE (USED TO PROTECT QUALITY), NATURAL FLAVOR, VITAMIN A PALMITATE, BETA CAROTENE (COLOR), VITAMIN D3." Date available: 09/06/2017 Date last updated by company: 09/06/2017
