Source: USDA Branded Food Products Database Release December 2017 Software v.3.8.6.4 2017-10-02
Report Run at: December 19, 2017 01:48 EST
"Nutrient data for: 45176966, COUNTRY WHITE SANDWICH BREAD, UPC: 078742113739"
Food Group:  Branded Food Products Database
Common Name:

Nutrient,Unit,Data points,Std. Error,"1 SLICE = 49.0g",1Value per 100 g,
Proximates
"Energy",kcal,--,--,130,265
"Protein",g,--,--,4.00,8.16
"Total lipid (fat)",g,--,--,2.00,4.08
"Carbohydrate, by difference",g,--,--,23.00,46.94
"Fiber, total dietary",g,--,--,1.0,2.0
"Sugars, total",g,--,--,1.00,2.04
Minerals
"Calcium, Ca",mg,--,--,60,122
"Iron, Fe",mg,--,--,1.47,3.00
"Sodium, Na",mg,--,--,240,490
Vitamins
"Vitamin C, total ascorbic acid",mg,--,--,0.0,0.0
"Vitamin A, IU",IU,--,--,0,0
Lipids
"Fatty acids, total saturated",g,--,--,0.000,0.000
"Fatty acids, total trans",g,--,--,0.000,0.000
"Cholesterol",mg,--,--,0,0
Amino Acids
Other
Ingredients
"ENRICHED WHEAT FLOUR (WHEAT FLOUR, MALTED BARLEY FLOUR, NIACIN, REDUCED IRON, THIAMINE MONONITRATE, RIBOFLAVIN, FOLIC ACID), WATER, VEGETABLE OIL (CANOLA OIL OR SOYBEAN OIL), LESS THAN 2% OF BROWN SUGAR, SALT, SUGAR, YEAST, VINEGAR, GUAR GUM, MONO- AND DIGLYCERIDES, SODIUM STEAROYL LACTYLATE, ENZYMES, CALCIUM PROPIONATE (PRESERVATIVE), SORBIC ACID (PRESERVATIVE), DEXTROSE." Date available: 07/14/2017 Date last updated by company: 07/14/2017
