Source: USDA Branded Food Products Database Release December 2017 Software v.3.8.6.4 2017-10-02
Report Run at: December 19, 2017 01:42 EST
"Nutrient data for: 45222696, COUNTRY KITCHEN, POWDERED DONUTS, UPC: 073402345109"
Food Group:  Branded Food Products Database
Common Name:

Nutrient,Unit,Data points,Std. Error,"1 DONUT = 28.0g",1Value per 100 g,
Proximates
"Energy",kcal,--,--,90,321
"Protein",g,--,--,1.00,3.57
"Total lipid (fat)",g,--,--,4.00,14.29
"Carbohydrate, by difference",g,--,--,12.00,42.86
"Fiber, total dietary",g,--,--,0.0,0.0
"Sugars, total",g,--,--,5.00,17.86
Minerals
"Calcium, Ca",mg,--,--,0,0
"Iron, Fe",mg,--,--,1.41,5.05
"Sodium, Na",mg,--,--,180,643
Vitamins
"Vitamin C, total ascorbic acid",mg,--,--,0.0,0.0
"Vitamin A, IU",IU,--,--,0,0
Lipids
"Fatty acids, total saturated",g,--,--,1.000,3.570
"Fatty acids, total trans",g,--,--,0.000,0.000
"Cholesterol",mg,--,--,5,18
Amino Acids
Other
Ingredients
"ENRICHED MALTED WHEAT FLOUR (MALTED WITH BARLEY MALT; ENRICHED WITH NIACIN, REDUCED IRON, THIAMINE MONONITRATE, RIBOFLAVIN, FOLIC ACID), WATER, SUGAR, VEGETABLE SHORTENING (CANOLA OIL, PALM OIL AND PALM KERNEL OIL), GELATINIZED WHEAT STARCH, CONTAINS 2% OR LESS OF THE FOLLOWING INGREDIENTS: SOYBEAN OIL, DEXTROSE, SOY FLOUR, NON-FAT MILK POWDER, DRIED EGG YOLKS, SALT, CORN FLOUR, LEAVENING (SODIUM ACID PYROPHOSPHATE, BAKING SODA, MONOCALCIUM PHOSPHATE, CALCIUM SULFATE), VEGETABLE EMULSIFIER (MONO AND DIGLYCERIDES WITH BHT AND CITRIC ACID TO HELP PROTECT FLAVOR), PARTIALLY HYDROGENATED VEGETABLE SHORTENING (SOYBEAN AND/OR COTTONSEED OIL), SODIUM PROPIONATE (TO RETARD SPOILAGE), SOYBEAN LECITHIN, SODIUM CARBOXMETHYLCELLULOSE GUM, NATURAL AND ARTIFICIAL FLAVOR. COATING CONTAINS: DEXTROSE, CORN STARCH, PARTIALLY HYDROGENATED SOYBEAN AND/OR COTTONSEED OIL, STEARINE, TITANIUM DIOXIDE (ADDED FOR COLOR), NATURAL AND ARTIFICIAL FLAVORS." Date available: 07/14/2017 Date last updated by company: 07/14/2017
