Source: USDA Branded Food Products Database Release December 2017 Software v.3.8.6.4 2017-10-02
Report Run at: December 19, 2017 01:44 EST
"Nutrient data for: 45199537, COUNTRY RANCH SALAD DRESSING, UPC: 608866923985"
Food Group:  Branded Food Products Database
Common Name:

Nutrient,Unit,Data points,Std. Error,"2.0 Tbsp = 28.0g",1Value per 100 g,
Proximates
"Energy",kcal,--,--,90,321
"Protein",g,--,--,0.00,0.00
"Total lipid (fat)",g,--,--,9.00,32.14
"Carbohydrate, by difference",g,--,--,3.00,10.71
"Fiber, total dietary",g,--,--,0.0,0.0
"Sugars, total",g,--,--,2.00,7.14
Minerals
"Calcium, Ca",mg,--,--,20,71
"Iron, Fe",mg,--,--,0.61,2.17
"Sodium, Na",mg,--,--,270,964
Vitamins
"Vitamin C, total ascorbic acid",mg,--,--,0.0,0.0
"Vitamin A, IU",IU,--,--,0,0
Lipids
"Fatty acids, total saturated",g,--,--,1.501,5.360
"Fatty acids, total trans",g,--,--,0.000,0.000
"Cholesterol",mg,--,--,5,18
Amino Acids
Other
Ingredients
"BS SAUCE (KETCHUP (TOMATO CONCENTRATE, SUGAR, VINEGAR, SALT, ONION POWDER, SPICE NATURAL FLAVORS) WORCHESTERSHIRE (DEXTROSE, SALT, SUGAR, CARAMEL COLOR, SILICON DIOXIDE (TO PREVENT CAKING), GARLIC, SPICES, CITRIC ACID, NATURAL SPICE EXTRACTIVES, ANNATTO COLOR, VINEGAR WHITE, CAYENNE PEPPER) YELLOW MUSTARD (DISTILLED VINEGAR, WATER, #1 GRADE MUSTARD SEED, SALT, TURMERIC, PAPRIKA, SPICE, NATURAL FLAVORS, AND GARLIC POWDER), VEGETABLE OIL, HOT PEPPER SAUCE, LEMON JUICE, SUGAR, LIQUID SMOKE FLAVOR, SPICES, GARLIC, (CAYENNE PEPPER) IN HOT SAUCES), MAYONNAISE (SOYBEAN OIL, WHOLE EGGS, VINEGAR, WATER, EGG YOLKS, SALT, SUGAR, LEMON JUICE, NATURAL FLAVORS, CALCIUM DISODIUM EDTA (USED TO PROTECT QUALITY)), PASTEURIZED BUTTERMILK, CELERY SALT, SPICES, CHIVES, PARSLEY, DILL WEED, GARLIC, ONION, SEA SALT." Date available: 07/14/2017 Date last updated by company: 07/14/2017
