Source: USDA Branded Food Products Database Release December 2017 Software v.3.8.6.4 2017-10-02
Report Run at: December 19, 2017 01:51 EST
"Nutrient data for: 45185538, COWHAUS CREAMERY, ARTISAN ICE CREAM, BOURBON BROWN BUTTER PECAN, UPC: 700175347978"
Food Group:  Branded Food Products Database
Common Name:

Nutrient,Unit,Data points,Std. Error,"0.5 cup = 89.0g",1Value per 100 g,
Proximates
"Energy",kcal,--,--,240,270
"Protein",g,--,--,3.00,3.37
"Total lipid (fat)",g,--,--,17.00,19.10
"Carbohydrate, by difference",g,--,--,19.00,21.35
"Fiber, total dietary",g,--,--,0.0,0.0
"Sugars, total",g,--,--,18.00,20.22
Minerals
"Calcium, Ca",mg,--,--,80,90
"Iron, Fe",mg,--,--,0.41,0.46
"Sodium, Na",mg,--,--,70,79
Vitamins
"Vitamin C, total ascorbic acid",mg,--,--,0.0,0.0
"Vitamin A, IU",IU,--,--,449,505
Lipids
"Fatty acids, total saturated",g,--,--,10.004,11.240
"Fatty acids, total trans",g,--,--,0.000,0.000
"Cholesterol",mg,--,--,65,73
Amino Acids
Other
Ingredients
"MILK, CREAM, LIQUID SUCROSE, NONFAT DRY MILK, EGG YOLKS, PURE CANE SUGAR, BROWN SUGAR, CREAM, PECANS, BUTTER, ORGANIC SEA SALT, BOURBON, VANILLA EXTRACT (WATER, SUGAR, ALCOHOL, VANILLA BEAN), LOCUST BEAN GUM." Date available: 07/14/2017 Date last updated by company: 07/14/2017
