Source: USDA Branded Food Products Database Release December 2017 Software v.3.8.6.4 2017-10-02
Report Run at: December 19, 2017 01:52 EST
"Nutrient data for: 45277410, COYOTA JAMONCILLO MEXICAN PASTRY, UPC: 700023001298"
Food Group:  Branded Food Products Database
Common Name:

Nutrient,Unit,Data points,Std. Error,"1 PASTRY = 80.0g",1Value per 100 g,
Proximates
"Energy",kcal,--,--,380,475
"Protein",g,--,--,6.00,7.50
"Total lipid (fat)",g,--,--,14.00,17.50
"Carbohydrate, by difference",g,--,--,45.00,56.25
"Fiber, total dietary",g,--,--,1.0,1.2
"Sugars, total",g,--,--,37.00,46.25
Minerals
"Calcium, Ca",mg,--,--,0,0
"Iron, Fe",mg,--,--,0.25,0.31
"Sodium, Na",mg,--,--,920,1150
Vitamins
"Vitamin C, total ascorbic acid",mg,--,--,0.0,0.0
"Vitamin A, IU",IU,--,--,0,0
Lipids
"Fatty acids, total saturated",g,--,--,4.000,5.000
"Fatty acids, total trans",g,--,--,0.000,0.000
"Cholesterol",mg,--,--,0,0
Amino Acids
Other
Ingredients
"WHEAT FLOUR, MILK CANDY, MOLASSES, VEGETAL FAT, SUGAR, WATER AND SALT" Date available: 07/14/2017 Date last updated by company: 07/14/2017
