Source: USDA Branded Food Products Database Release December 2017 Software v.3.8.6.4 2017-10-02
Report Run at: December 19, 2017 01:55 EST
"Nutrient data for: 45198794, CRAB STUFFED SHRIMP, UPC: 075391053850"
Food Group:  Branded Food Products Database
Common Name:

Nutrient,Unit,Data points,Std. Error,"3.0 PIECES) | RAW ( = 141.0g",1Value per 100 g,
Proximates
"Energy",kcal,--,--,180,128
"Protein",g,--,--,11.00,7.80
"Total lipid (fat)",g,--,--,6.99,4.96
"Carbohydrate, by difference",g,--,--,18.01,12.77
"Fiber, total dietary",g,--,--,3.0,2.1
"Sugars, total",g,--,--,4.00,2.84
Minerals
"Calcium, Ca",mg,--,--,80,57
"Iron, Fe",mg,--,--,0.44,0.31
"Sodium, Na",mg,--,--,890,631
Vitamins
"Vitamin C, total ascorbic acid",mg,--,--,0.0,0.0
"Vitamin A, IU",IU,--,--,180,128
Lipids
"Fatty acids, total saturated",g,--,--,2.496,1.770
"Fatty acids, total trans",g,--,--,0.000,0.000
"Cholesterol",mg,--,--,70,50
Amino Acids
Other
Ingredients
"SHRIMP, ROASTED GARLIC PARMESAN SAUCE (NATURAL FLAVORS, DEHYDRATED GARLIC, PARTIALLY HYDROGENATED VEGETABLE OIL [SOYBEAN, COTTONSEED], COCONUT OIL, PARMESAN CHEESE [MILK, SALT, CULTURE, ENZYMES], SALT, DEHYDRATED ONION, MALTODEXTRIN, WHEY PROTEIN CONCENTRATE, ROMANO CHEESE [PASTEURIZED MILK, CHEESE CULTURES, SALT, ENZYMES], MODIFIED FOOD STARCH, WHEY SOLIDS, SUGAR, YEAST EXTRACT, PARSLEY, SODIUM CASEINATE [A MILK DERIVATIVE], ANNATTO EXTRACT, TURMERIC, AND NOT MORE THAN 2% SILICON DIOXIDE ADDED AS A PROCESSING AID), CLAW CRABMEAT, IMITATION CRABMEAT (THREADFIN BREAM SURIMI, WATER, STARCH, SALT, SUGAR, CRAB FLAVOR, CRAB EXTRACT, SOYBEAN PROTEIN, SOYBEAN OIL, RICE WINE, COCHINEAL COLOR E-120, PAPRIKA COLOR E160C), DICED CELERY, DICED ONIONS, BREAD CRUMBS (BLEACHED WHEAT FLOUR, DEXTROSE, CONTAINS 2% OR LESS OF YEAST, PARTIALLY HYDROGENATED VEGETABLE OIL [SOYBEAN AND/OR COTTONSEED], SALT), SALAD DRESSING (SOYBEAN OIL, WATER, HIGH FRUCTOSE CORN SYRUP, DISTILLED AND CIDER VINEGAR, MODIFIED FOOD STARCH, EGGS YOLKS, SALT, CORN SYRUP, SPICE, PAPRIKA, NATURAL FLAVORS AND CALCIUM DISODIUM EDTA ADDED TO PROTECT FLAVOR), DICED BELL PEPPERS, LIQUID MARGARINE (LIQUID SOYBEAN OIL, WATER, SALT, HYDROGENATED SOYBEAN OIL AND/OR COTTONSEED OIL, VEGETABLE MONO AND DIGLYCERIDES, SOY LECITHIN, POTASSIUM SORBATE AND CITRIC ACID [PRESERVATIVES], ARTIFICIAL FLAVORS, BETA CAROTENE [COLOR], VITAMIN A PALMITATE ADDED), SEAFOOD SEASONING (CORN SYRUP SOLIDS, SALT, MONOSODIUM GLUTAMATE, SILICA GEL AS AN ANTI-CAKING AGENT, HYDROLYZED VEGETABLE PROTEIN, MALTODEXTRIN, DEXTROSE, SPICE EXTRACTS), KETCHUP (TOMATO CONCENTRATE MADE FROM RED RIPE TOMATOES, DISTILLED VINEGAR, HIGH FRUCTOSE CORN SYRUP, CORN SYRUP, SALT, SPICE, ONION POWDER, NATURAL FLAVORING), CORN STARCH, SODIUM TRIPOLYPHOSPHATE (TO RETAIN MOISTURE), SODIUM BISULFITE (AS A PRESERVATIVE)." Date available: 09/27/2017 Date last updated by company: 09/27/2017
