Source: USDA Branded Food Products Database Release December 2017 Software v.3.8.6.4 2017-10-02
Report Run at: December 19, 2017 01:55 EST
"Nutrient data for: 45258139, CRAB & SHRIMP SEAFOOD FEAST, UPC: 731149920569"
Food Group:  Branded Food Products Database
Common Name:

Nutrient,Unit,Data points,Std. Error,"0.25 OF PACKAGE | ABOUT = 250.0g",1Value per 100 g,
Proximates
"Energy",kcal,--,--,270,108
"Protein",g,--,--,23.00,9.20
"Total lipid (fat)",g,--,--,10.00,4.00
"Carbohydrate, by difference",g,--,--,21.00,8.40
"Fiber, total dietary",g,--,--,2.0,0.8
"Sugars, total",g,--,--,3.00,1.20
Minerals
"Calcium, Ca",mg,--,--,60,24
"Iron, Fe",mg,--,--,2.10,0.84
"Sodium, Na",mg,--,--,920,368
Vitamins
"Vitamin C, total ascorbic acid",mg,--,--,9.2,3.7
"Vitamin A, IU",IU,--,--,312,125
Lipids
"Fatty acids, total saturated",g,--,--,4.000,1.600
"Fatty acids, total trans",g,--,--,0.000,0.000
"Cholesterol",mg,--,--,100,40
Amino Acids
Other
Ingredients
"CORN ON THE COB, BEER BROTH (WATER, BEER [WATER, BARLEY MALT CORN, YEAST, HOPS], CLAM JUICE [SEA CLAM JUICE, SALT], BUTTER [CREAM SALT], DRIED BEER EXTRACT [MALTODEXTRIN, MALTED BARLEY, CORN SYRUP, HOPS, YEAST] , GARLIC PUREE, CELERY, SHALLOTS, MODIFIED CORN STARCH, PARSLEY, CULTURED DEXTROSE, LEMON JUICE CONCENTRATE, DEHYDRATED GARLIC, SPICES), RED POTATOES, SHRIMP (SHRIMP, SALT, SODIUM TRIPOLYPHOSPHATE), SNOW CRAB (SNOW CRAB, WATER, SALT), BENI-ZUWAI CRAB (BENI-ZUWAI CRAB, WATER, SALT), COOKED MUSSELS, SAUSAGE [ PORK, WATER, AND SPICE EXTRACTIVES, SALT, CORN SYRUP, DEXTROSE, SODIUM PHOSPHATE, CARAMEL COLOR, GARLIC POWDER), ROASTED RED BELL PEPPERS, ROASTED GREEN BELL PEPPERS, ROASTED RED ONIONS." Date available: 07/14/2017 Date last updated by company: 07/14/2017
