Source: USDA Branded Food Products Database Release December 2017 Software v.3.8.6.4 2017-10-02
Report Run at: December 19, 2017 01:54 EST
"Nutrient data for: 45269722, CRAB RANGOONS, UPC: 889396001101"
Food Group:  Branded Food Products Database
Common Name:

Nutrient,Unit,Data points,Std. Error,"3.0 PIECES = 85.0g",1Value per 100 g,
Proximates
"Energy",kcal,--,--,220,259
"Protein",g,--,--,7.00,8.24
"Total lipid (fat)",g,--,--,9.00,10.59
"Carbohydrate, by difference",g,--,--,26.00,30.59
"Fiber, total dietary",g,--,--,1.0,1.2
"Sugars, total",g,--,--,2.00,2.35
Minerals
"Calcium, Ca",mg,--,--,60,71
"Iron, Fe",mg,--,--,0.36,0.42
"Sodium, Na",mg,--,--,440,518
Vitamins
"Vitamin C, total ascorbic acid",mg,--,--,0.0,0.0
"Vitamin A, IU",IU,--,--,300,353
Lipids
"Fatty acids, total saturated",g,--,--,4.497,5.290
"Fatty acids, total trans",g,--,--,0.000,0.000
"Cholesterol",mg,--,--,25,29
Amino Acids
Other
Ingredients
"FILLING CREAM CHEESE (PASTEURIZED CULTURED MILK AND CREAM, SALT, STABILIZERS [XANTHAN GUM AND/OR CAROB BEAN AND/OR GUAR GUMS]), SURIMI (GOLDEN THREADFIN BREAM, SUGAR, SORBITOL, SODIUM TRIPOLYPHOSPHATE, WATER, WHEAT STARCH, SOYBEAN PROTEIN, SUGAR, SALT, RICE WINE, SOYBEAN OIL, NATURAL CRAB EXTRACT, NATURAL CRAB FLAVOR, SORBITOL MONOSODIUM GLUTAMATE, NATURAL COLOR [COCHINEAL), CRAB MEAT (CRAB MEAT, SALT), SUGAR, SOY SAUCE (WATER, WHEAT, SOYBEANS, SALT, SODIUM BENZOATE, LESS THAN 1/10 OF 1% AS A PRESERVATIVE), GARLIC POWDER, WHITE PEPPER WRAPPER: BLEACHED WHEAT FLOUR, WATER, PASTEURIZED EGGS, CORN STARCH, SALT, ASCORBIC ACID AND CITRIC ACID AS ANTI-OXIDANT, POTASSIUM SORBATE AS PRESERVATIVE, FRIED IN SOYBEAN OIL." Date available: 07/14/2017 Date last updated by company: 07/14/2017
