Source: USDA Branded Food Products Database Release December 2017 Software v.3.8.6.4 2017-10-02
Report Run at: December 19, 2017 01:53 EST
"Nutrient data for: 45331436, CRAB LOG SEAFOOD SPREAD, UPC: 713456300302"
Food Group:  Branded Food Products Database
Common Name:

Nutrient,Unit,Data points,Std. Error,"2.0 Tbsp = 39.0g",1Value per 100 g,
Proximates
"Energy",kcal,--,--,140,359
"Protein",g,--,--,2.00,5.13
"Total lipid (fat)",g,--,--,13.00,33.33
"Carbohydrate, by difference",g,--,--,4.00,10.26
"Fiber, total dietary",g,--,--,0.0,0.0
"Sugars, total",g,--,--,1.00,2.56
Minerals
"Calcium, Ca",mg,--,--,20,51
"Iron, Fe",mg,--,--,0.00,0.00
"Sodium, Na",mg,--,--,340,872
Vitamins
"Vitamin C, total ascorbic acid",mg,--,--,0.0,0.0
"Vitamin A, IU",IU,--,--,307,788
Lipids
"Fatty acids, total saturated",g,--,--,3.498,8.970
"Fatty acids, total trans",g,--,--,0.000,0.000
"Cholesterol",mg,--,--,15,38
Amino Acids
Other
Ingredients
"IMITATION CRAB (FISH PROTEIN [POLLOCK AND/OR WHITING], WATER, WHEAT STARCH, POTATO STARCH, SUGAR, CONTAINS 2% OR LESS OF: SNOW CRAB MEAT, TAPIOCA STARCH, SORBITOL, EGG WHITES, SALT, WHEAT FLOUR, NATURAL AND ARTIFICIAL CRAB FLAVORS, CRAB EXTRACT, POTASSIUM CHLORIDE, CARRAGEENAN, SODIUM TRIPOLYPHOSPHATE, TETRASODIUM PYROPHOSPHATE, COLOR ADDED, CARMINE, PAPRIKA OLEORESIN, MODIFIED CORN STARCH, SOY LECITHIN, HYDROLYZED SOY PROTEIN), CREAM CHEESE BLEND (MILK, CREAM CHEESE [PASTEURIZED MILK AND CREAM, CHEESE CULTURE], PALM OIL, CHEESE CULTURE, SALT, CAROB BEAN GUM, MONO AND DIGLYCERIDES, APOCAROTENAL [COLOR]), SOYBEAN OIL, WATER, PASTEURIZED PROCESSED CHEESE SPREAD (CULTURED MILK, WATER, CREAM, WHEY, SKIM MILK, SODIUM PHOSPHATES, SALT, SORBIC ACID [PRESERVATIVE], ANNATTO COLOR, ENZYMES), CONTAINS 2% OR LESS OF: EGG YOLKS, TOMATO PASTE, PIMENTOS, GARLIC*, PARSLEY*, SPICES, LEMON JUICE CONCENTRATE, SALT, SUGAR, MUSTARD FLOUR, ONION*, DISTILLED VINEGAR, CITRIC AND PHOSPHORIC ACIDS, HIGH FRUCTOSE CORN SYRUP, MODIFIED CORN STARCH, XANTHAN GUM, POTASSIUM SORBATE AND SODIUM BENZOATE (PRESERVATIVES), OLEORESIN PAPRIKA (COLOR), CALCIUM DISODIUM EDTA." Date available: 10/13/2017 Date last updated by company: 10/13/2017
