Source: USDA Branded Food Products Database Release December 2017 Software v.3.8.6.4 2017-10-02
Report Run at: December 19, 2017 01:55 EST
"Nutrient data for: 45210289, CRAB TASTIES, UPC: 041625144144"
Food Group:  Branded Food Products Database
Common Name:

Nutrient,Unit,Data points,Std. Error,"0.5 cup = 85.0g",1Value per 100 g,
Proximates
"Energy",kcal,--,--,90,106
"Protein",g,--,--,6.00,7.06
"Total lipid (fat)",g,--,--,1.00,1.18
"Carbohydrate, by difference",g,--,--,15.00,17.65
"Fiber, total dietary",g,--,--,0.0,0.0
"Sugars, total",g,--,--,5.00,5.88
Minerals
"Calcium, Ca",mg,--,--,40,47
"Iron, Fe",mg,--,--,0.00,0.00
"Sodium, Na",mg,--,--,560,659
Vitamins
"Vitamin C, total ascorbic acid",mg,--,--,0.0,0.0
"Vitamin A, IU",IU,--,--,0,0
Lipids
"Fatty acids, total saturated",g,--,--,0.000,0.000
"Fatty acids, total trans",g,--,--,0.000,0.000
"Cholesterol",mg,--,--,10,12
Amino Acids
Other
Ingredients
"POLLOCK, WATER, WHEAT STARCH, CORN STARCH, SUGAR, CONTAINS 2% OR LESS OF THE FOLLOWING: SALT, SOYBEAN OIL, MIRIN WINE, NATURAL AND ARTIFICIAL CRAB FLAVOR, CALCIUM CARBONATE, CRAB SEASONING, EGG WHITES GEL FIBER, SODIUM TRIPOLYPHOSPHATE (TO RETAIN MOISTURE), TETRASODIUM PYROPHOSPHATE, CARMINE, PAPRIKA." Date available: 07/14/2017 Date last updated by company: 07/14/2017
