Source: USDA Branded Food Products Database Release December 2017 Software v.3.8.6.4 2017-10-02
Report Run at: December 19, 2017 01:58 EST
"Nutrient data for: 45265982, CRACKER COATED PEANUTS, UPC: 050428561294"
Food Group:  Branded Food Products Database
Common Name:

Nutrient,Unit,Data points,Std. Error,"25.0 PIECES = 40.0g",1Value per 100 g,
Proximates
"Energy",kcal,--,--,210,525
"Protein",g,--,--,6.00,15.00
"Total lipid (fat)",g,--,--,14.00,35.00
"Carbohydrate, by difference",g,--,--,17.00,42.50
"Fiber, total dietary",g,--,--,2.0,5.0
"Sugars, total",g,--,--,3.00,7.50
Minerals
"Calcium, Ca",mg,--,--,20,50
"Iron, Fe",mg,--,--,0.90,2.25
"Sodium, Na",mg,--,--,460,1150
Vitamins
"Vitamin C, total ascorbic acid",mg,--,--,0.0,0.0
"Vitamin A, IU",IU,--,--,0,0
Lipids
"Fatty acids, total saturated",g,--,--,2.000,5.000
"Fatty acids, total trans",g,--,--,0.000,0.000
"Cholesterol",mg,--,--,0,0
Amino Acids
Other
Ingredients
"PEANUTS, POTATO STARCH, RICE FLOUR, SEASONING (SALT, MALTODEXTRIN, CHEESE POWDER [CHEDDAR CHEESE {PASTEURIZED MILK, CHEESE CULTURES, SALT, ENZYMES}, WHEY, SALT, DISODIUM PHOSPHATE, YELLOW 5, YELLOW 6], MONOSODIUM GLUTAMATE, DEXTROSE, BUTTERMILK, NATURAL AND ARTIFICIAL FLAVORS [INCLUDING SMOKE], WHEY, SOUR CREAM POWDER [SOUR CREAM {CREAM, NONFAT MILK, CULTURES}, MALTODEXTRIN, TOCOPHEROLS, ASCORBYL PALMITATE], YEAST EXTRACT, CITRIC ACID, LACTIC ACID, DRIED ONION, DISODIUM INOSINATE AND DISODIUM GUANYLATE, YELLOW 6 LAKE), PEANUT OIL, TAPIOCA FLOUR, DRIED CANE SYRUP, MALTODEXTRIN, SALT, ROSEMARY EXTRACT." Date available: 07/14/2017 Date last updated by company: 07/14/2017
