Source: USDA Branded Food Products Database Release December 2017 Software v.3.8.6.4 2017-10-02
Report Run at: December 19, 2017 01:57 EST
"Nutrient data for: 45140304, CRACKER BARREL, MACARONI & CHEESE DINNER, UPC: 021000060672"
Food Group:  Branded Food Products Database
Common Name:

Nutrient,Unit,Data points,Std. Error,"0.25 BOX | ABOUT = 98.0g",1Value per 100 g,
Proximates
"Energy",kcal,--,--,310,316
"Protein",g,--,--,13.00,13.27
"Total lipid (fat)",g,--,--,10.00,10.20
"Carbohydrate, by difference",g,--,--,42.00,42.86
"Fiber, total dietary",g,--,--,1.0,1.0
"Sugars, total",g,--,--,3.00,3.06
Minerals
"Calcium, Ca",mg,--,--,200,204
"Iron, Fe",mg,--,--,1.44,1.47
"Sodium, Na",mg,--,--,810,827
Vitamins
"Vitamin C, total ascorbic acid",mg,--,--,0.0,0.0
"Vitamin A, IU",IU,--,--,200,204
Lipids
"Fatty acids, total saturated",g,--,--,4.998,5.100
"Fatty acids, total trans",g,--,--,0.000,0.000
"Cholesterol",mg,--,--,25,26
Amino Acids
Other
Ingredients
"ENRICHED MACARONI PRODUCT (WHEAT FLOUR, NIACIN, FERROUS SULFATE [IRON], THIAMIN MONONITRATE [VITAMIN B1], RIBOFLAVIN [VITAMIN B2], FOLIC ACID); CHEESE SAUCE (CHEDDAR CHEESE [MILK, CHEESE CULTURE, SALT, ENZYMES, ANNATTO (COLOR)], WHEY CANOLA OIL, SODIUM PH" Date available: 10/17/2016 Date last updated by company: 10/17/2016
