Source: USDA Branded Food Products Database Release December 2017 Software v.3.8.6.4 2017-10-02
Report Run at: December 19, 2017 01:58 EST
"Nutrient data for: 45331915, CRACKER CUTS CHEESE, UPC: 078742159256"
Food Group:  Branded Food Products Database
Common Name:

Nutrient,Unit,Data points,Std. Error,"3.0 SLICES = 28.0g",1Value per 100 g,
Proximates
"Energy",kcal,--,--,100,357
"Protein",g,--,--,7.00,25.00
"Total lipid (fat)",g,--,--,8.00,28.57
"Carbohydrate, by difference",g,--,--,1.00,3.57
"Fiber, total dietary",g,--,--,0.0,0.0
"Sugars, total",g,--,--,0.00,0.00
Minerals
"Calcium, Ca",mg,--,--,150,536
"Iron, Fe",mg,--,--,0.00,0.00
"Potassium, K",mg,--,--,0,0
"Sodium, Na",mg,--,--,180,643
Vitamins
"Vitamin D",IU,--,--,8,29
Lipids
"Fatty acids, total saturated",g,--,--,5.001,17.860
"Fatty acids, total trans",g,--,--,0.000,0.000
"Cholesterol",mg,--,--,30,107
Amino Acids
Other
Ingredients
"PEPPER JACK CHEESE (PASTEURIZED MILK, RED AND GREEN JALAPENO PEPPERS, CHEESE CULTURES, SALT, ENZYMES)." Date available: 10/13/2017 Date last updated by company: 10/13/2017
