Source: USDA Branded Food Products Database Release December 2017 Software v.3.8.6.4 2017-10-02
Report Run at: December 19, 2017 01:56 EST
"Nutrient data for: 45220559, CRACKED PEPPER DRESSING, UPC: 608938413215"
Food Group:  Branded Food Products Database
Common Name:

Nutrient,Unit,Data points,Std. Error,"1 Tbsp = 13.75g",1Value per 100 g,
Proximates
"Energy",kcal,--,--,100,727
"Protein",g,--,--,0.00,0.00
"Total lipid (fat)",g,--,--,12.00,87.27
"Carbohydrate, by difference",g,--,--,0.00,0.00
"Fiber, total dietary",g,--,--,0.0,0.0
"Sugars, total",g,--,--,0.00,0.00
Minerals
"Calcium, Ca",mg,--,--,0,0
"Iron, Fe",mg,--,--,0.00,0.00
"Sodium, Na",mg,--,--,65,473
Vitamins
"Vitamin C, total ascorbic acid",mg,--,--,0.0,0.0
"Vitamin A, IU",IU,--,--,0,0
Lipids
"Fatty acids, total saturated",g,--,--,1.500,10.910
"Fatty acids, total trans",g,--,--,0.000,0.000
"Cholesterol",mg,--,--,0,0
Amino Acids
Other
Ingredients
"OLIVE OIL, LEMON JUICE, SPICES, GARLIC, ORGANIC MUSTARD (ORGANIC VINEGAR, WATER, ORGANIC MUSTARD SEED, SALT, ORGANIC TURMERIC, ORGANIC SPICES), SEA SALT" Date available: 07/14/2017 Date last updated by company: 07/14/2017
