Source: USDA Branded Food Products Database Release December 2017 Software v.3.8.6.4 2017-10-02
Report Run at: December 19, 2017 01:56 EST
"Nutrient data for: 45059050, CRACKED PEPPER SEASONING PEPPERCORN, UPC: 815893000163"
Food Group:  Branded Food Products Database
Common Name:

Nutrient,Unit,Data points,Std. Error,"0.25 tsp = 0.9g",1Value per 100 g,
Proximates
"Energy",kcal,--,--,0,0
"Protein",g,--,--,0.00,0.00
"Total lipid (fat)",g,--,--,0.00,0.00
"Carbohydrate, by difference",g,--,--,0.00,0.00
Minerals
"Sodium, Na",mg,--,--,95,10556
Vitamins
Lipids
Amino Acids
Other
Ingredients
"CRACKED BLACK PEPPER, GARLIC, SEA SALT, SPICES (NO PRESERVATIVES, MSG, GLUTEN, OR DEHYDRATED INGREDIENTS)" Date available: 08/11/2017 Date last updated by company: 08/11/2017
