Source: USDA Branded Food Products Database Release December 2017 Software v.3.8.6.4 2017-10-02
Report Run at: December 19, 2017 01:59 EST
"Nutrient data for: 45324140, CRACKERS SANDWICHES, UPC: 079783100153"
Food Group:  Branded Food Products Database
Common Name:

Nutrient,Unit,Data points,Std. Error,"1 PACKAGE = 39.0g",1Value per 100 g,
Proximates
"Energy",kcal,--,--,190,487
"Protein",g,--,--,3.00,7.69
"Total lipid (fat)",g,--,--,9.00,23.08
"Carbohydrate, by difference",g,--,--,24.00,61.54
"Fiber, total dietary",g,--,--,1.0,2.6
"Sugars, total",g,--,--,5.00,12.82
Minerals
"Calcium, Ca",mg,--,--,40,103
"Iron, Fe",mg,--,--,1.38,3.55
"Sodium, Na",mg,--,--,350,897
Vitamins
"Vitamin C, total ascorbic acid",mg,--,--,0.0,0.0
"Vitamin A, IU",IU,--,--,0,0
Lipids
"Fatty acids, total saturated",g,--,--,2.500,6.410
"Fatty acids, total trans",g,--,--,0.000,0.000
"Cholesterol",mg,--,--,0,0
Amino Acids
Other
Ingredients
"ENRICHED FLOUR (WHEAT FLOUR, NIACIN, REDUCED IRON, THIAMIN MONONITRATE [VITAMIN B1], RIBOFLAVIN [VITAMIN B2], FOLIC ACID), VEGETABLE OIL (SOYBEAN, PALM AND PALM KERNEL OIL WITH TBHQ FOR FRESHNESS), WHEY, SUGAR, CONTAINS TWO PERCENT OR LESS OF SALT, CORNSTARCH, CHEDDAR CHEESE (MILK, CHEESE CULTURES, SALT, ENZYMES, ANNATTO COLOR), MALTODEXTRIN, LEAVENING (BAKING SODA, SODIUM ACID PYROPHOSPHATE, MONOCALCIUM PHOSPHATE), BUTTERMILK, NATURAL AND ARTIFICIAL FLAVOR, AUTOLYZED YEAST EXTRACT, DISODIUM PHOSPHATE, CITRIC ACID, SODIUM CASEINATE, TURMERIC EXTRACT FOR COLOR, YELLOW #6, SOY LECITHIN." Date available: 08/11/2017 Date last updated by company: 08/11/2017
