Source: USDA Branded Food Products Database Release December 2017 Software v.3.8.6.4 2017-10-02
Report Run at: December 19, 2017 02:01 EST
"Nutrient data for: 45256869, CRACKLINS, UPC: 021900062875"
Food Group:  Branded Food Products Database
Common Name:

Nutrient,Unit,Data points,Std. Error,"0.5 ONZ = 14.0g",1Value per 100 g,
Proximates
"Energy",kcal,--,--,80,571
"Protein",g,--,--,8.00,57.14
"Total lipid (fat)",g,--,--,5.00,35.71
"Carbohydrate, by difference",g,--,--,0.00,0.00
"Fiber, total dietary",g,--,--,0.0,0.0
"Sugars, total",g,--,--,0.00,0.00
Minerals
"Sodium, Na",mg,--,--,370,2643
Vitamins
Lipids
"Fatty acids, total saturated",g,--,--,1.000,7.140
"Fatty acids, total monounsaturated",g,--,--,3.000,21.430
"Fatty acids, total polyunsaturated",g,--,--,0.500,3.570
"Fatty acids, total trans",g,--,--,0.000,0.000
"Cholesterol",mg,--,--,15,107
Amino Acids
Other
Ingredients
"PORK FAT WITH ATTACHED SKIN, SALT" Date available: 07/14/2017 Date last updated by company: 07/14/2017
