Source: USDA Branded Food Products Database Release December 2017 Software v.3.8.6.4 2017-10-02
Report Run at: December 19, 2017 02:00 EST
"Nutrient data for: 45232033, CRACKERS, UPC: 061243711351"
Food Group:  Branded Food Products Database
Common Name:

Nutrient,Unit,Data points,Std. Error,"3.0 CRACKERS = 15.0g",1Value per 100 g,
Proximates
"Energy",kcal,--,--,70,467
"Protein",g,--,--,2.00,13.33
"Total lipid (fat)",g,--,--,3.00,20.00
"Carbohydrate, by difference",g,--,--,9.00,60.00
"Fiber, total dietary",g,--,--,1.0,6.7
"Sugars, total",g,--,--,3.00,20.00
Minerals
"Calcium, Ca",mg,--,--,20,133
"Iron, Fe",mg,--,--,0.65,4.33
"Potassium, K",mg,--,--,45,300
"Sodium, Na",mg,--,--,70,467
Vitamins
"Vitamin D",IU,--,--,0,0
Lipids
"Fatty acids, total saturated",g,--,--,0.000,0.000
"Fatty acids, total trans",g,--,--,0.000,0.000
"Cholesterol",mg,--,--,0,0
Amino Acids
Other
Ingredients
"UNBLEACHED ENRICHED FLOUR (UNBLEACHED WHEAT FLOUR, NIACIN, IRON, THIAMINE MONONITRATE, RIBOFLAVIN, FOLIC ACID), PUMPKIN SEEDS, THOMPSON RAISINS, PECANS, BROWN SUGAR, FLAX SEEDS, OATS, SESAME SEEDS, ORGANIC SKIM MILK, TURBINADO BROWN SUGAR, LEAVENING (BAKING SODA), SEA SALT, CINNAMON, NUTMEG, CITRIC ACID, ALLSPICE, CLOVES." Date available: 10/19/2017 Date last updated by company: 10/19/2017
