Source: USDA Branded Food Products Database Release December 2017 Software v.3.8.6.4 2017-10-02
Report Run at: December 19, 2017 02:09 EST
"Nutrient data for: 45291258, CRANBERRY ORANGE DREAM SHORTBREAD COOKIES, UPC: 892584002637"
Food Group:  Branded Food Products Database
Common Name:

Nutrient,Unit,Data points,Std. Error,"1 ONZ = 28.0g",1Value per 100 g,
Proximates
"Energy",kcal,--,--,130,464
"Protein",g,--,--,1.00,3.57
"Total lipid (fat)",g,--,--,6.00,21.43
"Carbohydrate, by difference",g,--,--,18.00,64.29
"Fiber, total dietary",g,--,--,0.0,0.0
"Sugars, total",g,--,--,8.00,28.57
Minerals
"Calcium, Ca",mg,--,--,0,0
"Iron, Fe",mg,--,--,0.00,0.00
"Sodium, Na",mg,--,--,50,179
Vitamins
"Vitamin C, total ascorbic acid",mg,--,--,2.2,7.7
"Vitamin A, IU",IU,--,--,357,1275
Lipids
"Fatty acids, total saturated",g,--,--,4.001,14.290
"Fatty acids, total trans",g,--,--,0.000,0.000
"Cholesterol",mg,--,--,15,54
Amino Acids
Other
Ingredients
"NON-GMO PURE CANE SUGAR, SALTED BUTTER, RICE FLOUR, POTATO STARCH, TAPIOCA STARCH, NON-GMO CORNSTARCH, DRIED CRANBERRIES (SUGAR, CANOLA AND/OR SUNFLOWER OIL), ORANGE ZEST, SPRAY DRIED ORANGE JUICE POWDER, PURE ORANGE OIL." Date available: 07/14/2017 Date last updated by company: 07/14/2017
