Source: USDA Branded Food Products Database Release December 2017 Software v.3.8.6.4 2017-10-02
Report Run at: December 19, 2017 02:05 EST
"Nutrient data for: 45170314, CRANBERRY BREAKFAST BITE-LETTES, UPC: 899707000112"
Food Group:  Branded Food Products Database
Common Name:

Nutrient,Unit,Data points,Std. Error,"2.0 BITE-LETTES = 28.0g",1Value per 100 g,
Proximates
"Energy",kcal,--,--,120,429
"Protein",g,--,--,2.00,7.14
"Total lipid (fat)",g,--,--,5.00,17.86
"Carbohydrate, by difference",g,--,--,16.00,57.14
"Fiber, total dietary",g,--,--,2.0,7.1
"Sugars, total",g,--,--,9.00,32.14
Minerals
"Calcium, Ca",mg,--,--,40,143
"Iron, Fe",mg,--,--,1.03,3.67
"Potassium, K",mg,--,--,40,143
"Sodium, Na",mg,--,--,90,321
Vitamins
"Vitamin C, total ascorbic acid",mg,--,--,0.0,0.0
"Vitamin A, IU",IU,--,--,0,0
Lipids
"Fatty acids, total saturated",g,--,--,1.000,3.570
"Fatty acids, total trans",g,--,--,0.000,0.000
"Cholesterol",mg,--,--,0,0
Amino Acids
Other
Ingredients
"ROLLED OATS, DRIED CRANBERRIES (CRANBERRIES, SUGAR, SUNFLOWER OIL), DATES, 100% EXPELLER PRESSED SUNFLOWER AND/OR CANOLA OIL, EVAPORATED CANE JUICE, FRUIT JUICE, NATURAL RICE DEXTRINS, UNSWEETENED COCONUT, WATER, OAT FLOUR, NON-GMO SOY PROTEIN ISOLATE, NON-GMO SOY POWDER, NON-ALUMINUM BAKING POWDER (CORN STARCH, SODIUM BICARBONATE, MONOCALCIUM PHOSPHATE), SEA SALT, ORANGE OIL AND CITRIC ACID." Date available: 07/14/2017 Date last updated by company: 07/14/2017
