Source: USDA Branded Food Products Database Release December 2017 Software v.3.8.6.4 2017-10-02
Report Run at: December 19, 2017 02:03 EST
"Nutrient data for: 45283574, CRANBERRIES & PECANS SALAD TOPPER, UPC: 085239081747"
Food Group:  Branded Food Products Database
Common Name:

Nutrient,Unit,Data points,Std. Error,"1 Tbsp = 10.0g",1Value per 100 g,
Proximates
"Energy",kcal,--,--,45,450
"Protein",g,--,--,0.00,0.00
"Total lipid (fat)",g,--,--,2.00,20.00
"Carbohydrate, by difference",g,--,--,7.00,70.00
"Fiber, total dietary",g,--,--,1.0,10.0
"Sugars, total",g,--,--,5.00,50.00
Minerals
"Calcium, Ca",mg,--,--,0,0
"Iron, Fe",mg,--,--,0.00,0.00
"Sodium, Na",mg,--,--,15,150
Vitamins
"Vitamin C, total ascorbic acid",mg,--,--,0.0,0.0
"Vitamin A, IU",IU,--,--,0,0
Lipids
"Fatty acids, total saturated",g,--,--,0.000,0.000
"Fatty acids, total trans",g,--,--,0.000,0.000
"Cholesterol",mg,--,--,0,0
Amino Acids
Other
Ingredients
"DRIED CRANBERRIES (CRANBERRIES, SUGAR, GLYCERIN, SUNFLOWER OIL), HONEY ROASTED PECANS (PECANS, HONEY POWDER [SUCROSE, WHEAT STARCH, HONEY] VEGETABLE OIL [MAY CONTAIN ONE OR MORE OF THE FOLLOWING: PEANUT, CANOLA, SUNFLOWER AND/OR SOYBEAN], SUGAR, MALTODEXTRIN, XANTHAN GUM, SALT)." Date available: 03/25/2017 Date last updated by company: 03/25/2017
