Source: USDA Branded Food Products Database Release December 2017 Software v.3.8.6.4 2017-10-02
Report Run at: December 19, 2017 02:04 EST
"Nutrient data for: 45188627, CRANBERRY AND CITRUS JUICE COCKTAIL, UPC: 865608000025"
Food Group:  Branded Food Products Database
Common Name:

Nutrient,Unit,Data points,Std. Error,"4.0 OZA = 118.0g",1Value per 100 g,
Proximates
"Energy",kcal,--,--,150,127
"Protein",g,--,--,0.00,0.00
"Total lipid (fat)",g,--,--,0.00,0.00
"Carbohydrate, by difference",g,--,--,38.00,32.20
"Fiber, total dietary",g,--,--,0.0,0.0
"Sugars, total",g,--,--,37.00,31.36
Minerals
"Calcium, Ca",mg,--,--,20,17
"Iron, Fe",mg,--,--,0.00,0.00
"Sodium, Na",mg,--,--,9,8
Vitamins
"Vitamin C, total ascorbic acid",mg,--,--,36.6,31.0
"Vitamin A, IU",IU,--,--,0,0
Lipids
"Fatty acids, total saturated",g,--,--,0.000,0.000
"Fatty acids, total trans",g,--,--,0.000,0.000
"Cholesterol",mg,--,--,0,0
Amino Acids
Other
Ingredients
"WATER, SUGAR, CRANBERRY JUICE CONCENTRATE, PINEAPPLE JUICE CONCENTRATE (PINEAPPLE JUICE CONCENTRATE AND ASCORBIC ACID/VITAMIN C), LEMONADE CONCENTRATE (HIGH FRUCTOSE CORN SYRUP, SUGAR, FILTERED WATER, CONCENTRATED LEMON JUICE, LEMON PULP, NATURAL FLAVOR), CINNAMON FLAVORING & NATURAL CLOVES FLAVORING." Date available: 07/14/2017 Date last updated by company: 07/14/2017
