Source: USDA Branded Food Products Database Release December 2017 Software v.3.8.6.4 2017-10-02
Report Run at: December 19, 2017 02:11 EST
"Nutrient data for: 45315987, CRANBERRY RELISH, UPC: 070670001140"
Food Group:  Branded Food Products Database
Common Name:

Nutrient,Unit,Data points,Std. Error,"0.25 cup = 65.0g",1Value per 100 g,
Proximates
"Energy",kcal,--,--,100,154
"Protein",g,--,--,0.00,0.00
"Total lipid (fat)",g,--,--,0.00,0.00
"Carbohydrate, by difference",g,--,--,26.00,40.00
"Fiber, total dietary",g,--,--,1.0,1.5
"Sugars, total",g,--,--,23.00,35.38
Minerals
"Calcium, Ca",mg,--,--,0,0
"Iron, Fe",mg,--,--,0.00,0.00
"Sodium, Na",mg,--,--,0,0
Vitamins
"Vitamin C, total ascorbic acid",mg,--,--,3.9,6.0
"Vitamin A, IU",IU,--,--,0,0
Lipids
"Fatty acids, total saturated",g,--,--,0.000,0.000
"Fatty acids, total trans",g,--,--,0.000,0.000
"Cholesterol",mg,--,--,0,0
Amino Acids
Other
Ingredients
"WATER, SUGAR, WHOLE CRANBERRIES, SWEETENED DRIED CRANBERRIES (CRANBERRIES, SUGAR, SUNFLOWER OIL), ORANGE JUICE, CRANBERRY JUICE CONCENTRATE, ORANGE PEEL, LEMON JUICE, CINNAMON, CLOVES." Date available: 07/14/2017 Date last updated by company: 07/14/2017
