Source: USDA Branded Food Products Database Release December 2017 Software v.3.8.6.4 2017-10-02
Report Run at: December 19, 2017 02:14 EST
"Nutrient data for: 45182315, CRAWFISH TAIL MEAT, UPC: 040232026591"
Food Group:  Branded Food Products Database
Common Name:

Nutrient,Unit,Data points,Std. Error,"3.0 ONZ = 85.0g",1Value per 100 g,
Proximates
"Energy",kcal,--,--,70,82
"Protein",g,--,--,14.00,16.47
"Total lipid (fat)",g,--,--,1.00,1.18
"Carbohydrate, by difference",g,--,--,0.00,0.00
"Fiber, total dietary",g,--,--,0.0,0.0
"Sugars, total",g,--,--,0.00,0.00
Minerals
"Calcium, Ca",mg,--,--,60,71
"Iron, Fe",mg,--,--,0.72,0.85
"Sodium, Na",mg,--,--,80,94
Vitamins
"Vitamin C, total ascorbic acid",mg,--,--,1.2,1.4
"Vitamin A, IU",IU,--,--,0,0
Lipids
"Fatty acids, total saturated",g,--,--,0.000,0.000
"Fatty acids, total trans",g,--,--,0.000,0.000
"Cholesterol",mg,--,--,115,135
Amino Acids
Other
Ingredients
"CRAWFISH TAIL MEAT" Date available: 10/12/2016 Date last updated by company: 10/12/2016
