Source: USDA Branded Food Products Database Release December 2017 Software v.3.8.6.4 2017-10-02
Report Run at: December 19, 2017 02:14 EST
"Nutrient data for: 45164801, CRAYOLA, CANDY ROLLS!, UPC: 073563009223"
Food Group:  Branded Food Products Database
Common Name:

Nutrient,Unit,Data points,Std. Error,"1 ROLL = 5.0g",1Value per 100 g,
Proximates
"Energy",kcal,--,--,20,400
"Protein",g,--,--,0.00,0.00
"Total lipid (fat)",g,--,--,0.00,0.00
"Carbohydrate, by difference",g,--,--,5.00,100.00
"Sugars, total",g,--,--,5.00,100.00
Minerals
"Sodium, Na",mg,--,--,0,0
Vitamins
Lipids
Amino Acids
Other
Ingredients
"DEXTROSE, CITRIC ACID, CALCIUM STEARATE, NATURAL AND ARTIFICIAL FLAVORS, RED 40 LAKE, YELLOW 5 LAKE, BLUE 2 LAKE, YELLOW 6 LAKE." Date available: 07/14/2017 Date last updated by company: 07/14/2017
