Source: USDA Branded Food Products Database Release December 2017 Software v.3.8.6.4 2017-10-02
Report Run at: December 19, 2017 02:14 EST
"Nutrient data for: 45314847, CRAZY GOOD ICE CREAM, UPC: 852009005100"
Food Group:  Branded Food Products Database
Common Name:

Nutrient,Unit,Data points,Std. Error,"0.5 cup = 86.0g",1Value per 100 g,
Proximates
"Energy",kcal,--,--,220,256
"Protein",g,--,--,4.00,4.65
"Total lipid (fat)",g,--,--,13.00,15.12
"Carbohydrate, by difference",g,--,--,22.00,25.58
"Fiber, total dietary",g,--,--,2.0,2.3
"Sugars, total",g,--,--,19.00,22.09
Minerals
"Calcium, Ca",mg,--,--,100,116
"Iron, Fe",mg,--,--,3.04,3.53
"Sodium, Na",mg,--,--,40,47
Vitamins
"Vitamin C, total ascorbic acid",mg,--,--,0.0,0.0
"Vitamin A, IU",IU,--,--,450,523
Lipids
"Fatty acids, total saturated",g,--,--,7.998,9.300
"Fatty acids, total trans",g,--,--,0.000,0.000
"Cholesterol",mg,--,--,35,41
Amino Acids
Other
Ingredients
"MILK, CREAM, SUGAR, CHOCOLATE RASPBERRY GANACHE SWIRL (UNSWEETENED CHOCOLATE, CREAM, SUGAR, FRUIT JUICE CONCENTRATES [PEAR, GRAPE, PINEAPPLE], RASPBERRIES, RASPBERRY LIQUEUR, COCOA, NATURAL FLAVORS, SOY LECITHIN, WATER, FRUIT PECTIN, CITRIC ACID), CHOCOLATE FLAVORED CHUNKS (SUGAR, COCONUT OIL, COCOA POWDER PROCESSED WITH ALKALI, COCOA POWDER, MILKFAT, SOY LECITHIN, NATURAL FLAVORS), COCOA PROCESSED WITH ALKALI, NATURAL VANILLA FLAVOR, GUAR GUM, LOCUST BEAN GUM, CARRAGEENAN." Date available: 07/14/2017 Date last updated by company: 07/14/2017
