Source: USDA Branded Food Products Database Release December 2017 Software v.3.8.6.4 2017-10-02
Report Run at: December 19, 2017 02:14 EST
"Nutrient data for: 45275341, CRAZY CARAMEL GOURMET POPCORN, UPC: 899795002043"
Food Group:  Branded Food Products Database
Common Name:

Nutrient,Unit,Data points,Std. Error,"1 cup = 26.0g",1Value per 100 g,
Proximates
"Energy",kcal,--,--,110,423
"Protein",g,--,--,1.00,3.85
"Total lipid (fat)",g,--,--,1.50,5.77
"Carbohydrate, by difference",g,--,--,24.00,92.31
"Fiber, total dietary",g,--,--,1.0,3.8
"Sugars, total",g,--,--,16.00,61.54
Minerals
"Calcium, Ca",mg,--,--,20,77
"Iron, Fe",mg,--,--,0.69,2.67
"Sodium, Na",mg,--,--,80,308
Vitamins
"Vitamin C, total ascorbic acid",mg,--,--,0.0,0.0
"Vitamin A, IU",IU,--,--,0,0
Lipids
"Fatty acids, total saturated",g,--,--,1.001,3.850
"Fatty acids, total trans",g,--,--,0.000,0.000
"Cholesterol",mg,--,--,5,19
Amino Acids
Other
Ingredients
"CARAMEL POPCORN (BROWN SUGAR, AIR-POPPED POPCORN, LIGHT CORN SYRUP WITH REAL VANILLA, WATER, BUTTER, SALT, COCONUT OIL.)" Date available: 07/14/2017 Date last updated by company: 07/14/2017
