Source: USDA Branded Food Products Database Release December 2017 Software v.3.8.6.4 2017-10-02
Report Run at: December 19, 2017 03:14 EST
"Nutrient data for: 45101361, CREATIVE SNACKS CO., AFTER SCHOOL MIX, UPC: 816512012109"
Food Group:  Branded Food Products Database
Common Name:

Nutrient,Unit,Data points,Std. Error,"0.25 cup = 30.0g",1Value per 100 g,
Proximates
"Energy",kcal,--,--,150,500
"Protein",g,--,--,5.00,16.67
"Total lipid (fat)",g,--,--,11.00,36.67
"Carbohydrate, by difference",g,--,--,12.00,40.00
"Fiber, total dietary",g,--,--,2.0,6.7
"Sugars, total",g,--,--,8.00,26.67
Minerals
"Calcium, Ca",mg,--,--,20,67
"Iron, Fe",mg,--,--,0.60,2.00
"Sodium, Na",mg,--,--,115,383
Vitamins
"Vitamin C, total ascorbic acid",mg,--,--,0.0,0.0
"Vitamin A, IU",IU,--,--,833,2778
Lipids
"Fatty acids, total saturated",g,--,--,2.001,6.670
"Fatty acids, total trans",g,--,--,0.000,0.000
"Cholesterol",mg,--,--,0,0
Amino Acids
Other
Ingredients
"PEANUTS [PEANUTS, CANOLA OIL, SALT, RAISINS, MILK CHOCOLATE GEMS [MILK CHOCOLATE [DRIED CANE SYRUP, COCOA BUTTER, CHOCOLATE LIQUOR, WHOLE MILK POWDER, SOY LECITHIN, NATURAL VANILLA FLAVOR], DRIED CANE SYRUP, COLORED WITH [BETA-CAROTENE, TURMERIC OLEORESIN, BEET JUICE], GUM ARABIC, CARNAUBA WAX, CONFECTIONER'S GLAZE), ALMONDS [ALMONDS, CANOLA OIL, SALT)." Date available: 06/25/2017 Date last updated by company: 06/25/2017
