Source: USDA Branded Food Products Database Release December 2017 Software v.3.8.6.4 2017-10-02
Report Run at: December 19, 2017 02:47 EST
"Nutrient data for: 45050421, CREAM OF CHICKEN CONDENSED SOUP, UPC: 741643032125"
Food Group:  Branded Food Products Database
Common Name:

Nutrient,Unit,Data points,Std. Error,"0.5 cup = 125.0g",1Value per 100 g,
Proximates
"Energy",kcal,--,--,120,96
"Protein",g,--,--,3.00,2.40
"Total lipid (fat)",g,--,--,8.00,6.40
"Carbohydrate, by difference",g,--,--,10.00,8.00
"Fiber, total dietary",g,--,--,1.0,0.8
"Sugars, total",g,--,--,1.00,0.80
Minerals
"Calcium, Ca",mg,--,--,20,16
"Iron, Fe",mg,--,--,1.41,1.13
"Sodium, Na",mg,--,--,800,640
Vitamins
"Vitamin C, total ascorbic acid",mg,--,--,0.0,0.0
"Vitamin A, IU",IU,--,--,392,314
Lipids
"Fatty acids, total saturated",g,--,--,2.000,1.600
"Fatty acids, total trans",g,--,--,0.000,0.000
"Cholesterol",mg,--,--,10,8
Amino Acids
Other
Ingredients
"CHICKEN BROTH, WHEAT FLOUR, CHICKEN MEAT (COOKED CHICKEN MEAT, WATER, MODIFIED FOOD STARCH, SALT, SODIUM PHOSPHATE), SOYBEAN OIL, MODIFIED CORN STARCH, CONTAINS LES THAN 2% OF: CREAM, SALT, CHICKEN FAT, WHEY, SEASONING (HYDROLYZED SOY, CORN AND WHEAT GLUTEN PROTEINS, SALT, ONION POWDER, MODIFIED CORN STARCH, AUTOLYZED YEAST, NATURAL FLAVOR, TORULA YEAST, MONOSODIUM GUANYLATE, SOYBEAN OIL, DEXTROSE, THIAMINE HYDROCHLORIDE, TARTARIC ACID, GUM ARABIC), SOY PROTEIN CONCENTRATE, MONOSODIUM GLUTAMATE, AUTOLYZED YEAST EXTRACT, BETA CAROTENE (FOR COLOR), SUGAR, OLEORESIN CARROT." Date available: 06/25/2017 Date last updated by company: 06/25/2017
