Source: USDA Branded Food Products Database Release December 2017 Software v.3.8.6.4 2017-10-02
Report Run at: December 19, 2017 03:11 EST
"Nutrient data for: 45065946, CREAMY SPINACH PARMESAN WARM DIP & APPETIZER MIX, UPC: 071100211788"
Food Group:  Branded Food Products Database
Common Name:

Nutrient,Unit,Data points,Std. Error,"0.5 tsp = 1.5g",1Value per 100 g,
Proximates
"Energy",kcal,--,--,5,333
"Protein",g,--,--,0.00,0.00
"Total lipid (fat)",g,--,--,0.00,0.00
"Carbohydrate, by difference",g,--,--,1.00,66.67
"Fiber, total dietary",g,--,--,0.0,0.0
"Sugars, total",g,--,--,0.00,0.00
Minerals
"Calcium, Ca",mg,--,--,0,0
"Iron, Fe",mg,--,--,0.00,0.00
"Sodium, Na",mg,--,--,55,3667
Vitamins
"Vitamin C, total ascorbic acid",mg,--,--,40.0,2666.8
"Vitamin A, IU",IU,--,--,10000,666667
Lipids
"Fatty acids, total saturated",g,--,--,0.000,0.000
"Fatty acids, total trans",g,--,--,0.000,0.000
"Cholesterol",mg,--,--,0,0
Amino Acids
Other
Ingredients
"MALTODEXTRIN, DRIED SPINACH, DRIED ONION, DRIED GARLIC, SALT, YEAST EXTRACT, PARMESAN, ROMANO AND CHEDDAR CHEESE (CULTURED PASTEURIZED PART-SKIM COW'S MILK, SALT, ENZYMES), SPICES, LESS THAN 2% OF - MILK PROTEIN CONCENTRATE, CALCIUM STEARATE, NATURAL FLAVOR." Date available: 06/25/2017 Date last updated by company: 06/25/2017
