Source: USDA Branded Food Products Database Release December 2017 Software v.3.8.6.4 2017-10-02
Report Run at: December 19, 2017 02:50 EST
"Nutrient data for: 45225758, CREAM PIE, UPC: 072036957658"
Food Group:  Branded Food Products Database
Common Name:

Nutrient,Unit,Data points,Std. Error,"3.5 ONZ = 99.0g",1Value per 100 g,
Proximates
"Energy",kcal,--,--,240,242
"Protein",g,--,--,3.00,3.03
"Total lipid (fat)",g,--,--,14.00,14.14
"Carbohydrate, by difference",g,--,--,27.00,27.27
"Sugars, total",g,--,--,18.00,18.18
Minerals
"Calcium, Ca",mg,--,--,60,61
"Iron, Fe",mg,--,--,0.91,0.92
"Sodium, Na",mg,--,--,180,182
Vitamins
"Vitamin A, IU",IU,--,--,127,128
Lipids
"Fatty acids, total saturated",g,--,--,6.999,7.070
"Cholesterol",mg,--,--,40,40
Amino Acids
Other
Ingredients
"MILK, SUGAR, HALF & HALF (MILK, CREAM), ENRICHED WHEAT FLOUR (NIACIN, REDUCED IRON, THIAMINE MONONITRATE, RIBOFLAVIN, FOLIC ACID), VEGETABLE SHORTENING (INTERESTERIFIED SOYBEAN OIL, FULLY HYDROGENATED COTTONSEED OIL, AND/OR PALM OIL), COCONUT (PROCESSED WITH METABISULFITE TO PRESERVE WHITENESS), EGG YOLKS, FOOD STARCH, MODIFIED, WATER, CONTAINS LESS THAN 2% OF THE FOLLOWING: SOYBEAN OIL, SALT, DEXTROSE, PARTIALLY HYDROGENATED PALM KERNEL OIL, HIGH FRUCTOSE CORN SYRUP, PARTIALLY HYDROGENATED COCONUT OIL, SODIUM CASEINATE, CARBOHYDRATE GUM, XANTHAN GUM, LOCUST BEAN GUM, GUAR GUM, POLYSORBATE 60, POLYGLYCEROL ESTERS OF FATTY ACIDS, SOY LECITHIN, NATURAL AND ARTIFICIAL FLAVOR, SODIUM CITRATE, DISODIUM PHOSPHATE, BETA CAROTENE (COLOR)." Date available: 10/19/2017 Date last updated by company: 10/19/2017
