Source: USDA Branded Food Products Database Release December 2017 Software v.3.8.6.4 2017-10-02
Report Run at: December 19, 2017 02:59 EST
"Nutrient data for: 45228946, CREAMY GERMAN STYLE QUARK, UPC: 854263004141"
Food Group:  Branded Food Products Database
Common Name:

Nutrient,Unit,Data points,Std. Error,"1 cup = 150.0g",1Value per 100 g,
Proximates
"Energy",kcal,--,--,110,73
"Protein",g,--,--,12.00,8.00
"Total lipid (fat)",g,--,--,5.50,3.67
"Carbohydrate, by difference",g,--,--,9.00,6.00
"Fiber, total dietary",g,--,--,1.1,0.7
"Sugars, total",g,--,--,4.00,2.67
Minerals
"Calcium, Ca",mg,--,--,120,80
"Iron, Fe",mg,--,--,0.14,0.09
"Potassium, K",mg,--,--,129,86
"Sodium, Na",mg,--,--,56,37
Vitamins
"Vitamin D",IU,--,--,68,45
Lipids
"Fatty acids, total saturated",g,--,--,3.495,2.330
"Fatty acids, total trans",g,--,--,0.000,0.000
"Cholesterol",mg,--,--,20,13
Amino Acids
Other
Ingredients
"CULTURED GRADE A WHOLE MILK, ELLI PLANT-BASED SWEETENER BLEND (ERYTHRITOL, STEVIA EXTRACT), COCONUT, COCONUT CREAM, NATURAL FLAVORS, LOCUST BEAN GUM, PECTIN, CITRIC ACID, VEGETABLE RENNET." Date available: 10/17/2017 Date last updated by company: 10/17/2017
