Source: USDA Branded Food Products Database Release December 2017 Software v.3.8.6.4 2017-10-02
Report Run at: December 19, 2017 03:04 EST
"Nutrient data for: 45078406, CREAMY PEANUT BUTTER, UPC: 041318210613"
Food Group:  Branded Food Products Database
Common Name:

Nutrient,Unit,Data points,Std. Error,"2.0 Tbsp = 32.0g",1Value per 100 g,
Proximates
"Energy",kcal,--,--,180,562
"Protein",g,--,--,7.00,21.88
"Total lipid (fat)",g,--,--,15.00,46.88
"Carbohydrate, by difference",g,--,--,8.00,25.00
"Fiber, total dietary",g,--,--,2.0,6.2
"Sugars, total",g,--,--,3.00,9.38
Minerals
"Calcium, Ca",mg,--,--,20,62
"Iron, Fe",mg,--,--,1.13,3.52
"Potassium, K",mg,--,--,190,594
"Sodium, Na",mg,--,--,130,406
Vitamins
"Vitamin C, total ascorbic acid",mg,--,--,0.0,0.0
"Riboflavin",mg,--,--,0.053,0.166
"Niacin",mg,--,--,0.624,1.950
"Vitamin A, IU",IU,--,--,0,0
Lipids
"Fatty acids, total saturated",g,--,--,2.000,6.250
"Fatty acids, total monounsaturated",g,--,--,8.000,25.000
"Fatty acids, total polyunsaturated",g,--,--,4.998,15.620
"Fatty acids, total trans",g,--,--,0.000,0.000
"Cholesterol",mg,--,--,0,0
Amino Acids
Other
Ingredients
"PEANUTS, SUGAR, HYDROGENATED VEGETABLE OIL (RAPESEED, COTTONSEED, SOYBEAN), DEXTROSE, SALT, MOLASSES, AND MONOGLYCERIDES." Date available: 06/24/2017 Date last updated by company: 06/24/2017
