Source: USDA Branded Food Products Database Release December 2017 Software v.3.8.6.4 2017-10-02
Report Run at: December 19, 2017 03:03 EST
"Nutrient data for: 45209923, CREAMY PEANUT BUTTER PB&J BITE SIZE SNACKS, UPC: 034856122364"
Food Group:  Branded Food Products Database
Common Name:

Nutrient,Unit,Data points,Std. Error,"1 POUCH = 30.0g",1Value per 100 g,
Proximates
"Energy",kcal,--,--,130,433
"Protein",g,--,--,1.00,3.33
"Total lipid (fat)",g,--,--,5.00,16.67
"Carbohydrate, by difference",g,--,--,21.00,70.00
"Fiber, total dietary",g,--,--,1.0,3.3
"Sugars, total",g,--,--,16.00,53.33
Minerals
"Sodium, Na",mg,--,--,105,350
Vitamins
"Vitamin C, total ascorbic acid",mg,--,--,100.0,333.3
"Vitamin A, IU",IU,--,--,833,2778
Lipids
"Fatty acids, total saturated",g,--,--,3.501,11.670
"Fatty acids, total trans",g,--,--,0.000,0.000
Amino Acids
Other
Ingredients
"FRUIT CENTER (RED GRAPE AND PEAR PUREES, SUGAR, CORN SYRUP, MODIFIED CORN STARCH, PECTIN, CITRIC ACID, SODIUM CITRATE, GRAPE FLAVOR, ASCORBIC ACID, ALPHA TOCOPHEROL ACETATE [VITAMIN E], VITAMIN A PALMITATE), PEANUT COATING (SUGAR, PALM KERNEL AND PALM OIL, PEANUT FLOUR, NONFAT MILK, WHEY POWDER, PEANUT BUTTER, SALT, SOY LECITHIN), COCONUT OIL, CARNAUBA WAX AND CONFECTIONER'S GLAZE (LAC-RESIN)." Date available: 10/19/2017 Date last updated by company: 10/19/2017
