Source: USDA Branded Food Products Database Release December 2017 Software v.3.8.6.4 2017-10-02
Report Run at: December 19, 2017 03:01 EST
"Nutrient data for: 45202792, CREAMY ITALIAN DRESSING, UPC: 852502004402"
Food Group:  Branded Food Products Database
Common Name:

Nutrient,Unit,Data points,Std. Error,"2.0 Tbsp = 7.0g",1Value per 100 g,
Proximates
"Energy",kcal,--,--,15,214
"Protein",g,--,--,0.00,0.00
"Total lipid (fat)",g,--,--,1.00,14.29
"Carbohydrate, by difference",g,--,--,1.00,14.29
"Fiber, total dietary",g,--,--,0.0,0.0
"Sugars, total",g,--,--,0.00,0.00
Minerals
"Calcium, Ca",mg,--,--,0,0
"Iron, Fe",mg,--,--,0.00,0.00
"Sodium, Na",mg,--,--,55,786
Vitamins
"Vitamin C, total ascorbic acid",mg,--,--,0.0,0.0
"Vitamin A, IU",IU,--,--,0,0
Lipids
"Fatty acids, total saturated",g,--,--,0.000,0.000
"Fatty acids, total trans",g,--,--,0.000,0.000
"Cholesterol",mg,--,--,0,0
Amino Acids
Other
Ingredients
"WATER, CANOLA OIL, RED WINE VINEGAR, GLUCOSE SOLIDS, WHEY PROTEIN CONCENTRATE, SUGAR, EGG YOLK, CELLULOSE GUM, SALT, DISTILLED MONOGLYCERIDES, DISTILLED PROPYLENE GLYCOL MONOESTER, SODIUM STEAROYL LACTYLATE, SILICON DIOXIDE, XANTHAN GUM, WHITE VINEGAR, MUSTARD SEED, MUSTARD BRAN, TURMERIC, SPICES AND SPICE EXTRACTS, LEMON JUICE CONCENTRATE, PHOSPHORIC ACID, NATURAL AND ARTIFICIAL FLAVORS (CONTAIN SOYA OIL), YEAST EXTRACT, CALCIUM DISODIUM EDTA, SODIUM BENZOATE, POTASSIUM SORBATE, AND PROPELLANT." Date available: 07/14/2017 Date last updated by company: 07/14/2017
