Source: USDA Branded Food Products Database Release December 2017 Software v.3.8.6.4 2017-10-02
Report Run at: December 19, 2017 03:02 EST
"Nutrient data for: 45281612, CREAMY MACARONI & CHEESE, UPC: 888670013588"
Food Group:  Branded Food Products Database
Common Name:

Nutrient,Unit,Data points,Std. Error,"0.5 cup = 113.0g",1Value per 100 g,
Proximates
"Energy",kcal,--,--,231,204
"Protein",g,--,--,15.00,13.27
"Total lipid (fat)",g,--,--,8.99,7.96
"Carbohydrate, by difference",g,--,--,25.00,22.12
"Fiber, total dietary",g,--,--,0.0,0.0
"Sugars, total",g,--,--,2.00,1.77
Minerals
"Calcium, Ca",mg,--,--,299,265
"Iron, Fe",mg,--,--,0.79,0.70
"Sodium, Na",mg,--,--,410,363
Vitamins
"Vitamin C, total ascorbic acid",mg,--,--,0.0,0.0
"Vitamin A, IU",IU,--,--,663,587
Lipids
"Fatty acids, total saturated",g,--,--,4.497,3.980
"Fatty acids, total trans",g,--,--,0.000,0.000
"Cholesterol",mg,--,--,45,40
Amino Acids
Other
Ingredients
"CHEESE SAUCE (WATER, MILK, AMERICAN CHEESE [CULTURED PASTEURIZED MILK AND SKIM MILK, BUTTERMILK, MILKFAT, SALT, CONTAINS 2% OR LESS OF: SODIUM PHOSPHATE, MILK PROTEIN CONCENTRATE, ACETIC ACID, LACTIC ACID, ENZYMES], CONCENTRATED WHEY PROTEIN [CONCENTRATED WHEY PROTEIN {MILK}, CALCIUM CHLORIDE], BUTTER [CREAM, NATURAL FLAVORINGS], CORNSTARCH, SALT, NATURAL CHEESE FLAVOR, LEMON JUICE, ANNATTO OIL [COLOR]), PASTA (DURUM WHEAT FLOUR [NIACIN, FERROUS SULFATE, THIAMIN MONONITRATE, RIBOFLAVIN, FOLIC ACID]), CHEDDAR CHEESE (PASTEURIZED MILK, CHEESE CULTURES, SALT, ENZYMES, ANNATTO [COLOR])." Date available: 07/14/2017 Date last updated by company: 07/14/2017
