Source: USDA Branded Food Products Database Release December 2017 Software v.3.8.6.4 2017-10-02
Report Run at: December 19, 2017 02:45 EST
"Nutrient data for: 45211427, CREAM FILLED ICED DEVIL'S FOOD CAKE, UPC: 888109110529"
Food Group:  Branded Food Products Database
Common Name:

Nutrient,Unit,Data points,Std. Error,"2.0 CAKES = 72.0g",1Value per 100 g,
Proximates
"Energy",kcal,--,--,260,361
"Protein",g,--,--,2.00,2.78
"Total lipid (fat)",g,--,--,9.00,12.50
"Carbohydrate, by difference",g,--,--,45.00,62.50
"Fiber, total dietary",g,--,--,1.0,1.4
"Sugars, total",g,--,--,35.00,48.61
Minerals
"Calcium, Ca",mg,--,--,20,28
"Iron, Fe",mg,--,--,1.20,1.67
"Sodium, Na",mg,--,--,250,347
Vitamins
"Vitamin C, total ascorbic acid",mg,--,--,0.0,0.0
"Vitamin A, IU",IU,--,--,0,0
Lipids
"Fatty acids, total saturated",g,--,--,4.500,6.250
"Fatty acids, total trans",g,--,--,0.000,0.000
"Cholesterol",mg,--,--,15,21
Amino Acids
Other
Ingredients
"SUGAR, WATER, ENRICHED BLEACHED WHEAT FLOUR [FLOUR, REDUCED IRON, ""B"" VITAMINS (NIACIN, THIAMINE MONONITRATE (B1), RIBOFLAVIN (B2), FOLIC ACID)], PARTIALLY HYDROGENATED VEGETABLE AND/OR ANIMAL SHORTENING (SOYBEAN, COTTONSEED AND/OR CANOLA OIL, BEEF FAT), CORN SYRUP, HIGH FRUCTOSE CORN SYRUP, COCOA PROCESSED WITH ALKALI, PALM OIL, WHOLE EGGS. CONTAINS 2% OR LESS OF: GLYCERIN, MODIFIED CORN STARCH, SOY LECITHIN, LEAVENINGS, (SODIUM ACID PYROPHOSPHATE, BAKING SODA, CORNSTARCH, AND MONOCALCIUM PHOSPHATE), COCOA, WHEY, NATURAL AND ARTIFICIAL FLAVOR (CONTAINS: CARAMEL COLOR AND NONFAT MILK), EGG WHITES, SODIUM ALUMINIUM PHOSPHATE, SALT, SORBIC ACID (TO RETAIN FRESHNESS), SOY FLOUR, MONO AND DIGLYCERIDES, GLUCOSE, DEXTROSE, CELLULOSE GUM, POLYSORBATE 60, GUAR GUM, AGAR, PROPYLENE GLYCOL, FUMERIC ACID, CALCIUM SULFATE, SOY PROTEIN ISOLATE, CALCIUM AND SODIUM CASEINATE." Date available: 10/11/2017 Date last updated by company: 10/11/2017
