Source: USDA Branded Food Products Database Release December 2017 Software v.3.8.6.4 2017-10-02
Report Run at: December 19, 2017 03:14 EST
"Nutrient data for: 45154027, CREATIVE SNACKS CO., DARK CHOCOLATE PEPPERMINT PRETZELS, UPC: 816512015193"
Food Group:  Branded Food Products Database
Common Name:

Nutrient,Unit,Data points,Std. Error,"9.0 PRETZELS = 40.0g",1Value per 100 g,
Proximates
"Energy",kcal,--,--,180,450
"Protein",g,--,--,2.00,5.00
"Total lipid (fat)",g,--,--,7.00,17.50
"Carbohydrate, by difference",g,--,--,29.00,72.50
"Fiber, total dietary",g,--,--,2.0,5.0
"Sugars, total",g,--,--,14.00,35.00
Minerals
"Calcium, Ca",mg,--,--,0,0
"Iron, Fe",mg,--,--,1.35,3.38
"Sodium, Na",mg,--,--,115,288
Vitamins
"Vitamin C, total ascorbic acid",mg,--,--,0.0,0.0
"Vitamin A, IU",IU,--,--,0,0
Lipids
"Fatty acids, total saturated",g,--,--,4.000,10.000
"Fatty acids, total trans",g,--,--,0.000,0.000
"Cholesterol",mg,--,--,0,0
Amino Acids
Other
Ingredients
"DARK CHOCOLATE (SUGAR, CHOCOLATE LIQUOR [PROCESSED WITH ALKALI], COCOA BUTTER, BUTTERFAT [MILK], SOY LECITHIN, AND VANILLA), PRETZELS (UNBLEACHED ENRICHED WHEAT FLOUR [FLOUR, NIACIN, REDUCED IRON, THIAMINE MONONITRATE-B1, RIBOFLAVIN-B2, FOLIC ACID], MALT, SALT, SOYBEAN AND/OR CANOLA OIL, AND YEAST), PEPPERMINT FLAKES (SUGAR, CORN SYRUP, VEGETABLE JUICE CONCENTRATE, CARAMEL COLOR, NATURAL PEPPERMINT OIL)." Date available: 07/14/2017 Date last updated by company: 07/14/2017
