Source: USDA Branded Food Products Database Release December 2017 Software v.3.8.6.4 2017-10-02
Report Run at: December 19, 2017 02:57 EST
"Nutrient data for: 45291336, CREAMY COOKIE BUTTER SPECULOOS SPREAD, UPC: 182741000386"
Food Group:  Branded Food Products Database
Common Name:

Nutrient,Unit,Data points,Std. Error,"2.0 Tbsp = 30.0g",1Value per 100 g,
Proximates
"Energy",kcal,--,--,180,600
"Protein",g,--,--,1.00,3.33
"Total lipid (fat)",g,--,--,12.00,40.00
"Carbohydrate, by difference",g,--,--,16.00,53.33
"Fiber, total dietary",g,--,--,0.0,0.0
"Sugars, total",g,--,--,10.00,33.33
Minerals
"Calcium, Ca",mg,--,--,0,0
"Iron, Fe",mg,--,--,0.00,0.00
"Sodium, Na",mg,--,--,50,167
Vitamins
"Vitamin C, total ascorbic acid",mg,--,--,0.0,0.0
"Vitamin A, IU",IU,--,--,0,0
Lipids
"Fatty acids, total saturated",g,--,--,3.000,10.000
"Fatty acids, total trans",g,--,--,0.000,0.000
"Cholesterol",mg,--,--,0,0
Amino Acids
Other
Ingredients
"NON HYDROGENATED PALM AND CANOLA OIL, SUGAR, UNBLEACHED WHEAT FLOUR, WATER, MONO- AND DIGLYCERIDES OF FATTY ACIDS (FROM NON HYDROGENATED PALM OIL), CITRIC ACID, CANOLA LECITHIN, BAKING SODA, SPICES, SALT, CINNAMON, SKIMMED MILK POWDER, HAZELNUTS." Date available: 07/28/2017 Date last updated by company: 07/28/2017
