Source: USDA Branded Food Products Database Release December 2017 Software v.3.8.6.4 2017-10-02
Report Run at: December 19, 2017 03:14 EST
"Nutrient data for: 45161504, CREATIVE SNACKS CO, PRETZELS, PUMPKIN SPICE YOGURT, UPC: 816512015179"
Food Group:  Branded Food Products Database
Common Name:

Nutrient,Unit,Data points,Std. Error,"9.0 PRETZELS = 40.0g",1Value per 100 g,
Proximates
"Energy",kcal,--,--,190,475
"Protein",g,--,--,2.00,5.00
"Total lipid (fat)",g,--,--,7.00,17.50
"Carbohydrate, by difference",g,--,--,30.00,75.00
"Fiber, total dietary",g,--,--,1.0,2.5
"Sugars, total",g,--,--,17.00,42.50
Minerals
"Calcium, Ca",mg,--,--,0,0
"Iron, Fe",mg,--,--,0.00,0.00
"Sodium, Na",mg,--,--,290,725
Vitamins
"Vitamin C, total ascorbic acid",mg,--,--,0.0,0.0
"Vitamin A, IU",IU,--,--,0,0
Lipids
"Fatty acids, total saturated",g,--,--,6.000,15.000
"Fatty acids, total trans",g,--,--,0.000,0.000
"Cholesterol",mg,--,--,0,0
Amino Acids
Other
Ingredients
"PUMPKIN SPICE YOGURT COATING (SUGAR, FRACTIONATED PALM KERNEL OIL, WHEY POWDER [MILK], COLORED WITH TITANIUM DIOXIDE, YOGURT POWDER [CULTURED WHEY AND NONFAT MILK], SOY LECITHIN [AN EMULSIFIER], SALT, VANILLA, NATURAL FLAVORING, FRACTIONATED COCONUT OIL, NATURAL ORANGE PIGMENT, NATURAL RED PIGMENT, NATURAL YELLOW PIGMENT, RICE BRAN [AN EMULSIFIER]), PRETZELS (UNBLEACHED ENRICHED WHEAT FLOUR [FLOUR, NIACIN, REDUCED IRON, THIAMINE MONONITRATE-B1, RIBOFLAVIN-B2, FOLK ACID], MALT, SALT, SOYBEAN OR CANOLA OIL, YEAST)" Date available: 07/14/2017 Date last updated by company: 07/14/2017
