Source: USDA Branded Food Products Database Release December 2017 Software v.3.8.6.4 2017-10-02
Report Run at: December 19, 2017 03:14 EST
"Nutrient data for: 45154033, CREATIVE SNACKS CO., COCONUT PECAN CRUNCH, UPC: 816512010877"
Food Group:  Branded Food Products Database
Common Name:

Nutrient,Unit,Data points,Std. Error,"0.25 cup = 30.0g",1Value per 100 g,
Proximates
"Energy",kcal,--,--,170,567
"Protein",g,--,--,4.00,13.33
"Total lipid (fat)",g,--,--,13.00,43.33
"Carbohydrate, by difference",g,--,--,12.00,40.00
"Fiber, total dietary",g,--,--,1.0,3.3
"Sugars, total",g,--,--,7.00,23.33
Minerals
"Calcium, Ca",mg,--,--,20,67
"Iron, Fe",mg,--,--,0.60,2.00
"Sodium, Na",mg,--,--,55,183
Vitamins
"Vitamin C, total ascorbic acid",mg,--,--,0.0,0.0
"Vitamin A, IU",IU,--,--,0,0
Lipids
"Fatty acids, total saturated",g,--,--,3.501,11.670
"Fatty acids, total trans",g,--,--,0.000,0.000
"Cholesterol",mg,--,--,0,0
Amino Acids
Other
Ingredients
"MILK CHOCOLATE PEANUTS (MILK CHOCOLATE [SUGAR, COCOA BUTTER, CHOCOLATE LIQUOR, MILK, SOY LECITHIN (AN EMULSIFIER), VANILLA], PEANUTS, CANOLA OIL, CORN SYRUP, MODIFIED STARCH (TAPIOCA), CONFECTIONER'S GLAZE), ROASTED, SALTED CASHEW SPLITS (CASHEWS, CANOLA OIL, SALT), COCONUT MACAROON ALMONDS (ALMONDS, SUGAR, COCONUT, NATURAL FLAVOR, CORN SYRUP, SEA SALT), ROASTED, NO SALT PECANS (PECANS, CANOLA OIL), CONTAINS PEANUTS, TREE NUTS (CASHEW, COCONUT, ALMONDS, PECANS), MILK AND SOY." Date available: 07/14/2017 Date last updated by company: 07/14/2017
