Source: USDA Branded Food Products Database Release December 2017 Software v.3.8.6.4 2017-10-02
Report Run at: December 19, 2017 02:59 EST
"Nutrient data for: 45188527, CREAMY GERMAN STYLE QUARK, UPC: 85426300402"
Food Group:  Branded Food Products Database
Common Name:

Nutrient,Unit,Data points,Std. Error,"1 CONTAINER = 170.0g",1Value per 100 g,
Proximates
"Energy",kcal,--,--,80,47
"Protein",g,--,--,14.01,8.24
"Total lipid (fat)",g,--,--,0.00,0.00
"Carbohydrate, by difference",g,--,--,11.00,6.47
"Fiber, total dietary",g,--,--,0.0,0.0
"Sugars, total",g,--,--,6.00,3.53
Minerals
"Calcium, Ca",mg,--,--,201,118
"Iron, Fe",mg,--,--,0.36,0.21
"Sodium, Na",mg,--,--,49,29
Vitamins
"Vitamin C, total ascorbic acid",mg,--,--,4.2,2.5
"Vitamin A, IU",IU,--,--,0,0
Lipids
"Fatty acids, total saturated",g,--,--,0.000,0.000
"Fatty acids, total trans",g,--,--,0.000,0.000
"Cholesterol",mg,--,--,0,0
Amino Acids
Other
Ingredients
"CULTURED GRADE A NONFAT MILK, WATER, STRAWBERRIES, ERYTHRITOL (NATURAL SWEETENER), NATURAL FLAVORS, PECTIN, LOCUST BEAN GUM, STEVIA EXTRACT (REB A), FRUIT AND VEGETABLE JUICE (FOR COLOR), CITRIC ACID, VEGETABLE RENNET." Date available: 07/14/2017 Date last updated by company: 07/14/2017
