Source: USDA Branded Food Products Database Release December 2017 Software v.3.8.6.4 2017-10-02
Report Run at: December 19, 2017 03:09 EST
"Nutrient data for: 45084583, CREAMY RANCH BUTTERMILK & HORB DRESSING, UPC: 015400050869"
Food Group:  Branded Food Products Database
Common Name:

Nutrient,Unit,Data points,Std. Error,"2.0 Tbsp = 30.0g",1Value per 100 g,
Proximates
"Energy",kcal,--,--,70,233
"Protein",g,--,--,0.00,0.00
"Total lipid (fat)",g,--,--,6.00,20.00
"Carbohydrate, by difference",g,--,--,2.00,6.67
"Fiber, total dietary",g,--,--,0.0,0.0
"Sugars, total",g,--,--,1.00,3.33
Minerals
"Calcium, Ca",mg,--,--,0,0
"Iron, Fe",mg,--,--,0.00,0.00
"Sodium, Na",mg,--,--,280,933
Vitamins
"Vitamin C, total ascorbic acid",mg,--,--,0.0,0.0
"Vitamin A, IU",IU,--,--,0,0
Lipids
"Fatty acids, total saturated",g,--,--,0.999,3.330
"Fatty acids, total trans",g,--,--,0.000,0.000
"Cholesterol",mg,--,--,10,33
Amino Acids
Other
Ingredients
"INGREDIENTS: SOYBEAN OIL, DISTILLED VINEGAR, HIGH FRUCTOSE CORN SYRUP, EGG YOLKS, CULTURED BUTTERMILK (CULTURED PASTEURIZED PART-SKIM MILK, NON-FAT MILK POWDER, SALT), MODIFIED FOOD STARCH, LESS THAN 2%; SALT, MONOSOSODIUM GLUTAMATE, PHOSPHORIC ACID, NATURAL FALVOR, TITANIU, DIOXIDE (COLOR), LACTIC ACID, DISODIUM PHOSPHATE, GARLIC*, SPICES, SODIUM BENZOATE AND POTASSIUM SORBATE (PRESERVATIVES), CALCIUM DISODIUM EDTA (USED TO PROTECT QUALITY), ONION*, *DRIED" Date available: 06/25/2017 Date last updated by company: 06/25/2017
