Source: USDA Branded Food Products Database Release December 2017 Software v.3.8.6.4 2017-10-02
Report Run at: December 19, 2017 02:40 EST
"Nutrient data for: 45212337, CREAM CHEESE, UPC: 740247017422"
Food Group:  Branded Food Products Database
Common Name:

Nutrient,Unit,Data points,Std. Error,"2.0 Tbsp = 28.0g",1Value per 100 g,
Proximates
"Energy",kcal,--,--,100,357
"Protein",g,--,--,7.00,25.00
"Total lipid (fat)",g,--,--,8.00,28.57
"Carbohydrate, by difference",g,--,--,5.00,17.86
"Fiber, total dietary",g,--,--,0.0,0.0
"Sugars, total",g,--,--,3.00,10.71
Minerals
"Calcium, Ca",mg,--,--,40,143
"Iron, Fe",mg,--,--,0.00,0.00
"Sodium, Na",mg,--,--,90,321
Vitamins
"Vitamin C, total ascorbic acid",mg,--,--,0.0,0.0
"Vitamin A, IU",IU,--,--,535,1912
Lipids
"Fatty acids, total saturated",g,--,--,4.001,14.290
"Fatty acids, total trans",g,--,--,0.000,0.000
"Cholesterol",mg,--,--,20,71
Amino Acids
Other
Ingredients
"CREAM CHEESE (PASTEURIZED CREAM AND MILK, LACTIC ACID, SALT, STABLIZERS [XANTHAN, LOCUST BEAN AND GUAR GUMS]), BLACK RAISINS, SUGAR, WALNUTS, SOUR CREAM (100% GRADE A CULTURED CREAM), WATER, CONTAINS LESS THAN 2% OF: NATURAL VANILLA FLAVOR, VINEGAR." Date available: 07/14/2017 Date last updated by company: 07/14/2017
