Source: USDA Branded Food Products Database Release December 2017 Software v.3.8.6.4 2017-10-02
Report Run at: December 19, 2017 02:45 EST
"Nutrient data for: 45231305, CREAM FILLED KRIMPETS, UPC: 025600091722"
Food Group:  Branded Food Products Database
Common Name:

Nutrient,Unit,Data points,Std. Error,"2.0 CAKES = 67.0g",1Value per 100 g,
Proximates
"Energy",kcal,--,--,270,403
"Protein",g,--,--,3.00,4.48
"Total lipid (fat)",g,--,--,10.00,14.93
"Carbohydrate, by difference",g,--,--,42.00,62.69
"Fiber, total dietary",g,--,--,1.0,1.5
"Sugars, total",g,--,--,30.00,44.78
Minerals
"Calcium, Ca",mg,--,--,28,42
"Iron, Fe",mg,--,--,0.00,0.00
"Potassium, K",mg,--,--,0,0
"Sodium, Na",mg,--,--,170,254
Vitamins
Lipids
"Fatty acids, total saturated",g,--,--,3.497,5.220
"Fatty acids, total trans",g,--,--,0.000,0.000
"Cholesterol",mg,--,--,40,60
Amino Acids
Other
Ingredients
"SUGAR, ENRICHED FLOUR (WHEAT FLOUR, NIACIN, REDUCED IRON, THIAMIN MONONITRATE, RIBOFLAVIN, FOLIC ACID), NONFAT MILK, VEGETABLE SHORTENING (SOYBEAN OIL, PALM OIL, AND HYDROGENATED COTTONSEED OIL),CORN SYRUP, EGG YOLKS, PEANUT BUTTER (PEANUTS, SALT, HYDROGENATED VEGETABLE OIL(COTTONSEED OIL, CANOLA OIL, AND/OR SOYBEAN OIL), HIGH FRUCTOSE CORN SYRUP, EGGS, CONTAINS 2% OR LESS THAN EACH OF THE FOLLOWING: LIQUID SUCROSE, DEXTROSE, WATER, CORN STARCH, SOY PROTEIN, MODIFIED CORN STARCH, SOY LECITHIN, SALT, LEAVENING (SODIUM ACID PYROPHOSPHATE, SODIUM BICARBONATE, MONOCALCIUM PHOSPHATE), ROASTED PEANUT EXTRACT, POLYSORBATE 60, NATURAL AND ARTIFICIAL FLAVOR, BUTTER (MADE FROM MILK), XANTHAN GUM, MONO- AND DIGLYCERIDES, SORBITAN MONOSTEARATE, DISTILLED MONOGLYCERIDES, MONOGLYCERIDES, CALCIUM SULFATE, AGAR, NUTMEG, CARAMEL COLOR, FD&C YELLOW #5, FD&C RED #40, FD&C YELLOW #6, FD&C BLUE #1, PHOSPHORIC ACID, LACTIC ACID, PRESERVED WITH SORBIC ACID, POTASSIUM SORBATE AND SODIUM BENZOATE." Date available: 07/14/2017 Date last updated by company: 07/14/2017
