Source: USDA Branded Food Products Database Release December 2017 Software v.3.8.6.4 2017-10-02
Report Run at: December 19, 2017 02:46 EST
"Nutrient data for: 45062806, CREAM OF CELERY CONDENSED SOUP, UPC: 011110837127"
Food Group:  Branded Food Products Database
Common Name:

Nutrient,Unit,Data points,Std. Error,"0.5 cup = 125.0g",1Value per 100 g,
Proximates
"Energy",kcal,--,--,100,80
"Protein",g,--,--,1.00,0.80
"Total lipid (fat)",g,--,--,6.00,4.80
"Carbohydrate, by difference",g,--,--,9.00,7.20
"Fiber, total dietary",g,--,--,1.0,0.8
"Sugars, total",g,--,--,1.00,0.80
Minerals
"Calcium, Ca",mg,--,--,20,16
"Iron, Fe",mg,--,--,0.70,0.56
"Sodium, Na",mg,--,--,640,512
Vitamins
"Vitamin C, total ascorbic acid",mg,--,--,2.4,1.9
"Vitamin A, IU",IU,--,--,980,784
Lipids
"Fatty acids, total saturated",g,--,--,1.000,0.800
"Fatty acids, total monounsaturated",g,--,--,1.500,1.200
"Fatty acids, total polyunsaturated",g,--,--,3.000,2.400
"Fatty acids, total trans",g,--,--,0.000,0.000
"Cholesterol",mg,--,--,0,0
Amino Acids
Other
Ingredients
"WATER, CELERY, SOYBEAN OIL, MODIFIED CORN STARCH, WHEAT FLOUR, CREAM, CONTAINS LESS THAN 2% OF: SALT, POTASSIUM CHLORIDE, SUGAR, SOY PROTEIN CONCENTRATE, NATURAL FLAVORING, YEAST EXTRACTS, SEA SALT, CELERY JUICE CONCENTRATE, DISODIUM INOSINATE, DISODIUM GUANYLATE, SKIM MILK, MALTODEXTRIN, BETA CAROTENE (FOR COLOR), WHEAT PROTEIN CONCENTRATE." Date available: 07/14/2017 Date last updated by company: 07/14/2017
