Source: USDA Branded Food Products Database Release December 2017 Software v.3.8.6.4 2017-10-02
Report Run at: December 19, 2017 02:43 EST
"Nutrient data for: 45181326, CREAMERY SELECT PREMIUM ICE CREAM, UPC: 015400224963"
Food Group:  Branded Food Products Database
Common Name:

Nutrient,Unit,Data points,Std. Error,"0.5 cup = 65.0g",1Value per 100 g,
Proximates
"Energy",kcal,--,--,150,231
"Protein",g,--,--,2.00,3.08
"Total lipid (fat)",g,--,--,8.00,12.31
"Carbohydrate, by difference",g,--,--,18.00,27.69
"Fiber, total dietary",g,--,--,0.0,0.0
"Sugars, total",g,--,--,14.00,21.54
Minerals
"Calcium, Ca",mg,--,--,80,123
"Iron, Fe",mg,--,--,0.00,0.00
"Sodium, Na",mg,--,--,50,77
Vitamins
"Vitamin C, total ascorbic acid",mg,--,--,0.0,0.0
"Vitamin A, IU",IU,--,--,337,519
Lipids
"Fatty acids, total saturated",g,--,--,4.998,7.690
"Fatty acids, total trans",g,--,--,0.000,0.000
"Cholesterol",mg,--,--,30,46
Amino Acids
Other
Ingredients
"MILKFAT AND NONFAT MILK, SUGAR CORN SYRUP, CHOCOLATE COOKIES [SUGAR, ENRICHED FLOUR (WHEAT FLOUR, NIACIN,REDUCED IRON, THIAMIN MONONITRATE, RIBOFLAVIN, FOLIC ACID), VEGETABLE OIL (SOYBEAN, PALM, PALM KERNEL OIL WITH TBHQ FOR FRESHNESS), COCA (PROCESSED WITH ALKALI), INVERT SUGAR, YELLOW CORN FLOUR, CHOCOLATE, CORNSTARCH, SALT, LEAVENING (BAKING SODA, MONOCALCIUM PHOSPHATE), WHEY, NATURAL AND ARTIFICIAL FLAVORS, SOY LECITHIN], MONO & DIGLYCERIDES, GUAR GUM, LOCUST BEAN GUM, CARRAGEENAN, ARTIFICIAL FLAVOR, ANNATTO (COLOR)." Date available: 07/14/2017 Date last updated by company: 07/14/2017
