Source: USDA Branded Food Products Database Release December 2017 Software v.3.8.6.4 2017-10-02
Report Run at: December 19, 2017 02:56 EST
"Nutrient data for: 45219374, CREAMY CHICKEN VEGETABLE SOUP, UPC: 049022774391"
Food Group:  Branded Food Products Database
Common Name:

Nutrient,Unit,Data points,Std. Error,"1 PACKAGE = 285.0g",1Value per 100 g,
Proximates
"Energy",kcal,--,--,259,91
"Protein",g,--,--,19.01,6.67
"Total lipid (fat)",g,--,--,11.00,3.86
"Carbohydrate, by difference",g,--,--,22.00,7.72
"Fiber, total dietary",g,--,--,2.0,0.7
"Sugars, total",g,--,--,10.00,3.51
Minerals
"Calcium, Ca",mg,--,--,151,53
"Iron, Fe",mg,--,--,0.94,0.33
"Sodium, Na",mg,--,--,1320,463
Vitamins
"Vitamin C, total ascorbic acid",mg,--,--,5.1,1.8
"Vitamin A, IU",IU,--,--,259,91
Lipids
"Fatty acids, total saturated",g,--,--,3.990,1.400
"Fatty acids, total trans",g,--,--,0.000,0.000
"Cholesterol",mg,--,--,40,14
Amino Acids
Other
Ingredients
"BROTH (WATER, CHICKEN BASE [CHICKEN MEAT INCLUDING JUICES, SALT, HYDROLYZED SOY AND CORN PROTEINS, SUGAR, FLAVORING, POTATO FLOUR, AUTOLYZED YEAST EXTRACT, CARROT POWDER, TURMERIC], VEGETABLE BASE [COOKED VEGETABLES {CARROT, ONION, CELERY}, SALT, SUGAR, CORN OIL, POTATO FLOUR, FLAVORS]), COOKED WHITE CHICKEN MEAT, CORN, GREEN PEA, CELERY, CARROT, ONION, DRY WHOLE MILK, HALF AND HALF (MILK, CREAM, CELLULOSE GUM, GUAR GUM, CAROB BEAN GUM, MONO & DIGLYCERIDES, CARRAGEENAN), CANOLA OIL, MODIFIED CORN STARCH, GELATIN, NATURAL CREAM FLAVOR (MALTODEXTRIN, LIPOLYZED CREAM), YEAST EXTRACT, GARLIC POWDER, ONION POWDER, SPICES." Date available: 07/14/2017 Date last updated by company: 07/14/2017
