Source: USDA Branded Food Products Database Release December 2017 Software v.3.8.6.4 2017-10-02
Report Run at: December 19, 2017 02:50 EST
"Nutrient data for: 45152870, CREAM PUMPKINS, UPC: 086854046470"
Food Group:  Branded Food Products Database
Common Name:

Nutrient,Unit,Data points,Std. Error,"7.0 PCS = 39.0g",1Value per 100 g,
Proximates
"Energy",kcal,--,--,150,385
"Protein",g,--,--,0.00,0.00
"Total lipid (fat)",g,--,--,0.00,0.00
"Carbohydrate, by difference",g,--,--,37.00,94.87
"Fiber, total dietary",g,--,--,0.0,0.0
"Sugars, total",g,--,--,31.00,79.49
Minerals
"Calcium, Ca",mg,--,--,0,0
"Iron, Fe",mg,--,--,0.00,0.00
"Sodium, Na",mg,--,--,80,205
Vitamins
"Vitamin C, total ascorbic acid",mg,--,--,0.0,0.0
"Vitamin A, IU",IU,--,--,0,0
Lipids
"Fatty acids, total saturated",g,--,--,0.000,0.000
"Fatty acids, total trans",g,--,--,0.000,0.000
"Cholesterol",mg,--,--,0,0
Amino Acids
Other
Ingredients
"SUGAR, CORN SYRUP, CONFECTIONER'S GLAZE, HONEY, SALT, CARNAUBA WAX, EGG WHITES, ARTIFICIAL FLAVOR, SOY PROTEIN, ARTIFICIAL COLORS INCLUDING: YELLOW 6, RED 3, YELLOW 5 AND BLUE 1." Date available: 07/14/2017 Date last updated by company: 07/14/2017
