Source: USDA Branded Food Products Database Release December 2017 Software v.3.8.6.4 2017-10-02
Report Run at: December 19, 2017 02:55 EST
"Nutrient data for: 45329068, CREAMY CAESAR, UPC: 041512068454"
Food Group:  Branded Food Products Database
Common Name:

Nutrient,Unit,Data points,Std. Error,"1 Tbsp = 15.0g",1Value per 100 g,
Proximates
"Energy",kcal,--,--,70,467
"Protein",g,--,--,1.00,6.67
"Total lipid (fat)",g,--,--,7.00,46.67
"Carbohydrate, by difference",g,--,--,0.00,0.00
"Fiber, total dietary",g,--,--,0.0,0.0
"Sugars, total",g,--,--,0.00,0.00
Minerals
"Calcium, Ca",mg,--,--,0,0
"Iron, Fe",mg,--,--,0.00,0.00
"Sodium, Na",mg,--,--,170,1133
Vitamins
"Vitamin C, total ascorbic acid",mg,--,--,0.0,0.0
"Vitamin A, IU",IU,--,--,0,0
Lipids
"Fatty acids, total saturated",g,--,--,1.500,10.000
"Fatty acids, total trans",g,--,--,0.000,0.000
"Cholesterol",mg,--,--,10,67
Amino Acids
Other
Ingredients
"SOYBEAN OIL, WATER, PARMESAN CHEESE (PARMESAN CHEESE, PASTEURIZED SKIM MILK, SALT, CULTURE, ENZYMES, MICROCRYSTALLINE CELLULOSE ADDED TO PREVENT CAKING), EGG YOLKS, VINEGARS (CIDER AND DISTILLED), ANCHOVY PASTE, HIGH FRUCTOSE CORN SYRUP, SALT, GRANULATED GARLIC, NATURAL FLAVORS, SPICES, CONCENTRATED LEMON JUICE, XANTHAN GUM, ONION POWDER, POTASSIUM SORBATE AND SODIUM BENZOATE (AS PRESERVATIVES) CITRIC ACID. SODIUM CITRATE, OREGANO." Date available: 10/13/2017 Date last updated by company: 10/13/2017
