Source: USDA Branded Food Products Database Release December 2017 Software v.3.8.6.4 2017-10-02
Report Run at: December 19, 2017 02:55 EST
"Nutrient data for: 45332066, CREAMY CARAMEL TOPPING, UPC: 041695302734"
Food Group:  Branded Food Products Database
Common Name:

Nutrient,Unit,Data points,Std. Error,"1 Tbsp = 15.0g",1Value per 100 g,
Proximates
"Energy",kcal,--,--,80,533
"Protein",g,--,--,0.00,0.00
"Total lipid (fat)",g,--,--,1.50,10.00
"Carbohydrate, by difference",g,--,--,15.00,100.00
"Fiber, total dietary",g,--,--,0.0,0.0
"Sugars, total",g,--,--,10.00,66.67
Minerals
"Calcium, Ca",mg,--,--,0,0
"Iron, Fe",mg,--,--,0.00,0.00
"Sodium, Na",mg,--,--,65,433
Vitamins
"Vitamin C, total ascorbic acid",mg,--,--,0.0,0.0
"Vitamin A, IU",IU,--,--,0,0
Lipids
"Fatty acids, total saturated",g,--,--,0.500,3.330
"Fatty acids, total trans",g,--,--,0.000,0.000
"Cholesterol",mg,--,--,0,0
Amino Acids
Other
Ingredients
"CORN SYRUP, SUGAR, SWEETENED CONDENSED WHOLE MILK(WHOLE MILK, SUGAR), HIGH FRUCTOSE CORN SYRUP, CORN SYRUP SOLIDS, PARTIALLY HYDROGENATED SOYBEAN AND COTTONSEED OILS, BUTTER(MILK, CREAM, SALT), LESS THAN 2% OF WATER, SALT, MONO-AND DIGLYCERIDES, NATURAL AND ARTIFICAL FLAVORS, DISODIUM PHOSPHATE, PECTIN, CARAMEL COLOR(TREATED WITH SULFITES), POTASSIUM SORBATE, YELLOW 5, RED 40 AND BLUE 1." Date available: 10/13/2017 Date last updated by company: 10/13/2017
