Source: USDA Branded Food Products Database Release December 2017 Software v.3.8.6.4 2017-10-02
Report Run at: December 19, 2017 02:46 EST
"Nutrient data for: 45061743, CREAM OF CHICKEN CONDENSED SOUP, UPC: 075200300311"
Food Group:  Branded Food Products Database
Common Name:

Nutrient,Unit,Data points,Std. Error,"0.5 cup = 123.0g",1Value per 100 g,
Proximates
"Energy",kcal,--,--,109,89
"Protein",g,--,--,3.00,2.44
"Total lipid (fat)",g,--,--,7.00,5.69
"Carbohydrate, by difference",g,--,--,8.00,6.50
"Fiber, total dietary",g,--,--,1.0,0.8
"Sugars, total",g,--,--,0.00,0.00
Minerals
"Calcium, Ca",mg,--,--,0,0
"Iron, Fe",mg,--,--,0.71,0.58
"Sodium, Na",mg,--,--,870,707
Vitamins
"Vitamin C, total ascorbic acid",mg,--,--,0.0,0.0
"Vitamin A, IU",IU,--,--,797,648
Lipids
"Fatty acids, total saturated",g,--,--,0.996,0.810
"Fatty acids, total trans",g,--,--,0.000,0.000
"Cholesterol",mg,--,--,10,8
Amino Acids
Other
Ingredients
"CHICKEN BROTH, MODIFIED CORN STARCH, CHICKEN MEAT, SOYBEAN OIL, CHICKEN FAT, CONTAINS LESS THAN 2% OF THE FOLLOWING: WHEAT FLOUR, SALT, WHEY POWDER (MILK), MONOSODIUM GLUTAMATE, CREAM, SOY PROTEIN CONCENTRATE, MECHANICALLY SEPARATED CHICKEN, AUTOLYZED YEAST EXTRACT, ARTIFICIAL COLOR, DISODIUM PHOSPHATE, SUGAR, MALTODEXTRIN, NATURAL FLAVOR, SOY FLOUR, SOY LECITHIN, CANOLA OIL, BETA CAROTENE (FOR COLOR), CARAMEL COLOR, CITRIC ACID, DEXTROSE." Date available: 07/14/2017 Date last updated by company: 07/14/2017
