Source: USDA Branded Food Products Database Release December 2017 Software v.3.8.6.4 2017-10-02
Report Run at: December 19, 2017 03:02 EST
"Nutrient data for: 45094561, CREAMY MINTS IN PURE CHOCOLATE!, UPC: 071720530672"
Food Group:  Branded Food Products Database
Common Name:

Nutrient,Unit,Data points,Std. Error,"2.0 BOXES = 38.0g",1Value per 100 g,
Proximates
"Energy",kcal,--,--,160,421
"Protein",g,--,--,1.00,2.63
"Total lipid (fat)",g,--,--,3.00,7.89
"Carbohydrate, by difference",g,--,--,33.00,86.84
"Fiber, total dietary",g,--,--,1.0,2.6
"Sugars, total",g,--,--,31.00,81.58
Minerals
"Calcium, Ca",mg,--,--,0,0
"Iron, Fe",mg,--,--,1.90,4.99
"Sodium, Na",mg,--,--,25,66
Vitamins
"Vitamin C, total ascorbic acid",mg,--,--,0.0,0.0
"Vitamin A, IU",IU,--,--,0,0
Lipids
"Fatty acids, total saturated",g,--,--,2.500,6.580
"Fatty acids, total trans",g,--,--,0.000,0.000
"Cholesterol",mg,--,--,0,0
Amino Acids
Other
Ingredients
"SUGAR, SEMI-SWEET CHOCOLATE (SUGAR, CHOCOLATE PROCESSED WITH ALKALI, COCOA BUTTER, SOY LECITHIN-AN EMULSIFIER, VANILLIN-AN ARTIFICIAL FLAVOR), CORN SYRUP, CONFECTIONER'S GLAZE, MODIFIED FOOD STARCH, PEPPERMINT OIL, INVERTASE (AN ENZYME)." Date available: 07/14/2017 Date last updated by company: 07/14/2017
