Source: USDA Branded Food Products Database Release December 2017 Software v.3.8.6.4 2017-10-02
Report Run at: December 19, 2017 03:02 EST
"Nutrient data for: 45202938, CREAMY MUSHROOM SOUP, UPC: 853434002474"
Food Group:  Branded Food Products Database
Common Name:

Nutrient,Unit,Data points,Std. Error,"1 cup = 245.0g",1Value per 100 g,
Proximates
"Energy",kcal,--,--,100,41
"Protein",g,--,--,5.00,2.04
"Total lipid (fat)",g,--,--,4.51,1.84
"Carbohydrate, by difference",g,--,--,11.00,4.49
"Fiber, total dietary",g,--,--,1.0,0.4
"Sugars, total",g,--,--,2.99,1.22
Minerals
"Calcium, Ca",mg,--,--,20,8
"Iron, Fe",mg,--,--,1.08,0.44
"Sodium, Na",mg,--,--,279,114
Vitamins
"Vitamin C, total ascorbic acid",mg,--,--,4.9,2.0
"Vitamin A, IU",IU,--,--,1250,510
Lipids
"Fatty acids, total saturated",g,--,--,0.490,0.200
"Fatty acids, total trans",g,--,--,0.000,0.000
"Cholesterol",mg,--,--,0,0
Amino Acids
Other
Ingredients
"WATER, MUSHROOMS*, SOYMILK POWDER* (SOYBEANS*), CORNSTARCH*, CARROTS*, CELERY*, ONIONS*, SOY SAUCE* (WATER, WHOLE SOYBEANS*, SALT), EXTRA VIRGIN OLIVE OIL*, AGAVE SYRUP*, CANOLA OIL*, PARSLEY*, POTATO FLOUR*, SEA SALT, MOLASSES*, SPICES*, FLAVOR." Date available: 07/14/2017 Date last updated by company: 07/14/2017
