Source: USDA Branded Food Products Database Release December 2017 Software v.3.8.6.4 2017-10-02
Report Run at: December 19, 2017 02:53 EST
"Nutrient data for: 45061530, CREAMY ALMOND BUTTER, UPC: 085239201251"
Food Group:  Branded Food Products Database
Common Name:

Nutrient,Unit,Data points,Std. Error,"2.0 Tbsp = 32.0g",1Value per 100 g,
Proximates
"Energy",kcal,--,--,190,594
"Protein",g,--,--,7.00,21.88
"Total lipid (fat)",g,--,--,17.00,53.12
"Carbohydrate, by difference",g,--,--,7.00,21.88
"Fiber, total dietary",g,--,--,3.0,9.4
"Sugars, total",g,--,--,2.00,6.25
Minerals
"Calcium, Ca",mg,--,--,80,250
"Iron, Fe",mg,--,--,1.69,5.28
"Sodium, Na",mg,--,--,0,0
Vitamins
"Vitamin C, total ascorbic acid",mg,--,--,0.0,0.0
"Vitamin A, IU",IU,--,--,0,0
Lipids
"Fatty acids, total saturated",g,--,--,1.501,4.690
"Fatty acids, total trans",g,--,--,0.000,0.000
"Cholesterol",mg,--,--,0,0
Amino Acids
Other
Ingredients
"ROASTED ALMONDS." Date available: 07/14/2017 Date last updated by company: 07/14/2017
