Source: USDA Branded Food Products Database Release December 2017 Software v.3.8.6.4 2017-10-02
Report Run at: December 19, 2017 02:46 EST
"Nutrient data for: 45272823, CREAM LENTIL SOUP, UPC: 092378100307"
Food Group:  Branded Food Products Database
Common Name:

Nutrient,Unit,Data points,Std. Error,"0.5 cup = 149.0g",1Value per 100 g,
Proximates
"Energy",kcal,--,--,42,28
"Protein",g,--,--,2.00,1.34
"Total lipid (fat)",g,--,--,1.21,0.81
"Carbohydrate, by difference",g,--,--,5.80,3.89
"Fiber, total dietary",g,--,--,2.2,1.5
"Sugars, total",g,--,--,0.30,0.20
Minerals
"Calcium, Ca",mg,--,--,10,7
"Iron, Fe",mg,--,--,0.89,0.60
"Sodium, Na",mg,--,--,267,179
Vitamins
"Vitamin C, total ascorbic acid",mg,--,--,1.9,1.3
"Vitamin A, IU",IU,--,--,0,0
Lipids
"Fatty acids, total saturated",g,--,--,0.194,0.130
"Fatty acids, total trans",g,--,--,0.000,0.000
"Cholesterol",mg,--,--,0,0
Amino Acids
Other
Ingredients
"RED LENTIL, RICE, WATER, ONION, LEMON JUICE, OLIVE OIL, SALT, CUMIN." Date available: 07/14/2017 Date last updated by company: 07/14/2017
