Source: USDA Branded Food Products Database Release December 2017 Software v.3.8.6.4 2017-10-02
Report Run at: December 19, 2017 03:11 EST
"Nutrient data for: 45208819, CREAMY & SPREADABLE PREMIUM FRESH CHEESE, UPC: 084892027840"
Food Group:  Branded Food Products Database
Common Name:

Nutrient,Unit,Data points,Std. Error,"1 ONZ = 28.0g",1Value per 100 g,
Proximates
"Energy",kcal,--,--,90,321
"Protein",g,--,--,2.00,7.14
"Total lipid (fat)",g,--,--,8.00,28.57
"Carbohydrate, by difference",g,--,--,2.00,7.14
"Fiber, total dietary",g,--,--,1.0,3.6
"Sugars, total",g,--,--,1.00,3.57
Minerals
"Calcium, Ca",mg,--,--,20,71
"Sodium, Na",mg,--,--,150,536
Vitamins
"Vitamin A, IU",IU,--,--,200,714
Lipids
"Fatty acids, total saturated",g,--,--,5.001,17.860
"Fatty acids, total trans",g,--,--,0.000,0.000
"Cholesterol",mg,--,--,20,71
Amino Acids
Other
Ingredients
"PASTEURIZED COW'S MILK AND CREAM, RED AND GREEN SWEET PEPPERS (5%), VEGETABLE FIBER, SALT, STARCH, CHILLI PEPPER (0.2%), PAPRIKA, CUMIN, PRESERVATIVE: SORBIC ACID, ACIDITY REGULATOR: CITRIC ACID, GARLIC, PEPPER, RAPESEED OIL, CORIANDER, OREGANO, BASIL, BACTERIAL CULTURE, SAGE, ROSEMARY EXTRACT." Date available: 11/25/2016 Date last updated by company: 11/25/2016
