Source: USDA Branded Food Products Database Release December 2017 Software v.3.8.6.4 2017-10-02
Report Run at: December 19, 2017 03:13 EST
"Nutrient data for: 45067696, CREAMY WHITE QUESO, UPC: 085239260357"
Food Group:  Branded Food Products Database
Common Name:

Nutrient,Unit,Data points,Std. Error,"2.0 Tbsp = 31.0g",1Value per 100 g,
Proximates
"Energy",kcal,--,--,35,113
"Protein",g,--,--,1.00,3.23
"Total lipid (fat)",g,--,--,2.50,8.06
"Carbohydrate, by difference",g,--,--,2.00,6.45
"Fiber, total dietary",g,--,--,0.0,0.0
"Sugars, total",g,--,--,0.00,0.00
Minerals
"Calcium, Ca",mg,--,--,40,129
"Iron, Fe",mg,--,--,0.00,0.00
"Sodium, Na",mg,--,--,200,645
Vitamins
"Vitamin C, total ascorbic acid",mg,--,--,0.0,0.0
"Vitamin A, IU",IU,--,--,0,0
Lipids
"Fatty acids, total saturated",g,--,--,1.001,3.230
"Fatty acids, total trans",g,--,--,0.000,0.000
"Cholesterol",mg,--,--,5,16
Amino Acids
Other
Ingredients
"WATER, NONFAT MILK, MONTEREY JACK CHEESE (CULTURED MILK, SALT, ENZYMES), CHEDDAR CHEESE (CULTURED MILK, SALT, ENZYMES), JALAPENO PEPPERS, GREEN CHILE PEPPERS, RED PEPPERS, SOYBEAN OIL, MODIFIED CORN STARCH, MALTODEXTRIN, LESS THAN 2% OF NATURAL FLAVORS, SALT, SODIUM PHOSPHATE, SODIUM HEXAMETAPHOSPHATE, TITANIUM DIOXIDE (COLOR), XANTHAN GUM, CARRAGEENAN, DATEM, AUTOLYZED YEAST EXTRACT, SODIUM CITRATE, SKIM MILK CHEESE (CULTURED SKIM MILK, SALT, ENZYMES), CREAM, BUTTER OIL, YEAST EXTRACT." Date available: 07/14/2017 Date last updated by company: 07/14/2017
