Source: USDA Branded Food Products Database Release December 2017 Software v.3.8.6.4 2017-10-02
Report Run at: December 19, 2017 03:18 EST
"Nutrient data for: 45223295, CREME FILLED CAKES, UPC: 072250091565"
Food Group:  Branded Food Products Database
Common Name:

Nutrient,Unit,Data points,Std. Error,"3.0 CAKES = 128.0g",1Value per 100 g,
Proximates
"Energy",kcal,--,--,500,391
"Protein",g,--,--,3.00,2.34
"Total lipid (fat)",g,--,--,17.00,13.28
"Carbohydrate, by difference",g,--,--,83.99,65.62
"Fiber, total dietary",g,--,--,2.0,1.6
"Sugars, total",g,--,--,62.00,48.44
Minerals
"Calcium, Ca",mg,--,--,349,273
"Iron, Fe",mg,--,--,0.00,0.00
"Sodium, Na",mg,--,--,300,234
Vitamins
"Vitamin C, total ascorbic acid",mg,--,--,0.0,0.0
"Vitamin A, IU",IU,--,--,0,0
Lipids
"Fatty acids, total saturated",g,--,--,8.000,6.250
"Fatty acids, total trans",g,--,--,0.000,0.000
"Cholesterol",mg,--,--,35,27
Amino Acids
Other
Ingredients
"SUGAR, WHEY (MILK), BLEACHED AND UNBLEACHED ENRICHED FLOUR (WHEAT FLOUR, MALTED BARLEY FLOUR, NIACIN, REDUCED IRON, THIAMIN MONONITRATE, RIBOFLAVIN, FOLIC ACID), VEGETABLE OILS (PALM OIL AND SOYBEAN OIL), EGGS, CONTAINS 2% OR LESS OF EACH OF THE FOLLOWING: WATER, EGG WHITES, NONFAT MILK, CORN STARCH, GLYCERINE, HYDROGENATED PALM KERNEL OIL, CORN SYRUP, HIGH FRUCTOSE CORN SYRUP, MONO- AND DIGLYCERIDES, MODIFIED CORN STARCH, CALCIUM CARBONATE, DEXTROSE, LEAVENING (SODIUM ACID PYROPHOSPHATE, BAKING SODA, MONOCALCIUM PHOSPHATE), AGAVE SYRUP, INULIN (AGAVE), SALT, CALCIUM SULFATE, POLYSORBATE 80, GUAR GUM, POLYSORBATE 60, MALTODEXTRIN, SORBITAN MONOSTEARATE, CELLULOSE GUM, AGAR, DATEM, SODIUM STEAROYL LACTYLATE, NATURAL AND ARTIFICIAL FLAVORS, CELLULOSE, SOY LECITHIN, TITANIUM DIOXIDE (COLOR), SODIUM HEXAMETAPHOSPHATE, COLORED WITH EXTRACTIVES OF TURMERIC AND ANNATTO SEED, TRICALCIUM PHOSPHATE, SOY FLOUR, MONOGLYCERIDES, CITRIC ACID, CARAMEL COLOR, XANTHAN GUM, PRESERVED WITH POTASSIUM SORBATE, SORBIC ACID AND SODIUM PROPIONATE." Date available: 07/14/2017 Date last updated by company: 07/14/2017
