Source: USDA Branded Food Products Database Release December 2017 Software v.3.8.6.4 2017-10-02
Report Run at: December 19, 2017 03:20 EST
"Nutrient data for: 45197317, CREOLE CREAM STYLE NAVY BEANS, UPC: 070353317506"
Food Group:  Branded Food Products Database
Common Name:

Nutrient,Unit,Data points,Std. Error,"0.5 cup = 130.0g",1Value per 100 g,
Proximates
"Energy",kcal,--,--,130,100
"Protein",g,--,--,8.00,6.15
"Total lipid (fat)",g,--,--,1.50,1.15
"Carbohydrate, by difference",g,--,--,23.00,17.69
"Fiber, total dietary",g,--,--,9.0,6.9
"Sugars, total",g,--,--,4.00,3.08
Minerals
"Calcium, Ca",mg,--,--,60,46
"Iron, Fe",mg,--,--,2.70,2.08
"Sodium, Na",mg,--,--,439,338
Vitamins
"Vitamin C, total ascorbic acid",mg,--,--,2.3,1.8
"Vitamin A, IU",IU,--,--,0,0
Lipids
"Fatty acids, total saturated",g,--,--,0.000,0.000
"Fatty acids, total trans",g,--,--,0.000,0.000
"Cholesterol",mg,--,--,0,0
Amino Acids
Other
Ingredients
"WHITE NAVY BEANS, WATER, ONIONS, SALT, COTTONSEED OIL, GREEN ONION, JALAPENO PEPPERS AND SPICES." Date available: 07/14/2017 Date last updated by company: 07/14/2017
