Source: USDA Branded Food Products Database Release December 2017 Software v.3.8.6.4 2017-10-02
Report Run at: December 19, 2017 03:21 EST
"Nutrient data for: 45001893, CREOLE SEASONING, UPC: 20003968"
Food Group:  Branded Food Products Database
Common Name:

Nutrient,Unit,Data points,Std. Error,"0.25 tsp = 0.8g",1Value per 100 g,
Proximates
"Energy",kcal,--,--,0,0
"Protein",g,--,--,0.00,0.00
"Total lipid (fat)",g,--,--,0.00,0.00
"Carbohydrate, by difference",g,--,--,0.00,0.00
Minerals
"Sodium, Na",mg,--,--,65,8125
Vitamins
Lipids
Amino Acids
Other
Ingredients
"DEHYDRATED GARLIC, SPICES, SALT, PAPRIKA (COLOR), DEHYDRATED ONION, RED PEPPER." Date available: 06/24/2017 Date last updated by company: 06/24/2017
