Source: USDA Branded Food Products Database Release December 2017 Software v.3.8.6.4 2017-10-02
Report Run at: December 19, 2017 03:25 EST
"Nutrient data for: 45225278, CRINKLE CUT CARROTS, UPC: 041303021002"
Food Group:  Branded Food Products Database
Common Name:

Nutrient,Unit,Data points,Std. Error,"0.66 cup = 85.0g",1Value per 100 g,
Proximates
"Energy",kcal,--,--,35,41
"Protein",g,--,--,1.00,1.18
"Total lipid (fat)",g,--,--,0.00,0.00
"Carbohydrate, by difference",g,--,--,7.00,8.24
"Fiber, total dietary",g,--,--,2.0,2.4
"Sugars, total",g,--,--,4.00,4.71
Minerals
"Calcium, Ca",mg,--,--,20,24
"Iron, Fe",mg,--,--,0.00,0.00
"Sodium, Na",mg,--,--,60,71
Vitamins
"Vitamin C, total ascorbic acid",mg,--,--,1.2,1.4
"Vitamin A, IU",IU,--,--,3000,3529
Lipids
"Fatty acids, total saturated",g,--,--,0.000,0.000
"Fatty acids, total trans",g,--,--,0.000,0.000
"Cholesterol",mg,--,--,0,0
Amino Acids
Other
Ingredients
"CARROTS." Date available: 07/14/2017 Date last updated by company: 07/14/2017
