Source: USDA Branded Food Products Database Release December 2017 Software v.3.8.6.4 2017-10-02
Report Run at: December 19, 2017 03:35 EST
"Nutrient data for: 45330034, CRISPY MARSHMALLOW GOODIES, UPC: 690763022458"
Food Group:  Branded Food Products Database
Common Name:

Nutrient,Unit,Data points,Std. Error,"1 BAR = 28.0g",1Value per 100 g,
Proximates
"Energy",kcal,--,--,100,357
"Protein",g,--,--,1.00,3.57
"Total lipid (fat)",g,--,--,2.60,9.29
"Carbohydrate, by difference",g,--,--,18.00,64.29
"Fiber, total dietary",g,--,--,0.0,0.0
"Sugars, total",g,--,--,10.00,35.71
Minerals
"Calcium, Ca",mg,--,--,0,0
"Iron, Fe",mg,--,--,0.00,0.00
"Sodium, Na",mg,--,--,139,496
Vitamins
"Vitamin C, total ascorbic acid",mg,--,--,0.0,0.0
"Thiamin",mg,--,--,0.000,0.000
"Riboflavin",mg,--,--,0.000,0.000
"Niacin",mg,--,--,0.000,0.000
"Vitamin A, IU",IU,--,--,0,0
Lipids
"Fatty acids, total saturated",g,--,--,1.000,3.570
"Fatty acids, total trans",g,--,--,0.000,0.000
"Cholesterol",mg,--,--,0,0
Amino Acids
Other
Ingredients
"MARSHMALLOW (CORN SYRUP, GLUCOSE-FRUCTOSE, SUGAR, WATER, GELATIN, ARTIFICIAL VANILLA FLAVOR, SALT), CRISP RICE (RICE, SUGAR, SALT, MALT [CORN FLOUR, MALTED BARLEY] REDUCED IRON, NIACINAMIDE, THIAMIN HYDROCHLORIDE [VITAMIN B1], PYRIDOXINE HYDROCHLORIDE [VITAMIN B6], CALCIUM PANTOTHENATE, FOLIC ACID AND BHT [PRESERVATIVE]), CHOCOLATE (SUGAR, PALM KERNAL AND PARTICIALLY HYDROGENATED PALM OILS, COCOA, WHEY, NONFAT MILK, SORBITAN MONOSTERATE AND LECITHIN EMULSIFIERS, NATURUAL AND ARTIFICIAL FLAVORS, AND MAY CONTAIN YELLOW 5, YELLOW 5 LAKE, YELLOW 6 LAKE, BLUE 2 LAKE, RED 40 LAKE, BLUE 1, BLUE 1 LAKE, YELLOW 6, TITANIUM DIOXIODE), MARGARINE (PALM OIL, WATER, SALT, VEGETABLE MONOGLYCERIDES, WHEY SOLIDS, SODIUM BENZOATE [PRESERVATIVE], NATURAL AND ARTIFICIAL FLAVOR, CITRIC ACID, BETA CAROTENE [COLOR], VITAMIN A PALMITATE ADDED), GLYCERIN, TBHQ (PRESERVATIVE)." Date available: 10/13/2017 Date last updated by company: 10/13/2017
