Source: USDA Branded Food Products Database Release December 2017 Software v.3.8.6.4 2017-10-02
Report Run at: December 19, 2017 03:28 EST
"Nutrient data for: 45137652, CRISP, ORANGE FLAVORED SODA, UPC: 051933162006"
Food Group:  Branded Food Products Database
Common Name:

Nutrient,Unit,Data points,Std. Error,"8.0 OZA = 240.0g",1Value per 100 g,
Proximates
"Energy",kcal,--,--,130,54
"Protein",g,--,--,0.00,0.00
"Total lipid (fat)",g,--,--,0.00,0.00
"Carbohydrate, by difference",g,--,--,33.00,13.75
"Sugars, total",g,--,--,31.99,13.33
Minerals
"Sodium, Na",mg,--,--,0,0
Vitamins
Lipids
Amino Acids
Other
Ingredients
"CARBONATED WATER, HIGH FRUCTOSE, HIGH FRUCTOSE CORN SYRUP, CITRIC ACID, POTASSIUM BENZOATE (AS PRESERVATIVE) MODIFIED FOOD STARCH, NATURAL FLAVORS, CAFFEINE GLYCEROL ESTER OF WOOD ROSIN, COLOR(YELLOW 6, RED 40, BROMINATED VEGETABLE OIL" Date available: 07/14/2017 Date last updated by company: 07/14/2017
