Source: USDA Branded Food Products Database Release December 2017 Software v.3.8.6.4 2017-10-02
Report Run at: December 19, 2017 03:38 EST
"Nutrient data for: 45212649, CRISPY RICE SHAPE A HEART KIT, UPC: 844527025081"
Food Group:  Branded Food Products Database
Common Name:

Nutrient,Unit,Data points,Std. Error,"0.166 PACKAGE = 40.0g",1Value per 100 g,
Proximates
"Energy",kcal,--,--,140,350
"Protein",g,--,--,1.00,2.50
"Total lipid (fat)",g,--,--,1.00,2.50
"Carbohydrate, by difference",g,--,--,32.00,80.00
"Fiber, total dietary",g,--,--,0.0,0.0
"Sugars, total",g,--,--,16.00,40.00
Minerals
"Calcium, Ca",mg,--,--,0,0
"Iron, Fe",mg,--,--,0.00,0.00
"Sodium, Na",mg,--,--,170,425
Vitamins
"Vitamin C, total ascorbic acid",mg,--,--,0.0,0.0
"Vitamin A, IU",IU,--,--,0,0
Lipids
"Fatty acids, total saturated",g,--,--,0.000,0.000
"Fatty acids, total trans",g,--,--,0.000,0.000
"Cholesterol",mg,--,--,0,0
Amino Acids
Other
Ingredients
"MINI MARSHMALLOWS: CORN SYRUP, SUGAR, FOOD STARCH- MODIFIED (CORN), DEXTROSE, WATER, GELATIN, NATURAL AND ARTIFICIAL FLAVOR, TETRASODIUM PYROPHOSPHATE. CRISPY RICE CEREAL: MILLED RICE, SUGAR, SALT, CORN AND BARLEY MALT EXTRACT. ICING PENS: SUGAR, PARTIALLY HYDROGENATED SOYBEAN AND COTTONSEED OIL, WATER, CORN SYRUP, MONO AND DIGLYCERIDES, FOOD STARCH-MODIFIED, SALT, POTASSIUM SORBATE (PRESERVATIVE), TITANIUM DIOXIDE COLOR, POLYSORBATE 60, ARTIFICIAL FLAVOR, CITRIC ACID, RED 40, SODIUM BENZOATE (PRESERVATIVE)." Date available: 07/14/2017 Date last updated by company: 07/14/2017
