Source: USDA Branded Food Products Database Release December 2017 Software v.3.8.6.4 2017-10-02
Report Run at: December 19, 2017 03:40 EST
"Nutrient data for: 45230372, CRISPY TERIYAKI CHICKEN, UPC: 695119120390"
Food Group:  Branded Food Products Database
Common Name:

Nutrient,Unit,Data points,Std. Error,"1 cup = 178.0g",1Value per 100 g,
Proximates
"Energy",kcal,--,--,390,219
"Protein",g,--,--,15.01,8.43
"Total lipid (fat)",g,--,--,11.00,6.18
"Carbohydrate, by difference",g,--,--,56.00,31.46
"Fiber, total dietary",g,--,--,1.1,0.6
"Sugars, total",g,--,--,27.00,15.17
Minerals
"Calcium, Ca",mg,--,--,20,11
"Iron, Fe",mg,--,--,1.98,1.11
"Sodium, Na",mg,--,--,1000,562
Vitamins
"Vitamin C, total ascorbic acid",mg,--,--,0.0,0.0
"Vitamin A, IU",IU,--,--,0,0
Lipids
"Fatty acids, total saturated",g,--,--,1.994,1.120
"Fatty acids, total trans",g,--,--,0.000,0.000
"Cholesterol",mg,--,--,44,25
Amino Acids
Other
Ingredients
"TEMPURA CHICKEN: CHICKEN BREAST MEAT, WATER, CORNSTARCH, BLEACHED ENRICHED FLOUR (WHEAT FLOUR, NIACIN, IRON, THIAMINE MONONITRATE, RIBOFLAVIN, FOLIC ACID). CONTAINS LESS THAN 2% OF DEXTRIN, EGG WHITES, EGG YOLKS, LEAVENING (SODIUM ACID PYROPHOSPHATE, SODIUM BICARBONATE, MONOCALCIUM PHOSPHATE),MODIFIED POTATO STARCH, NONFAT DRY MILK, RICE FLOUR, SALT SODIUM PHOSPHATE, XANTHAN GUM. COOKED IN VEGETABLE OIL. TERIYAKI SAUCE: WATER, SUGAR, SOY SAUCE (WATER, WHEAT, SOYBEANS, SALT), HOISIN SAUCE (SUGAR, WATER, SOYBEANS, SALT, MODIFIED CORN STARCH, WHEAT FLOUR, CARAMEL COLOR, SESAME OIL, ACETIC ACID, SPICES), CORN STARCH, GINGER, MOLASSES, GARLIC, PINEAPPLE JUICE CONCENTRATE, SESAME SEED OIL, CULTURED DEXTROSE, SOYBEAN OIL, PHOSPHORIC ACID, ONION POWDER, XANTHAN GUM, CARAMEL COLOR." Date available: 08/07/2017 Date last updated by company: 08/07/2017
