Source: USDA Branded Food Products Database Release December 2017 Software v.3.8.6.4 2017-10-02
Report Run at: December 19, 2017 03:34 EST
"Nutrient data for: 45193706, CRISPY FRIED ONIONS, UPC: 011433153850"
Food Group:  Branded Food Products Database
Common Name:

Nutrient,Unit,Data points,Std. Error,"3.0 Tbsp = 15.0g",1Value per 100 g,
Proximates
"Energy",kcal,--,--,90,600
"Protein",g,--,--,1.00,6.67
"Total lipid (fat)",g,--,--,7.00,46.67
"Carbohydrate, by difference",g,--,--,6.00,40.00
"Fiber, total dietary",g,--,--,1.0,6.7
"Sugars, total",g,--,--,1.00,6.67
Minerals
"Calcium, Ca",mg,--,--,0,0
"Iron, Fe",mg,--,--,0.00,0.00
"Sodium, Na",mg,--,--,90,600
Vitamins
"Vitamin C, total ascorbic acid",mg,--,--,0.0,0.0
"Vitamin A, IU",IU,--,--,0,0
Lipids
"Fatty acids, total saturated",g,--,--,0.000,0.000
"Fatty acids, total trans",g,--,--,0.000,0.000
"Cholesterol",mg,--,--,0,0
Amino Acids
Other
Ingredients
"ONIONS, PALM OIL, WHEAT FLOUR, SALT." Date available: 07/14/2017 Date last updated by company: 07/14/2017
