Source: USDA Branded Food Products Database Release December 2017 Software v.3.8.6.4 2017-10-02
Report Run at: December 19, 2017 03:35 EST
"Nutrient data for: 45261454, CRISPY FRIES POTATO STICKS, UPC: 028400243537"
Food Group:  Branded Food Products Database
Common Name:

Nutrient,Unit,Data points,Std. Error,"1 PACKAGE = 48.1g",1Value per 100 g,
Proximates
"Energy",kcal,--,--,280,582
"Protein",g,--,--,3.00,6.24
"Total lipid (fat)",g,--,--,18.00,37.42
"Carbohydrate, by difference",g,--,--,25.00,51.98
"Fiber, total dietary",g,--,--,2.0,4.2
"Sugars, total",g,--,--,2.00,4.16
Minerals
"Calcium, Ca",mg,--,--,20,42
"Iron, Fe",mg,--,--,0.72,1.50
"Potassium, K",mg,--,--,520,1081
"Sodium, Na",mg,--,--,250,520
Vitamins
"Vitamin C, total ascorbic acid",mg,--,--,9.0,18.7
"Vitamin A, IU",IU,--,--,0,0
Lipids
"Fatty acids, total saturated",g,--,--,3.001,6.240
"Fatty acids, total trans",g,--,--,0.000,0.000
"Cholesterol",mg,--,--,0,0
Amino Acids
Other
Ingredients
"POTATOES, VEGETABLE OIL (SUNFLOWER, CORN, AND/OR CANOLA OIL), CHEESE SEASONING (SALT, WHEY, BUTTERMILK, MALTODEXTRIN [MADE FROM CORN AND POTATO], GARLIC POWDER, SUGAR, ONION POWDER, NATURAL FLAVOR, SPICES, BUTTER [CREAM, ANNATTO], CHEDDAR CHEESE [MILK, CHEESE CULTURES, SALT, ENZYMES], SOUR CREAM [CREAM, SKIM MILK, CULTURES], SKIM MILK, TOMATO POWDER, WHEY PROTEIN CONCENTRATE, CANOLA OIL, AND GUM ACACIA)." Date available: 05/24/2017 Date last updated by company: 05/24/2017
