Source: USDA Branded Food Products Database Release December 2017 Software v.3.8.6.4 2017-10-02
Report Run at: December 19, 2017 03:36 EST
"Nutrient data for: 45231196, CRISPY ONION SESAME SENSATIONS, UPC: 030243696739"
Food Group:  Branded Food Products Database
Common Name:

Nutrient,Unit,Data points,Std. Error,"0.25 cup = 25.0g",1Value per 100 g,
Proximates
"Energy",kcal,--,--,140,560
"Protein",g,--,--,3.00,12.00
"Total lipid (fat)",g,--,--,10.00,40.00
"Carbohydrate, by difference",g,--,--,10.00,40.00
"Fiber, total dietary",g,--,--,1.0,4.0
"Sugars, total",g,--,--,2.00,8.00
Minerals
"Calcium, Ca",mg,--,--,20,80
"Iron, Fe",mg,--,--,3.60,14.40
"Sodium, Na",mg,--,--,180,720
Vitamins
"Vitamin C, total ascorbic acid",mg,--,--,0.0,0.0
"Vitamin A, IU",IU,--,--,0,0
Lipids
"Fatty acids, total saturated",g,--,--,2.000,8.000
"Fatty acids, total trans",g,--,--,0.000,0.000
"Cholesterol",mg,--,--,0,0
Amino Acids
Other
Ingredients
"HONEY ROASTED PUMPKIN SEEDS [PUMPKIN SEEDS, SUCROSE, WHEAT STARCH, HONEY, CALCIUM STEARATE, SOY LECITHIN, MALTODEXTRIN, AND LACTOSE], HONEY ROASTED SESAME STICKS [UNBLEACHED WHEAT FLOUR (CONTAINS MALTED BARLEY FLOUR AS A NATURAL ENZYME ADDITIVE), SOYBEAN OIL, SESAME SEEDS, HONEY COATING (SUCROSE, WHEAT STARCH, HONEY), BULGUR WHEAT, TACK BLEND (MALTODEXTRIN, XANTHAN GUM), SALT, TURMERIC (COLOR), BEET POWDER (COLOR)], CRISPY ONION PIECES [ONIONS, VEGETABLE OIL (RAPESEED (CANOLA)/PALM), WHEAT FLOUR, SALT]." Date available: 07/14/2017 Date last updated by company: 07/14/2017
