Source: USDA Branded Food Products Database Release December 2017 Software v.3.8.6.4 2017-10-02
Report Run at: December 19, 2017 03:33 EST
"Nutrient data for: 45038479, CRISPY CREOLE HUSH PUPPY MIX, UPC: 071998002086"
Food Group:  Branded Food Products Database
Common Name:

Nutrient,Unit,Data points,Std. Error,"0.25 cup = 35.0g",1Value per 100 g,
Proximates
"Energy",kcal,--,--,120,343
"Protein",g,--,--,3.00,8.57
"Total lipid (fat)",g,--,--,0.00,0.00
"Carbohydrate, by difference",g,--,--,27.00,77.14
"Fiber, total dietary",g,--,--,1.0,2.9
"Sugars, total",g,--,--,2.00,5.71
Minerals
"Calcium, Ca",mg,--,--,60,171
"Iron, Fe",mg,--,--,1.03,2.94
"Sodium, Na",mg,--,--,450,1286
Vitamins
"Vitamin C, total ascorbic acid",mg,--,--,0.0,0.0
"Vitamin A, IU",IU,--,--,143,409
Lipids
"Fatty acids, total saturated",g,--,--,0.000,0.000
"Fatty acids, total trans",g,--,--,0.000,0.000
"Cholesterol",mg,--,--,0,0
Amino Acids
Other
Ingredients
"DERGERMED YELLOW CORNMEAL, ENRICHED WHEAT FLOUR (BLEACHED WHEAT FLOUR, MALTED BARLEY FLOUR, NIACIN, REDUCED IRON, THIAMINE MONONITRATE, RIBOFLAVIN, FOLIC ACID), SUGAR, BAKING POWDER (BAKING SODA, CORN STARCH, SODIUM ALUMINUM SULFATE, CALCIUM SULFATE, MONOCALCIUM PHOSPHATE), SALT, ONION, RED PEPPER, BLACK PEPPER, CHILI POWDER, GARLIC, SILICON DIOXIDE (TO PREVENT CAKING)." Date available: 10/04/2017 Date last updated by company: 10/04/2017
