Source: USDA Branded Food Products Database Release December 2017 Software v.3.8.6.4 2017-10-02
Report Run at: December 19, 2017 03:40 EST
"Nutrient data for: 45190613, CRISPY THIN CRUST PIZZA, UPC: 041268199396"
Food Group:  Branded Food Products Database
Common Name:

Nutrient,Unit,Data points,Std. Error,"0.33 PIZZA = 135.0g",1Value per 100 g,
Proximates
"Energy",kcal,--,--,290,215
"Protein",g,--,--,16.00,11.85
"Total lipid (fat)",g,--,--,9.00,6.67
"Carbohydrate, by difference",g,--,--,36.00,26.67
"Fiber, total dietary",g,--,--,0.9,0.7
"Sugars, total",g,--,--,13.00,9.63
Minerals
"Calcium, Ca",mg,--,--,250,185
"Iron, Fe",mg,--,--,1.04,0.77
"Sodium, Na",mg,--,--,580,430
Vitamins
"Vitamin C, total ascorbic acid",mg,--,--,5.3,3.9
"Vitamin A, IU",IU,--,--,433,321
Lipids
"Fatty acids, total saturated",g,--,--,4.995,3.700
"Fatty acids, total trans",g,--,--,0.000,0.000
"Cholesterol",mg,--,--,35,26
Amino Acids
Other
Ingredients
"TOPPINGS: BARBEQUE SAUCE (SUGAR, WATER, TOMATO PASTE, VINEGAR, MODIFIED FOOD STARCH, SALT, WORCESTERSHIRE CONCENTRATE [DISTILLED VINEGAR, MOLASSES, CORN SYRUP, WATER, SALT, CARAMEL COLOR, GARLIC POWDER, SUGAR, SPICES, TAMARIND, NATURAL FLAVOR, SULFITING AGENT], PINEAPPLE JUICE CONCENTRATE, CARAMEL COLOR, SPICES, MOLASSES, NATURAL HICKORY SMOKE FLAVOR, GARLIC POWDER), FULLY COOKED DICED CHICKEN BREAST MEAT WITH RIB MEAT (CHICKEN BREAST MEAT WITH RIB MEAT, WATER, CHICKEN FLAVOR [DEHYDRATED CHICKEN BROTH, CHICKEN POWDER, AND NATURAL FLAVOR], CARRAGEENAN, SALT, CORN STARCH, SPICE), LOW MOISTURE PART-SKIM MOZZARELLA CHEESE (PASTEURIZED PART-SKIM MILK, CHEESE CULTURES, SALT, ENZYMES), RED ONIONS, SMOKED GOUDA CHEESE (PASTEURIZED MILK, CHEESE CULTURE, SALT, ENZYMES, ANNATTO [COLOR], NATURAL SMOKE FLAVOR), DEHYDRATED CILANTRO. CRUST: WHEAT FLOUR, WATER, SOYBEAN OIL, PALM OIL, YEAST, WHEAT PROTEIN ISOLATE (WHEAT GLUTEN, LACTIC ACID), WHITE CORN MEAL, NATURAL FLAVOR, COLORED WITH BETA CAROTENE, DEXTROSE, SALT." Date available: 07/14/2017 Date last updated by company: 07/14/2017
