Source: USDA Branded Food Products Database Release December 2017 Software v.3.8.6.4 2017-10-02
Report Run at: December 19, 2017 03:30 EST
"Nutrient data for: 45215185, CRISPY BATTERED FILLETS WHOLE FISH, UPC: 011110846822"
Food Group:  Branded Food Products Database
Common Name:

Nutrient,Unit,Data points,Std. Error,"2.0 FILLETS | ABOUT = 100.0g",1Value per 100 g,
Proximates
"Energy",kcal,--,--,280,280
"Protein",g,--,--,13.00,13.00
"Total lipid (fat)",g,--,--,8.00,8.00
"Carbohydrate, by difference",g,--,--,39.00,39.00
"Fiber, total dietary",g,--,--,1.0,1.0
"Sugars, total",g,--,--,1.00,1.00
Minerals
"Calcium, Ca",mg,--,--,0,0
"Iron, Fe",mg,--,--,2.81,2.81
"Sodium, Na",mg,--,--,500,500
Vitamins
"Vitamin C, total ascorbic acid",mg,--,--,0.0,0.0
"Vitamin A, IU",IU,--,--,195,195
Lipids
"Fatty acids, total saturated",g,--,--,1.000,1.000
"Fatty acids, total trans",g,--,--,0.000,0.000
"Cholesterol",mg,--,--,45,45
Amino Acids
Other
Ingredients
"POLLOCK (SODIUM TRIPOLYPHOSPHATE [TO RETAIN MOISTURE]). PREDUST: WHEAT FLOUR, MODIFIED CORN STARCH, CORN STARCH, PALM OIL, BATTER MIX: WATER, WHEAT FLOUR, CORN STARCH, PALM OIL, LEAVENING (SODIUM ACID PYROPHOSPHATE, SODIUM BICARBONATE), SALT, DEXTROSE." Date available: 08/17/2017 Date last updated by company: 08/17/2017
