Source: USDA Branded Food Products Database Release December 2017 Software v.3.8.6.4 2017-10-02
Report Run at: December 19, 2017 03:36 EST
"Nutrient data for: 45257335, CRISPY MOO BAR, UPC: 070622015102"
Food Group:  Branded Food Products Database
Common Name:

Nutrient,Unit,Data points,Std. Error,"1 BAR = 37.0g",1Value per 100 g,
Proximates
"Energy",kcal,--,--,152,411
"Protein",g,--,--,2.00,5.41
"Total lipid (fat)",g,--,--,4.00,10.81
"Carbohydrate, by difference",g,--,--,27.00,72.97
"Fiber, total dietary",g,--,--,0.0,0.0
"Sugars, total",g,--,--,14.00,37.84
Minerals
"Calcium, Ca",mg,--,--,0,0
"Iron, Fe",mg,--,--,0.00,0.00
"Sodium, Na",mg,--,--,100,270
Vitamins
"Vitamin C, total ascorbic acid",mg,--,--,0.0,0.0
"Vitamin A, IU",IU,--,--,0,0
Lipids
"Fatty acids, total saturated",g,--,--,1.498,4.050
"Fatty acids, total trans",g,--,--,0.000,0.000
"Cholesterol",mg,--,--,0,0
Amino Acids
Other
Ingredients
"MARSHMALLOW (CORN SYRUP, GLUCOSE-FRUCTOSE, SUGAR, WATER, GELATIN, MODIFIED CORN STARCH), CRISP RICE (RICE, SUGAR, SALT, MALT [CORN FLOUR, MALTED BARLEY], REDUCED IRON, NIACINAMIDE, THIAMIN HYDROCHLORIDE [VITAMIN B1], PYRIDOXINE HYDROCHLORIDE [VITAMIN B6], CALCIUM PANTOTHENATE, FOLIC ACID AND BHT [PRESERVATIVE]), MARGARINE (PALM OIL, WATER, SALT, VEGETABLE MONOGLYCERIDES, WHEY SOLIDS, SODIUM BENZOATE [PRESERVATIVE], NATURAL AND ARTIFICIAL FLAVOR, CITRIC ACID, BETA CAROTENE [COLOR], VITAMIN A PALMITATE ADDED), COW TALES (WHEAT FLOUR, CORN SYRUP, DEXTROSE, SUGAR, PARTIALLY HYDROGENATED SOYBEAN OIL, HIGH FRUCTOSE CORN SYRUP, MODIFIED WHEY, SKIM MILK, CREAM, MONO AND DIGLYCERIDES, SALT, SOY LECITHIN, CORN STARCH, AND ARTIFICIAL FLAVORS), WHITE DRIZZLE (SUGAR, ARTIFICIALLY HYDROGENATED PALM KERNAL OIL, NONFAT MILK POWDER, SOY LECITHIN ADDED AS AN EMULSIFIER, MONOGLYCERIDES, ARTIFICIAL COLOR [TITANIUM DIOXIDE], AND ARTIFICIAL FLAVOR), ARTIFICIAL VANILLA FLAVOR, GLYCERIN, TBHQ (PRESERVATIVE)." Date available: 07/14/2017 Date last updated by company: 07/14/2017
