Source: USDA Branded Food Products Database Release December 2017 Software v.3.8.6.4 2017-10-02
Report Run at: December 19, 2017 03:38 EST
"Nutrient data for: 45232876, CRISPY RICE BARS, UPC: 058449155126"
Food Group:  Branded Food Products Database
Common Name:

Nutrient,Unit,Data points,Std. Error,"1 BAR = 28.0g",1Value per 100 g,
Proximates
"Energy",kcal,--,--,120,429
"Protein",g,--,--,2.00,7.14
"Total lipid (fat)",g,--,--,4.50,16.07
"Carbohydrate, by difference",g,--,--,18.00,64.29
"Fiber, total dietary",g,--,--,1.0,3.6
"Sugars, total",g,--,--,6.00,21.43
Minerals
"Calcium, Ca",mg,--,--,0,0
"Iron, Fe",mg,--,--,1.41,5.05
"Sodium, Na",mg,--,--,50,179
Vitamins
"Vitamin C, total ascorbic acid",mg,--,--,0.0,0.0
"Vitamin A, IU",IU,--,--,0,0
Lipids
"Fatty acids, total saturated",g,--,--,1.000,3.570
"Fatty acids, total trans",g,--,--,0.000,0.000
"Cholesterol",mg,--,--,0,0
Amino Acids
Other
Ingredients
"BROWN RICE FLOUR*, BROWN RICE SYRUP*, HONEY*, PEANUT BUTTER*, CANE SUGAR* ROASTED PEANUTS*, INVERT CANE SYRUP*, PALM KERNEL OIL*, SOY OIL*, FAIR TRADE COCOA*, ACACIA GUM*, SEA SALT, MOLASSES*, NATURAL FLAVOR, TAPIOCA STARCH*, TOCOPHEROLS (VITAMIN E), SOY LECITHIN*." Date available: 07/14/2017 Date last updated by company: 07/14/2017
