Source: USDA Branded Food Products Database Release December 2017 Software v.3.8.6.4 2017-10-02
Report Run at: December 19, 2017 03:38 EST
"Nutrient data for: 45212650, CRISPY RICE BUNNY KIT, UPC: 844527025173"
Food Group:  Branded Food Products Database
Common Name:

Nutrient,Unit,Data points,Std. Error,"0.125 OF PACKAGE = 33.0g",1Value per 100 g,
Proximates
"Energy",kcal,--,--,120,364
"Protein",g,--,--,1.00,3.03
"Total lipid (fat)",g,--,--,1.00,3.03
"Carbohydrate, by difference",g,--,--,27.00,81.82
"Fiber, total dietary",g,--,--,0.0,0.0
"Sugars, total",g,--,--,14.00,42.42
Minerals
"Calcium, Ca",mg,--,--,0,0
"Iron, Fe",mg,--,--,1.44,4.36
"Sodium, Na",mg,--,--,85,258
Vitamins
"Vitamin C, total ascorbic acid",mg,--,--,0.0,0.0
"Vitamin A, IU",IU,--,--,0,0
Lipids
"Fatty acids, total saturated",g,--,--,0.000,0.000
"Fatty acids, total trans",g,--,--,0.000,0.000
"Cholesterol",mg,--,--,0,0
Amino Acids
Other
Ingredients
"MARSHMALLOWS: CORN SYRUP, SUGAR, FOOD STARCH-MODIFIED (CORN), DEXTROSE, WATER, GELATIN, NATURAL AND ARTIFICIAL FLAVOR, TETRASODIUM PYROPHOSPHATE. CRISPY RICE CEREAL: MILLED RICE, SUGAR, SALT, CORN AND BARLEY MALT EXTRACT. ICING PENS: SUGAR, PARTIALLY HYDROGENATED SOYBEAN AND COTTONSEED OIL, WATER, CORN SYRUP, MONO AND DIGLYCERIDES, FOOD STARCH-MODIFIED (CORN), SALT, POTASSIUM SORBATE (PRESERVATIVE), TITANIUM DIOXIDE COLOR, POLYSORBATE 60, ARTIFICIAL FLAVORS, RED 40, CITRIC ACID, BLUE 1. JELLY BEANS: SUGAR, CORN SYRUP, FOOD STARCH-MODIFIED (CORN), GUM ACACIA, CONFECTIONER'S GLAZE, NATURAL AND ARTIFICIAL FLAVOR, CARNAUBA WAX, RED 40, YELLOW 5, YELLOW 6, BLUE 1." Date available: 12/01/2016 Date last updated by company: 12/01/2016
