Source: USDA Branded Food Products Database Release December 2017 Software v.3.8.6.4 2017-10-02
Report Run at: December 19, 2017 03:32 EST
"Nutrient data for: 45207887, CRISPY CHOCOLATY HEARTS, UPC: 041376504594"
Food Group:  Branded Food Products Database
Common Name:

Nutrient,Unit,Data points,Std. Error,"7.0 PIECES = 57.0g",1Value per 100 g,
Proximates
"Energy",kcal,--,--,290,509
"Protein",g,--,--,1.00,1.75
"Total lipid (fat)",g,--,--,17.00,29.82
"Carbohydrate, by difference",g,--,--,38.00,66.67
"Fiber, total dietary",g,--,--,2.0,3.5
"Sugars, total",g,--,--,34.00,59.65
Minerals
"Calcium, Ca",mg,--,--,0,0
"Iron, Fe",mg,--,--,1.27,2.22
"Sodium, Na",mg,--,--,10,18
Vitamins
"Vitamin C, total ascorbic acid",mg,--,--,0.0,0.0
"Vitamin A, IU",IU,--,--,0,0
Lipids
"Fatty acids, total saturated",g,--,--,16.000,28.070
"Fatty acids, total trans",g,--,--,0.000,0.000
"Cholesterol",mg,--,--,0,0
Amino Acids
Other
Ingredients
"SUGAR, PARTIALLY HYDROGENATED VEGETABLE OIL (PALM KERNEL, COCONUT AND PALM), COCOA POWDER, CRISPED RICE (RICE FLOUR, SUGAR, MALT EXTRACT AND PARTIALLY HYDROGENATED VEGETABLE OIL: COTTONSEED & SOYBEAN), COCOA (PROCESSED WITH ALKALI), EMULSIFIERS (SORBITAN TRISTEARATE AND SOY LECITHIN), WHEY (MILK), VANILLIN (AN ARTIFICIAL FLAVOR)." Date available: 07/14/2017 Date last updated by company: 07/14/2017
