Source: USDA Branded Food Products Database Release December 2017 Software v.3.8.6.4 2017-10-02
Report Run at: December 19, 2017 03:31 EST
"Nutrient data for: 45319666, CRISPY BITE-SIZE SWEET POTATO PUFFS, UPC: 834183007170"
Food Group:  Branded Food Products Database
Common Name:

Nutrient,Unit,Data points,Std. Error,"0.667 CUP = 84.0g",1Value per 100 g,
Proximates
"Energy",kcal,--,--,140,167
"Protein",g,--,--,1.00,1.19
"Total lipid (fat)",g,--,--,4.50,5.36
"Carbohydrate, by difference",g,--,--,23.00,27.38
"Fiber, total dietary",g,--,--,3.0,3.6
"Sugars, total",g,--,--,9.00,10.71
Minerals
"Calcium, Ca",mg,--,--,20,24
"Iron, Fe",mg,--,--,0.73,0.87
"Potassium, K",mg,--,--,240,286
"Sodium, Na",mg,--,--,230,274
Vitamins
"Vitamin C, total ascorbic acid",mg,--,--,1.2,1.4
"Vitamin A, IU",IU,--,--,3036,3614
Lipids
"Fatty acids, total saturated",g,--,--,0.000,0.000
"Fatty acids, total monounsaturated",g,--,--,2.999,3.570
"Fatty acids, total polyunsaturated",g,--,--,1.504,1.790
"Fatty acids, total trans",g,--,--,0.000,0.000
"Cholesterol",mg,--,--,0,0
Amino Acids
Other
Ingredients
"SWEET POTATOES, CANOLA OIL, NATURAL CANE SUGAR, CORNSTARCH, RICE FLOUR, TAPIOCA STARCH, TAPIOCA DEXTRIN, SEA SALT, NATURAL FLAVOR, SPICE, SALAD MUSTARD (DISTILLED VINEGAR, MUSTARD SEED, SALT, TURMERIC, PAPRIKA), XANTHAN GUM, CITRIC ACID." Date available: 06/24/2017 Date last updated by company: 06/24/2017
