Source: USDA Branded Food Products Database Release December 2017 Software v.3.8.6.4 2017-10-02
Report Run at: December 19, 2017 03:36 EST
"Nutrient data for: 45235648, CRISPY MARSHMALLOW SQUARES, UPC: 690763032815"
Food Group:  Branded Food Products Database
Common Name:

Nutrient,Unit,Data points,Std. Error,"1 BAR, PER CONTAINER = 22.0g",1Value per 100 g,
Proximates
"Energy",kcal,--,--,82,373
"Protein",g,--,--,2.00,9.09
"Total lipid (fat)",g,--,--,2.00,9.09
"Carbohydrate, by difference",g,--,--,22.00,100.00
"Fiber, total dietary",g,--,--,1.0,4.5
"Sugars, total",g,--,--,13.00,59.09
Minerals
"Calcium, Ca",mg,--,--,0,0
"Iron, Fe",mg,--,--,1.80,8.18
"Sodium, Na",mg,--,--,100,455
Vitamins
"Vitamin C, total ascorbic acid",mg,--,--,6.0,27.3
"Thiamin",mg,--,--,0.440,2.000
"Riboflavin",mg,--,--,0.170,0.773
"Niacin",mg,--,--,5.000,22.727
"Vitamin A, IU",IU,--,--,625,2841
Lipids
"Fatty acids, total saturated",g,--,--,0.601,2.730
"Fatty acids, total trans",g,--,--,0.000,0.000
"Cholesterol",mg,--,--,0,0
Amino Acids
Other
Ingredients
"MARSHMALLOW (CORN SYRUP, GLUCOSE-FRUCTOSE, SUGAR, WATER, GELATIN, MODIFIED CORN STARCH), CRISP RICE (RICE, SUGAR, SALT, HIGH FRUCTOSE CORN SYRUP, MALT FLAVOR), MARGARINE (LIQUID AND PARTIALLY HYDROGENATED SOYBEAN OIL, WATER, NONFAT DRY MILK SOLIDS, SOY LECITHIN, VEGETABLE MONO & DIGLYCERIDES, SODIUM BENZOATE, ARTIFICIAL FLAVOR, BETA CAROTENE, VITAMIN A PALMITATE), ARTIFICIAL VANILLA FLAVOR, GLYCERIN, BUTTER FLAVOR, TBHQ." Date available: 10/09/2017 Date last updated by company: 10/09/2017
