Source: USDA Branded Food Products Database Release December 2017 Software v.3.8.6.4 2017-10-02
Report Run at: December 19, 2017 03:33 EST
"Nutrient data for: 45202557, CRISPY CRUNCHY POPCORN BAR, UPC: 843571005490"
Food Group:  Branded Food Products Database
Common Name:

Nutrient,Unit,Data points,Std. Error,"1 BAR = 22.0g",1Value per 100 g,
Proximates
"Energy",kcal,--,--,100,455
"Protein",g,--,--,1.00,4.55
"Total lipid (fat)",g,--,--,3.50,15.91
"Carbohydrate, by difference",g,--,--,17.00,77.27
"Fiber, total dietary",g,--,--,1.0,4.5
"Sugars, total",g,--,--,10.00,45.45
Minerals
"Calcium, Ca",mg,--,--,20,91
"Iron, Fe",mg,--,--,0.66,2.98
"Sodium, Na",mg,--,--,70,318
Vitamins
"Vitamin C, total ascorbic acid",mg,--,--,0.0,0.0
"Vitamin A, IU",IU,--,--,0,0
Lipids
"Fatty acids, total saturated",g,--,--,2.499,11.360
"Fatty acids, total trans",g,--,--,0.000,0.000
"Cholesterol",mg,--,--,0,0
Amino Acids
Other
Ingredients
"CANE SUGAR, PALM KERNEL OIL, WHOLE GRAIN BROWN RICE FLOUR, POPCORN, TAPIOCA SYRUP, COCOA (PROCESSED WITH ALKALI), WHOLE DRY MILK, NONFAT DRY MILK, PALM OIL, SALT, SUNFLOWER OIL, SOY LECITHIN, AND VANILLA." Date available: 07/14/2017 Date last updated by company: 07/14/2017
