Source: USDA Branded Food Products Database Release December 2017 Software v.3.8.6.4 2017-10-02
Report Run at: December 19, 2017 03:31 EST
"Nutrient data for: 45257698, CRISPY BREADED CHICKEN PATTY, UPC: 097488008420"
Food Group:  Branded Food Products Database
Common Name:

Nutrient,Unit,Data points,Std. Error,"1 SANDWICH = 232.0g",1Value per 100 g,
Proximates
"Energy",kcal,--,--,689,297
"Protein",g,--,--,36.01,15.52
"Total lipid (fat)",g,--,--,36.01,15.52
"Carbohydrate, by difference",g,--,--,55.01,23.71
"Fiber, total dietary",g,--,--,3.9,1.7
"Sugars, total",g,--,--,7.01,3.02
Minerals
"Calcium, Ca",mg,--,--,251,108
"Iron, Fe",mg,--,--,2.71,1.17
"Sodium, Na",mg,--,--,1810,780
Vitamins
"Vitamin C, total ascorbic acid",mg,--,--,0.0,0.0
"Vitamin A, IU",IU,--,--,302,130
Lipids
"Fatty acids, total saturated",g,--,--,10.997,4.740
"Fatty acids, total trans",g,--,--,0.000,0.000
"Cholesterol",mg,--,--,79,34
Amino Acids
Other
Ingredients
"FULLY BAKES CHICKEN" Date available: 08/22/2017 Date last updated by company: 08/22/2017
