Source: USDA Branded Food Products Database Release December 2017 Software v.3.8.6.4 2017-10-02
Report Run at: December 19, 2017 03:40 EST
"Nutrient data for: 45290848, CRISPY TACO TOPPERS, UPC: 041501025000"
Food Group:  Branded Food Products Database
Common Name:

Nutrient,Unit,Data points,Std. Error,"2.0 Tbsp = 7.0g",1Value per 100 g,
Proximates
"Energy",kcal,--,--,45,643
"Protein",g,--,--,1.00,14.29
"Total lipid (fat)",g,--,--,3.50,50.00
"Carbohydrate, by difference",g,--,--,2.00,28.57
Minerals
"Sodium, Na",mg,--,--,40,571
Vitamins
Lipids
"Fatty acids, total saturated",g,--,--,1.000,14.290
Amino Acids
Other
Ingredients
"ONIONS, VEGETABLE OIL (CANOLA AND PALM), WHEAT FLOUR, SOY FLOUR, SALT, DEXTROSE." Date available: 09/22/2017 Date last updated by company: 09/22/2017
