Source: USDA Branded Food Products Database Release December 2017 Software v.3.8.6.4 2017-10-02
Report Run at: December 19, 2017 03:42 EST
"Nutrient data for: 45091427, CROCK-POT, ROASTED GARLIC RED PEPPER WARM DIPS MIX, UPC: 054467040345"
Food Group:  Branded Food Products Database
Common Name:

Nutrient,Unit,Data points,Std. Error,"0.25 tsp = 1.1g",1Value per 100 g,
Proximates
"Energy",kcal,--,--,5,455
"Protein",g,--,--,0.00,0.00
"Total lipid (fat)",g,--,--,0.00,0.00
"Carbohydrate, by difference",g,--,--,1.00,90.91
"Fiber, total dietary",g,--,--,0.0,0.0
"Sugars, total",g,--,--,0.00,0.00
Minerals
"Calcium, Ca",mg,--,--,0,0
"Iron, Fe",mg,--,--,0.00,0.00
"Sodium, Na",mg,--,--,25,2273
Vitamins
"Vitamin C, total ascorbic acid",mg,--,--,545.5,49586.7
"Vitamin A, IU",IU,--,--,0,0
Lipids
"Fatty acids, total saturated",g,--,--,0.000,0.000
"Fatty acids, total trans",g,--,--,0.000,0.000
"Cholesterol",mg,--,--,0,0
Amino Acids
Other
Ingredients
"RED BELL PEPPERS, GARLIC, SALT, SUGAR, CITRIC ACID, CRUSHED RED PEPPERS, NATURAL BUTTER FLAVOR, EXTRACTIVES OF PARRIKA." Date available: 06/25/2017 Date last updated by company: 06/25/2017
