Source: USDA Branded Food Products Database Release December 2017 Software v.3.8.6.4 2017-10-02
Report Run at: December 19, 2017 03:43 EST
"Nutrient data for: 45217828, CROISSANT SANDWICH, UPC: 051933017009"
Food Group:  Branded Food Products Database
Common Name:

Nutrient,Unit,Data points,Std. Error,"1 SANDWICH = 128.0g",1Value per 100 g,
Proximates
"Energy",kcal,--,--,451,352
"Protein",g,--,--,11.00,8.59
"Total lipid (fat)",g,--,--,32.00,25.00
"Carbohydrate, by difference",g,--,--,28.01,21.88
"Fiber, total dietary",g,--,--,2.0,1.6
"Sugars, total",g,--,--,6.00,4.69
Minerals
"Calcium, Ca",mg,--,--,100,78
"Iron, Fe",mg,--,--,1.19,0.93
"Sodium, Na",mg,--,--,669,523
Vitamins
"Vitamin C, total ascorbic acid",mg,--,--,0.0,0.0
"Vitamin A, IU",IU,--,--,133,104
Lipids
"Fatty acids, total saturated",g,--,--,14.003,10.940
"Fatty acids, total trans",g,--,--,0.000,0.000
"Cholesterol",mg,--,--,105,82
Amino Acids
Other
Ingredients
"CROISSANT: ENRICHED FLOUR (WHEAT FLOUR, MALTED BARLEY FLOUR, NIACIN, REDUCED IRON, THIAMINE MONONITRATE, RIBOFLAVIN, FOLIC ACID), WATER, VEGETABLE SHORTENING (PALM OIL, SOYBEAN OIL, WATER, MONO- & DIGLYCERIDES, SODIUM BENZOATE [PRESERVATIVE]), HIGH FRUCTOSE CORN SYRUP, CONTAINS LESS THAN 2% OF: YEAST, SOY FIBER, SALT, WHEY DEXTROSE, MONO- & DIGLYCERIDES, EGGS, SUGAR, PRESERVATIVES (CALCIUM PROPIONATE, POTASSIUM SORBATE, TOCOPHEROLS, ASCORBIC ACID, CITRIC ACID), MALTODEXTRIN, NATURAL & ARTIFICIAL FLAVORS, ACACIA (GUM ARABIC), CAPRIC/CAPRYLIC TRIGLYCERIDES. COOKED SAUSAGE PATTY: PORK, WATER, CONTAINS 2% OR LESS OF: SALT, SUGAR, SODIUM PHOSPHATE, SPICE, DEXTROSE, FLAVORING, BHA, PROPYL GALLATE, CITRIC ACID, CARAMEL COLOR. COOKED EGG PATTY: WHOLE EGGS, NONFAT MILK, FOOD STARCH-MODIFIED, SALT, XANTHAN GUM, CITRIC ACID, PEPPER. PASTEURIZED PROCESS AMERICAN CHEESE: CULTURED MILK, SKIM MILK, CREAM, SODIUM CITRATE, SALT, ARTIFICIAL COLOR, SODIUM PHOSPHATE, SORBIC ACID (PRESERVATIVE), ENZYMES, SOY LECITHIN." Date available: 07/14/2017 Date last updated by company: 07/14/2017
