Source: USDA Branded Food Products Database Release December 2017 Software v.3.8.6.4 2017-10-02
Report Run at: December 19, 2017 03:44 EST
"Nutrient data for: 45231926, CROUTON STUFFING MIX, UPC: 072220002966"
Food Group:  Branded Food Products Database
Common Name:

Nutrient,Unit,Data points,Std. Error,"1 cup = 28.0g",1Value per 100 g,
Proximates
"Energy",kcal,--,--,110,393
"Protein",g,--,--,4.00,14.29
"Total lipid (fat)",g,--,--,1.00,3.57
"Carbohydrate, by difference",g,--,--,21.00,75.00
"Fiber, total dietary",g,--,--,1.0,3.6
"Sugars, total",g,--,--,1.00,3.57
Minerals
"Calcium, Ca",mg,--,--,40,143
"Iron, Fe",mg,--,--,5.14,18.37
"Sodium, Na",mg,--,--,220,786
Vitamins
"Vitamin C, total ascorbic acid",mg,--,--,0.0,0.0
"Thiamin",mg,--,--,1.120,4.000
"Riboflavin",mg,--,--,0.170,0.607
"Niacin",mg,--,--,7.142,25.507
"Vitamin A, IU",IU,--,--,0,0
Lipids
"Fatty acids, total saturated",g,--,--,0.000,0.000
"Fatty acids, total monounsaturated",g,--,--,0.000,0.000
"Fatty acids, total polyunsaturated",g,--,--,0.000,0.000
"Fatty acids, total trans",g,--,--,0.000,0.000
"Cholesterol",mg,--,--,0,0
Amino Acids
Other
Ingredients
"ENRICHED UNBLEACHED WHEAT FLOUR (WHEAT FLOUR, MALTED BARLEY FLOUR, NIACIN, REDUCED IRON, THIAMIN MONONITRATE, RIBOFLAVIN AND FOLIC ACID), WATER, YEAST, CONTAINS 2% OR LESS OF THE FOLLOWING: HIGH FRUCTOSE CORN SYRUP, SALT, PALM OIL, DISTILLED VINEGAR, YEAST NUTRIENT (AMMONIUM SULFATE), DOUGH CONDITIONERS (SODIUM STEAROYL LACTYLATE, ASCORBIC ACID, MONOCALCIUM PHOSPHATE), CALCIUM PROPIONATE (MOLD INHIBITOR), CALCIUM SULFATE, ENZYMES, NONFAT DRY MILK, SOY FLOUR., SPICE PACKET: SAGE, SAVORY, THYME, BLACK PEPPER." Date available: 07/14/2017 Date last updated by company: 07/14/2017
