Source: USDA Branded Food Products Database Release December 2017 Software v.3.8.6.4 2017-10-02
Report Run at: December 19, 2017 03:45 EST
"Nutrient data for: 45317511, CROWNING, PURE APPLE CIDER VINEGAR, UPC: 074680005556"
Food Group:  Branded Food Products Database
Common Name:

Nutrient,Unit,Data points,Std. Error,"1 Tbsp = 15.0g",1Value per 100 g,
Proximates
"Energy",kcal,--,--,0,0
"Protein",g,--,--,0.00,0.00
"Total lipid (fat)",g,--,--,0.00,0.00
"Carbohydrate, by difference",g,--,--,0.00,0.00
Minerals
"Sodium, Na",mg,--,--,0,0
Vitamins
Lipids
"Fatty acids, total trans",g,--,--,0.000,0.000
Amino Acids
Other
Ingredients
"PURE VINEGAR MADE FROM APPLES AND FILTERED WATER." Date available: 07/14/2017 Date last updated by company: 07/14/2017
