Source: USDA Branded Food Products Database Release December 2017 Software v.3.8.6.4 2017-10-02
Report Run at: December 19, 2017 03:45 EST
"Nutrient data for: 45090176, CROWN BRAND, CORNED BEEF WITH NATURAL JUICES, UPC: 842552000035"
Food Group:  Branded Food Products Database
Common Name:

Nutrient,Unit,Data points,Std. Error,"2.0 ONZ = 56.0g",1Value per 100 g,
Proximates
"Energy",kcal,--,--,140,250
"Protein",g,--,--,12.00,21.43
"Total lipid (fat)",g,--,--,10.00,17.86
"Carbohydrate, by difference",g,--,--,0.00,0.00
"Fiber, total dietary",g,--,--,0.0,0.0
"Sugars, total",g,--,--,0.00,0.00
Minerals
"Iron, Fe",mg,--,--,1.06,1.89
"Sodium, Na",mg,--,--,360,643
Vitamins
Lipids
"Fatty acids, total saturated",g,--,--,5.001,8.930
"Cholesterol",mg,--,--,43,77
Amino Acids
Other
Ingredients
"BEEF, SALT, SODIUM NITRITE." Date available: 06/25/2017 Date last updated by company: 06/25/2017
