Source: USDA Branded Food Products Database Release December 2017 Software v.3.8.6.4 2017-10-02
Report Run at: December 19, 2017 04:01 EST
"Nutrient data for: 45211161, CRUNCHY GRANOLA, UPC: 859475003067"
Food Group:  Branded Food Products Database
Common Name:

Nutrient,Unit,Data points,Std. Error,"0.25 cup = 20.0g",1Value per 100 g,
Proximates
"Energy",kcal,--,--,90,450
"Protein",g,--,--,2.00,10.00
"Total lipid (fat)",g,--,--,3.50,17.50
"Carbohydrate, by difference",g,--,--,12.00,60.00
"Fiber, total dietary",g,--,--,2.0,10.0
"Sugars, total",g,--,--,4.00,20.00
Minerals
"Calcium, Ca",mg,--,--,0,0
"Iron, Fe",mg,--,--,3.96,19.80
"Sodium, Na",mg,--,--,60,300
Vitamins
"Vitamin C, total ascorbic acid",mg,--,--,16.5,82.5
"Vitamin A, IU",IU,--,--,275,1375
Lipids
"Fatty acids, total saturated",g,--,--,1.000,5.000
"Fatty acids, total trans",g,--,--,0.000,0.000
"Cholesterol",mg,--,--,0,0
Amino Acids
Other
Ingredients
"GLUTEN FREE BABY ROLLED OATS, CORN FLAKES (ORGANIC CORN MEAL, ORGANIC GRAPE AND/OR PEAR JUICE CONCENTRATE, SEA SALT), CASHEWS, DRIED PAPAYA (UNSULFURED), DRIED PINEAPPLE (UNSULFURED), ORGANIC SHREDDED COCONUT (UNSWEETENED), GLUTEN FREE OAT BRAN, SUNFLOWER SEED, FLAXSEED MEAL, AMARANTH FLOUR, PUFFED MILLET, BLUE AGAVE SYRUP, NON-GMO CANOLA OIL, BUTTER, FRESH LIME JUICE, CINNAMON, SEA SALT." Date available: 07/14/2017 Date last updated by company: 07/14/2017
