Source: USDA Branded Food Products Database Release December 2017 Software v.3.8.6.4 2017-10-02
Report Run at: December 19, 2017 03:48 EST
"Nutrient data for: 45233449, CRUNCH DANISH, UPC: 045084229534"
Food Group:  Branded Food Products Database
Common Name:

Nutrient,Unit,Data points,Std. Error,"0.125 CAKE, PER CONTAINER ABOUT = 50.0g",1Value per 100 g,
Proximates
"Energy",kcal,--,--,160,320
"Protein",g,--,--,3.00,6.00
"Total lipid (fat)",g,--,--,7.00,14.00
"Carbohydrate, by difference",g,--,--,23.00,46.00
"Fiber, total dietary",g,--,--,1.0,2.0
"Sugars, total",g,--,--,10.00,20.00
Minerals
"Calcium, Ca",mg,--,--,20,40
"Iron, Fe",mg,--,--,1.19,2.38
"Sodium, Na",mg,--,--,200,400
Vitamins
"Vitamin C, total ascorbic acid",mg,--,--,0.0,0.0
"Vitamin A, IU",IU,--,--,330,660
Lipids
"Fatty acids, total saturated",g,--,--,3.000,6.000
"Fatty acids, total trans",g,--,--,0.000,0.000
"Cholesterol",mg,--,--,15,30
Amino Acids
Other
Ingredients
"ENRICHED WHEAT FLOUR (WHEAT FLOUR, NIACIN, REDUCED IRON, THIAMINE MONONITRATE, RIBOFLAVIN AND FOLIC ACID), MARGARINE (PALM OIL, SOYBEAN OIL, WATER, SALT, VEGETABLE MONOGLYCERIDES, SOY LECITHIN, SODIUM BENZOATE AND CITRIC ACID (PRESERVATIVES), ARTIFICIAL FLAVOR, BETA CAROTENE (COLOR), VITAMIN A PALMITATE ADDED), BERRY FILLING (WATER, RASPBERRIES, BLUEBERRIES, SUGAR, HIGH FRUCTOSE CORN SYRUP, BLACKBERRIES, MODIFIED FOOD STARCH, GELLAN GUM, SODIUM BENZOATE AND POTASSIUM SORBATE (USED AS PRESERVATIVES), CITRIC ACID AND NATURAL FLAVOR), GRANOLA [WHOLE OATS, WHOLE GRAIN WHEAT, SUGAR, CORN SYRUP, RICE, ALMONDS, MOLASSES, MODIFIED CORN STARCH, HIGH FRUCTOSE CORN SYRUP, PALM OIL, SALT, CINNAMON, NONFAT DRY MILK, NATURAL AND ARTIFICIAL FLAVOR, POLYGLYCEROL, ESTERS, MALT FLAVOR, NIACINAMIDE, ZINC OXIDE, ASCORBIC ACID (VITAMIN C), PYRIDOXINE HYDROCHLORIDE (VITAMIN B6), REDUCED IRON, GUAR GUM, BHT (PRESERVATIVE), RIBOFLAVIN (VITAMIN B2), VITAMIN A PALMITATE, FOLIC ACID, THIAMIN HYDROCHLORIDE (VITAMIN B1), VITAMIN B12 AND VITAMIN D], WATER, WHOLE EGGS, POWDERED SUGAR (SUGAR, CORN STARCH), HIGH FRUCTOSE CORN SYRUP, EMULSIFIER (WATER AND MONOGLYCERIDES WITH PROPIONIC ACID AND PHOSPHORIC ACID (ADDED AS PRESERVATIVES), SUGAR, CONTAINS 2% OR LESS OF EACH OF THE FOLLOWING: CORN SYRUP, YEAST, SALT, PALM OIL WITH SOYA LECITHIN, MICROCRYSTALLINE CELLULOSE, TAPIOCA DEXTRIN, SODIUM STEAROYL LACTYLATE, SOYBEAN OIL, BAKING POWDER, SODIUM ACID PYROPHOSPHATE, SODIUM BICARBONATE, CORN STARCH, MONOCALCIUM PHOSPHATE, CASEIN (MILK), ARTIFICIAL FLAVORS CINNAMON, NON-FAT DRY MILK AND WHEY SOLIDS, AGAR FOOD STARCH-MODIFIED DEXTROSE, EGG WHITES, ARTIFICIAL COLORS), SODIUM BICARBONATE, ASCORBIC ACID, POTASSIUM SORBATE AND CALCIUM PROPIONATE (PRESERVATIVES)." Date available: 06/25/2017 Date last updated by company: 06/25/2017
