Source: USDA Branded Food Products Database Release December 2017 Software v.3.8.6.4 2017-10-02
Report Run at: December 19, 2017 03:58 EST
"Nutrient data for: 45316400, CRUNCHY CHICKPEAS, UPC: 856651002135"
Food Group:  Branded Food Products Database
Common Name:

Nutrient,Unit,Data points,Std. Error,"1 ONZ = 28.0g",1Value per 100 g,
Proximates
"Energy",kcal,--,--,120,429
"Protein",g,--,--,6.00,21.43
"Total lipid (fat)",g,--,--,3.00,10.71
"Carbohydrate, by difference",g,--,--,18.00,64.29
"Fiber, total dietary",g,--,--,5.0,17.9
"Sugars, total",g,--,--,2.00,7.14
Minerals
"Calcium, Ca",mg,--,--,0,0
"Iron, Fe",mg,--,--,2.57,9.19
"Sodium, Na",mg,--,--,95,339
Vitamins
"Vitamin C, total ascorbic acid",mg,--,--,0.0,0.0
"Vitamin A, IU",IU,--,--,0,0
Lipids
"Fatty acids, total saturated",g,--,--,0.000,0.000
"Fatty acids, total trans",g,--,--,0.000,0.000
"Cholesterol",mg,--,--,0,0
Amino Acids
Other
Ingredients
"ROASTED CHICKPEAS, EXPELLER-PRESSED SAFFLOWER OR SUNFLOWER OIL, COARSE SALT, CANE SUGAR, CITRIC ACID, SPICES, BLACK PEPPER, PAPRIKA, CAYENNE PEPPER, NATURAL SMOKE POWDER, NATURAL FLAVORS, NATURAL VITAMIN E." Date available: 07/14/2017 Date last updated by company: 07/14/2017
