Source: USDA Branded Food Products Database Release December 2017 Software v.3.8.6.4 2017-10-02
Report Run at: December 19, 2017 03:56 EST
"Nutrient data for: 45134750, CRUNCH N MUNCH Caramel Popcorn, UNPREPARED, GTIN: 00064144106318"
Food Group:  Branded Food Products Database
Common Name:

Nutrient,Unit,Data points,Std. Error,"0.667 cup (31g) = 31.0g",1Value per 100 g,
Proximates
"Energy",kcal,--,--,160,516
"Protein",g,--,--,2.00,6.45
"Total lipid (fat)",g,--,--,7.00,22.58
"Carbohydrate, by difference",g,--,--,22.00,70.97
"Fiber, total dietary",g,--,--,1.0,3.2
"Sugars, total",g,--,--,12.00,38.71
Minerals
"Calcium, Ca",mg,--,--,0,0
"Iron, Fe",mg,--,--,0.00,0.00
"Potassium, K",mg,--,--,50,161
"Sodium, Na",mg,--,--,100,323
Vitamins
"Vitamin C, total ascorbic acid",mg,--,--,0.0,0.0
"Vitamin A, IU",IU,--,--,0,0
Lipids
"Fatty acids, total saturated",g,--,--,2.000,6.450
"Fatty acids, total monounsaturated",g,--,--,3.001,9.680
"Fatty acids, total polyunsaturated",g,--,--,1.001,3.230
"Fatty acids, total trans",g,--,--,0.000,0.000
"Cholesterol",mg,--,--,5,16
Amino Acids
Other
Ingredients
"Corn Syrup, Sugar, Popcorn, Peanuts, Butter, Canola Oil, Less than 2% of: Soybean Oil, Soy Lecithin, Salt, Sodium Bicarbonate, Citric Acid and TBHQ (for freshness). CONTAINS: MILK, PEANUTS, SOY. MAY CONTAIN: TREE NUTS (ALMONDS, CASHEWS, PECANS, WALNUTS)." Date available: 10/24/2017 Date last updated by company: 10/24/2017
