Source: USDA Branded Food Products Database Release December 2017 Software v.3.8.6.4 2017-10-02
Report Run at: December 19, 2017 03:48 EST
"Nutrient data for: 45110854, CRUNCH BAR ICE CREAM, UPC: 070640006588"
Food Group:  Branded Food Products Database
Common Name:

Nutrient,Unit,Data points,Std. Error,"1 BAR = 45.0g",1Value per 100 g,
Proximates
"Energy",kcal,--,--,130,289
"Protein",g,--,--,1.00,2.22
"Total lipid (fat)",g,--,--,8.00,17.78
"Carbohydrate, by difference",g,--,--,13.00,28.89
"Fiber, total dietary",g,--,--,0.0,0.0
"Sugars, total",g,--,--,10.00,22.22
Minerals
"Calcium, Ca",mg,--,--,60,133
"Iron, Fe",mg,--,--,0.00,0.00
"Potassium, K",mg,--,--,70,156
"Sodium, Na",mg,--,--,25,56
Vitamins
"Vitamin C, total ascorbic acid",mg,--,--,0.0,0.0
"Vitamin A, IU",IU,--,--,100,222
Lipids
"Fatty acids, total saturated",g,--,--,7.002,15.560
"Fatty acids, total trans",g,--,--,0.000,0.000
"Cholesterol",mg,--,--,5,11
Amino Acids
Other
Ingredients
"REDUCED FAT ICE CREAM (MILK, CORN SYRUP, SUGAR, SKIM MILK, BUTTERMILK, CREAM, WHEY, CONTAINS 2% OR LESS OF MALTODEXTRIN, MONO & DIGLYCERIDES, CAROB BEAN GUM, CELLULOSE GUM, CARRAGEENAN, VANILLA EXTRACT, ARTIFICIAL FLAVOR, ANNATTO FOR COLOR, VITAMIN A PALMITATE), COATING (COCONUT OIL, SUGAR, MILK, CHOCOLATE LIQUOR, COCOA, COCOA PROCESSED WITH ALKALI, RICE, COCOA BUTTER, SOY LECITHIN, SALT, ARTIFICIAL FLAVOR)." Date available: 07/14/2017 Date last updated by company: 07/14/2017
