Source: USDA Branded Food Products Database Release December 2017 Software v.3.8.6.4 2017-10-02
Report Run at: December 19, 2017 04:00 EST
"Nutrient data for: 45292280, CRUNCHY FRUIT FLAVORED SNACKS, UPC: 015400874151"
Food Group:  Branded Food Products Database
Common Name:

Nutrient,Unit,Data points,Std. Error,"1 POUCH = 22.7g",1Value per 100 g,
Proximates
"Energy",kcal,--,--,80,352
"Protein",g,--,--,1.00,4.41
"Total lipid (fat)",g,--,--,0.00,0.00
"Carbohydrate, by difference",g,--,--,20.00,88.11
"Fiber, total dietary",g,--,--,0.0,0.0
"Sugars, total",g,--,--,18.00,79.30
Minerals
"Calcium, Ca",mg,--,--,0,0
"Iron, Fe",mg,--,--,0.00,0.00
"Sodium, Na",mg,--,--,10,44
Vitamins
"Vitamin C, total ascorbic acid",mg,--,--,132.2,582.2
"Vitamin A, IU",IU,--,--,0,0
Lipids
"Fatty acids, total saturated",g,--,--,0.000,0.000
"Fatty acids, total trans",g,--,--,0.000,0.000
"Cholesterol",mg,--,--,0,0
Amino Acids
Other
Ingredients
"DEXTROSE, APPLE JUICE FROM CONCENTRATE, SUGAR, CORN SYRUP, MODIFIED CORNSTARCH, GELATIN, APPLE FLAKE, NATURAL & ARTIFICIAL FLAVORS, CITRIC ACID, ASCORBIC ACID (VITAMIN C), MALIC ACID, TITANIUM DIOXIDE (FOR COLOR), SODIUM CITRATE, DEXTRIN, MALTODEXTRIN, CARNAUBA WAX, BEESWAX, ARTIFICIAL COLORS INCLUDING (RED 40 LAKE, YELLOW 5 LAKE, BLUE 1 LAKE, RED 40, BLUE 1, YELLOW 5, RED 3)." Date available: 07/14/2017 Date last updated by company: 07/14/2017
