Source: USDA Branded Food Products Database Release December 2017 Software v.3.8.6.4 2017-10-02
Report Run at: December 19, 2017 04:11 EST
"Nutrient data for: 45051286, CRUSHED TOMATOES, UPC: 051933102040"
Food Group:  Branded Food Products Database
Common Name:

Nutrient,Unit,Data points,Std. Error,"0.25 cup = 61.0g",1Value per 100 g,
Proximates
"Energy",kcal,--,--,20,33
"Protein",g,--,--,1.00,1.64
"Total lipid (fat)",g,--,--,0.00,0.00
"Carbohydrate, by difference",g,--,--,5.00,8.20
"Fiber, total dietary",g,--,--,1.0,1.6
"Sugars, total",g,--,--,2.00,3.28
Minerals
"Calcium, Ca",mg,--,--,0,0
"Iron, Fe",mg,--,--,0.77,1.26
"Sodium, Na",mg,--,--,120,197
Vitamins
"Vitamin C, total ascorbic acid",mg,--,--,12.8,21.0
"Vitamin A, IU",IU,--,--,639,1048
Lipids
"Fatty acids, total saturated",g,--,--,0.000,0.000
"Fatty acids, total trans",g,--,--,0.000,0.000
"Cholesterol",mg,--,--,0,0
Amino Acids
Other
Ingredients
"INGREDIENTS: TOMATO PUREE (WATER, CONCENTRATED CRUSHED TOMATOES), SALT, CITRIC ACID" Date available: 06/25/2017 Date last updated by company: 06/25/2017
