Source: USDA Branded Food Products Database Release December 2017 Software v.3.8.6.4 2017-10-02
Report Run at: December 19, 2017 04:08 EST
"Nutrient data for: 45170370, CRUSHED CALABRIAN CHILI PEPPERS, UPC: 8004694173158"
Food Group:  Branded Food Products Database
Common Name:

Nutrient,Unit,Data points,Std. Error,"1 Tbsp = 10.0g",1Value per 100 g,
Proximates
"Energy",kcal,--,--,25,250
"Protein",g,--,--,0.00,0.00
"Total lipid (fat)",g,--,--,2.00,20.00
"Carbohydrate, by difference",g,--,--,1.00,10.00
"Fiber, total dietary",g,--,--,0.0,0.0
"Sugars, total",g,--,--,0.00,0.00
Minerals
"Calcium, Ca",mg,--,--,0,0
"Iron, Fe",mg,--,--,0.00,0.00
"Sodium, Na",mg,--,--,23,230
Vitamins
"Vitamin C, total ascorbic acid",mg,--,--,2.0,20.0
"Vitamin A, IU",IU,--,--,45,450
Lipids
"Fatty acids, total saturated",g,--,--,0.000,0.000
"Fatty acids, total trans",g,--,--,0.000,0.000
"Cholesterol",mg,--,--,0,0
Amino Acids
Other
Ingredients
"INGREDIENTS: CALABRIAN HOT CHILI PEPPERS, SUNFLOWER SEED OIL, EXTRA VIRGIN OLIVE OIL, VINEGAR, SALT, NATURAL HERBS" Date available: 10/13/2017 Date last updated by company: 10/13/2017
