Source: USDA Branded Food Products Database Release December 2017 Software v.3.8.6.4 2017-10-02
Report Run at: December 19, 2017 04:10 EST
"Nutrient data for: 45059230, CRUSHED TOMATOES, UPC: 070796300035"
Food Group:  Branded Food Products Database
Common Name:

Nutrient,Unit,Data points,Std. Error,"0.25 cup = 63.0g",1Value per 100 g,
Proximates
"Energy",kcal,--,--,35,56
"Protein",g,--,--,2.00,3.17
"Total lipid (fat)",g,--,--,0.00,0.00
"Carbohydrate, by difference",g,--,--,7.00,11.11
"Fiber, total dietary",g,--,--,2.0,3.2
"Sugars, total",g,--,--,4.00,6.35
Minerals
"Calcium, Ca",mg,--,--,0,0
"Iron, Fe",mg,--,--,2.23,3.54
"Potassium, K",mg,--,--,180,286
"Sodium, Na",mg,--,--,20,32
Vitamins
"Vitamin C, total ascorbic acid",mg,--,--,7.4,11.8
"Vitamin A, IU",IU,--,--,825,1310
Lipids
"Fatty acids, total saturated",g,--,--,0.000,0.000
"Fatty acids, total trans",g,--,--,0.000,0.000
"Cholesterol",mg,--,--,0,0
Amino Acids
Other
Ingredients
"VINE RIPENED TOMATOES." Date available: 06/24/2017 Date last updated by company: 06/24/2017
