Source: USDA Branded Food Products Database Release December 2017 Software v.3.8.6.4 2017-10-02
Report Run at: December 19, 2017 04:11 EST
"Nutrient data for: 45195758, CRUSHED TOMATOES, UPC: 041188130509"
Food Group:  Branded Food Products Database
Common Name:

Nutrient,Unit,Data points,Std. Error,"0.5 cup = 120.0g",1Value per 100 g,
Proximates
"Energy",kcal,--,--,30,25
"Protein",g,--,--,2.00,1.67
"Total lipid (fat)",g,--,--,0.00,0.00
"Carbohydrate, by difference",g,--,--,7.00,5.83
"Fiber, total dietary",g,--,--,2.0,1.7
"Sugars, total",g,--,--,5.00,4.17
Minerals
"Calcium, Ca",mg,--,--,20,17
"Iron, Fe",mg,--,--,1.16,0.97
"Sodium, Na",mg,--,--,140,117
Vitamins
"Vitamin C, total ascorbic acid",mg,--,--,9.7,8.1
"Vitamin A, IU",IU,--,--,541,451
Lipids
"Fatty acids, total saturated",g,--,--,0.000,0.000
"Fatty acids, total trans",g,--,--,0.000,0.000
"Cholesterol",mg,--,--,0,0
Amino Acids
Other
Ingredients
"CRUSHED TOMATOES, SEA SALT, CITRIC ACID, BASIL LEAF, AND OREGANO." Date available: 07/14/2017 Date last updated by company: 07/14/2017
