Source: USDA Branded Food Products Database Release December 2017 Software v.3.8.6.4 2017-10-02
Report Run at: December 19, 2017 04:09 EST
"Nutrient data for: 45035535, CRUSHED PINEAPPLE, UPC: 072810630227"
Food Group:  Branded Food Products Database
Common Name:

Nutrient,Unit,Data points,Std. Error,"0.5 cup = 133.0g",1Value per 100 g,
Proximates
"Energy",kcal,--,--,80,60
"Protein",g,--,--,1.00,0.75
"Total lipid (fat)",g,--,--,0.00,0.00
"Carbohydrate, by difference",g,--,--,21.00,15.79
"Fiber, total dietary",g,--,--,2.0,1.5
"Sugars, total",g,--,--,19.01,14.29
Minerals
"Calcium, Ca",mg,--,--,20,15
"Iron, Fe",mg,--,--,0.76,0.57
"Sodium, Na",mg,--,--,11,8
Vitamins
"Vitamin C, total ascorbic acid",mg,--,--,12.6,9.5
"Vitamin A, IU",IU,--,--,210,158
Lipids
Amino Acids
Other
Ingredients
"CRUSHED PINEAPPLE AND FRESH PINEAPPLE JUICE." Date available: 10/04/2017 Date last updated by company: 10/04/2017
