Source: USDA Branded Food Products Database Release December 2017 Software v.3.8.6.4 2017-10-02
Report Run at: December 19, 2017 04:09 EST
"Nutrient data for: 45296582, CRUSHED PINEAPPLE, UPC: 041220813698"
Food Group:  Branded Food Products Database
Common Name:

Nutrient,Unit,Data points,Std. Error,"0.5 cup = 129.0g",1Value per 100 g,
Proximates
"Energy",kcal,--,--,70,54
"Protein",g,--,--,1.01,0.78
"Total lipid (fat)",g,--,--,0.00,0.00
"Carbohydrate, by difference",g,--,--,20.00,15.50
"Fiber, total dietary",g,--,--,2.1,1.6
"Sugars, total",g,--,--,18.00,13.95
Minerals
"Calcium, Ca",mg,--,--,21,16
"Iron, Fe",mg,--,--,0.79,0.61
"Sodium, Na",mg,--,--,10,8
Vitamins
"Vitamin C, total ascorbic acid",mg,--,--,13.0,10.1
"Vitamin A, IU",IU,--,--,217,168
Lipids
"Fatty acids, total saturated",g,--,--,0.000,0.000
"Fatty acids, total trans",g,--,--,0.000,0.000
"Cholesterol",mg,--,--,0,0
Amino Acids
Other
Ingredients
"PINEAPPLE, PINEAPPLE JUICE." Date available: 07/14/2017 Date last updated by company: 07/14/2017
