Source: USDA Branded Food Products Database Release December 2017 Software v.3.8.6.4 2017-10-02
Report Run at: December 19, 2017 04:20 EST
"Nutrient data for: 45213701, CRYSTALLIZED GINGER, UPC: 030684700514"
Food Group:  Branded Food Products Database
Common Name:

Nutrient,Unit,Data points,Std. Error,"0.25 cup = 30.0g",1Value per 100 g,
Proximates
"Energy",kcal,--,--,105,350
"Protein",g,--,--,0.00,0.00
"Total lipid (fat)",g,--,--,0.00,0.00
"Carbohydrate, by difference",g,--,--,26.00,86.67
"Fiber, total dietary",g,--,--,1.0,3.3
"Sugars, total",g,--,--,20.00,66.67
Minerals
"Calcium, Ca",mg,--,--,30,100
"Iron, Fe",mg,--,--,0.60,2.00
"Sodium, Na",mg,--,--,42,140
Vitamins
"Vitamin C, total ascorbic acid",mg,--,--,0.0,0.0
"Vitamin A, IU",IU,--,--,0,0
Lipids
"Fatty acids, total saturated",g,--,--,0.000,0.000
"Fatty acids, total trans",g,--,--,0.000,0.000
"Cholesterol",mg,--,--,0,0
Amino Acids
Other
Ingredients
"GINGER, SUGAR AND SULPHUR DIOXIDE." Date available: 07/14/2017 Date last updated by company: 07/14/2017
