Source: USDA Branded Food Products Database Release December 2017 Software v.3.8.6.4 2017-10-02
Report Run at: December 19, 2017 04:19 EST
"Nutrient data for: 45140333, CRYSTAL LIGHT, DRINK MIX, RASPBERRY ICE, UPC: 043000950289"
Food Group:  Branded Food Products Database
Common Name:

Nutrient,Unit,Data points,Std. Error,"0.125 PACKET = 0.9g",1Value per 100 g,
Proximates
"Energy",kcal,--,--,5,556
"Protein",g,--,--,0.00,0.00
"Total lipid (fat)",g,--,--,0.00,0.00
"Carbohydrate, by difference",g,--,--,0.00,0.00
"Sugars, total",g,--,--,0.00,0.00
Minerals
"Sodium, Na",mg,--,--,5,556
Vitamins
Lipids
Amino Acids
Other
Ingredients
"MALTODEXTRIN, CITRIC ACID, MALIC ACID, ASPARTAME, RED 40, CONTAINS LESS THAN 2% OF NATURAL AND ARTIFICIAL FLAVOR, SODIUM CITRATE, CALCIUM PHOSPHATE, ACESULFAME POTASSIUM, BLUE 1." Date available: 09/23/2016 Date last updated by company: 09/23/2016
