Source: USDA Branded Food Products Database Release December 2017 Software v.3.8.6.4 2017-10-02
Report Run at: December 19, 2017 04:21 EST
"Nutrient data for: 45321381, CSCDN FARM ORG GRAN MAPLE BROWN SGR, UNPREPARED, GTIN: 00021908743325"
Food Group:  Branded Food Products Database
Common Name:

Nutrient,Unit,Data points,Std. Error,"0.667 cup (57g) = 57.0g",1Value per 100 g,
Proximates
"Energy",kcal,--,--,230,404
"Protein",g,--,--,5.00,8.77
"Total lipid (fat)",g,--,--,5.00,8.77
"Carbohydrate, by difference",g,--,--,44.00,77.19
"Fiber, total dietary",g,--,--,3.0,5.3
"Sugars, total",g,--,--,13.00,22.81
Minerals
"Calcium, Ca",mg,--,--,20,35
"Iron, Fe",mg,--,--,1.44,2.53
"Sodium, Na",mg,--,--,60,105
Vitamins
"Vitamin C, total ascorbic acid",mg,--,--,0.0,0.0
"Vitamin A, IU",IU,--,--,0,0
Lipids
"Fatty acids, total saturated",g,--,--,0.998,1.750
"Fatty acids, total trans",g,--,--,0.000,0.000
"Cholesterol",mg,--,--,0,0
Amino Acids
Other
Ingredients
"WHOLE GRAIN OATS*, CANE SUGAR*?, RICE*, SUNFLOWER OIL*, MAPLE SYRUP*, MOLASSES*, SEA SALT, NATURAL FLAVOR. VITAMIN E (MIXED TOCOPHEROLS) ADDED TO PRESERVE FRESHNESS.*ORGANIC" Date available: 10/10/2017 Date last updated by company: 10/06/2017
