Source: USDA Branded Food Products Database Release December 2017 Software v.3.8.6.4 2017-10-02
Report Run at: December 19, 2017 04:22 EST
"Nutrient data for: 45283357, CUBAN STYLE SANDWICH, UPC: 078742052120"
Food Group:  Branded Food Products Database
Common Name:

Nutrient,Unit,Data points,Std. Error,"1 SANDWICH = 154.0g",1Value per 100 g,
Proximates
"Energy",kcal,--,--,320,208
"Protein",g,--,--,17.00,11.04
"Total lipid (fat)",g,--,--,7.99,5.19
"Carbohydrate, by difference",g,--,--,46.00,29.87
"Fiber, total dietary",g,--,--,2.0,1.3
"Sugars, total",g,--,--,3.00,1.95
Minerals
"Calcium, Ca",mg,--,--,149,97
"Iron, Fe",mg,--,--,0.60,0.39
"Potassium, K",mg,--,--,500,325
"Sodium, Na",mg,--,--,1060,688
Vitamins
"Vitamin C, total ascorbic acid",mg,--,--,0.0,0.0
"Vitamin A, IU",IU,--,--,111,72
Lipids
"Fatty acids, total saturated",g,--,--,3.496,2.270
"Fatty acids, total monounsaturated",g,--,--,2.495,1.620
"Fatty acids, total polyunsaturated",g,--,--,1.494,0.970
"Fatty acids, total trans",g,--,--,0.000,0.000
"Cholesterol",mg,--,--,29,19
Amino Acids
Other
Ingredients
"ROLL: UNBLEACHED FLOUR (WHEAT, MALTED BARLEY), WATER, SALT, CONTAINS 2% OR LESS OF: YEAST, SOYBEAN OIL, SUGAR, CORNSTARCH, WHEAT GLUTEN, SOY FLOUR, CALCIUM STEAROYL LACTYLATE, L-CYSTEINE, ASCORBIC ACID, ENZYMES, CALCIUM SULFATE, DATEM, MONOCALCIUM PHOSPHATE, AMMONIUM CHLORIDE, ADA, CALCIUM PEROXIDE, CALCIUM PROPIONATE (PRESERVATIVE). FULLY COOKED ROAST PORK, CARAMEL COLOR ADDED: PORK, WATER, CONTAINS 2% OR LESS OF: POTASSIUM LACTATE, FOOD STARCH - MODIFIED, SALT, SUGAR, GARLIC POWDER, ONION POWDER, DEHYDRATED ONION, DEHYDRATED CILANTRO, NATURAL AND ARTIFICIAL FLAVOR, SODIUM PHOSPHATE, SODIUM DIACETATE. PASTEURIZED PROCESS SWISS CHEESE PRODUCT: CULTURED MILK AND SKIM MILK, WHEY, SALT, SODIUM CITRATE, FOOD STARCH - MODIFIED, SODIUM PHOSPHATE, SORBIC ACID (PRESERVATIVE), LACTIC ACID, ENZYMES, SOY LECITHIN. PICKLE SLICES: CUCUMBERS, VINEGAR, SALT, SPICES, GARLIC, CALCIUM CHLORIDE, POTASSIUM SORBATE (PRESERVATIVE), YELLOW 5, POLYSORBATE 80. YELLOW MUSTARD: DISTILLED VINEGAR, WATER, NO. 1 GRADE MUSTARD SEED, SALT, TURMERIC, PAPRIKA, SPICES, NATURAL FLAVOR, GARLIC POWDER." Date available: 07/14/2017 Date last updated by company: 07/14/2017
