Source: USDA Branded Food Products Database Release December 2017 Software v.3.8.6.4 2017-10-02
Report Run at: December 19, 2017 04:23 EST
"Nutrient data for: 45206170, CUCINA AURORA, INFUSED OLIVE OIL, SUN-DRIED TOMATO BASIL LOVE AND MONEY ENERGY, UPC: 858687004084"
Food Group:  Branded Food Products Database
Common Name:

Nutrient,Unit,Data points,Std. Error,"2.0 Tbsp = 28.0g",1Value per 100 g,
Proximates
"Energy",kcal,--,--,240,857
"Protein",g,--,--,0.00,0.00
"Total lipid (fat)",g,--,--,28.00,100.00
"Carbohydrate, by difference",g,--,--,1.00,3.57
"Fiber, total dietary",g,--,--,0.0,0.0
"Sugars, total",g,--,--,0.00,0.00
Minerals
"Calcium, Ca",mg,--,--,20,71
"Iron, Fe",mg,--,--,0.61,2.17
"Sodium, Na",mg,--,--,30,107
Vitamins
"Vitamin C, total ascorbic acid",mg,--,--,0.0,0.0
"Vitamin A, IU",IU,--,--,0,0
Lipids
"Fatty acids, total saturated",g,--,--,4.001,14.290
"Fatty acids, total trans",g,--,--,0.000,0.000
"Cholesterol",mg,--,--,0,0
Amino Acids
Other
Ingredients
"LOVE, 100% IMPORTED ITALIAN OLIVE OIL, BASIL, SUN-DRIED TOMATOES, GRANULATED GARLIC, PARSLEY, SALT, PEPPER." Date available: 07/14/2017 Date last updated by company: 07/14/2017
