Source: USDA Branded Food Products Database Release December 2017 Software v.3.8.6.4 2017-10-02
Report Run at: December 19, 2017 04:30 EST
"Nutrient data for: 45330374, CULINARY SPICE PASTE, UPC: 011110807588"
Food Group:  Branded Food Products Database
Common Name:

Nutrient,Unit,Data points,Std. Error,"1 Tbsp = 15.0g",1Value per 100 g,
Proximates
"Energy",kcal,--,--,35,233
"Protein",g,--,--,1.00,6.67
"Total lipid (fat)",g,--,--,2.00,13.33
"Carbohydrate, by difference",g,--,--,4.00,26.67
"Fiber, total dietary",g,--,--,2.0,13.3
"Sugars, total",g,--,--,1.00,6.67
Minerals
"Calcium, Ca",mg,--,--,27,180
"Iron, Fe",mg,--,--,1.00,6.67
"Sodium, Na",mg,--,--,260,1733
Vitamins
"Vitamin D",IU,--,--,0,0
Lipids
"Fatty acids, total saturated",g,--,--,0.000,0.000
"Fatty acids, total trans",g,--,--,0.000,0.000
"Cholesterol",mg,--,--,0,0
Amino Acids
Other
Ingredients
"MINCED GARLIC (GARLIC, SOYBEAN OIL, CITRIC ACID), VINEGAR, ONION, ORANGE JUICE CONCENTRATE, CANOLA OIL, SPICE, ANNATTO, SALT, CHILE DE ARBOL AND ROSEMARY EXTRACT." Date available: 10/13/2017 Date last updated by company: 10/13/2017
