Source: USDA Branded Food Products Database Release December 2017 Software v.3.8.6.4 2017-10-02
Report Run at: December 19, 2017 04:27 EST
"Nutrient data for: 45004843, CULINARIA, VIRGINIA PEANUTS, JALAPENO SPICED, UPC: 04955450"
Food Group:  Branded Food Products Database
Common Name:

Nutrient,Unit,Data points,Std. Error,"2.0 Tbsp = 28.0g",1Value per 100 g,
Proximates
"Energy",kcal,--,--,164,586
"Protein",g,--,--,7.00,25.00
"Total lipid (fat)",g,--,--,13.00,46.43
"Carbohydrate, by difference",g,--,--,7.00,25.00
"Fiber, total dietary",g,--,--,2.0,7.1
"Sugars, total",g,--,--,1.00,3.57
Minerals
"Calcium, Ca",mg,--,--,30,107
"Iron, Fe",mg,--,--,0.64,2.29
"Sodium, Na",mg,--,--,247,882
Vitamins
"Vitamin C, total ascorbic acid",mg,--,--,0.0,0.0
"Vitamin A, IU",IU,--,--,0,0
Lipids
"Fatty acids, total saturated",g,--,--,1.999,7.140
"Fatty acids, total trans",g,--,--,0.000,0.000
"Cholesterol",mg,--,--,0,0
Amino Acids
Other
Ingredients
"SUPER EXTRA LARGE VIRGINIA PEANUTS, PEANUT OIL, SALT, ONION POWDER, CORN SYRUP, CORN STARCH, JALAPENO PEPPER, GARLIC POWDER, SOYBEAN OIL, NATURAL AND ARTIFICIAL FLAVORS (CONTAINS DAIRY) XANTHAN GUM, CITRIC ACID, VINEGAR POWDER (CONTAINS MALTODEXTRIN), NOT MORE THAN 2% SILICON DIOXIDE ADDED TO PREVENT CAKING." Date available: 07/14/2017 Date last updated by company: 07/14/2017
