Source: USDA Branded Food Products Database Release December 2017 Software v.3.8.6.4 2017-10-02
Report Run at: December 19, 2017 04:27 EST
"Nutrient data for: 45146479, CULINARIA, MILK CHOCOLATE, PEANUT BUTTER CUP, UPC: 041318221121"
Food Group:  Branded Food Products Database
Common Name:

Nutrient,Unit,Data points,Std. Error,"31.0 GRM = 31.0g",1Value per 100 g,
Proximates
"Energy",kcal,--,--,170,548
"Protein",g,--,--,3.00,9.68
"Total lipid (fat)",g,--,--,11.00,35.48
"Carbohydrate, by difference",g,--,--,16.00,51.61
"Fiber, total dietary",g,--,--,1.0,3.2
"Sugars, total",g,--,--,14.00,45.16
Minerals
"Calcium, Ca",mg,--,--,40,129
"Iron, Fe",mg,--,--,0.00,0.00
"Sodium, Na",mg,--,--,45,145
Vitamins
"Vitamin C, total ascorbic acid",mg,--,--,0.0,0.0
"Vitamin A, IU",IU,--,--,0,0
Lipids
"Fatty acids, total saturated",g,--,--,5.000,16.130
"Fatty acids, total trans",g,--,--,0.000,0.000
"Cholesterol",mg,--,--,5,16
Amino Acids
Other
Ingredients
"MILK CHOCOLATE (SUGAR, COCOA BUTTER, CHOCOLATE LIQUOR, MILK, SOY LECITHIN, SALT, AND VANILLA), NATURAL PEANUT BUTTER (ROASTED PEANUTS, SALT), WHITE CHOCOLATE (SUGAR, COCOA BUTTER, NONFAT DRY MILK, SOY LECITHIN AND VANILLA)." Date available: 09/21/2017 Date last updated by company: 09/21/2017
