Source: USDA Branded Food Products Database Release December 2017 Software v.3.8.6.4 2017-10-02
Report Run at: December 19, 2017 04:32 EST
"Nutrient data for: 45085964, CULTURES FOR HEALTH, REAL KEFIR, UPC: 814598020018"
Food Group:  Branded Food Products Database
Common Name:

Nutrient,Unit,Data points,Std. Error,"2.4 GRM = 2.4g",1Value per 100 g,
Proximates
"Energy",kcal,--,--,0,0
"Protein",g,--,--,0.00,0.00
"Total lipid (fat)",g,--,--,0.00,0.00
"Carbohydrate, by difference",g,--,--,0.00,0.00
Minerals
"Sodium, Na",mg,--,--,0,0
Vitamins
Lipids
Amino Acids
Other
Ingredients
"ORGANIC POWDERED MILK, ORGANIC MILK, LIVE ACTIVE CULTURES" Date available: 06/25/2017 Date last updated by company: 06/25/2017
