Source: USDA Branded Food Products Database Release December 2017 Software v.3.8.6.4 2017-10-02
Report Run at: December 19, 2017 04:33 EST
"Nutrient data for: 45155696, CUMBERLAND FARMS, FARMHOUSE BAKERY, PREMIUM COOKIES BITES, UPC: 042704045192"
Food Group:  Branded Food Products Database
Common Name:

Nutrient,Unit,Data points,Std. Error,"6.0 COOKIES = 31.0g",1Value per 100 g,
Proximates
"Energy",kcal,--,--,130,419
"Protein",g,--,--,2.00,6.45
"Total lipid (fat)",g,--,--,5.00,16.13
"Carbohydrate, by difference",g,--,--,20.00,64.52
"Fiber, total dietary",g,--,--,0.0,0.0
"Sugars, total",g,--,--,11.00,35.48
Minerals
"Calcium, Ca",mg,--,--,20,65
"Iron, Fe",mg,--,--,1.16,3.75
"Sodium, Na",mg,--,--,50,161
Vitamins
"Vitamin C, total ascorbic acid",mg,--,--,0.0,0.0
"Vitamin A, IU",IU,--,--,807,2602
Lipids
"Fatty acids, total saturated",g,--,--,3.001,9.680
"Fatty acids, total trans",g,--,--,0.000,0.000
"Cholesterol",mg,--,--,15,48
Amino Acids
Other
Ingredients
"UNBLEACHED WHEAT FLOUR (WHEAT FLOUR, MALTED BARLEY FLOUR, NIACIN, REDUCED IRON, THIAMIN MONONITRATE, RIBOFLAVIN, FOLIC ACID), CAN SUGAR, UNSALTED BUTTER (MILK, NATURAL FLAVORS), WHOLE EGGS (CITRIC ACID AS A PRESERVATIVE), GROUND CINNAMON, SALT, BAKING POWDER (SODIUM BICARBONATE, CORN STARCH, MONOCALCIUM PHOSPHATE), VANILLA EXTRACT (VANILLA BEAN, ALCOHOL, SUGAR), ALMOND EXTRACT (NATURAL FLAVORS, ETHYL ALCOHOL), BAKING SODA (SODIUM BICARBONATE)." Date available: 07/14/2017 Date last updated by company: 07/14/2017
