Source: USDA Branded Food Products Database Release December 2017 Software v.3.8.6.4 2017-10-02
Report Run at: December 19, 2017 04:33 EST
"Nutrient data for: 45155697, CUMBERLAND FARMS, PREMIUM CHOCOLATE TREATS, VANILLA CARAMEL BITES & SEA SALT PEANUTS, UPC: 042704045703"
Food Group:  Branded Food Products Database
Common Name:

Nutrient,Unit,Data points,Std. Error,"10.0 -16 PIECES = 40.0g",1Value per 100 g,
Proximates
"Energy",kcal,--,--,190,475
"Protein",g,--,--,2.00,5.00
"Total lipid (fat)",g,--,--,10.00,25.00
"Carbohydrate, by difference",g,--,--,25.00,62.50
"Fiber, total dietary",g,--,--,1.0,2.5
"Sugars, total",g,--,--,20.00,50.00
Minerals
"Calcium, Ca",mg,--,--,40,100
"Iron, Fe",mg,--,--,0.45,1.12
"Sodium, Na",mg,--,--,150,375
Vitamins
"Vitamin C, total ascorbic acid",mg,--,--,0.0,0.0
"Vitamin A, IU",IU,--,--,188,469
Lipids
"Fatty acids, total saturated",g,--,--,5.000,12.500
"Fatty acids, total trans",g,--,--,0.000,0.000
"Cholesterol",mg,--,--,5,12
Amino Acids
Other
Ingredients
"SEA SALT CHOCOLATE PEANUTS (MILK CHOCOLATE [SUGAR, COCOA BUTTER, CHOCOLATE LIQUOR, MILK, LACTOSE, SOY LECITHIN {EMULSIFIER}, SALT, NATURAL FLAVOR], PEANUTS, SEA SALT, CORN SYRUP, WATER, MODIFIED TAPIOCA STARCH, CONFECTIONER'S GLAZE, COCONUT OIL, CITRIC ACID, SORBIC ACID); VANILLA CARAMELS (MILK CHOCOLATE [SUGAR, COCOA BUTTER, CHOCOLATE LIQUOR, WHOLE MILK POWDER, BUTTER OIL, SOY LECITHIN, VANILLIN], CORN SYRUP, SWEETENED CONDENSED WHOLE MILK {MILK, SUGAR}, SUGAR, COCONUT OIL, MALTODEXTRIN, SALT, SOY LECITHIN, MONO AND DIGLYCERIDES, ARTIFICIAL FLAVORS, MODIFIED CORN STARCH, GUM ARABIC, CONFECTIONER'S GLAZE.)." Date available: 07/14/2017 Date last updated by company: 07/14/2017
