Source: USDA Branded Food Products Database Release December 2017 Software v.3.8.6.4 2017-10-02
Report Run at: December 19, 2017 04:34 EST
"Nutrient data for: 45099740, CUOCO, AUBERGINE AND VEGETABLE PUREE, UPC: 066718300047"
Food Group:  Branded Food Products Database
Common Name:

Nutrient,Unit,Data points,Std. Error,"0.5 cup = 100.0g",1Value per 100 g,
Proximates
"Energy",kcal,--,--,71,71
"Protein",g,--,--,1.00,1.00
"Total lipid (fat)",g,--,--,4.00,4.00
"Carbohydrate, by difference",g,--,--,9.00,9.00
"Fiber, total dietary",g,--,--,3.0,3.0
"Sugars, total",g,--,--,6.00,6.00
Minerals
"Calcium, Ca",mg,--,--,0,0
"Iron, Fe",mg,--,--,3.28,3.28
"Sodium, Na",mg,--,--,450,450
Vitamins
"Vitamin C, total ascorbic acid",mg,--,--,23.4,23.4
"Vitamin A, IU",IU,--,--,0,0
Lipids
"Fatty acids, total saturated",g,--,--,1.000,1.000
"Fatty acids, total trans",g,--,--,0.000,0.000
"Cholesterol",mg,--,--,0,0
Amino Acids
Other
Ingredients
"EGGPLANT, TOMATOES, CELERY, ONIONS, SUNFLOWER OIL, SUGAR, OLIVES, WINE VINEGAR, OLIVE OIL, CAPERS, SALT." Date available: 09/06/2017 Date last updated by company: 09/06/2017
