Source: USDA Branded Food Products Database Release December 2017 Software v.3.8.6.4 2017-10-02
Report Run at: December 19, 2017 04:37 EST
"Nutrient data for: 45180216, CUPCAKE, UPC: 833282007876"
Food Group:  Branded Food Products Database
Common Name:

Nutrient,Unit,Data points,Std. Error,"0.5 CUPCAKE = 85.0g",1Value per 100 g,
Proximates
"Energy",kcal,--,--,300,353
"Protein",g,--,--,4.00,4.71
"Total lipid (fat)",g,--,--,14.00,16.47
"Carbohydrate, by difference",g,--,--,48.00,56.47
"Fiber, total dietary",g,--,--,1.0,1.2
"Sugars, total",g,--,--,34.00,40.00
Minerals
"Calcium, Ca",mg,--,--,20,24
"Iron, Fe",mg,--,--,1.02,1.20
"Sodium, Na",mg,--,--,280,329
Vitamins
"Vitamin C, total ascorbic acid",mg,--,--,0.0,0.0
"Vitamin A, IU",IU,--,--,377,443
Lipids
"Fatty acids, total saturated",g,--,--,6.001,7.060
"Fatty acids, total trans",g,--,--,0.000,0.000
"Cholesterol",mg,--,--,70,82
Amino Acids
Other
Ingredients
"CUPCAKE (SUGAR, ENRICHED FLOUR [WHEAT FLOUR, NIACIN, IRON, THIAMIN MONONITRATE, RIBOFLAVIN, FOLIC ACID], WHOLE EGGS, UNSALTED BUTTER, WATER, CANOLA OIL, BUTTERMILK, SOYBEAN OIL, COCOA PROCESSED WITH ALKALI, MODIFIED CORN STARCH, VINEGAR, COLOR [RED 40, 3; BLUE 1, YELLOW 6]) CONTAINS 2% OR LESS OF WHEY, LEAVENING [SODIUM ACID PYROPHOSPHATE, BAKING SODA], SALT, SORBITAN MONOSTEARATE, NONFAT MILK, VITAL WHEAT GLUTEN, POLYSORBATE 60, XANTHAN GUM, GUAR GUM, MONO AND DIGLYCERIDES, NATURAL FLAVOR, SOY FLOUR), ICING (POWDERED SUGAR [SUGAR, CORNSTARCH], CREAM CHEESE [PASTEURIZED CULTURED MILK AND CREAM, WHEY, SALT, TARA GUM AND GUAR GUM], CORNSTARCH, WATER, NATURAL VANILLA EXTRACT, LEMON JUICE)." Date available: 07/14/2017 Date last updated by company: 07/14/2017
