Source: USDA Branded Food Products Database Release December 2017 Software v.3.8.6.4 2017-10-02
Report Run at: December 19, 2017 04:36 EST
"Nutrient data for: 45179613, CUPCAKES, UPC: 770981031200"
Food Group:  Branded Food Products Database
Common Name:

Nutrient,Unit,Data points,Std. Error,"3.0 CUPCAKES = 71.0g",1Value per 100 g,
Proximates
"Energy",kcal,--,--,310,437
"Protein",g,--,--,2.00,2.82
"Total lipid (fat)",g,--,--,15.00,21.13
"Carbohydrate, by difference",g,--,--,40.00,56.34
"Fiber, total dietary",g,--,--,0.0,0.0
"Sugars, total",g,--,--,32.00,45.07
Minerals
"Calcium, Ca",mg,--,--,20,28
"Iron, Fe",mg,--,--,0.40,0.57
"Sodium, Na",mg,--,--,180,254
Vitamins
"Vitamin C, total ascorbic acid",mg,--,--,0.0,0.0
"Vitamin A, IU",IU,--,--,0,0
Lipids
"Fatty acids, total saturated",g,--,--,4.998,7.040
"Fatty acids, total trans",g,--,--,0.000,0.000
"Cholesterol",mg,--,--,25,35
Amino Acids
Other
Ingredients
"ICING SUGAR, SUGAR, SHORTENING (CANOLA, PALM, MODIFIED PALM AND PALM KERNEL OIL), WATER, ENRICHED WHEAT FLOUR (WHET FLOUR, NIACIN, REDUCED IRON, THIAMINE MONONITRATE, RIBOFLAVIN, FOLIC ACID), EGG, SOYBEAN AND CANOLA OIL, GLUCOSE, MODIFIED CORN STARCH, WHEY POWDER, SKIM MILK POWDER, MONO AND DIGLYCERIDES, LEAVENING (SODIUM ACID PYROPHOSPHATE, SODIUM BICARBONATE, CORN STARCH, MONOCALCIUM PHOSPHATE, CALCIUM SULFATE), SOYBEAN LECITHIN, WHEAT GLUTEN, BUTTER (CREAM, SALT), SALT, ARTIFICIAL FLAVOR, DIACETYL TARTARIC ACID ESTERS OF MONO AND DIGLYCERIDES, PALM KERNEL OIL, CORN STARCH, CONFECTIONER'S GLAZE, GUM ARABIC, COLOR (FD&C YELLOW #6, FD&C BLUE #1, FD&C RED #40), POLYSORBATE 60." Date available: 07/14/2017 Date last updated by company: 07/14/2017
