Source: USDA Branded Food Products Database Release December 2017 Software v.3.8.6.4 2017-10-02
Report Run at: December 19, 2017 04:38 EST
"Nutrient data for: 45211612, CUPCAKE, UPC: 5051379075804"
Food Group:  Branded Food Products Database
Common Name:

Nutrient,Unit,Data points,Std. Error,"1 CUPCAKE = 128.0g",1Value per 100 g,
Proximates
"Energy",kcal,--,--,520,406
"Protein",g,--,--,2.00,1.56
"Total lipid (fat)",g,--,--,28.01,21.88
"Carbohydrate, by difference",g,--,--,67.00,52.34
"Fiber, total dietary",g,--,--,2.9,2.3
"Sugars, total",g,--,--,45.00,35.16
Minerals
"Calcium, Ca",mg,--,--,40,31
"Iron, Fe",mg,--,--,0.90,0.70
"Sodium, Na",mg,--,--,241,188
Vitamins
"Vitamin C, total ascorbic acid",mg,--,--,2.3,1.8
"Vitamin A, IU",IU,--,--,0,0
Lipids
"Fatty acids, total saturated",g,--,--,6.003,4.690
"Fatty acids, total trans",g,--,--,0.000,0.000
"Cholesterol",mg,--,--,15,12
Amino Acids
Other
Ingredients
"SUGAR, BERRY SAUCE (SUGAR, STRAWBERRIES, BLUEBERRIES, RASPBERRIES, WATER, CORN STARCH, RICE STARCH, NATURAL FLAVOR,PECTIN, LOCUST BEAN GUM, CITRIC ACID, PURPLE CARROT CONCENTRATE FOR COLOR), ENRICHED WHEAT FLOUR (BLEACHED WHEAT FLOUR, NIACIN, REDUCED IRON, THIAMIN MONONITRATE, RIBOFLAVIN, FOLIC ACID), CANOLA OIL, WATER, SHORTENING (PALM OIL, MONO-AND DI-GLYCERIDES, POLYSORBATE 60), STABILIZER (MALTODEXTRIN, SOLUBLE CORN FIBER, MODIFIED WHEY, MODIFIED CORN STARCH, SALT, NATURAL FLAVOR), EGGS, PEANUT BUTTER (PEANUT, DEXTROSE, PAL OIL, SALT), CORN STARCH, VANILLA EXTRACT, BAKING SODA, BAKING POWDER (SODIUM BICARBONATE, CORN STARCH, SODIUM ALUMINUM SULFATE, CALCIUM SULFATE, MONOCALCIUM PHOSPHATE), SALT." Date available: 07/14/2017 Date last updated by company: 07/14/2017
