Source: USDA Branded Food Products Database Release December 2017 Software v.3.8.6.4 2017-10-02
Report Run at: December 19, 2017 04:34 EST
"Nutrient data for: 45179078, CUPCAKE & CAKE MIX, UPC: 737094211448"
Food Group:  Branded Food Products Database
Common Name:

Nutrient,Unit,Data points,Std. Error,"0.055 DRY MIX MAKES 1 CUPCAKE OR CAKE SLICE = 38.0g",1Value per 100 g,
Proximates
"Energy",kcal,--,--,130,342
"Protein",g,--,--,3.00,7.89
"Total lipid (fat)",g,--,--,0.50,1.32
"Carbohydrate, by difference",g,--,--,31.00,81.58
"Fiber, total dietary",g,--,--,2.0,5.3
"Sugars, total",g,--,--,18.00,47.37
Minerals
"Calcium, Ca",mg,--,--,40,105
"Iron, Fe",mg,--,--,0.76,1.99
"Sodium, Na",mg,--,--,240,632
Vitamins
"Vitamin C, total ascorbic acid",mg,--,--,0.0,0.0
"Vitamin A, IU",IU,--,--,0,0
Lipids
"Fatty acids, total saturated",g,--,--,0.000,0.000
"Fatty acids, total trans",g,--,--,0.000,0.000
"Cholesterol",mg,--,--,0,0
Amino Acids
Other
Ingredients
"SUGAR, WHEAT FLOUR (MILLED WHEAT, MALTED BARLEY FLOUR), COCOA PROCESSED WITH ALKALI, CULTURED BUTTERMILK POWDER (SKIM MILK, LACTIC ACID, CULTURES), VANILLA POWDER, BAKING SODA, NON-ALUMINUM BAKING POWDER (SODIUM ACID PYROPHOSPHATE, SODIUM BICARBONATE, CORN STARCH, MONOCALCIUM PHOSPHATE), SALT, XANTHAN GUM." Date available: 07/14/2017 Date last updated by company: 07/14/2017
