Source: USDA Branded Food Products Database Release December 2017 Software v.3.8.6.4 2017-10-02
Report Run at: December 19, 2017 04:36 EST
"Nutrient data for: 45207562, CUPCAKES, UPC: 029519214708"
Food Group:  Branded Food Products Database
Common Name:

Nutrient,Unit,Data points,Std. Error,"1 CUPCAKE = 113.0g",1Value per 100 g,
Proximates
"Energy",kcal,--,--,480,425
"Protein",g,--,--,4.00,3.54
"Total lipid (fat)",g,--,--,27.00,23.89
"Carbohydrate, by difference",g,--,--,56.00,49.56
"Fiber, total dietary",g,--,--,0.0,0.0
"Sugars, total",g,--,--,44.00,38.94
Minerals
"Calcium, Ca",mg,--,--,20,18
"Iron, Fe",mg,--,--,0.51,0.45
"Sodium, Na",mg,--,--,320,283
Vitamins
"Vitamin C, total ascorbic acid",mg,--,--,0.0,0.0
"Thiamin",mg,--,--,0.000,0.000
"Riboflavin",mg,--,--,0.136,0.120
"Niacin",mg,--,--,0.284,0.251
"Vitamin A, IU",IU,--,--,71,63
Lipids
"Fatty acids, total saturated",g,--,--,8.995,7.960
"Fatty acids, total trans",g,--,--,0.000,0.000
"Cholesterol",mg,--,--,80,71
Amino Acids
Other
Ingredients
"POWDERED SUGAR, SUGAR, WHOLE EGGS, ENRICHED WHEAT FLOUR BLEACHED (FLOUR, NIACIN, IRON, THIAMINE MONONITRATE, RIBOFLAVIN, FOLIC ACID), SOYBEAN OIL, PALM OIL, CANOLA OIL, BUTTER (PASTEURIZED CREAM AND SALT), INVERT SUGAR, FOOD STARCH-MODIFIED, WATER, NONFAT DRY MILK, EGG YOLK, MONO & DIGLYCERIDES, GLYCERIN, EGG WHITES, POLYSORBATE 80, LEAVENING (BAKING SODA, SODIUM ACID PYROPHOSPHATE), SALT, PROPYLENE GLYCOL MONO & DIESTERS OF FATTY ACIDS, CORN STARCH, GLYCERYL-LACTO ESTERS OF FATTY ACIDS, METHYLCELLULOSE GUM, SODIUM PROPIONATE AND SORBIC ACID AND POTASSIUM SORBATE AND SODIUM BENZOATE (AS PRESERVATIVES), DEXTROSE, YELLOW 5, YELLOW 6, BLUE 1 LAKE, RED 40, NATURAL AND ARTIFICIAL FLAVORS, TITANIUM DIOXIDE (AS COLOR), CITRIC ACID, CORN SYRUP, SOY FLOUR, LACTIC ACID, AGAR, XANTHAN GUM, PROPYLENE GLYCOL, TURMERIC (AS COLOR), ALPHA TOCOPHEROLS AS PRESERVATIVE, BETA CAROTENE (AS COLOR)." Date available: 07/14/2017 Date last updated by company: 07/14/2017
