Source: USDA Branded Food Products Database Release December 2017 Software v.3.8.6.4 2017-10-02
Report Run at: December 19, 2017 04:35 EST
"Nutrient data for: 45208289, CUPCAKE DECORATING KIT, UPC: 070896319289"
Food Group:  Branded Food Products Database
Common Name:

Nutrient,Unit,Data points,Std. Error,"1 PIECE = 0.4g",1Value per 100 g,
Proximates
"Energy",kcal,--,--,0,0
"Protein",g,--,--,0.00,0.00
"Total lipid (fat)",g,--,--,0.00,0.00
"Carbohydrate, by difference",g,--,--,0.00,0.00
Minerals
"Sodium, Na",mg,--,--,0,0
Vitamins
Lipids
Amino Acids
Other
Ingredients
"DEXTROSE, CORN STARCH, DEXTRIN, SUGAR, MAGNESIUM STEARATE, GUM ARABIC, ARTIFICIAL FLAVOR, CONFECTIONERS' GLAZE, CARNAUBA WAX, GELATIN, FD&C RED #40, FD&C BLUE #1, FD&C YELLOW #5." Date available: 07/14/2017 Date last updated by company: 07/14/2017
