Source: USDA Branded Food Products Database Release December 2017 Software v.3.8.6.4 2017-10-02
Report Run at: December 19, 2017 04:37 EST
"Nutrient data for: 45259844, CUPCAKE TREATS, UPC: 655956011435"
Food Group:  Branded Food Products Database
Common Name:

Nutrient,Unit,Data points,Std. Error,"40.0 GRM = 40.0g",1Value per 100 g,
Proximates
"Energy",kcal,--,--,180,450
"Protein",g,--,--,2.00,5.00
"Total lipid (fat)",g,--,--,9.00,22.50
"Carbohydrate, by difference",g,--,--,27.00,67.50
"Fiber, total dietary",g,--,--,0.0,0.0
"Sugars, total",g,--,--,20.00,50.00
Minerals
"Calcium, Ca",mg,--,--,40,100
"Iron, Fe",mg,--,--,0.72,1.80
"Sodium, Na",mg,--,--,30,75
Vitamins
"Vitamin C, total ascorbic acid",mg,--,--,0.0,0.0
"Vitamin A, IU",IU,--,--,0,0
Lipids
"Fatty acids, total saturated",g,--,--,8.000,20.000
"Fatty acids, total trans",g,--,--,0.000,0.000
"Cholesterol",mg,--,--,0,0
Amino Acids
Other
Ingredients
"CONFECTIONERY COATING (SUGAR,. PARTIALLY HYDROGENATED PALM KERNEL OIL, NONFAT MILK POWDER, WHOLE MILK POWDER, COCOA POWDER, FD&C RED 40 LAKE, NATURAL FLAVOR, SOY LECITHIN (AN EMULSIFIER), AND VANILLIN (AND ARTIFICIAL FLAVORING)) AND CUPCAKE BITES (WHEAT FLOUR, SUGAR, PARTIALLY HYDROGENATED VEGETABLE OIL (PALM KERNEL, PALM, SOYBEAN, AND COTTONSEED), CORN SYRUP, FRUCTOSE, WATER, PALM, OIL, NATURAL AND ARTIFICIAL FLAVORS, SOY LECITHIN, SALT AND XANTHAN GUM)." Date available: 07/14/2017 Date last updated by company: 07/14/2017
