Source: USDA Branded Food Products Database Release December 2017 Software v.3.8.6.4 2017-10-02
Report Run at: December 19, 2017 04:39 EST
"Nutrient data for: 45257457, CURED PORK LONGANIZA, UPC: 074562560814"
Food Group:  Branded Food Products Database
Common Name:

Nutrient,Unit,Data points,Std. Error,"2.5 ONZ = 70.0g",1Value per 100 g,
Proximates
"Energy",kcal,--,--,210,300
"Protein",g,--,--,12.00,17.14
"Total lipid (fat)",g,--,--,16.00,22.86
"Carbohydrate, by difference",g,--,--,3.00,4.29
"Fiber, total dietary",g,--,--,0.0,0.0
"Sugars, total",g,--,--,2.00,2.86
Minerals
"Calcium, Ca",mg,--,--,20,29
"Iron, Fe",mg,--,--,1.41,2.02
"Sodium, Na",mg,--,--,840,1200
Vitamins
"Vitamin C, total ascorbic acid",mg,--,--,0.0,0.0
"Vitamin A, IU",IU,--,--,1179,1684
Lipids
"Fatty acids, total saturated",g,--,--,7.000,10.000
"Fatty acids, total trans",g,--,--,0.000,0.000
"Cholesterol",mg,--,--,40,57
Amino Acids
Other
Ingredients
"PORK, LONGANIZA SPICES (PAPRIKA, SALT, SPICES, MUSTARD, GARLIC POWDER) VINEGAR, WATER, SOY GRITS, SODIUM NITRITE." Date available: 10/04/2017 Date last updated by company: 10/04/2017
