Source: USDA Branded Food Products Database Release December 2017 Software v.3.8.6.4 2017-10-02
Report Run at: December 19, 2017 04:40 EST
"Nutrient data for: 45276399, CURIOUSLY CRUNCHY POPCORN, UPC: 850091003561"
Food Group:  Branded Food Products Database
Common Name:

Nutrient,Unit,Data points,Std. Error,"1 ONZ = 30.0g",1Value per 100 g,
Proximates
"Energy",kcal,--,--,140,467
"Protein",g,--,--,3.00,10.00
"Total lipid (fat)",g,--,--,6.00,20.00
"Carbohydrate, by difference",g,--,--,20.00,66.67
"Fiber, total dietary",g,--,--,3.0,10.0
"Sugars, total",g,--,--,2.00,6.67
Minerals
"Calcium, Ca",mg,--,--,3,10
"Iron, Fe",mg,--,--,1.00,3.33
"Potassium, K",mg,--,--,0,0
"Sodium, Na",mg,--,--,160,533
Vitamins
"Vitamin D",IU,--,--,0,0
Lipids
"Fatty acids, total saturated",g,--,--,0.000,0.000
"Fatty acids, total trans",g,--,--,0.000,0.000
"Cholesterol",mg,--,--,0,0
Amino Acids
Other
Ingredients
"NON-GMO POPCORN, NON-GMO CANOLA OIL, SWEET AND SPICY SEASONING (SUGAR, BROWN SUGAR, SEA SALT, GARLIC POWDER, SPICES, ONION POWDER, NATURAL EXTRACTIVES OF PAPRIKA)." Date available: 10/13/2017 Date last updated by company: 10/13/2017
