Source: USDA Branded Food Products Database Release December 2017 Software v.3.8.6.4 2017-10-02
Report Run at: December 19, 2017 04:41 EST
"Nutrient data for: 45203329, CURRY JACKFRUIT, UPC: 859806003032"
Food Group:  Branded Food Products Database
Common Name:

Nutrient,Unit,Data points,Std. Error,"0.5 cup = 110.0g",1Value per 100 g,
Proximates
"Energy",kcal,--,--,95,86
"Protein",g,--,--,2.00,1.82
"Total lipid (fat)",g,--,--,3.50,3.18
"Carbohydrate, by difference",g,--,--,14.00,12.73
"Fiber, total dietary",g,--,--,9.0,8.2
"Sugars, total",g,--,--,4.00,3.64
Minerals
"Calcium, Ca",mg,--,--,80,73
"Iron, Fe",mg,--,--,0.54,0.49
"Potassium, K",mg,--,--,390,355
"Sodium, Na",mg,--,--,310,282
Vitamins
"Vitamin C, total ascorbic acid",mg,--,--,0.0,0.0
"Vitamin A, IU",IU,--,--,0,0
Lipids
"Fatty acids, total saturated",g,--,--,0.495,0.450
"Fatty acids, total trans",g,--,--,0.000,0.000
"Cholesterol",mg,--,--,0,0
Amino Acids
Other
Ingredients
"YOUNG JACKFRUIT, WATER, ONION, SUNFLOWER OIL, TOMATO PASTE, GARAM MASALA (CORIANDER, CHILI, CUMIN, FENNEL, CARDAMOM, BAYLEAF, CLOVE, BLACK PEPPER, SPICES), GARLIC, SALT, CORIANDER, TURMERIC, CINNAMON." Date available: 07/14/2017 Date last updated by company: 07/14/2017
