Source: USDA Branded Food Products Database Release December 2017 Software v.3.8.6.4 2017-10-02
Report Run at: December 19, 2017 04:42 EST
"Nutrient data for: 45056219, CURRY SEASONING, UPC: 094922148902"
Food Group:  Branded Food Products Database
Common Name:

Nutrient,Unit,Data points,Std. Error,"0.6 OZ = 16.0g",1Value per 100 g,
Proximates
"Energy",kcal,--,--,10,62
"Protein",g,--,--,0.00,0.00
"Total lipid (fat)",g,--,--,0.00,0.00
"Carbohydrate, by difference",g,--,--,2.00,12.50
"Fiber, total dietary",g,--,--,0.0,0.0
"Sugars, total",g,--,--,0.00,0.00
Minerals
"Calcium, Ca",mg,--,--,0,0
"Iron, Fe",mg,--,--,0.00,0.00
"Sodium, Na",mg,--,--,260,1625
Vitamins
"Vitamin C, total ascorbic acid",mg,--,--,14.6,91.3
"Vitamin A, IU",IU,--,--,0,0
Lipids
"Fatty acids, total saturated",g,--,--,0.000,0.000
"Fatty acids, total trans",g,--,--,0.000,0.000
"Cholesterol",mg,--,--,0,0
Amino Acids
Other
Ingredients
"ONION, WATER, GARLIC, ESCALLION, VINEGAR, CURRY POWDER, SALT, SCOTCH BONNET PEPPER, SPICES, THYME & SODIUM BENZOATE (AS A PRESERVATIVE)." Date available: 06/24/2017 Date last updated by company: 06/24/2017
