Source: USDA Branded Food Products Database Release December 2017 Software v.3.8.6.4 2017-10-02
Report Run at: December 19, 2017 04:43 EST
"Nutrient data for: 45153189, CUSTOM SODA LABELS, HAPPY ST. PATRICK DAY SODA, KIWI STRAWBERRY, UPC: 663593498656"
Food Group:  Branded Food Products Database
Common Name:

Nutrient,Unit,Data points,Std. Error,"1 BOTTLE = 355.0g",1Value per 100 g,
Proximates
"Energy",kcal,--,--,170,48
"Protein",g,--,--,0.00,0.00
"Total lipid (fat)",g,--,--,0.00,0.00
"Carbohydrate, by difference",g,--,--,43.98,12.39
"Sugars, total",g,--,--,43.98,12.39
Minerals
"Sodium, Na",mg,--,--,53,15
Vitamins
Lipids
Amino Acids
Other
Ingredients
"CARBONATED WATER, PURE CANE SUGAR, CITRIC ACID, NATURAL AND ARTIFICIAL FLAVORS, FD&C YELLOW #5 AND FD&C BLUE#1, AND SODIUM BENZOATE (PRESERVATIVE)" Date available: 07/14/2017 Date last updated by company: 07/14/2017
