Source: USDA Branded Food Products Database Release December 2017 Software v.3.8.6.4 2017-10-02
Report Run at: December 19, 2017 04:52 EST
"Nutrient data for: 45197454, CUT LOW SODIUM GREEN BEANS, UPC: 07078426704"
Food Group:  Branded Food Products Database
Common Name:

Nutrient,Unit,Data points,Std. Error,"1 cup = 113.0g",1Value per 100 g,
Proximates
"Energy",kcal,--,--,10,9
"Protein",g,--,--,0.99,0.88
"Total lipid (fat)",g,--,--,0.00,0.00
"Carbohydrate, by difference",g,--,--,2.00,1.77
"Fiber, total dietary",g,--,--,1.0,0.9
"Sugars, total",g,--,--,0.99,0.88
Minerals
"Calcium, Ca",mg,--,--,0,0
"Iron, Fe",mg,--,--,0.42,0.37
"Potassium, K",mg,--,--,55,49
"Sodium, Na",mg,--,--,140,124
Vitamins
"Vitamin C, total ascorbic acid",mg,--,--,69.0,61.1
"Vitamin A, IU",IU,--,--,0,0
Lipids
"Fatty acids, total saturated",g,--,--,0.000,0.000
"Fatty acids, total trans",g,--,--,0.000,0.000
"Cholesterol",mg,--,--,0,0
Amino Acids
Other
Ingredients
"WATER, GREEN BEANS, SEA SALT, ASCORBIC ACID." Date available: 07/14/2017 Date last updated by company: 07/14/2017
