Source: USDA Branded Food Products Database Release December 2017 Software v.3.8.6.4 2017-10-02
Report Run at: December 19, 2017 04:52 EST
"Nutrient data for: 45111568, CUT ORGANIC SPINACH, UPC: 032601025496"
Food Group:  Branded Food Products Database
Common Name:

Nutrient,Unit,Data points,Std. Error,"0.33 cup = 85.0g",1Value per 100 g,
Proximates
"Energy",kcal,--,--,25,29
"Protein",g,--,--,3.00,3.53
"Total lipid (fat)",g,--,--,0.00,0.00
"Carbohydrate, by difference",g,--,--,4.00,4.71
"Fiber, total dietary",g,--,--,2.0,2.4
"Sugars, total",g,--,--,1.00,1.18
Minerals
"Calcium, Ca",mg,--,--,100,118
"Iron, Fe",mg,--,--,1.44,1.69
"Sodium, Na",mg,--,--,65,76
Vitamins
"Vitamin C, total ascorbic acid",mg,--,--,4.8,5.6
"Vitamin A, IU",IU,--,--,10000,11765
Lipids
"Fatty acids, total saturated",g,--,--,0.000,0.000
"Fatty acids, total trans",g,--,--,0.000,0.000
"Cholesterol",mg,--,--,0,0
Amino Acids
Other
Ingredients
"ORGANIC SPINACH" Date available: 10/04/2017 Date last updated by company: 10/04/2017
