Source: USDA Branded Food Products Database Release December 2017 Software v.3.8.6.4 2017-10-02
Report Run at: December 19, 2017 04:44 EST
"Nutrient data for: 45212892, CUT CABBAGE KIMCHI, UPC: 887267000031"
Food Group:  Branded Food Products Database
Common Name:

Nutrient,Unit,Data points,Std. Error,"1 cup = 100.0g",1Value per 100 g,
Proximates
"Energy",kcal,--,--,20,20
"Protein",g,--,--,2.00,2.00
"Total lipid (fat)",g,--,--,0.00,0.00
"Carbohydrate, by difference",g,--,--,4.90,4.90
"Fiber, total dietary",g,--,--,4.0,4.0
"Sugars, total",g,--,--,2.00,2.00
Minerals
"Calcium, Ca",mg,--,--,50,50
"Iron, Fe",mg,--,--,1.98,1.98
"Sodium, Na",mg,--,--,799,799
Vitamins
"Vitamin C, total ascorbic acid",mg,--,--,12.6,12.6
"Vitamin A, IU",IU,--,--,0,0
Lipids
"Fatty acids, total saturated",g,--,--,0.000,0.000
"Fatty acids, total trans",g,--,--,0.000,0.000
"Cholesterol",mg,--,--,0,0
Amino Acids
Other
Ingredients
"SALTED NAPA CABBAGE (NAPA CABBAGE, SALT), RADISH, STARCH (RICE, GUARGUM), RED PEPPER POWDER, KELP EXTRACT, ONION, GARLIC, SUGAR, GINGER, SALT, LACTOBACILLUS." Date available: 07/14/2017 Date last updated by company: 07/14/2017
