Source: USDA Branded Food Products Database Release December 2017 Software v.3.8.6.4 2017-10-02
Report Run at: December 19, 2017 04:47 EST
"Nutrient data for: 45195312, CUT GREEN BEANS, UPC: 035826100306"
Food Group:  Branded Food Products Database
Common Name:

Nutrient,Unit,Data points,Std. Error,"0.5 cup = 99.0g",1Value per 100 g,
Proximates
"Energy",kcal,--,--,10,10
"Protein",g,--,--,1.00,1.01
"Total lipid (fat)",g,--,--,0.00,0.00
"Carbohydrate, by difference",g,--,--,2.00,2.02
"Fiber, total dietary",g,--,--,1.0,1.0
"Sugars, total",g,--,--,1.00,1.01
Minerals
"Calcium, Ca",mg,--,--,0,0
"Iron, Fe",mg,--,--,0.48,0.48
"Potassium, K",mg,--,--,50,51
"Sodium, Na",mg,--,--,140,141
Vitamins
"Vitamin C, total ascorbic acid",mg,--,--,78.8,79.6
"Vitamin A, IU",IU,--,--,132,133
Lipids
"Fatty acids, total saturated",g,--,--,0.000,0.000
"Fatty acids, total trans",g,--,--,0.000,0.000
"Cholesterol",mg,--,--,0,0
Amino Acids
Other
Ingredients
"WATER, GREEN BEANS, SEA SALT, ASCORBIC ACID." Date available: 10/11/2017 Date last updated by company: 10/11/2017
