Source: USDA Branded Food Products Database Release December 2017 Software v.3.8.6.4 2017-10-02
Report Run at: December 19, 2017 04:53 EST
"Nutrient data for: 45253535, CUT SPEARS ASPARAGUS, UPC: 037100058167"
Food Group:  Branded Food Products Database
Common Name:

Nutrient,Unit,Data points,Std. Error,"0.5 cup = 120.0g",1Value per 100 g,
Proximates
"Energy",kcal,--,--,20,17
"Protein",g,--,--,2.00,1.67
"Total lipid (fat)",g,--,--,0.00,0.00
"Carbohydrate, by difference",g,--,--,3.00,2.50
"Fiber, total dietary",g,--,--,1.0,0.8
"Sugars, total",g,--,--,3.00,2.50
Minerals
"Calcium, Ca",mg,--,--,0,0
"Iron, Fe",mg,--,--,0.40,0.33
"Potassium, K",mg,--,--,120,100
"Sodium, Na",mg,--,--,360,300
Vitamins
"Vitamin C, total ascorbic acid",mg,--,--,16.2,13.5
"Vitamin A, IU",IU,--,--,325,271
Lipids
"Fatty acids, total saturated",g,--,--,0.000,0.000
"Fatty acids, total trans",g,--,--,0.000,0.000
"Cholesterol",mg,--,--,0,0
Amino Acids
Other
Ingredients
"ASPARAGUS, WATER AND SALT." Date available: 07/14/2017 Date last updated by company: 07/14/2017
