Source: USDA Branded Food Products Database Release December 2017 Software v.3.8.6.4 2017-10-02
Report Run at: December 19, 2017 04:53 EST
"Nutrient data for: 45019330, CUT SWEET POTATOES IN LIGHT SYRUP, UPC: 011150043151"
Food Group:  Branded Food Products Database
Common Name:

Nutrient,Unit,Data points,Std. Error,"0.67 cup = 160.0g",1Value per 100 g,
Proximates
"Energy",kcal,--,--,141,88
"Protein",g,--,--,0.00,0.00
"Total lipid (fat)",g,--,--,0.00,0.00
"Carbohydrate, by difference",g,--,--,34.00,21.25
"Fiber, total dietary",g,--,--,1.0,0.6
"Sugars, total",g,--,--,19.01,11.88
Minerals
"Calcium, Ca",mg,--,--,19,12
"Iron, Fe",mg,--,--,1.44,0.90
"Sodium, Na",mg,--,--,19,12
Vitamins
"Vitamin C, total ascorbic acid",mg,--,--,0.0,0.0
"Vitamin A, IU",IU,--,--,9000,5625
Lipids
"Fatty acids, total saturated",g,--,--,0.000,0.000
"Fatty acids, total trans",g,--,--,0.000,0.000
"Cholesterol",mg,--,--,0,0
Amino Acids
Other
Ingredients
"SWEET POTATOES, WATER, CORN SYRUP, SUGAR." Date available: 06/25/2017 Date last updated by company: 06/25/2017
