Source: USDA Branded Food Products Database Release December 2017 Software v.3.8.6.4 2017-10-02
Report Run at: December 19, 2017 04:55 EST
"Nutrient data for: 45151939, CVS PHARMACY, ASSORTED CHOCOLATES, UPC: 050428449578"
Food Group:  Branded Food Products Database
Common Name:

Nutrient,Unit,Data points,Std. Error,"1 PACKAGE = 45.0g",1Value per 100 g,
Proximates
"Energy",kcal,--,--,190,422
"Protein",g,--,--,1.00,2.22
"Total lipid (fat)",g,--,--,7.00,15.56
"Carbohydrate, by difference",g,--,--,34.00,75.56
"Fiber, total dietary",g,--,--,1.0,2.2
"Sugars, total",g,--,--,30.00,66.67
Minerals
"Calcium, Ca",mg,--,--,20,44
"Iron, Fe",mg,--,--,0.00,0.00
"Sodium, Na",mg,--,--,30,67
Vitamins
"Vitamin C, total ascorbic acid",mg,--,--,0.0,0.0
"Vitamin A, IU",IU,--,--,0,0
Lipids
"Fatty acids, total saturated",g,--,--,4.000,8.890
"Fatty acids, total trans",g,--,--,0.000,0.000
"Cholesterol",mg,--,--,0,0
Amino Acids
Other
Ingredients
"SUGAR, MILK CHOCOLATE (SUGAR; COCOA BUTTER; MILK; CHOCOLATE; SOY LECITHIN, AN EMULSIFIER; SALT; ARTIFICIAL FLAVOR), CORN SYRUP, DARK SWEET CHOCOLATE (SUGAR; CHOCOLATE, COCOA BUTTER; NATURAL & ARTIFICIAL FLAVORS; SOY LECITHIN, AN EMULSIFIER), PALM OIL, HIGH FRUCTOSE CORN SYRUP. CONTAINS 2% OR LESS OF: MILK, SKIM MILK, WHEY, COCOA, NATURAL & ARTIFICIAL FLAVORS, FOOD STARCH-MODIFIED, INVERTASE, CITRIC ACID, SALT, EGG WHITES, GELATIN, PARTIALLY HYDROGENATED PALM KERNEL & COTTONSEED OILS, SOY LECITHIN (AN EMULSIFIER), RED 40, YELLOW 6, POTASSIUM SORBATE (A PRESERVATIVE), HYDROLYZED SOY PROTEIN, SODIUM HEXAMETAPHOSPHATE." Date available: 07/14/2017 Date last updated by company: 07/14/2017
