Source: USDA Branded Food Products Database Release December 2017 Software v.3.8.6.4 2017-10-02
Report Run at: December 19, 2017 04:57 EST
"Nutrient data for: 45241411, DAD'S, OLD FASHIONED BLUE CREAM SODA, UPC: 072410050302"
Food Group:  Branded Food Products Database
Common Name:

Nutrient,Unit,Data points,Std. Error,"1 BOTTLE = 355.0g",1Value per 100 g,
Proximates
"Energy",kcal,--,--,248,70
"Protein",g,--,--,0.00,0.00
"Total lipid (fat)",g,--,--,0.00,0.00
"Carbohydrate, by difference",g,--,--,65.99,18.59
"Sugars, total",g,--,--,65.00,18.31
Minerals
"Sodium, Na",mg,--,--,21,6
Vitamins
Lipids
Amino Acids
Other
Ingredients
"CARBONATED WATER, CANE SUGAR, NATURAL AND ARTIFICIAL FLAVORS, SODIUM BENZOATE (A PRESERVATIVE), CITRIC ACID, FD&C BLUE #1." Date available: 07/07/2017 Date last updated by company: 07/07/2017
