Source: USDA Branded Food Products Database Release December 2017 Software v.3.8.6.4 2017-10-02
Report Run at: December 19, 2017 04:58 EST
"Nutrient data for: 45206110, DAHLICIOUS LASSI, ORGANIC INDIAN YOGURT SMOOTHIE, BLUEBERRY, UPC: 857055006040"
Food Group:  Branded Food Products Database
Common Name:

Nutrient,Unit,Data points,Std. Error,"8.0 fl oz = 237.0g",1Value per 100 g,
Proximates
"Energy",kcal,--,--,171,72
"Protein",g,--,--,8.01,3.38
"Total lipid (fat)",g,--,--,9.01,3.80
"Carbohydrate, by difference",g,--,--,16.99,7.17
"Fiber, total dietary",g,--,--,0.0,0.0
"Sugars, total",g,--,--,16.99,7.17
Minerals
"Calcium, Ca",mg,--,--,249,105
"Iron, Fe",mg,--,--,0.00,0.00
"Potassium, K",mg,--,--,339,143
"Sodium, Na",mg,--,--,109,46
Vitamins
"Vitamin C, total ascorbic acid",mg,--,--,3.6,1.5
"Vitamin A, IU",IU,--,--,301,127
Lipids
"Fatty acids, total saturated",g,--,--,5.001,2.110
"Fatty acids, total trans",g,--,--,0.000,0.000
"Cholesterol",mg,--,--,31,13
Amino Acids
Other
Ingredients
"ORGANIC PASTEURIZED NON-HOMOGENIZED WHOLE MILK, ORGANIC CANE SUGAR, ORGANIC BLUEBERRIES, ACTIVE CULTURES. PROBIOTIC STRAINS: STREPTOCOCCUS THERMOPHILUS, BIFIDOBACTERIUM ANIMALIS BB-12, LACTOBACILLUS ACIDOPHILUS LA-5, L. PARACASEI, PROPIONIBACTERIUM FREUDENREICHII." Date available: 10/12/2016 Date last updated by company: 10/12/2016
