Source: USDA Branded Food Products Database Release December 2017 Software v.3.8.6.4 2017-10-02
Report Run at: December 19, 2017 05:01 EST
"Nutrient data for: 45176939, DAILY CHEF, PUMPKIN TEA CAKES, PUMPKIN SPICE, UPC: 078742107943"
Food Group:  Branded Food Products Database
Common Name:

Nutrient,Unit,Data points,Std. Error,"3.0 TEA CAKES = 85.0g",1Value per 100 g,
Proximates
"Energy",kcal,--,--,350,412
"Protein",g,--,--,3.00,3.53
"Total lipid (fat)",g,--,--,19.00,22.35
"Carbohydrate, by difference",g,--,--,42.00,49.41
"Fiber, total dietary",g,--,--,1.0,1.2
"Sugars, total",g,--,--,29.00,34.12
Minerals
"Calcium, Ca",mg,--,--,40,47
"Iron, Fe",mg,--,--,1.59,1.87
"Sodium, Na",mg,--,--,240,282
Vitamins
"Vitamin C, total ascorbic acid",mg,--,--,0.0,0.0
"Vitamin A, IU",IU,--,--,0,0
Lipids
"Fatty acids, total saturated",g,--,--,6.001,7.060
"Fatty acids, total trans",g,--,--,0.000,0.000
"Cholesterol",mg,--,--,40,47
Amino Acids
Other
Ingredients
"MIX (SUGAR, ENRICHED WHEAT FLOUR BLEACHED [FLOUR, NIACIN, REDUCED IRON, THIAMINE MONONITRATE, RIBOFLAVIN, FOLIC ACID], MODIFIED FOOD STARCH, SOYBEAN OIL, WHEY, LEAVENING [SODIUM ALUMINUM PHOSPHATE, BAKING SODA], SALT, VITAL WHEAT GLUTEN, PROPYLENE GLYCOL MONO-AND DIESTERS OF FATTY ACIDS, MONO- AND DIGLYCERIDES, SODIUM STEAROYL LACTYLATE, DEXTROSE, CORN STARCH, TRICALCIUM PHOSPHATE, SOY FLOUR, EGGS, NATURAL AND ARTIFICIAL FLAVOR, WATER, ASCORBIC ACID ADDED AS A DOUGH CONDITIONER, ALPHA-TOCOPHEROL PRESERVATIVE, CITRIC ACID), SOYBEAN OIL, PUMPKIN FLAVORED CONFECTIONERY (SUGAR, PALM KERNEL OIL, NONFAT MILK, MILK, ARTIFICIAL COLOR [YELLOW 6 LAKE, YELLOW 5 LAKE, BLUE 2 LAKE], SOY LECITHIN, NATURAL FLAVOR, SALT), WHOLE EGGS, PECANS (SUGAR, PECANS, CORN SYRUP, BUTTER [CREAM, SALT]) WHITE CONFECTIONERY (SUGAR, PARTIALLY HYDROGENATED PALM KERNEL OIL, REDUCED MINERAL, WHEY, MILK, NONFAT MILK , SOY LECITHIN, SALT, ARTIFICIAL FLAVOR), WATER, PUMPKIN PUREE, CONTAINS LESS THAN 2% OF CORN SYRUP, ENRICHED WHEAT FLOUR (FLOUR, NIACIN, REDUCED IRON, THIAMINE MONONITRATE, RIBOFLAVIN, FOLIC ACID), ENZYME BLEND (WHEAT FLOUR, SALT, ENZYMES), MOLASSES, POTASSIUM SORBATE (PRESERVATIVE), SPICES, VINEGAR." Date available: 07/14/2017 Date last updated by company: 07/14/2017
