Source: USDA Branded Food Products Database Release December 2017 Software v.3.8.6.4 2017-10-02
Report Run at: December 19, 2017 05:00 EST
"Nutrient data for: 45176938, DAILY CHEF FOOD SERVICE, SALTED SWEET CREAM BUTTER, UPC: 078742104492"
Food Group:  Branded Food Products Database
Common Name:

Nutrient,Unit,Data points,Std. Error,"1 Tbsp = 14.0g",1Value per 100 g,
Proximates
"Energy",kcal,--,--,100,714
"Protein",g,--,--,0.00,0.00
"Total lipid (fat)",g,--,--,11.00,78.57
"Carbohydrate, by difference",g,--,--,0.00,0.00
Minerals
"Sodium, Na",mg,--,--,90,643
Vitamins
"Vitamin A, IU",IU,--,--,1353,9661
Lipids
"Fatty acids, total saturated",g,--,--,7.000,50.000
"Fatty acids, total monounsaturated",g,--,--,3.000,21.430
"Fatty acids, total polyunsaturated",g,--,--,0.000,0.000
"Fatty acids, total trans",g,--,--,0.000,0.000
"Cholesterol",mg,--,--,30,214
Amino Acids
Other
Ingredients
"PASTEURIZED CREAM, SALT." Date available: 07/14/2017 Date last updated by company: 07/14/2017
