Source: USDA Branded Food Products Database Release December 2017 Software v.3.8.6.4 2017-10-02
Report Run at: December 19, 2017 05:05 EST
"Nutrient data for: 45185991, DAIRYLICIOUS, FROZEN DAIRY DESSERT, NEAPOLITAN, UPC: 737212458656"
Food Group:  Branded Food Products Database
Common Name:

Nutrient,Unit,Data points,Std. Error,"0.5 cup = 56.0g",1Value per 100 g,
Proximates
"Energy",kcal,--,--,90,161
"Protein",g,--,--,2.00,3.57
"Total lipid (fat)",g,--,--,2.00,3.57
"Carbohydrate, by difference",g,--,--,17.00,30.36
"Fiber, total dietary",g,--,--,0.0,0.0
"Sugars, total",g,--,--,13.00,23.21
Minerals
"Calcium, Ca",mg,--,--,60,107
"Iron, Fe",mg,--,--,0.00,0.00
"Sodium, Na",mg,--,--,45,80
Vitamins
"Vitamin C, total ascorbic acid",mg,--,--,2.6,4.6
"Vitamin A, IU",IU,--,--,214,383
Lipids
"Fatty acids, total saturated",g,--,--,1.501,2.680
"Fatty acids, total trans",g,--,--,0.000,0.000
"Cholesterol",mg,--,--,10,18
Amino Acids
Other
Ingredients
"VANILLA - MILK, SUGAR, CORN SYRUP, CREAM, HIGH FRUCTOSE CORN SYRUP, NONFAT MILK, WHEY, MALTODEXTRIN, WHEY PROTEIN CONCENTRATE, ARTIFICIAL FLAVOR, ANNATTO (FOR COLOR), CELLULOSE GEL, CELLULOSE GUM, PROPYLENE GLYCOL MONOESTERS, MONO- & DIGLYCERIDES, GUAR GUM, HYDROXYPROPYL METHYLCELLULOSE (MODIFIED CELLULOSE), CARRAGEENAN. STRAWBERRY - MILK, SUGAR, CORN SYRUP, CREAM, HIGH FRUCTOSE CORN SYRUP, STRAWBERRIES, NONFAT MILK, WHEY, MALTODEXTRIN, WHEY PROTEIN CONCENTRATE, NATURAL AND ARTIFICIAL FLAVOR, ANNATTO (FOR COLOR), CELLULOSE GEL, CELLULOSE GUM, PROPYLENE GLYCOL MONOESTERS, MONO- & DIGLYCERIDES, GUAR GUM, CITRIC ACID, XANTHAN GUM, HYDROXYPROPYL METHYLCELLULOSE (MODIFIED CELLULOSE), CARRAGEENAN, RED 3, RED 40, BLUE 1, YELLOW 6. CHOCOLATE - MILK, SUGAR, CORN SYRUP, CREAM, HIGH FRUCTOSE CORN SYRUP, WHEY, COCOA PROCESSED WITH ALKALI, WHEY PROTEIN CONCENTRATE, NONFAT DRY MILK, CELLULOSE GEL, CELLULOSE GUM, PROPYLENE GLYCOL MONOESTERS, MONO- & DIGLYCERIDES, GUAR GUM, HYDROXYPROPYL METHYLCELLULOSE (MODIFIED CELLULOSE), CARRAGEENAN." Date available: 07/14/2017 Date last updated by company: 07/14/2017
