Source: USDA Branded Food Products Database Release December 2017 Software v.3.8.6.4 2017-10-02
Report Run at: December 19, 2017 05:06 EST
"Nutrient data for: 45289678, DAIRY WHIPPED TOPPING, UPC: 717544207757"
Food Group:  Branded Food Products Database
Common Name:

Nutrient,Unit,Data points,Std. Error,"13.0 OZ. = 5.0g",1Value per 100 g,
Proximates
"Energy",kcal,--,--,15,300
"Protein",g,--,--,0.00,0.00
"Total lipid (fat)",g,--,--,1.00,20.00
"Carbohydrate, by difference",g,--,--,1.00,20.00
"Fiber, total dietary",g,--,--,0.0,0.0
"Sugars, total",g,--,--,1.00,20.00
Minerals
"Calcium, Ca",mg,--,--,0,0
"Iron, Fe",mg,--,--,0.00,0.00
"Sodium, Na",mg,--,--,0,0
Vitamins
"Vitamin C, total ascorbic acid",mg,--,--,0.0,0.0
"Vitamin A, IU",IU,--,--,0,0
Lipids
"Fatty acids, total saturated",g,--,--,0.500,10.000
"Fatty acids, total trans",g,--,--,0.000,0.000
"Cholesterol",mg,--,--,5,100
Amino Acids
Other
Ingredients
"CREAM, MILK, SUGAR, WATER, CORN SYRUP, NONFAT MILK, CONTAINS LESS THAN 1% OF: MONO AND DIGLYCERIDES, CARRAGEENAN, NATURAL AND ARTIFICIAL FLAVOR." Date available: 10/06/2017 Date last updated by company: 10/06/2017
