Source: USDA Branded Food Products Database Release December 2017 Software v.3.8.6.4 2017-10-02
Report Run at: December 19, 2017 05:04 EST
"Nutrient data for: 45276468, DAIRY FREE SOUR CREAM, UPC: 845681000648"
Food Group:  Branded Food Products Database
Common Name:

Nutrient,Unit,Data points,Std. Error,"2.0 Tbsp = 28.0g",1Value per 100 g,
Proximates
"Energy",kcal,--,--,35,125
"Protein",g,--,--,0.00,0.00
"Total lipid (fat)",g,--,--,3.00,10.71
"Carbohydrate, by difference",g,--,--,2.00,7.14
"Fiber, total dietary",g,--,--,1.0,3.6
"Sugars, total",g,--,--,0.00,0.00
Minerals
"Calcium, Ca",mg,--,--,50,179
"Iron, Fe",mg,--,--,0.00,0.00
"Sodium, Na",mg,--,--,85,304
Vitamins
"Vitamin C, total ascorbic acid",mg,--,--,0.0,0.0
"Vitamin A, IU",IU,--,--,0,0
Lipids
"Fatty acids, total saturated",g,--,--,2.500,8.930
"Fatty acids, total trans",g,--,--,0.000,0.000
"Cholesterol",mg,--,--,0,0
Amino Acids
Other
Ingredients
"(VEGAN AND NON-GMO): WAYFARE DAIRY FREE BASE (WATER, ORGANIC BUTTER BEANS, ORGANIC OATS), VEGETABLE OIL BLEND (COCONUT AND SAFFLOWER), GUM ARABIC, KONJAC ROOT POWDER, SEA SALT, CULTURED DEXTROSE, CALCIUM CITRATE, WAYFARE NATURAL FLAVORS, CITRIC AND LACTIC (VEGAN) ACID, SUNFLOWER LECITHIN." Date available: 07/14/2017 Date last updated by company: 07/14/2017
