Source: USDA Branded Food Products Database Release December 2017 Software v.3.8.6.4 2017-10-02
Report Run at: December 19, 2017 05:07 EST
"Nutrient data for: 45023819, DAKOTA'S PRIDE, PORK & BEANS IN TOMATO SAUCE, UPC: 041498120450"
Food Group:  Branded Food Products Database
Common Name:

Nutrient,Unit,Data points,Std. Error,"0.5 cup = 129.0g",1Value per 100 g,
Proximates
"Energy",kcal,--,--,130,101
"Protein",g,--,--,6.00,4.65
"Total lipid (fat)",g,--,--,2.00,1.55
"Carbohydrate, by difference",g,--,--,21.99,17.05
"Fiber, total dietary",g,--,--,6.1,4.7
"Sugars, total",g,--,--,5.01,3.88
Minerals
"Calcium, Ca",mg,--,--,40,31
"Iron, Fe",mg,--,--,3.04,2.36
"Sodium, Na",mg,--,--,440,341
Vitamins
"Vitamin C, total ascorbic acid",mg,--,--,0.0,0.0
"Vitamin A, IU",IU,--,--,212,164
Lipids
"Fatty acids, total saturated",g,--,--,0.503,0.390
"Fatty acids, total trans",g,--,--,0.000,0.000
"Cholesterol",mg,--,--,6,5
Amino Acids
Other
Ingredients
"PREPARED NAVY BEANS, WATER, SUGAR, TOMATO PASTE, SALT, VINEGAR, MODIFIED FOOD STARCH, SPICES, PAPRIKA, PORK, DEXTROSE, PARTIALLY HYDROGENATED SOYBEAN OIL, NATURAL FLAVORS." Date available: 08/30/2017 Date last updated by company: 08/30/2017
