Source: USDA Branded Food Products Database Release December 2017 Software v.3.8.6.4 2017-10-02
Report Run at: December 19, 2017 05:09 EST
"Nutrient data for: 45160607, DANCING DEER BAKING CO, SWEET SHORTBREAD, ESPRESSO CHOCOLATE CHIP, UPC: 674971172068"
Food Group:  Branded Food Products Database
Common Name:

Nutrient,Unit,Data points,Std. Error,"2.0 COOKIES = 28.0g",1Value per 100 g,
Proximates
"Energy",kcal,--,--,140,500
"Protein",g,--,--,2.00,7.14
"Total lipid (fat)",g,--,--,8.00,28.57
"Carbohydrate, by difference",g,--,--,16.00,57.14
"Fiber, total dietary",g,--,--,1.0,3.6
"Sugars, total",g,--,--,7.00,25.00
Minerals
"Calcium, Ca",mg,--,--,0,0
"Iron, Fe",mg,--,--,0.00,0.00
"Sodium, Na",mg,--,--,55,196
Vitamins
"Vitamin C, total ascorbic acid",mg,--,--,0.0,0.0
"Vitamin A, IU",IU,--,--,0,0
Lipids
"Fatty acids, total saturated",g,--,--,5.001,17.860
"Fatty acids, total trans",g,--,--,0.000,0.000
"Cholesterol",mg,--,--,25,89
Amino Acids
Other
Ingredients
"ALL NATURAL INGREDIENTS: UNBLEACHED UNBROMATED WHEAT FLOUR (WHEAT FLOUR, MALTED BARLEY FLOUR, NIACIN, IRON, THIAMIN MONONITRATE, RIBOFLAVIN FOLIC ACID), BUTTER (MILK), CANE SUGAR, SEMI-SWEET CHOCOLATE (SUGAR, UNSWEETENED CHOCOLATE, COCOA BUTTER, SOY LECITHIN (AN EMULSIFIER), NATURAL VANILLA EXTRACT), CAGE-FREE EGGS, PINK SEA SALT, GROUND ESPRESSO BEANS, BAKING SODA, VANILLA EXTRACT (WATER, ALCOHOL, NATURAL GLYCERINE)" Date available: 07/14/2017 Date last updated by company: 07/14/2017
