Source: USDA Branded Food Products Database Release December 2017 Software v.3.8.6.4 2017-10-02
Report Run at: December 19, 2017 05:09 EST
"Nutrient data for: 45165638, DANCING DEER BAKING CO, DESSERT BITES, CARAMEL APPLE, UPC: 674971524041"
Food Group:  Branded Food Products Database
Common Name:

Nutrient,Unit,Data points,Std. Error,"3.0 BITES = 42.0g",1Value per 100 g,
Proximates
"Energy",kcal,--,--,170,405
"Protein",g,--,--,2.00,4.76
"Total lipid (fat)",g,--,--,5.00,11.90
"Carbohydrate, by difference",g,--,--,27.00,64.29
"Fiber, total dietary",g,--,--,0.0,0.0
"Sugars, total",g,--,--,16.00,38.10
Minerals
"Calcium, Ca",mg,--,--,20,48
"Iron, Fe",mg,--,--,1.29,3.06
"Sodium, Na",mg,--,--,95,226
Vitamins
"Vitamin C, total ascorbic acid",mg,--,--,0.0,0.0
"Vitamin A, IU",IU,--,--,0,0
Lipids
"Fatty acids, total saturated",g,--,--,2.999,7.140
"Fatty acids, total trans",g,--,--,0.000,0.000
"Cholesterol",mg,--,--,35,83
Amino Acids
Other
Ingredients
"UNBLEACHED UNBROMATED WHEAT FLOUR (WHEAT FLOUR, MALTED BARLEY FLOUR, NIACIN, IRON, THIAMIN MONONITRATE, RIBOFLAVIN, FOLIC ACID), BROWN SUGAR, CAGE-FREE EGGS, CANE SUGAR, BUTTER (MILK), CARAMEL (CORN SYRUP, SUGAR, WHIPPING CREAM, EVAPORATED MILK, SOY LECITHIN, VANILLA, SALT), APPLES, LEMON JUICE, CINNAMON, NON-GMO BAKING POWDER (SODIUM ACID PYROPHOSPHATE, SODIUM BICARBONATE, CORN STARCH, MONOCALCIUM PHOSPHATE, CALCIUM SULFATE), PINK SEA SALT, APPLE FLAVOR (ORGANIC SUNFLOWER OIL, VITAMIN E), VANILLA EXTRACT (VANILLA BEAN WATER, ALCOHOL, INVERT SYRUP)." Date available: 07/14/2017 Date last updated by company: 07/14/2017
