Source: USDA Branded Food Products Database Release December 2017 Software v.3.8.6.4 2017-10-02
Report Run at: December 19, 2017 05:10 EST
"Nutrient data for: 45159465, DANG, TOASTED COCONUT CHIPS, LIGHTLY SALTED, UPC: 859908003039"
Food Group:  Branded Food Products Database
Common Name:

Nutrient,Unit,Data points,Std. Error,"1 ONZ = 28.0g",1Value per 100 g,
Proximates
"Energy",kcal,--,--,200,714
"Protein",g,--,--,2.00,7.14
"Total lipid (fat)",g,--,--,17.00,60.71
"Carbohydrate, by difference",g,--,--,10.00,35.71
"Fiber, total dietary",g,--,--,5.0,17.9
"Sugars, total",g,--,--,3.00,10.71
Minerals
"Calcium, Ca",mg,--,--,0,0
"Iron, Fe",mg,--,--,1.29,4.59
"Sodium, Na",mg,--,--,190,679
Vitamins
"Vitamin C, total ascorbic acid",mg,--,--,0.0,0.0
"Vitamin A, IU",IU,--,--,0,0
Lipids
"Fatty acids, total saturated",g,--,--,15.000,53.570
"Fatty acids, total trans",g,--,--,0.000,0.000
"Cholesterol",mg,--,--,0,0
Amino Acids
Other
Ingredients
"COCONUT, SEA SALT" Date available: 07/14/2017 Date last updated by company: 07/14/2017
