Source: USDA Branded Food Products Database Release December 2017 Software v.3.8.6.4 2017-10-02
Report Run at: December 19, 2017 05:11 EST
"Nutrient data for: 45032311, DANISH CHOICE, APPLE PIE FILLING, UPC: 840923002138"
Food Group:  Branded Food Products Database
Common Name:

Nutrient,Unit,Data points,Std. Error,"1 cup = 92.0g",1Value per 100 g,
Proximates
"Energy",kcal,--,--,80,87
"Protein",g,--,--,1.00,1.09
"Total lipid (fat)",g,--,--,0.00,0.00
"Carbohydrate, by difference",g,--,--,19.00,20.65
"Sugars, total",g,--,--,15.00,16.30
Minerals
"Sodium, Na",mg,--,--,0,0
Vitamins
Lipids
Amino Acids
Other
Ingredients
"APPLES (60%), SUGAR, WATER, GELLING AGENT: MODIFIED MAIZE STARCH, ACIDITY REGULATOR: CITRIC ACID, PRESERVATIVE: POTASSIUM SORBATE, VANILLA SUGAR (SUGAR, NATURAL VANILLA AND VANILLA FLAVOR), ANTIOXIDANT: ASCORBIC ACID" Date available: 10/13/2017 Date last updated by company: 10/13/2017
