Source: USDA Branded Food Products Database Release December 2017 Software v.3.8.6.4 2017-10-02
Report Run at: December 19, 2017 05:11 EST
"Nutrient data for: 45112253, DANISH PASTRIES, UPC: 024300044502"
Food Group:  Branded Food Products Database
Common Name:

Nutrient,Unit,Data points,Std. Error,"1 PASTRY = 57.0g",1Value per 100 g,
Proximates
"Energy",kcal,--,--,220,386
"Protein",g,--,--,3.00,5.26
"Total lipid (fat)",g,--,--,9.00,15.79
"Carbohydrate, by difference",g,--,--,31.00,54.39
"Fiber, total dietary",g,--,--,1.0,1.8
"Sugars, total",g,--,--,17.00,29.82
Minerals
"Calcium, Ca",mg,--,--,100,175
"Iron, Fe",mg,--,--,1.04,1.83
"Sodium, Na",mg,--,--,200,351
Vitamins
"Vitamin C, total ascorbic acid",mg,--,--,0.0,0.0
"Vitamin A, IU",IU,--,--,290,508
Lipids
"Fatty acids, total saturated",g,--,--,4.999,8.770
"Fatty acids, total trans",g,--,--,0.000,0.000
"Cholesterol",mg,--,--,5,9
Amino Acids
Other
Ingredients
"ENRICHED BLEACHED FLOUR (WHEAT FLOUR, NIACIN, REDUCED IRON, THIAMIN MONONITRATE [VITAMIN B1], RIBOFLAVIN [VITAMIN B2], FOLIC ACID), SUGAR, WATER, MARGARINE (PALM OIL, WATER, SALT, MONOGLYCERIDES, WHEY, SODIUM BENZOATE [PRESERVATIVE], NATURAL AND ARTIFICIAL FLAVOR, CITRIC ACID, BETA CAROTENE COLOR, VITAMIN A PALMITATE), CHERRIES. CONTAINS 2% OR LESS OF EACH OF THE FOLLOWING: SOYBEAN OIL, EGGS, YEAST, PALM OIL, DEXTROSE, EGG WHITES, PASTEURIZED CULTURED CREAM AND MILK, SALT, EMULSIFIERS (MONO- AND DIGLYCERIDES, SODIUM STEAROYL LACTYLATE), CALCIUM CARBONATE, MODIFIED CORN AND TAPIOCA STARCHES, CORN STARCH, HIGH FRUCTOSE CORN SYRUP, CALCIUM PROPIONATE AND POTASSIUM SORBATE AND SODIUM BENZOATE AND SORBIC ACID AND TOCOPHEROLS TO RETAIN FRESHNESS, DEFATTED ENZYME-ACTIVE SOY FLOUR, CORN SYRUP, GUAR AND CELLULOSE AND XANTHAN AND LOCUST BEAN GUMS, MILK BLEND (NONFAT MILK, WHEY), CITRIC ACID, WHEAT GLUTEN, NATURAL AND ARTIFICIAL FLAVORS, LEAVENING (BAKING SODA, SODIUM ACID PYROPHOSPHATE), WHEAT FLOUR, SODIUM CASEINATE, AGAR, LACTOSE, CALCIUM SULFATE, FUMARIC ACID, SODIUM HEXAMETAPHOSPHATE, COLORS (TITANIUM DIOXIDE, RED 40, BETA CAROTENE, BLUE 1), AMMONIUM SULFATE, ENZYMES, PECTIN, CARRAGEENAN, ASCORBIC ACID (ADDED AS A DOUGH CONDITIONER), SODIUM PHOSPHATE, LACTIC ACID, MONOCALCIUM PHOSPHATE, SODIUM CITRATE, MALTED BARLEY FLOUR, SOY LECITHIN, GLYCERIN." Date available: 07/14/2017 Date last updated by company: 07/14/2017
