Source: USDA Branded Food Products Database Release December 2017 Software v.3.8.6.4 2017-10-02
Report Run at: December 19, 2017 05:11 EST
"Nutrient data for: 45135571, DANISH CHEESE, UPC: 085239455241"
Food Group:  Branded Food Products Database
Common Name:

Nutrient,Unit,Data points,Std. Error,"0.125 CAKE = 50.0g",1Value per 100 g,
Proximates
"Energy",kcal,--,--,170,340
"Protein",g,--,--,3.00,6.00
"Total lipid (fat)",g,--,--,9.00,18.00
"Carbohydrate, by difference",g,--,--,19.00,38.00
"Fiber, total dietary",g,--,--,1.0,2.0
"Sugars, total",g,--,--,8.00,16.00
Minerals
"Calcium, Ca",mg,--,--,20,40
"Iron, Fe",mg,--,--,0.79,1.58
"Sodium, Na",mg,--,--,210,420
Vitamins
"Vitamin C, total ascorbic acid",mg,--,--,0.0,0.0
"Vitamin A, IU",IU,--,--,330,660
Lipids
"Fatty acids, total saturated",g,--,--,4.000,8.000
"Fatty acids, total trans",g,--,--,0.000,0.000
"Cholesterol",mg,--,--,15,30
Amino Acids
Other
Ingredients
"ENRICHED WHEAT FLOUR (WHEAT FLOUR, NIACIN, REDUCED IRON, THIAMINE MONONITRATE, RIBOFLAVIN AND FOLIC ACID), MARGARINE [PALM OIL, SOYBEAN OIL, WATER, SALT, VEGETABLE MONOGLYCERIDES, SOY LECITHIN, SODIUM BENZOATE AND CITRIC ACID (PRESERVATIVES), ARTIFICIAL FLAVOR, BETA CAROTENE (COLOR), VITAMIN A PALMITATE ADDED], NEUFCHATEL CHEESE BLEND [MILK, NEUFCHATEL CHEESE (PASTEURIZED MILK AND CREAM, CHEESE CULTURE, SALT, CAROB BEAN GUM), SKIM MILK, PALM OIL, MILK PROTEIN CONCENTRATE, CHEESE CULTURES, SALT, CAROB BEAN GUM, LACTIC ACID, MONO- AND DIGLYCERIDES, CITRIC ACID AS A PRESERVATIVE, APOCAROTENAL (COLOR)], WATER, WHOLE EGGS, POWDERED SUGAR (SUGAR, CORNSTARCH), SUGAR, HIGH FRUCTOSE CORN SYRUP, EMULSIFIER [WATER AND MONOGLYCERIDES WITH PROPIONIC ACID AND PHOSPHORIC ACID (PRESERVATIVES)]. CONTAINS LESS THAN 2% OF EACH OF THE FOLLOWING: CORN SYRUP, YEAST, SALT, FOOD STARCH-MODIFIED, PALM OIL WITH SOYA LECITHIN, MICROCRYSTALLINE CELLULOSE, LEMON JUICE FROM CONCENTRATE (WATER, CONCENTRATED LEMON JUICE), TAPIOCA DEXTRIN, SODIUM STEAROYL LACTYLATE, ARTIFICIAL FLAVOR, LACTIC ACID POWDER, CALCIUM LACTATE, CASEIN, NON-FAT MILK AND WHEY SOLIDS, AGAR, DEXTROSE, ARTIFICIAL COLOR, SODIUM BICARBONATE, XANTHAN GUM, ASCORBIC ACID, POTASSIUM SORBATE (PRESERVATIVE)." Date available: 07/14/2017 Date last updated by company: 07/14/2017
