Source: USDA Branded Food Products Database Release December 2017 Software v.3.8.6.4 2017-10-02
Report Run at: December 19, 2017 05:15 EST
"Nutrient data for: 45022157, DANNON, DANONINO, DAIRY SNACK, STRAWBERRY, UPC: 036632055903"
Food Group:  Branded Food Products Database
Common Name:

Nutrient,Unit,Data points,Std. Error,"1 CONTAINER = 50.0g",1Value per 100 g,
Proximates
"Energy",kcal,--,--,60,120
"Protein",g,--,--,3.00,6.00
"Total lipid (fat)",g,--,--,2.00,4.00
"Carbohydrate, by difference",g,--,--,7.00,14.00
"Fiber, total dietary",g,--,--,0.0,0.0
"Sugars, total",g,--,--,7.00,14.00
Minerals
"Calcium, Ca",mg,--,--,200,400
"Iron, Fe",mg,--,--,0.00,0.00
"Phosphorus, P",mg,--,--,272,544
"Potassium, K",mg,--,--,70,140
"Sodium, Na",mg,--,--,25,50
Vitamins
"Vitamin C, total ascorbic acid",mg,--,--,0.0,0.0
"Riboflavin",mg,--,--,0.255,0.510
"Vitamin A, IU",IU,--,--,0,0
"Vitamin D",IU,--,--,24,48
Lipids
"Fatty acids, total saturated",g,--,--,1.000,2.000
"Fatty acids, total trans",g,--,--,0.000,0.000
"Cholesterol",mg,--,--,5,10
Amino Acids
Other
Ingredients
"CULTURED GRADE A MILK, SUGAR, WATER, MILK PROTEIN CONCENTRATE, CONTAINS LESS THAN 1% OF CALCIUM CITRATE, MODIFIED FOOD STARCH, MODIFIED CORN STARCH, NATURAL FLAVOR, VEGETABLE JUICE (FOR COLOR), HYDROLYZED CASEIN, GUAR GUM, MALIC ACID, SODIUM CITRATE, VITAMIN D3, CHYMOSIN." Date available: 07/14/2017 Date last updated by company: 07/14/2017
