Source: USDA Branded Food Products Database Release December 2017 Software v.3.8.6.4 2017-10-02
Report Run at: December 19, 2017 05:14 EST
"Nutrient data for: 45038440, DANNON, ACTIVIA, PROBIOTIC NONFAT GREEK YOGURT, BLUEBERRY, UPC: 036632028068"
Food Group:  Branded Food Products Database
Common Name:

Nutrient,Unit,Data points,Std. Error,"1 CONTAINER = 150.0g",1Value per 100 g,
Proximates
"Energy",kcal,--,--,120,80
"Protein",g,--,--,12.00,8.00
"Total lipid (fat)",g,--,--,0.00,0.00
"Carbohydrate, by difference",g,--,--,18.00,12.00
"Fiber, total dietary",g,--,--,0.0,0.0
"Sugars, total",g,--,--,17.00,11.33
Minerals
"Calcium, Ca",mg,--,--,150,100
"Iron, Fe",mg,--,--,0.00,0.00
"Potassium, K",mg,--,--,200,133
"Sodium, Na",mg,--,--,60,40
Vitamins
"Vitamin C, total ascorbic acid",mg,--,--,0.0,0.0
"Vitamin A, IU",IU,--,--,0,0
"Vitamin D",IU,--,--,60,40
Lipids
"Fatty acids, total saturated",g,--,--,0.000,0.000
"Fatty acids, total trans",g,--,--,0.000,0.000
"Cholesterol",mg,--,--,4,3
Amino Acids
Other
Ingredients
"CULTURED GRADE A NON FAT MILK, SUGAR, WATER, BLUEBERRY PUREE, CONTAINS LESS THAN 1% OF MODIFIED FOOD STARCH, NATURAL FLAVORS, CARRAGEENAN, CARMINE (FOR COLOR), SODIUM CITRATE, VITAMIN D3, MALIC ACID. CONTAINS THE ACTIVE CULTURES L.BULGARICUS, S.THERMOPHILUS AND BIFIDOBACTERIUM LACTIS DN 173-010 (BIFIDUS REGULARIS)" Date available: 07/14/2017 Date last updated by company: 07/14/2017
