Source: USDA Branded Food Products Database Release December 2017 Software v.3.8.6.4 2017-10-02
Report Run at: December 19, 2017 05:13 EST
"Nutrient data for: 45087226, DANNON, ACTIVIA, LIGHT PROBIOTIC NONFAT YOGURT, RASPBERRY, UPC: 036632026392"
Food Group:  Branded Food Products Database
Common Name:

Nutrient,Unit,Data points,Std. Error,"1 CONTAINER = 113.0g",1Value per 100 g,
Proximates
"Energy",kcal,--,--,60,53
"Protein",g,--,--,4.00,3.54
"Total lipid (fat)",g,--,--,0.00,0.00
"Carbohydrate, by difference",g,--,--,10.00,8.85
"Fiber, total dietary",g,--,--,2.0,1.8
"Sugars, total",g,--,--,6.99,6.19
Minerals
"Calcium, Ca",mg,--,--,150,133
"Sodium, Na",mg,--,--,75,66
Vitamins
Lipids
"Fatty acids, total saturated",g,--,--,0.000,0.000
"Cholesterol",mg,--,--,5,4
Amino Acids
Other
Ingredients
"CULTURED GRADE A NON FAT MILK, WATER, RASPBERRY PUREE, MODIFIED FOOD STARCH, CONTAINS LESS THAN 1% OF INULIN, ACACIA GUM, MODIFIED CORN STARCH, KOSHER GELATIN, NATURAL FLAVOR, CARMINE (FOR COLOR), PECTIN, SODIUM CITRATE, SUCRALOSE, CALCIUM LACTATE, ACESULFAME POTASSIUM, MALIC ACID, XANTHAN GUM. CONTAINS THE ACTIVE CULTURES L.BULGARICUS, S.THERMOPHILUS AND BIFIDOBACTERIUM LACTIS DN 173-010 (BIFIDUS REGULARIS)." Date available: 09/06/2017 Date last updated by company: 09/06/2017
