Source: USDA Branded Food Products Database Release December 2017 Software v.3.8.6.4 2017-10-02
Report Run at: December 19, 2017 05:15 EST
"Nutrient data for: 45259251, DANNON, DANIMALS, SMOOTHIE, FROSTY MARSHMALLOW, UPC: 036632027481"
Food Group:  Branded Food Products Database
Common Name:

Nutrient,Unit,Data points,Std. Error,"1 BOTTLE = 93.0g",1Value per 100 g,
Proximates
"Energy",kcal,--,--,60,65
"Protein",g,--,--,2.00,2.15
"Total lipid (fat)",g,--,--,0.50,0.54
"Carbohydrate, by difference",g,--,--,10.00,10.75
"Sugars, total",g,--,--,10.00,10.75
Minerals
"Calcium, Ca",mg,--,--,100,108
"Phosphorus, P",mg,--,--,206,222
"Potassium, K",mg,--,--,105,113
"Sodium, Na",mg,--,--,40,43
Vitamins
"Riboflavin",mg,--,--,0.351,0.377
"Vitamin D",IU,--,--,40,43
Lipids
"Fatty acids, total saturated",g,--,--,0.000,0.000
"Fatty acids, total trans",g,--,--,0.000,0.000
"Cholesterol",mg,--,--,5,5
Amino Acids
Other
Ingredients
"CULTURED GRADE A LOW FAT MILK, WATER, SUGAR, CONTAINS LESS THAN 1% OF MODIFIED FOOD STARCH, WHEY MINERAL COMPLEX, AGAR AGAR, PECTIN, NATURAL FLAVORS, MALIC ACID, POTASSIUM SORBATE (TO MAINTAIN FRESHNESS), SODIUM CITRATE, VITAMIN D3." Date available: 09/06/2017 Date last updated by company: 09/06/2017
