Source: USDA Branded Food Products Database Release December 2017 Software v.3.8.6.4 2017-10-02
Report Run at: December 19, 2017 05:15 EST
"Nutrient data for: 45038380, DANNON, DANIMALS, SQUEEZABLES LOWFAT YOGURT, SWINGIN' STRAWBERRY BANANA, UPC: 036632010094"
Food Group:  Branded Food Products Database
Common Name:

Nutrient,Unit,Data points,Std. Error,"1 POUCH = 113.0g",1Value per 100 g,
Proximates
"Energy",kcal,--,--,90,80
"Protein",g,--,--,4.00,3.54
"Total lipid (fat)",g,--,--,1.50,1.33
"Carbohydrate, by difference",g,--,--,16.00,14.16
"Sugars, total",g,--,--,14.00,12.39
Minerals
"Calcium, Ca",mg,--,--,150,133
"Iron, Fe",mg,--,--,2.71,2.40
"Potassium, K",mg,--,--,190,168
"Sodium, Na",mg,--,--,66,58
Vitamins
"Vitamin D",IU,--,--,40,35
Lipids
"Fatty acids, total saturated",g,--,--,0.994,0.880
"Fatty acids, total trans",g,--,--,0.000,0.000
"Cholesterol",mg,--,--,5,4
Amino Acids
Other
Ingredients
"CULTURED GRADE A LOW FAT MILK, SUGAR, WATER, MODIFIED FOOD STARCH, CONTAINS LESS THAN 1% OF MODIFIED TAPIOCA STARCH, KOSHER GELATIN, NATURAL FLAVORS, CALCIUM CITRATE, BLACK CARROT JUICE AND BETA CAROTENE (FOR COLOR), CITRIC ACID, POTASSIUM SORBATE (TO MAINTAIN FRESHNESS), VITAMIN D3, SODIUM CITRATE." Date available: 09/13/2017 Date last updated by company: 09/13/2017
