Source: USDA Branded Food Products Database Release December 2017 Software v.3.8.6.4 2017-10-02
Report Run at: December 19, 2017 05:19 EST
"Nutrient data for: 45082248, DANNON, OIKOS, GREEK FROZEN YOGURT, BLACK CHERRY, UPC: 036632008268"
Food Group:  Branded Food Products Database
Common Name:

Nutrient,Unit,Data points,Std. Error,"0.5 cup = 89.0g",1Value per 100 g,
Proximates
"Energy",kcal,--,--,150,169
"Protein",g,--,--,6.00,6.74
"Total lipid (fat)",g,--,--,2.50,2.81
"Carbohydrate, by difference",g,--,--,27.00,30.34
"Fiber, total dietary",g,--,--,0.0,0.0
"Sugars, total",g,--,--,21.00,23.60
Minerals
"Calcium, Ca",mg,--,--,200,225
"Iron, Fe",mg,--,--,0.00,0.00
"Potassium, K",mg,--,--,125,140
"Sodium, Na",mg,--,--,45,51
Vitamins
"Vitamin C, total ascorbic acid",mg,--,--,0.0,0.0
"Vitamin A, IU",IU,--,--,225,253
Lipids
"Fatty acids, total saturated",g,--,--,1.504,1.690
"Fatty acids, total trans",g,--,--,0.000,0.000
"Cholesterol",mg,--,--,10,11
Amino Acids
Other
Ingredients
"LACTOSE REDUCED NON FAT MILK, SUGAR, CORN SYRUP, CULTURED NON FAT MILK, CREAM, BLACK CHERRIES, CONTAINS LESS THAN 2% OF NON FAT MILK POWDER, WATER, LACTIC ACID, FRUIT JUICE, VEGETABLE JUICE AND BETA CAROTENE (FOR COLOR), LOCUST BEAN GUM, NATURAL FLAVOR, CITRIC ACID. CONTAINS ACTIVE YOGURT CULTURES INCLUDING L. ACIDOPHILUS." Date available: 06/25/2017 Date last updated by company: 06/25/2017
