Source: USDA Branded Food Products Database Release December 2017 Software v.3.8.6.4 2017-10-02
Report Run at: December 19, 2017 05:17 EST
"Nutrient data for: 45155882, DANNON, LIGHT & FIT, NONFAT YOGURT DRINK, BANANA, UPC: 036632038005"
Food Group:  Branded Food Products Database
Common Name:

Nutrient,Unit,Data points,Std. Error,"1 BOTTLE = 296.0g",1Value per 100 g,
Proximates
"Energy",kcal,--,--,139,47
"Protein",g,--,--,11.99,4.05
"Total lipid (fat)",g,--,--,0.00,0.00
"Carbohydrate, by difference",g,--,--,23.00,7.77
"Fiber, total dietary",g,--,--,5.0,1.7
"Sugars, total",g,--,--,14.00,4.73
Minerals
"Calcium, Ca",mg,--,--,400,135
"Iron, Fe",mg,--,--,0.00,0.00
"Potassium, K",mg,--,--,459,155
"Sodium, Na",mg,--,--,151,51
Vitamins
"Vitamin C, total ascorbic acid",mg,--,--,0.0,0.0
"Vitamin A, IU",IU,--,--,0,0
"Vitamin D",IU,--,--,139,47
Lipids
"Fatty acids, total saturated",g,--,--,0.000,0.000
"Fatty acids, total trans",g,--,--,0.000,0.000
"Cholesterol",mg,--,--,15,5
Amino Acids
Other
Ingredients
"CULTURED GRADE A NON FAT MILK, WATER, POLYDEXTROSE, MILK PROTEIN CONCENTRATE, CONTAINS LESS THAN 1% OF MODIFIED FOOD STARCH, LACTASE (GLYCEROL, WATER, ENZYME), NATURAL AND ARTIFICIAL FLAVORS, SUCRALOSE, MALIC ACID, ACESULFAME POTASSIUM, VITAMIN D3, POTASSIUM SORBATE (TO MAINTAIN FRESHNESS), YELLOW 5, RED 40, SODIUM CITRATE. CONTAINS ACTIVE YOGURT CULTURES INCLUDING S. THERMOPHILUS AND L. BULGARICUS." Date available: 07/14/2017 Date last updated by company: 07/14/2017
