Source: USDA Branded Food Products Database Release December 2017 Software v.3.8.6.4 2017-10-02
Report Run at: December 19, 2017 05:20 EST
"Nutrient data for: 45206469, DANNON, OIKOS, NONFAT YOGURT DRINK, BANANA CREME, UPC: 036632019813"
Food Group:  Branded Food Products Database
Common Name:

Nutrient,Unit,Data points,Std. Error,"1 BOTTLE = 207.0g",1Value per 100 g,
Proximates
"Energy",kcal,--,--,110,53
"Protein",g,--,--,10.00,4.83
"Total lipid (fat)",g,--,--,0.00,0.00
"Carbohydrate, by difference",g,--,--,16.99,8.21
"Fiber, total dietary",g,--,--,3.9,1.9
"Sugars, total",g,--,--,10.99,5.31
Minerals
"Calcium, Ca",mg,--,--,350,169
"Iron, Fe",mg,--,--,0.00,0.00
"Potassium, K",mg,--,--,381,184
"Sodium, Na",mg,--,--,141,68
Vitamins
"Vitamin C, total ascorbic acid",mg,--,--,0.0,0.0
"Vitamin A, IU",IU,--,--,0,0
"Vitamin D",IU,--,--,81,39
Lipids
"Fatty acids, total saturated",g,--,--,0.000,0.000
"Fatty acids, total trans",g,--,--,0.000,0.000
"Cholesterol",mg,--,--,4,2
Amino Acids
Other
Ingredients
"CULTURED GRADE A NON FAT MILK, WATER, CHICORY ROOT FIBER, MILK PROTEIN CONCENTRATE, CONTAINS LESS THAN 1% OF VEGETABLE JUICE (FOR COLOR), STEVIA LEAF EXTRACT, NATURAL FLAVORS, SODIUM CITRATE, SEA SALT, MALIC ACID, CARRAGEENAN, POTASSIUM SORBATE (TO MAINTAIN FRESHNESS), VITAMIN D3." Date available: 07/14/2017 Date last updated by company: 07/14/2017
