Source: USDA Branded Food Products Database Release December 2017 Software v.3.8.6.4 2017-10-02
Report Run at: December 19, 2017 05:21 EST
"Nutrient data for: 45038433, DANNON, OIKOS, YOGURT, RASPBERRY, UPC: 036632018342"
Food Group:  Branded Food Products Database
Common Name:

Nutrient,Unit,Data points,Std. Error,"1 CONTAINER = 150.0g",1Value per 100 g,
Proximates
"Energy",kcal,--,--,150,100
"Protein",g,--,--,10.99,7.33
"Total lipid (fat)",g,--,--,5.00,3.33
"Carbohydrate, by difference",g,--,--,15.00,10.00
"Fiber, total dietary",g,--,--,0.0,0.0
"Sugars, total",g,--,--,13.01,8.67
Minerals
"Calcium, Ca",mg,--,--,150,100
"Iron, Fe",mg,--,--,0.00,0.00
"Potassium, K",mg,--,--,140,93
"Sodium, Na",mg,--,--,50,33
Vitamins
"Vitamin C, total ascorbic acid",mg,--,--,0.0,0.0
"Vitamin A, IU",IU,--,--,114,76
"Vitamin D",IU,--,--,68,45
Lipids
"Fatty acids, total saturated",g,--,--,3.000,2.000
"Fatty acids, total trans",g,--,--,0.000,0.000
"Cholesterol",mg,--,--,10,7
Amino Acids
Other
Ingredients
"YOGURT (CULTURED GRADE A NON FAT MILK, CREAM, ACTIVE YOGURT CULTURES), CANE SUGAR, WATER, RASPBERRIES, CONTAINS LESS THAN 1% OF CORN STARCH, LEMON JUICE CONCENTRATE, FRUIT AND VEGETABLE JUICE (FOR COLOR), NATURAL FLAVORS, CAROB BEAN GUM, VITAMIN D3." Date available: 07/14/2017 Date last updated by company: 07/14/2017
