Source: USDA Branded Food Products Database Release December 2017 Software v.3.8.6.4 2017-10-02
Report Run at: December 19, 2017 05:23 EST
"Nutrient data for: 45021199, DARE, BRETON, REDUCED FAT & SALT CRACKERS, UPC: 055653670605"
Food Group:  Branded Food Products Database
Common Name:

Nutrient,Unit,Data points,Std. Error,"4.0 CRACKERS = 18.0g",1Value per 100 g,
Proximates
"Energy",kcal,--,--,70,389
"Protein",g,--,--,3.00,16.67
"Total lipid (fat)",g,--,--,1.00,5.56
"Carbohydrate, by difference",g,--,--,13.00,72.22
"Fiber, total dietary",g,--,--,1.0,5.6
"Sugars, total",g,--,--,1.00,5.56
Minerals
"Calcium, Ca",mg,--,--,80,444
"Iron, Fe",mg,--,--,4.00,22.22
"Sodium, Na",mg,--,--,95,528
Vitamins
"Vitamin C, total ascorbic acid",mg,--,--,0.0,0.0
"Vitamin A, IU",IU,--,--,0,0
Lipids
"Fatty acids, total saturated",g,--,--,0.000,0.000
"Fatty acids, total trans",g,--,--,0.000,0.000
"Cholesterol",mg,--,--,0,0
Amino Acids
Other
Ingredients
"ENRICHED FLOUR (WHEAT FLOUR, NIACIN, CALCIUM CARBONATE, REDUCED IRON, THIAMINE MONONITRATE, RIBOFLAVIN, FOLIC ACID), DEFATTED WHEAT GERM, VEGETABLE OIL SHORTENING (SOY AND CANOLA OIL WITH TBHQ AND CITRIC ACID TO PROTECT FLAVOR), MILK INGREDIENT (LACTOSE, WHEY PROTEIN CONCENTRATE, SKIM MILK, MILK CALCIUM COMPLEX), SUGAR CONTAINS 2% OR LESS OF: WHEAT BRAN, SALT, LEAVENING (AMMONIUM BICARBONATE, BAKING SODA), HYDROLYZED SOY PROTEIN, SOY LECITHIN, NATURAL FLAVOR, ENZYMES." Date available: 06/25/2017 Date last updated by company: 06/25/2017
