Source: USDA Branded Food Products Database Release December 2017 Software v.3.8.6.4 2017-10-02
Report Run at: December 19, 2017 05:25 EST
"Nutrient data for: 45224311, DARIGOLD, 1% LOW FAT MILK, STRAWBERRY, UPC: 026400410195"
Food Group:  Branded Food Products Database
Common Name:

Nutrient,Unit,Data points,Std. Error,"1 cup = 240.0g",1Value per 100 g,
Proximates
"Energy",kcal,--,--,211,88
"Protein",g,--,--,9.00,3.75
"Total lipid (fat)",g,--,--,2.50,1.04
"Carbohydrate, by difference",g,--,--,37.01,15.42
"Fiber, total dietary",g,--,--,0.0,0.0
"Sugars, total",g,--,--,36.00,15.00
Minerals
"Calcium, Ca",mg,--,--,350,146
"Iron, Fe",mg,--,--,0.00,0.00
"Potassium, K",mg,--,--,439,183
"Sodium, Na",mg,--,--,139,58
Vitamins
"Vitamin C, total ascorbic acid",mg,--,--,0.0,0.0
"Vitamin A, IU",IU,--,--,499,208
"Vitamin D",IU,--,--,101,42
Lipids
"Fatty acids, total saturated",g,--,--,1.488,0.620
"Fatty acids, total trans",g,--,--,0.000,0.000
"Cholesterol",mg,--,--,14,6
Amino Acids
Other
Ingredients
"LOWFAT MILK, LIQUID SUCROSE (SUGAR, WATER), DEXTROSE, CORN STARCH, ARTIFICIAL FLAVOR, CARRAGEENAN, SALT, VANILLIN, FD&C RED #40, VITAMIN A PALMITATE, VITAMIN D3." Date available: 07/14/2017 Date last updated by company: 07/14/2017
