Source: USDA Branded Food Products Database Release December 2017 Software v.3.8.6.4 2017-10-02
Report Run at: December 19, 2017 05:24 EST
"Nutrient data for: 45224665, DARIGOLD, EGG NOG, LIGHT, UPC: 026400404934"
Food Group:  Branded Food Products Database
Common Name:

Nutrient,Unit,Data points,Std. Error,"0.5 cup = 120.0g",1Value per 100 g,
Proximates
"Energy",kcal,--,--,140,117
"Protein",g,--,--,5.00,4.17
"Total lipid (fat)",g,--,--,4.50,3.75
"Carbohydrate, by difference",g,--,--,21.00,17.50
"Fiber, total dietary",g,--,--,0.0,0.0
"Sugars, total",g,--,--,19.00,15.83
Minerals
"Calcium, Ca",mg,--,--,150,125
"Iron, Fe",mg,--,--,0.36,0.30
"Potassium, K",mg,--,--,250,208
"Sodium, Na",mg,--,--,80,67
Vitamins
"Vitamin C, total ascorbic acid",mg,--,--,0.0,0.0
"Vitamin A, IU",IU,--,--,500,417
Lipids
"Fatty acids, total saturated",g,--,--,2.496,2.080
"Fatty acids, total trans",g,--,--,0.000,0.000
"Cholesterol",mg,--,--,50,42
Amino Acids
Other
Ingredients
"NONFAT MILK AND CREAM, SUGAR, WATER, CORN SYRUP, EGG YOLKS, WHEY, NATURAL AND ARTIFICIAL FLAVORS, NUTMEG, CARRAGEENAN, GUAR GUM, MONO AND DIGLYCERIDES, ANNATTO AND TURMERIC (COLOR), VITAMIN A PALMITATE*" Date available: 07/14/2017 Date last updated by company: 07/14/2017
