Source: USDA Branded Food Products Database Release December 2017 Software v.3.8.6.4 2017-10-02
Report Run at: December 19, 2017 05:24 EST
"Nutrient data for: 45224401, DARIGOLD, LOW FAT MILK, CHOCOLATE, UPC: 026400310815"
Food Group:  Branded Food Products Database
Common Name:

Nutrient,Unit,Data points,Std. Error,"1 cup = 240.0g",1Value per 100 g,
Proximates
"Energy",kcal,--,--,190,79
"Protein",g,--,--,10.01,4.17
"Total lipid (fat)",g,--,--,2.50,1.04
"Carbohydrate, by difference",g,--,--,31.01,12.92
"Fiber, total dietary",g,--,--,1.0,0.4
"Sugars, total",g,--,--,28.99,12.08
Minerals
"Calcium, Ca",mg,--,--,350,146
"Iron, Fe",mg,--,--,0.72,0.30
"Potassium, K",mg,--,--,451,188
"Sodium, Na",mg,--,--,230,96
Vitamins
"Vitamin C, total ascorbic acid",mg,--,--,0.0,0.0
"Vitamin A, IU",IU,--,--,499,208
"Vitamin D",IU,--,--,101,42
Lipids
"Fatty acids, total saturated",g,--,--,1.488,0.620
"Fatty acids, total trans",g,--,--,0.000,0.000
"Cholesterol",mg,--,--,14,6
Amino Acids
Other
Ingredients
"LOWFAT MILK, LIQUID SUCROSE (SUGAR, WATER), COCOA PROCESSED WITH ALKALI, SALT, CARRAGEENAN, VANILLIN, VITAMIN A PALMITATE, VITAMIN D3." Date available: 07/14/2017 Date last updated by company: 07/14/2017
