Source: USDA Branded Food Products Database Release December 2017 Software v.3.8.6.4 2017-10-02
Report Run at: December 19, 2017 05:25 EST
"Nutrient data for: 45224355, DARIGOLD, PURE & SIMPLE SOUR CREAM, UPC: 026400305484"
Food Group:  Branded Food Products Database
Common Name:

Nutrient,Unit,Data points,Std. Error,"2.0 Tbsp = 30.0g",1Value per 100 g,
Proximates
"Energy",kcal,--,--,60,200
"Protein",g,--,--,1.00,3.33
"Total lipid (fat)",g,--,--,6.00,20.00
"Carbohydrate, by difference",g,--,--,2.00,6.67
"Fiber, total dietary",g,--,--,0.0,0.0
"Sugars, total",g,--,--,1.00,3.33
Minerals
"Calcium, Ca",mg,--,--,40,133
"Iron, Fe",mg,--,--,0.00,0.00
"Potassium, K",mg,--,--,50,167
"Sodium, Na",mg,--,--,15,50
Vitamins
"Vitamin C, total ascorbic acid",mg,--,--,0.0,0.0
"Vitamin A, IU",IU,--,--,334,1112
Lipids
"Fatty acids, total saturated",g,--,--,3.501,11.670
"Fatty acids, total trans",g,--,--,0.000,0.000
"Cholesterol",mg,--,--,25,83
Amino Acids
Other
Ingredients
"CULTURED MILK AND CREAM, ENZYMES" Date available: 07/14/2017 Date last updated by company: 07/14/2017
