Source: USDA Branded Food Products Database Release December 2017 Software v.3.8.6.4 2017-10-02
Report Run at: December 19, 2017 05:43 EST
"Nutrient data for: 45145087, DARK CHOCOLATE STICKS, UPC: 017109328713"
Food Group:  Branded Food Products Database
Common Name:

Nutrient,Unit,Data points,Std. Error,"1 PIECE = 3.0g",1Value per 100 g,
Proximates
"Energy",kcal,--,--,15,500
"Protein",g,--,--,0.00,0.00
"Total lipid (fat)",g,--,--,1.00,33.33
"Carbohydrate, by difference",g,--,--,1.00,33.33
"Fiber, total dietary",g,--,--,0.0,0.0
"Sugars, total",g,--,--,1.00,33.33
Minerals
"Calcium, Ca",mg,--,--,0,0
"Iron, Fe",mg,--,--,0.00,0.00
"Sodium, Na",mg,--,--,0,0
Vitamins
"Vitamin C, total ascorbic acid",mg,--,--,0.0,0.0
"Vitamin A, IU",IU,--,--,0,0
Lipids
"Fatty acids, total saturated",g,--,--,0.000,0.000
"Fatty acids, total trans",g,--,--,0.000,0.000
"Cholesterol",mg,--,--,0,0
Amino Acids
Other
Ingredients
"UNSWEETENED CHOCOLATE, DARK CHOCOLATE (SUGAR, COCOA FAT) MILK CHOCOLATE (SUGAR, COCA FAT, DRY WHOLE MILK) NATURAL VANILLA FLAVOR, HEAVY CREAM, SOY LECITHIN SUGAR, PEPPERMINT OIL, INVERTASE (ENZYME SOLUTION, GLYCEROL)." Date available: 07/14/2017 Date last updated by company: 07/14/2017
