Source: USDA Branded Food Products Database Release December 2017 Software v.3.8.6.4 2017-10-02
Report Run at: December 19, 2017 05:31 EST
"Nutrient data for: 45318319, DARK CHOCOLATE CANDIES, UPC: 040000249160"
Food Group:  Branded Food Products Database
Common Name:

Nutrient,Unit,Data points,Std. Error,"0.25 CUP | ABOUT = 42.0g",1Value per 100 g,
Proximates
"Energy",kcal,--,--,210,500
"Protein",g,--,--,2.00,4.76
"Total lipid (fat)",g,--,--,10.00,23.81
"Carbohydrate, by difference",g,--,--,29.00,69.05
"Fiber, total dietary",g,--,--,2.0,4.8
"Sugars, total",g,--,--,24.00,57.14
Minerals
"Calcium, Ca",mg,--,--,20,48
"Iron, Fe",mg,--,--,0.86,2.04
"Sodium, Na",mg,--,--,10,24
Vitamins
"Vitamin C, total ascorbic acid",mg,--,--,1.4,3.4
"Vitamin A, IU",IU,--,--,119,283
Lipids
"Fatty acids, total saturated",g,--,--,6.002,14.290
"Fatty acids, total trans",g,--,--,0.000,0.000
"Cholesterol",mg,--,--,5,12
Amino Acids
Other
Ingredients
"SEMISWEET CHOCOLATE (CHOCOLATE, SUGAR, COCOA BUTTER, SKIM MILK, MILKFAT, LACTOSE, SOY LECITHIN, ARTIFICIAL FLAVORS, SALT), SUGAR, CORNSTARCH, LESS THAN 2% - CORN SYRUP, DEXTRIN, COLORING (INCLUDES BLUE 1 LAKE, YELLOW 6, RED 40, YELLOW 5, BLUE 1, BLUE 2, RED 40 LAKE, BLUE 2 LAKE, YELLOW 6 LAKE, YELLOW 5 LAKE), GUM ACACIA." Date available: 07/14/2017 Date last updated by company: 07/14/2017
