Source: USDA Branded Food Products Database Release December 2017 Software v.3.8.6.4 2017-10-02
Report Run at: December 19, 2017 05:38 EST
"Nutrient data for: 45326323, DARK CHOCOLATE FRUIT & NUT BARS, UPC: 068437912013"
Food Group:  Branded Food Products Database
Common Name:

Nutrient,Unit,Data points,Std. Error,"1 BAR = 39.0g",1Value per 100 g,
Proximates
"Energy",kcal,--,--,180,462
"Protein",g,--,--,4.00,10.26
"Total lipid (fat)",g,--,--,9.00,23.08
"Carbohydrate, by difference",g,--,--,21.00,53.85
"Fiber, total dietary",g,--,--,3.0,7.7
"Sugars, total",g,--,--,13.00,33.33
Minerals
"Calcium, Ca",mg,--,--,20,51
"Iron, Fe",mg,--,--,1.11,2.84
"Sodium, Na",mg,--,--,55,141
Vitamins
"Vitamin C, total ascorbic acid",mg,--,--,6.2,15.8
"Vitamin A, IU",IU,--,--,513,1315
Lipids
"Fatty acids, total saturated",g,--,--,2.001,5.130
"Fatty acids, total trans",g,--,--,0.000,0.000
"Cholesterol",mg,--,--,0,0
Amino Acids
Other
Ingredients
"ALMONDS; DARK CHOCOLATE [CANE SUGAR; CHOCOLATE; COCOA BUTTER; MILK FAT; COCOA PROCESSED WITH ALKALI; LECITHIN (SOY); MILK; SALT; NATURAL VANILLA FLAVOR]; SWEETENED DRIED CHERRIES (CHERRIES; SUGAR); BROWN RICE SYRUP; PUMPKIN SEEDS; SWEETENED DRIED CRANBERRIES (CRANBERRIES; SUGAR; POMEGRANATE JUICE CONCENTRATE; MALIC ACID; NATURAL FLAVOR; ELDERBERRY JUICE CONCENTRATE; SUNFLOWER OIL); WHOLE GRAIN ROLLED OATS; CHICORY ROOT EXTRACT; BROWN RICE; INVERT SYRUP; SUGAR; CONTAINS 2% OR LESS OF: SUNFLOWER OIL; GLYCERIN; NATURAL FLAVOR; SAFFLOWER OIL; SALT; MALIC ACID; SODIUM ASCORBATE; VITAMIN E ACETATE; LECITHIN (SOY); VITAMIN A PALMITATE." Date available: 10/13/2017 Date last updated by company: 10/13/2017
