Source: USDA Branded Food Products Database Release December 2017 Software v.3.8.6.4 2017-10-02
Report Run at: December 19, 2017 05:42 EST
"Nutrient data for: 45150467, DARK CHOCOLATE SEA SALT, UPC: 856481003593"
Food Group:  Branded Food Products Database
Common Name:

Nutrient,Unit,Data points,Std. Error,"40.0 GRM = 40.0g",1Value per 100 g,
Proximates
"Energy",kcal,--,--,170,425
"Protein",g,--,--,3.00,7.50
"Total lipid (fat)",g,--,--,17.00,42.50
"Carbohydrate, by difference",g,--,--,19.00,47.50
"Fiber, total dietary",g,--,--,8.0,20.0
"Sugars, total",g,--,--,1.00,2.50
Minerals
"Calcium, Ca",mg,--,--,20,50
"Iron, Fe",mg,--,--,5.62,14.06
"Sodium, Na",mg,--,--,190,475
Vitamins
"Vitamin C, total ascorbic acid",mg,--,--,0.0,0.0
"Vitamin A, IU",IU,--,--,0,0
Lipids
"Fatty acids, total saturated",g,--,--,10.000,25.000
"Fatty acids, total trans",g,--,--,0.000,0.000
"Cholesterol",mg,--,--,0,0
Amino Acids
Other
Ingredients
"UNSWEETENED CHOCOLATE, ERYTHRITOL, INULIN, COCOA BUTTER, SEA SALT, STEVIA EXTRACT, ORGANIC SOY LECITHIN, VANILLA." Date available: 07/14/2017 Date last updated by company: 07/14/2017
