Source: USDA Branded Food Products Database Release December 2017 Software v.3.8.6.4 2017-10-02
Report Run at: December 19, 2017 05:46 EST
"Nutrient data for: 45208486, DARK CHOCOLATE, UPC: 074291002920"
Food Group:  Branded Food Products Database
Common Name:

Nutrient,Unit,Data points,Std. Error,"10.0 SQUARES = 42.0g",1Value per 100 g,
Proximates
"Energy",kcal,--,--,210,500
"Protein",g,--,--,2.00,4.76
"Total lipid (fat)",g,--,--,13.00,30.95
"Carbohydrate, by difference",g,--,--,24.00,57.14
"Fiber, total dietary",g,--,--,2.0,4.8
"Sugars, total",g,--,--,21.00,50.00
Minerals
"Calcium, Ca",mg,--,--,0,0
"Iron, Fe",mg,--,--,4.28,10.20
"Sodium, Na",mg,--,--,1,2
Vitamins
"Vitamin C, total ascorbic acid",mg,--,--,0.0,0.0
"Vitamin A, IU",IU,--,--,0,0
Lipids
"Fatty acids, total saturated",g,--,--,8.001,19.050
"Fatty acids, total trans",g,--,--,0.000,0.000
"Cholesterol",mg,--,--,0,0
Amino Acids
Other
Ingredients
"SUGAR, COCOA MASS, COCOA BUTTER. EMULSIFIER: SOYA LECITHIN. FLAVOUR. COCOA SOLIDS: 48% MINIMUM IN THE CHOCOLATE." Date available: 07/14/2017 Date last updated by company: 07/14/2017
