Source: USDA Branded Food Products Database Release December 2017 Software v.3.8.6.4 2017-10-02
Report Run at: December 19, 2017 05:49 EST
"Nutrient data for: 45044693, DARK CHOCOLATE WITH RASPBERRY BITS, UPC: 747599622083"
Food Group:  Branded Food Products Database
Common Name:

Nutrient,Unit,Data points,Std. Error,"3.0 PIECES = 38.0g",1Value per 100 g,
Proximates
"Energy",kcal,--,--,180,474
"Protein",g,--,--,2.00,5.26
"Total lipid (fat)",g,--,--,12.00,31.58
"Carbohydrate, by difference",g,--,--,23.00,60.53
"Fiber, total dietary",g,--,--,3.0,7.9
"Sugars, total",g,--,--,18.00,47.37
Minerals
"Calcium, Ca",mg,--,--,20,53
"Iron, Fe",mg,--,--,2.37,6.23
"Sodium, Na",mg,--,--,0,0
Vitamins
"Vitamin C, total ascorbic acid",mg,--,--,0.0,0.0
"Vitamin A, IU",IU,--,--,0,0
Lipids
"Fatty acids, total saturated",g,--,--,7.000,18.420
"Fatty acids, total trans",g,--,--,0.000,0.000
"Cholesterol",mg,--,--,5,13
Amino Acids
Other
Ingredients
"SEMI-SWEET CHOCOLATE (SUGAR, UNSWEETENED CHOCOLATE, COCOA BUTTER, MILK FAT, SOY LECITHIN - AN EMULSIFIER, VANILLA), DRIED RASPBERRY BITS (RASPBERRY, SUCROSE, FRUCTOSE, NATURAL FLAVOR), NATURAL FLAVOR." Date available: 06/24/2017 Date last updated by company: 06/24/2017
