Source: USDA Branded Food Products Database Release December 2017 Software v.3.8.6.4 2017-10-02
Report Run at: December 19, 2017 05:41 EST
"Nutrient data for: 45274301, DARK CHOCOLATE PRALINES, UPC: 852470002066"
Food Group:  Branded Food Products Database
Common Name:

Nutrient,Unit,Data points,Std. Error,"3.0 PIECES = 42.0g",1Value per 100 g,
Proximates
"Energy",kcal,--,--,240,571
"Protein",g,--,--,2.00,4.76
"Total lipid (fat)",g,--,--,14.00,33.33
"Carbohydrate, by difference",g,--,--,25.00,59.52
"Fiber, total dietary",g,--,--,3.0,7.1
"Sugars, total",g,--,--,19.00,45.24
Minerals
"Calcium, Ca",mg,--,--,0,0
"Iron, Fe",mg,--,--,3.21,7.65
"Sodium, Na",mg,--,--,0,0
Vitamins
"Vitamin C, total ascorbic acid",mg,--,--,0.0,0.0
"Vitamin A, IU",IU,--,--,0,0
Lipids
"Fatty acids, total saturated",g,--,--,11.000,26.190
"Fatty acids, total trans",g,--,--,0.000,0.000
"Cholesterol",mg,--,--,0,0
Amino Acids
Other
Ingredients
"SUGAR, VEGETABLE FATS (COCONUT, PALM KERNEL, PALM), CHOCOLATE LIQUOR, LOWFAT COCOA POWDER PROCESSED WITH ALKALI, CARAMELIZED COCOA NIBS (NIBS OF COCOA, SUGAR, WHEAT SYRUP), COCOA BUTTER, BUTTEROIL, SOY LECITHIN, NATURAL FLAVOR." Date available: 07/14/2017 Date last updated by company: 07/14/2017
