Source: USDA Branded Food Products Database Release December 2017 Software v.3.8.6.4 2017-10-02
Report Run at: December 19, 2017 05:43 EST
"Nutrient data for: 45144285, DARK CHOCOLATE TRUFFLE BAR, UPC: 081014110244"
Food Group:  Branded Food Products Database
Common Name:

Nutrient,Unit,Data points,Std. Error,"0.5 BAR = 35.0g",1Value per 100 g,
Proximates
"Energy",kcal,--,--,190,543
"Protein",g,--,--,2.00,5.71
"Total lipid (fat)",g,--,--,15.00,42.86
"Carbohydrate, by difference",g,--,--,17.00,48.57
"Fiber, total dietary",g,--,--,3.0,8.6
"Sugars, total",g,--,--,11.00,31.43
Minerals
"Calcium, Ca",mg,--,--,20,57
"Iron, Fe",mg,--,--,5.14,14.69
"Sodium, Na",mg,--,--,75,214
Vitamins
"Vitamin C, total ascorbic acid",mg,--,--,0.0,0.0
"Vitamin A, IU",IU,--,--,0,0
Lipids
"Fatty acids, total saturated",g,--,--,8.998,25.710
"Fatty acids, total trans",g,--,--,0.000,0.000
"Cholesterol",mg,--,--,0,0
Amino Acids
Other
Ingredients
"DARK CHOCOLATE (CHOCOLATE LIQUOR*, CANE SUGAR, COCOA BUTTER*, SOYA LECITHIN, NATURAL VANILLA), DRY ROASTED ALMONDS, NON-HYDROGENATED COCONUT OIL, COCONUT FLAKES, SEA SALT." Date available: 07/14/2017 Date last updated by company: 07/14/2017
