Source: USDA Branded Food Products Database Release December 2017 Software v.3.8.6.4 2017-10-02
Report Run at: December 19, 2017 05:28 EST
"Nutrient data for: 45254815, DARK CHOCOLATE ALMOND SPREAD, UPC: 858386004071"
Food Group:  Branded Food Products Database
Common Name:

Nutrient,Unit,Data points,Std. Error,"2.0 Tbsp = 32.0g",1Value per 100 g,
Proximates
"Energy",kcal,--,--,180,562
"Protein",g,--,--,3.00,9.38
"Total lipid (fat)",g,--,--,12.00,37.50
"Carbohydrate, by difference",g,--,--,14.00,43.75
"Fiber, total dietary",g,--,--,2.0,6.2
"Sugars, total",g,--,--,13.00,40.62
Minerals
"Calcium, Ca",mg,--,--,40,125
"Iron, Fe",mg,--,--,4.22,13.19
"Sodium, Na",mg,--,--,30,94
Vitamins
"Vitamin C, total ascorbic acid",mg,--,--,0.0,0.0
"Vitamin A, IU",IU,--,--,0,0
Lipids
"Fatty acids, total saturated",g,--,--,3.002,9.380
"Fatty acids, total trans",g,--,--,0.000,0.000
"Cholesterol",mg,--,--,0,0
Amino Acids
Other
Ingredients
"*ORGANIC CANE SUGAR, ALMONDS, *ORGANIC COCOA POWDER, +PALM FRUIT OIL, ORGANIC SUNFLOWER OIL, SUNFLOWER LECITHIN, SEA SALT, *ORGANIC VANILLA" Date available: 07/14/2017 Date last updated by company: 07/14/2017
