Source: USDA Branded Food Products Database Release December 2017 Software v.3.8.6.4 2017-10-02
Report Run at: December 19, 2017 05:45 EST
"Nutrient data for: 45050232, DARK CHOCOLATE, UPC: 085239550687"
Food Group:  Branded Food Products Database
Common Name:

Nutrient,Unit,Data points,Std. Error,"0.25 cup = 46.0g",1Value per 100 g,
Proximates
"Energy",kcal,--,--,230,500
"Protein",g,--,--,2.00,4.35
"Total lipid (fat)",g,--,--,14.00,30.43
"Carbohydrate, by difference",g,--,--,23.00,50.00
"Fiber, total dietary",g,--,--,4.0,8.7
"Sugars, total",g,--,--,18.00,39.13
Minerals
"Calcium, Ca",mg,--,--,20,43
"Iron, Fe",mg,--,--,1.56,3.40
"Sodium, Na",mg,--,--,10,22
Vitamins
"Vitamin C, total ascorbic acid",mg,--,--,6.5,14.2
"Vitamin A, IU",IU,--,--,0,0
Lipids
"Fatty acids, total saturated",g,--,--,9.002,19.570
"Fatty acids, total trans",g,--,--,0.000,0.000
"Cholesterol",mg,--,--,0,0
Amino Acids
Other
Ingredients
"ORGANIC DARK CHOCOLATE (ORGANIC COCOA MASS, ORGANIC SUGAR, ORGANIC COCOA BUTTER, ORGANIC SUNFLOWER LECITHIN), FRUIT GELS (GLUCOSE, WATER, FRUIT JUICE FROM CONCENTRATE [BLUEBERRY], CITRIC ACID, NATURAL FLAVOR, PECTIN, CORN STARCH), ORGANIC CONFECTIONER'S GLAZE." Date available: 08/08/2017 Date last updated by company: 08/08/2017
