Source: USDA Branded Food Products Database Release December 2017 Software v.3.8.6.4 2017-10-02
Report Run at: December 19, 2017 05:43 EST
"Nutrient data for: 45147916, DARK CHOCOLATE STRIPED PECAN BRITTLE CRUNCH, UPC: 072376001912"
Food Group:  Branded Food Products Database
Common Name:

Nutrient,Unit,Data points,Std. Error,"0.33 cup = 40.0g",1Value per 100 g,
Proximates
"Energy",kcal,--,--,190,475
"Protein",g,--,--,2.00,5.00
"Total lipid (fat)",g,--,--,12.00,30.00
"Carbohydrate, by difference",g,--,--,23.00,57.50
"Fiber, total dietary",g,--,--,2.0,5.0
"Sugars, total",g,--,--,16.00,40.00
Minerals
"Calcium, Ca",mg,--,--,0,0
"Iron, Fe",mg,--,--,1.35,3.38
"Sodium, Na",mg,--,--,290,725
Vitamins
"Vitamin C, total ascorbic acid",mg,--,--,0.0,0.0
"Vitamin A, IU",IU,--,--,0,0
Lipids
"Fatty acids, total saturated",g,--,--,4.500,11.250
"Fatty acids, total trans",g,--,--,0.000,0.000
"Cholesterol",mg,--,--,5,12
Amino Acids
Other
Ingredients
"PECAN BRITTLE (SUGAR, ROASTED PECANS, CORN SYRUP, BUTTER, MOLASSES, SODIUM BICARBONATE, SEA SALT, NATURAL FLAVORS, SOY LECITHIN), DARK CHOCOLATE (CHOCOLATE, SUGAR, COCOA BUTTER, SOY LECITHIN [AN EMULSIFIER], VANILLA, MILK)." Date available: 07/14/2017 Date last updated by company: 07/14/2017
