Source: USDA Branded Food Products Database Release December 2017 Software v.3.8.6.4 2017-10-02
Report Run at: December 19, 2017 05:27 EST
"Nutrient data for: 45208469, DARK BELGIAN CHOCOLATE, UPC: 073866103864"
Food Group:  Branded Food Products Database
Common Name:

Nutrient,Unit,Data points,Std. Error,"1 BAR = 57.0g",1Value per 100 g,
Proximates
"Energy",kcal,--,--,300,526
"Protein",g,--,--,3.00,5.26
"Total lipid (fat)",g,--,--,18.00,31.58
"Carbohydrate, by difference",g,--,--,28.00,49.12
"Fiber, total dietary",g,--,--,4.0,7.0
"Sugars, total",g,--,--,25.00,43.86
Minerals
"Calcium, Ca",mg,--,--,20,35
"Iron, Fe",mg,--,--,0.00,0.00
"Sodium, Na",mg,--,--,330,579
Vitamins
"Vitamin C, total ascorbic acid",mg,--,--,0.0,0.0
"Vitamin A, IU",IU,--,--,0,0
Lipids
"Fatty acids, total saturated",g,--,--,11.001,19.300
"Fatty acids, total trans",g,--,--,0.000,0.000
"Cholesterol",mg,--,--,0,0
Amino Acids
Other
Ingredients
"DARK CHOCOLATE [COCOA MASS, SUGAR, COCOA BUTTER, SOY LECITHIN (EMULSIFIER), AND NATURAL VANILLA EXTRACT], SEA SALT." Date available: 10/13/2017 Date last updated by company: 10/13/2017
