Source: USDA Branded Food Products Database Release December 2017 Software v.3.8.6.4 2017-10-02
Report Run at: December 19, 2017 05:44 EST
"Nutrient data for: 45081431, DARK CHOCOLATE TRUFFLES, UPC: 037466062167"
Food Group:  Branded Food Products Database
Common Name:

Nutrient,Unit,Data points,Std. Error,"3.0 BALLS = 36.0g",1Value per 100 g,
Proximates
"Energy",kcal,--,--,230,639
"Protein",g,--,--,2.00,5.56
"Total lipid (fat)",g,--,--,19.00,52.78
"Carbohydrate, by difference",g,--,--,15.00,41.67
"Fiber, total dietary",g,--,--,1.0,2.8
"Sugars, total",g,--,--,13.00,36.11
Minerals
"Calcium, Ca",mg,--,--,20,56
"Iron, Fe",mg,--,--,0.50,1.39
"Sodium, Na",mg,--,--,10,28
Vitamins
"Vitamin C, total ascorbic acid",mg,--,--,0.0,0.0
"Vitamin A, IU",IU,--,--,0,0
Lipids
"Fatty acids, total saturated",g,--,--,13.000,36.110
"Fatty acids, total trans",g,--,--,0.000,0.000
"Cholesterol",mg,--,--,5,14
Amino Acids
Other
Ingredients
"DARK SWEET CHOCOLATE [SUGAR, CHOCOLATE, COCOA BUTTER, SKIM MILK, MILKFAT, SOYA LECITHIN (EMULSIFIER), VANILLIN (ARTIFICIAL FLAVORING)], VEGETABLE OIL (COCONUT, PALM KERNEL), SUGAR, CHOCOLATE, COCOA BUTTER, MILK, SOYA LECITHIN (EMULSIFIER), BARLEY MALT POWDER, ARTIFICIAL FLAVORS." Date available: 06/25/2017 Date last updated by company: 06/25/2017
