Source: USDA Branded Food Products Database Release December 2017 Software v.3.8.6.4 2017-10-02
Report Run at: December 19, 2017 05:43 EST
"Nutrient data for: 45288989, DARK CHOCOLATE + SUPERFRUITS, UPC: 853081002506"
Food Group:  Branded Food Products Database
Common Name:

Nutrient,Unit,Data points,Std. Error,"6.0 PIECES = 51.0g",1Value per 100 g,
Proximates
"Energy",kcal,--,--,240,471
"Protein",g,--,--,3.00,5.88
"Total lipid (fat)",g,--,--,16.00,31.37
"Carbohydrate, by difference",g,--,--,31.00,60.78
"Fiber, total dietary",g,--,--,4.0,7.8
"Sugars, total",g,--,--,25.00,49.02
Minerals
"Calcium, Ca",mg,--,--,22,43
"Iron, Fe",mg,--,--,4.00,7.84
"Potassium, K",mg,--,--,188,369
"Sodium, Na",mg,--,--,0,0
Vitamins
"Vitamin D",IU,--,--,0,0
Lipids
"Fatty acids, total saturated",g,--,--,10.001,19.610
"Fatty acids, total trans",g,--,--,0.000,0.000
"Cholesterol",mg,--,--,0,0
Amino Acids
Other
Ingredients
"SUGAR, *CHOCOLATE LIQUOR, *COCOA BUTTER, NATURAL CHERRIES, NATURAL CHERRY FLAVOR, SOY LECITHIN (AN EMULSIFIER), VANILLA" Date available: 09/22/2017 Date last updated by company: 09/22/2017
