Source: USDA Branded Food Products Database Release December 2017 Software v.3.8.6.4 2017-10-02
Report Run at: December 19, 2017 05:47 EST
"Nutrient data for: 45285034, DARK CHOCOLATE, UPC: 009542031695"
Food Group:  Branded Food Products Database
Common Name:

Nutrient,Unit,Data points,Std. Error,"4.0 SQUARES = 40.0g",1Value per 100 g,
Proximates
"Energy",kcal,--,--,230,575
"Protein",g,--,--,4.00,10.00
"Total lipid (fat)",g,--,--,19.00,47.50
"Carbohydrate, by difference",g,--,--,14.00,35.00
"Fiber, total dietary",g,--,--,3.0,7.5
"Sugars, total",g,--,--,7.00,17.50
Minerals
"Calcium, Ca",mg,--,--,40,100
"Iron, Fe",mg,--,--,1.80,4.50
"Sodium, Na",mg,--,--,0,0
Vitamins
"Vitamin C, total ascorbic acid",mg,--,--,0.0,0.0
"Vitamin A, IU",IU,--,--,125,312
Lipids
"Fatty acids, total saturated",g,--,--,12.000,30.000
"Fatty acids, total trans",g,--,--,0.000,0.000
"Cholesterol",mg,--,--,5,12
Amino Acids
Other
Ingredients
"CHOCOLATE, COCOA BUTTER, SUGAR, FAT REDUCED COCOA POWDER, MILKFAT." Date available: 07/14/2017 Date last updated by company: 07/14/2017
