Source: USDA Branded Food Products Database Release December 2017 Software v.3.8.6.4 2017-10-02
Report Run at: December 19, 2017 05:30 EST
"Nutrient data for: 45268861, DARK CHOCOLATE BARK PISTACHIO TOFFEE, UPC: 817087023187"
Food Group:  Branded Food Products Database
Common Name:

Nutrient,Unit,Data points,Std. Error,"40.0 GRM = 40.0g",1Value per 100 g,
Proximates
"Energy",kcal,--,--,210,525
"Protein",g,--,--,2.00,5.00
"Total lipid (fat)",g,--,--,13.00,32.50
"Carbohydrate, by difference",g,--,--,23.00,57.50
"Fiber, total dietary",g,--,--,3.0,7.5
"Sugars, total",g,--,--,18.00,45.00
Minerals
"Calcium, Ca",mg,--,--,20,50
"Iron, Fe",mg,--,--,3.38,8.44
"Sodium, Na",mg,--,--,120,300
Vitamins
"Vitamin C, total ascorbic acid",mg,--,--,0.0,0.0
"Vitamin A, IU",IU,--,--,0,0
Lipids
"Fatty acids, total saturated",g,--,--,8.000,20.000
"Fatty acids, total trans",g,--,--,0.000,0.000
"Cholesterol",mg,--,--,5,12
Amino Acids
Other
Ingredients
"DARK CHOCOLATE (CHOCOLATE LIQUOR, SUGAR, COCOA BUTTER, BUTTERFAT [MILK], SOY LECITHIN [AN EMULSIFIER], SALT, VANILLA), TOFFEE BITS (SUGAR, CORN SYRUP, PALM OIL, SALT, NATURAL FLAVOR, CARAMEL COLOR, SOY LECITHIN, SODIUM BICARBONATE), PISTACHIOS, CARAMEL FLAVORED COATING (SUGAR, COCOA BUTTER, NONFAT DRY MILK POWDER, WHOLE MILK POWDER COCOA POWDER, SOY LECITHIN [AN EMULSIFIER], NATURAL FLAVOR, PAPRIKA EXTRACT ADDED FOR COLOR, SALT), SEA SALT." Date available: 07/14/2017 Date last updated by company: 07/14/2017
