Source: USDA Branded Food Products Database Release December 2017 Software v.3.8.6.4 2017-10-02
Report Run at: December 19, 2017 05:29 EST
"Nutrient data for: 45326168, DARK CHOCOLATE ALMONDS, UPC: 884853800280"
Food Group:  Branded Food Products Database
Common Name:

Nutrient,Unit,Data points,Std. Error,"0.25 cup = 37.0g",1Value per 100 g,
Proximates
"Energy",kcal,--,--,200,541
"Protein",g,--,--,4.00,10.81
"Total lipid (fat)",g,--,--,15.00,40.54
"Carbohydrate, by difference",g,--,--,17.00,45.95
"Fiber, total dietary",g,--,--,3.0,8.1
"Sugars, total",g,--,--,12.00,32.43
Minerals
"Calcium, Ca",mg,--,--,40,108
"Iron, Fe",mg,--,--,1.95,5.26
"Sodium, Na",mg,--,--,0,0
Vitamins
"Vitamin C, total ascorbic acid",mg,--,--,0.0,0.0
"Vitamin A, IU",IU,--,--,67,182
Lipids
"Fatty acids, total saturated",g,--,--,6.001,16.220
"Fatty acids, total trans",g,--,--,0.000,0.000
"Cholesterol",mg,--,--,5,14
Amino Acids
Other
Ingredients
"DARK CHOCOLATE (SUGAR, CHOCOLATE LIQUOR, COCOA BUTTER, ANHYDROUS MILK FAT, SOY LECITHIN [AN EMULSIFIER], AND VANILLA), ALMONDS (GUM ARABIC, CORN SYRUP, SUGAR, AND CERTIFIED CONFECTIONERS GLAZE)." Date available: 08/11/2017 Date last updated by company: 08/11/2017
