Source: USDA Branded Food Products Database Release December 2017 Software v.3.8.6.4 2017-10-02
Report Run at: December 19, 2017 05:34 EST
"Nutrient data for: 45147818, DARK CHOCOLATE COVERED BLUEBERRIES, UPC: 071725749000"
Food Group:  Branded Food Products Database
Common Name:

Nutrient,Unit,Data points,Std. Error,"0.25 cup = 40.0g",1Value per 100 g,
Proximates
"Energy",kcal,--,--,180,450
"Protein",g,--,--,1.00,2.50
"Total lipid (fat)",g,--,--,10.00,25.00
"Carbohydrate, by difference",g,--,--,26.00,65.00
"Fiber, total dietary",g,--,--,2.0,5.0
"Sugars, total",g,--,--,22.00,55.00
Minerals
"Calcium, Ca",mg,--,--,0,0
"Iron, Fe",mg,--,--,0.90,2.25
"Sodium, Na",mg,--,--,0,0
Vitamins
"Vitamin C, total ascorbic acid",mg,--,--,0.0,0.0
"Vitamin A, IU",IU,--,--,0,0
Lipids
"Fatty acids, total saturated",g,--,--,6.000,15.000
"Fatty acids, total trans",g,--,--,0.000,0.000
"Cholesterol",mg,--,--,0,0
Amino Acids
Other
Ingredients
"DARK CHOCOLATE (SUGAR, CHOCOLATE LIQUOR, COCOA BUTTER, MILK FAT, SOY LECITHIN, NATURAL VANILLA FLAVOR), DRIED BLUEBERRIES (BLUEBERRIES, SUGAR, SUNFLOWER OIL), TAPIOCA DEXTRIN, CONFECTIONERS GLAZE." Date available: 07/14/2017 Date last updated by company: 07/14/2017
