Source: USDA Branded Food Products Database Release December 2017 Software v.3.8.6.4 2017-10-02
Report Run at: December 19, 2017 05:32 EST
"Nutrient data for: 45318593, DARK CHOCOLATE CHOCOLATE CANDES, UPC: 04045805"
Food Group:  Branded Food Products Database
Common Name:

Nutrient,Unit,Data points,Std. Error,"1 PACK = 47.9g",1Value per 100 g,
Proximates
"Energy",kcal,--,--,240,501
"Protein",g,--,--,2.00,4.18
"Total lipid (fat)",g,--,--,11.00,22.96
"Carbohydrate, by difference",g,--,--,33.00,68.89
"Fiber, total dietary",g,--,--,2.0,4.2
"Sugars, total",g,--,--,27.00,56.37
Minerals
"Calcium, Ca",mg,--,--,20,42
"Iron, Fe",mg,--,--,0.75,1.57
"Sodium, Na",mg,--,--,10,21
Vitamins
"Vitamin C, total ascorbic acid",mg,--,--,0.0,0.0
"Vitamin A, IU",IU,--,--,0,0
Lipids
"Fatty acids, total saturated",g,--,--,6.998,14.610
"Fatty acids, total trans",g,--,--,0.000,0.000
"Cholesterol",mg,--,--,5,10
Amino Acids
Other
Ingredients
"SEMISWEET CHOCOLATE (CHOCOLATE, SUGAR, COCOA BUTTER, SKIM MILK, MILKFAT, LACTOSE, SOY LECITHIN, ARTIFICIAL FLAVORS, SALT), SUGAR, CORNSTARCH, LESS THAN 2% - CORN SYRUP, DEXTRIN, COLORING (INCLUDES BLUE 1 LAKE, RED 40 LAKE, YELLOW 6, YELLOW 5, RED 40, BLUE 1, BLUE 2 LAKE, YELLOW 6 LAKE, YELLOW 5 LAKE, BLUE 2), GUM ACACIA." Date available: 07/14/2017 Date last updated by company: 07/14/2017
