Source: USDA Branded Food Products Database Release December 2017 Software v.3.8.6.4 2017-10-02
Report Run at: December 19, 2017 05:30 EST
"Nutrient data for: 45002716, DARK CHOCOLATE BAR, UPC: 182280000007"
Food Group:  Branded Food Products Database
Common Name:

Nutrient,Unit,Data points,Std. Error,"1.41 oz = 40.0g",1Value per 100 g,
Proximates
"Energy",kcal,--,--,150,375
"Protein",g,--,--,3.00,7.50
"Total lipid (fat)",g,--,--,5.00,12.50
"Carbohydrate, by difference",g,--,--,27.00,67.50
"Fiber, total dietary",g,--,--,5.0,12.5
"Sugars, total",g,--,--,20.00,50.00
Minerals
"Calcium, Ca",mg,--,--,40,100
"Iron, Fe",mg,--,--,2.70,6.75
"Potassium, K",mg,--,--,190,475
"Sodium, Na",mg,--,--,20,50
Vitamins
"Vitamin C, total ascorbic acid",mg,--,--,0.0,0.0
"Vitamin A, IU",IU,--,--,0,0
Lipids
"Fatty acids, total saturated",g,--,--,2.00,5.00
"Fatty acids, total trans",g,--,--,0.00,0.00
"Cholesterol",mg,--,--,0,0
Amino Acids
Other
Ingredients
"FIGS, COCOA, DARK CHOCOLATE(SUGAR, COCOA MASS PROCESSED WITH ALKALI, COCOA BUTTER, BUTTER OIL, SOY LECITHIN, VANILLA), ALMONDS, SUGAR, INVERT SUGAR, NATURAL FLAVOR, CANOLA OIL, SALT, CREAM OF TARTAR." Date last updated by company: 05/01/2014
