Source: USDA Branded Food Products Database Release December 2017 Software v.3.8.6.4 2017-10-02
Report Run at: December 19, 2017 05:33 EST
"Nutrient data for: 45266812, DARK CHOCOLATE COCONUT COVERED ALMONDS, UPC: 071725751119"
Food Group:  Branded Food Products Database
Common Name:

Nutrient,Unit,Data points,Std. Error,"11.0 PIECES = 40.0g",1Value per 100 g,
Proximates
"Energy",kcal,--,--,220,550
"Protein",g,--,--,3.00,7.50
"Total lipid (fat)",g,--,--,16.00,40.00
"Carbohydrate, by difference",g,--,--,18.00,45.00
"Fiber, total dietary",g,--,--,2.0,5.0
"Sugars, total",g,--,--,15.00,37.50
Minerals
"Calcium, Ca",mg,--,--,40,100
"Iron, Fe",mg,--,--,0.90,2.25
"Sodium, Na",mg,--,--,10,25
Vitamins
"Vitamin C, total ascorbic acid",mg,--,--,0.0,0.0
"Vitamin A, IU",IU,--,--,0,0
Lipids
"Fatty acids, total saturated",g,--,--,7.000,17.500
"Fatty acids, total trans",g,--,--,0.000,0.000
"Cholesterol",mg,--,--,5,12
Amino Acids
Other
Ingredients
"DARK CHOCOLATE (SUGAR, CHOCOLATE LIQUOR, COCOA BUTTER, MILK FAT, SOY LECITHIN, NATURAL VANILLA FLAVOR), WHITE CHOCOLATE (SUGAR, COCOA BUTTER, WHOLE MILK POWDER, SOY LECITHIN, NATURAL VANILLA FLAVOR), ALMONDS, COCONUT, TAPIOCA DEXTRIN, CONFECTIONERS GLAZE, NATURAL FLAVOR." Date available: 07/14/2017 Date last updated by company: 07/14/2017
