Source: USDA Branded Food Products Database Release December 2017 Software v.3.8.6.4 2017-10-02
Report Run at: December 19, 2017 05:35 EST
"Nutrient data for: 45266810, DARK CHOCOLATE COVERED CRANBERRIES, UPC: 071725751102"
Food Group:  Branded Food Products Database
Common Name:

Nutrient,Unit,Data points,Std. Error,"0.25 cup = 43.0g",1Value per 100 g,
Proximates
"Energy",kcal,--,--,180,419
"Protein",g,--,--,1.00,2.33
"Total lipid (fat)",g,--,--,7.00,16.28
"Carbohydrate, by difference",g,--,--,32.00,74.42
"Fiber, total dietary",g,--,--,2.0,4.7
"Sugars, total",g,--,--,26.00,60.47
Minerals
"Calcium, Ca",mg,--,--,0,0
"Iron, Fe",mg,--,--,0.42,0.98
"Sodium, Na",mg,--,--,0,0
Vitamins
"Vitamin C, total ascorbic acid",mg,--,--,0.0,0.0
"Vitamin A, IU",IU,--,--,0,0
Lipids
"Fatty acids, total saturated",g,--,--,4.502,10.470
"Fatty acids, total trans",g,--,--,0.000,0.000
"Cholesterol",mg,--,--,0,0
Amino Acids
Other
Ingredients
"DARK CHOCOLATE (SUGAR, CHOCOLATE LIQUOR, COCOA BUTTER, SOY LECITHIN, VANILLA), DRIED CRANBERRIES (CRANBERRIES, SUGAR, SUNFLOWER OIL), GUM ARABIC, CORN SYRUP, CONFECTIONERS GLAZE." Date available: 07/14/2017 Date last updated by company: 07/14/2017
