Source: USDA Branded Food Products Database Release December 2017 Software v.3.8.6.4 2017-10-02
Report Run at: December 19, 2017 05:37 EST
"Nutrient data for: 45330359, DARK CHOCOLATE ESPRESSO TRAIL MIX, UPC: 038259103999"
Food Group:  Branded Food Products Database
Common Name:

Nutrient,Unit,Data points,Std. Error,"0.25 CUP) | (ABOUT = 28.0g",1Value per 100 g,
Proximates
"Energy",kcal,--,--,150,536
"Protein",g,--,--,2.00,7.14
"Total lipid (fat)",g,--,--,11.00,39.29
"Carbohydrate, by difference",g,--,--,14.00,50.00
"Fiber, total dietary",g,--,--,2.0,7.1
"Sugars, total",g,--,--,12.00,42.86
Minerals
"Calcium, Ca",mg,--,--,20,71
"Iron, Fe",mg,--,--,1.29,4.59
"Sodium, Na",mg,--,--,25,89
Vitamins
"Vitamin C, total ascorbic acid",mg,--,--,0.0,0.0
"Vitamin A, IU",IU,--,--,0,0
Lipids
"Fatty acids, total saturated",g,--,--,4.500,16.070
"Fatty acids, total monounsaturated",g,--,--,2.999,10.710
"Fatty acids, total polyunsaturated",g,--,--,1.000,3.570
"Fatty acids, total trans",g,--,--,0.000,0.000
"Cholesterol",mg,--,--,0,0
Amino Acids
Other
Ingredients
"DARK CHOCOLATE CHIPS (SUGAR, PALM KERNEL AND PALM OIL, COCOA POWDER, COCOA POWDER [PROCESSED WITH ALKALI], ANHYDROUS DEXTROSE, SOY LECITHIN [AN EMULSIFIER], WHEY POWDER [MILK], SALT, NATURAL FLAVOR), CHOCOLATE COVERED ALMONDS (MILK CHOCOLATE [SUGAR, COCOA BUTTER, MILK, CHOCOLATE LIQUOR, SOY LECITHIN {AN EMULSIFIER}, ARTIFICIAL FLAVOR {VANILLIN}], ALMONDS, GUM ARABIC, CORN SYRUP, SUGAR, CERTIFIED CONFECTIONERS GLAZE), DARK CHOCOLATE COFFEE BEANS (DARK CHOCOLATE [SUGAR, CHOCOLATE LIQUOR, COCOA BUTTER, ANHYDROUS MILK FAT, SOY LECITHIN {AN EMULSIFIER}, VANILLA POWDER], COFFEE BEANS, GUM ARABIC, CORN SYRUP, SUGAR, CERTIFIED CONFECTIONERS GLAZE), PECANS, FILBERTS, SEASONING (SUGAR, COCOA POWDER [PROCESSED WITH ALKALI], COFFEE, CREAM SOLIDS, FRUCTOSE, SALT, OLIVE OIL, VANILLA EXTRACT, NATURAL FLAVOR), SEA SALT, PEANUT OIL." Date available: 10/13/2017 Date last updated by company: 10/13/2017
