Source: USDA Branded Food Products Database Release December 2017 Software v.3.8.6.4 2017-10-02
Report Run at: December 19, 2017 05:47 EST
"Nutrient data for: 45293108, DARK CHOCOLATE, UPC: 031290114986"
Food Group:  Branded Food Products Database
Common Name:

Nutrient,Unit,Data points,Std. Error,"1 BAR = 75.0g",1Value per 100 g,
Proximates
"Energy",kcal,--,--,430,573
"Protein",g,--,--,6.00,8.00
"Total lipid (fat)",g,--,--,30.00,40.00
"Carbohydrate, by difference",g,--,--,29.00,38.67
"Fiber, total dietary",g,--,--,9.0,12.0
"Sugars, total",g,--,--,26.00,34.67
Minerals
"Calcium, Ca",mg,--,--,40,53
"Iron, Fe",mg,--,--,8.40,11.20
"Sodium, Na",mg,--,--,10,13
Vitamins
"Vitamin C, total ascorbic acid",mg,--,--,1.6,2.1
"Vitamin A, IU",IU,--,--,0,0
Lipids
"Fatty acids, total saturated",g,--,--,18.000,24.000
"Fatty acids, total trans",g,--,--,0.000,0.000
"Cholesterol",mg,--,--,10,13
Amino Acids
Other
Ingredients
"UNSWEETENED CHOCOLATE, SUGAR, ORANGE PEEL, COCOA BUTTER, BUTTER OIL (MILK), NATURAL FLAVOR, EMULSIFIER (SOY LECITHIN), DEXTROSE (WHEAT), CITRIC ACID." Date available: 07/14/2017 Date last updated by company: 07/14/2017
