Source: USDA Branded Food Products Database Release December 2017 Software v.3.8.6.4 2017-10-02
Report Run at: December 19, 2017 05:42 EST
"Nutrient data for: 45085861, DARK CHOCOLATE SEA SALT CASHEW, UPC: 747599323843"
Food Group:  Branded Food Products Database
Common Name:

Nutrient,Unit,Data points,Std. Error,"0.25 cup = 40.0g",1Value per 100 g,
Proximates
"Energy",kcal,--,--,200,500
"Protein",g,--,--,3.00,7.50
"Total lipid (fat)",g,--,--,15.00,37.50
"Carbohydrate, by difference",g,--,--,20.00,50.00
"Fiber, total dietary",g,--,--,2.0,5.0
"Sugars, total",g,--,--,13.00,32.50
Minerals
"Calcium, Ca",mg,--,--,20,50
"Iron, Fe",mg,--,--,3.38,8.44
"Sodium, Na",mg,--,--,135,338
Vitamins
"Vitamin C, total ascorbic acid",mg,--,--,0.0,0.0
"Vitamin A, IU",IU,--,--,0,0
Lipids
"Fatty acids, total saturated",g,--,--,6.000,15.000
"Fatty acids, total trans",g,--,--,0.000,0.000
"Cholesterol",mg,--,--,4,9
Amino Acids
Other
Ingredients
"SEMI-SWEET CHOCOLATE (SUGAR, UNSWEETENED CHOCOLATE, COCOA BUTTER, MILK FAT, SOY LECITHIN - AN EMULSIFIER, VANILLA), CASHEWS, SEA SALT, TAPIOCA SYRUP, TAPIOCA DEXTRIN, CONFECTIONER'S GLAZE." Date available: 07/14/2017 Date last updated by company: 07/14/2017
