Source: USDA Branded Food Products Database Release December 2017 Software v.3.8.6.4 2017-10-02
Report Run at: December 19, 2017 05:28 EST
"Nutrient data for: 45285895, DARK CHILI POWDER, UPC: 052100038209"
Food Group:  Branded Food Products Database
Common Name:

Nutrient,Unit,Data points,Std. Error,"0.25 tsp = 0.5g",1Value per 100 g,
Proximates
"Energy",kcal,--,--,0,0
"Protein",g,--,--,0.00,0.00
"Total lipid (fat)",g,--,--,0.00,0.00
"Carbohydrate, by difference",g,--,--,0.00,0.00
Minerals
"Sodium, Na",mg,--,--,10,2000
Vitamins
"Vitamin A, IU",IU,--,--,10000,2000000
Lipids
Amino Acids
Other
Ingredients
"CHILI PEPPER, SPICES, SALT, SILICON DIOXIDE (ADDED TO MAKE FREE FLOWING), AND GARLIC." Date available: 10/13/2017 Date last updated by company: 10/13/2017
