Source: USDA Branded Food Products Database Release December 2017 Software v.3.8.6.4 2017-10-02
Report Run at: December 19, 2017 05:32 EST
"Nutrient data for: 45144817, DARK CHOCOLATE CHERRIES, UPC: 011213023847"
Food Group:  Branded Food Products Database
Common Name:

Nutrient,Unit,Data points,Std. Error,"0.25 cup = 38.0g",1Value per 100 g,
Proximates
"Energy",kcal,--,--,170,447
"Protein",g,--,--,2.00,5.26
"Total lipid (fat)",g,--,--,10.00,26.32
"Carbohydrate, by difference",g,--,--,24.00,63.16
"Fiber, total dietary",g,--,--,2.0,5.3
"Sugars, total",g,--,--,19.00,50.00
Minerals
"Calcium, Ca",mg,--,--,0,0
"Iron, Fe",mg,--,--,1.42,3.74
"Sodium, Na",mg,--,--,5,13
Vitamins
"Vitamin C, total ascorbic acid",mg,--,--,0.0,0.0
"Vitamin A, IU",IU,--,--,0,0
Lipids
"Fatty acids, total saturated",g,--,--,1.999,5.260
"Fatty acids, total trans",g,--,--,0.000,0.000
"Cholesterol",mg,--,--,5,13
Amino Acids
Other
Ingredients
"DARK CHOCOLATE (SUGAR, CHOCOLATE LIQUOR, COCOA BUTTER, ANHYDROUS MILK FAT, SOY LECITHIN [AN EMULSIFIER], VANILLA), DRIED CHERRIES (CHERRIES, SUGAR, SUNFLOWER OIL), SUGAR, CORN SYRUP, GUM ARABIC, CONFECTIONER'S GLAZE." Date available: 07/14/2017 Date last updated by company: 07/14/2017
