Source: USDA Branded Food Products Database Release December 2017 Software v.3.8.6.4 2017-10-02
Report Run at: December 19, 2017 05:53 EST
"Nutrient data for: 45089093, """"DARN GOOD"""" CHILI MIX, UPC: 760263000291"
Food Group:  Branded Food Products Database
Common Name:

Nutrient,Unit,Data points,Std. Error,"1 CUP PREPARED = 35.0g",1Value per 100 g,
Proximates
"Energy",kcal,--,--,130,371
"Protein",g,--,--,7.00,20.00
"Total lipid (fat)",g,--,--,1.00,2.86
"Carbohydrate, by difference",g,--,--,23.00,65.71
"Fiber, total dietary",g,--,--,8.0,22.9
"Sugars, total",g,--,--,2.00,5.71
Minerals
"Calcium, Ca",mg,--,--,80,229
"Iron, Fe",mg,--,--,2.06,5.88
"Sodium, Na",mg,--,--,540,1543
Vitamins
"Vitamin C, total ascorbic acid",mg,--,--,0.0,0.0
"Vitamin A, IU",IU,--,--,143,409
Lipids
"Fatty acids, total saturated",g,--,--,0.000,0.000
"Fatty acids, total trans",g,--,--,0.000,0.000
"Cholesterol",mg,--,--,0,0
Amino Acids
Other
Ingredients
"PINTO BEANS, RED BEANS, BLACK BEANS, ONIONS, ENRICHED LONG GRAIN RICE (NIACIN, IRON, THIAMIN MONONITRATE, FOLIC ACID), NATURAL BEEF FLAVOR, HYDROLYZED SOY PROTEIN, CORN STARCH, SUGAR, SALT, BELL PEPPERS, CHICKEN FAT, BEEF STOCK, MALTODEXTRIN (FROM CORN), CITRIC ACID, CELERY, GARLIC, CHILI PEPPERS, NATURAL FLAVORS, SPICES, CARAMEL (COLOR), DISODIUM INOSINATE AND DISODIUM GUANYLATE (FLAVOR ENHANCERS)." Date available: 07/14/2017 Date last updated by company: 07/14/2017
