Source: USDA Branded Food Products Database Release December 2017 Software v.3.8.6.4 2017-10-02
Report Run at: December 19, 2017 05:53 EST
"Nutrient data for: 45044809, DARTAGNAN, VENISON & PORK SAUSAGE WITH CHERRIES, UPC: 736622000400"
Food Group:  Branded Food Products Database
Common Name:

Nutrient,Unit,Data points,Std. Error,"60.0 GRM = 60.0g",1Value per 100 g,
Proximates
"Energy",kcal,--,--,290,483
"Protein",g,--,--,12.00,20.00
"Total lipid (fat)",g,--,--,23.00,38.33
"Carbohydrate, by difference",g,--,--,8.00,13.33
"Fiber, total dietary",g,--,--,1.0,1.7
"Sugars, total",g,--,--,5.00,8.33
Minerals
"Calcium, Ca",mg,--,--,0,0
"Iron, Fe",mg,--,--,1.65,2.75
"Sodium, Na",mg,--,--,270,450
Vitamins
"Vitamin C, total ascorbic acid",mg,--,--,0.0,0.0
"Vitamin A, IU",IU,--,--,367,611
Lipids
"Fatty acids, total saturated",g,--,--,7.998,13.330
"Fatty acids, total trans",g,--,--,0.000,0.000
"Cholesterol",mg,--,--,60,100
Amino Acids
Other
Ingredients
"VENISON, PORK, CHERRIES, WATER, SPICES, SALT, PARSLEY." Date available: 08/17/2017 Date last updated by company: 08/17/2017
