Source: USDA Branded Food Products Database Release December 2017 Software v.3.8.6.4 2017-10-02
Report Run at: December 19, 2017 05:58 EST
"Nutrient data for: 45234721, DAVINCI GOURMET, ZERO CALORIE SYRUP, RASPBERRY, UPC: 737384024048"
Food Group:  Branded Food Products Database
Common Name:

Nutrient,Unit,Data points,Std. Error,"30.0 ML = 1.0g",1Value per 100 g,
Proximates
"Energy",kcal,--,--,0,0
"Protein",g,--,--,0.00,0.00
"Total lipid (fat)",g,--,--,0.00,0.00
"Carbohydrate, by difference",g,--,--,0.00,0.00
"Sugars, total",g,--,--,0.00,0.00
Minerals
"Sodium, Na",mg,--,--,0,33
Vitamins
Lipids
Amino Acids
Other
Ingredients
"WATER, NATURAL FLAVOR, CELLULOSE GUM, SUCRALOSE (SPLENDA BRAND), SODIUM BENZOATE (PRESERVATIVE), CITRIC ACID, RED 40, BLUE 1." Date available: 07/14/2017 Date last updated by company: 07/14/2017
