Source: USDA Branded Food Products Database Release December 2017 Software v.3.8.6.4 2017-10-02
Report Run at: December 19, 2017 05:57 EST
"Nutrient data for: 45134080, DAVID SEED Jumbo Ranch, UNPREPARED, GTIN: 00026200006192"
Food Group:  Branded Food Products Database
Common Name:

Nutrient,Unit,Data points,Std. Error,"1 package (51g Kernels Plus Seasoning On Shell)* = 51.0g",1Value per 100 g,
Proximates
"Energy",kcal,--,--,320,627
"Protein",g,--,--,14.00,27.45
"Total lipid (fat)",g,--,--,26.00,50.98
"Carbohydrate, by difference",g,--,--,8.00,15.69
"Fiber, total dietary",g,--,--,3.0,5.9
"Sugars, total",g,--,--,1.00,1.96
Minerals
"Calcium, Ca",mg,--,--,40,78
"Iron, Fe",mg,--,--,2.70,5.29
"Potassium, K",mg,--,--,390,765
"Sodium, Na",mg,--,--,4630,9078
Vitamins
"Vitamin C, total ascorbic acid",mg,--,--,0.0,0.0
"Vitamin A, IU",IU,--,--,0,0
Lipids
"Fatty acids, total saturated",g,--,--,2.499,4.900
"Fatty acids, total monounsaturated",g,--,--,9.002,17.650
"Fatty acids, total polyunsaturated",g,--,--,13.000,25.490
"Fatty acids, total trans",g,--,--,0.000,0.000
"Cholesterol",mg,--,--,0,0
Amino Acids
Other
Ingredients
"Sunflower Seeds, Salt, Partially Hydrogenated Soybean Oil, Less than 2% of: Buttermilk Powder, Corn Syrup Solids, Whey, Citric Acid, Dextrose, Garlic Powder, Nonfat Milk, Onion Powder, Sugar, Tomato Powder, Dried Parsley, Yeast Extract, Natural and Artificial Flavors, Malic Acid, Disodium Inosinate & Disodium Guanylate. CONTAINS: MILK." Date available: 07/27/2017 Date last updated by company: 07/27/2017
