Source: USDA Branded Food Products Database Release December 2017 Software v.3.8.6.4 2017-10-02
Report Run at: December 19, 2017 05:59 EST
"Nutrient data for: 45242707, DAVINCI, SEA SHELLS PASTA, UPC: 070670007319"
Food Group:  Branded Food Products Database
Common Name:

Nutrient,Unit,Data points,Std. Error,"1 cup = 62.0g",1Value per 100 g,
Proximates
"Energy",kcal,--,--,200,323
"Protein",g,--,--,7.00,11.29
"Total lipid (fat)",g,--,--,1.00,1.61
"Carbohydrate, by difference",g,--,--,42.00,67.74
"Fiber, total dietary",g,--,--,2.0,3.2
"Sugars, total",g,--,--,1.00,1.61
Minerals
"Calcium, Ca",mg,--,--,0,0
"Iron, Fe",mg,--,--,1.80,2.90
"Sodium, Na",mg,--,--,0,0
Vitamins
"Vitamin C, total ascorbic acid",mg,--,--,0.0,0.0
"Thiamin",mg,--,--,0.525,0.847
"Riboflavin",mg,--,--,0.255,0.411
"Niacin",mg,--,--,3.000,4.839
"Vitamin A, IU",IU,--,--,0,0
Lipids
"Fatty acids, total saturated",g,--,--,0.000,0.000
"Fatty acids, total trans",g,--,--,0.000,0.000
"Cholesterol",mg,--,--,0,0
Amino Acids
Other
Ingredients
"DURUM WHEAT SEMOLINA, NIACIN, FERROUS LACTATE (IRON), THIAMIN MONONITRATE (VITAMIN B1), RIBOFLAVIN (VITAMIN B2), FOLIC ACID." Date available: 09/23/2016 Date last updated by company: 09/23/2016
