Source: USDA Branded Food Products Database Release December 2017 Software v.3.8.6.4 2017-10-02
Report Run at: December 19, 2017 06:01 EST
"Nutrient data for: 45153050, DAY DREAMS - SUPER MOIST BROWNIE COOKIE WITH WHITE CHOCOLATE CHIPS, UPC: 610358991228"
Food Group:  Branded Food Products Database
Common Name:

Nutrient,Unit,Data points,Std. Error,"1 COOKIE = 35.0g",1Value per 100 g,
Proximates
"Energy",kcal,--,--,150,429
"Protein",g,--,--,3.00,8.57
"Total lipid (fat)",g,--,--,9.00,25.71
"Carbohydrate, by difference",g,--,--,17.00,48.57
"Fiber, total dietary",g,--,--,1.0,2.9
"Sugars, total",g,--,--,8.00,22.86
Minerals
"Calcium, Ca",mg,--,--,20,57
"Iron, Fe",mg,--,--,0.82,2.35
"Sodium, Na",mg,--,--,55,157
Vitamins
"Vitamin C, total ascorbic acid",mg,--,--,0.0,0.0
"Vitamin A, IU",IU,--,--,114,327
Lipids
"Fatty acids, total saturated",g,--,--,4.000,11.430
"Fatty acids, total trans",g,--,--,0.000,0.000
"Cholesterol",mg,--,--,20,57
Amino Acids
Other
Ingredients
"SEMI-SWEET CHOCOLATE CHIPS (SUGAR, CHOCOLATE LIQUOR. COCOA BUTTER, SOY LECITHIN, NATURAL VANILLA FLAVOR), UNSALTED BUTTER, WHITE CHOCOLATE CHIPS (SUGAR, COCOA BUTTER, WHOLE MILK POWDER, NON-FAT MILK POWDER, SOY LECITHIN, NATURAL VANILLA FLAVOR), BROWN RICE FLOUR, SUCANAT (UNREFINED SUGAR), HONEY, COCONUT FLOUR, EGGS, POTATO STARCH, EVAPORATED CANE JUICE, UNSWEETENED COCOA, TAPIOCA STARCH, VANILLA EXTRACT, XANTHUM GUM, BAKING SODA, COFFEE EXTRACT, SALT, COFFEE" Date available: 07/14/2017 Date last updated by company: 07/14/2017
