Source: USDA Branded Food Products Database Release December 2017 Software v.3.8.6.4 2017-10-02
Report Run at: December 19, 2017 06:05 EST
"Nutrient data for: 45048573, DEAN'S, SOFT SERVE AND SHAKE MIX, CHOCOLATE, UPC: 041900071363"
Food Group:  Branded Food Products Database
Common Name:

Nutrient,Unit,Data points,Std. Error,"0.5 cup = 130.0g",1Value per 100 g,
Proximates
"Energy",kcal,--,--,150,115
"Protein",g,--,--,5.00,3.85
"Total lipid (fat)",g,--,--,4.00,3.08
"Carbohydrate, by difference",g,--,--,25.00,19.23
"Fiber, total dietary",g,--,--,1.0,0.8
"Sugars, total",g,--,--,21.00,16.15
Minerals
"Calcium, Ca",mg,--,--,150,115
"Iron, Fe",mg,--,--,1.46,1.12
"Sodium, Na",mg,--,--,84,65
Vitamins
"Vitamin C, total ascorbic acid",mg,--,--,0.0,0.0
"Vitamin A, IU",IU,--,--,406,312
Lipids
"Fatty acids, total saturated",g,--,--,2.496,1.920
"Fatty acids, total trans",g,--,--,0.000,0.000
"Cholesterol",mg,--,--,16,12
Amino Acids
Other
Ingredients
"NONFAT MILK, SUGAR, CREAM, CORN SYRUP, WHEY, COCOA (PROCESSED WITH ALKALI), MONO AND DIGLYCERIDES, CELLULOSE GUM, POLYSORBATE 65, GUAR GUM, CARRAGEENAN." Date available: 06/24/2017 Date last updated by company: 06/24/2017
