Source: USDA Branded Food Products Database Release December 2017 Software v.3.8.6.4 2017-10-02
Report Run at: December 19, 2017 06:04 EST
"Nutrient data for: 45084146, DEAN'S, COUNTRY FRESH, REDUCED FAT ICE CREAM, FUDGE SWIRL, UPC: 041900074272"
Food Group:  Branded Food Products Database
Common Name:

Nutrient,Unit,Data points,Std. Error,"0.5 cup = 63.0g",1Value per 100 g,
Proximates
"Energy",kcal,--,--,110,175
"Protein",g,--,--,3.00,4.76
"Total lipid (fat)",g,--,--,3.50,5.56
"Carbohydrate, by difference",g,--,--,18.00,28.57
"Fiber, total dietary",g,--,--,0.0,0.0
"Sugars, total",g,--,--,14.00,22.22
Minerals
"Calcium, Ca",mg,--,--,100,159
"Iron, Fe",mg,--,--,0.00,0.00
"Sodium, Na",mg,--,--,60,95
Vitamins
"Vitamin C, total ascorbic acid",mg,--,--,0.0,0.0
"Vitamin A, IU",IU,--,--,338,536
Lipids
"Fatty acids, total saturated",g,--,--,1.997,3.170
"Fatty acids, total trans",g,--,--,0.000,0.000
"Cholesterol",mg,--,--,15,24
Amino Acids
Other
Ingredients
"MILKFAT AND NONFAT MILK, SUGAR, CHOCOLATE SYRUP (CORN SYRUP, WATER, COCOA PROCESSED WITH ALKALI, HIGH FRUCTOSE CORN SYRUP, CORN STARCH-MODIFIED, SALT, CITRIC ACID), CORN SYRUP, SWEETCREAM BUTTERMILK, WHEY, CONTAINS LESS THAN 2% OF ARTIFICIAL FLAVOR, PROPYLENE GLYCOL MONOESTER, MONO & DIGLYCERIDES, GUAR GUM, CELLULOSE GUM, CARRAGEENAN, VITAMIN A PALMITATE, ANNATTO (COLOR)." Date available: 06/25/2017 Date last updated by company: 06/25/2017
