Source: USDA Branded Food Products Database Release December 2017 Software v.3.8.6.4 2017-10-02
Report Run at: December 19, 2017 06:06 EST
"Nutrient data for: 45205986, DEBORAH'S, RED PEPPER RELISH, UPC: 854755000231"
Food Group:  Branded Food Products Database
Common Name:

Nutrient,Unit,Data points,Std. Error,"1 Tbsp = 19.0g",1Value per 100 g,
Proximates
"Energy",kcal,--,--,30,158
"Protein",g,--,--,0.00,0.00
"Total lipid (fat)",g,--,--,0.00,0.00
"Carbohydrate, by difference",g,--,--,7.00,36.84
"Fiber, total dietary",g,--,--,0.0,0.0
"Sugars, total",g,--,--,7.00,36.84
Minerals
"Sodium, Na",mg,--,--,105,553
Vitamins
"Vitamin C, total ascorbic acid",mg,--,--,7.9,41.6
"Vitamin A, IU",IU,--,--,0,0
Lipids
Amino Acids
Other
Ingredients
"RED BELL PEPPERS, NATURAL CANE SUGAR, CIDER VINEGAR, SALT, MUSTARD SEED" Date available: 07/14/2017 Date last updated by company: 07/14/2017
