Source: USDA Branded Food Products Database Release December 2017 Software v.3.8.6.4 2017-10-02
Report Run at: December 19, 2017 06:06 EST
"Nutrient data for: 45015993, DEBOLES, ORGANIC PASTA, ANGEL HAIR, GARLIC & PARSLEY, UPC: 967336633954"
Food Group:  Branded Food Products Database
Common Name:

Nutrient,Unit,Data points,Std. Error,"0.25 PACKAGE = 56.0g",1Value per 100 g,
Proximates
"Energy",kcal,--,--,200,357
"Protein",g,--,--,7.00,12.50
"Total lipid (fat)",g,--,--,0.50,0.89
"Carbohydrate, by difference",g,--,--,40.00,71.43
"Fiber, total dietary",g,--,--,3.0,5.4
"Sugars, total",g,--,--,1.00,1.79
Minerals
"Calcium, Ca",mg,--,--,0,0
"Iron, Fe",mg,--,--,2.70,4.82
"Sodium, Na",mg,--,--,5,9
Vitamins
"Vitamin C, total ascorbic acid",mg,--,--,6.0,10.7
"Vitamin A, IU",IU,--,--,0,0
Lipids
"Fatty acids, total saturated",g,--,--,0.000,0.000
"Fatty acids, total trans",g,--,--,0.000,0.000
"Cholesterol",mg,--,--,0,0
Amino Acids
Other
Ingredients
"ORGANIC DURUM WHEAT WHEAT SEMOLINA, ORGANIC GARLIC POWDER, ORGANIC PARSLEY POWDER, ORGANIC JERUSALEM ARTICHOKE INULIN." Date available: 06/25/2017 Date last updated by company: 06/25/2017
