Source: USDA Branded Food Products Database Release December 2017 Software v.3.8.6.4 2017-10-02
Report Run at: December 19, 2017 06:08 EST
"Nutrient data for: 45287922, DECAFFEINATED HALF & HALF LEMONADE & TEA, UPC: 011110500922"
Food Group:  Branded Food Products Database
Common Name:

Nutrient,Unit,Data points,Std. Error,"8.0 OZA = 240.0g",1Value per 100 g,
Proximates
"Energy",kcal,--,--,101,42
"Protein",g,--,--,0.00,0.00
"Total lipid (fat)",g,--,--,0.00,0.00
"Carbohydrate, by difference",g,--,--,25.01,10.42
"Fiber, total dietary",g,--,--,0.0,0.0
"Sugars, total",g,--,--,25.01,10.42
Minerals
"Calcium, Ca",mg,--,--,0,0
"Iron, Fe",mg,--,--,0.00,0.00
"Potassium, K",mg,--,--,4001,1667
"Sodium, Na",mg,--,--,0,0
Vitamins
"Vitamin C, total ascorbic acid",mg,--,--,0.0,0.0
"Vitamin A, IU",IU,--,--,0,0
Lipids
"Fatty acids, total saturated",g,--,--,0.000,0.000
"Fatty acids, total trans",g,--,--,0.000,0.000
"Cholesterol",mg,--,--,0,0
Amino Acids
Other
Ingredients
"WATER, HIGH FRUCTOSE CORN SYRUP, SUGAR, DECAFFEINATED BLACK TEA CONCENTRATE, LEMON JUICE CONCENTRATE, CITRIC ACID, LEMON PULP, CITRUS BLEND (LEMON AND ORANGE), ACACIA GUM, CARAMEL COLOR, NATURAL FLAVOR, POTASSIUM SORBATE & SODIUM BENZOATE (TO PRESERVE FRESHNESS)." Date available: 10/03/2017 Date last updated by company: 10/03/2017
