Source: USDA Branded Food Products Database Release December 2017 Software v.3.8.6.4 2017-10-02
Report Run at: December 19, 2017 06:07 EST
"Nutrient data for: 45268336, DECADENT FUDGE MINT COOKIES, UPC: 731427521822"
Food Group:  Branded Food Products Database
Common Name:

Nutrient,Unit,Data points,Std. Error,"2.0 COOKIES = 36.0g",1Value per 100 g,
Proximates
"Energy",kcal,--,--,180,500
"Protein",g,--,--,1.00,2.78
"Total lipid (fat)",g,--,--,8.00,22.22
"Carbohydrate, by difference",g,--,--,25.00,69.44
"Fiber, total dietary",g,--,--,1.0,2.8
"Sugars, total",g,--,--,14.00,38.89
Minerals
"Calcium, Ca",mg,--,--,0,0
"Iron, Fe",mg,--,--,1.50,4.17
"Sodium, Na",mg,--,--,150,417
Vitamins
"Vitamin C, total ascorbic acid",mg,--,--,0.0,0.0
"Vitamin A, IU",IU,--,--,0,0
Lipids
"Fatty acids, total saturated",g,--,--,6.001,16.670
"Fatty acids, total trans",g,--,--,0.000,0.000
"Cholesterol",mg,--,--,0,0
Amino Acids
Other
Ingredients
"SUGAR, ENRICHED FLOUR (WHEAT FLOUR, NIACIN, REDUCED IRON, THIAMINE MONONITRATE, RIBOFLAVIN, FOLIC ACID), PALM AND PALM KERNEL OILS, COCOA (PROCESSED WITH ALKALI), MODIFIED CORN STARCH, HIGH FRUCTOSE CORN SYRUP, SALT, SOY LECITHIN, SODIUM BICARBONATE, PEPPERMINT OIL, ARTIFICIAL FLAVOR (VANILLIN)." Date available: 07/14/2017 Date last updated by company: 07/14/2017
