Source: USDA Branded Food Products Database Release December 2017 Software v.3.8.6.4 2017-10-02
Report Run at: December 19, 2017 06:12 EST
"Nutrient data for: 45318868, DECORATING CUPCAKE ICING, UPC: 071169778086"
Food Group:  Branded Food Products Database
Common Name:

Nutrient,Unit,Data points,Std. Error,"2.0 Tbsp = 35.0g",1Value per 100 g,
Proximates
"Energy",kcal,--,--,150,429
"Protein",g,--,--,0.00,0.00
"Total lipid (fat)",g,--,--,7.00,20.00
"Carbohydrate, by difference",g,--,--,23.00,65.71
"Fiber, total dietary",g,--,--,0.0,0.0
"Sugars, total",g,--,--,19.00,54.29
Minerals
"Calcium, Ca",mg,--,--,0,0
"Iron, Fe",mg,--,--,0.00,0.00
"Sodium, Na",mg,--,--,35,100
Vitamins
"Vitamin C, total ascorbic acid",mg,--,--,0.0,0.0
"Vitamin A, IU",IU,--,--,0,0
Lipids
"Fatty acids, total saturated",g,--,--,1.998,5.710
"Fatty acids, total trans",g,--,--,1.502,4.290
"Cholesterol",mg,--,--,0,0
Amino Acids
Other
Ingredients
"SUGAR, CORN SYRUP, PARTIALLY HYDROGENATED VEGETABLE OIL (SOYBEAN, COTTONSEED), WATER, MALTODEXTRIN, MODIFIED POTATO STARCH, CORNSTARCH, NATURAL & ARTIFICIAL FLAVOR, POLYGLYCEROL ESTERS, TITANIUM DIOXIDE (COLOR), SALT, CELLULOSE GUM, POTASSIUM SORBATE (PRESERVATIVE), CITRIC ACID, YELLOW 6 LAKE, SOY LECITHIN, RED 3." Date available: 07/14/2017 Date last updated by company: 07/14/2017
