Source: USDA Branded Food Products Database Release December 2017 Software v.3.8.6.4 2017-10-02
Report Run at: December 19, 2017 06:14 EST
"Nutrient data for: 45330904, DECORATING READY TO USE COOKIE ICING, UPC: 011225353154"
Food Group:  Branded Food Products Database
Common Name:

Nutrient,Unit,Data points,Std. Error,"2.0 Tbsp = 35.0g",1Value per 100 g,
Proximates
"Energy",kcal,--,--,130,371
"Protein",g,--,--,0.00,0.00
"Total lipid (fat)",g,--,--,0.00,0.00
"Carbohydrate, by difference",g,--,--,31.00,88.57
"Sugars, total",g,--,--,24.00,68.57
Minerals
"Sodium, Na",mg,--,--,25,71
Vitamins
Lipids
"Fatty acids, total saturated",g,--,--,0.000,0.000
"Cholesterol",mg,--,--,0,0
Amino Acids
Other
Ingredients
"SUGAR, CORN SYRUP, WATER, YELLOW 5, RED 3, RED 40, BLUE 1, CITRIC ACID, SALT, XANTHAN GUM, VEGETABLE GUM, POTASSIUM SORBATE(AS PRESERVATIVE), ARTIFICIAL FLAVOR." Date available: 09/23/2017 Date last updated by company: 09/23/2017
