Source: USDA Branded Food Products Database Release December 2017 Software v.3.8.6.4 2017-10-02
Report Run at: December 19, 2017 06:12 EST
"Nutrient data for: 45259693, DECORATING CANDY, UPC: 070896711960"
Food Group:  Branded Food Products Database
Common Name:

Nutrient,Unit,Data points,Std. Error,"1 AVERAGE PIECE | PORTION = 1.5g",1Value per 100 g,
Proximates
"Energy",kcal,--,--,5,333
"Protein",g,--,--,0.00,0.00
"Total lipid (fat)",g,--,--,0.00,0.00
"Carbohydrate, by difference",g,--,--,1.00,66.67
"Sugars, total",g,--,--,1.00,66.67
Minerals
"Sodium, Na",mg,--,--,0,0
Vitamins
Lipids
Amino Acids
Other
Ingredients
"DEXTROSE, CORN SYRUP, MALTODEXTRIN, MAGNESIUM STEARATE, CITRIC ACID, WATER, ARTIFICIAL FLAVOR, GUM ARABIC, GLYCEROL MONOSTEARATE, CONFECTIONERS' GLAZE, CARNAUBA WAX, CONTAINS ONE OR MORE OF THE FOLLOWING COLORS: MUSTACHE - FD&C RED #40, FD&C YELLOW #5, FD&C BLUE #1; LIPS - FD&C RED #40, FD&C RED #3; TEETH - TITANIUM DIOXIDE (COLOR)." Date available: 07/14/2017 Date last updated by company: 07/14/2017
