Source: USDA Branded Food Products Database Release December 2017 Software v.3.8.6.4 2017-10-02
Report Run at: December 19, 2017 06:10 EST
"Nutrient data for: 45210021, DECORATED BASEBALL COOKIES, UPC: 037695160979"
Food Group:  Branded Food Products Database
Common Name:

Nutrient,Unit,Data points,Std. Error,"1 COOKIE = 50.0g",1Value per 100 g,
Proximates
"Energy",kcal,--,--,220,440
"Protein",g,--,--,2.00,4.00
"Total lipid (fat)",g,--,--,7.00,14.00
"Carbohydrate, by difference",g,--,--,38.00,76.00
"Fiber, total dietary",g,--,--,0.0,0.0
"Sugars, total",g,--,--,16.00,32.00
Minerals
"Calcium, Ca",mg,--,--,0,0
"Iron, Fe",mg,--,--,1.44,2.88
"Sodium, Na",mg,--,--,180,360
Vitamins
"Vitamin C, total ascorbic acid",mg,--,--,0.0,0.0
"Vitamin A, IU",IU,--,--,0,0
Lipids
"Fatty acids, total saturated",g,--,--,3.500,7.000
"Fatty acids, total trans",g,--,--,0.000,0.000
"Cholesterol",mg,--,--,0,0
Amino Acids
Other
Ingredients
"COOKIE INGREDIENTS: ENRICHED WHEAT FLOUR (NIACIN, REDUCED IRON, THIAMINE MONONITRATE, RIBOFLAVIN, FOLIC ACID), INVERT SUGAR, SUGAR, MOLASSES, PALM OIL SHORTENING, NATURAL & ARTIFICIAL FLAVORS, SALT, PROPYLENE GLYCOL, LEAVENING (SODIUM ACID PYROPHOSPHATE, SODIUM BICARBONATE, CORNSTARCH AND MONOCALCIUM PHOSPHATE), SOY LECITHIN AS AN EMULSIFIER, EGGS, MILK. ICING INGREDIENTS: CONFECTIONERS SUGAR, EGG WHITES, GLYCERINE, TITANIUM DIOXIDE, YELLOW 5, YELLOW 6, RED 3, RED 40, BLUE 1, BLUE 2, CREAM OF TARTAR." Date available: 07/14/2017 Date last updated by company: 07/14/2017
