Source: USDA Branded Food Products Database Release December 2017 Software v.3.8.6.4 2017-10-02
Report Run at: December 19, 2017 06:14 EST
"Nutrient data for: 45208083, DECORATIVE CHOCOLATES, UPC: 049022801141"
Food Group:  Branded Food Products Database
Common Name:

Nutrient,Unit,Data points,Std. Error,"3.0 PIECES = 38.0g",1Value per 100 g,
Proximates
"Energy",kcal,--,--,220,579
"Protein",g,--,--,2.00,5.26
"Total lipid (fat)",g,--,--,14.00,36.84
"Carbohydrate, by difference",g,--,--,20.00,52.63
"Fiber, total dietary",g,--,--,1.0,2.6
"Sugars, total",g,--,--,18.00,47.37
Minerals
"Calcium, Ca",mg,--,--,0,0
"Iron, Fe",mg,--,--,0.00,0.00
"Sodium, Na",mg,--,--,20,53
Vitamins
"Vitamin C, total ascorbic acid",mg,--,--,0.0,0.0
"Vitamin A, IU",IU,--,--,0,0
Lipids
"Fatty acids, total saturated",g,--,--,7.000,18.420
"Fatty acids, total trans",g,--,--,0.000,0.000
"Cholesterol",mg,--,--,5,13
Amino Acids
Other
Ingredients
"SUGAR, COCOA BUTTER, MILK, PALM FAT, CRANBERRY FILLING (GLUCOSE SYRUP, SUGAR, CRANBERRY JUICE, INVERT SUGAR SYRUP, NATURAL FLAVOR, CITRIC ACID [ACIDIFIER], PECTIN), SKIM MILK, SUNFLOWER OIL, WHEY, COCOA MASS, MEDIUM FAT COCOA, LACTOSE, BUTTER BISCUIT PIECES (WHEAT FLOUR, SUGAR, BUTTER, WHEAT STARCH, REDUCED FAT COCOA POWDER, MILK, SALT, WHEY, RAISING AGENTS [SODIUM BICARBONATE, AMMONIUM BICARBONATE]), SOY LECITHIN, STRAWBERRY POWDER, NATURAL BOURBON VANILLA FLAVOR, NATURAL FLAVOR, CITRIC ACID (ACIDIFIER), VEGETABLE OILS (PALM, SHEA NUT), COLORS (TURMERIC, COCHINEAL EXTRACT, BEETROOT RED, TITANIUM DIOXIDE)." Date available: 08/17/2017 Date last updated by company: 08/17/2017
