Source: USDA Branded Food Products Database Release December 2017 Software v.3.8.6.4 2017-10-02
Report Run at: December 19, 2017 06:11 EST
"Nutrient data for: 45316724, DECORATED SHORTBREAD COOKIE, UPC: 052548597849"
Food Group:  Branded Food Products Database
Common Name:

Nutrient,Unit,Data points,Std. Error,"0.5 COOKIE | ABOUT = 43.0g",1Value per 100 g,
Proximates
"Energy",kcal,--,--,160,372
"Protein",g,--,--,2.00,4.65
"Total lipid (fat)",g,--,--,6.00,13.95
"Carbohydrate, by difference",g,--,--,25.00,58.14
"Fiber, total dietary",g,--,--,0.0,0.0
"Sugars, total",g,--,--,13.00,30.23
Minerals
"Calcium, Ca",mg,--,--,40,93
"Iron, Fe",mg,--,--,0.42,0.98
"Sodium, Na",mg,--,--,100,233
Vitamins
"Vitamin C, total ascorbic acid",mg,--,--,0.0,0.0
"Vitamin A, IU",IU,--,--,349,812
Lipids
"Fatty acids, total saturated",g,--,--,3.001,6.980
"Fatty acids, total trans",g,--,--,0.000,0.000
"Cholesterol",mg,--,--,5,12
Amino Acids
Other
Ingredients
"ENRICHED FLOUR BLEACHED (WHEAT FLOUR, MALTED BARLEY FLOUR, NIACIN, REDUCED IRON, THIAMINE MONONITRATE, RIBOFLAVIN, FOLIC ACID), SUGAR, MARGARINE BLEND (PALM OIL, PALM FRACTIONS WATER, SALT, MONOGLYCERIDES, NATURAL FLAVOR, MIXED TOCOPHEROL(SOY DERIVED, BETA-CAROTENE [COLOR], VITAMIN A), GLYCERIN, SODIUM ACID PYROPHOSPHATE, BAKING SODA, CORN STARCH, MONOCALCIUM PHOSPHATE, SOY PROTEIN CONCENTRATE, EGGS, AMMONIUM ALUMINUM SULFATE, SOY LECITHIN, LACTIC ACID, ENZYMES, ACACIA (GUM ARABIC), ANNATTO EXTRACT (COLOR), TURMERIC OLEORESIN (COLOR), CELLULOSE GUM, TANIUM DIOXIDE, ARTIFICIAL COLORS (BLUE 1, YELLOW 6, YELLOW 5, RED 3, RED 40, BLUE 2), CITRIC ACID, SODIUM BENZOATE, POTASSIUM SORBATE." Date available: 07/14/2017 Date last updated by company: 07/14/2017
