Source: USDA Branded Food Products Database Release December 2017 Software v.3.8.6.4 2017-10-02
Report Run at: December 19, 2017 06:15 EST
"Nutrient data for: 45178013, DEEFIELDS BAKERY, WHITE BREAD, UPC: 610358991921"
Food Group:  Branded Food Products Database
Common Name:

Nutrient,Unit,Data points,Std. Error,"3.5 OZ = 99.0g",1Value per 100 g,
Proximates
"Energy",kcal,--,--,220,222
"Protein",g,--,--,5.00,5.05
"Total lipid (fat)",g,--,--,5.00,5.05
"Carbohydrate, by difference",g,--,--,41.00,41.41
"Fiber, total dietary",g,--,--,5.0,5.1
"Sugars, total",g,--,--,3.00,3.03
Minerals
"Calcium, Ca",mg,--,--,60,61
"Iron, Fe",mg,--,--,0.54,0.55
"Sodium, Na",mg,--,--,260,263
Vitamins
"Vitamin D",IU,--,--,440,444
Lipids
Amino Acids
Other
Ingredients
"WATER, SORGHUM FLOUR, POTATO STARCH, EGG WHITES, TAPIOCA STARCH, FLAX MEAL, SOLUBLE CORN FIBER, OIL, CANOLA, HONEY, YEAST, BAKING POWDER, CIDER VINEGAR, SALT, XANTHAN GUM." Date available: 10/19/2017 Date last updated by company: 10/19/2017
