Source: USDA Branded Food Products Database Release December 2017 Software v.3.8.6.4 2017-10-02
Report Run at: December 19, 2017 06:17 EST
"Nutrient data for: 45142140, DEEP, MURMURA MIX, UPC: 011433132022"
Food Group:  Branded Food Products Database
Common Name:

Nutrient,Unit,Data points,Std. Error,"1 cup = 28.0g",1Value per 100 g,
Proximates
"Energy",kcal,--,--,140,500
"Protein",g,--,--,4.00,14.29
"Total lipid (fat)",g,--,--,7.00,25.00
"Carbohydrate, by difference",g,--,--,16.00,57.14
"Fiber, total dietary",g,--,--,2.0,7.1
"Sugars, total",g,--,--,1.00,3.57
Minerals
"Calcium, Ca",mg,--,--,20,71
"Iron, Fe",mg,--,--,1.93,6.88
"Sodium, Na",mg,--,--,250,893
Vitamins
"Vitamin C, total ascorbic acid",mg,--,--,0.0,0.0
"Vitamin A, IU",IU,--,--,0,0
Lipids
"Fatty acids, total saturated",g,--,--,1.501,5.360
"Cholesterol",mg,--,--,0,0
Amino Acids
Other
Ingredients
"PUFFED RICE, ROASTED SPLIT CHICKPEAS, PEANUTS, CHICKPEA FLOUR, CORN OIL AND/OR CANOLA OIL, SUGAR SALT, RED CHILI, CURRY LEAVES, MUSTARD SEEDS, TURMERIC, SPICES, CITRIC ACID," Date available: 07/14/2017 Date last updated by company: 07/14/2017
