Source: USDA Branded Food Products Database Release December 2017 Software v.3.8.6.4 2017-10-02
Report Run at: December 19, 2017 06:15 EST
"Nutrient data for: 45178547, DEEP DISH PIE CRUSTS, UPC: 754807130025"
Food Group:  Branded Food Products Database
Common Name:

Nutrient,Unit,Data points,Std. Error,"0.125 CRUST = 21.0g",1Value per 100 g,
Proximates
"Energy",kcal,--,--,90,429
"Protein",g,--,--,1.00,4.76
"Total lipid (fat)",g,--,--,5.00,23.81
"Carbohydrate, by difference",g,--,--,11.00,52.38
"Fiber, total dietary",g,--,--,0.0,0.0
"Sugars, total",g,--,--,1.00,4.76
Minerals
"Calcium, Ca",mg,--,--,0,0
"Iron, Fe",mg,--,--,2.14,10.20
"Sodium, Na",mg,--,--,85,405
Vitamins
"Vitamin C, total ascorbic acid",mg,--,--,0.0,0.0
"Vitamin A, IU",IU,--,--,0,0
Lipids
"Fatty acids, total saturated",g,--,--,1.999,9.520
"Fatty acids, total trans",g,--,--,0.000,0.000
"Cholesterol",mg,--,--,5,24
Amino Acids
Other
Ingredients
"ENRICHED WHEAT FLOUR (WHEAT FLOUR, NIACIN, IRON, THIAMIN MONONITRATE, RIBOFLAVIN, FOLIC ACID), LARD AND HYDROGENATED LARD WITH BHA AND BHT ADDED TO PROTECT FLAVOR, WATER, SUGAR, CONTAINS 2% OR LESS OF: SALT, BAKING SODA, SODIUM METABISULFITE (PRESERVATIVE), YELLOW 5, YELLOW 6." Date available: 07/14/2017 Date last updated by company: 07/14/2017
