Source: USDA Branded Food Products Database Release December 2017 Software v.3.8.6.4 2017-10-02
Report Run at: December 19, 2017 06:18 EST
"Nutrient data for: 45148986, DEERFIELDS BAKERY, LEMON BUTTONS COOKIES, UPC: 610358991129"
Food Group:  Branded Food Products Database
Common Name:

Nutrient,Unit,Data points,Std. Error,"1 COOKIE = 35.0g",1Value per 100 g,
Proximates
"Energy",kcal,--,--,130,371
"Protein",g,--,--,1.00,2.86
"Total lipid (fat)",g,--,--,4.50,12.86
"Carbohydrate, by difference",g,--,--,21.00,60.00
"Fiber, total dietary",g,--,--,1.0,2.9
"Sugars, total",g,--,--,11.00,31.43
Minerals
"Calcium, Ca",mg,--,--,0,0
"Iron, Fe",mg,--,--,0.51,1.47
"Sodium, Na",mg,--,--,25,71
Vitamins
"Vitamin C, total ascorbic acid",mg,--,--,1.7,4.9
"Vitamin A, IU",IU,--,--,143,409
Lipids
"Fatty acids, total saturated",g,--,--,2.499,7.140
"Fatty acids, total trans",g,--,--,0.000,0.000
"Cholesterol",mg,--,--,20,57
Amino Acids
Other
Ingredients
"POWDERED SUGAR (INCLUDES UP TO 3% CORNSTARCH), BROWN RICE FLOUR, UNSALTED BUTTER, EVAPORATED CANE JUICE, POTATO STARCH, RICE FLOUR, EGGS, LEMON PUREE, ALMONDS FLOUR, COCONUT FLOUR, WATER, HONEY, XANTHAN GUM, SALT, ALMOND EXTRACT, BAKING POWDER (MONOCALCIUM PHOSPHATE, SODIUM BICARBONATE, CORNSTARCH)." Date available: 07/14/2017 Date last updated by company: 07/14/2017
