Source: USDA Branded Food Products Database Release December 2017 Software v.3.8.6.4 2017-10-02
Report Run at: December 19, 2017 06:38 EST
"Nutrient data for: 45082099, DEL MONTE, CUT GREEN BEANS, UPC: 024000162872"
Food Group:  Branded Food Products Database
Common Name:

Nutrient,Unit,Data points,Std. Error,"0.5 cup = 121.0g",1Value per 100 g,
Proximates
"Energy",kcal,--,--,21,17
"Protein",g,--,--,1.00,0.83
"Total lipid (fat)",g,--,--,0.00,0.00
"Carbohydrate, by difference",g,--,--,3.00,2.48
"Fiber, total dietary",g,--,--,1.0,0.8
"Sugars, total",g,--,--,1.00,0.83
Minerals
"Calcium, Ca",mg,--,--,21,17
"Iron, Fe",mg,--,--,0.39,0.32
"Potassium, K",mg,--,--,100,83
"Sodium, Na",mg,--,--,10,8
Vitamins
"Vitamin C, total ascorbic acid",mg,--,--,2.5,2.1
"Vitamin A, IU",IU,--,--,430,355
Lipids
"Fatty acids, total saturated",g,--,--,0.000,0.000
"Fatty acids, total trans",g,--,--,0.000,0.000
"Cholesterol",mg,--,--,0,0
Amino Acids
Other
Ingredients
"GREEN BEANS, WATER." Date available: 07/14/2017 Date last updated by company: 07/14/2017
