Source: USDA Branded Food Products Database Release December 2017 Software v.3.8.6.4 2017-10-02
Report Run at: December 19, 2017 06:22 EST
"Nutrient data for: 45185961, DEL DUCA PROSCIUTTO, UPC: 736436854787"
Food Group:  Branded Food Products Database
Common Name:

Nutrient,Unit,Data points,Std. Error,"1 ONZ = 28.0g",1Value per 100 g,
Proximates
"Energy",kcal,--,--,60,214
"Protein",g,--,--,8.00,28.57
"Total lipid (fat)",g,--,--,3.00,10.71
"Carbohydrate, by difference",g,--,--,1.00,3.57
Minerals
"Iron, Fe",mg,--,--,0.71,2.53
"Sodium, Na",mg,--,--,650,2321
Vitamins
Lipids
"Fatty acids, total saturated",g,--,--,1.000,3.570
"Fatty acids, total trans",g,--,--,0.000,0.000
"Cholesterol",mg,--,--,25,89
Amino Acids
Other
Ingredients
"PORK, SALT." Date available: 07/14/2017 Date last updated by company: 07/14/2017
