Source: USDA Branded Food Products Database Release December 2017 Software v.3.8.6.4 2017-10-02
Report Run at: December 19, 2017 06:39 EST
"Nutrient data for: 45079491, DEL MONTE, DICED YELLOW CLING PEACHES IN PEACH FLAVORED GEL, UPC: 024000051978"
Food Group:  Branded Food Products Database
Common Name:

Nutrient,Unit,Data points,Std. Error,"1 cup = 128.0g",1Value per 100 g,
Proximates
"Energy",kcal,--,--,79,62
"Protein",g,--,--,0.00,0.00
"Total lipid (fat)",g,--,--,0.00,0.00
"Carbohydrate, by difference",g,--,--,19.00,14.84
"Fiber, total dietary",g,--,--,1.0,0.8
"Sugars, total",g,--,--,18.00,14.06
Minerals
"Calcium, Ca",mg,--,--,0,0
"Iron, Fe",mg,--,--,0.00,0.00
"Potassium, K",mg,--,--,45,35
"Sodium, Na",mg,--,--,15,12
Vitamins
"Vitamin C, total ascorbic acid",mg,--,--,14.1,11.0
"Vitamin A, IU",IU,--,--,78,61
Lipids
"Fatty acids, total saturated",g,--,--,0.000,0.000
"Fatty acids, total trans",g,--,--,0.000,0.000
"Cholesterol",mg,--,--,0,0
Amino Acids
Other
Ingredients
"WATER, PEACHES, SUGAR, GUM BLEND (DEXTROSE, GELLAN, XANTHAN AND LOCUST BEAN GUMS), NATURAL FLAVOR, CITRIC ACID, SODIUM CITRATE, CARMINE, CALCIUM CHLORIDE, ASCORBIC ACID (TO PRESERVE COLOR)." Date available: 07/14/2017 Date last updated by company: 07/14/2017
