Source: USDA Branded Food Products Database Release December 2017 Software v.3.8.6.4 2017-10-02
Report Run at: December 19, 2017 06:46 EST
"Nutrient data for: 45082105, DEL MONTE, SWEET CORN CREAM STYLE, UPC: 024000163015"
Food Group:  Branded Food Products Database
Common Name:

Nutrient,Unit,Data points,Std. Error,"0.5 cup = 125.0g",1Value per 100 g,
Proximates
"Energy",kcal,--,--,70,56
"Protein",g,--,--,1.00,0.80
"Total lipid (fat)",g,--,--,1.00,0.80
"Carbohydrate, by difference",g,--,--,14.00,11.20
"Fiber, total dietary",g,--,--,1.0,0.8
"Sugars, total",g,--,--,7.00,5.60
Minerals
"Calcium, Ca",mg,--,--,20,16
"Iron, Fe",mg,--,--,0.38,0.30
"Potassium, K",mg,--,--,125,100
"Sodium, Na",mg,--,--,340,272
Vitamins
"Vitamin C, total ascorbic acid",mg,--,--,0.0,0.0
"Vitamin A, IU",IU,--,--,0,0
Lipids
"Fatty acids, total saturated",g,--,--,0.000,0.000
"Fatty acids, total trans",g,--,--,0.000,0.000
"Cholesterol",mg,--,--,0,0
Amino Acids
Other
Ingredients
"WATER CORN, MODIFIED FOOD STARCH (CORN), SUGAR, SEA SALT." Date available: 07/14/2017 Date last updated by company: 07/14/2017
