Source: USDA Branded Food Products Database Release December 2017 Software v.3.8.6.4 2017-10-02
Report Run at: December 19, 2017 06:41 EST
"Nutrient data for: 45100567, DEL MONTE, FRUIT & VEGGIE FUSIONS, CHERRY FRUIT TRIO, UPC: 024000554196"
Food Group:  Branded Food Products Database
Common Name:

Nutrient,Unit,Data points,Std. Error,"1 cup = 113.0g",1Value per 100 g,
Proximates
"Energy",kcal,--,--,70,62
"Protein",g,--,--,0.00,0.00
"Total lipid (fat)",g,--,--,0.00,0.00
"Carbohydrate, by difference",g,--,--,17.00,15.04
"Fiber, total dietary",g,--,--,1.0,0.9
"Sugars, total",g,--,--,14.00,12.39
Minerals
"Calcium, Ca",mg,--,--,0,0
"Iron, Fe",mg,--,--,0.12,0.11
"Potassium, K",mg,--,--,160,142
"Sodium, Na",mg,--,--,5,4
Vitamins
"Vitamin C, total ascorbic acid",mg,--,--,21.2,18.8
"Vitamin A, IU",IU,--,--,35,31
Lipids
"Fatty acids, total saturated",g,--,--,0.000,0.000
"Fatty acids, total trans",g,--,--,0.000,0.000
"Cholesterol",mg,--,--,0,0
Amino Acids
Other
Ingredients
"FRUIT [PEACHES, PEARS, CHERRIES (CHERRIES, CARMINE)], VEGETABLE JUICES (WATER, PUMPKIN JUICE CONCENTRATE, SWEET POTATO JUICE CONCENTRATE, BUTTERNUT SQUASH JUICE CONCENTRATE), WATER, SUGAR, PEAR JUICE CONCENTRATE, CITRIC ACID, NATURAL FLAVOR, CARMINE, ASCORBIC ACID (TO PRESERVE COLOR), CALCIUM CHLORIDE." Date available: 07/14/2017 Date last updated by company: 07/14/2017
