Source: USDA Branded Food Products Database Release December 2017 Software v.3.8.6.4 2017-10-02
Report Run at: December 19, 2017 06:24 EST
"Nutrient data for: 45174460, DELICIOUS BAKERY, CHUNKY CHOCOLATE CHIP, UPC: 045100060950"
Food Group:  Branded Food Products Database
Common Name:

Nutrient,Unit,Data points,Std. Error,"2.0 COOKIES = 32.0g",1Value per 100 g,
Proximates
"Energy",kcal,--,--,160,500
"Protein",g,--,--,1.00,3.12
"Total lipid (fat)",g,--,--,9.00,28.12
"Carbohydrate, by difference",g,--,--,20.00,62.50
"Fiber, total dietary",g,--,--,1.0,3.1
"Sugars, total",g,--,--,10.00,31.25
Minerals
"Calcium, Ca",mg,--,--,20,62
"Iron, Fe",mg,--,--,1.13,3.52
"Potassium, K",mg,--,--,40,125
"Sodium, Na",mg,--,--,110,344
Vitamins
"Vitamin C, total ascorbic acid",mg,--,--,0.0,0.0
"Vitamin A, IU",IU,--,--,0,0
Lipids
"Fatty acids, total saturated",g,--,--,3.501,10.940
"Fatty acids, total monounsaturated",g,--,--,3.002,9.380
"Fatty acids, total polyunsaturated",g,--,--,2.000,6.250
"Fatty acids, total trans",g,--,--,0.000,0.000
"Cholesterol",mg,--,--,0,0
Amino Acids
Other
Ingredients
"ENRICHED FLOUR (WHEAT FLOOR, NIACIN REDUCED IRON, THIAMINE MONONITRATE, RIBOFLAVIN, FOLIC ACID, SUGAR, VEGETABLE OIL (CONTAINS ONE OR MORE OF THE FOLLOWING CANOLA OIL, CORN OIL, PALM OIL, SOYBEAN OIL), SEMISWEET CHOCOLATE CHUNKS (SUGAR, CHOCOLATE, DEXTROSE, COCOA BUTTER, SOY LECITHIN, SALT, VANILLIN); SEMISWEET CHOCOLATE CHIPS (SUGAR, CHOCOLATE, COCOA BUTTER, DEXTROSE, SOY LECITHIN, VANILLIN), LEAVENING (SODIUM BICARBONATE, MONOCALCIUM PHOSPHATE, AMMONIUM BICARBONATE), MOLASSES HIGH FRUCTOSE CORN SYRUP, SALT, SOY LECITHIN (EMULSIFIER), NATURAL AND ARTIFICIAL FLAVORS, CARAMEL COLOR." Date available: 07/14/2017 Date last updated by company: 07/14/2017
