Source: USDA Branded Food Products Database Release December 2017 Software v.3.8.6.4 2017-10-02
Report Run at: December 19, 2017 06:30 EST
"Nutrient data for: 45214510, DELISHAVED SOUTHWESTERN STYLE TURKEY, UPC: 051900801136"
Food Group:  Branded Food Products Database
Common Name:

Nutrient,Unit,Data points,Std. Error,"9.0 SLICES = 57.0g",1Value per 100 g,
Proximates
"Energy",kcal,--,--,100,175
"Protein",g,--,--,9.00,15.79
"Total lipid (fat)",g,--,--,6.00,10.53
"Carbohydrate, by difference",g,--,--,2.00,3.51
Minerals
"Calcium, Ca",mg,--,--,40,70
"Iron, Fe",mg,--,--,1.04,1.83
"Sodium, Na",mg,--,--,560,982
Vitamins
"Vitamin C, total ascorbic acid",mg,--,--,1.1,2.0
"Vitamin A, IU",IU,--,--,193,339
Lipids
"Fatty acids, total saturated",g,--,--,1.499,2.630
"Fatty acids, total trans",g,--,--,0.000,0.000
"Cholesterol",mg,--,--,35,61
Amino Acids
Other
Ingredients
"TURKEY, MECHANICALLY SEPARATED TURKEY, WATER, LESS THAN 2% OF SALT, DEXTROSE, LEMON PEEL, NATURAL FLAVORINGS, CITRIC ACID ISOLATED SOY PROTEIN, POTASSIUM CHLORIDE, SODIUM PHOSPHATES, SODIUM NITRITE, SODIUM ERYTHORBATE." Date available: 07/14/2017 Date last updated by company: 07/14/2017
