Source: USDA Branded Food Products Database Release December 2017 Software v.3.8.6.4 2017-10-02
Report Run at: December 19, 2017 06:23 EST
"Nutrient data for: 45313302, DELICATESSEN SPICED PUMPKIN BISQUE, UPC: 041220662449"
Food Group:  Branded Food Products Database
Common Name:

Nutrient,Unit,Data points,Std. Error,"1 cup = 245.0g",1Value per 100 g,
Proximates
"Energy",kcal,--,--,230,94
"Protein",g,--,--,2.99,1.22
"Total lipid (fat)",g,--,--,16.00,6.53
"Carbohydrate, by difference",g,--,--,21.00,8.57
"Fiber, total dietary",g,--,--,2.0,0.8
"Sugars, total",g,--,--,11.00,4.49
Minerals
"Calcium, Ca",mg,--,--,100,41
"Iron, Fe",mg,--,--,0.71,0.29
"Potassium, K",mg,--,--,270,110
"Sodium, Na",mg,--,--,169,69
Vitamins
"Vitamin C, total ascorbic acid",mg,--,--,2.5,1.0
"Vitamin A, IU",IU,--,--,8999,3673
Lipids
"Fatty acids, total saturated",g,--,--,8.992,3.670
"Fatty acids, total trans",g,--,--,0.000,0.000
"Cholesterol",mg,--,--,49,20
Amino Acids
Other
Ingredients
"WATER, PUMPKIN, LIGHT CREAM, SWEET POTATOES, ONIONS, BUTTER (CREAM, SALT), BROWN SUGAR, CONTAINS 2% OR LESS OF: ORGANIC CORN STARCH, SALT, NISIN PREPARATION (ANTIMICROBIAL), SPICES." Date available: 07/14/2017 Date last updated by company: 07/14/2017
