Source: USDA Branded Food Products Database Release December 2017 Software v.3.8.6.4 2017-10-02
Report Run at: December 19, 2017 06:35 EST
"Nutrient data for: 45283126, DELI STYLE TURKEY BREAST AND WHITE TURKEY, UPC: 015900063352"
Food Group:  Branded Food Products Database
Common Name:

Nutrient,Unit,Data points,Std. Error,"1 SLICE = 32.0g",1Value per 100 g,
Proximates
"Energy",kcal,--,--,40,125
"Protein",g,--,--,5.00,15.62
"Total lipid (fat)",g,--,--,1.50,4.69
"Carbohydrate, by difference",g,--,--,2.00,6.25
"Fiber, total dietary",g,--,--,0.0,0.0
"Sugars, total",g,--,--,1.00,3.12
Minerals
"Calcium, Ca",mg,--,--,0,0
"Iron, Fe",mg,--,--,0.62,1.94
"Sodium, Na",mg,--,--,250,781
Vitamins
"Vitamin C, total ascorbic acid",mg,--,--,0.0,0.0
"Vitamin A, IU",IU,--,--,0,0
Lipids
"Fatty acids, total saturated",g,--,--,0.000,0.000
"Fatty acids, total trans",g,--,--,0.000,0.000
"Cholesterol",mg,--,--,10,31
Amino Acids
Other
Ingredients
"TURKEY BREAST, WATER, WHITE TURKEY, MODIFIED CORN STARCH, DEXTROSE, 2% OR LESS OF THE FOLLOWING: SALT, POTASSIUM LACTATE, POTASSIUM ACETATE, SODIUM DIACETATE, SODIUM PHOSPHATE, POTASSIUM CHLORIDE, CARRAGEENAN, FLAVORING, SODIUM ERYTHORBATE, SODIUM NITRITE." Date available: 07/14/2017 Date last updated by company: 07/14/2017
