Source: USDA Branded Food Products Database Release December 2017 Software v.3.8.6.4 2017-10-02
Report Run at: December 19, 2017 06:34 EST
"Nutrient data for: 45102279, DELI STYLE MINI SUB ENRICHED BUNS, UPC: 071314003506"
Food Group:  Branded Food Products Database
Common Name:

Nutrient,Unit,Data points,Std. Error,"1 BUN = 66.0g",1Value per 100 g,
Proximates
"Energy",kcal,--,--,170,258
"Protein",g,--,--,5.00,7.58
"Total lipid (fat)",g,--,--,2.00,3.03
"Carbohydrate, by difference",g,--,--,34.00,51.52
"Fiber, total dietary",g,--,--,1.0,1.5
"Sugars, total",g,--,--,4.00,6.06
Minerals
"Calcium, Ca",mg,--,--,80,121
"Iron, Fe",mg,--,--,2.05,3.10
"Sodium, Na",mg,--,--,280,424
Vitamins
"Vitamin C, total ascorbic acid",mg,--,--,0.0,0.0
"Thiamin",mg,--,--,0.000,0.000
"Riboflavin",mg,--,--,0.170,0.258
"Niacin",mg,--,--,2.272,3.442
"Vitamin A, IU",IU,--,--,0,0
Lipids
"Fatty acids, total saturated",g,--,--,0.000,0.000
"Fatty acids, total monounsaturated",g,--,--,0.000,0.000
"Fatty acids, total polyunsaturated",g,--,--,0.502,0.760
"Fatty acids, total trans",g,--,--,0.000,0.000
"Cholesterol",mg,--,--,0,0
Amino Acids
Other
Ingredients
"ENRICHED UNBLEACHED FLOUR [WHEAT FLOUR, MALTED BARLEY FLOUR, REDUCED IRON, THIAMINE MONONITRATE (VITAMIN B1), RIBOFLAVIN (VITAMIN B2), NIACIN (VITAMIN B3), FOLIC ACID], WATER, HIGH FRUCTOSE CORN SYRUP, YEAST, SOYBEAN OIL, WHEAT GLUTEN, SALT, VINEGAR, MONOGLYCERIDES, CALCIUM PROPIONATE (A PRESERVATIVE), SODIUM STEAROYL LACTYLATE, CITRIC ACID, CALCIUM SULFATE, ASCORBIC ACID." Date available: 07/14/2017 Date last updated by company: 07/14/2017
