Source: USDA Branded Food Products Database Release December 2017 Software v.3.8.6.4 2017-10-02
Report Run at: December 19, 2017 06:33 EST
"Nutrient data for: 45087151, DELI-STYLE CROUTONS PARMESAN CAESAR, UPC: 787359100215"
Food Group:  Branded Food Products Database
Common Name:

Nutrient,Unit,Data points,Std. Error,"2.0 Tbsp = 7.0g",1Value per 100 g,
Proximates
"Energy",kcal,--,--,30,429
"Protein",g,--,--,1.00,14.29
"Total lipid (fat)",g,--,--,1.00,14.29
"Carbohydrate, by difference",g,--,--,4.00,57.14
"Fiber, total dietary",g,--,--,0.0,0.0
"Sugars, total",g,--,--,0.00,0.00
Minerals
"Calcium, Ca",mg,--,--,0,0
"Iron, Fe",mg,--,--,0.00,0.00
"Sodium, Na",mg,--,--,85,1214
Vitamins
"Vitamin C, total ascorbic acid",mg,--,--,0.0,0.0
"Vitamin A, IU",IU,--,--,0,0
Lipids
"Fatty acids, total saturated",g,--,--,0.000,0.000
"Fatty acids, total trans",g,--,--,0.000,0.000
"Cholesterol",mg,--,--,0,0
Amino Acids
Other
Ingredients
"ENRICHED FLOUR (WHEAT FLOUR, MALTED BARLEY FLOUR, NIACIN, REDUCED IRON, THIAMIN MONONITRATE, RIBOFLAVIN, FOLIC ACID), CANOLA AND/OR SUNFLOWER OIL, WHOLE WHEAT FLOUR, PARMESAN CHEESE POWDER (BUTTERMILK, PARMESAN CHEESE [CULTURED PART SKIM MILK, SALT, ENZYMES], SOYBEAN OIL, DISODIUM PHOSPHATE, CITRIC ACID, SALT), SALT, YEAST, 2% OR LESS OF HIGH FRUCTOSE CORN SYRUP, RYE MEAL, PARSLEY*, GARLIC*, CARAMEL COLOR, AZODICARBONAMIDE, CALCIUM PROPIONATE (PRESERVATIVE), HONEY, NATURAL FLAVORS, WHEAT GLUTEN, CALCIUM SULFATE, SODIUM STEAROYL LACTYLATE, CALCIUM PEROXIDE, ASCORBIC ACID, ENZYMES, TBHQ (TO PRESERVE FRESHNESS)." Date available: 07/14/2017 Date last updated by company: 07/14/2017
