Source: USDA Branded Food Products Database Release December 2017 Software v.3.8.6.4 2017-10-02
Report Run at: December 19, 2017 06:35 EST
"Nutrient data for: 45281857, DELI STYLE WHITE AMERICAN CHEESE, UPC: 041303036952"
Food Group:  Branded Food Products Database
Common Name:

Nutrient,Unit,Data points,Std. Error,"1 SLICE = 19.0g",1Value per 100 g,
Proximates
"Energy",kcal,--,--,70,368
"Protein",g,--,--,4.00,21.05
"Total lipid (fat)",g,--,--,6.00,31.58
"Carbohydrate, by difference",g,--,--,1.00,5.26
"Fiber, total dietary",g,--,--,0.0,0.0
"Sugars, total",g,--,--,0.00,0.00
Minerals
"Calcium, Ca",mg,--,--,300,1579
"Iron, Fe",mg,--,--,0.00,0.00
"Sodium, Na",mg,--,--,290,1526
Vitamins
"Vitamin C, total ascorbic acid",mg,--,--,0.0,0.0
"Vitamin A, IU",IU,--,--,526,2771
Lipids
"Fatty acids, total saturated",g,--,--,3.999,21.050
"Fatty acids, total trans",g,--,--,0.000,0.000
"Cholesterol",mg,--,--,20,105
Amino Acids
Other
Ingredients
"AMERICAN CHEESE (CULTURED MILK, SALT, AND ENZYMES), WATER, CREAM, SODIUM CITRATE, CALCIUM PHOSPHATE, SALT, SORBIC ACID (A PRESERVATIVE), EXTRA VIRGIN OLIVE OIL (FOR SLICE SEPARATION)." Date available: 07/14/2017 Date last updated by company: 07/14/2017
