Source: USDA Branded Food Products Database Release December 2017 Software v.3.8.6.4 2017-10-02
Report Run at: December 19, 2017 06:29 EST
"Nutrient data for: 45254740, DELINUT COLOR CHOCOLATE SPREAD WITH HAZELNUTS,BISCUITS AND RAINBOW SUGAR PEARLS, UPC: 838948004756"
Food Group:  Branded Food Products Database
Common Name:

Nutrient,Unit,Data points,Std. Error,"65.0 GRM = 65.0g",1Value per 100 g,
Proximates
"Energy",kcal,--,--,312,480
"Protein",g,--,--,2.70,4.15
"Total lipid (fat)",g,--,--,12.90,19.85
"Carbohydrate, by difference",g,--,--,45.50,70.00
"Fiber, total dietary",g,--,--,1.5,2.3
"Sugars, total",g,--,--,33.10,50.92
Minerals
"Calcium, Ca",mg,--,--,6,9
"Iron, Fe",mg,--,--,1.40,2.15
"Sodium, Na",mg,--,--,99,153
Vitamins
Lipids
"Fatty acids, total saturated",g,--,--,2.002,3.080
"Fatty acids, total trans",g,--,--,0.351,0.540
Amino Acids
Other
Ingredients
"CHOCOLATE SPREAD: SUGAR, RAPESEED OIL, HAZELNUTS (13%), LOW FAT COCOA POWDER (5%), PARTIALLY HYDROGENATED PALM OIL, SOY FLOUR, EMULSIFIER: SOY LECITHIN, AROMA: VANILLIN. BISCUIT: WHEAT FLOUR, PALM OIL, BARLEY MALT EXTRACT, SALT, YEAST. RAINBOW SUGAR PEARLS: SUGAR, STARCH (OF WHEAT/MAIZE), GLUCOSE SYRUP, RED BEET JUICE CONCENTRATE, COLOURS: (CURCUMINE, FD&C BLUE#1, PAPRIKA EXTRACT), TURMERIC ROOT EXTRACT, VEGETABLE OIL (COCONUT), GLAZING AGENT: BEES WAX WHITE." Date available: 10/19/2017 Date last updated by company: 10/19/2017
