Source: USDA Branded Food Products Database Release December 2017 Software v.3.8.6.4 2017-10-02
Report Run at: December 19, 2017 06:29 EST
"Nutrient data for: 45199141, DELI RED SKIN POTATO SALAD, UPC: 078742132396"
Food Group:  Branded Food Products Database
Common Name:

Nutrient,Unit,Data points,Std. Error,"0.5 cup = 140.0g",1Value per 100 g,
Proximates
"Energy",kcal,--,--,239,171
"Protein",g,--,--,3.00,2.14
"Total lipid (fat)",g,--,--,16.00,11.43
"Carbohydrate, by difference",g,--,--,21.00,15.00
"Fiber, total dietary",g,--,--,2.0,1.4
"Sugars, total",g,--,--,0.99,0.71
Minerals
"Calcium, Ca",mg,--,--,20,14
"Iron, Fe",mg,--,--,0.71,0.51
"Sodium, Na",mg,--,--,750,536
Vitamins
"Vitamin C, total ascorbic acid",mg,--,--,2.4,1.7
"Vitamin A, IU",IU,--,--,99,71
Lipids
"Fatty acids, total saturated",g,--,--,4.004,2.860
"Fatty acids, total trans",g,--,--,0.000,0.000
"Cholesterol",mg,--,--,15,11
Amino Acids
Other
Ingredients
"RED POTATOES, MAYONNAISE (SOYBEAN OIL, WATER, EGG YOLKS, VINEGAR, HIGH FRUCTOSE CORN SYRUP, SALT, MUSTARD, CALCIUM DISODIUM EDTA TO PROTECT FLAVOR), SOUR CREAM (MILK, CREAM, MODIFIED FOOD STARCH, GUAR GUM, SODIUM PHOSPHATE, LOCUST BEAN GUM, SODIUM CITRATE, CARRAGEENAN, CULTURE, NATAMYCIN [NATURAL PRESERVATIVE]), WATER, CELERY, CONTAINS 2% OR LESS OF THE FOLLOWING: ONION, MALTODEXTRIN, SALT, CULTURED BUTTERMILK, MONOSODIUM GLUTAMATE, ONION POWDER, GARLIC POWDER, SPICES, HYDROLYZED CORN PROTEIN, VINEGAR, MODIFIED CORN STARCH, POTASSIUM SORBATE AND SODIUM BENZOATE TO PROTECT FLAVOR, CITRIC ACID, DILL WEED, ARTIFICIAL FLAVOR, XANTHAN GUM, LACTIC ACID, SILICON DIOXIDE (ANTI-CAKING)." Date available: 07/14/2017 Date last updated by company: 07/14/2017
