Source: USDA Branded Food Products Database Release December 2017 Software v.3.8.6.4 2017-10-02
Report Run at: December 19, 2017 06:26 EST
"Nutrient data for: 45187139, DELICIOUS MILK CHOCOLATE BLENDED WITH CRUNCHY HAZELNUTS, UPC: 092163073656"
Food Group:  Branded Food Products Database
Common Name:

Nutrient,Unit,Data points,Std. Error,"0.5 BAR = 43.0g",1Value per 100 g,
Proximates
"Energy",kcal,--,--,140,326
"Protein",g,--,--,3.00,6.98
"Total lipid (fat)",g,--,--,16.00,37.21
"Carbohydrate, by difference",g,--,--,21.00,48.84
"Fiber, total dietary",g,--,--,1.0,2.3
"Sugars, total",g,--,--,20.00,46.51
Minerals
"Calcium, Ca",mg,--,--,0,0
"Iron, Fe",mg,--,--,0.00,0.00
"Sodium, Na",mg,--,--,45,105
Vitamins
"Vitamin C, total ascorbic acid",mg,--,--,0.0,0.0
"Vitamin A, IU",IU,--,--,0,0
Lipids
"Fatty acids, total saturated",g,--,--,9.000,20.930
"Fatty acids, total trans",g,--,--,7.998,18.600
"Cholesterol",mg,--,--,0,0
Amino Acids
Other
Ingredients
"MILK CHOCOLATE (SUGAR, COCOA BUTTER, WHOLE MILK POWDER, COCOA MASS, SOY LECITHIN (EMULSIFIER), AND VANILLA EXTRACT), TOFFEE (GRANULATED SUGAR, UNSALTED BUTTER [PASTEURIZED CREAM], SEA SALT, PURE VANILLA PASTE [SUGAR, MADAGASCAR BOURBON, VANILLA EXTRACT, VANILLA BEAN SPECKS AND GUM TRAGACANTH (VEGETABLE BASED THICKENER)], SOY LECITHIN), ROASTED HAZELNUTS." Date available: 08/11/2017 Date last updated by company: 08/11/2017
