Source: USDA Branded Food Products Database Release December 2017 Software v.3.8.6.4 2017-10-02
Report Run at: December 19, 2017 06:27 EST
"Nutrient data for: 45195687, DELI EGG SALAD, UPC: 041415480629"
Food Group:  Branded Food Products Database
Common Name:

Nutrient,Unit,Data points,Std. Error,"0.5 cup = 100.0g",1Value per 100 g,
Proximates
"Energy",kcal,--,--,260,260
"Protein",g,--,--,10.00,10.00
"Total lipid (fat)",g,--,--,22.00,22.00
"Carbohydrate, by difference",g,--,--,3.00,3.00
"Fiber, total dietary",g,--,--,0.0,0.0
"Sugars, total",g,--,--,3.00,3.00
Minerals
"Calcium, Ca",mg,--,--,40,40
"Iron, Fe",mg,--,--,1.08,1.08
"Sodium, Na",mg,--,--,290,290
Vitamins
"Vitamin C, total ascorbic acid",mg,--,--,0.0,0.0
"Vitamin A, IU",IU,--,--,400,400
Lipids
"Fatty acids, total saturated",g,--,--,5.000,5.000
"Fatty acids, total trans",g,--,--,0.000,0.000
"Cholesterol",mg,--,--,335,335
Amino Acids
Other
Ingredients
"HARD COOKED EGGS (EGGS, WATER, CITRIC ACID, SODIUM BENZOATE [PRESERVATIVE], MAYONNAISE (SOYBEAN OIL, EGG YOLKS WITH SALT, WATER, VINEGAR, SUGAR, CORN SYRUP, SALT, SPICE, ONION POWDER, GARLIC POWDER, CALCIUM DISODIUM EDTA [PRESERVATIVE]), PICKLE RELISH (CUCUMBER, SUGAR, DISTILLED VINEGAR, WATER, SALT, XANTHAN GUM, NATURAL FLAVORS, CALCIUM CHLORIDE, POLYSORBATE 80 AND SODIUM BENZOATE [PRESERVATIVES]), SEASONING MIX (SUGAR, SALT, SPICE, POTASSIUM SORBATE AND SODIUM BENZOATE [PRESERVATIVE])." Date available: 07/14/2017 Date last updated by company: 07/14/2017
