Source: USDA Branded Food Products Database Release December 2017 Software v.3.8.6.4 2017-10-02
Report Run at: December 19, 2017 06:26 EST
"Nutrient data for: 45078098, DELICIOUS ROASTED TURKEY, UPC: 672361000526"
Food Group:  Branded Food Products Database
Common Name:

Nutrient,Unit,Data points,Std. Error,"1 tsp = 3.0g",1Value per 100 g,
Proximates
"Energy",kcal,--,--,10,333
"Protein",g,--,--,0.00,0.00
"Total lipid (fat)",g,--,--,0.00,0.00
"Carbohydrate, by difference",g,--,--,2.00,66.67
"Sugars, total",g,--,--,1.00,33.33
Minerals
"Sodium, Na",mg,--,--,270,9000
Vitamins
"Vitamin A, IU",IU,--,--,2500,83333
Lipids
Amino Acids
Other
Ingredients
"BROWN SUGAR, SALT, CORIANDER, ORANGE PEEL, BLACK PEPPER, THYME, AND CHIPOTLE." Date available: 06/25/2017 Date last updated by company: 06/25/2017
