Source: USDA Branded Food Products Database Release December 2017 Software v.3.8.6.4 2017-10-02
Report Run at: December 19, 2017 06:26 EST
"Nutrient data for: 45136329, DELICIOUSLY RAW SAUERKRAUT, UPC: 609722957977"
Food Group:  Branded Food Products Database
Common Name:

Nutrient,Unit,Data points,Std. Error,"28.0 GRM = 28.0g",1Value per 100 g,
Proximates
"Energy",kcal,--,--,7,25
"Protein",g,--,--,0.00,0.00
"Total lipid (fat)",g,--,--,0.00,0.00
"Carbohydrate, by difference",g,--,--,2.00,7.14
"Fiber, total dietary",g,--,--,1.0,3.6
"Sugars, total",g,--,--,1.00,3.57
Minerals
"Calcium, Ca",mg,--,--,10,36
"Iron, Fe",mg,--,--,0.83,2.98
"Sodium, Na",mg,--,--,200,714
Vitamins
"Vitamin C, total ascorbic acid",mg,--,--,41.8,149.2
"Vitamin A, IU",IU,--,--,232,829
Lipids
"Fatty acids, total saturated",g,--,--,0.000,0.000
"Fatty acids, total trans",g,--,--,0.000,0.000
"Cholesterol",mg,--,--,0,0
Amino Acids
Other
Ingredients
"A ZESTY MIX OF: *GREEN CABBAGE, CELTIC SEA SALT." Date available: 07/14/2017 Date last updated by company: 07/14/2017
