Source: USDA Branded Food Products Database Release December 2017 Software v.3.8.6.4 2017-10-02
Report Run at: December 19, 2017 06:36 EST
"Nutrient data for: 45018931, DELL' ALPE, GIARDINIERA, A MIX OF HOT AND MILD PEPPERS, MEDIUM, IN VEGETABLE OIL, UPC: 075462007652"
Food Group:  Branded Food Products Database
Common Name:

Nutrient,Unit,Data points,Std. Error,"1 Tbsp = 13.0g",1Value per 100 g,
Proximates
"Energy",kcal,--,--,37,285
"Protein",g,--,--,1.00,7.69
"Total lipid (fat)",g,--,--,3.50,26.92
"Carbohydrate, by difference",g,--,--,0.00,0.00
Minerals
"Calcium, Ca",mg,--,--,0,0
"Iron, Fe",mg,--,--,0.00,0.00
"Sodium, Na",mg,--,--,310,2385
Vitamins
"Vitamin C, total ascorbic acid",mg,--,--,4.6,35.5
"Vitamin A, IU",IU,--,--,0,0
Lipids
"Fatty acids, total trans",g,--,--,0.000,0.000
"Cholesterol",mg,--,--,0,0
Amino Acids
Other
Ingredients
"POPPARA, SOYBEAN OIL, CELERY, OLIVES, VINEGAR, SALT, SPICES." Date available: 06/25/2017 Date last updated by company: 06/25/2017
