Source: USDA Branded Food Products Database Release December 2017 Software v.3.8.6.4 2017-10-02
Report Run at: December 19, 2017 06:36 EST
"Nutrient data for: 45018023, DELL' ALPE, POTATO GNOCCHI, UPC: 075462034405"
Food Group:  Branded Food Products Database
Common Name:

Nutrient,Unit,Data points,Std. Error,"1 cup = 145.0g",1Value per 100 g,
Proximates
"Energy",kcal,--,--,210,145
"Protein",g,--,--,5.00,3.45
"Total lipid (fat)",g,--,--,0.00,0.00
"Carbohydrate, by difference",g,--,--,47.99,33.10
"Fiber, total dietary",g,--,--,2.0,1.4
"Sugars, total",g,--,--,2.00,1.38
Minerals
"Calcium, Ca",mg,--,--,20,14
"Iron, Fe",mg,--,--,0.00,0.00
"Sodium, Na",mg,--,--,480,331
Vitamins
"Vitamin C, total ascorbic acid",mg,--,--,0.0,0.0
"Vitamin A, IU",IU,--,--,97,67
Lipids
"Fatty acids, total saturated",g,--,--,0.000,0.000
"Fatty acids, total trans",g,--,--,0.000,0.000
"Cholesterol",mg,--,--,0,0
Amino Acids
Other
Ingredients
"MASHED POTATOES 80% (WATER, DRIED POTATO FLAKES [POTATOES, DIGLYCERIDES OF FATTY ACIDS (EMULSIFIER), DIPHOSPHATE, POTASSIUM SULFATE, ASCORBIC ACID, CITRIC ACID, FLAVORS]), WHEAT FLOUR, POTATO STARCH, SALT, FLAVORS, RICE FLOUR, CITRIC ACID, SORBIC ACID (PRESERVATIVE)." Date available: 07/14/2017 Date last updated by company: 07/14/2017
