Source: USDA Branded Food Products Database Release December 2017 Software v.3.8.6.4 2017-10-02
Report Run at: December 19, 2017 06:48 EST
"Nutrient data for: 45167156, DELPOZZO, MARINARA SAUCE, UPC: 022099816874"
Food Group:  Branded Food Products Database
Common Name:

Nutrient,Unit,Data points,Std. Error,"0.5 cup = 120.0g",1Value per 100 g,
Proximates
"Energy",kcal,--,--,80,67
"Protein",g,--,--,1.00,0.83
"Total lipid (fat)",g,--,--,5.00,4.17
"Carbohydrate, by difference",g,--,--,7.00,5.83
"Fiber, total dietary",g,--,--,2.0,1.7
"Sugars, total",g,--,--,4.00,3.33
Minerals
"Calcium, Ca",mg,--,--,20,17
"Iron, Fe",mg,--,--,1.50,1.25
"Sodium, Na",mg,--,--,340,283
Vitamins
"Vitamin C, total ascorbic acid",mg,--,--,9.4,7.8
"Vitamin A, IU",IU,--,--,781,651
Lipids
"Fatty acids, total saturated",g,--,--,0.504,0.420
"Fatty acids, total trans",g,--,--,0.000,0.000
"Cholesterol",mg,--,--,0,0
Amino Acids
Other
Ingredients
"IMPORTED ITALIAN TOMATOES, FRESH SAUTEED ONIONS, IMPORTED ITALIAN OLIVE OIL, FRESH SAUTEED GARLIC, FRESH BASIL, FRESH PARSLEY, SEA SALT, BLACK PEPPER." Date available: 07/14/2017 Date last updated by company: 07/14/2017
