Source: USDA Branded Food Products Database Release December 2017 Software v.3.8.6.4 2017-10-02
Report Run at: December 19, 2017 06:55 EST
"Nutrient data for: 45277446, DELUXE WHITE SHOEPEG CORN, UPC: 070560925228"
Food Group:  Branded Food Products Database
Common Name:

Nutrient,Unit,Data points,Std. Error,"0.66 cup = 89.0g",1Value per 100 g,
Proximates
"Energy",kcal,--,--,100,112
"Protein",g,--,--,3.00,3.37
"Total lipid (fat)",g,--,--,1.00,1.12
"Carbohydrate, by difference",g,--,--,20.00,22.47
"Fiber, total dietary",g,--,--,1.0,1.1
"Sugars, total",g,--,--,5.00,5.62
Minerals
"Calcium, Ca",mg,--,--,0,0
"Iron, Fe",mg,--,--,0.00,0.00
"Sodium, Na",mg,--,--,0,0
Vitamins
"Vitamin C, total ascorbic acid",mg,--,--,3.5,3.9
"Vitamin A, IU",IU,--,--,0,0
Lipids
"Fatty acids, total saturated",g,--,--,0.000,0.000
"Fatty acids, total trans",g,--,--,0.000,0.000
"Cholesterol",mg,--,--,0,0
Amino Acids
Other
Ingredients
"CORN." Date available: 07/14/2017 Date last updated by company: 07/14/2017
