Source: USDA Branded Food Products Database Release December 2017 Software v.3.8.6.4 2017-10-02
Report Run at: December 19, 2017 06:53 EST
"Nutrient data for: 45177670, DELUXE MOIST YELLOW CAKE MIX, UPC: 092825109815"
Food Group:  Branded Food Products Database
Common Name:

Nutrient,Unit,Data points,Std. Error,"0.083 PACKAGE = 39.0g",1Value per 100 g,
Proximates
"Energy",kcal,--,--,160,410
"Protein",g,--,--,1.00,2.56
"Total lipid (fat)",g,--,--,3.00,7.69
"Carbohydrate, by difference",g,--,--,31.00,79.49
"Fiber, total dietary",g,--,--,1.0,2.6
"Sugars, total",g,--,--,17.00,43.59
Minerals
"Calcium, Ca",mg,--,--,0,0
"Iron, Fe",mg,--,--,0.74,1.89
"Sodium, Na",mg,--,--,240,615
Vitamins
"Vitamin C, total ascorbic acid",mg,--,--,0.0,0.0
"Vitamin A, IU",IU,--,--,0,0
Lipids
"Fatty acids, total saturated",g,--,--,0.998,2.560
"Fatty acids, total monounsaturated",g,--,--,0.998,2.560
"Fatty acids, total polyunsaturated",g,--,--,0.499,1.280
"Fatty acids, total trans",g,--,--,0.000,0.000
"Cholesterol",mg,--,--,0,0
Amino Acids
Other
Ingredients
"ENRICHED BLEACHED FLOUR (BLEACHED WHEAT FLOUR, NIACIN, IRON, THIAMINE MONONITRATE, RIBOFLAVIN, FOLIC ACID), SUGAR, VEGETABLE SHORTENING ([CONTAINS ONE OR MORE OF THE FOLLOWING: PALM OIL AND/OR SOYBEAN OIL]WITH EMULSIFIER [PROPYLENE GLYCOL MONO- AND DIESTERS, MONO- AND DIGLYCERIDES, SOY LECITHIN] WITH PRESERVATIVE [BHT, CITRIC ACID]), LEAVENING (BAKING SODA, SODIUM ALUMINUM PHOSPHATE, MONOCALCIUM PHOSPHATE),CONTAINS 2% OR LESS OF THE FOLLOWING: MODIFIED CORN STARCH, DEXTROSE, WHEAT STARCH, SALT, CELLULOSE GUM, GUAR GUM, NATURAL AND ARTIFICIAL FLAVOR, COLOR (YELLOW 5, YELLOW 6)." Date available: 07/14/2017 Date last updated by company: 07/14/2017
