Source: USDA Branded Food Products Database Release December 2017 Software v.3.8.6.4 2017-10-02
Report Run at: December 19, 2017 06:50 EST
"Nutrient data for: 45169886, DELUXE HONEY DROP, BASIL LEMONADE, UPC: 858454006211"
Food Group:  Branded Food Products Database
Common Name:

Nutrient,Unit,Data points,Std. Error,"1 BOTTLE = 296.0g",1Value per 100 g,
Proximates
"Energy",kcal,--,--,89,30
"Protein",g,--,--,1.01,0.34
"Total lipid (fat)",g,--,--,0.00,0.00
"Carbohydrate, by difference",g,--,--,21.99,7.43
"Fiber, total dietary",g,--,--,0.9,0.3
"Sugars, total",g,--,--,20.01,6.76
Minerals
"Calcium, Ca",mg,--,--,59,20
"Iron, Fe",mg,--,--,0.00,0.00
"Sodium, Na",mg,--,--,0,0
Vitamins
"Vitamin C, total ascorbic acid",mg,--,--,5.9,2.0
"Vitamin A, IU",IU,--,--,0,0
Lipids
"Fatty acids, total saturated",g,--,--,0.000,0.000
"Fatty acids, total trans",g,--,--,0.000,0.000
"Cholesterol",mg,--,--,0,0
Amino Acids
Other
Ingredients
"WATER, LEMONS, LOCAL RAW HONEY, BASIL." Date available: 09/23/2016 Date last updated by company: 09/23/2016
