Source: USDA Branded Food Products Database Release December 2017 Software v.3.8.6.4 2017-10-02
Report Run at: December 19, 2017 06:50 EST
"Nutrient data for: 45034813, DELUXE DINNER PASTA, UPC: 051933434257"
Food Group:  Branded Food Products Database
Common Name:

Nutrient,Unit,Data points,Std. Error,"1 CUP PREPARED = 113.0g",1Value per 100 g,
Proximates
"Energy",kcal,--,--,380,336
"Protein",g,--,--,15.00,13.27
"Total lipid (fat)",g,--,--,16.00,14.16
"Carbohydrate, by difference",g,--,--,44.00,38.94
"Fiber, total dietary",g,--,--,2.0,1.8
"Sugars, total",g,--,--,2.00,1.77
Minerals
"Calcium, Ca",mg,--,--,200,177
"Iron, Fe",mg,--,--,5.98,5.29
"Sodium, Na",mg,--,--,890,788
Vitamins
"Vitamin C, total ascorbic acid",mg,--,--,0.0,0.0
"Vitamin A, IU",IU,--,--,885,783
Lipids
"Fatty acids, total saturated",g,--,--,6.995,6.190
"Fatty acids, total trans",g,--,--,0.000,0.000
"Cholesterol",mg,--,--,31,27
Amino Acids
Other
Ingredients
"ENRICHED MACARONI (WHEAT FLOUR, DURUM FLOUR, NIACIN, IRON [FERROUS SULFATE], THIAMINE MONONITRATE, RIBOFLAVIN, FOLIC ACID), CHEDDAR CHEESE (MILK, CHEESE CULTURE, SALT, ENZYMES), WATER, SWISS CHEESE (PART SKIM MILK, CHEESE CULTURE, SALT, ENZYMES) PARTIALLY HYDROGENATED AND LIQUID SOYBEAN OIL, NONFAT DRY MILK, SODIUM PHOSPHATE, SALT, WHEY, BUTTER, LACTIC ACID, XANTHAN GUM, LOCUST BEAN GUM, GUAR GUM, LECITHIN, SODIUM BENZOATE, ARTIFICIAL FLAVOR, EXTRACTIVES OF PAPRIKA, BETA CAROTENE, VITAMIN A PALMITATE" Date available: 07/14/2017 Date last updated by company: 07/14/2017
