Source: USDA Branded Food Products Database Release December 2017 Software v.3.8.6.4 2017-10-02
Report Run at: December 19, 2017 06:52 EST
"Nutrient data for: 45330435, DELUXE MIXED NUTS, UPC: 078742259796"
Food Group:  Branded Food Products Database
Common Name:

Nutrient,Unit,Data points,Std. Error,"0.25 CUP) | (ABOUT = 28.0g",1Value per 100 g,
Proximates
"Energy",kcal,--,--,170,607
"Protein",g,--,--,5.00,17.86
"Total lipid (fat)",g,--,--,15.00,53.57
"Carbohydrate, by difference",g,--,--,6.00,21.43
"Fiber, total dietary",g,--,--,2.0,7.1
"Sugars, total",g,--,--,1.00,3.57
Minerals
"Calcium, Ca",mg,--,--,40,143
"Iron, Fe",mg,--,--,2.57,9.19
"Magnesium, Mg",mg,--,--,107,383
"Phosphorus, P",mg,--,--,268,957
"Potassium, K",mg,--,--,180,643
"Sodium, Na",mg,--,--,80,286
"Copper, Cu",mg,--,--,0.400,1.429
"Manganese, Mn",mg,--,--,1.120,4.000
Vitamins
"Vitamin C, total ascorbic acid",mg,--,--,0.0,0.0
"Vitamin A, IU",IU,--,--,0,0
Lipids
"Fatty acids, total saturated",g,--,--,1.999,7.140
"Fatty acids, total trans",g,--,--,0.000,0.000
"Cholesterol",mg,--,--,0,0
Amino Acids
Other
Ingredients
"ALMONDS, CASHEWS, PISTACHIOS, PECANS, MACADAMIA NUTS, VEGETABLE OIL (PEANUT, COTTONSEED, SOYBEAN AND/OR SUNFLOWER SEED), SEA SALT." Date available: 10/13/2017 Date last updated by company: 10/13/2017
