Source: USDA Branded Food Products Database Release December 2017 Software v.3.8.6.4 2017-10-02
Report Run at: December 19, 2017 06:55 EST
"Nutrient data for: 45197172, DEMERARA SUGAR, UPC: 06906502532"
Food Group:  Branded Food Products Database
Common Name:

Nutrient,Unit,Data points,Std. Error,"1 tsp = 4.0g",1Value per 100 g,
Proximates
"Energy",kcal,--,--,15,375
"Protein",g,--,--,0.00,0.00
"Total lipid (fat)",g,--,--,0.00,0.00
"Carbohydrate, by difference",g,--,--,4.00,100.00
"Fiber, total dietary",g,--,--,0.0,0.0
"Sugars, total",g,--,--,4.00,100.00
Minerals
"Sodium, Na",mg,--,--,0,0
Vitamins
Lipids
"Fatty acids, total saturated",g,--,--,0.000,0.000
"Fatty acids, total trans",g,--,--,0.000,0.000
"Cholesterol",mg,--,--,0,0
Amino Acids
Other
Ingredients
"EVAPORATED CANE JUICE (DEMERARA SUGAR)" Date available: 07/14/2017 Date last updated by company: 07/14/2017
