Source: USDA Branded Food Products Database Release December 2017 Software v.3.8.6.4 2017-10-02
Report Run at: December 19, 2017 06:56 EST
"Nutrient data for: 45159527, DEMET'S, TURTLES, NUT CLUSTERS, ALMONDS, DARK CHOCOLATE, CARAMEL, UPC: 872181005460"
Food Group:  Branded Food Products Database
Common Name:

Nutrient,Unit,Data points,Std. Error,"2.0 PIECES = 33.0g",1Value per 100 g,
Proximates
"Energy",kcal,--,--,160,485
"Protein",g,--,--,3.00,9.09
"Total lipid (fat)",g,--,--,10.00,30.30
"Carbohydrate, by difference",g,--,--,18.00,54.55
"Fiber, total dietary",g,--,--,2.0,6.1
"Sugars, total",g,--,--,12.00,36.36
Minerals
"Calcium, Ca",mg,--,--,40,121
"Iron, Fe",mg,--,--,1.64,4.96
"Sodium, Na",mg,--,--,45,136
Vitamins
"Vitamin C, total ascorbic acid",mg,--,--,0.0,0.0
"Vitamin A, IU",IU,--,--,0,0
Lipids
"Fatty acids, total saturated",g,--,--,4.501,13.640
"Fatty acids, total trans",g,--,--,0.000,0.000
"Cholesterol",mg,--,--,0,0
Amino Acids
Other
Ingredients
"BITTERSWEET CHOCOLATE (CHOCOLATE LIQUOR [PROCESSED WITH ALKALI], SUGAR, COCOA BUTTER, BUTTER OIL, SOY LECITHIN [AN EMULSIFIER], VANILLA), ALMONDS (ALMONDS, SEA SALT), CORN SYRUP, SUGAR, PALM OIL, NONFAT MILK, BUTTER OIL, AND LESS THAN 1% OF SODIUM CASEINATE, SALT, VANILLA (CARAMEL COLOR, NATURAL AND ARTIFICIAL FLAVORS)." Date available: 07/14/2017 Date last updated by company: 07/14/2017
