Source: USDA Branded Food Products Database Release December 2017 Software v.3.8.6.4 2017-10-02
Report Run at: December 19, 2017 06:57 EST
"Nutrient data for: 45010485, DENMARK FOODS, HOT ITALIAN SAUSAGE, UPC: 606995000027"
Food Group:  Branded Food Products Database
Common Name:

Nutrient,Unit,Data points,Std. Error,"1 COOKED LINK = 81.0g",1Value per 100 g,
Proximates
"Energy",kcal,--,--,200,247
"Protein",g,--,--,19.00,23.46
"Total lipid (fat)",g,--,--,13.00,16.05
"Carbohydrate, by difference",g,--,--,2.00,2.47
"Fiber, total dietary",g,--,--,0.0,0.0
"Sugars, total",g,--,--,0.00,0.00
Minerals
"Calcium, Ca",mg,--,--,0,0
"Iron, Fe",mg,--,--,0.73,0.90
"Sodium, Na",mg,--,--,450,556
Vitamins
"Vitamin C, total ascorbic acid",mg,--,--,0.0,0.0
"Vitamin A, IU",IU,--,--,0,0
Lipids
"Fatty acids, total saturated",g,--,--,4.998,6.170
"Fatty acids, total trans",g,--,--,0.000,0.000
"Cholesterol",mg,--,--,40,49
Amino Acids
Other
Ingredients
"PORK, WATER, SODIUM LACTATE, SALT, FENNEL, SPICES, RED PEPPER, PROPYLENE GLYCOL, BHA, PROPYL GALLATE AND CITRIC ACID" Date available: 06/24/2017 Date last updated by company: 06/24/2017
