Source: USDA Branded Food Products Database Release December 2017 Software v.3.8.6.4 2017-10-02
Report Run at: December 19, 2017 06:58 EST
"Nutrient data for: 45312076, DENNY MIKE'S, PIXIE DUST SEASONINGS, UPC: 183543000543"
Food Group:  Branded Food Products Database
Common Name:

Nutrient,Unit,Data points,Std. Error,"0.25 tsp = 0.6g",1Value per 100 g,
Proximates
"Energy",kcal,--,--,0,0
"Protein",g,--,--,0.00,0.00
"Total lipid (fat)",g,--,--,0.00,0.00
"Carbohydrate, by difference",g,--,--,0.00,0.00
Minerals
"Sodium, Na",mg,--,--,90,15000
Vitamins
"Vitamin A, IU",IU,--,--,8334,1388917
Lipids
"Cholesterol",mg,--,--,0,0
Amino Acids
Other
Ingredients
"SEA SALT, CHILI PEPPER*, SPICES, GARLIC*, PAPRIKA, MESQUITE POWDER (MALTODEXTRIN, NATURAL MESQUITE FLAVOR)." Date available: 07/14/2017 Date last updated by company: 07/14/2017
