Source: USDA Branded Food Products Database Release December 2017 Software v.3.8.6.4 2017-10-02
Report Run at: December 19, 2017 06:58 EST
"Nutrient data for: 45228077, DENYSE'S TURKEY CHILI WITH BEANS, UPC: 841395120153"
Food Group:  Branded Food Products Database
Common Name:

Nutrient,Unit,Data points,Std. Error,"1 CONTAINER = 245.0g",1Value per 100 g,
Proximates
"Energy",kcal,--,--,250,102
"Protein",g,--,--,23.01,9.39
"Total lipid (fat)",g,--,--,8.99,3.67
"Carbohydrate, by difference",g,--,--,19.99,8.16
"Fiber, total dietary",g,--,--,4.9,2.0
"Sugars, total",g,--,--,6.00,2.45
Minerals
"Calcium, Ca",mg,--,--,59,24
"Iron, Fe",mg,--,--,2.69,1.10
"Sodium, Na",mg,--,--,941,384
Vitamins
"Vitamin C, total ascorbic acid",mg,--,--,29.9,12.2
"Vitamin A, IU",IU,--,--,1250,510
Lipids
"Fatty acids, total saturated",g,--,--,2.009,0.820
"Fatty acids, total trans",g,--,--,0.000,0.000
"Cholesterol",mg,--,--,71,29
Amino Acids
Other
Ingredients
"GROUND TURKEY, BLACK BEANS (PREPARED BLACK BEANS, WATER, SALT), PEELED TOMATOES (VINE RIPENED TOMATOES WITH ADDED TOMATO JUICE, SALT, CITRIC ACID, BASIL), TOMATO PUREE (TOMATOES, SALT), TOMATOES (TOMATOES WITH JUICE, WATER, CHOPPED GREEN CHILI PEPPERS, SALT, CALCIUM CHLORIDE, CITRIC ACID, FLAVORS, SPICES), RED BELL PEPPERS, YELLOW BELL PEPPERS, YELLOW ONION, CELERY, SEASONING (SALT, RED PEPPER, BLACK PEPPER, CHILI POWDER [CHILI PEPPER, SPICES, SALT, GARLIC POWDER], GARLIC), SEASONING (SALT, DEHYDRATED GARLIC, DEHYDRATED RED AND GREEN PEPPERS, DEHYDRATED ONION, CHILI PEPPER AND OTHER SPICES, RED PEPPER, CITRIC ACID, SUGAR, FLAVORS), GARLIC, GARLIC PEPPER SEASONING (GARLIC, BLACK PEPPER, SALT, BROWN SUGAR, ONION, RED BELL PEPPERS, PARSLEY, AND GARLIC OIL), DEHYDRATED ONION, CHILI POWDER (CHILI PEPPER, SPICES, SALT, AND GARLIC), SEASONING (SPICES, SUGAR, RED AND GREEN BELL PEPPERS, TOMATO, ONION, GARLIC, CITRIC ACID, FLAVOR), PARSLEY, SEASONING (SPICES (INCLUDING BLACK PEPPER, WHITE PEPPER AND RED PEPPER), SALT, GARLIC, ONION, RED AND GREEN BELL PEPPERS, CHILI PEPPER, CITRIC ACID, FLAVOR, EXTRACTIVES OF CAPSICUM, AND JALAPENO PEPPERS), CUMIN, RED PEPPER FLAKES." Date available: 07/14/2017 Date last updated by company: 07/14/2017
