Source: USDA Branded Food Products Database Release December 2017 Software v.3.8.6.4 2017-10-02
Report Run at: December 19, 2017 06:59 EST
"Nutrient data for: 45034309, DESERT PEPPER TRADING COMPANY, ALL NATURAL SWEET & STICKY BBQ SAUCE, HONEY PECAN, UPC: 719212106027"
Food Group:  Branded Food Products Database
Common Name:

Nutrient,Unit,Data points,Std. Error,"2.0 Tbsp = 33.0g",1Value per 100 g,
Proximates
"Energy",kcal,--,--,40,121
"Protein",g,--,--,0.00,0.00
"Total lipid (fat)",g,--,--,0.00,0.00
"Carbohydrate, by difference",g,--,--,10.00,30.30
"Fiber, total dietary",g,--,--,1.0,3.0
"Sugars, total",g,--,--,9.00,27.27
Minerals
"Calcium, Ca",mg,--,--,0,0
"Iron, Fe",mg,--,--,0.61,1.84
"Sodium, Na",mg,--,--,135,409
Vitamins
"Vitamin C, total ascorbic acid",mg,--,--,2.0,6.1
"Vitamin A, IU",IU,--,--,169,512
Lipids
"Fatty acids, total saturated",g,--,--,0.000,0.000
"Fatty acids, total trans",g,--,--,0.000,0.000
"Cholesterol",mg,--,--,0,0
Amino Acids
Other
Ingredients
"WATER, TOMATO PASTE, BROWN SUGAR, MOLASSES, DEHYDRATED ONION, MUSTARD (VINEGAR, WATER, MUSTARD SEED, SALT, TURMERIC, PAPRIKA), WORCESTERSHIRE SAUCE (WATER, DISTILLED VINEGAR, SALT, SUGAR, CARAMEL COLOR, MALIC ACID, MOLASSES, CITRIC ACID, ONION, GARLIC, FOOD GUMS [ARABIC XANTHAN, GUAR, CELLULOSE], DEXTROSE, SPICES, CHILI PEPPER, SPICE EXTRACTIVES, SMOKE FLAVOR), SOY SAUCE, APPLE CIDER VINEGAR, SALT, HONEY, SPICES, DEHYDRATED GARLIC, DEHYDRATED ORANGE PEEL, PECAN MEAL, BOURBON." Date available: 07/14/2017 Date last updated by company: 07/14/2017
