Source: USDA Branded Food Products Database Release December 2017 Software v.3.8.6.4 2017-10-02
Report Run at: December 19, 2017 06:59 EST
"Nutrient data for: 45102046, DESPENSA LA NUESTRA, GREEN OLIVES PATE, UPC: 8437000769460"
Food Group:  Branded Food Products Database
Common Name:

Nutrient,Unit,Data points,Std. Error,"100.0 GRM = 100.0g",1Value per 100 g,
Proximates
"Energy",kcal,--,--,241,241
"Protein",g,--,--,1.80,1.80
"Total lipid (fat)",g,--,--,26.00,26.00
"Carbohydrate, by difference",g,--,--,0.00,0.00
"Sugars, total",g,--,--,0.00,0.00
Minerals
Vitamins
Lipids
Amino Acids
Other
Ingredients
"GREEN OLIVES (73%), EXTRA VIRGIN OLIVE OIL, CAPPERS, ANCHOVIES, LEMON, GARLIC, SPICES, THICKENER: PECTIN AND SALT." Date available: 10/13/2017 Date last updated by company: 10/13/2017
