Source: USDA Branded Food Products Database Release December 2017 Software v.3.8.6.4 2017-10-02
Report Run at: December 19, 2017 07:00 EST
"Nutrient data for: 45085939, DESPICABLE ME ICE POPS QUIESCENTLY FROZEN CONFECTIONS, UPC: 077567360960"
Food Group:  Branded Food Products Database
Common Name:

Nutrient,Unit,Data points,Std. Error,"1 POP = 49.0g",1Value per 100 g,
Proximates
"Energy",kcal,--,--,40,82
"Protein",g,--,--,0.00,0.00
"Total lipid (fat)",g,--,--,0.00,0.00
"Carbohydrate, by difference",g,--,--,10.00,20.41
"Sugars, total",g,--,--,7.00,14.29
Minerals
"Sodium, Na",mg,--,--,0,0
Vitamins
"Vitamin C, total ascorbic acid",mg,--,--,10.4,21.2
Lipids
Amino Acids
Other
Ingredients
"WATER, HIGH FRUCTOSE CORN SYRUP, CORN SYRUP, LESS THAN 2% OF: SUGAR, MALIC ACID, CITRIC ACID, GUAR GUM, NATURAL AND ARTIFICIAL FLAVOR, ASCORBIC ACID (VITAMIN C), LOCUST BEAN GUM, YELLOW 5, BLUE 1." Date available: 08/19/2017 Date last updated by company: 08/19/2017
