Source: USDA Branded Food Products Database Release December 2017 Software v.3.8.6.4 2017-10-02
Report Run at: December 19, 2017 07:04 EST
"Nutrient data for: 45201409, DEVIL'S SPIT BBQ SAUCE, UPC: 780993409034"
Food Group:  Branded Food Products Database
Common Name:

Nutrient,Unit,Data points,Std. Error,"2.0 Tbsp = 36.0g",1Value per 100 g,
Proximates
"Energy",kcal,--,--,50,139
"Protein",g,--,--,1.00,2.78
"Total lipid (fat)",g,--,--,0.00,0.00
"Carbohydrate, by difference",g,--,--,12.00,33.33
"Fiber, total dietary",g,--,--,1.0,2.8
"Sugars, total",g,--,--,10.00,27.78
Minerals
"Calcium, Ca",mg,--,--,20,56
"Iron, Fe",mg,--,--,0.61,1.69
"Sodium, Na",mg,--,--,360,1000
Vitamins
"Vitamin C, total ascorbic acid",mg,--,--,0.0,0.0
"Vitamin A, IU",IU,--,--,338,939
Lipids
"Fatty acids, total saturated",g,--,--,0.000,0.000
"Fatty acids, total trans",g,--,--,0.000,0.000
"Cholesterol",mg,--,--,0,0
Amino Acids
Other
Ingredients
"WATER, HIGH FRUCTOSE CORN SYRUP, TOMATO PASTE, DISTILLED VINEGAR, SUGAR, GROUND MUSTARD SEED, WORCESTERSHIRE SAUCE CONCENTRATE (VINEGAR, MOLASSES, CORN SYRUP, WATER, SALT, CARAMEL COLOR, GARLIC POWDER, SUGAR, SPICES, TAMARIND), SALT, PINEAPPLE JUICE CONCENTRATE, SPICES, MOLASSES, HONEY, SOYBEAN OIL, FOOD STARCH-MODIFIED, PAPRIKA (COLOR), BARLEY MALT FLOUR (BARLEY GLUTEN), HYDROLYZED SOY PROTEIN, NATURAL AND ARTIFICIAL FLAVORS, DRIED ONION, SODIUM BENZOATE AND POTASSIUM SORBATE (PRESERVATIVES), MUSTARD BRAN, GARLIC POWDER, CORN SYRUP SOLIDS, CARAMEL COLOR, NATURAL SMOKE FLAVOR, CITRIC ACID, MALTODEXTRIN, COFFEE, LEMON JUICE SOLIDS, TURMERIC (COLOR)." Date available: 07/14/2017 Date last updated by company: 07/14/2017
