Source: USDA Branded Food Products Database Release December 2017 Software v.3.8.6.4 2017-10-02
Report Run at: December 19, 2017 07:03 EST
"Nutrient data for: 45278936, DEVILED EGG POTATO SALAD, UPC: 092825093824"
Food Group:  Branded Food Products Database
Common Name:

Nutrient,Unit,Data points,Std. Error,"0.5 cup = 138.0g",1Value per 100 g,
Proximates
"Energy",kcal,--,--,310,225
"Protein",g,--,--,7.00,5.07
"Total lipid (fat)",g,--,--,23.00,16.67
"Carbohydrate, by difference",g,--,--,17.00,12.32
"Fiber, total dietary",g,--,--,1.9,1.4
"Sugars, total",g,--,--,7.00,5.07
Minerals
"Calcium, Ca",mg,--,--,40,29
"Iron, Fe",mg,--,--,1.09,0.79
"Potassium, K",mg,--,--,0,0
"Sodium, Na",mg,--,--,480,348
Vitamins
"Vitamin C, total ascorbic acid",mg,--,--,4.8,3.5
"Vitamin A, IU",IU,--,--,406,294
Lipids
"Fatty acids, total saturated",g,--,--,4.499,3.260
"Fatty acids, total trans",g,--,--,0.000,0.000
"Cholesterol",mg,--,--,215,156
Amino Acids
Other
Ingredients
"POTATOES, EGGS, MAYONNAISE (SOYBEAN OIL, WATER, EGG YOLKS, VINEGAR, SUGAR, SALT, MUSTARD FLOUR), HIGH FRUCTOSE CORN SYRUP, SWEET PICKLE RELISH (CUCUMBERS, HIGH FRUCTOSE CORN SYRUP, SALT, WHITE DISTILLED VINEGAR, MODIFIED FOOD STARCH, NATURAL FLAVORS, SODIUM BENZOATE [PRESERVATIVE], CALCIUM CHLORIDE), CELERY, MUSTARD (VINEGAR, WATER, MUSTARD SEED, SALT, SPICES, YELLOW #5 FOOD COLOR, TURMERIC AND FLAVORING), WHITE VINEGAR, CIDER VINEGAR, ONIONS, RED BELL PEPPERS (BELL PEPPER, WATER, CITRIC ACID), SALT, XANTHAN GUM, MODIFIED CORN STARCH, POTASSIUM SORBATE AND SODIUM BENZOATE ADDED TO PROTECT FLAVOR, SPICES, ANNATTO POWDER." Date available: 07/14/2017 Date last updated by company: 07/14/2017
