Source: USDA Branded Food Products Database Release December 2017 Software v.3.8.6.4 2017-10-02
Report Run at: December 19, 2017 07:04 EST
"Nutrient data for: 45140541, DEVOUR, DEEP DISH THREE MEAT PIZZA, UPC: 025155057013"
Food Group:  Branded Food Products Database
Common Name:

Nutrient,Unit,Data points,Std. Error,"1 PACKAGE = 226.0g",1Value per 100 g,
Proximates
"Energy",kcal,--,--,660,292
"Protein",g,--,--,23.01,10.18
"Total lipid (fat)",g,--,--,35.01,15.49
"Carbohydrate, by difference",g,--,--,63.01,27.88
"Fiber, total dietary",g,--,--,4.1,1.8
"Sugars, total",g,--,--,5.99,2.65
Minerals
"Calcium, Ca",mg,--,--,301,133
"Iron, Fe",mg,--,--,4.66,2.06
"Sodium, Na",mg,--,--,1139,504
Vitamins
"Vitamin C, total ascorbic acid",mg,--,--,4.1,1.8
"Vitamin A, IU",IU,--,--,172,76
Lipids
"Fatty acids, total saturated",g,--,--,16.001,7.080
"Fatty acids, total trans",g,--,--,0.000,0.000
"Cholesterol",mg,--,--,41,18
Amino Acids
Other
Ingredients
"CRUST (ENRICHED UNBLEACHED WHEAT FLOUR [FLOUR, MALTED BARLEY FLOUR, NIACIN, REDUCED IRON, THIAMINE MONONITRATE, RIBOFLAVIN, FOLIC ACID], WATER, ENRICHED WHEAT FLOUR [FLOUR, NIACIN, REDUCED IRON, THIAMINE MONONITRATE, RIBOFLAVIN, FOLIC ACID], PALM OIL WITH SOY LECITHIN, SOYBEAN OIL, SUGAR, CONTAINS 2% OR LESS OF ACACIA GUM, SALT, NON FAT DRY MILK, NATURAL FLAVOR, YEAST), SAUCE (WATER, TOMATO PASTE, SEASONING BLEND [DEHYDRATED ONION AND GARLIC, SPICES], MODIFIED CORN STARCH, CONTAINS 2% OR LESS OF SUGAR, SALT, DEHYDRATED GARLIC, PARMESAN CHEESE [PART SKIM MILK, CHEESE CULTURE, SALT, ENZYMES]), LOW MOISTURE PART SKIM MOZZARELLA CHEESE (PASTEURIZED PART SKIM MILK, CULTURES, SALT, ENZYMES), PEPPERONI (PORK AND BEEF, SALT, SPICES, DEXTROSE, LACTIC ACID STARTER CULTURE, OLEORESIN OF PAPRIKA, FLAVORING, SODIUM ASCORBATE, SODIUM NITRITE, BHA, BHT, CITRIC ACID), BACON ([CURED WITH WATER, SALT, SUGAR, SODIUM NITRITE], APPLEWOOD SMOKE FLAVOR. MAY CONTAIN SODIUM PHOSPHATE, SMOKE FLAVOR, SODIUM ERYTHORBATE, SODIUM ASCORBATE, DEXTROSE), ITALIAN SAUSAGE (PORK, WATER, SPICES, SALT, DEXTROSE, FLAVORINGS, TBHQ, BHT, CITRIC ACID)." Date available: 07/14/2017 Date last updated by company: 07/14/2017
