Source: USDA Branded Food Products Database Release December 2017 Software v.3.8.6.4 2017-10-02
Report Run at: December 19, 2017 07:06 EST
"Nutrient data for: 45143877, DIAMOND BAKERY, PREMIUM HANDMADE SHORTBREAD HAWAIIAN COOKIES, GUAVA, UPC: 073218340343"
Food Group:  Branded Food Products Database
Common Name:

Nutrient,Unit,Data points,Std. Error,"3.0 COOKIES = 34.0g",1Value per 100 g,
Proximates
"Energy",kcal,--,--,180,529
"Protein",g,--,--,2.00,5.88
"Total lipid (fat)",g,--,--,10.00,29.41
"Carbohydrate, by difference",g,--,--,20.00,58.82
"Fiber, total dietary",g,--,--,0.0,0.0
"Sugars, total",g,--,--,9.00,26.47
Minerals
"Calcium, Ca",mg,--,--,0,0
"Iron, Fe",mg,--,--,1.06,3.11
"Sodium, Na",mg,--,--,75,221
Vitamins
"Vitamin C, total ascorbic acid",mg,--,--,0.0,0.0
"Vitamin A, IU",IU,--,--,441,1297
Lipids
"Fatty acids, total saturated",g,--,--,7.001,20.590
"Fatty acids, total trans",g,--,--,0.000,0.000
"Cholesterol",mg,--,--,25,74
Amino Acids
Other
Ingredients
"ENRICHED FLOUR (WHEAT FLOUR, NIACIN, REDUCED IRON, THIAMINE MONONITRATE, RIBOFLAVIN, FOLIC ACID), BUTTER (CREAM, SALT), SUGAR, PARTIALLY HYDROGENATED PALM KERNEL AND COTTONSEED OILS, CONTAINS LESS THAN 2% OF EACH OF THE FOLLOWING: NONFAT MILK, WATER, ETHYL ALCOHOL, MILK, GLYCERYL-LACTO ESTERS OF FATTY ACIDS, SOYBEAN OIL, SOY LECITHIN, RED 3, NATURAL AND ARTIFICIAL FLAVORS, SALT, GLYCERIN." Date available: 07/14/2017 Date last updated by company: 07/14/2017
