Source: USDA Branded Food Products Database Release December 2017 Software v.3.8.6.4 2017-10-02
Report Run at: December 16, 2017 23:57 EST
"Nutrient data for: 45276888, DICED PEACHES, UPC: 74164303312"
Food Group:  Branded Food Products Database
Common Name:

Nutrient,Unit,Data points,Std. Error,"1 cup = 113.0g",1Value per 100 g,
Proximates
"Energy",kcal,--,--,80,71
"Protein",g,--,--,0.99,0.88
"Total lipid (fat)",g,--,--,0.00,0.00
"Carbohydrate, by difference",g,--,--,19.00,16.81
"Fiber, total dietary",g,--,--,1.0,0.9
"Sugars, total",g,--,--,15.00,13.27
Minerals
"Calcium, Ca",mg,--,--,0,0
"Iron, Fe",mg,--,--,0.00,0.00
"Potassium, K",mg,--,--,90,80
"Sodium, Na",mg,--,--,10,9
Vitamins
"Vitamin C, total ascorbic acid",mg,--,--,74.4,65.8
"Vitamin A, IU",IU,--,--,247,219
Lipids
"Fatty acids, total saturated",g,--,--,0.000,0.000
"Fatty acids, total trans",g,--,--,0.000,0.000
"Cholesterol",mg,--,--,0,0
Amino Acids
Other
Ingredients
"PEACHES, WATER, SUGAR, ASCORBIC ACID (VITAMIN C), CITRIC ACID, NATURAL FLAVORING." Date available: 07/14/2017 Date last updated by company: 07/14/2017
