Source: USDA Branded Food Products Database Release December 2017 Software v.3.8.6.4 2017-10-02
Report Run at: December 16, 2017 23:59 EST
"Nutrient data for: 45195179, DICED POTATOES, UPC: 033757826302"
Food Group:  Branded Food Products Database
Common Name:

Nutrient,Unit,Data points,Std. Error,"0.5 cup = 1262.0g",1Value per 100 g,
Proximates
"Energy",kcal,--,--,50,4
"Protein",g,--,--,1.01,0.08
"Total lipid (fat)",g,--,--,0.00,0.00
"Carbohydrate, by difference",g,--,--,10.98,0.87
"Fiber, total dietary",g,--,--,1.3,0.1
"Sugars, total",g,--,--,0.00,0.00
Minerals
"Sodium, Na",mg,--,--,278,22
Vitamins
"Vitamin C, total ascorbic acid",mg,--,--,1.3,0.1
"Vitamin A, IU",IU,--,--,0,0
Lipids
"Fatty acids, total saturated",g,--,--,0.000,0.000
"Fatty acids, total trans",g,--,--,0.000,0.000
"Cholesterol",mg,--,--,0,0
Amino Acids
Other
Ingredients
"POTATOES, WATER, SALT, CALCIUM CHLORIDE, DISODIUM EDTA" Date available: 10/19/2017 Date last updated by company: 10/19/2017
