Source: USDA Branded Food Products Database Release December 2017 Software v.3.8.6.4 2017-10-02
Report Run at: December 16, 2017 23:58 EST
"Nutrient data for: 45258717, DICED PEAR IN LIGHT SYRUP, UPC: 876941006797"
Food Group:  Branded Food Products Database
Common Name:

Nutrient,Unit,Data points,Std. Error,"1 cup = 113.0g",1Value per 100 g,
Proximates
"Energy",kcal,--,--,70,62
"Protein",g,--,--,0.00,0.00
"Total lipid (fat)",g,--,--,0.00,0.00
"Carbohydrate, by difference",g,--,--,17.00,15.04
"Fiber, total dietary",g,--,--,1.0,0.9
"Sugars, total",g,--,--,16.00,14.16
Minerals
"Calcium, Ca",mg,--,--,0,0
"Iron, Fe",mg,--,--,0.00,0.00
"Sodium, Na",mg,--,--,10,9
Vitamins
"Vitamin C, total ascorbic acid",mg,--,--,36.0,31.9
"Vitamin A, IU",IU,--,--,247,219
Lipids
"Fatty acids, total saturated",g,--,--,0.000,0.000
"Fatty acids, total trans",g,--,--,0.000,0.000
"Cholesterol",mg,--,--,0,0
Amino Acids
Other
Ingredients
"PEARS, WATER, SUGAR, ASCORBIC ACID, CITRIC ACID." Date available: 08/23/2017 Date last updated by company: 08/23/2017
