Source: USDA Branded Food Products Database Release December 2017 Software v.3.8.6.4 2017-10-02
Report Run at: December 16, 2017 23:58 EST
"Nutrient data for: 45258428, DICED PEACH IN STRAWBERRY GEL, UPC: 876941006759"
Food Group:  Branded Food Products Database
Common Name:

Nutrient,Unit,Data points,Std. Error,"1 cup = 122.0g",1Value per 100 g,
Proximates
"Energy",kcal,--,--,90,74
"Protein",g,--,--,1.00,0.82
"Total lipid (fat)",g,--,--,0.00,0.00
"Carbohydrate, by difference",g,--,--,26.00,21.31
"Fiber, total dietary",g,--,--,1.0,0.8
"Sugars, total",g,--,--,24.00,19.67
Minerals
"Calcium, Ca",mg,--,--,0,0
"Iron, Fe",mg,--,--,0.12,0.10
"Potassium, K",mg,--,--,105,86
"Sodium, Na",mg,--,--,30,25
Vitamins
"Vitamin C, total ascorbic acid",mg,--,--,8.9,7.3
"Vitamin A, IU",IU,--,--,0,0
Lipids
"Fatty acids, total saturated",g,--,--,0.000,0.000
"Fatty acids, total trans",g,--,--,0.000,0.000
"Cholesterol",mg,--,--,0,0
Amino Acids
Other
Ingredients
"WATER, PEACHES, SUGAR, JELLY POWDER (CARRAGEENAN, GELLAN GUM, LOCUST BEAN GUM, XANTHAN GUM, POTASSIUM CITRATE, SODIUM CITRATE), CITRIC ACID, FLAVOR, ASCORBIC ACID, CARMINE COCHINEAL / E120, FD&C RED NO. 40 COLOR." Date available: 10/13/2017 Date last updated by company: 10/13/2017
