Source: USDA Branded Food Products Database Release December 2017 Software v.3.8.6.4 2017-10-02
Report Run at: December 17, 2017 00:09 EST
"Nutrient data for: 45280138, DICED WHITE POTATOES, UPC: 036800170254"
Food Group:  Branded Food Products Database
Common Name:

Nutrient,Unit,Data points,Std. Error,"0.666 cup = 165.0g",1Value per 100 g,
Proximates
"Energy",kcal,--,--,59,36
"Protein",g,--,--,1.01,0.61
"Total lipid (fat)",g,--,--,0.00,0.00
"Carbohydrate, by difference",g,--,--,13.00,7.88
"Fiber, total dietary",g,--,--,1.0,0.6
"Sugars, total",g,--,--,0.00,0.00
Minerals
"Calcium, Ca",mg,--,--,20,12
"Iron, Fe",mg,--,--,0.35,0.21
"Sodium, Na",mg,--,--,280,170
Vitamins
"Vitamin C, total ascorbic acid",mg,--,--,5.8,3.5
"Vitamin A, IU",IU,--,--,0,0
Lipids
"Fatty acids, total saturated",g,--,--,0.000,0.000
"Fatty acids, total trans",g,--,--,0.000,0.000
"Cholesterol",mg,--,--,0,0
Amino Acids
Other
Ingredients
"POTATOES, WATER, SALT, CALCIUM CHLORIDE, DISODIUM EDTA." Date available: 07/14/2017 Date last updated by company: 07/14/2017
