Source: USDA Branded Food Products Database Release December 2017 Software v.3.8.6.4 2017-10-02
Report Run at: December 17, 2017 00:13 EST
"Nutrient data for: 45194295, DIERBERGS KITCHEN'S, SIGNATURE SAUCE, ASIAN BARBEQUE, UPC: 023933930862"
Food Group:  Branded Food Products Database
Common Name:

Nutrient,Unit,Data points,Std. Error,"2.0 Tbsp = 35.0g",1Value per 100 g,
Proximates
"Energy",kcal,--,--,50,143
"Protein",g,--,--,1.00,2.86
"Total lipid (fat)",g,--,--,0.50,1.43
"Carbohydrate, by difference",g,--,--,11.00,31.43
"Fiber, total dietary",g,--,--,0.0,0.0
"Sugars, total",g,--,--,7.00,20.00
Minerals
"Calcium, Ca",mg,--,--,0,0
"Iron, Fe",mg,--,--,0.61,1.74
"Sodium, Na",mg,--,--,1030,2943
Vitamins
"Vitamin C, total ascorbic acid",mg,--,--,152.1,434.7
"Vitamin A, IU",IU,--,--,846,2416
Lipids
"Fatty acids, total saturated",g,--,--,0.000,0.000
"Cholesterol",mg,--,--,0,0
Amino Acids
Other
Ingredients
"WATER, SOY SAUCE (WATER, WHEAT, SOYBEANS, SALT), SUGAR, SALT, GARLIC PUREE, MODIFIED FOOD STARCH, PEAR CONCENTRATE JUICE, SESAME OIL, RED CHILE PUREE, PINEAPPLE CONCENTRATE JUICE, SESAME SEED, SODIUM ASCORBATE, LEMON CONCENTRATE JUICE, ROASTED GARLIC PUREE, MINCED GARLIC, PAPRIKA OLEORESIN COLOR, YEAST EXTRACT, SPICES, XANTHAN GUM." Date available: 07/14/2017 Date last updated by company: 07/14/2017
