Source: USDA Branded Food Products Database Release December 2017 Software v.3.8.6.4 2017-10-02
Report Run at: December 17, 2017 00:14 EST
"Nutrient data for: 45166578, DIERBERGS MARKETS, CHOCOLATE PRETZELS, UPC: 829364100436"
Food Group:  Branded Food Products Database
Common Name:

Nutrient,Unit,Data points,Std. Error,"7.0 PCS = 40.0g",1Value per 100 g,
Proximates
"Energy",kcal,--,--,190,475
"Protein",g,--,--,3.00,7.50
"Total lipid (fat)",g,--,--,9.00,22.50
"Carbohydrate, by difference",g,--,--,27.00,67.50
"Fiber, total dietary",g,--,--,1.0,2.5
"Sugars, total",g,--,--,16.00,40.00
Minerals
"Calcium, Ca",mg,--,--,60,150
"Iron, Fe",mg,--,--,0.45,1.12
"Sodium, Na",mg,--,--,140,350
Vitamins
"Vitamin C, total ascorbic acid",mg,--,--,0.0,0.0
"Vitamin A, IU",IU,--,--,125,312
Lipids
"Fatty acids, total saturated",g,--,--,6.000,15.000
"Cholesterol",mg,--,--,0,0
Amino Acids
Other
Ingredients
"MILK CHOCOLATE (SUGAR COCOA BUTTER WHOLE MILK, CHOCOLATE LIQUOR, LACTOSE LECITHIN (AN EMULSIFIER), AND VANILLIN (AN ARTIFICIAL FLAVOR), PRETZELS (SOFT RED WHEAT FLOUR, CORN SYRUP, SALT, BAKING SODA, AND YEAST)." Date available: 07/14/2017 Date last updated by company: 07/14/2017
