Source: USDA Branded Food Products Database Release December 2017 Software v.3.8.6.4 2017-10-02
Report Run at: December 17, 2017 00:15 EST
"Nutrient data for: 45150061, DIERBERGS, PINK LEMONADE SOUR BELTS, UPC: 829364002891"
Food Group:  Branded Food Products Database
Common Name:

Nutrient,Unit,Data points,Std. Error,"5.0 PCS. = 40.0g",1Value per 100 g,
Proximates
"Energy",kcal,--,--,147,368
"Protein",g,--,--,1.00,2.50
"Total lipid (fat)",g,--,--,1.00,2.50
"Carbohydrate, by difference",g,--,--,33.00,82.50
"Sugars, total",g,--,--,25.00,62.50
Minerals
"Calcium, Ca",mg,--,--,0,0
"Iron, Fe",mg,--,--,0.00,0.00
"Sodium, Na",mg,--,--,12,30
Vitamins
"Vitamin C, total ascorbic acid",mg,--,--,0.0,0.0
"Vitamin A, IU",IU,--,--,0,0
Lipids
"Fatty acids, total saturated",g,--,--,0.000,0.000
"Fatty acids, total trans",g,--,--,0.000,0.000
"Cholesterol",mg,--,--,0,0
Amino Acids
Other
Ingredients
"SUGAR, GLUCOSE-FRUCTOSE SYRUP, WHEAT FLOUR, MALIC ACID, DEXTROSE, PALM OIL, CITRIC ACID, NATURAL FLAVOR, ANTIOXIDANTS (ASCORBIC ACID, TOCOPHEROL), ARTIFICIAL COLORS: FD&C RED 40, TITANIUM DIOXIDE." Date available: 07/14/2017 Date last updated by company: 07/14/2017
