Source: USDA Branded Food Products Database Release December 2017 Software v.3.8.6.4 2017-10-02
Report Run at: December 17, 2017 00:10 EST
"Nutrient data for: 45161597, DIERBERGS, CHOCOLATE BANANA CHIPS, UPC: 829364002549"
Food Group:  Branded Food Products Database
Common Name:

Nutrient,Unit,Data points,Std. Error,"1.4 ONZ = 40.0g",1Value per 100 g,
Proximates
"Energy",kcal,--,--,180,450
"Protein",g,--,--,2.00,5.00
"Total lipid (fat)",g,--,--,7.00,17.50
"Carbohydrate, by difference",g,--,--,30.00,75.00
"Fiber, total dietary",g,--,--,2.0,5.0
"Sugars, total",g,--,--,22.00,55.00
Minerals
"Calcium, Ca",mg,--,--,20,50
"Iron, Fe",mg,--,--,0.45,1.12
"Sodium, Na",mg,--,--,30,75
Vitamins
"Vitamin C, total ascorbic acid",mg,--,--,1.5,3.8
"Vitamin A, IU",IU,--,--,125,312
Lipids
"Fatty acids, total saturated",g,--,--,4.000,10.000
"Fatty acids, total trans",g,--,--,0.000,0.000
"Cholesterol",mg,--,--,5,12
Amino Acids
Other
Ingredients
"CENTER, BANANAS, VAGITABLE OIL, SUGAR, HONEY, SUGAR. MILK CHOCOLATE: SUGAR, COCOA BUTTER, CHOCOLATE LIQUOR, MILK, SOY LECITHIN (AN EMULSIFIER), SALT, VANILLA, ARTIFICIAL FLAVORING AND CONFECTIONERS GLAZE" Date available: 08/10/2017 Date last updated by company: 08/10/2017
