Source: USDA Branded Food Products Database Release December 2017 Software v.3.8.6.4 2017-10-02
Report Run at: December 17, 2017 00:14 EST
"Nutrient data for: 45154111, DIERBERGS MARKETS, RED, WHITE AND BLUE GUMMY BEARS, UPC: 829364101389"
Food Group:  Branded Food Products Database
Common Name:

Nutrient,Unit,Data points,Std. Error,"12.0 PCS = 40.0g",1Value per 100 g,
Proximates
"Energy",kcal,--,--,120,300
"Protein",g,--,--,2.00,5.00
"Total lipid (fat)",g,--,--,2.00,5.00
"Carbohydrate, by difference",g,--,--,29.00,72.50
"Fiber, total dietary",g,--,--,0.0,0.0
"Sugars, total",g,--,--,18.00,45.00
Minerals
"Calcium, Ca",mg,--,--,0,0
"Iron, Fe",mg,--,--,0.00,0.00
"Sodium, Na",mg,--,--,20,50
Vitamins
"Vitamin C, total ascorbic acid",mg,--,--,0.0,0.0
"Vitamin A, IU",IU,--,--,0,0
Lipids
"Fatty acids, total saturated",g,--,--,0.000,0.000
"Cholesterol",mg,--,--,0,0
Amino Acids
Other
Ingredients
"CORN SYRUP, GELATIN, CITRIC ACID, SORBITOL, NATURAL AND ARTIFICIAL FLAVORS, FD&C RED # 40, BLUE # 1, VEGETABLE OIL (COCONUT), CARNUBA WAX (FOR ANTI-STICKING)." Date available: 07/14/2017 Date last updated by company: 07/14/2017
