Source: USDA Branded Food Products Database Release December 2017 Software v.3.8.6.4 2017-10-02
Report Run at: December 17, 2017 00:15 EST
"Nutrient data for: 45154104, DIERBERGS, RASPBERRY YOGURT PRETZELS, UPC: 829364011817"
Food Group:  Branded Food Products Database
Common Name:

Nutrient,Unit,Data points,Std. Error,"7.0 PCS = 41.0g",1Value per 100 g,
Proximates
"Energy",kcal,--,--,200,488
"Protein",g,--,--,2.00,4.88
"Total lipid (fat)",g,--,--,9.00,21.95
"Carbohydrate, by difference",g,--,--,29.00,70.73
"Fiber, total dietary",g,--,--,0.0,0.0
"Sugars, total",g,--,--,18.00,43.90
Minerals
"Calcium, Ca",mg,--,--,60,146
"Iron, Fe",mg,--,--,0.44,1.07
"Sodium, Na",mg,--,--,150,366
Vitamins
"Vitamin C, total ascorbic acid",mg,--,--,0.0,0.0
"Vitamin A, IU",IU,--,--,0,0
Lipids
"Fatty acids, total saturated",g,--,--,8.999,21.950
"Fatty acids, total trans",g,--,--,0.000,0.000
"Cholesterol",mg,--,--,0,0
Amino Acids
Other
Ingredients
"YOGURT COATING (SUGAR, PARTIALLY HYDROGENATED VEGETABLE (PALM KERNEL, COCONUT, PALM), WHOLE MILK, REDUCED MINERAL WHEY POWDER, NONFAT YOGURT POWDER, NONFAT WHOLE MILK POWDER (CULTURED WHEY AND NONFAT MILK), ARTIFICIAL COLOR ( TITANIUM DIOXIDE, RED # 40 LAKE, BLUE # 2 LAKE, BLUE # 1 LAKE), SOY LECITHIN (AN EMULSIFIER), SALT AND VANILLIN (AN ARTIFICIAL FLAVOR), RASPBERRY ( TRIGLYCERIDES, MEDIUM CHAINS, NATURAL FLAVOR), PRETZELS ( SOFT RED WHEAT FLOUR, CORN SYRUP, SALT, BAKING SODA, AND YEAST." Date available: 08/10/2017 Date last updated by company: 08/10/2017
