Source: USDA Branded Food Products Database Release December 2017 Software v.3.8.6.4 2017-10-02
Report Run at: December 17, 2017 00:10 EST
"Nutrient data for: 45161599, DIERBERGS, CHOCOLATE CHERRIES, UPC: 829364002839"
Food Group:  Branded Food Products Database
Common Name:

Nutrient,Unit,Data points,Std. Error,"1.4 ONZ = 40.0g",1Value per 100 g,
Proximates
"Energy",kcal,--,--,190,475
"Protein",g,--,--,2.00,5.00
"Total lipid (fat)",g,--,--,10.00,25.00
"Carbohydrate, by difference",g,--,--,25.00,62.50
"Sugars, total",g,--,--,22.00,55.00
Minerals
"Calcium, Ca",mg,--,--,50,125
"Iron, Fe",mg,--,--,0.36,0.90
"Sodium, Na",mg,--,--,35,88
Vitamins
"Vitamin C, total ascorbic acid",mg,--,--,0.0,0.0
"Vitamin A, IU",IU,--,--,125,312
Lipids
"Fatty acids, total saturated",g,--,--,6.000,15.000
"Fatty acids, total trans",g,--,--,0.000,0.000
"Cholesterol",mg,--,--,5,12
Amino Acids
Other
Ingredients
"WHITE CHOCOLATE (SUGAR, COCOA BUTTER, WHOLE MILK POWDER, SOY LECITHIN-AM EMULSIFIER NATURAL VANILLA FLAVOR), MILK CHOCOLATE (SUGAR, COCOA BUTTER, WHOLE MILK POWDER, CHOCOLATE LIQUOR, SOY LECITHIN-AN EMULSIFIER. VANILLIN-AN ARTIFICIAL FLAVOR), CHERRIES, SUGAR, GUM ARABIC, MODIFIED CORN STARCH, CORN SYRUP, ARTIFICIAL COLORS (RED 40 LAKE, YELLOW 6 COCONUT ORIGIN, CITRIC ACID, POTASSIUM SORBATE, CONFECTIONER'S GLAZE." Date available: 10/13/2017 Date last updated by company: 10/13/2017
