Source: USDA Branded Food Products Database Release December 2017 Software v.3.8.6.4 2017-10-02
Report Run at: December 17, 2017 00:11 EST
"Nutrient data for: 45147063, DIERBERGS, CRANBERRY TRAIL MIX, UPC: 829364002235"
Food Group:  Branded Food Products Database
Common Name:

Nutrient,Unit,Data points,Std. Error,"0.33 cup = 30.0g",1Value per 100 g,
Proximates
"Energy",kcal,--,--,110,367
"Protein",g,--,--,2.00,6.67
"Total lipid (fat)",g,--,--,4.00,13.33
"Carbohydrate, by difference",g,--,--,17.00,56.67
"Fiber, total dietary",g,--,--,1.0,3.3
"Sugars, total",g,--,--,12.00,40.00
Minerals
"Calcium, Ca",mg,--,--,20,67
"Iron, Fe",mg,--,--,1.50,5.00
"Sodium, Na",mg,--,--,0,0
Vitamins
"Vitamin C, total ascorbic acid",mg,--,--,1.0,3.3
"Vitamin A, IU",IU,--,--,0,0
Lipids
"Fatty acids, total saturated",g,--,--,0.999,3.330
"Fatty acids, total trans",g,--,--,0.000,0.000
"Cholesterol",mg,--,--,0,0
Amino Acids
Other
Ingredients
"RASINS (SUNFLOWER OIL), GOLDEN RASINS (SULFUR DIOXIDE), CRANBERRIES (SUGAR SUNFLOWER OIL), PUMPKIN SEEDS, CASHEWS, ALMONDS, WALNUTS." Date available: 07/14/2017 Date last updated by company: 07/14/2017
