Source: USDA Branded Food Products Database Release December 2017 Software v.3.8.6.4 2017-10-02
Report Run at: December 17, 2017 00:16 EST
"Nutrient data for: 45103924, DIESTEL TURKEY RANCH, NATURALLY SMOKED TURKEY BREAST, UPC: 707330346463"
Food Group:  Branded Food Products Database
Common Name:

Nutrient,Unit,Data points,Std. Error,"2.0 oz = 56.0g",1Value per 100 g,
Proximates
"Energy",kcal,--,--,60,107
"Protein",g,--,--,12.00,21.43
"Total lipid (fat)",g,--,--,1.00,1.79
"Carbohydrate, by difference",g,--,--,1.00,1.79
Minerals
"Iron, Fe",mg,--,--,0.35,0.63
"Sodium, Na",mg,--,--,500,893
Vitamins
Lipids
"Fatty acids, total saturated",g,--,--,0.000,0.000
"Fatty acids, total trans",g,--,--,0.000,0.000
"Cholesterol",mg,--,--,10,18
Amino Acids
Other
Ingredients
"TURKEY BREAST, WATER, SEA SALT, ORGANIC BROWN SUGAR, SODIUM CARBONATE, ORGANIC SPICES, ORGANIC GARLIC POWDER AND NATURAL FLAVORINGS," Date available: 06/25/2017 Date last updated by company: 06/25/2017
