Source: USDA Branded Food Products Database Release December 2017 Software v.3.8.6.4 2017-10-02
Report Run at: December 17, 2017 00:27 EST
"Nutrient data for: 45067657, DIGESTIVE COATED WHEAT BISCUITS, UPC: 059290311440"
Food Group:  Branded Food Products Database
Common Name:

Nutrient,Unit,Data points,Std. Error,"1 COOKIE = 17.0g",1Value per 100 g,
Proximates
"Energy",kcal,--,--,90,529
"Protein",g,--,--,1.00,5.88
"Total lipid (fat)",g,--,--,4.00,23.53
"Carbohydrate, by difference",g,--,--,11.00,64.71
"Fiber, total dietary",g,--,--,1.0,5.9
"Sugars, total",g,--,--,5.00,29.41
Minerals
"Calcium, Ca",mg,--,--,0,0
"Iron, Fe",mg,--,--,0.00,0.00
"Sodium, Na",mg,--,--,70,412
Vitamins
"Vitamin C, total ascorbic acid",mg,--,--,0.0,0.0
"Thiamin",mg,--,--,0.000,0.000
"Niacin",mg,--,--,0.000,0.000
"Vitamin A, IU",IU,--,--,0,0
Lipids
"Fatty acids, total saturated",g,--,--,1.999,11.760
"Fatty acids, total monounsaturated",g,--,--,1.499,8.820
"Fatty acids, total polyunsaturated",g,--,--,0.000,0.000
"Fatty acids, total trans",g,--,--,0.000,0.000
"Cholesterol",mg,--,--,0,0
Amino Acids
Other
Ingredients
"WHEAT FLOUR, COMPOUND COATING (SUGAR, COCOA BUTTER, CHOCOLATE, SKIM MILK, WHEY, BUTTEROIL, VEGETABLE SHORTENING [CONTAINS ONE OR MORE OF THE FOLLOWING: SHEA OIL, ILLIPE OIL, SAL OIL, PALM OIL, MANGO KERNEL OIL, KOKUM OIL], SOY LECITHIN, POLYGLYCEROL POLYRICINOLEATE, NATURAL FLAVOR.) PALM OIL, WHOLE WHEAT FLOUR, SUGAR, GLUCOSE SYRUP, TARTARIC ACID, MALIC ACID, LEAVENING (SODIUM BICARBONATE, AMMONIUM BICARBONATE), SALT, CALCIUM CARBONATE, CALCIUM SULFATE, REDUCED IRON, NICOTINAMIDE, THIAMINE HYDROCHLORIDE." Date available: 07/14/2017 Date last updated by company: 07/14/2017
