Source: USDA Branded Food Products Database Release December 2017 Software v.3.8.6.4 2017-10-02
Report Run at: December 17, 2017 00:30 EST
"Nutrient data for: 45174114, DILETTANTE, FRUIT MEDLEY IN PREMIUM CHOCOLATE, UPC: 037041054013"
Food Group:  Branded Food Products Database
Common Name:

Nutrient,Unit,Data points,Std. Error,"6.0 PCS = 40.0g",1Value per 100 g,
Proximates
"Energy",kcal,--,--,190,475
"Protein",g,--,--,2.00,5.00
"Total lipid (fat)",g,--,--,10.00,25.00
"Carbohydrate, by difference",g,--,--,26.00,65.00
"Fiber, total dietary",g,--,--,1.0,2.5
"Sugars, total",g,--,--,20.00,50.00
Minerals
"Calcium, Ca",mg,--,--,40,100
"Iron, Fe",mg,--,--,0.45,1.12
"Sodium, Na",mg,--,--,5,12
Vitamins
"Vitamin C, total ascorbic acid",mg,--,--,1.5,3.8
"Vitamin A, IU",IU,--,--,125,312
Lipids
"Fatty acids, total saturated",g,--,--,6.000,15.000
"Fatty acids, total trans",g,--,--,0.000,0.000
"Cholesterol",mg,--,--,5,12
Amino Acids
Other
Ingredients
"WHITE CHOCOLATE (SUGAR, COCOA BUTTER, WHOLE MILK POWDER, SOY LECITHIN [AN EMULSIFIER], NATURAL VANILLA FLAVOR), DARK CHOCOLATE (SUGAR, CHOCOLATE LIQUOR, COCOA BUTTER, WHOLE MILK POWDER, MILK FAT, SOY LECITHIN [AN EMULSIFIER], NATURAL VANILLA FLAVOR), DRIED STRAWBERRIES (STRAWBERRIES, SUGAR, CITRIC ACID, RED #40, NATURAL FLAVOR, SULFUR DIOXIDE), DRIED CHERRIES (CHERRIES, SUNFLOWER OIL), DRIED APRICOTS (APRICOTS, SULFUR DIOXIDE, RICE FLOUR), DRIED BLUEBERRIES (BLUEBERRIES, SUGAR, SUNFLOWER OIL), CONFECTIONER'S GLAZE, GUM ARABIC, RED #40 LAKE, NATURAL AND ARTIFICIAL FLAVOR, YELLOW #6 LAKE, CITRIC ACID, BLUE #2 LAKE." Date available: 07/14/2017 Date last updated by company: 07/14/2017
