Source: USDA Branded Food Products Database Release December 2017 Software v.3.8.6.4 2017-10-02
Report Run at: December 17, 2017 00:34 EST
"Nutrient data for: 45281964, DILL RELISH, UPC: 075450037128"
Food Group:  Branded Food Products Database
Common Name:

Nutrient,Unit,Data points,Std. Error,"1 Tbsp = 15.0g",1Value per 100 g,
Proximates
"Energy",kcal,--,--,0,0
"Protein",g,--,--,0.00,0.00
"Total lipid (fat)",g,--,--,0.00,0.00
"Carbohydrate, by difference",g,--,--,0.00,0.00
Minerals
"Sodium, Na",mg,--,--,240,1600
Vitamins
Lipids
Amino Acids
Other
Ingredients
"CUCUMBERS, WATER, SALT, VINEGAR, CONTAINS LESS THAN 2% OF LACTIC ACID, CALCIUM CHLORIDE, SODIUM BENZOATE (PRESERVATIVE), POTASSIUM SORBATE (PRESERVATIVE), DEHYDRATED RED BELL PEPPER, XANTHAN GUM, NATURAL FLAVOR, ALUM, POLYSORBATE 80, YELLOW 5." Date available: 07/14/2017 Date last updated by company: 07/14/2017
