Source: USDA Branded Food Products Database Release December 2017 Software v.3.8.6.4 2017-10-02
Report Run at: December 17, 2017 00:36 EST
"Nutrient data for: 45249545, DINAMITA ROLLED TORTILLA CHIPS, UPC: 028400437233"
Food Group:  Branded Food Products Database
Common Name:

Nutrient,Unit,Data points,Std. Error,"15.0 PIECES | ABOUT = 28.0g",1Value per 100 g,
Proximates
"Energy",kcal,--,--,140,500
"Protein",g,--,--,2.00,7.14
"Total lipid (fat)",g,--,--,8.00,28.57
"Carbohydrate, by difference",g,--,--,16.00,57.14
"Fiber, total dietary",g,--,--,1.0,3.6
"Sugars, total",g,--,--,0.00,0.00
Minerals
"Calcium, Ca",mg,--,--,0,0
"Iron, Fe",mg,--,--,0.00,0.00
"Sodium, Na",mg,--,--,200,714
Vitamins
"Vitamin C, total ascorbic acid",mg,--,--,0.0,0.0
"Vitamin A, IU",IU,--,--,0,0
Lipids
"Fatty acids, total saturated",g,--,--,1.000,3.570
"Fatty acids, total trans",g,--,--,0.000,0.000
"Cholesterol",mg,--,--,0,0
Amino Acids
Other
Ingredients
"CORN, VEGETABLE OIL (CORN, SUNFLOWER, AND/OR CANOLA OIL), AND 2% OR LESS OF THE FOLLOWING: MALTODEXTRIN (MADE FROM CORN), SALT, CITRIC ACID, SUGAR, MONOSODIUM GLUTAMATE, ARTIFICIAL COLOR (RED 40 LAKE, YELLOW 6 LAKE), HYDROLYZED CORN GLUTEN, YEAST EXTRACT, SODIUM DIACETATE, CHEDDAR CHEESE (MILK, CHEESE CULTURES, SALT, ENZYMES), MODIFIED CORN STARCH, NATURAL FLAVOR (INCLUDING NATURAL EXTRACTIVES OF LIME AND NATURAL EXTRACTIVES OF RED PEPPER), ONION POWDER, WHEY, CORN SYRUP SOLIDS, GARLIC POWDER, ROMANO CHEESE (PART-SKIM COW'S MILK, CHEESE CULTURES, SALT, ENZYMES), BUTTERMILK, WHEY PROTEIN CONCENTRATE, DISODIUM INOSINATE, AND DISODIUM GUANYLATE" Date available: 09/23/2016 Date last updated by company: 09/23/2016
