Source: USDA Branded Food Products Database Release December 2017 Software v.3.8.6.4 2017-10-02
Report Run at: December 17, 2017 00:38 EST
"Nutrient data for: 45263308, DINO NUGGETS, UPC: 023700043924"
Food Group:  Branded Food Products Database
Common Name:

Nutrient,Unit,Data points,Std. Error,"4.0 PIECES = 76.0g",1Value per 100 g,
Proximates
"Energy",kcal,--,--,200,263
"Protein",g,--,--,12.00,15.79
"Total lipid (fat)",g,--,--,12.00,15.79
"Carbohydrate, by difference",g,--,--,12.00,15.79
"Fiber, total dietary",g,--,--,1.0,1.3
"Sugars, total",g,--,--,0.00,0.00
Minerals
"Calcium, Ca",mg,--,--,0,0
"Iron, Fe",mg,--,--,1.21,1.59
"Sodium, Na",mg,--,--,460,605
Vitamins
"Vitamin C, total ascorbic acid",mg,--,--,0.0,0.0
"Vitamin A, IU",IU,--,--,0,0
Lipids
"Fatty acids, total saturated",g,--,--,2.500,3.290
"Fatty acids, total monounsaturated",g,--,--,3.504,4.610
"Fatty acids, total polyunsaturated",g,--,--,3.998,5.260
"Fatty acids, total trans",g,--,--,0.000,0.000
"Cholesterol",mg,--,--,35,46
Amino Acids
Other
Ingredients
"GROUND CHICKEN BREAST WITH RIB MEAT WATER, SEASONING (SALT, CHICKEN FLAVOR [CHICKEN BROTH, SALT, FLAVOR, CHICKEN FAT], DRIED ONION, YEAST EXTRACT, SUGAR, DRIED GARLIC, NATURAL FLAVOR), SALT, NATURAL FLAVOR, BREADED WITH: WHOLE WHEAT FLOUR, ENRICHED WHEAT FLOUR (WHEAT FLOUR, NIACIN, REDUCED IRON, THIAMINE MONONITRATE, RIBOFLAVIN, FOLIC ACID), WATER, SALT, SUGAR, YELLOW CORN FLOUR, SOYBEAN OIL, DRIED GARLIC, DRIED ONION, TORULA YEAST, YEAST, WHEAT GLUTEN, PAPRIKA OLEORESIN. BREADING SET IN VEGETABLE OIL." Date available: 07/14/2017 Date last updated by company: 07/14/2017
