Source: USDA Branded Food Products Database Release December 2017 Software v.3.8.6.4 2017-10-02
Report Run at: December 17, 2017 00:44 EST
"Nutrient data for: 45143784, DIP STYLE POTATO CHIPS, UPC: 072080106217"
Food Group:  Branded Food Products Database
Common Name:

Nutrient,Unit,Data points,Std. Error,"18.0 CHIPS) | (ABOUT = 28.0g",1Value per 100 g,
Proximates
"Energy",kcal,--,--,150,536
"Protein",g,--,--,2.00,7.14
"Total lipid (fat)",g,--,--,10.00,35.71
"Carbohydrate, by difference",g,--,--,14.00,50.00
"Fiber, total dietary",g,--,--,1.0,3.6
"Sugars, total",g,--,--,1.00,3.57
Minerals
"Calcium, Ca",mg,--,--,0,0
"Iron, Fe",mg,--,--,0.64,2.29
"Sodium, Na",mg,--,--,250,893
Vitamins
"Vitamin C, total ascorbic acid",mg,--,--,10.7,38.3
"Vitamin A, IU",IU,--,--,0,0
Lipids
"Fatty acids, total saturated",g,--,--,2.500,8.930
"Fatty acids, total trans",g,--,--,0.000,0.000
"Cholesterol",mg,--,--,0,0
Amino Acids
Other
Ingredients
"FRESH CHOICE POTATOES COOKED IN ONE OR MORE OF THE FOLLOWING PURE VEGETABLE OILS: CORN, COTTONSEED, CANOLA, PALM OR SOYBEAN, SALT. INGREDIENTS OF SEASONING: PARTIALLY HYDROGENATED SOYBEAN OIL, WHEY, CHEDDAR CHEESE (CULTURED MILK, SALT, ENZYMES), MALTODEXTRIN, MONOSODIUM GLUTAMATE, ONION POWDER, SALT, NONFAT DRY MILK, SOUR CREAM (CULTURED CREAM, NONFAT MILK), DISODIUM PHOSPHATE, NATURAL AND ARTIFICIAL FLAVOR, CITRIC ACID, GARLIC POWDER, COLOR (INCLUDING YELLOW 5 AND YELLOW 6), LACTIC ACID, DISODIUM INOSINATE AND DISODIUM GUANYLATE." Date available: 07/14/2017 Date last updated by company: 07/14/2017
