Source: USDA Branded Food Products Database Release December 2017 Software v.3.8.6.4 2017-10-02
Report Run at: December 17, 2017 00:45 EST
"Nutrient data for: 45213002, DIP, UPC: 7503017599015"
Food Group:  Branded Food Products Database
Common Name:

Nutrient,Unit,Data points,Std. Error,"2.0 Tbsp = 31.0g",1Value per 100 g,
Proximates
"Energy",kcal,--,--,40,129
"Protein",g,--,--,1.00,3.23
"Total lipid (fat)",g,--,--,3.00,9.68
"Carbohydrate, by difference",g,--,--,2.00,6.45
"Fiber, total dietary",g,--,--,0.0,0.0
"Sugars, total",g,--,--,1.00,3.23
Minerals
"Calcium, Ca",mg,--,--,20,65
"Iron, Fe",mg,--,--,0.00,0.00
"Sodium, Na",mg,--,--,280,903
Vitamins
"Vitamin C, total ascorbic acid",mg,--,--,0.0,0.0
"Vitamin A, IU",IU,--,--,0,0
Lipids
"Fatty acids, total saturated",g,--,--,1.001,3.230
"Fatty acids, total trans",g,--,--,1.001,3.230
"Cholesterol",mg,--,--,0,0
Amino Acids
Other
Ingredients
"SKIM MILK, PARTIALLY HYDROGENATED SOYBEAN OIL, MODIFIED FOOD STARCH, CHEDDAR CHEESE (CULTURED MILK, SALT, ENZYMES), SALT, CONTAINS 1 PERCENT OR LESS OF THE FOLLOWING: NATURAL FLAVORS, SODIUM PHOSPHATE, DATEM, MONO AND DIGLYCERIDES, AUTOLYZED YEAST EXTRACT, LACTIC ACID, SODIUM CITRATE, ANNATTO COLOR,CITRIC ACID, SPICES, WORCESTERSHIRE CONCENTRATE (WATER, VINEGAR, HYDROLYZED SOY PROTEIN, CARAMEL COLOR, GARLIC POWDER, SPICE EXTRACTIVES AND MALT EXTRACT)." Date available: 05/24/2017 Date last updated by company: 05/24/2017
