Source: USDA Branded Food Products Database Release December 2017 Software v.3.8.6.4 2017-10-02
Report Run at: December 17, 2017 00:41 EST
"Nutrient data for: 45331672, DIPPED RICE CAKES, UPC: 857360004472"
Food Group:  Branded Food Products Database
Common Name:

Nutrient,Unit,Data points,Std. Error,"1 CAKE = 17.0g",1Value per 100 g,
Proximates
"Energy",kcal,--,--,80,471
"Protein",g,--,--,1.00,5.88
"Total lipid (fat)",g,--,--,4.00,23.53
"Carbohydrate, by difference",g,--,--,10.00,58.82
"Fiber, total dietary",g,--,--,0.0,0.0
"Sugars, total",g,--,--,5.00,29.41
Minerals
"Calcium, Ca",mg,--,--,30,176
"Iron, Fe",mg,--,--,0.10,0.59
"Potassium, K",mg,--,--,40,235
"Sodium, Na",mg,--,--,10,59
Vitamins
"Vitamin D",IU,--,--,0,0
Lipids
"Fatty acids, total saturated",g,--,--,2.501,14.710
"Fatty acids, total trans",g,--,--,0.000,0.000
"Cholesterol",mg,--,--,0,0
Amino Acids
Other
Ingredients
"ORGANIC YOGURT & ORANGE FLAVORED COATING (ORGANIC SUGAR, ORGANIC COCOA BUTTER, ORGANIC WHOLE MILK POWDER, ORGANIC DEHYDRATED YOGURT [ORGANIC NON-FAT MILK SOLIDS, LACTIC ACID, CULTURES], NATURAL FLAVORS), ORGANIC RICE." Date available: 10/13/2017 Date last updated by company: 10/13/2017
