Source: USDA Branded Food Products Database Release December 2017 Software v.3.8.6.4 2017-10-02
Report Run at: December 17, 2017 00:44 EST
"Nutrient data for: 45043575, DIPS FRENCH ONION, UPC: 041780005090"
Food Group:  Branded Food Products Database
Common Name:

Nutrient,Unit,Data points,Std. Error,"2.0 Tbsp = 33.0g",1Value per 100 g,
Proximates
"Energy",kcal,--,--,60,182
"Protein",g,--,--,1.00,3.03
"Total lipid (fat)",g,--,--,5.00,15.15
"Carbohydrate, by difference",g,--,--,3.00,9.09
"Fiber, total dietary",g,--,--,0.0,0.0
"Sugars, total",g,--,--,1.00,3.03
Minerals
"Calcium, Ca",mg,--,--,20,61
"Iron, Fe",mg,--,--,0.00,0.00
"Sodium, Na",mg,--,--,220,667
Vitamins
"Vitamin C, total ascorbic acid",mg,--,--,0.0,0.0
"Vitamin A, IU",IU,--,--,0,0
Lipids
"Fatty acids, total saturated",g,--,--,0.502,1.520
"Fatty acids, total trans",g,--,--,0.000,0.000
"Cholesterol",mg,--,--,0,0
Amino Acids
Other
Ingredients
"WATER, SOYBEAN OIL, MODIFIED TAPIOCA STARCH, WHEY PROTEIN CONCENTRATE, DRIED ONION, CONTAINS LESS THAN 2% OF THE FOLLOWING: SALT, SUGAR, NATURAL FLAVOR, AUTOLYZED YEAST EXTRACT, DRIED GARLIC, ONION EXTRACT, GLUCONO-DELTA-LACTONE, LACTIC ACID, MONOSODIUM GLUTAMATE, SODIUM PHOSPHATE, XANTHAN GUM, DATEM, POTASSIUM SORBATE (PRESERVATIVE), SODIUM BENZOATE (PRESERVATIVE), AND CARAMEL COLOR." Date available: 07/14/2017 Date last updated by company: 07/14/2017
