Source: USDA Branded Food Products Database Release December 2017 Software v.3.8.6.4 2017-10-02
Report Run at: December 17, 2017 00:46 EST
"Nutrient data for: 45030678, DISCOS PEPE, DOUGH FOR PASTRIES, UPC: 018685000017"
Food Group:  Branded Food Products Database
Common Name:

Nutrient,Unit,Data points,Std. Error,"37.0 GRM = 37.0g",1Value per 100 g,
Proximates
"Energy",kcal,--,--,120,324
"Protein",g,--,--,3.00,8.11
"Total lipid (fat)",g,--,--,3.50,9.46
"Carbohydrate, by difference",g,--,--,19.00,51.35
"Fiber, total dietary",g,--,--,1.0,2.7
"Sugars, total",g,--,--,0.00,0.00
Minerals
"Calcium, Ca",mg,--,--,0,0
"Iron, Fe",mg,--,--,1.46,3.95
"Sodium, Na",mg,--,--,160,432
Vitamins
"Vitamin C, total ascorbic acid",mg,--,--,0.0,0.0
"Vitamin A, IU",IU,--,--,0,0
Lipids
"Fatty acids, total saturated",g,--,--,0.999,2.700
"Fatty acids, total trans",g,--,--,0.000,0.000
"Cholesterol",mg,--,--,0,0
Amino Acids
Other
Ingredients
"FLOUR, VEG.SHORTENING, WATER AND SALT." Date available: 06/24/2017 Date last updated by company: 06/24/2017
