Source: USDA Branded Food Products Database Release December 2017 Software v.3.8.6.4 2017-10-02
Report Run at: December 17, 2017 00:54 EST
"Nutrient data for: 45100252, DIVINE, DARK CHOCOLATE, UPC: 898596001002"
Food Group:  Branded Food Products Database
Common Name:

Nutrient,Unit,Data points,Std. Error,"1 BAR = 45.0g",1Value per 100 g,
Proximates
"Energy",kcal,--,--,270,600
"Protein",g,--,--,3.00,6.67
"Total lipid (fat)",g,--,--,21.00,46.67
"Carbohydrate, by difference",g,--,--,20.00,44.44
"Fiber, total dietary",g,--,--,5.0,11.1
"Sugars, total",g,--,--,12.00,26.67
Minerals
"Calcium, Ca",mg,--,--,20,44
"Iron, Fe",mg,--,--,2.00,4.44
"Sodium, Na",mg,--,--,0,0
Vitamins
"Vitamin C, total ascorbic acid",mg,--,--,0.0,0.0
"Vitamin A, IU",IU,--,--,0,0
Lipids
"Fatty acids, total saturated",g,--,--,13.000,28.890
"Fatty acids, total trans",g,--,--,0.000,0.000
"Cholesterol",mg,--,--,0,0
Amino Acids
Other
Ingredients
"COCOA MASS, SUGAR, COCOA BUTTER, SUNFLOWER LECITHIN (EMULSIFIER), VANILLA." Date available: 07/14/2017 Date last updated by company: 07/14/2017
