Source: USDA Branded Food Products Database Release December 2017 Software v.3.8.6.4 2017-10-02
Report Run at: December 17, 2017 00:54 EST
"Nutrient data for: 45095677, DIVINE, DARK CHOCOLATE WITH WHOLE ALMONDS, UPC: 898596001422"
Food Group:  Branded Food Products Database
Common Name:

Nutrient,Unit,Data points,Std. Error,"10.0 BLOCKS = 42.0g",1Value per 100 g,
Proximates
"Energy",kcal,--,--,260,619
"Protein",g,--,--,4.00,9.52
"Total lipid (fat)",g,--,--,21.00,50.00
"Carbohydrate, by difference",g,--,--,17.00,40.48
"Fiber, total dietary",g,--,--,5.0,11.9
"Sugars, total",g,--,--,9.00,21.43
Minerals
"Calcium, Ca",mg,--,--,40,95
"Iron, Fe",mg,--,--,2.14,5.10
"Sodium, Na",mg,--,--,0,0
Vitamins
"Vitamin C, total ascorbic acid",mg,--,--,0.0,0.0
"Vitamin A, IU",IU,--,--,0,0
Lipids
"Fatty acids, total saturated",g,--,--,10.000,23.810
"Fatty acids, total trans",g,--,--,0.000,0.000
"Cholesterol",mg,--,--,5,12
Amino Acids
Other
Ingredients
"COCOA MASS, SUGAR, ROASTED ALMONDS 20% COCOA BUTTER, BUTTERFAT (MILK), SUNFLOWER LECITHIN (EMULSIFIER), VANILLA" Date available: 06/25/2017 Date last updated by company: 06/25/2017
