Source: USDA Branded Food Products Database Release December 2017 Software v.3.8.6.4 2017-10-02
Report Run at: December 17, 2017 00:56 EST
"Nutrient data for: 45141191, DOBROVA, DOBROVA IMAM BAYALDA, UPC: 783963005250"
Food Group:  Branded Food Products Database
Common Name:

Nutrient,Unit,Data points,Std. Error,"0.5 cup = 110.0g",1Value per 100 g,
Proximates
"Energy",kcal,--,--,130,118
"Protein",g,--,--,2.00,1.82
"Total lipid (fat)",g,--,--,11.00,10.00
"Carbohydrate, by difference",g,--,--,9.00,8.18
"Fiber, total dietary",g,--,--,4.0,3.6
"Sugars, total",g,--,--,4.00,3.64
Minerals
"Calcium, Ca",mg,--,--,0,0
"Iron, Fe",mg,--,--,0.33,0.30
"Sodium, Na",mg,--,--,450,409
Vitamins
"Vitamin C, total ascorbic acid",mg,--,--,2.2,2.0
"Vitamin A, IU",IU,--,--,0,0
Lipids
"Fatty acids, total saturated",g,--,--,1.496,1.360
"Fatty acids, total trans",g,--,--,0.000,0.000
"Cholesterol",mg,--,--,0,0
Amino Acids
Other
Ingredients
"EGGPLANT, ONION, WATER, TOMATO PASTE, SUNFLOWER OIL, SUGAR, SALT, GARLIC, PARSLEY." Date available: 08/27/2017 Date last updated by company: 08/27/2017
