Source: USDA Branded Food Products Database Release December 2017 Software v.3.8.6.4 2017-10-02
Report Run at: December 17, 2017 00:56 EST
"Nutrient data for: 45141222, DOBROVA, JETRENA PASTETA LIVER PATE, UPC: 783963007797"
Food Group:  Branded Food Products Database
Common Name:

Nutrient,Unit,Data points,Std. Error,"2.0 ONZ = 56.0g",1Value per 100 g,
Proximates
"Energy",kcal,--,--,180,321
"Protein",g,--,--,6.00,10.71
"Total lipid (fat)",g,--,--,17.00,30.36
"Carbohydrate, by difference",g,--,--,0.00,0.00
"Fiber, total dietary",g,--,--,0.0,0.0
"Sugars, total",g,--,--,0.00,0.00
Minerals
"Calcium, Ca",mg,--,--,0,0
"Iron, Fe",mg,--,--,1.77,3.16
"Sodium, Na",mg,--,--,290,518
Vitamins
"Vitamin C, total ascorbic acid",mg,--,--,0.0,0.0
"Vitamin A, IU",IU,--,--,6875,12277
Lipids
"Fatty acids, total saturated",g,--,--,7.000,12.500
"Fatty acids, total trans",g,--,--,0.000,0.000
"Cholesterol",mg,--,--,35,62
Amino Acids
Other
Ingredients
"PORK, WATER, PORK LIVER, SODIUM CASEINATE (MILK), SALT, SUGAR, SPICES, MONOSODIUM GLUTAMATE, SODIUM NITRITE." Date available: 07/14/2017 Date last updated by company: 07/14/2017
