Source: USDA Branded Food Products Database Release December 2017 Software v.3.8.6.4 2017-10-02
Report Run at: December 17, 2017 01:31 EST
"Nutrient data for: 45186441, DOLCI GELATI, STRACCIATELL GELATO, UPC: 804879110576"
Food Group:  Branded Food Products Database
Common Name:

Nutrient,Unit,Data points,Std. Error,"0.5 cup = 102.0g",1Value per 100 g,
Proximates
"Energy",kcal,--,--,150,147
"Protein",g,--,--,4.00,3.92
"Total lipid (fat)",g,--,--,6.00,5.88
"Carbohydrate, by difference",g,--,--,22.00,21.57
"Fiber, total dietary",g,--,--,0.0,0.0
"Sugars, total",g,--,--,21.00,20.59
Minerals
"Calcium, Ca",mg,--,--,150,147
"Iron, Fe",mg,--,--,0.00,0.00
"Sodium, Na",mg,--,--,55,54
Vitamins
"Vitamin C, total ascorbic acid",mg,--,--,0.0,0.0
"Vitamin A, IU",IU,--,--,338,331
Lipids
"Fatty acids, total saturated",g,--,--,3.499,3.430
"Fatty acids, total trans",g,--,--,0.000,0.000
"Cholesterol",mg,--,--,15,15
Amino Acids
Other
Ingredients
"MILK, CREAM, SUGAR NON FAT MILK POWDER, CHOCOLATE CHIP STABILIZERS." Date available: 07/14/2017 Date last updated by company: 07/14/2017
