Source: USDA Branded Food Products Database Release December 2017 Software v.3.8.6.4 2017-10-02
Report Run at: December 17, 2017 01:32 EST
"Nutrient data for: 45223749, DOLE, JAYA, 100% JUICE, PINEAPPLE, PASSION FRUIT & CARROT, UPC: 038900073060"
Food Group:  Branded Food Products Database
Common Name:

Nutrient,Unit,Data points,Std. Error,"1 CAN = 250.0g",1Value per 100 g,
Proximates
"Energy",kcal,--,--,150,60
"Protein",g,--,--,1.00,0.40
"Total lipid (fat)",g,--,--,0.00,0.00
"Carbohydrate, by difference",g,--,--,36.00,14.40
"Fiber, total dietary",g,--,--,1.0,0.4
"Sugars, total",g,--,--,36.00,14.40
Minerals
"Calcium, Ca",mg,--,--,40,16
"Iron, Fe",mg,--,--,0.70,0.28
"Potassium, K",mg,--,--,410,164
"Sodium, Na",mg,--,--,20,8
Vitamins
"Vitamin C, total ascorbic acid",mg,--,--,92.2,36.9
"Vitamin A, IU",IU,--,--,288,115
Lipids
"Fatty acids, total saturated",g,--,--,0.000,0.000
"Fatty acids, total trans",g,--,--,0.000,0.000
"Cholesterol",mg,--,--,0,0
Amino Acids
Other
Ingredients
"PINEAPPLE JUICE FROM CONCENTRATE (WATER, PINEAPPLE JUICE CONCENTRATE), CLARIFIED PINEAPPLE JUICE FROM CONCENTRATE (WATER, CLARIFIED PINEAPPLE JUICE CONCENTRATE), PASSION FRUIT JUICE FROM CONCENTRATE (WATER, PASSION FRUIT JUICE CONCENTRATE), CARROT JUICE FROM CONCENTRATE (WATER, CARROT JUICE CONCENTRATE), ASCORBIC ACID (VITAMIN C), NATURAL FLAVOR, AND CITRIC ACID." Date available: 07/14/2017 Date last updated by company: 07/14/2017
