Source: USDA Branded Food Products Database Release December 2017 Software v.3.8.6.4 2017-10-02
Report Run at: December 17, 2017 01:33 EST
"Nutrient data for: 45016417, DOLE, SWEET CORN GARDEN SOUP, UPC: 937999024055"
Food Group:  Branded Food Products Database
Common Name:

Nutrient,Unit,Data points,Std. Error,"1 cup = 245.0g",1Value per 100 g,
Proximates
"Energy",kcal,--,--,130,53
"Protein",g,--,--,3.99,1.63
"Total lipid (fat)",g,--,--,1.00,0.41
"Carbohydrate, by difference",g,--,--,29.99,12.24
"Fiber, total dietary",g,--,--,2.9,1.2
"Sugars, total",g,--,--,6.00,2.45
Minerals
"Calcium, Ca",mg,--,--,20,8
"Iron, Fe",mg,--,--,0.71,0.29
"Potassium, K",mg,--,--,299,122
"Sodium, Na",mg,--,--,470,192
Vitamins
"Vitamin C, total ascorbic acid",mg,--,--,0.0,0.0
"Vitamin A, IU",IU,--,--,0,0
Lipids
"Fatty acids, total saturated",g,--,--,0.000,0.000
"Fatty acids, total trans",g,--,--,0.000,0.000
"Cholesterol",mg,--,--,0,0
Amino Acids
Other
Ingredients
"SWEET CORN PUREE, WATER, ONION PUREE, GARLIC PUREE, VEGETABLE STOCK CONCENTRATE (CARROT CONCENTRATE, ONION CONCENTRATE, CELERY CONCENTRATE, SALT, AND NATURAL FLAVOR), SUGAR, SALT, APPLE CIDER VINEGAR, LIME JUICE CONCENTRATE, SPICE, AND NATURAL FLAVOR." Date available: 09/23/2016 Date last updated by company: 09/23/2016
