Source: USDA Branded Food Products Database Release December 2017 Software v.3.8.6.4 2017-10-02
Report Run at: December 17, 2017 01:36 EST
"Nutrient data for: 45119074, DONA MARIA, PIPIAN MEXICAN CONDIMENT, UPC: 072878495233"
Food Group:  Branded Food Products Database
Common Name:

Nutrient,Unit,Data points,Std. Error,"2.0 Tbsp = 30.0g",1Value per 100 g,
Proximates
"Energy",kcal,--,--,200,667
"Protein",g,--,--,4.00,13.33
"Total lipid (fat)",g,--,--,18.00,60.00
"Carbohydrate, by difference",g,--,--,5.00,16.67
"Fiber, total dietary",g,--,--,3.0,10.0
"Sugars, total",g,--,--,1.00,3.33
Minerals
"Calcium, Ca",mg,--,--,20,67
"Iron, Fe",mg,--,--,2.44,8.12
"Sodium, Na",mg,--,--,530,1767
Vitamins
"Vitamin C, total ascorbic acid",mg,--,--,0.0,0.0
"Vitamin A, IU",IU,--,--,676,2255
Lipids
"Fatty acids, total saturated",g,--,--,3.000,10.000
"Fatty acids, total trans",g,--,--,0.000,0.000
"Cholesterol",mg,--,--,0,0
Amino Acids
Other
Ingredients
"PUMPKIN SEED, SOYBEAN OIL, CRACKERS (WHEAT FLOUR, WATER AND BAKING SODA), SESAME SEED, PEANUTS, CHILE PEPPERS, IODIZED SALT AND NATURAL FLAVORS." Date available: 06/25/2017 Date last updated by company: 06/25/2017
