Source: USDA Branded Food Products Database Release December 2017 Software v.3.8.6.4 2017-10-02
Report Run at: December 17, 2017 01:37 EST
"Nutrient data for: 45091883, DONSUEMOR, SOFT & MOIST DIPPED MADELEINES, UPC: 706790822074"
Food Group:  Branded Food Products Database
Common Name:

Nutrient,Unit,Data points,Std. Error,"1 PIECE = 22.0g",1Value per 100 g,
Proximates
"Energy",kcal,--,--,100,455
"Protein",g,--,--,1.00,4.55
"Total lipid (fat)",g,--,--,5.00,22.73
"Carbohydrate, by difference",g,--,--,13.00,59.09
"Fiber, total dietary",g,--,--,0.0,0.0
"Sugars, total",g,--,--,9.00,40.91
Minerals
"Calcium, Ca",mg,--,--,0,0
"Iron, Fe",mg,--,--,1.31,5.95
"Sodium, Na",mg,--,--,40,182
Vitamins
"Vitamin C, total ascorbic acid",mg,--,--,0.0,0.0
"Vitamin A, IU",IU,--,--,363,1652
Lipids
"Fatty acids, total saturated",g,--,--,3.500,15.910
"Fatty acids, total trans",g,--,--,0.000,0.000
"Cholesterol",mg,--,--,25,114
Amino Acids
Other
Ingredients
"SUGAR,DARK CHOCOLATE FLAVORED CONFECTIONERY (SUGAR,PALM AND PALM KERNEL OILS,COCOA POWDER PROCESSED WITH ALKALI,BUTTERMILK,SOY LECITHIN,NATURAL FLAVORS),ENRICHED FLOUR (WHEAT FLOUR,MALTED BARLEY FLOUR, NIACIN,REDUCED IRON,THIAMINE MONONITRATE,RIBOFLAVIN,FOLICACID),BUTTER (CREAM,SALT),EGGS, NATURAL FLAVORINGS,CANOLA OIL,WATER,INVERT SUGAR,NONFAT MILK,BAKING POWDER (SODIUM ACID PYROPHOSPHATE,SODIUM BICARBONATE,CORNSTARCH,CALCIUM SULFATE,TRICALCIUM PHOSPHATE,MONOCALCIUM PHOSPHATE)" Date available: 10/09/2017 Date last updated by company: 10/09/2017
