Source: USDA Branded Food Products Database Release December 2017 Software v.3.8.6.4 2017-10-02
Report Run at: December 17, 2017 01:38 EST
"Nutrient data for: 45180700, DONUT MIX, UPC: 859943004084"
Food Group:  Branded Food Products Database
Common Name:

Nutrient,Unit,Data points,Std. Error,"0.1 OF PACKAGE, (2 PREPARED DOUGHNUTS) = 33.0g",1Value per 100 g,
Proximates
"Energy",kcal,--,--,110,333
"Protein",g,--,--,1.00,3.03
"Total lipid (fat)",g,--,--,0.00,0.00
"Carbohydrate, by difference",g,--,--,28.00,84.85
"Fiber, total dietary",g,--,--,1.0,3.0
"Sugars, total",g,--,--,10.00,30.30
Minerals
"Calcium, Ca",mg,--,--,60,182
"Iron, Fe",mg,--,--,0.54,1.65
"Sodium, Na",mg,--,--,180,545
Vitamins
"Vitamin C, total ascorbic acid",mg,--,--,0.0,0.0
"Vitamin A, IU",IU,--,--,0,0
Lipids
"Fatty acids, total saturated",g,--,--,0.000,0.000
"Fatty acids, total trans",g,--,--,0.000,0.000
"Cholesterol",mg,--,--,0,0
Amino Acids
Other
Ingredients
"WHITE RICE FLOUR, EVAPORATED CANE SUGAR, TAPIOCA FLOUR, BROWN RICE FLOUR, MILLET, COCONUT PALM SUGAR, ALUMINUM-FREE BAKING POWDER (MONOCALCIUM PHOSPHATE, BICARBONATE OF SODA, CORN STARCH), XANTHAN GUM, SALT" Date available: 10/13/2017 Date last updated by company: 10/13/2017
