Source: USDA Branded Food Products Database Release December 2017 Software v.3.8.6.4 2017-10-02
Report Run at: December 17, 2017 01:38 EST
"Nutrient data for: 45326153, DONUT HOLES, UPC: 051712263627"
Food Group:  Branded Food Products Database
Common Name:

Nutrient,Unit,Data points,Std. Error,"2.0 PIECES = 49.0g",1Value per 100 g,
Proximates
"Energy",kcal,--,--,180,367
"Protein",g,--,--,2.00,4.08
"Total lipid (fat)",g,--,--,8.00,16.33
"Carbohydrate, by difference",g,--,--,25.00,51.02
"Fiber, total dietary",g,--,--,1.0,2.0
"Sugars, total",g,--,--,14.00,28.57
Minerals
"Calcium, Ca",mg,--,--,20,41
"Iron, Fe",mg,--,--,0.81,1.65
"Sodium, Na",mg,--,--,210,429
Vitamins
"Vitamin C, total ascorbic acid",mg,--,--,0.0,0.0
"Vitamin A, IU",IU,--,--,0,0
Lipids
"Fatty acids, total saturated",g,--,--,1.499,3.060
"Fatty acids, total trans",g,--,--,0.000,0.000
"Cholesterol",mg,--,--,10,20
Amino Acids
Other
Ingredients
"CHERRY DONUT MIX (ENRICHED WHEAT FLOUR [FLOUR, MALTED BARLEY FLOUR, IRON, THIAMINE MONONITRATE, RIBOFLAVIN, FOLIC ACID], SUGAR, SOYBEAN OIL, SOY FOUR, CANOLA OIL, CELLULOSE GUM, CITRIC ACID, DRIED CHERRIES, EGG YOLKS, ENZYMES, GLUCONO DELTA-LACTONE, GUAR GUM, LEAVENING [BAKING SODA, SODIUM ACID PYROPHOSPHATE, SODIUM ALUMINUM PHOSPHATE], MONO-AND DIGLYCERIDES, NATURAL AND ARTIFICIAL FLAVOR, NONFAT MILK, PROPYLENE GLYCOL ESTERS OF FATTY ACIDS, RED 40, SALT, SODIUM STEAROYL LACTYLATE, SOY LECITHIN, WHEAT STARCH, WHEY), WATER, GLAZE (GLAZE MIX [SUGAR, MALTODEXTRIN], WATER), SOYBEAN OIL, CAKE SOFTENER (WHEAT FLOUR ENZYMES), LIGHT CORN SYRUP, SALT, VANILLA)." Date available: 08/11/2017 Date last updated by company: 08/11/2017
