Source: USDA Branded Food Products Database Release December 2017 Software v.3.8.6.4 2017-10-02
Report Run at: December 17, 2017 01:39 EST
"Nutrient data for: 45066032, DOODLES WAVY CORN CHIPS, UPC: 041262273719"
Food Group:  Branded Food Products Database
Common Name:

Nutrient,Unit,Data points,Std. Error,"1 BAG = 24.0g",1Value per 100 g,
Proximates
"Energy",kcal,--,--,140,583
"Protein",g,--,--,1.00,4.17
"Total lipid (fat)",g,--,--,9.00,37.50
"Carbohydrate, by difference",g,--,--,14.00,58.33
"Fiber, total dietary",g,--,--,1.0,4.2
"Sugars, total",g,--,--,1.00,4.17
Minerals
"Calcium, Ca",mg,--,--,0,0
"Iron, Fe",mg,--,--,0.00,0.00
"Sodium, Na",mg,--,--,220,917
Vitamins
"Vitamin C, total ascorbic acid",mg,--,--,0.0,0.0
"Vitamin A, IU",IU,--,--,0,0
Lipids
"Fatty acids, total saturated",g,--,--,1.999,8.330
"Fatty acids, total trans",g,--,--,0.000,0.000
"Cholesterol",mg,--,--,0,0
Amino Acids
Other
Ingredients
"CORN, VEGETABLE OIL (CONTAINS ONE OR MORE OF THE FOLLOWING: CORN, COTTONSEED, SUNFLOWER, SOYBEAN, OR CANOLA OIL), SALT, SUGAR, FRUCTOSE, SPICE AND SPICE EXTRACT, MALTODEXTRIN, DEHYDRATED ONION, DEHYDRATED GARLIC, TORULA YEAST, MONOSODIUM GLUTAMATE (FLAVOR ENHANCER), DEXTROSE, NATURAL FLAVOR, DEHYDRATED TOMATO, CITRIC ACID, EXTRACTIVES OF PAPRIKA (COLOR), CARAMEL COLOR, RED #40 LAKE." Date available: 07/14/2017 Date last updated by company: 07/14/2017
