Source: USDA Branded Food Products Database Release December 2017 Software v.3.8.6.4 2017-10-02
Report Run at: December 17, 2017 01:39 EST
"Nutrient data for: 45148858, DOOR COUNTY, POTATO CHIPS, BARBECUE, UPC: 091171104024"
Food Group:  Branded Food Products Database
Common Name:

Nutrient,Unit,Data points,Std. Error,"1 PACKAGE = 50.0g",1Value per 100 g,
Proximates
"Energy",kcal,--,--,260,520
"Protein",g,--,--,3.00,6.00
"Total lipid (fat)",g,--,--,15.00,30.00
"Carbohydrate, by difference",g,--,--,28.00,56.00
"Fiber, total dietary",g,--,--,2.0,4.0
"Sugars, total",g,--,--,2.00,4.00
Minerals
"Calcium, Ca",mg,--,--,20,40
"Iron, Fe",mg,--,--,0.72,1.44
"Sodium, Na",mg,--,--,390,780
Vitamins
"Vitamin C, total ascorbic acid",mg,--,--,12.0,24.0
"Vitamin A, IU",IU,--,--,0,0
Lipids
"Fatty acids, total saturated",g,--,--,1.500,3.000
"Fatty acids, total trans",g,--,--,0.000,0.000
"Cholesterol",mg,--,--,0,0
Amino Acids
Other
Ingredients
"POTATOES, SUNFLOWER OIL, SUGAR, SALT, TOMATO, BROWN SUGAR, SPICES, ONION & GARLIC POWDER, FRUCTOSE, NATURAL FLAVORS (INCLUDING HICKORY SMOKE). TORULA YEAST." Date available: 07/14/2017 Date last updated by company: 07/14/2017
