Source: USDA Branded Food Products Database Release December 2017 Software v.3.8.6.4 2017-10-02
Report Run at: December 17, 2017 01:40 EST
"Nutrient data for: 45101339, DORSET CEREALS, MUESLI CEREALS, UPC: 814930010424"
Food Group:  Branded Food Products Database
Common Name:

Nutrient,Unit,Data points,Std. Error,"0.5 cup = 55.0g",1Value per 100 g,
Proximates
"Energy",kcal,--,--,200,364
"Protein",g,--,--,4.00,7.27
"Total lipid (fat)",g,--,--,5.00,9.09
"Carbohydrate, by difference",g,--,--,38.00,69.09
"Fiber, total dietary",g,--,--,5.0,9.1
"Sugars, total",g,--,--,15.00,27.27
Minerals
"Calcium, Ca",mg,--,--,0,0
"Iron, Fe",mg,--,--,0.00,0.00
"Sodium, Na",mg,--,--,20,36
Vitamins
"Vitamin C, total ascorbic acid",mg,--,--,0.0,0.0
"Vitamin A, IU",IU,--,--,0,0
Lipids
"Fatty acids, total saturated",g,--,--,2.502,4.550
"Fatty acids, total trans",g,--,--,0.000,0.000
"Cholesterol",mg,--,--,0,0
Amino Acids
Other
Ingredients
"TOASTED AND MALTED WHEAT FLAKES (WHEAT, BARLEY MALT EXTRACT), FLAME RAISINS (16%), TOASTED AND MALTED OAT FLAKES (OATS, BARLEY MALT EXTRACT), RAISINS (11%), DATES (11%), SUNFLOWER SEEDS (5.5%), TOASTED COCONUT (5.5%), ROASTED HAZELNUTS (1%)." Date available: 06/25/2017 Date last updated by company: 06/25/2017
