Source: USDA Branded Food Products Database Release December 2017 Software v.3.8.6.4 2017-10-02
Report Run at: December 17, 2017 01:40 EST
"Nutrient data for: 45187470, DORSET, COCOA BANANA TORTE, UPC: 736211736277"
Food Group:  Branded Food Products Database
Common Name:

Nutrient,Unit,Data points,Std. Error,"1 VEGAN COCONUTTORTE = 113.0g",1Value per 100 g,
Proximates
"Energy",kcal,--,--,328,290
"Protein",g,--,--,4.99,4.42
"Total lipid (fat)",g,--,--,17.00,15.04
"Carbohydrate, by difference",g,--,--,52.00,46.02
"Fiber, total dietary",g,--,--,3.1,2.7
"Sugars, total",g,--,--,6.00,5.31
Minerals
"Calcium, Ca",mg,--,--,20,18
"Iron, Fe",mg,--,--,0.72,0.64
"Sodium, Na",mg,--,--,50,44
Vitamins
"Vitamin C, total ascorbic acid",mg,--,--,0.0,0.0
"Vitamin A, IU",IU,--,--,0,0
Lipids
"Fatty acids, total saturated",g,--,--,14.001,12.390
"Fatty acids, total trans",g,--,--,0.000,0.000
"Cholesterol",mg,--,--,5,4
Amino Acids
Other
Ingredients
"RICE FLOUR, SUGAR, COCONUT MILK (COCONUT MILK, WATER, GUAR GUM, ORGANIC COCONUT OIL, VANILLA EXTRACT, NATURAL UNSULPHURED COCONUT), BAKING POWDER (CALCIUM ACID PHOSPHATE, BICARBONATE OF SODA, NON-GMO CORNSTARCH), SALT, 57% COCOA POWDER, BANANA EXTRACT, BANANA CHIP. GLAZE - POWDERED SUGAR (SUGAR, CORNSTARCH), WATER, ORGANIC COCONUT EXTRACT (WATER, ORGANIC ALCOHOL, ORGANIC AGAVE SYRUP, ORGANIC COCONUT MILK)." Date available: 07/14/2017 Date last updated by company: 07/14/2017
