Source: USDA Branded Food Products Database Release December 2017 Software v.3.8.6.4 2017-10-02
Report Run at: December 17, 2017 01:44 EST
"Nutrient data for: 45104524, DOUBLE CREAM SUNDRIED TOMATO GARLIC, UPC: 857554005018"
Food Group:  Branded Food Products Database
Common Name:

Nutrient,Unit,Data points,Std. Error,"1 oz = 28.0g",1Value per 100 g,
Proximates
"Energy",kcal,--,--,120,429
"Protein",g,--,--,3.00,10.71
"Total lipid (fat)",g,--,--,10.00,35.71
"Carbohydrate, by difference",g,--,--,6.00,21.43
"Fiber, total dietary",g,--,--,1.0,3.6
"Sugars, total",g,--,--,2.00,7.14
Minerals
"Calcium, Ca",mg,--,--,0,0
"Iron, Fe",mg,--,--,1.44,5.14
"Sodium, Na",mg,--,--,105,375
Vitamins
"Vitamin C, total ascorbic acid",mg,--,--,1.2,4.3
"Vitamin A, IU",IU,--,--,0,0
Lipids
"Fatty acids, total saturated",g,--,--,5.001,17.860
"Fatty acids, total trans",g,--,--,0.000,0.000
"Cholesterol",mg,--,--,0,0
Amino Acids
Other
Ingredients
"ORGANIC CASHEWS, FILTERED WATER, ORGANIC COCONUT OIL, ORGANIC DRIED TOMATOES, ORGANIC CHICKPEA MISO (ORGANIC CHICKPEAS, ORGANIC RICE KOJI. SEA SALT, WATER. KOJI SPORES), SEA SALT, NUTRITIONAL YEAST. ORGANIC GARLIC POWDER. CULTURES" Date available: 09/23/2016 Date last updated by company: 09/23/2016
