Source: USDA Branded Food Products Database Release December 2017 Software v.3.8.6.4 2017-10-02
Report Run at: December 17, 2017 01:46 EST
"Nutrient data for: 45121698, DOUBLE DIPPERS MILK CHOCOLATE, UPC: 011300427015"
Food Group:  Branded Food Products Database
Common Name:

Nutrient,Unit,Data points,Std. Error,"15.0 PIECES = 40.0g",1Value per 100 g,
Proximates
"Energy",kcal,--,--,210,525
"Protein",g,--,--,4.00,10.00
"Total lipid (fat)",g,--,--,14.00,35.00
"Carbohydrate, by difference",g,--,--,21.00,52.50
"Fiber, total dietary",g,--,--,2.0,5.0
"Sugars, total",g,--,--,18.00,45.00
Minerals
"Calcium, Ca",mg,--,--,40,100
"Iron, Fe",mg,--,--,1.80,4.50
"Sodium, Na",mg,--,--,70,175
Vitamins
"Vitamin C, total ascorbic acid",mg,--,--,0.0,0.0
"Vitamin A, IU",IU,--,--,125,312
Lipids
"Fatty acids, total saturated",g,--,--,6.000,15.000
"Fatty acids, total trans",g,--,--,0.000,0.000
"Cholesterol",mg,--,--,5,12
Amino Acids
Other
Ingredients
"MILK CHOCOLATE (SUGAR, COCOA BUTTER, WHOLE MILK POWDER, CHOCOLATE LIQUOR, LACTOSE, SOY LECITHIN [AN EMULSIFIER], LIPOLYZED MILKFAT, SALT, VANILLA, VANILLIN, ETHYL VANILLIN), ROASTED PEANUTS (PEANUTS, COTTONSEED AND/OR PEANUT OIL, SALT)." Date available: 07/14/2017 Date last updated by company: 07/14/2017
