Source: USDA Branded Food Products Database Release December 2017 Software v.3.8.6.4 2017-10-02
Report Run at: December 17, 2017 01:45 EST
"Nutrient data for: 45191549, DOUBLE CRUST APPLE PIE, UPC: 077890401835"
Food Group:  Branded Food Products Database
Common Name:

Nutrient,Unit,Data points,Std. Error,"1 SLICE = 123.0g",1Value per 100 g,
Proximates
"Energy",kcal,--,--,300,244
"Protein",g,--,--,2.00,1.63
"Total lipid (fat)",g,--,--,14.00,11.38
"Carbohydrate, by difference",g,--,--,42.00,34.15
"Fiber, total dietary",g,--,--,1.0,0.8
"Sugars, total",g,--,--,23.00,18.70
Minerals
"Calcium, Ca",mg,--,--,20,16
"Iron, Fe",mg,--,--,1.46,1.19
"Sodium, Na",mg,--,--,180,146
Vitamins
"Vitamin C, total ascorbic acid",mg,--,--,1.2,1.0
"Vitamin A, IU",IU,--,--,0,0
Lipids
"Fatty acids, total saturated",g,--,--,6.002,4.880
"Fatty acids, total trans",g,--,--,0.000,0.000
"Cholesterol",mg,--,--,0,0
Amino Acids
Other
Ingredients
"APPLES, WHEAT FLOUR, SUGAR, PALM OIL, WHOLE MILK, CONTAINS 2% OR LESS: SOYBEAN OIL, MODIFIED CORNSTARCH, SALT, CINNAMON, MONO AND DIGLYCERIDES (EMULSIFIER), NUTMEG, SOY LECITHIN." Date available: 07/14/2017 Date last updated by company: 07/14/2017
