Source: USDA Branded Food Products Database Release December 2017 Software v.3.8.6.4 2017-10-02
Report Run at: December 17, 2017 01:47 EST
"Nutrient data for: 45238654, DOUBLE GINGER DRINK WITH A SPLASH OF APPLE, UPC: 734027995024"
Food Group:  Branded Food Products Database
Common Name:

Nutrient,Unit,Data points,Std. Error,"1 BOTTLE = 355.0g",1Value per 100 g,
Proximates
"Energy",kcal,--,--,124,35
"Protein",g,--,--,0.00,0.00
"Total lipid (fat)",g,--,--,0.00,0.00
"Carbohydrate, by difference",g,--,--,33.02,9.30
"Sugars, total",g,--,--,33.02,9.30
Minerals
"Potassium, K",mg,--,--,32,9
"Sodium, Na",mg,--,--,18,5
Vitamins
"Vitamin C, total ascorbic acid",mg,--,--,5.3,1.5
Lipids
Amino Acids
Other
Ingredients
"FILTERED WATER, HONEY, GINGER JUICE, LEMON JUICE, APPLE JUICE CONCENTRATE, FREEZE-DRIED GINGER." Date available: 07/14/2017 Date last updated by company: 07/14/2017
