Source: USDA Branded Food Products Database Release December 2017 Software v.3.8.6.4 2017-10-02
Report Run at: December 17, 2017 01:43 EST
"Nutrient data for: 45286774, DOUBLE CHOCOLATE MINI ECLAIRS, UPC: 710273118271"
Food Group:  Branded Food Products Database
Common Name:

Nutrient,Unit,Data points,Std. Error,"5.0 ECLAIRS = 75.0g",1Value per 100 g,
Proximates
"Energy",kcal,--,--,250,333
"Protein",g,--,--,4.00,5.33
"Total lipid (fat)",g,--,--,16.00,21.33
"Carbohydrate, by difference",g,--,--,19.00,25.33
"Fiber, total dietary",g,--,--,1.0,1.3
"Sugars, total",g,--,--,12.00,16.00
Minerals
"Calcium, Ca",mg,--,--,40,53
"Iron, Fe",mg,--,--,2.88,3.84
"Sodium, Na",mg,--,--,15,20
Vitamins
"Vitamin C, total ascorbic acid",mg,--,--,0.0,0.0
"Vitamin A, IU",IU,--,--,480,640
Lipids
"Fatty acids, total saturated",g,--,--,9.998,13.330
"Fatty acids, total trans",g,--,--,0.000,0.000
"Cholesterol",mg,--,--,80,107
Amino Acids
Other
Ingredients
"CREAM, WATER, MILK CHOCOLATE (SUGAR, CHOCOLATE, NONFAT MILK, COCOA BUTTER, MILK FAT, SOY LECITHIN, VANILLIN, ARTIFICIAL FLAVOR), EGG, ENRICHED WHEAT FLOUR (WHEAT FLOUR, MALTED BARLEY FLOUR, NIACIN, REDUCED IRON, THIAMINE MONONITRATE [VITAMIN B1], RIBOFLAVIN [VITAMIN B2], FOLIC ACID), STABILIZER (SUGAR, MODIFIED POTATO STARCH, XANTHAN GUM, NATURAL VANILLA FLAVOR), PALM OIL, COCOA PROCESSED WITH ALKALI, SOY LECITHIN." Date available: 10/06/2017 Date last updated by company: 10/06/2017
