Source: USDA Branded Food Products Database Release December 2017 Software v.3.8.6.4 2017-10-02
Report Run at: December 17, 2017 01:43 EST
"Nutrient data for: 45271774, DOUBLE CHOCOLATE DELIGHT BARS, UPC: 744473000296"
Food Group:  Branded Food Products Database
Common Name:

Nutrient,Unit,Data points,Std. Error,"1 BAR = 57.0g",1Value per 100 g,
Proximates
"Energy",kcal,--,--,180,316
"Protein",g,--,--,2.00,3.51
"Total lipid (fat)",g,--,--,12.00,21.05
"Carbohydrate, by difference",g,--,--,18.00,31.58
"Fiber, total dietary",g,--,--,1.0,1.8
"Sugars, total",g,--,--,15.00,26.32
Minerals
"Calcium, Ca",mg,--,--,0,0
"Iron, Fe",mg,--,--,5.68,9.97
"Sodium, Na",mg,--,--,50,88
Vitamins
"Vitamin C, total ascorbic acid",mg,--,--,0.0,0.0
"Vitamin A, IU",IU,--,--,0,0
Lipids
"Fatty acids, total saturated",g,--,--,8.003,14.040
"Fatty acids, total trans",g,--,--,0.000,0.000
"Cholesterol",mg,--,--,0,0
Amino Acids
Other
Ingredients
"NON-DAIRY FROZEN DESSERT (CASHEWMILK [FILTERED WATER, CASHEWS], CANE SUGAR, COCOA [PROCESSED WITH ALKALI], SEA SALT, ACACIA GUM, GUAR GUM, NATURAL FLAVOR), CHOCOLATE COATING (CANE SUGAR, COCONUT OIL, CHOCOLATE LIQUOR COCOA [PROCESSED WITH ALKALI], COCOA BUTTER, SUNFLOWER LECITHIN)." Date available: 07/14/2017 Date last updated by company: 07/14/2017
