Source: USDA Branded Food Products Database Release December 2017 Software v.3.8.6.4 2017-10-02
Report Run at: December 17, 2017 01:49 EST
"Nutrient data for: 45025070, DOUBLE RAINBOW, SUPER PREMIUM SORBET, LEMON, UPC: 022852665688"
Food Group:  Branded Food Products Database
Common Name:

Nutrient,Unit,Data points,Std. Error,"0.5 cup = 100.0g",1Value per 100 g,
Proximates
"Energy",kcal,--,--,100,100
"Protein",g,--,--,0.00,0.00
"Total lipid (fat)",g,--,--,0.00,0.00
"Carbohydrate, by difference",g,--,--,26.00,26.00
"Fiber, total dietary",g,--,--,0.5,0.5
"Sugars, total",g,--,--,19.00,19.00
Minerals
"Calcium, Ca",mg,--,--,0,0
"Iron, Fe",mg,--,--,0.00,0.00
"Sodium, Na",mg,--,--,10,10
Vitamins
"Vitamin C, total ascorbic acid",mg,--,--,16.9,16.9
"Vitamin A, IU",IU,--,--,0,0
Lipids
"Fatty acids, total saturated",g,--,--,0.000,0.000
"Fatty acids, total trans",g,--,--,0.000,0.000
"Cholesterol",mg,--,--,0,0
Amino Acids
Other
Ingredients
"LEMON JUICE FROM CONCENTRATE, SUGAR, LEMON PUREE, NON GM CORN SYRUP, NATURAL FLAVOR, CAROB BEAN GUM, GUAR GUM, CARRAGEENAN ASCORBIC ACID (VITAMIN C)." Date available: 07/14/2017 Date last updated by company: 07/14/2017
