Source: USDA Branded Food Products Database Release December 2017 Software v.3.8.6.4 2017-10-02
Report Run at: December 17, 2017 01:47 EST
"Nutrient data for: 45284580, DOUBLE-GLAZED DUNKERS, UPC: 008229101188"
Food Group:  Branded Food Products Database
Common Name:

Nutrient,Unit,Data points,Std. Error,"1 DUNKER = 37.0g",1Value per 100 g,
Proximates
"Energy",kcal,--,--,90,243
"Protein",g,--,--,2.00,5.41
"Total lipid (fat)",g,--,--,2.00,5.41
"Carbohydrate, by difference",g,--,--,18.00,48.65
"Fiber, total dietary",g,--,--,1.0,2.7
"Sugars, total",g,--,--,19.00,51.35
Minerals
"Calcium, Ca",mg,--,--,20,54
"Iron, Fe",mg,--,--,1.61,4.34
"Sodium, Na",mg,--,--,170,459
Vitamins
"Vitamin C, total ascorbic acid",mg,--,--,0.0,0.0
"Thiamin",mg,--,--,0.000,0.000
"Riboflavin",mg,--,--,0.101,0.273
"Niacin",mg,--,--,1.190,3.216
"Vitamin A, IU",IU,--,--,0,0
Lipids
"Fatty acids, total saturated",g,--,--,0.999,2.700
"Fatty acids, total trans",g,--,--,0.999,2.700
"Cholesterol",mg,--,--,10,27
Amino Acids
Other
Ingredients
"ENRICHED WHEAT FLOUR BLEACHED (FLOUR, MALTED BARLEY FLOUR, NIACIN, IRON, THIAMINE MONONITRATE, RIBOFLAVIN, FOLIC ACID), SUGAR, WATER, SOY OIL, NONFAT DRY MILK, CONTAINS 2% OR LESS OF: SOY FLOUR, DEXTROSE, DRY EGG YOLK, LEAVENING (BAKING SODA, SODIUM ACID PYROPHOSPHATE), WHEAT STARCH, SALT, DRY WHEY, SOY LECITHIN, SODIUM PROPIONATE AND SODIUM DIACETATE, MONO & DYGLYCERIDES, SOUR CREAM SOLIDS (CULTURED SOUR CREAM, MALTODEXTRIN, CULTURED BUTTERMILK, CULTURED SKIM MILK, WHEY, LACTIC ACID), SPICE, CELLULOSE GUM, NATURAL AND ARTIFICIAL FLAVOR, SODIUM STEAROYL LACTYLATE, CORN STARCH, MALTODEXTRIN, FOOD STARCH-MODIFIED, NATURAL MIXED TOCOPHEROLS, ALPHA TOCOPHEROLS, BETA CAROTENE, CORN OIL, PARTIALLY HYDROGENATED VEGETABLE OIL (SOYBEAN, COTTONSEED), CORN SYRUP, CALCIUM CARBONATE, CALCIUM SULFATE, AGAR, LOCUST BEAN GUM, SUNFLOWER OIL, DISODIUM PHOSPHATE" Date available: 07/14/2017 Date last updated by company: 07/14/2017
