Source: USDA Branded Food Products Database Release December 2017 Software v.3.8.6.4 2017-10-02
Report Run at: December 17, 2017 01:51 EST
"Nutrient data for: 45248222, DOVE, SILKY SMOOTH SOLID MILK CHOCOLATE HEART, UPC: 040000547761"
Food Group:  Branded Food Products Database
Common Name:

Nutrient,Unit,Data points,Std. Error,"0.333 HEART = 43.0g",1Value per 100 g,
Proximates
"Energy",kcal,--,--,240,558
"Protein",g,--,--,3.00,6.98
"Total lipid (fat)",g,--,--,14.00,32.56
"Carbohydrate, by difference",g,--,--,25.00,58.14
"Fiber, total dietary",g,--,--,1.0,2.3
"Sugars, total",g,--,--,24.00,55.81
Minerals
"Calcium, Ca",mg,--,--,60,140
"Iron, Fe",mg,--,--,0.36,0.84
"Sodium, Na",mg,--,--,30,70
Vitamins
"Vitamin A, IU",IU,--,--,117,271
Lipids
"Fatty acids, total saturated",g,--,--,7.998,18.600
"Fatty acids, total trans",g,--,--,0.000,0.000
"Cholesterol",mg,--,--,10,23
Amino Acids
Other
Ingredients
"MILK CHOCOLATE (SUGAR, COCOA BUTTER, SKIM MILK, CHOCOLATE, MILKFAT, LACTOSE, SOY LECITHIN, ARTIFICIAL FLAVOR)." Date available: 10/11/2017 Date last updated by company: 10/11/2017
