Source: USDA Branded Food Products Database Release December 2017 Software v.3.8.6.4 2017-10-02
Report Run at: December 17, 2017 01:51 EST
"Nutrient data for: 45248219, DOVE, RASPBERRY & HONEY ROASTED ALMOND, RASPBERRY, UPC: 040000503361"
Food Group:  Branded Food Products Database
Common Name:

Nutrient,Unit,Data points,Std. Error,"0.25 CUP | ABOUT = 42.0g",1Value per 100 g,
Proximates
"Energy",kcal,--,--,210,500
"Protein",g,--,--,3.00,7.14
"Total lipid (fat)",g,--,--,12.00,28.57
"Carbohydrate, by difference",g,--,--,25.00,59.52
"Fiber, total dietary",g,--,--,3.0,7.1
"Sugars, total",g,--,--,20.00,47.62
Minerals
"Calcium, Ca",mg,--,--,40,95
"Iron, Fe",mg,--,--,0.86,2.04
"Sodium, Na",mg,--,--,20,48
Vitamins
"Vitamin A, IU",IU,--,--,100,238
Lipids
"Fatty acids, total saturated",g,--,--,4.998,11.900
"Fatty acids, total trans",g,--,--,0.000,0.000
"Cholesterol",mg,--,--,5,12
Amino Acids
Other
Ingredients
"SWEET CHOCOLATE (SUGAR, CHOCOLATE, CHOCOLATE PROCESSED WITH ALKALI, COCOA BUTTER, MILKFAT, SKIM MILK, LACTOSE, SOY LECITHIN, ARTIFICIAL AND NATURAL FLAVORS), ALMONDS, CRANBERRIES, SUGAR, LESS THAN 2% - DEXTROSE, HONEY, NATURAL FLAVOR, CITRIC ACID, ELDERBERRY JUICE CONCENTRATE, CONFECTIONERY GLAZE, MALTODEXTRIN, CORN SYRUP, SALT, XANTHAN GUM, TBHQ TO MAINTAIN FRESHNESS." Date available: 10/13/2017 Date last updated by company: 10/13/2017
