Source: USDA Branded Food Products Database Release December 2017 Software v.3.8.6.4 2017-10-02
Report Run at: December 17, 2017 01:51 EST
"Nutrient data for: 45250492, DOVE, MILK CHOCOLATE WITH CREAMY CENTER, UPC: 040000507154"
Food Group:  Branded Food Products Database
Common Name:

Nutrient,Unit,Data points,Std. Error,"3.0 PIECES = 37.0g",1Value per 100 g,
Proximates
"Energy",kcal,--,--,210,568
"Protein",g,--,--,2.00,5.41
"Total lipid (fat)",g,--,--,14.00,37.84
"Carbohydrate, by difference",g,--,--,20.00,54.05
"Fiber, total dietary",g,--,--,1.0,2.7
"Sugars, total",g,--,--,19.00,51.35
Minerals
"Calcium, Ca",mg,--,--,60,162
"Iron, Fe",mg,--,--,0.24,0.65
"Sodium, Na",mg,--,--,30,81
Vitamins
"Vitamin A, IU",IU,--,--,135,365
Lipids
"Fatty acids, total saturated",g,--,--,8.998,24.320
"Fatty acids, total trans",g,--,--,0.000,0.000
"Cholesterol",mg,--,--,10,27
Amino Acids
Other
Ingredients
"MILK CHOCOLATE (SUGAR, COCOA BUTTER, SKIM MILK, CHOCOLATE, MILKFAT, LACTOSE, SOY LECITHIN, PGPR, ARTIFICIAL FLAVOR), COCONUT OIL." Date available: 10/13/2017 Date last updated by company: 10/13/2017
