Source: USDA Branded Food Products Database Release December 2017 Software v.3.8.6.4 2017-10-02
Report Run at: December 17, 2017 01:55 EST
"Nutrient data for: 45241294, DR.BROWN'S, ORIGINAL GINGER ALE, UPC: 073970201135"
Food Group:  Branded Food Products Database
Common Name:

Nutrient,Unit,Data points,Std. Error,"1 BOTTLE = 355.0g",1Value per 100 g,
Proximates
"Energy",kcal,--,--,131,37
"Protein",g,--,--,0.00,0.00
"Total lipid (fat)",g,--,--,0.00,0.00
"Carbohydrate, by difference",g,--,--,30.99,8.73
"Sugars, total",g,--,--,30.99,8.73
Minerals
"Sodium, Na",mg,--,--,21,6
Vitamins
Lipids
Amino Acids
Other
Ingredients
"CARBONATED WATER, HIGH FRUCTOSE CORN SYRUP, CITRIC ACID SODIUM BENZOATE (PRESERVATIVE), GINGER EXTRACT WITH OTHER NATURAL FLAVORS, SALT, AND CARAMEL COLOR." Date available: 07/14/2017 Date last updated by company: 07/14/2017
