Source: USDA Branded Food Products Database Release December 2017 Software v.3.8.6.4 2017-10-02
Report Run at: December 17, 2017 02:21 EST
"Nutrient data for: 45021494, DR. OETKER, PIE FILLING & DESSERT MIX, LEMON, UPC: 058336121012"
Food Group:  Branded Food Products Database
Common Name:

Nutrient,Unit,Data points,Std. Error,"0.125 PACKAGE = 27.0g",1Value per 100 g,
Proximates
"Energy",kcal,--,--,110,407
"Protein",g,--,--,0.00,0.00
"Total lipid (fat)",g,--,--,0.00,0.00
"Carbohydrate, by difference",g,--,--,26.00,96.30
"Sugars, total",g,--,--,20.00,74.07
Minerals
"Sodium, Na",mg,--,--,75,278
Vitamins
Lipids
Amino Acids
Other
Ingredients
"SUGAR, CORNSTARCH, MODIFIED CORNSTARCH, CITRIC ACID, SALT, NATURAL AND ARTIFICIAL FLAVOR, ACETYLATED MONOGLYCERIDES, YELLOW 5" Date available: 06/25/2017 Date last updated by company: 06/25/2017
