Source: USDA Branded Food Products Database Release December 2017 Software v.3.8.6.4 2017-10-02
Report Run at: December 17, 2017 02:21 EST
"Nutrient data for: 45039973, DR. OETKER, RISTORANTE, THIN CRUST PIZZA VEGETABLE, UPC: 058336180033"
Food Group:  Branded Food Products Database
Common Name:

Nutrient,Unit,Data points,Std. Error,"0.333 PIZZA = 128.0g",1Value per 100 g,
Proximates
"Energy",kcal,--,--,280,219
"Protein",g,--,--,8.00,6.25
"Total lipid (fat)",g,--,--,12.01,9.38
"Carbohydrate, by difference",g,--,--,32.00,25.00
"Fiber, total dietary",g,--,--,2.0,1.6
"Sugars, total",g,--,--,5.00,3.91
Minerals
"Calcium, Ca",mg,--,--,150,117
"Iron, Fe",mg,--,--,4.11,3.21
"Sodium, Na",mg,--,--,540,422
Vitamins
"Vitamin C, total ascorbic acid",mg,--,--,18.3,14.3
"Vitamin A, IU",IU,--,--,152,119
Lipids
"Fatty acids, total saturated",g,--,--,5.005,3.910
"Fatty acids, total trans",g,--,--,0.000,0.000
"Cholesterol",mg,--,--,20,16
Amino Acids
Other
Ingredients
"ENRICHED FLOUR (WHEAT FLOUR, NIACIN, IRON, THIAMINE, RIBOFLAVIN, FOLIC ACID), WATER, TOMATO PUREE, CHERRY TOMATOES, GREEN, RED AND YELLOW PEPPERS, EDAM CHEESE (PASTEURIZED MILK, CHEESE CULTURE, SALT, CALCIUM CHLORIDE, ENZYME), LOW MOISTURE PART SKIM MOZZARELLA CHEESE (PASTEURIZED PART SKIM MILK, CHEESE CULTURE, SALT, ENZYME, CALCIUM CHLORIDE), SOUR CREAM (CREAM, MILK, BACTERIAL CULTURE), VEGETABLE OIL (SOYBEAN AND CANOLA), PICKLED CHILI PEPPERS (CHILI PEPPERS, WATER, VINEGAR, SALT, CITRIC ACID, ASCORBIC ACID, CALCIUM CHLORIDE), RED ONION, OLIVE, YEAST, SALT, SUGAR, SPICES, MODIFIED CORN STARCH, GARLIC POWDER, CHILI PEPPERS, TOMATO PASTE, HYDROLYZED CORN PROTEIN, DEXTROSE, LEMON JUICE, CARAMEL COLOR, CHILI EXTRACT, CITRIC ACID, LACTIC ACID, L-CYSTEINE HYDROCHLORIDE (DOUGH CONDITIONER)." Date available: 07/14/2017 Date last updated by company: 07/14/2017
