Source: USDA Branded Food Products Database Release December 2017 Software v.3.8.6.4 2017-10-02
Report Run at: December 17, 2017 02:23 EST
"Nutrient data for: 45118806, DR.SNACK, WHOLE WHEAT RASPBERRY BAR, UPC: 647495013001"
Food Group:  Branded Food Products Database
Common Name:

Nutrient,Unit,Data points,Std. Error,"1 BAR = 35.0g",1Value per 100 g,
Proximates
"Energy",kcal,--,--,120,343
"Protein",g,--,--,2.00,5.71
"Total lipid (fat)",g,--,--,2.50,7.14
"Carbohydrate, by difference",g,--,--,23.00,65.71
"Fiber, total dietary",g,--,--,2.0,5.7
"Sugars, total",g,--,--,12.00,34.29
Minerals
"Calcium, Ca",mg,--,--,20,57
"Iron, Fe",mg,--,--,1.13,3.23
"Sodium, Na",mg,--,--,20,57
Vitamins
"Vitamin C, total ascorbic acid",mg,--,--,0.0,0.0
"Vitamin A, IU",IU,--,--,0,0
Lipids
"Fatty acids, total saturated",g,--,--,0.000,0.000
"Fatty acids, total trans",g,--,--,0.000,0.000
"Cholesterol",mg,--,--,1,3
Amino Acids
Other
Ingredients
"DOUGH(WHOLE WHEAT FLOUR, ORGANIC EVAPORATED CANE JUICE, CANOLA OIL, BROWN RICE SYRUP, CARAMEL COLOR, APPLE FIBER, SEA SALT, CITRIC ACID, BAKING POWDER, LECITHIN, BAKING SODA), FILLING (BROWN RICE SYRUP)." Date available: 06/25/2017 Date last updated by company: 06/25/2017
