Source: USDA Branded Food Products Database Release December 2017 Software v.3.8.6.4 2017-10-02
Report Run at: December 17, 2017 02:23 EST
"Nutrient data for: 45137607, DR. TREMOR SODA, UPC: 04656701848"
Food Group:  Branded Food Products Database
Common Name:

Nutrient,Unit,Data points,Std. Error,"1 CAN = 355.0g",1Value per 100 g,
Proximates
"Energy",kcal,--,--,149,42
"Protein",g,--,--,0.00,0.00
"Total lipid (fat)",g,--,--,0.00,0.00
"Carbohydrate, by difference",g,--,--,41.00,11.55
"Sugars, total",g,--,--,41.00,11.55
Minerals
"Sodium, Na",mg,--,--,36,10
Vitamins
Lipids
Amino Acids
Other
Ingredients
"CARBONATED WATER, HIGH FRUCTOSE CORN SYRUP, CARAMEL COLOR, NATURAL AND ARTIFICIAL FLAVOR, PHOSPHORIC ACID, POTASSIUM BENZOATE (A PRESERVATIVE), CAFFEINE, LACTIC ACID, MONOPOTASSIUM PHOSPHATE" Date available: 07/06/2017 Date last updated by company: 07/06/2017
