Source: USDA Branded Food Products Database Release December 2017 Software v.3.8.6.4 2017-10-02
Report Run at: December 17, 2017 01:53 EST
"Nutrient data for: 45108725, DRAGONFLY, GOLDEN MUSHROOM IN SALT WATER, UPC: 721557131534"
Food Group:  Branded Food Products Database
Common Name:

Nutrient,Unit,Data points,Std. Error,"164.0 PIECES = 110.0g",1Value per 100 g,
Proximates
"Energy",kcal,--,--,20,18
"Protein",g,--,--,2.00,1.82
"Total lipid (fat)",g,--,--,0.00,0.00
"Carbohydrate, by difference",g,--,--,3.00,2.73
"Fiber, total dietary",g,--,--,2.0,1.8
"Sugars, total",g,--,--,1.00,0.91
Minerals
"Calcium, Ca",mg,--,--,0,0
"Iron, Fe",mg,--,--,2.12,1.93
"Sodium, Na",mg,--,--,330,300
Vitamins
"Vitamin C, total ascorbic acid",mg,--,--,0.0,0.0
"Vitamin A, IU",IU,--,--,0,0
Lipids
"Fatty acids, total saturated",g,--,--,0.000,0.000
"Fatty acids, total trans",g,--,--,0.000,0.000
"Cholesterol",mg,--,--,0,0
Amino Acids
Other
Ingredients
"GOLDEN MUSHROOM, WATER, SALT." Date available: 06/25/2017 Date last updated by company: 06/25/2017
