Source: USDA Branded Food Products Database Release December 2017 Software v.3.8.6.4 2017-10-02
Report Run at: December 17, 2017 01:54 EST
"Nutrient data for: 45291867, DRAGON FRUIT BITE SIZE FRUIT CUBES, UPC: 853687004058"
Food Group:  Branded Food Products Database
Common Name:

Nutrient,Unit,Data points,Std. Error,"6.0 ONZ = 170.0g",1Value per 100 g,
Proximates
"Energy",kcal,--,--,102,60
"Protein",g,--,--,2.01,1.18
"Total lipid (fat)",g,--,--,0.00,0.00
"Carbohydrate, by difference",g,--,--,22.00,12.94
"Fiber, total dietary",g,--,--,4.9,2.9
"Sugars, total",g,--,--,13.01,7.65
Minerals
"Calcium, Ca",mg,--,--,31,18
"Iron, Fe",mg,--,--,1.04,0.61
"Magnesium, Mg",mg,--,--,56,33
"Sodium, Na",mg,--,--,0,0
Vitamins
"Vitamin C, total ascorbic acid",mg,--,--,3.4,2.0
"Thiamin",mg,--,--,0.000,0.000
"Riboflavin",mg,--,--,0.139,0.082
"Niacin",mg,--,--,0.495,0.291
"Vitamin A, IU",IU,--,--,83,49
Lipids
"Fatty acids, total saturated",g,--,--,0.000,0.000
"Fatty acids, total trans",g,--,--,0.000,0.000
"Cholesterol",mg,--,--,0,0
Amino Acids
Other
Ingredients
"DRAGON FRUIT (PITAYA) CUBES WITH SEEDS" Date available: 07/14/2017 Date last updated by company: 07/14/2017
