Source: USDA Branded Food Products Database Release December 2017 Software v.3.8.6.4 2017-10-02
Report Run at: December 17, 2017 01:54 EST
"Nutrient data for: 45172143, DRAKE'S, COFFEE CAKES, CAKES WITH CINNAMON STREUSEL TOPPING, UPC: 024300018022"
Food Group:  Branded Food Products Database
Common Name:

Nutrient,Unit,Data points,Std. Error,"2.0 CAKES = 69.0g",1Value per 100 g,
Proximates
"Energy",kcal,--,--,280,406
"Protein",g,--,--,3.00,4.35
"Total lipid (fat)",g,--,--,9.00,13.04
"Carbohydrate, by difference",g,--,--,46.00,66.67
"Fiber, total dietary",g,--,--,1.0,1.4
"Sugars, total",g,--,--,24.00,34.78
Minerals
"Calcium, Ca",mg,--,--,20,29
"Iron, Fe",mg,--,--,1.15,1.66
"Sodium, Na",mg,--,--,190,275
Vitamins
"Vitamin C, total ascorbic acid",mg,--,--,0.0,0.0
"Vitamin A, IU",IU,--,--,0,0
Lipids
"Fatty acids, total saturated",g,--,--,4.002,5.800
"Fatty acids, total trans",g,--,--,0.000,0.000
"Cholesterol",mg,--,--,15,22
Amino Acids
Other
Ingredients
"ENRICHED BLEACHED FLOUR (WHEAT FLOUR, NIACIN, REDUCED IRON, THIAMIN MONONITRATE [VITAMIN B1], RIBOFLAVIN [VITAMIN B2], FOLIC ACID), SUGAR, WATER, VEGETABLE SHORTENING (PALM OIL, MON-AND DIGLYCERIDES, POLYSORBATE 60), DEXTROSE. CONTAINS 2% OR LESS OF EACH OF THE FOLLOWING: EGGS, CORN SYRUP, WHEY, SOY FLOUR, CALCIUM AND SODIUM CASEINATE, MOLASSES, SALT, CINNAMON, BUTTERMILK, MODIFIED CORN STARCH, EGG WHITES, LEAVENING (BAKING SODA, SODIUM ALUMINUM PHOSPHATE), SORBITAN MONOSTEARATE, MONO-AND DIGLYCERIDES, POLYSORBATE 60, PROPYLENE GLYCOL, WHEAT GLUTEN, ANNATTO AND TURMERIC EXTRACTS (COLOR)." Date available: 07/14/2017 Date last updated by company: 07/14/2017
