Source: USDA Branded Food Products Database Release December 2017 Software v.3.8.6.4 2017-10-02
Report Run at: December 17, 2017 01:56 EST
"Nutrient data for: 45087231, DREAMING COW, GRASS-FED CREAM TOP YOGURT, BLUEBERRY CARDAMOM, UPC: 858751004064"
Food Group:  Branded Food Products Database
Common Name:

Nutrient,Unit,Data points,Std. Error,"1 CONTAINER = 170.0g",1Value per 100 g,
Proximates
"Energy",kcal,--,--,121,71
"Protein",g,--,--,6.00,3.53
"Total lipid (fat)",g,--,--,5.00,2.94
"Carbohydrate, by difference",g,--,--,13.01,7.65
"Fiber, total dietary",g,--,--,0.0,0.0
"Sugars, total",g,--,--,12.00,7.06
Minerals
"Calcium, Ca",mg,--,--,201,118
"Iron, Fe",mg,--,--,0.00,0.00
"Sodium, Na",mg,--,--,85,50
Vitamins
"Vitamin C, total ascorbic acid",mg,--,--,0.0,0.0
"Vitamin A, IU",IU,--,--,201,118
Lipids
"Fatty acids, total saturated",g,--,--,4.998,2.940
"Fatty acids, total trans",g,--,--,0.000,0.000
"Cholesterol",mg,--,--,27,16
Amino Acids
Other
Ingredients
"MADE WITH: GRADE A PASTEURIZED NON-HOMOGENIZED GRASS BASED WHOLE MILK, ORGANIC AMBER AGAVE NECTAR, BLUEBERRY JUICE, FRUIT & VEGETABLE CONCENTRATE FOR COLOR, NATURAL FLAVORS, CARDAMOM SPICE & LIVE ACTIVE CULTURES: S.THERMOPHILUS, L.BULGARICUUS, L.ACIDOPHILUS AND BIFIDUS." Date available: 07/14/2017 Date last updated by company: 07/14/2017
