Source: USDA Branded Food Products Database Release December 2017 Software v.3.8.6.4 2017-10-02
Report Run at: December 17, 2017 01:58 EST
"Nutrient data for: 45328246, DRESSING + DIP, UPC: 071840090124"
Food Group:  Branded Food Products Database
Common Name:

Nutrient,Unit,Data points,Std. Error,"2.0 Tbsp = 28.0g",1Value per 100 g,
Proximates
"Energy",kcal,--,--,160,571
"Protein",g,--,--,1.00,3.57
"Total lipid (fat)",g,--,--,17.00,60.71
"Carbohydrate, by difference",g,--,--,1.00,3.57
"Fiber, total dietary",g,--,--,0.0,0.0
"Sugars, total",g,--,--,0.00,0.00
Minerals
"Calcium, Ca",mg,--,--,40,143
"Iron, Fe",mg,--,--,0.00,0.00
"Sodium, Na",mg,--,--,220,786
Vitamins
"Vitamin C, total ascorbic acid",mg,--,--,0.0,0.0
"Vitamin A, IU",IU,--,--,0,0
Lipids
"Fatty acids, total saturated",g,--,--,3.500,12.500
"Fatty acids, total trans",g,--,--,0.000,0.000
"Cholesterol",mg,--,--,15,54
Amino Acids
Other
Ingredients
"SOYBEAN OIL, BLUE CHEESE (PASTEURIZED MILK, CHEESE CULTURES, SALT, ENZYMES, NATAMYCIN [TO PROTECT FLAVOR]), CULTURED NONFAT BUTTERMILK, SOUR CREAM (CULTURED NONFAT MILK, CREAM), EGG YOLKS, DISTILLED VINEGAR, CONTAINS LESS THAN 2% OF SPICES, SALT, GARLIC*, NATURAL FLAVOR, MUSTARD BRAN, LACTIC ACID, XANTHAN GUM." Date available: 10/04/2017 Date last updated by company: 10/04/2017
