Source: USDA Branded Food Products Database Release December 2017 Software v.3.8.6.4 2017-10-02
Report Run at: December 17, 2017 02:00 EST
"Nutrient data for: 45215592, DRESSING, UPC: 015984601662"
Food Group:  Branded Food Products Database
Common Name:

Nutrient,Unit,Data points,Std. Error,"2.0 Tbsp = 30.0g",1Value per 100 g,
Proximates
"Energy",kcal,--,--,80,267
"Protein",g,--,--,0.00,0.00
"Total lipid (fat)",g,--,--,4.50,15.00
"Carbohydrate, by difference",g,--,--,11.00,36.67
"Fiber, total dietary",g,--,--,0.0,0.0
"Sugars, total",g,--,--,10.00,33.33
Minerals
"Calcium, Ca",mg,--,--,0,0
"Iron, Fe",mg,--,--,0.00,0.00
"Sodium, Na",mg,--,--,100,333
Vitamins
"Vitamin C, total ascorbic acid",mg,--,--,0.0,0.0
"Vitamin A, IU",IU,--,--,0,0
Lipids
"Fatty acids, total saturated",g,--,--,0.501,1.670
"Fatty acids, total trans",g,--,--,0.000,0.000
"Cholesterol",mg,--,--,0,0
Amino Acids
Other
Ingredients
"SUGAR, VINEGAR (DISTILLED AND CIDER), WATER, VEGETABLE OIL (SOYBEAN AND/OR CANOLA), VIDALIA ONION, MODIFIED FOOD STARCH, CONTAINS 1% OR LESS OF ONION POWDER, SALT, SPICE, XANTHAN GUM, NATURAL FLAVOR, POTASSIUM SORBATE AND SODIUM BENZOATE (AS PRESERVATIVES), CITRIC ACID, CALCIUM DISODIUM EDTA TO PROTECT FLAVOR." Date available: 07/14/2017 Date last updated by company: 07/14/2017
