Source: USDA Branded Food Products Database Release December 2017 Software v.3.8.6.4 2017-10-02
Report Run at: December 17, 2017 02:01 EST
"Nutrient data for: 45220374, DRESSING, UPC: 092825106531"
Food Group:  Branded Food Products Database
Common Name:

Nutrient,Unit,Data points,Std. Error,"2.0 Tbsp = 30.0g",1Value per 100 g,
Proximates
"Energy",kcal,--,--,70,233
"Protein",g,--,--,0.00,0.00
"Total lipid (fat)",g,--,--,6.00,20.00
"Carbohydrate, by difference",g,--,--,3.00,10.00
"Fiber, total dietary",g,--,--,0.0,0.0
"Sugars, total",g,--,--,2.00,6.67
Minerals
"Calcium, Ca",mg,--,--,0,0
"Iron, Fe",mg,--,--,0.00,0.00
"Sodium, Na",mg,--,--,300,1000
Vitamins
"Vitamin C, total ascorbic acid",mg,--,--,4.0,13.3
"Vitamin A, IU",IU,--,--,0,0
Lipids
"Fatty acids, total saturated",g,--,--,0.501,1.670
"Fatty acids, total trans",g,--,--,0.000,0.000
"Cholesterol",mg,--,--,0,0
Amino Acids
Other
Ingredients
"DISTILLED VINEGAR, WATER, SOYBEAN OIL, CANOLA OIL, SUGAR, SALT, CONTAINS LESS THAN 2% GARLIC*, GARLIC, RED BELL PEPPER*, ONION*, XANTHAN GUM, SPICE, OLEORESIN PAPRIKA (FOR COLOR), POTASSIUM SORBATE AND CALCIUM DISODIUM EDTA (AS PRESERVATIVES)." Date available: 10/19/2017 Date last updated by company: 10/19/2017
