Source: USDA Branded Food Products Database Release December 2017 Software v.3.8.6.4 2017-10-02
Report Run at: December 17, 2017 02:01 EST
"Nutrient data for: 45239520, DRESSING, UPC: 021130480678"
Food Group:  Branded Food Products Database
Common Name:

Nutrient,Unit,Data points,Std. Error,"2.0 Tbsp = 30.0g",1Value per 100 g,
Proximates
"Energy",kcal,--,--,100,333
"Protein",g,--,--,0.00,0.00
"Total lipid (fat)",g,--,--,6.00,20.00
"Carbohydrate, by difference",g,--,--,11.00,36.67
"Fiber, total dietary",g,--,--,0.0,0.0
"Sugars, total",g,--,--,11.00,36.67
Minerals
"Calcium, Ca",mg,--,--,0,0
"Iron, Fe",mg,--,--,0.00,0.00
"Sodium, Na",mg,--,--,260,867
Vitamins
"Vitamin C, total ascorbic acid",mg,--,--,0.0,0.0
"Vitamin A, IU",IU,--,--,0,0
Lipids
"Fatty acids, total saturated",g,--,--,0.999,3.330
"Fatty acids, total trans",g,--,--,0.000,0.000
"Cholesterol",mg,--,--,0,0
Amino Acids
Other
Ingredients
"SUGAR, WATER, SOYBEAN OIL, DISTILLED VINEGAR, PEAR PUREE, SALT, LESS THAN 2% WHITE WINE (CONTAINS SULFITES), GARLIC, SODIUM BENZOATE AND POTASSIUM SORBATE (PRESERVATIVES), XANTHAN GUM, SPICES, DEHYDRATED GREEN ONIONS, NATURAL AND ARTIFICIAL FLAVORS, ASCORBIC ACID, CITRIC ACID." Date available: 06/24/2017 Date last updated by company: 06/24/2017
