Source: USDA Branded Food Products Database Release December 2017 Software v.3.8.6.4 2017-10-02
Report Run at: December 17, 2017 02:11 EST
"Nutrient data for: 45150360, DRIED PINEAPPLE WITH CHILI, UPC: 853308002234"
Food Group:  Branded Food Products Database
Common Name:

Nutrient,Unit,Data points,Std. Error,"4.0 PIECES = 30.0g",1Value per 100 g,
Proximates
"Energy",kcal,--,--,55,183
"Protein",g,--,--,2.00,6.67
"Total lipid (fat)",g,--,--,1.00,3.33
"Carbohydrate, by difference",g,--,--,9.00,30.00
"Fiber, total dietary",g,--,--,2.0,6.7
"Sugars, total",g,--,--,0.00,0.00
Minerals
"Calcium, Ca",mg,--,--,20,67
"Iron, Fe",mg,--,--,1.44,4.80
"Sodium, Na",mg,--,--,545,1817
Vitamins
"Vitamin C, total ascorbic acid",mg,--,--,16.0,53.3
"Vitamin A, IU",IU,--,--,266,888
Lipids
"Fatty acids, total saturated",g,--,--,0.000,0.000
"Fatty acids, total trans",g,--,--,0.000,0.000
"Cholesterol",mg,--,--,0,0
Amino Acids
Other
Ingredients
"DRIED PINEAPPLE, CHILI PEPPER SALT, SUGAR, CITRIC ACID, SODIUM BENZOATE (0.02%) AND WATER." Date available: 10/13/2017 Date last updated by company: 10/13/2017
