Source: USDA Branded Food Products Database Release December 2017 Software v.3.8.6.4 2017-10-02
Report Run at: December 17, 2017 02:13 EST
"Nutrient data for: 45270772, DRIED UNCURED CHORIZO, UPC: 616973007160"
Food Group:  Branded Food Products Database
Common Name:

Nutrient,Unit,Data points,Std. Error,"1 ONZ = 28.0g",1Value per 100 g,
Proximates
"Energy",kcal,--,--,90,321
"Protein",g,--,--,6.00,21.43
"Total lipid (fat)",g,--,--,7.00,25.00
"Carbohydrate, by difference",g,--,--,0.00,0.00
"Fiber, total dietary",g,--,--,0.0,0.0
"Sugars, total",g,--,--,0.00,0.00
Minerals
"Calcium, Ca",mg,--,--,0,0
"Iron, Fe",mg,--,--,0.71,2.53
"Sodium, Na",mg,--,--,430,1536
Vitamins
"Vitamin C, total ascorbic acid",mg,--,--,0.0,0.0
"Vitamin A, IU",IU,--,--,0,0
Lipids
"Fatty acids, total saturated",g,--,--,2.500,8.930
"Cholesterol",mg,--,--,25,89
Amino Acids
Other
Ingredients
"PORK, SEA SALT, LESS THAN 2% OF: SPANISH PAPRIKA, SPICES, TURBINADO SUGAR, NATURAL FLAVORING, ORGANIC WHITE WINE, LACTIC ACID STARTER CULTURE." Date available: 07/14/2017 Date last updated by company: 07/14/2017
