Source: USDA Branded Food Products Database Release December 2017 Software v.3.8.6.4 2017-10-02
Report Run at: December 17, 2017 02:09 EST
"Nutrient data for: 45225939, DRIED LIMA BEANS, UPC: 077300110012"
Food Group:  Branded Food Products Database
Common Name:

Nutrient,Unit,Data points,Std. Error,"0.25 cup = 37.0g",1Value per 100 g,
Proximates
"Energy",kcal,--,--,70,189
"Protein",g,--,--,8.00,21.62
"Total lipid (fat)",g,--,--,0.00,0.00
"Carbohydrate, by difference",g,--,--,23.00,62.16
"Fiber, total dietary",g,--,--,15.0,40.5
"Sugars, total",g,--,--,1.00,2.70
Minerals
"Calcium, Ca",mg,--,--,20,54
"Iron, Fe",mg,--,--,5.11,13.81
"Sodium, Na",mg,--,--,15,41
Vitamins
"Vitamin C, total ascorbic acid",mg,--,--,0.0,0.0
"Vitamin A, IU",IU,--,--,0,0
Lipids
"Fatty acids, total saturated",g,--,--,0.000,0.000
"Fatty acids, total trans",g,--,--,0.000,0.000
"Cholesterol",mg,--,--,0,0
Amino Acids
Other
Ingredients
"DRIED BABY LIMA BEANS." Date available: 08/10/2017 Date last updated by company: 08/10/2017
