Source: USDA Branded Food Products Database Release December 2017 Software v.3.8.6.4 2017-10-02
Report Run at: December 17, 2017 02:08 EST
"Nutrient data for: 45090157, DRIED KELPS, UPC: 074410470050"
Food Group:  Branded Food Products Database
Common Name:

Nutrient,Unit,Data points,Std. Error,"3.0 PCS CUT 4""""X4"""" = 10.0g",1Value per 100 g,
Proximates
"Energy",kcal,--,--,30,300
"Protein",g,--,--,1.00,10.00
"Total lipid (fat)",g,--,--,0.00,0.00
"Carbohydrate, by difference",g,--,--,6.00,60.00
"Fiber, total dietary",g,--,--,3.0,30.0
"Sugars, total",g,--,--,3.00,30.00
Minerals
"Calcium, Ca",mg,--,--,80,800
"Iron, Fe",mg,--,--,1.80,18.00
"Sodium, Na",mg,--,--,280,2800
Vitamins
"Vitamin C, total ascorbic acid",mg,--,--,12.0,120.0
"Vitamin A, IU",IU,--,--,248,2475
Lipids
"Fatty acids, total saturated",g,--,--,0.000,0.000
"Fatty acids, total trans",g,--,--,0.000,0.000
"Cholesterol",mg,--,--,0,0
Amino Acids
Other
Ingredients
"DRIED KELP." Date available: 10/13/2017 Date last updated by company: 10/13/2017
