Source: USDA Branded Food Products Database Release December 2017 Software v.3.8.6.4 2017-10-02
Report Run at: December 17, 2017 02:08 EST
"Nutrient data for: 45150188, DRIED GREEK YOGURT COVERED CHERRIES, UPC: 846659000462"
Food Group:  Branded Food Products Database
Common Name:

Nutrient,Unit,Data points,Std. Error,"0.125 cup = 30.0g",1Value per 100 g,
Proximates
"Energy",kcal,--,--,140,467
"Protein",g,--,--,2.00,6.67
"Total lipid (fat)",g,--,--,6.00,20.00
"Carbohydrate, by difference",g,--,--,20.00,66.67
"Fiber, total dietary",g,--,--,0.0,0.0
"Sugars, total",g,--,--,17.00,56.67
Minerals
"Calcium, Ca",mg,--,--,20,67
"Iron, Fe",mg,--,--,0.00,0.00
"Sodium, Na",mg,--,--,10,33
Vitamins
"Vitamin C, total ascorbic acid",mg,--,--,0.0,0.0
"Vitamin A, IU",IU,--,--,500,1667
Lipids
"Fatty acids, total saturated",g,--,--,5.001,16.670
"Fatty acids, total trans",g,--,--,0.000,0.000
"Cholesterol",mg,--,--,5,17
Amino Acids
Other
Ingredients
"GREEK YOGURT COATING (SUGAR, PALM KERNEL OIL, WHEY PROTEIN CONCENTRATE, YOGURT POWDER [WHEY PROTEIN CONCENTRATE, NONFAT DRY MILK, YOGURT CULTURES], REDUCED MINERAL WHEY POWDER, LACTIC ACID, SOY LECITHIN [EMULSIFIER], VANILLA), DRIED MONTMORENCY CHERRIES (MONTMORENCY CHERRIES, SUGAR, SUNFLOWER OIL), GLAZE (CORN SYRUP, MODIFIED STARCH, COCONUT OIL, CITRIC ACID, SORBIC ACID, WATER), WATER, CONFECTIONERS GLAZE." Date available: 07/14/2017 Date last updated by company: 07/14/2017
