Source: USDA Branded Food Products Database Release December 2017 Software v.3.8.6.4 2017-10-02
Report Run at: December 17, 2017 02:08 EST
"Nutrient data for: 45270750, DRIED FRUIT 4-CELL TRAY, UPC: 094776175147"
Food Group:  Branded Food Products Database
Common Name:

Nutrient,Unit,Data points,Std. Error,"1 ONZ = 28.0g",1Value per 100 g,
Proximates
Minerals
Vitamins
Lipids
Amino Acids
Other
Ingredients
"DRIED PINEAPPLE CHUNKS [PINEAPPLE, SUGAR, CITRIC ACID, SULFUR DIOXIDE], DRIED DATES [DATES, MAY CONTAIN PIT OR PARTIAL PIT], DRIED APRICOTS [APRICOTS, SULFUR DIOXIDE (TO PRESERVE COLOR), MAY CONTAIN PIT OR PARTIAL PIT], DRIED CRANBERRIES [CRANBERRIES, SUGAR, SUNFLOWER OIL]." Date available: 06/06/2017 Date last updated by company: 06/06/2017
