Source: USDA Branded Food Products Database Release December 2017 Software v.3.8.6.4 2017-10-02
Report Run at: December 17, 2017 02:15 EST
"Nutrient data for: 45149101, DRINK MIX CONCENTRATE WITH VINEGAR, UPC: 661799075800"
Food Group:  Branded Food Products Database
Common Name:

Nutrient,Unit,Data points,Std. Error,"12.0 tsp = 60.0g",1Value per 100 g,
Proximates
"Energy",kcal,--,--,90,150
"Protein",g,--,--,0.00,0.00
"Total lipid (fat)",g,--,--,0.00,0.00
"Carbohydrate, by difference",g,--,--,23.00,38.33
"Fiber, total dietary",g,--,--,1.0,1.7
"Sugars, total",g,--,--,22.00,36.67
Minerals
"Calcium, Ca",mg,--,--,0,0
"Iron, Fe",mg,--,--,3.60,6.00
"Sodium, Na",mg,--,--,0,0
Vitamins
"Vitamin C, total ascorbic acid",mg,--,--,0.0,0.0
"Vitamin A, IU",IU,--,--,0,0
Lipids
"Fatty acids, total saturated",g,--,--,0.000,0.000
"Fatty acids, total trans",g,--,--,0.000,0.000
"Cholesterol",mg,--,--,0,0
Amino Acids
Other
Ingredients
"POMEGRANATE VINEGAR BLEND (POMEGRANATE JUICE CONCENTRATE, VINEGAR, APPLE JUICE CONCENTRATE, MALTODEXTRIN (FIBERSOL-2), CITRIC ACID, NATURAL FLAVORS, MALIC ACID, CARROT JUICE CONCENTRATE, DEXTRIN, THAUMATIN, LACTIC ACID), WATER, SUGAR, ISOMAL TOOLIGOSACCHARIDE." Date available: 07/14/2017 Date last updated by company: 07/14/2017
