Source: USDA Branded Food Products Database Release December 2017 Software v.3.8.6.4 2017-10-02
Report Run at: December 17, 2017 02:17 EST
"Nutrient data for: 45218616, DRINK MIX, UPC: 072392333646"
Food Group:  Branded Food Products Database
Common Name:

Nutrient,Unit,Data points,Std. Error,"0.5 PACKET = 1.0g",1Value per 100 g,
Proximates
"Energy",kcal,--,--,5,500
"Protein",g,--,--,0.00,0.00
"Total lipid (fat)",g,--,--,0.00,0.00
"Carbohydrate, by difference",g,--,--,0.00,0.00
"Sugars, total",g,--,--,0.00,0.00
Minerals
"Sodium, Na",mg,--,--,0,0
Vitamins
Lipids
Amino Acids
Other
Ingredients
"CITRIC ACID, MALTODEXTRIN, ASPARTAME+, ARTIFICIAL FLAVOR, CONTAINS 2% OR LESS OF THE FOLLOWING: TRICALCIUM PHOSPHATE, ACESULFAME POTASSIUM, CELLULOSE GUM, PECTIN, GUAR GUM, BLUE 1." Date available: 07/14/2017 Date last updated by company: 07/14/2017
