Source: USDA Branded Food Products Database Release December 2017 Software v.3.8.6.4 2017-10-02
Report Run at: December 17, 2017 02:14 EST
"Nutrient data for: 45063140, DRINKING VINEGAR SODA, UPC: 854751003175"
Food Group:  Branded Food Products Database
Common Name:

Nutrient,Unit,Data points,Std. Error,"12.0 OZA = 340.0g",1Value per 100 g,
Proximates
"Energy",kcal,--,--,88,26
"Protein",g,--,--,0.00,0.00
"Total lipid (fat)",g,--,--,0.00,0.00
"Carbohydrate, by difference",g,--,--,22.00,6.47
"Fiber, total dietary",g,--,--,0.0,0.0
"Sugars, total",g,--,--,21.01,6.18
Minerals
"Calcium, Ca",mg,--,--,0,0
"Iron, Fe",mg,--,--,0.00,0.00
"Sodium, Na",mg,--,--,88,26
Vitamins
"Vitamin C, total ascorbic acid",mg,--,--,4.8,1.4
"Vitamin A, IU",IU,--,--,0,0
Lipids
"Fatty acids, total saturated",g,--,--,0.000,0.000
"Cholesterol",mg,--,--,0,0
Amino Acids
Other
Ingredients
"WATER, CANE SUGAR, CANE VINEGAR, GRAPEFRUIT, CITRIC ACID, SEA SALT" Date available: 08/31/2017 Date last updated by company: 08/31/2017
