Source: USDA Branded Food Products Database Release December 2017 Software v.3.8.6.4 2017-10-02
Report Run at: December 17, 2017 02:18 EST
"Nutrient data for: 45311379, DRINK MIX, UPC: 043000059050"
Food Group:  Branded Food Products Database
Common Name:

Nutrient,Unit,Data points,Std. Error,"0.125 CAP (MAKES 8 FL OZ) = 24.0g",1Value per 100 g,
Proximates
"Energy",kcal,--,--,90,375
"Protein",g,--,--,0.00,0.00
"Total lipid (fat)",g,--,--,0.00,0.00
"Carbohydrate, by difference",g,--,--,22.00,91.67
"Sugars, total",g,--,--,22.00,91.67
Minerals
"Calcium, Ca",mg,--,--,100,417
"Sodium, Na",mg,--,--,40,167
Vitamins
"Vitamin C, total ascorbic acid",mg,--,--,125.0,520.8
Lipids
Amino Acids
Other
Ingredients
"SUGAR, FRUCTOSE, CITRIC ACID (PROVIDES TARTNESS), CONTAINS LESS THAN 2% OF NATURAL AND ARTIFICIAL FLAVOR, ASCORBIC ACID (VITAMIN C), MALTODEXTRIN, CALCIUM PHOSPHATE, GUAR AND XANTHAN GUMS (PROVIDE BODY), SODIUM ACID PYROPHOSPHATE, ARTIFICIAL COLOR, YELLOW 5, YELLOW 6, BHA (TO HELP PROTECT FLAVOR)." Date available: 07/14/2017 Date last updated by company: 07/14/2017
