Source: USDA Branded Food Products Database Release December 2017 Software v.3.8.6.4 2017-10-02
Report Run at: December 17, 2017 02:14 EST
"Nutrient data for: 45269797, DRINKING CHOCOLATE, UPC: 898596001538"
Food Group:  Branded Food Products Database
Common Name:

Nutrient,Unit,Data points,Std. Error,"3.0 tsp = 18.0g",1Value per 100 g,
Proximates
"Energy",kcal,--,--,69,383
"Protein",g,--,--,1.00,5.56
"Total lipid (fat)",g,--,--,1.00,5.56
"Carbohydrate, by difference",g,--,--,13.00,72.22
"Fiber, total dietary",g,--,--,1.0,5.6
"Sugars, total",g,--,--,12.00,66.67
Minerals
"Calcium, Ca",mg,--,--,10,56
"Iron, Fe",mg,--,--,1.50,8.33
"Sodium, Na",mg,--,--,40,222
Vitamins
"Vitamin C, total ascorbic acid",mg,--,--,0.0,0.0
"Vitamin A, IU",IU,--,--,0,0
Lipids
"Fatty acids, total saturated",g,--,--,1.001,5.560
"Fatty acids, total trans",g,--,--,0.000,0.000
"Cholesterol",mg,--,--,0,0
Amino Acids
Other
Ingredients
"SUGAR, COCOA POWDER (PROCESSED WITH ALKALI), DEXTROSE, SILICON DIOXIDE (ANTI-CAKING AGENT), SALT." Date available: 07/14/2017 Date last updated by company: 07/14/2017
