Source: USDA Branded Food Products Database Release December 2017 Software v.3.8.6.4 2017-10-02
Report Run at: December 17, 2017 02:18 EST
"Nutrient data for: 45281357, DRINK MIX, UPC: 041268193127"
Food Group:  Branded Food Products Database
Common Name:

Nutrient,Unit,Data points,Std. Error,"0.125 PACKET = 1.1g",1Value per 100 g,
Proximates
"Energy",kcal,--,--,5,455
"Protein",g,--,--,0.00,0.00
"Total lipid (fat)",g,--,--,0.00,0.00
"Carbohydrate, by difference",g,--,--,0.00,0.00
"Sugars, total",g,--,--,0.00,0.00
Minerals
"Potassium, K",mg,--,--,0,0
"Sodium, Na",mg,--,--,0,0
Vitamins
Lipids
Amino Acids
Other
Ingredients
"CITRIC ACID, INSTANT TEA, MALTODEXTRIN, CORN SYRUP SOLIDS*, ASPARTAME**, FOOD STARCH-MODIFIED, CONTAINS LESS THAN 2% OF: ACESULFAME POTASSIUM, YELLOW 6, TRICALCIUM PHOSPHATE, NATURAL FLAVOR, RED 40, ARTIFICIAL COLOR, SILICON DIOXIDE, BLUE 1, YELLOW 5." Date available: 07/14/2017 Date last updated by company: 07/14/2017
