Source: USDA Branded Food Products Database Release December 2017 Software v.3.8.6.4 2017-10-02
Report Run at: December 17, 2017 02:18 EST
"Nutrient data for: 45280593, DRINK MIX, UPC: 035826085054"
Food Group:  Branded Food Products Database
Common Name:

Nutrient,Unit,Data points,Std. Error,"1.33 Tbsp = 20.0g",1Value per 100 g,
Proximates
"Energy",kcal,--,--,60,300
"Protein",g,--,--,0.00,0.00
"Total lipid (fat)",g,--,--,0.00,0.00
"Carbohydrate, by difference",g,--,--,16.00,80.00
"Sugars, total",g,--,--,16.00,80.00
Minerals
"Sodium, Na",mg,--,--,0,0
Vitamins
"Vitamin C, total ascorbic acid",mg,--,--,6.0,30.0
Lipids
Amino Acids
Other
Ingredients
"CANE SUGAR, WATER, FRUCTOSE, CONTAINS LESS THAN 2% OF: CITRIC ACID, VITAMIN C (ASCORBIC ACID), NATURAL AND ARTIFICIAL FLAVOR, SUCROSE ACETATE ISOBUTYRATE, ESTER GUM, GUM ARABIC, SODIUM CITRATE, RED 40, POTASSIUM SORBATE (PRESERVATIVE)." Date available: 07/14/2017 Date last updated by company: 07/14/2017
