Source: USDA Branded Food Products Database Release December 2017 Software v.3.8.6.4 2017-10-02
Report Run at: December 17, 2017 02:16 EST
"Nutrient data for: 45030042, DRINK MIX, UPC: 041387215854"
Food Group:  Branded Food Products Database
Common Name:

Nutrient,Unit,Data points,Std. Error,"0.952 g = 0.95g",1Value per 100 g,
Proximates
"Energy",kcal,--,--,0,0
"Protein",g,--,--,0.00,0.00
"Total lipid (fat)",g,--,--,0.00,0.00
"Carbohydrate, by difference",g,--,--,0.00,0.00
"Fiber, total dietary",g,--,--,0.0,0.0
"Sugars, total",g,--,--,0.00,0.00
Minerals
"Potassium, K",mg,--,--,15,1576
"Sodium, Na",mg,--,--,10,1050
Vitamins
"Vitamin C, total ascorbic acid",mg,--,--,3151.3,331014.7
Lipids
"Fatty acids, total trans",g,--,--,0.000,0.000
Amino Acids
Other
Ingredients
"CITRIC ACID, NATURAL AND ARTIFICIAL FLAVORS, ASCORBIC ACID (VITAMIN C), POTASSIUM CITRATE AND SODIUM CITRATE (CONTROL ACIDITY), ACESULFAME POTASSIUM, ARTIFICIAL COLOR F. D & C RED #40, SUCRALOSE, GUM ARABIC, MAGNESIUM OXIDE & TRICALCIUM PHOSPHATE (PREVENT CAKING), TITANIUM DIOXIDE, ARTIFICIAL COLOR F. D & C BLUE #1." Date available: 06/19/2017 Date last updated by company: 06/19/2017
