Source: USDA Branded Food Products Database Release December 2017 Software v.3.8.6.4 2017-10-02
Report Run at: December 17, 2017 02:22 EST
"Nutrient data for: 45161800, DROGA CHOCOLATES, JOLLY GINGERBREAD COOKIE, CHOCOLATE COVERED, UPC: 851729003366"
Food Group:  Branded Food Products Database
Common Name:

Nutrient,Unit,Data points,Std. Error,"28.0 GRM = 28.0g",1Value per 100 g,
Proximates
"Energy",kcal,--,--,120,429
"Protein",g,--,--,2.00,7.14
"Total lipid (fat)",g,--,--,6.00,21.43
"Carbohydrate, by difference",g,--,--,15.00,53.57
"Fiber, total dietary",g,--,--,1.0,3.6
"Sugars, total",g,--,--,7.00,25.00
Minerals
"Calcium, Ca",mg,--,--,20,71
"Iron, Fe",mg,--,--,1.93,6.88
"Sodium, Na",mg,--,--,30,107
Vitamins
"Vitamin C, total ascorbic acid",mg,--,--,0.0,0.0
"Vitamin A, IU",IU,--,--,0,0
Lipids
"Fatty acids, total saturated",g,--,--,3.500,12.500
"Fatty acids, total trans",g,--,--,0.000,0.000
"Cholesterol",mg,--,--,10,36
Amino Acids
Other
Ingredients
"COOKIE (ENRICHED UNBLEACHED FLOUR (WHEAT FLOUR, MALTED BARLEY FLOUR, NIACIN, REDUCED IRON, THIAMINE MONONITRATE, RIBOFLAVIN, FOLIC ACID), SUGAR, HONEY, EGGS, PALM OIL, PALM KERNEL OIL, BUTTER, CINNAMON, SODIUM BICARBONATE, GINGER, CLOVES, ALLSPICE, VANILLA EXTRACT, CARAMEL COLOR, SALT, CELLULOSE GUM, NATURAL FLAVORS), CHOCOLATE (SUGAR, CHOCOLATE LIQUOR, COCOA BUTTER, MILK, SOY LECITHIN, PURE VANILLA)." Date available: 10/13/2017 Date last updated by company: 10/13/2017
