Source: USDA Branded Food Products Database Release December 2017 Software v.3.8.6.4 2017-10-02
Report Run at: December 17, 2017 02:30 EST
"Nutrient data for: 45189306, DRY RUB SEASONING, UPC: 861491000029"
Food Group:  Branded Food Products Database
Common Name:

Nutrient,Unit,Data points,Std. Error,"0.25 tsp = 0.4g",1Value per 100 g,
Proximates
"Energy",kcal,--,--,0,0
"Protein",g,--,--,0.00,0.00
"Total lipid (fat)",g,--,--,0.00,0.00
"Carbohydrate, by difference",g,--,--,0.00,0.00
Minerals
"Sodium, Na",mg,--,--,25,6250
Vitamins
Lipids
"Cholesterol",mg,--,--,0,0
Amino Acids
Other
Ingredients
"BROWN SUGAR, SALT, PAPRIKA, DEHYDRATED GARLIC, TOMATO POWDER, SPICES, NATURAL CHICKEN FLAVOR, CITRIC ACID, NOT MORE THAN 2% SOYBEAN OIL AND CALCIUM STEARATE ADDED AS PROCESSING AIDS." Date available: 07/14/2017 Date last updated by company: 07/14/2017
