Source: USDA Branded Food Products Database Release December 2017 Software v.3.8.6.4 2017-10-02
Report Run at: December 17, 2017 02:25 EST
"Nutrient data for: 45328942, DRY ROASTED EDAMAME, UPC: 10711575007123"
Food Group:  Branded Food Products Database
Common Name:

Nutrient,Unit,Data points,Std. Error,"1 PACK = 45.0g",1Value per 100 g,
Proximates
"Energy",kcal,--,--,200,444
"Protein",g,--,--,20.00,44.44
"Total lipid (fat)",g,--,--,6.00,13.33
"Carbohydrate, by difference",g,--,--,15.00,33.33
"Fiber, total dietary",g,--,--,11.0,24.4
"Sugars, total",g,--,--,2.00,4.44
Minerals
"Calcium, Ca",mg,--,--,60,133
"Iron, Fe",mg,--,--,3.20,7.11
"Sodium, Na",mg,--,--,220,489
Vitamins
"Vitamin C, total ascorbic acid",mg,--,--,2.7,5.9
"Vitamin A, IU",IU,--,--,222,493
Lipids
"Fatty acids, total saturated",g,--,--,0.999,2.220
"Fatty acids, total trans",g,--,--,0.000,0.000
"Cholesterol",mg,--,--,0,0
Amino Acids
Other
Ingredients
"SOYBEANS, SEA SALT, WASABI POWDER (WASABI OIL, DEXTRIN)" Date available: 10/13/2017 Date last updated by company: 10/13/2017
