Source: USDA Branded Food Products Database Release December 2017 Software v.3.8.6.4 2017-10-02
Report Run at: December 17, 2017 02:29 EST
"Nutrient data for: 45089217, DRY ROASTED, UNSALTED ALMONDS, UPC: 011110854254"
Food Group:  Branded Food Products Database
Common Name:

Nutrient,Unit,Data points,Std. Error,"28.0 PIECES | ABOUT = 28.0g",1Value per 100 g,
Proximates
"Energy",kcal,--,--,170,607
"Protein",g,--,--,6.00,21.43
"Total lipid (fat)",g,--,--,15.00,53.57
"Carbohydrate, by difference",g,--,--,5.00,17.86
"Fiber, total dietary",g,--,--,3.0,10.7
"Sugars, total",g,--,--,1.00,3.57
Minerals
"Calcium, Ca",mg,--,--,80,286
"Iron, Fe",mg,--,--,2.57,9.19
"Phosphorus, P",mg,--,--,268,957
"Potassium, K",mg,--,--,210,750
"Sodium, Na",mg,--,--,0,0
"Zinc, Zn",mg,--,--,0.90,3.21
"Copper, Cu",mg,--,--,0.300,1.071
"Manganese, Mn",mg,--,--,0.560,2.000
Vitamins
"Vitamin C, total ascorbic acid",mg,--,--,0.0,0.0
"Riboflavin",mg,--,--,0.255,0.911
"Niacin",mg,--,--,2.142,7.650
"Vitamin A, IU",IU,--,--,0,0
Lipids
"Fatty acids, total saturated",g,--,--,1.000,3.570
"Fatty acids, total monounsaturated",g,--,--,8.999,32.140
"Fatty acids, total polyunsaturated",g,--,--,3.500,12.500
"Fatty acids, total trans",g,--,--,0.000,0.000
"Cholesterol",mg,--,--,0,0
Amino Acids
Other
Ingredients
"ALMONDS." Date available: 07/14/2017 Date last updated by company: 07/14/2017
