Source: USDA Branded Food Products Database Release December 2017 Software v.3.8.6.4 2017-10-02
Report Run at: December 17, 2017 02:24 EST
"Nutrient data for: 45207395, DRY AGED BEEF PANKO BREADCRUMBS, UPC: 018169158531"
Food Group:  Branded Food Products Database
Common Name:

Nutrient,Unit,Data points,Std. Error,"2.0 Tbsp = 12.0g",1Value per 100 g,
Proximates
"Energy",kcal,--,--,40,333
"Protein",g,--,--,1.00,8.33
"Total lipid (fat)",g,--,--,0.00,0.00
"Carbohydrate, by difference",g,--,--,8.00,66.67
"Sugars, total",g,--,--,0.00,0.00
Minerals
"Sodium, Na",mg,--,--,420,3500
Vitamins
Lipids
Amino Acids
Other
Ingredients
"(PANKO BREADCRUMBS [BLEACHED WHEAT FLOUR, YEAST, SUGAR, SALT], DRY AGED BEEF SEASONING [GRAY SEA SALT, ONION, PEPPER, ROSEMARY, MARJORAM, THYME, BASIL, FENNEL, LAVENDER])." Date available: 08/31/2017 Date last updated by company: 08/31/2017
