Source: USDA Branded Food Products Database Release December 2017 Software v.3.8.6.4 2017-10-02
Report Run at: December 17, 2017 02:33 EST
"Nutrient data for: 45143523, DUBBLE BUBBLE, FIZZING BUBBLE GUM, CHERRY SODA POP, UPC: 059642139074"
Food Group:  Branded Food Products Database
Common Name:

Nutrient,Unit,Data points,Std. Error,"1 PIECE = 7.0g",1Value per 100 g,
Proximates
"Energy",kcal,--,--,25,357
"Protein",g,--,--,0.00,0.00
"Total lipid (fat)",g,--,--,0.00,0.00
"Carbohydrate, by difference",g,--,--,6.00,85.71
"Sugars, total",g,--,--,6.00,85.71
Minerals
"Sodium, Na",mg,--,--,30,429
Vitamins
Lipids
Amino Acids
Other
Ingredients
"SUGAR, DEXTROSE, CORN SYRUP (GLUCOSE), GUM BASE, SODIUM BICARBONATE, CITRIC ACID, ARTIFICIAL FLAVORS, TAPIOCA DEXTRIN, GUM ARABIC, ARTIFICIAL COLORS (FD&C RED 40), CORN STARCH, BHT (TO MAINTAIN FRESHNESS)." Date available: 09/05/2017 Date last updated by company: 09/05/2017
