Source: USDA Branded Food Products Database Release December 2017 Software v.3.8.6.4 2017-10-02
Report Run at: December 17, 2017 02:35 EST
"Nutrient data for: 45212236, DUCHESS POTATOES, UPC: 722515249117"
Food Group:  Branded Food Products Database
Common Name:

Nutrient,Unit,Data points,Std. Error,"0.5 cup = 140.0g",1Value per 100 g,
Proximates
"Energy",kcal,--,--,190,136
"Protein",g,--,--,4.00,2.86
"Total lipid (fat)",g,--,--,11.00,7.86
"Carbohydrate, by difference",g,--,--,20.01,14.29
"Fiber, total dietary",g,--,--,2.0,1.4
"Sugars, total",g,--,--,3.00,2.14
Minerals
"Calcium, Ca",mg,--,--,80,57
"Iron, Fe",mg,--,--,3.60,2.57
"Sodium, Na",mg,--,--,440,314
Vitamins
"Vitamin C, total ascorbic acid",mg,--,--,2.4,1.7
"Vitamin A, IU",IU,--,--,400,286
Lipids
"Fatty acids, total saturated",g,--,--,6.006,4.290
"Fatty acids, total trans",g,--,--,0.000,0.000
"Cholesterol",mg,--,--,45,32
Amino Acids
Other
Ingredients
"WATER, MILK, POTATO FLAKES (POTATOES, MONO AND DIGLYCERIDES, SODIUM ACID PYROPHOSPHATE, SODIUM BISULFITE, CITRIC ACID, MIXED TOCOPHEROL), SOUR CREAM (CULTURED MILK AND CREAM, WHEY, MODIFIED CORN STARCH, SODIUM PHOSPHATE, GUAR GUM, CARRAGEENAN, CALCIUM SULFATE, LOCUST BEAN GUM, SODIUM CITRATE, POTASSIUM SORBATE), BUTTER, EGGS (WITH CITRIC ACID), SEA SALT, CHICKEN BASE (CHICKEN MEAT INCLUDING CHICKEN JUICES, SALT, HYDROLYZED SOY AND CORN PROTEIN, SUGAR, FLAVORING, POTATO FLOUR, AUTOLYZED YEAST EXTRACT, CARROT POWDER, TURMERIC), CHIVES, GARLIC POWDER, ONION POWDER." Date available: 07/14/2017 Date last updated by company: 07/14/2017
