Source: USDA Branded Food Products Database Release December 2017 Software v.3.8.6.4 2017-10-02
Report Run at: December 17, 2017 02:36 EST
"Nutrient data for: 45230645, DUET BITES MADELEINE & BROWNIE, UPC: 697941810289"
Food Group:  Branded Food Products Database
Common Name:

Nutrient,Unit,Data points,Std. Error,"1 COOKIE = 20.0g",1Value per 100 g,
Proximates
"Energy",kcal,--,--,100,500
"Protein",g,--,--,1.00,5.00
"Total lipid (fat)",g,--,--,5.00,25.00
"Carbohydrate, by difference",g,--,--,11.00,55.00
"Fiber, total dietary",g,--,--,0.0,0.0
"Sugars, total",g,--,--,7.00,35.00
Minerals
"Calcium, Ca",mg,--,--,0,0
"Iron, Fe",mg,--,--,0.72,3.60
"Sodium, Na",mg,--,--,35,175
Vitamins
"Vitamin C, total ascorbic acid",mg,--,--,0.0,0.0
"Vitamin A, IU",IU,--,--,200,1000
Lipids
"Fatty acids, total saturated",g,--,--,2.500,12.500
"Fatty acids, total monounsaturated",g,--,--,1.500,7.500
"Fatty acids, total polyunsaturated",g,--,--,1.000,5.000
"Fatty acids, total trans",g,--,--,0.000,0.000
"Cholesterol",mg,--,--,15,75
Amino Acids
Other
Ingredients
"SUGAR, UNBLEACHED ENRICHED FLOUR (WHEAT FLOUR, MALTED BARLEY FLOUR, NIACIN, REDUCED IRON, THIAMINE MONONITRATE, RIBOFLAVIN, FOLIC ACID), UNSALTED BUTTER, EGGS, SOYBEAN OIL, WATER, PALM OIL, COCOA POWDER (PROCESSED WITH ALKALI), CORN SYRUP, NATURAL FLAVORS, EGG WHITES, CORNSTARCH, SALT, SOY LECITHIN." Date available: 07/14/2017 Date last updated by company: 07/14/2017
