Source: USDA Branded Food Products Database Release December 2017 Software v.3.8.6.4 2017-10-02
Report Run at: December 17, 2017 02:36 EST
"Nutrient data for: 45177276, DUFF GOLDMAN, TYLINA, RED VELVET BROWNIES, UPC: 634680196069"
Food Group:  Branded Food Products Database
Common Name:

Nutrient,Unit,Data points,Std. Error,"0.05 PREPARED PRODUCT = 40.0g",1Value per 100 g,
Proximates
"Energy",kcal,--,--,120,300
"Protein",g,--,--,1.00,2.50
"Total lipid (fat)",g,--,--,2.00,5.00
"Carbohydrate, by difference",g,--,--,25.00,62.50
"Fiber, total dietary",g,--,--,0.0,0.0
"Sugars, total",g,--,--,16.00,40.00
Minerals
"Calcium, Ca",mg,--,--,40,100
"Iron, Fe",mg,--,--,0.72,1.80
"Sodium, Na",mg,--,--,140,350
Vitamins
"Vitamin C, total ascorbic acid",mg,--,--,0.0,0.0
"Vitamin A, IU",IU,--,--,0,0
Lipids
"Fatty acids, total saturated",g,--,--,0.500,1.250
"Fatty acids, total trans",g,--,--,0.000,0.000
"Cholesterol",mg,--,--,0,0
Amino Acids
Other
Ingredients
"MIX INGREDIENTS: ENRICHED BLEACHED FLOUR (BLEACHED WHEAT FLOUR, NIACIN, IRON, THIAMINE MONONITRATE, RIBOFLAVIN, FOLIC ACID), SUGAR VEGETABLE SHORTENING ([CONTAINS ONE OR MORE OF THE FOLLOWING: PALM OIL AND/OR SOYBEAN OIL] WITH EMULSIFIER [PROPYLENE GLYCOL MONO AND DIESTERS, MONO AND DIGLYCERIDES, SOY LECITHIN] WITH PRESERVATIVE [BHT, CITRIC ACID]), DEXTROSE, MODIFIED CORN STARCH, COCOA (PROCESSED WITH ALKALI), CONTAINS 2% OR LESS OF: LEAVENING (BAKING SODA, MONOCALCIUM PHOSPHATE, SODIUM ALUMINUM PHOSPHATE), COLOR (RED 40), SALT, CELLULOSE GUM, GUAR GUM. POWDERED SUGAR INGREDIENTS: SUGAR, CORN STARCH." Date available: 08/21/2017 Date last updated by company: 08/21/2017
