Source: USDA Branded Food Products Database Release December 2017 Software v.3.8.6.4 2017-10-02
Report Run at: December 17, 2017 02:37 EST
"Nutrient data for: 45257136, DULCE DE LECHE CARAMEL SPREAD, UPC: 083322082824"
Food Group:  Branded Food Products Database
Common Name:

Nutrient,Unit,Data points,Std. Error,"1.07 ONZ = 50.0g",1Value per 100 g,
Proximates
"Energy",kcal,--,--,160,320
"Protein",g,--,--,3.00,6.00
"Total lipid (fat)",g,--,--,3.50,7.00
"Carbohydrate, by difference",g,--,--,28.00,56.00
"Fiber, total dietary",g,--,--,0.0,0.0
"Sugars, total",g,--,--,28.00,56.00
Minerals
"Calcium, Ca",mg,--,--,60,120
"Iron, Fe",mg,--,--,0.00,0.00
"Sodium, Na",mg,--,--,65,130
Vitamins
"Vitamin C, total ascorbic acid",mg,--,--,0.0,0.0
"Vitamin A, IU",IU,--,--,0,0
Lipids
"Fatty acids, total saturated",g,--,--,1.500,3.000
"Fatty acids, total trans",g,--,--,0.000,0.000
"Cholesterol",mg,--,--,10,20
Amino Acids
Other
Ingredients
"EVAPORATED MILK, SUGAR, SODIUM BICARBONATE, PRESERVATIVES (POTASSIUM SORBATE, SODIUM BENZOATE), DEFOAMING AGENT (DIMETHYLPOLYSILOXANE SIN 900A)" Date available: 01/12/2017 Date last updated by company: 01/12/2017
