Source: USDA Branded Food Products Database Release December 2017 Software v.3.8.6.4 2017-10-02
Report Run at: December 17, 2017 02:37 EST
"Nutrient data for: 45145248, DULCE REG LA MOLIENDA, PEANUT CANDY, UPC: 709434800353"
Food Group:  Branded Food Products Database
Common Name:

Nutrient,Unit,Data points,Std. Error,"1 ONZ = 28.3g",1Value per 100 g,
Proximates
"Energy",kcal,--,--,135,477
"Protein",g,--,--,3.00,10.60
"Total lipid (fat)",g,--,--,7.00,24.73
"Carbohydrate, by difference",g,--,--,15.00,53.00
"Fiber, total dietary",g,--,--,3.0,10.6
"Sugars, total",g,--,--,11.00,38.87
Minerals
"Calcium, Ca",mg,--,--,10,35
"Iron, Fe",mg,--,--,0.00,0.00
"Sodium, Na",mg,--,--,5,18
Vitamins
"Vitamin C, total ascorbic acid",mg,--,--,1.1,3.8
"Vitamin A, IU",IU,--,--,0,0
Lipids
"Fatty acids, total saturated",g,--,--,0.501,1.770
"Fatty acids, total trans",g,--,--,0.000,0.000
"Cholesterol",mg,--,--,0,0
Amino Acids
Other
Ingredients
"PEANUT, SUGAR, GLUCOSE" Date available: 07/14/2017 Date last updated by company: 07/14/2017
