Source: USDA Branded Food Products Database Release December 2017 Software v.3.8.6.4 2017-10-02
Report Run at: December 17, 2017 02:37 EST
"Nutrient data for: 45231969, DULCE DE LECHE ICE CREAM, UPC: 023627540940"
Food Group:  Branded Food Products Database
Common Name:

Nutrient,Unit,Data points,Std. Error,"0.5 cup = 68.0g",1Value per 100 g,
Proximates
"Energy",kcal,--,--,140,206
"Protein",g,--,--,2.00,2.94
"Total lipid (fat)",g,--,--,6.00,8.82
"Carbohydrate, by difference",g,--,--,20.00,29.41
"Fiber, total dietary",g,--,--,0.0,0.0
"Sugars, total",g,--,--,14.00,20.59
Minerals
"Calcium, Ca",mg,--,--,80,118
"Iron, Fe",mg,--,--,0.00,0.00
"Sodium, Na",mg,--,--,80,118
Vitamins
"Vitamin C, total ascorbic acid",mg,--,--,0.0,0.0
"Vitamin A, IU",IU,--,--,225,331
Lipids
"Fatty acids, total saturated",g,--,--,3.998,5.880
"Fatty acids, total trans",g,--,--,0.000,0.000
"Cholesterol",mg,--,--,25,37
Amino Acids
Other
Ingredients
"SKIM MILK, CREAM, CARAMEL SWIRL (CORN SYRUP, SWEETENED CONDENSED SKIM MILK [SKIM MILK, SUGAR], MODIFIED CORNSTARCH, BUTTER, SUGAR, SALT, SODIUM ALGINATE, NATURAL AND ARTIFICIAL FLAVORS, POTASSIUM SORBATE [PRESERVATIVE], MONO AND DIGLYCERIDES), CORN SYRUP, HIGH FRUCTOSE CORN SYRUP, CARAMEL FLAVORING (CORN SYRUP, SUGAR, WATER, NONFAT MILK, ANNATTO COLOR, MOLASSES, WHEY, BUTTER [CREAM, SALT], CARAMEL COLOR, VANILLA EXTRACT, NATURAL FLAVOR, SALT), SUGAR, WHEY, CONTAINS 2% OR LESS OF MONO- AND DIGLYCERIDES, GUAR GUM, CALCIUM SULFATE, LOCUST BEAN GUM, CARRAGEENAN." Date available: 07/14/2017 Date last updated by company: 07/14/2017
