Source: USDA Branded Food Products Database Release December 2017 Software v.3.8.6.4 2017-10-02
Report Run at: December 17, 2017 02:38 EST
"Nutrient data for: 45158840, DULCERIA RODRIGUEZ, SESAME, UPC: 464088411095"
Food Group:  Branded Food Products Database
Common Name:

Nutrient,Unit,Data points,Std. Error,"1 PIECES = 28.0g",1Value per 100 g,
Proximates
"Energy",kcal,--,--,152,543
"Protein",g,--,--,4.00,14.29
"Total lipid (fat)",g,--,--,9.00,32.14
"Carbohydrate, by difference",g,--,--,12.00,42.86
"Fiber, total dietary",g,--,--,0.0,0.0
"Sugars, total",g,--,--,5.00,17.86
Minerals
"Calcium, Ca",mg,--,--,310,1107
"Iron, Fe",mg,--,--,4.50,16.07
"Sodium, Na",mg,--,--,241,861
Vitamins
"Vitamin C, total ascorbic acid",mg,--,--,0.0,0.0
"Vitamin A, IU",IU,--,--,0,0
Lipids
"Fatty acids, total saturated",g,--,--,0.000,0.000
"Cholesterol",mg,--,--,0,0
Amino Acids
Other
Ingredients
"SESAME, SUGAR AND CITRIC ACID." Date available: 07/14/2017 Date last updated by company: 07/14/2017
