Source: USDA Branded Food Products Database Release December 2017 Software v.3.8.6.4 2017-10-02
Report Run at: December 17, 2017 02:40 EST
"Nutrient data for: 45121937, DUNCAN HINES, CLASSIC DARK CHOCOLATE FUDGE CAKE MIX, UPC: 644209411108"
Food Group:  Branded Food Products Database
Common Name:

Nutrient,Unit,Data points,Std. Error,"0.0833 PACKAGE = 39.0g",1Value per 100 g,
Proximates
"Energy",kcal,--,--,160,410
"Protein",g,--,--,2.00,5.13
"Total lipid (fat)",g,--,--,4.00,10.26
"Carbohydrate, by difference",g,--,--,28.00,71.79
"Fiber, total dietary",g,--,--,1.0,2.6
"Sugars, total",g,--,--,17.00,43.59
Minerals
"Calcium, Ca",mg,--,--,60,154
"Iron, Fe",mg,--,--,2.77,7.10
"Sodium, Na",mg,--,--,420,1077
Vitamins
"Vitamin C, total ascorbic acid",mg,--,--,0.0,0.0
"Vitamin A, IU",IU,--,--,0,0
Lipids
"Fatty acids, total saturated",g,--,--,1.502,3.850
"Fatty acids, total monounsaturated",g,--,--,0.998,2.560
"Fatty acids, total polyunsaturated",g,--,--,0.998,2.560
"Fatty acids, total trans",g,--,--,0.000,0.000
"Cholesterol",mg,--,--,0,0
Amino Acids
Other
Ingredients
"SUGAR, ENRICHED BLEACHED WHEAT FLOUR (FLOUR, NIACIN, REDUCED IRON, THIAMINE MONONITRATE, RIBOFLAVIN, FOLIC ACID), VEGETABLE OIL SHORTENING (PARTIALLY HYDROGENATED SOYBEAN OIL, PROPYLENE GLYCOL MONO- AND DIESTERS OF FATS, MONO- AND DIGLYCEERIDES), COCOA POWDER PROCESSED WITH ALKALI, DEXTROSE, LEAVENING (SODIUM BICARBONATE, DICALCIUM PHOSPHATE, SODIUM ALUMINUM PHOSPHATE, MONOCALCIUM PHOSPHATE). CONTAINS 2% OR LESS OF: WHEAT STARCH, SALT, CELLULOSE GUM, XANTHAN GUM." Date available: 07/14/2017 Date last updated by company: 07/14/2017
