Source: USDA Branded Food Products Database Release December 2017 Software v.3.8.6.4 2017-10-02
Report Run at: December 17, 2017 02:39 EST
"Nutrient data for: 45122400, DUNCAN HINES, BROWNIE MIX, CHEWY FUDGE BROWNIES, UPC: 644209311316"
Food Group:  Branded Food Products Database
Common Name:

Nutrient,Unit,Data points,Std. Error,"0.05 PACKAGE = 26.0g",1Value per 100 g,
Proximates
"Energy",kcal,--,--,100,385
"Protein",g,--,--,1.00,3.85
"Total lipid (fat)",g,--,--,1.50,5.77
"Carbohydrate, by difference",g,--,--,22.00,84.62
"Fiber, total dietary",g,--,--,1.0,3.8
"Sugars, total",g,--,--,15.00,57.69
Minerals
"Calcium, Ca",mg,--,--,0,0
"Iron, Fe",mg,--,--,1.11,4.26
"Sodium, Na",mg,--,--,90,346
Vitamins
"Vitamin C, total ascorbic acid",mg,--,--,0.0,0.0
"Vitamin A, IU",IU,--,--,0,0
Lipids
"Fatty acids, total saturated",g,--,--,0.499,1.920
"Fatty acids, total monounsaturated",g,--,--,0.000,0.000
"Fatty acids, total polyunsaturated",g,--,--,0.000,0.000
"Fatty acids, total trans",g,--,--,0.000,0.000
"Cholesterol",mg,--,--,0,0
Amino Acids
Other
Ingredients
"SUGAR, ENRICHED BLEACHED WHEAT FLOUR (FLOUR, NIACIN, REDUCED IRON, THIAMINE MONONITRATE, RIBOFLAVIN, FOLIC ACID), COCOA POWDER PROCESSED WITH ALKALI, VEGETABLE SHORTENING (PALM OIL AND/OR PARTIALLY HYDROGENATED SOYBEAN OIL). CONTAINS 2% OR LESS OF: WHEAT STARCH, DEXTROSE, SALT, ARTIFICIAL FLAVOR, CARRAGEENAN, LEAVENING (SODIUM BICARBONATE)." Date available: 07/14/2017 Date last updated by company: 07/14/2017
