Source: USDA Branded Food Products Database Release December 2017 Software v.3.8.6.4 2017-10-02
Report Run at: December 17, 2017 02:41 EST
"Nutrient data for: 45122798, DUNCAN HINES, DECADENT BROWNIE MIX, IRISH CREAM, UPC: 644209414932"
Food Group:  Branded Food Products Database
Common Name:

Nutrient,Unit,Data points,Std. Error,"0.062 PACKAGE = 31.0g",1Value per 100 g,
Proximates
"Energy",kcal,--,--,120,387
"Protein",g,--,--,1.00,3.23
"Total lipid (fat)",g,--,--,2.00,6.45
"Carbohydrate, by difference",g,--,--,25.00,80.65
"Fiber, total dietary",g,--,--,1.0,3.2
"Sugars, total",g,--,--,18.00,58.06
Minerals
"Calcium, Ca",mg,--,--,0,0
"Iron, Fe",mg,--,--,0.93,3.00
"Sodium, Na",mg,--,--,100,323
Vitamins
"Vitamin C, total ascorbic acid",mg,--,--,0.0,0.0
"Vitamin A, IU",IU,--,--,0,0
Lipids
"Fatty acids, total saturated",g,--,--,0.499,1.610
"Fatty acids, total monounsaturated",g,--,--,0.499,1.610
"Fatty acids, total polyunsaturated",g,--,--,0.000,0.000
"Fatty acids, total trans",g,--,--,0.499,1.610
"Cholesterol",mg,--,--,0,0
Amino Acids
Other
Ingredients
"BROWNIE MIX (SUGAR, ENRICHED BLEACHED WHEAT FLOUR (FLOUR, NIACIN, REDUCED IRON, THIAMINE MONONITRATE, RIBOFLAVIN, FOLIC ACID), COCOA POWDER PROCESSED WITH ALKALI, VEGETABLE OIL SHORTENING (PARTIALLY HYDROGENATED SOYBEAN OIL), WHEAT STARCH, DEXTROSE, SALT, ARTIFICIAL FLAVOR, CARRAGEENAN, LEAVENING (SODIUM BICARBONATE), IRISH CREAM FLAVORED TOPPING (SUGAR, WATER, DEXTROSE, CORN SYRUP, MODIFIED CORN STARCH, NATURAL AND ARTIFICIAL FLAVORS, LACTIC ACID, GELLAN GUM (SODIUM CITRATE, SUGAR, GELLAN GUM), CARAMEL COLOR, TITANIUM DIOXIDE (COLOR), SALT, XANTHAN GUM, RED #40 AND BLUE #1)." Date available: 06/25/2017 Date last updated by company: 06/25/2017
