Source: USDA Branded Food Products Database Release December 2017 Software v.3.8.6.4 2017-10-02
Report Run at: December 17, 2017 02:44 EST
"Nutrient data for: 45322984, DUOZ BAKED SNACK CRACKERS, UPC: 024100788958"
Food Group:  Branded Food Products Database
Common Name:

Nutrient,Unit,Data points,Std. Error,"25.0 CRACKERS = 30.0g",1Value per 100 g,
Proximates
"Energy",kcal,--,--,150,500
"Protein",g,--,--,3.00,10.00
"Total lipid (fat)",g,--,--,7.00,23.33
"Carbohydrate, by difference",g,--,--,18.00,60.00
"Fiber, total dietary",g,--,--,1.0,3.3
"Sugars, total",g,--,--,0.00,0.00
Minerals
"Calcium, Ca",mg,--,--,20,67
"Iron, Fe",mg,--,--,1.20,4.00
"Potassium, K",mg,--,--,30,100
"Sodium, Na",mg,--,--,260,867
Vitamins
"Vitamin D",IU,--,--,0,0
Lipids
"Fatty acids, total saturated",g,--,--,1.500,5.000
"Fatty acids, total monounsaturated",g,--,--,2.001,6.670
"Fatty acids, total polyunsaturated",g,--,--,3.501,11.670
"Fatty acids, total trans",g,--,--,0.000,0.000
"Cholesterol",mg,--,--,0,0
Amino Acids
Other
Ingredients
"ENRICHED FLOUR (WHEAT FLOUR, NIACIN, REDUCED IRON, VITAMIN B1 [THIAMIN MONONITRATE], VITAMIN B2 [RIBOFLAVIN], FOLIC ACID), VEGETABLE OIL (SOYBEAN AND PALM OIL WITH TBHQ FOR FRESHNESS), CHEESE MADE WITH SKIM MILK (SKIM MILK, WHEY PROTEIN, CHEESE CULTURES, SALT, ENZYMES, ANNATTO EXTRACT COLOR). CONTAINS 2% OR LESS OF WHITE CHEDDAR CHEESE (MILK, CHEESE CULTURES, SALT, ENZYMES), SALT, WHEY, BUTTERMILK, PAPRIKA, CHEDDAR AND MONTEREY JACK CHEESE (MILK, CHEESE CULTURES, SALT, ENZYMES), PARMESAN CHEESE (PART-SKIM MILK, CHEESE CULTURES, SALT, ENZYMES), MONOSODIUM GLUTAMATE, GARLIC POWDER, YEAST, TOMATO POWDER, CORN SYRUP SOLIDS, SUGAR, ONION POWDER, NATURAL AND ARTIFICIAL FLAVORS, BAKING SODA, CITRIC ACID, ANNATTO EXTRACT COLOR, DRIED PARSLEY, DISODIUM INOSINATE, DISODIUM GUANYLATE, PAPRIKA EXTRACT COLOR, AUTOLYZED YEAST EXTRACT, SPICE EXTRACT, MALIC ACID, SPICES, TURMERIC EXTRACT COLOR, YELLOW 5, YELLOW 6, SOY LECITHIN." Date available: 09/25/2017 Date last updated by company: 09/25/2017
