Source: USDA Branded Food Products Database Release December 2017 Software v.3.8.6.4 2017-10-02
Report Run at: December 17, 2017 02:49 EST
"Nutrient data for: 45159060, DUTCH VALLEY FOOD DISTRIBUTORS, MINI DARK CHOCOLATE BUCKEYES, PEANUT BUTTER, UPC: 877245006070"
Food Group:  Branded Food Products Database
Common Name:

Nutrient,Unit,Data points,Std. Error,"40.0 GRM = 40.0g",1Value per 100 g,
Proximates
"Energy",kcal,--,--,220,550
"Protein",g,--,--,3.00,7.50
"Total lipid (fat)",g,--,--,13.00,32.50
"Carbohydrate, by difference",g,--,--,23.00,57.50
"Sugars, total",g,--,--,20.00,50.00
Minerals
"Sodium, Na",mg,--,--,50,125
Vitamins
Lipids
"Fatty acids, total trans",g,--,--,0.000,0.000
Amino Acids
Other
Ingredients
"SUGAR, PALM KERNEL OIL, COCOA PROCESSED WITH ALKALI, PARTIALLY DEFATTED PEANUT FLOUR, NONFAT MILK, PEANUT BUTTER (PEANUTS, SALT, PARTIALLY HYDROGENATED PALM OIL), HYDROGENATED PALM OIL, SALT, SOY LECITHIN (AN EMULSIFIER), VANILLIN (AN ARTIFICIAL FLAVOR), NATURAL FLAVOR, TBHQ AND CITRIC ACID ADDED TO PROTECT FRESHNESS." Date available: 10/13/2017 Date last updated by company: 10/13/2017
