Source: USDA Branded Food Products Database Release December 2017 Software v.3.8.6.4 2017-10-02
Report Run at: December 17, 2017 02:47 EST
"Nutrient data for: 45316755, DUTCH APPLE PIE, UPC: 072714003936"
Food Group:  Branded Food Products Database
Common Name:

Nutrient,Unit,Data points,Std. Error,"0.16 PIE = 113.0g",1Value per 100 g,
Proximates
"Energy",kcal,--,--,350,310
"Protein",g,--,--,2.99,2.65
"Total lipid (fat)",g,--,--,18.00,15.93
"Carbohydrate, by difference",g,--,--,45.00,39.82
"Fiber, total dietary",g,--,--,2.0,1.8
"Sugars, total",g,--,--,22.00,19.47
Minerals
"Calcium, Ca",mg,--,--,0,0
"Iron, Fe",mg,--,--,1.20,1.06
"Sodium, Na",mg,--,--,180,159
Vitamins
"Vitamin C, total ascorbic acid",mg,--,--,1.4,1.2
"Vitamin A, IU",IU,--,--,0,0
Lipids
"Fatty acids, total saturated",g,--,--,6.995,6.190
"Fatty acids, total trans",g,--,--,0.000,0.000
"Cholesterol",mg,--,--,0,0
Amino Acids
Other
Ingredients
"APPLES, ENRICHED FLOUR (WHEAT FLOUR, NIACIN, REDUCED IRON, THIAMINE MONONITRATE, RIBOFLAVIN, FOLIC ACID), VEGETABLE OIL SHORTENING (MODIFIED PALM OIL, SOYBEAN OIL), SUGAR, WATER, MARGARINE (SOYBEAN OIL, MODIFIED PALM OIL, CANOLA OIL, WATER, WHEY, SOY LECITHIN, MONOGLYCERIDES, NATURAL FLAVOR, BETA-CAROTENE [COLOR], VITAMIN A PALMITATE, CITRIC ACID [PRESERVATIVE], VITAMIN D3), BROWN SUGAR, ROLLED OATS. CONTAINS 2% OR LESS OF DEXTROSE, FOOD STARCH MODIFIED, NATURAL AND ARTIFICIAL FLAVOR, SALT, SODIUM PROPIONATE AND POTASSIUM SORBATE (PRESERVATIVES), SPICES." Date available: 07/14/2017 Date last updated by company: 07/14/2017
