Source: USDA Branded Food Products Database Release December 2017 Software v.3.8.6.4 2017-10-02
Report Run at: December 17, 2017 02:51 EST
"Nutrient data for: 45284993, EARL GREY VANILLA, UPC: 897530000309"
Food Group:  Branded Food Products Database
Common Name:

Nutrient,Unit,Data points,Std. Error,"8.0 ONZ = 240.0g",1Value per 100 g,
Proximates
"Energy",kcal,--,--,79,33
"Protein",g,--,--,1.99,0.83
"Total lipid (fat)",g,--,--,1.01,0.42
"Carbohydrate, by difference",g,--,--,16.01,6.67
"Sugars, total",g,--,--,16.01,6.67
Minerals
"Calcium, Ca",mg,--,--,156,65
"Sodium, Na",mg,--,--,26,11
Vitamins
Lipids
"Fatty acids, total saturated",g,--,--,1.008,0.420
"Fatty acids, total trans",g,--,--,0.000,0.000
"Cholesterol",mg,--,--,5,2
Amino Acids
Other
Ingredients
"FRESH-BREWED LOOSE LEAF EARL GREY CREME TEA (WATER, CHINESE BLACK TEA) NATURAL VANILLA FLAVOR, CORNFLOWER PETALS, NATURAL CREAM FLAVOR, OIL OF BERGAMOT, 2% MILK, FAIR TRADE PURE CANE SUGAR, NATURAL VANILLA FLAVOR, LEMON JUICE CONCENTRATE, DIPOTASSIUM PHOSPHATE (NATURAL EMULSIFIER)." Date available: 07/14/2017 Date last updated by company: 07/14/2017
