Source: USDA Branded Food Products Database Release December 2017 Software v.3.8.6.4 2017-10-02
Report Run at: December 17, 2017 02:57 EST
"Nutrient data for: 45206267, EARTH SPICY TINGLY SAUTE & FINISHING SAUCE, UPC: 866449000120"
Food Group:  Branded Food Products Database
Common Name:

Nutrient,Unit,Data points,Std. Error,"1 Tbsp = 18.0g",1Value per 100 g,
Proximates
"Energy",kcal,--,--,30,167
"Protein",g,--,--,1.00,5.56
"Total lipid (fat)",g,--,--,1.50,8.33
"Carbohydrate, by difference",g,--,--,3.00,16.67
"Fiber, total dietary",g,--,--,0.0,0.0
"Sugars, total",g,--,--,2.00,11.11
Minerals
"Calcium, Ca",mg,--,--,20,111
"Iron, Fe",mg,--,--,1.22,6.76
"Sodium, Na",mg,--,--,300,1667
Vitamins
"Vitamin C, total ascorbic acid",mg,--,--,8.1,45.1
"Vitamin A, IU",IU,--,--,0,0
Lipids
"Fatty acids, total saturated",g,--,--,0.000,0.000
"Fatty acids, total trans",g,--,--,0.000,0.000
"Cholesterol",mg,--,--,0,0
Amino Acids
Other
Ingredients
"WATER, PREMIUM SOY SAUCE (WATER, SOYBEAN, SALT, WHEAT FLOUR), FERMENTED SOYBEAN (WATER, SOYBEAN RICE, SALT, ALCOHOL), GARLIC, ONION, GINGER, RICE VINEGAR, TAMARIND PUREE, GREEN BELL PEPPER, SESAME OIL, ORGANIC EVAPORATED CANE JUICE, RICE WINE (RICE WINE, SALT). NON-GMO EXPELLER PRESSED CANOLA OIL, ORGANIC CORN STARCH, ALL NATURAL UNSULPHURED BLACKSTRAP MOLASSES, CUMIN, CHILI FLAKE, TOASTED SESAME SEED, SEA SALT, NATURAL SICHUAN EXTRACT, CARDAMOM, CORIANDER, FIVE SPICE (ANISE, FENNEL, CINNAMON, CLOVE, BLACK PEPPERCORN)" Date available: 07/14/2017 Date last updated by company: 07/14/2017
