Source: USDA Branded Food Products Database Release December 2017 Software v.3.8.6.4 2017-10-02
Report Run at: December 17, 2017 02:54 EST
"Nutrient data for: 45111105, EARTHBOUND FARM ORGANIC, ORGANIC KIT GARDEN PARTY SALAD, UPC: 032601089337"
Food Group:  Branded Food Products Database
Common Name:

Nutrient,Unit,Data points,Std. Error,"2.0 CUPS = 100.0g",1Value per 100 g,
Proximates
"Energy",kcal,--,--,130,130
"Protein",g,--,--,5.00,5.00
"Total lipid (fat)",g,--,--,6.00,6.00
"Carbohydrate, by difference",g,--,--,16.00,16.00
"Fiber, total dietary",g,--,--,2.0,2.0
"Sugars, total",g,--,--,10.00,10.00
Minerals
"Calcium, Ca",mg,--,--,100,100
"Iron, Fe",mg,--,--,2.52,2.52
"Sodium, Na",mg,--,--,290,290
Vitamins
"Vitamin C, total ascorbic acid",mg,--,--,25.2,25.2
"Vitamin A, IU",IU,--,--,4200,4200
Lipids
"Fatty acids, total saturated",g,--,--,1.500,1.500
"Fatty acids, total trans",g,--,--,0.000,0.000
"Cholesterol",mg,--,--,5,5
Amino Acids
Other
Ingredients
"SALAD: ORGANIC BABY LETTUCES (RED & GREEN ROMAINE, RED & GREEN OAK LEAF, RED LEAF, LOLLO ROSA, TANGO, BUTTER LETTUCE) ORGANIC RED & GREEN CHARD, ORGANIC MIZUNA, ORGANIC ARUGULA, ORGANIC RADICCHIO, ORGANIC BABY SPINACH, ORGANIC PAK-CHOI, ORGANIC KOMATSUNA, ORGANIC BABY KALE, ORGANIC BABY TATSOI, ORGANIC BABY MUSTARD, ORGANIC BABY TATSOI, ORGANIC BABY MUSTARD, ORGANIC BABY COLLARD, THE INGREDIENTS IN EACH PACKAGE MAY VARY. CHEESE: ORGANIC FETA CHEESE (PASTEURIZED ORGANIC MILK, SALT, CHEESE CULTURE, ENZYMES), ORGANIC POTATO STARCH (TO PREVENT CAKING). TOPPING: ORGANIC ROASTED SUNFLOWER KERNELS, ORGANIC DRIED CRANBERRIES (ORGANIC CRANBERRIES, ORGANIC SUGAR, ORGANIC SUNFLOWER OIL), ORGANIC WILD DRIED BLUEBERRIES (ORGANIC WILD BLUEBERRIES, ORGANIC DRIED CANE SYRUP, ORGANIC SUNFLOWER OIL). DRESSING: WATER, ORGANIC EVAPORATED CANE JUICE, ORGANIC RED WINE, VINEGAR, ORGANIC EXPELLER PRESSED SOY OIL ORGANIC RASPBERRY JUICE CONCENTRATE, ORGANIC BALSAMIC VINEGAR (ORGANIC GRAPE MUST, ORGANIC WINE VINEGAR), ORGANIC WHITE WINE, ORGANIC APPLE JUICE CONCENTRATE SALT, NATURAL FLAVOR, ORGANIC PARMESAN CHEESE (PASTEURIZED ORGANIC COW'S MILK, SALT, CHEESE CULTURE, ENZYMES), COLD PRESSED ORGANIC OLIVE OIL, ORGANIC DIJON MUSTARD (ORGANIC APPLE CIDER VINEGAR, WATER,ORGANIC MUSTARD SEED, SALT, ORGANIC SPICES), ORGANIC ONION, XANTHAN GUM, ORGANIC BASIL, ORGANIC DEHYDRATED GARLIC, ORGANIC SPICES, ORGANIC LEMON JUICE CONCENTRATE, ORGANIC DEHYDRATED RED BELL PEPPER." Date available: 07/14/2017 Date last updated by company: 07/14/2017
