Source: USDA Branded Food Products Database Release December 2017 Software v.3.8.6.4 2017-10-02
Report Run at: December 17, 2017 02:56 EST
"Nutrient data for: 45026504, EARTH'S BEST, BAKED CHICKEN NUGGETS, UPC: 023923206212"
Food Group:  Branded Food Products Database
Common Name:

Nutrient,Unit,Data points,Std. Error,"56.0 g = 56.0g",1Value per 100 g,
Proximates
"Energy",kcal,--,--,120,214
"Protein",g,--,--,11.00,19.64
"Total lipid (fat)",g,--,--,3.00,5.36
"Carbohydrate, by difference",g,--,--,10.00,17.86
"Fiber, total dietary",g,--,--,1.0,1.8
"Sugars, total",g,--,--,1.00,1.79
Minerals
"Calcium, Ca",mg,--,--,20,36
"Iron, Fe",mg,--,--,1.08,1.93
"Phosphorus, P",mg,--,--,200,357
"Potassium, K",mg,--,--,130,232
"Sodium, Na",mg,--,--,270,482
Vitamins
"Vitamin C, total ascorbic acid",mg,--,--,0.0,0.0
"Thiamin",mg,--,--,1.680,3.000
"Niacin",mg,--,--,10.000,17.857
"Vitamin B-6",mg,--,--,0.500,0.893
"Vitamin A, IU",IU,--,--,0,0
Lipids
"Fatty acids, total saturated",g,--,--,0.00,0.00
"Fatty acids, total trans",g,--,--,0.00,0.00
"Cholesterol",mg,--,--,25,45
Amino Acids
Other
Ingredients
"CHICKEN MEAT, WATER, CONTAINS LESS THAN 2% OF THE FOLLOWING: EVAPORATED CANE JUICE, GARLIC POWDER, ONION POWDER, RICE STARCH, SEA SALT, SPICE. BATTERED & BREADED WITH: WHOLE WHEAT FLOUR, WATER, WHEAT FLOUR, CORN STARCH, EVAPORATED CANE JUICE, SEA SALT, LEAVENING (BAKING SODA, CREAM OF TARTAR), GARLIC POWDER, YELLOW CORN FLOUR, YEAST, ONION POWDER, SPICE, SUNFLOWER OIL, EXTRACTIVE OF TURMERIC, BREADING SET IN EXPELLER PRESSED CANOLA OIL AND/OR SOYBEAN OIL AND/OR SAFFLOWER OIL." Date last updated by company: 06/19/2015
