Source: USDA Branded Food Products Database Release December 2017 Software v.3.8.6.4 2017-10-02
Report Run at: December 17, 2017 02:57 EST
"Nutrient data for: 45223540, EARTH'S BEST, STUFFED PRETZELS FOR KIDS, MOZZARELLA CHEESE, PIZZA SAUCE, UPC: 023923206717"
Food Group:  Branded Food Products Database
Common Name:

Nutrient,Unit,Data points,Std. Error,"2.0 PRETZEL STICKS = 50.0g",1Value per 100 g,
Proximates
"Energy",kcal,--,--,110,220
"Protein",g,--,--,4.00,8.00
"Total lipid (fat)",g,--,--,2.50,5.00
"Carbohydrate, by difference",g,--,--,19.00,38.00
"Fiber, total dietary",g,--,--,2.0,4.0
"Sugars, total",g,--,--,1.00,2.00
Minerals
"Calcium, Ca",mg,--,--,40,80
"Iron, Fe",mg,--,--,2.81,5.62
"Sodium, Na",mg,--,--,290,580
Vitamins
"Vitamin C, total ascorbic acid",mg,--,--,9.3,18.7
"Vitamin A, IU",IU,--,--,780,1560
Lipids
"Fatty acids, total saturated",g,--,--,0.500,1.000
"Fatty acids, total trans",g,--,--,0.000,0.000
"Cholesterol",mg,--,--,5,10
Amino Acids
Other
Ingredients
"ORGANIC WHOLE WHEAT FLOUR, ORGANIC WHEAT FLOUR, ORGANIC TOMATO SAUCE (ORGANIC TOMATOES, SEA SALT, ORGANIC SPICE, ORGANIC ONION POWDER, ORGANIC GARLIC POWDER, CITRIC ACID), ORGANIC MOZZARELLA CHEESE FILLING (ORGANIC PASTEURIZED MOZZARELLA CHEESE [ORGANIC CULTURED PASTEURIZED MILK, SALT, VEGETARIAN ENZYMES], ORGANIC CREAM CHEESE [ORGANIC PASTEURIZED MILK, CULTURE, SALT, ORGANIC CAROB BEAN GUM], ORGANIC POTATO FLOUR, WATER, ORGANIC EVAPORATED CANE SYRUP, SEA SALT, ORGANIC GUAR & ORGANIC CAROB BEAN GUMS, ORGANIC MILK, NATURAL FLAVOR, LACTIC ACID), ORGANIC CANOLA OIL, ORGANIC YEAST, INVERT CANE SYRUP, ORGANIC CORN STARCH, SALT, ASCORBIC ACID, ENZYMES, ORGANIC SPICES, BICARBONATES AND CARBONATES OF SODIUM." Date available: 09/26/2017 Date last updated by company: 09/26/2017
