Source: USDA Branded Food Products Database Release December 2017 Software v.3.8.6.4 2017-10-02
Report Run at: December 17, 2017 02:55 EST
"Nutrient data for: 45110241, EARTHBOUND FARM ORGANIC, ORGANIC SMOOTHIE KICKSTART, KALE BERRY, UPC: 032601025700"
Food Group:  Branded Food Products Database
Common Name:

Nutrient,Unit,Data points,Std. Error,"113.0 g = 113.0g",1Value per 100 g,
Proximates
"Energy",kcal,--,--,40,35
"Protein",g,--,--,0.99,0.88
"Total lipid (fat)",g,--,--,0.00,0.00
"Carbohydrate, by difference",g,--,--,8.99,7.96
"Fiber, total dietary",g,--,--,3.1,2.7
"Sugars, total",g,--,--,4.99,4.42
Minerals
"Calcium, Ca",mg,--,--,60,53
"Iron, Fe",mg,--,--,0.89,0.79
"Sodium, Na",mg,--,--,10,9
Vitamins
"Vitamin C, total ascorbic acid",mg,--,--,37.2,32.9
"Vitamin A, IU",IU,--,--,3717,3289
Lipids
"Fatty acids, total saturated",g,--,--,0.000,0.000
"Fatty acids, total trans",g,--,--,0.000,0.000
"Cholesterol",mg,--,--,0,0
Amino Acids
Other
Ingredients
"ORGANIC KALE, ORGANIC BLUEBERRIES, ORGANIC STRAWBERRIES." Date available: 06/25/2017 Date last updated by company: 06/25/2017
