Source: USDA Branded Food Products Database Release December 2017 Software v.3.8.6.4 2017-10-02
Report Run at: December 17, 2017 03:56 EST
"Nutrient data for: 45223611, EATSMART SNACKS, GARDEN VEGGIE CRISPS, SEA SALT,TOMATO, POTATO, SPINACH, UPC: 077975092576"
Food Group:  Branded Food Products Database
Common Name:

Nutrient,Unit,Data points,Std. Error,"21.0 CHIPS | ABOUT = 30.0g",1Value per 100 g,
Proximates
"Energy",kcal,--,--,140,467
"Protein",g,--,--,3.00,10.00
"Total lipid (fat)",g,--,--,6.00,20.00
"Carbohydrate, by difference",g,--,--,19.00,63.33
"Fiber, total dietary",g,--,--,1.0,3.3
"Sugars, total",g,--,--,1.00,3.33
Minerals
"Calcium, Ca",mg,--,--,0,0
"Iron, Fe",mg,--,--,0.60,2.00
"Potassium, K",mg,--,--,330,1100
"Sodium, Na",mg,--,--,270,900
Vitamins
"Vitamin C, total ascorbic acid",mg,--,--,0.0,0.0
"Vitamin A, IU",IU,--,--,0,0
Lipids
"Fatty acids, total saturated",g,--,--,0.501,1.670
"Fatty acids, total monounsaturated",g,--,--,4.500,15.000
"Fatty acids, total polyunsaturated",g,--,--,0.000,0.000
"Fatty acids, total trans",g,--,--,0.000,0.000
"Cholesterol",mg,--,--,0,0
Amino Acids
Other
Ingredients
"POTATO FLOUR, POTATO STARCH, EXPELLER PRESSED SUNFLOWER OIL, SALT, TOMATO PASTE, SEA SALT, SPINACH POWDER, POTASSIUM CHLORIDE, TURMERIC, BEET POWDER." Date available: 07/14/2017 Date last updated by company: 07/14/2017
