Source: USDA Branded Food Products Database Release December 2017 Software v.3.8.6.4 2017-10-02
Report Run at: December 17, 2017 04:02 EST
"Nutrient data for: 45043560, ECKRICH, OLIVE LOAF, UPC: 027815001190"
Food Group:  Branded Food Products Database
Common Name:

Nutrient,Unit,Data points,Std. Error,"1 SLICE = 28.0g",1Value per 100 g,
Proximates
"Energy",kcal,--,--,70,250
"Protein",g,--,--,3.00,10.71
"Total lipid (fat)",g,--,--,5.00,17.86
"Carbohydrate, by difference",g,--,--,4.00,14.29
"Fiber, total dietary",g,--,--,0.0,0.0
"Sugars, total",g,--,--,2.00,7.14
Minerals
"Calcium, Ca",mg,--,--,40,143
"Iron, Fe",mg,--,--,0.71,2.53
"Sodium, Na",mg,--,--,300,1071
Vitamins
"Vitamin C, total ascorbic acid",mg,--,--,0.0,0.0
"Vitamin A, IU",IU,--,--,0,0
Lipids
"Fatty acids, total saturated",g,--,--,1.999,7.140
"Fatty acids, total trans",g,--,--,0.000,0.000
"Cholesterol",mg,--,--,15,54
Amino Acids
Other
Ingredients
"MECHANICALLY SEPARATED CHICKEN, WATER, PORK, OLIVES (OLIVES STUFFED WITH MINCED PIMENTO [CONTAINS SODIUM ALGINATE, GUAR GUM, CALCIUM CHLORIDE], WATER, SALT, LACTIC ACID), NONFAT DRY MILK, MODIFIED FOOD STARCH, SWEET RED PEPPERS, CORN SYRUP, SALT, CONTAINS 2% OR LESS OF BEEF, AUTOLYZED YEAST EXTRACT, DEXTROSE, FLAVORINGS, POTASSIUM LACTATE, SODIUM DIACETATE, SODIUM LACTATE, SODIUM NITRITE, SODIUM PHOSPHATES, VITAMIN C (ASCORBIC ACID)." Date available: 08/31/2017 Date last updated by company: 08/31/2017
