Source: USDA Branded Food Products Database Release December 2017 Software v.3.8.6.4 2017-10-02
Report Run at: December 17, 2017 04:03 EST
"Nutrient data for: 45052346, ECLAIR BARS, UPC: 041497010400"
Food Group:  Branded Food Products Database
Common Name:

Nutrient,Unit,Data points,Std. Error,"1 BAR = 73.0g",1Value per 100 g,
Proximates
"Energy",kcal,--,--,180,247
"Protein",g,--,--,2.00,2.74
"Total lipid (fat)",g,--,--,9.00,12.33
"Carbohydrate, by difference",g,--,--,21.00,28.77
"Fiber, total dietary",g,--,--,0.0,0.0
"Sugars, total",g,--,--,17.00,23.29
Minerals
"Calcium, Ca",mg,--,--,40,55
"Iron, Fe",mg,--,--,0.00,0.00
"Sodium, Na",mg,--,--,60,82
Vitamins
"Vitamin C, total ascorbic acid",mg,--,--,0.0,0.0
"Vitamin A, IU",IU,--,--,0,0
Lipids
"Fatty acids, total saturated",g,--,--,3.000,4.110
"Fatty acids, total trans",g,--,--,0.000,0.000
"Cholesterol",mg,--,--,5,7
Amino Acids
Other
Ingredients
"ICE CREAM: MILKFAT AND NONFAT MILK, HIGH FRUCTOSE CORN SYRUP, CORN SYRUP, BUTTERMILK, SUGAR, WHEY, MONO- AND DIGLYCERIDES, GUAR GUM, XANTHAN GUM, POLYSORBATE 80, ARTIFICIAL FLAVOR, LOCUST BEAN GUM, CARRAGEENAN. STRAWBERRY CORE: WATER, CORN SYRUP, SUGAR, BUTTERMILK, NATURAL FLAVOR, CITRIC ACID, GUAR GUM, LOCUST BEAN GUM, SOY LECITHIN, ARTIFICIAL COLOR (BLUE #1, RED #3, RED #40). COATING: SOYBEAN OIL, COCONUT OIL, SOY LECITHIN. CRUNCH: BLEACHED WHEAT FLOUR, SUGAR, PALM OIL, SALT, BAKING SODA, ARTIFICIAL FLAVOR, SOY LECITHIN, ARTIFICIAL COLOR (RED #3)." Date available: 06/25/2017 Date last updated by company: 06/25/2017
