Source: USDA Branded Food Products Database Release December 2017 Software v.3.8.6.4 2017-10-02
Report Run at: December 17, 2017 04:04 EST
"Nutrient data for: 45332369, ECLECTIC INSTITUTE, WHOLE FOOD POWDER, WATERMELONADE, UPC: 023363379385"
Food Group:  Branded Food Products Database
Common Name:

Nutrient,Unit,Data points,Std. Error,"2.0 tsp = 3.0g",1Value per 100 g,
Proximates
"Energy",kcal,--,--,10,333
"Fiber, total dietary",g,--,--,1.0,33.3
"Sugars, total",g,--,--,2.00,66.67
Minerals
Vitamins
"Vitamin C, total ascorbic acid",mg,--,--,2.0,66.7
Lipids
Amino Acids
Other
Ingredients
"RAW, FREEZE-DRIED: ORGANIC WATERMELON WHOLE FRUIT (CITRULLUS LANATUS) 1800 MG, ORGANIC LEMON WHOLE FRUIT (CITRUS LIMON), 690 MG, ORGANIC CUCUMBER WHOLE FRUIT (CUCUMIS SATIVUS) 510 MG." Date available: 07/14/2017 Date last updated by company: 07/14/2017
