Source: USDA Branded Food Products Database Release December 2017 Software v.3.8.6.4 2017-10-02
Report Run at: December 17, 2017 04:05 EST
"Nutrient data for: 45103025, ECOTEAS, YERBA MATE UNSMOKED HERBAL TEA SUPPLEMENT, UPC: 819162004555"
Food Group:  Branded Food Products Database
Common Name:

Nutrient,Unit,Data points,Std. Error,"8.0 fl oz = 2.0g",1Value per 100 g,
Proximates
"Energy",kcal,--,--,5,250
Minerals
Vitamins
Lipids
Amino Acids
Other
"Caffeine",mg,--,--,20,1000
"Theobromine",mg,--,--,2,120
Ingredients
"YERBA MATE UNSMOKED." Date available: 03/22/2017 Date last updated by company: 03/22/2017
