Source: USDA Branded Food Products Database Release December 2017 Software v.3.8.6.4 2017-10-02
Report Run at: December 17, 2017 04:25 EST
"Nutrient data for: 45027453, ED HIPP'S, PREMIUM BEEF SMOKED MILD SAUSAGE, MILD, UPC: 040224800246"
Food Group:  Branded Food Products Database
Common Name:

Nutrient,Unit,Data points,Std. Error,"1 UNIT = 90.0g",1Value per 100 g,
Proximates
"Energy",kcal,--,--,230,256
"Protein",g,--,--,12.00,13.33
"Total lipid (fat)",g,--,--,19.00,21.11
"Carbohydrate, by difference",g,--,--,2.00,2.22
"Fiber, total dietary",g,--,--,0.0,0.0
"Sugars, total",g,--,--,1.00,1.11
Minerals
"Calcium, Ca",mg,--,--,20,22
"Iron, Fe",mg,--,--,0.88,0.98
"Sodium, Na",mg,--,--,740,822
Vitamins
"Vitamin C, total ascorbic acid",mg,--,--,0.0,0.0
"Vitamin A, IU",IU,--,--,184,204
Lipids
"Fatty acids, total saturated",g,--,--,7.002,7.780
"Fatty acids, total monounsaturated",g,--,--,6.003,6.670
"Fatty acids, total polyunsaturated",g,--,--,0.000,0.000
"Fatty acids, total trans",g,--,--,0.999,1.110
"Cholesterol",mg,--,--,55,61
Amino Acids
Other
Ingredients
"BEEF, WATER, CULTURED CORN SUGAR, SALT, EXTRACTIVES OF PAPRIKA AND SPICES, DEXTROSE, PAPRIKA, VINEGAR, HYDROLYZED SOY PROTEIN, GARLIC POWDER, SODIUM ERYTHORBATE, AND SODIUM NITRITE." Date available: 07/14/2017 Date last updated by company: 07/14/2017
