Source: USDA Branded Food Products Database Release December 2017 Software v.3.8.6.4 2017-10-02
Report Run at: December 17, 2017 04:23 EST
"Nutrient data for: 45189698, EDA-ZEN, TOASTA MA-ME, PREMIUM TOASTED BLACK EDAMAME, SWEET BARBECUE, UPC: 859059002271"
Food Group:  Branded Food Products Database
Common Name:

Nutrient,Unit,Data points,Std. Error,"0.25 cup = 30.0g",1Value per 100 g,
Proximates
"Energy",kcal,--,--,130,433
"Protein",g,--,--,14.00,46.67
"Total lipid (fat)",g,--,--,4.00,13.33
"Carbohydrate, by difference",g,--,--,10.00,33.33
"Fiber, total dietary",g,--,--,8.0,26.7
"Sugars, total",g,--,--,2.00,6.67
Minerals
"Calcium, Ca",mg,--,--,60,200
"Iron, Fe",mg,--,--,6.00,20.00
"Sodium, Na",mg,--,--,240,800
Vitamins
"Vitamin C, total ascorbic acid",mg,--,--,0.0,0.0
"Vitamin A, IU",IU,--,--,334,1112
Lipids
"Fatty acids, total saturated",g,--,--,0.501,1.670
"Fatty acids, total trans",g,--,--,0.000,0.000
"Cholesterol",mg,--,--,0,0
Amino Acids
Other
Ingredients
"BLACK EDAMAME, SWEET BARBECUE SEASONING (CANE SUGAR, SEA SALT, FLAVORINGS, ALL-NATURAL YEAST EXTRACT, CITRIC ACID), SAFFLOWER OIL." Date available: 07/14/2017 Date last updated by company: 07/14/2017
