Source: USDA Branded Food Products Database Release December 2017 Software v.3.8.6.4 2017-10-02
Report Run at: December 17, 2017 04:20 EST
"Nutrient data for: 45028731, EDEN, ORGANIC PIZZA PASTA SAUCE, UPC: 024182001174"
Food Group:  Branded Food Products Database
Common Name:

Nutrient,Unit,Data points,Std. Error,"0.5 cup = 120.0g",1Value per 100 g,
Proximates
"Energy",kcal,--,--,65,54
"Protein",g,--,--,2.00,1.67
"Total lipid (fat)",g,--,--,2.50,2.08
"Carbohydrate, by difference",g,--,--,9.00,7.50
"Fiber, total dietary",g,--,--,5.0,4.2
"Sugars, total",g,--,--,4.00,3.33
Minerals
"Calcium, Ca",mg,--,--,40,33
"Iron, Fe",mg,--,--,1.91,1.59
"Magnesium, Mg",mg,--,--,34,28
"Potassium, K",mg,--,--,330,275
"Sodium, Na",mg,--,--,300,250
Vitamins
"Vitamin C, total ascorbic acid",mg,--,--,12.7,10.6
"Thiamin",mg,--,--,0.000,0.000
"Riboflavin",mg,--,--,0.102,0.085
"Niacin",mg,--,--,1.666,1.388
"Vitamin A, IU",IU,--,--,1056,880
Lipids
"Fatty acids, total saturated",g,--,--,0.000,0.000
"Fatty acids, total trans",g,--,--,0.000,0.000
"Cholesterol",mg,--,--,0,0
Amino Acids
Other
Ingredients
"ORGANIC ROMA TOMATOES, ORGANIC EXTRA VIRGIN OLIVE OIL, SEA SALT, ORGANIC BASIL, ORGANIC OREGANO, ORGANIC BLACK PEPPER, ORGANIC ROASTED GARLIC, ORGANIC DRIED ONION, ORGANIC THYME." Date available: 07/14/2017 Date last updated by company: 07/14/2017
