Source: USDA Branded Food Products Database Release December 2017 Software v.3.8.6.4 2017-10-02
Report Run at: December 17, 2017 04:25 EST
"Nutrient data for: 45034110, EDEN'S KITCHEN, PEAR HALVES IN SYRUP, UPC: 091037120441"
Food Group:  Branded Food Products Database
Common Name:

Nutrient,Unit,Data points,Std. Error,"0.5 cup = 125.0g",1Value per 100 g,
Proximates
"Energy",kcal,--,--,96,77
"Protein",g,--,--,0.25,0.20
"Total lipid (fat)",g,--,--,0.00,0.00
"Carbohydrate, by difference",g,--,--,23.00,18.40
"Fiber, total dietary",g,--,--,1.6,1.3
"Sugars, total",g,--,--,21.00,16.80
Minerals
"Calcium, Ca",mg,--,--,20,16
"Iron, Fe",mg,--,--,0.00,0.00
"Sodium, Na",mg,--,--,6,5
Vitamins
"Vitamin C, total ascorbic acid",mg,--,--,1.4,1.1
"Vitamin A, IU",IU,--,--,0,0
Lipids
"Fatty acids, total saturated",g,--,--,0.000,0.000
"Fatty acids, total trans",g,--,--,0.000,0.000
"Cholesterol",mg,--,--,0,0
Amino Acids
Other
Ingredients
"PEARS, WATER, SUGAR, ACIDIFIER (E330), CALCIUM CHLORIDE (E509)." Date available: 06/24/2017 Date last updated by company: 06/24/2017
