Source: USDA Branded Food Products Database Release December 2017 Software v.3.8.6.4 2017-10-02
Report Run at: December 17, 2017 04:25 EST
"Nutrient data for: 45016497, EDEN, SUN DRIED & SLICED DAIKON RADISH, UPC: 024182300154"
Food Group:  Branded Food Products Database
Common Name:

Nutrient,Unit,Data points,Std. Error,"2.0 Tbsp = 14.0g",1Value per 100 g,
Proximates
"Energy",kcal,--,--,45,321
"Protein",g,--,--,1.00,7.14
"Total lipid (fat)",g,--,--,0.00,0.00
"Carbohydrate, by difference",g,--,--,9.00,64.29
"Fiber, total dietary",g,--,--,3.0,21.4
"Sugars, total",g,--,--,6.00,42.86
Minerals
"Calcium, Ca",mg,--,--,60,429
"Iron, Fe",mg,--,--,0.72,5.14
"Magnesium, Mg",mg,--,--,8,57
"Phosphorus, P",mg,--,--,40,286
"Potassium, K",mg,--,--,420,3000
"Sodium, Na",mg,--,--,20,143
"Zinc, Zn",mg,--,--,0.30,2.14
Vitamins
"Vitamin C, total ascorbic acid",mg,--,--,0.0,0.0
"Vitamin A, IU",IU,--,--,0,0
Lipids
"Fatty acids, total saturated",g,--,--,0.000,0.000
"Fatty acids, total trans",g,--,--,0.000,0.000
"Cholesterol",mg,--,--,0,0
Amino Acids
Other
Ingredients
"DAIKON RADISH" Date available: 03/22/2017 Date last updated by company: 03/22/2017
