Source: USDA Branded Food Products Database Release December 2017 Software v.3.8.6.4 2017-10-02
Report Run at: December 17, 2017 04:28 EST
"Nutrient data for: 45232482, EDMUNDO, WHITE COOKING WINE, UPC: 089016100492"
Food Group:  Branded Food Products Database
Common Name:

Nutrient,Unit,Data points,Std. Error,"2.0 Tbsp = 30.0g",1Value per 100 g,
Proximates
"Energy",kcal,--,--,20,67
"Protein",g,--,--,0.00,0.00
"Total lipid (fat)",g,--,--,0.00,0.00
"Carbohydrate, by difference",g,--,--,0.00,0.00
Minerals
"Sodium, Na",mg,--,--,190,633
Vitamins
Lipids
Amino Acids
Other
Ingredients
"WINE, SALT, POTASSIUM SORBATE (PRESERVATIVE), POTASSIUM METABISULFITE (PRESERVATIVE)." Date available: 07/14/2017 Date last updated by company: 07/14/2017
