Source: USDA Branded Food Products Database Release December 2017 Software v.3.8.6.4 2017-10-02
Report Run at: December 17, 2017 04:29 EST
"Nutrient data for: 45234126, EFFERVE, SPARKLING LEMONADE, LEMON - CITRON, UPC: 819538000051"
Food Group:  Branded Food Products Database
Common Name:

Nutrient,Unit,Data points,Std. Error,"8.0 OZA = 240.0g",1Value per 100 g,
Proximates
"Energy",kcal,--,--,91,38
"Protein",g,--,--,0.00,0.00
"Total lipid (fat)",g,--,--,0.00,0.00
"Carbohydrate, by difference",g,--,--,21.00,8.75
"Sugars, total",g,--,--,21.00,8.75
Minerals
"Sodium, Na",mg,--,--,14,6
Vitamins
Lipids
Amino Acids
Other
Ingredients
"SPARKLING SPRING WATER, BEET SUGAR, CITRIC ACID, NATURAL LEMON FLAVOR WITH OTHER NATURAL FLAVORS, ESTER GUM (STABILIZER), NATURAL COLORING." Date available: 06/24/2017 Date last updated by company: 06/24/2017
