Source: USDA Branded Food Products Database Release December 2017 Software v.3.8.6.4 2017-10-02
Report Run at: December 17, 2017 04:29 EST
"Nutrient data for: 45260063, EFFIE TABLET OF CHOCOLATE, UPC: 810048013395"
Food Group:  Branded Food Products Database
Common Name:

Nutrient,Unit,Data points,Std. Error,"4.0 SQUARES = 43.0g",1Value per 100 g,
Proximates
"Energy",kcal,--,--,210,488
"Protein",g,--,--,3.00,6.98
"Total lipid (fat)",g,--,--,12.00,27.91
"Carbohydrate, by difference",g,--,--,20.00,46.51
"Fiber, total dietary",g,--,--,4.0,9.3
"Sugars, total",g,--,--,17.00,39.53
Minerals
"Calcium, Ca",mg,--,--,20,47
"Iron, Fe",mg,--,--,5.23,12.17
"Magnesium, Mg",mg,--,--,70,162
"Sodium, Na",mg,--,--,10,23
Vitamins
"Vitamin C, total ascorbic acid",mg,--,--,48.8,113.6
"Vitamin A, IU",IU,--,--,0,0
Lipids
"Fatty acids, total saturated",g,--,--,7.000,16.280
"Fatty acids, total trans",g,--,--,0.000,0.000
"Cholesterol",mg,--,--,0,0
Amino Acids
Other
Ingredients
"DARK CHOCOLATE (COCOA MASS, SUGAR, COCOA BUTTER, SOY LECITHIN- AN EMULSIFIER, NATURAL VANILLA), DRIED STRAWBERRIES (STRAWBERRIES, SILICON DIOXIDE), CRYSTALIZED VIOLET FLOWER FRAGMENTS (SUGAR, GUM ARABIC, NATURAL FLOWER, NATURAL FOOD COLOR (COCHINEAL), GARDENIA EXTRACT, NATURAL FLAVOR, VEGETABLE OIL)." Date available: 07/14/2017 Date last updated by company: 07/14/2017
