Source: USDA Branded Food Products Database Release December 2017 Software v.3.8.6.4 2017-10-02
Report Run at: December 17, 2017 04:30 EST
"Nutrient data for: 45151570, EGG HUNT WITH CANDY, UPC: 041376707780"
Food Group:  Branded Food Products Database
Common Name:

Nutrient,Unit,Data points,Std. Error,"3.0 EGGS = 15.0g",1Value per 100 g,
Proximates
"Energy",kcal,--,--,60,400
"Protein",g,--,--,0.00,0.00
"Total lipid (fat)",g,--,--,0.00,0.00
"Carbohydrate, by difference",g,--,--,14.00,93.33
"Sugars, total",g,--,--,14.00,93.33
Minerals
"Sodium, Na",mg,--,--,0,0
Vitamins
Lipids
Amino Acids
Other
Ingredients
"DEXTROSE, SUGARS, MALTODEXTRIN CITRIC ACID, MAGNESIUM STEARATE, ARTIFICIAL FLAVORS, ARTIFICIAL COLORS (RED 40, YELLOW 5, BLUE 1, RED 3 TITANIUM DIOXIDE)." Date available: 07/14/2017 Date last updated by company: 07/14/2017
