Source: USDA Branded Food Products Database Release December 2017 Software v.3.8.6.4 2017-10-02
Report Run at: December 17, 2017 04:34 EST
"Nutrient data for: 45269054, EGGPLANT SALAD, UPC: 832125014057"
Food Group:  Branded Food Products Database
Common Name:

Nutrient,Unit,Data points,Std. Error,"30.0 GRM = 30.0g",1Value per 100 g,
Proximates
"Energy",kcal,--,--,80,267
"Protein",g,--,--,2.00,6.67
"Total lipid (fat)",g,--,--,6.00,20.00
"Carbohydrate, by difference",g,--,--,7.00,23.33
"Fiber, total dietary",g,--,--,1.0,3.3
"Sugars, total",g,--,--,1.00,3.33
Minerals
"Calcium, Ca",mg,--,--,10,33
"Iron, Fe",mg,--,--,0.30,1.00
"Sodium, Na",mg,--,--,320,1067
Vitamins
"Vitamin C, total ascorbic acid",mg,--,--,2.0,6.7
"Vitamin A, IU",IU,--,--,83,278
Lipids
"Fatty acids, total saturated",g,--,--,0.000,0.000
"Fatty acids, total trans",g,--,--,0.000,0.000
"Cholesterol",mg,--,--,0,0
Amino Acids
Other
Ingredients
"EGGPLANTS, RED PEPPER, ONION, APPLE ACID, GARLIC, VEGETABLE OIL, PARSLEY, SALT, SPICE" Date available: 07/14/2017 Date last updated by company: 07/14/2017
