Source: USDA Branded Food Products Database Release December 2017 Software v.3.8.6.4 2017-10-02
Report Run at: December 17, 2017 04:33 EST
"Nutrient data for: 45237068, EGGPLANT APPETIZER, UPC: 071072012437"
Food Group:  Branded Food Products Database
Common Name:

Nutrient,Unit,Data points,Std. Error,"0.5 cup = 100.0g",1Value per 100 g,
Proximates
"Energy",kcal,--,--,150,150
"Protein",g,--,--,2.00,2.00
"Total lipid (fat)",g,--,--,13.00,13.00
"Carbohydrate, by difference",g,--,--,6.00,6.00
"Fiber, total dietary",g,--,--,7.0,7.0
"Sugars, total",g,--,--,5.00,5.00
Minerals
"Calcium, Ca",mg,--,--,0,0
"Iron, Fe",mg,--,--,3.28,3.28
"Sodium, Na",mg,--,--,470,470
Vitamins
"Vitamin C, total ascorbic acid",mg,--,--,0.0,0.0
"Vitamin A, IU",IU,--,--,0,0
Lipids
"Fatty acids, total saturated",g,--,--,1.500,1.500
"Fatty acids, total trans",g,--,--,0.000,0.000
"Cholesterol",mg,--,--,0,0
Amino Acids
Other
Ingredients
"INGREDIENTS: EGGPLANT, (MIN 40%), TOMATOES, CELERY, ONIONS, SUNFLOWER OIL, SUGAR, OLIVES, WINE VINEGAR OLIVE OIL, CAPERS AND SALT" Date available: 08/11/2017 Date last updated by company: 08/11/2017
