Source: USDA Branded Food Products Database Release December 2017 Software v.3.8.6.4 2017-10-02
Report Run at: December 17, 2017 04:38 EST
"Nutrient data for: 45155082, EILLIEN'S, BROWN FLAXSEED, UPC: 034952585230"
Food Group:  Branded Food Products Database
Common Name:

Nutrient,Unit,Data points,Std. Error,"3.0 Tbsp = 32.0g",1Value per 100 g,
Proximates
"Energy",kcal,--,--,160,500
"Protein",g,--,--,6.00,18.75
"Total lipid (fat)",g,--,--,11.00,34.38
"Carbohydrate, by difference",g,--,--,11.00,34.38
"Fiber, total dietary",g,--,--,9.0,28.1
"Sugars, total",g,--,--,0.00,0.00
Minerals
"Calcium, Ca",mg,--,--,60,188
"Iron, Fe",mg,--,--,2.53,7.91
"Sodium, Na",mg,--,--,10,31
Vitamins
"Vitamin C, total ascorbic acid",mg,--,--,0.0,0.0
"Vitamin A, IU",IU,--,--,140,439
Lipids
"Fatty acids, total saturated",g,--,--,0.998,3.120
"Fatty acids, total trans",g,--,--,0.000,0.000
"Cholesterol",mg,--,--,0,0
Amino Acids
Other
Ingredients
"BROWN FLAXSEED." Date available: 07/14/2017 Date last updated by company: 07/14/2017
