Source: USDA Branded Food Products Database Release December 2017 Software v.3.8.6.4 2017-10-02
Report Run at: December 17, 2017 04:42 EST
"Nutrient data for: 45206383, EL CEIBO, FINE DARK CHOCOLATE, UPC: 7771711000506"
Food Group:  Branded Food Products Database
Common Name:

Nutrient,Unit,Data points,Std. Error,"40.0 GRM = 40.0g",1Value per 100 g,
Proximates
"Energy",kcal,--,--,224,560
"Protein",g,--,--,5.00,12.50
"Total lipid (fat)",g,--,--,13.00,32.50
"Carbohydrate, by difference",g,--,--,21.00,52.50
Minerals
"Calcium, Ca",mg,--,--,24,60
"Iron, Fe",mg,--,--,4.00,10.00
"Phosphorus, P",mg,--,--,117,292
"Sodium, Na",mg,--,--,160,400
Vitamins
Lipids
"Fatty acids, total trans",g,--,--,0.000,0.000
"Cholesterol",mg,--,--,0,0
Amino Acids
Other
Ingredients
"ORGANIC COCOA MASS, SUGAR, ORGANIC COCOA NIBS, COCOA BUTTER, SALT AND SOY LECITHIN." Date available: 10/19/2017 Date last updated by company: 10/19/2017
