Source: USDA Branded Food Products Database Release December 2017 Software v.3.8.6.4 2017-10-02
Report Run at: December 17, 2017 04:47 EST
"Nutrient data for: 45022469, EL GUAPO, TAMARIND, UPC: 044989005236"
Food Group:  Branded Food Products Database
Common Name:

Nutrient,Unit,Data points,Std. Error,"5.0 PIECES = 38.0g",1Value per 100 g,
Proximates
"Energy",kcal,--,--,135,355
"Protein",g,--,--,0.00,0.00
"Total lipid (fat)",g,--,--,1.00,2.63
"Carbohydrate, by difference",g,--,--,30.00,78.95
"Fiber, total dietary",g,--,--,3.0,7.9
"Sugars, total",g,--,--,16.00,42.11
Minerals
"Calcium, Ca",mg,--,--,0,0
"Iron, Fe",mg,--,--,0.00,0.00
"Sodium, Na",mg,--,--,0,0
Vitamins
"Vitamin C, total ascorbic acid",mg,--,--,0.0,0.0
"Vitamin A, IU",IU,--,--,0,0
Lipids
"Fatty acids, total saturated",g,--,--,0.000,0.000
"Fatty acids, total trans",g,--,--,0.000,0.000
"Cholesterol",mg,--,--,0,0
Amino Acids
Other
Ingredients
"TAMARID." Date available: 06/25/2017 Date last updated by company: 06/25/2017
