Source: USDA Branded Food Products Database Release December 2017 Software v.3.8.6.4 2017-10-02
Report Run at: December 17, 2017 04:53 EST
"Nutrient data for: 45159394, EL'ONE, GOURMET TURKISH DELIGHT, IROSE, GUM, MASTIC, MINT, ORANGE, UPC: 681042200377"
Food Group:  Branded Food Products Database
Common Name:

Nutrient,Unit,Data points,Std. Error,"3.0 PIECES = 40.0g",1Value per 100 g,
Proximates
"Energy",kcal,--,--,149,372
"Protein",g,--,--,0.10,0.25
"Total lipid (fat)",g,--,--,0.00,0.00
"Carbohydrate, by difference",g,--,--,37.00,92.50
"Fiber, total dietary",g,--,--,0.1,0.2
"Sugars, total",g,--,--,33.10,82.75
Minerals
"Calcium, Ca",mg,--,--,0,0
"Iron, Fe",mg,--,--,0.00,0.00
"Sodium, Na",mg,--,--,0,0
Vitamins
"Vitamin C, total ascorbic acid",mg,--,--,0.0,0.0
"Vitamin A, IU",IU,--,--,0,0
Lipids
"Fatty acids, total saturated",g,--,--,0.000,0.000
"Fatty acids, total trans",g,--,--,0.000,0.000
"Cholesterol",mg,--,--,0,0
Amino Acids
Other
Ingredients
"SUGAR, WATER, CORN STARCH, CANDIED ORANGE PEEL, ROSE YEAST, GUM MASTIC, ACIDITY REGULATOR (CITRIC ACID - E330), NATURE IDENTICAL ORANGE FLAVOR AND MINT FLAVOR, NATURAL COLORANT (BEETROOT EXTRACT-E162, CHLOROPHYLL -E141, B-CAROTENE -E160(A)), POWDERED SUGAR (AS COATING MATERIAL)." Date available: 10/09/2017 Date last updated by company: 10/09/2017
