Source: USDA Branded Food Products Database Release December 2017 Software v.3.8.6.4 2017-10-02
Report Run at: December 17, 2017 04:43 EST
"Nutrient data for: 45224471, ELDERBERRY, UPC: 022318000084"
Food Group:  Branded Food Products Database
Common Name:

Nutrient,Unit,Data points,Std. Error,"1 tsp = 5.0g",1Value per 100 g,
Proximates
"Energy",kcal,--,--,15,300
"Carbohydrate, by difference",g,--,--,3.00,60.00
"Sugars, total",g,--,--,3.00,60.00
Minerals
Vitamins
Lipids
Amino Acids
Other
Ingredients
"PURE GRAIN ALCOHOL AND PURIFIED WATER." Date available: 03/22/2017 Date last updated by company: 03/22/2017
