Source: USDA Branded Food Products Database Release December 2017 Software v.3.8.6.4 2017-10-02
Report Run at: December 17, 2017 04:43 EST
"Nutrient data for: 45185249, ELDERBERRY JELLY, UPC: 0610373663711"
Food Group:  Branded Food Products Database
Common Name:

Nutrient,Unit,Data points,Std. Error,"1 Tbsp = 15.0g",1Value per 100 g,
Proximates
"Energy",kcal,--,--,44,293
"Protein",g,--,--,1.00,6.67
"Total lipid (fat)",g,--,--,0.00,0.00
"Carbohydrate, by difference",g,--,--,10.00,66.67
"Fiber, total dietary",g,--,--,2.0,13.3
"Sugars, total",g,--,--,9.00,60.00
Minerals
"Calcium, Ca",mg,--,--,10,67
"Iron, Fe",mg,--,--,0.61,4.06
"Sodium, Na",mg,--,--,0,0
Vitamins
"Vitamin C, total ascorbic acid",mg,--,--,30.4,202.9
"Vitamin A, IU",IU,--,--,507,3380
Lipids
"Fatty acids, total saturated",g,--,--,0.000,0.000
"Fatty acids, total trans",g,--,--,0.000,0.000
"Cholesterol",mg,--,--,0,0
Amino Acids
Other
Ingredients
"SUGAR, ELDERBERRY JUICE, WATER, GMO-FREE PECTIN MIX {SUCROSE, PECTIN, CITRIC ACID}, LEMON JUICE {WATER, LEMON JUICE CONCENTRATE}" Date available: 07/14/2017 Date last updated by company: 07/14/2017
