Source: USDA Branded Food Products Database Release December 2017 Software v.3.8.6.4 2017-10-02
Report Run at: December 17, 2017 04:48 EST
"Nutrient data for: 45158474, ELITE, SHTIX MILK CHOCOLATE STICKS FILLED WITH MILK-FLAVORED CREAM, UPC: 815871011037"
Food Group:  Branded Food Products Database
Common Name:

Nutrient,Unit,Data points,Std. Error,"3.0 FINGERS = 36.0g",1Value per 100 g,
Proximates
"Energy",kcal,--,--,200,556
"Protein",g,--,--,2.00,5.56
"Total lipid (fat)",g,--,--,12.00,33.33
"Carbohydrate, by difference",g,--,--,22.00,61.11
"Fiber, total dietary",g,--,--,2.0,5.6
"Sugars, total",g,--,--,19.00,52.78
Minerals
"Calcium, Ca",mg,--,--,0,0
"Iron, Fe",mg,--,--,0.00,0.00
"Sodium, Na",mg,--,--,20,56
Vitamins
"Vitamin C, total ascorbic acid",mg,--,--,0.0,0.0
"Vitamin A, IU",IU,--,--,0,0
Lipids
"Fatty acids, total saturated",g,--,--,7.999,22.220
"Fatty acids, total trans",g,--,--,0.000,0.000
"Cholesterol",mg,--,--,5,14
Amino Acids
Other
Ingredients
"SUGAR, VEGETABLE OILS & FATS (PALM OIL, PALM FAT), NONFAT DRY MILK, COCOA BUTTER, CHOCOLATE LIQUOR,INULIN, SOY FLOUR, MILK FAT, SOY/RAPESEED LECITHIN & PGPR (EMULSIFIERS), ARTIFICIAL FLAVORS, SALT." Date available: 07/14/2017 Date last updated by company: 07/14/2017
