Source: USDA Branded Food Products Database Release December 2017 Software v.3.8.6.4 2017-10-02
Report Run at: December 17, 2017 04:48 EST
"Nutrient data for: 45160051, ELITE NATUREL, JUICE, JASMIN, UPC: 888116000080"
Food Group:  Branded Food Products Database
Common Name:

Nutrient,Unit,Data points,Std. Error,"4.0 | ABOUT = 250.0g",1Value per 100 g,
Proximates
"Energy",kcal,--,--,85,34
"Protein",g,--,--,0.80,0.32
"Total lipid (fat)",g,--,--,0.00,0.00
"Carbohydrate, by difference",g,--,--,21.00,8.40
"Fiber, total dietary",g,--,--,0.5,0.2
"Sugars, total",g,--,--,18.00,7.20
Minerals
"Calcium, Ca",mg,--,--,10,4
"Iron, Fe",mg,--,--,0.00,0.00
"Sodium, Na",mg,--,--,5,2
Vitamins
"Vitamin C, total ascorbic acid",mg,--,--,1.8,0.7
"Vitamin A, IU",IU,--,--,0,0
Lipids
"Fatty acids, total saturated",g,--,--,0.000,0.000
"Fatty acids, total trans",g,--,--,0.000,0.000
"Cholesterol",mg,--,--,0,0
Amino Acids
Other
Ingredients
"ORGANIC MELON JUICE, DRINKING WATER, JASMIN FLAVOUR." Date available: 07/14/2017 Date last updated by company: 07/14/2017
