Source: USDA Branded Food Products Database Release December 2017 Software v.3.8.6.4 2017-10-02
Report Run at: December 17, 2017 04:48 EST
"Nutrient data for: 45159636, ELITE NATUREL, 100% ORGANIC BLACK MULBERRY JUICE, UPC: 888116000066"
Food Group:  Branded Food Products Database
Common Name:

Nutrient,Unit,Data points,Std. Error,"8.45 OZA = 250.0g",1Value per 100 g,
Proximates
"Energy",kcal,--,--,140,56
"Protein",g,--,--,0.60,0.24
"Total lipid (fat)",g,--,--,0.00,0.00
"Carbohydrate, by difference",g,--,--,35.00,14.00
"Fiber, total dietary",g,--,--,0.2,0.1
"Sugars, total",g,--,--,33.00,13.20
Minerals
"Calcium, Ca",mg,--,--,20,8
"Iron, Fe",mg,--,--,0.70,0.28
"Sodium, Na",mg,--,--,5,2
Vitamins
"Vitamin C, total ascorbic acid",mg,--,--,0.5,0.2
"Vitamin A, IU",IU,--,--,0,0
Lipids
"Fatty acids, total saturated",g,--,--,0.000,0.000
"Fatty acids, total trans",g,--,--,0.000,0.000
"Cholesterol",mg,--,--,0,0
Amino Acids
Other
Ingredients
"CONTAINS ONLY: JUICE AND PUREE (FIBER) FROM FRESH ORGANIC BLACK MULBERRIES." Date available: 07/14/2017 Date last updated by company: 07/14/2017
