Source: USDA Branded Food Products Database Release December 2017 Software v.3.8.6.4 2017-10-02
Report Run at: December 17, 2017 04:50 EST
"Nutrient data for: 45008925, ELLIO'S, PIZZERIA STYLE THICK CRUST FIVE CHEESE PIZZA, UPC: 041118000056"
Food Group:  Branded Food Products Database
Common Name:

Nutrient,Unit,Data points,Std. Error,"2.0 SLICES = 145.0g",1Value per 100 g,
Proximates
"Energy",kcal,--,--,300,207
"Protein",g,--,--,12.01,8.28
"Total lipid (fat)",g,--,--,8.00,5.52
"Carbohydrate, by difference",g,--,--,43.99,30.34
"Fiber, total dietary",g,--,--,2.0,1.4
"Sugars, total",g,--,--,5.00,3.45
Minerals
"Calcium, Ca",mg,--,--,200,138
"Iron, Fe",mg,--,--,3.62,2.50
"Sodium, Na",mg,--,--,670,462
Vitamins
"Vitamin C, total ascorbic acid",mg,--,--,3.2,2.2
"Vitamin A, IU",IU,--,--,270,186
Lipids
"Fatty acids, total saturated",g,--,--,3.495,2.410
"Fatty acids, total trans",g,--,--,0.000,0.000
"Cholesterol",mg,--,--,20,14
Amino Acids
Other
Ingredients
"CRUST: ENRICHED WHEAT FLOUR (WHEAT FLOUR, MALTED BARLEY FLOUR, NIACIN, REDUCED IRON, THIAMINE MONONITRATE, RIBOFLAVIN, FOLIC ACID), WATER, SOYBEAN OIL, SUGAR, YEAST, WHEY PROTEIN CONCENTRATE, SALT. SAUCE: WATER, TOMATO PASTE, SUGAR, SALT, SPICE, DRIED GARLIC. TOPPING: FIVE CHEESE BLEND [LOW MOISTURE PART SKIM MOZZARELLA CHEESE (PASTEURIZED PART SKIM MILK, CHEESE CULTURES, SALT, ENZYMES), PARMESAN CHEESE (CULTURED MILK, SALT, ENZYMES), ROMANO CHEESE MADE FROM COW'S MILK (CULTURED MILK, SALT, ENZYMES), FONTINA CHEESE (PASTEURIZED MILK, CHEESE CULTURES, SALT, ENZYMES), ASIAGO CHEESE (CULTURED MILK, SALT, ENZYMES)], PARSLEY, SPICES." Date available: 07/14/2017 Date last updated by company: 07/14/2017
