Source: USDA Branded Food Products Database Release December 2017 Software v.3.8.6.4 2017-10-02
Report Run at: December 17, 2017 04:59 EST
"Nutrient data for: 45057113, EMERIL'S, NEW YORK DELI STYLE MUSTARD, UPC: 074683097039"
Food Group:  Branded Food Products Database
Common Name:

Nutrient,Unit,Data points,Std. Error,"1 tsp = 5.0g",1Value per 100 g,
Proximates
"Energy",kcal,--,--,5,100
"Protein",g,--,--,0.00,0.00
"Total lipid (fat)",g,--,--,0.00,0.00
"Carbohydrate, by difference",g,--,--,0.00,0.00
Minerals
"Sodium, Na",mg,--,--,75,1500
Vitamins
Lipids
Amino Acids
Other
Ingredients
"DISTILLED VINEGAR, WATER, MUSTARD SEED, SALT, SPICES, TURMERIC AND PAPRIKA." Date available: 07/14/2017 Date last updated by company: 07/14/2017
