Source: USDA Branded Food Products Database Release December 2017 Software v.3.8.6.4 2017-10-02
Report Run at: December 17, 2017 04:57 EST
"Nutrient data for: 45043709, EMERALD, GLAZED PECANS, UPC: 010300102793"
Food Group:  Branded Food Products Database
Common Name:

Nutrient,Unit,Data points,Std. Error,"0.25 CUP | ABOUT = 28.0g",1Value per 100 g,
Proximates
"Energy",kcal,--,--,140,500
"Protein",g,--,--,1.00,3.57
"Total lipid (fat)",g,--,--,11.00,39.29
"Carbohydrate, by difference",g,--,--,12.00,42.86
"Fiber, total dietary",g,--,--,1.0,3.6
"Sugars, total",g,--,--,9.00,32.14
Minerals
"Calcium, Ca",mg,--,--,20,71
"Iron, Fe",mg,--,--,0.64,2.29
"Sodium, Na",mg,--,--,125,446
Vitamins
"Vitamin C, total ascorbic acid",mg,--,--,0.0,0.0
"Vitamin A, IU",IU,--,--,0,0
Lipids
"Fatty acids, total saturated",g,--,--,1.000,3.570
"Fatty acids, total monounsaturated",g,--,--,6.000,21.430
"Fatty acids, total polyunsaturated",g,--,--,3.500,12.500
"Fatty acids, total trans",g,--,--,0.000,0.000
"Cholesterol",mg,--,--,0,0
Amino Acids
Other
Ingredients
"PECANS, SUGAR, TAPIOCA SYRUP, SALT, CANOLA OIL, SOY LECITHIN, ROSEMARY EXTRACT (TO PRESERVE FRESHNESS)." Date available: 07/14/2017 Date last updated by company: 07/14/2017
