Source: USDA Branded Food Products Database Release December 2017 Software v.3.8.6.4 2017-10-02
Report Run at: December 17, 2017 04:57 EST
"Nutrient data for: 45090351, EMERALD, 100 CALORIE PACKS CASHEWS, DILL PICKLE, UPC: 010300335252"
Food Group:  Branded Food Products Database
Common Name:

Nutrient,Unit,Data points,Std. Error,"0.62 oz = 17.5g",1Value per 100 g,
Proximates
"Energy",kcal,--,--,100,571
"Protein",g,--,--,3.00,17.14
"Total lipid (fat)",g,--,--,8.00,45.71
"Carbohydrate, by difference",g,--,--,5.00,28.57
"Fiber, total dietary",g,--,--,1.0,5.7
"Sugars, total",g,--,--,1.00,5.71
Minerals
"Calcium, Ca",mg,--,--,0,0
"Iron, Fe",mg,--,--,1.08,6.17
"Sodium, Na",mg,--,--,60,343
Vitamins
"Vitamin C, total ascorbic acid",mg,--,--,0.0,0.0
"Vitamin A, IU",IU,--,--,0,0
Lipids
"Fatty acids, total saturated",g,--,--,1.500,8.570
"Fatty acids, total monounsaturated",g,--,--,4.499,25.710
"Fatty acids, total polyunsaturated",g,--,--,1.500,8.570
"Fatty acids, total trans",g,--,--,0.000,0.000
"Cholesterol",mg,--,--,0,0
Amino Acids
Other
Ingredients
"CASHEWS, SEASONING (MALTODEXTRIN, SALT, GARLIC POWDER, VINEGAR, SUGAR, YEAST EXTRACT, ONION POWDER, NATURAL FLAVOR, SPICE, CITRIC ACID, PARSLEY), VEGETABLE OIL (SAFFLOWER, SUNFLOWER, AND/OR CANOLA OIL)." Date last updated by company: 03/28/2016
