Source: USDA Branded Food Products Database Release December 2017 Software v.3.8.6.4 2017-10-02
Report Run at: December 17, 2017 05:04 EST
"Nutrient data for: 45077075, ENCHILADA WITH SPANISH RICE & BEANS, UPC: 042272000517"
Food Group:  Branded Food Products Database
Common Name:

Nutrient,Unit,Data points,Std. Error,"1 MEAL = 284.0g",1Value per 100 g,
Proximates
"Energy",kcal,--,--,329,116
"Protein",g,--,--,9.00,3.17
"Total lipid (fat)",g,--,--,8.01,2.82
"Carbohydrate, by difference",g,--,--,52.99,18.66
"Fiber, total dietary",g,--,--,9.1,3.2
"Sugars, total",g,--,--,4.00,1.41
Minerals
"Calcium, Ca",mg,--,--,60,21
"Iron, Fe",mg,--,--,1.33,0.47
"Sodium, Na",mg,--,--,741,261
Vitamins
"Vitamin C, total ascorbic acid",mg,--,--,8.8,3.1
"Vitamin A, IU",IU,--,--,494,174
Lipids
"Fatty acids, total saturated",g,--,--,0.994,0.350
"Fatty acids, total trans",g,--,--,0.000,0.000
"Cholesterol",mg,--,--,0,0
Amino Acids
Other
Ingredients
"FILTERED WATER, ORGANIC WHITE RICE, ORGANIC PINTO BEANS, ORGANIC TOMATO PUREE, ORGANIC CORN TORTILLAS (ORGANIC WHITE CORN COOKED IN WATER WITH A TRACE OF LIME), ORGANIC CORN, ORGANIC ONIONS, ORGANIC BELL PEPPERS, ORGANIC ZUCCHINI, ORGANIC TOFU (FILTERED WATER, ORGANIC SOYBEANS, NIGARI [MAGNESIUM CHLORIDE, A NATURAL FIRMING AGENT]), ORGANIC BLACK BEANS, EXPELLER PRESSED HIGH OLEIC SAFFLOWER AND/OR SUNFLOWER OIL, ORGANIC SWEET RICE FLOUR, SPICES, SEA SALT, ORGANIC TAPIOCA STARCH, OLIVES, ORGANIC GARLIC, ORGANIC GREEN CHILES." Date available: 08/18/2017 Date last updated by company: 08/18/2017
