Source: USDA Branded Food Products Database Release December 2017 Software v.3.8.6.4 2017-10-02
Report Run at: December 17, 2017 05:05 EST
"Nutrient data for: 45322412, ENDANGERED SPECIES CHOCOLATE, NATURAL DARK CHOCOLATE BAR, 72% COCOA, FOREST MINT, UPC: 037014242263"
Food Group:  Branded Food Products Database
Common Name:

Nutrient,Unit,Data points,Std. Error,"0.0 none = 43.0g",1Value per 100 g,
Proximates
"Energy",kcal,--,--,210,488
"Protein",g,--,--,3.00,6.98
"Total lipid (fat)",g,--,--,18.00,41.86
"Carbohydrate, by difference",g,--,--,21.00,48.84
"Fiber, total dietary",g,--,--,5.0,11.6
"Sugars, total",g,--,--,12.00,27.91
Minerals
"Calcium, Ca",mg,--,--,20,47
"Iron, Fe",mg,--,--,2.09,4.87
"Sodium, Na",mg,--,--,0,0
Vitamins
"Vitamin C, total ascorbic acid",mg,--,--,0.0,0.0
"Vitamin A, IU",IU,--,--,0,0
Lipids
"Fatty acids, total saturated",g,--,--,10.002,23.260
"Fatty acids, total trans",g,--,--,0.000,0.000
"Cholesterol",mg,--,--,0,0
Amino Acids
Other
Ingredients
"BITTERSWEET CHOCOLATE(CHOCOLATE LIQUOR, CANE SUGAR, COCOA BUTTER, SOY LECITHIN, VANILLA ), NATURAL MINT FLAVOR." Date available: 07/06/2017 Date last updated by company: 07/06/2017
