Source: USDA Branded Food Products Database Release December 2017 Software v.3.8.6.4 2017-10-02
Report Run at: December 17, 2017 05:05 EST
"Nutrient data for: 45094007, ENDANGERED SPECIES CHOCOLATE, DARK CHOCOLATE, SEA SALT & ALMONDS, UPC: 037014000207"
Food Group:  Branded Food Products Database
Common Name:

Nutrient,Unit,Data points,Std. Error,"0.5 BAR = 43.0g",1Value per 100 g,
Proximates
"Energy",kcal,--,--,250,581
"Protein",g,--,--,4.00,9.30
"Total lipid (fat)",g,--,--,18.00,41.86
"Carbohydrate, by difference",g,--,--,20.00,46.51
"Fiber, total dietary",g,--,--,5.0,11.6
"Sugars, total",g,--,--,11.00,25.58
Minerals
"Calcium, Ca",mg,--,--,40,93
"Iron, Fe",mg,--,--,1.67,3.89
"Sodium, Na",mg,--,--,125,291
Vitamins
"Vitamin C, total ascorbic acid",mg,--,--,0.0,0.0
"Vitamin A, IU",IU,--,--,0,0
Lipids
"Fatty acids, total saturated",g,--,--,10.002,23.260
"Fatty acids, total trans",g,--,--,0.000,0.000
"Cholesterol",mg,--,--,0,0
Amino Acids
Other
Ingredients
"BITTERSWEET CHOCOLATE (CHOCOLATE LIQUOR, CANE SUGAR, COCOA BUTTER, SOY LECITHIN, VANILLA), ALMONDS, SEA SALT." Date available: 07/14/2017 Date last updated by company: 07/14/2017
