Source: USDA Branded Food Products Database Release December 2017 Software v.3.8.6.4 2017-10-02
Report Run at: December 17, 2017 05:05 EST
"Nutrient data for: 45045450, ENDANGERED SPECIES CHOCOLATE, DARK CHOCOLATE WITH CRANBERRIES ORANGE & CINNAMON, UPC: 037014000481"
Food Group:  Branded Food Products Database
Common Name:

Nutrient,Unit,Data points,Std. Error,"43.0 g = 43.0g",1Value per 100 g,
Proximates
"Energy",kcal,--,--,240,558
"Protein",g,--,--,2.00,4.65
"Total lipid (fat)",g,--,--,15.00,34.88
"Carbohydrate, by difference",g,--,--,24.00,55.81
"Fiber, total dietary",g,--,--,4.0,9.3
"Sugars, total",g,--,--,18.00,41.86
Minerals
"Calcium, Ca",mg,--,--,20,47
"Iron, Fe",mg,--,--,1.26,2.92
"Sodium, Na",mg,--,--,0,0
Vitamins
"Vitamin C, total ascorbic acid",mg,--,--,0.0,0.0
"Vitamin A, IU",IU,--,--,0,0
Lipids
"Fatty acids, total saturated",g,--,--,9.000,20.930
"Fatty acids, total trans",g,--,--,0.000,0.000
"Cholesterol",mg,--,--,0,0
Amino Acids
Other
Ingredients
"BITTERSWEET CHOCOLATE (CHOCOLATE LIQUOR, CANE SUGAR, COCOA BUTTER, SOY LECITHIN, VANILLA), INFUSED CRANBERRIES (CRANBERRIES, SUGAR, SUNFLOWER OIL, CELLULOSE), ORANGE OIL, CINNAMON." Date available: 06/24/2017 Date last updated by company: 06/24/2017
