Source: USDA Branded Food Products Database Release December 2017 Software v.3.8.6.4 2017-10-02
Report Run at: December 17, 2017 05:07 EST
"Nutrient data for: 45104943, ENER-G, ORIGINAL PRETZELS, UPC: 075119647255"
Food Group:  Branded Food Products Database
Common Name:

Nutrient,Unit,Data points,Std. Error,"40.0 PRETZELS = 30.0g",1Value per 100 g,
Proximates
"Energy",kcal,--,--,140,467
"Protein",g,--,--,1.00,3.33
"Total lipid (fat)",g,--,--,4.00,13.33
"Carbohydrate, by difference",g,--,--,24.00,80.00
"Fiber, total dietary",g,--,--,2.0,6.7
"Sugars, total",g,--,--,0.00,0.00
Minerals
"Calcium, Ca",mg,--,--,0,0
"Iron, Fe",mg,--,--,0.60,2.00
"Sodium, Na",mg,--,--,360,1200
Vitamins
"Vitamin C, total ascorbic acid",mg,--,--,0.0,0.0
"Vitamin A, IU",IU,--,--,0,0
Lipids
"Fatty acids, total saturated",g,--,--,2.001,6.670
"Fatty acids, total trans",g,--,--,0.000,0.000
"Cholesterol",mg,--,--,0,0
Amino Acids
Other
Ingredients
"POTATO FLOUR, CORN STARCH, RICE FLOUR, ORGANIC PALM FRUIT OIL, TAPIOCA SYRUP, BAKING POWDER (SODIUM PYROPHOSPHATE, POTATO STARCH, SODIUM BICARBONATE, MONOCALCIUM PHOSPHATE), CELLULOSE GUM, BAMBOO FIBER, SALT, YEAST." Date available: 06/25/2017 Date last updated by company: 06/25/2017
