Source: USDA Branded Food Products Database Release December 2017 Software v.3.8.6.4 2017-10-02
Report Run at: December 17, 2017 05:13 EST
"Nutrient data for: 45332550, ENERGY SHAKE, UPC: 070847018322"
Food Group:  Branded Food Products Database
Common Name:

Nutrient,Unit,Data points,Std. Error,"8.0 OZA = 240.0g",1Value per 100 g,
Proximates
"Energy",kcal,--,--,120,50
"Protein",g,--,--,13.01,5.42
"Total lipid (fat)",g,--,--,2.50,1.04
"Carbohydrate, by difference",g,--,--,10.01,4.17
"Sugars, total",g,--,--,9.00,3.75
Minerals
"Calcium, Ca",mg,--,--,300,125
"Potassium, K",mg,--,--,281,117
"Sodium, Na",mg,--,--,341,142
Vitamins
"Vitamin C, total ascorbic acid",mg,--,--,45.1,18.8
"Riboflavin",mg,--,--,1.699,0.708
"Niacin",mg,--,--,19.999,8.333
"Vitamin B-6",mg,--,--,1.999,0.833
Lipids
"Fatty acids, total saturated",g,--,--,1.008,0.420
"Cholesterol",mg,--,--,10,4
Amino Acids
Other
Ingredients
"ULTRAFILTERED SKIM MILK, REDUCED FAT MILK. CALCIUM CASEINATE (MILK), SUGAR, GLUCOSE, SODIUM CASEINATE (MILK), PARTIALLY DEFATTED PEANUT FLOUR, TAURINE. SODIUM CITRATE, MICROCRYSTALLINE CELLULOSE, POTASSIUM PHOSPHATES. PANAX GINSENG EXTRACT, SALT. CAFFEINE, ASCORBIC ACID (VIT. C), SODIUM POLYPHOSPHATE, CELLULOSE GUM. MALTODEXTRIN, SUCRALOSE, CARRAGEENAN, NATURAL B ARTIFICIAL FLAVORS (MILK), NIACINAMIDE (VIT. B3), ACESULFAME POTASSIUM, INOSITOL, D-GLUCURONOLACTONE, L-CARNITINE L-TARTRATE, GUARANA EXTRACT. PYRIDOXINE HYDROCHLORIDE (VIT B6), RIBOFLAVIN (VIT B6),RIBOFLAVIN (VIT. B2), COCOA EXTRACT." Date available: 07/14/2017 Date last updated by company: 07/14/2017
