Source: USDA Branded Food Products Database Release December 2017 Software v.3.8.6.4 2017-10-02
Report Run at: December 17, 2017 05:18 EST
"Nutrient data for: 45111028, ENGLISH TOFFEE, UPC: 070640301447"
Food Group:  Branded Food Products Database
Common Name:

Nutrient,Unit,Data points,Std. Error,"1 BAR = 40.0g",1Value per 100 g,
Proximates
"Energy",kcal,--,--,120,300
"Protein",g,--,--,1.00,2.50
"Total lipid (fat)",g,--,--,8.00,20.00
"Carbohydrate, by difference",g,--,--,13.00,32.50
"Fiber, total dietary",g,--,--,0.0,0.0
"Sugars, total",g,--,--,10.00,25.00
Minerals
"Calcium, Ca",mg,--,--,40,100
"Iron, Fe",mg,--,--,0.00,0.00
"Potassium, K",mg,--,--,60,150
"Sodium, Na",mg,--,--,40,100
Vitamins
"Vitamin C, total ascorbic acid",mg,--,--,0.0,0.0
"Vitamin A, IU",IU,--,--,100,250
Lipids
"Fatty acids, total saturated",g,--,--,6.000,15.000
"Fatty acids, total trans",g,--,--,0.000,0.000
"Cholesterol",mg,--,--,5,12
Amino Acids
Other
Ingredients
"TOFFEE REDUCED FAT ICE CREAM (MILK, CORN SYRUP, SUGAR, SKIM MILK, BUTTERMILK, CREAM, WHEY, CONTAINS 2% OR LESS OF PALM OIL, ALMONDS, SUNFLOWER OIL, SALT, SOY LECITHIN, MALTODEXTRIN, MONO & DIGLYCERIDES, CAROB BEAN GUM, CELLULOSE GUM, CARRAGEENAN, ANNATTO FOR COLOR, VITAMIN A PALMITATE). CHOCOLATE FLAVORED COATING WITH TOFFEE CANDY {COCONUT OIL, SUGAR, MILK, SOYBEAN OIL, ENGLISH TOFFEE (SUGAR, PALM OIL, SUNFLOWER OIL, BUTTER, ALMONDS, CONTAINS 2% OR LESS OF SALT, SOY LECITHIN), COCOA, COCOA PROCESSED WITH ALKALI, COCOA BUTTER, CHOCOLATE LIQUOR, SOY LECITHIN, SALT, ARTIFICIAL FLAVOR}." Date available: 07/14/2017 Date last updated by company: 07/14/2017
