Source: USDA Branded Food Products Database Release December 2017 Software v.3.8.6.4 2017-10-02
Report Run at: December 17, 2017 05:17 EST
"Nutrient data for: 45112119, ENGLISH MUFFIN TOASTING PLAIN BREAD, UPC: 048121229146"
Food Group:  Branded Food Products Database
Common Name:

Nutrient,Unit,Data points,Std. Error,"1 SLICE = 30.0g",1Value per 100 g,
Proximates
"Energy",kcal,--,--,80,267
"Protein",g,--,--,2.00,6.67
"Total lipid (fat)",g,--,--,1.00,3.33
"Carbohydrate, by difference",g,--,--,15.00,50.00
"Fiber, total dietary",g,--,--,1.0,3.3
"Sugars, total",g,--,--,1.00,3.33
Minerals
"Calcium, Ca",mg,--,--,40,133
"Iron, Fe",mg,--,--,1.20,4.00
"Sodium, Na",mg,--,--,150,500
Vitamins
"Vitamin C, total ascorbic acid",mg,--,--,0.0,0.0
"Thiamin",mg,--,--,0.300,1.000
"Riboflavin",mg,--,--,0.113,0.378
"Niacin",mg,--,--,1.334,4.447
"Vitamin A, IU",IU,--,--,0,0
Lipids
"Fatty acids, total saturated",g,--,--,0.000,0.000
"Fatty acids, total monounsaturated",g,--,--,0.000,0.000
"Fatty acids, total polyunsaturated",g,--,--,0.501,1.670
"Fatty acids, total trans",g,--,--,0.000,0.000
"Cholesterol",mg,--,--,0,0
Amino Acids
Other
Ingredients
"UNBLEACHED ENRICHED WHEAT FLOUR[FLOUR, MALTED BARLEY FLOUR, REDUCED IRON, NIACIN, THIAMIN MONONITRATE (VITAMIN B1), RIBOFLAVIN (VITAMIN B2), FOLIC ACID], WATER, SUGAR, YEAST, BUTTERMILK, SOYBEAN OIL, SALT, GRAIN VINEGAR, CALCIUM PROPIONATE (PRESERVATIVE), DATEM, CALCIUM SULFATE, SOY LECITHIN POTASSIUM IODATE." Date available: 07/14/2017 Date last updated by company: 07/14/2017
