Source: USDA Branded Food Products Database Release December 2017 Software v.3.8.6.4 2017-10-02
Report Run at: December 17, 2017 05:15 EST
"Nutrient data for: 45194950, ENGLISH MUFFIN BREAKFAST SANDWICHES, UPC: 036800415485"
Food Group:  Branded Food Products Database
Common Name:

Nutrient,Unit,Data points,Std. Error,"1 SANDWICH = 119.0g",1Value per 100 g,
Proximates
"Energy",kcal,--,--,230,193
"Protein",g,--,--,12.00,10.08
"Total lipid (fat)",g,--,--,8.00,6.72
"Carbohydrate, by difference",g,--,--,28.00,23.53
"Fiber, total dietary",g,--,--,1.0,0.8
"Sugars, total",g,--,--,2.00,1.68
Minerals
"Calcium, Ca",mg,--,--,200,168
"Iron, Fe",mg,--,--,1.29,1.08
"Sodium, Na",mg,--,--,640,538
Vitamins
"Vitamin C, total ascorbic acid",mg,--,--,0.8,0.7
"Vitamin A, IU",IU,--,--,143,120
Lipids
"Fatty acids, total saturated",g,--,--,2.999,2.520
"Fatty acids, total trans",g,--,--,0.000,0.000
"Cholesterol",mg,--,--,109,92
Amino Acids
Other
Ingredients
"ENGLISH MUFFIN: (ENRICHED BLEACHED FLOUR [WHEAT FLOUR, MALTED BARLEY FLOUR, NIACIN, REDUCED IRON, THIAMINE MONONITRATE, RIBOFLAVIN, FOLIC ACID], WATER, YEAST, CONTAINS 2% OR LESS OF EACH OF THE FOLLOWING: YELLOW CORN MEAL, YELLOW CORN FLOUR, CALCIUM PROPIONATE [PRESERVATIVE], SOYBEAN OIL, SUGAR, SALT, WHEAT GLUTEN, CALCIUM SULFATE, BARLEY MALT, ASCORBIC ACID, TRICALCIUM PHOSPHATE, DATEM, WHEAT STARCH, ENZYMES, CALCIUM SILICATE, CALCIUM PEROXIDE, TRIGLYCERIDES, ARTIFICIAL AND NATURAL FLAVORS, SILICON DIOXIDE, FUMARIC ACID, CITRIC ACID, CALCIUM CITRATE, MONOCALCIUM PHOSPHATE MONOHYDRATE), EGG PATTY: (WHOLE EGGS, WATER, DRY WHOLE MILK, SOYBEAN OIL, SALT, XANTHAN GUM, CITRIC ACID, SOY LECITHIN [RELEASE AGENT]), HAM: (PORK CURED WITH WATER, DEXTROSE, SALT, CONTAINS 2% OR LESS OF: SODIUM LACTATE, SUGAR, SODIUM PHOSPHATE, SODIUM DIACETATE, SODIUM ERYTHORBATE, SODIUM NITRITE), PROCESS AMERICAN SHARP CHEESE: (CULTURED MILK AND SKIM MILK, CREAM, SODIUM CITRATE, SALT, ARTIFICIAL COLOR, SODIUM PHOSPHATE, SORBIC ACID [PRESERVATIVE], ACETIC ACID, ENZYMES, SOY LECITHIN)." Date available: 10/13/2017 Date last updated by company: 10/13/2017
