Source: USDA Branded Food Products Database Release December 2017 Software v.3.8.6.4 2017-10-02
Report Run at: December 17, 2017 05:16 EST
"Nutrient data for: 45183629, ENGLISH MUFFINS, UPC: 075551111208"
Food Group:  Branded Food Products Database
Common Name:

Nutrient,Unit,Data points,Std. Error,"1 ENGLISH MUFFIN = 57.0g",1Value per 100 g,
Proximates
"Energy",kcal,--,--,120,211
"Protein",g,--,--,4.00,7.02
"Total lipid (fat)",g,--,--,0.50,0.88
"Carbohydrate, by difference",g,--,--,24.00,42.11
"Fiber, total dietary",g,--,--,1.0,1.8
"Sugars, total",g,--,--,1.00,1.75
Minerals
"Calcium, Ca",mg,--,--,100,175
"Iron, Fe",mg,--,--,1.39,2.44
"Sodium, Na",mg,--,--,300,526
Vitamins
"Vitamin C, total ascorbic acid",mg,--,--,0.0,0.0
"Thiamin",mg,--,--,0.000,0.000
"Riboflavin",mg,--,--,0.170,0.298
"Niacin",mg,--,--,1.544,2.709
"Vitamin A, IU",IU,--,--,0,0
Lipids
"Fatty acids, total saturated",g,--,--,0.000,0.000
"Fatty acids, total trans",g,--,--,0.000,0.000
"Cholesterol",mg,--,--,0,0
Amino Acids
Other
Ingredients
"ENRICHED BLEACHED WHEAT FLOUR (WHEAT FLOUR, MALTED BARLEY FLOUR, NIACIN, FERROUS SULFATE, THIAMINE MONONITRATE, RIBOFLAVIN, FOLIC ACID), WATER, YELLOW CORNMEAL, YEAST, CONTAINS 2% OR LESS OF THE FOLLOWING: DEXTROSE, SALT, POTATO FLOUR, BAKING POWDER (SODIUM ACID PYROPHOSPHATE, SODIUM BICARBONATE, CORN STARCH, MONOCALCIUM PHOSPHATE), CALCIUM PROPIONATE, DISTILLED VINEGAR, MONOGLYCERIDES, PROPIONIC ACID, PHOSPHORIC ACID, FUMARIC ACID, HYDROGENATED SOYBEAN OIL, MINERAL OIL (PROCESSING AID), SOYBEAN OIL, POTASSIUM SORBATE." Date available: 07/14/2017 Date last updated by company: 07/14/2017
