Source: USDA Branded Food Products Database Release December 2017 Software v.3.8.6.4 2017-10-02
Report Run at: December 17, 2017 05:17 EST
"Nutrient data for: 45281695, ENGLISH MUFFINS, UPC: 041163456761"
Food Group:  Branded Food Products Database
Common Name:

Nutrient,Unit,Data points,Std. Error,"1 MUFFIN = 61.0g",1Value per 100 g,
Proximates
"Energy",kcal,--,--,130,213
"Protein",g,--,--,4.00,6.56
"Total lipid (fat)",g,--,--,1.00,1.64
"Carbohydrate, by difference",g,--,--,25.00,40.98
"Fiber, total dietary",g,--,--,1.0,1.6
"Sugars, total",g,--,--,1.00,1.64
Minerals
"Calcium, Ca",mg,--,--,40,66
"Iron, Fe",mg,--,--,1.30,2.13
"Sodium, Na",mg,--,--,250,410
Vitamins
"Vitamin C, total ascorbic acid",mg,--,--,0.0,0.0
"Thiamin",mg,--,--,0.000,0.000
"Riboflavin",mg,--,--,0.153,0.251
"Niacin",mg,--,--,2.704,4.433
"Vitamin A, IU",IU,--,--,0,0
Lipids
"Fatty acids, total saturated",g,--,--,0.000,0.000
"Fatty acids, total monounsaturated",g,--,--,0.000,0.000
"Fatty acids, total polyunsaturated",g,--,--,0.000,0.000
"Fatty acids, total trans",g,--,--,0.000,0.000
"Cholesterol",mg,--,--,0,0
Amino Acids
Other
Ingredients
"ENRICHED UNBLEACHED WHEAT FLOUR (WHEAT FLOUR, MALTED BARLEY FLOUR, NIACIN, REDUCED IRON, THIAMIN MONONITRATE, RIBOFLAVIN AND FOLIC ACID), WATER, YEAST, CORNMEAL, HIGH FRUCTOSE CORN SYRUP. CONTAINS 2% OR LESS OF EACH OF THE FOLLOWING: SALT, DISTILLED VINEGAR, VEGETABLE OIL (CANOLA OR SOY), YEAST NUTRIENT (AMMONIUM SULPHATE), DOUGH CONDITIONERS (PROTEASE, ASCORBIC ACID, MONO- DIGLYCERIDES), CALCIUM PROPIONATE AND POTASSIUM SORBATE (MOLD INHIBITORS), CALCIUM SULFATE, ENZYMES, NONFAT DRY MILK." Date available: 07/14/2017 Date last updated by company: 07/14/2017
