Source: USDA Branded Food Products Database Release December 2017 Software v.3.8.6.4 2017-10-02
Report Run at: December 17, 2017 05:19 EST
"Nutrient data for: 45160618, ENJOY CHOCOLATE, LI HING SOUR WATERMELONS, UPC: 679757688085"
Food Group:  Branded Food Products Database
Common Name:

Nutrient,Unit,Data points,Std. Error,"1 ONZ = 30.0g",1Value per 100 g,
Proximates
"Energy",kcal,--,--,105,350
"Protein",g,--,--,0.80,2.67
"Total lipid (fat)",g,--,--,0.00,0.00
"Carbohydrate, by difference",g,--,--,27.00,90.00
"Fiber, total dietary",g,--,--,1.3,4.3
"Sugars, total",g,--,--,25.00,83.33
Minerals
"Calcium, Ca",mg,--,--,0,0
"Iron, Fe",mg,--,--,0.00,0.00
"Sodium, Na",mg,--,--,81,270
Vitamins
"Vitamin C, total ascorbic acid",mg,--,--,0.0,0.0
"Vitamin A, IU",IU,--,--,0,0
Lipids
"Fatty acids, total saturated",g,--,--,0.000,0.000
"Fatty acids, total trans",g,--,--,0.000,0.000
"Cholesterol",mg,--,--,0,0
Amino Acids
Other
Ingredients
"CORN SYRUP, SUGAR, MODIFIED POTATO STARCH, GELATIN, CITRIC ACID, FUMARIC ACID, TARTARIC ACID, MALIC ACID, SODIUM CITRATE, ARTIFICIAL FLAVORS, TITANIUM DIOXIDE, PLUM EXTRACT, SALT, LICONCE, ASPARTAME, FD&C, RED #3, RED #40, YELLOW #5" Date available: 07/14/2017 Date last updated by company: 07/14/2017
