Source: USDA Branded Food Products Database Release December 2017 Software v.3.8.6.4 2017-10-02
Report Run at: December 17, 2017 05:20 EST
"Nutrient data for: 45138674, ENJOY LIFE, PLENTILS, LENTIL CHIPS, DILL AND SOUR CREAM, UPC: 853522000283"
Food Group:  Branded Food Products Database
Common Name:

Nutrient,Unit,Data points,Std. Error,"1 BAG = 23.0g",1Value per 100 g,
Proximates
"Energy",kcal,--,--,100,435
"Protein",g,--,--,2.00,8.70
"Total lipid (fat)",g,--,--,5.00,21.74
"Carbohydrate, by difference",g,--,--,13.00,56.52
"Fiber, total dietary",g,--,--,1.0,4.4
"Sugars, total",g,--,--,1.00,4.35
Minerals
"Calcium, Ca",mg,--,--,0,0
"Iron, Fe",mg,--,--,0.00,0.00
"Sodium, Na",mg,--,--,280,1217
Vitamins
"Vitamin C, total ascorbic acid",mg,--,--,1.2,5.2
"Vitamin A, IU",IU,--,--,0,0
Lipids
"Fatty acids, total saturated",g,--,--,0.400,1.740
"Fatty acids, total trans",g,--,--,0.000,0.000
"Cholesterol",mg,--,--,0,0
Amino Acids
Other
Ingredients
"LENTIL CHIP (LENTIL FLOUR, POTATO STARCH, SALT, TURMERIC), SUNFLOWER OIL, SEASONING (MALTODEXTRIN, DEXTROSE, SALT, YEAST EXTRACT, ONION POWDER, VINEGAR, PARSLEY, SPICES, GARLIC POWDER, NATURAL FLAVORS)." Date available: 09/23/2016 Date last updated by company: 09/23/2016
