Source: USDA Branded Food Products Database Release December 2017 Software v.3.8.6.4 2017-10-02
Report Run at: December 17, 2017 05:21 EST
"Nutrient data for: 45166785, ENLIGHTENED, ROASTED BROAD BEANS, UPC: 852109004331"
Food Group:  Branded Food Products Database
Common Name:

Nutrient,Unit,Data points,Std. Error,"1 ONZ = 28.0g",1Value per 100 g,
Proximates
"Energy",kcal,--,--,100,357
"Protein",g,--,--,7.00,25.00
"Total lipid (fat)",g,--,--,2.50,8.93
"Carbohydrate, by difference",g,--,--,15.00,53.57
"Fiber, total dietary",g,--,--,3.0,10.7
"Sugars, total",g,--,--,1.00,3.57
Minerals
"Calcium, Ca",mg,--,--,20,71
"Iron, Fe",mg,--,--,1.93,6.88
"Sodium, Na",mg,--,--,150,536
Vitamins
"Vitamin C, total ascorbic acid",mg,--,--,0.0,0.0
"Vitamin A, IU",IU,--,--,0,0
Lipids
"Fatty acids, total saturated",g,--,--,0.000,0.000
"Fatty acids, total trans",g,--,--,0.000,0.000
"Cholesterol",mg,--,--,0,0
Amino Acids
Other
Ingredients
"BROAD BEANS (FAVA BEANS), SUNFLOWER OIL, SEASONING (GARLIC. TOMATO POWDER, ONION, CHILI POWDER, CANE SUGAR, YEAST EXTRACT, PAPRIKA EXTRACT, CITRIC ACID, NATURAL SMOKE FLAVOR, STEVIA), SEA SALT." Date available: 07/14/2017 Date last updated by company: 07/14/2017
