Source: USDA Branded Food Products Database Release December 2017 Software v.3.8.6.4 2017-10-02
Report Run at: December 17, 2017 05:31 EST
"Nutrient data for: 45281401, ENRICHED SEEDED HAMBURGER BUNS, UPC: 041268164288"
Food Group:  Branded Food Products Database
Common Name:

Nutrient,Unit,Data points,Std. Error,"1 BUN = 41.0g",1Value per 100 g,
Proximates
"Energy",kcal,--,--,120,293
"Protein",g,--,--,4.00,9.76
"Total lipid (fat)",g,--,--,1.00,2.44
"Carbohydrate, by difference",g,--,--,24.00,58.54
"Fiber, total dietary",g,--,--,1.0,2.4
"Sugars, total",g,--,--,4.00,9.76
Minerals
"Calcium, Ca",mg,--,--,80,195
"Iron, Fe",mg,--,--,1.75,4.28
"Sodium, Na",mg,--,--,240,585
Vitamins
"Vitamin C, total ascorbic acid",mg,--,--,0.0,0.0
"Thiamin",mg,--,--,0.410,1.000
"Riboflavin",mg,--,--,0.166,0.405
"Niacin",mg,--,--,1.952,4.761
"Vitamin A, IU",IU,--,--,0,0
Lipids
"Fatty acids, total saturated",g,--,--,0.000,0.000
"Fatty acids, total monounsaturated",g,--,--,0.000,0.000
"Fatty acids, total polyunsaturated",g,--,--,0.500,1.220
"Fatty acids, total trans",g,--,--,0.000,0.000
"Cholesterol",mg,--,--,0,0
Amino Acids
Other
Ingredients
"UNBLEACHED ENRICHED FLOUR (WHEAT FLOUR, MALTED BARLEY FLOUR, NIACIN, REDUCED IRON, THIAMIN MONONITRATE, RIBOFLAVIN, FOLIC ACID), WATER, HIGH FRUCTOSE CORN SYRUP, YEAST, CONTAINS 2% OR LESS OF EACH OF THE FOLLOWING: WHEAT GLUTEN, SALT, VEGETABLE OIL (SOYBEAN OIL OR CANOLA OIL), DOUGH CONDITIONERS (CONTAINS ONE OR MORE OF THE FOLLOWING: SODIUM STEAROYL LACTYLATE, CALCIUM STEAROYL LACTYLATE, MONOGLYCERIDES AND/OR DIGLYCERIDES, CALCIUM PEROXIDE, CALCIUM IODATE, DATEM, ETHOXYLATED MONO- AND DIGLYCERIDES, ENZYMES), SOY FLOUR, CALCIUM SULFATE, AMMONIUM SULFATE, ASCORBIC ACID, MONOCALCIUM PHOSPHATE, CALCIUM CARBONATE, SORBIC ACID, SOY LECITHIN, CALCIUM PROPIONATE (TO RETARD SPOILAGE). IF SEEDED SESAME SEEDS ADDED. IF YELLOW CONTAINS TURMERIC, PAPRIKA AND CORN FLOUR." Date available: 07/14/2017 Date last updated by company: 07/14/2017
