Source: USDA Branded Food Products Database Release December 2017 Software v.3.8.6.4 2017-10-02
Report Run at: December 17, 2017 05:22 EST
"Nutrient data for: 45055687, ENRICHED BREAD, UPC: 071010100356"
Food Group:  Branded Food Products Database
Common Name:

Nutrient,Unit,Data points,Std. Error,"1 SLICE = 31.0g",1Value per 100 g,
Proximates
"Energy",kcal,--,--,80,258
"Protein",g,--,--,3.00,9.68
"Total lipid (fat)",g,--,--,1.00,3.23
"Carbohydrate, by difference",g,--,--,16.00,51.61
"Fiber, total dietary",g,--,--,1.0,3.2
"Sugars, total",g,--,--,1.00,3.23
Minerals
"Calcium, Ca",mg,--,--,100,323
"Iron, Fe",mg,--,--,1.74,5.62
"Potassium, K",mg,--,--,30,97
"Sodium, Na",mg,--,--,160,516
Vitamins
"Vitamin C, total ascorbic acid",mg,--,--,0.0,0.0
"Thiamin",mg,--,--,0.310,1.000
"Riboflavin",mg,--,--,0.102,0.329
"Niacin",mg,--,--,1.936,6.245
"Vitamin A, IU",IU,--,--,0,0
"Vitamin D",IU,--,--,160,516
Lipids
"Fatty acids, total saturated",g,--,--,0.000,0.000
"Fatty acids, total monounsaturated",g,--,--,0.000,0.000
"Fatty acids, total polyunsaturated",g,--,--,0.499,1.610
"Fatty acids, total trans",g,--,--,0.000,0.000
"Cholesterol",mg,--,--,0,0
Amino Acids
Other
Ingredients
"ENRICHED FLOUR (WHEAT FLOUR, MALTED BARLEY FLOUR, NIACIN, REDUCED IRON, THIAMIN MONONITRATE, RIBOFLAVIN, FOLIC ACID), WATER, YEAST, SUGAR, CONTAINS 2% OR LESS OF EACH OF THE FOLLOWING: SOYBEAN OIL, SALT, CULTURED WHEAT FLOUR, CALCIUM SULFATE, SOY FLOUR, VINEGAR, CALCIUM CARBONATE, WHEAT FLOUR, WHEY, GUAR GUM, DATEM, DRIED YEAST, BUTTERMILK, ENZYMES, ASCORBIC ACID (DOUGH CONDITIONER)." Date available: 06/24/2017 Date last updated by company: 06/24/2017
