Source: USDA Branded Food Products Database Release December 2017 Software v.3.8.6.4 2017-10-02
Report Run at: December 17, 2017 05:26 EST
"Nutrient data for: 45281601, ENRICHED LONG GRAIN WHITE RICE, UPC: 041303014820"
Food Group:  Branded Food Products Database
Common Name:

Nutrient,Unit,Data points,Std. Error,"0.25 cup = 45.0g",1Value per 100 g,
Proximates
"Energy",kcal,--,--,150,333
"Protein",g,--,--,3.00,6.67
"Total lipid (fat)",g,--,--,0.00,0.00
"Carbohydrate, by difference",g,--,--,33.00,73.33
"Fiber, total dietary",g,--,--,1.0,2.2
"Sugars, total",g,--,--,0.00,0.00
Minerals
"Iron, Fe",mg,--,--,1.44,3.20
"Sodium, Na",mg,--,--,0,0
Vitamins
"Thiamin",mg,--,--,0.000,0.000
"Niacin",mg,--,--,1.600,3.556
Lipids
"Fatty acids, total saturated",g,--,--,0.000,0.000
"Fatty acids, total trans",g,--,--,0.000,0.000
"Cholesterol",mg,--,--,0,0
Amino Acids
Other
Ingredients
"LONG GRAIN RICE, FERRIC PHOSPHATE, NIACIN, THIAMIN MONONITRATE, FOLIC ACID." Date available: 07/14/2017 Date last updated by company: 07/14/2017
