Source: USDA Branded Food Products Database Release December 2017 Software v.3.8.6.4 2017-10-02
Report Run at: December 17, 2017 05:34 EST
"Nutrient data for: 45123548, ENTENMANN'S, ALL BUTTER LOAF CAKE, UPC: 072030000213"
Food Group:  Branded Food Products Database
Common Name:

Nutrient,Unit,Data points,Std. Error,"0.166 LOAF = 54.0g",1Value per 100 g,
Proximates
"Energy",kcal,--,--,200,370
"Protein",g,--,--,3.00,5.56
"Total lipid (fat)",g,--,--,8.00,14.81
"Carbohydrate, by difference",g,--,--,29.00,53.70
"Fiber, total dietary",g,--,--,0.0,0.0
"Sugars, total",g,--,--,17.00,31.48
Minerals
"Calcium, Ca",mg,--,--,20,37
"Iron, Fe",mg,--,--,0.00,0.00
"Sodium, Na",mg,--,--,230,426
Vitamins
"Vitamin C, total ascorbic acid",mg,--,--,0.0,0.0
"Vitamin A, IU",IU,--,--,444,823
Lipids
"Fatty acids, total saturated",g,--,--,4.498,8.330
"Fatty acids, total monounsaturated",g,--,--,1.998,3.700
"Fatty acids, total polyunsaturated",g,--,--,0.502,0.930
"Fatty acids, total trans",g,--,--,0.000,0.000
"Cholesterol",mg,--,--,55,102
Amino Acids
Other
Ingredients
"SUGAR, BLEACHED WHEAT FLOUR, EGGS, BUTTER (MILK), NONFAT MILK, WATER, GLYCERIN, MODIFIED CORNSTARCH, SOYBEAN OIL, LEAVENING (SODIUM ACID PYROPHOSPHATE, BAKING SODA, MONOCALCIUM PHOSPHATE), PRESERVATIVES (POTASSIUM SORBATE, SORBIC ACID, SODIUM PROPIONATE), SALT, SORBITAN MONOSTEARATE, ARTIFICIAL FLAVOR, CORNSTARCH, POLYSORBATE 60, XANTHAN GUM, MONO- AND DIGLYCERIDES, PHOSPHORIC ACID, SODIUM STEAROYL LACTYLATE, CELLULOSE GUM, SOY FLOUR, COCONUT FLOUR." Date available: 07/14/2017 Date last updated by company: 07/14/2017
