Source: USDA Branded Food Products Database Release December 2017 Software v.3.8.6.4 2017-10-02
Report Run at: December 17, 2017 05:37 EST
"Nutrient data for: 45024968, EQUAL EXCHANGE, ORGANIC DARK CHOCOLATE MINIS, UPC: 000000016193"
Food Group:  Branded Food Products Database
Common Name:

Nutrient,Unit,Data points,Std. Error,"9.0 MINIS = 40.0g",1Value per 100 g,
Proximates
"Energy",kcal,--,--,230,575
"Protein",g,--,--,2.00,5.00
"Total lipid (fat)",g,--,--,15.00,37.50
"Carbohydrate, by difference",g,--,--,22.00,55.00
"Fiber, total dietary",g,--,--,3.0,7.5
"Sugars, total",g,--,--,17.00,42.50
Minerals
"Calcium, Ca",mg,--,--,20,50
"Iron, Fe",mg,--,--,5.62,14.06
Vitamins
Lipids
"Fatty acids, total saturated",g,--,--,9.000,22.500
Amino Acids
Other
Ingredients
"ORGANIC CHOCOLATE LIQUOR, ORGANIC RAW CANE SUGAR, ORGANIC COCOA BUTTER, ORGANIC UNREFINED WHOLE CANE SUGAR, ORGANIC GROUND VANILLA BEANS." Date available: 07/14/2017 Date last updated by company: 07/14/2017
