Source: USDA Branded Food Products Database Release December 2017 Software v.3.8.6.4 2017-10-02
Report Run at: December 17, 2017 05:38 EST
"Nutrient data for: 45272545, ESCAPE TRAIL MIX, UPC: 041498211172"
Food Group:  Branded Food Products Database
Common Name:

Nutrient,Unit,Data points,Std. Error,"0.25 cup = 28.0g",1Value per 100 g,
Proximates
"Energy",kcal,--,--,120,429
"Protein",g,--,--,2.00,7.14
"Total lipid (fat)",g,--,--,5.00,17.86
"Carbohydrate, by difference",g,--,--,17.00,60.71
"Fiber, total dietary",g,--,--,2.0,7.1
"Sugars, total",g,--,--,13.00,46.43
Minerals
"Calcium, Ca",mg,--,--,20,71
"Iron, Fe",mg,--,--,1.29,4.59
"Sodium, Na",mg,--,--,0,0
Vitamins
"Vitamin C, total ascorbic acid",mg,--,--,0.0,0.0
"Vitamin A, IU",IU,--,--,0,0
Lipids
"Fatty acids, total saturated",g,--,--,0.000,0.000
"Fatty acids, total trans",g,--,--,0.000,0.000
"Cholesterol",mg,--,--,0,0
Amino Acids
Other
Ingredients
"CRANBERRIES (CRANBERRIES, SUGAR, SUNFLOWER OIL), ALMONDS, RAISINS, RASPBERRY FLAVORED CRANBERRIES (CRANBERRIES, SUGAR, SUNFLOWER OIL, NATURAL RASPBERRY FLAVOR), BLUEBERRIES (CULTIVATED BLUEBERRIES, SUGAR, SUNFLOWER OIL), ROASTED CASHEWS (CASHEWS, CANOLA, COTTONSEED AND/OR PEANUT OIL), WALNUTS." Date available: 07/14/2017 Date last updated by company: 07/14/2017
