Source: USDA Branded Food Products Database Release December 2017 Software v.3.8.6.4 2017-10-02
Report Run at: December 17, 2017 05:46 EST
"Nutrient data for: 45096598, ESSENTIAL EVERYDAY, GRAVY MIX, MUSHROOM, UPC: 041303001134"
Food Group:  Branded Food Products Database
Common Name:

Nutrient,Unit,Data points,Std. Error,"0.25 CUP PREPARED | DRY MIX MARKS = 5.0g",1Value per 100 g,
Proximates
"Energy",kcal,--,--,15,300
"Protein",g,--,--,1.00,20.00
"Total lipid (fat)",g,--,--,0.00,0.00
"Carbohydrate, by difference",g,--,--,3.00,60.00
"Sugars, total",g,--,--,0.00,0.00
Minerals
"Sodium, Na",mg,--,--,250,5000
Vitamins
Lipids
"Fatty acids, total saturated",g,--,--,0.000,0.000
"Fatty acids, total trans",g,--,--,0.000,0.000
Amino Acids
Other
Ingredients
"WHEAT FLOUR, HYDROLYZED VEGETABLE PROTEIN (HYDROLYZED SOY PROTEIN AND HYDROLYZED CORN GLUTEN [YEAST EXTRACT, CORN SYRUP SOLIDS]), SALT, DEHYDRATED MUSHROOMS, MALTODEXTRIN, CORN STARCH, NATURAL FLAVORS (BEEF STOCK, CITRIC ACID), CREAMER (PARTIALLY HYDROGENATED SOYBEAN OIL, CORN SYRUP SOLIDS, SODIUM CASEINATE, MONO AND DIGLYCERIDES, DIPOTASSIUM PHOSPHATE, BEEF FAT, CARAMEL COLOR, DEHYADRATED ONION, DEXTROSE,LACTIC ACID,DISODIUM INOSINATE, DISODIUM GUANYLATE." Date available: 06/25/2017 Date last updated by company: 06/25/2017
