Source: USDA Branded Food Products Database Release December 2017 Software v.3.8.6.4 2017-10-02
Report Run at: December 17, 2017 05:57 EST
"Nutrient data for: 45285053, ESSENTIALS SYRUP, UPC: 607880101072"
Food Group:  Branded Food Products Database
Common Name:

Nutrient,Unit,Data points,Std. Error,"0.25 cup = 60.0g",1Value per 100 g,
Proximates
"Energy",kcal,--,--,210,350
"Protein",g,--,--,0.00,0.00
"Total lipid (fat)",g,--,--,0.00,0.00
"Carbohydrate, by difference",g,--,--,53.00,88.33
"Sugars, total",g,--,--,30.00,50.00
Minerals
"Sodium, Na",mg,--,--,115,192
Vitamins
Lipids
Amino Acids
Other
Ingredients
"HIGH FRUCTOSE CORN SYRUP, CORN SYRUP, WATER, SALT, CELLULOSE GUM, NATURAL AND ARTIFICIAL FLAVORS, POTASSIUM SORBATE (PRESERVATIVE), MOLASSES, CARAMEL COLOR, SODIUM HEXAMETAPHOSPHATE, CITRIC ACID." Date available: 07/14/2017 Date last updated by company: 07/14/2017
