Source: USDA Branded Food Products Database Release December 2017 Software v.3.8.6.4 2017-10-02
Report Run at: December 17, 2017 05:51 EST
"Nutrient data for: 45163784, ESSENTIAL EVERYDAY, PECAN SHORTBREAD COOKIES, UPC: 041303062326"
Food Group:  Branded Food Products Database
Common Name:

Nutrient,Unit,Data points,Std. Error,"2.0 COOKIES = 32.0g",1Value per 100 g,
Proximates
"Energy",kcal,--,--,170,531
"Protein",g,--,--,2.00,6.25
"Total lipid (fat)",g,--,--,10.00,31.25
"Carbohydrate, by difference",g,--,--,19.00,59.38
"Fiber, total dietary",g,--,--,0.0,0.0
"Sugars, total",g,--,--,6.00,18.75
Minerals
"Calcium, Ca",mg,--,--,0,0
"Iron, Fe",mg,--,--,1.13,3.52
"Sodium, Na",mg,--,--,130,406
Vitamins
"Vitamin C, total ascorbic acid",mg,--,--,0.0,0.0
"Vitamin A, IU",IU,--,--,0,0
Lipids
"Fatty acids, total saturated",g,--,--,4.000,12.500
"Fatty acids, total trans",g,--,--,0.000,0.000
"Cholesterol",mg,--,--,0,0
Amino Acids
Other
Ingredients
"ENRICHED BLEACHED WHEAT FLOUR (WHEAT FLOUR, NIACIN, IRON, THIAMIN MONONITRATE, RIBOFLAVIN, FOLIC ACID), CANOLA AND/OR SOYBEAN AND/OR PALM OIL, SUGAR, PECANS, CONTAINS 2% OR LESS OF EGGS, SALT, BAKING SODA." Date available: 07/14/2017 Date last updated by company: 07/14/2017
