Source: USDA Branded Food Products Database Release December 2017 Software v.3.8.6.4 2017-10-02
Report Run at: December 17, 2017 05:48 EST
"Nutrient data for: 45108539, ESSENTIAL EVERYDAY, LIGHT ICED TEA, LEMON, UPC: 041303011515"
Food Group:  Branded Food Products Database
Common Name:

Nutrient,Unit,Data points,Std. Error,"0.125 PACKET = 0.9g",1Value per 100 g,
Proximates
"Energy",kcal,--,--,5,556
"Protein",g,--,--,0.00,0.00
"Total lipid (fat)",g,--,--,0.00,0.00
"Carbohydrate, by difference",g,--,--,0.00,0.00
"Sugars, total",g,--,--,0.00,0.00
Minerals
"Sodium, Na",mg,--,--,0,0
Vitamins
Lipids
Amino Acids
Other
Ingredients
"CITRIC ACID, MALTODEXTRIN, INSTANT TEA, CORN SYRUP SOLIDS, ASPARTAME**, CONTAINS LESS THAN 2% OF: NATURAL FLAVOR, MAGNESIUM OXIDE, ACESULFAME POTASSIUM, CALCIUM PHOSPHATE, CALCIUM SILICATE, RED 40 LAKE, RED 40, CARAMEL COLOR, YELLOW 6 LAKE, YELLOW 5, BLUE 1 LAKE, BLUE 1." Date available: 06/25/2017 Date last updated by company: 06/25/2017
