Source: USDA Branded Food Products Database Release December 2017 Software v.3.8.6.4 2017-10-02
Report Run at: December 17, 2017 05:58 EST
"Nutrient data for: 45216634, ESSENTIA, PURIFIED WATER AND ELECTROLYTES FOR TASTE, UPC: 657227001206"
Food Group:  Branded Food Products Database
Common Name:

Nutrient,Unit,Data points,Std. Error,"8.0 fl oz = 240.0g",1Value per 100 g,
Proximates
"Energy",kcal,--,--,0,0
"Protein",g,--,--,0.00,0.00
"Total lipid (fat)",g,--,--,0.00,0.00
"Carbohydrate, by difference",g,--,--,0.00,0.00
Minerals
"Sodium, Na",mg,--,--,0,0
Vitamins
Lipids
Amino Acids
Other
Ingredients
"PURIFIED WATER, SODIUM BICARBONATE, DIPOTASSIUM PHOSPHATE, MAGNESIUM SULFATE AND CALCIUM CHLORIDE (ELECTROLYTE SOURCES*)." Date available: 03/22/2017 Date last updated by company: 03/22/2017
