Source: USDA Branded Food Products Database Release December 2017 Software v.3.8.6.4 2017-10-02
Report Run at: December 17, 2017 05:57 EST
"Nutrient data for: 45155412, ESSENTIAL EVERYDAY, WONTON STRIPS SALAD TOPPER, UPC: 041303054086"
Food Group:  Branded Food Products Database
Common Name:

Nutrient,Unit,Data points,Std. Error,"2.0 Tbsp = 7.0g",1Value per 100 g,
Proximates
"Energy",kcal,--,--,40,571
"Protein",g,--,--,1.00,14.29
"Total lipid (fat)",g,--,--,2.00,28.57
"Carbohydrate, by difference",g,--,--,4.00,57.14
Minerals
"Iron, Fe",mg,--,--,2.57,36.75
"Sodium, Na",mg,--,--,35,500
Vitamins
Lipids
"Fatty acids, total saturated",g,--,--,0.000,0.000
"Fatty acids, total monounsaturated",g,--,--,0.500,7.140
"Fatty acids, total polyunsaturated",g,--,--,1.000,14.290
"Fatty acids, total trans",g,--,--,0.000,0.000
"Cholesterol",mg,--,--,0,0
Amino Acids
Other
Ingredients
"ENRICHED FLOUR (WHEAT FLOUR, NIACIN, REDUCED IRON, THIAMIN MONONITRATE, RIBOFLAVIN, FOLIC ACID, ENZYMES),VEGETABLE OIL (SOYBEAN AND/OR COTTONSEED OIL), WATER,CORNSTARCH, SALT, SODIUM BENZOATE (PRESERVATIVE)." Date available: 07/14/2017 Date last updated by company: 07/14/2017
