Source: USDA Branded Food Products Database Release December 2017 Software v.3.8.6.4 2017-10-02
Report Run at: December 17, 2017 05:41 EST
"Nutrient data for: 45101696, ESSENTIAL EVERYDAY, BAKING COCOA, UPC: 041303018620"
Food Group:  Branded Food Products Database
Common Name:

Nutrient,Unit,Data points,Std. Error,"1 Tbsp = 5.0g",1Value per 100 g,
Proximates
"Energy",kcal,--,--,10,200
"Protein",g,--,--,1.00,20.00
"Total lipid (fat)",g,--,--,0.50,10.00
"Carbohydrate, by difference",g,--,--,3.00,60.00
"Fiber, total dietary",g,--,--,1.0,20.0
Minerals
"Iron, Fe",mg,--,--,2.44,48.71
"Sodium, Na",mg,--,--,0,0
Vitamins
Lipids
Amino Acids
Other
Ingredients
"100% COCOA POWDER." Date available: 10/13/2017 Date last updated by company: 10/13/2017
