Source: USDA Branded Food Products Database Release December 2017 Software v.3.8.6.4 2017-10-02
Report Run at: December 17, 2017 05:40 EST
"Nutrient data for: 45015069, ESSENTIAL BAKING, SLICED WHITE BREAD, UPC: 813305012650"
Food Group:  Branded Food Products Database
Common Name:

Nutrient,Unit,Data points,Std. Error,"1 SLICE = 45.0g",1Value per 100 g,
Proximates
"Energy",kcal,--,--,110,244
"Protein",g,--,--,3.00,6.67
"Total lipid (fat)",g,--,--,2.50,5.56
"Carbohydrate, by difference",g,--,--,20.00,44.44
"Fiber, total dietary",g,--,--,0.0,0.0
"Sugars, total",g,--,--,0.00,0.00
Minerals
"Calcium, Ca",mg,--,--,0,0
"Iron, Fe",mg,--,--,1.20,2.67
"Sodium, Na",mg,--,--,220,489
Vitamins
"Vitamin C, total ascorbic acid",mg,--,--,0.0,0.0
"Vitamin A, IU",IU,--,--,0,0
Lipids
"Fatty acids, total saturated",g,--,--,0.000,0.000
"Fatty acids, total trans",g,--,--,0.000,0.000
"Cholesterol",mg,--,--,0,0
Amino Acids
Other
Ingredients
"ORGANIC UNBLEACHED WHEAT FLOUR, WATER, CANOLA OIL, SEA SALT, ORGANIC BARLEY MALT, YEAST." Date available: 06/25/2017 Date last updated by company: 06/25/2017
