Source: USDA Branded Food Products Database Release December 2017 Software v.3.8.6.4 2017-10-02
Report Run at: December 17, 2017 05:56 EST
"Nutrient data for: 45002522, ESSENTIAL EVERYDAY, VEGETARIAN BAKED BEANS, UPC: 041303004234"
Food Group:  Branded Food Products Database
Common Name:

Nutrient,Unit,Data points,Std. Error,"0.5 cup = 130.0g",1Value per 100 g,
Proximates
"Energy",kcal,--,--,140,108
"Protein",g,--,--,6.01,4.62
"Total lipid (fat)",g,--,--,0.00,0.00
"Carbohydrate, by difference",g,--,--,27.00,20.77
"Fiber, total dietary",g,--,--,7.0,5.4
"Sugars, total",g,--,--,11.00,8.46
Minerals
"Calcium, Ca",mg,--,--,60,46
"Iron, Fe",mg,--,--,1.79,1.38
"Sodium, Na",mg,--,--,550,423
Vitamins
"Vitamin C, total ascorbic acid",mg,--,--,0.0,0.0
"Vitamin A, IU",IU,--,--,0,0
Lipids
"Fatty acids, total saturated",g,--,--,0.000,0.000
"Fatty acids, total trans",g,--,--,0.000,0.000
"Cholesterol",mg,--,--,0,0
Amino Acids
Other
Ingredients
"PREPARED WHITE BEANS, WATER, SUGAR, BROWN SUGAR, TOMATO PASTE, CONTAINS 2% OR LESS OF: SALT, CORN STARCH, MUSTARD (VINEGAR, WATER, MUSTARD SEED, SALT, TURMERIC, PAPRIKA, SPICES, GARLIC POWDER), CARAMEL COLOR, ONION POWDER, GARLIC POWDER, VINEGAR, EXTRACTIVE OF PAPRIKA." Date available: 07/14/2017 Date last updated by company: 07/14/2017
