Source: USDA Branded Food Products Database Release December 2017 Software v.3.8.6.4 2017-10-02
Report Run at: December 17, 2017 05:42 EST
"Nutrient data for: 45163788, ESSENTIAL EVERYDAY, CINNAMON BEARS CANDY, UPC: 041303064627"
Food Group:  Branded Food Products Database
Common Name:

Nutrient,Unit,Data points,Std. Error,"4.0 PIECES = 36.0g",1Value per 100 g,
Proximates
"Energy",kcal,--,--,120,333
"Protein",g,--,--,0.00,0.00
"Total lipid (fat)",g,--,--,0.00,0.00
"Carbohydrate, by difference",g,--,--,30.00,83.33
"Fiber, total dietary",g,--,--,0.0,0.0
"Sugars, total",g,--,--,19.00,52.78
Minerals
"Calcium, Ca",mg,--,--,0,0
"Iron, Fe",mg,--,--,0.00,0.00
"Sodium, Na",mg,--,--,10,28
Vitamins
"Vitamin C, total ascorbic acid",mg,--,--,0.0,0.0
"Vitamin A, IU",IU,--,--,0,0
Lipids
"Fatty acids, total saturated",g,--,--,0.000,0.000
"Fatty acids, total trans",g,--,--,0.000,0.000
"Cholesterol",mg,--,--,0,0
Amino Acids
Other
Ingredients
"CORN SYRUP, SUGAR, MODIFIED FOOD STARCH (CORN), MODIFIED FOOD STARCH (POTATO), CORNSTARCH, COCONUT OIL, CARNAUBA WAX, NATURAL AND ARTIFICIAL FLAVOR, BEESWAX, RED 40." Date available: 07/14/2017 Date last updated by company: 07/14/2017
