Source: USDA Branded Food Products Database Release December 2017 Software v.3.8.6.4 2017-10-02
Report Run at: December 17, 2017 05:56 EST
"Nutrient data for: 45101613, ESSENTIAL EVERYDAY, WALNUTS PIECES, UPC: 041303018941"
Food Group:  Branded Food Products Database
Common Name:

Nutrient,Unit,Data points,Std. Error,"1 PACKAGE = 56.0g",1Value per 100 g,
Proximates
"Energy",kcal,--,--,370,661
"Protein",g,--,--,9.00,16.07
"Total lipid (fat)",g,--,--,37.00,66.07
"Carbohydrate, by difference",g,--,--,8.00,14.29
"Fiber, total dietary",g,--,--,4.0,7.1
"Sugars, total",g,--,--,1.00,1.79
Minerals
"Calcium, Ca",mg,--,--,60,107
"Iron, Fe",mg,--,--,1.61,2.87
"Sodium, Na",mg,--,--,0,0
Vitamins
"Vitamin C, total ascorbic acid",mg,--,--,1.1,1.9
"Vitamin A, IU",IU,--,--,0,0
Lipids
"Fatty acids, total saturated",g,--,--,3.500,6.250
"Fatty acids, total trans",g,--,--,0.000,0.000
"Cholesterol",mg,--,--,0,0
Amino Acids
Other
Ingredients
"WALNUTS." Date available: 06/25/2017 Date last updated by company: 06/25/2017
