Source: USDA Branded Food Products Database Release December 2017 Software v.3.8.6.4 2017-10-02
Report Run at: December 17, 2017 05:40 EST
"Nutrient data for: 45179953, ESSENTIAL BAKING, FRENCH BAGUETTE, UPC: 813305013343"
Food Group:  Branded Food Products Database
Common Name:

Nutrient,Unit,Data points,Std. Error,"1.75 OZ = 50.0g",1Value per 100 g,
Proximates
"Energy",kcal,--,--,100,200
"Protein",g,--,--,3.00,6.00
"Total lipid (fat)",g,--,--,0.00,0.00
"Carbohydrate, by difference",g,--,--,22.00,44.00
"Fiber, total dietary",g,--,--,0.0,0.0
"Sugars, total",g,--,--,0.00,0.00
Minerals
"Calcium, Ca",mg,--,--,0,0
"Iron, Fe",mg,--,--,1.08,2.16
"Sodium, Na",mg,--,--,230,460
Vitamins
"Vitamin C, total ascorbic acid",mg,--,--,0.0,0.0
"Vitamin A, IU",IU,--,--,0,0
Lipids
"Fatty acids, total saturated",g,--,--,0.000,0.000
"Fatty acids, total trans",g,--,--,0.000,0.000
"Cholesterol",mg,--,--,0,0
Amino Acids
Other
Ingredients
"ORGANIC UNBLEACHED WHEAT FLOUR, WATER, SEA SALT." Date available: 07/14/2017 Date last updated by company: 07/14/2017
