Source: USDA Branded Food Products Database Release December 2017 Software v.3.8.6.4 2017-10-02
Report Run at: December 17, 2017 05:58 EST
"Nutrient data for: 45209609, ESVELTTA TEA, UPC: 023545211335"
Food Group:  Branded Food Products Database
Common Name:

Nutrient,Unit,Data points,Std. Error,"1 TEA BAG = 1.4g",1Value per 100 g,
Proximates
"Energy",kcal,--,--,0,0
"Protein",g,--,--,0.00,0.00
"Total lipid (fat)",g,--,--,0.00,0.00
"Carbohydrate, by difference",g,--,--,1.00,71.43
"Fiber, total dietary",g,--,--,0.3,17.9
"Sugars, total",g,--,--,0.00,0.00
Minerals
Vitamins
Lipids
Amino Acids
Other
Ingredients
"GREEN TEA, BLACK TEA, FENUGREEK, CORIANDER SEEDS, RED TEA, PINEAPPLE FLAVOR, CITRIC ACID." Date available: 07/14/2017 Date last updated by company: 07/14/2017
