Source: USDA Branded Food Products Database Release December 2017 Software v.3.8.6.4 2017-10-02
Report Run at: December 17, 2017 05:59 EST
"Nutrient data for: 45249469, ETHEL M CHOCOLATES, SUGAR FREE DARK CHOCOLATES, UPC: 012937471594"
Food Group:  Branded Food Products Database
Common Name:

Nutrient,Unit,Data points,Std. Error,"1 BAR = 39.0g",1Value per 100 g,
Proximates
"Energy",kcal,--,--,170,436
"Protein",g,--,--,2.00,5.13
"Total lipid (fat)",g,--,--,14.00,35.90
"Carbohydrate, by difference",g,--,--,22.00,56.41
"Fiber, total dietary",g,--,--,3.0,7.7
"Sugars, total",g,--,--,0.00,0.00
Minerals
"Calcium, Ca",mg,--,--,20,51
"Iron, Fe",mg,--,--,3.00,7.69
"Sodium, Na",mg,--,--,0,0
Vitamins
"Vitamin C, total ascorbic acid",mg,--,--,1.5,3.9
"Vitamin A, IU",IU,--,--,128,328
Lipids
"Fatty acids, total saturated",g,--,--,7.999,20.510
"Fatty acids, total trans",g,--,--,0.000,0.000
"Cholesterol",mg,--,--,20,51
Amino Acids
Other
Ingredients
"MALTITOL, CHOCOLATE PROCESSED WITH ALKALI, COCOA BUTTER, MILKFAT, SOY LECITHIN, SUCRALOSE, VANILLIN, SALT." Date available: 07/14/2017 Date last updated by company: 07/14/2017
