Source: USDA Branded Food Products Database Release December 2017 Software v.3.8.6.4 2017-10-02
Report Run at: December 17, 2017 05:58 EST
"Nutrient data for: 45248307, ETHEL M CHOCOLATES, ALMOND BUTTER KRISPS, UPC: 012937467856"
Food Group:  Branded Food Products Database
Common Name:

Nutrient,Unit,Data points,Std. Error,"4.0 PIECES = 41.0g",1Value per 100 g,
Proximates
"Energy",kcal,--,--,230,561
"Protein",g,--,--,3.00,7.32
"Total lipid (fat)",g,--,--,18.00,43.90
"Carbohydrate, by difference",g,--,--,15.00,36.59
"Fiber, total dietary",g,--,--,2.0,4.9
"Sugars, total",g,--,--,12.00,29.27
Minerals
"Calcium, Ca",mg,--,--,60,146
"Iron, Fe",mg,--,--,0.88,2.14
"Sodium, Na",mg,--,--,90,220
Vitamins
"Vitamin C, total ascorbic acid",mg,--,--,0.0,0.0
"Vitamin A, IU",IU,--,--,488,1190
Lipids
"Fatty acids, total saturated",g,--,--,6.999,17.070
"Fatty acids, total trans",g,--,--,0.000,0.000
"Cholesterol",mg,--,--,24,59
Amino Acids
Other
Ingredients
"ALMONDS, BUTTER, SUGAR, MILK CHOCOLATE (SUGAR, COCOA BUTTER, CHOCOLATE, SKIM MILK, MILKFAT, LACTOSE, CHOCOLATE PROCESSED WITH ALKALI, SOY LECITHIN, NATURAL & ARTIFICIAL FLAVORS), SALT, SOY LECITHIN." Date available: 07/14/2017 Date last updated by company: 07/14/2017
