Source: USDA Branded Food Products Database Release December 2017 Software v.3.8.6.4 2017-10-02
Report Run at: December 17, 2017 05:59 EST
"Nutrient data for: 45080131, ETHIOPIAN SIMMER SAUCE, UPC: 892759002004"
Food Group:  Branded Food Products Database
Common Name:

Nutrient,Unit,Data points,Std. Error,"2.0 Tbsp = 30.0g",1Value per 100 g,
Proximates
"Energy",kcal,--,--,70,233
"Protein",g,--,--,1.00,3.33
"Total lipid (fat)",g,--,--,6.00,20.00
"Carbohydrate, by difference",g,--,--,3.00,10.00
"Fiber, total dietary",g,--,--,1.0,3.3
"Sugars, total",g,--,--,2.00,6.67
Minerals
"Calcium, Ca",mg,--,--,0,0
"Iron, Fe",mg,--,--,1.46,4.87
"Sodium, Na",mg,--,--,5,17
Vitamins
"Vitamin C, total ascorbic acid",mg,--,--,9.8,32.5
"Vitamin A, IU",IU,--,--,2029,6763
Lipids
"Fatty acids, total saturated",g,--,--,0.999,3.330
Amino Acids
Other
Ingredients
"ONIONS, ORGANIC TOMATO PUREE, OLIVE OIL, RED CHILI PEPPERS, GARLIC, SPICES, PAPRIKA, CITRIC ACID, WATER, XANTHAN GUM, NATURAL VITAMIN E (PROTECTS FLAVOR)." Date available: 07/14/2017 Date last updated by company: 07/14/2017
