Source: USDA Branded Food Products Database Release December 2017 Software v.3.8.6.4 2017-10-02
Report Run at: December 17, 2017 05:59 EST
"Nutrient data for: 45164308, EUPHORIA CHOCOLATE COMPANY, TRUFFLE, FRUIT CREAM, UPC: 050469055110"
Food Group:  Branded Food Products Database
Common Name:

Nutrient,Unit,Data points,Std. Error,"1 EACH = 21.0g",1Value per 100 g,
Proximates
"Energy",kcal,--,--,100,476
"Protein",g,--,--,1.00,4.76
"Total lipid (fat)",g,--,--,6.00,28.57
"Carbohydrate, by difference",g,--,--,11.00,52.38
"Fiber, total dietary",g,--,--,1.0,4.8
"Sugars, total",g,--,--,10.00,47.62
Minerals
"Calcium, Ca",mg,--,--,20,95
"Iron, Fe",mg,--,--,0.86,4.08
"Sodium, Na",mg,--,--,15,71
Vitamins
"Vitamin C, total ascorbic acid",mg,--,--,5.7,27.2
"Vitamin A, IU",IU,--,--,0,0
Lipids
"Fatty acids, total saturated",g,--,--,3.501,16.670
"Fatty acids, total trans",g,--,--,0.000,0.000
"Cholesterol",mg,--,--,5,24
Amino Acids
Other
Ingredients
"DARK CHOCOLATE [SUGAR, CHOCOLATE LIQUOR, CHOCOLATE LIQUOR PROCESSED WITH ALKALI, COCOA BUTTER, BUTTERFAT, SOY LECITHIN (EMULSIFIER), VANILLA]; MILK CHOCOLATE [SUGAR, COCOA BUTTER, MILK CHOCOLATE LIQUOR, SOY LECITHIN, VANILLA]; CREAM (MILK), DRIED FRUIT (APPLE, CHERRY, PEACH, RASPBERRY, STRAWBERRY, SUGAR, SUNFLOWER OIL, ASCORBIC ACID, CITRIC ACID, CINNAMON), INVERTASE, ARTIFICIAL FLAVORS (PROPYLENE GLYCOL, RED 40, BLUE 1, YELLOW 5, ALCOHOL); WHITE CHOCOLATE [SUGAR, COCOA BUTTER, MILK, SOY LECITHIN, VANILLA]." Date available: 07/14/2017 Date last updated by company: 07/14/2017
