Source: USDA Branded Food Products Database Release December 2017 Software v.3.8.6.4 2017-10-02
Report Run at: December 17, 2017 06:01 EST
"Nutrient data for: 45093109, EUROPEAN GOURMET BAKERY, ORGANIC MUFFIN MIX, UPC: 058336175213"
Food Group:  Branded Food Products Database
Common Name:

Nutrient,Unit,Data points,Std. Error,"3.0 Tbsp = 38.0g",1Value per 100 g,
Proximates
"Energy",kcal,--,--,140,368
"Protein",g,--,--,2.00,5.26
"Total lipid (fat)",g,--,--,1.00,2.63
"Carbohydrate, by difference",g,--,--,31.00,81.58
"Fiber, total dietary",g,--,--,1.0,2.6
"Sugars, total",g,--,--,14.00,36.84
Minerals
"Calcium, Ca",mg,--,--,0,0
"Iron, Fe",mg,--,--,0.95,2.49
"Sodium, Na",mg,--,--,180,474
Vitamins
"Vitamin C, total ascorbic acid",mg,--,--,0.0,0.0
"Vitamin A, IU",IU,--,--,0,0
Lipids
"Fatty acids, total saturated",g,--,--,0.000,0.000
"Fatty acids, total trans",g,--,--,0.000,0.000
"Cholesterol",mg,--,--,0,0
Amino Acids
Other
Ingredients
"ORGANIC SUGAR, ORGANIC WHEAT FLOUR, ORGANIC ROLLED, OATS, ORGANIC OAT FLOUR, ORGANIC BAIBIN POWDER (ORGANIC RAISINS, ORGANIC RICE FLOUR AND ORGANIC SUNFLOWER LECITHIN), CREAM OF TARTAR, BAKING SODA, SALT, ORGANIC VANILLA FLAVOR, ORGANIC GUM BLEND (ORGANIC GUAR AND LOCUST BEAN GUMS), ORGANIC CINNAMON." Date available: 06/25/2017 Date last updated by company: 06/25/2017
