Source: USDA Branded Food Products Database Release December 2017 Software v.3.8.6.4 2017-10-02
Report Run at: December 17, 2017 06:02 EST
"Nutrient data for: 45272993, EVAPORATED FILLED MILK, UPC: 838452004945"
Food Group:  Branded Food Products Database
Common Name:

Nutrient,Unit,Data points,Std. Error,"2.0 Tbsp = 30.0g",1Value per 100 g,
Proximates
"Energy",kcal,--,--,40,133
"Protein",g,--,--,2.00,6.67
"Total lipid (fat)",g,--,--,2.00,6.67
"Carbohydrate, by difference",g,--,--,3.00,10.00
"Sugars, total",g,--,--,3.00,10.00
Minerals
"Calcium, Ca",mg,--,--,80,267
"Potassium, K",mg,--,--,105,350
"Sodium, Na",mg,--,--,30,100
Vitamins
"Riboflavin",mg,--,--,0.113,0.378
"Vitamin A, IU",IU,--,--,166,555
"Vitamin D",IU,--,--,24,80
Lipids
"Fatty acids, total saturated",g,--,--,0.999,3.330
"Fatty acids, total monounsaturated",g,--,--,0.999,3.330
"Fatty acids, total polyunsaturated",g,--,--,0.000,0.000
"Fatty acids, total trans",g,--,--,0.000,0.000
"Cholesterol",mg,--,--,0,0
Amino Acids
Other
Ingredients
"NONFAT MILK, PALM OIL, CONTAINS 0.5% OR LESS OF: DIPOTASSIUM PHOSPHATE, CARRAGEENAN, VITAMIN A PALMITATE, VITAMIN D3." Date available: 07/14/2017 Date last updated by company: 07/14/2017
