Source: USDA Branded Food Products Database Release December 2017 Software v.3.8.6.4 2017-10-02
Report Run at: December 17, 2017 06:04 EST
"Nutrient data for: 45237776, EVAPORATED MILK, VITAMIN D, UPC: 041497269440"
Food Group:  Branded Food Products Database
Common Name:

Nutrient,Unit,Data points,Std. Error,"2.0 Tbsp = 30.0g",1Value per 100 g,
Proximates
"Energy",kcal,--,--,40,133
"Protein",g,--,--,2.00,6.67
"Total lipid (fat)",g,--,--,2.00,6.67
"Carbohydrate, by difference",g,--,--,3.00,10.00
"Fiber, total dietary",g,--,--,0.0,0.0
"Sugars, total",g,--,--,3.00,10.00
Minerals
"Calcium, Ca",mg,--,--,80,267
"Iron, Fe",mg,--,--,0.00,0.00
"Phosphorus, P",mg,--,--,100,333
"Potassium, K",mg,--,--,95,317
"Sodium, Na",mg,--,--,35,117
Vitamins
"Vitamin C, total ascorbic acid",mg,--,--,0.0,0.0
"Riboflavin",mg,--,--,0.102,0.340
"Vitamin A, IU",IU,--,--,166,555
"Vitamin D",IU,--,--,24,80
Lipids
"Fatty acids, total saturated",g,--,--,1.500,5.000
"Fatty acids, total trans",g,--,--,0.000,0.000
"Cholesterol",mg,--,--,10,33
Amino Acids
Other
Ingredients
"MILK, DIPOTASSIUM PHOSPHATE, CARRAGEENAN AND VITAMIN D3." Date available: 07/14/2017 Date last updated by company: 07/14/2017
