Source: USDA Branded Food Products Database Release December 2017 Software v.3.8.6.4 2017-10-02
Report Run at: December 17, 2017 06:35 EST
"Nutrient data for: 45249359, EXCELLENT BARON CHOCOLATIER, MILK CHOCOLATE COVERED GUMMI BUNNIES, UPC: 819077010825"
Food Group:  Branded Food Products Database
Common Name:

Nutrient,Unit,Data points,Std. Error,"7.0 PIECES = 40.0g",1Value per 100 g,
Proximates
"Energy",kcal,--,--,160,400
"Protein",g,--,--,2.00,5.00
"Total lipid (fat)",g,--,--,2.00,5.00
"Carbohydrate, by difference",g,--,--,31.00,77.50
"Fiber, total dietary",g,--,--,0.0,0.0
"Sugars, total",g,--,--,29.00,72.50
Minerals
"Calcium, Ca",mg,--,--,0,0
"Iron, Fe",mg,--,--,0.00,0.00
"Sodium, Na",mg,--,--,5,12
Vitamins
"Vitamin C, total ascorbic acid",mg,--,--,0.0,0.0
"Vitamin A, IU",IU,--,--,0,0
Lipids
"Fatty acids, total saturated",g,--,--,1.500,3.750
"Fatty acids, total trans",g,--,--,0.000,0.000
"Cholesterol",mg,--,--,0,0
Amino Acids
Other
Ingredients
"MILK CHOCOLATE [SUGAR, COCOA BUTTER, DRY WHOLE MILK, CHOCOLATE, SOY LECITHIN (EMULSIFIER), NATURAL FLAVOR], SUGAR, GLUCOSE SYRUP, GELATIN, CITRIC ACID (ACIDITY REGULATOR), CONCENTRATED FRUIT JUICE POWDER (LEMON, ORANGE, STRAWBERRY, GREEN APPLE), NATURAL FLAVORS." Date available: 07/14/2017 Date last updated by company: 07/14/2017
