Source: USDA Branded Food Products Database Release December 2017 Software v.3.8.6.4 2017-10-02
Report Run at: December 17, 2017 06:50 EST
"Nutrient data for: 45291919, EXTRA VIRGIN OLIVE OIL SPRAY, UPC: 817974020244"
Food Group:  Branded Food Products Database
Common Name:

Nutrient,Unit,Data points,Std. Error,"0.25 SEC SPRAY = 0.47g",1Value per 100 g,
Proximates
"Energy",kcal,--,--,0,0
"Protein",g,--,--,0.00,0.00
"Total lipid (fat)",g,--,--,0.00,0.00
"Carbohydrate, by difference",g,--,--,0.00,0.00
"Sugars, total",g,--,--,0.00,0.00
Minerals
"Sodium, Na",mg,--,--,0,0
Vitamins
Lipids
"Cholesterol",mg,--,--,0,0
Amino Acids
Other
Ingredients
"ORGANIC EXTRA VIRGIN OLIVE OIL.*" Date available: 09/22/2017 Date last updated by company: 09/22/2017
