Source: USDA Branded Food Products Database Release December 2017 Software v.3.8.6.4 2017-10-02
Report Run at: December 17, 2017 07:00 EST
"Nutrient data for: 45188894, EXTRA VIRGIN TUNISIAN OLIVE OIL, UPC: 6191509906109"
Food Group:  Branded Food Products Database
Common Name:

Nutrient,Unit,Data points,Std. Error,"1 Tbsp = 15.0g",1Value per 100 g,
Proximates
"Energy",kcal,--,--,120,800
"Total lipid (fat)",g,--,--,14.00,93.33
Minerals
Vitamins
Lipids
"Fatty acids, total saturated",g,--,--,2.670,17.800
"Fatty acids, total monounsaturated",g,--,--,8.870,59.130
"Fatty acids, total polyunsaturated",g,--,--,2.460,16.400
"Fatty acids, total trans",g,--,--,0.000,0.000
Amino Acids
Other
Ingredients
"EXTRA VIRGIN OLIVE OIL." Date available: 10/19/2017 Date last updated by company: 10/19/2017
