Source: USDA Branded Food Products Database Release December 2017 Software v.3.8.6.4 2017-10-02
Report Run at: December 17, 2017 06:39 EST
"Nutrient data for: 45323709, EXTRA CRUNCHY KETTLE CHIPS, UPC: 072431009020"
Food Group:  Branded Food Products Database
Common Name:

Nutrient,Unit,Data points,Std. Error,"14.0 CHIPS | ABOUT = 28.0g",1Value per 100 g,
Proximates
"Energy",kcal,--,--,140,500
"Protein",g,--,--,2.00,7.14
"Total lipid (fat)",g,--,--,7.00,25.00
"Carbohydrate, by difference",g,--,--,17.00,60.71
"Fiber, total dietary",g,--,--,1.0,3.6
"Sugars, total",g,--,--,2.00,7.14
Minerals
"Calcium, Ca",mg,--,--,15,54
"Iron, Fe",mg,--,--,0.64,2.29
"Potassium, K",mg,--,--,346,1236
"Sodium, Na",mg,--,--,380,1357
Vitamins
"Vitamin D",IU,--,--,0,0
Lipids
"Fatty acids, total saturated",g,--,--,0.501,1.790
"Fatty acids, total trans",g,--,--,0.000,0.000
"Cholesterol",mg,--,--,0,0
Amino Acids
Other
Ingredients
"POTATOES, SUNFLOWER AND/OR CANOLA OIL, SALT, SUGAR, WHEY, CONTAINS 2% OR LESS OF: ONION POWDER, CORN MALTODEXTRIN, DRIED TOMATO, TORULA YEAST, DEXTROSE, GARLIC POWDER, MUSTARD (DISTILLED VINEGAR, MUSTARD SEED, SALT, WHITE WINE, CITRIC ACID, TARTARIC ACID, SPICES), DRIED PARSLEY, SPICE, NATURAL FLAVOR, CARAMEL COLOR, AUTOLYZED YEAST EXTRACT, PAPRIKA EXTRACT (COLOR), DRIED WORCESTERSHIRE SAUCE (MOLASSES, VINEGAR, CORN SYRUP, SALT, CARAMEL COLOR, GARLIC, SUCROSE, SPICES, TAMARIND, NATURAL FLAVOR), VINEGAR, GRILL FLAVOR, ANNATTO EXTRACT (COLOR), TURMERIC EXTRACT (COLOR), MODIFIED CORNSTARCH." Date available: 09/25/2017 Date last updated by company: 09/25/2017
