Source: USDA Branded Food Products Database Release December 2017 Software v.3.8.6.4 2017-10-02
Report Run at: December 17, 2017 06:37 EST
"Nutrient data for: 45085252, EXTRA CHERRY MIXED FRUIT IN LIGHT SYRUP, UPC: 886926012118"
Food Group:  Branded Food Products Database
Common Name:

Nutrient,Unit,Data points,Std. Error,"0.5 cup = 126.0g",1Value per 100 g,
Proximates
"Energy",kcal,--,--,79,63
"Protein",g,--,--,1.00,0.79
"Total lipid (fat)",g,--,--,0.00,0.00
"Carbohydrate, by difference",g,--,--,18.01,14.29
"Fiber, total dietary",g,--,--,1.0,0.8
"Sugars, total",g,--,--,14.99,11.90
Minerals
"Calcium, Ca",mg,--,--,0,0
"Iron, Fe",mg,--,--,0.00,0.00
"Potassium, K",mg,--,--,84,67
"Sodium, Na",mg,--,--,5,4
Vitamins
"Vitamin C, total ascorbic acid",mg,--,--,1.4,1.1
"Vitamin A, IU",IU,--,--,222,176
Lipids
"Fatty acids, total saturated",g,--,--,0.000,0.000
"Fatty acids, total trans",g,--,--,0.000,0.000
"Cholesterol",mg,--,--,0,0
Amino Acids
Other
Ingredients
"PEACHES, WATER, PEARS, GRAPES, SUGAR, HALVED CHERRIES ARTIFICIALLY COLORED RED WITH CARMINE, NATURAL FLAVORING." Date available: 07/14/2017 Date last updated by company: 07/14/2017
