Source: USDA Branded Food Products Database Release December 2017 Software v.3.8.6.4 2017-10-02
Report Run at: December 17, 2017 06:41 EST
"Nutrient data for: 45324591, EXTRA HOT RED PEPPER FLAKES, UPC: 865356000117"
Food Group:  Branded Food Products Database
Common Name:

Nutrient,Unit,Data points,Std. Error,"0.25 tsp = 0.4g",1Value per 100 g,
Proximates
"Energy",kcal,--,--,0,0
"Protein",g,--,--,0.00,0.00
"Total lipid (fat)",g,--,--,0.00,0.00
"Carbohydrate, by difference",g,--,--,0.00,0.00
Minerals
"Sodium, Na",mg,--,--,0,0
Vitamins
Lipids
Amino Acids
Other
Ingredients
"PEQUIN CHILIS, JAPENESE CHILIS, CHIPOTLE CHILIC, GHOST CHILIS" Date available: 09/30/2017 Date last updated by company: 09/30/2017
