Source: USDA Branded Food Products Database Release December 2017 Software v.3.8.6.4 2017-10-02
Report Run at: December 17, 2017 06:38 EST
"Nutrient data for: 45198313, EXTRA CREAMY WHIPPED TOPPING, UPC: 719283338341"
Food Group:  Branded Food Products Database
Common Name:

Nutrient,Unit,Data points,Std. Error,"2.0 Tbsp = 9.0g",1Value per 100 g,
Proximates
"Energy",kcal,--,--,25,278
"Protein",g,--,--,0.00,0.00
"Total lipid (fat)",g,--,--,2.00,22.22
"Carbohydrate, by difference",g,--,--,2.00,22.22
"Fiber, total dietary",g,--,--,0.0,0.0
"Sugars, total",g,--,--,2.00,22.22
Minerals
"Calcium, Ca",mg,--,--,0,0
"Iron, Fe",mg,--,--,0.00,0.00
"Sodium, Na",mg,--,--,5,56
Vitamins
"Vitamin C, total ascorbic acid",mg,--,--,0.0,0.0
"Vitamin A, IU",IU,--,--,0,0
Lipids
"Fatty acids, total saturated",g,--,--,1.500,16.670
"Fatty acids, total monounsaturated",g,--,--,0.100,1.110
"Fatty acids, total polyunsaturated",g,--,--,0.000,0.000
"Fatty acids, total trans",g,--,--,0.000,0.000
"Cholesterol",mg,--,--,0,0
Amino Acids
Other
Ingredients
"WATER, HYDROGENATED VEGETABLE OIL (PALM, PAL KERNEL, COCONUT AND/OR COTTONSEED), SUGAR, CORN SYRUP, SKIM MILK, CONTAINS LESS THAN 2% OF THE FOLLOWING: SODIUM CASEINATE (MILK DERIVATIVE), ARTIFICIAL FLAVOR, POLYSORBATE 60, CELLULOSE GEL, CELLULOSE GUM, MONO AND DIGLYCERIDES, XANTHAN GUM, POLYSORBATE 80, DATEM, GUAR GUM, SOYBEAN OIL, SOY LECITHIN, GLYCERIN, COLORED WITH BETA CAROTENE." Date available: 07/14/2017 Date last updated by company: 07/14/2017
