Source: USDA Branded Food Products Database Release December 2017 Software v.3.8.6.4 2017-10-02
Report Run at: December 17, 2017 06:48 EST
"Nutrient data for: 45211422, EXTRA SHARP IRISH CHEDDAR CHEESE, UPC: 888045000267"
Food Group:  Branded Food Products Database
Common Name:

Nutrient,Unit,Data points,Std. Error,"1 INCH CUBE) | (ABOUT A = 28.0g",1Value per 100 g,
Proximates
"Energy",kcal,--,--,110,393
"Protein",g,--,--,7.00,25.00
"Total lipid (fat)",g,--,--,10.00,35.71
"Carbohydrate, by difference",g,--,--,1.00,3.57
Minerals
"Calcium, Ca",mg,--,--,200,714
"Sodium, Na",mg,--,--,180,643
Vitamins
"Vitamin A, IU",IU,--,--,535,1912
Lipids
"Fatty acids, total saturated",g,--,--,5.001,17.860
"Fatty acids, total trans",g,--,--,0.000,0.000
"Cholesterol",mg,--,--,30,107
Amino Acids
Other
Ingredients
"PASTEURIZED MILK, CHEESE CULTURES, SALT, ENZYMES." Date available: 10/19/2017 Date last updated by company: 10/19/2017
