Source: USDA Branded Food Products Database Release December 2017 Software v.3.8.6.4 2017-10-02
Report Run at: December 17, 2017 06:41 EST
"Nutrient data for: 45217065, EXTRA LARGE BLACK PITTED RIPE OLIVES, UPC: 688267080685"
Food Group:  Branded Food Products Database
Common Name:

Nutrient,Unit,Data points,Std. Error,"3.0 OLIVES = 14.0g",1Value per 100 g,
Proximates
"Energy",kcal,--,--,25,179
"Protein",g,--,--,0.00,0.00
"Total lipid (fat)",g,--,--,2.00,14.29
"Carbohydrate, by difference",g,--,--,1.00,7.14
Minerals
"Sodium, Na",mg,--,--,105,750
Vitamins
Lipids
"Fatty acids, total saturated",g,--,--,0.000,0.000
"Fatty acids, total monounsaturated",g,--,--,1.499,10.710
"Fatty acids, total polyunsaturated",g,--,--,0.000,0.000
"Fatty acids, total trans",g,--,--,0.000,0.000
"Cholesterol",mg,--,--,0,0
Amino Acids
Other
Ingredients
"RIPE OLIVES, WATER, SALT, FERROUS GLUCONATE TO STABILIZE COLOR." Date available: 07/14/2017 Date last updated by company: 07/14/2017
