Source: USDA Branded Food Products Database Release December 2017 Software v.3.8.6.4 2017-10-02
Report Run at: December 17, 2017 06:45 EST
"Nutrient data for: 45229942, EXTRA MOIST DEVIL'S FOOD DELUXE CAKE MIX, UPC: 075450228861"
Food Group:  Branded Food Products Database
Common Name:

Nutrient,Unit,Data points,Std. Error,"0.083 PACKAGE, ABOUT 0.333 CUP = 39.0g",1Value per 100 g,
Proximates
"Energy",kcal,--,--,160,410
"Protein",g,--,--,2.00,5.13
"Total lipid (fat)",g,--,--,3.50,8.97
"Carbohydrate, by difference",g,--,--,30.00,76.92
"Fiber, total dietary",g,--,--,1.0,2.6
"Sugars, total",g,--,--,16.00,41.03
Minerals
"Calcium, Ca",mg,--,--,40,103
"Iron, Fe",mg,--,--,1.48,3.79
"Potassium, K",mg,--,--,125,321
"Sodium, Na",mg,--,--,300,769
Vitamins
"Vitamin C, total ascorbic acid",mg,--,--,0.0,0.0
"Vitamin A, IU",IU,--,--,0,0
Lipids
"Fatty acids, total saturated",g,--,--,1.502,3.850
"Fatty acids, total trans",g,--,--,0.000,0.000
"Cholesterol",mg,--,--,0,0
Amino Acids
Other
Ingredients
"ENRICHED BLEACHED FLOUR (BLEACHED WHEAT FLOUR, NIACIN, IRON, THIAMINE MONONITRATE, RIBOFLAVIN, FOLIC ACID), SUGAR, COCOA (PROCESSED WITH ALKALI), VEGETABLE SHORTENING ([CONTAINS ONE OR MORE OF THE FOLLOWING: PALM OIL AND/OR SOYBEAN OIL], PROPYLENE GLYCOL MONOESTERS, MONO- AND DIGLYCERIDES, SOY LECITHIN), DEXTROSE, LEAVENING (BAKING SODA, MONOCALCIUM PHOSPHATE, SODIUM ALUMINUM PHOSPHATE), MODIFIED CORN STARCH, CONTAINS 2% OR LESS OF EACH OF THE FOLLOWING: PROPYLENE GLYCOL MONO- AND DIESTERS, MONO- AND DIGLYCERIDES, SALT, CELLULOSE GUM, GUAR GUM, LECITHIN, ARTIFICIAL FLAVOR, CITRIC ACID." Date available: 07/14/2017 Date last updated by company: 07/14/2017
