Source: USDA Branded Food Products Database Release December 2017 Software v.3.8.6.4 2017-10-02
Report Run at: December 17, 2017 06:51 EST
"Nutrient data for: 45331266, EXTRA VIRGIN OLIVE OIL SPRAY, UPC: 075450090079"
Food Group:  Branded Food Products Database
Common Name:

Nutrient,Unit,Data points,Std. Error,"1 SECOND SPRAY = 1.8g",1Value per 100 g,
Proximates
"Energy",kcal,--,--,15,833
"Protein",g,--,--,0.00,0.00
"Total lipid (fat)",g,--,--,1.50,83.33
"Carbohydrate, by difference",g,--,--,0.00,0.00
Minerals
"Sodium, Na",mg,--,--,0,0
Vitamins
Lipids
Amino Acids
Other
Ingredients
"100% EXTRA VIRGIN OLIVE OIL." Date available: 10/13/2017 Date last updated by company: 10/13/2017
