Source: USDA Branded Food Products Database Release December 2017 Software v.3.8.6.4 2017-10-02
Report Run at: December 17, 2017 06:59 EST
"Nutrient data for: 45327473, EXTRA VIRGIN OLIVE OIL, UPC: 736211674180"
Food Group:  Branded Food Products Database
Common Name:

Nutrient,Unit,Data points,Std. Error,"13.6 G = 0.5g",1Value per 100 g,
Proximates
"Energy",kcal,--,--,4,893
"Protein",g,--,--,0.00,0.00
"Total lipid (fat)",g,--,--,0.50,100.00
"Carbohydrate, by difference",g,--,--,0.00,0.00
Minerals
"Calcium, Ca",mg,--,--,0,0
"Iron, Fe",mg,--,--,0.00,0.00
"Sodium, Na",mg,--,--,0,0
Vitamins
"Vitamin C, total ascorbic acid",mg,--,--,0.0,0.0
"Vitamin A, IU",IU,--,--,0,0
Lipids
"Fatty acids, total saturated",g,--,--,0.067,13.330
"Fatty acids, total monounsaturated",g,--,--,0.367,73.330
"Fatty acids, total polyunsaturated",g,--,--,0.033,6.670
"Fatty acids, total trans",g,--,--,0.000,0.000
"Cholesterol",mg,--,--,0,0
Amino Acids
Other
Ingredients
"EXTRA VIRGIN OLIVE OIL" Date available: 10/13/2017 Date last updated by company: 10/13/2017
