Source: USDA Branded Food Products Database Release December 2017 Software v.3.8.6.4 2017-10-02
Report Run at: December 17, 2017 16:50 EST
"Nutrient data for: 45310766, F1 STRSL BAR BLBRY, UNPREPARED, GTIN: 00016000510876"
Food Group:  Branded Food Products Database
Common Name:

Nutrient,Unit,Data points,Std. Error,"1 bar (40g) = 40.0g",1Value per 100 g,
Proximates
"Energy",kcal,--,--,150,375
"Protein",g,--,--,2.00,5.00
"Total lipid (fat)",g,--,--,5.00,12.50
"Carbohydrate, by difference",g,--,--,26.00,65.00
"Fiber, total dietary",g,--,--,5.0,12.5
"Sugars, total",g,--,--,8.00,20.00
Minerals
"Calcium, Ca",mg,--,--,0,0
"Iron, Fe",mg,--,--,0.36,0.90
"Sodium, Na",mg,--,--,90,225
Vitamins
"Vitamin C, total ascorbic acid",mg,--,--,0.0,0.0
"Vitamin A, IU",IU,--,--,0,0
Lipids
"Fatty acids, total saturated",g,--,--,1.500,3.750
"Fatty acids, total trans",g,--,--,0.000,0.000
"Cholesterol",mg,--,--,0,0
Amino Acids
Other
Ingredients
"WHOLE WHEAT FLOUR, WHOLE GRAIN OATS, VEGETABLE OIL (CANOLA, PALM, PALM KERNEL), SOLUBLE CORN FIBER, INVERT SUGAR, GLYCERIN, BROWN SUGAR, FRUCTOSE, SUGAR, SUGARCANE FIBER, MALTODEXTRIN, DRIED APPLES WITH SODIUM SULFITE ADDED TO PROTECT COLOR, MODIFIED CORN STARCH, WATER, NATURAL FLAVOR, BLUEBERRY PUREE CONCENTRATE, BAKING SODA, SALT, WHEY, CELLULOSE GEL, DRIED EGG WHITE, COLOR (RED 40, BLUE 1 AND OTHER COLOR ADDED), OIL OF ROSEMARY, SOY LECITHIN." Date available: 10/10/2017 Date last updated by company: 06/29/2017
