Source: USDA Branded Food Products Database Release December 2017 Software v.3.8.6.4 2017-10-02
Report Run at: December 17, 2017 07:02 EST
"Nutrient data for: 45114749, FABI-SAA, BLACK CHIA SEEDS, UPC: 874093002193"
Food Group:  Branded Food Products Database
Common Name:

Nutrient,Unit,Data points,Std. Error,"1 ONZ = 28.0g",1Value per 100 g,
Proximates
"Energy",kcal,--,--,139,496
"Protein",g,--,--,4.40,15.71
"Total lipid (fat)",g,--,--,8.70,31.07
"Carbohydrate, by difference",g,--,--,12.40,44.29
"Fiber, total dietary",g,--,--,10.7,38.2
"Sugars, total",g,--,--,0.00,0.00
Minerals
"Calcium, Ca",mg,--,--,180,643
"Sodium, Na",mg,--,--,5,18
Vitamins
Lipids
"Fatty acids, total saturated",g,--,--,0.899,3.210
"Fatty acids, total monounsaturated",g,--,--,0.599,2.140
"Fatty acids, total polyunsaturated",g,--,--,6.600,23.570
"Fatty acids, total trans",g,--,--,0.000,0.000
"Cholesterol",mg,--,--,0,0
Amino Acids
Other
Ingredients
"100% CHIA SEEDS (SALVIA HISPANICA)." Date available: 10/11/2017 Date last updated by company: 10/11/2017
