Source: USDA Branded Food Products Database Release December 2017 Software v.3.8.6.4 2017-10-02
Report Run at: December 17, 2017 07:03 EST
"Nutrient data for: 45003057, FAGE, FRUYO, CLASSIC GREEK STRAINED YOGURT, LEMON, UPC: 689544082248"
Food Group:  Branded Food Products Database
Common Name:

Nutrient,Unit,Data points,Std. Error,"1 CONTAINER = 170.0g",1Value per 100 g,
Proximates
"Energy",kcal,--,--,201,118
"Protein",g,--,--,13.01,7.65
"Total lipid (fat)",g,--,--,7.00,4.12
"Carbohydrate, by difference",g,--,--,21.00,12.35
"Fiber, total dietary",g,--,--,0.0,0.0
"Sugars, total",g,--,--,19.99,11.76
Minerals
"Calcium, Ca",mg,--,--,150,88
"Iron, Fe",mg,--,--,0.00,0.00
"Sodium, Na",mg,--,--,49,29
Vitamins
"Vitamin C, total ascorbic acid",mg,--,--,0.0,0.0
"Vitamin A, IU",IU,--,--,201,118
Lipids
"Fatty acids, total saturated",g,--,--,4.998,2.940
"Fatty acids, total trans",g,--,--,0.000,0.000
"Cholesterol",mg,--,--,20,12
Amino Acids
Other
Ingredients
"STRAINED YOGURT [GRADE A PASTEURIZED MILK AND CREAM, LIVE ACTIVE YOGURT CULTURES (L. BULGARICUS, S. THERMOPHILUS, L. ACIDOPHILUS, L. BIFIDUS, L. CASEI)], CANE SUGAR, WATER, LEMON PEEL, CORN STARCH, NATURAL FLAVOR, CONTAINS 2% OR LESS OF: PECTIN, LEMON JUICE." Date available: 07/14/2017 Date last updated by company: 07/14/2017
