Source: USDA Branded Food Products Database Release December 2017 Software v.3.8.6.4 2017-10-02
Report Run at: December 17, 2017 07:04 EST
"Nutrient data for: 45204821, FAGIOLI BORLOTTI BEANS, UPC: 8007290536822"
Food Group:  Branded Food Products Database
Common Name:

Nutrient,Unit,Data points,Std. Error,"100.0 GRM = 100.0g",1Value per 100 g,
Proximates
"Energy",kcal,--,--,60,60
"Protein",g,--,--,4.60,4.60
"Total lipid (fat)",g,--,--,0.30,0.30
"Carbohydrate, by difference",g,--,--,6.70,6.70
"Fiber, total dietary",g,--,--,5.7,5.7
"Sugars, total",g,--,--,0.00,0.00
Minerals
Vitamins
Lipids
"Fatty acids, total saturated",g,--,--,0.000,0.000
Amino Acids
Other
Ingredients
"BORLOTTI BEANS, WATER, SALT, ANTIOXIDANT: ASCORBIC ACID." Date available: 10/19/2017 Date last updated by company: 10/19/2017
