Source: USDA Branded Food Products Database Release December 2017 Software v.3.8.6.4 2017-10-02
Report Run at: December 17, 2017 07:05 EST
"Nutrient data for: 45145867, FAIRWAY, ROASTED UNSALTED ALMONDS, UPC: 758940601022"
Food Group:  Branded Food Products Database
Common Name:

Nutrient,Unit,Data points,Std. Error,"0.333 cup = 50.0g",1Value per 100 g,
Proximates
"Energy",kcal,--,--,300,600
"Protein",g,--,--,11.00,22.00
"Total lipid (fat)",g,--,--,28.00,56.00
"Carbohydrate, by difference",g,--,--,9.00,18.00
"Fiber, total dietary",g,--,--,5.0,10.0
"Sugars, total",g,--,--,2.00,4.00
Minerals
"Calcium, Ca",mg,--,--,150,300
"Iron, Fe",mg,--,--,2.70,5.40
"Sodium, Na",mg,--,--,1,2
Vitamins
"Vitamin C, total ascorbic acid",mg,--,--,0.0,0.0
"Vitamin A, IU",IU,--,--,0,0
Lipids
"Fatty acids, total saturated",g,--,--,2.000,4.000
"Fatty acids, total trans",g,--,--,0.000,0.000
"Cholesterol",mg,--,--,0,0
Amino Acids
Other
Ingredients
"ALMONDS,CANOLA OIL." Date available: 07/14/2017 Date last updated by company: 07/14/2017
