Source: USDA Branded Food Products Database Release December 2017 Software v.3.8.6.4 2017-10-02
Report Run at: December 17, 2017 07:05 EST
"Nutrient data for: 45161127, FAIRWAY LIKE NO OTHER MARKET, ROASTED & SALTED CASHEWS, UPC: 758940600957"
Food Group:  Branded Food Products Database
Common Name:

Nutrient,Unit,Data points,Std. Error,"0.33 cup = 50.0g",1Value per 100 g,
Proximates
"Energy",kcal,--,--,290,580
"Protein",g,--,--,8.00,16.00
"Total lipid (fat)",g,--,--,24.00,48.00
"Carbohydrate, by difference",g,--,--,15.00,30.00
"Fiber, total dietary",g,--,--,2.0,4.0
"Sugars, total",g,--,--,3.00,6.00
Minerals
"Calcium, Ca",mg,--,--,20,40
"Iron, Fe",mg,--,--,3.60,7.20
"Sodium, Na",mg,--,--,150,300
Vitamins
"Vitamin C, total ascorbic acid",mg,--,--,0.0,0.0
"Vitamin A, IU",IU,--,--,0,0
Lipids
"Fatty acids, total saturated",g,--,--,4.000,8.000
"Fatty acids, total trans",g,--,--,0.000,0.000
"Cholesterol",mg,--,--,0,0
Amino Acids
Other
Ingredients
"CASHEWS, CANOLA OIL, SALT." Date available: 07/14/2017 Date last updated by company: 07/14/2017
