Source: USDA Branded Food Products Database Release December 2017 Software v.3.8.6.4 2017-10-02
Report Run at: December 17, 2017 07:05 EST
"Nutrient data for: 45161129, FAIRWAY LIKE NO OTHER MARKET, PEANUTS, SRIRACHA BBQ, UPC: 758940601039"
Food Group:  Branded Food Products Database
Common Name:

Nutrient,Unit,Data points,Std. Error,"0.33 cup = 50.0g",1Value per 100 g,
Proximates
"Energy",kcal,--,--,280,560
"Protein",g,--,--,12.00,24.00
"Total lipid (fat)",g,--,--,23.00,46.00
"Carbohydrate, by difference",g,--,--,9.00,18.00
"Fiber, total dietary",g,--,--,4.0,8.0
"Sugars, total",g,--,--,3.00,6.00
Minerals
"Calcium, Ca",mg,--,--,40,80
"Iron, Fe",mg,--,--,2.70,5.40
"Sodium, Na",mg,--,--,370,740
Vitamins
"Vitamin C, total ascorbic acid",mg,--,--,0.0,0.0
"Vitamin A, IU",IU,--,--,400,800
Lipids
"Fatty acids, total saturated",g,--,--,3.000,6.000
"Fatty acids, total trans",g,--,--,0.000,0.000
"Cholesterol",mg,--,--,0,0
Amino Acids
Other
Ingredients
"PEANUTS, SRIRACHA BBQ SEASONING (SUGAR, SALT, HOT SAUCE POWDER [(AGED CAYENNE RED PEPPERS, VINEGAR, SALT, GARLIC), MALTODEXTRIN], PAPRIKA, SPICES, AUTOLYZED YEAST EXTRACT, TORULA YEAST, ONION POWDER, NATURAL SMOKE FLAVOR, CARAMEL COLOR (SULFITES), GARLIC POWDER, SPICE EXTRACTIVE, EXTRACTIVE OF PAPRIKA, CALCIUM STEARATE CONTAINS BARLEY), CANOLA OIL." Date available: 07/14/2017 Date last updated by company: 07/14/2017
