Source: USDA Branded Food Products Database Release December 2017 Software v.3.8.6.4 2017-10-02
Report Run at: December 17, 2017 07:07 EST
"Nutrient data for: 45107882, FAJITA SEASONING MIX, UPC: 052100021218"
Food Group:  Branded Food Products Database
Common Name:

Nutrient,Unit,Data points,Std. Error,"1 FAJITA) | MIX, (SEASONS = 4.0g",1Value per 100 g,
Proximates
"Energy",kcal,--,--,15,375
"Protein",g,--,--,0.00,0.00
"Total lipid (fat)",g,--,--,0.00,0.00
"Carbohydrate, by difference",g,--,--,3.00,75.00
Minerals
"Sodium, Na",mg,--,--,250,6250
Vitamins
Lipids
Amino Acids
Other
Ingredients
"SPICES (INCLUDING CUMIN, CHILI PEPPER, AND OREGANO), ONION, SALT, CORN MALTODEXTRIN, CORN SYRUP SOLIDS, GARLIC, MUSTARD BRAN, CITRIC ACID, CARAMEL COLOR, LIME JUICE SOLIDS, MODIFIED CORN STARCH, AND NATURAL FLAVOR." Date available: 10/17/2017 Date last updated by company: 10/17/2017
