Source: USDA Branded Food Products Database Release December 2017 Software v.3.8.6.4 2017-10-02
Report Run at: December 17, 2017 07:08 EST
"Nutrient data for: 45197679, FALAFEL BALLS, UPC: 060822008677"
Food Group:  Branded Food Products Database
Common Name:

Nutrient,Unit,Data points,Std. Error,"3.0 PIECES = 60.0g",1Value per 100 g,
Proximates
"Energy",kcal,--,--,150,250
"Protein",g,--,--,5.00,8.33
"Total lipid (fat)",g,--,--,7.00,11.67
"Carbohydrate, by difference",g,--,--,17.00,28.33
"Fiber, total dietary",g,--,--,5.0,8.3
"Sugars, total",g,--,--,3.00,5.00
Minerals
"Calcium, Ca",mg,--,--,60,100
"Iron, Fe",mg,--,--,6.30,10.50
"Potassium, K",mg,--,--,75,125
"Sodium, Na",mg,--,--,410,683
Vitamins
"Vitamin C, total ascorbic acid",mg,--,--,11.2,18.7
"Vitamin A, IU",IU,--,--,1166,1944
Lipids
"Fatty acids, total saturated",g,--,--,0.000,0.000
"Fatty acids, total monounsaturated",g,--,--,4.002,6.670
"Fatty acids, total polyunsaturated",g,--,--,1.998,3.330
"Fatty acids, total trans",g,--,--,0.000,0.000
"Cholesterol",mg,--,--,0,0
Amino Acids
Other
Ingredients
"CHICKPEAS, WATER, ONIONS, EXPELLER PRESSED CANOLA OIL, PARSLEY, CARROTS, SPICES (GROUND CUMIN SEED, CORIANDER, CHILI PEPPERS), DEHYDRATED ONION & GARLIC, VINEGAR, MODIFIED VEGETABLE GUM, SEA SALT, LIME JUICE CONCENTRATE, LEAVENING (SODIUM BICARBONATE), CARRAGEENAN, ORGANIC CARAMEL COLOR." Date available: 07/14/2017 Date last updated by company: 07/14/2017
