Source: USDA Branded Food Products Database Release December 2017 Software v.3.8.6.4 2017-10-02
Report Run at: December 17, 2017 07:13 EST
"Nutrient data for: 45126310, FAMILY RECIPE ITALIAN DRESSING, UPC: 020662001931"
Food Group:  Branded Food Products Database
Common Name:

Nutrient,Unit,Data points,Std. Error,"2.0 Tbsp = 30.0g",1Value per 100 g,
Proximates
"Energy",kcal,--,--,130,433
"Protein",g,--,--,1.00,3.33
"Total lipid (fat)",g,--,--,13.00,43.33
"Carbohydrate, by difference",g,--,--,1.00,3.33
"Fiber, total dietary",g,--,--,0.0,0.0
"Sugars, total",g,--,--,0.00,0.00
Minerals
"Calcium, Ca",mg,--,--,20,67
"Iron, Fe",mg,--,--,0.00,0.00
"Sodium, Na",mg,--,--,320,1067
Vitamins
"Vitamin C, total ascorbic acid",mg,--,--,0.0,0.0
"Vitamin A, IU",IU,--,--,0,0
Lipids
"Fatty acids, total saturated",g,--,--,2.001,6.670
"Fatty acids, total trans",g,--,--,0.000,0.000
"Cholesterol",mg,--,--,0,0
Amino Acids
Other
Ingredients
"VEGETABLE OIL (SOYBEAN OIL AND/OR CANOLA OIL), WATER, DISTILLED VINEGAR, ROMANO CHEESE (PASTEURIZED MILK, CHEESE CULTURES, SALT, ENZYMES), EXTRA VIRGIN OLIVE OIL, SALT, CONTAINS 2% OR LESS OF: SUGAR, GARLIC*, SPICES, ANCHOVIES, BARLEY MALT EXTRACT, CITRIC ACID, XANTHAN GUM, HYDROLYZED SOYBEAN PROTEIN, MOLASSES, CORN SYRUP, CARAMEL COLOR, ONION*, TAMARIND, NATURAL FLAVOR, OLEORESIN PAPRIKA (FOR COLOR)." Date available: 07/14/2017 Date last updated by company: 07/14/2017
