Source: USDA Branded Food Products Database Release December 2017 Software v.3.8.6.4 2017-10-02
Report Run at: December 17, 2017 07:21 EST
"Nutrient data for: 45148841, FANCY WHOLE CASHEWS, UPC: 088401212277"
Food Group:  Branded Food Products Database
Common Name:

Nutrient,Unit,Data points,Std. Error,"3.0 Tbsp = 30.0g",1Value per 100 g,
Proximates
"Energy",kcal,--,--,156,520
"Protein",g,--,--,5.00,16.67
"Total lipid (fat)",g,--,--,13.00,43.33
"Carbohydrate, by difference",g,--,--,9.00,30.00
"Fiber, total dietary",g,--,--,4.0,13.3
"Sugars, total",g,--,--,4.00,13.33
Minerals
"Calcium, Ca",mg,--,--,40,133
"Iron, Fe",mg,--,--,1.20,4.00
"Sodium, Na",mg,--,--,110,367
Vitamins
"Vitamin C, total ascorbic acid",mg,--,--,1.0,3.3
"Vitamin A, IU",IU,--,--,82,275
Lipids
"Fatty acids, total saturated",g,--,--,2.001,6.670
"Fatty acids, total trans",g,--,--,0.000,0.000
"Cholesterol",mg,--,--,0,0
Amino Acids
Other
Ingredients
"CASHEWS, CANOLA OIL, SALT." Date available: 10/13/2017 Date last updated by company: 10/13/2017
