Source: USDA Branded Food Products Database Release December 2017 Software v.3.8.6.4 2017-10-02
Report Run at: December 17, 2017 07:17 EST
"Nutrient data for: 45287091, FANCY MEXICAN CHEESE, UPC: 051934001731"
Food Group:  Branded Food Products Database
Common Name:

Nutrient,Unit,Data points,Std. Error,"1 ONZ = 28.0g",1Value per 100 g,
Proximates
"Energy",kcal,--,--,110,393
"Protein",g,--,--,6.00,21.43
"Total lipid (fat)",g,--,--,9.00,32.14
"Carbohydrate, by difference",g,--,--,1.00,3.57
"Fiber, total dietary",g,--,--,0.0,0.0
"Sugars, total",g,--,--,0.00,0.00
Minerals
"Calcium, Ca",mg,--,--,200,714
"Iron, Fe",mg,--,--,0.00,0.00
"Sodium, Na",mg,--,--,160,571
Vitamins
"Vitamin C, total ascorbic acid",mg,--,--,0.0,0.0
"Vitamin A, IU",IU,--,--,357,1275
Lipids
"Fatty acids, total saturated",g,--,--,5.001,17.860
"Fatty acids, total trans",g,--,--,0.000,0.000
"Cholesterol",mg,--,--,25,89
Amino Acids
Other
Ingredients
"MONTEREY JACK CHEESE(PASTEURIZED CULTURED MILK, SALT, ENZYMES), CHEDDAR CHEESE (PASTEURIZED CULTURED MILK, SALT, ENZYMES, ANNATTO COLOR), ASADERO(PASTEURIZED CULTURED MILK, SALT, ENZYMES) QUESO QUESADILLA (PASTEURIZED CULTURED MILK, SALT, ENZYMES), POTATO STARCH, CORN STARCH, POWDERED CELLULOSE (ADDED AS ANTICAKING PROCESSING AIDE)." Date available: 10/04/2017 Date last updated by company: 10/04/2017
