Source: USDA Branded Food Products Database Release December 2017 Software v.3.8.6.4 2017-10-02
Report Run at: December 17, 2017 07:18 EST
"Nutrient data for: 45205965, FANCYPANTS BAKING CO., MINIATURE DECORATED COOKIES, UPC: 854060001947"
Food Group:  Branded Food Products Database
Common Name:

Nutrient,Unit,Data points,Std. Error,"1 COOKIE = 25.2g",1Value per 100 g,
Proximates
"Energy",kcal,--,--,140,556
"Protein",g,--,--,1.00,3.97
"Total lipid (fat)",g,--,--,7.00,27.78
"Carbohydrate, by difference",g,--,--,19.00,75.40
"Fiber, total dietary",g,--,--,0.0,0.0
"Sugars, total",g,--,--,10.00,39.68
Minerals
"Calcium, Ca",mg,--,--,0,0
"Iron, Fe",mg,--,--,1.43,5.67
"Sodium, Na",mg,--,--,105,417
Vitamins
"Vitamin C, total ascorbic acid",mg,--,--,0.0,0.0
"Vitamin A, IU",IU,--,--,0,0
Lipids
"Fatty acids, total saturated",g,--,--,3.500,13.890
"Fatty acids, total trans",g,--,--,0.000,0.000
"Cholesterol",mg,--,--,0,0
Amino Acids
Other
Ingredients
"UNBLEACHED UNBROMATED WHEAT FLOUR (WHEAT FLOUR, MALTED BARLEY FLOUR, NIACIN, IRON, THIAMIN MONONITRATE, RIBOFLAVIN, FOLIC ACID), CANE SUGAR, PALM FRUIT OIL, CAGE-FREE EGGS, VANILLA, WATER, CREAM OF TARTAR, BAKING SODA, CORN STARCH, SALT, TAPIOCA STARCH DEXTROSE, NATURAL COLORINGS." Date available: 10/13/2017 Date last updated by company: 10/13/2017
