Source: USDA Branded Food Products Database Release December 2017 Software v.3.8.6.4 2017-10-02
Report Run at: December 17, 2017 07:18 EST
"Nutrient data for: 45162078, FANCYPANTS BAKING CO, CRUNCH COOKIES, CHOCOLATE CHIP, UPC: 859260005566"
Food Group:  Branded Food Products Database
Common Name:

Nutrient,Unit,Data points,Std. Error,"1 COOKIE = 14.6g",1Value per 100 g,
Proximates
"Energy",kcal,--,--,62,425
"Protein",g,--,--,1.00,6.85
"Total lipid (fat)",g,--,--,3.00,20.55
"Carbohydrate, by difference",g,--,--,8.00,54.79
"Fiber, total dietary",g,--,--,0.0,0.0
"Sugars, total",g,--,--,6.00,41.10
Minerals
"Calcium, Ca",mg,--,--,0,0
"Iron, Fe",mg,--,--,1.23,8.45
"Sodium, Na",mg,--,--,62,425
Vitamins
"Vitamin C, total ascorbic acid",mg,--,--,0.0,0.0
"Vitamin A, IU",IU,--,--,0,0
Lipids
"Fatty acids, total saturated",g,--,--,1.899,13.010
"Fatty acids, total trans",g,--,--,0.000,0.000
"Cholesterol",mg,--,--,6,41
Amino Acids
Other
Ingredients
"UNBLEACHED UNBROMATED WHEAT FLOUR (WHEAT FLOUR, MALTED BARLEY FLOUR, NIACIN, IRON, THITAMIN MONONITRATE, RIBOFLAVIN, FOLIC ACID), CHOCOLATE CHIPS (SUGAR, CHOCOLATE LIQUOR, COCOA BUTTER, SOY LECITHIN, VANILLA), CANE SUGAR, BROWN SUGAR, BUTTER, SUSTAINABLY SOURCED PALM FRUIT OIL, CAGE FREE EGGS, VANILLA, WATER, SALT, BAKING SODA." Date available: 07/14/2017 Date last updated by company: 07/14/2017
