Source: USDA Branded Food Products Database Release December 2017 Software v.3.8.6.4 2017-10-02
Report Run at: December 17, 2017 07:22 EST
"Nutrient data for: 45164375, FANNIE MAY, SOLID WHITE CONFECTION, UPC: 052745953011"
Food Group:  Branded Food Products Database
Common Name:

Nutrient,Unit,Data points,Std. Error,"0.5 BUNNY = 43.0g",1Value per 100 g,
Proximates
"Energy",kcal,--,--,230,535
"Protein",g,--,--,2.00,4.65
"Total lipid (fat)",g,--,--,14.00,32.56
"Carbohydrate, by difference",g,--,--,26.00,60.47
"Fiber, total dietary",g,--,--,0.0,0.0
"Sugars, total",g,--,--,26.00,60.47
Minerals
"Calcium, Ca",mg,--,--,60,140
"Iron, Fe",mg,--,--,0.00,0.00
"Sodium, Na",mg,--,--,40,93
Vitamins
"Vitamin C, total ascorbic acid",mg,--,--,0.0,0.0
"Vitamin A, IU",IU,--,--,0,0
Lipids
"Fatty acids, total saturated",g,--,--,12.001,27.910
"Fatty acids, total trans",g,--,--,0.000,0.000
"Cholesterol",mg,--,--,0,0
Amino Acids
Other
Ingredients
"WHITE CONFECTION (SUGAR, FRACTIONATED PALM KERNEL OIL, NONFAT MILK, WHOLE MILK, PARTIALLY HYDROGENATED PALM OIL, GLYCEROL-LACTO ESTERS OF FATTY ACIDS {AN EMULSIFIER}, SOY LECITHIN {AN EMULSIFIER}, VANILLA, SALT)." Date available: 07/14/2017 Date last updated by company: 07/14/2017
