Source: USDA Branded Food Products Database Release December 2017 Software v.3.8.6.4 2017-10-02
Report Run at: December 17, 2017 07:21 EST
"Nutrient data for: 45045697, FANNIE MAY, DARK CHOCOLATE ALMONDS, UPC: 052745728770"
Food Group:  Branded Food Products Database
Common Name:

Nutrient,Unit,Data points,Std. Error,"9.0 PIECES = 40.0g",1Value per 100 g,
Proximates
"Energy",kcal,--,--,210,525
"Protein",g,--,--,4.00,10.00
"Total lipid (fat)",g,--,--,16.00,40.00
"Carbohydrate, by difference",g,--,--,19.00,47.50
"Fiber, total dietary",g,--,--,3.0,7.5
"Sugars, total",g,--,--,14.00,35.00
Minerals
"Calcium, Ca",mg,--,--,40,100
"Iron, Fe",mg,--,--,1.35,3.38
"Sodium, Na",mg,--,--,0,0
Vitamins
"Vitamin C, total ascorbic acid",mg,--,--,0.0,0.0
"Vitamin A, IU",IU,--,--,0,0
Lipids
"Fatty acids, total saturated",g,--,--,6.000,15.000
"Fatty acids, total trans",g,--,--,0.000,0.000
"Cholesterol",mg,--,--,0,0
Amino Acids
Other
Ingredients
"DARK CHOCOLATE (SUGAR, CHOCOLATE LIQUOR [PROCESSED WITH ALKALI], COCOA BUTTER, MILK, BUTTERFAT, SOY LECITHIN [AN EMULSIFIER], VANILLA), ALMONDS, SUGAR, TAPIOCA SYRUP, TAPIOCA DEXTRIN, CONFECTIONER'S GLAZE." Date available: 06/24/2017 Date last updated by company: 06/24/2017
