Source: USDA Branded Food Products Database Release December 2017 Software v.3.8.6.4 2017-10-02
Report Run at: December 17, 2017 07:23 EST
"Nutrient data for: 45236116, FARAON, ALOE, UPC: 074734700765"
Food Group:  Branded Food Products Database
Common Name:

Nutrient,Unit,Data points,Std. Error,"1 cup = 240.0g",1Value per 100 g,
Proximates
"Energy",kcal,--,--,110,46
"Protein",g,--,--,0.00,0.00
"Total lipid (fat)",g,--,--,0.00,0.00
"Carbohydrate, by difference",g,--,--,27.00,11.25
"Fiber, total dietary",g,--,--,0.0,0.0
"Sugars, total",g,--,--,25.99,10.83
Minerals
"Calcium, Ca",mg,--,--,101,42
"Iron, Fe",mg,--,--,1.08,0.45
"Sodium, Na",mg,--,--,41,17
Vitamins
"Vitamin C, total ascorbic acid",mg,--,--,18.0,7.5
"Vitamin A, IU",IU,--,--,0,0
Lipids
"Fatty acids, total saturated",g,--,--,0.000,0.000
"Fatty acids, total trans",g,--,--,0.000,0.000
"Cholesterol",mg,--,--,0,0
Amino Acids
Other
Ingredients
"PURIFIED WATER, FRUCTOSE, COCONUT JELLY, ARTIFICIAL COCONUT FLAVOR, CITRIC ACID, CALCIUM LACTATE, SODIUM CITRATE, GELLAN GUM, ALOE VERA GEL POWDER, VITAMIN C." Date available: 06/25/2017 Date last updated by company: 06/25/2017
