Source: USDA Branded Food Products Database Release December 2017 Software v.3.8.6.4 2017-10-02
Report Run at: December 17, 2017 07:25 EST
"Nutrient data for: 45213941, FARFALLE TRICOLOR, TRADITIONAL ARTISANAL PASTA, UPC: 041224727182"
Food Group:  Branded Food Products Database
Common Name:

Nutrient,Unit,Data points,Std. Error,"2.0 ONZ = 56.0g",1Value per 100 g,
Proximates
"Energy",kcal,--,--,210,375
"Protein",g,--,--,7.00,12.50
"Total lipid (fat)",g,--,--,1.00,1.79
"Carbohydrate, by difference",g,--,--,41.00,73.21
"Fiber, total dietary",g,--,--,1.0,1.8
"Sugars, total",g,--,--,2.00,3.57
Minerals
"Calcium, Ca",mg,--,--,20,36
"Iron, Fe",mg,--,--,4.50,8.04
"Sodium, Na",mg,--,--,0,0
Vitamins
"Vitamin C, total ascorbic acid",mg,--,--,22.5,40.2
"Thiamin",mg,--,--,0.560,1.000
"Riboflavin",mg,--,--,0.255,0.455
"Niacin",mg,--,--,2.946,5.261
"Vitamin A, IU",IU,--,--,4375,7812
Lipids
"Fatty acids, total saturated",g,--,--,0.000,0.000
"Fatty acids, total trans",g,--,--,0.000,0.000
"Cholesterol",mg,--,--,0,0
Amino Acids
Other
Ingredients
"DURUM WHEAT SEMOLINA, ENRICHED WITH NIACIN, FOLIC ACID, IRON (FERROUS SULFATE), THIAMIN, RIBOFLAVIN, DEHYDRATED VEGETABLES (TOMATO, SPINACH, SILICON DIOXIDE (AS AN ANTI-CAKING AGENT)), SPICES." Date available: 07/14/2017 Date last updated by company: 07/14/2017
