Source: USDA Branded Food Products Database Release December 2017 Software v.3.8.6.4 2017-10-02
Report Run at: December 17, 2017 07:32 EST
"Nutrient data for: 45040210, FARM RICH, SMOKEHOUSE, PULLED BEEF BRISKET, UPC: 041322356901"
Food Group:  Branded Food Products Database
Common Name:

Nutrient,Unit,Data points,Std. Error,"0.25 cup = 55.0g",1Value per 100 g,
Proximates
"Energy",kcal,--,--,120,218
"Protein",g,--,--,9.00,16.36
"Total lipid (fat)",g,--,--,6.00,10.91
"Carbohydrate, by difference",g,--,--,8.00,14.55
"Fiber, total dietary",g,--,--,0.0,0.0
"Sugars, total",g,--,--,6.00,10.91
Minerals
"Calcium, Ca",mg,--,--,0,0
"Iron, Fe",mg,--,--,1.67,3.03
"Sodium, Na",mg,--,--,280,509
Vitamins
"Vitamin C, total ascorbic acid",mg,--,--,1.9,3.4
"Vitamin A, IU",IU,--,--,0,0
Lipids
"Fatty acids, total saturated",g,--,--,2.002,3.640
"Cholesterol",mg,--,--,35,64
Amino Acids
Other
Ingredients
"BEEF, SAUCE (KETCHUP [TOMATO CONCENTRATE {WATER, TOMATO PASTE}, SUGAR, DISTILLED VINEGAR*, SALT, ONION POWDER, NATURAL FLAVOR, SPICE], WATER, BROWN SUGAR, CONTAINS 2% OR LESS OF EACH OF THE FOLLOWING: BEET POWDER [COLOR], CONCENTRATED LEMON JUICE, CORN SYRUP, CORNSTARCH, DISTILLED VINEGAR*, GARLIC POWDER, MUSTARD [DISTILLED VINEGAR*, WATER, MUSTARD SEED, SALT, TURMERIC, PAPRIKA, SPICE, GARLIC POWDER], NATURAL FLAVOR, NATURAL HICKORY SMOKE FLAVOR, SALT, SPICES, TAMARIND)." Date available: 06/24/2017 Date last updated by company: 06/24/2017
