Source: USDA Branded Food Products Database Release December 2017 Software v.3.8.6.4 2017-10-02
Report Run at: December 17, 2017 07:27 EST
"Nutrient data for: 45080025, FARMER JOHN, CLASSIC COOKED HAM, UPC: 050500101783"
Food Group:  Branded Food Products Database
Common Name:

Nutrient,Unit,Data points,Std. Error,"2.0 ONZ = 56.0g",1Value per 100 g,
Proximates
"Energy",kcal,--,--,80,143
"Protein",g,--,--,8.00,14.29
"Total lipid (fat)",g,--,--,4.00,7.14
"Carbohydrate, by difference",g,--,--,0.00,0.00
"Fiber, total dietary",g,--,--,0.0,0.0
"Sugars, total",g,--,--,0.00,0.00
Minerals
"Calcium, Ca",mg,--,--,0,0
"Iron, Fe",mg,--,--,0.00,0.00
"Sodium, Na",mg,--,--,680,1214
Vitamins
"Vitamin C, total ascorbic acid",mg,--,--,0.0,0.0
"Vitamin A, IU",IU,--,--,0,0
Lipids
"Fatty acids, total saturated",g,--,--,1.002,1.790
"Fatty acids, total trans",g,--,--,0.000,0.000
"Cholesterol",mg,--,--,20,36
Amino Acids
Other
Ingredients
"PORK CURED WITH WATER, SALT, DEXTROSE, SODIUM LACTATE, SODIUM PHOSPHATE, DEHYDRATED PORK BROTH, SODIUM DIACETATE, SODIUM ERYTHORBATE, SODIUM NITRITE, FLAVORINGS." Date available: 07/14/2017 Date last updated by company: 07/14/2017
