Source: USDA Branded Food Products Database Release December 2017 Software v.3.8.6.4 2017-10-02
Report Run at: December 17, 2017 07:34 EST
"Nutrient data for: 45189845, FARM TO SKILLET, GREEK SKILLET SEASONED VEGETABLE BLEND, UPC: 862803000034"
Food Group:  Branded Food Products Database
Common Name:

Nutrient,Unit,Data points,Std. Error,"0.25 cup = 71.0g",1Value per 100 g,
Proximates
"Energy",kcal,--,--,50,70
"Protein",g,--,--,3.00,4.23
"Total lipid (fat)",g,--,--,3.00,4.23
"Carbohydrate, by difference",g,--,--,3.00,4.23
"Fiber, total dietary",g,--,--,1.0,1.4
"Sugars, total",g,--,--,1.00,1.41
Minerals
"Calcium, Ca",mg,--,--,80,113
"Iron, Fe",mg,--,--,0.43,0.61
"Sodium, Na",mg,--,--,140,197
Vitamins
"Vitamin C, total ascorbic acid",mg,--,--,5.8,8.1
"Vitamin A, IU",IU,--,--,2095,2951
Lipids
"Fatty acids, total saturated",g,--,--,2.002,2.820
"Fatty acids, total trans",g,--,--,0.000,0.000
"Cholesterol",mg,--,--,15,21
Amino Acids
Other
Ingredients
"SPINACH*, MUSHROOMS*, GRAPE TOMATOES*, FETA CHEESE*, GARLIC*, DILL*." Date available: 07/14/2017 Date last updated by company: 07/14/2017
