Source: USDA Branded Food Products Database Release December 2017 Software v.3.8.6.4 2017-10-02
Report Run at: December 17, 2017 07:26 EST
"Nutrient data for: 45319526, FARM CLASSICS HONEY HAM, UPC: 044500982114"
Food Group:  Branded Food Products Database
Common Name:

Nutrient,Unit,Data points,Std. Error,"4.0 SLICES = 50.0g",1Value per 100 g,
Proximates
"Energy",kcal,--,--,70,140
"Protein",g,--,--,8.00,16.00
"Total lipid (fat)",g,--,--,2.50,5.00
"Carbohydrate, by difference",g,--,--,3.00,6.00
"Fiber, total dietary",g,--,--,0.0,0.0
"Sugars, total",g,--,--,3.00,6.00
Minerals
"Calcium, Ca",mg,--,--,0,0
"Iron, Fe",mg,--,--,0.40,0.79
"Sodium, Na",mg,--,--,520,1040
Vitamins
"Vitamin C, total ascorbic acid",mg,--,--,0.0,0.0
"Vitamin A, IU",IU,--,--,0,0
Lipids
"Fatty acids, total saturated",g,--,--,1.000,2.000
"Fatty acids, total trans",g,--,--,0.000,0.000
"Cholesterol",mg,--,--,25,50
Amino Acids
Other
Ingredients
"CURED WITH WATER, HONEY AND 2% OR LESS: SALT, DEXTROSE, SUGAR, MODIFIED CORN STARCH, SODIUM PHOSPHATE, SODIUM PROPIONATE, SODIUM ERYTHORBATE, SODIUM NITRITE." Date available: 07/14/2017 Date last updated by company: 07/14/2017
