Source: USDA Branded Food Products Database Release December 2017 Software v.3.8.6.4 2017-10-02
Report Run at: December 17, 2017 07:34 EST
"Nutrient data for: 45291057, FARMSTYLE WHITE BREAD, UPC: 074175001346"
Food Group:  Branded Food Products Database
Common Name:

Nutrient,Unit,Data points,Std. Error,"1 SLICE = 43.0g",1Value per 100 g,
Proximates
"Energy",kcal,--,--,130,302
"Protein",g,--,--,3.00,6.98
"Total lipid (fat)",g,--,--,1.50,3.49
"Carbohydrate, by difference",g,--,--,25.00,58.14
"Fiber, total dietary",g,--,--,1.0,2.3
"Sugars, total",g,--,--,2.00,4.65
Minerals
"Calcium, Ca",mg,--,--,40,93
"Iron, Fe",mg,--,--,1.67,3.89
"Sodium, Na",mg,--,--,280,651
Vitamins
"Vitamin C, total ascorbic acid",mg,--,--,0.0,0.0
"Vitamin A, IU",IU,--,--,0,0
Lipids
"Fatty acids, total saturated",g,--,--,0.000,0.000
"Fatty acids, total trans",g,--,--,0.000,0.000
"Cholesterol",mg,--,--,0,0
Amino Acids
Other
Ingredients
"ENRICHED FLOUR (WHEAT FLOUR, NIACIN, REDUCED IRON, THIAMINE MONONITRATE, RIBOFLAVIN, FOLIC ACID), MALTED BARLEY FLOUR, WATER, SUGAR, POTATO FLOUR, YEAST, SOYBEAN OIL, SALT, WHEAT GLUTEN, CULTURED WHEAT FLOUR, VINEGAR, CALCIUM SULFATE, SEA SALT, ENZYMES, ASCORBIC ACID." Date available: 07/14/2017 Date last updated by company: 07/14/2017
