Source: USDA Branded Food Products Database Release December 2017 Software v.3.8.6.4 2017-10-02
Report Run at: December 17, 2017 07:34 EST
"Nutrient data for: 45106643, FARM TO MARKET MARASCHINOS CHERRIES, UPC: 041580860004"
Food Group:  Branded Food Products Database
Common Name:

Nutrient,Unit,Data points,Std. Error,"1 CHERRY = 6.0g",1Value per 100 g,
Proximates
"Energy",kcal,--,--,10,167
"Protein",g,--,--,0.00,0.00
"Total lipid (fat)",g,--,--,0.00,0.00
"Carbohydrate, by difference",g,--,--,2.00,33.33
"Sugars, total",g,--,--,2.00,33.33
Minerals
"Sodium, Na",mg,--,--,0,0
Vitamins
Lipids
Amino Acids
Other
Ingredients
"CHERRIES, WATER, SUGAR, VEGETABLE JUICE (COLOR), CITRIC ACID, NATURAL FLAVOR." Date available: 07/14/2017 Date last updated by company: 07/14/2017
