Source: USDA Branded Food Products Database Release December 2017 Software v.3.8.6.4 2017-10-02
Report Run at: December 17, 2017 07:33 EST
"Nutrient data for: 45317879, FARM STAND HARVEST, UPC: 021908471914"
Food Group:  Branded Food Products Database
Common Name:

Nutrient,Unit,Data points,Std. Error,"0.33 cup = 31.0g",1Value per 100 g,
Proximates
"Energy",kcal,--,--,140,452
"Protein",g,--,--,3.00,9.68
"Total lipid (fat)",g,--,--,7.00,22.58
"Carbohydrate, by difference",g,--,--,19.00,61.29
"Fiber, total dietary",g,--,--,2.0,6.5
"Sugars, total",g,--,--,5.00,16.13
Minerals
"Calcium, Ca",mg,--,--,0,0
"Iron, Fe",mg,--,--,1.92,6.18
"Sodium, Na",mg,--,--,40,129
Vitamins
"Vitamin C, total ascorbic acid",mg,--,--,0.0,0.0
"Vitamin A, IU",IU,--,--,0,0
Lipids
"Fatty acids, total saturated",g,--,--,2.499,8.060
"Fatty acids, total trans",g,--,--,0.000,0.000
"Cholesterol",mg,--,--,0,0
Amino Acids
Other
Ingredients
"WHOLE GRAIN OATS*, CANE SUGAR*, COCONUT*, BROWN RICE*, SUNFLOWER OIL*, PUMPKIN SEEDS*, MOLASSES*, SEA SALT, VANILLA EXTRACT*, VITAMIN E (MIXED TOCOPHEROLS) ADDED TO PRESERVE FRESHNESS." Date available: 07/14/2017 Date last updated by company: 07/14/2017
