Source: USDA Branded Food Products Database Release December 2017 Software v.3.8.6.4 2017-10-02
Report Run at: December 17, 2017 07:27 EST
"Nutrient data for: 45011018, FARMER JOHN, TURKEY FRANKS, UPC: 050500331005"
Food Group:  Branded Food Products Database
Common Name:

Nutrient,Unit,Data points,Std. Error,"1 FRANK = 42.0g",1Value per 100 g,
Proximates
"Energy",kcal,--,--,110,262
"Protein",g,--,--,1.00,2.38
"Total lipid (fat)",g,--,--,8.00,19.05
"Carbohydrate, by difference",g,--,--,3.00,7.14
"Fiber, total dietary",g,--,--,0.0,0.0
"Sugars, total",g,--,--,1.00,2.38
Minerals
"Calcium, Ca",mg,--,--,40,95
"Iron, Fe",mg,--,--,0.94,2.25
"Sodium, Na",mg,--,--,460,1095
Vitamins
"Vitamin C, total ascorbic acid",mg,--,--,0.0,0.0
"Vitamin A, IU",IU,--,--,0,0
Lipids
"Fatty acids, total saturated",g,--,--,2.499,5.950
"Fatty acids, total trans",g,--,--,0.000,0.000
"Cholesterol",mg,--,--,25,60
Amino Acids
Other
Ingredients
"MECHANICALLY SEPARATED TURKEY, WATER, DEXTROSE, SALT, CORN SYRUP, 2% OR LESS OF MODIFIED FOOD STARCH, SUGAR, SODIUM LACTATE, NATURAL FLAVORINGS, SODIUM PHOSPHATES, SODIUM ERYTHORBATE, SODIUM DIACETATE, SUNFLOWER OIL. EXTRACTIVES OF PAPRIKA, SODIUM NITRATE." Date available: 07/14/2017 Date last updated by company: 07/14/2017
