Source: USDA Branded Food Products Database Release December 2017 Software v.3.8.6.4 2017-10-02
Report Run at: December 17, 2017 07:33 EST
"Nutrient data for: 45027670, FARMSTEAD FERMENTS, CLASSIC KRAUT, UPC: 045635942134"
Food Group:  Branded Food Products Database
Common Name:

Nutrient,Unit,Data points,Std. Error,"0.333 cup = 53.0g",1Value per 100 g,
Proximates
"Energy",kcal,--,--,15,28
"Protein",g,--,--,1.00,1.89
"Total lipid (fat)",g,--,--,0.00,0.00
"Carbohydrate, by difference",g,--,--,2.00,3.77
"Fiber, total dietary",g,--,--,1.0,1.9
"Sugars, total",g,--,--,0.00,0.00
Minerals
"Calcium, Ca",mg,--,--,40,75
"Iron, Fe",mg,--,--,1.76,3.33
"Sodium, Na",mg,--,--,370,698
Vitamins
"Vitamin C, total ascorbic acid",mg,--,--,0.0,0.0
"Vitamin A, IU",IU,--,--,0,0
Lipids
"Fatty acids, total saturated",g,--,--,0.000,0.000
"Fatty acids, total trans",g,--,--,0.000,0.000
"Cholesterol",mg,--,--,0,0
Amino Acids
Other
Ingredients
"GREEN CABBAGE, CARAWAY SEED, CELTIC SEA SALT" Date available: 07/14/2017 Date last updated by company: 07/14/2017
