Source: USDA Branded Food Products Database Release December 2017 Software v.3.8.6.4 2017-10-02
Report Run at: December 17, 2017 07:44 EST
"Nutrient data for: 45190671, FAT FREE SKIM MILK, UPC: 041497097340"
Food Group:  Branded Food Products Database
Common Name:

Nutrient,Unit,Data points,Std. Error,"1 cup = 240.0g",1Value per 100 g,
Proximates
"Energy",kcal,--,--,79,33
"Protein",g,--,--,7.99,3.33
"Total lipid (fat)",g,--,--,0.00,0.00
"Carbohydrate, by difference",g,--,--,12.00,5.00
"Fiber, total dietary",g,--,--,0.0,0.0
"Sugars, total",g,--,--,12.00,5.00
Minerals
"Calcium, Ca",mg,--,--,250,104
"Iron, Fe",mg,--,--,0.00,0.00
"Phosphorus, P",mg,--,--,199,83
"Sodium, Na",mg,--,--,101,42
Vitamins
"Vitamin C, total ascorbic acid",mg,--,--,2.4,1.0
"Vitamin A, IU",IU,--,--,499,208
"Vitamin D",IU,--,--,120,50
Lipids
"Fatty acids, total saturated",g,--,--,0.192,0.080
"Fatty acids, total trans",g,--,--,0.000,0.000
"Cholesterol",mg,--,--,5,2
Amino Acids
Other
Ingredients
"SKIM MILK WITH 2000 I.U. VITAMIN A PALMITATE AND 400 I.U. VITAMIN D3 ADDED PER QUART." Date available: 08/21/2017 Date last updated by company: 08/21/2017
