Source: USDA Branded Food Products Database Release December 2017 Software v.3.8.6.4 2017-10-02
Report Run at: December 17, 2017 07:45 EST
"Nutrient data for: 45193862, FAT FREE SWEET ITALIAN DRESSING, UPC: 018959753045"
Food Group:  Branded Food Products Database
Common Name:

Nutrient,Unit,Data points,Std. Error,"2.0 Tbsp = 30.0g",1Value per 100 g,
Proximates
"Energy",kcal,--,--,40,133
"Protein",g,--,--,0.00,0.00
"Total lipid (fat)",g,--,--,0.00,0.00
"Carbohydrate, by difference",g,--,--,10.00,33.33
"Fiber, total dietary",g,--,--,1.0,3.3
"Sugars, total",g,--,--,9.00,30.00
Minerals
"Calcium, Ca",mg,--,--,0,0
"Iron, Fe",mg,--,--,0.00,0.00
"Sodium, Na",mg,--,--,370,1233
Vitamins
"Vitamin C, total ascorbic acid",mg,--,--,0.0,0.0
"Vitamin A, IU",IU,--,--,0,0
Lipids
"Fatty acids, total saturated",g,--,--,0.000,0.000
"Fatty acids, total trans",g,--,--,0.000,0.000
"Cholesterol",mg,--,--,0,0
Amino Acids
Other
Ingredients
"FILTERED WATER, SUGAR, RED WINE VINEGAR WITH SULFITES, SALT, CONTAINS LESS THAN 2% OF CELLULOSE GUM, PARMESAN CHEESE (MILK, CHEESE CULTURE, SALT, ENZYMES), SPICE, XANTHAN GUM (PROVIDES THICKNESS), DEHYDRATED GARLIC, AND RED NO. 40." Date available: 07/14/2017 Date last updated by company: 07/14/2017
