Source: USDA Branded Food Products Database Release December 2017 Software v.3.8.6.4 2017-10-02
Report Run at: December 17, 2017 07:39 EST
"Nutrient data for: 45111219, FAT FREE ICE CREAM, UPC: 070640013784"
Food Group:  Branded Food Products Database
Common Name:

Nutrient,Unit,Data points,Std. Error,"0.5 cup = 71.0g",1Value per 100 g,
Proximates
"Energy",kcal,--,--,80,113
"Protein",g,--,--,4.00,5.63
"Total lipid (fat)",g,--,--,0.00,0.00
"Carbohydrate, by difference",g,--,--,20.00,28.17
"Fiber, total dietary",g,--,--,5.0,7.0
"Sugars, total",g,--,--,5.00,7.04
Minerals
"Calcium, Ca",mg,--,--,150,211
"Iron, Fe",mg,--,--,0.00,0.00
"Potassium, K",mg,--,--,180,254
"Sodium, Na",mg,--,--,65,92
Vitamins
"Vitamin C, total ascorbic acid",mg,--,--,0.0,0.0
"Vitamin A, IU",IU,--,--,337,475
Lipids
"Fatty acids, total saturated",g,--,--,0.000,0.000
"Fatty acids, total trans",g,--,--,0.000,0.000
"Cholesterol",mg,--,--,0,0
Amino Acids
Other
Ingredients
"SKIM MILK, POLYDEXTROSE, SORBITOL, MALTODEXTRIN, CONTAINS 2% OR LESS OF VANILLA EXTRACT, ARTIFICIAL FLAVOR, CELLULOSE GEL, CELLULOSE GUM, MONO & DIGLYCERIDES*, CARRAGEENAN, SUCRALOSE, ACESULFAME POTASSIUM, VITAMIN A PALMITATE, CARAMEL COLOR, ANNATTO FOR COLOR." Date available: 07/14/2017 Date last updated by company: 07/14/2017
