Source: USDA Branded Food Products Database Release December 2017 Software v.3.8.6.4 2017-10-02
Report Run at: December 17, 2017 07:39 EST
"Nutrient data for: 45280228, FAT FREE LIGHT YOGURT, UPC: 011150506366"
Food Group:  Branded Food Products Database
Common Name:

Nutrient,Unit,Data points,Std. Error,"1 cup = 227.0g",1Value per 100 g,
Proximates
"Energy",kcal,--,--,129,57
"Protein",g,--,--,7.99,3.52
"Total lipid (fat)",g,--,--,0.00,0.00
"Carbohydrate, by difference",g,--,--,26.99,11.89
"Fiber, total dietary",g,--,--,4.1,1.8
"Sugars, total",g,--,--,14.01,6.17
Minerals
"Calcium, Ca",mg,--,--,300,132
"Iron, Fe",mg,--,--,0.00,0.00
"Sodium, Na",mg,--,--,141,62
Vitamins
"Vitamin C, total ascorbic acid",mg,--,--,4.5,2.0
"Vitamin A, IU",IU,--,--,0,0
Lipids
"Fatty acids, total saturated",g,--,--,0.000,0.000
"Fatty acids, total trans",g,--,--,0.000,0.000
"Cholesterol",mg,--,--,5,2
Amino Acids
Other
Ingredients
"CULTURED GRADE A NONFAT MILK, STRAWBERRY BANANA PUREE (STRAWBERRIES AND BANANAS, MODIFIED CORN STARCH, STRAWBERRY AND BANANA FLAVORS WITH OTHER NATURAL FLAVORS, CITRIC ACID, POTASSIUM SORBATE AND ARTIFICIAL COLOR {FD & C RED #40}), STABILIZER (MODIFIED FOOD STARCH, SOLUBLE CORN FIBER, GRADE A WHEY PROTEIN CONCENTRATE, SUCRALOSE, CARRAGEENAN, PECTIN), NONFAT DRY MILK." Date available: 07/14/2017 Date last updated by company: 07/14/2017
