Source: USDA Branded Food Products Database Release December 2017 Software v.3.8.6.4 2017-10-02
Report Run at: December 17, 2017 07:48 EST
"Nutrient data for: 45234109, FAYGO, SODA, GRAPE, UPC: 073800001089"
Food Group:  Branded Food Products Database
Common Name:

Nutrient,Unit,Data points,Std. Error,"1 CAN = 355.0g",1Value per 100 g,
Proximates
"Energy",kcal,--,--,170,48
"Protein",g,--,--,0.00,0.00
"Total lipid (fat)",g,--,--,0.00,0.00
"Carbohydrate, by difference",g,--,--,42.00,11.83
"Sugars, total",g,--,--,42.00,11.83
Minerals
"Sodium, Na",mg,--,--,39,11
Vitamins
Lipids
Amino Acids
Other
Ingredients
"CARBONATED WATER, HIGH FRUCTOSE CORN SYRUP, CITRIC ACID, TARTARIC ACID, POTASSIUM BENZOATE (PRESERVATIVE), GUM ACACIA, ARTIFICIAL FLAVOR, GLYCERIN, RED 40, BLUE 1, SUCRALOSE, POTASSIUM SORBATE (PRESERVATIVE)." Date available: 06/24/2017 Date last updated by company: 06/24/2017
