Source: USDA Branded Food Products Database Release December 2017 Software v.3.8.6.4 2017-10-02
Report Run at: December 17, 2017 07:50 EST
"Nutrient data for: 45321254, FD SHD TST GD TORTILLA CHIPS MULTGRN, UNPREPARED, GTIN: 00021908812663"
Food Group:  Branded Food Products Database
Common Name:

Nutrient,Unit,Data points,Std. Error,"1 oz (28g/about 10 chips) = 28.0g",1Value per 100 g,
Proximates
"Energy",kcal,--,--,140,500
"Protein",g,--,--,2.00,7.14
"Total lipid (fat)",g,--,--,7.00,25.00
"Carbohydrate, by difference",g,--,--,18.00,64.29
"Fiber, total dietary",g,--,--,2.0,7.1
"Sugars, total",g,--,--,1.00,3.57
Minerals
"Calcium, Ca",mg,--,--,20,71
"Iron, Fe",mg,--,--,0.36,1.29
"Potassium, K",mg,--,--,65,232
"Sodium, Na",mg,--,--,80,286
Vitamins
"Vitamin C, total ascorbic acid",mg,--,--,0.0,0.0
"Vitamin A, IU",IU,--,--,0,0
Lipids
"Fatty acids, total saturated",g,--,--,0.501,1.790
"Fatty acids, total monounsaturated",g,--,--,4.001,14.290
"Fatty acids, total polyunsaturated",g,--,--,1.501,5.360
"Fatty acids, total trans",g,--,--,0.000,0.000
"Cholesterol",mg,--,--,0,0
Amino Acids
Other
Ingredients
"STONE GROUND CORN, HIGH OLEIC SUNFLOWER OIL AND/OR SAFFLOWER OIL AND/OR CANOLA OIL, BROWN RICE FLOUR, FLAX SEEDS, CANE SUGAR, SESAME SEED, SUNFLOWER SEEDS, QUINOA, SEA SALT." Date available: 10/10/2017 Date last updated by company: 08/01/2017
