Source: USDA Branded Food Products Database Release December 2017 Software v.3.8.6.4 2017-10-02
Report Run at: December 17, 2017 07:53 EST
"Nutrient data for: 45085702, FERMENTED CHILE SAUCE, UPC: 094922902887"
Food Group:  Branded Food Products Database
Common Name:

Nutrient,Unit,Data points,Std. Error,"1 tsp = 5.0g",1Value per 100 g,
Proximates
"Energy",kcal,--,--,0,0
"Total lipid (fat)",g,--,--,0.00,0.00
"Carbohydrate, by difference",g,--,--,0.00,0.00
Minerals
"Iron, Fe",mg,--,--,3.65,73.04
"Sodium, Na",mg,--,--,85,1700
Vitamins
Lipids
Amino Acids
Other
Ingredients
"CARROT, GINGER, CEDAR AGED VINEGAR, GARLIC, HABANERO CHILE, SEA SALT, YEAST EXTRACT, XANTHAN GUM, NATURAL BISULPHATE OF SODA, CULTURED DEXTROSE" Date available: 07/28/2017 Date last updated by company: 07/28/2017
