Source: USDA Branded Food Products Database Release December 2017 Software v.3.8.6.4 2017-10-02
Report Run at: December 17, 2017 07:53 EST
"Nutrient data for: 45148610, FERNWOOD, MILK CHOCOLATE, UPC: 078028001026"
Food Group:  Branded Food Products Database
Common Name:

Nutrient,Unit,Data points,Std. Error,"6.0 PIECES = 45.0g",1Value per 100 g,
Proximates
"Energy",kcal,--,--,250,556
"Protein",g,--,--,3.00,6.67
"Total lipid (fat)",g,--,--,15.00,33.33
"Carbohydrate, by difference",g,--,--,26.00,57.78
"Fiber, total dietary",g,--,--,1.0,2.2
"Sugars, total",g,--,--,24.00,53.33
Minerals
"Calcium, Ca",mg,--,--,60,133
"Iron, Fe",mg,--,--,0.40,0.89
"Sodium, Na",mg,--,--,40,89
Vitamins
"Vitamin C, total ascorbic acid",mg,--,--,0.0,0.0
"Vitamin A, IU",IU,--,--,111,247
Lipids
"Fatty acids, total saturated",g,--,--,9.999,22.220
"Fatty acids, total trans",g,--,--,0.000,0.000
"Cholesterol",mg,--,--,5,11
Amino Acids
Other
Ingredients
"MILK CHOCOLATE (SUGAR, WHOLE MILK, COCOA BUTTER, CHOCOLATE LIQUOR, VANILLA FLAVOR), COCONUT OIL, SUGAR, NONFAT DRY MILK, SOY LECITHIN (AN EMULSIFIER), ARTIFICIAL FLAVOR. SALT, PEPPERMINT OIL. BLUE 1 LAKE, YELLOW 5 LAKE." Date available: 08/23/2017 Date last updated by company: 08/23/2017
