Source: USDA Branded Food Products Database Release December 2017 Software v.3.8.6.4 2017-10-02
Report Run at: December 17, 2017 07:56 EST
"Nutrient data for: 45146215, FERRIS, HONEY BEE MIX, UPC: 788709927568"
Food Group:  Branded Food Products Database
Common Name:

Nutrient,Unit,Data points,Std. Error,"0.25 CUP | ABOUT = 28.0g",1Value per 100 g,
Proximates
"Energy",kcal,--,--,160,571
"Protein",g,--,--,3.00,10.71
"Total lipid (fat)",g,--,--,10.00,35.71
"Carbohydrate, by difference",g,--,--,14.00,50.00
"Fiber, total dietary",g,--,--,1.0,3.6
"Sugars, total",g,--,--,7.00,25.00
Minerals
"Calcium, Ca",mg,--,--,20,71
"Iron, Fe",mg,--,--,1.29,4.59
"Sodium, Na",mg,--,--,65,232
Vitamins
"Vitamin C, total ascorbic acid",mg,--,--,2.2,7.7
"Vitamin A, IU",IU,--,--,0,0
Lipids
"Fatty acids, total saturated",g,--,--,3.500,12.500
"Fatty acids, total trans",g,--,--,0.000,0.000
"Cholesterol",mg,--,--,0,0
Amino Acids
Other
Ingredients
"BANANA CHIPS (BANANA, VEGETABLE OIL, SUGAR, NATURAL FLAVOR), HONEY ROASTED PEANUTS (PEANUTS, SUGAR, HONEY, VEGETABLE OIL [PEANUT, COTTONSEED, SOYBEAN AND/OR SUNFLOWER SEED], SALT, MODIFIED FOOD STARCH [POTATO], MALTODEXTRIN AND XANTHAN GUM), BUTTER TOFFEE PEANUTS (SUGAR, PEANUTS, BUTTER, SALT, ARTIFICIAL FLAVOR [VANILLA POWDER] AND SOY LECITHIN [AN EMULSIFIER]), HONEY ROASTED SESAME STICKS (FLOUR [WHEAT FLOUR, MALTED BARLEY FLOUR], PARTIALLY HYDROGENATED VEGETABLE OIL [SOYBEAN, COTTONSEED], SESAME SEEDS, SUGAR, BULGUR WHEAT, VEGETABLE OIL [PEANUT, COTTONSEED, SOYBEAN AND/OR SUNFLOWER SEED], HONEY, CONTAINS LESS THAN 2% OF THE FOLLOWING: SALT, MODIFIED POTATO STARCH, SOY PROTEIN CONCENTRATE, SOY FLOUR, MALTODEXTRIN, TURMERIC AND BEET POWDER [COLOR] AND XANTHAN GUM), HONEY ROASTED ALMONDS (ALMONDS, SUGAR, HONEY EXTRACT, ARTIFICIAL VANILLA), HONEY ROASTED CASHEWS (CASHEWS, SUGAR, HONEY, SUNFLOWER OIL, SALT AND GUM ARABIC)." Date available: 07/14/2017 Date last updated by company: 07/14/2017
