Source: USDA Branded Food Products Database Release December 2017 Software v.3.8.6.4 2017-10-02
Report Run at: December 17, 2017 08:02 EST
"Nutrient data for: 45240530, FEVER-TREE, PREMIUM GINGER BEER, UPC: 898195001427"
Food Group:  Branded Food Products Database
Common Name:

Nutrient,Unit,Data points,Std. Error,"8.0 OZA = 240.0g",1Value per 100 g,
Proximates
"Energy",kcal,--,--,106,44
"Protein",g,--,--,0.00,0.00
"Total lipid (fat)",g,--,--,0.00,0.00
"Carbohydrate, by difference",g,--,--,24.00,10.00
"Sugars, total",g,--,--,24.00,10.00
Minerals
"Sodium, Na",mg,--,--,0,0
Vitamins
Lipids
Amino Acids
Other
Ingredients
"CARBONATED SPRING WATER, CANE SUGAR, GINGER ROOT, NATURAL FLAVOUR, ASCORBIC ACID." Date available: 06/25/2017 Date last updated by company: 06/25/2017
