Source: USDA Branded Food Products Database Release December 2017 Software v.3.8.6.4 2017-10-02
Report Run at: December 17, 2017 08:04 EST
"Nutrient data for: 45197470, FIBER MAX CHEWY BARS, UPC: 07078447472"
Food Group:  Branded Food Products Database
Common Name:

Nutrient,Unit,Data points,Std. Error,"1 BAR = 40.0g",1Value per 100 g,
Proximates
"Energy",kcal,--,--,140,350
"Protein",g,--,--,2.00,5.00
"Total lipid (fat)",g,--,--,4.00,10.00
"Carbohydrate, by difference",g,--,--,30.00,75.00
"Fiber, total dietary",g,--,--,9.0,22.5
"Sugars, total",g,--,--,10.00,25.00
Minerals
"Calcium, Ca",mg,--,--,100,250
"Iron, Fe",mg,--,--,0.36,0.90
"Sodium, Na",mg,--,--,90,225
Vitamins
"Vitamin C, total ascorbic acid",mg,--,--,6.0,15.0
"Vitamin A, IU",IU,--,--,0,0
Lipids
"Fatty acids, total saturated",g,--,--,1.500,3.750
"Fatty acids, total monounsaturated",g,--,--,1.500,3.750
"Fatty acids, total polyunsaturated",g,--,--,0.500,1.250
"Fatty acids, total trans",g,--,--,0.000,0.000
"Cholesterol",mg,--,--,0,0
Amino Acids
Other
Ingredients
"CHICORY ROOT EXTRACT (INULIN), CHOCOLATE CHIPS (SUGAR, CHOCOLATE LIQUOR, COCOA BUTTER, DEXTROSE, MILK FAT, SOY LECITHIN), WHOLE GRAIN ROLLED OATS, CRISP RICE (RICE FLOUR, SUGAR, BARLEY MALT EXTRACT, SALT), HIGH MALTOSE CORN SYRUP, BARLEY FLAKES, SUGAR, VEGETABLE OILS (CANOLA, PALM KERNEL, PALM), CONTAINS LESS THAN 2% OF: HONEY, GLYCERIN, SOY LECITHIN, MALTODEXTRIN, TRICALCIUM PHOSPHATE, NONFAT MILK, SALT, COCOA, CARAMEL COLOR, BAKING SODA, NATURAL FLAVOR, ASCORBIC ACID (VITAMIN C), DL-ALPHA-TOCOPHERYL ACETATE (VITAMIN E), MIXED TOCOPHEROLS (TO RETAIN FRESHNESS), PEANUT FLOUR, WHEAT FLOUR." Date available: 07/14/2017 Date last updated by company: 07/14/2017
