Source: USDA Branded Food Products Database Release December 2017 Software v.3.8.6.4 2017-10-02
Report Run at: December 17, 2017 08:07 EST
"Nutrient data for: 45098974, FIELD TRIP, BEEF JERKY, TERIYAKI NO. 23, UPC: 854966005025"
Food Group:  Branded Food Products Database
Common Name:

Nutrient,Unit,Data points,Std. Error,"1 ONZ = 28.0g",1Value per 100 g,
Proximates
"Energy",kcal,--,--,80,286
"Protein",g,--,--,13.00,46.43
"Total lipid (fat)",g,--,--,1.50,5.36
"Carbohydrate, by difference",g,--,--,4.00,14.29
"Fiber, total dietary",g,--,--,0.0,0.0
"Sugars, total",g,--,--,4.00,14.29
Minerals
"Calcium, Ca",mg,--,--,20,71
"Iron, Fe",mg,--,--,1.93,6.88
"Sodium, Na",mg,--,--,125,446
Vitamins
"Vitamin C, total ascorbic acid",mg,--,--,4.3,15.3
"Vitamin A, IU",IU,--,--,0,0
Lipids
"Fatty acids, total saturated",g,--,--,0.501,1.790
"Fatty acids, total trans",g,--,--,0.000,0.000
"Cholesterol",mg,--,--,30,107
Amino Acids
Other
Ingredients
"TOP ROUND BEEF, PINEAPPLE JUICE, GLUTEN FREE REDUCED SODIUM SOY SAUCE (WATER, SOYBEANS, SALT, ALCOHOL), ORGANIC BLUE AGAVE NECTAR, BROWN SUGAR, WATER, RICE WINE, NATURAL LIQUID SMOKE FLAVOR, GARLIC POWDER, GINGER, GRANULATED ONION, BLACK PEPPER" Date available: 07/14/2017 Date last updated by company: 07/14/2017
