Source: USDA Branded Food Products Database Release December 2017 Software v.3.8.6.4 2017-10-02
Report Run at: December 17, 2017 08:05 EST
"Nutrient data for: 45155681, FIELD DAY, ORGANIC APPLE CRANBERRY JUICE, UPC: 042563603656"
Food Group:  Branded Food Products Database
Common Name:

Nutrient,Unit,Data points,Std. Error,"8.0 OZA = 240.0g",1Value per 100 g,
Proximates
"Energy",kcal,--,--,130,54
"Protein",g,--,--,0.00,0.00
"Total lipid (fat)",g,--,--,0.00,0.00
"Carbohydrate, by difference",g,--,--,33.00,13.75
"Sugars, total",g,--,--,33.00,13.75
Minerals
"Sodium, Na",mg,--,--,36,15
Vitamins
"Vitamin C, total ascorbic acid",mg,--,--,60.0,25.0
Lipids
Amino Acids
Other
Ingredients
"FILTERED WATER, ORGANIC APPLE JUICE CONCENTRATE, ORGANIC CRANBERRY JUICE, ORGANIC FRUIT AND VEGETABLE EXTRACT (COLOR), ORGANIC CRANBERRY FLAVOR, CITRIC ACID, CRANBERRY ESSENCE, ASCORBIC ACID (VITAMIN C)" Date available: 07/14/2017 Date last updated by company: 07/14/2017
