Source: USDA Branded Food Products Database Release December 2017 Software v.3.8.6.4 2017-10-02
Report Run at: December 17, 2017 08:05 EST
"Nutrient data for: 45015316, FIELD DAY, ORGANIC PASTA SAUCE, TOMATO BASIL, UPC: 042563600327"
Food Group:  Branded Food Products Database
Common Name:

Nutrient,Unit,Data points,Std. Error,"0.5 cup = 125.0g",1Value per 100 g,
Proximates
"Energy",kcal,--,--,70,56
"Protein",g,--,--,2.00,1.60
"Total lipid (fat)",g,--,--,1.00,0.80
"Carbohydrate, by difference",g,--,--,13.00,10.40
"Fiber, total dietary",g,--,--,2.0,1.6
"Sugars, total",g,--,--,8.00,6.40
Minerals
"Calcium, Ca",mg,--,--,60,48
"Iron, Fe",mg,--,--,1.14,0.91
"Sodium, Na",mg,--,--,480,384
Vitamins
"Vitamin C, total ascorbic acid",mg,--,--,9.5,7.6
"Vitamin A, IU",IU,--,--,318,254
Lipids
"Fatty acids, total saturated",g,--,--,0.000,0.000
"Fatty acids, total trans",g,--,--,0.000,0.000
"Cholesterol",mg,--,--,0,0
Amino Acids
Other
Ingredients
"ORGANIC TOMATO PUREE (WATER, ORGANIC TOMATO PASTE), ORGANIC TOMATOES, ORGANIC ONIONS, ORGANIC DRIED CANE SYRUP, SALT, ORGANIC GARLIC, ORGANIC EXTRA VIRGIN OLIVE OIL, ORGANIC BASIL, ORGANIC PARSLEY, ORGANIC OREGANO, CITRIC ACID." Date available: 07/14/2017 Date last updated by company: 07/14/2017
