Source: USDA Branded Food Products Database Release December 2017 Software v.3.8.6.4 2017-10-02
Report Run at: December 17, 2017 08:05 EST
"Nutrient data for: 45195915, FIELD DAY, ORGANIC PASTA SAUCE, GARDEN VEGETABLES, UPC: 042563603021"
Food Group:  Branded Food Products Database
Common Name:

Nutrient,Unit,Data points,Std. Error,"0.5 cup = 125.0g",1Value per 100 g,
Proximates
"Energy",kcal,--,--,60,48
"Protein",g,--,--,1.00,0.80
"Total lipid (fat)",g,--,--,1.00,0.80
"Carbohydrate, by difference",g,--,--,12.00,9.60
"Fiber, total dietary",g,--,--,2.0,1.6
"Sugars, total",g,--,--,8.00,6.40
Minerals
"Calcium, Ca",mg,--,--,60,48
"Iron, Fe",mg,--,--,0.76,0.61
"Sodium, Na",mg,--,--,540,432
Vitamins
"Vitamin C, total ascorbic acid",mg,--,--,3.8,3.0
"Vitamin A, IU",IU,--,--,318,254
Lipids
"Fatty acids, total saturated",g,--,--,0.000,0.000
"Fatty acids, total trans",g,--,--,0.000,0.000
"Cholesterol",mg,--,--,0,0
Amino Acids
Other
Ingredients
"ORGANIC TOMATO PUREE (WATER, ORGANIC TOMATO PASTE), ORGANIC DICED TOMATOES, ORGANIC ONIONS, ORGANIC CARROTS, ORGANIC SUGAR (VEGAN), ORGANIC CELERY, ORGANIC ZUCCHINI, SALT, ORGANIC EXTRA VIRGIN OLIVE OIL, ORGANIC ROASTED GARLIC PUREE, CITRIC ACID, ORGANIC PARSLEY, ORGANIC BASIL, ORGANIC OREGANO" Date available: 07/14/2017 Date last updated by company: 07/14/2017
