Source: USDA Branded Food Products Database Release December 2017 Software v.3.8.6.4 2017-10-02
Report Run at: December 17, 2017 08:12 EST
"Nutrient data for: 45239387, FIG SAUCE, UPC: 711381003619"
Food Group:  Branded Food Products Database
Common Name:

Nutrient,Unit,Data points,Std. Error,"2.0 Tbsp = 30.0g",1Value per 100 g,
Proximates
"Energy",kcal,--,--,60,200
"Protein",g,--,--,1.00,3.33
"Total lipid (fat)",g,--,--,2.00,6.67
"Carbohydrate, by difference",g,--,--,12.00,40.00
"Fiber, total dietary",g,--,--,1.0,3.3
"Sugars, total",g,--,--,10.00,33.33
Minerals
"Calcium, Ca",mg,--,--,0,0
"Iron, Fe",mg,--,--,0.36,1.20
"Sodium, Na",mg,--,--,105,350
Vitamins
"Vitamin C, total ascorbic acid",mg,--,--,2.4,8.0
"Vitamin A, IU",IU,--,--,0,0
Lipids
"Fatty acids, total saturated",g,--,--,0.000,0.000
"Fatty acids, total trans",g,--,--,0.000,0.000
"Cholesterol",mg,--,--,0,0
Amino Acids
Other
Ingredients
"SUGAR, WATER, APPLES, FIGS, BALSAMIC VINEGAR, VIDALIA ONION (7. 0%), SOY SAUCE (WHEAT, SOYBEANS, SALT), CANOLA OIL, FIG CONCENTRATE, CIDER VINEGAR, ORANGE JUICE, MUSTARD (MUSTARD SEED, VINEGAR, WATER, SALT, TURMERIC, SPICES), ONION, XANTHAN GUM, SALT, CURRY POWDER, SPICES, CITRIC ACID" Date available: 06/25/2017 Date last updated by company: 06/25/2017
