Source: USDA Branded Food Products Database Release December 2017 Software v.3.8.6.4 2017-10-02
Report Run at: December 17, 2017 08:12 EST
"Nutrient data for: 45079217, FIG SPREAD, UPC: 854858001043"
Food Group:  Branded Food Products Database
Common Name:

Nutrient,Unit,Data points,Std. Error,"1 Tbsp = 20.0g",1Value per 100 g,
Proximates
"Energy",kcal,--,--,60,300
"Protein",g,--,--,0.00,0.00
"Total lipid (fat)",g,--,--,0.00,0.00
"Carbohydrate, by difference",g,--,--,15.00,75.00
"Fiber, total dietary",g,--,--,0.0,0.0
"Sugars, total",g,--,--,14.00,70.00
Minerals
"Calcium, Ca",mg,--,--,20,100
"Iron, Fe",mg,--,--,0.36,1.80
"Sodium, Na",mg,--,--,25,125
Vitamins
"Vitamin C, total ascorbic acid",mg,--,--,9.0,45.0
"Vitamin A, IU",IU,--,--,0,0
Lipids
"Fatty acids, total saturated",g,--,--,0.000,0.000
"Fatty acids, total trans",g,--,--,0.000,0.000
"Cholesterol",mg,--,--,0,0
Amino Acids
Other
Ingredients
"FIGS, PURE CANE SUGAR, ORANGES, FRUIT PECTIN, CITRIC ACID (ACIDITY REGULATOR), LACTIC ACID (ACIDITY REGULATOR), ASCORBIC ACID (ANTIOXIDANT)" Date available: 06/25/2017 Date last updated by company: 06/25/2017
