Source: USDA Branded Food Products Database Release December 2017 Software v.3.8.6.4 2017-10-02
Report Run at: December 17, 2017 08:14 EST
"Nutrient data for: 45260772, FILLED TWISTS SNACK, UPC: 03416103"
Food Group:  Branded Food Products Database
Common Name:

Nutrient,Unit,Data points,Std. Error,"1 PACKAGE = 53.0g",1Value per 100 g,
Proximates
"Energy",kcal,--,--,190,358
"Protein",g,--,--,1.00,1.89
"Total lipid (fat)",g,--,--,2.50,4.72
"Carbohydrate, by difference",g,--,--,41.00,77.36
"Fiber, total dietary",g,--,--,0.0,0.0
"Sugars, total",g,--,--,27.00,50.94
Minerals
"Calcium, Ca",mg,--,--,0,0
"Iron, Fe",mg,--,--,0.34,0.64
"Sodium, Na",mg,--,--,75,142
Vitamins
"Vitamin C, total ascorbic acid",mg,--,--,0.0,0.0
"Vitamin A, IU",IU,--,--,0,0
Lipids
"Fatty acids, total saturated",g,--,--,1.998,3.770
"Fatty acids, total trans",g,--,--,0.000,0.000
"Cholesterol",mg,--,--,0,0
Amino Acids
Other
Ingredients
"CORN SYRUP; SUGAR; ENRICHED WHEAT FLOUR (FLOUR, NIACIN, FERROUS SULFATE, THIAMIN MONONITRATE, RIBOFLAVIN, AND FOLIC ACID); VEGETABLE OIL (PALM KERNEL AND PALM OIL); CONTAINS 2% OR LESS OF: MODIFIED POTATO STARCH; GLYCERYL MONOSTEARATE; NATURAL AND ARTIFICIAL FLAVORS; SALT; CORNSTARCH; GLYCERIN; CITRIC ACID; SOY LECITHIN; ARTIFICIAL COLOR (YELLOW 5; BLUE 1; RED 40); CARRAGEENAN; POTASSIUM SORBATE (PRESERVATIVE)." Date available: 07/14/2017 Date last updated by company: 07/14/2017
