Source: USDA Branded Food Products Database Release December 2017 Software v.3.8.6.4 2017-10-02
Report Run at: December 17, 2017 08:15 EST
"Nutrient data for: 45058049, FILLETS IN OIL SMOKED SALMON, UPC: 086600750958"
Food Group:  Branded Food Products Database
Common Name:

Nutrient,Unit,Data points,Std. Error,"1 CAN DRAINED = 85.0g",1Value per 100 g,
Proximates
"Energy",kcal,--,--,160,188
"Protein",g,--,--,20.00,23.53
"Total lipid (fat)",g,--,--,8.00,9.41
"Carbohydrate, by difference",g,--,--,0.00,0.00
"Fiber, total dietary",g,--,--,0.0,0.0
"Sugars, total",g,--,--,0.00,0.00
Minerals
"Calcium, Ca",mg,--,--,0,0
"Iron, Fe",mg,--,--,0.47,0.55
"Potassium, K",mg,--,--,240,282
"Sodium, Na",mg,--,--,390,459
Vitamins
"Vitamin C, total ascorbic acid",mg,--,--,0.0,0.0
"Vitamin A, IU",IU,--,--,0,0
Lipids
"Fatty acids, total saturated",g,--,--,1.496,1.760
"Fatty acids, total monounsaturated",g,--,--,1.998,2.350
"Fatty acids, total polyunsaturated",g,--,--,4.497,5.290
"Fatty acids, total trans",g,--,--,0.000,0.000
"Cholesterol",mg,--,--,35,41
Amino Acids
Other
Ingredients
"MEDIUM RED SALMON, SOYBEAN OIL, WATER, SMOKE FLAVOR, SALT, COLOR ADDED" Date available: 07/14/2017 Date last updated by company: 07/14/2017
