Source: USDA Branded Food Products Database Release December 2017 Software v.3.8.6.4 2017-10-02
Report Run at: December 17, 2017 08:14 EST
"Nutrient data for: 45210565, FILLED CHOCOLATE, UPC: 816095018123"
Food Group:  Branded Food Products Database
Common Name:

Nutrient,Unit,Data points,Std. Error,"1 PIECES = 20.0g",1Value per 100 g,
Proximates
"Energy",kcal,--,--,117,585
"Protein",g,--,--,1.00,5.00
"Total lipid (fat)",g,--,--,8.00,40.00
"Carbohydrate, by difference",g,--,--,10.00,50.00
"Fiber, total dietary",g,--,--,1.0,5.0
"Sugars, total",g,--,--,10.00,50.00
Minerals
"Calcium, Ca",mg,--,--,40,200
"Iron, Fe",mg,--,--,1.80,9.00
"Sodium, Na",mg,--,--,10,50
Vitamins
"Vitamin C, total ascorbic acid",mg,--,--,0.0,0.0
"Vitamin A, IU",IU,--,--,0,0
Lipids
"Fatty acids, total saturated",g,--,--,4.000,20.000
"Fatty acids, total trans",g,--,--,0.000,0.000
"Cholesterol",mg,--,--,2,10
Amino Acids
Other
Ingredients
"SUGAR, COCOA BUTTER, HAZELNUTS, MILK, COCOA MASS, CREAM, LACTOSE SOY LECITHIN (EMULSIFIER)." Date available: 07/14/2017 Date last updated by company: 07/14/2017
