Source: USDA Branded Food Products Database Release December 2017 Software v.3.8.6.4 2017-10-02
Report Run at: December 17, 2017 08:15 EST
"Nutrient data for: 45258979, FINDING DORY ROYAL GELATIN, UPC: 072392015047"
Food Group:  Branded Food Products Database
Common Name:

Nutrient,Unit,Data points,Std. Error,"0.5 cup = 7.0g",1Value per 100 g,
Proximates
"Energy",kcal,--,--,25,357
"Protein",g,--,--,1.00,14.29
"Total lipid (fat)",g,--,--,0.00,0.00
"Carbohydrate, by difference",g,--,--,5.00,71.43
Minerals
"Sodium, Na",mg,--,--,70,1000
Vitamins
Lipids
Amino Acids
Other
Ingredients
"MALTODEXTRIN, GELATIN, FUMARIC ACID, SODIUM CITRATE, CONTAINS 2% OR LESS OF THE FOLLOWING: NATURAL AND ARTIFICIAL FLAVOR, ACESULFAME POTASSIUM, SUCRALOSE, BLUE 1." Date available: 10/19/2017 Date last updated by company: 10/19/2017
