Source: USDA Branded Food Products Database Release December 2017 Software v.3.8.6.4 2017-10-02
Report Run at: December 17, 2017 08:20 EST
"Nutrient data for: 45196233, FINE SALAD DRESSING, UPC: 047785008036"
Food Group:  Branded Food Products Database
Common Name:

Nutrient,Unit,Data points,Std. Error,"2.0 Tbsp = 29.6g",1Value per 100 g,
Proximates
"Energy",kcal,--,--,160,541
"Protein",g,--,--,1.00,3.38
"Total lipid (fat)",g,--,--,17.00,57.43
"Carbohydrate, by difference",g,--,--,1.00,3.38
Minerals
"Calcium, Ca",mg,--,--,40,135
"Iron, Fe",mg,--,--,1.22,4.11
"Sodium, Na",mg,--,--,190,642
Vitamins
Lipids
"Fatty acids, total saturated",g,--,--,2.501,8.450
"Cholesterol",mg,--,--,5,17
Amino Acids
Other
Ingredients
"CANOLA OIL, WATER, PARMESAN CHEESE (PASTEURIZED MILK, SALT, CHEESE CULTURE, NATURAL ENZYMES), DISTILLED VINEGAR, LEMON JUICE, OLIVE OIL, ANCHOVY POWDER, SALT, DRIED GARLIC, BLACK PEPPER, XANTHAN GUM, CITRIC ACID" Date available: 10/19/2017 Date last updated by company: 10/19/2017
