Source: USDA Branded Food Products Database Release December 2017 Software v.3.8.6.4 2017-10-02
Report Run at: December 17, 2017 08:23 EST
"Nutrient data for: 45270297, FINGERS SPRINKLES, UPC: 739148100029"
Food Group:  Branded Food Products Database
Common Name:

Nutrient,Unit,Data points,Std. Error,"1 ONZ = 28.0g",1Value per 100 g,
Proximates
"Energy",kcal,--,--,150,536
"Protein",g,--,--,1.00,3.57
"Total lipid (fat)",g,--,--,8.00,28.57
"Carbohydrate, by difference",g,--,--,20.00,71.43
"Fiber, total dietary",g,--,--,0.0,0.0
"Sugars, total",g,--,--,12.00,42.86
Minerals
"Calcium, Ca",mg,--,--,0,0
"Iron, Fe",mg,--,--,0.64,2.29
"Sodium, Na",mg,--,--,15,54
Vitamins
"Vitamin C, total ascorbic acid",mg,--,--,0.0,0.0
"Vitamin A, IU",IU,--,--,0,0
Lipids
"Fatty acids, total saturated",g,--,--,4.001,14.290
"Fatty acids, total trans",g,--,--,0.000,0.000
"Cholesterol",mg,--,--,0,0
Amino Acids
Other
Ingredients
"FLOUR, SUGAR, VEGETABLE SHORTENING PALM OIL, SOYBEAN OIL, EGG WHITE, HONEY, GLAZED CHERRIES, COCOA (PROCESSED WITH ALKALI), ARTIFICIAL FLAVOR, FD&C YELLOW #5., CHOCOLATE DIP: SUGAR, SOYBEAN OIL, COCOA, DUTCH PROCESSED, LECITHIN, ARTIFICIAL FLAVOR., JELLY FILLING: FRUCTOSE, APPLE PUREE, GLUCOSE, SUGAR, WATER, PECTIN, MONOGLYCERIDE, FD&C RED #40, YELLOW #6, BLUE #1 ARTIFICIAL FLAVOR. SPRINKLES: SUGAR, VEGETABLE OILS, CORN STARCH, CORN SYRUP, SOY LECITHIN, SALT, VANILLIN, CONFECTIONER GLAZE, CARNAUBA WAX, FD&C YELLOW #5 & #6, RED #3 & #40, BLUE #1." Date available: 07/14/2017 Date last updated by company: 07/14/2017
