Source: USDA Branded Food Products Database Release December 2017 Software v.3.8.6.4 2017-10-02
Report Run at: December 17, 2017 08:28 EST
"Nutrient data for: 45053212, FIRE ROASTED PEPPERS, UPC: 033698816240"
Food Group:  Branded Food Products Database
Common Name:

Nutrient,Unit,Data points,Std. Error,"0.5 cup = 130.0g",1Value per 100 g,
Proximates
"Energy",kcal,--,--,25,19
"Protein",g,--,--,1.00,0.77
"Total lipid (fat)",g,--,--,0.00,0.00
"Carbohydrate, by difference",g,--,--,4.00,3.08
"Fiber, total dietary",g,--,--,1.0,0.8
"Sugars, total",g,--,--,2.00,1.54
Minerals
"Calcium, Ca",mg,--,--,150,115
"Iron, Fe",mg,--,--,0.42,0.32
"Sodium, Na",mg,--,--,140,108
Vitamins
"Vitamin C, total ascorbic acid",mg,--,--,18.5,14.2
"Vitamin A, IU",IU,--,--,673,518
Lipids
"Fatty acids, total saturated",g,--,--,0.000,0.000
"Fatty acids, total trans",g,--,--,0.000,0.000
"Cholesterol",mg,--,--,0,0
Amino Acids
Other
Ingredients
"ROASTED PEPPERS, WATER, SALT, CITRIC ACID." Date available: 06/25/2017 Date last updated by company: 06/25/2017
