Source: USDA Branded Food Products Database Release December 2017 Software v.3.8.6.4 2017-10-02
Report Run at: December 17, 2017 08:25 EST
"Nutrient data for: 45225965, FIRECRACKER BRATS, UPC: 077782029888"
Food Group:  Branded Food Products Database
Common Name:

Nutrient,Unit,Data points,Std. Error,"1 GRILLED LINK = 82.0g",1Value per 100 g,
Proximates
"Energy",kcal,--,--,250,305
"Protein",g,--,--,12.00,14.63
"Total lipid (fat)",g,--,--,21.00,25.61
"Carbohydrate, by difference",g,--,--,3.00,3.66
"Sugars, total",g,--,--,1.00,1.22
Minerals
"Calcium, Ca",mg,--,--,20,24
"Iron, Fe",mg,--,--,0.48,0.59
"Sodium, Na",mg,--,--,540,659
Vitamins
"Vitamin C, total ascorbic acid",mg,--,--,1.6,2.0
"Vitamin A, IU",IU,--,--,0,0
Lipids
"Fatty acids, total saturated",g,--,--,7.003,8.540
"Fatty acids, total trans",g,--,--,0.000,0.000
"Cholesterol",mg,--,--,55,67
Amino Acids
Other
Ingredients
"PORK, WATER, CORN SYRUP AND LESS THAN 2% OF THE FOLLOWING: SALT, SPICES, DEXTROSE, GARLIC POWDER, ONION POWDER, POTASSIUM CHLORIDE, GREEN BELL PEPPER GRANULES, MALTODEXTRIN, NATURAL FLAVORS, OLEORESIN CAPSICUM, BHA, CITRIC ACID, PROPYL GALLATE." Date available: 07/14/2017 Date last updated by company: 07/14/2017
