Source: USDA Branded Food Products Database Release December 2017 Software v.3.8.6.4 2017-10-02
Report Run at: December 17, 2017 08:27 EST
"Nutrient data for: 45317853, FIRE ROASTED CRUSHED TOMATOES, UPC: 725342290437"
Food Group:  Branded Food Products Database
Common Name:

Nutrient,Unit,Data points,Std. Error,"0.25 cup = 65.0g",1Value per 100 g,
Proximates
"Energy",kcal,--,--,25,38
"Protein",g,--,--,1.00,1.54
"Total lipid (fat)",g,--,--,0.00,0.00
"Carbohydrate, by difference",g,--,--,5.00,7.69
"Fiber, total dietary",g,--,--,1.0,1.5
"Sugars, total",g,--,--,3.00,4.62
Minerals
"Calcium, Ca",mg,--,--,0,0
"Iron, Fe",mg,--,--,0.72,1.11
"Sodium, Na",mg,--,--,110,169
Vitamins
"Vitamin C, total ascorbic acid",mg,--,--,0.0,0.0
"Vitamin A, IU",IU,--,--,1000,1538
Lipids
"Fatty acids, total saturated",g,--,--,0.000,0.000
"Fatty acids, total trans",g,--,--,0.000,0.000
"Cholesterol",mg,--,--,0,0
Amino Acids
Other
Ingredients
"FIRE ROASTED TOMATOES*, TOMATO PUREE*, SEA SALT, NATURALLY DERIVED CITRIC ACID." Date available: 07/14/2017 Date last updated by company: 07/14/2017
