Source: USDA Branded Food Products Database Release December 2017 Software v.3.8.6.4 2017-10-02
Report Run at: December 17, 2017 08:28 EST
"Nutrient data for: 45135697, FIRE ROASTED SALSA, UPC: 189270000016"
Food Group:  Branded Food Products Database
Common Name:

Nutrient,Unit,Data points,Std. Error,"2.0 Tbsp = 28.0g",1Value per 100 g,
Proximates
"Energy",kcal,--,--,5,18
"Protein",g,--,--,0.00,0.00
"Total lipid (fat)",g,--,--,0.00,0.00
"Carbohydrate, by difference",g,--,--,1.00,3.57
Minerals
"Sodium, Na",mg,--,--,105,375
Vitamins
"Vitamin C, total ascorbic acid",mg,--,--,16.1,57.4
"Vitamin A, IU",IU,--,--,357,1275
Lipids
Amino Acids
Other
Ingredients
"ALL NATURAL INGREDIENTS: TOMATOES, SERRANO PEPPERS, SALT, GARLIC, APPLE CIDER VINEGAR, AND SPICES." Date available: 06/24/2017 Date last updated by company: 06/24/2017
