Source: USDA Branded Food Products Database Release December 2017 Software v.3.8.6.4 2017-10-02
Report Run at: December 17, 2017 08:31 EST
"Nutrient data for: 45146930, FIRST STREET, CANDY CORN, UPC: 041512134074"
Food Group:  Branded Food Products Database
Common Name:

Nutrient,Unit,Data points,Std. Error,"24.0 PIECES = 41.0g",1Value per 100 g,
Proximates
"Energy",kcal,--,--,160,390
"Protein",g,--,--,0.00,0.00
"Total lipid (fat)",g,--,--,0.00,0.00
"Carbohydrate, by difference",g,--,--,39.00,95.12
"Fiber, total dietary",g,--,--,0.0,0.0
"Sugars, total",g,--,--,32.00,78.05
Minerals
"Calcium, Ca",mg,--,--,0,0
"Iron, Fe",mg,--,--,0.00,0.00
"Sodium, Na",mg,--,--,75,183
Vitamins
"Vitamin C, total ascorbic acid",mg,--,--,0.0,0.0
"Vitamin A, IU",IU,--,--,0,0
Lipids
"Fatty acids, total saturated",g,--,--,0.000,0.000
"Fatty acids, total trans",g,--,--,0.000,0.000
"Cholesterol",mg,--,--,0,0
Amino Acids
Other
Ingredients
"SUGAR, CORN SYRUP, HONEY, SALT, CONFECTIONER'S GLAZE, EGG WHITES, ARTIFICIAL FLAVOR, CARNAUBA WAX, SOY PROTEIN, ARTIFICIAL COLORS INCLUDING (YELLOW 6, YELLOW 5, RED 3)." Date available: 07/14/2017 Date last updated by company: 07/14/2017
