Source: USDA Branded Food Products Database Release December 2017 Software v.3.8.6.4 2017-10-02
Report Run at: December 17, 2017 08:33 EST
"Nutrient data for: 45193917, FISCHER & WIESER, ORGANIC SAUCE, ROASTED RASPBERRY, CHIPOTLE, MILD, UPC: 020138606042"
Food Group:  Branded Food Products Database
Common Name:

Nutrient,Unit,Data points,Std. Error,"1 Tbsp = 20.0g",1Value per 100 g,
Proximates
"Energy",kcal,--,--,40,200
"Protein",g,--,--,0.00,0.00
"Total lipid (fat)",g,--,--,0.00,0.00
"Carbohydrate, by difference",g,--,--,10.00,50.00
"Fiber, total dietary",g,--,--,0.0,0.0
"Sugars, total",g,--,--,9.00,45.00
Minerals
"Sodium, Na",mg,--,--,60,300
Vitamins
"Vitamin C, total ascorbic acid",mg,--,--,14.6,73.0
Lipids
Amino Acids
Other
Ingredients
"ORGANIC SUGAR, ORGANIC RASPBERRIES, WATER, ORGANIC JALAPENO PEPPER, NON-GMO PECTIN (SUCROSE, PECTIN, CITRIC ACID), ORGANIC APPLE CIDER VINEGAR, ORGANIC CHIPOTLE POWDER, ORGANIC GRANULATED GARLIC, SALT." Date available: 07/14/2017 Date last updated by company: 07/14/2017
