Source: USDA Branded Food Products Database Release December 2017 Software v.3.8.6.4 2017-10-02
Report Run at: December 17, 2017 08:36 EST
"Nutrient data for: 45181484, FISHERMAN'S WHARF, COCKTAIL SHRIMP, UPC: 02114002642"
Food Group:  Branded Food Products Database
Common Name:

Nutrient,Unit,Data points,Std. Error,"10.0 SHRIMP | ABOUT = 56.0g",1Value per 100 g,
Proximates
"Energy",kcal,--,--,130,232
"Protein",g,--,--,19.00,33.93
"Total lipid (fat)",g,--,--,1.50,2.68
"Carbohydrate, by difference",g,--,--,11.00,19.64
"Fiber, total dietary",g,--,--,0.0,0.0
"Sugars, total",g,--,--,8.00,14.29
Minerals
"Calcium, Ca",mg,--,--,80,143
"Iron, Fe",mg,--,--,0.36,0.64
"Sodium, Na",mg,--,--,2020,3607
Vitamins
"Vitamin C, total ascorbic acid",mg,--,--,0.0,0.0
"Vitamin A, IU",IU,--,--,300,536
Lipids
"Fatty acids, total saturated",g,--,--,0.000,0.000
"Fatty acids, total trans",g,--,--,0.000,0.000
"Cholesterol",mg,--,--,180,321
Amino Acids
Other
Ingredients
"SHRIMP: SHRIMP, SALT, SODIUM TRIPOLYPHOSPHATE (TO RETAIN MOISTURE), SODIUM BISULFITE (PRESERVATIVE). COCKTAIL SAUCE: WATER, TOMATO PASTE, LIQUID SUCROSE, HORSERADISH [FRESH HORSERADISH, SALT, VINEGAR, MUSTARD OIL], DISTILLED VINEGAR [WATER, ACETIC ACID]," Date available: 10/17/2016 Date last updated by company: 10/17/2016
