Source: USDA Branded Food Products Database Release December 2017 Software v.3.8.6.4 2017-10-02
Report Run at: December 17, 2017 08:39 EST
"Nutrient data for: 45035680, FISHPEOPLE, ALBACORE TUNA IN YELLOW COCONUT CURRY, MEDIUM SPICE, UPC: 853197004012"
Food Group:  Branded Food Products Database
Common Name:

Nutrient,Unit,Data points,Std. Error,"1 POUCH = 200.0g",1Value per 100 g,
Proximates
"Energy",kcal,--,--,250,125
"Protein",g,--,--,16.00,8.00
"Total lipid (fat)",g,--,--,14.00,7.00
"Carbohydrate, by difference",g,--,--,12.00,6.00
"Fiber, total dietary",g,--,--,1.0,0.5
"Sugars, total",g,--,--,6.00,3.00
Minerals
"Calcium, Ca",mg,--,--,20,10
"Iron, Fe",mg,--,--,0.46,0.23
"Sodium, Na",mg,--,--,550,275
Vitamins
"Vitamin C, total ascorbic acid",mg,--,--,0.0,0.0
"Vitamin A, IU",IU,--,--,42,21
Lipids
"Fatty acids, total saturated",g,--,--,9.000,4.500
"Fatty acids, total trans",g,--,--,0.000,0.000
"Cholesterol",mg,--,--,24,12
Amino Acids
Other
Ingredients
"WATER, ALBACORE TUNA, COCONUT MILK, BUITTERNUT SQUASH, ONIONS, CARROTS, CONTAINS 2% LESS OF LEMONGRASS PUREE, BROWN SUGAR, ANCHOW SAUCE, CORN STARCH, GINGER, TURMERIC, SPICES, CHILI PEPPER, MUSTARD SEES, GARLIC, GREEN ONIONS, CANOLA OIL, SEA SALT, LIME JUICE CONCENTRATE, XANTHAN GUM, CITRIC ACID, SOY LECITHIN." Date available: 06/24/2017 Date last updated by company: 06/24/2017
