Source: USDA Branded Food Products Database Release December 2017 Software v.3.8.6.4 2017-10-02
Report Run at: December 17, 2017 08:37 EST
"Nutrient data for: 45181470, FISHERMAN'S WHARF, COHO SALMON FILLETS, UPC: 02114002501"
Food Group:  Branded Food Products Database
Common Name:

Nutrient,Unit,Data points,Std. Error,"4.0 ONZ = 113.0g",1Value per 100 g,
Proximates
"Energy",kcal,--,--,200,177
"Protein",g,--,--,20.00,17.70
"Total lipid (fat)",g,--,--,12.99,11.50
"Carbohydrate, by difference",g,--,--,0.00,0.00
"Fiber, total dietary",g,--,--,0.0,0.0
"Sugars, total",g,--,--,0.00,0.00
Minerals
"Calcium, Ca",mg,--,--,0,0
"Iron, Fe",mg,--,--,0.54,0.48
"Sodium, Na",mg,--,--,35,31
Vitamins
"Vitamin C, total ascorbic acid",mg,--,--,0.0,0.0
"Vitamin A, IU",IU,--,--,75,66
Lipids
"Fatty acids, total saturated",g,--,--,2.000,1.770
"Fatty acids, total trans",g,--,--,0.000,0.000
"Cholesterol",mg,--,--,40,35
Amino Acids
Other
Ingredients
"SALMON FILLETS, COLOR ADDED." Date available: 07/14/2017 Date last updated by company: 07/14/2017
