Source: USDA Branded Food Products Database Release December 2017 Software v.3.8.6.4 2017-10-02
Report Run at: December 17, 2017 08:36 EST
"Nutrient data for: 45223278, FISHER, HONEY ROASTED PEANUTS, UPC: 070690699556"
Food Group:  Branded Food Products Database
Common Name:

Nutrient,Unit,Data points,Std. Error,"100.0 GRM = 100.0g",1Value per 100 g,
Proximates
"Energy",kcal,--,--,597,597
"Protein",g,--,--,21.10,21.10
"Total lipid (fat)",g,--,--,48.60,48.60
"Carbohydrate, by difference",g,--,--,20.10,20.10
"Fiber, total dietary",g,--,--,5.3,5.3
"Sugars, total",g,--,--,16.00,16.00
Minerals
"Sodium, Na",mg,--,--,393,393
Vitamins
Lipids
"Fatty acids, total saturated",g,--,--,9.100,9.100
Amino Acids
Other
Ingredients
"PEANUTS, SUGAR, HONEY, VEGETABLE OIL (PEANUT AND/OR SUNFLOWER SEED), SALT, POTATO STARCH, MALTODEXTRIN, XANTHAN GUM (E415)." Date available: 08/31/2017 Date last updated by company: 08/31/2017
