Source: USDA Branded Food Products Database Release December 2017 Software v.3.8.6.4 2017-10-02
Report Run at: December 17, 2017 08:37 EST
"Nutrient data for: 45093066, FISHER, SCONE MIX, BLUEBERRY, UPC: 054467000530"
Food Group:  Branded Food Products Database
Common Name:

Nutrient,Unit,Data points,Std. Error,"0.333 CUP MIX = 43.0g",1Value per 100 g,
Proximates
"Energy",kcal,--,--,150,349
"Protein",g,--,--,4.00,9.30
"Total lipid (fat)",g,--,--,1.50,3.49
"Carbohydrate, by difference",g,--,--,30.00,69.77
"Fiber, total dietary",g,--,--,1.0,2.3
"Sugars, total",g,--,--,7.00,16.28
Minerals
"Calcium, Ca",mg,--,--,200,465
"Iron, Fe",mg,--,--,2.09,4.87
"Sodium, Na",mg,--,--,420,977
Vitamins
"Vitamin C, total ascorbic acid",mg,--,--,0.0,0.0
"Vitamin A, IU",IU,--,--,0,0
Lipids
"Fatty acids, total saturated",g,--,--,0.000,0.000
"Fatty acids, total trans",g,--,--,0.000,0.000
"Cholesterol",mg,--,--,0,0
Amino Acids
Other
Ingredients
"ENRICHED UNBLEACHED FLOUR (WHEAT FLOUR, NIACIN, REDUCED IRON, THIAMIN MONONITRATE, RIBOFLAVIN, FOLIC ACID, MAY CONTAIN MALTED BARLEY FLOUR), SUGAR, DRIED BLUEBERRIES (BLUEBERRIES, SUGAR, SUNFLOWER OIL), LEAVENING (CALCIUM ACID PYROPHOSPHATE, MONOCALCIUM PHOSPATE, SODIUM BICARBONATE), CANOLA OR SOYBEAN OIL, SALT, NATURAL FLAVOR (CONTAINS MILK DERIVATIVES), CITRIC ACID." Date available: 06/25/2017 Date last updated by company: 06/25/2017
