Source: USDA Branded Food Products Database Release December 2017 Software v.3.8.6.4 2017-10-02
Report Run at: December 17, 2017 08:39 EST
"Nutrient data for: 45275103, FISH SEASONING, UPC: 048817001476"
Food Group:  Branded Food Products Database
Common Name:

Nutrient,Unit,Data points,Std. Error,"1 tsp = 5.0g",1Value per 100 g,
Proximates
"Energy",kcal,--,--,5,100
"Total lipid (fat)",g,--,--,1.00,20.00
"Carbohydrate, by difference",g,--,--,1.00,20.00
"Fiber, total dietary",g,--,--,1.0,20.0
"Sugars, total",g,--,--,1.00,20.00
Minerals
"Calcium, Ca",mg,--,--,10,200
"Iron, Fe",mg,--,--,0.00,0.00
"Sodium, Na",mg,--,--,1431,28620
Vitamins
"Vitamin C, total ascorbic acid",mg,--,--,0.0,0.0
"Vitamin A, IU",IU,--,--,1000,20000
Lipids
"Fatty acids, total saturated",g,--,--,0.000,0.000
"Fatty acids, total trans",g,--,--,0.000,0.000
"Cholesterol",mg,--,--,0,0
Amino Acids
Other
Ingredients
"SALT, E621 (FLAVOUR ENHANCES), CHILIES, CELERY POWDER, GARLIC POWDER, HERBS, ONION POWDER, BLACK PEPPER, TRICALCIUM PHOSPHATE (ANTI-CAKING AGENT)" Date available: 07/14/2017 Date last updated by company: 07/14/2017
