Source: USDA Branded Food Products Database Release December 2017 Software v.3.8.6.4 2017-10-02
Report Run at: December 17, 2017 08:39 EST
"Nutrient data for: 45121888, FISH SANDWICH FILLETS, UPC: 011162112319"
Food Group:  Branded Food Products Database
Common Name:

Nutrient,Unit,Data points,Std. Error,"1 FILLET = 85.0g",1Value per 100 g,
Proximates
"Energy",kcal,--,--,180,212
"Protein",g,--,--,7.00,8.24
"Total lipid (fat)",g,--,--,9.00,10.59
"Carbohydrate, by difference",g,--,--,18.00,21.18
"Fiber, total dietary",g,--,--,1.0,1.2
"Sugars, total",g,--,--,1.00,1.18
Minerals
"Calcium, Ca",mg,--,--,0,0
"Iron, Fe",mg,--,--,0.36,0.42
"Sodium, Na",mg,--,--,380,447
Vitamins
"Vitamin C, total ascorbic acid",mg,--,--,0.0,0.0
"Vitamin A, IU",IU,--,--,0,0
Lipids
"Fatty acids, total saturated",g,--,--,2.499,2.940
"Fatty acids, total monounsaturated",g,--,--,1.496,1.760
"Fatty acids, total polyunsaturated",g,--,--,4.497,5.290
"Fatty acids, total trans",g,--,--,0.000,0.000
"Cholesterol",mg,--,--,20,24
Amino Acids
Other
Ingredients
"POLLOCK (FISH, SODIUM TRIPOLYPHOSPHATE TO RETAIN FISH MOISTURE), BREAD CRUMBS (UNBLEACHED WHEAT FLOUR, SUGAR, SALT AND YEAST), WATER, COTTONSEED OIL AND/OR SOYBEAN OIL, WHEAT FLOUR. CONTAINS 2% OR LESS OF: ENRICHED WHEAT FLOUR (WHEAT FLOUR [ENRICHED WITH NIACIN, FERROUS SULFATE, THIAMINE MONONITRATE, RIBOFLAVIN, FOLIC ACID], SALT, SOYBEAN OIL), MODIFIED FOOD STARCH, SALT, SUGAR, LEAVENING (SODIUM ACID PYROPHOSPHATE, SODIUM BICARBONATE, MONOCALCIUM PHOSPHATE), DEXTROSE, GARLIC POWDER, ONION POWDER, NATURAL FLAVORS, PAPRIKA." Date available: 07/14/2017 Date last updated by company: 07/14/2017
