Source: USDA Branded Food Products Database Release December 2017 Software v.3.8.6.4 2017-10-02
Report Run at: December 17, 2017 08:42 EST
"Nutrient data for: 45291216, FIT FROZEN DESSERTS, UPC: 852244003596"
Food Group:  Branded Food Products Database
Common Name:

Nutrient,Unit,Data points,Std. Error,"1 BAR = 59.0g",1Value per 100 g,
Proximates
"Energy",kcal,--,--,80,136
"Protein",g,--,--,3.00,5.08
"Total lipid (fat)",g,--,--,5.00,8.47
"Carbohydrate, by difference",g,--,--,7.00,11.86
"Fiber, total dietary",g,--,--,2.0,3.4
"Sugars, total",g,--,--,5.00,8.47
Minerals
"Calcium, Ca",mg,--,--,20,34
"Iron, Fe",mg,--,--,0.00,0.00
"Magnesium, Mg",mg,--,--,0,0
"Phosphorus, P",mg,--,--,20,34
"Potassium, K",mg,--,--,20,34
"Sodium, Na",mg,--,--,60,102
Vitamins
"Vitamin C, total ascorbic acid",mg,--,--,0.0,0.0
"Vitamin A, IU",IU,--,--,0,0
Lipids
"Fatty acids, total saturated",g,--,--,4.000,6.780
"Fatty acids, total trans",g,--,--,0.000,0.000
"Cholesterol",mg,--,--,5,8
Amino Acids
Other
Ingredients
"PURIFIED WATER, WHEY PROTEIN CONCENTRATE (MILK), ORGANIC CANE SUGAR, CHICORY ROOT, SUGAR-CANE FIBER, GUAR GUM, XANTHAN GUM, NATURAL FLAVORS, ANNATTO, SEA SALT, MONK FRUIT CONCENTRATE. RED VELVET COATING: COCONUT OIL, SUGAR, BEET JUICE, COCOA POWDER PROCESSED WITH ALKALI, SUNFLOWER LECITHIN, SALT, PAPRIKA EXTRACT, NATURAL FLAVORS." Date available: 07/14/2017 Date last updated by company: 07/14/2017
