Source: USDA Branded Food Products Database Release December 2017 Software v.3.8.6.4 2017-10-02
Report Run at: December 17, 2017 08:41 EST
"Nutrient data for: 45241973, FIT&ACTIVE, LIQUID WATER ENHANCER, ORANGE TANGERINE, UPC: 041498211585"
Food Group:  Branded Food Products Database
Common Name:

Nutrient,Unit,Data points,Std. Error,"0.5 tsp = 2.0g",1Value per 100 g,
Proximates
"Energy",kcal,--,--,0,0
"Protein",g,--,--,0.00,0.00
"Total lipid (fat)",g,--,--,0.00,0.00
"Carbohydrate, by difference",g,--,--,0.00,0.00
"Sugars, total",g,--,--,0.00,0.00
Minerals
"Sodium, Na",mg,--,--,30,1500
Vitamins
Lipids
Amino Acids
Other
Ingredients
"WATER, CITRIC ACID, SODIUM CITRATE, SUCRALOSE (SWEETENER), NATURAL FLAVOR, GUM ARABIC, CONTAINS LESS THAN 2% OF: CALCIUM LACTATE GLUCONATE, GLYCERIN, ACSULFAME POTASSIUM (SWEETENER), POTASSIUM CITRATE, NACINAMDE, BETA-CAROTENE (FOR COLOR), SODIUM ACETATE ISOBUTYRATE, CORN OIL, SUNFLOWER OIL, PATASSIUM SORBATE, SODIUM BENZOATE, MEDIUM-CHAIN TRIGLYCERIDES, ASCORBIC AND (VITAMIN C), VITAMIN B6, ESTER GUM, VITAMIN B12." Date available: 08/11/2017 Date last updated by company: 08/11/2017
