Source: USDA Branded Food Products Database Release December 2017 Software v.3.8.6.4 2017-10-02
Report Run at: December 17, 2017 08:43 EST
"Nutrient data for: 45197222, FIVE CHEESE TORTELLONI, UPC: 046567025667"
Food Group:  Branded Food Products Database
Common Name:

Nutrient,Unit,Data points,Std. Error,"1 cup = 100.0g",1Value per 100 g,
Proximates
"Energy",kcal,--,--,290,290
"Protein",g,--,--,14.00,14.00
"Total lipid (fat)",g,--,--,8.00,8.00
"Carbohydrate, by difference",g,--,--,38.00,38.00
"Fiber, total dietary",g,--,--,2.0,2.0
"Sugars, total",g,--,--,2.00,2.00
Minerals
"Calcium, Ca",mg,--,--,250,250
"Iron, Fe",mg,--,--,2.52,2.52
"Sodium, Na",mg,--,--,290,290
Vitamins
"Vitamin C, total ascorbic acid",mg,--,--,0.0,0.0
"Vitamin A, IU",IU,--,--,280,280
Lipids
"Fatty acids, total saturated",g,--,--,4.000,4.000
"Fatty acids, total trans",g,--,--,0.000,0.000
"Cholesterol",mg,--,--,60,60
Amino Acids
Other
Ingredients
"FILLING INGREDIENTS: AGED IMPORTED ROMANO CHEESE (SHEEP'S MILK, CHEESE CULTURE, SALT, ENZYMES), RICOTTA CHEESE (MILK, CREAM, DAIRY SOLIDS, VINEGAR, SALT), PANKO (WHEAT FLOUR, ORGANIC CANE SYRUP, SEA SALT, YEAST), WATER, AGED IMPORTED PARMESAN CHEESE (PASTEURIZED COW'S MILK, CHEESE CULTURE, SALT, ENZYMES), AGED ASIAGO CHEESE (PASTEURIZED COW'S MILK, CHEESE CULTURE, SALT, ENZYMES), FONTINA CHEESE (PASTEURIZED COW'S MILK, CHEESE CULTURE, SALT, ENZYMES), CANOLA OIL, ONION POWDER, SALT, GRANULATED GARLIC, SPICES. DOUGH INGREDIENTS: EXTRA FANCY DURUM FLOUR, EGG, WATER, VITAL WHEAT GLUTEN." Date available: 07/14/2017 Date last updated by company: 07/14/2017
