Source: USDA Branded Food Products Database Release December 2017 Software v.3.8.6.4 2017-10-02
Report Run at: December 17, 2017 08:43 EST
"Nutrient data for: 45109371, FIVE CHEESE ZITI, UPC: 717854151146"
Food Group:  Branded Food Products Database
Common Name:

Nutrient,Unit,Data points,Std. Error,"1 PACKAGE = 241.0g",1Value per 100 g,
Proximates
"Energy",kcal,--,--,260,108
"Protein",g,--,--,10.00,4.15
"Total lipid (fat)",g,--,--,6.99,2.90
"Carbohydrate, by difference",g,--,--,40.99,17.01
"Fiber, total dietary",g,--,--,2.9,1.2
"Sugars, total",g,--,--,4.00,1.66
Minerals
"Calcium, Ca",mg,--,--,149,62
"Iron, Fe",mg,--,--,1.45,0.60
"Sodium, Na",mg,--,--,660,274
Vitamins
"Vitamin C, total ascorbic acid",mg,--,--,7.2,3.0
"Vitamin A, IU",IU,--,--,405,168
Lipids
"Fatty acids, total saturated",g,--,--,2.506,1.040
"Fatty acids, total trans",g,--,--,0.000,0.000
"Cholesterol",mg,--,--,10,4
Amino Acids
Other
Ingredients
"COOKED ENRICHED MACARONI PRODUCT (WATER, DURUM SEMOLINA [ENRICHED WITH NIACIN, FERROUS SULFATE, THIAMINE MONONITRATE, RIBOFLAVIN, FOLIC ACID]), WATER, DICED TOMATOES (TOMATOES, TOMATO JUICE, CITRIC ACID, CALCIUM CHLORIDE), TOMATO PASTE, LOW MOISTURE PART SKIM MOZZARELLA CHEESE (CHEESE [CULTURED PASTEURIZED PART SKIM MILK, SALT, ENZYMES], MODIFIED FOOD STARCH), ONIONS, LESS THAN 2% OF PARMESAN CHEESE (PASTEURIZED PART-SKIM MILK, CHEESE CULTURES, SALT, ENZYMES), MARGARINE (LIQUID AND HYDROGENATED SOYBEAN OIL, WATER, SALT, LESS THAN 2% VEGETABLE MONO AND DIGLYCERIDES, SOY LECITHIN, NATURAL AND ARTIFICIAL FLAVOR, BHA & BHT ADDED TO PROTECT FLAVOR, VITAMIN A PALMITATE AND VITAMIN D3 ADDED), SALT, ASIAGO CHEESE (PASTEURIZED MILK, CHEESE CULTURE, SALT, ENZYMES), CHEDDAR CHEESE (PASTEURIZED MILK, CULTURES, SALT, ENZYMES, ANNATTO [COLOR]), ROMANO CHEESE (PASTEURIZED PART SKIM COW'S MILK, CHEESE CULTURE, SALT, ENZYMES), MODIFIED FOOD STARCH, CANOLA OIL, SPICES, CELLULOSE, GRANULATED GARLIC, XANTHAN GUM." Date available: 07/14/2017 Date last updated by company: 07/14/2017
