Source: USDA Branded Food Products Database Release December 2017 Software v.3.8.6.4 2017-10-02
Report Run at: December 17, 2017 08:43 EST
"Nutrient data for: 45190127, FIVE CHEESE RAVIOLI, UPC: 021130109401"
Food Group:  Branded Food Products Database
Common Name:

Nutrient,Unit,Data points,Std. Error,"9.0 PIECES = 145.0g",1Value per 100 g,
Proximates
"Energy",kcal,--,--,290,200
"Protein",g,--,--,14.01,9.66
"Total lipid (fat)",g,--,--,8.00,5.52
"Carbohydrate, by difference",g,--,--,39.01,26.90
"Fiber, total dietary",g,--,--,2.0,1.4
"Sugars, total",g,--,--,3.00,2.07
Minerals
"Calcium, Ca",mg,--,--,200,138
"Iron, Fe",mg,--,--,1.74,1.20
"Sodium, Na",mg,--,--,331,228
Vitamins
"Vitamin C, total ascorbic acid",mg,--,--,1.2,0.8
"Vitamin A, IU",IU,--,--,386,266
Lipids
"Fatty acids, total saturated",g,--,--,5.003,3.450
"Fatty acids, total trans",g,--,--,0.000,0.000
"Cholesterol",mg,--,--,59,41
Amino Acids
Other
Ingredients
"ENRICHED DURUM FLOUR (DURUM FLOUR, NIACIN, FERROUS SULFATE, THIAMIN MONONITRATE [VITAMIN B1], RIBOFLAVIN [VITAMIN B2], FOLIC ACID), WATER, RICOTTA CHEESE (WHEY, MILK, VINEGAR, CARRAGEENAN), EGG, ASIAGO CHEESE (CULTURED MILK, SALT, ENZYMES), PARMESAN CHEESE (MILK, CHEESE CULTURES, SALT, ENZYMES), LOW MOISTURE PART SKIM MOZZARELLA CHEESE (CULTURED PART SKIM MILK, SALT, ENZYMES), BLEACHED WHEAT FLOUR, IMPORTED ROMANO CHEESE MADE FROM SHEEP'S MILK (SHEEP'S MILK, CHEESE CULTURES, SALT, ENZYMES), SALT, SPICE, DEHYDRATED PARSLEY FLAKES." Date available: 07/14/2017 Date last updated by company: 07/14/2017
