Source: USDA Branded Food Products Database Release December 2017 Software v.3.8.6.4 2017-10-02
Report Run at: December 17, 2017 08:46 EST
"Nutrient data for: 45060213, FLAKY PIE CRUST MIX, UPC: 041497344109"
Food Group:  Branded Food Products Database
Common Name:

Nutrient,Unit,Data points,Std. Error,"0.062 OF PACKAGE, (ABOUT 2 TABLESPOONS DRY MIX), 1/8 OF 9"""" CRUST PREPARED = 16.0g",1Value per 100 g,
Proximates
"Energy",kcal,--,--,90,562
"Protein",g,--,--,1.00,6.25
"Total lipid (fat)",g,--,--,6.00,37.50
"Carbohydrate, by difference",g,--,--,8.00,50.00
"Fiber, total dietary",g,--,--,0.0,0.0
"Sugars, total",g,--,--,0.00,0.00
Minerals
"Calcium, Ca",mg,--,--,0,0
"Iron, Fe",mg,--,--,1.12,7.03
"Sodium, Na",mg,--,--,135,844
Vitamins
"Vitamin C, total ascorbic acid",mg,--,--,0.0,0.0
"Vitamin A, IU",IU,--,--,0,0
Lipids
"Fatty acids, total saturated",g,--,--,1.501,9.380
"Fatty acids, total trans",g,--,--,1.501,9.380
"Cholesterol",mg,--,--,0,0
Amino Acids
Other
Ingredients
"ENRICHED FLOUR (WHEAT FLOUR, NIACIN, IRON, THIAMINE MONONITRATE, RIBOFLAVIN, FOLIC ACID), PARTIALLY HYDROGENATED VEGETABLE SHORTENING (CONTAINS SOYBEAN OIL), SALT, LEAVENING (SODIUM ACID PYROPHOSPHATE, BAKING SODA)." Date available: 08/11/2017 Date last updated by company: 08/11/2017
