Source: USDA Branded Food Products Database Release December 2017 Software v.3.8.6.4 2017-10-02
Report Run at: December 17, 2017 08:47 EST
"Nutrient data for: 45159191, FLAMOUS, SPICY FALAFEL CHIP, UPC: 897463001657"
Food Group:  Branded Food Products Database
Common Name:

Nutrient,Unit,Data points,Std. Error,"10.0 CHIPS | ABOUT = 28.0g",1Value per 100 g,
Proximates
"Energy",kcal,--,--,130,464
"Protein",g,--,--,3.00,10.71
"Total lipid (fat)",g,--,--,7.00,25.00
"Carbohydrate, by difference",g,--,--,17.00,60.71
"Fiber, total dietary",g,--,--,3.0,10.7
"Sugars, total",g,--,--,0.00,0.00
Minerals
"Calcium, Ca",mg,--,--,50,179
"Iron, Fe",mg,--,--,5.14,18.37
"Sodium, Na",mg,--,--,98,350
Vitamins
"Vitamin C, total ascorbic acid",mg,--,--,1.1,3.8
"Vitamin A, IU",IU,--,--,90,320
Lipids
"Fatty acids, total saturated",g,--,--,0.501,1.790
"Fatty acids, total monounsaturated",g,--,--,4.500,16.070
"Fatty acids, total polyunsaturated",g,--,--,1.501,5.360
"Fatty acids, total trans",g,--,--,0.000,0.000
"Cholesterol",mg,--,--,0,0
Amino Acids
Other
Ingredients
"NON-GMO WHOLE CORN, ONE OR MORE OF THE FOLLOWING NON-GMO WHOLE BEANS (CHICKPEAS, FAVA BEANS, BLACK BEANS, PINTO BEANS), ONE OR MORE OF THE FOLLOWING OILS (MEDIUM-HIGH OLEIC EXPELLER PRESSED SAFFLOWER/SUNFLOWER), FLAMOUS 12-SPICE PROPRIETARY FALAFEL BLEND (INCLUDING TURMERIC), DEHYDRATED VEGETABLES (ONION, GARLIC, SPINACH, CARROT, RED BELL PEPPER, TOMATO, GREEN BELL PEPPER, CAYENNE CHILI AND SEA SALT." Date available: 07/14/2017 Date last updated by company: 07/14/2017
