Source: USDA Branded Food Products Database Release December 2017 Software v.3.8.6.4 2017-10-02
Report Run at: December 17, 2017 08:47 EST
"Nutrient data for: 45333721, FLAME-BROILED CHEESE BURGERS, UPC: 078742248530"
Food Group:  Branded Food Products Database
Common Name:

Nutrient,Unit,Data points,Std. Error,"1 SANDWICH = 148.0g",1Value per 100 g,
Proximates
"Energy",kcal,--,--,460,311
"Protein",g,--,--,17.01,11.49
"Total lipid (fat)",g,--,--,25.00,16.89
"Carbohydrate, by difference",g,--,--,44.00,29.73
"Fiber, total dietary",g,--,--,2.1,1.4
"Sugars, total",g,--,--,7.00,4.73
Minerals
"Calcium, Ca",mg,--,--,101,68
"Iron, Fe",mg,--,--,2.07,1.40
"Potassium, K",mg,--,--,269,182
"Sodium, Na",mg,--,--,519,351
Vitamins
"Vitamin C, total ascorbic acid",mg,--,--,1.3,0.9
"Vitamin A, IU",IU,--,--,58,39
Lipids
"Fatty acids, total saturated",g,--,--,8.998,6.080
"Fatty acids, total monounsaturated",g,--,--,8.998,6.080
"Fatty acids, total polyunsaturated",g,--,--,4.499,3.040
"Fatty acids, total trans",g,--,--,1.006,0.680
"Cholesterol",mg,--,--,50,34
Amino Acids
Other
Ingredients
"SESAME SEED BUN: ENRICHED BLEACHED WHEAT FLOUR (WHEAT FLOUR, NIACIN, REDUCED IRON, THIAMINE MONONITRATE, RIBOFLAVIN, ENZYME, FOLIC ACID), WATER, SUGAR, SOYBEAN OIL, CONTAINS 2% OR LESS OF: SESAME SEEDS, YEAST (YEAST, SORBITAN MONOSTEARATE, ASCORBIC ACID), SALT, MONOGLYCERIDES WITH ASCORBIC ACID AND CITRIC ACID (ANTIOXIDANTS), CALCIUM PROPIONATE (PRESERVATIVE), CALCIUM SULFATE, WHEAT STARCH, ASCORBIC ACID, ENZYMES. FULLY COOKED FLAME-BROILED CHOPPED BEEF STEAK SMOKE FLAVOR ADDED: BEEF, ENCAPSULATED SALT, POTASSIUM PHOSPHATE, TAPIOCA DEXTRIN, GRILL FLAVOR (FROM SUNFLOWER OIL), POTATO MALTODEXTRIN, SMOKE FLAVOR, SALT, SPICE. PASTEURIZED PROCESS AMERICAN CHEESE: CHEDDAR CHEESE (PASTEURIZED MILK, CHEESE CULTURE, SALT, ENZYMES), MILKFAT, WATER, SODIUM CITRATE, SALT, SODIUM PHOSPHATE, SORBIC ACID (PRESERVATIVE), PAPRIKA & ANNATTO COLOR, SOY LECITHIN (NON-STICKING AGENT)." Date available: 10/19/2017 Date last updated by company: 10/19/2017
