Source: USDA Branded Food Products Database Release December 2017 Software v.3.8.6.4 2017-10-02
Report Run at: December 17, 2017 08:47 EST
"Nutrient data for: 45097911, FLAMINGO, COOKED PORK MEATBALLS, UPC: 088775169108"
Food Group:  Branded Food Products Database
Common Name:

Nutrient,Unit,Data points,Std. Error,"3.0 oz = 85.0g",1Value per 100 g,
Proximates
"Energy",kcal,--,--,120,141
"Protein",g,--,--,12.00,14.12
"Total lipid (fat)",g,--,--,6.00,7.06
"Carbohydrate, by difference",g,--,--,5.00,5.88
"Fiber, total dietary",g,--,--,0.0,0.0
"Sugars, total",g,--,--,0.00,0.00
Minerals
"Calcium, Ca",mg,--,--,0,0
"Iron, Fe",mg,--,--,2.70,3.18
"Sodium, Na",mg,--,--,40,47
Vitamins
"Vitamin C, total ascorbic acid",mg,--,--,0.0,0.0
"Vitamin A, IU",IU,--,--,0,0
Lipids
"Fatty acids, total saturated",g,--,--,3.00,3.53
"Fatty acids, total trans",g,--,--,0.00,0.00
"Cholesterol",mg,--,--,39,46
Amino Acids
Other
Ingredients
"BEEF MODIFIED TAPIOCA STARCH, WATER, SALT, MONOSODIUM GLUTAMATE, SUGAR, CORN STARCH, POTATO STARCH, SODIUM TRIPOLYPHOSPHATE, GARLIC, PEPPER, BAKING POWDER, SODIUM BICARBONATE" Date last updated by company: 04/20/2016
