Source: USDA Branded Food Products Database Release December 2017 Software v.3.8.6.4 2017-10-02
Report Run at: December 17, 2017 08:47 EST
"Nutrient data for: 45015004, FLANDERS HOMESTYLE PATTIES, BEEF PATTIES WITH REAL ONION & SEASONING, VIDALIA ONION, UPC: 020323003625"
Food Group:  Branded Food Products Database
Common Name:

Nutrient,Unit,Data points,Std. Error,"1 PATTY = 114.0g",1Value per 100 g,
Proximates
"Energy",kcal,--,--,290,254
"Protein",g,--,--,15.00,13.16
"Total lipid (fat)",g,--,--,23.01,20.18
"Carbohydrate, by difference",g,--,--,7.00,6.14
"Fiber, total dietary",g,--,--,3.0,2.6
"Sugars, total",g,--,--,3.00,2.63
Minerals
"Calcium, Ca",mg,--,--,60,53
"Iron, Fe",mg,--,--,2.02,1.77
"Sodium, Na",mg,--,--,830,728
Vitamins
"Vitamin C, total ascorbic acid",mg,--,--,0.9,0.8
"Vitamin A, IU",IU,--,--,74,65
Lipids
"Fatty acids, total saturated",g,--,--,8.995,7.890
"Fatty acids, total trans",g,--,--,0.502,0.440
"Cholesterol",mg,--,--,50,44
Amino Acids
Other
Ingredients
"BEEF, WATER, BEEF HEARTS, TEXTURED SOY FLOUR, VIDALIA ONION, SEASONING (SALT, SPICS, DEXTROSE, ONION POWDER, SPICE EXTRACTIVES), SALT." Date available: 06/25/2017 Date last updated by company: 06/25/2017
