Source: USDA Branded Food Products Database Release December 2017 Software v.3.8.6.4 2017-10-02
Report Run at: December 17, 2017 08:48 EST
"Nutrient data for: 45093159, FLAP JACKED, HIGH-FIBER MIGHTY MUFFIN, UPC: 850171005195"
Food Group:  Branded Food Products Database
Common Name:

Nutrient,Unit,Data points,Std. Error,"1 CONTAINER = 55.0g",1Value per 100 g,
Proximates
"Energy",kcal,--,--,210,382
"Protein",g,--,--,20.00,36.36
"Total lipid (fat)",g,--,--,6.00,10.91
"Carbohydrate, by difference",g,--,--,24.00,43.64
"Fiber, total dietary",g,--,--,5.0,9.1
"Sugars, total",g,--,--,10.00,18.18
Minerals
"Calcium, Ca",mg,--,--,100,182
"Iron, Fe",mg,--,--,1.08,1.96
"Sodium, Na",mg,--,--,350,636
Vitamins
"Vitamin C, total ascorbic acid",mg,--,--,0.0,0.0
"Vitamin A, IU",IU,--,--,0,0
Lipids
"Fatty acids, total saturated",g,--,--,2.502,4.550
"Fatty acids, total trans",g,--,--,0.000,0.000
"Cholesterol",mg,--,--,5,9
Amino Acids
Other
Ingredients
"GLUTEN-FREE OAT FLOUR, WHEY PROTEIN ISOLATE (WHEY PROTEIN ISOLATE [MILK], SOY LECITHIN), PEA PROTEIN, MILK CHOCOLATE (SUGAR, WHOLE MILK POWDER, CHOCOLATE LIQUOR, COCOA BUTTER, MILK FAT, SOY LECITHIN AND NATURAL VANILLA FLAVOR), MARSHMALLOW DROPS (SUGAR, NON-GMO CORN FLOUR NATURAL FLAVOR, TITANIUM DIOXIDE), BUTTERMILK, BUTTER (BUTTER [CREAM SALT], DRY BUTTER MILK), DEXTRIN, NATURAL FLAVOR, MOLASSES, COCOA POWDER, BAKING SODA, BAKING POWDER (MONOCALCIUM PHOSPHATE, SODIUM BICARBONATE, NON-GMO CORN STARCH), XANTHAN GUM, SEA SALT, MONK FRUIT, PROBIOTIC (SKIM MILK POWDER, BACILLUS COAGULANS)." Date available: 06/25/2017 Date last updated by company: 06/25/2017
