Source: USDA Branded Food Products Database Release December 2017 Software v.3.8.6.4 2017-10-02
Report Run at: December 17, 2017 08:48 EST
"Nutrient data for: 45194951, FLATBREAD BREAKFAST SANDWICHES, UPC: 036800415492"
Food Group:  Branded Food Products Database
Common Name:

Nutrient,Unit,Data points,Std. Error,"1 SANDWISH = 111.0g",1Value per 100 g,
Proximates
"Energy",kcal,--,--,220,198
"Protein",g,--,--,13.00,11.71
"Total lipid (fat)",g,--,--,12.00,10.81
"Carbohydrate, by difference",g,--,--,19.00,17.12
"Fiber, total dietary",g,--,--,4.0,3.6
"Sugars, total",g,--,--,3.00,2.70
Minerals
"Calcium, Ca",mg,--,--,200,180
"Iron, Fe",mg,--,--,1.10,0.99
"Sodium, Na",mg,--,--,710,640
Vitamins
"Vitamin C, total ascorbic acid",mg,--,--,0.0,0.0
"Vitamin A, IU",IU,--,--,306,276
Lipids
"Fatty acids, total saturated",g,--,--,4.995,4.500
"Fatty acids, total trans",g,--,--,0.000,0.000
"Cholesterol",mg,--,--,155,140
Amino Acids
Other
Ingredients
"YELLOW EGG PATTY: WHOLE EGGS, WATER, WHOLE MILK POWDER, SOYBEAN OIL, XANTHAN GUM, CITRIC ACID. MULTIGRAIN FLATBREAD: WATER, WHOLE WHEAT FLOUR, ENRICHED WHEAT FLOUR (WHEAT FLOUR, MALTED BARLEY FLOUR, NIACIN, IRON, THIAMIN MONONITRATE, RIBOFLAVIN, FOLIC ACID) OAT FIBER, WHEAT GLUTEN, ROLLED OATS, SUGAR, YEAST, WHEAT BRAN, CONTAINS 2% OR LESS OF THE FOLLOWING: SOYBEAN OIL, CRACKED WHEAT, DOUGH CONDITIONERS (MONOGLYCERIDES, DATEM, ASCORBIC ACID), RYE CHOPS, POLYDEXTROSE, SALT, CALCIUM PROPIONATE (PRESERVATIVE), VINEGAR, XANTHAN GUM, MILLET, CALCIUM SULFATE, SORBIC ACID, STEVIA (REBAUDIOSIDE A). PEPPER JACK CHEESE: MILK, SKIM MILK, CHEESE CULTURE, WATER, JALAPENO PEPPERS, CREAM, SODIUM CITRATE, SALT, RED BELL PEPPERS, NATURAL FLAVOR, SORBIC ACID (PRESERVATIVE), LACTIC ACID, SOY LECITHIN (NON-STICKING AGENT), ENZYMES. HAM: CURED WITH WATER, DEXTROSE, SALT, CONTAINS 2% OR LESS OF: SODIUM LACTATE, SUGAR, SODIUM PHOSPHATE, SODIUM DIACETATE, SODIUM ERYTHORBATE, SODIUM NITRATE." Date available: 07/14/2017 Date last updated by company: 07/14/2017
