Source: USDA Branded Food Products Database Release December 2017 Software v.3.8.6.4 2017-10-02
Report Run at: December 17, 2017 08:50 EST
"Nutrient data for: 45242321, FLATBREADS, UPC: 099482436179"
Food Group:  Branded Food Products Database
Common Name:

Nutrient,Unit,Data points,Std. Error,"2.0 CRACKERS = 18.0g",1Value per 100 g,
Proximates
"Energy",kcal,--,--,70,389
"Protein",g,--,--,2.00,11.11
"Total lipid (fat)",g,--,--,1.50,8.33
"Carbohydrate, by difference",g,--,--,13.00,72.22
"Fiber, total dietary",g,--,--,1.0,5.6
"Sugars, total",g,--,--,0.00,0.00
Minerals
"Calcium, Ca",mg,--,--,20,111
"Iron, Fe",mg,--,--,2.20,12.22
"Potassium, K",mg,--,--,25,139
"Sodium, Na",mg,--,--,200,1111
Vitamins
"Vitamin C, total ascorbic acid",mg,--,--,0.0,0.0
"Vitamin A, IU",IU,--,--,0,0
Lipids
"Fatty acids, total saturated",g,--,--,0.000,0.000
"Fatty acids, total monounsaturated",g,--,--,1.001,5.560
"Fatty acids, total polyunsaturated",g,--,--,0.000,0.000
"Fatty acids, total trans",g,--,--,0.000,0.000
"Cholesterol",mg,--,--,0,0
Amino Acids
Other
Ingredients
"UNBLEACHED ENRICHED WHEAT FLOUR (WHEAT FLOUR, NIACIN, REDUCED IRON, THIAMINE MONONITRATE, RIBOFLAVIN, FOLIC ACID), WATER, WHOLE WHEAT FLOUR, EXPELLER PRESSED SAFFLOWER SEED OIL, CORNSTARCH, MODIFIED POTATO STARCH, GRAIN BLEND (WHOLE SORGHUM, WHOLE BROWN RICE, WHOLE YELLOW CORN, WHOLE AMARANTH, WHOLE QUINOA, WHOLE MILLET, WHOLE TEFF, CORNSTARCH, TAPIOCA FLOUR, RICE FLOUR), SALT, BROWN RICE SYRUP, BAKING POWDER (BAKING SODA, CORNSTARCH, SODIUM ACID PYROPHOSPHATE, CALCIUM SULFATE, MONOCALCIUM PHOSPHATE), DRIED YEAST, NATURAL BUTTER FLAVOR, SORBITAN MONOSTEARATE, ASCORBIC ACID (DOUGH CONDITIONER), VEGETABLE ENZYMES, CITRIC ACID." Date available: 07/14/2017 Date last updated by company: 07/14/2017
