Source: USDA Branded Food Products Database Release December 2017 Software v.3.8.6.4 2017-10-02
Report Run at: December 17, 2017 08:50 EST
"Nutrient data for: 45207746, FLAT BREAD, UPC: 041144808923"
Food Group:  Branded Food Products Database
Common Name:

Nutrient,Unit,Data points,Std. Error,"0.167 LOAF = 62.0g",1Value per 100 g,
Proximates
"Energy",kcal,--,--,150,242
"Protein",g,--,--,5.00,8.06
"Total lipid (fat)",g,--,--,3.50,5.65
"Carbohydrate, by difference",g,--,--,25.00,40.32
"Fiber, total dietary",g,--,--,1.0,1.6
"Sugars, total",g,--,--,0.00,0.00
Minerals
"Calcium, Ca",mg,--,--,40,65
"Iron, Fe",mg,--,--,1.16,1.87
"Sodium, Na",mg,--,--,480,774
Vitamins
"Vitamin C, total ascorbic acid",mg,--,--,2.9,4.7
"Vitamin A, IU",IU,--,--,0,0
Lipids
"Fatty acids, total saturated",g,--,--,1.500,2.420
"Fatty acids, total trans",g,--,--,0.000,0.000
"Cholesterol",mg,--,--,5,8
Amino Acids
Other
Ingredients
"ENRICHED FLOUR (WHEAT FLOUR, MALTED BARLEY FLOUR, NIACIN, REDUCED IRON, THIAMINE, RIBOFLAVIN, FOLIC ACID), WATER, MILK CHEDDAR CHEESE (CULTURED PASTEURIZED MILK, SALT, ENZYMES, ANNATTO EXTRACT COLOR), JALAPENOS, EXTRA VIRGIN OLIVE OIL, SALT, DISTILLED VINEGAR, DEHYDRATED WHEAT FLOUR, YEAST, NATURAL FLAVORS, ENZYMES." Date available: 10/13/2017 Date last updated by company: 10/13/2017
