Source: USDA Branded Food Products Database Release December 2017 Software v.3.8.6.4 2017-10-02
Report Run at: December 17, 2017 08:56 EST
"Nutrient data for: 45239939, FLAVORED REDUCED SUGAR JUICE COCKTAIL BLEND FROM CONCENTRATE, UPC: 075355112227"
Food Group:  Branded Food Products Database
Common Name:

Nutrient,Unit,Data points,Std. Error,"8.0 OZA = 240.0g",1Value per 100 g,
Proximates
"Energy",kcal,--,--,24,10
"Protein",g,--,--,0.00,0.00
"Total lipid (fat)",g,--,--,0.00,0.00
"Carbohydrate, by difference",g,--,--,4.99,2.08
"Sugars, total",g,--,--,4.99,2.08
Minerals
"Calcium, Ca",mg,--,--,0,0
"Iron, Fe",mg,--,--,0.00,0.00
"Potassium, K",mg,--,--,46,19
"Sodium, Na",mg,--,--,14,6
Vitamins
"Vitamin C, total ascorbic acid",mg,--,--,60.0,25.0
"Vitamin A, IU",IU,--,--,0,0
Lipids
"Cholesterol",mg,--,--,0,0
Amino Acids
Other
Ingredients
"FILTERED WATER, APPLE JUICE CONCENTRATE, ARONIA BERRY JUICE CONCENTRATE, MALIC ACID, CITRIC ACID, CHERRY JUICE CONCENTRATE, FUMARIC ACID, NATURAL FLAVORS, ASCORBIC ACID (VITAMIN C), ACESULFAME POTASSIUM, SUCRALOSE (SPLENDA BRAND)." Date available: 07/14/2017 Date last updated by company: 07/14/2017
