Source: USDA Branded Food Products Database Release December 2017 Software v.3.8.6.4 2017-10-02
Report Run at: December 17, 2017 08:54 EST
"Nutrient data for: 45214630, FLAVORED DRINK, UPC: 070543109225"
Food Group:  Branded Food Products Database
Common Name:

Nutrient,Unit,Data points,Std. Error,"8.0 OZA = 236.0g",1Value per 100 g,
Proximates
"Energy",kcal,--,--,111,47
"Protein",g,--,--,0.00,0.00
"Total lipid (fat)",g,--,--,0.00,0.00
"Carbohydrate, by difference",g,--,--,29.00,12.29
"Sugars, total",g,--,--,29.00,12.29
Minerals
"Calcium, Ca",mg,--,--,0,0
"Iron, Fe",mg,--,--,0.00,0.00
"Sodium, Na",mg,--,--,0,0
Vitamins
"Vitamin C, total ascorbic acid",mg,--,--,0.0,0.0
"Vitamin A, IU",IU,--,--,0,0
Lipids
Amino Acids
Other
Ingredients
"WATER, HIGH FRUCTOSE CORN SYRUP, CITRIC ACID, NATURAL AND ARTIFICIAL FLAVORS, SODIUM CITRATE, FD&C RED #40, GUM ARABIC, CARAMEL COLOR, SODIUM BENZOATE AND POTASSIUM SORBATE." Date available: 07/14/2017 Date last updated by company: 07/14/2017
