Source: USDA Branded Food Products Database Release December 2017 Software v.3.8.6.4 2017-10-02
Report Run at: December 17, 2017 08:52 EST
"Nutrient data for: 45101968, FLAVE!, SOUR POPPERS, UPC: 812438010670"
Food Group:  Branded Food Products Database
Common Name:

Nutrient,Unit,Data points,Std. Error,"14.0 PIECES = 40.0g",1Value per 100 g,
Proximates
"Energy",kcal,--,--,120,300
"Protein",g,--,--,0.00,0.00
"Total lipid (fat)",g,--,--,0.00,0.00
"Carbohydrate, by difference",g,--,--,30.00,75.00
"Sugars, total",g,--,--,20.00,50.00
Minerals
"Sodium, Na",mg,--,--,10,25
Vitamins
Lipids
Amino Acids
Other
Ingredients
"CORN SYRUP, SUGAR, GELATIN, LACTIC ACID, CITRIC ACID, SORBITOL, NATURAL AND ARTIFICIAL FLAVORS, FUMARIC ACID, TITANIUM DIOXIDE, YELLOW 5, YELLOW 6, BLUE 1, RED 40. THIS PRODUCT MAY HAVE COME IN CONTACT WITH DAIRY, SOY, WHEAT, PEANUTS AND TREE NUTS. NATURAL AND ARTIFICIAL FLAVORS." Date available: 06/25/2017 Date last updated by company: 06/25/2017
