Source: USDA Branded Food Products Database Release December 2017 Software v.3.8.6.4 2017-10-02
Report Run at: December 17, 2017 09:00 EST
"Nutrient data for: 45182832, FLAV-R-PAC, EDAMAME MEDLEY, UPC: 048800317331"
Food Group:  Branded Food Products Database
Common Name:

Nutrient,Unit,Data points,Std. Error,"2.5 | SERVING PER BAG ABOUT = 115.0g",1Value per 100 g,
Proximates
"Energy",kcal,--,--,190,165
"Protein",g,--,--,8.00,6.96
"Total lipid (fat)",g,--,--,11.99,10.43
"Carbohydrate, by difference",g,--,--,12.99,11.30
"Fiber, total dietary",g,--,--,7.0,6.1
"Sugars, total",g,--,--,4.00,3.48
Minerals
"Calcium, Ca",mg,--,--,40,35
"Iron, Fe",mg,--,--,1.38,1.20
"Sodium, Na",mg,--,--,260,226
Vitamins
"Vitamin C, total ascorbic acid",mg,--,--,8.6,7.5
"Vitamin A, IU",IU,--,--,718,624
Lipids
"Fatty acids, total saturated",g,--,--,2.001,1.740
"Fatty acids, total trans",g,--,--,0.000,0.000
"Cholesterol",mg,--,--,0,0
Amino Acids
Other
Ingredients
"EDAMAME (SOY BEANS), CORN, SAUCE (LIQUID AND HYDROGENATED SOYBEAN OIL, WATER, SUGAR, SALT, SPICE, VEGETABLE MONO AND DIGLYCERIDES, SOY LECITHIN, CITRIC ACID, NATURAL AND ARTIFICIAL FLAVOR, BETA CAROTENE (COLOR), VITAMIN A PALMITATE AND WHEY), PEPPERS." Date available: 10/16/2017 Date last updated by company: 10/16/2017
