Source: USDA Branded Food Products Database Release December 2017 Software v.3.8.6.4 2017-10-02
Report Run at: December 17, 2017 08:55 EST
"Nutrient data for: 45239415, FLAVORED JUICE DRINK, UPC: 067311966340"
Food Group:  Branded Food Products Database
Common Name:

Nutrient,Unit,Data points,Std. Error,"8.0 OZA = 240.0g",1Value per 100 g,
Proximates
"Energy",kcal,--,--,120,50
"Protein",g,--,--,0.00,0.00
"Total lipid (fat)",g,--,--,0.00,0.00
"Carbohydrate, by difference",g,--,--,30.00,12.50
"Sugars, total",g,--,--,30.00,12.50
Minerals
"Sodium, Na",mg,--,--,10,4
Vitamins
Lipids
Amino Acids
Other
Ingredients
"WATER, LIQUID INVERT SUGAR, CONCENTRATED (APPLE, GRAPE, PEAR, GUAVA) JUICES. CONTAINS 0.5% OR LESS OF; CITRIC ACID, NATURAL AND ARTIFICIAL GUAVA FLAVORS, MODIFIED CORN STARCH, COCONUT OIL, SUCROSE ACETATE ISOBUTYRATE, BROMINATED SOYBEAN OIL, CARAMEL COLOR, RED #40." Date available: 06/24/2017 Date last updated by company: 06/24/2017
