Source: USDA Branded Food Products Database Release December 2017 Software v.3.8.6.4 2017-10-02
Report Run at: December 17, 2017 08:59 EST
"Nutrient data for: 45330580, FLAVORED WATER BEVERAGE WITH JUICE, UPC: 851949004389"
Food Group:  Branded Food Products Database
Common Name:

Nutrient,Unit,Data points,Std. Error,"12.0 OZA = 355.0g",1Value per 100 g,
Proximates
"Energy",kcal,--,--,21,6
"Protein",g,--,--,0.00,0.00
"Total lipid (fat)",g,--,--,0.00,0.00
"Carbohydrate, by difference",g,--,--,9.02,2.54
"Fiber, total dietary",g,--,--,0.0,0.0
"Sugars, total",g,--,--,4.01,1.13
Minerals
"Calcium, Ca",mg,--,--,4,1
"Iron, Fe",mg,--,--,0.00,0.00
"Potassium, K",mg,--,--,39,11
"Sodium, Na",mg,--,--,14,4
Vitamins
"Vitamin C, total ascorbic acid",mg,--,--,13.1,3.7
Lipids
"Fatty acids, total saturated",g,--,--,0.000,0.000
"Fatty acids, total trans",g,--,--,0.000,0.000
"Cholesterol",mg,--,--,0,0
Amino Acids
Other
Ingredients
"FILTERED WATER, APPLE JUICE CONCENTRATE, ERYTHITOL, NATURAL FLAVORS, MALIC ACID, CITRIC ACID, SEA SALT, STEVIA LEAF EXTRACT, ASCORBIC ACID (VITAMIN C)." Date available: 10/13/2017 Date last updated by company: 10/13/2017
