Source: USDA Branded Food Products Database Release December 2017 Software v.3.8.6.4 2017-10-02
Report Run at: December 17, 2017 08:58 EST
"Nutrient data for: 45331059, FLAVORED TORTILLA CHIPS, UPC: 087848064289"
Food Group:  Branded Food Products Database
Common Name:

Nutrient,Unit,Data points,Std. Error,"1 BAG = 28.0g",1Value per 100 g,
Proximates
"Energy",kcal,--,--,140,500
"Protein",g,--,--,2.00,7.14
"Total lipid (fat)",g,--,--,6.00,21.43
"Carbohydrate, by difference",g,--,--,18.00,64.29
"Fiber, total dietary",g,--,--,1.0,3.6
"Sugars, total",g,--,--,1.00,3.57
Minerals
"Calcium, Ca",mg,--,--,20,71
"Iron, Fe",mg,--,--,0.64,2.29
"Sodium, Na",mg,--,--,210,750
Vitamins
"Vitamin C, total ascorbic acid",mg,--,--,0.0,0.0
"Vitamin A, IU",IU,--,--,0,0
Lipids
"Fatty acids, total saturated",g,--,--,1.000,3.570
"Fatty acids, total monounsaturated",g,--,--,1.501,5.360
"Fatty acids, total polyunsaturated",g,--,--,3.500,12.500
"Fatty acids, total trans",g,--,--,0.000,0.000
"Cholesterol",mg,--,--,0,0
Amino Acids
Other
Ingredients
"GROUND YELLOW CORN, VEGETABLE OIL (CONTAINS ONE OR MORE OF THE FOLLOWING: CORN, SUNFLOWER, SAFFLOWER, OR CANOLA OIL) MALTODEXTRIN, SALT, WHEY POWDER, WHEY, BUTTERMILK POWDER, NATURAL FLAVORING, MONOSODIUM GLUTAMUTE, ONION POWDER, TOMATO POWDER, CHEDDAR CHEESE (CULTURED MILK, SALT, ENZYMES), BUTTER (CREAM, SALT, AND ANNATTO), WHEY PROTEIN CONCENTRATE, SPICE, YELLOW 6 LAKE, SPICE AND COLORING (CONTAINS PAPRIKA), DISODIUM GUANYLATE, DISODIUM INOSINATE, POLYSORBATE 80, YELLOW 5 LAKE, YELLOW 6, AND YELLOW 5." Date available: 10/13/2017 Date last updated by company: 10/13/2017
