Source: USDA Branded Food Products Database Release December 2017 Software v.3.8.6.4 2017-10-02
Report Run at: December 17, 2017 08:52 EST
"Nutrient data for: 45101823, FLAVE!, FRUIT SALAD GUMBALLS, UPC: 812438010885"
Food Group:  Branded Food Products Database
Common Name:

Nutrient,Unit,Data points,Std. Error,"1 PIECES = 5.0g",1Value per 100 g,
Proximates
"Energy",kcal,--,--,15,300
"Protein",g,--,--,0.00,0.00
"Total lipid (fat)",g,--,--,0.00,0.00
"Carbohydrate, by difference",g,--,--,4.00,80.00
"Sugars, total",g,--,--,4.00,80.00
Minerals
"Sodium, Na",mg,--,--,5,100
Vitamins
Lipids
Amino Acids
Other
Ingredients
"SUGAR, CORN SYRUP, GUM BASE, ARTIFICIAL FLAVORS, MALIC ACID, GLYCERIN, BEESWAX, CARNAUBA WAX, PALM OIL, LECITHIN (SOY), TURMERIC, CARMINE, BLUE 1, PAPRIKE OLEORESIN." Date available: 06/25/2017 Date last updated by company: 06/25/2017
