Source: USDA Branded Food Products Database Release December 2017 Software v.3.8.6.4 2017-10-02
Report Run at: December 17, 2017 09:02 EST
"Nutrient data for: 45318515, FLEISCHMANN'S, SIMPLY HOMEMADE, NO-KNEAD BREAD MIX, UPC: 040100751365"
Food Group:  Branded Food Products Database
Common Name:

Nutrient,Unit,Data points,Std. Error,"0.167 LOAF OR 2 BREADSTICKS) | MIX (AMOUNT FOR = 66.0g",1Value per 100 g,
Proximates
"Energy",kcal,--,--,240,364
"Protein",g,--,--,7.00,10.61
"Total lipid (fat)",g,--,--,2.00,3.03
"Carbohydrate, by difference",g,--,--,48.00,72.73
"Fiber, total dietary",g,--,--,2.0,3.0
"Sugars, total",g,--,--,5.00,7.58
Minerals
"Calcium, Ca",mg,--,--,20,30
"Iron, Fe",mg,--,--,0.44,0.66
"Sodium, Na",mg,--,--,530,803
Vitamins
"Vitamin C, total ascorbic acid",mg,--,--,2.2,3.3
"Vitamin A, IU",IU,--,--,0,0
Lipids
"Fatty acids, total saturated",g,--,--,0.000,0.000
"Fatty acids, total trans",g,--,--,0.000,0.000
"Cholesterol",mg,--,--,0,0
Amino Acids
Other
Ingredients
"BREAD MIX: UNBLEACHED WHEAT FLOUR, SUGAR, SALT, SPICES. YEAST PACKET: YEAST, SORBITAN MONOSTEARATE (EMULSIFIER) ASCORBIC ACID (VITAMIN C)." Date available: 09/12/2017 Date last updated by company: 09/12/2017
