Source: USDA Branded Food Products Database Release December 2017 Software v.3.8.6.4 2017-10-02
Report Run at: December 17, 2017 09:03 EST
"Nutrient data for: 45159950, FLIPZ, WHITE FUDGE COVERED PRETZELS, UPC: 872181000885"
Food Group:  Branded Food Products Database
Common Name:

Nutrient,Unit,Data points,Std. Error,"7.0 PIECES = 28.0g",1Value per 100 g,
Proximates
"Energy",kcal,--,--,130,464
"Protein",g,--,--,2.00,7.14
"Total lipid (fat)",g,--,--,5.00,17.86
"Carbohydrate, by difference",g,--,--,20.00,71.43
"Fiber, total dietary",g,--,--,0.0,0.0
"Sugars, total",g,--,--,13.00,46.43
Minerals
"Calcium, Ca",mg,--,--,20,71
"Iron, Fe",mg,--,--,0.64,2.29
"Sodium, Na",mg,--,--,125,446
Vitamins
"Vitamin C, total ascorbic acid",mg,--,--,0.0,0.0
"Vitamin A, IU",IU,--,--,0,0
Lipids
"Fatty acids, total saturated",g,--,--,4.500,16.070
"Fatty acids, total trans",g,--,--,0.000,0.000
"Cholesterol",mg,--,--,0,0
Amino Acids
Other
Ingredients
"WHITE FUDGE (SUGAR, PARTIALLY HYDROGENATED PALM KERNEL AND PALM OILS, MILK, NONFAT MILK, SOY LECITHIN, ARTIFICIAL FLAVOR), ENRICHED FLOUR (WHEAT FLOUR, NIACIN, REDUCED IRON, THIAMINE MONONITRATE, RIBOFLAVIN, FOLIC ACID), CORN SYRUP, SOY LECITHIN, SALT, YEAST, BARLEY MALT (BARLEY, WHEAT FLOUR, DEXTROSE), SODIUM BICARBONATE." Date available: 07/14/2017 Date last updated by company: 07/14/2017
