Source: USDA Branded Food Products Database Release December 2017 Software v.3.8.6.4 2017-10-02
Report Run at: December 17, 2017 09:04 EST
"Nutrient data for: 45030553, FLORA, CERTIFIED ORGANIC SLEEP WELL HERBAL TEA BLEND, UPC: 061998637845"
Food Group:  Branded Food Products Database
Common Name:

Nutrient,Unit,Data points,Std. Error,"0.68 oz = 19.2g",1Value per 100 g,
Proximates
"Energy",kcal,--,--,0,0
"Protein",g,--,--,0.00,0.00
"Total lipid (fat)",g,--,--,0.00,0.00
"Carbohydrate, by difference",g,--,--,0.00,0.00
Minerals
"Sodium, Na",mg,--,--,0,0
Vitamins
Lipids
Amino Acids
Other
Ingredients
"CHAMOMILE FLOWERS*, SPEARMINT LEAVES*, LEMONGRASS*, PASSIONFLOWER HERB*, SKULLCAP HERB*." Date last updated by company: 07/24/2015
