Source: USDA Branded Food Products Database Release December 2017 Software v.3.8.6.4 2017-10-02
Report Run at: December 17, 2017 09:05 EST
"Nutrient data for: 45264451, FLORENTINE HALF QUICHE, UPC: 011110113863"
Food Group:  Branded Food Products Database
Common Name:

Nutrient,Unit,Data points,Std. Error,"1 PIECE = 113.0g",1Value per 100 g,
Proximates
"Energy",kcal,--,--,270,239
"Protein",g,--,--,8.00,7.08
"Total lipid (fat)",g,--,--,20.00,17.70
"Carbohydrate, by difference",g,--,--,14.00,12.39
"Fiber, total dietary",g,--,--,0.0,0.0
"Sugars, total",g,--,--,2.00,1.77
Minerals
"Calcium, Ca",mg,--,--,150,133
"Iron, Fe",mg,--,--,1.79,1.58
"Sodium, Na",mg,--,--,499,442
Vitamins
"Vitamin C, total ascorbic acid",mg,--,--,11.2,9.9
"Vitamin A, IU",IU,--,--,1859,1645
Lipids
"Fatty acids, total saturated",g,--,--,12.001,10.620
"Fatty acids, total trans",g,--,--,0.000,0.000
"Cholesterol",mg,--,--,115,102
Amino Acids
Other
Ingredients
"PIE SHELL (ENRICHED FLOUR [WHEAT FLOUR, NIACIN, REDUCED IRON, THIAMINE MONONITRATE, RIBOFLAVIN, FOLIC ACID], VEGETABLE SHORTENING [PALM OIL, SOYBEAN OIL], WATER, CONTAIN 2% OR LESS OF: DEXTROSE, SALT, CALCIUM PROPIONATE, YELLOW 5 AND 6), EGG, WHOLE MILK, HEAVY WHIPPING CREAM (CREAM, CARRAGEENAN), JARLSBERG CHEESE (PASTEURIZED PART SKIM MILK, RENNET, SALT, CULTURE, POWDERED CELLULOSE, STARCH BLEND), SPINACH, RED BELL PEPPER, ONION, SEA SALT, GARLIC POWDER, NUTMEG, XANTHAN GUM, SEASONING (ONION, SPICES, [BLACK PEPPER, PARSLEY, CELERY SEED, BASIL, BAY LEAF, MARJORAM, OREGANO, SAVORY, THYME, CAYENNE PEPPER, CORIANDER, CUMIN, MUSTARD, ROSEMARY], GARLIC, CARROT, ORANGE PEEL, TOMATO, LEMON JUICE. POWDER, CITRIC ACID, OIL OF LEMON), WHITE PEPPER, THYME." Date available: 07/14/2017 Date last updated by company: 07/14/2017
