Source: USDA Branded Food Products Database Release December 2017 Software v.3.8.6.4 2017-10-02
Report Run at: December 17, 2017 09:10 EST
"Nutrient data for: 45226569, FLOUR TORTILLAS, UPC: 789180659429"
Food Group:  Branded Food Products Database
Common Name:

Nutrient,Unit,Data points,Std. Error,"1 TORTILLA = 31.0g",1Value per 100 g,
Proximates
"Energy",kcal,--,--,100,323
"Protein",g,--,--,2.00,6.45
"Total lipid (fat)",g,--,--,3.50,11.29
"Carbohydrate, by difference",g,--,--,15.00,48.39
"Fiber, total dietary",g,--,--,0.0,0.0
"Sugars, total",g,--,--,0.00,0.00
Minerals
"Calcium, Ca",mg,--,--,0,0
"Iron, Fe",mg,--,--,1.28,4.12
"Sodium, Na",mg,--,--,150,484
Vitamins
"Vitamin C, total ascorbic acid",mg,--,--,0.0,0.0
"Vitamin A, IU",IU,--,--,0,0
Lipids
"Fatty acids, total saturated",g,--,--,1.500,4.840
"Fatty acids, total trans",g,--,--,0.000,0.000
"Cholesterol",mg,--,--,5,16
Amino Acids
Other
Ingredients
"ENRICHED BLEACHED FLOUR (WHEAT FLOUR, NIACIN, REDUCED IRON, THIAMINE MONONITRATE, RIBOFLAVIN, FOLIC ACID), SHORTENING (MEAT FATS, VEGETABLES OILS, BHA, PROPYL GALLATE, CITRIC ACID, DIMETHYLPOLYSILOXANE), WATER, SALT, DOUGH CONDITIONER (WHEY [MILK], L-CYSTEINE), BAKING POWDER (CORN STARCH, BICARBONATE OF SODA, SODIUM ALUMINIUM SULFATE, CALCIUM ACID PHOSPHATE)." Date available: 07/14/2017 Date last updated by company: 07/14/2017
