Source: USDA Branded Food Products Database Release December 2017 Software v.3.8.6.4 2017-10-02
Report Run at: December 17, 2017 09:11 EST
"Nutrient data for: 45316583, FLOUR TORTILLAS, UPC: 810395021012"
Food Group:  Branded Food Products Database
Common Name:

Nutrient,Unit,Data points,Std. Error,"1 TORTILLA = 45.0g",1Value per 100 g,
Proximates
"Energy",kcal,--,--,140,311
"Protein",g,--,--,3.00,6.67
"Total lipid (fat)",g,--,--,4.00,8.89
"Carbohydrate, by difference",g,--,--,23.00,51.11
"Fiber, total dietary",g,--,--,1.0,2.2
"Sugars, total",g,--,--,0.00,0.00
Minerals
"Calcium, Ca",mg,--,--,60,133
"Iron, Fe",mg,--,--,1.76,3.91
"Sodium, Na",mg,--,--,250,556
Vitamins
"Vitamin C, total ascorbic acid",mg,--,--,0.0,0.0
"Vitamin A, IU",IU,--,--,0,0
Lipids
"Fatty acids, total saturated",g,--,--,3.501,7.780
"Fatty acids, total trans",g,--,--,0.000,0.000
"Cholesterol",mg,--,--,0,0
Amino Acids
Other
Ingredients
"UNBLEACHED, UNBROMATED, ENRICHED FLOUR (WHEAT FLOUR, NIACIN, REDUCED IRON, THIAMINE MONONITRATE, RIBOFLAVIN, FOLIC ACID), WATER, COCONUT OIL AND/OR PALM OIL AND/OR CANOLA OIL, SALT, CALCIUM PROPIONATE, SODIUM ACID PYROPHOSPHATE, SODIUM BICARBONATE, MONO-AND DIGLYCERIDES, SUGAR, CORN STARCH, POTASSIUM SORBATE, FUMARIC ACID, YEAST, ENZYMES, L-CYSTEINE." Date available: 07/14/2017 Date last updated by company: 07/14/2017
