Source: USDA Branded Food Products Database Release December 2017 Software v.3.8.6.4 2017-10-02
Report Run at: December 17, 2017 09:10 EST
"Nutrient data for: 45267475, FLOUR TORTILLAS, UPC: 645063000095"
Food Group:  Branded Food Products Database
Common Name:

Nutrient,Unit,Data points,Std. Error,"1 TORTILLA = 58.0g",1Value per 100 g,
Proximates
"Energy",kcal,--,--,165,284
"Protein",g,--,--,4.00,6.90
"Total lipid (fat)",g,--,--,4.00,6.90
"Carbohydrate, by difference",g,--,--,19.00,32.76
"Fiber, total dietary",g,--,--,9.0,15.5
"Sugars, total",g,--,--,0.00,0.00
Minerals
"Sodium, Na",mg,--,--,220,379
Vitamins
Lipids
"Fatty acids, total saturated",g,--,--,0.000,0.000
"Fatty acids, total trans",g,--,--,0.000,0.000
"Cholesterol",mg,--,--,0,0
Amino Acids
Other
Ingredients
"WATER, WHOLE WHEAT FLOUR, WHEAT BRAN, ENRICHED WHEAT FLOUR (WHEAT & BARLEY FLOUR, NIACIN, IRON, THIAMINE, RIBOFLAVIN, FOLIC ACID), SOYBEAN OIL, NON-ALUMINUM BAKING POWDER, SALT, GUAR GUM, FUMARIC ACID, WHEAT STARCH AND/OR LECITHIN, CITRIC ACID." Date available: 10/19/2017 Date last updated by company: 10/19/2017
