Source: USDA Branded Food Products Database Release December 2017 Software v.3.8.6.4 2017-10-02
Report Run at: December 17, 2017 09:08 EST
"Nutrient data for: 45203269, FLOUNDER FILLETS, UPC: 857480005793"
Food Group:  Branded Food Products Database
Common Name:

Nutrient,Unit,Data points,Std. Error,"1 FILLET | ABOUT = 98.0g",1Value per 100 g,
Proximates
"Energy",kcal,--,--,150,153
"Protein",g,--,--,8.00,8.16
"Total lipid (fat)",g,--,--,7.00,7.14
"Carbohydrate, by difference",g,--,--,12.00,12.24
"Fiber, total dietary",g,--,--,1.0,1.0
"Sugars, total",g,--,--,3.00,3.06
Minerals
"Calcium, Ca",mg,--,--,0,0
"Iron, Fe",mg,--,--,0.31,0.32
"Sodium, Na",mg,--,--,290,296
Vitamins
"Vitamin C, total ascorbic acid",mg,--,--,0.0,0.0
"Vitamin A, IU",IU,--,--,0,0
Lipids
"Fatty acids, total saturated",g,--,--,3.499,3.570
"Fatty acids, total trans",g,--,--,0.000,0.000
"Cholesterol",mg,--,--,25,26
Amino Acids
Other
Ingredients
"FISH (FLOUNDER), ENRICHED WHEAT FLOUR (FLOUR, NIACIN, FERROUS SULFATE, THIAMINE MONONITRATE, RIBOFLAVIN, FOLIC ACID), BLEACHED WHEAT FLOUR, WATER, MODIFIED CORN STARCH, SALT, DEXTROSE, YELLOW CORN FLOUR, MILK, SUGAR, PARTIALLY HYDROGENATED SOYBEAN OIL, EXTRACTIVE OF PAPRIKA, SPICE EXTRACTIVE. FRIED IN CANOLA OIL." Date available: 07/14/2017 Date last updated by company: 07/14/2017
