Source: USDA Branded Food Products Database Release December 2017 Software v.3.8.6.4 2017-10-02
Report Run at: December 17, 2017 09:12 EST
"Nutrient data for: 45150763, FLUFFY STUFF SCAREDY CATS COTTON CANDY, UPC: 014200244294"
Food Group:  Branded Food Products Database
Common Name:

Nutrient,Unit,Data points,Std. Error,"1 BAG = 60.0g",1Value per 100 g,
Proximates
"Energy",kcal,--,--,230,383
"Protein",g,--,--,0.00,0.00
"Total lipid (fat)",g,--,--,0.00,0.00
"Carbohydrate, by difference",g,--,--,60.00,100.00
"Sugars, total",g,--,--,60.00,100.00
Minerals
"Sodium, Na",mg,--,--,0,0
Vitamins
Lipids
Amino Acids
Other
Ingredients
"SUGAR, ARTIFICIAL FLAVORS, TURMERIC COLORING, ARTIFICIAL COLORS (INCLUDING FD&C BLUE 1, RED 40)." Date available: 07/14/2017 Date last updated by company: 07/14/2017
