Source: USDA Branded Food Products Database Release December 2017 Software v.3.8.6.4 2017-10-02
Report Run at: December 17, 2017 09:12 EST
"Nutrient data for: 45256550, FLURRY SHAKE ICE CREAM, UPC: 814598010606"
Food Group:  Branded Food Products Database
Common Name:

Nutrient,Unit,Data points,Std. Error,"236.0 GRM = 236.0g",1Value per 100 g,
Proximates
"Energy",kcal,--,--,430,182
"Protein",g,--,--,10.01,4.24
"Total lipid (fat)",g,--,--,16.99,7.20
"Carbohydrate, by difference",g,--,--,61.01,25.85
"Fiber, total dietary",g,--,--,0.9,0.4
"Sugars, total",g,--,--,48.00,20.34
Minerals
"Calcium, Ca",mg,--,--,349,148
"Iron, Fe",mg,--,--,1.09,0.46
"Sodium, Na",mg,--,--,241,102
Vitamins
"Vitamin C, total ascorbic acid",mg,--,--,1.2,0.5
"Vitamin A, IU",IU,--,--,500,212
Lipids
"Fatty acids, total saturated",g,--,--,8.992,3.810
"Fatty acids, total trans",g,--,--,0.000,0.000
"Cholesterol",mg,--,--,54,23
Amino Acids
Other
Ingredients
"MILK, CREAM, CANE SUGAR, OREO COOKIES CRUMB CRUNCH (SUGAR, ENRICHED FLOUR (WHEAT FLOUR, NIACIN, REDUCED IRON, THIAMINE MONONITRATE (VITAMIN B1), RIBOFLAVIN (VITAMIN B), FOLIC ACID), HIGH OLEIC CANOLA OIL AND/OR PALM OIL AND/OR CANOLA OIL AND/OR SOYBEAN OIL, COCOA (PROCESSED WITH ALKALI), HIGH FRUCTOSE CORN SYRUP, CORNSTARCH, LEAVENING (BAKING SODA AND/OR CALCIUM PHOSPHATE), SALT, SOY LECITHIN (EMULSIFIER), VANILLA-AN ARTIFICIAL FLAVOR, CHOCOLATE), CORN SYRUP, NONFAT DRY MILK, MALTODEXTRIN, NATURAL VANILLA EXTRACT, CELLULOSE GEL, MONO AND DIGLYCERIDES, CELLULOSE GUM, GUAR GUM, CARRAGEENAN, POLYSORBATE 80, SALT AND CALCIUM OXIDES." Date available: 07/14/2017 Date last updated by company: 07/14/2017
