Source: USDA Branded Food Products Database Release December 2017 Software v.3.8.6.4 2017-10-02
Report Run at: December 17, 2017 09:15 EST
"Nutrient data for: 45024711, FOLLOW YOUR HEART, VEGAN GOURMET, DAIRY ALTERNATIVE SOUR CREAM, UPC: 049568550169"
Food Group:  Branded Food Products Database
Common Name:

Nutrient,Unit,Data points,Std. Error,"2.0 Tbsp = 30.0g",1Value per 100 g,
Proximates
"Energy",kcal,--,--,50,167
"Protein",g,--,--,0.00,0.00
"Total lipid (fat)",g,--,--,5.00,16.67
"Carbohydrate, by difference",g,--,--,3.00,10.00
"Fiber, total dietary",g,--,--,2.0,6.7
"Sugars, total",g,--,--,0.00,0.00
Minerals
"Calcium, Ca",mg,--,--,40,133
"Iron, Fe",mg,--,--,0.00,0.00
"Sodium, Na",mg,--,--,25,83
Vitamins
"Vitamin C, total ascorbic acid",mg,--,--,0.0,0.0
"Vitamin A, IU",IU,--,--,0,0
Lipids
"Fatty acids, total saturated",g,--,--,1.500,5.000
"Fatty acids, total trans",g,--,--,0.000,0.000
"Cholesterol",mg,--,--,0,0
Amino Acids
Other
Ingredients
"FILTERED WATER, SOYBEAN OIL*, INULIN (CHICORY ROOT EXTRACT), PALM FRUIT OIL*, SOYMILK POWDER* (SOYBEANS*), RICE STARCH*, SOY PROTEIN*, CALCIUM LACTATE (PLANT SOURCE), CARRAGEENAN, LACTIC ACID (PLANT SOURCE), AGAVE SYRUP*, LEMON JUICE CONCENTRATE*, NATURAL FLAVOR (PLANT SOURCES), GUAR GUM, LOCUST BEAN GUM*, SEA SALT." Date available: 06/25/2017 Date last updated by company: 06/25/2017
