Source: USDA Branded Food Products Database Release December 2017 Software v.3.8.6.4 2017-10-02
Report Run at: December 17, 2017 09:14 EST
"Nutrient data for: 45239956, FOLLOW YOUR HEART, REDUCED FAT VEGENAISE, UPC: 049568200187"
Food Group:  Branded Food Products Database
Common Name:

Nutrient,Unit,Data points,Std. Error,"1 Tbsp = 14.0g",1Value per 100 g,
Proximates
"Energy",kcal,--,--,50,357
"Protein",g,--,--,0.00,0.00
"Total lipid (fat)",g,--,--,5.00,35.71
"Carbohydrate, by difference",g,--,--,1.00,7.14
"Sugars, total",g,--,--,0.00,0.00
Minerals
"Calcium, Ca",mg,--,--,0,0
"Iron, Fe",mg,--,--,0.00,0.00
"Sodium, Na",mg,--,--,85,607
Vitamins
"Vitamin C, total ascorbic acid",mg,--,--,0.0,0.0
"Vitamin A, IU",IU,--,--,0,0
Lipids
"Fatty acids, total saturated",g,--,--,0.000,0.000
"Fatty acids, total monounsaturated",g,--,--,4.000,28.570
"Fatty acids, total polyunsaturated",g,--,--,0.500,3.570
"Fatty acids, total trans",g,--,--,0.000,0.000
"Cholesterol",mg,--,--,0,0
Amino Acids
Other
Ingredients
"INGREDIENTS (VEGAN, GLUTEN-FREE, DAIRY-FREE, NON-GMO): FILTERED WATER, EXPELLER PRESSED HIGH-OLEIC SAFFLOWER OIL, BROWN RICE SYRUP, APPLE CIDER VINEGAR, TAPIOCA STARCH, OLIVE OIL, ORGANIC SOYMILK POWDER (ORGANIC SOYBEANS), SEA SALT, NATURAL FLAVOR (PLANT SOURCE), COLD-PRESSED FLAXSEED OIL, LEMON JUICE CONCENTRATE, MUSTARD FLOUR, GUM ARABIC, GUAR GUM, XANTHAN GUM." Date available: 07/14/2017 Date last updated by company: 07/14/2017
