Source: USDA Branded Food Products Database Release December 2017 Software v.3.8.6.4 2017-10-02
Report Run at: December 17, 2017 10:41 EST
"Nutrient data for: 45043243, FOOD LION, SPAGHETTI RINGS IN TOMATO SAUCE, UPC: 035826028853"
Food Group:  Branded Food Products Database
Common Name:

Nutrient,Unit,Data points,Std. Error,"1 cup = 252.0g",1Value per 100 g,
Proximates
"Energy",kcal,--,--,179,71
"Protein",g,--,--,4.99,1.98
"Total lipid (fat)",g,--,--,1.01,0.40
"Carbohydrate, by difference",g,--,--,38.00,15.08
"Fiber, total dietary",g,--,--,2.0,0.8
"Sugars, total",g,--,--,14.01,5.56
Minerals
"Calcium, Ca",mg,--,--,20,8
"Iron, Fe",mg,--,--,1.06,0.42
"Potassium, K",mg,--,--,600,238
"Sodium, Na",mg,--,--,990,393
Vitamins
"Vitamin C, total ascorbic acid",mg,--,--,0.0,0.0
"Vitamin A, IU",IU,--,--,1945,772
Lipids
"Fatty acids, total saturated",g,--,--,0.504,0.200
"Fatty acids, total monounsaturated",g,--,--,0.000,0.000
"Fatty acids, total polyunsaturated",g,--,--,0.000,0.000
"Fatty acids, total trans",g,--,--,0.000,0.000
"Cholesterol",mg,--,--,0,0
Amino Acids
Other
Ingredients
"WATER, TOMATO PUREE (WATER, TOMATO PASTE), ENRICHED MACARONI PRODUCT (SEMOLINA WHEAT FLOUR, EGG WHITE SOLIDS, NIACIN, IRON, THIAMINE MONONITRATE, RIBOFLAVIN, FOLIC ACID), HIGH FRUCTOSE CORN SYRUP, CONTAINS LESS THAN 2% OF: SALT, ENZYMES MODIFIED CHEDDAR CHEESE [CHEDDAR CHEESE (MILK, CHEESE CULTURE, SALT, ENZYMES), AND ANNATTO (COLOR)], OLEORESIN PAPRIKA, SPICE EXTRACT, CITRIC ACID, MILK SOLIDS (MILK PROTEIN CONCENTRATE AND LACTOSE), ONION POWDER AND BETA CAROTENE (COLOR)." Date available: 06/24/2017 Date last updated by company: 06/24/2017
