Source: USDA Branded Food Products Database Release December 2017 Software v.3.8.6.4 2017-10-02
Report Run at: December 17, 2017 09:18 EST
"Nutrient data for: 45011654, FOOD CLUB, CANDIES, CHOCOLATE, PEANUTS, UPC: 036800062238"
Food Group:  Branded Food Products Database
Common Name:

Nutrient,Unit,Data points,Std. Error,"0.25 cup = 40.0g",1Value per 100 g,
Proximates
"Energy",kcal,--,--,210,525
"Protein",g,--,--,4.00,10.00
"Total lipid (fat)",g,--,--,12.00,30.00
"Carbohydrate, by difference",g,--,--,24.00,60.00
"Fiber, total dietary",g,--,--,1.0,2.5
"Sugars, total",g,--,--,21.00,52.50
Minerals
"Calcium, Ca",mg,--,--,20,50
"Iron, Fe",mg,--,--,0.45,1.12
"Sodium, Na",mg,--,--,55,138
Vitamins
"Vitamin C, total ascorbic acid",mg,--,--,0.0,0.0
"Vitamin A, IU",IU,--,--,0,0
Lipids
"Fatty acids, total saturated",g,--,--,5.000,12.500
"Fatty acids, total trans",g,--,--,0.000,0.000
"Cholesterol",mg,--,--,0,0
Amino Acids
Other
Ingredients
"MILK CHOCOLATE [SUGAR, COCOA BUTTER, WHOLE MILK, CHOCOLATE LIQUOR, SOY LECITHIN (AN EMULSIFIER), VANILLIN (AN ARTIFICIAL FLAVOR)], PEANUTS, COCONUT OIL, SALT, SUGAR, HYDROGENATED PALM KERNEL OIL, COCOA POWDER, WHEY POWDER (MILK), SOY LECITHIN (AN EMULSIFIER), AND VANILLIN (AN ARTIFICIAL FLAVOR)." Date available: 09/22/2017 Date last updated by company: 09/22/2017
