Source: USDA Branded Food Products Database Release December 2017 Software v.3.8.6.4 2017-10-02
Report Run at: December 17, 2017 10:52 EST
"Nutrient data for: 45172638, FOOD LION, WHOLE WHEAT SLICED BREAD, UPC: 035826085252"
Food Group:  Branded Food Products Database
Common Name:

Nutrient,Unit,Data points,Std. Error,"2.0 SLICES = 50.0g",1Value per 100 g,
Proximates
"Energy",kcal,--,--,120,240
"Protein",g,--,--,6.00,12.00
"Total lipid (fat)",g,--,--,1.50,3.00
"Carbohydrate, by difference",g,--,--,20.00,40.00
"Fiber, total dietary",g,--,--,3.0,6.0
"Sugars, total",g,--,--,3.00,6.00
Minerals
"Calcium, Ca",mg,--,--,60,120
"Iron, Fe",mg,--,--,1.08,2.16
"Sodium, Na",mg,--,--,260,520
Vitamins
"Vitamin C, total ascorbic acid",mg,--,--,0.0,0.0
"Thiamin",mg,--,--,0.000,0.000
"Riboflavin",mg,--,--,0.034,0.068
"Niacin",mg,--,--,1.200,2.400
"Vitamin A, IU",IU,--,--,0,0
Lipids
"Fatty acids, total saturated",g,--,--,0.000,0.000
"Fatty acids, total monounsaturated",g,--,--,0.000,0.000
"Fatty acids, total polyunsaturated",g,--,--,0.500,1.000
"Fatty acids, total trans",g,--,--,0.000,0.000
"Cholesterol",mg,--,--,0,0
Amino Acids
Other
Ingredients
"WHOLE WHEAT FLOUR, WATER, HIGH FRUCTOSE CORN SYRUP, WHEAT GLUTEN, SOYBEAN OIL, YEAST, MOLASSES, SALT, CALCIUM PROPIONATE (PRESERVATIVE), HONEY, DATEM, MONOGLYCERIDES, CALCIUM SULFATE, ETHOXYLATED MONO- AND DIGLYCERIDES, SOY LECITHIN, CALCIUM CARBONATE, POTASSIUM IODATE." Date available: 07/14/2017 Date last updated by company: 07/14/2017
