Source: USDA Branded Food Products Database Release December 2017 Software v.3.8.6.4 2017-10-02
Report Run at: December 17, 2017 09:23 EST
"Nutrient data for: 45010652, FOOD CLUB, DRINK MIX, CHOCOLATE, UPC: 036800960121"
Food Group:  Branded Food Products Database
Common Name:

Nutrient,Unit,Data points,Std. Error,"8.0 FL OZ(240ML) PREPARED = 19.0g",1Value per 100 g,
Proximates
"Energy",kcal,--,--,70,368
"Protein",g,--,--,1.00,5.26
"Total lipid (fat)",g,--,--,0.00,0.00
"Carbohydrate, by difference",g,--,--,17.00,89.47
"Fiber, total dietary",g,--,--,1.0,5.3
"Sugars, total",g,--,--,16.00,84.21
Minerals
"Calcium, Ca",mg,--,--,0,0
"Iron, Fe",mg,--,--,1.90,9.98
"Sodium, Na",mg,--,--,30,158
Vitamins
"Vitamin C, total ascorbic acid",mg,--,--,0.0,0.0
"Vitamin A, IU",IU,--,--,0,0
Lipids
"Fatty acids, total saturated",g,--,--,0.000,0.000
"Fatty acids, total trans",g,--,--,0.000,0.000
"Cholesterol",mg,--,--,0,0
Amino Acids
Other
Ingredients
"SUGAR, COCOA (PROCESSED WITH ALKALI), WHEY, SOY LECITHIN, ANTI-CAKING AGENT (SILICON DIOXIDE), SALT, ARTIFICIAL FLAVOR" Date available: 06/24/2017 Date last updated by company: 06/24/2017
