Source: USDA Branded Food Products Database Release December 2017 Software v.3.8.6.4 2017-10-02
Report Run at: December 17, 2017 10:08 EST
"Nutrient data for: 45194899, FOOD LION, FRENCH STYLE DRESSING, UPC: 035826100238"
Food Group:  Branded Food Products Database
Common Name:

Nutrient,Unit,Data points,Std. Error,"2.0 Tbsp = 30.0g",1Value per 100 g,
Proximates
"Energy",kcal,--,--,90,300
"Protein",g,--,--,0.00,0.00
"Total lipid (fat)",g,--,--,6.00,20.00
"Carbohydrate, by difference",g,--,--,9.00,30.00
"Fiber, total dietary",g,--,--,0.0,0.0
"Sugars, total",g,--,--,8.00,26.67
Minerals
"Calcium, Ca",mg,--,--,0,0
"Iron, Fe",mg,--,--,0.00,0.00
"Potassium, K",mg,--,--,35,117
"Sodium, Na",mg,--,--,380,1267
Vitamins
"Vitamin C, total ascorbic acid",mg,--,--,0.0,0.0
"Vitamin A, IU",IU,--,--,0,0
Lipids
"Fatty acids, total saturated",g,--,--,0.999,3.330
"Fatty acids, total monounsaturated",g,--,--,1.500,5.000
"Fatty acids, total polyunsaturated",g,--,--,3.501,11.670
"Fatty acids, total trans",g,--,--,0.000,0.000
"Cholesterol",mg,--,--,0,0
Amino Acids
Other
Ingredients
"SUGAR, TOMATO PUREE (WATER, TOMATO PASTE), DISTILLED VINEGAR, SOYBEAN OIL, WATER, SALT, CONTAINS LESS THAN 2% MODIFIED FOOD STARCH, PHOSPHORIC ACID, DRIED ONION, XANTHAN GUM, GUAR GUM, NATURAL FLAVOR, RED 40, BLUE 1, POTASSIUM SORBATE AND CALCIUM DISODIUM EDTA (AS PRESERVATIVES)" Date available: 07/14/2017 Date last updated by company: 07/14/2017
