Source: USDA Branded Food Products Database Release December 2017 Software v.3.8.6.4 2017-10-02
Report Run at: December 17, 2017 10:45 EST
"Nutrient data for: 45012717, FOOD LION, TACO SHELLS, UPC: 035826006608"
Food Group:  Branded Food Products Database
Common Name:

Nutrient,Unit,Data points,Std. Error,"3.0 TACO SHELLS = 32.0g",1Value per 100 g,
Proximates
"Energy",kcal,--,--,150,469
"Protein",g,--,--,2.00,6.25
"Total lipid (fat)",g,--,--,6.00,18.75
"Carbohydrate, by difference",g,--,--,21.00,65.62
"Fiber, total dietary",g,--,--,2.0,6.2
"Sugars, total",g,--,--,0.00,0.00
Minerals
"Calcium, Ca",mg,--,--,20,62
"Iron, Fe",mg,--,--,1.13,3.52
"Sodium, Na",mg,--,--,0,0
Vitamins
"Vitamin C, total ascorbic acid",mg,--,--,0.0,0.0
"Vitamin A, IU",IU,--,--,0,0
Lipids
"Fatty acids, total saturated",g,--,--,2.000,6.250
"Fatty acids, total trans",g,--,--,0.000,0.000
"Cholesterol",mg,--,--,0,0
Amino Acids
Other
Ingredients
"GROUND CORN TREATED WITH LIME (CORN MASA FLOUR, LIME, NIACIN, REDUCED IRON, THIAMINE MONONITRATE, RIBOFLAVIN), WATER, VEGETABLE OILS (CONTAINS ONE OR MORE OF THE FOLLOWING: COTTONSEED OIL, CORN OIL, PALM OIL)." Date available: 06/25/2017 Date last updated by company: 06/25/2017
