Source: USDA Branded Food Products Database Release December 2017 Software v.3.8.6.4 2017-10-02
Report Run at: December 17, 2017 09:42 EST
"Nutrient data for: 45014816, FOOD CLUB, WHIPPED CREAM CHEESE SPREAD, UPC: 036800303638"
Food Group:  Branded Food Products Database
Common Name:

Nutrient,Unit,Data points,Std. Error,"2.0 Tbsp = 21.0g",1Value per 100 g,
Proximates
"Energy",kcal,--,--,60,286
"Protein",g,--,--,1.00,4.76
"Total lipid (fat)",g,--,--,6.00,28.57
"Carbohydrate, by difference",g,--,--,1.00,4.76
"Fiber, total dietary",g,--,--,0.0,0.0
"Sugars, total",g,--,--,1.00,4.76
Minerals
"Calcium, Ca",mg,--,--,20,95
"Iron, Fe",mg,--,--,0.00,0.00
"Sodium, Na",mg,--,--,65,310
Vitamins
"Vitamin C, total ascorbic acid",mg,--,--,0.0,0.0
"Vitamin A, IU",IU,--,--,476,2267
Lipids
"Fatty acids, total saturated",g,--,--,3.501,16.670
"Fatty acids, total trans",g,--,--,0.000,0.000
"Cholesterol",mg,--,--,20,95
Amino Acids
Other
Ingredients
"PASTEURIZED CULTURED MILK AND CREAM, WHEY, SALT, STABILIZERS (XANTHAN, LOCUST BEAN AND GUAR GUMS), POTASSIUM SORBATE (MAINTAIN FRESHNESS)." Date available: 07/14/2017 Date last updated by company: 07/14/2017
