Source: USDA Branded Food Products Database Release December 2017 Software v.3.8.6.4 2017-10-02
Report Run at: December 17, 2017 09:59 EST
"Nutrient data for: 45173228, FOOD LION, COTTAGE CHEESE, UPC: 035826025043"
Food Group:  Branded Food Products Database
Common Name:

Nutrient,Unit,Data points,Std. Error,"0.5 cup = 116.0g",1Value per 100 g,
Proximates
"Energy",kcal,--,--,90,78
"Protein",g,--,--,14.00,12.07
"Total lipid (fat)",g,--,--,0.00,0.00
"Carbohydrate, by difference",g,--,--,6.99,6.03
"Fiber, total dietary",g,--,--,0.0,0.0
"Sugars, total",g,--,--,5.00,4.31
Minerals
"Calcium, Ca",mg,--,--,100,86
"Iron, Fe",mg,--,--,0.00,0.00
"Sodium, Na",mg,--,--,470,405
Vitamins
"Vitamin C, total ascorbic acid",mg,--,--,0.0,0.0
"Vitamin A, IU",IU,--,--,284,245
Lipids
"Fatty acids, total saturated",g,--,--,0.000,0.000
"Fatty acids, total trans",g,--,--,0.000,0.000
"Cholesterol",mg,--,--,5,4
Amino Acids
Other
Ingredients
"CULTURED PASTEURIZED SKIM MILK, NONFAT MILK, WHEY PROTEIN CONCENTRATE, WHEY, NONFAT MILK SOLIDS, MALTODEXTRIN, SALT, MODIFIED CORN STARCH, ARTIFICIAL COLOR, POTASSIUM SORBATE AND CARBON DIOXIDE (TO PRESERVE FRESHNESS), GUAR GUM, CARRAGEENAN, LOCUST BEAN GUM, NATURAL FLAVOR, VITAMIN A PALMITATE, AND ENZYME." Date available: 07/14/2017 Date last updated by company: 07/14/2017
