Source: USDA Branded Food Products Database Release December 2017 Software v.3.8.6.4 2017-10-02
Report Run at: December 17, 2017 09:31 EST
"Nutrient data for: 45011300, FOOD CLUB, ONION MIX, UPC: 036800059474"
Food Group:  Branded Food Products Database
Common Name:

Nutrient,Unit,Data points,Std. Error,"1 Tbsp = 7.0g",1Value per 100 g,
Proximates
"Energy",kcal,--,--,20,286
"Protein",g,--,--,1.00,14.29
"Total lipid (fat)",g,--,--,0.00,0.00
"Carbohydrate, by difference",g,--,--,5.00,71.43
"Fiber, total dietary",g,--,--,1.0,14.3
"Sugars, total",g,--,--,1.00,14.29
Minerals
"Sodium, Na",mg,--,--,560,8000
Vitamins
Lipids
"Fatty acids, total saturated",g,--,--,0.000,0.000
"Fatty acids, total trans",g,--,--,0.000,0.000
"Cholesterol",mg,--,--,0,0
Amino Acids
Other
Ingredients
"DEHYDRATED ONION, SALT, HYDROLYZED SOY AND CORN AND WHEAT PROTEIN, MALTODEXTRIN, SUGAR, CORN STARCH, COLOR (CARAMEL), DEHYDRATED GARLIC, PARTIALLY HYDROGENATED VEGETABLE SHORTENING (CONTAINS SOYBEAN OIL), AUTOLYZED YEAST EXTRACT, CORN SYRUP SOLIDS, THIAMINE HYDROCHLORIDE, DISODIUM INOSINATE, DISODIUM GUANYLATE." Date available: 10/04/2017 Date last updated by company: 10/04/2017
