Source: USDA Branded Food Products Database Release December 2017 Software v.3.8.6.4 2017-10-02
Report Run at: December 17, 2017 09:19 EST
"Nutrient data for: 45017928, FOOD CLUB, CHEWY COOKIES, CHOCOLATE CHIP, UPC: 036800371330"
Food Group:  Branded Food Products Database
Common Name:

Nutrient,Unit,Data points,Std. Error,"2.0 COOKIES = 27.0g",1Value per 100 g,
Proximates
"Energy",kcal,--,--,130,481
"Protein",g,--,--,1.00,3.70
"Total lipid (fat)",g,--,--,6.00,22.22
"Carbohydrate, by difference",g,--,--,18.00,66.67
"Fiber, total dietary",g,--,--,0.0,0.0
"Sugars, total",g,--,--,8.00,29.63
Minerals
"Calcium, Ca",mg,--,--,0,0
"Iron, Fe",mg,--,--,1.33,4.94
"Sodium, Na",mg,--,--,110,407
Vitamins
"Vitamin C, total ascorbic acid",mg,--,--,0.0,0.0
"Vitamin A, IU",IU,--,--,0,0
Lipids
"Fatty acids, total saturated",g,--,--,3.000,11.110
"Fatty acids, total trans",g,--,--,0.000,0.000
"Cholesterol",mg,--,--,0,0
Amino Acids
Other
Ingredients
"ENRICHED BLEACHED WHEAT FLOUR (WHEAT FLOUR, NIACIN, REDUCED IRON, THIAMIN MONONITRATE, RIBOFLAVIN, FOLIC ACID), HIGH FRUCTOSE CORN SYRUP, CANOLA AND/OR SOY AND/OR PALM OIL, SEMI-SWEET CHOCOLATE CHIPS (SUGAR, CHOCOLATE LIQUOR, DEXTROSE, COCOA BUTTER, SOY LECITHIN [AN EMULSIFIER]), SUGAR, CONTAINS 2% OR LESS OF: DEXTROSE, MODIFIED CORNSTARCH, BAKING SODA, SALT, MOLASSES, NATURAL AND ARTIFICIAL FLAVORS, CARAMEL COLOR, ANNATTO EXTRACT (VEGETABLE COLOR), AND SOY LECITHIN (AN EMULSIFIER)." Date available: 06/25/2017 Date last updated by company: 06/25/2017
