Source: USDA Branded Food Products Database Release December 2017 Software v.3.8.6.4 2017-10-02
Report Run at: December 17, 2017 10:12 EST
"Nutrient data for: 45019563, FOOD LION, HAMBURGER BEEF PASTA DINNER, UPC: 035826088529"
Food Group:  Branded Food Products Database
Common Name:

Nutrient,Unit,Data points,Std. Error,"0.33 cup = 30.0g",1Value per 100 g,
Proximates
"Energy",kcal,--,--,100,333
"Protein",g,--,--,3.00,10.00
"Total lipid (fat)",g,--,--,0.00,0.00
"Carbohydrate, by difference",g,--,--,22.00,73.33
"Fiber, total dietary",g,--,--,1.0,3.3
"Sugars, total",g,--,--,2.00,6.67
Minerals
"Calcium, Ca",mg,--,--,20,67
"Iron, Fe",mg,--,--,6.00,20.00
"Sodium, Na",mg,--,--,630,2100
Vitamins
"Vitamin C, total ascorbic acid",mg,--,--,0.0,0.0
"Vitamin A, IU",IU,--,--,0,0
Lipids
"Fatty acids, total saturated",g,--,--,0.000,0.000
"Fatty acids, total monounsaturated",g,--,--,0.000,0.000
"Fatty acids, total polyunsaturated",g,--,--,0.000,0.000
"Fatty acids, total trans",g,--,--,0.000,0.000
"Cholesterol",mg,--,--,0,0
Amino Acids
Other
Ingredients
"ENRICHED MACARONI PRODUCT (WHEAT FLOUR, DURUM FLOUR, NIACIN, FERROUS SULFATE, THIAMIN MONONITRATE, RIBOFLAVIN, FOLIC ACID), MALTODEXTRIN, CORN STARCH, SALT, BLEACHED WHEAT FLOUR, SUGAR, DRIED ONION, DEXTROSE, CARAMEL (COLOR), YEAST EXTRACT, NATURAL FLAVORS, DRIED GARLIC, DISODIUM INOSINATE AND DISODIUM GUANYLATE, SOYBEAN OIL, SPICE, YELLOW 5, WHEY, YELLOW 6, SILICON DIOXIDE" Date available: 06/25/2017 Date last updated by company: 06/25/2017
