Source: USDA Branded Food Products Database Release December 2017 Software v.3.8.6.4 2017-10-02
Report Run at: December 17, 2017 09:41 EST
"Nutrient data for: 45174061, FOOD CLUB, ULTRA THIN SLICED CHEDDAR CHEESE, MILD, UPC: 036800407831"
Food Group:  Branded Food Products Database
Common Name:

Nutrient,Unit,Data points,Std. Error,"3.0 SLICES = 32.0g",1Value per 100 g,
Proximates
"Energy",kcal,--,--,130,406
"Protein",g,--,--,8.00,25.00
"Total lipid (fat)",g,--,--,11.00,34.38
"Carbohydrate, by difference",g,--,--,1.00,3.12
"Fiber, total dietary",g,--,--,0.0,0.0
"Sugars, total",g,--,--,0.00,0.00
Minerals
"Calcium, Ca",mg,--,--,250,781
"Iron, Fe",mg,--,--,0.00,0.00
"Sodium, Na",mg,--,--,200,625
Vitamins
"Vitamin C, total ascorbic acid",mg,--,--,0.0,0.0
"Vitamin A, IU",IU,--,--,313,977
Lipids
"Fatty acids, total saturated",g,--,--,7.002,21.880
"Fatty acids, total trans",g,--,--,0.000,0.000
"Cholesterol",mg,--,--,35,109
Amino Acids
Other
Ingredients
"PASTEURIZED MILK, CHEESE CULTURE, SALT, ENZYMES AND ANNATTO [VEGETABLE COLOR]." Date available: 07/14/2017 Date last updated by company: 07/14/2017
