Source: USDA Branded Food Products Database Release December 2017 Software v.3.8.6.4 2017-10-02
Report Run at: December 17, 2017 09:27 EST
"Nutrient data for: 45020081, FOOD CLUB, ICE CREAM, CHERRY VANILLA, UPC: 036800301948"
Food Group:  Branded Food Products Database
Common Name:

Nutrient,Unit,Data points,Std. Error,"0.5 cup = 65.0g",1Value per 100 g,
Proximates
"Energy",kcal,--,--,120,185
"Protein",g,--,--,2.00,3.08
"Total lipid (fat)",g,--,--,6.00,9.23
"Carbohydrate, by difference",g,--,--,16.00,24.62
"Fiber, total dietary",g,--,--,0.0,0.0
"Sugars, total",g,--,--,12.00,18.46
Minerals
"Calcium, Ca",mg,--,--,80,123
"Iron, Fe",mg,--,--,0.00,0.00
"Sodium, Na",mg,--,--,40,62
Vitamins
"Vitamin C, total ascorbic acid",mg,--,--,0.0,0.0
"Vitamin A, IU",IU,--,--,225,346
Lipids
"Fatty acids, total saturated",g,--,--,3.998,6.150
"Fatty acids, total monounsaturated",g,--,--,1.502,2.310
"Fatty acids, total polyunsaturated",g,--,--,0.000,0.000
"Fatty acids, total trans",g,--,--,0.000,0.000
"Cholesterol",mg,--,--,25,38
Amino Acids
Other
Ingredients
"MILKFAT AND NONFAT MILK, SUGAR, CHERRIES (CHERRIES, CORN SYRUP, HIGH FRUCTOSE CORN SYRUP, SUGAR, NATURAL FLAVOR, CARRAGEENAN, SODIUM BENZOATE AND POTASSIUM SORBATE (PRESERVATIVES), CITRIC ACID, RED 40, SULFUR DIOXIDE), CORN SYRUP, HIGH FRUCTOSE CORN SYRUP, SWEETCREAM BUTTERMILK, WHEY, CONTAINS LESS THAN 2% OF MONO AND DIGLYCERIDES, GUAR GUM, LOCUST BEAN GUM, CALCIUM SULFATE, POLYSORBATE 80, CARRAGEENAN, NATURAL AND ARTIFICIAL FLAVOR." Date available: 07/14/2017 Date last updated by company: 07/14/2017
