Source: USDA Branded Food Products Database Release December 2017 Software v.3.8.6.4 2017-10-02
Report Run at: December 17, 2017 10:31 EST
"Nutrient data for: 45233536, FOOD LION, PRESERVES, APRICOT, UPC: 035826029225"
Food Group:  Branded Food Products Database
Common Name:

Nutrient,Unit,Data points,Std. Error,"1 Tbsp = 20.0g",1Value per 100 g,
Proximates
"Energy",kcal,--,--,50,250
"Protein",g,--,--,0.00,0.00
"Total lipid (fat)",g,--,--,0.00,0.00
"Carbohydrate, by difference",g,--,--,13.00,65.00
"Sugars, total",g,--,--,10.00,50.00
Minerals
"Sodium, Na",mg,--,--,10,50
Vitamins
Lipids
Amino Acids
Other
Ingredients
"APRICOTS, HIGH FRUCTOSE CORN SYRUP, CORN SYRUP, SUGAR, FRUIT PECTIN AND CITRIC ACID." Date available: 08/09/2017 Date last updated by company: 08/09/2017
