Source: USDA Branded Food Products Database Release December 2017 Software v.3.8.6.4 2017-10-02
Report Run at: December 17, 2017 10:58 EST
"Nutrient data for: 45119106, FOODWORKS, LITE & LACEY, LACEY SWISS CHEESE, UPC: 081837999613"
Food Group:  Branded Food Products Database
Common Name:

Nutrient,Unit,Data points,Std. Error,"0.75 ONZ = 22.0g",1Value per 100 g,
Proximates
"Energy",kcal,--,--,80,364
"Protein",g,--,--,7.00,31.82
"Total lipid (fat)",g,--,--,7.00,31.82
"Carbohydrate, by difference",g,--,--,0.00,0.00
"Fiber, total dietary",g,--,--,0.0,0.0
"Sugars, total",g,--,--,0.00,0.00
Minerals
"Calcium, Ca",mg,--,--,200,909
"Iron, Fe",mg,--,--,0.00,0.00
"Sodium, Na",mg,--,--,50,227
Vitamins
"Vitamin C, total ascorbic acid",mg,--,--,0.0,0.0
"Vitamin A, IU",IU,--,--,568,2582
Lipids
"Fatty acids, total saturated",g,--,--,4.000,18.180
"Fatty acids, total trans",g,--,--,0.000,0.000
"Cholesterol",mg,--,--,20,91
Amino Acids
Other
Ingredients
"PASTEURIZED MILK, CHEESE CULTURE, ENZYMES AND SALT." Date available: 06/25/2017 Date last updated by company: 06/25/2017
