Source: USDA Branded Food Products Database Release December 2017 Software v.3.8.6.4 2017-10-02
Report Run at: December 17, 2017 10:21 EST
"Nutrient data for: 45057950, FOOD LION, MINT COOKIES, FUDGE, UPC: 035826080882"
Food Group:  Branded Food Products Database
Common Name:

Nutrient,Unit,Data points,Std. Error,"4.0 COOKIES = 32.0g",1Value per 100 g,
Proximates
"Energy",kcal,--,--,160,500
"Protein",g,--,--,1.00,3.12
"Total lipid (fat)",g,--,--,8.00,25.00
"Carbohydrate, by difference",g,--,--,21.00,65.62
"Fiber, total dietary",g,--,--,1.0,3.1
"Sugars, total",g,--,--,10.00,31.25
Minerals
"Calcium, Ca",mg,--,--,0,0
"Iron, Fe",mg,--,--,1.69,5.28
"Sodium, Na",mg,--,--,135,422
Vitamins
"Vitamin C, total ascorbic acid",mg,--,--,0.0,0.0
"Vitamin A, IU",IU,--,--,0,0
Lipids
"Fatty acids, total saturated",g,--,--,6.000,18.750
"Fatty acids, total trans",g,--,--,0.000,0.000
"Cholesterol",mg,--,--,0,0
Amino Acids
Other
Ingredients
"ENRICHED FLOUR (WHEAT FLOUR, NIACIN, REDUCED IRON, THIAMINE MONONITRATE, RIBOFLAVIN, FOLIC ACID), SUGAR, VEGETABLE SHORTENING (PALM AND/OR PARTIALLY HYDROGENATED PALM KERNEL OILS), HIGH FRUCTOSE CORN SYRUP, CONTAINS LESS THAN 2% OF: COCOA (PROCESSED WITH ALKALI), CORN STARCH, SALT, LEAVENING (SODIUM BICARBONATE, AMMONIUM BICARBONATE), SOY LECITHIN, NATURAL AND ARTIFICIAL FLAVOR, PEPPERMINT OIL." Date available: 07/14/2017 Date last updated by company: 07/14/2017
