Source: USDA Branded Food Products Database Release December 2017 Software v.3.8.6.4 2017-10-02
Report Run at: December 17, 2017 10:20 EST
"Nutrient data for: 45155130, FOOD LION, MINI CHOCOLATE CHIP COOKIES, UPC: 035826089472"
Food Group:  Branded Food Products Database
Common Name:

Nutrient,Unit,Data points,Std. Error,"3.0 COOKIES = 28.0g",1Value per 100 g,
Proximates
"Energy",kcal,--,--,120,429
"Protein",g,--,--,2.00,7.14
"Total lipid (fat)",g,--,--,4.50,16.07
"Carbohydrate, by difference",g,--,--,18.00,64.29
"Fiber, total dietary",g,--,--,1.0,3.6
"Sugars, total",g,--,--,10.00,35.71
Minerals
"Calcium, Ca",mg,--,--,0,0
"Iron, Fe",mg,--,--,1.29,4.59
"Sodium, Na",mg,--,--,105,375
Vitamins
"Vitamin C, total ascorbic acid",mg,--,--,0.0,0.0
"Vitamin A, IU",IU,--,--,0,0
Lipids
"Fatty acids, total saturated",g,--,--,2.500,8.930
"Fatty acids, total trans",g,--,--,0.000,0.000
"Cholesterol",mg,--,--,5,18
Amino Acids
Other
Ingredients
"ENRICHED WHEAT FLOUR (FLOUR, NIACIN, REDUCED IRON, THIAMINE MONOITRATE RIBOFLAVIN AND FOLIC ACID), SHORTENING (LIQUID AND PARTIALLY HYDROGENATED SOYBEAN OIL, HYDROGENATED COTTONSEED OIL, TBHQ AND CITRIC ACID ADDED TO PROTECT FLAVOR), OATS, BROWN SUGAR, SUGAR, EGGS, RAISINS, EGGS, INVERT SUGAR, HONEY, WATER, CONTAINS 2% OR LESS OF: SALT, BAKING SODA, BAKING POWDER, VANILLA, SPICES." Date available: 07/14/2017 Date last updated by company: 07/14/2017
