Source: USDA Branded Food Products Database Release December 2017 Software v.3.8.6.4 2017-10-02
Report Run at: December 17, 2017 09:39 EST
"Nutrient data for: 45018265, FOOD CLUB, SWEET WHOLE CUCUMBERS, UPC: 036800463196"
Food Group:  Branded Food Products Database
Common Name:

Nutrient,Unit,Data points,Std. Error,"1 PICKLE | ABOUT = 28.0g",1Value per 100 g,
Proximates
"Energy",kcal,--,--,35,125
"Protein",g,--,--,0.00,0.00
"Total lipid (fat)",g,--,--,0.00,0.00
"Carbohydrate, by difference",g,--,--,8.00,28.57
"Sugars, total",g,--,--,8.00,28.57
Minerals
"Sodium, Na",mg,--,--,180,643
Vitamins
Lipids
Amino Acids
Other
Ingredients
"CUCUMBERS, HIGH FRUCTOSE CORN SYRUP, WATER, VINEGAR, SALT, CALCIUM CHLORIDE, ALUM, NATURAL FLAVORS, POLYSORBATE 80, YELLOW 5." Date available: 07/14/2017 Date last updated by company: 07/14/2017
