Source: USDA Branded Food Products Database Release December 2017 Software v.3.8.6.4 2017-10-02
Report Run at: December 17, 2017 09:46 EST
"Nutrient data for: 45177682, FOODHOLD, COFFEE CREAMER, ORIGINAL, UPC: 688267133664"
Food Group:  Branded Food Products Database
Common Name:

Nutrient,Unit,Data points,Std. Error,"1 Tbsp = 15.0g",1Value per 100 g,
Proximates
"Energy",kcal,--,--,15,100
"Protein",g,--,--,0.00,0.00
"Total lipid (fat)",g,--,--,1.00,6.67
"Carbohydrate, by difference",g,--,--,1.00,6.67
"Fiber, total dietary",g,--,--,0.0,0.0
"Sugars, total",g,--,--,1.00,6.67
Minerals
"Sodium, Na",mg,--,--,0,0
Vitamins
Lipids
"Fatty acids, total saturated",g,--,--,0.000,0.000
"Fatty acids, total trans",g,--,--,0.000,0.000
"Cholesterol",mg,--,--,0,0
Amino Acids
Other
Ingredients
"WATER, CORN SYRUP, PARTIALLY HYDROGENATED SOYBEAN OIL, SUGAR, SODIUM CASEINATE* (A MILK DERIVATIVE), DIPOTASSIUM PHOSPHATE, MONO-DIGLYCERIDES, GUAR GUM, CARRAGEENAN, SODIUM STEAROYL LACTYLATE, ARTIFICIAL COLOR." Date available: 07/14/2017 Date last updated by company: 07/14/2017
