Source: USDA Branded Food Products Database Release December 2017 Software v.3.8.6.4 2017-10-02
Report Run at: December 17, 2017 09:40 EST
"Nutrient data for: 45010103, FOOD CLUB, TOMATO KETCHUP, UPC: 036800041257"
Food Group:  Branded Food Products Database
Common Name:

Nutrient,Unit,Data points,Std. Error,"1 Tbsp = 17.0g",1Value per 100 g,
Proximates
"Energy",kcal,--,--,15,88
"Protein",g,--,--,0.00,0.00
"Total lipid (fat)",g,--,--,0.00,0.00
"Carbohydrate, by difference",g,--,--,4.00,23.53
"Sugars, total",g,--,--,4.00,23.53
Minerals
"Sodium, Na",mg,--,--,160,941
Vitamins
"Vitamin A, IU",IU,--,--,1015,5968
Lipids
Amino Acids
Other
Ingredients
"TOMATO CONCENTRATE, HIGH FRUCTOSE CORN SYRUP, VINEGAR, CORN SYRUP, SALT, ONION POWDER, SPICE, NATURAL FLAVORS." Date available: 06/24/2017 Date last updated by company: 06/24/2017
