Source: USDA Branded Food Products Database Release December 2017 Software v.3.8.6.4 2017-10-02
Report Run at: December 17, 2017 09:37 EST
"Nutrient data for: 45010738, FOOD CLUB, SKILLET CLASSICS, THREE CHEESE PASTA, UPC: 036800333819"
Food Group:  Branded Food Products Database
Common Name:

Nutrient,Unit,Data points,Std. Error,"1 CUP PREPARED | MAKES ABOUT = 34.0g",1Value per 100 g,
Proximates
"Energy",kcal,--,--,120,353
"Protein",g,--,--,4.00,11.76
"Total lipid (fat)",g,--,--,1.00,2.94
"Carbohydrate, by difference",g,--,--,24.00,70.59
"Fiber, total dietary",g,--,--,1.0,2.9
"Sugars, total",g,--,--,1.00,2.94
Minerals
"Calcium, Ca",mg,--,--,40,118
"Iron, Fe",mg,--,--,5.29,15.57
"Sodium, Na",mg,--,--,640,1882
Vitamins
"Vitamin C, total ascorbic acid",mg,--,--,0.0,0.0
"Vitamin A, IU",IU,--,--,0,0
Lipids
"Fatty acids, total saturated",g,--,--,0.500,1.470
"Fatty acids, total trans",g,--,--,0.000,0.000
"Cholesterol",mg,--,--,5,15
Amino Acids
Other
Ingredients
"ENRICHED MACARONI PRODUCT (SEMOLINA WHEAT FLOUR WITH NIACIN, IRON [FERROUS SULFATE], THIAMINE MONONITRATE, RIBOFLAVIN, FOLIC ACID), MALTODEXTRIN, CORN STARCH, CHEDDAR CHEESE (MILK, CHEESE CULTURE, SALT, ENZYMES), SALT, ENRICHED FLOUR (WHEAT FLOUR, NIACIN, IRON, THIAMINE MONONITRATE, RIBOFLAVIN, FOLIC ACID), CONTAINS 2% OR LESS OF: WHEY, MONOSODIUM GLUTAMATE, PARMESAN CHEESE (MILK, CHEESE CULTURE, SALT, ENZYMES), BUTTERMILK, DISODIUM PHOSPHATE, CITRIC ACID, NONFAT MILK, SODIUM HEXAMETAPHOSPHATE, BLUE CHEESE (CULTURED MILK, SALT, ENZYMES), COLOR (YELLOW 5, YELLOW 5 LAKE, YELLOW 6), REDUCED LACTOSE WHEY." Date available: 07/28/2017 Date last updated by company: 07/28/2017
