Source: USDA Branded Food Products Database Release December 2017 Software v.3.8.6.4 2017-10-02
Report Run at: December 17, 2017 10:09 EST
"Nutrient data for: 45163491, FOOD LION, GINGER SNAPS, UPC: 035826101389"
Food Group:  Branded Food Products Database
Common Name:

Nutrient,Unit,Data points,Std. Error,"4.0 COOKIES = 32.0g",1Value per 100 g,
Proximates
"Energy",kcal,--,--,140,438
"Protein",g,--,--,2.00,6.25
"Total lipid (fat)",g,--,--,4.00,12.50
"Carbohydrate, by difference",g,--,--,24.00,75.00
"Fiber, total dietary",g,--,--,1.0,3.1
"Sugars, total",g,--,--,11.00,34.38
Minerals
"Calcium, Ca",mg,--,--,40,125
"Iron, Fe",mg,--,--,2.81,8.79
"Sodium, Na",mg,--,--,125,391
Vitamins
"Vitamin C, total ascorbic acid",mg,--,--,0.0,0.0
"Vitamin A, IU",IU,--,--,0,0
Lipids
"Fatty acids, total saturated",g,--,--,0.499,1.560
"Fatty acids, total monounsaturated",g,--,--,0.998,3.120
"Fatty acids, total polyunsaturated",g,--,--,2.000,6.250
"Fatty acids, total trans",g,--,--,0.000,0.000
"Cholesterol",mg,--,--,0,0
Amino Acids
Other
Ingredients
"ENRICHED FLOUR (WHEAT FLOUR, NIACIN, REDUCED IRON, THIAMINE MONONITRATE, RIBOFLAVIN, FOLIC ACID), SUGAR, VEGETABLE OIL (CONTAINS ONE OR MORE OF THE FOLLOWING: CANOLA OIL, CORN OIL, PALM OIL, SOYBEAN OIL), MOLASSES, GINGER, LEAVENING (SODIUM BICARBONATE, MONOCALCIUM PHOSPHATE, AMMONIUM BICARBONATE), SALT, SOY LECITHIN (EMULSIFIER), CARAMEL COLOR." Date available: 07/14/2017 Date last updated by company: 07/14/2017
