Source: USDA Branded Food Products Database Release December 2017 Software v.3.8.6.4 2017-10-02
Report Run at: December 17, 2017 09:30 EST
"Nutrient data for: 45010758, FOOD CLUB, MASHED POTATOES, UPC: 036800515123"
Food Group:  Branded Food Products Database
Common Name:

Nutrient,Unit,Data points,Std. Error,"0.333 CUP FLAKES, MAKES ABOUT 2/3 CUP PREPARED = 19.0g",1Value per 100 g,
Proximates
"Energy",kcal,--,--,70,368
"Protein",g,--,--,2.00,10.53
"Total lipid (fat)",g,--,--,0.00,0.00
"Carbohydrate, by difference",g,--,--,15.00,78.95
"Fiber, total dietary",g,--,--,1.0,5.3
"Sugars, total",g,--,--,0.00,0.00
Minerals
"Calcium, Ca",mg,--,--,0,0
"Iron, Fe",mg,--,--,0.00,0.00
"Sodium, Na",mg,--,--,15,79
Vitamins
"Vitamin C, total ascorbic acid",mg,--,--,17.7,93.1
"Vitamin A, IU",IU,--,--,0,0
Lipids
"Fatty acids, total saturated",g,--,--,0.000,0.000
"Fatty acids, total trans",g,--,--,0.000,0.000
"Cholesterol",mg,--,--,0,0
Amino Acids
Other
Ingredients
"DEHYDRATED POTATO WITH EMULSIFIER (MONO- AND DIGLYCERIDES) AND PRESERVATIVE (SODIUM ACID PYROPHOSPHATE, SODIUM BISULFITE, CITRIC ACID)." Date available: 06/24/2017 Date last updated by company: 06/24/2017
