Source: USDA Branded Food Products Database Release December 2017 Software v.3.8.6.4 2017-10-02
Report Run at: December 17, 2017 10:20 EST
"Nutrient data for: 45173905, FOOD LION, MILD CHEDDAR CHEESE SLICES, UPC: 035826076113"
Food Group:  Branded Food Products Database
Common Name:

Nutrient,Unit,Data points,Std. Error,"1 SLICE = 23.0g",1Value per 100 g,
Proximates
"Energy",kcal,--,--,60,261
"Protein",g,--,--,5.00,21.74
"Total lipid (fat)",g,--,--,4.50,19.57
"Carbohydrate, by difference",g,--,--,0.00,0.00
"Fiber, total dietary",g,--,--,0.0,0.0
"Sugars, total",g,--,--,0.00,0.00
Minerals
"Calcium, Ca",mg,--,--,150,652
"Iron, Fe",mg,--,--,0.00,0.00
"Sodium, Na",mg,--,--,180,783
Vitamins
"Vitamin C, total ascorbic acid",mg,--,--,0.0,0.0
"Vitamin A, IU",IU,--,--,435,1891
Lipids
"Fatty acids, total saturated",g,--,--,2.999,13.040
"Fatty acids, total trans",g,--,--,0.000,0.000
"Cholesterol",mg,--,--,15,65
Amino Acids
Other
Ingredients
"PASTEURIZED PART-SKIM MILK, CHEESE CULTURE, SALT, ENZYMES AND ANNATTO (VEGETABLE COLOR), VITAMIN A PALMITATE" Date available: 07/14/2017 Date last updated by company: 07/14/2017
