Source: USDA Branded Food Products Database Release December 2017 Software v.3.8.6.4 2017-10-02
Report Run at: December 17, 2017 09:21 EST
"Nutrient data for: 45010948, FOOD CLUB, CREAM OF CELERY CONDENSED SOUP, UPC: 036800161139"
Food Group:  Branded Food Products Database
Common Name:

Nutrient,Unit,Data points,Std. Error,"0.5 cup = 125.0g",1Value per 100 g,
Proximates
"Energy",kcal,--,--,100,80
"Protein",g,--,--,2.00,1.60
"Total lipid (fat)",g,--,--,6.00,4.80
"Carbohydrate, by difference",g,--,--,10.00,8.00
"Fiber, total dietary",g,--,--,1.0,0.8
"Sugars, total",g,--,--,1.00,0.80
Minerals
"Calcium, Ca",mg,--,--,20,16
"Iron, Fe",mg,--,--,1.41,1.13
"Sodium, Na",mg,--,--,800,640
Vitamins
"Vitamin C, total ascorbic acid",mg,--,--,0.0,0.0
"Vitamin A, IU",IU,--,--,392,314
Lipids
"Fatty acids, total saturated",g,--,--,1.000,0.800
"Fatty acids, total trans",g,--,--,0.000,0.000
"Cholesterol",mg,--,--,0,0
Amino Acids
Other
Ingredients
"WATER, CELERY, WHEAT FLOUR, SOYBEAN OIL, CONTAINS LESS THAN 2% OF THE FOLLOWING INGREDIENTS: UNMODIFIED FOOD STARCH, SALT, MODIFIED CORN STARCH, WHEY, SUGAR, SOY PROTEIN CONCENTRATE, MONOSODIUM GLUTAMATE, CREAM SEASONING (DEXTROSE, MODIFIED CORN STARCH AND NATURAL FLAVORINGS), ONION POWDER, AUTOLYZED YEAST EXTRACT, OLEORESIN CELERY, OLEORESIN CARROT." Date available: 07/14/2017 Date last updated by company: 07/14/2017
