Source: USDA Branded Food Products Database Release December 2017 Software v.3.8.6.4 2017-10-02
Report Run at: December 17, 2017 10:09 EST
"Nutrient data for: 45237511, FOOD LION, GINGER SNAPS, UPC: 035826078407"
Food Group:  Branded Food Products Database
Common Name:

Nutrient,Unit,Data points,Std. Error,"4.0 COOKIES = 32.0g",1Value per 100 g,
Proximates
"Energy",kcal,--,--,140,438
"Protein",g,--,--,2.00,6.25
"Total lipid (fat)",g,--,--,3.00,9.38
"Carbohydrate, by difference",g,--,--,26.00,81.25
"Fiber, total dietary",g,--,--,1.0,3.1
"Sugars, total",g,--,--,12.00,37.50
Minerals
"Calcium, Ca",mg,--,--,40,125
"Iron, Fe",mg,--,--,2.25,7.03
"Sodium, Na",mg,--,--,150,469
Vitamins
"Vitamin C, total ascorbic acid",mg,--,--,0.0,0.0
"Vitamin A, IU",IU,--,--,0,0
Lipids
"Fatty acids, total saturated",g,--,--,0.499,1.560
"Fatty acids, total monounsaturated",g,--,--,0.998,3.120
"Fatty acids, total polyunsaturated",g,--,--,2.000,6.250
"Fatty acids, total trans",g,--,--,0.000,0.000
"Cholesterol",mg,--,--,0,0
Amino Acids
Other
Ingredients
"ENRICHED FLOUR (WHEAT FLOUR, NIACIN, REDUCED IRON, THIAMINE MONONITRATE, RIBOFLAVIN, FOLIC ACID), SUGAR, MOLASSES, VEGETABLE OIL (CONTAINS ONE OR MORE OF THE FOLLOWING: CANOLA OIL, CORN OIL, PALM OIL, SOYBEAN OIL), GINGER, SALT, LEAVENING (SODIUM BICARBONATE, MONOCALCIUM PHOSPHATE, AMMONIA BICARBONATE), CARAMEL COLOR, SOY LECITHIN (EMULSIFIER)." Date available: 07/14/2017 Date last updated by company: 07/14/2017
