Source: USDA Branded Food Products Database Release December 2017 Software v.3.8.6.4 2017-10-02
Report Run at: December 17, 2017 10:23 EST
"Nutrient data for: 45173220, FOOD LION, NAVY BEANS, UPC: 035826008404"
Food Group:  Branded Food Products Database
Common Name:

Nutrient,Unit,Data points,Std. Error,"0.25 cup = 49.0g",1Value per 100 g,
Proximates
"Energy",kcal,--,--,120,245
"Protein",g,--,--,9.00,18.37
"Total lipid (fat)",g,--,--,1.00,2.04
"Carbohydrate, by difference",g,--,--,30.00,61.22
"Fiber, total dietary",g,--,--,12.0,24.5
"Sugars, total",g,--,--,1.00,2.04
Minerals
"Calcium, Ca",mg,--,--,20,41
"Iron, Fe",mg,--,--,2.57,5.25
"Potassium, K",mg,--,--,430,878
"Sodium, Na",mg,--,--,10,20
Vitamins
"Vitamin C, total ascorbic acid",mg,--,--,0.0,0.0
"Vitamin A, IU",IU,--,--,0,0
Lipids
"Fatty acids, total saturated",g,--,--,0.000,0.000
"Fatty acids, total trans",g,--,--,0.000,0.000
"Cholesterol",mg,--,--,0,0
Amino Acids
Other
Ingredients
"NAVY BEANS." Date available: 07/14/2017 Date last updated by company: 07/14/2017
