Source: USDA Branded Food Products Database Release December 2017 Software v.3.8.6.4 2017-10-02
Report Run at: December 17, 2017 09:51 EST
"Nutrient data for: 45182043, FOOD LION, BROCCOLI CUTS, UPC: 035826005991"
Food Group:  Branded Food Products Database
Common Name:

Nutrient,Unit,Data points,Std. Error,"1 cup = 87.0g",1Value per 100 g,
Proximates
"Energy",kcal,--,--,30,34
"Protein",g,--,--,1.00,1.15
"Total lipid (fat)",g,--,--,0.00,0.00
"Carbohydrate, by difference",g,--,--,4.00,4.60
"Fiber, total dietary",g,--,--,2.0,2.3
"Sugars, total",g,--,--,2.00,2.30
Minerals
"Calcium, Ca",mg,--,--,20,23
"Iron, Fe",mg,--,--,0.00,0.00
"Sodium, Na",mg,--,--,20,23
Vitamins
"Vitamin C, total ascorbic acid",mg,--,--,29.3,33.7
"Vitamin A, IU",IU,--,--,97,112
Lipids
"Fatty acids, total saturated",g,--,--,0.000,0.000
"Fatty acids, total trans",g,--,--,0.000,0.000
"Cholesterol",mg,--,--,0,0
Amino Acids
Other
Ingredients
"BROCCOLI." Date available: 07/14/2017 Date last updated by company: 07/14/2017
