Source: USDA Branded Food Products Database Release December 2017 Software v.3.8.6.4 2017-10-02
Report Run at: December 17, 2017 09:54 EST
"Nutrient data for: 45195274, FOOD LION, CHEWY PROTEIN BAR, DARK CHOCOLATE PEANUT BUTTER, UPC: 035826087751"
Food Group:  Branded Food Products Database
Common Name:

Nutrient,Unit,Data points,Std. Error,"1 BAR = 40.0g",1Value per 100 g,
Proximates
"Energy",kcal,--,--,180,450
"Protein",g,--,--,10.00,25.00
"Total lipid (fat)",g,--,--,10.00,25.00
"Carbohydrate, by difference",g,--,--,17.00,42.50
"Fiber, total dietary",g,--,--,7.0,17.5
"Sugars, total",g,--,--,7.00,17.50
Minerals
"Calcium, Ca",mg,--,--,40,100
"Iron, Fe",mg,--,--,1.44,3.60
"Sodium, Na",mg,--,--,160,400
Vitamins
"Vitamin C, total ascorbic acid",mg,--,--,0.0,0.0
"Vitamin A, IU",IU,--,--,0,0
Lipids
"Fatty acids, total saturated",g,--,--,4.000,10.000
"Fatty acids, total trans",g,--,--,0.000,0.000
"Cholesterol",mg,--,--,0,0
Amino Acids
Other
Ingredients
"ISOLATED SOY PROTEINS (CONTAINS TAPIOCA STARCH, SALT), PEANUTS, DARK CHOCOLATE FLAVORED COATING (SUGAR, PALM KERNEL OIL, COCOA POWDER, WHOLE MILK POWDER, SOY LECITHIN-AN EMULSIFIER, SALT), FRUCTOOLIGOSACCHARIDES, PEANUT BUTTER, CHOCOLATE CHIPS (SUGAR, CHOCOLATE LIQUOR, COCOA BUTTER, SOY LECITHIN - AN EMULSIFIER, SALT, NATURAL FLAVOR), CORN SYRUP, CHICORY ROOT INULIN, CANOLA AND/OR SOYBEAN OIL, GLYCERIN, MALTODEXTRIN, WHEAT FLAKES, SOY LECITHIN - AN EMULSIFIER, SALT, DRIED UNSWEETENED COCONUT, ALMONDS, ASCORBIC ACID, CITRIC ACID, ROSEMARY EXTRACT, NATURAL FLAVOR." Date available: 07/14/2017 Date last updated by company: 07/14/2017
