Source: USDA Branded Food Products Database Release December 2017 Software v.3.8.6.4 2017-10-02
Report Run at: December 17, 2017 10:07 EST
"Nutrient data for: 45020096, FOOD LION, FRENCH ONION DIP, UPC: 035826081063"
Food Group:  Branded Food Products Database
Common Name:

Nutrient,Unit,Data points,Std. Error,"2.0 Tbsp = 33.0g",1Value per 100 g,
Proximates
"Energy",kcal,--,--,60,182
"Protein",g,--,--,1.00,3.03
"Total lipid (fat)",g,--,--,5.00,15.15
"Carbohydrate, by difference",g,--,--,3.00,9.09
"Fiber, total dietary",g,--,--,0.0,0.0
"Sugars, total",g,--,--,1.00,3.03
Minerals
"Calcium, Ca",mg,--,--,0,0
"Iron, Fe",mg,--,--,0.00,0.00
"Sodium, Na",mg,--,--,230,697
Vitamins
"Vitamin C, total ascorbic acid",mg,--,--,0.0,0.0
"Vitamin A, IU",IU,--,--,0,0
Lipids
"Fatty acids, total saturated",g,--,--,1.000,3.030
"Fatty acids, total trans",g,--,--,0.000,0.000
"Cholesterol",mg,--,--,5,15
Amino Acids
Other
Ingredients
"WATER, SOYBEAN OIL, WHEY PROTIEN CONCENTRATE, FOOD STARCH-MODIFIED, ONIONS, LESS THAN 2% OF SALT, SUGAR, MONOSODIUM GLUTAMATE, DEHYDRATED ONIONS, ENZYME MODIFIED EGG YOLKS (EGG YOLKS, SALT, PHOSPHOLIPASE), NATURAL FLAVOR, GLUCONO DELTA LACTOSE, DATEM, LACTIC ACID, SODIUM POLYPHOSPHATE, ZANTHAN GUM, CANOLA OIL, BROWN SUGAR, BUTTERMILK, CREAM, MALTODEXTRIN, YEAST EXTRACT, NONFAT MILK, SPICE, DISODIUM INOSINATE, DISODIUM GUANYLATE." Date available: 07/14/2017 Date last updated by company: 07/14/2017
