Source: USDA Branded Food Products Database Release December 2017 Software v.3.8.6.4 2017-10-02
Report Run at: December 17, 2017 10:53 EST
"Nutrient data for: 45249064, FOOD LION, ZOO COOKIES, UPC: 035826097187"
Food Group:  Branded Food Products Database
Common Name:

Nutrient,Unit,Data points,Std. Error,"9.0 COOKIES = 30.0g",1Value per 100 g,
Proximates
"Energy",kcal,--,--,130,433
"Protein",g,--,--,2.00,6.67
"Total lipid (fat)",g,--,--,4.00,13.33
"Carbohydrate, by difference",g,--,--,23.00,76.67
"Fiber, total dietary",g,--,--,1.0,3.3
"Sugars, total",g,--,--,7.00,23.33
Minerals
"Iron, Fe",mg,--,--,1.80,6.00
"Sodium, Na",mg,--,--,140,467
Vitamins
Lipids
"Fatty acids, total saturated",g,--,--,1.500,5.000
"Fatty acids, total monounsaturated",g,--,--,1.500,5.000
"Fatty acids, total polyunsaturated",g,--,--,0.501,1.670
"Fatty acids, total trans",g,--,--,0.000,0.000
"Cholesterol",mg,--,--,0,0
Amino Acids
Other
Ingredients
"ENRICHED FLOUR** (WHEAT FLOUR, NIACIN, REDUCED IRON, THIAMIN MONONITRATE [VITAMIN B1], RIBOFLAVIN [VITAMIN B2], FOLIC ACID), SUGAR, VEGETABLE OIL (CONTAINS ONE OR MORE OF THE FOLLOWING OILS: PALM, CANOLA, SOYBEAN WITH TBHQ FOR FRESHNESS), HIGH FRUCTOSE CORN SYRUP, CONTAINS TWO PERCENT OR LESS OF: SALT, CORN FLOUR, LEAVENING (BAKING SODA, CALCIUM PHOSPHATE), SOY LECITHIN* (EMULSIFIER), NATURAL AND ARTIFICIAL FLAVORS." Date available: 10/13/2017 Date last updated by company: 10/13/2017
