Source: USDA Branded Food Products Database Release December 2017 Software v.3.8.6.4 2017-10-02
Report Run at: December 17, 2017 09:25 EST
"Nutrient data for: 45010351, FOOD CLUB, GARLIC STYLE BREAD CRUMBS, UPC: 036800369313"
Food Group:  Branded Food Products Database
Common Name:

Nutrient,Unit,Data points,Std. Error,"0.25 cup = 36.0g",1Value per 100 g,
Proximates
"Energy",kcal,--,--,110,306
"Protein",g,--,--,4.00,11.11
"Total lipid (fat)",g,--,--,1.30,3.61
"Carbohydrate, by difference",g,--,--,21.00,58.33
"Fiber, total dietary",g,--,--,2.0,5.6
"Sugars, total",g,--,--,2.00,5.56
Minerals
"Calcium, Ca",mg,--,--,80,222
"Iron, Fe",mg,--,--,5.00,13.89
"Sodium, Na",mg,--,--,320,889
Vitamins
"Vitamin C, total ascorbic acid",mg,--,--,0.0,0.0
"Thiamin",mg,--,--,0.360,1.000
"Riboflavin",mg,--,--,0.170,0.472
"Niacin",mg,--,--,2.222,6.172
"Vitamin A, IU",IU,--,--,0,0
Lipids
"Fatty acids, total saturated",g,--,--,0.000,0.000
"Fatty acids, total trans",g,--,--,0.000,0.000
"Cholesterol",mg,--,--,0,0
Amino Acids
Other
Ingredients
"ENRICHED BREAD (ENRICHED WHEAT FLOUR, MALTED BARLEY, NIACIN, FERROUS SULFATE, THIAMIN MONONITRATE, RIBOFLAVIN, FOLIC ACID, WATER, HIGH FRUCTOSE CORN SYRUP, CORN SYRUP, PARTIALLY HYDROGENATED VEGETABLE OIL (SOYBEAN AND/OR COTTONSEED OIL AND/OR CANOLA AND CORN OILS)." Date available: 06/24/2017 Date last updated by company: 06/24/2017
