Source: USDA Branded Food Products Database Release December 2017 Software v.3.8.6.4 2017-10-02
Report Run at: December 17, 2017 09:45 EST
"Nutrient data for: 45034505, FOOD FOR LIFE, GLUTEN FREE BREAD, RAISIN PECAN, UPC: 073472001677"
Food Group:  Branded Food Products Database
Common Name:

Nutrient,Unit,Data points,Std. Error,"1 SLICE = 43.0g",1Value per 100 g,
Proximates
"Energy",kcal,--,--,120,279
"Protein",g,--,--,2.00,4.65
"Total lipid (fat)",g,--,--,3.50,8.14
"Carbohydrate, by difference",g,--,--,20.00,46.51
"Fiber, total dietary",g,--,--,1.0,2.3
"Sugars, total",g,--,--,4.00,9.30
Minerals
"Calcium, Ca",mg,--,--,0,0
"Iron, Fe",mg,--,--,0.42,0.98
"Phosphorus, P",mg,--,--,70,162
"Sodium, Na",mg,--,--,15,35
Vitamins
"Vitamin C, total ascorbic acid",mg,--,--,0.0,0.0
"Thiamin",mg,--,--,0.000,0.000
"Niacin",mg,--,--,0.000,0.000
"Vitamin B-6",mg,--,--,0.046,0.108
"Vitamin A, IU",IU,--,--,0,0
Lipids
"Fatty acids, total saturated",g,--,--,0.000,0.000
"Fatty acids, total trans",g,--,--,0.000,0.000
"Cholesterol",mg,--,--,0,0
Amino Acids
Other
Ingredients
"ORGANIC BROWN RICE FLOUR, FILTERED WATER, ORGANIC RAISINS, ORGANIC WHITE RICE FLOUR, ORGANIC AGAVE, PECAN MEAL, ORGANIC TAPIOCA FLOUR, SAFFLOWER OIL, ORGANIC CHIA SEEDS, FRESH YEAST, VEGETABLE GUM (XANTHAN, CELLULOSE), RICE BRAN, ARROW ROOT, HERBS." Date available: 07/14/2017 Date last updated by company: 07/14/2017
