Source: USDA Branded Food Products Database Release December 2017 Software v.3.8.6.4 2017-10-02
Report Run at: December 17, 2017 11:11 EST
"Nutrient data for: 45329907, FOUL MUDAMMAS, UPC: 052851031313"
Food Group:  Branded Food Products Database
Common Name:

Nutrient,Unit,Data points,Std. Error,"0.5 cup = 132.0g",1Value per 100 g,
Proximates
"Energy",kcal,--,--,110,83
"Protein",g,--,--,9.00,6.82
"Total lipid (fat)",g,--,--,0.50,0.38
"Carbohydrate, by difference",g,--,--,17.00,12.88
"Fiber, total dietary",g,--,--,5.9,4.5
"Sugars, total",g,--,--,0.00,0.00
Minerals
"Calcium, Ca",mg,--,--,40,30
"Iron, Fe",mg,--,--,1.41,1.07
"Sodium, Na",mg,--,--,290,220
Vitamins
"Vitamin C, total ascorbic acid",mg,--,--,0.0,0.0
"Vitamin A, IU",IU,--,--,0,0
Lipids
"Fatty acids, total saturated",g,--,--,0.000,0.000
"Fatty acids, total trans",g,--,--,0.000,0.000
"Cholesterol",mg,--,--,0,0
Amino Acids
Other
Ingredients
"FAVA BEANS, WATER, SALT AND DISODIUM EDTA (TO PROMOTE COLOR RETENTION)." Date available: 10/04/2017 Date last updated by company: 10/04/2017
