Source: USDA Branded Food Products Database Release December 2017 Software v.3.8.6.4 2017-10-02
Report Run at: December 17, 2017 11:18 EST
"Nutrient data for: 45167086, FOX POINT FARM, GOAT MILK CARAMELS, SALTED CHOCOLATE, UPC: 013189006787"
Food Group:  Branded Food Products Database
Common Name:

Nutrient,Unit,Data points,Std. Error,"3.0 PIECES = 35.0g",1Value per 100 g,
Proximates
"Energy",kcal,--,--,120,343
"Protein",g,--,--,1.00,2.86
"Total lipid (fat)",g,--,--,8.00,22.86
"Carbohydrate, by difference",g,--,--,11.00,31.43
"Fiber, total dietary",g,--,--,0.0,0.0
"Sugars, total",g,--,--,11.00,31.43
Minerals
"Calcium, Ca",mg,--,--,20,57
"Iron, Fe",mg,--,--,0.00,0.00
"Sodium, Na",mg,--,--,180,514
Vitamins
"Vitamin C, total ascorbic acid",mg,--,--,0.0,0.0
"Vitamin A, IU",IU,--,--,428,1224
Lipids
"Fatty acids, total saturated",g,--,--,5.002,14.290
"Fatty acids, total trans",g,--,--,0.000,0.000
"Cholesterol",mg,--,--,25,71
Amino Acids
Other
Ingredients
"SUGAR, GOAT MILK, CREAM, BUTTER, COCOA, SALT, VANILLA EXTRACT (VANILLA BEAN EXTRACTIVES IN WATER, ALCOHOL (35%), AND SUGAR), SOY LECITHIN." Date available: 07/14/2017 Date last updated by company: 07/14/2017
