Source: USDA Branded Food Products Database Release December 2017 Software v.3.8.6.4 2017-10-02
Report Run at: December 17, 2017 11:20 EST
"Nutrient data for: 45081026, FRA DIVAVOLO SPICY MARINARA, UPC: 769719113219"
Food Group:  Branded Food Products Database
Common Name:

Nutrient,Unit,Data points,Std. Error,"0.5 cup = 113.0g",1Value per 100 g,
Proximates
"Energy",kcal,--,--,70,62
"Protein",g,--,--,2.00,1.77
"Total lipid (fat)",g,--,--,4.99,4.42
"Carbohydrate, by difference",g,--,--,6.00,5.31
"Fiber, total dietary",g,--,--,2.0,1.8
"Sugars, total",g,--,--,4.99,4.42
Minerals
"Calcium, Ca",mg,--,--,40,35
"Iron, Fe",mg,--,--,1.90,1.68
"Sodium, Na",mg,--,--,250,221
Vitamins
"Vitamin C, total ascorbic acid",mg,--,--,9.5,8.4
"Vitamin A, IU",IU,--,--,792,701
Lipids
"Fatty acids, total saturated",g,--,--,0.497,0.440
"Fatty acids, total trans",g,--,--,0.000,0.000
"Cholesterol",mg,--,--,0,0
Amino Acids
Other
Ingredients
"100% NATURAL INGREDIENTS: IMPORTED ITALIAN TOMATOES, TOMATO PUREE, IMPORTED OLIVE OIL, FRESH GARLIC, PARSLEY, BASIL, FRESH ONIONS, SALT, CRUSHED RED PEPPERS, SPICES." Date available: 06/25/2017 Date last updated by company: 06/25/2017
