Source: USDA Branded Food Products Database Release December 2017 Software v.3.8.6.4 2017-10-02
Report Run at: December 17, 2017 11:20 EST
"Nutrient data for: 45195717, FRA DIAVOLO SAUCE, UPC: 041497278190"
Food Group:  Branded Food Products Database
Common Name:

Nutrient,Unit,Data points,Std. Error,"0.5 cup = 125.0g",1Value per 100 g,
Proximates
"Energy",kcal,--,--,90,72
"Protein",g,--,--,2.00,1.60
"Total lipid (fat)",g,--,--,5.00,4.00
"Carbohydrate, by difference",g,--,--,9.00,7.20
"Fiber, total dietary",g,--,--,1.0,0.8
"Sugars, total",g,--,--,5.00,4.00
Minerals
"Calcium, Ca",mg,--,--,20,16
"Iron, Fe",mg,--,--,0.38,0.30
"Sodium, Na",mg,--,--,380,304
Vitamins
"Vitamin C, total ascorbic acid",mg,--,--,9.5,7.6
"Vitamin A, IU",IU,--,--,211,169
Lipids
"Fatty acids, total saturated",g,--,--,0.000,0.000
"Fatty acids, total trans",g,--,--,0.000,0.000
"Cholesterol",mg,--,--,0,0
Amino Acids
Other
Ingredients
"IMPORTED TOMATOES, TOMATO PUREE (WATER, TOMATO PASTE), CANOLA OIL, FRESH GARLIC, FRESH ONION, SUGAR, OLIVE OIL, FOOD STARCH, SALT, CRUSHED RED PEPPERS, SPICES, FRESH BASIL." Date available: 07/14/2017 Date last updated by company: 07/14/2017
