Source: USDA Branded Food Products Database Release December 2017 Software v.3.8.6.4 2017-10-02
Report Run at: December 17, 2017 11:34 EST
"Nutrient data for: 45121592, FRANKS CHICAGO'S HOT DOG, UPC: 070723013755"
Food Group:  Branded Food Products Database
Common Name:

Nutrient,Unit,Data points,Std. Error,"1 FRANK = 45.0g",1Value per 100 g,
Proximates
"Energy",kcal,--,--,110,244
"Protein",g,--,--,6.00,13.33
"Total lipid (fat)",g,--,--,10.00,22.22
"Carbohydrate, by difference",g,--,--,1.00,2.22
"Fiber, total dietary",g,--,--,0.0,0.0
"Sugars, total",g,--,--,1.00,2.22
Minerals
"Calcium, Ca",mg,--,--,0,0
"Iron, Fe",mg,--,--,0.88,1.96
"Sodium, Na",mg,--,--,380,844
Vitamins
"Vitamin C, total ascorbic acid",mg,--,--,0.0,0.0
"Vitamin A, IU",IU,--,--,0,0
Lipids
"Fatty acids, total saturated",g,--,--,4.000,8.890
"Fatty acids, total trans",g,--,--,0.000,0.000
"Cholesterol",mg,--,--,25,56
Amino Acids
Other
Ingredients
"BEEF, WATER, SALT, SUGAR, DEXTROSE, MUSTARD, FLAVORINGS AND COLORINGS, GARLIC JUICE (GARLIC JUICE, SALT), SODIUM ERYTHORBATE, SODIUM NITRITE." Date available: 07/14/2017 Date last updated by company: 07/14/2017
