Source: USDA Branded Food Products Database Release December 2017 Software v.3.8.6.4 2017-10-02
Report Run at: December 17, 2017 11:33 EST
"Nutrient data for: 45205749, FRANKIE V'S KNCHEN, CREAMY SERRANO HOT SAUCE, UPC: 804879566021"
Food Group:  Branded Food Products Database
Common Name:

Nutrient,Unit,Data points,Std. Error,"1 Tbsp = 14.0g",1Value per 100 g,
Proximates
"Energy",kcal,--,--,5,36
"Protein",g,--,--,0.00,0.00
"Total lipid (fat)",g,--,--,0.00,0.00
"Carbohydrate, by difference",g,--,--,1.00,7.14
Minerals
"Sodium, Na",mg,--,--,25,179
Vitamins
"Vitamin C, total ascorbic acid",mg,--,--,4.1,29.0
"Vitamin A, IU",IU,--,--,338,2414
Lipids
Amino Acids
Other
Ingredients
"COCONUT MILK* (WATER, COCONUT MILK POWDER*, TAPIOCA MALTODEXTRIN*), TOMATILLS*, SERRANO PEPPERS*, LIME JUICE*, GREEN ONION*, GARLIC*, CILANTRO*, GARLIC POWDER*, WHITE PEPPER*, SALT, GUAR GUM*, CITRIC ACID." Date available: 07/14/2017 Date last updated by company: 07/14/2017
