Source: USDA Branded Food Products Database Release December 2017 Software v.3.8.6.4 2017-10-02
Report Run at: December 17, 2017 11:37 EST
"Nutrient data for: 45201967, FRANKS, UPC: 070100016379"
Food Group:  Branded Food Products Database
Common Name:

Nutrient,Unit,Data points,Std. Error,"1 FRANK = 45.0g",1Value per 100 g,
Proximates
"Energy",kcal,--,--,150,333
"Protein",g,--,--,4.00,8.89
"Total lipid (fat)",g,--,--,13.00,28.89
"Carbohydrate, by difference",g,--,--,4.00,8.89
"Fiber, total dietary",g,--,--,0.0,0.0
"Sugars, total",g,--,--,3.00,6.67
Minerals
"Calcium, Ca",mg,--,--,20,44
"Iron, Fe",mg,--,--,0.44,0.98
"Sodium, Na",mg,--,--,550,1222
Vitamins
"Vitamin C, total ascorbic acid",mg,--,--,0.0,0.0
"Vitamin A, IU",IU,--,--,0,0
Lipids
"Fatty acids, total saturated",g,--,--,4.500,10.000
"Fatty acids, total trans",g,--,--,0.000,0.000
"Cholesterol",mg,--,--,35,78
Amino Acids
Other
Ingredients
"MECHANICALLY SEPARATED CHICKEN, PORK, WATER, CORN SYRUP, MODIFIED FOOD STARCH, CONTAINS 2% OR LESS OF SALT, FLAVORING, POTASSIUM LACTATE, SODIUM LACTATE, SODIUM PHOSPHATES, DEXTROSE, SODIUM DIACETATE, BEEF, SODIUM ERYTHORBATE, SUGAR, SODIUM NITRITE, SORBITOL, EXTRACT OF PAPRIKA." Date available: 07/14/2017 Date last updated by company: 07/14/2017
