Source: USDA Branded Food Products Database Release December 2017 Software v.3.8.6.4 2017-10-02
Report Run at: December 17, 2017 11:21 EST
"Nutrient data for: 45170139, FRANCESCA DI MONTE, BIANCO DOLCE SWEET WHITE WINE VINEGAR, UPC: 876314000476"
Food Group:  Branded Food Products Database
Common Name:

Nutrient,Unit,Data points,Std. Error,"1 Tbsp = 15.0g",1Value per 100 g,
Proximates
"Energy",kcal,--,--,10,67
"Protein",g,--,--,0.10,0.67
"Total lipid (fat)",g,--,--,0.00,0.00
"Carbohydrate, by difference",g,--,--,1.80,12.00
"Sugars, total",g,--,--,1.80,12.00
Minerals
"Sodium, Na",mg,--,--,0,0
Vitamins
Lipids
"Fatty acids, total trans",g,--,--,0.000,0.000
Amino Acids
Other
Ingredients
"WHITE WINE VINEGAR, CONCENTRATED GRAPE MUST." Date available: 07/14/2017 Date last updated by company: 07/14/2017
