Source: USDA Branded Food Products Database Release December 2017 Software v.3.8.6.4 2017-10-02
Report Run at: December 17, 2017 11:30 EST
"Nutrient data for: 45222644, FRANKFORD, NICKELODEON, PAW PATROL WITH GUMMY HEARTS, UPC: 041376501425"
Food Group:  Branded Food Products Database
Common Name:

Nutrient,Unit,Data points,Std. Error,"1 PACKAGE = 57.0g",1Value per 100 g,
Proximates
"Energy",kcal,--,--,190,333
"Protein",g,--,--,3.00,5.26
"Total lipid (fat)",g,--,--,0.00,0.00
"Carbohydrate, by difference",g,--,--,44.00,77.19
"Sugars, total",g,--,--,27.00,47.37
Minerals
"Sodium, Na",mg,--,--,0,0
Vitamins
Lipids
Amino Acids
Other
Ingredients
"GLUCOSE SYRUP, SUGAR, GELATIN, SORBITOL, MODIFIED CORN STARCH, CITRIC ACID, AGAR, MALIC ACID, ARTIFICIAL FLAVOR, GLAZING AGENT (COCONUT OIL, CARNAUBA WAX, VITAMIN E, CITRIC ACID), SODIUM CITRATE, ARTIFICIAL COLORS (RED 40, TITANIUM DIOXIDE)." Date available: 07/14/2017 Date last updated by company: 07/14/2017
