Source: USDA Branded Food Products Database Release December 2017 Software v.3.8.6.4 2017-10-02
Report Run at: December 17, 2017 11:23 EST
"Nutrient data for: 45029027, FRANCESE GOURMET COOKING SAUCE, UPC: 076050170116"
Food Group:  Branded Food Products Database
Common Name:

Nutrient,Unit,Data points,Std. Error,"0.5 cup = 116.0g",1Value per 100 g,
Proximates
"Energy",kcal,--,--,140,121
"Protein",g,--,--,1.00,0.86
"Total lipid (fat)",g,--,--,13.00,11.21
"Carbohydrate, by difference",g,--,--,4.00,3.45
"Fiber, total dietary",g,--,--,0.0,0.0
"Sugars, total",g,--,--,0.00,0.00
Minerals
"Calcium, Ca",mg,--,--,0,0
"Iron, Fe",mg,--,--,0.00,0.00
"Sodium, Na",mg,--,--,450,388
Vitamins
"Vitamin C, total ascorbic acid",mg,--,--,1.9,1.6
"Vitamin A, IU",IU,--,--,152,131
Lipids
"Fatty acids, total saturated",g,--,--,5.997,5.170
"Fatty acids, total trans",g,--,--,0.000,0.000
"Cholesterol",mg,--,--,26,22
Amino Acids
Other
Ingredients
"WATER, WHITE WINE (CONTAINS SULFITES), BUTTER, EXTRA VIRGIN OLIVE OIL, FOOD STARCH, NATURAL FLAVORS, LEMON JUICE CONCENTRATE, SALT, PARSLEY, XANTHAN GUM, GUAR GUM." Date available: 06/24/2017 Date last updated by company: 06/24/2017
