Source: USDA Branded Food Products Database Release December 2017 Software v.3.8.6.4 2017-10-02
Report Run at: December 17, 2017 11:39 EST
"Nutrient data for: 45100010, FRAN'S, GRAY SALT CARAMELS IN DARK CHCOCOLATE, UPC: 749668221043"
Food Group:  Branded Food Products Database
Common Name:

Nutrient,Unit,Data points,Std. Error,"1 PIECE = 9.0g",1Value per 100 g,
Proximates
"Energy",kcal,--,--,45,500
"Protein",g,--,--,0.00,0.00
"Total lipid (fat)",g,--,--,2.00,22.22
"Carbohydrate, by difference",g,--,--,6.00,66.67
"Fiber, total dietary",g,--,--,0.0,0.0
"Sugars, total",g,--,--,4.00,44.44
Minerals
"Calcium, Ca",mg,--,--,0,0
"Iron, Fe",mg,--,--,0.00,0.00
"Sodium, Na",mg,--,--,5,56
Vitamins
"Vitamin C, total ascorbic acid",mg,--,--,0.0,0.0
"Vitamin A, IU",IU,--,--,0,0
Lipids
"Fatty acids, total saturated",g,--,--,1.500,16.670
"Fatty acids, total trans",g,--,--,0.000,0.000
"Cholesterol",mg,--,--,5,56
Amino Acids
Other
Ingredients
"DARK CHOCOLATE (COCOA BEANS, SUGAR, COCOA BUTTER, SOY LECITHIN, VANILLA), ORGANIC TAPIOCA SYRUP, ORGANIC BUTTER (SWEET CREAM [MILK]), VANILLA EXTRACT, ORGANIC LEMON JUICE, SEA SALT." Date available: 07/14/2017 Date last updated by company: 07/14/2017
