Source: USDA Branded Food Products Database Release December 2017 Software v.3.8.6.4 2017-10-02
Report Run at: December 17, 2017 11:43 EST
"Nutrient data for: 45165211, FRED'S, WAFERS, VANILLA, UPC: 084579127016"
Food Group:  Branded Food Products Database
Common Name:

Nutrient,Unit,Data points,Std. Error,"9.0 COOKIES = 32.0g",1Value per 100 g,
Proximates
"Energy",kcal,--,--,140,438
"Protein",g,--,--,1.00,3.12
"Total lipid (fat)",g,--,--,4.00,12.50
"Carbohydrate, by difference",g,--,--,25.00,78.12
"Fiber, total dietary",g,--,--,1.0,3.1
"Sugars, total",g,--,--,12.00,37.50
Minerals
"Calcium, Ca",mg,--,--,0,0
"Iron, Fe",mg,--,--,1.13,3.52
"Sodium, Na",mg,--,--,120,375
Vitamins
"Vitamin C, total ascorbic acid",mg,--,--,0.0,0.0
"Vitamin A, IU",IU,--,--,0,0
Lipids
"Fatty acids, total saturated",g,--,--,1.501,4.690
"Fatty acids, total monounsaturated",g,--,--,1.501,4.690
"Fatty acids, total polyunsaturated",g,--,--,0.998,3.120
"Fatty acids, total trans",g,--,--,0.000,0.000
"Cholesterol",mg,--,--,0,0
Amino Acids
Other
Ingredients
"ENRICHED FLOUR (WHEAT FLOUR, NIACIN, REDUCED IRON, THIAMIN MONONITRATE [VITAMIN B1], RIBOFLAVIN [VITAMIN B2], FOLIC ACID), SUGAR, VEGETABLE OIL (CONTAINS ONE OR MORE OF THE FOLLOWING: CANOLA, PALM, SOYBEAN WITH TBHQ FOR FRESHNESS), CONTAINS TWO PERCENT OR LESS OF: WHEY (FROM MILK), EGGS[caret], NATURAL AND ARTIFICIAL FLAVORS, SALT, BAKING SODA, SOY LECITHIN (EMULSIFIER)." Date available: 07/14/2017 Date last updated by company: 07/14/2017
