Source: USDA Branded Food Products Database Release December 2017 Software v.3.8.6.4 2017-10-02
Report Run at: December 17, 2017 11:41 EST
"Nutrient data for: 45171414, FRED MEYER, COTTAGE CHEESE, UPC: 011110449962"
Food Group:  Branded Food Products Database
Common Name:

Nutrient,Unit,Data points,Std. Error,"0.5 cup = 113.0g",1Value per 100 g,
Proximates
"Energy",kcal,--,--,80,71
"Protein",g,--,--,15.00,13.27
"Total lipid (fat)",g,--,--,0.00,0.00
"Carbohydrate, by difference",g,--,--,4.99,4.42
"Fiber, total dietary",g,--,--,0.0,0.0
"Sugars, total",g,--,--,2.99,2.65
Minerals
"Calcium, Ca",mg,--,--,60,53
"Iron, Fe",mg,--,--,0.00,0.00
"Sodium, Na",mg,--,--,390,345
Vitamins
"Vitamin C, total ascorbic acid",mg,--,--,0.0,0.0
"Vitamin A, IU",IU,--,--,194,172
Lipids
"Fatty acids, total saturated",g,--,--,0.000,0.000
"Fatty acids, total trans",g,--,--,0.000,0.000
"Cholesterol",mg,--,--,10,9
Amino Acids
Other
Ingredients
"CULTURED SKIM MILK, WHEY, SALT, MODIFIED CORN STARCH, CULTURED DEXTROSE, TITANIUM DIOXIDE (COLOR), GUAR GUM, SORBIC ACID (TO PRESERVE FRESHNESS), LOCUST BEAN GUM, LACTIC ACID, CARRAGEENAN, POLYSORBATE 80, VITAMIN A PALMITATE." Date available: 07/14/2017 Date last updated by company: 07/14/2017
