Source: USDA Branded Food Products Database Release December 2017 Software v.3.8.6.4 2017-10-02
Report Run at: December 17, 2017 11:42 EST
"Nutrient data for: 45171411, FRED MEYER, LARGE CURD COTTAGE CHEESE, UPC: 011110449931"
Food Group:  Branded Food Products Database
Common Name:

Nutrient,Unit,Data points,Std. Error,"0.5 cup = 113.0g",1Value per 100 g,
Proximates
"Energy",kcal,--,--,110,97
"Protein",g,--,--,12.00,10.62
"Total lipid (fat)",g,--,--,4.99,4.42
"Carbohydrate, by difference",g,--,--,4.99,4.42
"Fiber, total dietary",g,--,--,0.0,0.0
"Sugars, total",g,--,--,4.00,3.54
Minerals
"Calcium, Ca",mg,--,--,80,71
"Iron, Fe",mg,--,--,0.35,0.31
"Potassium, K",mg,--,--,99,88
"Sodium, Na",mg,--,--,380,336
Vitamins
"Vitamin C, total ascorbic acid",mg,--,--,1.1,1.0
"Vitamin A, IU",IU,--,--,194,172
Lipids
"Fatty acids, total saturated",g,--,--,2.994,2.650
"Fatty acids, total trans",g,--,--,0.000,0.000
"Cholesterol",mg,--,--,20,18
Amino Acids
Other
Ingredients
"CULTURED SKIM MILK, CULTURED CREAM, WHEY, SALT, POTASSIUM CHLORIDE, MALTODEXTRIN, CITRIC ACID, CARRAGEENAN, GUAR GUM, LOCUST BEAN GUM, CULTURED DEXTROSE, SORBIC ACID (TO MAINTAIN FRESHNESS), NATURAL FLAVORS." Date available: 07/14/2017 Date last updated by company: 07/14/2017
