Source: USDA Branded Food Products Database Release December 2017 Software v.3.8.6.4 2017-10-02
Report Run at: December 17, 2017 11:46 EST
"Nutrient data for: 45258524, FREE-RANGE TURKEY SNACK STICKS, UPC: 859154005016"
Food Group:  Branded Food Products Database
Common Name:

Nutrient,Unit,Data points,Std. Error,"1.7 ONZ = 48.0g",1Value per 100 g,
Proximates
"Energy",kcal,--,--,75,156
"Protein",g,--,--,10.00,20.83
"Total lipid (fat)",g,--,--,3.00,6.25
"Carbohydrate, by difference",g,--,--,0.00,0.00
"Fiber, total dietary",g,--,--,0.0,0.0
"Sugars, total",g,--,--,0.00,0.00
Minerals
"Calcium, Ca",mg,--,--,70,146
"Iron, Fe",mg,--,--,1.31,2.73
"Sodium, Na",mg,--,--,385,802
Vitamins
"Vitamin C, total ascorbic acid",mg,--,--,0.0,0.0
"Vitamin A, IU",IU,--,--,0,0
Lipids
"Fatty acids, total saturated",g,--,--,0.998,2.080
"Fatty acids, total trans",g,--,--,0.000,0.000
"Cholesterol",mg,--,--,33,69
Amino Acids
Other
Ingredients
"TURKEY, WATER, REDMOND SEASONED SALT (SEA SALT, ONION, CORIANDER, SPICES, MUSTARD, BLACK PEPPER, PAPRIKA, HERBS), LACTIC ACID, CELERY JUICE." Date available: 07/14/2017 Date last updated by company: 07/14/2017
