Source: USDA Branded Food Products Database Release December 2017 Software v.3.8.6.4 2017-10-02
Report Run at: December 17, 2017 11:55 EST
"Nutrient data for: 45043193, FREEZE & SERVE POPS!, UPC: 072392930968"
Food Group:  Branded Food Products Database
Common Name:

Nutrient,Unit,Data points,Std. Error,"1 POP = 43.0g",1Value per 100 g,
Proximates
"Energy",kcal,--,--,20,47
"Protein",g,--,--,0.00,0.00
"Total lipid (fat)",g,--,--,0.00,0.00
"Carbohydrate, by difference",g,--,--,5.00,11.63
"Sugars, total",g,--,--,5.00,11.63
Minerals
"Sodium, Na",mg,--,--,0,0
Vitamins
Lipids
Amino Acids
Other
Ingredients
"WATER, HIGH FRUCTOSE CORN SYRUP, CONTAINS 2% OR LESS OF THE FOLLOWING: APPLE AND PEAR JUICE FROM CONCENTRATE, CITRIC ACID, NATURAL AND ARTIFICIAL FLAVORS, SODIUM BENZOATE AND POTASSIUM SORBATE (PRESERVATIVES), RED 40, YELLOW 5, YELLOW 6, BLUE 1." Date available: 10/13/2017 Date last updated by company: 10/13/2017
