Source: USDA Branded Food Products Database Release December 2017 Software v.3.8.6.4 2017-10-02
Report Run at: December 17, 2017 11:47 EST
"Nutrient data for: 45330544, FREEZE - DRIED APPLE SLICES, UPC: 604485203101"
Food Group:  Branded Food Products Database
Common Name:

Nutrient,Unit,Data points,Std. Error,"1 BOTTLE = 28.0g",1Value per 100 g,
Proximates
"Energy",kcal,--,--,102,364
"Protein",g,--,--,0.00,0.00
"Total lipid (fat)",g,--,--,0.00,0.00
"Carbohydrate, by difference",g,--,--,25.00,89.29
"Fiber, total dietary",g,--,--,4.0,14.3
"Sugars, total",g,--,--,19.00,67.86
Minerals
"Calcium, Ca",mg,--,--,8,29
"Iron, Fe",mg,--,--,1.00,3.57
"Potassium, K",mg,--,--,30,107
"Sodium, Na",mg,--,--,111,396
Vitamins
"Vitamin D",IU,--,--,0,0
Lipids
"Fatty acids, total saturated",g,--,--,0.000,0.000
"Fatty acids, total trans",g,--,--,0.000,0.000
"Cholesterol",mg,--,--,0,0
Amino Acids
Other
Ingredients
"FUJI APPLES WITH PEEL (TREATED WITH ASCORBIC ACID, CITRIC ACID & SODIUM CHLORIDE TO RETAIN COLOR.)" Date available: 10/13/2017 Date last updated by company: 10/13/2017
