Source: USDA Branded Food Products Database Release December 2017 Software v.3.8.6.4 2017-10-02
Report Run at: December 17, 2017 11:53 EST
"Nutrient data for: 45319146, FREEZER BARS, UPC: 072392606979"
Food Group:  Branded Food Products Database
Common Name:

Nutrient,Unit,Data points,Std. Error,"1 BAR = 43.0g",1Value per 100 g,
Proximates
"Energy",kcal,--,--,25,58
"Protein",g,--,--,0.00,0.00
"Total lipid (fat)",g,--,--,0.00,0.00
"Carbohydrate, by difference",g,--,--,6.00,13.95
"Sugars, total",g,--,--,5.00,11.63
Minerals
"Sodium, Na",mg,--,--,0,0
Vitamins
Lipids
Amino Acids
Other
Ingredients
"WATER, APPLE JUICE FROM CONCENTRATE, CONTAINS 2% OR LESS OF THE FOLLOWING: MALTODEXTRIN, CITRIC ACID, NATURAL FLAVORS, SODIUM BENZOATE AND POTASSIUM SORBATE (PRESERVATIVES), STEVIA EXTRACT." Date available: 10/13/2017 Date last updated by company: 10/13/2017
