Source: USDA Branded Food Products Database Release December 2017 Software v.3.8.6.4 2017-10-02
Report Run at: December 17, 2017 12:15 EST
"Nutrient data for: 45060895, FRENCH ONION WITH BACON DIP, UPC: 026700129087"
Food Group:  Branded Food Products Database
Common Name:

Nutrient,Unit,Data points,Std. Error,"2.0 Tbsp = 30.0g",1Value per 100 g,
Proximates
"Energy",kcal,--,--,60,200
"Protein",g,--,--,1.00,3.33
"Total lipid (fat)",g,--,--,5.00,16.67
"Carbohydrate, by difference",g,--,--,3.00,10.00
"Fiber, total dietary",g,--,--,0.0,0.0
"Sugars, total",g,--,--,2.00,6.67
Minerals
"Calcium, Ca",mg,--,--,40,133
"Iron, Fe",mg,--,--,0.00,0.00
"Sodium, Na",mg,--,--,250,833
Vitamins
"Vitamin C, total ascorbic acid",mg,--,--,0.0,0.0
"Vitamin A, IU",IU,--,--,0,0
Lipids
"Fatty acids, total saturated",g,--,--,2.499,8.330
"Fatty acids, total trans",g,--,--,0.000,0.000
"Cholesterol",mg,--,--,0,0
Amino Acids
Other
Ingredients
"SKIM MILK, WHEY (MILK), PALM OIL, WATER, CONTAINS LESS THAN 2% OF ONION*, SALT, BACON ([CURED WITH WATER, SALT, SUGAR, SODIUM PHOSPHATES, SODIUM ERYTHORBATE, SODIUM NITRITE], SMOKE FLAVORING), SUGAR, FOOD STARCH-MODIFIED, LACTIC ACID, GELATIN, CITRIC ACID, NATURAL AND ARTIFICIAL FLAVORS, HYDROLYZED SOY AND CORN PROTEIN, POTASSIUM SORBATE (TO PRESERVE FRESHNESS), DEXTROSE, SODIUM HEXAMETAPHOSPHATE, LOCUST BEAN GUM, MONOSODIUM GLUTAMATE, HYDROLYZED TORULA AND BREWERS YEAST PROTEIN, DISODIUM INOSINATE, DISODIUM GUANYLATE, AUTOLYZED YEAST EXTRACT, HYDROLYZED CORN GLUTEN, GUAR GUM, SOY LECITHIN, CARRAGEENAN, ACETIC ACID, YELLOW 5 & 6." Date available: 07/14/2017 Date last updated by company: 07/14/2017
