Source: USDA Branded Food Products Database Release December 2017 Software v.3.8.6.4 2017-10-02
Report Run at: December 17, 2017 12:32 EST
"Nutrient data for: 45264622, FRENCH TWIRL, UPC: 012900003302"
Food Group:  Branded Food Products Database
Common Name:

Nutrient,Unit,Data points,Std. Error,"1 TWIRL = 57.0g",1Value per 100 g,
Proximates
"Energy",kcal,--,--,310,544
"Protein",g,--,--,2.00,3.51
"Total lipid (fat)",g,--,--,20.00,35.09
"Carbohydrate, by difference",g,--,--,29.00,50.88
"Fiber, total dietary",g,--,--,1.0,1.8
"Sugars, total",g,--,--,15.00,26.32
Minerals
"Calcium, Ca",mg,--,--,0,0
"Iron, Fe",mg,--,--,0.70,1.22
"Sodium, Na",mg,--,--,95,167
Vitamins
"Vitamin C, total ascorbic acid",mg,--,--,0.0,0.0
"Vitamin A, IU",IU,--,--,0,0
Lipids
"Fatty acids, total saturated",g,--,--,9.998,17.540
"Fatty acids, total trans",g,--,--,0.000,0.000
"Cholesterol",mg,--,--,0,0
Amino Acids
Other
Ingredients
"VEGETABLE SHORTENING (PALM OIL, HYDROGENATED SOYBEAN, SOYBEAN OIL, HYDROGENATED PALM OIL, MONO AND DIGLYCERIDES, POLYSORBATE 60, TBHQ AND CITRIC ACID ADDED TO PRESERVE FLAVOR), SUGAR, BLEACHED ENRICHED FLOUR (WHEAT FLOUR, MALTED BARLEY FLOUR, NIACIN, REDUCED IRON, THIAMINE MONONITRATE, RIBOFLAVIN, FOLIC ACID), WATER, CONTAINS 2% OR LESS OF EACH OF THE FOLLOWING: ANNATTO COLOR, GUAR GUM, MODIFIED-POTATO STARCH, MODIFIED-CORN STARCH, NATURAL & ARTIFICIAL VANILLA FLAVOR, POLYSORBATE 60 (EMULSIFIER), SALT, SODIUM PROPIONATE (PRESERVATIVE)." Date available: 07/14/2017 Date last updated by company: 07/14/2017
