Source: USDA Branded Food Products Database Release December 2017 Software v.3.8.6.4 2017-10-02
Report Run at: December 17, 2017 12:28 EST
"Nutrient data for: 45328700, FRENCH STYLE GREEN BEANS, UPC: 037100033256"
Food Group:  Branded Food Products Database
Common Name:

Nutrient,Unit,Data points,Std. Error,"0.5 cup = 120.0g",1Value per 100 g,
Proximates
"Energy",kcal,--,--,20,17
"Protein",g,--,--,1.00,0.83
"Total lipid (fat)",g,--,--,0.00,0.00
"Carbohydrate, by difference",g,--,--,4.00,3.33
"Fiber, total dietary",g,--,--,2.0,1.7
"Sugars, total",g,--,--,2.00,1.67
Minerals
"Calcium, Ca",mg,--,--,20,17
"Iron, Fe",mg,--,--,0.78,0.65
"Sodium, Na",mg,--,--,290,242
Vitamins
"Vitamin C, total ascorbic acid",mg,--,--,3.8,3.2
"Vitamin A, IU",IU,--,--,216,180
Lipids
Amino Acids
Other
Ingredients
"GREEN BEANS, WATER AND SALT." Date available: 10/13/2017 Date last updated by company: 10/13/2017
