Source: USDA Branded Food Products Database Release December 2017 Software v.3.8.6.4 2017-10-02
Report Run at: December 17, 2017 12:21 EST
"Nutrient data for: 45192690, FRENCH SILK PIE, UPC: 815360012446"
Food Group:  Branded Food Products Database
Common Name:

Nutrient,Unit,Data points,Std. Error,"0.2 PIE = 130.0g",1Value per 100 g,
Proximates
"Energy",kcal,--,--,550,423
"Protein",g,--,--,5.00,3.85
"Total lipid (fat)",g,--,--,40.00,30.77
"Carbohydrate, by difference",g,--,--,44.01,33.85
"Fiber, total dietary",g,--,--,1.0,0.8
"Sugars, total",g,--,--,29.00,22.31
Minerals
"Calcium, Ca",mg,--,--,20,15
"Iron, Fe",mg,--,--,1.38,1.06
"Sodium, Na",mg,--,--,110,85
Vitamins
"Vitamin C, total ascorbic acid",mg,--,--,0.0,0.0
"Vitamin A, IU",IU,--,--,722,555
Lipids
"Fatty acids, total saturated",g,--,--,24.999,19.230
"Fatty acids, total trans",g,--,--,0.000,0.000
"Cholesterol",mg,--,--,146,112
Amino Acids
Other
Ingredients
"SUGAR, PALM OIL, EGGS, ENRICHED FLOUR (FLOUR, NIACIN, REDUCED IRON, THIAMINE MONONITRATE, RIBOFLAVIN, FOLIC ACID), BUTTER, WATER, FUDGE ICING, HIGH FRUCTOSE CORN SYRUP, CONTAINS LESS THAN 2% OF: CHOCOLATE LIQUOR (PROCESSED WITH ALKALI), DEXTROSE, SODIUM CASEINATE (A MILK DERIVATIVE), COCOA BUTTER, NATURAL AND ARTIFICIAL FLAVORS, SALT, POLYSORBATE 60, SORBITAN MONOSTEARATE, XANTHAN GUM, FOOD STARCH - MODIFIED, GUAR GUM, BETA CAROTENE (COLOR), SOY LECITHIN, APPLE CIDER VINEGAR, CALCIUM PROPIONATE." Date available: 07/14/2017 Date last updated by company: 07/14/2017
