Source: USDA Branded Food Products Database Release December 2017 Software v.3.8.6.4 2017-10-02
Report Run at: December 17, 2017 12:16 EST
"Nutrient data for: 45209524, FRENCH POTATOES STEAK FRIES, UPC: 021140023872"
Food Group:  Branded Food Products Database
Common Name:

Nutrient,Unit,Data points,Std. Error,"10.0 PIECES | ABOUT = 84.0g",1Value per 100 g,
Proximates
"Energy",kcal,--,--,110,131
"Protein",g,--,--,2.00,2.38
"Total lipid (fat)",g,--,--,3.00,3.57
"Carbohydrate, by difference",g,--,--,18.00,21.43
"Fiber, total dietary",g,--,--,2.0,2.4
"Sugars, total",g,--,--,1.00,1.19
Minerals
"Calcium, Ca",mg,--,--,0,0
"Iron, Fe",mg,--,--,0.36,0.43
"Potassium, K",mg,--,--,330,393
"Sodium, Na",mg,--,--,280,333
Vitamins
"Vitamin C, total ascorbic acid",mg,--,--,4.9,5.8
"Vitamin A, IU",IU,--,--,0,0
Lipids
"Fatty acids, total saturated",g,--,--,1.000,1.190
"Fatty acids, total monounsaturated",g,--,--,1.504,1.790
"Fatty acids, total polyunsaturated",g,--,--,0.504,0.600
"Fatty acids, total trans",g,--,--,0.000,0.000
"Cholesterol",mg,--,--,0,0
Amino Acids
Other
Ingredients
"POTATOES, VEGETABLE OIL (CONTAINS ONE OR MORE OF THE FOLLOWING: CANOLA OIL, CORN OIL, COTTONSEED OIL, PALM OIL, SOYBEAN OIL, SUNFLOWER OIL), SALT, DISODIUM DIHYDROGEN PYROPHOSPHATE (TO PROMOTE COLOR RETENTION), COLORING (CARAMEL COLOR, ANNATTO EXTRACT, TURMERIC), DEXTROSE." Date available: 07/14/2017 Date last updated by company: 07/14/2017
