Source: USDA Branded Food Products Database Release December 2017 Software v.3.8.6.4 2017-10-02
Report Run at: December 17, 2017 12:21 EST
"Nutrient data for: 45192704, FRENCH SILK PIE, UPC: 815360013177"
Food Group:  Branded Food Products Database
Common Name:

Nutrient,Unit,Data points,Std. Error,"0.2 PIE = 130.0g",1Value per 100 g,
Proximates
"Energy",kcal,--,--,460,354
"Protein",g,--,--,3.00,2.31
"Total lipid (fat)",g,--,--,36.00,27.69
"Carbohydrate, by difference",g,--,--,30.00,23.08
"Fiber, total dietary",g,--,--,1.0,0.8
"Sugars, total",g,--,--,25.00,19.23
Minerals
"Calcium, Ca",mg,--,--,60,46
"Iron, Fe",mg,--,--,0.35,0.27
"Sodium, Na",mg,--,--,114,88
Vitamins
"Vitamin C, total ascorbic acid",mg,--,--,0.0,0.0
"Vitamin A, IU",IU,--,--,481,370
Lipids
"Fatty acids, total saturated",g,--,--,32.006,24.620
"Fatty acids, total trans",g,--,--,0.000,0.000
"Cholesterol",mg,--,--,46,35
Amino Acids
Other
Ingredients
"SUGAR, PALM OIL, EGGS, ENRICHED FLOUR (FLOUR, NIACIN, REDUCED IRON, THIAMINE MONONITRATE, RIBOFLAVIN, FOLIC ACID), BUTTER, WATER, FUDGE ICING, HIGH FRUCTOSE CORN SYRUP, HALF & HALF, CONTAINS LESS THAN 2% OF: CHOCOLATE LIQUOR (PROCESSED WITH ALKALI), DEXTROSE, SODIUM CASEINATE (A MILK DERIVATIVE), COCOA BUTTER, NATURAL AND ARTIFICIAL FLAVORS, SALT, POLYSORBATE 60, SORBITAN MONOSTEARATE, XANTHAN GUM, FOOD STARCH-MODIFIED, GUAR GUM, BETA CAROTENE (COLOR) SOY LECITHIN, APPLE CIDER VINEGAR, CALCIUM PROPIONATE." Date available: 07/14/2017 Date last updated by company: 07/14/2017
