Source: USDA Branded Food Products Database Release December 2017 Software v.3.8.6.4 2017-10-02
Report Run at: December 17, 2017 12:16 EST
"Nutrient data for: 45077443, FRENCH POT ICE CREAM, UPC: 731493030204"
Food Group:  Branded Food Products Database
Common Name:

Nutrient,Unit,Data points,Std. Error,"0.5 cup = 117.0g",1Value per 100 g,
Proximates
"Energy",kcal,--,--,350,299
"Protein",g,--,--,6.00,5.13
"Total lipid (fat)",g,--,--,21.00,17.95
"Carbohydrate, by difference",g,--,--,37.00,31.62
"Fiber, total dietary",g,--,--,2.0,1.7
"Sugars, total",g,--,--,30.00,25.64
Minerals
"Calcium, Ca",mg,--,--,99,85
"Iron, Fe",mg,--,--,2.02,1.73
"Sodium, Na",mg,--,--,90,77
Vitamins
"Vitamin C, total ascorbic acid",mg,--,--,1.4,1.2
"Vitamin A, IU",IU,--,--,562,480
Lipids
"Fatty acids, total saturated",g,--,--,10.004,8.550
"Fatty acids, total trans",g,--,--,0.000,0.000
"Cholesterol",mg,--,--,60,51
Amino Acids
Other
Ingredients
"CREAM, MILK, CANE SUGAR, COOKIE DOUGH (WHEAT FLOUR, SUGAR, PEANUTS, PASTEURIZED EGGS, WATER, BROWN SUGAR, SALT), CHOCOLATE CHIPS (SUGAR, CHOCOLATE LIQUOR PROCESSED WITH ALKALI, COCOA BUTTER, EXPELLER-PRESSED NON-GMO SOY OIL, MILK FAT, SOY LECITHIN, NATURAL FLAVORS), SKIM MILK, COCOA PROCESSED WITH ALKALI, EGGS, PEANUT BUTTER (PEANUTS, SUGAR, PALM OIL, SEA SALT), VANILLA EXTRACT, GUAR GUM, CAROB BEAN GUM." Date available: 07/14/2017 Date last updated by company: 07/14/2017
