Source: USDA Branded Food Products Database Release December 2017 Software v.3.8.6.4 2017-10-02
Report Run at: December 17, 2017 12:18 EST
"Nutrient data for: 45121802, FRENCH'S, BBQ MUSTARD SAUCE, UPC: 041500939346"
Food Group:  Branded Food Products Database
Common Name:

Nutrient,Unit,Data points,Std. Error,"2.0 Tbsp = 35.0g",1Value per 100 g,
Proximates
"Energy",kcal,--,--,60,171
"Protein",g,--,--,1.00,2.86
"Total lipid (fat)",g,--,--,0.50,1.43
"Carbohydrate, by difference",g,--,--,14.00,40.00
"Fiber, total dietary",g,--,--,1.0,2.9
"Sugars, total",g,--,--,13.00,37.14
Minerals
"Calcium, Ca",mg,--,--,20,57
"Iron, Fe",mg,--,--,0.36,1.03
"Sodium, Na",mg,--,--,350,1000
Vitamins
"Vitamin C, total ascorbic acid",mg,--,--,0.0,0.0
"Vitamin A, IU",IU,--,--,100,286
Lipids
"Fatty acids, total saturated",g,--,--,0.000,0.000
"Fatty acids, total trans",g,--,--,0.000,0.000
"Cholesterol",mg,--,--,0,0
Amino Acids
Other
Ingredients
"SUGAR, DISTILLED VINEGAR, WATER, #1 GRADE MUSTARD SEED, SOY SAUCE (WATER, WHEAT, SOYBEANS, SALT), AGED CAYENNE RED PEPPERS, SALT, MODIFIED FOOD STARCH, APPLE CIDER VINEGAR, TOMATO PASTE, HIGH FRUCTOSE CORN SYRUP, NATURAL HICKORY SMOKE FLAVOR, TURMERIC, CORN SYRUP, PAPRIKA, OLEORESIN PAPRIKA (COLOR), SPICES, MOLASSES, GARLIC POWDER, NATURAL FLAVORS, ONION POWDER, SODIUM BENZOATE (AS A PRESERVATIVE) AND CARAMEL COLOR." Date available: 06/25/2017 Date last updated by company: 06/25/2017
