Source: USDA Branded Food Products Database Release December 2017 Software v.3.8.6.4 2017-10-02
Report Run at: December 17, 2017 13:20 EST
"Nutrient data for: 45326042, FRESHLY BAKED BAGELS, UPC: 074175002923"
Food Group:  Branded Food Products Database
Common Name:

Nutrient,Unit,Data points,Std. Error,"1 BAGEL = 85.0g",1Value per 100 g,
Proximates
"Energy",kcal,--,--,230,271
"Protein",g,--,--,8.00,9.41
"Total lipid (fat)",g,--,--,1.00,1.18
"Carbohydrate, by difference",g,--,--,47.00,55.29
"Fiber, total dietary",g,--,--,2.0,2.4
"Sugars, total",g,--,--,4.00,4.71
Minerals
"Calcium, Ca",mg,--,--,70,82
"Iron, Fe",mg,--,--,2.70,3.18
"Potassium, K",mg,--,--,80,94
"Sodium, Na",mg,--,--,400,471
Vitamins
"Vitamin D",IU,--,--,0,0
Lipids
"Fatty acids, total saturated",g,--,--,0.501,0.590
"Fatty acids, total trans",g,--,--,0.000,0.000
"Cholesterol",mg,--,--,0,0
Amino Acids
Other
Ingredients
"UNBLEACHED ENRICHED FLOUR (WHEAT FLOUR, MALTED BARLEY FLOUR, NIACIN, REDUCED IRON, THIAMINE MONONITRATE, RIBOFLAVIN, FOLIC ACID), WATER, SUGAR, CONTAINS 2% OR LESS OF: WHEAT GLUTEN, SALT, ONION, TOASTED ONION, YEAST, POPPY SEEDS, CALCIUM PROPIONATE AND SORBIC ACID (PRESERVATIVES), MONO AND DIGLYCERIDES, GUAR GUM, ASCORBIC ACID, CITRIC ACID, ENZYMES." Date available: 09/26/2017 Date last updated by company: 09/26/2017
