Source: USDA Branded Food Products Database Release December 2017 Software v.3.8.6.4 2017-10-02
Report Run at: December 17, 2017 12:41 EST
"Nutrient data for: 45225226, FRESH BRATWURST, UPC: 040898993725"
Food Group:  Branded Food Products Database
Common Name:

Nutrient,Unit,Data points,Std. Error,"1 GRILLED LINK = 82.0g",1Value per 100 g,
Proximates
"Energy",kcal,--,--,240,293
"Protein",g,--,--,16.00,19.51
"Total lipid (fat)",g,--,--,18.00,21.95
"Carbohydrate, by difference",g,--,--,3.00,3.66
"Sugars, total",g,--,--,1.00,1.22
Minerals
"Calcium, Ca",mg,--,--,20,24
"Iron, Fe",mg,--,--,0.48,0.59
"Sodium, Na",mg,--,--,1030,1256
Vitamins
Lipids
"Fatty acids, total saturated",g,--,--,6.002,7.320
"Fatty acids, total trans",g,--,--,0.000,0.000
"Cholesterol",mg,--,--,45,55
Amino Acids
Other
Ingredients
"PORK, WATER, CORN SYRUP, CONTAINS 2% OR LESS OF SODIUM LACTATE, SALT, NATURAL FLAVORINGS, SPICE EXTRACTIVES, CORN OIL, DEXTROSE, MONOSODIUM GLUTAMATE." Date available: 10/19/2017 Date last updated by company: 10/19/2017
