Source: USDA Branded Food Products Database Release December 2017 Software v.3.8.6.4 2017-10-02
Report Run at: December 17, 2017 13:33 EST
"Nutrient data for: 45289184, FRESH POMEGRANATE ARILS, UPC: 683953001845"
Food Group:  Branded Food Products Database
Common Name:

Nutrient,Unit,Data points,Std. Error,"0.75 cup = 140.0g",1Value per 100 g,
Proximates
"Energy",kcal,--,--,120,86
"Protein",g,--,--,2.00,1.43
"Total lipid (fat)",g,--,--,1.50,1.07
"Carbohydrate, by difference",g,--,--,26.00,18.57
"Fiber, total dietary",g,--,--,6.0,4.3
"Sugars, total",g,--,--,19.00,13.57
Minerals
"Calcium, Ca",mg,--,--,14,10
"Iron, Fe",mg,--,--,0.00,0.00
"Potassium, K",mg,--,--,330,236
"Sodium, Na",mg,--,--,0,0
Vitamins
"Vitamin D",IU,--,--,0,0
Lipids
"Fatty acids, total saturated",g,--,--,0.000,0.000
"Fatty acids, total trans",g,--,--,0.000,0.000
"Cholesterol",mg,--,--,0,0
Amino Acids
Other
Ingredients
"POMEGRANATE ARILS" Date available: 10/06/2017 Date last updated by company: 10/06/2017
