Source: USDA Branded Food Products Database Release December 2017 Software v.3.8.6.4 2017-10-02
Report Run at: December 17, 2017 13:11 EST
"Nutrient data for: 45185379, FRESH GROUND BEEF, UPC: 742158224500"
Food Group:  Branded Food Products Database
Common Name:

Nutrient,Unit,Data points,Std. Error,"4.0 ONZ = 112.0g",1Value per 100 g,
Proximates
"Energy",kcal,--,--,240,214
"Protein",g,--,--,21.00,18.75
"Total lipid (fat)",g,--,--,17.00,15.18
"Carbohydrate, by difference",g,--,--,0.00,0.00
"Fiber, total dietary",g,--,--,0.0,0.0
"Sugars, total",g,--,--,0.00,0.00
Minerals
"Calcium, Ca",mg,--,--,20,18
"Iron, Fe",mg,--,--,2.70,2.41
"Sodium, Na",mg,--,--,75,67
Vitamins
"Vitamin C, total ascorbic acid",mg,--,--,0.0,0.0
"Vitamin A, IU",IU,--,--,0,0
Lipids
"Fatty acids, total saturated",g,--,--,6.003,5.360
"Fatty acids, total trans",g,--,--,0.997,0.890
"Cholesterol",mg,--,--,75,67
Amino Acids
Other
Ingredients
"GROUND BEEF" Date available: 10/19/2016 Date last updated by company: 10/19/2016
