Source: USDA Branded Food Products Database Release December 2017 Software v.3.8.6.4 2017-10-02
Report Run at: December 17, 2017 13:30 EST
"Nutrient data for: 45291013, FRESH ORGANIC CURRY & FIG VINAIGRETTE, UPC: 891684002011"
Food Group:  Branded Food Products Database
Common Name:

Nutrient,Unit,Data points,Std. Error,"2.0 Tbsp = 30.0g",1Value per 100 g,
Proximates
"Energy",kcal,--,--,130,433
"Protein",g,--,--,0.00,0.00
"Total lipid (fat)",g,--,--,11.00,36.67
"Carbohydrate, by difference",g,--,--,9.00,30.00
"Fiber, total dietary",g,--,--,0.0,0.0
"Sugars, total",g,--,--,8.00,26.67
Minerals
"Calcium, Ca",mg,--,--,0,0
"Iron, Fe",mg,--,--,0.00,0.00
"Sodium, Na",mg,--,--,210,700
Vitamins
"Vitamin C, total ascorbic acid",mg,--,--,6.1,20.3
"Vitamin A, IU",IU,--,--,0,0
Lipids
"Fatty acids, total saturated",g,--,--,0.999,3.330
"Fatty acids, total trans",g,--,--,0.000,0.000
"Cholesterol",mg,--,--,0,0
Amino Acids
Other
Ingredients
"ORGANIC SUNFLOWER OIL, ORGANIC RICE VINEGAR, ORGANIC FIG, ORGANIC ORANGE CONC., ORGANIC MUSTARD (ORGANIC CIDER VINEGAR, WATER, ORGANIC MUSTARD SEED, SALT, ORGANIC SPICES), ORGANIC HONEY, ORGANIC PEAR CONC., ORGANIC ONION, SEA SALT, ORGANIC SPICES, ORGANIC ROSEMARY EXTRACT, CITRIC ACID." Date available: 07/14/2017 Date last updated by company: 07/14/2017
