Source: USDA Branded Food Products Database Release December 2017 Software v.3.8.6.4 2017-10-02
Report Run at: December 17, 2017 13:12 EST
"Nutrient data for: 45324933, FRESH GROUND PORK SAUSAGE, UPC: 092825123187"
Food Group:  Branded Food Products Database
Common Name:

Nutrient,Unit,Data points,Std. Error,"2.0 ONZ = 57.0g",1Value per 100 g,
Proximates
"Energy",kcal,--,--,160,281
"Protein",g,--,--,14.00,24.56
"Total lipid (fat)",g,--,--,11.00,19.30
"Carbohydrate, by difference",g,--,--,1.00,1.75
"Fiber, total dietary",g,--,--,0.0,0.0
"Sugars, total",g,--,--,0.00,0.00
Minerals
"Calcium, Ca",mg,--,--,17,30
"Iron, Fe",mg,--,--,1.00,1.75
"Potassium, K",mg,--,--,201,353
"Sodium, Na",mg,--,--,470,825
Vitamins
"Vitamin D",IU,--,--,0,0
Lipids
"Fatty acids, total saturated",g,--,--,4.001,7.020
"Fatty acids, total trans",g,--,--,0.000,0.000
"Cholesterol",mg,--,--,50,88
Amino Acids
Other
Ingredients
"PORK, WATER, CONTAINS 2% OR LESS OF THE FOLLOWING: SALT, NATURAL SPICES, SUGAR." Date available: 09/25/2017 Date last updated by company: 09/25/2017
