Source: USDA Branded Food Products Database Release December 2017 Software v.3.8.6.4 2017-10-02
Report Run at: December 17, 2017 13:27 EST
"Nutrient data for: 45221678, FRESH MOZZARELLA ROLLED WITH PEPPERONI, UPC: 833404000938"
Food Group:  Branded Food Products Database
Common Name:

Nutrient,Unit,Data points,Std. Error,"1 ONZ = 28.0g",1Value per 100 g,
Proximates
"Energy",kcal,--,--,90,321
"Protein",g,--,--,6.00,21.43
"Total lipid (fat)",g,--,--,6.00,21.43
"Carbohydrate, by difference",g,--,--,2.00,7.14
"Fiber, total dietary",g,--,--,1.0,3.6
"Sugars, total",g,--,--,0.00,0.00
Minerals
"Calcium, Ca",mg,--,--,100,357
"Iron, Fe",mg,--,--,0.71,2.53
"Sodium, Na",mg,--,--,210,750
Vitamins
"Vitamin C, total ascorbic acid",mg,--,--,0.0,0.0
"Vitamin A, IU",IU,--,--,393,1404
Lipids
"Fatty acids, total saturated",g,--,--,3.500,12.500
"Fatty acids, total trans",g,--,--,0.000,0.000
"Cholesterol",mg,--,--,20,71
Amino Acids
Other
Ingredients
"FRESH MOZZARELLA CHEESE (MILK, SALT, VINEGAR & ENZYMES). PEPPERONI (PORK, BEEF, SALT, DEXTROSE, NATURAL SPICES, PAPRIKA, CITRIC ACID, LACTIC ACID, BHA, BHT, STARTER CULTURE & SODIUM NITRATE)." Date available: 07/14/2017 Date last updated by company: 07/14/2017
