Source: USDA Branded Food Products Database Release December 2017 Software v.3.8.6.4 2017-10-02
Report Run at: December 17, 2017 13:14 EST
"Nutrient data for: 45275526, FRESH GUACAMOLE, UPC: 751570913244"
Food Group:  Branded Food Products Database
Common Name:

Nutrient,Unit,Data points,Std. Error,"2.0 Tbsp = 28.0g",1Value per 100 g,
Proximates
"Energy",kcal,--,--,190,679
"Protein",g,--,--,4.00,14.29
"Total lipid (fat)",g,--,--,15.00,53.57
"Carbohydrate, by difference",g,--,--,15.00,53.57
"Fiber, total dietary",g,--,--,9.0,32.1
"Sugars, total",g,--,--,4.00,14.29
Minerals
"Calcium, Ca",mg,--,--,40,143
"Iron, Fe",mg,--,--,1.29,4.59
"Potassium, K",mg,--,--,1250,4464
"Sodium, Na",mg,--,--,580,2071
Vitamins
"Vitamin D",IU,--,--,0,0
Lipids
"Fatty acids, total saturated",g,--,--,2.999,10.710
"Fatty acids, total trans",g,--,--,0.000,0.000
"Cholesterol",mg,--,--,0,0
Amino Acids
Other
Ingredients
"AVOCADO, TOMATOES, LIME JUICE, CUMIN, CORIANDER, LEMON JUICE, CILANTRO, RED ONION, SALT, JALAPENO PEPPER, GREEN ONION, BLACK PEPPER, GARLIC." Date available: 10/13/2017 Date last updated by company: 10/13/2017
