Source: USDA Branded Food Products Database Release December 2017 Software v.3.8.6.4 2017-10-02
Report Run at: December 17, 2017 13:03 EST
"Nutrient data for: 45003555, FRESH FOODS MARKET, TORTELLONI WITH PORK & PROSCIUTTO & PARMESAN, UPC: 072036952219"
Food Group:  Branded Food Products Database
Common Name:

Nutrient,Unit,Data points,Std. Error,"1 cup = 110.0g",1Value per 100 g,
Proximates
"Energy",kcal,--,--,350,318
"Protein",g,--,--,16.00,14.55
"Total lipid (fat)",g,--,--,8.00,7.27
"Carbohydrate, by difference",g,--,--,53.00,48.18
"Fiber, total dietary",g,--,--,2.0,1.8
"Sugars, total",g,--,--,1.00,0.91
Minerals
"Calcium, Ca",mg,--,--,40,36
"Iron, Fe",mg,--,--,4.58,4.16
"Sodium, Na",mg,--,--,680,618
Vitamins
"Vitamin C, total ascorbic acid",mg,--,--,3.1,2.8
"Vitamin A, IU",IU,--,--,0,0
Lipids
"Fatty acids, total saturated",g,--,--,2.497,2.270
"Fatty acids, total trans",g,--,--,0.000,0.000
"Cholesterol",mg,--,--,50,45
Amino Acids
Other
Ingredients
"PASTA: ENRICHED DURUM SEMOLINA (ENRICHED WITH NIACIN, FERROUS SULFATE, THIAMIN MONONITRATE, RIBOFLAVIN, FOLIC ACID), ENRICHED WHEAT FLOUR (ENRICHED WITH NIACIN, FERROUS SULFATE, THIAMIN MONONITRATE, RIBOFLAVIN, FOLIC ACID), WHOLE PASTEURIZED EGGS, WATER, FILLING: MEAT (PORK, PROSCIUTTO [SALT]), TOASTED WHEAT CRUMBS (WHEAT FLOUR, SOYBEAN OIL SHORTENING, SUGAR, BAKING POWDER [SODIUM ACID PYROPHOSPHATE, SODIUM BICARBONATE, MONOCALCIUM PHOSPHATE], VINEGAR, SALT, ACETYLATED TARTARIC ACID ESTERS OF MONO- AND DIGLYCERIDES, MONOGLYCERIDES, YEAST, CALCIUM CARBONATE, YEAST NUTRIENTS [AMMONIUM CHLORIDE, CALCIUM SULFATE], FLAVOR, DOUGH CONDITIONERS [L-CYSTEINE MONOHYDROCHLORIDE, AZODICARBONAMIDE]), CANOLA OIL (CANOLA OIL, CITRIC ACID) PARMESAN AND ROMANO CHEESE (PASTEURIZED COW'S MILK, SALT, POWDERED CELLULOSE, LIPASE, MICROBIAL ENZYME, BACTERIAL CULTURE, NATAMYCIN), SALT, SPICES, CRUSHED CHILI (SPICES, VEGETABLE OIL [CANOLA])." Date available: 07/14/2017 Date last updated by company: 07/14/2017
