Source: USDA Branded Food Products Database Release December 2017 Software v.3.8.6.4 2017-10-02
Report Run at: December 17, 2017 13:41 EST
"Nutrient data for: 45104860, FRESH START SMOOTHIE BLEND, UPC: 884038851489"
Food Group:  Branded Food Products Database
Common Name:

Nutrient,Unit,Data points,Std. Error,"1 POUCH = 227.0g",1Value per 100 g,
Proximates
"Energy",kcal,--,--,100,44
"Protein",g,--,--,3.00,1.32
"Total lipid (fat)",g,--,--,0.00,0.00
"Carbohydrate, by difference",g,--,--,21.00,9.25
"Fiber, total dietary",g,--,--,5.0,2.2
"Sugars, total",g,--,--,10.01,4.41
Minerals
"Calcium, Ca",mg,--,--,129,57
"Iron, Fe",mg,--,--,1.11,0.49
"Sodium, Na",mg,--,--,25,11
Vitamins
"Vitamin C, total ascorbic acid",mg,--,--,53.6,23.6
"Vitamin A, IU",IU,--,--,4472,1970
Lipids
"Fatty acids, total saturated",g,--,--,0.000,0.000
"Fatty acids, total trans",g,--,--,0.000,0.000
"Cholesterol",mg,--,--,0,0
Amino Acids
Other
Ingredients
"BLUEBERRIES, STRAWBERRIES, RASPBERRIES, KALE, SPINACH." Date available: 08/30/2017 Date last updated by company: 08/30/2017
