Source: USDA Branded Food Products Database Release December 2017 Software v.3.8.6.4 2017-10-02
Report Run at: December 17, 2017 13:31 EST
"Nutrient data for: 45263306, FRESH PACK KOSHER DILLS, UPC: 070152711680"
Food Group:  Branded Food Products Database
Common Name:

Nutrient,Unit,Data points,Std. Error,"0.4 PICKLE | ABOUT = 28.0g",1Value per 100 g,
Proximates
"Energy",kcal,--,--,5,18
"Protein",g,--,--,0.00,0.00
"Total lipid (fat)",g,--,--,0.00,0.00
"Carbohydrate, by difference",g,--,--,1.00,3.57
"Sugars, total",g,--,--,1.00,3.57
Minerals
"Sodium, Na",mg,--,--,320,1143
Vitamins
Lipids
Amino Acids
Other
Ingredients
"CUCUMBERS, WATER, VINEGAR, SALT, CALCIUM CHLORIDE, SPICES, RED PEPPER, GARLIC, NATURAL FLAVORINGS, YELLOW #5, POLYSORBATE 80 (EMULSIFIER)" Date available: 07/14/2017 Date last updated by company: 07/14/2017
