Source: USDA Branded Food Products Database Release December 2017 Software v.3.8.6.4 2017-10-02
Report Run at: December 17, 2017 13:29 EST
"Nutrient data for: 45194812, FRESH MUSHROOM SOUP, SEASONING MIX, UPC: 034795003892"
Food Group:  Branded Food Products Database
Common Name:

Nutrient,Unit,Data points,Std. Error,"0.66 PACKET = 4.5g",1Value per 100 g,
Proximates
"Energy",kcal,--,--,10,222
"Protein",g,--,--,0.00,0.00
"Total lipid (fat)",g,--,--,0.00,0.00
"Carbohydrate, by difference",g,--,--,2.00,44.44
Minerals
"Sodium, Na",mg,--,--,660,14667
Vitamins
Lipids
Amino Acids
Other
Ingredients
"SALT, GARLIC, ONION, MALTODEXTRIN, AND OTHER SPICES" Date available: 07/14/2017 Date last updated by company: 07/14/2017
