Source: USDA Branded Food Products Database Release December 2017 Software v.3.8.6.4 2017-10-02
Report Run at: December 17, 2017 13:25 EST
"Nutrient data for: 45183038, FRESH MIXED FRUIT, UPC: 070253102226"
Food Group:  Branded Food Products Database
Common Name:

Nutrient,Unit,Data points,Std. Error,"1 cup = 140.0g",1Value per 100 g,
Proximates
"Energy",kcal,--,--,70,50
"Protein",g,--,--,0.99,0.71
"Total lipid (fat)",g,--,--,0.00,0.00
"Carbohydrate, by difference",g,--,--,18.00,12.86
"Fiber, total dietary",g,--,--,2.0,1.4
"Sugars, total",g,--,--,13.01,9.29
Minerals
"Calcium, Ca",mg,--,--,0,0
"Iron, Fe",mg,--,--,0.36,0.26
"Potassium, K",mg,--,--,220,157
"Sodium, Na",mg,--,--,0,0
Vitamins
"Vitamin C, total ascorbic acid",mg,--,--,60.1,42.9
"Vitamin A, IU",IU,--,--,99,71
Lipids
"Fatty acids, total saturated",g,--,--,0.000,0.000
"Fatty acids, total trans",g,--,--,0.000,0.000
"Cholesterol",mg,--,--,0,0
Amino Acids
Other
Ingredients
"STRAWBERRIES, PEACHES, PINEAPPLE, RED SEEDLESS GRAPES, ASCORBIC AND CITRIC ACIDS TO PROMOTE COLOR RETENTION." Date available: 07/14/2017 Date last updated by company: 07/14/2017
