Source: USDA Branded Food Products Database Release December 2017 Software v.3.8.6.4 2017-10-02
Report Run at: December 17, 2017 12:51 EST
"Nutrient data for: 45188250, FRESH & EASY, DANISH BUNDT CAKE, CARAMEL PECAN, UPC: 5051379080822"
Food Group:  Branded Food Products Database
Common Name:

Nutrient,Unit,Data points,Std. Error,"2.2 ONZ = 62.0g",1Value per 100 g,
Proximates
"Energy",kcal,--,--,260,419
"Protein",g,--,--,6.00,9.68
"Total lipid (fat)",g,--,--,12.00,19.35
"Carbohydrate, by difference",g,--,--,31.00,50.00
"Fiber, total dietary",g,--,--,1.0,1.6
"Sugars, total",g,--,--,11.00,17.74
Minerals
"Calcium, Ca",mg,--,--,20,32
"Iron, Fe",mg,--,--,1.60,2.58
"Sodium, Na",mg,--,--,100,161
Vitamins
"Vitamin C, total ascorbic acid",mg,--,--,4.3,6.9
"Vitamin A, IU",IU,--,--,177,286
Lipids
"Fatty acids, total saturated",g,--,--,4.997,8.060
"Fatty acids, total trans",g,--,--,0.000,0.000
"Cholesterol",mg,--,--,35,56
Amino Acids
Other
Ingredients
"UNBLEACHED WHEAT ENRICHED FLOUR (WHEAT FLOUR, NIACIN, REDUCED IRON, THIAMIN MONONITRATE, RIBOFLAVIN, FOLIC ACID), SUGAR, EGGS, WATER, PALM SHORTENING, ALMOND PASTE (ALMOND, SUGAR, WATER, NATURAL FLAVOR, POTASSIUM SORBATE), PALM OIL MARGARINE (PALM OIL PALM KERNEL OIL, WATER, SALT, SOY LECITHIN, MONOGLYCERIDE, NATURAL FLAVOR, CITRIC ACID, SOY EXTRACT, VITAMIN A PALMITATE, BETA-CAROTENE), BUTTER (CREAM, NATURAL FLAVOR), EGG WHITES, YEAST, BUTTERMILK (LOW FAT MILK, NONFAT MILK, SALT), PECANS, SALT, CINNAMON, ORANGE JUICE, NATURAL FLAVOR (CARAMEL)." Date available: 07/14/2017 Date last updated by company: 07/14/2017
