Source: USDA Branded Food Products Database Release December 2017 Software v.3.8.6.4 2017-10-02
Report Run at: December 17, 2017 12:58 EST
"Nutrient data for: 45032330, FRESH FINDS, CHILI POWDER, UPC: 411010983205"
Food Group:  Branded Food Products Database
Common Name:

Nutrient,Unit,Data points,Std. Error,"0.25 tsp = 0.5g",1Value per 100 g,
Proximates
"Energy",kcal,--,--,0,0
"Protein",g,--,--,0.00,0.00
"Total lipid (fat)",g,--,--,0.00,0.00
"Carbohydrate, by difference",g,--,--,0.00,0.00
Minerals
"Sodium, Na",mg,--,--,35,7000
Vitamins
"Vitamin A, IU",IU,--,--,10000,2000000
Lipids
Amino Acids
Other
Ingredients
"CHILI PEPPER, PAPRIKA (COLOR), GARLIC, OREGANO, CUMIN, SALT, AND SILICON DIOXIDE." Date available: 07/14/2017 Date last updated by company: 07/14/2017
