Source: USDA Branded Food Products Database Release December 2017 Software v.3.8.6.4 2017-10-02
Report Run at: December 17, 2017 12:53 EST
"Nutrient data for: 45001787, FRESH & EASY, LIGHT RED KIDNEY BEANS, UPC: 5051379025533"
Food Group:  Branded Food Products Database
Common Name:

Nutrient,Unit,Data points,Std. Error,"0.25 cup = 45.0g",1Value per 100 g,
Proximates
"Energy",kcal,--,--,150,333
"Protein",g,--,--,10.00,22.22
"Total lipid (fat)",g,--,--,0.00,0.00
"Carbohydrate, by difference",g,--,--,28.00,62.22
"Fiber, total dietary",g,--,--,7.0,15.6
"Sugars, total",g,--,--,1.00,2.22
Minerals
"Calcium, Ca",mg,--,--,40,89
"Iron, Fe",mg,--,--,2.10,4.67
"Sodium, Na",mg,--,--,5,11
Vitamins
"Vitamin C, total ascorbic acid",mg,--,--,1.8,4.1
"Vitamin A, IU",IU,--,--,0,0
Lipids
"Fatty acids, total saturated",g,--,--,0.000,0.000
"Fatty acids, total trans",g,--,--,0.000,0.000
"Cholesterol",mg,--,--,0,0
Amino Acids
Other
Ingredients
"LIGHT RED KIDNEY BEANS." Date available: 06/24/2017 Date last updated by company: 06/24/2017
