Source: USDA Branded Food Products Database Release December 2017 Software v.3.8.6.4 2017-10-02
Report Run at: December 17, 2017 12:36 EST
"Nutrient data for: 45227795, FRESH ALMOND BUTTER & WILD FLOWER HONEY, UPC: 759035952036"
Food Group:  Branded Food Products Database
Common Name:

Nutrient,Unit,Data points,Std. Error,"1 BAR = 20.0g",1Value per 100 g,
Proximates
"Energy",kcal,--,--,100,500
"Protein",g,--,--,4.00,20.00
"Total lipid (fat)",g,--,--,7.00,35.00
"Carbohydrate, by difference",g,--,--,7.00,35.00
"Fiber, total dietary",g,--,--,1.0,5.0
"Sugars, total",g,--,--,4.00,20.00
Minerals
"Calcium, Ca",mg,--,--,40,200
"Iron, Fe",mg,--,--,1.80,9.00
"Potassium, K",mg,--,--,90,450
"Sodium, Na",mg,--,--,10,50
Vitamins
"Vitamin C, total ascorbic acid",mg,--,--,0.0,0.0
"Vitamin A, IU",IU,--,--,0,0
Lipids
"Fatty acids, total saturated",g,--,--,1.000,5.000
"Fatty acids, total trans",g,--,--,0.000,0.000
"Cholesterol",mg,--,--,0,0
Amino Acids
Other
Ingredients
"DRY ROASTED ALMONDS*, HONEY*, CASHEW BUTTER* (CASHEWS* AND <5% HIGH OLEIC SUNFLOWER OIL*), SESAME SEEDS*, MILK PROTEIN CONCENTRATE*, COCONUT*, DRY EGG WHITES*, VIRGIN COCONUT OIL*, PURE VANILLA EXTRACT* (CONTAINS ETHYL ALCOHOL)." Date available: 07/14/2017 Date last updated by company: 07/14/2017
