Source: USDA Branded Food Products Database Release December 2017 Software v.3.8.6.4 2017-10-02
Report Run at: December 17, 2017 12:59 EST
"Nutrient data for: 45033951, FRESH FINDS, MEDIUM PITTED RIPE BLACK OLIVES, UPC: 053800931029"
Food Group:  Branded Food Products Database
Common Name:

Nutrient,Unit,Data points,Std. Error,"5.0 OLIVES = 15.0g",1Value per 100 g,
Proximates
"Energy",kcal,--,--,25,167
"Protein",g,--,--,0.00,0.00
"Total lipid (fat)",g,--,--,2.50,16.67
"Carbohydrate, by difference",g,--,--,1.00,6.67
Minerals
"Sodium, Na",mg,--,--,115,767
Vitamins
Lipids
"Fatty acids, total saturated",g,--,--,0.000,0.000
"Fatty acids, total monounsaturated",g,--,--,1.500,10.000
"Fatty acids, total polyunsaturated",g,--,--,0.000,0.000
"Fatty acids, total trans",g,--,--,0.000,0.000
"Cholesterol",mg,--,--,0,0
Amino Acids
Other
Ingredients
"RIPE OLIVES, WATER, SALT, FERROUS GLUCONATE (ADDED TO STABILIZE COLOR)." Date available: 06/24/2017 Date last updated by company: 06/24/2017
