Source: USDA Branded Food Products Database Release December 2017 Software v.3.8.6.4 2017-10-02
Report Run at: December 17, 2017 13:12 EST
"Nutrient data for: 45227802, FRESH GROUND PEANUT BUTTER & WILD FLOWER HONEY, UPC: 759035902048"
Food Group:  Branded Food Products Database
Common Name:

Nutrient,Unit,Data points,Std. Error,"1 BAR = 55.0g",1Value per 100 g,
Proximates
"Energy",kcal,--,--,260,473
"Protein",g,--,--,11.00,20.00
"Total lipid (fat)",g,--,--,17.00,30.91
"Carbohydrate, by difference",g,--,--,20.00,36.36
"Fiber, total dietary",g,--,--,3.0,5.5
"Sugars, total",g,--,--,13.00,23.64
Minerals
"Calcium, Ca",mg,--,--,60,109
"Iron, Fe",mg,--,--,0.65,1.19
"Magnesium, Mg",mg,--,--,54,99
"Phosphorus, P",mg,--,--,136,248
"Potassium, K",mg,--,--,240,436
"Sodium, Na",mg,--,--,35,64
"Zinc, Zn",mg,--,--,1.20,2.18
"Manganese, Mn",mg,--,--,1.100,2.000
Vitamins
"Vitamin C, total ascorbic acid",mg,--,--,0.0,0.0
"Thiamin",mg,--,--,0.000,0.000
"Niacin",mg,--,--,3.636,6.611
"Vitamin A, IU",IU,--,--,0,0
Lipids
"Fatty acids, total saturated",g,--,--,2.998,5.450
"Fatty acids, total monounsaturated",g,--,--,8.998,16.360
"Fatty acids, total polyunsaturated",g,--,--,2.998,5.450
"Fatty acids, total trans",g,--,--,0.000,0.000
"Cholesterol",mg,--,--,0,0
Amino Acids
Other
Ingredients
"ORGANIC DRY ROASTED PEANUTS, ORGANIC HONEY, ORGANIC MAPLE SYRUP, ORGANIC MILK PROTEIN CONCENTRATE, ORGANIC CACAO POWDER, ORGANIC DRY EGG WHITES, ORGANIC VIRGIN COCONUT OIL, ORGANIC DRY ROASTED ALMONDS, ORGANIC PURE VANILLA EXTRACT (CONTAINS ETHYL ALCOHOL), SEA SALT." Date available: 07/14/2017 Date last updated by company: 07/14/2017
