Source: USDA Branded Food Products Database Release December 2017 Software v.3.8.6.4 2017-10-02
Report Run at: December 17, 2017 12:41 EST
"Nutrient data for: 45263537, FRESH BROWN EGGS, 12 MEDIUM, UPC: 815652004173"
Food Group:  Branded Food Products Database
Common Name:

Nutrient,Unit,Data points,Std. Error,"1 EGG = 44.0g",1Value per 100 g,
Proximates
"Energy",kcal,--,--,60,136
"Protein",g,--,--,6.00,13.64
"Total lipid (fat)",g,--,--,4.00,9.09
"Carbohydrate, by difference",g,--,--,0.00,0.00
"Fiber, total dietary",g,--,--,0.0,0.0
"Sugars, total",g,--,--,0.00,0.00
Minerals
"Calcium, Ca",mg,--,--,28,64
"Iron, Fe",mg,--,--,1.00,2.27
"Potassium, K",mg,--,--,69,157
"Sodium, Na",mg,--,--,60,136
Vitamins
Lipids
"Fatty acids, total saturated",g,--,--,1.500,3.410
"Fatty acids, total trans",g,--,--,0.000,0.000
"Cholesterol",mg,--,--,165,375
Amino Acids
Other
Ingredients
"BROWN EGGS" Date available: 12/31/2016 Date last updated by company: 12/31/2016
