Source: USDA Branded Food Products Database Release December 2017 Software v.3.8.6.4 2017-10-02
Report Run at: December 17, 2017 12:58 EST
"Nutrient data for: 45033612, FRESH FINDS, CELERY SALT, UPC: 481026011704"
Food Group:  Branded Food Products Database
Common Name:

Nutrient,Unit,Data points,Std. Error,"0.25 tsp = 1.0g",1Value per 100 g,
Proximates
"Energy",kcal,--,--,0,0
"Protein",g,--,--,0.00,0.00
"Total lipid (fat)",g,--,--,0.00,0.00
"Carbohydrate, by difference",g,--,--,0.00,0.00
Minerals
"Sodium, Na",mg,--,--,350,35000
Vitamins
Lipids
Amino Acids
Other
Ingredients
"SALT, GROUND CELERY SEED, AND TRICALCIUM PHOSPHATE (TO MAKE FREE FLOWING)." Date available: 06/24/2017 Date last updated by company: 06/24/2017
