Source: USDA Branded Food Products Database Release December 2017 Software v.3.8.6.4 2017-10-02
Report Run at: December 17, 2017 12:50 EST
"Nutrient data for: 45328185, FRESH & EASY, CHEESECAKE SQUARES, DARK CHOCOLATE, UPC: 5051379087333"
Food Group:  Branded Food Products Database
Common Name:

Nutrient,Unit,Data points,Std. Error,"113.0 GRM = 113.0g",1Value per 100 g,
Proximates
"Energy",kcal,--,--,350,310
"Protein",g,--,--,6.00,5.31
"Total lipid (fat)",g,--,--,26.00,23.01
"Carbohydrate, by difference",g,--,--,36.00,31.86
"Fiber, total dietary",g,--,--,2.0,1.8
"Sugars, total",g,--,--,12.00,10.62
Minerals
"Calcium, Ca",mg,--,--,60,53
"Iron, Fe",mg,--,--,1.59,1.41
"Sodium, Na",mg,--,--,250,221
Vitamins
"Vitamin C, total ascorbic acid",mg,--,--,0.0,0.0
"Vitamin A, IU",IU,--,--,829,734
Lipids
"Fatty acids, total saturated",g,--,--,14.995,13.270
"Fatty acids, total trans",g,--,--,0.994,0.880
"Cholesterol",mg,--,--,85,75
Amino Acids
Other
Ingredients
"CREAM CHEESE (PASTEURIZED MILK AND CREAM, CHEESE CULTURE, SALT, CAROB BEAN GUM), SUGAR, GRAHAM CRUMB (UNBLEACHED UNENRICHED WHEAT FLOUR, WHOLE WHEAT FLOUR, SUGAR, PALM OIL, PALM KERNEL OIL, MOLASSES, HONEY, SALT, BAKING SODA), LIGHT SOUR CREAM (CULTURED CREAM, SKIM MILK, VITAMIN A PALMITATE), EGGS, WATER, SEMI-SWEET CHOCOLATE [CHOCOLATE LIQUOR, SUGAR, COCOA BUTTER, SOY LECITHIN (AS AN EMULSIFIER), VANILLA EXTRACT], PALM OIL, CREAM (PASTEURIZED CREAM, CARRAGEENAN), COCOA (PROCESSED WITH ALKALI), POWDERED SUGAR (SUGAR, INVERT SUGAR, CORN STARCH), CANOLA OIL, INVERT SUGAR, MODIFIED RICE STARCH, UNSALTED BUTTER (PASTEURIZED CREAM), CORN STARCH, ENRICHED BLEACHED WHEAT FLOUR (NIACIN, REDUCED IRON, THIAMIN MONONITRATE, RIBOFLAVIN, FOLIC ACID), LOCUST BEAN GUM, XANTHAN GUM, SOY LECITHIN." Date available: 10/13/2017 Date last updated by company: 10/13/2017
