Source: USDA Branded Food Products Database Release December 2017 Software v.3.8.6.4 2017-10-02
Report Run at: December 17, 2017 13:49 EST
"Nutrient data for: 45285072, FRIED FISH CAKE WITH BURDOCK, UPC: 011152135625"
Food Group:  Branded Food Products Database
Common Name:

Nutrient,Unit,Data points,Std. Error,"3.0 PIECES = 90.0g",1Value per 100 g,
Proximates
"Energy",kcal,--,--,110,122
"Protein",g,--,--,9.00,10.00
"Total lipid (fat)",g,--,--,1.00,1.11
"Carbohydrate, by difference",g,--,--,15.00,16.67
"Fiber, total dietary",g,--,--,0.0,0.0
"Sugars, total",g,--,--,4.00,4.44
Minerals
"Calcium, Ca",mg,--,--,20,22
"Iron, Fe",mg,--,--,0.34,0.38
"Sodium, Na",mg,--,--,740,822
Vitamins
"Vitamin C, total ascorbic acid",mg,--,--,0.0,0.0
"Vitamin A, IU",IU,--,--,0,0
Lipids
"Fatty acids, total saturated",g,--,--,0.504,0.560
"Fatty acids, total trans",g,--,--,0.000,0.000
"Cholesterol",mg,--,--,20,22
Amino Acids
Other
Ingredients
"FISH PASTE (THREADFIN BREAD FISH, SUGAR, SODIUM TRIPOLYPHOSPHATE, TETRA SODIUM PYROPHOSPHATE, EGG WHITE), WATER, BURDOCK ROOT, MODIFIED TAPIOCA STARCH, SUGAR, SALT, MONOSODIUM GLUTAMATE, SOYBEAN OIL, GLUCOSE, EGG WHITE, D-XYLOSE." Date available: 07/14/2017 Date last updated by company: 07/14/2017
