Source: USDA Branded Food Products Database Release December 2017 Software v.3.8.6.4 2017-10-02
Report Run at: December 17, 2017 14:12 EST
"Nutrient data for: 45056820, FRONTIER, TACO SEASONING, UPC: 089836189219"
Food Group:  Branded Food Products Database
Common Name:

Nutrient,Unit,Data points,Std. Error,"1 Tbsp = 8.0g",1Value per 100 g,
Proximates
"Energy",kcal,--,--,25,312
"Protein",g,--,--,1.00,12.50
"Total lipid (fat)",g,--,--,0.00,0.00
"Carbohydrate, by difference",g,--,--,5.00,62.50
"Fiber, total dietary",g,--,--,1.0,12.5
"Sugars, total",g,--,--,1.00,12.50
Minerals
"Calcium, Ca",mg,--,--,20,250
"Iron, Fe",mg,--,--,6.75,84.38
"Sodium, Na",mg,--,--,5,62
Vitamins
"Vitamin C, total ascorbic acid",mg,--,--,15.0,187.5
"Vitamin A, IU",IU,--,--,6250,78125
Lipids
"Fatty acids, total saturated",g,--,--,0.000,0.000
"Fatty acids, total trans",g,--,--,0.000,0.000
"Cholesterol",mg,--,--,0,0
Amino Acids
Other
Ingredients
"ONION, CHILI PEPPERS (MAY CONTAIN SILICON DIOXIDE), YELLOW CORN FLOUR, GARLIC, PAPRIKA, CUMIN, TOMATO POWDER, OREGANO, CITRIC ACID, SILICON DIOXIDE, CAYENNE (MAY CONTAIN SILICON DIOXIDE)." Date available: 07/14/2017 Date last updated by company: 07/14/2017
