Source: USDA Branded Food Products Database Release December 2017 Software v.3.8.6.4 2017-10-02
Report Run at: December 17, 2017 14:09 EST
"Nutrient data for: 45147304, FRONTIER BITES, CRUNCHY ENERGIZING BITES, CHERRY CINNAMON, UPC: 850277004078"
Food Group:  Branded Food Products Database
Common Name:

Nutrient,Unit,Data points,Std. Error,"5.0 PIECES) | (APX = 20.0g",1Value per 100 g,
Proximates
"Energy",kcal,--,--,110,550
"Protein",g,--,--,2.00,10.00
"Total lipid (fat)",g,--,--,8.00,40.00
"Carbohydrate, by difference",g,--,--,11.00,55.00
"Fiber, total dietary",g,--,--,1.5,7.5
"Sugars, total",g,--,--,6.00,30.00
Minerals
"Calcium, Ca",mg,--,--,10,50
"Iron, Fe",mg,--,--,0.90,4.50
"Sodium, Na",mg,--,--,8,40
Vitamins
"Vitamin C, total ascorbic acid",mg,--,--,1.5,7.5
"Vitamin A, IU",IU,--,--,125,625
Lipids
"Fatty acids, total saturated",g,--,--,0.500,2.500
"Fatty acids, total trans",g,--,--,0.000,0.000
"Cholesterol",mg,--,--,0,0
Amino Acids
Other
Ingredients
"PECANS, SUNFLOWER SEEDS, BROWN RICE SYRUP, HONEY, PUFFED MILLET, PUFFED RICE, CHERRIES, GROUND CINNAMON" Date available: 07/14/2017 Date last updated by company: 07/14/2017
