Source: USDA Branded Food Products Database Release December 2017 Software v.3.8.6.4 2017-10-02
Report Run at: December 17, 2017 14:34 EST
"Nutrient data for: 45060181, FROSTED WILD BERRY, UPC: 030700158114"
Food Group:  Branded Food Products Database
Common Name:

Nutrient,Unit,Data points,Std. Error,"1 PASTRY = 52.0g",1Value per 100 g,
Proximates
"Energy",kcal,--,--,200,385
"Protein",g,--,--,2.00,3.85
"Total lipid (fat)",g,--,--,5.00,9.62
"Carbohydrate, by difference",g,--,--,37.00,71.15
"Fiber, total dietary",g,--,--,1.0,1.9
"Sugars, total",g,--,--,17.00,32.69
Minerals
"Calcium, Ca",mg,--,--,0,0
"Iron, Fe",mg,--,--,1.90,3.66
"Sodium, Na",mg,--,--,190,365
Vitamins
"Vitamin C, total ascorbic acid",mg,--,--,0.0,0.0
"Thiamin",mg,--,--,0.000,0.000
"Riboflavin",mg,--,--,0.180,0.346
"Niacin",mg,--,--,2.116,4.069
"Vitamin B-6",mg,--,--,0.212,0.407
"Vitamin A, IU",IU,--,--,529,1017
Lipids
"Fatty acids, total saturated",g,--,--,2.002,3.850
"Fatty acids, total trans",g,--,--,0.000,0.000
"Cholesterol",mg,--,--,0,0
Amino Acids
Other
Ingredients
"ENRICHED WHEAT FLOUR [WHEAT FLOUR, NIACIN, REDUCED IRON, THIAMIN MONONITRATE (VITAMIN B1), RIBOFLAVIN (VITAMIN B2), FOLIC ACID], CORN SYRUP, SUGAR, HIGH FRUCTOSE CORN SYRUP, PALM OIL, MIXED BERRY JUICE FROM CONCENTRATE (WHITE GRAPE, BLUEBERRY, RED RASPBERRY, STRAWBERRY, CHERRY, APPLE, PEAR AND ELDERBERRY), GLYCERINE, MODIFIED CORN STARCH, WHEY PERMEATE, PRECOOKED YELLOW CORN MEAL, SALT, LEAVENING (SODIUM ALUMINUM PHOSPHATE, BAKING SODA), CITRIC ACID, NATURAL AND ARTIFICIAL FLAVOR, POTASSIUM SORBATE (A PRESERVATIVE), COLOR ADDED (INCLUDES RED 40, BLUE 2, RED 3, BLUE 1), GELATIN, YELLOW CORN FLOUR, MODIFIED SOY PROTEIN, VITAMIN A PALMITATE, REDUCED IRON, NIACINAMIDE, PYRIDOXINE HYDROCHLORIDE (VITAMIN B6), RIBOFLAVIN (VITAMIN B2), THIAMIN MONONITRATE (VITAMIN B1)." Date available: 07/14/2017 Date last updated by company: 07/14/2017
