Source: USDA Branded Food Products Database Release December 2017 Software v.3.8.6.4 2017-10-02
Report Run at: December 17, 2017 14:24 EST
"Nutrient data for: 45176386, FROSTED SUGAR COOKIES, UPC: 078742115276"
Food Group:  Branded Food Products Database
Common Name:

Nutrient,Unit,Data points,Std. Error,"2.0 COOKIES = 30.0g",1Value per 100 g,
Proximates
"Energy",kcal,--,--,130,433
"Protein",g,--,--,1.00,3.33
"Total lipid (fat)",g,--,--,4.00,13.33
"Carbohydrate, by difference",g,--,--,21.00,70.00
"Fiber, total dietary",g,--,--,0.0,0.0
"Sugars, total",g,--,--,12.00,40.00
Minerals
"Calcium, Ca",mg,--,--,0,0
"Iron, Fe",mg,--,--,0.50,1.67
"Potassium, K",mg,--,--,0,0
"Sodium, Na",mg,--,--,90,300
Vitamins
"Vitamin C, total ascorbic acid",mg,--,--,0.0,0.0
"Vitamin A, IU",IU,--,--,200,667
"Vitamin D",IU,--,--,0,0
Lipids
"Fatty acids, total saturated",g,--,--,2.001,6.670
"Fatty acids, total trans",g,--,--,0.000,0.000
"Cholesterol",mg,--,--,5,17
Amino Acids
Other
Ingredients
"SUGAR, BLEACHED ENRICHED WHEAT FLOUR (BLEACHED WHEAT FLOUR, NIACIN, REDUCED IRON, THIAMINE MONONITRATE, RIBOFLAVIN, FOLIC ACID), MARGARINE (PALM OIL, WATER, SOYBEAN OIL, SALT, MONO- & DIGLYCERIDES, CALCIUM DISODIUM EDTA [PRESERVATIVE], ARTIFICIAL FLAVOR, ANNATTO EXTRACT [COLOR], VITAMIN A PALMITATE), WATER, CONTAINS 2% OR LESS OF EACH OF THE FOLLOWING: CORNSTARCH, EGGS, LEAVENING (SODIUM ACID PYROPHOSPHATE, SODIUM BICARBONATE, MONOCALCIUM PHOSPHATE), CORN SYRUP SOLIDS, PALM KERNEL OIL, PALM OIL, RICE FLOUR, SOYBEAN OIL, NONFAT MILK, POLYSORBATE 60, COCOA (PROCESSED WITH ALKALI), SOY LECITHIN (EMULSIFIER), YELLOW 5 LAKE, SODIUM CASEINATE, MILK PROTEIN CONCENTRATE, SALT, MODIFIED FOOD STARCH, NATURAL AND ARTIFICIAL FLAVORS, MONO & DIGLYCERIDES, CARRAGEENAN, CELLULOSE GUM, SHELLAC, TITANIUM DIOXIDE, YELLOW 6 LAKE, BLUE 1 LAKE, CARNAUBA WAX." Date available: 10/13/2017 Date last updated by company: 10/13/2017
