Source: USDA Branded Food Products Database Release December 2017 Software v.3.8.6.4 2017-10-02
Report Run at: December 17, 2017 14:19 EST
"Nutrient data for: 45113260, FROSTED MINI DONUTS, UPC: 025600007877"
Food Group:  Branded Food Products Database
Common Name:

Nutrient,Unit,Data points,Std. Error,"4.0 DONUTS = 63.0g",1Value per 100 g,
Proximates
"Energy",kcal,--,--,300,476
"Protein",g,--,--,3.00,4.76
"Total lipid (fat)",g,--,--,17.00,26.98
"Carbohydrate, by difference",g,--,--,34.00,53.97
"Fiber, total dietary",g,--,--,2.0,3.2
"Sugars, total",g,--,--,18.00,28.57
Minerals
"Calcium, Ca",mg,--,--,20,32
"Iron, Fe",mg,--,--,2.36,3.74
"Sodium, Na",mg,--,--,220,349
Vitamins
"Vitamin C, total ascorbic acid",mg,--,--,0.0,0.0
"Vitamin A, IU",IU,--,--,0,0
Lipids
"Fatty acids, total saturated",g,--,--,11.000,17.460
"Fatty acids, total monounsaturated",g,--,--,2.999,4.760
"Fatty acids, total polyunsaturated",g,--,--,1.499,2.380
"Fatty acids, total trans",g,--,--,0.000,0.000
"Cholesterol",mg,--,--,5,8
Amino Acids
Other
Ingredients
"CONFECTIONERY COATING (SUGAR. HYDROGENATED PALM KERNEL OIL, COCOA PROCESSED WITH ALKALI, COCOA POWDER, SOY LECITHIN, SALT, ARTIFICIAL FLAVOR), ENRICHED BLEACHED AND UNBLEACHED FLOUR (WHEAT FLOUR, NIACIN, REDUCED IRON, THIAMIN MONONITRATE, RIBOFLAVIN, FOLIC ACID), PALM OIL, SUGAR, WATER, WHEY (MILK), NONFAT MILK, CONTAINS 2% OR LESS OF EACH OF THE FOLLOWING: SOYBEAN OIL, SOY FLOUR, LEAVENING (SODIUM BICARBONATE, SODIUM ACID PYROPHOSPHATE SODIUM ALUMINUM PHOSPHATE), EGG YOLKS, DEXTROSE, CORN SYRUP SOLIDS, SALT, SOY LECITHIN, SODIUM STEAROYL LACTYLATE, DISTILLED MONOGLYCERIDES, WHEAT STARCH, MONOCALCIUM PHOSPHATE, GUAR GUM, WHEAT GLUTEN, CORN DEXTRIN, TAPIOCA DEXTRIN, PROPYLENE GLYCOL MONO- AND DIESTERS OF FATS AND FATTY ACIDS, MONO- AND DIGLYCERIDES, MODIFIED WHEAT STARCH, SODIUM ALGINATE. KARAYA GUM, NATURAL AND ARTIFICIAL FLAVOR, ENZYMES, XANTHAN GUM, COLORED WITH TURMERIC AND ANNATTO, ASCORBIC ACID, PRESERVED WITH SORBIC ACID, POTASSIUM SORBATE AND SODIUM PROPIONATE." Date available: 07/14/2017 Date last updated by company: 07/14/2017
