Source: USDA Branded Food Products Database Release December 2017 Software v.3.8.6.4 2017-10-02
Report Run at: December 17, 2017 14:21 EST
"Nutrient data for: 45232206, FROSTED PARTY ANIMALS COOKIES, UPC: 072220806496"
Food Group:  Branded Food Products Database
Common Name:

Nutrient,Unit,Data points,Std. Error,"8.0 COOKIES = 33.0g",1Value per 100 g,
Proximates
"Energy",kcal,--,--,160,485
"Protein",g,--,--,1.00,3.03
"Total lipid (fat)",g,--,--,8.00,24.24
"Carbohydrate, by difference",g,--,--,20.00,60.61
"Fiber, total dietary",g,--,--,0.0,0.0
"Sugars, total",g,--,--,12.00,36.36
Minerals
"Calcium, Ca",mg,--,--,0,0
"Iron, Fe",mg,--,--,1.09,3.31
"Sodium, Na",mg,--,--,60,182
Vitamins
"Vitamin C, total ascorbic acid",mg,--,--,0.0,0.0
"Vitamin A, IU",IU,--,--,0,0
Lipids
"Fatty acids, total saturated",g,--,--,5.999,18.180
"Fatty acids, total trans",g,--,--,0.000,0.000
"Cholesterol",mg,--,--,5,15
Amino Acids
Other
Ingredients
"BLEACHED, ENRICHED WHEAT FLOUR (WHEAT FLOUR, NIACIN, REDUCED IRON, THIAMIN MONONITRATE, RIBOFLAVIN, AND FOLIC ACID), SUGAR, PALM OIL, HYDROGENATED PALM KERNEL OIL, WATER, POWDERED WHEY PROTEIN CONCENTRATE, WHOLE MILK POWDER, BUTTER (MILK), NONPAREILS (SUGAR, CORN STARCH, CONFECTIONER'S GLAZE, FD&C COLORS YELLOW #5, RED #3, CARNAUBA WAX, FD&C COLORS BLUE 1, RED #40, YELLOW #6, BLUE #2), WHEY POWDER, SALT, EGGS, BAKING SODA, SOY LECITHIN, NONFAT MILK, RED 3, VANILLA, AMMONIUM BICARBONATE, TITANIUM DIOXIDE, TRACE AMOUNTS OF ALMONDS, PECANS AND COCONUT." Date available: 07/14/2017 Date last updated by company: 07/14/2017
