Source: USDA Branded Food Products Database Release December 2017 Software v.3.8.6.4 2017-10-02
Report Run at: December 17, 2017 14:52 EST
"Nutrient data for: 45185890, FROZEN VEGETABLE MIX, UPC: 812828012147"
Food Group:  Branded Food Products Database
Common Name:

Nutrient,Unit,Data points,Std. Error,"4.0 ONZ = 113.4g",1Value per 100 g,
Proximates
"Energy",kcal,--,--,0,0
"Protein",g,--,--,0.53,0.47
"Total lipid (fat)",g,--,--,0.07,0.06
"Carbohydrate, by difference",g,--,--,13.38,11.80
"Fiber, total dietary",g,--,--,0.1,0.1
"Sugars, total",g,--,--,0.00,0.00
Minerals
"Calcium, Ca",mg,--,--,29,26
"Iron, Fe",mg,--,--,0.01,0.01
"Magnesium, Mg",mg,--,--,0,0
"Sodium, Na",mg,--,--,0,0
Vitamins
"Vitamin C, total ascorbic acid",mg,--,--,0.0,0.0
"Vitamin A, IU",IU,--,--,0,0
Lipids
"Fatty acids, total saturated",g,--,--,0.000,0.000
"Cholesterol",mg,--,--,0,0
Amino Acids
Other
Ingredients
"SQUASH, PUMPKIN, CORN, BEANS, FAVA BEANS, OLLUCO AND CABBAGE." Date available: 07/14/2017 Date last updated by company: 07/14/2017
