Source: USDA Branded Food Products Database Release December 2017 Software v.3.8.6.4 2017-10-02
Report Run at: December 17, 2017 14:42 EST
"Nutrient data for: 45325258, FROZEN DAIRY DESSERT, UPC: 070038646624"
Food Group:  Branded Food Products Database
Common Name:

Nutrient,Unit,Data points,Std. Error,"0.66 cup = 85.0g",1Value per 100 g,
Proximates
"Energy",kcal,--,--,120,141
"Protein",g,--,--,2.00,2.35
"Total lipid (fat)",g,--,--,3.00,3.53
"Carbohydrate, by difference",g,--,--,20.00,23.53
"Fiber, total dietary",g,--,--,0.0,0.0
"Sugars, total",g,--,--,16.00,18.82
Minerals
"Calcium, Ca",mg,--,--,83,98
"Iron, Fe",mg,--,--,0.00,0.00
"Potassium, K",mg,--,--,127,149
"Sodium, Na",mg,--,--,60,71
Vitamins
"Vitamin D",IU,--,--,0,0
Lipids
"Fatty acids, total saturated",g,--,--,1.998,2.350
"Fatty acids, total trans",g,--,--,0.000,0.000
"Cholesterol",mg,--,--,15,18
Amino Acids
Other
Ingredients
"MILK, CREAM, BUTTERMILK, CORN SYRUP, SUGAR, HIGH FRUCTOSE CORN SYRUP, COCOA (PROCESSED WITH ALKALI), WHEY (MILK), STABILIZER (PROPYLENE GLYCOL MONOESTERS, MONO AND DIGLYCERIDES, GUAR GUM, CELLULOSE GUM, CARRAGEENAN, AND POLYSORBATE 80)." Date available: 09/25/2017 Date last updated by company: 09/25/2017
