Source: USDA Branded Food Products Database Release December 2017 Software v.3.8.6.4 2017-10-02
Report Run at: December 17, 2017 14:40 EST
"Nutrient data for: 45254993, FROZEN COOKED WHOLE WHITE CLAM, UPC: 040295509659"
Food Group:  Branded Food Products Database
Common Name:

Nutrient,Unit,Data points,Std. Error,"4.0 ONZ = 113.0g",1Value per 100 g,
Proximates
"Energy",kcal,--,--,150,133
"Protein",g,--,--,23.00,20.35
"Total lipid (fat)",g,--,--,2.00,1.77
"Carbohydrate, by difference",g,--,--,8.00,7.08
"Fiber, total dietary",g,--,--,0.0,0.0
"Sugars, total",g,--,--,0.00,0.00
Minerals
"Calcium, Ca",mg,--,--,99,88
"Iron, Fe",mg,--,--,5.41,4.79
"Sodium, Na",mg,--,--,130,115
Vitamins
"Vitamin C, total ascorbic acid",mg,--,--,0.0,0.0
"Vitamin A, IU",IU,--,--,564,499
Lipids
"Fatty acids, total saturated",g,--,--,0.000,0.000
"Fatty acids, total trans",g,--,--,0.000,0.000
"Cholesterol",mg,--,--,110,97
Amino Acids
Other
Ingredients
"COOKED WHOLE WHITE CLAM." Date available: 07/14/2017 Date last updated by company: 07/14/2017
