Source: USDA Branded Food Products Database Release December 2017 Software v.3.8.6.4 2017-10-02
Report Run at: December 17, 2017 14:39 EST
"Nutrient data for: 45185214, FROZEN COOKED CRAB MEAT JUMBO LUMP, UPC: 730050000131"
Food Group:  Branded Food Products Database
Common Name:

Nutrient,Unit,Data points,Std. Error,"3.0 ONZ = 84.0g",1Value per 100 g,
Proximates
"Energy",kcal,--,--,100,119
"Protein",g,--,--,20.00,23.81
"Total lipid (fat)",g,--,--,1.00,1.19
"Carbohydrate, by difference",g,--,--,0.00,0.00
"Fiber, total dietary",g,--,--,0.0,0.0
"Sugars, total",g,--,--,0.00,0.00
Minerals
"Calcium, Ca",mg,--,--,80,95
"Iron, Fe",mg,--,--,0.73,0.87
"Sodium, Na",mg,--,--,320,381
Vitamins
"Vitamin A, IU",IU,--,--,100,119
Lipids
"Fatty acids, total saturated",g,--,--,1.000,1.190
"Cholesterol",mg,--,--,90,107
Amino Acids
Other
Ingredients
"CRAB MEAT (BLUE CRAB)" Date available: 10/13/2017 Date last updated by company: 10/13/2017
