Source: USDA Branded Food Products Database Release December 2017 Software v.3.8.6.4 2017-10-02
Report Run at: December 17, 2017 14:50 EST
"Nutrient data for: 45024885, FROZEN POPS, UPC: 856920005027"
Food Group:  Branded Food Products Database
Common Name:

Nutrient,Unit,Data points,Std. Error,"1 BAR = 84.0g",1Value per 100 g,
Proximates
"Energy",kcal,--,--,70,83
"Protein",g,--,--,0.00,0.00
"Total lipid (fat)",g,--,--,0.00,0.00
"Carbohydrate, by difference",g,--,--,17.00,20.24
"Fiber, total dietary",g,--,--,0.0,0.0
"Sugars, total",g,--,--,17.00,20.24
Minerals
"Calcium, Ca",mg,--,--,0,0
"Iron, Fe",mg,--,--,0.00,0.00
"Potassium, K",mg,--,--,0,0
"Sodium, Na",mg,--,--,0,0
Vitamins
"Vitamin C, total ascorbic acid",mg,--,--,0.0,0.0
"Vitamin A, IU",IU,--,--,0,0
Lipids
"Fatty acids, total saturated",g,--,--,0.000,0.000
"Fatty acids, total trans",g,--,--,0.000,0.000
"Cholesterol",mg,--,--,0,0
Amino Acids
Other
Ingredients
"BREWED ORGANIC HIBISCUS MINT (FILTERED WATER, FAIR TRADE ORGANIC HIBISCUS FLOWERS, ORGANIC PEPPERMINT), FILTERED WATER, FAIR TRADE ORGANIC CANE SUGAR, LIME JUICE, ORGANIC GUAR GUM" Date available: 07/14/2017 Date last updated by company: 07/14/2017
