Source: USDA Branded Food Products Database Release December 2017 Software v.3.8.6.4 2017-10-02
Report Run at: December 17, 2017 14:48 EST
"Nutrient data for: 45263980, FROZEN GREEK YOGURT BARS, UPC: 851035003166"
Food Group:  Branded Food Products Database
Common Name:

Nutrient,Unit,Data points,Std. Error,"65.0 GRM = 65.0g",1Value per 100 g,
Proximates
"Energy",kcal,--,--,80,123
"Protein",g,--,--,5.00,7.69
"Total lipid (fat)",g,--,--,0.50,0.77
"Carbohydrate, by difference",g,--,--,15.00,23.08
"Fiber, total dietary",g,--,--,0.0,0.0
"Sugars, total",g,--,--,12.00,18.46
Minerals
"Calcium, Ca",mg,--,--,150,231
"Iron, Fe",mg,--,--,0.00,0.00
"Sodium, Na",mg,--,--,40,62
Vitamins
"Vitamin C, total ascorbic acid",mg,--,--,0.0,0.0
"Vitamin A, IU",IU,--,--,0,0
Lipids
"Fatty acids, total saturated",g,--,--,0.000,0.000
"Fatty acids, total trans",g,--,--,0.000,0.000
"Cholesterol",mg,--,--,5,8
Amino Acids
Other
Ingredients
"NONFAT MILK, GREEK YOGURT (CULTURED PASTEURIZED NONFAT MILK, LIVE AND ACTIVE CULTURES), SUGAR, MILK PROTEIN CONCENTRATE, MALTODEXTRIN, CREAM, VANILLA EXTRACT, LOCUST BEAN GUM, GUAR GUM, VANILLA BEAN SEEDS." Date available: 07/14/2017 Date last updated by company: 07/14/2017
