Source: USDA Branded Food Products Database Release December 2017 Software v.3.8.6.4 2017-10-02
Report Run at: December 17, 2017 14:53 EST
"Nutrient data for: 45182579, FROZEN YOGURT, UPC: 041268161140"
Food Group:  Branded Food Products Database
Common Name:

Nutrient,Unit,Data points,Std. Error,"0.667 cup = 87.0g",1Value per 100 g,
Proximates
"Energy",kcal,--,--,120,138
"Protein",g,--,--,4.00,4.60
"Total lipid (fat)",g,--,--,0.00,0.00
"Carbohydrate, by difference",g,--,--,25.00,28.74
"Fiber, total dietary",g,--,--,0.0,0.0
"Sugars, total",g,--,--,19.00,21.84
Minerals
"Calcium, Ca",mg,--,--,153,176
"Iron, Fe",mg,--,--,0.00,0.00
"Potassium, K",mg,--,--,206,237
"Sodium, Na",mg,--,--,75,86
Vitamins
"Vitamin D",IU,--,--,0,0
Lipids
"Fatty acids, total saturated",g,--,--,0.000,0.000
"Fatty acids, total trans",g,--,--,0.000,0.000
"Cholesterol",mg,--,--,0,0
Amino Acids
Other
Ingredients
"NONFAT MILK, SUGAR, CULTURED NONFAT MILK, CORN SYRUP, MALTODEXTRIN, MONO & DIGLYCERIDES, LOCUST BEAN GUM, CELLULOSE GUM, GUAR GUM, CARRAGEENAN, NATURAL & ARTIFICIAL FLAVORS AND ANNATTO (COLOR)." Date available: 10/13/2017 Date last updated by company: 10/13/2017
