Source: USDA Branded Food Products Database Release December 2017 Software v.3.8.6.4 2017-10-02
Report Run at: December 17, 2017 14:39 EST
"Nutrient data for: 45279427, FROZEN CONFECTION, UPC: 070640013807"
Food Group:  Branded Food Products Database
Common Name:

Nutrient,Unit,Data points,Std. Error,"1 POP = 100.0g",1Value per 100 g,
Proximates
"Energy",kcal,--,--,80,80
"Protein",g,--,--,0.00,0.00
"Total lipid (fat)",g,--,--,0.00,0.00
"Carbohydrate, by difference",g,--,--,20.00,20.00
"Fiber, total dietary",g,--,--,0.0,0.0
"Sugars, total",g,--,--,15.00,15.00
Minerals
"Calcium, Ca",mg,--,--,0,0
"Iron, Fe",mg,--,--,0.00,0.00
"Potassium, K",mg,--,--,0,0
"Sodium, Na",mg,--,--,15,15
Vitamins
"Vitamin C, total ascorbic acid",mg,--,--,0.0,0.0
"Vitamin A, IU",IU,--,--,0,0
Lipids
"Fatty acids, total saturated",g,--,--,0.000,0.000
"Fatty acids, total trans",g,--,--,0.000,0.000
"Cholesterol",mg,--,--,0,0
Amino Acids
Other
Ingredients
"WATER, SUGAR, CORN SYRUP, HIGH FRUCTOSE CORN SYRUP, CONTAINS 1% OR LESS OF CITRIC ACID, MALIC ACID, NATURAL FLAVORS, ARTIFICIAL FLAVORS, GUAR GUM, CELLULOSE GUM, XANTHAN GUM, SALT, YELLOW 5, RED 40, BLUE 1." Date available: 10/13/2017 Date last updated by company: 10/13/2017
