Source: USDA Branded Food Products Database Release December 2017 Software v.3.8.6.4 2017-10-02
Report Run at: December 17, 2017 16:31 EST
"Nutrient data for: 45105714, FRUIT STRIPS, UPC: 085239201497"
Food Group:  Branded Food Products Database
Common Name:

Nutrient,Unit,Data points,Std. Error,"1 STRIP = 14.0g",1Value per 100 g,
Proximates
"Energy",kcal,--,--,45,321
"Protein",g,--,--,0.00,0.00
"Total lipid (fat)",g,--,--,0.00,0.00
"Carbohydrate, by difference",g,--,--,11.00,78.57
"Fiber, total dietary",g,--,--,1.0,7.1
"Sugars, total",g,--,--,9.00,64.29
Minerals
"Sodium, Na",mg,--,--,5,36
Vitamins
"Vitamin C, total ascorbic acid",mg,--,--,21.4,153.0
Lipids
Amino Acids
Other
Ingredients
"STRAWBERRY FRUIT STRIP: APPLE PUREE CONCENTRATE, APPLE JUICE CONCENTRATE, CONTAINS 2% OR LESS OF: NATURAL FLAVOR, STRAWBERRY JUICE CONCENTRATE, CITRUS PECTIN, LEMON JUICE CONCENTRATE, VEGETABLE JUICE (CARROT CABBAGE) FOR COLOR, CITRIC ACID, ASCORBIC ACID (VITAMIN C). WILD BERRY FRUIT STRIP: APPLE PUREE CONCENTRATE, APPLE JUICE CONCENTRATE, CONTAINS 2% OR LESS OF: NATURAL FLAVOR, CITRUS PECTIN, LEMON JUICE CONCENTRATE, STRAWBERRY JUICE CONCENTRATE, RASPBERRY JUICE CONCENTRATE, BLUEBERRY JUICE CONCENTRATE, CITRIC ACID, ASCORBIC ACID (VITAMIN C), VEGETABLE AND FRUIT JUICE (CARROT, BLUEBERRY) FOR COLOR. APRICOT FRUIT STRIP: APPLE PUREE CONCENTRATE, APPLE JUICE CONCENTRATE, CONTAINS 2% OR LESS OF APRICOT PUREE, NATURAL FLAVOR, CITRUS PECTIN, LEMON JUICE CONCENTRATE, CITRIC ACID, ASCORBIC ACID (VITAMIN C)." Date available: 09/29/2017 Date last updated by company: 09/29/2017
