Source: USDA Branded Food Products Database Release December 2017 Software v.3.8.6.4 2017-10-02
Report Run at: December 17, 2017 15:59 EST
"Nutrient data for: 45156454, FRUIT OF THE EARTH, ALL NATURAL ALOE VERA JUICE, WILD BERRY, UPC: 071661001262"
Food Group:  Branded Food Products Database
Common Name:

Nutrient,Unit,Data points,Std. Error,"8.0 OZA = 240.0g",1Value per 100 g,
Proximates
"Energy",kcal,--,--,41,17
"Protein",g,--,--,0.00,0.00
"Total lipid (fat)",g,--,--,0.00,0.00
"Carbohydrate, by difference",g,--,--,7.99,3.33
"Sugars, total",g,--,--,7.99,3.33
Minerals
"Sodium, Na",mg,--,--,41,17
Vitamins
Lipids
"Cholesterol",mg,--,--,0,0
Amino Acids
Other
Ingredients
"ORGANIC ALOE BARBADENSIS LEAF JUICE (FROM CONCENTRATE), FRUCTOSE, NATURAL FLAVORS (CONTAINS STRAWBERRY, BLUEBERRY, BLACKBERRY, ELDERBERRY & RASPBERRY JUICES), PURPLE CARROT EXTRACT, CITRIC ACID, SODIUM BENZOATE (A FOOD PRESERVATIVE AT 1/10 OF 1%)." Date available: 07/14/2017 Date last updated by company: 07/14/2017
