Source: USDA Branded Food Products Database Release December 2017 Software v.3.8.6.4 2017-10-02
Report Run at: December 17, 2017 15:03 EST
"Nutrient data for: 45314427, FRUIT BARS, UPC: 850397004125"
Food Group:  Branded Food Products Database
Common Name:

Nutrient,Unit,Data points,Std. Error,"1.2 ONZ = 35.0g",1Value per 100 g,
Proximates
"Energy",kcal,--,--,100,286
"Protein",g,--,--,1.00,2.86
"Total lipid (fat)",g,--,--,0.00,0.00
"Carbohydrate, by difference",g,--,--,28.00,80.00
"Fiber, total dietary",g,--,--,4.0,11.4
"Sugars, total",g,--,--,22.00,62.86
Minerals
"Calcium, Ca",mg,--,--,0,0
"Iron, Fe",mg,--,--,0.82,2.35
"Sodium, Na",mg,--,--,30,86
Vitamins
"Vitamin C, total ascorbic acid",mg,--,--,2.7,7.8
"Vitamin A, IU",IU,--,--,0,0
Lipids
"Fatty acids, total saturated",g,--,--,0.000,0.000
"Fatty acids, total trans",g,--,--,0.000,0.000
"Cholesterol",mg,--,--,0,0
Amino Acids
Other
Ingredients
"APPLES, BANANAS." Date available: 08/23/2017 Date last updated by company: 08/23/2017
