Source: USDA Branded Food Products Database Release December 2017 Software v.3.8.6.4 2017-10-02
Report Run at: December 17, 2017 16:41 EST
"Nutrient data for: 45166971, FRUIT WAVE, H2O, FLAVORED WATER, MANGO, UPC: 856913003030"
Food Group:  Branded Food Products Database
Common Name:

Nutrient,Unit,Data points,Std. Error,"12.0 OZA = 355.0g",1Value per 100 g,
Proximates
"Energy",kcal,--,--,60,17
"Protein",g,--,--,0.00,0.00
"Total lipid (fat)",g,--,--,0.00,0.00
"Carbohydrate, by difference",g,--,--,13.99,3.94
"Sugars, total",g,--,--,13.99,3.94
Minerals
"Iron, Fe",mg,--,--,0.00,0.00
"Potassium, K",mg,--,--,18,5
"Sodium, Na",mg,--,--,21,6
Vitamins
"Vitamin C, total ascorbic acid",mg,--,--,6.0,1.7
Lipids
Amino Acids
Other
Ingredients
"TRIPLE FILTERED REVERSE OSMOSIS AERATED WATER, FRUCTOSE, NATURAL MANGO FLAVORING, CITRIC ACID, MALIC ACID, POTASSIUM SORBATE, SODIUM CHLORIDE, SODIUM CITRATE, NATURAL SUGARS." Date available: 07/14/2017 Date last updated by company: 07/14/2017
