Source: USDA Branded Food Products Database Release December 2017 Software v.3.8.6.4 2017-10-02
Report Run at: December 17, 2017 15:27 EST
"Nutrient data for: 45154237, FRUIT DRINK, UPC: 851694003231"
Food Group:  Branded Food Products Database
Common Name:

Nutrient,Unit,Data points,Std. Error,"1 CAN = 355.0g",1Value per 100 g,
Proximates
"Energy",kcal,--,--,82,23
"Protein",g,--,--,0.00,0.00
"Total lipid (fat)",g,--,--,0.00,0.00
"Carbohydrate, by difference",g,--,--,18.99,5.35
"Sugars, total",g,--,--,18.99,5.35
Minerals
"Sodium, Na",mg,--,--,4,1
Vitamins
Lipids
Amino Acids
Other
Ingredients
"CARBONATED WATER, ORGANIC CANE SUGAR, EXTRACTS OF GRAPEFRUITS, LEMONS, ORANGES, TANGERINES, KEY LIMES, AND CARROTS, CITRIC ACID." Date available: 07/14/2017 Date last updated by company: 07/14/2017
