Source: USDA Branded Food Products Database Release December 2017 Software v.3.8.6.4 2017-10-02
Report Run at: December 17, 2017 16:25 EST
"Nutrient data for: 45316328, FRUITS & NUT BITES, UPC: 021908493510"
Food Group:  Branded Food Products Database
Common Name:

Nutrient,Unit,Data points,Std. Error,"4.0 BITES = 30.0g",1Value per 100 g,
Proximates
"Energy",kcal,--,--,130,433
"Protein",g,--,--,2.00,6.67
"Total lipid (fat)",g,--,--,5.00,16.67
"Carbohydrate, by difference",g,--,--,17.00,56.67
"Fiber, total dietary",g,--,--,3.0,10.0
"Sugars, total",g,--,--,13.00,43.33
Minerals
"Calcium, Ca",mg,--,--,30,100
"Iron, Fe",mg,--,--,0.60,2.00
"Potassium, K",mg,--,--,190,633
"Sodium, Na",mg,--,--,60,200
Vitamins
Lipids
"Fatty acids, total saturated",g,--,--,1.500,5.000
"Fatty acids, total trans",g,--,--,0.000,0.000
"Cholesterol",mg,--,--,0,0
Amino Acids
Other
Ingredients
"DATES, ALMONDS, MAPLE SUGAR, DRIED COCONUT, COCONUT FLOUR, SEA SALT, VANILLA EXTRACT." Date available: 09/25/2017 Date last updated by company: 09/25/2017
