Source: USDA Branded Food Products Database Release December 2017 Software v.3.8.6.4 2017-10-02
Report Run at: December 17, 2017 15:35 EST
"Nutrient data for: 45287450, FRUIT FULL, 100% FRUIT SMOOTHIE, UPC: 028700147429"
Food Group:  Branded Food Products Database
Common Name:

Nutrient,Unit,Data points,Std. Error,"1 CAN* = 237.0g",1Value per 100 g,
Proximates
"Energy",kcal,--,--,130,55
"Protein",g,--,--,0.00,0.00
"Total lipid (fat)",g,--,--,0.00,0.00
"Carbohydrate, by difference",g,--,--,31.00,13.08
"Fiber, total dietary",g,--,--,3.1,1.3
"Sugars, total",g,--,--,22.99,9.70
Minerals
"Calcium, Ca",mg,--,--,0,0
"Iron, Fe",mg,--,--,0.00,0.00
"Potassium, K",mg,--,--,310,131
"Sodium, Na",mg,--,--,5,2
Vitamins
"Vitamin C, total ascorbic acid",mg,--,--,6.2,2.6
"Vitamin A, IU",IU,--,--,507,214
Lipids
"Fatty acids, total saturated",g,--,--,0.000,0.000
"Fatty acids, total trans",g,--,--,0.000,0.000
"Cholesterol",mg,--,--,0,0
Amino Acids
Other
Ingredients
"WATER, CONCENTRATED PEAR PUREE, CONCENTRATED APPLE JUICE, CONCENTRATED MANGO PUREE, CONCENTRATED PEAR JUICE, CONCENTRATED FRUIT PUREES OF PEACH AND APRICOT, NATURAL FLAVORS, CITRIC ACID, ASCORBIC ACID (VITAMIN C)." Date available: 07/14/2017 Date last updated by company: 07/14/2017
