Source: USDA Branded Food Products Database Release December 2017 Software v.3.8.6.4 2017-10-02
Report Run at: December 17, 2017 16:20 EST
"Nutrient data for: 45208812, FRUIT SNACKS RED BELT, UPC: 000790620112"
Food Group:  Branded Food Products Database
Common Name:

Nutrient,Unit,Data points,Std. Error,"16.0 PIECES = 40.0g",1Value per 100 g,
Proximates
"Energy",kcal,--,--,110,275
"Protein",g,--,--,1.00,2.50
"Total lipid (fat)",g,--,--,0.00,0.00
"Carbohydrate, by difference",g,--,--,28.00,70.00
"Fiber, total dietary",g,--,--,0.0,0.0
"Sugars, total",g,--,--,17.00,42.50
Minerals
"Iron, Fe",mg,--,--,0.00,0.00
"Sodium, Na",mg,--,--,5,12
Vitamins
"Vitamin C, total ascorbic acid",mg,--,--,60.0,150.0
"Vitamin A, IU",IU,--,--,0,0
Lipids
"Fatty acids, total saturated",g,--,--,0.000,0.000
"Fatty acids, total trans",g,--,--,0.000,0.000
"Cholesterol",mg,--,--,0,0
Amino Acids
Other
Ingredients
"CORN SYRUP, SUGAR, WATER, APPLE JUICE CONCENTRATE, MODIFIED FOOD STARCH (CORN), GELATIN, DEXTROSE, APPLE PUREE, CITRIC ACID, NATURAL & ARTIFICIAL FLAVOR, ASCORBIC ACID (VITAMIN C), MINERAL OIL, CARNAUBA WAX, ARTIFICIAL COLORS (FD&C RED 40, YELLOW 5, YELLOW 6, BLUE 1)." Date available: 07/14/2017 Date last updated by company: 07/14/2017
