Source: USDA Branded Food Products Database Release December 2017 Software v.3.8.6.4 2017-10-02
Report Run at: December 17, 2017 16:43 EST
"Nutrient data for: 45240554, FRUITY KING, MINI SODA, ORANGE, UPC: 813513010158"
Food Group:  Branded Food Products Database
Common Name:

Nutrient,Unit,Data points,Std. Error,"1 BOTTLE = 170.0g",1Value per 100 g,
Proximates
"Energy",kcal,--,--,60,35
"Protein",g,--,--,0.00,0.00
"Total lipid (fat)",g,--,--,0.00,0.00
"Carbohydrate, by difference",g,--,--,14.01,8.24
"Sugars, total",g,--,--,10.00,5.88
Minerals
"Sodium, Na",mg,--,--,31,18
Vitamins
Lipids
Amino Acids
Other
Ingredients
"CARBONATED WATER (WATER CARBON DIOXIDE), HIGH FRUCTOSE CORN SYRUP, SUGAR, CITRIC ACID, ARTIFICIAL FLAVOR, POTASSIUM SORBATE AND SODIUM BENZOATE AS PRESERVATIVES, YELLOW 6 AND NEOTAME." Date available: 07/14/2017 Date last updated by company: 07/14/2017
