Source: USDA Branded Food Products Database Release December 2017 Software v.3.8.6.4 2017-10-02
Report Run at: December 17, 2017 15:36 EST
"Nutrient data for: 45328850, FRUIT GEMS, UPC: 071567992817"
Food Group:  Branded Food Products Database
Common Name:

Nutrient,Unit,Data points,Std. Error,"3.0 PIECES = 30.0g",1Value per 100 g,
Proximates
"Energy",kcal,--,--,100,333
"Protein",g,--,--,0.00,0.00
"Total lipid (fat)",g,--,--,0.00,0.00
"Carbohydrate, by difference",g,--,--,26.00,86.67
"Sugars, total",g,--,--,18.00,60.00
Minerals
"Sodium, Na",mg,--,--,25,83
Vitamins
Lipids
Amino Acids
Other
Ingredients
"SUGAR, TAPIOCA SYRUP, CITRUS PECTIN, CITRIC ACID, NATURAL FLAVORS, SODIUM CITRATE, ORANGE JUICE FROM ORANGE PUREE CONCENTRATE, RASPBERRY JUICE FROM CONCENTRATE, VEGETABLE AND FRUIT JUICE (COLOR), GRAPEFRUIT JUICE FROM CONCENTRATE, LIME JUICE FROM CONCENTRATE, LEMON JUICE FROM LEMON PUREE CONCENTRATE, TURMERIC (COLOR), COLOR ADDED." Date available: 10/13/2017 Date last updated by company: 10/13/2017
