Source: USDA Branded Food Products Database Release December 2017 Software v.3.8.6.4 2017-10-02
Report Run at: December 17, 2017 15:47 EST
"Nutrient data for: 45152708, FRUIT JUICE, UPC: 078742043746"
Food Group:  Branded Food Products Database
Common Name:

Nutrient,Unit,Data points,Std. Error,"8.0 OZA = 240.0g",1Value per 100 g,
Proximates
"Energy",kcal,--,--,70,29
"Protein",g,--,--,0.00,0.00
"Total lipid (fat)",g,--,--,0.00,0.00
"Carbohydrate, by difference",g,--,--,16.99,7.08
"Sugars, total",g,--,--,16.99,7.08
Minerals
"Sodium, Na",mg,--,--,36,15
Vitamins
"Vitamin C, total ascorbic acid",mg,--,--,60.0,25.0
Lipids
Amino Acids
Other
Ingredients
"FILTERED WATER, HIGH FRUCTOSE CORN SYRUP, AND 2% OR LESS OF EACH OF THE FOLLOWING: CONCENTRATED JUICES (APPLE, PINEAPPLE, ORANGE, PASSIONFRUIT), PUREES (PAPAYA, APRICOT, GUAVA), CITRIC ACID, NATURAL AND ARTIFICIAL FLAVORS, ASCORBIC ACID (VITAMIN C), POTASSIUM SORBATE AND POTASSIUM BENZOATE (PRESERVATIVES), SODIUM HEXAMETAPHOSPHATE, PECTIN, GUM ACACIA, SUCRALOSE, ESTER GUM, CALCIUM DISODIUM EDTA (TO PROTECT FLAVOR), SUCROSE ACETATE ISOBUTYRATE, RED 40." Date available: 07/14/2017 Date last updated by company: 07/14/2017
