Source: USDA Branded Food Products Database Release December 2017 Software v.3.8.6.4 2017-10-02
Report Run at: December 17, 2017 15:05 EST
"Nutrient data for: 45286788, FRUIT BAR, UPC: 602652241024"
Food Group:  Branded Food Products Database
Common Name:

Nutrient,Unit,Data points,Std. Error,"1 BAR = 35.0g",1Value per 100 g,
Proximates
"Energy",kcal,--,--,130,371
"Protein",g,--,--,1.00,2.86
"Total lipid (fat)",g,--,--,0.50,1.43
"Carbohydrate, by difference",g,--,--,29.00,82.86
"Fiber, total dietary",g,--,--,3.0,8.6
"Sugars, total",g,--,--,17.00,48.57
Minerals
"Calcium, Ca",mg,--,--,20,57
"Iron, Fe",mg,--,--,2.06,5.88
"Potassium, K",mg,--,--,135,386
"Sodium, Na",mg,--,--,65,186
Vitamins
"Vitamin C, total ascorbic acid",mg,--,--,1.4,3.9
"Vitamin A, IU",IU,--,--,0,0
Lipids
"Fatty acids, total saturated",g,--,--,0.000,0.000
"Fatty acids, total monounsaturated",g,--,--,0.000,0.000
"Fatty acids, total polyunsaturated",g,--,--,0.000,0.000
"Fatty acids, total trans",g,--,--,0.000,0.000
"Cholesterol",mg,--,--,0,0
Amino Acids
Other
Ingredients
"CHERRY, APPLE, CHIA SEEDS." Date available: 07/14/2017 Date last updated by company: 07/14/2017
