Source: USDA Branded Food Products Database Release December 2017 Software v.3.8.6.4 2017-10-02
Report Run at: December 17, 2017 15:58 EST
"Nutrient data for: 45280744, FRUIT & NUT TRAIL MIX, UPC: 018894004585"
Food Group:  Branded Food Products Database
Common Name:

Nutrient,Unit,Data points,Std. Error,"0.25 cup = 30.0g",1Value per 100 g,
Proximates
"Energy",kcal,--,--,120,400
"Protein",g,--,--,1.00,3.33
"Total lipid (fat)",g,--,--,2.50,8.33
"Carbohydrate, by difference",g,--,--,22.00,73.33
"Fiber, total dietary",g,--,--,1.0,3.3
"Sugars, total",g,--,--,19.00,63.33
Minerals
"Calcium, Ca",mg,--,--,20,67
"Iron, Fe",mg,--,--,0.60,2.00
"Sodium, Na",mg,--,--,20,67
Vitamins
"Vitamin C, total ascorbic acid",mg,--,--,0.0,0.0
"Vitamin A, IU",IU,--,--,0,0
Lipids
"Fatty acids, total saturated",g,--,--,0.999,3.330
"Cholesterol",mg,--,--,0,0
Amino Acids
Other
Ingredients
"RAISINS, PINEAPPLE [PINEAPPLE, SUGAR, SULPHUR DIOXIDE (PRESERVATIVE)], PAPAYA [PAPAYA, SUGAR, SULPHUR DIOXIDE (PRESERVATIVE), FD&C YELLOW#6], BANANA CHIPS [BANANAS, TURBINADO SUGAR, VEGETABLE AND/OR COCONUT OIL, BANANA FLAVOR], RAISINS WITH SULPHUR DIOXIDE (PRESERVATIVE), ALMONDS, CASHEWS." Date available: 07/14/2017 Date last updated by company: 07/14/2017
