Source: USDA Branded Food Products Database Release December 2017 Software v.3.8.6.4 2017-10-02
Report Run at: December 17, 2017 15:21 EST
"Nutrient data for: 45052046, FRUIT COCKTAIL PACKED IN WATER, UPC: 041497211593"
Food Group:  Branded Food Products Database
Common Name:

Nutrient,Unit,Data points,Std. Error,"0.5 cup = 122.0g",1Value per 100 g,
Proximates
"Energy",kcal,--,--,45,37
"Protein",g,--,--,1.00,0.82
"Total lipid (fat)",g,--,--,0.00,0.00
"Carbohydrate, by difference",g,--,--,10.00,8.20
"Fiber, total dietary",g,--,--,2.0,1.6
"Sugars, total",g,--,--,7.00,5.74
Minerals
"Calcium, Ca",mg,--,--,0,0
"Iron, Fe",mg,--,--,0.00,0.00
"Potassium, K",mg,--,--,90,74
"Sodium, Na",mg,--,--,5,4
Vitamins
"Vitamin C, total ascorbic acid",mg,--,--,1.3,1.1
"Vitamin A, IU",IU,--,--,229,188
Lipids
"Fatty acids, total saturated",g,--,--,0.000,0.000
"Fatty acids, total trans",g,--,--,0.000,0.000
"Cholesterol",mg,--,--,0,0
Amino Acids
Other
Ingredients
"DICED PEACHES, WATER, DICED PEARS, GRAPES, PINEAPPLE SEGMENTS, HALVED CHERRIES COLORED RED WITH CARMINE, SUCRALOSE." Date available: 06/25/2017 Date last updated by company: 06/25/2017
