Source: USDA Branded Food Products Database Release December 2017 Software v.3.8.6.4 2017-10-02
Report Run at: December 17, 2017 16:42 EST
"Nutrient data for: 45267667, FRUITY GUMMIES, UPC: 611508174485"
Food Group:  Branded Food Products Database
Common Name:

Nutrient,Unit,Data points,Std. Error,"1 BAG = 29.0g",1Value per 100 g,
Proximates
"Energy",kcal,--,--,100,345
"Protein",g,--,--,1.00,3.45
"Total lipid (fat)",g,--,--,0.00,0.00
"Carbohydrate, by difference",g,--,--,23.00,79.31
"Fiber, total dietary",g,--,--,0.0,0.0
"Sugars, total",g,--,--,17.00,58.62
Minerals
"Calcium, Ca",mg,--,--,0,0
"Iron, Fe",mg,--,--,0.00,0.00
"Sodium, Na",mg,--,--,10,34
Vitamins
"Vitamin C, total ascorbic acid",mg,--,--,0.0,0.0
"Vitamin A, IU",IU,--,--,0,0
Lipids
"Fatty acids, total saturated",g,--,--,0.000,0.000
"Fatty acids, total trans",g,--,--,0.000,0.000
"Cholesterol",mg,--,--,0,0
Amino Acids
Other
Ingredients
"MALTOSE SYRUP, SUGAR, GELATIN, SORBITOL, DEXTROSE, APPLE JUICE CONCENTRATE, CITRIC ACID, MALIC ACID, ARTIFICIAL FLAVORS, PECTIN, CARNAUBA WAX, SODIUM CITRATE, ARTIFICIAL COLORS ( FD&C NO. RED. 40, FD&C BLUE NO. 1, FD&C YELLOW NO. 5)." Date available: 07/14/2017 Date last updated by company: 07/14/2017
