Source: USDA Branded Food Products Database Release December 2017 Software v.3.8.6.4 2017-10-02
Report Run at: December 17, 2017 15:06 EST
"Nutrient data for: 45056229, FRUIT BITES, ALL NATURAL REAL FRUIT SNACKS, UPC: 036800390935"
Food Group:  Branded Food Products Database
Common Name:

Nutrient,Unit,Data points,Std. Error,"20.0 g = 20.0g",1Value per 100 g,
Proximates
"Energy",kcal,--,--,70,350
"Protein",g,--,--,0.00,0.00
"Total lipid (fat)",g,--,--,0.00,0.00
"Carbohydrate, by difference",g,--,--,16.00,80.00
"Fiber, total dietary",g,--,--,1.0,5.0
"Sugars, total",g,--,--,13.00,65.00
Minerals
"Calcium, Ca",mg,--,--,0,0
"Iron, Fe",mg,--,--,0.00,0.00
"Sodium, Na",mg,--,--,15,75
Vitamins
"Vitamin C, total ascorbic acid",mg,--,--,6.0,30.0
"Vitamin A, IU",IU,--,--,0,0
Lipids
"Fatty acids, total saturated",g,--,--,0.00,0.00
"Fatty acids, total trans",g,--,--,0.00,0.00
"Cholesterol",mg,--,--,0,0
Amino Acids
Other
Ingredients
"CONCENTRATED APPLE PUREE AND JUICE (CONTAINS ASCORBIC ACID), CONCENTRATED CHERRY JUICE, NATURAL FLAVOR, CONCENTRATED PURPLE CARROT JUICE FOR COLOR, PECTIN, GLAZING AGENT (COCONUT OIL, SHELLAC, BEESWAX)" Date last updated by company: 01/06/2016
