Source: USDA Branded Food Products Database Release December 2017 Software v.3.8.6.4 2017-10-02
Report Run at: December 17, 2017 15:26 EST
"Nutrient data for: 45229998, FRUIT DIP, UPC: 075450501179"
Food Group:  Branded Food Products Database
Common Name:

Nutrient,Unit,Data points,Std. Error,"2.0 Tbsp = 28.0g",1Value per 100 g,
Proximates
"Energy",kcal,--,--,70,250
"Protein",g,--,--,1.00,3.57
"Total lipid (fat)",g,--,--,4.50,16.07
"Carbohydrate, by difference",g,--,--,6.00,21.43
"Fiber, total dietary",g,--,--,0.0,0.0
"Sugars, total",g,--,--,6.00,21.43
Minerals
"Calcium, Ca",mg,--,--,20,71
"Iron, Fe",mg,--,--,0.00,0.00
"Sodium, Na",mg,--,--,75,268
Vitamins
"Vitamin C, total ascorbic acid",mg,--,--,0.0,0.0
"Vitamin A, IU",IU,--,--,357,1275
Lipids
"Fatty acids, total saturated",g,--,--,2.999,10.710
"Fatty acids, total trans",g,--,--,0.000,0.000
"Cholesterol",mg,--,--,15,54
Amino Acids
Other
Ingredients
"NEUFCHATEL CHEESE (PASTEURIZED MILK, PASTEURIZED CREAM, CHEESE CULTURE, SALT, CAROB BEAN GUM), SOUR CREAM (MILK, CREAM, NONFAT DRY MILK, FOOD STARCH-MODIFIED, SODIUM PHOSPHATE, GUAR GUM, CARRAGEENAN, SODIUM CITRATE, LOCUST BEAN GUM, CULTURE, NATAMYCIN [PRESERVATIVE]), SUGAR, WATER, IMITATION VANILLA FLAVOR (WATER, VANILLIN, CARAMEL COLOR, ETHYL VANILLIN, CITRIC ACID, SODIUM BENZOATE [PRESERVATIVE]), POTASSIUM SORBATE (PRESERVATIVE)." Date available: 10/19/2017 Date last updated by company: 10/19/2017
