Source: USDA Branded Food Products Database Release December 2017 Software v.3.8.6.4 2017-10-02
Report Run at: December 17, 2017 15:51 EST
"Nutrient data for: 45171035, FRUIT N CREME SAMPLER CHEESECAKE, UPC: 010374324084"
Food Group:  Branded Food Products Database
Common Name:

Nutrient,Unit,Data points,Std. Error,"1 SLICE = 113.0g",1Value per 100 g,
Proximates
"Energy",kcal,--,--,380,336
"Protein",g,--,--,4.00,3.54
"Total lipid (fat)",g,--,--,19.00,16.81
"Carbohydrate, by difference",g,--,--,48.00,42.48
"Fiber, total dietary",g,--,--,1.0,0.9
"Sugars, total",g,--,--,29.00,25.66
Minerals
"Calcium, Ca",mg,--,--,60,53
"Iron, Fe",mg,--,--,1.20,1.06
"Sodium, Na",mg,--,--,320,283
Vitamins
"Vitamin C, total ascorbic acid",mg,--,--,2.6,2.3
"Vitamin A, IU",IU,--,--,553,489
Lipids
"Fatty acids, total saturated",g,--,--,8.995,7.960
"Fatty acids, total trans",g,--,--,0.000,0.000
"Cholesterol",mg,--,--,31,27
Amino Acids
Other
Ingredients
"CREAM CHEESE [CULTURED CREAM AND MILK, SALT, XANTHAN, CAROB BEAN AND GUAR GUMS], SUGAR, CREAM FILLING [WATER, SUGAR, MODIFIED FOOD STARCH, PALM OIL, SALT, GLUCONO DELTA LACTONE, TITANIUM DIOXIDE, METHYLHYDROXYPROPYLCELLULOSE, POTASSIUM SORBATE AND POTASSIUM BENZOATE (PRESERVATIVES), NATURAL AND ARTIFICIAL FLAVORS, FD&C YELLOW 5 & 6], WHOLE WHEAT FLOUR, MILK, CANOLA AND/OR PALM OIL, MARGARINE [PALM OIL, WATER, SOYBEAN OIL, SALT, NATURAL FLAVOR (MILK), SOY LECITHIN, BETA CAROTENE (COLOR), VITAMIN A PALMITATE], ENRICHED WHEAT FLOUR [WHEAT FLOUR, NIACIN, REDUCED IRON, THIAMIN MONONITRATE, RIBOFLAVIN, FOLIC ACID], SOYBEAN OIL, FRUIT FILLINGS [STRAWBERRIES, PEACHES, BLUEBERRIES, RASPBERRIES (WATER, SUGAR, MODIFIED CORN STARCH, MODIFIED FOOD STARCH, APPLES, SODIUM CITRATE, MALIC ACID, CITRIC ACID, SALT, ERYTHORBIC ACID, POTASSIUM SORBATE AND SODIUM BENZOATE (PRESERVATIVES), CALCIUM CARRAGEENAN, NATURAL AND ARTIFICIAL FLAVORS, LOCUST BEAN GUM, FD&C RED 40, BLUE 1, AND YELLOW 5 & 6)], EGGS (DRIED), CREAM [CREAM, CARRAGEENAN, MONO & DIGLYCERIDES, POLYSORBATE 80], SODIUM ALGINATE, TETRASODIUM PYROPHOSPHATE, SALT, INVERT SUGAR, MOLASSES AND CARAMEL COLOR, BAKING SODA, MONOCALCIUM PHOSPHATE, NATURAL AND ARTIFICIAL FLAVORS, ARTIFICIAL COLOR [WATER, GLYCERIN, FD&C YELLOW 5 & 6, RED 3 & 40, CITRIC ACID, SODIUM BENZOATE (PRESERVATIVE)], MALIC ACID, APOCAROTENAL (COLOR)." Date available: 07/14/2017 Date last updated by company: 07/14/2017
