Source: USDA Branded Food Products Database Release December 2017 Software v.3.8.6.4 2017-10-02
Report Run at: December 17, 2017 14:58 EST
"Nutrient data for: 45327025, FRUIT AND CHEESE SNACKER, UPC: 826766951321"
Food Group:  Branded Food Products Database
Common Name:

Nutrient,Unit,Data points,Std. Error,"1 CONTAINER = 227.0g",1Value per 100 g,
Proximates
"Energy",kcal,--,--,329,145
"Protein",g,--,--,15.00,6.61
"Total lipid (fat)",g,--,--,19.00,8.37
"Carbohydrate, by difference",g,--,--,29.01,12.78
"Fiber, total dietary",g,--,--,2.0,0.9
"Sugars, total",g,--,--,23.00,10.13
Minerals
"Calcium, Ca",mg,--,--,400,176
"Iron, Fe",mg,--,--,0.14,0.06
"Sodium, Na",mg,--,--,370,163
Vitamins
"Vitamin C, total ascorbic acid",mg,--,--,2.3,1.0
"Vitamin A, IU",IU,--,--,281,124
Lipids
"Fatty acids, total saturated",g,--,--,11.009,4.850
"Fatty acids, total trans",g,--,--,0.499,0.220
"Cholesterol",mg,--,--,54,24
Amino Acids
Other
Ingredients
"GRAPES, CHEDDAR CHEESE (CULTURED PASTEURIZED MILK, SALT, ENZYMES, ANNATTO COLOR [IF COLORED]), APPLES (APPLES, CALCIUM ASCORBATE [A BLEND OF CALCIUM AND VITAMINS TO MAINTAIN COLOR])." Date available: 10/13/2017 Date last updated by company: 10/13/2017
