Source: USDA Branded Food Products Database Release December 2017 Software v.3.8.6.4 2017-10-02
Report Run at: December 17, 2017 16:38 EST
"Nutrient data for: 45287469, FRUIT & VEGGIES BLENDED FRUIT SNACK, UPC: 028700350492"
Food Group:  Branded Food Products Database
Common Name:

Nutrient,Unit,Data points,Std. Error,"1 POUCH = 90.0g",1Value per 100 g,
Proximates
"Energy",kcal,--,--,60,67
"Protein",g,--,--,0.00,0.00
"Total lipid (fat)",g,--,--,0.00,0.00
"Carbohydrate, by difference",g,--,--,13.00,14.44
"Fiber, total dietary",g,--,--,2.0,2.2
"Sugars, total",g,--,--,9.00,10.00
Minerals
"Iron, Fe",mg,--,--,0.20,0.22
"Sodium, Na",mg,--,--,5,6
Vitamins
"Vitamin C, total ascorbic acid",mg,--,--,33.3,37.0
"Vitamin A, IU",IU,--,--,1667,1852
Lipids
Amino Acids
Other
Ingredients
"APPLES, SWEET POTATO PUREE, CARROT PUREE, WATER, APPLE JUICE CONCENTRATE, MANGO PUREE, PEACH PUREE, NATURAL FLAVORS, ASCORBIC ACID (VITAMIN C), CITRIC ACID." Date available: 07/14/2017 Date last updated by company: 07/14/2017
