Source: USDA Branded Food Products Database Release December 2017 Software v.3.8.6.4 2017-10-02
Report Run at: December 17, 2017 15:41 EST
"Nutrient data for: 45213043, FRUIT GUMMIES CANDY, UPC: 000790500148"
Food Group:  Branded Food Products Database
Common Name:

Nutrient,Unit,Data points,Std. Error,"13.0 PIECES = 40.0g",1Value per 100 g,
Proximates
"Energy",kcal,--,--,120,300
"Protein",g,--,--,3.00,7.50
"Total lipid (fat)",g,--,--,0.00,0.00
"Carbohydrate, by difference",g,--,--,28.00,70.00
"Fiber, total dietary",g,--,--,0.0,0.0
"Sugars, total",g,--,--,15.00,37.50
Minerals
"Iron, Fe",mg,--,--,0.00,0.00
"Sodium, Na",mg,--,--,15,38
Vitamins
"Vitamin C, total ascorbic acid",mg,--,--,0.0,0.0
"Vitamin A, IU",IU,--,--,0,0
Lipids
"Fatty acids, total saturated",g,--,--,0.000,0.000
"Fatty acids, total trans",g,--,--,0.000,0.000
"Cholesterol",mg,--,--,0,0
Amino Acids
Other
Ingredients
"SUGAR, CORN SYRUP, WHITE GRAPE JUICE CONCENTRATE, GELATIN, CITRIC ACID, NATURAL AND ARTIFICIAL FLAVOR, FD&C RED 40, YELLOW 5, YELLOW 6, BLUE 1, RED 3, CARNAUBA WAX." Date available: 07/14/2017 Date last updated by company: 07/14/2017
