Source: USDA Branded Food Products Database Release December 2017 Software v.3.8.6.4 2017-10-02
Report Run at: December 17, 2017 16:09 EST
"Nutrient data for: 45157427, FRUIT PUNCH, UPC: 070970547355"
Food Group:  Branded Food Products Database
Common Name:

Nutrient,Unit,Data points,Std. Error,"5.0 CHICKS = 42.0g",1Value per 100 g,
Proximates
"Energy",kcal,--,--,130,310
"Protein",g,--,--,1.00,2.38
"Total lipid (fat)",g,--,--,0.00,0.00
"Carbohydrate, by difference",g,--,--,31.00,73.81
"Sugars, total",g,--,--,28.00,66.67
Minerals
"Sodium, Na",mg,--,--,5,12
Vitamins
Lipids
"Fatty acids, total saturated",g,--,--,0.000,0.000
"Fatty acids, total trans",g,--,--,0.000,0.000
Amino Acids
Other
Ingredients
"SUGAR, CORN SYRUP, GELATIN, CITRIC ACID, PECTIN, CONTAINS LESS THAN 0.5% OF THE FOLLOWING: NATURAL AND ARTIFICIAL FLAVOR, POTASSIUM SORBATE (A PRESERVATIVE), RED #40 LAKE, RED #40, RED #3, CARNAUBA WAX." Date available: 07/14/2017 Date last updated by company: 07/14/2017
