Source: USDA Branded Food Products Database Release December 2017 Software v.3.8.6.4 2017-10-02
Report Run at: December 17, 2017 15:29 EST
"Nutrient data for: 45191809, FRUIT FILLING APPLE, UPC: 092825110514"
Food Group:  Branded Food Products Database
Common Name:

Nutrient,Unit,Data points,Std. Error,"0.33 cup = 85.0g",1Value per 100 g,
Proximates
"Energy",kcal,--,--,120,141
"Protein",g,--,--,0.00,0.00
"Total lipid (fat)",g,--,--,0.00,0.00
"Carbohydrate, by difference",g,--,--,29.00,34.12
"Fiber, total dietary",g,--,--,1.0,1.2
"Sugars, total",g,--,--,20.00,23.53
Minerals
"Calcium, Ca",mg,--,--,0,0
"Iron, Fe",mg,--,--,0.36,0.42
"Sodium, Na",mg,--,--,40,47
Vitamins
"Vitamin C, total ascorbic acid",mg,--,--,0.0,0.0
"Vitamin A, IU",IU,--,--,100,118
Lipids
"Fatty acids, total saturated",g,--,--,0.000,0.000
"Fatty acids, total trans",g,--,--,0.000,0.000
"Cholesterol",mg,--,--,0,0
Amino Acids
Other
Ingredients
"SLICED APPLES, WATER, SUGAR, MODIFIED CORN STARCH, CINNAMON, ERYTHORBIC ACID (TO PROMOTE COLOR RETENTION)." Date available: 07/14/2017 Date last updated by company: 07/14/2017
