Source: USDA Branded Food Products Database Release December 2017 Software v.3.8.6.4 2017-10-02
Report Run at: December 17, 2017 15:25 EST
"Nutrient data for: 45179358, FRUIT DELIGHT SWIRL, UPC: 810222022342"
Food Group:  Branded Food Products Database
Common Name:

Nutrient,Unit,Data points,Std. Error,"40.0 GRM = 40.0g",1Value per 100 g,
Proximates
"Energy",kcal,--,--,110,275
"Protein",g,--,--,0.00,0.00
"Total lipid (fat)",g,--,--,0.00,0.00
"Carbohydrate, by difference",g,--,--,29.00,72.50
"Fiber, total dietary",g,--,--,3.0,7.5
"Sugars, total",g,--,--,23.00,57.50
Minerals
"Calcium, Ca",mg,--,--,20,50
"Iron, Fe",mg,--,--,0.36,0.90
"Sodium, Na",mg,--,--,40,100
Vitamins
"Vitamin C, total ascorbic acid",mg,--,--,1.2,3.0
"Vitamin A, IU",IU,--,--,0,0
Lipids
"Fatty acids, total saturated",g,--,--,0.000,0.000
"Fatty acids, total trans",g,--,--,0.000,0.000
"Cholesterol",mg,--,--,0,0
Amino Acids
Other
Ingredients
"APPLE RINGS, MANGO (SUGAR, FD&C YELLOW #5 AND #6), PEARS, KIWI (SUGAR, CITRIC ACID, COLOR ADDED FD&C YELLOW #5 AND BLUE#1), CALIFORNIA ANGELINO PLUMS." Date available: 07/14/2017 Date last updated by company: 07/14/2017
