Source: USDA Branded Food Products Database Release December 2017 Software v.3.8.6.4 2017-10-02
Report Run at: December 17, 2017 15:23 EST
"Nutrient data for: 45279434, FRUIT COCKTAIL, UPC: 018894331346"
Food Group:  Branded Food Products Database
Common Name:

Nutrient,Unit,Data points,Std. Error,"0.5 cup = 128.0g",1Value per 100 g,
Proximates
"Energy",kcal,--,--,100,78
"Protein",g,--,--,0.00,0.00
"Total lipid (fat)",g,--,--,0.00,0.00
"Carbohydrate, by difference",g,--,--,25.00,19.53
"Fiber, total dietary",g,--,--,1.0,0.8
"Sugars, total",g,--,--,18.00,14.06
Minerals
"Calcium, Ca",mg,--,--,0,0
"Iron, Fe",mg,--,--,0.00,0.00
"Sodium, Na",mg,--,--,10,8
Vitamins
"Vitamin C, total ascorbic acid",mg,--,--,1.3,1.0
"Vitamin A, IU",IU,--,--,219,171
Lipids
"Fatty acids, total saturated",g,--,--,0.000,0.000
"Fatty acids, total trans",g,--,--,0.000,0.000
"Cholesterol",mg,--,--,0,0
Amino Acids
Other
Ingredients
"DICED PEACHES, DICED PEARS, WATER, GRAPES, CORN SYRUP, PINEAPPLE SECTORS, HALVED CHERRIES ARTIFICIALLY COLORED RED WITH CARMINE, SUGAR." Date available: 07/14/2017 Date last updated by company: 07/14/2017
