Source: USDA Branded Food Products Database Release December 2017 Software v.3.8.6.4 2017-10-02
Report Run at: December 17, 2017 16:28 EST
"Nutrient data for: 45327000, FRUIT SPREAD, UPC: 078742232836"
Food Group:  Branded Food Products Database
Common Name:

Nutrient,Unit,Data points,Std. Error,"1 Tbsp = 19.0g",1Value per 100 g,
Proximates
"Energy",kcal,--,--,40,211
"Protein",g,--,--,1.00,5.26
"Total lipid (fat)",g,--,--,0.00,0.00
"Carbohydrate, by difference",g,--,--,11.00,57.89
"Fiber, total dietary",g,--,--,0.0,0.0
"Sugars, total",g,--,--,11.00,57.89
Minerals
"Sodium, Na",mg,--,--,0,0
Vitamins
Lipids
"Fatty acids, total saturated",g,--,--,0.000,0.000
"Fatty acids, total trans",g,--,--,0.000,0.000
"Cholesterol",mg,--,--,0,0
Amino Acids
Other
Ingredients
"PEACHES, SUGAR, PECTIN, CITRIC ACID." Date available: 10/13/2017 Date last updated by company: 10/13/2017
