Source: USDA Branded Food Products Database Release December 2017 Software v.3.8.6.4 2017-10-02
Report Run at: December 17, 2017 16:33 EST
"Nutrient data for: 45275879, FRUIT TRAY WITH VANILLA BEAN CREAM CHEESE DIP, UPC: 030223012849"
Food Group:  Branded Food Products Database
Common Name:

Nutrient,Unit,Data points,Std. Error,"2.0 TBSP DIP | FRUIT AND = 170.0g",1Value per 100 g,
Proximates
"Energy",kcal,--,--,150,88
"Protein",g,--,--,2.01,1.18
"Total lipid (fat)",g,--,--,4.00,2.35
"Carbohydrate, by difference",g,--,--,28.00,16.47
"Fiber, total dietary",g,--,--,2.0,1.2
"Sugars, total",g,--,--,23.00,13.53
Minerals
"Calcium, Ca",mg,--,--,41,24
"Iron, Fe",mg,--,--,0.10,0.06
"Sodium, Na",mg,--,--,85,50
Vitamins
"Vitamin C, total ascorbic acid",mg,--,--,33.5,19.7
"Vitamin A, IU",IU,--,--,367,216
Lipids
"Fatty acids, total saturated",g,--,--,2.499,1.470
"Fatty acids, total trans",g,--,--,0.000,0.000
"Cholesterol",mg,--,--,10,6
Amino Acids
Other
Ingredients
"PINEAPPLE, CANTALOUPE MELON, VANILLA BEAN CREAM CHEESE DIP (CREAM CHEESE SPREAD [PASTEURIZED MILK AND CREAM, WATER, WHEY PROTEIN CONCENTRATE, SALT, MODIFIED FOOD STARCH, CHEESE CULTURES, SKIM MILK AND CULTURED SKIM MILK, CAROB BEAN GUM, XANTHAN GUM, GUAR GUM, LACTIC ACID, NATURAL FLAVOR, ENZYMES], HIGH FRUCTOSE CORN SYRUP, WATER, CONTAINS LESS THAN 2% OF SOYBEAN OIL, MODIFIED CORN STARCH, NONFAT DRY MILK, CULTURED NONFAT MILK, NATURAL FLAVOR, VINEGAR, LEMON JUICE CONCENTRATE, WHEY PROTEIN CONCENTRATE, GELATIN, PROCESSED VANILLA BEANS, LACTIC ACID, DAIRY CULTURES), GRAPES, STRAWBERRIES OR MANDARIN ORANGE SEGMENTS, RED APPLES (APPLES AND CALCIUM ASCORBATE [TO MAINTAIN FRESHNESS AND COLOR]), GREEN APPLES (APPLES AND CALCIUM ASCORBATE [TO MAINTAIN FRESHNESS AND COLOR])." Date available: 07/14/2017 Date last updated by company: 07/14/2017
