Source: USDA Branded Food Products Database Release December 2017 Software v.3.8.6.4 2017-10-02
Report Run at: December 17, 2017 15:45 EST
"Nutrient data for: 45227822, FRUIT JUICE BEVERAGE, UPC: 720379580094"
Food Group:  Branded Food Products Database
Common Name:

Nutrient,Unit,Data points,Std. Error,"8.0 OZA = 236.0g",1Value per 100 g,
Proximates
"Energy",kcal,--,--,160,68
"Protein",g,--,--,2.01,0.85
"Total lipid (fat)",g,--,--,1.51,0.64
"Carbohydrate, by difference",g,--,--,34.01,14.41
"Fiber, total dietary",g,--,--,4.0,1.7
"Sugars, total",g,--,--,27.99,11.86
Minerals
"Calcium, Ca",mg,--,--,59,25
"Iron, Fe",mg,--,--,1.46,0.62
"Sodium, Na",mg,--,--,85,36
Vitamins
"Vitamin C, total ascorbic acid",mg,--,--,0.0,0.0
"Vitamin A, IU",IU,--,--,0,0
Lipids
"Fatty acids, total saturated",g,--,--,0.000,0.000
"Fatty acids, total trans",g,--,--,0.000,0.000
"Cholesterol",mg,--,--,0,0
Amino Acids
Other
Ingredients
"ORGANIC TART CHERRY JUICE, ORGANIC CHIA SEEDS." Date available: 07/14/2017 Date last updated by company: 07/14/2017
