Source: USDA Branded Food Products Database Release December 2017 Software v.3.8.6.4 2017-10-02
Report Run at: December 17, 2017 15:28 EST
"Nutrient data for: 45260938, FRUIT DRINK, UPC: 072350000184"
Food Group:  Branded Food Products Database
Common Name:

Nutrient,Unit,Data points,Std. Error,"1 BOX = 192.0g",1Value per 100 g,
Proximates
"Energy",kcal,--,--,100,52
"Protein",g,--,--,1.00,0.52
"Total lipid (fat)",g,--,--,0.50,0.26
"Carbohydrate, by difference",g,--,--,22.00,11.46
"Fiber, total dietary",g,--,--,0.0,0.0
"Sugars, total",g,--,--,19.01,9.90
Minerals
"Calcium, Ca",mg,--,--,250,130
"Iron, Fe",mg,--,--,0.00,0.00
"Phosphorus, P",mg,--,--,188,98
"Potassium, K",mg,--,--,171,89
"Sodium, Na",mg,--,--,140,73
Vitamins
"Vitamin C, total ascorbic acid",mg,--,--,0.0,0.0
"Riboflavin",mg,--,--,0.171,0.089
"Niacin",mg,--,--,2.500,1.302
"Vitamin A, IU",IU,--,--,250,130
"Vitamin D",IU,--,--,100,52
Lipids
"Fatty acids, total saturated",g,--,--,0.000,0.000
"Fatty acids, total trans",g,--,--,0.000,0.000
"Cholesterol",mg,--,--,0,0
Amino Acids
Other
Ingredients
"WATER, HIGH FRUCTOSE CORN SYRUP, WHEY (FROM MILK), CONTAINS LESS THAN 2% OF NONFAT DRY MILK, NATURAL AND ARTIFICIAL FLAVORS, SODIUM CASEINATE (FROM MILK), CORN SYRUP SOLIDS, CALCIUM PHOSPHATE, DIPOTASSIUM PHOSPHATE, PALM OIL, GUAR GUM, XANTHAN GUM, MONO AND DIGLYCERIDES, SALT, SOY LECITHIN, SUCRALOSE, NIACINAMIDE (VITAMIN B3), VITAMIN A PALMITATE, RIBOFLAVIN (VITAMIN B2), VITAMIN D3, RED 40." Date available: 09/09/2017 Date last updated by company: 09/09/2017
