Source: USDA Branded Food Products Database Release December 2017 Software v.3.8.6.4 2017-10-02
Report Run at: December 17, 2017 16:09 EST
"Nutrient data for: 45155668, FRUIT PUNCH, UPC: 041800201723"
Food Group:  Branded Food Products Database
Common Name:

Nutrient,Unit,Data points,Std. Error,"8.0 OZA = 240.0g",1Value per 100 g,
Proximates
"Energy",kcal,--,--,79,33
"Protein",g,--,--,0.00,0.00
"Total lipid (fat)",g,--,--,0.00,0.00
"Carbohydrate, by difference",g,--,--,19.99,8.33
"Sugars, total",g,--,--,19.99,8.33
Minerals
"Sodium, Na",mg,--,--,36,15
Vitamins
"Vitamin C, total ascorbic acid",mg,--,--,60.0,25.0
Lipids
Amino Acids
Other
Ingredients
"FILTERED WATER, HIGH FRUCTOSE CORN SYRUP AND 2% OR LESS OF EACH OF THE FOLLOWING: CONCENTRATED JUICES (PINEAPPLE, APPLE, ORANGE, PASSIONFRUIT), PUREES (PAPAYA, GUAVA, APRICOT), CITRIC ACID, NATURAL AND ARTIFICIAL FLAVORS, ASCORBIC ACID (VITAMIN C), PECTIN, GUM ACACIA, SODIUM HEXAMETAPHOSPHATE, RED 40, ESTER GUM, SUCRALOSE, CALCIUM DISODIUM EDTA (TO PROTECT COLOR), BLUE 1." Date available: 07/14/2017 Date last updated by company: 07/14/2017
