Source: USDA Branded Food Products Database Release December 2017 Software v.3.8.6.4 2017-10-02
Report Run at: December 17, 2017 16:07 EST
"Nutrient data for: 45267052, FRUIT PUNCH FROM CONCENTRATE, UPC: 076737341501"
Food Group:  Branded Food Products Database
Common Name:

Nutrient,Unit,Data points,Std. Error,"8.0 OZA = 240.0g",1Value per 100 g,
Proximates
"Energy",kcal,--,--,120,50
"Protein",g,--,--,0.00,0.00
"Total lipid (fat)",g,--,--,0.00,0.00
"Carbohydrate, by difference",g,--,--,30.00,12.50
"Sugars, total",g,--,--,30.00,12.50
Minerals
"Sodium, Na",mg,--,--,0,0
Vitamins
Lipids
Amino Acids
Other
Ingredients
"WATER, HIGH FRUCTOSE CORN SYRUP, CONCENTRATED PINEAPPLE, ORANGE, GRAPEFRUIT, AND LEMON JUICES, CITRIC ACID, NATURAL AND ARTIFICIAL FLAVORS, GUM ACACIA, RED 40, YELLOW 5." Date available: 07/14/2017 Date last updated by company: 07/14/2017
