Source: USDA Branded Food Products Database Release December 2017 Software v.3.8.6.4 2017-10-02
Report Run at: December 17, 2017 15:33 EST
"Nutrient data for: 45325781, FRUIT FLAVORED SNACKS, UPC: 038259113042"
Food Group:  Branded Food Products Database
Common Name:

Nutrient,Unit,Data points,Std. Error,"1 POUCH = 22.6g",1Value per 100 g,
Proximates
"Energy",kcal,--,--,80,354
"Protein",g,--,--,0.00,0.00
"Total lipid (fat)",g,--,--,0.00,0.00
"Carbohydrate, by difference",g,--,--,19.00,84.07
"Fiber, total dietary",g,--,--,0.0,0.0
"Sugars, total",g,--,--,13.00,57.52
Minerals
"Calcium, Ca",mg,--,--,2,9
"Iron, Fe",mg,--,--,0.00,0.00
"Potassium, K",mg,--,--,12,53
"Sodium, Na",mg,--,--,15,66
Vitamins
"Vitamin C, total ascorbic acid",mg,--,--,90.0,398.2
Lipids
"Fatty acids, total saturated",g,--,--,0.000,0.000
"Fatty acids, total trans",g,--,--,0.000,0.000
"Cholesterol",mg,--,--,0,0
Amino Acids
Other
Ingredients
"FRUIT AND VEGETABLE JUICES FROM CONCENTRATE (APPLE, PEAR, CARROT), CORN SYRUP, SUGAR, MODIFIED CORNSTARCH, PECTIN, DEXTROSE, ASCORBIC ACID (VITAMIN C), MALIC ACID, NATURAL FLAVORS, CITRIC ACID, SODIUM CITRATE, ORGANIC FRUIT JUICE (COLOR), ORGANIC VEGETABLE JUICE (COLOR), CARNAUBA WAX, FRUIT JUICE (COLOR), VEGETABLE JUICE (COLOR), FRUCTAN, BETA-CAROTENE (COLOR)." Date available: 08/11/2017 Date last updated by company: 08/11/2017
