Source: USDA Branded Food Products Database Release December 2017 Software v.3.8.6.4 2017-10-02
Report Run at: December 17, 2017 16:02 EST
"Nutrient data for: 45138466, FRUIT2O, SPARKLING WATER BEVERAGE, PEACH, UPC: 019063000940"
Food Group:  Branded Food Products Database
Common Name:

Nutrient,Unit,Data points,Std. Error,"8.0 OZA = 240.0g",1Value per 100 g,
Proximates
"Energy",kcal,--,--,0,0
"Protein",g,--,--,0.00,0.00
"Total lipid (fat)",g,--,--,0.00,0.00
"Carbohydrate, by difference",g,--,--,1.01,0.42
Minerals
"Sodium, Na",mg,--,--,0,0
Vitamins
Lipids
Amino Acids
Other
Ingredients
"CARBONATED WATER, CONTAINS LESS THAN 2% OF PEACH JUICE CONCENTRATE, APPLE JUICE CONCENTRATE, NATURAL FLAVOR, CITRIC ACID, POTASSIUM CITRATE, SUCRALOSE, GUM ACACIA, GLYCEROL ESTER OF WOOD ROSIN, MEDIUM CHAIN TRIGLYCERIDES, CALCIUM DISODIUM EDTA (TO PROTECT FLAVOR), POTASSIUM BENZOATE (TO ENSURE FRESHNESS), RED 40 AND YELLOW 6." Date available: 07/14/2017 Date last updated by company: 07/14/2017
