Source: USDA Branded Food Products Database Release December 2017 Software v.3.8.6.4 2017-10-02
Report Run at: December 17, 2017 15:58 EST
"Nutrient data for: 45275700, FRUIT & NUT TRAIL MIX, UPC: 031200029621"
Food Group:  Branded Food Products Database
Common Name:

Nutrient,Unit,Data points,Std. Error,"0.25 cup = 30.0g",1Value per 100 g,
Proximates
"Energy",kcal,--,--,130,433
"Protein",g,--,--,0.00,0.00
"Total lipid (fat)",g,--,--,5.00,16.67
"Carbohydrate, by difference",g,--,--,19.00,63.33
"Fiber, total dietary",g,--,--,3.0,10.0
"Sugars, total",g,--,--,13.00,43.33
Minerals
"Sodium, Na",mg,--,--,40,133
Vitamins
Lipids
"Fatty acids, total saturated",g,--,--,2.001,6.670
"Fatty acids, total trans",g,--,--,0.000,0.000
Amino Acids
Other
Ingredients
"SWEETENED DRIED CRANBERRIES (CRANBERRIES, SUGAR, GLYCERIN, CITRIC ACID, SUNFLOWER OIL, NATURAL FLAVOR), HONEY ROASTED PEANUTS [PEANUTS, SUGAR, HONEY, VEGETABLE OIL (PEANUT, COTTONSEED, SOYBEAN, AND/OR SUNFLOWER), SALT, MODIFIED POTATO STARCH, MALTODEXTRIN, XANTHAN GUM], DRIED PAPAYA (PAPAYA, SUGAR, SODIUM METABISULFITE AS PRESERVATIVE, YELLOW #6), ROASTED CASHEWS (CASHEWS, VEGETABLE OIL [PEANUT, COTTONSEED, SOYBEAN AND/OR SUNFLOWER], SALT), DRIED BANANA CHIPS (BANANA, COCONUT OIL, SUGAR, NATURAL FLAVOR), DRIED PINEAPPLE (PINEAPPLE, SUGAR, CITRIC ACID, SULFUR DIOXIDE AS PRESERVATIVE). DRIED COCONUT (UNSWEETENED COCONUT, SODIUM METABISULFITE AS PRESERVATIVE)." Date available: 03/12/2017 Date last updated by company: 03/12/2017
