Source: USDA Branded Food Products Database Release December 2017 Software v.3.8.6.4 2017-10-02
Report Run at: December 17, 2017 15:32 EST
"Nutrient data for: 45286220, FRUIT FLAVORED SNACKS, UPC: 021130501878"
Food Group:  Branded Food Products Database
Common Name:

Nutrient,Unit,Data points,Std. Error,"1 POUCH = 23.0g",1Value per 100 g,
Proximates
"Energy",kcal,--,--,90,391
"Protein",g,--,--,0.00,0.00
"Total lipid (fat)",g,--,--,0.50,2.17
"Carbohydrate, by difference",g,--,--,21.00,91.30
"Fiber, total dietary",g,--,--,0.0,0.0
Minerals
"Calcium, Ca",mg,--,--,0,0
"Iron, Fe",mg,--,--,0.00,0.00
"Potassium, K",mg,--,--,10,43
"Sodium, Na",mg,--,--,10,43
Vitamins
"Vitamin C, total ascorbic acid",mg,--,--,130.4,567.1
"Vitamin A, IU",IU,--,--,0,0
Lipids
"Fatty acids, total saturated",g,--,--,0.000,0.000
"Fatty acids, total monounsaturated",g,--,--,0.000,0.000
"Fatty acids, total polyunsaturated",g,--,--,0.000,0.000
"Fatty acids, total trans",g,--,--,0.000,0.000
"Cholesterol",mg,--,--,0,0
Amino Acids
Other
Ingredients
"CORN SYRUP, SUGAR, MODIFIED CORN STARCH, APPLE JUICE CONCENTRATE, CORN STARCH, HIGH OLEIC CANOLA OIL, CONTAINS LESS THAN 2% OF: MALIC ACID, NATURAL AND ARTIFICAL FLAVORS, ASCORBIC ACID (VITAMIN C), WHITE MINERAL OIL, CARNAUBA WAX, GRAPE JUICE CONCENTRATE, STRAWBERRY JUICE CONCENTRATE, ORANGE JUICE CONCENTRATE, RASPBERRY JUICE CONCENTRATE, RED 40, BLUE 1, YELLOW 5, YELLOW 6." Date available: 07/14/2017 Date last updated by company: 07/14/2017
