Source: USDA Branded Food Products Database Release December 2017 Software v.3.8.6.4 2017-10-02
Report Run at: December 17, 2017 16:46 EST
"Nutrient data for: 45228200, FRUTA FRUIT PULPS, UPC: 041331092371"
Food Group:  Branded Food Products Database
Common Name:

Nutrient,Unit,Data points,Std. Error,"0.5 cup = 97.0g",1Value per 100 g,
Proximates
"Energy",kcal,--,--,39,40
"Protein",g,--,--,3.00,3.09
"Total lipid (fat)",g,--,--,0.00,0.00
"Carbohydrate, by difference",g,--,--,4.00,4.12
"Fiber, total dietary",g,--,--,0.0,0.0
"Sugars, total",g,--,--,0.00,0.00
Minerals
"Calcium, Ca",mg,--,--,360,371
"Iron, Fe",mg,--,--,0.52,0.54
"Sodium, Na",mg,--,--,3,3
Vitamins
"Vitamin C, total ascorbic acid",mg,--,--,19.9,20.5
"Vitamin A, IU",IU,--,--,2453,2529
Lipids
"Fatty acids, total saturated",g,--,--,0.000,0.000
"Fatty acids, total trans",g,--,--,0.000,0.000
"Cholesterol",mg,--,--,0,0
Amino Acids
Other
Ingredients
"PASSION FRUIT PULP" Date available: 09/15/2017 Date last updated by company: 09/15/2017
