Source: USDA Branded Food Products Database Release December 2017 Software v.3.8.6.4 2017-10-02
Report Run at: December 17, 2017 16:50 EST
"Nutrient data for: 45240535, FTC FOOD INTERNATIONAL, CARBONATED SOFT DRINK, BLUEBERRY, UPC: 074601176303"
Food Group:  Branded Food Products Database
Common Name:

Nutrient,Unit,Data points,Std. Error,"6.6 OZA = 200.0g",1Value per 100 g,
Proximates
"Energy",kcal,--,--,70,35
"Protein",g,--,--,0.00,0.00
"Total lipid (fat)",g,--,--,0.00,0.00
"Carbohydrate, by difference",g,--,--,19.00,9.50
"Fiber, total dietary",g,--,--,0.0,0.0
"Sugars, total",g,--,--,19.00,9.50
Minerals
"Calcium, Ca",mg,--,--,0,0
"Iron, Fe",mg,--,--,0.00,0.00
"Sodium, Na",mg,--,--,0,0
Vitamins
"Vitamin C, total ascorbic acid",mg,--,--,0.0,0.0
"Vitamin A, IU",IU,--,--,0,0
Lipids
"Fatty acids, total saturated",g,--,--,0.000,0.000
"Fatty acids, total trans",g,--,--,0.000,0.000
"Cholesterol",mg,--,--,0,0
Amino Acids
Other
Ingredients
"CARBONATED WATER, HIGH FRUCTOSE CORN SYRUP, SUGAR, CITRIC ACID, ARTIFICIAL FLAVOR, FD&C, BLUE NO. 1." Date available: 06/25/2017 Date last updated by company: 06/25/2017
