Source: USDA Branded Food Products Database Release December 2017 Software v.3.8.6.4 2017-10-02
Report Run at: December 17, 2017 16:51 EST
"Nutrient data for: 45099846, FU-CHUNG, BEAN CURD, UPC: 5699367750656"
Food Group:  Branded Food Products Database
Common Name:

Nutrient,Unit,Data points,Std. Error,"1.5 PIECE(S) = 10.0g",1Value per 100 g,
Proximates
"Energy",kcal,--,--,13,130
"Protein",g,--,--,1.00,10.00
"Total lipid (fat)",g,--,--,1.00,10.00
"Carbohydrate, by difference",g,--,--,0.00,0.00
"Fiber, total dietary",g,--,--,0.0,0.0
"Sugars, total",g,--,--,0.00,0.00
Minerals
"Calcium, Ca",mg,--,--,20,200
"Iron, Fe",mg,--,--,0.00,0.00
"Sodium, Na",mg,--,--,382,3820
Vitamins
"Vitamin C, total ascorbic acid",mg,--,--,0.0,0.0
"Vitamin A, IU",IU,--,--,0,0
Lipids
"Fatty acids, total saturated",g,--,--,0.000,0.000
"Cholesterol",mg,--,--,0,0
Amino Acids
Other
Ingredients
"SOYABEAN,SALT,WINE,SOY,FLOUR,RED RICE, WATER." Date available: 08/31/2017 Date last updated by company: 08/31/2017
