Source: USDA Branded Food Products Database Release December 2017 Software v.3.8.6.4 2017-10-02
Report Run at: December 17, 2017 16:51 EST
"Nutrient data for: 45235744, FUD, BOLOGNA, UPC: 645230370013"
Food Group:  Branded Food Products Database
Common Name:

Nutrient,Unit,Data points,Std. Error,"1 SLICE = 32.0g",1Value per 100 g,
Proximates
"Energy",kcal,--,--,100,312
"Protein",g,--,--,3.00,9.38
"Total lipid (fat)",g,--,--,8.00,25.00
"Carbohydrate, by difference",g,--,--,2.00,6.25
"Fiber, total dietary",g,--,--,0.0,0.0
"Sugars, total",g,--,--,1.00,3.12
Minerals
"Calcium, Ca",mg,--,--,20,62
"Iron, Fe",mg,--,--,0.62,1.94
"Sodium, Na",mg,--,--,350,1094
Vitamins
"Vitamin C, total ascorbic acid",mg,--,--,0.0,0.0
"Vitamin A, IU",IU,--,--,0,0
Lipids
"Fatty acids, total saturated",g,--,--,2.499,7.810
"Fatty acids, total trans",g,--,--,0.000,0.000
"Cholesterol",mg,--,--,35,109
Amino Acids
Other
Ingredients
"MECHANICALLY SEPARATED CHICKEN, PORK, WATER, CORN SYRUP, SALT, CONTAINS 2% OR LESS OF THE FOLLOWING: BEEF, MODIFIED CORN STARCH, POTASSIUM LACTATE, POTASSIUM ACETATE, SODIUM DIACETATE, FLAVORINGS, SODIUM PHOSPHATES, SODIUM ERYTHORBATE, SODIUM NITRITE, DEXTROSE, OLEORESIN OF PAPRIKA." Date available: 06/25/2017 Date last updated by company: 06/25/2017
