Source: USDA Branded Food Products Database Release December 2017 Software v.3.8.6.4 2017-10-02
Report Run at: December 17, 2017 16:58 EST
"Nutrient data for: 45190359, FUDGE PIE, UPC: 035669727111"
Food Group:  Branded Food Products Database
Common Name:

Nutrient,Unit,Data points,Std. Error,"0.125 cup = 120.0g",1Value per 100 g,
Proximates
"Energy",kcal,--,--,330,275
"Protein",g,--,--,5.00,4.17
"Total lipid (fat)",g,--,--,11.00,9.17
"Carbohydrate, by difference",g,--,--,54.00,45.00
"Fiber, total dietary",g,--,--,1.0,0.8
"Sugars, total",g,--,--,45.00,37.50
Minerals
"Calcium, Ca",mg,--,--,156,130
"Iron, Fe",mg,--,--,0.76,0.63
"Sodium, Na",mg,--,--,230,192
Vitamins
"Vitamin C, total ascorbic acid",mg,--,--,2.4,2.0
"Vitamin A, IU",IU,--,--,312,260
Lipids
"Fatty acids, total saturated",g,--,--,6.996,5.830
"Fatty acids, total trans",g,--,--,0.000,0.000
"Cholesterol",mg,--,--,10,8
Amino Acids
Other
Ingredients
"SUGAR, EGGS, MARGARINE (PALM OIL, WATER, SALT, MONO AND DIGLYCERIDES, ARTIFICIAL FLAVOR, COLOR, WITH ANNATTO, CALCIUM DISODIUM EDTA AS PRESERVATIVE, VITAMIN A PALMITATE ADDED), BUTTER, ENRICHED WHEAT FLOUR BLEACHED (FLOUR, NIACIN, REDUCED IRON, THIAMINE MONONITRATE, RIBOFLAVIN, FOLIC ACID), COCOA, PECANS, VANILLA." Date available: 10/13/2017 Date last updated by company: 10/13/2017
