Source: USDA Branded Food Products Database Release December 2017 Software v.3.8.6.4 2017-10-02
Report Run at: December 17, 2017 16:59 EST
"Nutrient data for: 45112259, FUDGE ROUNDS SANDWICH COOKIES, UPC: 024300041501"
Food Group:  Branded Food Products Database
Common Name:

Nutrient,Unit,Data points,Std. Error,"1 COOKIE = 34.0g",1Value per 100 g,
Proximates
"Energy",kcal,--,--,150,441
"Protein",g,--,--,1.00,2.94
"Total lipid (fat)",g,--,--,6.00,17.65
"Carbohydrate, by difference",g,--,--,23.00,67.65
"Fiber, total dietary",g,--,--,1.0,2.9
"Sugars, total",g,--,--,14.00,41.18
Minerals
"Calcium, Ca",mg,--,--,0,0
"Iron, Fe",mg,--,--,1.59,4.67
"Potassium, K",mg,--,--,50,147
"Sodium, Na",mg,--,--,85,250
Vitamins
"Vitamin C, total ascorbic acid",mg,--,--,0.0,0.0
"Vitamin A, IU",IU,--,--,0,0
Lipids
"Fatty acids, total saturated",g,--,--,2.499,7.350
"Fatty acids, total monounsaturated",g,--,--,1.000,2.940
"Fatty acids, total polyunsaturated",g,--,--,1.499,4.410
"Fatty acids, total trans",g,--,--,0.000,0.000
"Cholesterol",mg,--,--,0,0
Amino Acids
Other
Ingredients
"ENRICHED BLEACHED FLOUR (WHEAT FLOUR, NIACIN, REDUCED IRON, THIAMIN MONONITRATE [VITAMIN B1], RIBOFLAVIN [VITAMIN B2], FOLIC ACID), CORN SYRUP, SUGAR, DEXTROSE, PALM AND SOYBEAN OILS WITH TBHQ AND CITRIC ACID TO PROTECT FLAVOR, WATER, COCOA. CONTAINS 2% OR LESS OF EACH OF THE FOLLOWING: SOY FLOUR, PALM AND PALM KERNEL OIL, WHEY (MILK), BAKING SODA, EGGS, COLOR (CARAMEL COLOR, TITANIUM DIOXIDE, RED 40), SALT, CORN STARCH, NATURAL AND ARTIFICIAL FLAVORS, SORBITAN MONOSTEARATE, POLYSORBATE 60, SORBIC ACID (TO PRESERVE FRESHNESS), MONO- AND DIGLYCERIDES, SOY LECITHIN, EGG WHITES, CITRIC ACID." Date available: 07/14/2017 Date last updated by company: 07/14/2017
