Source: USDA Branded Food Products Database Release December 2017 Software v.3.8.6.4 2017-10-02
Report Run at: December 17, 2017 17:03 EST
"Nutrient data for: 45145140, FUDGIE WUDGIE, PEANUT BUTTER CUP FUDGE, UPC: 705772635589"
Food Group:  Branded Food Products Database
Common Name:

Nutrient,Unit,Data points,Std. Error,"1.34 ONZ = 38.0g",1Value per 100 g,
Proximates
"Energy",kcal,--,--,160,421
"Protein",g,--,--,2.00,5.26
"Total lipid (fat)",g,--,--,6.00,15.79
"Carbohydrate, by difference",g,--,--,23.00,60.53
"Fiber, total dietary",g,--,--,1.0,2.6
"Sugars, total",g,--,--,21.00,55.26
Minerals
"Calcium, Ca",mg,--,--,10,26
"Iron, Fe",mg,--,--,0.47,1.25
"Sodium, Na",mg,--,--,95,250
Vitamins
"Vitamin C, total ascorbic acid",mg,--,--,0.0,0.0
"Vitamin A, IU",IU,--,--,131,346
Lipids
"Fatty acids, total saturated",g,--,--,2.998,7.890
"Fatty acids, total trans",g,--,--,0.000,0.000
"Cholesterol",mg,--,--,10,26
Amino Acids
Other
Ingredients
"SUGAR, CREAM, PEANUT BUTTER (DRY ROASTED PEANUTS, SALT), BUTTER, CORN SYRUP, CHOCOLATE, COCOA, POTASSIUM SORBATE (PRESERVATIVE), VANILLA, SALT, SOY LECITHIN (EMULSIFIER)." Date available: 07/14/2017 Date last updated by company: 07/14/2017
