Source: USDA Branded Food Products Database Release December 2017 Software v.3.8.6.4 2017-10-02
Report Run at: December 17, 2017 16:53 EST
"Nutrient data for: 45208628, FUDGE BROWNIE COVERED IN MILK CHOCOLATE, UPC: 077260063533"
Food Group:  Branded Food Products Database
Common Name:

Nutrient,Unit,Data points,Std. Error,"0.5 RABBIT = 43.0g",1Value per 100 g,
Proximates
"Energy",kcal,--,--,220,512
"Protein",g,--,--,3.00,6.98
"Total lipid (fat)",g,--,--,12.00,27.91
"Carbohydrate, by difference",g,--,--,25.00,58.14
"Fiber, total dietary",g,--,--,1.0,2.3
"Sugars, total",g,--,--,22.00,51.16
Minerals
"Calcium, Ca",mg,--,--,60,140
"Iron, Fe",mg,--,--,1.26,2.92
"Sodium, Na",mg,--,--,65,151
Vitamins
"Vitamin C, total ascorbic acid",mg,--,--,0.0,0.0
"Vitamin A, IU",IU,--,--,117,271
Lipids
"Fatty acids, total saturated",g,--,--,7.998,18.600
"Fatty acids, total trans",g,--,--,0.000,0.000
"Cholesterol",mg,--,--,10,23
Amino Acids
Other
Ingredients
"INGREDIENTS CONSIST OF CHOCOLATE {SUGAR, CHOCOLATE, CHOCOLATE PROCESSED WITH ALKALI, COCOA BUTTER, WHOLE MILK, MILK FAT, SOY LECITHIN (AN EMULSIFIER), VANILLIN (AN ARTIFICIAL FLAVOR), BROWNIE MIX {SUGAR, ENRICHED WHEAT FLOUR (WHEAT FLOUR, NIACIN, IRON, THIAMIN MONONITRATE, RIBOFLAVIN, FOLIC ACID), COCOA POWDER, EGG WHITES, SALT, NONFAT DRY MILK, NATURAL FLAVOR, XANTHAN GUM}, CONDENSED MILK, BUTTER, INVERT SUGAR, CORN SYRUP, NATURAL FLAVOR, SALT, POTASSIUM SORBATE (PRESERVATIVE), AND SOY LECITHIN (AN EMULSIFIER)." Date available: 07/14/2017 Date last updated by company: 07/14/2017
