Source: USDA Branded Food Products Database Release December 2017 Software v.3.8.6.4 2017-10-02
Report Run at: December 17, 2017 16:53 EST
"Nutrient data for: 45285794, FUDGE BROWNIE ICE CREAM, UPC: 852109331017"
Food Group:  Branded Food Products Database
Common Name:

Nutrient,Unit,Data points,Std. Error,"0.5 cup = 71.0g",1Value per 100 g,
Proximates
"Energy",kcal,--,--,100,141
"Protein",g,--,--,7.00,9.86
"Total lipid (fat)",g,--,--,3.50,4.93
"Carbohydrate, by difference",g,--,--,19.00,26.76
"Fiber, total dietary",g,--,--,5.0,7.0
"Sugars, total",g,--,--,6.00,8.45
Minerals
"Calcium, Ca",mg,--,--,200,282
"Iron, Fe",mg,--,--,0.81,1.14
"Sodium, Na",mg,--,--,45,63
Vitamins
"Vitamin C, total ascorbic acid",mg,--,--,0.0,0.0
"Vitamin A, IU",IU,--,--,112,158
Lipids
"Fatty acids, total saturated",g,--,--,2.002,2.820
"Fatty acids, total trans",g,--,--,0.000,0.000
"Cholesterol",mg,--,--,10,14
Amino Acids
Other
Ingredients
"SKIM MILK, MILK PROTEIN ISOLATE, ERYTHRITOL (NATURAL SWEETENER), NON-GMO SOLUBLE CORN FIBER, DUTCHED COCOA, WHEAT FLOUR, CANE SUGAR, CREAM, CONTAINS 2% OR LESS OF: VEGETABLE GLYCERIN, BUTTER, COCONUT OIL, CAROB GUM, GUAR GUM, MONK FRUIT EXTRACT, SOYBEAN OIL, NATURAL FLAVOR, GHEE, CORN STARCH, SOY LECITHIN, SALT." Date available: 07/14/2017 Date last updated by company: 07/14/2017
