Source: USDA Branded Food Products Database Release December 2017 Software v.3.8.6.4 2017-10-02
Report Run at: December 17, 2017 16:51 EST
"Nutrient data for: 45102391, FUDGE BARS, UPC: 011225026492"
Food Group:  Branded Food Products Database
Common Name:

Nutrient,Unit,Data points,Std. Error,"1 BAR = 77.0g",1Value per 100 g,
Proximates
"Energy",kcal,--,--,110,143
"Protein",g,--,--,3.00,3.90
"Total lipid (fat)",g,--,--,2.50,3.25
"Carbohydrate, by difference",g,--,--,19.00,24.68
"Fiber, total dietary",g,--,--,0.0,0.0
"Sugars, total",g,--,--,18.00,23.38
Minerals
"Calcium, Ca",mg,--,--,100,130
"Iron, Fe",mg,--,--,0.00,0.00
"Sodium, Na",mg,--,--,130,169
Vitamins
"Vitamin C, total ascorbic acid",mg,--,--,0.0,0.0
"Vitamin A, IU",IU,--,--,0,0
Lipids
"Fatty acids, total saturated",g,--,--,1.502,1.950
"Fatty acids, total trans",g,--,--,0.000,0.000
"Cholesterol",mg,--,--,10,13
Amino Acids
Other
Ingredients
"WATER, CORN SYRUP, WHEY, HIGH FRUCTOSE CORN SYRUP, BUTTERMILK, MILKFAT AND NONFAT MILK, CANE SUGAR SYRUP, COCOA PROCESSED WITH ALKALI, COCOA, WHEAT FLOUR, TAPIOCA STARCH, MONO- AND DIGLYCERIDES, GUAR GUM, XANTHAN GUM, CALCIUM SULFATE, CELLULOSE GUM, LOCUST BEAN GUM, CARRAGEENAN, AND MALT." Date available: 07/14/2017 Date last updated by company: 07/14/2017
