Source: USDA Branded Food Products Database Release December 2017 Software v.3.8.6.4 2017-10-02
Report Run at: December 17, 2017 16:52 EST
"Nutrient data for: 45189722, FUDGE BARS, UPC: 011161404477"
Food Group:  Branded Food Products Database
Common Name:

Nutrient,Unit,Data points,Std. Error,"1 BAR = 75.0g",1Value per 100 g,
Proximates
"Energy",kcal,--,--,100,133
"Protein",g,--,--,3.00,4.00
"Total lipid (fat)",g,--,--,1.00,1.33
"Carbohydrate, by difference",g,--,--,20.00,26.67
"Fiber, total dietary",g,--,--,1.0,1.3
"Sugars, total",g,--,--,15.00,20.00
Minerals
"Calcium, Ca",mg,--,--,100,133
"Iron, Fe",mg,--,--,0.72,0.96
"Sodium, Na",mg,--,--,50,67
Vitamins
"Vitamin C, total ascorbic acid",mg,--,--,0.0,0.0
"Vitamin A, IU",IU,--,--,0,0
Lipids
"Fatty acids, total saturated",g,--,--,0.502,0.670
"Fatty acids, total trans",g,--,--,0.000,0.000
"Cholesterol",mg,--,--,5,7
Amino Acids
Other
Ingredients
"WATER, SUGAR, CORN SYRUP, NONFAT MILK, BUTTERMILK, COCOA (PROCESSES WITH ALKALI), HIGH FRUCTOSE CORN SYRUP, WHEY, CONTAINS LESS THAN 2% OF CREAM, MONO AND DIGLYCERIDES, GUAR GUM, LOCUST BEAN GUM, CALCIUM SULFATE, POLYSORBATE 80, CARRAGEENAN." Date available: 07/14/2017 Date last updated by company: 07/14/2017
