Source: USDA Branded Food Products Database Release December 2017 Software v.3.8.6.4 2017-10-02
Report Run at: December 17, 2017 17:01 EST
"Nutrient data for: 45318175, FUDGE STRIPES COOKIES, UPC: 030100105473"
Food Group:  Branded Food Products Database
Common Name:

Nutrient,Unit,Data points,Std. Error,"2.0 cookies = 27.0g",1Value per 100 g,
Proximates
"Energy",kcal,--,--,130,481
"Protein",g,--,--,1.00,3.70
"Total lipid (fat)",g,--,--,6.00,22.22
"Carbohydrate, by difference",g,--,--,19.00,70.37
"Fiber, total dietary",g,--,--,0.0,0.0
"Sugars, total",g,--,--,11.00,40.74
Minerals
"Calcium, Ca",mg,--,--,0,0
"Iron, Fe",mg,--,--,0.00,0.00
"Sodium, Na",mg,--,--,85,315
Vitamins
"Vitamin C, total ascorbic acid",mg,--,--,0.0,0.0
"Vitamin A, IU",IU,--,--,0,0
Lipids
"Fatty acids, total saturated",g,--,--,3.999,14.810
"Fatty acids, total trans",g,--,--,0.000,0.000
"Cholesterol",mg,--,--,0,0
Amino Acids
Other
Ingredients
"ENRICHED FLOUR (WHEAT FLOUR, NIACIN, REDUCED IRON, VITAMIN B1 [THIAMIN MONONITRATE], VITAMIN B2 [RIBOFLAVIN], FOLIC ACID), SUGAR, VEGETABLE OIL (HYDROGENATED AND/OR COCONUT, SOYBEAN, PALM, AND PALM KERNEL OIL), HIGH FRUCTOSE CORN SYRUP, SEMISWEET CHOCOLATE (SUGAR, CHOCOLATE, DEXTROSE), COCOA PROCESSED WITH ALKALI, CONTAINS 2% OR LESS OF WHEY, NATURAL AND ARTIFICIAL FLAVORS, SALT, SOY LECITHIN, BAKING SODA, COLOR ADDED, SORBITAN MONOSTEARATE, POLYSORBATE 60, DATEM, RED 40, YELLOW 5 LAKE." Date available: 06/25/2017 Date last updated by company: 06/25/2017
