Source: USDA Branded Food Products Database Release December 2017 Software v.3.8.6.4 2017-10-02
Report Run at: December 17, 2017 16:53 EST
"Nutrient data for: 45281161, FUDGE BROWNIE CREAM STICKS, UPC: 070203045955"
Food Group:  Branded Food Products Database
Common Name:

Nutrient,Unit,Data points,Std. Error,"1 CONTAINER = 37.0g",1Value per 100 g,
Proximates
"Energy",kcal,--,--,150,405
"Protein",g,--,--,1.00,2.70
"Total lipid (fat)",g,--,--,6.00,16.22
"Carbohydrate, by difference",g,--,--,23.00,62.16
"Fiber, total dietary",g,--,--,1.0,2.7
"Sugars, total",g,--,--,19.00,51.35
Minerals
"Calcium, Ca",mg,--,--,20,54
"Iron, Fe",mg,--,--,0.97,2.63
"Sodium, Na",mg,--,--,30,81
Vitamins
"Vitamin C, total ascorbic acid",mg,--,--,0.0,0.0
"Vitamin A, IU",IU,--,--,0,0
Lipids
"Fatty acids, total saturated",g,--,--,3.001,8.110
"Fatty acids, total trans",g,--,--,0.000,0.000
"Cholesterol",mg,--,--,0,0
Amino Acids
Other
Ingredients
"SUGAR, DARK CHOCOLATE [CHOCOLATE LIQUOR, SUGAR, COCOA BUTTER, SOY LECITHIN-EMULSIFIER, NATURAL FLAVOR], CORN SYRUP, CHOCOLATE LIQUOR, CHOCOLATE COATING [SUGAR, PARTIALLY HYDROGENATED PALM/PALM KERNEL OILS, DUTCHED COCOA, NONFAT DRY MILK, DRIED WHEY, SOY LECITHIN-EMULSIFIER, SALT, ARTIFICIAL FLAVOR], PALM/PALM KERNEL OIL, CONTAINS LESS THAN 1%: MILK SOLIDS [CREAM, MILKFAT, WHEY SOLIDS, NONFAT DRY MILK], SALT, INVERTASE, ARTIFICIAL FLAVOR, DRIED EGG WHITES, COCONUT OIL." Date available: 07/14/2017 Date last updated by company: 07/14/2017
