Source: USDA Branded Food Products Database Release December 2017 Software v.3.8.6.4 2017-10-02
Report Run at: December 17, 2017 17:05 EST
"Nutrient data for: 45154842, FUJI BLEND CIDER, UPC: 022198008132"
Food Group:  Branded Food Products Database
Common Name:

Nutrient,Unit,Data points,Std. Error,"16.0 PER GALLON = 240.0g",1Value per 100 g,
Proximates
"Energy",kcal,--,--,120,50
"Protein",g,--,--,0.00,0.00
"Total lipid (fat)",g,--,--,0.00,0.00
"Carbohydrate, by difference",g,--,--,30.00,12.50
"Sugars, total",g,--,--,30.00,12.50
Minerals
"Iron, Fe",mg,--,--,0.55,0.23
"Sodium, Na",mg,--,--,24,10
Vitamins
"Vitamin C, total ascorbic acid",mg,--,--,5.3,2.2
Lipids
Amino Acids
Other
Ingredients
"APPLES, POTASSIUM SORBATE & SODIUM BENZOATE TO MAINTAIN FRESHNESS" Date available: 09/21/2017 Date last updated by company: 09/21/2017
