Source: USDA Branded Food Products Database Release December 2017 Software v.3.8.6.4 2017-10-02
Report Run at: December 17, 2017 17:24 EST
"Nutrient data for: 45239360, FULL CIRCLE, ORGANIC CAESAR DRESSING, UPC: 036800079427"
Food Group:  Branded Food Products Database
Common Name:

Nutrient,Unit,Data points,Std. Error,"2.0 Tbsp = 30.0g",1Value per 100 g,
Proximates
"Energy",kcal,--,--,90,300
"Protein",g,--,--,1.00,3.33
"Total lipid (fat)",g,--,--,10.00,33.33
"Carbohydrate, by difference",g,--,--,1.00,3.33
"Fiber, total dietary",g,--,--,0.0,0.0
"Sugars, total",g,--,--,0.00,0.00
Minerals
"Calcium, Ca",mg,--,--,20,67
"Iron, Fe",mg,--,--,0.00,0.00
"Sodium, Na",mg,--,--,160,533
Vitamins
"Vitamin C, total ascorbic acid",mg,--,--,0.0,0.0
"Vitamin A, IU",IU,--,--,0,0
Lipids
"Fatty acids, total saturated",g,--,--,0.999,3.330
"Fatty acids, total trans",g,--,--,0.000,0.000
"Cholesterol",mg,--,--,10,33
Amino Acids
Other
Ingredients
"FILTERED WATER, ORGANIC SOYBEAN OIL, ORGANIC WHITE VINEGAR, ORGANIC PARMESAN CHEESE (ORGANIC PASTEURIZED COWS MILK, SALT, CHEESE CULTURES, ENZYMES, ORGANIC POTATO STARCH ADDED TO PREVENT CAKING), ORGANIC EGG YOLKS, ORGANIC ROMANO CHEESE (ORGANIC PASTEURIZED COW'S MILK, SALT, CHEESE CULTURES, ENZYMES, ORGANIC POTATO STARCH ADDED TO PREVENT CAKING), SALT, ORGANIC SUGAR, ORGANIC GARLIC POWDER, ORGANIC MUSTARD FLOUR, ORGANIC ONION POWDER, ORGANIC BLACK PEPPER AND XANTHAN GUM (A NATURAL THICKENER)." Date available: 06/24/2017 Date last updated by company: 06/24/2017
