Source: USDA Branded Food Products Database Release December 2017 Software v.3.8.6.4 2017-10-02
Report Run at: December 17, 2017 17:34 EST
"Nutrient data for: 45061661, FULL STRENGTH DRINKING VINEGAR, UPC: 854751003106"
Food Group:  Branded Food Products Database
Common Name:

Nutrient,Unit,Data points,Std. Error,"1 OZA = 36.0g",1Value per 100 g,
Proximates
"Energy",kcal,--,--,70,194
"Protein",g,--,--,0.00,0.00
"Total lipid (fat)",g,--,--,0.00,0.00
"Carbohydrate, by difference",g,--,--,17.00,47.22
"Fiber, total dietary",g,--,--,0.0,0.0
"Sugars, total",g,--,--,16.00,44.44
Minerals
"Sodium, Na",mg,--,--,15,42
Vitamins
Lipids
Amino Acids
Other
Ingredients
"CANE VINEGAR. CANE SUGAR. FRESH TURMERIC. FRESH GINGER. CITRIC ACID. SEA SALT. ASCORBIC ACID" Date available: 07/14/2017 Date last updated by company: 07/14/2017
