Source: USDA Branded Food Products Database Release December 2017 Software v.3.8.6.4 2017-10-02
Report Run at: December 17, 2017 17:28 EST
"Nutrient data for: 45237413, FULL CIRCLE, ORGANIC TUSCAN ITALIAN DRESSING, UPC: 036800131989"
Food Group:  Branded Food Products Database
Common Name:

Nutrient,Unit,Data points,Std. Error,"2.0 Tbsp = 30.0g",1Value per 100 g,
Proximates
"Energy",kcal,--,--,130,433
"Protein",g,--,--,0.00,0.00
"Total lipid (fat)",g,--,--,14.00,46.67
"Carbohydrate, by difference",g,--,--,1.00,3.33
"Fiber, total dietary",g,--,--,0.0,0.0
"Sugars, total",g,--,--,1.00,3.33
Minerals
"Calcium, Ca",mg,--,--,0,0
"Iron, Fe",mg,--,--,0.00,0.00
"Sodium, Na",mg,--,--,230,767
Vitamins
"Vitamin C, total ascorbic acid",mg,--,--,0.0,0.0
"Vitamin A, IU",IU,--,--,0,0
Lipids
"Fatty acids, total saturated",g,--,--,0.999,3.330
"Fatty acids, total trans",g,--,--,0.000,0.000
"Cholesterol",mg,--,--,0,0
Amino Acids
Other
Ingredients
"ORGANIC SOYBEAN OIL, WATER, ORGANIC BALSAMIC VINEGAR (ORGANIC GRAPES, NATURALLY FORMING SULFITES), ORGANIC SUGAR, SEA SALT, ORGANIC GARLIC, ORGANIC VINE-RIPENED DRIED TOMATOES, ORGANIC BLACK PEPPER, XANTHAN GUM, ORGANIC BASIL, ORGANIC OREGANO." Date available: 10/13/2017 Date last updated by company: 10/13/2017
