Source: USDA Branded Food Products Database Release December 2017 Software v.3.8.6.4 2017-10-02
Report Run at: December 17, 2017 17:34 EST
"Nutrient data for: 45061670, FULL STRENGTH DRINKING VINEGAR, UPC: 854751003045"
Food Group:  Branded Food Products Database
Common Name:

Nutrient,Unit,Data points,Std. Error,"1 OZA = 36.0g",1Value per 100 g,
Proximates
"Energy",kcal,--,--,80,222
"Protein",g,--,--,0.00,0.00
"Total lipid (fat)",g,--,--,0.00,0.00
"Carbohydrate, by difference",g,--,--,19.00,52.78
"Fiber, total dietary",g,--,--,0.0,0.0
"Sugars, total",g,--,--,15.00,41.67
Minerals
"Sodium, Na",mg,--,--,35,97
Vitamins
Lipids
Amino Acids
Other
Ingredients
"ORGANIC WILDFLOWER HONEY, WATER, NATURAL CANE VINEGAR, CITRIC ACID, SEA SALT." Date available: 08/17/2017 Date last updated by company: 08/17/2017
