Source: USDA Branded Food Products Database Release December 2017 Software v.3.8.6.4 2017-10-02
Report Run at: December 17, 2017 17:10 EST
"Nutrient data for: 45016909, FULL CIRCLE, CANTINA STYLE MEDIUM-HOT SALSA, UPC: 036800385054"
Food Group:  Branded Food Products Database
Common Name:

Nutrient,Unit,Data points,Std. Error,"2.0 Tbsp = 29.0g",1Value per 100 g,
Proximates
"Energy",kcal,--,--,10,34
"Protein",g,--,--,0.00,0.00
"Total lipid (fat)",g,--,--,0.00,0.00
"Carbohydrate, by difference",g,--,--,2.00,6.90
"Fiber, total dietary",g,--,--,1.0,3.4
"Sugars, total",g,--,--,0.00,0.00
Minerals
"Calcium, Ca",mg,--,--,0,0
"Iron, Fe",mg,--,--,0.00,0.00
"Sodium, Na",mg,--,--,125,431
Vitamins
"Vitamin C, total ascorbic acid",mg,--,--,6.2,21.4
"Vitamin A, IU",IU,--,--,173,595
Lipids
"Fatty acids, total saturated",g,--,--,0.000,0.000
"Fatty acids, total trans",g,--,--,0.000,0.000
"Cholesterol",mg,--,--,0,0
Amino Acids
Other
Ingredients
"DICED TOMATO, FRESH ONIONS, GREEN PEPPERS, FRESH CILANTRO, HABANERO PEPPERS, GARLIC, SALT, VINEGAR, SPICES, NATURAL FLAVORS." Date available: 06/25/2017 Date last updated by company: 06/25/2017
