Source: USDA Branded Food Products Database Release December 2017 Software v.3.8.6.4 2017-10-02
Report Run at: December 17, 2017 17:31 EST
"Nutrient data for: 45017530, FULL CIRCLE, VEGETARIAN REFRIED BEANS, GREEN CHILE & LIME, UPC: 036800075818"
Food Group:  Branded Food Products Database
Common Name:

Nutrient,Unit,Data points,Std. Error,"0.5 cup = 130.0g",1Value per 100 g,
Proximates
"Energy",kcal,--,--,110,85
"Protein",g,--,--,8.00,6.15
"Total lipid (fat)",g,--,--,0.00,0.00
"Carbohydrate, by difference",g,--,--,19.99,15.38
"Fiber, total dietary",g,--,--,4.0,3.1
"Sugars, total",g,--,--,0.00,0.00
Minerals
"Calcium, Ca",mg,--,--,20,15
"Iron, Fe",mg,--,--,2.70,2.08
"Sodium, Na",mg,--,--,430,331
Vitamins
"Vitamin C, total ascorbic acid",mg,--,--,1.2,0.9
"Vitamin A, IU",IU,--,--,0,0
Lipids
"Fatty acids, total saturated",g,--,--,0.000,0.000
"Fatty acids, total trans",g,--,--,0.000,0.000
"Cholesterol",mg,--,--,0,0
Amino Acids
Other
Ingredients
"ORGANIC PINTO BEANS, WATER, ORGANIC ROASTED GREEN CHILE, ORGANIC LIME JUICE, SEA SALT" Date available: 06/25/2017 Date last updated by company: 06/25/2017
