Source: USDA Branded Food Products Database Release December 2017 Software v.3.8.6.4 2017-10-02
Report Run at: December 17, 2017 17:42 EST
"Nutrient data for: 45200518, FULLY COOKED RED HOT SAUSAGE, UPC: 717265294425"
Food Group:  Branded Food Products Database
Common Name:

Nutrient,Unit,Data points,Std. Error,"2.0 ONZ = 56.0g",1Value per 100 g,
Proximates
"Energy",kcal,--,--,140,250
"Protein",g,--,--,7.00,12.50
"Total lipid (fat)",g,--,--,12.00,21.43
"Carbohydrate, by difference",g,--,--,2.00,3.57
"Fiber, total dietary",g,--,--,0.0,0.0
"Sugars, total",g,--,--,1.00,1.79
Minerals
"Calcium, Ca",mg,--,--,80,143
"Iron, Fe",mg,--,--,0.71,1.26
"Sodium, Na",mg,--,--,740,1321
Vitamins
"Vitamin C, total ascorbic acid",mg,--,--,1.2,2.1
"Vitamin A, IU",IU,--,--,197,351
Lipids
"Fatty acids, total saturated",g,--,--,3.500,6.250
"Fatty acids, total trans",g,--,--,0.000,0.000
"Cholesterol",mg,--,--,70,125
Amino Acids
Other
Ingredients
"MECHANICALLY SEPARATED CHICKEN, PORK, SALT, CORN SYRUP, DEXTROSE, CONTAINS 2% OR LESS OF BEEF, SPICES, FLAVORINGS, MUSTARD, REFINERY SYRUP, HONEY, BROWN SUGAR, SODIUM PROPIONATE, SODIUM PHOSPHATE, SODIUM BENZOATE, SODIUM ERYTHORBATE, SODIUM NITRITE, FD&C RED #40 (FROM CASING)." Date available: 07/14/2017 Date last updated by company: 07/14/2017
