Source: USDA Branded Food Products Database Release December 2017 Software v.3.8.6.4 2017-10-02
Report Run at: December 17, 2017 17:14 EST
"Nutrient data for: 45170411, FULL CIRCLE MARKET, 100% JUICE FROM CONCETRATE WITH ADDED INGREDIENT, POMEGRANATE, UPC: 036800167490"
Food Group:  Branded Food Products Database
Common Name:

Nutrient,Unit,Data points,Std. Error,"8.0 OZA = 240.0g",1Value per 100 g,
Proximates
"Energy",kcal,--,--,161,67
"Protein",g,--,--,0.00,0.00
"Total lipid (fat)",g,--,--,0.00,0.00
"Carbohydrate, by difference",g,--,--,40.01,16.67
"Sugars, total",g,--,--,40.01,16.67
Minerals
"Potassium, K",mg,--,--,420,175
"Sodium, Na",mg,--,--,36,15
Vitamins
Lipids
Amino Acids
Other
Ingredients
"POMEGRANATE JUICE FROM CONCENTRATE (FILTERED WATER, POMEGRANATE JUICE CONCENTRATE), NATURAL FLAVORS." Date available: 07/14/2017 Date last updated by company: 07/14/2017
