Source: USDA Branded Food Products Database Release December 2017 Software v.3.8.6.4 2017-10-02
Report Run at: December 17, 2017 17:24 EST
"Nutrient data for: 45093648, FULL CIRCLE, ORGANIC ANIMAL COOKIES, UPC: 036800151246"
Food Group:  Branded Food Products Database
Common Name:

Nutrient,Unit,Data points,Std. Error,"10.0 COOKIES = 30.0g",1Value per 100 g,
Proximates
"Energy",kcal,--,--,130,433
"Protein",g,--,--,2.00,6.67
"Total lipid (fat)",g,--,--,4.00,13.33
"Carbohydrate, by difference",g,--,--,22.00,73.33
"Fiber, total dietary",g,--,--,1.0,3.3
"Sugars, total",g,--,--,6.00,20.00
Minerals
"Calcium, Ca",mg,--,--,0,0
"Iron, Fe",mg,--,--,1.80,6.00
"Sodium, Na",mg,--,--,70,233
Vitamins
"Vitamin C, total ascorbic acid",mg,--,--,0.0,0.0
"Vitamin A, IU",IU,--,--,0,0
Lipids
"Fatty acids, total saturated",g,--,--,2.001,6.670
"Fatty acids, total trans",g,--,--,0.000,0.000
"Cholesterol",mg,--,--,0,0
Amino Acids
Other
Ingredients
"ORGANIC ENRICHED WHEAT FLOUR (NIACIN, IRON, THIAMINE MONO NITRATE, RIBOFLAVIN, FOLIC ACID), ORGANIC DEHYDRATED CANE SUGAR, ORGANIC CANOLA OIL AND/OR ORGANIC SUNFLOWER OIL AND/OR ORGANIC PALM OIL, ORGANIC CANE SUGAR SYRUP, BAKING SODA, SEA SALT, ORGANIC SOY LECITHIN, ORGANIC VANILLA EXTRACT." Date available: 06/25/2017 Date last updated by company: 06/25/2017
