Source: USDA Branded Food Products Database Release December 2017 Software v.3.8.6.4 2017-10-02
Report Run at: December 17, 2017 17:13 EST
"Nutrient data for: 45170442, FULL CIRCLE MARKET, BEEF JERKY, TERIYAKI FLAVOR, UPC: 036800164505"
Food Group:  Branded Food Products Database
Common Name:

Nutrient,Unit,Data points,Std. Error,"1 ONZ = 28.0g",1Value per 100 g,
Proximates
"Energy",kcal,--,--,80,286
"Protein",g,--,--,12.00,42.86
"Total lipid (fat)",g,--,--,1.00,3.57
"Carbohydrate, by difference",g,--,--,6.00,21.43
"Fiber, total dietary",g,--,--,0.0,0.0
"Sugars, total",g,--,--,5.00,17.86
Minerals
"Calcium, Ca",mg,--,--,0,0
"Iron, Fe",mg,--,--,1.93,6.88
"Sodium, Na",mg,--,--,570,2036
Vitamins
"Vitamin C, total ascorbic acid",mg,--,--,0.0,0.0
"Vitamin A, IU",IU,--,--,0,0
Lipids
"Fatty acids, total saturated",g,--,--,0.501,1.790
"Fatty acids, total trans",g,--,--,0.000,0.000
"Cholesterol",mg,--,--,15,54
Amino Acids
Other
Ingredients
"ORGANIC BEEF, ORGANIC SUGAR, ORGANIC SOY SAUCE (WATER, ORGANIC SOYBEANS, ORGANIC WHEAT, SALT, ORGANIC VINEGAR), ORGANIC APPLE CIDER VINEGAR, WATER, SALT, YEAST EXTRACT, ORGANIC ONION POWDER, SEASONING (CELERY POWDER, SALT, LACTIC ACID CULTURE), ORGANIC BLACK PEPPER, ORGANIC GARLIC POWDER, ORGANIC GINGER, ORGANIC PAPRIKA, NATURAL SMOKE FLAVOR." Date available: 09/11/2017 Date last updated by company: 09/11/2017
