Source: USDA Branded Food Products Database Release December 2017 Software v.3.8.6.4 2017-10-02
Report Run at: December 17, 2017 17:31 EST
"Nutrient data for: 45123525, FULL CIRCLE, WAFFLE & PANCAKE MIX, UPC: 036800370258"
Food Group:  Branded Food Products Database
Common Name:

Nutrient,Unit,Data points,Std. Error,"0.083 TH PKG = 49.0g",1Value per 100 g,
Proximates
"Energy",kcal,--,--,170,347
"Protein",g,--,--,2.00,4.08
"Total lipid (fat)",g,--,--,0.50,1.02
"Carbohydrate, by difference",g,--,--,40.00,81.63
"Fiber, total dietary",g,--,--,1.0,2.0
"Sugars, total",g,--,--,1.00,2.04
Minerals
"Calcium, Ca",mg,--,--,0,0
"Iron, Fe",mg,--,--,0.29,0.60
"Sodium, Na",mg,--,--,330,673
Vitamins
"Vitamin C, total ascorbic acid",mg,--,--,0.0,0.0
"Vitamin A, IU",IU,--,--,0,0
Lipids
"Fatty acids, total saturated",g,--,--,0.000,0.000
"Fatty acids, total trans",g,--,--,0.000,0.000
"Cholesterol",mg,--,--,0,0
Amino Acids
Other
Ingredients
"SWEET BROWN RICE FLOUR, TAPIOCA FLOUR, ARROWROOT FLOUR, RICE MILK POWDER, CREAM OF TARTAR, BAKING SODA, SALT AND GROUND VANILLA BEAN." Date available: 07/14/2017 Date last updated by company: 07/14/2017
