Source: USDA Branded Food Products Database Release December 2017 Software v.3.8.6.4 2017-10-02
Report Run at: December 17, 2017 17:43 EST
"Nutrient data for: 45240925, FULLY COOKED SAUSAGE LINKS, UPC: 031244646990"
Food Group:  Branded Food Products Database
Common Name:

Nutrient,Unit,Data points,Std. Error,"3.0 LINKS = 54.0g",1Value per 100 g,
Proximates
"Energy",kcal,--,--,170,315
"Protein",g,--,--,7.00,12.96
"Total lipid (fat)",g,--,--,15.00,27.78
"Carbohydrate, by difference",g,--,--,3.00,5.56
"Fiber, total dietary",g,--,--,0.0,0.0
"Sugars, total",g,--,--,1.00,1.85
Minerals
"Calcium, Ca",mg,--,--,60,111
"Iron, Fe",mg,--,--,0.72,1.33
"Sodium, Na",mg,--,--,410,759
Vitamins
"Vitamin C, total ascorbic acid",mg,--,--,0.0,0.0
"Vitamin A, IU",IU,--,--,0,0
Lipids
"Fatty acids, total saturated",g,--,--,4.498,8.330
"Fatty acids, total trans",g,--,--,0.000,0.000
"Cholesterol",mg,--,--,30,56
Amino Acids
Other
Ingredients
"PORK, MECHANICALLY SEPERATED TURKEY, WATER, SOY PROTEIN CONCENTRATE, CONTAIN LESS THAN 2% OF : SALT, SPICS SUGAR, DEXTROSE, NATURAL FLAVOR, CITRIC ACID, BHA, BHT." Date available: 09/23/2016 Date last updated by company: 09/23/2016
