Source: USDA Branded Food Products Database Release December 2017 Software v.3.8.6.4 2017-10-02
Report Run at: December 17, 2017 17:09 EST
"Nutrient data for: 45011054, FULL CIRCLE, ALL NATURAL GRANOLA, VANILLA ALMOND, UPC: 036800336858"
Food Group:  Branded Food Products Database
Common Name:

Nutrient,Unit,Data points,Std. Error,"0.5 cup = 55.0g",1Value per 100 g,
Proximates
"Energy",kcal,--,--,210,382
"Protein",g,--,--,7.00,12.73
"Total lipid (fat)",g,--,--,5.00,9.09
"Carbohydrate, by difference",g,--,--,35.00,63.64
"Fiber, total dietary",g,--,--,5.0,9.1
"Sugars, total",g,--,--,7.00,12.73
Minerals
"Calcium, Ca",mg,--,--,40,73
"Iron, Fe",mg,--,--,1.80,3.27
"Magnesium, Mg",mg,--,--,16,29
"Phosphorus, P",mg,--,--,200,364
"Potassium, K",mg,--,--,200,364
"Sodium, Na",mg,--,--,20,36
"Manganese, Mn",mg,--,--,0.000,0.000
Vitamins
"Vitamin C, total ascorbic acid",mg,--,--,0.0,0.0
"Vitamin A, IU",IU,--,--,0,0
Lipids
"Fatty acids, total saturated",g,--,--,0.501,0.910
"Fatty acids, total trans",g,--,--,0.000,0.000
"Cholesterol",mg,--,--,0,0
Amino Acids
Other
Ingredients
"WHOLE ROLLED OATS, BROWN RICE SYRUP, ALMONDS, DRIED CANE SYRUP, OAT BRAN. NATURAL FLAVOR, BROWN RICE FLOUR, FLAX SEED, MIXED TOCOPHEROLS (USED TO MAINTAIN FRESHNESS), SALT." Date available: 07/14/2017 Date last updated by company: 07/14/2017
