Source: USDA Branded Food Products Database Release December 2017 Software v.3.8.6.4 2017-10-02
Report Run at: December 17, 2017 17:22 EST
"Nutrient data for: 45150528, FULL CIRCLE MARKET, ORGANIC YELLOW CLING PEACH SLICES IN ORGANIC PEACH JUICE AND PEAR JUICE FROM CONCENTRATE, UPC: 036800379435"
Food Group:  Branded Food Products Database
Common Name:

Nutrient,Unit,Data points,Std. Error,"1 cup = 122.0g",1Value per 100 g,
Proximates
"Energy",kcal,--,--,50,41
"Protein",g,--,--,0.00,0.00
"Total lipid (fat)",g,--,--,0.00,0.00
"Carbohydrate, by difference",g,--,--,12.00,9.84
"Fiber, total dietary",g,--,--,0.0,0.0
"Sugars, total",g,--,--,11.00,9.02
Minerals
"Calcium, Ca",mg,--,--,0,0
"Iron, Fe",mg,--,--,0.83,0.68
"Potassium, K",mg,--,--,124,102
"Sodium, Na",mg,--,--,10,8
Vitamins
"Vitamin C, total ascorbic acid",mg,--,--,6.8,5.6
"Vitamin A, IU",IU,--,--,1148,941
Lipids
"Fatty acids, total saturated",g,--,--,0.000,0.000
"Fatty acids, total trans",g,--,--,0.000,0.000
"Cholesterol",mg,--,--,0,0
Amino Acids
Other
Ingredients
"ORGANIC PEACHES, WATER, ORGANIC PEACH PULP AND JUICE, ORGANIC PEAR JUICE CONCENTRATE, ASCORBIC ACID (VITAMIN C) TO PROTECT COLOR." Date available: 07/14/2017 Date last updated by company: 07/14/2017
