Source: USDA Branded Food Products Database Release December 2017 Software v.3.8.6.4 2017-10-02
Report Run at: December 17, 2017 17:51 EST
"Nutrient data for: 45055373, FUN POPS, FRUIT FLAVORED FREEZABLE BEVERAGE, UPC: 041497445851"
Food Group:  Branded Food Products Database
Common Name:

Nutrient,Unit,Data points,Std. Error,"1 POP = 71.0g",1Value per 100 g,
Proximates
"Energy",kcal,--,--,50,70
"Protein",g,--,--,0.00,0.00
"Total lipid (fat)",g,--,--,0.00,0.00
"Carbohydrate, by difference",g,--,--,13.00,18.31
"Fiber, total dietary",g,--,--,0.0,0.0
"Sugars, total",g,--,--,11.00,15.49
Minerals
"Calcium, Ca",mg,--,--,0,0
"Iron, Fe",mg,--,--,0.00,0.00
"Sodium, Na",mg,--,--,0,0
Vitamins
"Vitamin C, total ascorbic acid",mg,--,--,0.0,0.0
"Vitamin A, IU",IU,--,--,0,0
Lipids
"Fatty acids, total saturated",g,--,--,0.000,0.000
"Fatty acids, total trans",g,--,--,0.000,0.000
"Cholesterol",mg,--,--,0,0
Amino Acids
Other
Ingredients
"WATER, HIGH FRUCTOSE CORN SYRUP, CITRIC ACID, NATURAL AND ARTIFICIAL FLAVORINGS, ARTIFICIAL COLORING (CONTAINS BLUE 1, GREEN 3, RED 40, YELLOW 5 AND YELLOW 6), VEGETABLE GUMS, LESS THAN 1/10TH OF 1% OF BENZOATE OF SODA & POTASSIUM SORBATE AS A PRESERVATIVE." Date available: 06/24/2017 Date last updated by company: 06/24/2017
