Source: USDA Branded Food Products Database Release December 2017 Software v.3.8.6.4 2017-10-02
Report Run at: December 17, 2017 17:50 EST
"Nutrient data for: 45184309, FUN MINIATURE MARSHMALLOWS, UPC: 075450083958"
Food Group:  Branded Food Products Database
Common Name:

Nutrient,Unit,Data points,Std. Error,"0.666 cup = 30.0g",1Value per 100 g,
Proximates
"Energy",kcal,--,--,100,333
"Protein",g,--,--,1.00,3.33
"Total lipid (fat)",g,--,--,0.00,0.00
"Carbohydrate, by difference",g,--,--,24.00,80.00
"Sugars, total",g,--,--,16.00,53.33
Minerals
"Sodium, Na",mg,--,--,15,50
Vitamins
Lipids
Amino Acids
Other
Ingredients
"CORN SYRUP, SUGAR, MODIFIED FOOD STARCH (CORN), GELATIN, WATER, DEXTROSE, NATURAL AND ARTIFICIAL FLAVOR, TETRASODIUM PYROPHOSPHATE, RED 40, YELLOW 5, YELLOW 6, BLUE 1." Date available: 07/14/2017 Date last updated by company: 07/14/2017
