Source: USDA Branded Food Products Database Release December 2017 Software v.3.8.6.4 2017-10-02
Report Run at: December 17, 2017 17:52 EST
"Nutrient data for: 45221786, FUN-SHAPED FISH PATTIES, UPC: 850366004392"
Food Group:  Branded Food Products Database
Common Name:

Nutrient,Unit,Data points,Std. Error,"3.0 PIECES | ABOUT = 85.0g",1Value per 100 g,
Proximates
"Energy",kcal,--,--,200,235
"Protein",g,--,--,10.00,11.76
"Total lipid (fat)",g,--,--,9.00,10.59
"Carbohydrate, by difference",g,--,--,21.00,24.71
"Fiber, total dietary",g,--,--,1.0,1.2
"Sugars, total",g,--,--,3.00,3.53
Minerals
"Calcium, Ca",mg,--,--,20,24
"Iron, Fe",mg,--,--,1.08,1.27
"Sodium, Na",mg,--,--,410,482
Vitamins
"Vitamin C, total ascorbic acid",mg,--,--,0.0,0.0
"Vitamin A, IU",IU,--,--,0,0
Lipids
"Fatty acids, total saturated",g,--,--,1.496,1.760
"Fatty acids, total trans",g,--,--,0.000,0.000
"Cholesterol",mg,--,--,5,6
Amino Acids
Other
Ingredients
"MINCED HADDOCK AND/OR MINCED POLLOCK, BLEACHED WHEAT FLOUR, WATER, WHEAT FLOUR, TEXTURED SOY PROTEIN, MODIFIED CORN STARCH, SALT, SUGAR, LEAVENING (SODIUM BICARBONATE, SODIUM ALUMINUM PHOSPHATE), WHEY DEXTROSE, YEAST, NONFAT MILK, MONOSODIUM GLUTAMATE, SPICE, DEHYDRATED CELERY, SOYBEAN OIL, NATURAL FLAVOR, DEHYDRATED ONION, SODIUM TRIPOLYPHOSPHATE (TO RETAIN MOISTURE), PARFRIED IN SOYBEAN OIL." Date available: 07/14/2017 Date last updated by company: 07/14/2017
