Source: USDA Branded Food Products Database Release December 2017 Software v.3.8.6.4 2017-10-02
Report Run at: December 17, 2017 17:47 EST
"Nutrient data for: 45213350, FUN DIP CANDY GIFT SET, UPC: 013253570947"
Food Group:  Branded Food Products Database
Common Name:

Nutrient,Unit,Data points,Std. Error,"1 PACKAGE = 14.0g",1Value per 100 g,
Proximates
"Energy",kcal,--,--,50,357
"Protein",g,--,--,0.00,0.00
"Total lipid (fat)",g,--,--,0.00,0.00
"Carbohydrate, by difference",g,--,--,13.00,92.86
"Fiber, total dietary",g,--,--,0.0,0.0
"Sugars, total",g,--,--,13.00,92.86
Minerals
"Calcium, Ca",mg,--,--,0,0
"Iron, Fe",mg,--,--,0.00,0.00
"Sodium, Na",mg,--,--,0,0
Vitamins
"Vitamin C, total ascorbic acid",mg,--,--,0.0,0.0
"Vitamin A, IU",IU,--,--,0,0
Lipids
"Fatty acids, total saturated",g,--,--,0.000,0.000
"Fatty acids, total trans",g,--,--,0.000,0.000
"Cholesterol",mg,--,--,0,0
Amino Acids
Other
Ingredients
"CHERRY INGREDIENTS: DEXTROSE, MALTODEXTRIN, AND LESS THAN 2% OF CITRIC ACID, CALCIUM STEARATE, ARTIFICIAL FLAVORS, RED 40 LAKE. RAZZAPPLE INGREDIENTS: DEXTROSE, MALTODEXTRIN, AND LESS THAN 2% OF CITRIC ACID, CALCIUM STEARATE, ARTIFICIAL FLAVORS, BLUE 1, BLUE 1 LAKE, YELLOW 5." Date available: 07/14/2017 Date last updated by company: 07/14/2017
