Source: USDA Branded Food Products Database Release December 2017 Software v.3.8.6.4 2017-10-02
Report Run at: December 17, 2017 17:55 EST
"Nutrient data for: 45233147, FUNYUNS, ONION FLAVORED RINGS, FLAMIN' HOT, UPC: 028400240192"
Food Group:  Branded Food Products Database
Common Name:

Nutrient,Unit,Data points,Std. Error,"13.0 PIECES = 28.0g",1Value per 100 g,
Proximates
"Energy",kcal,--,--,130,464
"Protein",g,--,--,2.00,7.14
"Total lipid (fat)",g,--,--,7.00,25.00
"Carbohydrate, by difference",g,--,--,17.00,60.71
"Fiber, total dietary",g,--,--,1.0,3.6
"Sugars, total",g,--,--,1.00,3.57
Minerals
"Calcium, Ca",mg,--,--,0,0
"Iron, Fe",mg,--,--,0.72,2.57
"Sodium, Na",mg,--,--,300,1071
Vitamins
"Vitamin C, total ascorbic acid",mg,--,--,0.0,0.0
"Vitamin A, IU",IU,--,--,0,0
Lipids
"Fatty acids, total saturated",g,--,--,1.000,3.570
"Fatty acids, total trans",g,--,--,0.000,0.000
"Cholesterol",mg,--,--,0,0
Amino Acids
Other
Ingredients
"ENRICHED CORN MEAL (CORN MEAL, FERROUS SULFATE, NIACIN, THIAMIN MONONITRATE, RIBOFLAVIN, AND FOLIC ACID), VEGETABLE OIL (CORN, CANOLA, AND/OR SUNFLOWER OIL), SALT, AND LESS THAN 2% OF THE FOLLOWING: CORN STARCH, CORN FLOUR, BUTTERMILK, SUGAR, MONOSODIUM G" Date available: 09/23/2016 Date last updated by company: 09/23/2016
