Source: USDA Branded Food Products Database Release December 2017 Software v.3.8.6.4 2017-10-02
Report Run at: December 17, 2017 17:56 EST
"Nutrient data for: 45093304, FURLANI, GARLIC KNOTS, PARMESAN GARLIC, UPC: 059635008646"
Food Group:  Branded Food Products Database
Common Name:

Nutrient,Unit,Data points,Std. Error,"1 KNOT = 38.0g",1Value per 100 g,
Proximates
"Energy",kcal,--,--,120,316
"Protein",g,--,--,3.00,7.89
"Total lipid (fat)",g,--,--,3.50,9.21
"Carbohydrate, by difference",g,--,--,18.00,47.37
"Fiber, total dietary",g,--,--,1.0,2.6
"Sugars, total",g,--,--,2.00,5.26
Minerals
"Calcium, Ca",mg,--,--,20,53
"Iron, Fe",mg,--,--,1.56,4.11
"Sodium, Na",mg,--,--,220,579
Vitamins
"Vitamin C, total ascorbic acid",mg,--,--,0.0,0.0
"Vitamin A, IU",IU,--,--,0,0
Lipids
"Fatty acids, total saturated",g,--,--,0.502,1.320
"Fatty acids, total monounsaturated",g,--,--,0.999,2.630
"Fatty acids, total polyunsaturated",g,--,--,1.501,3.950
"Fatty acids, total trans",g,--,--,0.000,0.000
"Cholesterol",mg,--,--,0,0
Amino Acids
Other
Ingredients
"BREAD: ENRICHED WHEAT FLOUR (FLOUR, NIACIN, IRON, THIAMINE MONONITRATE (VITAMIN B1), RIBOFLAVIN (VITAMIN B2), FOLIC ACID), WATER, SUGAR, SOYBEAN OIL, SALT, YEAST, WHEY POWDER, MONO AND DIGLYCERIDES, CITRIC ACID, AMYLASE, VEGETABLE OIL (CANOLA AND/OR SOYA), ASCORBIC ACID, ENZYMES. SPREAD: SOYBEAN OIL, WATER, PARMESAN CHEESE (MILK, BACTERIAL CULTURE, SALT, ENZYMES, CORN STARCH AND CELLULOSE (ANTI-CAKING AGENTS)), DEHYDRATED GARLIC, PALM OIL, WHEY POWDER, SALT, MODIFIED CORN STARCH, DISTILLED MONOGLYCERIDE, NATURAL FLAVORS, DEHYDRATED PARSLEY, CITRIC ACID, MODIFIED TAPIOCA STARCH, XANTHAN GUM, BETA CAROTENE (COLOR)." Date available: 06/25/2017 Date last updated by company: 06/25/2017
