Source: USDA Branded Food Products Database Release December 2017 Software v.3.8.6.4 2017-10-02
Report Run at: December 17, 2017 17:57 EST
"Nutrient data for: 45187523, FUSED ACAI+GUARANA, UPC: 753182613512"
Food Group:  Branded Food Products Database
Common Name:

Nutrient,Unit,Data points,Std. Error,"1 PACK) | ( = 100.0g",1Value per 100 g,
Proximates
"Energy",kcal,--,--,110,110
"Protein",g,--,--,1.00,1.00
"Total lipid (fat)",g,--,--,3.00,3.00
"Carbohydrate, by difference",g,--,--,19.00,19.00
"Fiber, total dietary",g,--,--,2.0,2.0
"Sugars, total",g,--,--,11.00,11.00
Minerals
"Calcium, Ca",mg,--,--,40,40
"Iron, Fe",mg,--,--,0.43,0.43
"Sodium, Na",mg,--,--,20,20
Vitamins
"Vitamin C, total ascorbic acid",mg,--,--,4.6,4.6
"Vitamin A, IU",IU,--,--,400,400
Lipids
"Fatty acids, total saturated",g,--,--,0.500,0.500
"Fatty acids, total trans",g,--,--,0.000,0.000
"Cholesterol",mg,--,--,0,0
Amino Acids
Other
Ingredients
"WILD-HARVESTED ORGANIC ACAI, ORGANIC GUARANA EXTRACT*, ORGANIC EVAPORATED CANE JUICE, CITRIC ACID." Date available: 10/13/2017 Date last updated by company: 10/13/2017
