Source: USDA Branded Food Products Database Release December 2017 Software v.3.8.6.4 2017-10-02
Report Run at: December 17, 2017 18:01 EST
"Nutrient data for: 45168623, FUSION FLAVORS, BOURBON MOLASSES SEASONING BLEND, UPC: 647312009125"
Food Group:  Branded Food Products Database
Common Name:

Nutrient,Unit,Data points,Std. Error,"0.25 tsp = 1.15g",1Value per 100 g,
Proximates
"Energy",kcal,--,--,3,261
"Protein",g,--,--,0.00,0.00
"Total lipid (fat)",g,--,--,0.00,0.00
"Carbohydrate, by difference",g,--,--,1.00,86.96
Minerals
"Sodium, Na",mg,--,--,95,8261
Vitamins
"Vitamin C, total ascorbic acid",mg,--,--,104.3,9073.6
Lipids
Amino Acids
Other
Ingredients
"SUGAR, GARLIC, SALT, BOURBON EXTRACT, MOLASSES POWDER, DEMERARA SUGAR, HERBS, SPICES, PAPRIKA, LEMON JUICE POWDER, AND BLACK PEPPER AND NATURAL FLAVORS, RICE CONCENTRATE ADDED TO PREVENT CAKING." Date available: 07/14/2017 Date last updated by company: 07/14/2017
