Source: USDA Branded Food Products Database Release December 2017 Software v.3.8.6.4 2017-10-02
Report Run at: December 17, 2017 18:04 EST
"Nutrient data for: 45187721, GABY'S FARM, REDUCED FAT GOURMET TROPICAL FRUIT ICE CREAM, BLISSFUL BLACK SAPOTE, UPC: 851647001048"
Food Group:  Branded Food Products Database
Common Name:

Nutrient,Unit,Data points,Std. Error,"0.5 cup = 120.0g",1Value per 100 g,
Proximates
"Energy",kcal,--,--,230,192
"Protein",g,--,--,3.00,2.50
"Total lipid (fat)",g,--,--,5.00,4.17
"Carbohydrate, by difference",g,--,--,42.00,35.00
"Fiber, total dietary",g,--,--,2.0,1.7
"Sugars, total",g,--,--,23.00,19.17
Minerals
"Calcium, Ca",mg,--,--,80,67
"Iron, Fe",mg,--,--,0.82,0.68
"Sodium, Na",mg,--,--,65,54
Vitamins
"Vitamin C, total ascorbic acid",mg,--,--,13.4,11.2
"Vitamin A, IU",IU,--,--,450,375
Lipids
"Fatty acids, total saturated",g,--,--,3.504,2.920
"Cholesterol",mg,--,--,20,17
Amino Acids
Other
Ingredients
"CREAM AND NONFAT MILK, BLACK SAPOTE PUREE, SUGAR, EGG YOLKS, LIME JUICE, NATURAL VANILLA EXTRACT, NATURAL ALMOND EXTRACT, SALT, LOCUST BEAN GUM, GUAR GUM, CARRAGEENAN" Date available: 07/14/2017 Date last updated by company: 07/14/2017
