Source: USDA Branded Food Products Database Release December 2017 Software v.3.8.6.4 2017-10-02
Report Run at: December 17, 2017 18:15 EST
"Nutrient data for: 45166214, GALERIE, DISNEY ASSORTED CHOCOLATES, UPC: 768395498542"
Food Group:  Branded Food Products Database
Common Name:

Nutrient,Unit,Data points,Std. Error,"4.0 PIECES = 40.0g",1Value per 100 g,
Proximates
"Energy",kcal,--,--,220,550
"Protein",g,--,--,2.00,5.00
"Total lipid (fat)",g,--,--,14.00,35.00
"Carbohydrate, by difference",g,--,--,23.00,57.50
"Fiber, total dietary",g,--,--,1.0,2.5
"Sugars, total",g,--,--,22.00,55.00
Minerals
"Calcium, Ca",mg,--,--,60,150
"Iron, Fe",mg,--,--,2.25,5.62
"Sodium, Na",mg,--,--,25,62
Vitamins
"Vitamin C, total ascorbic acid",mg,--,--,0.0,0.0
"Vitamin A, IU",IU,--,--,0,0
Lipids
"Fatty acids, total saturated",g,--,--,8.000,20.000
"Fatty acids, total trans",g,--,--,0.000,0.000
"Cholesterol",mg,--,--,0,0
Amino Acids
Other
Ingredients
"MILK CHOCOLATE (SUGAR, COCOA BUTTER, DRY WHOLE MILK, CHOCOLATE LIQUOR, SOY LECITHIN AND PGPR (EMULSIFIER), NATURAL FLAVOR), WHITE CHOCOLATE (SUGAR, COCOA BUTTER, DRY WHOLE MILK, WHEY, SOY LECITHIN AND PGPR (EMULSIFIERS), RED 3), DARK CHOCOLATE (CHOCOLATE LIQUOR, SUGAR, COCOA BUTTER, SOY LECITHIN (EMULSIFIER)), FLAVORED FILLINGS (SUGAR, VEGETABLE OIL AND/OR FAT (PALM), CHOCOLATE LIQUOR, COCOA, DRY WHOLE MILK, DRY NONFAT MILK, WHEY, SOY LECITHIN (EMULSIFIER), SORBITAN TRISTEARATE (STABILIZER), ARTIFICIAL FLAVORS, RED 3, YELLOW 5)." Date available: 07/14/2017 Date last updated by company: 07/14/2017
