Source: USDA Branded Food Products Database Release December 2017 Software v.3.8.6.4 2017-10-02
Report Run at: December 17, 2017 18:15 EST
"Nutrient data for: 45149715, GALERIE, DISNEP FROZEN EASTER MARSHMALLOW POP, VANILLA, UPC: 768395499426"
Food Group:  Branded Food Products Database
Common Name:

Nutrient,Unit,Data points,Std. Error,"1 MARSHMALLOW POP = 45.0g",1Value per 100 g,
Proximates
"Energy",kcal,--,--,160,356
"Protein",g,--,--,2.00,4.44
"Total lipid (fat)",g,--,--,0.00,0.00
"Carbohydrate, by difference",g,--,--,38.00,84.44
"Sugars, total",g,--,--,28.00,62.22
Minerals
"Sodium, Na",mg,--,--,0,0
Vitamins
Lipids
Amino Acids
Other
Ingredients
"SUGAR, CORN SYRUP, WATER, SORBITOL, GELATIN, CORNSTARCH, MALIC ACID, PECTIN, POTASSIUM SORBATE, ARTIFICIAL FLAVOR, RED 3, RED 40, BLUE 1, YELLOW 5, YELLOW 6." Date available: 07/14/2017 Date last updated by company: 07/14/2017
