Source: USDA Branded Food Products Database Release December 2017 Software v.3.8.6.4 2017-10-02
Report Run at: December 17, 2017 18:13 EST
"Nutrient data for: 45158375, GALERIE, CANDY DISPENSER WITH CANDY PIECES, UPC: 768395506704"
Food Group:  Branded Food Products Database
Common Name:

Nutrient,Unit,Data points,Std. Error,"1 PACKAGE = 9.0g",1Value per 100 g,
Proximates
"Energy",kcal,--,--,35,389
"Protein",g,--,--,0.00,0.00
"Total lipid (fat)",g,--,--,0.00,0.00
"Carbohydrate, by difference",g,--,--,9.00,100.00
"Sugars, total",g,--,--,8.00,88.89
Minerals
"Sodium, Na",mg,--,--,0,0
Vitamins
Lipids
Amino Acids
Other
Ingredients
"DEXTROSE, CORN SYRUP, CORNSTARCH, MAGNESIUM STEARATE, CITRIC ACID, MALTODEXTRIN, ARTIFICIAL FLAVOR, SHELLAC, GUM ARABIC, TITANIUM DIOXIDE (FOR COLOR), RED 40 LAKE, YELLOW 5 LAKE, BLUE 1 LAKE, CARNAUBA WAX." Date available: 07/14/2017 Date last updated by company: 07/14/2017
