Source: USDA Branded Food Products Database Release December 2017 Software v.3.8.6.4 2017-10-02
Report Run at: December 17, 2017 18:17 EST
"Nutrient data for: 45166183, GALERIE, DISNEY FROZEN OLAF ASSORTED CHOCOLATES, UPC: 768395486617"
Food Group:  Branded Food Products Database
Common Name:

Nutrient,Unit,Data points,Std. Error,"4.0 PIECES = 36.0g",1Value per 100 g,
Proximates
"Energy",kcal,--,--,200,556
"Protein",g,--,--,2.00,5.56
"Total lipid (fat)",g,--,--,12.00,33.33
"Carbohydrate, by difference",g,--,--,20.00,55.56
"Fiber, total dietary",g,--,--,1.0,2.8
"Sugars, total",g,--,--,17.00,47.22
Minerals
"Calcium, Ca",mg,--,--,60,167
"Iron, Fe",mg,--,--,2.00,5.55
"Sodium, Na",mg,--,--,0,0
Vitamins
"Vitamin C, total ascorbic acid",mg,--,--,0.0,0.0
"Vitamin A, IU",IU,--,--,0,0
Lipids
"Fatty acids, total saturated",g,--,--,6.998,19.440
"Fatty acids, total trans",g,--,--,0.000,0.000
"Cholesterol",mg,--,--,0,0
Amino Acids
Other
Ingredients
"MILK CHOCOLATE (SUGAR, DRY WHOLE MILK, COCOA BUTTER, CHOCOLATE LIQUOR, SOY LECITHIN, NATURAL VANILLA FLAVOR), DARK CHOCOLATE (CHOCOLATE LIQUOR, SUGAR, COCOA BUTTER, SOY LECITHIN, NATURAL VANILLA FLAVOR), CARAMEL LIQUID (GLUCOSE SYRUP, SUGAR, SWEETENED CONDENSED MILK [MILK, SUGAR], HYDROGENATED COCONUT OIL, WATER DISODIUM PHOSPHATE, SALT, MONO-AND DIGLYCERIDES OF FATTY ACIDS, NATURAL FLAVOR), BASE FILLING (SUGAR, PALM OIL, NONFAT DRY MILK, LACTOSE, SOY LECITHIN), WHITE CHOCOLATE (SUGAR, COCOA BUTTER, DRY WHOLE MILK, SOY LECITHIN, NATURAL VANILLA FLAVOR), PRALINE FILLING (SUGAR, PALM OIL, WHEY POWDER, LOWFAT COCOA, SOY LECITHIN, NATURAL VANILLA FLAVOR), PALM OIL, COCOA BUTTER, RICE CRISPS (RICE FLOUR, SACCHAROSE, WHEAT GLUTEN, PALM OIL, WHEAT MALT, SALT), APPLE JUICE FROM CONCENTRATE, BLACKCURRANT JUICE FROM CONCENTRATE, RADISH JUICE FROM CONCENTRATE, NATURAL RASPBERRY FLAVOR, NATURAL STRAWBERRY FLAVOR, ARTIFICIAL FLAVOR, COCHINEAL EXTRACT COLOR, TURMERIC COLOR, DEHYDRATED BEETS COLOR, TITANIUM DIOXIDE COLOR, ACACIA GUM, SHELLAC." Date available: 07/14/2017 Date last updated by company: 07/14/2017
