Source: USDA Branded Food Products Database Release December 2017 Software v.3.8.6.4 2017-10-02
Report Run at: December 17, 2017 18:29 EST
"Nutrient data for: 45149709, GALERIE, STAR WARS LOLLIPOPS, STRAWBERRY, UPC: 768395495824"
Food Group:  Branded Food Products Database
Common Name:

Nutrient,Unit,Data points,Std. Error,"2.0 LOLLIPOPS = 16.0g",1Value per 100 g,
Proximates
"Energy",kcal,--,--,60,375
"Protein",g,--,--,0.00,0.00
"Total lipid (fat)",g,--,--,0.00,0.00
"Carbohydrate, by difference",g,--,--,16.00,100.00
"Sugars, total",g,--,--,15.00,93.75
Minerals
"Sodium, Na",mg,--,--,0,0
Vitamins
Lipids
Amino Acids
Other
Ingredients
"SUGAR, CORN SYRUP, CITRIC ACID, ARTIFICIAL FLAVOR, RED 40." Date available: 07/14/2017 Date last updated by company: 07/14/2017
