Source: USDA Branded Food Products Database Release December 2017 Software v.3.8.6.4 2017-10-02
Report Run at: December 17, 2017 18:35 EST
"Nutrient data for: 45236177, GALLO SALAME, PEPPERONI, UPC: 044500003017"
Food Group:  Branded Food Products Database
Common Name:

Nutrient,Unit,Data points,Std. Error,"9.0 SLICES = 28.0g",1Value per 100 g,
Proximates
"Energy",kcal,--,--,120,429
"Protein",g,--,--,6.00,21.43
"Total lipid (fat)",g,--,--,10.00,35.71
"Carbohydrate, by difference",g,--,--,1.00,3.57
"Fiber, total dietary",g,--,--,0.0,0.0
"Sugars, total",g,--,--,0.00,0.00
Minerals
"Iron, Fe",mg,--,--,0.71,2.53
"Sodium, Na",mg,--,--,470,1679
Vitamins
Lipids
"Fatty acids, total saturated",g,--,--,4.001,14.290
"Fatty acids, total trans",g,--,--,0.000,0.000
"Cholesterol",mg,--,--,30,107
Amino Acids
Other
Ingredients
"PORK, BEEF, SALT, CONTAINS 2% OR LESS OF: CORN SYRUP, HYDROLYZED PORK STOCK, NATURAL FLAVORINGS, OLEORESIN OF PAPRIKA, GARLIC POWDER, LACTIC ACID STARTER CULTURE, SODIUM NITRITE, SODIUM NITRATE, BHA, BHT, CITRIC ACID." Date available: 06/25/2017 Date last updated by company: 06/25/2017
