Source: USDA Branded Food Products Database Release December 2017 Software v.3.8.6.4 2017-10-02
Report Run at: December 17, 2017 18:37 EST
"Nutrient data for: 45252594, GAMESA, EMPERADOR, COOKIES WITH PINEAPPLE FILLING, UPC: 686700047202"
Food Group:  Branded Food Products Database
Common Name:

Nutrient,Unit,Data points,Std. Error,"2.0 COOKIES = 27.0g",1Value per 100 g,
Proximates
"Energy",kcal,--,--,110,407
"Protein",g,--,--,1.00,3.70
"Total lipid (fat)",g,--,--,4.00,14.81
"Carbohydrate, by difference",g,--,--,18.00,66.67
"Fiber, total dietary",g,--,--,0.0,0.0
"Sugars, total",g,--,--,10.00,37.04
Minerals
"Calcium, Ca",mg,--,--,0,0
"Iron, Fe",mg,--,--,0.67,2.47
"Sodium, Na",mg,--,--,65,241
"Zinc, Zn",mg,--,--,0.30,1.11
Vitamins
"Vitamin C, total ascorbic acid",mg,--,--,0.0,0.0
"Vitamin A, IU",IU,--,--,0,0
Lipids
"Fatty acids, total saturated",g,--,--,1.501,5.560
"Fatty acids, total monounsaturated",g,--,--,2.500,9.260
"Fatty acids, total polyunsaturated",g,--,--,0.000,0.000
"Fatty acids, total trans",g,--,--,0.000,0.000
"Cholesterol",mg,--,--,0,0
Amino Acids
Other
Ingredients
"PINEAPPLE FLAVORED FILLING (HIGH FRUCTOSE CORN SYRUP, SUGAR, DEXTROSE, SORBITOL, FOOD STARCH-MODIFIED, PINEAPPLE PUREE, PECTIN, SODIUM ALGINATE, CITRIC ACID, IODIZED SALT, ARTIFICIAL FLAVOR, SODIUM CITRATE, POTASSIUM SORBATE, CALCIUM PHOSPHATE, FD&C YELLOW 5), ENRICHED FLOUR (UNBLEACHED AND BLEACHED WHEAT FLOUR, NIACINAMIDE, FERROUS FUMARATE, THIAMIN MONONITRATE, RIBOFLAVIN, FOLIC ACID), HYDROGENATED VEGETABLE OIL BLEND (PALM OIL AND/OR SOYBEAN OIL AND/OR HIGH OLEIC SAFFLOWER AND/OR SUNFLOWER OIL [CONTAINS ASCORBYL PALMITATE, TOCOPHEROLS AND TBHQ AS PRESERVATIVES]), CORN SYRUP SOLIDS, SUGAR, NONFAT MILK, EGGS, GLYCERIN, IODIZED SALT, SOY LECITHIN, LEAVENING AGENTS (SODIUM BICARBONATE, SODIUM ALUMINUM PHOSPHATE), CARAMEL COLOR, ARTIFICIAL FLAVORS, CORNSTARCH, SODIUM STEAROYL LACTYLATE, ZINC OXIDE." Date available: 07/14/2017 Date last updated by company: 07/14/2017
