Source: USDA Branded Food Products Database Release December 2017 Software v.3.8.6.4 2017-10-02
Report Run at: December 17, 2017 18:40 EST
"Nutrient data for: 45083545, GARBANZO BANS CHICKS PEAS, UPC: 011110806277"
Food Group:  Branded Food Products Database
Common Name:

Nutrient,Unit,Data points,Std. Error,"0.5 cup = 125.0g",1Value per 100 g,
Proximates
"Energy",kcal,--,--,120,96
"Protein",g,--,--,6.00,4.80
"Total lipid (fat)",g,--,--,1.00,0.80
"Carbohydrate, by difference",g,--,--,22.00,17.60
"Fiber, total dietary",g,--,--,6.0,4.8
"Sugars, total",g,--,--,1.00,0.80
Minerals
"Calcium, Ca",mg,--,--,20,16
"Iron, Fe",mg,--,--,1.12,0.90
"Sodium, Na",mg,--,--,300,240
Vitamins
"Vitamin C, total ascorbic acid",mg,--,--,1.2,1.0
"Vitamin A, IU",IU,--,--,0,0
Lipids
"Fatty acids, total saturated",g,--,--,0.000,0.000
"Fatty acids, total trans",g,--,--,0.000,0.000
"Cholesterol",mg,--,--,0,0
Amino Acids
Other
Ingredients
"PREPARED GARBANZO BEANS, WATER, SALT, CALCIUM CHLORIDE, SODIUM METABISULFITE AND DISODIUM EDTA (FOR COLOR RETENTION)." Date available: 06/25/2017 Date last updated by company: 06/25/2017
