Source: USDA Branded Food Products Database Release December 2017 Software v.3.8.6.4 2017-10-02
Report Run at: December 17, 2017 18:44 EST
"Nutrient data for: 45290001, GARBANZO BEANS, UPC: 817974020275"
Food Group:  Branded Food Products Database
Common Name:

Nutrient,Unit,Data points,Std. Error,"0.5 cup = 125.0g",1Value per 100 g,
Proximates
"Energy",kcal,--,--,120,96
"Protein",g,--,--,6.00,4.80
"Total lipid (fat)",g,--,--,2.00,1.60
"Carbohydrate, by difference",g,--,--,19.00,15.20
"Fiber, total dietary",g,--,--,6.0,4.8
"Sugars, total",g,--,--,4.00,3.20
Minerals
"Calcium, Ca",mg,--,--,31,25
"Iron, Fe",mg,--,--,2.00,1.60
"Potassium, K",mg,--,--,278,222
"Sodium, Na",mg,--,--,140,112
Vitamins
"Vitamin D",IU,--,--,0,0
Lipids
"Fatty acids, total saturated",g,--,--,0.000,0.000
"Fatty acids, total trans",g,--,--,0.000,0.000
"Cholesterol",mg,--,--,0,0
Amino Acids
Other
Ingredients
"ORGANIC GARBANZO BEANS, WATER, SEA SALT." Date available: 09/22/2017 Date last updated by company: 09/22/2017
