Source: USDA Branded Food Products Database Release December 2017 Software v.3.8.6.4 2017-10-02
Report Run at: December 17, 2017 18:45 EST
"Nutrient data for: 45222366, GARBANZO & FETA SALA, UPC: 5051379081324"
Food Group:  Branded Food Products Database
Common Name:

Nutrient,Unit,Data points,Std. Error,"0.5 CONTAINER = 106.0g",1Value per 100 g,
Proximates
"Energy",kcal,--,--,100,94
"Protein",g,--,--,5.00,4.72
"Total lipid (fat)",g,--,--,6.00,5.66
"Carbohydrate, by difference",g,--,--,8.00,7.55
"Fiber, total dietary",g,--,--,3.0,2.8
"Sugars, total",g,--,--,1.00,0.94
Minerals
"Calcium, Ca",mg,--,--,60,57
"Iron, Fe",mg,--,--,0.95,0.90
"Sodium, Na",mg,--,--,510,481
Vitamins
"Vitamin C, total ascorbic acid",mg,--,--,8.0,7.5
"Vitamin A, IU",IU,--,--,529,499
Lipids
"Fatty acids, total saturated",g,--,--,1.505,1.420
"Fatty acids, total trans",g,--,--,0.000,0.000
"Cholesterol",mg,--,--,5,5
Amino Acids
Other
Ingredients
"CHICKPEAS (GARBANZO BEANS, WATER, SALT), TOMATO, CUCUMBER, FETA CHEESE (PASTEURIZED MILK, SALT, CHEESE CULTURE, ENZYMES, POTATO STARCH), KALAMATA OLIVES (KALAMATA OLIVES, WATER, SALT, VINEGAR, OLIVE OIL, HERBS AND SPICES), PASTEURIZED LEMON JUICE, OLIVE OIL, GARLIC, PARSLEY, SPEARMINT, SALT, GARLIC AND PEPPER SEASONING (DEHYDRATED GARLIC, MALTODEXTRIN, BLACK PEPPER, BROWN SUGAR, DEHYDRATED ONION, DEHYDRATED RED BELL PEPPER, SALT, PARSLEY, SUNFLOWER OIL, NATURAL FLAVOR, CONTAINS LESS THAN 2% OF: TRICALCIUM PHOSPHATE)." Date available: 07/14/2017 Date last updated by company: 07/14/2017
