Source: USDA Branded Food Products Database Release December 2017 Software v.3.8.6.4 2017-10-02
Report Run at: December 17, 2017 18:45 EST
"Nutrient data for: 45331718, GARBANZO BEANS, UPC: 075450011463"
Food Group:  Branded Food Products Database
Common Name:

Nutrient,Unit,Data points,Std. Error,"0.5 cup = 130.0g",1Value per 100 g,
Proximates
"Energy",kcal,--,--,120,92
"Protein",g,--,--,6.01,4.62
"Total lipid (fat)",g,--,--,2.00,1.54
"Carbohydrate, by difference",g,--,--,19.01,14.62
"Fiber, total dietary",g,--,--,6.0,4.6
"Sugars, total",g,--,--,1.00,0.77
Minerals
"Calcium, Ca",mg,--,--,23,18
"Iron, Fe",mg,--,--,1.30,1.00
"Sodium, Na",mg,--,--,439,338
Vitamins
"Vitamin D",IU,--,--,0,0
Lipids
"Fatty acids, total saturated",g,--,--,0.000,0.000
"Fatty acids, total trans",g,--,--,0.000,0.000
"Cholesterol",mg,--,--,0,0
Amino Acids
Other
Ingredients
"PREPARED GARBANZO BEANS, WATER, SALT, CALCIUM DISODIUM EDTA AND SODIUM METABISULFITE (TO PROTECT AND PROMOTE COLOR)." Date available: 10/13/2017 Date last updated by company: 10/13/2017
