Source: USDA Branded Food Products Database Release December 2017 Software v.3.8.6.4 2017-10-02
Report Run at: December 17, 2017 19:01 EST
"Nutrient data for: 45214605, GARDEN FRESH PICKLES, UPC: 070152198825"
Food Group:  Branded Food Products Database
Common Name:

Nutrient,Unit,Data points,Std. Error,"6.0 SLICES | ABOUT = 28.0g",1Value per 100 g,
Proximates
"Energy",kcal,--,--,5,18
"Protein",g,--,--,0.00,0.00
"Total lipid (fat)",g,--,--,0.00,0.00
"Carbohydrate, by difference",g,--,--,1.00,3.57
"Sugars, total",g,--,--,1.00,3.57
Minerals
"Sodium, Na",mg,--,--,140,500
Vitamins
Lipids
Amino Acids
Other
Ingredients
"CUCUMBER SLICES, WATER, DISTILLED VINEGAR, SEA SALT, GARLIC, ONION, RED PEPPER, CELERY SEED, TURMERIC, CALCIUM CHLORIDE" Date available: 07/14/2017 Date last updated by company: 07/14/2017
