Source: USDA Branded Food Products Database Release December 2017 Software v.3.8.6.4 2017-10-02
Report Run at: December 17, 2017 19:11 EST
"Nutrient data for: 45235858, GARDEN RANCH DRESSING & DIP, UPC: 021140608260"
Food Group:  Branded Food Products Database
Common Name:

Nutrient,Unit,Data points,Std. Error,"2.0 Tbsp = 30.0g",1Value per 100 g,
Proximates
"Energy",kcal,--,--,140,467
"Protein",g,--,--,1.00,3.33
"Total lipid (fat)",g,--,--,14.00,46.67
"Carbohydrate, by difference",g,--,--,2.00,6.67
"Fiber, total dietary",g,--,--,0.0,0.0
"Sugars, total",g,--,--,1.00,3.33
Minerals
"Calcium, Ca",mg,--,--,0,0
"Iron, Fe",mg,--,--,0.00,0.00
"Sodium, Na",mg,--,--,280,933
Vitamins
"Vitamin C, total ascorbic acid",mg,--,--,0.0,0.0
"Vitamin A, IU",IU,--,--,0,0
Lipids
"Fatty acids, total saturated",g,--,--,2.001,6.670
"Fatty acids, total trans",g,--,--,0.000,0.000
"Cholesterol",mg,--,--,10,33
Amino Acids
Other
Ingredients
"VEGETABLE OIL (SOYBEAN AND/OR CANOLA), WATER, DISTILLED VINEGAR, EGG YOLK, SUGAR, SALT, BUTTERMILK, CONTAINS LESS THAN 1% OF PHOSPHORIC ACID, CARROT*, GARLIC*, ONION*, GREEN BELL PEPPER*, NATURAL FLAVOR, MONOSODIUM GLUTAMATE, MODIFIED FOOD STARCH, MUSTARD FLOUR, DISODIUM PHOSPHATE, XANTHAN GUM, POTASSIUM SORBATE AND CALCIUM DISODIUM EDTA (AS PRESERVATIVES), GREEN ONION*, SPICE, DISODIUM INOSINATE AND DISODIUM GUANYLATE. *DEHYDRATED" Date available: 06/25/2017 Date last updated by company: 06/25/2017
