Source: USDA Branded Food Products Database Release December 2017 Software v.3.8.6.4 2017-10-02
Report Run at: December 17, 2017 18:48 EST
"Nutrient data for: 45122057, GARDEIN, POCKET MEALS ITALIAN MEATLESS SAUSAGE, SOFT DINNER ROLLS, UPC: 842234002029"
Food Group:  Branded Food Products Database
Common Name:

Nutrient,Unit,Data points,Std. Error,"1 PIECE = 100.0g",1Value per 100 g,
Proximates
"Energy",kcal,--,--,240,240
"Protein",g,--,--,6.00,6.00
"Total lipid (fat)",g,--,--,10.00,10.00
"Carbohydrate, by difference",g,--,--,30.00,30.00
"Fiber, total dietary",g,--,--,2.0,2.0
"Sugars, total",g,--,--,3.00,3.00
Minerals
"Calcium, Ca",mg,--,--,40,40
"Iron, Fe",mg,--,--,1.53,1.53
"Sodium, Na",mg,--,--,460,460
Vitamins
"Vitamin C, total ascorbic acid",mg,--,--,1.0,1.0
"Vitamin A, IU",IU,--,--,638,638
Lipids
"Fatty acids, total saturated",g,--,--,1.500,1.500
"Fatty acids, total trans",g,--,--,0.000,0.000
"Cholesterol",mg,--,--,0,0
Amino Acids
Other
Ingredients
"GARDEIN: VEGETABLES (SPINACH, RED BELL PEPPER, SWEET POTATO, GREEN ONION, ONION), WATER, EXPELLER PRESSED CANOLA OIL*, SOY PROTEIN ISOLATE*, SEA SALT, TOMATO FLAKES, SUNDRIED TOMATO, GARLIC POWDER, TOMATO POWDER, ONION POWDER, NATURAL FLAVORS (FROM PLANT SOURCES), VITAL WHEAT GLUTEN*, CORN STARCH, MODIFIED VEGETABLE GUM, ORGANIC CANE SUGAR, YEAST EXTRACT, SPICES, CARRAGEENAN, POTATO STARCH, PAPRIKA, LEMON PEEL, SOY LECITHIN*, MINCED GARLIC, CARAMEL COLOR. BUN: ENRICHED WHEAT FLOUR* (WHEAT FLOUR, NIACIN, REDUCED IRON, THIAMIN MONONITRATE, RIBOFLAVIN, FOLIC ACID), WATER, ORGANIC CANE SUGAR, PALM FLAKES, BAKING POWDER, YEAST, SEA SALT, NATURAL FLAVORS (FROM PLANT SOURCES)." Date available: 07/14/2017 Date last updated by company: 07/14/2017
