Source: USDA Branded Food Products Database Release December 2017 Software v.3.8.6.4 2017-10-02
Report Run at: December 17, 2017 19:16 EST
"Nutrient data for: 45280849, GARDEN VEGETABLE SOUP, UPC: 041130380396"
Food Group:  Branded Food Products Database
Common Name:

Nutrient,Unit,Data points,Std. Error,"1 cup = 245.0g",1Value per 100 g,
Proximates
"Energy",kcal,--,--,110,45
"Protein",g,--,--,2.99,1.22
"Total lipid (fat)",g,--,--,3.50,1.43
"Carbohydrate, by difference",g,--,--,16.00,6.53
"Fiber, total dietary",g,--,--,2.0,0.8
"Sugars, total",g,--,--,5.00,2.04
Minerals
"Calcium, Ca",mg,--,--,39,16
"Iron, Fe",mg,--,--,1.08,0.44
"Sodium, Na",mg,--,--,1019,416
Vitamins
"Vitamin C, total ascorbic acid",mg,--,--,9.1,3.7
"Vitamin A, IU",IU,--,--,1000,408
Lipids
"Fatty acids, total saturated",g,--,--,0.000,0.000
"Fatty acids, total trans",g,--,--,0.000,0.000
"Cholesterol",mg,--,--,0,0
Amino Acids
Other
Ingredients
"WATER, CRUSHED TOMATOES (PLUM TOMATOES, CITRIC ACID), GREAT NORTHERN BEANS, WATER, SALT, CALCIUM CHLORIDE), POTATOES., ONIONS, CELERY, CORN GREEN BEANS, SOYBEAN OIL, SPINACH, CARROTS, GARLIC, VEGETABLE BASE (COOKED VEGETABLES [CARROT, ONION, CELERY], SALT, SUGAR, CORN OIL, POTATO FLOUR, CARROT POWDER), MODIFIED CORN STARCH, PEAS, AUTOLYZED YEAST, DISODIUM INOSINATE, DISODIUM GUANYLATE, TURMERIC, NATURAL FLAVORINGS, SPICES, HYDROLYZED SOY WHEAT GLUTEN PEOTEIN, SOY FLOUR), MUSHROOM BASE (MUSHROOMS, SALT, HYDROLYZED SOY PROTEIN, CORN SYRUP SOLIDS, SUGAR, ONION AND GARLIC POWDER, SOY FLOUR, CORN OIL, MALTODEXTRIN CULTURED WHEY, NATURAL FLAVOR [CONTAINS MILK], INOSINATE AND DISODIUM GUANYLATE), SOY SAUCE (WATER, WHEAT, SOYBEANS, SALT), SALT, SPICE." Date available: 07/14/2017 Date last updated by company: 07/14/2017
