Source: USDA Branded Food Products Database Release December 2017 Software v.3.8.6.4 2017-10-02
Report Run at: December 17, 2017 19:13 EST
"Nutrient data for: 45276013, GARDEN SALAD WITH HOMESTYLE RANCH DRESSING, UPC: 782796018420"
Food Group:  Branded Food Products Database
Common Name:

Nutrient,Unit,Data points,Std. Error,"1 SALAD = 241.0g",1Value per 100 g,
Proximates
"Energy",kcal,--,--,400,166
"Protein",g,--,--,10.99,4.56
"Total lipid (fat)",g,--,--,32.99,13.69
"Carbohydrate, by difference",g,--,--,16.00,6.64
"Fiber, total dietary",g,--,--,2.9,1.2
"Sugars, total",g,--,--,4.00,1.66
Minerals
"Calcium, Ca",mg,--,--,200,83
"Iron, Fe",mg,--,--,1.04,0.43
"Sodium, Na",mg,--,--,711,295
Vitamins
"Vitamin C, total ascorbic acid",mg,--,--,3.4,1.4
"Vitamin A, IU",IU,--,--,116,48
Lipids
"Fatty acids, total saturated",g,--,--,4.989,2.070
"Fatty acids, total trans",g,--,--,0.000,0.000
"Cholesterol",mg,--,--,125,52
Amino Acids
Other
Ingredients
"ICEBERG & ROMAINE LETTUCE MIX (ICEBERG LETTUCE, ROMAINE LETTUCE), RANCH DRESSING (CANOLA OIL, LOW FAT BUTTERMILK [SKIM MILK, WHEY, WATER, SKIM MILK SOLIDS, WHEY SOLIDS, CORN STARCH, TAPIOCA STARCH, DISODIUM PHOSPHATE, CARRAGEENAN GUM, LOCUST BEAN GUM, CULTURE], WATER, EGG YOLK, NON FAT SOUR CREAM [CULTURED SKIM MILK, CORN STARCH, TAPIOCA STARCH, CARRAGEENAN GUM, LOCUST BEAN GUM], DISTILLED VINEGAR, SALT, NATURAL FLAVOR, SUGAR, DRIED GARLIC, DRIED ONION, SPICES, MODIFIED CORN STARCH, DRIED GREEN ONION, LACTIC ACID, XANTHAN GUM, GUAR GUM), GRAPE TOMATOES, HARD COOKED EGGS (WHOLE EGGS, WATER, CITRIC ACID, SODIUM BENZOATE), CHEDDAR CHEESE (CULTURED PASTEURIZED MILK, SALT, CHEESE COLOR, ENZYMES), MULTI-GRAIN CROUTONS (WHEAT FLOUR, SUNFLOWER AND/OR SAFFLOWER OIL, CRACKED RYE, CRACKED WHEAT, YEAST, 2% OR LESS OF SEA SALT, SUGAR, WHEAT GLUTEN, DEHYDRATED ROASTED GARLIC, NATURAL OLIVE OIL FLAVOR)." Date available: 10/05/2017 Date last updated by company: 10/05/2017
