Source: USDA Branded Food Products Database Release December 2017 Software v.3.8.6.4 2017-10-02
Report Run at: December 17, 2017 19:18 EST
"Nutrient data for: 45157733, GARDNERS CANDIES, CRISPED RICE CHOCOLATE BAR, UPC: 088671110020"
Food Group:  Branded Food Products Database
Common Name:

Nutrient,Unit,Data points,Std. Error,"1 ONZ = 28.0g",1Value per 100 g,
Proximates
"Energy",kcal,--,--,150,536
"Protein",g,--,--,2.00,7.14
"Total lipid (fat)",g,--,--,7.00,25.00
"Carbohydrate, by difference",g,--,--,18.00,64.29
"Fiber, total dietary",g,--,--,0.0,0.0
"Sugars, total",g,--,--,13.00,46.43
Minerals
"Calcium, Ca",mg,--,--,40,143
"Iron, Fe",mg,--,--,0.64,2.29
"Sodium, Na",mg,--,--,70,250
Vitamins
"Vitamin C, total ascorbic acid",mg,--,--,0.0,0.0
"Vitamin A, IU",IU,--,--,0,0
Lipids
"Fatty acids, total saturated",g,--,--,4.500,16.070
"Fatty acids, total trans",g,--,--,0.000,0.000
"Cholesterol",mg,--,--,5,18
Amino Acids
Other
Ingredients
"MILK CHOCOLATE (SUGAR, MILK, COCOA BUTTER, CHOCOLATE LIQUOR, SOY LECITHIN - AN EMULSIFIER, VANILLIN - AN ARTIFICIAL FLAVOR), CRISP RICE (MILLED RICE, SUGAR, SALT, MALT)." Date available: 07/14/2017 Date last updated by company: 07/14/2017
