Source: USDA Branded Food Products Database Release December 2017 Software v.3.8.6.4 2017-10-02
Report Run at: December 17, 2017 18:47 EST
"Nutrient data for: 45122244, GARDEIN, HOME STYLE MEATLESS MEATLOAF, UPC: 842234001657"
Food Group:  Branded Food Products Database
Common Name:

Nutrient,Unit,Data points,Std. Error,"2.0 PIECES WITHOUT GRAVY = 140.0g",1Value per 100 g,
Proximates
"Energy",kcal,--,--,210,150
"Protein",g,--,--,20.01,14.29
"Total lipid (fat)",g,--,--,7.00,5.00
"Carbohydrate, by difference",g,--,--,18.00,12.86
"Fiber, total dietary",g,--,--,5.0,3.6
"Sugars, total",g,--,--,3.00,2.14
Minerals
"Calcium, Ca",mg,--,--,80,57
"Iron, Fe",mg,--,--,1.06,0.76
"Sodium, Na",mg,--,--,630,450
Vitamins
"Vitamin C, total ascorbic acid",mg,--,--,1.4,1.0
"Vitamin A, IU",IU,--,--,39,28
Lipids
"Fatty acids, total saturated",g,--,--,0.504,0.360
"Fatty acids, total trans",g,--,--,0.000,0.000
"Cholesterol",mg,--,--,0,0
Amino Acids
Other
Ingredients
"WATER, SOY PROTEIN CONCENTRATE*, TOMATO PUREE, CELERY, EXPELLER PRESSED CANOLA OIL*, VITAL WHEAT GLUTEN*, ENRICHED WHEAT FLOUR* (NIACIN, FERROUS SULFATE, THIAMINE MONONITRATE, RIBOFLAVIN, FOLIC ACID), POTATO STARCH, SOY PROTEIN ISOLATE*, DEHYDRATE ONION, MODIFIED VEGETABLE GUM, MALTED BARLEY EXTRACT, DEHYDRATED GARLIC, SEA SALT, ORGANIC CANE SUGAR, YEAST EXTRACT, NATURAL FLAVORS (FROM PLANT SOURCES), SPICES, CARRAGEENAN, VINEGAR, PEA PROTEIN, CARROT FIBER, BEETROOT FIBER, MOLASSES, WHEAT STARCH*, SOY LECITHIN*, CITRIC ACID, PAPRIKA AND TURMERIC EXTRACTS, ANNATTO EXTRACT. GRAVY: WATER, YEAST EXTRACT, TOMATO PUREE, CORN STARCH, EXPELLER PRESSED CANOLA OIL*, NATURAL FLAVORS (FROM PLANT SOURCES), SOY SAUCE (WATER, WHEAT, SOYBEANS, SALT, ALCOHOL**, VINEGAR), ORGANIC CANE SUGAR, VITAL WHEAT GLUTEN*, ONION POWDER, GARLIC POWDER, MALTED BARLEY EXTRACT, SOY LECITHIN*, SPICES, SEA SALT, VINEGAR." Date available: 09/07/2017 Date last updated by company: 09/07/2017
