Source: USDA Branded Food Products Database Release December 2017 Software v.3.8.6.4 2017-10-02
Report Run at: December 17, 2017 19:07 EST
"Nutrient data for: 45328588, GARDEN MIXED VEGETABLES, UPC: 037100038107"
Food Group:  Branded Food Products Database
Common Name:

Nutrient,Unit,Data points,Std. Error,"0.5 cup = 125.0g",1Value per 100 g,
Proximates
"Energy",kcal,--,--,45,36
"Protein",g,--,--,1.00,0.80
"Total lipid (fat)",g,--,--,0.00,0.00
"Carbohydrate, by difference",g,--,--,9.00,7.20
"Fiber, total dietary",g,--,--,2.0,1.6
"Sugars, total",g,--,--,2.00,1.60
Minerals
"Calcium, Ca",mg,--,--,20,16
"Iron, Fe",mg,--,--,1.12,0.90
"Sodium, Na",mg,--,--,290,232
Vitamins
"Vitamin C, total ascorbic acid",mg,--,--,3.8,3.0
"Vitamin A, IU",IU,--,--,4160,3328
Lipids
Amino Acids
Other
Ingredients
"WATER, CARROTS, GREEN BEANS, PEAS, CORN, LIMA BEANS, SALT." Date available: 10/13/2017 Date last updated by company: 10/13/2017
