Source: USDA Branded Food Products Database Release December 2017 Software v.3.8.6.4 2017-10-02
Report Run at: December 17, 2017 19:13 EST
"Nutrient data for: 45293112, GARDEN SALAD WITH CHICKEN AND BACON, UPC: 030223018193"
Food Group:  Branded Food Products Database
Common Name:

Nutrient,Unit,Data points,Std. Error,"1 PKG. = 163.0g",1Value per 100 g,
Proximates
"Energy",kcal,--,--,319,196
"Protein",g,--,--,17.00,10.43
"Total lipid (fat)",g,--,--,22.00,13.50
"Carbohydrate, by difference",g,--,--,13.01,7.98
"Fiber, total dietary",g,--,--,2.0,1.2
"Sugars, total",g,--,--,3.99,2.45
Minerals
"Calcium, Ca",mg,--,--,150,92
"Iron, Fe",mg,--,--,1.24,0.76
"Sodium, Na",mg,--,--,830,509
Vitamins
"Vitamin C, total ascorbic acid",mg,--,--,7.7,4.7
"Vitamin A, IU",IU,--,--,6013,3689
Lipids
"Fatty acids, total saturated",g,--,--,5.998,3.680
"Fatty acids, total trans",g,--,--,0.000,0.000
"Cholesterol",mg,--,--,46,28
Amino Acids
Other
Ingredients
"ROMAINE LETTUCE, RANCH DRESSING (CANOLA OIL, LOW FAT BUTTERMILK [SKIM MILK, WHEY, WATER, SKIM MILK SOLIDS, WHEY SOLIDS, CORN STARCH, TAPIOCA STARCH, DISODIUM PHOSPHATE {PRESERVATIVES}, CARRAGEENAN GUM, LOCUST BEAN GUM, CULTURE], WATER, EGG YOLK, SUGAR, CIDER VINEGAR, ONION, SALT, DISTILLED VINEGAR, GREEN ONIONS, XANTHAN GUM, GUAR GUM, SPICE, MUSTARD FLOUR), CHICKEN BREAST MEAT WITH RIB MEAT (CHICKEN BREAST MEAT WITH RIB MEAT, WATER, LESS THAN 2% SOY PROTEIN CONCENTRATE, SODIUM LACTATE, SALT, MODIFIED FOOD STARCH, CARRAGEENAN, SODIUM PHOSPHATE), MILD CHEDDAR CHEESE (CHEDDAR CHEESE [PASTEURIZED MILK, CHEESE CULTURE, SALT, ENZYMES, ANNATTO {VEGETABLE COLOR}], POTATO STARCH AND POWDERED CELLULOSE [TO PREVENT CAKING], NATAMYCIN [A NATURAL MOLD INHIBITOR]), BACON PIECES (CURED WITH WATER, SALT, SUGAR, SODIUM NITRITE. MAY ALSO CONTAIN SMOKE FLAVORING, DEXTROSE, BROWN SUGAR, SODIUM PHOSPHATES, SODIUM ERYTHORBATE, SODIUM ASCORBATE, POTASSIUM CHLORIDE, FLAVORING), SEASONED CROUTONS (WHEAT FLOUR, CANOLA AND/OR OLIVE OIL, SUGAR, WHEY, SALT, YEAST, GARLIC POWDER, ROMANO CHEESE [MILK, CHEESE CULTURE, SALT, ENZYMES], PARSLEY, ONION, SPICES, CITRIC ACID, DISODIUM INOSINATE AND DISODIUM GUANYLATE, NIACIN, ASCORBIC ACID, REDUCED IRON, THIAMINE MONONITRATE, RIBOFLAVIN, FOLIC ACID), RED CABBAGE, CARROT." Date available: 08/15/2017 Date last updated by company: 08/15/2017
