Source: USDA Branded Food Products Database Release December 2017 Software v.3.8.6.4 2017-10-02
Report Run at: December 17, 2017 19:11 EST
"Nutrient data for: 45161790, GARDEN PARTY, UPC: 851481006186"
Food Group:  Branded Food Products Database
Common Name:

Nutrient,Unit,Data points,Std. Error,"1 BOTTLE = 473.0g",1Value per 100 g,
Proximates
"Energy",kcal,--,--,114,24
"Protein",g,--,--,6.01,1.27
"Total lipid (fat)",g,--,--,0.00,0.00
"Carbohydrate, by difference",g,--,--,21.99,4.65
"Fiber, total dietary",g,--,--,0.0,0.0
"Sugars, total",g,--,--,19.01,4.02
Minerals
"Calcium, Ca",mg,--,--,99,21
"Iron, Fe",mg,--,--,1.37,0.29
"Sodium, Na",mg,--,--,95,20
Vitamins
"Vitamin C, total ascorbic acid",mg,--,--,88.5,18.7
"Vitamin A, IU",IU,--,--,9389,1985
Lipids
"Cholesterol",mg,--,--,0,0
Amino Acids
Other
Ingredients
"TOMATO, RED PEPPER, CARROT, CELERY, LEMON, BASIL, PARSLEY, BLACK PEPPER" Date available: 09/21/2017 Date last updated by company: 09/21/2017
