Source: USDA Branded Food Products Database Release December 2017 Software v.3.8.6.4 2017-10-02
Report Run at: December 17, 2017 19:32 EST
"Nutrient data for: 45275838, GARLIC PARMESAN WING SAUCE, UPC: 719283407726"
Food Group:  Branded Food Products Database
Common Name:

Nutrient,Unit,Data points,Std. Error,"2.0 Tbsp = 30.0g",1Value per 100 g,
Proximates
"Energy",kcal,--,--,120,400
"Protein",g,--,--,1.00,3.33
"Total lipid (fat)",g,--,--,12.00,40.00
"Carbohydrate, by difference",g,--,--,2.00,6.67
"Fiber, total dietary",g,--,--,0.2,0.8
"Sugars, total",g,--,--,1.00,3.33
Minerals
"Calcium, Ca",mg,--,--,32,107
"Iron, Fe",mg,--,--,0.36,1.20
"Potassium, K",mg,--,--,31,103
"Sodium, Na",mg,--,--,350,1167
Vitamins
Lipids
"Fatty acids, total saturated",g,--,--,2.001,6.670
"Fatty acids, total trans",g,--,--,0.000,0.000
"Cholesterol",mg,--,--,10,33
Amino Acids
Other
Ingredients
"CANOLA OR SOYBEAN OIL, WATER, DISTILLED VINEGAR, PARMESAN CHEESE (MILK, CULTURES, SALT, ENZYMES), GARLIC, EGG YOLKS, SEA SALT, CANE SUGAR, SPICES, NATURAL FLAVOR, ONION, XANTHAN GUM, LEMON JUICE CONCENTRATE, VITAMIN E ADDED TO PROTECT FLAVOR." Date available: 07/14/2017 Date last updated by company: 07/14/2017
