Source: USDA Branded Food Products Database Release December 2017 Software v.3.8.6.4 2017-10-02
Report Run at: December 17, 2017 19:19 EST
"Nutrient data for: 45311255, GARLAND JACK'S, SECRET SIX BARBECUE SAUCE, SWEET BROWN SUGAR, UPC: 021000055876"
Food Group:  Branded Food Products Database
Common Name:

Nutrient,Unit,Data points,Std. Error,"2.0 Tbsp = 37.0g",1Value per 100 g,
Proximates
"Energy",kcal,--,--,70,189
"Protein",g,--,--,0.00,0.00
"Total lipid (fat)",g,--,--,0.00,0.00
"Carbohydrate, by difference",g,--,--,16.00,43.24
"Fiber, total dietary",g,--,--,0.0,0.0
"Sugars, total",g,--,--,14.00,37.84
Minerals
"Calcium, Ca",mg,--,--,0,0
"Iron, Fe",mg,--,--,0.00,0.00
"Sodium, Na",mg,--,--,350,946
Vitamins
"Vitamin C, total ascorbic acid",mg,--,--,0.0,0.0
"Vitamin A, IU",IU,--,--,0,0
Lipids
"Fatty acids, total saturated",g,--,--,0.000,0.000
"Fatty acids, total trans",g,--,--,0.000,0.000
"Cholesterol",mg,--,--,0,0
Amino Acids
Other
Ingredients
"TOMATO PUREE (WATER, TOMATO PASTE), SUGAR, VINEGAR, BROWN SUGAR, MOLASSES, SALT, CONTAINS LESS THAN 2% OF MODIFIED FOOD STARCH, SOYBEAN OIL, MUSTARD FLOUR, NATURAL HICKORY SMOKE FLAVOR, SPICE, DRIED ONIONS, POTASSIUM SORBATE (TO PRESERVE FRESHNESS), CARAMEL COLOR, DRIED GARLIC." Date available: 07/14/2017 Date last updated by company: 07/14/2017
