Source: USDA Branded Food Products Database Release December 2017 Software v.3.8.6.4 2017-10-02
Report Run at: December 17, 2017 19:41 EST
"Nutrient data for: 45291545, GARLIC SEA SALT, UPC: 04656701114"
Food Group:  Branded Food Products Database
Common Name:

Nutrient,Unit,Data points,Std. Error,"0.25 tsp = 1.1g",1Value per 100 g,
Proximates
"Energy",kcal,--,--,0,0
"Protein",g,--,--,0.00,0.00
"Total lipid (fat)",g,--,--,0.00,0.00
"Carbohydrate, by difference",g,--,--,1.00,90.91
Minerals
"Sodium, Na",mg,--,--,297,27000
Vitamins
Lipids
Amino Acids
Other
Ingredients
"SEA SALT, DEHYDRATED ROASTED GARLIC." Date available: 07/14/2017 Date last updated by company: 07/14/2017
