Source: USDA Branded Food Products Database Release December 2017 Software v.3.8.6.4 2017-10-02
Report Run at: December 17, 2017 19:32 EST
"Nutrient data for: 45196665, GARLIC & ONION TUNA BURGER, UPC: 040295515148"
Food Group:  Branded Food Products Database
Common Name:

Nutrient,Unit,Data points,Std. Error,"3.0 ONZ = 85.0g",1Value per 100 g,
Proximates
"Energy",kcal,--,--,190,224
"Protein",g,--,--,15.00,17.65
"Total lipid (fat)",g,--,--,12.00,14.12
"Carbohydrate, by difference",g,--,--,3.00,3.53
"Fiber, total dietary",g,--,--,0.0,0.0
"Sugars, total",g,--,--,1.00,1.18
Minerals
"Calcium, Ca",mg,--,--,0,0
"Iron, Fe",mg,--,--,0.36,0.42
"Sodium, Na",mg,--,--,300,353
Vitamins
"Vitamin C, total ascorbic acid",mg,--,--,1.2,1.4
"Vitamin A, IU",IU,--,--,200,235
Lipids
"Fatty acids, total saturated",g,--,--,1.998,2.350
"Fatty acids, total trans",g,--,--,0.000,0.000
"Cholesterol",mg,--,--,30,35
Amino Acids
Other
Ingredients
"WILD-CAUGHT ALBACORE TUNA AND/OR YELLOWFIN TUNA, MAYONNAISE (CANOLA OIL, EGG YOLK, WATER, APPLE CIDER VINEGAR, DISTILLED VINEGAR, SALT, SPICE (MUSTARD), LEMON JUICE CONCENTRATE] ONION, WATER, SUGAR, CULTURED DEXTROSE, KOSHER SALT, NATURAL SMOKE FLAVOR, BLACK PEPPER, GARLIC." Date available: 07/14/2017 Date last updated by company: 07/14/2017
