Source: USDA Branded Food Products Database Release December 2017 Software v.3.8.6.4 2017-10-02
Report Run at: December 17, 2017 19:28 EST
"Nutrient data for: 45282018, GARLIC & HERB TORTILLA WRAPS, UPC: 041268190102"
Food Group:  Branded Food Products Database
Common Name:

Nutrient,Unit,Data points,Std. Error,"1 TORTILLA = 68.0g",1Value per 100 g,
Proximates
"Energy",kcal,--,--,180,265
"Protein",g,--,--,5.00,7.35
"Total lipid (fat)",g,--,--,4.00,5.88
"Carbohydrate, by difference",g,--,--,32.00,47.06
"Fiber, total dietary",g,--,--,1.0,1.5
"Sugars, total",g,--,--,1.00,1.47
Minerals
"Calcium, Ca",mg,--,--,20,29
"Iron, Fe",mg,--,--,1.46,2.14
"Sodium, Na",mg,--,--,340,500
Vitamins
"Vitamin C, total ascorbic acid",mg,--,--,0.0,0.0
"Vitamin A, IU",IU,--,--,0,0
Lipids
"Fatty acids, total saturated",g,--,--,1.999,2.940
"Fatty acids, total trans",g,--,--,0.000,0.000
"Cholesterol",mg,--,--,0,0
Amino Acids
Other
Ingredients
"UNBLEACHED WHEAT FLOUR (WHEAT FLOUR, NIACIN, REDUCED IRON, THIAMIN MONONITRATE, RIBOFLAVIN, FOLIC ACID), WATER, ORGANIC PALM FRUIT OIL, CULTURED WHEAT FLOUR WITH ADDED VINEGAR, DEHYDRATED GARLIC, SPICES, DEHYDRATED ONION, SUNFLOWER OIL, LEAVENING (SODIUM ACID PYROPHOSPHATE, SODIUM BICARBONATE, CORN STARCH, MONOCALCIUM PHOSPHATE), SUGAR, SALT, GUAR GUM, CITRIC ACID." Date available: 07/14/2017 Date last updated by company: 07/14/2017
