Source: USDA Branded Food Products Database Release December 2017 Software v.3.8.6.4 2017-10-02
Report Run at: December 17, 2017 19:25 EST
"Nutrient data for: 45104250, GARLIC GOURMAY, HABANERO PICKLED GARLIC, UPC: 692857901229"
Food Group:  Branded Food Products Database
Common Name:

Nutrient,Unit,Data points,Std. Error,"12.0 PIECES = 14.0g",1Value per 100 g,
Proximates
"Energy",kcal,--,--,40,286
"Protein",g,--,--,2.00,14.29
"Total lipid (fat)",g,--,--,0.00,0.00
"Carbohydrate, by difference",g,--,--,9.00,64.29
Minerals
"Calcium, Ca",mg,--,--,40,286
"Iron, Fe",mg,--,--,1.29,9.18
"Sodium, Na",mg,--,--,420,3000
Vitamins
"Vitamin C, total ascorbic acid",mg,--,--,32.1,229.6
"Vitamin A, IU",IU,--,--,0,0
Lipids
Amino Acids
Other
Ingredients
"GARLIC, WATER, SALT, VINEGAR, HABANERO PEPPERS, LACTIC ACID, TRACE AMOUNTS OF SODIUM BENZOATE AS A PRESERVATIVE." Date available: 06/25/2017 Date last updated by company: 06/25/2017
