Source: USDA Branded Food Products Database Release December 2017 Software v.3.8.6.4 2017-10-02
Report Run at: December 17, 2017 19:27 EST
"Nutrient data for: 45221419, GARLIC & HERB SEAFOOD SAUCE, UPC: 794376100920"
Food Group:  Branded Food Products Database
Common Name:

Nutrient,Unit,Data points,Std. Error,"1 STRIP = 40.0g",1Value per 100 g,
Proximates
"Energy",kcal,--,--,95,238
"Protein",g,--,--,1.00,2.50
"Total lipid (fat)",g,--,--,6.00,15.00
"Carbohydrate, by difference",g,--,--,10.00,25.00
"Fiber, total dietary",g,--,--,1.0,2.5
"Sugars, total",g,--,--,2.00,5.00
Minerals
"Calcium, Ca",mg,--,--,0,0
"Iron, Fe",mg,--,--,0.00,0.00
"Sodium, Na",mg,--,--,240,600
Vitamins
"Vitamin C, total ascorbic acid",mg,--,--,3.3,8.2
"Vitamin A, IU",IU,--,--,0,0
Lipids
"Fatty acids, total saturated",g,--,--,1.000,2.500
"Fatty acids, total trans",g,--,--,0.000,0.000
"Cholesterol",mg,--,--,0,0
Amino Acids
Other
Ingredients
"GARLIC, WATER, CANOLA OIL, DRILL, PARSLEY, CORN STARCH, DRIED ONION, DEXTROSE, CONCENTRATED LEMON JUICE, SALT, SPICES AND CONDIMENTS, FLAVORING" Date available: 08/28/2017 Date last updated by company: 08/28/2017
