Source: USDA Branded Food Products Database Release December 2017 Software v.3.8.6.4 2017-10-02
Report Run at: December 17, 2017 19:39 EST
"Nutrient data for: 45257618, GARLIC SAUCE, UPC: 081511831154"
Food Group:  Branded Food Products Database
Common Name:

Nutrient,Unit,Data points,Std. Error,"1 ONZ = 28.0g",1Value per 100 g,
Proximates
"Energy",kcal,--,--,140,500
"Protein",g,--,--,1.00,3.57
"Total lipid (fat)",g,--,--,13.00,46.43
"Carbohydrate, by difference",g,--,--,2.00,7.14
"Fiber, total dietary",g,--,--,0.0,0.0
"Sugars, total",g,--,--,0.00,0.00
Minerals
"Calcium, Ca",mg,--,--,20,71
"Iron, Fe",mg,--,--,0.00,0.00
"Sodium, Na",mg,--,--,45,161
Vitamins
"Vitamin C, total ascorbic acid",mg,--,--,1.2,4.3
"Vitamin A, IU",IU,--,--,0,0
Lipids
"Fatty acids, total saturated",g,--,--,2.999,10.710
"Fatty acids, total trans",g,--,--,0.000,0.000
"Cholesterol",mg,--,--,10,36
Amino Acids
Other
Ingredients
"LABNE (INGREDIENTS: CULTURED PASTEURIZED GRADE A NONFAT MILK, CREAM, WHEY PROTEIN CONCENTRATE, PECTIN & SALT. CONTAINS: LIVE AND ACTIVE YOGURT AND PROBIOTIC CULTURES (S. THERMOPHILUS, L. BULGARICUS, L. LACTIS, L. CASEI, L. ACIDOPHILUS AND BIFIDOBACTERIUM). CONTAINS: MILK) PARTIALLY VEGETABLE OIL, GARLIC, CITRIC ACID, SALT, SODIUM BENZOATE & POTASSIUM SORBATE (TO PRESERVE FRESHNESS)." Date available: 10/13/2017 Date last updated by company: 10/13/2017
