Source: USDA Branded Food Products Database Release December 2017 Software v.3.8.6.4 2017-10-02
Report Run at: December 17, 2017 19:49 EST
"Nutrient data for: 45170815, GEFEN, JELL DESSERT, CHERRY, UPC: 710069000506"
Food Group:  Branded Food Products Database
Common Name:

Nutrient,Unit,Data points,Std. Error,"2.0 Tbsp = 21.0g",1Value per 100 g,
Proximates
"Energy",kcal,--,--,80,381
"Protein",g,--,--,0.00,0.00
"Total lipid (fat)",g,--,--,0.00,0.00
"Carbohydrate, by difference",g,--,--,19.00,90.48
"Fiber, total dietary",g,--,--,0.0,0.0
"Sugars, total",g,--,--,14.00,66.67
Minerals
"Calcium, Ca",mg,--,--,0,0
"Iron, Fe",mg,--,--,0.00,0.00
"Sodium, Na",mg,--,--,102,486
Vitamins
"Vitamin C, total ascorbic acid",mg,--,--,0.0,0.0
"Vitamin A, IU",IU,--,--,0,0
Lipids
"Fatty acids, total trans",g,--,--,0.000,0.000
"Cholesterol",mg,--,--,0,0
Amino Acids
Other
Ingredients
"SUGAR, CARRAGEENAN, ADIPIC ACID, POTASSIUM CITRATE, NATURAL AND ARTIFICIAL FLAVOR, FD&C RED #40." Date available: 06/25/2017 Date last updated by company: 06/25/2017
