Source: USDA Branded Food Products Database Release December 2017 Software v.3.8.6.4 2017-10-02
Report Run at: December 17, 2017 19:52 EST
"Nutrient data for: 45081372, GEFILTE FISH, UPC: 073490130120"
Food Group:  Branded Food Products Database
Common Name:

Nutrient,Unit,Data points,Std. Error,"1 PIECE = 51.0g",1Value per 100 g,
Proximates
"Energy",kcal,--,--,73,143
"Protein",g,--,--,6.00,11.76
"Total lipid (fat)",g,--,--,3.00,5.88
"Carbohydrate, by difference",g,--,--,6.00,11.76
"Fiber, total dietary",g,--,--,0.7,1.4
"Sugars, total",g,--,--,4.00,7.84
Minerals
"Calcium, Ca",mg,--,--,0,0
"Iron, Fe",mg,--,--,0.90,1.76
"Sodium, Na",mg,--,--,335,657
Vitamins
"Vitamin C, total ascorbic acid",mg,--,--,0.0,0.0
"Vitamin A, IU",IU,--,--,0,0
Lipids
"Fatty acids, total saturated",g,--,--,0.699,1.370
"Fatty acids, total trans",g,--,--,0.000,0.000
"Cholesterol",mg,--,--,10,20
Amino Acids
Other
Ingredients
"WATER, CARP, ONIONS, SUGAR, POTATO FLAKES, POTATO STARCH, SALT, CARROTS, EGG WHITES, PEPPER, CARRAGEENAN." Date available: 06/25/2017 Date last updated by company: 06/25/2017
