Source: USDA Branded Food Products Database Release December 2017 Software v.3.8.6.4 2017-10-02
Report Run at: December 17, 2017 20:13 EST
"Nutrient data for: 45209531, GELATO, UPC: 02114002403"
Food Group:  Branded Food Products Database
Common Name:

Nutrient,Unit,Data points,Std. Error,"0.5 cup = 96.0g",1Value per 100 g,
Proximates
"Energy",kcal,--,--,190,198
"Protein",g,--,--,4.00,4.17
"Total lipid (fat)",g,--,--,8.00,8.33
"Carbohydrate, by difference",g,--,--,25.00,26.04
"Fiber, total dietary",g,--,--,0.0,0.0
"Sugars, total",g,--,--,21.00,21.88
Minerals
"Calcium, Ca",mg,--,--,150,156
"Iron, Fe",mg,--,--,0.00,0.00
"Potassium, K",mg,--,--,190,198
"Sodium, Na",mg,--,--,60,62
Vitamins
"Vitamin C, total ascorbic acid",mg,--,--,1.3,1.4
"Vitamin A, IU",IU,--,--,112,117
Lipids
"Fatty acids, total saturated",g,--,--,6.998,7.290
"Fatty acids, total trans",g,--,--,0.000,0.000
"Cholesterol",mg,--,--,15,16
Amino Acids
Other
Ingredients
"MILK, PURE CANE SUGAR, COCONUT OIL, FRESH CREAM, GLUCOSE, DEXTROSE, EGG YOLK, MARSALA WINE, COFFEE, MODIFIED STARCH, MASCARPONE CHEESE (PASTEURIZED MILK, CREAM, CITRIC ACID), PECTIN, MONO AND DIGLYCERIDES, GUAR GUM, TARA GUM, CARRAGEENAN, XANTHAN GUM, CITRIC ACID, NATURAL AND ARTIFICIAL FLAVORS." Date available: 07/14/2017 Date last updated by company: 07/14/2017
