Source: USDA Branded Food Products Database Release December 2017 Software v.3.8.6.4 2017-10-02
Report Run at: December 17, 2017 20:10 EST
"Nutrient data for: 45181055, GELATO, UPC: 011150001175"
Food Group:  Branded Food Products Database
Common Name:

Nutrient,Unit,Data points,Std. Error,"3.5 ONZ = 100.0g",1Value per 100 g,
Proximates
"Energy",kcal,--,--,200,200
"Protein",g,--,--,3.00,3.00
"Total lipid (fat)",g,--,--,10.00,10.00
"Carbohydrate, by difference",g,--,--,23.00,23.00
"Fiber, total dietary",g,--,--,2.0,2.0
"Sugars, total",g,--,--,23.00,23.00
Minerals
"Calcium, Ca",mg,--,--,20,20
"Iron, Fe",mg,--,--,0.36,0.36
"Sodium, Na",mg,--,--,55,55
Vitamins
"Vitamin C, total ascorbic acid",mg,--,--,0.0,0.0
"Vitamin A, IU",IU,--,--,0,0
Lipids
"Fatty acids, total saturated",g,--,--,7.000,7.000
"Fatty acids, total trans",g,--,--,0.000,0.000
"Cholesterol",mg,--,--,30,30
Amino Acids
Other
Ingredients
"WHOLE MILK, SUGAR, 100% BRAZILIAN, ARABICA COFFEE CREAM, BUTTER CORN SYRUP, SKIM MILK, COFFEE CHOCOLATE BEANS SUGAR, COCOA PASTE, COCOA BUTTER, WATER, COFFEE EXTRACT, ARABIC GUM SHELLAC, NATURAL VANILLA FLAVOR, CARAMELIZED SUGAR, 100% BRAZILIAN ARABICA COFFEE EXTRACT, MONO AND DIGLYCERIDES, SODIUM ALGINATE, LOCUST BEAN GUM, ARTIFICIAL FLAVOR." Date available: 08/11/2017 Date last updated by company: 08/11/2017
