Source: USDA Branded Food Products Database Release December 2017 Software v.3.8.6.4 2017-10-02
Report Run at: December 17, 2017 20:02 EST
"Nutrient data for: 45312479, GELATIN DESSERT, UPC: 043000066706"
Food Group:  Branded Food Products Database
Common Name:

Nutrient,Unit,Data points,Std. Error,"2.0 JIGGLERS = 27.0g",1Value per 100 g,
Proximates
"Energy",kcal,--,--,100,370
"Protein",g,--,--,2.00,7.41
"Total lipid (fat)",g,--,--,0.00,0.00
"Carbohydrate, by difference",g,--,--,24.00,88.89
"Sugars, total",g,--,--,24.00,88.89
Minerals
"Sodium, Na",mg,--,--,100,370
Vitamins
Lipids
"Fatty acids, total saturated",g,--,--,0.000,0.000
"Fatty acids, total trans",g,--,--,0.000,0.000
Amino Acids
Other
Ingredients
"SUGAR, GELATIN, ADIPIC ACID (FOR TARTNESS), CONTAINS LESS THAN 2% OF NATURAL AND ARTIFICIAL FLAVOR, DISODIUM PHOSPHATE AND SODIUM CITRATE (CONTROL ACIDITY), FUMARIC ACID (FOR TARTNESS), RED 40, BLUE 1, ACETIC ACID" Date available: 07/14/2017 Date last updated by company: 07/14/2017
