Source: USDA Branded Food Products Database Release December 2017 Software v.3.8.6.4 2017-10-02
Report Run at: December 17, 2017 20:09 EST
"Nutrient data for: 45063937, GELATO, UPC: 852681955618"
Food Group:  Branded Food Products Database
Common Name:

Nutrient,Unit,Data points,Std. Error,"4.0 ONZ = 113.4g",1Value per 100 g,
Proximates
"Energy",kcal,--,--,191,168
"Protein",g,--,--,4.00,3.53
"Total lipid (fat)",g,--,--,7.00,6.17
"Carbohydrate, by difference",g,--,--,25.00,22.05
"Fiber, total dietary",g,--,--,2.0,1.8
"Sugars, total",g,--,--,25.00,22.05
Minerals
"Calcium, Ca",mg,--,--,150,132
"Sodium, Na",mg,--,--,70,62
Vitamins
"Vitamin A, IU",IU,--,--,500,441
Lipids
"Fatty acids, total saturated",g,--,--,4.003,3.530
"Fatty acids, total trans",g,--,--,0.000,0.000
"Cholesterol",mg,--,--,35,31
Amino Acids
Other
Ingredients
"CREAM, NONFAT DRY MILK, WHOLE MILK, VANILLA BEANS, VANILLA EXTRACT, CANE SUGAR, DEXTROSE, CARRAGEENAN, GUAR GUM, LOCUST BEAN GUM." Date available: 10/19/2017 Date last updated by company: 10/19/2017
