Source: USDA Branded Food Products Database Release December 2017 Software v.3.8.6.4 2017-10-02
Report Run at: December 17, 2017 20:09 EST
"Nutrient data for: 45191841, GELATO TRUFFLE, UPC: 093959517460"
Food Group:  Branded Food Products Database
Common Name:

Nutrient,Unit,Data points,Std. Error,"1 TRUFFLE = 100.0g",1Value per 100 g,
Proximates
"Energy",kcal,--,--,260,260
"Protein",g,--,--,5.00,5.00
"Total lipid (fat)",g,--,--,17.00,17.00
"Carbohydrate, by difference",g,--,--,27.00,27.00
"Fiber, total dietary",g,--,--,2.0,2.0
"Sugars, total",g,--,--,23.00,23.00
Minerals
"Calcium, Ca",mg,--,--,100,100
"Iron, Fe",mg,--,--,1.44,1.44
"Sodium, Na",mg,--,--,75,75
Vitamins
"Vitamin C, total ascorbic acid",mg,--,--,0.0,0.0
"Vitamin A, IU",IU,--,--,300,300
Lipids
"Fatty acids, total saturated",g,--,--,9.000,9.000
"Fatty acids, total trans",g,--,--,0.000,0.000
"Cholesterol",mg,--,--,35,35
Amino Acids
Other
Ingredients
"CHOCOLATE GELATO (MILK, CREAM, SUGAR, NONFAT DRY MILK, COCOA (PROCESSED WITH ALKALI), SOY LECITHIN, GUAR GUM, XANTHAN GUM, CARRAGEENAN, VANILLA), CAPPUCCINO GELATO (MILK, CREAM, SUGAR, NONFAT DRY MILK, COCOA (PROCESSED WITH ALKALI), COFFEE, SOY LECITHIN, GUAR GUM, XANTHAN GUM, CARRAGEENAN, NATURAL FLAVORS), CHOCOLATE COATING (SUGAR, COCONUT OIL, COCOA (NATURAL AND PROCESSED WITH ALKALI), BITTER CHOCOLATE, SOY LECITHIN (AN EMULSIFIER), VANILLA, SALT), ALMONDS, CHOCOLATE FUDGE (SWEETENED CONDENSED MILK (MILK, SUGAR), SEMI SWEET CHOCOLATE (SUGAR, BITTER CHOCOLATE, COCOA, SOY LECITHIN, NATURAL FLAVORS), BUTTER (CREAM, SALT), VANILLA, SEA SALT)." Date available: 07/14/2017 Date last updated by company: 07/14/2017
