Source: USDA Branded Food Products Database Release December 2017 Software v.3.8.6.4 2017-10-02
Report Run at: December 17, 2017 20:07 EST
"Nutrient data for: 45289735, GELATO CARAMEL COOKIE, UPC: 717544211426"
Food Group:  Branded Food Products Database
Common Name:

Nutrient,Unit,Data points,Std. Error,"0.5 cup = 104.0g",1Value per 100 g,
Proximates
"Energy",kcal,--,--,240,231
"Protein",g,--,--,3.00,2.88
"Total lipid (fat)",g,--,--,9.00,8.65
"Carbohydrate, by difference",g,--,--,37.00,35.58
"Fiber, total dietary",g,--,--,0.0,0.0
"Sugars, total",g,--,--,33.00,31.73
Minerals
"Calcium, Ca",mg,--,--,100,96
"Iron, Fe",mg,--,--,0.00,0.00
"Sodium, Na",mg,--,--,85,82
Vitamins
"Vitamin C, total ascorbic acid",mg,--,--,0.0,0.0
"Vitamin A, IU",IU,--,--,338,325
Lipids
"Fatty acids, total saturated",g,--,--,5.002,4.810
"Fatty acids, total trans",g,--,--,0.000,0.000
"Cholesterol",mg,--,--,30,29
Amino Acids
Other
Ingredients
"NONFAT MILK, SUGAR, CREAM, NATURAL FLAVOR, VANILLA EXTRACT, LOCUST BEAN GUM, BROWN RICE SYRUP, SWEETENED CONDENSED MILK (CONDENSED MILK, SUGAR), CARRAGEENAN, SALT, SOY LECITHIN, SODIUM BICARBONATE, UNBLEACHED ENRICHED FLOUR (WHEAT FLOUR, NIACIN, REDUCED IRON, THIAMINE MONONITRATE (VITAMIN B1), RIBOFLAVIN (VITAMIN B2), FOLIC ACID), PALM AND/OR CANOLA OIL, COCOA (PROCESSED WITH ALKALI), HIGH FRUCTOSE CORN SYRUP, LEAVENING (BAKING SODA AND/OR CALCIUM PHOSPHATE), CORNSTARCH, ARTIFICIAL FLAVOR, CHOCOLATE, DEXTROSE, GUAR GUM." Date available: 07/14/2017 Date last updated by company: 07/14/2017
