Source: USDA Branded Food Products Database Release December 2017 Software v.3.8.6.4 2017-10-02
Report Run at: December 17, 2017 20:04 EST
"Nutrient data for: 45333403, GELATIN DESSERT, UPC: 078742241753"
Food Group:  Branded Food Products Database
Common Name:

Nutrient,Unit,Data points,Std. Error,"0.25 PACKAGE, MAKES 1/2 CUP PREPARED = 21.0g",1Value per 100 g,
Proximates
"Energy",kcal,--,--,80,381
"Total lipid (fat)",g,--,--,0.00,0.00
"Carbohydrate, by difference",g,--,--,18.00,85.71
"Fiber, total dietary",g,--,--,0.0,0.0
"Sugars, total",g,--,--,18.00,85.71
Minerals
"Calcium, Ca",mg,--,--,0,0
"Iron, Fe",mg,--,--,0.00,0.00
"Potassium, K",mg,--,--,0,0
"Sodium, Na",mg,--,--,105,500
Vitamins
"Vitamin D",IU,--,--,0,0
Lipids
"Fatty acids, total saturated",g,--,--,0.000,0.000
"Fatty acids, total trans",g,--,--,0.000,0.000
"Cholesterol",mg,--,--,0,0
Amino Acids
Other
Ingredients
"SUGAR, GELATIN, CONTAINS 2% OR LESS OF EACH OF THE FOLLOWING: ADIPIC ACID, SODIUM CITRATE, FUMARIC ACID, DISODIUM PHOSPHATE, ARTIFICIAL FLAVOR, RED 40." Date available: 10/13/2017 Date last updated by company: 10/13/2017
