Source: USDA Branded Food Products Database Release December 2017 Software v.3.8.6.4 2017-10-02
Report Run at: December 17, 2017 20:19 EST
"Nutrient data for: 45196324, GENERAL TSO'S CHICKEN SKILLET MEAL, UPC: 036800420694"
Food Group:  Branded Food Products Database
Common Name:

Nutrient,Unit,Data points,Std. Error,"1 CUP COOKED | CUPS FROZEN, = 198.0g",1Value per 100 g,
Proximates
"Energy",kcal,--,--,259,131
"Protein",g,--,--,8.00,4.04
"Total lipid (fat)",g,--,--,4.00,2.02
"Carbohydrate, by difference",g,--,--,46.00,23.23
"Fiber, total dietary",g,--,--,2.0,1.0
"Sugars, total",g,--,--,17.01,8.59
Minerals
"Calcium, Ca",mg,--,--,40,20
"Iron, Fe",mg,--,--,1.43,0.72
"Sodium, Na",mg,--,--,521,263
Vitamins
"Vitamin C, total ascorbic acid",mg,--,--,11.9,6.0
"Vitamin A, IU",IU,--,--,1723,870
Lipids
"Fatty acids, total saturated",g,--,--,0.495,0.250
"Fatty acids, total trans",g,--,--,0.000,0.000
"Cholesterol",mg,--,--,10,5
Amino Acids
Other
Ingredients
"VEGETABLES: CARROTS, BROCCOLI, RED BELL PEPPER, WATER CHESTNUTS. RICE: WATER, RICE. GENERAL TSO SAUCE: SUGAR, WATER, SOY SAUCE (WATER, SOYBEANS, WHEAT SALT, SODIUM BENZOATE AS A PRESERVATIVE), VINEGAR, OYSTER EXTRACTIVES (OYSTER, WATER, SALT), MODIFIED CORN STARCH, CARAMEL COLOR], MODIFIED CORN STARCH, GARLIC MOLASSES, WHITE WINE, TOASTED SESAME OIL, GARLIC POWDER, MALTODEXTRIN, SALT, XANTHAN GUM, FLAVORS, VEGETABLE STOCK (CARROT, ONION, CELERY), CHICKEN STOCK, YEAST EXTRACT, SPICE, DEXTROSE, CORN SYRUP SOLIDS, NATURAL SMOKE FLAVOR. TEMPURA CHICKEN: CHICKEN BREAST MEAT, WATER, BLEACHED ENRICHED FLOUR (WHEAT FLOUR, NIACIN, IRON, THIAMINE MONIONITRATE, RIBOFLAVIN, FOLIC ACID), CORNSTARCH, CONTAINS LESS THAN 2% OF DEXTRIN, DEXTROSE, EGG WHITES, EGG YOLKS, LEAVENING (SODIUM ACID PYROPHOSPHATE, SODIUM BICARBONATE, MONOCALCIUM PHOSPHATE), MODIFIED POTATO STARCH, NONFAT DRY MILK, RICE FLOUR, SALT, SODIUM PHOSPHATE, XANTHAN GUM. COOKED IN VEGETABLE OIL." Date available: 07/14/2017 Date last updated by company: 07/14/2017
