Source: USDA Branded Food Products Database Release December 2017 Software v.3.8.6.4 2017-10-02
Report Run at: December 17, 2017 20:18 EST
"Nutrient data for: 45235521, GENERAL TSAO STYLE STIR FRY SAUCE, UPC: 041190045853"
Food Group:  Branded Food Products Database
Common Name:

Nutrient,Unit,Data points,Std. Error,"2.0 Tbsp = 30.0g",1Value per 100 g,
Proximates
"Energy",kcal,--,--,40,133
"Protein",g,--,--,0.00,0.00
"Total lipid (fat)",g,--,--,0.00,0.00
"Carbohydrate, by difference",g,--,--,9.00,30.00
"Fiber, total dietary",g,--,--,0.0,0.0
"Sugars, total",g,--,--,8.00,26.67
Minerals
"Calcium, Ca",mg,--,--,0,0
"Iron, Fe",mg,--,--,0.00,0.00
"Sodium, Na",mg,--,--,240,800
Vitamins
"Vitamin C, total ascorbic acid",mg,--,--,2.0,6.7
"Vitamin A, IU",IU,--,--,0,0
Lipids
"Fatty acids, total saturated",g,--,--,0.000,0.000
"Fatty acids, total trans",g,--,--,0.000,0.000
"Cholesterol",mg,--,--,0,0
Amino Acids
Other
Ingredients
"WATER, SUGAR, SOY SAUCE (WATER, SOYBEANS, WHEAT, SALT), ORANGE PEEL, RICE VINEGAR, MODIFIED FOOD STARCH, RED JALAPENO PEPPERS, CONTAINS 2% OR LESS OF: GREEN ONIONS, SALT, BALSAMIC VINEGAR, GARLIC, GINGER, SPICES, CITRIC ACID, WITH POTASSIUM SORBATE TO PRESERVE FLAVOR." Date available: 06/24/2017 Date last updated by company: 06/24/2017
