Source: USDA Branded Food Products Database Release December 2017 Software v.3.8.6.4 2017-10-02
Report Run at: December 17, 2017 20:25 EST
"Nutrient data for: 45148067, GEORGE J HOWE COMPANY, TRAIL MIX, HOT & SPICY, UPC: 073171027008"
Food Group:  Branded Food Products Database
Common Name:

Nutrient,Unit,Data points,Std. Error,"30.0 GRM = 30.0g",1Value per 100 g,
Proximates
"Energy",kcal,--,--,160,533
"Protein",g,--,--,5.00,16.67
"Total lipid (fat)",g,--,--,11.00,36.67
"Carbohydrate, by difference",g,--,--,12.00,40.00
"Fiber, total dietary",g,--,--,2.0,6.7
"Sugars, total",g,--,--,1.00,3.33
Minerals
"Calcium, Ca",mg,--,--,20,67
"Iron, Fe",mg,--,--,0.60,2.00
"Sodium, Na",mg,--,--,220,733
Vitamins
"Vitamin C, total ascorbic acid",mg,--,--,0.0,0.0
"Vitamin A, IU",IU,--,--,0,0
Lipids
"Fatty acids, total saturated",g,--,--,2.001,6.670
"Fatty acids, total trans",g,--,--,0.000,0.000
"Cholesterol",mg,--,--,0,0
Amino Acids
Other
Ingredients
"PEANUTS (COOKED IN PEANUT OIL, SALT ADDED), SESAME STICKS (UNBLEACHED WHEAT FLOUR [CONTAINS MALTED BARLEY FLOUR AS AN ENZYME ADDITIVE], SOYBEAN OIL, SESAME SEEDS, BULGUR WHEAT, SALT, BEET POWDER, TURMERIC), CHILI BITS (GLUTINOUS RICE, SOY SAUCE [WATER, SOYBEAN, WHEAT, SALT], SUGAR, STARCH, CHILI, ARTIFICIAL COLOR FD&C YELLOW 5 AND YELLOW 6), HOT AND SPICY SESAME STICKS (UNBLEACHED WHEAT FLOUR[CONTAINS MALTED BARLEY FLOUR AS A NATURAL ENZYME ADDITIVE], SOYBEAN OIL SESAME SEEDS, BULGUR WHEAT, PEPPER SAUCE SEASONING[TOMATO POWDER, SALT, CORN FLOUR, MALTODEXTRIN, ONION POWDER, SOUR CREAM POWDER[[CREAM, MALTODEXTRIN, CULTURED BUTTERMILK, REDUCED LACTOSE WHEY, NONFAT MILK, NATURAL FLAVOR, AUTOLYZED YEAST, SODIUM CITRATE, SOUR CREAM CULTURE]], MSG, SPICES AND NATURAL COLORS , CAJUN COOKING SPICE (SALT, PAPRIKA, GARLIC POWDER, ONION POWDER, AND LESS THAN 2% OF: SILICON DIOXIDE AND/OR SUNFLOWER OIL, ANTI CAKING AGENTS)." Date available: 07/14/2017 Date last updated by company: 07/14/2017
