Source: USDA Branded Food Products Database Release December 2017 Software v.3.8.6.4 2017-10-02
Report Run at: December 17, 2017 20:25 EST
"Nutrient data for: 45179865, GEORGE'S, BLOODY MARY MIX, UPC: 700621386315"
Food Group:  Branded Food Products Database
Common Name:

Nutrient,Unit,Data points,Std. Error,"6.0 OZA = 177.0g",1Value per 100 g,
Proximates
"Energy",kcal,--,--,50,28
"Protein",g,--,--,2.00,1.13
"Total lipid (fat)",g,--,--,0.00,0.00
"Carbohydrate, by difference",g,--,--,14.99,8.47
"Fiber, total dietary",g,--,--,1.9,1.1
"Sugars, total",g,--,--,8.99,5.08
Minerals
"Calcium, Ca",mg,--,--,19,11
"Iron, Fe",mg,--,--,3.66,2.07
"Sodium, Na",mg,--,--,1120,633
Vitamins
"Vitamin C, total ascorbic acid",mg,--,--,16.3,9.2
"Vitamin A, IU",IU,--,--,1356,766
Lipids
"Fatty acids, total saturated",g,--,--,0.000,0.000
"Fatty acids, total trans",g,--,--,0.000,0.000
"Cholesterol",mg,--,--,0,0
Amino Acids
Other
Ingredients
"WATER, TOMATO PUREE, WORCESTERSHIRE SAUCE (VINEGAR, MOLASSES, WATER, SUGAR, ONIONS, ANCHOVIES, SALT, GARLIC, CLOVES, TAMARIND EXTRACT, NATURAL FLAVORINGS, CHILI PEPPER EXTRACT) LEMON JUICE CONCENTRATE, HORSERADISH (DISTILLED VINEGAR, WATER, SOYBEAN OIL, SALT) HOT SAUCE (PEPPERS, VINEGAR, SALT, XANTHAN GUM, BENZOATE OF SODA) SPICES, CELERY SALT" Date available: 07/14/2017 Date last updated by company: 07/14/2017
