Source: USDA Branded Food Products Database Release December 2017 Software v.3.8.6.4 2017-10-02
Report Run at: December 17, 2017 20:26 EST
"Nutrient data for: 45025629, GERARD & DOMINIQUE SEAFOODS, WILD COHO SMOKED SALMON, UPC: 752047925418"
Food Group:  Branded Food Products Database
Common Name:

Nutrient,Unit,Data points,Std. Error,"2.0 ONZ = 56.0g",1Value per 100 g,
Proximates
"Energy",kcal,--,--,100,179
"Protein",g,--,--,19.00,33.93
"Total lipid (fat)",g,--,--,3.00,5.36
"Carbohydrate, by difference",g,--,--,0.00,0.00
"Fiber, total dietary",g,--,--,0.0,0.0
"Sugars, total",g,--,--,0.00,0.00
Minerals
"Calcium, Ca",mg,--,--,20,36
"Iron, Fe",mg,--,--,0.35,0.63
"Sodium, Na",mg,--,--,520,929
Vitamins
"Vitamin C, total ascorbic acid",mg,--,--,1.2,2.1
"Vitamin A, IU",IU,--,--,98,175
Lipids
"Fatty acids, total saturated",g,--,--,0.498,0.890
"Fatty acids, total trans",g,--,--,0.000,0.000
"Cholesterol",mg,--,--,30,54
Amino Acids
Other
Ingredients
"SMOKED SALMON (SALMON, SALT, SUGAR, SPICE, NATURAL WOOD SMOKE), HONEY, OLIVE OIL, ORGANIC SOY SAUCE (WATER, WHOLE SOYBEANS, SALT, ORGANIC ALCOHOL), ONIONS, GARLIC, GINGER." Date available: 10/12/2017 Date last updated by company: 10/12/2017
