Source: USDA Branded Food Products Database Release December 2017 Software v.3.8.6.4 2017-10-02
Report Run at: December 17, 2017 20:28 EST
"Nutrient data for: 45328794, GERMAN POTATO SALAD, UPC: 070672718008"
Food Group:  Branded Food Products Database
Common Name:

Nutrient,Unit,Data points,Std. Error,"0.5 cup = 125.0g",1Value per 100 g,
Proximates
"Energy",kcal,--,--,120,96
"Protein",g,--,--,2.00,1.60
"Total lipid (fat)",g,--,--,3.00,2.40
"Carbohydrate, by difference",g,--,--,22.00,17.60
"Fiber, total dietary",g,--,--,2.0,1.6
"Sugars, total",g,--,--,8.00,6.40
Minerals
"Calcium, Ca",mg,--,--,0,0
"Iron, Fe",mg,--,--,0.93,0.74
"Sodium, Na",mg,--,--,500,400
Vitamins
"Vitamin C, total ascorbic acid",mg,--,--,3.1,2.5
"Vitamin A, IU",IU,--,--,384,307
Lipids
"Fatty acids, total saturated",g,--,--,2.000,1.600
"Fatty acids, total trans",g,--,--,0.000,0.000
"Cholesterol",mg,--,--,5,4
Amino Acids
Other
Ingredients
"POTATOES, WATER, SUGAR, VINEGAR, BACON (CURED WITH WATER, SALT, SUGAR, SODIUM PHOSPHATE, SODIUM ERYTHORBATE, SODIUM NITRITE), MODIFIED CORN STARCH, SALT, ONION, SPICE, NATURAL FLAVOR, PARSLEY FLAKES." Date available: 10/13/2017 Date last updated by company: 10/13/2017
