Source: USDA Branded Food Products Database Release December 2017 Software v.3.8.6.4 2017-10-02
Report Run at: December 17, 2017 20:27 EST
"Nutrient data for: 45093073, GERMAN BUTTER, UPC: 857689001091"
Food Group:  Branded Food Products Database
Common Name:

Nutrient,Unit,Data points,Std. Error,"1 Tbsp = 14.0g",1Value per 100 g,
Proximates
"Energy",kcal,--,--,108,771
"Protein",g,--,--,0.00,0.00
"Total lipid (fat)",g,--,--,12.00,85.71
"Carbohydrate, by difference",g,--,--,0.00,0.00
Minerals
"Sodium, Na",mg,--,--,0,0
Vitamins
"Vitamin A, IU",IU,--,--,1014,7246
Lipids
"Fatty acids, total saturated",g,--,--,8.000,57.140
"Fatty acids, total trans",g,--,--,0.000,0.000
"Cholesterol",mg,--,--,30,214
Amino Acids
Other
Ingredients
"CREAM, CULTURE." Date available: 07/14/2017 Date last updated by company: 07/14/2017
