Source: USDA Branded Food Products Database Release December 2017 Software v.3.8.6.4 2017-10-02
Report Run at: December 17, 2017 20:29 EST
"Nutrient data for: 45101750, GERRIT'S, EDIBLE SATELLITE WAFERS, UPC: 086232321038"
Food Group:  Branded Food Products Database
Common Name:

Nutrient,Unit,Data points,Std. Error,"1.23 ONZ = 35.0g",1Value per 100 g,
Proximates
"Energy",kcal,--,--,137,391
"Protein",g,--,--,0.00,0.00
"Total lipid (fat)",g,--,--,0.00,0.00
"Carbohydrate, by difference",g,--,--,33.00,94.29
"Sugars, total",g,--,--,22.00,62.86
Minerals
"Sodium, Na",mg,--,--,27,77
Vitamins
Lipids
"Fatty acids, total saturated",g,--,--,0.000,0.000
"Fatty acids, total trans",g,--,--,0.000,0.000
Amino Acids
Other
Ingredients
"SUGAR PEARLS (SUGAR, WATER, VEGETABLE OIL, BEESWAX, COLORS: FD&C YELLOW NO 6, FD&C BLUE NO 2; FLAVORING), CORN STARCH, COLORS: FD&C YELLOW NO 6; FD&C RED NO 40, FD&C BLUE NO 2." Date available: 06/25/2017 Date last updated by company: 06/25/2017
