Source: USDA Branded Food Products Database Release December 2017 Software v.3.8.6.4 2017-10-02
Report Run at: December 17, 2017 20:29 EST
"Nutrient data for: 45157591, GERRIT'S, GUMMY PINK CADILLACS, MELON, UPC: 086232516069"
Food Group:  Branded Food Products Database
Common Name:

Nutrient,Unit,Data points,Std. Error,"10.0 PIECES = 40.0g",1Value per 100 g,
Proximates
"Energy",kcal,--,--,141,352
"Protein",g,--,--,1.00,2.50
"Total lipid (fat)",g,--,--,0.00,0.00
"Carbohydrate, by difference",g,--,--,33.00,82.50
"Fiber, total dietary",g,--,--,0.0,0.0
"Sugars, total",g,--,--,24.00,60.00
Minerals
"Sodium, Na",mg,--,--,11,28
Vitamins
Lipids
"Fatty acids, total saturated",g,--,--,0.000,0.000
"Fatty acids, total trans",g,--,--,0.000,0.000
"Cholesterol",mg,--,--,0,0
Amino Acids
Other
Ingredients
"GLUCOSE-FRUCTOSE SYRUP, SUGAR, MODIFIED STARCH, GELATIN, ACIDS (MALIC ACID, ACETIC ACID), NATURAL MELON FLAVORINGS, GLAZING AGENT (CARNAUBA WAX), CONCENTRATES (SWEET POTATO, CARROT)." Date available: 07/14/2017 Date last updated by company: 07/14/2017
