Source: USDA Branded Food Products Database Release December 2017 Software v.3.8.6.4 2017-10-02
Report Run at: December 17, 2017 20:32 EST
"Nutrient data for: 45220307, GET POPPIN' CRISPY POTATO SNACKS, UPC: 077890346730"
Food Group:  Branded Food Products Database
Common Name:

Nutrient,Unit,Data points,Std. Error,"24.0 CHIPS | ABOUT = 28.0g",1Value per 100 g,
Proximates
"Energy",kcal,--,--,110,393
"Protein",g,--,--,2.00,7.14
"Total lipid (fat)",g,--,--,2.50,8.93
"Carbohydrate, by difference",g,--,--,20.00,71.43
"Fiber, total dietary",g,--,--,1.0,3.6
"Sugars, total",g,--,--,2.00,7.14
Minerals
"Calcium, Ca",mg,--,--,0,0
"Iron, Fe",mg,--,--,0.00,0.00
"Potassium, K",mg,--,--,210,750
"Sodium, Na",mg,--,--,170,607
Vitamins
"Vitamin C, total ascorbic acid",mg,--,--,4.3,15.3
"Vitamin A, IU",IU,--,--,357,1275
Lipids
"Fatty acids, total saturated",g,--,--,0.000,0.000
"Fatty acids, total trans",g,--,--,0.000,0.000
"Cholesterol",mg,--,--,0,0
Amino Acids
Other
Ingredients
"POTATO FLOUR, POTATO STARCH, SUNFLOWER AND/OR CANOLA OIL, BARBECUE SEASONING (SUGAR, MOLASSES POWDER, DEXTROSE, SALT, VINEGAR POWDER [VINEGAR, MALTODEXTRIN], TOMATO POWDER, PAPRIKA, ONION POWDER, NATURAL FLAVORS, GARLIC POWDER, PAPRIKA EXTRACT [COLOR], SPICE, CITRIC ACID, NATURAL SMOKE FLAVOR), RICE FLOUR, AND SALT." Date available: 07/14/2017 Date last updated by company: 07/14/2017
