Source: USDA Branded Food Products Database Release December 2017 Software v.3.8.6.4 2017-10-02
Report Run at: December 17, 2017 20:32 EST
"Nutrient data for: 45169434, GG'S, BBQ SEASONING FOR PORK, POULTRY OR BEEF, UPC: 851763004121"
Food Group:  Branded Food Products Database
Common Name:

Nutrient,Unit,Data points,Std. Error,"0.25 tsp = 2.0g",1Value per 100 g,
Proximates
"Energy",kcal,--,--,10,500
"Protein",g,--,--,0.00,0.00
"Total lipid (fat)",g,--,--,0.00,0.00
"Carbohydrate, by difference",g,--,--,1.00,50.00
"Fiber, total dietary",g,--,--,0.0,0.0
"Sugars, total",g,--,--,1.00,50.00
Minerals
"Calcium, Ca",mg,--,--,0,0
"Iron, Fe",mg,--,--,14.61,730.35
"Sodium, Na",mg,--,--,240,12000
Vitamins
"Vitamin C, total ascorbic acid",mg,--,--,48.7,2434.5
"Vitamin A, IU",IU,--,--,16230,811525
Lipids
"Fatty acids, total saturated",g,--,--,0.000,0.000
"Fatty acids, total trans",g,--,--,0.000,0.000
"Cholesterol",mg,--,--,0,0
Amino Acids
Other
Ingredients
"RED PEPPER, SEA SALT, GARLIC, SPICES, AND CANE SUGAR" Date available: 07/14/2017 Date last updated by company: 07/14/2017
