Source: USDA Branded Food Products Database Release December 2017 Software v.3.8.6.4 2017-10-02
Report Run at: December 17, 2017 20:32 EST
"Nutrient data for: 45097679, GGE, WHEAT CRACKERS NOODLE SNACK, HOT SPICY, UPC: 074410727932"
Food Group:  Branded Food Products Database
Common Name:

Nutrient,Unit,Data points,Std. Error,"1.05 ONZ = 30.0g",1Value per 100 g,
Proximates
"Energy",kcal,--,--,160,533
"Protein",g,--,--,3.00,10.00
"Total lipid (fat)",g,--,--,8.00,26.67
"Carbohydrate, by difference",g,--,--,18.00,60.00
"Fiber, total dietary",g,--,--,0.0,0.0
"Sugars, total",g,--,--,1.00,3.33
Minerals
"Sodium, Na",mg,--,--,360,1200
Vitamins
Lipids
"Fatty acids, total saturated",g,--,--,3.999,13.330
"Fatty acids, total trans",g,--,--,0.000,0.000
"Cholesterol",mg,--,--,0,0
Amino Acids
Other
Ingredients
"POTATO STARCH WHEAT FLOUR, REFINED PALM OIL, SOY SAUCE (SOY CHILI POWDER, SUGAR, SALT MONOSODIUM GLUTAMATE, SESAME OIL, TOCOPHEROL (AS ANTIOXIDANT)." Date available: 06/25/2017 Date last updated by company: 06/25/2017
