Source: USDA Branded Food Products Database Release December 2017 Software v.3.8.6.4 2017-10-02
Report Run at: December 17, 2017 20:34 EST
"Nutrient data for: 45169211, GHG LOGISTICS, SUSHI GINGER, UPC: 812824018723"
Food Group:  Branded Food Products Database
Common Name:

Nutrient,Unit,Data points,Std. Error,"28.0 GRM = 28.0g",1Value per 100 g,
Proximates
"Energy",kcal,--,--,30,107
"Protein",g,--,--,0.00,0.00
"Total lipid (fat)",g,--,--,0.00,0.00
"Carbohydrate, by difference",g,--,--,8.00,28.57
"Fiber, total dietary",g,--,--,1.0,3.6
"Sugars, total",g,--,--,6.00,21.43
Minerals
"Calcium, Ca",mg,--,--,40,143
"Iron, Fe",mg,--,--,0.00,0.00
"Sodium, Na",mg,--,--,140,500
Vitamins
"Vitamin C, total ascorbic acid",mg,--,--,0.0,0.0
"Vitamin A, IU",IU,--,--,0,0
Lipids
"Fatty acids, total saturated",g,--,--,0.000,0.000
"Fatty acids, total trans",g,--,--,0.000,0.000
"Cholesterol",mg,--,--,0,0
Amino Acids
Other
Ingredients
"GINGER, WATER, SALT, SUGAR, VINEGAR, CITRIC ACID, MALIC ACID, ACETIC ACID." Date available: 07/14/2017 Date last updated by company: 07/14/2017
