Source: USDA Branded Food Products Database Release December 2017 Software v.3.8.6.4 2017-10-02
Report Run at: December 17, 2017 20:41 EST
"Nutrient data for: 45241106, GHIRARDELLI, PREMIUM BROWNIE MIX, ULTIMATE FUDGE, UPC: 041449302645"
Food Group:  Branded Food Products Database
Common Name:

Nutrient,Unit,Data points,Std. Error,"0.5 TBSP FUDGE TOPPING (7G) = 23.0g",1Value per 100 g,
Proximates
"Energy",kcal,--,--,130,565
"Protein",g,--,--,1.00,4.35
"Total lipid (fat)",g,--,--,4.00,17.39
"Carbohydrate, by difference",g,--,--,22.00,95.65
"Fiber, total dietary",g,--,--,1.0,4.4
"Sugars, total",g,--,--,16.00,69.57
Minerals
"Calcium, Ca",mg,--,--,0,0
"Iron, Fe",mg,--,--,0.72,3.13
"Sodium, Na",mg,--,--,85,370
Vitamins
"Vitamin C, total ascorbic acid",mg,--,--,0.0,0.0
"Vitamin A, IU",IU,--,--,0,0
Lipids
"Fatty acids, total saturated",g,--,--,2.001,8.700
"Fatty acids, total trans",g,--,--,0.000,0.000
"Cholesterol",mg,--,--,5,22
Amino Acids
Other
Ingredients
"BROWNIE MIX INGREDIENTS: SUGAR, ENRICHED BLEACHED FLOUR (WHEAT FLOUR, NIACIN, REDUCED IRON, THIAMIN MONONITRATE, RIBOFLAVIN, FOLIC ACID, MALTED BARLEY FLOUR, ENZYMES), COCOA (PROCESSED WITH ALKALI), SEMI-SWEET CHOCOLATE CHIPS (SUGAR, UNSWEETENED CHOCOLATE" Date available: 09/23/2016 Date last updated by company: 09/23/2016
