Source: USDA Branded Food Products Database Release December 2017 Software v.3.8.6.4 2017-10-02
Report Run at: December 17, 2017 20:41 EST
"Nutrient data for: 45041474, GHIRARDELLI, HOLIDAY IMPRESSIONS, MILK & WHITE CHOCOLATE, UPC: 747599322235"
Food Group:  Branded Food Products Database
Common Name:

Nutrient,Unit,Data points,Std. Error,"1 SQUARE = 13.0g",1Value per 100 g,
Proximates
"Energy",kcal,--,--,70,538
"Protein",g,--,--,1.00,7.69
"Total lipid (fat)",g,--,--,4.00,30.77
"Carbohydrate, by difference",g,--,--,8.00,61.54
"Fiber, total dietary",g,--,--,0.2,1.9
"Sugars, total",g,--,--,7.00,53.85
Minerals
"Calcium, Ca",mg,--,--,20,154
"Iron, Fe",mg,--,--,1.38,10.65
"Sodium, Na",mg,--,--,10,77
Vitamins
"Vitamin C, total ascorbic acid",mg,--,--,0.0,0.0
"Vitamin A, IU",IU,--,--,0,0
Lipids
"Fatty acids, total saturated",g,--,--,2.500,19.230
"Fatty acids, total trans",g,--,--,0.000,0.000
"Cholesterol",mg,--,--,5,38
Amino Acids
Other
Ingredients
"SUGAR, COCOA BUTTER, WHOLE MILK POWDER, UNSWEETENED CHOCOLATE, NONFAT DRY MILK, SOY LECITHIN - AN EMULSIFIER VANILLA." Date available: 06/24/2017 Date last updated by company: 06/24/2017
