Source: USDA Branded Food Products Database Release December 2017 Software v.3.8.6.4 2017-10-02
Report Run at: December 17, 2017 21:26 EST
"Nutrient data for: 45156585, GIANT EAGLE, POTATO CHIPS, SALT & VINEGAR, UPC: 030034094263"
Food Group:  Branded Food Products Database
Common Name:

Nutrient,Unit,Data points,Std. Error,"1 BAG = 53.0g",1Value per 100 g,
Proximates
"Energy",kcal,--,--,290,547
"Protein",g,--,--,3.00,5.66
"Total lipid (fat)",g,--,--,18.00,33.96
"Carbohydrate, by difference",g,--,--,28.00,52.83
"Fiber, total dietary",g,--,--,2.0,3.8
"Sugars, total",g,--,--,2.00,3.77
Minerals
"Calcium, Ca",mg,--,--,0,0
"Iron, Fe",mg,--,--,0.34,0.64
"Sodium, Na",mg,--,--,480,906
Vitamins
"Vitamin C, total ascorbic acid",mg,--,--,14.2,26.7
"Vitamin A, IU",IU,--,--,0,0
Lipids
"Fatty acids, total saturated",g,--,--,2.502,4.720
"Fatty acids, total monounsaturated",g,--,--,4.500,8.490
"Fatty acids, total polyunsaturated",g,--,--,10.998,20.750
"Fatty acids, total trans",g,--,--,0.000,0.000
"Cholesterol",mg,--,--,0,0
Amino Acids
Other
Ingredients
"POTATOES, VEGETABLE OIL (CONTAINS ONE OR MORE OF THE FOLLOWING: CORN, SUNFLOWER OR CANOLA OIL), SALT, SODIUM DIACETATE, MALTODEXTRIN (FROM CORN), MALIC ACID, CITRIC ACID, SUGAR, SOYBEAN OIL, MILK LACTOSE*, SODIUM CITRATE, MODIFIED CORNSTARCH, BHA, BHT." Date available: 07/14/2017 Date last updated by company: 07/14/2017
