Source: USDA Branded Food Products Database Release December 2017 Software v.3.8.6.4 2017-10-02
Report Run at: December 17, 2017 21:00 EST
"Nutrient data for: 45163072, GIANT EAGLE, DR. POPZ DIET SODA, UPC: 030034093419"
Food Group:  Branded Food Products Database
Common Name:

Nutrient,Unit,Data points,Std. Error,"8.0 OZA = 240.0g",1Value per 100 g,
Proximates
"Energy",kcal,--,--,0,0
"Protein",g,--,--,0.00,0.00
"Total lipid (fat)",g,--,--,0.00,0.00
"Carbohydrate, by difference",g,--,--,0.00,0.00
"Sugars, total",g,--,--,0.00,0.00
Minerals
"Sodium, Na",mg,--,--,24,10
Vitamins
Lipids
Amino Acids
Other
Ingredients
"CARBONATED WATER, CARAMEL COLOR, NATURAL AND ARTIFICIAL FLAVOR, ASPARTAME, PHOSPHORIC ACID, POTASSIUM BENZOATE (PRESERVATIVE), CAFFEINE, LACTIC ACID, PHOSPHATE." Date available: 07/14/2017 Date last updated by company: 07/14/2017
