Source: USDA Branded Food Products Database Release December 2017 Software v.3.8.6.4 2017-10-02
Report Run at: December 17, 2017 20:45 EST
"Nutrient data for: 45165654, GIANNA'S, CANDY, UPC: 683639923058"
Food Group:  Branded Food Products Database
Common Name:

Nutrient,Unit,Data points,Std. Error,"1 ONZ = 28.0g",1Value per 100 g,
Proximates
"Energy",kcal,--,--,130,464
"Protein",g,--,--,1.00,3.57
"Total lipid (fat)",g,--,--,7.00,25.00
"Carbohydrate, by difference",g,--,--,16.00,57.14
"Fiber, total dietary",g,--,--,0.0,0.0
"Sugars, total",g,--,--,6.00,21.43
Minerals
"Calcium, Ca",mg,--,--,0,0
"Iron, Fe",mg,--,--,1.29,4.59
"Sodium, Na",mg,--,--,45,161
Vitamins
"Vitamin C, total ascorbic acid",mg,--,--,0.0,0.0
"Vitamin A, IU",IU,--,--,535,1912
Lipids
"Fatty acids, total saturated",g,--,--,4.001,14.290
"Cholesterol",mg,--,--,20,71
Amino Acids
Other
Ingredients
"UNBLEACHED HIGH GLUTEN FLOUR (WHEAT FLOUR, MALTED BARLEY FLOUR, NIACIN, IRON, THIAMINE MONONITRATE, RIBOFLAVIN, FOLIC ACID), UNSALTED BUTTER, SUGAR, NATURAL FLAVOR, FRESH WHOLE EGGS, SALT, WATER., FROSTING: SUGAR, WATER, NATURAL VANILLA, NATURAL FOOD COLORING, SUGAR CRYSTALS." Date available: 07/14/2017 Date last updated by company: 07/14/2017
