Source: USDA Branded Food Products Database Release December 2017 Software v.3.8.6.4 2017-10-02
Report Run at: December 17, 2017 21:25 EST
"Nutrient data for: 45181789, GIANT EAGLE, NATURE'S BASKET, ORGANIC PINEAPPLE, UPC: 030034088484"
Food Group:  Branded Food Products Database
Common Name:

Nutrient,Unit,Data points,Std. Error,"1 cup = 140.0g",1Value per 100 g,
Proximates
"Energy",kcal,--,--,99,71
"Protein",g,--,--,0.99,0.71
"Total lipid (fat)",g,--,--,0.00,0.00
"Carbohydrate, by difference",g,--,--,21.99,15.71
"Fiber, total dietary",g,--,--,2.0,1.4
"Sugars, total",g,--,--,18.00,12.86
Minerals
"Calcium, Ca",mg,--,--,0,0
"Iron, Fe",mg,--,--,0.36,0.26
"Sodium, Na",mg,--,--,0,0
Vitamins
"Vitamin C, total ascorbic acid",mg,--,--,156.0,111.4
"Vitamin A, IU",IU,--,--,0,0
Lipids
"Fatty acids, total saturated",g,--,--,0.000,0.000
"Fatty acids, total trans",g,--,--,0.000,0.000
"Cholesterol",mg,--,--,0,0
Amino Acids
Other
Ingredients
"ORGANIC PINEAPPLE." Date available: 07/14/2017 Date last updated by company: 07/14/2017
