Source: USDA Branded Food Products Database Release December 2017 Software v.3.8.6.4 2017-10-02
Report Run at: December 17, 2017 21:41 EST
"Nutrient data for: 45141116, GIANT, SOUP MIX, ONION, UPC: 688267076398"
Food Group:  Branded Food Products Database
Common Name:

Nutrient,Unit,Data points,Std. Error,"1 CUP PREPARED | MAKES = 9.0g",1Value per 100 g,
Proximates
"Energy",kcal,--,--,25,278
"Protein",g,--,--,1.00,11.11
"Total lipid (fat)",g,--,--,0.00,0.00
"Carbohydrate, by difference",g,--,--,6.00,66.67
"Fiber, total dietary",g,--,--,1.0,11.1
"Sugars, total",g,--,--,3.00,33.33
Minerals
"Calcium, Ca",mg,--,--,20,222
"Iron, Fe",mg,--,--,0.00,0.00
"Potassium, K",mg,--,--,55,611
"Sodium, Na",mg,--,--,590,6556
Vitamins
"Vitamin C, total ascorbic acid",mg,--,--,6.7,74.1
"Vitamin A, IU",IU,--,--,0,0
Lipids
"Fatty acids, total saturated",g,--,--,0.000,0.000
"Fatty acids, total monounsaturated",g,--,--,0.000,0.000
"Fatty acids, total polyunsaturated",g,--,--,0.000,0.000
"Fatty acids, total trans",g,--,--,0.000,0.000
"Cholesterol",mg,--,--,0,0
Amino Acids
Other
Ingredients
"DEHYDRATED ONIONS, SALT, MALTODEXTRIN, CORNSTARCH, HYDROLYZED SOY PROTEIN, ONION POWDER, MONOSODIUM GLUTAMATE, CARAMEL COLOR, AUTOLYZED YEAST, PARTIALLY HYDROGENATED SOYBEAN OIL, DISODIUM INOSINATE, DISODIUM GUANYLATE." Date available: 07/14/2017 Date last updated by company: 07/14/2017
