Source: USDA Branded Food Products Database Release December 2017 Software v.3.8.6.4 2017-10-02
Report Run at: December 17, 2017 20:48 EST
"Nutrient data for: 45165698, GIANT, CARAMEL APPLE CASHEWS, UPC: 688267165290"
Food Group:  Branded Food Products Database
Common Name:

Nutrient,Unit,Data points,Std. Error,"0.25 cup = 28.0g",1Value per 100 g,
Proximates
"Energy",kcal,--,--,150,536
"Protein",g,--,--,4.00,14.29
"Total lipid (fat)",g,--,--,10.00,35.71
"Carbohydrate, by difference",g,--,--,12.00,42.86
"Fiber, total dietary",g,--,--,1.0,3.6
"Sugars, total",g,--,--,5.00,17.86
Minerals
"Iron, Fe",mg,--,--,2.57,9.19
"Sodium, Na",mg,--,--,90,321
Vitamins
Lipids
"Fatty acids, total saturated",g,--,--,1.999,7.140
Amino Acids
Other
Ingredients
"CASHEWS, CARAMEL APPLE SEASONING (SUGAR, SPICE, NATURAL FLAVORS, MALIC ACID, SALT), SUGAR, HONEY, PEANUT OIL, POTATO STARCH, XANTHAN GUM." Date available: 10/13/2017 Date last updated by company: 10/13/2017
