Source: USDA Branded Food Products Database Release December 2017 Software v.3.8.6.4 2017-10-02
Report Run at: December 17, 2017 21:44 EST
"Nutrient data for: 45043819, GIANT, WORLD MENU, GARDEN ANCIENT GRAIN SALAD, UPC: 688267054259"
Food Group:  Branded Food Products Database
Common Name:

Nutrient,Unit,Data points,Std. Error,"1 UNIT = 99.0g",1Value per 100 g,
Proximates
"Energy",kcal,--,--,120,121
"Protein",g,--,--,7.00,7.07
"Total lipid (fat)",g,--,--,6.00,6.06
"Carbohydrate, by difference",g,--,--,13.00,13.13
"Fiber, total dietary",g,--,--,2.0,2.0
"Sugars, total",g,--,--,2.00,2.02
Minerals
"Calcium, Ca",mg,--,--,80,81
"Iron, Fe",mg,--,--,1.52,1.54
"Sodium, Na",mg,--,--,250,253
Vitamins
"Vitamin C, total ascorbic acid",mg,--,--,0.0,0.0
"Vitamin A, IU",IU,--,--,1414,1428
Lipids
"Fatty acids, total saturated",g,--,--,1.505,1.520
"Fatty acids, total trans",g,--,--,0.000,0.000
"Cholesterol",mg,--,--,5,5
Amino Acids
Other
Ingredients
"GRAINS (FARRO, BUCKWHEAT), TOMATO, BROCCOLI, CARROTS, SHALLOT, EXTRA VIRGIN OLIVE OIL, GRATED MIXED HARD CHEESE (MILK, SALT, RENNET, LYSOZYME [ENZYME FROM EGG WHITE]), SALT." Date available: 10/11/2017 Date last updated by company: 10/11/2017
