Source: USDA Branded Food Products Database Release December 2017 Software v.3.8.6.4 2017-10-02
Report Run at: December 17, 2017 21:41 EST
"Nutrient data for: 45043672, GIANT, SIMPLY ENJOY, SUN DRIED TOMATO PESTO SAUCE, UPC: 688267149917"
Food Group:  Branded Food Products Database
Common Name:

Nutrient,Unit,Data points,Std. Error,"0.25 cup = 57.0g",1Value per 100 g,
Proximates
"Energy",kcal,--,--,330,579
"Protein",g,--,--,4.00,7.02
"Total lipid (fat)",g,--,--,32.00,56.14
"Carbohydrate, by difference",g,--,--,13.00,22.81
"Fiber, total dietary",g,--,--,3.0,5.3
"Sugars, total",g,--,--,7.00,12.28
Minerals
"Calcium, Ca",mg,--,--,60,105
"Iron, Fe",mg,--,--,1.11,1.94
"Sodium, Na",mg,--,--,310,544
Vitamins
"Vitamin C, total ascorbic acid",mg,--,--,5.5,9.7
"Vitamin A, IU",IU,--,--,184,323
Lipids
"Fatty acids, total saturated",g,--,--,4.999,8.770
"Fatty acids, total trans",g,--,--,0.000,0.000
"Cholesterol",mg,--,--,0,0
Amino Acids
Other
Ingredients
"SUNFLOWER OIL, EXTRA VIRGIN OLIVE OIL, SUN DRIED TOMATOES (TOMATOES, SALT), GARLIC, PARMESAN CHEESE (MILK, VEGETARIAN RENNET, ENZYMES, CULTURES, SALT, WHEY), BASIL, BLACK PEPPER, SALT, PINE NUTS." Date available: 06/24/2017 Date last updated by company: 06/24/2017
