Source: USDA Branded Food Products Database Release December 2017 Software v.3.8.6.4 2017-10-02
Report Run at: December 17, 2017 20:48 EST
"Nutrient data for: 45237975, GIANT, CHICKEN BROTH, UPC: 688267007033"
Food Group:  Branded Food Products Database
Common Name:

Nutrient,Unit,Data points,Std. Error,"1 cup = 240.0g",1Value per 100 g,
Proximates
"Energy",kcal,--,--,14,6
"Protein",g,--,--,1.01,0.42
"Total lipid (fat)",g,--,--,0.50,0.21
"Carbohydrate, by difference",g,--,--,1.99,0.83
"Fiber, total dietary",g,--,--,0.0,0.0
"Sugars, total",g,--,--,0.00,0.00
Minerals
"Calcium, Ca",mg,--,--,19,8
"Iron, Fe",mg,--,--,1.08,0.45
"Sodium, Na",mg,--,--,931,388
Vitamins
"Vitamin C, total ascorbic acid",mg,--,--,1.2,0.5
"Vitamin A, IU",IU,--,--,101,42
Lipids
"Fatty acids, total saturated",g,--,--,0.000,0.000
"Fatty acids, total monounsaturated",g,--,--,0.000,0.000
"Fatty acids, total polyunsaturated",g,--,--,0.000,0.000
"Fatty acids, total trans",g,--,--,0.000,0.000
"Cholesterol",mg,--,--,5,2
Amino Acids
Other
Ingredients
"CHICKEN BROTH, CONTAINS LESS THAN 2% OF: SALT, CHICKEN FAT, DEXTROSE, HYDROLYZED SOY, CORN AND WHEAT GLUTEN PROTEINS, ONION POWDER, MODIFIED CORNSTARCH, AUTOLYZED YEAST, NATURAL FLAVOR, TORULA YEAST, GARLIC POWDER, DISODIUM INOSINATE, DISODIUM GUANYLATE, SOYBEAN OIL, THIAMIN HYDROCHLORIDE, TARTARIC ACID, GUM ARABIC, MONOSODIUM GLUTAMATE, OLEORESIN CARROT." Date available: 06/24/2017 Date last updated by company: 06/24/2017
