Source: USDA Branded Food Products Database Release December 2017 Software v.3.8.6.4 2017-10-02
Report Run at: December 17, 2017 20:53 EST
"Nutrient data for: 45044702, GIANT, DARK CHOCOLATE, FRUIT AND NUT TRAIL MIX, UPC: 688267154874"
Food Group:  Branded Food Products Database
Common Name:

Nutrient,Unit,Data points,Std. Error,"0.25 cup = 28.0g",1Value per 100 g,
Proximates
"Energy",kcal,--,--,140,500
"Protein",g,--,--,2.00,7.14
"Total lipid (fat)",g,--,--,8.00,28.57
"Carbohydrate, by difference",g,--,--,15.00,53.57
"Fiber, total dietary",g,--,--,1.0,3.6
"Sugars, total",g,--,--,10.00,35.71
Minerals
"Calcium, Ca",mg,--,--,0,0
"Iron, Fe",mg,--,--,1.93,6.88
"Sodium, Na",mg,--,--,35,125
Vitamins
"Vitamin C, total ascorbic acid",mg,--,--,2.2,7.7
"Vitamin A, IU",IU,--,--,0,0
Lipids
"Fatty acids, total saturated",g,--,--,3.500,12.500
"Fatty acids, total trans",g,--,--,0.000,0.000
"Cholesterol",mg,--,--,0,0
Amino Acids
Other
Ingredients
"DRIED CRANBERRIES (CRANBERRIES, SUGAR, CITRIC ACID, SUNFLOWER OIL, ELDERBERRY JUICE CONCENTRATE [COLOR]), ORGANIC DARK CHOCOLATE DROPS (ORGANIC DRIED CANE SYRUP, ORGANIC CHOCOLATE LIQUOR*, ORGANIC COCOA BUTTER*, ORGANIC DEXTROSE, ORGANIC VANILLA), BANANA CHIPS (BANANAS, COCONUT OIL, SUGAR, NATURAL FLAVOR), PEPITAS (PUMPKIN KERNELS, PEANUT OIL, SALT), CASHEWS (CASHEWS, PEANUT OIL, SALT), DRIED STRAWBERRIES (STRAWBERRIES, SUGAR, CITRIC ACID, SUNFLOWER OIL, POTASSIUM SORBATE [PRESERVATIVE])." Date available: 06/24/2017 Date last updated by company: 06/24/2017
