Source: USDA Branded Food Products Database Release December 2017 Software v.3.8.6.4 2017-10-02
Report Run at: December 17, 2017 21:48 EST
"Nutrient data for: 45243242, GIL'S GOURMET, TUSCAN HERB OLIVE MIX, UPC: 736385018056"
Food Group:  Branded Food Products Database
Common Name:

Nutrient,Unit,Data points,Std. Error,"2.0 OLIVES = 14.0g",1Value per 100 g,
Proximates
"Energy",kcal,--,--,14,100
"Protein",g,--,--,0.00,0.00
"Total lipid (fat)",g,--,--,1.50,10.71
"Carbohydrate, by difference",g,--,--,1.00,7.14
"Fiber, total dietary",g,--,--,0.0,0.0
"Sugars, total",g,--,--,10.00,71.43
Minerals
"Calcium, Ca",mg,--,--,0,0
"Iron, Fe",mg,--,--,0.00,0.00
"Sodium, Na",mg,--,--,250,1786
Vitamins
"Vitamin C, total ascorbic acid",mg,--,--,0.0,0.0
"Vitamin A, IU",IU,--,--,0,0
Lipids
"Fatty acids, total saturated",g,--,--,0.000,0.000
"Fatty acids, total trans",g,--,--,0.000,0.000
"Cholesterol",mg,--,--,0,0
Amino Acids
Other
Ingredients
"GREEN AND BLACK OLIVES WITH PITS, BALSAMIC VINEGAR, ITALIAN SEASONING, GARLIC, NUTMEG, CLOVES, CINNAMON, WATER, SALT, AND VINEGAR" Date available: 09/23/2016 Date last updated by company: 09/23/2016
