Source: USDA Branded Food Products Database Release December 2017 Software v.3.8.6.4 2017-10-02
Report Run at: December 17, 2017 21:47 EST
"Nutrient data for: 45239356, GILBERT'S, UNCURED SMOKED SAUSAGE, CHIPOTLE MOZZARELLA & LIME, UPC: 859165002073"
Food Group:  Branded Food Products Database
Common Name:

Nutrient,Unit,Data points,Std. Error,"1 LINK = 71.0g",1Value per 100 g,
Proximates
"Energy",kcal,--,--,200,282
"Protein",g,--,--,10.00,14.08
"Total lipid (fat)",g,--,--,17.00,23.94
"Carbohydrate, by difference",g,--,--,3.00,4.23
"Fiber, total dietary",g,--,--,0.0,0.0
"Sugars, total",g,--,--,2.00,2.82
Minerals
"Calcium, Ca",mg,--,--,0,0
"Iron, Fe",mg,--,--,0.56,0.79
"Sodium, Na",mg,--,--,530,746
Vitamins
"Vitamin C, total ascorbic acid",mg,--,--,0.0,0.0
"Vitamin A, IU",IU,--,--,0,0
Lipids
"Fatty acids, total saturated",g,--,--,5.999,8.450
"Cholesterol",mg,--,--,45,63
Amino Acids
Other
Ingredients
"PORK, WATER, MOZZARELLA CHEESE (PASTEURIZED MILK, CHEESE CULTURE, SALT, ENZYMES), WITH 2% OR LESS OF THE FOLLOWING: SEA SALT, SUGAR, SEASONING (DEHYDRATED CHIPOTLE AND JALAPENO PEPPERS, NATURAL SPICES, PAPRIKA, GARLIC, NATURAL FLAVORS, LIME ZEST), SODIUM PHOSPHATE, CULTURED CELERY JUICE POWDER, CHERRY POWDER AND EVAPORATED CANE SYRUP, IN BEEF COLLAGEN CASING." Date available: 06/24/2017 Date last updated by company: 06/24/2017
