Source: USDA Branded Food Products Database Release December 2017 Software v.3.8.6.4 2017-10-02
Report Run at: December 17, 2017 21:47 EST
"Nutrient data for: 45031562, GILDA, WHOLE WHEAT TOAST, UPC: 071656002533"
Food Group:  Branded Food Products Database
Common Name:

Nutrient,Unit,Data points,Std. Error,"2.0 SLICES = 18.0g",1Value per 100 g,
Proximates
"Energy",kcal,--,--,70,389
"Protein",g,--,--,2.00,11.11
"Total lipid (fat)",g,--,--,1.00,5.56
"Carbohydrate, by difference",g,--,--,12.00,66.67
"Fiber, total dietary",g,--,--,2.0,11.1
"Sugars, total",g,--,--,1.00,5.56
Minerals
"Calcium, Ca",mg,--,--,0,0
"Iron, Fe",mg,--,--,0.00,0.00
"Sodium, Na",mg,--,--,80,444
Vitamins
"Vitamin C, total ascorbic acid",mg,--,--,0.0,0.0
"Vitamin A, IU",IU,--,--,0,0
Lipids
"Fatty acids, total saturated",g,--,--,0.500,2.780
"Fatty acids, total trans",g,--,--,0.000,0.000
"Cholesterol",mg,--,--,0,0
Amino Acids
Other
Ingredients
"WHOLE WHEAT FLOUR (53%), WHEAT FLOUR YEAST, VEGETABLE FAT (PALM), GLUCOSE AND FRUCTOSE SYRUP, WHEAT GLUTEN, SALT, MALTED WHEAT FLOUR, LACTOSE AND FLOUR TREATMENT AGENT: ASCORBIC ACID" Date available: 06/24/2017 Date last updated by company: 06/24/2017
