Source: USDA Branded Food Products Database Release December 2017 Software v.3.8.6.4 2017-10-02
Report Run at: December 17, 2017 21:54 EST
"Nutrient data for: 45032603, GINGER EVANS, SUGAR FREE GELATIN DESSERT, STRAWBERRY, UPC: 051933023703"
Food Group:  Branded Food Products Database
Common Name:

Nutrient,Unit,Data points,Std. Error,"0.25 PACKAGE = 3.0g",1Value per 100 g,
Proximates
"Energy",kcal,--,--,10,333
"Protein",g,--,--,1.00,33.33
"Total lipid (fat)",g,--,--,0.00,0.00
"Carbohydrate, by difference",g,--,--,1.00,33.33
"Sugars, total",g,--,--,0.00,0.00
Minerals
"Sodium, Na",mg,--,--,20,667
Vitamins
Lipids
Amino Acids
Other
Ingredients
"GELATIN, MALTODEXTRIN, ADIPIC ACID (FOR TARTNESS), POTASSIUM CITRATE (CONTROLS ACIDITY), CONTAINS 2% OR LESS OF SODIUM CITRATE (CONTROLS ACIDITY), ASPARTAME* (SWEETENER), ACESULFAME POTASSIUM (SWEETENER), SALT, RED 40, NATURAL AND ARTIFICIAL FLAVORING, MODIFIED CORN STARCH, DIMETHYLPOLYSILOXANE (PREVENTS FOAM)." Date available: 07/14/2017 Date last updated by company: 07/14/2017
