Source: USDA Branded Food Products Database Release December 2017 Software v.3.8.6.4 2017-10-02
Report Run at: December 17, 2017 21:56 EST
"Nutrient data for: 45203429, GINGER SOY UDON NOODLE, UPC: 891627007875"
Food Group:  Branded Food Products Database
Common Name:

Nutrient,Unit,Data points,Std. Error,"0.5 BAG = 255.0g",1Value per 100 g,
Proximates
"Energy",kcal,--,--,280,110
"Protein",g,--,--,10.00,3.92
"Total lipid (fat)",g,--,--,4.49,1.76
"Carbohydrate, by difference",g,--,--,49.01,19.22
"Fiber, total dietary",g,--,--,4.1,1.6
"Sugars, total",g,--,--,9.00,3.53
Minerals
"Calcium, Ca",mg,--,--,41,16
"Iron, Fe",mg,--,--,2.75,1.08
"Sodium, Na",mg,--,--,951,373
Vitamins
"Vitamin C, total ascorbic acid",mg,--,--,13.8,5.4
"Vitamin A, IU",IU,--,--,3440,1349
Lipids
"Fatty acids, total saturated",g,--,--,0.000,0.000
"Fatty acids, total trans",g,--,--,0.000,0.000
"Cholesterol",mg,--,--,0,0
Amino Acids
Other
Ingredients
"UDON NOODLES (ENRICHED WHEAT FLOUR [WHEAT FLOUR, NIACIN, REDUCED IRON, THIAMINE MONONITRATE, RIBOFLAVIN, FOLIC ACID], WATER, POTATO STARCH, SALT), CARROTS, SOYBEANS, RED BELL PEPPERS, SNOW PEAS, TAMARI SAUCE* (WATER, SOYBEANS*, SALT, VINEGAR*), WATER, DRIED CANE SYRUP, CANOLA OIL, SALTED MIRIN (SAKE [WATER, RICE, KOJI], SUGAR, WATER, SALT, YEAST EXTRACT), GINGER PUREE, CHILI GARLIC SAUCE (SALTED CHILI PEPPERS [CHILI PEPPERS, SALT], SUGAR, WATER, RICE VINEGAR, DEHYDRATED GARLIC, SALT, CORN STARCH), CORN STARCH, MOLASSES, FISH SAUCE (CURED ANCHOVY, SALT, WATER), SESAME OIL, GARLIC, RICE VINEGAR (WATER, RICE), SPICES." Date available: 07/14/2017 Date last updated by company: 07/14/2017
