Source: USDA Branded Food Products Database Release December 2017 Software v.3.8.6.4 2017-10-02
Report Run at: December 17, 2017 21:53 EST
"Nutrient data for: 45033787, GINGER EVANS, PIE FILLING & TOPPING, APPLE, UPC: 051933025707"
Food Group:  Branded Food Products Database
Common Name:

Nutrient,Unit,Data points,Std. Error,"0.33 cup = 85.0g",1Value per 100 g,
Proximates
"Energy",kcal,--,--,100,118
"Protein",g,--,--,0.00,0.00
"Total lipid (fat)",g,--,--,0.00,0.00
"Carbohydrate, by difference",g,--,--,25.00,29.41
"Fiber, total dietary",g,--,--,1.0,1.2
"Sugars, total",g,--,--,18.00,21.18
Minerals
"Calcium, Ca",mg,--,--,0,0
"Iron, Fe",mg,--,--,0.00,0.00
"Sodium, Na",mg,--,--,30,35
Vitamins
"Vitamin C, total ascorbic acid",mg,--,--,1.2,1.4
"Vitamin A, IU",IU,--,--,0,0
Lipids
"Fatty acids, total saturated",g,--,--,0.000,0.000
"Fatty acids, total trans",g,--,--,0.000,0.000
"Cholesterol",mg,--,--,0,0
Amino Acids
Other
Ingredients
"APPLES, WATER, HIGH FRUCTOSE CORN SYRUP, FOOD STARCH-MODIFIED, NATURAL FLAVOR, SPICES, CITRIC ACID, SODIUM CITRATE, ERYTHORBIC ACID (TO PROMOTE COLOR RETENTION)." Date available: 06/24/2017 Date last updated by company: 06/24/2017
