Source: USDA Branded Food Products Database Release December 2017 Software v.3.8.6.4 2017-10-02
Report Run at: December 17, 2017 21:58 EST
"Nutrient data for: 45027340, GINO'S EAST OF CHICAGO, GOLDEN CRISPY THIN CRUST PEPPERONI PIZZA, UPC: 643130310016"
Food Group:  Branded Food Products Database
Common Name:

Nutrient,Unit,Data points,Std. Error,"0.25 PIZZA = 121.0g",1Value per 100 g,
Proximates
"Energy",kcal,--,--,319,264
"Protein",g,--,--,15.00,12.40
"Total lipid (fat)",g,--,--,17.00,14.05
"Carbohydrate, by difference",g,--,--,26.00,21.49
"Fiber, total dietary",g,--,--,2.1,1.7
"Sugars, total",g,--,--,3.00,2.48
Minerals
"Calcium, Ca",mg,--,--,300,248
"Iron, Fe",mg,--,--,1.74,1.44
"Sodium, Na",mg,--,--,551,455
Vitamins
"Vitamin C, total ascorbic acid",mg,--,--,9.7,8.0
"Vitamin A, IU",IU,--,--,645,533
Lipids
"Fatty acids, total saturated",g,--,--,7.006,5.790
"Fatty acids, total trans",g,--,--,0.000,0.000
"Cholesterol",mg,--,--,30,25
Amino Acids
Other
Ingredients
"CRUST: FLOUR (WHEAT, MALTED BARLEY), WATER, SOYBEAN OIL, YEAST, SALT, DEXTROSE, CALCIUM PROPIONATE (PRESERVATIVE), SOY LECITHIN, AND CORN MEAL, SAUCE: TOMATOES, WATER, SALT, BLACK PEPPER, OREGANO, BASIL, GRANULATED GARLIC,CHEESE: LOW MOISTURE MOZZARELLA CHEESE (PASTEURIZED PART-SKIM MILK, CHEESE CULTURES, SALT, ENZYMES), MAY CONTAIN MOZZARELLA CHEESE SUBSTITUTE (WATER, VEGETABLE OIL, CHEESE SOLIDS, MODIFIED FOOD STARCH, NONFAT DRY MILK, SWEET WHEY, SALT, MAGNESIUM OXIDE, FERRIC ORTHOSPHOSPHATE, VITAMIN A PALMATE, NIACINAMIDE,ZINC OXIDE, PYRIDOXINE HYDROCHLORIDE, CYANOCOBALAMIN), PEPPERONI: PORK, BEEF, SALT, SPICES, SUGAR, LACTIC ACID STARTER CULTURE, EXTRACTIVE OF PAPRIKA, GARLIC POWDER, SPICE EXTRACTIVES, SODIUM NITRITE, BHA, BHT, CITRIC ACID. SPICE TOPPING: ROMANO CHEESE (PASTEURIZED MILK, CHEESE CULTURES, SALT, AND ENZYMES), OREGANO." Date available: 06/25/2017 Date last updated by company: 06/25/2017
