Source: USDA Branded Food Products Database Release December 2017 Software v.3.8.6.4 2017-10-02
Report Run at: December 17, 2017 21:59 EST
"Nutrient data for: 45330367, GIRA NON-ALCOHOLIC MALT BEVERAGE, UPC: 4770301229597"
Food Group:  Branded Food Products Database
Common Name:

Nutrient,Unit,Data points,Std. Error,"3.38 FL OZ | ABOUT = 100.0g",1Value per 100 g,
Proximates
"Energy",kcal,--,--,30,30
"Protein",g,--,--,0.00,0.00
"Total lipid (fat)",g,--,--,0.00,0.00
"Carbohydrate, by difference",g,--,--,8.00,8.00
Minerals
"Sodium, Na",mg,--,--,0,0
Vitamins
Lipids
Amino Acids
Other
Ingredients
"WATER, SUGAR SYRUP, KVASS CONCENTRATE 3% (CONSISTS OF RYE, BARLEY AND WHEATS), YEAST, CARBON DIOXIDE, ACIDITY REGULATOR CITRIC ACID, SODIUM BENZOATE." Date available: 10/13/2017 Date last updated by company: 10/13/2017
