Source: USDA Branded Food Products Database Release December 2017 Software v.3.8.6.4 2017-10-02
Report Run at: December 17, 2017 22:00 EST
"Nutrient data for: 45056946, GIULIANO, STUFFED OLIVES, UPC: 076479649125"
Food Group:  Branded Food Products Database
Common Name:

Nutrient,Unit,Data points,Std. Error,"2.0 OLIVES) | (ABOUT = 15.0g",1Value per 100 g,
Proximates
"Energy",kcal,--,--,20,133
"Protein",g,--,--,0.00,0.00
"Total lipid (fat)",g,--,--,1.50,10.00
"Carbohydrate, by difference",g,--,--,1.00,6.67
Minerals
"Sodium, Na",mg,--,--,310,2067
Vitamins
Lipids
"Cholesterol",mg,--,--,0,0
Amino Acids
Other
Ingredients
"OLIVES, FETA CHEESE, (CULTURED MILK, WATER, WHEY PROTEIN CONCENTRATE, SODIUM PHOSPHATES, CORN STARCH, SALT, LACTIC ACID, SORBIC ACID, ENZYMES), SALT, LACTIC ACID." Date available: 10/13/2017 Date last updated by company: 10/13/2017
