Source: USDA Branded Food Products Database Release December 2017 Software v.3.8.6.4 2017-10-02
Report Run at: December 17, 2017 22:00 EST
"Nutrient data for: 45157802, GK SNACKS, TROPICAL MIX, UPC: 079113341157"
Food Group:  Branded Food Products Database
Common Name:

Nutrient,Unit,Data points,Std. Error,"0.33 cup = 30.0g",1Value per 100 g,
Proximates
"Energy",kcal,--,--,120,400
"Protein",g,--,--,1.00,3.33
"Total lipid (fat)",g,--,--,4.00,13.33
"Carbohydrate, by difference",g,--,--,21.00,70.00
"Fiber, total dietary",g,--,--,1.0,3.3
"Sugars, total",g,--,--,15.00,50.00
Minerals
"Calcium, Ca",mg,--,--,20,67
"Iron, Fe",mg,--,--,0.60,2.00
"Sodium, Na",mg,--,--,25,83
Vitamins
"Vitamin C, total ascorbic acid",mg,--,--,0.0,0.0
"Vitamin A, IU",IU,--,--,166,555
Lipids
"Fatty acids, total saturated",g,--,--,1.500,5.000
"Fatty acids, total trans",g,--,--,0.000,0.000
"Cholesterol",mg,--,--,0,0
Amino Acids
Other
Ingredients
"RAISINS, DRIED PINEAPPLE (PINEAPPLE, SUGAR, CITRIC ACID), DRIED PAPAYA (PAPAYA, SUGAR, CITRIC ACID, YELLOW 5, YELLOW 6), BANANA CHIPS (BANANA, COCONUT OIL, SUGAR, HONEY, ARTIFICIAL FLAVOR), DRIED APRICOTS, ALMONDS, WALNUTS. DRIED FRUIT TREATED WITH SULFUR DIOXIDE TO PROMOTE COLOR RETENTION." Date available: 07/14/2017 Date last updated by company: 07/14/2017
