Source: USDA Branded Food Products Database Release December 2017 Software v.3.8.6.4 2017-10-02
Report Run at: December 17, 2017 22:02 EST
"Nutrient data for: 45231154, GLAZED CHOCOLATE DONUTS, UPC: 085239410233"
Food Group:  Branded Food Products Database
Common Name:

Nutrient,Unit,Data points,Std. Error,"1 DONUT = 52.0g",1Value per 100 g,
Proximates
"Energy",kcal,--,--,210,404
"Protein",g,--,--,2.00,3.85
"Total lipid (fat)",g,--,--,11.00,21.15
"Carbohydrate, by difference",g,--,--,27.00,51.92
"Fiber, total dietary",g,--,--,1.0,1.9
"Sugars, total",g,--,--,14.00,26.92
Minerals
"Calcium, Ca",mg,--,--,100,192
"Iron, Fe",mg,--,--,1.14,2.20
"Sodium, Na",mg,--,--,170,327
Vitamins
"Vitamin C, total ascorbic acid",mg,--,--,0.0,0.0
"Vitamin A, IU",IU,--,--,0,0
Lipids
"Fatty acids, total saturated",g,--,--,5.002,9.620
"Fatty acids, total trans",g,--,--,0.000,0.000
"Cholesterol",mg,--,--,5,10
Amino Acids
Other
Ingredients
"ENRICHED FLOUR (WHEAT FLOUR, MALTED BARLEY FLOUR, NIACIN, THIAMINE MONONITRATE, RIBOFLAVIN, FOLIC ACID), WATER, PALM OIL, SUGAR, CONTAINS 2% R LESS: COCOA PROCESSED WITH ALKALI, SOYBEAN OIL, DEFATTED SOY FLOUR, LEAVENING (BAKING SODA, GLUCONO DELTA LACTONE, SODIUM ACID PYROPHOSPHATE) PARTIALLY HYDROGENATED SOYBEAN AND COTTON SEED OIL, SALT, EGGS, MILK PROTEIN CONCETARTE, MONO AND DIGLYCERIDES, WHEAT STARCH, SOY LECITHIN, DEPROTEINIZED WHEY, NATURAL AND ARTIFICIAL FLAVOR, SODIUM PROPIONATE (PRESERVATIVE), ENZYMES, CORN STARCH, CALCIUM CARBONATE, CALCIUM SULFATE, VEGETABLE GUM (AGAR, LOCUST BEAN GUM), DEXTROSE,SODIUM PHOSPHATE, MALTODEXTRIN, PROPYLENE GLYCIL GUM, ARTIFICIAL FLAVOR, CINNAMON." Date available: 07/14/2017 Date last updated by company: 07/14/2017
