Source: USDA Branded Food Products Database Release December 2017 Software v.3.8.6.4 2017-10-02
Report Run at: December 17, 2017 22:05 EST
"Nutrient data for: 45023715, GLENNY'S, SOY CRISPS, ORIGINAL BBQ, UPC: 027393009656"
Food Group:  Branded Food Products Database
Common Name:

Nutrient,Unit,Data points,Std. Error,"26.0 CRISPS = 37.0g",1Value per 100 g,
Proximates
"Energy",kcal,--,--,120,324
"Protein",g,--,--,9.00,24.32
"Total lipid (fat)",g,--,--,1.50,4.05
"Carbohydrate, by difference",g,--,--,23.00,62.16
"Fiber, total dietary",g,--,--,3.0,8.1
"Sugars, total",g,--,--,1.00,2.70
Minerals
"Calcium, Ca",mg,--,--,30,81
"Iron, Fe",mg,--,--,1.95,5.26
"Sodium, Na",mg,--,--,135,365
Vitamins
"Vitamin C, total ascorbic acid",mg,--,--,0.0,0.0
"Vitamin A, IU",IU,--,--,0,0
Lipids
"Fatty acids, total saturated",g,--,--,0.000,0.000
"Fatty acids, total trans",g,--,--,0.000,0.000
"Cholesterol",mg,--,--,0,0
Amino Acids
Other
Ingredients
"RICE FLOUR, TOASTED SOY FLOUR, LOW FAT SOY FLOUR, LESS THAN 2% OF THE FOLLOWING: CANOLA OIL, SALT, SUGAR, SALT, DEXTROSE, MOLASSES POWDER, ONION POWDER, BROWN SUGAR, AUTOLYZED YEAST EXTRACT, MALTED BARLEY FLOUR, TORULA YEAST, GARLIC POWDER, SPICES, NATURAL FLAVORS, OLEORESIN PAPRIKA AND NOT MORE THAN 2% SILICON DIOXIDE ADDED AS A PROCESSING AID." Date available: 06/25/2017 Date last updated by company: 06/25/2017
