Source: USDA Branded Food Products Database Release December 2017 Software v.3.8.6.4 2017-10-02
Report Run at: December 17, 2017 22:05 EST
"Nutrient data for: 45078092, GLICO, POCKY, ULTRA SLIM BISCUIT STICKS, CHOCOLATE CREAM, UPC: 073141152976"
Food Group:  Branded Food Products Database
Common Name:

Nutrient,Unit,Data points,Std. Error,"35.5 GRM = 35.5g",1Value per 100 g,
Proximates
"Energy",kcal,--,--,180,507
"Protein",g,--,--,3.00,8.45
"Total lipid (fat)",g,--,--,8.00,22.54
"Carbohydrate, by difference",g,--,--,23.00,64.79
"Fiber, total dietary",g,--,--,1.0,2.8
"Sugars, total",g,--,--,10.00,28.17
Minerals
"Calcium, Ca",mg,--,--,20,56
"Iron, Fe",mg,--,--,0.00,0.00
"Sodium, Na",mg,--,--,60,169
Vitamins
"Vitamin C, total ascorbic acid",mg,--,--,0.0,0.0
"Vitamin A, IU",IU,--,--,0,0
Lipids
"Fatty acids, total saturated",g,--,--,4.998,14.080
"Fatty acids, total trans",g,--,--,0.000,0.000
"Cholesterol",mg,--,--,0,0
Amino Acids
Other
Ingredients
"WHEAT FLOUR, SUGAR, CHOCOLATE LIQUOR, VEGETABLE OIL (CONTAINS ONE OR MORE OF THE FOLLOWING: ILLIPE BUTTER, SAL BUTTER, SHEA BUTTER, RAPESEED OIL, INTERESTERIFIED PALM OIL, INTERESTERIFIED COCONUT OIL, OR INTERESTERIFIED SUNFLOWER OIL), WHOLE MILK POWDER, SHORTENING (INTERESTERIFIED VEGETABLE OIL [CONTAINS ONE OR MORE OF THE FOLLOWING: COCONUT OIL, PALM OIL, PALM KERNEL OIL, OR RAPESEED OIL], EMULSIFIER [SOY LECITHIN, GLYCERYL MONOSTERATE, SUCROSE FATTY ACID ESTERS, SORBITAN MONOSTEARATE]), SALT, COCOA BUTTER, EMULSIFIER (SOY LECITHIN, POLYGLYCEROL POLYRICINOLEATE, SUCROSE FATTY ACID ESTERS), BUTTER, ARTIFICIAL FLAVOR, YEAST, TRISODIUM PHOSPHATE, COLORING (ANNATTO)" Date available: 07/14/2017 Date last updated by company: 07/14/2017
