Source: USDA Branded Food Products Database Release December 2017 Software v.3.8.6.4 2017-10-02
Report Run at: December 17, 2017 22:05 EST
"Nutrient data for: 45175405, GLISTER-MARY LEE CORP, HOSPITALITY CHOCOLATE COOKIE PIE CRUST, UPC: 071923400031"
Food Group:  Branded Food Products Database
Common Name:

Nutrient,Unit,Data points,Std. Error,"0.125 OF 9"""" CRUST = 21.0g",1Value per 100 g,
Proximates
"Energy",kcal,--,--,100,476
"Protein",g,--,--,1.00,4.76
"Total lipid (fat)",g,--,--,4.50,21.43
"Carbohydrate, by difference",g,--,--,14.00,66.67
"Fiber, total dietary",g,--,--,0.0,0.0
"Sugars, total",g,--,--,7.00,33.33
Minerals
"Calcium, Ca",mg,--,--,20,95
"Iron, Fe",mg,--,--,1.71,8.16
"Sodium, Na",mg,--,--,125,595
Vitamins
"Vitamin C, total ascorbic acid",mg,--,--,0.0,0.0
"Vitamin A, IU",IU,--,--,0,0
Lipids
"Fatty acids, total saturated",g,--,--,3.001,14.290
"Fatty acids, total trans",g,--,--,0.000,0.000
"Cholesterol",mg,--,--,0,0
Amino Acids
Other
Ingredients
"CHOCOLATE COOKIE CRUMBS (ENRICHED FLOUR [WHEAT FLOUR, NIACIN, REDUCED IRON, THIAMIN MONONITRATE, RIBOFLAVIN, FOLIC ACID], SUGAR, COCOA [PROCESSED WITH ALKALI], PALM OIL, HIGH FRUCTOSE CORN SYRUP, SODIUM BICARBONATE, SALT, UNSWEETENED CHOCOLATE, VANILLIN), VEGETABLE SHORTENING (HYDROGENATED PALM KERNEL OIL, PALM OIL, CANOLA OIL), SUGAR, CONTAINS 2% OR LESS OF: CALCIUM SILICATE, CORN STARCH." Date available: 07/14/2017 Date last updated by company: 07/14/2017
