Source: USDA Branded Food Products Database Release December 2017 Software v.3.8.6.4 2017-10-02
Report Run at: December 17, 2017 22:07 EST
"Nutrient data for: 45178198, GLOBESPUN GOURMET, ROASTED RED PEPPER, UPC: 732328007026"
Food Group:  Branded Food Products Database
Common Name:

Nutrient,Unit,Data points,Std. Error,"2.0 ONZ = 56.0g",1Value per 100 g,
Proximates
"Energy",kcal,--,--,97,173
"Protein",g,--,--,4.00,7.14
"Total lipid (fat)",g,--,--,4.00,7.14
"Carbohydrate, by difference",g,--,--,13.00,23.21
"Fiber, total dietary",g,--,--,3.0,5.4
"Sugars, total",g,--,--,1.00,1.79
Minerals
"Calcium, Ca",mg,--,--,370,661
"Iron, Fe",mg,--,--,0.22,0.40
"Sodium, Na",mg,--,--,125,223
Vitamins
"Vitamin C, total ascorbic acid",mg,--,--,5.9,10.5
"Vitamin A, IU",IU,--,--,2009,3588
Lipids
"Fatty acids, total saturated",g,--,--,1.002,1.790
"Fatty acids, total trans",g,--,--,0.000,0.000
"Cholesterol",mg,--,--,0,0
Amino Acids
Other
Ingredients
"ORGANIC GARBANZO BEANS, TAHINI (SESAME SEED PASTE), GARLIC, OLIVE OIL, ROASTED RED PEPPERS, TOMATO PASTE, BALSAMIC VINEGAR (CONTAINS SULFITES), SUGAR, SALT, SPICES, CITRIC ACID." Date available: 07/14/2017 Date last updated by company: 07/14/2017
