Source: USDA Branded Food Products Database Release December 2017 Software v.3.8.6.4 2017-10-02
Report Run at: December 17, 2017 22:06 EST
"Nutrient data for: 45187589, GLOBAL ANIMAL, GROUND BEEF, UPC: 812364010027"
Food Group:  Branded Food Products Database
Common Name:

Nutrient,Unit,Data points,Std. Error,"4.0 ONZ = 113.0g",1Value per 100 g,
Proximates
"Energy",kcal,--,--,331,293
"Protein",g,--,--,18.00,15.93
"Total lipid (fat)",g,--,--,28.00,24.78
"Carbohydrate, by difference",g,--,--,0.00,0.00
"Fiber, total dietary",g,--,--,0.0,0.0
"Sugars, total",g,--,--,0.00,0.00
Minerals
"Calcium, Ca",mg,--,--,20,18
"Iron, Fe",mg,--,--,1.98,1.75
"Sodium, Na",mg,--,--,76,67
Vitamins
"Vitamin C, total ascorbic acid",mg,--,--,0.0,0.0
"Vitamin A, IU",IU,--,--,0,0
Lipids
"Fatty acids, total saturated",g,--,--,10.995,9.730
"Cholesterol",mg,--,--,85,75
Amino Acids
Other
Ingredients
"GROUND BEEF" Date available: 10/08/2016 Date last updated by company: 10/08/2016
