Source: USDA Branded Food Products Database Release December 2017 Software v.3.8.6.4 2017-10-02
Report Run at: December 17, 2017 22:07 EST
"Nutrient data for: 45099082, GLORY FOODS, SEASONED SOUTHERN STYLE, COUNTRY CABBAGE, UPC: 736393502165"
Food Group:  Branded Food Products Database
Common Name:

Nutrient,Unit,Data points,Std. Error,"0.5 cup = 118.0g",1Value per 100 g,
Proximates
"Energy",kcal,--,--,25,21
"Protein",g,--,--,1.00,0.85
"Total lipid (fat)",g,--,--,1.00,0.85
"Carbohydrate, by difference",g,--,--,5.99,5.08
"Fiber, total dietary",g,--,--,0.9,0.8
"Sugars, total",g,--,--,4.00,3.39
Minerals
"Calcium, Ca",mg,--,--,20,17
"Iron, Fe",mg,--,--,0.48,0.41
"Sodium, Na",mg,--,--,470,398
Vitamins
"Vitamin C, total ascorbic acid",mg,--,--,113.9,96.5
"Vitamin A, IU",IU,--,--,136,115
Lipids
"Fatty acids, total saturated",g,--,--,0.000,0.000
"Fatty acids, total trans",g,--,--,0.000,0.000
"Cholesterol",mg,--,--,0,0
Amino Acids
Other
Ingredients
"CABBAGE, WATER, SUGAR, LESS THAN 1% OF MODIFIED FOOD STARCH, DRIED ONION, SALT, HYDROLYZED SOY PROTEIN, PARTIALLY HYDROGENATED COTTONSEED AND SOY OIL, NATURAL SMOKE FLAVOR, DISODIUM INOSINATE AND GUANYLATE, SPICE, ASCORBIC ACID, CITRIC ACID, CALCIUM DISODIUM EDTA (FOR COLOR RETENTION)." Date available: 09/14/2017 Date last updated by company: 09/14/2017
