Source: USDA Branded Food Products Database Release December 2017 Software v.3.8.6.4 2017-10-02
Report Run at: December 17, 2017 22:07 EST
"Nutrient data for: 45058455, GLORY FOODS, SEASONED SOUTHERN STYLE BLACKEYE PEAS AND RICE, UPC: 736393510016"
Food Group:  Branded Food Products Database
Common Name:

Nutrient,Unit,Data points,Std. Error,"0.5 cup = 120.0g",1Value per 100 g,
Proximates
"Energy",kcal,--,--,90,75
"Protein",g,--,--,5.00,4.17
"Total lipid (fat)",g,--,--,0.50,0.42
"Carbohydrate, by difference",g,--,--,17.00,14.17
"Fiber, total dietary",g,--,--,2.0,1.7
"Sugars, total",g,--,--,2.00,1.67
Minerals
"Calcium, Ca",mg,--,--,40,33
"Iron, Fe",mg,--,--,1.94,1.62
"Sodium, Na",mg,--,--,680,567
Vitamins
"Vitamin C, total ascorbic acid",mg,--,--,1.3,1.1
"Vitamin A, IU",IU,--,--,0,0
Lipids
"Fatty acids, total saturated",g,--,--,0.216,0.180
"Fatty acids, total trans",g,--,--,0.000,0.000
"Cholesterol",mg,--,--,0,0
Amino Acids
Other
Ingredients
"INGREDIENTS: WATER, BLACKEYE PEAS, ENRICHED LONG GRAIN RICE (RICE, FERRIC ORTHOPHOSPHATE, NIACIN, THIAMINE MONONITRATE, FOLIC ACID), RED BEAN FLOUR, SALT, DEHYDRATED ONION, SEASONING, HYDROLYZED CORN, SOY AND WHEAT PROTEIN, PORK FLAVOR (PORK STOCK, MODIFIED FOOD STARCH, BACON FAT), SALT, CHICKEN FLAVOR (CANOLA AND/OR SOYBEAN OIL, CHICKEN FAT), FLAVOR (SUGAR, CARAMEL COLOR, SMOKE FLAVOR, THIAMINE HYDROCHLORIDE, ASCORBIC ACID, DISODIUM INOSINATE AND GUANYLATE, LECITHIN)DEHYDRATED RED PEPPER, EDTA FOR FIRMNESS, BACON FAT, SPICE, DISODIUM GUANYLATE AND INOSINATE, GARLIC." Date available: 06/24/2017 Date last updated by company: 06/24/2017
