Source: USDA Branded Food Products Database Release December 2017 Software v.3.8.6.4 2017-10-02
Report Run at: December 17, 2017 22:07 EST
"Nutrient data for: 45184990, GLORIANN FARM, SUPER SWEET CORN, UPC: 697069701339"
Food Group:  Branded Food Products Database
Common Name:

Nutrient,Unit,Data points,Std. Error,"1 MED EAR = 90.0g",1Value per 100 g,
Proximates
"Energy",kcal,--,--,80,89
"Protein",g,--,--,3.00,3.33
"Total lipid (fat)",g,--,--,1.00,1.11
"Carbohydrate, by difference",g,--,--,18.00,20.00
"Fiber, total dietary",g,--,--,3.0,3.3
"Sugars, total",g,--,--,5.00,5.56
Minerals
"Calcium, Ca",mg,--,--,0,0
"Iron, Fe",mg,--,--,0.36,0.40
"Potassium, K",mg,--,--,240,267
"Sodium, Na",mg,--,--,0,0
Vitamins
"Vitamin C, total ascorbic acid",mg,--,--,6.0,6.7
"Vitamin A, IU",IU,--,--,100,111
Lipids
"Fatty acids, total saturated",g,--,--,0.000,0.000
"Fatty acids, total trans",g,--,--,0.000,0.000
"Cholesterol",mg,--,--,0,0
Amino Acids
Other
Ingredients
"CORN" Date available: 10/12/2016 Date last updated by company: 10/12/2016
