Source: USDA Branded Food Products Database Release December 2017 Software v.3.8.6.4 2017-10-02
Report Run at: December 17, 2017 22:08 EST
"Nutrient data for: 45158620, GLOW CHOCOLATIER, HAZELNUT MILK CHOCOLATE TRUFFLES, UPC: 853487006016"
Food Group:  Branded Food Products Database
Common Name:

Nutrient,Unit,Data points,Std. Error,"3.0 PIECES = 31.0g",1Value per 100 g,
Proximates
"Energy",kcal,--,--,170,548
"Protein",g,--,--,2.00,6.45
"Total lipid (fat)",g,--,--,10.00,32.26
"Carbohydrate, by difference",g,--,--,17.00,54.84
"Fiber, total dietary",g,--,--,1.0,3.2
"Sugars, total",g,--,--,17.00,54.84
Minerals
"Calcium, Ca",mg,--,--,40,129
"Iron, Fe",mg,--,--,0.58,1.88
"Sodium, Na",mg,--,--,35,113
Vitamins
"Vitamin C, total ascorbic acid",mg,--,--,0.0,0.0
"Vitamin A, IU",IU,--,--,0,0
Lipids
"Fatty acids, total saturated",g,--,--,5.998,19.350
"Fatty acids, total trans",g,--,--,0.000,0.000
"Cholesterol",mg,--,--,5,16
Amino Acids
Other
Ingredients
"MILK CHOCOLATE 50% (SUGAR, COCOA BUTTER, WHOLE MILK POWDER, COCOA MASS, WHEY POWDER, MILK FAT, EMULSIFIERS: SOY LECITHIN, POLYGLYCEROL POLYRICINOLEATE: NATURAL VANILLA EXTRACT): FILLING (SUGAR, PARTLY HYDROGENATED PALM OIL, DEMINERALIZED WHEY POWDER, PEANUT PULP, SKIM MILK POWDER, REDUCED FAT COCOA POWDER, HAZELNUT PULP, EMULSIFIERS: SOY LECITHIN, POLYGLYCEROL POLYRICINOLEATE: ARTIFICIAL FLAVOR: HAZELNUT FLAVOR)." Date available: 07/14/2017 Date last updated by company: 07/14/2017
