Source: USDA Branded Food Products Database Release December 2017 Software v.3.8.6.4 2017-10-02
Report Run at: December 17, 2017 22:08 EST
"Nutrient data for: 45271544, GLUCOSE GEL, UPC: 311917169446"
Food Group:  Branded Food Products Database
Common Name:

Nutrient,Unit,Data points,Std. Error,"1 POUCH = 33.0g",1Value per 100 g,
Proximates
"Energy",kcal,--,--,60,182
"Protein",g,--,--,0.00,0.00
"Total lipid (fat)",g,--,--,0.00,0.00
"Carbohydrate, by difference",g,--,--,15.00,45.45
"Fiber, total dietary",g,--,--,0.0,0.0
"Sugars, total",g,--,--,15.00,45.45
Minerals
"Calcium, Ca",mg,--,--,0,0
"Iron, Fe",mg,--,--,0.00,0.00
"Sodium, Na",mg,--,--,5,15
Vitamins
"Vitamin C, total ascorbic acid",mg,--,--,0.0,0.0
"Vitamin A, IU",IU,--,--,0,0
Lipids
"Fatty acids, total saturated",g,--,--,0.000,0.000
"Fatty acids, total trans",g,--,--,0.000,0.000
"Cholesterol",mg,--,--,0,0
Amino Acids
Other
Ingredients
"DEXTROSE (D-GLUCOSE), PURIFIED WATER, XANTHAN GUM, GLYCERIN, CITRIC ACID, SORBIC ACID (PRESERVATIVE), NATURAL & ARTIFICIAL FLAVOR, SODIUM BENZOATE (PRESERVATIVE), FD&C RED #40, FD&C BLUE #1." Date available: 07/14/2017 Date last updated by company: 07/14/2017
