Source: USDA Branded Food Products Database Release December 2017 Software v.3.8.6.4 2017-10-02
Report Run at: December 17, 2017 22:16 EST
"Nutrient data for: 45291289, GLUTEN FREE PIZZA DOUGH, UPC: 074677842584"
Food Group:  Branded Food Products Database
Common Name:

Nutrient,Unit,Data points,Std. Error,"50.0 GRM = 50.0g",1Value per 100 g,
Proximates
"Energy",kcal,--,--,110,220
"Protein",g,--,--,2.00,4.00
"Total lipid (fat)",g,--,--,2.50,5.00
"Carbohydrate, by difference",g,--,--,22.00,44.00
"Fiber, total dietary",g,--,--,4.0,8.0
"Sugars, total",g,--,--,1.00,2.00
Minerals
"Calcium, Ca",mg,--,--,20,40
"Iron, Fe",mg,--,--,1.44,2.88
"Sodium, Na",mg,--,--,200,400
Vitamins
"Vitamin C, total ascorbic acid",mg,--,--,1.2,2.4
"Vitamin A, IU",IU,--,--,100,200
Lipids
"Fatty acids, total saturated",g,--,--,1.000,2.000
"Fatty acids, total trans",g,--,--,0.000,0.000
"Cholesterol",mg,--,--,0,0
Amino Acids
Other
Ingredients
"WATER, WHITE RICE FLOUR, POTATO STARCH, ORGANIC PALM FRUIT SHORTENING*, TAPIOCA STARCH, CELLULOSE FIBER, YEAST, PSYLLIUM HUSK POWDER, ORGANIC EVAPORATED CANE JUICE, GOLDEN FLAX SEED, SEA SALT, GUAR GUM." Date available: 10/03/2017 Date last updated by company: 10/03/2017
