Source: USDA Branded Food Products Database Release December 2017 Software v.3.8.6.4 2017-10-02
Report Run at: December 17, 2017 22:18 EST
"Nutrient data for: 45208647, GLUTEN FREE WAFFLES, UPC: 077890288122"
Food Group:  Branded Food Products Database
Common Name:

Nutrient,Unit,Data points,Std. Error,"2.0 WAFFLES = 70.0g",1Value per 100 g,
Proximates
"Energy",kcal,--,--,200,286
"Protein",g,--,--,1.00,1.43
"Total lipid (fat)",g,--,--,7.00,10.00
"Carbohydrate, by difference",g,--,--,35.00,50.00
"Fiber, total dietary",g,--,--,2.0,2.9
"Sugars, total",g,--,--,7.00,10.00
Minerals
"Calcium, Ca",mg,--,--,0,0
"Iron, Fe",mg,--,--,0.43,0.62
"Potassium, K",mg,--,--,60,86
"Sodium, Na",mg,--,--,330,471
Vitamins
"Vitamin C, total ascorbic acid",mg,--,--,0.0,0.0
"Vitamin A, IU",IU,--,--,0,0
Lipids
"Fatty acids, total saturated",g,--,--,1.498,2.140
"Fatty acids, total trans",g,--,--,0.000,0.000
"Cholesterol",mg,--,--,0,0
Amino Acids
Other
Ingredients
"WATER, BROWN RICE FLOUR, POTATO STARCH, CORN FLOUR, VEGETABLE OIL (CANOLA AND/OR SOYBEAN OIL), TAPIOCA STARCH, BLUEBERRY BITS (SUGAR, PALM OIL, CORN FLOUR, DEXTROSE, CORN STARCH, NATURAL FLAVOR, FRUIT AND VEGETABLE EXTRACTS, DRIED BLUEBERRIES), SUGAR, CONTAINS 2% OR LESS OF: POTATO FLOUR, INULIN, LEAVENING (SODIUM ACID PYROPHOSPHATE, SODIUM BICARBONATE), SOY LECITHIN, FRUIT JUICE CONCENTRATES BLEND (PEAR JUICE CONCENTRATE, PINEAPPLE SYRUP, CLARIFIED PINEAPPLE AND PEACH JUICE CONCENTRATES), NATURAL FLAVOR, SALT." Date available: 07/14/2017 Date last updated by company: 07/14/2017
