Source: USDA Branded Food Products Database Release December 2017 Software v.3.8.6.4 2017-10-02
Report Run at: December 17, 2017 22:12 EST
"Nutrient data for: 45188569, GLUTEN-FREE FLAX SNACKING GRANOLA, UPC: 857287004272"
Food Group:  Branded Food Products Database
Common Name:

Nutrient,Unit,Data points,Std. Error,"0.5 cup = 55.0g",1Value per 100 g,
Proximates
"Energy",kcal,--,--,220,400
"Protein",g,--,--,5.00,9.09
"Total lipid (fat)",g,--,--,7.00,12.73
"Carbohydrate, by difference",g,--,--,31.00,56.36
"Fiber, total dietary",g,--,--,5.0,9.1
"Sugars, total",g,--,--,17.00,30.91
Minerals
"Calcium, Ca",mg,--,--,40,73
"Iron, Fe",mg,--,--,2.70,4.91
"Sodium, Na",mg,--,--,25,45
Vitamins
"Vitamin C, total ascorbic acid",mg,--,--,0.0,0.0
"Vitamin A, IU",IU,--,--,0,0
Lipids
"Fatty acids, total saturated",g,--,--,2.002,3.640
"Fatty acids, total trans",g,--,--,0.000,0.000
"Cholesterol",mg,--,--,0,0
Amino Acids
Other
Ingredients
"GROUND FLAXSEED, ROLLED OATS, HONEY, WATER, DARK CHOCOLATE CHIPS (SUGAR, CHOCOLATE LIQUOR, COCOA BUTTER, NON GMO SOY LECITHIN), EVAPORATED CANE JUICE, COCOA, HIGH OLEIC EXPELLER PRESSED SAFFLOWER OIL, NATURAL VANILLA EXTRACT, GROUND CINNAMON, SEA SALT." Date available: 07/14/2017 Date last updated by company: 07/14/2017
