Source: USDA Branded Food Products Database Release December 2017 Software v.3.8.6.4 2017-10-02
Report Run at: December 17, 2017 22:10 EST
"Nutrient data for: 45172922, GLUTEN FREE BREAD MIX, UPC: 039978004550"
Food Group:  Branded Food Products Database
Common Name:

Nutrient,Unit,Data points,Std. Error,"0.062 OF PKG. = 35.0g",1Value per 100 g,
Proximates
"Energy",kcal,--,--,130,371
"Protein",g,--,--,4.00,11.43
"Total lipid (fat)",g,--,--,3.50,10.00
"Carbohydrate, by difference",g,--,--,23.00,65.71
"Fiber, total dietary",g,--,--,4.0,11.4
"Sugars, total",g,--,--,3.00,8.57
Minerals
"Calcium, Ca",mg,--,--,20,57
"Iron, Fe",mg,--,--,1.65,4.70
"Sodium, Na",mg,--,--,170,486
Vitamins
"Vitamin C, total ascorbic acid",mg,--,--,0.0,0.0
"Vitamin A, IU",IU,--,--,0,0
Lipids
"Fatty acids, total saturated",g,--,--,0.000,0.000
"Fatty acids, total trans",g,--,--,0.000,0.000
"Cholesterol",mg,--,--,0,0
Amino Acids
Other
Ingredients
"BREAD MIX: WHOLE GRAIN BUCKWHEAT, GARBANZO BEAN FLOUR, POTATO STARCH, CORNSTARCH, SUNFLOWER SEEDS, SESAME SEEDS, WHOLE GRAIN SORGHUM FLOUR, TAPIOCA FLOUR, COCOA POWDER, CANE SUGAR, FAVA BEAN FLOUR, DRIED MOLASSES (MOLASSES, MALTODEXTRIN, SILICON DIOXIDE), XANTHAN GUM, CARAWAY SEEDS, SEA SALT, WHOLE GRAIN TEFF, POTATO FLOUR, ONION POWDER, GUAR GUM, SOY LECITHIN. YEAST PACKET: YEAST, SORBITAN MONOSTEARATE, ASCORBIC ACID." Date available: 09/11/2017 Date last updated by company: 09/11/2017
