Source: USDA Branded Food Products Database Release December 2017 Software v.3.8.6.4 2017-10-02
Report Run at: December 17, 2017 22:11 EST
"Nutrient data for: 45105575, GLUTEN FREE CORN SALSA, UPC: 041695367535"
Food Group:  Branded Food Products Database
Common Name:

Nutrient,Unit,Data points,Std. Error,"2.0 Tbsp = 31.0g",1Value per 100 g,
Proximates
"Energy",kcal,--,--,25,81
"Protein",g,--,--,0.00,0.00
"Total lipid (fat)",g,--,--,0.00,0.00
"Carbohydrate, by difference",g,--,--,5.00,16.13
"Fiber, total dietary",g,--,--,0.0,0.0
"Sugars, total",g,--,--,3.00,9.68
Minerals
"Calcium, Ca",mg,--,--,0,0
"Iron, Fe",mg,--,--,0.00,0.00
"Sodium, Na",mg,--,--,100,323
Vitamins
"Vitamin C, total ascorbic acid",mg,--,--,3.9,12.5
"Vitamin A, IU",IU,--,--,162,521
Lipids
"Fatty acids, total saturated",g,--,--,0.000,0.000
"Fatty acids, total trans",g,--,--,0.000,0.000
"Cholesterol",mg,--,--,0,0
Amino Acids
Other
Ingredients
"CORN, TOMATOES (TOMATOES, TOMATO JUICE, SALT, CITRIC ACID, CALCIUM CHLORIDE), GREEN BELL PEPPERS, ONIONS, RED BELL PEPPERS, PURE CANE SUGAR, DISTILLED VINEGAR, CORN STARCH, SALT, GARLIC POWDER, BLACK PEPPER, PARSLEY, CITRIC ACID, LESS THAN 1/10TH OF 1% POTASSIUM SORBATE ADDED AS A PRESERVATIVE AND HABANERO POWDER." Date available: 06/25/2017 Date last updated by company: 06/25/2017
