Source: USDA Branded Food Products Database Release December 2017 Software v.3.8.6.4 2017-10-02
Report Run at: December 17, 2017 22:09 EST
"Nutrient data for: 45088013, GLUTEN FREE BITES, UPC: 853056004054"
Food Group:  Branded Food Products Database
Common Name:

Nutrient,Unit,Data points,Std. Error,"2.0 BITES | APPROX. = 24.0g",1Value per 100 g,
Proximates
"Energy",kcal,--,--,110,458
"Protein",g,--,--,4.00,16.67
"Total lipid (fat)",g,--,--,5.00,20.83
"Carbohydrate, by difference",g,--,--,12.00,50.00
"Fiber, total dietary",g,--,--,2.0,8.3
"Sugars, total",g,--,--,5.00,20.83
Minerals
"Calcium, Ca",mg,--,--,20,83
"Iron, Fe",mg,--,--,1.20,5.00
"Sodium, Na",mg,--,--,45,188
Vitamins
"Vitamin C, total ascorbic acid",mg,--,--,0.0,0.0
"Vitamin A, IU",IU,--,--,0,0
Lipids
"Fatty acids, total saturated",g,--,--,3.000,12.500
"Fatty acids, total trans",g,--,--,0.000,0.000
"Cholesterol",mg,--,--,0,0
Amino Acids
Other
Ingredients
"ORGANIC BROWN RICE SYRUP, TOASTED COCONUT, TOASTED CASHEWS, COMPLETE PROTEIN BLEND (BROWN RICE PROTEIN, PEA PROTEIN), ORGANIC AGAVE NECTAR, ORGANIC CRISPED BROWN RICE, ORGANIC DATES, ORGANIC SUNFLOWER SEEDS, GOLDEN FLAXSEED, ORGANIC SAFFLOWER OIL, SEA SALT." Date available: 07/14/2017 Date last updated by company: 07/14/2017
