Source: USDA Branded Food Products Database Release December 2017 Software v.3.8.6.4 2017-10-02
Report Run at: December 17, 2017 22:13 EST
"Nutrient data for: 45183950, GLUTEN-FREE GRAHAM CRACKER MIX, UPC: 079729100711"
Food Group:  Branded Food Products Database
Common Name:

Nutrient,Unit,Data points,Std. Error,"0.25 cup = 45.0g",1Value per 100 g,
Proximates
"Energy",kcal,--,--,160,356
"Protein",g,--,--,2.00,4.44
"Total lipid (fat)",g,--,--,1.00,2.22
"Carbohydrate, by difference",g,--,--,37.00,82.22
"Fiber, total dietary",g,--,--,2.0,4.4
"Sugars, total",g,--,--,10.00,22.22
Minerals
"Calcium, Ca",mg,--,--,40,89
"Iron, Fe",mg,--,--,2.00,4.44
"Sodium, Na",mg,--,--,120,267
Vitamins
"Vitamin C, total ascorbic acid",mg,--,--,0.0,0.0
"Vitamin A, IU",IU,--,--,0,0
Lipids
"Fatty acids, total saturated",g,--,--,0.000,0.000
"Fatty acids, total trans",g,--,--,0.000,0.000
"Cholesterol",mg,--,--,0,0
Amino Acids
Other
Ingredients
"BROWN SUGAR, TAPIOCA STARCH, WHITE RICE FLOUR, NAVY BEAN FLOUR, MODIFIED TAPIOCA STARCH, SWEET RICE FLOUR, GROUND CINNAMON, XANTHAN GUM, SALT, BAKING POWDER (SODIUM ACID PYROPHOSPHATE, SODIUM BICARBONATE, CORNSTARCH, MONOCALCIUM PHOSPHATE), BAKING SODA, GINGER." Date available: 07/14/2017 Date last updated by company: 07/14/2017
