Source: USDA Branded Food Products Database Release December 2017 Software v.3.8.6.4 2017-10-02
Report Run at: December 17, 2017 22:19 EST
"Nutrient data for: 45170546, GLUTINO, GLUTEN FREE SEEDED BREAD, UPC: 678523036174"
Food Group:  Branded Food Products Database
Common Name:

Nutrient,Unit,Data points,Std. Error,"1 SLICE = 29.0g",1Value per 100 g,
Proximates
"Energy",kcal,--,--,80,276
"Protein",g,--,--,1.00,3.45
"Total lipid (fat)",g,--,--,3.00,10.34
"Carbohydrate, by difference",g,--,--,13.00,44.83
"Fiber, total dietary",g,--,--,1.0,3.4
"Sugars, total",g,--,--,1.00,3.45
Minerals
"Calcium, Ca",mg,--,--,0,0
"Iron, Fe",mg,--,--,0.00,0.00
"Sodium, Na",mg,--,--,170,586
Vitamins
"Vitamin C, total ascorbic acid",mg,--,--,0.0,0.0
"Vitamin A, IU",IU,--,--,0,0
Lipids
"Fatty acids, total saturated",g,--,--,0.000,0.000
"Fatty acids, total trans",g,--,--,0.000,0.000
"Cholesterol",mg,--,--,0,0
Amino Acids
Other
Ingredients
"WATER, MODIFIED TAPIOCA STARCH, CORN STARCH, POTATO STARCH, EGG WHITES, CANOLA OIL AND/OR SAFFLOWER OIL AND/OR SUNFLOWER OIL, BROWN RICE FLOUR, TAPIOCA STARCH, SUGAR, MOLASSES, SALT, YEAST, POPPY SEEDS, XANTHAN GUM, FLAX SEED, SESAME SEEDS, SUGAR BEET FIBER, SUNFLOWER SEEDS, GLUCONO-DELTA-LACTONE, SODIUM BICARBONATE, CARAMELIZED SUGAR, MODIFIED CELLULOSE, CALCIUM SULPHATE, ENZYMES." Date available: 07/14/2017 Date last updated by company: 07/14/2017
