Source: USDA Branded Food Products Database Release December 2017 Software v.3.8.6.4 2017-10-02
Report Run at: December 17, 2017 22:21 EST
"Nutrient data for: 45206017, GLUUTENY, BROWNIE MIX, UPC: 855387005137"
Food Group:  Branded Food Products Database
Common Name:

Nutrient,Unit,Data points,Std. Error,"0.056 PACKAGE (ABOUT 1/4 CUP DRY MIX) = 39.0g",1Value per 100 g,
Proximates
"Energy",kcal,--,--,140,359
"Protein",g,--,--,1.00,2.56
"Total lipid (fat)",g,--,--,0.50,1.28
"Carbohydrate, by difference",g,--,--,36.00,92.31
"Fiber, total dietary",g,--,--,1.0,2.6
"Sugars, total",g,--,--,25.00,64.10
Minerals
"Calcium, Ca",mg,--,--,21,53
"Iron, Fe",mg,--,--,0.74,1.89
"Sodium, Na",mg,--,--,85,218
Vitamins
"Vitamin C, total ascorbic acid",mg,--,--,0.0,0.0
"Vitamin A, IU",IU,--,--,0,0
Lipids
"Fatty acids, total saturated",g,--,--,0.000,0.000
"Fatty acids, total trans",g,--,--,0.000,0.000
"Cholesterol",mg,--,--,0,0
Amino Acids
Other
Ingredients
"SUGAR GRANULATED, WHITE RICE FLOUR, POTATO STARCH, TAPIOCA FLOUR, CORN STARCH, COCOA DRY POWDER, UNSWEETENED, VANILLA EXTRACT POWDER, SALT, LEAVENING (BAKING POWDER), XANTHAN GUM." Date available: 08/11/2017 Date last updated by company: 08/11/2017
