Source: USDA Branded Food Products Database Release December 2017 Software v.3.8.6.4 2017-10-02
Report Run at: December 17, 2017 22:27 EST
"Nutrient data for: 45088634, GNOCCHI WITH SWEET POTATO, UPC: 026825009677"
Food Group:  Branded Food Products Database
Common Name:

Nutrient,Unit,Data points,Std. Error,"0.75 cup = 120.0g",1Value per 100 g,
Proximates
"Energy",kcal,--,--,190,158
"Protein",g,--,--,5.00,4.17
"Total lipid (fat)",g,--,--,1.00,0.83
"Carbohydrate, by difference",g,--,--,38.00,31.67
"Fiber, total dietary",g,--,--,3.0,2.5
"Sugars, total",g,--,--,0.00,0.00
Minerals
"Calcium, Ca",mg,--,--,0,0
"Iron, Fe",mg,--,--,1.04,0.87
"Sodium, Na",mg,--,--,450,375
Vitamins
"Vitamin C, total ascorbic acid",mg,--,--,1.4,1.2
"Vitamin A, IU",IU,--,--,0,0
Lipids
"Fatty acids, total saturated",g,--,--,0.000,0.000
"Fatty acids, total trans",g,--,--,0.000,0.000
"Cholesterol",mg,--,--,0,0
Amino Acids
Other
Ingredients
"MASHED SWEET POTATOES 70% [WATER, DEHYDRATED SWEET POTATO FLAKES (SWEET POTATOES, EMULSIFIERS: MONO AND DIGLYCERIDES OF FATTY ACIDS, NATURAL FLAVORINGS)], WHOLE WHEAT FLOUR, POTATO STARCH, RICE FLOUR, STARCH, SALT, SPICES, ACIDITY REGULATOR: LACTIC ACID, PRESERVATIVE: POTASSIUM SORBATE." Date available: 06/24/2017 Date last updated by company: 06/24/2017
