Source: USDA Branded Food Products Database Release December 2017 Software v.3.8.6.4 2017-10-02
Report Run at: December 17, 2017 22:27 EST
"Nutrient data for: 45214268, GNOCCHI WITH POTATO, UPC: 044963880255"
Food Group:  Branded Food Products Database
Common Name:

Nutrient,Unit,Data points,Std. Error,"0.75 cup = 120.0g",1Value per 100 g,
Proximates
"Energy",kcal,--,--,180,150
"Protein",g,--,--,4.00,3.33
"Total lipid (fat)",g,--,--,0.00,0.00
"Carbohydrate, by difference",g,--,--,40.00,33.33
"Fiber, total dietary",g,--,--,3.0,2.5
"Sugars, total",g,--,--,0.00,0.00
Minerals
"Calcium, Ca",mg,--,--,20,17
"Iron, Fe",mg,--,--,0.84,0.70
"Sodium, Na",mg,--,--,620,517
Vitamins
"Vitamin C, total ascorbic acid",mg,--,--,0.0,0.0
"Vitamin A, IU",IU,--,--,0,0
Lipids
"Fatty acids, total saturated",g,--,--,0.000,0.000
"Fatty acids, total trans",g,--,--,0.000,0.000
"Cholesterol",mg,--,--,0,0
Amino Acids
Other
Ingredients
"MASHED POTATOES 70% [WATER, DEHYDRATED POTATO FLAKE (POTATOES, EMULSIFIER: MONO AND DIGLYCERIDES OF FATTY ACIDS, NATURAL FLAVORINGS)], WHEAT FLOUR TYPE ""00"", POTATO STARCH, DOUBLE CONCENTRATE TOMATO 5.4% (IN RED GNOCCHI), POWDERED SPINACH 1.6% (IN GREEN GNOCCHI), RICE FLOUR, SALT, ACIDITY REGULATOR: LACTIC ACID, PRESERVATIVE: POTASSIUM SORBATE, SPICES." Date available: 07/14/2017 Date last updated by company: 07/14/2017
