Source: USDA Branded Food Products Database Release December 2017 Software v.3.8.6.4 2017-10-02
Report Run at: December 17, 2017 23:02 EST
"Nutrient data for: 45170248, GO LIVE, PROBIOTICS + PREBIOTICS MATCHA TEA, RASPBERRY, UPC: 895070002302"
Food Group:  Branded Food Products Database
Common Name:

Nutrient,Unit,Data points,Std. Error,"8.0 OZA = 240.0g",1Value per 100 g,
Proximates
"Energy",kcal,--,--,29,12
"Protein",g,--,--,0.00,0.00
"Total lipid (fat)",g,--,--,0.00,0.00
"Carbohydrate, by difference",g,--,--,7.99,3.33
"Fiber, total dietary",g,--,--,1.9,0.8
"Sugars, total",g,--,--,6.00,2.50
Minerals
"Sodium, Na",mg,--,--,41,17
Vitamins
Lipids
Amino Acids
Other
Ingredients
"OTHER INGREDIENTS: WATER, ORGANIC CANE SUGAR, LEMON JUICE CONCENTRATE, MATCHA GREEN TEA, NATURAL FLAVORS (FROM RASPBERRY EXTRACT), MONK FRUIT EXTRACT." Date available: 10/13/2017 Date last updated by company: 10/13/2017
