Source: USDA Branded Food Products Database Release December 2017 Software v.3.8.6.4 2017-10-02
Report Run at: December 17, 2017 23:56 EST
"Nutrient data for: 45202064, GO WILD SMOOTHIE, UPC: 815473014429"
Food Group:  Branded Food Products Database
Common Name:

Nutrient,Unit,Data points,Std. Error,"1 BOTTLE = 115.0g",1Value per 100 g,
Proximates
"Energy",kcal,--,--,70,61
"Protein",g,--,--,3.00,2.61
"Total lipid (fat)",g,--,--,1.00,0.87
"Carbohydrate, by difference",g,--,--,12.99,11.30
"Fiber, total dietary",g,--,--,0.0,0.0
"Sugars, total",g,--,--,11.99,10.43
Minerals
"Calcium, Ca",mg,--,--,250,217
"Iron, Fe",mg,--,--,0.00,0.00
"Phosphorus, P",mg,--,--,313,272
"Potassium, K",mg,--,--,170,148
"Sodium, Na",mg,--,--,55,48
Vitamins
"Vitamin C, total ascorbic acid",mg,--,--,1.1,1.0
"Riboflavin",mg,--,--,0.136,0.118
"Vitamin A, IU",IU,--,--,0,0
"Vitamin D",IU,--,--,0,0
Lipids
"Fatty acids, total saturated",g,--,--,0.494,0.430
"Fatty acids, total trans",g,--,--,0.000,0.000
"Cholesterol",mg,--,--,5,4
Amino Acids
Other
Ingredients
"GRADE A CULTURED PASTEURIZED LOW FAT MILK, WATER, SUGAR, CORN STARCH, PECTIN, NATURAL FLAVORS, FRUIT AND VEGETABLE JUICE (FOR COLOR), MILK CALCIUM COMPLEX, POTASSIUM SORBATE (TO MAINTAIN FRESHNESS), STEVIA LEAF EXTRACT (NATURAL SWEETENER). CONTAINS ACTIVE YOGURT CULTURES." Date available: 09/08/2017 Date last updated by company: 09/08/2017
