Source: USDA Branded Food Products Database Release December 2017 Software v.3.8.6.4 2017-10-02
Report Run at: December 18, 2017 00:08 EST
"Nutrient data for: 45183367, GO! YUM ICE CREAM, UPC: 052548560683"
Food Group:  Branded Food Products Database
Common Name:

Nutrient,Unit,Data points,Std. Error,"0.5 cup = 92.0g",1Value per 100 g,
Proximates
"Energy",kcal,--,--,210,228
"Protein",g,--,--,3.00,3.26
"Total lipid (fat)",g,--,--,13.00,14.13
"Carbohydrate, by difference",g,--,--,20.00,21.74
"Fiber, total dietary",g,--,--,0.0,0.0
"Sugars, total",g,--,--,19.00,20.65
Minerals
"Calcium, Ca",mg,--,--,100,109
"Iron, Fe",mg,--,--,0.00,0.00
"Potassium, K",mg,--,--,160,174
"Sodium, Na",mg,--,--,50,54
Vitamins
"Vitamin C, total ascorbic acid",mg,--,--,0.0,0.0
"Vitamin A, IU",IU,--,--,562,611
Lipids
"Fatty acids, total saturated",g,--,--,8.004,8.700
"Fatty acids, total trans",g,--,--,0.000,0.000
"Cholesterol",mg,--,--,70,76
Amino Acids
Other
Ingredients
"CREAM, MILK, SKIM MILK, SUGAR, EGG YOLKS, VANILLA, CAROB BEAN GUM, GUAR GUM, CARRAGEENAN, GROUND VANILLA BEANS." Date available: 07/14/2017 Date last updated by company: 07/14/2017
