Source: USDA Branded Food Products Database Release December 2017 Software v.3.8.6.4 2017-10-02
Report Run at: December 17, 2017 22:28 EST
"Nutrient data for: 45330966, GOAT CHEESE & ROASTED TOMATO RAVIOLI, UPC: 07078404985"
Food Group:  Branded Food Products Database
Common Name:

Nutrient,Unit,Data points,Std. Error,"1 cup = 100.0g",1Value per 100 g,
Proximates
"Energy",kcal,--,--,190,190
"Protein",g,--,--,11.00,11.00
"Total lipid (fat)",g,--,--,10.00,10.00
"Carbohydrate, by difference",g,--,--,27.00,27.00
"Fiber, total dietary",g,--,--,2.0,2.0
"Sugars, total",g,--,--,2.00,2.00
Minerals
"Calcium, Ca",mg,--,--,150,150
"Iron, Fe",mg,--,--,2.02,2.02
"Sodium, Na",mg,--,--,350,350
Vitamins
"Vitamin C, total ascorbic acid",mg,--,--,1.7,1.7
"Vitamin A, IU",IU,--,--,1400,1400
Lipids
"Fatty acids, total saturated",g,--,--,6.000,6.000
"Fatty acids, total trans",g,--,--,0.000,0.000
"Cholesterol",mg,--,--,35,35
Amino Acids
Other
Ingredients
"FILLING: RICOTTA CHEESE (PASTEURIZED MILK, WHEY, CREAM, VINEGAR, SALT, STABILIZERS [GUAR GUM, LOCUST BEAN GUM, XANTHAN GUM]), GOAT CHEESE (PASTEURIZED GOAT MILK, VEGETAL RENNET, CHEESE CULTURE, SALT), WHITE CHEDDAR CHEESE (PASTEURIZED MILK, CULTURE, SALT, ENZYMES), TOMATOES, MOZZARELLA CHEESE (PASTEURIZED COWS MILK, CHEESE CULTURE, SALT, ENZYMES), EGGS, BREADCRUMBS (WHEAT FLOUR, SUGAR, YEAST, SEA SALT), PARSLEY, GARLIC, SALT, BLACK PEPPER, WATER. PASTA: WHEAT FLOUR, WATER, EGGS, BETA-CAROTENE." Date available: 10/13/2017 Date last updated by company: 10/13/2017
