Source: USDA Branded Food Products Database Release December 2017 Software v.3.8.6.4 2017-10-02
Report Run at: December 17, 2017 22:28 EST
"Nutrient data for: 45229451, GOAT CHEESE STUFFED VEGETARIAN PORTABELLA MUSHROOMS, UPC: 030034106256"
Food Group:  Branded Food Products Database
Common Name:

Nutrient,Unit,Data points,Std. Error,"0.5 CONTAINER = 491.0g",1Value per 100 g,
Proximates
"Energy",kcal,--,--,231,47
"Protein",g,--,--,13.99,2.85
"Total lipid (fat)",g,--,--,8.00,1.63
"Carbohydrate, by difference",g,--,--,30.00,6.11
"Fiber, total dietary",g,--,--,6.9,1.4
"Sugars, total",g,--,--,13.99,2.85
Minerals
"Calcium, Ca",mg,--,--,201,41
"Iron, Fe",mg,--,--,0.79,0.16
"Sodium, Na",mg,--,--,113,23
Vitamins
"Vitamin C, total ascorbic acid",mg,--,--,24.1,4.9
"Vitamin A, IU",IU,--,--,854,174
Lipids
"Fatty acids, total saturated",g,--,--,3.977,0.810
"Fatty acids, total trans",g,--,--,0.000,0.000
"Cholesterol",mg,--,--,20,4
Amino Acids
Other
Ingredients
"MUSHROOM, SQUASH, ARUGULA, LEMON, BELL PEPPER, RED ONION, TOMATO, GOAT CHEESE (PASTEURIZED GOAT MILK, SALT, CHEESE CULTURE, VEGETABLE RENNET), SUNDRIED TOMATO PANKO (BREADCRUMBS (WHEAT FLOUR, SUGAR, YEAST, SALT), SAUCE (WATER, CANOLA OIL, DRIED TOMATOES, PARMESAN CHEESE (PASTEURIZED PART SKIM MILK, CHEESE CULTURES, SALT, ENZYMES), ONIONS, BASIL, GRANULATED GARLIC, GARLIC POWDER, SALT, BLACK PEPPER, XANTHAN GUM)), ROASTED TOMATOES (SEMI DRIED TOMATOES, SUNFLOWER OIL, SUGAR, SALT, GARLIC, OREGANO, LEMON JUICE), GARLIC." Date available: 10/12/2017 Date last updated by company: 10/12/2017
