Source: USDA Branded Food Products Database Release December 2017 Software v.3.8.6.4 2017-10-02
Report Run at: December 17, 2017 22:32 EST
"Nutrient data for: 45250686, GODIVA, BELGIUM CHOCOLATES, ASSORTED, UPC: 031290104499"
Food Group:  Branded Food Products Database
Common Name:

Nutrient,Unit,Data points,Std. Error,"3.0 PIECES = 39.0g",1Value per 100 g,
Proximates
"Energy",kcal,--,--,180,462
"Protein",g,--,--,2.00,5.13
"Total lipid (fat)",g,--,--,11.00,28.21
"Carbohydrate, by difference",g,--,--,21.00,53.85
"Fiber, total dietary",g,--,--,1.0,2.6
"Sugars, total",g,--,--,17.00,43.59
Minerals
"Calcium, Ca",mg,--,--,40,103
"Iron, Fe",mg,--,--,1.85,4.74
"Sodium, Na",mg,--,--,50,128
Vitamins
"Vitamin C, total ascorbic acid",mg,--,--,0.0,0.0
"Vitamin A, IU",IU,--,--,128,328
Lipids
"Fatty acids, total saturated",g,--,--,7.000,17.950
"Fatty acids, total trans",g,--,--,0.000,0.000
"Cholesterol",mg,--,--,10,26
Amino Acids
Other
Ingredients
"SWEETENED CONDENSED MILK, EVAPORATED MILK (VITAMIN D3), BUTTER (UNSALTED), SUGAR, BROWN SUGAR, HIGH FRUCTOSE CORN SYRUP, COCOA BUTTER, UNSWEETENED CHOCOLATE PROCESSED WITH ALKALI, CORN SYRUP, UNSWEETENED CHOCOLATE, MILK POWDER, INVERT SUGAR, HEAVY CREAM, SKIM MILK POWDER, NATURAL FLAVOR, BUTTER OIL, PARTIALLY HYDROGENATED PALM KERNEL OIL, SORBITOL, PALM OIL, PECANS, SKIM MILK, EMULSIFIER (SOY LECITHIN), BREAKFAST COCOA, CARAMEL, WATER, NATURAL FLAVOR (WALNUT), SALT, RICE STARCH STRAWBERRY POWDER, INVERTASE, NATURAL & ARTIFICIAL FLAVOR, BUTTER (SALTED), CORN STARCH ANTIOXIDANT (TOCOPHEROLS), BAKING SODA, CHERRY JUICE CONCENTRATE, PRESERVATIVE (POTASSIUM SORBATE), MOLASSES, ALMONDS, VANILLA POWDER, GLYCEROL, ARTIFICIAL FLAVOR, CARAMEL COLOR, CITRIC ACID, MILK." Date available: 07/14/2017 Date last updated by company: 07/14/2017
