Source: USDA Branded Food Products Database Release December 2017 Software v.3.8.6.4 2017-10-02
Report Run at: December 17, 2017 22:31 EST
"Nutrient data for: 45250385, GODIVA, ASSORTED BELGIAN MILK CHOCOLATE, UPC: 031290107155"
Food Group:  Branded Food Products Database
Common Name:

Nutrient,Unit,Data points,Std. Error,"3.0 PIECES = 39.0g",1Value per 100 g,
Proximates
"Energy",kcal,--,--,200,513
"Protein",g,--,--,2.00,5.13
"Total lipid (fat)",g,--,--,12.00,30.77
"Carbohydrate, by difference",g,--,--,22.00,56.41
"Fiber, total dietary",g,--,--,2.0,5.1
"Sugars, total",g,--,--,18.00,46.15
Minerals
"Calcium, Ca",mg,--,--,60,154
"Iron, Fe",mg,--,--,1.38,3.55
"Sodium, Na",mg,--,--,25,64
Vitamins
"Vitamin C, total ascorbic acid",mg,--,--,0.0,0.0
"Vitamin A, IU",IU,--,--,128,328
Lipids
"Fatty acids, total saturated",g,--,--,7.000,17.950
"Fatty acids, total trans",g,--,--,0.000,0.000
"Cholesterol",mg,--,--,10,26
Amino Acids
Other
Ingredients
"SUGAR, SWEETENED CONDENSED MILK, BUTTER (UNSALTED), COCOA BUTTER, UNSWEETENED CHOCOLATE, MILK POWDER, SKIM MILK POWDER, CORN SYRUP, HAZELNUTS, SORBITOL, PALM OIL, HEAVY CREAM, BUTTER OIL, VEGETABLE OIL (PALM), UNSWEETENED CHOCOLATE PROCESSED WITH ALKALI, SKIM MILK, EMULSIFIER (SOY LECITHIN), CARAMEL, GLYCERIN, ROASTED ALMONDS, INVERTASE, BUTTER (SALTED), NATURAL FLAVOR, BAKING SODA, MOLASSES, ALMONDS, PRESERVATIVE." Date available: 07/14/2017 Date last updated by company: 07/14/2017
