Source: USDA Branded Food Products Database Release December 2017 Software v.3.8.6.4 2017-10-02
Report Run at: December 17, 2017 22:32 EST
"Nutrient data for: 45250388, GODIVA, ASSORTED TRUFFLES & CARAMELS, UPC: 031290105281"
Food Group:  Branded Food Products Database
Common Name:

Nutrient,Unit,Data points,Std. Error,"4.0 PIECES = 39.0g",1Value per 100 g,
Proximates
"Energy",kcal,--,--,180,462
"Protein",g,--,--,2.00,5.13
"Total lipid (fat)",g,--,--,11.00,28.21
"Carbohydrate, by difference",g,--,--,20.00,51.28
"Fiber, total dietary",g,--,--,1.0,2.6
"Sugars, total",g,--,--,16.00,41.03
Minerals
"Calcium, Ca",mg,--,--,40,103
"Iron, Fe",mg,--,--,1.38,3.55
"Sodium, Na",mg,--,--,50,128
Vitamins
"Vitamin C, total ascorbic acid",mg,--,--,0.0,0.0
"Vitamin A, IU",IU,--,--,128,328
Lipids
"Fatty acids, total saturated",g,--,--,7.000,17.950
"Fatty acids, total trans",g,--,--,0.000,0.000
"Cholesterol",mg,--,--,10,26
Amino Acids
Other
Ingredients
"SUGAR, HEAVY CREAM, COCOA BUTTER, UNSWEETENED CHOCOLATE PROCESSED WITH ALKALI, CORN SYRUP, SWEETENED CONDENSED MILK, MILK POWDER, INVERT SUGAR, UNSWEETENED CHOCOLATE, EVAPORATED MILK (VITAMIN D3), SKIM MILK POWDER, PARTIALLY HYDROGENATED PALM KERNEL OIL, BROWN SUGAR, HIGH FRUCTOSE CORN SYRUP, BUTTER (UNSALTED), SORBITOL, SKIM MILK, BUTTER OIL (MILK), VEGETABLE OIL (PALM KERNEL), EMULSIFIER (SOY LECITHIN), WATER, NATURAL FLAVOR, SALT, VEGETABLE OIL (PALM), VANILLA POWDER, CORN STARCH." Date available: 07/14/2017 Date last updated by company: 07/14/2017
