Source: USDA Branded Food Products Database Release December 2017 Software v.3.8.6.4 2017-10-02
Report Run at: December 17, 2017 22:34 EST
"Nutrient data for: 45053342, GOETZE'S CARAMEL CREAMS, UPC: 041497499038"
Food Group:  Branded Food Products Database
Common Name:

Nutrient,Unit,Data points,Std. Error,"3.0 PIECES, PER CONTAINER ABOUT = 34.0g",1Value per 100 g,
Proximates
"Energy",kcal,--,--,130,382
"Protein",g,--,--,2.00,5.88
"Total lipid (fat)",g,--,--,3.00,8.82
"Carbohydrate, by difference",g,--,--,23.00,67.65
"Fiber, total dietary",g,--,--,1.0,2.9
"Sugars, total",g,--,--,13.00,38.24
Minerals
"Calcium, Ca",mg,--,--,20,59
"Sodium, Na",mg,--,--,50,147
Vitamins
"Vitamin A, IU",IU,--,--,147,432
Lipids
"Fatty acids, total saturated",g,--,--,1.000,2.940
"Fatty acids, total trans",g,--,--,0.500,1.470
Amino Acids
Other
Ingredients
"WHEAT FLOUR, CORN SYRUP, DEXTROSE, SUGAR, PARTIALLY HYDROGENATED SOYBEAN OIL, HIGH FRUCTOSE CORN SYRUP, MODIFIED WHEY, SKIM MILK, CREAM, MONO AND DIGLYCERIDES, SALT, SOY LECITHIN, CORNSTARCH AND ARTIFICIAL FLAVORS." Date available: 10/04/2017 Date last updated by company: 10/04/2017
