Source: USDA Branded Food Products Database Release December 2017 Software v.3.8.6.4 2017-10-02
Report Run at: December 17, 2017 22:35 EST
"Nutrient data for: 45260404, GOLAZO, CAFFEINATED ELECTROLYTE ENERGY DRINK, MANDARIN, UPC: 859472002193"
Food Group:  Branded Food Products Database
Common Name:

Nutrient,Unit,Data points,Std. Error,"1 CAN = 355.0g",1Value per 100 g,
Proximates
"Energy",kcal,--,--,11,3
"Protein",g,--,--,0.00,0.00
"Total lipid (fat)",g,--,--,0.00,0.00
"Carbohydrate, by difference",g,--,--,6.00,1.69
Minerals
"Potassium, K",mg,--,--,60,17
"Sodium, Na",mg,--,--,64,18
Vitamins
Lipids
Amino Acids
Other
Ingredients
"CARBONATED WATER, ERYTHRITOL*, CITRIC ACID, NATURAL FLAVOR, SODIUM CITRATE, STEVIA REBAUDIANA LEAF EXTRACT*, POTASSIUM CITRATE, CAFFEINE*, YERBA MATE (ILEX PARAGUARIENSIS LEAF EXTRACTIVES)." Date available: 06/25/2017 Date last updated by company: 06/25/2017
