Source: USDA Branded Food Products Database Release December 2017 Software v.3.8.6.4 2017-10-02
Report Run at: December 17, 2017 22:58 EST
"Nutrient data for: 45272709, GOLDEN VANILLA CAKE MIX, UPC: 071012104345"
Food Group:  Branded Food Products Database
Common Name:

Nutrient,Unit,Data points,Std. Error,"0.333 cup = 49.0g",1Value per 100 g,
Proximates
"Energy",kcal,--,--,170,347
"Protein",g,--,--,2.00,4.08
"Total lipid (fat)",g,--,--,0.00,0.00
"Carbohydrate, by difference",g,--,--,43.00,87.76
"Fiber, total dietary",g,--,--,3.0,6.1
"Sugars, total",g,--,--,24.00,48.98
Minerals
"Calcium, Ca",mg,--,--,0,0
"Iron, Fe",mg,--,--,0.88,1.80
"Sodium, Na",mg,--,--,240,490
Vitamins
"Vitamin C, total ascorbic acid",mg,--,--,0.0,0.0
"Thiamin",mg,--,--,0.000,0.000
"Riboflavin",mg,--,--,0.055,0.113
"Niacin",mg,--,--,0.980,2.000
"Vitamin A, IU",IU,--,--,0,0
Lipids
"Fatty acids, total saturated",g,--,--,0.000,0.000
"Fatty acids, total trans",g,--,--,0.000,0.000
"Cholesterol",mg,--,--,0,0
Amino Acids
Other
Ingredients
"CANE SUGAR, KING ARTHUR UNBLEACHED ENRICHED FLOUR (WHEAT FLOUR, MALTED BARLEY FLOUR, NIACIN, REDUCED IRON, THIAMIN MONONITRATE, RIBOFLAVIN, FOLIC ACID), RESISTANT CORNSTARCH, BAKING POWDER (SODIUM ACID PYROPHOSPHATE, BAKING SODA, CORNSTARCH, MONOCALCIUM PHOSPHATE), NATURAL FLAVORS, SALT." Date available: 07/14/2017 Date last updated by company: 07/14/2017
