Source: USDA Branded Food Products Database Release December 2017 Software v.3.8.6.4 2017-10-02
Report Run at: December 17, 2017 22:58 EST
"Nutrient data for: 45216208, GOLDEN WHOLE KERNEL CORN, UPC: 030034026868"
Food Group:  Branded Food Products Database
Common Name:

Nutrient,Unit,Data points,Std. Error,"0.5 cup = 125.0g",1Value per 100 g,
Proximates
"Energy",kcal,--,--,80,64
"Protein",g,--,--,2.00,1.60
"Total lipid (fat)",g,--,--,1.00,0.80
"Carbohydrate, by difference",g,--,--,17.00,13.60
"Fiber, total dietary",g,--,--,2.0,1.6
"Sugars, total",g,--,--,6.00,4.80
Minerals
"Calcium, Ca",mg,--,--,0,0
"Iron, Fe",mg,--,--,0.38,0.30
"Sodium, Na",mg,--,--,300,240
Vitamins
"Vitamin C, total ascorbic acid",mg,--,--,3.8,3.0
"Vitamin A, IU",IU,--,--,0,0
Lipids
"Fatty acids, total saturated",g,--,--,0.000,0.000
"Fatty acids, total trans",g,--,--,0.000,0.000
"Cholesterol",mg,--,--,0,0
Amino Acids
Other
Ingredients
"CORN, WATER, SUGAR, SALT." Date available: 07/14/2017 Date last updated by company: 07/14/2017
