Source: USDA Branded Food Products Database Release December 2017 Software v.3.8.6.4 2017-10-02
Report Run at: December 17, 2017 22:38 EST
"Nutrient data for: 45155975, GOLD EMBLEM, CARAMEL & SEA SALT TRUFFLES, UPC: 050428501153"
Food Group:  Branded Food Products Database
Common Name:

Nutrient,Unit,Data points,Std. Error,"1.76 ONZ = 50.0g",1Value per 100 g,
Proximates
"Energy",kcal,--,--,240,480
"Protein",g,--,--,1.00,2.00
"Total lipid (fat)",g,--,--,13.00,26.00
"Carbohydrate, by difference",g,--,--,32.00,64.00
"Fiber, total dietary",g,--,--,1.0,2.0
"Sugars, total",g,--,--,25.00,50.00
Minerals
"Calcium, Ca",mg,--,--,20,40
"Iron, Fe",mg,--,--,1.44,2.88
"Sodium, Na",mg,--,--,75,150
Vitamins
"Vitamin C, total ascorbic acid",mg,--,--,0.0,0.0
"Vitamin A, IU",IU,--,--,0,0
Lipids
"Fatty acids, total saturated",g,--,--,8.000,16.000
"Fatty acids, total trans",g,--,--,0.000,0.000
"Cholesterol",mg,--,--,4,8
Amino Acids
Other
Ingredients
"CHOCOLATE (SUGAR, COCOA BUTTER, WHOLE MILK POWDER, UNSWEETENED CHOCOLATE [PROCESSED WITH ALKALI], SOY LECITHIN [AN EMULSIFIER], VANILLA EXTRACT), SEA SALT CARAMEL FILLING (GLUCOSE, SWEETENED CONDENSED MILK, SUGAR, COCONUT OIL, WATER, BROWN SUGAR, SORBITOL, SALT, SOY LECITHIN [AN EMULSIFIER], POTASSIUM SORBATE, ARTIFICIAL VANILLA FLAVOR, CARAMEL COLOR [SULPHITES] AND COLOR YELLOW 5 LAKE)." Date available: 07/14/2017 Date last updated by company: 07/14/2017
