Source: USDA Branded Food Products Database Release December 2017 Software v.3.8.6.4 2017-10-02
Report Run at: December 17, 2017 22:36 EST
"Nutrient data for: 45109057, GOLD EMBLEM, ABOUND, BREAKFAST BISCUITS, BLUEBERRY, UPC: 050428508589"
Food Group:  Branded Food Products Database
Common Name:

Nutrient,Unit,Data points,Std. Error,"4.0 BISCUITS = 50.0g",1Value per 100 g,
Proximates
"Energy",kcal,--,--,230,460
"Protein",g,--,--,4.00,8.00
"Total lipid (fat)",g,--,--,8.00,16.00
"Carbohydrate, by difference",g,--,--,35.00,70.00
"Fiber, total dietary",g,--,--,3.0,6.0
"Sugars, total",g,--,--,12.00,24.00
Minerals
"Calcium, Ca",mg,--,--,0,0
"Iron, Fe",mg,--,--,1.80,3.60
"Sodium, Na",mg,--,--,140,280
Vitamins
"Vitamin C, total ascorbic acid",mg,--,--,0.0,0.0
"Thiamin",mg,--,--,0.000,0.000
"Riboflavin",mg,--,--,0.170,0.340
"Niacin",mg,--,--,2.000,4.000
"Vitamin B-6",mg,--,--,0.200,0.400
"Vitamin A, IU",IU,--,--,0,0
Lipids
"Fatty acids, total saturated",g,--,--,0.500,1.000
"Fatty acids, total monounsaturated",g,--,--,5.000,10.000
"Fatty acids, total polyunsaturated",g,--,--,2.500,5.000
"Fatty acids, total trans",g,--,--,0.000,0.000
"Cholesterol",mg,--,--,0,0
Amino Acids
Other
Ingredients
"SUGAR, ENRICHED FLOUR (WHEAT FLOUR, NIACIN, REDUCED IRON, THIAMINE MONONITRATE, RIBOFLAVIN, FOLIC ACID), WHOLE ROLLED OATS, CANOLA AND/OR SOYBEAN OIL, WHOLE ROLLED RYE, WHOLE WHEAT FLOUR, DEHYDRATED BLUEBERRIES (BLUEBERRIES, SUGAR, SUNFLOWER OIL), DRY MALT (MALTED BARLEY FLOUR, DEXTROSE, WHEAT FLOUR), WHEY PROTEIN ISOLATE (FROM MILK), SODIUM BICARBONATE, SOY LECITHIN (AN EMULSIFIER), SALT, CITRIC ACID, ASCORBIC ACID, ROSEMARY EXTRACT, NATURAL FLAVOR, VITAMINS AND MINERALS (THIAMINE MONONITRATE [VITAMIN B-1], NIACINAMIDE [VITAMIN B-3], FERRIC ORTHOPHOSPHATE [IRON], PYRIDOXINE HYDROCHLORIDE [VITAMIN B-6], RIBOFLAVIN [VITAMIN B-2])." Date available: 06/25/2017 Date last updated by company: 06/25/2017
