Source: USDA Branded Food Products Database Release December 2017 Software v.3.8.6.4 2017-10-02
Report Run at: December 17, 2017 22:57 EST
"Nutrient data for: 45044308, GOLDEN TASTE, CUCUMBER SALAD, UPC: 758259771072"
Food Group:  Branded Food Products Database
Common Name:

Nutrient,Unit,Data points,Std. Error,"3.0 ONZ = 85.0g",1Value per 100 g,
Proximates
"Energy",kcal,--,--,45,53
"Protein",g,--,--,0.00,0.00
"Total lipid (fat)",g,--,--,0.00,0.00
"Carbohydrate, by difference",g,--,--,11.00,12.94
"Fiber, total dietary",g,--,--,0.0,0.0
"Sugars, total",g,--,--,10.00,11.76
Minerals
"Calcium, Ca",mg,--,--,20,24
"Iron, Fe",mg,--,--,0.00,0.00
"Sodium, Na",mg,--,--,300,353
Vitamins
"Vitamin C, total ascorbic acid",mg,--,--,4.0,4.7
"Vitamin A, IU",IU,--,--,0,0
Lipids
"Fatty acids, total saturated",g,--,--,0.000,0.000
"Fatty acids, total trans",g,--,--,0.000,0.000
"Cholesterol",mg,--,--,0,0
Amino Acids
Other
Ingredients
"CUCUMBERS, ONIONS, WATER, VINEGAR, SUGAR, RED PEPPERS, SALT, CITRIC ACID, SPICES, YELLOW #5 & BLUE #1" Date available: 06/24/2017 Date last updated by company: 06/24/2017
