Source: USDA Branded Food Products Database Release December 2017 Software v.3.8.6.4 2017-10-02
Report Run at: December 17, 2017 22:36 EST
"Nutrient data for: 45332081, GOLD EMBLEM, ABOUND, INSTANT OATMEAL, MAPLE & BROWN SUAGR, UPC: 050428496374"
Food Group:  Branded Food Products Database
Common Name:

Nutrient,Unit,Data points,Std. Error,"1 PACKET = 43.0g",1Value per 100 g,
Proximates
"Energy",kcal,--,--,160,372
"Protein",g,--,--,10.00,23.26
"Total lipid (fat)",g,--,--,2.00,4.65
"Carbohydrate, by difference",g,--,--,26.00,60.47
"Fiber, total dietary",g,--,--,5.0,11.6
"Sugars, total",g,--,--,6.00,13.95
Minerals
"Calcium, Ca",mg,--,--,100,233
"Iron, Fe",mg,--,--,4.61,10.71
"Magnesium, Mg",mg,--,--,41,95
"Phosphorus, P",mg,--,--,128,297
"Sodium, Na",mg,--,--,240,558
Vitamins
"Vitamin C, total ascorbic acid",mg,--,--,0.0,0.0
"Thiamin",mg,--,--,0.430,1.000
"Riboflavin",mg,--,--,0.340,0.791
"Niacin",mg,--,--,5.116,11.898
"Vitamin B-6",mg,--,--,0.512,1.190
"Vitamin A, IU",IU,--,--,1279,2974
Lipids
"Fatty acids, total saturated",g,--,--,0.000,0.000
"Fatty acids, total monounsaturated",g,--,--,1.002,2.330
"Fatty acids, total polyunsaturated",g,--,--,1.002,2.330
"Fatty acids, total trans",g,--,--,0.000,0.000
"Cholesterol",mg,--,--,0,0
Amino Acids
Other
Ingredients
"WHOLE GRAIN ROLLED OATS, SOY PROTEIN ISOLATE, SUGAR, RESISTANT MALTODEXTRIN, NATURAL FLAVOR, SALT, CALCIUM CARBONATE, SOY LECITHIN, GUAR GUM, CARAMEL COLOR, SUCRALOSE, FERRIC PHOSPHATE (A SOURCE OF IRON), NIACINAMIDE*, PYRIDOXINE HYDROCHLORIDE (VITAMIN B6)*, RIBOFLAVIN*, VITAMIN A PALMITATE, THIAMIN MONONITRATE*, FOLIC ACID*." Date available: 09/22/2017 Date last updated by company: 09/22/2017
