Source: USDA Branded Food Products Database Release December 2017 Software v.3.8.6.4 2017-10-02
Report Run at: December 17, 2017 23:00 EST
"Nutrient data for: 45026630, GOLD'S, BARBECUE SAUCE, UPC: 041740001414"
Food Group:  Branded Food Products Database
Common Name:

Nutrient,Unit,Data points,Std. Error,"2.0 Tbsp = 31.0g",1Value per 100 g,
Proximates
"Energy",kcal,--,--,50,161
"Protein",g,--,--,0.00,0.00
"Total lipid (fat)",g,--,--,0.00,0.00
"Carbohydrate, by difference",g,--,--,13.00,41.94
"Fiber, total dietary",g,--,--,1.0,3.2
"Sugars, total",g,--,--,11.00,35.48
Minerals
"Calcium, Ca",mg,--,--,20,65
"Iron, Fe",mg,--,--,0.61,1.96
"Sodium, Na",mg,--,--,270,871
Vitamins
"Vitamin C, total ascorbic acid",mg,--,--,2.0,6.5
"Vitamin A, IU",IU,--,--,338,1090
Lipids
"Fatty acids, total saturated",g,--,--,0.000,0.000
"Fatty acids, total trans",g,--,--,0.000,0.000
"Cholesterol",mg,--,--,0,0
Amino Acids
Other
Ingredients
"TOMATO PUREE, SUGAR MOLASSES, HONEY, SPICES, SALT, PASSOVER VINEGAR, ONION POWDER, GARLIC POWDER, NATURAL SMOKE FLAVOR, AND CITRIC ACID." Date available: 07/14/2017 Date last updated by company: 07/14/2017
