Source: USDA Branded Food Products Database Release December 2017 Software v.3.8.6.4 2017-10-02
Report Run at: December 17, 2017 22:48 EST
"Nutrient data for: 45258336, GOLDEN FISHLESS FILETS, UPC: 842234002098"
Food Group:  Branded Food Products Database
Common Name:

Nutrient,Unit,Data points,Std. Error,"2.0 PIECES = 96.0g",1Value per 100 g,
Proximates
"Energy",kcal,--,--,180,188
"Protein",g,--,--,9.00,9.38
"Total lipid (fat)",g,--,--,10.00,10.42
"Carbohydrate, by difference",g,--,--,14.00,14.58
"Fiber, total dietary",g,--,--,3.0,3.1
"Sugars, total",g,--,--,0.00,0.00
Minerals
"Calcium, Ca",mg,--,--,40,42
"Iron, Fe",mg,--,--,0.96,1.00
"Sodium, Na",mg,--,--,340,354
Vitamins
"Vitamin C, total ascorbic acid",mg,--,--,0.0,0.0
"Vitamin A, IU",IU,--,--,0,0
Lipids
"Fatty acids, total saturated",g,--,--,0.499,0.520
"Fatty acids, total monounsaturated",g,--,--,6.000,6.250
"Fatty acids, total polyunsaturated",g,--,--,2.995,3.120
"Fatty acids, total trans",g,--,--,0.000,0.000
"Cholesterol",mg,--,--,0,0
Amino Acids
Other
Ingredients
"GARDEIN TRADEMARKS : WATER, SOY PROTEIN CONCENTRATE*, EXPELLER PRESSED CANOLA OIL*, POTATO STARCH, MODIFIED VEGETABLE GUM, SOY PROTEIN ISOLATE*, VITAL WHEAT GLUTEN*, SEA SALT, NATURAL FLAVORS (FROM PLANT SOURCES), YEAST EXTRACT, ORGANIC CANE SUGAR, CITRIC ACID, COLOR ADDED, ALGAL OIL [PLANT SOURCE OF OMEGA-3 DHA AND EPA], ONION POWDER, PEA PROTEIN, CARROT FIBER, PAPRIKA AND TURMERIC EXTRACTS, ROSEMARY EXTRACT. BREADING: WATER, WHEAT FLOUR*, MODIFIED CORN STARCH, TAPIOCA STARCH, YELLOW CORN FLOUR, ONION POWDER, SALT, GARLIC POWDER, WHEAT GLUTEN*, BAKING POWDER, CANOLA OIL, SOY FLOUR, SPICES, PAPRIKA, CITRIC ACID, TURMERIC, XANTHAN GUM." Date available: 07/14/2017 Date last updated by company: 07/14/2017
