Source: USDA Branded Food Products Database Release December 2017 Software v.3.8.6.4 2017-10-02
Report Run at: December 17, 2017 22:54 EST
"Nutrient data for: 45174920, GOLDEN RAISINS, UPC: 052851664757"
Food Group:  Branded Food Products Database
Common Name:

Nutrient,Unit,Data points,Std. Error,"1 ONZ = 28.0g",1Value per 100 g,
Proximates
"Energy",kcal,--,--,84,300
"Protein",g,--,--,1.00,3.57
"Total lipid (fat)",g,--,--,0.00,0.00
"Carbohydrate, by difference",g,--,--,22.00,78.57
"Fiber, total dietary",g,--,--,1.0,3.6
"Sugars, total",g,--,--,17.00,60.71
Minerals
"Calcium, Ca",mg,--,--,10,36
"Iron, Fe",mg,--,--,0.77,2.76
"Sodium, Na",mg,--,--,3,11
Vitamins
"Vitamin C, total ascorbic acid",mg,--,--,0.9,3.1
"Vitamin A, IU",IU,--,--,0,0
Lipids
"Fatty acids, total saturated",g,--,--,0.000,0.000
"Fatty acids, total trans",g,--,--,0.000,0.000
"Cholesterol",mg,--,--,0,0
Amino Acids
Other
Ingredients
"DRIED RAISINS, SUNFLOWER OIL." Date available: 07/14/2017 Date last updated by company: 07/14/2017
