Source: USDA Branded Food Products Database Release December 2017 Software v.3.8.6.4 2017-10-02
Report Run at: December 17, 2017 22:40 EST
"Nutrient data for: 45164259, GOLD EMBLEM, HARD CANDIES, ASSORTED FRUIT, UPC: 050428353943"
Food Group:  Branded Food Products Database
Common Name:

Nutrient,Unit,Data points,Std. Error,"4.0 PIECES = 15.0g",1Value per 100 g,
Proximates
"Energy",kcal,--,--,45,300
"Protein",g,--,--,0.00,0.00
"Total lipid (fat)",g,--,--,0.00,0.00
"Carbohydrate, by difference",g,--,--,15.00,100.00
"Fiber, total dietary",g,--,--,0.0,0.0
"Sugars, total",g,--,--,0.00,0.00
Minerals
"Calcium, Ca",mg,--,--,0,0
"Iron, Fe",mg,--,--,0.00,0.00
"Sodium, Na",mg,--,--,0,0
Vitamins
"Vitamin C, total ascorbic acid",mg,--,--,0.0,0.0
"Vitamin A, IU",IU,--,--,0,0
Lipids
"Fatty acids, total saturated",g,--,--,0.000,0.000
"Fatty acids, total trans",g,--,--,0.000,0.000
"Cholesterol",mg,--,--,0,0
Amino Acids
Other
Ingredients
"POLYGLYCITOL SYRUP, CITRIC ACID, MALIC ACID, NATURAL AND ARTIFICIAL FLAVORS (CHERRY FLAVOR, LIME FLAVOR, PINEAPPLE FLAVOR, ORANGE FLAVOR), LEMON OIL, COLOR (MAY INCLUDE ARTIFICIAL COLORS YELLOW 5, BLUE 1, YELLOW 6, RED 40, BP-30/BEET POWDER, ANNATTO, YELLOW RIBOFLAVIN), SUCRALOSE." Date available: 07/14/2017 Date last updated by company: 07/14/2017
