Source: USDA Branded Food Products Database Release December 2017 Software v.3.8.6.4 2017-10-02
Report Run at: December 17, 2017 23:02 EST
"Nutrient data for: 45020591, GOLDWATER'S, RIO VERDE TOMATILLO SALSA, UPC: 099964223532"
Food Group:  Branded Food Products Database
Common Name:

Nutrient,Unit,Data points,Std. Error,"2.0 Tbsp = 29.5g",1Value per 100 g,
Proximates
"Energy",kcal,--,--,10,34
"Protein",g,--,--,0.00,0.00
"Total lipid (fat)",g,--,--,0.00,0.00
"Carbohydrate, by difference",g,--,--,2.00,6.78
"Sugars, total",g,--,--,2.00,6.78
Minerals
"Sodium, Na",mg,--,--,180,610
Vitamins
"Vitamin C, total ascorbic acid",mg,--,--,0.0,0.0
"Vitamin A, IU",IU,--,--,0,0
Lipids
"Fatty acids, total trans",g,--,--,0.000,0.000
Amino Acids
Other
Ingredients
"TOMATILLOS, GREEN CHILES, RED BELL PEPPERS, FRESH ONIONS, CARROTS, APPLE JUICE CONCENTRATE, GREEN ONIONS, JALAPENO CHILES, CIDER VINEGAR, SEA SALT, FRESH GARLIC, SPICES." Date available: 06/25/2017 Date last updated by company: 06/25/2017
