Source: USDA Branded Food Products Database Release December 2017 Software v.3.8.6.4 2017-10-02
Report Run at: December 17, 2017 22:56 EST
"Nutrient data for: 45330971, GOLDEN STRAIGHT CUT FRENCH FRIED POTATOES, UPC: 030034912529"
Food Group:  Branded Food Products Database
Common Name:

Nutrient,Unit,Data points,Std. Error,"15.0 PIECES = 84.0g",1Value per 100 g,
Proximates
"Energy",kcal,--,--,130,155
"Protein",g,--,--,2.00,2.38
"Total lipid (fat)",g,--,--,4.00,4.76
"Carbohydrate, by difference",g,--,--,21.00,25.00
"Fiber, total dietary",g,--,--,2.0,2.4
"Sugars, total",g,--,--,1.00,1.19
Minerals
"Calcium, Ca",mg,--,--,10,12
"Iron, Fe",mg,--,--,0.40,0.48
"Potassium, K",mg,--,--,360,429
"Sodium, Na",mg,--,--,280,333
Vitamins
"Vitamin D",IU,--,--,0,0
Lipids
"Fatty acids, total saturated",g,--,--,1.000,1.190
"Fatty acids, total trans",g,--,--,0.000,0.000
"Cholesterol",mg,--,--,0,0
Amino Acids
Other
Ingredients
"POTATOES, VEGETABLE OIL (CONTAINS ONE OR MORE OF THE FOLLOWING: CANOLA, PALM, SOYBEAN, SUNFLOWER), SALT, DISODIUM DIHYDROGEN PYROPHOSPHATE (TO PROMOTE COLOR RETENTION), COLORING (CARAMEL, ANNATTO, TURMERIC), DEXTROSE." Date available: 10/13/2017 Date last updated by company: 10/13/2017
