Source: USDA Branded Food Products Database Release December 2017 Software v.3.8.6.4 2017-10-02
Report Run at: December 17, 2017 22:56 EST
"Nutrient data for: 45200784, GOLDEN STATE BARBECUE SAUCE, UPC: 731371190853"
Food Group:  Branded Food Products Database
Common Name:

Nutrient,Unit,Data points,Std. Error,"2.0 Tbsp = 35.0g",1Value per 100 g,
Proximates
"Energy",kcal,--,--,60,171
"Carbohydrate, by difference",g,--,--,15.00,42.86
"Sugars, total",g,--,--,13.00,37.14
Minerals
"Sodium, Na",mg,--,--,410,1171
Vitamins
"Vitamin C, total ascorbic acid",mg,--,--,2.0,5.8
"Vitamin A, IU",IU,--,--,169,483
Lipids
Amino Acids
Other
Ingredients
"ORGANIC TOMATO PUREE (WATER, ORGANIC TOMATO PASTE), ORGANIC MOLASSES, ORGANIC EVAPORATED CANE JUICE, ORGANIC VINEGAR, SALT, ORGANIC CORN STARCH, ORGANIC SPICES, NATURAL SMOKE FLAVOR, ORGANIC ONION POWDER, ORGANIC GARLIC POWDER, ORGANIC RED PEPPER, ORGANIC CARAMEL, ORGANIC BUTTER FLAVOR (ORGANIC MALTODEXTRIN, ORGANIC NATURAL BUTTER FLAVOR, NATURAL FLAVOR)." Date available: 10/19/2017 Date last updated by company: 10/19/2017
