Source: USDA Branded Food Products Database Release December 2017 Software v.3.8.6.4 2017-10-02
Report Run at: December 17, 2017 22:51 EST
"Nutrient data for: 45089972, GOLDEN ISLAND, PORK JERKY, SRIRACHA, UPC: 010082550034"
Food Group:  Branded Food Products Database
Common Name:

Nutrient,Unit,Data points,Std. Error,"1 ONZ = 28.0g",1Value per 100 g,
Proximates
"Energy",kcal,--,--,100,357
"Protein",g,--,--,10.00,35.71
"Total lipid (fat)",g,--,--,2.50,8.93
"Carbohydrate, by difference",g,--,--,8.00,28.57
"Fiber, total dietary",g,--,--,0.0,0.0
"Sugars, total",g,--,--,8.00,28.57
Minerals
"Calcium, Ca",mg,--,--,0,0
"Iron, Fe",mg,--,--,1.29,4.59
"Sodium, Na",mg,--,--,410,1464
Vitamins
"Vitamin C, total ascorbic acid",mg,--,--,0.0,0.0
"Vitamin A, IU",IU,--,--,0,0
Lipids
"Fatty acids, total saturated",g,--,--,1.000,3.570
"Fatty acids, total trans",g,--,--,0.000,0.000
"Cholesterol",mg,--,--,30,107
Amino Acids
Other
Ingredients
"PORK, WATER, BROWN SUGAR, GLUTEN FREE SOY SAUCE (WATER, ORGANIC SOYBEANS, SALT), SALT, CHILI PEPPER, SRIRACHA SEASONING [SPICES (INCLUDING CHILI), GARLIC POWDER, CORN STARCH, MALTODEXTRIN, SEA SALT, SUGAR, VINEGAR, ONION POWDER), CONTAINS 2% OR LESS OF CHILI POWDER, SPICES." Date available: 07/14/2017 Date last updated by company: 07/14/2017
