Source: USDA Branded Food Products Database Release December 2017 Software v.3.8.6.4 2017-10-02
Report Run at: December 17, 2017 22:43 EST
"Nutrient data for: 45175005, GOLDEN BOY, APPLE RINGS, UPC: 064684530925"
Food Group:  Branded Food Products Database
Common Name:

Nutrient,Unit,Data points,Std. Error,"4.0 PIECES = 30.0g",1Value per 100 g,
Proximates
"Energy",kcal,--,--,70,233
"Protein",g,--,--,0.00,0.00
"Total lipid (fat)",g,--,--,0.00,0.00
"Carbohydrate, by difference",g,--,--,20.00,66.67
"Fiber, total dietary",g,--,--,3.0,10.0
"Sugars, total",g,--,--,17.00,56.67
Minerals
"Calcium, Ca",mg,--,--,0,0
"Iron, Fe",mg,--,--,0.48,1.60
"Sodium, Na",mg,--,--,25,83
Vitamins
"Vitamin C, total ascorbic acid",mg,--,--,1.6,5.3
"Vitamin A, IU",IU,--,--,0,0
Lipids
"Fatty acids, total saturated",g,--,--,0.000,0.000
"Fatty acids, total trans",g,--,--,0.000,0.000
"Cholesterol",mg,--,--,0,0
Amino Acids
Other
Ingredients
"APPLES, SULPHUR DIOXIDE" Date available: 07/14/2017 Date last updated by company: 07/14/2017
