Source: USDA Branded Food Products Database Release December 2017 Software v.3.8.6.4 2017-10-02
Report Run at: December 17, 2017 22:44 EST
"Nutrient data for: 45175002, GOLDEN BOY, DELUXE FRUIT MIX, UPC: 064684530901"
Food Group:  Branded Food Products Database
Common Name:

Nutrient,Unit,Data points,Std. Error,"0.25 cup = 30.0g",1Value per 100 g,
Proximates
"Energy",kcal,--,--,80,267
"Protein",g,--,--,1.00,3.33
"Total lipid (fat)",g,--,--,0.00,0.00
"Carbohydrate, by difference",g,--,--,21.00,70.00
"Fiber, total dietary",g,--,--,1.0,3.3
"Sugars, total",g,--,--,11.00,36.67
Minerals
"Calcium, Ca",mg,--,--,20,67
"Iron, Fe",mg,--,--,0.96,3.20
"Sodium, Na",mg,--,--,0,0
Vitamins
"Vitamin C, total ascorbic acid",mg,--,--,1.6,5.3
"Vitamin A, IU",IU,--,--,1334,4445
Lipids
"Fatty acids, total saturated",g,--,--,0.000,0.000
"Fatty acids, total trans",g,--,--,0.000,0.000
"Cholesterol",mg,--,--,0,0
Amino Acids
Other
Ingredients
"PITTED PRUNES (PRUNES, SUNFLOWER SEED OIL, AND POTASSIUM SORBATE), APRICOTS (APRICOTS, SULPHITE), PEACHES (PEACHES, SULPHITE), PEARS (PEARS, SULPHITE), AND APPLE RINGS (APPLE RINGS, SULPHITE)." Date available: 07/14/2017 Date last updated by company: 07/14/2017
