Source: USDA Branded Food Products Database Release December 2017 Software v.3.8.6.4 2017-10-02
Report Run at: December 17, 2017 22:42 EST
"Nutrient data for: 45249186, GOLD EMBLEM, SMARTIES, CLASSIC CANDY, UPC: 050428509968"
Food Group:  Branded Food Products Database
Common Name:

Nutrient,Unit,Data points,Std. Error,"1 ROLL = 7.0g",1Value per 100 g,
Proximates
"Energy",kcal,--,--,25,357
"Protein",g,--,--,0.00,0.00
"Total lipid (fat)",g,--,--,0.00,0.00
"Carbohydrate, by difference",g,--,--,6.00,85.71
"Fiber, total dietary",g,--,--,0.0,0.0
"Sugars, total",g,--,--,6.00,85.71
Minerals
"Sodium, Na",mg,--,--,0,0
Vitamins
Lipids
"Fatty acids, total saturated",g,--,--,0.000,0.000
"Fatty acids, total trans",g,--,--,0.000,0.000
"Cholesterol",mg,--,--,0,0
Amino Acids
Other
Ingredients
"DEXTROSE, CITRIC ACID, CALCIUM STEARATE, NATURAL AND ARTIFICIAL FLAVORS, ARTIFICIAL COLORS RED 40 LAKE, YELLOW 5 LAKE, YELLOW 6 LAKE, BLUE 2 LAKE." Date available: 07/14/2017 Date last updated by company: 07/14/2017
