Source: USDA Branded Food Products Database Release December 2017 Software v.3.8.6.4 2017-10-02
Report Run at: December 17, 2017 22:36 EST
"Nutrient data for: 45109030, GOLD EMBLEM, ABOUND, FRUIT SNACK BARS, STRAWBERRY, UPC: 050428500064"
Food Group:  Branded Food Products Database
Common Name:

Nutrient,Unit,Data points,Std. Error,"1 BAR = 37.0g",1Value per 100 g,
Proximates
"Energy",kcal,--,--,120,324
"Protein",g,--,--,0.00,0.00
"Total lipid (fat)",g,--,--,0.00,0.00
"Carbohydrate, by difference",g,--,--,32.00,86.49
"Fiber, total dietary",g,--,--,2.0,5.4
"Sugars, total",g,--,--,29.00,78.38
Minerals
"Calcium, Ca",mg,--,--,0,0
"Iron, Fe",mg,--,--,0.00,0.00
"Sodium, Na",mg,--,--,15,41
Vitamins
"Vitamin C, total ascorbic acid",mg,--,--,1.6,4.4
"Vitamin A, IU",IU,--,--,0,0
Lipids
"Fatty acids, total saturated",g,--,--,0.000,0.000
"Fatty acids, total trans",g,--,--,0.000,0.000
"Cholesterol",mg,--,--,0,0
Amino Acids
Other
Ingredients
"APPLE PUREE CONCENTRATE, APPLE & PEAR & ELDERBERRY & STRAWBERRY & LEMON JUICE CONCENTRATES, CITRUS PECTIN, NATURAL FLAVOR, APPLE FIBER." Date available: 06/25/2017 Date last updated by company: 06/25/2017
