Source: USDA Branded Food Products Database Release December 2017 Software v.3.8.6.4 2017-10-02
Report Run at: December 17, 2017 22:59 EST
"Nutrient data for: 45321440, GOLD MEDAL SELF RISING FLOUR BL/EN/PS, UNPREPARED, GTIN: 00016000116108"
Food Group:  Branded Food Products Database
Common Name:

Nutrient,Unit,Data points,Std. Error,"0.25 cup (30g) = 30.0g",1Value per 100 g,
Proximates
"Energy",kcal,--,--,100,333
"Protein",g,--,--,3.00,10.00
"Total lipid (fat)",g,--,--,0.00,0.00
"Carbohydrate, by difference",g,--,--,23.00,76.67
"Fiber, total dietary",g,--,--,1.0,3.3
"Sugars, total",g,--,--,0.00,0.00
Minerals
"Calcium, Ca",mg,--,--,60,200
"Iron, Fe",mg,--,--,1.08,3.60
"Potassium, K",mg,--,--,35,117
"Sodium, Na",mg,--,--,400,1333
Vitamins
"Thiamin",mg,--,--,0.000,0.000
"Riboflavin",mg,--,--,0.102,0.340
"Vitamin A, IU",IU,--,--,0,0
Lipids
"Fatty acids, total saturated",g,--,--,0.000,0.000
"Fatty acids, total trans",g,--,--,0.000,0.000
"Cholesterol",mg,--,--,0,0
Amino Acids
Other
Ingredients
"BLEACHED WHEAT FLOUR, LEAVENING (BAKING SODA, SODIUM ALUMINUM PHOSPHATE, MONOCALCIUM PHOSPHATE), SALT, CALCIUM SULFATE, MALTED BARLEY FLOUR, NIACIN (A B VITAMIN), IRON, THIAMIN MONONITRATE (VITAMIN B1), RIBOFLAVIN (VITAMIN B2), FOLIC ACID (A B VITAMIN)." Date available: 10/20/2017 Date last updated by company: 10/20/2017
