Source: USDA Branded Food Products Database Release December 2017 Software v.3.8.6.4 2017-10-02
Report Run at: December 17, 2017 22:49 EST
"Nutrient data for: 45255584, GOLDEN FLAX MEAL, UPC: 850403000455"
Food Group:  Branded Food Products Database
Common Name:

Nutrient,Unit,Data points,Std. Error,"2.0 Tbsp = 13.0g",1Value per 100 g,
Proximates
"Energy",kcal,--,--,60,462
"Protein",g,--,--,3.00,23.08
"Total lipid (fat)",g,--,--,3.50,26.92
"Carbohydrate, by difference",g,--,--,5.00,38.46
"Fiber, total dietary",g,--,--,4.0,30.8
"Sugars, total",g,--,--,0.00,0.00
Minerals
"Calcium, Ca",mg,--,--,20,154
"Iron, Fe",mg,--,--,2.49,19.18
"Sodium, Na",mg,--,--,5,38
Vitamins
"Vitamin C, total ascorbic acid",mg,--,--,0.0,0.0
"Vitamin A, IU",IU,--,--,0,0
Lipids
"Fatty acids, total saturated",g,--,--,0.501,3.850
"Fatty acids, total trans",g,--,--,0.000,0.000
"Cholesterol",mg,--,--,0,0
Amino Acids
Other
Ingredients
"GROUND FLAXSEED." Date available: 07/14/2017 Date last updated by company: 07/14/2017
