Source: USDA Branded Food Products Database Release December 2017 Software v.3.8.6.4 2017-10-02
Report Run at: December 17, 2017 22:54 EST
"Nutrient data for: 45175008, GOLDEN RAISINS, UPC: 064777812662"
Food Group:  Branded Food Products Database
Common Name:

Nutrient,Unit,Data points,Std. Error,"0.25 cup = 40.0g",1Value per 100 g,
Proximates
"Energy",kcal,--,--,130,325
"Protein",g,--,--,1.00,2.50
"Total lipid (fat)",g,--,--,0.00,0.00
"Carbohydrate, by difference",g,--,--,32.00,80.00
"Fiber, total dietary",g,--,--,1.0,2.5
"Sugars, total",g,--,--,9.00,22.50
Minerals
"Calcium, Ca",mg,--,--,20,50
"Iron, Fe",mg,--,--,0.36,0.90
"Sodium, Na",mg,--,--,0,0
Vitamins
"Vitamin C, total ascorbic acid",mg,--,--,1.2,3.0
"Vitamin A, IU",IU,--,--,0,0
Lipids
"Fatty acids, total saturated",g,--,--,0.000,0.000
"Fatty acids, total trans",g,--,--,0.000,0.000
"Cholesterol",mg,--,--,0,0
Amino Acids
Other
Ingredients
"GOLDEN RAISINS, MODIFIED PALM OIL, SULFUR DIOXIDE (PRESERVATIVE)." Date available: 07/14/2017 Date last updated by company: 07/14/2017
