Source: USDA Branded Food Products Database Release December 2017 Software v.3.8.6.4 2017-10-02
Report Run at: December 17, 2017 22:55 EST
"Nutrient data for: 45088215, GOLDEN SPONGE CAKE WITH CHOCOLATE CREAMY FILLING, UPC: 888109110482"
Food Group:  Branded Food Products Database
Common Name:

Nutrient,Unit,Data points,Std. Error,"2.0 CAKES = 77.0g",1Value per 100 g,
Proximates
"Energy",kcal,--,--,250,325
"Protein",g,--,--,2.00,2.60
"Total lipid (fat)",g,--,--,6.00,7.79
"Carbohydrate, by difference",g,--,--,49.00,63.64
"Fiber, total dietary",g,--,--,1.0,1.3
"Sugars, total",g,--,--,35.00,45.45
Minerals
"Calcium, Ca",mg,--,--,20,26
"Iron, Fe",mg,--,--,1.02,1.33
"Sodium, Na",mg,--,--,360,468
Vitamins
"Vitamin C, total ascorbic acid",mg,--,--,0.0,0.0
"Vitamin A, IU",IU,--,--,0,0
Lipids
"Fatty acids, total saturated",g,--,--,2.502,3.250
"Fatty acids, total trans",g,--,--,0.000,0.000
"Cholesterol",mg,--,--,30,39
Amino Acids
Other
Ingredients
"ENRICHED BLEACHED WHEAT FLOUR [FLOUR, REDUCED IRON, ""B"" VITAMINS (NIACIN, THIAMINE MONONITRATE (B1), RIBOFLAVIN (B2), FOLIC ACID)], WATER, CORN SYRUP, SUGAR, HIGH FRUCTOSE CORN SYRUP, PARTIALLY HYDROGENATED VEGETABLE AND/OR ANIMAL SHORTENING (SOYBEAN, COTTONSEED AND/OR CANOLA OIL, BEEF FAT), MONO AND DIGLYCERIDES, POLYSORBATE 60, SOY LECITHIN, DEXTROSE, CORN STARCH, WHOLE EGGS, COCOA. CONTAINS 2% OR LESS OF: MODIFIED CORN STARCH, GLUCOSE, LEAVENINGS (SODIUM ACID, PYROPHOSPHATE, BAKING SODA, AND MONOCALCIUM PHOSPHATE), WHEY, GLYCERIN, SOYBEAN OIL, SALT, SORBIC ACID (TO RETAIN FRESHNESS), CELLULOSE GUM, SODIUM STEAROYL LACTYLATE, POTASSIUM SORBATE, XANTHAN GUM, NATURAL AND ARTIFICIAL FLAVOR, CALCIUM SULFATE, ENZYMES, YELLOW 5, RED 40." Date available: 06/24/2017 Date last updated by company: 06/24/2017
