Source: USDA Branded Food Products Database Release December 2017 Software v.3.8.6.4 2017-10-02
Report Run at: December 17, 2017 22:36 EST
"Nutrient data for: 45109049, GOLD EMBLEM, ABOUND, ORGANIC MIXED BERRY BLEND, UPC: 050428502570"
Food Group:  Branded Food Products Database
Common Name:

Nutrient,Unit,Data points,Std. Error,"0.25 cup = 40.0g",1Value per 100 g,
Proximates
"Energy",kcal,--,--,130,325
"Protein",g,--,--,1.00,2.50
"Total lipid (fat)",g,--,--,0.00,0.00
"Carbohydrate, by difference",g,--,--,33.00,82.50
"Fiber, total dietary",g,--,--,2.0,5.0
"Sugars, total",g,--,--,25.00,62.50
Minerals
"Calcium, Ca",mg,--,--,20,50
"Iron, Fe",mg,--,--,0.36,0.90
"Sodium, Na",mg,--,--,0,0
Vitamins
"Vitamin C, total ascorbic acid",mg,--,--,0.0,0.0
"Vitamin A, IU",IU,--,--,0,0
Lipids
"Fatty acids, total saturated",g,--,--,0.000,0.000
"Fatty acids, total monounsaturated",g,--,--,0.000,0.000
"Fatty acids, total polyunsaturated",g,--,--,0.000,0.000
"Fatty acids, total trans",g,--,--,0.000,0.000
"Cholesterol",mg,--,--,0,0
Amino Acids
Other
Ingredients
"ORGANIC CRANBERRIES (ORGANIC CRANBERRIES, ORGANIC DRIED CANE SYRUP, ORGANIC SUNFLOWER OIL*), ORGANIC RAISINS, ORGANIC BLUEBERRIES (ORGANIC BLUEBERRIES, ORGANIC SUGAR, ORGANIC SUNFLOWER OIL*), ORGANIC CHERRIES (ORGANIC CHERRIES, ORGANIC SUGAR, ORGANIC SUNFLOWER OIL*)." Date available: 06/25/2017 Date last updated by company: 06/25/2017
