Source: USDA Branded Food Products Database Release December 2017 Software v.3.8.6.4 2017-10-02
Report Run at: December 17, 2017 23:03 EST
"Nutrient data for: 45026516, GONSALVES, EXTRA QUINCE JAM, UPC: 020539647002"
Food Group:  Branded Food Products Database
Common Name:

Nutrient,Unit,Data points,Std. Error,"1 TBLS = 18.0g",1Value per 100 g,
Proximates
"Energy",kcal,--,--,44,244
"Total lipid (fat)",g,--,--,0.14,0.78
"Carbohydrate, by difference",g,--,--,10.63,59.06
"Fiber, total dietary",g,--,--,0.3,1.8
"Sugars, total",g,--,--,9.54,53.00
Minerals
"Calcium, Ca",mg,--,--,13,72
"Iron, Fe",mg,--,--,0.40,2.20
"Sodium, Na",mg,--,--,2,10
Vitamins
"Vitamin C, total ascorbic acid",mg,--,--,0.7,4.0
"Vitamin A, IU",IU,--,--,70,389
Lipids
"Fatty acids, total saturated",g,--,--,0.031,0.170
"Fatty acids, total trans",g,--,--,0.000,0.000
"Cholesterol",mg,--,--,0,2
Amino Acids
Other
Ingredients
"QUINCE PULP (50%), SUGAR, GLUCOSE SYRUP,ACIDITY REGULATOR (CITRIC ACID), ANTIOXIDANT (ASCORBIC ACID) AND PRESERVATIVES (POTASSIUM SORBATE AND SODIUM BENZOATE). PREPARED WITH 50G OF FRUIT PER 100G." Date available: 07/14/2017 Date last updated by company: 07/14/2017
