Source: USDA Branded Food Products Database Release December 2017 Software v.3.8.6.4 2017-10-02
Report Run at: December 17, 2017 23:05 EST
"Nutrient data for: 45024840, GONZALEZ, PARBOILED WHITE RICE, UPC: 748703010932"
Food Group:  Branded Food Products Database
Common Name:

Nutrient,Unit,Data points,Std. Error,"0.25 cup = 45.0g",1Value per 100 g,
Proximates
"Energy",kcal,--,--,170,378
"Protein",g,--,--,4.00,8.89
"Total lipid (fat)",g,--,--,0.00,0.00
"Carbohydrate, by difference",g,--,--,36.00,80.00
"Fiber, total dietary",g,--,--,1.0,2.2
"Sugars, total",g,--,--,0.00,0.00
Minerals
"Calcium, Ca",mg,--,--,20,44
"Iron, Fe",mg,--,--,2.70,6.00
"Sodium, Na",mg,--,--,0,0
Vitamins
"Vitamin C, total ascorbic acid",mg,--,--,0.0,0.0
"Vitamin A, IU",IU,--,--,0,0
Lipids
"Fatty acids, total saturated",g,--,--,0.00,0.00
"Fatty acids, total trans",g,--,--,0.00,0.00
"Cholesterol",mg,--,--,0,0
Amino Acids
Other
Ingredients
"PARBOILED LONG GRAIN WHITE RICE. ENRICHED WITH NIACIN, IRON (FERRIC ORTHOPHOSPHATE), THIAMINE (THIAMINE MONONITRATE) AND FOLIC ACID." Date last updated by company: 06/17/2015
