Source: USDA Branded Food Products Database Release December 2017 Software v.3.8.6.4 2017-10-02
Report Run at: December 17, 2017 23:19 EST
"Nutrient data for: 45145749, GOOD SENSE, SUNFLOWER NUTS RANCH, UPC: 030243868372"
Food Group:  Branded Food Products Database
Common Name:

Nutrient,Unit,Data points,Std. Error,"0.25 cup = 30.0g",1Value per 100 g,
Proximates
"Energy",kcal,--,--,180,600
"Protein",g,--,--,6.00,20.00
"Total lipid (fat)",g,--,--,15.00,50.00
"Carbohydrate, by difference",g,--,--,7.00,23.33
"Fiber, total dietary",g,--,--,3.0,10.0
"Sugars, total",g,--,--,1.00,3.33
Minerals
"Calcium, Ca",mg,--,--,20,67
"Iron, Fe",mg,--,--,1.80,6.00
"Sodium, Na",mg,--,--,125,417
Vitamins
"Vitamin C, total ascorbic acid",mg,--,--,0.0,0.0
"Vitamin A, IU",IU,--,--,0,0
Lipids
"Fatty acids, total saturated",g,--,--,2.001,6.670
"Fatty acids, total trans",g,--,--,0.000,0.000
"Cholesterol",mg,--,--,0,0
Amino Acids
Other
Ingredients
"SUNFLOWER NUTS, SEASONING [WHEY POWDER, SALT, DEXTROSE, MALTODEXTRIN, MONOSODIUM GLUTAMATE, ONION POWDER, TOMATO POWDER, SUGAR, GARLIC POWDER, SPICES, NATURAL FLAVORS, PARSLEY, CITRIC ACID, DISODIUM INOSINATE AND DISODIUM GUANYLATE, AND NUT MORE THAN 2% SUNFLOWER OIL AND SILICON DIOXIDE ADDED TO PREVENT CAKING.], VEGETABLE OIL (CANOLA, SUNFLOWER, AND/OR SOYBEAN)." Date available: 07/14/2017 Date last updated by company: 07/14/2017
