Source: USDA Branded Food Products Database Release December 2017 Software v.3.8.6.4 2017-10-02
Report Run at: December 17, 2017 23:12 EST
"Nutrient data for: 45094123, GOOD HUMOR, ICE CREAM, STRAWBERRY FLAVORED, UPC: 077567279248"
Food Group:  Branded Food Products Database
Common Name:

Nutrient,Unit,Data points,Std. Error,"1 CONTAINER = 65.0g",1Value per 100 g,
Proximates
"Energy",kcal,--,--,120,185
"Protein",g,--,--,2.00,3.08
"Total lipid (fat)",g,--,--,6.00,9.23
"Carbohydrate, by difference",g,--,--,14.00,21.54
"Fiber, total dietary",g,--,--,0.0,0.0
"Sugars, total",g,--,--,9.00,13.85
Minerals
"Calcium, Ca",mg,--,--,60,92
"Iron, Fe",mg,--,--,0.00,0.00
"Sodium, Na",mg,--,--,45,69
Vitamins
"Vitamin C, total ascorbic acid",mg,--,--,1.4,2.1
"Vitamin A, IU",IU,--,--,226,347
Lipids
"Fatty acids, total saturated",g,--,--,3.998,6.150
"Fatty acids, total trans",g,--,--,0.000,0.000
"Cholesterol",mg,--,--,20,31
Amino Acids
Other
Ingredients
"MILK, CREAM, CORN SYRUP, SUGAR, STRAWBERRIES, WHEY, GUAR GUM, MONO AND DIGLYCERIDES, POLYSORBATE 80, LOCUST BEAN GUM, ARTIFICIAL FLAVOR, RED 40." Date available: 07/14/2017 Date last updated by company: 07/14/2017
