Source: USDA Branded Food Products Database Release December 2017 Software v.3.8.6.4 2017-10-02
Report Run at: December 17, 2017 23:12 EST
"Nutrient data for: 45092009, GOOD HUMOR, FROZEN BIRTHDAY CAKE DESSERT BAR, NATURALLY AND ARTIFICIALLY FLAVORED, UPC: 041000273612"
Food Group:  Branded Food Products Database
Common Name:

Nutrient,Unit,Data points,Std. Error,"1 BAR = 52.0g",1Value per 100 g,
Proximates
"Energy",kcal,--,--,150,288
"Protein",g,--,--,1.00,1.92
"Total lipid (fat)",g,--,--,8.00,15.38
"Carbohydrate, by difference",g,--,--,18.00,34.62
"Fiber, total dietary",g,--,--,0.0,0.0
"Sugars, total",g,--,--,10.00,19.23
Minerals
"Calcium, Ca",mg,--,--,20,38
"Iron, Fe",mg,--,--,0.00,0.00
"Sodium, Na",mg,--,--,25,48
Vitamins
"Vitamin C, total ascorbic acid",mg,--,--,0.0,0.0
"Vitamin A, IU",IU,--,--,0,0
Lipids
"Fatty acids, total saturated",g,--,--,2.501,4.810
"Fatty acids, total trans",g,--,--,0.000,0.000
"Cholesterol",mg,--,--,0,0
Amino Acids
Other
Ingredients
"NONFAT MILK, RAINBOW CRUNCH (BLEACHED WHEAT FLOUR, SUGAR, PALM OIL, SALT, NATURAL FLAVOR, SOY LECITHIN, RED 3, BLUE 1 LAKE, YELLOW 5 LAKE, BAKING SODA), CORN SYRUP, SUGAR, WATER, PALM OIL, SOYBEAN OIL, COCONUT OIL, LESS THAN 2% OF: WHEY, MONO AND DIGLYCERIDES, GUAR GUM, LOCUST BEAN GUM, CARAMEL COLOR, CARRAGEENAN, NATURAL AND ARTIFICIAL FLAVOR, ANNATTO (FOR COLOR), VITAMIN A PALMITATE." Date available: 07/14/2017 Date last updated by company: 07/14/2017
