Source: USDA Branded Food Products Database Release December 2017 Software v.3.8.6.4 2017-10-02
Report Run at: December 17, 2017 23:09 EST
"Nutrient data for: 45092134, GOODFIELDS, OVEN ROASTED SILVERED ALMONDS WITH SEA SALT, UPC: 038718709045"
Food Group:  Branded Food Products Database
Common Name:

Nutrient,Unit,Data points,Std. Error,"1 Tbsp = 10.0g",1Value per 100 g,
Proximates
"Energy",kcal,--,--,60,600
"Protein",g,--,--,2.00,20.00
"Total lipid (fat)",g,--,--,5.00,50.00
"Carbohydrate, by difference",g,--,--,2.00,20.00
"Fiber, total dietary",g,--,--,1.0,10.0
"Sugars, total",g,--,--,0.00,0.00
Minerals
"Calcium, Ca",mg,--,--,20,200
"Iron, Fe",mg,--,--,1.80,18.00
"Sodium, Na",mg,--,--,30,300
Vitamins
"Vitamin C, total ascorbic acid",mg,--,--,0.0,0.0
"Vitamin A, IU",IU,--,--,0,0
Lipids
"Fatty acids, total saturated",g,--,--,0.000,0.000
"Fatty acids, total trans",g,--,--,0.000,0.000
"Cholesterol",mg,--,--,0,0
Amino Acids
Other
Ingredients
"ALMONDS, SEA SALT" Date available: 06/25/2017 Date last updated by company: 06/25/2017
