Source: USDA Branded Food Products Database Release December 2017 Software v.3.8.6.4 2017-10-02
Report Run at: December 17, 2017 23:15 EST
"Nutrient data for: 45161437, GOOD LIVIN', JUICE BEVERAGE, MANGO PEACH, UPC: 812707020393"
Food Group:  Branded Food Products Database
Common Name:

Nutrient,Unit,Data points,Std. Error,"8.0 OZA = 240.0g",1Value per 100 g,
Proximates
"Energy",kcal,--,--,79,33
"Protein",g,--,--,0.00,0.00
"Total lipid (fat)",g,--,--,0.00,0.00
"Carbohydrate, by difference",g,--,--,21.00,8.75
"Sugars, total",g,--,--,19.99,8.33
Minerals
"Sodium, Na",mg,--,--,36,15
Vitamins
"Vitamin C, total ascorbic acid",mg,--,--,60.0,25.0
"Vitamin A, IU",IU,--,--,4999,2083
Lipids
Amino Acids
Other
Ingredients
"WATER, HIGH FRUCTOSE CORN SYRUP, CARROT JUICE FROM CONCENTRATE (WATER, CARROT JUICE CONCENTRATE), FRUIT JUICES FROM CONCENTRATE (WATER, APPLE JUICE CONCENTRATE, CLARIFIED PEACH JUICE CONCENTRATE), CITRIC ACID, VITAMIN C (ASCORBIC ACID), NATURAL FLAVORS, MANGO PUREE, BETA CAROTENE, VITAMIN E (ALPHA TOCOPHERYL ACETATE), SUCRALOSE." Date available: 08/18/2017 Date last updated by company: 08/18/2017
