Source: USDA Branded Food Products Database Release December 2017 Software v.3.8.6.4 2017-10-02
Report Run at: December 17, 2017 23:15 EST
"Nutrient data for: 45166445, GOOD LIVIN', JUICE DRINK FROM CONCENTRATE, CRANBERRY APPLE, UPC: 812707020386"
Food Group:  Branded Food Products Database
Common Name:

Nutrient,Unit,Data points,Std. Error,"8.0 OZA = 240.0g",1Value per 100 g,
Proximates
"Energy",kcal,--,--,130,54
"Protein",g,--,--,0.00,0.00
"Total lipid (fat)",g,--,--,0.00,0.00
"Carbohydrate, by difference",g,--,--,31.99,13.33
"Sugars, total",g,--,--,31.99,13.33
Minerals
"Sodium, Na",mg,--,--,79,33
Vitamins
"Vitamin C, total ascorbic acid",mg,--,--,60.0,25.0
Lipids
Amino Acids
Other
Ingredients
"FILTERED WATER, CANE OR BEET SUGAR, CRANBERRY JUICE FROM CONCENTRATE, APPLE JUICE FROM CONCENTRATE, NATURAL FLAVORS, FUMARIC ACID, SODIUM CITRATE, MALIC ACID, ASCORBIC ACID (VITAMIN C), CITRIC ACID, VEGETABLE JUICE (FOR COLOR)" Date available: 07/14/2017 Date last updated by company: 07/14/2017
