Source: USDA Branded Food Products Database Release December 2017 Software v.3.8.6.4 2017-10-02
Report Run at: December 17, 2017 23:17 EST
"Nutrient data for: 45178915, GOOD MEADOW, CLASSIC COCONUT CAKE, UPC: 722515914046"
Food Group:  Branded Food Products Database
Common Name:

Nutrient,Unit,Data points,Std. Error,"0.1 CAKE = 76.0g",1Value per 100 g,
Proximates
"Energy",kcal,--,--,300,395
"Protein",g,--,--,2.00,2.63
"Total lipid (fat)",g,--,--,13.00,17.11
"Carbohydrate, by difference",g,--,--,45.00,59.21
"Fiber, total dietary",g,--,--,1.0,1.3
"Sugars, total",g,--,--,35.00,46.05
Minerals
"Calcium, Ca",mg,--,--,60,79
"Iron, Fe",mg,--,--,1.14,1.50
"Sodium, Na",mg,--,--,240,316
Vitamins
"Vitamin C, total ascorbic acid",mg,--,--,0.0,0.0
"Vitamin A, IU",IU,--,--,0,0
Lipids
"Fatty acids, total saturated",g,--,--,7.000,9.210
"Fatty acids, total trans",g,--,--,0.000,0.000
"Cholesterol",mg,--,--,0,0
Amino Acids
Other
Ingredients
"SUGAR, WATER, BLEACHED WHEAT FLOUR, PALM OIL (WITH MONO AND DIGLYCERIDES, POLYSORBATE 60), SWEETENED COCONUT (DESICCATED COCONUT (CONTAINS SULFITES), POWDERED SUGAR (CONTAINS CORN STARCH), WATER, PROPYLENE GLYCOL, SALT), CORN SYRUP, CONTAINS LESS THAN 2% OF NONFAT DRY MILK, BUTTER, DRIED EGG WHITES (EGG WHITES, SODIUM LAURYL SULFATE), BAKING POWDER (SODIUM ACID PYROPHOSPHATE, SODIUM BICARBONATE, CORN STARCH, MONOCALCIUM PHOSPHATE), NATURAL AND ARTIFICIAL FLAVORS, SALT, CANOLA OIL (WITH CITRIC ACID), WHEY PROTEIN ISOLATE, TITANIUM DIOXIDE." Date available: 10/10/2017 Date last updated by company: 10/10/2017
