Source: USDA Branded Food Products Database Release December 2017 Software v.3.8.6.4 2017-10-02
Report Run at: December 17, 2017 23:14 EST
"Nutrient data for: 45054194, GOOD KARMA, ORGANIC RICE DIVINE, CREAMY NON-DAIRY FROZEN DESSERT, MINT CHOCOLATE SWIRL, UPC: 829462701047"
Food Group:  Branded Food Products Database
Common Name:

Nutrient,Unit,Data points,Std. Error,"0.5 cup = 75.0g",1Value per 100 g,
Proximates
"Energy",kcal,--,--,150,200
"Protein",g,--,--,0.00,0.00
"Total lipid (fat)",g,--,--,6.00,8.00
"Carbohydrate, by difference",g,--,--,24.00,32.00
"Fiber, total dietary",g,--,--,1.0,1.3
"Sugars, total",g,--,--,15.00,20.00
Minerals
"Calcium, Ca",mg,--,--,32,43
"Iron, Fe",mg,--,--,0.00,0.00
"Sodium, Na",mg,--,--,80,107
Vitamins
"Vitamin C, total ascorbic acid",mg,--,--,0.0,0.0
"Vitamin A, IU",IU,--,--,0,0
Lipids
"Fatty acids, total saturated",g,--,--,0.502,0.670
"Fatty acids, total trans",g,--,--,0.000,0.000
"Cholesterol",mg,--,--,0,0
Amino Acids
Other
Ingredients
"ORGANIC RICE MILK (FILTERED WATER, ORGANIC RICE SYRUP SOLIDS, ORGANIC WHOLE GRAIN BROWN RICE), ORGANIC DEHYDRATED CANE JUICE, ORGANIC CHOCOLATE FUDGE (ORGANIC DEHYDRATED CAN JUICE, WATER, ORGANIC DUTCH COCOA POWDER, ORGANIC TAPIOCA STARCH, NATURAL FLAVORS, SALT CARRAGEENAN), ORGANIC SUNFLOWER OIL AND/OR ORGANIC CANOLA OIL AND/OR ORGANIC SAFFLOWER OIL, CHICORY ROOT EXTRACT, NATURAL PEPPERMINT FLAVOR, ORGANIC TAPIOCA STARCH, ORGANIC LOCUST BEAN GUM, SOY PROTEIN CONCENTRATE, ORGANIC GUAR GUM, CARRAGEENAN, XANTHAN GUM, SOY LECITHIN, NATURAL FLAVOR, SEA SALT." Date available: 08/11/2017 Date last updated by company: 08/11/2017
