Source: USDA Branded Food Products Database Release December 2017 Software v.3.8.6.4 2017-10-02
Report Run at: December 17, 2017 23:16 EST
"Nutrient data for: 45153972, GOOD LIVIN', WATER BEVERAGE, RASPBERRY, UPC: 812707020744"
Food Group:  Branded Food Products Database
Common Name:

Nutrient,Unit,Data points,Std. Error,"8.0 OZA = 240.0g",1Value per 100 g,
Proximates
"Energy",kcal,--,--,0,0
"Protein",g,--,--,0.00,0.00
"Total lipid (fat)",g,--,--,0.00,0.00
"Carbohydrate, by difference",g,--,--,0.00,0.00
Minerals
"Sodium, Na",mg,--,--,14,6
Vitamins
Lipids
"Fatty acids, total trans",g,--,--,0.000,0.000
Amino Acids
Other
Ingredients
"PURIFIED WATER, CONTAINS LESS THAN 2% OF NATURAL FLAVOR, CITRIC ACID, SODIUM CITRATE, SUCRALOSE, POTASSIUM SORBATE AND SODIUM BENZOATE TO PROTECT FLAVOR." Date available: 07/14/2017 Date last updated by company: 07/14/2017
