Source: USDA Branded Food Products Database Release December 2017 Software v.3.8.6.4 2017-10-02
Report Run at: December 17, 2017 23:09 EST
"Nutrient data for: 45163569, GOODFIELDS, PINE NUTS, UPC: 038718709007"
Food Group:  Branded Food Products Database
Common Name:

Nutrient,Unit,Data points,Std. Error,"1 Tbsp = 8.0g",1Value per 100 g,
Proximates
"Energy",kcal,--,--,50,625
"Protein",g,--,--,1.00,12.50
"Total lipid (fat)",g,--,--,5.00,62.50
"Carbohydrate, by difference",g,--,--,2.00,25.00
"Fiber, total dietary",g,--,--,1.0,12.5
"Sugars, total",g,--,--,0.00,0.00
Minerals
"Calcium, Ca",mg,--,--,0,0
"Iron, Fe",mg,--,--,2.25,28.12
"Sodium, Na",mg,--,--,0,0
Vitamins
"Vitamin C, total ascorbic acid",mg,--,--,0.0,0.0
"Vitamin A, IU",IU,--,--,0,0
Lipids
"Fatty acids, total saturated",g,--,--,1.000,12.500
"Fatty acids, total trans",g,--,--,0.000,0.000
"Cholesterol",mg,--,--,0,0
Amino Acids
Other
Ingredients
"PINE NUTS." Date available: 07/14/2017 Date last updated by company: 07/14/2017
