Source: USDA Branded Food Products Database Release December 2017 Software v.3.8.6.4 2017-10-02
Report Run at: December 17, 2017 23:19 EST
"Nutrient data for: 45163106, GOOD SENSE, DILL PICKLE PEANUTS, ROASTED & SEASONED, UPC: 030243878418"
Food Group:  Branded Food Products Database
Common Name:

Nutrient,Unit,Data points,Std. Error,"0.33 cup = 40.0g",1Value per 100 g,
Proximates
"Energy",kcal,--,--,230,575
"Protein",g,--,--,9.00,22.50
"Total lipid (fat)",g,--,--,19.00,47.50
"Carbohydrate, by difference",g,--,--,8.00,20.00
"Fiber, total dietary",g,--,--,3.0,7.5
"Sugars, total",g,--,--,0.00,0.00
Minerals
"Calcium, Ca",mg,--,--,40,100
"Iron, Fe",mg,--,--,0.90,2.25
"Sodium, Na",mg,--,--,250,625
Vitamins
"Vitamin C, total ascorbic acid",mg,--,--,0.0,0.0
"Vitamin A, IU",IU,--,--,0,0
Lipids
"Fatty acids, total saturated",g,--,--,2.500,6.250
"Fatty acids, total trans",g,--,--,0.000,0.000
"Cholesterol",mg,--,--,0,0
Amino Acids
Other
Ingredients
"PEANUTS, VEGETABLE OIL (CANOLA, SUNFLOWER, AND/OR SOYBEAN), SEASONING [MALTODEXTRIN, SALT, VINEGAR POWDER, DEXTROSE, MONOSODIUM GLUTAMATE, SPICE, SPICE EXTRACT, CITRIC ACID, ONION & GARLIC, SILICON DIOXIDE]." Date available: 07/14/2017 Date last updated by company: 07/14/2017
