Source: USDA Branded Food Products Database Release December 2017 Software v.3.8.6.4 2017-10-02
Report Run at: December 17, 2017 23:19 EST
"Nutrient data for: 45163099, GOOD SENSE, SNOWFLAKE PRETZELS, VANILLA & PEPPERMINT YOGURT, UPC: 030243504270"
Food Group:  Branded Food Products Database
Common Name:

Nutrient,Unit,Data points,Std. Error,"6.0 PIECES = 35.0g",1Value per 100 g,
Proximates
"Energy",kcal,--,--,160,457
"Protein",g,--,--,2.00,5.71
"Total lipid (fat)",g,--,--,6.00,17.14
"Carbohydrate, by difference",g,--,--,25.00,71.43
"Fiber, total dietary",g,--,--,1.0,2.9
"Sugars, total",g,--,--,14.00,40.00
Minerals
"Calcium, Ca",mg,--,--,0,0
"Iron, Fe",mg,--,--,1.54,4.41
"Sodium, Na",mg,--,--,250,714
Vitamins
"Vitamin C, total ascorbic acid",mg,--,--,0.0,0.0
"Vitamin A, IU",IU,--,--,0,0
Lipids
"Fatty acids, total saturated",g,--,--,5.002,14.290
"Fatty acids, total trans",g,--,--,0.000,0.000
"Cholesterol",mg,--,--,0,0
Amino Acids
Other
Ingredients
"YOGURT COATING [SUGAR, PARTIALLY HYDROGENATED PALM KERNEL OIL, WHEY, TITANIUM DIOXIDE, WHOLE MILK, YOGURT POWDER, (NONFAT MILK, LACTIC ACID), PALM OIL, SOY LECITHIN (AN EMULSIFIER), SALT, ARTIFICIAL COLOR (RED #40, RED #40 LAKE), NATURAL VANILLA, NATURAL FLAVOR], PRETZELS [ENRICHED WHEAT FLOUR (WHEAT FLOUR, NIACIN, REDUCED IRON, THIAMINE MONONITRATE, RIBOFLAVIN, FOLIC ACID), SALT, VEGETABLE OIL (CORN, CANOLA, COTTONSEED AND/OR SOYBEAN), CORN SYRUP, SODIUM BICARBONATE, YEAST]." Date available: 07/14/2017 Date last updated by company: 07/14/2017
