Source: USDA Branded Food Products Database Release December 2017 Software v.3.8.6.4 2017-10-02
Report Run at: December 17, 2017 23:13 EST
"Nutrient data for: 45154387, GOODIE GIRL COOKIES, OATMEAL RAISIN, UPC: 855987003267"
Food Group:  Branded Food Products Database
Common Name:

Nutrient,Unit,Data points,Std. Error,"2.0 COOKIES = 30.0g",1Value per 100 g,
Proximates
"Energy",kcal,--,--,140,467
"Protein",g,--,--,2.00,6.67
"Total lipid (fat)",g,--,--,6.00,20.00
"Carbohydrate, by difference",g,--,--,21.00,70.00
"Fiber, total dietary",g,--,--,1.0,3.3
"Sugars, total",g,--,--,12.00,40.00
Minerals
"Calcium, Ca",mg,--,--,20,67
"Iron, Fe",mg,--,--,1.20,4.00
"Sodium, Na",mg,--,--,55,183
Vitamins
"Vitamin C, total ascorbic acid",mg,--,--,0.0,0.0
"Vitamin A, IU",IU,--,--,334,1112
Lipids
"Fatty acids, total saturated",g,--,--,3.000,10.000
"Fatty acids, total trans",g,--,--,0.000,0.000
"Cholesterol",mg,--,--,20,67
Amino Acids
Other
Ingredients
"GLUTEN FREE OATS, CANE SUGAR, BUTTER, FLOUR (WHITE RICE FLOUR, CORN STARCH, TAPIOCA FLOUR, BROWN RICE FLOUR, POWDERED MILK (WHOLE MILK, SOY LECITHIN, VITAMIN A ACETATE, VITAMIN D3), POTATO STARCH, XANTHAN GUM), RAISINS, EGGS, MOLASSES, VANILLA, CANNAMON, BAKING POWDER (SODIUM ACID PYROPHOSPHATE, SODIUM BICARBONATE, CORN STARCH, MONOCALCIUM PHOSPHATE), BAKING SODA, ALLSPICE, SALT." Date available: 07/14/2017 Date last updated by company: 07/14/2017
