Source: USDA Branded Food Products Database Release December 2017 Software v.3.8.6.4 2017-10-02
Report Run at: December 17, 2017 23:20 EST
"Nutrient data for: 45285768, GOOEY BUTTER CAKE ICE CREAM, UPC: 853169002558"
Food Group:  Branded Food Products Database
Common Name:

Nutrient,Unit,Data points,Std. Error,"0.5 cup = 109.0g",1Value per 100 g,
Proximates
"Energy",kcal,--,--,320,294
"Protein",g,--,--,5.00,4.59
"Total lipid (fat)",g,--,--,17.00,15.60
"Carbohydrate, by difference",g,--,--,36.00,33.03
"Fiber, total dietary",g,--,--,0.0,0.0
"Sugars, total",g,--,--,31.00,28.44
Minerals
"Calcium, Ca",mg,--,--,150,138
"Iron, Fe",mg,--,--,0.00,0.00
"Sodium, Na",mg,--,--,190,174
Vitamins
"Vitamin C, total ascorbic acid",mg,--,--,0.0,0.0
"Vitamin A, IU",IU,--,--,843,773
Lipids
"Fatty acids, total saturated",g,--,--,10.998,10.090
"Fatty acids, total trans",g,--,--,0.000,0.000
"Cholesterol",mg,--,--,85,78
Amino Acids
Other
Ingredients
"CREAM, NONFAT MILK, CANE SUGAR, BUTTER CAKE [EGGS GLUTEN FREE FLOUR (BROWN RICE FLOUR, TAPIOCA STARCH, WHITE RICE FLOUR, POTATO STARCH, SORGHUM FLOUR, ARROWROOT STARCH, SWEET RICE FLOUR, GUAR GUM), SUGAR, BROWN SUGAR, BUTTER, EGG YOLKS, MADAGASCAR BOURBON VANILLA EXTRACT, BAKING POWDER (MONOCALCIUM PHOSPHATE, SODIUM BICARBONATE, CORN STARCH), SEA SALT], GOOEY BUTTER SAUCE [CREAM, BROWN SUGAR, SUGAR, HONEY, BUTTER, SEA SALT, LEMON JUICE], CREAM CHEESE, (CULTURED MILK AND CREAM, SALT, XANTHAN GUM, CAROB BEAN AND/OR GUAR GUM), TAPIOCA SYRUP, TAPIOCA STARCH, SEA SALT, MADAGASCAR BOURBON VANILLA EXTRACT, NATURAL FLAVOR." Date available: 07/14/2017 Date last updated by company: 07/14/2017
