Source: USDA Branded Food Products Database Release December 2017 Software v.3.8.6.4 2017-10-02
Report Run at: December 17, 2017 23:21 EST
"Nutrient data for: 45255571, GOPICNIC, SALAMI & CHEESE BALANCED LUNCH KIT, UPC: 810662020403"
Food Group:  Branded Food Products Database
Common Name:

Nutrient,Unit,Data points,Std. Error,"82.0 GRM = 82.0g",1Value per 100 g,
Proximates
"Energy",kcal,--,--,290,354
"Protein",g,--,--,9.00,10.98
"Total lipid (fat)",g,--,--,16.00,19.51
"Carbohydrate, by difference",g,--,--,28.00,34.15
"Fiber, total dietary",g,--,--,2.0,2.4
"Sugars, total",g,--,--,14.00,17.07
Minerals
"Calcium, Ca",mg,--,--,60,73
"Iron, Fe",mg,--,--,0.66,0.80
"Sodium, Na",mg,--,--,680,829
Vitamins
"Vitamin C, total ascorbic acid",mg,--,--,36.6,44.6
"Vitamin A, IU",IU,--,--,0,0
Lipids
"Fatty acids, total saturated",g,--,--,6.002,7.320
"Fatty acids, total trans",g,--,--,0.000,0.000
"Cholesterol",mg,--,--,30,37
Amino Acids
Other
Ingredients
"OLD WISCONSIN BEEF SALAMI SLICES 0.8 OZ: BEEF, SALT, DEXTROSE, LACTIC ACID STARTER CULTURE, SPICES, GARLIC POWDER, SODIUM ASCORBATE, SODIUM NITRITE. LITTLE BREAD HEN HONEY WHEAT FLATBREAD CRACKERS .74 OZ: BUTTERMILK (CULTURED 1% MILK, SALT, SODIUM CITRATE) STONEGROUND WHOLE WHEAT FLOUR, UNBLEACHED WHEAT FLOUR (WHEAT FLOUR, MALTED BARLEY FLOUR, NIACIN, REDUCED IRON, THIAMIN MONONITRATE, RIBOFLAVIN, FOLIC ACID), EXPELLER PRESSED CANOLA OIL, EVAPORATED CANE JUICE, GRADE A AMBER HONEY, SEA SALT, BAKING SODA, KOSHER SALT. COPPER COWBELL WHITE CHEDDAR CHEESE SPREAD .75 OZ: ALL-NATURAL CHEDDAR CHEESE (MILK, CHEESE CULTURES, SALT, ENZYMES), WATER, CREAM, MILK, WHEY, SODIUM PHOSPHATE, NATURAL CHEDDAR CHEESE FLAVOR, CHEESE CULTURES, SALT, ENZYMES, CALCIUM PROPIONATE (PRESERVATIVE), GUAR AND XANTHAN GUMS. SWEET PERRY ORCHARDS ORGANIC STRAWBERRY PEEL-A-PART .63 OZ: ORGANIC CONCENTRATED APPLE PUREE, ORGANIC CONCENTRATED APPLE JUICE, ORGANIC CONCENTRATED STRAWBERRY JUICE, NATURAL FLAVOR, ASCORBIC ACID, CONCENTRATED BLACK CARROT JUICE, PECTIN, ORGANIC CANOLA OIL." Date available: 07/14/2017 Date last updated by company: 07/14/2017
