Source: USDA Branded Food Products Database Release December 2017 Software v.3.8.6.4 2017-10-02
Report Run at: December 17, 2017 23:21 EST
"Nutrient data for: 45147597, GORANT, ASSORTED MILK CHOCOLATES, UPC: 765915043374"
Food Group:  Branded Food Products Database
Common Name:

Nutrient,Unit,Data points,Std. Error,"3.0 PIECES = 45.0g",1Value per 100 g,
Proximates
"Energy",kcal,--,--,220,489
"Protein",g,--,--,2.00,4.44
"Total lipid (fat)",g,--,--,12.00,26.67
"Carbohydrate, by difference",g,--,--,28.00,62.22
"Fiber, total dietary",g,--,--,1.0,2.2
"Sugars, total",g,--,--,24.00,53.33
Minerals
"Calcium, Ca",mg,--,--,60,133
"Iron, Fe",mg,--,--,0.40,0.89
"Sodium, Na",mg,--,--,80,178
Vitamins
"Vitamin C, total ascorbic acid",mg,--,--,0.0,0.0
"Vitamin A, IU",IU,--,--,0,0
Lipids
"Fatty acids, total saturated",g,--,--,7.002,15.560
"Fatty acids, total trans",g,--,--,0.000,0.000
"Cholesterol",mg,--,--,5,11
Amino Acids
Other
Ingredients
"MILK CHOCOLATE (SUGAR, COCOA BUTTER, WHOLE MILK, NONFAT DRY MILK, CHOCOLATE LIQUOR PROCESSED WITH ALKALI, NATURAL FLAVORS, ARTIFICIAL FLAVORS, SOY LECITHIN [EMULSIFIER]), SUGAR, PEANUT BUTTER CRISPS (SUGAR, CORN SYRUP, PEANUTS, TOASTED COCONUT, MOLASSES, PARTIALLY HYDROGENATED VEGETABLE OIL, YELLOW 6 LAKE), FONDANT SUGAR, HONEYCOMB CHIPS (SUGAR, CORN SYRUP, MOLASSES, SALT), CORN SYRUP, COCONUT OIL, EVAPORATED MILK, WHITE COATING (SUGAR, PAL, KERNEL OIL, SWEET WHEY, LACTOSE, MILK FAT, NONFAT DRY MILK, BUTTERMILK, SODIUM CASEINATE, SOYA LECITHIN [EMULSIFIER], PARTIALLY HYDROGENATED PALM OIL, ARTIFICIAL FLAVORS), PEANUT BUTTER (PEANUTS, PARTIALLY HYDROGENATED COTTON SEED OIL, SALT AND MOLASSES), MARASCHINO CHERRIES (CHERRIES, CORN SYRUP, CONTAINS 2% OR LESS OF THE FOLLOWING: POTASSIUM SORBATE [PRESERVATIVE], SODIUM BENZOATE [PRESERVATIVE], CITRIC ACID, NATURAL AND ARTIFICIAL FLAVORS, FD & C RED 40, SULFER DIOXIDE [PRESERVATIVE]), DARK CHOCOLATE (SUGAR, CHOCOLATE LIQUOR PROCESSED WITH ALKALI, COCOA BUTTER, ANHYDROUS MILK FAT, SOYA LECITHIN [EMULSIFIER], AND NATURAL FLAVORS AND ARTIFICIAL FLAVORS), INVERT SUGAR, CASHEWS, BUTTER (CREAM, SALT), ALMONDS, PECANS, BAKING CHOCOLATE (COCOA, HYDROGENATED COTTONSEED AND SOYBEAN OILS, COCONUT OIL), SALT, PEANUT OIL, PARTIALLY HYDROGENATED VEGETABLE OIL (PALM KERNEL, SOYBEAN, COTTONSEED), CREAM POWDER, EGG WHITES, VANILLA, INVERTASE, RASPBERRY POWDER, CITRIC ACID, ORANGE OIL, BAKING SODA." Date available: 07/14/2017 Date last updated by company: 07/14/2017
