Source: USDA Branded Food Products Database Release December 2017 Software v.3.8.6.4 2017-10-02
Report Run at: December 17, 2017 23:23 EST
"Nutrient data for: 45054413, GORGONZOLA CHEESE, UPC: 041497086580"
Food Group:  Branded Food Products Database
Common Name:

Nutrient,Unit,Data points,Std. Error,"1 CONTAINER = 28.0g",1Value per 100 g,
Proximates
"Energy",kcal,--,--,100,357
"Protein",g,--,--,7.00,25.00
"Total lipid (fat)",g,--,--,8.00,28.57
"Carbohydrate, by difference",g,--,--,1.00,3.57
"Fiber, total dietary",g,--,--,0.0,0.0
"Sugars, total",g,--,--,1.00,3.57
Minerals
"Calcium, Ca",mg,--,--,150,536
"Iron, Fe",mg,--,--,0.00,0.00
"Sodium, Na",mg,--,--,260,929
Vitamins
"Vitamin C, total ascorbic acid",mg,--,--,0.0,0.0
"Vitamin A, IU",IU,--,--,535,1912
Lipids
"Fatty acids, total saturated",g,--,--,5.001,17.860
"Fatty acids, total trans",g,--,--,0.000,0.000
"Cholesterol",mg,--,--,25,89
Amino Acids
Other
Ingredients
"INGREDIENTS: PASTEURIZED PART-SKIM MILK, CHEESE CULTURES, SALT, ENZYMES, PENICILLIUM ROQUEFORTII, NATAMYCIN." Date available: 06/25/2017 Date last updated by company: 06/25/2017
