Source: USDA Branded Food Products Database Release December 2017 Software v.3.8.6.4 2017-10-02
Report Run at: December 17, 2017 23:24 EST
"Nutrient data for: 45027026, GORTON'S, CLASSIC CRUNCHY BREADED FISH FILLETS, UPC: 044400154505"
Food Group:  Branded Food Products Database
Common Name:

Nutrient,Unit,Data points,Std. Error,"2.0 FILLETS = 108.0g",1Value per 100 g,
Proximates
"Energy",kcal,--,--,230,213
"Protein",g,--,--,10.00,9.26
"Total lipid (fat)",g,--,--,9.00,8.33
"Carbohydrate, by difference",g,--,--,26.00,24.07
"Fiber, total dietary",g,--,--,1.0,0.9
"Sugars, total",g,--,--,3.00,2.78
Minerals
"Calcium, Ca",mg,--,--,21,19
"Potassium, K",mg,--,--,170,157
"Sodium, Na",mg,--,--,530,491
Vitamins
Lipids
"Fatty acids, total saturated",g,--,--,1.998,1.850
"Fatty acids, total monounsaturated",g,--,--,1.501,1.390
"Fatty acids, total polyunsaturated",g,--,--,5.000,4.630
"Fatty acids, total trans",g,--,--,0.000,0.000
"Cholesterol",mg,--,--,21,19
Amino Acids
Other
Ingredients
"ALASKA POLLOCK FILLETS: ALASKA POLLOCK, SODIUM TRIPOLYPHOSPHATE (TO RETAIN FISH MOISTURE). BREADCRUMB COATING: WHEAT FLOUR, WATER, YELLOW CORN FLOUR, SUGAR, SALT, WHEY, YEAST, BAKING POWDER (BAKING SODA, SODIUM ALUMINUM PHOSPHATE), ONION POWDER, NATURAL FLAVOR. VEGETABLE OIL: COTTONSEED AND/OR CANOLA OIL, ROSEMARY EXTRACT (TO PROTECT FLAVOR)." Date available: 10/06/2017 Date last updated by company: 10/06/2017
