Source: USDA Branded Food Products Database Release December 2017 Software v.3.8.6.4 2017-10-02
Report Run at: December 17, 2017 23:27 EST
"Nutrient data for: 45153961, GOT MILK?, MINI COOKIES, BUTTER, UPC: 812590020937"
Food Group:  Branded Food Products Database
Common Name:

Nutrient,Unit,Data points,Std. Error,"8.0 COOKIES = 28.0g",1Value per 100 g,
Proximates
"Energy",kcal,--,--,150,536
"Protein",g,--,--,2.00,7.14
"Total lipid (fat)",g,--,--,7.00,25.00
"Carbohydrate, by difference",g,--,--,19.00,67.86
"Fiber, total dietary",g,--,--,0.0,0.0
"Sugars, total",g,--,--,7.00,25.00
Minerals
"Calcium, Ca",mg,--,--,20,71
"Iron, Fe",mg,--,--,0.64,2.29
"Sodium, Na",mg,--,--,30,107
Vitamins
"Vitamin C, total ascorbic acid",mg,--,--,0.0,0.0
"Vitamin A, IU",IU,--,--,357,1275
Lipids
"Fatty acids, total saturated",g,--,--,3.500,12.500
"Fatty acids, total trans",g,--,--,0.000,0.000
"Cholesterol",mg,--,--,5,18
Amino Acids
Other
Ingredients
"WHEAT FLOUR, SUGAR, VEGETABLE OIL SHORTENING [PALM AND PALM KERNEL], BUTTER, NON FAT DRY MILK, INVERT SYRUP, AMMONIUM BICARBONATE (LEAVENING), SALT, SODIUM BICARBONATE (LEAVENING) AND SOY LECITHIN [EMULSIFIER]." Date available: 07/14/2017 Date last updated by company: 07/14/2017
