Source: USDA Branded Food Products Database Release December 2017 Software v.3.8.6.4 2017-10-02
Report Run at: December 17, 2017 23:35 EST
"Nutrient data for: 45254698, GOURMET CUPCAKE FILLED WITH SWEET STRWBERRY, UPC: 770981310800"
Food Group:  Branded Food Products Database
Common Name:

Nutrient,Unit,Data points,Std. Error,"1 CAKE = 83.0g",1Value per 100 g,
Proximates
"Energy",kcal,--,--,320,386
"Protein",g,--,--,2.00,2.41
"Total lipid (fat)",g,--,--,17.00,20.48
"Carbohydrate, by difference",g,--,--,39.00,46.99
"Fiber, total dietary",g,--,--,0.0,0.0
"Sugars, total",g,--,--,29.00,34.94
Minerals
"Calcium, Ca",mg,--,--,20,24
"Iron, Fe",mg,--,--,0.35,0.42
"Sodium, Na",mg,--,--,240,289
Vitamins
"Vitamin C, total ascorbic acid",mg,--,--,1.2,1.4
"Vitamin A, IU",IU,--,--,0,0
Lipids
"Fatty acids, total saturated",g,--,--,4.997,6.020
"Fatty acids, total trans",g,--,--,0.000,0.000
"Cholesterol",mg,--,--,40,48
Amino Acids
Other
Ingredients
"ICING SUGAR, SUGAR, WATER, ENRICHED WHEAT FLOUR (WHEAT FLOUR, NIACIN, REDUCED IRON, THIAMINE MONONITRATE, RIBOFLAVIN, FOLIC ACID), SHORTENING (CANOLA, PALM, MODIFIED PALM AND KERNEL OIL), EGG, SOYBEAN AND CANOLA OIL, STRAWBERRIES, BUTTER (CREAM, SALT), MODIFIED CORN STARCH, INVERT SUGAR, SKIM MILK POWDER, WHEY POWDER, PECTIN, GLUCOSE, LEAVENING (SODIUM ACID PYROPHOSPHATE, SODIUM BICARBONATE, CORN STARCH, MONOCALCIUM PHOSPHATE, CALCIUM SULFATE), SOYBEAN LECITHIN, WHEAT GLUTEN, MONO AND DIGLYCERIDES, SALT, NATURAL AND ARTIFICIAL FLAVOR, DIACETYL TARTARIC ACID ESTERS OF MONO AND DIGLYCERIDES, COLOR (FD&C BLUE #1, FD&C RED #40), CITRIC ACID, SODIUM CITRATE, CAROB BEAN GUM, CARRAGEENAN, POTASSIUM SSORBATE AND SODIUM BENZOATE (PRESERVATIVES), POLYSORBATE 60." Date available: 07/14/2017 Date last updated by company: 07/14/2017
