Source: USDA Branded Food Products Database Release December 2017 Software v.3.8.6.4 2017-10-02
Report Run at: December 17, 2017 23:43 EST
"Nutrient data for: 45063484, GOURMET MEXICAN SALSA, UPC: 604183110305"
Food Group:  Branded Food Products Database
Common Name:

Nutrient,Unit,Data points,Std. Error,"2.0 Tbsp = 30.0g",1Value per 100 g,
Proximates
"Energy",kcal,--,--,5,17
"Protein",g,--,--,0.00,0.00
"Total lipid (fat)",g,--,--,0.00,0.00
"Carbohydrate, by difference",g,--,--,1.00,3.33
"Fiber, total dietary",g,--,--,0.0,0.0
"Sugars, total",g,--,--,1.00,3.33
Minerals
"Calcium, Ca",mg,--,--,0,0
"Iron, Fe",mg,--,--,0.00,0.00
"Sodium, Na",mg,--,--,190,633
Vitamins
"Vitamin C, total ascorbic acid",mg,--,--,6.0,20.0
"Vitamin A, IU",IU,--,--,334,1112
Lipids
"Fatty acids, total saturated",g,--,--,0.000,0.000
"Fatty acids, total trans",g,--,--,0.000,0.000
"Cholesterol",mg,--,--,0,0
Amino Acids
Other
Ingredients
"ROASTED TOMATOES, FILTERED WATER, DICED TOMATOES, ONION, TOMATO PASTE, HABANERO, GARLIC, SALT, ORGANIC DISTILLED VINEGAR, CILANTRO, APPLE CIDER VINEGAR, PASSION FRUIT JUICE CONCENTRATE, XANTHAN GUM, KEY LIME PUREE (WATER, LIME JUICE CONCENTRATE, PULP CELLS, LIME OIL)." Date available: 08/11/2017 Date last updated by company: 08/11/2017
