Source: USDA Branded Food Products Database Release December 2017 Software v.3.8.6.4 2017-10-02
Report Run at: December 17, 2017 23:33 EST
"Nutrient data for: 45262024, GOURMET COCOA, UPC: 788533300230"
Food Group:  Branded Food Products Database
Common Name:

Nutrient,Unit,Data points,Std. Error,"35.0 GRM = 35.0g",1Value per 100 g,
Proximates
"Energy",kcal,--,--,140,400
"Protein",g,--,--,4.00,11.43
"Total lipid (fat)",g,--,--,2.50,7.14
"Carbohydrate, by difference",g,--,--,27.00,77.14
"Fiber, total dietary",g,--,--,2.0,5.7
"Sugars, total",g,--,--,22.00,62.86
Minerals
"Calcium, Ca",mg,--,--,100,286
"Iron, Fe",mg,--,--,1.54,4.41
"Sodium, Na",mg,--,--,90,257
Vitamins
"Vitamin C, total ascorbic acid",mg,--,--,0.0,0.0
"Vitamin A, IU",IU,--,--,0,0
Lipids
"Fatty acids, total saturated",g,--,--,1.998,5.710
"Fatty acids, total trans",g,--,--,0.000,0.000
"Cholesterol",mg,--,--,0,0
Amino Acids
Other
Ingredients
"SUGAR, COCOA RICH COCONUT MILK POWDER, COCOA POWDER, FOAM DRIED NON FAT MILK, CARRAGEENAN, TETRA-PHOSPHATE, DEXTROSE, SALT, WHEY DRIED, CELLULOSE GUM, FOOD STARCH, SILICON DIOXIDE (ANTICAKING), MALTODEXTRIN, PROPYLENE GLYCOL WITH SODIUM BICARBONATE (STABILIZER), ANNATTO EXTRACT." Date available: 07/14/2017 Date last updated by company: 07/14/2017
