Source: USDA Branded Food Products Database Release December 2017 Software v.3.8.6.4 2017-10-02
Report Run at: December 17, 2017 23:36 EST
"Nutrient data for: 45287921, GOURMET CUPCAKES, UPC: 770981310763"
Food Group:  Branded Food Products Database
Common Name:

Nutrient,Unit,Data points,Std. Error,"1 CUPCAKE = 76.0g",1Value per 100 g,
Proximates
"Energy",kcal,--,--,290,382
"Protein",g,--,--,2.00,2.63
"Total lipid (fat)",g,--,--,16.00,21.05
"Carbohydrate, by difference",g,--,--,36.00,47.37
"Fiber, total dietary",g,--,--,0.0,0.0
"Sugars, total",g,--,--,27.00,35.53
Minerals
"Calcium, Ca",mg,--,--,20,26
"Iron, Fe",mg,--,--,0.38,0.50
"Sodium, Na",mg,--,--,220,289
Vitamins
"Vitamin C, total ascorbic acid",mg,--,--,1.3,1.7
"Vitamin A, IU",IU,--,--,0,0
Lipids
"Fatty acids, total saturated",g,--,--,5.001,6.580
"Fatty acids, total trans",g,--,--,0.000,0.000
"Cholesterol",mg,--,--,35,46
Amino Acids
Other
Ingredients
"ICING SUGAR (SUGAR, CORNSTARCH), SUGAR, WATER, BLEACHED ENRICHED WHEAT FLOUR (WHEAT FLOUR, NIACIN, REDUCED IRON, THIAMINE MONONITRATE, RIBOFLAVIN, FOLIC ACID), SHORTENING (CANOLA, PALM, MODIFIED PALM AND PALM KERNEL OILS, MONOGLYCERIDES, POLYSORBATE 60), EGGS, SOYBEAN AND/OR CANOLA OIL, SWIRL (WATER, SUGAR, CORN SYRUP, MODIFIED CORNSTARCH, MODIFIED PALM OIL, XANTHAN GUM, SALT, SOYBEAN LECITHIN, CITRIC ACID, POTASSIUM SORBATE [PRESERVATIVE], SODIUM BENZOATE [PRESERVATIVE], COLOR [FD&C BLUE #1, FD&C RED #40]), MODIFIED CORNSTARCH, INVERT SUGAR, NONFAT DRY MILK, WHEY (MILK), BUTTER (CREAM, SALT), CORN SYRUP, LEAVENING BLEND (SODIUM BICARBONATE, SODIUM ACID PYROPHOSPHATE, CORNSTARCH, MONOCALCIUM PHOSPHATE, CALCIUM SULFATE), SOYBEAN LECITHIN, WHEAT GLUTEN, NATURAL AND ARTIFICIAL FLAVOR, SALT, LEMON JUICE CONCENTRATE, MONO- AND DIGLYCERIDES, COLOR (FD&C RED #40), DATEM." Date available: 07/14/2017 Date last updated by company: 07/14/2017
