Source: USDA Branded Food Products Database Release December 2017 Software v.3.8.6.4 2017-10-02
Report Run at: December 17, 2017 23:33 EST
"Nutrient data for: 45212640, GOURMET CHOCOLATE CHIP AND COCONUT COOKIES, UPC: 838948002295"
Food Group:  Branded Food Products Database
Common Name:

Nutrient,Unit,Data points,Std. Error,"2.0 COOKIES = 33.0g",1Value per 100 g,
Proximates
"Energy",kcal,--,--,170,515
"Protein",g,--,--,2.00,6.06
"Total lipid (fat)",g,--,--,9.00,27.27
"Carbohydrate, by difference",g,--,--,20.00,60.61
"Fiber, total dietary",g,--,--,2.0,6.1
"Sugars, total",g,--,--,10.00,30.30
Minerals
"Calcium, Ca",mg,--,--,20,61
"Iron, Fe",mg,--,--,1.09,3.31
"Sodium, Na",mg,--,--,110,333
Vitamins
"Vitamin C, total ascorbic acid",mg,--,--,0.0,0.0
"Vitamin A, IU",IU,--,--,0,0
Lipids
"Fatty acids, total saturated",g,--,--,5.999,18.180
"Fatty acids, total trans",g,--,--,0.000,0.000
"Cholesterol",mg,--,--,10,30
Amino Acids
Other
Ingredients
"WHEAT FLOUR, SUGAR, CHOCOLATE CHIPS 16% (SUGAR, COCOA PASTE, COCOA BUTTER, LOW FAT COCOA POWDER, EMULSIFIER, SOY LECITHIN, FLAVORING), COCONUT 13%, VEGETABLE FAT (PALM), RAISING AGENTS: AMMONIUM CARBONATE - SODIUM HYDROGEN CARBONATE - DISODIUM DIPHOSPHATE, WHEAT STARCH, WHOLE EGGS POWDER, FLAVORING, SALT." Date available: 07/14/2017 Date last updated by company: 07/14/2017
