Source: USDA Branded Food Products Database Release December 2017 Software v.3.8.6.4 2017-10-02
Report Run at: December 17, 2017 23:43 EST
"Nutrient data for: 45192313, GOURMET MEAT RAVIOLI FONTANA PASTA, UPC: 731999000343"
Food Group:  Branded Food Products Database
Common Name:

Nutrient,Unit,Data points,Std. Error,"1 cup = 113.0g",1Value per 100 g,
Proximates
"Energy",kcal,--,--,299,265
"Protein",g,--,--,21.00,18.58
"Total lipid (fat)",g,--,--,10.99,9.73
"Carbohydrate, by difference",g,--,--,27.00,23.89
"Fiber, total dietary",g,--,--,1.0,0.9
"Sugars, total",g,--,--,0.99,0.88
Minerals
"Calcium, Ca",mg,--,--,80,71
"Iron, Fe",mg,--,--,7.97,7.05
"Sodium, Na",mg,--,--,840,743
Vitamins
"Vitamin C, total ascorbic acid",mg,--,--,0.0,0.0
"Vitamin A, IU",IU,--,--,443,392
Lipids
"Fatty acids, total saturated",g,--,--,4.497,3.980
"Fatty acids, total trans",g,--,--,0.000,0.000
"Cholesterol",mg,--,--,85,75
Amino Acids
Other
Ingredients
"BEEF, ENRICHED SEMOLINA FLOUR (SEMOLINA, THIAMINE, RIBOFLAVIN, NIACIN, IRON, AND FOLIC ACID), WHEAT, ENRICHED HIGH GLUTEN FLOUR (WHEAT FLOUR, NIACIN, BENZOYL, PEROXIDE, IRON, POTASSIUM BROMATE, ALPHA AMYLASE, THIAMINE MONONITRATE, AZODICARBONAMIDE, RIBOFLAVIN, AND FOLIC ACID), EGGS, IMPORTED ROMANO CHEESE (PASTEURIZED SHEEP MILK, CHEESE CULTURES, SALT, ENZYMES AND POWDERED CELLULOSE [ANTI-CAKING AGENT]), BREAD CRUMBS (BLENDED WHEAT FLOUR CONTAINS 2% OR LESS OF THE FOLLOWING: DEXTROSE, YEAST, PARTIALLY HYDROGENATED VEGETABLE OIL [SOYBEAN AND/OR COTTONSEED]),SPINACH, SALT, ONIONS, BLACK PEPPER, PARSLEY AND GARLIC." Date available: 07/14/2017 Date last updated by company: 07/14/2017
