Source: USDA Branded Food Products Database Release December 2017 Software v.3.8.6.4 2017-10-02
Report Run at: December 17, 2017 23:40 EST
"Nutrient data for: 45080840, GOURMET GUM, UPC: 844911003435"
Food Group:  Branded Food Products Database
Common Name:

Nutrient,Unit,Data points,Std. Error,"2.0 PIECES = 2.5g",1Value per 100 g,
Proximates
"Energy",kcal,--,--,5,200
"Protein",g,--,--,0.00,0.00
"Total lipid (fat)",g,--,--,0.00,0.00
"Carbohydrate, by difference",g,--,--,2.00,80.00
Minerals
"Sodium, Na",mg,--,--,0,0
Vitamins
Lipids
Amino Acids
Other
Ingredients
"TOASTED MALLOW INGREDIENTS: SORBITOL, MALTITOL, GUM BASE, MALTITOL SYRUP, NATURAL AND ARTIFICIAL FLAVOR, XYLITOL, COLOR (TITANIUM DIOXIDE), SUCRALOSE, GLYCERINE, GUM ARABIC, RESINOUS GLAZE, CARNAUBA WAX AND NEOTAME. CHOCO GRAHAM INGREDIENTS: SORBITOL, MALTITOL, GUM BASE, MALTITOL SYRUP, NATURAL AND ARTIFICIAL FLAVOR, XYLITOL, COCOA POWDER, PROCESSED WITH ALKALI, GLYCERIN, COLOR (TITANIUM DIOXIDE), SUCRALOSE, GUM ARABIC, RESINOUS GLAZE, CARNAUBA WAX, NEOTAME AND BHT (TO MAINTAIN FRESHNESS)." Date available: 06/25/2017 Date last updated by company: 06/25/2017
