Source: USDA Branded Food Products Database Release December 2017 Software v.3.8.6.4 2017-10-02
Report Run at: December 17, 2017 23:30 EST
"Nutrient data for: 45240120, GOURMET BEEF FLAVORED BROTH, UPC: 071262041889"
Food Group:  Branded Food Products Database
Common Name:

Nutrient,Unit,Data points,Std. Error,"0.66 cup = 158.0g",1Value per 100 g,
Proximates
"Energy",kcal,--,--,5,3
"Protein",g,--,--,1.00,0.63
"Total lipid (fat)",g,--,--,0.00,0.00
"Carbohydrate, by difference",g,--,--,0.00,0.00
"Fiber, total dietary",g,--,--,0.0,0.0
"Sugars, total",g,--,--,0.00,0.00
Minerals
"Calcium, Ca",mg,--,--,0,0
"Iron, Fe",mg,--,--,0.00,0.00
"Sodium, Na",mg,--,--,559,354
Vitamins
"Vitamin C, total ascorbic acid",mg,--,--,0.0,0.0
"Vitamin A, IU",IU,--,--,0,0
Lipids
"Fatty acids, total saturated",g,--,--,0.000,0.000
"Fatty acids, total trans",g,--,--,0.000,0.000
"Cholesterol",mg,--,--,0,0
Amino Acids
Other
Ingredients
"FILTERED WATER, SALT, COOKED BEEF, AUTOLYZED YEAST EXTRACT, CARAMEL COLOR, FLAVORING AND DISODIUM INOSINATE/DISODIUM GUANYLATE." Date available: 06/25/2017 Date last updated by company: 06/25/2017
