Source: USDA Branded Food Products Database Release December 2017 Software v.3.8.6.4 2017-10-02
Report Run at: December 17, 2017 23:53 EST
"Nutrient data for: 45152136, GOURMET STYLE NUGGETS, UPC: 070540001348"
Food Group:  Branded Food Products Database
Common Name:

Nutrient,Unit,Data points,Std. Error,"15.0 GRM = 15.0g",1Value per 100 g,
Proximates
"Energy",kcal,--,--,70,467
"Protein",g,--,--,2.00,13.33
"Total lipid (fat)",g,--,--,2.50,16.67
"Carbohydrate, by difference",g,--,--,9.00,60.00
"Fiber, total dietary",g,--,--,1.0,6.7
"Sugars, total",g,--,--,1.00,6.67
Minerals
"Calcium, Ca",mg,--,--,0,0
"Iron, Fe",mg,--,--,2.40,16.00
"Sodium, Na",mg,--,--,150,1000
Vitamins
"Vitamin C, total ascorbic acid",mg,--,--,0.0,0.0
"Vitamin A, IU",IU,--,--,0,0
Lipids
"Fatty acids, total saturated",g,--,--,0.500,3.330
"Fatty acids, total trans",g,--,--,0.000,0.000
"Cholesterol",mg,--,--,0,0
Amino Acids
Other
Ingredients
"UNBLEACHED ENRICHED WHEAT FLOUR (CONTAINS MALTED BARLEY FLOUR, NIACIN, REDUCED IRON, THIAMINE, RIBOFLAVIN, FOLIC ACID), CANOLA OIL, SOYBEAN OIL, YEAST, SALT, CORN AND MALT SYRUP, DRIED BREWERS YEAST, SOUR CREAM POWDER (SOUR CREAM SOLIDS, CULTURED NONFAT MILK, CITRIC ACID), WHEY POWDER, MILK POWDER, ONION POWDER, HABANERO POWDER, SUGAR, AUTOLYZED YEAST, PARSLEY FLAKES, NATURAL FLAVORS, CITRIC ACID. CONTAINS 2% OR LESS OF THE FOLLOWING INGREDIENTS: VEGETABLE OIL, SILICON DIOXIDE (PROCESSING AID)." Date available: 07/14/2017 Date last updated by company: 07/14/2017
