Source: USDA Branded Food Products Database Release December 2017 Software v.3.8.6.4 2017-10-02
Report Run at: December 17, 2017 23:32 EST
"Nutrient data for: 45054414, GOURMET CHEESE MADE WITH FRESH MILK AND CREAM, PEPPER MEDLEY, UPC: 077901500151"
Food Group:  Branded Food Products Database
Common Name:

Nutrient,Unit,Data points,Std. Error,"1 CONTAINER = 23.0g",1Value per 100 g,
Proximates
"Energy",kcal,--,--,80,348
"Protein",g,--,--,2.00,8.70
"Total lipid (fat)",g,--,--,7.00,30.43
"Carbohydrate, by difference",g,--,--,1.00,4.35
"Fiber, total dietary",g,--,--,1.0,4.3
"Sugars, total",g,--,--,1.00,4.35
Minerals
"Calcium, Ca",mg,--,--,20,87
"Iron, Fe",mg,--,--,0.00,0.00
"Sodium, Na",mg,--,--,115,500
Vitamins
"Vitamin C, total ascorbic acid",mg,--,--,0.0,0.0
"Vitamin A, IU",IU,--,--,652,2835
Lipids
"Fatty acids, total saturated",g,--,--,5.000,21.740
"Fatty acids, total trans",g,--,--,0.000,0.000
"Cholesterol",mg,--,--,15,65
Amino Acids
Other
Ingredients
"INGREDIENTS: CULTURED PASTEURIZED MILK & CREAM, SALT, SPICES (BLACK & WHITE PEPPER), SORBIC ACID (TO PROTECT FLAVOR), RED BELL, XANTHAN GUM (STABILIZER), HOT RED PEPPER, ENZYMES." Date available: 06/25/2017 Date last updated by company: 06/25/2017
