Source: USDA Branded Food Products Database Release December 2017 Software v.3.8.6.4 2017-10-02
Report Run at: December 17, 2017 23:52 EST
"Nutrient data for: 45054968, GOURMET SPREADABLE CHEESE, UPC: 041498118914"
Food Group:  Branded Food Products Database
Common Name:

Nutrient,Unit,Data points,Std. Error,"2.0 Tbsp = 23.0g",1Value per 100 g,
Proximates
"Energy",kcal,--,--,70,304
"Protein",g,--,--,1.00,4.35
"Total lipid (fat)",g,--,--,6.00,26.09
"Carbohydrate, by difference",g,--,--,2.00,8.70
"Fiber, total dietary",g,--,--,0.0,0.0
"Sugars, total",g,--,--,1.00,4.35
Minerals
"Calcium, Ca",mg,--,--,20,87
"Iron, Fe",mg,--,--,0.00,0.00
"Sodium, Na",mg,--,--,140,609
Vitamins
"Vitamin C, total ascorbic acid",mg,--,--,0.0,0.0
"Vitamin A, IU",IU,--,--,218,946
Lipids
"Fatty acids, total saturated",g,--,--,3.501,15.220
"Fatty acids, total trans",g,--,--,0.000,0.000
"Cholesterol",mg,--,--,20,87
Amino Acids
Other
Ingredients
"CULTURED PASTEURIZED MILK AND CREAM, SALSA (TOMATOES, TOMATO PUREE [WATER, TOMATO PASTE], RED AND GREEN BELL PEPPERS, ONIONS, GREEN CHILIES, SALT, CHIPOTLE PEPPERS, GARLIC, SPICES, DISTILLED VINEGAR, CARROTS, CELERY), WHEY PROTEIN CONCENTRATE, LOCUST BEAN AND GUAR GUMS (STABILIZERS), SORBIC ACID (TO PROTECT FLAVOR)." Date available: 06/25/2017 Date last updated by company: 06/25/2017
