Source: USDA Branded Food Products Database Release December 2017 Software v.3.8.6.4 2017-10-02
Report Run at: December 17, 2017 23:56 EST
"Nutrient data for: 45289808, GOURMET WHOLE OLIVES, UPC: 076397030326"
Food Group:  Branded Food Products Database
Common Name:

Nutrient,Unit,Data points,Std. Error,"5.0 OLIVES = 24.0g",1Value per 100 g,
Proximates
"Energy",kcal,--,--,30,125
"Protein",g,--,--,0.00,0.00
"Total lipid (fat)",g,--,--,3.00,12.50
"Carbohydrate, by difference",g,--,--,1.00,4.17
Minerals
"Sodium, Na",mg,--,--,200,833
Vitamins
Lipids
"Fatty acids, total saturated",g,--,--,0.499,2.080
Amino Acids
Other
Ingredients
"OLIVES (WHOLE), WATER, SALT, VINEGAR, CITRIC ACID, MONOSODIUM GLUTAMATE, POTASSIUM SORBATE (PRESERVATIVE), ASCORBIC ACID, LACTIC ACID." Date available: 08/24/2017 Date last updated by company: 08/24/2017
