Source: USDA Branded Food Products Database Release December 2017 Software v.3.8.6.4 2017-10-02
Report Run at: December 17, 2017 23:36 EST
"Nutrient data for: 45179655, GOURMET CUPCAKES, UPC: 770981051901"
Food Group:  Branded Food Products Database
Common Name:

Nutrient,Unit,Data points,Std. Error,"3.0 CUPCAKES = 70.0g",1Value per 100 g,
Proximates
"Energy",kcal,--,--,290,414
"Protein",g,--,--,2.00,2.86
"Total lipid (fat)",g,--,--,14.00,20.00
"Carbohydrate, by difference",g,--,--,39.00,55.71
"Fiber, total dietary",g,--,--,0.0,0.0
"Sugars, total",g,--,--,31.00,44.29
Minerals
"Calcium, Ca",mg,--,--,20,29
"Iron, Fe",mg,--,--,0.41,0.59
"Sodium, Na",mg,--,--,170,243
Vitamins
"Vitamin C, total ascorbic acid",mg,--,--,0.0,0.0
"Vitamin A, IU",IU,--,--,0,0
Lipids
"Fatty acids, total saturated",g,--,--,4.998,7.140
"Fatty acids, total trans",g,--,--,0.000,0.000
"Cholesterol",mg,--,--,25,36
Amino Acids
Other
Ingredients
"ICING SUGAR, SUGAR, SHORTENING (CANOLA, PALM, MODIFIED PALM AND PALM KERNEL OIL), WATER, ENRICHED WHEAT FLOUR (WHEAT FLOUR, NIACIN, REDUCED IRON, THIAMINE MONONITRATE, RIBOFLAVIN, FOLIC ACID), EGG, SOYBEAN AND CANOLA OIL, CORN SYRUP, DEXTROSE, GLUCOSE, SKIM MILK POWDER, MODIFIED CORN STARCH, WHEY POWDER, LEAVENING (SODIUM ACID PYROPHOSPHATE, SODIUM BICARBONATE, CORN STARCH, MONOCALCIUM PHOSPHATE, CALCIUM SULFATE), SOYBEAN LECITHIN, WHEAT GLUTEN, COCOA BUTTER, BUTTER (CREAM, SALT), SALT, WHOLE MILK POWDER, NATURAL AND ARTIFICIAL FLAVOR, MONO AND DIGLYCERIDES, COLOR (BETA CAROTENE, TITANIUM DIOXIDE, FD&C YELLOW #6, FD&C YELLOW #5), DIACETYL TARTARIC ACID ESTERS OF MONO AND DIGLYCERIDES, GLUCO-DELTA-LACTONE, POTASSIUM SORBATE (PRESERVATIVE), XANTHAN GUM, POLYSORBATE 60." Date available: 07/14/2017 Date last updated by company: 07/14/2017
