Source: USDA Branded Food Products Database Release December 2017 Software v.3.8.6.4 2017-10-02
Report Run at: December 17, 2017 23:50 EST
"Nutrient data for: 45215065, GOURMET SALT WATER TAFFY, UPC: 074453003161"
Food Group:  Branded Food Products Database
Common Name:

Nutrient,Unit,Data points,Std. Error,"4.0 PIECES = 28.0g",1Value per 100 g,
Proximates
"Energy",kcal,--,--,110,393
"Protein",g,--,--,0.00,0.00
"Total lipid (fat)",g,--,--,2.50,8.93
"Carbohydrate, by difference",g,--,--,21.00,75.00
"Fiber, total dietary",g,--,--,0.0,0.0
"Sugars, total",g,--,--,13.00,46.43
Minerals
"Calcium, Ca",mg,--,--,0,0
"Iron, Fe",mg,--,--,0.00,0.00
"Sodium, Na",mg,--,--,170,607
Vitamins
"Vitamin C, total ascorbic acid",mg,--,--,0.0,0.0
"Vitamin A, IU",IU,--,--,0,0
Lipids
"Fatty acids, total saturated",g,--,--,1.000,3.570
"Fatty acids, total trans",g,--,--,0.000,0.000
"Cholesterol",mg,--,--,0,0
Amino Acids
Other
Ingredients
"CORN SYRUP, SUGAR, PALM OIL, EGG WHITES, EVAPORATED MILK, SEA SALT, SOY LECITHIN, MALIC ACID, NATURAL & ARTIFICIAL FLAVOR, ARTIFICIAL COLOR (INCLUDING FD&C YELLOW #5 & #6, RED #3 & #40, BLUE #1)." Date available: 07/14/2017 Date last updated by company: 07/14/2017
