Source: USDA Branded Food Products Database Release December 2017 Software v.3.8.6.4 2017-10-02
Report Run at: December 17, 2017 23:48 EST
"Nutrient data for: 45330695, GOURMET PRETZEL CRUNCHERS, UPC: 681131176705"
Food Group:  Branded Food Products Database
Common Name:

Nutrient,Unit,Data points,Std. Error,"2.0 PIECES = 38.0g",1Value per 100 g,
Proximates
"Energy",kcal,--,--,190,500
"Protein",g,--,--,3.00,7.89
"Total lipid (fat)",g,--,--,9.00,23.68
"Carbohydrate, by difference",g,--,--,25.00,65.79
"Fiber, total dietary",g,--,--,1.0,2.6
"Sugars, total",g,--,--,12.00,31.58
Minerals
"Calcium, Ca",mg,--,--,40,105
"Iron, Fe",mg,--,--,0.50,1.32
"Sodium, Na",mg,--,--,250,658
Vitamins
"Vitamin D",IU,--,--,0,0
Lipids
"Fatty acids, total saturated",g,--,--,5.001,13.160
"Fatty acids, total trans",g,--,--,0.000,0.000
"Cholesterol",mg,--,--,5,13
Amino Acids
Other
Ingredients
"CARAMEL (CORN SYRUP, SWEETENED CONDENSED MILK [MILK, SUGAR], EVAPORATED MILK [MILK, DIPOTASSIUM PHOSPHATE, CARRAGEENAN, VITAMIN D3], SUGAR, BUTTER [CREAM, SALT], COCONUT OIL, SALT, NATURAL AND ARTIFICIAL FLAVOR), PRETZELS (ENRICHED WHEAT FLOUR [FLOUR, NIACIN, REDUCED IRON, THIAMINE MONONITRATE, RIBOFLAVIN, FOLIC ACID], MALT, SALT, SOYBEAN OIL, YEAST), MILK CHOCOLATE (SUGAR, COCOA BUTTER, DRY WHOLE MILK, CHOCOLATE LIQUOR, NONFAT DRY MILK, SOY LECITHIN [AN EMULSIFIER], NATURAL VANILLA), PEANUTS." Date available: 10/13/2017 Date last updated by company: 10/13/2017
