Source: USDA Branded Food Products Database Release December 2017 Software v.3.8.6.4 2017-10-02
Report Run at: December 17, 2017 23:45 EST
"Nutrient data for: 45182565, GOURMET ONION RINGS, UPC: 041303061947"
Food Group:  Branded Food Products Database
Common Name:

Nutrient,Unit,Data points,Std. Error,"2.0 RINGS = 82.0g",1Value per 100 g,
Proximates
"Energy",kcal,--,--,180,220
"Protein",g,--,--,3.00,3.66
"Total lipid (fat)",g,--,--,8.00,9.76
"Carbohydrate, by difference",g,--,--,25.00,30.49
"Fiber, total dietary",g,--,--,1.0,1.2
"Sugars, total",g,--,--,2.00,2.44
Minerals
"Calcium, Ca",mg,--,--,20,24
"Iron, Fe",mg,--,--,0.37,0.45
"Sodium, Na",mg,--,--,430,524
Vitamins
"Vitamin C, total ascorbic acid",mg,--,--,2.5,3.0
"Vitamin A, IU",IU,--,--,0,0
Lipids
"Fatty acids, total saturated",g,--,--,0.500,0.610
"Fatty acids, total trans",g,--,--,0.000,0.000
"Cholesterol",mg,--,--,0,0
Amino Acids
Other
Ingredients
"ONION, BLEACHED WHEAT FLOUR, WATER, VEGETABLE OIL (SOYBEAN AND/OR CANOLA OIL), YELLOW CORN FLOUR, WHEAT FLOUR, SALT, MODIFIED CORN STARCH, CORN STARCH, BLACK PEPPER, DEXTROSE, LEAVENING (SODIUM ACID PYROPHOSPHATE, SODIUM BICARBONATE, MONOCALCIUM PHOSPHATE), SUGAR, SEA SALT, DRIED WHEY, YEAST, CELLULOSE GUM, NONFAT MILK, WHEY." Date available: 07/14/2017 Date last updated by company: 07/14/2017
