Source: USDA Branded Food Products Database Release December 2017 Software v.3.8.6.4 2017-10-02
Report Run at: December 17, 2017 23:37 EST
"Nutrient data for: 45166238, GOURMET DU VILLAGE, CHOCOLATE COVERED ALMONDS, UPC: 772291021971"
Food Group:  Branded Food Products Database
Common Name:

Nutrient,Unit,Data points,Std. Error,"12.0 BONBONS = 40.0g",1Value per 100 g,
Proximates
"Energy",kcal,--,--,214,535
"Protein",g,--,--,3.00,7.50
"Total lipid (fat)",g,--,--,14.00,35.00
"Carbohydrate, by difference",g,--,--,22.00,55.00
"Fiber, total dietary",g,--,--,2.0,5.0
"Sugars, total",g,--,--,20.00,50.00
Minerals
"Calcium, Ca",mg,--,--,60,150
"Iron, Fe",mg,--,--,1.80,4.50
"Sodium, Na",mg,--,--,19,48
Vitamins
"Vitamin C, total ascorbic acid",mg,--,--,0.0,0.0
"Vitamin A, IU",IU,--,--,0,0
Lipids
"Fatty acids, total saturated",g,--,--,6.000,15.000
"Fatty acids, total trans",g,--,--,0.000,0.000
"Cholesterol",mg,--,--,3,8
Amino Acids
Other
Ingredients
"CHOCOLATE COVERED ALMONDS: CHOCOLATE COATING (SUGAR, COCOA BUTTER, CHOCOLATE LIQUOR, WHOLE MILK POWDER, SOY LECITHIN (EMULSIFIER), VANILLIN), ALMONDS, ARABIC GUM, EDIBLE SHELLAC, SALT." Date available: 07/14/2017 Date last updated by company: 07/14/2017
