Source: USDA Branded Food Products Database Release December 2017 Software v.3.8.6.4 2017-10-02
Report Run at: December 17, 2017 23:35 EST
"Nutrient data for: 45211901, GOURMET COOKIES, UPC: 600559010774"
Food Group:  Branded Food Products Database
Common Name:

Nutrient,Unit,Data points,Std. Error,"2.0 COOKIES = 28.0g",1Value per 100 g,
Proximates
"Energy",kcal,--,--,140,500
"Protein",g,--,--,2.00,7.14
"Total lipid (fat)",g,--,--,8.00,28.57
"Carbohydrate, by difference",g,--,--,8.00,28.57
"Fiber, total dietary",g,--,--,0.0,0.0
"Sugars, total",g,--,--,9.00,32.14
Minerals
"Calcium, Ca",mg,--,--,0,0
"Iron, Fe",mg,--,--,0.00,0.00
"Sodium, Na",mg,--,--,85,304
Vitamins
"Vitamin C, total ascorbic acid",mg,--,--,0.0,0.0
"Vitamin A, IU",IU,--,--,179,638
Lipids
"Fatty acids, total saturated",g,--,--,6.000,21.430
"Fatty acids, total trans",g,--,--,0.000,0.000
"Cholesterol",mg,--,--,10,36
Amino Acids
Other
Ingredients
"UNBLEACHED UNBROMATED FLOUR, HI-RATIO CAKE FLOUR (BLEACHED WHEAT FLOUR), BBS ALL PURPOSE TRANS FAT FREE VEGETABLE SHORTENING (PALM OIL), SUGAR, MARGARINE, WHOLE EGGS, EGG WHITES, WATER, SALT, VANILLA FLAVOR, RASPBERRY, CHOCOLATE TOPPED WITH SPRINKLES, COLORED SUGAR, ARTIFICIAL COLOR INCLUDED FD&C YELLOW #6, RED #3, RED #6 RED #40." Date available: 07/14/2017 Date last updated by company: 07/14/2017
