Source: USDA Branded Food Products Database Release December 2017 Software v.3.8.6.4 2017-10-02
Report Run at: December 17, 2017 23:37 EST
"Nutrient data for: 45104534, GOURMET DIP MIX, UPC: 816007010481"
Food Group:  Branded Food Products Database
Common Name:

Nutrient,Unit,Data points,Std. Error,"2.0 tsp = 2.0g",1Value per 100 g,
Proximates
"Energy",kcal,--,--,5,250
"Protein",g,--,--,0.00,0.00
"Total lipid (fat)",g,--,--,0.00,0.00
"Carbohydrate, by difference",g,--,--,1.00,50.00
Minerals
"Sodium, Na",mg,--,--,55,2750
Vitamins
Lipids
Amino Acids
Other
Ingredients
"DEHYDRATED ONION, MALTODEXTRIN, TEXTURED VEGETABLE PROTEIN [(SOY FLOUR, CARAMEL COLOR), SOYBEAN OIL, SALT, NATURAL FLAVORING], YEAST EXTRACT, HYDROLYZED SOY, CORN AND WHEAT PROTEIN, WHEY, SALT, SPICE, NATURAL CHEDDAR CHEESE FLAVOR, EXTRACTIVES OF ANNATTO (COLOR), LACTIC ACID, XANTHAN GUM, EXTRACTIVES OF TURMERIC (COLOR) AND NOT MORE THAN 2% CALCIUM STEARATE ADDED TO PREVENT CAKING." Date available: 06/25/2017 Date last updated by company: 06/25/2017
