Source: USDA Branded Food Products Database Release December 2017 Software v.3.8.6.4 2017-10-02
Report Run at: December 17, 2017 23:48 EST
"Nutrient data for: 45218478, GOURMET PRETZEL DOGS, UPC: 071755011146"
Food Group:  Branded Food Products Database
Common Name:

Nutrient,Unit,Data points,Std. Error,"1 PIECE = 112.0g",1Value per 100 g,
Proximates
"Energy",kcal,--,--,270,241
"Protein",g,--,--,9.00,8.04
"Total lipid (fat)",g,--,--,13.00,11.61
"Carbohydrate, by difference",g,--,--,30.00,26.79
"Fiber, total dietary",g,--,--,1.0,0.9
"Sugars, total",g,--,--,5.00,4.46
Minerals
"Calcium, Ca",mg,--,--,80,71
"Iron, Fe",mg,--,--,0.53,0.47
"Sodium, Na",mg,--,--,629,562
Vitamins
"Vitamin C, total ascorbic acid",mg,--,--,0.6,0.5
"Vitamin A, IU",IU,--,--,0,0
Lipids
"Fatty acids, total saturated",g,--,--,4.502,4.020
"Fatty acids, total trans",g,--,--,0.000,0.000
"Cholesterol",mg,--,--,45,40
Amino Acids
Other
Ingredients
"PRETZEL DOUGH WRAP: WHEAT FLOUR BLEND [WHEAT FLOUR, ENRICHED FLOUR (BLEACHED WHEAT FLOUR, MALTED BARLEY FLOUR, NIACIN, REDUCED IRON, THIAMINE MONONITRATE, RIBOFLAVIN, FOLIC ACID)], WATER, SUGAR, CONTAINS 2% OR LESS OF THE FOLLOWING: SALT, YEAST, GUAR GUM, MONO & DIGLYCERIDES, SORBITAN MONOSTEARATE, ASCORBIC ACID, DEXTROSE, CALCIUM PROPIONATE. TURKEY & BEEF FRANK: MECHANICALLY SEPARATED TURKEY, BEEF, WATER, 2% OR LESS OF THE FOLLOWING: SALT, POTASSIUM LACTATE, PRIME RIB BEEF FLAVORING (NATURAL FLAVORING, SALT, BEEF FAT), NATURAL FLAVORINGS, SODIUM PHOSPHATES, PAPRIKA, SODIUM DIACETATE, SODIUM ERYTHORBATE, AND SODIUM NITRITE." Date available: 07/14/2017 Date last updated by company: 07/14/2017
