Source: USDA Branded Food Products Database Release December 2017 Software v.3.8.6.4 2017-10-02
Report Run at: December 18, 2017 00:01 EST
"Nutrient data for: 45015694, GOYA, HOT CHICKEN VIENNA SAUSAGE IN CHICKEN BROTH, UPC: 041331033244"
Food Group:  Branded Food Products Database
Common Name:

Nutrient,Unit,Data points,Std. Error,"3.0 LINKS = 48.0g",1Value per 100 g,
Proximates
"Energy",kcal,--,--,100,208
"Protein",g,--,--,6.00,12.50
"Total lipid (fat)",g,--,--,8.00,16.67
"Carbohydrate, by difference",g,--,--,1.00,2.08
"Fiber, total dietary",g,--,--,0.0,0.0
"Sugars, total",g,--,--,0.00,0.00
Minerals
"Calcium, Ca",mg,--,--,60,125
"Iron, Fe",mg,--,--,0.83,1.72
"Sodium, Na",mg,--,--,490,1021
Vitamins
"Vitamin C, total ascorbic acid",mg,--,--,0.0,0.0
"Vitamin A, IU",IU,--,--,115,239
Lipids
"Fatty acids, total saturated",g,--,--,2.501,5.210
"Fatty acids, total trans",g,--,--,0.000,0.000
"Cholesterol",mg,--,--,45,94
Amino Acids
Other
Ingredients
"SAUSAGE: MECHANICALLY SEPARATED CHICKEN, WATER, SALT. CONTAINS 2% OR LESS OF: CORN SYRUP, RED PEPPER BLEND (RED PEPPER, SPICE EXTRACTIVE, DEXTROSE, SODIUM ERYTHORBATE, NATURAL FLAVORS, SODIUM NITRITE, GARLIC POWDER. BROTH: CHICKEN BROTH." Date available: 06/25/2017 Date last updated by company: 06/25/2017
