Source: USDA Branded Food Products Database Release December 2017 Software v.3.8.6.4 2017-10-02
Report Run at: December 17, 2017 23:57 EST
"Nutrient data for: 45108358, GOYA, ADOBO ALL PURPOSE SEASONING WITH PEPPER, UPC: 041331038270"
Food Group:  Branded Food Products Database
Common Name:

Nutrient,Unit,Data points,Std. Error,"0.25 tsp = 1.0g",1Value per 100 g,
Proximates
"Energy",kcal,--,--,0,0
"Protein",g,--,--,0.00,0.00
"Total lipid (fat)",g,--,--,0.00,0.00
"Carbohydrate, by difference",g,--,--,0.00,0.00
Minerals
"Sodium, Na",mg,--,--,350,35000
Vitamins
Lipids
"Fatty acids, total saturated",g,--,--,0.000,0.000
"Fatty acids, total trans",g,--,--,0.000,0.000
Amino Acids
Other
Ingredients
"SALT, GRANULATED GARLIC, TRICALCIUM PHOSPHATE (PREVENTS CAKING), OREGANO, BLACK PEPPER, TURMERIC." Date available: 07/14/2017 Date last updated by company: 07/14/2017
