Source: USDA Branded Food Products Database Release December 2017 Software v.3.8.6.4 2017-10-02
Report Run at: December 18, 2017 00:01 EST
"Nutrient data for: 45029419, GOYA, GREEN LIMA BEANS, UPC: 041331125819"
Food Group:  Branded Food Products Database
Common Name:

Nutrient,Unit,Data points,Std. Error,"0.5 cup = 125.0g",1Value per 100 g,
Proximates
"Energy",kcal,--,--,90,72
"Protein",g,--,--,5.00,4.00
"Total lipid (fat)",g,--,--,0.50,0.40
"Carbohydrate, by difference",g,--,--,15.00,12.00
"Fiber, total dietary",g,--,--,4.0,3.2
"Sugars, total",g,--,--,0.00,0.00
Minerals
"Calcium, Ca",mg,--,--,20,16
"Iron, Fe",mg,--,--,1.50,1.20
"Sodium, Na",mg,--,--,330,264
Vitamins
"Vitamin C, total ascorbic acid",mg,--,--,6.2,5.0
"Vitamin A, IU",IU,--,--,104,83
Lipids
"Fatty acids, total saturated",g,--,--,0.000,0.000
"Fatty acids, total trans",g,--,--,0.000,0.000
"Cholesterol",mg,--,--,0,0
Amino Acids
Other
Ingredients
"GREEN LIMA BEANS, WATER AND SALT." Date available: 06/24/2017 Date last updated by company: 06/24/2017
