Source: USDA Branded Food Products Database Release December 2017 Software v.3.8.6.4 2017-10-02
Report Run at: December 17, 2017 23:59 EST
"Nutrient data for: 45029427, GOYA, CUT GREEN BEANS, UPC: 041331125390"
Food Group:  Branded Food Products Database
Common Name:

Nutrient,Unit,Data points,Std. Error,"0.5 cup = 121.0g",1Value per 100 g,
Proximates
"Energy",kcal,--,--,21,17
"Protein",g,--,--,1.00,0.83
"Total lipid (fat)",g,--,--,0.00,0.00
"Carbohydrate, by difference",g,--,--,4.01,3.31
"Fiber, total dietary",g,--,--,2.1,1.7
"Sugars, total",g,--,--,2.00,1.65
Minerals
"Calcium, Ca",mg,--,--,21,17
"Iron, Fe",mg,--,--,1.16,0.96
"Sodium, Na",mg,--,--,300,248
Vitamins
"Vitamin C, total ascorbic acid",mg,--,--,2.5,2.1
"Vitamin A, IU",IU,--,--,215,178
Lipids
"Fatty acids, total saturated",g,--,--,0.000,0.000
"Fatty acids, total trans",g,--,--,0.000,0.000
"Cholesterol",mg,--,--,0,0
Amino Acids
Other
Ingredients
"CUT GREEN BEANS, WATER AND SALT." Date available: 06/24/2017 Date last updated by company: 06/24/2017
