Source: USDA Branded Food Products Database Release December 2017 Software v.3.8.6.4 2017-10-02
Report Run at: December 18, 2017 00:03 EST
"Nutrient data for: 45045850, GOYA, PINK BEANS, UPC: 041331024112"
Food Group:  Branded Food Products Database
Common Name:

Nutrient,Unit,Data points,Std. Error,"0.5 cup = 124.0g",1Value per 100 g,
Proximates
"Energy",kcal,--,--,81,65
"Protein",g,--,--,5.00,4.03
"Total lipid (fat)",g,--,--,0.50,0.40
"Carbohydrate, by difference",g,--,--,16.00,12.90
"Fiber, total dietary",g,--,--,6.9,5.6
"Sugars, total",g,--,--,1.00,0.81
Minerals
"Calcium, Ca",mg,--,--,40,32
"Iron, Fe",mg,--,--,1.51,1.22
"Sodium, Na",mg,--,--,379,306
Vitamins
"Vitamin C, total ascorbic acid",mg,--,--,0.0,0.0
"Vitamin A, IU",IU,--,--,0,0
Lipids
"Fatty acids, total saturated",g,--,--,0.000,0.000
"Fatty acids, total trans",g,--,--,0.000,0.000
"Cholesterol",mg,--,--,0,0
Amino Acids
Other
Ingredients
"PINK BEANS, WATER, SALT AND CALCIUM DISODIUM EDTA ADDED TO PROMOTE COLOR RETENTION." Date available: 07/14/2017 Date last updated by company: 07/14/2017
