Source: USDA Branded Food Products Database Release December 2017 Software v.3.8.6.4 2017-10-02
Report Run at: December 17, 2017 23:59 EST
"Nutrient data for: 45036438, GOYA, CRACKERS, UPC: 041331039451"
Food Group:  Branded Food Products Database
Common Name:

Nutrient,Unit,Data points,Std. Error,"3.0 CRACKERS = 30.0g",1Value per 100 g,
Proximates
"Energy",kcal,--,--,130,433
"Protein",g,--,--,4.00,13.33
"Total lipid (fat)",g,--,--,4.00,13.33
"Carbohydrate, by difference",g,--,--,20.00,66.67
"Fiber, total dietary",g,--,--,0.0,0.0
"Sugars, total",g,--,--,0.00,0.00
Minerals
"Calcium, Ca",mg,--,--,0,0
"Iron, Fe",mg,--,--,1.80,6.00
"Sodium, Na",mg,--,--,130,433
Vitamins
"Vitamin C, total ascorbic acid",mg,--,--,0.0,0.0
"Vitamin A, IU",IU,--,--,0,0
Lipids
"Fatty acids, total saturated",g,--,--,0.999,3.330
"Fatty acids, total trans",g,--,--,0.000,0.000
"Cholesterol",mg,--,--,0,0
Amino Acids
Other
Ingredients
"ENRICHED BLEACHED WHEAT FLOUR, (WHEAT FLOUR, NIACIN, IRON,THIAMINE MONONITRATE, RIBOFLAVIN AND FOLIC ACID), WATER, VEGETABLE SHORTENING (CONTAINS ONE OR MORE OF THE FOLLOWING: PARTIALLY HYDROGENATED SOYBEAN OIL, AND/OR PARTIALLY HYDROGENATED SUNFLOWER SEED OIL), SALT AND YEAST." Date available: 07/14/2017 Date last updated by company: 07/14/2017
