Source: USDA Branded Food Products Database Release December 2017 Software v.3.8.6.4 2017-10-02
Report Run at: December 18, 2017 00:07 EST
"Nutrient data for: 45236970, GOYA, TROPICAL FRUIT JUICE DRINK, MANGO, UPC: 041331028103"
Food Group:  Branded Food Products Database
Common Name:

Nutrient,Unit,Data points,Std. Error,"1 BOTTLE = 355.0g",1Value per 100 g,
Proximates
"Energy",kcal,--,--,149,42
"Protein",g,--,--,0.00,0.00
"Total lipid (fat)",g,--,--,0.00,0.00
"Carbohydrate, by difference",g,--,--,36.99,10.42
"Fiber, total dietary",g,--,--,0.0,0.0
"Sugars, total",g,--,--,36.00,10.14
Minerals
"Calcium, Ca",mg,--,--,0,0
"Iron, Fe",mg,--,--,0.25,0.07
"Sodium, Na",mg,--,--,11,3
Vitamins
"Vitamin C, total ascorbic acid",mg,--,--,40.5,11.4
"Vitamin A, IU",IU,--,--,674,190
Lipids
"Fatty acids, total saturated",g,--,--,0.000,0.000
"Fatty acids, total trans",g,--,--,0.000,0.000
"Cholesterol",mg,--,--,0,0
Amino Acids
Other
Ingredients
"WATER, CANE SUGAR, MANGO PULP, CITRIC ACID AND ASCORBIC ACID (VITAMIN C)." Date available: 06/25/2017 Date last updated by company: 06/25/2017
