Source: USDA Branded Food Products Database Release December 2017 Software v.3.8.6.4 2017-10-02
Report Run at: December 18, 2017 00:10 EST
"Nutrient data for: 45017466, GRACE HARBOR FARMS, NATURAL YOGURT, VANILLA, UPC: 835481002201"
Food Group:  Branded Food Products Database
Common Name:

Nutrient,Unit,Data points,Std. Error,"0.5 cup = 113.0g",1Value per 100 g,
Proximates
"Energy",kcal,--,--,95,84
"Protein",g,--,--,4.00,3.54
"Total lipid (fat)",g,--,--,4.00,3.54
"Carbohydrate, by difference",g,--,--,17.00,15.04
"Fiber, total dietary",g,--,--,0.0,0.0
"Sugars, total",g,--,--,17.00,15.04
Minerals
"Calcium, Ca",mg,--,--,140,124
"Iron, Fe",mg,--,--,0.00,0.00
"Sodium, Na",mg,--,--,52,46
Vitamins
"Vitamin C, total ascorbic acid",mg,--,--,0.9,0.8
"Vitamin A, IU",IU,--,--,150,133
Lipids
"Fatty acids, total saturated",g,--,--,2.000,1.770
"Fatty acids, total trans",g,--,--,0.000,0.000
"Cholesterol",mg,--,--,15,13
Amino Acids
Other
Ingredients
"GRADE A PASTEURIZED, NON-HOMOGENIZED COW MILK, ORGANIC SUGAR, VANILLA EXTRACT (VANILLA BEAN EXTRACTIVE IN WATER, ALCOHOL 35%, AND SUGAR), PROBIOTIC LIVE ACTIVE CULTURE (S. THERMOPHILUS, LACTOBACILLUS DELBRUCKII SUBSP. LACTIS, LACTOBACILLUS ACIDOPHILUS, BIFIDOBACTERIUM LACTIS)" Date available: 06/25/2017 Date last updated by company: 06/25/2017
