Source: USDA Branded Food Products Database Release December 2017 Software v.3.8.6.4 2017-10-02
Report Run at: December 18, 2017 00:09 EST
"Nutrient data for: 45224516, GRACE, CLASSIC COCONUT MILK, UPC: 055270953594"
Food Group:  Branded Food Products Database
Common Name:

Nutrient,Unit,Data points,Std. Error,"0.33 cup = 80.0g",1Value per 100 g,
Proximates
"Energy",kcal,--,--,140,175
"Protein",g,--,--,1.00,1.25
"Total lipid (fat)",g,--,--,14.00,17.50
"Carbohydrate, by difference",g,--,--,2.00,2.50
"Fiber, total dietary",g,--,--,0.0,0.0
"Sugars, total",g,--,--,2.00,2.50
Minerals
"Calcium, Ca",mg,--,--,0,0
"Iron, Fe",mg,--,--,1.08,1.35
"Sodium, Na",mg,--,--,35,44
Vitamins
"Vitamin C, total ascorbic acid",mg,--,--,0.0,0.0
"Vitamin A, IU",IU,--,--,0,0
Lipids
"Fatty acids, total saturated",g,--,--,13.000,16.250
"Fatty acids, total trans",g,--,--,0.000,0.000
"Cholesterol",mg,--,--,0,0
Amino Acids
Other
Ingredients
"COCONUT MILK, WATER, STABILIZERS (MODIFIED STARCH, GUAR GUM, CARBOXYL METHYL CELLULOSE, XANTHAN GUM, LOCUST BEAN GUM, CARRAGEENAN), EMULSIFIER (POLYSORBATE 60), CITRIC ACID, SODIUM METABISULPHITE (TO RETAIN COLOUR)." Date available: 06/25/2017 Date last updated by company: 06/25/2017
