Source: USDA Branded Food Products Database Release December 2017 Software v.3.8.6.4 2017-10-02
Report Run at: December 18, 2017 00:13 EST
"Nutrient data for: 45280474, GRADE A LONG FROZEN POTATOES, UPC: 013120018909"
Food Group:  Branded Food Products Database
Common Name:

Nutrient,Unit,Data points,Std. Error,"13.0 PIECES | ABOUT = 84.0g",1Value per 100 g,
Proximates
"Energy",kcal,--,--,120,143
"Protein",g,--,--,2.00,2.38
"Total lipid (fat)",g,--,--,4.00,4.76
"Carbohydrate, by difference",g,--,--,20.00,23.81
"Fiber, total dietary",g,--,--,2.0,2.4
"Sugars, total",g,--,--,1.00,1.19
Minerals
"Calcium, Ca",mg,--,--,0,0
"Iron, Fe",mg,--,--,0.36,0.43
"Potassium, K",mg,--,--,350,417
"Sodium, Na",mg,--,--,20,24
Vitamins
"Vitamin C, total ascorbic acid",mg,--,--,6.0,7.2
"Vitamin A, IU",IU,--,--,0,0
Lipids
"Fatty acids, total saturated",g,--,--,0.504,0.600
"Fatty acids, total trans",g,--,--,0.000,0.000
"Cholesterol",mg,--,--,0,0
Amino Acids
Other
Ingredients
"POTATOES, VEGETABLE OIL (SUNFLOWER, CANOLA, COTTONSEED AND/OR SOYBEAN), DISODIUM DIHYDROGEN PYROPHOSPHATE (TO RETAIN NATURAL COLOR) DEXTROSE." Date available: 07/14/2017 Date last updated by company: 07/14/2017
