Source: USDA Branded Food Products Database Release December 2017 Software v.3.8.6.4 2017-10-02
Report Run at: December 18, 2017 00:12 EST
"Nutrient data for: 45233319, GRADE A EGG, UPC: 074388005506"
Food Group:  Branded Food Products Database
Common Name:

Nutrient,Unit,Data points,Std. Error,"63.0 GRM = 63.0g",1Value per 100 g,
Proximates
"Energy",kcal,--,--,90,143
"Protein",g,--,--,8.00,12.70
"Total lipid (fat)",g,--,--,6.00,9.52
"Carbohydrate, by difference",g,--,--,0.00,0.00
Minerals
"Calcium, Ca",mg,--,--,40,63
"Iron, Fe",mg,--,--,0.86,1.36
"Sodium, Na",mg,--,--,90,143
Vitamins
"Vitamin C, total ascorbic acid",mg,--,--,0.0,0.0
"Vitamin A, IU",IU,--,--,238,378
Lipids
"Fatty acids, total saturated",g,--,--,1.997,3.170
"Fatty acids, total trans",g,--,--,0.000,0.000
"Cholesterol",mg,--,--,235,373
Amino Acids
Other
Ingredients
"EGGS" Date available: 07/14/2017 Date last updated by company: 07/14/2017
