Source: USDA Branded Food Products Database Release December 2017 Software v.3.8.6.4 2017-10-02
Report Run at: December 18, 2017 00:12 EST
"Nutrient data for: 45276542, GRADE A BROWN EGGS, UPC: 644850000607"
Food Group:  Branded Food Products Database
Common Name:

Nutrient,Unit,Data points,Std. Error,"1 EGG = 63.0g",1Value per 100 g,
Proximates
"Energy",kcal,--,--,90,143
"Protein",g,--,--,8.00,12.70
"Total lipid (fat)",g,--,--,5.00,7.94
"Carbohydrate, by difference",g,--,--,0.00,0.00
Minerals
"Calcium, Ca",mg,--,--,40,63
"Iron, Fe",mg,--,--,1.08,1.71
"Sodium, Na",mg,--,--,90,143
Vitamins
"Vitamin C, total ascorbic acid",mg,--,--,0.0,0.0
"Vitamin A, IU",IU,--,--,300,476
Lipids
"Fatty acids, total saturated",g,--,--,1.997,3.170
"Fatty acids, total trans",g,--,--,0.000,0.000
"Cholesterol",mg,--,--,235,373
Amino Acids
Other
Ingredients
"GRADE A BROWN EGGS" Date available: 03/12/2017 Date last updated by company: 03/12/2017
