Source: USDA Branded Food Products Database Release December 2017 Software v.3.8.6.4 2017-10-02
Report Run at: December 18, 2017 00:13 EST
"Nutrient data for: 45267368, GRADE A NATURAL LOWFAT YOGURT, UPC: 083057321021"
Food Group:  Branded Food Products Database
Common Name:

Nutrient,Unit,Data points,Std. Error,"8.0 ONZ = 227.0g",1Value per 100 g,
Proximates
"Energy",kcal,--,--,200,88
"Protein",g,--,--,7.99,3.52
"Total lipid (fat)",g,--,--,2.50,1.10
"Carbohydrate, by difference",g,--,--,36.00,15.86
"Fiber, total dietary",g,--,--,0.9,0.4
"Sugars, total",g,--,--,23.99,10.57
Minerals
"Calcium, Ca",mg,--,--,300,132
"Iron, Fe",mg,--,--,0.00,0.00
"Sodium, Na",mg,--,--,134,59
Vitamins
"Vitamin C, total ascorbic acid",mg,--,--,4.5,2.0
"Vitamin A, IU",IU,--,--,75,33
Lipids
"Fatty acids, total saturated",g,--,--,1.498,0.660
"Fatty acids, total trans",g,--,--,0.000,0.000
"Cholesterol",mg,--,--,16,7
Amino Acids
Other
Ingredients
"CULTURED PASTEURIZED GRADE A REDUCED FAT MILK, SUGAR, STRAWBERRIES, MODIFIED FOOD STARCH, NATURAL FLAVOR, CARRAGEENAN, PECTIN, CITRIC ACID, CARROT JUICE AND BETA-CAROTENE (FOR COLOR)." Date available: 07/14/2017 Date last updated by company: 07/14/2017
