Source: USDA Branded Food Products Database Release December 2017 Software v.3.8.6.4 2017-10-02
Report Run at: December 18, 2017 00:16 EST
"Nutrient data for: 45003104, GRAHAM CRACKERS, UPC: 011110018731"
Food Group:  Branded Food Products Database
Common Name:

Nutrient,Unit,Data points,Std. Error,"4.0 CRACKERS = 27.0g",1Value per 100 g,
Proximates
"Energy",kcal,--,--,120,444
"Protein",g,--,--,2.00,7.41
"Total lipid (fat)",g,--,--,3.00,11.11
"Carbohydrate, by difference",g,--,--,20.00,74.07
"Fiber, total dietary",g,--,--,1.0,3.7
"Sugars, total",g,--,--,5.00,18.52
Minerals
"Calcium, Ca",mg,--,--,20,74
"Iron, Fe",mg,--,--,1.33,4.94
"Sodium, Na",mg,--,--,140,519
Vitamins
"Vitamin C, total ascorbic acid",mg,--,--,0.0,0.0
"Vitamin A, IU",IU,--,--,0,0
Lipids
"Fatty acids, total saturated",g,--,--,0.500,1.850
"Fatty acids, total monounsaturated",g,--,--,0.500,1.850
"Fatty acids, total polyunsaturated",g,--,--,1.501,5.560
"Fatty acids, total trans",g,--,--,0.000,0.000
"Cholesterol",mg,--,--,0,0
Amino Acids
Other
Ingredients
"ENRICHED FLOUR (WHEAT FLOUR, BARLEY MALT, NIACIN, REDUCED IRON, THIAMINE MONONITRATE, RIBOFLAVIN, FOLIC ACID), GRAHAM FLOUR, SUGAR, WATER, SOYBEAN OIL (WITH TBHQ [ANTIOXIDANT]), MOLASSES, HIGH FRUCTOSE CORN SYRUP, OAT FIBER, SALT, BAKING SODA, ARTIFICIAL FLAVOR, DEXTROSE, MODIFIED CORNSTARCH, CORNSTARCH, SODIUM SULFITE, SOY LECITHIN, WHEY, ENZYMES." Date available: 06/25/2017 Date last updated by company: 06/25/2017
