Source: USDA Branded Food Products Database Release December 2017 Software v.3.8.6.4 2017-10-02
Report Run at: December 18, 2017 00:17 EST
"Nutrient data for: 45160236, GRAHAMS, IRISH OAR COOKIES, UPC: 060051292861"
Food Group:  Branded Food Products Database
Common Name:

Nutrient,Unit,Data points,Std. Error,"2.0 COOKIES = 30.0g",1Value per 100 g,
Proximates
"Energy",kcal,--,--,140,467
"Protein",g,--,--,2.00,6.67
"Total lipid (fat)",g,--,--,9.00,30.00
"Carbohydrate, by difference",g,--,--,11.00,36.67
"Fiber, total dietary",g,--,--,1.0,3.3
"Sugars, total",g,--,--,6.00,20.00
Minerals
"Calcium, Ca",mg,--,--,0,0
"Iron, Fe",mg,--,--,0.60,2.00
"Sodium, Na",mg,--,--,30,100
Vitamins
"Vitamin C, total ascorbic acid",mg,--,--,0.0,0.0
"Vitamin A, IU",IU,--,--,0,0
Lipids
"Fatty acids, total saturated",g,--,--,4.500,15.000
"Fatty acids, total trans",g,--,--,0.000,0.000
"Cholesterol",mg,--,--,0,0
Amino Acids
Other
Ingredients
"OATS (33%), BUTTER (MILK), WHEATFLOUR (GLUTEN, CALCIUM CARBONATE, IRON, THIAMIN, NIACIN), SUGAR, VEGETABLE FATS (PALM & RAPESEED), RAISING AGENT: DISODIUM DIPHOSPHATE, POTASSIUM HYDROGEN CARBONATE" Date available: 07/14/2017 Date last updated by company: 07/14/2017
