Source: USDA Branded Food Products Database Release December 2017 Software v.3.8.6.4 2017-10-02
Report Run at: December 18, 2017 00:15 EST
"Nutrient data for: 45181017, GRAHAM CRACKER CRUMBS, UPC: 011161036104"
Food Group:  Branded Food Products Database
Common Name:

Nutrient,Unit,Data points,Std. Error,"2.0 Tbsp = 13.0g",1Value per 100 g,
Proximates
"Energy",kcal,--,--,50,385
"Protein",g,--,--,1.00,7.69
"Total lipid (fat)",g,--,--,1.00,7.69
"Carbohydrate, by difference",g,--,--,9.00,69.23
"Fiber, total dietary",g,--,--,0.0,0.0
"Sugars, total",g,--,--,3.00,23.08
Minerals
"Calcium, Ca",mg,--,--,0,0
"Iron, Fe",mg,--,--,1.38,10.65
"Sodium, Na",mg,--,--,70,538
Vitamins
"Vitamin C, total ascorbic acid",mg,--,--,0.0,0.0
"Vitamin A, IU",IU,--,--,0,0
Lipids
"Fatty acids, total saturated",g,--,--,0.501,3.850
"Fatty acids, total trans",g,--,--,0.000,0.000
"Cholesterol",mg,--,--,0,0
Amino Acids
Other
Ingredients
"ENRICHED FLOUR (WHEAT FLOUR, NIACIN, REDUCED IRON, THIAMIN MONONITRATE, RIBOFLAVIN, FOLIC ACID), SUGAR, WHOLE WHEAT FLOUR, PALM OIL, HIGH FRUCTOSE CORN SYRUP, BROWN SUGAR, HONEY, SODIUM BICARBONATE, MOLASSES, SALT, MALT SYRUP (MALTED BARLEY, CORN), ARTIFICIAL FLAVOR." Date available: 08/17/2017 Date last updated by company: 08/17/2017
