Source: USDA Branded Food Products Database Release December 2017 Software v.3.8.6.4 2017-10-02
Report Run at: December 18, 2017 00:19 EST
"Nutrient data for: 45032966, GRAINFUL, STEEL CUT MEALS, STEEL CUT OATS FOR DINNER, VEGETARIAN CHILI, UPC: 853186006089"
Food Group:  Branded Food Products Database
Common Name:

Nutrient,Unit,Data points,Std. Error,"1 MEAL = 283.0g",1Value per 100 g,
Proximates
"Energy",kcal,--,--,280,99
"Protein",g,--,--,12.99,4.59
"Total lipid (fat)",g,--,--,8.01,2.83
"Carbohydrate, by difference",g,--,--,41.01,14.49
"Fiber, total dietary",g,--,--,9.1,3.2
"Sugars, total",g,--,--,6.99,2.47
Minerals
"Calcium, Ca",mg,--,--,150,53
"Iron, Fe",mg,--,--,1.87,0.66
"Sodium, Na",mg,--,--,340,120
Vitamins
"Vitamin C, total ascorbic acid",mg,--,--,20.7,7.3
"Vitamin A, IU",IU,--,--,860,304
Lipids
"Fatty acids, total saturated",g,--,--,3.000,1.060
"Fatty acids, total trans",g,--,--,0.000,0.000
"Cholesterol",mg,--,--,11,4
Amino Acids
Other
Ingredients
"WATER, TOMATOES, BLACK BEANS, PINTO BEANS, KIDNEY BEANS, CHEDDAR CHEESE (PASTEURIZED COW'S MILK, CHEESE CULTURE, SALT, ENZYMES), ORGANIC CORN, 100% WHOLE GRAIN BELL PEPPER, LESS THAN 2% OF THE FOLLOWING: QUINOA, OLIVE OIL, CHIPOTLE PEPPERS IN ADOBO SAUCE (CHIPOTLE PEPPERS, WATER, VINEGAR, SUGAR, SALT, TOMATO PASTE, SMOKE ESSENCE, ONION, GARLIC), MINCED ONIONS, SPICES ([CHILI POWDER (CHILI POWDER, PAPRIKA, GARLIC, OREGANO, CUMIN, SALT], SMOKED PAPRIKA, CUMIN, GRANULATED GARLIC), SALT." Date available: 07/14/2017 Date last updated by company: 07/14/2017
