Source: USDA Branded Food Products Database Release December 2017 Software v.3.8.6.4 2017-10-02
Report Run at: December 18, 2017 00:21 EST
"Nutrient data for: 45171828, GRAN DELIZIA, ITALIAN CAKE, RAISINS, CANDIED FRUITS, UPC: 020765020389"
Food Group:  Branded Food Products Database
Common Name:

Nutrient,Unit,Data points,Std. Error,"0.111 CAKE = 83.0g",1Value per 100 g,
Proximates
"Energy",kcal,--,--,310,373
"Protein",g,--,--,6.00,7.23
"Total lipid (fat)",g,--,--,12.00,14.46
"Carbohydrate, by difference",g,--,--,45.00,54.22
"Fiber, total dietary",g,--,--,2.0,2.4
"Sugars, total",g,--,--,21.00,25.30
Minerals
"Calcium, Ca",mg,--,--,40,48
"Iron, Fe",mg,--,--,0.70,0.84
"Sodium, Na",mg,--,--,150,181
Vitamins
"Vitamin C, total ascorbic acid",mg,--,--,0.0,0.0
"Vitamin A, IU",IU,--,--,96,116
Lipids
"Fatty acids, total saturated",g,--,--,6.001,7.230
"Fatty acids, total trans",g,--,--,0.000,0.000
"Cholesterol",mg,--,--,90,108
Amino Acids
Other
Ingredients
"WHEAT FLOUR - RAISINS - VEGETABLE MARGARINE (PALM OIL - WATER - ACIDITY CORRECTOR: CITRIC ACID) - SUGAR - EGG YOLK - NATURAL YEAST (WHEAT) - CANDIED ORANGE PEELS (ORANGE PEELS - GLUCOSE SYRUP - FRUCTOSE - SUGAR - ACIDITY CORRECTOR: CITRIC ACID) - EMULSIFIERS: MONO AND DIGLYCERIDES OF FATTY ACIDS - INVERTED SUGAR - SALT - DRIED SKIMMED MILK - FLAVOURINGS." Date available: 10/09/2017 Date last updated by company: 10/09/2017
