Source: USDA Branded Food Products Database Release December 2017 Software v.3.8.6.4 2017-10-02
Report Run at: December 18, 2017 00:21 EST
"Nutrient data for: 45170064, GRANDCSTORS, COLORADO HASH PALEO QUALITY MEALS, UPC: 865995000035"
Food Group:  Branded Food Products Database
Common Name:

Nutrient,Unit,Data points,Std. Error,"1 PACKAGE = 340.0g",1Value per 100 g,
Proximates
"Energy",kcal,--,--,459,135
"Protein",g,--,--,38.01,11.18
"Total lipid (fat)",g,--,--,14.99,4.41
"Carbohydrate, by difference",g,--,--,41.99,12.35
"Fiber, total dietary",g,--,--,6.1,1.8
"Sugars, total",g,--,--,11.02,3.24
Minerals
"Calcium, Ca",mg,--,--,82,24
"Iron, Fe",mg,--,--,2.69,0.79
"Sodium, Na",mg,--,--,768,226
Vitamins
"Vitamin C, total ascorbic acid",mg,--,--,29.9,8.8
"Vitamin A, IU",IU,--,--,18499,5441
Lipids
"Fatty acids, total saturated",g,--,--,9.010,2.650
"Fatty acids, total trans",g,--,--,0.000,0.000
"Cholesterol",mg,--,--,95,28
Amino Acids
Other
Ingredients
"SWEET POTATOES, CHICKEN BREAST, ONIONS, TURKEY ANDOUILLE SAUSAGE (TURKEY, WATER, PAPRIKA, SEA SALT, SPICE, DEHYDRATED GARLIC, DEHYDRATED ONION, STUFFED IN COLLAGEN CASING), GREEN BELL PEPPERS, ORGANIC COCONUT OIL, SEA SALT, PEPPER." Date available: 07/14/2017 Date last updated by company: 07/14/2017
