Source: USDA Branded Food Products Database Release December 2017 Software v.3.8.6.4 2017-10-02
Report Run at: December 18, 2017 00:29 EST
"Nutrient data for: 45188605, GRANOLA COOKIE CRUNCH, UPC: 859621003217"
Food Group:  Branded Food Products Database
Common Name:

Nutrient,Unit,Data points,Std. Error,"0.33 cup = 30.0g",1Value per 100 g,
Proximates
"Energy",kcal,--,--,140,467
"Protein",g,--,--,2.00,6.67
"Total lipid (fat)",g,--,--,5.00,16.67
"Carbohydrate, by difference",g,--,--,21.00,70.00
"Fiber, total dietary",g,--,--,2.0,6.7
"Sugars, total",g,--,--,9.00,30.00
Minerals
"Calcium, Ca",mg,--,--,20,67
"Iron, Fe",mg,--,--,1.50,5.00
"Sodium, Na",mg,--,--,53,177
Vitamins
"Vitamin C, total ascorbic acid",mg,--,--,0.0,0.0
"Vitamin A, IU",IU,--,--,0,0
Lipids
"Fatty acids, total saturated",g,--,--,0.999,3.330
"Fatty acids, total trans",g,--,--,0.000,0.000
"Cholesterol",mg,--,--,8,27
Amino Acids
Other
Ingredients
"ROLLED OATS, ORGANIC CORN MEAL, DRIED CRANBERRIES (CRANBERRIES, SUGAR, SUNFLOWER OIL), EVAPORATED CANE JUICE, CANOLA OIL, MOLASSES, WHITE CHOCOLATE CHIPS (SUGAR, COCOA BUTTER, WHOLE MILK POWDER, NONFAT MILK POWDER, SOY LECITHIN, NATURAL FLAVOR), EGG, FLAX SEED, HONEY NATURAL FLAVOR, SALT, BAKING SODA, BAKING POWDER (SODIUM ACID PYROPHOSPHATE, SODIUM BICARBONATE, CORNSTARCH, MONOCALCIUM PHOSPHATE)." Date available: 07/14/2017 Date last updated by company: 07/14/2017
