Source: USDA Branded Food Products Database Release December 2017 Software v.3.8.6.4 2017-10-02
Report Run at: December 18, 2017 00:35 EST
"Nutrient data for: 45254826, GRANOLA, UPC: 788709636088"
Food Group:  Branded Food Products Database
Common Name:

Nutrient,Unit,Data points,Std. Error,"0.25 CUP | ABOUT = 28.0g",1Value per 100 g,
Proximates
"Energy",kcal,--,--,110,393
"Protein",g,--,--,2.00,7.14
"Total lipid (fat)",g,--,--,3.00,10.71
"Carbohydrate, by difference",g,--,--,21.00,75.00
"Fiber, total dietary",g,--,--,2.0,7.1
"Sugars, total",g,--,--,9.00,32.14
Minerals
"Calcium, Ca",mg,--,--,0,0
"Iron, Fe",mg,--,--,1.41,5.05
"Sodium, Na",mg,--,--,45,161
Vitamins
"Vitamin C, total ascorbic acid",mg,--,--,0.0,0.0
"Vitamin A, IU",IU,--,--,197,702
Lipids
"Fatty acids, total saturated",g,--,--,0.501,1.790
"Fatty acids, total trans",g,--,--,0.000,0.000
"Cholesterol",mg,--,--,0,0
Amino Acids
Other
Ingredients
"LOW FAT GRANOLA (WHOLE GRAIN WHEAT SUGAR CORN SYRUP RICE ALMONDS MOLASSES MODIFIED CORN STARCH HIGH FRUCTOSE, CORN SYRUP PALM OIL SALT CINNAMON NONFAT DRY MILK NATURAL AND ARTIFICIAL FLAVOR POLYGLYCEROL ESTERS OF MONO ESTERS OF MONO- AND DIGLYCERIDES MALT FLAVOR NIACINAMIDE ZINC OXIDE ASCORBIC ACID [VITAMIN C] PYRIDOXINE HYDROCHLORIDE [VITAMIN B6] REDUCED IRON GUR GUM BHT (PRESERVATIVE) RIBOFLAVIN [VITAMIN B2] VIATMIN A PALMITATE FOLIC ACID THIAMIN HYDROCHLORIDE DROP [VITAMIN B1] VITAMIN B12 AND VITAMIN D) CRANBERRIES (SUGAR SUNFLOWER OIL) ALMNDS" Date available: 07/14/2017 Date last updated by company: 07/14/2017
