Source: USDA Branded Food Products Database Release December 2017 Software v.3.8.6.4 2017-10-02
Report Run at: December 18, 2017 00:27 EST
"Nutrient data for: 45067061, GRANOLA BARS, UPC: 688267058219"
Food Group:  Branded Food Products Database
Common Name:

Nutrient,Unit,Data points,Std. Error,"1 BAR = 33.0g",1Value per 100 g,
Proximates
"Energy",kcal,--,--,120,364
"Protein",g,--,--,2.00,6.06
"Total lipid (fat)",g,--,--,2.00,6.06
"Carbohydrate, by difference",g,--,--,24.00,72.73
"Fiber, total dietary",g,--,--,1.0,3.0
"Sugars, total",g,--,--,11.00,33.33
Minerals
"Calcium, Ca",mg,--,--,20,61
"Iron, Fe",mg,--,--,0.87,2.65
"Sodium, Na",mg,--,--,95,288
Vitamins
"Vitamin C, total ascorbic acid",mg,--,--,0.0,0.0
"Vitamin A, IU",IU,--,--,0,0
Lipids
"Fatty acids, total saturated",g,--,--,0.502,1.520
"Fatty acids, total trans",g,--,--,0.000,0.000
"Cholesterol",mg,--,--,0,0
Amino Acids
Other
Ingredients
"GRANOLA CEREAL (ROLLED OATS, CRISP RICE [RICE FLOUR, SUGAR, BARLEY MALT EXTRACT, SALT], WHEAT FLAKES, BROWN SUGAR, WHEY POWDER, SOYBEAN OIL, HONEY, MOLASSES), BROWN RICE SYRUP, EVAPORATED CANE JUICE, BLUEBERRY FLAVORED FRUIT PIECES (SUGAR, BLUEBERRY JUICE SOLIDS [BLUEBERRY JUICE, BLUEBERRY EXTRACT], CRANBERRIES, SUNFLOWER OIL), WHEY PROTEIN CONCENTRATE, SOY LECITHIN, NATURAL FLAVORS, SALT, SLICED ALMONDS, MALIC ACID." Date available: 07/14/2017 Date last updated by company: 07/14/2017
