Source: USDA Branded Food Products Database Release December 2017 Software v.3.8.6.4 2017-10-02
Report Run at: December 18, 2017 00:32 EST
"Nutrient data for: 45180079, GRANOLA, UPC: 711535507697"
Food Group:  Branded Food Products Database
Common Name:

Nutrient,Unit,Data points,Std. Error,"0.5 cup = 51.0g",1Value per 100 g,
Proximates
"Energy",kcal,--,--,230,451
"Protein",g,--,--,6.00,11.76
"Total lipid (fat)",g,--,--,11.00,21.57
"Carbohydrate, by difference",g,--,--,31.00,60.78
"Fiber, total dietary",g,--,--,4.0,7.8
"Sugars, total",g,--,--,9.00,17.65
Minerals
"Calcium, Ca",mg,--,--,40,78
"Iron, Fe",mg,--,--,1.94,3.80
"Sodium, Na",mg,--,--,0,0
Vitamins
"Vitamin C, total ascorbic acid",mg,--,--,0.0,0.0
"Vitamin A, IU",IU,--,--,0,0
Lipids
"Fatty acids, total saturated",g,--,--,1.000,1.960
"Fatty acids, total trans",g,--,--,0.000,0.000
"Cholesterol",mg,--,--,0,0
Amino Acids
Other
Ingredients
"WHOLE ROLLED OATS, MILLED SUGAR, EXPELLER PRESSED CANOLA OIL, OAT BRAN, HONEY, ALMONDS, SUNFLOWER SEEDS, PECANS, PUMPKIN SEEDS, SESAME SEEDS, FREEZE DRIED BLUEBERRIES, FREEZE DRIED APPLES." Date available: 07/14/2017 Date last updated by company: 07/14/2017
