Source: USDA Branded Food Products Database Release December 2017 Software v.3.8.6.4 2017-10-02
Report Run at: December 18, 2017 00:25 EST
"Nutrient data for: 45188985, GRANNY SMITH CARAMEL APPLE, UPC: 879147003713"
Food Group:  Branded Food Products Database
Common Name:

Nutrient,Unit,Data points,Std. Error,"205.0 GRM = 205.0g",1Value per 100 g,
Proximates
"Energy",kcal,--,--,250,122
"Protein",g,--,--,2.01,0.98
"Total lipid (fat)",g,--,--,5.00,2.44
"Carbohydrate, by difference",g,--,--,51.00,24.88
"Fiber, total dietary",g,--,--,3.1,1.5
"Sugars, total",g,--,--,37.00,18.05
Minerals
"Calcium, Ca",mg,--,--,80,39
"Iron, Fe",mg,--,--,0.06,0.03
"Sodium, Na",mg,--,--,180,88
Vitamins
"Vitamin C, total ascorbic acid",mg,--,--,1.8,0.9
"Vitamin A, IU",IU,--,--,39,19
Lipids
"Fatty acids, total saturated",g,--,--,3.506,1.710
"Fatty acids, total trans",g,--,--,0.000,0.000
"Cholesterol",mg,--,--,14,7
Amino Acids
Other
Ingredients
"APPLE, CORN SYRUP, SWEETENED CONDENSED MILK, FRESH CREAM, SUGAR, PALM OIL, GUAR GUM, CARRAGEENAN, LOCUST BEAN GUM, SALT, ARTIFICIAL FLAVOR, SOY LECITHIN (AN EMULSIFIER)." Date available: 07/14/2017 Date last updated by company: 07/14/2017
