Source: USDA Branded Food Products Database Release December 2017 Software v.3.8.6.4 2017-10-02
Report Run at: December 18, 2017 00:37 EST
"Nutrient data for: 45104625, GRANULATED SUGAR SUBSTITUTE, UPC: 041190253197"
Food Group:  Branded Food Products Database
Common Name:

Nutrient,Unit,Data points,Std. Error,"1 PACKET = 1.0g",1Value per 100 g,
Proximates
"Energy",kcal,--,--,0,0
"Protein",g,--,--,0.00,0.00
"Total lipid (fat)",g,--,--,0.00,0.00
"Carbohydrate, by difference",g,--,--,1.00,100.00
"Sugars, total",g,--,--,1.00,100.00
Minerals
"Sodium, Na",mg,--,--,0,0
Vitamins
Lipids
Amino Acids
Other
Ingredients
"DEXTROSE WITH MALTODEXTRIN, 3.6% CALCIUM SACCHARIN (36 MG PER PACKET), CREAM OF TARTAR, CALCIUM SILICATE (AN ANTI-CAKING AGENT)." Date available: 06/25/2017 Date last updated by company: 06/25/2017
