Source: USDA Branded Food Products Database Release December 2017 Software v.3.8.6.4 2017-10-02
Report Run at: December 18, 2017 00:22 EST
"Nutrient data for: 45214172, GRANDMA'S BABY DILLS, UPC: 041660007787"
Food Group:  Branded Food Products Database
Common Name:

Nutrient,Unit,Data points,Std. Error,"3.0 SMALL PICKLES) | (ABOUT = 28.0g",1Value per 100 g,
Proximates
"Energy",kcal,--,--,5,18
"Protein",g,--,--,0.00,0.00
"Total lipid (fat)",g,--,--,0.00,0.00
"Carbohydrate, by difference",g,--,--,1.00,3.57
"Sugars, total",g,--,--,1.00,3.57
Minerals
"Sodium, Na",mg,--,--,260,929
Vitamins
Lipids
Amino Acids
Other
Ingredients
"CUCUMBERS, WATER, CIDER VINEGAR, DISTILLED VINEGAR, CARROTS, PEPPERS, SALT, GARLIC, SUGAR, CALCIUM CHLORIDE, DILL SEED, NATURAL SPICE FLAVORS, ARABIC GUM, XANTHAN GUM." Date available: 07/14/2017 Date last updated by company: 07/14/2017
