Source: USDA Branded Food Products Database Release December 2017 Software v.3.8.6.4 2017-10-02
Report Run at: December 18, 2017 00:21 EST
"Nutrient data for: 45114816, GRANDMA HOERNER'S, BIG SLICE, KETTLE COOKED APPLES SLICES, CHUNKS & SAUCE, CHERRY VANILLA, UPC: 018522884145"
Food Group:  Branded Food Products Database
Common Name:

Nutrient,Unit,Data points,Std. Error,"0.5 cup = 128.0g",1Value per 100 g,
Proximates
"Energy",kcal,--,--,90,70
"Protein",g,--,--,0.00,0.00
"Total lipid (fat)",g,--,--,0.00,0.00
"Carbohydrate, by difference",g,--,--,22.00,17.19
"Fiber, total dietary",g,--,--,2.0,1.6
"Sugars, total",g,--,--,17.00,13.28
Minerals
"Calcium, Ca",mg,--,--,0,0
"Iron, Fe",mg,--,--,0.00,0.00
"Sodium, Na",mg,--,--,10,8
Vitamins
"Vitamin C, total ascorbic acid",mg,--,--,36.1,28.2
"Vitamin A, IU",IU,--,--,110,86
Lipids
"Fatty acids, total saturated",g,--,--,0.000,0.000
"Fatty acids, total trans",g,--,--,0.000,0.000
"Cholesterol",mg,--,--,0,0
Amino Acids
Other
Ingredients
"WHOLESOME INGREDIENTS: SLICED APPLES, WATER, TART CHERRIES, APPLE AND/OR WHITE GRAPE JUICE CONCENTRATE, CONTAINS 2% OR LESS OF: MADAGASCAR VANILLA BEAN PASTE (SUGAR, WATER, VANILLA EXTRACT, VANILLA BEANS), NATURAL ALMOND FLAVOR, ASCORBIC ACID, CITRIC ACID, XANTHAN GUM." Date available: 09/27/2017 Date last updated by company: 09/27/2017
