Source: USDA Branded Food Products Database Release December 2017 Software v.3.8.6.4 2017-10-02
Report Run at: December 18, 2017 00:27 EST
"Nutrient data for: 45080804, GRANOLA BARS, UPC: 688267088483"
Food Group:  Branded Food Products Database
Common Name:

Nutrient,Unit,Data points,Std. Error,"1 BAR = 24.0g",1Value per 100 g,
Proximates
"Energy",kcal,--,--,90,375
"Protein",g,--,--,1.00,4.17
"Total lipid (fat)",g,--,--,1.50,6.25
"Carbohydrate, by difference",g,--,--,19.00,79.17
"Fiber, total dietary",g,--,--,1.0,4.2
"Sugars, total",g,--,--,7.00,29.17
Minerals
"Calcium, Ca",mg,--,--,80,333
"Iron, Fe",mg,--,--,1.20,5.00
"Potassium, K",mg,--,--,60,250
"Sodium, Na",mg,--,--,50,208
Vitamins
"Vitamin C, total ascorbic acid",mg,--,--,0.0,0.0
"Vitamin A, IU",IU,--,--,0,0
Lipids
"Fatty acids, total saturated",g,--,--,0.499,2.080
"Fatty acids, total monounsaturated",g,--,--,0.499,2.080
"Fatty acids, total polyunsaturated",g,--,--,0.000,0.000
"Fatty acids, total trans",g,--,--,0.000,0.000
"Cholesterol",mg,--,--,0,0
Amino Acids
Other
Ingredients
"GRANOLA (WHOLE GRAIN ROLLED OATS, WHOLE GRAIN BROWN RICE FLOUR, SUGAR, WHOLE WHEAT FLAKES, HIGH OLEIC CANOLA OIL, MOLASSES, ENRICHED WHEAT FLOUR [BLEACHED WHEAT FLOUR, MALTED BARLEY FLOUR, NIACIN, REDUCED IRON, THIAMIN MONONITRATE, RIBOFLAVIN, FOLIC ACID], CALCIUM CARBONATE, SODIUM BICARBONATE, NONFAT DRY MILK , SOY LECITHIN, CARAMEL COLOR), CORN SYRUP, SEMISWEET CHOCOLATE CHUNKS (SUGAR, CHOCOLATE LIQUOR, COCOA BUTTER, ANHYDROUS DEXTROSE, SOY LECITHIN, VANILLIN [AN ARTIFICIAL FLAVOR]), WHOLE GRAIN BROWN RICE FLOUR, SUGAR, CORN SYRUP SOLIDS, GLYCERIN, DRIED COCONUT, PALM OIL, INVERT SUGAR, LESS THAN 2% OF: CALCIUM CARBONATE, MOLASSES, SOY LECITHIN, SALT, COCOA, CITRIC ACID, NATURAL AND ARTIFICIAL FLAVORS. MIXED TOCOPHEROLS (A PRESERVATIVE), CARAMEL COLOR, PRUNE JUICE CONCENTRATE." Date available: 06/25/2017 Date last updated by company: 06/25/2017
