Source: USDA Branded Food Products Database Release December 2017 Software v.3.8.6.4 2017-10-02
Report Run at: December 18, 2017 00:31 EST
"Nutrient data for: 45171484, GRANOLA, UPC: 011150980906"
Food Group:  Branded Food Products Database
Common Name:

Nutrient,Unit,Data points,Std. Error,"0.333 cup = 40.0g",1Value per 100 g,
Proximates
"Energy",kcal,--,--,160,400
"Protein",g,--,--,3.00,7.50
"Total lipid (fat)",g,--,--,5.00,12.50
"Carbohydrate, by difference",g,--,--,27.00,67.50
"Fiber, total dietary",g,--,--,3.0,7.5
"Sugars, total",g,--,--,6.00,15.00
Minerals
"Calcium, Ca",mg,--,--,20,50
"Iron, Fe",mg,--,--,1.48,3.71
"Sodium, Na",mg,--,--,0,0
Vitamins
"Vitamin C, total ascorbic acid",mg,--,--,0.0,0.0
"Vitamin A, IU",IU,--,--,0,0
Lipids
"Fatty acids, total saturated",g,--,--,0.000,0.000
"Fatty acids, total trans",g,--,--,0.000,0.000
"Cholesterol",mg,--,--,0,0
Amino Acids
Other
Ingredients
"WHOLE GRAIN OATS, HONEY, BROWN SUGAR, CANOLA OIL (ASCORBIC ACID, ROSEMARY, CITRIC ACID), MAPLE SYRUP, NATURAL FLAVOR." Date available: 07/14/2017 Date last updated by company: 07/14/2017
