Source: USDA Branded Food Products Database Release December 2017 Software v.3.8.6.4 2017-10-02
Report Run at: December 18, 2017 00:33 EST
"Nutrient data for: 45188465, GRANOLA, UPC: 850575004275"
Food Group:  Branded Food Products Database
Common Name:

Nutrient,Unit,Data points,Std. Error,"0.25 cup = 28.0g",1Value per 100 g,
Proximates
"Energy",kcal,--,--,100,357
"Protein",g,--,--,4.00,14.29
"Total lipid (fat)",g,--,--,7.00,25.00
"Carbohydrate, by difference",g,--,--,7.00,25.00
"Fiber, total dietary",g,--,--,2.0,7.1
"Sugars, total",g,--,--,3.00,10.71
Minerals
"Calcium, Ca",mg,--,--,20,71
"Iron, Fe",mg,--,--,1.93,6.88
"Sodium, Na",mg,--,--,20,71
Vitamins
"Vitamin C, total ascorbic acid",mg,--,--,0.0,0.0
"Vitamin A, IU",IU,--,--,0,0
Lipids
"Fatty acids, total saturated",g,--,--,1.501,5.360
"Fatty acids, total trans",g,--,--,0.000,0.000
"Cholesterol",mg,--,--,0,0
Amino Acids
Other
Ingredients
"SUNFLOWER SEEDS, ALMONDS, DATE SUGAR (DATES), ORGANIC COCOA POWDER, FLAXSEED MEAL, ORGANIC COCOA NIBS, ORGANIC CINNAMON PURE VANILLA EXTRACT, PURE CHERRY EXTRACT, SEA SALT." Date available: 07/14/2017 Date last updated by company: 07/14/2017
