Source: USDA Branded Food Products Database Release December 2017 Software v.3.8.6.4 2017-10-02
Report Run at: December 18, 2017 00:21 EST
"Nutrient data for: 45194040, GRANDMA HOERNER'S, BIG SLICE, KETTLLE COOKED APPLES, CARAMEL, UPC: 018522884183"
Food Group:  Branded Food Products Database
Common Name:

Nutrient,Unit,Data points,Std. Error,"0.5 cup = 128.0g",1Value per 100 g,
Proximates
"Energy",kcal,--,--,110,86
"Protein",g,--,--,0.00,0.00
"Total lipid (fat)",g,--,--,0.00,0.00
"Carbohydrate, by difference",g,--,--,26.00,20.31
"Fiber, total dietary",g,--,--,2.0,1.6
"Sugars, total",g,--,--,23.00,17.97
Minerals
"Calcium, Ca",mg,--,--,0,0
"Iron, Fe",mg,--,--,0.19,0.15
"Sodium, Na",mg,--,--,10,8
Vitamins
"Vitamin C, total ascorbic acid",mg,--,--,39.4,30.8
"Vitamin A, IU",IU,--,--,0,0
Lipids
"Fatty acids, total saturated",g,--,--,0.000,0.000
"Fatty acids, total trans",g,--,--,0.000,0.000
"Cholesterol",mg,--,--,0,0
Amino Acids
Other
Ingredients
"WHOLESOME INGREDIENTS: SLICED APPLES, WATER, APPLE AND/OR WHITE GRAPE JUICE CONCENTRATE, BROWN SUGAR, CONTAINS 2% OR LESS OF: VANILLA EXTRACT, SPICES, NATURAL CARAMEL FLAVOR, ASCORBIC ACID, CITRIC ACID, XANTHAN GUM." Date available: 07/14/2017 Date last updated by company: 07/14/2017
