Source: USDA Branded Food Products Database Release December 2017 Software v.3.8.6.4 2017-10-02
Report Run at: December 18, 2017 00:42 EST
"Nutrient data for: 45220639, GRAPE LEAVES, UPC: 643700134790"
Food Group:  Branded Food Products Database
Common Name:

Nutrient,Unit,Data points,Std. Error,"1 LEAF = 8.0g",1Value per 100 g,
Proximates
"Energy",kcal,--,--,5,62
"Protein",g,--,--,0.00,0.00
"Total lipid (fat)",g,--,--,0.00,0.00
"Carbohydrate, by difference",g,--,--,1.00,12.50
Minerals
"Sodium, Na",mg,--,--,100,1250
Vitamins
Lipids
Amino Acids
Other
Ingredients
"GRAPE LEAVES, WATER, SALT CITRIC ACID, SODIUM BENZOATE, POTASSIUM SORBATE AND SODIUM META BISULFATE USED AS PRESERVATIVES." Date available: 07/14/2017 Date last updated by company: 07/14/2017
