Source: USDA Branded Food Products Database Release December 2017 Software v.3.8.6.4 2017-10-02
Report Run at: December 18, 2017 00:40 EST
"Nutrient data for: 45324524, GRAPEFRUIT, UPC: 851694003781"
Food Group:  Branded Food Products Database
Common Name:

Nutrient,Unit,Data points,Std. Error,"1 CAN = 222.0g",1Value per 100 g,
Proximates
"Energy",kcal,--,--,100,45
"Protein",g,--,--,0.00,0.00
"Total lipid (fat)",g,--,--,0.00,0.00
"Carbohydrate, by difference",g,--,--,24.00,10.81
"Sugars, total",g,--,--,22.00,9.91
Minerals
"Sodium, Na",mg,--,--,0,0
Vitamins
Lipids
Amino Acids
Other
Ingredients
"CARBONATED WATER, SUGAR, CITRIC ACID, GRAPEFRUIT EXTRACT, AND OTHER NATURAL FLAVORS." Date available: 08/10/2017 Date last updated by company: 08/10/2017
