Source: USDA Branded Food Products Database Release December 2017 Software v.3.8.6.4 2017-10-02
Report Run at: December 18, 2017 00:43 EST
"Nutrient data for: 45203153, GRAPES CUP, UPC: 850367002397"
Food Group:  Branded Food Products Database
Common Name:

Nutrient,Unit,Data points,Std. Error,"6.5 ONZ = 184.0g",1Value per 100 g,
Proximates
"Energy",kcal,--,--,131,71
"Protein",g,--,--,0.99,0.54
"Total lipid (fat)",g,--,--,0.00,0.00
"Carbohydrate, by difference",g,--,--,32.99,17.93
"Fiber, total dietary",g,--,--,2.0,1.1
"Sugars, total",g,--,--,29.00,15.76
Minerals
"Calcium, Ca",mg,--,--,20,11
"Iron, Fe",mg,--,--,0.55,0.30
"Sodium, Na",mg,--,--,0,0
Vitamins
"Vitamin C, total ascorbic acid",mg,--,--,16.0,8.7
"Vitamin A, IU",IU,--,--,75,41
Lipids
"Fatty acids, total saturated",g,--,--,0.000,0.000
"Fatty acids, total trans",g,--,--,0.000,0.000
"Cholesterol",mg,--,--,0,0
Amino Acids
Other
Ingredients
"RED SEEDLESS GRAPES" Date available: 10/19/2017 Date last updated by company: 10/19/2017
