Source: USDA Branded Food Products Database Release December 2017 Software v.3.8.6.4 2017-10-02
Report Run at: December 18, 2017 00:42 EST
"Nutrient data for: 45236399, GRAPE PUNCH, UPC: 041497257508"
Food Group:  Branded Food Products Database
Common Name:

Nutrient,Unit,Data points,Std. Error,"8.0 OZA = 240.0g",1Value per 100 g,
Proximates
"Energy",kcal,--,--,79,33
"Protein",g,--,--,0.00,0.00
"Total lipid (fat)",g,--,--,0.00,0.00
"Carbohydrate, by difference",g,--,--,21.00,8.75
"Sugars, total",g,--,--,19.99,8.33
Minerals
"Sodium, Na",mg,--,--,36,15
Vitamins
"Vitamin C, total ascorbic acid",mg,--,--,90.0,37.5
Lipids
Amino Acids
Other
Ingredients
"FILTERED WATER, HIGH FRUCTOSE CORN SYRUP AND 2% OR LESS OF EACH OF THE FOLLOWING: CONCENTRATED JUICES (PINEAPPLE, ORANGE, PASSIONFRUIT, APPLE), PUREES (APRICOT, PAPAYA, GUAVA), CITRIC ACID, NATURAL AND ARTIFICIAL FLAVORS, PECTIN, GUM ACACIA, SUCRALOSE, GLYCEROL ESTER OF WOOD ROSIN, SODIUM HEXAMETAPHOSPHATE, RED 40, BLUE 1, ASCORBIC ACID (VITAMIN C)." Date available: 06/25/2017 Date last updated by company: 06/25/2017
