Source: USDA Branded Food Products Database Release December 2017 Software v.3.8.6.4 2017-10-02
Report Run at: December 18, 2017 00:46 EST
"Nutrient data for: 45296088, GRAPE WATER ENHANCER, UPC: 072392139620"
Food Group:  Branded Food Products Database
Common Name:

Nutrient,Unit,Data points,Std. Error,"0.042 BOTTLE (ABOUT 1/2 TSP) = 2.0g",1Value per 100 g,
Proximates
"Energy",kcal,--,--,0,0
"Protein",g,--,--,0.00,0.00
"Total lipid (fat)",g,--,--,0.00,0.00
"Carbohydrate, by difference",g,--,--,1.00,50.00
Minerals
"Sodium, Na",mg,--,--,35,1750
Vitamins
Lipids
Amino Acids
Other
Ingredients
"WATER, CITRIC ACID, NATURAL AND ARTIFICIAL FLAVORS, SODIUM CITRATE, SUCRALOSE, MALIC ACID, CONTAINS 2% OR LESS OF THE FOLLOWING: TARTARIC ACID, RED 40, ACESULFAME POTASSIUM, XANTHAN GUM, BLUE 1, POTASSIUM SORBATE (PRESERVATIVE)." Date available: 08/11/2017 Date last updated by company: 08/11/2017
