Source: USDA Branded Food Products Database Release December 2017 Software v.3.8.6.4 2017-10-02
Report Run at: December 18, 2017 00:49 EST
"Nutrient data for: 45204737, GRASS-FED WHEY BAR, UPC: 890704002819"
Food Group:  Branded Food Products Database
Common Name:

Nutrient,Unit,Data points,Std. Error,"1 BAR = 50.0g",1Value per 100 g,
Proximates
"Energy",kcal,--,--,190,380
"Protein",g,--,--,14.00,28.00
"Total lipid (fat)",g,--,--,7.00,14.00
"Carbohydrate, by difference",g,--,--,21.00,42.00
"Fiber, total dietary",g,--,--,7.0,14.0
"Sugars, total",g,--,--,5.00,10.00
Minerals
"Calcium, Ca",mg,--,--,50,100
"Iron, Fe",mg,--,--,0.57,1.15
"Sodium, Na",mg,--,--,120,240
Vitamins
"Vitamin C, total ascorbic acid",mg,--,--,19.2,38.4
"Vitamin A, IU",IU,--,--,0,0
Lipids
"Fatty acids, total saturated",g,--,--,2.000,4.000
"Fatty acids, total trans",g,--,--,0.000,0.000
"Cholesterol",mg,--,--,20,40
Amino Acids
Other
Ingredients
"GRASS-FED WHEY PROTEIN (WHEY PROTEIN CONCENTRATE, WHEY PROTEIN ISOLATE), CHICORY ROOT FIBER, GLUTEN-FREE OATS, ORGANIC DARK CHOCOLATE (ORGANIC SUGAR, ORGANIC CHOCOLATE LIQUOR, ORGANIC COCOA BUTTER, ORGANIC SOY LECITHIN, ORGANIC VANILLA), ORGANIC TAPIOCA SYRUP, VEGETABLE GLYCERIN, ORGANIC SUNFLOWER OIL, ALMOND BUTTER, RESPONSIBLY-CAUGHT FISH OIL (ANCHOVY, SARDINE, TILAPIA), COCOA POWDER, NATURAL FLAVORS, SEA SALT, SUNFLOWER LECITHIN, TAPIOCA STARCH, MONK FRUIT EXTRACT." Date available: 07/14/2017 Date last updated by company: 07/14/2017
