Source: USDA Branded Food Products Database Release December 2017 Software v.3.8.6.4 2017-10-02
Report Run at: December 18, 2017 00:46 EST
"Nutrient data for: 45185821, GRASS-FED BEEF PATTIES, UPC: 810088022067"
Food Group:  Branded Food Products Database
Common Name:

Nutrient,Unit,Data points,Std. Error,"4.0 ONZ = 112.0g",1Value per 100 g,
Proximates
"Energy",kcal,--,--,290,259
"Protein",g,--,--,20.00,17.86
"Total lipid (fat)",g,--,--,23.00,20.54
"Carbohydrate, by difference",g,--,--,0.00,0.00
"Fiber, total dietary",g,--,--,0.0,0.0
"Sugars, total",g,--,--,0.00,0.00
Minerals
"Iron, Fe",mg,--,--,2.05,1.83
"Sodium, Na",mg,--,--,69,62
Vitamins
Lipids
"Fatty acids, total saturated",g,--,--,9.005,8.040
"Fatty acids, total trans",g,--,--,0.000,0.000
"Cholesterol",mg,--,--,69,62
Amino Acids
Other
Ingredients
"100% GRASS-FED BEEF" Date available: 10/19/2017 Date last updated by company: 10/19/2017
