Source: USDA Branded Food Products Database Release December 2017 Software v.3.8.6.4 2017-10-02
Report Run at: December 18, 2017 00:49 EST
"Nutrient data for: 45271601, GRASS FED WHEY PROTEIN BEVERAGE, UPC: 851316006008"
Food Group:  Branded Food Products Database
Common Name:

Nutrient,Unit,Data points,Std. Error,"1 BOTTLE = 355.0g",1Value per 100 g,
Proximates
"Energy",kcal,--,--,181,51
"Protein",g,--,--,25.99,7.32
"Total lipid (fat)",g,--,--,0.00,0.00
"Carbohydrate, by difference",g,--,--,17.00,4.79
"Fiber, total dietary",g,--,--,0.0,0.0
"Sugars, total",g,--,--,16.01,4.51
Minerals
"Calcium, Ca",mg,--,--,401,113
"Iron, Fe",mg,--,--,0.35,0.10
"Sodium, Na",mg,--,--,369,104
Vitamins
"Vitamin C, total ascorbic acid",mg,--,--,1.1,0.3
"Vitamin A, IU",IU,--,--,0,0
Lipids
"Fatty acids, total saturated",g,--,--,0.000,0.000
"Fatty acids, total trans",g,--,--,0.000,0.000
"Cholesterol",mg,--,--,11,3
Amino Acids
Other
Ingredients
"WATER, PROTEIN BLEND (WHEY PROTEIN ISOLATE, MILK PROTEIN CONCENTRATE), NONFAT DRY MILK, ORGANIC UNREFINED CANE SUGAR, ORGANIC VANILLA EXTRACT, ORGANIC STEVIA LEAF EXTRACT, CARRAGEENAN, GELLAN GUM." Date available: 05/31/2017 Date last updated by company: 05/31/2017
