Source: USDA Branded Food Products Database Release December 2017 Software v.3.8.6.4 2017-10-02
Report Run at: December 18, 2017 00:55 EST
"Nutrient data for: 45268115, GRAVY, UPC: 704863120812"
Food Group:  Branded Food Products Database
Common Name:

Nutrient,Unit,Data points,Std. Error,"1 ONZ = 28.0g",1Value per 100 g,
Proximates
"Energy",kcal,--,--,10,36
"Protein",g,--,--,0.00,0.00
"Total lipid (fat)",g,--,--,0.00,0.00
"Carbohydrate, by difference",g,--,--,2.00,7.14
"Fiber, total dietary",g,--,--,0.0,0.0
"Sugars, total",g,--,--,0.00,0.00
Minerals
"Calcium, Ca",mg,--,--,0,0
"Iron, Fe",mg,--,--,0.00,0.00
"Sodium, Na",mg,--,--,220,786
Vitamins
"Vitamin C, total ascorbic acid",mg,--,--,0.0,0.0
"Vitamin A, IU",IU,--,--,0,0
Lipids
"Fatty acids, total saturated",g,--,--,0.000,0.000
"Fatty acids, total trans",g,--,--,0.000,0.000
"Cholesterol",mg,--,--,0,0
Amino Acids
Other
Ingredients
"FILTERED WATER, CORN STARCH, ALL PURPOSE FLOUR, MALTODEXTRIN, SALT, ONION POWDER, HYDROLYZED VEGETABLE PROTEIN (SOY/CORN), DEHYDRATED VEGETABLES (CARROTS, POTATOES, TOMATO, BELL PEPPER, CELERY), DEXTROSE, NATURAL FLAVOR, SUGAR, SOYBEAN OIL, SPICES, CARAMEL COLOR." Date available: 07/24/2017 Date last updated by company: 07/24/2017
