Source: USDA Branded Food Products Database Release December 2017 Software v.3.8.6.4 2017-10-02
Report Run at: December 18, 2017 00:55 EST
"Nutrient data for: 45145759, GRAY SALT CARAMELS, UPC: 749668233138"
Food Group:  Branded Food Products Database
Common Name:

Nutrient,Unit,Data points,Std. Error,"1 PIECE = 8.0g",1Value per 100 g,
Proximates
"Energy",kcal,--,--,45,562
"Protein",g,--,--,0.00,0.00
"Total lipid (fat)",g,--,--,2.00,25.00
"Carbohydrate, by difference",g,--,--,6.00,75.00
"Fiber, total dietary",g,--,--,0.0,0.0
"Sugars, total",g,--,--,4.00,50.00
Minerals
"Calcium, Ca",mg,--,--,0,0
"Iron, Fe",mg,--,--,0.00,0.00
"Sodium, Na",mg,--,--,5,62
Vitamins
"Vitamin C, total ascorbic acid",mg,--,--,0.0,0.0
"Vitamin A, IU",IU,--,--,0,0
Lipids
"Fatty acids, total saturated",g,--,--,1.500,18.750
"Fatty acids, total trans",g,--,--,0.000,0.000
"Cholesterol",mg,--,--,5,62
Amino Acids
Other
Ingredients
"ORGANIC CREAM (MILK), ORGANIC SUGAR, DARK CHOCOLATE (COCOA BEANS, SUGAR, COCOA BUTTER, NON-GMO SOY LECITHIN AND VANILLA), ORGANIC TAPIOCA SYRUP, ORGANIC BUTTER (SWEET CREAM [MILK]), VANILLA EXTRACT, ORGANIC LEMON JUICE AND SEA SALT." Date available: 07/14/2017 Date last updated by company: 07/14/2017
