Source: USDA Branded Food Products Database Release December 2017 Software v.3.8.6.4 2017-10-02
Report Run at: December 18, 2017 01:08 EST
"Nutrient data for: 45114639, GREAT VALUE, COFFEE CREAMER, UPC: 078742108940"
Food Group:  Branded Food Products Database
Common Name:

Nutrient,Unit,Data points,Std. Error,"1 tsp = 2.0g",1Value per 100 g,
Proximates
"Energy",kcal,--,--,10,500
"Protein",g,--,--,0.00,0.00
"Total lipid (fat)",g,--,--,0.50,25.00
"Carbohydrate, by difference",g,--,--,1.00,50.00
Minerals
"Potassium, K",mg,--,--,10,500
"Sodium, Na",mg,--,--,0,0
Vitamins
Lipids
"Fatty acids, total saturated",g,--,--,0.000,0.000
"Fatty acids, total monounsaturated",g,--,--,0.000,0.000
"Fatty acids, total polyunsaturated",g,--,--,0.000,0.000
"Fatty acids, total trans",g,--,--,0.000,0.000
"Cholesterol",mg,--,--,0,0
Amino Acids
Other
Ingredients
"CORN SYRUP SOLIDS, PALM OIL, SODIUM CASEINATE ( A MILK DERIVATIVE), DIPOTASSIUM PHOSPHATE, CONTAINS 2 PERCENT OR LESS OF MONO- AND DIGLYCERIDES, SODIUM SILICOALUMINATE (ANTI-CAKING AGENT), SOY LECITHIN, NATURAL AND ARTIFICIAL FLAVOR, ARTIFICIAL COLOR." Date available: 06/25/2017 Date last updated by company: 06/25/2017
