Source: USDA Branded Food Products Database Release December 2017 Software v.3.8.6.4 2017-10-02
Report Run at: December 18, 2017 01:21 EST
"Nutrient data for: 45224690, GREAT VALUE, NONFAT INSTANT DRY MILK, UPC: 078742352183"
Food Group:  Branded Food Products Database
Common Name:

Nutrient,Unit,Data points,Std. Error,"0.25 POUCH = 23.0g",1Value per 100 g,
Proximates
"Energy",kcal,--,--,80,348
"Protein",g,--,--,8.00,34.78
"Total lipid (fat)",g,--,--,0.00,0.00
"Carbohydrate, by difference",g,--,--,12.00,52.17
"Fiber, total dietary",g,--,--,0.0,0.0
"Sugars, total",g,--,--,12.00,52.17
Minerals
"Calcium, Ca",mg,--,--,300,1304
"Iron, Fe",mg,--,--,0.00,0.00
"Potassium, K",mg,--,--,390,1696
"Sodium, Na",mg,--,--,125,543
Vitamins
"Vitamin C, total ascorbic acid",mg,--,--,2.6,11.3
"Vitamin A, IU",IU,--,--,1087,4726
"Vitamin D",IU,--,--,100,435
Lipids
"Fatty acids, total saturated",g,--,--,0.000,0.000
"Fatty acids, total monounsaturated",g,--,--,0.000,0.000
"Fatty acids, total polyunsaturated",g,--,--,0.000,0.000
"Fatty acids, total trans",g,--,--,0.000,0.000
"Cholesterol",mg,--,--,5,22
Amino Acids
Other
Ingredients
"NONFAT DRY MILK, VITAMIN A PALMITATE, VITAMIN D3." Date available: 07/14/2017 Date last updated by company: 07/14/2017
