Source: USDA Branded Food Products Database Release December 2017 Software v.3.8.6.4 2017-10-02
Report Run at: December 18, 2017 01:24 EST
"Nutrient data for: 45224312, GREAT VALUE, PREMIUM SHELLS & CHEESE PASTA, ORIGINAL, UPC: 078742433134"
Food Group:  Branded Food Products Database
Common Name:

Nutrient,Unit,Data points,Std. Error,"0.33 BOX | ABOUT = 113.0g",1Value per 100 g,
Proximates
"Energy",kcal,--,--,370,327
"Protein",g,--,--,12.00,10.62
"Total lipid (fat)",g,--,--,12.00,10.62
"Carbohydrate, by difference",g,--,--,52.00,46.02
"Fiber, total dietary",g,--,--,2.0,1.8
"Sugars, total",g,--,--,4.99,4.42
Minerals
"Calcium, Ca",mg,--,--,150,133
"Iron, Fe",mg,--,--,3.98,3.52
"Potassium, K",mg,--,--,231,204
"Sodium, Na",mg,--,--,880,779
Vitamins
"Vitamin C, total ascorbic acid",mg,--,--,0.0,0.0
"Vitamin A, IU",IU,--,--,0,0
Lipids
"Fatty acids, total saturated",g,--,--,3.503,3.100
"Fatty acids, total monounsaturated",g,--,--,2.994,2.650
"Fatty acids, total polyunsaturated",g,--,--,4.995,4.420
"Fatty acids, total trans",g,--,--,0.000,0.000
"Cholesterol",mg,--,--,15,13
Amino Acids
Other
Ingredients
"ENRICHED MACARONI PRODUCT (WHEAT FLOUR, NIACIN, FERROUS SULFATE, THIAMINE MONONITRATE, RIBOFLAVIN, FOLIC ACID), MILD CHEDDAR CHEESE SAUCE (WATER, CHEDDAR CHEESE [PASTEURIZED MILK, CHEESE CULTURE, SALT, ENZYMES], SOYBEAN OIL, MALTODEXTRIN, WHEY,, NON-FAT DRY MILK, WHEY PROTEIN CONCENTRATE, SODIUM PHOSPHATE, CONTAINS 2% OR LESS OF NATURAL AND ARTIFICIAL FLAVORS, SALT, COLORS ADDED [BETA CAROTENE, PAPRIKA EXTRACT], SODIUM ALGINATE, MONO AND DIGLYCERIDES, LACTIC ACID, WHITE DISTILLED VINEGAR, SORBIC ACID TO PRESERVE FRESHNESS, XANTHAN GUM)." Date available: 07/14/2017 Date last updated by company: 07/14/2017
