Source: USDA Branded Food Products Database Release December 2017 Software v.3.8.6.4 2017-10-02
Report Run at: December 18, 2017 01:04 EST
"Nutrient data for: 45052381, GREAT VALUE, BIG & FLAKY CRESCENT ROLLS, UPC: 078742011288"
Food Group:  Branded Food Products Database
Common Name:

Nutrient,Unit,Data points,Std. Error,"1 ROLL, PER CONTAINER = 43.0g",1Value per 100 g,
Proximates
"Energy",kcal,--,--,150,349
"Protein",g,--,--,2.00,4.65
"Total lipid (fat)",g,--,--,7.00,16.28
"Carbohydrate, by difference",g,--,--,18.00,41.86
"Fiber, total dietary",g,--,--,0.0,0.0
"Sugars, total",g,--,--,4.00,9.30
Minerals
"Calcium, Ca",mg,--,--,0,0
"Iron, Fe",mg,--,--,2.76,6.43
"Potassium, K",mg,--,--,170,395
"Sodium, Na",mg,--,--,300,698
Vitamins
"Vitamin C, total ascorbic acid",mg,--,--,0.0,0.0
"Thiamin",mg,--,--,0.000,0.000
"Riboflavin",mg,--,--,0.087,0.202
"Niacin",mg,--,--,1.534,3.567
"Vitamin A, IU",IU,--,--,0,0
Lipids
"Fatty acids, total saturated",g,--,--,2.000,4.650
"Fatty acids, total monounsaturated",g,--,--,2.498,5.810
"Fatty acids, total polyunsaturated",g,--,--,2.498,5.810
"Fatty acids, total trans",g,--,--,0.000,0.000
"Cholesterol",mg,--,--,0,0
Amino Acids
Other
Ingredients
"ENRICHED BLEACHED FLOUR (WHEAT FLOUR, NIACIN, IRON, THIAMINE MONONITRATE [ VITAMIN B1], RIBOFLAVIN [ VITAMIN B2], FOLIC ACID), WATER, VEGETABLE OIL (PALM AND SOYBEAN OILS), SUGAR, LEAVENING (BAKING SODA, SODIUM ACID PYROPHOSPHATE, SODIUM ALUMINUM PHOSPHATE, ALUMINUM SULFATE), DEXTROSE. CONTAINS 2% OR LESS OF EACH OF THE FOLLOWING: POTASSIUM CHLORIDE, SALT, WHEAT GLUTEN, SODIUM STEAROYL LACTYLATE, XANTHAN GUM, CANOLA OIL, POTASSIUM SORBATE (PRESERVATIVE), ARTIFICIAL BUTTER FLAVOR, COLORED WITH (YELLOW 5, CARAMEL COLOR, YELLOW 6), SOY FLOUR." Date available: 06/25/2017 Date last updated by company: 06/25/2017
