Source: USDA Branded Food Products Database Release December 2017 Software v.3.8.6.4 2017-10-02
Report Run at: December 18, 2017 00:58 EST
"Nutrient data for: 45264422, GREAT GRILLSBY PATTIES, UPC: 018582112929"
Food Group:  Branded Food Products Database
Common Name:

Nutrient,Unit,Data points,Std. Error,"1 PATTY = 112.0g",1Value per 100 g,
Proximates
"Energy",kcal,--,--,320,286
"Protein",g,--,--,18.00,16.07
"Total lipid (fat)",g,--,--,28.00,25.00
"Carbohydrate, by difference",g,--,--,2.00,1.79
"Fiber, total dietary",g,--,--,2.0,1.8
"Sugars, total",g,--,--,0.00,0.00
Minerals
"Calcium, Ca",mg,--,--,40,36
"Iron, Fe",mg,--,--,2.05,1.83
"Sodium, Na",mg,--,--,340,304
Vitamins
"Vitamin C, total ascorbic acid",mg,--,--,0.0,0.0
"Vitamin A, IU",IU,--,--,0,0
Lipids
"Fatty acids, total saturated",g,--,--,10.998,9.820
"Fatty acids, total trans",g,--,--,0.000,0.000
"Cholesterol",mg,--,--,60,54
Amino Acids
Other
Ingredients
"BEEF, WATER, TEXTURED SOY PROTIEN CONCENTRATE, SOY PROTEIN CONCENTRATE, SEASONING (SALT, HYDROLYZED SOY PROTEIN, DEXTROSE, MONOSODIUM GLUTAMATE, ONION POWDER, SPICE EXTRACTIVES)." Date available: 07/14/2017 Date last updated by company: 07/14/2017
