Source: USDA Branded Food Products Database Release December 2017 Software v.3.8.6.4 2017-10-02
Report Run at: December 18, 2017 01:02 EST
"Nutrient data for: 45148394, GREAT SKOTT!, KALE CHIPS, VEGAN CHEESE, UPC: 074526704483"
Food Group:  Branded Food Products Database
Common Name:

Nutrient,Unit,Data points,Std. Error,"1 ONZ = 28.0g",1Value per 100 g,
Proximates
"Energy",kcal,--,--,150,536
"Protein",g,--,--,7.00,25.00
"Total lipid (fat)",g,--,--,10.00,35.71
"Carbohydrate, by difference",g,--,--,12.00,42.86
"Fiber, total dietary",g,--,--,4.0,14.3
"Sugars, total",g,--,--,1.00,3.57
Minerals
"Calcium, Ca",mg,--,--,60,214
"Iron, Fe",mg,--,--,3.21,11.48
"Sodium, Na",mg,--,--,180,643
Vitamins
"Vitamin C, total ascorbic acid",mg,--,--,42.9,153.1
"Vitamin A, IU",IU,--,--,5357,19132
Lipids
"Fatty acids, total saturated",g,--,--,1.000,3.570
"Fatty acids, total trans",g,--,--,0.000,0.000
"Cholesterol",mg,--,--,0,0
Amino Acids
Other
Ingredients
"KALE, RED BELL PEPPERS, CASHEWS, SUNFLOWER SEEDS, NUTRITIONAL YEAST, LEMON JUICE, CAYENNE PEPPER, SEA SALT." Date available: 07/14/2017 Date last updated by company: 07/14/2017
