Source: USDA Branded Food Products Database Release December 2017 Software v.3.8.6.4 2017-10-02
Report Run at: December 18, 2017 01:05 EST
"Nutrient data for: 45057040, GREAT VALUE, CALIFORNIA-STYLE RIPE OLIVES, UPC: 078742369792"
Food Group:  Branded Food Products Database
Common Name:

Nutrient,Unit,Data points,Std. Error,"4.0 OLIVES = 15.0g",1Value per 100 g,
Proximates
"Energy",kcal,--,--,25,167
"Protein",g,--,--,0.00,0.00
"Total lipid (fat)",g,--,--,2.50,16.67
"Carbohydrate, by difference",g,--,--,1.00,6.67
"Fiber, total dietary",g,--,--,0.0,0.0
"Sugars, total",g,--,--,0.00,0.00
Minerals
"Calcium, Ca",mg,--,--,0,0
"Iron, Fe",mg,--,--,0.00,0.00
"Potassium, K",mg,--,--,0,0
"Sodium, Na",mg,--,--,115,767
Vitamins
"Vitamin C, total ascorbic acid",mg,--,--,0.0,0.0
"Vitamin A, IU",IU,--,--,0,0
Lipids
"Fatty acids, total saturated",g,--,--,0.000,0.000
"Fatty acids, total monounsaturated",g,--,--,1.500,10.000
"Fatty acids, total polyunsaturated",g,--,--,0.000,0.000
"Fatty acids, total trans",g,--,--,0.000,0.000
"Cholesterol",mg,--,--,0,0
Amino Acids
Other
Ingredients
"BLACK OLIVES, WATER, SALT, FERROUS GLUCONATE." Date available: 07/14/2017 Date last updated by company: 07/14/2017
