Source: USDA Branded Food Products Database Release December 2017 Software v.3.8.6.4 2017-10-02
Report Run at: December 18, 2017 01:11 EST
"Nutrient data for: 45209280, GREAT VALUE, DRINK ENHANCER, STRAWBERRY WATERMELON, UPC: 078742084091"
Food Group:  Branded Food Products Database
Common Name:

Nutrient,Unit,Data points,Std. Error,"0.041 BOTTLE (ABOUT) = 2.0g",1Value per 100 g,
Proximates
"Energy",kcal,--,--,5,250
"Protein",g,--,--,0.00,0.00
"Total lipid (fat)",g,--,--,0.00,0.00
"Carbohydrate, by difference",g,--,--,1.00,50.00
"Sugars, total",g,--,--,1.00,50.00
Minerals
"Sodium, Na",mg,--,--,30,1500
Vitamins
Lipids
Amino Acids
Other
Ingredients
"CANE SUGAR, WATER, NATURAL FLAVOR, GLYCERIN, MALIC ACID, STEVIA EXTRACT (SWEETENER), SODIUM CITRATE, LESS THAN 2% POTASSIUM CITRATE, SALT." Date available: 08/11/2017 Date last updated by company: 08/11/2017
