Source: USDA Branded Food Products Database Release December 2017 Software v.3.8.6.4 2017-10-02
Report Run at: December 18, 2017 01:28 EST
"Nutrient data for: 45005677, GREAT VALUE, THIN SLICED TURKEY BREAST, MESQUITE SMOKED, UPC: 078742041322"
Food Group:  Branded Food Products Database
Common Name:

Nutrient,Unit,Data points,Std. Error,"4.0 SLICES = 51.0g",1Value per 100 g,
Proximates
"Energy",kcal,--,--,50,98
"Protein",g,--,--,9.00,17.65
"Total lipid (fat)",g,--,--,1.00,1.96
"Carbohydrate, by difference",g,--,--,2.00,3.92
"Sugars, total",g,--,--,1.00,1.96
Minerals
"Iron, Fe",mg,--,--,0.39,0.76
"Sodium, Na",mg,--,--,620,1216
Vitamins
Lipids
"Fatty acids, total saturated",g,--,--,0.500,0.980
"Fatty acids, total trans",g,--,--,0.000,0.000
"Cholesterol",mg,--,--,25,49
Amino Acids
Other
Ingredients
"TURKEY BREAST, TURKEY BROTH, SLAT, LESS THAN 2% OF: DEXTROSE, MODIFIED FOOD STARCH, POTASSIUM LACTATE, SODIUM PHOSPHATE, CARRAGEENAN, SODIUM DIACETATE, SODIUM ERYTHROBATE, NATURAL FLAVORING, HONEY, SODIUM NITRITE." Date available: 06/25/2017 Date last updated by company: 06/25/2017
