Source: USDA Branded Food Products Database Release December 2017 Software v.3.8.6.4 2017-10-02
Report Run at: December 18, 2017 02:10 EST
"Nutrient data for: 45220515, GREEN LIMA BEANS, UPC: 607880010527"
Food Group:  Branded Food Products Database
Common Name:

Nutrient,Unit,Data points,Std. Error,"0.5 cup = 125.0g",1Value per 100 g,
Proximates
"Energy",kcal,--,--,90,72
"Protein",g,--,--,4.00,3.20
"Total lipid (fat)",g,--,--,0.50,0.40
"Carbohydrate, by difference",g,--,--,17.00,13.60
"Fiber, total dietary",g,--,--,4.0,3.2
"Sugars, total",g,--,--,1.00,0.80
Minerals
"Calcium, Ca",mg,--,--,20,16
"Iron, Fe",mg,--,--,1.88,1.50
"Sodium, Na",mg,--,--,300,240
Vitamins
"Vitamin C, total ascorbic acid",mg,--,--,5.0,4.0
"Vitamin A, IU",IU,--,--,0,0
Lipids
"Fatty acids, total saturated",g,--,--,0.000,0.000
"Fatty acids, total trans",g,--,--,0.000,0.000
"Cholesterol",mg,--,--,0,0
Amino Acids
Other
Ingredients
"LIMA BEANS, WATER, SALT." Date available: 07/14/2017 Date last updated by company: 07/14/2017
