Source: USDA Branded Food Products Database Release December 2017 Software v.3.8.6.4 2017-10-02
Report Run at: December 18, 2017 02:11 EST
"Nutrient data for: 45066572, GREEN & MEAN SALSA, UPC: 876045004149"
Food Group:  Branded Food Products Database
Common Name:

Nutrient,Unit,Data points,Std. Error,"2.0 Tbsp = 28.0g",1Value per 100 g,
Proximates
"Energy",kcal,--,--,15,54
"Protein",g,--,--,0.00,0.00
"Total lipid (fat)",g,--,--,1.00,3.57
"Carbohydrate, by difference",g,--,--,2.00,7.14
"Fiber, total dietary",g,--,--,1.0,3.6
"Sugars, total",g,--,--,1.00,3.57
Minerals
"Calcium, Ca",mg,--,--,0,0
"Iron, Fe",mg,--,--,0.64,2.29
"Sodium, Na",mg,--,--,130,464
Vitamins
"Vitamin C, total ascorbic acid",mg,--,--,16.1,57.4
"Vitamin A, IU",IU,--,--,357,1275
Lipids
"Fatty acids, total saturated",g,--,--,0.000,0.000
"Fatty acids, total trans",g,--,--,0.000,0.000
"Cholesterol",mg,--,--,0,0
Amino Acids
Other
Ingredients
"WATER, GREEN BELL PEPPER, ONION, POBLANO PEPPER, CANOLA OIL, WHITE BALSAMIC VINEGAR, CILANTRO, PARSLEY, SEA SALT, GARLIC, CUMIN, VEGETABLE STOCK (VEGETABLE JUICE CONCENTRATES (CARROT, ONION). CELERY PUREE. SALT, DEXTROSE, YEAST EXTRACT, CORN STARCH), LIME JUICE (FROM CONCENTRATE), NATURAL FIRE ROAST FLAVOR, BLACK PEPPER, XANTHAN GUM." Date available: 07/14/2017 Date last updated by company: 07/14/2017
