Source: USDA Branded Food Products Database Release December 2017 Software v.3.8.6.4 2017-10-02
Report Run at: December 18, 2017 02:06 EST
"Nutrient data for: 45181063, GREEN CHILI & CILANTRO QUINOA, UPC: 011150110501"
Food Group:  Branded Food Products Database
Common Name:

Nutrient,Unit,Data points,Std. Error,"1 ONZ = 28.0g",1Value per 100 g,
Proximates
"Energy",kcal,--,--,100,357
"Protein",g,--,--,4.00,14.29
"Total lipid (fat)",g,--,--,1.00,3.57
"Carbohydrate, by difference",g,--,--,20.00,71.43
"Fiber, total dietary",g,--,--,2.0,7.1
"Sugars, total",g,--,--,1.00,3.57
Minerals
"Calcium, Ca",mg,--,--,20,71
"Iron, Fe",mg,--,--,2.02,7.23
"Potassium, K",mg,--,--,190,679
"Sodium, Na",mg,--,--,0,0
Vitamins
"Vitamin C, total ascorbic acid",mg,--,--,1.9,6.9
"Vitamin A, IU",IU,--,--,0,0
Lipids
"Fatty acids, total saturated",g,--,--,0.000,0.000
"Fatty acids, total trans",g,--,--,0.000,0.000
"Cholesterol",mg,--,--,0,0
Amino Acids
Other
Ingredients
"ORGANIC QUINOA, ORGANIC DEHYDRATED ONION, ORGANIC SPICES, ORGANIC HERBS, ORGANIC DEHYDRATED GARLIC, ORGANIC DEHYDRATED SWEET CORN, SEA SALT, ORGANIC YEAST EXTRACT." Date available: 07/14/2017 Date last updated by company: 07/14/2017
