Source: USDA Branded Food Products Database Release December 2017 Software v.3.8.6.4 2017-10-02
Report Run at: December 18, 2017 02:07 EST
"Nutrient data for: 45275353, GREEN DRAGON ROLL, UPC: 670452887070"
Food Group:  Branded Food Products Database
Common Name:

Nutrient,Unit,Data points,Std. Error,"8.0 PIECES WITH OF CONDIMENTS = 238.0g",1Value per 100 g,
Proximates
Minerals
Vitamins
Lipids
Amino Acids
Other
Ingredients
"SEASONED RICE [WATER, WHITE RICE, SUSHI SEASONING (SUGAR, WATER, VINEGAR, SALT), TREHALOSE], AVOCADO, CARROT, CUCUMBER, SUSHI GINGER [GINGER, WATER, SUGAR, VINEGAR (ETHYL ALCOHOL), CITRIC ACID, MALIC ACID, ACETIC ACID, SALT], WASABI FLAVORED PASTE [WATER, MUSTARD, CORN FLOUR, HORSERADISH, ARTIFICIAL COLOR (FD&C YELLOW NO. 5, FD&C BLUE NO. 1), CITRIC ACID, ASCORBIC ACID (VITAMIN C)], SESAME SEEDS, SEAWEED." Date available: 04/13/2017 Date last updated by company: 04/13/2017
