Source: USDA Branded Food Products Database Release December 2017 Software v.3.8.6.4 2017-10-02
Report Run at: December 18, 2017 02:23 EST
"Nutrient data for: 45267750, GREEN TEE CHEWING GUM, UPC: 700596100657"
Food Group:  Branded Food Products Database
Common Name:

Nutrient,Unit,Data points,Std. Error,"1 PIECE = 1.08g",1Value per 100 g,
Proximates
"Energy",kcal,--,--,2,157
"Protein",g,--,--,0.00,0.00
"Total lipid (fat)",g,--,--,0.00,0.00
"Carbohydrate, by difference",g,--,--,0.72,66.67
Minerals
"Sodium, Na",mg,--,--,0,0
Vitamins
Lipids
Amino Acids
Other
Ingredients
"XYLITOL, GUM BASE, GREEN TEA (NATURAL FLAVOR), VEGETABLE GLYCERIN, GUM ARABIC, SOY LECITHIN, CALCIUM CARBONATE AND CARNAUBA WAX (GLAZING AGENT)." Date available: 07/14/2017 Date last updated by company: 07/14/2017
