Source: USDA Branded Food Products Database Release December 2017 Software v.3.8.6.4 2017-10-02
Report Run at: December 18, 2017 01:38 EST
"Nutrient data for: 45005963, GREEK NONFAT YOGURT, UPC: 036632018472"
Food Group:  Branded Food Products Database
Common Name:

Nutrient,Unit,Data points,Std. Error,"1 CONTAINER = 150.0g",1Value per 100 g,
Proximates
"Energy",kcal,--,--,120,80
"Protein",g,--,--,12.00,8.00
"Total lipid (fat)",g,--,--,0.00,0.00
"Carbohydrate, by difference",g,--,--,19.00,12.67
"Sugars, total",g,--,--,18.00,12.00
Minerals
"Calcium, Ca",mg,--,--,150,100
"Potassium, K",mg,--,--,135,90
"Sodium, Na",mg,--,--,45,30
Vitamins
"Vitamin D",IU,--,--,60,40
Lipids
"Fatty acids, total saturated",g,--,--,0.000,0.000
"Cholesterol",mg,--,--,4,3
Amino Acids
Other
Ingredients
"CULTURED GRADE A NON FAT MILK, WATER, SUGAR, FRUCTOSE, MODIFIED CORN STARCH, CONTAINS LESS THAN 1% OF NATURAL VANILLA FLAVOR, MALIC ACID, POTASSIUM SORBATE (TO MAINTAIN FRESHNESS), SODIUM CITRATE, VITAMIN D3." Date available: 10/13/2017 Date last updated by company: 10/13/2017
