Source: USDA Branded Food Products Database Release December 2017 Software v.3.8.6.4 2017-10-02
Report Run at: December 18, 2017 02:20 EST
"Nutrient data for: 45145175, GREEN TEA, UPC: 708615003637"
Food Group:  Branded Food Products Database
Common Name:

Nutrient,Unit,Data points,Std. Error,"8.0 OZA = 240.0g",1Value per 100 g,
Proximates
"Energy",kcal,--,--,70,29
"Protein",g,--,--,0.00,0.00
"Total lipid (fat)",g,--,--,0.00,0.00
"Carbohydrate, by difference",g,--,--,18.00,7.50
"Sugars, total",g,--,--,16.99,7.08
Minerals
"Sodium, Na",mg,--,--,0,0
Vitamins
Lipids
Amino Acids
Other
Ingredients
"PREMIUM BREWED GREEN TEA USING FILTERED WATER, HIGH FRUCTOSE CORN SYRUP, HONEY (HONEY, MALTODEXTRAIN), NATURAL FLAVOR, CITRIC ACID, GINSENG ROOT EXTRACT." Date available: 07/14/2017 Date last updated by company: 07/14/2017
