Source: USDA Branded Food Products Database Release December 2017 Software v.3.8.6.4 2017-10-02
Report Run at: December 18, 2017 02:11 EST
"Nutrient data for: 45289981, GREEN MEXICAN SALSA, UPC: 076397006109"
Food Group:  Branded Food Products Database
Common Name:

Nutrient,Unit,Data points,Std. Error,"2.0 Tbsp = 42.0g",1Value per 100 g,
Proximates
"Energy",kcal,--,--,10,24
"Protein",g,--,--,0.00,0.00
"Total lipid (fat)",g,--,--,0.00,0.00
"Carbohydrate, by difference",g,--,--,2.00,4.76
Minerals
"Calcium, Ca",mg,--,--,0,0
"Iron, Fe",mg,--,--,0.43,1.02
"Sodium, Na",mg,--,--,370,881
Vitamins
"Vitamin C, total ascorbic acid",mg,--,--,1.4,3.4
"Vitamin A, IU",IU,--,--,238,567
Lipids
Amino Acids
Other
Ingredients
"TOMATILLO, JALAPENO PEPPER, ONION, IODIZED SALT, CORIANDER, MODIFIED CORN STARCH AND SPICES." Date available: 07/14/2017 Date last updated by company: 07/14/2017
