Source: USDA Branded Food Products Database Release December 2017 Software v.3.8.6.4 2017-10-02
Report Run at: December 18, 2017 02:07 EST
"Nutrient data for: 45067174, GREEN CURRY, UPC: 750463801798"
Food Group:  Branded Food Products Database
Common Name:

Nutrient,Unit,Data points,Std. Error,"0.333 cup = 95.0g",1Value per 100 g,
Proximates
"Energy",kcal,--,--,150,158
"Protein",g,--,--,2.00,2.11
"Total lipid (fat)",g,--,--,10.00,10.53
"Carbohydrate, by difference",g,--,--,15.00,15.79
"Fiber, total dietary",g,--,--,1.0,1.1
"Sugars, total",g,--,--,12.00,12.63
Minerals
"Calcium, Ca",mg,--,--,20,21
"Iron, Fe",mg,--,--,0.38,0.40
"Sodium, Na",mg,--,--,580,611
Vitamins
"Vitamin C, total ascorbic acid",mg,--,--,1.2,1.3
"Vitamin A, IU",IU,--,--,0,0
Lipids
"Fatty acids, total saturated",g,--,--,8.997,9.470
"Fatty acids, total trans",g,--,--,0.000,0.000
"Cholesterol",mg,--,--,0,0
Amino Acids
Other
Ingredients
"COCONUT MILK (WATER, COCONUT MILK POWDER, MALTODEXTRIN), SUGAR, GREEN CURRY PASTE (GREEN CHILI, LEMONGRASS, GARLIC, SALT, GALANGAL, SHRIMP PASTE (SHRIMP), KAFFIR LIME PEEL, CORIANDER SEED, PEPPER, CUMIN, TURMERIC), FISH SAUCE (ANCHOVY EXTRACT, WATER, SALT), GARLIC, SHALLOTS, GUAR GUM, XANTHAN GUM, THAI BASIL, SALT, CITRIC ACID, CHILI FLAKES, KAFFIR LIME LEAF." Date available: 07/14/2017 Date last updated by company: 07/14/2017
