Source: USDA Branded Food Products Database Release December 2017 Software v.3.8.6.4 2017-10-02
Report Run at: December 18, 2017 01:38 EST
"Nutrient data for: 45083706, GREEK NONFAT YOGURT, UPC: 011213025681"
Food Group:  Branded Food Products Database
Common Name:

Nutrient,Unit,Data points,Std. Error,"1 cup = 227.0g",1Value per 100 g,
Proximates
"Energy",kcal,--,--,129,57
"Protein",g,--,--,23.00,10.13
"Total lipid (fat)",g,--,--,0.00,0.00
"Carbohydrate, by difference",g,--,--,10.01,4.41
"Fiber, total dietary",g,--,--,0.9,0.4
"Sugars, total",g,--,--,8.99,3.96
Minerals
"Calcium, Ca",mg,--,--,250,110
"Iron, Fe",mg,--,--,0.27,0.12
"Potassium, K",mg,--,--,440,194
"Sodium, Na",mg,--,--,91,40
Vitamins
"Vitamin C, total ascorbic acid",mg,--,--,0.0,0.0
"Vitamin A, IU",IU,--,--,0,0
Lipids
"Fatty acids, total saturated",g,--,--,0.000,0.000
"Fatty acids, total trans",g,--,--,0.000,0.000
"Cholesterol",mg,--,--,16,7
Amino Acids
Other
Ingredients
"CULTURED PASTEURIZED SKIM MILK. CONTAINS FIVE LIVE ACTIVE CULTURES INCLUDING S. THERMOPHILUS, L. BULGARICUS, L. ACIDOPHILUS, BIFIDUS AND L. CASEI." Date available: 07/14/2017 Date last updated by company: 07/14/2017
