Source: USDA Branded Food Products Database Release December 2017 Software v.3.8.6.4 2017-10-02
Report Run at: December 18, 2017 01:39 EST
"Nutrient data for: 45194747, GREEK NONFAT YOGURT, UPC: 042187100241"
Food Group:  Branded Food Products Database
Common Name:

Nutrient,Unit,Data points,Std. Error,"1 CONTAINER = 150.0g",1Value per 100 g,
Proximates
"Energy",kcal,--,--,110,73
"Protein",g,--,--,13.01,8.67
"Total lipid (fat)",g,--,--,0.00,0.00
"Carbohydrate, by difference",g,--,--,15.00,10.00
"Fiber, total dietary",g,--,--,1.1,0.7
"Sugars, total",g,--,--,13.99,9.33
Minerals
"Calcium, Ca",mg,--,--,150,100
"Iron, Fe",mg,--,--,0.00,0.00
"Potassium, K",mg,--,--,250,167
"Sodium, Na",mg,--,--,70,47
Vitamins
"Vitamin C, total ascorbic acid",mg,--,--,0.0,0.0
"Vitamin A, IU",IU,--,--,0,0
Lipids
"Fatty acids, total saturated",g,--,--,0.000,0.000
"Fatty acids, total trans",g,--,--,0.000,0.000
"Cholesterol",mg,--,--,10,7
Amino Acids
Other
Ingredients
"CULTURED PASTEURIZED SKIM MILK, SUGAR, VANILLA EXTRACT, PECTIN, LOCUST BEAN GUM. CONTAINS FIVE LIVE ACTIVE CULTURES INCLUDING S. THERMOPHILUS, L ACIDOPHILUS, BIFIDUS, AND L CASEL" Date available: 07/14/2017 Date last updated by company: 07/14/2017
