Source: USDA Branded Food Products Database Release December 2017 Software v.3.8.6.4 2017-10-02
Report Run at: December 18, 2017 02:18 EST
"Nutrient data for: 45138260, GREEN SMOOTHIE - 100% JUICE FROM CONCENTRATES, UPC: 719283171986"
Food Group:  Branded Food Products Database
Common Name:

Nutrient,Unit,Data points,Std. Error,"1 BOTTLE = 325.0g",1Value per 100 g,
Proximates
"Energy",kcal,--,--,211,65
"Protein",g,--,--,1.01,0.31
"Total lipid (fat)",g,--,--,0.65,0.20
"Carbohydrate, by difference",g,--,--,49.98,15.38
"Fiber, total dietary",g,--,--,1.0,0.3
"Sugars, total",g,--,--,44.01,13.54
Minerals
"Calcium, Ca",mg,--,--,39,12
"Iron, Fe",mg,--,--,0.52,0.16
"Potassium, K",mg,--,--,510,157
"Sodium, Na",mg,--,--,20,6
Vitamins
"Vitamin C, total ascorbic acid",mg,--,--,17.9,5.5
"Vitamin A, IU",IU,--,--,923,284
Lipids
"Fatty acids, total saturated",g,--,--,0.000,0.000
"Fatty acids, total trans",g,--,--,0.000,0.000
"Cholesterol",mg,--,--,0,0
Amino Acids
Other
Ingredients
"ORGANIC APPLE JUICE FROM CONCENTRATES (WATER, ORGANIC APPLE JUICE CONCENTRATE, ORGANIC APPLE PUREE CONCENTRATE), ORGANIC MANGO JUICE FROM CONCENTRATES (WATER, ORGANIC MANGO PUREE CONCENTRATE), ORGANIC PINEAPPLE JUICE CONCENTRATE, ORGANIC BANANA PUREE, ORGANIC KIWI PUREE, CONTAINS LESS THAN 2% OF ORGANIC SPIRULINA*, ORGANIC LEMON JUICE CONCENTRATE, ORGANIC ALFALFA GRASS*, ORGANIC BROCCOLI*, ORGANIC SPINACH*, ORGANIC BARLEY GRASS*, ORGANIC WHEAT GRASS*, ORGANIC GINGER*, ORGANIC KALE*, NATURAL FLAVOR." Date available: 07/14/2017 Date last updated by company: 07/14/2017
