Source: USDA Branded Food Products Database Release December 2017 Software v.3.8.6.4 2017-10-02
Report Run at: December 18, 2017 01:40 EST
"Nutrient data for: 45218129, GREEK NONFAT YOGURT, UPC: 015400110686"
Food Group:  Branded Food Products Database
Common Name:

Nutrient,Unit,Data points,Std. Error,"1 CONTAINER = 170.0g",1Value per 100 g,
Proximates
"Energy",kcal,--,--,129,76
"Protein",g,--,--,16.00,9.41
"Total lipid (fat)",g,--,--,0.00,0.00
"Carbohydrate, by difference",g,--,--,16.00,9.41
"Fiber, total dietary",g,--,--,0.0,0.0
"Sugars, total",g,--,--,14.01,8.24
Minerals
"Calcium, Ca",mg,--,--,450,265
"Sodium, Na",mg,--,--,75,44
Vitamins
"Vitamin C, total ascorbic acid",mg,--,--,9.0,5.3
"Vitamin A, IU",IU,--,--,400,235
"Vitamin D",IU,--,--,60,35
Lipids
"Cholesterol",mg,--,--,5,3
Amino Acids
Other
Ingredients
"CULTURED ULTRAFILTERED NONFAT MILK, CULTURED SKIM MILK, SUGAR, PEACHES, CORN STARCH, PEACH PUREE, NATURAL FLAVOR, PECTIN, REBAUDIOSIDE-A*, ANNATTO (FOR COLOR), LEMON JUICE CONCENTRATE, VITAMIN A PALMITATE, VITAMIN D3, AND ACTIVE CULTURES WITH L. ACIDOPHILUS, B. BIFIDUM." Date available: 10/19/2017 Date last updated by company: 10/19/2017
