Source: USDA Branded Food Products Database Release December 2017 Software v.3.8.6.4 2017-10-02
Report Run at: December 18, 2017 02:12 EST
"Nutrient data for: 45204005, GREEN OLIVES RINGS, UPC: 7290002780649"
Food Group:  Branded Food Products Database
Common Name:

Nutrient,Unit,Data points,Std. Error,"15.0 GRM = 15.0g",1Value per 100 g,
Proximates
"Energy",kcal,--,--,27,180
"Protein",g,--,--,0.00,0.00
"Total lipid (fat)",g,--,--,2.10,14.00
"Carbohydrate, by difference",g,--,--,0.50,3.33
"Fiber, total dietary",g,--,--,0.0,0.0
"Sugars, total",g,--,--,0.00,0.00
Minerals
"Sodium, Na",mg,--,--,218,1453
Vitamins
Lipids
"Fatty acids, total saturated",g,--,--,0.400,2.670
"Fatty acids, total trans",g,--,--,0.000,0.000
"Cholesterol",mg,--,--,0,0
Amino Acids
Other
Ingredients
"OLIVES, WATER, SALT, ACETIC ACID, CITRIC ACID, SPICES." Date available: 08/22/2017 Date last updated by company: 08/22/2017
