Source: USDA Branded Food Products Database Release December 2017 Software v.3.8.6.4 2017-10-02
Report Run at: December 18, 2017 01:57 EST
"Nutrient data for: 45269413, GREEK YOGURT, UPC: 856290002169"
Food Group:  Branded Food Products Database
Common Name:

Nutrient,Unit,Data points,Std. Error,"6.0 ONZ = 168.0g",1Value per 100 g,
Proximates
"Energy",kcal,--,--,129,77
"Protein",g,--,--,13.99,8.33
"Total lipid (fat)",g,--,--,0.00,0.00
"Carbohydrate, by difference",g,--,--,17.99,10.71
"Fiber, total dietary",g,--,--,1.0,0.6
"Sugars, total",g,--,--,5.01,2.98
Minerals
"Calcium, Ca",mg,--,--,150,89
"Sodium, Na",mg,--,--,86,51
Vitamins
Lipids
"Fatty acids, total saturated",g,--,--,0.000,0.000
"Fatty acids, total trans",g,--,--,0.000,0.000
"Cholesterol",mg,--,--,10,6
Amino Acids
Other
Ingredients
"CULTURED PASTEURIZED NONFAT NON-GMO GRASSFED MILK, PASTEURIZED-NON-GMO GRASSFED CREAM, PEACHES, PURE CANE SUGAR, DARK BROWN SUGAR, ORANGE JUICE, GINGER, FRUIT PECTIN, PEACH AND GINGER EXTRACTS, CINNAMON, LIVE AND ACTIVE CULTURES; S. THERMOPHILUS, L. BULGARICUS, L. ACIDOPHILUS, BIFIDUS, L. CASEI." Date available: 07/14/2017 Date last updated by company: 07/14/2017
