Source: USDA Branded Food Products Database Release December 2017 Software v.3.8.6.4 2017-10-02
Report Run at: December 18, 2017 01:34 EST
"Nutrient data for: 45187040, GREEK GOURMET, MILD GIARDINIERA, UPC: 026977403033"
Food Group:  Branded Food Products Database
Common Name:

Nutrient,Unit,Data points,Std. Error,"0.5 cup = 65.0g",1Value per 100 g,
Proximates
"Energy",kcal,--,--,20,31
"Protein",g,--,--,0.00,0.00
"Total lipid (fat)",g,--,--,1.00,1.54
"Carbohydrate, by difference",g,--,--,0.00,0.00
"Fiber, total dietary",g,--,--,1.0,1.5
"Sugars, total",g,--,--,0.00,0.00
Minerals
"Calcium, Ca",mg,--,--,0,0
"Iron, Fe",mg,--,--,0.00,0.00
"Sodium, Na",mg,--,--,850,1308
Vitamins
"Vitamin C, total ascorbic acid",mg,--,--,13.8,21.3
"Vitamin A, IU",IU,--,--,769,1183
Lipids
"Fatty acids, total saturated",g,--,--,0.000,0.000
"Fatty acids, total trans",g,--,--,0.000,0.000
"Cholesterol",mg,--,--,0,0
Amino Acids
Other
Ingredients
"CAULIFLOWER, CARROTS, CELERY, PEPPERS, ONIONS, VINEGAR, WATER, SALT." Date available: 07/14/2017 Date last updated by company: 07/14/2017
