Source: USDA Branded Food Products Database Release December 2017 Software v.3.8.6.4 2017-10-02
Report Run at: December 18, 2017 02:19 EST
"Nutrient data for: 45228243, GREEN SPLIT PEAS, UPC: 041331025485"
Food Group:  Branded Food Products Database
Common Name:

Nutrient,Unit,Data points,Std. Error,"0.25 cup = 49.0g",1Value per 100 g,
Proximates
"Energy",kcal,--,--,170,347
"Protein",g,--,--,11.00,22.45
"Total lipid (fat)",g,--,--,1.00,2.04
"Carbohydrate, by difference",g,--,--,32.00,65.31
"Fiber, total dietary",g,--,--,17.0,34.7
"Sugars, total",g,--,--,1.00,2.04
Minerals
"Calcium, Ca",mg,--,--,20,41
"Iron, Fe",mg,--,--,1.08,2.20
"Potassium, K",mg,--,--,400,816
"Sodium, Na",mg,--,--,0,0
Vitamins
"Vitamin C, total ascorbic acid",mg,--,--,1.2,2.4
"Vitamin A, IU",IU,--,--,0,0
Lipids
"Fatty acids, total saturated",g,--,--,0.000,0.000
"Fatty acids, total trans",g,--,--,0.000,0.000
"Cholesterol",mg,--,--,0,0
Amino Acids
Other
Ingredients
"GREEN SPLIT PEAS" Date available: 12/31/2016 Date last updated by company: 12/31/2016
