Source: USDA Branded Food Products Database Release December 2017 Software v.3.8.6.4 2017-10-02
Report Run at: December 18, 2017 02:16 EST
"Nutrient data for: 45054325, GREEN SALAD DRESSING, UPC: 816125000272"
Food Group:  Branded Food Products Database
Common Name:

Nutrient,Unit,Data points,Std. Error,"2.0 Tbsp = 30.0g",1Value per 100 g,
Proximates
"Energy",kcal,--,--,55,183
"Protein",g,--,--,0.00,0.00
"Total lipid (fat)",g,--,--,0.00,0.00
"Carbohydrate, by difference",g,--,--,14.00,46.67
"Fiber, total dietary",g,--,--,0.0,0.0
"Sugars, total",g,--,--,7.00,23.33
Minerals
"Calcium, Ca",mg,--,--,0,0
"Iron, Fe",mg,--,--,0.00,0.00
"Sodium, Na",mg,--,--,170,567
Vitamins
"Vitamin C, total ascorbic acid",mg,--,--,0.0,0.0
"Vitamin A, IU",IU,--,--,0,0
Lipids
"Fatty acids, total saturated",g,--,--,0.00,0.00
"Fatty acids, total trans",g,--,--,0.00,0.00
"Cholesterol",mg,--,--,0,0
Amino Acids
Other
Ingredients
"WATER, SUGAR, GREEN CHILI (14%), THICKENER (MODIFIED CORN STARCH : E1422), GARLIC, ACIDITY REGULATOR (ACETIC ACID : E260), SALT, STABILIZER (XANTHAN GUM : E415), FLAVOR ENHANCERS (MONOSODIUM GLUTAMATE : E621, DISODIUM 5'-INOSINATE : E631, DISODIUM 5'-GUANYLATE : E627)" Date last updated by company: 08/28/2014
