Source: USDA Branded Food Products Database Release December 2017 Software v.3.8.6.4 2017-10-02
Report Run at: December 18, 2017 02:24 EST
"Nutrient data for: 45026988, GREENVIEW KITCHEN, PIZZA SAUCE, ORGANIC, UPC: 075039007900"
Food Group:  Branded Food Products Database
Common Name:

Nutrient,Unit,Data points,Std. Error,"0.25 cup = 65.0g",1Value per 100 g,
Proximates
"Energy",kcal,--,--,30,46
"Protein",g,--,--,1.00,1.54
"Total lipid (fat)",g,--,--,0.00,0.00
"Carbohydrate, by difference",g,--,--,7.00,10.77
"Fiber, total dietary",g,--,--,1.0,1.5
"Sugars, total",g,--,--,5.00,7.69
Minerals
"Calcium, Ca",mg,--,--,20,31
"Iron, Fe",mg,--,--,0.76,1.17
"Sodium, Na",mg,--,--,320,492
Vitamins
"Vitamin C, total ascorbic acid",mg,--,--,2.5,3.9
"Vitamin A, IU",IU,--,--,422,650
Lipids
"Fatty acids, total saturated",g,--,--,0.000,0.000
"Fatty acids, total trans",g,--,--,0.000,0.000
"Cholesterol",mg,--,--,0,0
Amino Acids
Other
Ingredients
"ORGANIC TOMATO PUREE (WATER, ORGANIC TOMATO PASTE), SALT, ORGANIC SUGAR, ORGANIC OREGANO, ORGANIC ONIONS, CITRIC ACID, ORGANIC BASIL, ORGANIC BLACK PEPPER, ORGANIC GARLIC." Date available: 07/14/2017 Date last updated by company: 07/14/2017
