Source: USDA Branded Food Products Database Release December 2017 Software v.3.8.6.4 2017-10-02
Report Run at: December 18, 2017 02:15 EST
"Nutrient data for: 45329161, GREEN PEPPER SNACK, UPC: 604215900645"
Food Group:  Branded Food Products Database
Common Name:

Nutrient,Unit,Data points,Std. Error,"1 ONZ = 28.35g",1Value per 100 g,
Proximates
"Energy",kcal,--,--,130,459
"Protein",g,--,--,4.00,14.11
"Total lipid (fat)",g,--,--,6.00,21.16
"Carbohydrate, by difference",g,--,--,16.00,56.44
"Fiber, total dietary",g,--,--,2.0,7.1
"Sugars, total",g,--,--,4.00,14.11
Minerals
"Calcium, Ca",mg,--,--,0,0
"Iron, Fe",mg,--,--,1.27,4.48
"Sodium, Na",mg,--,--,55,194
Vitamins
"Vitamin C, total ascorbic acid",mg,--,--,0.0,0.0
"Vitamin A, IU",IU,--,--,0,0
Lipids
"Fatty acids, total saturated",g,--,--,0.000,0.000
"Fatty acids, total trans",g,--,--,0.000,0.000
"Cholesterol",mg,--,--,0,0
Amino Acids
Other
Ingredients
"GREEN PEPPER, NON-HYDROGENATED CANOLA OIL, DEXTRIN, SEA SALT." Date available: 10/13/2017 Date last updated by company: 10/13/2017
