Source: USDA Branded Food Products Database Release December 2017 Software v.3.8.6.4 2017-10-02
Report Run at: December 18, 2017 01:50 EST
"Nutrient data for: 45220717, GREEK YOGURT COFFEE & MOCHA, UPC: 085239016756"
Food Group:  Branded Food Products Database
Common Name:

Nutrient,Unit,Data points,Std. Error,"100.0 GRM = 100.0g",1Value per 100 g,
Proximates
"Energy",kcal,--,--,100,100
"Protein",g,--,--,8.00,8.00
"Total lipid (fat)",g,--,--,2.00,2.00
"Carbohydrate, by difference",g,--,--,12.00,12.00
"Fiber, total dietary",g,--,--,0.0,0.0
"Sugars, total",g,--,--,10.00,10.00
Minerals
"Calcium, Ca",mg,--,--,100,100
"Iron, Fe",mg,--,--,0.61,0.61
"Potassium, K",mg,--,--,140,140
"Sodium, Na",mg,--,--,30,30
Vitamins
"Vitamin C, total ascorbic acid",mg,--,--,0.0,0.0
"Vitamin A, IU",IU,--,--,0,0
Lipids
"Fatty acids, total saturated",g,--,--,1.000,1.000
"Fatty acids, total trans",g,--,--,0.000,0.000
"Cholesterol",mg,--,--,10,10
Amino Acids
Other
Ingredients
"CULTURED PASTEURIZED NONFAT GRADE A MILK, SUGAR, WATER, GRADE A CREAM, COCOA, INSTANT COFFEE, CORN STARCH, NATURAL FLAVORS, COFFEE, PACTIN. CONTAINS THE FOLLOWING LIVE AND ACTIVE CULTURES: LACTOBACILLUS BULGARICUS, STREPTOCOCCUS THERMOPHILUS, LACTOBACILLUS ACIDOPHILUS, BIFIDUS, LACTOBACILLUS CASEI." Date available: 07/14/2017 Date last updated by company: 07/14/2017
