Source: USDA Branded Food Products Database Release December 2017 Software v.3.8.6.4 2017-10-02
Report Run at: December 18, 2017 01:38 EST
"Nutrient data for: 45087565, GREEK NON-FAT YOGURT, UPC: 851463005039"
Food Group:  Branded Food Products Database
Common Name:

Nutrient,Unit,Data points,Std. Error,"227.0 GRM = 227.0g",1Value per 100 g,
Proximates
"Energy",kcal,--,--,170,75
"Protein",g,--,--,21.00,9.25
"Total lipid (fat)",g,--,--,0.00,0.00
"Carbohydrate, by difference",g,--,--,22.00,9.69
"Fiber, total dietary",g,--,--,0.0,0.0
"Sugars, total",g,--,--,20.00,8.81
Minerals
"Calcium, Ca",mg,--,--,200,88
"Iron, Fe",mg,--,--,0.00,0.00
"Sodium, Na",mg,--,--,70,31
Vitamins
"Vitamin C, total ascorbic acid",mg,--,--,3.6,1.6
"Vitamin A, IU",IU,--,--,75,33
Lipids
"Fatty acids, total saturated",g,--,--,0.000,0.000
"Fatty acids, total trans",g,--,--,0.000,0.000
"Cholesterol",mg,--,--,0,0
Amino Acids
Other
Ingredients
"YOGURT: CULTURED PASTEURIZED NONFAT MILK. 7 LIVE ACTIVE CULTURES: S. THERMOPHILUS, L. BULGARICUS, L. ACIDOPHILUS, BIFIDUS, L. CASEI, L. LACTIS, L. RHAMNOSUS. MANGO: MANGOES, NATURAL CANE SUGAR, CORN STARCH (NON-GMO), NATURAL FLAVOR, FRUIT JUICE CONCENTRATE (FOR COLOR), LEMON JUICE CONCENTRATE, AND REB-A (STEVIA EXTRACT)." Date available: 07/14/2017 Date last updated by company: 07/14/2017
