Source: USDA Branded Food Products Database Release December 2017 Software v.3.8.6.4 2017-10-02
Report Run at: December 18, 2017 02:10 EST
"Nutrient data for: 45179580, GREEN LENTILS, UPC: 813568002511"
Food Group:  Branded Food Products Database
Common Name:

Nutrient,Unit,Data points,Std. Error,"100.0 GRM = 100.0g",1Value per 100 g,
Proximates
"Energy",kcal,--,--,81,81
"Protein",g,--,--,6.00,6.00
"Total lipid (fat)",g,--,--,1.00,1.00
"Carbohydrate, by difference",g,--,--,14.00,14.00
"Fiber, total dietary",g,--,--,5.0,5.0
"Sugars, total",g,--,--,6.00,6.00
Minerals
"Calcium, Ca",mg,--,--,20,20
"Iron, Fe",mg,--,--,0.50,0.50
"Sodium, Na",mg,--,--,5,5
Vitamins
"Vitamin C, total ascorbic acid",mg,--,--,14.1,14.1
"Vitamin A, IU",IU,--,--,262,262
Lipids
"Fatty acids, total saturated",g,--,--,0.000,0.000
"Fatty acids, total trans",g,--,--,0.000,0.000
"Cholesterol",mg,--,--,0,0
Amino Acids
Other
Ingredients
"GREEN LENTILS (GLUTEN FREE)." Date available: 07/14/2017 Date last updated by company: 07/14/2017
