Source: USDA Branded Food Products Database Release December 2017 Software v.3.8.6.4 2017-10-02
Report Run at: December 18, 2017 01:37 EST
"Nutrient data for: 45135926, GREEK NONFAT YOGURT, UPC: 011150505888"
Food Group:  Branded Food Products Database
Common Name:

Nutrient,Unit,Data points,Std. Error,"1 CONTAINER = 150.0g",1Value per 100 g,
Proximates
"Energy",kcal,--,--,100,67
"Protein",g,--,--,12.00,8.00
"Total lipid (fat)",g,--,--,0.00,0.00
"Carbohydrate, by difference",g,--,--,13.99,9.33
"Fiber, total dietary",g,--,--,1.1,0.7
"Sugars, total",g,--,--,13.01,8.67
Minerals
"Calcium, Ca",mg,--,--,150,100
"Potassium, K",mg,--,--,230,153
"Sodium, Na",mg,--,--,70,47
Vitamins
Lipids
"Cholesterol",mg,--,--,10,7
Amino Acids
Other
Ingredients
"CULTURED PASTEURIZED SKIM MILK, WATER, STRAWBERRIES, FRUCTOSE, SUGAR, NATURAL, FLAVORS, PECTIN, LOCUST BEAN GUM, SODIUM CITRATE, LACTIC ACID, FRUIT AND VEGETABLE JUICE COLOR, STEVIA EXTRACT, CALCIUM CHLORIDE. CONTAINS FIVE LIVE ACTIVE CULTURES INCLUDING S. THERMOPHILUS, L. BULGARICUS, L. ACIDPHILUS, BIFIDUS, AND L. CASEL." Date available: 06/25/2017 Date last updated by company: 06/25/2017
