Source: USDA Branded Food Products Database Release December 2017 Software v.3.8.6.4 2017-10-02
Report Run at: December 18, 2017 02:25 EST
"Nutrient data for: 45147648, GREEN WAY, ORGANIC SANDWICH CREMES, VANILLA, UPC: 070625200185"
Food Group:  Branded Food Products Database
Common Name:

Nutrient,Unit,Data points,Std. Error,"2.0 COOKIES = 28.0g",1Value per 100 g,
Proximates
"Energy",kcal,--,--,140,500
"Protein",g,--,--,1.00,3.57
"Total lipid (fat)",g,--,--,6.00,21.43
"Carbohydrate, by difference",g,--,--,20.00,71.43
"Fiber, total dietary",g,--,--,0.0,0.0
"Sugars, total",g,--,--,10.00,35.71
Minerals
"Calcium, Ca",mg,--,--,0,0
"Iron, Fe",mg,--,--,1.29,4.59
"Sodium, Na",mg,--,--,65,232
Vitamins
"Vitamin C, total ascorbic acid",mg,--,--,0.0,0.0
"Vitamin A, IU",IU,--,--,0,0
Lipids
"Fatty acids, total saturated",g,--,--,2.999,10.710
"Fatty acids, total trans",g,--,--,0.000,0.000
"Cholesterol",mg,--,--,0,0
Amino Acids
Other
Ingredients
"ORGANIC ENRICHED WHEAT FLOUR (NIACIN, IRON, THIAMINE MONONITRATE, RIBOFLAVIN, FOLIC ACID), ORGANIC CANE SUGAR, ORGANIC PALM OIL AND/OR ORGANIC CANOLA OIL AND/OR ORGANIC SUNFLOWER OIL, ORGANIC CANE SUGAR, SYRUP, SEA SALT, BAKING SODA, ORGANIC SOY LECITHIN, ORGANIC VANILLA EXTRACT." Date available: 07/14/2017 Date last updated by company: 07/14/2017
