Source: USDA Branded Food Products Database Release December 2017 Software v.3.8.6.4 2017-10-02
Report Run at: December 18, 2017 01:50 EST
"Nutrient data for: 45236091, GREEK YOGURT DRESSING, UPC: 072036706348"
Food Group:  Branded Food Products Database
Common Name:

Nutrient,Unit,Data points,Std. Error,"2.0 Tbsp = 30.0g",1Value per 100 g,
Proximates
"Energy",kcal,--,--,60,200
"Protein",g,--,--,0.00,0.00
"Total lipid (fat)",g,--,--,7.00,23.33
"Carbohydrate, by difference",g,--,--,1.00,3.33
"Fiber, total dietary",g,--,--,0.0,0.0
"Sugars, total",g,--,--,0.00,0.00
Minerals
"Calcium, Ca",mg,--,--,0,0
"Iron, Fe",mg,--,--,0.00,0.00
"Sodium, Na",mg,--,--,200,667
Vitamins
"Vitamin C, total ascorbic acid",mg,--,--,0.0,0.0
"Vitamin A, IU",IU,--,--,0,0
Lipids
"Fatty acids, total saturated",g,--,--,0.999,3.330
"Fatty acids, total trans",g,--,--,0.000,0.000
"Cholesterol",mg,--,--,5,17
Amino Acids
Other
Ingredients
"FILTERED WATER, ORGANIC SOYBEAN OIL, ORGANIC YOGURT (ORGANIC WHOLE MILK, ORGANIC SKIM MILK POWDER, YOGURT CULTURES), ORGANIC CIDER VINEGAR, SALT, ORGANIC EGG YOLKS, ORGANIC GARLIC POWDER, ORGANIC ONION POWDER, ORGANIC LEMON JUICE CONCENTRATE, ORGANIC WHITE VINEGAR, ORGANIC OREGANO, ORGANIC MARJORAM, ORGANIC GROUND MUSTARD SEED, XANTHAN GUM." Date available: 06/25/2017 Date last updated by company: 06/25/2017
