Source: USDA Branded Food Products Database Release December 2017 Software v.3.8.6.4 2017-10-02
Report Run at: December 18, 2017 02:11 EST
"Nutrient data for: 45268385, GREEN OLIVE PASTE WITH EXTRA VIRGIN OLIVE OIL FOR PASTA & HORS D'OEUVRES, UPC: 758940620139"
Food Group:  Branded Food Products Database
Common Name:

Nutrient,Unit,Data points,Std. Error,"0.5 ONZ = 15.0g",1Value per 100 g,
Proximates
"Energy",kcal,--,--,49,327
"Protein",g,--,--,0.00,0.00
"Total lipid (fat)",g,--,--,5.00,33.33
"Carbohydrate, by difference",g,--,--,1.00,6.67
"Fiber, total dietary",g,--,--,1.0,6.7
"Sugars, total",g,--,--,1.00,6.67
Minerals
"Calcium, Ca",mg,--,--,10,67
"Iron, Fe",mg,--,--,1.20,8.00
"Sodium, Na",mg,--,--,216,1440
Vitamins
"Vitamin C, total ascorbic acid",mg,--,--,0.0,0.0
"Vitamin A, IU",IU,--,--,0,0
Lipids
"Fatty acids, total saturated",g,--,--,1.000,6.670
"Fatty acids, total trans",g,--,--,0.000,0.000
"Cholesterol",mg,--,--,0,0
Amino Acids
Other
Ingredients
"GREEN OLIVES, EXTRA VIRGIN OLIVE OIL, SUNFLOWER OIL, SALT, OREGANO, WINE VINEGAR, ACIDITY REGULATOR: CITRIC ACID." Date available: 07/14/2017 Date last updated by company: 07/14/2017
