Source: USDA Branded Food Products Database Release December 2017 Software v.3.8.6.4 2017-10-02
Report Run at: December 18, 2017 01:49 EST
"Nutrient data for: 45241533, GREEK YOGURT BLUE CHEESE DRESSING, UPC: 077661139479"
Food Group:  Branded Food Products Database
Common Name:

Nutrient,Unit,Data points,Std. Error,"2.0 Tbsp = 30.0g",1Value per 100 g,
Proximates
"Energy",kcal,--,--,60,200
"Protein",g,--,--,2.00,6.67
"Total lipid (fat)",g,--,--,5.00,16.67
"Carbohydrate, by difference",g,--,--,2.00,6.67
"Fiber, total dietary",g,--,--,0.0,0.0
"Sugars, total",g,--,--,0.00,0.00
Minerals
"Calcium, Ca",mg,--,--,60,200
"Iron, Fe",mg,--,--,0.00,0.00
"Sodium, Na",mg,--,--,230,767
Vitamins
"Vitamin C, total ascorbic acid",mg,--,--,0.0,0.0
"Vitamin A, IU",IU,--,--,0,0
Lipids
"Fatty acids, total saturated",g,--,--,0.999,3.330
"Fatty acids, total monounsaturated",g,--,--,3.000,10.000
"Fatty acids, total polyunsaturated",g,--,--,1.500,5.000
"Fatty acids, total trans",g,--,--,0.000,0.000
"Cholesterol",mg,--,--,5,17
Amino Acids
Other
Ingredients
"NON FAT GREEK YOGURT (CULTURED SKIM MILK, MILK PROTEIN CONCENTRATE, CORN STARCH, TAPIOCA STARCH, CARRAGEENAN GUM, LOCUST BEAN GUM), CANOLA OIL, BLUE CHEESE (MILK, SALT, CULTURE, ENZYMES), WATER, GLUCONIC ACID, SALT, EGG YOLK, MALTODEXTRIN, CULTURED DEXTROSE, NATURAL FLAVORS, LACTIC ACID, DRIED GARLIC, DISTILLED VINEGAR, ACACIA GUM, XANTHAN GUM." Date available: 07/14/2017 Date last updated by company: 07/14/2017
