Source: USDA Branded Food Products Database Release December 2017 Software v.3.8.6.4 2017-10-02
Report Run at: December 18, 2017 01:58 EST
"Nutrient data for: 45333014, GREEK YOGURT, UPC: 078355570226"
Food Group:  Branded Food Products Database
Common Name:

Nutrient,Unit,Data points,Std. Error,"1 cup = 227.0g",1Value per 100 g,
Proximates
"Energy",kcal,--,--,291,128
"Protein",g,--,--,7.99,3.52
"Total lipid (fat)",g,--,--,14.01,6.17
"Carbohydrate, by difference",g,--,--,32.01,14.10
"Fiber, total dietary",g,--,--,0.0,0.0
"Sugars, total",g,--,--,32.01,14.10
Minerals
"Calcium, Ca",mg,--,--,300,132
"Iron, Fe",mg,--,--,0.00,0.00
"Phosphorus, P",mg,--,--,186,82
"Potassium, K",mg,--,--,411,181
"Sodium, Na",mg,--,--,129,57
Vitamins
"Vitamin C, total ascorbic acid",mg,--,--,0.0,0.0
"Pantothenic acid",mg,--,--,0.599,0.264
"Vitamin A, IU",IU,--,--,375,165
Lipids
"Fatty acids, total saturated",g,--,--,8.989,3.960
"Fatty acids, total trans",g,--,--,0.000,0.000
"Cholesterol",mg,--,--,50,22
Amino Acids
Other
Ingredients
"CULTURED PASTEURIZED GRADE A MILK, CREAM, CANE SUGAR, BROWN CANE SUGAR, HONEY, PECTIN, NATURAL FLAVOR, SUGAR SYRUP, MOLASSES." Date available: 10/13/2017 Date last updated by company: 10/13/2017
