Source: USDA Branded Food Products Database Release December 2017 Software v.3.8.6.4 2017-10-02
Report Run at: December 18, 2017 01:34 EST
"Nutrient data for: 45039485, GREEK FRUIT BLENDED YOGURT, UPC: 855088005184"
Food Group:  Branded Food Products Database
Common Name:

Nutrient,Unit,Data points,Std. Error,"1 CONTAINER = 150.0g",1Value per 100 g,
Proximates
"Energy",kcal,--,--,140,93
"Protein",g,--,--,10.99,7.33
"Total lipid (fat)",g,--,--,6.00,4.00
"Carbohydrate, by difference",g,--,--,13.99,9.33
"Fiber, total dietary",g,--,--,0.0,0.0
"Sugars, total",g,--,--,13.01,8.67
Minerals
"Calcium, Ca",mg,--,--,100,67
"Iron, Fe",mg,--,--,0.41,0.27
"Sodium, Na",mg,--,--,60,40
Vitamins
"Vitamin C, total ascorbic acid",mg,--,--,40.8,27.2
"Vitamin A, IU",IU,--,--,226,151
Lipids
"Fatty acids, total saturated",g,--,--,3.495,2.330
"Fatty acids, total trans",g,--,--,0.000,0.000
"Cholesterol",mg,--,--,20,13
Amino Acids
Other
Ingredients
"100% GRASS-FED PASTEURIZED WHOLE MILK*, STRAWBERRIES*, CANE SUGAR*, FRUIT PECTIN, ASCORBIC ACID (VITAMIN C), CITRIC ACID, LIVE ACTIVE CULTURES (L. DELBRUECKII SUBSP. BULGARICUS, S. THERMOPHILUS)." Date available: 07/14/2017 Date last updated by company: 07/14/2017
