Source: USDA Branded Food Products Database Release December 2017 Software v.3.8.6.4 2017-10-02
Report Run at: December 18, 2017 01:51 EST
"Nutrient data for: 45323925, GREEK YOGURT DRINK, UPC: 818290010216"
Food Group:  Branded Food Products Database
Common Name:

Nutrient,Unit,Data points,Std. Error,"1 BOTTLE = 296.0g",1Value per 100 g,
Proximates
"Energy",kcal,--,--,210,71
"Protein",g,--,--,14.00,4.73
"Total lipid (fat)",g,--,--,5.00,1.69
"Carbohydrate, by difference",g,--,--,27.00,9.12
"Fiber, total dietary",g,--,--,2.1,0.7
"Sugars, total",g,--,--,21.99,7.43
Minerals
"Calcium, Ca",mg,--,--,299,101
"Iron, Fe",mg,--,--,0.21,0.07
"Potassium, K",mg,--,--,471,159
"Sodium, Na",mg,--,--,115,39
Vitamins
"Vitamin C, total ascorbic acid",mg,--,--,0.0,0.0
"Vitamin A, IU",IU,--,--,115,39
Lipids
"Fatty acids, total saturated",g,--,--,2.990,1.010
"Fatty acids, total trans",g,--,--,0.000,0.000
"Cholesterol",mg,--,--,30,10
Amino Acids
Other
Ingredients
"LOWFAT YOGURT (CULTURED PASTEURIZED NONFAT MILK, CREAM), STRAWBERRY PUREE, WATER, EVAPORATED CANE SUGAR, BANANA PUREE, ORGANIC HONEY, NATURAL FLAVORS, CHICORY ROOT FIBER, FRUIT PECTIN, LOCUST BEAN GUM, VEGETABLE JUICE CONCENTRATE AND BETA CAROTENE (FOR COLOR), LEMON JUICE CONCENTRATE." Date available: 07/14/2017 Date last updated by company: 07/14/2017
