Source: USDA Branded Food Products Database Release December 2017 Software v.3.8.6.4 2017-10-02
Report Run at: December 18, 2017 01:35 EST
"Nutrient data for: 45182787, GREEK NONFAT FROZEN YOGURT, UPC: 041497013418"
Food Group:  Branded Food Products Database
Common Name:

Nutrient,Unit,Data points,Std. Error,"0.5 cup = 69.0g",1Value per 100 g,
Proximates
"Energy",kcal,--,--,110,159
"Protein",g,--,--,5.00,7.25
"Total lipid (fat)",g,--,--,0.00,0.00
"Carbohydrate, by difference",g,--,--,24.00,34.78
"Fiber, total dietary",g,--,--,0.0,0.0
"Sugars, total",g,--,--,17.00,24.64
Minerals
"Calcium, Ca",mg,--,--,150,217
"Iron, Fe",mg,--,--,0.00,0.00
"Sodium, Na",mg,--,--,55,80
Vitamins
"Vitamin C, total ascorbic acid",mg,--,--,4.1,5.9
"Vitamin A, IU",IU,--,--,0,0
Lipids
"Fatty acids, total saturated",g,--,--,0.000,0.000
"Fatty acids, total trans",g,--,--,0.000,0.000
"Cholesterol",mg,--,--,0,0
Amino Acids
Other
Ingredients
"NONFAT MILK, GREEK YOGURT (CULTURED NONFAT MILK), SUGAR, STRAWBERRY SWIRL (CORN SYRUP, STRAWBERRIES, SUGAR, WATER,MODIFIED CORN STARCH, CITRIC ACID, STRAWBERRY SEEDS, RED 40, NATURAL FLAVORING), STRAWBERRY PUREE (STRAWBERRIES, SUGAR, WATER, CITRIC ACID, XANTHAN GUM, NATURAL & ARTIFICIAL FLAVORING, RED 40), CORN SYRUP, MILK PROTEIN CONCENTRATE, MALTODEXTRIN, PROPYLENE GLYCOL MONOESTER, MONO-AND DIGLYCERIDES, GUAR GUM, CELLULOSE GUM, CARRAGEENAN." Date available: 07/14/2017 Date last updated by company: 07/14/2017
