Source: USDA Branded Food Products Database Release December 2017 Software v.3.8.6.4 2017-10-02
Report Run at: December 18, 2017 01:58 EST
"Nutrient data for: 45323931, GREEK YOGURT, UPC: 818290011053"
Food Group:  Branded Food Products Database
Common Name:

Nutrient,Unit,Data points,Std. Error,"1 CONTAINER = 150.0g",1Value per 100 g,
Proximates
"Energy",kcal,--,--,180,120
"Protein",g,--,--,10.99,7.33
"Total lipid (fat)",g,--,--,4.00,2.67
"Carbohydrate, by difference",g,--,--,23.00,15.33
"Fiber, total dietary",g,--,--,1.1,0.7
"Sugars, total",g,--,--,18.00,12.00
Minerals
"Calcium, Ca",mg,--,--,150,100
"Iron, Fe",mg,--,--,0.00,0.00
"Potassium, K",mg,--,--,180,120
"Sodium, Na",mg,--,--,94,63
Vitamins
"Vitamin C, total ascorbic acid",mg,--,--,0.0,0.0
"Vitamin A, IU",IU,--,--,0,0
Lipids
"Fatty acids, total saturated",g,--,--,2.505,1.670
"Fatty acids, total trans",g,--,--,0.000,0.000
"Cholesterol",mg,--,--,15,10
Amino Acids
Other
Ingredients
"LOWFAT YOGURT (CULTURED PASTEURIZED NONFAT MILK, CREAM, LIVE AND ACTIVE CULTURES: S. THERMOPHILUS, L. BULGARICUS, L. ACIDOPHILUS, BIFIDUS AND L. CASEI), EVAPORATED CANE SUGAR, PEACHES, SUGAR, WATER, WHEAT FLOUR, VEGETABLE OILS (PALM, PALM KERNEL), OATS, SKIM MILK, FRUIT PECTIN, NATURAL FLAVORS, FRUIT AND VEGETABLE JUICE CONCENTRATE (FOR COLOR), SALT, CINNAMON, RAISIN PASTE, SUNFLOWER LECITHIN, LOCUST BEAN GUM, BAKING SODA, TAPIOCA SYRUP, GUAR GUM, LEMON JUICE CONCENTRATE, CARAMEL COLOR." Date available: 07/14/2017 Date last updated by company: 07/14/2017
