Source: USDA Branded Food Products Database Release December 2017 Software v.3.8.6.4 2017-10-02
Report Run at: December 18, 2017 02:22 EST
"Nutrient data for: 45288389, GREEN TEA, UPC: 078742198187"
Food Group:  Branded Food Products Database
Common Name:

Nutrient,Unit,Data points,Std. Error,"1 BOTTLE = 500.0g",1Value per 100 g,
Proximates
"Energy",kcal,--,--,110,22
"Protein",g,--,--,0.00,0.00
"Total lipid (fat)",g,--,--,0.00,0.00
"Carbohydrate, by difference",g,--,--,28.00,5.60
"Sugars, total",g,--,--,26.00,5.20
Minerals
"Potassium, K",mg,--,--,40,8
"Sodium, Na",mg,--,--,60,12
Vitamins
"Vitamin C, total ascorbic acid",mg,--,--,123.0,24.6
Lipids
Amino Acids
Other
Ingredients
"WATER, HIGH FRUCTOSE CORN SYRUP, CONTAINS LESS THAN 2% OF CITRIC ACID (PRESERVATIVE), NATURAL TEA FLAVOR, SODIUM HEXAMETAPHOSPHATE (PRESERVATIVE), POTASSIUM SORBATE (PRESERVATIVE), ASCORBIC ACID (VITAMIN C), TEA POWDER, NATURAL FLAVOR, ACESULFAME POTASSIUM, PHOSPHORIC ACID, HONEY, CALCIUM DISODIUM EDTA (TO PRESERVE FRESHNESS)." Date available: 07/14/2017 Date last updated by company: 07/14/2017
