Source: USDA Branded Food Products Database Release December 2017 Software v.3.8.6.4 2017-10-02
Report Run at: December 18, 2017 01:59 EST
"Nutrient data for: 45218625, GREEN APPLE JELLY BELLY, UPC: 829364128225"
Food Group:  Branded Food Products Database
Common Name:

Nutrient,Unit,Data points,Std. Error,"35.0 PCS. = 40.0g",1Value per 100 g,
Proximates
"Energy",kcal,--,--,140,350
"Protein",g,--,--,0.00,0.00
"Total lipid (fat)",g,--,--,0.00,0.00
"Carbohydrate, by difference",g,--,--,37.00,92.50
"Sugars, total",g,--,--,28.00,70.00
Minerals
"Calcium, Ca",mg,--,--,0,0
"Iron, Fe",mg,--,--,0.00,0.00
"Sodium, Na",mg,--,--,10,25
Vitamins
"Vitamin C, total ascorbic acid",mg,--,--,0.0,0.0
"Vitamin A, IU",IU,--,--,0,0
Lipids
"Fatty acids, total saturated",g,--,--,0.000,0.000
"Fatty acids, total trans",g,--,--,0.000,0.000
"Cholesterol",mg,--,--,0,0
Amino Acids
Other
Ingredients
"SUGAR, CORN SYRUP, MODIFIED FOOD STARCH, CONTAINS LESS THAN 2% OF THE FOLLOWING, CITRIC ACID, ARTIFICIAL FLAVOR, COLOR ADDED, YELLOW 5, BLUE 1, BEESWAX, CARNAUBA WAX, CONFECTIONER'S GLAZE, SALT." Date available: 08/10/2017 Date last updated by company: 08/10/2017
