Source: USDA Branded Food Products Database Release December 2017 Software v.3.8.6.4 2017-10-02
Report Run at: December 18, 2017 01:37 EST
"Nutrient data for: 45325129, GREEK NONFAT YOGURT SMOOTHIE, UPC: 011110500519"
Food Group:  Branded Food Products Database
Common Name:

Nutrient,Unit,Data points,Std. Error,"1 BOTTLE = 295.0g",1Value per 100 g,
Proximates
"Energy",kcal,--,--,189,64
"Protein",g,--,--,18.00,6.10
"Total lipid (fat)",g,--,--,0.00,0.00
"Carbohydrate, by difference",g,--,--,31.00,10.51
"Fiber, total dietary",g,--,--,0.0,0.0
"Sugars, total",g,--,--,25.99,8.81
Minerals
"Calcium, Ca",mg,--,--,569,193
"Iron, Fe",mg,--,--,0.21,0.07
"Magnesium, Mg",mg,--,--,41,14
"Potassium, K",mg,--,--,460,156
"Sodium, Na",mg,--,--,150,51
Vitamins
Lipids
"Fatty acids, total saturated",g,--,--,0.000,0.000
"Fatty acids, total trans",g,--,--,0.000,0.000
"Cholesterol",mg,--,--,9,3
Amino Acids
Other
Ingredients
"CULTURED SKIM MILK, MILK PROTEIN ISOLATE, INULIN, SUGAR, STRAWBERRY PUREE, WATER, RHUBARB PUREE, NATURAL FLAVOR, CULTURED DEXTROSE, CORN STARCH, PECTIN, VEGETABLE JUICE (COLOR), LEMON JUICE CONCENTRATE, VITAMIN A PALMITATE, VITAMIN D, ACTIVE CULTURES WITH L. ACIDOPHILUS AND B. BIFIDUM." Date available: 09/25/2017 Date last updated by company: 09/25/2017
