Source: USDA Branded Food Products Database Release December 2017 Software v.3.8.6.4 2017-10-02
Report Run at: December 18, 2017 02:10 EST
"Nutrient data for: 45272300, GREEN JIMMIES, UPC: 015418007411"
Food Group:  Branded Food Products Database
Common Name:

Nutrient,Unit,Data points,Std. Error,"4.0 GRM = 4.0g",1Value per 100 g,
Proximates
"Energy",kcal,--,--,20,500
"Protein",g,--,--,0.00,0.00
"Total lipid (fat)",g,--,--,1.00,25.00
"Carbohydrate, by difference",g,--,--,3.00,75.00
"Fiber, total dietary",g,--,--,0.0,0.0
"Sugars, total",g,--,--,2.00,50.00
Minerals
"Calcium, Ca",mg,--,--,0,0
"Iron, Fe",mg,--,--,0.00,0.00
"Sodium, Na",mg,--,--,0,0
Vitamins
"Vitamin C, total ascorbic acid",mg,--,--,0.0,0.0
"Vitamin A, IU",IU,--,--,0,0
Lipids
"Fatty acids, total trans",g,--,--,0.000,0.000
"Cholesterol",mg,--,--,0,0
Amino Acids
Other
Ingredients
"SUGAR, CORN STARCH, PARTIALLY HYDROGENATED VEGETABLE OIL, (COTTONSEED AND/OR SOYBEAN), DEXTRIN, SOY LECITHIN, CONFECTIONER'S GLAZE, FD&C YELLOW #5, NATURAL & ARTIFICIAL FLAVORS, CARNAUBA WAX, FD&C BLUE # 1" Date available: 07/14/2017 Date last updated by company: 07/14/2017
