Source: USDA Branded Food Products Database Release December 2017 Software v.3.8.6.4 2017-10-02
Report Run at: December 18, 2017 01:49 EST
"Nutrient data for: 45292994, GREEK YOGURT CHEESECAKE NEW YORK STYLE, UPC: 864097000004"
Food Group:  Branded Food Products Database
Common Name:

Nutrient,Unit,Data points,Std. Error,"4.0 ONZ = 113.0g",1Value per 100 g,
Proximates
"Energy",kcal,--,--,250,221
"Protein",g,--,--,10.00,8.85
"Total lipid (fat)",g,--,--,10.99,9.73
"Carbohydrate, by difference",g,--,--,25.00,22.12
"Fiber, total dietary",g,--,--,0.0,0.0
"Sugars, total",g,--,--,23.00,20.35
Minerals
"Calcium, Ca",mg,--,--,200,177
"Iron, Fe",mg,--,--,0.79,0.70
"Sodium, Na",mg,--,--,110,97
Vitamins
"Vitamin C, total ascorbic acid",mg,--,--,1.4,1.2
"Vitamin A, IU",IU,--,--,0,0
Lipids
"Fatty acids, total saturated",g,--,--,3.503,3.100
"Fatty acids, total trans",g,--,--,0.000,0.000
"Cholesterol",mg,--,--,60,53
Amino Acids
Other
Ingredients
"FILLING: YOGURT CHEESE PASTEURIZED MILK, LIVE AND ACTIVE CULTURES (S. THERMOPHILUS, L. BULGARICUS, L. ACIDOPHILUS, BIFIDUS & L. CASEI) SUGAR, EGGS & PURE VANILLA. CRUST: FLOUR, SUGAR, EGGS, BUTTER, CINNAMON, BAKING POWDER & PURE VANILLA." Date available: 07/14/2017 Date last updated by company: 07/14/2017
