Source: USDA Branded Food Products Database Release December 2017 Software v.3.8.6.4 2017-10-02
Report Run at: December 18, 2017 02:26 EST
"Nutrient data for: 45241713, GRETOHEN'S, CHICKEN PESTO CIABATTA, UPC: 717887717043"
Food Group:  Branded Food Products Database
Common Name:

Nutrient,Unit,Data points,Std. Error,"1 SANDWICH = 248.0g",1Value per 100 g,
Proximates
"Energy",kcal,--,--,580,234
"Protein",g,--,--,43.00,17.34
"Total lipid (fat)",g,--,--,25.00,10.08
"Carbohydrate, by difference",g,--,--,50.99,20.56
"Fiber, total dietary",g,--,--,6.0,2.4
"Sugars, total",g,--,--,8.01,3.23
Minerals
"Calcium, Ca",mg,--,--,250,101
"Iron, Fe",mg,--,--,3.05,1.23
"Sodium, Na",mg,--,--,1240,500
Vitamins
"Vitamin C, total ascorbic acid",mg,--,--,5.0,2.0
"Vitamin A, IU",IU,--,--,565,228
Lipids
"Fatty acids, total saturated",g,--,--,6.002,2.420
"Fatty acids, total trans",g,--,--,0.000,0.000
"Cholesterol",mg,--,--,84,34
Amino Acids
Other
Ingredients
"BREAD (UNBLEACHED ENRICHED WHEAT FLOUR [WHEAT FLOUR, NIACIN, REDUCED IRON, THIAMIN MONONLTRATE, RLBOFLAVIN, FOLIC ACID], WATER, SEA SALT, EXTRA VIRGIN OLIVE OIL, RYE FLOUR, WHOLE WHEAT FLOUR, YEAST ASCORBIC ACID [DOUGH CONDITIONS]), CHICKEN (CHICKEN BREAST WITH RIB MEAT [SOLUTION AT UP TO 15% WATER, SALT AND SODIUM PHOSPHATES], CANOLA OIL, PEPPER), FRESH MOZZARELLA (PASTAURIZED WHOLE MILK, VINEGAR, VEGETABLES PLANNET, SALT), PESTO (CANOLA OIL, BASIL, PARMASAN CHEESE [PASTAURIZED PART-SKIM MILK, CHEESE TOMATOES (TOMATOES, SUIFLIA [TA PRASARIA COLOR])." Date available: 10/14/2017 Date last updated by company: 10/14/2017
