Source: USDA Branded Food Products Database Release December 2017 Software v.3.8.6.4 2017-10-02
Report Run at: December 18, 2017 02:31 EST
"Nutrient data for: 45219387, GRILLER PATTIES, UPC: 077782029925"
Food Group:  Branded Food Products Database
Common Name:

Nutrient,Unit,Data points,Std. Error,"1 PATTY = 151.0g",1Value per 100 g,
Proximates
"Energy",kcal,--,--,450,298
"Protein",g,--,--,21.00,13.91
"Total lipid (fat)",g,--,--,36.99,24.50
"Carbohydrate, by difference",g,--,--,7.01,4.64
"Sugars, total",g,--,--,3.00,1.99
Minerals
"Calcium, Ca",mg,--,--,39,26
"Iron, Fe",mg,--,--,0.60,0.40
"Sodium, Na",mg,--,--,980,649
Vitamins
"Vitamin C, total ascorbic acid",mg,--,--,0.6,0.4
"Vitamin A, IU",IU,--,--,56,37
Lipids
"Fatty acids, total saturated",g,--,--,13.001,8.610
"Fatty acids, total trans",g,--,--,0.000,0.000
"Cholesterol",mg,--,--,95,63
Amino Acids
Other
Ingredients
"PORK, WATER, CORN SYRUP AND LESS THAN 2% OF THE FOLLOWING: SALT, SUGAR, BBQ FLAVOR (MALTODEXTRIN, MOLASSES, GRILL FLAVOR (MALTODEXTRIN, NATURAL FLAVOR, MODIFIED CORN STARCH, CORN SYRUP SOLIDS], NATURAL HICKORY SMOKE FLAVOR, CANOLA OIL, NATURAL FLAVOR, ACETIC ACID), SPICES, DRIED TOMATO, DRIED ONION, BEEF TYPE FLAVOR (YEAST EXTRACT, SALT, SUNFLOWER OIL), NATURAL FLAVORING, DRIED GARLIC, PAPRIKA, BHA, PROPYL GALLATE, CITRIC ACID." Date available: 10/19/2017 Date last updated by company: 10/19/2017
