Source: USDA Branded Food Products Database Release December 2017 Software v.3.8.6.4 2017-10-02
Report Run at: December 18, 2017 02:28 EST
"Nutrient data for: 45200884, GRILLED CHICKEN BREASTS WITH ANCHO CHILI SAUCE, UPC: 705044028880"
Food Group:  Branded Food Products Database
Common Name:

Nutrient,Unit,Data points,Std. Error,"1 BREAST WITH SAUCE = 142.0g",1Value per 100 g,
Proximates
"Energy",kcal,--,--,160,113
"Protein",g,--,--,29.00,20.42
"Total lipid (fat)",g,--,--,2.50,1.76
"Carbohydrate, by difference",g,--,--,5.00,3.52
"Fiber, total dietary",g,--,--,0.0,0.0
"Sugars, total",g,--,--,4.00,2.82
Minerals
"Calcium, Ca",mg,--,--,20,14
"Iron, Fe",mg,--,--,0.99,0.70
"Sodium, Na",mg,--,--,270,190
Vitamins
"Vitamin C, total ascorbic acid",mg,--,--,3.3,2.3
"Vitamin A, IU",IU,--,--,138,97
Lipids
"Fatty acids, total saturated",g,--,--,0.497,0.350
"Fatty acids, total trans",g,--,--,0.000,0.000
"Cholesterol",mg,--,--,89,63
Amino Acids
Other
Ingredients
"CHICKEN BREAST, ORGANIC KETCHUP (ORGANIC TOMATO PUREE (TOMATO PASTE, WATER), NATURALLY MILLED SUGAR, ORGANIC VINEGAR, SEA SALT, ORGANIC ONION POWDER, ORGANIC GARLIC POWDER, NATURAL FLAVOR), WATER, ORGANIC BROWN RICE VINEGAR (WATER, BROWN RICE VINEGAR, KOJI), HONEY, MOLASSES, GARLIC POWDER, ONION POWDER, DARK BROWN SUGAR (SUGAR, MOLASSES), SESAME OIL, CUMIN, SEA SALT, SEASONING (DISTILLED VINEGAR, RED PEPPER, SALT), ANCHO CHILI PEPPER POWDER, RICE STARCH, MUSTARD POWDER, BLACK PEPPER." Date available: 07/14/2017 Date last updated by company: 07/14/2017
