Source: USDA Branded Food Products Database Release December 2017 Software v.3.8.6.4 2017-10-02
Report Run at: December 18, 2017 02:31 EST
"Nutrient data for: 45052029, GRILL FRANKS, UPC: 041497063642"
Food Group:  Branded Food Products Database
Common Name:

Nutrient,Unit,Data points,Std. Error,"1 FRANK = 56.0g",1Value per 100 g,
Proximates
"Energy",kcal,--,--,170,304
"Protein",g,--,--,7.00,12.50
"Total lipid (fat)",g,--,--,16.00,28.57
"Carbohydrate, by difference",g,--,--,0.00,0.00
"Fiber, total dietary",g,--,--,0.0,0.0
"Sugars, total",g,--,--,0.00,0.00
Minerals
"Calcium, Ca",mg,--,--,0,0
"Iron, Fe",mg,--,--,0.71,1.26
"Sodium, Na",mg,--,--,590,1054
Vitamins
"Vitamin C, total ascorbic acid",mg,--,--,0.0,0.0
"Vitamin A, IU",IU,--,--,98,175
Lipids
"Fatty acids, total saturated",g,--,--,5.001,8.930
"Fatty acids, total trans",g,--,--,0.498,0.890
"Cholesterol",mg,--,--,30,54
Amino Acids
Other
Ingredients
"BEEF AND PORK, WATER, SALT, FLAVORINGS, HYDOLYZED SOY PROTEIN, SODIUM PHOSPHATE, PAPRIKA, SPICES, SODIUM ERYTHORBATE, SODIUM NITRITE." Date available: 06/25/2017 Date last updated by company: 06/25/2017
