Source: USDA Branded Food Products Database Release December 2017 Software v.3.8.6.4 2017-10-02
Report Run at: December 18, 2017 02:28 EST
"Nutrient data for: 45314843, GRILLED CHICKEN CAESAR PASTA SALAD, UPC: 826766155385"
Food Group:  Branded Food Products Database
Common Name:

Nutrient,Unit,Data points,Std. Error,"0.5 CONTAINER = 113.0g",1Value per 100 g,
Proximates
"Energy",kcal,--,--,280,248
"Protein",g,--,--,12.99,11.50
"Total lipid (fat)",g,--,--,18.00,15.93
"Carbohydrate, by difference",g,--,--,17.00,15.04
"Fiber, total dietary",g,--,--,1.0,0.9
"Sugars, total",g,--,--,2.00,1.77
Minerals
"Calcium, Ca",mg,--,--,60,53
"Iron, Fe",mg,--,--,1.79,1.58
"Sodium, Na",mg,--,--,520,460
Vitamins
"Vitamin C, total ascorbic acid",mg,--,--,7.5,6.6
"Vitamin A, IU",IU,--,--,372,329
Lipids
"Fatty acids, total saturated",g,--,--,3.503,3.100
"Fatty acids, total trans",g,--,--,0.000,0.000
"Cholesterol",mg,--,--,50,44
Amino Acids
Other
Ingredients
"COOKED PENNE (WHITE PENNE PASTA [SEMOLINA (WHEAT), DURUM WHEAT FLOUR, NIACIN, IRON (FERROUS SULFATE), THIAMINE MONONITRATE, RIBOFLAVIN, FOLIC ACID], WATER), GRILLED CHICKEN BREAST (BONELESS SKINLESS CHICKEN BREAST FILLET WITH RIB MEAT, SOY PROTEIN [ISOLATED SOY PROTEIN, SOY LECITHIN], SALT), CAESAR DRESSING (SOYBEAN OIL, WATER, EGG YOLK, LEMON JUICE CONCENTRATE, SALT, WHITE WINE AND DISTILLED VINEGARS, SPICES [INCLUDING MUSTARD SEED], PARMESAN CHEESE [PART-SKIM MILK, CHEESE CULTURE, SALT, ENZYMES], GARLIC*, SODIUM BENZOATE AND POTASSIUM SORBATE ADDED AS PRESERVATIVES, ONION*, EXTRA VIRGIN OLIVE OIL, XANTHAN GUM, NATURAL FLAVORS, PROPYLENE GLYCOL ALGINATE, MOLASSES, CORN SYRUP, CARAMEL COLOR, SUGAR, TAMARIND, CALCIUM DISODIUM EDTA ADDED TO PROTECT FLAVOR, ANCHOVIES. *DEHYDRATED), PARMESAN CHEESE (PASTEURIZED PART SKIM MILK, CHEESE CULTURE, SALT, ENZYMES AND <2% POWDERED CELLULOSE ADDED TO PREVENT CAKING), RED BELL PEPPER, GREEN ONION, PARSLEY, SALT, BLACK PEPPER." Date available: 07/14/2017 Date last updated by company: 07/14/2017
