Source: USDA Branded Food Products Database Release December 2017 Software v.3.8.6.4 2017-10-02
Report Run at: December 18, 2017 02:31 EST
"Nutrient data for: 45269718, GRILLED SWEET POTATOES WITH BROWN SUGAR AND MAPLE GLAZE, UPC: 888649503256"
Food Group:  Branded Food Products Database
Common Name:

Nutrient,Unit,Data points,Std. Error,"110.0 GRM = 110.0g",1Value per 100 g,
Proximates
"Energy",kcal,--,--,130,118
"Protein",g,--,--,2.00,1.82
"Total lipid (fat)",g,--,--,0.00,0.00
"Carbohydrate, by difference",g,--,--,30.00,27.27
"Fiber, total dietary",g,--,--,4.0,3.6
"Sugars, total",g,--,--,9.00,8.18
Minerals
"Iron, Fe",mg,--,--,0.66,0.60
"Sodium, Na",mg,--,--,450,409
Vitamins
"Vitamin C, total ascorbic acid",mg,--,--,16.4,14.9
"Vitamin A, IU",IU,--,--,91,83
Lipids
"Fatty acids, total saturated",g,--,--,0.000,0.000
"Fatty acids, total monounsaturated",g,--,--,0.000,0.000
"Fatty acids, total polyunsaturated",g,--,--,0.000,0.000
"Fatty acids, total trans",g,--,--,0.000,0.000
"Cholesterol",mg,--,--,0,0
Amino Acids
Other
Ingredients
"SWEET POTATOES (COATED WITH WATER, MAPLE EXTRACT (ALCOHOL, GLYCERIN, MAPLE CONCENTRATE, CARAMEL COLORING AND WATER), DEXTROSE, SALT), BROWN SUGAR, AND MAPLE GLAZE (BROWN SUGAR, WATER, HONEY, MAPLE EXTRACT, (ALCOHOL, GLYCERIN, MAPLE CONCENTRATE, CARAMEL COLORING AND WATER), BOURBON EXTRACT (BOURBON WHISKEY, SUGAR, GLYCERIN, AND WATER)." Date available: 10/19/2017 Date last updated by company: 10/19/2017
