Source: USDA Branded Food Products Database Release December 2017 Software v.3.8.6.4 2017-10-02
Report Run at: December 18, 2017 02:33 EST
"Nutrient data for: 45200332, GRILLN' & DIPPN' SAUCE, UPC: 705105401607"
Food Group:  Branded Food Products Database
Common Name:

Nutrient,Unit,Data points,Std. Error,"10.0 CONTAINER = 35.0g",1Value per 100 g,
Proximates
"Energy",kcal,--,--,30,86
"Protein",g,--,--,0.00,0.00
"Total lipid (fat)",g,--,--,0.00,0.00
"Carbohydrate, by difference",g,--,--,8.00,22.86
"Fiber, total dietary",g,--,--,0.0,0.0
"Sugars, total",g,--,--,7.00,20.00
Minerals
"Sodium, Na",mg,--,--,200,571
Vitamins
Lipids
"Fatty acids, total saturated",g,--,--,0.000,0.000
"Cholesterol",mg,--,--,0,0
Amino Acids
Other
Ingredients
"BREWED COFFEE, KETCHUP, WORCHESTERSHIRE SAUCE, CHILI POWDER, CAYENNE PEPPER, BROWN SUGAR, CRUSHED PEPPER SEEDS, SALT, ONION, HONEY, VINEGAR." Date available: 07/14/2017 Date last updated by company: 07/14/2017
