Source: USDA Branded Food Products Database Release December 2017 Software v.3.8.6.4 2017-10-02
Report Run at: December 18, 2017 02:33 EST
"Nutrient data for: 45183077, GRILL SEASONING, UPC: 047600590623"
Food Group:  Branded Food Products Database
Common Name:

Nutrient,Unit,Data points,Std. Error,"0.25 Tbsp = 0.8g",1Value per 100 g,
Proximates
"Energy",kcal,--,--,0,0
"Protein",g,--,--,0.00,0.00
"Total lipid (fat)",g,--,--,0.00,0.00
"Carbohydrate, by difference",g,--,--,0.00,0.00
Minerals
"Sodium, Na",mg,--,--,180,22500
Vitamins
Lipids
Amino Acids
Other
Ingredients
"SALT, SPICES, DEHYDRATED ONION, DEHYDRATED GARLIC, PARMESAN CHEESE (CULTURED PART SKIM MILK, SALT, ENZYMES), DEHYDRATED BELL PEPPERS, MALTODEXTRIN, DEHYDRATED CELERY, PAPRIKA (COLOR), NATURAL FLAVOR, CARAMEL COLOR, MILKFAT, SOY LECITHIN." Date available: 07/14/2017 Date last updated by company: 07/14/2017
