Source: USDA Branded Food Products Database Release December 2017 Software v.3.8.6.4 2017-10-02
Report Run at: December 18, 2017 02:31 EST
"Nutrient data for: 45286686, GRILLED TOMATO SOFT SPREADABLE CHEESE, UPC: 071448407010"
Food Group:  Branded Food Products Database
Common Name:

Nutrient,Unit,Data points,Std. Error,"2.0 Tbsp = 23.0g",1Value per 100 g,
Proximates
"Energy",kcal,--,--,70,304
"Protein",g,--,--,1.00,4.35
"Total lipid (fat)",g,--,--,6.00,26.09
"Carbohydrate, by difference",g,--,--,2.00,8.70
"Fiber, total dietary",g,--,--,0.3,1.1
"Sugars, total",g,--,--,1.00,4.35
Minerals
"Calcium, Ca",mg,--,--,20,87
"Iron, Fe",mg,--,--,0.78,3.40
"Sodium, Na",mg,--,--,125,543
Vitamins
"Vitamin C, total ascorbic acid",mg,--,--,2.6,11.3
"Vitamin A, IU",IU,--,--,652,2835
Lipids
"Fatty acids, total saturated",g,--,--,4.000,17.390
"Fatty acids, total trans",g,--,--,0.000,0.000
"Cholesterol",mg,--,--,20,87
Amino Acids
Other
Ingredients
"PASTEURIZED CULTURED MILK AND CREAM, TOMATO, RED BELL PEPPER, SUGAR, VINEGAR, SALT, BASIL, PARSLEY, GUAR GUM, CILANTRO, SORBIC ACID (TO MAINTAIN FRESHNESS), SPICES, CAROB BEAN GUM, NATURAL FLAVOR." Date available: 07/14/2017 Date last updated by company: 07/14/2017
