Source: USDA Branded Food Products Database Release December 2017 Software v.3.8.6.4 2017-10-02
Report Run at: December 18, 2017 02:34 EST
"Nutrient data for: 45084428, GRINASSANCE, ORIGINAL MOCHI, UPC: 030264001406"
Food Group:  Branded Food Products Database
Common Name:

Nutrient,Unit,Data points,Std. Error,"2.0 *2* PC. = 45.0g",1Value per 100 g,
Proximates
"Energy",kcal,--,--,110,244
"Protein",g,--,--,2.00,4.44
"Total lipid (fat)",g,--,--,1.00,2.22
"Carbohydrate, by difference",g,--,--,24.00,53.33
"Fiber, total dietary",g,--,--,2.0,4.4
"Sugars, total",g,--,--,0.00,0.00
Minerals
"Calcium, Ca",mg,--,--,0,0
"Iron, Fe",mg,--,--,0.80,1.78
"Sodium, Na",mg,--,--,0,0
Vitamins
"Vitamin C, total ascorbic acid",mg,--,--,0.0,0.0
"Vitamin A, IU",IU,--,--,0,0
Lipids
"Fatty acids, total saturated",g,--,--,0.000,0.000
"Fatty acids, total trans",g,--,--,0.000,0.000
"Cholesterol",mg,--,--,0,0
Amino Acids
Other
Ingredients
"ORGANIC SWEET BROWN RICE, AND FILTERED WATER." Date available: 06/25/2017 Date last updated by company: 06/25/2017
