Source: USDA Branded Food Products Database Release December 2017 Software v.3.8.6.4 2017-10-02
Report Run at: December 18, 2017 02:42 EST
"Nutrient data for: 45211890, GROUND CHUCK BURGER PATTIES, UPC: 098911134075"
Food Group:  Branded Food Products Database
Common Name:

Nutrient,Unit,Data points,Std. Error,"1 PATTY = 151.0g",1Value per 100 g,
Proximates
"Energy",kcal,--,--,251,166
"Protein",g,--,--,29.01,19.21
"Total lipid (fat)",g,--,--,14.00,9.27
"Carbohydrate, by difference",g,--,--,0.00,0.00
"Fiber, total dietary",g,--,--,0.0,0.0
"Sugars, total",g,--,--,0.00,0.00
Minerals
"Calcium, Ca",mg,--,--,0,0
"Iron, Fe",mg,--,--,2.02,1.34
"Sodium, Na",mg,--,--,115,76
Vitamins
"Vitamin C, total ascorbic acid",mg,--,--,0.0,0.0
"Vitamin A, IU",IU,--,--,0,0
Lipids
"Fatty acids, total saturated",g,--,--,4.998,3.310
"Cholesterol",mg,--,--,100,66
Amino Acids
Other
Ingredients
"100% BEEF CHUCK." Date available: 08/29/2017 Date last updated by company: 08/29/2017
