Source: USDA Branded Food Products Database Release December 2017 Software v.3.8.6.4 2017-10-02
Report Run at: December 18, 2017 02:42 EST
"Nutrient data for: 45182321, GROUND CHUCK BEEF PATTIES, UPC: 040232243547"
Food Group:  Branded Food Products Database
Common Name:

Nutrient,Unit,Data points,Std. Error,"1 PATTY = 152.0g",1Value per 100 g,
Proximates
"Energy",kcal,--,--,391,257
"Protein",g,--,--,26.01,17.11
"Total lipid (fat)",g,--,--,30.00,19.74
"Carbohydrate, by difference",g,--,--,0.00,0.00
Minerals
"Calcium, Ca",mg,--,--,20,13
"Iron, Fe",mg,--,--,1.50,0.99
"Sodium, Na",mg,--,--,100,66
Vitamins
Lipids
"Fatty acids, total saturated",g,--,--,11.993,7.890
"Fatty acids, total trans",g,--,--,2.006,1.320
"Cholesterol",mg,--,--,109,72
Amino Acids
Other
Ingredients
"GROUND CHUNK BEEF PATTIES" Date available: 10/19/2017 Date last updated by company: 10/19/2017
