Source: USDA Branded Food Products Database Release December 2017 Software v.3.8.6.4 2017-10-02
Report Run at: December 18, 2017 02:44 EST
"Nutrient data for: 45270722, GROUND SIRLOIN BEEF & BEEF PATTIES, UPC: 078742179094"
Food Group:  Branded Food Products Database
Common Name:

Nutrient,Unit,Data points,Std. Error,"1 PATTY = 151.0g",1Value per 100 g,
Proximates
"Energy",kcal,--,--,320,212
"Protein",g,--,--,28.00,18.54
"Total lipid (fat)",g,--,--,23.00,15.23
"Carbohydrate, by difference",g,--,--,0.00,0.00
"Fiber, total dietary",g,--,--,0.0,0.0
"Sugars, total",g,--,--,0.00,0.00
Minerals
"Calcium, Ca",mg,--,--,20,13
"Iron, Fe",mg,--,--,2.02,1.34
"Sodium, Na",mg,--,--,100,66
Vitamins
"Vitamin C, total ascorbic acid",mg,--,--,0.0,0.0
"Vitamin A, IU",IU,--,--,0,0
Lipids
"Fatty acids, total saturated",g,--,--,9.000,5.960
"Fatty acids, total trans",g,--,--,1.495,0.990
"Cholesterol",mg,--,--,106,70
Amino Acids
Other
Ingredients
"SIRLOIN BEEF, BEEF." Date available: 07/14/2017 Date last updated by company: 07/14/2017
