Source: USDA Branded Food Products Database Release December 2017 Software v.3.8.6.4 2017-10-02
Report Run at: December 18, 2017 02:46 EST
"Nutrient data for: 45332305, GROWAGRA, ORGANIC WHEAT GRASS & APPLE JUICE SHOTS, UPC: 892197001041"
Food Group:  Branded Food Products Database
Common Name:

Nutrient,Unit,Data points,Std. Error,"1 ONZ = 28.0g",1Value per 100 g,
Proximates
"Energy",kcal,--,--,5,18
"Protein",g,--,--,1.00,3.57
"Total lipid (fat)",g,--,--,0.00,0.00
"Carbohydrate, by difference",g,--,--,1.00,3.57
"Fiber, total dietary",g,--,--,0.0,0.0
"Sugars, total",g,--,--,1.00,3.57
Minerals
"Iron, Fe",mg,--,--,1.08,3.86
"Potassium, K",mg,--,--,40,143
"Sodium, Na",mg,--,--,0,0
Vitamins
"Vitamin C, total ascorbic acid",mg,--,--,2.4,8.6
Lipids
"Fatty acids, total saturated",g,--,--,0.000,0.000
"Fatty acids, total trans",g,--,--,0.000,0.000
"Cholesterol",mg,--,--,0,0
Amino Acids
Other
Ingredients
"ORGANIC WHEATGRASS JUICE ORGANIC APPLE JUICE" Date available: 07/14/2017 Date last updated by company: 07/14/2017
