Source: USDA Branded Food Products Database Release December 2017 Software v.3.8.6.4 2017-10-02
Report Run at: December 18, 2017 02:49 EST
"Nutrient data for: 45063865, GUACAMOLE STYLE DIP, UPC: 041501351000"
Food Group:  Branded Food Products Database
Common Name:

Nutrient,Unit,Data points,Std. Error,"2.0 Tbsp = 31.0g",1Value per 100 g,
Proximates
"Energy",kcal,--,--,40,129
"Protein",g,--,--,1.00,3.23
"Total lipid (fat)",g,--,--,2.50,8.06
"Carbohydrate, by difference",g,--,--,3.00,9.68
"Sugars, total",g,--,--,1.00,3.23
Minerals
"Sodium, Na",mg,--,--,170,548
Vitamins
Lipids
Amino Acids
Other
Ingredients
"WATER, CRUSHED TOMATOES (WATER, CONCENTRATED CRUSHED TOMATOES), CANOLA OIL, FOOD STARCH MODIFIED, CORN SYRUP SOLIDS, 2% OR LESS OF THE FOLLOWING: WHEY PROTEIN CONCENTRATE, SALT, DRIED ONION, SUGAR, NATURAL & ARTIFICIAL FLAVORS WITH EXTRACTIVES OF PAPRIKA (COLOR), GLUCONO DELTA LACTONE, MALTODEXTRIN, GARLIC POWDER, MONOSODIUM GLUTAMATE, AVOCADO POWDER, DRIED RED BELL PEPPER, SODIUM ACID PYROPHOSPHATE, DATEM, SPICES, LACTIC ACID, XANTHAN GUM, DRIED JALAPENO PEPPER, CITRIC ACID, LEMON JUICE SOLIDS, LOCUST BEAN GUM, CARAMEL COLOR, SOY SAUCE (FERMENTED WHEAT, SOYBEANS, SALT, MALTODEXTRIN, CARAMEL COLOR), YELLOW 5, BLUE 1." Date available: 09/07/2017 Date last updated by company: 09/07/2017
