Source: USDA Branded Food Products Database Release December 2017 Software v.3.8.6.4 2017-10-02
Report Run at: December 18, 2017 02:48 EST
"Nutrient data for: 45163252, GUACAMAYA, HOT SAUCE WITH LIME JUICE, UPC: 050959000040"
Food Group:  Branded Food Products Database
Common Name:

Nutrient,Unit,Data points,Std. Error,"1 tsp = 5.0g",1Value per 100 g,
Proximates
"Energy",kcal,--,--,0,0
"Protein",g,--,--,0.00,0.00
"Total lipid (fat)",g,--,--,0.00,0.00
"Carbohydrate, by difference",g,--,--,0.00,0.00
Minerals
"Sodium, Na",mg,--,--,110,2200
Vitamins
Lipids
Amino Acids
Other
Ingredients
"WATER, IODIZED SALT, DRIED PEPPERS, ACETIC ACID, CITRIC ACID, XANTHAN GUM, SPICES, SODIUM BENZOATE AS PRESERVATIVE, SODIUM ERYTHORBATE, LIME JUICE AND FD&C RED NO. 40." Date available: 06/25/2017 Date last updated by company: 06/25/2017
