Source: USDA Branded Food Products Database Release December 2017 Software v.3.8.6.4 2017-10-02
Report Run at: December 18, 2017 02:50 EST
"Nutrient data for: 45285054, GUAJILLO & RED JALAPENO AGED TANGY GARLIC SAUCE, UPC: 617529519526"
Food Group:  Branded Food Products Database
Common Name:

Nutrient,Unit,Data points,Std. Error,"1 tsp = 5.0g",1Value per 100 g,
Proximates
"Energy",kcal,--,--,5,100
"Protein",g,--,--,0.00,0.00
"Total lipid (fat)",g,--,--,0.00,0.00
"Carbohydrate, by difference",g,--,--,1.00,20.00
"Fiber, total dietary",g,--,--,0.0,0.0
"Sugars, total",g,--,--,0.00,0.00
Minerals
"Sodium, Na",mg,--,--,55,1100
Vitamins
Lipids
"Fatty acids, total saturated",g,--,--,0.000,0.000
"Fatty acids, total trans",g,--,--,0.000,0.000
"Cholesterol",mg,--,--,0,0
Amino Acids
Other
Ingredients
"AGED CHILE PASTE (RED JALAPENOS, FRESH GARLIC, VINEGAR, GUAJILLO CHILES, KOSHER SALT) VINEGAR, PICKLED RED BELL PEPPER, CANE SUGAR." Date available: 07/14/2017 Date last updated by company: 07/14/2017
