Source: USDA Branded Food Products Database Release December 2017 Software v.3.8.6.4 2017-10-02
Report Run at: December 18, 2017 02:51 EST
"Nutrient data for: 45136001, GUAVA GUMMIES, UPC: 7506244300553"
Food Group:  Branded Food Products Database
Common Name:

Nutrient,Unit,Data points,Std. Error,"45.0 PORTIONS = 10.0g",1Value per 100 g,
Proximates
"Energy",kcal,--,--,29,290
"Protein",g,--,--,0.10,1.00
"Total lipid (fat)",g,--,--,0.00,0.00
"Carbohydrate, by difference",g,--,--,7.10,71.00
"Fiber, total dietary",g,--,--,0.1,1.0
"Sugars, total",g,--,--,2.60,26.00
Minerals
"Calcium, Ca",mg,--,--,4,40
"Iron, Fe",mg,--,--,0.03,0.27
"Sodium, Na",mg,--,--,1,10
Vitamins
"Vitamin C, total ascorbic acid",mg,--,--,51.0,510.0
"Thiamin",mg,--,--,0.000,0.000
"Vitamin A, IU",IU,--,--,2,25
Lipids
Amino Acids
Other
Ingredients
"GUAVA PULP, CANE SUGAR, PECTIN" Date available: 07/14/2017 Date last updated by company: 07/14/2017
