Source: USDA Branded Food Products Database Release December 2017 Software v.3.8.6.4 2017-10-02
Report Run at: December 18, 2017 02:53 EST
"Nutrient data for: 45288743, GUAVA SHELLS, UPC: 075370001001"
Food Group:  Branded Food Products Database
Common Name:

Nutrient,Unit,Data points,Std. Error,"0.5 cup = 146.0g",1Value per 100 g,
Proximates
"Energy",kcal,--,--,350,240
"Protein",g,--,--,0.99,0.68
"Total lipid (fat)",g,--,--,0.00,0.00
"Carbohydrate, by difference",g,--,--,85.00,58.22
"Fiber, total dietary",g,--,--,6.0,4.1
"Sugars, total",g,--,--,72.01,49.32
Minerals
"Calcium, Ca",mg,--,--,20,14
"Iron, Fe",mg,--,--,0.69,0.47
"Sodium, Na",mg,--,--,31,21
Vitamins
"Vitamin C, total ascorbic acid",mg,--,--,14.5,9.9
"Vitamin A, IU",IU,--,--,718,492
Lipids
"Fatty acids, total saturated",g,--,--,0.000,0.000
"Fatty acids, total trans",g,--,--,0.000,0.000
"Cholesterol",mg,--,--,0,0
Amino Acids
Other
Ingredients
"GUAVA SHELLS, REFINED SUGAR AND WATER" Date available: 09/13/2017 Date last updated by company: 09/13/2017
