Source: USDA Branded Food Products Database Release December 2017 Software v.3.8.6.4 2017-10-02
Report Run at: December 18, 2017 02:54 EST
"Nutrient data for: 45154760, GUITTARD MILK CHOCOLATE, UPC: 019646002446"
Food Group:  Branded Food Products Database
Common Name:

Nutrient,Unit,Data points,Std. Error,"40.0 GRM = 40.0g",1Value per 100 g,
Proximates
"Energy",kcal,--,--,221,552
"Protein",g,--,--,2.00,5.00
"Total lipid (fat)",g,--,--,13.00,32.50
"Carbohydrate, by difference",g,--,--,24.00,60.00
"Fiber, total dietary",g,--,--,1.0,2.5
"Sugars, total",g,--,--,22.00,55.00
Minerals
"Calcium, Ca",mg,--,--,60,150
"Iron, Fe",mg,--,--,1.35,3.38
"Sodium, Na",mg,--,--,25,62
Vitamins
"Vitamin A, IU",IU,--,--,125,312
Lipids
"Fatty acids, total saturated",g,--,--,8.000,20.000
"Fatty acids, total trans",g,--,--,0.000,0.000
"Cholesterol",mg,--,--,5,12
Amino Acids
Other
Ingredients
"MILK CHOCOLATE (SUGAR, COCOA BUTTER, MILK, UNSWEETENED CHOCOLATE), SOYA LECITHIN AND PURE VANILLA." Date available: 10/13/2017 Date last updated by company: 10/13/2017
