Source: USDA Branded Food Products Database Release December 2017 Software v.3.8.6.4 2017-10-02
Report Run at: December 18, 2017 03:13 EST
"Nutrient data for: 45318171, GUM, UPC: 022000109972"
Food Group:  Branded Food Products Database
Common Name:

Nutrient,Unit,Data points,Std. Error,"1 STICK = 2.7g",1Value per 100 g,
Proximates
"Energy",kcal,--,--,10,370
"Protein",g,--,--,0.00,0.00
"Total lipid (fat)",g,--,--,0.00,0.00
"Carbohydrate, by difference",g,--,--,2.00,74.07
"Sugars, total",g,--,--,2.00,74.07
Minerals
"Sodium, Na",mg,--,--,0,0
Vitamins
Lipids
Amino Acids
Other
Ingredients
"MADE OF: SUGAR, GUM BASE, CORN SYRUP, NATURAL AND ARTIFICIAL FLAVORS; LESS THAN 2% OF: GLYCEROL, SOY LECITHIN, ASPARTAME-ACESULFAME, HYDROXYLATED SOY LECITHIN, COLOR (RED 40 LAKE, BLUE 1 LAKE), BHT (TO MAINTAIN FRESHNESS)." Date available: 06/25/2017 Date last updated by company: 06/25/2017
