Source: USDA Branded Food Products Database Release December 2017 Software v.3.8.6.4 2017-10-02
Report Run at: December 18, 2017 03:04 EST
"Nutrient data for: 45219409, GUMMI TURTLES CANDY, UPC: 854929004355"
Food Group:  Branded Food Products Database
Common Name:

Nutrient,Unit,Data points,Std. Error,"4.0 PIECES = 39.0g",1Value per 100 g,
Proximates
"Energy",kcal,--,--,120,308
"Protein",g,--,--,2.00,5.13
"Total lipid (fat)",g,--,--,0.00,0.00
"Carbohydrate, by difference",g,--,--,30.00,76.92
"Fiber, total dietary",g,--,--,0.0,0.0
"Sugars, total",g,--,--,22.00,56.41
Minerals
"Calcium, Ca",mg,--,--,0,0
"Iron, Fe",mg,--,--,0.00,0.00
"Sodium, Na",mg,--,--,35,90
Vitamins
"Vitamin C, total ascorbic acid",mg,--,--,0.0,0.0
"Vitamin A, IU",IU,--,--,0,0
Lipids
"Fatty acids, total saturated",g,--,--,0.000,0.000
"Fatty acids, total trans",g,--,--,0.000,0.000
"Cholesterol",mg,--,--,0,0
Amino Acids
Other
Ingredients
"CORN SYRUP, SUGAR, GELATINE; HUMECTANT: SORBITOLS; ACIDS: LACTIC ACID, CITRIC ACID; MODIFIED CORN STARCH, INVERT SUGAR SYRUP; GELLING AGENT: PECTINS; ARTIFICIAL AND NATURAL FLAVORS, CORN STARCH; ACIDITY REGULATOR: SODIUM CITRATES; VEGETABLE OIL (COCONUT, PALM AND PALM KERNEL OILS); GLAZING AGENT: CARNAUBA WAX, BEESWAX; FRUIT AND VEGETABLE CONCENTRATES: RADISH, BLACKCURRANT, CARROT, ARTIFICIAL COLOR: YELLOW 5, YELLOW 6, COCHINEAL EXTRACT, RED 40, BLUE 1." Date available: 07/14/2017 Date last updated by company: 07/14/2017
