Source: USDA Branded Food Products Database Release December 2017 Software v.3.8.6.4 2017-10-02
Report Run at: December 18, 2017 02:59 EST
"Nutrient data for: 45250105, GUMMI BEARS, UPC: 094776135028"
Food Group:  Branded Food Products Database
Common Name:

Nutrient,Unit,Data points,Std. Error,"1.4 ONZ = 40.0g",1Value per 100 g,
Proximates
Minerals
Vitamins
Lipids
Amino Acids
Other
Ingredients
"CORN SYRUP, GELATIN, CITRIC ACID, SORBITOL, NATURAL & ARTIFICIAL FLAVORS, FD&C RED NO.40, VEGETABLE OIL (COCONUT), CARNAUBA WAX (USED FOR ANTI-STICKING)." Date available: 11/30/2016 Date last updated by company: 11/30/2016
