Source: USDA Branded Food Products Database Release December 2017 Software v.3.8.6.4 2017-10-02
Report Run at: December 18, 2017 03:04 EST
"Nutrient data for: 45248734, GUMMI SWIRL BEARS, UPC: 094776146581"
Food Group:  Branded Food Products Database
Common Name:

Nutrient,Unit,Data points,Std. Error,"8.0 PIECES = 40.0g",1Value per 100 g,
Proximates
Minerals
Vitamins
Lipids
Amino Acids
Other
Ingredients
"CORN SYRUP, SUGAR, BEEF GELATINE, ACIDULANT (CITRIC ACID), PALM OIL, ARTIFICIAL FLAVORS, CARNAUBA WAX, BEES WAX, TITANIUM DIOXIDE, YELLOW #5, BLUE #1, RED #40." Date available: 11/14/2016 Date last updated by company: 11/14/2016
