Source: USDA Branded Food Products Database Release December 2017 Software v.3.8.6.4 2017-10-02
Report Run at: December 18, 2017 03:13 EST
"Nutrient data for: 45214140, GUMMY WORMS, UPC: 041420752926"
Food Group:  Branded Food Products Database
Common Name:

Nutrient,Unit,Data points,Std. Error,"4.0 PIECES = 38.0g",1Value per 100 g,
Proximates
"Energy",kcal,--,--,120,316
"Protein",g,--,--,3.00,7.89
"Total lipid (fat)",g,--,--,0.00,0.00
"Carbohydrate, by difference",g,--,--,28.00,73.68
"Sugars, total",g,--,--,16.00,42.11
Minerals
"Sodium, Na",mg,--,--,35,92
Vitamins
"Vitamin A, IU",IU,--,--,131,346
Lipids
Amino Acids
Other
Ingredients
"CORN SYRUP, SUGAR, GELATIN, CITRIC ACID, APPLE JUICE FROM CONCENTRATE, SODIUM CITRATE NATURAL AND ARTIFICIAL FLAVORS, COCONUT OIL*, COLORS (BLACK CARROT JUICE, BETA-CAROTENE, SPIRULINA EXTRACT, TURMERIC), CARNAUBA WAX*" Date available: 07/14/2017 Date last updated by company: 07/14/2017
