Source: USDA Branded Food Products Database Release December 2017 Software v.3.8.6.4 2017-10-02
Report Run at: December 18, 2017 03:10 EST
"Nutrient data for: 45163840, GUMMY KRABBY PATTIES CANDY, UPC: 041376943140"
Food Group:  Branded Food Products Database
Common Name:

Nutrient,Unit,Data points,Std. Error,"4.0 PIECES = 36.0g",1Value per 100 g,
Proximates
"Energy",kcal,--,--,130,361
"Protein",g,--,--,2.00,5.56
"Total lipid (fat)",g,--,--,0.00,0.00
"Carbohydrate, by difference",g,--,--,30.00,83.33
"Sugars, total",g,--,--,20.00,55.56
Minerals
"Sodium, Na",mg,--,--,15,42
Vitamins
Lipids
Amino Acids
Other
Ingredients
"GLUCOSE SYRUP, SUGAR, GELATIN (BEEF), SORBITOL, MODIFIED CORN STARCH, CITRIC ACID, AGAR, MALIC ACID, ARTIFICIAL FLAVORS, GLAZING AGENT (COCONUT OIL, CARNAUBA WAX, VITAMIN E, CITRIC ACID), SODIUM CITRATE, ARTIFICIAL COLORS (TITANIUM DIOXIDE, YELLOW 5, YELLOW 6, RED 40, BLUE 1)." Date available: 10/13/2017 Date last updated by company: 10/13/2017
