Source: USDA Branded Food Products Database Release December 2017 Software v.3.8.6.4 2017-10-02
Report Run at: December 18, 2017 03:10 EST
"Nutrient data for: 45172070, GUMMY HEARTS, UPC: 021466055106"
Food Group:  Branded Food Products Database
Common Name:

Nutrient,Unit,Data points,Std. Error,"6.0 PIECES | ABOUT = 38.0g",1Value per 100 g,
Proximates
"Energy",kcal,--,--,130,342
"Protein",g,--,--,2.00,5.26
"Total lipid (fat)",g,--,--,0.00,0.00
"Carbohydrate, by difference",g,--,--,30.00,78.95
"Sugars, total",g,--,--,23.00,60.53
Minerals
"Sodium, Na",mg,--,--,0,0
Vitamins
Lipids
Amino Acids
Other
Ingredients
"CORN SYRUP, SUGAR, GELATINE, MODIFIED CORN STARCH, CITRIC ACID, LACTIC ACID, CORN STARCH, NATURAL AND ARTIFICIAL FLAVOR, ARTIFICIAL COLORS (RED 40, BLUE 1)." Date available: 07/14/2017 Date last updated by company: 07/14/2017
