Source: USDA Branded Food Products Database Release December 2017 Software v.3.8.6.4 2017-10-02
Report Run at: December 18, 2017 03:10 EST
"Nutrient data for: 45215873, GUMMY HEARTS CANDY, UPC: 083933054210"
Food Group:  Branded Food Products Database
Common Name:

Nutrient,Unit,Data points,Std. Error,"1 PACKAGE = 50.0g",1Value per 100 g,
Proximates
"Energy",kcal,--,--,170,340
"Protein",g,--,--,3.00,6.00
"Total lipid (fat)",g,--,--,0.00,0.00
"Carbohydrate, by difference",g,--,--,39.00,78.00
"Fiber, total dietary",g,--,--,0.0,0.0
"Sugars, total",g,--,--,27.00,54.00
Minerals
"Calcium, Ca",mg,--,--,0,0
"Iron, Fe",mg,--,--,0.00,0.00
"Sodium, Na",mg,--,--,15,30
Vitamins
"Vitamin C, total ascorbic acid",mg,--,--,0.0,0.0
"Vitamin A, IU",IU,--,--,0,0
Lipids
"Fatty acids, total saturated",g,--,--,0.000,0.000
"Fatty acids, total trans",g,--,--,0.000,0.000
"Cholesterol",mg,--,--,0,0
Amino Acids
Other
Ingredients
"GUMMY INGREDIENTS: GLUCOSE SYRUP, SUGAR, WATER, GELATIN, CITRIC ACID, PECTINS, MALIC ACID, ARTIFICIAL FLAVOR, SODIUM CITRATE, PALM OIL, ARTIFICIAL COLOR (FD&C RED NO. 40)." Date available: 07/14/2017 Date last updated by company: 07/14/2017
