Source: USDA Branded Food Products Database Release December 2017 Software v.3.8.6.4 2017-10-02
Report Run at: December 18, 2017 03:07 EST
"Nutrient data for: 45009682, GUMMY BEARS & WORMS, UPC: 041420752940"
Food Group:  Branded Food Products Database
Common Name:

Nutrient,Unit,Data points,Std. Error,"0.25 cup = 42.0g",1Value per 100 g,
Proximates
"Energy",kcal,--,--,130,310
"Protein",g,--,--,3.00,7.14
"Total lipid (fat)",g,--,--,0.00,0.00
"Carbohydrate, by difference",g,--,--,31.00,73.81
"Sugars, total",g,--,--,18.00,42.86
Minerals
"Sodium, Na",mg,--,--,35,83
Vitamins
"Vitamin A, IU",IU,--,--,119,283
Lipids
Amino Acids
Other
Ingredients
"CORN SYRUP, SUGAR, GELATIN, CITRIC ACID, APPLE JUICE FROM CONCENTRATE, SODIUM CITRATE, NATURAL AND ARTIFICIAL FLAVORS, COCONUT OIL*, COLORS (BLACK CARROT JUICE, BETA-CAROTENE, SPIRULINA EXTRACT, TURMERIC), CARNAUBA WAX*." Date available: 06/24/2017 Date last updated by company: 06/24/2017
