Source: USDA Branded Food Products Database Release December 2017 Software v.3.8.6.4 2017-10-02
Report Run at: December 18, 2017 03:14 EST
"Nutrient data for: 45232761, GUNTHER'S GOURMET, ORANGE BALSAMIC VINAIGRETTE & MARINADE, ORANGE BALSAMIC, UPC: 813090006353"
Food Group:  Branded Food Products Database
Common Name:

Nutrient,Unit,Data points,Std. Error,"1 Tbsp = 15.0g",1Value per 100 g,
Proximates
"Energy",kcal,--,--,20,133
"Protein",g,--,--,0.00,0.00
"Total lipid (fat)",g,--,--,1.00,6.67
"Carbohydrate, by difference",g,--,--,2.00,13.33
"Fiber, total dietary",g,--,--,0.0,0.0
"Sugars, total",g,--,--,2.00,13.33
Minerals
"Calcium, Ca",mg,--,--,0,0
"Iron, Fe",mg,--,--,0.00,0.00
"Sodium, Na",mg,--,--,15,100
Vitamins
"Vitamin C, total ascorbic acid",mg,--,--,4.0,26.7
"Vitamin A, IU",IU,--,--,0,0
Lipids
"Fatty acids, total saturated",g,--,--,0.000,0.000
"Fatty acids, total trans",g,--,--,0.000,0.000
"Cholesterol",mg,--,--,0,0
Amino Acids
Other
Ingredients
"ORANGE JUICE (WATER, ORANGE JUICE CONCENTRATE), BALSAMIC VINEGAR, OLIVE OIL, WHOLE GRAIN DIJON MUSTARD (MUSTARD SEED, DISTILLED VINEGAR, SALT, RED PEPPER, SPICES, XANTHAN GUM), DISTILLED VINEGAR, SUGAR, BLACK PEPPER, NATURAL GUMS (ACACIA, GUAR & XANTHAN), SPICES." Date available: 07/14/2017 Date last updated by company: 07/14/2017
