Source: USDA Branded Food Products Database Release December 2017 Software v.3.8.6.4 2017-10-02
Report Run at: December 18, 2017 03:15 EST
"Nutrient data for: 45187594, GUSTO, CHORIZO SMOKED PAPRIKA, UPC: 813039020853"
Food Group:  Branded Food Products Database
Common Name:

Nutrient,Unit,Data points,Std. Error,"1 ONZ = 28.0g",1Value per 100 g,
Proximates
"Energy",kcal,--,--,100,357
"Protein",g,--,--,8.00,28.57
"Total lipid (fat)",g,--,--,7.00,25.00
"Carbohydrate, by difference",g,--,--,0.00,0.00
"Fiber, total dietary",g,--,--,0.0,0.0
"Sugars, total",g,--,--,0.00,0.00
Minerals
"Calcium, Ca",mg,--,--,100,357
"Iron, Fe",mg,--,--,0.71,2.53
"Sodium, Na",mg,--,--,230,821
Vitamins
"Vitamin C, total ascorbic acid",mg,--,--,2.4,8.4
"Vitamin A, IU",IU,--,--,0,0
Lipids
"Fatty acids, total saturated",g,--,--,2.500,8.930
"Fatty acids, total trans",g,--,--,0.000,0.000
"Cholesterol",mg,--,--,25,89
Amino Acids
Other
Ingredients
"PORK, SEA SALT, CONTAINS LESS THAN 2% OF THE FOLLOWING: TURBINADO SUGAR, SMOKED PAPRIKA, NATURAL FLAVORING, WINE, GARLIC, LACTIC ACID STARTER CULTURE." Date available: 07/14/2017 Date last updated by company: 07/14/2017
