Source: USDA Branded Food Products Database Release December 2017 Software v.3.8.6.4 2017-10-02
Report Run at: December 18, 2017 03:15 EST
"Nutrient data for: 45153966, GUSTINO, DARK CHOCOLATE COVERED WAFERS WITH NOUGAT-CREAM FILLING, UPC: 812706020042"
Food Group:  Branded Food Products Database
Common Name:

Nutrient,Unit,Data points,Std. Error,"3.0 WAFERS = 33.0g",1Value per 100 g,
Proximates
"Energy",kcal,--,--,180,545
"Protein",g,--,--,3.00,9.09
"Total lipid (fat)",g,--,--,12.00,36.36
"Carbohydrate, by difference",g,--,--,16.00,48.48
"Fiber, total dietary",g,--,--,2.0,6.1
"Sugars, total",g,--,--,12.00,36.36
Minerals
"Calcium, Ca",mg,--,--,20,61
"Iron, Fe",mg,--,--,6.82,20.66
"Sodium, Na",mg,--,--,20,61
Vitamins
"Vitamin C, total ascorbic acid",mg,--,--,0.0,0.0
"Vitamin A, IU",IU,--,--,0,0
Lipids
"Fatty acids, total saturated",g,--,--,6.999,21.210
"Fatty acids, total trans",g,--,--,0.000,0.000
"Cholesterol",mg,--,--,0,0
Amino Acids
Other
Ingredients
"SUGAR, CHOCOLATE LIQUOR, WHEAT FLOUR, BLEND OF VEGETABLE OILS (PALM KERNEL AND PALM OIL), GROUND HAZELNUTS, COCOA BUTTER, DEPROTEINIZED WHEY POWDER (MILK), REDUCED FAT COCOA POWDER, DRIED WHEY, BUTTERFAT, SUNFLOWER LECITHINS (EMULSIFIER), DRY WHOLE MILK, INVERT SUGAR, NONFAT DRY MILK, SALT, GROUND COFFEE BEANS, LEAVENING (BAKING SODA), DRIED EGG YOLKS, NATURAL VANILLA FLAVOR, NATURAL VANILLA FLAVOR WITH OTHER NATURAL FLAVORS, SPICE." Date available: 07/14/2017 Date last updated by company: 07/14/2017
