Source: USDA Branded Food Products Database Release December 2017 Software v.3.8.6.4 2017-10-02
Report Run at: December 18, 2017 03:14 EST
"Nutrient data for: 45165269, GUSTAFS, BEARS CANDY, UPC: 086232516052"
Food Group:  Branded Food Products Database
Common Name:

Nutrient,Unit,Data points,Std. Error,"6.0 PIECES = 40.0g",1Value per 100 g,
Proximates
"Energy",kcal,--,--,135,338
"Protein",g,--,--,2.00,5.00
"Total lipid (fat)",g,--,--,0.00,0.00
"Carbohydrate, by difference",g,--,--,32.00,80.00
"Fiber, total dietary",g,--,--,0.0,0.0
"Sugars, total",g,--,--,27.00,67.50
Minerals
"Sodium, Na",mg,--,--,4,10
Vitamins
Lipids
"Fatty acids, total saturated",g,--,--,0.000,0.000
"Fatty acids, total trans",g,--,--,0.000,0.000
"Cholesterol",mg,--,--,0,0
Amino Acids
Other
Ingredients
"GLUCOSE FRUCTOSE SYRUP, SUGAR, WATER, GELATIN, MODIFIED STARCH, AMMONIUM CHLORIDE, MOLASSES, COLOUR (PLAIN CARAMEL), LIQUORICE ROOT EXTRACT, MALTODEXTRIN, NATURAL ANISE FLAVOURING." Date available: 07/14/2017 Date last updated by company: 07/14/2017
