Source: USDA Branded Food Products Database Release December 2017 Software v.3.8.6.4 2017-10-02
Report Run at: December 18, 2017 05:57 EST
"Nutrient data for: 45174026, H-E-B CENTRAL MARKET, SWEET COCONUT DOUGHNUT MUFFIN MIX, UPC: 041735083180"
Food Group:  Branded Food Products Database
Common Name:

Nutrient,Unit,Data points,Std. Error,"0.083 DRY MIX, MAKES 1 MUFFIN = 50.0g",1Value per 100 g,
Proximates
"Energy",kcal,--,--,180,360
"Protein",g,--,--,3.00,6.00
"Total lipid (fat)",g,--,--,2.00,4.00
"Carbohydrate, by difference",g,--,--,40.00,80.00
"Fiber, total dietary",g,--,--,3.0,6.0
"Sugars, total",g,--,--,26.00,52.00
Minerals
"Calcium, Ca",mg,--,--,60,120
"Iron, Fe",mg,--,--,0.57,1.15
"Sodium, Na",mg,--,--,100,200
Vitamins
"Vitamin C, total ascorbic acid",mg,--,--,0.0,0.0
"Vitamin A, IU",IU,--,--,0,0
Lipids
"Fatty acids, total saturated",g,--,--,1.500,3.000
"Fatty acids, total trans",g,--,--,0.000,0.000
"Cholesterol",mg,--,--,0,0
Amino Acids
Other
Ingredients
"WHEAT FLOUR (MILLED WHEAT, MALTED BARLEY FLOUR), SUGAR, CONFECTIONER'S SUGAR (SUGAR, CORNSTARCH), SWEETENED COCONUT FLAKES (COCONUT, SUGAR), NON-ALUMINUM BAKING POWDER (SODIUM ACID PYROPHOSPHATE, SODIUM BICARBONATE, CORN STARCH, MONOCALCIUM PHOSPHATE), NATURAL FLAVOR, VANILLA POWDER, SALT, SPICE." Date available: 07/14/2017 Date last updated by company: 07/14/2017
