Source: USDA Branded Food Products Database Release December 2017 Software v.3.8.6.4 2017-10-02
Report Run at: December 18, 2017 06:01 EST
"Nutrient data for: 45003678, H-E-B, QUESO FREDO, PASTA SAUCE, UPC: 041220964420"
Food Group:  Branded Food Products Database
Common Name:

Nutrient,Unit,Data points,Std. Error,"0.25 cup = 60.0g",1Value per 100 g,
Proximates
"Energy",kcal,--,--,70,117
"Protein",g,--,--,1.00,1.67
"Total lipid (fat)",g,--,--,7.00,11.67
"Carbohydrate, by difference",g,--,--,2.00,3.33
"Fiber, total dietary",g,--,--,0.0,0.0
"Sugars, total",g,--,--,0.00,0.00
Minerals
"Calcium, Ca",mg,--,--,40,67
"Iron, Fe",mg,--,--,0.00,0.00
"Sodium, Na",mg,--,--,360,600
Vitamins
"Vitamin C, total ascorbic acid",mg,--,--,0.0,0.0
"Vitamin A, IU",IU,--,--,211,352
Lipids
"Fatty acids, total saturated",g,--,--,4.002,6.670
"Fatty acids, total monounsaturated",g,--,--,1.002,1.670
"Fatty acids, total polyunsaturated",g,--,--,0.000,0.000
"Fatty acids, total trans",g,--,--,0.000,0.000
"Cholesterol",mg,--,--,20,33
Amino Acids
Other
Ingredients
"WATER, CREAM, MONTEREY JACK CHEESE (MILK, CHEESE CULTURES, SALT, ENZYMES), DICED TOMATOES IN JUICE (DICED TOMATOES. TOMATO JUICE, CITRIC ACID, CALCIUM CHLORIDE), BUTTER (CREAM, SALT), MODIFIED CORN STARCH, CONTAINS LESS THAN 2% OF THE FOLLOWING: GREEN CHILI PEPPERS, SALT, CHEDDAR, ASADERO AND QUESO BLANCO CHEESES (MILK, CHEESE CULTURES, SALT, ENZYMES), NATURAL FLAVOR, DRIED RED BELL PEPPERS, DATEM, SODIUM PHOSPHATE, XANTHAN GUM, GARLIC POWDER, YEAST EXTRACT, BLACK PEPPER, SPICE." Date available: 07/14/2017 Date last updated by company: 07/14/2017
