Source: USDA Branded Food Products Database Release December 2017 Software v.3.8.6.4 2017-10-02
Report Run at: December 18, 2017 06:02 EST
"Nutrient data for: 45163667, H-E-B, SPARKLING CARBONATED BEVERAGE, PEACH GRAPEFRUIT, UPC: 041220827909"
Food Group:  Branded Food Products Database
Common Name:

Nutrient,Unit,Data points,Std. Error,"1 CAN = 340.0g",1Value per 100 g,
Proximates
"Energy",kcal,--,--,41,12
"Protein",g,--,--,0.00,0.00
"Total lipid (fat)",g,--,--,0.00,0.00
"Carbohydrate, by difference",g,--,--,10.00,2.94
"Sugars, total",g,--,--,9.01,2.65
Minerals
"Sodium, Na",mg,--,--,34,10
Vitamins
Lipids
Amino Acids
Other
Ingredients
"CARBONATED WATER, SUGAR, APPLE JUICE CONCENTRATE, PEACH JUICE CONCENTRATE, CITRIC ACID, NATURAL FLAVORS, REBAUDIOSIDE A (STEVIA LEAF EXTRACT)." Date available: 07/14/2017 Date last updated by company: 07/14/2017
