Source: USDA Branded Food Products Database Release December 2017 Software v.3.8.6.4 2017-10-02
Report Run at: December 18, 2017 06:03 EST
"Nutrient data for: 45195853, H-E-B, TEXAS STYLE CHARRO BEANS, UPC: 041220543694"
Food Group:  Branded Food Products Database
Common Name:

Nutrient,Unit,Data points,Std. Error,"0.5 cup = 130.0g",1Value per 100 g,
Proximates
"Energy",kcal,--,--,81,62
"Protein",g,--,--,5.00,3.85
"Total lipid (fat)",g,--,--,0.00,0.00
"Carbohydrate, by difference",g,--,--,15.00,11.54
"Fiber, total dietary",g,--,--,4.0,3.1
"Sugars, total",g,--,--,1.00,0.77
Minerals
"Calcium, Ca",mg,--,--,40,31
"Iron, Fe",mg,--,--,1.08,0.83
"Potassium, K",mg,--,--,309,238
"Sodium, Na",mg,--,--,471,362
Vitamins
"Vitamin C, total ascorbic acid",mg,--,--,3.6,2.8
"Vitamin A, IU",IU,--,--,100,77
Lipids
"Fatty acids, total saturated",g,--,--,0.000,0.000
"Fatty acids, total trans",g,--,--,0.000,0.000
"Cholesterol",mg,--,--,0,0
Amino Acids
Other
Ingredients
"WATER, PINTO BEANS, TOMATOES (TOMATOES, TOMATO JUICE, CITRIC ACID, CALCIUM CHLORIDE), ONIONS, CHICKEN BROTH (CHICKEN BROTH, SALT, CHICKEN FAT, FLAVOR [SALT, DEXTROSE, TORULA YEAST, AUTOLYZED YEAST EXTRACT, NATURAL FLAVORS, CANOLA OIL, ONION POWDER], SUGAR, DISODIUM INOSINATE, DISODIUM GUANYLATE, ONION POWDER, OLEORESIN TURMERIC, NATURAL FLAVORING), CRUSHED TOMATOES, SALT, CILANTRO, JALAPENO PEPPERS, SOYBEAN OIL, GARLIC." Date available: 07/14/2017 Date last updated by company: 07/14/2017
