Source: USDA Branded Food Products Database Release December 2017 Software v.3.8.6.4 2017-10-02
Report Run at: December 18, 2017 05:58 EST
"Nutrient data for: 45156803, H-E-B, DELICATESSEN, PITA CHIPS, HATCH CHILE, UPC: 041220795536"
Food Group:  Branded Food Products Database
Common Name:

Nutrient,Unit,Data points,Std. Error,"9.0 CHIPS = 28.0g",1Value per 100 g,
Proximates
"Energy",kcal,--,--,120,429
"Protein",g,--,--,4.00,14.29
"Total lipid (fat)",g,--,--,3.00,10.71
"Carbohydrate, by difference",g,--,--,19.00,67.86
"Fiber, total dietary",g,--,--,1.0,3.6
"Sugars, total",g,--,--,1.00,3.57
Minerals
"Calcium, Ca",mg,--,--,0,0
"Iron, Fe",mg,--,--,0.64,2.29
"Potassium, K",mg,--,--,50,179
"Sodium, Na",mg,--,--,160,571
Vitamins
"Vitamin C, total ascorbic acid",mg,--,--,0.0,0.0
"Vitamin A, IU",IU,--,--,0,0
Lipids
"Fatty acids, total saturated",g,--,--,0.000,0.000
"Fatty acids, total monounsaturated",g,--,--,2.500,8.930
"Fatty acids, total polyunsaturated",g,--,--,0.000,0.000
"Fatty acids, total trans",g,--,--,0.000,0.000
"Cholesterol",mg,--,--,0,0
Amino Acids
Other
Ingredients
"PITA BREAD (WHEAT FLOUR, VITAL WHEAT GLUTEN, SUGAR, YEAST, SALT, BARLEY MALT FLOUR), HIGH OLEIC SUNFLOWER OIL (TOCOPHEROLS AND ROSEMARY EXTRACT [TO PRESERVE FRESHNESS]), LESS THAN 2% OF: MALTODEXTRIN, SUGAR, SALT, ONION POWDER, GREEN HATCH CHILI PEPPER POWDER, GARLIC POWDER, SPICES, YEAST EXTRACT, CITRIC ACID, NATURAL FLAVORS." Date available: 07/14/2017 Date last updated by company: 07/14/2017
