Source: USDA Branded Food Products Database Release December 2017 Software v.3.8.6.4 2017-10-02
Report Run at: December 18, 2017 09:25 EST
"Nutrient data for: 45228076, H-TOWN CHICKEN APPLE SAUSAGE LINKS, UPC: 841395100193"
Food Group:  Branded Food Products Database
Common Name:

Nutrient,Unit,Data points,Std. Error,"1 CONTAINER = 211.0g",1Value per 100 g,
Proximates
"Energy",kcal,--,--,310,147
"Protein",g,--,--,20.00,9.48
"Total lipid (fat)",g,--,--,13.00,6.16
"Carbohydrate, by difference",g,--,--,27.01,12.80
"Fiber, total dietary",g,--,--,3.0,1.4
"Sugars, total",g,--,--,3.00,1.42
Minerals
"Calcium, Ca",mg,--,--,40,19
"Iron, Fe",mg,--,--,1.67,0.79
"Sodium, Na",mg,--,--,441,209
Vitamins
"Vitamin C, total ascorbic acid",mg,--,--,16.7,7.9
"Vitamin A, IU",IU,--,--,692,328
Lipids
"Fatty acids, total saturated",g,--,--,3.503,1.660
"Fatty acids, total trans",g,--,--,0.000,0.000
"Cholesterol",mg,--,--,245,116
Amino Acids
Other
Ingredients
"FINGERLING POTATOES, EGG WHITES, CHICKEN APPLE SAUSAGE (CHICKEN, DRIED APPLES, WATER. CONTAINS LESS THAN 2% OF: HONEY, SALT, SPICES, PARSLEY), EGG YOLKS, EXTRA VIRGIN OLIVE OIL, SMOKED PAPRIKA, SEASONING (BLACK PEPPER, RED BELL PEPPERS, SUGAR, AND SPICES), GARLIC, SEA SALT, THYME." Date available: 07/14/2017 Date last updated by company: 07/14/2017
