Source: USDA Branded Food Products Database Release December 2017 Software v.3.8.6.4 2017-10-02
Report Run at: December 18, 2017 03:18 EST
"Nutrient data for: 45316551, HABANERO LIME, UPC: 185889000362"
Food Group:  Branded Food Products Database
Common Name:

Nutrient,Unit,Data points,Std. Error,"1 ONZ = 28.0g",1Value per 100 g,
Proximates
"Energy",kcal,--,--,120,429
"Protein",g,--,--,5.00,17.86
"Total lipid (fat)",g,--,--,4.50,16.07
"Carbohydrate, by difference",g,--,--,14.00,50.00
"Fiber, total dietary",g,--,--,5.0,17.9
"Sugars, total",g,--,--,1.00,3.57
Minerals
"Calcium, Ca",mg,--,--,20,71
"Iron, Fe",mg,--,--,1.93,6.88
"Sodium, Na",mg,--,--,140,500
Vitamins
"Vitamin C, total ascorbic acid",mg,--,--,0.0,0.0
"Vitamin A, IU",IU,--,--,179,638
Lipids
"Fatty acids, total saturated",g,--,--,0.714,2.550
"Fatty acids, total trans",g,--,--,0.000,0.000
"Cholesterol",mg,--,--,0,0
Amino Acids
Other
Ingredients
"ORGANIC WHOLE GREEN PEA FLOUR, ORGANIC BROWN RICE FLOUR, ORGANIC SUNFLOWER AND/OR SAFFLOWER OIL, ORGANIC RICE FLOUR, SEA SALT, ORGANIC CHILI PEPPER POWDER (CAYENNE), ORGANIC GARLIC POWDER, ORGANIC ONION POWDER, ORGANIC PAPRIKA, CITRIC ACID, HABANERO PEPPER EXTRACT, LIME OIL, NATURAL FLAVOR." Date available: 07/14/2017 Date last updated by company: 07/14/2017
