Source: USDA Branded Food Products Database Release December 2017 Software v.3.8.6.4 2017-10-02
Report Run at: December 18, 2017 03:21 EST
"Nutrient data for: 45006725, HADDON HOUSE, CRISP AND MILD PICKLED OKRA, UPC: 076606146510"
Food Group:  Branded Food Products Database
Common Name:

Nutrient,Unit,Data points,Std. Error,"2.0 PODS | ABOUT = 28.0g",1Value per 100 g,
Proximates
"Energy",kcal,--,--,15,54
"Protein",g,--,--,1.00,3.57
"Total lipid (fat)",g,--,--,0.00,0.00
"Carbohydrate, by difference",g,--,--,3.00,10.71
"Fiber, total dietary",g,--,--,0.0,0.0
"Sugars, total",g,--,--,2.00,7.14
Minerals
"Calcium, Ca",mg,--,--,40,143
"Iron, Fe",mg,--,--,1.67,5.97
"Sodium, Na",mg,--,--,250,893
Vitamins
"Vitamin C, total ascorbic acid",mg,--,--,16.7,59.7
"Vitamin A, IU",IU,--,--,928,3316
Lipids
"Fatty acids, total saturated",g,--,--,0.000,0.000
"Fatty acids, total trans",g,--,--,0.000,0.000
"Cholesterol",mg,--,--,0,0
Amino Acids
Other
Ingredients
"FRESH OKRA, WATER, VINEGAR, SALT, NATURAL SPICES AND FLAVORS, CALCIUM CHLORIDE, FD&C YELLOW #5." Date available: 07/14/2017 Date last updated by company: 07/14/2017
