Source: USDA Branded Food Products Database Release December 2017 Software v.3.8.6.4 2017-10-02
Report Run at: December 18, 2017 03:26 EST
"Nutrient data for: 45242421, HAGGEN, STEWED TOMATOES WITH BITES OF ONION,CELERY & GREEN PEPPER, UPC: 726984410740"
Food Group:  Branded Food Products Database
Common Name:

Nutrient,Unit,Data points,Std. Error,"0.5 cup = 123.0g",1Value per 100 g,
Proximates
"Energy",kcal,--,--,30,24
"Protein",g,--,--,1.00,0.81
"Total lipid (fat)",g,--,--,0.00,0.00
"Carbohydrate, by difference",g,--,--,7.00,5.69
"Fiber, total dietary",g,--,--,2.0,1.6
"Sugars, total",g,--,--,5.01,4.07
Minerals
"Calcium, Ca",mg,--,--,41,33
"Iron, Fe",mg,--,--,1.53,1.24
"Sodium, Na",mg,--,--,250,203
Vitamins
"Vitamin C, total ascorbic acid",mg,--,--,12.7,10.3
"Vitamin A, IU",IU,--,--,529,430
Lipids
"Fatty acids, total saturated",g,--,--,0.000,0.000
"Fatty acids, total trans",g,--,--,0.000,0.000
"Cholesterol",mg,--,--,0,0
Amino Acids
Other
Ingredients
"TOMATOES, TOMATO JUICE, SUGAR, SALT, DEHYDRATED ONION, DEHYDRATED CELERY, DEHYDRATED GREEN PEPPERS, SPICES, CALCIUM CHLORIDE (FIRMING AGENT), CITRIC ACID, NATURAL FLAVORINGS." Date available: 06/25/2017 Date last updated by company: 06/25/2017
