Source: USDA Branded Food Products Database Release December 2017 Software v.3.8.6.4 2017-10-02
Report Run at: December 18, 2017 03:23 EST
"Nutrient data for: 45097489, HAGGEN, CREAMY PEANUT BUTTER, UPC: 726984190093"
Food Group:  Branded Food Products Database
Common Name:

Nutrient,Unit,Data points,Std. Error,"2.0 Tbsp = 32.0g",1Value per 100 g,
Proximates
"Energy",kcal,--,--,190,594
"Protein",g,--,--,7.00,21.88
"Total lipid (fat)",g,--,--,16.00,50.00
"Carbohydrate, by difference",g,--,--,8.00,25.00
"Fiber, total dietary",g,--,--,2.0,6.2
"Sugars, total",g,--,--,3.00,9.38
Minerals
"Calcium, Ca",mg,--,--,20,62
"Iron, Fe",mg,--,--,1.13,3.52
"Sodium, Na",mg,--,--,140,438
Vitamins
"Vitamin C, total ascorbic acid",mg,--,--,0.0,0.0
"Vitamin A, IU",IU,--,--,0,0
Lipids
"Fatty acids, total saturated",g,--,--,2.499,7.810
"Fatty acids, total trans",g,--,--,0.000,0.000
"Cholesterol",mg,--,--,0,0
Amino Acids
Other
Ingredients
"PEANUTS , SUGAR, HYDROGENATED VEGETABLE OIL (RAPESEED , COTTONSEED AND SOYBEAN), SALT AND MOLASSES." Date available: 06/25/2017 Date last updated by company: 06/25/2017
