Source: USDA Branded Food Products Database Release December 2017 Software v.3.8.6.4 2017-10-02
Report Run at: December 18, 2017 03:25 EST
"Nutrient data for: 45242423, HAGGEN, RAINBOW ROTINI, UPC: 726984230287"
Food Group:  Branded Food Products Database
Common Name:

Nutrient,Unit,Data points,Std. Error,"2.0 ONZ = 56.0g",1Value per 100 g,
Proximates
"Energy",kcal,--,--,210,375
"Protein",g,--,--,7.00,12.50
"Total lipid (fat)",g,--,--,1.00,1.79
"Carbohydrate, by difference",g,--,--,42.00,75.00
"Fiber, total dietary",g,--,--,2.0,3.6
"Sugars, total",g,--,--,3.00,5.36
Minerals
"Iron, Fe",mg,--,--,4.50,8.04
"Sodium, Na",mg,--,--,13,23
Vitamins
"Thiamin",mg,--,--,0.560,1.000
"Riboflavin",mg,--,--,0.170,0.304
"Niacin",mg,--,--,2.946,5.261
Lipids
"Fatty acids, total saturated",g,--,--,0.000,0.000
"Fatty acids, total trans",g,--,--,0.000,0.000
"Cholesterol",mg,--,--,0,0
Amino Acids
Other
Ingredients
"DURUM SEMOLINA (WHEAT), NIACIN, IRON (FERROUS SULFATE), THIAMIN MONONITRATE (VITAMIN B-1), AND RIBOFLAVIN (VITAMIN B-2), FOLIC ACID (VITAMIN B), SPINACH POWDER AND PAPRIKA POWDER." Date available: 06/25/2017 Date last updated by company: 06/25/2017
