Source: USDA Branded Food Products Database Release December 2017 Software v.3.8.6.4 2017-10-02
Report Run at: December 18, 2017 03:23 EST
"Nutrient data for: 45087825, HAGGEN, CHILI BEANS, UPC: 726984410511"
Food Group:  Branded Food Products Database
Common Name:

Nutrient,Unit,Data points,Std. Error,"0.5 cup = 125.0g",1Value per 100 g,
Proximates
"Energy",kcal,--,--,110,88
"Protein",g,--,--,6.00,4.80
"Total lipid (fat)",g,--,--,0.50,0.40
"Carbohydrate, by difference",g,--,--,21.00,16.80
"Fiber, total dietary",g,--,--,6.0,4.8
"Sugars, total",g,--,--,2.00,1.60
Minerals
"Calcium, Ca",mg,--,--,40,32
"Iron, Fe",mg,--,--,1.88,1.50
"Sodium, Na",mg,--,--,540,432
Vitamins
"Vitamin C, total ascorbic acid",mg,--,--,3.8,3.0
"Vitamin A, IU",IU,--,--,416,333
Lipids
"Fatty acids, total saturated",g,--,--,0.000,0.000
"Fatty acids, total trans",g,--,--,0.000,0.000
"Cholesterol",mg,--,--,0,0
Amino Acids
Other
Ingredients
"PREPARED PINTO BEANS, WATER, TOMATO PASTE. SALT, SEASONINGS (CHILI PEPPER AND OTHER SPICES, SALT, GARLIC POWDER, ONION POWDER, SOYBEAN OIL), SUGAR, MODIFIED CORN STARCH, SOYBEAN OIL DEXTROSE, CALCIUM CHLORIDE (FIRMING AGENT)." Date available: 06/25/2017 Date last updated by company: 06/25/2017
