Source: USDA Branded Food Products Database Release December 2017 Software v.3.8.6.4 2017-10-02
Report Run at: December 18, 2017 03:27 EST
"Nutrient data for: 45187609, HAIL MERRY, MINI MINERAL TARTS, STRAWBERRY RHUBARB TARTS, UPC: 816247011101"
Food Group:  Branded Food Products Database
Common Name:

Nutrient,Unit,Data points,Std. Error,"1 TART = 21.0g",1Value per 100 g,
Proximates
"Energy",kcal,--,--,100,476
"Protein",g,--,--,1.00,4.76
"Total lipid (fat)",g,--,--,9.00,42.86
"Carbohydrate, by difference",g,--,--,5.00,23.81
"Fiber, total dietary",g,--,--,2.0,9.5
"Sugars, total",g,--,--,3.00,14.29
Minerals
"Calcium, Ca",mg,--,--,20,95
"Iron, Fe",mg,--,--,0.94,4.49
"Sodium, Na",mg,--,--,55,262
Vitamins
"Vitamin C, total ascorbic acid",mg,--,--,15.7,74.8
"Vitamin A, IU",IU,--,--,0,0
Lipids
"Fatty acids, total saturated",g,--,--,6.000,28.570
"Fatty acids, total monounsaturated",g,--,--,1.999,9.520
"Fatty acids, total polyunsaturated",g,--,--,0.500,2.380
"Fatty acids, total trans",g,--,--,0.000,0.000
"Cholesterol",mg,--,--,0,0
Amino Acids
Other
Ingredients
"ORGANIC SHREDDED COCONUT, ALMOND FLOUR, ORGANIC VIRGIN COCONUT OIL, ALMOND MILK (FILTERED WATER, ALMONDS, SEA SALT, LOCUST BEAN GUM, SUNFLOWER LECITHIN, GELLAN GUM, NATURAL FLAVOR), ORGANIC MAPLE SYRUP, CASHEWS, LEMON JUICE, ORGANIC COCONUT SUGAR, ORGANIC STRAWBERRY, SEA SALT, LEMON POWDER, ORGANIC RHUBARB FLAVOR." Date available: 08/19/2017 Date last updated by company: 08/19/2017
