Source: USDA Branded Food Products Database Release December 2017 Software v.3.8.6.4 2017-10-02
Report Run at: December 18, 2017 03:33 EST
"Nutrient data for: 45166723, HALFPOPS, CURIOUSLY CRUNCHY POPCORN, CARAMEL & SEA SALT, UPC: 850091003141"
Food Group:  Branded Food Products Database
Common Name:

Nutrient,Unit,Data points,Std. Error,"1 ONZ = 28.0g",1Value per 100 g,
Proximates
"Energy",kcal,--,--,130,464
"Protein",g,--,--,2.00,7.14
"Total lipid (fat)",g,--,--,5.00,17.86
"Carbohydrate, by difference",g,--,--,19.00,67.86
"Fiber, total dietary",g,--,--,3.0,10.7
"Sugars, total",g,--,--,2.00,7.14
Minerals
"Calcium, Ca",mg,--,--,0,0
"Iron, Fe",mg,--,--,0.64,2.29
"Sodium, Na",mg,--,--,200,714
Vitamins
"Vitamin C, total ascorbic acid",mg,--,--,0.0,0.0
"Vitamin A, IU",IU,--,--,0,0
Lipids
"Fatty acids, total saturated",g,--,--,0.501,1.790
"Fatty acids, total trans",g,--,--,0.000,0.000
"Cholesterol",mg,--,--,0,0
Amino Acids
Other
Ingredients
"NON-GMO POPCORN, NON-GMO CANOLA OIL, CARAMEL SEASONING (SUGAR, BROWN SUGAR, NATURAL FLAVOR (CARAMEL), SEA SALT, SWEET CREAM, BUTTER POWDER (BUTTER, SALT), SEA SALT." Date available: 10/13/2017 Date last updated by company: 10/13/2017
