Source: USDA Branded Food Products Database Release December 2017 Software v.3.8.6.4 2017-10-02
Report Run at: December 18, 2017 03:31 EST
"Nutrient data for: 45150239, HALF & HALF, UPC: 851042003517"
Food Group:  Branded Food Products Database
Common Name:

Nutrient,Unit,Data points,Std. Error,"8.0 OZA = 240.0g",1Value per 100 g,
Proximates
"Energy",kcal,--,--,101,42
"Protein",g,--,--,0.00,0.00
"Total lipid (fat)",g,--,--,0.00,0.00
"Carbohydrate, by difference",g,--,--,24.00,10.00
"Sugars, total",g,--,--,24.00,10.00
Minerals
"Sodium, Na",mg,--,--,17,7
Vitamins
Lipids
Amino Acids
Other
Ingredients
"FILTERED WATER, HIGH FRUCTOSE CORN SYRUP, PEAR JUICE CONCENTRATE, LEMON JUICE CONCENTRATE, CITRIC ACID, CARAMEL COLOR, BLACK TEA, NATURAL FLAVORS, LESS THAN 0.1% SODIUM BENZOATE AND POTASSIUM SORBATE ADDED TO PRESERVE FRESHNESS." Date available: 07/14/2017 Date last updated by company: 07/14/2017
