Source: USDA Branded Food Products Database Release December 2017 Software v.3.8.6.4 2017-10-02
Report Run at: December 18, 2017 03:35 EST
"Nutrient data for: 45144438, HALLOWEEN GUMMY CANDY, UPC: 091953004542"
Food Group:  Branded Food Products Database
Common Name:

Nutrient,Unit,Data points,Std. Error,"7.0 PC = 38.0g",1Value per 100 g,
Proximates
"Energy",kcal,--,--,120,316
"Protein",g,--,--,2.00,5.26
"Total lipid (fat)",g,--,--,0.00,0.00
"Carbohydrate, by difference",g,--,--,30.00,78.95
"Fiber, total dietary",g,--,--,0.0,0.0
"Sugars, total",g,--,--,22.00,57.89
Minerals
"Sodium, Na",mg,--,--,25,66
Vitamins
Lipids
"Fatty acids, total saturated",g,--,--,0.000,0.000
"Fatty acids, total trans",g,--,--,0.000,0.000
"Cholesterol",mg,--,--,0,0
Amino Acids
Other
Ingredients
"CORN SYRUP, SUGAR, GELATIN, CITRIC ACID, ARTIFICIAL AND NATURAL FLAVORS, VEGETABLE OIL (COCONUT, PALM AND PALM KERNEL OILS), PECTIN, CARNAUBA WAX, BEES WAX, SODIUM CITRATE, ARTIFICIAL COLORS; BLUE #1, RED #40, YELLOW #5, YELLOW #6, TITANIUM DIOXIDE." Date available: 07/14/2017 Date last updated by company: 07/14/2017
