Source: USDA Branded Food Products Database Release December 2017 Software v.3.8.6.4 2017-10-02
Report Run at: December 18, 2017 03:36 EST
"Nutrient data for: 45266017, HALLOWEEN JELLY PUMKINS, UPC: 041497134045"
Food Group:  Branded Food Products Database
Common Name:

Nutrient,Unit,Data points,Std. Error,"6.0 PIECES = 37.0g",1Value per 100 g,
Proximates
"Energy",kcal,--,--,130,351
"Protein",g,--,--,0.00,0.00
"Total lipid (fat)",g,--,--,0.00,0.00
"Carbohydrate, by difference",g,--,--,33.00,89.19
"Fiber, total dietary",g,--,--,0.0,0.0
"Sugars, total",g,--,--,20.00,54.05
Minerals
"Calcium, Ca",mg,--,--,0,0
"Iron, Fe",mg,--,--,0.00,0.00
"Sodium, Na",mg,--,--,25,68
Vitamins
"Vitamin C, total ascorbic acid",mg,--,--,0.0,0.0
"Vitamin A, IU",IU,--,--,0,0
Lipids
"Fatty acids, total saturated",g,--,--,0.000,0.000
"Fatty acids, total trans",g,--,--,0.000,0.000
"Cholesterol",mg,--,--,0,0
Amino Acids
Other
Ingredients
"SUGAR, CORN SYRUP, MODIFIED FOOD STARCH, CITRIC ACID, SODIUM CITRATE, OIL OF ORANGE, ARTIFICIAL COLORS, (INCLUDING FD&C: YELLOW #5 & #6, AND BLUE #1)." Date available: 07/14/2017 Date last updated by company: 07/14/2017
