Source: USDA Branded Food Products Database Release December 2017 Software v.3.8.6.4 2017-10-02
Report Run at: December 18, 2017 03:38 EST
"Nutrient data for: 45215599, HAM AND CHEESE PIZZA, UPC: 078742036649"
Food Group:  Branded Food Products Database
Common Name:

Nutrient,Unit,Data points,Std. Error,"0.5 PIZZA = 144.0g",1Value per 100 g,
Proximates
"Energy",kcal,--,--,330,229
"Protein",g,--,--,16.00,11.11
"Total lipid (fat)",g,--,--,15.00,10.42
"Carbohydrate, by difference",g,--,--,30.00,20.83
"Fiber, total dietary",g,--,--,1.0,0.7
"Sugars, total",g,--,--,2.00,1.39
Minerals
"Calcium, Ca",mg,--,--,251,174
"Iron, Fe",mg,--,--,0.98,0.68
"Potassium, K",mg,--,--,65,45
"Sodium, Na",mg,--,--,730,507
Vitamins
"Vitamin C, total ascorbic acid",mg,--,--,1.6,1.1
"Vitamin A, IU",IU,--,--,406,282
Lipids
"Fatty acids, total saturated",g,--,--,6.998,4.860
"Fatty acids, total monounsaturated",g,--,--,3.499,2.430
"Fatty acids, total polyunsaturated",g,--,--,0.994,0.690
"Fatty acids, total trans",g,--,--,0.000,0.000
"Cholesterol",mg,--,--,35,24
Amino Acids
Other
Ingredients
"CRUST (WHEAT FLOUR, ENZYME, WATER, OLIVE OIL, SALT, YEAST), HAM (CURED WITH WATER, SALT, SODIUM LACTATE, DEXTROSE, SODIUM PHOSPHATE, SODIUM ASCORBATE, SODIUM NITRITE), SWISS CHEESE (PASTEURIZED PART SKIM MILK, CHEESE CULTURES, SALT, ENZYMES), SAUCE (CREME FRAICHE SPICE [SOUR CREAM POWDER {SOUR CREAM (CREAM SOLIDS, CULTURED NON FAT DRY MILK), MALTODEXTRIN, CITRIC ACID}, MODIFIED FOOD STARCH, NON FAT DRY MILK, DEHYDRATED GARLIC, SALT, NATURAL FLAVOR, SPICE, XANTHAN GUM, LACTIC ACID]), CARAMELIZED ONIONS." Date available: 07/14/2017 Date last updated by company: 07/14/2017
