Source: USDA Branded Food Products Database Release December 2017 Software v.3.8.6.4 2017-10-02
Report Run at: December 18, 2017 03:55 EST
"Nutrient data for: 45202786, HAM TAILGATERS, UPC: 852391006495"
Food Group:  Branded Food Products Database
Common Name:

Nutrient,Unit,Data points,Std. Error,"1 SANDWICH = 116.0g",1Value per 100 g,
Proximates
"Energy",kcal,--,--,260,224
"Protein",g,--,--,16.00,13.79
"Total lipid (fat)",g,--,--,11.00,9.48
"Carbohydrate, by difference",g,--,--,27.00,23.28
"Fiber, total dietary",g,--,--,0.0,0.0
"Sugars, total",g,--,--,6.99,6.03
Minerals
"Calcium, Ca",mg,--,--,150,129
"Iron, Fe",mg,--,--,1.74,1.50
"Sodium, Na",mg,--,--,1279,1103
Vitamins
"Vitamin C, total ascorbic acid",mg,--,--,0.0,0.0
"Vitamin A, IU",IU,--,--,241,208
Lipids
"Fatty acids, total saturated",g,--,--,4.002,3.450
"Fatty acids, total trans",g,--,--,0.000,0.000
"Cholesterol",mg,--,--,39,34
Amino Acids
Other
Ingredients
"HAM (CURED WITH: WATER, SUGAR, SALT, MODIFIED FOOD STARCH, CARRAGEENAN, SODIUM PHOSPHATE, SODIUM NITRITE, SODIUM ERYTHORBATE, NATURAL SMOKE FLAVORING, AND FLAVORINGS), BREAD (ENRICHED WHEAT FLOUR [WHEAT FLOUR, MALTED BARLEY FLOUR, NIACIN, IRON, THIAMIN MONONITRATE, RIBOFLAVIN, FOLIC ACID], WATER, HIGH FRUCTOSE CORN SYRUP, YEAST CONTAINS 2% OR LESS OF: SOYBEAN OIL, WHEAT GLUTEN, SALT, DOUGH CONDITIONERS [MONOGLYCERIDES, SODIUM STEAROYL LACTYLATE, DATEM, CALCIUM PEROXIDE ASCORBIC ACID, ENZYMES], CALCIUM PROPIONATE [PRESERVATIVE], YEAST NUTRIENTS [MONOCALCIUM PHOSPHATE, CALCIUM SULFATE, AMMONIUM SULFATE], MILLED FLAXSEED, MALTODEXTRIN), AMERICAN CHEESE [CULTURED MILK AND SKIM MILK, WATER, CREAM, SODIUM CITRATE, SLAT, SODIUM PHOSPHATE, SORBIC ACID [PRESERVATIVE], CITRIC ACID, ARTIFICIAL COLOR, ACETIC ACID, ENZYMES, SOY LECITHIN)." Date available: 07/14/2017 Date last updated by company: 07/14/2017
