Source: USDA Branded Food Products Database Release December 2017 Software v.3.8.6.4 2017-10-02
Report Run at: December 18, 2017 03:46 EST
"Nutrient data for: 45285591, HAM & CHEDDAR DELI SANDWICH, UPC: 049022857162"
Food Group:  Branded Food Products Database
Common Name:

Nutrient,Unit,Data points,Std. Error,"1 SERVING = 104.8g",1Value per 100 g,
Proximates
"Energy",kcal,--,--,210,200
"Protein",g,--,--,12.00,11.45
"Total lipid (fat)",g,--,--,7.00,6.68
"Carbohydrate, by difference",g,--,--,27.00,25.76
"Fiber, total dietary",g,--,--,5.0,4.8
"Sugars, total",g,--,--,3.00,2.86
Minerals
"Sodium, Na",mg,--,--,640,611
Vitamins
Lipids
"Fatty acids, total saturated",g,--,--,2.997,2.860
"Fatty acids, total trans",g,--,--,0.000,0.000
"Cholesterol",mg,--,--,25,24
Amino Acids
Other
Ingredients
"MULTI GRAIN BREAD (WATER, WHOLE WHEAT FLOUR, ENRICHED UNBLEACHED FLOUR (WHEAT FLOUR, MALT BARLEY FLOUR, NIACIN, FERROUS SULFATE, THIAMIN MONONITRATE, RIBOFLAVIN, FOLIC ACID), OAT FIBER, 8 GRAIN MIX (HARD RED WHEAT, WHITE WHEAT, BARLEY, RYE, OATS, MILLET, BUCKWHEAT AND FLAX SEEDS, CANE SUGAR, NON-GMO CANOLA AND/OR NON-GMO SOYBEAN OIL, HARD RED WHEAT, OATS, RYE MEAL, WHEAT GLUTEN, MOLASSES, SALT, YEAST, SESAME SEEDS, ENZYME (PLANT BASED), VINEGAR, CULTURED WHEAT FLOUR, RAISIN JUICE CONCENTRATE, CALCIUM SULFATE & ASCORBIC ACID (VITAMIN C); HAM (PORK CURED WITH WATER, SALT, DEXTROSE, POTASSIUM LACTATE, SODIUM PHOSPHATE, SODIUM ERYTHORBATE, SODIUM DIACETATE, SODIUM NITRITE); CHEDDAR CHEESE (PASTEURIZED MILK, CHEESE CULTURE, SALT, ENZYMES, ANNATTO COLOR); TOMATO; LETTUCE; ONION." Date available: 09/27/2017 Date last updated by company: 09/27/2017
