Source: USDA Branded Food Products Database Release December 2017 Software v.3.8.6.4 2017-10-02
Report Run at: December 18, 2017 03:48 EST
"Nutrient data for: 45269619, HAM - JAMON SERRANO SLICES, UPC: 862552000224"
Food Group:  Branded Food Products Database
Common Name:

Nutrient,Unit,Data points,Std. Error,"2.0 SLICES = 28.0g",1Value per 100 g,
Proximates
"Energy",kcal,--,--,70,250
"Protein",g,--,--,9.00,32.14
"Total lipid (fat)",g,--,--,3.50,12.50
"Carbohydrate, by difference",g,--,--,0.00,0.00
Minerals
"Iron, Fe",mg,--,--,2.12,7.58
"Sodium, Na",mg,--,--,580,2071
Vitamins
Lipids
"Fatty acids, total saturated",g,--,--,1.501,5.360
"Cholesterol",mg,--,--,20,71
Amino Acids
Other
Ingredients
"PORK, MEDITERRANEAN SEA SALT." Date available: 07/14/2017 Date last updated by company: 07/14/2017
