Source: USDA Branded Food Products Database Release December 2017 Software v.3.8.6.4 2017-10-02
Report Run at: December 18, 2017 03:54 EST
"Nutrient data for: 45324692, HAM & SWISS CHEESE SUB, UPC: 856061006709"
Food Group:  Branded Food Products Database
Common Name:

Nutrient,Unit,Data points,Std. Error,"1 SUB = 340.0g",1Value per 100 g,
Proximates
"Energy",kcal,--,--,789,232
"Protein",g,--,--,53.99,15.88
"Total lipid (fat)",g,--,--,26.01,7.65
"Carbohydrate, by difference",g,--,--,80.99,23.82
"Fiber, total dietary",g,--,--,2.0,0.6
"Sugars, total",g,--,--,7.00,2.06
Minerals
"Calcium, Ca",mg,--,--,700,206
"Iron, Fe",mg,--,--,2.21,0.65
"Sodium, Na",mg,--,--,2230,656
Vitamins
"Vitamin C, total ascorbic acid",mg,--,--,5.1,1.5
"Vitamin A, IU",IU,--,--,0,0
Lipids
"Fatty acids, total saturated",g,--,--,9.996,2.940
"Fatty acids, total trans",g,--,--,0.000,0.000
"Cholesterol",mg,--,--,41,12
Amino Acids
Other
Ingredients
"BUN (UNBLEACHED ENRICHED FLOUR [WHEAT FLOUR, MALTED BARLEY FLOUR, NIACIN, REDUCED IRON, THIAMINE MONONITRATE, RIBOFLAVIN, FOLIC ACID], WATER, YEAST, FULLY REFINED SOYBEAN OIL, WHEAT GLUTEN, SALT, GRANULATED SUGAR, CALCIUM PROPIONATE [TO RETAIN FRESHNESS], DOUGH IMPROVER [MALTED WHEAT FLOUR, ENZYMES AND 2% OR LESS OF: ASCORBIC ACID], CALCIUM SULFATE, ENZYMES), BLACK FOREST HAM (CURED WITH: WATER, HONEY, SALT, LESS THAN 2% OF: MODIFIED FOOD STARCH, DEXTROSE, VINEGAR, SODIUM PHOSPHATE, SODIUM NITRITE, AND SODIUM ERYTHORBATE), SWISS CHEESE (PASTEURIZED PART-SKIM MILK, CHEESE CULTURE, SALT, ENZYMES)." Date available: 08/10/2017 Date last updated by company: 08/10/2017
