Source: USDA Branded Food Products Database Release December 2017 Software v.3.8.6.4 2017-10-02
Report Run at: December 18, 2017 03:44 EST
"Nutrient data for: 45084057, HAMBURGER SEASONING BLEND, UPC: 081057021811"
Food Group:  Branded Food Products Database
Common Name:

Nutrient,Unit,Data points,Std. Error,"0.25 tsp = 1.0g",1Value per 100 g,
Proximates
"Energy",kcal,--,--,0,0
"Protein",g,--,--,0.00,0.00
"Total lipid (fat)",g,--,--,0.00,0.00
"Carbohydrate, by difference",g,--,--,0.00,0.00
Minerals
"Sodium, Na",mg,--,--,110,11000
Vitamins
Lipids
Amino Acids
Other
Ingredients
"SEA SALT, GARLIC, BLACK PEPPER, WHOLE BROWN MUSTARD, ONION, PAPRIKA, CHILE PEPPER, BASIL, ROSEMARY, CITRIC ACID." Date available: 06/25/2017 Date last updated by company: 06/25/2017
