Source: USDA Branded Food Products Database Release December 2017 Software v.3.8.6.4 2017-10-02
Report Run at: December 18, 2017 03:41 EST
"Nutrient data for: 45292465, HAMBURGER BURNS, UPC: 011110010087"
Food Group:  Branded Food Products Database
Common Name:

Nutrient,Unit,Data points,Std. Error,"1 BUN = 60.0g",1Value per 100 g,
Proximates
"Energy",kcal,--,--,140,233
"Protein",g,--,--,7.00,11.67
"Total lipid (fat)",g,--,--,1.50,2.50
"Carbohydrate, by difference",g,--,--,27.00,45.00
"Fiber, total dietary",g,--,--,4.0,6.7
"Sugars, total",g,--,--,5.00,8.33
Minerals
"Calcium, Ca",mg,--,--,15,25
"Iron, Fe",mg,--,--,1.00,1.67
"Potassium, K",mg,--,--,81,135
"Sodium, Na",mg,--,--,230,383
Vitamins
"Vitamin D",IU,--,--,0,0
Lipids
"Fatty acids, total saturated",g,--,--,0.000,0.000
"Fatty acids, total trans",g,--,--,0.000,0.000
"Cholesterol",mg,--,--,0,0
Amino Acids
Other
Ingredients
"ORGANIC WHOLE WHEAT FLOUR, WATER, ORGANIC WHEAT FLOUR, ORGANIC WHOLE GRAIN FLOUR MIX (ORGANIC WHOLE MILLET FLOUR, ORGANIC WHOLE TRITICALE FLOUR, ORGANIC WHOLE RYE FLOUR, ORGANIC BROWN RICE MEAL, ORGANIC BARLEY FLOUR), ORGANIC VITAL WHEAT GLUTEN, ORGANIC CANE SUGAR, YEAST, ORGANIC HONEY. CONTAINS 2% OR LESS OF: ORGANIC SOYBEAN OIL, SEA SALT, ORGANIC MOLASSES, ORGANIC SOY FLOUR, ORGANIC VINEGAR, ORGANIC CULTURED WHEAT FLOUR, ASCORBIC ACID, ENZYMES." Date available: 09/23/2017 Date last updated by company: 09/23/2017
