Source: USDA Branded Food Products Database Release December 2017 Software v.3.8.6.4 2017-10-02
Report Run at: December 18, 2017 03:40 EST
"Nutrient data for: 45225625, HAMBURGER BUNS, UPC: 070210012698"
Food Group:  Branded Food Products Database
Common Name:

Nutrient,Unit,Data points,Std. Error,"1 BUN = 39.0g",1Value per 100 g,
Proximates
"Energy",kcal,--,--,100,256
"Protein",g,--,--,4.00,10.26
"Total lipid (fat)",g,--,--,1.50,3.85
"Carbohydrate, by difference",g,--,--,20.00,51.28
"Fiber, total dietary",g,--,--,1.0,2.6
"Sugars, total",g,--,--,2.00,5.13
Minerals
"Calcium, Ca",mg,--,--,40,103
"Iron, Fe",mg,--,--,1.85,4.74
"Sodium, Na",mg,--,--,190,487
Vitamins
"Vitamin C, total ascorbic acid",mg,--,--,0.0,0.0
"Thiamin",mg,--,--,0.390,1.000
"Riboflavin",mg,--,--,0.327,0.838
"Niacin",mg,--,--,2.564,6.574
"Vitamin A, IU",IU,--,--,0,0
Lipids
"Fatty acids, total saturated",g,--,--,0.000,0.000
"Fatty acids, total monounsaturated",g,--,--,0.000,0.000
"Fatty acids, total polyunsaturated",g,--,--,0.499,1.280
"Fatty acids, total trans",g,--,--,0.000,0.000
"Cholesterol",mg,--,--,0,0
Amino Acids
Other
Ingredients
"UNBLEACHED ENRICHED WHEAT FLOUR [FLOUR, MALTED BARLEY FLOUR, NIACIN, REDUCED IRON, THIAMIN MONONITRATE (VITAMIN B1), RIBOFLAVIN (VITAMIN B2), FOLIC ACID (A B VITAMIN)], WATER, HIGH FRUCTOSE CORN SYRUP, YEAST, CONTAINS 2% OR LESS OF EACH OF THE FOLLOWING: WHEAT GLUTEN, VEGETABLE OIL (SOYBEAN OR CANOLA OIL), SALT, DOUGH CONDITIONERS (SODIUM STEAROYL LACTYLATE, CALCIUM STEAROYL-2-LACTYLATE, MONOGLYCERIDES, CALCIUM PEROXIDE, DATEM, AZODICARBONAMIDE), SOY FLOUR, CALCIUM SULFATE, CALCIUM PROPIONATE (TO RETARD SPOILAGE), MONOCALCIUM PHOSPHATE, YEAST FOOD (AMMONIUM SULFATE), SOY LECITHIN." Date available: 07/14/2017 Date last updated by company: 07/14/2017
