Source: USDA Branded Food Products Database Release December 2017 Software v.3.8.6.4 2017-10-02
Report Run at: December 18, 2017 03:50 EST
"Nutrient data for: 45160719, HAMMOND'S, COTTON CANDY, UPC: 691355894996"
Food Group:  Branded Food Products Database
Common Name:

Nutrient,Unit,Data points,Std. Error,"0.33 PACKAGE = 28.0g",1Value per 100 g,
Proximates
"Energy",kcal,--,--,110,393
"Protein",g,--,--,0.00,0.00
"Total lipid (fat)",g,--,--,0.00,0.00
"Carbohydrate, by difference",g,--,--,28.00,100.00
"Sugars, total",g,--,--,28.00,100.00
Minerals
"Sodium, Na",mg,--,--,0,0
Vitamins
Lipids
Amino Acids
Other
Ingredients
"CANE SUGAR, ARTIFICIAL COLOR (BLUE 1, RED 3, RED 40, YELLOW 5 & YELLOW 6), ARTIFICIAL FLAVOR." Date available: 07/14/2017 Date last updated by company: 07/14/2017
