Source: USDA Branded Food Products Database Release December 2017 Software v.3.8.6.4 2017-10-02
Report Run at: December 18, 2017 03:48 EST
"Nutrient data for: 45160717, HAMMOND'S, BRITTLE CRISPS, SEA SALT & CARAMEL DRIZZLE, UPC: 691355894835"
Food Group:  Branded Food Products Database
Common Name:

Nutrient,Unit,Data points,Std. Error,"0.16 PACKAGE = 43.0g",1Value per 100 g,
Proximates
"Energy",kcal,--,--,200,465
"Protein",g,--,--,3.00,6.98
"Total lipid (fat)",g,--,--,9.00,20.93
"Carbohydrate, by difference",g,--,--,29.00,67.44
"Fiber, total dietary",g,--,--,1.0,2.3
"Sugars, total",g,--,--,17.00,39.53
Minerals
"Calcium, Ca",mg,--,--,20,47
"Iron, Fe",mg,--,--,0.42,0.98
"Sodium, Na",mg,--,--,140,326
Vitamins
"Vitamin C, total ascorbic acid",mg,--,--,0.0,0.0
"Vitamin A, IU",IU,--,--,0,0
Lipids
"Fatty acids, total saturated",g,--,--,3.999,9.300
"Fatty acids, total trans",g,--,--,0.000,0.000
"Cholesterol",mg,--,--,0,0
Amino Acids
Other
Ingredients
"CANE SUGAR, PEANUTS, CORN SYRUP, BICARBONATE OF SODA, SEA SALT, VANILLA EXTRACT, SEA SALT CARAMEL DRIZZLE (CANE SUGAR, PALM KERNEL OIL, NONFAT DRY MILK SOLIDS, WHOLE MILK SOLIDS, SALT, ARTIFICIAL COLOR [YELLOW #6, YELLOW #5, BLUE #2], SOY LECITHIN [EMULSIFIER], NATURAL FLAVOR)." Date available: 07/14/2017 Date last updated by company: 07/14/2017
