Source: USDA Branded Food Products Database Release December 2017 Software v.3.8.6.4 2017-10-02
Report Run at: December 18, 2017 03:59 EST
"Nutrient data for: 45271055, HANDCRAFTED CHOCOLATIER, UPC: 846107017394"
Food Group:  Branded Food Products Database
Common Name:

Nutrient,Unit,Data points,Std. Error,"3.0 PIECES = 35.0g",1Value per 100 g,
Proximates
"Energy",kcal,--,--,150,429
"Protein",g,--,--,1.00,2.86
"Total lipid (fat)",g,--,--,7.00,20.00
"Carbohydrate, by difference",g,--,--,21.00,60.00
"Fiber, total dietary",g,--,--,1.0,2.9
"Sugars, total",g,--,--,18.00,51.43
Minerals
"Calcium, Ca",mg,--,--,20,57
"Iron, Fe",mg,--,--,0.51,1.47
"Sodium, Na",mg,--,--,35,100
Vitamins
"Vitamin C, total ascorbic acid",mg,--,--,0.0,0.0
"Vitamin A, IU",IU,--,--,0,0
Lipids
"Fatty acids, total saturated",g,--,--,4.000,11.430
"Fatty acids, total trans",g,--,--,0.000,0.000
"Cholesterol",mg,--,--,5,14
Amino Acids
Other
Ingredients
"SUGAR, CHOCOLATE (SUGAR, WHOLE MILK POWDER, COCOA BUTTER, UNSWEETENED CHOCOLATE, SOY LECITHIN (AN EMULSIFIER), VANILLA), RICE SYRUP, MILK, HEAVY CREAM, UNSWEETENED CHOCOLATE, INULIN, INVERT SUGAR, BUTTER, DRIED CREAM (CREAM, SOY LECITHIN, TOCOPHEROLS AND ASCORBYL PALMITATE (TO HELP PROTECT FLAVOR)), PECANS, RASPBERRY POWDER, SALT, VANILLA, NATURAL FLAVORS, RASPBERRY JUICE CONCENTRATE, PEPPERMINT OIL, CITRIC ACID, CREAM OF TARTAR, INVERTASE, FUMARIC ACID, RASPBERRY SEEDS, DRIED EGG WHITE." Date available: 07/14/2017 Date last updated by company: 07/14/2017
