Source: USDA Branded Food Products Database Release December 2017 Software v.3.8.6.4 2017-10-02
Report Run at: December 18, 2017 04:00 EST
"Nutrient data for: 45190434, HAND-CRAFTED PIZZA, UPC: 036800410930"
Food Group:  Branded Food Products Database
Common Name:

Nutrient,Unit,Data points,Std. Error,"0.5 PIZZA = 122.0g",1Value per 100 g,
Proximates
"Energy",kcal,--,--,320,262
"Protein",g,--,--,12.00,9.84
"Total lipid (fat)",g,--,--,15.99,13.11
"Carbohydrate, by difference",g,--,--,31.00,25.41
"Fiber, total dietary",g,--,--,1.0,0.8
"Sugars, total",g,--,--,5.00,4.10
Minerals
"Calcium, Ca",mg,--,--,200,164
"Iron, Fe",mg,--,--,1.15,0.94
"Sodium, Na",mg,--,--,470,385
Vitamins
"Vitamin C, total ascorbic acid",mg,--,--,7.7,6.3
"Vitamin A, IU",IU,--,--,799,655
Lipids
"Fatty acids, total saturated",g,--,--,6.002,4.920
"Fatty acids, total trans",g,--,--,0.000,0.000
"Cholesterol",mg,--,--,24,20
Amino Acids
Other
Ingredients
"GLUTEN FREE CRUST (WATER, RICE FLOUR, POTATO STARCH, OLIVE OIL, HONEY, TAPIOCA FLOUR, FRESH YEAST, SALT), WHOLE MILK MOZZARELLA CHEESE (PASTEURIZED WHOLE MILK, CHEESE CULTURE, SALT, ENZYMES, POWDERED CELLULOSE [TO PREVENT CAKING]), TOMATO PUREE (TOMATOES, SALT, CITRIC ACID), PEPPERONI (PORK, BEEF, SEA SALT, NATURAL CANE SUGAR, SPICES, PAPRIKA, NATURAL FLAVORINGS, GARLIC POWDER, LACTIC ACID STARTER CULTURE), SPICES, IMPORTED PECORINO ROMANO CHEESE ([PASTEURIZED SHEEP'S MILK, CULTURES, SALT, STARCH], POWDERED CELLULOSE [TO PREVENT CAKING]), EXTRA VIRGIN OLIVE OIL, SUGAR, SALT, GARLIC POWDER." Date available: 07/14/2017 Date last updated by company: 07/14/2017
