Source: USDA Branded Food Products Database Release December 2017 Software v.3.8.6.4 2017-10-02
Report Run at: December 18, 2017 04:02 EST
"Nutrient data for: 45270440, HANDMADE CHOCOLATES, UPC: 017109345703"
Food Group:  Branded Food Products Database
Common Name:

Nutrient,Unit,Data points,Std. Error,"1 PIECE = 21.0g",1Value per 100 g,
Proximates
"Energy",kcal,--,--,110,524
"Protein",g,--,--,1.00,4.76
"Total lipid (fat)",g,--,--,6.00,28.57
"Carbohydrate, by difference",g,--,--,12.00,57.14
"Fiber, total dietary",g,--,--,1.0,4.8
"Sugars, total",g,--,--,11.00,52.38
Minerals
"Calcium, Ca",mg,--,--,20,95
"Iron, Fe",mg,--,--,1.71,8.16
"Sodium, Na",mg,--,--,35,167
Vitamins
"Vitamin C, total ascorbic acid",mg,--,--,0.0,0.0
"Vitamin A, IU",IU,--,--,238,1133
Lipids
"Fatty acids, total saturated",g,--,--,4.000,19.050
"Fatty acids, total trans",g,--,--,0.000,0.000
"Cholesterol",mg,--,--,5,24
Amino Acids
Other
Ingredients
"MILK CHOCOLATE (SUGAR, MILK, COCOA BUTTER, CHOCOLATE MASS, SOY LECITHIN - AN EMULSIFIER, AND VANILLA), DARK CHOCOLATE (SUGAR, CHOCOLATE MASS PROCESSED WITH ALKALI, COCOA BUTTER, MILK FAT, SOY LECITHIN - AN EMULSIFIER, NATURAL FLAVORS), SUGAR, HEAVY CREAM (CREAM, CARRAGEENAN, MONO AND DIGLYCERIDES, CELLULOSE GUM, POLYSORBATE 80), WHITE COATING (SUGAR, PALM KERNEL AND PALM OIL, NON-FAT DRY MILK, WHOLE MILK, SOY LECITHIN -AN EMUSIFIER, AND VANILLA), CREAM, CARK CHOCOLATE (UNSWEETENED CHOCOLATE, SUGAR, COCOA FAT, SOY LECITHIN, NATURAL VANILLA FLAVOR), CORN SYRUP, CHOCOLATE MASS, TAPIOCA SYRUP, BUTTER (PASTEURIZED CREAM, SALT), NATURAL FLAVOR, OPATINT RED #3, CARAMEL FLAVOR, VANILLA EXTRACT, NATURAL FLAVORS, SEA SALT, SPARKLING SUGAR (SUGAR, CARNAUBA WAX.), INVERTASE (ENZYME SOLUTION, GLYCEROL), SALT, PINK SPARKLING SUGAR (CANE SUGAR CRYSTALS, FOOD GRADE CARNAUBA WAX, RED 3)." Date available: 07/14/2017 Date last updated by company: 07/14/2017
