Source: USDA Branded Food Products Database Release December 2017 Software v.3.8.6.4 2017-10-02
Report Run at: December 18, 2017 04:01 EST
"Nutrient data for: 45266078, HAND ICED ITALIAN HOLIDAY & WEDDING COOKIES, UPC: 054594277997"
Food Group:  Branded Food Products Database
Common Name:

Nutrient,Unit,Data points,Std. Error,"2.0 COOKIES = 28.0g",1Value per 100 g,
Proximates
"Energy",kcal,--,--,110,393
"Protein",g,--,--,1.00,3.57
"Total lipid (fat)",g,--,--,5.00,17.86
"Carbohydrate, by difference",g,--,--,16.00,57.14
"Fiber, total dietary",g,--,--,1.0,3.6
"Sugars, total",g,--,--,10.00,35.71
Minerals
"Calcium, Ca",mg,--,--,20,71
"Iron, Fe",mg,--,--,0.64,2.29
"Sodium, Na",mg,--,--,50,179
Vitamins
"Vitamin C, total ascorbic acid",mg,--,--,0.0,0.0
"Vitamin A, IU",IU,--,--,179,638
Lipids
"Fatty acids, total saturated",g,--,--,1.000,3.570
"Fatty acids, total trans",g,--,--,0.000,0.000
"Cholesterol",mg,--,--,10,36
Amino Acids
Other
Ingredients
"FLOUR (WHEAT FLOUR), SUGAR (NATURAL CANE SUGAR), BROWN SUGAR, MARGARINE (LIQUID SOYBEAN OIL, PARTIALLY HYDROGENATED SOYBEAN OIL, WATER, SALT, SOYLECITHIN, VEGETABLE MONO & DIGLYCERIDES, POTASSIUM SORBATE & CITRIC ACID, ARTIFICIAL FLAVOR, COLORED WITH BETA CAROTENE, VITAMIN A), SHORTENING, (PARTIALLY HYDROGENATED SOYBEAN AND COTTONSEED OILS, EGGS, MILK, COCOA, POWDERED SUGAR (SUGAR, CORNSTARCH), PECANS, GRAHAM CRACKERS (WHEAT FLOUR, NIACIN, REDUCED IRON, VITAMIN B1 & B2, FOLIC ACID, SUGAR, GRAHAM FLOUR, CORN SYRUP, SOYBEAN OIL, COTTONSEED OILS, HONEY, CALCIUM, BAKING SODA, SALT, ARTIFICIAL FLAVOR, CORN STARCH), EVAPORATED MILK (MILK, DIPOTASSIUM, PHOSPHATE, CARRAGEENAN, VITAMIN D3), CHOCOLATE CHIPS (SUGAR, PARTIALLY HYDROGENATED PALM KERNEL OIL, COCOA PROCESS WITH ALKALI, DEXTROSE, NONFAT MILK AND SOY LECITHIN), STRAWBERRY SPREAD, (STRAWBERRIES, CORN SYRUP, HIGH FRUCTOSE, CORN SYRUP, SUGAR, FRUIT PECTIN AND CITRIC ACID), FIGS (DRIED FIGS WITH DEXTROSE), PINEAPPLE, (PINEAPPLE AND JUICE), SALT, VANILLA (WATER, ETHYL ALCOHOL 1.8%, PROPYLENE, GILCOL, VANILLIN, ETHYL VANILLIN, PURE VANILLA EXTRACT, CARMEL COLOR AND POTASSIUM CORBATE), LEMON EMULSION (WATER, PROPYLENE GLYCOL, XANTHAN GUM, YELLOW COLOR #5), CHERRIES (CHERRIES, WATER CORN SYRUP, HIGH FRUCTOSE CORN SYRUP, CITRIC ACID, NATURAL AND ARTIFICIAL FLAVOR, POTASSIUM SORBATE AND SODIUM BENZOATE), CLOVES (GROUND PURE CLOVES), CINNAMON (GROUND CINNAMON), BAKING SODA (SODIUM BICARBONATE), BAKING POWDER (BAKING SODA, CORNSTARCH, SODIUM ALUMINUM SULFATE, CALCIUM SULFATE, MONOCALCIUM PHOSPHATE)." Date available: 07/14/2017 Date last updated by company: 07/14/2017
