Source: USDA Branded Food Products Database Release December 2017 Software v.3.8.6.4 2017-10-02
Report Run at: December 18, 2017 04:00 EST
"Nutrient data for: 45259454, HANDCRAFTED PETTITS FOURS, UPC: 023204386534"
Food Group:  Branded Food Products Database
Common Name:

Nutrient,Unit,Data points,Std. Error,"2.0 PIECES = 27.0g",1Value per 100 g,
Proximates
"Energy",kcal,--,--,140,519
"Protein",g,--,--,1.00,3.70
"Total lipid (fat)",g,--,--,9.00,33.33
"Carbohydrate, by difference",g,--,--,16.00,59.26
"Fiber, total dietary",g,--,--,0.0,0.0
"Sugars, total",g,--,--,15.00,55.56
Minerals
"Calcium, Ca",mg,--,--,0,0
"Iron, Fe",mg,--,--,0.00,0.00
"Sodium, Na",mg,--,--,25,93
Vitamins
"Vitamin C, total ascorbic acid",mg,--,--,0.0,0.0
"Vitamin A, IU",IU,--,--,0,0
Lipids
"Fatty acids, total saturated",g,--,--,5.000,18.520
"Fatty acids, total trans",g,--,--,0.000,0.000
"Cholesterol",mg,--,--,15,56
Amino Acids
Other
Ingredients
"SUGAR, PALM OIL, PARTIALLY HYDROGENATED PALM KERNEL OIL, REDUCED MINERAL WHEY, INVERT SUGAR, BLEACHED WHEAT FLOUR, MILK, NONFAT DRY MILK, WATER, SOYBEAN OIL, CORNSTARCH, WITH GLYCERYL LACTO ESTERS OF FATTY ACIDS, SOY LECITHIN, MONO AND DIGLYCERYL LACTO ESTERS OF FATTY ACIDS, SOY LECITHIN, MONO AND DIGLYCERIDES, POLYSORBATE 60 AND SODIUM STEAROYL LACTYLATE (EMULSIFIERS), ARTIFICIAL FLAVOR, CITRIC ACID, POTASSIUM SORBATE ADDED AS A PRESERVATIVE, SALT, PARTIALLY HYDROGENATED SOYBEAN OIL, COCONUT OIL, MODIFIED CELLULOSE GUM, ARTIFICIAL COLOR INCLUDING RED #40 LAKE, RED #40, YELLOW #5, YELLOW #6 AND BLUE #1, TBHQ ADDED TO PROTECT FLAVOR, NATURAL FLAVOR CT3995" Date available: 07/14/2017 Date last updated by company: 07/14/2017
