Source: USDA Branded Food Products Database Release December 2017 Software v.3.8.6.4 2017-10-02
Report Run at: December 18, 2017 03:59 EST
"Nutrient data for: 45270784, HANDCRAFTED CUPCAKES FILLED WITH VANILLA CREAM, UPC: 631782003004"
Food Group:  Branded Food Products Database
Common Name:

Nutrient,Unit,Data points,Std. Error,"1 CUPCAKE = 71.0g",1Value per 100 g,
Proximates
"Energy",kcal,--,--,250,352
"Protein",g,--,--,3.00,4.23
"Total lipid (fat)",g,--,--,12.00,16.90
"Carbohydrate, by difference",g,--,--,35.00,49.30
"Fiber, total dietary",g,--,--,2.0,2.8
"Sugars, total",g,--,--,25.00,35.21
Minerals
"Calcium, Ca",mg,--,--,20,28
"Iron, Fe",mg,--,--,1.62,2.28
"Sodium, Na",mg,--,--,220,310
Vitamins
"Vitamin C, total ascorbic acid",mg,--,--,0.0,0.0
"Vitamin A, IU",IU,--,--,112,158
Lipids
"Fatty acids, total saturated",g,--,--,3.500,4.930
"Fatty acids, total trans",g,--,--,0.000,0.000
"Cholesterol",mg,--,--,15,21
Amino Acids
Other
Ingredients
"CANE SUGAR, WATER, ENRICHED UNBLEACHED FLOUR (WHEAT FLOUR, NIACIN, IRON, THIAMINE MONONITRATE, RIBOFLAVIN, FOLIC ACID), BUTTERMILK (CULTURED LOW FAT MILK, CONDENSED SKIM MILK, SALT, SODIUM CITRATE, VITAMIN A PALMITATE, VITAMIN D3), EXPELLER-PRESSED CANOLA OIL, COCOA POWDER (COCOA PROCESSED WITH ALKALI), CONFECTIONER'S SUGAR (SUGAR, CORNSTARCH), SEMISWEET CHOCOLATE (SUGAR, CHOCOLATE LIQUOR, COCOA BUTTER, SOY LECITHIN ADDED AS AN EMULSIFIER, AND VANILLA), BUTTER (CREAM), PALM OIL, CAGE-FREE EGGS, CREAM CHEESE (PASTEURIZED MILK AND CREAM CHEESE CULTURE, SALT, STABILIZERS [CAROB BEAN AND/OR XANTHAN AND/OR GUAR GUMS]), BAKING SODA, SEA SALT, VANILLA EXTRACT (WATER, ALCOHOL, VANILLA BEAN EXTRACTIVES)" Date available: 07/14/2017 Date last updated by company: 07/14/2017
