Source: USDA Branded Food Products Database Release December 2017 Software v.3.8.6.4 2017-10-02
Report Run at: December 18, 2017 04:05 EST
"Nutrient data for: 45203604, HAND RUBBED BASIL PESTO CHICKEN BREAST, UPC: 075971109113"
Food Group:  Branded Food Products Database
Common Name:

Nutrient,Unit,Data points,Std. Error,"2.0 ONZ = 56.0g",1Value per 100 g,
Proximates
"Energy",kcal,--,--,50,89
"Protein",g,--,--,11.00,19.64
"Total lipid (fat)",g,--,--,0.50,0.89
"Carbohydrate, by difference",g,--,--,1.00,1.79
"Fiber, total dietary",g,--,--,0.0,0.0
"Sugars, total",g,--,--,1.00,1.79
Minerals
"Calcium, Ca",mg,--,--,0,0
"Iron, Fe",mg,--,--,0.55,0.98
"Sodium, Na",mg,--,--,430,768
Vitamins
"Vitamin C, total ascorbic acid",mg,--,--,1.8,3.3
"Vitamin A, IU",IU,--,--,0,0
Lipids
"Fatty acids, total saturated",g,--,--,0.000,0.000
"Fatty acids, total trans",g,--,--,0.000,0.000
"Cholesterol",mg,--,--,20,36
Amino Acids
Other
Ingredients
"CHICKEN BREAST, CHICKEN BROTH, CONTAINS 2% OR LESS: SALT, DEXTROSE, MALTODEXTRIN, FLAVORINGS, POTASSIUM AND SODIUM PHOSPHATE, SODIUM NITRITE, SODIUM PROPIONATE. RUBBED WITH FLAVORINGS, GRANULATED GARLIC, YEAST EXTRACT, SUN-DRIED TOMATOES (TOMATO, SALT), SALT, DEXTROSE, LEMON JUICE POWDER (CORN SYRUP, LEMON JUICE SOLIDS), COCOA POWDER." Date available: 07/14/2017 Date last updated by company: 07/14/2017
