Source: USDA Branded Food Products Database Release December 2017 Software v.3.8.6.4 2017-10-02
Report Run at: December 18, 2017 03:58 EST
"Nutrient data for: 45274256, HAND-CRAFTED ARTISAN CRACKERS, UPC: 793573720962"
Food Group:  Branded Food Products Database
Common Name:

Nutrient,Unit,Data points,Std. Error,"1 ONZ = 28.0g",1Value per 100 g,
Proximates
"Energy",kcal,--,--,110,393
"Protein",g,--,--,2.00,7.14
"Total lipid (fat)",g,--,--,4.00,14.29
"Carbohydrate, by difference",g,--,--,16.00,57.14
"Fiber, total dietary",g,--,--,1.0,3.6
"Sugars, total",g,--,--,0.00,0.00
Minerals
"Calcium, Ca",mg,--,--,0,0
"Iron, Fe",mg,--,--,0.36,1.29
"Sodium, Na",mg,--,--,120,429
Vitamins
"Vitamin C, total ascorbic acid",mg,--,--,0.0,0.0
"Vitamin A, IU",IU,--,--,0,0
Lipids
"Fatty acids, total saturated",g,--,--,0.501,1.790
Amino Acids
Other
Ingredients
"UNBLEACHED WHEAT FLOUR (MALTED BARLEY FLOUR, NIACIN, REDUCED IRON, THIAMINE MONONITRATE, RIBOFLAVIN AND FOLIC ACID) SEMOLINA FLOUR, WATER, OLIVE OIL, ROSEMARY, SEA SALT." Date available: 02/15/2017 Date last updated by company: 02/15/2017
