Source: USDA Branded Food Products Database Release December 2017 Software v.3.8.6.4 2017-10-02
Report Run at: December 18, 2017 04:06 EST
"Nutrient data for: 45235304, HANK'S, ROOT BEER, PHILADELPHIA RECIPE, UPC: 710760100017"
Food Group:  Branded Food Products Database
Common Name:

Nutrient,Unit,Data points,Std. Error,"12.0 OZA = 355.0g",1Value per 100 g,
Proximates
"Energy",kcal,--,--,181,51
"Protein",g,--,--,0.00,0.00
"Total lipid (fat)",g,--,--,0.00,0.00
"Carbohydrate, by difference",g,--,--,43.98,12.39
"Sugars, total",g,--,--,43.98,12.39
Minerals
"Sodium, Na",mg,--,--,36,10
Vitamins
Lipids
Amino Acids
Other
Ingredients
"CONTAINS: FILTERED CARBONATED WATER, CANE SUGAR, CARAMEL COLOR, NATURAL AND ARTIFICIAL FLAVOR , SODIUM BENZOATE (TO PROTECT FLAVOR). YUCA EXTRACT, CITRIC ACID AND ACACIA." Date available: 06/24/2017 Date last updated by company: 06/24/2017
