Source: USDA Branded Food Products Database Release December 2017 Software v.3.8.6.4 2017-10-02
Report Run at: December 18, 2017 04:07 EST
"Nutrient data for: 45162472, HANMIRAE, OCEAN SNACK SEASONED SEAWEED, UPC: 809424900756"
Food Group:  Branded Food Products Database
Common Name:

Nutrient,Unit,Data points,Std. Error,"1 PACKAGE = 5.0g",1Value per 100 g,
Proximates
"Energy",kcal,--,--,30,600
"Protein",g,--,--,1.00,20.00
"Total lipid (fat)",g,--,--,2.00,40.00
"Carbohydrate, by difference",g,--,--,1.00,20.00
"Fiber, total dietary",g,--,--,1.0,20.0
"Sugars, total",g,--,--,0.00,0.00
Minerals
"Calcium, Ca",mg,--,--,0,0
"Iron, Fe",mg,--,--,0.36,7.20
"Sodium, Na",mg,--,--,50,1000
Vitamins
"Vitamin C, total ascorbic acid",mg,--,--,3.6,72.0
"Vitamin A, IU",IU,--,--,400,8000
Lipids
"Fatty acids, total saturated",g,--,--,0.000,0.000
"Fatty acids, total trans",g,--,--,0.000,0.000
"Cholesterol",mg,--,--,0,0
Amino Acids
Other
Ingredients
"SEAWEED, CORN OIL, SESAME OIL, SEA SALT" Date available: 09/28/2016 Date last updated by company: 09/28/2016
