Source: USDA Branded Food Products Database Release December 2017 Software v.3.8.6.4 2017-10-02
Report Run at: December 18, 2017 04:14 EST
"Nutrient data for: 45173828, HANNAFORD, LARGE DONUTS, PLAIN, UPC: 041268166220"
Food Group:  Branded Food Products Database
Common Name:

Nutrient,Unit,Data points,Std. Error,"1 DONUT = 57.0g",1Value per 100 g,
Proximates
"Energy",kcal,--,--,240,421
"Protein",g,--,--,3.00,5.26
"Total lipid (fat)",g,--,--,13.00,22.81
"Carbohydrate, by difference",g,--,--,29.00,50.88
"Fiber, total dietary",g,--,--,1.0,1.8
"Sugars, total",g,--,--,11.00,19.30
Minerals
"Calcium, Ca",mg,--,--,0,0
"Iron, Fe",mg,--,--,1.39,2.44
"Sodium, Na",mg,--,--,330,579
Vitamins
"Vitamin C, total ascorbic acid",mg,--,--,0.0,0.0
"Vitamin A, IU",IU,--,--,0,0
Lipids
"Fatty acids, total saturated",g,--,--,4.001,7.020
"Fatty acids, total monounsaturated",g,--,--,6.002,10.530
"Fatty acids, total polyunsaturated",g,--,--,2.502,4.390
"Fatty acids, total trans",g,--,--,0.000,0.000
"Cholesterol",mg,--,--,20,35
Amino Acids
Other
Ingredients
"UNBLEACHED ENRICHED FLOUR (WHEAT FLOUR, MALTED BARLEY FLOUR, NIACIN, REDUCED IRON, THIAMIN MONONITRATE, RIBOFLAVIN, FOLIC ACID), VEGETABLE SHORTENING (SOYBEAN OIL, CANOLA OIL, PALM OIL AND PALM KERNEL OIL), WATER, SUGAR, NONFAT MILK, WHEAT STARCH, CONTAINS 2% OR LESS OF EACH OF THE FOLLOWING: SOY FLOUR, EGG YOLKS, DEXTROSE, CORN FLOUR, LEAVENING (SODIUM ACID PYROPHOSPHATE, SODIUM BICARBONATE, CORNSTARCH, MONOCALCIUM PHOSPHATE, CALCIUM SULPHATE), PARTIALLY HYDROGENATED VEGETABLE SHORTENING, SALT, MONO- AND DIGLYCERIDES, NATURAL AND ARTIFICIAL FLAVORS, SOY LECITHIN, CELLULOSE GUM, SODIUM PROPIONATE (TO RETARD SPOILAGE)." Date available: 07/14/2017 Date last updated by company: 07/14/2017
