Source: USDA Branded Food Products Database Release December 2017 Software v.3.8.6.4 2017-10-02
Report Run at: December 18, 2017 04:14 EST
"Nutrient data for: 45182649, HANNAFORD, IODIZED SALT, UPC: 041268198894"
Food Group:  Branded Food Products Database
Common Name:

Nutrient,Unit,Data points,Std. Error,"0.25 tsp = 1.5g",1Value per 100 g,
Proximates
"Energy",kcal,--,--,0,0
"Protein",g,--,--,0.00,0.00
"Total lipid (fat)",g,--,--,0.00,0.00
"Carbohydrate, by difference",g,--,--,0.00,0.00
Minerals
"Sodium, Na",mg,--,--,590,39333
Vitamins
Lipids
Amino Acids
Other
Ingredients
"SALT, SODIUM SILICOALUMINATE, DEXTROSE, POTASSIUM IODIDE 0.006%, AND SODIUM BICARBONATE." Date available: 07/14/2017 Date last updated by company: 07/14/2017
