Source: USDA Branded Food Products Database Release December 2017 Software v.3.8.6.4 2017-10-02
Report Run at: December 18, 2017 04:19 EST
"Nutrient data for: 45173498, HANNAFORD, QUICHE LORRAINE, UPC: 041268187737"
Food Group:  Branded Food Products Database
Common Name:

Nutrient,Unit,Data points,Std. Error,"0.25 PIE = 141.0g",1Value per 100 g,
Proximates
"Energy",kcal,--,--,310,220
"Protein",g,--,--,11.00,7.80
"Total lipid (fat)",g,--,--,26.00,18.44
"Carbohydrate, by difference",g,--,--,20.99,14.89
"Fiber, total dietary",g,--,--,1.0,0.7
"Sugars, total",g,--,--,2.00,1.42
Minerals
"Calcium, Ca",mg,--,--,149,106
"Iron, Fe",mg,--,--,0.14,0.10
"Sodium, Na",mg,--,--,580,411
Vitamins
"Vitamin C, total ascorbic acid",mg,--,--,0.0,0.0
"Vitamin A, IU",IU,--,--,78,55
Lipids
"Fatty acids, total saturated",g,--,--,9.997,7.090
"Fatty acids, total trans",g,--,--,0.000,0.000
"Cholesterol",mg,--,--,125,89
Amino Acids
Other
Ingredients
"FILLING (WATER, WHOLE LIQUID EGGS, ONIONS, SWISS CHEESE [CULTURED PASTEURIZED MILK, SALT, ENZYMES, POTATO STARCH, CORN STARCH], MAYONNAISE [SOYBEAN OIL, DISTILLED VINEGAR, EGG YOLKS, SUGAR, SALT, SPICES, OLEORESIN, PAPRIKA, CALCIUM, DISODIUM EDTA], ONION, MODIFIED FOOD STARCH, LIGHT CREAM [MILK, CREAM, LESS THAN 5% DISODIUM PHOSPHATE, SODIUM CITRATE], HOT SAUCE [AGED CAYENNE RED PEPPERS, DISTILLED VINEGAR, WATER, SALT, NATURAL FLAVOR, GARLIC POWDER], SALT, WORCESTERSHIRE SAUCE [DISTILLED WHITE VINEGAR, MOLASSES, WATER, SUGAR, ONIONS, ANCHOVIES, SALT, GARLIC, CLOVES, TAMARIND EXTRACT, NATURAL FLAVORING, CHILI PEPPER EXTRACT], POTASSIUM SORBATE, NISIN), PIE CRUST (ENRICHED WHEAT FLOUR [WITH NIACIN, IRON, THIAMINE, RIBOFLAVIN, FOLIC ACID], PALM OIL, WATER, SUGAR, SALT), CHOPPED HAM WATER PRODUCT (HAM, WATER, DEXTROSE, SALT, MODIFIED FOOD STARCH, CORN SYRUP, SPICE, SODIUM PHOSPHATE, SODIUM ERYTHROBATE, SODIUM NITRATE), BACON (CURED WITH WATER, SALT, SUGAR, SODIUM PHOSPHATE, SODIUM ERYTHROBATE, SODIUM NITRATE. MAY CONTAIN SMOKE FLAVORING)." Date available: 07/14/2017 Date last updated by company: 07/14/2017
