Source: USDA Branded Food Products Database Release December 2017 Software v.3.8.6.4 2017-10-02
Report Run at: December 18, 2017 04:07 EST
"Nutrient data for: 45173443, HANNAFORD, BAGELS, ONION, UPC: 041268119851"
Food Group:  Branded Food Products Database
Common Name:

Nutrient,Unit,Data points,Std. Error,"1 BAGEL = 57.0g",1Value per 100 g,
Proximates
"Energy",kcal,--,--,150,263
"Protein",g,--,--,5.00,8.77
"Total lipid (fat)",g,--,--,0.50,0.88
"Carbohydrate, by difference",g,--,--,33.00,57.89
"Fiber, total dietary",g,--,--,1.0,1.8
"Sugars, total",g,--,--,3.00,5.26
Minerals
"Calcium, Ca",mg,--,--,0,0
"Iron, Fe",mg,--,--,3.47,6.09
"Sodium, Na",mg,--,--,310,544
Vitamins
"Vitamin C, total ascorbic acid",mg,--,--,0.0,0.0
"Vitamin A, IU",IU,--,--,0,0
Lipids
"Fatty acids, total saturated",g,--,--,0.000,0.000
"Fatty acids, total trans",g,--,--,0.000,0.000
"Cholesterol",mg,--,--,0,0
Amino Acids
Other
Ingredients
"ENRICHED FLOUR (WHEAT FLOUR, MALTED BARLEY FLOUR, NIACIN, REDUCED IRON, THIAMINE MONONITRATE, RIBOFLAVIN, FOLIC ACID), WATER, HIGH FRUCTOSE CORN SYRUP, CONTAINS LESS THAN 2 % OF EACH OF THE FOLLOWING: SALT, DRIED TOASTED CHOPPED ONION, DRIED CHOPPED ONION, YEAST, WHEAT GLUTEN, DEGERMINATED YELLOW CORN MEAL, ASCORBIC ACID ADDED AS A DOUGH CONDITIONER, MICROCRYSTALLINE CELLULOSE, CORN STARCH." Date available: 08/10/2017 Date last updated by company: 08/10/2017
