Source: USDA Branded Food Products Database Release December 2017 Software v.3.8.6.4 2017-10-02
Report Run at: December 18, 2017 04:14 EST
"Nutrient data for: 45173816, HANNAFORD, LARGE LIMA BEANS, UPC: 041268167937"
Food Group:  Branded Food Products Database
Common Name:

Nutrient,Unit,Data points,Std. Error,"0.25 cup = 46.0g",1Value per 100 g,
Proximates
"Energy",kcal,--,--,120,261
"Protein",g,--,--,10.00,21.74
"Total lipid (fat)",g,--,--,0.50,1.09
"Carbohydrate, by difference",g,--,--,28.00,60.87
"Fiber, total dietary",g,--,--,13.0,28.3
"Sugars, total",g,--,--,2.00,4.35
Minerals
"Calcium, Ca",mg,--,--,0,0
"Iron, Fe",mg,--,--,2.33,5.06
"Potassium, K",mg,--,--,590,1283
"Sodium, Na",mg,--,--,10,22
Vitamins
"Vitamin C, total ascorbic acid",mg,--,--,0.0,0.0
"Vitamin A, IU",IU,--,--,0,0
Lipids
"Fatty acids, total saturated",g,--,--,0.000,0.000
"Fatty acids, total trans",g,--,--,0.000,0.000
"Cholesterol",mg,--,--,0,0
Amino Acids
Other
Ingredients
"LARGE LIMA BEANS." Date available: 07/14/2017 Date last updated by company: 07/14/2017
