Source: USDA Branded Food Products Database Release December 2017 Software v.3.8.6.4 2017-10-02
Report Run at: December 18, 2017 04:08 EST
"Nutrient data for: 45182413, HANNAFORD, BROCCOLI CUTS, UPC: 041268111640"
Food Group:  Branded Food Products Database
Common Name:

Nutrient,Unit,Data points,Std. Error,"1 cup = 87.0g",1Value per 100 g,
Proximates
"Energy",kcal,--,--,30,34
"Protein",g,--,--,1.00,1.15
"Total lipid (fat)",g,--,--,0.00,0.00
"Carbohydrate, by difference",g,--,--,4.00,4.60
"Fiber, total dietary",g,--,--,2.0,2.3
"Sugars, total",g,--,--,2.00,2.30
Minerals
"Calcium, Ca",mg,--,--,20,23
"Iron, Fe",mg,--,--,0.00,0.00
"Sodium, Na",mg,--,--,20,23
Vitamins
"Vitamin C, total ascorbic acid",mg,--,--,30.0,34.5
"Vitamin A, IU",IU,--,--,100,115
Lipids
"Fatty acids, total saturated",g,--,--,0.000,0.000
"Fatty acids, total trans",g,--,--,0.000,0.000
"Cholesterol",mg,--,--,0,0
Amino Acids
Other
Ingredients
"BROCCOLI" Date available: 10/12/2016 Date last updated by company: 10/12/2016
