Source: USDA Branded Food Products Database Release December 2017 Software v.3.8.6.4 2017-10-02
Report Run at: December 18, 2017 04:24 EST
"Nutrient data for: 45173441, HANNAFORD, STUFFING MIX FOR CHICKEN, UPC: 041268119264"
Food Group:  Branded Food Products Database
Common Name:

Nutrient,Unit,Data points,Std. Error,"0.667 CUP PREPARED DRY MIX = 31.0g",1Value per 100 g,
Proximates
"Energy",kcal,--,--,130,419
"Protein",g,--,--,3.00,9.68
"Total lipid (fat)",g,--,--,4.00,12.90
"Carbohydrate, by difference",g,--,--,21.00,67.74
"Fiber, total dietary",g,--,--,0.0,0.0
"Sugars, total",g,--,--,2.00,6.45
Minerals
"Calcium, Ca",mg,--,--,20,65
"Iron, Fe",mg,--,--,4.65,14.99
"Sodium, Na",mg,--,--,490,1581
Vitamins
"Vitamin C, total ascorbic acid",mg,--,--,0.0,0.0
"Vitamin A, IU",IU,--,--,0,0
Lipids
"Fatty acids, total saturated",g,--,--,0.499,1.610
"Fatty acids, total trans",g,--,--,0.000,0.000
"Cholesterol",mg,--,--,0,0
Amino Acids
Other
Ingredients
"BREAD CRUMBS (ENRICHED FLOUR [WHEAT FLOUR, NIACIN, IRON, THIAMINE MONONITRATE, RIBOFLAVIN, FOLIC ACID], HIGH FRUCTOSE CORN SYRUP, CONTAINS 2% OR LESS OF EACH OF THE FOLLOWING: PARTIALLY HYDROGENATED VEGETABLE OIL (SOYBEAN AND/OR COTTONSEED OIL), SALT, COLOR [CARAMEL], NATURAL FLAVOR, YEAST, PRESERVATIVE [CALCIUM PROPIONATE], SOY LECITHIN, SOY FLOUR), SOYBEAN OIL, HYDROLYZED SOY AND CORN AND WHEAT PROTEIN, SALT, DEHYDRATED CELERY, MALTODEXTRIN, SUGAR, SPICE, DEHYDRATED ONION, MONOSODIUM GLUTAMATE, CORN STARCH, DEHYDRATED CHICKEN, DEHYDRATED GARLIC, SOY FLOUR, COLOR (TURMERIC EXTRACT), CHICKEN FAT, DISODIUM INOSINATE, DISODIUM GUANYLATE, CHICKEN BROTH, MODIFIED CORN STARCH, NATURAL FLAVOR, GELATIN." Date available: 07/14/2017 Date last updated by company: 07/14/2017
