Source: USDA Branded Food Products Database Release December 2017 Software v.3.8.6.4 2017-10-02
Report Run at: December 18, 2017 04:11 EST
"Nutrient data for: 45142951, HANNAFORD, DRY ROASTED SUNFLOWER KERNELS, UPC: 041268199617"
Food Group:  Branded Food Products Database
Common Name:

Nutrient,Unit,Data points,Std. Error,"0.25 cup = 29.0g",1Value per 100 g,
Proximates
"Energy",kcal,--,--,160,552
"Protein",g,--,--,5.00,17.24
"Total lipid (fat)",g,--,--,14.00,48.28
"Carbohydrate, by difference",g,--,--,7.00,24.14
"Fiber, total dietary",g,--,--,3.0,10.3
"Sugars, total",g,--,--,1.00,3.45
Minerals
"Calcium, Ca",mg,--,--,20,69
"Iron, Fe",mg,--,--,1.86,6.42
"Magnesium, Mg",mg,--,--,55,190
"Phosphorus, P",mg,--,--,517,1783
"Potassium, K",mg,--,--,240,828
"Sodium, Na",mg,--,--,190,655
"Zinc, Zn",mg,--,--,1.20,4.14
"Copper, Cu",mg,--,--,0.500,1.724
"Manganese, Mn",mg,--,--,0.580,2.000
Vitamins
"Vitamin C, total ascorbic acid",mg,--,--,0.0,0.0
"Thiamin",mg,--,--,0.000,0.000
"Riboflavin",mg,--,--,0.068,0.234
"Niacin",mg,--,--,2.758,9.510
"Pantothenic acid",mg,--,--,0.000,0.000
"Vitamin B-6",mg,--,--,0.345,1.189
"Vitamin A, IU",IU,--,--,0,0
Lipids
"Fatty acids, total saturated",g,--,--,1.499,5.170
"Fatty acids, total monounsaturated",g,--,--,2.500,8.620
"Fatty acids, total polyunsaturated",g,--,--,8.999,31.030
"Fatty acids, total trans",g,--,--,0.000,0.000
"Cholesterol",mg,--,--,0,0
Amino Acids
Other
Ingredients
"SUNFLOWER SEED KERNELS CONTAINS 2% OR LESS OF: SEA SALT, SPICES, DRIED ONION, DRIED GARLIC, PAPRIKA, NATURAL FLAVOR, SUGAR, TORULA YEAST, CORNSTARCH, CORN SYRUP SOLIDS, MALTODEXTRIN." Date available: 07/14/2017 Date last updated by company: 07/14/2017
