Source: USDA Branded Food Products Database Release December 2017 Software v.3.8.6.4 2017-10-02
Report Run at: December 18, 2017 04:30 EST
"Nutrient data for: 45136961, HANSEN'S, NATURAL CANE SODA WITH REAL CANE SUGAR, POMEGRANATE, UPC: 070847876588"
Food Group:  Branded Food Products Database
Common Name:

Nutrient,Unit,Data points,Std. Error,"1 CAN = 354.0g",1Value per 100 g,
Proximates
"Energy",kcal,--,--,131,37
"Protein",g,--,--,0.00,0.00
"Total lipid (fat)",g,--,--,0.00,0.00
"Carbohydrate, by difference",g,--,--,35.01,9.89
"Sugars, total",g,--,--,35.01,9.89
Minerals
"Sodium, Na",mg,--,--,0,0
Vitamins
Lipids
Amino Acids
Other
Ingredients
"CONTAINS: PURE TRIPLE FILTERED CARBONATED WATER, SUGAR, CITRIC ACID, NATURAL FLAVORS WITH EXTRACT OF CALIFORNIA POMEGRANATES." Date available: 07/14/2017 Date last updated by company: 07/14/2017
