Source: USDA Branded Food Products Database Release December 2017 Software v.3.8.6.4 2017-10-02
Report Run at: December 18, 2017 04:31 EST
"Nutrient data for: 45043775, HANS FREITAG, BISCUITS AND WAFERS WITH FINE DARK CHOCOLATE, UPC: 033092000702"
Food Group:  Branded Food Products Database
Common Name:

Nutrient,Unit,Data points,Std. Error,"4.0 COOKIES = 30.0g",1Value per 100 g,
Proximates
"Energy",kcal,--,--,160,533
"Protein",g,--,--,2.00,6.67
"Total lipid (fat)",g,--,--,9.00,30.00
"Carbohydrate, by difference",g,--,--,18.00,60.00
"Fiber, total dietary",g,--,--,1.0,3.3
"Sugars, total",g,--,--,9.00,30.00
Minerals
"Calcium, Ca",mg,--,--,0,0
"Iron, Fe",mg,--,--,2.40,8.00
"Sodium, Na",mg,--,--,40,133
Vitamins
"Vitamin C, total ascorbic acid",mg,--,--,0.0,0.0
"Vitamin A, IU",IU,--,--,0,0
Lipids
"Fatty acids, total saturated",g,--,--,5.001,16.670
"Fatty acids, total trans",g,--,--,0.000,0.000
"Cholesterol",mg,--,--,0,0
Amino Acids
Other
Ingredients
"WHEAT FLOUR, CHOCOLATE (COCOA LIQUOR, SUGAR, COCOA BUTTER, SOY LECITHIN), PALM AND COCONUT FAT, SUGAR, DEXTROSE, WHEAT STARCH, LACTOSE (MILK), GLUCOSE SYRUP (FROM WHEAT), BUTTER OIL, SALT, COCOA POWDER, AMMONIUM BICARBONATE, SODIUM BICARBONATE, NATURAL FLAVOR, VANILLA FLAVORING, EGG, BARLEY MALT EXTRACT, CINNAMON, SOY LECITHIN." Date available: 06/24/2017 Date last updated by company: 06/24/2017
