Source: USDA Branded Food Products Database Release December 2017 Software v.3.8.6.4 2017-10-02
Report Run at: December 18, 2017 04:29 EST
"Nutrient data for: 45136951, HANSEN'S, CANE SODA WITH REAL CANE SUGAR, KIWI STRAWBERRY, UPC: 070847876502"
Food Group:  Branded Food Products Database
Common Name:

Nutrient,Unit,Data points,Std. Error,"1 CAN = 354.0g",1Value per 100 g,
Proximates
"Energy",kcal,--,--,142,40
"Protein",g,--,--,0.00,0.00
"Total lipid (fat)",g,--,--,0.00,0.00
"Carbohydrate, by difference",g,--,--,36.99,10.45
"Sugars, total",g,--,--,36.99,10.45
Minerals
"Sodium, Na",mg,--,--,0,0
Vitamins
Lipids
Amino Acids
Other
Ingredients
"CONTAINS: PURE TRIPLE FILTERED CARBONATED WATER, SUGAR, CITRIC ACID, NATURAL FLAVORS WITH EXTRACTS OF NEW ZEALAND AND/OR CHILEAN AND/OR ITALIAN KIWI FRUITS, U.S. AND/OR EUROPEAN STRAWBERRIES." Date available: 07/14/2017 Date last updated by company: 07/14/2017
