Source: USDA Branded Food Products Database Release December 2017 Software v.3.8.6.4 2017-10-02
Report Run at: December 18, 2017 04:29 EST
"Nutrient data for: 45136903, HANSEN'S, DIET PREMIUM SODA, TANGERINE LIME, UPC: 070847875147"
Food Group:  Branded Food Products Database
Common Name:

Nutrient,Unit,Data points,Std. Error,"1 CAN = 354.0g",1Value per 100 g,
Proximates
"Energy",kcal,--,--,0,0
"Protein",g,--,--,0.00,0.00
"Total lipid (fat)",g,--,--,0.00,0.00
"Carbohydrate, by difference",g,--,--,0.00,0.00
"Sugars, total",g,--,--,0.00,0.00
Minerals
"Sodium, Na",mg,--,--,0,0
Vitamins
Lipids
Amino Acids
Other
Ingredients
"PURE TRIPLE FILTERED CARBONATED WATER, CITRIC ACID, NATURAL POTASSIUM CITRATE, ACESULFAME POTASSIUM, SUCRALOSE (SPLENDA BRAND), NATURAL FRUIT FLAVORS WITH EXTRACTS OF CALIFORNIA TANGERINES AND FLORIDA AND/OR COLIMA LIMES." Date available: 07/14/2017 Date last updated by company: 07/14/2017
