Source: USDA Branded Food Products Database Release December 2017 Software v.3.8.6.4 2017-10-02
Report Run at: December 18, 2017 04:34 EST
"Nutrient data for: 45139373, HAPPYMAMA ORGANICS, PRENATAL NOURISHING FRUIT + VEGGIE BLEND, APPLE, CARROT, GINGER, UPC: 819573012484"
Food Group:  Branded Food Products Database
Common Name:

Nutrient,Unit,Data points,Std. Error,"1 POUCH = 113.0g",1Value per 100 g,
Proximates
"Energy",kcal,--,--,70,62
"Protein",g,--,--,0.00,0.00
"Total lipid (fat)",g,--,--,0.00,0.00
"Carbohydrate, by difference",g,--,--,17.00,15.04
"Fiber, total dietary",g,--,--,2.0,1.8
"Sugars, total",g,--,--,12.99,11.50
Minerals
"Calcium, Ca",mg,--,--,200,177
"Iron, Fe",mg,--,--,0.12,0.11
"Phosphorus, P",mg,--,--,53,47
"Potassium, K",mg,--,--,95,84
"Sodium, Na",mg,--,--,15,13
Vitamins
"Vitamin C, total ascorbic acid",mg,--,--,6.3,5.6
"Vitamin A, IU",IU,--,--,266,235
Lipids
"Fatty acids, total saturated",g,--,--,0.000,0.000
"Fatty acids, total trans",g,--,--,0.000,0.000
"Cholesterol",mg,--,--,0,0
Amino Acids
Other
Ingredients
"ORGANIC APPLE PUREE, ORGANIC CARROT PUREE, VITAMIN & MINERAL BLEND [CHOLINE BITARTRATE, DICALCIUM PHOSPHATE (CALCIUM)], ORGANIC GINGER PUREE, DHA ALGAL OIL, ASCORBIC ACID (VITAMIN C), ORGANIC GROUND CINNAMON, ORGANIC LEMON JUICE CONCENTRATE." Date available: 07/14/2017 Date last updated by company: 07/14/2017
