Source: USDA Branded Food Products Database Release December 2017 Software v.3.8.6.4 2017-10-02
Report Run at: December 18, 2017 04:35 EST
"Nutrient data for: 45122361, HAPPYSQUEEZE ORGANIC, BLENDED FRUIT SNACK, APPLE, BLUEBERRY, & POMEGRANATE, UPC: 819573012378"
Food Group:  Branded Food Products Database
Common Name:

Nutrient,Unit,Data points,Std. Error,"1 POUCH = 90.0g",1Value per 100 g,
Proximates
"Energy",kcal,--,--,60,67
"Protein",g,--,--,0.00,0.00
"Total lipid (fat)",g,--,--,0.00,0.00
"Carbohydrate, by difference",g,--,--,15.00,16.67
"Fiber, total dietary",g,--,--,1.0,1.1
"Sugars, total",g,--,--,12.00,13.33
Minerals
"Calcium, Ca",mg,--,--,0,0
"Iron, Fe",mg,--,--,0.16,0.18
"Potassium, K",mg,--,--,110,122
"Sodium, Na",mg,--,--,0,0
Vitamins
"Vitamin C, total ascorbic acid",mg,--,--,5.3,5.9
"Vitamin A, IU",IU,--,--,44,49
Lipids
"Fatty acids, total saturated",g,--,--,0.000,0.000
"Fatty acids, total trans",g,--,--,0.000,0.000
"Cholesterol",mg,--,--,0,0
Amino Acids
Other
Ingredients
"ORGANIC APPLE PUREE, ORGANIC BLUEBERRY PUREE, ORGANIC POMEGRANATE JUICE CONCENTRATE, ASCORBIC ACID (VITAMIN C), ORGANIC LEMON JUICE CONCENTRATE." Date available: 07/14/2017 Date last updated by company: 07/14/2017
