Source: USDA Branded Food Products Database Release December 2017 Software v.3.8.6.4 2017-10-02
Report Run at: December 18, 2017 04:32 EST
"Nutrient data for: 45254670, HAPPY BIRTHDAY DECORATED CHOCOLATE TORTE, UPC: 752716116307"
Food Group:  Branded Food Products Database
Common Name:

Nutrient,Unit,Data points,Std. Error,"2.8 ONZ = 79.0g",1Value per 100 g,
Proximates
"Energy",kcal,--,--,310,392
"Protein",g,--,--,3.00,3.80
"Total lipid (fat)",g,--,--,19.00,24.05
"Carbohydrate, by difference",g,--,--,34.00,43.04
"Fiber, total dietary",g,--,--,1.0,1.3
"Sugars, total",g,--,--,24.00,30.38
Minerals
"Calcium, Ca",mg,--,--,40,51
"Iron, Fe",mg,--,--,0.36,0.46
"Sodium, Na",mg,--,--,190,241
Vitamins
"Vitamin C, total ascorbic acid",mg,--,--,0.0,0.0
"Vitamin A, IU",IU,--,--,202,256
Lipids
"Fatty acids, total saturated",g,--,--,5.996,7.590
"Fatty acids, total trans",g,--,--,1.501,1.900
"Cholesterol",mg,--,--,25,32
Amino Acids
Other
Ingredients
"VOLLMER'S CHOCOLATE CAKE MIX (SUGAR, BLEACHED FLOUR (WHEAT FLOUR, NIACIN, REDUCED IRON, THIAMINE MONONITRATE, RIBOFLAVIN, FOLIC ACID), SHORTENING (SOYBEAN OIL, PROPYLENE GLYCOL, MONO AND DIESTERS OF FAT, STEARIC ACID, MONO AND DIGLYCERIDES), COCOA (PROCESSED WITH ALKALI) MODIFIED FOOD STARCH, EGG WHITES, NONFAT MILK, DEXTROSE, SODIUM BICARBONATE, SALT MONOCALCIUM PHOSPHATE, EGG YOLK, SODIUM ACID PYROPHOSPHATE, CARAMEL COLOR (CONTAINS SULFITES) POLYSORBATE 60, ASCORBIC ACID, SOY LECITHIN, XANTHAN GUM, TETRASODIUM PYROPHOSPHATE, ACACIA GUM, GUAR GUM, CORN SYRUP SOLIDS, SODIUM PROLONATE (PRESERVATIVE), POTASSIUM SORBATE (PRESERVATIVE), RED 40 LAKE, GRANULATED SUGAR, COCOA BUTTER, ANHYDROUS MILK FAT SOY LECITHIN (AN EMULSIFIER) AND VANILLA, SOYBEAN OIL (SOYBEAN OIL), BUTTER, MILK, CARAT CHOCOLATE CHIPS (SUGAR, CHOCOLATE LIQUOR, COCOA BUTTER, DEXTROSE, SOY LECITHIN (AN EMULSIFIER) AND NATURAL FLAVOR - MAY CONTAIN TRACE AMOUNTS OF MILK), WHIP TOPPING, HEAVY WHIPPING CREAM (HEAVY CREAM, CARRAGEENAN, MONO & DIGLYCERIDES, POLYSORBATE 80, CONTAINS MILK), CORN SYRUP, COCOA MASS, SUGAR, COCOA BUTTER, EMULSIFIER, SOY LECITHIN, FLAVORING, LIQUID INVERT SUGAR, VANILLA EXTRACT, ORANGE FLAVOR (WATER, PROPYLENE GLYCOL, XANTHAN GUM, POTASSIUM SORBATE, FD&C SORBATE, FD&C YELLOW 6, CITRIC ACID)" Date available: 10/10/2017 Date last updated by company: 10/10/2017
