Source: USDA Branded Food Products Database Release December 2017 Software v.3.8.6.4 2017-10-02
Report Run at: December 18, 2017 04:33 EST
"Nutrient data for: 45328974, HAPPY ENDING RUB, UPC: 892816002268"
Food Group:  Branded Food Products Database
Common Name:

Nutrient,Unit,Data points,Std. Error,"0.5 tsp = 2.0g",1Value per 100 g,
Proximates
"Energy",kcal,--,--,5,250
"Protein",g,--,--,0.00,0.00
"Total lipid (fat)",g,--,--,0.00,0.00
"Carbohydrate, by difference",g,--,--,1.00,50.00
Minerals
"Sodium, Na",mg,--,--,340,17000
Vitamins
"Vitamin A, IU",IU,--,--,2500,125000
Lipids
Amino Acids
Other
Ingredients
"SALT, SPICES INCLUDING PAPRIKA, DEHYDRATED GARLIC, SUGAR, DEHYDRATED ONION, MOLASSES POWDER (MOLASSES, MALTODEXTRIN), SOYBEAN OIL AND NOT MORE THAN 2% SILICON DIOXIDE TO PREVENT CAKING." Date available: 10/13/2017 Date last updated by company: 10/13/2017
