Source: USDA Branded Food Products Database Release December 2017 Software v.3.8.6.4 2017-10-02
Report Run at: December 18, 2017 04:36 EST
"Nutrient data for: 45259586, HAPPY VALENTINE'S DAY! MILK CHOCOLATE CANDIES, UPC: 040000483397"
Food Group:  Branded Food Products Database
Common Name:

Nutrient,Unit,Data points,Std. Error,"2.0 PACKS = 33.0g",1Value per 100 g,
Proximates
"Energy",kcal,--,--,160,485
"Protein",g,--,--,2.00,6.06
"Total lipid (fat)",g,--,--,8.00,24.24
"Carbohydrate, by difference",g,--,--,22.00,66.67
"Fiber, total dietary",g,--,--,1.0,3.0
"Sugars, total",g,--,--,20.00,60.61
Minerals
"Calcium, Ca",mg,--,--,40,121
"Iron, Fe",mg,--,--,0.54,1.65
"Sodium, Na",mg,--,--,25,76
Vitamins
"Vitamin C, total ascorbic acid",mg,--,--,0.0,0.0
"Vitamin A, IU",IU,--,--,0,0
Lipids
"Fatty acids, total saturated",g,--,--,4.501,13.640
"Fatty acids, total trans",g,--,--,0.000,0.000
"Cholesterol",mg,--,--,5,15
Amino Acids
Other
Ingredients
"MILK CHOCOLATE (SUGAR, CHOCOLATE, SKIM MILK, COCOA BUTTER, LACTOSE, MILKFAT, SOY LECITHIN, SALT, ARTIFICIAL FLAVORS), SUGAR, LESS THAN 2% - COLORING (INCLUDES BLUE 1 LAKE, RED 40, YELLOW 6, YELLOW 5, BLUE 1, YELLOW 5 LAKE, RED 40 LAKE, YELLOW 6 LAKE, BLUE 2 LAKE, BLUE 2), DEXTRIN, CORN SYRUP, CORNSTARCH." Date available: 07/14/2017 Date last updated by company: 07/14/2017
