Source: USDA Branded Food Products Database Release December 2017 Software v.3.8.6.4 2017-10-02
Report Run at: December 18, 2017 04:41 EST
"Nutrient data for: 45272177, HARD RED WHEAT, UPC: 078716111846"
Food Group:  Branded Food Products Database
Common Name:

Nutrient,Unit,Data points,Std. Error,"0.25 cup = 46.0g",1Value per 100 g,
Proximates
"Energy",kcal,--,--,150,326
"Protein",g,--,--,6.00,13.04
"Total lipid (fat)",g,--,--,0.50,1.09
"Carbohydrate, by difference",g,--,--,33.00,71.74
"Fiber, total dietary",g,--,--,6.0,13.0
"Sugars, total",g,--,--,2.00,4.35
Minerals
"Calcium, Ca",mg,--,--,20,43
"Iron, Fe",mg,--,--,1.96,4.25
"Sodium, Na",mg,--,--,20,43
Vitamins
"Vitamin C, total ascorbic acid",mg,--,--,0.0,0.0
"Vitamin A, IU",IU,--,--,0,0
Lipids
"Fatty acids, total saturated",g,--,--,0.000,0.000
"Fatty acids, total trans",g,--,--,0.000,0.000
"Cholesterol",mg,--,--,0,0
Amino Acids
Other
Ingredients
"HARD RED WHEAT BERRIES." Date available: 07/14/2017 Date last updated by company: 07/14/2017
