Source: USDA Branded Food Products Database Release December 2017 Software v.3.8.6.4 2017-10-02
Report Run at: December 18, 2017 04:37 EST
"Nutrient data for: 45291386, HARD-BOILED EGG WITH ALMONDS & WHITE CHEDDAR CHEESE, UPC: 075925300504"
Food Group:  Branded Food Products Database
Common Name:

Nutrient,Unit,Data points,Std. Error,"3.75 ONZ = 106.0g",1Value per 100 g,
Proximates
"Energy",kcal,--,--,360,340
"Protein",g,--,--,19.00,17.92
"Total lipid (fat)",g,--,--,30.00,28.30
"Carbohydrate, by difference",g,--,--,6.00,5.66
"Fiber, total dietary",g,--,--,3.0,2.8
"Sugars, total",g,--,--,2.00,1.89
Minerals
"Calcium, Ca",mg,--,--,300,283
"Iron, Fe",mg,--,--,2.37,2.24
"Sodium, Na",mg,--,--,340,321
Vitamins
"Vitamin C, total ascorbic acid",mg,--,--,0.0,0.0
"Vitamin A, IU",IU,--,--,660,623
Lipids
"Fatty acids, total saturated",g,--,--,8.003,7.550
"Fatty acids, total trans",g,--,--,0.000,0.000
"Cholesterol",mg,--,--,215,203
Amino Acids
Other
Ingredients
"EGG, ALMONDS (ALMONDS, OIL (COTTONSEED, CANOLA, AND/OR PEANUT), SALT), WHITE CHEDDAR CHEESE (PASTEURIZED MILK, CHEESE CULTURE, SALT, ENZYMES, POTATO STARCH AND POWDERED CELLULOSE ADDED TO PREVENT CAKING, NATAMYCIN (A NATURAL MOLD INHIBITOR))." Date available: 07/14/2017 Date last updated by company: 07/14/2017
