Source: USDA Branded Food Products Database Release December 2017 Software v.3.8.6.4 2017-10-02
Report Run at: December 18, 2017 04:36 EST
"Nutrient data for: 45019064, HARDBITE, HANDCRAFTED POTATO CHIPS, SMOKIN' BBQ, UPC: 673513011506"
Food Group:  Branded Food Products Database
Common Name:

Nutrient,Unit,Data points,Std. Error,"19.0 CHIPS = 28.0g",1Value per 100 g,
Proximates
"Energy",kcal,--,--,140,500
"Protein",g,--,--,2.00,7.14
"Total lipid (fat)",g,--,--,8.00,28.57
"Carbohydrate, by difference",g,--,--,15.00,53.57
"Fiber, total dietary",g,--,--,1.0,3.6
"Sugars, total",g,--,--,1.00,3.57
Minerals
"Calcium, Ca",mg,--,--,0,0
"Iron, Fe",mg,--,--,1.29,4.59
"Sodium, Na",mg,--,--,140,500
Vitamins
"Vitamin C, total ascorbic acid",mg,--,--,8.6,30.6
"Vitamin A, IU",IU,--,--,0,0
Lipids
"Fatty acids, total saturated",g,--,--,0.501,1.790
"Fatty acids, total trans",g,--,--,0.000,0.000
"Cholesterol",mg,--,--,0,0
Amino Acids
Other
Ingredients
"OUR DELICIOUS INGREDIENTS: POTATOES, NON-HYDROGENATED SUNFLOWER OIL, AND/OR NON-HYDROGENATED CANOLA OIL, EVAPORATED CANE JUICE, SEA SALT, TORULA YEAST, TOMATO POWDER, SPICE, ONION POWDER, GARLIC POWDER, CITRIC ACID, SMOKE FLAVOR." Date available: 06/25/2017 Date last updated by company: 06/25/2017
