Source: USDA Branded Food Products Database Release December 2017 Software v.3.8.6.4 2017-10-02
Report Run at: December 18, 2017 04:44 EST
"Nutrient data for: 45032205, HARGIS HOUSE, SELECT CHILI WITH BEANS, UPC: 051933347564"
Food Group:  Branded Food Products Database
Common Name:

Nutrient,Unit,Data points,Std. Error,"1 cup = 240.0g",1Value per 100 g,
Proximates
"Energy",kcal,--,--,240,100
"Protein",g,--,--,15.00,6.25
"Total lipid (fat)",g,--,--,4.51,1.88
"Carbohydrate, by difference",g,--,--,34.99,14.58
"Fiber, total dietary",g,--,--,10.1,4.2
"Sugars, total",g,--,--,4.99,2.08
Minerals
"Calcium, Ca",mg,--,--,101,42
"Iron, Fe",mg,--,--,4.75,1.98
"Sodium, Na",mg,--,--,941,392
Vitamins
"Vitamin C, total ascorbic acid",mg,--,--,9.6,4.0
"Vitamin A, IU",IU,--,--,792,330
Lipids
"Fatty acids, total saturated",g,--,--,1.488,0.620
"Fatty acids, total trans",g,--,--,0.000,0.000
"Cholesterol",mg,--,--,5,2
Amino Acids
Other
Ingredients
"WATER, BEANS, COOKED BEEF PATTIE CRUMBLES (BEEF, WATER, TEXTURED VEGETABLE PROTEIN [SOY FLOUR, CARAMEL COLOR], SALT, NATURAL FLAVOR), SEASONING (WHITE CORN FLOUR, CHILI PEPPER, SUGAR, SPICES, DEHYDRATED ONION, DEHYDRATED GARLIC, DEHYDRATED GREEN BELL PEPPER, JALAPENO PEPPER POWDER), TOMATO PASTE), MODIFED CORN STARCH. CONTAINS 2% OR LESS OF: SALT, TEXTURED VEGETABLE PROTEIN (SOY FLOUR, CARAMEL COLOR), DICED GREEN CHILE (GREEN CHILES AND CITRIC ACID), SUGAR, HYDROLYZED SOY PROTEIN, OLEORESIN PAPRIKA, SUNFLOWER OIL, SOY LECITHIN, NATURAL FLAVORS." Date available: 07/14/2017 Date last updated by company: 07/14/2017
