Source: USDA Branded Food Products Database Release December 2017 Software v.3.8.6.4 2017-10-02
Report Run at: December 18, 2017 04:45 EST
"Nutrient data for: 45270980, HARISSA KETCHUP, UPC: 797734059205"
Food Group:  Branded Food Products Database
Common Name:

Nutrient,Unit,Data points,Std. Error,"1 Tbsp = 16.0g",1Value per 100 g,
Proximates
"Energy",kcal,--,--,8,50
"Protein",g,--,--,0.10,0.62
"Total lipid (fat)",g,--,--,0.00,0.00
"Carbohydrate, by difference",g,--,--,2.00,12.50
"Fiber, total dietary",g,--,--,0.2,1.2
"Sugars, total",g,--,--,1.40,8.75
Minerals
"Sodium, Na",mg,--,--,14,88
Vitamins
Lipids
"Fatty acids, total saturated",g,--,--,0.000,0.000
"Cholesterol",mg,--,--,0,0
Amino Acids
Other
Ingredients
"TOMATO SAUCE, PURE CANE SUGAR, APPLE CIDER VINEGAR, AND SPICES." Date available: 08/11/2017 Date last updated by company: 08/11/2017
