Source: USDA Branded Food Products Database Release December 2017 Software v.3.8.6.4 2017-10-02
Report Run at: December 18, 2017 04:45 EST
"Nutrient data for: 45155682, HARIBO, GOLD-BEARS, SOUR GUMMI CANDY, UPC: 042238312371"
Food Group:  Branded Food Products Database
Common Name:

Nutrient,Unit,Data points,Std. Error,"16.0 PIECES = 41.0g",1Value per 100 g,
Proximates
"Energy",kcal,--,--,150,366
"Protein",g,--,--,3.00,7.32
"Total lipid (fat)",g,--,--,0.00,0.00
"Carbohydrate, by difference",g,--,--,34.00,82.93
"Sugars, total",g,--,--,22.00,53.66
Minerals
"Sodium, Na",mg,--,--,15,37
Vitamins
Lipids
Amino Acids
Other
Ingredients
"CORN SYRUP, SUGAR, GELATIN, DEXTROSE, CITRIC ACID, MALIC ACID, CALCIUM CITRATE, SODIUM MALATE, CORN STARCH, ARTIFICIAL AND NATURAL FLAVORS, ARTIFICIAL COLORS: YELLOW 5, RED 40, BLUE 1, CARNAUBA WAX" Date available: 07/14/2017 Date last updated by company: 07/14/2017
