Source: USDA Branded Food Products Database Release December 2017 Software v.3.8.6.4 2017-10-02
Report Run at: December 18, 2017 04:48 EST
"Nutrient data for: 45172491, HARMONS, HARDWOOD SMOKED BACON, UPC: 031961303138"
Food Group:  Branded Food Products Database
Common Name:

Nutrient,Unit,Data points,Std. Error,"1 PAN FRIED SLICE = 8.0g",1Value per 100 g,
Proximates
"Energy",kcal,--,--,90,1125
"Protein",g,--,--,5.00,62.50
"Total lipid (fat)",g,--,--,7.00,87.50
"Carbohydrate, by difference",g,--,--,0.00,0.00
"Fiber, total dietary",g,--,--,0.0,0.0
"Sugars, total",g,--,--,0.00,0.00
Minerals
"Sodium, Na",mg,--,--,130,1625
Vitamins
Lipids
"Fatty acids, total saturated",g,--,--,2.000,25.000
"Fatty acids, total trans",g,--,--,0.000,0.000
"Cholesterol",mg,--,--,12,150
Amino Acids
Other
Ingredients
"CURED WITH: WATER, SALT, BROWN SUGAR, SODIUM PHOSPHATE, SODIUM ERYOTHORBATE, NATURAL SMOKE FLAVOR, SUGAR, SODIUM NITRITE, FLAVORINGS." Date available: 07/14/2017 Date last updated by company: 07/14/2017
