Source: USDA Branded Food Products Database Release December 2017 Software v.3.8.6.4 2017-10-02
Report Run at: December 18, 2017 04:51 EST
"Nutrient data for: 45162825, HARMONS, RED & WHITE SIXLETS CANDY, UPC: 019646005966"
Food Group:  Branded Food Products Database
Common Name:

Nutrient,Unit,Data points,Std. Error,"39.0 GRM = 39.0g",1Value per 100 g,
Proximates
"Energy",kcal,--,--,180,462
"Protein",g,--,--,1.00,2.56
"Total lipid (fat)",g,--,--,7.00,17.95
"Carbohydrate, by difference",g,--,--,28.00,71.79
"Fiber, total dietary",g,--,--,1.0,2.6
"Sugars, total",g,--,--,27.00,69.23
Minerals
"Calcium, Ca",mg,--,--,20,51
"Iron, Fe",mg,--,--,0.92,2.37
"Sodium, Na",mg,--,--,85,218
Vitamins
"Vitamin C, total ascorbic acid",mg,--,--,0.0,0.0
"Vitamin A, IU",IU,--,--,0,0
Lipids
"Fatty acids, total saturated",g,--,--,7.000,17.950
"Fatty acids, total trans",g,--,--,0.000,0.000
"Cholesterol",mg,--,--,0,0
Amino Acids
Other
Ingredients
"SUGAR, DEXTROSE, HYDROGENATED PALM KERNAL OIL, REDUCED PROTEIN WHEY (MILK), COCOA, CORN SYRUP, LECITHIN (SOY), NATURAL AND ARTIFICIAL FLAVORS, TAPIOCA DEXTRIN, CARNAUBA WAX, SALT, HPMC, BEES WAX, MICA BASED PEARLESCENT PIGMENT, COLORS (YELLOW 5, RED 40, (TITANIUM DIOXIDE)." Date available: 10/13/2017 Date last updated by company: 10/13/2017
