Source: USDA Branded Food Products Database Release December 2017 Software v.3.8.6.4 2017-10-02
Report Run at: December 18, 2017 04:49 EST
"Nutrient data for: 45248170, HARMONS NEIGHBORHOOD GROCER, MIXED NUTS, UPC: 019646001319"
Food Group:  Branded Food Products Database
Common Name:

Nutrient,Unit,Data points,Std. Error,"30.0 GRM = 30.0g",1Value per 100 g,
Proximates
"Energy",kcal,--,--,187,623
"Protein",g,--,--,5.00,16.67
"Total lipid (fat)",g,--,--,15.00,50.00
"Carbohydrate, by difference",g,--,--,8.00,26.67
"Fiber, total dietary",g,--,--,2.0,6.7
"Sugars, total",g,--,--,2.00,6.67
Minerals
"Calcium, Ca",mg,--,--,20,67
"Iron, Fe",mg,--,--,1.20,4.00
"Sodium, Na",mg,--,--,270,900
Vitamins
Lipids
"Fatty acids, total saturated",g,--,--,2.001,6.670
"Fatty acids, total trans",g,--,--,0.000,0.000
"Cholesterol",mg,--,--,0,0
Amino Acids
Other
Ingredients
"ALMONDS (SALT AND CITRIC ACID, CASHEWS (SOYBEAN OIL AND SALT), PEANUTS [LESS THAN 2% CANOLA OIL AND SALT, PECANS (SOYBEAN OIL AND SALT), HAZELNUTS (SALT AND CITRIC ACID), AND PISTACHIO KERNELS (SALT AND CITRIC ACID)." Date available: 10/11/2017 Date last updated by company: 10/11/2017
