Source: USDA Branded Food Products Database Release December 2017 Software v.3.8.6.4 2017-10-02
Report Run at: December 18, 2017 04:49 EST
"Nutrient data for: 45145218, HARMONS NEIGHBORHOOD GROCER, GUMMI MILITARY HEROES, UPC: 019646006499"
Food Group:  Branded Food Products Database
Common Name:

Nutrient,Unit,Data points,Std. Error,"40.0 GRM = 40.0g",1Value per 100 g,
Proximates
"Energy",kcal,--,--,130,325
"Protein",g,--,--,2.00,5.00
"Total lipid (fat)",g,--,--,0.00,0.00
"Carbohydrate, by difference",g,--,--,30.00,75.00
"Fiber, total dietary",g,--,--,0.0,0.0
"Sugars, total",g,--,--,8.00,20.00
Minerals
"Calcium, Ca",mg,--,--,0,0
"Iron, Fe",mg,--,--,0.00,0.00
"Sodium, Na",mg,--,--,25,62
Vitamins
"Vitamin C, total ascorbic acid",mg,--,--,0.0,0.0
"Vitamin A, IU",IU,--,--,0,0
Lipids
"Fatty acids, total saturated",g,--,--,0.000,0.000
"Fatty acids, total trans",g,--,--,0.000,0.000
"Cholesterol",mg,--,--,0,0
Amino Acids
Other
Ingredients
"CORN SYRUP, (FROM CORN), SUGAR (FROM BEETS), WATER GELATIN, CITRIC ACID, PECTIN (DERIVED FROM FRUIT), NATURAL AND ARTIFICIAL FLAVORS, VEGETABLE OIL (PALM) AND CARNAUBA LEAF WAX (TO PREVENT STICKING), FD&C RED # 40, BLUE #1." Date available: 07/14/2017 Date last updated by company: 07/14/2017
