Source: USDA Branded Food Products Database Release December 2017 Software v.3.8.6.4 2017-10-02
Report Run at: December 18, 2017 05:14 EST
"Nutrient data for: 45306847, HARRY & DAVID, SPRING SWEETS GIFT BOX, UPC: 780994802247"
Food Group:  Branded Food Products Database
Common Name:

Nutrient,Unit,Data points,Std. Error,"538.0 GRM = 538.0g",1Value per 100 g,
Proximates
Minerals
Vitamins
Lipids
Amino Acids
Other
Ingredients
"CHOCOLATE (SUGAR, CHOCOLATE LIQUOR COCOA BUTTER MILK BUTTER OIL, SOY LECITHIN, VANILLA), COCONUT OIL. : CORN SYRUP, SUGAR, MILK CHOCOLATE (SUGAR, CHOCOLATE LIQUOR MILK COCOA BUTTER, SOY LECITHIN, VANILLA), POPCORN, BUTTER (CREAM [MILK] SALT), WATER, ALMONDS, CASHEWS (WITH PEANUTS AND/OR COTTONSEED OIL). HONEY, BROWN SUGAR, SALT, SALT LECITHIN NATURAL FLAVOR BHA/BHT IN CORN OIL TO RELTARD OXIDATION. COATING (SUGAR, PALM KERNE OIL, NONFAT MILK, WHEY [MILK] NONFAT YOURT POWDER ]CULTURE WHEY (MILK), NONFAT MILK], ARTIFICIAL COLOR (TITANIUM DOOXIDE], SOY LECITHIN, LACTIC ACID, NATURAL FLAVOR). PRETZELS (ENRICHED WHEAT FLOUR [WHEAT STARCH, NIACIN, REDUCED IRON THIAMIN MONONITRATE, RIBOFLAVIN. FOLIC ACID, SILICON DOOXIDE (ANTI-CAKING AGENT)]. CORN SYRUP, SALT, SODIUM BICARBONATE YEAST. MILK CHOCOLATE (SUGAR CHOCOLATE LIQUOR, MILK, COCOA BUTTER, SOY LECITHIN, VANILLA), COATING (SUGAR, PARTIALLY HYDROGENATED PALM KERNEL OIL, WHEY [MILK] NONFAT MILK, MONO & DIGLYCERIDES, SOY LECITHIN, WATER, GUM ACACIA, DEXTRIN, FOOD STARCH-MODIFIED, COCONUT OIL CITRIC ACID SORBIC ACID), DRIED [CHERRIES, SUGAR, CITRIC ACID, FRUIT & VEGETABLE CONCENTRATES [CHERRY, BLUEBERRY, CARROT] FOR COLOR SUNFLOWER OIL), ARTIFICIAL CO;OR (MEDIUM CHAIN TRIGLYCERIDES RED #40 LAKE BLUE #1 LAKE), SUGAR CITRIC ACID, COCOA PROCESSED WITH ALKALI NATURAL FLAVOR (WITH SOYBEAN OIL) CONFECTIONERS GLAZE." Date available: 09/23/2016 Date last updated by company: 09/23/2016
