Source: USDA Branded Food Products Database Release December 2017 Software v.3.8.6.4 2017-10-02
Report Run at: December 18, 2017 05:07 EST
"Nutrient data for: 45033532, HARRIS TEETER, RANCH DIP, UPC: 072036706256"
Food Group:  Branded Food Products Database
Common Name:

Nutrient,Unit,Data points,Std. Error,"2.0 Tbsp = 30.0g",1Value per 100 g,
Proximates
"Energy",kcal,--,--,60,200
"Protein",g,--,--,1.00,3.33
"Total lipid (fat)",g,--,--,5.00,16.67
"Carbohydrate, by difference",g,--,--,2.00,6.67
"Fiber, total dietary",g,--,--,0.0,0.0
"Sugars, total",g,--,--,1.00,3.33
Minerals
"Calcium, Ca",mg,--,--,40,133
"Iron, Fe",mg,--,--,0.00,0.00
"Sodium, Na",mg,--,--,190,633
Vitamins
"Vitamin C, total ascorbic acid",mg,--,--,2.0,6.7
"Vitamin A, IU",IU,--,--,334,1112
Lipids
"Fatty acids, total saturated",g,--,--,3.501,11.670
"Fatty acids, total trans",g,--,--,0.000,0.000
"Cholesterol",mg,--,--,15,50
Amino Acids
Other
Ingredients
"SOUR CREAM (CULTURED PASTEURIZED NONFAT MILK, CREAM, ENZYME), RANCH SEASONING (DEHYDRATED ONION, GARLIC, CARROT, BELL PEPPER, PARSLEY, MALTODEXTRIN, SALT, MONOSODIUM GLUTAMATE, MODIFIED FOOD STARCH [CORN], BUTTERMILK, SPICES, LESS THAN 2% SILICON DIOXIDE [PROCESSING AID])." Date available: 06/24/2017 Date last updated by company: 06/24/2017
