Source: USDA Branded Food Products Database Release December 2017 Software v.3.8.6.4 2017-10-02
Report Run at: December 18, 2017 05:14 EST
"Nutrient data for: 45149939, HARRY HOPALOT, UPC: 813715013230"
Food Group:  Branded Food Products Database
Common Name:

Nutrient,Unit,Data points,Std. Error,"100.0 GRM = 100.0g",1Value per 100 g,
Proximates
"Energy",kcal,--,--,545,545
"Protein",g,--,--,5.50,5.50
"Total lipid (fat)",g,--,--,30.00,30.00
"Carbohydrate, by difference",g,--,--,62.00,62.00
"Sugars, total",g,--,--,62.00,62.00
Minerals
Vitamins
Lipids
"Fatty acids, total saturated",g,--,--,19.000,19.000
Amino Acids
Other
Ingredients
"SUGAR, COCOA BUTTER, DRIED WHOLE MILK, COCOA MASS, EMULSIFIER (SOYA LECITHIN), MILK FAT, FLAVOURING, FAT REDUCED COCOA POWDER, COLOUR (BEETROOT RED)" Date available: 08/23/2017 Date last updated by company: 08/23/2017
