Source: USDA Branded Food Products Database Release December 2017 Software v.3.8.6.4 2017-10-02
Report Run at: December 18, 2017 04:52 EST
"Nutrient data for: 45167501, HARRISON'S ORIGINAL SWEET SHOPPE, FRUIT SMILES CANDIES, RASPBERRY, ORANGE, LIME & LEMON, UPC: 073490154256"
Food Group:  Branded Food Products Database
Common Name:

Nutrient,Unit,Data points,Std. Error,"10.0 PIECES = 42.0g",1Value per 100 g,
Proximates
"Energy",kcal,--,--,140,333
"Protein",g,--,--,0.00,0.00
"Total lipid (fat)",g,--,--,0.00,0.00
"Carbohydrate, by difference",g,--,--,34.00,80.95
"Fiber, total dietary",g,--,--,1.0,2.4
"Sugars, total",g,--,--,13.00,30.95
Minerals
"Sodium, Na",mg,--,--,10,24
Vitamins
Lipids
"Fatty acids, total saturated",g,--,--,0.000,0.000
"Fatty acids, total trans",g,--,--,0.000,0.000
"Cholesterol",mg,--,--,0,0
Amino Acids
Other
Ingredients
"SUGAR, TAPIOCA SYRUP, AGAR POWDER, CITRIC ACID, NATURAL RASPBERRY, ORANGE, LIME AND LEMON FLAVORS, ANNATTO COLOR, TITANIUM DIOXIDE." Date available: 07/14/2017 Date last updated by company: 07/14/2017
