Source: USDA Branded Food Products Database Release December 2017 Software v.3.8.6.4 2017-10-02
Report Run at: December 18, 2017 05:07 EST
"Nutrient data for: 45183943, HARRIS TEETER, PRESERVES, RED RASPBERRY, UPC: 07203671502"
Food Group:  Branded Food Products Database
Common Name:

Nutrient,Unit,Data points,Std. Error,"1 Tbsp = 20.0g",1Value per 100 g,
Proximates
"Energy",kcal,--,--,40,200
"Protein",g,--,--,0.00,0.00
"Total lipid (fat)",g,--,--,0.00,0.00
"Carbohydrate, by difference",g,--,--,10.00,50.00
"Sugars, total",g,--,--,6.00,30.00
Minerals
"Sodium, Na",mg,--,--,0,0
Vitamins
Lipids
"Fatty acids, total saturated",g,--,--,0.000,0.000
Amino Acids
Other
Ingredients
"RED RASPBERRIES, CORN SYRUP, HIGH FRUCTOSE CORN SYRUP, FRUIT PECTIN, CITRIC ACID." Date available: 07/14/2017 Date last updated by company: 07/14/2017
