Source: USDA Branded Food Products Database Release December 2017 Software v.3.8.6.4 2017-10-02
Report Run at: December 18, 2017 05:05 EST
"Nutrient data for: 45241891, HARRIS TEETER, ORGANICS CRUNCHY PEANUT BUTTER, UPC: 072036764447"
Food Group:  Branded Food Products Database
Common Name:

Nutrient,Unit,Data points,Std. Error,"2.0 Tbsp = 30.0g",1Value per 100 g,
Proximates
"Energy",kcal,--,--,210,700
"Protein",g,--,--,9.00,30.00
"Total lipid (fat)",g,--,--,16.00,53.33
"Carbohydrate, by difference",g,--,--,6.00,20.00
"Fiber, total dietary",g,--,--,2.0,6.7
"Sugars, total",g,--,--,2.00,6.67
Minerals
"Calcium, Ca",mg,--,--,20,67
"Iron, Fe",mg,--,--,1.20,4.00
"Potassium, K",mg,--,--,200,667
"Sodium, Na",mg,--,--,40,133
Vitamins
"Vitamin C, total ascorbic acid",mg,--,--,0.0,0.0
"Vitamin A, IU",IU,--,--,0,0
Lipids
"Fatty acids, total saturated",g,--,--,3.000,10.000
"Fatty acids, total trans",g,--,--,0.000,0.000
"Cholesterol",mg,--,--,0,0
Amino Acids
Other
Ingredients
"DRY ROASTED ORGANICALLY GROWN BLANCHED PEANUTS, SALT." Date available: 06/25/2017 Date last updated by company: 06/25/2017
