Source: USDA Branded Food Products Database Release December 2017 Software v.3.8.6.4 2017-10-02
Report Run at: December 18, 2017 04:58 EST
"Nutrient data for: 45003559, HARRIS TEETER, FRESH FOODS MARKET, CHICKEN & WILD RICE, UPC: 072036951762"
Food Group:  Branded Food Products Database
Common Name:

Nutrient,Unit,Data points,Std. Error,"1 cup = 245.0g",1Value per 100 g,
Proximates
"Energy",kcal,--,--,230,94
"Protein",g,--,--,8.99,3.67
"Total lipid (fat)",g,--,--,11.00,4.49
"Carbohydrate, by difference",g,--,--,19.99,8.16
"Fiber, total dietary",g,--,--,2.0,0.8
"Sugars, total",g,--,--,2.01,0.82
Minerals
"Calcium, Ca",mg,--,--,59,24
"Iron, Fe",mg,--,--,0.12,0.05
"Sodium, Na",mg,--,--,980,400
Vitamins
"Vitamin C, total ascorbic acid",mg,--,--,0.7,0.3
"Vitamin A, IU",IU,--,--,184,75
Lipids
"Fatty acids, total saturated",g,--,--,6.003,2.450
"Fatty acids, total trans",g,--,--,0.000,0.000
"Cholesterol",mg,--,--,59,24
Amino Acids
Other
Ingredients
"CHICKEN STOCK (WATER, CHICKEN STOCK, SALT, SPICES), CHICKEN (WHITE CHICKEN MEAT, WATER, POTATO STARCH, SALT), CREAM, ONIONS, CARROTS, CELERY, WILD RICE, BASMATI RICE, CONTAINS 2% OR LESS OF: RED BELL PEPPERS, CORN STARCH, MUSHROOMS, SHERRY WINE, BUTTER (CREAM, SALT), SALT, PARSLEY, THYME, GARLIC AND SPICE." Date available: 07/14/2017 Date last updated by company: 07/14/2017
