Source: USDA Branded Food Products Database Release December 2017 Software v.3.8.6.4 2017-10-02
Report Run at: December 18, 2017 05:10 EST
"Nutrient data for: 45183942, HARRIS TEETER, SQUEEZABLE SPREAD, STRAWBERRY, UPC: 07203671503"
Food Group:  Branded Food Products Database
Common Name:

Nutrient,Unit,Data points,Std. Error,"1 Tbsp = 20.0g",1Value per 100 g,
Proximates
"Energy",kcal,--,--,50,250
"Protein",g,--,--,0.00,0.00
"Total lipid (fat)",g,--,--,0.00,0.00
"Carbohydrate, by difference",g,--,--,12.00,60.00
"Sugars, total",g,--,--,6.00,30.00
Minerals
"Sodium, Na",mg,--,--,0,0
Vitamins
Lipids
Amino Acids
Other
Ingredients
"STRAWBERRIES, CORN SYRUP, HIGH FRUCTOSE CORN SYRUP, SUGAR, GRAPE JUICE CONCENTRATE ADDED FOR COLOR, FRUIT PECTIN, CITRIC ACID, NATURAL FLAVOR." Date available: 07/14/2017 Date last updated by company: 07/14/2017
