Source: USDA Branded Food Products Database Release December 2017 Software v.3.8.6.4 2017-10-02
Report Run at: December 18, 2017 05:05 EST
"Nutrient data for: 45233401, HARRIS TEETER, ORGANICS, MISO GINGER DRESSING, UPC: 072036706362"
Food Group:  Branded Food Products Database
Common Name:

Nutrient,Unit,Data points,Std. Error,"2.0 Tbsp = 30.0g",1Value per 100 g,
Proximates
"Energy",kcal,--,--,50,167
"Protein",g,--,--,1.00,3.33
"Total lipid (fat)",g,--,--,3.50,11.67
"Carbohydrate, by difference",g,--,--,5.00,16.67
"Fiber, total dietary",g,--,--,0.0,0.0
"Sugars, total",g,--,--,4.00,13.33
Minerals
"Calcium, Ca",mg,--,--,0,0
"Iron, Fe",mg,--,--,0.00,0.00
"Sodium, Na",mg,--,--,390,1300
Vitamins
"Vitamin C, total ascorbic acid",mg,--,--,0.0,0.0
"Vitamin A, IU",IU,--,--,0,0
Lipids
"Fatty acids, total saturated",g,--,--,0.501,1.670
"Fatty acids, total trans",g,--,--,0.000,0.000
"Cholesterol",mg,--,--,0,0
Amino Acids
Other
Ingredients
"FILTERED WATER, ORGANIC SUGAR, ORGANIC SOY SAUCE (WATER, ORGANIC SOYBEANS, SALT, ORGANIC WHEAT, ORGANIC ALCOHOL), ORGANIC SOYBEAN OIL, ORGANIC RICE VINEGAR, ORGANIC SESAME OIL, ORGANIC GINGER PUREE, SALT, ORGANIC MISO (ORGANIC SOYBEANS, ORGANIC RICE KOJI, SEA SALT, BLUE RIDGE MOUNTAIN WELL WATER, KOJI SPORES), ORGANIC GARLIC PUREE, ORGANIC SESAME SEEDS, ORGANIC ONION POWDER, ORGANIC GINGER EXTRACT, XANTHAN GUM." Date available: 07/14/2017 Date last updated by company: 07/14/2017
