Source: USDA Branded Food Products Database Release December 2017 Software v.3.8.6.4 2017-10-02
Report Run at: December 18, 2017 05:13 EST
"Nutrient data for: 45161235, HARRY & DAVID, MOOSE MUNCH, BITES DARK CHOCOLATE COVERED CARAMEL POPCORN, UPC: 780994799226"
Food Group:  Branded Food Products Database
Common Name:

Nutrient,Unit,Data points,Std. Error,"2.0 PIECES = 28.0g",1Value per 100 g,
Proximates
"Energy",kcal,--,--,150,536
"Protein",g,--,--,1.00,3.57
"Total lipid (fat)",g,--,--,11.00,39.29
"Carbohydrate, by difference",g,--,--,15.00,53.57
"Fiber, total dietary",g,--,--,2.0,7.1
"Sugars, total",g,--,--,11.00,39.29
Minerals
"Calcium, Ca",mg,--,--,0,0
"Iron, Fe",mg,--,--,3.21,11.48
"Sodium, Na",mg,--,--,15,54
Vitamins
"Vitamin C, total ascorbic acid",mg,--,--,0.0,0.0
"Vitamin A, IU",IU,--,--,0,0
Lipids
"Fatty acids, total saturated",g,--,--,7.000,25.000
"Fatty acids, total trans",g,--,--,0.000,0.000
"Cholesterol",mg,--,--,0,0
Amino Acids
Other
Ingredients
"DARK CHOCOLATE (CHOCOLATE LIQUOR, SUGAR, COCOA BUTTER, SOY LECITHIN, NATURAL AND ARTIFICIAL FLAVOR), COCONUT OIL, MOOSE MUNCH POPCORN (CORN SYRUP, SUGAR, POPCORN, BUTTER [CREAM (MILK), SALT], WATER, ALMONDS, CASHEWS [WITH PEANUT OIL AND/OR COTTONSEED OIL], HONEY, BROWN SUGAR, SALT, SOY LECITHIN, NATURAL FLAVOR, BHA/BHT IN CORN OIL TO RETARD OXIDATION), CASHEWS (WITH PEANUT OIL AND/OR COTTONSEED OIL), ALMONDS, TOFFEE (SUGAR, VEGETABLE OIL [COCONUT AND/ OR PALM OIL], BUTTER [CREAM (MILK), SALT], ALMONDS, SOY LECITHIN)." Date available: 07/14/2017 Date last updated by company: 07/14/2017
