Source: USDA Branded Food Products Database Release December 2017 Software v.3.8.6.4 2017-10-02
Report Run at: December 18, 2017 04:59 EST
"Nutrient data for: 45033258, HARRIS TEETER, GHERKINS, SWEET, UPC: 072036982179"
Food Group:  Branded Food Products Database
Common Name:

Nutrient,Unit,Data points,Std. Error,"2.0 PICKLES | ABOUT = 28.0g",1Value per 100 g,
Proximates
"Energy",kcal,--,--,35,125
"Protein",g,--,--,0.00,0.00
"Total lipid (fat)",g,--,--,0.00,0.00
"Carbohydrate, by difference",g,--,--,8.00,28.57
"Sugars, total",g,--,--,7.00,25.00
Minerals
"Sodium, Na",mg,--,--,125,446
Vitamins
Lipids
Amino Acids
Other
Ingredients
"CUCUMBERS, HIGH FRUCTOSE CORN SYRUP, VINEGAR, WATER, SALT, CALCIUM CHLORIDE, ALUM, 0.1% SODIUM BENZOATE (PRESERVATIVE), NATURAL FLAVORS, POLYSORBATE 80, AND YELLOW 5." Date available: 06/24/2017 Date last updated by company: 06/24/2017
