Source: USDA Branded Food Products Database Release December 2017 Software v.3.8.6.4 2017-10-02
Report Run at: December 18, 2017 05:03 EST
"Nutrient data for: 45157457, HARRIS TEETER, LIGHT, JUICE COCKTAIL FROM CONCENTRATE, CRANBERRY, UPC: 072036200952"
Food Group:  Branded Food Products Database
Common Name:

Nutrient,Unit,Data points,Std. Error,"8.0 OZA = 240.0g",1Value per 100 g,
Proximates
"Energy",kcal,--,--,41,17
"Protein",g,--,--,0.00,0.00
"Total lipid (fat)",g,--,--,0.00,0.00
"Carbohydrate, by difference",g,--,--,10.01,4.17
"Fiber, total dietary",g,--,--,0.0,0.0
"Sugars, total",g,--,--,7.01,2.92
Minerals
"Sodium, Na",mg,--,--,74,31
Vitamins
Lipids
Amino Acids
Other
Ingredients
"FILTERED WATER, CRANBERRY JUICE CONCENTRATE, FRUCTOSE, PECTIN, NATURAL FLAVORS, SODIUM CITRATE, ACESULFAME POTASSIUM, SUCRALOSE." Date available: 07/14/2017 Date last updated by company: 07/14/2017
