Source: USDA Branded Food Products Database Release December 2017 Software v.3.8.6.4 2017-10-02
Report Run at: December 18, 2017 04:57 EST
"Nutrient data for: 45004563, HARRIS TEETER, FLAVORED WITH MEAT, PASTA SAUCE, UPC: 072036986504"
Food Group:  Branded Food Products Database
Common Name:

Nutrient,Unit,Data points,Std. Error,"0.5 cup = 125.0g",1Value per 100 g,
Proximates
"Energy",kcal,--,--,90,72
"Protein",g,--,--,2.00,1.60
"Total lipid (fat)",g,--,--,3.00,2.40
"Carbohydrate, by difference",g,--,--,13.00,10.40
"Fiber, total dietary",g,--,--,2.0,1.6
"Sugars, total",g,--,--,10.00,8.00
Minerals
"Calcium, Ca",mg,--,--,20,16
"Iron, Fe",mg,--,--,0.76,0.61
"Sodium, Na",mg,--,--,570,456
Vitamins
"Vitamin C, total ascorbic acid",mg,--,--,2.5,2.0
"Vitamin A, IU",IU,--,--,529,423
Lipids
"Fatty acids, total saturated",g,--,--,0.000,0.000
"Fatty acids, total trans",g,--,--,0.000,0.000
"Cholesterol",mg,--,--,0,0
Amino Acids
Other
Ingredients
"TOMATO PUREE (WATER, TOMATO PASTE), DICED TOMATOES, SUGAR, CONTAINS 2% OR LESS OF BEEF, SOYBEAN OIL, SALT, SPICES, ONION POWDER, DEHYDRATED GARLIC, CITRIC ACID, NATURAL FLAVORING." Date available: 07/14/2017 Date last updated by company: 07/14/2017
