Source: USDA Branded Food Products Database Release December 2017 Software v.3.8.6.4 2017-10-02
Report Run at: December 18, 2017 04:58 EST
"Nutrient data for: 45003587, HARRIS TEETER, FRESH FOODS MARKET, TRICOLOR SIX CHEESE TORTELLINI, UPC: 072036952240"
Food Group:  Branded Food Products Database
Common Name:

Nutrient,Unit,Data points,Std. Error,"1 cup = 115.0g",1Value per 100 g,
Proximates
"Energy",kcal,--,--,340,296
"Protein",g,--,--,14.00,12.17
"Total lipid (fat)",g,--,--,6.00,5.22
"Carbohydrate, by difference",g,--,--,56.01,48.70
"Fiber, total dietary",g,--,--,3.0,2.6
"Sugars, total",g,--,--,1.00,0.87
Minerals
"Calcium, Ca",mg,--,--,60,52
"Iron, Fe",mg,--,--,5.47,4.76
"Sodium, Na",mg,--,--,440,383
Vitamins
"Vitamin C, total ascorbic acid",mg,--,--,0.0,0.0
"Vitamin A, IU",IU,--,--,0,0
Lipids
"Fatty acids, total saturated",g,--,--,2.495,2.170
"Fatty acids, total trans",g,--,--,0.000,0.000
"Cholesterol",mg,--,--,25,22
Amino Acids
Other
Ingredients
"PASTA: ENRICHED DURUM SEMOLINA (ENRICHED WITH NIACIN, FERROUS SULFATE, THIAMIN MONONITRATE, RIBOFLAVIN, FOLIC ACID), ENRICHED WHEAT FLOUR (ENRICHED WITH NIACIN, FERROUS SULFATE, THIAMIN MONONITRATE, RIBOFLAVIN, FOLIC ACID), WHOLE PASTEURIZED EGGS, WATER, SPINACH POWDER, TOMATO AND BEET POWDER. FILLING: CHEESE (RICOTTA, PARMESAN, MOZZARELLA, SWISS, PROVOLONE, ROMANO [PASTEURIZED COW'S MILK, WHEY, CHEESE CULTURES, SALT, POWDERED CELLULOSE, LIPASE, MICROBIAL ENZYME, BACTERIAL CULTURE, NATAMYCIN, CITRIC ACID]), TOASTED WHEAT CRUMBS (WHEAT FLOUR, YEAST), LIGHT CREAM (MILK, CREAM, DEXTROSE, SODIUM CITRATE, DISODIUM PHOSPHATE, CARRAGEENAN, LOCUST AND CAROB BEAN GUM), CANOLA OIL (CANOLA OIL, CITRIC ACID), SALT, SPICES, ENRICHED WHEAT FLOUR (ENRICHED WITH NIACIN, FERROUS SULFATE, THIAMIN MONONITRATE, RIBOFLAVIN, FOLIC ACID)." Date available: 07/14/2017 Date last updated by company: 07/14/2017
