Source: USDA Branded Food Products Database Release December 2017 Software v.3.8.6.4 2017-10-02
Report Run at: December 18, 2017 04:55 EST
"Nutrient data for: 45003928, HARRIS TEETER, DELI SHAVED SLICES SMOKED PASTRAMI, UPC: 072036610492"
Food Group:  Branded Food Products Database
Common Name:

Nutrient,Unit,Data points,Std. Error,"2.0 ONZ = 56.0g",1Value per 100 g,
Proximates
"Energy",kcal,--,--,90,161
"Protein",g,--,--,17.00,30.36
"Total lipid (fat)",g,--,--,2.00,3.57
"Carbohydrate, by difference",g,--,--,1.00,1.79
"Sugars, total",g,--,--,0.00,0.00
Minerals
"Iron, Fe",mg,--,--,1.42,2.53
"Sodium, Na",mg,--,--,400,714
Vitamins
Lipids
"Fatty acids, total saturated",g,--,--,1.501,2.680
"Fatty acids, total trans",g,--,--,0.000,0.000
"Cholesterol",mg,--,--,50,89
Amino Acids
Other
Ingredients
"BEEF, WATER, SALT, POTASSIUM LACTATE, SEASONING (SALT, GARLIC POWDER, BROWN SUGAR, SPICES, YEAST EXTRACT, ONION POWDER, MALTODEXTRIN, SOYBEAN OIL (PROCESSING AID), MODIFIED FOOD STARCH, VINEGAR SOLIDS, NATURAL FLAVORS), SODIUM DIACETATE, SODIUM PHOSPHATE, SODIUM ERYTHORBATE, SODIUM NITRITE, FLAVORING, COATED WITH CARAMEL COLOR." Date available: 06/25/2017 Date last updated by company: 06/25/2017
