Source: USDA Branded Food Products Database Release December 2017 Software v.3.8.6.4 2017-10-02
Report Run at: December 18, 2017 05:18 EST
"Nutrient data for: 45203152, HARVEST MEDLEY, UPC: 849896095161"
Food Group:  Branded Food Products Database
Common Name:

Nutrient,Unit,Data points,Std. Error,"0.5 cup = 70.0g",1Value per 100 g,
Proximates
"Energy",kcal,--,--,35,50
"Protein",g,--,--,1.00,1.43
"Total lipid (fat)",g,--,--,0.00,0.00
"Carbohydrate, by difference",g,--,--,9.00,12.86
"Fiber, total dietary",g,--,--,2.0,2.9
"Sugars, total",g,--,--,3.00,4.29
Minerals
"Calcium, Ca",mg,--,--,20,29
"Iron, Fe",mg,--,--,0.43,0.62
"Sodium, Na",mg,--,--,10,14
Vitamins
"Vitamin C, total ascorbic acid",mg,--,--,1.5,2.1
"Vitamin A, IU",IU,--,--,6072,8674
Lipids
"Fatty acids, total saturated",g,--,--,0.000,0.000
"Fatty acids, total trans",g,--,--,0.000,0.000
"Cholesterol",mg,--,--,0,0
Amino Acids
Other
Ingredients
"TURNIPS, YAMS, BUTTERNUT SQUASH" Date available: 07/14/2017 Date last updated by company: 07/14/2017
