Source: USDA Branded Food Products Database Release December 2017 Software v.3.8.6.4 2017-10-02
Report Run at: December 18, 2017 05:16 EST
"Nutrient data for: 45050407, HARVEST CREEK, CHICKEN POT PIE, UPC: 019722083024"
Food Group:  Branded Food Products Database
Common Name:

Nutrient,Unit,Data points,Std. Error,"1 BOWL = 227.0g",1Value per 100 g,
Proximates
"Energy",kcal,--,--,261,115
"Protein",g,--,--,12.01,5.29
"Total lipid (fat)",g,--,--,7.99,3.52
"Carbohydrate, by difference",g,--,--,33.01,14.54
"Fiber, total dietary",g,--,--,3.0,1.3
"Sugars, total",g,--,--,2.00,0.88
Minerals
"Calcium, Ca",mg,--,--,20,9
"Iron, Fe",mg,--,--,1.16,0.51
"Sodium, Na",mg,--,--,549,242
Vitamins
"Vitamin C, total ascorbic acid",mg,--,--,3.9,1.7
"Vitamin A, IU",IU,--,--,540,238
Lipids
"Fatty acids, total saturated",g,--,--,3.496,1.540
"Fatty acids, total trans",g,--,--,0.000,0.000
"Cholesterol",mg,--,--,30,13
Amino Acids
Other
Ingredients
"WATER, CHICKEN BREAST [CHICKEN BREAST, WATER, CONTAINS 2% OR LESS OF: MODIFIED FOOD STARCHES (TAPIOCA & CORN), SALT, AND SODIUM PHOSPHATES], POT PIE CRUST (BLEACHED ENRICHED FLOUR (WHEAT FLOUR, NIACIN, IRON, THIAMINE MONONITRATE, RIBOFLAVIN, FOLIC ACID), WATER, BUTTER, CONTAINS 2% OR LESS OF: NONFAT DRY MILK (MILK PROTEIN CONCENTRATE, NONFAT DRY MILK), SEA SALT, NATURAL FLAVOR), POTATO, ONION, CARROTS, CELERY, MODIFIED FOOD STARCH, CHICKEN BROTH (CHICKEN BROTH, FLAVORINGS, HYDROLYZED SOY PROTEIN, CARROTS, HYDROLYZED CORN PROTEIN, CELERY, ONION, SALT, CHICKEN FAT, SUGAR, DISODIUM GUANYLATE, MODIFIED POTATO STARCH AND AUTOLYZED YEAST EXTRACT), GREEN PEAS, RED PEPPERS, CHICKEN FAT WITH CHICKEN BROTH [CHICKEN FAT, CHICKEN BROTH, NATURAL FLAVOR (EXTRACT OF ROSEMARY)], MALTODEXTRIN, WHEAT FLOUR, NATURAL FLAVOR (SUNFLOWER OIL, POLYSORBATE 80, NATURAL FLAVOR), TORULA YEAST EXTRACT, SEA SALT [SEA SALT, NATURAL FLAVOR, SILICON DIOXIDE (ANTICAKING AGENT)], PARSLEY*, TURMERIC EXTRACT, GROUND WHITE PEPPER, ROSEMARY*, SODIUM METABISULFITE. * DEHYDRATED." Date available: 06/25/2017 Date last updated by company: 06/25/2017
