Source: USDA Branded Food Products Database Release December 2017 Software v.3.8.6.4 2017-10-02
Report Run at: December 18, 2017 05:21 EST
"Nutrient data for: 45324109, HASHTAG CHOCOLATE ICE CREAM, UPC: 078742181127"
Food Group:  Branded Food Products Database
Common Name:

Nutrient,Unit,Data points,Std. Error,"0.5 cup = 71.0g",1Value per 100 g,
Proximates
"Energy",kcal,--,--,160,225
"Protein",g,--,--,3.00,4.23
"Total lipid (fat)",g,--,--,7.00,9.86
"Carbohydrate, by difference",g,--,--,23.00,32.39
"Fiber, total dietary",g,--,--,1.0,1.4
"Sugars, total",g,--,--,18.00,25.35
Minerals
"Calcium, Ca",mg,--,--,80,113
"Iron, Fe",mg,--,--,1.21,1.71
"Potassium, K",mg,--,--,210,296
"Sodium, Na",mg,--,--,115,162
Vitamins
"Vitamin C, total ascorbic acid",mg,--,--,0.0,0.0
"Vitamin A, IU",IU,--,--,225,317
Lipids
"Fatty acids, total saturated",g,--,--,4.501,6.340
"Fatty acids, total monounsaturated",g,--,--,2.002,2.820
"Fatty acids, total polyunsaturated",g,--,--,0.000,0.000
"Fatty acids, total trans",g,--,--,0.000,0.000
"Cholesterol",mg,--,--,25,35
Amino Acids
Other
Ingredients
"MILK, CREAM, BUTTERMILK, WHEY, SUGAR, CHOCOLATE CARAMEL RIBBON (CORN SYRUP, WATER, SWEETENED CONDENSED SKIM MILK [SUGAR, WATER, NONFAT MILK SOLIDS], BUTTER [CREAM, SALT], COCOA PROCESSED WITH ALKALI, SUGAR, SALT, CARRAGEENAN, BAKING SODA), SEA SALT CARAMEL BASE (SUGAR, SWEETENED CONDENSED SKIM MILK [SKIM MILK, SUGAR, CORN SYRUP], WATER, BUTTER [CREAM, SALT], SEA SALT, CARAMEL COLOR, CARAMELIZED SUGAR, SOY LECITHIN), CANDY PIECE (MILK CHOCOLATE FLAVORED COATING [SUGAR, COCONUT OIL, COCOA PROCESSED WITH ALKALI, WHOLE MILK POWDER, NONFAT DRY MILK, SOY LECITHIN, NATURAL FLAVOR], SUGAR, CORN SYRUP, HONEY, BAKING SODA, SALT), SKIM MILK, CORN SYRUP, COCOA PROCESSED WITH ALKALI, CONTAINS 1% OR LESS OF CAROB BEAN GUM, GUAR GUM, CARRAGEENAN, MONO & DIGLYCERIDES, CELLULOSE GEL, CELLULOSE GUM." Date available: 08/10/2017 Date last updated by company: 08/10/2017
