Source: USDA Branded Food Products Database Release December 2017 Software v.3.8.6.4 2017-10-02
Report Run at: December 18, 2017 05:23 EST
"Nutrient data for: 45272762, HATCH GREEN CHILE SEASONED, UPC: 077782003314"
Food Group:  Branded Food Products Database
Common Name:

Nutrient,Unit,Data points,Std. Error,"1 PATTY = 113.0g",1Value per 100 g,
Proximates
"Energy",kcal,--,--,360,319
"Protein",g,--,--,19.00,16.81
"Total lipid (fat)",g,--,--,29.00,25.66
"Carbohydrate, by difference",g,--,--,4.00,3.54
"Fiber, total dietary",g,--,--,0.0,0.0
"Sugars, total",g,--,--,0.99,0.88
Minerals
"Calcium, Ca",mg,--,--,80,71
"Iron, Fe",mg,--,--,0.54,0.48
"Sodium, Na",mg,--,--,870,770
Vitamins
"Vitamin C, total ascorbic acid",mg,--,--,0.0,0.0
"Vitamin A, IU",IU,--,--,75,66
Lipids
"Fatty acids, total saturated",g,--,--,10.995,9.730
"Fatty acids, total trans",g,--,--,0.000,0.000
"Cholesterol",mg,--,--,80,71
Amino Acids
Other
Ingredients
"PORK, WATER, CORN SYRUP, AND LESS THAN 2% OF THE FOLLOWING: SALT, DEXTROSE, SPICES, HATCH GREEN CHILE PEPPER, CHILE PEPPER, NATURAL FLAVOR, BHA, PROPYL GALLATE, CITRIC ACID." Date available: 09/07/2017 Date last updated by company: 09/07/2017
