Source: USDA Branded Food Products Database Release December 2017 Software v.3.8.6.4 2017-10-02
Report Run at: December 18, 2017 05:24 EST
"Nutrient data for: 45229249, HAVARTI CHEESE SLICES, UPC: 021130046027"
Food Group:  Branded Food Products Database
Common Name:

Nutrient,Unit,Data points,Std. Error,"1 SLICE = 21.0g",1Value per 100 g,
Proximates
"Energy",kcal,--,--,90,429
"Protein",g,--,--,4.00,19.05
"Total lipid (fat)",g,--,--,8.00,38.10
"Carbohydrate, by difference",g,--,--,0.00,0.00
"Fiber, total dietary",g,--,--,0.0,0.0
"Sugars, total",g,--,--,0.00,0.00
Minerals
"Calcium, Ca",mg,--,--,100,476
"Iron, Fe",mg,--,--,0.00,0.00
"Sodium, Na",mg,--,--,160,762
Vitamins
"Vitamin C, total ascorbic acid",mg,--,--,0.0,0.0
"Vitamin A, IU",IU,--,--,714,3402
Lipids
"Fatty acids, total saturated",g,--,--,5.000,23.810
"Fatty acids, total trans",g,--,--,0.000,0.000
"Cholesterol",mg,--,--,25,119
Amino Acids
Other
Ingredients
"PASTEURIZED MILK, CHEESE CULTURE, SALT, ENZYMES." Date available: 07/14/2017 Date last updated by company: 07/14/2017
