Source: USDA Branded Food Products Database Release December 2017 Software v.3.8.6.4 2017-10-02
Report Run at: December 18, 2017 05:28 EST
"Nutrient data for: 45250607, HAWAIIAN PUNCH, ALOHA MORNING, JUICE DRINKS, ORANGE CITRUS, UPC: 014800003741"
Food Group:  Branded Food Products Database
Common Name:

Nutrient,Unit,Data points,Std. Error,"1 POUCH = 177.0g",1Value per 100 g,
Proximates
"Energy",kcal,--,--,41,23
"Protein",g,--,--,0.00,0.00
"Total lipid (fat)",g,--,--,0.00,0.00
"Carbohydrate, by difference",g,--,--,10.00,5.65
"Sugars, total",g,--,--,10.00,5.65
Minerals
"Sodium, Na",mg,--,--,85,48
Vitamins
"Vitamin C, total ascorbic acid",mg,--,--,65.1,36.8
"Vitamin A, IU",IU,--,--,407,230
Lipids
Amino Acids
Other
Ingredients
"WATER, HIGH FRUCTOSE CORN SYRUP, AND LESS THAN 2% OF: CONCENTRATED JUICES (APPLE, ORANGE), ASCORBIC ACID (VITAMIN C), ALPHA TOCOPHERYL ACETATE (VITAMIN E), VITAMIN A PALMITATE, CITRIC ACID, NATURAL FLAVORS, PECTIN, CANOLA OIL, MODIFIED CORN STARCH, YELLOW 5, YELLOW 6, SUCRALOSE, SUCROSE ACETATE ISOBUTYRATE, SODIUM CITRATE, POTASSIUM SORBATE AND SODIUM HEXAMETAPHOSPHATE (PRESERVATIVES), CALCIUM DISODIUM EDTA (TO PROTECT COLOR)." Date available: 08/30/2017 Date last updated by company: 08/30/2017
