Source: USDA Branded Food Products Database Release December 2017 Software v.3.8.6.4 2017-10-02
Report Run at: December 18, 2017 05:26 EST
"Nutrient data for: 45122404, HAWAIIAN, CRISPY & CRUNCHY KETTLE STYLE POTATO CHIPS, SWEET MAUI ONION, UPC: 011594160063"
Food Group:  Branded Food Products Database
Common Name:

Nutrient,Unit,Data points,Std. Error,"13.0 CHIPS = 28.0g",1Value per 100 g,
Proximates
"Energy",kcal,--,--,140,500
"Protein",g,--,--,1.00,3.57
"Total lipid (fat)",g,--,--,9.00,32.14
"Carbohydrate, by difference",g,--,--,15.00,53.57
"Fiber, total dietary",g,--,--,1.0,3.6
"Sugars, total",g,--,--,2.00,7.14
Minerals
"Calcium, Ca",mg,--,--,20,71
"Iron, Fe",mg,--,--,0.64,2.29
"Sodium, Na",mg,--,--,120,429
Vitamins
"Vitamin C, total ascorbic acid",mg,--,--,8.6,30.6
"Vitamin A, IU",IU,--,--,0,0
Lipids
"Fatty acids, total saturated",g,--,--,1.999,7.140
"Fatty acids, total trans",g,--,--,0.000,0.000
"Cholesterol",mg,--,--,0,0
Amino Acids
Other
Ingredients
"POTATOES, VEGETABLE OIL (CORN OIL OR SUNFLOWER OIL), DEXTROSE, ONION POWDER, WHEY POWDER, SUGAR,SALT, HYDROLYZED SOY, CORN GLUTEN & WHEAT GLUTEN PROTEINS, MALTODEXTRIN, TORULA YEAST, MALIC ACID, GARLIC POWDER, NATURAL FLAVOR, ROMANO CHEESE (MILK, CHEESE CULTURES, SALT, ENZYMES), DISODIUM INOSINATE & DISODIUM GUANYLATE, SPICES." Date available: 07/14/2017 Date last updated by company: 07/14/2017
