Source: USDA Branded Food Products Database Release December 2017 Software v.3.8.6.4 2017-10-02
Report Run at: December 18, 2017 05:30 EST
"Nutrient data for: 45222340, HAWAIIAN STYLE TURKEY PATTIES, UPC: 5051379078904"
Food Group:  Branded Food Products Database
Common Name:

Nutrient,Unit,Data points,Std. Error,"1 CONTAINER = 113.0g",1Value per 100 g,
Proximates
"Energy",kcal,--,--,160,142
"Protein",g,--,--,18.00,15.93
"Total lipid (fat)",g,--,--,6.00,5.31
"Carbohydrate, by difference",g,--,--,8.00,7.08
"Fiber, total dietary",g,--,--,0.0,0.0
"Sugars, total",g,--,--,6.99,6.19
Minerals
"Calcium, Ca",mg,--,--,0,0
"Iron, Fe",mg,--,--,1.08,0.96
"Sodium, Na",mg,--,--,250,221
Vitamins
"Vitamin C, total ascorbic acid",mg,--,--,18.1,16.0
"Vitamin A, IU",IU,--,--,0,0
Lipids
"Fatty acids, total saturated",g,--,--,1.503,1.330
"Fatty acids, total trans",g,--,--,0.000,0.000
"Cholesterol",mg,--,--,50,44
Amino Acids
Other
Ingredients
"GROUND TURKEY (TURKEY, NATURAL FLAVOR), PINEAPPLES, SESAME TERIYAKI SEASONING {SUGAR, SOY SAUCE POWDER [NATURALLY BREWED SOY SAUCE (SOYBEANS, WHEAT, SALT), DEXTRIN, SALT], SESAME SEEDS, SHERRY WINE POWDER [NATURAL FLAVOR, MALTODEXTRIN, CONTAINS SULFITES], ONION POWDER, GARLIC POWDER, CARMEL COLOR, SESAME OIL, SPICE EXTRACTIVES}." Date available: 08/21/2017 Date last updated by company: 08/21/2017
