Source: USDA Branded Food Products Database Release December 2017 Software v.3.8.6.4 2017-10-02
Report Run at: December 18, 2017 05:30 EST
"Nutrient data for: 45220850, HAWAIIAN STYLE SESAME GINGER DRESSING, UPC: 708820684058"
Food Group:  Branded Food Products Database
Common Name:

Nutrient,Unit,Data points,Std. Error,"2.0 cup = 100.0g",1Value per 100 g,
Proximates
"Energy",kcal,--,--,90,90
"Protein",g,--,--,7.00,7.00
"Total lipid (fat)",g,--,--,3.00,3.00
"Carbohydrate, by difference",g,--,--,9.00,9.00
"Fiber, total dietary",g,--,--,1.0,1.0
"Sugars, total",g,--,--,7.00,7.00
Minerals
"Calcium, Ca",mg,--,--,80,80
"Iron, Fe",mg,--,--,0.36,0.36
"Sodium, Na",mg,--,--,250,250
Vitamins
"Vitamin C, total ascorbic acid",mg,--,--,12.0,12.0
"Vitamin A, IU",IU,--,--,625,625
Lipids
"Fatty acids, total saturated",g,--,--,1.500,1.500
"Fatty acids, total trans",g,--,--,0.000,0.000
"Cholesterol",mg,--,--,20,20
Amino Acids
Other
Ingredients
"ROMAINE LETTUCE, DRESSING (WATER, SUGAR, SOY SAUCE (WATER, WHEAT, SOYBEANS, SALT, LACTIC ACID), RICE VINEGAR, GINGER PUREE (GINGER, VINEGAR, XANTHAN GUM), MODIFIED CORN STARCH, CANOLA OIL, SESAME SEEDS, XANTHAN GUM, SESAME OIL, DRIED GARLIC, DRIED ONION), PINEAPPLE, MARINATED BONELESS SKINLESS CHICKEN BREAST STRIPS WITH RIB MEAT (CHICKEN, WATER, CULTURED CORN SUGAR AND VINEGAR, SEASONING [MALTODEXTRIN, SALT, MODIFIED CORN STARCH, GRILL FLAVOR (FROM PARTIALLY HYDROGENATED SOYBEAN/COTTONSEED OIL), ONION POWDER, GARLIC POWDER, XANTHAN GUM, NATURAL SMOKE FLAVOR], GRILL SEASONING [MALTODEXTRIN, SALT, HYDROLYZED SOY PROTEIN, MUSTARD, GRILL FLAVOR (FROM SUNFLOWER OIL), ONION POWDER, GARLIC POWDER, SPICE, CARAMEL COLOR, NATURAL FLAVOR (INCLUDING SMOKE FLAVOR)], SODIUM PHOSPHATES, SALT), CHEDDAR CHEESE (CULTURED PASTEURIZED MILK, SALT, ENZYMES, ANNATTO COLOR, ANTICAKE [POTATO STARCH, CORN STARCH, AND POWDERED CELLULOSE], NATAMYCIN [MOLD INHIBITOR]), SUGAR SNAP PEAS, SLICED RED ONION, DICED RED PEPPER." Date available: 07/14/2017 Date last updated by company: 07/14/2017
