Source: USDA Branded Food Products Database Release December 2017 Software v.3.8.6.4 2017-10-02
Report Run at: December 18, 2017 05:29 EST
"Nutrient data for: 45264200, HAWAIIAN ROLLS, UPC: 072220005431"
Food Group:  Branded Food Products Database
Common Name:

Nutrient,Unit,Data points,Std. Error,"1 ROLL = 38.0g",1Value per 100 g,
Proximates
"Energy",kcal,--,--,100,263
"Protein",g,--,--,3.00,7.89
"Total lipid (fat)",g,--,--,2.00,5.26
"Carbohydrate, by difference",g,--,--,18.00,47.37
"Fiber, total dietary",g,--,--,1.0,2.6
"Sugars, total",g,--,--,3.00,7.89
Minerals
"Calcium, Ca",mg,--,--,150,395
"Iron, Fe",mg,--,--,1.42,3.74
"Sodium, Na",mg,--,--,170,447
Vitamins
"Vitamin C, total ascorbic acid",mg,--,--,0.0,0.0
"Thiamin",mg,--,--,0.380,1.000
"Riboflavin",mg,--,--,0.136,0.358
"Niacin",mg,--,--,2.106,5.542
"Vitamin A, IU",IU,--,--,0,0
Lipids
"Fatty acids, total saturated",g,--,--,0.502,1.320
"Fatty acids, total monounsaturated",g,--,--,0.000,0.000
"Fatty acids, total polyunsaturated",g,--,--,0.502,1.320
"Fatty acids, total trans",g,--,--,0.000,0.000
"Cholesterol",mg,--,--,5,13
Amino Acids
Other
Ingredients
"ENRICHED UNBLEACHED WHEAT FLOUR (WHEAT FLOUR, MALTED BARLEY FLOUR, NIACIN, REDUCED IRON, THIAMIN MONONITRATE, RIBOFLAVIN AND FOLIC ACID), WATER, SUGAR, YEAST, SALTED BUTTER, CONTAINS 2% OR LESS OF EACH OF THE FOLLOWING: VITAL WHEAT GLUTEN, NONFAT DRY MILK, POWDERED WHOLE EGG, VEGETABLE OIL (CANOLA AND/OR SOY), SALT, YEAST NUTRIENT (AMMONIUM SULFATE), DOUGH CONDITIONERS (SODIUM STEAROYL LACTYLATE ASCORBIC ACID, MONOCALCIUM PHOSPHATE), GUAR GUM, SUCRALOSE, CALCIUM SULFATE, ENZYMES, CALCIUM PROPIONATE (MOLD INHIBITOR), YELLOW CORN FLOUR, TURMERIC & ANNATTO (WHICH IMPART COLOR), MODIFIED FOOD STARCH." Date available: 07/14/2017 Date last updated by company: 07/14/2017
