Source: USDA Branded Food Products Database Release December 2017 Software v.3.8.6.4 2017-10-02
Report Run at: December 18, 2017 05:26 EST
"Nutrient data for: 45179041, HAWAIIAN BREAD, UPC: 733599025139"
Food Group:  Branded Food Products Database
Common Name:

Nutrient,Unit,Data points,Std. Error,"1 ROLL = 38.0g",1Value per 100 g,
Proximates
"Energy",kcal,--,--,110,289
"Protein",g,--,--,3.00,7.89
"Total lipid (fat)",g,--,--,0.50,1.32
"Carbohydrate, by difference",g,--,--,22.00,57.89
"Fiber, total dietary",g,--,--,1.0,2.6
"Sugars, total",g,--,--,4.00,10.53
Minerals
"Calcium, Ca",mg,--,--,20,53
"Iron, Fe",mg,--,--,1.42,3.74
"Sodium, Na",mg,--,--,110,289
Vitamins
"Vitamin C, total ascorbic acid",mg,--,--,1.6,4.2
"Vitamin A, IU",IU,--,--,0,0
Lipids
"Fatty acids, total saturated",g,--,--,0.000,0.000
"Fatty acids, total trans",g,--,--,0.000,0.000
"Cholesterol",mg,--,--,5,13
Amino Acids
Other
Ingredients
"ENRICHED BLEACHED WHEAT FLOUR (BLEACHED WHEAT FLOUR, MALTED BARLEY FLOUR, NIACIN, IRON, THIAMIN MONONITRATE, RIBOFLAVIN, FOLIC ACID), WATER, SUGAR, MILK, WHOLE EGGS, BUTTER (PASTEURIZED CREAM), CONTAINS 2% OR LESS OF THE FOLLOWING: YEAST, SALT, DOUGH CONDITIONERS (SODIUM STEAROYL LACTYLATE, DISTILLED MONOGLYCERIDE, ENZYME, ASCORBIC ACID), NATURAL AND ARTIFICIAL FLAVOR, CALCIUM PROPIONATE (AS PRESERVATIVE)" Date available: 10/10/2017 Date last updated by company: 10/10/2017
