Source: USDA Branded Food Products Database Release December 2017 Software v.3.8.6.4 2017-10-02
Report Run at: December 18, 2017 05:35 EST
"Nutrient data for: 45328119, HAZELNUT SPREAD, UPC: 035826081544"
Food Group:  Branded Food Products Database
Common Name:

Nutrient,Unit,Data points,Std. Error,"2.0 Tbsp = 37.0g",1Value per 100 g,
Proximates
"Energy",kcal,--,--,210,568
"Protein",g,--,--,2.00,5.41
"Total lipid (fat)",g,--,--,14.00,37.84
"Carbohydrate, by difference",g,--,--,19.00,51.35
"Fiber, total dietary",g,--,--,1.0,2.7
"Sugars, total",g,--,--,18.00,48.65
Minerals
"Calcium, Ca",mg,--,--,40,108
"Iron, Fe",mg,--,--,1.95,5.26
Vitamins
Lipids
"Fatty acids, total saturated",g,--,--,3.001,8.110
Amino Acids
Other
Ingredients
"SUGAR, VEGETABLE OIL (CANOLA, PALM), HAZELNUTS (13%), COCOA, SKIM MILK POWDER, EMULSIFIER (SUNFLOWER LECITHIN), ARTIFICIAL FLAVOR." Date available: 09/27/2017 Date last updated by company: 09/27/2017
