Source: USDA Branded Food Products Database Release December 2017 Software v.3.8.6.4 2017-10-02
Report Run at: December 18, 2017 05:34 EST
"Nutrient data for: 45252642, HAZELNUT MILK CHOCOLATE, UPC: 817944010459"
Food Group:  Branded Food Products Database
Common Name:

Nutrient,Unit,Data points,Std. Error,"1 ONZ = 29.0g",1Value per 100 g,
Proximates
"Energy",kcal,--,--,150,517
"Protein",g,--,--,2.00,6.90
"Total lipid (fat)",g,--,--,9.00,31.03
"Carbohydrate, by difference",g,--,--,16.00,55.17
"Fiber, total dietary",g,--,--,1.0,3.4
"Sugars, total",g,--,--,14.00,48.28
Minerals
"Calcium, Ca",mg,--,--,40,138
"Iron, Fe",mg,--,--,1.86,6.42
"Sodium, Na",mg,--,--,210,724
Vitamins
"Vitamin C, total ascorbic acid",mg,--,--,0.0,0.0
"Vitamin A, IU",IU,--,--,0,0
Lipids
"Fatty acids, total saturated",g,--,--,5.000,17.240
"Fatty acids, total trans",g,--,--,0.000,0.000
"Cholesterol",mg,--,--,5,17
Amino Acids
Other
Ingredients
"MILK CHOCOLATE (PURE CANE SUGAR, MILK, CACAO BUTTER, CACAO BEANS, SOY LECITHIN, VANILLA BEANS), CARAMELIZED HAZELNUT BITS (HAZELNUTS, SUGAR), SEA SALT" Date available: 07/14/2017 Date last updated by company: 07/14/2017
