Source: USDA Branded Food Products Database Release December 2017 Software v.3.8.6.4 2017-10-02
Report Run at: December 18, 2017 05:35 EST
"Nutrient data for: 45313958, HAZELNUT SPREAD, UPC: 021130265466"
Food Group:  Branded Food Products Database
Common Name:

Nutrient,Unit,Data points,Std. Error,"2.0 Tbsp = 37.0g",1Value per 100 g,
Proximates
"Energy",kcal,--,--,200,541
"Protein",g,--,--,2.00,5.41
"Total lipid (fat)",g,--,--,11.00,29.73
"Carbohydrate, by difference",g,--,--,22.00,59.46
"Fiber, total dietary",g,--,--,1.0,2.7
"Sugars, total",g,--,--,21.00,56.76
Minerals
"Calcium, Ca",mg,--,--,40,108
"Iron, Fe",mg,--,--,0.48,1.31
"Sodium, Na",mg,--,--,15,41
Vitamins
"Vitamin C, total ascorbic acid",mg,--,--,0.0,0.0
"Vitamin A, IU",IU,--,--,0,0
Lipids
"Fatty acids, total saturated",g,--,--,4.000,10.810
"Fatty acids, total monounsaturated",g,--,--,4.999,13.510
"Fatty acids, total polyunsaturated",g,--,--,2.002,5.410
"Fatty acids, total trans",g,--,--,0.000,0.000
"Cholesterol",mg,--,--,0,0
Amino Acids
Other
Ingredients
"SUGAR, PALM OIL, HAZELNUTS, COCOA POWDER, SKIM MILK POWDER, WHEY POWDER, LACTOSE, SUNFLOWER LECITHIN (EMULSIFIER), NATURAL VANILLA FLAVOR." Date available: 07/14/2017 Date last updated by company: 07/14/2017
