Source: USDA Branded Food Products Database Release December 2017 Software v.3.8.6.4 2017-10-02
Report Run at: December 18, 2017 05:37 EST
"Nutrient data for: 45123506, HEALTH VALLEY, GLUTEN FREE CAFE, CREAM OF MUSHROOM SOUP, UPC: 070795035648"
Food Group:  Branded Food Products Database
Common Name:

Nutrient,Unit,Data points,Std. Error,"1 cup = 240.0g",1Value per 100 g,
Proximates
"Energy",kcal,--,--,110,46
"Protein",g,--,--,1.99,0.83
"Total lipid (fat)",g,--,--,6.00,2.50
"Carbohydrate, by difference",g,--,--,13.01,5.42
"Fiber, total dietary",g,--,--,1.9,0.8
"Sugars, total",g,--,--,0.00,0.00
Minerals
"Calcium, Ca",mg,--,--,250,104
"Iron, Fe",mg,--,--,4.58,1.91
"Sodium, Na",mg,--,--,730,304
Vitamins
"Vitamin C, total ascorbic acid",mg,--,--,1.2,0.5
"Thiamin",mg,--,--,0.000,0.000
"Riboflavin",mg,--,--,0.341,0.142
"Niacin",mg,--,--,4.085,1.702
"Vitamin A, IU",IU,--,--,101,42
"Vitamin D",IU,--,--,79,33
Lipids
"Fatty acids, total saturated",g,--,--,3.000,1.250
"Fatty acids, total trans",g,--,--,0.000,0.000
"Cholesterol",mg,--,--,14,6
Amino Acids
Other
Ingredients
"FILTERED WATER, PORTOBELLO MUSHROOMS, CREAM (MILK), RICE FLOUR, MUSHROOM CONCENTRATE (INCLUDES MUSHROOMS, SOY SAUCE [SOYBEANS, MALTODEXTRIN], MUSHROOM POWDER, BUTTER [CREAM, LACTIC ACID], MOLASSES, YEAST EXTRACT, POTATO FLOUR), ENRICHED RICE FLOUR (CONTAINS CALCIUM PHOSPHATE, IRON [FERRIC ORTHOPHOSPHATE], NIACINAMIDE, FOLIC ACID, VITAMIN D3, THIAMINE MONONITRATE, RIBOFLAVIN), SEA SALT, RICE STARCH, INULIN, NATURAL FLAVORS (INCLUDES AUTOLYZED YEAST EXTRACT), EXPELLER PRESSED CANOLA OIL, ONION POWDER, SPICES." Date available: 07/14/2017 Date last updated by company: 07/14/2017
