Source: USDA Branded Food Products Database Release December 2017 Software v.3.8.6.4 2017-10-02
Report Run at: December 18, 2017 05:41 EST
"Nutrient data for: 45134954, HEALTHY CHOICE Fudge Bars, UNPREPARED, GTIN: 00094643417271"
Food Group:  Branded Food Products Database
Common Name:

Nutrient,Unit,Data points,Std. Error,"1 bar (76g) = 76.0g",1Value per 100 g,
Proximates
"Energy",kcal,--,--,100,132
"Protein",g,--,--,5.00,6.58
"Total lipid (fat)",g,--,--,1.50,1.97
"Carbohydrate, by difference",g,--,--,17.00,22.37
"Fiber, total dietary",g,--,--,5.0,6.6
"Sugars, total",g,--,--,5.00,6.58
Minerals
"Calcium, Ca",mg,--,--,150,197
"Iron, Fe",mg,--,--,0.72,0.95
"Potassium, K",mg,--,--,240,316
"Sodium, Na",mg,--,--,55,72
Vitamins
"Vitamin C, total ascorbic acid",mg,--,--,6.0,7.9
"Vitamin A, IU",IU,--,--,500,658
Lipids
"Fatty acids, total saturated",g,--,--,1.003,1.320
"Fatty acids, total monounsaturated",g,--,--,0.502,0.660
"Fatty acids, total polyunsaturated",g,--,--,0.000,0.000
"Fatty acids, total trans",g,--,--,0.000,0.000
"Cholesterol",mg,--,--,5,7
Amino Acids
Other
Ingredients
"Milk, Condensed Skim Milk, Water, Polydextrose, Sorbitol*, Cocoa (Processed with Alkali), Milk Protein Concentrate, Contains less than 2% of: Stabilizer (Maltodextrin, Whey, Locust Bean Gum, Cellulose Gum, Mono- & Diglycerides, Guar Gum, Starch, Polysorbate 80, Carrageenan), Glycerine, Whey Protein Concentrate, Aspartame, Mono- and Diglycerides, Vitamin A Palmitate, Natural and Artificial Vanilla Flavor. CONTAINS: MILK" Date available: 10/12/2017 Date last updated by company: 10/12/2017
