Source: USDA Branded Food Products Database Release December 2017 Software v.3.8.6.4 2017-10-02
Report Run at: December 18, 2017 05:44 EST
"Nutrient data for: 45205747, HEALTHY FOOD, CREAMY HATCH CHILE SAUCE, UPC: 804879557784"
Food Group:  Branded Food Products Database
Common Name:

Nutrient,Unit,Data points,Std. Error,"0.5 ONZ = 14.0g",1Value per 100 g,
Proximates
"Energy",kcal,--,--,20,143
"Protein",g,--,--,0.00,0.00
"Total lipid (fat)",g,--,--,1.50,10.71
"Carbohydrate, by difference",g,--,--,2.00,14.29
Minerals
"Sodium, Na",mg,--,--,40,286
Vitamins
"Vitamin C, total ascorbic acid",mg,--,--,1.2,8.6
"Vitamin A, IU",IU,--,--,100,714
Lipids
Amino Acids
Other
Ingredients
"COCONUT MILK* (WATER. COCONUT MILK POWDER*, TAPIOCA MALTODEXTRIN*), ROASTED HATCH PEPPERS*, ONION*, LIME JUICE*, CILANTRO*, GARLIC*, BROWN SUGAR*, MUSTARD POWDER*, SALT, CITRIC ACID, GUAR GUM*" Date available: 07/14/2017 Date last updated by company: 07/14/2017
