Source: USDA Branded Food Products Database Release December 2017 Software v.3.8.6.4 2017-10-02
Report Run at: December 18, 2017 05:45 EST
"Nutrient data for: 45221440, HEALTHY MIX, UPC: 727915115390"
Food Group:  Branded Food Products Database
Common Name:

Nutrient,Unit,Data points,Std. Error,"1 ONZ = 28.35g",1Value per 100 g,
Proximates
"Energy",kcal,--,--,140,494
"Protein",g,--,--,3.00,10.58
"Total lipid (fat)",g,--,--,8.00,28.22
"Carbohydrate, by difference",g,--,--,15.00,52.91
"Fiber, total dietary",g,--,--,2.0,7.1
"Sugars, total",g,--,--,8.00,28.22
Minerals
"Calcium, Ca",mg,--,--,20,71
"Iron, Fe",mg,--,--,1.27,4.48
"Sodium, Na",mg,--,--,15,53
Vitamins
"Vitamin C, total ascorbic acid",mg,--,--,0.0,0.0
"Vitamin A, IU",IU,--,--,0,0
Lipids
"Fatty acids, total saturated",g,--,--,1.001,3.530
"Fatty acids, total trans",g,--,--,0.000,0.000
"Cholesterol",mg,--,--,0,0
Amino Acids
Other
Ingredients
"GOLDEN RAISINS, APRICOTS, HULLED SUNFLOWER SEEDS, BRAZIL NUTS, HULLED PUMPKIN SEEDS, CASHEWS." Date available: 07/14/2017 Date last updated by company: 07/14/2017
