Source: USDA Branded Food Products Database Release December 2017 Software v.3.8.6.4 2017-10-02
Report Run at: December 18, 2017 05:40 EST
"Nutrient data for: 45134668, HEALTHY CHOICE Chicken Broccoli Alfredo, UNPREPARED, GTIN: 00072655001244"
Food Group:  Branded Food Products Database
Common Name:

Nutrient,Unit,Data points,Std. Error,"1 Meal (259g) = 259.0g",1Value per 100 g,
Proximates
"Energy",kcal,--,--,189,73
"Protein",g,--,--,26.99,10.42
"Total lipid (fat)",g,--,--,5.00,1.93
"Carbohydrate, by difference",g,--,--,8.00,3.09
"Fiber, total dietary",g,--,--,3.9,1.5
"Sugars, total",g,--,--,1.99,0.77
Minerals
"Calcium, Ca",mg,--,--,80,31
"Iron, Fe",mg,--,--,0.73,0.28
"Potassium, K",mg,--,--,1181,456
"Sodium, Na",mg,--,--,601,232
Vitamins
"Vitamin C, total ascorbic acid",mg,--,--,24.1,9.3
"Vitamin A, IU",IU,--,--,300,116
"Vitamin D",IU,--,--,0,0
Lipids
"Fatty acids, total saturated",g,--,--,1.994,0.770
"Fatty acids, total monounsaturated",g,--,--,1.994,0.770
"Fatty acids, total polyunsaturated",g,--,--,1.010,0.390
"Fatty acids, total trans",g,--,--,0.000,0.000
"Cholesterol",mg,--,--,85,33
Amino Acids
Other
Ingredients
"BROCCOLI. SEASONED COOKED CHICKEN (CHICKEN BREAST, WATER, SUGAR, OLIVE OIL, ISOLATED SOY PROTEIN, POTASSIUM CHLORIDE, SEA SALT, NATURAL FLAVORING). ALFREDO SAUCE (WATER, PARMESAN CHEESE [PASTEURIZED MILK, CHEESE CULTURES, SALT, ENZYMES], ROMANO CHEESE MADE FROM COW'S MILK [PART SKIM MILK, CHEESE CULTURES, SALT, ENZYMES], CORN STARCH, CREAM, CONTAINS 2% OR LESS OF: WHEY PROTEIN CONCENTRATE, POTASSIUM CHLORIDE, SEA SALT, FLAVORINGS, BUTTER [CREAM, SALT], LOCUST BEAN GUM). CONTAINS: MILK, SOY." Date available: 10/23/2017 Date last updated by company: 10/22/2017
