Source: USDA Branded Food Products Database Release December 2017 Software v.3.8.6.4 2017-10-02
Report Run at: December 18, 2017 05:36 EST
"Nutrient data for: 45134900, HEALHTY CHOICE Greek Cherry Chocolate Yogurt Cup, UNPREPARED, GTIN: 00072655408104"
Food Group:  Branded Food Products Database
Common Name:

Nutrient,Unit,Data points,Std. Error,"4.0 FL OZ (71.5g) = 71.5g",1Value per 100 g,
Proximates
"Energy",kcal,--,--,110,154
"Protein",g,--,--,4.00,5.59
"Total lipid (fat)",g,--,--,2.50,3.50
"Carbohydrate, by difference",g,--,--,20.00,27.97
"Fiber, total dietary",g,--,--,1.0,1.4
"Sugars, total",g,--,--,12.00,16.78
Minerals
"Calcium, Ca",mg,--,--,100,140
"Iron, Fe",mg,--,--,0.00,0.00
"Potassium, K",mg,--,--,125,175
"Sodium, Na",mg,--,--,40,56
Vitamins
"Vitamin C, total ascorbic acid",mg,--,--,1.2,1.7
"Vitamin A, IU",IU,--,--,0,0
Lipids
"Fatty acids, total saturated",g,--,--,1.001,1.400
"Fatty acids, total monounsaturated",g,--,--,1.502,2.100
"Fatty acids, total polyunsaturated",g,--,--,0.000,0.000
"Fatty acids, total trans",g,--,--,0.000,0.000
"Cholesterol",mg,--,--,10,14
Amino Acids
Other
Ingredients
"Nonfat Milk, Cultured Nonfat Milk, Sugar, Cherries, Cream, Water, Polydextrose, Maltodextrin, Milk Protein Concentrate, Lactitol, Contains less than 2% of the following: Evaporated Milk, Modified Corn Starch, Gelatin, Dextrose, Natural Flavor, Cellulose Gel, Citric Acid, Propylene Glycol Monoesters, Cocoa (Processed with Alkali), Mono- and Diglycerides, Cocoa, Cellulose Gum, Carrageenan, Chocolate, Potassium Sorbate (Preservative), Salt, Sucralose, Calcium Phosphate. CONTAINS MILK" Date available: 10/12/2017 Date last updated by company: 10/12/2017
