Source: USDA Branded Food Products Database Release December 2017 Software v.3.8.6.4 2017-10-02
Report Run at: December 18, 2017 05:42 EST
"Nutrient data for: 45134878, HEALTHY CHOICE Portabella Marsala Pasta, UNPREPARED, GTIN: 00072655405967"
Food Group:  Branded Food Products Database
Common Name:

Nutrient,Unit,Data points,Std. Error,"1 Meal (255g) = 255.0g",1Value per 100 g,
Proximates
"Energy",kcal,--,--,230,90
"Protein",g,--,--,9.00,3.53
"Total lipid (fat)",g,--,--,5.00,1.96
"Carbohydrate, by difference",g,--,--,36.01,14.12
"Fiber, total dietary",g,--,--,5.1,2.0
"Sugars, total",g,--,--,3.01,1.18
Minerals
"Calcium, Ca",mg,--,--,61,24
"Iron, Fe",mg,--,--,1.43,0.56
"Potassium, K",mg,--,--,411,161
"Sodium, Na",mg,--,--,599,235
Vitamins
"Vitamin C, total ascorbic acid",mg,--,--,0.0,0.0
"Vitamin A, IU",IU,--,--,0,0
Lipids
"Fatty acids, total saturated",g,--,--,1.504,0.590
"Fatty acids, total monounsaturated",g,--,--,0.995,0.390
"Fatty acids, total polyunsaturated",g,--,--,1.989,0.780
"Fatty acids, total trans",g,--,--,0.000,0.000
"Cholesterol",mg,--,--,5,2
Amino Acids
Other
Ingredients
"Cooked Pasta (Water, Whole Grain Wheat Flour [Ultragrain®], Durum Wheat Semolina, Soybean Oil, Egg White), Water, Baby Portabella Mushrooms, Contains 2% Or Less Of: Parmesan Cheese (Part Skim Milk, Cheese Culture, Salt, Enzymes), Marsala Wine, Corn Starch, Garlic Puree (Garlic, Dried Cane Syrup), Onion Puree (Onions, Dried Cane Syrup, Sea Salt), Soybean Oil, Salt, Maltodextrin, Yeast Extract, Sugar, Canola Oil, Whey Powder, Onion Powder, Natural Flavors (Contains Soy), Spice, Turmeric, Parsley, Tapioca Starch, Xanthan Gum, Mushroom Juice Concentrate, Potassium Chloride, Sea Salt, Mushroom Powder. Contains Egg, Milk, Soy, Wheat." Date available: 10/12/2017 Date last updated by company: 10/12/2017
