Source: USDA Branded Food Products Database Release December 2017 Software v.3.8.6.4 2017-10-02
Report Run at: December 18, 2017 05:36 EST
"Nutrient data for: 45134882, HEALHTY CHOICE Greek Vanilla Yogurt Cup, UNPREPARED, GTIN: 00072655407916"
Food Group:  Branded Food Products Database
Common Name:

Nutrient,Unit,Data points,Std. Error,"1 Container (67g/4 fl oz) = 67.0g",1Value per 100 g,
Proximates
"Energy",kcal,--,--,100,149
"Protein",g,--,--,4.00,5.97
"Total lipid (fat)",g,--,--,2.00,2.99
"Carbohydrate, by difference",g,--,--,18.00,26.87
"Fiber, total dietary",g,--,--,1.0,1.5
"Sugars, total",g,--,--,11.00,16.42
Minerals
"Calcium, Ca",mg,--,--,100,149
"Iron, Fe",mg,--,--,0.00,0.00
"Potassium, K",mg,--,--,130,194
"Sodium, Na",mg,--,--,45,67
Vitamins
"Vitamin C, total ascorbic acid",mg,--,--,0.0,0.0
"Vitamin A, IU",IU,--,--,0,0
Lipids
"Fatty acids, total saturated",g,--,--,1.501,2.240
"Fatty acids, total monounsaturated",g,--,--,0.000,0.000
"Fatty acids, total polyunsaturated",g,--,--,0.000,0.000
"Fatty acids, total trans",g,--,--,0.000,0.000
"Cholesterol",mg,--,--,10,15
Amino Acids
Other
Ingredients
"Nonfat Milk, Cultured Nonfat Milk, Sugar, Cream, Polydextrose, Maltodextrin, Milk Protein Concentrate, Less Than 2% Of: Vanilla Extract, Vanilla Bean Seed Powder, Gelatin, Dextrose, Cellulose Gel, Propylene Glycol Monoesters, Citric Acid, Mono- and Diglycerides, Cellulose Gum, Carrageenan, Calcium Phosphate. Contains: Milk." Date available: 10/12/2017 Date last updated by company: 10/12/2017
