Source: USDA Branded Food Products Database Release December 2017 Software v.3.8.6.4 2017-10-02
Report Run at: December 18, 2017 05:45 EST
"Nutrient data for: 45100434, HEALTHY LIFE, SOURDOUGH BREAD, UPC: 024126009372"
Food Group:  Branded Food Products Database
Common Name:

Nutrient,Unit,Data points,Std. Error,"57.0 g = 57.0g",1Value per 100 g,
Proximates
"Energy",kcal,--,--,100,175
"Protein",g,--,--,6.00,10.53
"Total lipid (fat)",g,--,--,1.00,1.75
"Carbohydrate, by difference",g,--,--,24.00,42.11
"Fiber, total dietary",g,--,--,6.0,10.5
"Sugars, total",g,--,--,4.00,7.02
Minerals
"Calcium, Ca",mg,--,--,100,175
"Iron, Fe",mg,--,--,2.70,4.74
"Sodium, Na",mg,--,--,180,316
Vitamins
"Vitamin C, total ascorbic acid",mg,--,--,0.0,0.0
"Thiamin",mg,--,--,0.000,0.000
"Riboflavin",mg,--,--,0.136,0.239
"Niacin",mg,--,--,1.404,2.463
"Vitamin A, IU",IU,--,--,0,0
Lipids
"Fatty acids, total saturated",g,--,--,0.000,0.000
"Fatty acids, total trans",g,--,--,0.000,0.000
"Cholesterol",mg,--,--,0,0
Amino Acids
Other
Ingredients
"WATER. UNBLEACHED ENRICHED WHEAT FLOUR [FLOUR, BARLEY MALT, NIACIN (VITAMIN B), IRON, THIAMIN MONONITRATE (VITAMIN B1), RIBOFLAVIN (VITAMIN B2) FOLIC ACID (VITAMIN B9)] SUGAR, SOY FIBER, WHEAT GLUTEN, YEAST, CONTAINS 2% OR LESS OF THE FOLLOWING: LACTIC ACID, SALT, PHOSPHORIC ACID AND ACETIC ACID, CALCIUM PROPIONATE (TO RETAIN FRESHNESS), FUMARIC ACID, DOUGH CONDITIONERS (MONOGLYCERIDES, SODIUM STEAROYL LACTYLATE, ETHOXYLATED MONO-AND DIGLYCERIDES, ASCORBIC ACID), YEST NUTRIENTS (CALCIUM SULFATE, MONOCALCIUM PHOSPHATE, AMMONIUM SULFATE), POTASSIUM SORBATE AND CALCIUM ACETATE (TO RETAIN FRESHNESS), WATER STARCH, SOY LECITHIN." Date available: 10/27/2016 Date last updated by company: 10/27/2016
