Source: USDA Branded Food Products Database Release December 2017 Software v.3.8.6.4 2017-10-02
Report Run at: December 18, 2017 05:41 EST
"Nutrient data for: 45130959, HEALTHY CHOICE Greek Frozen Yogurt Carmel Swirl Cup, UNPREPARED, GTIN: 00072655004658"
Food Group:  Branded Food Products Database
Common Name:

Nutrient,Unit,Data points,Std. Error,"1 Container (68.5g/4 fl oz) = 68.5g",1Value per 100 g,
Proximates
"Energy",kcal,--,--,110,161
"Protein",g,--,--,4.00,5.84
"Total lipid (fat)",g,--,--,2.00,2.92
"Carbohydrate, by difference",g,--,--,19.00,27.74
"Fiber, total dietary",g,--,--,1.0,1.5
"Sugars, total",g,--,--,12.00,17.52
Minerals
"Calcium, Ca",mg,--,--,100,146
"Iron, Fe",mg,--,--,0.00,0.00
"Potassium, K",mg,--,--,120,175
"Sodium, Na",mg,--,--,45,66
Vitamins
"Vitamin C, total ascorbic acid",mg,--,--,0.0,0.0
"Vitamin A, IU",IU,--,--,0,0
Lipids
"Fatty acids, total saturated",g,--,--,1.000,1.460
"Fatty acids, total monounsaturated",g,--,--,0.000,0.000
"Fatty acids, total polyunsaturated",g,--,--,0.000,0.000
"Fatty acids, total trans",g,--,--,0.000,0.000
"Cholesterol",mg,--,--,10,15
Amino Acids
Other
Ingredients
"Nonfat Milk, Cultured Nonfat Milk, Sugar, Cream, Polydextrose, Maltodextrin, Maltitol, Milk Protein Concentrate, Less than 2% of: Evaporated Milk, Gelatin, Dextrose, Cellulose Gel, Citric Acid, Propylene Glycol Monoesters, Modified Corn Starch, Natural Flavor, Mono- and Diglycerides, Cellulose Gum, Carrageenan, Butter, Caramel Color, Potassium Sorbate (Preservative), Salt, Sucralose, Tricalcium Phosphate. CONTAINS: MILK" Date available: 10/12/2017 Date last updated by company: 10/11/2017
