Source: USDA Branded Food Products Database Release December 2017 Software v.3.8.6.4 2017-10-02
Report Run at: December 18, 2017 05:40 EST
"Nutrient data for: 45134254, HEALTHY CHOICE Chicken Tortilla Soup, UNPREPARED, GTIN: 00050100453152"
Food Group:  Branded Food Products Database
Common Name:

Nutrient,Unit,Data points,Std. Error,"1 cup (239g) = 239.0g",1Value per 100 g,
Proximates
"Energy",kcal,--,--,151,63
"Protein",g,--,--,9.01,3.77
"Total lipid (fat)",g,--,--,2.01,0.84
"Carbohydrate, by difference",g,--,--,24.00,10.04
"Fiber, total dietary",g,--,--,6.0,2.5
"Sugars, total",g,--,--,3.01,1.26
Minerals
"Calcium, Ca",mg,--,--,41,17
"Iron, Fe",mg,--,--,1.79,0.75
"Potassium, K",mg,--,--,600,251
"Sodium, Na",mg,--,--,411,172
Vitamins
"Vitamin C, total ascorbic acid",mg,--,--,0.0,0.0
"Vitamin A, IU",IU,--,--,201,84
Lipids
"Fatty acids, total saturated",g,--,--,0.502,0.210
"Fatty acids, total monounsaturated",g,--,--,1.004,0.420
"Fatty acids, total polyunsaturated",g,--,--,0.502,0.210
"Fatty acids, total trans",g,--,--,0.000,0.000
"Cholesterol",mg,--,--,19,8
Amino Acids
Other
Ingredients
"Chicken Broth, Cooked Corn Noodles (Water, Enriched Wheat Flour [Wheat Flour, Malted Barley Flour, Niacin, Ferrous Sulfate, Thiamine Mononitrate, Riboflavin, Folic Acid], Eggs, Corn Meal, Yellow Corn Meal Flour), Prepared Black Beans (Black Beans, Water), Tomatoes With Juice, Cooked Chicken (White Meat Chicken, Water, Modified Rice Starch, Isolated Soy Protein, Salt, Sodium Phosphates), Tomato Paste, Corn, Green Bell Pepper, Green Chilies, Less Than 2% Of: Modified Corn Starch, Masa Flour, Salt, Turkey Broth, Flavor, Spices, Potassium Chloride, Rendered Chicken Fat, Autolyzed Yeast Extract, Cooked Chicken, Disodium Inosinate and Guanylate, Citric Acid, Dried Jalapeno Peppers, Paprika, Calcium Chloride, Chicken Flavor, Mushroom Powder, Turkey Fat, Turkey Meat, Dried Onions, Sugar. CONTAINS: WHEAT, EGG, SOY." Date available: 10/12/2017 Date last updated by company: 10/12/2017
