Source: USDA Branded Food Products Database Release December 2017 Software v.3.8.6.4 2017-10-02
Report Run at: December 18, 2017 05:40 EST
"Nutrient data for: 45134728, HEALTHY CHOICE Cafe Steamers Tortellini Primavera Parmesan, UNPREPARED, GTIN: 00072655001237"
Food Group:  Branded Food Products Database
Common Name:

Nutrient,Unit,Data points,Std. Error,"1 Meal (269g) = 269.0g",1Value per 100 g,
Proximates
"Energy",kcal,--,--,250,93
"Protein",g,--,--,11.00,4.09
"Total lipid (fat)",g,--,--,4.49,1.67
"Carbohydrate, by difference",g,--,--,41.99,15.61
"Fiber, total dietary",g,--,--,8.1,3.0
"Sugars, total",g,--,--,10.01,3.72
Minerals
"Calcium, Ca",mg,--,--,151,56
"Iron, Fe",mg,--,--,1.45,0.54
"Potassium, K",mg,--,--,880,327
"Sodium, Na",mg,--,--,460,171
Vitamins
"Vitamin C, total ascorbic acid",mg,--,--,5.9,2.2
"Vitamin A, IU",IU,--,--,751,279
"Vitamin D",IU,--,--,0,0
Lipids
"Fatty acids, total saturated",g,--,--,2.502,0.930
"Fatty acids, total monounsaturated",g,--,--,0.995,0.370
"Fatty acids, total polyunsaturated",g,--,--,0.511,0.190
"Fatty acids, total trans",g,--,--,0.000,0.000
"Cholesterol",mg,--,--,11,4
Amino Acids
Other
Ingredients
"Cooked Cheese Tortellini (Water, Whole Grain Wheat Flour [Ultragrain®], Durum Wheat Flour, Ricotta Cheese [Pasteurized Whey, Milk Fat, Milk], Parmesan Cheese [Pasteurized Part Skim Milk, Cheese Cultures, Salt, Enzymes], Romano Cheese [Pasteurized Cow's Milk, Cheese Cultures, Salt, Enzymes], Baked Wheat Flour [Wheat Flour, Sugar, Soybean Oil, Yeast], Whole Eggs, Provolone Cheese [Pasteurized Whole Milk, Cheese Cultures, Salt, Enzymes], Salt, Black Pepper), Water, Tomatoes In Juice, Tomato Paste, Zucchini, Carrots, Red Bell Peppers, Contains 2% Or Less Of: Brown Sugar, Onions, Garlic Puree, Parmesan Cheese (Part Skim Milk, Cheese Culture, Salt, Enzymes), Corn Starch, Potassium Chloride, Sea Salt, Spices, Xanthan Gum. Contains: Egg, Milk, Wheat." Date available: 10/12/2017 Date last updated by company: 10/12/2017
