Source: USDA Branded Food Products Database Release December 2017 Software v.3.8.6.4 2017-10-02
Report Run at: December 18, 2017 05:42 EST
"Nutrient data for: 45134869, HEALTHY CHOICE  Peach BBQ Chicken And Potatoes, UNPREPARED, GTIN: 00072655405851"
Food Group:  Branded Food Products Database
Common Name:

Nutrient,Unit,Data points,Std. Error,"1 Meal (276g) = 276.0g",1Value per 100 g,
Proximates
"Energy",kcal,--,--,251,91
"Protein",g,--,--,14.99,5.43
"Total lipid (fat)",g,--,--,3.51,1.27
"Carbohydrate, by difference",g,--,--,39.99,14.49
"Fiber, total dietary",g,--,--,5.0,1.8
"Sugars, total",g,--,--,20.01,7.25
Minerals
"Calcium, Ca",mg,--,--,80,29
"Iron, Fe",mg,--,--,1.79,0.65
"Potassium, K",mg,--,--,1041,377
"Sodium, Na",mg,--,--,519,188
Vitamins
"Vitamin C, total ascorbic acid",mg,--,--,59.9,21.7
"Vitamin A, IU",IU,--,--,500,181
Lipids
"Fatty acids, total saturated",g,--,--,0.497,0.180
"Fatty acids, total monounsaturated",g,--,--,1.987,0.720
"Fatty acids, total polyunsaturated",g,--,--,0.497,0.180
"Fatty acids, total trans",g,--,--,0.000,0.000
"Cholesterol",mg,--,--,36,13
Amino Acids
Other
Ingredients
"Potatoes (Red Potatoes, Disodium Dihydrogen Pyrophosphate), Cooked Chicken (White Meat Chicken, Water, Olive Oil, Contains 2% Or Less Of: Isolated Soy Protein Product [Isolated Soy Protein, Modified Potato Starch, Corn Starch, Carrageenan, Soy Lecithin], Dextrose, Potassium Chloride, Salt, Sodium Phosphates, Flavoring), Water, Peaches With Citric And Ascorbic Acid To Retain Color, Green Beans, Red Bell Peppers, Tomato Paste, Barbecue Seasoning (Brown Sugar, Sugar, Molasses, Worcestershire Sauce Powder [Corn Syrup, Salt, Caramel Color, Garlic, Sugar, Spices, Soy Sauce {Naturally Fermented Wheat And Soybean, Salt, Maltodextrin, Caramel Color}, Palm Oil, Tamarind, Natural Flavor], Maltodextrin, Sodium Diacetate, Spices Including Paprika And Turmeric, Natural Smoke Flavor [Contains Maltodextrin], Citric Acid, Lactose [Milk], Dehydrated Onion And Garlic), Molasses, Contains 2% Or Less Of: Sugar, Bourbon, Modified Corn Starch, Apple Cider Vinegar, Salt, Natural Mesquite Smoke Flavor, Potassium Chloride, Dehydrated Garlic, Black Pepper. Contains: Milk, Soy, Wheat." Date available: 10/12/2017 Date last updated by company: 10/12/2017
