Source: USDA Branded Food Products Database Release December 2017 Software v.3.8.6.4 2017-10-02
Report Run at: December 18, 2017 05:44 EST
"Nutrient data for: 45085672, HEALTHY GRAINS CHEWY WITH A CRUNCHY, UPC: 602652184031"
Food Group:  Branded Food Products Database
Common Name:

Nutrient,Unit,Data points,Std. Error,"1 BAR = 35.0g",1Value per 100 g,
Proximates
"Energy",kcal,--,--,150,429
"Protein",g,--,--,3.00,8.57
"Total lipid (fat)",g,--,--,5.00,14.29
"Carbohydrate, by difference",g,--,--,23.00,65.71
"Fiber, total dietary",g,--,--,2.5,7.1
"Sugars, total",g,--,--,7.00,20.00
Minerals
"Calcium, Ca",mg,--,--,20,57
"Iron, Fe",mg,--,--,1.24,3.53
"Sodium, Na",mg,--,--,75,214
Vitamins
"Vitamin C, total ascorbic acid",mg,--,--,0.0,0.0
"Vitamin A, IU",IU,--,--,0,0
Lipids
"Fatty acids, total saturated",g,--,--,1.001,2.860
"Fatty acids, total trans",g,--,--,0.000,0.000
"Cholesterol",mg,--,--,0,0
Amino Acids
Other
Ingredients
"WHOLE GRAIN BLEND (OATS, BROWN RICE, MILLET, OAT FLOUR, BUCKWHEAT, AMARANTH, QUINOA), DRIED CANE SYRUP, HONEY, TAPIOCA SYRUP, PEANUT BUTTER, CANOLA OIL, PEANUTS, CHOCOLATE LIQUOR, SUGAR, BROWN RICE SYRUP, GUM ACACIA, PEANUT FLOUR, SEA SALT, VANILLA EXTRACT, COCOA BUTTER, SOY LECITHIN, WATER, VITAMIN E (TO MAINTAIN FRESHNESS)." Date available: 07/14/2017 Date last updated by company: 07/14/2017
