Source: USDA Branded Food Products Database Release December 2017 Software v.3.8.6.4 2017-10-02
Report Run at: December 18, 2017 05:51 EST
"Nutrient data for: 45220653, HEARTS OF PALM, UPC: 654054111016"
Food Group:  Branded Food Products Database
Common Name:

Nutrient,Unit,Data points,Std. Error,"0.5 cup = 129.0g",1Value per 100 g,
Proximates
"Energy",kcal,--,--,15,12
"Protein",g,--,--,2.00,1.55
"Total lipid (fat)",g,--,--,0.00,0.00
"Carbohydrate, by difference",g,--,--,3.01,2.33
"Fiber, total dietary",g,--,--,2.1,1.6
"Sugars, total",g,--,--,1.01,0.78
Minerals
"Calcium, Ca",mg,--,--,61,47
"Iron, Fe",mg,--,--,1.44,1.12
"Sodium, Na",mg,--,--,360,279
Vitamins
"Vitamin C, total ascorbic acid",mg,--,--,0.0,0.0
"Vitamin A, IU",IU,--,--,0,0
Lipids
"Fatty acids, total saturated",g,--,--,0.000,0.000
"Fatty acids, total trans",g,--,--,0.000,0.000
"Cholesterol",mg,--,--,0,0
Amino Acids
Other
Ingredients
"HEARTS OF PALM, WATER, SAT AND CITRIC ACID." Date available: 07/14/2017 Date last updated by company: 07/14/2017
