Source: USDA Branded Food Products Database Release December 2017 Software v.3.8.6.4 2017-10-02
Report Run at: December 18, 2017 05:50 EST
"Nutrient data for: 45218054, HEARTS CANDY, UPC: 790513338737"
Food Group:  Branded Food Products Database
Common Name:

Nutrient,Unit,Data points,Std. Error,"13.0 PIECES = 40.0g",1Value per 100 g,
Proximates
"Energy",kcal,--,--,150,375
"Protein",g,--,--,0.00,0.00
"Total lipid (fat)",g,--,--,0.00,0.00
"Carbohydrate, by difference",g,--,--,37.00,92.50
"Fiber, total dietary",g,--,--,0.0,0.0
"Sugars, total",g,--,--,30.00,75.00
Minerals
"Calcium, Ca",mg,--,--,0,0
"Iron, Fe",mg,--,--,0.00,0.00
"Sodium, Na",mg,--,--,10,25
Vitamins
"Vitamin C, total ascorbic acid",mg,--,--,18.8,46.9
"Vitamin A, IU",IU,--,--,0,0
Lipids
"Fatty acids, total saturated",g,--,--,0.000,0.000
"Fatty acids, total trans",g,--,--,0.000,0.000
"Cholesterol",mg,--,--,0,0
Amino Acids
Other
Ingredients
"SUGAR, CORN SYRUP, MODIFIED CORN STARCH, DEXTROSE, CHERRY JUICE CONCENTRATE, NATURAL AND ARTIFICIAL FLAVORS, CITRIC ACID, COCOA, ARTIFICIAL COLORS (RED 40, RED 40 LAKE, YELLOW 5, YELLOW 6, BLUE 1), ASCORBIC ACID, CONFECTIONERS GLAZE, CARNAUBA WAX, BEESWAX." Date available: 07/14/2017 Date last updated by company: 07/14/2017
