Source: USDA Branded Food Products Database Release December 2017 Software v.3.8.6.4 2017-10-02
Report Run at: December 18, 2017 05:50 EST
"Nutrient data for: 45166510, HEARTS OF GOLD, POTATO SNACK, HONEY BUTTER, UPC: 817252011780"
Food Group:  Branded Food Products Database
Common Name:

Nutrient,Unit,Data points,Std. Error,"28.0 HEATRS | ABOUT = 28.0g",1Value per 100 g,
Proximates
"Energy",kcal,--,--,150,536
"Protein",g,--,--,1.00,3.57
"Total lipid (fat)",g,--,--,8.00,28.57
"Carbohydrate, by difference",g,--,--,17.00,60.71
"Fiber, total dietary",g,--,--,1.0,3.6
"Sugars, total",g,--,--,1.00,3.57
Minerals
"Calcium, Ca",mg,--,--,0,0
"Iron, Fe",mg,--,--,0.00,0.00
"Sodium, Na",mg,--,--,180,643
Vitamins
"Vitamin C, total ascorbic acid",mg,--,--,0.0,0.0
"Vitamin A, IU",IU,--,--,0,0
Lipids
"Fatty acids, total saturated",g,--,--,1.000,3.570
"Fatty acids, total trans",g,--,--,0.000,0.000
"Cholesterol",mg,--,--,0,0
Amino Acids
Other
Ingredients
"POTATO FLOUR, SUNFLOWER, SAFFLOWER AND/OR CANOLA OIL, POTATO STARCH, HONEY BUTTER SEASONING (MALTODEXTRIN, NATURAL FLAVORS, HONEY SOLIDS, BUTTER [CREAM, SALT], NONFAT MILK), SEA SALT, CANE SUGAR, PAPRIKA." Date available: 07/14/2017 Date last updated by company: 07/14/2017
