Source: USDA Branded Food Products Database Release December 2017 Software v.3.8.6.4 2017-10-02
Report Run at: December 18, 2017 05:46 EST
"Nutrient data for: 45256416, HEARTBREAKERS CANDY, UPC: 079200000141"
Food Group:  Branded Food Products Database
Common Name:

Nutrient,Unit,Data points,Std. Error,"8.0 PCS. = 15.0g",1Value per 100 g,
Proximates
"Energy",kcal,--,--,50,333
"Protein",g,--,--,0.00,0.00
"Total lipid (fat)",g,--,--,0.00,0.00
"Carbohydrate, by difference",g,--,--,13.00,86.67
"Sugars, total",g,--,--,13.00,86.67
Minerals
"Sodium, Na",mg,--,--,0,0
Vitamins
Lipids
Amino Acids
Other
Ingredients
"DEXTROSE, MALTODEXTRIN, AND LESS THAN 2% OF MALIC ACID, CORN SYRUP, CALCIUM STEARATE, CARNAUBA WAX, NATURAL FLAVORS, COLOR ADDED, RED 40 LAKE, YELLOW 5, YELLOW 5 LAKE." Date available: 07/14/2017 Date last updated by company: 07/14/2017
