Source: USDA Branded Food Products Database Release December 2017 Software v.3.8.6.4 2017-10-02
Report Run at: December 18, 2017 05:49 EST
"Nutrient data for: 45233993, HEARTLAND, PRIME SELECT, RUSSET BAKING POTATOES, UPC: 813652010026"
Food Group:  Branded Food Products Database
Common Name:

Nutrient,Unit,Data points,Std. Error,"1 POTATO = 148.0g",1Value per 100 g,
Proximates
"Energy",kcal,--,--,110,74
"Protein",g,--,--,3.00,2.03
"Total lipid (fat)",g,--,--,0.00,0.00
"Carbohydrate, by difference",g,--,--,26.00,17.57
"Fiber, total dietary",g,--,--,2.1,1.4
"Sugars, total",g,--,--,1.01,0.68
Minerals
"Calcium, Ca",mg,--,--,21,14
"Iron, Fe",mg,--,--,1.08,0.73
"Magnesium, Mg",mg,--,--,24,16
"Phosphorus, P",mg,--,--,61,41
"Potassium, K",mg,--,--,620,419
"Sodium, Na",mg,--,--,0,0
"Zinc, Zn",mg,--,--,0.30,0.20
"Copper, Cu",mg,--,--,0.080,0.054
Vitamins
"Vitamin C, total ascorbic acid",mg,--,--,26.9,18.2
"Thiamin",mg,--,--,0.120,0.081
"Riboflavin",mg,--,--,0.034,0.023
"Niacin",mg,--,--,1.600,1.081
"Vitamin B-6",mg,--,--,0.200,0.135
"Vitamin A, IU",IU,--,--,0,0
Lipids
"Fatty acids, total saturated",g,--,--,0.000,0.000
"Fatty acids, total trans",g,--,--,0.000,0.000
"Cholesterol",mg,--,--,0,0
Amino Acids
Other
Ingredients
"RUSSET BAKING POTATOES." Date available: 09/23/2016 Date last updated by company: 09/23/2016
