Source: USDA Branded Food Products Database Release December 2017 Software v.3.8.6.4 2017-10-02
Report Run at: December 18, 2017 05:51 EST
"Nutrient data for: 45199888, HEARTS OF PALM WHOLE, UPC: 636625002435"
Food Group:  Branded Food Products Database
Common Name:

Nutrient,Unit,Data points,Std. Error,"0.5 cup = 100.0g",1Value per 100 g,
Proximates
"Energy",kcal,--,--,25,25
"Protein",g,--,--,2.00,2.00
"Total lipid (fat)",g,--,--,0.00,0.00
"Carbohydrate, by difference",g,--,--,5.00,5.00
"Fiber, total dietary",g,--,--,2.0,2.0
"Sugars, total",g,--,--,0.00,0.00
Minerals
"Calcium, Ca",mg,--,--,40,40
"Iron, Fe",mg,--,--,0.47,0.47
"Sodium, Na",mg,--,--,290,290
Vitamins
"Vitamin C, total ascorbic acid",mg,--,--,7.8,7.8
"Vitamin A, IU",IU,--,--,0,0
Lipids
"Fatty acids, total saturated",g,--,--,0.000,0.000
"Fatty acids, total trans",g,--,--,0.000,0.000
"Cholesterol",mg,--,--,0,0
Amino Acids
Other
Ingredients
"HEARTS OF PALM, WATER, SALT AND CITRIC ACID." Date available: 07/14/2017 Date last updated by company: 07/14/2017
