Source: USDA Branded Food Products Database Release December 2017 Software v.3.8.6.4 2017-10-02
Report Run at: December 18, 2017 05:59 EST
"Nutrient data for: 45160882, HEBERT, MILK CHOCOLATE, BROWNIE BATTER, UPC: 721605269677"
Food Group:  Branded Food Products Database
Common Name:

Nutrient,Unit,Data points,Std. Error,"31.0 GRM = 31.0g",1Value per 100 g,
Proximates
"Energy",kcal,--,--,150,484
"Protein",g,--,--,1.00,3.23
"Total lipid (fat)",g,--,--,9.00,29.03
"Carbohydrate, by difference",g,--,--,18.00,58.06
"Fiber, total dietary",g,--,--,1.0,3.2
"Sugars, total",g,--,--,16.00,51.61
Minerals
"Calcium, Ca",mg,--,--,20,65
"Iron, Fe",mg,--,--,0.58,1.88
"Sodium, Na",mg,--,--,25,81
Vitamins
"Vitamin C, total ascorbic acid",mg,--,--,0.0,0.0
"Vitamin A, IU",IU,--,--,162,521
Lipids
"Fatty acids, total saturated",g,--,--,5.000,16.130
"Fatty acids, total trans",g,--,--,0.000,0.000
"Cholesterol",mg,--,--,5,16
Amino Acids
Other
Ingredients
"MILK CHOCOLATE (SUGAR, COCOA BUTTER, CHOCOLATE LIQUOR, MILK, SOY LECITHIN, SALT, AND VANILLA), BROWNIE FILLING (DARK CHOCOLATE (SUGAR, CHOCOLATE LIQUOR, CHOCOLATE LIQUOR PROCESSED WITH ALKALI, COCOA BUTTER, BUTTERFAT [MILK), SOY LECITHIN AND VANILLA), CREAM, CORN SYRUP, BUTTER, POTASSIUM SORBATE, SUGAR, WATER, WHEAT FLOUR, GLYCERIN, COCOA PROCESSED WITH ALKALI, NATURAL AND ARTIFICIAL FLAVORS, HIGH FRUCTOSE CORN SYRUP, WHEAT STARCH, SOYBEAN OIL, SALT, DEXTROSE, SODIUM BICARBONATE, POTASSIUM SORBATE AND BENZOIC ACID AS PRESERVATIVES, CARRAGEENAN)." Date available: 07/14/2017 Date last updated by company: 07/14/2017
