Source: USDA Branded Food Products Database Release December 2017 Software v.3.8.6.4 2017-10-02
Report Run at: December 18, 2017 05:59 EST
"Nutrient data for: 45165909, HEBERT, MILK CHOCOLATE, BANANA CREAM PIE, UPC: 721605267758"
Food Group:  Branded Food Products Database
Common Name:

Nutrient,Unit,Data points,Std. Error,"31.0 GRM = 31.0g",1Value per 100 g,
Proximates
"Energy",kcal,--,--,150,484
"Protein",g,--,--,0.00,0.00
"Total lipid (fat)",g,--,--,8.00,25.81
"Carbohydrate, by difference",g,--,--,19.00,61.29
"Fiber, total dietary",g,--,--,0.0,0.0
"Sugars, total",g,--,--,17.00,54.84
Minerals
"Calcium, Ca",mg,--,--,40,129
"Iron, Fe",mg,--,--,0.58,1.88
"Sodium, Na",mg,--,--,25,81
Vitamins
"Vitamin C, total ascorbic acid",mg,--,--,0.0,0.0
"Vitamin A, IU",IU,--,--,0,0
Lipids
"Fatty acids, total saturated",g,--,--,5.000,16.130
"Fatty acids, total trans",g,--,--,0.000,0.000
"Cholesterol",mg,--,--,5,16
Amino Acids
Other
Ingredients
"MILK CHOCOLATE (SUGAR, COCOA BUTTER, CHOCOLATE LIQUOR, MILK, SOY LECITHIN, SALT, AND VANILLA), BANANA GANACHE (WHITE CHOCOLATE, CREAM, CORN SYRUP, BUTTER, POTASSIUM SORBATE, BANANA FLAVORING,) GRAHAM CRACKER (UNBLEACHED ENRICHED FLOUR, SUGAR, GRAHAM FLOUR, SOYBEAN OIL AND/OR PARTIALLY HYDROGENATED COTTONSEED OIL, HIGH FRUCTOSE CORN SYRUP, HONEY, BAKING SODA AND/OR CALCIUM PHOSPHATE, SALT, ARTIFICIAL FLAVOR, SOY LECITHIN, CORNSTARCH), MARSHMALLOW (CORN SYRUP, INVERT SUGAR, SUGAR, VANILLA EXTRACT, EGG ALBUMEN)." Date available: 07/14/2017 Date last updated by company: 07/14/2017
