Source: USDA Branded Food Products Database Release December 2017 Software v.3.8.6.4 2017-10-02
Report Run at: December 18, 2017 06:01 EST
"Nutrient data for: 45134164, HEBREW NATIONAL Bun Length Franks, UNPREPARED, GTIN: 00074956284005"
Food Group:  Branded Food Products Database
Common Name:

Nutrient,Unit,Data points,Std. Error,"1 Frank (57g) = 57.0g",1Value per 100 g,
Proximates
"Energy",kcal,--,--,170,298
"Protein",g,--,--,6.00,10.53
"Total lipid (fat)",g,--,--,15.00,26.32
"Carbohydrate, by difference",g,--,--,2.00,3.51
"Fiber, total dietary",g,--,--,0.0,0.0
"Sugars, total",g,--,--,0.00,0.00
Minerals
"Calcium, Ca",mg,--,--,0,0
"Iron, Fe",mg,--,--,0.72,1.26
"Potassium, K",mg,--,--,95,167
"Sodium, Na",mg,--,--,520,912
Vitamins
"Vitamin C, total ascorbic acid",mg,--,--,0.0,0.0
"Vitamin A, IU",IU,--,--,0,0
Lipids
"Fatty acids, total saturated",g,--,--,6.002,10.530
"Fatty acids, total monounsaturated",g,--,--,7.000,12.280
"Fatty acids, total polyunsaturated",g,--,--,0.502,0.880
"Fatty acids, total trans",g,--,--,0.502,0.880
"Cholesterol",mg,--,--,30,53
Amino Acids
Other
Ingredients
"Beef, Water, Contains 2% or less of: Salt, Spice, Sodium Lactate, Paprika, Hydrolyzed Soy Protein, Garlic Powder, Sodium Diacetate, Sodium Erythorbate, Flavoring, Sodium Nitrite. CONTAINS: SOY." Date available: 10/12/2017 Date last updated by company: 10/10/2017
