Source: USDA Branded Food Products Database Release December 2017 Software v.3.8.6.4 2017-10-02
Report Run at: December 18, 2017 06:01 EST
"Nutrient data for: 45134158, HEBREW NATIONAL Bagel Dogs, UNPREPARED, GTIN: 00074956202009"
Food Group:  Branded Food Products Database
Common Name:

Nutrient,Unit,Data points,Std. Error,"4.0 Pieces (78g) = 78.0g",1Value per 100 g,
Proximates
"Energy",kcal,--,--,240,308
"Protein",g,--,--,9.00,11.54
"Total lipid (fat)",g,--,--,13.00,16.67
"Carbohydrate, by difference",g,--,--,22.00,28.21
"Fiber, total dietary",g,--,--,1.0,1.3
"Sugars, total",g,--,--,2.00,2.56
Minerals
"Calcium, Ca",mg,--,--,0,0
"Iron, Fe",mg,--,--,1.80,2.31
"Potassium, K",mg,--,--,115,147
"Sodium, Na",mg,--,--,750,962
Vitamins
"Vitamin C, total ascorbic acid",mg,--,--,0.0,0.0
"Vitamin A, IU",IU,--,--,0,0
Lipids
"Fatty acids, total saturated",g,--,--,5.000,6.410
"Fatty acids, total monounsaturated",g,--,--,5.000,6.410
"Fatty acids, total polyunsaturated",g,--,--,1.997,2.560
"Fatty acids, total trans",g,--,--,0.000,0.000
"Cholesterol",mg,--,--,25,32
Amino Acids
Other
Ingredients
"Bagel Dough (Enriched Wheat Flour [Wheat Flour, Malted Barley Flour, Niacin, Reduced Iron, Thiamine Mononitrate, Riboflavin, Folic Acid], Water, Soybean Oil, Rice Flour, Sugar, Contains 2% Or Less Of: Salt, Yeast, Dextrose, Ascorbic Acid, Sorbitan Monostearate), Beef Frank (Beef, Water, Contains 2% Or Less Of: Salt, Spice, Sodium Lactate, Paprika, Hydrolyzed Soy Protein, Garlic Powder, Sodium Diacetate, Sodium Erythorbate, Flavoring, Sodium Nitrite). Contains: SOY, WHEAT" Date available: 10/11/2017 Date last updated by company: 10/10/2017
