Source: USDA Branded Food Products Database Release December 2017 Software v.3.8.6.4 2017-10-02
Report Run at: December 18, 2017 06:04 EST
"Nutrient data for: 45172234, HEINEN'S, COTTAGE CHEESE, UPC: 020601409880"
Food Group:  Branded Food Products Database
Common Name:

Nutrient,Unit,Data points,Std. Error,"0.5 cup = 113.0g",1Value per 100 g,
Proximates
"Energy",kcal,--,--,110,97
"Protein",g,--,--,12.00,10.62
"Total lipid (fat)",g,--,--,4.99,4.42
"Carbohydrate, by difference",g,--,--,4.99,4.42
"Fiber, total dietary",g,--,--,0.0,0.0
"Sugars, total",g,--,--,2.99,2.65
Minerals
"Calcium, Ca",mg,--,--,80,71
"Iron, Fe",mg,--,--,0.00,0.00
"Potassium, K",mg,--,--,110,97
"Sodium, Na",mg,--,--,460,407
Vitamins
"Vitamin C, total ascorbic acid",mg,--,--,1.1,1.0
"Vitamin A, IU",IU,--,--,194,172
Lipids
"Fatty acids, total saturated",g,--,--,2.994,2.650
"Fatty acids, total trans",g,--,--,0.000,0.000
"Cholesterol",mg,--,--,25,22
Amino Acids
Other
Ingredients
"CULTURED NONFAT MILK, MILK, CREAM, SALT, GRADE A WHEY, STABILIZER (MODIFIED FOOD STARCH [CORN], LOCUST BEAN GUM, CARRAGEENAN), SORBIC ACID, NATURAL FLAVOR, ENZYMES." Date available: 07/14/2017 Date last updated by company: 07/14/2017
