Source: USDA Branded Food Products Database Release December 2017 Software v.3.8.6.4 2017-10-02
Report Run at: December 18, 2017 06:07 EST
"Nutrient data for: 45139269, HELADOS MEXICO, PREMIUM ICE CREAM BAR BOLIS, STRAWBERRY, UPC: 682082607058"
Food Group:  Branded Food Products Database
Common Name:

Nutrient,Unit,Data points,Std. Error,"1 BAR = 177.0g",1Value per 100 g,
Proximates
"Energy",kcal,--,--,150,85
"Protein",g,--,--,2.00,1.13
"Total lipid (fat)",g,--,--,6.99,3.95
"Carbohydrate, by difference",g,--,--,20.99,11.86
"Fiber, total dietary",g,--,--,0.0,0.0
"Sugars, total",g,--,--,14.00,7.91
Minerals
"Calcium, Ca",mg,--,--,71,40
"Iron, Fe",mg,--,--,0.00,0.00
"Sodium, Na",mg,--,--,60,34
Vitamins
"Vitamin C, total ascorbic acid",mg,--,--,15.0,8.5
"Vitamin A, IU",IU,--,--,299,169
Lipids
"Fatty acids, total saturated",g,--,--,4.496,2.540
"Fatty acids, total trans",g,--,--,0.000,0.000
"Cholesterol",mg,--,--,25,14
Amino Acids
Other
Ingredients
"MILK, CREAM, SUGAR, CORN SYRUP, STABILIZERS, (GUAR GUM, LECITHIN, EGG YOLK SOLIDS, LOCUST BEAN GUM, CARRAGEENAN, SUGAR), NATURAL FLAVOR, NATURAL COLOR." Date available: 07/14/2017 Date last updated by company: 07/14/2017
