Source: USDA Branded Food Products Database Release December 2017 Software v.3.8.6.4 2017-10-02
Report Run at: December 18, 2017 06:09 EST
"Nutrient data for: 45224734, HELLMANN'S REAL, MAYONNAISE, UPC: 048001705920"
Food Group:  Branded Food Products Database
Common Name:

Nutrient,Unit,Data points,Std. Error,"1 Tbsp = 14.0g",1Value per 100 g,
Proximates
"Energy",kcal,--,--,100,714
"Protein",g,--,--,0.00,0.00
"Total lipid (fat)",g,--,--,11.00,78.57
"Carbohydrate, by difference",g,--,--,0.00,0.00
Minerals
"Sodium, Na",mg,--,--,95,679
Vitamins
Lipids
"Fatty acids, total saturated",g,--,--,1.499,10.710
"Cholesterol",mg,--,--,5,36
Amino Acids
Other
Ingredients
"SOYBEAN OIL, WATER, WHOLE EGGS AND EGG YOLKS, DISTILLED VINEGAR, SALT, SUGAR, LEMON JUICE CONCENTRATE, CALCIUM DISODIUM EDTA (USED TO PROTECT QUALITY), NATURAL FLAVORS." Date available: 07/14/2017 Date last updated by company: 07/14/2017
