Source: USDA Branded Food Products Database Release December 2017 Software v.3.8.6.4 2017-10-02
Report Run at: December 18, 2017 06:10 EST
"Nutrient data for: 45155741, HELMS, PEANUT BUTTER PUFFS, UPC: 046995410011"
Food Group:  Branded Food Products Database
Common Name:

Nutrient,Unit,Data points,Std. Error,"0.5 ONZ = 14.0g",1Value per 100 g,
Proximates
"Energy",kcal,--,--,80,571
"Protein",g,--,--,1.00,7.14
"Total lipid (fat)",g,--,--,1.00,7.14
"Carbohydrate, by difference",g,--,--,12.00,85.71
"Fiber, total dietary",g,--,--,0.0,0.0
"Sugars, total",g,--,--,9.00,64.29
Minerals
"Sodium, Na",mg,--,--,70,500
Vitamins
Lipids
"Fatty acids, total saturated",g,--,--,0.000,0.000
"Fatty acids, total trans",g,--,--,0.000,0.000
"Cholesterol",mg,--,--,0,0
Amino Acids
Other
Ingredients
"SUGAR, CORN SYRUP, PEANUT BUTTER, SALT, ART. FLAVORS, CARAMEL COLO, FD&C YELLOW #5." Date available: 10/13/2017 Date last updated by company: 10/13/2017
