Source: USDA Branded Food Products Database Release December 2017 Software v.3.8.6.4 2017-10-02
Report Run at: December 18, 2017 06:13 EST
"Nutrient data for: 45332735, HEMP PROTEIN POWDER, UPC: 039978006035"
Food Group:  Branded Food Products Database
Common Name:

Nutrient,Unit,Data points,Std. Error,"0.25 cup = 31.0g",1Value per 100 g,
Proximates
"Energy",kcal,--,--,120,387
"Protein",g,--,--,14.00,45.16
"Total lipid (fat)",g,--,--,3.00,9.68
"Carbohydrate, by difference",g,--,--,10.00,32.26
"Fiber, total dietary",g,--,--,8.0,25.8
"Sugars, total",g,--,--,1.00,3.23
Minerals
"Calcium, Ca",mg,--,--,20,65
"Iron, Fe",mg,--,--,9.29,29.97
"Sodium, Na",mg,--,--,0,0
Vitamins
"Vitamin C, total ascorbic acid",mg,--,--,0.0,0.0
"Vitamin A, IU",IU,--,--,0,0
Lipids
"Fatty acids, total saturated",g,--,--,0.000,0.000
"Fatty acids, total trans",g,--,--,0.000,0.000
"Cholesterol",mg,--,--,0,0
Amino Acids
Other
Ingredients
"HEMP PROTEIN POWDER." Date available: 07/14/2017 Date last updated by company: 07/14/2017
