Source: USDA Branded Food Products Database Release December 2017 Software v.3.8.6.4 2017-10-02
Report Run at: December 18, 2017 06:12 EST
"Nutrient data for: 45084413, HEMPLER'S, HOT LINKS SAUSAGE, SMOKE, UPC: 021834020149"
Food Group:  Branded Food Products Database
Common Name:

Nutrient,Unit,Data points,Std. Error,"1 SAUSAGE = 75.0g",1Value per 100 g,
Proximates
"Energy",kcal,--,--,200,267
"Protein",g,--,--,12.00,16.00
"Total lipid (fat)",g,--,--,15.00,20.00
"Carbohydrate, by difference",g,--,--,4.00,5.33
"Fiber, total dietary",g,--,--,1.0,1.3
"Sugars, total",g,--,--,2.00,2.67
Minerals
"Calcium, Ca",mg,--,--,20,27
"Iron, Fe",mg,--,--,0.80,1.06
"Sodium, Na",mg,--,--,620,827
Vitamins
"Vitamin C, total ascorbic acid",mg,--,--,0.9,1.2
"Vitamin A, IU",IU,--,--,734,978
Lipids
"Fatty acids, total saturated",g,--,--,5.003,6.670
"Fatty acids, total trans",g,--,--,0.000,0.000
"Cholesterol",mg,--,--,40,53
Amino Acids
Other
Ingredients
"PORK AND BEEF, WATER, SPICES (INCLUDING PAPRIKA), SALT, CORN SYRUP SOLIDS, DEXTROSE, NATURAL SMOKE FLAVORING, SODIUM ERYTHORBATE, ONION POWDER, SODIUM NITRITE. IN COLORED COLLAGEN CASING." Date available: 06/25/2017 Date last updated by company: 06/25/2017
