Source: USDA Branded Food Products Database Release December 2017 Software v.3.8.6.4 2017-10-02
Report Run at: December 18, 2017 06:14 EST
"Nutrient data for: 45057261, HENGSTENBERG, HORSERADISH HOT & SICY, UPC: 038274675822"
Food Group:  Branded Food Products Database
Common Name:

Nutrient,Unit,Data points,Std. Error,"5.0 GRM = 5.0g",1Value per 100 g,
Proximates
"Energy",kcal,--,--,10,200
"Protein",g,--,--,0.00,0.00
"Total lipid (fat)",g,--,--,0.00,0.00
"Carbohydrate, by difference",g,--,--,1.00,20.00
"Fiber, total dietary",g,--,--,0.0,0.0
"Sugars, total",g,--,--,0.00,0.00
Minerals
"Sodium, Na",mg,--,--,5,100
Vitamins
Lipids
Amino Acids
Other
Ingredients
"HORSERADISH, WATER, VINEGAR, RAPESEED OIL, SUGAR, GUAR GUM AND CAROB MEAL (THICKENING AGENTS), SALT, CITRIC ACID (ACIDULANT), SODIUM METABISULPHITE (ANTIOXIDANT)." Date available: 07/14/2017 Date last updated by company: 07/14/2017
