Source: USDA Branded Food Products Database Release December 2017 Software v.3.8.6.4 2017-10-02
Report Run at: December 18, 2017 06:17 EST
"Nutrient data for: 45290487, HERB CRUSTED ATLANTIC SALMON, UPC: 5060021924957>"
Food Group:  Branded Food Products Database
Common Name:

Nutrient,Unit,Data points,Std. Error,"1 PIECE = 135.0g",1Value per 100 g,
Proximates
"Energy",kcal,--,--,360,267
"Protein",g,--,--,19.99,14.81
"Total lipid (fat)",g,--,--,29.00,21.48
"Carbohydrate, by difference",g,--,--,7.01,5.19
"Fiber, total dietary",g,--,--,2.0,1.5
"Sugars, total",g,--,--,0.00,0.00
Minerals
"Calcium, Ca",mg,--,--,12,9
"Iron, Fe",mg,--,--,0.00,0.00
"Sodium, Na",mg,--,--,490,363
Vitamins
Lipids
"Fatty acids, total saturated",g,--,--,7.007,5.190
"Fatty acids, total trans",g,--,--,0.000,0.000
"Cholesterol",mg,--,--,0,0
Amino Acids
Other
Ingredients
"FISH: ATLANTIC SALMON (COLOR ADDED). HERB GLAZE: SUGAR, SPICES (MUSTARD, BLACK PEPPER, TURMERIC), SALT, HONEY POWDER, CORN STARCH, GARLIC POWDER, DILL, PARSLEY, CITRIC ACID (ACID REGULATOR), YEAST EXTRACT, STABILIZER (XANTHAN GUM), LEMON OIL, CARAMELIZED SUGAR, PAPRIKA EXTRACT (NATURAL FLAVOR), DILL EXTRACT (NATURAL FLAVOR). LEMON BUTTER SAUCE: WATER, CREAM, BUTTER, LEMON JUICE, CORN STARCH, ONION, SPIRIT VINEGAR, SALT, LEMON ZEST, CAYENNE PEPPER, TURMERIC, WHITE PEPPER." Date available: 07/14/2017 Date last updated by company: 07/14/2017
