Source: USDA Branded Food Products Database Release December 2017 Software v.3.8.6.4 2017-10-02
Report Run at: December 18, 2017 06:18 EST
"Nutrient data for: 45256628, HERB & OLIVE OIL PORK TENDERLOIN, UPC: 011110900111"
Food Group:  Branded Food Products Database
Common Name:

Nutrient,Unit,Data points,Std. Error,"4.0 ONZ = 112.0g",1Value per 100 g,
Proximates
"Energy",kcal,--,--,140,125
"Protein",g,--,--,21.00,18.75
"Total lipid (fat)",g,--,--,4.50,4.02
"Carbohydrate, by difference",g,--,--,4.00,3.57
"Fiber, total dietary",g,--,--,0.0,0.0
"Sugars, total",g,--,--,2.00,1.79
Minerals
"Calcium, Ca",mg,--,--,20,18
"Iron, Fe",mg,--,--,0.82,0.73
"Sodium, Na",mg,--,--,810,723
Vitamins
"Vitamin C, total ascorbic acid",mg,--,--,0.0,0.0
"Vitamin A, IU",IU,--,--,0,0
Lipids
"Fatty acids, total saturated",g,--,--,1.501,1.340
"Fatty acids, total monounsaturated",g,--,--,2.005,1.790
"Fatty acids, total polyunsaturated",g,--,--,0.504,0.450
"Fatty acids, total trans",g,--,--,0.000,0.000
"Cholesterol",mg,--,--,55,49
Amino Acids
Other
Ingredients
"PORK, WATER, SEASONING (MALTODEXTRIN, SALT, GARLIC POWDER, PORK FAT, PORK STOCK, ONION POWDER, AUTOLYZED YEAST EXTRACT, NATURAL FLAVORS, DISODIUM INOSINATE AND DISODIUM GUANYLATE, SPICE, SODIUM PHOSPHATE, PROPYL GALLATE, THIAMINE HYDROCHLORIDE), VINEGAR, SALT AND SODIUM PHOSPHATE. RUBBED WITH: SEA SALT, MALTODEXTRIN, SPICES, YEAST EXTRACT, SUGAR, DRIED GARLIC, DRIED ONION, DRIED RED BELL PEPPER, OLIVE OIL FLAVOR (CANOLA OIL, OLIVE OIL, NATURAL FLAVOR), VINEGAR, DRIED PARSLEY, NATURAL FLAVOR, CITRIC ACID, AND SMOKE FLAVOR." Date available: 07/14/2017 Date last updated by company: 07/14/2017
