Source: USDA Branded Food Products Database Release December 2017 Software v.3.8.6.4 2017-10-02
Report Run at: December 18, 2017 06:16 EST
"Nutrient data for: 45212493, HERBAL TEA BLEND, UPC: 798304258424"
Food Group:  Branded Food Products Database
Common Name:

Nutrient,Unit,Data points,Std. Error,"1 TEA BAG (MAKES 8 FL OZ PREPARED) = 5.0g",1Value per 100 g,
Proximates
"Energy",kcal,--,--,0,0
"Protein",g,--,--,0.00,0.00
"Total lipid (fat)",g,--,--,0.00,0.00
"Carbohydrate, by difference",g,--,--,0.00,0.00
Minerals
"Potassium, K",mg,--,--,0,0
"Sodium, Na",mg,--,--,0,0
Vitamins
Lipids
"Fatty acids, total trans",g,--,--,0.000,0.000
Amino Acids
Other
Ingredients
"HIBISCUS PETALS, ELDERBERRIES, CURRANTS, PURPLE CORN, APPLE PIECES, PINEAPPLE PIECES, CINNAMON, CLOVES AND NATURAL FLAVORS" Date available: 07/14/2017 Date last updated by company: 07/14/2017
