Source: USDA Branded Food Products Database Release December 2017 Software v.3.8.6.4 2017-10-02
Report Run at: December 18, 2017 06:17 EST
"Nutrient data for: 45180665, HERBED CRAWFISH DIP, UPC: 859098005318"
Food Group:  Branded Food Products Database
Common Name:

Nutrient,Unit,Data points,Std. Error,"2.0 TBSP. = 28.0g",1Value per 100 g,
Proximates
"Energy",kcal,--,--,60,214
"Protein",g,--,--,2.00,7.14
"Total lipid (fat)",g,--,--,6.00,21.43
"Carbohydrate, by difference",g,--,--,1.00,3.57
"Fiber, total dietary",g,--,--,0.0,0.0
"Sugars, total",g,--,--,1.00,3.57
Minerals
"Calcium, Ca",mg,--,--,20,71
"Iron, Fe",mg,--,--,0.77,2.76
"Sodium, Na",mg,--,--,60,214
Vitamins
"Vitamin C, total ascorbic acid",mg,--,--,7.7,27.6
"Vitamin A, IU",IU,--,--,643,2296
Lipids
"Fatty acids, total saturated",g,--,--,2.999,10.710
"Fatty acids, total trans",g,--,--,0.000,0.000
"Cholesterol",mg,--,--,25,89
Amino Acids
Other
Ingredients
"CREAM CHEESE (PASTEURIZED CULTURED MILK AND CREAM, SALT, STABILIZERS [XANTHAN AND/OR CAROB BEAN AND/OR GUAR GUMS]), CRAWFISH, DICED ONION, DICED CELERY, DICED GREEN BELL PEPPERS, PIMIENTOS, PASTEURIZED PART SKIM MILK AND CREAM, GARLIC. CONTAINS 2% OR LESS OF THE FOLLOWING: CITRIC ACID, CHEESE CULTURE, ENZYMES, SOY LECITHIN, MODIFIED CORNSTARCH, WATER, SOYBEAN OIL, VINEGAR, RED PEPPER, SEA SALT, POTASSIUM CHLORIDE, SPICE, PAPRIKA, CORN SYRUP SOLIDS, LEMON JUICE SOLIDS, LEMON OIL, CHIVES." Date available: 07/14/2017 Date last updated by company: 07/14/2017
