Source: USDA Branded Food Products Database Release December 2017 Software v.3.8.6.4 2017-10-02
Report Run at: December 18, 2017 06:22 EST
"Nutrient data for: 45029661, HERDEZ, WHOLE JALAPENOS, UPC: 072878285360"
Food Group:  Branded Food Products Database
Common Name:

Nutrient,Unit,Data points,Std. Error,"2.0 Tbsp = 33.0g",1Value per 100 g,
Proximates
"Energy",kcal,--,--,5,15
"Protein",g,--,--,0.00,0.00
"Total lipid (fat)",g,--,--,0.00,0.00
"Carbohydrate, by difference",g,--,--,2.00,6.06
"Fiber, total dietary",g,--,--,1.0,3.0
"Sugars, total",g,--,--,1.00,3.03
Minerals
"Calcium, Ca",mg,--,--,0,0
"Iron, Fe",mg,--,--,0.00,0.00
"Sodium, Na",mg,--,--,620,1879
Vitamins
"Vitamin C, total ascorbic acid",mg,--,--,9.1,27.5
"Vitamin A, IU",IU,--,--,757,2295
Lipids
"Fatty acids, total saturated",g,--,--,0.000,0.000
"Fatty acids, total trans",g,--,--,0.000,0.000
"Cholesterol",mg,--,--,0,0
Amino Acids
Other
Ingredients
"JALAPENO PEPPERS, WATER, CARROTS, SOYBEAN OIL, IODIZED SALT, DISTILLED VINEGAR, ONIONS, GARLIC POWDER, BAY LEAVES AND OREGANO." Date available: 07/14/2017 Date last updated by company: 07/14/2017
