Source: USDA Branded Food Products Database Release December 2017 Software v.3.8.6.4 2017-10-02
Report Run at: December 18, 2017 06:30 EST
"Nutrient data for: 45003987, HERR'S, SANDWICH COOKIES, LEMON CREAM, UPC: 072600093300"
Food Group:  Branded Food Products Database
Common Name:

Nutrient,Unit,Data points,Std. Error,"25.0 g = 25.0g",1Value per 100 g,
Proximates
"Energy",kcal,--,--,120,480
"Protein",g,--,--,1.00,4.00
"Total lipid (fat)",g,--,--,4.00,16.00
"Carbohydrate, by difference",g,--,--,20.00,80.00
"Fiber, total dietary",g,--,--,1.0,4.0
"Sugars, total",g,--,--,9.00,36.00
Minerals
"Calcium, Ca",mg,--,--,0,0
"Iron, Fe",mg,--,--,0.72,2.88
"Sodium, Na",mg,--,--,30,120
Vitamins
"Vitamin C, total ascorbic acid",mg,--,--,0.0,0.0
"Vitamin A, IU",IU,--,--,0,0
Lipids
"Fatty acids, total saturated",g,--,--,1.000,4.000
"Fatty acids, total trans",g,--,--,1.000,4.000
"Cholesterol",mg,--,--,0,0
Amino Acids
Other
Ingredients
"ENRICHED WHEAT FLOUR (WHEAT FLOUR, NIACIN, REDUCED IRON, THIAMINE MONONITRATE, RIBOFLAVIN AND FOLIC ACID), SHORTENING (PARTIALLY HYDROGENATED SOYBEAN OIL), SUGAR, POWDERED SUGAR, DEXTROSE, HIGH FRUCTOSE CORN SYRUP, CORN STARCH, SALT, BAKING SODA, VANILLIN (ARTIFICIAL FLAVOR), SOY LECITHIN, MONOCALCIUM PHOSPHATE, NATURAL AND ARTIFICIAL LEMON FLAVOR." Date available: 09/23/2016 Date last updated by company: 09/23/2016
