Source: USDA Branded Food Products Database Release December 2017 Software v.3.8.6.4 2017-10-02
Report Run at: December 18, 2017 06:26 EST
"Nutrient data for: 45067322, HERR'S, CHUNKY SALSA, MILD, UPC: 072600003873"
Food Group:  Branded Food Products Database
Common Name:

Nutrient,Unit,Data points,Std. Error,"2.0 Tbsp = 30.0g",1Value per 100 g,
Proximates
"Energy",kcal,--,--,10,33
"Protein",g,--,--,0.00,0.00
"Total lipid (fat)",g,--,--,0.00,0.00
"Carbohydrate, by difference",g,--,--,2.00,6.67
"Sugars, total",g,--,--,1.00,3.33
Minerals
"Sodium, Na",mg,--,--,160,533
Vitamins
"Vitamin C, total ascorbic acid",mg,--,--,8.0,26.7
"Vitamin A, IU",IU,--,--,166,555
Lipids
Amino Acids
Other
Ingredients
"DICED TOMATOES, WATER, FRESH JALAPENO PEPPERS, TOMATO PASTE, FRESH ONIONS, DISTILLED VINEGAR, DEHYDRATED ONIONS, SALT, DEHYDRATED GARLIC, NATURAL FLAVOR." Date available: 06/25/2017 Date last updated by company: 06/25/2017
