Source: USDA Branded Food Products Database Release December 2017 Software v.3.8.6.4 2017-10-02
Report Run at: December 18, 2017 06:24 EST
"Nutrient data for: 45080045, HERRING FILLETS IN MUSTARD SAUCE, UPC: 074027007304"
Food Group:  Branded Food Products Database
Common Name:

Nutrient,Unit,Data points,Std. Error,"3.53 ONZ = 100.0g",1Value per 100 g,
Proximates
"Energy",kcal,--,--,170,170
"Protein",g,--,--,13.00,13.00
"Total lipid (fat)",g,--,--,12.00,12.00
"Carbohydrate, by difference",g,--,--,3.00,3.00
"Fiber, total dietary",g,--,--,0.0,0.0
"Sugars, total",g,--,--,2.00,2.00
Minerals
"Calcium, Ca",mg,--,--,60,60
"Iron, Fe",mg,--,--,0.92,0.92
"Sodium, Na",mg,--,--,330,330
Vitamins
"Vitamin C, total ascorbic acid",mg,--,--,0.0,0.0
"Vitamin A, IU",IU,--,--,85,85
Lipids
"Fatty acids, total saturated",g,--,--,2.500,2.500
"Fatty acids, total trans",g,--,--,0.000,0.000
"Cholesterol",mg,--,--,65,65
Amino Acids
Other
Ingredients
"HERRING FILLETS (60%), WATER, MUSTARD (WATER, MUSTARD SEED, SALT, SPICES, NATURAL FLAVORING), SUGAR, VEGETABLE OIL, SPIRIT VINEGAR, THICKENER: GUAR GUM, CARRAGEENAN; SALT, TOMATO PASTE, SEASONINGS (SEASONING, IODIZED SALT, MODIFIED POTATO STARCH, SUGAR, YEAST EXTRACT, FLAVORING, SPICES)." Date available: 07/14/2017 Date last updated by company: 07/14/2017
