Source: USDA Branded Food Products Database Release December 2017 Software v.3.8.6.4 2017-10-02
Report Run at: December 18, 2017 06:31 EST
"Nutrient data for: 45249069, HERSHEY'S, KISSES, MILK CHOCOLATE, UPC: 768395500016"
Food Group:  Branded Food Products Database
Common Name:

Nutrient,Unit,Data points,Std. Error,"1 PACKAGE = 17.0g",1Value per 100 g,
Proximates
"Energy",kcal,--,--,90,529
"Protein",g,--,--,1.00,5.88
"Total lipid (fat)",g,--,--,5.00,29.41
"Carbohydrate, by difference",g,--,--,11.00,64.71
"Fiber, total dietary",g,--,--,0.0,0.0
"Sugars, total",g,--,--,10.00,58.82
Minerals
"Calcium, Ca",mg,--,--,20,118
"Iron, Fe",mg,--,--,1.06,6.23
"Sodium, Na",mg,--,--,15,88
Vitamins
"Vitamin C, total ascorbic acid",mg,--,--,0.0,0.0
"Vitamin A, IU",IU,--,--,0,0
Lipids
"Fatty acids, total saturated",g,--,--,3.500,20.590
"Fatty acids, total trans",g,--,--,0.000,0.000
"Cholesterol",mg,--,--,5,29
Amino Acids
Other
Ingredients
"MILK CHOCOLATE [CANE SUGAR;MILK;CHOCOLATE;COCOA BUTTER;MILK FAT; LECITHIN ( SOY); NATURAL FLAVOR]" Date available: 07/14/2017 Date last updated by company: 07/14/2017
