Source: USDA Branded Food Products Database Release December 2017 Software v.3.8.6.4 2017-10-02
Report Run at: December 18, 2017 06:32 EST
"Nutrient data for: 45311410, HERSHEY'S, PUDDING, CHOCOLATE, UPC: 043000068618"
Food Group:  Branded Food Products Database
Common Name:

Nutrient,Unit,Data points,Std. Error,"1 SNACK = 110.0g",1Value per 100 g,
Proximates
"Energy",kcal,--,--,140,127
"Protein",g,--,--,3.00,2.73
"Total lipid (fat)",g,--,--,3.50,3.18
"Carbohydrate, by difference",g,--,--,23.00,20.91
"Fiber, total dietary",g,--,--,1.0,0.9
"Sugars, total",g,--,--,18.00,16.36
Minerals
"Calcium, Ca",mg,--,--,60,55
"Iron, Fe",mg,--,--,0.66,0.60
"Sodium, Na",mg,--,--,180,164
Vitamins
"Vitamin C, total ascorbic acid",mg,--,--,0.0,0.0
"Vitamin A, IU",IU,--,--,182,165
Lipids
"Fatty acids, total saturated",g,--,--,2.002,1.820
"Fatty acids, total trans",g,--,--,0.000,0.000
"Cholesterol",mg,--,--,15,14
Amino Acids
Other
Ingredients
"SKIM MILK, WATER, SUGAR, CREAM, MODIFIED FOOD STARCH, COCOA PROCESSED WITH ALKALI, CONTAINS LESS THAN 2% OF GELATIN, SALT, SODIUM STEAROYL LACTYLATE (FOR SMOOTH TEXTURE), NATURAL AND ARTIFICIAL FLAVOR, VITAMIN A PALMITATE, VITAMIN D3" Date available: 07/14/2017 Date last updated by company: 07/14/2017
