Source: USDA Branded Food Products Database Release December 2017 Software v.3.8.6.4 2017-10-02
Report Run at: December 18, 2017 06:42 EST
"Nutrient data for: 45287340, HI - ENERGY MIX, UPC: 028744623286"
Food Group:  Branded Food Products Database
Common Name:

Nutrient,Unit,Data points,Std. Error,"0.25 cup = 30.0g",1Value per 100 g,
Proximates
"Energy",kcal,--,--,161,537
"Protein",g,--,--,5.00,16.67
"Total lipid (fat)",g,--,--,12.00,40.00
"Carbohydrate, by difference",g,--,--,9.00,30.00
"Fiber, total dietary",g,--,--,2.0,6.7
"Sugars, total",g,--,--,6.00,20.00
Minerals
"Calcium, Ca",mg,--,--,20,67
"Iron, Fe",mg,--,--,1.80,6.00
"Sodium, Na",mg,--,--,5,17
Vitamins
"Vitamin C, total ascorbic acid",mg,--,--,0.0,0.0
"Vitamin A, IU",IU,--,--,0,0
Lipids
"Fatty acids, total saturated",g,--,--,3.999,13.330
"Fatty acids, total trans",g,--,--,0.000,0.000
"Cholesterol",mg,--,--,2400,8000
Amino Acids
Other
Ingredients
"PEANUTS, PUMPKIN SEED, CAROB CHIPS (SUGAR, PARTIALLY HYDROGENATED VEGETABLE OIL, WHEY, CAROB POWDER, BROWN SUGAR, SOY LECITHIN, VANILLIN), RAISINS, SOYBEANS, SUNFLOWER SEEDS, AND PUMPKIN SEEDS, SUNFLOWER OIL." Date available: 08/15/2017 Date last updated by company: 08/15/2017
