Source: USDA Branded Food Products Database Release December 2017 Software v.3.8.6.4 2017-10-02
Report Run at: December 18, 2017 06:36 EST
"Nutrient data for: 45156719, HICKORY HARVEST, SESAME STICKS, UPC: 036232095613"
Food Group:  Branded Food Products Database
Common Name:

Nutrient,Unit,Data points,Std. Error,"0.25 cup = 20.0g",1Value per 100 g,
Proximates
"Energy",kcal,--,--,160,800
"Protein",g,--,--,3.00,15.00
"Total lipid (fat)",g,--,--,11.00,55.00
"Carbohydrate, by difference",g,--,--,13.00,65.00
"Fiber, total dietary",g,--,--,1.0,5.0
"Sugars, total",g,--,--,0.00,0.00
Minerals
"Calcium, Ca",mg,--,--,60,300
"Iron, Fe",mg,--,--,3.60,18.00
"Sodium, Na",mg,--,--,420,2100
Vitamins
"Vitamin C, total ascorbic acid",mg,--,--,0.0,0.0
"Vitamin A, IU",IU,--,--,0,0
Lipids
"Fatty acids, total saturated",g,--,--,1.500,7.500
"Fatty acids, total trans",g,--,--,0.000,0.000
"Cholesterol",mg,--,--,0,0
Amino Acids
Other
Ingredients
"UNBLEACHED WHEAT FLOUR (CONTAINS MALTED BARLEY FLOUR AS A PRESERVATIVE), WATER, CANOLA AND/OR SOYBEAN OIL, SESAME SEEDS, BULGUR WHEAT, SALT, BEET POWDER (COLOR), TURMERIC (COLOR)." Date available: 07/14/2017 Date last updated by company: 07/14/2017
