Source: USDA Branded Food Products Database Release December 2017 Software v.3.8.6.4 2017-10-02
Report Run at: December 18, 2017 06:35 EST
"Nutrient data for: 45156416, HICKORY FARMS, SWEET INDULGENCES, UPC: 021357083904"
Food Group:  Branded Food Products Database
Common Name:

Nutrient,Unit,Data points,Std. Error,"6.0 PIECES = 42.0g",1Value per 100 g,
Proximates
"Energy",kcal,--,--,200,476
"Protein",g,--,--,2.00,4.76
"Total lipid (fat)",g,--,--,8.00,19.05
"Carbohydrate, by difference",g,--,--,30.00,71.43
"Fiber, total dietary",g,--,--,0.0,0.0
"Sugars, total",g,--,--,20.00,47.62
Minerals
"Calcium, Ca",mg,--,--,20,48
"Iron, Fe",mg,--,--,0.86,2.04
"Sodium, Na",mg,--,--,160,381
Vitamins
"Vitamin C, total ascorbic acid",mg,--,--,0.0,0.0
"Vitamin A, IU",IU,--,--,0,0
Lipids
"Fatty acids, total saturated",g,--,--,7.001,16.670
"Fatty acids, total trans",g,--,--,0.000,0.000
"Cholesterol",mg,--,--,0,0
Amino Acids
Other
Ingredients
"WHITE COATING (SUGAR, VEGETABLE OIL [PALM KERNEL AND HYDROGENATED PALM], WHEY POWDER [MILK], NONFAT DRY MILK, SORBITAN MONOSTEARATE, POLYSORBATE 60, SOY LECITHIN [EMULSIFIER], AND VANILLIN), PRETZELS (ENRICHED WHEAT FLOUR, [WHEAT STARCH, NIACIN, REDUCED IRON,THIAMIN MONONITRATE, RIBOFLAVIN, FOLIC ACID], CORN SYRUP, SALT, VEGETABLE OIL, [MAY CONTAIN ONE OR MORE OF THE FOLLOWING: CORN, CANOLA, COTTONSEED, SOYBEAN], VITAL WHEAT GLUTEN, SODIUM BICARBONATE, YEAST), NONPAREILS (SUGAR, CORNSTARCH, CONFECTIONER'S GLAZE, FD&C RED #3, RED #40, CARNAUBA WAX)." Date available: 07/14/2017 Date last updated by company: 07/14/2017
