Source: USDA Branded Food Products Database Release December 2017 Software v.3.8.6.4 2017-10-02
Report Run at: December 18, 2017 06:39 EST
"Nutrient data for: 45196610, HICKORY SMOKED SAUSAGE, UPC: 051022604486"
Food Group:  Branded Food Products Database
Common Name:

Nutrient,Unit,Data points,Std. Error,"1 LINK = 113.0g",1Value per 100 g,
Proximates
"Energy",kcal,--,--,350,310
"Protein",g,--,--,14.00,12.39
"Total lipid (fat)",g,--,--,30.00,26.55
"Carbohydrate, by difference",g,--,--,6.00,5.31
"Fiber, total dietary",g,--,--,0.0,0.0
"Sugars, total",g,--,--,2.00,1.77
Minerals
"Calcium, Ca",mg,--,--,150,133
"Iron, Fe",mg,--,--,0.70,0.62
"Sodium, Na",mg,--,--,410,363
Vitamins
"Vitamin C, total ascorbic acid",mg,--,--,1.1,1.0
"Vitamin A, IU",IU,--,--,243,215
Lipids
"Fatty acids, total saturated",g,--,--,8.995,7.960
"Fatty acids, total trans",g,--,--,0.000,0.000
"Cholesterol",mg,--,--,130,115
Amino Acids
Other
Ingredients
"MECHANICALLY SEPARATED CHICKEN, BEEF, WATER, SPICES, DEXTROSE, CORN SYRUP, CORN STARCH, SOY PROTEIN CONCENTRATE, SALT, SODIUM PHOSPHATE, ONION, GARLIC, SODIUM ERYTHORBATE, SODIUM NITRITE. ENCASED IN A PORK CASING." Date available: 07/14/2017 Date last updated by company: 07/14/2017
