Source: USDA Branded Food Products Database Release December 2017 Software v.3.8.6.4 2017-10-02
Report Run at: December 18, 2017 06:35 EST
"Nutrient data for: 45267218, HICKORY BBQ SEASONING, UPC: 078742154473"
Food Group:  Branded Food Products Database
Common Name:

Nutrient,Unit,Data points,Std. Error,"0.25 tsp = 1.0g",1Value per 100 g,
Proximates
"Energy",kcal,--,--,0,0
"Protein",g,--,--,0.00,0.00
"Total lipid (fat)",g,--,--,0.00,0.00
"Carbohydrate, by difference",g,--,--,0.00,0.00
Minerals
"Sodium, Na",mg,--,--,100,10000
Vitamins
Lipids
"Fatty acids, total trans",g,--,--,0.000,0.000
Amino Acids
Other
Ingredients
"SEA SALT, ORGANIC CANE SUGAR, ORGANIC SPICES, ORGANIC DEHYDRATED ONION, ORGANIC DEHYDRATED GARLIC, ORGANIC PAPRIKA, ORGANIC GROUND MUSTARD SEED, ORGANIC TOMATO POWDER, ORGANIC YEAST EXTRACT, NATURAL HICKORY SMOKE FLAVOR, CITRIC ACID, ORGANIC LEMON JUICE POWDER, ORGANIC RICE CONCENTRATE (ADDED AS A FLOW AGENT)." Date available: 07/14/2017 Date last updated by company: 07/14/2017
