Source: USDA Branded Food Products Database Release December 2017 Software v.3.8.6.4 2017-10-02
Report Run at: December 18, 2017 06:35 EST
"Nutrient data for: 45113861, HICKORY BROWN SUGAR BAKED BEANS, UPC: 072273421783"
Food Group:  Branded Food Products Database
Common Name:

Nutrient,Unit,Data points,Std. Error,"0.5 cup = 130.0g",1Value per 100 g,
Proximates
"Energy",kcal,--,--,150,115
"Protein",g,--,--,6.01,4.62
"Total lipid (fat)",g,--,--,0.00,0.00
"Carbohydrate, by difference",g,--,--,32.01,24.62
"Fiber, total dietary",g,--,--,6.0,4.6
"Sugars, total",g,--,--,15.00,11.54
Minerals
"Calcium, Ca",mg,--,--,60,46
"Iron, Fe",mg,--,--,1.44,1.11
"Sodium, Na",mg,--,--,569,438
Vitamins
"Vitamin C, total ascorbic acid",mg,--,--,0.0,0.0
"Vitamin A, IU",IU,--,--,0,0
Lipids
"Fatty acids, total saturated",g,--,--,0.000,0.000
"Fatty acids, total trans",g,--,--,0.000,0.000
"Cholesterol",mg,--,--,0,0
Amino Acids
Other
Ingredients
"PREPARED BEANS, WATER, SUGAR, CONTAINS LESS THAN 2%: CORNSTARCH MODIFIED, SALT, TOMATO PASTE, MOLASSES, VINEGAR, NATURAL FLAVOR (INCLUDING SMOKE FLAVOR), CARAMEL COLOR, SPICE, MALTODEXTRIN (FROM POTATO), ONION POWDER, CITRIC ACID, BLACK PEPPER, GARLIC POWDER." Date available: 07/14/2017 Date last updated by company: 07/14/2017
