Source: USDA Branded Food Products Database Release December 2017 Software v.3.8.6.4 2017-10-02
Report Run at: December 18, 2017 06:44 EST
"Nutrient data for: 45119515, HIGH LINER, SEA CUISINE, POTATO CRUSTED COD, UPC: 035493013152"
Food Group:  Branded Food Products Database
Common Name:

Nutrient,Unit,Data points,Std. Error,"1 FILLET | ABOUT = 154.0g",1Value per 100 g,
Proximates
"Energy",kcal,--,--,280,182
"Protein",g,--,--,23.01,14.94
"Total lipid (fat)",g,--,--,9.99,6.49
"Carbohydrate, by difference",g,--,--,23.01,14.94
"Fiber, total dietary",g,--,--,0.9,0.6
"Sugars, total",g,--,--,1.00,0.65
Minerals
"Calcium, Ca",mg,--,--,20,13
"Iron, Fe",mg,--,--,0.40,0.26
"Sodium, Na",mg,--,--,440,286
Vitamins
"Vitamin C, total ascorbic acid",mg,--,--,2.6,1.7
"Vitamin A, IU",IU,--,--,55,36
Lipids
"Fatty acids, total saturated",g,--,--,1.494,0.970
"Fatty acids, total trans",g,--,--,0.000,0.000
"Cholesterol",mg,--,--,40,26
Amino Acids
Other
Ingredients
"COD, BLEACHED WHEAT FLOUR, VEGETABLE OIL [CANOLA, COTTONSEED, AND/OR SOYBEAN], MODIFIED CORN STARCH, ENRICHED BLEACHED WHEAT FLOUR [FLOUR, NIACIN, REDUCED IRON, THIAMIN MONONITRATE, RIBOFLAVIN, FOLIC ACID), WATER, CONTAINS 2% OR LESS OF: YELLOW CORN FLOUR, CHEDDAR CHEESE (MILK, CHEESE CULTURES, SALT, ENZYMES], WHITE CORN FLOUR, POTATOES, GARLIC POWDER, SALT, ENRICHED WHEAT FLOUR [FLOUR, NIACIN , REDUCED IRON, THIAMINE MONONITRATE, RIBOFLAVIN, FOLIC ACID), ONION POWDER, EGG WHITES, DEHYDRATED POTATO (POTATOES, MONO AND DIGLYCERIDES, SODIUM ACID PYROPHOSPHATE, CITRIC ACID), SUGAR, VINEGAR, DRY POTATO MIX (POTATOES, CORN STARCH, GUAR GUM, SALT, METHYLCELLULOSE), CHIVES, NATURAL FLAVORS, DISDODIUM GUANYLATE, DISODIUM INOSINATE, LEAVENING (SODIUM ACID PYROPHOSPHATE, SODIUM BICARBONATE, MONOCALCIUM PHOSPHATE], WHEY, SPICE, YEAST, VEGETABLE OIL SHORTENING (SOYBEAN), GELATIN, LACTIC ACID, YEAST EXTRACT, DEXTROSE, TORULA YEAST, DISODIUM PHOSPHATE, PAPRIKA [COLOR], CARAMEL COLOR, YELLOW 5, YELLOW 6" Date available: 07/14/2017 Date last updated by company: 07/14/2017
