Source: USDA Branded Food Products Database Release December 2017 Software v.3.8.6.4 2017-10-02
Report Run at: December 18, 2017 06:47 EST
"Nutrient data for: 45220641, HIGH PROTEIN BAR, UPC: 643843000594"
Food Group:  Branded Food Products Database
Common Name:

Nutrient,Unit,Data points,Std. Error,"1 BAR = 72.0g",1Value per 100 g,
Proximates
"Energy",kcal,--,--,300,417
"Protein",g,--,--,30.00,41.67
"Total lipid (fat)",g,--,--,10.00,13.89
"Carbohydrate, by difference",g,--,--,24.00,33.33
"Fiber, total dietary",g,--,--,3.0,4.2
"Sugars, total",g,--,--,9.00,12.50
Minerals
"Calcium, Ca",mg,--,--,100,139
"Iron, Fe",mg,--,--,2.00,2.78
"Phosphorus, P",mg,--,--,84,116
"Potassium, K",mg,--,--,220,306
"Sodium, Na",mg,--,--,450,625
Vitamins
"Vitamin C, total ascorbic acid",mg,--,--,0.0,0.0
"Vitamin A, IU",IU,--,--,0,0
Lipids
"Fatty acids, total saturated",g,--,--,4.997,6.940
"Fatty acids, total trans",g,--,--,0.000,0.000
"Cholesterol",mg,--,--,0,0
Amino Acids
Other
Ingredients
"PREMIER PROTEIN BAR PROTEIN BLEND (SOY PROTEIN ISOLATE, WHEY PROTEIN HYDROLYSATE, WHEY PROTEIN CONCENTRATE), GLYCERIN, HYDROLYZED GELATIN, PARTIALLY DEFATTED PEANUT FLOUR, SUGAR, WATER, PEANUT BUTTER (DRY ROASTED PEANUTS), PALM KERNEL OIL, INULIN, CONTAINS 2% OR LESS OF THE FOLLOWING: TAPIOCA STARCH, SALT, NATURAL AND ARTIFICIAL FLAVORS, NONFAT DRY MILK, SOY LECITHIN (AN EMULSIFIER), PEANUT EXTRACT, PEANUT OIL, SUCRALOSE." Date available: 07/14/2017 Date last updated by company: 07/14/2017
