Source: USDA Branded Food Products Database Release December 2017 Software v.3.8.6.4 2017-10-02
Report Run at: December 18, 2017 06:49 EST
"Nutrient data for: 45332837, HIGH PROTEIN MILK SHAKE, UPC: 786560657976"
Food Group:  Branded Food Products Database
Common Name:

Nutrient,Unit,Data points,Std. Error,"1 BOTTLE = 325.0g",1Value per 100 g,
Proximates
"Energy",kcal,--,--,250,77
"Protein",g,--,--,30.00,9.23
"Total lipid (fat)",g,--,--,6.01,1.85
"Carbohydrate, by difference",g,--,--,21.00,6.46
"Fiber, total dietary",g,--,--,1.0,0.3
"Sugars, total",g,--,--,19.99,6.15
Minerals
"Calcium, Ca",mg,--,--,1098,338
"Iron, Fe",mg,--,--,1.20,0.37
"Sodium, Na",mg,--,--,36,11
Vitamins
"Vitamin C, total ascorbic acid",mg,--,--,0.0,0.0
"Vitamin A, IU",IU,--,--,221,68
"Vitamin D",IU,--,--,179,55
Lipids
"Fatty acids, total saturated",g,--,--,2.502,0.770
"Fatty acids, total trans",g,--,--,0.000,0.000
"Cholesterol",mg,--,--,46,14
Amino Acids
Other
Ingredients
"ULTRA-FILTERED SKIM MILK, WATER, HEAVY WHIPPING CREAM, SUGAR, MILK PROTEIN ISOLATE, COCOA POWDER (PROCESSED WITH ALKALI), NATURAL FLAVORS, GELLAN GUM, VITAMIN D." Date available: 08/11/2017 Date last updated by company: 08/11/2017
