Source: USDA Branded Food Products Database Release December 2017 Software v.3.8.6.4 2017-10-02
Report Run at: December 18, 2017 06:47 EST
"Nutrient data for: 45220640, HIGH PROTEIN BAR, UPC: 643843000532"
Food Group:  Branded Food Products Database
Common Name:

Nutrient,Unit,Data points,Std. Error,"1 BAR = 72.0g",1Value per 100 g,
Proximates
"Energy",kcal,--,--,280,389
"Protein",g,--,--,30.00,41.67
"Total lipid (fat)",g,--,--,7.00,9.72
"Carbohydrate, by difference",g,--,--,25.00,34.72
"Fiber, total dietary",g,--,--,3.0,4.2
"Sugars, total",g,--,--,10.00,13.89
Minerals
"Calcium, Ca",mg,--,--,100,139
"Iron, Fe",mg,--,--,2.50,3.47
"Phosphorus, P",mg,--,--,139,193
"Potassium, K",mg,--,--,260,361
"Sodium, Na",mg,--,--,370,514
Vitamins
"Vitamin C, total ascorbic acid",mg,--,--,0.0,0.0
"Vitamin A, IU",IU,--,--,55,77
Lipids
"Fatty acids, total saturated",g,--,--,4.997,6.940
"Fatty acids, total trans",g,--,--,0.000,0.000
"Cholesterol",mg,--,--,5,7
Amino Acids
Other
Ingredients
"PREMIER PROTEIN BAR PROTEIN BLEND (SOY PROTEIN ISOLATE, WHEY PROTEIN CONCENTRATE, WHEY PROTEIN ISOLATE), GLYCERIN, SUGAR, HYDROLYZED GELATIN, PALM KERNEL OIL, WATER, INULIN, NATURAL AND ARTIFICIAL FLAVORS, COCOA (PROCESSED WITH ALKALI), NONFAT DRY MILK, CONTAINS 2% OR LESS OF THE FOLLOWING: TAPIOCA STARCH, SOY LECITHIN (AN EMULSIFIER), CORN SYRUP, HIGH OLEIC SUNFLOWER OIL, SALT, WHOLE MILK POWDER, COCOA BUTTER, SUCRALOSE." Date available: 07/14/2017 Date last updated by company: 07/14/2017
