Source: USDA Branded Food Products Database Release December 2017 Software v.3.8.6.4 2017-10-02
Report Run at: December 18, 2017 06:44 EST
"Nutrient data for: 45138035, HIGH LINER, FISHER BOY, FISH STICKS, UPC: 041600614020"
Food Group:  Branded Food Products Database
Common Name:

Nutrient,Unit,Data points,Std. Error,"6.0 STICKS = 84.0g",1Value per 100 g,
Proximates
"Energy",kcal,--,--,210,250
"Protein",g,--,--,9.00,10.71
"Total lipid (fat)",g,--,--,9.00,10.71
"Carbohydrate, by difference",g,--,--,24.00,28.57
"Fiber, total dietary",g,--,--,2.0,2.4
"Sugars, total",g,--,--,2.00,2.38
Minerals
"Calcium, Ca",mg,--,--,20,24
"Iron, Fe",mg,--,--,1.46,1.74
"Sodium, Na",mg,--,--,540,643
Vitamins
"Vitamin C, total ascorbic acid",mg,--,--,0.0,0.0
"Vitamin A, IU",IU,--,--,0,0
Lipids
"Fatty acids, total saturated",g,--,--,1.504,1.790
"Fatty acids, total trans",g,--,--,0.000,0.000
"Cholesterol",mg,--,--,10,12
Amino Acids
Other
Ingredients
"MINCED FISH BLEND (POLLOCK, WHITING, HADDOCK, COD, SOLE), WATER, WHEAT FLOUR, VEGETABLE OIL (CANOLA, COTTONSEED, AND/OR SOYBEAN), ENRICHED WHEAT FLOUR (FLOUR, NIACIN, FERROUS SULFATE, THIAMINE MONONITRATE, RIBOFLAVIN, FOLIC ACID), MODIFIED CORN STARCH, SOY PROTEIN CONCENTRATE, CONTAINS 2% OR LESS OF: SUGAR, SALT, DEXTROSE, HYDROLYZED CORN PROTEIN, LEAVENING (SODIUM ALUMINIUM PHOSPHATE, SODIUM BICARBONATE), TITANIUM DIOXIDE, MALTODEXTRIN, ONION POWDER, YEAST, BUTTER (CREAM, FLAVOR), NATURAL FLAVORS, SPICE, SODIUM TRIPOLYPHOSPHATE (TO RETAIN MOISTURE)." Date available: 07/14/2017 Date last updated by company: 07/14/2017
