Source: USDA Branded Food Products Database Release December 2017 Software v.3.8.6.4 2017-10-02
Report Run at: December 18, 2017 06:47 EST
"Nutrient data for: 45234974, HIGH PROTEIN BAR, UPC: 753656701264"
Food Group:  Branded Food Products Database
Common Name:

Nutrient,Unit,Data points,Std. Error,"1 BAR = 60.0g",1Value per 100 g,
Proximates
"Energy",kcal,--,--,240,400
"Protein",g,--,--,20.00,33.33
"Total lipid (fat)",g,--,--,9.00,15.00
"Carbohydrate, by difference",g,--,--,24.00,40.00
"Fiber, total dietary",g,--,--,1.0,1.7
"Sugars, total",g,--,--,0.00,0.00
Minerals
"Calcium, Ca",mg,--,--,100,167
"Iron, Fe",mg,--,--,0.96,1.60
"Sodium, Na",mg,--,--,240,400
Vitamins
"Vitamin C, total ascorbic acid",mg,--,--,0.0,0.0
"Vitamin A, IU",IU,--,--,0,0
Lipids
"Fatty acids, total saturated",g,--,--,3.000,5.000
"Fatty acids, total trans",g,--,--,0.000,0.000
"Cholesterol",mg,--,--,5,8
Amino Acids
Other
Ingredients
"PROTEIN BLEND (WHEY PROTEIN ISOLATE, SOY PROTEIN ISOLATE, CALCIUM CASEINATE, CASEIN), GLYCERIN, COATING (MALTITOL, COCOA BUTTER, CHOCOLATE, SODIUM CASEINATE, MILK FAT, SOY LECITHIN, NATURAL FLAVORS, SALT), MALTITOL, PEANUTS, SOY CRISPS (SOY PROTEIN ISOLATE, RICE FLOUR, SALT), WATER, PEANUT FLOUR, CANOLA OIL, NATURAL FLAVORS, SOY LECITHIN, SEA SALT." Date available: 07/14/2017 Date last updated by company: 07/14/2017
