Source: USDA Branded Food Products Database Release December 2017 Software v.3.8.6.4 2017-10-02
Report Run at: December 18, 2017 06:52 EST
"Nutrient data for: 45165194, HILCO, MARVEL AVENGERS DISPENSER & CANDY, SWEET SPINZ ORANGE, UPC: 083933223500"
Food Group:  Branded Food Products Database
Common Name:

Nutrient,Unit,Data points,Std. Error,"1 PC = 15.0g",1Value per 100 g,
Proximates
"Energy",kcal,--,--,57,380
"Protein",g,--,--,0.00,0.00
"Total lipid (fat)",g,--,--,0.00,0.00
"Carbohydrate, by difference",g,--,--,12.00,80.00
"Fiber, total dietary",g,--,--,0.0,0.0
"Sugars, total",g,--,--,11.00,73.33
Minerals
"Calcium, Ca",mg,--,--,0,0
"Iron, Fe",mg,--,--,0.00,0.00
"Sodium, Na",mg,--,--,0,0
Vitamins
"Vitamin C, total ascorbic acid",mg,--,--,0.0,0.0
"Vitamin A, IU",IU,--,--,0,0
Lipids
"Fatty acids, total saturated",g,--,--,0.000,0.000
"Fatty acids, total trans",g,--,--,0.000,0.000
"Cholesterol",mg,--,--,0,0
Amino Acids
Other
Ingredients
"SUGAR, GLUCOSE SYRUP, CITRIC ACID, ARTIFICIAL FLAVOR: FRUIT FLAVOR, ARTIFICIAL COLOR: (RED 40, YELLOW 6 TITANIUM DIOXIDE)." Date available: 07/14/2017 Date last updated by company: 07/14/2017
