Source: USDA Branded Food Products Database Release December 2017 Software v.3.8.6.4 2017-10-02
Report Run at: December 18, 2017 06:54 EST
"Nutrient data for: 45312122, HILLSHIRE FARM, AMERICAN CRAFT, FULLY COOKED SMOKY BOURBON SAUSAGE, UPC: 044500201598"
Food Group:  Branded Food Products Database
Common Name:

Nutrient,Unit,Data points,Std. Error,"1 LINK = 82.0g",1Value per 100 g,
Proximates
"Energy",kcal,--,--,260,317
"Protein",g,--,--,11.00,13.41
"Total lipid (fat)",g,--,--,23.00,28.05
"Carbohydrate, by difference",g,--,--,3.00,3.66
"Fiber, total dietary",g,--,--,0.0,0.0
"Sugars, total",g,--,--,1.00,1.22
Minerals
"Calcium, Ca",mg,--,--,20,24
"Iron, Fe",mg,--,--,0.24,0.29
"Potassium, K",mg,--,--,660,805
"Sodium, Na",mg,--,--,590,720
Vitamins
"Vitamin C, total ascorbic acid",mg,--,--,0.0,0.0
"Vitamin A, IU",IU,--,--,0,0
Lipids
"Fatty acids, total saturated",g,--,--,8.003,9.760
"Fatty acids, total trans",g,--,--,0.000,0.000
"Cholesterol",mg,--,--,55,67
Amino Acids
Other
Ingredients
"PORK, WATER, CORN SYRUP, CONTAINS 2% OR LESS: SALT, POTASSIUM LACTATE, BOURBON, MOLASSES POWDER, CULTURED CELERY JUICE POWDER, NATURAL FLAVOR, TOMATO POWDER, POTASSIUM PHOSPHATES, SODIUM DIACETATE, SPICE, CHERRY POWDER, PAPRIKA, YEAST EXTRACT, MALIC ACID, SUGAR, BROWN SUGAR." Date available: 07/14/2017 Date last updated by company: 07/14/2017
