Source: USDA Branded Food Products Database Release December 2017 Software v.3.8.6.4 2017-10-02
Report Run at: December 18, 2017 07:01 EST
"Nutrient data for: 45157780, HINES NUT CO, ORCHARD FRESH WALNUTS, UPC: 078264067084"
Food Group:  Branded Food Products Database
Common Name:

Nutrient,Unit,Data points,Std. Error,"1 ONZ = 28.0g",1Value per 100 g,
Proximates
"Energy",kcal,--,--,183,654
"Protein",g,--,--,4.00,14.29
"Total lipid (fat)",g,--,--,18.00,64.29
"Carbohydrate, by difference",g,--,--,4.00,14.29
"Fiber, total dietary",g,--,--,2.0,7.1
"Sugars, total",g,--,--,1.00,3.57
Minerals
"Calcium, Ca",mg,--,--,30,107
"Iron, Fe",mg,--,--,1.61,5.74
"Sodium, Na",mg,--,--,1,4
Vitamins
"Vitamin C, total ascorbic acid",mg,--,--,1.1,3.8
"Vitamin A, IU",IU,--,--,0,0
Lipids
"Fatty acids, total saturated",g,--,--,1.999,7.140
"Fatty acids, total trans",g,--,--,0.000,0.000
"Cholesterol",mg,--,--,0,0
Amino Acids
Other
Ingredients
"WALNUTS." Date available: 07/14/2017 Date last updated by company: 07/14/2017
