Source: USDA Branded Food Products Database Release December 2017 Software v.3.8.6.4 2017-10-02
Report Run at: December 18, 2017 07:06 EST
"Nutrient data for: 45108868, HODGSON MILL, BUTTERMILK PANCAKE MIX, WHOLE WHEAT, UPC: 071518020224"
Food Group:  Branded Food Products Database
Common Name:

Nutrient,Unit,Data points,Std. Error,"0.3333 cup = 40.0g",1Value per 100 g,
Proximates
"Energy",kcal,--,--,130,325
"Protein",g,--,--,4.00,10.00
"Total lipid (fat)",g,--,--,1.00,2.50
"Carbohydrate, by difference",g,--,--,28.00,70.00
"Fiber, total dietary",g,--,--,4.0,10.0
"Sugars, total",g,--,--,2.00,5.00
Minerals
"Calcium, Ca",mg,--,--,20,50
"Iron, Fe",mg,--,--,1.44,3.60
"Sodium, Na",mg,--,--,321,802
Vitamins
"Vitamin C, total ascorbic acid",mg,--,--,0.0,0.0
"Vitamin A, IU",IU,--,--,0,0
Lipids
"Fatty acids, total saturated",g,--,--,0.000,0.000
"Fatty acids, total trans",g,--,--,0.000,0.000
"Cholesterol",mg,--,--,0,0
Amino Acids
Other
Ingredients
"WHOLE WHEAT FLOUR; WHOLE GRAIN YELLOW CORN MEAL; BUTTERMILK SOLIDS; DEXTROSE; LEAVENING (MONOCALCIUM PHOSPHATE, BAKING SODA); SALT." Date available: 06/24/2017 Date last updated by company: 06/24/2017
