Source: USDA Branded Food Products Database Release December 2017 Software v.3.8.6.4 2017-10-02
Report Run at: December 18, 2017 07:09 EST
"Nutrient data for: 45318719, HOFFMAN'S, NATURAL CHEDDAR CHEESE, UPC: 025400058970"
Food Group:  Branded Food Products Database
Common Name:

Nutrient,Unit,Data points,Std. Error,"1 SLICE = 23.0g",1Value per 100 g,
Proximates
"Energy",kcal,--,--,90,391
"Protein",g,--,--,5.00,21.74
"Total lipid (fat)",g,--,--,8.00,34.78
"Carbohydrate, by difference",g,--,--,0.00,0.00
"Fiber, total dietary",g,--,--,0.0,0.0
"Sugars, total",g,--,--,0.00,0.00
Minerals
"Calcium, Ca",mg,--,--,150,652
"Iron, Fe",mg,--,--,0.00,0.00
"Sodium, Na",mg,--,--,150,652
Vitamins
"Vitamin C, total ascorbic acid",mg,--,--,0.0,0.0
"Vitamin A, IU",IU,--,--,652,2835
Lipids
"Fatty acids, total saturated",g,--,--,5.000,21.740
"Fatty acids, total trans",g,--,--,0.000,0.000
"Cholesterol",mg,--,--,25,109
Amino Acids
Other
Ingredients
"CULTURED PASTEURIZED MILK, SALT, ENZYMES. ANNATTO (COLOR) ADDED TO COLORED VARIETY." Date available: 06/25/2017 Date last updated by company: 06/25/2017
