Source: USDA Branded Food Products Database Release December 2017 Software v.3.8.6.4 2017-10-02
Report Run at: December 18, 2017 07:10 EST
"Nutrient data for: 45064989, HOISIN SAUCE, UPC: 087586818823"
Food Group:  Branded Food Products Database
Common Name:

Nutrient,Unit,Data points,Std. Error,"1 Tbsp = 18.0g",1Value per 100 g,
Proximates
"Energy",kcal,--,--,40,222
"Protein",g,--,--,0.00,0.00
"Total lipid (fat)",g,--,--,1.00,5.56
"Carbohydrate, by difference",g,--,--,7.00,38.89
"Fiber, total dietary",g,--,--,0.0,0.0
"Sugars, total",g,--,--,5.00,27.78
Minerals
"Sodium, Na",mg,--,--,180,1000
Vitamins
Lipids
"Fatty acids, total saturated",g,--,--,0.000,0.000
"Fatty acids, total trans",g,--,--,0.000,0.000
"Cholesterol",mg,--,--,0,0
Amino Acids
Other
Ingredients
"FILTERED WATER, DRIED CANE SYRUP, MISO (WATER, SOYBEANS, RICE, SALT, ALCOHOL), VINEGAR, SESAME OIL, GMO-FREE CORN STARCH, SOY SAUCE (WATER, SOYBEANS, SALT, ALCOHOL), CARAMEL COLOR, SPICES, ONION POWDER, SALT, GARLIC." Date available: 07/14/2017 Date last updated by company: 07/14/2017
