Source: USDA Branded Food Products Database Release December 2017 Software v.3.8.6.4 2017-10-02
Report Run at: December 18, 2017 07:11 EST
"Nutrient data for: 45012146, HOLA, LABITO, SALTED PLUM, CHILI, STRAWBERRY, UPC: 097832000056"
Food Group:  Branded Food Products Database
Common Name:

Nutrient,Unit,Data points,Std. Error,"1.17 ONZ = 33.3g",1Value per 100 g,
Proximates
"Energy",kcal,--,--,70,211
"Protein",g,--,--,0.34,1.02
"Total lipid (fat)",g,--,--,0.85,2.55
"Carbohydrate, by difference",g,--,--,15.36,46.13
"Fiber, total dietary",g,--,--,2.9,8.7
"Sugars, total",g,--,--,12.80,38.44
Minerals
"Calcium, Ca",mg,--,--,0,0
"Iron, Fe",mg,--,--,0.00,0.00
"Sodium, Na",mg,--,--,779,2338
Vitamins
"Vitamin C, total ascorbic acid",mg,--,--,0.0,0.0
"Vitamin A, IU",IU,--,--,0,0
Lipids
"Fatty acids, total saturated",g,--,--,0.000,0.000
"Fatty acids, total trans",g,--,--,0.000,0.000
"Cholesterol",mg,--,--,0,0
Amino Acids
Other
Ingredients
"DRIED PLUMS, PURIFIED WATER, SUGAR, IODIZED SALT, CHILI, ARTIFICIAL FLAVOR, ARTIFICIAL COLORS FD&C YELLOW #6, FD&C RED #40 AND SPICES." Date available: 08/31/2017 Date last updated by company: 08/31/2017
