Source: USDA Branded Food Products Database Release December 2017 Software v.3.8.6.4 2017-10-02
Report Run at: December 18, 2017 07:17 EST
"Nutrient data for: 45267404, HOLIDAY TREE PRETZEL, UPC: 618650277606"
Food Group:  Branded Food Products Database
Common Name:

Nutrient,Unit,Data points,Std. Error,"7.0 PIECES = 40.0g",1Value per 100 g,
Proximates
"Energy",kcal,--,--,200,500
"Protein",g,--,--,2.00,5.00
"Total lipid (fat)",g,--,--,8.00,20.00
"Carbohydrate, by difference",g,--,--,28.00,70.00
"Fiber, total dietary",g,--,--,0.0,0.0
"Sugars, total",g,--,--,19.00,47.50
Minerals
"Calcium, Ca",mg,--,--,40,100
"Iron, Fe",mg,--,--,0.90,2.25
"Sodium, Na",mg,--,--,140,350
Vitamins
"Vitamin C, total ascorbic acid",mg,--,--,0.0,0.0
"Vitamin A, IU",IU,--,--,0,0
Lipids
"Fatty acids, total saturated",g,--,--,7.000,17.500
"Fatty acids, total trans",g,--,--,0.000,0.000
"Cholesterol",mg,--,--,0,0
Amino Acids
Other
Ingredients
"YOGURT FLAVORED COATING (SUGAR, PALM KERNEL OIL AND/OR PALM OIL, NONFAT DRY MILK, WHEY POWDER, NONFAT YOGURT POWDER [CULTURED WHEY, NONFAT MILK], TITANIUM DIOXIDE [COLOR], SOY LECITHIN [AN EMULSIFIER], LACTIC ACID, VANILLA), PRETZELS (ENRICHED WHEAT FLOUR [WHEAT FLOUR, NIACIN, REDUCED IRON, THIAMINE MONONITRATE, RIBOFLAVIN, FOLIC ACID], CORN SYRUP, VITAL WHEAT GLUTEN, SALT VEGETABLE OIL [MAY CONTAIN ONE OR MORE OF THE FOLLOWING: CORN, CANOLA, SOYBEAN], SODIUM BICARBONATE, YEAST), ARTIFICIAL COLORING (INCLUDES YELLOW 5 LAKE, BLUE 1 LAKE, RED 40 LAKE, BLUE 2 LAKE)." Date available: 07/14/2017 Date last updated by company: 07/14/2017
