Source: USDA Branded Food Products Database Release December 2017 Software v.3.8.6.4 2017-10-02
Report Run at: December 18, 2017 07:40 EST
"Nutrient data for: 45029837, HOMESTYLE WAFFLES, UPC: 058449590545"
Food Group:  Branded Food Products Database
Common Name:

Nutrient,Unit,Data points,Std. Error,"2.0 WAFFLES = 70.0g",1Value per 100 g,
Proximates
"Energy",kcal,--,--,210,300
"Protein",g,--,--,1.00,1.43
"Total lipid (fat)",g,--,--,7.00,10.00
"Carbohydrate, by difference",g,--,--,34.00,48.57
"Fiber, total dietary",g,--,--,1.0,1.4
"Sugars, total",g,--,--,4.00,5.71
Minerals
"Calcium, Ca",mg,--,--,20,29
"Iron, Fe",mg,--,--,0.88,1.25
"Sodium, Na",mg,--,--,460,657
Vitamins
"Vitamin C, total ascorbic acid",mg,--,--,0.0,0.0
"Vitamin A, IU",IU,--,--,0,0
Lipids
"Fatty acids, total saturated",g,--,--,1.498,2.140
"Fatty acids, total monounsaturated",g,--,--,1.498,2.140
"Fatty acids, total polyunsaturated",g,--,--,3.500,5.000
"Fatty acids, total trans",g,--,--,0.000,0.000
"Cholesterol",mg,--,--,0,0
Amino Acids
Other
Ingredients
"WATER, BROWN RICE FLOUR*, POTATO STARCH*, CORN FLOUR*, SOY OIL*, TAPIOCA STARCH*, CANE SUGAR*, POTATO FLOUR*, LEAVENING AGENT (SODIUM ACID PYROPHOSPHATE, SODIUM BICARBONATE, AND MONOCALCIUM PHOSPHATE), SOY LECITHIN*, PEAR JUICE CONCENTRATE*, NATURAL FLAVOR, SEA SALT." Date available: 07/14/2017 Date last updated by company: 07/14/2017
