Source: USDA Branded Food Products Database Release December 2017 Software v.3.8.6.4 2017-10-02
Report Run at: December 18, 2017 07:22 EST
"Nutrient data for: 45087978, HOMEMADE ROASTED EGGPLANT SAUCE, UPC: 747479000062"
Food Group:  Branded Food Products Database
Common Name:

Nutrient,Unit,Data points,Std. Error,"0.5 cup = 113.0g",1Value per 100 g,
Proximates
"Energy",kcal,--,--,70,62
"Protein",g,--,--,0.99,0.88
"Total lipid (fat)",g,--,--,4.99,4.42
"Carbohydrate, by difference",g,--,--,4.00,3.54
"Fiber, total dietary",g,--,--,1.0,0.9
"Sugars, total",g,--,--,2.99,2.65
Minerals
"Calcium, Ca",mg,--,--,20,18
"Iron, Fe",mg,--,--,0.76,0.67
"Sodium, Na",mg,--,--,400,354
Vitamins
"Vitamin C, total ascorbic acid",mg,--,--,9.5,8.4
"Vitamin A, IU",IU,--,--,423,374
Lipids
"Fatty acids, total saturated",g,--,--,0.497,0.440
"Fatty acids, total trans",g,--,--,0.000,0.000
"Cholesterol",mg,--,--,0,0
Amino Acids
Other
Ingredients
"ITALIAN TOMATOES, FRESH EGGPLANT, PURE OLIVE OIL, FRESH ONIONS, SALT, FRESH GARLIC, FRESH BASIL, BLACK PEPPER, CRUSHED RED PEPPER, OREGANO." Date available: 07/14/2017 Date last updated by company: 07/14/2017
