Source: USDA Branded Food Products Database Release December 2017 Software v.3.8.6.4 2017-10-02
Report Run at: December 18, 2017 07:25 EST
"Nutrient data for: 45180954, HOMESTYLE BEEF PATTIES, UPC: 011110967329"
Food Group:  Branded Food Products Database
Common Name:

Nutrient,Unit,Data points,Std. Error,"1 PATTY = 100.0g",1Value per 100 g,
Proximates
"Energy",kcal,--,--,250,250
"Protein",g,--,--,17.00,17.00
"Total lipid (fat)",g,--,--,20.00,20.00
"Carbohydrate, by difference",g,--,--,0.00,0.00
Minerals
"Calcium, Ca",mg,--,--,20,20
"Iron, Fe",mg,--,--,1.53,1.53
"Sodium, Na",mg,--,--,65,65
Vitamins
Lipids
"Fatty acids, total saturated",g,--,--,8.000,8.000
"Cholesterol",mg,--,--,70,70
Amino Acids
Other
Ingredients
"BEEF AND NATURAL FLAVORINGS." Date available: 07/14/2017 Date last updated by company: 07/14/2017
