Source: USDA Branded Food Products Database Release December 2017 Software v.3.8.6.4 2017-10-02
Report Run at: December 18, 2017 07:31 EST
"Nutrient data for: 45293321, HOMESTYLE HUSH PUPPY SEASONED CORNMEAL MIX, UPC: 039156000190"
Food Group:  Branded Food Products Database
Common Name:

Nutrient,Unit,Data points,Std. Error,"0.25 cup = 53.0g",1Value per 100 g,
Proximates
"Energy",kcal,--,--,180,340
"Protein",g,--,--,3.00,5.66
"Total lipid (fat)",g,--,--,1.00,1.89
"Carbohydrate, by difference",g,--,--,41.00,77.36
"Fiber, total dietary",g,--,--,1.0,1.9
"Sugars, total",g,--,--,9.00,16.98
Minerals
"Calcium, Ca",mg,--,--,80,151
"Iron, Fe",mg,--,--,1.00,1.89
"Potassium, K",mg,--,--,75,142
"Sodium, Na",mg,--,--,850,1604
Vitamins
"Vitamin D",IU,--,--,0,0
Lipids
"Fatty acids, total saturated",g,--,--,0.000,0.000
"Fatty acids, total trans",g,--,--,0.000,0.000
"Cholesterol",mg,--,--,0,0
Amino Acids
Other
Ingredients
"YELLOW CORN MEAL, SUGAR, ENRICHED BLEACHED WHEAT FLOUR (WHEAT FLOUR, MALTED BARLEY FLOUR, NIACIN, REDUCED IRON, THIAMINE MONONITRATE, RIBOFLAVIN, FOLIC ACID), LEAVENING (CONTAINS ONE OR MORE OF THE FOLLOWING: SODIUM BICARBONATE, SODIUM ALUMINUM SULFATE, CORN STARCH, CALCIUM SULFATE, MONOCALCIUM PHOSPHATE, SODIUM ACID PYROPHOSPHATE), SALT, DRIED ONION, DRIED CHIVES." Date available: 07/14/2017 Date last updated by company: 07/14/2017
