Source: USDA Branded Food Products Database Release December 2017 Software v.3.8.6.4 2017-10-02
Report Run at: December 18, 2017 07:29 EST
"Nutrient data for: 45067852, HOMESTYLE EXTRA WIDE EGG NOODLES, UPC: 070200996427"
Food Group:  Branded Food Products Database
Common Name:

Nutrient,Unit,Data points,Std. Error,"2.0 ONZ = 56.0g",1Value per 100 g,
Proximates
"Energy",kcal,--,--,220,393
"Protein",g,--,--,9.00,16.07
"Total lipid (fat)",g,--,--,3.50,6.25
"Carbohydrate, by difference",g,--,--,39.00,69.64
"Fiber, total dietary",g,--,--,1.0,1.8
"Sugars, total",g,--,--,1.00,1.79
Minerals
"Calcium, Ca",mg,--,--,0,0
"Iron, Fe",mg,--,--,1.06,1.89
"Sodium, Na",mg,--,--,10,18
Vitamins
"Vitamin C, total ascorbic acid",mg,--,--,0.0,0.0
"Vitamin A, IU",IU,--,--,0,0
Lipids
"Fatty acids, total saturated",g,--,--,1.002,1.790
"Fatty acids, total trans",g,--,--,0.000,0.000
"Cholesterol",mg,--,--,120,214
Amino Acids
Other
Ingredients
"ENRICHED DURUM FLOUR (DURUM WHEAT FLOUR, NIACIN, FERROUS SULFATE, THIAMINE MONONITRATE, RIBOFLAVIN, FOLIC ACID), EGG YOLKS." Date available: 07/14/2017 Date last updated by company: 07/14/2017
