Source: USDA Branded Food Products Database Release December 2017 Software v.3.8.6.4 2017-10-02
Report Run at: December 18, 2017 07:34 EST
"Nutrient data for: 45316687, HOMESTYLE MEATLOAF, UPC: 722515250984"
Food Group:  Branded Food Products Database
Common Name:

Nutrient,Unit,Data points,Std. Error,"4.0 ONZ = 113.0g",1Value per 100 g,
Proximates
"Energy",kcal,--,--,240,212
"Protein",g,--,--,18.00,15.93
"Total lipid (fat)",g,--,--,12.99,11.50
"Carbohydrate, by difference",g,--,--,10.99,9.73
"Fiber, total dietary",g,--,--,0.0,0.0
"Sugars, total",g,--,--,4.99,4.42
Minerals
"Calcium, Ca",mg,--,--,20,18
"Iron, Fe",mg,--,--,4.46,3.95
"Sodium, Na",mg,--,--,720,637
Vitamins
"Vitamin C, total ascorbic acid",mg,--,--,2.9,2.6
"Vitamin A, IU",IU,--,--,247,219
Lipids
"Fatty acids, total saturated",g,--,--,4.995,4.420
"Fatty acids, total trans",g,--,--,0.497,0.440
"Cholesterol",mg,--,--,85,75
Amino Acids
Other
Ingredients
"BEEF, KETCHUP (TOMATO CONCENTRATE, HIGH FRUCTOSE CORN SYRUP, DISTILLED VINEGAR, CORN SYRUP, SALT, SPICE, ONION POWDER, NATURAL FLAVORS), ONIONS, EGGS (EGGS, CITRIC ACID), CRACKERS (UNBLEACHED ENRICHED FLOUR (WHEAT FLOUR, NIACIN, REDUCED IRON, THIAMINE MONONITRATE, RIBOFLAVIN, FOLIC ACID), CANOLA OIL, PALM OIL, SEA SALT, SALT, MALTED BARLEY FLOUR, BAKING SODA, YEAST), SAUSAGE (PORK, WATER, SALT, FLAVORING, BHA, BHT, CITRIC ACID), SALT, ONION POWDER, GARLIC POWDER, BLACK PEPPER, CANOLA OIL." Date available: 07/14/2017 Date last updated by company: 07/14/2017
