Source: USDA Branded Food Products Database Release December 2017 Software v.3.8.6.4 2017-10-02
Report Run at: December 18, 2017 07:26 EST
"Nutrient data for: 45256692, HOMESTYLE BREAKFAST GRAVY WITH SAUSAGE, UPC: 018053194232"
Food Group:  Branded Food Products Database
Common Name:

Nutrient,Unit,Data points,Std. Error,"0.25 cup = 60.0g",1Value per 100 g,
Proximates
"Energy",kcal,--,--,80,133
"Protein",g,--,--,3.00,5.00
"Total lipid (fat)",g,--,--,5.00,8.33
"Carbohydrate, by difference",g,--,--,5.00,8.33
"Fiber, total dietary",g,--,--,0.0,0.0
"Sugars, total",g,--,--,2.00,3.33
Minerals
"Calcium, Ca",mg,--,--,60,100
"Iron, Fe",mg,--,--,0.00,0.00
"Sodium, Na",mg,--,--,310,517
Vitamins
"Vitamin C, total ascorbic acid",mg,--,--,0.0,0.0
"Vitamin A, IU",IU,--,--,101,169
Lipids
"Fatty acids, total saturated",g,--,--,2.502,4.170
"Fatty acids, total trans",g,--,--,0.000,0.000
"Cholesterol",mg,--,--,10,17
Amino Acids
Other
Ingredients
"MILK, COOKED PORK SAUSAGE (PORK, WATER, SALT, SPICES, CORN SYRUP SOLIDS, DEXTROSE, BHA, PROPYL GALLATE, CITRIC ACID), PORK STOCK (WATER, PORK BASE [ROASTED PORK, SALT, HYDROLYZED CORN PROTEIN, MALTODEXTRIN, AUTOLYZED YEAST EXTRACT, SEASONINGS {WITH HYDROLYZED CORN SOY WHEAT PROTEIN, YEAST EXTRACT, DEXTROSE, LACTIC ACID}, HYDROLYZED SOY WHEAT GLUTEN PROTEIN]), COOKED BACON WITH JUICES (CURED WITH WATER, SALT, SUGAR, SODIUM PHOSPHATE, SODIUM ERYTHORBATE, SODIUM NITRITE), ENRICHED FLOUR (WHEAT FLOUR, NIACIN, REDUCED IRON, THIAMINE MONONITRATE, RIBOFLAVIN, FOLIC ACID), MODIFIED CORNSTARCH, BUTTER (CREAM, SALT), CANOLA OIL, CULTURED DEXTROSE, CITRIC ACID, BAKING SODA, SPICES." Date available: 07/14/2017 Date last updated by company: 07/14/2017
