Source: USDA Branded Food Products Database Release December 2017 Software v.3.8.6.4 2017-10-02
Report Run at: December 18, 2017 07:41 EST
"Nutrient data for: 45158632, HOMETOWN BAGEL, BAGEL CHIPS, UPC: 854530004003"
Food Group:  Branded Food Products Database
Common Name:

Nutrient,Unit,Data points,Std. Error,"16.0 CHIPS = 28.0g",1Value per 100 g,
Proximates
"Energy",kcal,--,--,110,393
"Protein",g,--,--,4.00,14.29
"Total lipid (fat)",g,--,--,2.00,7.14
"Carbohydrate, by difference",g,--,--,20.00,71.43
"Fiber, total dietary",g,--,--,1.0,3.6
"Sugars, total",g,--,--,1.00,3.57
Minerals
"Calcium, Ca",mg,--,--,0,0
"Iron, Fe",mg,--,--,1.93,6.88
"Sodium, Na",mg,--,--,360,1286
Vitamins
"Vitamin C, total ascorbic acid",mg,--,--,0.0,0.0
"Vitamin A, IU",IU,--,--,0,0
Lipids
"Fatty acids, total saturated",g,--,--,0.000,0.000
"Fatty acids, total trans",g,--,--,0.000,0.000
"Cholesterol",mg,--,--,0,0
Amino Acids
Other
Ingredients
"ENRICHED FLOUR (WHEAT FLOUR, MALTED BARLEY FLOUR, NIACIN, REDUCED IRON, THIAMINE MONONITRATE, RIBOFLAVIN, FOLIC ACID), WATER, BROWN SUGAR, VEGETABLE OIL BLEND (PALM OIL, CANOLA OIL, OLIVE OIL), CONTAINS LESS THAN 2% OF EACH OF THE FOLLOWING: SEA SALT, SOYBEAN OIL, SEMOLINA, SALT, YEAST, NATURAL FLAVOR, SUNFLOWER LECITHIN, LACTIC ACID, ANNATTO EXTRACT COLOR." Date available: 07/14/2017 Date last updated by company: 07/14/2017
