Source: USDA Branded Food Products Database Release December 2017 Software v.3.8.6.4 2017-10-02
Report Run at: December 18, 2017 07:24 EST
"Nutrient data for: 45121665, HOME RUN INN, ULTRA THIN SAUSAGE PIZZA, UPC: 031205350003"
Food Group:  Branded Food Products Database
Common Name:

Nutrient,Unit,Data points,Std. Error,"0.25 pizza = 135.0g",1Value per 100 g,
Proximates
"Energy",kcal,--,--,320,237
"Protein",g,--,--,16.00,11.85
"Total lipid (fat)",g,--,--,18.00,13.33
"Carbohydrate, by difference",g,--,--,27.00,20.00
"Fiber, total dietary",g,--,--,4.0,3.0
"Sugars, total",g,--,--,1.00,0.74
Minerals
"Calcium, Ca",mg,--,--,250,185
"Iron, Fe",mg,--,--,2.61,1.93
"Sodium, Na",mg,--,--,790,585
Vitamins
"Vitamin C, total ascorbic acid",mg,--,--,3.5,2.6
"Vitamin A, IU",IU,--,--,433,321
Lipids
"Fatty acids, total saturated",g,--,--,5.994,4.440
"Fatty acids, total trans",g,--,--,0.000,0.000
"Cholesterol",mg,--,--,45,33
Amino Acids
Other
Ingredients
"CRUST: (WHEAT FLOUR, WATER, CORN OIL, YEAST, SALT), SAUCE: (TOMATO PUREE, WATER, OREGANO, SALT, BLACK PEPPER), WHOLE MILK MOZZARELLA CHEESE: (PASTEURIZED MILK, CHEESE CULTURES, SALT, ENZYMES), SAUSAGE: (PORK, SALT, SPICES, FLAVORING)." Date available: 07/14/2017 Date last updated by company: 07/14/2017
