Source: USDA Branded Food Products Database Release December 2017 Software v.3.8.6.4 2017-10-02
Report Run at: December 18, 2017 07:29 EST
"Nutrient data for: 45215917, HOMESTYLE EGG NOODLES, UPC: 085239104460"
Food Group:  Branded Food Products Database
Common Name:

Nutrient,Unit,Data points,Std. Error,"0.5 cup = 60.0g",1Value per 100 g,
Proximates
"Energy",kcal,--,--,90,150
"Protein",g,--,--,4.00,6.67
"Total lipid (fat)",g,--,--,1.00,1.67
"Carbohydrate, by difference",g,--,--,17.00,28.33
"Fiber, total dietary",g,--,--,0.0,0.0
"Sugars, total",g,--,--,0.00,0.00
Minerals
"Calcium, Ca",mg,--,--,0,0
"Iron, Fe",mg,--,--,0.90,1.50
"Sodium, Na",mg,--,--,10,17
Vitamins
"Vitamin C, total ascorbic acid",mg,--,--,0.0,0.0
"Vitamin A, IU",IU,--,--,0,0
Lipids
"Fatty acids, total saturated",g,--,--,0.000,0.000
"Fatty acids, total trans",g,--,--,0.000,0.000
"Cholesterol",mg,--,--,25,42
Amino Acids
Other
Ingredients
"WATER, WHEAT FLOUR, WHOLE EGG, NIACIN, FERROUS SULFATE (IRON), THIAMIN MONONITRATE, RIBOFLAVIN, FOLIC ACID." Date available: 09/06/2017 Date last updated by company: 09/06/2017
