Source: USDA Branded Food Products Database Release December 2017 Software v.3.8.6.4 2017-10-02
Report Run at: December 18, 2017 07:21 EST
"Nutrient data for: 45217305, HOMEMADE JAM, UPC: 710709975010"
Food Group:  Branded Food Products Database
Common Name:

Nutrient,Unit,Data points,Std. Error,"1 Tbsp = 20.0g",1Value per 100 g,
Proximates
"Energy",kcal,--,--,10,50
"Protein",g,--,--,0.00,0.00
"Total lipid (fat)",g,--,--,0.00,0.00
"Carbohydrate, by difference",g,--,--,3.00,15.00
"Sugars, total",g,--,--,1.00,5.00
Minerals
"Iron, Fe",mg,--,--,1.22,6.08
"Sodium, Na",mg,--,--,0,0
Vitamins
"Vitamin C, total ascorbic acid",mg,--,--,4.1,20.3
Lipids
Amino Acids
Other
Ingredients
"BLACKBERRIES, WHITE GRAPE JUICE CONCENTRATE, PECTIN, CITRIC ACID." Date available: 07/14/2017 Date last updated by company: 07/14/2017
