Source: USDA Branded Food Products Database Release December 2017 Software v.3.8.6.4 2017-10-02
Report Run at: December 18, 2017 07:40 EST
"Nutrient data for: 45279956, HOMESTYLE VANILLA ICE CREAM, UPC: 021130098804"
Food Group:  Branded Food Products Database
Common Name:

Nutrient,Unit,Data points,Std. Error,"0.5 cup = 79.0g",1Value per 100 g,
Proximates
"Energy",kcal,--,--,160,203
"Protein",g,--,--,3.00,3.80
"Total lipid (fat)",g,--,--,8.00,10.13
"Carbohydrate, by difference",g,--,--,20.00,25.32
"Fiber, total dietary",g,--,--,0.0,0.0
"Sugars, total",g,--,--,20.00,25.32
Minerals
"Calcium, Ca",mg,--,--,100,127
"Iron, Fe",mg,--,--,0.00,0.00
"Sodium, Na",mg,--,--,45,57
Vitamins
"Vitamin C, total ascorbic acid",mg,--,--,0.0,0.0
"Vitamin A, IU",IU,--,--,337,427
Lipids
"Fatty acids, total saturated",g,--,--,5.001,6.330
"Fatty acids, total trans",g,--,--,0.000,0.000
"Cholesterol",mg,--,--,45,57
Amino Acids
Other
Ingredients
"SKIM MILK, CREAM, SUGAR, PASTEURIZED EGG YOLK BASE (SUGAR, EGG YOLKS, RICE EXTRACT), CONTAINS 2% OR LESS OF NATURAL AND ARTIFICIAL FLAVOR (CONTAINS VANILLIN), LOCUST BEAN GUM, GUAR GUM, CARRAGEENAN, ANNATTO (FOR COLOR), CARAMEL COLOR." Date available: 07/14/2017 Date last updated by company: 07/14/2017
