Source: USDA Branded Food Products Database Release December 2017 Software v.3.8.6.4 2017-10-02
Report Run at: December 18, 2017 07:22 EST
"Nutrient data for: 45064613, HOMEMADE PIZZA SAUCE, UPC: 747479061001"
Food Group:  Branded Food Products Database
Common Name:

Nutrient,Unit,Data points,Std. Error,"0.33 cup = 76.0g",1Value per 100 g,
Proximates
"Energy",kcal,--,--,50,66
"Protein",g,--,--,1.00,1.32
"Total lipid (fat)",g,--,--,4.00,5.26
"Carbohydrate, by difference",g,--,--,2.00,2.63
"Fiber, total dietary",g,--,--,1.0,1.3
"Sugars, total",g,--,--,2.00,2.63
Minerals
"Calcium, Ca",mg,--,--,0,0
"Iron, Fe",mg,--,--,0.58,0.76
"Sodium, Na",mg,--,--,180,237
Vitamins
"Vitamin C, total ascorbic acid",mg,--,--,9.6,12.6
"Vitamin A, IU",IU,--,--,800,1053
Lipids
"Fatty acids, total saturated",g,--,--,0.502,0.660
"Fatty acids, total trans",g,--,--,0.000,0.000
"Cholesterol",mg,--,--,0,0
Amino Acids
Other
Ingredients
"ITALIAN TOMATOES, ITALIAN CHERRY TOMATOES, OLIVE OIL, FRESH CARROTS, FRESH ONIONS, SALT, OREGANO, FRESH GARLIC, FRESH BASIL." Date available: 07/14/2017 Date last updated by company: 07/14/2017
