Source: USDA Branded Food Products Database Release December 2017 Software v.3.8.6.4 2017-10-02
Report Run at: December 18, 2017 07:38 EST
"Nutrient data for: 45081466, HOME STYLE SOUP MIX, UPC: 041149120143"
Food Group:  Branded Food Products Database
Common Name:

Nutrient,Unit,Data points,Std. Error,"1 CUP PREPARED | DRY MIX; = 44.0g",1Value per 100 g,
Proximates
"Energy",kcal,--,--,150,341
"Protein",g,--,--,8.00,18.18
"Total lipid (fat)",g,--,--,1.50,3.41
"Carbohydrate, by difference",g,--,--,25.00,56.82
"Fiber, total dietary",g,--,--,8.0,18.2
"Sugars, total",g,--,--,1.00,2.27
Minerals
"Calcium, Ca",mg,--,--,60,136
"Iron, Fe",mg,--,--,3.07,6.97
"Sodium, Na",mg,--,--,1130,2568
Vitamins
"Vitamin C, total ascorbic acid",mg,--,--,20.5,46.5
"Vitamin A, IU",IU,--,--,1420,3228
Lipids
"Fatty acids, total saturated",g,--,--,0.000,0.000
"Fatty acids, total monounsaturated",g,--,--,0.000,0.000
"Fatty acids, total polyunsaturated",g,--,--,0.000,0.000
"Fatty acids, total trans",g,--,--,0.000,0.000
"Cholesterol",mg,--,--,0,0
Amino Acids
Other
Ingredients
"DEHYDRATED RED, BLACK, AND PINTO BEANS, MODIFIED CORN STARCH, CHILI PEPPERS AND OTHER SPICES, SALT, HYDROLYZED SOY PROTEIN AND CORN GLUTEN (MALTODEXTRIN, CARAMEL COLOR, DISODIUM INOSINATE, DISODIUM GUANYLATE, LACTIC ACID), DEHYDRATED RED AND GREEN BELL PEPPERS, MONOSODIUM GLUTAMATE, DEHYDRATED ONION AND GARLIC, AUTOLYZED YEAST EXTRACT, PARTIALLY HYDROGENATED SOYBEAN OIL, SUGAR, CALCIUM SILICATE (ANTI-CAKE)." Date available: 07/14/2017 Date last updated by company: 07/14/2017
