Source: USDA Branded Food Products Database Release December 2017 Software v.3.8.6.4 2017-10-02
Report Run at: December 18, 2017 07:27 EST
"Nutrient data for: 45312499, HOMESTYLE CHICKEN NOODLE CONDENSED SOUP, UPC: 041303026922"
Food Group:  Branded Food Products Database
Common Name:

Nutrient,Unit,Data points,Std. Error,"0.5 cup = 123.0g",1Value per 100 g,
Proximates
"Energy",kcal,--,--,60,49
"Protein",g,--,--,3.00,2.44
"Total lipid (fat)",g,--,--,1.50,1.22
"Carbohydrate, by difference",g,--,--,9.00,7.32
"Fiber, total dietary",g,--,--,0.0,0.0
"Sugars, total",g,--,--,0.00,0.00
Minerals
"Calcium, Ca",mg,--,--,0,0
"Iron, Fe",mg,--,--,0.71,0.58
"Sodium, Na",mg,--,--,940,764
Vitamins
"Vitamin C, total ascorbic acid",mg,--,--,0.0,0.0
"Vitamin A, IU",IU,--,--,1494,1215
Lipids
"Fatty acids, total saturated",g,--,--,0.000,0.000
"Fatty acids, total trans",g,--,--,0.000,0.000
"Cholesterol",mg,--,--,10,8
Amino Acids
Other
Ingredients
"CHICKEN STOCK, ENRICHED NOODLES (DURUM WHEAT FLOUR, EGG WHITES, EGGS, NIACIN, FERROUS SULFATE, THIAMINE MONONITRATE, RIBOFLAVIN, FOLIC ACID), COOKED CHICKEN MEAT, CARROTS, CONTAINS 2% OR LESS OF CORN STARCH, SALT, CELERY, CHICKEN FAT, MONOSODIUM GLUTAMATE, YEAST EXTRACT, ISOLATED SOY PROTEIN, NATURAL FLAVOR, DEXTROSE, GARLIC POWDER, SODIUM PHOSPHATE, DEHYDRATED PARSLEY, PAPRIKA, DISODIUM INOSINATE, DISODIUM GUANYLATE, BETA CAROTENE (COLOR)" Date available: 07/14/2017 Date last updated by company: 07/14/2017
