Source: USDA Branded Food Products Database Release December 2017 Software v.3.8.6.4 2017-10-02
Report Run at: December 18, 2017 07:36 EST
"Nutrient data for: 45269958, HOME STYLE PECAN COOKIES, UPC: 7501792400502"
Food Group:  Branded Food Products Database
Common Name:

Nutrient,Unit,Data points,Std. Error,"3.0 PIECES = 30.0g",1Value per 100 g,
Proximates
"Energy",kcal,--,--,150,500
"Protein",g,--,--,2.00,6.67
"Total lipid (fat)",g,--,--,6.00,20.00
"Carbohydrate, by difference",g,--,--,21.00,70.00
"Fiber, total dietary",g,--,--,1.0,3.3
"Sugars, total",g,--,--,5.00,16.67
Minerals
"Calcium, Ca",mg,--,--,0,0
"Iron, Fe",mg,--,--,1.20,4.00
"Sodium, Na",mg,--,--,25,83
Vitamins
"Vitamin C, total ascorbic acid",mg,--,--,0.0,0.0
"Vitamin A, IU",IU,--,--,0,0
Lipids
"Fatty acids, total saturated",g,--,--,3.000,10.000
"Fatty acids, total trans",g,--,--,0.000,0.000
"Cholesterol",mg,--,--,0,0
Amino Acids
Other
Ingredients
"WHEAT FLOUR, VEGETABLE SHORTENING (CONTAINS ONE OR MORE OF THE FOLLOWING: PALM STEARIN, SOYBEAN OIL, PALM KERNEL OIL), WATER, IODIZED SALT, SOY LECITHIN, MONO AND DIGLYCERIDES, ARTIFICIAL FLAVOR, SODIUM BENZOATE [PRESERVATIVE], CITRIC ACID, ANNATTO [COLOR]), SUGAR, PECAN POWDER, PASTEURIZED LIQUID EGG, ARTIFICIAL FLAVOR, SODIUM STEAROYL LACTYLATE (EMULSIFIER), LEAVENING AGENT (CORN STARCH, SODIUM BICARBONATE, SODIUM ALUMINIUM SULFATE, MONOCALCIUM PHOSPHATE), ANTIOXIDANT (BHT, BHA)." Date available: 07/14/2017 Date last updated by company: 07/14/2017
