Source: USDA Branded Food Products Database Release December 2017 Software v.3.8.6.4 2017-10-02
Report Run at: December 18, 2017 07:29 EST
"Nutrient data for: 45193467, HOMESTYLE DAHI, UPC: 011433119733"
Food Group:  Branded Food Products Database
Common Name:

Nutrient,Unit,Data points,Std. Error,"1 cup = 227.0g",1Value per 100 g,
Proximates
"Energy",kcal,--,--,109,48
"Protein",g,--,--,7.99,3.52
"Total lipid (fat)",g,--,--,3.50,1.54
"Carbohydrate, by difference",g,--,--,11.01,4.85
"Fiber, total dietary",g,--,--,0.0,0.0
"Sugars, total",g,--,--,7.99,3.52
Minerals
"Calcium, Ca",mg,--,--,200,88
"Iron, Fe",mg,--,--,0.00,0.00
"Sodium, Na",mg,--,--,100,44
Vitamins
"Vitamin C, total ascorbic acid",mg,--,--,1.8,0.8
"Vitamin A, IU",IU,--,--,0,0
Lipids
"Fatty acids, total saturated",g,--,--,2.497,1.100
"Fatty acids, total trans",g,--,--,0.000,0.000
"Cholesterol",mg,--,--,9,4
Amino Acids
Other
Ingredients
"CULTURED, PASTEURIZED SKIM MILK, SKIM MILK POWDER, CREAM." Date available: 07/14/2017 Date last updated by company: 07/14/2017
