Source: USDA Branded Food Products Database Release December 2017 Software v.3.8.6.4 2017-10-02
Report Run at: December 18, 2017 07:20 EST
"Nutrient data for: 45174462, HOMEKIST, COOKIES, UPC: 045100370189"
Food Group:  Branded Food Products Database
Common Name:

Nutrient,Unit,Data points,Std. Error,"2.0 COOKIES = 32.0g",1Value per 100 g,
Proximates
"Energy",kcal,--,--,150,469
"Protein",g,--,--,2.00,6.25
"Total lipid (fat)",g,--,--,6.00,18.75
"Carbohydrate, by difference",g,--,--,23.00,71.88
"Fiber, total dietary",g,--,--,1.0,3.1
"Sugars, total",g,--,--,8.00,25.00
Minerals
"Calcium, Ca",mg,--,--,0,0
"Iron, Fe",mg,--,--,1.13,3.52
"Potassium, K",mg,--,--,30,94
"Sodium, Na",mg,--,--,160,500
Vitamins
"Vitamin C, total ascorbic acid",mg,--,--,0.0,0.0
"Vitamin A, IU",IU,--,--,0,0
Lipids
"Fatty acids, total saturated",g,--,--,1.501,4.690
"Fatty acids, total monounsaturated",g,--,--,1.501,4.690
"Fatty acids, total polyunsaturated",g,--,--,2.499,7.810
"Fatty acids, total trans",g,--,--,0.000,0.000
"Cholesterol",mg,--,--,0,0
Amino Acids
Other
Ingredients
"ENRICHED FLOUR (WHEAT FLOUR, NIACIN, REDUCED IRON, THIAMINE MONONITRATE, RIBOFLAVIN, FOLIC ACID), SUGAR, VEGETABLE OIL (CONTAINS ONE OR MORE OF THE FOLLOWING: CANOLA OIL, CORN OIL, PALM OIL, SOYBEAN OIL), ROLLED OATS, CORN SYRUP, HIGH FRUCTOSE CORN SYRUP, DEXTROSE, SODIUM BICARBONATE (LEAVENING), SALT, RAISIN JUICE, SPICE, ARTIFICIAL FLAVOR, SOY LECITHIN (EMULSIFIER)." Date available: 07/14/2017 Date last updated by company: 07/14/2017
