Source: USDA Branded Food Products Database Release December 2017 Software v.3.8.6.4 2017-10-02
Report Run at: December 18, 2017 07:31 EST
"Nutrient data for: 45280877, HOMESTYLE LENTIL SOUP, UPC: 041268185832"
Food Group:  Branded Food Products Database
Common Name:

Nutrient,Unit,Data points,Std. Error,"1 cup = 245.0g",1Value per 100 g,
Proximates
"Energy",kcal,--,--,120,49
"Protein",g,--,--,8.01,3.27
"Total lipid (fat)",g,--,--,1.49,0.61
"Carbohydrate, by difference",g,--,--,19.99,8.16
"Fiber, total dietary",g,--,--,7.1,2.9
"Sugars, total",g,--,--,2.99,1.22
Minerals
"Calcium, Ca",mg,--,--,20,8
"Iron, Fe",mg,--,--,2.69,1.10
"Potassium, K",mg,--,--,510,208
"Sodium, Na",mg,--,--,691,282
Vitamins
"Vitamin C, total ascorbic acid",mg,--,--,1.2,0.5
"Vitamin A, IU",IU,--,--,0,0
Lipids
"Fatty acids, total saturated",g,--,--,0.000,0.000
"Fatty acids, total monounsaturated",g,--,--,0.000,0.000
"Fatty acids, total polyunsaturated",g,--,--,1.004,0.410
"Fatty acids, total trans",g,--,--,0.000,0.000
"Cholesterol",mg,--,--,0,0
Amino Acids
Other
Ingredients
"WATER, LENTILS, CELERY, TOMATO PASTE, SPINACH, CONTAINS LESS THAN 1% OF CORN STARCH, SALT, SOYBEAN OIL, SUGAR, POTASSIUM CHLORIDE, YEAST EXTRACT, ONION POWDER, GARLIC POWDER, NATURAL FLAVOR." Date available: 07/14/2017 Date last updated by company: 07/14/2017
