Source: USDA Branded Food Products Database Release December 2017 Software v.3.8.6.4 2017-10-02
Report Run at: December 18, 2017 07:23 EST
"Nutrient data for: 45212304, HOMENTASHEN, UPC: 736613630920"
Food Group:  Branded Food Products Database
Common Name:

Nutrient,Unit,Data points,Std. Error,"1.1 ONZ = 31.0g",1Value per 100 g,
Proximates
"Energy",kcal,--,--,150,484
"Protein",g,--,--,1.00,3.23
"Total lipid (fat)",g,--,--,8.00,25.81
"Carbohydrate, by difference",g,--,--,16.00,51.61
"Fiber, total dietary",g,--,--,0.0,0.0
"Sugars, total",g,--,--,7.00,22.58
Minerals
"Calcium, Ca",mg,--,--,0,0
"Iron, Fe",mg,--,--,1.92,6.18
"Sodium, Na",mg,--,--,20,65
Vitamins
"Vitamin C, total ascorbic acid",mg,--,--,0.0,0.0
"Vitamin A, IU",IU,--,--,533,1718
Lipids
"Fatty acids, total saturated",g,--,--,4.501,14.520
"Fatty acids, total trans",g,--,--,0.000,0.000
"Cholesterol",mg,--,--,15,48
Amino Acids
Other
Ingredients
"WHEAT FLOUR, PALM OIL, SUGAR, EGGS, APRICOT PUREE, APPLE PUREE, PECTIC (MAY CONTAIN POPPY SEED, PRUE) FD&C RED #3, & 40, BLUE #2, YELLOW #6" Date available: 07/14/2017 Date last updated by company: 07/14/2017
