Source: USDA Branded Food Products Database Release December 2017 Software v.3.8.6.4 2017-10-02
Report Run at: December 18, 2017 07:42 EST
"Nutrient data for: 45323755, HOMMUS WITH PITA CHIPS SNACK PACKS, UPC: 044115143108"
Food Group:  Branded Food Products Database
Common Name:

Nutrient,Unit,Data points,Std. Error,"1 PACKAGE = 99.0g",1Value per 100 g,
Proximates
"Energy",kcal,--,--,280,283
"Protein",g,--,--,7.00,7.07
"Total lipid (fat)",g,--,--,17.00,17.17
"Carbohydrate, by difference",g,--,--,26.00,26.26
"Fiber, total dietary",g,--,--,4.0,4.0
"Sugars, total",g,--,--,2.00,2.02
Minerals
"Calcium, Ca",mg,--,--,20,20
"Iron, Fe",mg,--,--,0.91,0.92
"Sodium, Na",mg,--,--,630,636
Vitamins
"Vitamin C, total ascorbic acid",mg,--,--,0.0,0.0
"Vitamin A, IU",IU,--,--,0,0
Lipids
"Fatty acids, total saturated",g,--,--,1.505,1.520
"Fatty acids, total trans",g,--,--,0.000,0.000
"Cholesterol",mg,--,--,0,0
Amino Acids
Other
Ingredients
"ORIGINAL HOMMUS: FRESH STEAMED CHICKPEAS, WATER, SESAME TAHINI, SUNFLOWER OIL, OLIVE OIL, SEA SALT, GARLIC, CITRIC ACID, GUAR GUM. PITA CHIPS: UNBLEACHED ENRICHED WHEAT FLOUR (MALTED BARLEY FLOUR, NIACIN, IRON, THIAMINE MONONITRATE, RIBOFLAVIN, FOLIC ACID), WATER, OAT FIBER, SUNFLOWER OIL, SUGAR, YEAST, SALT, VINEGAR." Date available: 07/14/2017 Date last updated by company: 07/14/2017
