Source: USDA Branded Food Products Database Release December 2017 Software v.3.8.6.4 2017-10-02
Report Run at: December 18, 2017 08:20 EST
"Nutrient data for: 45101063, HONEY WHEAT SPECIAL RECIPE BREAD, UPC: 024126017124"
Food Group:  Branded Food Products Database
Common Name:

Nutrient,Unit,Data points,Std. Error,"1 SLICE = 28.0g",1Value per 100 g,
Proximates
"Energy",kcal,--,--,70,250
"Protein",g,--,--,3.00,10.71
"Total lipid (fat)",g,--,--,1.00,3.57
"Carbohydrate, by difference",g,--,--,13.00,46.43
"Fiber, total dietary",g,--,--,1.0,3.6
"Sugars, total",g,--,--,3.00,10.71
Minerals
"Calcium, Ca",mg,--,--,40,143
"Iron, Fe",mg,--,--,1.29,4.59
"Sodium, Na",mg,--,--,130,464
Vitamins
"Vitamin C, total ascorbic acid",mg,--,--,0.0,0.0
"Thiamin",mg,--,--,0.280,1.000
"Riboflavin",mg,--,--,0.102,0.364
"Niacin",mg,--,--,2.858,10.207
"Vitamin A, IU",IU,--,--,0,0
Lipids
"Fatty acids, total saturated",g,--,--,0.000,0.000
"Fatty acids, total trans",g,--,--,0.000,0.000
"Cholesterol",mg,--,--,0,0
Amino Acids
Other
Ingredients
"UNBLEACHED ENRICHED WHEAT FLOUR [FLOUR, BARLEY MALT, NIACIN (VITAMIN B3), IRON, THIAMIN MONONITRATE (VITAMIN B1), RIBOFLAVIN (VITAMIN B2), FOLIC ACID (VITAMIN B9)], WATER, YEAST, STONE GROUND WHOLE WHEAT FLOUR, HONEY, SUGAR, WHEAT GLUTEN, WHEAT BRAN, CONTAINS 2% OR LESS OF THE FOLLOWING: SOYBEAN OIL, SALT, DOUGH CONDITIONERS (ETHOXYLATED MONO & DIGLYCERIDES, MONOGLYCERIDES, SODIUM STEAROYL LACTYLATE, DATEM, ASCORBIC ACID), CALCIUM PROPIONATE (TO RETAIN FRESHNESS), YEAST NUTRIENTS (CALCIUM SULFATE, MONOCALCIUM PHOSPHATE, AMMONIUM SULFATE), WHEAT STARCH, SOY LECITHIN." Date available: 09/09/2017 Date last updated by company: 09/09/2017
