Source: USDA Branded Food Products Database Release December 2017 Software v.3.8.6.4 2017-10-02
Report Run at: December 18, 2017 07:45 EST
"Nutrient data for: 45037520, HONEY BROWN SUGAR TURKEY SAUSAGE, UPC: 073170132000"
Food Group:  Branded Food Products Database
Common Name:

Nutrient,Unit,Data points,Std. Error,"6.0 PIECES = 30.0g",1Value per 100 g,
Proximates
"Energy",kcal,--,--,80,267
"Protein",g,--,--,6.00,20.00
"Total lipid (fat)",g,--,--,4.00,13.33
"Carbohydrate, by difference",g,--,--,5.00,16.67
"Fiber, total dietary",g,--,--,0.0,0.0
"Sugars, total",g,--,--,5.00,16.67
Minerals
"Calcium, Ca",mg,--,--,0,0
"Iron, Fe",mg,--,--,0.66,2.20
"Sodium, Na",mg,--,--,280,933
Vitamins
"Vitamin C, total ascorbic acid",mg,--,--,0.0,0.0
"Vitamin A, IU",IU,--,--,0,0
Lipids
"Fatty acids, total saturated",g,--,--,0.999,3.330
"Fatty acids, total trans",g,--,--,0.000,0.000
"Cholesterol",mg,--,--,20,67
Amino Acids
Other
Ingredients
"TURKEY, MECHANICALLY SEPARATED TURKEY, BROWN SUGAR, DRIED HONEY (REFINERY SYRUP, HONEY), CONTAINS 2% OR LESS OF: SALT, HYDROLYZED CORN PROTEIN, FRUCTOSE, LACTIC ACID STARTER CULTURE, SODIUM ERYTHORBATE (MADE FROM SUGAR), SODIUM NITRITE." Date available: 07/14/2017 Date last updated by company: 07/14/2017
