Source: USDA Branded Food Products Database Release December 2017 Software v.3.8.6.4 2017-10-02
Report Run at: December 18, 2017 07:45 EST
"Nutrient data for: 45242168, HONEY BEE, DRINK, SUGAR CANE, UPC: 721557340400"
Food Group:  Branded Food Products Database
Common Name:

Nutrient,Unit,Data points,Std. Error,"12.0 OZA = 340.0g",1Value per 100 g,
Proximates
"Energy",kcal,--,--,139,41
"Protein",g,--,--,0.00,0.00
"Total lipid (fat)",g,--,--,0.00,0.00
"Carbohydrate, by difference",g,--,--,34.99,10.29
"Fiber, total dietary",g,--,--,1.0,0.3
"Sugars, total",g,--,--,34.00,10.00
Minerals
"Calcium, Ca",mg,--,--,0,0
"Iron, Fe",mg,--,--,0.00,0.00
"Sodium, Na",mg,--,--,65,19
Vitamins
"Vitamin C, total ascorbic acid",mg,--,--,0.0,0.0
"Vitamin A, IU",IU,--,--,0,0
Lipids
"Fatty acids, total saturated",g,--,--,0.000,0.000
"Fatty acids, total trans",g,--,--,0.000,0.000
"Cholesterol",mg,--,--,0,0
Amino Acids
Other
Ingredients
"SUGAR CANE JUICE, WATER, SUGAR, CITRIC ACID,. SUGAR CANE JUICE 33% UP." Date available: 06/25/2017 Date last updated by company: 06/25/2017
