Source: USDA Branded Food Products Database Release December 2017 Software v.3.8.6.4 2017-10-02
Report Run at: December 18, 2017 07:53 EST
"Nutrient data for: 45105669, HONEY GARLIC RUB, UPC: 047600003895"
Food Group:  Branded Food Products Database
Common Name:

Nutrient,Unit,Data points,Std. Error,"1 tsp = 3.5g",1Value per 100 g,
Proximates
"Energy",kcal,--,--,10,286
"Protein",g,--,--,0.00,0.00
"Total lipid (fat)",g,--,--,0.00,0.00
"Carbohydrate, by difference",g,--,--,3.00,85.71
"Sugars, total",g,--,--,2.00,57.14
Minerals
"Sodium, Na",mg,--,--,180,5143
Vitamins
Lipids
Amino Acids
Other
Ingredients
"SUGAR, GARLIC, SALT, BROWN SUGAR, CHILI PEPPER, SPICE, HONEY, SOY SAUCE (SOYBEANS, SALT, VINEGAR), RICE CONCENTRATE, VINEGAR." Date available: 07/14/2017 Date last updated by company: 07/14/2017
