Source: USDA Branded Food Products Database Release December 2017 Software v.3.8.6.4 2017-10-02
Report Run at: December 18, 2017 07:44 EST
"Nutrient data for: 45214773, HONEY BAR, UPC: 071022317018"
Food Group:  Branded Food Products Database
Common Name:

Nutrient,Unit,Data points,Std. Error,"1 BAR = 40.0g",1Value per 100 g,
Proximates
"Energy",kcal,--,--,200,500
"Protein",g,--,--,6.00,15.00
"Total lipid (fat)",g,--,--,13.00,32.50
"Carbohydrate, by difference",g,--,--,17.00,42.50
"Fiber, total dietary",g,--,--,3.0,7.5
"Sugars, total",g,--,--,12.00,30.00
Minerals
"Calcium, Ca",mg,--,--,20,50
"Iron, Fe",mg,--,--,1.08,2.70
"Sodium, Na",mg,--,--,0,0
Vitamins
"Vitamin C, total ascorbic acid",mg,--,--,0.0,0.0
"Vitamin A, IU",IU,--,--,0,0
Lipids
"Fatty acids, total saturated",g,--,--,2.500,6.250
"Fatty acids, total trans",g,--,--,0.000,0.000
"Cholesterol",mg,--,--,0,0
Amino Acids
Other
Ingredients
"PEANUTS, HONEY, DRIED CHERRIES (CHERRIES, APPLE JUICE CONCENTRATE, SUNFLOWER OIL), CHOCOLATE LIQUOR, ALMONDS, PEANUT BUTTER, DRIED CRANBERRIES (CRANBERRIES, APPLE JUICE CONCENTRATE, SUNFLOWER OIL)." Date available: 07/14/2017 Date last updated by company: 07/14/2017
