Source: USDA Branded Food Products Database Release December 2017 Software v.3.8.6.4 2017-10-02
Report Run at: December 18, 2017 08:17 EST
"Nutrient data for: 45189185, HONEY, UPC: 853804003056"
Food Group:  Branded Food Products Database
Common Name:

Nutrient,Unit,Data points,Std. Error,"1 Tbsp = 20.0g",1Value per 100 g,
Proximates
"Energy",kcal,--,--,60,300
"Protein",g,--,--,0.00,0.00
"Total lipid (fat)",g,--,--,0.00,0.00
"Carbohydrate, by difference",g,--,--,16.00,80.00
"Sugars, total",g,--,--,16.00,80.00
Minerals
"Sodium, Na",mg,--,--,24,120
Vitamins
Lipids
Amino Acids
Other
Ingredients
"HONEY, DRIED ARBOL PEPPERS" Date available: 08/10/2017 Date last updated by company: 08/10/2017
