Source: USDA Branded Food Products Database Release December 2017 Software v.3.8.6.4 2017-10-02
Report Run at: December 18, 2017 07:51 EST
"Nutrient data for: 45293117, HONEYDEW CHUNKS, UPC: 072036883155"
Food Group:  Branded Food Products Database
Common Name:

Nutrient,Unit,Data points,Std. Error,"5.0 ONZ = 142.0g",1Value per 100 g,
Proximates
"Energy",kcal,--,--,50,35
"Protein",g,--,--,0.99,0.70
"Total lipid (fat)",g,--,--,0.00,0.00
"Carbohydrate, by difference",g,--,--,12.99,9.15
"Fiber, total dietary",g,--,--,1.0,0.7
"Sugars, total",g,--,--,12.00,8.45
Minerals
"Calcium, Ca",mg,--,--,9,6
"Iron, Fe",mg,--,--,0.20,0.14
"Potassium, K",mg,--,--,325,229
"Sodium, Na",mg,--,--,26,18
Vitamins
"Vitamin D",IU,--,--,0,0
Lipids
"Fatty acids, total saturated",g,--,--,0.000,0.000
"Fatty acids, total trans",g,--,--,0.000,0.000
"Cholesterol",mg,--,--,0,0
Amino Acids
Other
Ingredients
"HONEYDEW." Date available: 09/23/2017 Date last updated by company: 09/23/2017
