Source: USDA Branded Food Products Database Release December 2017 Software v.3.8.6.4 2017-10-02
Report Run at: December 18, 2017 07:49 EST
"Nutrient data for: 45313241, HONEYCRISP APPLE SLICES, UPC: 074641082350"
Food Group:  Branded Food Products Database
Common Name:

Nutrient,Unit,Data points,Std. Error,"12.0 SLICES = 140.0g",1Value per 100 g,
Proximates
"Energy",kcal,--,--,70,50
"Protein",g,--,--,0.00,0.00
"Total lipid (fat)",g,--,--,0.00,0.00
"Carbohydrate, by difference",g,--,--,19.00,13.57
"Fiber, total dietary",g,--,--,2.9,2.1
"Sugars, total",g,--,--,14.99,10.71
Minerals
"Calcium, Ca",mg,--,--,60,43
"Iron, Fe",mg,--,--,0.36,0.26
"Potassium, K",mg,--,--,150,107
"Sodium, Na",mg,--,--,0,0
Vitamins
"Vitamin C, total ascorbic acid",mg,--,--,186.1,132.9
"Vitamin A, IU",IU,--,--,99,71
Lipids
"Fatty acids, total saturated",g,--,--,0.000,0.000
"Fatty acids, total trans",g,--,--,0.000,0.000
"Cholesterol",mg,--,--,0,0
Amino Acids
Other
Ingredients
"APPLES WITH CALCIUM ASCORBATE TO PROMOTE WHITENESS AND MAINTAIN TEXTURE." Date available: 07/14/2017 Date last updated by company: 07/14/2017
