Source: USDA Branded Food Products Database Release December 2017 Software v.3.8.6.4 2017-10-02
Report Run at: December 18, 2017 08:20 EST
"Nutrient data for: 45220722, HONEY WHEAT THIN SANDWICH ROLLS, UPC: 688267125461"
Food Group:  Branded Food Products Database
Common Name:

Nutrient,Unit,Data points,Std. Error,"1 ROLL = 43.0g",1Value per 100 g,
Proximates
"Energy",kcal,--,--,100,233
"Protein",g,--,--,4.00,9.30
"Total lipid (fat)",g,--,--,1.00,2.33
"Carbohydrate, by difference",g,--,--,22.00,51.16
"Fiber, total dietary",g,--,--,5.0,11.6
"Sugars, total",g,--,--,2.00,4.65
Minerals
"Calcium, Ca",mg,--,--,60,140
"Iron, Fe",mg,--,--,3.14,7.30
"Sodium, Na",mg,--,--,170,395
Vitamins
"Vitamin C, total ascorbic acid",mg,--,--,0.0,0.0
"Thiamin",mg,--,--,0.430,1.000
"Riboflavin",mg,--,--,0.068,0.158
"Niacin",mg,--,--,3.488,8.112
"Vitamin A, IU",IU,--,--,0,0
Lipids
"Fatty acids, total saturated",g,--,--,0.000,0.000
"Fatty acids, total monounsaturated",g,--,--,0.000,0.000
"Fatty acids, total polyunsaturated",g,--,--,0.000,0.000
"Fatty acids, total trans",g,--,--,0.000,0.000
"Cholesterol",mg,--,--,0,0
Amino Acids
Other
Ingredients
"WHOLE WHEAT FLOUR, WATER, UNBLEACHED ENRICHED WHEAT FLOUR (FLOUR, MALTED BARLEY FLOUR, REDUCED IRON, NIACIN, THIAMIN MONONITRATE [VITAMIN B1], RIBOFLAVIN [VITAMIN B2], FOLIC ACID), YEAST, CELLULOSE FIBER, WHOLE WHEAT, WHEAT GLUTEN, HONEY, SUGAR, POLYDEXTROSE, SALT, SOYBEAN AND/OR CANOLA OIL, PRESERVATIVES (CALCIUM PROPIONATE, SORBIC ACID), NATURAL FLAVOR, MONOGLYCERIDES, CITRIC ACID, CELLULOSE GUM, XANTHAN GUM, REBAUDIOSIDE A (STEVIA LEAF EXTRACT), CORNSTARCH, SOY LECITHIN." Date available: 07/14/2017 Date last updated by company: 07/14/2017
