Source: USDA Branded Food Products Database Release December 2017 Software v.3.8.6.4 2017-10-02
Report Run at: December 18, 2017 08:12 EST
"Nutrient data for: 45232388, HONEY STINGER, ORGANIC ENERGY CHEWS, POMEGRANATE PASSION, UPC: 810815020984"
Food Group:  Branded Food Products Database
Common Name:

Nutrient,Unit,Data points,Std. Error,"1 PACKET = 50.0g",1Value per 100 g,
Proximates
"Energy",kcal,--,--,160,320
"Protein",g,--,--,1.00,2.00
"Total lipid (fat)",g,--,--,0.00,0.00
"Carbohydrate, by difference",g,--,--,39.00,78.00
"Fiber, total dietary",g,--,--,1.0,2.0
"Sugars, total",g,--,--,27.00,54.00
Minerals
"Calcium, Ca",mg,--,--,0,0
"Iron, Fe",mg,--,--,0.00,0.00
"Potassium, K",mg,--,--,40,80
"Sodium, Na",mg,--,--,80,160
Vitamins
"Vitamin C, total ascorbic acid",mg,--,--,48.0,96.0
"Vitamin A, IU",IU,--,--,0,0
Lipids
"Fatty acids, total saturated",g,--,--,0.000,0.000
"Fatty acids, total trans",g,--,--,0.000,0.000
"Cholesterol",mg,--,--,0,0
Amino Acids
Other
Ingredients
"ORGANIC TAPIOCA SYRUP, ORGANIC EVAPORATED CANE JUICE, ORGANIC HONEY, (ORGANIC GRAPE JUICE CONCENTRATE, ASCORBIC ACID), PECTIN, CITRIC ACID, ORGANIC COLOR [BLACK CARROT JUICE CONCENTRATE (RED)], NATURAL FLAVOR, POTASSIUM CITRATE, ORGANIC SUNFLOWER OIL, CARNAUBA WAX." Date available: 07/14/2017 Date last updated by company: 07/14/2017
