Source: USDA Branded Food Products Database Release December 2017 Software v.3.8.6.4 2017-10-02
Report Run at: December 18, 2017 08:16 EST
"Nutrient data for: 45287077, HONEY TURKEY & HAVARTI CHEESE PINWHEEL TRAY, UPC: 722515250823"
Food Group:  Branded Food Products Database
Common Name:

Nutrient,Unit,Data points,Std. Error,"1 PINWHEEL = 73.0g",1Value per 100 g,
Proximates
"Energy",kcal,--,--,150,205
"Protein",g,--,--,10.00,13.70
"Total lipid (fat)",g,--,--,8.00,10.96
"Carbohydrate, by difference",g,--,--,9.00,12.33
"Fiber, total dietary",g,--,--,0.0,0.0
"Sugars, total",g,--,--,2.00,2.74
Minerals
"Calcium, Ca",mg,--,--,40,55
"Iron, Fe",mg,--,--,0.69,0.95
"Sodium, Na",mg,--,--,460,630
Vitamins
"Vitamin C, total ascorbic acid",mg,--,--,2.3,3.2
"Vitamin A, IU",IU,--,--,1439,1971
Lipids
"Fatty acids, total saturated",g,--,--,5.000,6.850
"Fatty acids, total trans",g,--,--,0.000,0.000
"Cholesterol",mg,--,--,35,48
Amino Acids
Other
Ingredients
"TURKEY BREAST (TURKEY BREAST MEAT, TURKEY BROTH, HONEY, SUGAR, SALT, SODIUM PHOSPHATE, SODIUM ERYTHORBATE, SODIUM NITRATE). HAVARTI CHEESE (PASTEURIZED MILK, CHEESE CULTURES, SALT, ENZYMES), FLAT BREAD (ENRICHED FLOUR [UNBLEACHED WHEAT FLOUR, MALTED BARLEY FLOUR NIACIN, IRON, THIAMINE MONONITRATE, RIBOFLAVIN, FOLIC ACID], FILTERED WATER, SEA SALT, YEAST, CULTURED WHEAT, CITRIC ACID), CREAM CHEESE (PASTEURIZED MILK AND CREAM, CHEESE CULTURE, SALT, STABILIZERS [CAROB BEAN AND/OR XANTHAN AND/OR GUAR GUM]), LETTUCE, ROASTED RED PEPPERS (RED PEPPERS, WATER, SALT, CITRIC ACID), MILK, GARLIC, SALT, BLACK PEPPER, PARSLEY." Date available: 07/14/2017 Date last updated by company: 07/14/2017
