Source: USDA Branded Food Products Database Release December 2017 Software v.3.8.6.4 2017-10-02
Report Run at: December 18, 2017 07:48 EST
"Nutrient data for: 45325119, HONEY CORNBREAD AND MUFFIN MIX, UPC: 041449424040"
Food Group:  Branded Food Products Database
Common Name:

Nutrient,Unit,Data points,Std. Error,"12.0 PER BATCH) | MIX, ( = 35.0g",1Value per 100 g,
Proximates
"Energy",kcal,--,--,130,371
"Protein",g,--,--,2.00,5.71
"Carbohydrate, by difference",g,--,--,27.00,77.14
"Fiber, total dietary",g,--,--,1.0,2.9
"Sugars, total",g,--,--,10.00,28.57
Minerals
"Calcium, Ca",mg,--,--,0,0
"Iron, Fe",mg,--,--,0.51,1.47
"Sodium, Na",mg,--,--,340,971
Vitamins
"Vitamin C, total ascorbic acid",mg,--,--,0.0,0.0
"Vitamin A, IU",IU,--,--,0,0
Lipids
"Fatty acids, total saturated",g,--,--,0.000,0.000
"Fatty acids, total trans",g,--,--,0.000,0.000
"Cholesterol",mg,--,--,0,0
Amino Acids
Other
Ingredients
"ENRICHED UNBLEACHED FLOUR (WHEAT FLOUR, NIACIN, REDUCED IRON, THIAMIN MONONITRATE, RIBOFLAVIN, FOLIC ACID, MALTED BARLEY FLOUR, ASCORBIC ACID), SUGAR, DEGERMED YELLOW CORN MEAL, SOYBEAN OIL, SALT, LEAVENING (BAKING SODA, SODIUM ACID PYROPHOSPHATE), HONEY POWDER, XANTHAN GUM." Date available: 09/12/2017 Date last updated by company: 09/12/2017
