Source: USDA Branded Food Products Database Release December 2017 Software v.3.8.6.4 2017-10-02
Report Run at: December 18, 2017 08:23 EST
"Nutrient data for: 45047117, HOOD, LOW FAT COTTAGE CHEESE, UPC: 044100114793"
Food Group:  Branded Food Products Database
Common Name:

Nutrient,Unit,Data points,Std. Error,"1 CONTAINER = 150.0g",1Value per 100 g,
Proximates
"Energy",kcal,--,--,110,73
"Protein",g,--,--,18.00,12.00
"Total lipid (fat)",g,--,--,1.50,1.00
"Carbohydrate, by difference",g,--,--,7.00,4.67
"Fiber, total dietary",g,--,--,0.3,0.2
"Sugars, total",g,--,--,6.00,4.00
Minerals
"Calcium, Ca",mg,--,--,150,100
"Iron, Fe",mg,--,--,0.00,0.00
"Sodium, Na",mg,--,--,590,393
Vitamins
"Vitamin C, total ascorbic acid",mg,--,--,0.0,0.0
"Vitamin A, IU",IU,--,--,220,147
Lipids
"Fatty acids, total saturated",g,--,--,1.005,0.670
"Fatty acids, total trans",g,--,--,0.000,0.000
"Cholesterol",mg,--,--,20,13
Amino Acids
Other
Ingredients
"CULTURED PASTEURIZED SKIM MILK, MILK, WHEY PROTEIN CONCENTRATE, WHEY, SALT, NATURAL FLAVOR, XANTHAN GUM, LOCUST BEAN GUM, GUAR GUM, VITAMIN A PALMITATE, SORBIC ACID AND CARBON DIOXIDE (TO MAINTAIN FRESHNESS)." Date available: 07/14/2017 Date last updated by company: 07/14/2017
