Source: USDA Branded Food Products Database Release December 2017 Software v.3.8.6.4 2017-10-02
Report Run at: December 18, 2017 08:26 EST
"Nutrient data for: 45207822, HOPPY HOLLOW CANDY, UPC: 041269406219"
Food Group:  Branded Food Products Database
Common Name:

Nutrient,Unit,Data points,Std. Error,"1 PIECE = 43.0g",1Value per 100 g,
Proximates
"Energy",kcal,--,--,220,512
"Protein",g,--,--,1.00,2.33
"Total lipid (fat)",g,--,--,13.00,30.23
"Carbohydrate, by difference",g,--,--,28.00,65.12
"Fiber, total dietary",g,--,--,1.0,2.3
"Sugars, total",g,--,--,26.00,60.47
Minerals
"Calcium, Ca",mg,--,--,20,47
"Iron, Fe",mg,--,--,0.00,0.00
"Sodium, Na",mg,--,--,44,102
Vitamins
"Vitamin C, total ascorbic acid",mg,--,--,0.0,0.0
"Vitamin A, IU",IU,--,--,0,0
Lipids
"Fatty acids, total saturated",g,--,--,12.001,27.910
"Fatty acids, total trans",g,--,--,0.000,0.000
"Cholesterol",mg,--,--,0,0
Amino Acids
Other
Ingredients
"SUGAR, PARTIALLY HYDROGENATED VEGETABLE OIL (PALM KERNEL AND/OR PALM), WHEY, COCOA, LACTOSE, SKIM MILK, SOY LECITHIN (AN EMULSIFIER), VANILLIN (AN ARTIFICIAL FLAVOR), AND U.S. CERTIFIED COLORS (FD&C BLUE #1, BLUE #2, RED #40, YELLOW #5, AND YELLOW #6 LAKES; AND RED #3)." Date available: 07/14/2017 Date last updated by company: 07/14/2017
