Source: USDA Branded Food Products Database Release December 2017 Software v.3.8.6.4 2017-10-02
Report Run at: December 18, 2017 08:26 EST
"Nutrient data for: 45151943, HOPPY VALENTINE'S DAY MILK CHOCOLATE FOILED HEARTS, UPC: 050428468265"
Food Group:  Branded Food Products Database
Common Name:

Nutrient,Unit,Data points,Std. Error,"6.0 PIECES = 45.0g",1Value per 100 g,
Proximates
"Energy",kcal,--,--,220,489
"Protein",g,--,--,2.00,4.44
"Total lipid (fat)",g,--,--,11.00,24.44
"Carbohydrate, by difference",g,--,--,31.00,68.89
"Fiber, total dietary",g,--,--,1.0,2.2
"Sugars, total",g,--,--,29.00,64.44
Minerals
"Calcium, Ca",mg,--,--,40,89
"Iron, Fe",mg,--,--,0.80,1.78
"Sodium, Na",mg,--,--,30,67
Vitamins
"Vitamin C, total ascorbic acid",mg,--,--,0.0,0.0
"Vitamin A, IU",IU,--,--,0,0
Lipids
"Fatty acids, total saturated",g,--,--,7.002,15.560
"Fatty acids, total trans",g,--,--,0.000,0.000
"Cholesterol",mg,--,--,5,11
Amino Acids
Other
Ingredients
"SUGAR, COCOA BUTTER, CHOCOLATE LIQUOR, MILK, SOY LECITHIN AND PGPR (EMULSIFIERS), VANILLA, SALT." Date available: 07/14/2017 Date last updated by company: 07/14/2017
