Source: USDA Branded Food Products Database Release December 2017 Software v.3.8.6.4 2017-10-02
Report Run at: December 18, 2017 08:30 EST
"Nutrient data for: 45110757, HORIZON ORGANIC, SUPER SQUEEZE, CREAMY BLEND OF MILK AND REAL FRUIT, STRAWBERRY BASH, UPC: 742365004896"
Food Group:  Branded Food Products Database
Common Name:

Nutrient,Unit,Data points,Std. Error,"1 POUCH = 99.0g",1Value per 100 g,
Proximates
"Energy",kcal,--,--,100,101
"Protein",g,--,--,5.00,5.05
"Total lipid (fat)",g,--,--,0.00,0.00
"Carbohydrate, by difference",g,--,--,18.00,18.18
"Fiber, total dietary",g,--,--,2.0,2.0
"Sugars, total",g,--,--,15.00,15.15
Minerals
"Calcium, Ca",mg,--,--,200,202
"Iron, Fe",mg,--,--,0.00,0.00
"Sodium, Na",mg,--,--,180,182
Vitamins
"Vitamin C, total ascorbic acid",mg,--,--,1.2,1.2
"Vitamin A, IU",IU,--,--,0,0
Lipids
"Fatty acids, total saturated",g,--,--,0.000,0.000
"Fatty acids, total trans",g,--,--,0.000,0.000
"Cholesterol",mg,--,--,5,5
Amino Acids
Other
Ingredients
"ORGANIC SKIM MILK, ORGANIC STRAWBERRY PUREE, ORGANIC CANE SUGAR, PECTIN, CITRIC ACID, NATURAL FLAVOR." Date available: 07/14/2017 Date last updated by company: 07/14/2017
