Source: USDA Branded Food Products Database Release December 2017 Software v.3.8.6.4 2017-10-02
Report Run at: December 18, 2017 08:31 EST
"Nutrient data for: 45206570, HORMEL, ALWAYS TENDER, PORK TENDERLOIN, APPLE BOURBON, UPC: 037600182379"
Food Group:  Branded Food Products Database
Common Name:

Nutrient,Unit,Data points,Std. Error,"4.0 ONZ = 112.0g",1Value per 100 g,
Proximates
"Energy",kcal,--,--,130,116
"Protein",g,--,--,20.00,17.86
"Total lipid (fat)",g,--,--,4.00,3.57
"Carbohydrate, by difference",g,--,--,4.00,3.57
"Fiber, total dietary",g,--,--,0.0,0.0
"Sugars, total",g,--,--,4.00,3.57
Minerals
"Calcium, Ca",mg,--,--,0,0
"Iron, Fe",mg,--,--,0.55,0.49
"Sodium, Na",mg,--,--,530,473
Vitamins
"Vitamin C, total ascorbic acid",mg,--,--,0.0,0.0
"Vitamin A, IU",IU,--,--,0,0
Lipids
"Fatty acids, total saturated",g,--,--,1.501,1.340
"Fatty acids, total trans",g,--,--,0.000,0.000
"Cholesterol",mg,--,--,50,45
Amino Acids
Other
Ingredients
"** SOLUTION INGREDIENTS: PORK BROTH, SEASONING (BROWN SUGAR, TOMATO POWDER, SALT, SUGAR, SPICES, APPLE JUICE POWDER [MALTODEXTRIN, APPLE JUICE SOLIDS], APPLEWOOD SMOKE POWDER [MALTODEXTRIN, NATURAL APPLEWOOD SMOKE FLAVOR], ONION POWDER, GARLIC POWDER, NATURAL FLAVORS, TOMATO FLAVOR [MALTODEXTRIN, TOMATO ESSENCE], MUSTARD FLOUR, MALIC ACID, BOURBON WHISKEY), CULTURED DEXTROSE (CONTAINS MALTODEXTRIN), DRIED VINEGAR, SOYBEAN OIL, SEASONING (YEAST EXTRACT, NATURAL FLAVOR), FLAVORING." Date available: 07/14/2017 Date last updated by company: 07/14/2017
