Source: USDA Branded Food Products Database Release December 2017 Software v.3.8.6.4 2017-10-02
Report Run at: December 18, 2017 08:41 EST
"Nutrient data for: 45034406, HORMEL, WHITE CHICKEN CHILI WITH BEANS, UPC: 037600473569"
Food Group:  Branded Food Products Database
Common Name:

Nutrient,Unit,Data points,Std. Error,"1 cup = 247.0g",1Value per 100 g,
Proximates
"Energy",kcal,--,--,180,73
"Protein",g,--,--,14.99,6.07
"Total lipid (fat)",g,--,--,6.00,2.43
"Carbohydrate, by difference",g,--,--,16.01,6.48
"Fiber, total dietary",g,--,--,1.0,0.4
"Sugars, total",g,--,--,2.99,1.21
Minerals
"Calcium, Ca",mg,--,--,79,32
"Iron, Fe",mg,--,--,0.77,0.31
"Sodium, Na",mg,--,--,850,344
Vitamins
"Vitamin C, total ascorbic acid",mg,--,--,0.0,0.0
"Vitamin A, IU",IU,--,--,106,43
Lipids
"Fatty acids, total saturated",g,--,--,1.507,0.610
"Fatty acids, total trans",g,--,--,0.000,0.000
"Cholesterol",mg,--,--,44,18
Amino Acids
Other
Ingredients
"WATER, CHICKEN BREAST WITH RIB MEAT, WHITE BEANS, BELL PEPPERS, CORNSTARCH, CONTAINS 2% OR LESS OF CORN, GREEN CHILES (CONTAINS CITRIC ACID). NONFAT DRY MILK, ONIONS, CORN OIL, DEHYDRATED ONIONS, SALT, LIME JUICE CONCENTRATE, SPICES, DEHYDRATED GARLIC, XANTHAN GUM, SOY LECITHIN, JALAPENO PEPPERS." Date available: 07/14/2017 Date last updated by company: 07/14/2017
