Source: USDA Branded Food Products Database Release December 2017 Software v.3.8.6.4 2017-10-02
Report Run at: December 18, 2017 08:31 EST
"Nutrient data for: 45114836, HORMEL, BLACK LABEL, BACON, MAPLE, UPC: 037600109086"
Food Group:  Branded Food Products Database
Common Name:

Nutrient,Unit,Data points,Std. Error,"2.0 PAN-FRIED SLICES = 24.0g",1Value per 100 g,
Proximates
"Energy",kcal,--,--,110,458
"Protein",g,--,--,6.00,25.00
"Total lipid (fat)",g,--,--,8.00,33.33
"Carbohydrate, by difference",g,--,--,0.00,0.00
"Fiber, total dietary",g,--,--,0.0,0.0
"Sugars, total",g,--,--,0.00,0.00
Minerals
"Calcium, Ca",mg,--,--,0,0
"Iron, Fe",mg,--,--,0.00,0.00
"Sodium, Na",mg,--,--,410,1708
Vitamins
"Vitamin C, total ascorbic acid",mg,--,--,0.0,0.0
"Vitamin A, IU",IU,--,--,0,0
Lipids
"Fatty acids, total saturated",g,--,--,3.000,12.500
"Fatty acids, total trans",g,--,--,0.000,0.000
"Cholesterol",mg,--,--,25,104
Amino Acids
Other
Ingredients
"CURED WITH WATER, BROWN SUGAR, SALT, POTASSIUM LACTATE, FLAVOR (PROPYLENE GLYCOL, WATER, CORN SYRUP, NATURAL AND ARTIFICIAL FLAVOR, MAPLE SYRUP AND CARAMEL COLOR), SODIUM PHOSPHATE, SODIUM ERYTHORBATE, SODIUM NITRITE." Date available: 07/14/2017 Date last updated by company: 07/14/2017
