Source: USDA Branded Food Products Database Release December 2017 Software v.3.8.6.4 2017-10-02
Report Run at: December 18, 2017 08:35 EST
"Nutrient data for: 45206723, HORMEL, DI LUSSO, GENOA SALAMI, UPC: 037600052825"
Food Group:  Branded Food Products Database
Common Name:

Nutrient,Unit,Data points,Std. Error,"2.0 ONZ = 56.0g",1Value per 100 g,
Proximates
"Energy",kcal,--,--,170,304
"Protein",g,--,--,12.00,21.43
"Total lipid (fat)",g,--,--,14.00,25.00
"Carbohydrate, by difference",g,--,--,0.00,0.00
Minerals
"Iron, Fe",mg,--,--,0.71,1.26
"Sodium, Na",mg,--,--,930,1661
Vitamins
Lipids
"Fatty acids, total saturated",g,--,--,5.998,10.710
"Cholesterol",mg,--,--,50,89
Amino Acids
Other
Ingredients
"PORK, BEEF, SALT, CONTAINS 2% OR LESS OF DEXTROSE, WATER, SPICES, LACTIC ACID STARTER CULTURE, SODIUM NITRITE, GARLIC POWDER, BHA, BHT, CITRIC ACID." Date available: 07/14/2017 Date last updated by company: 07/14/2017
