Source: USDA Branded Food Products Database Release December 2017 Software v.3.8.6.4 2017-10-02
Report Run at: December 18, 2017 08:37 EST
"Nutrient data for: 45066699, HORMEL, NATURAL CHOICE, ORIGINAL UNCURED PEPPERONI, UPC: 037600516792"
Food Group:  Branded Food Products Database
Common Name:

Nutrient,Unit,Data points,Std. Error,"17.0 SLICES = 30.0g",1Value per 100 g,
Proximates
"Energy",kcal,--,--,150,500
"Protein",g,--,--,5.00,16.67
"Total lipid (fat)",g,--,--,14.00,46.67
"Carbohydrate, by difference",g,--,--,0.00,0.00
Minerals
"Iron, Fe",mg,--,--,0.66,2.20
"Sodium, Na",mg,--,--,510,1700
Vitamins
Lipids
"Fatty acids, total saturated",g,--,--,6.000,20.000
"Cholesterol",mg,--,--,35,117
Amino Acids
Other
Ingredients
"PORK, BEEF, SALT, CONTAINS 2% OR LESS OF WATER, PAPRIKA, TURBINADO SUGAR, SPICES, SEASONING (NATURAL FLAVORS, SEA SALT), NATURAL FLAVORS (CONTAINS DRIED CANE SYRUP), NATURAL FLAVORING, LACTIC ACID STARTER CULTURE." Date available: 07/14/2017 Date last updated by company: 07/14/2017
