Source: USDA Branded Food Products Database Release December 2017 Software v.3.8.6.4 2017-10-02
Report Run at: December 18, 2017 08:45 EST
"Nutrient data for: 45199182, HORSERADISH VINAIGRETTE, UPC: 091037609106"
Food Group:  Branded Food Products Database
Common Name:

Nutrient,Unit,Data points,Std. Error,"2.0 Tbsp = 30.0g",1Value per 100 g,
Proximates
"Energy",kcal,--,--,100,333
"Protein",g,--,--,0.00,0.00
"Total lipid (fat)",g,--,--,9.00,30.00
"Carbohydrate, by difference",g,--,--,4.00,13.33
"Fiber, total dietary",g,--,--,0.0,0.0
"Sugars, total",g,--,--,1.00,3.33
Minerals
"Calcium, Ca",mg,--,--,0,0
"Iron, Fe",mg,--,--,0.00,0.00
"Sodium, Na",mg,--,--,310,1033
Vitamins
"Vitamin C, total ascorbic acid",mg,--,--,2.0,6.7
"Vitamin A, IU",IU,--,--,0,0
Lipids
"Fatty acids, total saturated",g,--,--,0.999,3.330
"Fatty acids, total trans",g,--,--,0.000,0.000
"Cholesterol",mg,--,--,0,0
Amino Acids
Other
Ingredients
"HORSERADISH (HORSERADISH, WATER, DISTILLED VINEGAR, SOYBEAN OIL, SALT, AND ARTIFICIAL FLAVOR), EXTRA VIRGIN OLIVE OIL, EXPELLER PRESSED CANOLA OIL, SHERRY WINE VINEGAR, SEASONED RICE VINEGAR (RICE VINEGAR, WATER, SUGAR, SALT), SHALLOT, SALT, DIJON MUSTARD (WHITE DISTILLED VINEGAR AND WATER, #1 GRADE MUSTARD SEED, WATER, SALT, CHARDONNAY WINE, CITRIC ACID, ONION POWDER, TURMERIC, SPICES, NATURAL FLAVOR), GARLIC, BLACK PEPPER AND CAYENNE PEPPER SAUCE (RED CAYENNE PEPPERS, DISTILLED VINEGAR, SALT, GUM BLEND [XANTHAN GUM, GUAR GUM, SODIUM ALGINATE], ASCORBIC ACID)." Date available: 07/14/2017 Date last updated by company: 07/14/2017
