Source: USDA Branded Food Products Database Release December 2017 Software v.3.8.6.4 2017-10-02
Report Run at: December 18, 2017 08:44 EST
"Nutrient data for: 45209677, HORSERADISH OLD FASHIONED SPREADABLE CHEESE, UPC: 026542084230"
Food Group:  Branded Food Products Database
Common Name:

Nutrient,Unit,Data points,Std. Error,"2.0 Tbsp = 28.0g",1Value per 100 g,
Proximates
"Energy",kcal,--,--,110,393
"Protein",g,--,--,3.00,10.71
"Total lipid (fat)",g,--,--,10.00,35.71
"Carbohydrate, by difference",g,--,--,3.00,10.71
"Fiber, total dietary",g,--,--,0.0,0.0
"Sugars, total",g,--,--,2.00,7.14
Minerals
"Calcium, Ca",mg,--,--,80,286
"Iron, Fe",mg,--,--,0.00,0.00
"Sodium, Na",mg,--,--,160,571
Vitamins
"Vitamin C, total ascorbic acid",mg,--,--,0.0,0.0
"Vitamin A, IU",IU,--,--,357,1275
Lipids
"Fatty acids, total saturated",g,--,--,4.500,16.070
"Fatty acids, total trans",g,--,--,0.000,0.000
"Cholesterol",mg,--,--,25,89
Amino Acids
Other
Ingredients
"CREAM CHEESE (PASTEURIZED MILK AND CREAM, CHEESE CULTURES, SALT, CAROB BEAN GUM), CHEDDAR CHEESE (CULTURED PASTEURIZED MILK, SALT, ENZYMES, CALCIUM CHLORIDE), WATER, WHEY, MAYONNAISE (SOYBEAN OIL, WATER, EGGS, VINEGAR, CONTAINS LESS THAN 2% OF LESS THAN 2% OF EGG YOLKS, LEMON JUICE CONCENTRATE, SALT, SUGAR, DRIED ONIONS, DRIED GARLIC, PAPRIKA, NATURAL FLAVOR, CALCIUM DISODIUM EDTA [TO PROTECT FLAVOR]), HORSERADISH, CREAM, ARTIFICIAL FLAVOR, SORBIC ACID (TO PROTECT FLAVOR), SALT, GUAR GUM. CONTAINS MILK AND EGGS." Date available: 07/14/2017 Date last updated by company: 07/14/2017
