Source: USDA Branded Food Products Database Release December 2017 Software v.3.8.6.4 2017-10-02
Report Run at: December 18, 2017 08:45 EST
"Nutrient data for: 45169833, HORSETOOTH, HOT SAUCE RUBIN'S XXX, RED HABANERO AND CAYENNE, UPC: 857592004059"
Food Group:  Branded Food Products Database
Common Name:

Nutrient,Unit,Data points,Std. Error,"1 tsp = 5.0g",1Value per 100 g,
Proximates
"Energy",kcal,--,--,0,0
"Protein",g,--,--,0.00,0.00
"Total lipid (fat)",g,--,--,0.00,0.00
"Carbohydrate, by difference",g,--,--,0.00,0.00
Minerals
"Sodium, Na",mg,--,--,50,1000
Vitamins
"Vitamin C, total ascorbic acid",mg,--,--,6.1,121.7
Lipids
Amino Acids
Other
Ingredients
"DISTILLED WHITE VINEGAR, CAYENNE PEPPER RD HABANEROS, GARLIC, ONIONS SALT, BLACK PEPPER, XANTHAN GUM." Date available: 07/14/2017 Date last updated by company: 07/14/2017
