Source: USDA Branded Food Products Database Release December 2017 Software v.3.8.6.4 2017-10-02
Report Run at: December 18, 2017 08:42 EST
"Nutrient data for: 45207675, HORSERADISH CHEESE SPREAD, UPC: 036217168615"
Food Group:  Branded Food Products Database
Common Name:

Nutrient,Unit,Data points,Std. Error,"2.0 Tbsp = 27.0g",1Value per 100 g,
Proximates
"Energy",kcal,--,--,80,296
"Protein",g,--,--,4.00,14.81
"Total lipid (fat)",g,--,--,7.00,25.93
"Carbohydrate, by difference",g,--,--,2.00,7.41
"Fiber, total dietary",g,--,--,0.0,0.0
"Sugars, total",g,--,--,1.00,3.70
Minerals
"Calcium, Ca",mg,--,--,20,74
"Iron, Fe",mg,--,--,0.00,0.00
"Sodium, Na",mg,--,--,115,426
Vitamins
"Vitamin C, total ascorbic acid",mg,--,--,0.0,0.0
"Vitamin A, IU",IU,--,--,0,0
Lipids
"Fatty acids, total saturated",g,--,--,3.999,14.810
"Fatty acids, total trans",g,--,--,0.000,0.000
"Cholesterol",mg,--,--,25,93
Amino Acids
Other
Ingredients
"CHEDDAR CHEESE (PASTEURIZED MILK, CHEESE CULTURE, SALT, ENZYMES, ANNATTO COLOR, POTATO STARCH AND POWDERED CELLULOSE ADDED TO PREVENT CAKING, NATAMYCIN); CREAM CHEESE (CULTURED PASTEURIZED MILK AND CREAM, WHEY, SALT, TARA GUM, GUAR GUM); HORSERADISH (HORSERADISH, WATER, DISTILLED VINEGAR, SOY OIL, SALT, ARTIFICIAL FLAVORING); MILK (MILK, VITAMIN D3); FOOD STARCH-MODIFIED; SODIUM BENZOATE AND POTASSIUM SORBATE (PRESERVATIVES); NISIN PREPARATION, NATURAL FLAVOR." Date available: 07/14/2017 Date last updated by company: 07/14/2017
