Source: USDA Branded Food Products Database Release December 2017 Software v.3.8.6.4 2017-10-02
Report Run at: December 18, 2017 08:43 EST
"Nutrient data for: 45282234, HORSERADISH MAYO SANDWICH SPREAD, UPC: 075450139778"
Food Group:  Branded Food Products Database
Common Name:

Nutrient,Unit,Data points,Std. Error,"1 Tbsp = 15.0g",1Value per 100 g,
Proximates
"Energy",kcal,--,--,80,533
"Protein",g,--,--,0.00,0.00
"Total lipid (fat)",g,--,--,8.00,53.33
"Carbohydrate, by difference",g,--,--,2.00,13.33
"Sugars, total",g,--,--,1.00,6.67
Minerals
"Sodium, Na",mg,--,--,130,867
Vitamins
Lipids
"Fatty acids, total saturated",g,--,--,0.500,3.330
"Cholesterol",mg,--,--,5,33
Amino Acids
Other
Ingredients
"CANOLA OIL, WATER, SUGAR, DISTILLED VINEGAR, FROZEN EGG YOLK, HORSERADISH (HORSERADISH, WATER, DISTILLED VINEGAR, SALT, SODIUM BISULFITE [PRESERVATIVE]), SALT, MODIFIED CORN STARCH, MUSTARD FLOUR, XANTHAN GUM, MUSTARD OIL, POTASSIUM SORBATE (PRESERVATIVE), CITRIC ACID, DRIED ONION, SPICES, DISODIUM EDTA (TO PROTECT FLAVOR)." Date available: 07/14/2017 Date last updated by company: 07/14/2017
