Source: USDA Branded Food Products Database Release December 2017 Software v.3.8.6.4 2017-10-02
Report Run at: December 18, 2017 08:45 EST
"Nutrient data for: 45137171, HOSMER MOUNTAIN, OLS FASHIONED SODA, WHITE BIRCH BEER, UPC: 019204120179"
Food Group:  Branded Food Products Database
Common Name:

Nutrient,Unit,Data points,Std. Error,"12.0 OZA = 354.0g",1Value per 100 g,
Proximates
"Energy",kcal,--,--,159,45
"Protein",g,--,--,0.00,0.00
"Total lipid (fat)",g,--,--,0.00,0.00
"Carbohydrate, by difference",g,--,--,40.00,11.30
"Sugars, total",g,--,--,40.00,11.30
Minerals
"Sodium, Na",mg,--,--,4,1
Vitamins
Lipids
Amino Acids
Other
Ingredients
"CARBONATED NON CHLORINATED WATER, HIGH FRUCTOSE CORN SWEETENER, ARTIFICIAL FLAVOR, NATURAL SWEET BIRCH OIL, POTASSIUM BENZOATE (PRESERVATIVE), CITRIC ACID." Date available: 07/14/2017 Date last updated by company: 07/14/2017
