Source: USDA Branded Food Products Database Release December 2017 Software v.3.8.6.4 2017-10-02
Report Run at: December 18, 2017 08:45 EST
"Nutrient data for: 45023629, HOSPITALITY, MAC & CHEESE DINNER, UPC: 071923881205"
Food Group:  Branded Food Products Database
Common Name:

Nutrient,Unit,Data points,Std. Error,"0.5 CUP MACARONI AND 1 1/2 TABLESPOONS DRY CHEESE MIX = 70.0g",1Value per 100 g,
Proximates
"Energy",kcal,--,--,240,343
"Protein",g,--,--,8.00,11.43
"Total lipid (fat)",g,--,--,1.00,1.43
"Carbohydrate, by difference",g,--,--,51.00,72.86
"Fiber, total dietary",g,--,--,2.0,2.9
"Sugars, total",g,--,--,7.00,10.00
Minerals
"Calcium, Ca",mg,--,--,60,86
"Iron, Fe",mg,--,--,6.43,9.18
"Sodium, Na",mg,--,--,580,829
Vitamins
"Vitamin C, total ascorbic acid",mg,--,--,0.0,0.0
"Vitamin A, IU",IU,--,--,0,0
Lipids
"Fatty acids, total saturated",g,--,--,0.000,0.000
"Fatty acids, total trans",g,--,--,0.000,0.000
"Cholesterol",mg,--,--,0,0
Amino Acids
Other
Ingredients
"ENRICHED MACARONI (DURUM FLOUR AND ENRICHED WHEAT FLOUR WITH NIACIN, IRON [FERROUS SULFATE], THIAMINE MONONITRATE, RIBOFLAVIN, FOLIC ACID), DAIRY PRODUCT SOLIDS, ENRICHED BLEACHED FLOUR (BLEACHED WHEAT FLOUR, NIACIN, IRON, THIAMINE MONONITRATE, RIBOFLAVIN, FOLIC ACID), SALT, WHEY, MODIFIED CORN STARCH, CHEDDAR CHEESE (MILK, CHEESE CULTURE, SALT, ENZYMES), REDUCED LACTOSE WHEY, NATURAL FLAVOR, DRIED YEAST, COLOR (YELLOW 5 LAKE AND 6 LAKE, YELLOW 5 AND 6), BUTTER (CREAM, SALT), BUTTERMILK, NONFAT MILK, DISODIUM PHOSPHATE." Date available: 06/25/2017 Date last updated by company: 06/25/2017
