Source: USDA Branded Food Products Database Release December 2017 Software v.3.8.6.4 2017-10-02
Report Run at: December 18, 2017 08:46 EST
"Nutrient data for: 45042455, HOSTESS, DONETTES, MAPLE GLAZED MINI DONUTS, UPC: 888109111243"
Food Group:  Branded Food Products Database
Common Name:

Nutrient,Unit,Data points,Std. Error,"3.0 DONUTS = 53.0g",1Value per 100 g,
Proximates
"Energy",kcal,--,--,190,358
"Protein",g,--,--,1.00,1.89
"Total lipid (fat)",g,--,--,8.00,15.09
"Carbohydrate, by difference",g,--,--,27.00,50.94
"Fiber, total dietary",g,--,--,0.0,0.0
"Sugars, total",g,--,--,18.00,33.96
Minerals
"Calcium, Ca",mg,--,--,0,0
"Iron, Fe",mg,--,--,0.75,1.41
"Sodium, Na",mg,--,--,105,198
Vitamins
"Vitamin C, total ascorbic acid",mg,--,--,0.0,0.0
"Vitamin A, IU",IU,--,--,0,0
Lipids
"Fatty acids, total saturated",g,--,--,4.002,7.550
"Fatty acids, total trans",g,--,--,0.000,0.000
"Cholesterol",mg,--,--,5,9
Amino Acids
Other
Ingredients
"SUGAR, WATER, ENRICHED WHEAT FLOUR [WHEAT FLOUR, NIACIN, IRON (FERROUS SULFATE), THIAMIN MONONITRATE, RIBOFLAVIN, FOLIC ACID], PALM OIL, CONTAINS 2% OR LESS: SOYBEAN OIL, GLYCERIN, NONFAT DRY MILK, DEFATTED SOY FLOUR, NATURAL FLAVOR, CORN STARCH, EGG YOLKS, MODIFIED WHEAT STARCH, SALT, BAKING SODA, AGAR, DEXTROSE, NATURAL AND ARTIFICIAL FLAVOR, SORBIC ACID (TO RETAIN FRESHNESS), CARAMEL COLOR, MONO AND DIGLYCERIDES, SODIUM STEARATE, SOY LECITHIN, GUAR GUM, CELLULOSE GUM, POTASSIUM SORBATE AND SODIUM PROPIONATE (TO RETAIN FRESHNESS), SODIUM ALUMINUM PHOSPHATE, TURMERIC AND ANNATTO (COLOR), KARAYA GUM, DEXTRIN ENZYMES." Date available: 07/14/2017 Date last updated by company: 07/14/2017
