Source: USDA Branded Food Products Database Release December 2017 Software v.3.8.6.4 2017-10-02
Report Run at: December 18, 2017 09:16 EST
"Nutrient data for: 45282059, HOT & SPICY CHICKEN SANDWICH, UPC: 041268194308"
Food Group:  Branded Food Products Database
Common Name:

Nutrient,Unit,Data points,Std. Error,"1 SANDWICH = 162.0g",1Value per 100 g,
Proximates
"Energy",kcal,--,--,420,259
"Protein",g,--,--,18.00,11.11
"Total lipid (fat)",g,--,--,15.00,9.26
"Carbohydrate, by difference",g,--,--,53.01,32.72
"Fiber, total dietary",g,--,--,1.9,1.2
"Sugars, total",g,--,--,7.00,4.32
Minerals
"Calcium, Ca",mg,--,--,40,25
"Iron, Fe",mg,--,--,1.41,0.87
"Sodium, Na",mg,--,--,750,463
Vitamins
"Vitamin C, total ascorbic acid",mg,--,--,1.3,0.8
"Vitamin A, IU",IU,--,--,52,32
Lipids
"Fatty acids, total saturated",g,--,--,2.495,1.540
"Fatty acids, total trans",g,--,--,0.000,0.000
"Cholesterol",mg,--,--,36,22
Amino Acids
Other
Ingredients
"FULLY COOKED BREADED SPICY CHICKEN BREAST PATTY WITH RIB MEAT: CHICKEN BREAST WITH RIB MEAT, ENRICHED WHEAT FLOUR (WHEAT FLOUR, NIACIN, REDUCED IRON, THIAMINE MONONITRATE, RIBOFLAVIN, FOLIC ACID), WATER, SALT, BREAD CRUMBS (BLEACHED WHEAT FLOUR, YEAST, DEXTROSE, SALT), CRACKER MEAL [WHEAT FLOUR, LEAVENING (SODIUM ALUMINUM PHOSPHATE, SODIUM BICARBONATE)], MODIFIED FOOD STARCH, SODIUM PHOSPHATE, EXTRACTIVES OF PAPRIKA, LEAVENING (SODIUM BICARBONATE, SODIUM ALUMINUM PHOSPHATE), WHEAT GLUTEN, DRIED EGG WHITES, FLAVOR (GUM ARABIC, SPICE EXTARCTIVE), YELLOW CORN FLOUR, NONFAT DRY MILK, SEASONING (SALT, MUSTARD FLOUR, MALTODEXTRIN, CHILI PEPPER, PAPRIKA, SPICES, EXTRACTIVES OF PAPRIKA, EXTRACTIVES OF TURMERIC), SET IN VEGETABLE OIL. BUN: ENRICHED BLEACHED WHEAT FLOUR (WHEAT FLOUR, NIACIN, REDUCED IRON, THIAMINE MONONITRATE, RIBOFLAVIN, FOLIC ACID, ENZYME), WATER, SUGAR, SOYBEAN OIL, CONTAINS 2% OR LESS OF: YELLOW CORN MEAL, YEAST (YEAST SORBITAN MONOSTEARATE, ASCORBIC ACID AND CITRIC ACID (ANTIOXIDANTS), CALCIUM SULFATE, ENZYMES, WHEAT STARCH, ASCORBIC ACID, FD&C YELLOW #5." Date available: 07/14/2017 Date last updated by company: 07/14/2017
