Source: USDA Branded Food Products Database Release December 2017 Software v.3.8.6.4 2017-10-02
Report Run at: December 18, 2017 09:10 EST
"Nutrient data for: 45257922, HOT SALSA, UPC: 717524779397"
Food Group:  Branded Food Products Database
Common Name:

Nutrient,Unit,Data points,Std. Error,"3.0 ONZ = 85.0g",1Value per 100 g,
Proximates
"Energy",kcal,--,--,25,29
"Protein",g,--,--,2.00,2.35
"Total lipid (fat)",g,--,--,0.00,0.00
"Carbohydrate, by difference",g,--,--,5.00,5.88
"Fiber, total dietary",g,--,--,0.0,0.0
"Sugars, total",g,--,--,3.00,3.53
Minerals
"Calcium, Ca",mg,--,--,0,0
"Iron, Fe",mg,--,--,0.00,0.00
"Sodium, Na",mg,--,--,220,259
Vitamins
"Vitamin C, total ascorbic acid",mg,--,--,5.3,6.2
"Vitamin A, IU",IU,--,--,294,346
Lipids
"Fatty acids, total saturated",g,--,--,0.000,0.000
"Fatty acids, total trans",g,--,--,0.000,0.000
"Cholesterol",mg,--,--,0,0
Amino Acids
Other
Ingredients
"SALSA LISA, MEDIUM ORIGINAL RECIPE (TOMATOES, ONIONS JALAPENO PEPPERS, LEMON JUICE, VINEGAR, GARLIC, SALT, SPICES PARSLEY, CANE SUGAR, CULTURED DEXTROSE, NATURAL FLAVORINGS AND CITRIC ACID), PICO DEL GALLO (ROMA TOMATO, WHITE ONION, LIME JUICE JALAPENO PEPPER, CILANTRO AND SEA SALT) AND SERRANO PEPPER" Date available: 07/14/2017 Date last updated by company: 07/14/2017
