Source: USDA Branded Food Products Database Release December 2017 Software v.3.8.6.4 2017-10-02
Report Run at: December 18, 2017 08:50 EST
"Nutrient data for: 45268437, HOT CHOCOLATE MIX, UPC: 772291025825"
Food Group:  Branded Food Products Database
Common Name:

Nutrient,Unit,Data points,Std. Error,"1 SACHET = 35.0g",1Value per 100 g,
Proximates
"Energy",kcal,--,--,140,400
"Protein",g,--,--,2.00,5.71
"Total lipid (fat)",g,--,--,3.00,8.57
"Carbohydrate, by difference",g,--,--,29.00,82.86
"Fiber, total dietary",g,--,--,1.0,2.9
"Sugars, total",g,--,--,24.00,68.57
Minerals
"Calcium, Ca",mg,--,--,40,114
"Iron, Fe",mg,--,--,2.06,5.88
"Sodium, Na",mg,--,--,150,429
Vitamins
"Vitamin C, total ascorbic acid",mg,--,--,0.0,0.0
"Vitamin A, IU",IU,--,--,0,0
Lipids
"Fatty acids, total saturated",g,--,--,1.998,5.710
"Fatty acids, total trans",g,--,--,0.000,0.000
"Cholesterol",mg,--,--,0,0
Amino Acids
Other
Ingredients
"SUGAR, MODIFIED MILK INGREDIENTS (WHEY PROTEIN CONCENTRATE, DAIRY PRODUCT SOLIDS), COCOA (PROCESSED WITH ALKALI), CORN SYRUP SOLIDS, COCONUT OIL, SODIUM CASEINATE (MILK), DIPOTASSIUM PHOSPHATE, MONO AND DIGLYCERIDES, MODIFIED CELLULOSE GUM/GUAR GUM, SALT, NATURAL & ARTIFICIAL FLAVOUR, SILICON DIOXIDE." Date available: 10/19/2017 Date last updated by company: 10/19/2017
