Source: USDA Branded Food Products Database Release December 2017 Software v.3.8.6.4 2017-10-02
Report Run at: December 18, 2017 09:02 EST
"Nutrient data for: 45211055, HOT DOGS, UPC: 073890008203"
Food Group:  Branded Food Products Database
Common Name:

Nutrient,Unit,Data points,Std. Error,"1 LINK = 45.0g",1Value per 100 g,
Proximates
"Energy",kcal,--,--,130,289
"Protein",g,--,--,3.00,6.67
"Total lipid (fat)",g,--,--,12.00,26.67
"Carbohydrate, by difference",g,--,--,2.00,4.44
"Sugars, total",g,--,--,1.00,2.22
Minerals
"Iron, Fe",mg,--,--,0.44,0.98
"Sodium, Na",mg,--,--,520,1156
Vitamins
Lipids
"Fatty acids, total saturated",g,--,--,3.501,7.780
"Fatty acids, total trans",g,--,--,0.000,0.000
"Cholesterol",mg,--,--,30,67
Amino Acids
Other
Ingredients
"MECHANICALLY SEPARATED CHICKEN, WATER, PORK, CORN STARCH, MODIFIED FOOD STARCH, SALT, CONTAINS 2% OR LESS OF SODIUM LACTATE, DEXTROSE, SODIUM PHOSPHATE, BEEF, SODIUM DIACETATE, FLAVORINGS, SODIUM ERYTHORBATE, SODIUM NITRITE, OLEORESIN OF PAPRIKA, CITRIC ACID." Date available: 10/19/2017 Date last updated by company: 10/19/2017
