Source: USDA Branded Food Products Database Release December 2017 Software v.3.8.6.4 2017-10-02
Report Run at: December 18, 2017 09:03 EST
"Nutrient data for: 45277718, HOT FUDGE CONE, UPC: 070640400737"
Food Group:  Branded Food Products Database
Common Name:

Nutrient,Unit,Data points,Std. Error,"1 CONE = 98.0g",1Value per 100 g,
Proximates
"Energy",kcal,--,--,310,316
"Protein",g,--,--,6.00,6.12
"Total lipid (fat)",g,--,--,16.00,16.33
"Carbohydrate, by difference",g,--,--,38.00,38.78
"Fiber, total dietary",g,--,--,2.0,2.0
"Sugars, total",g,--,--,24.00,24.49
Minerals
"Calcium, Ca",mg,--,--,100,102
"Iron, Fe",mg,--,--,0.36,0.37
"Sodium, Na",mg,--,--,110,112
Vitamins
"Vitamin C, total ascorbic acid",mg,--,--,0.0,0.0
"Vitamin A, IU",IU,--,--,153,156
Lipids
"Fatty acids, total saturated",g,--,--,8.996,9.180
"Fatty acids, total trans",g,--,--,0.000,0.000
"Cholesterol",mg,--,--,15,15
Amino Acids
Other
Ingredients
"MILK, SUGAR, DRY ROASTED PEANUTS, BLEACHED WHEAT FLOUR, SKIM MILK, CREAM, COCONUT OIL, CORN SYRUP, HIGH FRUCTOSE CORN SYRUP, SWEETENED CONDESED SKIM MILK (SKIM MILK, SUGAR, CORN SYRUP), WHEY, BUTTEMILK, CONTAINS 2% OR LESS OF UNSWEETENED CHOCOLATE, COCOA PROCESSED WITH ALKALI, FOOD STARCH-MODIFIED, MOLASSES, MONO & DIGELYCERIDES, CAROB BEAN GUM, CELLULOSE GUM, CARRAGEENAN, CANOLA OIL, COCOA BUTTER, COCOA, SALT, SOYBEAN OIL, WHOLE MILK POWDER, HYDROGENATED COCONUT OIL, SOY LECITHIN, NATURAL AND ARTIFICIAL FLAVORS, ANNATTO FOR COLOR, CARAMEL COLOR, XANTHAN GUM, VITAMIN A PALMITATE, WATER." Date available: 07/14/2017 Date last updated by company: 07/14/2017
