Source: USDA Branded Food Products Database Release December 2017 Software v.3.8.6.4 2017-10-02
Report Run at: December 18, 2017 09:06 EST
"Nutrient data for: 45196985, HOT LINKS SMOKED SAUSAGE, UPC: 070773206008"
Food Group:  Branded Food Products Database
Common Name:

Nutrient,Unit,Data points,Std. Error,"0.5 LINK = 42.0g",1Value per 100 g,
Proximates
"Energy",kcal,--,--,140,333
"Protein",g,--,--,6.00,14.29
"Total lipid (fat)",g,--,--,12.00,28.57
"Carbohydrate, by difference",g,--,--,1.00,2.38
"Fiber, total dietary",g,--,--,0.0,0.0
"Sugars, total",g,--,--,1.00,2.38
Minerals
"Calcium, Ca",mg,--,--,20,48
"Iron, Fe",mg,--,--,0.47,1.12
"Sodium, Na",mg,--,--,260,619
Vitamins
"Vitamin C, total ascorbic acid",mg,--,--,0.0,0.0
"Vitamin A, IU",IU,--,--,131,312
Lipids
"Fatty acids, total saturated",g,--,--,4.498,10.710
"Fatty acids, total trans",g,--,--,0.000,0.000
"Cholesterol",mg,--,--,25,60
Amino Acids
Other
Ingredients
"PORK, BEEF, WATER, SPICES, SALT, NON FAT DRY MILK (MILK PROTEIN CONCENTRATE, NON FAT DRY MILK, LACTOSE), CELERY POWDER, BROWN SUGAR, SUGAR, GRANULATED GARLIC, PAPRIKA, NATURAL SMOKE FLAVOR (WATER, NATURAL SMOKE CONCENTRATE)." Date available: 07/14/2017 Date last updated by company: 07/14/2017
