Source: USDA Branded Food Products Database Release December 2017 Software v.3.8.6.4 2017-10-02
Report Run at: December 18, 2017 08:57 EST
"Nutrient data for: 45136142, HOT DOG BUNS, UPC: 853584002096"
Food Group:  Branded Food Products Database
Common Name:

Nutrient,Unit,Data points,Std. Error,"1 BUN = 66.0g",1Value per 100 g,
Proximates
"Energy",kcal,--,--,140,212
"Protein",g,--,--,3.00,4.55
"Total lipid (fat)",g,--,--,2.00,3.03
"Carbohydrate, by difference",g,--,--,28.00,42.42
"Fiber, total dietary",g,--,--,3.0,4.5
"Sugars, total",g,--,--,5.00,7.58
Minerals
"Calcium, Ca",mg,--,--,0,0
"Iron, Fe",mg,--,--,0.55,0.83
"Sodium, Na",mg,--,--,220,333
Vitamins
"Vitamin C, total ascorbic acid",mg,--,--,0.0,0.0
"Vitamin A, IU",IU,--,--,0,0
Lipids
"Fatty acids, total saturated",g,--,--,0.000,0.000
"Fatty acids, total trans",g,--,--,0.000,0.000
"Cholesterol",mg,--,--,20,30
Amino Acids
Other
Ingredients
"WATER, BROWN RICE FLOUR, TAPIOCA FLOUR, WHOLE GRAIN SORGHUM FLOUR, ORGANIC AGAVE SYRUP, EGGS, XANTHAN GUM, EXTRA VIRGIN OLIVE OIL, YEAST, CULTURED BROWN RICE FLOUR, SEA SALT, WHOLE GRAIN AMARANTH, NATURAL ENZYMES." Date available: 09/20/2017 Date last updated by company: 09/20/2017
