Source: USDA Branded Food Products Database Release December 2017 Software v.3.8.6.4 2017-10-02
Report Run at: December 18, 2017 08:48 EST
"Nutrient data for: 45046961, HOT CEREAL, UPC: 072400011092"
Food Group:  Branded Food Products Database
Common Name:

Nutrient,Unit,Data points,Std. Error,"1 CONTAINER = 65.0g",1Value per 100 g,
Proximates
"Energy",kcal,--,--,260,400
"Protein",g,--,--,3.00,4.62
"Total lipid (fat)",g,--,--,3.50,5.38
"Carbohydrate, by difference",g,--,--,52.00,80.00
"Fiber, total dietary",g,--,--,1.0,1.5
"Sugars, total",g,--,--,24.00,36.92
Minerals
"Calcium, Ca",mg,--,--,250,385
"Iron, Fe",mg,--,--,7.62,11.72
"Sodium, Na",mg,--,--,360,554
Vitamins
"Vitamin C, total ascorbic acid",mg,--,--,0.0,0.0
"Thiamin",mg,--,--,0.650,1.000
"Riboflavin",mg,--,--,0.575,0.885
"Niacin",mg,--,--,8.462,13.018
"Vitamin B-6",mg,--,--,0.677,1.042
"Vitamin A, IU",IU,--,--,1269,1952
Lipids
"Fatty acids, total saturated",g,--,--,0.501,0.770
"Fatty acids, total trans",g,--,--,0.000,0.000
"Cholesterol",mg,--,--,0,0
Amino Acids
Other
Ingredients
"WHEAT FARINA, SUGAR, BROWN SUGAR, WALNUTS, MODIFIED CORN STARCH, ACETYLATED MONOGLYCERIDES, NATURAL FLAVOR (NATURAL FLAVOR, CARAMEL COLOR, NUTMEG), SALT, CALCIUM CARBONATE, NATURAL FLAVORS, DEFATTED WHEAT GERM, GUAR GUM, FERRIC ORTHOPHOSPHATE, VITAMIN A PALMITATE, NIACIN, RIBOFLAVIN, PYRIDOXINE HYDROCHLORIDE, THIAMINE MONONITRATE, FOLIC ACID, BHT (TO PRESERVE FRESHNESS)." Date available: 07/14/2017 Date last updated by company: 07/14/2017
