Source: USDA Branded Food Products Database Release December 2017 Software v.3.8.6.4 2017-10-02
Report Run at: December 18, 2017 09:01 EST
"Nutrient data for: 45219696, HOT DOG RELISH, UPC: 876941007176"
Food Group:  Branded Food Products Database
Common Name:

Nutrient,Unit,Data points,Std. Error,"1 Tbsp = 15.0g",1Value per 100 g,
Proximates
"Energy",kcal,--,--,20,133
"Protein",g,--,--,0.00,0.00
"Total lipid (fat)",g,--,--,0.00,0.00
"Carbohydrate, by difference",g,--,--,4.00,26.67
"Fiber, total dietary",g,--,--,0.0,0.0
"Sugars, total",g,--,--,4.00,26.67
Minerals
"Calcium, Ca",mg,--,--,0,0
"Iron, Fe",mg,--,--,0.00,0.00
"Sodium, Na",mg,--,--,260,1733
Vitamins
"Vitamin C, total ascorbic acid",mg,--,--,0.0,0.0
"Vitamin A, IU",IU,--,--,0,0
Lipids
"Fatty acids, total saturated",g,--,--,0.000,0.000
"Fatty acids, total trans",g,--,--,0.000,0.000
"Cholesterol",mg,--,--,0,0
Amino Acids
Other
Ingredients
"CUCUMBERS, SUGAR, MUSTARD PASTE (WATER, VINEGAR, MUSTARD SEEDS, SALT, TURMERIC), WATER, VINEGAR, SALT, CALCIUM CHLORIDE, XANTHAN GUM, RED BELL PEPPER, DEHYDRATED ONION, FD & C YELLOW NO. 5." Date available: 07/14/2017 Date last updated by company: 07/14/2017
