Source: USDA Branded Food Products Database Release December 2017 Software v.3.8.6.4 2017-10-02
Report Run at: December 18, 2017 09:06 EST
"Nutrient data for: 45262015, HOT LINKS SAUSAGE, UPC: 786681206985"
Food Group:  Branded Food Products Database
Common Name:

Nutrient,Unit,Data points,Std. Error,"1 LINK = 92.0g",1Value per 100 g,
Proximates
"Energy",kcal,--,--,190,207
"Protein",g,--,--,15.00,16.30
"Total lipid (fat)",g,--,--,13.00,14.13
"Carbohydrate, by difference",g,--,--,1.00,1.09
"Fiber, total dietary",g,--,--,0.0,0.0
"Sugars, total",g,--,--,0.00,0.00
Minerals
"Calcium, Ca",mg,--,--,60,65
"Iron, Fe",mg,--,--,1.08,1.17
"Sodium, Na",mg,--,--,840,913
Vitamins
"Vitamin C, total ascorbic acid",mg,--,--,0.7,0.8
"Vitamin A, IU",IU,--,--,60,65
Lipids
"Fatty acids, total saturated",g,--,--,5.998,6.520
"Fatty acids, total trans",g,--,--,0.000,0.000
"Cholesterol",mg,--,--,75,82
Amino Acids
Other
Ingredients
"PORK, BEEF HEARTS, PORK FAT TRIM, PASTEURIZED PROCESS CHEDDAR CHEESE (CULTURED MILK, WATER, CREAM, SKIM MILK, WHEY, SODIUM PHOSPHATES, SALT, SORBIC ACID, VEGETABLE COLOR, AND ENZYMES), WATER, SALT, JALAPENO PEPPERS, NON FAT DRY MILK, BLACK PEPPER, CORN SYRUP SOLIDS, GARLIC, SPICES, DEXTROSE, SODIUM CHLORIDE, POTASSIUM CHLORIDE, MONOSODIUM GLUTAMATE, HYDROLYZED VEGETABLE PROTEIN (SOY), SODIUM NITRITE." Date available: 07/14/2017 Date last updated by company: 07/14/2017
