Source: USDA Branded Food Products Database Release December 2017 Software v.3.8.6.4 2017-10-02
Report Run at: December 18, 2017 09:12 EST
"Nutrient data for: 45201079, HOT SAUCE, UPC: 744994007866"
Food Group:  Branded Food Products Database
Common Name:

Nutrient,Unit,Data points,Std. Error,"1 tsp = 5.0g",1Value per 100 g,
Proximates
"Energy",kcal,--,--,0,0
"Protein",g,--,--,0.00,0.00
"Total lipid (fat)",g,--,--,0.00,0.00
"Carbohydrate, by difference",g,--,--,0.00,0.00
Minerals
"Sodium, Na",mg,--,--,190,3800
Vitamins
"Vitamin C, total ascorbic acid",mg,--,--,48.0,960.0
Lipids
Amino Acids
Other
Ingredients
"AGED RED HABANERO PEPPERS, DISTILLED VINEGAR, SALT, XANTHAN GUM, GRANULATED GARLIC." Date available: 07/14/2017 Date last updated by company: 07/14/2017
