Source: USDA Branded Food Products Database Release December 2017 Software v.3.8.6.4 2017-10-02
Report Run at: December 18, 2017 09:03 EST
"Nutrient data for: 45315954, HOT GHERKINS, UPC: 039045417283"
Food Group:  Branded Food Products Database
Common Name:

Nutrient,Unit,Data points,Std. Error,"2.0 PCS) | ( = 28.0g",1Value per 100 g,
Proximates
"Energy",kcal,--,--,15,54
"Protein",g,--,--,0.00,0.00
"Total lipid (fat)",g,--,--,0.00,0.00
"Carbohydrate, by difference",g,--,--,4.00,14.29
"Fiber, total dietary",g,--,--,1.0,3.6
"Sugars, total",g,--,--,3.00,10.71
Minerals
"Calcium, Ca",mg,--,--,20,71
"Iron, Fe",mg,--,--,0.00,0.00
"Sodium, Na",mg,--,--,170,607
Vitamins
"Vitamin C, total ascorbic acid",mg,--,--,0.0,0.0
"Vitamin A, IU",IU,--,--,179,638
Lipids
"Fatty acids, total saturated",g,--,--,0.000,0.000
"Fatty acids, total trans",g,--,--,0.000,0.000
"Cholesterol",mg,--,--,0,0
Amino Acids
Other
Ingredients
"GHERKINS, SPIRIT VINEGAR, WATER, GLUCOSE-FRUCTOSE SYRUP (FROM WHEAT AND CORN), SUGAR, MUSTARD SEEDS, SALT, CHILI PEPPER, NATURAL FLAVOR, RIBOFLAVIN (COLOR)." Date available: 07/14/2017 Date last updated by company: 07/14/2017
