Source: USDA Branded Food Products Database Release December 2017 Software v.3.8.6.4 2017-10-02
Report Run at: December 18, 2017 09:16 EST
"Nutrient data for: 45201976, HOT SMOKED SAUSAGE, UPC: 070100029577"
Food Group:  Branded Food Products Database
Common Name:

Nutrient,Unit,Data points,Std. Error,"1 LINK = 65.0g",1Value per 100 g,
Proximates
"Energy",kcal,--,--,210,323
"Protein",g,--,--,7.00,10.77
"Total lipid (fat)",g,--,--,16.00,24.62
"Carbohydrate, by difference",g,--,--,7.00,10.77
"Fiber, total dietary",g,--,--,0.0,0.0
"Sugars, total",g,--,--,4.00,6.15
Minerals
"Calcium, Ca",mg,--,--,20,31
"Iron, Fe",mg,--,--,0.61,0.94
"Sodium, Na",mg,--,--,770,1185
Vitamins
"Vitamin C, total ascorbic acid",mg,--,--,0.0,0.0
"Vitamin A, IU",IU,--,--,0,0
Lipids
"Fatty acids, total saturated",g,--,--,6.000,9.230
"Fatty acids, total trans",g,--,--,0.000,0.000
"Cholesterol",mg,--,--,60,92
Amino Acids
Other
Ingredients
"MECHANICALLY SEPARATED CHICKEN, PORK, WATER, CORN SYRUP, PORK HEARTS AND BEEF HEARTS, CONTAINS 2% OR LESS OF MODIFIED FOOD STARCH, SALT FLAVORING, POTASSIUM LACTATE, SODIUM LACTATE, DEXTROSE, BEEF, SODIUM PHOSPHATES, SODIUM DIACETATE, SUGAR, SODIUM ERYTHORBATE, SODIUM NITRATE." Date available: 07/14/2017 Date last updated by company: 07/14/2017
