Source: USDA Branded Food Products Database Release December 2017 Software v.3.8.6.4 2017-10-02
Report Run at: December 18, 2017 08:50 EST
"Nutrient data for: 45134838, Hot Chocolate with Marshmallows, Envelopes, UNPREPARED, GTIN: 00070920474922"
Food Group:  Branded Food Products Database
Common Name:

Nutrient,Unit,Data points,Std. Error,"1 envelope (21g) = 21.0g",1Value per 100 g,
Proximates
"Energy",kcal,--,--,90,429
"Protein",g,--,--,1.00,4.76
"Total lipid (fat)",g,--,--,2.00,9.52
"Carbohydrate, by difference",g,--,--,16.00,76.19
"Fiber, total dietary",g,--,--,1.0,4.8
"Sugars, total",g,--,--,11.00,52.38
Minerals
"Calcium, Ca",mg,--,--,300,1429
"Iron, Fe",mg,--,--,0.72,3.43
"Potassium, K",mg,--,--,250,1190
"Sodium, Na",mg,--,--,130,619
Vitamins
"Vitamin C, total ascorbic acid",mg,--,--,0.0,0.0
"Vitamin A, IU",IU,--,--,0,0
Lipids
"Fatty acids, total saturated",g,--,--,1.499,7.140
"Fatty acids, total monounsaturated",g,--,--,0.000,0.000
"Fatty acids, total polyunsaturated",g,--,--,0.000,0.000
"Fatty acids, total trans",g,--,--,0.000,0.000
"Cholesterol",mg,--,--,0,0
Amino Acids
Other
Ingredients
"Sugar, Corn Syrup, Modified Whey, Cocoa (Processed With Alkali), Hydrogenated Coconut Oil, Marshmallows (Sugar, Corn Syrup, Modified Corn Starch, Gelatin, Artificial Flavor), Nonfat Milk, Calcium Carbonate, Less Than 2% Of: Salt, Dipotassium Phosphate, Mono- and Diglycerides, Carrageenan, Acesulfame Potassium, Sucralose, Artificial Flavor. Contains: Milk." Date available: 10/12/2017 Date last updated by company: 10/12/2017
