Source: USDA Branded Food Products Database Release December 2017 Software v.3.8.6.4 2017-10-02
Report Run at: December 18, 2017 08:52 EST
"Nutrient data for: 45100847, HOT COCOA MIX, UPC: 054467050375"
Food Group:  Branded Food Products Database
Common Name:

Nutrient,Unit,Data points,Std. Error,"1 ENVELOPE = 28.0g",1Value per 100 g,
Proximates
"Energy",kcal,--,--,120,429
"Protein",g,--,--,2.00,7.14
"Total lipid (fat)",g,--,--,3.50,12.50
"Carbohydrate, by difference",g,--,--,22.00,78.57
"Fiber, total dietary",g,--,--,2.0,7.1
"Sugars, total",g,--,--,18.00,64.29
Minerals
"Calcium, Ca",mg,--,--,20,71
"Iron, Fe",mg,--,--,2.57,9.19
"Sodium, Na",mg,--,--,130,464
Vitamins
"Vitamin C, total ascorbic acid",mg,--,--,0.0,0.0
"Vitamin A, IU",IU,--,--,0,0
Lipids
"Fatty acids, total saturated",g,--,--,2.500,8.930
"Fatty acids, total trans",g,--,--,0.000,0.000
"Cholesterol",mg,--,--,0,0
Amino Acids
Other
Ingredients
"CANE SUGAR, COCOA (PROCESSED WITH ALKALI), NATURAL FLAVORS, PALM KERNEL AND PALM OIL, SEA SALT, WHOLE-MILK POWDER, NONFAT DRY MILK, SOY LECITHIN, VANILLA POWDER." Date available: 10/13/2017 Date last updated by company: 10/13/2017
