Source: USDA Branded Food Products Database Release December 2017 Software v.3.8.6.4 2017-10-02
Report Run at: December 18, 2017 09:12 EST
"Nutrient data for: 45201537, HOT SAUCE, UPC: 793573125293"
Food Group:  Branded Food Products Database
Common Name:

Nutrient,Unit,Data points,Std. Error,"1 tsp = 6.66g",1Value per 100 g,
Proximates
"Energy",kcal,--,--,0,0
"Protein",g,--,--,0.00,0.00
"Total lipid (fat)",g,--,--,0.00,0.00
"Carbohydrate, by difference",g,--,--,0.00,0.00
Minerals
"Sodium, Na",mg,--,--,160,2402
Vitamins
"Vitamin A, IU",IU,--,--,751,11276
Lipids
Amino Acids
Other
Ingredients
"AGED CAYENNE RED PEPPERS, VINEGAR, WATER, WILD KENYA BLACK AND RED PEPPERS, SALT AND GARLIC POWDER." Date available: 10/13/2017 Date last updated by company: 10/13/2017
