Source: USDA Branded Food Products Database Release December 2017 Software v.3.8.6.4 2017-10-02
Report Run at: December 18, 2017 08:56 EST
"Nutrient data for: 45295886, HOT COCOA, UPC: 9555118701802"
Food Group:  Branded Food Products Database
Common Name:

Nutrient,Unit,Data points,Std. Error,"1 CONTAINER = 210.0g",1Value per 100 g,
Proximates
"Energy",kcal,--,--,94,45
"Protein",g,--,--,2.31,1.10
"Total lipid (fat)",g,--,--,3.00,1.43
"Carbohydrate, by difference",g,--,--,26.61,12.67
"Fiber, total dietary",g,--,--,1.9,0.9
"Sugars, total",g,--,--,18.50,8.81
Minerals
"Calcium, Ca",mg,--,--,120,57
"Iron, Fe",mg,--,--,9.87,4.70
"Sodium, Na",mg,--,--,4,2
Vitamins
"Vitamin C, total ascorbic acid",mg,--,--,1.1,0.5
"Vitamin A, IU",IU,--,--,256,122
Lipids
"Fatty acids, total saturated",g,--,--,2.709,1.290
"Fatty acids, total trans",g,--,--,0.000,0.000
"Cholesterol",mg,--,--,0,0
Amino Acids
Other
Ingredients
"CHOCOLATE (COCA, WATER), SUGAR, NON DAIRY CREAMER (GLUCOSE SYRUP, HYDROGENATED PALM KERNEL OIL, SODIUM CASSEINATE, STABILIZER E340, EMULSIFIER E471, ANTI-CAKING AGENT E554), SKIMMED MILK." Date available: 08/10/2017 Date last updated by company: 08/10/2017
