Source: USDA Branded Food Products Database Release December 2017 Software v.3.8.6.4 2017-10-02
Report Run at: December 18, 2017 08:55 EST
"Nutrient data for: 45142642, HOT COCOA, UPC: 032561283592"
Food Group:  Branded Food Products Database
Common Name:

Nutrient,Unit,Data points,Std. Error,"1 SINGLE-SERVE CUP = 15.0g",1Value per 100 g,
Proximates
"Energy",kcal,--,--,70,467
"Protein",g,--,--,1.00,6.67
"Total lipid (fat)",g,--,--,3.00,20.00
"Carbohydrate, by difference",g,--,--,9.00,60.00
"Fiber, total dietary",g,--,--,1.0,6.7
"Sugars, total",g,--,--,5.00,33.33
Minerals
"Calcium, Ca",mg,--,--,0,0
"Iron, Fe",mg,--,--,2.40,16.00
"Phosphorus, P",mg,--,--,67,445
"Potassium, K",mg,--,--,150,1000
"Sodium, Na",mg,--,--,200,1333
Vitamins
"Vitamin C, total ascorbic acid",mg,--,--,0.0,0.0
"Vitamin A, IU",IU,--,--,0,0
Lipids
"Fatty acids, total saturated",g,--,--,3.000,20.000
"Fatty acids, total polyunsaturated",g,--,--,0.000,0.000
"Fatty acids, total trans",g,--,--,0.000,0.000
"Cholesterol",mg,--,--,0,0
Amino Acids
Other
Ingredients
"NONDAIRY CREAMER (COCONUT OIL, CORN SYRUP SOLIDS, SODIUM CASEINATE (A MILK DERIVATIVE), MONO- AND DIGLYCERIDES, DIPOTASSIUM PHOSPHATE AND SODIUM SILICO ALUMINATE), PURE CANE SUGAR, COCOA, MALTODEXTRIN, NATURAL AND ARTIFICIAL FLAVORS, SALT, ASPARTAME ****CONTAINS PHENYLALANINE, SILICONE DIOXIDE, ACESULFAME POTASSIUM" Date available: 07/14/2017 Date last updated by company: 07/14/2017
