Source: USDA Branded Food Products Database Release December 2017 Software v.3.8.6.4 2017-10-02
Report Run at: December 18, 2017 09:18 EST
"Nutrient data for: 45288988, HOT & SWEET SLICED GREEN JALAPENOS, UPC: 070410055273"
Food Group:  Branded Food Products Database
Common Name:

Nutrient,Unit,Data points,Std. Error,"1 ONZ = 30.0g",1Value per 100 g,
Proximates
"Energy",kcal,--,--,25,83
"Protein",g,--,--,0.00,0.00
"Total lipid (fat)",g,--,--,0.00,0.00
"Carbohydrate, by difference",g,--,--,6.00,20.00
"Fiber, total dietary",g,--,--,1.0,3.3
Minerals
"Calcium, Ca",mg,--,--,20,67
"Iron, Fe",mg,--,--,0.00,0.00
"Sodium, Na",mg,--,--,600,2000
Vitamins
"Vitamin C, total ascorbic acid",mg,--,--,2.0,6.7
"Vitamin A, IU",IU,--,--,667,2222
Lipids
"Fatty acids, total saturated",g,--,--,0.000,0.000
"Fatty acids, total trans",g,--,--,0.000,0.000
"Cholesterol",mg,--,--,0,0
Amino Acids
Other
Ingredients
"JALAPENO PEPPERS, WATER, SUGAR, VINEGAR, SALT, CALCIUM CHLORIDE, SODIUM METABISULFITE, TURMERIC AND NATURAL FLAVORINGS." Date available: 10/04/2017 Date last updated by company: 10/04/2017
