Source: USDA Branded Food Products Database Release December 2017 Software v.3.8.6.4 2017-10-02
Report Run at: December 18, 2017 08:52 EST
"Nutrient data for: 45010634, HOT COCOA MIX, UPC: 878326000017"
Food Group:  Branded Food Products Database
Common Name:

Nutrient,Unit,Data points,Std. Error,"1 ENVELOPE [MAKES 7 FL OZ COCOA] = 35.0g",1Value per 100 g,
Proximates
"Energy",kcal,--,--,140,400
"Protein",g,--,--,3.00,8.57
"Total lipid (fat)",g,--,--,3.00,8.57
"Carbohydrate, by difference",g,--,--,26.00,74.29
"Fiber, total dietary",g,--,--,1.0,2.9
"Sugars, total",g,--,--,24.00,68.57
Minerals
"Calcium, Ca",mg,--,--,100,286
"Iron, Fe",mg,--,--,1.03,2.94
"Sodium, Na",mg,--,--,270,771
Vitamins
Lipids
"Fatty acids, total saturated",g,--,--,2.499,7.140
Amino Acids
Other
Ingredients
"SUGAR, NONFAT DRY MILK, WHEY, DUTCH-PROCESSED COCOA, COCONUT OIL, CORN SYRUP SOLIDS, PARTIALLY HYDROGENATED SOYBEAN OIL, SALT, POTASSIUM & SODIUM PHOSPHATE, CELLULOSE GUM, MONO & DIGLYCERIDES, SODIUM CASEINATE, ARTIFICIAL FLAVOR, SOY LECITHIN." Date available: 10/04/2017 Date last updated by company: 10/04/2017
