Source: USDA Branded Food Products Database Release December 2017 Software v.3.8.6.4 2017-10-02
Report Run at: December 18, 2017 08:49 EST
"Nutrient data for: 45083852, HOT CHILI OIL, UPC: 011152026237"
Food Group:  Branded Food Products Database
Common Name:

Nutrient,Unit,Data points,Std. Error,"1 tsp = 5.0g",1Value per 100 g,
Proximates
"Energy",kcal,--,--,40,800
"Protein",g,--,--,0.00,0.00
"Total lipid (fat)",g,--,--,4.50,90.00
"Carbohydrate, by difference",g,--,--,0.00,0.00
Minerals
"Sodium, Na",mg,--,--,0,0
Vitamins
"Vitamin A, IU",IU,--,--,3044,60870
Lipids
"Fatty acids, total saturated",g,--,--,0.500,10.000
"Fatty acids, total trans",g,--,--,0.000,0.000
Amino Acids
Other
Ingredients
"SOYBEAN OIL, RED CHILI PEPPERS, SESAME OIL, GARLIC OIL AND GINGER OIL." Date available: 07/14/2017 Date last updated by company: 07/14/2017
