Source: USDA Branded Food Products Database Release December 2017 Software v.3.8.6.4 2017-10-02
Report Run at: December 18, 2017 09:04 EST
"Nutrient data for: 45257630, HOT ITALIAN SAUSAGE, UPC: 084632112102"
Food Group:  Branded Food Products Database
Common Name:

Nutrient,Unit,Data points,Std. Error,"1 LINK = 95.0g",1Value per 100 g,
Proximates
"Energy",kcal,--,--,210,221
"Protein",g,--,--,17.00,17.89
"Total lipid (fat)",g,--,--,16.00,16.84
"Carbohydrate, by difference",g,--,--,1.00,1.05
"Sugars, total",g,--,--,0.00,0.00
Minerals
"Iron, Fe",mg,--,--,0.42,0.44
"Sodium, Na",mg,--,--,510,537
Vitamins
"Vitamin C, total ascorbic acid",mg,--,--,0.7,0.7
"Vitamin A, IU",IU,--,--,116,122
Lipids
"Fatty acids, total saturated",g,--,--,6.004,6.320
"Cholesterol",mg,--,--,60,63
Amino Acids
Other
Ingredients
"PORK, WATER, SALT, FENNEL, SPICES (INCLUDING PEPPER), PAPRIKA, DEHYDRATED GARLIC, NATURAL FLAVOR, LEMON JUICE CONCENTRATE, NATURAL HOG CASING." Date available: 10/19/2017 Date last updated by company: 10/19/2017
