Source: USDA Branded Food Products Database Release December 2017 Software v.3.8.6.4 2017-10-02
Report Run at: December 18, 2017 09:07 EST
"Nutrient data for: 45196405, HOT 'N SPICY BREADED CHICKEN WINGS, UPC: 037371353831"
Food Group:  Branded Food Products Database
Common Name:

Nutrient,Unit,Data points,Std. Error,"4.0 ONZ = 112.0g",1Value per 100 g,
Proximates
"Energy",kcal,--,--,211,188
"Protein",g,--,--,11.00,9.82
"Total lipid (fat)",g,--,--,13.00,11.61
"Carbohydrate, by difference",g,--,--,10.00,8.93
"Fiber, total dietary",g,--,--,1.0,0.9
"Sugars, total",g,--,--,2.00,1.79
Minerals
"Iron, Fe",mg,--,--,0.55,0.49
"Sodium, Na",mg,--,--,900,804
Vitamins
"Vitamin A, IU",IU,--,--,152,136
Lipids
"Fatty acids, total saturated",g,--,--,3.494,3.120
"Fatty acids, total trans",g,--,--,0.000,0.000
"Cholesterol",mg,--,--,60,54
Amino Acids
Other
Ingredients
"CHICKEN WING SECTIONS CONTAINING UP TO 18% OF A SOLUTION OF WATER, SEASONING (SALT, DEXTROSE, SPICE EXTRACTIVES INCLUDING EXTRACTIVE OF PAPRIKA, MODIFIED FOOD STARCH) AND SODIUM PHOSPHATE. PREDUSTED AND BREADED WITH: BLEACHED WHEAT FLOUR, SALT, SPICES AND SPICE EXTRACTIVE. BATTERED WITH: WATER, WHEAT FLOUR, YELLOW CORN FLOUR, MODIFIED FOOD STARCH, SALT, SPICES AND SPICE EXTRACTIVES INCLUDING EXTRACTIVE OF PAPRIKA AND EXTRACTIVE OF TURMERIC. BREADING SET IN SOYBEAN OIL." Date available: 10/19/2017 Date last updated by company: 10/19/2017
