Source: USDA Branded Food Products Database Release December 2017 Software v.3.8.6.4 2017-10-02
Report Run at: December 18, 2017 09:15 EST
"Nutrient data for: 45052689, HOT SLICED CHERRY PEPPERS, UPC: 026662753344"
Food Group:  Branded Food Products Database
Common Name:

Nutrient,Unit,Data points,Std. Error,"7.0 PIECES) | (ABOUT = 28.0g",1Value per 100 g,
Proximates
"Energy",kcal,--,--,10,36
"Protein",g,--,--,0.00,0.00
"Total lipid (fat)",g,--,--,0.00,0.00
"Carbohydrate, by difference",g,--,--,2.00,7.14
"Sugars, total",g,--,--,0.00,0.00
Minerals
"Sodium, Na",mg,--,--,310,1107
Vitamins
Lipids
Amino Acids
Other
Ingredients
"PEPPERS, DISTILLED VINEGAR, WATER, SALT, CALCIUM CHLORIDE, PRESERVED WITH BENZOATE OF SODA." Date available: 06/25/2017 Date last updated by company: 06/25/2017
