Source: USDA Branded Food Products Database Release December 2017 Software v.3.8.6.4 2017-10-02
Report Run at: December 18, 2017 09:19 EST
"Nutrient data for: 45096720, HOUSE, CURRY SAUCE WITH VEGETABLES, MILD, UPC: 077377445864"
Food Group:  Branded Food Products Database
Common Name:

Nutrient,Unit,Data points,Std. Error,"1 PACKAGE = 210.0g",1Value per 100 g,
Proximates
"Energy",kcal,--,--,210,100
"Protein",g,--,--,5.00,2.38
"Total lipid (fat)",g,--,--,11.99,5.71
"Carbohydrate, by difference",g,--,--,21.00,10.00
"Fiber, total dietary",g,--,--,2.1,1.0
"Sugars, total",g,--,--,9.01,4.29
Minerals
"Calcium, Ca",mg,--,--,40,19
"Iron, Fe",mg,--,--,0.71,0.34
"Sodium, Na",mg,--,--,1159,552
Vitamins
"Vitamin C, total ascorbic acid",mg,--,--,0.0,0.0
"Vitamin A, IU",IU,--,--,1000,476
Lipids
"Fatty acids, total saturated",g,--,--,6.006,2.860
"Fatty acids, total trans",g,--,--,0.000,0.000
"Cholesterol",mg,--,--,0,0
Amino Acids
Other
Ingredients
"VEGETABLES (ONION, POTATO, CARROT). WATER, PALM OIL. WHEAT FLOUR, SUGAR, APPLE PASTE. MONOSODIUM GLUTAMATE TOMATO PASTE. CURRY POWDER (TURMERIC. CORIANDER. CUMIN, FENNEL SPICES). SALT, MILK POWDER SPICES. AUTOLYZED YEAST EXTRACT BUTTER. COCONUT. GARLIC. POTATO STARCH. MANGO PASTE. CARAMEL COLOR. FRUCTOSE. GLUCOSE. HONEY PEANUT BUTTER (PEANUT). ARTIFICIAL FLAVOR." Date available: 06/25/2017 Date last updated by company: 06/25/2017
