Source: USDA Branded Food Products Database Release December 2017 Software v.3.8.6.4 2017-10-02
Report Run at: December 18, 2017 09:20 EST
"Nutrient data for: 45165661, HOUSE DELIGHTS, CRUNCHY CASHEW BITES, SRIRACHA, UPC: 687077420506"
Food Group:  Branded Food Products Database
Common Name:

Nutrient,Unit,Data points,Std. Error,"57.0 GRM = 57.0g",1Value per 100 g,
Proximates
"Energy",kcal,--,--,306,537
"Protein",g,--,--,8.00,14.04
"Total lipid (fat)",g,--,--,18.00,31.58
"Carbohydrate, by difference",g,--,--,28.00,49.12
"Fiber, total dietary",g,--,--,2.0,3.5
"Sugars, total",g,--,--,3.00,5.26
Minerals
"Calcium, Ca",mg,--,--,20,35
"Iron, Fe",mg,--,--,1.74,3.05
"Sodium, Na",mg,--,--,193,339
Vitamins
"Vitamin C, total ascorbic acid",mg,--,--,0.0,0.0
"Vitamin A, IU",IU,--,--,0,0
Lipids
"Fatty acids, total saturated",g,--,--,4.001,7.020
"Fatty acids, total trans",g,--,--,0.000,0.000
"Cholesterol",mg,--,--,0,0
Amino Acids
Other
Ingredients
"CASHEW, WHEAT FLOUR, MODIFIED STARCH(ACETYLATED DISTARCH ADIPATE), CHILI POWDER, MSG, SALT, SUGAR, GARLIC POWDER, CITRIC ACID, ACESULFAME POTASSIUM, PALM OIL." Date available: 07/14/2017 Date last updated by company: 07/14/2017
