Source: USDA Branded Food Products Database Release December 2017 Software v.3.8.6.4 2017-10-02
Report Run at: December 18, 2017 09:21 EST
"Nutrient data for: 45274743, HOUSE ITALIAN MADE WITH PERAMESAN CHEESE, UPC: 041321006487"
Food Group:  Branded Food Products Database
Common Name:

Nutrient,Unit,Data points,Std. Error,"2.0 Tbsp = 30.0g",1Value per 100 g,
Proximates
"Energy",kcal,--,--,100,333
"Protein",g,--,--,0.00,0.00
"Total lipid (fat)",g,--,--,9.00,30.00
"Carbohydrate, by difference",g,--,--,3.00,10.00
"Fiber, total dietary",g,--,--,0.0,0.0
"Sugars, total",g,--,--,2.00,6.67
Minerals
"Calcium, Ca",mg,--,--,0,0
"Iron, Fe",mg,--,--,0.00,0.00
"Sodium, Na",mg,--,--,300,1000
Vitamins
"Vitamin C, total ascorbic acid",mg,--,--,0.0,0.0
"Vitamin A, IU",IU,--,--,0,0
Lipids
"Fatty acids, total saturated",g,--,--,1.500,5.000
"Fatty acids, total monounsaturated",g,--,--,2.499,8.330
"Fatty acids, total polyunsaturated",g,--,--,5.001,16.670
"Fatty acids, total trans",g,--,--,0.000,0.000
"Cholesterol",mg,--,--,5,17
Amino Acids
Other
Ingredients
"WATER, SOYBEAN OIL, DISTILLED VINEGAR, GARLIC, SALT, CONTAINS 2% OR LESS OF: EGG YOLKS, PARMESAN CHEESE (PASTEURIZED MILK, CHEESE CULTURE, SALT, ENZYMES), SPICES, NATURAL FLAVOR (MILK), RED BELL PEPPERS*, XANTHAN GUM, ONION*, GARLIC*, CARAMEL COLOR, DISODIUM PHOSPHATE, ANNATTO EXTRACT (COLOR), SORBIC ACID AND SODIUM BENZOATE AND CALCIUM DISODIUM EDTA (TO PROTECT QUALITY)." Date available: 03/01/2017 Date last updated by company: 03/01/2017
