Source: USDA Branded Food Products Database Release December 2017 Software v.3.8.6.4 2017-10-02
Report Run at: December 18, 2017 09:20 EST
"Nutrient data for: 45103386, HOUSE FOODS, CURRY HOUSE, VEGETABLE CURRY WITH CHICKEN, UPC: 076371082112"
Food Group:  Branded Food Products Database
Common Name:

Nutrient,Unit,Data points,Std. Error,"1 POUCH = 232.0g",1Value per 100 g,
Proximates
"Energy",kcal,--,--,230,99
"Protein",g,--,--,9.00,3.88
"Total lipid (fat)",g,--,--,10.00,4.31
"Carbohydrate, by difference",g,--,--,23.99,10.34
"Fiber, total dietary",g,--,--,3.0,1.3
"Sugars, total",g,--,--,11.00,4.74
Minerals
"Calcium, Ca",mg,--,--,39,17
"Iron, Fe",mg,--,--,1.81,0.78
"Sodium, Na",mg,--,--,1039,448
Vitamins
"Vitamin C, total ascorbic acid",mg,--,--,0.0,0.0
"Vitamin A, IU",IU,--,--,100,43
Lipids
"Fatty acids, total saturated",g,--,--,2.993,1.290
"Fatty acids, total trans",g,--,--,0.000,0.000
"Cholesterol",mg,--,--,26,11
Amino Acids
Other
Ingredients
"WATER, ONIONS, CARROTS, COOKED CHICKEN, POTATOES, MUSHROOMS, APPLE PUREE, ENRICHED FLOUR (WHEAT FLOUR, NIACIN, REDUCED IRON, THIAMINE MONONITRATE, RIBOFLAVIN, FOLIC ACID), LESS THAN 2% OF: PALM OIL, CANOLA OIL, CASHEW BUTTER, SUGAR, SALT, SPICES, TURMERIC, CITRUS PEEL, LICORICE ROOT, AJOWAN CARAWAY, GARLIC, YEAST EXTRACT, CARAMEL COLOR, ARTIFICIAL FLAVORS, CITRIC ACID." Date available: 06/25/2017 Date last updated by company: 06/25/2017
