Source: USDA Branded Food Products Database Release December 2017 Software v.3.8.6.4 2017-10-02
Report Run at: December 18, 2017 09:25 EST
"Nutrient data for: 45039154, HP SAUCE, THE ORIGINAL SAUCE, UPC: 792851356565"
Food Group:  Branded Food Products Database
Common Name:

Nutrient,Unit,Data points,Std. Error,"1 Tbsp = 17.0g",1Value per 100 g,
Proximates
"Energy",kcal,--,--,20,118
"Protein",g,--,--,0.00,0.00
"Total lipid (fat)",g,--,--,0.00,0.00
"Carbohydrate, by difference",g,--,--,5.00,29.41
"Fiber, total dietary",g,--,--,0.0,0.0
"Sugars, total",g,--,--,4.00,23.53
Minerals
"Calcium, Ca",mg,--,--,0,0
"Iron, Fe",mg,--,--,1.22,7.16
"Sodium, Na",mg,--,--,100,588
Vitamins
"Vitamin C, total ascorbic acid",mg,--,--,0.0,0.0
"Vitamin A, IU",IU,--,--,0,0
Lipids
"Fatty acids, total saturated",g,--,--,0.000,0.000
"Fatty acids, total trans",g,--,--,0.000,0.000
"Cholesterol",mg,--,--,0,0
Amino Acids
Other
Ingredients
"TOMATOES, MALT VINEGAR (FROM BARLEY), MOLASSES, GLUCOSE-FRUCTOSE SYRUP (FROM WHEAT), SPIRIT VINEGAR, SUGAR, DATES, MODIFIED CORNSTARCH, RYE FLOUR, SALT, SPICES, NATURAL FLAVOR, TAMARIND EXTRACT." Date available: 07/14/2017 Date last updated by company: 07/14/2017
