Source: USDA Branded Food Products Database Release December 2017 Software v.3.8.6.4 2017-10-02
Report Run at: December 18, 2017 09:27 EST
"Nutrient data for: 45050076, HT TRADERS, PARMESAN COUSCOUS, UPC: 072036707659"
Food Group:  Branded Food Products Database
Common Name:

Nutrient,Unit,Data points,Std. Error,"0.333 CUP = 57.0g",1Value per 100 g,
Proximates
"Energy",kcal,--,--,200,351
"Protein",g,--,--,8.00,14.04
"Total lipid (fat)",g,--,--,1.50,2.63
"Carbohydrate, by difference",g,--,--,40.00,70.18
"Fiber, total dietary",g,--,--,2.0,3.5
"Sugars, total",g,--,--,2.00,3.51
Minerals
"Calcium, Ca",mg,--,--,20,35
"Iron, Fe",mg,--,--,3.54,6.21
"Sodium, Na",mg,--,--,390,684
Vitamins
"Vitamin C, total ascorbic acid",mg,--,--,0.0,0.0
"Vitamin A, IU",IU,--,--,0,0
Lipids
"Fatty acids, total saturated",g,--,--,0.998,1.750
"Fatty acids, total trans",g,--,--,0.000,0.000
"Cholesterol",mg,--,--,5,9
Amino Acids
Other
Ingredients
"INGREDIENTS: COUSCOUS (DURUM WHEAT SEMOLINA), PARMESAN SEASONING (WHEY, ROMANO, PARMESAN, CHEDDAR AND BLUE CHEESE [COW'S MILK, CHEESE CULTURES, SALT, ENZYMES], SALT, YEAST EXTRACT, NONFAT MILK, CULTURED BUTTERMILK, DEHYDRATED PARSLEY, MALTODEXTRIN, BUTTERMILK SOLIDS, OLIVE OIL, LACTIC ACID, NATURAL FLAVOR, NO MORE THAN 2% SILICON DIOXIDE TO PREVENT CAKING)." Date available: 06/25/2017 Date last updated by company: 06/25/2017
