Source: USDA Branded Food Products Database Release December 2017 Software v.3.8.6.4 2017-10-02
Report Run at: December 18, 2017 09:27 EST
"Nutrient data for: 45033491, HT TRADERS, MOROCCAN STYLE COUSCOUS PASTA, UPC: 072036761439"
Food Group:  Branded Food Products Database
Common Name:

Nutrient,Unit,Data points,Std. Error,"0.25 cup = 42.0g",1Value per 100 g,
Proximates
"Energy",kcal,--,--,160,381
"Protein",g,--,--,6.00,14.29
"Total lipid (fat)",g,--,--,1.00,2.38
"Carbohydrate, by difference",g,--,--,33.00,78.57
"Fiber, total dietary",g,--,--,1.0,2.4
"Sugars, total",g,--,--,1.00,2.38
Minerals
"Sodium, Na",mg,--,--,0,0
Vitamins
Lipids
Amino Acids
Other
Ingredients
"DURUM SEMOLINA (WHEAT)." Date available: 10/13/2017 Date last updated by company: 10/13/2017
