Source: USDA Branded Food Products Database Release December 2017 Software v.3.8.6.4 2017-10-02
Report Run at: December 18, 2017 09:32 EST
"Nutrient data for: 45091096, HU, GET BACK TO HUMAN, CHOCOLATE BAR, CRUNCHY MINT, UPC: 010001210308"
Food Group:  Branded Food Products Database
Common Name:

Nutrient,Unit,Data points,Std. Error,"30.0 GRM = 30.0g",1Value per 100 g,
Proximates
"Energy",kcal,--,--,160,533
"Protein",g,--,--,2.00,6.67
"Total lipid (fat)",g,--,--,13.00,43.33
"Carbohydrate, by difference",g,--,--,13.00,43.33
"Fiber, total dietary",g,--,--,3.0,10.0
"Sugars, total",g,--,--,8.00,26.67
Minerals
"Calcium, Ca",mg,--,--,20,67
"Iron, Fe",mg,--,--,4.50,15.00
"Sodium, Na",mg,--,--,0,0
Vitamins
"Vitamin C, total ascorbic acid",mg,--,--,0.0,0.0
"Vitamin A, IU",IU,--,--,0,0
Lipids
"Fatty acids, total saturated",g,--,--,8.001,26.670
"Fatty acids, total trans",g,--,--,0.000,0.000
"Cholesterol",mg,--,--,0,0
Amino Acids
Other
Ingredients
"CACAO, ORGANIC SUGAR, CACAO , PEPPER MINT OIL." Date available: 06/25/2017 Date last updated by company: 06/25/2017
