Source: USDA Branded Food Products Database Release December 2017 Software v.3.8.6.4 2017-10-02
Report Run at: December 18, 2017 09:31 EST
"Nutrient data for: 45136899, HUBERT'S, ORGANIC PINK LEMONADE, UPC: 070847018650"
Food Group:  Branded Food Products Database
Common Name:

Nutrient,Unit,Data points,Std. Error,"8.0 OZA = 237.0g",1Value per 100 g,
Proximates
"Energy",kcal,--,--,59,25
"Protein",g,--,--,0.00,0.00
"Total lipid (fat)",g,--,--,0.00,0.00
"Carbohydrate, by difference",g,--,--,16.99,7.17
"Sugars, total",g,--,--,16.00,6.75
Minerals
"Sodium, Na",mg,--,--,0,0
Vitamins
"Vitamin C, total ascorbic acid",mg,--,--,1.9,0.8
Lipids
Amino Acids
Other
Ingredients
"PURE FILTERED WATER, ORGANIC CANE SUGAR, ORGANIC LEMON JUICE CONCENTRATE, CITRIC ACID, NATURAL FLAVORS, ORGANIC STRAWBERRY JUICE CONCENTRATE, ORGANIC STEVIA LEAF EXTRACT, ORGANIC FRUIT & ORGANIC VEGETABLE JUICE (FOR COLOR)" Date available: 07/14/2017 Date last updated by company: 07/14/2017
