Source: USDA Branded Food Products Database Release December 2017 Software v.3.8.6.4 2017-10-02
Report Run at: December 18, 2017 09:33 EST
"Nutrient data for: 45205347, HUMMLINGER, WHOLE KERNEL RYE BREAD, UPC: 079344003602"
Food Group:  Branded Food Products Database
Common Name:

Nutrient,Unit,Data points,Std. Error,"1 SLICE = 55.5g",1Value per 100 g,
Proximates
"Energy",kcal,--,--,101,182
"Protein",g,--,--,5.00,9.01
"Total lipid (fat)",g,--,--,3.00,5.41
"Carbohydrate, by difference",g,--,--,18.00,32.43
"Fiber, total dietary",g,--,--,5.0,9.0
"Sugars, total",g,--,--,1.00,1.80
Minerals
"Calcium, Ca",mg,--,--,20,36
"Iron, Fe",mg,--,--,1.46,2.63
"Sodium, Na",mg,--,--,180,324
Vitamins
"Vitamin C, total ascorbic acid",mg,--,--,0.0,0.0
"Vitamin A, IU",IU,--,--,0,0
Lipids
"Fatty acids, total saturated",g,--,--,0.599,1.080
"Fatty acids, total trans",g,--,--,0.000,0.000
"Cholesterol",mg,--,--,0,0
Amino Acids
Other
Ingredients
"WHOLE KERNEL RYE, WATER, SOURDOUGH CULTURES, SEA SALT, MALT, ROLLED OATS." Date available: 07/14/2017 Date last updated by company: 07/14/2017
