Source: USDA Branded Food Products Database Release December 2017 Software v.3.8.6.4 2017-10-02
Report Run at: December 18, 2017 09:38 EST
"Nutrient data for: 45325611, HUMMUS, UPC: 075450062373"
Food Group:  Branded Food Products Database
Common Name:

Nutrient,Unit,Data points,Std. Error,"2.0 Tbsp = 28.0g",1Value per 100 g,
Proximates
"Energy",kcal,--,--,60,214
"Protein",g,--,--,2.00,7.14
"Total lipid (fat)",g,--,--,4.50,16.07
"Carbohydrate, by difference",g,--,--,4.00,14.29
"Fiber, total dietary",g,--,--,1.0,3.6
"Sugars, total",g,--,--,1.00,3.57
Minerals
"Calcium, Ca",mg,--,--,0,0
"Iron, Fe",mg,--,--,0.64,2.29
"Potassium, K",mg,--,--,0,0
"Sodium, Na",mg,--,--,115,411
Vitamins
"Vitamin D",IU,--,--,0,0
Lipids
"Fatty acids, total saturated",g,--,--,0.501,1.790
"Fatty acids, total trans",g,--,--,0.000,0.000
"Cholesterol",mg,--,--,0,0
Amino Acids
Other
Ingredients
"STEAMED CHICKPEAS, WATER, SESAME TAHINI, SUNFLOWER OIL, OLIVE OIL, SEA SALT, GARLIC, CITRIC ACID, CUMIN, GUAR GUM. TOPPING: ROASTED PINE NUTS, RED BELL PEPPERS, YELLOW BELL PEPPER, PARSLEY FLAKES, ORGANIC WHITE VINEGAR." Date available: 09/25/2017 Date last updated by company: 09/25/2017
