Source: USDA Branded Food Products Database Release December 2017 Software v.3.8.6.4 2017-10-02
Report Run at: December 18, 2017 09:36 EST
"Nutrient data for: 45212534, HUMMUS, UPC: 814567018602"
Food Group:  Branded Food Products Database
Common Name:

Nutrient,Unit,Data points,Std. Error,"2.0 Tbsp = 28.0g",1Value per 100 g,
Proximates
"Energy",kcal,--,--,50,179
"Protein",g,--,--,2.00,7.14
"Total lipid (fat)",g,--,--,2.00,7.14
"Carbohydrate, by difference",g,--,--,6.00,21.43
"Fiber, total dietary",g,--,--,1.0,3.6
"Sugars, total",g,--,--,1.00,3.57
Minerals
"Calcium, Ca",mg,--,--,20,71
"Iron, Fe",mg,--,--,0.64,2.29
"Sodium, Na",mg,--,--,150,536
Vitamins
"Vitamin C, total ascorbic acid",mg,--,--,0.0,0.0
"Vitamin A, IU",IU,--,--,0,0
Lipids
"Fatty acids, total saturated",g,--,--,0.000,0.000
"Fatty acids, total trans",g,--,--,0.000,0.000
"Cholesterol",mg,--,--,0,0
Amino Acids
Other
Ingredients
"COOKED GARBANZO BEANS (GARBANZO BEANS (CHICKPEAS), WATER), TAHINI (GROUND SESAME), NON-FAT GREEK YOGURT (CULTURED PASTEURIZED GRADE A NON FAT MILK, SKIM MILK AND PECTIN), SPICY JALAPENO (JALAPENO PEPPERS, CILANTRO, GARLIC, CANOLA OIL, SPICES, SALT, CITRIC ACID),CULTURED DEXTROSE (ADDED FOR FRESHNESS), GARLIC POWDER, LEMON JUICE, CITRIC ACID, SALT, SPICES, GUAR GUM." Date available: 07/14/2017 Date last updated by company: 07/14/2017
