Source: USDA Branded Food Products Database Release December 2017 Software v.3.8.6.4 2017-10-02
Report Run at: December 18, 2017 09:38 EST
"Nutrient data for: 45332383, HUMMUS, UPC: 851570003591"
Food Group:  Branded Food Products Database
Common Name:

Nutrient,Unit,Data points,Std. Error,"2.0 TBSP = 28.0g",1Value per 100 g,
Proximates
"Energy",kcal,--,--,70,250
"Protein",g,--,--,3.00,10.71
"Total lipid (fat)",g,--,--,3.50,12.50
"Carbohydrate, by difference",g,--,--,8.00,28.57
"Fiber, total dietary",g,--,--,2.0,7.1
"Sugars, total",g,--,--,1.00,3.57
Minerals
"Calcium, Ca",mg,--,--,107,382
"Iron, Fe",mg,--,--,3.21,11.48
"Sodium, Na",mg,--,--,75,268
Vitamins
"Vitamin C, total ascorbic acid",mg,--,--,0.0,0.0
"Vitamin A, IU",IU,--,--,100,357
Lipids
Amino Acids
Other
Ingredients
"CHICKPEAS (GARBANZOS), SESAME TAHINI, RED PEPPERS, SPICES, CHILI PEPPERS, CITRIC ACID, SEA SALT, OLIVE OIL, POTASSIUM SORBATE AND A LOT OF LOVE" Date available: 10/19/2017 Date last updated by company: 10/19/2017
