Source: USDA Branded Food Products Database Release December 2017 Software v.3.8.6.4 2017-10-02
Report Run at: December 18, 2017 09:35 EST
"Nutrient data for: 45180554, HUMMUS SINGLES, UPC: 855432004504"
Food Group:  Branded Food Products Database
Common Name:

Nutrient,Unit,Data points,Std. Error,"1 SINGLE = 57.0g",1Value per 100 g,
Proximates
"Energy",kcal,--,--,110,193
"Protein",g,--,--,3.00,5.26
"Total lipid (fat)",g,--,--,7.00,12.28
"Carbohydrate, by difference",g,--,--,10.00,17.54
"Fiber, total dietary",g,--,--,4.0,7.0
"Sugars, total",g,--,--,0.00,0.00
Minerals
"Calcium, Ca",mg,--,--,20,35
"Iron, Fe",mg,--,--,0.95,1.66
"Sodium, Na",mg,--,--,240,421
Vitamins
"Vitamin C, total ascorbic acid",mg,--,--,0.0,0.0
"Vitamin A, IU",IU,--,--,0,0
Lipids
"Fatty acids, total saturated",g,--,--,0.000,0.000
"Fatty acids, total trans",g,--,--,0.000,0.000
"Cholesterol",mg,--,--,0,0
Amino Acids
Other
Ingredients
"NON-GMO WHITE BEANS, WATER, CANOLA AND/OR OLIVE OIL, TAHINI (GROUND SESAME), GARLIC, SALT, CITRIC ACID, SPICES, POTASSIUM SORBATE TO MAINTAIN FRESHNESS" Date available: 07/14/2017 Date last updated by company: 07/14/2017
