Source: USDA Branded Food Products Database Release December 2017 Software v.3.8.6.4 2017-10-02
Report Run at: December 18, 2017 09:40 EST
"Nutrient data for: 45320136, HUNGRY-MAN, GRILLED BEEF PATTY, UPC: 658276202200"
Food Group:  Branded Food Products Database
Common Name:

Nutrient,Unit,Data points,Std. Error,"1 PACKAGE = 425.0g",1Value per 100 g,
Proximates
"Energy",kcal,--,--,450,106
"Protein",g,--,--,24.01,5.65
"Total lipid (fat)",g,--,--,22.02,5.18
"Carbohydrate, by difference",g,--,--,39.02,9.18
"Fiber, total dietary",g,--,--,10.2,2.4
"Sugars, total",g,--,--,7.99,1.88
Minerals
"Calcium, Ca",mg,--,--,102,24
"Iron, Fe",mg,--,--,1.23,0.29
"Sodium, Na",mg,--,--,1160,273
Vitamins
"Vitamin C, total ascorbic acid",mg,--,--,1.3,0.3
"Vitamin A, IU",IU,--,--,3902,918
Lipids
"Fatty acids, total saturated",g,--,--,13.005,3.060
"Cholesterol",mg,--,--,55,13
Amino Acids
Other
Ingredients
"GRILLED BEEF PATTY (BEEF, WATER, SOY FLOUR [SOY FLOUR, SOYBEAN OIL, SOY LECITHIN], TEXTURED VEGETABLE PROTEIN [SOY FLOUR, CARAMEL COLORING], SALT, SODIUM PHOSPHATE, SPICE, ONION POWDER, EGGS, SPICE EXTRACT), MASHED POTATOES (RECONSTITUTED POTATOES [MONO AND DIGLYCERIDES, SODIUM ACID PYROPHOSPHATE, CITRIC ACID], MARGARINE [PARTIALLY HYDROGENATED SOYBEAN OIL WITH TBHQ AND CITRIC ACID AS PRESERVATIVES, WATER, MONO AND DIGLYCERIDES (BHT, CITRIC ACID), BETA CAROTENE FOR COLOR (CORN OIL, TOCOPHEROL), VITAMIN A PALMITATE], DRIED DAIRY BLEND [WHEY, CALCIUM CASEINATE], SALT, WATER), MIXED VEGETABLES (CARROTS, CORN, CUT GREEN BEANS), BEER GRAVY (WATER, BEER [WATER, BARLEY, RICE, HOPS, STARCHES, YEAST; CONTAINS WHEAT GLUTEN PROTEIN], MODIFIED CORN STARCH, SUGAR, BEEF FLAVOR [MALTODEXTRIN, SALT, AUTOLYZED YEAST EXTRACT, CULTURED WHEY, CARAMEL COLOR, GELATIN, DISODIUM GUANYLATE AND DISODIUM INOSINATE, NATURAL FLAVORS, LACTIC ACID, BEEF STOCK, GUM ARABIC, TORULA YEAST, POTASSIUM SORBATE, ASCORBIC ACID], NATURAL FLAVOR [BUTTER (CREAM, SALT), NATURAL FLAVORS], TOMATO PASTE, NATURAL FLAVOR [SALT, MALTODEXTRIN (CORN, POTATO, TAPIOCA), FLAVORING, AUTOLYZED YEAST EXTRACT, BEEF FAT, GUM ACACIA, SUGAR, BEEF BROTH, BROWN SUGAR, BEEF EXTRACT, HONEY, SUCCINIC ACID, GRILL FLAVOR [FROM VEGETABLE OIL], SUNFLOWER OIL, CITRIC ACID, ASCORBIC ACID], SALT, XANTHAN GUM, CARAMEL COLOR, ENRICHED FLOUR [WHEAT FLOUR (NIACIN, REDUCED IRON, THIAMINE MONONITRATE, RIBOFLAVIN, FOLIC ACID)]), SAUCE (WATER, SUGAR, MARGARINE [SOYBEAN OIL, PARTIALLY HYDROGENATED SOYBEAN OIL, WATER, SALT, WHEY, SOY LECITHIN, MONO AND DIGLYCERIDES, NATURAL FLAVOR, BETA CAROTENE (COLOR, VITAMIN A PALMITATE], SALT, PARTIALLY HYDROGENATED SOYBEAN OIL WITH TBHQ AND CITRIC ACID AS PRESERVATIVES)." Date available: 07/14/2017 Date last updated by company: 07/14/2017
