Source: USDA Branded Food Products Database Release December 2017 Software v.3.8.6.4 2017-10-02
Report Run at: December 18, 2017 09:40 EST
"Nutrient data for: 45320153, HUNGRY-MAN, SELECTS, BONELESS FRIED CHICKEN & WAFFLES, UPC: 658276202903"
Food Group:  Branded Food Products Database
Common Name:

Nutrient,Unit,Data points,Std. Error,"1 PACKAGE = 453.0g",1Value per 100 g,
Proximates
"Energy",kcal,--,--,802,177
"Protein",g,--,--,26.00,5.74
"Total lipid (fat)",g,--,--,27.00,5.96
"Carbohydrate, by difference",g,--,--,114.02,25.17
"Fiber, total dietary",g,--,--,5.9,1.3
"Sugars, total",g,--,--,57.98,12.80
Minerals
"Calcium, Ca",mg,--,--,149,33
"Iron, Fe",mg,--,--,3.49,0.77
"Sodium, Na",mg,--,--,1241,274
Vitamins
"Vitamin C, total ascorbic acid",mg,--,--,4.1,0.9
"Vitamin A, IU",IU,--,--,86,19
Lipids
"Fatty acids, total saturated",g,--,--,4.983,1.100
"Cholesterol",mg,--,--,54,12
Amino Acids
Other
Ingredients
"BONELESS BATTERED FRIED CHICKEN PATTIES (COOKED WHITE MEAT CHICKEN, WATER, ENRICHED FLOUR [WHEAT FLOUR {NIACIN, REDUCED IRON, THIAMINE MONONITRATE, RIBOFLAVIN, FOLIC ACID}], VEGETABLE OIL [PARTIALLY HYDROGENATED SOYBEAN OIL {TBHQ AND CITRIC ACID TO PRESERVE FRESHNESS}], SOY PROTEIN CONCENTRATE, ISOLATED OAT PRODUCT, SALT, SODIUM PHOSPHATE, MONOSODIUM GLUTAMATE, DEXTROSE, SPICE EXTRACT), MASHED POTATOES (WATER, DEHYDRATED POTATO FLAKES [POTATOES, MONO AND DIGLYCERIDES, SODIUM ACID PYROPHOSPHATE, CITRIC ACID[], SEASONING SAUCE [VEGETABLE OIL (PARTIALLY HYDROGENATED SOYBEAN OIL {TBHQ AND CITRIC ACID TO PRESERVE FRESHNESS}), WATER, MONO AND DIGLYCERIDES WITH BHT AND CITRIC ACID TO PROTECT FLAVOR, BETA CAROTENE FOR COLOR [CORN OIL, DL-ALPHA-TOCOPHEROL}), CONTAINS 2% OR LESS OF: SALT, DRIED DAIRY BLEND [WHEY, CALCIUM CASEINATE]), CRANBERRY APPLE DESSERT (WATER, SUGAR, CRANBERRIES, REHYDRATED APPLES, MODIFIED FOOD STARCH, DEHYDRATED APPLE FLAKES [CALCIUM STEARATE], ORANGE PEEL [WATER, CITRIC ACID], VANILLA EXTRACT [CORN SYRUP, ETHYL ALCOHOL, WATER], SEASONING [SPICE, DEXTROSE, SPICE EXTRACTIVE]), TABLE SYRUP (HIGH FRUCTOSE CORN SYRUP, WATER, SUGAR, SALT, METHYLCELLULOSE, MOLASSES, MAPLE TYPE SYRUP FLAVOR [WATER, CARAMEL COLOR, GLYCERIN, PROPYLENE GLYCOL, CORN SYRUP, FLAVORS, ARTIFICIAL FLAVORS, MOLASSES, LACTIC ACID, AMMONIATED GLYCYRRHIZIN AND SULFITES], SODIUM HEXAMETAPHOSPHATE, CARAMEL COLOR, SODIUM BENZOATE [PRESERVATIVE], PRESERVATIVES [POTASSIUM SORBATE[], CITRIC ACID), WAFFLES (WAFFLE BATTER [WATER, ENRICHED WHEAT FLOUR {FLOUR, NIACIN, REDUCED IRON, THIAMIN MONONITRATE {VITAMIN B1}, CYANOCOBALAMIN {VITAMIN B12}], NATURAL AND ARTIFICIAL FLAVOR [DEXTROSE, CORN STARCH, NATURAL AND ARTIFICIAL FLAVORS], SOY FLOUR [SOY FLOUR, SOYBEAN OIL, SOY LECITHIN]). CONTAINS 2% OR LESS OF: SEASONING SAUCE (VEGETABLE OIL [PARTIALLY HYDROGENATED SOYBEAN OIL {TBHQ AND CITRIC ACID TO PRESERVE FRESHNESS}], WATER, MONO AND DIGLYCERIDES WITH BHT AND CITRIC ACID TO PROTECT FLAVOR, BETA CAROTENE FOR COLOR [CORN OIL, DL-ALPHA-TOCOPHEROL])." Date available: 08/07/2017 Date last updated by company: 08/07/2017
