Source: USDA Branded Food Products Database Release December 2017 Software v.3.8.6.4 2017-10-02
Report Run at: December 18, 2017 09:42 EST
"Nutrient data for: 45134362, HUNTS Chili Starter Kit, UNPREPARED, GTIN: 00027000420638"
Food Group:  Branded Food Products Database
Common Name:

Nutrient,Unit,Data points,Std. Error,"0.75 cup as packaged (210g) 1 cup prepared (253g) = 210.0g",1Value per 100 g,
Proximates
"Energy",kcal,--,--,101,48
"Protein",g,--,--,5.00,2.38
"Total lipid (fat)",g,--,--,0.00,0.00
"Carbohydrate, by difference",g,--,--,19.01,9.05
"Fiber, total dietary",g,--,--,6.1,2.9
"Sugars, total",g,--,--,5.00,2.38
Minerals
"Calcium, Ca",mg,--,--,61,29
"Iron, Fe",mg,--,--,1.45,0.69
"Potassium, K",mg,--,--,525,250
"Sodium, Na",mg,--,--,620,295
Vitamins
"Vitamin C, total ascorbic acid",mg,--,--,12.0,5.7
"Vitamin A, IU",IU,--,--,500,238
Lipids
"Fatty acids, total saturated",g,--,--,0.000,0.000
"Fatty acids, total monounsaturated",g,--,--,0.000,0.000
"Fatty acids, total polyunsaturated",g,--,--,0.000,0.000
"Fatty acids, total trans",g,--,--,0.000,0.000
"Cholesterol",mg,--,--,4,2
Amino Acids
Other
Ingredients
"Hunt's Tomato Sauce Ingredients: Tomato Puree (Water, Tomato Paste), Water, Less than 2% of: Salt, Citric Acid, Spice, Tomato Fiber, Natural Flavor. Van Camps Dark Red Kidney Beans Ingredients: Prepared Dark Red Kidney Beans, Water, Less than 2% of: Sugar, Salt, High Fructose Corn Syrup, Calcium Chloride (A Firming Agent), Disodium EDTA (To Promote Color Retention), Distilled Vinegar and Red Pepper. MAY CONTAIN: SOY.  Hunt's Diced Tomatoes Ingredients:Tomatoes, Tomato Juice, Less than 2% of: Salt, Citric Acid, Calcium Chloride. Seasoning Packet Ingredients: Chili Pepper, Minced Onion,  Wheat Flour, Salt, Spices, Garlic Powder, Soybean Oil. CONTAINS:  WHEAT." Date available: 10/12/2017 Date last updated by company: 10/12/2017
