Source: USDA Branded Food Products Database Release December 2017 Software v.3.8.6.4 2017-10-02
Report Run at: December 18, 2017 09:42 EST
"Nutrient data for: 45134914, HUNTS BBQ Sauce Honey Mustard, UNPREPARED, GTIN: 00027000609064"
Food Group:  Branded Food Products Database
Common Name:

Nutrient,Unit,Data points,Std. Error,"2.0 tbsp (35g) = 35.0g",1Value per 100 g,
Proximates
"Energy",kcal,--,--,60,171
"Protein",g,--,--,0.00,0.00
"Total lipid (fat)",g,--,--,0.00,0.00
"Carbohydrate, by difference",g,--,--,15.00,42.86
"Fiber, total dietary",g,--,--,1.0,2.9
"Sugars, total",g,--,--,11.00,31.43
Minerals
"Calcium, Ca",mg,--,--,0,0
"Iron, Fe",mg,--,--,0.36,1.03
"Potassium, K",mg,--,--,70,200
"Sodium, Na",mg,--,--,300,857
Vitamins
"Vitamin C, total ascorbic acid",mg,--,--,0.0,0.0
"Vitamin A, IU",IU,--,--,0,0
Lipids
"Fatty acids, total saturated",g,--,--,0.000,0.000
"Fatty acids, total monounsaturated",g,--,--,0.000,0.000
"Fatty acids, total polyunsaturated",g,--,--,0.000,0.000
"Fatty acids, total trans",g,--,--,0.000,0.000
"Cholesterol",mg,--,--,5,14
Amino Acids
Other
Ingredients
"Tomato Juice From Concentrate (Water, Tomato Paste), High Fructose Corn Syrup, Corn Syrup, Distilled Vinegar, Honey, Molasses, Salt, Less than 2% of: Spices Including Paprika, Mustard Seed, Natural Flavors Including Smoke, Tomato Fiber, Mustard Bran, Guar Gum, Carob Bean Gum, Citric Acid, White Wine." Date available: 10/12/2017 Date last updated by company: 10/12/2017
