Source: USDA Branded Food Products Database Release December 2017 Software v.3.8.6.4 2017-10-02
Report Run at: December 18, 2017 09:41 EST
"Nutrient data for: 45130224, HUNTS Basil Garlic And Oregano Tomato Sauce, UNPREPARED, GTIN: 00027000391037"
Food Group:  Branded Food Products Database
Common Name:

Nutrient,Unit,Data points,Std. Error,"0.25 cup (62g) = 62.0g",1Value per 100 g,
Proximates
"Energy",kcal,--,--,20,32
"Protein",g,--,--,1.00,1.61
"Total lipid (fat)",g,--,--,0.00,0.00
"Carbohydrate, by difference",g,--,--,4.00,6.45
"Fiber, total dietary",g,--,--,1.0,1.6
"Sugars, total",g,--,--,2.00,3.23
Minerals
"Calcium, Ca",mg,--,--,0,0
"Iron, Fe",mg,--,--,0.72,1.16
"Potassium, K",mg,--,--,180,290
"Sodium, Na",mg,--,--,360,581
Vitamins
"Vitamin C, total ascorbic acid",mg,--,--,1.2,1.9
"Vitamin A, IU",IU,--,--,100,161
Lipids
"Fatty acids, total saturated",g,--,--,0.000,0.000
"Fatty acids, total monounsaturated",g,--,--,0.000,0.000
"Fatty acids, total polyunsaturated",g,--,--,0.000,0.000
"Fatty acids, total trans",g,--,--,0.000,0.000
"Cholesterol",mg,--,--,0,0
Amino Acids
Other
Ingredients
"Tomato Puree (Water, Tomato Paste), Water, Less than 2% of: Oregano, Garlic Powder, Salt, Basil, Tomato Fiber, Citric Acid, Spice." Date available: 10/12/2017 Date last updated by company: 10/11/2017
