Source: USDA Branded Food Products Database Release December 2017 Software v.3.8.6.4 2017-10-02
Report Run at: December 18, 2017 09:43 EST
"Nutrient data for: 45134148, HUNTS Fire Roasted Garlic Tomatoes, UNPREPARED, GTIN: 00027000378014"
Food Group:  Branded Food Products Database
Common Name:

Nutrient,Unit,Data points,Std. Error,"0.5 cup (123g) = 123.0g",1Value per 100 g,
Proximates
"Energy",kcal,--,--,30,24
"Protein",g,--,--,1.00,0.81
"Total lipid (fat)",g,--,--,0.00,0.00
"Carbohydrate, by difference",g,--,--,6.00,4.88
"Fiber, total dietary",g,--,--,2.0,1.6
"Sugars, total",g,--,--,3.00,2.44
Minerals
"Calcium, Ca",mg,--,--,41,33
"Iron, Fe",mg,--,--,1.08,0.88
"Potassium, K",mg,--,--,230,187
"Sodium, Na",mg,--,--,240,195
Vitamins
"Vitamin C, total ascorbic acid",mg,--,--,4.8,3.9
"Vitamin A, IU",IU,--,--,200,163
Lipids
"Fatty acids, total saturated",g,--,--,0.000,0.000
"Fatty acids, total monounsaturated",g,--,--,0.000,0.000
"Fatty acids, total polyunsaturated",g,--,--,0.000,0.000
"Fatty acids, total trans",g,--,--,0.000,0.000
"Cholesterol",mg,--,--,0,0
Amino Acids
Other
Ingredients
"Unpeeled Diced Tomatoes, Tomato Juice, Crushed Garlic, less than 2% of: Salt, Dried Garlic, Citric Acid, Calcium Chloride" Date available: 10/12/2017 Date last updated by company: 10/12/2017
