Source: USDA Branded Food Products Database Release December 2017 Software v.3.8.6.4 2017-10-02
Report Run at: December 18, 2017 09:54 EST
"Nutrient data for: 45175866, HY-VEE, LARGE CURD COTTAGE CHEESE, UPC: 075450097368"
Food Group:  Branded Food Products Database
Common Name:

Nutrient,Unit,Data points,Std. Error,"0.5 cup = 113.0g",1Value per 100 g,
Proximates
"Energy",kcal,--,--,120,106
"Protein",g,--,--,12.00,10.62
"Total lipid (fat)",g,--,--,6.00,5.31
"Carbohydrate, by difference",g,--,--,4.00,3.54
"Fiber, total dietary",g,--,--,0.0,0.0
"Sugars, total",g,--,--,2.99,2.65
Minerals
"Calcium, Ca",mg,--,--,80,71
"Iron, Fe",mg,--,--,0.00,0.00
"Potassium, K",mg,--,--,120,106
"Sodium, Na",mg,--,--,480,425
Vitamins
"Vitamin C, total ascorbic acid",mg,--,--,0.0,0.0
"Vitamin A, IU",IU,--,--,194,172
Lipids
"Fatty acids, total saturated",g,--,--,4.000,3.540
"Fatty acids, total trans",g,--,--,0.000,0.000
"Cholesterol",mg,--,--,31,27
Amino Acids
Other
Ingredients
"SKIM MILK, MILK CREAM, CONTAINS 2% OR LESS OF SALT, WHEY PROTEIN CONCENTRATE, PHOSPHORIC ACID, GUAR GUM, CAROB BEAN GUM, CARRAGEENAN, MONO & DIGLYCERIDES, POTASSIUM SORBATE AND CARBON DIOXIDE (TO PROTECT FRESHNESS), CULTURES." Date available: 07/14/2017 Date last updated by company: 07/14/2017
