Source: USDA Branded Food Products Database Release December 2017 Software v.3.8.6.4 2017-10-02
Report Run at: December 18, 2017 09:50 EST
"Nutrient data for: 45152491, HY-VEE, CHILI LIME PEANUTS, UPC: 075450152593"
Food Group:  Branded Food Products Database
Common Name:

Nutrient,Unit,Data points,Std. Error,"0.25 cup = 30.0g",1Value per 100 g,
Proximates
"Energy",kcal,--,--,180,600
"Protein",g,--,--,8.00,26.67
"Total lipid (fat)",g,--,--,15.00,50.00
"Carbohydrate, by difference",g,--,--,5.00,16.67
"Fiber, total dietary",g,--,--,3.0,10.0
"Sugars, total",g,--,--,1.00,3.33
Minerals
"Calcium, Ca",mg,--,--,20,67
"Iron, Fe",mg,--,--,0.60,2.00
"Sodium, Na",mg,--,--,290,967
Vitamins
"Vitamin C, total ascorbic acid",mg,--,--,0.0,0.0
"Vitamin A, IU",IU,--,--,0,0
Lipids
"Fatty acids, total saturated",g,--,--,2.499,8.330
"Fatty acids, total trans",g,--,--,0.000,0.000
"Cholesterol",mg,--,--,0,0
Amino Acids
Other
Ingredients
"PEANUTS, CHILI LIME SEASONING (SALT, DEXTROSE, CITRIC ACID, SPICES [INCLUDING CHILI PEPPER], ONION, GARLIC, MONOSODIUM GLUTAMATE, MALTODEXTRIN, CORN SYRUP SOLIDS, NATURAL FLAVORS, LIME JUICE OLIDS, MALIC ACID, COLORS FD&C RED#40 AND YELLOW 36 LAKE, EXTRACTIVES OF PAPRIKA, SILICON DIOXIDE TO PREVENT CAKING),PEANUT OIL, SALT." Date available: 07/14/2017 Date last updated by company: 07/14/2017
