Source: USDA Branded Food Products Database Release December 2017 Software v.3.8.6.4 2017-10-02
Report Run at: December 18, 2017 09:50 EST
"Nutrient data for: 45164914, HY-VEE, CHEESE BALLS, UPC: 075450199765"
Food Group:  Branded Food Products Database
Common Name:

Nutrient,Unit,Data points,Std. Error,"1 -1/2 CUPS | ABOUT = 30.0g",1Value per 100 g,
Proximates
"Energy",kcal,--,--,150,500
"Protein",g,--,--,2.00,6.67
"Total lipid (fat)",g,--,--,8.00,26.67
"Carbohydrate, by difference",g,--,--,19.00,63.33
"Fiber, total dietary",g,--,--,1.0,3.3
"Sugars, total",g,--,--,2.00,6.67
Minerals
"Calcium, Ca",mg,--,--,20,67
"Iron, Fe",mg,--,--,0.00,0.00
"Sodium, Na",mg,--,--,280,933
Vitamins
"Vitamin C, total ascorbic acid",mg,--,--,0.0,0.0
"Vitamin A, IU",IU,--,--,0,0
Lipids
"Fatty acids, total saturated",g,--,--,0.999,3.330
"Fatty acids, total trans",g,--,--,0.000,0.000
"Cholesterol",mg,--,--,0,0
Amino Acids
Other
Ingredients
"DEGERMINATED YELLOW CORN MEAL, VEGETABLE OIL (MAY CONTAIN ONE OR MORE OF THE FOLLOWING: CORN, CANOLA, SOYBEAN), WHEY, MALTODEXTRIN, REDUCED LACTOSE WHEY, CHEDDAR AND BLUE CHEESE (CULTURED MILK, SALT, ENZYMES), CANOLA OIL, SALT, DISODIUM PHOSPHATE, ARTIFICIAL COLORS (YELLOW 6, YELLOW 5), CITRIC ACID, LACTIC ACID, LESS THAN 2% OF: SILICON DIOXIDE ADDED AS AN ANTI-CAKING AGENT." Date available: 07/14/2017 Date last updated by company: 07/14/2017
