Source: USDA Branded Food Products Database Release December 2017 Software v.3.8.6.4 2017-10-02
Report Run at: December 18, 2017 09:58 EST
"Nutrient data for: 45176340, HY-VEE, SEMI-SWEET CHOCOLATE BAKING CHIPS, UPC: 075450051032"
Food Group:  Branded Food Products Database
Common Name:

Nutrient,Unit,Data points,Std. Error,"30.0 PIECES = 15.0g",1Value per 100 g,
Proximates
"Energy",kcal,--,--,70,467
"Protein",g,--,--,1.00,6.67
"Total lipid (fat)",g,--,--,4.00,26.67
"Carbohydrate, by difference",g,--,--,10.00,66.67
"Fiber, total dietary",g,--,--,1.0,6.7
"Sugars, total",g,--,--,8.00,53.33
Minerals
"Calcium, Ca",mg,--,--,0,0
"Iron, Fe",mg,--,--,1.20,8.00
"Sodium, Na",mg,--,--,0,0
Vitamins
"Vitamin C, total ascorbic acid",mg,--,--,0.0,0.0
"Vitamin A, IU",IU,--,--,0,0
Lipids
"Fatty acids, total saturated",g,--,--,2.501,16.670
"Fatty acids, total trans",g,--,--,0.000,0.000
"Cholesterol",mg,--,--,0,0
Amino Acids
Other
Ingredients
"SUGAR, CHOCOLATE LIQUOR, COCOA BUTTER, BUTTERFAT (MILK), SOY LECITHIN, VANILLA." Date available: 08/24/2017 Date last updated by company: 08/24/2017
