Source: USDA Branded Food Products Database Release December 2017 Software v.3.8.6.4 2017-10-02
Report Run at: December 18, 2017 09:50 EST
"Nutrient data for: 45176348, HY-VEE, CORN STARCH, UPC: 075450049879"
Food Group:  Branded Food Products Database
Common Name:

Nutrient,Unit,Data points,Std. Error,"1 Tbsp = 8.0g",1Value per 100 g,
Proximates
"Energy",kcal,--,--,30,375
"Protein",g,--,--,0.00,0.00
"Total lipid (fat)",g,--,--,0.00,0.00
"Carbohydrate, by difference",g,--,--,7.00,87.50
Minerals
"Sodium, Na",mg,--,--,0,0
Vitamins
Lipids
Amino Acids
Other
Ingredients
"CORN STARCH." Date available: 08/10/2017 Date last updated by company: 08/10/2017
