Source: USDA Branded Food Products Database Release December 2017 Software v.3.8.6.4 2017-10-02
Report Run at: December 18, 2017 10:01 EST
"Nutrient data for: 45175909, HYVEE, WHEAT CRACKERS, UPC: 075450169577"
Food Group:  Branded Food Products Database
Common Name:

Nutrient,Unit,Data points,Std. Error,"16.0 CRACKERS = 29.0g",1Value per 100 g,
Proximates
"Energy",kcal,--,--,130,448
"Protein",g,--,--,2.00,6.90
"Total lipid (fat)",g,--,--,3.50,12.07
"Carbohydrate, by difference",g,--,--,22.00,75.86
"Fiber, total dietary",g,--,--,3.0,10.3
"Sugars, total",g,--,--,4.00,13.79
Minerals
"Calcium, Ca",mg,--,--,20,69
"Iron, Fe",mg,--,--,1.86,6.42
"Potassium, K",mg,--,--,90,310
"Sodium, Na",mg,--,--,230,793
Vitamins
"Vitamin C, total ascorbic acid",mg,--,--,0.0,0.0
"Vitamin A, IU",IU,--,--,0,0
Lipids
"Fatty acids, total saturated",g,--,--,0.499,1.720
"Fatty acids, total monounsaturated",g,--,--,1.001,3.450
"Fatty acids, total polyunsaturated",g,--,--,1.499,5.170
"Fatty acids, total trans",g,--,--,0.000,0.000
"Cholesterol",mg,--,--,0,0
Amino Acids
Other
Ingredients
"WHOLE WHEAT FLOUR, SUGAR, CANOLA AND/OR SOYBEAN AND/OR PALM OIL WITH TBHQ ADDED TO PRESERVE FRESHNESS, CORN STARCH, CONTAINS 2% OR LESS OF: SALT, MALT CEREAL SYRUP, INVERT SUGAR, CALCIUM PHOSPHATE (LEAVENING), BAKING SODA, ANNATTO EXTRACT (COLOR), OLEORESIN TURMERIC (COLOR), SODIUM SULFITE." Date available: 07/14/2017 Date last updated by company: 07/14/2017
