Source: USDA Branded Food Products Database Release December 2017 Software v.3.8.6.4 2017-10-02
Report Run at: December 18, 2017 09:52 EST
"Nutrient data for: 45152478, HYVEE, FRESH JUICE, CLASSIC APPLE, UPC: 075450064896"
Food Group:  Branded Food Products Database
Common Name:

Nutrient,Unit,Data points,Std. Error,"8.0 fl oz = 240.0g",1Value per 100 g,
Proximates
"Energy",kcal,--,--,120,50
"Protein",g,--,--,0.00,0.00
"Carbohydrate, by difference",g,--,--,31.99,13.33
"Fiber, total dietary",g,--,--,7.0,2.9
"Sugars, total",g,--,--,25.01,10.42
Minerals
"Calcium, Ca",mg,--,--,19,8
"Iron, Fe",mg,--,--,0.36,0.15
Vitamins
"Vitamin C, total ascorbic acid",mg,--,--,18.0,7.5
"Vitamin A, IU",IU,--,--,101,42
Lipids
Amino Acids
Other
Ingredients
"GRANNY SMITH APPLES." Date available: 03/03/2017 Date last updated by company: 03/03/2017
