Source: USDA Branded Food Products Database Release December 2017 Software v.3.8.6.4 2017-10-02
Report Run at: December 18, 2017 10:02 EST
"Nutrient data for: 45154021, IBAKE FOODS, HARVEST THUMBPRINTS COOKIES, UPC: 816059013331"
Food Group:  Branded Food Products Database
Common Name:

Nutrient,Unit,Data points,Std. Error,"1 COOKIES = 28.0g",1Value per 100 g,
Proximates
"Energy",kcal,--,--,130,464
"Protein",g,--,--,1.00,3.57
"Total lipid (fat)",g,--,--,6.00,21.43
"Carbohydrate, by difference",g,--,--,17.00,60.71
"Fiber, total dietary",g,--,--,0.0,0.0
"Sugars, total",g,--,--,9.00,32.14
Minerals
"Calcium, Ca",mg,--,--,0,0
"Iron, Fe",mg,--,--,1.29,4.59
"Sodium, Na",mg,--,--,45,161
Vitamins
"Vitamin C, total ascorbic acid",mg,--,--,0.0,0.0
"Vitamin A, IU",IU,--,--,0,0
Lipids
"Fatty acids, total saturated",g,--,--,4.001,14.290
"Fatty acids, total trans",g,--,--,0.000,0.000
"Cholesterol",mg,--,--,10,36
Amino Acids
Other
Ingredients
"ENRICHED FLOUR (WHEAT FLOUR, NIACIN, REDUCED IRON, THIAMINE MONONITRATE, RIBOFLAVIN AND FOLIC ACID), SHORTENING (LIQUID AND PARTIALLY HYDROGENATED SOYBEAN OIL, HYDROGENATED COTTONSEED OIL, TBHQ AND CITRIC ACID ADDED TO PROTECT FLAVOR), SUGAR, EGGS, SALT, BAKING SODA, NATURAL & ARTIFICIAL FLAVOR, ICING [SUGAR, VEGETABLE OIL (PALM CANOLA), WATER, CORN SYRUP, COCOA (PROCESSED WITH ALKALI), ARTIFICIAL COLOR, POTASSIUM SORBATE (PRESERVATIVE), CITRIC ACID, NATURAL AND ARTIFICIAL FLAVOR, POLYSORBATE 60, SOY LECITHIN, MONO AND DIGLYCERIDES], SPRINKLES [SUGAR, CORN STARCH, PARTIALLY HYDROGENATED VEGETABLE OIL (SOYBEAN AND COTTONSEED OILS), DEXTRIN, COLORS (LAKE YELLOW #5, LAKE YELLOW #6, YELLOW #5, YELLOW #6, BLUE #1, RED #40), SOY LECITHIN, CONFECTIONERS GLAZE, CARNAUBA WAX]." Date available: 07/14/2017 Date last updated by company: 07/14/2017
