Source: USDA Branded Food Products Database Release December 2017 Software v.3.8.6.4 2017-10-02
Report Run at: December 18, 2017 10:02 EST
"Nutrient data for: 45166492, IBAKE FOODS, FROSTED HARVEST SUGAR COOKIES, UPC: 816059014697"
Food Group:  Branded Food Products Database
Common Name:

Nutrient,Unit,Data points,Std. Error,"1 COOKIES = 38.0g",1Value per 100 g,
Proximates
"Energy",kcal,--,--,150,395
"Protein",g,--,--,1.00,2.63
"Total lipid (fat)",g,--,--,5.00,13.16
"Carbohydrate, by difference",g,--,--,26.00,68.42
"Fiber, total dietary",g,--,--,0.0,0.0
"Sugars, total",g,--,--,17.00,44.74
Minerals
"Calcium, Ca",mg,--,--,20,53
"Iron, Fe",mg,--,--,0.00,0.00
"Sodium, Na",mg,--,--,110,289
Vitamins
"Vitamin C, total ascorbic acid",mg,--,--,0.0,0.0
"Vitamin A, IU",IU,--,--,0,0
Lipids
"Fatty acids, total saturated",g,--,--,1.999,5.260
"Fatty acids, total trans",g,--,--,0.000,0.000
"Cholesterol",mg,--,--,5,13
Amino Acids
Other
Ingredients
"SUGAR, BLEACHED WHEAT FLOUR, MARGARINE [PALM OIL, WATER, SALT, EMULSIFIERS (SOYA-LECITHIN, DISTILLED MONO-GLYCERIDES), NATURAL FLAVOR, CITRIC ACID, ANTIOXIDANT (SOY-DERIVED), VITAMIN A], EGGS, CORN SYRUP, CORN STARCH, BAKING POWDER, MILK, VANILLA, ORANGE GEL, GUAR GUM, XANTHAN GUM, SOY LECITHIN, CONTAINS 2% OR LESS OF: VEGETABLE OIL (SOYBEAN AND COTTONSEED OIL), YELLOW LAKE #5, YELLOW #5, YELLOW LAKE #6, YELLOW #6, BLUE #1, RED #40 CARNAUBA WAX, CONFECTIONER'S GLAZE" Date available: 10/13/2017 Date last updated by company: 10/13/2017
