Source: USDA Branded Food Products Database Release December 2017 Software v.3.8.6.4 2017-10-02
Report Run at: December 18, 2017 10:02 EST
"Nutrient data for: 45250828, IBC, ROOT BEER, UPC: 072796000038"
Food Group:  Branded Food Products Database
Common Name:

Nutrient,Unit,Data points,Std. Error,"1 BOTTLE = 355.0g",1Value per 100 g,
Proximates
"Energy",kcal,--,--,160,45
"Protein",g,--,--,0.00,0.00
"Total lipid (fat)",g,--,--,0.00,0.00
"Carbohydrate, by difference",g,--,--,40.01,11.27
"Sugars, total",g,--,--,40.01,11.27
Minerals
"Sodium, Na",mg,--,--,60,17
Vitamins
Lipids
Amino Acids
Other
Ingredients
"CARBONATED WATER, SUGAR, CARAMEL COLOR, SODIUM BENZOATE (PRESERVATIVE), NATURAL AND ARTIFICIAL FLAVORS, MODIFIED CORN STARCH, CITRIC ACID, QUILLAIA EXTRACT." Date available: 07/14/2017 Date last updated by company: 07/14/2017
