Source: USDA Branded Food Products Database Release December 2017 Software v.3.8.6.4 2017-10-02
Report Run at: December 18, 2017 10:04 EST
"Nutrient data for: 45104695, IBERIA, SARDINES, IN TOMATO SAUCE, UPC: 075669109913"
Food Group:  Branded Food Products Database
Common Name:

Nutrient,Unit,Data points,Std. Error,"0.25 cup = 55.0g",1Value per 100 g,
Proximates
"Energy",kcal,--,--,60,109
"Protein",g,--,--,8.00,14.55
"Total lipid (fat)",g,--,--,2.00,3.64
"Carbohydrate, by difference",g,--,--,0.00,0.00
"Fiber, total dietary",g,--,--,0.0,0.0
"Sugars, total",g,--,--,0.00,0.00
Minerals
"Calcium, Ca",mg,--,--,200,364
"Iron, Fe",mg,--,--,1.11,2.02
"Sodium, Na",mg,--,--,240,436
Vitamins
"Vitamin C, total ascorbic acid",mg,--,--,0.0,0.0
"Vitamin A, IU",IU,--,--,0,0
Lipids
"Fatty acids, total saturated",g,--,--,1.001,1.820
"Fatty acids, total trans",g,--,--,0.000,0.000
"Cholesterol",mg,--,--,40,73
Amino Acids
Other
Ingredients
"SARDINES, WATER, TOMATO PASTE, SUGAR, MODIFIED TAPIOCA, STARCH SAS AND PAPRIKA." Date available: 06/25/2017 Date last updated by company: 06/25/2017
