Source: USDA Branded Food Products Database Release December 2017 Software v.3.8.6.4 2017-10-02
Report Run at: December 18, 2017 10:40 EST
"Nutrient data for: 45047328, ICE CREAM, UPC: 20004279"
Food Group:  Branded Food Products Database
Common Name:

Nutrient,Unit,Data points,Std. Error,"0.5 cup = 77.0g",1Value per 100 g,
Proximates
"Energy",kcal,--,--,200,260
"Protein",g,--,--,3.00,3.90
"Total lipid (fat)",g,--,--,11.00,14.29
"Carbohydrate, by difference",g,--,--,19.00,24.68
"Fiber, total dietary",g,--,--,1.0,1.3
"Sugars, total",g,--,--,16.00,20.78
Minerals
"Calcium, Ca",mg,--,--,100,130
"Iron, Fe",mg,--,--,0.81,1.05
"Sodium, Na",mg,--,--,45,58
Vitamins
"Vitamin C, total ascorbic acid",mg,--,--,0.0,0.0
"Vitamin A, IU",IU,--,--,337,438
Lipids
"Fatty acids, total saturated",g,--,--,8.000,10.390
"Fatty acids, total trans",g,--,--,0.000,0.000
"Cholesterol",mg,--,--,40,52
Amino Acids
Other
Ingredients
"CREAM, MILK, SUGAR, CORN SYRUP, FUDGE CHIPS [SUGAR, COCONUT OIL, COCOA (PROCESSED WITH ALKALI), PALM KERNEL OIL, COCOA, MILKFAT, SOY LECITHIN, NATURAL FLAVORS], EGG YOLKS, CAROB BEAN GUM, GUAR GUM, NATURAL PEPPERMINT EXTRACT." Date available: 06/24/2017 Date last updated by company: 06/24/2017
