Source: USDA Branded Food Products Database Release December 2017 Software v.3.8.6.4 2017-10-02
Report Run at: December 18, 2017 10:48 EST
"Nutrient data for: 45218867, ICE CREAM, UPC: 851149005070"
Food Group:  Branded Food Products Database
Common Name:

Nutrient,Unit,Data points,Std. Error,"0.5 cup = 87.0g",1Value per 100 g,
Proximates
"Energy",kcal,--,--,210,241
"Protein",g,--,--,3.00,3.45
"Total lipid (fat)",g,--,--,13.00,14.94
"Carbohydrate, by difference",g,--,--,20.00,22.99
"Fiber, total dietary",g,--,--,0.0,0.0
"Sugars, total",g,--,--,17.00,19.54
Minerals
"Calcium, Ca",mg,--,--,100,115
"Iron, Fe",mg,--,--,0.00,0.00
"Sodium, Na",mg,--,--,45,52
Vitamins
"Vitamin C, total ascorbic acid",mg,--,--,0.0,0.0
"Vitamin A, IU",IU,--,--,500,575
Lipids
"Fatty acids, total saturated",g,--,--,8.004,9.200
"Fatty acids, total trans",g,--,--,0.000,0.000
"Cholesterol",mg,--,--,65,75
Amino Acids
Other
Ingredients
"MILK, CREAM, SUGAR, SKIM MILK, GLUCOSE SYRUP, EGG YOLK, ESPRESSO CHIPS (SUGAR, COCONUT OIL, COCOA [PROCESSED W/ALKALI], COFFEE, BUTTER OIL, COCOA, SOY LECITHIN, NATURAL FLAVORS, MILK), COFFEE, GUAR GUM, LOCUST BEAN GUM AND CARRAGEENAN." Date available: 09/27/2017 Date last updated by company: 09/27/2017
