Source: USDA Branded Food Products Database Release December 2017 Software v.3.8.6.4 2017-10-02
Report Run at: December 18, 2017 10:58 EST
"Nutrient data for: 45280843, ICE CREAM, UPC: 011110531537"
Food Group:  Branded Food Products Database
Common Name:

Nutrient,Unit,Data points,Std. Error,"0.5 cup = 64.0g",1Value per 100 g,
Proximates
"Energy",kcal,--,--,140,219
"Protein",g,--,--,3.00,4.69
"Total lipid (fat)",g,--,--,6.00,9.38
"Carbohydrate, by difference",g,--,--,20.00,31.25
"Fiber, total dietary",g,--,--,1.0,1.6
"Sugars, total",g,--,--,14.00,21.88
Minerals
"Calcium, Ca",mg,--,--,80,125
"Iron, Fe",mg,--,--,0.81,1.27
"Sodium, Na",mg,--,--,55,86
Vitamins
"Vitamin C, total ascorbic acid",mg,--,--,1.3,2.1
"Vitamin A, IU",IU,--,--,225,352
Lipids
"Fatty acids, total saturated",g,--,--,3.501,5.470
"Fatty acids, total trans",g,--,--,0.000,0.000
"Cholesterol",mg,--,--,20,31
Amino Acids
Other
Ingredients
"MILK, CREAM, CORN SYRUP, SUGAR, HIGH FRUCTOSE CORN SYRUP, COCOA PROCESSED WITH ALKALI, WHEY, BUTTERMILK, CELLULOSE GEL, GUAR GUM, CELLULOSE GUM, MONO AND DIGLYCERIDES, LOCUST BEAN GUM, DEXTROSE, MODIFIED POTATO STARCH, GUM ARABIC, PECTIN, POLYSORBATE 80, CARRAGEENAN, XANTHAN GUM, NATURAL FLAVORING (CONTAINS: WHEAT, EGG, PEANUT, SOY, PECAN, WALNUT, ALMOND, CASHEW, MODIFIED CORN STARCH, PECAN ALMOND BUTTER, VANILLA, COCONUT)." Date available: 07/14/2017 Date last updated by company: 07/14/2017
