Source: USDA Branded Food Products Database Release December 2017 Software v.3.8.6.4 2017-10-02
Report Run at: December 18, 2017 10:54 EST
"Nutrient data for: 45269984, ICE CREAM, UPC: 041483040855"
Food Group:  Branded Food Products Database
Common Name:

Nutrient,Unit,Data points,Std. Error,"0.5 cup = 65.0g",1Value per 100 g,
Proximates
"Energy",kcal,--,--,140,215
"Protein",g,--,--,1.00,1.54
"Total lipid (fat)",g,--,--,6.00,9.23
"Carbohydrate, by difference",g,--,--,18.00,27.69
"Fiber, total dietary",g,--,--,0.0,0.0
"Sugars, total",g,--,--,13.00,20.00
Minerals
"Calcium, Ca",mg,--,--,40,62
"Iron, Fe",mg,--,--,0.00,0.00
"Sodium, Na",mg,--,--,40,62
Vitamins
"Vitamin C, total ascorbic acid",mg,--,--,4.0,6.2
"Vitamin A, IU",IU,--,--,225,346
Lipids
"Fatty acids, total saturated",g,--,--,4.498,6.920
"Fatty acids, total trans",g,--,--,0.000,0.000
"Cholesterol",mg,--,--,25,38
Amino Acids
Other
Ingredients
"MILKFAT AND NONFAT MILK, SWEET CREAM BUTTERMILK, BANANA PUREE, FUDGE SWIRL (CORN SYRUP, SUGAR, WATER, HIGH FRUCTOSE CORN SYRUP, COCOA PROCESSED WITH ALKALI, WHEY, PECTIN), BANANA SPLIT MIX (BANANAS, HIGH FRUCTOSE CORN SYRUP, PEACHES, PINEAPPLE, SUGAR, CORN SYRUP, CHERRIES, STRAWBERRIES, CELLULOSE GUM, CITRIC ACID, CORN STARCH-MODIFIED, CARRAGEENAN, DISODIUM PHOSPHATE, RED 40), CORN SYRUP, HIGH FRUCTOSE CORN SYRUP, SUGAR, CHOCOLATE FLAVORED CHUNKS (SUGAR, COCONUT OIL, COCOA PROCESSED WITH ALKALI, COCOA, BUTTER OIL, SOY LECITHIN, NATURAL FLAVORS), WHEY, NATURAL FLAVOR, MONO AND DIGLYCERIDES, GUAR GUM, CALCIUM SULFATE, LOCUST BEAN GUM, YELLOW 5, YELLOW 6, CARRAGEENAN." Date available: 07/14/2017 Date last updated by company: 07/14/2017
