Source: USDA Branded Food Products Database Release December 2017 Software v.3.8.6.4 2017-10-02
Report Run at: December 18, 2017 10:08 EST
"Nutrient data for: 45092038, ICE CREAM BARS, UPC: 075856001303"
Food Group:  Branded Food Products Database
Common Name:

Nutrient,Unit,Data points,Std. Error,"1 BAR = 85.0g",1Value per 100 g,
Proximates
"Energy",kcal,--,--,240,282
"Protein",g,--,--,2.00,2.35
"Total lipid (fat)",g,--,--,14.00,16.47
"Carbohydrate, by difference",g,--,--,27.00,31.76
"Fiber, total dietary",g,--,--,1.0,1.2
"Sugars, total",g,--,--,22.00,25.88
Minerals
"Calcium, Ca",mg,--,--,60,71
"Iron, Fe",mg,--,--,0.00,0.00
"Sodium, Na",mg,--,--,75,88
Vitamins
"Vitamin C, total ascorbic acid",mg,--,--,0.0,0.0
"Vitamin A, IU",IU,--,--,200,235
Lipids
"Fatty acids, total saturated",g,--,--,10.999,12.940
"Fatty acids, total trans",g,--,--,0.000,0.000
"Cholesterol",mg,--,--,10,12
Amino Acids
Other
Ingredients
"NONFAT MILK, SUGAR, COCONUT OIL, CREAM, CORN SYRUP SOLIDS, CHOCOLATE LIQUOR PROCESSED WITH ALKALI, WHEY, CORN SYRUP, COCOA PROCESSED WITH ALKALI, MILK, LESS THAN 1% OF: SOYBEAN OIL, MONO AND DIGLYCERIDES, LOCUST BEAN GUM, GUAR GUM, NATURAL AND ARTIFICIAL FLAVOR, SOY LECITHIN, CARRAGEENAN, SALT, VITAMIN A PALMITATE, CARAMEL COLOR." Date available: 08/14/2017 Date last updated by company: 08/14/2017
