Source: USDA Branded Food Products Database Release December 2017 Software v.3.8.6.4 2017-10-02
Report Run at: December 18, 2017 10:16 EST
"Nutrient data for: 45275770, ICE CREAM BAR, UPC: 073245000104"
Food Group:  Branded Food Products Database
Common Name:

Nutrient,Unit,Data points,Std. Error,"1 BAR = 67.0g",1Value per 100 g,
Proximates
"Energy",kcal,--,--,60,90
"Protein",g,--,--,2.00,2.99
"Total lipid (fat)",g,--,--,0.00,0.00
"Carbohydrate, by difference",g,--,--,18.00,26.87
"Fiber, total dietary",g,--,--,6.0,9.0
"Sugars, total",g,--,--,4.00,5.97
Minerals
"Calcium, Ca",mg,--,--,80,119
"Iron, Fe",mg,--,--,0.00,0.00
"Sodium, Na",mg,--,--,45,67
Vitamins
"Vitamin C, total ascorbic acid",mg,--,--,0.0,0.0
"Vitamin A, IU",IU,--,--,100,149
Lipids
"Fatty acids, total saturated",g,--,--,0.000,0.000
"Fatty acids, total trans",g,--,--,0.000,0.000
"Cholesterol",mg,--,--,0,0
Amino Acids
Other
Ingredients
"VANILLA NONFAT ICE CREAM: NONFAT MILK, POLYDEXTROSE, MALTODEXTRIN, SORBITOL, WHEY PROTEIN CONCENTRATE, VANILLA EXTRACT, CELLULOSE GEL, CELLULOSE GUM, CAROB BEAN GUM, GUAR GUM, CARRAGEENAN, GLYCERINE, HYDROXYPROPYL METHYLCELLULOSE, MONO & DIGLYCERIDES*, ASPARTAME, VITAMIN A PALMITATE. ORANGE FROZEN CONFECTION: WATER, NONFAT MILK, POLYDEXTROSE, MALTODEXTRIN, SORBITOL, ORANGE PUREE (WATER, CONCENTRATED ORANGE JUICE, NATURAL FLAVOR, YELLOW 6, CELLULOSE GUM, CITRIC ACID, ASCORBIC ACID), WHEY GLYCERINE, CELLULOSE GEL, CELLULOSE GUM, CITRIC ACID, MONO & DIGLYCERIDES*, GUAR GUM, HYDROXYPROPYL METHYLCELLULOSE, CARRAGEENAN, POLYSORBATE 80, CAROB BEAN GUM, ASPARTAME." Date available: 07/14/2017 Date last updated by company: 07/14/2017
