Source: USDA Branded Food Products Database Release December 2017 Software v.3.8.6.4 2017-10-02
Report Run at: December 18, 2017 10:12 EST
"Nutrient data for: 45256420, ICE CREAM BARS, UPC: 085239076101"
Food Group:  Branded Food Products Database
Common Name:

Nutrient,Unit,Data points,Std. Error,"1 BAR = 47.0g",1Value per 100 g,
Proximates
"Energy",kcal,--,--,140,298
"Protein",g,--,--,2.00,4.26
"Total lipid (fat)",g,--,--,10.00,21.28
"Carbohydrate, by difference",g,--,--,13.00,27.66
"Fiber, total dietary",g,--,--,0.0,0.0
"Sugars, total",g,--,--,10.00,21.28
Minerals
"Calcium, Ca",mg,--,--,60,128
"Iron, Fe",mg,--,--,0.00,0.00
"Sodium, Na",mg,--,--,25,53
Vitamins
"Vitamin C, total ascorbic acid",mg,--,--,0.0,0.0
"Vitamin A, IU",IU,--,--,100,213
Lipids
"Fatty acids, total saturated",g,--,--,7.999,17.020
"Fatty acids, total trans",g,--,--,0.000,0.000
"Cholesterol",mg,--,--,15,32
Amino Acids
Other
Ingredients
"ICE CREAM: MILKFAT AND NONFAT MILK, CORN SYRUP, SUGAR, WHEY, CONTAINS LESS THAN 2% OF MONO AND DIGLYCERIDES, GUAR GUM, LOCUST BEAN GUM, POLYSORBATE 80, CARRAGEENAN, NATURAL AND ARTIFICIAL FLAVOR, ANNATTO (COLOR), CHOCOLATE FLAVORED COATING: COCONUT OIL, SUGAR, COCOA AND COCOA PROCESSED WITH ALKALI, WHEY, NONFAT MILK SOLIDS, CHOCOLATE LIQUOR, SOY LECITHIN, NATURAL AND ARTIFICIAL FLAVOR." Date available: 07/14/2017 Date last updated by company: 07/14/2017
