Source: USDA Branded Food Products Database Release December 2017 Software v.3.8.6.4 2017-10-02
Report Run at: December 18, 2017 10:26 EST
"Nutrient data for: 45191523, ICE CREAM SANDWICH, UPC: 077865001657"
Food Group:  Branded Food Products Database
Common Name:

Nutrient,Unit,Data points,Std. Error,"86.0 GRM = 86.0g",1Value per 100 g,
Proximates
"Energy",kcal,--,--,210,244
"Protein",g,--,--,3.00,3.49
"Total lipid (fat)",g,--,--,8.00,9.30
"Carbohydrate, by difference",g,--,--,32.00,37.21
"Fiber, total dietary",g,--,--,1.0,1.2
"Sugars, total",g,--,--,20.00,23.26
Minerals
"Calcium, Ca",mg,--,--,80,93
"Iron, Fe",mg,--,--,0.36,0.42
"Sodium, Na",mg,--,--,105,122
Vitamins
"Vitamin C, total ascorbic acid",mg,--,--,0.0,0.0
"Vitamin A, IU",IU,--,--,300,349
Lipids
"Fatty acids, total saturated",g,--,--,4.498,5.230
"Fatty acids, total trans",g,--,--,0.000,0.000
"Cholesterol",mg,--,--,20,23
Amino Acids
Other
Ingredients
"FRESH WHOLE MILK, WAFER (WHEAT FLOUR, SUGAR, GRAHAM FLOUR, PALM OIL, DEXTROSE, CORN SYRUP, HONEY, MODIFIED CORN STARCH, SALT, SOY LECITHIN, BAKING SODA, NATURAL FLAVORINGS), SUGAR, CREAM, PUMPKIN BASE (PUMPKIN PUREE, HIGH-FRUCTOSE CORN SYRUP, SUGAR, SWEETENED CONDENSED SKIM MILK, WATER, EGG YOLKS, NATURAL FLAVORS, ANNATTO EXTRACT, CINNAMON, CARAMEL COLOR, SODIUM BENZOATE, POTASSIUM SORBATE, NUTMEG, RED 40), CORN SYRUP SOLIDS, NON-FAT DRY MILK, NATURAL PUMPKIN SPICE FLAVOR (WATER, PROPYLENE GLYCOL, NATURAL FLAVORS, XANTHAN GUM, CITRIC ACID, SODIUM BENZOATE AND POTASSIUM SORBATE), STABILIZER (MICROCRYSTALLINE CELLULOSE, CELLULOSE GUM, MONO & DIGLYCERIDES, POLYSORBATE 80, CARRAGEENAN)." Date available: 07/14/2017 Date last updated by company: 07/14/2017
