Source: USDA Branded Food Products Database Release December 2017 Software v.3.8.6.4 2017-10-02
Report Run at: December 18, 2017 11:01 EST
"Nutrient data for: 45291773, ICE CREAM, UPC: 07203651146"
Food Group:  Branded Food Products Database
Common Name:

Nutrient,Unit,Data points,Std. Error,"0.667 cup = 88.0g",1Value per 100 g,
Proximates
"Energy",kcal,--,--,200,227
"Protein",g,--,--,3.00,3.41
"Total lipid (fat)",g,--,--,12.00,13.64
"Carbohydrate, by difference",g,--,--,21.00,23.86
"Fiber, total dietary",g,--,--,0.0,0.0
Minerals
"Calcium, Ca",mg,--,--,100,114
"Iron, Fe",mg,--,--,0.36,0.41
"Potassium, K",mg,--,--,138,157
"Sodium, Na",mg,--,--,60,68
Vitamins
"Vitamin D",IU,--,--,0,0
Lipids
"Fatty acids, total saturated",g,--,--,6.996,7.950
"Fatty acids, total trans",g,--,--,0.000,0.000
"Cholesterol",mg,--,--,40,45
Amino Acids
Other
Ingredients
"MILK, CREAM, SUGAR, FUDGE SWIRL (SUGAR, WATER, COCOA, CORNSTARCH, CARRAGEENAN, VANILLA & NATURAL FLAVOR) NATURAL VANILLA FLAVOR." Date available: 09/22/2017 Date last updated by company: 09/22/2017
