Source: USDA Branded Food Products Database Release December 2017 Software v.3.8.6.4 2017-10-02
Report Run at: December 18, 2017 11:01 EST
"Nutrient data for: 45291786, ICE CREAM, UPC: 07203643026"
Food Group:  Branded Food Products Database
Common Name:

Nutrient,Unit,Data points,Std. Error,"0.666 cup = 88.0g",1Value per 100 g,
Proximates
"Energy",kcal,--,--,210,239
"Protein",g,--,--,3.00,3.41
"Total lipid (fat)",g,--,--,11.00,12.50
"Carbohydrate, by difference",g,--,--,24.00,27.27
"Fiber, total dietary",g,--,--,0.3,0.3
"Sugars, total",g,--,--,20.00,22.73
Minerals
"Calcium, Ca",mg,--,--,89,101
"Iron, Fe",mg,--,--,0.00,0.00
"Potassium, K",mg,--,--,120,136
"Sodium, Na",mg,--,--,60,68
Vitamins
"Vitamin D",IU,--,--,0,0
Lipids
"Fatty acids, total saturated",g,--,--,6.996,7.950
"Fatty acids, total trans",g,--,--,0.000,0.000
"Cholesterol",mg,--,--,25,28
Amino Acids
Other
Ingredients
"ICE CREAM: MILK, CREAM, SUGAR, CORN SYRUP, HIGH FRUCTOSE CORN SYRUP, WHEY, NONFAT DRY MILK, GUAR GUM, MONO- AND DIGLYCERIDES, CELLULOSE GUM, POLYSORBATE 80, CARRAGEENAN, LOCUST BEAN GUM, NATURAL AND ARTIFICIAL VANILLA FLAVOR, ANNATTO COLOR. CARAMEL SWIRL: FRUCTOSE, BUTTERMILK, EVAPORATED MILK, SUGAR, BUTTER (CREAM, SALT), MODIFIED CORNSTARCH, CARAMEL COLOR, NATURAL AND ARTIFICIAL FLAVOR, POTASSIUM SORBATE (PRESERVATIVE), MONO- AND DIGLYCERIDES, SALT, SODIUM CITRATE. CHOCO-CONE CRUNCH: CONFECTIONERY COATING (SUGAR, COCONUT OIL, ALKALIZED COCOA, NATURAL COCOA, MILK FAT, SOY LECITHIN [EMULSIFIER], NATURAL FLAVORS), ROASTED PEANUTS (PEANUTS, (PEANUT OIL, SALT), CONES (BLEACHED WHEAT FLOUR [WHEAT FLOUR, THIAMIN MONONITRATE, NIACIN, RIBOFLAVIN, REDUCED IRON, FOLIC ACID], SUGAR, VEGETABLE SHORTENING [SOYBEAN AND/OR PALM OILS], SOY LECITHIN, SALT)." Date available: 07/14/2017 Date last updated by company: 07/14/2017
