Source: USDA Branded Food Products Database Release December 2017 Software v.3.8.6.4 2017-10-02
Report Run at: December 18, 2017 10:54 EST
"Nutrient data for: 45269980, ICE CREAM, UPC: 041483027979"
Food Group:  Branded Food Products Database
Common Name:

Nutrient,Unit,Data points,Std. Error,"0.5 cup = 72.0g",1Value per 100 g,
Proximates
"Energy",kcal,--,--,150,208
"Protein",g,--,--,2.00,2.78
"Total lipid (fat)",g,--,--,9.00,12.50
"Carbohydrate, by difference",g,--,--,16.00,22.22
"Fiber, total dietary",g,--,--,0.0,0.0
"Sugars, total",g,--,--,13.00,18.06
Minerals
"Calcium, Ca",mg,--,--,80,111
"Iron, Fe",mg,--,--,0.00,0.00
"Sodium, Na",mg,--,--,50,69
Vitamins
"Vitamin C, total ascorbic acid",mg,--,--,0.0,0.0
"Vitamin A, IU",IU,--,--,338,469
Lipids
"Fatty acids, total saturated",g,--,--,4.997,6.940
"Fatty acids, total trans",g,--,--,0.000,0.000
"Cholesterol",mg,--,--,35,49
Amino Acids
Other
Ingredients
"MILKFAT AND NONFAT MILK, SWEET CREAM BUTTERMILK, CORN SYRUP, HIGH FRUCTOSE CORN SYRUP, SUGAR, WHEY, NATURAL AND ARTIFICIAL FLAVORS, MONO AND DIGLYCERIDES, GUAR GUM, CALCIUM SULFATE, LOCUST BEAN GUM, ANNATTO (COLOR), CARRAGEENAN" Date available: 07/14/2017 Date last updated by company: 07/14/2017
