Source: USDA Branded Food Products Database Release December 2017 Software v.3.8.6.4 2017-10-02
Report Run at: December 18, 2017 10:58 EST
"Nutrient data for: 45279443, ICE CREAM, UPC: 070038618966"
Food Group:  Branded Food Products Database
Common Name:

Nutrient,Unit,Data points,Std. Error,"0.5 cup = 65.0g",1Value per 100 g,
Proximates
"Energy",kcal,--,--,110,169
"Protein",g,--,--,2.00,3.08
"Total lipid (fat)",g,--,--,7.00,10.77
"Carbohydrate, by difference",g,--,--,14.00,21.54
"Fiber, total dietary",g,--,--,1.0,1.5
"Sugars, total",g,--,--,4.00,6.15
Minerals
"Calcium, Ca",mg,--,--,100,154
"Iron, Fe",mg,--,--,0.00,0.00
"Sodium, Na",mg,--,--,45,69
Vitamins
"Vitamin C, total ascorbic acid",mg,--,--,0.0,0.0
"Vitamin A, IU",IU,--,--,225,346
Lipids
"Fatty acids, total saturated",g,--,--,3.998,6.150
"Fatty acids, total trans",g,--,--,0.000,0.000
"Cholesterol",mg,--,--,25,38
Amino Acids
Other
Ingredients
"MILKFAT AND NONFAT MILK, POLYDEXTROSE, MALTODEXTRIN, SORBITOL, WHEY, SWEETCREAM BUTTERMILK, CONTAINS LESS THAN 2% OF MONO AND DIGLYCERIDES, GUAR GUM, LOCUST BEAN GUM, CALCIUM SULFATE, POLYSORBATE 80, CARRAGEENAN, ASPARTAME*, ARTIFICIAL FLAVOR, ANNATTO (COLOR)." Date available: 07/14/2017 Date last updated by company: 07/14/2017
