Source: USDA Branded Food Products Database Release December 2017 Software v.3.8.6.4 2017-10-02
Report Run at: December 18, 2017 10:28 EST
"Nutrient data for: 45101012, ICE CREAM, UPC: 076310440942"
Food Group:  Branded Food Products Database
Common Name:

Nutrient,Unit,Data points,Std. Error,"0.5 cup = 83.0g",1Value per 100 g,
Proximates
"Energy",kcal,--,--,200,241
"Protein",g,--,--,5.00,6.02
"Total lipid (fat)",g,--,--,15.00,18.07
"Carbohydrate, by difference",g,--,--,24.00,28.92
"Fiber, total dietary",g,--,--,1.0,1.2
"Sugars, total",g,--,--,19.00,22.89
Minerals
"Calcium, Ca",mg,--,--,100,120
"Iron, Fe",mg,--,--,0.41,0.49
"Sodium, Na",mg,--,--,65,78
Vitamins
"Vitamin C, total ascorbic acid",mg,--,--,1.3,1.6
"Vitamin A, IU",IU,--,--,225,271
Lipids
"Fatty acids, total saturated",g,--,--,6.997,8.430
"Fatty acids, total trans",g,--,--,0.000,0.000
"Cholesterol",mg,--,--,25,30
Amino Acids
Other
Ingredients
"SKIM MILK, CREAM, SUGAR, FUDGE RIPPLE (SUGAR, CORN SYRUP, SKIM MILK, COCOA PROCESSED WITH ALKALI, PARTIALLY HYDROGENATED COCONUT OIL, VANILLIN [ARTIFICIAL FLAVOR], MODIFIED CORN STARCH, SALT, BAKING SODA), PEANUT BUTTER [PEANUTS, PEANUT OIL, SUGAR, SALT], MINI PEANUT BUTTER CUPS [COATING (SUGAR, COCONUT OIL, COCOA PROCESSED WITH ALKALI, NONFAT MILK, WHOLE MILK, SOY LECITHIN {EMULSIFIER}, NATURAL FLAVORS], PEANUT BUTTER (PEANUTS, SALT)], CORN SYRUP, PASTEURIZED EGG YOLK, STABILIZER [CELLULOSE GUM, CAROB BEAN GUM, CARRAGEENAN, GUAR GUM, DEXTROSE, SALT], ANNATTO (NATURAL COLOR)." Date available: 07/14/2017 Date last updated by company: 07/14/2017
