Source: USDA Branded Food Products Database Release December 2017 Software v.3.8.6.4 2017-10-02
Report Run at: December 18, 2017 10:46 EST
"Nutrient data for: 45209089, ICE CREAM, UPC: 011547330130"
Food Group:  Branded Food Products Database
Common Name:

Nutrient,Unit,Data points,Std. Error,"0.5 cup = 75.0g",1Value per 100 g,
Proximates
"Energy",kcal,--,--,220,293
"Protein",g,--,--,3.00,4.00
"Total lipid (fat)",g,--,--,13.00,17.33
"Carbohydrate, by difference",g,--,--,24.00,32.00
"Fiber, total dietary",g,--,--,0.0,0.0
"Sugars, total",g,--,--,18.00,24.00
Minerals
"Calcium, Ca",mg,--,--,60,80
"Iron, Fe",mg,--,--,0.41,0.54
"Sodium, Na",mg,--,--,45,60
Vitamins
"Vitamin C, total ascorbic acid",mg,--,--,0.0,0.0
"Vitamin A, IU",IU,--,--,449,599
Lipids
"Fatty acids, total saturated",g,--,--,8.002,10.670
"Fatty acids, total trans",g,--,--,0.000,0.000
"Cholesterol",mg,--,--,35,47
Amino Acids
Other
Ingredients
"MILK, CREAM, LYCHEES, CANE SUGAR, NONFAT MILK POWDER, EGGS, LOCUST BEAN GUM, GUAR, CARRAGEENAN." Date available: 07/14/2017 Date last updated by company: 07/14/2017
