Source: USDA Branded Food Products Database Release December 2017 Software v.3.8.6.4 2017-10-02
Report Run at: December 18, 2017 11:01 EST
"Nutrient data for: 45291774, ICE CREAM, UPC: 07203651152"
Food Group:  Branded Food Products Database
Common Name:

Nutrient,Unit,Data points,Std. Error,"0.667 cup = 88.0g",1Value per 100 g,
Proximates
"Energy",kcal,--,--,200,227
"Protein",g,--,--,3.00,3.41
"Total lipid (fat)",g,--,--,13.00,14.77
"Carbohydrate, by difference",g,--,--,18.00,20.45
"Fiber, total dietary",g,--,--,0.0,0.0
"Sugars, total",g,--,--,18.00,20.45
Minerals
"Calcium, Ca",mg,--,--,110,125
"Iron, Fe",mg,--,--,0.00,0.00
"Potassium, K",mg,--,--,136,155
"Sodium, Na",mg,--,--,65,74
Vitamins
"Vitamin D",IU,--,--,0,0
Lipids
"Fatty acids, total saturated",g,--,--,7.999,9.090
"Fatty acids, total trans",g,--,--,0.000,0.000
"Cholesterol",mg,--,--,40,45
Amino Acids
Other
Ingredients
"MILK, CREAM, SUGAR, COFFEE." Date available: 09/23/2017 Date last updated by company: 09/23/2017
