Source: USDA Branded Food Products Database Release December 2017 Software v.3.8.6.4 2017-10-02
Report Run at: December 18, 2017 10:44 EST
"Nutrient data for: 45184897, ICE CREAM, UPC: 085239723128"
Food Group:  Branded Food Products Database
Common Name:

Nutrient,Unit,Data points,Std. Error,"0.5 cup = 65.0g",1Value per 100 g,
Proximates
"Energy",kcal,--,--,170,262
"Protein",g,--,--,2.00,3.08
"Total lipid (fat)",g,--,--,8.00,12.31
"Carbohydrate, by difference",g,--,--,23.00,35.38
"Fiber, total dietary",g,--,--,1.0,1.5
"Sugars, total",g,--,--,16.00,24.62
Minerals
"Calcium, Ca",mg,--,--,80,123
"Iron, Fe",mg,--,--,0.40,0.62
"Sodium, Na",mg,--,--,80,123
Vitamins
"Vitamin C, total ascorbic acid",mg,--,--,0.0,0.0
"Vitamin A, IU",IU,--,--,225,346
Lipids
"Fatty acids, total saturated",g,--,--,4.998,7.690
"Fatty acids, total trans",g,--,--,0.000,0.000
"Cholesterol",mg,--,--,25,38
Amino Acids
Other
Ingredients
"MILKFAT AND NONFAT MILK, SUGAR, CARAMEL COCONUT RIBBON (WATER, CORN SYRUP, SUGAR, DESICCATED COCONUT, NONFAT MILK SOLIDS, BUTTER, WHEY, SALT, MOLASSES, CARRAGEENAN, GUAR GUM, MODIFIED CORN STARCH, POTASSIUM SORBATE, XANTHAN GUM, NATURAL FLAVOR AND CITRIC ACID), CORN SYRUP, CHOCOLATE FLAVORED FLAKES (POWDERED SUGAR, COCONUT OIL, COCOA POWDER, SALT), COCOA PROCESSED WITH ALKALI, WHEY, CONTAINS LESS THAN 2% OF UNBLEACHED WHEAT FLOUR, MONO AND DIGLYCERIDES, CELLULOSE GUM, GUAR GUM, NATURAL FLAVOR, SALT, CARRAGEENAN." Date available: 07/14/2017 Date last updated by company: 07/14/2017
