Source: USDA Branded Food Products Database Release December 2017 Software v.3.8.6.4 2017-10-02
Report Run at: December 18, 2017 10:31 EST
"Nutrient data for: 45117667, ICE CREAM, UPC: 070640012633"
Food Group:  Branded Food Products Database
Common Name:

Nutrient,Unit,Data points,Std. Error,"0.5 cup = 66.0g",1Value per 100 g,
Proximates
"Energy",kcal,--,--,150,227
"Protein",g,--,--,3.00,4.55
"Total lipid (fat)",g,--,--,8.00,12.12
"Carbohydrate, by difference",g,--,--,16.00,24.24
"Fiber, total dietary",g,--,--,1.0,1.5
"Sugars, total",g,--,--,13.00,19.70
Minerals
"Calcium, Ca",mg,--,--,100,152
"Iron, Fe",mg,--,--,0.00,0.00
"Potassium, K",mg,--,--,120,182
"Sodium, Na",mg,--,--,55,83
Vitamins
"Vitamin C, total ascorbic acid",mg,--,--,0.0,0.0
"Vitamin A, IU",IU,--,--,225,341
Lipids
"Fatty acids, total saturated",g,--,--,4.000,6.060
"Fatty acids, total trans",g,--,--,0.000,0.000
"Cholesterol",mg,--,--,25,38
Amino Acids
Other
Ingredients
"MILK, SKIM MILK, CREAM, SUGAR, CORN SYRUP, ALMONDS (ALMONDS, CANOLA OIL, BUTTER, SALT), CONTAINS 1% OR LESS OF NATURAL FLAVOR, CAROB BEAN GUM, GUAR GUM, CARRAGEENAN, MONO & DIGLYCERIDES, CELLULOSE GEL, CELLULOSE GUM, BLUE 1, YELLOW 5." Date available: 07/14/2017 Date last updated by company: 07/14/2017
