Source: USDA Branded Food Products Database Release December 2017 Software v.3.8.6.4 2017-10-02
Report Run at: December 18, 2017 10:34 EST
"Nutrient data for: 45039550, ICE CREAM, UPC: 708820157781"
Food Group:  Branded Food Products Database
Common Name:

Nutrient,Unit,Data points,Std. Error,"0.66 cup = 90.0g",1Value per 100 g,
Proximates
"Energy",kcal,--,--,210,233
"Protein",g,--,--,2.00,2.22
"Total lipid (fat)",g,--,--,11.00,12.22
"Carbohydrate, by difference",g,--,--,26.00,28.89
"Fiber, total dietary",g,--,--,0.0,0.0
"Sugars, total",g,--,--,18.00,20.00
Minerals
"Calcium, Ca",mg,--,--,81,90
"Iron, Fe",mg,--,--,0.00,0.00
"Potassium, K",mg,--,--,106,118
"Sodium, Na",mg,--,--,75,83
Vitamins
"Vitamin D",IU,--,--,0,0
Lipids
"Fatty acids, total saturated",g,--,--,7.002,7.780
"Fatty acids, total trans",g,--,--,0.504,0.560
"Cholesterol",mg,--,--,35,39
Amino Acids
Other
Ingredients
"MILKFAT AND NONFAT MILK, SUGAR, COOKIE DOUGH WITH CHIPS {COOKIE DOUGH [WHEAT FLOUR, SUGAR, BROWN SUGAR (SUGAR, MOLASSES), MARGARINE (SOYBEAN OIL, PALM OIL, WATER, SALT, VEGETABLE MONO AND DIGLYCERIDES, SOY LECITHIN, SODIUM BENZOATE, NATURAL BUTTER FLAVOR, ANNATTO {COLOR}, VITAMIN A PALMITATE)], CHOCOLATE CHIPS [SUGAR, CHOCOLATE LIQUOR, COCOA BUTTER, SOY LECITHIN, ARTIFICIAL FLAVOR], WATER, VANILLA, SALT, BAKING SODA}, CORN SYRUP, CHOCOLATE FLAVORED FLAKES [SUGAR, HYDROGENATED COCONUT OIL, COCOA, COCOA (PROCESSED WITH ALKALI), COCONUT OIL, SOY LECITHIN, SALT, VANILLA EXTRACT], CONTAINS LESS THAN 2% OF BROWN SUGAR, WHEY, NATURAL AND ARTIFICIAL FLAVORS, MOLASSES, MONO AND DIGLYCERIDES, CELLULOSE GUM, GUAR GUM, CARRAGEENAN, ANNATTO (COLOR), SALT." Date available: 10/17/2017 Date last updated by company: 10/17/2017
