Source: USDA Branded Food Products Database Release December 2017 Software v.3.8.6.4 2017-10-02
Report Run at: December 18, 2017 10:27 EST
"Nutrient data for: 45190451, ICE CREAM SANWICHES, UPC: 036800417076"
Food Group:  Branded Food Products Database
Common Name:

Nutrient,Unit,Data points,Std. Error,"1 SANDWICH = 59.0g",1Value per 100 g,
Proximates
"Energy",kcal,--,--,160,271
"Protein",g,--,--,2.00,3.39
"Total lipid (fat)",g,--,--,5.00,8.47
"Carbohydrate, by difference",g,--,--,25.00,42.37
"Fiber, total dietary",g,--,--,0.0,0.0
"Sugars, total",g,--,--,15.00,25.42
Minerals
"Calcium, Ca",mg,--,--,60,102
"Iron, Fe",mg,--,--,0.00,0.00
"Sodium, Na",mg,--,--,135,229
Vitamins
"Vitamin C, total ascorbic acid",mg,--,--,0.0,0.0
"Vitamin A, IU",IU,--,--,200,339
Lipids
"Fatty acids, total saturated",g,--,--,3.499,5.930
"Fatty acids, total trans",g,--,--,0.000,0.000
"Cholesterol",mg,--,--,20,34
Amino Acids
Other
Ingredients
"ICE CREAM INGREDIENTS: MILKFAT AND NONFAT MILK, HIGH FRUCTOSE CORN SYRUP, CORN SYRUP, BUTTERMILK, SUGAR, WHEY, ARTIFICIAL FLAVOR, MONO- AND DIGLYCERIDES, GUAR GUM, XANTHAN GUM, POLYSORBATE 80, LOCUST BEAN GUM, CARRAGEENAN. WAFER INGREDIENTS: BLEACHED WHEAT FLOUR, SUGAR, CARAMEL COLOR, DEXTROSE, PALM OIL, CORN FLOUR, COCOA HIGH FRUCTOSE CORN SYRUP, CORN SYRUP, MODIFIED CORN STARCH, BAKING SODA, SALT, MONO- AND DIGLYCERIDES, SOY LECITHIN." Date available: 07/14/2017 Date last updated by company: 07/14/2017
