Source: USDA Branded Food Products Database Release December 2017 Software v.3.8.6.4 2017-10-02
Report Run at: December 18, 2017 10:42 EST
"Nutrient data for: 45183857, ICE CREAM, UPC: 071632261077"
Food Group:  Branded Food Products Database
Common Name:

Nutrient,Unit,Data points,Std. Error,"0.5 cup = 65.0g",1Value per 100 g,
Proximates
"Energy",kcal,--,--,130,200
"Protein",g,--,--,2.00,3.08
"Total lipid (fat)",g,--,--,6.00,9.23
"Carbohydrate, by difference",g,--,--,17.00,26.15
"Fiber, total dietary",g,--,--,0.0,0.0
"Sugars, total",g,--,--,17.00,26.15
Minerals
"Calcium, Ca",mg,--,--,80,123
"Iron, Fe",mg,--,--,0.00,0.00
"Sodium, Na",mg,--,--,75,115
Vitamins
"Vitamin C, total ascorbic acid",mg,--,--,0.0,0.0
"Vitamin A, IU",IU,--,--,225,346
Lipids
"Fatty acids, total saturated",g,--,--,3.998,6.150
"Fatty acids, total trans",g,--,--,0.000,0.000
"Cholesterol",mg,--,--,25,38
Amino Acids
Other
Ingredients
"MILKFAT AND NONFAT MILK, STRAWBERRY SAUCE (CORN SYRUP, WATER, SUGAR, MODIFIED CORN STARCH, CITRIC ACID, NATURAL AND ARTIFICIAL FLAVOR, ARTIFICIAL COLOR (RED #40)), HIGH FRUCTOSE CORN SYRUP, CORN SYRUP, BUTTERMILK, SUGAR, WHEY, MONO- AND DIGLYCERIDES, GUAR GUM, XANTHAN GUM, POLYSORBATE 80, ARTIFICIAL FLAVOR, LOCUST BEAN GUM, CARRAGEENAN." Date available: 07/14/2017 Date last updated by company: 07/14/2017
