Source: USDA Branded Food Products Database Release December 2017 Software v.3.8.6.4 2017-10-02
Report Run at: December 18, 2017 10:40 EST
"Nutrient data for: 45183466, ICE CREAM, UPC: 070038603009"
Food Group:  Branded Food Products Database
Common Name:

Nutrient,Unit,Data points,Std. Error,"0.5 cup = 64.0g",1Value per 100 g,
Proximates
"Energy",kcal,--,--,120,188
"Protein",g,--,--,2.00,3.12
"Total lipid (fat)",g,--,--,6.00,9.38
"Carbohydrate, by difference",g,--,--,16.00,25.00
"Fiber, total dietary",g,--,--,0.0,0.0
"Sugars, total",g,--,--,13.00,20.31
Minerals
"Calcium, Ca",mg,--,--,60,94
"Iron, Fe",mg,--,--,0.00,0.00
"Sodium, Na",mg,--,--,55,86
Vitamins
"Vitamin C, total ascorbic acid",mg,--,--,0.0,0.0
"Vitamin A, IU",IU,--,--,225,352
Lipids
"Fatty acids, total saturated",g,--,--,4.000,6.250
"Fatty acids, total trans",g,--,--,0.000,0.000
"Cholesterol",mg,--,--,25,39
Amino Acids
Other
Ingredients
"MILKFAT AND NONFAT MILK, CHOCOLATE RIPPLE SAUCE (HIGH FRUCTOSE CORN SYRUP, WATER CORN SYRUP, COCOA POWDER [PROCESSED WITH ALKALI], SUGAR, MODIFIED CORN STARCH, ARTIFICIAL FLAVOR), CORN SYRUP, SUGAR, HIGH FRUCTOSE CORN SYRUP, WHEY, STABILIZED AND EMULSIFIED BY MONO AND DIGLYCERIDES, GUAR GUM, CELLULOSE GUM, LOCUST BEAN GUM, CARRAGEENAN, ARTIFICIAL FLAVOR, AND VEGETABLE ANNATTO COLOR." Date available: 07/14/2017 Date last updated by company: 07/14/2017
