Source: USDA Branded Food Products Database Release December 2017 Software v.3.8.6.4 2017-10-02
Report Run at: December 18, 2017 10:29 EST
"Nutrient data for: 45110768, ICE CREAM, UPC: 070640013555"
Food Group:  Branded Food Products Database
Common Name:

Nutrient,Unit,Data points,Std. Error,"0.5 cup = 76.0g",1Value per 100 g,
Proximates
"Energy",kcal,--,--,160,211
"Protein",g,--,--,2.00,2.63
"Total lipid (fat)",g,--,--,8.00,10.53
"Carbohydrate, by difference",g,--,--,20.00,26.32
"Fiber, total dietary",g,--,--,0.0,0.0
"Sugars, total",g,--,--,17.00,22.37
Minerals
"Calcium, Ca",mg,--,--,100,132
"Iron, Fe",mg,--,--,0.00,0.00
"Potassium, K",mg,--,--,135,178
"Sodium, Na",mg,--,--,55,72
Vitamins
"Vitamin C, total ascorbic acid",mg,--,--,0.0,0.0
"Vitamin A, IU",IU,--,--,337,444
Lipids
"Fatty acids, total saturated",g,--,--,5.001,6.580
"Fatty acids, total trans",g,--,--,0.000,0.000
"Cholesterol",mg,--,--,35,46
Amino Acids
Other
Ingredients
"MILK, CREAM, SKIM MILK, SUGAR, BUTTERMILK, WHEY, CAKE PIECE {SUGAR, WHEAT FLOUR, LIQUID PASTEURIZED EGGS, MARGARINE (SOYBEAN OIL, PALM OIL, WATER, SALT, MONO & DIGLYCERIDES, SOY LECITHIN, NATURAL FLAVOR, COLORED WITH ANNATTO, VITAMIN A PALMITATE), CORN STARCH, NATURAL FLAVORS, SOY LECITHIN, SALT}, CORN SYRUP, CONFETTI CANDY (SUGAR, RICE FLOUR, CORN STARCH, PALM OIL, CONFECTIONER'S GLAZE, GUM ACACIA, XANTHAN GUM, NATURAL & ARTIFICIAL FLAVOR, TITANIUM DIOXIDE FOR COLOR, YELLOW 5, BLUE 1, RED 3, YELLOW 6, MONO & DIGLYCERIDES, POLYSORBATE 60), CONTAINS 1% OR LESS OF NATURAL & ARTIFICIAL FLAVORS, CAROB BEAN GUM, GUAR GUM, CARRAGEENAN, MONO & DIGLYCERIDES, CELLULOSE GEL, CELLULOSE GUM, BLUE 1, RED 40, YELLOW 6." Date available: 07/14/2017 Date last updated by company: 07/14/2017
