Source: USDA Branded Food Products Database Release December 2017 Software v.3.8.6.4 2017-10-02
Report Run at: December 18, 2017 10:17 EST
"Nutrient data for: 45230614, ICE CREAM CAKE, UPC: 049800572010"
Food Group:  Branded Food Products Database
Common Name:

Nutrient,Unit,Data points,Std. Error,"0.5 CAKE = 85.0g",1Value per 100 g,
Proximates
"Energy",kcal,--,--,260,306
"Protein",g,--,--,4.00,4.71
"Total lipid (fat)",g,--,--,14.00,16.47
"Carbohydrate, by difference",g,--,--,31.00,36.47
"Fiber, total dietary",g,--,--,1.0,1.2
"Sugars, total",g,--,--,21.00,24.71
Minerals
"Calcium, Ca",mg,--,--,80,94
"Iron, Fe",mg,--,--,1.02,1.20
"Sodium, Na",mg,--,--,105,124
Vitamins
"Vitamin C, total ascorbic acid",mg,--,--,0.0,0.0
"Vitamin A, IU",IU,--,--,282,332
Lipids
"Fatty acids, total saturated",g,--,--,7.998,9.410
"Fatty acids, total trans",g,--,--,0.000,0.000
"Cholesterol",mg,--,--,20,24
Amino Acids
Other
Ingredients
"SKIM MILK, SUGAR, CREAM, CORN SYRUP, ENRICHED UNBLEACHED WHEAT FLOUR (FLOUR, NIACIN, REDUCED IRON, THIAMINE MONONITRATE, RIBOFLAVIN, FOLIC ACID), CONDENSED SKIM MILK, HIGH FRUCTOSE CORN SYRUP, ALMONDS, HYDROGENATED PALM KERNEL OIL, PALM OIL, CONTAINS LESS THAN 2% OF THE FOLLOWING: COCOA, COCOA ALKALI PROCESSED, MARGARINE (LIQUID AND HYDROGENATED SOYBEAN OIL, WATER, SALT, MONO AND DIGLYCERIDES, SOY LECITHIN, CITRIC ACID, NATURAL AND ARTIFICIAL FLAVOR, COLORED WITH (BETA CAROTENE), VITAMIN A PALMITATE ADDED, TO PRESERVE FRESHNESS (SODIUM BENZOATE, CALCIUM DISODIUM EDTA)), CHOCOLATE (SUGAR, CHOCOLATE LIQUOR, COCOA BUTTER, MILKFAT, SOY LECITHIN, NATURAL FLAVOR), PARTIALLY HYDROGENATED COCONUT OIL, MODIFIED CORNSTARCH, COFFEE, SOYBEAN OIL, COLORED WITH (CARAMEL COLOR, BETA CAROTENE), CORN FLOUR, WHEY, BAKING SODA, SALT, SODIUM CASEINATE, MONO AND DIGLYCERIDES, SOY LECITHIN, NATURAL AND ARTIFICIAL FLAVOR, TO PRESERVE FRESHNESS (POTASSIUM SORBATE), NATURAL FLAVOR, LOCUST BEAN GUM, CHOCOLATE LIQUOR, CARRAGEENAN, CITRIC ACID, CELLULOSE GUM, POLYSORBATE 60, SORBITAN MONOSTEARATE, GUAR GUM." Date available: 07/14/2017 Date last updated by company: 07/14/2017
