Source: USDA Branded Food Products Database Release December 2017 Software v.3.8.6.4 2017-10-02
Report Run at: December 18, 2017 11:05 EST
"Nutrient data for: 45333228, ICE CREAM, UPC: 860101000329"
Food Group:  Branded Food Products Database
Common Name:

Nutrient,Unit,Data points,Std. Error,"0.5 cup = 70.0g",1Value per 100 g,
Proximates
"Energy",kcal,--,--,110,157
"Protein",g,--,--,11.00,15.71
"Total lipid (fat)",g,--,--,5.00,7.14
"Carbohydrate, by difference",g,--,--,11.00,15.71
"Fiber, total dietary",g,--,--,0.0,0.0
"Sugars, total",g,--,--,0.00,0.00
Minerals
"Calcium, Ca",mg,--,--,60,86
"Iron, Fe",mg,--,--,0.00,0.00
"Sodium, Na",mg,--,--,25,36
Vitamins
"Vitamin C, total ascorbic acid",mg,--,--,0.0,0.0
"Vitamin A, IU",IU,--,--,200,286
Lipids
"Fatty acids, total saturated",g,--,--,3.003,4.290
"Fatty acids, total trans",g,--,--,0.000,0.000
"Cholesterol",mg,--,--,20,29
Amino Acids
Other
Ingredients
"WATER, CREAM, WHEY PROTEIN ISOLATE, XYLITOL, PURE VANILLA EXTRACT, GUAR GUM, LOCUST BEAN GUM, CARRAGEENAN" Date available: 10/13/2017 Date last updated by company: 10/13/2017
