Source: USDA Branded Food Products Database Release December 2017 Software v.3.8.6.4 2017-10-02
Report Run at: December 18, 2017 10:16 EST
"Nutrient data for: 45099797, ICE CREAM CAKE, UPC: 049800592001"
Food Group:  Branded Food Products Database
Common Name:

Nutrient,Unit,Data points,Std. Error,"0.083 CAKE = 85.0g",1Value per 100 g,
Proximates
"Energy",kcal,--,--,260,306
"Protein",g,--,--,3.00,3.53
"Total lipid (fat)",g,--,--,12.00,14.12
"Carbohydrate, by difference",g,--,--,34.00,40.00
"Fiber, total dietary",g,--,--,1.0,1.2
"Sugars, total",g,--,--,24.00,28.24
Minerals
"Calcium, Ca",mg,--,--,60,71
"Iron, Fe",mg,--,--,0.51,0.60
"Sodium, Na",mg,--,--,115,135
Vitamins
"Vitamin C, total ascorbic acid",mg,--,--,0.0,0.0
"Vitamin A, IU",IU,--,--,282,332
Lipids
"Fatty acids, total saturated",g,--,--,7.998,9.410
"Fatty acids, total trans",g,--,--,0.000,0.000
"Cholesterol",mg,--,--,20,24
Amino Acids
Other
Ingredients
"SKIM MILK, SUGAR, CREAM, CORN SYRUP, ENRICHED UNBLEACHED WHEAT FLOUR (FLOUR, NIACIN, REDUCED IRON, THIAMINE MONONITRATE, RIBOFLAVIN, FOLIC ACID), CONDENSED SKIM MILK, HIGH FRUCTOSE CORN SYRUP, HYDROGENATED PALM KERNEL OIL, PALM OIL, CONTAINS LESS THAN 2% OF THE FOLLOWING: SWEETENED CONDENSED SKIM MILK (SKIM MILK, SUGAR), PECANS, COCOA, COCOA ALKALI PROCESSED, MARGARINE (LIQUID AND HYDROGENATED SOYBEAN OIL, WATER, SALT, MONO AND DIGLYCERIDES, SOY LECITHIN, CITRIC ACID, NATURAL AND ARTIFICIAL FLAVOR, COLORED WITH (BETA CAROTENE), VITAMIN A PALMITATE ADDED, TO PRESERVE FRESHNESS (SODIUM BENZOATE, CALCIUM DISODIUM EDTA)), CHOCOLATE (SUGAR, CHOCOLATE LIQUOR, COCOA BUTTER, MILKFAT, SOY LECITHIN, NATURAL FLAVOR), MODIFIED CORNSTARCH, PARTIALLY HYDROGENATED COCONUT OIL, CORN FLOUR, BAKING SODA, WHEY, COLORED WITH (CARAMEL COLOR, ANNATTO, BETA CAROTENE), SALT, BUTTER (CREAM), SOYBEAN OIL, NATURAL FLAVOR, SODIUM CASEINATE, MONO AND DIGLYCERIDES, SOY LECITHIN, NATURAL AND ARTIFICIAL FLAVOR, TO PRESERVE FRESHNESS (POTASSIUM SORBATE), LOCUST BEAN GUM, POLYSORBATE 60, CELLULOSE GUM, CITRIC ACID, SORBITAN MONOSTEARATE, CHOCOLATE LIQUOR, GUAR GUM, CARRAGEENAN." Date available: 07/14/2017 Date last updated by company: 07/14/2017
