Source: USDA Branded Food Products Database Release December 2017 Software v.3.8.6.4 2017-10-02
Report Run at: December 18, 2017 10:25 EST
"Nutrient data for: 45281282, ICE CREAM SANDWICHES, UPC: 021333992442"
Food Group:  Branded Food Products Database
Common Name:

Nutrient,Unit,Data points,Std. Error,"1 SANDWICH = 60.0g",1Value per 100 g,
Proximates
"Energy",kcal,--,--,150,250
"Protein",g,--,--,3.00,5.00
"Total lipid (fat)",g,--,--,6.00,10.00
"Carbohydrate, by difference",g,--,--,24.00,40.00
"Fiber, total dietary",g,--,--,1.0,1.7
"Sugars, total",g,--,--,12.00,20.00
Minerals
"Calcium, Ca",mg,--,--,60,100
"Iron, Fe",mg,--,--,0.72,1.20
"Potassium, K",mg,--,--,115,192
"Sodium, Na",mg,--,--,85,142
Vitamins
"Vitamin C, total ascorbic acid",mg,--,--,0.0,0.0
"Vitamin A, IU",IU,--,--,200,333
Lipids
"Fatty acids, total saturated",g,--,--,3.000,5.000
"Fatty acids, total trans",g,--,--,0.000,0.000
"Cholesterol",mg,--,--,15,25
Amino Acids
Other
Ingredients
"ICE CREAM (MILK, CREAM, BUTTERMILK, WHEY, SUGAR, CORN SYRUP, SKIM MILK, CONTAINS 2% OR LESS OF COCOA PROCESSED WITH ALKALI, HIGH FRUCTOSE CORN SYRUP, NATURAL AND ARTIFICIAL FLAVORS, MONO AND DIGLYCERIDES, GUAR GUM, CALCIUM SULFATE, CAROB BEAN GUM, CELLULOSE GUM, CARRAGEENAN, POLYSORBATE 80, ANNATTO FOR COLOR.) CHOCOLATE FLAVORED WAFER (WHEAT FLOUR, SUGAR, SOYBEAN OIL, PALM OIL, COCOA, DEXTROSE, CARAMEL COLOR, HIGH FRUCTOSE CORN SYRUP, CORN SYRUP, CORN FLOUR, FOOD STARCH-MODIFIED, SALT, SOY LECITHIN, BAKING SODA, ARTIFICIAL FLAVOR.) VANILLA WAFER (WHEAT FLOUR, SUGAR, SOYBEAN OIL, PALM OIL, CORN SYRUP, FOOD STARCH-MODIFIED, HIGH FRUCTOSE CORN SYRUP, SALT, VANILLA FLAVOR, BAKING SODA, SOY LECITHIN.)" Date available: 07/14/2017 Date last updated by company: 07/14/2017
