Source: USDA Branded Food Products Database Release December 2017 Software v.3.8.6.4 2017-10-02
Report Run at: December 18, 2017 10:46 EST
"Nutrient data for: 45210812, ICE CREAM, UPC: 070438480316"
Food Group:  Branded Food Products Database
Common Name:

Nutrient,Unit,Data points,Std. Error,"0.5 cup = 68.0g",1Value per 100 g,
Proximates
"Energy",kcal,--,--,160,235
"Protein",g,--,--,2.00,2.94
"Total lipid (fat)",g,--,--,8.00,11.76
"Carbohydrate, by difference",g,--,--,22.00,32.35
"Fiber, total dietary",g,--,--,0.3,0.4
"Sugars, total",g,--,--,20.00,29.41
Minerals
"Calcium, Ca",mg,--,--,80,118
"Iron, Fe",mg,--,--,0.00,0.00
"Sodium, Na",mg,--,--,130,191
Vitamins
"Vitamin C, total ascorbic acid",mg,--,--,0.0,0.0
"Vitamin A, IU",IU,--,--,225,331
Lipids
"Fatty acids, total saturated",g,--,--,4.998,7.350
"Fatty acids, total trans",g,--,--,0.000,0.000
"Cholesterol",mg,--,--,25,37
Amino Acids
Other
Ingredients
"CREAM, SUGAR, CARAMEL RIPPLE (SUGAR SYRUP, CREAM, BUTTERMILK POWDER, BUTTER, SALT, MODIFIED FOOD STARCH, NATURAL AND ARTIFICIAL FLAVORS, CARAMEL COLOR, ANNATTO), CORN SYRUP, CHOCOLATE COATED COOKIE PIECES (ENRICHED FLOUR (WHEAT FLOUR, NIACIN, REDUCED IRON, THIAMINE MONONITRATE, RIBOFLAVIN, FOLIC ACID), SUGAR, VEGETABLE OIL (PALM OIL, SOYBEAN OIL), COCOA (PROCESSED WITH ALKALI), DRIED CANE SYRUP, VANILLA, CORN STARCH, SODIUM BICARBONATE, SALT, SOY LECITHIN), COCONUT OIL, COCOA (PROCESSED WITH ALKALI), COCOA, SOY LECITHIN, NATURAL FLAVORS, MILK), NONFAT DRIED MILK, WHEY, DEXTROSE, MILK), NONFAT DRIED MILK, WHEY, DEXTROSE, SOY LECITHIN, GUAR GUM, XANTHAN GUM, CARRAGEENAN, VANILLA, VANILLA BEAN SPICES." Date available: 07/14/2017 Date last updated by company: 07/14/2017
