Source: USDA Branded Food Products Database Release December 2017 Software v.3.8.6.4 2017-10-02
Report Run at: December 18, 2017 11:02 EST
"Nutrient data for: 45322849, ICE CREAM, UPC: 076310080506"
Food Group:  Branded Food Products Database
Common Name:

Nutrient,Unit,Data points,Std. Error,"0.667 cup = 110.0g",1Value per 100 g,
Proximates
"Energy",kcal,--,--,260,236
"Protein",g,--,--,5.00,4.55
"Total lipid (fat)",g,--,--,13.00,11.82
"Carbohydrate, by difference",g,--,--,33.00,30.00
"Fiber, total dietary",g,--,--,0.0,0.0
"Sugars, total",g,--,--,29.00,26.36
Minerals
"Calcium, Ca",mg,--,--,138,125
"Iron, Fe",mg,--,--,1.00,0.91
"Potassium, K",mg,--,--,209,190
"Sodium, Na",mg,--,--,116,105
Vitamins
Lipids
"Fatty acids, total saturated",g,--,--,6.996,6.360
"Fatty acids, total trans",g,--,--,0.000,0.000
"Cholesterol",mg,--,--,50,45
Amino Acids
Other
Ingredients
"SKIM MILK, SUGAR, CREAM, OREO COOKIES {SUGAR, ENRICHED FLOUR (WHEAT FLOUR, NIACIN, REDUCED IRON, THIAMINE MONONITRATE, RIBOFLAVIN, FOLIC ACID), HIGH OLEIC CANOLA AND/OR PALM OIL AND/OR CANOLA OIL AND/OR SOYBEAN OIL, COCOA PROCESSED WITH ALKALI, HIGH FRUCTOSE CORN SYRUP, CORNSTARCH, LEAVENING (BAKING SODA AND/OR CALCIUM PHOSPHATE), SALT, SOY LECITHIN (EMULSIFIER), VANILLIN, CHOCOLATE}, CORN SYRUP, PASTEURIZED EGG YOLKS, NATURAL FLAVOR, STABILIZER (CELLULOSE GUM, SALT, LOCUST BEAN GUM, CARRAGEENAN, GUAR GUM), YELLOW #5, BLUE #1." Date available: 07/14/2017 Date last updated by company: 07/14/2017
