Source: USDA Branded Food Products Database Release December 2017 Software v.3.8.6.4 2017-10-02
Report Run at: December 18, 2017 10:48 EST
"Nutrient data for: 45214735, ICE CREAM, UPC: 070910670006"
Food Group:  Branded Food Products Database
Common Name:

Nutrient,Unit,Data points,Std. Error,"0.5 cup = 74.0g",1Value per 100 g,
Proximates
"Energy",kcal,--,--,210,284
"Protein",g,--,--,2.00,2.70
"Total lipid (fat)",g,--,--,10.00,13.51
"Carbohydrate, by difference",g,--,--,25.00,33.78
"Fiber, total dietary",g,--,--,0.2,0.3
"Sugars, total",g,--,--,22.00,29.73
Minerals
"Calcium, Ca",mg,--,--,80,108
"Iron, Fe",mg,--,--,0.00,0.00
"Sodium, Na",mg,--,--,30,41
Vitamins
"Vitamin C, total ascorbic acid",mg,--,--,0.0,0.0
"Vitamin A, IU",IU,--,--,337,456
Lipids
"Fatty acids, total saturated",g,--,--,5.002,6.760
"Fatty acids, total trans",g,--,--,0.000,0.000
"Cholesterol",mg,--,--,30,41
Amino Acids
Other
Ingredients
"MILK, CREAM, SUGAR, GRAHAM CRACKER VARIEGATE (SUGAR, SOYBEAN OIL, WHEAT FLOUR, WHOLE WHEAT/GRAHAM FLOUR, PALM AND PALM KERNEL OIL, MOLASSES, HONEY, SALT, SOY LECITHIN, NATURAL AND ARTIFICIAL FLAVORS), LEMON CHIFFON BASE (CORN SYRUP, EGG YOLK, LEMON JUICE CONCENTRATE, WATER, SUGAR, NATURAL FLAVORING,ANNATTO AND TURMERIC [FOR COLOR], POTASSIUM SORBATE AND SODIUM BENZOATE [PRESERVATIVES]), CORN SYRUP, FRENCH CUSTARD BASE (EGG YOLK, CORN SYRUP, WATER, SUGAR, SWEETENED CONDENSED SKIM MILK [CONDENSED SKIM MILK AND SUGAR, SOY LECITHIN, SALT, CITRIC ACID, POTASSIUM SORBATE AND SODIUM BENZOATE [PRESERVATIVES], ANNATTO AND TURMERIC [FOR COLOR]), STABILIZER (GUAR GUM, MONO & DIGLYCERIDES, CELLULOSE GUM, POLYSORBATE 80." Date available: 07/14/2017 Date last updated by company: 07/14/2017
