Source: USDA Branded Food Products Database Release December 2017 Software v.3.8.6.4 2017-10-02
Report Run at: December 18, 2017 10:35 EST
"Nutrient data for: 45181143, ICE CREAM, UPC: 011225112164"
Food Group:  Branded Food Products Database
Common Name:

Nutrient,Unit,Data points,Std. Error,"0.5 cup = 68.0g",1Value per 100 g,
Proximates
"Energy",kcal,--,--,110,162
"Protein",g,--,--,3.00,4.41
"Total lipid (fat)",g,--,--,2.50,3.68
"Carbohydrate, by difference",g,--,--,18.00,26.47
"Fiber, total dietary",g,--,--,0.0,0.0
"Sugars, total",g,--,--,14.00,20.59
Minerals
"Calcium, Ca",mg,--,--,150,221
"Iron, Fe",mg,--,--,0.00,0.00
"Sodium, Na",mg,--,--,55,81
Vitamins
"Vitamin C, total ascorbic acid",mg,--,--,0.0,0.0
"Vitamin A, IU",IU,--,--,112,165
Lipids
"Fatty acids, total saturated",g,--,--,1.503,2.210
"Fatty acids, total trans",g,--,--,0.000,0.000
"Cholesterol",mg,--,--,15,22
Amino Acids
Other
Ingredients
"SKIM MILK, CREAM, SUGAR, CORN SYRUP, HIGH FRUCTOSE CORN SYRUP, HIGH FRUCTOSE CORN SYRUP, WHEY, CONTAINS 2% OR LESS OF MONO- AND DIGLYCERIDES, GUAR GUM AND/OR CELLULOSE GUM, CALCIUM SULFATE, LOCUST BEAN GUM, CARRAGEENAN, ARTIFICIAL VANILLA, ANNATTO (COLOR)." Date available: 07/14/2017 Date last updated by company: 07/14/2017
