Source: USDA Branded Food Products Database Release December 2017 Software v.3.8.6.4 2017-10-02
Report Run at: December 18, 2017 11:05 EST
"Nutrient data for: 45086454, ICE CREAM WITH MOOSE TRACKS FUDGE-FILLED CUPS & FAMOUS MOOSE TRACKS FUDGE, UPC: 041900074777"
Food Group:  Branded Food Products Database
Common Name:

Nutrient,Unit,Data points,Std. Error,"0.5 cup = 65.0g",1Value per 100 g,
Proximates
"Energy",kcal,--,--,170,262
"Protein",g,--,--,2.00,3.08
"Total lipid (fat)",g,--,--,10.00,15.38
"Carbohydrate, by difference",g,--,--,20.00,30.77
"Fiber, total dietary",g,--,--,1.0,1.5
"Sugars, total",g,--,--,14.00,21.54
Minerals
"Calcium, Ca",mg,--,--,60,92
"Iron, Fe",mg,--,--,0.81,1.25
"Sodium, Na",mg,--,--,55,85
Vitamins
"Vitamin C, total ascorbic acid",mg,--,--,0.0,0.0
"Vitamin A, IU",IU,--,--,225,346
Lipids
"Fatty acids, total saturated",g,--,--,4.998,7.690
"Fatty acids, total trans",g,--,--,0.000,0.000
"Cholesterol",mg,--,--,20,31
Amino Acids
Other
Ingredients
"MILKFAT AND NONFAT MILK, CHOCOLATE FUDGE [POWDERED SUGAR (SUGAR, CORNSTARCH), VEGETABLE OIL (PEANUT AND/OR COTTONSEED AND/OR PALM OIL), COCOA (PROCESSED WITH ALKALI), WHEY, SOY LECITHIN, SALT, NATURAL FLAVOR], SUGAR, CORN SYRUP, FUDGE CUPS [SUGAR, COCONUT OIL, COCOA PROCESSED WITH ALKALI, PEANUT OIL, NONFAT MILK, MILK, WHEY, SALT, SOY LECITHIN, NATURAL FLAVORS], HIGH FRUCTOSE CORN SYRUP, COCOA (PROCESSED WITH ALKALI), SWEETCREAM BUTTERMILK, WHEY CONTAINS LESS THAN 2% OF GUAR GUM, MONO & DIGLYCERIDES, XANTHAN GUM, POLYSORBATE 80, CELLULOSE GUM, CARRAGEENAN." Date available: 07/14/2017 Date last updated by company: 07/14/2017
