Source: USDA Branded Food Products Database Release December 2017 Software v.3.8.6.4 2017-10-02
Report Run at: December 18, 2017 10:39 EST
"Nutrient data for: 45183134, ICE CREAM, UPC: 049022829312"
Food Group:  Branded Food Products Database
Common Name:

Nutrient,Unit,Data points,Std. Error,"0.5 cup = 65.0g",1Value per 100 g,
Proximates
"Energy",kcal,--,--,140,215
"Protein",g,--,--,2.00,3.08
"Total lipid (fat)",g,--,--,7.00,10.77
"Carbohydrate, by difference",g,--,--,17.00,26.15
"Fiber, total dietary",g,--,--,0.0,0.0
"Sugars, total",g,--,--,11.00,16.92
Minerals
"Calcium, Ca",mg,--,--,80,123
"Iron, Fe",mg,--,--,0.40,0.62
"Sodium, Na",mg,--,--,80,123
Vitamins
"Vitamin C, total ascorbic acid",mg,--,--,0.0,0.0
"Vitamin A, IU",IU,--,--,337,519
Lipids
"Fatty acids, total saturated",g,--,--,3.998,6.150
"Fatty acids, total trans",g,--,--,0.000,0.000
"Cholesterol",mg,--,--,25,38
Amino Acids
Other
Ingredients
"CREAM, SKIM MILK, BUTTERMILK, LIQUID SUGAR (SUGAR, WATER), CORN SYRUP, CHOCOLATE CREME COOKIES (ENRICHED FLOUR [WHEAT FLOUR, NIACIN, REDUCED IRON, THIAMINE MONONITRATE {VITAMIN B1}, RIBOFLAVIN {VITAMIN B2}, FOLIC ACID], SUGAR, VEGETABLE OIL [SOYBEAN, PALM AND PALM KERNEL], DEXTROSE, CORN FLOUR, COCOA PROCESSED WITH ALKALI, INVERT SUGAR, CHOCOLATE, LEAVENING [BAKING SODA, MONOCALCIUM PHOSPHATE], SALT, CORNSTARCH, NATURAL FLAVOR, SOY LECITHIN, WHEY), WHEY, STABILIZER (MONO & DIGLYCERIDES, GUAR GUM, XANTHAN GUM, CALCIUM SULFATE, CARRAGEENAN, CAROB BEAN GUM, POLYSORBATE 80), NATURAL VANILLA FLAVOR." Date available: 07/14/2017 Date last updated by company: 07/14/2017
