Source: USDA Branded Food Products Database Release December 2017 Software v.3.8.6.4 2017-10-02
Report Run at: December 18, 2017 10:44 EST
"Nutrient data for: 45184601, ICE CREAM, UPC: 077890369098"
Food Group:  Branded Food Products Database
Common Name:

Nutrient,Unit,Data points,Std. Error,"0.5 cup = 70.0g",1Value per 100 g,
Proximates
"Energy",kcal,--,--,160,229
"Protein",g,--,--,2.00,2.86
"Total lipid (fat)",g,--,--,7.00,10.00
"Carbohydrate, by difference",g,--,--,21.00,30.00
"Fiber, total dietary",g,--,--,0.0,0.0
"Sugars, total",g,--,--,18.00,25.71
Minerals
"Calcium, Ca",mg,--,--,80,114
"Iron, Fe",mg,--,--,0.00,0.00
"Potassium, K",mg,--,--,130,186
"Sodium, Na",mg,--,--,55,79
Vitamins
"Vitamin C, total ascorbic acid",mg,--,--,1.3,1.9
"Vitamin A, IU",IU,--,--,562,803
Lipids
"Fatty acids, total saturated",g,--,--,4.501,6.430
"Fatty acids, total trans",g,--,--,0.000,0.000
"Cholesterol",mg,--,--,25,36
Amino Acids
Other
Ingredients
"MILK, CREAM, CORN SYRUP, PUMPKIN PUREE (PUMPKIN, WATER, SUGAR, BROWN SUGAR, SPICES, CARAMEL COLOR, ANNATTO COLOR, TURMERIC COLOR, SALT ), LIQUID SUGAR, SKIM MILK, BUTTERMILK, CINNAMON PIE PIECES (UNBLEACHED UNENRICHED WHEAT FLOUR, BUTTER [CREAM, SALT], POWDERED SUGAR [SUGAR, CORN STARCH], WATER, SUGAR, CINNAMON, SALT), MILKFAT, WHEY, NATURAL FLAVOR, MONO- AND DIGLYCERIDES, GUAR GUM, CELLULOSE GUM, CARRAGEENAN, DEXTROSE, CARAMEL COLOR, BETA CAROTENE COLOR." Date available: 07/14/2017 Date last updated by company: 07/14/2017
