Source: USDA Branded Food Products Database Release December 2017 Software v.3.8.6.4 2017-10-02
Report Run at: December 18, 2017 10:06 EST
"Nutrient data for: 45329480, ICEBERG SHREDDED LETTUCE, UPC: 041512119187"
Food Group:  Branded Food Products Database
Common Name:

Nutrient,Unit,Data points,Std. Error,"2.0 cup = 85.0g",1Value per 100 g,
Proximates
"Energy",kcal,--,--,10,12
"Protein",g,--,--,1.00,1.18
"Total lipid (fat)",g,--,--,0.00,0.00
"Carbohydrate, by difference",g,--,--,3.00,3.53
"Fiber, total dietary",g,--,--,1.0,1.2
"Sugars, total",g,--,--,2.00,2.35
Minerals
"Calcium, Ca",mg,--,--,0,0
"Iron, Fe",mg,--,--,0.36,0.42
"Sodium, Na",mg,--,--,10,12
Vitamins
"Vitamin C, total ascorbic acid",mg,--,--,0.0,0.0
"Vitamin A, IU",IU,--,--,300,353
Lipids
"Fatty acids, total saturated",g,--,--,0.000,0.000
"Fatty acids, total trans",g,--,--,0.000,0.000
"Cholesterol",mg,--,--,0,0
Amino Acids
Other
Ingredients
"ICEBERG LETTUCE." Date available: 10/13/2017 Date last updated by company: 10/13/2017
