Source: USDA Branded Food Products Database Release December 2017 Software v.3.8.6.4 2017-10-02
Report Run at: December 18, 2017 11:10 EST
"Nutrient data for: 45054128, ICED HONEY BUNS, UPC: 041497001842"
Food Group:  Branded Food Products Database
Common Name:

Nutrient,Unit,Data points,Std. Error,"1 BUN, PER CONTAINER = 71.0g",1Value per 100 g,
Proximates
"Energy",kcal,--,--,290,408
"Protein",g,--,--,3.00,4.23
"Total lipid (fat)",g,--,--,16.00,22.54
"Carbohydrate, by difference",g,--,--,35.00,49.30
"Fiber, total dietary",g,--,--,1.0,1.4
"Sugars, total",g,--,--,17.00,23.94
Minerals
"Calcium, Ca",mg,--,--,60,85
"Iron, Fe",mg,--,--,1.26,1.78
"Sodium, Na",mg,--,--,170,239
Vitamins
"Vitamin C, total ascorbic acid",mg,--,--,2.1,3.0
"Vitamin A, IU",IU,--,--,0,0
Lipids
"Fatty acids, total saturated",g,--,--,7.001,9.860
"Fatty acids, total trans",g,--,--,0.000,0.000
"Cholesterol",mg,--,--,0,0
Amino Acids
Other
Ingredients
"BUN: ENRICHED FLOUR (WHEAT FLOUR, MALTED BARLEY FLOUR, NIACIN, REDUCED IRON, THIAMINE MONONITRATE-B1, RIBOFLAVIN-B2, FOLIC ACID), VEGETABLE SHORTENING (PALM, PARTIALLY HYDROGENATED SOYBEAN, PARTIALLY HYDROGENATED COTTONSEED, AND SOYBEAN OILS), WATER, SUGAR, YEAST, MAY CONTAIN TWO PERCENT OR LESS OF: DEXTROSE, MONO & DIGLYCERIDES, SALT, SOY FLOUR, LEAVENING (SODIUM ACID PYROPHOSPHATE, BAKING SODA), WHEY (MILK), CALCIUM CASEINATE (MILK), SODIUM STEAROYL LACTYLATE, SOY LECITHIN, DATEM, EXTRACTS OF ANNATTO AND TURMERIC, DRIED HONEY (HONEY, HIGH FRUCTOSE CORN SYRUP SOLIDS, WHEAT STARCH, MONOCALCIUM PHOSPHATE, AMMONIUM SULFATE, DOUGH CONDITIONERS (L-CYSTEINE, ASCORBIC ACID, AZODICARBONIMIDE), ENZYME, CALCIUM CARBONATE, CINNAMON, AGAR, FD&C BLUE #2 ALUMINUM LAKE, TITANIUM DIOXIDE COLOR, NATURAL AND ARTIFICIAL FLAVORS, CORNSTARCH, POTASSIUM SORBATE AND CALCIUM PROPIONATE ADDED TO PRESERVE FRESHNESS, EGGS. ICING: SUGAR, WATER, VEGETABLE SHORTENING (PALM, PARTIALLY HYDROGENATED SOYBEAN, PARTIALLY HYDROGENATED COTTONSEED, AND/OR SOYBEAN OILS), CORN SYRUP, CORNSTARCH, DEXTROSE, CALCIUM CARBONATE, TITANIUM DIOXIDE COLOR, AGAR, POTASSIUM SORBATE (TO PRESERVE FRESHNESS), MONO & DIGLYCERIDES, SALT, FD&C BLUE #2 ALUMINUM LAKE." Date available: 06/25/2017 Date last updated by company: 06/25/2017
