Source: USDA Branded Food Products Database Release December 2017 Software v.3.8.6.4 2017-10-02
Report Run at: December 18, 2017 11:13 EST
"Nutrient data for: 45149531, ICED TEA, UPC: 742676164012"
Food Group:  Branded Food Products Database
Common Name:

Nutrient,Unit,Data points,Std. Error,"8.0 OZA = 237.0g",1Value per 100 g,
Proximates
"Energy",kcal,--,--,14,6
"Protein",g,--,--,0.00,0.00
"Total lipid (fat)",g,--,--,1.00,0.42
"Carbohydrate, by difference",g,--,--,1.00,0.42
"Sugars, total",g,--,--,1.00,0.42
Minerals
"Sodium, Na",mg,--,--,9,4
Vitamins
Lipids
"Fatty acids, total saturated",g,--,--,0.498,0.210
"Cholesterol",mg,--,--,0,0
Amino Acids
Other
Ingredients
"ORGANIC GREEN TEA, ORGANIC COCONUT WATER CRYSTALS, ORGANIC MATCHA AND ORGANIC COCONUT FLAVOR." Date available: 07/14/2017 Date last updated by company: 07/14/2017
