Source: USDA Branded Food Products Database Release December 2017 Software v.3.8.6.4 2017-10-02
Report Run at: December 18, 2017 11:07 EST
"Nutrient data for: 45188117, ICED CHOCOLATE POUND CAKE, UPC: 883426040290"
Food Group:  Branded Food Products Database
Common Name:

Nutrient,Unit,Data points,Std. Error,"1 PACKAGE = 113.0g",1Value per 100 g,
Proximates
"Energy",kcal,--,--,470,416
"Protein",g,--,--,6.99,6.19
"Total lipid (fat)",g,--,--,16.00,14.16
"Carbohydrate, by difference",g,--,--,74.00,65.49
"Fiber, total dietary",g,--,--,3.1,2.7
"Sugars, total",g,--,--,48.00,42.48
Minerals
"Calcium, Ca",mg,--,--,40,35
"Iron, Fe",mg,--,--,1.91,1.69
"Sodium, Na",mg,--,--,410,363
Vitamins
"Vitamin C, total ascorbic acid",mg,--,--,0.0,0.0
"Vitamin A, IU",IU,--,--,71,63
Lipids
"Fatty acids, total saturated",g,--,--,6.995,6.190
"Fatty acids, total trans",g,--,--,0.000,0.000
"Cholesterol",mg,--,--,80,71
Amino Acids
Other
Ingredients
"CAKE MIX (SUGAR, ENRICHED FLOUR BLEACHED [WHEAT FLOUR, NIACIN, IRON, THIAMINE MONONITRATE, RIBOFLAVIN, FOLIC ACID], COCOA PROCESSED WITH ALKALI, FOOD STARCH-MODIFIED, SOYBEAN OIL, MONO AND DIGLYCERIDES, WHEY, LEAVENING [BAKING SODA, SODIUM ALUMINUM PHOSPHATE], VITAL WHEAT GLUTEN, SALT, SORBITAN MONOSTEARATE, CALCIUM ACETATE, SODIUM STEAROY! LACTYLATE, NONFAT MILK, GUAR GUM, XANTHAN GUM, POLYSORBATE 60, NATURAL AND ARTIFICIAL FLAVOR, SOY, FLOUR, EGG), EGG, WATER, POWDERED SUGAR (SUGAR, CORNSTARCH), SEMI-SWEET CHOCOLATE CHUNKS (SUGAR, CHOCOLATE LIQUOR, COCOA BUTTER, CHOCOLATE LIQUOR PROCESSED WITH ALKALI, SOY LECITHIN, SALT), CHOCOLATE CHIPS (SUGAR, CHOCOLATE LIQUOR, COCOA BUTTER, ANHYDROUS DEXTROSE, MILK FAT, SOY LECITHIN), SOYBEAN OIL, SUGAR GLYCERIN, VEGETABLE SHORTING (PALM AND CANOLA OIL), PALM AND PALM KERNEL OIL, POTASSIUM SORBATE PRESERVATIVE, COCOA POWDER (PROCESSED WITH ALKALI), NATURAL FLAVOR, CORN SYRUP, WHEY POWDER, NONFAT MILK, COCOA POWDER, LACTOSE, GUAR GUM, COCOA POWDER PROCESSED WITH ALKALI, SOY LECITHIN, SODIUM BENZOATE PRESERVATIVE, METHYL PARABEN PRESERVATIVE, PROPYL PARABEN PRESERVATIVE." Date available: 07/14/2017 Date last updated by company: 07/14/2017
