Source: USDA Branded Food Products Database Release December 2017 Software v.3.8.6.4 2017-10-02
Report Run at: December 18, 2017 11:15 EST
"Nutrient data for: 45288774, ICED TEA, UPC: 018894441465"
Food Group:  Branded Food Products Database
Common Name:

Nutrient,Unit,Data points,Std. Error,"0.5 PACKET = 1.0g",1Value per 100 g,
Proximates
"Energy",kcal,--,--,5,500
"Protein",g,--,--,0.00,0.00
"Total lipid (fat)",g,--,--,0.00,0.00
"Carbohydrate, by difference",g,--,--,0.00,0.00
Minerals
"Sodium, Na",mg,--,--,0,0
Vitamins
Lipids
Amino Acids
Other
Ingredients
"CITRIC ACID, INSTANT TEA, MALTODEXTRIN, ASPARTAME**, ACESULFAME POTASSIUM, CONTAINS LESS THAN 2% OF: NATURAL FLAVOR, MAGNESIUM OXIDE, CALCIUM PHOSPHATE, CALCIUM SILICATE, RED 40 LAKE, RED 40, CARAMEL COLOR, YELLOW 6 LAKE, YELLOW 5, BLUE 1 LAKE, BLUE 1." Date available: 07/14/2017 Date last updated by company: 07/14/2017
