Source: USDA Branded Food Products Database Release December 2017 Software v.3.8.6.4 2017-10-02
Report Run at: December 18, 2017 11:11 EST
"Nutrient data for: 45328685, ICED TEA & LEMONADE WITH POMEGRANATE, UPC: 072310002210"
Food Group:  Branded Food Products Database
Common Name:

Nutrient,Unit,Data points,Std. Error,"8.0 OZA = 240.0g",1Value per 100 g,
Proximates
"Energy",kcal,--,--,10,4
"Protein",g,--,--,0.00,0.00
"Total lipid (fat)",g,--,--,0.00,0.00
"Carbohydrate, by difference",g,--,--,3.00,1.25
"Sugars, total",g,--,--,1.99,0.83
Minerals
"Potassium, K",mg,--,--,29,12
"Sodium, Na",mg,--,--,0,0
Vitamins
Lipids
Amino Acids
Other
Ingredients
"PURE CANE SUGAR, BLACK TEA, NATURAL LEMON AND POMEGRANATE FLAVORS WITH OTHER NATURAL FLAVORS (SOY LECITHIN), HIBISCUS, CITRIC ACID, BLACK TEA EXTRACT, LEMON PEEL, POMEGRANATE PEEL, REB A (NATURAL STEVIA LEAF SWEETENER)" Date available: 10/13/2017 Date last updated by company: 10/13/2017
