Source: USDA Branded Food Products Database Release December 2017 Software v.3.8.6.4 2017-10-02
Report Run at: December 18, 2017 11:12 EST
"Nutrient data for: 45163671, ICED TEA SWEETENED BLACK AND GREEN TEA WITH A HINT OF LEMON FLAVOR, UPC: 041220884315"
Food Group:  Branded Food Products Database
Common Name:

Nutrient,Unit,Data points,Std. Error,"1 cup = 12.0g",1Value per 100 g,
Proximates
"Energy",kcal,--,--,40,333
"Protein",g,--,--,0.00,0.00
"Total lipid (fat)",g,--,--,0.00,0.00
"Carbohydrate, by difference",g,--,--,9.00,75.00
"Sugars, total",g,--,--,8.00,66.67
Minerals
"Sodium, Na",mg,--,--,0,0
Vitamins
Lipids
Amino Acids
Other
Ingredients
"SUGAR, BLACK AND GREEN TEA LEAVES, CITRIC ACID, NATURAL FLAVORS, ASPARTAME*." Date available: 07/14/2017 Date last updated by company: 07/14/2017
