Source: USDA Branded Food Products Database Release December 2017 Software v.3.8.6.4 2017-10-02
Report Run at: December 18, 2017 11:18 EST
"Nutrient data for: 45015553, ICELANDIC NON-FAT YOGURT, UPC: 868543000013"
Food Group:  Branded Food Products Database
Common Name:

Nutrient,Unit,Data points,Std. Error,"170.0 GRM = 170.0g",1Value per 100 g,
Proximates
"Energy",kcal,--,--,121,71
"Protein",g,--,--,16.00,9.41
"Total lipid (fat)",g,--,--,0.00,0.00
"Carbohydrate, by difference",g,--,--,14.01,8.24
"Fiber, total dietary",g,--,--,1.0,0.6
"Sugars, total",g,--,--,11.00,6.47
Minerals
"Calcium, Ca",mg,--,--,150,88
"Iron, Fe",mg,--,--,0.00,0.00
"Sodium, Na",mg,--,--,70,41
Vitamins
"Vitamin C, total ascorbic acid",mg,--,--,1.2,0.7
"Vitamin A, IU",IU,--,--,400,235
Lipids
"Fatty acids, total saturated",g,--,--,0.000,0.000
"Fatty acids, total trans",g,--,--,0.000,0.000
"Cholesterol",mg,--,--,10,6
Amino Acids
Other
Ingredients
"PASTEURIZED SKIM MILK WITH LIVE ACTIVE CULTURES, SUGAR, VANILLA EXTRACT, CAROB GUM, CARRAGEENAN GUM, VANILLA BEANS, CITRIC ACID AND SODIUM CITRATE. LIVE CULTURES: STR. THERMOPHILUS AND LB. BULGARICUS." Date available: 07/14/2017 Date last updated by company: 07/14/2017
