Source: USDA Branded Food Products Database Release December 2017 Software v.3.8.6.4 2017-10-02
Report Run at: December 18, 2017 11:18 EST
"Nutrient data for: 45327075, ICELANDIC STYLE STRAINED WHOLE-MILK YOGURT, UPC: 898248001824"
Food Group:  Branded Food Products Database
Common Name:

Nutrient,Unit,Data points,Std. Error,"1 CONTAINER = 125.0g",1Value per 100 g,
Proximates
"Energy",kcal,--,--,110,88
"Protein",g,--,--,10.00,8.00
"Total lipid (fat)",g,--,--,4.00,3.20
"Carbohydrate, by difference",g,--,--,8.00,6.40
"Fiber, total dietary",g,--,--,1.0,0.8
"Sugars, total",g,--,--,5.00,4.00
Minerals
"Calcium, Ca",mg,--,--,100,80
"Iron, Fe",mg,--,--,0.00,0.00
"Sodium, Na",mg,--,--,45,36
Vitamins
"Vitamin C, total ascorbic acid",mg,--,--,0.0,0.0
"Vitamin A, IU",IU,--,--,408,326
Lipids
"Fatty acids, total saturated",g,--,--,2.500,2.000
"Fatty acids, total trans",g,--,--,0.000,0.000
"Cholesterol",mg,--,--,15,12
Amino Acids
Other
Ingredients
"PASTEURIZED WHOLE MILK, PASTEURIZED CREAM, PEACHES, MANGOS, FRUIT PECTIN, LEMON JUICE, LIVE ACTIVE CULTURES." Date available: 10/13/2017 Date last updated by company: 10/13/2017
