Source: USDA Branded Food Products Database Release December 2017 Software v.3.8.6.4 2017-10-02
Report Run at: December 18, 2017 11:22 EST
"Nutrient data for: 45266178, ICING DECORATIONS, UPC: 070896211361"
Food Group:  Branded Food Products Database
Common Name:

Nutrient,Unit,Data points,Std. Error,"4.0 PIECES = 3.0g",1Value per 100 g,
Proximates
"Energy",kcal,--,--,10,333
"Protein",g,--,--,0.00,0.00
"Total lipid (fat)",g,--,--,0.00,0.00
"Carbohydrate, by difference",g,--,--,3.00,100.00
"Sugars, total",g,--,--,2.00,66.67
Minerals
"Sodium, Na",mg,--,--,0,0
Vitamins
Lipids
Amino Acids
Other
Ingredients
"SUGAR, EGG WHITE SOLIDS, DISTILLED VINEGAR, SODIUM BENZOATE (PRESERVATIVE), FD&C YELLOW #5, FD&C RED #3, FD&C BLUE #1, FD&C RED #40, FD&C YELLOW #6." Date available: 07/14/2017 Date last updated by company: 07/14/2017
