Source: USDA Branded Food Products Database Release December 2017 Software v.3.8.6.4 2017-10-02
Report Run at: December 18, 2017 11:23 EST
"Nutrient data for: 45331909, ICING DECORATIONS, UPC: 070896340382"
Food Group:  Branded Food Products Database
Common Name:

Nutrient,Unit,Data points,Std. Error,"3.0 PIECES = 4.5g",1Value per 100 g,
Proximates
"Energy",kcal,--,--,20,444
"Protein",g,--,--,0.00,0.00
"Total lipid (fat)",g,--,--,0.00,0.00
"Carbohydrate, by difference",g,--,--,4.00,88.89
"Sugars, total",g,--,--,3.00,66.67
Minerals
"Sodium, Na",mg,--,--,0,0
Vitamins
Lipids
Amino Acids
Other
Ingredients
"SUGAR, TAPIOCA FLOUR, WATER, VEGETABLE SHORTENING (HYDROGENATED PALM OIL), TITANIUM DIOXIDE (COLOR), FD&C YELLOW #5, GUM ARABIC, CELLULOSE GUM, POTASSIUM SORBATE (PRESERVATIVE), ARTIFICIAL FLAVOR, TARTARIC ACID." Date available: 10/13/2017 Date last updated by company: 10/13/2017
