Source: USDA Branded Food Products Database Release December 2017 Software v.3.8.6.4 2017-10-02
Report Run at: December 18, 2017 11:23 EST
"Nutrient data for: 45264331, ICY GOLD TO GO! FAT FREE MILK, UPC: 071043103034"
Food Group:  Branded Food Products Database
Common Name:

Nutrient,Unit,Data points,Std. Error,"1 cup = 240.0g",1Value per 100 g,
Proximates
"Energy",kcal,--,--,130,54
"Protein",g,--,--,7.99,3.33
"Total lipid (fat)",g,--,--,0.00,0.00
"Carbohydrate, by difference",g,--,--,25.01,10.42
"Fiber, total dietary",g,--,--,0.0,0.0
"Sugars, total",g,--,--,22.01,9.17
Minerals
"Calcium, Ca",mg,--,--,300,125
"Iron, Fe",mg,--,--,0.36,0.15
"Sodium, Na",mg,--,--,180,75
Vitamins
"Vitamin C, total ascorbic acid",mg,--,--,0.0,0.0
"Vitamin A, IU",IU,--,--,499,208
"Vitamin D",IU,--,--,101,42
Lipids
"Fatty acids, total saturated",g,--,--,0.000,0.000
"Fatty acids, total trans",g,--,--,0.000,0.000
"Cholesterol",mg,--,--,5,2
Amino Acids
Other
Ingredients
"FAT FREE MILK, SUGAR, COCOA PROCESSED WITH ALKALI, CORN STARCH, COCOA, SALT, CARRAGEENAN, GUAR GUM, NATURAL AND ARTIFICIAL FLAVOR, VITAMIN A PALMITATE, VITAMIN D3 ADDED." Date available: 07/14/2017 Date last updated by company: 07/14/2017
