Source: USDA Branded Food Products Database Release December 2017 Software v.3.8.6.4 2017-10-02
Report Run at: December 18, 2017 11:26 EST
"Nutrient data for: 45057650, IDAHOAN, STEAKHOUSE, RED POTATO SLICES, PARMESAN & HERB, UPC: 029700001971"
Food Group:  Branded Food Products Database
Common Name:

Nutrient,Unit,Data points,Std. Error,"0.5 cup = 31.0g",1Value per 100 g,
Proximates
"Energy",kcal,--,--,120,387
"Protein",g,--,--,3.00,9.68
"Total lipid (fat)",g,--,--,3.00,9.68
"Carbohydrate, by difference",g,--,--,20.00,64.52
"Fiber, total dietary",g,--,--,1.0,3.2
"Sugars, total",g,--,--,2.00,6.45
Minerals
"Calcium, Ca",mg,--,--,60,194
"Iron, Fe",mg,--,--,0.58,1.88
"Sodium, Na",mg,--,--,540,1742
Vitamins
"Vitamin C, total ascorbic acid",mg,--,--,3.9,12.5
"Vitamin A, IU",IU,--,--,0,0
Lipids
"Fatty acids, total saturated",g,--,--,2.000,6.450
"Fatty acids, total trans",g,--,--,0.000,0.000
"Cholesterol",mg,--,--,5,16
Amino Acids
Other
Ingredients
"IDAHO RED POTATO SLICES (PRESERVED WITH SODIUM BISULFITE), CHEESE SAUCE MIX {CHEDDAR CHEESE BLEND (WHEY, MALTODEXTRIN, REDUCED LACTOSE WHEY, CANOLA OIL, CHEDDAR AND BLUE CHEESE [CULTURED MILK, SALT, ENZYMES], SALT, DISODIUM PHOSPHATE, WHEY PROTEIN CONCENTRATE, CITRIC ACID, LACTIC ACID), MODIFIED FOOD STARCH, VEGETABLE OIL (CONTAINS ONE OR MORE OF THE FOLLOWING: COCONUT, PALM, SOYBEAN, COTTONSEED, SUNFLOWER, CANOLA), CORN SYRUP SOLIDS, MALTODEXTRIN, SALT, PARMESAN CHEESE BLEND (PARMESAN CHEESE [PART-SKIM MILK, CHEESE CULTURE, SALT, ENZYMES], SODIUM PHOSPHATE, LACTIC ACID), AUTOLYZED YEAST EXTRACT, RENDERED CHICKEN FAT, SOY LECITHIN, DEXTROSE, DEHYDRATED ONION, XANTHAN GUM, DEHYDRATED GARLIC, DRIED ROSEMARY, NATURAL FLAVORS, SODIUM CASEINATE, DIPOTASSIUM PHOSPHATE, MONO & DIGLYCERIDES, ANNATTO EXTRACT (COLOR), SILICON DIOXIDE (ANTICAKING AGENT)}, PARMESAN CHEESE TOPPING {PARMESAN CHEESE (PASTEURIZED MILK, CHEESE CULTURES, SALT, ENZYMES), IDAHO POTATOES, (POTATOES, SALT, VEGETABLE OIL [CONTAINS ONE OR MORE OF THE FOLLOWING: SOYBEAN, COTTONSEED, SUNFLOWER, CANOLA], NONFAT DRY MILK, MONOGLYCERIDES, CALCIUM STEAROYL LACTYLATE, SPICE, ARTIFICIAL COLOR, NATURAL AND ARTIFICIAL FLAVORS, SODIUM ACID PYROPHOSPHATE [PRESERVE FRESHNESS], SODIUM BISULFITE [PRESERVE FRESHNESS], CITRIC ACID [PRESERVE FRESHNESS], MIXED TOCOPHEROLS [PRESERVE FRESHNESS], PALM OIL AND DISODIUM PHOSPHATE)}." Date available: 07/14/2017 Date last updated by company: 07/14/2017
