Source: USDA Branded Food Products Database Release December 2017 Software v.3.8.6.4 2017-10-02
Report Run at: December 18, 2017 11:26 EST
"Nutrient data for: 45043061, IDAHOAN, STEAKHOUSE, RED POTATOES, CHEDDAR & BROCCOLI, UPC: 029700001940"
Food Group:  Branded Food Products Database
Common Name:

Nutrient,Unit,Data points,Std. Error,"0.5 cup = 29.0g",1Value per 100 g,
Proximates
"Energy",kcal,--,--,110,379
"Protein",g,--,--,2.00,6.90
"Total lipid (fat)",g,--,--,2.50,8.62
"Carbohydrate, by difference",g,--,--,20.00,68.97
"Fiber, total dietary",g,--,--,2.0,6.9
"Sugars, total",g,--,--,0.00,0.00
Minerals
"Calcium, Ca",mg,--,--,20,69
"Iron, Fe",mg,--,--,1.24,4.28
"Sodium, Na",mg,--,--,610,2103
Vitamins
"Vitamin C, total ascorbic acid",mg,--,--,10.4,35.7
"Vitamin A, IU",IU,--,--,173,595
Lipids
"Fatty acids, total saturated",g,--,--,1.001,3.450
"Fatty acids, total trans",g,--,--,0.000,0.000
"Cholesterol",mg,--,--,0,0
Amino Acids
Other
Ingredients
"IDAHO RED POTATO SLICES (PRESERVED WITH SODIUM BISULFITE), BROCCOLI CHEDDAR SAUCE MIX [MODIFIED FOOD STARCH, SALT, PALM OIL, MALTODEXTRIN, BROCCOLI, NATURAL AND ARTIFICIAL FLAVORS, CORN SYRUP SOLIDS, DRIED GARLIC, DRIED ONION, CHEDDAR CHEESE (PASTEURIZED MILK, CHEESE CULTURES, SALT, ENZYMES), SOY LECITHIN, SOYBEAN OIL, YEAST EXTRACT, SODIUM CASEINATE, XANTHAN GUM, MONOGLYCERIDES, DIPOTASSIUM PHOSPHATE, ANNATTO EXTRACT, SPICE, PAPRIKA EXTRACT, AND LESS THAN 2% SILICON DIOXIDE ADDED AS AN ANTI-CAKING AGENT, PARMESAN CHEESE TOPPING [(PARMESAN CHEESE (PASTEURIZED MILK, CHEESE CULTURES, SALT, ENZYMES), IDAHO [CONTAINS ONE OR MORE OF THE FOLLOWING: SOYBEAN, COTTONSEED, SUNFLOWER, CANOLA], NONFAT DRY MILK, MONOGLYCERIDES, CALCIUM STEAROYL LACTYLATE, SPICE, ARTIFICIAL COLOR, NATURAL AND ARTIFICIAL FLAVORS, SODIUM ACID PYROPHOSPHATE [PRESERVE FRESHNESS], SODIUM BISULFITE [PRESERVE FRESHNESS], CITRIC ACID [PRESERVE FRESHNESS], AND MIXED TOCOPHEROLS [PRESERVE FRESHNESS], PALM OIL, DISODIUM PHOSPHATE)]." Date available: 07/14/2017 Date last updated by company: 07/14/2017
