Source: USDA Branded Food Products Database Release December 2017 Software v.3.8.6.4 2017-10-02
Report Run at: December 18, 2017 11:25 EST
"Nutrient data for: 45117018, IDAHOAN, MASHED POTATOES, ROASTED GARLIC, UPC: 029700131470"
Food Group:  Branded Food Products Database
Common Name:

Nutrient,Unit,Data points,Std. Error,"0.5 CUP PREPARED | DRY MIX = 28.0g",1Value per 100 g,
Proximates
"Energy",kcal,--,--,110,393
"Protein",g,--,--,2.00,7.14
"Total lipid (fat)",g,--,--,2.50,8.93
"Carbohydrate, by difference",g,--,--,20.00,71.43
"Fiber, total dietary",g,--,--,1.0,3.6
"Sugars, total",g,--,--,2.00,7.14
Minerals
"Calcium, Ca",mg,--,--,20,71
"Iron, Fe",mg,--,--,1.80,6.43
"Sodium, Na",mg,--,--,580,2071
Vitamins
"Vitamin C, total ascorbic acid",mg,--,--,18.0,64.3
"Vitamin A, IU",IU,--,--,0,0
Lipids
"Fatty acids, total saturated",g,--,--,1.501,5.360
"Fatty acids, total trans",g,--,--,0.000,0.000
"Cholesterol",mg,--,--,0,0
Amino Acids
Other
Ingredients
"IDAHO POTATOES ,VEGETABLE OIL (CONTAINS ONE OR MORE OF THE FOLLOWING: COCONUT, PALM, SOYBEAN, COTTONSEED, SUNFLOWER, CANOLA), CORN SYRUP SOLIDS, SALT, WHEY POWDER, SUGAR, MALTODEXTRIN, NONFAT DRY MILK, SODIUM CASEINATE, NATURAL AND ARTIFICIAL FLAVOR, MONO AND DIGLYCERIDES, DEHYDRATED GARLIC, CALCIUM STEAROYL LACTYLATE, HYDROLYZED SOY PROTEIN, PARSLEY FLAKES, DIPOTASSIUM PHOSPHATE, SPICE, SODIUM ACID PYROPHOSPHATE (PRESERVE FRESHNESS), ARTIFICIAL COLOR, SODIUM BISULFITE (PRESERVE FRESHNESS), DISODIUM INOSINATE, DISODIUM GUANYLATE, CITRIC ACID (PRESERVE FRESHNESS), MIXED TOCOPHEROLS (PRESERVE FRESHNESS) AND LESS THAN 2.0% SILICON DIOXIDE ADDED AS AN ANTI-CAKING AGENT." Date available: 07/14/2017 Date last updated by company: 07/14/2017
