Source: USDA Branded Food Products Database Release December 2017 Software v.3.8.6.4 2017-10-02
Report Run at: December 18, 2017 11:28 EST
"Nutrient data for: 45106505, IGA, FRUIT COCKTAIL, UPC: 041270064958"
Food Group:  Branded Food Products Database
Common Name:

Nutrient,Unit,Data points,Std. Error,"0.5 cup = 124.0g",1Value per 100 g,
Proximates
"Energy",kcal,--,--,60,48
"Protein",g,--,--,0.00,0.00
"Total lipid (fat)",g,--,--,0.00,0.00
"Carbohydrate, by difference",g,--,--,18.00,14.52
"Fiber, total dietary",g,--,--,2.0,1.6
"Sugars, total",g,--,--,13.00,10.48
Minerals
"Calcium, Ca",mg,--,--,0,0
"Iron, Fe",mg,--,--,0.00,0.00
"Sodium, Na",mg,--,--,20,16
Vitamins
"Vitamin C, total ascorbic acid",mg,--,--,1.4,1.1
"Vitamin A, IU",IU,--,--,226,182
Lipids
"Fatty acids, total saturated",g,--,--,0.000,0.000
"Fatty acids, total trans",g,--,--,0.000,0.000
"Cholesterol",mg,--,--,0,0
Amino Acids
Other
Ingredients
"PEACHES, PEARS, PEACH PULP AND JUICE, GRAPES, WATER, PEAR JUICE CONCENTRATE, PINEAPPLE, CHERRIES ARTIFICIALLY COLORED RED WITH CARMINE, ASCORBIC ACID (VITAMIN C) TO PROTECT COLOR, NATURAL FLAVORS, CITRIC ACID" Date available: 06/25/2017 Date last updated by company: 06/25/2017
