Source: USDA Branded Food Products Database Release December 2017 Software v.3.8.6.4 2017-10-02
Report Run at: December 18, 2017 11:32 EST
"Nutrient data for: 45331438, IKIJIME SHRIMP, UPC: 811481020193"
Food Group:  Branded Food Products Database
Common Name:

Nutrient,Unit,Data points,Std. Error,"3.5 ONZ = 100.0g",1Value per 100 g,
Proximates
"Energy",kcal,--,--,100,100
"Protein",g,--,--,21.00,21.00
"Total lipid (fat)",g,--,--,1.00,1.00
"Carbohydrate, by difference",g,--,--,0.00,0.00
"Fiber, total dietary",g,--,--,0.0,0.0
"Sugars, total",g,--,--,0.00,0.00
Minerals
"Calcium, Ca",mg,--,--,0,0
"Iron, Fe",mg,--,--,2.97,2.97
"Sodium, Na",mg,--,--,290,290
Vitamins
"Vitamin C, total ascorbic acid",mg,--,--,2.6,2.6
"Vitamin A, IU",IU,--,--,0,0
Lipids
"Fatty acids, total saturated",g,--,--,0.000,0.000
"Fatty acids, total trans",g,--,--,0.000,0.000
"Cholesterol",mg,--,--,170,170
Amino Acids
Other
Ingredients
"100% PACIFIC WHITE SHRIMP (LITOPENAEUS VANNAMEI), SALT." Date available: 10/13/2017 Date last updated by company: 10/13/2017
