Source: USDA Branded Food Products Database Release December 2017 Software v.3.8.6.4 2017-10-02
Report Run at: December 18, 2017 11:34 EST
"Nutrient data for: 45163513, IMAGINE DESIGN, GOURMET HOT COCOA WITH CHOCOLATE MOOSE MAGNET, UPC: 036655079115"
Food Group:  Branded Food Products Database
Common Name:

Nutrient,Unit,Data points,Std. Error,"1 ONZ = 28.0g",1Value per 100 g,
Proximates
"Energy",kcal,--,--,110,393
"Protein",g,--,--,1.00,3.57
"Total lipid (fat)",g,--,--,2.50,8.93
"Carbohydrate, by difference",g,--,--,23.00,82.14
"Fiber, total dietary",g,--,--,1.0,3.6
"Sugars, total",g,--,--,19.00,67.86
Minerals
"Calcium, Ca",mg,--,--,0,0
"Iron, Fe",mg,--,--,1.93,6.88
"Sodium, Na",mg,--,--,180,643
Vitamins
"Vitamin C, total ascorbic acid",mg,--,--,0.0,0.0
"Vitamin A, IU",IU,--,--,0,0
Lipids
"Fatty acids, total saturated",g,--,--,2.500,8.930
"Fatty acids, total trans",g,--,--,0.000,0.000
"Cholesterol",mg,--,--,0,0
Amino Acids
Other
Ingredients
"SUGAR, CREAMER (HYDROGENATED COCONUT OIL, CORN SYRUP SOLIDS, SODIUM CASEINATE (A MILK DERIVATIVE), DIPOTASSIUM PHOSPHATE, SUGAR, MONE AND DIGLYCERIDES, SODIUM SILICOALUMINATE, SODIUM STEAROYL LACTYLATE, SOY LECITHIN, ARTIFICIAL COLORS, ARTIFICIAL FLAVOR(, DUTCH COCOA (PROCESSED WITH ALKALI), MALTODEXTRIN, DEXTROSE, SALT, ARTIFICIAL FLAVOR, CELLULOSE GUM, SODIUM CITRATE,." Date available: 07/14/2017 Date last updated by company: 07/14/2017
