Source: USDA Branded Food Products Database Release December 2017 Software v.3.8.6.4 2017-10-02
Report Run at: December 18, 2017 11:35 EST
"Nutrient data for: 45040110, IMAGINE, ORGANIC LOADED BAKED POTATO SOUP, UPC: 084253242783"
Food Group:  Branded Food Products Database
Common Name:

Nutrient,Unit,Data points,Std. Error,"1 cup = 245.0g",1Value per 100 g,
Proximates
"Energy",kcal,--,--,120,49
"Protein",g,--,--,2.99,1.22
"Total lipid (fat)",g,--,--,5.00,2.04
"Carbohydrate, by difference",g,--,--,18.01,7.35
"Fiber, total dietary",g,--,--,1.0,0.4
"Sugars, total",g,--,--,1.00,0.41
Minerals
"Calcium, Ca",mg,--,--,39,16
"Iron, Fe",mg,--,--,0.37,0.15
"Sodium, Na",mg,--,--,539,220
Vitamins
"Vitamin C, total ascorbic acid",mg,--,--,0.0,0.0
"Vitamin A, IU",IU,--,--,100,41
Lipids
"Fatty acids, total saturated",g,--,--,2.499,1.020
"Fatty acids, total trans",g,--,--,0.000,0.000
"Cholesterol",mg,--,--,15,6
Amino Acids
Other
Ingredients
"FILTERED WATER,ORGANIC POTATOES, ORGANIC ONIONS, ORGANIC CREAM (MILK), ORGANIC POTATO FLAKES, ORGANIC CORN STARCH AND/OR ORGANIC POTATO STARCH, ORGANIC LEEKS, ORGANIC CHEESE BLEND (ORGANIC CHEDDAR CHEESE [ORGANIC CULTURED PASTEURIZED MILK, SALT, ENZYMES], ORGANIC NONFAT MILK, ORGANIC BUTTERMILK, SALT , DISODIUM PHOSPHATE), ORGANIC CHIVES, NATURAL FLAVORS (WITH YEAST EXTRACT), ORGANIC ROASTED GARLIC, SEA SALT, ORGANIC EXPELLER PRESSED CANOLA OIL AND/OR ORGANIC SAFFLOWER OIL, AND/OR ORGANIC SUNFLOWER OIL, ORGANIC SPICES." Date available: 06/24/2017 Date last updated by company: 06/24/2017
