Source: USDA Branded Food Products Database Release December 2017 Software v.3.8.6.4 2017-10-02
Report Run at: December 18, 2017 11:35 EST
"Nutrient data for: 45187125, IMAGINE, SOY-GINGER CHICKEN & EDAMAME SOUP, UPC: 084253244220"
Food Group:  Branded Food Products Database
Common Name:

Nutrient,Unit,Data points,Std. Error,"1 cup = 245.0g",1Value per 100 g,
Proximates
"Energy",kcal,--,--,81,33
"Protein",g,--,--,5.00,2.04
"Total lipid (fat)",g,--,--,2.01,0.82
"Carbohydrate, by difference",g,--,--,10.00,4.08
"Fiber, total dietary",g,--,--,2.0,0.8
"Sugars, total",g,--,--,2.01,0.82
Minerals
"Calcium, Ca",mg,--,--,0,0
"Iron, Fe",mg,--,--,0.71,0.29
"Sodium, Na",mg,--,--,750,306
Vitamins
"Vitamin C, total ascorbic acid",mg,--,--,3.7,1.5
"Vitamin A, IU",IU,--,--,100,41
Lipids
"Fatty acids, total saturated",g,--,--,0.000,0.000
"Fatty acids, total trans",g,--,--,0.000,0.000
"Cholesterol",mg,--,--,5,2
Amino Acids
Other
Ingredients
"FILTERED WATER, COOKED CHICKEN MEAT (CHICKEN MEAT, WATER, POTATO STARCH, SEA SALT), CARROTS*, EDAMAME*, PASTA*, (DURUM* [WHEAT], EGG WHITES*), SOY SAUCE* (SOYBEANS*, WHEAT*, SALT), MUNG BEAN SPROUTS, CORN STARCH*, YELLOW MISO PASTE* (SOYBEANS*, RICE*, SEA SALT, KOJI STARTER [ASPERGILLUS ORYZAE]), GREEN ONIONS*, RICE VINEGAR*, GINGER PUREE, VEGETABLE FLAVOR*, (INCLUDES VEGETABLES* [CARROT*, ONION*, CELERY*], CANOLA OIL*, CARROT POWDER*, POTATO FLOUR*, SPICE*), TOASTED SESAME OIL*, SEA SALT, EVAPORATED CANE SYRUP*, FLAVORS, SPICES*, ONION POWDER*." Date available: 07/14/2017 Date last updated by company: 07/14/2017
