Source: USDA Branded Food Products Database Release December 2017 Software v.3.8.6.4 2017-10-02
Report Run at: December 18, 2017 11:36 EST
"Nutrient data for: 45293070, IMITATION CRABMEAT, UPC: 010887063104"
Food Group:  Branded Food Products Database
Common Name:

Nutrient,Unit,Data points,Std. Error,"0.5 cup = 85.0g",1Value per 100 g,
Proximates
"Energy",kcal,--,--,100,118
"Protein",g,--,--,7.00,8.24
"Total lipid (fat)",g,--,--,0.50,0.59
"Carbohydrate, by difference",g,--,--,15.00,17.65
"Fiber, total dietary",g,--,--,0.0,0.0
"Sugars, total",g,--,--,4.00,4.71
Minerals
"Calcium, Ca",mg,--,--,0,0
"Iron, Fe",mg,--,--,0.36,0.42
"Sodium, Na",mg,--,--,640,753
Vitamins
"Vitamin C, total ascorbic acid",mg,--,--,0.0,0.0
"Vitamin A, IU",IU,--,--,0,0
Lipids
"Fatty acids, total saturated",g,--,--,0.000,0.000
"Fatty acids, total monounsaturated",g,--,--,0.000,0.000
"Fatty acids, total polyunsaturated",g,--,--,0.000,0.000
"Fatty acids, total trans",g,--,--,0.000,0.000
"Cholesterol",mg,--,--,5,6
Amino Acids
Other
Ingredients
"FISH PROTEIN (POLLOCK, COD AND/OR WHITING), WATER, WHEAT STARCH, SUGAR, EGG WHITES, MODIFIED FOOD STARCH, CONTAINS 2% OR LESS OF THE FOLLOWING: NATURAL AND ARTIFICIAL CRAB FLAVOR, MIRIN WINE (SAKE, SUGAR, SALT, WATER, YEAST EXTRACT), SODIUM TRIPOLYPHOSPHATE, TETRASODIUM PYROPHOSPHATE, SALT, SOYBEAN OIL, SORBITOL, MALTODEXTRIN, HYDROLYZED SOY PROTEIN, WHEAT FLOUR, DISODIUM INOSINATE, DISODIUM GUANYLATE, CARMINE, CARAMEL, SOY LECITHIN, COLOR ADDED." Date available: 07/14/2017 Date last updated by company: 07/14/2017
