Source: USDA Branded Food Products Database Release December 2017 Software v.3.8.6.4 2017-10-02
Report Run at: December 18, 2017 11:36 EST
"Nutrient data for: 45283754, IMITATION CRAB MEAT, UPC: 078742134475"
Food Group:  Branded Food Products Database
Common Name:

Nutrient,Unit,Data points,Std. Error,"0.5 cup = 85.0g",1Value per 100 g,
Proximates
"Energy",kcal,--,--,80,94
"Protein",g,--,--,6.00,7.06
"Total lipid (fat)",g,--,--,0.00,0.00
"Carbohydrate, by difference",g,--,--,14.00,16.47
"Fiber, total dietary",g,--,--,0.0,0.0
"Sugars, total",g,--,--,3.00,3.53
Minerals
"Calcium, Ca",mg,--,--,20,24
"Iron, Fe",mg,--,--,0.00,0.00
"Potassium, K",mg,--,--,250,294
"Sodium, Na",mg,--,--,450,529
Vitamins
"Vitamin C, total ascorbic acid",mg,--,--,0.0,0.0
"Vitamin A, IU",IU,--,--,0,0
Lipids
"Fatty acids, total saturated",g,--,--,0.000,0.000
"Fatty acids, total monounsaturated",g,--,--,0.000,0.000
"Fatty acids, total polyunsaturated",g,--,--,0.000,0.000
"Fatty acids, total trans",g,--,--,0.000,0.000
"Cholesterol",mg,--,--,5,6
Amino Acids
Other
Ingredients
"ALASKA POLLOCK, WATER, EGG WHITES, CORNSTARCH, SUGAR, SORBITOL, CONTAINS 2% OR LESS OF: KING CRAB MEAT, NATURAL AND ARTIFICIAL FLAVOR (EXTRACTS OF BLUE CRAB, SNOW CRAB, LOBSTER, ALASKA POLLOCK), REFINED FISH OIL* (ANCHOVY, SARDINE), RICE WINE (WATER, RICE, KOJI), MODIFIED TAPIOCA STARCH, SEA SALT, CARRAGEENAN, YAM FLOUR, POTASSIUM CHLORIDE, DISODIUM INOSINATE, SODIUM PYROPHOSPHATE, SOY LECITHIN, CARMINE, PAPRIKA, COLOR ADDED." Date available: 07/14/2017 Date last updated by company: 07/14/2017
