Source: USDA Branded Food Products Database Release December 2017 Software v.3.8.6.4 2017-10-02
Report Run at: December 18, 2017 11:38 EST
"Nutrient data for: 45098715, IMPERIAL GARDEN, SHRIMP EGG ROLL, UPC: 880124014479"
Food Group:  Branded Food Products Database
Common Name:

Nutrient,Unit,Data points,Std. Error,"1 EGG ROLL = 141.0g",1Value per 100 g,
Proximates
"Energy",kcal,--,--,240,170
"Protein",g,--,--,10.10,7.16
"Total lipid (fat)",g,--,--,6.70,4.75
"Carbohydrate, by difference",g,--,--,36.10,25.60
"Fiber, total dietary",g,--,--,3.7,2.6
"Sugars, total",g,--,--,2.69,1.91
Minerals
"Calcium, Ca",mg,--,--,44,31
"Iron, Fe",mg,--,--,2.33,1.65
"Sodium, Na",mg,--,--,453,321
Vitamins
"Vitamin C, total ascorbic acid",mg,--,--,15.1,10.7
"Vitamin A, IU",IU,--,--,1024,726
Lipids
"Fatty acids, total saturated",g,--,--,0.804,0.570
"Fatty acids, total trans",g,--,--,0.000,0.000
"Cholesterol",mg,--,--,31,22
Amino Acids
Other
Ingredients
"CABBAGE, CARROT, SHRIMP, CRAB FLAKES (FISH PASTE OF POLLOCK, AND/OR GOLDEN THREADFIN BREAM), WATER, WHEAT STARCH, KONJAC FLOUR, SOYBEAN OIL, (SOYBEAN), SALT, ISOLATED SOY PROTEIN, NATURAL CRAB FLAVOR, MIRIN (NICE WINE), NATURAL CRAB EXTRACT, SUGAR, CALCIUM CARBONATE, CARMINE COLOR), ONION, VEGETABLE OIL, CELERY, TEXTURED SOY FLOUR, SESAME FLAVORED OIL (SOY BEAN OIL, SESAME OIL), AND NO MORE THAN 2% EACH OF SEASONING (SUGAR, SALT, SPICES, MONOAMMONIUM GLTAMATE, DEHYRATED GARLIC, FLAVORED (CONTAINS MALTODEXTRIN), SODIUM INOSINATE AND DISODIUM GUANYLATE, YEAST EXTRACT, CITRIC ACID], BROWN RICE, GARLIC, SALT, SHRIMP EXTRACT POWDER, FOOD STARCH, MODIFIED CRUST: BLEACHED WHEAT FLOUR, ENRICHED (NIACIN REDUCED IRON, THIAMINE MONONITRATE, RIBOFLAVIN, FOLIC ACID, MALTED BARLEY FLOUR, POTASSIUM BROMATE), WATER, CORN STARCH, EGG, SALT, ASCORBIC ACID & CITRIC ACID AS ANTI-OXIDANT, FD & C YELLOW #5 & #6." Date available: 07/14/2017 Date last updated by company: 07/14/2017
