Source: USDA Branded Food Products Database Release December 2017 Software v.3.8.6.4 2017-10-02
Report Run at: December 18, 2017 11:38 EST
"Nutrient data for: 45254563, IMPERIAL MOCHI TARO, UPC: 639192652614"
Food Group:  Branded Food Products Database
Common Name:

Nutrient,Unit,Data points,Std. Error,"30.0 GRM = 30.0g",1Value per 100 g,
Proximates
"Energy",kcal,--,--,90,300
"Protein",g,--,--,0.00,0.00
"Total lipid (fat)",g,--,--,0.50,1.67
"Carbohydrate, by difference",g,--,--,20.00,66.67
"Fiber, total dietary",g,--,--,0.0,0.0
"Sugars, total",g,--,--,16.00,53.33
Minerals
"Calcium, Ca",mg,--,--,0,0
"Iron, Fe",mg,--,--,0.30,1.00
"Sodium, Na",mg,--,--,1,3
Vitamins
"Vitamin C, total ascorbic acid",mg,--,--,1.0,3.3
"Vitamin A, IU",IU,--,--,0,0
Lipids
"Fatty acids, total saturated",g,--,--,0.000,0.000
"Fatty acids, total trans",g,--,--,0.000,0.000
"Cholesterol",mg,--,--,0,0
Amino Acids
Other
Ingredients
"MALTOSE, GLUTINOUS RICE POWDER, TARO PASTE (MALTOSE, TARO, PALM OIL, TARO EXTRACT), SUGAR, POTATO STARCH, FD&C BLUE NO. 1, FD&C RED NO.40, FD&C RED NO.3, SORBIC ACID (UNDER 0.5G/KG)." Date available: 07/14/2017 Date last updated by company: 07/14/2017
