Source: USDA Branded Food Products Database Release December 2017 Software v.3.8.6.4 2017-10-02
Report Run at: December 18, 2017 11:42 EST
"Nutrient data for: 45216662, INBAR, CHOCOLATE BAR, CHOCOLATE FUDGE, UPC: 10857602004014"
Food Group:  Branded Food Products Database
Common Name:

Nutrient,Unit,Data points,Std. Error,"1 BAR = 56.0g",1Value per 100 g,
Proximates
"Energy",kcal,--,--,173,309
"Protein",g,--,--,11.00,19.64
"Total lipid (fat)",g,--,--,5.00,8.93
"Carbohydrate, by difference",g,--,--,21.00,37.50
"Fiber, total dietary",g,--,--,10.0,17.9
"Sugars, total",g,--,--,7.00,12.50
Minerals
"Calcium, Ca",mg,--,--,40,71
"Iron, Fe",mg,--,--,0.96,1.72
"Sodium, Na",mg,--,--,30,54
Vitamins
"Vitamin C, total ascorbic acid",mg,--,--,0.0,0.0
"Vitamin A, IU",IU,--,--,0,0
Lipids
"Fatty acids, total saturated",g,--,--,0.498,0.890
"Fatty acids, total trans",g,--,--,0.000,0.000
"Cholesterol",mg,--,--,0,0
Amino Acids
Other
Ingredients
"ORGANIC SUNFLOWER SEED BUTTER, ORGANIC BROWN RICE PROTEIN, ORGANIC CRISPY BROWN RICE, ORGANIC RICE BRAN, ORGANIC BLUE AMBER AGAVE, ORGANIC PEA FIBER, ORGANIC CHOCOLATE LIQUOR, MONK FRUIT EXTRACT." Date available: 06/25/2017 Date last updated by company: 06/25/2017
