Source: USDA Branded Food Products Database Release December 2017 Software v.3.8.6.4 2017-10-02
Report Run at: December 18, 2017 11:46 EST
"Nutrient data for: 45077084, INDIAN MATTAR PANEER, UPC: 042272000586"
Food Group:  Branded Food Products Database
Common Name:

Nutrient,Unit,Data points,Std. Error,"1 MEAL = 284.0g",1Value per 100 g,
Proximates
"Energy",kcal,--,--,369,130
"Protein",g,--,--,13.01,4.58
"Total lipid (fat)",g,--,--,10.99,3.87
"Carbohydrate, by difference",g,--,--,53.99,19.01
"Fiber, total dietary",g,--,--,6.0,2.1
"Sugars, total",g,--,--,8.01,2.82
Minerals
"Calcium, Ca",mg,--,--,99,35
"Iron, Fe",mg,--,--,1.85,0.65
"Sodium, Na",mg,--,--,781,275
Vitamins
"Vitamin C, total ascorbic acid",mg,--,--,6.2,2.2
"Vitamin A, IU",IU,--,--,344,121
Lipids
"Fatty acids, total saturated",g,--,--,4.004,1.410
"Fatty acids, total trans",g,--,--,0.000,0.000
"Cholesterol",mg,--,--,20,7
Amino Acids
Other
Ingredients
"ORGANIC BASMATI RICE, ORGANIC ONIONS, ORGANIC PEAS, ORGANIC GARBANZO BEANS, FILTERED WATER, PANEER CHEESE (PASTEURIZED MILK, DISTILLED VINEGAR), ORGANIC DICED TOMATOES, ORGANIC TOMATO PUREE, EXPELLER PRESSED HIGH OLEIC SAFFLOWER AND/OR SUNFLOWER OIL, SPICES*, ORGANIC CARROTS, SEA SALT, ORGANIC GARLIC, ORGANIC CORNSTARCH, TURMERIC, PAPRIKA." Date available: 07/14/2017 Date last updated by company: 07/14/2017
