Source: USDA Branded Food Products Database Release December 2017 Software v.3.8.6.4 2017-10-02
Report Run at: December 18, 2017 11:46 EST
"Nutrient data for: 45024382, INDIANLIFE, SAMOSA CHIPS, UPC: 777762004132"
Food Group:  Branded Food Products Database
Common Name:

Nutrient,Unit,Data points,Std. Error,"1 BAG = 40.0g",1Value per 100 g,
Proximates
"Energy",kcal,--,--,140,350
"Protein",g,--,--,3.00,7.50
"Total lipid (fat)",g,--,--,7.00,17.50
"Carbohydrate, by difference",g,--,--,17.00,42.50
"Fiber, total dietary",g,--,--,1.0,2.5
"Sugars, total",g,--,--,0.00,0.00
Minerals
"Calcium, Ca",mg,--,--,0,0
"Iron, Fe",mg,--,--,1.35,3.38
"Sodium, Na",mg,--,--,190,475
Vitamins
"Vitamin C, total ascorbic acid",mg,--,--,0.0,0.0
"Vitamin A, IU",IU,--,--,0,0
Lipids
"Fatty acids, total saturated",g,--,--,0.500,1.250
"Fatty acids, total trans",g,--,--,0.000,0.000
"Cholesterol",mg,--,--,0,0
Amino Acids
Other
Ingredients
"ENRICHED WHEAT FLOUR (WHEAT, NIACIN, REDUCED IRON, THIAMINE MONONITRATE, RIBOFLAVIN, FOLIC ACID), WATER, SUNFLOWER OIL, SEA SALT, CITRIC ACID AND CAYENNE" Date available: 06/25/2017 Date last updated by company: 06/25/2017
