Source: USDA Branded Food Products Database Release December 2017 Software v.3.8.6.4 2017-10-02
Report Run at: December 18, 2017 11:45 EST
"Nutrient data for: 45224849, INDIAN CORN CANDY, UPC: 011300620768"
Food Group:  Branded Food Products Database
Common Name:

Nutrient,Unit,Data points,Std. Error,"19.0 PIECES = 39.0g",1Value per 100 g,
Proximates
"Energy",kcal,--,--,140,359
"Protein",g,--,--,0.00,0.00
"Total lipid (fat)",g,--,--,0.00,0.00
"Carbohydrate, by difference",g,--,--,36.00,92.31
"Sugars, total",g,--,--,30.00,76.92
Minerals
"Sodium, Na",mg,--,--,55,141
Vitamins
Lipids
Amino Acids
Other
Ingredients
"SUGAR, CORN SYRUP, COCOA POWDER, CONFECTIONER'S GLAZE, SALT, HONEY, PARTIALLY HYDROGENATED VEGETABLE OIL (SOYBEAN COTTONSEED AND/OR PALM KERNEL), GELATIN, DEXTROSE, ARTIFICIAL FLAVOR, YELLOW 6, RED 3, RED 40, YELLOW 5, BLUE 1, SESAME OIL, SOY LECITHIN." Date available: 07/14/2017 Date last updated by company: 07/14/2017
