Source: USDA Branded Food Products Database Release December 2017 Software v.3.8.6.4 2017-10-02
Report Run at: December 18, 2017 11:48 EST
"Nutrient data for: 45104780, INDIVIDUALLY WRAPPED SINGLES SWISS CHEESE, UPC: 011213380612"
Food Group:  Branded Food Products Database
Common Name:

Nutrient,Unit,Data points,Std. Error,"1 SLICE = 21.0g",1Value per 100 g,
Proximates
"Energy",kcal,--,--,70,333
"Protein",g,--,--,4.00,19.05
"Total lipid (fat)",g,--,--,5.00,23.81
"Carbohydrate, by difference",g,--,--,2.00,9.52
"Fiber, total dietary",g,--,--,0.0,0.0
"Sugars, total",g,--,--,1.00,4.76
Minerals
"Calcium, Ca",mg,--,--,150,714
"Iron, Fe",mg,--,--,0.00,0.00
"Sodium, Na",mg,--,--,200,952
Vitamins
"Vitamin C, total ascorbic acid",mg,--,--,0.0,0.0
"Vitamin A, IU",IU,--,--,476,2267
Lipids
"Fatty acids, total saturated",g,--,--,3.501,16.670
"Fatty acids, total trans",g,--,--,0.000,0.000
"Cholesterol",mg,--,--,15,71
Amino Acids
Other
Ingredients
"SWISS CHEESE (MILK, CHEESE CULTURE, SALT, ENZYMES), WATER, WHEY PROTEIN CONCENTRATE, MILKFAT, WHEY, SODIUM CITRATE, SALT, SORBIC ACID AS A PRESERVATIVE, LACTIC ACID." Date available: 06/25/2017 Date last updated by company: 06/25/2017
