Source: USDA Branded Food Products Database Release December 2017 Software v.3.8.6.4 2017-10-02
Report Run at: December 18, 2017 11:49 EST
"Nutrient data for: 45003852, INDO-EUROPEAN, PEPPERONCINI, UPC: 043717275804"
Food Group:  Branded Food Products Database
Common Name:

Nutrient,Unit,Data points,Std. Error,"30.0 g = 30.0g",1Value per 100 g,
Proximates
"Energy",kcal,--,--,8,27
"Protein",g,--,--,1.00,3.33
"Total lipid (fat)",g,--,--,0.00,0.00
"Carbohydrate, by difference",g,--,--,2.00,6.67
"Fiber, total dietary",g,--,--,1.0,3.3
"Sugars, total",g,--,--,1.00,3.33
Minerals
"Calcium, Ca",mg,--,--,20,67
"Iron, Fe",mg,--,--,0.00,0.00
"Sodium, Na",mg,--,--,525,1750
Vitamins
"Vitamin C, total ascorbic acid",mg,--,--,2.4,8.0
"Vitamin A, IU",IU,--,--,100,333
Lipids
"Fatty acids, total saturated",g,--,--,0.00,0.00
"Fatty acids, total trans",g,--,--,0.00,0.00
"Cholesterol",mg,--,--,0,0
Amino Acids
Other
Ingredients
"PEPPERONCINI, WATER, VINEGAR, SALT, SODIUM METABISULFITE (TO RETAIN COLOR), SODIUM BENZOATE (AS PRESERVATIVE), FD&C YELLOW #5" Date last updated by company: 05/29/2014
