Source: USDA Branded Food Products Database Release December 2017 Software v.3.8.6.4 2017-10-02
Report Run at: December 18, 2017 11:49 EST
"Nutrient data for: 45265508, INDULGENT MIX, UPC: 030034103712"
Food Group:  Branded Food Products Database
Common Name:

Nutrient,Unit,Data points,Std. Error,"0.25 cup = 30.0g",1Value per 100 g,
Proximates
"Energy",kcal,--,--,160,533
"Protein",g,--,--,3.00,10.00
"Total lipid (fat)",g,--,--,11.00,36.67
"Carbohydrate, by difference",g,--,--,14.00,46.67
"Fiber, total dietary",g,--,--,1.0,3.3
"Sugars, total",g,--,--,10.00,33.33
Minerals
"Calcium, Ca",mg,--,--,40,133
"Iron, Fe",mg,--,--,1.20,4.00
"Sodium, Na",mg,--,--,75,250
Vitamins
"Vitamin C, total ascorbic acid",mg,--,--,0.0,0.0
"Vitamin A, IU",IU,--,--,0,0
Lipids
"Fatty acids, total saturated",g,--,--,3.501,11.670
"Fatty acids, total trans",g,--,--,0.000,0.000
"Cholesterol",mg,--,--,0,0
Amino Acids
Other
Ingredients
"MILK CHOCOLATE PEANUT BUTTER CUPS (MILK CHOCOLATE [SUGAR, COCOA BUTTER, CHOCOLATE, WHOLE MILK, SOY LECITHIN (EMULSIFIER), NATURAL FLAVORS], SUGAR, PARTIALLY DEFATTED PEANUT FLOUR, NONFAT MILK, PEANUT BUTTER [PEANUTS, SALT], SALT, SOY LECITHIN [EMULSIFIER]), ALMONDS (ALMONDS, CANOLA AND/OR PEANUT OIL, SALT) CASHEWS [CASHEWS, CANOLA AND/OR PEANUT OIL, SALT], DRIED BING CHERRIES (CHERRIES, SUGAR, CITRIC ACID, FRUIT AND VEGETABLE CONCENTRATES FOR COLOR [CHERRY, BLUEBERRY, CARROT], SUNFLOWER OIL, NATURAL FLAVORS]." Date available: 07/14/2017 Date last updated by company: 07/14/2017
