Source: USDA Branded Food Products Database Release December 2017 Software v.3.8.6.4 2017-10-02
Report Run at: December 18, 2017 11:52 EST
"Nutrient data for: 45257332, INFUSED SYRUP, UPC: 070491107090"
Food Group:  Branded Food Products Database
Common Name:

Nutrient,Unit,Data points,Std. Error,"2.0 OZA = 78.0g",1Value per 100 g,
Proximates
"Energy",kcal,--,--,210,269
"Protein",g,--,--,0.00,0.00
"Total lipid (fat)",g,--,--,0.00,0.00
"Carbohydrate, by difference",g,--,--,52.00,66.67
"Fiber, total dietary",g,--,--,1.0,1.3
"Sugars, total",g,--,--,47.00,60.26
Minerals
"Sodium, Na",mg,--,--,10,13
Vitamins
Lipids
Amino Acids
Other
Ingredients
"SUGAR, PUMPKIN PUREE (35%), HUMECTANT: GLYCEROL, WATER, SPICES, THICKENER: SODIUM ALGINATE, PRESERVATIVE: POTASSIUM SORBATE." Date available: 07/14/2017 Date last updated by company: 07/14/2017
