Source: USDA Branded Food Products Database Release December 2017 Software v.3.8.6.4 2017-10-02
Report Run at: December 18, 2017 11:50 EST
"Nutrient data for: 45212816, INFUSED EXTRA VIRGIN OLIVE OIL, UPC: 857306001381"
Food Group:  Branded Food Products Database
Common Name:

Nutrient,Unit,Data points,Std. Error,"1 Tbsp = 14.0g",1Value per 100 g,
Proximates
"Energy",kcal,--,--,90,643
"Protein",g,--,--,0.00,0.00
"Total lipid (fat)",g,--,--,9.00,64.29
"Carbohydrate, by difference",g,--,--,2.00,14.29
"Sugars, total",g,--,--,1.00,7.14
Minerals
"Sodium, Na",mg,--,--,1,7
Vitamins
Lipids
"Fatty acids, total saturated",g,--,--,1.000,7.140
Amino Acids
Other
Ingredients
"EXTRA VIRGIN OLIVE OIL, BALSAMIC VINEGAR, HONEY AND DRIED THYME." Date available: 07/14/2017 Date last updated by company: 07/14/2017
