Source: USDA Branded Food Products Database Release December 2017 Software v.3.8.6.4 2017-10-02
Report Run at: December 18, 2017 11:52 EST
"Nutrient data for: 45222882, INGLES, TURKEY BREAST, HONEY SMOKED, UPC: 042222824644"
Food Group:  Branded Food Products Database
Common Name:

Nutrient,Unit,Data points,Std. Error,"2.0 ONZ = 56.0g",1Value per 100 g,
Proximates
"Energy",kcal,--,--,50,89
"Protein",g,--,--,11.00,19.64
"Total lipid (fat)",g,--,--,0.50,0.89
"Carbohydrate, by difference",g,--,--,2.00,3.57
"Fiber, total dietary",g,--,--,0.0,0.0
"Sugars, total",g,--,--,2.00,3.57
Minerals
"Calcium, Ca",mg,--,--,0,0
"Iron, Fe",mg,--,--,0.35,0.63
"Sodium, Na",mg,--,--,410,732
Vitamins
"Vitamin C, total ascorbic acid",mg,--,--,0.0,0.0
"Vitamin A, IU",IU,--,--,0,0
Lipids
"Fatty acids, total saturated",g,--,--,0.000,0.000
"Fatty acids, total trans",g,--,--,0.000,0.000
"Cholesterol",mg,--,--,20,36
Amino Acids
Other
Ingredients
"TURKEY BREAST MEAT, TURKEY BROTH, HONEY, CONTAINS 2% OR LESS SALT, SUGAR, SODIUM PHOSPHATE, SODIUM ACETATE, SODIUM DIACETATE, SODIUM ERYTHORBATE, SODIUM NITRATE, NATURAL SMOKE FLAVORING." Date available: 07/14/2017 Date last updated by company: 07/14/2017
