Source: USDA Branded Food Products Database Release December 2017 Software v.3.8.6.4 2017-10-02
Report Run at: December 18, 2017 11:53 EST
"Nutrient data for: 45285904, INJECTABLES CREOLE STYLE BUTTER, UPC: 071998500001"
Food Group:  Branded Food Products Database
Common Name:

Nutrient,Unit,Data points,Std. Error,"1 Tbsp = 15.0g",1Value per 100 g,
Proximates
"Energy",kcal,--,--,0,0
"Protein",g,--,--,0.00,0.00
"Total lipid (fat)",g,--,--,0.00,0.00
"Carbohydrate, by difference",g,--,--,0.00,0.00
"Fiber, total dietary",g,--,--,0.0,0.0
"Sugars, total",g,--,--,0.00,0.00
Minerals
"Calcium, Ca",mg,--,--,0,0
"Iron, Fe",mg,--,--,0.00,0.00
"Potassium, K",mg,--,--,0,0
"Sodium, Na",mg,--,--,330,2200
Vitamins
"Vitamin D",IU,--,--,0,0
Lipids
"Fatty acids, total saturated",g,--,--,0.000,0.000
"Fatty acids, total trans",g,--,--,0.000,0.000
"Cholesterol",mg,--,--,0,0
Amino Acids
Other
Ingredients
"WATER, SALT, CREOLE SEASONING (SALT, DRIED RED CHILI PEPPER, SPICES, CHILI POWDER {CHILI PEPPER, SPICES, SALT, GARLIC POWDER}, DEHYDRATED GARLIC), SOYBEAN OIL, DEHYDRATED GARLIC, XANTHAN GUM, CITRIC ACID, CHILI POWDER, SPICES, NATURAL BUTTER FLAVOR, SODIUM PHOSPHATE, CALCIUM DISODIUM EDTA." Date available: 07/15/2017 Date last updated by company: 07/15/2017
