Source: USDA Branded Food Products Database Release December 2017 Software v.3.8.6.4 2017-10-02
Report Run at: December 18, 2017 11:55 EST
"Nutrient data for: 45331737, INSTANT BANANA CREAM, UPC: 041303020111"
Food Group:  Branded Food Products Database
Common Name:

Nutrient,Unit,Data points,Std. Error,"0.25 PACKAGE MAKES 1/2 CUP = 24.0g",1Value per 100 g,
Proximates
"Energy",kcal,--,--,90,375
"Protein",g,--,--,0.00,0.00
"Total lipid (fat)",g,--,--,0.00,0.00
"Carbohydrate, by difference",g,--,--,23.00,95.83
"Fiber, total dietary",g,--,--,0.0,0.0
"Sugars, total",g,--,--,19.00,79.17
Minerals
"Calcium, Ca",mg,--,--,0,0
"Iron, Fe",mg,--,--,0.00,0.00
"Potassium, K",mg,--,--,0,0
"Sodium, Na",mg,--,--,320,1333
Vitamins
"Vitamin D",IU,--,--,0,0
Lipids
"Fatty acids, total saturated",g,--,--,0.000,0.000
"Fatty acids, total trans",g,--,--,0.000,0.000
"Cholesterol",mg,--,--,0,0
Amino Acids
Other
Ingredients
"SUGAR, MODIFIED FOOD STARCH, DEXTROSE, CONTAINS 2% OR LESS OF DISODIUM PHOSPHATE, TETRASODIUM PYROPHOSPHATE, SALT, MALTODEXTRIN, NONFAT DRY MILK, MONO- AND DIGLYCERIDES (CONTAINS PROPYL GALLATE AND CITRIC ACID AS ANTIOXIDANTS), PALM OIL, TITANIUM DIOXIDE (FOR COLOR), ARTIFICIAL FLAVORS, YELLOW 5, YELLOW 6." Date available: 10/13/2017 Date last updated by company: 10/13/2017
