Source: USDA Branded Food Products Database Release December 2017 Software v.3.8.6.4 2017-10-02
Report Run at: December 18, 2017 11:57 EST
"Nutrient data for: 45108354, INSTANT CORN MASA FLOUR, UPC: 041331050838"
Food Group:  Branded Food Products Database
Common Name:

Nutrient,Unit,Data points,Std. Error,"6.0 TORTILLAS = 100.0g",1Value per 100 g,
Proximates
"Energy",kcal,--,--,361,361
"Protein",g,--,--,7.00,7.00
"Total lipid (fat)",g,--,--,4.00,4.00
"Carbohydrate, by difference",g,--,--,77.00,77.00
"Fiber, total dietary",g,--,--,7.0,7.0
"Sugars, total",g,--,--,0.00,0.00
Minerals
"Calcium, Ca",mg,--,--,220,220
"Iron, Fe",mg,--,--,2.70,2.70
"Sodium, Na",mg,--,--,0,0
Vitamins
Lipids
"Fatty acids, total saturated",g,--,--,1.000,1.000
"Fatty acids, total trans",g,--,--,0.000,0.000
"Cholesterol",mg,--,--,0,0
Amino Acids
Other
Ingredients
"WHITE CORN, TRACES OF LIME." Date available: 07/14/2017 Date last updated by company: 07/14/2017
