Source: USDA Branded Food Products Database Release December 2017 Software v.3.8.6.4 2017-10-02
Report Run at: December 18, 2017 12:14 EST
"Nutrient data for: 45216203, INSTANT WHITE RICE, UPC: 092825105350"
Food Group:  Branded Food Products Database
Common Name:

Nutrient,Unit,Data points,Std. Error,"0.667 CUP COOKED) | (ABOUT = 44.0g",1Value per 100 g,
Proximates
"Energy",kcal,--,--,160,364
"Protein",g,--,--,3.00,6.82
"Total lipid (fat)",g,--,--,0.00,0.00
"Carbohydrate, by difference",g,--,--,35.00,79.55
"Fiber, total dietary",g,--,--,1.0,2.3
"Sugars, total",g,--,--,0.00,0.00
Minerals
"Calcium, Ca",mg,--,--,0,0
"Iron, Fe",mg,--,--,1.47,3.35
"Potassium, K",mg,--,--,50,114
"Sodium, Na",mg,--,--,0,0
Vitamins
"Vitamin C, total ascorbic acid",mg,--,--,0.0,0.0
"Thiamin",mg,--,--,0.440,1.000
"Niacin",mg,--,--,2.046,4.650
"Vitamin A, IU",IU,--,--,0,0
Lipids
"Fatty acids, total saturated",g,--,--,0.000,0.000
"Fatty acids, total monounsaturated",g,--,--,0.000,0.000
"Fatty acids, total polyunsaturated",g,--,--,0.000,0.000
"Fatty acids, total trans",g,--,--,0.000,0.000
"Cholesterol",mg,--,--,0,0
Amino Acids
Other
Ingredients
"ENRICHED PRECOOKED LONG GRAIN RICE (RICE, NIACINAMIDE [NIACIN], FERRIC ORTHOPHOSPHATE [IRON], THIAMINE HYDROCHLORIDE [THIAMINE], FOLIC ACID)." Date available: 07/14/2017 Date last updated by company: 07/14/2017
