Source: USDA Branded Food Products Database Release December 2017 Software v.3.8.6.4 2017-10-02
Report Run at: December 18, 2017 12:03 EST
"Nutrient data for: 45317797, INSTANT OATMEAL BANANA NUT, UPC: 3000031595"
Food Group:  Branded Food Products Database
Common Name:

Nutrient,Unit,Data points,Std. Error,"1 PACKET = 61.0g",1Value per 100 g,
Proximates
"Energy",kcal,--,--,240,393
"Protein",g,--,--,10.00,16.39
"Total lipid (fat)",g,--,--,5.00,8.20
"Carbohydrate, by difference",g,--,--,40.00,65.57
"Fiber, total dietary",g,--,--,4.0,6.6
"Sugars, total",g,--,--,12.00,19.67
Minerals
"Calcium, Ca",mg,--,--,40,66
"Iron, Fe",mg,--,--,1.30,2.13
"Sodium, Na",mg,--,--,190,311
Vitamins
"Vitamin C, total ascorbic acid",mg,--,--,0.0,0.0
"Vitamin A, IU",IU,--,--,0,0
"Vitamin D",IU,--,--,0,0
Lipids
"Fatty acids, total saturated",g,--,--,1.000,1.640
"Fatty acids, total monounsaturated",g,--,--,1.501,2.460
"Fatty acids, total polyunsaturated",g,--,--,2.001,3.280
"Fatty acids, total trans",g,--,--,0.000,0.000
"Cholesterol",mg,--,--,10,16
Amino Acids
Other
Ingredients
"INGREDIENTS: WHOLE GRAIN ROLLED OATS, SUGAR, WHEY PROTEIN CONCENTRATE, WALNUTS COATED WITH ROSEMARY EXTRACT (CONTAINS SUNFLOWER OIL). FREEZE DRIED BANANAS, WHEY PROTEIN ISOLATE, SALT, BANANA FLAKE POWDER, NATURAL FLAVOR, MALTODEXTRIN, SOY LECITHIN, MODIFIED CORN STARCH." Date available: 07/14/2017 Date last updated by company: 07/14/2017
