Source: USDA Branded Food Products Database Release December 2017 Software v.3.8.6.4 2017-10-02
Report Run at: December 18, 2017 12:00 EST
"Nutrient data for: 45010937, INSTANT LUNCH, RAMEN NOODLE SOUP, SHRIMP, UPC: 041789001055"
Food Group:  Branded Food Products Database
Common Name:

Nutrient,Unit,Data points,Std. Error,"1 CONTAINER = 64.0g",1Value per 100 g,
Proximates
"Energy",kcal,--,--,290,453
"Protein",g,--,--,7.00,10.94
"Total lipid (fat)",g,--,--,12.00,18.75
"Carbohydrate, by difference",g,--,--,39.00,60.94
"Fiber, total dietary",g,--,--,2.0,3.1
"Sugars, total",g,--,--,2.00,3.12
Minerals
"Calcium, Ca",mg,--,--,20,31
"Iron, Fe",mg,--,--,10.34,16.15
"Sodium, Na",mg,--,--,1200,1875
Vitamins
"Vitamin C, total ascorbic acid",mg,--,--,4.6,7.2
"Vitamin A, IU",IU,--,--,383,598
Lipids
"Fatty acids, total saturated",g,--,--,6.003,9.380
"Fatty acids, total trans",g,--,--,0.000,0.000
"Cholesterol",mg,--,--,10,16
Amino Acids
Other
Ingredients
"ENRICHED WHEAT FLOUR (WHEAT FLOUR, NIACIN, REDUCED IRON, THIAMINE MONONITRATE, RIBOFLAVIN, FOLIC ACID), VEGETABLE OIL (CONTAINS ONE OR MORE OF THE FOLLOWING: CANOLA COTTONSEED, PALM) PRESERVED BY TBHQ SALT, DEHYDRATED VEGETABLES (CARROT, GREEN PEAS, GARLIC), CONTAINS LESS THAN 2% OF: MALTODEXTRIN, MONOSODIUM GLUTAMATE FREEZE DRIED SHRIMP, CITRIC ACID, HYDROLYZED CORN, WHEAT AND SOY PROTEIN, DEHYDRATED SOY SAUCE (WHEAT, SOYBEANS, SALT), YEAST EXTRACT, NATURAL FLAVORS, SPICES, CARAMEL COLOR, POTASSIUM CARBONATE, SODIUM (MONO, HEXAMETA, AND/OR TRIPOLY) PHOSPHATE, SESAME OIL, SODIUM CARBONATE, LIME POWDER, DISODIUM INOSINATE, DISODIUM GUANYLATE, CHICKEN BROTH, SOYA LECITHIN, LACTOSE, TURMERIC." Date available: 07/14/2017 Date last updated by company: 07/14/2017
