Source: USDA Branded Food Products Database Release December 2017 Software v.3.8.6.4 2017-10-02
Report Run at: December 18, 2017 11:56 EST
"Nutrient data for: 45229800, INSTANT BOUILLON, UPC: 07078425402"
Food Group:  Branded Food Products Database
Common Name:

Nutrient,Unit,Data points,Std. Error,"1 tsp = 4.0g",1Value per 100 g,
Proximates
"Energy",kcal,--,--,5,125
"Protein",g,--,--,0.00,0.00
"Total lipid (fat)",g,--,--,0.00,0.00
"Carbohydrate, by difference",g,--,--,1.00,25.00
"Fiber, total dietary",g,--,--,0.0,0.0
"Sugars, total",g,--,--,1.00,25.00
Minerals
"Calcium, Ca",mg,--,--,0,0
"Iron, Fe",mg,--,--,0.00,0.00
"Sodium, Na",mg,--,--,970,24250
Vitamins
"Vitamin C, total ascorbic acid",mg,--,--,0.0,0.0
"Vitamin A, IU",IU,--,--,0,0
Lipids
"Fatty acids, total saturated",g,--,--,0.000,0.000
"Fatty acids, total trans",g,--,--,0.000,0.000
"Cholesterol",mg,--,--,0,0
Amino Acids
Other
Ingredients
"SALT, SUGAR, CORN SYRUP SOLIDS, HYDROLYZED SOY PROTEIN, MONOSODIUM GLUTAMATE, CONTAINS LESS THAN 2% OF: YEAST EXTRACT, ONION POWDER, CARAMEL COLOR (CONTAINS SULFITES), SPICES, SILICON DIOXIDE (ANTI-CAKING AGENT), SUNFLOWER OIL, GARLIC POWDER, CITRIC ACID." Date available: 07/14/2017 Date last updated by company: 07/14/2017
