Source: USDA Branded Food Products Database Release December 2017 Software v.3.8.6.4 2017-10-02
Report Run at: December 18, 2017 12:19 EST
"Nutrient data for: 45090010, INTERNATIONAL PASSPORT SPECIALTIES, ARTICHOKE PESTO, UPC: 728119098267"
Food Group:  Branded Food Products Database
Common Name:

Nutrient,Unit,Data points,Std. Error,"30.0 GRM = 30.0g",1Value per 100 g,
Proximates
"Energy",kcal,--,--,50,167
"Protein",g,--,--,1.00,3.33
"Total lipid (fat)",g,--,--,5.00,16.67
"Carbohydrate, by difference",g,--,--,2.00,6.67
"Fiber, total dietary",g,--,--,1.0,3.3
"Sugars, total",g,--,--,1.00,3.33
Minerals
"Calcium, Ca",mg,--,--,20,67
"Iron, Fe",mg,--,--,0.36,1.20
"Sodium, Na",mg,--,--,300,1000
Vitamins
"Vitamin C, total ascorbic acid",mg,--,--,1.2,4.0
"Vitamin A, IU",IU,--,--,200,667
Lipids
"Fatty acids, total saturated",g,--,--,0.501,1.670
"Fatty acids, total trans",g,--,--,0.000,0.000
"Cholesterol",mg,--,--,0,0
Amino Acids
Other
Ingredients
"ARTICHOKE HEARTS, SUNFLOWER OIL, WHITE WINE VINEGAR, GARLIC, SALT, BASIL, CITRIC ACID AND ASCORBIC ACID." Date available: 06/25/2017 Date last updated by company: 06/25/2017
