Source: USDA Branded Food Products Database Release December 2017 Software v.3.8.6.4 2017-10-02
Report Run at: December 18, 2017 12:26 EST
"Nutrient data for: 45235163, ISABEL, VEGETABLE MEDLEY WITH CHUNK LIGHT TUNA, UPC: 8410111903800"
Food Group:  Branded Food Products Database
Common Name:

Nutrient,Unit,Data points,Std. Error,"3.0 ONZ = 85.0g",1Value per 100 g,
Proximates
"Energy",kcal,--,--,82,96
"Protein",g,--,--,4.00,4.71
"Total lipid (fat)",g,--,--,4.00,4.71
"Carbohydrate, by difference",g,--,--,6.00,7.06
"Fiber, total dietary",g,--,--,2.0,2.4
"Sugars, total",g,--,--,4.00,4.71
Minerals
"Calcium, Ca",mg,--,--,20,24
"Iron, Fe",mg,--,--,0.42,0.50
"Sodium, Na",mg,--,--,280,329
Vitamins
"Vitamin C, total ascorbic acid",mg,--,--,1.4,1.7
"Vitamin A, IU",IU,--,--,353,415
Lipids
"Fatty acids, total saturated",g,--,--,1.003,1.180
"Fatty acids, total trans",g,--,--,0.000,0.000
"Cholesterol",mg,--,--,17,20
Amino Acids
Other
Ingredients
"MIX OF VEGETABLES (68%): CARROT, RED PEPPER, ONION AND PEAS; TUNE (18%), OLIVE OIL (3%), SUNFLOWER OIL, VINEGAR, WATER, SUGAR, SALT AND NATURAL FLAVORS." Date available: 10/13/2017 Date last updated by company: 10/13/2017
