Source: USDA Branded Food Products Database Release December 2017 Software v.3.8.6.4 2017-10-02
Report Run at: December 18, 2017 12:26 EST
"Nutrient data for: 45081957, ISLAND GRILL SAUCE, UPC: 654367044612"
Food Group:  Branded Food Products Database
Common Name:

Nutrient,Unit,Data points,Std. Error,"1.5 ONZ = 44.0g",1Value per 100 g,
Proximates
"Energy",kcal,--,--,30,68
"Protein",g,--,--,1.00,2.27
"Total lipid (fat)",g,--,--,1.00,2.27
"Carbohydrate, by difference",g,--,--,5.00,11.36
"Fiber, total dietary",g,--,--,1.0,2.3
"Sugars, total",g,--,--,2.00,4.55
Minerals
"Calcium, Ca",mg,--,--,20,45
"Iron, Fe",mg,--,--,0.72,1.64
"Sodium, Na",mg,--,--,180,409
Vitamins
"Vitamin C, total ascorbic acid",mg,--,--,4.8,10.9
"Vitamin A, IU",IU,--,--,100,227
Lipids
"Fatty acids, total saturated",g,--,--,0.000,0.000
"Fatty acids, total trans",g,--,--,0.000,0.000
"Cholesterol",mg,--,--,0,0
Amino Acids
Other
Ingredients
"TOMATOES (PEELED GROUND TOMATOES, TOMATO PUREE, SALT, CITRIC ACID), WATER, ONION, TAMARIND PASTE, SUGAR CANE JUICE AND MOLASSES, OLIVE OIL, GINGER, GARLIC, SEA SALT, TURMERIC, CILANTRO, SPICES, MUSTARD SEEDS, PAPRIKA, JALAPENO PEPPER, XANTHAN GUM (NATURAL THICKENER)." Date available: 06/25/2017 Date last updated by company: 06/25/2017
