Source: USDA Branded Food Products Database Release December 2017 Software v.3.8.6.4 2017-10-02
Report Run at: December 18, 2017 12:28 EST
"Nutrient data for: 45001753, ISRAELI COUSCOUS, UPC: 5051379028930"
Food Group:  Branded Food Products Database
Common Name:

Nutrient,Unit,Data points,Std. Error,"0.25 cup = 56.0g",1Value per 100 g,
Proximates
"Energy",kcal,--,--,200,357
"Protein",g,--,--,7.00,12.50
"Total lipid (fat)",g,--,--,0.00,0.00
"Carbohydrate, by difference",g,--,--,42.00,75.00
"Fiber, total dietary",g,--,--,3.0,5.4
"Sugars, total",g,--,--,0.00,0.00
Minerals
"Calcium, Ca",mg,--,--,20,36
"Iron, Fe",mg,--,--,1.08,1.93
"Sodium, Na",mg,--,--,450,804
Vitamins
"Vitamin C, total ascorbic acid",mg,--,--,12.0,21.4
"Vitamin A, IU",IU,--,--,300,536
Lipids
"Fatty acids, total saturated",g,--,--,0.00,0.00
"Fatty acids, total trans",g,--,--,0.00,0.00
"Cholesterol",mg,--,--,0,0
Amino Acids
Other
Ingredients
"ISRAELI COUSCOUS, ONION POWDER, SEA SALT, DEHYDRATED GARLIC, MALTODEXTRIN, DEHYDRATED TOMATO, PARSLEY, LEMON JUICE SOLIDS, RED BELL PEPPER, CORN SYRUP SOLIDS, SALT, SPICES, CITRIC ACID, YEAST EXTRACT, TURMERIC, SOYBEAN OIL, ANNATTO, NATURAL FLAVORS, SAFFRON, CONTAINS 2% OR LESS OF SILICON DIOXIDE (TO PREVENT CAKING)." Date last updated by company: 01/10/2014
