Source: USDA Branded Food Products Database Release December 2017 Software v.3.8.6.4 2017-10-02
Report Run at: December 18, 2017 12:33 EST
"Nutrient data for: 45289459, ITALIAN COOKOUT, UPC: 075192001081"
Food Group:  Branded Food Products Database
Common Name:

Nutrient,Unit,Data points,Std. Error,"2.0 INCHES = 64.0g",1Value per 100 g,
Proximates
"Energy",kcal,--,--,160,250
"Protein",g,--,--,7.00,10.94
"Total lipid (fat)",g,--,--,1.50,2.34
"Carbohydrate, by difference",g,--,--,29.00,45.31
"Fiber, total dietary",g,--,--,1.0,1.6
"Sugars, total",g,--,--,1.00,1.56
Minerals
"Calcium, Ca",mg,--,--,150,234
"Iron, Fe",mg,--,--,1.41,2.20
"Sodium, Na",mg,--,--,310,484
Vitamins
"Vitamin C, total ascorbic acid",mg,--,--,2.8,4.4
"Thiamin",mg,--,--,0.000,0.000
"Riboflavin",mg,--,--,0.132,0.207
"Niacin",mg,--,--,1.562,2.441
"Vitamin A, IU",IU,--,--,0,0
Lipids
"Fatty acids, total saturated",g,--,--,0.000,0.000
"Fatty acids, total trans",g,--,--,0.000,0.000
"Cholesterol",mg,--,--,0,0
Amino Acids
Other
Ingredients
"UNBLEACHED ENRICHED FLOUR (WHEAT FLOUR, MALTED BARLEY FLOUR, NIACIN, REDUCED IRON, THIAMINE, MONONITRATE, RIBOFLAVIN, FOLIC ACID), WATER, YEAST, WHEAT GLUTEN, FULLY REFINED SOYBEAN OIL, SALT, CALCIUM PROPIONATE (TO RETAIN FRESHNESS), GRANULATED SUGAR, DOUGH IMPROVER (MALTED WHEAT FLOUR, ENZYMES AND 2% OR LESS OF ASCORBIC ACID), CALCIUM SULFATE, ENZYMES." Date available: 07/14/2017 Date last updated by company: 07/14/2017
