Source: USDA Branded Food Products Database Release December 2017 Software v.3.8.6.4 2017-10-02
Report Run at: December 18, 2017 12:38 EST
"Nutrient data for: 45282806, ITALIAN DRESSING, UPC: 026700683541"
Food Group:  Branded Food Products Database
Common Name:

Nutrient,Unit,Data points,Std. Error,"1 PACKAGE = 42.5g",1Value per 100 g,
Proximates
"Energy",kcal,--,--,40,94
"Protein",g,--,--,0.00,0.00
"Total lipid (fat)",g,--,--,0.00,0.00
"Carbohydrate, by difference",g,--,--,10.00,23.53
"Fiber, total dietary",g,--,--,0.0,0.0
"Sugars, total",g,--,--,3.00,7.06
Minerals
"Calcium, Ca",mg,--,--,0,0
"Iron, Fe",mg,--,--,0.00,0.00
"Sodium, Na",mg,--,--,450,1059
Vitamins
"Vitamin C, total ascorbic acid",mg,--,--,1.2,2.8
"Vitamin A, IU",IU,--,--,500,1176
Lipids
"Fatty acids, total saturated",g,--,--,0.000,0.000
"Fatty acids, total trans",g,--,--,0.000,0.000
"Cholesterol",mg,--,--,0,0
Amino Acids
Other
Ingredients
"WATER, DISTILLED VINEGAR, MALTODEXTRIN, CORN SYRUP**, SUGAR, SALT, FOOD STARCH-MODIFIED, CONTAINS LESS THAN 2% OF ONION**, GARLIC**, RED BELL PEPPERS**, SPICES, XANTHAN GUM, SODIUM BENZOATE AND POTASSIUM SORBATE (AS PRESERVATIVES), CALCIUM DISODIUM EDTA ADDED TO PROTECT FLAVOR, DIMETHYLPOLYSILOXANE, AN ANTI-FOAMING AGENT ADDED, YELLOW 5, YELLOW 6." Date available: 07/14/2017 Date last updated by company: 07/14/2017
