Source: USDA Branded Food Products Database Release December 2017 Software v.3.8.6.4 2017-10-02
Report Run at: December 18, 2017 12:29 EST
"Nutrient data for: 45171879, ITALIAN BREAD, UPC: 021130116447"
Food Group:  Branded Food Products Database
Common Name:

Nutrient,Unit,Data points,Std. Error,"1 SLICE = 45.0g",1Value per 100 g,
Proximates
"Energy",kcal,--,--,120,267
"Protein",g,--,--,4.00,8.89
"Total lipid (fat)",g,--,--,0.00,0.00
"Carbohydrate, by difference",g,--,--,24.00,53.33
"Fiber, total dietary",g,--,--,1.0,2.2
"Sugars, total",g,--,--,0.00,0.00
Minerals
"Calcium, Ca",mg,--,--,0,0
"Iron, Fe",mg,--,--,1.60,3.56
"Sodium, Na",mg,--,--,250,556
Vitamins
"Vitamin C, total ascorbic acid",mg,--,--,0.0,0.0
"Vitamin A, IU",IU,--,--,0,0
Lipids
"Fatty acids, total saturated",g,--,--,0.000,0.000
"Fatty acids, total trans",g,--,--,0.000,0.000
"Cholesterol",mg,--,--,0,0
Amino Acids
Other
Ingredients
"ENRICHED UNBLEACHED FLOUR (WHEAT FLOUR, MALTED BARLEY FLOUR, NIACIN, IRON, THIAMINE MONONITRATE, RIBOFLAVIN, FOLIC ACID), WATER, DATEM, SOYBEAN OIL, ASCORBIC ACID, SALT, YEAST." Date available: 07/14/2017 Date last updated by company: 07/14/2017
