Source: USDA Branded Food Products Database Release December 2017 Software v.3.8.6.4 2017-10-02
Report Run at: December 18, 2017 12:56 EST
"Nutrient data for: 45109212, ITALIAN STYLE DELICIOUS, WHOLESOME BREAD, UPC: 076057005961"
Food Group:  Branded Food Products Database
Common Name:

Nutrient,Unit,Data points,Std. Error,"1 SLICE = 28.0g",1Value per 100 g,
Proximates
"Energy",kcal,--,--,80,286
"Protein",g,--,--,3.00,10.71
"Total lipid (fat)",g,--,--,0.50,1.79
"Carbohydrate, by difference",g,--,--,15.00,53.57
"Fiber, total dietary",g,--,--,1.0,3.6
"Sugars, total",g,--,--,2.00,7.14
Minerals
"Calcium, Ca",mg,--,--,40,143
"Iron, Fe",mg,--,--,1.93,6.88
"Sodium, Na",mg,--,--,150,536
Vitamins
"Vitamin C, total ascorbic acid",mg,--,--,0.0,0.0
"Thiamin",mg,--,--,0.280,1.000
"Riboflavin",mg,--,--,0.182,0.650
"Niacin",mg,--,--,1.428,5.100
"Vitamin A, IU",IU,--,--,0,0
Lipids
"Fatty acids, total saturated",g,--,--,0.000,0.000
"Fatty acids, total trans",g,--,--,0.000,0.000
"Cholesterol",mg,--,--,0,0
Amino Acids
Other
Ingredients
"ENRICHED UNBLEACHED FLOUR (WHEAT FLOUR, MALTED BARLEY FLOUR, NIACIN, REDUCED IRON, THIAMINE MONONITRATE, RIBOFLAVIN, FOLIC ACID), WATER, YEAST, GRANULATED SUGAR, CONTAINS LESS THAN 2% OF EACH OF THE FOLLOWING: WHEAT GLUTEN, SOYBEAN OIL, SALT, VINEGAR, WHITE RYE FLOUR, POTATO FLOUR, BLEACHED OAT FIBER, DOUGH CONDITIONERS (MONOGLYCERIDES, SODIUM STEAROYL LACTYLATE, ASCORBIC ACID, CALCIUM SULFATE, ENZYMES), MONOCALCIUM PHOSPHATE, CALCIUM PROPIONATE (PRESERVATIVE)." Date available: 07/14/2017 Date last updated by company: 07/14/2017
