Source: USDA Branded Food Products Database Release December 2017 Software v.3.8.6.4 2017-10-02
Report Run at: December 18, 2017 12:57 EST
"Nutrient data for: 45088179, ITALIAN-STYLE ENTREES MEAT SAUCE GEMELLI, UPC: 076808002515"
Food Group:  Branded Food Products Database
Common Name:

Nutrient,Unit,Data points,Std. Error,"1 TRAY = 255.0g",1Value per 100 g,
Proximates
"Energy",kcal,--,--,319,125
"Protein",g,--,--,14.00,5.49
"Total lipid (fat)",g,--,--,3.49,1.37
"Carbohydrate, by difference",g,--,--,63.01,24.71
"Fiber, total dietary",g,--,--,6.1,2.4
"Sugars, total",g,--,--,5.00,1.96
Minerals
"Calcium, Ca",mg,--,--,41,16
"Iron, Fe",mg,--,--,1.40,0.55
"Sodium, Na",mg,--,--,500,196
Vitamins
"Vitamin C, total ascorbic acid",mg,--,--,3.6,1.4
"Vitamin A, IU",IU,--,--,490,192
Lipids
"Fatty acids, total saturated",g,--,--,0.995,0.390
"Fatty acids, total trans",g,--,--,0.000,0.000
"Cholesterol",mg,--,--,10,4
Amino Acids
Other
Ingredients
"COOKED GEMELLI PASTA (WATER, GEMELLI PASTA [SEMOLINA (WHEAT), DURUM WHEAT FLOUR], OLIVE OIL, SUNFLOWER OIL, SALT, NATURAL FLAVOR), MEAT SAUCE (TOMATO PUREE [WATER, TOMATO PASTE], DICED TOMATOES [TOMATOES, CITRIC ACID], ONION PUREE, COOKED GROUND BEEF, COOKED GROUND PORK, CARROT PUREE, CELERY PUREE, TAPIOCA STARCH, SUGAR, GARLIC, OLIVE OIL, WHITE WINE, SUNFLOWER OIL, BEEF FLAVOR [WATER, BEEF STOCK, FLAVOR, SALT, LACTIC ACID, BEEF FAT, SUGAR, XANTHAN GUM], SALT, GARLIC PUREE, BASIL, OREGANO, BLACK PEPPER)." Date available: 07/14/2017 Date last updated by company: 07/14/2017
