Source: USDA Branded Food Products Database Release December 2017 Software v.3.8.6.4 2017-10-02
Report Run at: December 18, 2017 12:43 EST
"Nutrient data for: 45213037, ITALIAN KITCHEN TO GO PIZZA, UPC: 20012458"
Food Group:  Branded Food Products Database
Common Name:

Nutrient,Unit,Data points,Std. Error,"0.333 PIZZA = 151.0g",1Value per 100 g,
Proximates
"Energy",kcal,--,--,340,225
"Protein",g,--,--,16.01,10.60
"Total lipid (fat)",g,--,--,14.99,9.93
"Carbohydrate, by difference",g,--,--,38.01,25.17
"Fiber, total dietary",g,--,--,2.0,1.3
"Sugars, total",g,--,--,3.00,1.99
Minerals
"Calcium, Ca",mg,--,--,149,99
"Iron, Fe",mg,--,--,3.49,2.31
"Sodium, Na",mg,--,--,781,517
Vitamins
"Vitamin C, total ascorbic acid",mg,--,--,11.6,7.7
"Vitamin A, IU",IU,--,--,258,171
Lipids
"Fatty acids, total saturated",g,--,--,4.500,2.980
"Fatty acids, total trans",g,--,--,0.000,0.000
"Cholesterol",mg,--,--,26,17
Amino Acids
Other
Ingredients
"CRUST [ENRICHED WHEAT FLOUR (WHEAT FLOUR, NIACIN, REDUCED IRON, THIAMIN MONONITRATE, RIBOFLAVIN, FOLIC ACID, MALTED BARLEY, ASCORBIC ACID), WATER, SOYBEAN OIL, YEAST, CONTAINS 2% OR LESS OF: SUGAR, SALT, NON FAT DRY MILK, MALTED BARLEY, DEXTROSE], MOZZARELLA CHEESE (PASTEURIZED MILK, CHEESE CULTURES, SALT, ENZYMES, MODIFIED CORN STARCH, POWDERED CELLULOSE, NONFAT MILK, WHEY PROTEIN CONCENTRATE, FLAVORS, SODIUM CITRATE, SODIUM PROPIONATE), SAUSAGE (PORK, WATER, SPICES, SALT, CORN SYRUP SOLID, PAPRIKA, GARLIC, CARAMEL COLOR, SUGAR, NATURAL FLAVOR), MUSHROOM, GREEN BELL PEPPER, WATER, TOMATO PASTE, PEPPERONI (PORK, SALT, CANE SUGAR, NATURAL FLAVOR, CELERY POWDER, SPICES, LACTIC ACID STARTER CULTURE, PAPRIKA OLEORESIN), TOMATO, SUGAR, TOMATO JUICE, OLIVE OIL, ONION, CORN STARCH, GARLIC PUREE, SPICES, SALT, CALCIUM CHLORIDE." Date available: 07/14/2017 Date last updated by company: 07/14/2017
