Source: USDA Branded Food Products Database Release December 2017 Software v.3.8.6.4 2017-10-02
Report Run at: December 18, 2017 13:02 EST
"Nutrient data for: 45055346, ITALIAN STYLE PANKO BREAD CRUMBS, UPC: 041497568123"
Food Group:  Branded Food Products Database
Common Name:

Nutrient,Unit,Data points,Std. Error,"0.5 cup = 28.0g",1Value per 100 g,
Proximates
"Energy",kcal,--,--,110,393
"Protein",g,--,--,3.00,10.71
"Total lipid (fat)",g,--,--,3.50,12.50
"Carbohydrate, by difference",g,--,--,17.00,60.71
"Fiber, total dietary",g,--,--,1.0,3.6
"Sugars, total",g,--,--,0.00,0.00
Minerals
"Calcium, Ca",mg,--,--,0,0
"Iron, Fe",mg,--,--,1.93,6.88
"Sodium, Na",mg,--,--,350,1250
Vitamins
"Vitamin C, total ascorbic acid",mg,--,--,0.0,0.0
"Vitamin A, IU",IU,--,--,0,0
Lipids
"Fatty acids, total saturated",g,--,--,0.000,0.000
"Fatty acids, total trans",g,--,--,0.000,0.000
"Cholesterol",mg,--,--,0,0
Amino Acids
Other
Ingredients
"WHEAT FLOUR BLEACHED, CANOLA OIL, ROASTED GARLIC, SALT, SPICES, NATURAL FLAVORS, YEAST, ONION POWDER, OREGANO, PAPRIKA, FENNEL, ANNATTO, CARAMEL COLOR, FRESHNESS PRESERVED BY ASCORBIC ACID." Date available: 06/24/2017 Date last updated by company: 06/24/2017
