Source: USDA Branded Food Products Database Release December 2017 Software v.3.8.6.4 2017-10-02
Report Run at: December 18, 2017 12:31 EST
"Nutrient data for: 45273382, ITALIAN BREAD, UPC: 708820088054"
Food Group:  Branded Food Products Database
Common Name:

Nutrient,Unit,Data points,Std. Error,"2.0 SLICES = 62.0g",1Value per 100 g,
Proximates
"Energy",kcal,--,--,170,274
"Protein",g,--,--,5.00,8.06
"Total lipid (fat)",g,--,--,2.50,4.03
"Carbohydrate, by difference",g,--,--,32.00,51.61
"Fiber, total dietary",g,--,--,1.0,1.6
"Sugars, total",g,--,--,2.00,3.23
Minerals
"Calcium, Ca",mg,--,--,60,97
"Iron, Fe",mg,--,--,2.18,3.51
"Sodium, Na",mg,--,--,320,516
Vitamins
"Vitamin C, total ascorbic acid",mg,--,--,0.0,0.0
"Thiamin",mg,--,--,0.000,0.000
"Riboflavin",mg,--,--,0.170,0.274
"Niacin",mg,--,--,2.420,3.903
"Vitamin A, IU",IU,--,--,0,0
Lipids
"Fatty acids, total saturated",g,--,--,0.000,0.000
"Fatty acids, total monounsaturated",g,--,--,0.000,0.000
"Fatty acids, total polyunsaturated",g,--,--,0.998,1.610
"Fatty acids, total trans",g,--,--,0.000,0.000
"Cholesterol",mg,--,--,0,0
Amino Acids
Other
Ingredients
"ENRICHED UNBLEACHED FLOUR [WHEAT FLOUR, MALTED BARLEY FLOUR, REDUCED IRON, THIAMINE MONONITRATE (VITAMIN B1), RIBOFLAVIN (VITAMIN B2), NIACIN (VITAMIN B3), FOLIC ACID], WATER, YEAST, HIGH FRUCTOSE CORN SYRUP. SOYBEAN OIL, SALT, WHEAT GLUTEN, MONOGLYCERIDES, SWEET DAIRY WHEY, CORN SYRUP SOLIDS, SODIUM STEAROYL LACTYLATE, CALCIUM PROPIONATE ( A PRESERVATIVE), CORN FLOUR, MALT EXTRACT, CORN STARCH, LACTIC ACID, CITRIC ACID, MONOCALCIUM PHOSPHATE, ACETIC ACID, CALCIUM SULFATE, ASCORBIC ACID, SOY LECITHIN; TOPPED WITH SESAME SEEDS." Date available: 07/14/2017 Date last updated by company: 07/14/2017
