Source: USDA Branded Food Products Database Release December 2017 Software v.3.8.6.4 2017-10-02
Report Run at: December 18, 2017 12:43 EST
"Nutrient data for: 45192684, ITALIAN ICE, UPC: 815294000212"
Food Group:  Branded Food Products Database
Common Name:

Nutrient,Unit,Data points,Std. Error,"1 cup = 6.0g",1Value per 100 g,
Proximates
"Energy",kcal,--,--,4,61
"Protein",g,--,--,0.00,0.00
"Total lipid (fat)",g,--,--,0.00,0.00
"Carbohydrate, by difference",g,--,--,0.93,15.56
"Fiber, total dietary",g,--,--,0.0,0.0
"Sugars, total",g,--,--,0.73,12.22
Minerals
"Calcium, Ca",mg,--,--,0,0
"Iron, Fe",mg,--,--,0.00,0.00
"Sodium, Na",mg,--,--,0,6
Vitamins
"Vitamin C, total ascorbic acid",mg,--,--,0.0,0.0
"Vitamin A, IU",IU,--,--,0,0
Lipids
"Fatty acids, total saturated",g,--,--,0.000,0.000
"Fatty acids, total trans",g,--,--,0.000,0.000
"Cholesterol",mg,--,--,0,0
Amino Acids
Other
Ingredients
"RASPBERRY LEMON INGREDIENTS: WATER, HIGH FRUCTOSE CORN SYRUP, CORN SYRUP, SUGAR, NATURAL AND ARTIFICIAL FLAVORS, RED #40, CITRIC ACID, DEXTROSE, LECITHIN (SOY), GUAR GUM, XANTHAN GUM, CARRAGEENAN, MALIC ACID, LEMON JUICE WITH ADDED LEMON OIL. STRAWBERRY LEMON INGREDIENTS: WATER, HIGH FRUCTOSE CORN SYRUP, CORN SYRUP, SUGAR, STRAWBERRY PUREE, NATURAL FLAVORS, CITRIC ACID, DEXTROSE, LECITHIN (SOY), GUAR GUM, XANTHAN GUM, CARRAGEENAN, MALIC ACID, RED #40, BLUE #1." Date available: 07/14/2017 Date last updated by company: 07/14/2017
