Source: USDA Branded Food Products Database Release December 2017 Software v.3.8.6.4 2017-10-02
Report Run at: December 18, 2017 12:29 EST
"Nutrient data for: 45267409, ITALIAN BREADSTICKS, UPC: 619309001344"
Food Group:  Branded Food Products Database
Common Name:

Nutrient,Unit,Data points,Std. Error,"3.0 BREADSTICKS = 15.0g",1Value per 100 g,
Proximates
"Energy",kcal,--,--,65,433
"Protein",g,--,--,2.00,13.33
"Total lipid (fat)",g,--,--,2.00,13.33
"Carbohydrate, by difference",g,--,--,10.00,66.67
"Fiber, total dietary",g,--,--,0.0,0.0
"Sugars, total",g,--,--,1.00,6.67
Minerals
"Calcium, Ca",mg,--,--,0,0
"Iron, Fe",mg,--,--,0.00,0.00
"Sodium, Na",mg,--,--,140,933
Vitamins
"Vitamin C, total ascorbic acid",mg,--,--,0.0,0.0
"Vitamin A, IU",IU,--,--,0,0
Lipids
"Fatty acids, total saturated",g,--,--,0.701,4.670
"Fatty acids, total trans",g,--,--,0.000,0.000
"Cholesterol",mg,--,--,0,0
Amino Acids
Other
Ingredients
"WHEAT FLOUR, PALM OIL, MALT EXTRACT (BARLEY, CORN), SALT, YEAST, GARLIC (0.6%), BASIL (0.2%)." Date available: 07/14/2017 Date last updated by company: 07/14/2017
