Source: USDA Branded Food Products Database Release December 2017 Software v.3.8.6.4 2017-10-02
Report Run at: December 18, 2017 12:47 EST
"Nutrient data for: 45198914, ITALIAN SAUSAGE PATTIES, UPC: 083287301060"
Food Group:  Branded Food Products Database
Common Name:

Nutrient,Unit,Data points,Std. Error,"1 PATTY = 112.0g",1Value per 100 g,
Proximates
"Energy",kcal,--,--,310,277
"Protein",g,--,--,18.00,16.07
"Total lipid (fat)",g,--,--,26.00,23.21
"Carbohydrate, by difference",g,--,--,0.00,0.00
"Fiber, total dietary",g,--,--,0.0,0.0
"Sugars, total",g,--,--,0.00,0.00
Minerals
"Calcium, Ca",mg,--,--,20,18
"Iron, Fe",mg,--,--,0.55,0.49
"Sodium, Na",mg,--,--,909,812
Vitamins
"Vitamin C, total ascorbic acid",mg,--,--,0.0,0.0
"Vitamin A, IU",IU,--,--,0,0
Lipids
"Fatty acids, total saturated",g,--,--,9.005,8.040
"Fatty acids, total trans",g,--,--,0.000,0.000
"Cholesterol",mg,--,--,75,67
Amino Acids
Other
Ingredients
"PORK WATER, VINEGAR, SALT, FLAVORINGS, EXTRACT OF PAPRIKA." Date available: 07/14/2017 Date last updated by company: 07/14/2017
