Source: USDA Branded Food Products Database Release December 2017 Software v.3.8.6.4 2017-10-02
Report Run at: December 18, 2017 12:58 EST
"Nutrient data for: 45286857, ITALIAN STYLE GRILLED PANINI, UPC: 052083481412"
Food Group:  Branded Food Products Database
Common Name:

Nutrient,Unit,Data points,Std. Error,"1 PANINI = 170.0g",1Value per 100 g,
Proximates
"Energy",kcal,--,--,510,300
"Protein",g,--,--,24.00,14.12
"Total lipid (fat)",g,--,--,25.01,14.71
"Carbohydrate, by difference",g,--,--,46.00,27.06
"Fiber, total dietary",g,--,--,2.0,1.2
"Sugars, total",g,--,--,5.00,2.94
Minerals
"Calcium, Ca",mg,--,--,201,118
"Iron, Fe",mg,--,--,1.80,1.06
"Sodium, Na",mg,--,--,1540,906
Vitamins
"Vitamin C, total ascorbic acid",mg,--,--,6.0,3.5
"Vitamin A, IU",IU,--,--,100,59
Lipids
"Fatty acids, total saturated",g,--,--,9.996,5.880
"Fatty acids, total trans",g,--,--,0.000,0.000
"Cholesterol",mg,--,--,60,35
Amino Acids
Other
Ingredients
"DOUGH: ENRICHED UNBLEACHED WHEAT FLOUR (WHEAT FLOUR, NIACIN, IRON, THIAMINE MONONITRATE, RIBOFLAVIN, FOLIC ACID), WATER, SEMOLINA FLOUR (SEMOLINA [MILLED FROM DURUM WHEAT], NIACIN, FERROUS SULFATE, THIAMINE MONONITRATE, RIBOFLAVIN, FOLIC ACID), SOYBEAN OIL (WITH CITRIC ACID ADDED AS A PRESERVATIVE), SUGAR, FERMENTED WHEAT FLOUR, YEAST (YEAST, SORBITAN MONOSTEARATE, ASCORBIC ACID), SALT. FILLING: HAM (WATER ADDED, CURED WITH WATER, DEXTROSE, SALT, SODIUM PHOSPHATE, SODIUM ERYTHORBATE, SODIUM NITRITE), PROVOLONE CHEESE (PASTEURIZED MILK, CULTURES, SALT, ENZYMES), PEPPERONI (PORK, BEEF, SALT, CONTAINS 2% OR LESS OF WATER, PAPRIKA, DEXTROSE, NATURAL SPICES, SMOKE FLAVORING, LACTIC ACID STARTER CULTURE, SODIUM ASCORBATE [VITAMIN C], FLAVORING, GARLIC POWDER, SODIUM NITRITE, BHA, BHT, CITRIC ACID), SALAMI (BEEF AND PORK, SALT, CONTAINS 2% OR LESS OF DEXTROSE, WATER, NATURAL SPICES, GARLIC POWDER, LACTIC ACID STARTER CULTURE, SODIUM ASCORBATE, SODIUM NITRITE, BHA, BHT, CITRIC ACID), NATURAL CHEESE FLAVOR (CHEDDAR CHEESE, PARMESAN CHEESE, ROMANO CHEESE, MOZZARELLA CHEESE [PASTEURIZED MILK, CULTURES, SALT, ENZYMES], WHEY PROTEIN POWDER, MALTODEXTRIN, SALT). TOPPING: PARMESAN & ROMANO CHEESE BLEND (PARMESAN CHEESE [MADE FROM COW'S MILK, SALT, ENZYMES], ROMANO CHEESE [MADE FROM COW'S MILK, SALT, ENZYMES], POWDERED CELLULOSE/STARCH BLEND ADDED TO PREVENT CAKING), BREAD CRUMBS (BLEACHED FLOUR, WATER, VEGETABLE OIL [SOYBEAN OIL, COTTONSEED OIL, AND/OR CANOLA OIL], SALT, YEAST, CONTAINS 2% OR LESS OF THE FOLLOWING: SUGAR, DEXTROSE), PARSLEY, OREGANO." Date available: 07/14/2017 Date last updated by company: 07/14/2017
