Source: USDA Branded Food Products Database Release December 2017 Software v.3.8.6.4 2017-10-02
Report Run at: December 18, 2017 12:36 EST
"Nutrient data for: 45239533, ITALIAN DRESSING & MARINADE, UPC: 021130479443"
Food Group:  Branded Food Products Database
Common Name:

Nutrient,Unit,Data points,Std. Error,"2.0 Tbsp = 30.0g",1Value per 100 g,
Proximates
"Energy",kcal,--,--,70,233
"Protein",g,--,--,0.00,0.00
"Total lipid (fat)",g,--,--,6.00,20.00
"Carbohydrate, by difference",g,--,--,4.00,13.33
"Fiber, total dietary",g,--,--,0.0,0.0
"Sugars, total",g,--,--,4.00,13.33
Minerals
"Calcium, Ca",mg,--,--,0,0
"Iron, Fe",mg,--,--,0.00,0.00
"Sodium, Na",mg,--,--,300,1000
Vitamins
"Vitamin C, total ascorbic acid",mg,--,--,0.0,0.0
"Vitamin A, IU",IU,--,--,0,0
Lipids
"Fatty acids, total saturated",g,--,--,0.999,3.330
"Fatty acids, total trans",g,--,--,0.000,0.000
"Cholesterol",mg,--,--,0,0
Amino Acids
Other
Ingredients
"WATER, SOYBEAN OIL, DISTILLED VINEGAR, SUGAR, SALT, LESS THAN 2% ONION*, GARLIC*, RED BELL PEPPERS*, SPICES, XANTHAN GUM, YEAST EXTRACT, OLEORESIN PAPRIKA (COLOR), CONCENTRATED LEMON JUICE, CALCIUM DISODIUM EDTA (USED TO PROTECT QUALITY), ANNATTO EXTRACT (COLOR). *DRIED." Date available: 06/24/2017 Date last updated by company: 06/24/2017
