Source: USDA Branded Food Products Database Release December 2017 Software v.3.8.6.4 2017-10-02
Report Run at: December 18, 2017 12:50 EST
"Nutrient data for: 45278673, ITALIAN SAUSAGE, UPC: 018894329275"
Food Group:  Branded Food Products Database
Common Name:

Nutrient,Unit,Data points,Std. Error,"1 PAN FRIED PATTY = 85.0g",1Value per 100 g,
Proximates
"Energy",kcal,--,--,270,318
"Protein",g,--,--,18.00,21.18
"Total lipid (fat)",g,--,--,20.00,23.53
"Carbohydrate, by difference",g,--,--,4.00,4.71
"Fiber, total dietary",g,--,--,0.0,0.0
"Sugars, total",g,--,--,3.00,3.53
Minerals
"Calcium, Ca",mg,--,--,20,24
"Iron, Fe",mg,--,--,0.47,0.55
"Sodium, Na",mg,--,--,890,1047
Vitamins
"Vitamin C, total ascorbic acid",mg,--,--,0.0,0.0
"Vitamin A, IU",IU,--,--,129,152
Lipids
"Fatty acids, total saturated",g,--,--,7.004,8.240
"Fatty acids, total trans",g,--,--,0.000,0.000
"Cholesterol",mg,--,--,70,82
Amino Acids
Other
Ingredients
"PORK, DEXTROSE, SALT, WATER, CORN SYRUP, PAPRIKA, SPICES (INCLUDING RED PEPPER AND FENNEL), EXTRACTIVES OF PAPRIKA NATURAL FLAVORS." Date available: 07/14/2017 Date last updated by company: 07/14/2017
