Source: USDA Branded Food Products Database Release December 2017 Software v.3.8.6.4 2017-10-02
Report Run at: December 18, 2017 12:53 EST
"Nutrient data for: 45100488, ITALIAN SPECIAL RECIPE BREAD, UPC: 024126008955"
Food Group:  Branded Food Products Database
Common Name:

Nutrient,Unit,Data points,Std. Error,"2.0 SLICES = 41.0g",1Value per 100 g,
Proximates
"Energy",kcal,--,--,70,171
"Protein",g,--,--,4.00,9.76
"Total lipid (fat)",g,--,--,0.50,1.22
"Carbohydrate, by difference",g,--,--,17.00,41.46
"Fiber, total dietary",g,--,--,4.0,9.8
"Sugars, total",g,--,--,2.00,4.88
Minerals
"Calcium, Ca",mg,--,--,80,195
"Iron, Fe",mg,--,--,2.20,5.36
"Sodium, Na",mg,--,--,135,329
Vitamins
"Vitamin C, total ascorbic acid",mg,--,--,0.0,0.0
"Thiamin",mg,--,--,0.000,0.000
"Riboflavin",mg,--,--,0.102,0.249
"Niacin",mg,--,--,1.464,3.571
"Vitamin A, IU",IU,--,--,0,0
Lipids
"Fatty acids, total saturated",g,--,--,0.000,0.000
"Fatty acids, total monounsaturated",g,--,--,0.000,0.000
"Fatty acids, total polyunsaturated",g,--,--,0.000,0.000
"Fatty acids, total trans",g,--,--,0.000,0.000
"Cholesterol",mg,--,--,0,0
Amino Acids
Other
Ingredients
"WATER, UNBLEACHED ENRICHED WHEAT FLOUR [FLOUR, BARLEY MALT, NIACIN (VITAMIN B3), IRON THIAMIN MONONITRATE (VITAMIN B1), RIBOFLAVIN (VITAMIN B2), FOLIC ACID (VITAMIN B9)], SUGAR, SOY FIBER, WHEAT GLUTEN, YEAST, CONTAINS 2% OR LESS OF THE FOLLOWING: LACTIC ACID, PHOSPHORIC ACID AND ACETIC ACID, SALT, CALCIUM PROPIONATE (TO RETAIN FRESHNESS), FUMARIC ACID, DOUGH CONDITIONERS (MONOGLYCERIDES, SODIUM STEAROYL LACTYLATE, ETHOXYLATED MONO- AND DIGLYCERIDES, ASCORBIC ACID), YEAST NUTRIENTS (MONOCALCIUM PHOSPHATE, CALCIUM SULFATE, AMMONIUM SULFATE), SESAME SEEDS, WHEAT STARCH, SOY LECITHIN." Date available: 07/14/2017 Date last updated by company: 07/14/2017
