Source: USDA Branded Food Products Database Release December 2017 Software v.3.8.6.4 2017-10-02
Report Run at: December 18, 2017 12:31 EST
"Nutrient data for: 45265644, ITALIAN CHICKEN SAUSAGE, UPC: 041415241800"
Food Group:  Branded Food Products Database
Common Name:

Nutrient,Unit,Data points,Std. Error,"1 STOVETOP COOKED LINK = 70.0g",1Value per 100 g,
Proximates
"Energy",kcal,--,--,120,171
"Protein",g,--,--,16.00,22.86
"Total lipid (fat)",g,--,--,6.00,8.57
"Carbohydrate, by difference",g,--,--,1.00,1.43
"Fiber, total dietary",g,--,--,0.0,0.0
"Sugars, total",g,--,--,1.00,1.43
Minerals
"Calcium, Ca",mg,--,--,0,0
"Iron, Fe",mg,--,--,0.57,0.81
"Sodium, Na",mg,--,--,800,1143
Vitamins
"Vitamin C, total ascorbic acid",mg,--,--,0.0,0.0
"Vitamin A, IU",IU,--,--,0,0
Lipids
"Fatty acids, total saturated",g,--,--,1.498,2.140
"Fatty acids, total trans",g,--,--,0.000,0.000
"Cholesterol",mg,--,--,70,100
Amino Acids
Other
Ingredients
"CHICKEN, SODIUM LACTATE, SALT, SPICES (INCLUDING FENNEL & BLACK PEPPER), SUGAR, PAPRIKA, DEXTROSE, GARLIC POWDER, SPICE EXTRACTIVES, STUFFED IN HOG CASINGS." Date available: 07/14/2017 Date last updated by company: 07/14/2017
