Source: USDA Branded Food Products Database Release December 2017 Software v.3.8.6.4 2017-10-02
Report Run at: December 18, 2017 14:26 EST
"Nutrient data for: 45088472, J-E-S, KOREAN BARBEQUE SAUCE, UPC: 028093001247"
Food Group:  Branded Food Products Database
Common Name:

Nutrient,Unit,Data points,Std. Error,"1 Tbsp = 18.0g",1Value per 100 g,
Proximates
"Energy",kcal,--,--,35,194
"Protein",g,--,--,0.00,0.00
"Total lipid (fat)",g,--,--,0.00,0.00
"Carbohydrate, by difference",g,--,--,7.00,38.89
"Fiber, total dietary",g,--,--,0.0,0.0
"Sugars, total",g,--,--,4.00,22.22
Minerals
"Calcium, Ca",mg,--,--,0,0
"Iron, Fe",mg,--,--,0.00,0.00
"Sodium, Na",mg,--,--,340,1889
Vitamins
"Vitamin C, total ascorbic acid",mg,--,--,0.0,0.0
"Vitamin A, IU",IU,--,--,0,0
Lipids
"Fatty acids, total saturated",g,--,--,0.000,0.000
"Fatty acids, total trans",g,--,--,0.000,0.000
"Cholesterol",mg,--,--,0,0
Amino Acids
Other
Ingredients
"HIGH FRUCTOSE CORN SYRUP, WATER, SOY SAUCE (WATER, WHEAT, SOYBEANS, SALT), RED MISO PASTE (WATER, SOYBEANS, RICE, SALT, ALCOHOL), HOT PEPPER PASTE (WHEAT, SALT, MALT, WATER, RICE SYRUP, RED PEPPER POWDER, GARLIC, ONION, RICE FLOUR, ALCOHOL), DISTILLED VINEGAR, SESAME OIL, SALT, MODIFIED FOOD STARCH, GINGER POWDER, DEHYDRATED GARLIC, CRUSHED RED PEPPER, DEHYDRATED ONION, ROASTED SESAME SEEDS, BLACK PEPPER, NATURAL FLAVOR." Date available: 07/14/2017 Date last updated by company: 07/14/2017
