Source: USDA Branded Food Products Database Release December 2017 Software v.3.8.6.4 2017-10-02
Report Run at: December 18, 2017 14:31 EST
"Nutrient data for: 45156008, J. HIGGS, HONEY ROASTED PEANUTS, UPC: 051933051324"
Food Group:  Branded Food Products Database
Common Name:

Nutrient,Unit,Data points,Std. Error,"1 ONZ = 28.0g",1Value per 100 g,
Proximates
"Energy",kcal,--,--,140,500
"Protein",g,--,--,4.00,14.29
"Total lipid (fat)",g,--,--,9.00,32.14
"Carbohydrate, by difference",g,--,--,14.00,50.00
"Fiber, total dietary",g,--,--,1.0,3.6
"Sugars, total",g,--,--,11.00,39.29
Minerals
"Calcium, Ca",mg,--,--,20,71
"Iron, Fe",mg,--,--,1.29,4.59
"Magnesium, Mg",mg,--,--,57,204
"Phosphorus, P",mg,--,--,107,382
"Potassium, K",mg,--,--,125,446
"Sodium, Na",mg,--,--,35,125
"Zinc, Zn",mg,--,--,0.60,2.14
"Copper, Cu",mg,--,--,0.200,0.714
"Manganese, Mn",mg,--,--,0.280,1.000
Vitamins
"Vitamin C, total ascorbic acid",mg,--,--,0.0,0.0
"Niacin",mg,--,--,3.572,12.757
"Vitamin A, IU",IU,--,--,0,0
Lipids
"Fatty acids, total saturated",g,--,--,1.000,3.570
"Fatty acids, total monounsaturated",g,--,--,4.500,16.070
"Fatty acids, total polyunsaturated",g,--,--,2.500,8.930
"Fatty acids, total trans",g,--,--,0.000,0.000
"Cholesterol",mg,--,--,0,0
Amino Acids
Other
Ingredients
"PEANUTS ROASTED IN PEANUT AND/OR COTTONSEED AND/OR SUNFLOWER SEED AND/OR CANOLA OIL, SUGAR, HONEY, MALTODEXTRIN, FRUCTOSE, CORN STARCH, SUCROSE, WHEAT STARCH, SOY LECITHIN, CALCIUM STEARATE, SALT, XANTHAN GUM, NATURAL HONEY, FLAVOR." Date available: 07/14/2017 Date last updated by company: 07/14/2017
