Source: USDA Branded Food Products Database Release December 2017 Software v.3.8.6.4 2017-10-02
Report Run at: December 18, 2017 13:12 EST
"Nutrient data for: 45010069, JACK LINK'S, BEEF TENDER CUTS, PRIME RIB SEASONING, UPC: 017082470478"
Food Group:  Branded Food Products Database
Common Name:

Nutrient,Unit,Data points,Std. Error,"1 ONZ = 28.0g",1Value per 100 g,
Proximates
"Energy",kcal,--,--,60,214
"Protein",g,--,--,9.00,32.14
"Total lipid (fat)",g,--,--,1.00,3.57
"Carbohydrate, by difference",g,--,--,3.00,10.71
"Fiber, total dietary",g,--,--,0.0,0.0
"Sugars, total",g,--,--,3.00,10.71
Minerals
"Calcium, Ca",mg,--,--,0,0
"Iron, Fe",mg,--,--,1.93,6.88
"Sodium, Na",mg,--,--,540,1929
Vitamins
"Vitamin C, total ascorbic acid",mg,--,--,16.1,57.4
"Vitamin A, IU",IU,--,--,0,0
Lipids
"Fatty acids, total saturated",g,--,--,0.501,1.790
"Fatty acids, total trans",g,--,--,0.000,0.000
"Cholesterol",mg,--,--,20,71
Amino Acids
Other
Ingredients
"BEEF, WATER, SUGAR, BROWN SUGAR, CONTAINS LESS THAN 2% SALT, BEEF STOCK, FLAVORING, HYDROLYZED VEGETABLE PROTEIN (WHEAT, CORN, SOY), MONOSODIUM GLUTAMATE, SODIUM LACTATE, NATURAL GRILL FLAVOR (MALTODEXTRIN, FLAVOR, MODIFIED FOOD STARCH, CORN SYRUP SOLIDS, TRI-CALCIUM PHOSPHATE), CORN SYRUP SOLIDS, SODIUM ERYTHORBATE, THIAMINE HYDROCHLORIDE, SODIUM NITRITE." Date available: 08/18/2017 Date last updated by company: 08/18/2017
