Source: USDA Branded Food Products Database Release December 2017 Software v.3.8.6.4 2017-10-02
Report Run at: December 18, 2017 13:10 EST
"Nutrient data for: 45237425, JACK DANIEL'S, STEAK SAUCE, ORIGINAL, UPC: 01364600"
Food Group:  Branded Food Products Database
Common Name:

Nutrient,Unit,Data points,Std. Error,"1 Tbsp = 15.0g",1Value per 100 g,
Proximates
"Energy",kcal,--,--,20,133
"Protein",g,--,--,0.00,0.00
"Total lipid (fat)",g,--,--,0.00,0.00
"Carbohydrate, by difference",g,--,--,4.00,26.67
"Sugars, total",g,--,--,3.00,20.00
Minerals
"Sodium, Na",mg,--,--,210,1400
Vitamins
Lipids
Amino Acids
Other
Ingredients
"TOMATO CONCENTRATE (TOMATO PASTE, WATER), HIGH FRUCTOSE CORN SYRUP, DISTILLED WHITE VINEGAR, CORN SYRUP, SALT, MOLASSES, RAISIN JUICE CONCENTRATE, WATER, CONTAINS 2% OR LESS OF: APPLE CIDER VINEGAR, MODIFIED FOOD STARCH, JACK DANIEL'S TENNESSEE WHISKEY FL" Date available: 09/23/2016 Date last updated by company: 09/23/2016
