Source: USDA Branded Food Products Database Release December 2017 Software v.3.8.6.4 2017-10-02
Report Run at: December 18, 2017 13:12 EST
"Nutrient data for: 45087755, JACK LINK'S, MEAT SNACKS, BEEF JERKY, ORIGINAL, UPC: 017082876317"
Food Group:  Branded Food Products Database
Common Name:

Nutrient,Unit,Data points,Std. Error,"1 ONZ = 28.0g",1Value per 100 g,
Proximates
"Energy",kcal,--,--,80,286
"Protein",g,--,--,12.00,42.86
"Total lipid (fat)",g,--,--,1.00,3.57
"Carbohydrate, by difference",g,--,--,5.00,17.86
"Fiber, total dietary",g,--,--,0.0,0.0
"Sugars, total",g,--,--,4.00,14.29
Minerals
"Calcium, Ca",mg,--,--,0,0
"Iron, Fe",mg,--,--,1.93,6.88
"Sodium, Na",mg,--,--,590,2107
Vitamins
"Vitamin C, total ascorbic acid",mg,--,--,0.0,0.0
"Vitamin A, IU",IU,--,--,0,0
Lipids
"Fatty acids, total saturated",g,--,--,0.000,0.000
"Fatty acids, total trans",g,--,--,0.000,0.000
"Cholesterol",mg,--,--,30,107
Amino Acids
Other
Ingredients
"BEEF, WATER, SUGAR, SALT, LESS THAN 2% SOY SAUCE [(WHEAT, SOYBEANS, SALT), MALTODEXTRIN], FLAVORINGS, HYDROLYZED CORN PROTEIN, YEAST EXTRACT, CITRIC ACID." Date available: 07/14/2017 Date last updated by company: 07/14/2017
