Source: USDA Branded Food Products Database Release December 2017 Software v.3.8.6.4 2017-10-02
Report Run at: December 18, 2017 13:10 EST
"Nutrient data for: 45232627, JACK DANIEL'S, MUSTARD, STONE GROUND DIJON, UPC: 070200502321"
Food Group:  Branded Food Products Database
Common Name:

Nutrient,Unit,Data points,Std. Error,"1 Tbsp = 5.0g",1Value per 100 g,
Proximates
"Energy",kcal,--,--,5,100
"Protein",g,--,--,0.00,0.00
"Total lipid (fat)",g,--,--,0.00,0.00
"Carbohydrate, by difference",g,--,--,0.00,0.00
"Sugars, total",g,--,--,0.00,0.00
Minerals
"Sodium, Na",mg,--,--,160,3200
Vitamins
Lipids
"Fatty acids, total trans",g,--,--,0.000,0.000
Amino Acids
Other
Ingredients
"WATER, MUSTARD SEED, DISTILLED VINEGAR, SALT, WHITE WINE, CITRIC ACID, TARTARIC ACID, SPICES, JACK DENIEL'S TENNESSEE WHISKEY FLAVORING (NATURAL & ARTIFICIAL FLAVORS)." Date available: 09/23/2016 Date last updated by company: 09/23/2016
