Source: USDA Branded Food Products Database Release December 2017 Software v.3.8.6.4 2017-10-02
Report Run at: December 18, 2017 13:16 EST
"Nutrient data for: 45250145, JACK'SNAK, HONEY ASIAN SPICE SNACK MIX, UPC: 701175941913"
Food Group:  Branded Food Products Database
Common Name:

Nutrient,Unit,Data points,Std. Error,"0.25 cup = 30.0g",1Value per 100 g,
Proximates
"Energy",kcal,--,--,128,427
"Protein",g,--,--,3.00,10.00
"Total lipid (fat)",g,--,--,6.00,20.00
"Carbohydrate, by difference",g,--,--,13.00,43.33
"Fiber, total dietary",g,--,--,1.0,3.3
"Sugars, total",g,--,--,3.00,10.00
Minerals
"Calcium, Ca",mg,--,--,40,133
"Iron, Fe",mg,--,--,0.90,3.00
"Sodium, Na",mg,--,--,254,847
Vitamins
"Vitamin C, total ascorbic acid",mg,--,--,0.0,0.0
"Vitamin A, IU",IU,--,--,0,0
Lipids
"Fatty acids, total saturated",g,--,--,0.999,3.330
"Fatty acids, total trans",g,--,--,0.000,0.000
"Cholesterol",mg,--,--,0,0
Amino Acids
Other
Ingredients
"UNBLEACHED WHEAT FLOUR, PEANUTS, GLUTINOUS RICE FLOUR, WHEAT FLOUR, SOYBEAN OIL, SESAME SEEDS, BULGUR WHEAT, SUCROSE, WHEAT STARCH, HONEY, BUTTER, SUGAR, SPICES, GARLIC AND ONION POWDER, VINEGAR, LIME JUICE, LIME OIL, PAPRIKA, SESAME OIL, LEMONGRASS OIL, XANTHAN GUM, BEET POWDER, TURMERIC, SOY SAUCE, SEAWEED, NATURAL COLORS: TURMERIC, PAPRIKA OLEORESIN, SPINACH POWDER, BEET POWDER." Date available: 07/14/2017 Date last updated by company: 07/14/2017
