Source: USDA Branded Food Products Database Release December 2017 Software v.3.8.6.4 2017-10-02
Report Run at: December 18, 2017 13:17 EST
"Nutrient data for: 45144071, JACOBSENS, CLASSIC SANTA TIN WITH IMPORTED DANISH COOKIES, UPC: 076879010648"
Food Group:  Branded Food Products Database
Common Name:

Nutrient,Unit,Data points,Std. Error,"5.0 COOKIES = 33.0g",1Value per 100 g,
Proximates
"Energy",kcal,--,--,160,485
"Protein",g,--,--,2.00,6.06
"Total lipid (fat)",g,--,--,7.00,21.21
"Carbohydrate, by difference",g,--,--,21.00,63.64
"Fiber, total dietary",g,--,--,1.0,3.0
"Sugars, total",g,--,--,8.00,24.24
Minerals
"Calcium, Ca",mg,--,--,0,0
"Iron, Fe",mg,--,--,0.27,0.83
"Sodium, Na",mg,--,--,40,121
Vitamins
"Vitamin C, total ascorbic acid",mg,--,--,0.0,0.0
"Vitamin A, IU",IU,--,--,0,0
Lipids
"Fatty acids, total saturated",g,--,--,3.000,9.090
"Fatty acids, total trans",g,--,--,0.000,0.000
"Cholesterol",mg,--,--,0,0
Amino Acids
Other
Ingredients
"WHEAT FLOUR, SUGAR, VEGETABLE SHORTENING (PALM OIL AND CANOLA OIL), SALT, RAISING AGENT (AMMONIUM BICARBONATE), ARTIFICIAL VANILLA FLAVOR, BUTTER AROMA." Date available: 08/10/2017 Date last updated by company: 08/10/2017
