Source: USDA Branded Food Products Database Release December 2017 Software v.3.8.6.4 2017-10-02
Report Run at: December 18, 2017 13:19 EST
"Nutrient data for: 45202103, JADE MONK, UNSWEETENED MATCHA GREEN TEA, UPC: 856733003210"
Food Group:  Branded Food Products Database
Common Name:

Nutrient,Unit,Data points,Std. Error,"1 BOTTLE = 370.0g",1Value per 100 g,
Proximates
"Energy",kcal,--,--,0,0
"Protein",g,--,--,0.00,0.00
"Total lipid (fat)",g,--,--,0.00,0.00
"Carbohydrate, by difference",g,--,--,0.00,0.00
"Fiber, total dietary",g,--,--,0.0,0.0
"Sugars, total",g,--,--,0.00,0.00
Minerals
"Potassium, K",mg,--,--,4,1
"Sodium, Na",mg,--,--,11,3
Vitamins
"Vitamin A, IU",IU,--,--,292,79
Lipids
Amino Acids
Other
Ingredients
"SPRING WATER, ORGANIC JAPANESE MATCHA GREEN TEA, ORGANIC LIME JUICE (CONCENTRATE)." Date available: 06/25/2017 Date last updated by company: 06/25/2017
