Source: USDA Branded Food Products Database Release December 2017 Software v.3.8.6.4 2017-10-02
Report Run at: December 18, 2017 13:25 EST
"Nutrient data for: 45213578, JALAPENO PEANUT BRITTLE, UPC: 023087000305"
Food Group:  Branded Food Products Database
Common Name:

Nutrient,Unit,Data points,Std. Error,"2.0 ONZ = 57.0g",1Value per 100 g,
Proximates
"Energy",kcal,--,--,210,368
"Protein",g,--,--,4.00,7.02
"Total lipid (fat)",g,--,--,9.00,15.79
"Carbohydrate, by difference",g,--,--,32.00,56.14
"Fiber, total dietary",g,--,--,1.0,1.8
"Sugars, total",g,--,--,29.00,50.88
Minerals
"Calcium, Ca",mg,--,--,20,35
"Iron, Fe",mg,--,--,0.31,0.55
"Sodium, Na",mg,--,--,190,333
Vitamins
"Vitamin C, total ascorbic acid",mg,--,--,0.0,0.0
"Vitamin A, IU",IU,--,--,88,154
Lipids
"Fatty acids, total saturated",g,--,--,1.499,2.630
"Fatty acids, total trans",g,--,--,0.000,0.000
"Cholesterol",mg,--,--,0,0
Amino Acids
Other
Ingredients
"PEANUTS, GRANULATED SUGAR, LIGHT CORN SYRUP (WITH HIGH FRUCTOSE), MARGARINE (LIQUID AND PARTIALLY HYDROGENATED SOYBEAN OIL, WATER, SALT, SOY LECITHIN, VEGETABLE MONO AND DIGLYCERIDES, SODIUM BENZOATE (A PRESERVATIVE), CITRIC ACID, ARTIFICIAL BUTTER FLAVOR, BETA CAROTENE, VITAMIN A PALMITATE ADDED TO PROTECT FLAVOR), BAKING SODA, JALAPENO POWDER, SALT, GREEN FOOD COLORING (F.D. & C, YELLOW NO. 5)." Date available: 07/14/2017 Date last updated by company: 07/14/2017
