Source: USDA Branded Food Products Database Release December 2017 Software v.3.8.6.4 2017-10-02
Report Run at: December 18, 2017 13:25 EST
"Nutrient data for: 45292812, JALAPENO PEPPER JACK POTATO CRISPS, UPC: 028400012881"
Food Group:  Branded Food Products Database
Common Name:

Nutrient,Unit,Data points,Std. Error,"12.0 CRISPS | ABOUT = 28.0g",1Value per 100 g,
Proximates
"Energy",kcal,--,--,140,500
"Protein",g,--,--,2.00,7.14
"Total lipid (fat)",g,--,--,8.00,28.57
"Carbohydrate, by difference",g,--,--,17.00,60.71
"Fiber, total dietary",g,--,--,1.0,3.6
"Sugars, total",g,--,--,1.00,3.57
Minerals
"Calcium, Ca",mg,--,--,20,71
"Iron, Fe",mg,--,--,0.30,1.07
"Potassium, K",mg,--,--,180,643
"Sodium, Na",mg,--,--,220,786
Vitamins
Lipids
"Fatty acids, total saturated",g,--,--,2.500,8.930
"Fatty acids, total trans",g,--,--,0.000,0.000
"Cholesterol",mg,--,--,0,0
Amino Acids
Other
Ingredients
"DRIED POTATOES, VEGETABLE OIL (SUNFLOWER, CORN, AND/OR COTTONSEED OIL), UNMODIFIED POTATO STARCH, RICE FLOUR, AND 2% OR LESS OF THE FOLLOWING: SALT, SUGAR, MONO- AND DIGLYCERIDES, CHEDDAR CHEESE (MILK, CHEESE CULTURES, SALT, ENZYMES), DEXTROSE, SOY LECITHIN, MONOSODIUM GLUTAMATE, CITRIC ACID, WHEY, ONION POWDER, TOMATO POWDER, CORN STARCH, BUTTERMILK, ROMANO CHEESE (PART-SKIM COW'S MILK, CHEESE CULTURES, SALT, ENZYMES), GARLIC POWDER, WHEY PROTEIN CONCENTRATE, LACTOSE, SODIUM DIACETATE, SPICES (INCLUDING JALAPENO PEPPER AND RED PEPPER), NATURAL AND ARTIFICIAL FLAVOR, CORN SYRUP SOLIDS, MALTODEXTRIN (MADE FROM CORN), SKIM MILK, LACTIC ACID, MALIC ACID, MONTEREY JACK CHEESE (MILK, CHEESE CULTURES, SALT, ENZYMES), ARTIFICIAL COLOR (YELLOW 5 LAKE, YELLOW 6, RED 40, YELLOW 5, BLUE 1), SODIUM CASEINATE, DISODIUM INOSINATE, AND DISODIUM GUANYLATE." Date available: 05/31/2017 Date last updated by company: 05/31/2017
