Source: USDA Branded Food Products Database Release December 2017 Software v.3.8.6.4 2017-10-02
Report Run at: December 18, 2017 13:26 EST
"Nutrient data for: 45203953, JALAPENO PEPPERS, UPC: 896983002137"
Food Group:  Branded Food Products Database
Common Name:

Nutrient,Unit,Data points,Std. Error,"1.5 ONZ = 43.0g",1Value per 100 g,
Proximates
"Energy",kcal,--,--,70,163
"Protein",g,--,--,0.00,0.00
"Total lipid (fat)",g,--,--,0.00,0.00
"Carbohydrate, by difference",g,--,--,21.00,48.84
"Fiber, total dietary",g,--,--,1.0,2.3
"Sugars, total",g,--,--,21.00,48.84
Minerals
"Calcium, Ca",mg,--,--,0,0
"Iron, Fe",mg,--,--,0.42,0.98
"Sodium, Na",mg,--,--,45,105
Vitamins
"Vitamin C, total ascorbic acid",mg,--,--,10.4,24.3
"Vitamin A, IU",IU,--,--,233,541
Lipids
"Fatty acids, total saturated",g,--,--,0.000,0.000
"Cholesterol",mg,--,--,0,0
Amino Acids
Other
Ingredients
"JALAPENO PEPPERS, SUGAR, SALT, VINEGAR" Date available: 08/23/2017 Date last updated by company: 08/23/2017
