Source: USDA Branded Food Products Database Release December 2017 Software v.3.8.6.4 2017-10-02
Report Run at: December 18, 2017 13:28 EST
"Nutrient data for: 45084538, JALAPENO STUFFED OLIVES, UPC: 073214007493"
Food Group:  Branded Food Products Database
Common Name:

Nutrient,Unit,Data points,Std. Error,"1 OLIVE = 9.5g",1Value per 100 g,
Proximates
"Energy",kcal,--,--,10,105
"Protein",g,--,--,0.00,0.00
"Total lipid (fat)",g,--,--,1.00,10.53
"Carbohydrate, by difference",g,--,--,1.00,10.53
"Fiber, total dietary",g,--,--,0.0,0.0
"Sugars, total",g,--,--,0.00,0.00
Minerals
"Calcium, Ca",mg,--,--,20,211
"Iron, Fe",mg,--,--,1.90,19.95
"Sodium, Na",mg,--,--,140,1474
Vitamins
"Vitamin C, total ascorbic acid",mg,--,--,0.0,0.0
"Vitamin A, IU",IU,--,--,0,0
Lipids
"Fatty acids, total saturated",g,--,--,0.000,0.000
"Fatty acids, total trans",g,--,--,0.000,0.000
"Cholesterol",mg,--,--,0,0
Amino Acids
Other
Ingredients
"INGREDIENTS: OLIVES, WATER, JALAPENO PEPPERS ,SEA SALT, LACTIC ACID, CALCIUM CHLORIDE." Date available: 06/25/2017 Date last updated by company: 06/25/2017
