Source: USDA Branded Food Products Database Release December 2017 Software v.3.8.6.4 2017-10-02
Report Run at: December 18, 2017 13:25 EST
"Nutrient data for: 45057101, JALAPENO PEPPER JELLY, UPC: 041695691333"
Food Group:  Branded Food Products Database
Common Name:

Nutrient,Unit,Data points,Std. Error,"0.7 OZ = 19.0g",1Value per 100 g,
Proximates
"Energy",kcal,--,--,50,263
"Protein",g,--,--,0.00,0.00
"Total lipid (fat)",g,--,--,0.00,0.00
"Carbohydrate, by difference",g,--,--,13.00,68.42
"Fiber, total dietary",g,--,--,0.0,0.0
"Sugars, total",g,--,--,13.00,68.42
Minerals
"Calcium, Ca",mg,--,--,0,0
"Iron, Fe",mg,--,--,0.00,0.00
"Sodium, Na",mg,--,--,25,132
Vitamins
"Vitamin C, total ascorbic acid",mg,--,--,0.0,0.0
"Vitamin A, IU",IU,--,--,0,0
Lipids
"Fatty acids, total saturated",g,--,--,0.000,0.000
"Fatty acids, total trans",g,--,--,0.000,0.000
"Cholesterol",mg,--,--,0,0
Amino Acids
Other
Ingredients
"PURE CANE SUGAR, JALAPENO PEPPERS, DISTILLED WHITE VINEGAR, DEHYDRATED MINCED ONION, PECTIN, CITRIC ACID AND SALT" Date available: 07/14/2017 Date last updated by company: 07/14/2017
