Source: USDA Branded Food Products Database Release December 2017 Software v.3.8.6.4 2017-10-02
Report Run at: December 18, 2017 13:27 EST
"Nutrient data for: 45258068, JALAPENO SAUSAGE, UPC: 752109999005"
Food Group:  Branded Food Products Database
Common Name:

Nutrient,Unit,Data points,Std. Error,"2.0 ONZ = 57.0g",1Value per 100 g,
Proximates
"Energy",kcal,--,--,110,193
"Protein",g,--,--,8.00,14.04
"Total lipid (fat)",g,--,--,8.00,14.04
"Carbohydrate, by difference",g,--,--,0.00,0.00
Minerals
"Iron, Fe",mg,--,--,0.70,1.22
"Sodium, Na",mg,--,--,560,982
Vitamins
"Vitamin A, IU",IU,--,--,0,0
Lipids
"Fatty acids, total saturated",g,--,--,2.998,5.260
"Fatty acids, total monounsaturated",g,--,--,3.500,6.140
"Fatty acids, total polyunsaturated",g,--,--,0.998,1.750
"Fatty acids, total trans",g,--,--,0.000,0.000
"Cholesterol",mg,--,--,35,61
Amino Acids
Other
Ingredients
"HAM WITH NATURAL JUICE TRIMMINGS (HAM, WATER, SALT, SODIUM PHOSPHATE, BROWN SUGAR, CANE SUGAR, DEXTROSE, SODIUM ERYTHORBATE, SODIUM NITRITE) JALAPENO PEPPERS, SPICES DEXTROSE, GARLIC, ONION, JALAPENO SPICE EXTRACT." Date available: 10/13/2017 Date last updated by company: 10/13/2017
