Source: USDA Branded Food Products Database Release December 2017 Software v.3.8.6.4 2017-10-02
Report Run at: December 18, 2017 13:27 EST
"Nutrient data for: 45237636, JALAPENOS HOT SAUCE, UPC: 011110785251"
Food Group:  Branded Food Products Database
Common Name:

Nutrient,Unit,Data points,Std. Error,"1 tsp = 5.0g",1Value per 100 g,
Proximates
"Energy",kcal,--,--,0,0
"Protein",g,--,--,0.00,0.00
"Total lipid (fat)",g,--,--,0.00,0.00
"Carbohydrate, by difference",g,--,--,0.00,0.00
Minerals
"Sodium, Na",mg,--,--,85,1700
Vitamins
Lipids
Amino Acids
Other
Ingredients
"FILTERED WATER, ORGANIC JALAPENO PUREE (ORGANIC RED JALAPENO PEPPERS, SALT, ORGANIC VINEGAR, CALCIUM CHLORIDE), ORGANIC TOMATO PASTE, ORGANIC WHITE VINEGAR, SALT, ORGANIC GARLIC POWDER, ORGANIC SOYBEAN OIL, ORGANIC ONION POWDER, ORGANIC POWDER, ORGANIC HABANERO PEPPER POWDER, XANTHAN GUM." Date available: 07/14/2017 Date last updated by company: 07/14/2017
