Source: USDA Branded Food Products Database Release December 2017 Software v.3.8.6.4 2017-10-02
Report Run at: December 18, 2017 13:27 EST
"Nutrient data for: 45065040, JALAPENOS GREEN PICKLED JALAPENO PEPEPRS, UPC: 076397001128"
Food Group:  Branded Food Products Database
Common Name:

Nutrient,Unit,Data points,Std. Error,"2.0 PEPPERS = 30.0g",1Value per 100 g,
Proximates
"Energy",kcal,--,--,5,17
"Protein",g,--,--,0.00,0.00
"Total lipid (fat)",g,--,--,0.00,0.00
"Carbohydrate, by difference",g,--,--,1.00,3.33
"Fiber, total dietary",g,--,--,1.0,3.3
Minerals
"Iron, Fe",mg,--,--,0.60,2.00
"Sodium, Na",mg,--,--,370,1233
Vitamins
"Vitamin C, total ascorbic acid",mg,--,--,4.0,13.3
"Vitamin A, IU",IU,--,--,500,1667
Lipids
Amino Acids
Other
Ingredients
"JALAPENO PEPPERS, WATER, ONIONS, CARROTS, VINEGAR, IODIZED SALT, SPICES AND SOYBEAN OIL." Date available: 07/14/2017 Date last updated by company: 07/14/2017
