Source: USDA Branded Food Products Database Release December 2017 Software v.3.8.6.4 2017-10-02
Report Run at: December 18, 2017 13:21 EST
"Nutrient data for: 45098784, JALAPENO & CHEDDAR KETTLE CHIPS, UPC: 074690240312"
Food Group:  Branded Food Products Database
Common Name:

Nutrient,Unit,Data points,Std. Error,"12.0 -16 CHIPS | ABOUT = 28.0g",1Value per 100 g,
Proximates
"Energy",kcal,--,--,150,536
"Protein",g,--,--,2.00,7.14
"Total lipid (fat)",g,--,--,8.00,28.57
"Carbohydrate, by difference",g,--,--,17.00,60.71
"Fiber, total dietary",g,--,--,1.0,3.6
"Sugars, total",g,--,--,1.00,3.57
Minerals
"Calcium, Ca",mg,--,--,0,0
"Iron, Fe",mg,--,--,0.00,0.00
"Magnesium, Mg",mg,--,--,43,153
"Phosphorus, P",mg,--,--,107,382
"Potassium, K",mg,--,--,400,1429
"Sodium, Na",mg,--,--,160,571
Vitamins
"Vitamin C, total ascorbic acid",mg,--,--,8.6,30.6
"Thiamin",mg,--,--,0.000,0.000
"Riboflavin",mg,--,--,0.000,0.000
"Niacin",mg,--,--,2.858,10.207
"Vitamin A, IU",IU,--,--,0,0
Lipids
"Fatty acids, total saturated",g,--,--,1.000,3.570
"Fatty acids, total monounsaturated",g,--,--,5.001,17.860
"Fatty acids, total polyunsaturated",g,--,--,1.999,7.140
"Fatty acids, total trans",g,--,--,0.000,0.000
"Cholesterol",mg,--,--,0,0
Amino Acids
Other
Ingredients
"POTATOES, SUNFLOWER AND/OR CANOLA OIL, CORN MALTODEXTRIN, WHEY POWDER, CONTAINS TWO PERCENT OR LESS OF: DEXTROSE, SALT, SPICE, CHEDDAR CHEESE SOLIDS (PASTEURIZED MILK, BACTERIAL CULTURE, SALT, ENZYMES), SUGAR, JALAPENO PEPPER, YEAST EXTRACT, ONION POWDER, GREEN BELL PEPPER, DRY BUTTERMILK, PAPRIKA, NATURAL FLAVOR, GARLIC POWDER, CITRIC ACID, HIGH OLEIC SUNFLOWER OIL, HYDROLYZED CORN PROTEIN, DISODIUM PHOSPHATE, EXTRACTIVES OF PAPRIKA AND TURMERIC (COLOR)." Date available: 07/14/2017 Date last updated by company: 07/14/2017
