Source: USDA Branded Food Products Database Release December 2017 Software v.3.8.6.4 2017-10-02
Report Run at: December 18, 2017 13:29 EST
"Nutrient data for: 45004451, JALEAS UJARRA'S, JELLY, GUAVA, UPC: 7441041002807"
Food Group:  Branded Food Products Database
Common Name:

Nutrient,Unit,Data points,Std. Error,"1 CDA. = 20.0g",1Value per 100 g,
Proximates
"Energy",kcal,--,--,49,245
"Sugars, total",g,--,--,13.00,65.00
Minerals
"Sodium, Na",mg,--,--,4,20
Vitamins
Lipids
Amino Acids
Other
Ingredients
"GUAVA JELLY" Date available: 06/25/2017 Date last updated by company: 06/25/2017
