Source: USDA Branded Food Products Database Release December 2017 Software v.3.8.6.4 2017-10-02
Report Run at: December 18, 2017 13:34 EST
"Nutrient data for: 45185514, JAM, UPC: 689076833394"
Food Group:  Branded Food Products Database
Common Name:

Nutrient,Unit,Data points,Std. Error,"1 Tbsp = 28.0g",1Value per 100 g,
Proximates
"Energy",kcal,--,--,40,143
"Protein",g,--,--,0.00,0.00
"Total lipid (fat)",g,--,--,0.00,0.00
"Carbohydrate, by difference",g,--,--,10.00,35.71
"Sugars, total",g,--,--,9.00,32.14
Minerals
"Sodium, Na",mg,--,--,0,0
Vitamins
Lipids
Amino Acids
Other
Ingredients
"CONCORD GRAPE JUICE, BLACKBERRY JUICE, PURE CANE SUGAR, CITRUS ACID, PECTIN." Date available: 10/13/2017 Date last updated by company: 10/13/2017
