Source: USDA Branded Food Products Database Release December 2017 Software v.3.8.6.4 2017-10-02
Report Run at: December 18, 2017 13:30 EST
"Nutrient data for: 45261935, JAMAICAN JERK SAUCE, UPC: 711381320945"
Food Group:  Branded Food Products Database
Common Name:

Nutrient,Unit,Data points,Std. Error,"2.0 Tbsp = 30.0g",1Value per 100 g,
Proximates
"Energy",kcal,--,--,40,133
"Protein",g,--,--,0.00,0.00
"Total lipid (fat)",g,--,--,2.00,6.67
"Carbohydrate, by difference",g,--,--,6.00,20.00
"Fiber, total dietary",g,--,--,0.0,0.0
"Sugars, total",g,--,--,5.00,16.67
Minerals
"Calcium, Ca",mg,--,--,20,67
"Iron, Fe",mg,--,--,0.60,2.00
"Sodium, Na",mg,--,--,210,700
Vitamins
"Vitamin C, total ascorbic acid",mg,--,--,4.0,13.3
"Vitamin A, IU",IU,--,--,0,0
Lipids
"Fatty acids, total saturated",g,--,--,0.000,0.000
"Fatty acids, total trans",g,--,--,0.000,0.000
"Cholesterol",mg,--,--,0,0
Amino Acids
Other
Ingredients
"WATER, BROWN SUGAR, LIME JUICE, JALAPENOS, CANOLA OIL, GARLIC, PEPPER SAUCE (CAYENNE PEPPERS, VINEGAR, SALT, NATURAL FLAVOR, GARLIC), MOLASSES, WORCESTERSHIRE SAUCE (DISTILLED VINEGAR, MOLASSES, WATER, SUGAR, ONIONS, ANCHOVIES [FISH], SALT, GARLIC, CLOVES, TAMARIND EXTRACT, NATURAL FLAVORS, CHILI PEPPER EXTRACT), HABANERO PEPPER PUREE (HABANERO PEPPERS, WATER, CITRIC ACID), CIDER VINEGAR, GREEN ONIONS, SALT, SPICES, GINGER (GINGER, CITRIC ACID), DEHYDRATED ONION, DRIED GARLIC, GARLIC POWDER, CILANTRO, ONION POWDER, XANTHAN GUM, CITRIC ACID" Date available: 07/14/2017 Date last updated by company: 07/14/2017
