Source: USDA Branded Food Products Database Release December 2017 Software v.3.8.6.4 2017-10-02
Report Run at: December 18, 2017 13:32 EST
"Nutrient data for: 45148211, JAMBA, ENERGY DRINK NATURALLY BOOSTED, STRAWBERRY BANANA FLAVOR WITH OTHER NATURAL FLAVORS, UPC: 609263620125"
Food Group:  Branded Food Products Database
Common Name:

Nutrient,Unit,Data points,Std. Error,"1 CAN = 248.0g",1Value per 100 g,
Proximates
"Energy",kcal,--,--,89,36
"Protein",g,--,--,0.00,0.00
"Total lipid (fat)",g,--,--,0.00,0.00
"Carbohydrate, by difference",g,--,--,22.00,8.87
"Sugars, total",g,--,--,19.99,8.06
Minerals
"Potassium, K",mg,--,--,191,77
"Sodium, Na",mg,--,--,5,2
Vitamins
Lipids
Amino Acids
Other
Ingredients
"WATER, APPLE JUICE CONCENTRATE, APPLE PUREE, STRAWBERRY PUREE, BANANA PUREE, LEMON JUICE CONCENTRATE, NATURAL FLAVORS, NATURAL CAFFEINE, STEVIA EXTRACT, CARBONATION ADDED." Date available: 07/14/2017 Date last updated by company: 07/14/2017
