Source: USDA Branded Food Products Database Release December 2017 Software v.3.8.6.4 2017-10-02
Report Run at: December 18, 2017 13:33 EST
"Nutrient data for: 45169120, JAMMY YUMMY, JALAPENO JAM, UPC: 804551752773"
Food Group:  Branded Food Products Database
Common Name:

Nutrient,Unit,Data points,Std. Error,"2.0 Tbsp = 38.0g",1Value per 100 g,
Proximates
"Energy",kcal,--,--,60,158
"Protein",g,--,--,0.00,0.00
"Total lipid (fat)",g,--,--,0.00,0.00
"Carbohydrate, by difference",g,--,--,17.00,44.74
"Fiber, total dietary",g,--,--,1.0,2.6
"Sugars, total",g,--,--,16.00,42.11
Minerals
"Sodium, Na",mg,--,--,0,0
Vitamins
"Vitamin C, total ascorbic acid",mg,--,--,6.1,16.0
"Vitamin A, IU",IU,--,--,507,1334
Lipids
Amino Acids
Other
Ingredients
"SUGAR CANE, GREEN PEPPERS, JALAPENO PEPPER, CARROT, LEMON JUICE." Date available: 07/14/2017 Date last updated by company: 07/14/2017
