Source: USDA Branded Food Products Database Release December 2017 Software v.3.8.6.4 2017-10-02
Report Run at: December 18, 2017 13:37 EST
"Nutrient data for: 45154144, JANS, NOT A DESCRIPTIVE ITEM, UPC: 838452004136"
Food Group:  Branded Food Products Database
Common Name:

Nutrient,Unit,Data points,Std. Error,"1 PACK = 250.0g",1Value per 100 g,
Proximates
"Energy",kcal,--,--,120,48
"Protein",g,--,--,0.00,0.00
"Total lipid (fat)",g,--,--,0.00,0.00
"Carbohydrate, by difference",g,--,--,31.00,12.40
"Fiber, total dietary",g,--,--,2.0,0.8
"Sugars, total",g,--,--,27.00,10.80
Minerals
"Calcium, Ca",mg,--,--,40,16
"Iron, Fe",mg,--,--,0.00,0.00
"Sodium, Na",mg,--,--,65,26
Vitamins
"Vitamin C, total ascorbic acid",mg,--,--,57.5,23.0
"Vitamin A, IU",IU,--,--,385,154
Lipids
"Fatty acids, total saturated",g,--,--,0.000,0.000
"Fatty acids, total trans",g,--,--,0.000,0.000
Amino Acids
Other
Ingredients
"FILTERED WATER, GUAVA PUREE, CANE SUGAR, GUAVA FLAVOR, CITRIC ACID (E330), ASCORBIC ACID." Date available: 07/14/2017 Date last updated by company: 07/14/2017
