Source: USDA Branded Food Products Database Release December 2017 Software v.3.8.6.4 2017-10-02
Report Run at: December 18, 2017 13:44 EST
"Nutrient data for: 45220124, JASMINE FRIED RICE, UPC: 085968701824"
Food Group:  Branded Food Products Database
Common Name:

Nutrient,Unit,Data points,Std. Error,"1 BOWL = 180.0g",1Value per 100 g,
Proximates
"Energy",kcal,--,--,301,167
"Protein",g,--,--,7.00,3.89
"Total lipid (fat)",g,--,--,1.49,0.83
"Carbohydrate, by difference",g,--,--,65.00,36.11
"Fiber, total dietary",g,--,--,5.9,3.3
"Sugars, total",g,--,--,2.00,1.11
Minerals
"Calcium, Ca",mg,--,--,20,11
"Iron, Fe",mg,--,--,0.00,0.00
"Potassium, K",mg,--,--,0,0
"Sodium, Na",mg,--,--,590,328
Vitamins
"Vitamin C, total ascorbic acid",mg,--,--,0.0,0.0
"Vitamin A, IU",IU,--,--,0,0
Lipids
"Fatty acids, total saturated",g,--,--,0.000,0.000
"Fatty acids, total trans",g,--,--,0.000,0.000
"Cholesterol",mg,--,--,0,0
Amino Acids
Other
Ingredients
"THAI JASMINE RICE 40%, WATER 40%, CORN 4.5%, GREEN PEAS 4.5%, CARROT 4.5%, GARLIC 3.2%, SUGAR 2.6%, SALT 0.3%, SOY SAUCE 0.3%, PEPPER 0.1%" Date available: 07/14/2017 Date last updated by company: 07/14/2017
