Source: USDA Branded Food Products Database Release December 2017 Software v.3.8.6.4 2017-10-02
Report Run at: December 18, 2017 13:44 EST
"Nutrient data for: 45080088, JASMINE RICE, UPC: 782733012146"
Food Group:  Branded Food Products Database
Common Name:

Nutrient,Unit,Data points,Std. Error,"0.5 PACK = 125.0g",1Value per 100 g,
Proximates
"Energy",kcal,--,--,210,168
"Protein",g,--,--,5.00,4.00
"Total lipid (fat)",g,--,--,2.00,1.60
"Carbohydrate, by difference",g,--,--,42.00,33.60
"Fiber, total dietary",g,--,--,1.0,0.8
"Sugars, total",g,--,--,0.00,0.00
Minerals
"Calcium, Ca",mg,--,--,0,0
"Iron, Fe",mg,--,--,0.65,0.52
"Sodium, Na",mg,--,--,0,0
Vitamins
"Vitamin C, total ascorbic acid",mg,--,--,0.0,0.0
"Vitamin A, IU",IU,--,--,0,0
Lipids
"Fatty acids, total saturated",g,--,--,0.000,0.000
"Fatty acids, total trans",g,--,--,0.000,0.000
"Cholesterol",mg,--,--,0,0
Amino Acids
Other
Ingredients
"WATER, JASMINE RICE, SUNFLOWER OIL, NATURAL FLAVOR." Date available: 09/18/2017 Date last updated by company: 09/18/2017
