Source: USDA Branded Food Products Database Release December 2017 Software v.3.8.6.4 2017-10-02
Report Run at: December 18, 2017 13:48 EST
"Nutrient data for: 45223595, JAYS, KRUNCHERS!, KETTLE COOKED POTATO CHIPS, MESQUITE BBQ, UPC: 041200098947"
Food Group:  Branded Food Products Database
Common Name:

Nutrient,Unit,Data points,Std. Error,"13.0 CHIPS | ABOUT = 28.0g",1Value per 100 g,
Proximates
"Energy",kcal,--,--,140,500
"Protein",g,--,--,2.00,7.14
"Total lipid (fat)",g,--,--,7.00,25.00
"Carbohydrate, by difference",g,--,--,18.00,64.29
"Fiber, total dietary",g,--,--,1.0,3.6
"Sugars, total",g,--,--,2.00,7.14
Minerals
"Calcium, Ca",mg,--,--,0,0
"Iron, Fe",mg,--,--,0.64,2.29
"Sodium, Na",mg,--,--,170,607
Vitamins
"Vitamin C, total ascorbic acid",mg,--,--,26.8,95.7
"Vitamin A, IU",IU,--,--,357,1275
Lipids
"Fatty acids, total saturated",g,--,--,1.000,3.570
"Fatty acids, total monounsaturated",g,--,--,1.501,5.360
"Fatty acids, total polyunsaturated",g,--,--,3.500,12.500
"Fatty acids, total trans",g,--,--,0.000,0.000
"Cholesterol",mg,--,--,0,0
Amino Acids
Other
Ingredients
"POTATOES, CORN OIL, DEXTROSE, SUGAR, SALT, BARLEY MALT FLOUR, TOMATO POWDER, TORULA YEAST, ONION POWDER, PAPRIKA, BROWN SUGAR, MONOSODIUM GLUTAMATE, NATURAL FLAVOR, CITRIC ACID, GARLIC POWDER, SPICE." Date available: 07/14/2017 Date last updated by company: 07/14/2017
