Source: USDA Branded Food Products Database Release December 2017 Software v.3.8.6.4 2017-10-02
Report Run at: December 18, 2017 13:49 EST
"Nutrient data for: 45146360, JAYS, O-KE-DOKE, POPCORN, CHEESE, UPC: 041200099265"
Food Group:  Branded Food Products Database
Common Name:

Nutrient,Unit,Data points,Std. Error,"1 PACKAGE = 56.7g",1Value per 100 g,
Proximates
"Energy",kcal,--,--,310,547
"Protein",g,--,--,5.00,8.82
"Total lipid (fat)",g,--,--,21.00,37.04
"Carbohydrate, by difference",g,--,--,27.00,47.62
"Fiber, total dietary",g,--,--,5.0,8.8
"Sugars, total",g,--,--,1.00,1.76
Minerals
"Calcium, Ca",mg,--,--,40,71
"Iron, Fe",mg,--,--,0.64,1.12
"Sodium, Na",mg,--,--,630,1111
Vitamins
"Vitamin C, total ascorbic acid",mg,--,--,0.0,0.0
"Vitamin A, IU",IU,--,--,0,0
Lipids
"Fatty acids, total saturated",g,--,--,5.999,10.580
"Fatty acids, total trans",g,--,--,0.000,0.000
"Cholesterol",mg,--,--,5,9
Amino Acids
Other
Ingredients
"POPCORN, VEGETABLE OIL (CONTAINS ONE OR MORE OF THE FOLLOWING, CANOLA OIL, COCONUT OIL, CORN OIL, SOYBEAN OIL), MALTODEXTRIN, WHEY, SALT, BUTTERMILK, CHEDDAR CHEESE (PASTEURIZED MILK, CHEESE CULTURES, SALT, ENZYMES), NATURAL FLAVOR, SODIUM PHOSPHATE, SODIUM CITRATE, SOY LECITHIN, ARTIFICIAL COLOR (YELLOW 5, YELLOW 6), AUTOLYZED YEAST EXTRACT." Date available: 07/14/2017 Date last updated by company: 07/14/2017
