Source: USDA Branded Food Products Database Release December 2017 Software v.3.8.6.4 2017-10-02
Report Run at: December 18, 2017 13:49 EST
"Nutrient data for: 45155316, JAYS, POTATO CHIPS, HOT STUFF, UPC: 041200104518"
Food Group:  Branded Food Products Database
Common Name:

Nutrient,Unit,Data points,Std. Error,"16.0 CHIPS) | (ABOUT = 28.0g",1Value per 100 g,
Proximates
"Energy",kcal,--,--,150,536
"Protein",g,--,--,2.00,7.14
"Total lipid (fat)",g,--,--,9.00,32.14
"Carbohydrate, by difference",g,--,--,16.00,57.14
"Fiber, total dietary",g,--,--,1.0,3.6
"Sugars, total",g,--,--,1.00,3.57
Minerals
"Calcium, Ca",mg,--,--,0,0
"Iron, Fe",mg,--,--,0.64,2.29
"Sodium, Na",mg,--,--,260,929
Vitamins
"Vitamin C, total ascorbic acid",mg,--,--,26.8,95.7
"Vitamin A, IU",IU,--,--,179,638
Lipids
"Fatty acids, total saturated",g,--,--,1.501,5.360
"Fatty acids, total trans",g,--,--,0.000,0.000
"Cholesterol",mg,--,--,0,0
Amino Acids
Other
Ingredients
"POTATOES, CANOLA OIL AND/OR CORN OIL, SALT, SUGAR, MALTODEXTRIN, ONION POWDER, SPICES AND HERBS (CONTAINS PAPRIKA FOR COLOR), MONOSODIUM GLUTAMATE, NATURAL FLAVORING, RED 40 LAKE, ANNATTO (FOR COLOR)." Date available: 07/14/2017 Date last updated by company: 07/14/2017
