Source: USDA Branded Food Products Database Release December 2017 Software v.3.8.6.4 2017-10-02
Report Run at: December 18, 2017 13:49 EST
"Nutrient data for: 45156781, JAYS, POTATO CHIPS, BARBECUE, UPC: 041200003002"
Food Group:  Branded Food Products Database
Common Name:

Nutrient,Unit,Data points,Std. Error,"1 PACKAGE = 28.4g",1Value per 100 g,
Proximates
"Energy",kcal,--,--,150,528
"Protein",g,--,--,2.00,7.04
"Total lipid (fat)",g,--,--,9.00,31.69
"Carbohydrate, by difference",g,--,--,16.00,56.34
"Fiber, total dietary",g,--,--,1.0,3.5
"Sugars, total",g,--,--,1.00,3.52
Minerals
"Calcium, Ca",mg,--,--,0,0
"Iron, Fe",mg,--,--,0.63,2.23
"Sodium, Na",mg,--,--,250,880
Vitamins
"Vitamin C, total ascorbic acid",mg,--,--,21.1,74.4
"Vitamin A, IU",IU,--,--,0,0
Lipids
"Fatty acids, total saturated",g,--,--,1.500,5.280
"Fatty acids, total trans",g,--,--,0.000,0.000
"Cholesterol",mg,--,--,0,0
Amino Acids
Other
Ingredients
"POTATOES, CANOLA OIL AND/OR CORN OIL, SALT, SUGAR, CORNSTARCH, MALTODEXTRIN, DEXTROSE, SPICE AND HERB (CONTAINS PAPRIKA FOR COLOR), ONION POWDER, NATURAL FLAVORING, ARTIFICIAL COLORS (RED 40 LAKE, YELLOW 6 LAKE), ANNATTO (COLOR)." Date available: 07/14/2017 Date last updated by company: 07/14/2017
