Source: USDA Branded Food Products Database Release December 2017 Software v.3.8.6.4 2017-10-02
Report Run at: December 18, 2017 13:50 EST
"Nutrient data for: 45161966, JC'S PIE BITES, CINNAMON EGG NOG COATED TRUFFLES, UPC: 855538004439"
Food Group:  Branded Food Products Database
Common Name:

Nutrient,Unit,Data points,Std. Error,"4.0 PIECES = 36.0g",1Value per 100 g,
Proximates
"Energy",kcal,--,--,180,500
"Protein",g,--,--,2.00,5.56
"Total lipid (fat)",g,--,--,10.00,27.78
"Carbohydrate, by difference",g,--,--,22.00,61.11
"Fiber, total dietary",g,--,--,0.0,0.0
"Sugars, total",g,--,--,20.00,55.56
Minerals
"Calcium, Ca",mg,--,--,20,56
"Iron, Fe",mg,--,--,2.50,6.95
"Sodium, Na",mg,--,--,40,111
Vitamins
"Vitamin C, total ascorbic acid",mg,--,--,0.0,0.0
"Vitamin A, IU",IU,--,--,0,0
Lipids
"Fatty acids, total saturated",g,--,--,6.998,19.440
"Fatty acids, total trans",g,--,--,0.000,0.000
"Cholesterol",mg,--,--,5,14
Amino Acids
Other
Ingredients
"CREAMY INSIDE: WHITE CHOCOLATE (SUGAR, COCOA BUTTER, WHOLE MILK, SOY LECITHIN (AN EMULSIFIER), VANILLA), SWEETENED CONDENSED WHOLE MILK, BUTTER, NATURAL FLAVORS, CINNAMON. CRUNCHY OUTSIDE: UNBLEACHED ENRICHED WHEAT FLOUR (WHEAT FLOUR, THIAMINE MONONITRATE, NIACIN, RIBOFLAVIN, REDUCED IRON, FOLIC ACID), CANE SUGAR, WATER, COCONUT OIL, GRAIN ADDITIVE (WHEAT BRAN AND WHEAT GERM DERIVED FROM WHITE WHEAT), WHEAT STARCH, COCOA BUTTER, HONEY, MOLASSES, PALM KERNEL OIL, PALM OIL (SUSTAINABLY SOURCED), ORGANIC SOYBEAN OIL, NONFAT DRY MILK, WHOLE MILK POWDER, PASTEURIZED EGGS, ORGANIC SOY LECITHIN, BAKING SODA, SALT, NATURAL FLAVORS." Date available: 07/14/2017 Date last updated by company: 07/14/2017
