Source: USDA Branded Food Products Database Release December 2017 Software v.3.8.6.4 2017-10-02
Report Run at: December 18, 2017 13:52 EST
"Nutrient data for: 45034448, JEFF'S NATURALS, STUFFED OLIVES, BLUE CHEESE, UPC: 073214007523"
Food Group:  Branded Food Products Database
Common Name:

Nutrient,Unit,Data points,Std. Error,"1 OLIVE = 9.0g",1Value per 100 g,
Proximates
"Energy",kcal,--,--,20,222
"Protein",g,--,--,0.00,0.00
"Total lipid (fat)",g,--,--,2.00,22.22
"Carbohydrate, by difference",g,--,--,0.00,0.00
"Fiber, total dietary",g,--,--,0.0,0.0
"Sugars, total",g,--,--,0.00,0.00
Minerals
"Calcium, Ca",mg,--,--,20,222
"Iron, Fe",mg,--,--,0.00,0.00
"Sodium, Na",mg,--,--,150,1667
Vitamins
"Vitamin C, total ascorbic acid",mg,--,--,0.0,0.0
"Vitamin A, IU",IU,--,--,0,0
Lipids
"Fatty acids, total saturated",g,--,--,0.000,0.000
"Fatty acids, total trans",g,--,--,0.000,0.000
"Cholesterol",mg,--,--,0,0
Amino Acids
Other
Ingredients
"OLIVES, EXPELLER PRESSED SUNFLOWER OIL, CLUE CHEESE (MILK, SALT, LACTIC ACID CULTURE, RENNET, MOLD CULTURE, LIPASE CALCIUM CHLORIDE), CREAM CHEESE (PASTEURIZED CULTURED WHOLE MILK AND CREAM, SEA SALT), SEA SALT), LACTIC ACID, ROSEMARY EXTRACT." Date available: 06/24/2017 Date last updated by company: 06/24/2017
