Source: USDA Branded Food Products Database Release December 2017 Software v.3.8.6.4 2017-10-02
Report Run at: December 18, 2017 13:52 EST
"Nutrient data for: 45234746, JELINA CHOCOLATIER, DARK CHOCOLATE, SEA SALT, UPC: 063783577060"
Food Group:  Branded Food Products Database
Common Name:

Nutrient,Unit,Data points,Std. Error,"1.67 ONZ = 47.0g",1Value per 100 g,
Proximates
"Energy",kcal,--,--,280,596
"Protein",g,--,--,4.00,8.51
"Total lipid (fat)",g,--,--,19.00,40.43
"Carbohydrate, by difference",g,--,--,22.00,46.81
"Fiber, total dietary",g,--,--,5.0,10.6
"Sugars, total",g,--,--,13.00,27.66
Minerals
"Calcium, Ca",mg,--,--,20,43
"Iron, Fe",mg,--,--,8.10,17.23
"Sodium, Na",mg,--,--,250,532
Vitamins
"Vitamin C, total ascorbic acid",mg,--,--,0.0,0.0
"Vitamin A, IU",IU,--,--,0,0
Lipids
"Fatty acids, total saturated",g,--,--,11.999,25.530
"Fatty acids, total trans",g,--,--,0.000,0.000
"Cholesterol",mg,--,--,0,0
Amino Acids
Other
Ingredients
"COCOA MASS*, CANE SUGAR*, COCOA BUTTER*, SEA SALT, NATURAL VANILLA." Date available: 09/23/2016 Date last updated by company: 09/23/2016
