Source: USDA Branded Food Products Database Release December 2017 Software v.3.8.6.4 2017-10-02
Report Run at: December 18, 2017 14:01 EST
"Nutrient data for: 45140553, JELL-O, REDUCED CALORIE PUDDING SNACKS, CHOCOLATE, UPC: 043000042083"
Food Group:  Branded Food Products Database
Common Name:

Nutrient,Unit,Data points,Std. Error,"1 SNACK = 103.0g",1Value per 100 g,
Proximates
"Energy",kcal,--,--,60,58
"Protein",g,--,--,1.00,0.97
"Total lipid (fat)",g,--,--,1.50,1.46
"Carbohydrate, by difference",g,--,--,10.00,9.71
"Fiber, total dietary",g,--,--,1.0,1.0
"Sugars, total",g,--,--,0.00,0.00
Minerals
"Calcium, Ca",mg,--,--,100,97
"Iron, Fe",mg,--,--,0.72,0.70
"Sodium, Na",mg,--,--,170,165
Vitamins
"Vitamin C, total ascorbic acid",mg,--,--,0.0,0.0
"Vitamin A, IU",IU,--,--,0,0
Lipids
"Fatty acids, total saturated",g,--,--,0.999,0.970
"Fatty acids, total trans",g,--,--,0.000,0.000
"Cholesterol",mg,--,--,0,0
Amino Acids
Other
Ingredients
"WATER, MODIFIED CORN STARCH, XYLITOL, COCOA PROCESSED WITH ALKALI, CONTAINS LESS THAN 1.5% OF MILK PROTEIN CONCENTRATE, HYDROGENATED VEGETABLE OIL (COCONUT OIL AND PALM KERNEL OILS), SALT, SODIUM STEAROYL LACTYLATE (FOR SMOOTH TEXTURE), CALCIUM PHOSPHATE," Date available: 09/23/2016 Date last updated by company: 09/23/2016
