Source: USDA Branded Food Products Database Release December 2017 Software v.3.8.6.4 2017-10-02
Report Run at: December 18, 2017 14:09 EST
"Nutrient data for: 45242298, JELLY BELLY, ORGANIC JELLY BEANS WITH REAL FRUIT JUICES & PUREES, UPC: 071570000516"
Food Group:  Branded Food Products Database
Common Name:

Nutrient,Unit,Data points,Std. Error,"35.0 PIECES = 40.0g",1Value per 100 g,
Proximates
"Energy",kcal,--,--,140,350
"Protein",g,--,--,0.00,0.00
"Total lipid (fat)",g,--,--,0.00,0.00
"Carbohydrate, by difference",g,--,--,35.00,87.50
"Sugars, total",g,--,--,28.00,70.00
Minerals
"Sodium, Na",mg,--,--,0,0
Vitamins
Lipids
Amino Acids
Other
Ingredients
"ORGANIC SUGAR, ORGANIC TAPIOCA SYRUP, CITRIC PECTIN, CITRIC ACID, NATURAL FLAVORS, SODIUM CITRATE, ORGANIC FLAVORS (CHERRY, PEACH, BLUEBERRY, PEAR), ORGANIC APPLE CONCENTRATE (COLOR), ORGANIC CARAMEL (COLOR), POTASSIUM CITRATE, CONFECTIONER'S GLAZE, ORGANIC CARROT CONCENTRATE (COLOR), ORGANIC PEAR JUICE CONCENTRATE, ORGANIC PUMPKIN CONCENTRATE (COLOR), ORGANIC STRAWBERRY JUICE CONCENTRATE, ORGANIC APPLE JUICE CONCENTRATE, ORGANIC CHERRY JUICE CONCENTRATE, ORGANIC BEESWAX ORGANIC LEMON JUICE CONCENTRATE, ORGANIC RADISH CONCENTRATE (COLOR), ORGANIC RED RASPBERRY PUREE, ORGANIC ORANGE JUICE CONCENTRATE, ORGANIC PEACH JUICE CONCENTRATE, ORGANIC BLUEBERRY JUICE CONCENTRATE, ORGANIC CARNAUBA WAX, ORGANIC ANNATTO EXTRACT (COLOR), ORGANIC BLACK CURRANT CONCENTRATE (COLOR)." Date available: 07/14/2017 Date last updated by company: 07/14/2017
