Source: USDA Branded Food Products Database Release December 2017 Software v.3.8.6.4 2017-10-02
Report Run at: December 18, 2017 14:14 EST
"Nutrient data for: 45326816, JELLY, UPC: 011225186356"
Food Group:  Branded Food Products Database
Common Name:

Nutrient,Unit,Data points,Std. Error,"1 Tbsp = 19.0g",1Value per 100 g,
Proximates
"Energy",kcal,--,--,50,263
"Protein",g,--,--,0.00,0.00
"Total lipid (fat)",g,--,--,0.00,0.00
"Carbohydrate, by difference",g,--,--,12.00,63.16
"Sugars, total",g,--,--,12.00,63.16
Minerals
"Sodium, Na",mg,--,--,10,53
Vitamins
Lipids
Amino Acids
Other
Ingredients
"SUGAR, RED BELL PEPPERS, WHITE VINEGAR, CITRIC ACID, FRUIT PECTIN, ONION POWDER, CAPSICUM." Date available: 10/13/2017 Date last updated by company: 10/13/2017
