Source: USDA Branded Food Products Database Release December 2017 Software v.3.8.6.4 2017-10-02
Report Run at: December 18, 2017 13:54 EST
"Nutrient data for: 45140617, JELL-O, COOK & SERVE PUDDING & PIE FILLING, TAPIOCA, UPC: 043000213636"
Food Group:  Branded Food Products Database
Common Name:

Nutrient,Unit,Data points,Std. Error,"0.25 PACKAGE = 23.0g",1Value per 100 g,
Proximates
"Energy",kcal,--,--,90,391
"Protein",g,--,--,0.00,0.00
"Total lipid (fat)",g,--,--,0.00,0.00
"Carbohydrate, by difference",g,--,--,22.00,95.65
"Fiber, total dietary",g,--,--,0.0,0.0
"Sugars, total",g,--,--,15.00,65.22
Minerals
"Calcium, Ca",mg,--,--,0,0
"Iron, Fe",mg,--,--,0.00,0.00
"Sodium, Na",mg,--,--,115,500
Vitamins
"Vitamin C, total ascorbic acid",mg,--,--,0.0,0.0
"Vitamin A, IU",IU,--,--,0,0
Lipids
"Fatty acids, total saturated",g,--,--,0.000,0.000
"Fatty acids, total trans",g,--,--,0.000,0.000
"Cholesterol",mg,--,--,0,0
Amino Acids
Other
Ingredients
"SUGAR, TAPIOCA, CORNSTARCH, MODIFIED CORNSTARCH, CONTAINS LESS THAN 2% OF ARTIFICIAL FLAVOR, SOY LECITHIN, CALCIUM CARRAGEENAN (THICKENER), SALT, POLYSORBATE 60 (PREVENTS SCORCHING), MONO- AND DIGLYCERIDES (PREVENTS FOAMING), ARTIFICIAL COLOR, YELLOW 5, Y" Date available: 09/23/2016 Date last updated by company: 09/23/2016
