Source: USDA Branded Food Products Database Release December 2017 Software v.3.8.6.4 2017-10-02
Report Run at: December 18, 2017 13:57 EST
"Nutrient data for: 45140769, JELL-O, INSTANT PUDDING & PIE FILLING, BUTTERSCOTCH, UPC: 043000205532"
Food Group:  Branded Food Products Database
Common Name:

Nutrient,Unit,Data points,Std. Error,"0.25 PACKAGE = 8.0g",1Value per 100 g,
Proximates
"Energy",kcal,--,--,25,312
"Protein",g,--,--,0.00,0.00
"Total lipid (fat)",g,--,--,0.00,0.00
"Carbohydrate, by difference",g,--,--,6.00,75.00
"Fiber, total dietary",g,--,--,0.0,0.0
"Sugars, total",g,--,--,0.00,0.00
Minerals
"Calcium, Ca",mg,--,--,0,0
"Iron, Fe",mg,--,--,0.00,0.00
"Sodium, Na",mg,--,--,310,3875
Vitamins
"Vitamin C, total ascorbic acid",mg,--,--,0.0,0.0
"Vitamin A, IU",IU,--,--,0,0
Lipids
"Fatty acids, total saturated",g,--,--,0.000,0.000
"Fatty acids, total trans",g,--,--,0.000,0.000
"Cholesterol",mg,--,--,0,0
Amino Acids
Other
Ingredients
"MODIFIED CORNSTARCH, MALTODEXTRIN, TETRASODIUM PYROPHOSPHATE AND DISODIUM PHOSPHATE (FOR THICKENING), CONTAINS LESS THAN 2% OF NATURAL AND ARTIFICIAL FLAVOR, SALT, CALCIUM SULFATE, XANTHAN GUM, MONO- AND DIGLYCERIDES (PREVENTS FOAMING), ASPARTAMET+ AND AC" Date available: 09/23/2016 Date last updated by company: 09/23/2016
