Source: USDA Branded Food Products Database Release December 2017 Software v.3.8.6.4 2017-10-02
Report Run at: December 18, 2017 14:12 EST
"Nutrient data for: 45260803, JELLY HEARTS CANDY, UPC: 041260364686"
Food Group:  Branded Food Products Database
Common Name:

Nutrient,Unit,Data points,Std. Error,"5.0 PIECES = 40.0g",1Value per 100 g,
Proximates
"Energy",kcal,--,--,130,325
"Protein",g,--,--,0.00,0.00
"Total lipid (fat)",g,--,--,0.00,0.00
"Carbohydrate, by difference",g,--,--,33.00,82.50
"Sugars, total",g,--,--,22.00,55.00
Minerals
"Sodium, Na",mg,--,--,15,38
Vitamins
Lipids
Amino Acids
Other
Ingredients
"CORN SYRUP, SUGAR, CORN STARCH, MODIFIED CORN STARCH, NATURAL & ARTIFICIAL FLAVORS, RED 40." Date available: 10/19/2017 Date last updated by company: 10/19/2017
