Source: USDA Branded Food Products Database Release December 2017 Software v.3.8.6.4 2017-10-02
Report Run at: December 18, 2017 14:06 EST
"Nutrient data for: 45150632, JELLY BELLY CHRISTMAS DELUXE MIX, UPC: 011150940405"
Food Group:  Branded Food Products Database
Common Name:

Nutrient,Unit,Data points,Std. Error,"1.5 ONZ = 43.0g",1Value per 100 g,
Proximates
"Energy",kcal,--,--,180,419
"Protein",g,--,--,1.00,2.33
"Total lipid (fat)",g,--,--,3.00,6.98
"Carbohydrate, by difference",g,--,--,34.00,79.07
"Fiber, total dietary",g,--,--,0.0,0.0
"Sugars, total",g,--,--,28.00,65.12
Minerals
"Calcium, Ca",mg,--,--,0,0
"Iron, Fe",mg,--,--,0.00,0.00
"Sodium, Na",mg,--,--,25,58
Vitamins
"Vitamin C, total ascorbic acid",mg,--,--,0.0,0.0
"Vitamin A, IU",IU,--,--,0,0
Lipids
"Fatty acids, total saturated",g,--,--,2.000,4.650
"Fatty acids, total trans",g,--,--,0.000,0.000
"Cholesterol",mg,--,--,0,0
Amino Acids
Other
Ingredients
"SUGAR, CORN SYRUP, MILK, COCOA BUTTER, CHOCOLATE LIQUOR, CONTAINS 2 PERCENT OR LESS OF THE FOLLOWING: MALT CENTER (CORN SYRUP, WHEY POWDER, MALTED MILK POWDER [MALTED BARLEY, WHEAT, FLOUR, MILK, BICARBONATE OF SODA, SALT], SUGAR, MALT EXTRACT, COCONUT OIL, MONO & DIGLYCERIDES, ARTIFICIAL FLAVOR) ANHYDROUS MILK FAT, MODIFIED FOOD STARCH, CORN STARCH, KOSHER GELATIN, APPLE JUICE CONCENTRATE, MODIFIED SOY PROTEIN, SOY LECITHIN (AN EMULSIFIER), CITRUS PECTIN, INVERT SUGAR, INVERTASE, CITRIC ACID, TARTARIC ACID, SODIUM CITRATE, NATURAL AND ARTIFICIAL FLAVORS, TAPIOCA DEXTRIN, COLOR ADDED, RED 40 LAKE, RED 40, YELLOW 5 LAKE, BLUE 1 LAKE, YELLOW 5 AND 6, BLUE 1, BEESWAX, CARNAUBA WAX, CONFECTIONERS GLAZE, SALT." Date available: 07/14/2017 Date last updated by company: 07/14/2017
