Source: USDA Branded Food Products Database Release December 2017 Software v.3.8.6.4 2017-10-02
Report Run at: December 18, 2017 14:07 EST
"Nutrient data for: 45328863, JELLY BELLY FISH CHEWY CANDY, UPC: 071567992923"
Food Group:  Branded Food Products Database
Common Name:

Nutrient,Unit,Data points,Std. Error,"6.0 PIECES = 40.0g",1Value per 100 g,
Proximates
"Energy",kcal,--,--,130,325
"Protein",g,--,--,0.00,0.00
"Total lipid (fat)",g,--,--,0.00,0.00
"Carbohydrate, by difference",g,--,--,34.00,85.00
"Sugars, total",g,--,--,27.00,67.50
Minerals
"Sodium, Na",mg,--,--,5,12
Vitamins
Lipids
Amino Acids
Other
Ingredients
"SUGAR, CORN SYRUP, MODIFIED POTATO STARCH, CONTAINS 2% OR LESS OF THE FOLLOWING: NATURAL AND ARTIFICIAL FLAVORS, YELLOW 6, YELLOW 5, RED 40, BLUE 1, CITRIC ACID, CARNAUBA WAX, *COCONUT OIL." Date available: 10/13/2017 Date last updated by company: 10/13/2017
