Source: USDA Branded Food Products Database Release December 2017 Software v.3.8.6.4 2017-10-02
Report Run at: December 18, 2017 14:00 EST
"Nutrient data for: 45311304, JELL-O, PUDDING SNACKS, CHOCOLATE MILKSHAKE, UPC: 043000065297"
Food Group:  Branded Food Products Database
Common Name:

Nutrient,Unit,Data points,Std. Error,"1 SNACK = 110.0g",1Value per 100 g,
Proximates
"Energy",kcal,--,--,110,100
"Protein",g,--,--,2.00,1.82
"Total lipid (fat)",g,--,--,1.50,1.36
"Carbohydrate, by difference",g,--,--,24.00,21.82
"Fiber, total dietary",g,--,--,0.0,0.0
"Sugars, total",g,--,--,18.00,16.36
Minerals
"Calcium, Ca",mg,--,--,100,91
"Iron, Fe",mg,--,--,0.00,0.00
"Sodium, Na",mg,--,--,190,173
Vitamins
"Vitamin C, total ascorbic acid",mg,--,--,0.0,0.0
"Vitamin A, IU",IU,--,--,0,0
Lipids
"Fatty acids, total saturated",g,--,--,1.496,1.360
"Fatty acids, total trans",g,--,--,0.000,0.000
"Cholesterol",mg,--,--,0,0
Amino Acids
Other
Ingredients
"SKIM MILK, WATER, SUGAR, MODIFIED CORN STARCH, CONTAINS LESS THAN 1.5% OF COCOA PROCESSED WITH ALKALI, CORNSTARCH, HYDROGENATED VEGETABLE OIL (COCONUT AND PALM KERNEL OILS), SALT, SODIUM STEAROYL LACTYLATE (FOR SMOOTH TEXTURE), CALCIUM PHOSPHATE, SODIUM ALGINATE, NATURAL AND ARTIFICIAL FLAVOR, ARTIFICIAL COLOR, VITAMIN A PALMITATE, VITAMIN D." Date available: 07/14/2017 Date last updated by company: 07/14/2017
