Source: USDA Branded Food Products Database Release December 2017 Software v.3.8.6.4 2017-10-02
Report Run at: December 18, 2017 13:58 EST
"Nutrient data for: 45321180, JELL-O, JIGGLERS MOLD KIT GELATIN DESSERT, TEENAGE MUTANT NINJA TURTLES, BERRY BLUE STRAWBERRY, UPC: 043000070918"
Food Group:  Branded Food Products Database
Common Name:

Nutrient,Unit,Data points,Std. Error,"2.0 JIGGLERS = 26.0g",1Value per 100 g,
Proximates
"Energy",kcal,--,--,100,385
"Protein",g,--,--,2.00,7.69
"Total lipid (fat)",g,--,--,0.00,0.00
"Carbohydrate, by difference",g,--,--,23.00,88.46
"Sugars, total",g,--,--,23.00,88.46
Minerals
"Sodium, Na",mg,--,--,105,404
Vitamins
Lipids
"Fatty acids, total saturated",g,--,--,0.000,0.000
"Fatty acids, total trans",g,--,--,0.000,0.000
Amino Acids
Other
Ingredients
"SUGAR, GELATIN, ADIPIC ACID (FOR TARTNESS), CONTAINS LESS THAN 2% OF DISODIUM PHOSPHATE AND SODIUM CITRATE (CONTROLS ACIDITY), FUMARIC ACID (FOR TARTNESS), ARTIFICIAL AND NATURAL FLAVOR, RED 40, BLUE 1." Date available: 07/14/2017 Date last updated by company: 07/14/2017
