Source: USDA Branded Food Products Database Release December 2017 Software v.3.8.6.4 2017-10-02
Report Run at: December 18, 2017 14:01 EST
"Nutrient data for: 45140862, JELL-O, REDUCED CALORIE PUDDING SNACKS, DARK CHOCOLATE, UPC: 043000042038"
Food Group:  Branded Food Products Database
Common Name:

Nutrient,Unit,Data points,Std. Error,"1 SNACK = 103.0g",1Value per 100 g,
Proximates
"Energy",kcal,--,--,60,58
"Protein",g,--,--,2.00,1.94
"Total lipid (fat)",g,--,--,1.50,1.46
"Carbohydrate, by difference",g,--,--,11.00,10.68
"Fiber, total dietary",g,--,--,1.0,1.0
"Sugars, total",g,--,--,0.00,0.00
Minerals
"Calcium, Ca",mg,--,--,100,97
"Iron, Fe",mg,--,--,1.08,1.05
"Sodium, Na",mg,--,--,180,175
Vitamins
"Vitamin C, total ascorbic acid",mg,--,--,0.0,0.0
"Vitamin A, IU",IU,--,--,0,0
Lipids
"Fatty acids, total saturated",g,--,--,1.504,1.460
"Fatty acids, total trans",g,--,--,0.000,0.000
"Cholesterol",mg,--,--,0,0
Amino Acids
Other
Ingredients
"WATER, MODIFIED CORNSTARCH, COCOA PROCESSED WITH ALKALI, XYLITOL, MILK PROTEIN CONCENTRATE, CONTAINS LESS THAN 1.5% OF HYDROGENATED VEGETABLE OIL (COCONUT AND PALM KERNEL OILS), SALT, SODIUM STEAROYL LACTYLATE (FOR SMOOTH TEXTURE),CALCIUM PHOSPHATE, SODIU" Date available: 09/23/2016 Date last updated by company: 09/23/2016
