Source: USDA Branded Food Products Database Release December 2017 Software v.3.8.6.4 2017-10-02
Report Run at: December 18, 2017 14:05 EST
"Nutrient data for: 45276966, JELLYBEANS, UPC: 022000014818"
Food Group:  Branded Food Products Database
Common Name:

Nutrient,Unit,Data points,Std. Error,"1 PACKAGE = 45.0g",1Value per 100 g,
Proximates
"Energy",kcal,--,--,150,333
"Protein",g,--,--,0.00,0.00
"Total lipid (fat)",g,--,--,0.00,0.00
"Carbohydrate, by difference",g,--,--,38.00,84.44
"Fiber, total dietary",g,--,--,0.0,0.0
"Sugars, total",g,--,--,30.00,66.67
Minerals
"Calcium, Ca",mg,--,--,0,0
"Iron, Fe",mg,--,--,0.00,0.00
"Sodium, Na",mg,--,--,0,0
Vitamins
"Vitamin C, total ascorbic acid",mg,--,--,0.0,0.0
"Vitamin A, IU",IU,--,--,0,0
Lipids
"Fatty acids, total saturated",g,--,--,0.000,0.000
"Fatty acids, total trans",g,--,--,0.000,0.000
"Cholesterol",mg,--,--,0,0
Amino Acids
Other
Ingredients
"SUGAR, CORN SYRUP, MODIFIED CORN STARCH; LESS THAN 2% OF: APPLE JUICE FROM CONCENTRATE, CITRIC ACID, ACACIA, COLORS (BLUE 1, YELLOW 6, YELLOW 5, RED 40, TITANIUM DIOXIDE), NATURAL AND ARTIFICIAL FLAVORS, SODIUM CITRATE, CARNAUBA WAX, CONFECTIONER'S GLAZE." Date available: 07/14/2017 Date last updated by company: 07/14/2017
