Source: USDA Branded Food Products Database Release December 2017 Software v.3.8.6.4 2017-10-02
Report Run at: December 18, 2017 13:59 EST
"Nutrient data for: 45140665, JELL-O, NO BAKE DESSERT, REAL CHEESECAKE, UPC: 043000217108"
Food Group:  Branded Food Products Database
Common Name:

Nutrient,Unit,Data points,Std. Error,"0.166 PACKAGE = 52.0g",1Value per 100 g,
Proximates
"Energy",kcal,--,--,220,423
"Protein",g,--,--,2.00,3.85
"Total lipid (fat)",g,--,--,5.00,9.62
"Carbohydrate, by difference",g,--,--,40.00,76.92
"Fiber, total dietary",g,--,--,1.0,1.9
"Sugars, total",g,--,--,25.00,48.08
Minerals
"Calcium, Ca",mg,--,--,150,288
"Iron, Fe",mg,--,--,0.72,1.38
"Sodium, Na",mg,--,--,340,654
Vitamins
"Vitamin C, total ascorbic acid",mg,--,--,0.0,0.0
"Vitamin A, IU",IU,--,--,0,0
Lipids
"Fatty acids, total saturated",g,--,--,2.501,4.810
"Fatty acids, total trans",g,--,--,0.000,0.000
"Cholesterol",mg,--,--,0,0
Amino Acids
Other
Ingredients
"FILLING MIX (SUGAR, MODIFIED FOOD STARCH, BAKER'S CHEESE [SKIM MILK, LACTIC ACID, CULTURE, BHA (PRESERVATIVE)], DEXTROSE, CORN SYRUP SOLIDS, HYDROGENATED COCONUT OIL, CONTAINS LESS THAN 2% OF PALM KERNEL OIL, SODIUM CASEINATE, CALCIUM SULFATE, TETRASODIUM" Date available: 09/23/2016 Date last updated by company: 09/23/2016
