Source: USDA Branded Food Products Database Release December 2017 Software v.3.8.6.4 2017-10-02
Report Run at: December 18, 2017 13:56 EST
"Nutrient data for: 45140412, JELL-O, GELATIN SNACKS, STRAWBERRY, UPC: 043000050910"
Food Group:  Branded Food Products Database
Common Name:

Nutrient,Unit,Data points,Std. Error,"1 SNACK = 89.0g",1Value per 100 g,
Proximates
"Energy",kcal,--,--,10,11
"Protein",g,--,--,1.00,1.12
"Total lipid (fat)",g,--,--,0.00,0.00
"Carbohydrate, by difference",g,--,--,0.00,0.00
"Sugars, total",g,--,--,0.00,0.00
Minerals
"Sodium, Na",mg,--,--,45,51
Vitamins
Lipids
"Fatty acids, total saturated",g,--,--,0.000,0.000
"Fatty acids, total trans",g,--,--,0.000,0.000
Amino Acids
Other
Ingredients
"WATER, GELATIN, ADIPIC ACID (FOR TARTNESS), SODIUM CITRATE (CONTROLS ACIDITY), CITRIC ACID (FOR TARTNESS), ASPARTAME* AND ACESULFAME POTASSIUM (SWEETENERS), SALT, RED 40, ARTIFICIAL FLAVOR." Date available: 09/23/2016 Date last updated by company: 09/23/2016
