Source: USDA Branded Food Products Database Release December 2017 Software v.3.8.6.4 2017-10-02
Report Run at: December 18, 2017 14:10 EST
"Nutrient data for: 45151815, JELLY BUDS, UPC: 043427008112"
Food Group:  Branded Food Products Database
Common Name:

Nutrient,Unit,Data points,Std. Error,"2.0 COOKIES = 16.8g",1Value per 100 g,
Proximates
"Energy",kcal,--,--,60,357
"Protein",g,--,--,0.00,0.00
"Total lipid (fat)",g,--,--,2.00,11.90
"Carbohydrate, by difference",g,--,--,11.00,65.48
"Fiber, total dietary",g,--,--,0.0,0.0
"Sugars, total",g,--,--,6.00,35.71
Minerals
"Calcium, Ca",mg,--,--,0,0
"Iron, Fe",mg,--,--,0.00,0.00
"Sodium, Na",mg,--,--,15,89
Vitamins
"Vitamin C, total ascorbic acid",mg,--,--,0.0,0.0
"Vitamin A, IU",IU,--,--,0,0
Lipids
"Fatty acids, total saturated",g,--,--,0.501,2.980
"Fatty acids, total trans",g,--,--,0.000,0.000
"Cholesterol",mg,--,--,5,30
Amino Acids
Other
Ingredients
"POTATO STARCH, TAPIOCA STARCH, PALM OIL, SUGAR, WHOLE EGGS, ALMONDS, SODIUM BICARBONATE, MONOCALCIUM PHOSPHATE, SALT, VANILLIN (ARTIFICIAL FLAVOR), CARRAGEENAN GUM, XANTHAN GUM, AMMONIUM BICARBONATE, WATER, PUREE (MAY CONTAIN ONE OF THE FOLLOWING: APPLE &/OR APRICOT), RASPBERRY JUICE, INVERT SUGAR, PECTIN, LOCUST BEAN GUM, CITRIC ACID, SODIUM BENZOATE (AS A PRESERVATIVE), SODIUM CITRATE, FD&C RED #40 & FD&C BLUE #1." Date available: 07/14/2017 Date last updated by company: 07/14/2017
