Source: USDA Branded Food Products Database Release December 2017 Software v.3.8.6.4 2017-10-02
Report Run at: December 18, 2017 14:16 EST
"Nutrient data for: 45058901, JENNIE-O, EXTRA LEAN GROUND TURKEY BREAST, UPC: 039272020485"
Food Group:  Branded Food Products Database
Common Name:

Nutrient,Unit,Data points,Std. Error,"4.0 ONZ = 112.0g",1Value per 100 g,
Proximates
"Energy",kcal,--,--,120,107
"Protein",g,--,--,26.00,23.21
"Total lipid (fat)",g,--,--,1.50,1.34
"Carbohydrate, by difference",g,--,--,0.00,0.00
"Fiber, total dietary",g,--,--,0.0,0.0
"Sugars, total",g,--,--,0.00,0.00
Minerals
"Calcium, Ca",mg,--,--,0,0
"Iron, Fe",mg,--,--,0.55,0.49
"Sodium, Na",mg,--,--,69,62
Vitamins
"Vitamin C, total ascorbic acid",mg,--,--,0.0,0.0
"Vitamin A, IU",IU,--,--,0,0
Lipids
"Fatty acids, total saturated",g,--,--,0.504,0.450
"Fatty acids, total trans",g,--,--,0.000,0.000
"Cholesterol",mg,--,--,55,49
Amino Acids
Other
Ingredients
"TURKEY BREAST, ROSEMARY EXTRACT." Date available: 07/14/2017 Date last updated by company: 07/14/2017
