Source: USDA Branded Food Products Database Release December 2017 Software v.3.8.6.4 2017-10-02
Report Run at: December 18, 2017 14:22 EST
"Nutrient data for: 45139895, JENNIE-O, TURKEY BREAST STICKS, CRACKED PEPPER, UPC: 042222873024"
Food Group:  Branded Food Products Database
Common Name:

Nutrient,Unit,Data points,Std. Error,"1 STICK = 21.0g",1Value per 100 g,
Proximates
"Energy",kcal,--,--,25,119
"Protein",g,--,--,5.00,23.81
"Total lipid (fat)",g,--,--,0.50,2.38
"Carbohydrate, by difference",g,--,--,0.00,0.00
"Fiber, total dietary",g,--,--,0.0,0.0
"Sugars, total",g,--,--,0.00,0.00
Minerals
"Calcium, Ca",mg,--,--,0,0
"Iron, Fe",mg,--,--,0.00,0.00
"Sodium, Na",mg,--,--,100,476
Vitamins
"Vitamin C, total ascorbic acid",mg,--,--,0.0,0.0
"Vitamin A, IU",IU,--,--,0,0
Lipids
"Fatty acids, total saturated",g,--,--,0.000,0.000
"Fatty acids, total trans",g,--,--,0.000,0.000
"Cholesterol",mg,--,--,10,48
Amino Acids
Other
Ingredients
"TURKEY BREAST MEAT, WATER, CONTAINS 2% OR LESS VINEGAR, SALT, SEASONING (BLACK PEPPER, SALT, BROWN SUGAR, GARLIC POWDER), TURKEY FLAVOR (TURKEY BROTH, TURKEY FAT, SALT, FLAVOR, ONION POWDER), ROSEMARY EXTRACT, BAKING SODA." Date available: 07/14/2017 Date last updated by company: 07/14/2017
