Source: USDA Branded Food Products Database Release December 2017 Software v.3.8.6.4 2017-10-02
Report Run at: December 18, 2017 14:16 EST
"Nutrient data for: 45139939, JENNIE-O, GROUND TURKEY, UPC: 042222130073"
Food Group:  Branded Food Products Database
Common Name:

Nutrient,Unit,Data points,Std. Error,"4.0 ONZ = 112.0g",1Value per 100 g,
Proximates
"Energy",kcal,--,--,220,196
"Protein",g,--,--,19.00,16.96
"Total lipid (fat)",g,--,--,17.00,15.18
"Carbohydrate, by difference",g,--,--,0.00,0.00
"Fiber, total dietary",g,--,--,0.0,0.0
"Sugars, total",g,--,--,0.00,0.00
Minerals
"Calcium, Ca",mg,--,--,60,54
"Iron, Fe",mg,--,--,1.10,0.98
"Sodium, Na",mg,--,--,95,85
Vitamins
"Vitamin C, total ascorbic acid",mg,--,--,0.9,0.8
"Vitamin A, IU",IU,--,--,76,68
Lipids
"Fatty acids, total saturated",g,--,--,3.998,3.570
"Fatty acids, total trans",g,--,--,0.000,0.000
"Cholesterol",mg,--,--,95,85
Amino Acids
Other
Ingredients
"TURKEY, ROSEMARY EXTRACT." Date available: 07/14/2017 Date last updated by company: 07/14/2017
