Source: USDA Branded Food Products Database Release December 2017 Software v.3.8.6.4 2017-10-02
Report Run at: December 18, 2017 14:26 EST
"Nutrient data for: 45009594, JERSEY MARY'S, BARBEQUE BAKING SAUCE, UPC: 858070000235"
Food Group:  Branded Food Products Database
Common Name:

Nutrient,Unit,Data points,Std. Error,"2.0 Tbsp = 22.0g",1Value per 100 g,
Proximates
"Energy",kcal,--,--,20,91
"Protein",g,--,--,0.00,0.00
"Total lipid (fat)",g,--,--,0.00,0.00
"Carbohydrate, by difference",g,--,--,4.00,18.18
"Fiber, total dietary",g,--,--,0.0,0.0
"Sugars, total",g,--,--,4.00,18.18
Minerals
"Calcium, Ca",mg,--,--,0,0
"Iron, Fe",mg,--,--,0.61,2.77
"Sodium, Na",mg,--,--,170,773
Vitamins
"Vitamin C, total ascorbic acid",mg,--,--,4.0,18.4
"Vitamin A, IU",IU,--,--,169,768
Lipids
"Fatty acids, total saturated",g,--,--,0.000,0.000
"Fatty acids, total trans",g,--,--,0.000,0.000
"Cholesterol",mg,--,--,0,0
Amino Acids
Other
Ingredients
"TOMATO CONCENTRATE, WATER, DISTILLED VINEGAR, BROWN SUGAR, CANOLA OIL, WORCESTERSHIRE SAUCE (VINEGAR, WATER, MOLASSES, SUGAR, ONIONS, ANCHOVIES, SALT, GARLIC, CLOVES, TAMARIND EXTRACT, NATURAL FLAVORINGS, CHILI PEPPER EXTRACT), KOSHER SALT, DRY MUSTARD, ONION POWDER, CELERY POWDER, BLACK PEPPER, CAYENNE PEPPER." Date available: 06/24/2017 Date last updated by company: 06/24/2017
