Source: USDA Branded Food Products Database Release December 2017 Software v.3.8.6.4 2017-10-02
Report Run at: December 18, 2017 14:29 EST
"Nutrient data for: 45149950, JEWEL OSCO, FROSTED SUGAR COOKIES, UPC: 816059017469"
Food Group:  Branded Food Products Database
Common Name:

Nutrient,Unit,Data points,Std. Error,"1 COOKIES = 38.0g",1Value per 100 g,
Proximates
"Energy",kcal,--,--,150,395
"Protein",g,--,--,1.00,2.63
"Total lipid (fat)",g,--,--,5.00,13.16
"Carbohydrate, by difference",g,--,--,26.00,68.42
"Fiber, total dietary",g,--,--,1.0,2.6
"Sugars, total",g,--,--,18.00,47.37
Minerals
"Calcium, Ca",mg,--,--,0,0
"Iron, Fe",mg,--,--,0.47,1.25
"Sodium, Na",mg,--,--,160,421
Vitamins
"Vitamin C, total ascorbic acid",mg,--,--,0.0,0.0
"Vitamin A, IU",IU,--,--,0,0
Lipids
"Fatty acids, total saturated",g,--,--,2.500,6.580
"Fatty acids, total trans",g,--,--,0.000,0.000
"Cholesterol",mg,--,--,0,0
Amino Acids
Other
Ingredients
"SUGAR, BLEACHED WHEAT FLOUR, MARGARINE [PALM OIL, WATER, SOYBEAN OIL, SALT, CONTAINS LESS THAN 2% OF WHEY SOLIDS, VEGETABLE MONO & DIGLYCERIDES, SOY LECITHIN, BHA & BHT ADDED TO PROTECT FLAVOR, VITAMIN A PALMITATE AND VITAMIN D3 ADDED, NATURAL & ARTIFICIAL FLAVOR], SHORTENING (LIQUID AND PARTIALLY HYDROGENATED SOYBEAN OIL, HYDROGENATED COTTONSEED OIL, TBHQ, AND CITRIC ACID ADDED TO PROTECT FLAVOR) OR PALM OIL, INVERT SUGAR, CRYSTALLINE FRUCTOSE, RED DUTCHED COCOA (PROCESSED WITH ALKALI), CORN SYRUP, MILK POWDER, CORN STARCH, VANILLA, SALT, BAKING SODA, BAKING POWDER, SOY LECITHIN, XANTHAN GUM, GUAR GUM, CORN STARCH, PARTIALLY HYDROGENATED VEGETABLE OIL, DEXTRIN, CARNAUBA WAX, CONFECTIONER'S GLAZE, FD&C LAKE RED # 40, FD&C LAKE YELLOW #5, FD&C LAKE BLUE #1, TITANIUM DIOXIDE" Date available: 07/14/2017 Date last updated by company: 07/14/2017
