Source: USDA Branded Food Products Database Release December 2017 Software v.3.8.6.4 2017-10-02
Report Run at: December 18, 2017 14:28 EST
"Nutrient data for: 45149423, JEWEL OSCO, ENERGY MIX, UPC: 722648543236"
Food Group:  Branded Food Products Database
Common Name:

Nutrient,Unit,Data points,Std. Error,"0.25 cup = 36.0g",1Value per 100 g,
Proximates
"Energy",kcal,--,--,180,500
"Protein",g,--,--,6.00,16.67
"Total lipid (fat)",g,--,--,13.00,36.11
"Carbohydrate, by difference",g,--,--,13.00,36.11
"Fiber, total dietary",g,--,--,2.0,5.6
"Sugars, total",g,--,--,8.00,22.22
Minerals
"Calcium, Ca",mg,--,--,20,56
"Iron, Fe",mg,--,--,0.50,1.39
"Sodium, Na",mg,--,--,5,14
Vitamins
"Vitamin C, total ascorbic acid",mg,--,--,0.0,0.0
"Vitamin A, IU",IU,--,--,0,0
Lipids
"Fatty acids, total saturated",g,--,--,2.498,6.940
"Fatty acids, total trans",g,--,--,0.000,0.000
"Cholesterol",mg,--,--,0,0
Amino Acids
Other
Ingredients
"PEANUTS, CANDY PIECES (SUGAR, COCOA, PARTIALLY HYDROGENATED PALM KERNEL, PALM AND COCONUT OILS, WHEY ARTIFICIAL COLOR [INCLUDING BLUE 1, BLUE 1 LAKE, BLUE 2 LAKE, YELLOW 5, YELLOW 5 LAKE, YELLOW 6, YELLOW 6 LAKE, RED 40, RED 40 LAKE, SORBITOL, TITANIUM DIOXIDE, PHOSPHORIC ACID, METHYL AND PROPYL PARABENS, CARAMEL], NONFAT DRY MILK POWDER, CORN SYRUP, SOY LECITHIN {EMULSIFIER}, CARNAUBA WAX, VANILLIN [ARTIFICIAL FLAVOR]), SUNFLOWER KERNELS, SEMI-SWEET CHOCOLATE DROPS (SUGAR, CHOCOLATE LIQUOR, ANHYDROUS MILK FAT, COCOA BUTTER, SOY LECITHIN [AN EMULSIFIER]), DARK RAISINS, SOYNUTS (SOYBEANS, SUNFLOWER OIL), COTTONSEED, PEANUT & COCONUT OILS, SALT." Date available: 07/14/2017 Date last updated by company: 07/14/2017
