Source: USDA Branded Food Products Database Release December 2017 Software v.3.8.6.4 2017-10-02
Report Run at: December 18, 2017 14:37 EST
"Nutrient data for: 45306947, JIMMY DEAN, TURKEY SAUSAGE PATTIES, UPC: 077900365171"
Food Group:  Branded Food Products Database
Common Name:

Nutrient,Unit,Data points,Std. Error,"2.0 PATTIES = 52.0g",1Value per 100 g,
Proximates
"Energy",kcal,--,--,120,231
"Protein",g,--,--,10.00,19.23
"Total lipid (fat)",g,--,--,8.00,15.38
"Carbohydrate, by difference",g,--,--,1.00,1.92
"Fiber, total dietary",g,--,--,0.0,0.0
"Sugars, total",g,--,--,1.00,1.92
Minerals
"Calcium, Ca",mg,--,--,20,38
"Iron, Fe",mg,--,--,2.36,4.53
"Sodium, Na",mg,--,--,360,692
Vitamins
"Vitamin C, total ascorbic acid",mg,--,--,0.0,0.0
"Vitamin A, IU",IU,--,--,0,0
Lipids
"Fatty acids, total saturated",g,--,--,2.501,4.810
"Fatty acids, total trans",g,--,--,0.000,0.000
"Cholesterol",mg,--,--,10,19
Amino Acids
Other
Ingredients
"MECHANICALLY SEPARATED TURKEY, TURKEY, WATER, SOY PROTEIN CONCENTRATE, CONTAINS 2% OR LESS: SALT, DEXTROSE, SUGAR, SPICES, SODIUM PHOSPHATE, BHT, CITRIC ACID, CARAMEL COLOR." Date available: 06/25/2017 Date last updated by company: 06/25/2017
