Source: USDA Branded Food Products Database Release December 2017 Software v.3.8.6.4 2017-10-02
Report Run at: December 18, 2017 14:38 EST
"Nutrient data for: 45098650, JJ FLATS, OLD LONDON, FLATBREADS, UPC: 085906100603"
Food Group:  Branded Food Products Database
Common Name:

Nutrient,Unit,Data points,Std. Error,"3.5 PIECES | ABOUT = 16.0g",1Value per 100 g,
Proximates
"Energy",kcal,--,--,60,375
"Protein",g,--,--,2.00,12.50
"Total lipid (fat)",g,--,--,0.50,3.12
"Carbohydrate, by difference",g,--,--,12.00,75.00
"Fiber, total dietary",g,--,--,1.0,6.2
"Sugars, total",g,--,--,0.00,0.00
Minerals
"Calcium, Ca",mg,--,--,20,125
"Iron, Fe",mg,--,--,3.37,21.09
"Sodium, Na",mg,--,--,125,781
Vitamins
"Vitamin C, total ascorbic acid",mg,--,--,0.0,0.0
"Vitamin A, IU",IU,--,--,0,0
Lipids
"Fatty acids, total saturated",g,--,--,0.000,0.000
"Fatty acids, total monounsaturated",g,--,--,0.000,0.000
"Fatty acids, total polyunsaturated",g,--,--,0.000,0.000
"Fatty acids, total trans",g,--,--,0.000,0.000
"Cholesterol",mg,--,--,0,0
Amino Acids
Other
Ingredients
"ENRICHED FLOUR (WHEAT FLOUR, MALTED BARLEY FLOUR, NIACIN, REDUCED IRON, THIAMINE MONONITRATE, RIBOFLAVIN, FOLIC ACID), SESAME SEEDS, SALT, CARAWAY SEEDS, POPPY SEEDS, SUGAR, YEAST, DRIED ONION, GARLIC POWDER, INACTIVE YEAST." Date available: 09/07/2017 Date last updated by company: 09/07/2017
