Source: USDA Branded Food Products Database Release December 2017 Software v.3.8.6.4 2017-10-02
Report Run at: December 18, 2017 14:39 EST
"Nutrient data for: 45148888, JLM, DARK CHOCOLATE COFFEE BEANS, UPC: 094776128235"
Food Group:  Branded Food Products Database
Common Name:

Nutrient,Unit,Data points,Std. Error,"1.4 ONZ = 40.0g",1Value per 100 g,
Proximates
"Energy",kcal,--,--,210,525
"Protein",g,--,--,3.00,7.50
"Total lipid (fat)",g,--,--,12.00,30.00
"Carbohydrate, by difference",g,--,--,23.00,57.50
"Sugars, total",g,--,--,17.00,42.50
Minerals
"Sodium, Na",mg,--,--,0,0
Vitamins
Lipids
Amino Acids
Other
Ingredients
"DARK CHOCOLATE (SUGAR, CHOCOLATE LIQUOR, COCOA BUTTER, CHOCOLATE LIQUOR PROCESSED WITH ALKALI, SOY LECITHIN (AN EMULSIFIER), VANILLA, SALT, ARTIFICIAL FLAVORING ADDED), DRY ROASTED COFFEE BEANS, CONFECTIONERS GLAZE." Date available: 10/13/2017 Date last updated by company: 10/13/2017
