Source: USDA Branded Food Products Database Release December 2017 Software v.3.8.6.4 2017-10-02
Report Run at: December 18, 2017 14:41 EST
"Nutrient data for: 45250859, JLM, WATERMELON GUMMI SLICES, UPC: 094776146635"
Food Group:  Branded Food Products Database
Common Name:

Nutrient,Unit,Data points,Std. Error,"7.0 PIECES = 42.0g",1Value per 100 g,
Proximates
Minerals
Vitamins
Lipids
Amino Acids
Other
Ingredients
"CORN SYRUP, SUGAR, CORN STARCH, BEEF GELATINE, ACIDULANT (CITRIC ACID), ARTIFICIAL FLAVOR, TITANIUM DIOXIDE, YELLOW #5, BLUE #1, RED #40." Date available: 09/23/2016 Date last updated by company: 09/23/2016
