Source: USDA Branded Food Products Database Release December 2017 Software v.3.8.6.4 2017-10-02
Report Run at: December 18, 2017 15:01 EST
"Nutrient data for: 45025113, JO-SEF, SQUARE CINNAMON COOKIES, CINNAMON, UPC: 898967000443"
Food Group:  Branded Food Products Database
Common Name:

Nutrient,Unit,Data points,Std. Error,"3.0 COOKIES = 35.0g",1Value per 100 g,
Proximates
"Energy",kcal,--,--,170,486
"Protein",g,--,--,3.00,8.57
"Total lipid (fat)",g,--,--,8.00,22.86
"Carbohydrate, by difference",g,--,--,22.00,62.86
"Fiber, total dietary",g,--,--,1.0,2.9
"Sugars, total",g,--,--,9.00,25.71
Minerals
"Calcium, Ca",mg,--,--,20,57
"Iron, Fe",mg,--,--,1.03,2.94
"Sodium, Na",mg,--,--,75,214
Vitamins
"Vitamin C, total ascorbic acid",mg,--,--,0.0,0.0
"Vitamin A, IU",IU,--,--,0,0
Lipids
"Fatty acids, total saturated",g,--,--,4.000,11.430
"Fatty acids, total trans",g,--,--,0.000,0.000
"Cholesterol",mg,--,--,0,0
Amino Acids
Other
Ingredients
"GLUTEN FREE FLOUR (CONTAINS RICE FLOUR, SOY FLOUR), NON-HYDROGENATED PALM OIL, SUGAR, MALTODEXTRIN, WATER, BROWN SUGAR, POTATO STARCH, CINNAMON, LEAVENING (BAKING SODA, AMMONIUM BICARBONATE, MONOCALCIUM PHOSPHATE), XANTHAN GUM, SOY LECITHIN, SALT." Date available: 07/14/2017 Date last updated by company: 07/14/2017
