Source: USDA Branded Food Products Database Release December 2017 Software v.3.8.6.4 2017-10-02
Report Run at: December 18, 2017 15:01 EST
"Nutrient data for: 45153710, JO'S CANDIES, SALTED TOFFEE BARK, UPC: 755350101432"
Food Group:  Branded Food Products Database
Common Name:

Nutrient,Unit,Data points,Std. Error,"1 ONZ = 28.0g",1Value per 100 g,
Proximates
"Energy",kcal,--,--,160,571
"Protein",g,--,--,2.00,7.14
"Total lipid (fat)",g,--,--,8.00,28.57
"Carbohydrate, by difference",g,--,--,20.00,71.43
"Fiber, total dietary",g,--,--,1.0,3.6
"Sugars, total",g,--,--,18.00,64.29
Minerals
"Calcium, Ca",mg,--,--,40,143
"Iron, Fe",mg,--,--,0.64,2.29
"Sodium, Na",mg,--,--,80,286
Vitamins
"Vitamin C, total ascorbic acid",mg,--,--,0.0,0.0
"Vitamin A, IU",IU,--,--,357,1275
Lipids
"Fatty acids, total saturated",g,--,--,4.001,14.290
"Fatty acids, total trans",g,--,--,0.000,0.000
"Cholesterol",mg,--,--,15,54
Amino Acids
Other
Ingredients
"TOFFEE (SUGAR, ALMONDS, BUTTER, CORN SYRUP, MOLASSES, SALT AND BAKING SODA), MILK CHOCOLATE (SUGAR, COCOA BUTTER, MILK, UNSWEETENED CHOCOLATE, SOYA LECITHIN, PURE VANILLA) OR DARK CHOCOLATE (CACAO BEANS, PURE CANE SUGAR, COCOA BUTTER, SOYA LECITHIN, VANILLA BEANS), SEA SALT." Date available: 07/14/2017 Date last updated by company: 07/14/2017
