Source: USDA Branded Food Products Database Release December 2017 Software v.3.8.6.4 2017-10-02
Report Run at: December 18, 2017 15:00 EST
"Nutrient data for: 45161101, JO'S CANDIES, POPCORN, SALTED CARAMEL, ALMONDS, UPC: 755350100053"
Food Group:  Branded Food Products Database
Common Name:

Nutrient,Unit,Data points,Std. Error,"0.5 cup = 22.0g",1Value per 100 g,
Proximates
"Energy",kcal,--,--,110,500
"Protein",g,--,--,3.00,13.64
"Total lipid (fat)",g,--,--,7.00,31.82
"Carbohydrate, by difference",g,--,--,10.00,45.45
"Fiber, total dietary",g,--,--,2.0,9.1
"Sugars, total",g,--,--,7.00,31.82
Minerals
"Calcium, Ca",mg,--,--,40,182
"Iron, Fe",mg,--,--,1.64,7.44
"Sodium, Na",mg,--,--,40,182
Vitamins
"Vitamin C, total ascorbic acid",mg,--,--,0.0,0.0
"Vitamin A, IU",IU,--,--,0,0
Lipids
"Fatty acids, total saturated",g,--,--,2.000,9.090
"Fatty acids, total trans",g,--,--,0.000,0.000
"Cholesterol",mg,--,--,3,14
Amino Acids
Other
Ingredients
"SUGAR, POPCORN, BUTTER (CREAM, SALT), ALMONDS, CORN SYRUP, MOLASSES, SOY LECITHIN (AN EMULSIFIER), SALT AND BAKING SODA (SODIUM BICARBONATE)." Date available: 07/14/2017 Date last updated by company: 07/14/2017
