Source: USDA Branded Food Products Database Release December 2017 Software v.3.8.6.4 2017-10-02
Report Run at: December 18, 2017 14:43 EST
"Nutrient data for: 45050935, JODEE'S, DOUBLE CHOCOLATE PIE, UPC: 030955080529"
Food Group:  Branded Food Products Database
Common Name:

Nutrient,Unit,Data points,Std. Error,"1.6 ONZ = 45.0g",1Value per 100 g,
Proximates
"Energy",kcal,--,--,194,431
"Protein",g,--,--,3.00,6.67
"Total lipid (fat)",g,--,--,13.00,28.89
"Carbohydrate, by difference",g,--,--,16.00,35.56
"Fiber, total dietary",g,--,--,3.0,6.7
"Sugars, total",g,--,--,10.00,22.22
Minerals
"Sodium, Na",mg,--,--,3,7
Vitamins
Lipids
"Fatty acids, total saturated",g,--,--,1.998,4.440
"Fatty acids, total trans",g,--,--,0.000,0.000
"Cholesterol",mg,--,--,0,0
Amino Acids
Other
Ingredients
"CASHEWS, FILTERED WATER, CACAO POWDER, SHREDDED COCONUT, AGAVE, COCONUT OIL, GRADE B MAPLE SYRUP, CACAO NIBS, WALNUTS, PECANS, DATES, SOY LECITHIN, VANILLA EXTRACT, NATURAL CHERRY FLAVOR, PINK SALT." Date available: 10/13/2017 Date last updated by company: 10/13/2017
