Source: USDA Branded Food Products Database Release December 2017 Software v.3.8.6.4 2017-10-02
Report Run at: December 18, 2017 14:43 EST
"Nutrient data for: 45166029, JOE CHIPS, SWEET POTATO KETTLE COOKED CHIPS, UPC: 743234001763"
Food Group:  Branded Food Products Database
Common Name:

Nutrient,Unit,Data points,Std. Error,"1 ONZ = 28.0g",1Value per 100 g,
Proximates
"Energy",kcal,--,--,150,536
"Protein",g,--,--,1.00,3.57
"Total lipid (fat)",g,--,--,10.00,35.71
"Carbohydrate, by difference",g,--,--,16.00,57.14
"Fiber, total dietary",g,--,--,1.0,3.6
"Sugars, total",g,--,--,4.00,14.29
Minerals
"Calcium, Ca",mg,--,--,20,71
"Iron, Fe",mg,--,--,0.64,2.29
"Sodium, Na",mg,--,--,70,250
Vitamins
"Vitamin C, total ascorbic acid",mg,--,--,10.7,38.3
"Vitamin A, IU",IU,--,--,8035,28698
Lipids
"Fatty acids, total saturated",g,--,--,1.501,5.360
"Fatty acids, total trans",g,--,--,0.000,0.000
"Cholesterol",mg,--,--,0,0
Amino Acids
Other
Ingredients
"JOE CHIPS: SMALL BATCHES OF SELECT FRESH SWEET POTATOES HAND COOKED IN VEGETABLE OIL (CONTAINS ONE OR MORE OF THE FOLLOWING: SUNFLOWER, COTTONSEED, CORN, CANOLA AND SAFFLOWER) AND SEA SALT." Date available: 07/14/2017 Date last updated by company: 07/14/2017
