Source: USDA Branded Food Products Database Release December 2017 Software v.3.8.6.4 2017-10-02
Report Run at: December 18, 2017 14:53 EST
"Nutrient data for: 45102529, JOHNVINCE FOODS, VITALITY TRAIL MIX, UPC: 064777813645"
Food Group:  Branded Food Products Database
Common Name:

Nutrient,Unit,Data points,Std. Error,"0.33 cup = 50.0g",1Value per 100 g,
Proximates
"Energy",kcal,--,--,220,440
"Protein",g,--,--,4.00,8.00
"Total lipid (fat)",g,--,--,11.00,22.00
"Carbohydrate, by difference",g,--,--,28.00,56.00
"Fiber, total dietary",g,--,--,4.0,8.0
"Sugars, total",g,--,--,20.00,40.00
Minerals
"Calcium, Ca",mg,--,--,40,80
"Iron, Fe",mg,--,--,1.08,2.16
"Sodium, Na",mg,--,--,10,20
Vitamins
"Vitamin C, total ascorbic acid",mg,--,--,0.0,0.0
"Vitamin A, IU",IU,--,--,0,0
Lipids
"Fatty acids, total saturated",g,--,--,1.500,3.000
"Fatty acids, total trans",g,--,--,0.000,0.000
"Cholesterol",mg,--,--,0,0
Amino Acids
Other
Ingredients
"DRIED CRANBERRIES, SUGAR, ALMONDS, PUMPKIN SEEDS, WALNUTS, PISTACHIOS, PECANS, SUNFLOWER OIL, SOYBEAN AND/OR PEANUT OIL, SEA SALT." Date available: 06/25/2017 Date last updated by company: 06/25/2017
