Source: USDA Branded Food Products Database Release December 2017 Software v.3.8.6.4 2017-10-02
Report Run at: December 18, 2017 14:47 EST
"Nutrient data for: 45157317, JOHNVINCE FOODS, ALMONDS, CHILI LIME, UPC: 064777813744"
Food Group:  Branded Food Products Database
Common Name:

Nutrient,Unit,Data points,Std. Error,"0.125 cup = 30.0g",1Value per 100 g,
Proximates
"Energy",kcal,--,--,190,633
"Protein",g,--,--,6.00,20.00
"Total lipid (fat)",g,--,--,15.00,50.00
"Carbohydrate, by difference",g,--,--,7.00,23.33
"Fiber, total dietary",g,--,--,4.0,13.3
"Sugars, total",g,--,--,2.00,6.67
Minerals
"Calcium, Ca",mg,--,--,80,267
"Iron, Fe",mg,--,--,2.40,8.00
"Sodium, Na",mg,--,--,150,500
Vitamins
"Vitamin C, total ascorbic acid",mg,--,--,2.0,6.7
"Vitamin A, IU",IU,--,--,166,555
Lipids
"Fatty acids, total saturated",g,--,--,0.999,3.330
"Fatty acids, total trans",g,--,--,0.000,0.000
"Cholesterol",mg,--,--,0,0
Amino Acids
Other
Ingredients
"ALMONDS, SOYBEAN AND/OR PEANUT OIL, SEASONING (CORN MALTODEXTRIN, SALT, TOMATO POWDER, DEXTROSE, ONION POWDER, HYDROLYZED SOYA AND CORN PROTEIN, GARLIC POWDER, SPICES, NATURAL FLAVOR, JALAPENO POWDER, CITRIC ACID, SILICON DIOXIDE (ANTI CAKING AGENT), SPICE EXTRACTIVES, DEHYDRATED PARSLEY, VINEGAR)." Date available: 07/14/2017 Date last updated by company: 07/14/2017
