Source: USDA Branded Food Products Database Release December 2017 Software v.3.8.6.4 2017-10-02
Report Run at: December 18, 2017 14:53 EST
"Nutrient data for: 45062552, JOHNVINCE FOODS, TAHITIAN PARADISE TRAIL MIX, UPC: 064777813249"
Food Group:  Branded Food Products Database
Common Name:

Nutrient,Unit,Data points,Std. Error,"0.25 cup = 30.0g",1Value per 100 g,
Proximates
"Energy",kcal,--,--,120,400
"Protein",g,--,--,0.00,0.00
"Total lipid (fat)",g,--,--,2.50,8.33
"Carbohydrate, by difference",g,--,--,23.00,76.67
"Fiber, total dietary",g,--,--,1.0,3.3
"Sugars, total",g,--,--,16.00,53.33
Minerals
"Calcium, Ca",mg,--,--,20,67
"Iron, Fe",mg,--,--,0.60,2.00
"Sodium, Na",mg,--,--,30,100
Vitamins
"Vitamin C, total ascorbic acid",mg,--,--,0.0,0.0
"Vitamin A, IU",IU,--,--,0,0
Lipids
"Fatty acids, total saturated",g,--,--,2.001,6.670
"Fatty acids, total trans",g,--,--,0.000,0.000
"Cholesterol",mg,--,--,0,0
Amino Acids
Other
Ingredients
"GOLDEN RAISINS, PINEAPPLE, PAPAYA, SUGAR, COCONUT, BANANA CHIPS, APPLES, APRICOTS, MODIFIED PALM AND SUNFLOWER OIL, COCONUT OIL, CITRIC ACID, SULFUR DIOXIDE (PRESERVATIVE), ARTIFICIAL COLOR (FD&C NO.6), NATURAL BANANA FLAVOR." Date available: 07/14/2017 Date last updated by company: 07/14/2017
