Source: USDA Branded Food Products Database Release December 2017 Software v.3.8.6.4 2017-10-02
Report Run at: December 18, 2017 14:44 EST
"Nutrient data for: 45137322, JOHNNIE RYAN, DELICIOUS COLA, CANE SUGAR SODA, UPC: 035049330047"
Food Group:  Branded Food Products Database
Common Name:

Nutrient,Unit,Data points,Std. Error,"11.5 OZA = 340.0g",1Value per 100 g,
Proximates
"Energy",kcal,--,--,160,47
"Protein",g,--,--,0.00,0.00
"Total lipid (fat)",g,--,--,0.00,0.00
"Carbohydrate, by difference",g,--,--,41.00,12.06
"Sugars, total",g,--,--,41.00,12.06
Minerals
"Sodium, Na",mg,--,--,51,15
Vitamins
Lipids
Amino Acids
Other
Ingredients
"CARBONATED WATER, CANE SUGAR, CARAMEL COLOR, SODIUM BENZOATE (USED AS A PRESERVATIVE), NATURAL FLAVOURS, PHOSPHORIC ACID, CITRIC ACID, CAFFEINE." Date available: 07/14/2017 Date last updated by company: 07/14/2017
