Source: USDA Branded Food Products Database Release December 2017 Software v.3.8.6.4 2017-10-02
Report Run at: December 18, 2017 14:49 EST
"Nutrient data for: 45147583, JOHNVINCE FOODS, MILK CHOCOLATE PEANUTS, UPC: 064777812020"
Food Group:  Branded Food Products Database
Common Name:

Nutrient,Unit,Data points,Std. Error,"0.25 cup = 40.0g",1Value per 100 g,
Proximates
"Energy",kcal,--,--,230,575
"Protein",g,--,--,5.00,12.50
"Total lipid (fat)",g,--,--,15.00,37.50
"Carbohydrate, by difference",g,--,--,19.00,47.50
"Fiber, total dietary",g,--,--,1.0,2.5
"Sugars, total",g,--,--,16.00,40.00
Minerals
"Calcium, Ca",mg,--,--,40,100
"Iron, Fe",mg,--,--,1.80,4.50
"Sodium, Na",mg,--,--,15,38
Vitamins
"Vitamin C, total ascorbic acid",mg,--,--,0.0,0.0
"Vitamin A, IU",IU,--,--,0,0
Lipids
"Fatty acids, total saturated",g,--,--,6.000,15.000
"Fatty acids, total trans",g,--,--,0.000,0.000
"Cholesterol",mg,--,--,5,12
Amino Acids
Other
Ingredients
"MILK CHOCOLATE (SUGAR, COCOA BUTTER, CHOCOLATE LIQUOR, MILK, SOY LECITHIN [EMULSIFIER], NATURAL FLAVOR), PEANUTS, SOYBEAN AND/OR PEANUT OIL, CONFECTIONER'S GLAZE (SHELLAC), COCONUT OIL, MODIFIED TAPIOCA STARCH, SUGAR." Date available: 07/14/2017 Date last updated by company: 07/14/2017
