Source: USDA Branded Food Products Database Release December 2017 Software v.3.8.6.4 2017-10-02
Report Run at: December 18, 2017 14:53 EST
"Nutrient data for: 45099142, JOHNVINCE FOODS, YOGURT ALMONDS, UPC: 064777813652"
Food Group:  Branded Food Products Database
Common Name:

Nutrient,Unit,Data points,Std. Error,"9.0 PIECES = 40.0g",1Value per 100 g,
Proximates
"Energy",kcal,--,--,220,550
"Protein",g,--,--,3.00,7.50
"Total lipid (fat)",g,--,--,14.00,35.00
"Carbohydrate, by difference",g,--,--,22.00,55.00
"Fiber, total dietary",g,--,--,1.0,2.5
"Sugars, total",g,--,--,21.00,52.50
Minerals
"Calcium, Ca",mg,--,--,60,150
"Iron, Fe",mg,--,--,0.45,1.12
"Sodium, Na",mg,--,--,30,75
Vitamins
"Vitamin C, total ascorbic acid",mg,--,--,0.0,0.0
"Vitamin A, IU",IU,--,--,0,0
Lipids
"Fatty acids, total saturated",g,--,--,9.000,22.500
"Fatty acids, total trans",g,--,--,0.000,0.000
"Cholesterol",mg,--,--,0,0
Amino Acids
Other
Ingredients
"YOGURT COATING (SUGAR, PALM KERNEL OIL, WHEY POWDER, NONFAT MILK POWDER, YOGURT POWDER [NONFAT MILK, LACTIC ACID, CITRIC ACID, BACTERIAL CULTURES], TITANIUM DIOXIDE (COLOR), SOYA LECITHIN [EMULSIFIER], NATURAL VANILLA FLAVOR), ALMONDS, CONFECTIONERS GLAZE (SHELLAC), COCONUT OIL, MODIFIED TAPIOCA STARCH, SUGAR." Date available: 07/14/2017 Date last updated by company: 07/14/2017
