Source: USDA Branded Food Products Database Release December 2017 Software v.3.8.6.4 2017-10-02
Report Run at: December 18, 2017 14:44 EST
"Nutrient data for: 45147764, JOHN KELLY CHOCOLATES, DARK CHOCOLATE BUTTERFLY, VANILLA BUTTER CARAMEL, ROASTED ALMONDS AND SEA SALT, UPC: 855580001066"
Food Group:  Branded Food Products Database
Common Name:

Nutrient,Unit,Data points,Std. Error,"1 BOX, 4 PIECES = 68.0g",1Value per 100 g,
Proximates
"Energy",kcal,--,--,340,500
"Protein",g,--,--,4.00,5.88
"Total lipid (fat)",g,--,--,23.00,33.82
"Carbohydrate, by difference",g,--,--,38.00,55.88
"Fiber, total dietary",g,--,--,5.0,7.4
"Sugars, total",g,--,--,24.00,35.29
Minerals
"Calcium, Ca",mg,--,--,40,59
"Iron, Fe",mg,--,--,3.97,5.84
"Sodium, Na",mg,--,--,100,147
Vitamins
"Vitamin C, total ascorbic acid",mg,--,--,0.0,0.0
"Vitamin A, IU",IU,--,--,0,0
Lipids
"Fatty acids, total saturated",g,--,--,13.002,19.120
"Fatty acids, total trans",g,--,--,0.000,0.000
"Cholesterol",mg,--,--,30,44
Amino Acids
Other
Ingredients
"CARAMEL SAUCE (BROWN SUGAR, ORGANIC TAPIOCA SYRUP, CREAM, BUTTER, SUGAR, CONCENTRATED WHOLE MILK, VANILLA, SALT), DARK CHOCOLATE (BELGIAN UNSWEETENED CHOCOLATE PROCESSED WITH ALKALI, SUGAR, SOY LECITHIN (AN EMULISIFIER), NATURAL VANILLA EXTRACT), ALMONDS, SEA SALT." Date available: 07/14/2017 Date last updated by company: 07/14/2017
