Source: USDA Branded Food Products Database Release December 2017 Software v.3.8.6.4 2017-10-02
Report Run at: December 18, 2017 14:55 EST
"Nutrient data for: 45307032, JOLLY RANCHER, SODA, BLUE RASPBERRY, UPC: 812704001142"
Food Group:  Branded Food Products Database
Common Name:

Nutrient,Unit,Data points,Std. Error,"8.0 OZA = 240.0g",1Value per 100 g,
Proximates
"Energy",kcal,--,--,110,46
"Protein",g,--,--,0.00,0.00
"Total lipid (fat)",g,--,--,0.00,0.00
"Carbohydrate, by difference",g,--,--,31.01,12.92
"Sugars, total",g,--,--,31.01,12.92
Minerals
"Sodium, Na",mg,--,--,36,15
Vitamins
Lipids
Amino Acids
Other
Ingredients
"CARBONATED WATER, HIGH FRUCTOSE CORN SYRUP, MALIC ACID, ARTIFICIAL FLAVOR, SODIUM BENZOATE (PRESERVATIVE), BLUE 1 AND YELLOW 5." Date available: 06/25/2017 Date last updated by company: 06/25/2017
