Source: USDA Branded Food Products Database Release December 2017 Software v.3.8.6.4 2017-10-02
Report Run at: December 18, 2017 14:56 EST
"Nutrient data for: 45021169, JOLLY TIME, CRISPY 'N WHITE POP CORN, UPC: 028190007944"
Food Group:  Branded Food Products Database
Common Name:

Nutrient,Unit,Data points,Std. Error,"10.0 CUPS PROPPED | ABOUT = 33.0g",1Value per 100 g,
Proximates
"Energy",kcal,--,--,140,424
"Protein",g,--,--,3.00,9.09
"Total lipid (fat)",g,--,--,9.00,27.27
"Carbohydrate, by difference",g,--,--,18.00,54.55
"Fiber, total dietary",g,--,--,4.0,12.1
"Sugars, total",g,--,--,0.00,0.00
Minerals
"Calcium, Ca",mg,--,--,0,0
"Iron, Fe",mg,--,--,0.54,1.65
"Sodium, Na",mg,--,--,220,667
Vitamins
"Vitamin C, total ascorbic acid",mg,--,--,0.0,0.0
"Vitamin A, IU",IU,--,--,0,0
Lipids
"Fatty acids, total saturated",g,--,--,3.000,9.090
"Fatty acids, total monounsaturated",g,--,--,2.000,6.060
"Fatty acids, total polyunsaturated",g,--,--,3.000,9.090
"Fatty acids, total trans",g,--,--,0.000,0.000
"Cholesterol",mg,--,--,0,0
Amino Acids
Other
Ingredients
"100% WHOLE GRAIN NON-GMO WHITE POP CORN, CORN OIL, PALM OIL, SALT, NATURAL FLAVOR, TBHQ AND ASCORBIC ACID TO PRESERVE FRESHNESS." Date available: 06/25/2017 Date last updated by company: 06/25/2017
