Source: USDA Branded Food Products Database Release December 2017 Software v.3.8.6.4 2017-10-02
Report Run at: December 18, 2017 14:58 EST
"Nutrient data for: 45010007, JONES DAIRY FARM, DAINTY HAM WITH NATURAL JUICES, UPC: 208930812445"
Food Group:  Branded Food Products Database
Common Name:

Nutrient,Unit,Data points,Std. Error,"3.0 ONZ = 84.0g",1Value per 100 g,
Proximates
"Energy",kcal,--,--,100,119
"Protein",g,--,--,15.00,17.86
"Total lipid (fat)",g,--,--,4.00,4.76
"Carbohydrate, by difference",g,--,--,2.00,2.38
"Sugars, total",g,--,--,1.00,1.19
Minerals
"Iron, Fe",mg,--,--,0.47,0.56
"Sodium, Na",mg,--,--,760,905
Vitamins
"Vitamin C, total ascorbic acid",mg,--,--,13.8,16.4
Lipids
"Fatty acids, total saturated",g,--,--,1.000,1.190
"Fatty acids, total trans",g,--,--,0.000,0.000
"Cholesterol",mg,--,--,50,60
Amino Acids
Other
Ingredients
"CURED WITH WATER, POTASSIUM LACTATE, SALT, MODIFIED POTATO STARCH, BROWN SUGAR, SODIUM PHOSPHATES, SUGAR, SODIUM DIACETATE, SODIUM ASCORBATE, SPICES, SODIUM NITRITE." Date available: 06/24/2017 Date last updated by company: 06/24/2017
