Source: USDA Branded Food Products Database Release December 2017 Software v.3.8.6.4 2017-10-02
Report Run at: December 18, 2017 14:59 EST
"Nutrient data for: 45026492, JONNY POPS, POPS, PINEAPPLE COCONUT & CREAM, UPC: 852095004056"
Food Group:  Branded Food Products Database
Common Name:

Nutrient,Unit,Data points,Std. Error,"1 POP = 78.0g",1Value per 100 g,
Proximates
"Energy",kcal,--,--,140,179
"Protein",g,--,--,1.00,1.28
"Total lipid (fat)",g,--,--,8.00,10.26
"Carbohydrate, by difference",g,--,--,17.00,21.79
"Fiber, total dietary",g,--,--,0.0,0.0
"Sugars, total",g,--,--,16.00,20.51
Minerals
"Calcium, Ca",mg,--,--,20,26
"Iron, Fe",mg,--,--,0.00,0.00
"Sodium, Na",mg,--,--,45,58
Vitamins
"Vitamin C, total ascorbic acid",mg,--,--,16.4,21.0
"Vitamin A, IU",IU,--,--,327,419
Lipids
"Fatty acids, total saturated",g,--,--,5.000,6.410
"Fatty acids, total trans",g,--,--,0.000,0.000
"Cholesterol",mg,--,--,30,38
Amino Acids
Other
Ingredients
"PINEAPPLE, HEAVY CREAM, PURIFIED WATER, CANE SUGAR, NATURAL COCONUT FLAVORS, COCONUT MILK, GUAR GUM, SALT." Date available: 07/14/2017 Date last updated by company: 07/14/2017
