Source: USDA Branded Food Products Database Release December 2017 Software v.3.8.6.4 2017-10-02
Report Run at: December 18, 2017 14:59 EST
"Nutrient data for: 45214800, JORDAN ALMONDS, UPC: 071567993869"
Food Group:  Branded Food Products Database
Common Name:

Nutrient,Unit,Data points,Std. Error,"10.0 PIECES = 40.0g",1Value per 100 g,
Proximates
"Energy",kcal,--,--,170,425
"Protein",g,--,--,2.00,5.00
"Total lipid (fat)",g,--,--,7.00,17.50
"Carbohydrate, by difference",g,--,--,27.00,67.50
"Fiber, total dietary",g,--,--,2.0,5.0
"Sugars, total",g,--,--,24.00,60.00
Minerals
"Calcium, Ca",mg,--,--,40,100
"Iron, Fe",mg,--,--,0.72,1.80
"Sodium, Na",mg,--,--,0,0
Vitamins
Lipids
"Fatty acids, total saturated",g,--,--,0.500,1.250
Amino Acids
Other
Ingredients
"SUGAR, ALMONDS, CORN SYRUP, CONTAINS 2% OR LESS OF THE FOLLOWING: CORN STARCH, ARTIFICIAL FLAVOR, COLOR ADDED, YELLOW 6 LAKE, BLUE 1 & 2 LAKE, RED 3, TAPIOCA DEXTRIN, CARNAUBA WAX, CONFECTIONER'S GLAZE." Date available: 12/31/2016 Date last updated by company: 12/31/2016
