Source: USDA Branded Food Products Database Release December 2017 Software v.3.8.6.4 2017-10-02
Report Run at: December 18, 2017 15:03 EST
"Nutrient data for: 45139469, JOYVA, CHOCOLATE COVERED HALVAH, UPC: 04179597"
Food Group:  Branded Food Products Database
Common Name:

Nutrient,Unit,Data points,Std. Error,"2.0 ONZ = 57.0g",1Value per 100 g,
Proximates
"Energy",kcal,--,--,310,544
"Protein",g,--,--,6.00,10.53
"Total lipid (fat)",g,--,--,19.00,33.33
"Carbohydrate, by difference",g,--,--,29.00,50.88
"Fiber, total dietary",g,--,--,3.0,5.3
"Sugars, total",g,--,--,14.00,24.56
Minerals
"Calcium, Ca",mg,--,--,0,0
"Iron, Fe",mg,--,--,2.37,4.16
"Sodium, Na",mg,--,--,150,263
Vitamins
"Vitamin C, total ascorbic acid",mg,--,--,0.0,0.0
"Vitamin A, IU",IU,--,--,0,0
Lipids
"Fatty acids, total saturated",g,--,--,4.001,7.020
"Fatty acids, total trans",g,--,--,0.000,0.000
"Cholesterol",mg,--,--,5,9
Amino Acids
Other
Ingredients
"CRUSHED SESAME, CORN SYRUP, SUGAR, CHOCOLATE, PALM OIL, DRIED EGG ALBUMEN, NATURAL AND ARTIFICIAL FLAVOR, CHOCOLATE CONTAINS: SUGAR, CHOCOLATE, COCOA BUTTER, SOY LECITHIN (AN EMULSIFIER), VANILLA (AN ARTIFICIAL FLAVOR)." Date available: 07/14/2017 Date last updated by company: 07/14/2017
