Source: USDA Branded Food Products Database Release December 2017 Software v.3.8.6.4 2017-10-02
Report Run at: December 18, 2017 15:03 EST
"Nutrient data for: 45040522, JOYVA, CHOCOLATE COVERED RING JELLS, UPC: 041795000738"
Food Group:  Branded Food Products Database
Common Name:

Nutrient,Unit,Data points,Std. Error,"3.0 POS = 42.0g",1Value per 100 g,
Proximates
"Energy",kcal,--,--,190,452
"Protein",g,--,--,0.00,0.00
"Total lipid (fat)",g,--,--,3.00,7.14
"Carbohydrate, by difference",g,--,--,23.00,54.76
"Fiber, total dietary",g,--,--,1.0,2.4
"Sugars, total",g,--,--,22.00,52.38
Minerals
"Calcium, Ca",mg,--,--,0,0
"Iron, Fe",mg,--,--,0.43,1.02
"Sodium, Na",mg,--,--,15,36
Vitamins
"Vitamin C, total ascorbic acid",mg,--,--,0.0,0.0
"Vitamin A, IU",IU,--,--,0,0
Lipids
"Fatty acids, total saturated",g,--,--,1.499,3.570
"Fatty acids, total trans",g,--,--,0.000,0.000
"Cholesterol",mg,--,--,0,0
Amino Acids
Other
Ingredients
"SUGAR, CORN SYRUP, CHOCOLATE, AGAR-AGAR, CITRIC ACID, ARTIFICIAL FLAVOR. U.S. CERTIFIED COLOR (INCLUDES RED #40 AND BLUE #1)., CHOCOLATE CONTAINS: SUGAR, CHOCOLATE, COCOA BUTTER, SOY LECITHIN (AN EMULSIFIER), VANILLIN (AN ARTIFICIAL FLAVOR)." Date available: 06/24/2017 Date last updated by company: 06/24/2017
