Source: USDA Branded Food Products Database Release December 2017 Software v.3.8.6.4 2017-10-02
Report Run at: December 18, 2017 15:04 EST
"Nutrient data for: 45270585, JUBE JEL CHERRY HEARTS, UPC: 041420900433"
Food Group:  Branded Food Products Database
Common Name:

Nutrient,Unit,Data points,Std. Error,"5.0 PIECES = 37.0g",1Value per 100 g,
Proximates
"Energy",kcal,--,--,120,324
"Protein",g,--,--,0.00,0.00
"Total lipid (fat)",g,--,--,0.00,0.00
"Carbohydrate, by difference",g,--,--,31.00,83.78
"Sugars, total",g,--,--,16.00,43.24
Minerals
"Sodium, Na",mg,--,--,25,68
Vitamins
Lipids
Amino Acids
Other
Ingredients
"CORN SYRUP, SUGAR, MODIFIED FOOD STARCH (CORN), CORNSTARCH, ARTIFICIAL FLAVOR, SODIUM CITRATE, WHITE MINERAL OIL, CITRIC ACID, CARNAUBA WAX, RED 40." Date available: 07/14/2017 Date last updated by company: 07/14/2017
