Source: USDA Branded Food Products Database Release December 2017 Software v.3.8.6.4 2017-10-02
Report Run at: December 18, 2017 15:04 EST
"Nutrient data for: 45314740, JUDY BAKE-AT-HOME COOKIES, UPC: 898548002132"
Food Group:  Branded Food Products Database
Common Name:

Nutrient,Unit,Data points,Std. Error,"3.3 ONZ = 94.0g",1Value per 100 g,
Proximates
"Energy",kcal,--,--,370,394
"Protein",g,--,--,5.00,5.32
"Total lipid (fat)",g,--,--,16.00,17.02
"Carbohydrate, by difference",g,--,--,52.00,55.32
"Fiber, total dietary",g,--,--,1.0,1.1
"Sugars, total",g,--,--,30.00,31.91
Minerals
"Calcium, Ca",mg,--,--,40,43
"Iron, Fe",mg,--,--,0.77,0.82
"Sodium, Na",mg,--,--,290,309
Vitamins
"Vitamin C, total ascorbic acid",mg,--,--,5.1,5.4
"Vitamin A, IU",IU,--,--,213,227
Lipids
"Fatty acids, total saturated",g,--,--,10.002,10.640
"Fatty acids, total trans",g,--,--,0.000,0.000
"Cholesterol",mg,--,--,70,74
Amino Acids
Other
Ingredients
"UNBLEACHED WHEAT FLOUR (ENZYMES: NIACIN, IRON, THIAMINE MONONITRATE, RIBOFLAVIN, FOLATE), BUTTER (PASTEURIZED CREAM RBGH-FREE), PURE CANE SUGAR, POWDERED SUGAR, CREAM CHEESE (PASTEURIZED MILK, CREAM, CHEESE CULTURE, SALT), ORANGE PEEL, EGG, ORANGE MARMALADE (SUGAR, CORN SYRUP, ORANGE JUICE, ORANGE PEEL, FRUIT PECTIN, CITRIC ACID), BAKING POWDER, BAKING SODA, PURE VANILLA (WATER, ALCOHOL 35%), SALT, PURE ORANGE OIL." Date available: 07/14/2017 Date last updated by company: 07/14/2017
