Source: USDA Branded Food Products Database Release December 2017 Software v.3.8.6.4 2017-10-02
Report Run at: December 18, 2017 15:26 EST
"Nutrient data for: 45255625, JUICE, UPC: 898559002268"
Food Group:  Branded Food Products Database
Common Name:

Nutrient,Unit,Data points,Std. Error,"8.0 OZA = 240.0g",1Value per 100 g,
Proximates
"Energy",kcal,--,--,70,29
"Protein",g,--,--,1.01,0.42
"Total lipid (fat)",g,--,--,0.00,0.00
"Carbohydrate, by difference",g,--,--,16.99,7.08
"Fiber, total dietary",g,--,--,0.0,0.0
"Sugars, total",g,--,--,16.99,7.08
Minerals
"Calcium, Ca",mg,--,--,50,21
"Sodium, Na",mg,--,--,118,49
Vitamins
"Vitamin A, IU",IU,--,--,13500,5625
Lipids
Amino Acids
Other
Ingredients
"ORGANIC CARROT JUICE (LACTO-FERMENTED)." Date available: 10/19/2017 Date last updated by company: 10/19/2017
