Source: USDA Branded Food Products Database Release December 2017 Software v.3.8.6.4 2017-10-02
Report Run at: December 18, 2017 15:18 EST
"Nutrient data for: 45159521, JUICE SO GOOD, DEEP CLEANSE, JUICE, LEMON, CAYENNE, MAPLE SYRUP, UPC: 869500000060"
Food Group:  Branded Food Products Database
Common Name:

Nutrient,Unit,Data points,Std. Error,"14.0 % JUICE 1 BOTTLE = 473.0g",1Value per 100 g,
Proximates
"Energy",kcal,--,--,175,37
"Protein",g,--,--,1.99,0.42
"Total lipid (fat)",g,--,--,0.00,0.00
"Carbohydrate, by difference",g,--,--,42.00,8.88
"Fiber, total dietary",g,--,--,0.0,0.0
"Sugars, total",g,--,--,33.02,6.98
Minerals
"Calcium, Ca",mg,--,--,99,21
"Iron, Fe",mg,--,--,0.71,0.15
"Sodium, Na",mg,--,--,9,2
Vitamins
"Vitamin C, total ascorbic acid",mg,--,--,21.3,4.5
"Vitamin A, IU",IU,--,--,2791,590
Lipids
"Cholesterol",mg,--,--,0,0
Amino Acids
Other
Ingredients
"FILTERED WATER, LEMON, MAPLE SYRUP, CAYENNE" Date available: 07/14/2017 Date last updated by company: 07/14/2017
