Source: USDA Branded Food Products Database Release December 2017 Software v.3.8.6.4 2017-10-02
Report Run at: December 18, 2017 15:23 EST
"Nutrient data for: 45218968, JUICE, UPC: 851621003198"
Food Group:  Branded Food Products Database
Common Name:

Nutrient,Unit,Data points,Std. Error,"1 BOTTLE = 355.0g",1Value per 100 g,
Proximates
"Energy",kcal,--,--,135,38
"Protein",g,--,--,0.00,0.00
"Total lipid (fat)",g,--,--,0.00,0.00
"Carbohydrate, by difference",g,--,--,41.00,11.55
"Sugars, total",g,--,--,41.00,11.55
Minerals
"Iron, Fe",mg,--,--,0.75,0.21
"Sodium, Na",mg,--,--,0,0
Vitamins
"Vitamin C, total ascorbic acid",mg,--,--,40.5,11.4
Lipids
Amino Acids
Other
Ingredients
"APPLE JUICE, VITAMIN C." Date available: 07/14/2017 Date last updated by company: 07/14/2017
