Source: USDA Branded Food Products Database Release December 2017 Software v.3.8.6.4 2017-10-02
Report Run at: December 18, 2017 15:11 EST
"Nutrient data for: 45239947, JUICE COCKTAIL, UPC: 075355111862"
Food Group:  Branded Food Products Database
Common Name:

Nutrient,Unit,Data points,Std. Error,"8.0 OZA = 240.0g",1Value per 100 g,
Proximates
"Energy",kcal,--,--,91,38
"Protein",g,--,--,0.00,0.00
"Total lipid (fat)",g,--,--,0.00,0.00
"Carbohydrate, by difference",g,--,--,21.00,8.75
"Sugars, total",g,--,--,21.00,8.75
Minerals
"Calcium, Ca",mg,--,--,0,0
"Iron, Fe",mg,--,--,0.00,0.00
"Potassium, K",mg,--,--,60,25
"Sodium, Na",mg,--,--,19,8
Vitamins
"Vitamin C, total ascorbic acid",mg,--,--,60.0,25.0
"Vitamin A, IU",IU,--,--,0,0
Lipids
Amino Acids
Other
Ingredients
"FILTERED WATER, SUGAR, APPLE JUICE CONCENTRATE, GRAPE JUICE CONCENTRATE, ARONIA BERRY JUICE CONCENTRATE, CITRIC ACID, MALIC ACID, NATURAL FLAVORS, ASCORBIC ACID (VITAMIN C), BLUEBERRY JUICE CONCENTRATE, RASPBERRY JUICE CONCENTRATE, STEVIA LEAF EXTRACT." Date available: 06/25/2017 Date last updated by company: 06/25/2017
