Source: USDA Branded Food Products Database Release December 2017 Software v.3.8.6.4 2017-10-02
Report Run at: December 18, 2017 15:17 EST
"Nutrient data for: 45138317, JUICEOLOGY, JUICE DRINK BLEND, POMEGRANATE CANBERRY+BLUEBERRY, UPC: 859881002098"
Food Group:  Branded Food Products Database
Common Name:

Nutrient,Unit,Data points,Std. Error,"8.0 OZA = 240.0g",1Value per 100 g,
Proximates
"Energy",kcal,--,--,101,42
"Protein",g,--,--,0.00,0.00
"Total lipid (fat)",g,--,--,0.00,0.00
"Carbohydrate, by difference",g,--,--,25.99,10.83
"Fiber, total dietary",g,--,--,4.1,1.7
"Sugars, total",g,--,--,19.01,7.92
Minerals
"Calcium, Ca",mg,--,--,19,8
"Iron, Fe",mg,--,--,0.00,0.00
"Sodium, Na",mg,--,--,5,2
Vitamins
"Vitamin C, total ascorbic acid",mg,--,--,30.0,12.5
"Vitamin A, IU",IU,--,--,0,0
Lipids
"Fatty acids, total saturated",g,--,--,0.000,0.000
"Fatty acids, total trans",g,--,--,0.000,0.000
"Cholesterol",mg,--,--,0,0
Amino Acids
Other
Ingredients
"APPLE JUICE, POMEGRANATE JUICE, CRANBERRY JUICE AND BLUEBERRY JUICE BLEND (FROM CONCENTRATES), WATER, APPLE PUREE (FROM CONCENTRATE), WHOLE GRAIN EXTRACTS (FROM OATS, BARLEY AND BROWN RICE), VEGETABLE FIBER (CHICORY), CONTAINS 0.5% OR LESS OF NATURAL FLAVORS, FRUIT AND VEGETABLE JUICE FOR COLOR. CITRIC ACID, VITAMIN C (ASCORBIC ACID) STEVIA EXTRACT LEAF)" Date available: 10/14/2017 Date last updated by company: 10/14/2017
