Source: USDA Branded Food Products Database Release December 2017 Software v.3.8.6.4 2017-10-02
Report Run at: December 18, 2017 15:10 EST
"Nutrient data for: 45201929, JUICE COCKTAIL, UPC: 032251086052"
Food Group:  Branded Food Products Database
Common Name:

Nutrient,Unit,Data points,Std. Error,"8.0 OZA = 240.0g",1Value per 100 g,
Proximates
"Energy",kcal,--,--,120,50
"Protein",g,--,--,0.00,0.00
"Total lipid (fat)",g,--,--,0.00,0.00
"Carbohydrate, by difference",g,--,--,30.00,12.50
"Sugars, total",g,--,--,30.00,12.50
Minerals
"Calcium, Ca",mg,--,--,0,0
"Iron, Fe",mg,--,--,0.00,0.00
"Sodium, Na",mg,--,--,79,33
Vitamins
"Vitamin C, total ascorbic acid",mg,--,--,60.0,25.0
"Vitamin A, IU",IU,--,--,0,0
Lipids
"Cholesterol",mg,--,--,0,0
Amino Acids
Other
Ingredients
"FILTERED WATER, HIGH FRUCTOSE CORN SYRUP, APPLE JUICE CONCENTRATE, CRANBERRY JUICE, SUGAR, RASPBERRY JUICE CONCENTRATE, CRANBERRY JUICE CONCENTRATE, NATURAL FLAVORS, CITRIC ACID, FUMARIC ACID, SODIUM CITRATE, ASCORBIC ACID (VITAMIN C), RED 40, BLUE 1." Date available: 07/14/2017 Date last updated by company: 07/14/2017
