Source: USDA Branded Food Products Database Release December 2017 Software v.3.8.6.4 2017-10-02
Report Run at: December 18, 2017 15:17 EST
"Nutrient data for: 45205859, JUICERA, METABOLIC LEMONADE, UPC: 846836014107"
Food Group:  Branded Food Products Database
Common Name:

Nutrient,Unit,Data points,Std. Error,"12.0 OZA = 354.0g",1Value per 100 g,
Proximates
"Energy",kcal,--,--,81,23
"Protein",g,--,--,0.00,0.00
"Total lipid (fat)",g,--,--,0.00,0.00
"Carbohydrate, by difference",g,--,--,19.01,5.37
"Fiber, total dietary",g,--,--,0.0,0.0
"Sugars, total",g,--,--,16.99,4.80
Minerals
"Calcium, Ca",mg,--,--,39,11
"Iron, Fe",mg,--,--,0.00,0.00
"Sodium, Na",mg,--,--,28,8
Vitamins
"Vitamin C, total ascorbic acid",mg,--,--,12.0,3.4
"Vitamin A, IU",IU,--,--,0,0
Lipids
"Fatty acids, total saturated",g,--,--,0.000,0.000
"Fatty acids, total trans",g,--,--,0.000,0.000
"Cholesterol",mg,--,--,0,0
Amino Acids
Other
Ingredients
"FILTERED WATER, ORGANIC LEMON, ORGANIC COCONUT PALM NECTAR, ORGANIC CAYENNE PEPPER" Date available: 07/14/2017 Date last updated by company: 07/14/2017
