Source: USDA Branded Food Products Database Release December 2017 Software v.3.8.6.4 2017-10-02
Report Run at: December 18, 2017 15:14 EST
"Nutrient data for: 45331223, JUICE DRINK WITH REAL FRUIT PULP, UPC: 8809111630227"
Food Group:  Branded Food Products Database
Common Name:

Nutrient,Unit,Data points,Std. Error,"8.0 OZA = 238.0g",1Value per 100 g,
Proximates
"Energy",kcal,--,--,131,55
"Protein",g,--,--,0.00,0.00
"Total lipid (fat)",g,--,--,0.00,0.00
"Carbohydrate, by difference",g,--,--,32.01,13.45
"Fiber, total dietary",g,--,--,1.0,0.4
"Sugars, total",g,--,--,31.01,13.03
Minerals
"Calcium, Ca",mg,--,--,0,0
"Iron, Fe",mg,--,--,0.00,0.00
"Sodium, Na",mg,--,--,5,2
Vitamins
"Vitamin C, total ascorbic acid",mg,--,--,65.9,27.7
"Vitamin A, IU",IU,--,--,0,0
Lipids
"Fatty acids, total saturated",g,--,--,0.000,0.000
"Fatty acids, total trans",g,--,--,0.000,0.000
"Cholesterol",mg,--,--,0,0
Amino Acids
Other
Ingredients
"WATER, ORANGE CONCENTRATE, PEELED ORANGES, SUGAR, CITRIC ACID, VITAMIN C, BETA CAROTENE, ORANGE FLAVOR" Date available: 10/13/2017 Date last updated by company: 10/13/2017
