Source: USDA Branded Food Products Database Release December 2017 Software v.3.8.6.4 2017-10-02
Report Run at: December 18, 2017 15:33 EST
"Nutrient data for: 45160070, JUICY JUICE, TEASERS, TEA & JUICE BEVERAGE, UPC: 889497002052"
Food Group:  Branded Food Products Database
Common Name:

Nutrient,Unit,Data points,Std. Error,"8.0 OZA = 240.0g",1Value per 100 g,
Proximates
"Energy",kcal,--,--,60,25
"Protein",g,--,--,0.00,0.00
"Total lipid (fat)",g,--,--,0.00,0.00
"Carbohydrate, by difference",g,--,--,13.99,5.83
"Sugars, total",g,--,--,13.01,5.42
Minerals
"Potassium, K",mg,--,--,110,46
"Sodium, Na",mg,--,--,14,6
Vitamins
Lipids
Amino Acids
Other
Ingredients
"FILTERED WATER, APPLE JUICE FROM CONCENTRATE (WATER, JUICE CONCENTRATE), PEACH JUICE FROM CONCENTRATE (WATER, JUICE CONCENTRATE), DECAFFEINATED TEA (CAMELLIA SINENSIS), NATURAL FLAVORS, CITRIC ACID, ASCORBIC ACID (VITAMIN C)." Date available: 08/18/2017 Date last updated by company: 08/18/2017
