Source: USDA Branded Food Products Database Release December 2017 Software v.3.8.6.4 2017-10-02
Report Run at: December 18, 2017 15:09 EST
"Nutrient data for: 45148215, JUICE COCKTAIL FROM CONCENTRATE, UPC: 041755008453"
Food Group:  Branded Food Products Database
Common Name:

Nutrient,Unit,Data points,Std. Error,"8.0 OZA = 237.0g",1Value per 100 g,
Proximates
"Energy",kcal,--,--,121,51
"Protein",g,--,--,0.00,0.00
"Total lipid (fat)",g,--,--,0.00,0.00
"Carbohydrate, by difference",g,--,--,30.00,12.66
"Sugars, total",g,--,--,30.00,12.66
Minerals
"Sodium, Na",mg,--,--,9,4
Vitamins
"Vitamin C, total ascorbic acid",mg,--,--,60.7,25.6
Lipids
"Fatty acids, total saturated",g,--,--,0.000,0.000
"Fatty acids, total trans",g,--,--,0.000,0.000
"Cholesterol",mg,--,--,0,0
Amino Acids
Other
Ingredients
"FILTERED WATER, CRANBERRY AND APPLE JUICES FROM CONCENTRATE, SUGAR, NATURAL FLAVORS, CITRIC ACID, ASCORBIC ACID (VITAMIN C), FRUIT AND VEGETABLE JUICE (COLOR)." Date available: 10/13/2017 Date last updated by company: 10/13/2017
