Source: USDA Branded Food Products Database Release December 2017 Software v.3.8.6.4 2017-10-02
Report Run at: December 18, 2017 15:35 EST
"Nutrient data for: 45166068, JULES DESTROOPER, FLORENTINES ALMOND COOKIES, UPC: 749880910640"
Food Group:  Branded Food Products Database
Common Name:

Nutrient,Unit,Data points,Std. Error,"4.0 COOKIES = 33.0g",1Value per 100 g,
Proximates
"Energy",kcal,--,--,170,515
"Protein",g,--,--,3.00,9.09
"Total lipid (fat)",g,--,--,11.00,33.33
"Carbohydrate, by difference",g,--,--,15.00,45.45
"Fiber, total dietary",g,--,--,3.0,9.1
"Sugars, total",g,--,--,15.00,45.45
Minerals
"Calcium, Ca",mg,--,--,20,61
"Iron, Fe",mg,--,--,1.09,3.31
"Sodium, Na",mg,--,--,25,76
Vitamins
"Vitamin C, total ascorbic acid",mg,--,--,0.0,0.0
"Vitamin A, IU",IU,--,--,303,918
Lipids
"Fatty acids, total saturated",g,--,--,5.000,15.150
"Fatty acids, total trans",g,--,--,0.000,0.000
"Cholesterol",mg,--,--,5,15
Amino Acids
Other
Ingredients
"ALMONDS (22%), SUGAR, BUTTER (11%) (MILK), MILK CHOCOLATE (10%) (SUGAR, COCOA BUTTER, WHOLE MILK POWDER, CACAO MASS, EMULSIFIER: SOY LECITHIN), WHITE CHOCOLATE (10%) (SUGAR, COCOA BUTTER, WHOLE MILK POWDER, EMULSIFIER: SOY LECITHIN), DARK CHOCOLATE (10%) (COCOA MASS, SUGAR, COCOA BUTTER, ANHYDROUS MILKFAT, EMULSIFIER: SOY LECITHIN), HONEY, WHEAT FLOUR, GLUCOSE SYRUP, BROWN SUGAR, CRYSTALLIZED FRUIT PIECES (SUGAR, ORANGE PEEL, LEMON, GLUCOSE-FRUCTOSE SYRUP, ACIDITY REGULATOR: CITRIC ACID), SEA SALT, LEAVENING: SODIUM BICARBONATE." Date available: 07/14/2017 Date last updated by company: 07/14/2017
