Source: USDA Branded Food Products Database Release December 2017 Software v.3.8.6.4 2017-10-02
Report Run at: December 18, 2017 15:37 EST
"Nutrient data for: 45024878, JULIE'S ORGANIC, LOWFAT FROZEN YOGURT BARS, ORGANIC STRAWBERRY, UPC: 072609741295"
Food Group:  Branded Food Products Database
Common Name:

Nutrient,Unit,Data points,Std. Error,"1 BAR = 63.0g",1Value per 100 g,
Proximates
"Energy",kcal,--,--,90,143
"Protein",g,--,--,2.00,3.17
"Total lipid (fat)",g,--,--,2.00,3.17
"Carbohydrate, by difference",g,--,--,19.00,30.16
"Fiber, total dietary",g,--,--,3.0,4.8
"Sugars, total",g,--,--,13.00,20.63
Minerals
"Calcium, Ca",mg,--,--,80,127
"Iron, Fe",mg,--,--,0.00,0.00
"Sodium, Na",mg,--,--,35,56
Vitamins
"Vitamin C, total ascorbic acid",mg,--,--,2.4,3.8
"Vitamin A, IU",IU,--,--,100,159
Lipids
"Fatty acids, total saturated",g,--,--,1.002,1.590
"Fatty acids, total trans",g,--,--,0.000,0.000
"Cholesterol",mg,--,--,5,8
Amino Acids
Other
Ingredients
"CULTURED ORGANIC SKIM MILK, ORGANIC CANE SUGAR, ORGANIC STRAWBERRIES, ORGANIC CREAM, ORGANIC TAPIOCA SYRUP, FRUCTAN, ORGANIC STRAWBERRY FLAVOR, ORGANIC GUAR GUM, ORGANIC LOCUST BEAN GUM, CITRIC ACID, PECTIN, NATURAL FLAVOR, XANTHAN GUM, ORGANIC RED BEET JUICE CONCENTRATE (COLOR). CONTAINS LIVE AND ACTIVE CULTURES: B. BIFIDUM, L. ACIDOPHILUS, L. BULGARICUS, L. CASEI, L. RHAMNOSUS, S. THERMOPHILUS." Date available: 07/14/2017 Date last updated by company: 07/14/2017
