Source: USDA Branded Food Products Database Release December 2017 Software v.3.8.6.4 2017-10-02
Report Run at: December 18, 2017 15:35 EST
"Nutrient data for: 45065275, JULIAN BAKERY, PALEO PROTEIN BAR, CHOCOLATE MINT, UPC: 813926002726"
Food Group:  Branded Food Products Database
Common Name:

Nutrient,Unit,Data points,Std. Error,"1 BAR = 65.2g",1Value per 100 g,
Proximates
"Energy",kcal,--,--,230,353
"Protein",g,--,--,20.00,30.67
"Total lipid (fat)",g,--,--,13.00,19.94
"Carbohydrate, by difference",g,--,--,23.00,35.28
"Fiber, total dietary",g,--,--,21.0,32.2
"Sugars, total",g,--,--,2.00,3.07
Minerals
"Calcium, Ca",mg,--,--,40,61
"Iron, Fe",mg,--,--,1.10,1.69
"Magnesium, Mg",mg,--,--,61,94
"Phosphorus, P",mg,--,--,215,329
"Potassium, K",mg,--,--,230,353
"Sodium, Na",mg,--,--,160,245
Vitamins
"Vitamin C, total ascorbic acid",mg,--,--,0.0,0.0
"Vitamin A, IU",IU,--,--,0,0
Lipids
"Fatty acids, total saturated",g,--,--,4.499,6.900
"Cholesterol",mg,--,--,0,0
Amino Acids
Other
Ingredients
"BEEF ALBUMIN, PREBIOTIC FIBER (FROM TAPIOCA), CHOCOLATE, *SUNFLOWER SEEDS, WATER, ORANGE PULP, VANILLA, COCOA, PEPPERMINT EMULSION, *STEVIA, SEA SALT. (*ORGANIC)" Date available: 07/14/2017 Date last updated by company: 07/14/2017
