Source: USDA Branded Food Products Database Release December 2017 Software v.3.8.6.4 2017-10-02
Report Run at: December 18, 2017 15:35 EST
"Nutrient data for: 45205807, JULIAN BAKERY, PALEO BREAD, CINNAMON, RAISIN, UPC: 813926002498"
Food Group:  Branded Food Products Database
Common Name:

Nutrient,Unit,Data points,Std. Error,"1 SLICE = 43.0g",1Value per 100 g,
Proximates
"Energy",kcal,--,--,50,116
"Protein",g,--,--,7.00,16.28
"Total lipid (fat)",g,--,--,1.50,3.49
"Carbohydrate, by difference",g,--,--,8.00,18.60
"Fiber, total dietary",g,--,--,5.0,11.6
"Sugars, total",g,--,--,1.00,2.33
Minerals
"Calcium, Ca",mg,--,--,20,47
"Iron, Fe",mg,--,--,1.67,3.89
"Sodium, Na",mg,--,--,90,209
Vitamins
"Vitamin C, total ascorbic acid",mg,--,--,0.0,0.0
"Vitamin A, IU",IU,--,--,0,0
Lipids
"Fatty acids, total saturated",g,--,--,1.002,2.330
"Fatty acids, total trans",g,--,--,0.000,0.000
"Cholesterol",mg,--,--,0,0
Amino Acids
Other
Ingredients
"PURIFIED WATER, *COCONUT FLOUR, EGG WHITES, *EGGS, PSYLLIUM SEED POWDER, *RAISINS, CINNAMON, *APPLE CIDER VINEGAR, POTASSIUM BI-CARBONATE (LEAVENING), *STEVIA, SEA SALT." Date available: 08/21/2017 Date last updated by company: 08/21/2017
