Source: USDA Branded Food Products Database Release December 2017 Software v.3.8.6.4 2017-10-02
Report Run at: December 18, 2017 15:40 EST
"Nutrient data for: 45047962, JUMBO BUTTERFLY SHRIMP, UPC: 011150602549"
Food Group:  Branded Food Products Database
Common Name:

Nutrient,Unit,Data points,Std. Error,"4.0 SHRIMP | ABOUT = 84.0g",1Value per 100 g,
Proximates
"Energy",kcal,--,--,260,310
"Protein",g,--,--,11.00,13.10
"Total lipid (fat)",g,--,--,14.00,16.67
"Carbohydrate, by difference",g,--,--,23.00,27.38
"Fiber, total dietary",g,--,--,1.0,1.2
"Sugars, total",g,--,--,2.00,2.38
Minerals
"Calcium, Ca",mg,--,--,40,48
"Iron, Fe",mg,--,--,1.82,2.17
"Sodium, Na",mg,--,--,340,405
Vitamins
"Vitamin C, total ascorbic acid",mg,--,--,1.2,1.4
"Vitamin A, IU",IU,--,--,0,0
Lipids
"Fatty acids, total saturated",g,--,--,1.999,2.380
"Fatty acids, total trans",g,--,--,0.000,0.000
"Cholesterol",mg,--,--,60,71
Amino Acids
Other
Ingredients
"SHRIMP, VEGETABLE OIL (CANOLA, COTTONSEED, AND/OR SOYBEAN), ENRICHED BLEACHED WHEAT FLOUR (FLOUR, NIACIN, REDUCED IRON, THIAMINE MONONITRATE, RIBOFLAVIN FOLIC ACID), ENRICHED WHEAT FLOUR (FLOUR, NIACIN, REDUCED IRON, THIAMINE MONONITRATE, RIBOFLAVIN, FOLIC ACID). MODIFIED CORNSTARCH, WATER, CONTAINS 2% OR LESS OF: SUGAR, CALCIUM LACTATE, YELLOW CORN FLOUR, SPICE, SALT, WHEY. EGG WHITES, DEXTROSE, LEAVENING (SODIUM ACID PYROPHOSPHATE, SODIUM BICARBONATE, MONOCALCIUM PHOSPHATE), GUAR GUM, YEAST, NONFAT MILK, SOY FLOUR, SODIUM TRIPOLYPHOSPHATE (TO RETAIN MOISTURE)." Date available: 07/14/2017 Date last updated by company: 07/14/2017
