Source: USDA Branded Food Products Database Release December 2017 Software v.3.8.6.4 2017-10-02
Report Run at: December 18, 2017 15:42 EST
"Nutrient data for: 45257393, JUMBO FULLY COOKED BREADED CHICKEN PATTY SANDWICHES, UPC: 072290000039"
Food Group:  Branded Food Products Database
Common Name:

Nutrient,Unit,Data points,Std. Error,"1 SANDWICH = 99.0g",1Value per 100 g,
Proximates
"Energy",kcal,--,--,280,283
"Protein",g,--,--,11.00,11.11
"Total lipid (fat)",g,--,--,11.00,11.11
"Carbohydrate, by difference",g,--,--,33.00,33.33
"Fiber, total dietary",g,--,--,2.0,2.0
"Sugars, total",g,--,--,3.00,3.03
Minerals
"Calcium, Ca",mg,--,--,60,61
"Iron, Fe",mg,--,--,2.32,2.34
"Potassium, K",mg,--,--,230,232
"Sodium, Na",mg,--,--,790,798
Vitamins
"Vitamin C, total ascorbic acid",mg,--,--,0.0,0.0
"Vitamin A, IU",IU,--,--,0,0
Lipids
"Fatty acids, total saturated",g,--,--,3.505,3.540
"Fatty acids, total trans",g,--,--,2.505,2.530
"Cholesterol",mg,--,--,15,15
Amino Acids
Other
Ingredients
"BUTTERMILK BISCUIT: ENRICHED WHEAT FLOUR (BLEACHED WHEAT FLOUR, NIACIN, REDUCED IRON, THIAMINE MONONITRATE, RIBOFLAVIN, FOLIC ACID), WATER, BUTTERMILK, PARTIALLY HYDROGENATED VEGETABLE OIL (SOYBEAN AND/OR COTTONSEED OIL), NONFAT MILK, LEAVENING (BAKING SODA, SODIUM ACID PYROPHOSPHATE, SODIUM ALUMINUM PHOSPHATE ALUMINUM SULFATE, MONOCALCIUM PHOSPHATE), SUGAR, SALT, SODIUM CASEINATE, DATEM, SODIUM PROPIONATE (PRESERVATIVE), POTASSIUM SORBATE (PRESERVATIVE), DEXTROSE, WHEAT STARCH, ARTIFICIAL FLAVOR, CORN STARCH, SORBIC ACID (PRESERVATIVE), BREADED CHICKEN PATTY: CHICKEN BREAST WITH RIB MEAT, WATER, CHICKEN SKIN, TEXTURED SOY PROTEIN CONCENTRATE, ISOLATED SOY PROTEIN, SALT, SODIUM PHOSPHATE, NATURAL FLAVOR, DRIED GARLIC, SOY LECITHIN, SUGAR, BREADING: BLEACHED WHEAT FLOUR, YELLOW CORN FLOUR, SALT, SPICES, LEAVENING (SODIUM ALUMINUM PHOSPHATE, SODIUM BICARBONATE), PARTIALLY HYDROGENATED SOYBEAN OIL, SPICE EXTRACTIVE. BATTER: WATER, YELLOW CORN FLOUR, CORN STARCH, SALT, SPICES, GUAR GUM, LEAVENING (SODIUM ACID PYROPHOSPHATE, SODIUM BICARBONATE, MONOCALCIUM PHOSPHATE), GARLIC POWDER, BREADING IS SET IN VEGETABLE OIL" Date available: 07/14/2017 Date last updated by company: 07/14/2017
