Source: USDA Branded Food Products Database Release December 2017 Software v.3.8.6.4 2017-10-02
Report Run at: December 18, 2017 15:39 EST
"Nutrient data for: 45278542, JUMBO BISCUITS, UPC: 04656750810"
Food Group:  Branded Food Products Database
Common Name:

Nutrient,Unit,Data points,Std. Error,"1 BISCUIT = 57.0g",1Value per 100 g,
Proximates
"Energy",kcal,--,--,180,316
"Protein",g,--,--,3.00,5.26
"Total lipid (fat)",g,--,--,8.00,14.04
"Carbohydrate, by difference",g,--,--,25.00,43.86
"Fiber, total dietary",g,--,--,1.0,1.8
"Sugars, total",g,--,--,4.00,7.02
Minerals
"Calcium, Ca",mg,--,--,20,35
"Iron, Fe",mg,--,--,1.27,2.22
"Sodium, Na",mg,--,--,410,719
Vitamins
"Vitamin C, total ascorbic acid",mg,--,--,0.0,0.0
"Vitamin A, IU",IU,--,--,0,0
Lipids
"Fatty acids, total saturated",g,--,--,4.999,8.770
"Fatty acids, total trans",g,--,--,0.000,0.000
"Cholesterol",mg,--,--,0,0
Amino Acids
Other
Ingredients
"ENRICHED BLEACHED FLOUR (WHEAT, FLOUR, NIACIN, IRON, THIAMIN MONONITRATE [VITAMIN B1], RIBOFLAVIN [VITAMIN B2], FOLIC ACID), WATER, VEGETABLE OIL (PALM, SOYBEAN AND/OR COTTONSEED OILS), BUTTERMILK., DEXTROSE, LEAVENING (BAKING SODA, SODIUM ACID PYROPHOSPHATE, SODIUM ALUMINUM PHOSPHATE, ALUMINUM SULFATE). CONTAINS 2% OR LESS OF EACH OF THE FOLLOWING: SUGAR, MODIFIED WHEAT STARCH, SALT, POTASSIUM CHLORIDE, XANTHAN GUM, NATURAL AND ARTIFICIAL FLAVOR, POTASSIUM SORBATE (PRESERVATIVE), SOY FLOUR." Date available: 08/23/2017 Date last updated by company: 08/23/2017
