Source: USDA Branded Food Products Database Release December 2017 Software v.3.8.6.4 2017-10-02
Report Run at: December 18, 2017 15:41 EST
"Nutrient data for: 45330216, JUMBO DILL PICKLES, UPC: 041512083938"
Food Group:  Branded Food Products Database
Common Name:

Nutrient,Unit,Data points,Std. Error,"1 ONZ = 28.0g",1Value per 100 g,
Proximates
"Energy",kcal,--,--,5,18
"Protein",g,--,--,0.00,0.00
"Total lipid (fat)",g,--,--,0.00,0.00
"Carbohydrate, by difference",g,--,--,1.00,3.57
Minerals
"Sodium, Na",mg,--,--,390,1393
Vitamins
Lipids
Amino Acids
Other
Ingredients
"PICKLES, WATER, DISTILLED VINEGAR, SALT, SODIUM BENZOATE (0.10% ADDED AS PRESERVATIVE), CALCIUM CHLORIDE, NATURAL FLAVORINGS, POLYSORBATE 80, YELLOW #5 AND BLUE #1." Date available: 10/13/2017 Date last updated by company: 10/13/2017
