Source: USDA Branded Food Products Database Release December 2017 Software v.3.8.6.4 2017-10-02
Report Run at: December 18, 2017 15:45 EST
"Nutrient data for: 45281796, JUMBO MARSHMALLOWS, UPC: 075450083187"
Food Group:  Branded Food Products Database
Common Name:

Nutrient,Unit,Data points,Std. Error,"1 PIECE = 28.0g",1Value per 100 g,
Proximates
"Energy",kcal,--,--,90,321
"Protein",g,--,--,1.00,3.57
"Total lipid (fat)",g,--,--,0.00,0.00
"Carbohydrate, by difference",g,--,--,22.00,78.57
"Sugars, total",g,--,--,15.00,53.57
Minerals
"Sodium, Na",mg,--,--,15,54
Vitamins
Lipids
Amino Acids
Other
Ingredients
"CORN SYRUP, SUGAR, MODIFIED FOOD STARCH (CORN), GELATIN, WATER, DEXTROSE, NATURAL AND ARTIFICIAL FLAVOR, TETRASODIUM PYROPHOSPHATE." Date available: 07/14/2017 Date last updated by company: 07/14/2017
