Source: USDA Branded Food Products Database Release December 2017 Software v.3.8.6.4 2017-10-02
Report Run at: December 18, 2017 15:40 EST
"Nutrient data for: 45256292, JUMBO CHICKEN RAVIOLI, UPC: 04656702645"
Food Group:  Branded Food Products Database
Common Name:

Nutrient,Unit,Data points,Std. Error,"0.75 cup = 129.0g",1Value per 100 g,
Proximates
"Energy",kcal,--,--,270,209
"Protein",g,--,--,16.00,12.40
"Total lipid (fat)",g,--,--,5.01,3.88
"Carbohydrate, by difference",g,--,--,41.00,31.78
"Fiber, total dietary",g,--,--,2.1,1.6
"Sugars, total",g,--,--,2.00,1.55
Minerals
"Calcium, Ca",mg,--,--,80,62
"Iron, Fe",mg,--,--,1.34,1.04
"Potassium, K",mg,--,--,210,163
"Sodium, Na",mg,--,--,400,310
Vitamins
"Vitamin C, total ascorbic acid",mg,--,--,0.0,0.0
"Vitamin A, IU",IU,--,--,186,144
Lipids
"Fatty acids, total saturated",g,--,--,2.000,1.550
"Fatty acids, total trans",g,--,--,0.000,0.000
"Cholesterol",mg,--,--,30,23
Amino Acids
Other
Ingredients
"PASTA: EXTRA FANCY DURUM FLOUR (DURUM WHEAT FLOUR, NIACIN, FERROUS SULFATE, THIAMINE MONONITRATE, RIBOFLAVIN, FOLIC ACID), WATER, WHOLE EGGS, ROSEMARY, FILLING: CHICKEN, RICOTTA CHEESE (WHEY, PASTEURIZED MILK, VINEGAR, SALT), MUSHROOMS, WATER, BREAD CRUMBS (ENRICHED UNBLEACHED WHEAT FLOUR [MALTED BARLEY FLOUR, ASCORBIC ACID [ADDED AS A DOUGH CONDITIONER], NIACIN, FERROUS SULFATE, THIAMINE MONONITRATE, RIBOFLAVIN, FOLIC ACID], WATER, CANOLA OIL, SUGAR, SALT, GRANULATED GARLIC AND YEAST), CHICKEN FLAVOR BASE (SALT, DEXTROSE, CHICKEN FAT, HYDROGENATED SOYBEAN AND/OR COTTONSEED OIL, MONOSODIUM GLUTAMATE, MALTODEXTRIN, MODIFIED CORN STARCH, DEHYDRATED ONION, GROUND TURMERIC, SPICES, HYDROLYZED CORN PROTEIN, NATURAL FLAVORINGS), SALT, GRANULATED GARLIC, BLACK PEPPER." Date available: 07/14/2017 Date last updated by company: 07/14/2017
