Source: USDA Branded Food Products Database Release December 2017 Software v.3.8.6.4 2017-10-02
Report Run at: December 18, 2017 15:41 EST
"Nutrient data for: 45280208, JUMBO CINNAMON ROLLS, UPC: 04131857024"
Food Group:  Branded Food Products Database
Common Name:

Nutrient,Unit,Data points,Std. Error,"1 ROLL = 99.0g",1Value per 100 g,
Proximates
"Energy",kcal,--,--,350,354
"Protein",g,--,--,4.00,4.04
"Total lipid (fat)",g,--,--,14.00,14.14
"Carbohydrate, by difference",g,--,--,52.00,52.53
"Fiber, total dietary",g,--,--,1.0,1.0
"Sugars, total",g,--,--,26.00,26.26
Minerals
"Calcium, Ca",mg,--,--,20,20
"Iron, Fe",mg,--,--,0.91,0.92
"Sodium, Na",mg,--,--,580,586
Vitamins
"Vitamin C, total ascorbic acid",mg,--,--,0.0,0.0
"Vitamin A, IU",IU,--,--,50,51
Lipids
"Fatty acids, total saturated",g,--,--,6.999,7.070
"Fatty acids, total monounsaturated",g,--,--,4.505,4.550
"Fatty acids, total polyunsaturated",g,--,--,1.505,1.520
"Fatty acids, total trans",g,--,--,0.000,0.000
"Cholesterol",mg,--,--,0,0
Amino Acids
Other
Ingredients
"ENRICHED WHEAT FLOUR (WHEAT FLOUR, NIACIN, REDUCED IRON, THIAMINE MONONITRATE, RIBOFLAVIN, FOLIC ACID), VANILLA ICING (POWDERED SUGAR [SUGAR, CORN STARCH], SUGAR, WATER, CORN SYRUP, VEGETABLE SHORTENING [LIQUID CANOLA OIL, PALM OIL, PALM KERNEL OIL], SALT, POLYSORBATE 60, XANTHAN GUM, LOCUST BEAN GUM, GUAR GUM, TITANIUM DIOXIDE [COLOR], NATURAL FLAVOR, SORBIC ACID [PRESERVATIVE]), WATER, VEGETABLE SHORTENINGS (PALM OIL WITH BETA-CAROTENE [COLOR], PALM OIL), SUGAR, LEAVENING (BAKING SODA, SODIUM ACID PYROPHOSPHATE, SODIUM ALUMINUM PHOSPHATE), CINNAMON, POTASSIUM CHLORIDE, SALT, WHEAT STARCH, NATURAL AND ARTIFICIAL FLAVOR, SODIUM STEAROYL LACTYLATE, VEGETABLE MONO- AND DIGLYCERIDES, XANTHAN GUM, COLOR (YELLOW 5, SUNSET YELLOW 6), POLYSORBATE 60, POTASSIUM SORBATE (PRESERVATIVE)." Date available: 07/14/2017 Date last updated by company: 07/14/2017
