Source: USDA Branded Food Products Database Release December 2017 Software v.3.8.6.4 2017-10-02
Report Run at: December 18, 2017 15:51 EST
"Nutrient data for: 45237019, JUMEX, NECTAR FROM CONCENTRATE, MANGO, UPC: 6059306021602"
Food Group:  Branded Food Products Database
Common Name:

Nutrient,Unit,Data points,Std. Error,"335.0 MLT = 335.0g",1Value per 100 g,
Proximates
"Energy",kcal,--,--,151,45
"Protein",g,--,--,0.00,0.00
"Total lipid (fat)",g,--,--,0.00,0.00
"Carbohydrate, by difference",g,--,--,36.98,11.04
"Fiber, total dietary",g,--,--,1.0,0.3
"Sugars, total",g,--,--,36.01,10.75
Minerals
"Calcium, Ca",mg,--,--,0,0
"Iron, Fe",mg,--,--,0.27,0.08
"Sodium, Na",mg,--,--,54,16
Vitamins
"Vitamin C, total ascorbic acid",mg,--,--,0.0,0.0
"Vitamin A, IU",IU,--,--,717,214
Lipids
"Fatty acids, total saturated",g,--,--,0.000,0.000
"Fatty acids, total monounsaturated",g,--,--,0.000,0.000
"Fatty acids, total polyunsaturated",g,--,--,0.000,0.000
"Fatty acids, total trans",g,--,--,0.000,0.000
"Cholesterol",mg,--,--,0,0
Amino Acids
Other
Ingredients
"WATER, MANGO PUREE FROM CONCENTRATE, SUGAR AND/OR HIGH FRUCTOSE CORN SYRUP, CITRIC ACID, ERYTHORBIC ACID (PRESERVATIVE), BETA CAROTENE (COLOR) AND SUCRALOSE." Date available: 07/14/2017 Date last updated by company: 07/14/2017
