Source: USDA Branded Food Products Database Release December 2017 Software v.3.8.6.4 2017-10-02
Report Run at: December 18, 2017 15:52 EST
"Nutrient data for: 45094512, JUNIOR MINTS, CREAMY MINTS, UPC: 071720539446"
Food Group:  Branded Food Products Database
Common Name:

Nutrient,Unit,Data points,Std. Error,"16.0 PIECES = 40.0g",1Value per 100 g,
Proximates
"Energy",kcal,--,--,170,425
"Protein",g,--,--,1.00,2.50
"Total lipid (fat)",g,--,--,3.00,7.50
"Carbohydrate, by difference",g,--,--,35.00,87.50
"Fiber, total dietary",g,--,--,1.0,2.5
"Sugars, total",g,--,--,32.00,80.00
Minerals
"Calcium, Ca",mg,--,--,0,0
"Iron, Fe",mg,--,--,1.80,4.50
"Sodium, Na",mg,--,--,30,75
Vitamins
"Vitamin C, total ascorbic acid",mg,--,--,0.0,0.0
"Vitamin A, IU",IU,--,--,0,0
Lipids
"Fatty acids, total saturated",g,--,--,2.500,6.250
"Fatty acids, total trans",g,--,--,0.000,0.000
"Cholesterol",mg,--,--,0,0
Amino Acids
Other
Ingredients
"SUGAR, SEMI-SWEET CHOCOLATE (SUGAR, CHOCOLATE PROCESSED WITH ALKALI, COCOA BUTTER, SOY LECITHIN-AN EMULSIFIER, VANILLIN-AN ARTIFICIAL FLAVOR), CORN SYRUP, CONFECTIONER'S GLAZE, MODIFIED FOOD STARCH, PEPPERMINT OIL, INVERTASE (AN ENZYME)." Date available: 07/14/2017 Date last updated by company: 07/14/2017
