Source: USDA Branded Food Products Database Release December 2017 Software v.3.8.6.4 2017-10-02
Report Run at: December 18, 2017 15:52 EST
"Nutrient data for: 45279240, JUNIOR POPS, UPC: 018894310518"
Food Group:  Branded Food Products Database
Common Name:

Nutrient,Unit,Data points,Std. Error,"1 POP = 55.0g",1Value per 100 g,
Proximates
"Energy",kcal,--,--,40,73
"Protein",g,--,--,0.00,0.00
"Total lipid (fat)",g,--,--,0.00,0.00
"Carbohydrate, by difference",g,--,--,10.00,18.18
"Fiber, total dietary",g,--,--,0.0,0.0
"Sugars, total",g,--,--,10.00,18.18
Minerals
"Calcium, Ca",mg,--,--,0,0
"Iron, Fe",mg,--,--,0.00,0.00
"Sodium, Na",mg,--,--,0,0
Vitamins
"Vitamin C, total ascorbic acid",mg,--,--,55.7,101.2
"Vitamin A, IU",IU,--,--,0,0
Lipids
"Fatty acids, total saturated",g,--,--,0.000,0.000
"Fatty acids, total trans",g,--,--,0.000,0.000
"Cholesterol",mg,--,--,0,0
Amino Acids
Other
Ingredients
"WATER, CORN SYRUP, HIGH FRUCTOSE CORN SYRUP, SUGAR, ARTIFICIAL FLAVORS, CITRIC ACID, LOCUST BEAN GUM, GUAR GUM, ASCORBIC ACID (VITAMIN C), CARRAGEENAN, ARTIFICIAL COLORS (ANNATTO, TURMERIC, CARAMEL, BLUE #1, RED #3, RED #40, YELLOW #5, YELLOW #6)." Date available: 07/14/2017 Date last updated by company: 07/14/2017
