Source: USDA Branded Food Products Database Release December 2017 Software v.3.8.6.4 2017-10-02
Report Run at: December 18, 2017 15:52 EST
"Nutrient data for: 45228840, JUNKLESS CHEWY GRANOLA BARS, UPC: 851100003114"
Food Group:  Branded Food Products Database
Common Name:

Nutrient,Unit,Data points,Std. Error,"1 BAR = 43.0g",1Value per 100 g,
Proximates
"Energy",kcal,--,--,180,419
"Protein",g,--,--,3.00,6.98
"Total lipid (fat)",g,--,--,6.00,13.95
"Carbohydrate, by difference",g,--,--,29.00,67.44
"Fiber, total dietary",g,--,--,2.0,4.7
"Sugars, total",g,--,--,8.00,18.60
Minerals
"Calcium, Ca",mg,--,--,20,47
"Iron, Fe",mg,--,--,1.34,3.11
"Sodium, Na",mg,--,--,5,12
Vitamins
"Vitamin C, total ascorbic acid",mg,--,--,0.0,0.0
"Vitamin A, IU",IU,--,--,0,0
Lipids
"Fatty acids, total saturated",g,--,--,1.002,2.330
"Fatty acids, total trans",g,--,--,0.000,0.000
"Cholesterol",mg,--,--,0,0
Amino Acids
Other
Ingredients
"WHOLE OATS, BROWN RICE SYRUP, DARK CHOCOLATE CHIP (SUGAR, CHOCOLATE LIQUOR, COCOA BUTTER, NON-GMO SOY LECITHIN), RICE CRISP (RICE FLOUR, SUGAR, MALT EXTRACT, AND SALT), EVAPORATED CANE SUGAR, NON-GMO CANOLA OIL, AND VANILLA EXTRACT" Date available: 07/14/2017 Date last updated by company: 07/14/2017
