Source: USDA Branded Food Products Database Release December 2017 Software v.3.8.6.4 2017-10-02
Report Run at: December 18, 2017 15:59 EST
"Nutrient data for: 45016239, JYOTI NATURAL FOODS, JAIPUR KARHI, POTATO DUMPLINGS IN SPICY BUTTERMILK, UPC: 077502026104"
Food Group:  Branded Food Products Database
Common Name:

Nutrient,Unit,Data points,Std. Error,"0.5 cup = 128.0g",1Value per 100 g,
Proximates
"Energy",kcal,--,--,79,62
"Protein",g,--,--,3.00,2.34
"Total lipid (fat)",g,--,--,4.51,3.52
"Carbohydrate, by difference",g,--,--,9.00,7.03
"Fiber, total dietary",g,--,--,1.0,0.8
"Sugars, total",g,--,--,3.00,2.34
Minerals
"Calcium, Ca",mg,--,--,79,62
"Iron, Fe",mg,--,--,1.38,1.08
"Sodium, Na",mg,--,--,580,453
Vitamins
"Vitamin C, total ascorbic acid",mg,--,--,0.0,0.0
"Vitamin A, IU",IU,--,--,0,0
Lipids
"Fatty acids, total saturated",g,--,--,0.998,0.780
"Fatty acids, total trans",g,--,--,0.000,0.000
"Cholesterol",mg,--,--,0,0
Amino Acids
Other
Ingredients
"FRESH BUTTERMILK, POTATO DUMPLINGS (VEGETABLE OIL: CANOLA, SUNFLOWER, SAFFLOWER, SOYBEAN OR PALM, CORN FLOUR, POTATO FLAKES, DEHYDRATED ONION, GARLIC, SEA SALT), WATER, CHICKPEA FLOUR, SOYBEAN OIL, SALT, SPICES AND LEMON JUICE." Date available: 06/25/2017 Date last updated by company: 06/25/2017
