Source: USDA Branded Food Products Database Release December 2017 Software v.3.8.6.4 2017-10-02
Report Run at: December 17, 2017 05:17 EST
"Nutrient data for: 45145187, K&G, KETTLE COOKED POTATO CHIPS, UPC: 708615006560"
Food Group:  Branded Food Products Database
Common Name:

Nutrient,Unit,Data points,Std. Error,"18.0 CHIPS = 28.0g",1Value per 100 g,
Proximates
"Energy",kcal,--,--,150,536
"Protein",g,--,--,2.00,7.14
"Total lipid (fat)",g,--,--,8.00,28.57
"Carbohydrate, by difference",g,--,--,18.00,64.29
"Fiber, total dietary",g,--,--,1.0,3.6
"Sugars, total",g,--,--,1.00,3.57
Minerals
"Calcium, Ca",mg,--,--,0,0
"Iron, Fe",mg,--,--,0.64,2.29
"Sodium, Na",mg,--,--,70,250
Vitamins
"Vitamin C, total ascorbic acid",mg,--,--,6.4,22.9
"Vitamin A, IU",IU,--,--,0,0
Lipids
"Fatty acids, total saturated",g,--,--,1.999,7.140
"Fatty acids, total trans",g,--,--,0.000,0.000
"Cholesterol",mg,--,--,0,0
Amino Acids
Other
Ingredients
"POTATOES, COTTONSEED OIL, SUGAR, HONEY POWDER (MALTODEXTRIN), MUSTARD, SALAD MUSTARD [(DISTILLED VINEGAR, WATER, MUSTARD SEED SALT, TURMERIC, SPICES), MALTODEXTRIN, STARCH], SALT, VINEGAR POWDER (MALTODEXTRIN, MODIFIED FOOD STARCH, DRIED VINEGAR), ONION AND GARLIC POWDER, MALIC ACID, NATURAL FLAVOR, OLEORESIN, TURMERIC, WITH NOT MORE THAN 2% CALCIUM SILICATE ADDED TO PREVENT CAKING." Date available: 07/14/2017 Date last updated by company: 07/14/2017
