Source: USDA Branded Food Products Database Release December 2017 Software v.3.8.6.4 2017-10-02
Report Run at: December 17, 2017 05:16 EST
"Nutrient data for: 45149301, K&G, CHOCOLATE, SEA SALT CARAMELS, UPC: 708615701229"
Food Group:  Branded Food Products Database
Common Name:

Nutrient,Unit,Data points,Std. Error,"4.0 PIECES = 40.0g",1Value per 100 g,
Proximates
"Energy",kcal,--,--,180,450
"Protein",g,--,--,1.00,2.50
"Total lipid (fat)",g,--,--,7.00,17.50
"Carbohydrate, by difference",g,--,--,25.00,62.50
"Fiber, total dietary",g,--,--,1.0,2.5
"Sugars, total",g,--,--,22.00,55.00
Minerals
"Calcium, Ca",mg,--,--,20,50
"Iron, Fe",mg,--,--,0.45,1.12
"Sodium, Na",mg,--,--,310,775
Vitamins
"Vitamin C, total ascorbic acid",mg,--,--,0.0,0.0
"Vitamin A, IU",IU,--,--,0,0
Lipids
"Fatty acids, total saturated",g,--,--,4.000,10.000
"Fatty acids, total trans",g,--,--,0.000,0.000
"Cholesterol",mg,--,--,0,0
Amino Acids
Other
Ingredients
"DARK CHOCOLATE (SUGAR, CHOCOLATE LIQUOR, COCOA BUTTER, ANHYDROUS MILK FAT, SOY LECITHIN [AN EMULSIFIER], VANILLIN [AN ARTIFICIAL FLAVOR]), CORN SYRUP, SUGAR, PALM OIL, WHEY POWDER (MILK), INVERT SUGAR, SEA SALT ARTIFICIAL VANILLA AND PURE VANILLA." Date available: 07/14/2017 Date last updated by company: 07/14/2017
