Source: USDA Branded Food Products Database Release December 2017 Software v.3.8.6.4 2017-10-02
Report Run at: December 17, 2017 05:17 EST
"Nutrient data for: 45145180, K&G, POTATO CHIPS, JALAPENO FLAVORED, ORIGINAL BBQ, SALT & PEPPER SEA SALT & VINEGAR SOUR CREAM & ONION, UPC: 708615006164"
Food Group:  Branded Food Products Database
Common Name:

Nutrient,Unit,Data points,Std. Error,"18.0 CHIPS = 28.0g",1Value per 100 g,
Proximates
"Energy",kcal,--,--,150,536
"Protein",g,--,--,2.00,7.14
"Total lipid (fat)",g,--,--,8.00,28.57
"Carbohydrate, by difference",g,--,--,17.00,60.71
"Fiber, total dietary",g,--,--,1.0,3.6
"Sugars, total",g,--,--,2.00,7.14
Minerals
"Calcium, Ca",mg,--,--,0,0
"Iron, Fe",mg,--,--,0.64,2.29
"Magnesium, Mg",mg,--,--,29,102
"Phosphorus, P",mg,--,--,71,255
"Potassium, K",mg,--,--,290,1036
"Sodium, Na",mg,--,--,130,464
"Zinc, Zn",mg,--,--,0.30,1.07
"Copper, Cu",mg,--,--,0.160,0.571
"Manganese, Mn",mg,--,--,0.000,0.000
Vitamins
"Vitamin C, total ascorbic acid",mg,--,--,16.1,57.4
"Thiamin",mg,--,--,0.280,1.000
"Riboflavin",mg,--,--,0.034,0.121
"Niacin",mg,--,--,2.142,7.650
"Pantothenic acid",mg,--,--,0.400,1.429
"Vitamin B-6",mg,--,--,0.357,1.276
"Vitamin A, IU",IU,--,--,0,0
Lipids
"Fatty acids, total saturated",g,--,--,1.000,3.570
"Fatty acids, total monounsaturated",g,--,--,1.999,7.140
"Fatty acids, total polyunsaturated",g,--,--,5.001,17.860
"Fatty acids, total trans",g,--,--,0.000,0.000
"Cholesterol",mg,--,--,0,0
Amino Acids
Other
Ingredients
"POTATOES, VEGETABLE OIL ( CONTAINS ONE OR MORE OF THE FOLLOWING: CORN, SUNFLOWER, OR CANOLA OIL), DEXTROSE, MALTODEXTRIN, SALT, SPICES, ONION POWDER, YEAST EXTRACT, NATURAL FLAVOR, GARLIC POWDER, CITRIC ACID, AND EXTRACTIVES OF PAPRIKA." Date available: 07/14/2017 Date last updated by company: 07/14/2017
