Source: USDA Branded Food Products Database Release December 2017 Software v.3.8.6.4 2017-10-02
Report Run at: December 18, 2017 16:12 EST
"Nutrient data for: 45009287, KA-ME, PAD THAI NOODLE BOX, UPC: 070844705607"
Food Group:  Branded Food Products Database
Common Name:

Nutrient,Unit,Data points,Std. Error,"0.5 PACKAGE = 165.0g",1Value per 100 g,
Proximates
"Energy",kcal,--,--,310,188
"Protein",g,--,--,8.99,5.45
"Total lipid (fat)",g,--,--,11.01,6.67
"Carbohydrate, by difference",g,--,--,45.00,27.27
"Fiber, total dietary",g,--,--,2.0,1.2
"Sugars, total",g,--,--,15.00,9.09
Minerals
"Calcium, Ca",mg,--,--,20,12
"Iron, Fe",mg,--,--,0.21,0.13
"Sodium, Na",mg,--,--,790,479
Vitamins
"Vitamin C, total ascorbic acid",mg,--,--,0.0,0.0
"Vitamin A, IU",IU,--,--,0,0
Lipids
"Fatty acids, total saturated",g,--,--,3.003,1.820
"Fatty acids, total trans",g,--,--,0.000,0.000
"Cholesterol",mg,--,--,0,0
Amino Acids
Other
Ingredients
"WATER, RICE FLOUR, WHEAT FLOUR, RICE BRAN OIL, SALT, ACIDULANTS (LACTIC ACID, ACETIC ACID), SODIUM TRIPOLYPHOSPHATE, DL ALPHA TOCOPHEROL (ANTI-OXIDANT), SODIUM CARBONATE. SAUCE: WATER, SHALLOTS, SUGAR, SOY OIL, STRAW MUSHROOMS, BABY CORN, ONIONS, PEANUTS, TARTARIC ACID, SOYBEAN CURD, GARLIC, DRIED SHRIMP, SOY SAUCE (WATER, SOYBEANS, WHEAT FLOUR, SALT), SALT, FISH SAUCE (ANCHOVY EXTRACT, SALT, SUGAR) FRESH AND DRY CHILI, CARAMEL COLOR, DL ALPHA TOCOPHEROL (ANTI-OXIDANT)." Date available: 06/24/2017 Date last updated by company: 06/24/2017
