Source: USDA Branded Food Products Database Release December 2017 Software v.3.8.6.4 2017-10-02
Report Run at: December 18, 2017 16:12 EST
"Nutrient data for: 45026935, KA-ME, SOBA STIR-FRY NOODLES, UPC: 070844705584"
Food Group:  Branded Food Products Database
Common Name:

Nutrient,Unit,Data points,Std. Error,"0.5 POUCH = 100.0g",1Value per 100 g,
Proximates
"Energy",kcal,--,--,150,150
"Protein",g,--,--,6.00,6.00
"Total lipid (fat)",g,--,--,0.50,0.50
"Carbohydrate, by difference",g,--,--,30.00,30.00
"Fiber, total dietary",g,--,--,3.0,3.0
"Sugars, total",g,--,--,1.00,1.00
Minerals
"Calcium, Ca",mg,--,--,40,40
"Iron, Fe",mg,--,--,0.90,0.90
"Sodium, Na",mg,--,--,25,25
Vitamins
"Vitamin C, total ascorbic acid",mg,--,--,0.0,0.0
"Vitamin A, IU",IU,--,--,0,0
Lipids
"Fatty acids, total saturated",g,--,--,0.000,0.000
"Fatty acids, total trans",g,--,--,0.000,0.000
"Cholesterol",mg,--,--,0,0
Amino Acids
Other
Ingredients
"WATER, WHEAT FLOUR, BUCKWHEAT FLOUR, WHEAT GLUTEN, SALT, LACTIC ACID." Date available: 07/14/2017 Date last updated by company: 07/14/2017
