Source: USDA Branded Food Products Database Release December 2017 Software v.3.8.6.4 2017-10-02
Report Run at: December 18, 2017 16:00 EST
"Nutrient data for: 45091754, KAGOME, SOFT DRINK (JELLY), UPC: 4901306072011"
Food Group:  Branded Food Products Database
Common Name:

Nutrient,Unit,Data points,Std. Error,"180.0 GRM = 180.0g",1Value per 100 g,
Proximates
"Energy",kcal,--,--,79,44
"Protein",g,--,--,0.00,0.00
"Total lipid (fat)",g,--,--,0.00,0.00
"Carbohydrate, by difference",g,--,--,18.00,10.00
"Fiber, total dietary",g,--,--,4.0,2.2
"Sugars, total",g,--,--,13.00,7.22
Minerals
"Calcium, Ca",mg,--,--,0,0
"Iron, Fe",mg,--,--,0.00,0.00
"Sodium, Na",mg,--,--,121,67
Vitamins
"Vitamin C, total ascorbic acid",mg,--,--,0.5,0.3
"Vitamin A, IU",IU,--,--,0,0
Lipids
"Fatty acids, total saturated",g,--,--,0.000,0.000
"Fatty acids, total trans",g,--,--,0.000,0.000
"Cholesterol",mg,--,--,0,0
Amino Acids
Other
Ingredients
"VEGETABLE (CARROT, CABBAGE, EGGPLANT, ASPARAGUS, CELERY, CHINESE CABBAGE,RADISH, KALE, LETTUCE, WATERCRESS, SPINACH, PARSLEY, BEET, PUMPKIN), FRUIT (APPLE, LEMON, PINEAPPLE), AGAR-AGAR, YAM POWDER, FIBER, ARTIFICIAL FLAVOR, PECTIN." Date available: 06/25/2017 Date last updated by company: 06/25/2017
