Source: USDA Branded Food Products Database Release December 2017 Software v.3.8.6.4 2017-10-02
Report Run at: December 18, 2017 16:01 EST
"Nutrient data for: 45010459, KAHN'S, BAVARIAN, BRAUNSCHWEIGER, UPC: 044500061406"
Food Group:  Branded Food Products Database
Common Name:

Nutrient,Unit,Data points,Std. Error,"2.0 ONZ = 56.0g",1Value per 100 g,
Proximates
"Energy",kcal,--,--,180,321
"Protein",g,--,--,8.00,14.29
"Total lipid (fat)",g,--,--,16.00,28.57
"Carbohydrate, by difference",g,--,--,3.00,5.36
"Fiber, total dietary",g,--,--,0.0,0.0
"Sugars, total",g,--,--,3.00,5.36
Minerals
"Calcium, Ca",mg,--,--,0,0
"Iron, Fe",mg,--,--,3.53,6.31
"Sodium, Na",mg,--,--,650,1161
Vitamins
"Vitamin C, total ascorbic acid",mg,--,--,0.0,0.0
"Vitamin A, IU",IU,--,--,7366,13154
Lipids
"Fatty acids, total saturated",g,--,--,5.001,8.930
"Fatty acids, total trans",g,--,--,0.000,0.000
"Cholesterol",mg,--,--,80,143
Amino Acids
Other
Ingredients
"PORK LIVERS, (PORK, BACON (PORK, WATER, SALT, SODIUM PHOSPHATE, SODIUM ERYTHORBATE, SODIUM NITRITE, MAY CONTAIN SUGAR), WATER, CONTAINS 2% OR LESS: SALT, CORN SYRUP, SODIUM LACTATE, SUGAR, FLAVORINGS, DEXTROSE, SODIUM DIACETATE, SODIUM NITRITE" Date available: 06/24/2017 Date last updated by company: 06/24/2017
