Source: USDA Branded Food Products Database Release December 2017 Software v.3.8.6.4 2017-10-02
Report Run at: December 18, 2017 16:03 EST
"Nutrient data for: 45213621, KALAMATA OLIVES SLICED, UPC: 027158003714"
Food Group:  Branded Food Products Database
Common Name:

Nutrient,Unit,Data points,Std. Error,"1 ONZ = 28.35g",1Value per 100 g,
Proximates
"Energy",kcal,--,--,67,235
"Protein",g,--,--,0.36,1.27
"Total lipid (fat)",g,--,--,7.17,25.29
"Carbohydrate, by difference",g,--,--,0.06,0.21
"Fiber, total dietary",g,--,--,0.0,0.0
"Sugars, total",g,--,--,0.00,0.00
Minerals
"Sodium, Na",mg,--,--,454,1601
Vitamins
Lipids
"Fatty acids, total saturated",g,--,--,1.040,3.670
"Fatty acids, total trans",g,--,--,0.000,0.000
"Cholesterol",mg,--,--,0,0
Amino Acids
Other
Ingredients
"KALAMATA OLIVES SLICED, WATER, VINEGAR, SALT." Date available: 07/14/2017 Date last updated by company: 07/14/2017
