Source: USDA Branded Food Products Database Release December 2017 Software v.3.8.6.4 2017-10-02
Report Run at: December 18, 2017 16:09 EST
"Nutrient data for: 45106674, KALE TOMATO BASIL ORGANIC PASTA SAUCE, UPC: 677294998049"
Food Group:  Branded Food Products Database
Common Name:

Nutrient,Unit,Data points,Std. Error,"0.5 cup = 113.0g",1Value per 100 g,
Proximates
"Energy",kcal,--,--,35,31
"Protein",g,--,--,0.99,0.88
"Total lipid (fat)",g,--,--,1.50,1.33
"Carbohydrate, by difference",g,--,--,4.00,3.54
"Fiber, total dietary",g,--,--,2.0,1.8
"Sugars, total",g,--,--,4.00,3.54
Minerals
"Calcium, Ca",mg,--,--,20,18
"Iron, Fe",mg,--,--,1.53,1.35
"Sodium, Na",mg,--,--,231,204
Vitamins
"Vitamin C, total ascorbic acid",mg,--,--,1.2,1.1
"Vitamin A, IU",IU,--,--,792,701
Lipids
"Fatty acids, total saturated",g,--,--,0.000,0.000
"Fatty acids, total trans",g,--,--,0.000,0.000
"Cholesterol",mg,--,--,0,0
Amino Acids
Other
Ingredients
"IMPORTED ORGANIC ITALIAN TOMATOES, ORGANIC KALE, ORGANIC ONIONS, ORGANIC EXTRA VIRGIN OLIVE OIL, SEA SALT, ORGANIC BASIL, ORGANIC WHITE PEPPER, ORGANIC BLACK PEPPER." Date available: 07/14/2017 Date last updated by company: 07/14/2017
