Source: USDA Branded Food Products Database Release December 2017 Software v.3.8.6.4 2017-10-02
Report Run at: December 18, 2017 16:16 EST
"Nutrient data for: 45019652, KARAM'S, TAHINI, UPC: 768339113548"
Food Group:  Branded Food Products Database
Common Name:

Nutrient,Unit,Data points,Std. Error,"1 Tbsp = 14.0g",1Value per 100 g,
Proximates
"Energy",kcal,--,--,35,250
"Protein",g,--,--,1.00,7.14
"Total lipid (fat)",g,--,--,3.00,21.43
"Carbohydrate, by difference",g,--,--,1.00,7.14
"Fiber, total dietary",g,--,--,0.0,0.0
"Sugars, total",g,--,--,0.00,0.00
Minerals
"Calcium, Ca",mg,--,--,10,71
"Iron, Fe",mg,--,--,0.00,0.00
"Sodium, Na",mg,--,--,50,357
Vitamins
"Vitamin C, total ascorbic acid",mg,--,--,0.0,0.0
"Vitamin A, IU",IU,--,--,507,3621
Lipids
"Fatty acids, total saturated",g,--,--,2.500,17.860
"Fatty acids, total trans",g,--,--,0.000,0.000
"Cholesterol",mg,--,--,12,89
Amino Acids
Other
Ingredients
"100% GROUND ROASTED SESAME SEEDS & LOVE!" Date available: 06/25/2017 Date last updated by company: 06/25/2017
