Source: USDA Branded Food Products Database Release December 2017 Software v.3.8.6.4 2017-10-02
Report Run at: December 18, 2017 16:25 EST
"Nutrient data for: 45094986, KASUGAI, GUMMY CANDY, RAMUNE, UPC: 4901326040250"
Food Group:  Branded Food Products Database
Common Name:

Nutrient,Unit,Data points,Std. Error,"8.0 PIECES = 40.0g",1Value per 100 g,
Proximates
"Energy",kcal,--,--,130,325
"Protein",g,--,--,2.00,5.00
"Total lipid (fat)",g,--,--,0.00,0.00
"Carbohydrate, by difference",g,--,--,30.00,75.00
"Fiber, total dietary",g,--,--,0.0,0.0
"Sugars, total",g,--,--,21.00,52.50
Minerals
"Calcium, Ca",mg,--,--,0,0
"Iron, Fe",mg,--,--,0.00,0.00
"Sodium, Na",mg,--,--,10,25
Vitamins
"Vitamin C, total ascorbic acid",mg,--,--,0.0,0.0
"Vitamin A, IU",IU,--,--,0,0
Lipids
"Fatty acids, total saturated",g,--,--,0.000,0.000
"Fatty acids, total trans",g,--,--,0.000,0.000
"Cholesterol",mg,--,--,0,0
Amino Acids
Other
Ingredients
"GLUCOSE SYRUP, SUGAR, SORBITOL, GELATIN, CITRIC ACID, PECTIN, NATURAL AND ARTIFICIAL FLAVOR, STARCH POWDER (POTATO), CARNAUBA WAX, EMULSIFIERS [POLYGLYCEROL ESTERS OF FATTY ACIDS, ENZYME-MODIFIED LECITHIN (SOYBEANS)], FD&C BLUE NO.1." Date available: 06/25/2017 Date last updated by company: 06/25/2017
