Source: USDA Branded Food Products Database Release December 2017 Software v.3.8.6.4 2017-10-02
Report Run at: December 18, 2017 20:49 EST
"Nutrient data for: 45087452, KAUKAUNA, SPREADABLE CHEDDAR CHEESE, PORT WINE, UPC: 017003100941"
Food Group:  Branded Food Products Database
Common Name:

Nutrient,Unit,Data points,Std. Error,"2.0 Tbsp = 24.0g",1Value per 100 g,
Proximates
"Energy",kcal,--,--,80,333
"Protein",g,--,--,4.00,16.67
"Total lipid (fat)",g,--,--,6.00,25.00
"Carbohydrate, by difference",g,--,--,3.00,12.50
"Fiber, total dietary",g,--,--,0.0,0.0
"Sugars, total",g,--,--,3.00,12.50
Minerals
"Calcium, Ca",mg,--,--,100,417
"Iron, Fe",mg,--,--,0.00,0.00
"Sodium, Na",mg,--,--,160,667
Vitamins
"Vitamin C, total ascorbic acid",mg,--,--,0.0,0.0
"Vitamin A, IU",IU,--,--,625,2604
Lipids
"Fatty acids, total saturated",g,--,--,3.000,12.500
"Fatty acids, total trans",g,--,--,0.000,0.000
"Cholesterol",mg,--,--,15,62
Amino Acids
Other
Ingredients
"CHEDDAR CHEESE ([AGED OVER 6 MONTHS], PASTEURIZED MILK, CHEESE CULTURE, SALT, ENZYME), WATER, REDUCED PROTEIN WHEY, REDUCED LACTOSE WHEY, CREAM, PORT WINE, COLOR ADDED INCLUDING CARMINE, BLUE 2, RED 40, AND APOCAROTENAL, SORBIC ACID (TO PROTECT FLAVOR), XANTHAN GUM, LACTIC ACID, SALT." Date available: 07/14/2017 Date last updated by company: 07/14/2017
