Source: USDA Branded Food Products Database Release December 2017 Software v.3.8.6.4 2017-10-02
Report Run at: December 18, 2017 20:51 EST
"Nutrient data for: 45241664, KC CENTRAL TRADING CO., SOYBEAN WITH SHIITAKE MUSHROOM, UPC: 4904977033251"
Food Group:  Branded Food Products Database
Common Name:

Nutrient,Unit,Data points,Std. Error,"50.0 GRM = 50.0g",1Value per 100 g,
Proximates
"Energy",kcal,--,--,130,260
"Protein",g,--,--,8.00,16.00
"Total lipid (fat)",g,--,--,4.00,8.00
"Carbohydrate, by difference",g,--,--,15.00,30.00
"Fiber, total dietary",g,--,--,0.0,0.0
"Sugars, total",g,--,--,5.00,10.00
Minerals
"Calcium, Ca",mg,--,--,0,0
"Iron, Fe",mg,--,--,0.00,0.00
"Sodium, Na",mg,--,--,0,0
Vitamins
"Vitamin C, total ascorbic acid",mg,--,--,0.0,0.0
"Vitamin A, IU",IU,--,--,0,0
Lipids
"Fatty acids, total saturated",g,--,--,0.000,0.000
"Fatty acids, total trans",g,--,--,0.000,0.000
"Cholesterol",mg,--,--,0,0
Amino Acids
Other
Ingredients
"SOBEAN, SHIITAKE MUSHROOM, SUGAR SY GRANULATED SUGAR, SOY SAUCE. KELP EXTRACT. BONITO EXTRACT." Date available: 10/11/2017 Date last updated by company: 10/11/2017
