Source: USDA Branded Food Products Database Release December 2017 Software v.3.8.6.4 2017-10-02
Report Run at: December 18, 2017 21:04 EST
"Nutrient data for: 45319655, KEEBLER, MINT CREME MIDDLES COOKIES, CHOCOLATE GRAHAM, UPC: 030100543732"
Food Group:  Branded Food Products Database
Common Name:

Nutrient,Unit,Data points,Std. Error,"3.0 COOKIES = 26.0g",1Value per 100 g,
Proximates
"Energy",kcal,--,--,130,500
"Protein",g,--,--,1.00,3.85
"Total lipid (fat)",g,--,--,7.00,26.92
"Carbohydrate, by difference",g,--,--,17.00,65.38
"Fiber, total dietary",g,--,--,1.0,3.8
"Sugars, total",g,--,--,10.00,38.46
Minerals
"Calcium, Ca",mg,--,--,0,0
"Iron, Fe",mg,--,--,0.69,2.67
"Sodium, Na",mg,--,--,75,288
Vitamins
"Vitamin C, total ascorbic acid",mg,--,--,0.0,0.0
"Vitamin A, IU",IU,--,--,0,0
Lipids
"Fatty acids, total saturated",g,--,--,3.999,15.380
"Fatty acids, total trans",g,--,--,0.000,0.000
"Cholesterol",mg,--,--,0,0
Amino Acids
Other
Ingredients
"SUGAR, ENRICHED FLOUR (WHEAT FLOUR, NIACIN, REDUCED IRON, THIAMIN MONONITRATE [VITAMIN B1], RIBOFLAVIN [VITAMIN B2], FOLIC ACID), VEGETABLE OIL (SOYBEAN, PALM, AND PALM KERNEL OIL WITH TBHQ FOR FRESHNESS), GRAHAM FLOUR, HYDROGENATED AND/OR PARTIALLY HYDROGENATED VEGETABLE OIL (PALM KERNEL, PALM AND/OR COCONUT OIL), COCOA PROCESSED WITH ALKALI, CONTAINS TWO PERCENT OR LESS OF RICOTTA CHEESE (WHEY, MILKFAT, LACTIC ACID, SALT), WHEY, CHOCOLATE, CORNSTARCH, SALT, SOY LECITHIN, NATURAL AND ARTIFICIAL FLAVOR, BAKING SODA, POLYSORBATE 60, SORBITAN MONOSTEARATE, OIL OF PEPPERMINT, YELLOW #5, LAKE, BLUE #1 LAKE." Date available: 06/24/2017 Date last updated by company: 06/24/2017
