Source: USDA Branded Food Products Database Release December 2017 Software v.3.8.6.4 2017-10-02
Report Run at: December 18, 2017 20:55 EST
"Nutrient data for: 45317116, KEEBLER, CHIPS DELUXE, COOKIES, PEANUT BUTTER, UPC: 030100109204"
Food Group:  Branded Food Products Database
Common Name:

Nutrient,Unit,Data points,Std. Error,"2.0 COOKIES = 31.0g",1Value per 100 g,
Proximates
"Energy",kcal,--,--,150,484
"Protein",g,--,--,3.00,9.68
"Total lipid (fat)",g,--,--,7.00,22.58
"Carbohydrate, by difference",g,--,--,21.00,67.74
"Fiber, total dietary",g,--,--,1.0,3.2
"Sugars, total",g,--,--,11.00,35.48
Minerals
"Calcium, Ca",mg,--,--,0,0
"Iron, Fe",mg,--,--,0.58,1.88
"Sodium, Na",mg,--,--,135,435
Vitamins
"Vitamin C, total ascorbic acid",mg,--,--,0.0,0.0
"Vitamin A, IU",IU,--,--,0,0
Lipids
"Fatty acids, total saturated",g,--,--,2.499,8.060
"Fatty acids, total trans",g,--,--,0.000,0.000
"Cholesterol",mg,--,--,5,16
Amino Acids
Other
Ingredients
"INGREDIENTS: ENRICHED FLOUR (WHEAT FLOUR, NIACIN, REDUCED IRON, VITAMIN B1 [THIAMIN MONONITRATE], VITAMIN B2 [RIBOFLAVIN], FOLIC ACID), M&M'SR BRAND MILK CHOCOLATE CANDIES (MILK CHOCOLATE[SUGAR, CHOCOLATE,SKIM MILK, COCOA BUTTER, LACTOSE, MILKFAT, SOY LECITHIN,SALT, ARTIFICIAL FLAVORS], SUGAR, CORNSTARCH, CORN SYRUP, DEXTRIN, COLOR ADDED, GUM ACAICA, BLUE1 LAKE, YELLOW 6, RED 40, YELLOW 5, BLUE 1, RED 40 LAKE, BLUE 2 LAKE, YELLOW 6 LAKE YELLOW 5 LAKE, BLEU 2), BROWN SUGAR (SUGAR, MOLASSES), SUGAR, PEANUT BUTTER (ROASTED PEANUTS), BUTTER (CREAM, SALT), SOYBEAN AND PALM OIL, CONTAINS 2% OR LESS OF SALT, BAKING SODA EGGS, SOY LECITHIN." Date available: 07/14/2017 Date last updated by company: 07/14/2017
