Source: USDA Branded Food Products Database Release December 2017 Software v.3.8.6.4 2017-10-02
Report Run at: December 18, 2017 21:10 EST
"Nutrient data for: 45312311, KEEBLER, VIENNA FINGERS, REDUCED FAT CREME FILLED SANDWICH COOKIES, UPC: 030100540885"
Food Group:  Branded Food Products Database
Common Name:

Nutrient,Unit,Data points,Std. Error,"2.0 COOKIES = 31.0g",1Value per 100 g,
Proximates
"Energy",kcal,--,--,140,452
"Protein",g,--,--,1.00,3.23
"Total lipid (fat)",g,--,--,4.50,14.52
"Carbohydrate, by difference",g,--,--,24.00,77.42
"Fiber, total dietary",g,--,--,1.0,3.2
"Sugars, total",g,--,--,12.00,38.71
Minerals
"Calcium, Ca",mg,--,--,0,0
"Iron, Fe",mg,--,--,1.16,3.75
"Sodium, Na",mg,--,--,115,371
Vitamins
"Vitamin C, total ascorbic acid",mg,--,--,0.0,0.0
"Vitamin A, IU",IU,--,--,0,0
Lipids
"Fatty acids, total saturated",g,--,--,1.500,4.840
"Fatty acids, total trans",g,--,--,0.000,0.000
"Cholesterol",mg,--,--,0,0
Amino Acids
Other
Ingredients
"ENRICHED FLOUR (WHEAT FLOUR, NIACIN, REDUCED IRON, THIAMIN MONONITRATE [VITAMIN B1], RIBOFLAVIN [VITAMIN B2], FOLIC ACID), SUGAR, VEGETABLE OIL (SOYBEAN, PALM AND PALM KERNEL OIL WITH TBHQ FOR FRESHNESS), DEGERMINATED YELLOW CORN FLOUR, DEXTROSE, HIGH FRUCTOSE CORN SYRUP, CONTAINS TWO PERCENT OR LESS OF GLYCERIN, SALT, LEAVENING (BAKING SODA, MONOCALCIUM PHOSPHATE), CORNSTARCH, SOY LECITHIN, ARTIFICIAL FLAVOR." Date available: 06/25/2017 Date last updated by company: 06/25/2017
