Source: USDA Branded Food Products Database Release December 2017 Software v.3.8.6.4 2017-10-02
Report Run at: December 18, 2017 21:10 EST
"Nutrient data for: 45318810, KEEBLER, VIENNA FINGERS, CREME FILLED SANDWICH COOKIES, UPC: 030100540946"
Food Group:  Branded Food Products Database
Common Name:

Nutrient,Unit,Data points,Std. Error,"2.0 COOKIES = 31.0g",1Value per 100 g,
Proximates
"Energy",kcal,--,--,150,484
"Protein",g,--,--,1.00,3.23
"Total lipid (fat)",g,--,--,6.00,19.35
"Carbohydrate, by difference",g,--,--,23.00,74.19
"Fiber, total dietary",g,--,--,1.0,3.2
"Sugars, total",g,--,--,10.00,32.26
Minerals
"Calcium, Ca",mg,--,--,0,0
"Iron, Fe",mg,--,--,1.16,3.75
"Sodium, Na",mg,--,--,95,306
Vitamins
"Vitamin C, total ascorbic acid",mg,--,--,0.0,0.0
"Vitamin A, IU",IU,--,--,0,0
Lipids
"Fatty acids, total saturated",g,--,--,2.000,6.450
"Fatty acids, total trans",g,--,--,0.000,0.000
"Cholesterol",mg,--,--,0,0
Amino Acids
Other
Ingredients
"ENRICHED FLOUR (WHEAT FLOUR, NIACIN, REDUCED IRON, THIAMIN MONONITRATE [VITAMIN B1], RIBOFLAVIN [VITAMIN B2], FOLIC ACID), SUGAR, VEGETABLE OIL (SOYBEAN, PALM AND PALM KERNEL OIL WITH TBHQ FOR FRESHNESS), DEGERMINATED YELLOW CORN FLOUR, DEXTROSE, HIGH FRUCTOSE CORN SYRUP, CONTAINS TWO PERCENT OR LESS OF SALT, CORNSTARCH, BAKING SODA, NATURAL AND ARTIFICIAL FLAVOR, SOY LECITHIN" Date available: 06/25/2017 Date last updated by company: 06/25/2017
