Source: USDA Branded Food Products Database Release December 2017 Software v.3.8.6.4 2017-10-02
Report Run at: December 18, 2017 21:09 EST
"Nutrient data for: 45318808, KEEBLER, TOWN HOUSE, PITA OVEN BAKED CRACKERS, ITALIAN CHEESE & HERB, UPC: 030100106142"
Food Group:  Branded Food Products Database
Common Name:

Nutrient,Unit,Data points,Std. Error,"6.0 CRACKERS = 16.0g",1Value per 100 g,
Proximates
"Energy",kcal,--,--,70,438
"Protein",g,--,--,1.00,6.25
"Total lipid (fat)",g,--,--,2.50,15.62
"Carbohydrate, by difference",g,--,--,12.00,75.00
"Fiber, total dietary",g,--,--,1.0,6.2
"Sugars, total",g,--,--,1.00,6.25
Minerals
"Calcium, Ca",mg,--,--,0,0
"Iron, Fe",mg,--,--,0.00,0.00
"Sodium, Na",mg,--,--,125,781
Vitamins
"Vitamin C, total ascorbic acid",mg,--,--,0.0,0.0
"Vitamin A, IU",IU,--,--,0,0
Lipids
"Fatty acids, total saturated",g,--,--,0.000,0.000
"Fatty acids, total monounsaturated",g,--,--,0.499,3.120
"Fatty acids, total polyunsaturated",g,--,--,1.501,9.380
"Fatty acids, total trans",g,--,--,0.000,0.000
"Cholesterol",mg,--,--,0,0
Amino Acids
Other
Ingredients
"WHEAT FLOUR, SOYBEAN OIL WITH TBHQ FOR FRESHNESS, RICE FLOUR, SUGAR, OAT FIBER, CONTAINS TWO PERCENT OR LESS OF MALTODEXTRIN, SEA SALT, SALT, BUTTERMILK POWDER, DEHYDRATED GARLIC, DRIED YEAST, SPICES, WHEY, CITRIC ACID, YEAST EXTRACT, PARMESAN CHEESE (PART SKIM MILK, CHEESE CULTURES, SALT, ENZYMES), NATURAL FLAVOR, LACTIC ACID, SOY LECITHIN" Date available: 06/25/2017 Date last updated by company: 06/25/2017
