Source: USDA Branded Food Products Database Release December 2017 Software v.3.8.6.4 2017-10-02
Report Run at: December 18, 2017 21:11 EST
"Nutrient data for: 45201175, KEFIR LOWFAT YOGURT, UPC: 885963002113"
Food Group:  Branded Food Products Database
Common Name:

Nutrient,Unit,Data points,Std. Error,"5.3 ONZ = 150.0g",1Value per 100 g,
Proximates
"Energy",kcal,--,--,100,67
"Protein",g,--,--,7.00,4.67
"Total lipid (fat)",g,--,--,3.00,2.00
"Carbohydrate, by difference",g,--,--,13.01,8.67
"Fiber, total dietary",g,--,--,0.0,0.0
"Sugars, total",g,--,--,13.99,9.33
Minerals
"Calcium, Ca",mg,--,--,250,167
"Iron, Fe",mg,--,--,0.00,0.00
"Sodium, Na",mg,--,--,94,63
Vitamins
"Vitamin C, total ascorbic acid",mg,--,--,1.2,0.8
"Vitamin A, IU",IU,--,--,100,67
Lipids
"Fatty acids, total saturated",g,--,--,1.995,1.330
"Fatty acids, total trans",g,--,--,0.000,0.000
"Cholesterol",mg,--,--,10,7
Amino Acids
Other
Ingredients
"PASTEURIZED SKIM MILK, CREAM, ORGANIC CANE SUGAR, PURE MADAGASCAR BOURBON VANILLA, NATURAL FLAVOR, CULTURES." Date available: 07/14/2017 Date last updated by company: 07/14/2017
