Source: USDA Branded Food Products Database Release December 2017 Software v.3.8.6.4 2017-10-02
Report Run at: December 18, 2017 21:13 EST
"Nutrient data for: 45158998, KELLEY BELLE'S KITCHEN, SWEET SOFT CARAMEL & SALTY PRETZELS WRAPPED IN VELVETY WHITE CHOCOLATE, UPC: 868890000100"
Food Group:  Branded Food Products Database
Common Name:

Nutrient,Unit,Data points,Std. Error,"22.0 GRM = 22.0g",1Value per 100 g,
Proximates
"Energy",kcal,--,--,90,409
"Protein",g,--,--,1.00,4.55
"Total lipid (fat)",g,--,--,3.50,15.91
"Carbohydrate, by difference",g,--,--,14.00,63.64
"Fiber, total dietary",g,--,--,0.0,0.0
"Sugars, total",g,--,--,7.00,31.82
Minerals
"Sodium, Na",mg,--,--,90,409
Vitamins
Lipids
"Fatty acids, total saturated",g,--,--,2.499,11.360
"Fatty acids, total trans",g,--,--,0.000,0.000
"Cholesterol",mg,--,--,5,23
Amino Acids
Other
Ingredients
"WHITE CHOCOLATE (SUGAR, PALM KERNEL AND PALM OILS, WHEY, NONFAT MILK, SOYA LECITHIN PURE VANILLA), WHIPPING CREAM, SUGAR, CORN SYRUP, EVAPORATED MILK (MILK, DIPOTASSIUM PHOSPHATE, CARRAGEENAN, VITAMIN D3), BUTTER, VANILLA, SALT, SOYA LECITHIN, PRETZELS (ENRICHED WHEAT FLOUR [CONTAINS; NIACIN, IRON AS FERROUS SULFATE, THIAMINE MONONITRATE [VITAMIN B1], RIBOFLAVIN [VITAMIN B2], FOLIC ACID], CANOLA OIL, SALT, CORN SYRUP, YEAST AND SODIUM BICARBONATE), DARK CHOCOLATE (CHOCOLATE LIQUOR, SUGAR, COCOA BUTTER, MILK FAT (BUTTER), SOYA LECITHIN AND VANILLA)." Date available: 10/13/2017 Date last updated by company: 10/13/2017
