Source: USDA Branded Food Products Database Release December 2017 Software v.3.8.6.4 2017-10-02
Report Run at: December 17, 2017 04:09 EST
"Nutrient data for: 45226771, KEMPS, SMOOTH & CREAMY FROZEN YOGURT, MINT CHOCOLATE CHIP, UPC: 041483037749"
Food Group:  Branded Food Products Database
Common Name:

Nutrient,Unit,Data points,Std. Error,"0.5 cup = 65.0g",1Value per 100 g,
Proximates
"Energy",kcal,--,--,110,169
"Protein",g,--,--,2.00,3.08
"Total lipid (fat)",g,--,--,1.50,2.31
"Carbohydrate, by difference",g,--,--,22.00,33.85
"Fiber, total dietary",g,--,--,0.0,0.0
"Sugars, total",g,--,--,16.00,24.62
Minerals
"Calcium, Ca",mg,--,--,80,123
"Iron, Fe",mg,--,--,0.00,0.00
"Sodium, Na",mg,--,--,50,77
Vitamins
"Vitamin C, total ascorbic acid",mg,--,--,0.0,0.0
"Vitamin A, IU",IU,--,--,0,0
Lipids
"Fatty acids, total saturated",g,--,--,1.502,2.310
"Fatty acids, total trans",g,--,--,0.000,0.000
"Cholesterol",mg,--,--,0,0
Amino Acids
Other
Ingredients
"SKIM MILK, CULTURED SKIM MILK, CORN SYRUP, SUGAR, CHOCOLATY CHIPS (SUGAR, COCONUT OIL COCOA PROCESSED WITH ALKALI, WHEY, SKIM MILK, SOY LECITHIN, SALT, NATURAL FLAVOR), HIGH FRUCTOSE CORN SYRUP, WHEY, MALTODEXTRIN, CONTAINS LESS THAN 2% OF SWEET CREAM BUTTERMILK, NATURAL FLAVOR, PROPYLENE GLYCOL MONOESTERS, TAPIOCA STARCH-MODIFIED, MONO AND DIGLYCERIDES, GUAR GUM, YELLOW 5, BLUE 1, CELLULOSE GUM, CARRAGEENAN, LIVE ACTIVE YOGURT CULTURES INCLUDING L. ACIDOPHILUS AND BIFIDOBACTERIUM." Date available: 07/14/2017 Date last updated by company: 07/14/2017
