Source: USDA Branded Food Products Database Release December 2017 Software v.3.8.6.4 2017-10-02
Report Run at: December 17, 2017 04:10 EST
"Nutrient data for: 45226776, KEMPS, SMOOTH & CREAMY FROZEN YOGURT, STRAWBERRY, UPC: 041483000798"
Food Group:  Branded Food Products Database
Common Name:

Nutrient,Unit,Data points,Std. Error,"0.5 cup = 65.0g",1Value per 100 g,
Proximates
"Energy",kcal,--,--,80,123
"Protein",g,--,--,2.00,3.08
"Total lipid (fat)",g,--,--,0.00,0.00
"Carbohydrate, by difference",g,--,--,18.00,27.69
"Fiber, total dietary",g,--,--,0.0,0.0
"Sugars, total",g,--,--,13.00,20.00
Minerals
"Calcium, Ca",mg,--,--,80,123
"Iron, Fe",mg,--,--,0.00,0.00
"Sodium, Na",mg,--,--,45,69
Vitamins
"Vitamin C, total ascorbic acid",mg,--,--,4.0,6.2
"Vitamin A, IU",IU,--,--,0,0
Lipids
"Fatty acids, total saturated",g,--,--,0.000,0.000
"Fatty acids, total trans",g,--,--,0.000,0.000
"Cholesterol",mg,--,--,0,0
Amino Acids
Other
Ingredients
"SKIM MILK, CULTURED SKIM MILK, STRAWBERRIES (STRAWBERRIES, SUGAR, GUAR GUM, CORN STARCH-MODIFIED, CITRIC ACID), CORN SYRUP, SUGAR, HIGH FRUCTOSE CORN SYRUP, WHEY*, MALTODEXTRIN, CONTAINS LESS THAN 2% OF NATURAL FLAVORS, SWEET CREAM BUTTERMILK*, TAPIOCA STARCH-MODIFIED, PROPYLENE GLYCOL MONOESTER, MONO AND DIGLYCERIDES*, GUAR GUM, CELLULOSE GUM, ARTIFICIAL COLORS (RED 40, BLUE 1), CARRAGEENAN, LIVE ACTIVE YOGURT CULTURES INCLUDING L. ACIDOPHILUS AND BIFIDOBACTERIUM." Date available: 07/14/2017 Date last updated by company: 07/14/2017
