Source: USDA Branded Food Products Database Release December 2017 Software v.3.8.6.4 2017-10-02
Report Run at: December 17, 2017 04:03 EST
"Nutrient data for: 45226813, KEMPS, ICE CREAM SANDWICHES, SALTED CARAMEL, UPC: 041483040305"
Food Group:  Branded Food Products Database
Common Name:

Nutrient,Unit,Data points,Std. Error,"1 SANDWICH = 61.0g",1Value per 100 g,
Proximates
"Energy",kcal,--,--,160,262
"Protein",g,--,--,2.00,3.28
"Total lipid (fat)",g,--,--,5.00,8.20
"Carbohydrate, by difference",g,--,--,27.00,44.26
"Fiber, total dietary",g,--,--,1.0,1.6
"Sugars, total",g,--,--,15.00,24.59
Minerals
"Calcium, Ca",mg,--,--,60,98
"Iron, Fe",mg,--,--,0.00,0.00
"Sodium, Na",mg,--,--,170,279
Vitamins
"Vitamin C, total ascorbic acid",mg,--,--,0.0,0.0
"Vitamin A, IU",IU,--,--,200,328
Lipids
"Fatty acids, total saturated",g,--,--,3.001,4.920
"Fatty acids, total trans",g,--,--,0.000,0.000
"Cholesterol",mg,--,--,20,33
Amino Acids
Other
Ingredients
"ICE CREAM: MILKFAT AND NONFAT MILK, SWEET CREAM BUTTERMILK, SUGAR, CARAMEL FLAVOR (WATER, SUGAR, SWEETENED CONDENSED SKIM MILK, HIGH FRUCTOSE CORN SYRUP, BUTTER [CREAM, SALT], SALT, SODIUM BICARBONATE, VANILLA EXTRACT, PECTIN), CORN SYRUP, WHEY, HIGH FRUCTOSE CORN SYRUP, MONO AND DIGLYCERIDES, GUAR GUM, NATURAL SALTED CARAMEL FLAVOR (NATURAL FLAVOR, CARAMELIZED SUGAR SYRUP, SEA SALT), CALCIUM SULFATE, POLYSORBATE 80, CAROB BEAN GUM, CARRAGEENAN. WAFER: BLEACHED WHEAT FLOUR, SUGAR, CARAMEL COLOR, DEXTROSE, PALM OIL, CORN FLOUR, CONTAINS 2% OR LESS OF: COCOA, HIGH FRUCTOSE CORN SYRUP, BAKING SODA, MODIFIED CORN STARCH, SALT, MONO AND DIGLYCERIDES, SOY LECITHIN." Date available: 07/14/2017 Date last updated by company: 07/14/2017
