Source: USDA Branded Food Products Database Release December 2017 Software v.3.8.6.4 2017-10-02
Report Run at: December 17, 2017 04:22 EST
"Nutrient data for: 45114901, KEN'S STEAK HOUSE, FAT FREE DRESSING, RASPBERRY PECAN, UPC: 041335328582"
Food Group:  Branded Food Products Database
Common Name:

Nutrient,Unit,Data points,Std. Error,"2.0 Tbsp = 34.0g",1Value per 100 g,
Proximates
"Energy",kcal,--,--,45,132
"Protein",g,--,--,0.00,0.00
"Total lipid (fat)",g,--,--,0.00,0.00
"Carbohydrate, by difference",g,--,--,11.00,32.35
"Fiber, total dietary",g,--,--,0.0,0.0
"Sugars, total",g,--,--,10.00,29.41
Minerals
"Calcium, Ca",mg,--,--,0,0
"Iron, Fe",mg,--,--,0.00,0.00
"Sodium, Na",mg,--,--,290,853
Vitamins
"Vitamin C, total ascorbic acid",mg,--,--,0.0,0.0
"Vitamin A, IU",IU,--,--,0,0
Lipids
"Fatty acids, total saturated",g,--,--,0.000,0.000
"Fatty acids, total trans",g,--,--,0.000,0.000
"Cholesterol",mg,--,--,0,0
Amino Acids
Other
Ingredients
"WATER, SUGAR, CIDER VINEGAR, MALTODEXTRIN, SALT, CONTAINS LESS THAN 2% OF CUCUMBER JUICE, VINEGAR, RASPBERRY JUICE CONCENTRATE, PECAN MEAL, XANTHAN GUM, CARRAGEENAN, ONION JUICE, POTASSIUM SORBATE AND SODIUM BENZOATE (PRESERVATIVES), SPICE, LEMON JUICE CONCENTRATE, GARLIC POWDER, NATURAL AND ARTIFICIAL FLAVOR, RED 40, CALCIUM DISODIUM EDTA (TO PROTECT FLAVOR), BLUE 1." Date available: 07/14/2017 Date last updated by company: 07/14/2017
