Source: USDA Branded Food Products Database Release December 2017 Software v.3.8.6.4 2017-10-02
Report Run at: December 17, 2017 04:27 EST
"Nutrient data for: 45009468, KEN'S STEAK HOUSE, LITE OLIVE OIL VINAIGRETTE DRESSING, UPC: 041335001287"
Food Group:  Branded Food Products Database
Common Name:

Nutrient,Unit,Data points,Std. Error,"2.0 Tbsp = 30.0g",1Value per 100 g,
Proximates
"Energy",kcal,--,--,60,200
"Protein",g,--,--,0.00,0.00
"Total lipid (fat)",g,--,--,6.00,20.00
"Carbohydrate, by difference",g,--,--,3.00,10.00
"Fiber, total dietary",g,--,--,0.0,0.0
"Sugars, total",g,--,--,2.00,6.67
Minerals
"Calcium, Ca",mg,--,--,0,0
"Iron, Fe",mg,--,--,0.00,0.00
"Sodium, Na",mg,--,--,240,800
Vitamins
"Vitamin C, total ascorbic acid",mg,--,--,0.0,0.0
"Vitamin A, IU",IU,--,--,0,0
Lipids
"Fatty acids, total saturated",g,--,--,0.999,3.330
"Fatty acids, total trans",g,--,--,0.000,0.000
"Cholesterol",mg,--,--,0,0
Amino Acids
Other
Ingredients
"WATER, DISTILLED VINEGAR, OLIVE OIL, VEGETABLE OIL (SOYBEAN AND/OR CANOLA), SUGAR, BALSAMIC VINEGAR, CONTAINS LESS THAN 2% OF: EXTRA VIRGIN OLIVE OIL, SALT, SPICE, GARLIC,* XANTHAN GUM, RED BELL PEPPER,* ONION,* SODIUM BENZOATE AND CALCIUM DISODIUM EDTA AS PRESERVATIVES." Date available: 07/14/2017 Date last updated by company: 07/14/2017
