Source: USDA Branded Food Products Database Release December 2017 Software v.3.8.6.4 2017-10-02
Report Run at: December 17, 2017 04:26 EST
"Nutrient data for: 45114906, KEN'S STEAK HOUSE, LITE DRESSING, BUTTERMILK RANCH, UPC: 041335359210"
Food Group:  Branded Food Products Database
Common Name:

Nutrient,Unit,Data points,Std. Error,"2.0 Tbsp = 30.0g",1Value per 100 g,
Proximates
"Energy",kcal,--,--,90,300
"Protein",g,--,--,0.00,0.00
"Total lipid (fat)",g,--,--,7.00,23.33
"Carbohydrate, by difference",g,--,--,5.00,16.67
"Fiber, total dietary",g,--,--,0.0,0.0
"Sugars, total",g,--,--,1.00,3.33
Minerals
"Calcium, Ca",mg,--,--,20,67
"Iron, Fe",mg,--,--,0.00,0.00
"Sodium, Na",mg,--,--,270,900
Vitamins
"Vitamin C, total ascorbic acid",mg,--,--,0.0,0.0
"Vitamin A, IU",IU,--,--,0,0
Lipids
"Fatty acids, total saturated",g,--,--,0.999,3.330
"Fatty acids, total trans",g,--,--,0.000,0.000
"Cholesterol",mg,--,--,5,17
Amino Acids
Other
Ingredients
"WATER, VEGETABLE OIL (SOYBEAN AND/OR CANOLA), BUTTERMILK, MALTODEXTRIN, DISTILLED VINEGAR, SUGAR, SALT, EGG YOLK, CONTAINS LESS THAN 2% OF: MODIFIED FOOD STARCH, MONOSODIUM GLUTAMATE, GARLIC,* PHOSPHORIC ACID, BUTTERMILK SOLIDS, SOUR CREAM SOLIDS, TITANIUM DIOXIDE, NATURAL BUTTERMILK FLAVOR (MILK), ONION, XANTHAN GUM, LEMON JUICE CONCENTRATE, POTASSIUM SORBATE AND CALCIUM DISODIUM EDTA AS PRESERVATIVES, SPICE, NATURAL FLAVOR, DISODIUM PHOSPHATE." Date available: 07/14/2017 Date last updated by company: 07/14/2017
