Source: USDA Branded Food Products Database Release December 2017 Software v.3.8.6.4 2017-10-02
Report Run at: December 17, 2017 04:34 EST
"Nutrient data for: 45180415, KENYER, OLD WORLD ARTISAN BREAD, UPC: 852636000271"
Food Group:  Branded Food Products Database
Common Name:

Nutrient,Unit,Data points,Std. Error,"2.0 ONZ = 57.0g",1Value per 100 g,
Proximates
"Energy",kcal,--,--,150,263
"Protein",g,--,--,6.00,10.53
"Total lipid (fat)",g,--,--,1.00,1.75
"Carbohydrate, by difference",g,--,--,32.00,56.14
"Fiber, total dietary",g,--,--,5.0,8.8
"Sugars, total",g,--,--,1.00,1.75
Minerals
"Calcium, Ca",mg,--,--,0,0
"Iron, Fe",mg,--,--,1.27,2.22
"Sodium, Na",mg,--,--,200,351
Vitamins
"Vitamin C, total ascorbic acid",mg,--,--,0.0,0.0
"Vitamin A, IU",IU,--,--,0,0
Lipids
"Fatty acids, total saturated",g,--,--,0.000,0.000
"Cholesterol",mg,--,--,0,0
Amino Acids
Other
Ingredients
"WHOLE GRAIN WHEAT FLOUR, FILTERED WATER UNBLEACHED WHITE FLOUR, ONION FRESH ROSEMARY, YEAST, SALT." Date available: 07/14/2017 Date last updated by company: 07/14/2017
