Source: USDA Branded Food Products Database Release December 2017 Software v.3.8.6.4 2017-10-02
Report Run at: December 17, 2017 04:38 EST
"Nutrient data for: 45215718, KETCHUP, UPC: 018894701118"
Food Group:  Branded Food Products Database
Common Name:

Nutrient,Unit,Data points,Std. Error,"1 Tbsp = 17.0g",1Value per 100 g,
Proximates
"Energy",kcal,--,--,20,118
"Protein",g,--,--,0.00,0.00
"Total lipid (fat)",g,--,--,0.00,0.00
"Carbohydrate, by difference",g,--,--,5.00,29.41
"Sugars, total",g,--,--,4.00,23.53
Minerals
"Sodium, Na",mg,--,--,160,941
Vitamins
"Vitamin C, total ascorbic acid",mg,--,--,4.1,23.9
"Vitamin A, IU",IU,--,--,338,1988
Lipids
Amino Acids
Other
Ingredients
"TOMATO CONCENTRATE, HIGH FRUCTOSE CORN SYRUP, DISTILLED VINEGAR, CORN SYRUP, SALT, LESS THAN 2% OF: SPICE, ONION POWDER, NATURAL FLAVORS." Date available: 07/14/2017 Date last updated by company: 07/14/2017
