Source: USDA Branded Food Products Database Release December 2017 Software v.3.8.6.4 2017-10-02
Report Run at: December 17, 2017 04:45 EST
"Nutrient data for: 45194431, KETTLE COOKED POTATO CHIPS, UPC: 020685000447"
Food Group:  Branded Food Products Database
Common Name:

Nutrient,Unit,Data points,Std. Error,"32.0 CHIPS = 50.0g",1Value per 100 g,
Proximates
"Energy",kcal,--,--,250,500
"Protein",g,--,--,4.00,8.00
"Total lipid (fat)",g,--,--,14.00,28.00
"Carbohydrate, by difference",g,--,--,30.00,60.00
"Fiber, total dietary",g,--,--,2.0,4.0
"Sugars, total",g,--,--,0.00,0.00
Minerals
"Calcium, Ca",mg,--,--,0,0
"Iron, Fe",mg,--,--,0.72,1.44
"Sodium, Na",mg,--,--,260,520
Vitamins
"Vitamin C, total ascorbic acid",mg,--,--,24.0,48.0
"Vitamin A, IU",IU,--,--,0,0
Lipids
"Fatty acids, total saturated",g,--,--,1.000,2.000
"Fatty acids, total trans",g,--,--,0.000,0.000
"Cholesterol",mg,--,--,0,0
Amino Acids
Other
Ingredients
"POTATOES, CANOLA OIL, SALT." Date available: 07/14/2017 Date last updated by company: 07/14/2017
