Source: USDA Branded Food Products Database Release December 2017 Software v.3.8.6.4 2017-10-02
Report Run at: December 17, 2017 04:44 EST
"Nutrient data for: 45149293, KETTLE COOKED POTATO CHIPS, UPC: 708615006607"
Food Group:  Branded Food Products Database
Common Name:

Nutrient,Unit,Data points,Std. Error,"18.0 CHIPS) | (ABOUT = 28.0g",1Value per 100 g,
Proximates
"Energy",kcal,--,--,140,500
"Protein",g,--,--,2.00,7.14
"Total lipid (fat)",g,--,--,8.00,28.57
"Carbohydrate, by difference",g,--,--,16.00,57.14
"Fiber, total dietary",g,--,--,0.0,0.0
"Sugars, total",g,--,--,0.00,0.00
Minerals
"Calcium, Ca",mg,--,--,40,143
"Iron, Fe",mg,--,--,0.64,2.29
"Sodium, Na",mg,--,--,330,1179
Vitamins
"Vitamin C, total ascorbic acid",mg,--,--,21.4,76.5
"Vitamin A, IU",IU,--,--,0,0
Lipids
"Fatty acids, total saturated",g,--,--,1.999,7.140
"Fatty acids, total trans",g,--,--,0.000,0.000
"Cholesterol",mg,--,--,0,0
Amino Acids
Other
Ingredients
"POTATOES, COTTONSEED OIL, SALT, WHEY, CHEDDAR CHEESE POWDER (CHEDDAR CHEESE, PASTEURIZED MILK, CHEESE CULTURES, SALT, ENZYMES), BUTTERMILK (WHEY, SALT, DISODIUM PHOSPHATE), YEAST EXTRACT, NATURAL FLAVORS INCLUDING BACON AND SMOKE, GARLIC POWDER, ONION POWDER, SPICE, LACTIC ACID, EXTRACTIVE OF PAPRIKA, LESS THAN 2% TRICALCIUM PHOSPHATE ADDED TO PREVENT CAKING." Date available: 10/13/2017 Date last updated by company: 10/13/2017
