Source: USDA Branded Food Products Database Release December 2017 Software v.3.8.6.4 2017-10-02
Report Run at: December 17, 2017 04:43 EST
"Nutrient data for: 45265976, KETTLE COOKED PEANUTS, UPC: 050428559116"
Food Group:  Branded Food Products Database
Common Name:

Nutrient,Unit,Data points,Std. Error,"0.25 cup = 30.0g",1Value per 100 g,
Proximates
"Energy",kcal,--,--,200,667
"Protein",g,--,--,7.00,23.33
"Total lipid (fat)",g,--,--,16.00,53.33
"Carbohydrate, by difference",g,--,--,6.00,20.00
"Fiber, total dietary",g,--,--,3.0,10.0
"Sugars, total",g,--,--,1.00,3.33
Minerals
"Calcium, Ca",mg,--,--,20,67
"Iron, Fe",mg,--,--,0.60,2.00
"Sodium, Na",mg,--,--,180,600
Vitamins
"Vitamin C, total ascorbic acid",mg,--,--,0.0,0.0
"Vitamin A, IU",IU,--,--,0,0
Lipids
"Fatty acids, total saturated",g,--,--,3.000,10.000
"Fatty acids, total trans",g,--,--,0.000,0.000
"Cholesterol",mg,--,--,0,0
Amino Acids
Other
Ingredients
"PEANUTS, VEGETABLE OIL (CANOLA AND/OR SOYBEAN), SEASONING SEA SALT, CORN MALTODEXTRIN, BLACK PEPPER, SUGAR, SODIUM DIACETATE, CORN SYRUP SOLIDS, CITRIC ACID, GARLIC POWDER, ONION POWDER, LEMON JUICE SOLIDS, NATURAL FLAVOR, NOT MORE THAN 2% CALCIUM SILICATE ADDED [ANTI-CAKING AGENT])." Date available: 07/14/2017 Date last updated by company: 07/14/2017
