Source: USDA Branded Food Products Database Release December 2017 Software v.3.8.6.4 2017-10-02
Report Run at: December 17, 2017 04:43 EST
"Nutrient data for: 45324427, KETTLE COOKED PEANUTS, UPC: 011225900051"
Food Group:  Branded Food Products Database
Common Name:

Nutrient,Unit,Data points,Std. Error,"0.25 cup = 30.0g",1Value per 100 g,
Proximates
"Energy",kcal,--,--,190,633
"Protein",g,--,--,7.00,23.33
"Total lipid (fat)",g,--,--,15.00,50.00
"Carbohydrate, by difference",g,--,--,7.00,23.33
"Fiber, total dietary",g,--,--,3.0,10.0
"Sugars, total",g,--,--,2.00,6.67
Minerals
"Calcium, Ca",mg,--,--,20,67
"Iron, Fe",mg,--,--,0.60,2.00
"Sodium, Na",mg,--,--,160,533
Vitamins
"Vitamin C, total ascorbic acid",mg,--,--,0.0,0.0
"Vitamin A, IU",IU,--,--,0,0
Lipids
"Fatty acids, total saturated",g,--,--,2.499,8.330
"Fatty acids, total trans",g,--,--,0.000,0.000
"Cholesterol",mg,--,--,0,0
Amino Acids
Other
Ingredients
"PEANUTS, SEASONING [SUGAR, SALT, SPICES (INCLUDING RED PEPPER), COCONUT, ONION POWDER, CORN MALTODEXTRIN, GARLIC POWDER, YEAST EXTRACT, CITRIC ACID, DISODIUM INOSINATE AND GUANYLATE, TURMERIC, PAPRIKA, CARAMEL COLOR, NATURAL FLAVOR, EXTRACTIVES OF TURMERIC, NOT MORE THAN 2% EACH CALCIUM SILICATE AND SILICON DIOXIDE ADDED AS ANTICAKING AGENTS], VEGETABLE OIL (CANOLA AND/OR SOYBEAN)." Date available: 08/10/2017 Date last updated by company: 08/10/2017
