Source: USDA Branded Food Products Database Release December 2017 Software v.3.8.6.4 2017-10-02
Report Run at: December 17, 2017 04:52 EST
"Nutrient data for: 45322929, KETTLE POPCORN, UPC: 038259103630"
Food Group:  Branded Food Products Database
Common Name:

Nutrient,Unit,Data points,Std. Error,"2.0 Tbsp = 33.0g",1Value per 100 g,
Proximates
"Energy",kcal,--,--,180,545
"Protein",g,--,--,2.00,6.06
"Total lipid (fat)",g,--,--,12.00,36.36
"Carbohydrate, by difference",g,--,--,0.02,0.05
"Fiber, total dietary",g,--,--,3.0,9.1
"Sugars, total",g,--,--,0.00,0.00
Minerals
"Calcium, Ca",mg,--,--,1,3
"Iron, Fe",mg,--,--,0.50,1.52
"Potassium, K",mg,--,--,65,197
"Sodium, Na",mg,--,--,100,303
Vitamins
Lipids
"Fatty acids, total saturated",g,--,--,5.999,18.180
"Fatty acids, total monounsaturated",g,--,--,4.000,12.120
"Fatty acids, total polyunsaturated",g,--,--,1.502,4.550
"Fatty acids, total trans",g,--,--,0.000,0.000
"Cholesterol",mg,--,--,0,0
Amino Acids
Other
Ingredients
"POPCORN, PALM OIL, CONTAINS 2% OR LESS OF EACH OF THE FOLLOWING: SALT, SUCRALOSE, TBHQ (PRESERVATIVE)." Date available: 08/24/2017 Date last updated by company: 08/24/2017
