Source: USDA Branded Food Products Database Release December 2017 Software v.3.8.6.4 2017-10-02
Report Run at: December 17, 2017 04:47 EST
"Nutrient data for: 45263934, KETTLE COOKED POTATO CHIPS, UPC: 041262271586"
Food Group:  Branded Food Products Database
Common Name:

Nutrient,Unit,Data points,Std. Error,"18.0 CHIPS = 28.0g",1Value per 100 g,
Proximates
"Energy",kcal,--,--,130,464
"Protein",g,--,--,2.00,7.14
"Total lipid (fat)",g,--,--,6.00,21.43
"Carbohydrate, by difference",g,--,--,19.00,67.86
"Fiber, total dietary",g,--,--,2.0,7.1
"Sugars, total",g,--,--,0.00,0.00
Minerals
"Calcium, Ca",mg,--,--,0,0
"Iron, Fe",mg,--,--,0.64,2.29
"Sodium, Na",mg,--,--,270,964
Vitamins
"Vitamin C, total ascorbic acid",mg,--,--,8.6,30.6
"Vitamin A, IU",IU,--,--,0,0
Lipids
"Fatty acids, total saturated",g,--,--,1.000,3.570
"Fatty acids, total trans",g,--,--,0.000,0.000
"Cholesterol",mg,--,--,0,0
Amino Acids
Other
Ingredients
"POTATOES, VEGETABLE OIL (CONTAINS ONE OR MORE OF THE FOLLOWING: CORN, COTTONSEED, SUNFLOWER, OR CANOLA OIL), CORN MALTODEXTRIN, NATURAL FLAVORS, SUGAR, SEA SALT, SALT, ONION POWDER, YEAST EXTRACT, BALSAMIC VINEGAR POWDER." Date available: 07/14/2017 Date last updated by company: 07/14/2017
