Source: USDA Branded Food Products Database Release December 2017 Software v.3.8.6.4 2017-10-02
Report Run at: December 17, 2017 04:46 EST
"Nutrient data for: 45217238, KETTLE COOKED POTATO CHIPS, UPC: 041303047071"
Food Group:  Branded Food Products Database
Common Name:

Nutrient,Unit,Data points,Std. Error,"12.0 CHIPS) | (ABOUT = 28.0g",1Value per 100 g,
Proximates
"Energy",kcal,--,--,140,500
"Protein",g,--,--,2.00,7.14
"Total lipid (fat)",g,--,--,7.00,25.00
"Carbohydrate, by difference",g,--,--,17.00,60.71
"Fiber, total dietary",g,--,--,1.0,3.6
"Sugars, total",g,--,--,1.00,3.57
Minerals
"Calcium, Ca",mg,--,--,0,0
"Iron, Fe",mg,--,--,0.64,2.29
"Sodium, Na",mg,--,--,160,571
Vitamins
"Vitamin C, total ascorbic acid",mg,--,--,10.7,38.3
"Vitamin A, IU",IU,--,--,179,638
Lipids
"Fatty acids, total saturated",g,--,--,0.501,1.790
"Fatty acids, total monounsaturated",g,--,--,4.500,16.070
"Fatty acids, total polyunsaturated",g,--,--,1.999,7.140
"Fatty acids, total trans",g,--,--,0.000,0.000
"Cholesterol",mg,--,--,0,0
Amino Acids
Other
Ingredients
"POTATOES, SUNFLOWER OIL AND/OR CORN OIL, SEASONING (MALTODEXTRIN, SUGAR, SALT, FRUCTOSE, DEXTROSE, DRY CHILI PEPPER, GARLIC POWDER, DRY VINEGAR, CONTAINS 2% OR LESS OF: HOT SAUCE [RED PEPPERS, VINEGAR, SALT, GARLIC], CITRIC ACID, PAPRIKA EXTRACT, YEAST EXTRACT, NATURAL FLAVOR, ACETIC ACID)." Date available: 07/14/2017 Date last updated by company: 07/14/2017
