Source: USDA Branded Food Products Database Release December 2017 Software v.3.8.6.4 2017-10-02
Report Run at: December 17, 2017 04:40 EST
"Nutrient data for: 45098709, KETTLE BRAND, POTATO CHIPS, PEPPERONCINI, UPC: 084114221971"
Food Group:  Branded Food Products Database
Common Name:

Nutrient,Unit,Data points,Std. Error,"13.0 CHIPS | ABOUT = 28.0g",1Value per 100 g,
Proximates
"Energy",kcal,--,--,150,536
"Protein",g,--,--,2.00,7.14
"Total lipid (fat)",g,--,--,9.00,32.14
"Carbohydrate, by difference",g,--,--,15.00,53.57
"Fiber, total dietary",g,--,--,1.0,3.6
"Sugars, total",g,--,--,0.00,0.00
Minerals
"Calcium, Ca",mg,--,--,0,0
"Iron, Fe",mg,--,--,1.29,4.59
"Potassium, K",mg,--,--,400,1429
"Sodium, Na",mg,--,--,170,607
Vitamins
"Vitamin C, total ascorbic acid",mg,--,--,10.7,38.3
"Vitamin A, IU",IU,--,--,0,0
Lipids
"Fatty acids, total saturated",g,--,--,1.000,3.570
"Fatty acids, total monounsaturated",g,--,--,7.000,25.000
"Fatty acids, total polyunsaturated",g,--,--,1.000,3.570
"Fatty acids, total trans",g,--,--,0.000,0.000
"Cholesterol",mg,--,--,0,0
Amino Acids
Other
Ingredients
"POTATOES, SAFFLOWER AND/OR SUNFLOWER AND/OR CANOLA OIL, MALTODEXTRIN, SEA SALT, SALT, GREEN BELL PEPPER POWDER, GARLIC POWDER, SUGAR, YEAST EXTRACT, SPICES, VINEGAR, JALAPENO POWDER, ONION POWDER, PARSLEY POWDER, CITRIC ACID, NATURAL FLAVORS, PARSLEY FLAKES." Date available: 07/14/2017 Date last updated by company: 07/14/2017
