Source: USDA Branded Food Products Database Release December 2017 Software v.3.8.6.4 2017-10-02
Report Run at: December 17, 2017 04:48 EST
"Nutrient data for: 45285792, KETTLE COOKED POTATO CHIPS, UPC: 708163122293"
Food Group:  Branded Food Products Database
Common Name:

Nutrient,Unit,Data points,Std. Error,"21.0 CHIPS | ABOUT = 42.0g",1Value per 100 g,
Proximates
"Energy",kcal,--,--,215,512
"Protein",g,--,--,3.00,7.14
"Total lipid (fat)",g,--,--,11.00,26.19
"Carbohydrate, by difference",g,--,--,26.00,61.90
"Fiber, total dietary",g,--,--,2.0,4.8
"Sugars, total",g,--,--,2.00,4.76
Minerals
"Calcium, Ca",mg,--,--,0,0
"Iron, Fe",mg,--,--,0.64,1.53
"Sodium, Na",mg,--,--,170,405
Vitamins
"Vitamin C, total ascorbic acid",mg,--,--,10.7,25.5
"Vitamin A, IU",IU,--,--,0,0
Lipids
"Fatty acids, total saturated",g,--,--,1.000,2.380
"Fatty acids, total monounsaturated",g,--,--,8.001,19.050
"Fatty acids, total polyunsaturated",g,--,--,1.999,4.760
"Fatty acids, total trans",g,--,--,0.000,0.000
"Cholesterol",mg,--,--,0,0
Amino Acids
Other
Ingredients
"POTATOES, SUNFLOWER OIL AND/OR SAFFLOWER OIL, ONION POWDER (INC VIDALIA SWEET ONION POWDER), CANE SUGAR, MALTODEXTRIN, DEXTROSE, SEA SALT, RICE FLOUR, SPICES, YEAST EXTRACT, TORULA YEAST, CITRIC ACID." Date available: 07/14/2017 Date last updated by company: 07/14/2017
