Source: USDA Branded Food Products Database Release December 2017 Software v.3.8.6.4 2017-10-02
Report Run at: December 17, 2017 04:57 EST
"Nutrient data for: 45032813, KEY FOOD, BLENDED LOWFAT YOGURT, BANANA, UPC: 073296117639"
Food Group:  Branded Food Products Database
Common Name:

Nutrient,Unit,Data points,Std. Error,"1 CONTAINER = 170.0g",1Value per 100 g,
Proximates
"Energy",kcal,--,--,160,94
"Protein",g,--,--,6.00,3.53
"Total lipid (fat)",g,--,--,1.50,0.88
"Carbohydrate, by difference",g,--,--,30.00,17.65
"Fiber, total dietary",g,--,--,0.0,0.0
"Sugars, total",g,--,--,25.01,14.71
Minerals
"Calcium, Ca",mg,--,--,150,88
"Iron, Fe",mg,--,--,0.00,0.00
"Potassium, K",mg,--,--,219,129
"Sodium, Na",mg,--,--,80,47
Vitamins
"Vitamin C, total ascorbic acid",mg,--,--,1.2,0.7
"Vitamin A, IU",IU,--,--,100,59
Lipids
"Fatty acids, total saturated",g,--,--,1.003,0.590
"Fatty acids, total trans",g,--,--,0.000,0.000
"Cholesterol",mg,--,--,10,6
Amino Acids
Other
Ingredients
"CULTURED PASTEURIZED GRADE A LOWFAT MILK, SUGAR, MODIFIED CORNSTARCH, BANANA PUREE CONCENTRATE, CORN SYRUP, KOSHER GELATIN, NATURAL FLAVORS, CITRIC ACID, POTASSIUM SORBATE (TO MAINTAIN FRESHNESS), ANNATTO (COLOR), AND TURMERIC (COLOR). CONTAINS ACTIVE YOGURT CULTURES WITH L. BULGARICUS, S. THERMOPHILUS, BIFIDUS, L. ACIDOPHILUS, AND L. CASEI CULTURES." Date available: 07/14/2017 Date last updated by company: 07/14/2017
