Source: USDA Branded Food Products Database Release December 2017 Software v.3.8.6.4 2017-10-02
Report Run at: December 17, 2017 05:10 EST
"Nutrient data for: 45034274, KEY FOOD, STEAK SAUCE, ORIGINAL, UPC: 073296181074"
Food Group:  Branded Food Products Database
Common Name:

Nutrient,Unit,Data points,Std. Error,"1 Tbsp = 17.0g",1Value per 100 g,
Proximates
"Energy",kcal,--,--,15,88
"Protein",g,--,--,0.00,0.00
"Total lipid (fat)",g,--,--,0.00,0.00
"Carbohydrate, by difference",g,--,--,4.00,23.53
"Sugars, total",g,--,--,2.00,11.76
Minerals
"Sodium, Na",mg,--,--,280,1647
Vitamins
Lipids
Amino Acids
Other
Ingredients
"TOMATO PUREE (WATER, TOMATO PASTE), DISTILLED VINEGAR, RAISINS, CORN SYRUP, ORANGE PEEL, SALT, ORANGE BASE (ORANGE AND LEMON JUICES), SPICES, CARAMEL COLOR, DEHYDRATED GARLIC AND ONION, NATURAL FLAVORINGS" Date available: 06/24/2017 Date last updated by company: 06/24/2017
