Source: USDA Branded Food Products Database Release December 2017 Software v.3.8.6.4 2017-10-02
Report Run at: December 17, 2017 05:01 EST
"Nutrient data for: 45030125, KEY FOOD, ICE CREAM, NEAPOLITAN, VANILLA STRAWBERRY CHOCOLATE, UPC: 073296000443"
Food Group:  Branded Food Products Database
Common Name:

Nutrient,Unit,Data points,Std. Error,"0.5 cup = 68.0g",1Value per 100 g,
Proximates
"Energy",kcal,--,--,140,206
"Protein",g,--,--,2.00,2.94
"Total lipid (fat)",g,--,--,7.00,10.29
"Carbohydrate, by difference",g,--,--,16.00,23.53
"Fiber, total dietary",g,--,--,0.0,0.0
"Sugars, total",g,--,--,13.00,19.12
Minerals
"Calcium, Ca",mg,--,--,60,88
"Iron, Fe",mg,--,--,0.41,0.60
"Sodium, Na",mg,--,--,30,44
Vitamins
"Vitamin C, total ascorbic acid",mg,--,--,4.1,6.0
"Vitamin A, IU",IU,--,--,337,496
Lipids
"Fatty acids, total saturated",g,--,--,4.502,6.620
"Fatty acids, total trans",g,--,--,0.000,0.000
"Cholesterol",mg,--,--,30,44
Amino Acids
Other
Ingredients
"SKIM MILK, CREAM, SUGAR, STRAWBERRIES (SUGAR, WATER, CITRIC ACID, LOCUST BEAN GUM, XANTHAN GUM AND NATURAL FLAVORS), CORN SYRUP, WHEY, NATURAL COCOA, COCOA (PROCESSED WITH ALKALI), CONTAINS 2% OR LESS OF NATURAL FLAVOR, LOCUST BEAN GUM, GUAR GUM, CARRAGEENAN, VANILLA EXTRACT, BEET JUICE (COLOR)." Date available: 07/14/2017 Date last updated by company: 07/14/2017
