Source: USDA Branded Food Products Database Release December 2017 Software v.3.8.6.4 2017-10-02
Report Run at: December 17, 2017 05:12 EST
"Nutrient data for: 45233824, KEY FOOD, WORCESTERSHIRE SAUCE, ORIGINAL, UPC: 073296181005"
Food Group:  Branded Food Products Database
Common Name:

Nutrient,Unit,Data points,Std. Error,"1 tsp = 5.0g",1Value per 100 g,
Proximates
"Energy",kcal,--,--,5,100
"Protein",g,--,--,0.00,0.00
"Total lipid (fat)",g,--,--,0.00,0.00
"Carbohydrate, by difference",g,--,--,1.00,20.00
"Sugars, total",g,--,--,1.00,20.00
Minerals
"Iron, Fe",mg,--,--,3.60,72.00
"Sodium, Na",mg,--,--,70,1400
Vitamins
Lipids
Amino Acids
Other
Ingredients
"VINEGAR, WATER, MOLASSES, CORN SYRUP, RED PEPPERS, HYDROLYZED SOYBEAN AND CORN PROTEIN, SLAT, TAMARINDS, ANCHOVIES, CARAMEL COLOR, DEHYDRATED GARLIC AND ONIONS, POLYSORBATE 80, CLOVES, NATURAL FLAVORING, LEMON OIL" Date available: 06/24/2017 Date last updated by company: 06/24/2017
