Source: USDA Branded Food Products Database Release December 2017 Software v.3.8.6.4 2017-10-02
Report Run at: December 17, 2017 05:14 EST
"Nutrient data for: 45260462, KEY LIMES, UPC: 095829110085"
Food Group:  Branded Food Products Database
Common Name:

Nutrient,Unit,Data points,Std. Error,"1 MEDIUM LIME = 67.0g",1Value per 100 g,
Proximates
"Energy",kcal,--,--,20,30
"Protein",g,--,--,0.00,0.00
"Total lipid (fat)",g,--,--,0.00,0.00
"Carbohydrate, by difference",g,--,--,7.00,10.45
"Fiber, total dietary",g,--,--,2.0,3.0
"Sugars, total",g,--,--,0.00,0.00
Minerals
"Calcium, Ca",mg,--,--,0,0
"Iron, Fe",mg,--,--,0.00,0.00
"Sodium, Na",mg,--,--,0,0
Vitamins
"Vitamin C, total ascorbic acid",mg,--,--,15.7,23.4
"Vitamin A, IU",IU,--,--,0,0
Lipids
"Fatty acids, total saturated",g,--,--,0.000,0.000
"Fatty acids, total trans",g,--,--,0.000,0.000
"Cholesterol",mg,--,--,0,0
Amino Acids
Other
Ingredients
"KEY LIMES/KEY LIMES. COATED WITH FOOD GRADE VEGETABLE, BEES WAX, CARRUBA AND/OR COATED WITH RESIN/WAX TO MAINTAIN FRESHNESS." Date available: 10/12/2017 Date last updated by company: 10/12/2017
