Source: USDA Branded Food Products Database Release December 2017 Software v.3.8.6.4 2017-10-02
Report Run at: December 17, 2017 05:02 EST
"Nutrient data for: 45028356, KEY FOOD, KOSHER DILL SPEARS, UPC: 073296109474"
Food Group:  Branded Food Products Database
Common Name:

Nutrient,Unit,Data points,Std. Error,"0.5 SPEAR = 28.0g",1Value per 100 g,
Proximates
"Energy",kcal,--,--,0,0
"Protein",g,--,--,0.00,0.00
"Total lipid (fat)",g,--,--,0.00,0.00
"Carbohydrate, by difference",g,--,--,0.00,0.00
"Sugars, total",g,--,--,0.00,0.00
Minerals
"Sodium, Na",mg,--,--,200,714
Vitamins
Lipids
"Fatty acids, total trans",g,--,--,0.000,0.000
Amino Acids
Other
Ingredients
"CUCUMBERS, WATER, DISTILLED VINEGAR, SALT, GARLIC, SPICES, CALCIUM CHLORIDE, NATURAL FLAVORS, YELLOW 5 AND POLYSORBATE 80." Date available: 10/10/2017 Date last updated by company: 10/10/2017
