Source: USDA Branded Food Products Database Release December 2017 Software v.3.8.6.4 2017-10-02
Report Run at: December 17, 2017 05:09 EST
"Nutrient data for: 45028353, KEY FOOD, SLICED OLIVES WITH PIMIENTO, UPC: 073296267051"
Food Group:  Branded Food Products Database
Common Name:

Nutrient,Unit,Data points,Std. Error,"2.0 Tbsp = 15.0g",1Value per 100 g,
Proximates
"Energy",kcal,--,--,20,133
"Protein",g,--,--,0.00,0.00
"Total lipid (fat)",g,--,--,2.00,13.33
"Carbohydrate, by difference",g,--,--,1.00,6.67
Minerals
"Sodium, Na",mg,--,--,170,1133
Vitamins
Lipids
"Fatty acids, total saturated",g,--,--,0.000,0.000
"Fatty acids, total trans",g,--,--,0.000,0.000
"Cholesterol",mg,--,--,0,0
Amino Acids
Other
Ingredients
"OLIVES, WATER, MINCED PIMIENTO, SALT, LACTIC ACID, CITRIC ACID, SODIUM ALGINATE, GUAR GUM, CALCIUM CHLORIDE." Date available: 06/24/2017 Date last updated by company: 06/24/2017
