Source: USDA Branded Food Products Database Release December 2017 Software v.3.8.6.4 2017-10-02
Report Run at: December 17, 2017 05:14 EST
"Nutrient data for: 45192607, KEY LIME PIE, UPC: 811257020969"
Food Group:  Branded Food Products Database
Common Name:

Nutrient,Unit,Data points,Std. Error,"1 SLICE = 84.0g",1Value per 100 g,
Proximates
"Energy",kcal,--,--,260,310
"Protein",g,--,--,4.00,4.76
"Total lipid (fat)",g,--,--,10.00,11.90
"Carbohydrate, by difference",g,--,--,37.00,44.05
"Fiber, total dietary",g,--,--,1.0,1.2
"Sugars, total",g,--,--,27.00,32.14
Minerals
"Calcium, Ca",mg,--,--,100,119
"Iron, Fe",mg,--,--,0.54,0.64
"Sodium, Na",mg,--,--,150,179
Vitamins
"Vitamin C, total ascorbic acid",mg,--,--,5.4,6.4
"Vitamin A, IU",IU,--,--,149,177
Lipids
"Fatty acids, total saturated",g,--,--,5.998,7.140
"Fatty acids, total monounsaturated",g,--,--,2.503,2.980
"Fatty acids, total polyunsaturated",g,--,--,0.504,0.600
"Fatty acids, total trans",g,--,--,0.000,0.000
"Cholesterol",mg,--,--,30,36
Amino Acids
Other
Ingredients
"SWEETENED CONDENSED MILK (MILK, CANE SUGAR), LIME JUICE (PERSIAN AND KEY LIME), BROWN RICE FLOUR, SOUR CREAM, PALM OIL, EGGS, CANE SUGAR, POTATO STARCH, TAPIOCA STARCH, LEMON JUICE, WATER, CINNAMON, SALT, APPLE CIDER VINEGAR, XANTHAN GUM, GUAR GUM." Date available: 07/14/2017 Date last updated by company: 07/14/2017
