Source: USDA Branded Food Products Database Release December 2017 Software v.3.8.6.4 2017-10-02
Report Run at: December 17, 2017 05:11 EST
"Nutrient data for: 45033911, KEY FOOD, THICK SLICED BACON, UPC: 073296841336"
Food Group:  Branded Food Products Database
Common Name:

Nutrient,Unit,Data points,Std. Error,"2.0 PAN FRIED SLICES = 20.0g",1Value per 100 g,
Proximates
"Energy",kcal,--,--,110,550
"Protein",g,--,--,7.00,35.00
"Total lipid (fat)",g,--,--,9.00,45.00
"Carbohydrate, by difference",g,--,--,0.00,0.00
Minerals
"Sodium, Na",mg,--,--,410,2050
Vitamins
Lipids
"Fatty acids, total saturated",g,--,--,3.500,17.500
"Fatty acids, total trans",g,--,--,0.000,0.000
"Cholesterol",mg,--,--,20,100
Amino Acids
Other
Ingredients
"CURED WITH: WATER, SALT, SODIUM PHOSPHATES, BROWN SUGAR, SODIUM ERYTHORBATE, SODIUM NITRITE." Date available: 06/24/2017 Date last updated by company: 06/24/2017
