Source: USDA Branded Food Products Database Release December 2017 Software v.3.8.6.4 2017-10-02
Report Run at: December 17, 2017 05:05 EST
"Nutrient data for: 45233268, KEY FOOD, ORIGINAL SYRUP, UPC: 073296203516"
Food Group:  Branded Food Products Database
Common Name:

Nutrient,Unit,Data points,Std. Error,"0.25 cup = 60.0g",1Value per 100 g,
Proximates
"Energy",kcal,--,--,210,350
"Protein",g,--,--,0.00,0.00
"Total lipid (fat)",g,--,--,0.00,0.00
"Carbohydrate, by difference",g,--,--,53.00,88.33
"Sugars, total",g,--,--,18.00,30.00
Minerals
"Sodium, Na",mg,--,--,90,150
Vitamins
Lipids
Amino Acids
Other
Ingredients
"CORN SYRUP, WATER, CONTAINS LESS THAN 2% OF SALT, ARTIFICIAL & NATURAL FLAVORS, CELLULOSE GUM, CARAMEL COLOR, SODIUM BENZOATE, SORBIC ACID AND POTASSIUM SORBATE AS PRESERVATIVES, CITRIC ACID." Date available: 06/24/2017 Date last updated by company: 06/24/2017
