Source: USDA Branded Food Products Database Release December 2017 Software v.3.8.6.4 2017-10-02
Report Run at: December 17, 2017 05:00 EST
"Nutrient data for: 45232905, KEY FOOD, FLAVORED JUICE COCKTAIL, RASPBERRY CRANBERRY, UPC: 073296148404"
Food Group:  Branded Food Products Database
Common Name:

Nutrient,Unit,Data points,Std. Error,"8.0 OZA = 240.0g",1Value per 100 g,
Proximates
"Energy",kcal,--,--,139,58
"Protein",g,--,--,0.00,0.00
"Total lipid (fat)",g,--,--,0.00,0.00
"Carbohydrate, by difference",g,--,--,36.00,15.00
"Sugars, total",g,--,--,36.00,15.00
Minerals
"Sodium, Na",mg,--,--,36,15
Vitamins
"Vitamin C, total ascorbic acid",mg,--,--,78.0,32.5
Lipids
Amino Acids
Other
Ingredients
"WATER, HIGH FRUCTOSE CORN SYRUP, GRAPE JUICE CONCENTRATE, APPLE JUICE CONCENTRATE, CRANBERRY JUICE (CRANBERRY JUICE, CRANBERRY JUICE FROM CONCENTRATE), RASPBERRY JUICE CONCENTRATE, NATURAL FLAVORS, FUMARIC ACID, ASCORBIC ACID (VITAMIN C)." Date available: 07/14/2017 Date last updated by company: 07/14/2017
