Source: USDA Branded Food Products Database Release December 2017 Software v.3.8.6.4 2017-10-02
Report Run at: December 17, 2017 05:19 EST
"Nutrient data for: 45168942, KICKIN' MULE, CAROLINA'S CHOICE BBQ SAUCE, UPC: 728028037456"
Food Group:  Branded Food Products Database
Common Name:

Nutrient,Unit,Data points,Std. Error,"2.0 Tbsp = 30.0g",1Value per 100 g,
Proximates
"Energy",kcal,--,--,30,100
"Protein",g,--,--,0.00,0.00
"Total lipid (fat)",g,--,--,0.00,0.00
"Carbohydrate, by difference",g,--,--,8.00,26.67
"Fiber, total dietary",g,--,--,1.0,3.3
"Sugars, total",g,--,--,6.00,20.00
Minerals
"Calcium, Ca",mg,--,--,0,0
"Iron, Fe",mg,--,--,0.61,2.03
"Sodium, Na",mg,--,--,200,667
Vitamins
"Vitamin C, total ascorbic acid",mg,--,--,4.0,13.5
"Vitamin A, IU",IU,--,--,169,563
Lipids
"Fatty acids, total saturated",g,--,--,0.000,0.000
"Fatty acids, total trans",g,--,--,0.000,0.000
"Cholesterol",mg,--,--,0,0
Amino Acids
Other
Ingredients
"TOMATO PASTE, SUGAR, WATER, VINEGAR, CIDER VINEGAR, BROWN SUGAR (SUGAR, MOLASSES), LEMON JUICE, KOSHER SALT, PREPARED MUSTARD (VINEGAR, WATER, MUSTARD SEED, KOSHER SALT, TURMERIC, SPICES), CHIPOTLE, BLACK PEPPER, SPICES." Date available: 07/14/2017 Date last updated by company: 07/14/2017
