Source: USDA Branded Food Products Database Release December 2017 Software v.3.8.6.4 2017-10-02
Report Run at: December 17, 2017 05:19 EST
"Nutrient data for: 45137709, KID CONNECTION, GRAPE SODA, GARPE, UPC: 061500010142"
Food Group:  Branded Food Products Database
Common Name:

Nutrient,Unit,Data points,Std. Error,"1 BOTTLE = 250.0g",1Value per 100 g,
Proximates
"Energy",kcal,--,--,120,48
"Protein",g,--,--,0.00,0.00
"Total lipid (fat)",g,--,--,0.00,0.00
"Carbohydrate, by difference",g,--,--,32.00,12.80
"Sugars, total",g,--,--,32.00,12.80
Minerals
"Sodium, Na",mg,--,--,25,10
Vitamins
Lipids
Amino Acids
Other
Ingredients
"CARBONATED WATER, HIGH FRUCTOSE CORN SYRUP AND/OR SUGAR, CITRIC ACID, NATURAL AND ARTIFICIAL FLAVOR, POTASSIUM BENZOATE (A PRESERVATIVE), MODIFIED FOOD STARCH, RED 40, BLUE 1." Date available: 07/14/2017 Date last updated by company: 07/14/2017
