Source: USDA Branded Food Products Database Release December 2017 Software v.3.8.6.4 2017-10-02
Report Run at: December 17, 2017 05:22 EST
"Nutrient data for: 45316467, KIDS ORGANIC JUICE DRINK, UPC: 819416010622"
Food Group:  Branded Food Products Database
Common Name:

Nutrient,Unit,Data points,Std. Error,"1 POUCH = 177.0g",1Value per 100 g,
Proximates
"Energy",kcal,--,--,30,17
"Protein",g,--,--,0.00,0.00
"Total lipid (fat)",g,--,--,0.00,0.00
"Carbohydrate, by difference",g,--,--,8.00,4.52
"Sugars, total",g,--,--,6.99,3.95
Minerals
"Potassium, K",mg,--,--,60,34
"Sodium, Na",mg,--,--,0,0
Vitamins
"Vitamin C, total ascorbic acid",mg,--,--,81.4,46.0
Lipids
Amino Acids
Other
Ingredients
"FILTERED WATER, ORGANIC APPLE JUICE FROM CONCENTRATE, ORGANIC CONCORD GRAPE JUICE FROM CONCENTRATE, CITRIC ACID, NATURAL FLAVORS, ASCORBIC ACID (VITAMIN C)." Date available: 07/14/2017 Date last updated by company: 07/14/2017
