Source: USDA Branded Food Products Database Release December 2017 Software v.3.8.6.4 2017-10-02
Report Run at: December 17, 2017 05:27 EST
"Nutrient data for: 45046037, KIKKOMAN, THAI STYLE PEANUT SAUCE, UPC: 041390015564"
Food Group:  Branded Food Products Database
Common Name:

Nutrient,Unit,Data points,Std. Error,"2.0 Tbsp = 35.0g",1Value per 100 g,
Proximates
"Energy",kcal,--,--,80,229
"Protein",g,--,--,2.00,5.71
"Total lipid (fat)",g,--,--,3.50,10.00
"Carbohydrate, by difference",g,--,--,10.00,28.57
"Fiber, total dietary",g,--,--,1.0,2.9
"Sugars, total",g,--,--,8.00,22.86
Minerals
"Calcium, Ca",mg,--,--,0,0
"Iron, Fe",mg,--,--,0.00,0.00
"Sodium, Na",mg,--,--,650,1857
Vitamins
"Vitamin C, total ascorbic acid",mg,--,--,0.0,0.0
"Vitamin A, IU",IU,--,--,0,0
Lipids
"Fatty acids, total saturated",g,--,--,0.500,1.430
"Fatty acids, total trans",g,--,--,0.000,0.000
"Cholesterol",mg,--,--,0,0
Amino Acids
Other
Ingredients
"WATER, SOY SAUCE (WATER, WHEAT, SOYBEANS, SLAT), SUGAR, PEANUT BUTTER, BROWN SUGAR, WINE, HONEY, SALT, SESAME OIL, GARLIC POWDER, MODIFIED CORN STARCH, SPICES, VINEGAR, VEGETABLE EXTRACT (POTATO), ONION POWDER, MISO (WATER, SOYBEANS, RICE, SALT), CULTURED DEXTROSE, MALTODEXTRIN, NATURAL FLAVORS, PLUM PUREE, GARLIC, XANTHAN GUM, CARAMEL COLOR, INULIN, CITRIC ACID." Date available: 07/14/2017 Date last updated by company: 07/14/2017
