Source: USDA Branded Food Products Database Release December 2017 Software v.3.8.6.4 2017-10-02
Report Run at: December 17, 2017 05:24 EST
"Nutrient data for: 45168463, KIKKA, JACKFRUIT SNACK, UPC: 604215889476"
Food Group:  Branded Food Products Database
Common Name:

Nutrient,Unit,Data points,Std. Error,"1 ONZ = 28.35g",1Value per 100 g,
Proximates
"Energy",kcal,--,--,120,423
"Protein",g,--,--,1.00,3.53
"Total lipid (fat)",g,--,--,3.00,10.58
"Carbohydrate, by difference",g,--,--,22.00,77.60
"Fiber, total dietary",g,--,--,2.0,7.1
"Sugars, total",g,--,--,7.00,24.69
Minerals
"Calcium, Ca",mg,--,--,0,0
"Iron, Fe",mg,--,--,0.00,0.00
"Sodium, Na",mg,--,--,5,18
Vitamins
"Vitamin C, total ascorbic acid",mg,--,--,0.0,0.0
"Vitamin A, IU",IU,--,--,0,0
Lipids
"Fatty acids, total saturated",g,--,--,1.500,5.290
"Fatty acids, total trans",g,--,--,0.000,0.000
"Cholesterol",mg,--,--,0,0
Amino Acids
Other
Ingredients
"JACKFRUIT, PALM OIL." Date available: 07/14/2017 Date last updated by company: 07/14/2017
