Source: USDA Branded Food Products Database Release December 2017 Software v.3.8.6.4 2017-10-02
Report Run at: December 17, 2017 05:26 EST
"Nutrient data for: 45240429, KIKKOMAN, SWEET COOKING RICE SEASONING, UPC: 011152263373"
Food Group:  Branded Food Products Database
Common Name:

Nutrient,Unit,Data points,Std. Error,"2.0 Tbsp = 30.0g",1Value per 100 g,
Proximates
"Energy",kcal,--,--,70,233
"Protein",g,--,--,0.00,0.00
"Total lipid (fat)",g,--,--,0.00,0.00
"Carbohydrate, by difference",g,--,--,14.00,46.67
"Sugars, total",g,--,--,13.00,43.33
Minerals
"Sodium, Na",mg,--,--,180,600
Vitamins
Lipids
Amino Acids
Other
Ingredients
"GLUCOSE SYRUP, WATER, ALCOHOL, RICE, CORN SYRUP, SALT" Date available: 06/25/2017 Date last updated by company: 06/25/2017
