Source: USDA Branded Food Products Database Release December 2017 Software v.3.8.6.4 2017-10-02
Report Run at: December 17, 2017 05:29 EST
"Nutrient data for: 45147328, KIM & JAKE'S, GLUTEN FREE COOKIES, UPC: 850775005010"
Food Group:  Branded Food Products Database
Common Name:

Nutrient,Unit,Data points,Std. Error,"1 COOKIE = 35.0g",1Value per 100 g,
Proximates
"Energy",kcal,--,--,180,514
"Protein",g,--,--,2.00,5.71
"Total lipid (fat)",g,--,--,12.00,34.29
"Carbohydrate, by difference",g,--,--,16.00,45.71
"Fiber, total dietary",g,--,--,1.0,2.9
"Sugars, total",g,--,--,9.00,25.71
Minerals
"Calcium, Ca",mg,--,--,20,57
"Iron, Fe",mg,--,--,1.03,2.94
"Sodium, Na",mg,--,--,210,600
Vitamins
"Vitamin C, total ascorbic acid",mg,--,--,0.0,0.0
"Vitamin A, IU",IU,--,--,286,816
Lipids
"Fatty acids, total saturated",g,--,--,5.999,17.140
"Fatty acids, total trans",g,--,--,0.000,0.000
"Cholesterol",mg,--,--,25,71
Amino Acids
Other
Ingredients
"GLUTEN-FREE OAT FLOUR, GLUTEN-FREE BROWN RICE FLOWER, GLUTEN-FREE TAPIOCA STARCH, HORMONE & CAGE-FREE EGGS, BUTTER, BROWN SUGAR, WHITE SUGAR, CHOCOLATE (COCOA BUTTER, CHOCOLATE LIQUOR, SUGAR, SOY LECITHIN), PECANS, CHERRIES, VANILLA EXTRACT, SALT, BAKING SODA (SODIUM BICARBONATE), BAKING POWDER (SODIUM BICARBONATE, SODIUM ACID PYROPHOSPHATE, MONOCALCIUM PHOSPHATE), POTATO STARCH, XANTHAN GUM" Date available: 07/14/2017 Date last updated by company: 07/14/2017
