Source: USDA Branded Food Products Database Release December 2017 Software v.3.8.6.4 2017-10-02
Report Run at: December 17, 2017 05:42 EST
"Nutrient data for: 45204890, KING'S HAWAIIAN, SAVORY BUTTER ROLLS, UPC: 073435070191"
Food Group:  Branded Food Products Database
Common Name:

Nutrient,Unit,Data points,Std. Error,"1 ROLL = 28.0g",1Value per 100 g,
Proximates
"Energy",kcal,--,--,100,357
"Protein",g,--,--,3.00,10.71
"Total lipid (fat)",g,--,--,2.50,8.93
"Carbohydrate, by difference",g,--,--,16.00,57.14
"Fiber, total dietary",g,--,--,1.0,3.6
"Sugars, total",g,--,--,4.00,14.29
Minerals
"Calcium, Ca",mg,--,--,20,71
"Iron, Fe",mg,--,--,1.29,4.59
"Sodium, Na",mg,--,--,125,446
Vitamins
"Vitamin C, total ascorbic acid",mg,--,--,0.0,0.0
"Vitamin A, IU",IU,--,--,0,0
Lipids
"Fatty acids, total saturated",g,--,--,1.501,5.360
"Fatty acids, total trans",g,--,--,0.000,0.000
"Cholesterol",mg,--,--,15,54
Amino Acids
Other
Ingredients
"ENRICHED FLOUR (WHEAT FLOUR, MALTED BARLEY FLOUR, NIACIN, REDUCED IRON, THIAMINE MONONITRATE, RIBOFLAVIN, FOLIC ACID), WATER, SUGAR, BUTTER (PASTEURIZED CREAM, SALT), NONFAT MILK, CONTAINS LESS THAN 2% OF EACH OF THE FOLLOWING: POTATO FLOUR, EGGS, YEAST, DATEM, SALT, WHEY, WHEAT GLUTEN, DEGERMINATED YELLOW CORN FLOUR, SODIUM STEAROYL LACTYLATE, SORBIC ACID PRESERVATIVE, MONOCALCIUM PHOSPHATE, WHEAT FLOUR, CALCIUM SULFATE, ASCORBIC ACID ADDED AS A DOUGH CONDITIONER, WHEAT STARCH, SODIUM SILICOALUMINATE, AMMONIUM SULFATE, ENZYMES, SORBITAN MONOSTEARATE, MONO & DIGLYCERIDES, CALCIUM SILICATE, MICROCRYSTALLINE CELLULOSE." Date available: 08/29/2017 Date last updated by company: 08/29/2017
