Source: USDA Branded Food Products Database Release December 2017 Software v.3.8.6.4 2017-10-02
Report Run at: December 17, 2017 05:33 EST
"Nutrient data for: 45181915, KING COTTON, RIGHTLY SEASONED!, SPICE HAM, UPC: 029800410536"
Food Group:  Branded Food Products Database
Common Name:

Nutrient,Unit,Data points,Std. Error,"2.0 ONZ = 58.0g",1Value per 100 g,
Proximates
"Energy",kcal,--,--,60,103
"Protein",g,--,--,6.00,10.34
"Total lipid (fat)",g,--,--,2.50,4.31
"Carbohydrate, by difference",g,--,--,2.00,3.45
"Sugars, total",g,--,--,7.00,12.07
Minerals
"Sodium, Na",mg,--,--,880,1517
Vitamins
Lipids
"Fatty acids, total saturated",g,--,--,0.998,1.720
"Fatty acids, total trans",g,--,--,0.000,0.000
"Cholesterol",mg,--,--,20,34
Amino Acids
Other
Ingredients
"CURED HAM TRIMMINGS, DEXTROSE, WATER, SALT, SUGAR, SODIUM PHOSPHATE, SPICES, SODIUM ERYTHORBATE AND SODIUM NITRITE." Date available: 10/12/2016 Date last updated by company: 10/12/2016
