Source: USDA Branded Food Products Database Release December 2017 Software v.3.8.6.4 2017-10-02
Report Run at: December 17, 2017 05:40 EST
"Nutrient data for: 45244208, KINGS COMMAND FOODS RAW MEATLOAF, 10-22 OUNCE MEATLOAVES WITH 10-4 OUNCE SAUCE PACKETS, 10 SLEEVES, 10 TRAYS/LIDS, 10 UPC STICKERS IN A 16.25 POUND NET WEIGHT MASTER CASE, UNPREPARED, GTIN: 10088374420393"
Food Group:  Branded Food Products Database
Common Name:

Nutrient,Unit,Data points,Std. Error,"85.0 g = 85.0g",1Value per 100 g,
Proximates
"Energy",kcal,--,--,200,235
"Protein",g,--,--,17.00,20.00
"Total lipid (fat)",g,--,--,11.00,12.94
"Carbohydrate, by difference",g,--,--,7.00,8.24
"Fiber, total dietary",g,--,--,1.0,1.2
"Sugars, total",g,--,--,2.00,2.35
Minerals
"Calcium, Ca",mg,--,--,40,47
"Iron, Fe",mg,--,--,1.80,2.12
"Sodium, Na",mg,--,--,410,482
Vitamins
"Vitamin C, total ascorbic acid",mg,--,--,2.4,2.8
"Vitamin A, IU",IU,--,--,100,118
Lipids
"Fatty acids, total saturated",g,--,--,4.003,4.710
"Fatty acids, total trans",g,--,--,0.000,0.000
"Cholesterol",mg,--,--,45,53
Amino Acids
Other
Ingredients
"BEEF, WATER, ONIONS, TEXTURED SOY FLOUR, KETCHUP (TOMATO CONCENTRATE, DISTILLED VINEGAR, HIGH FRUCTOSE CORN SYRUP, CORN SYRUP, SALT, SPICE, ONION POWDER, NATURAL FLAVORING), EGG WHITES, BREADCRUMBS (BLEACHED WHEAT FLOUR, SUGAR, SALT, YEAST, CANOLA OIL), GREEN PEPPERS, POTATO EXTRACT, NATURAL FLAVORING, HYDROLYZED SOY PROTEIN, NONFAT DRY MILK, SALT, PARSLEY. GLAZE POUCH INGREDIENTS: TOMATO PASTE, WATER, BROWN SUGAR, HIGH FRUCTOSE CORN SYRUP, WHITE VINEGAR, CORN SYRUP, SALT, NATURAL FLAVORS (CONTAINS MALTODEXTRIN), POTASSIUM SORBATE AND SODIUM BENZOATE." Date last updated by company: 12/30/2016
