Source: USDA Branded Food Products Database Release December 2017 Software v.3.8.6.4 2017-10-02
Report Run at: December 17, 2017 05:36 EST
"Nutrient data for: 45034256, KING OSCAR, SKINLESS & BONELESS SARDINES, UPC: 034800001080"
Food Group:  Branded Food Products Database
Common Name:

Nutrient,Unit,Data points,Std. Error,"3.0 ONZ = 84.0g",1Value per 100 g,
Proximates
"Energy",kcal,--,--,180,214
"Protein",g,--,--,20.00,23.81
"Total lipid (fat)",g,--,--,11.00,13.10
"Carbohydrate, by difference",g,--,--,0.00,0.00
"Fiber, total dietary",g,--,--,0.0,0.0
"Sugars, total",g,--,--,0.00,0.00
Minerals
"Calcium, Ca",mg,--,--,60,71
"Iron, Fe",mg,--,--,1.46,1.74
"Sodium, Na",mg,--,--,290,345
Vitamins
"Vitamin C, total ascorbic acid",mg,--,--,0.0,0.0
"Vitamin A, IU",IU,--,--,0,0
Lipids
"Fatty acids, total saturated",g,--,--,2.503,2.980
"Fatty acids, total monounsaturated",g,--,--,5.998,7.140
"Fatty acids, total polyunsaturated",g,--,--,2.503,2.980
"Fatty acids, total trans",g,--,--,0.000,0.000
"Cholesterol",mg,--,--,20,24
Amino Acids
Other
Ingredients
"SARDINES, OLIVE OIL, RED CHILI PEPPER, CARROT, PICKLED CUCUMBER, SALT, CHILI FLAVORING" Date available: 06/24/2017 Date last updated by company: 06/24/2017
