Source: USDA Branded Food Products Database Release December 2017 Software v.3.8.6.4 2017-10-02
Report Run at: December 17, 2017 05:39 EST
"Nutrient data for: 45244239, KINGS COMMAND FOODS FULLY COOKED 0.5 OUNCE MEATBALLS 2-5 POUND BAGS PER 10 POUND NET WEIGHT MASTER CASE., UNPREPARED, GTIN: 10088374001356"
Food Group:  Branded Food Products Database
Common Name:

Nutrient,Unit,Data points,Std. Error,"85.0 g = 85.0g",1Value per 100 g,
Proximates
"Energy",kcal,--,--,220,259
"Protein",g,--,--,17.00,20.00
"Total lipid (fat)",g,--,--,15.00,17.65
"Carbohydrate, by difference",g,--,--,7.00,8.24
"Fiber, total dietary",g,--,--,2.0,2.4
"Sugars, total",g,--,--,2.00,2.35
Minerals
"Calcium, Ca",mg,--,--,40,47
"Iron, Fe",mg,--,--,1.80,2.12
"Sodium, Na",mg,--,--,460,541
Vitamins
"Vitamin C, total ascorbic acid",mg,--,--,1.2,1.4
"Vitamin A, IU",IU,--,--,0,0
Lipids
"Fatty acids, total saturated",g,--,--,6.001,7.060
"Fatty acids, total trans",g,--,--,0.000,0.000
"Cholesterol",mg,--,--,50,59
Amino Acids
Other
Ingredients
"BEEF, WATER, ONIONS, TEXTURED VEGETABLE PROTEIN (SOY FLOUR, CARAMEL COLOR), BREADCRUMBS (BLEACHED WHEAT FLOUR, SUGAR, SALT, YEAST, CANOLA OIL), SOY PROTEIN CONCENTRATE, SEASONING (SALT, CORN SYRUP SOLIDS, CORN STARCH, CHICKEN FAT, SUGAR, DEHYDRATED ONION, ARTIFICIAL FLAVOR, TURMERIC, SPICES, DISODIUM INOSINATE, DISODIUM GUANYLATE, SPICE EXTRACTIVES, SILICON DIOXIDE), SEASONING (DEXTROSE, SALT, SPICES, DEHYDRATED ONION, SPICE EXTRACTIVES), EGG WHITES, GROUND MUSTARD." Date last updated by company: 01/03/2017
