Source: USDA Branded Food Products Database Release December 2017 Software v.3.8.6.4 2017-10-02
Report Run at: December 17, 2017 05:41 EST
"Nutrient data for: 45156801, KINGS, EVERYTHING STIX, UPC: 073866401786"
Food Group:  Branded Food Products Database
Common Name:

Nutrient,Unit,Data points,Std. Error,"0.25 cup = 28.0g",1Value per 100 g,
Proximates
"Energy",kcal,--,--,156,557
"Protein",g,--,--,3.00,10.71
"Total lipid (fat)",g,--,--,11.00,39.29
"Carbohydrate, by difference",g,--,--,13.00,46.43
"Fiber, total dietary",g,--,--,1.0,3.6
"Sugars, total",g,--,--,1.00,3.57
Minerals
"Calcium, Ca",mg,--,--,89,319
"Iron, Fe",mg,--,--,2.25,8.04
"Sodium, Na",mg,--,--,379,1354
Vitamins
"Vitamin C, total ascorbic acid",mg,--,--,0.6,2.1
"Vitamin A, IU",IU,--,--,0,0
Lipids
"Fatty acids, total saturated",g,--,--,1.999,7.140
"Fatty acids, total trans",g,--,--,0.000,0.000
"Cholesterol",mg,--,--,0,0
Amino Acids
Other
Ingredients
"UNBLEACHED WHEAT FLOUR (CONTAINS MALTED BARLEY FLOUR AS A NATURAL ENZYME ADDITIVE), SOYBEAN OIL, SESAME SEEDS, GROUND BULGUR WHEAT, POPPY SEEDS, SALT, GARLIC POWDER, MINCED ONION, TURMERIC (COLOR), BEET POWDER (COLOR)." Date available: 08/11/2017 Date last updated by company: 08/11/2017
