Source: USDA Branded Food Products Database Release December 2017 Software v.3.8.6.4 2017-10-02
Report Run at: December 17, 2017 05:37 EST
"Nutrient data for: 45244227, KINGS COMMAND FOODS FULLY COOKED BEEF CHUCK BURGERS, 27-6 OUNCE PORTIONS PER 10 POUND NET WEIGHT MASTER CASE., UNPREPARED, GTIN: 10088374704837"
Food Group:  Branded Food Products Database
Common Name:

Nutrient,Unit,Data points,Std. Error,"170.0 g = 170.0g",1Value per 100 g,
Proximates
"Energy",kcal,--,--,291,171
"Protein",g,--,--,42.99,25.29
"Total lipid (fat)",g,--,--,11.00,6.47
"Carbohydrate, by difference",g,--,--,2.01,1.18
"Fiber, total dietary",g,--,--,0.0,0.0
"Sugars, total",g,--,--,0.00,0.00
Minerals
"Calcium, Ca",mg,--,--,20,12
"Iron, Fe",mg,--,--,5.41,3.18
"Potassium, K",mg,--,--,660,388
"Sodium, Na",mg,--,--,500,294
Vitamins
"Vitamin C, total ascorbic acid",mg,--,--,0.0,0.0
"Vitamin A, IU",IU,--,--,0,0
Lipids
"Fatty acids, total saturated",g,--,--,2.992,1.760
"Fatty acids, total trans",g,--,--,0.000,0.000
"Cholesterol",mg,--,--,139,82
Amino Acids
Other
Ingredients
"Beef, Flavoring, Seasoning (Maltodextrin, Natural Flavor, Modified Food Starch, Corn Syrup Solids, Tricalcium Phosphate), Salt." Date last updated by company: 01/02/2017
