Source: USDA Branded Food Products Database Release December 2017 Software v.3.8.6.4 2017-10-02
Report Run at: December 17, 2017 05:43 EST
"Nutrient data for: 45175660, KINGS, ORGANIC DRIED APRICOTS, UPC: 073866401069"
Food Group:  Branded Food Products Database
Common Name:

Nutrient,Unit,Data points,Std. Error,"5.0 PCS = 40.0g",1Value per 100 g,
Proximates
"Energy",kcal,--,--,120,300
"Protein",g,--,--,1.00,2.50
"Total lipid (fat)",g,--,--,0.00,0.00
"Carbohydrate, by difference",g,--,--,29.00,72.50
"Fiber, total dietary",g,--,--,4.0,10.0
"Sugars, total",g,--,--,15.00,37.50
Minerals
"Calcium, Ca",mg,--,--,40,100
"Iron, Fe",mg,--,--,1.08,2.70
"Sodium, Na",mg,--,--,10,25
Vitamins
"Vitamin C, total ascorbic acid",mg,--,--,1.2,3.0
"Vitamin A, IU",IU,--,--,100,250
Lipids
"Fatty acids, total saturated",g,--,--,0.000,0.000
"Fatty acids, total trans",g,--,--,0.000,0.000
"Cholesterol",mg,--,--,0,0
Amino Acids
Other
Ingredients
"ORGANIC DRIED PITTED APRICOTS" Date available: 07/14/2017 Date last updated by company: 07/14/2017
