Source: USDA Branded Food Products Database Release December 2017 Software v.3.8.6.4 2017-10-02
Report Run at: December 17, 2017 05:37 EST
"Nutrient data for: 45234687, KING'S CHOICE, GOUDA STYLE PASTEURIZED PROCESSED SMOKED CHEESE, UPC: 277312705002"
Food Group:  Branded Food Products Database
Common Name:

Nutrient,Unit,Data points,Std. Error,"1 IN. CUBE) | ABOUT = 30.0g",1Value per 100 g,
Proximates
"Energy",kcal,--,--,90,300
"Protein",g,--,--,6.00,20.00
"Total lipid (fat)",g,--,--,8.00,26.67
"Carbohydrate, by difference",g,--,--,0.00,0.00
"Fiber, total dietary",g,--,--,0.0,0.0
"Sugars, total",g,--,--,1.00,3.33
Minerals
"Calcium, Ca",mg,--,--,150,500
"Iron, Fe",mg,--,--,0.00,0.00
"Sodium, Na",mg,--,--,320,1067
Vitamins
"Vitamin C, total ascorbic acid",mg,--,--,0.0,0.0
"Vitamin A, IU",IU,--,--,500,1667
Lipids
"Fatty acids, total saturated",g,--,--,5.001,16.670
"Fatty acids, total trans",g,--,--,0.000,0.000
"Cholesterol",mg,--,--,20,67
Amino Acids
Other
Ingredients
"MAASDAM CHEESE (PASTEURIZED MILK, CHEESE CULTURES, SALT, ENZYMES), WATER, BUTTERFAT, DISODIUM PHOSPHATE AND CITRATE (EMULSIFIERS), SORBIC ACID (PRESERVATIVE), NATURAL SMOKE." Date available: 07/14/2017 Date last updated by company: 07/14/2017
