Source: USDA Branded Food Products Database Release December 2017 Software v.3.8.6.4 2017-10-02
Report Run at: December 17, 2017 05:38 EST
"Nutrient data for: 45244008, KINGS COMMAND FOODS FULLY COOKED FLAME BROILED BEEF PATTY TERIYAKI STYLE BITES 800-0.60 OUNCE PATTIES IN A 28.75 POUND NET WEIGHT MASTER CASE., UNPREPARED, GTIN: 10088374908730"
Food Group:  Branded Food Products Database
Common Name:

Nutrient,Unit,Data points,Std. Error,"68.0 g = 68.0g",1Value per 100 g,
Proximates
"Energy",kcal,--,--,144,212
"Protein",g,--,--,13.00,19.12
"Total lipid (fat)",g,--,--,7.00,10.29
"Carbohydrate, by difference",g,--,--,7.00,10.29
"Fiber, total dietary",g,--,--,0.0,0.0
"Sugars, total",g,--,--,5.00,7.35
Minerals
"Calcium, Ca",mg,--,--,32,47
"Iron, Fe",mg,--,--,2.00,2.94
"Phosphorus, P",mg,--,--,115,169
"Sodium, Na",mg,--,--,329,484
Vitamins
"Vitamin C, total ascorbic acid",mg,--,--,0.0,0.0
"Thiamin",mg,--,--,0.000,0.000
"Riboflavin",mg,--,--,0.000,0.000
"Niacin",mg,--,--,2.000,2.941
"Vitamin A, IU",IU,--,--,0,0
Lipids
"Fatty acids, total saturated",g,--,--,2.999,4.410
"Fatty acids, total trans",g,--,--,0.000,0.000
"Cholesterol",mg,--,--,34,50
Amino Acids
Other
Ingredients
"Ground Beef (Not More Than 20% Fat), Water, Textured Vegetable Protein (Soy Protein Concentrate, Caramel Color), Brown Sugar, Sugar, Teriyaki Sauce Powder [Teriyaki Sauce(Soy Sauce{Wheat, Soybeans, Salt}. Wine, Vinegar, Salt, Onion Powder, Spice, Onion Powder, Spice, Extractives, Succinic Acid, Garlic Powder), Maltodextrin, Salt], 2% Or Less Of Molasses Powder(Sugarcane Molasses, Maltodextrin), Salt, Sodium Phosphates, Vinegar Powder (Maltodextrin, Modified Food Starch, Vinegar Solids), Potassium Chloride, Caramel Color, Garlic Powder, Citric Acid, Spice, Natural Flavors (Including Grill)." Date last updated by company: 11/11/2016
