Source: USDA Branded Food Products Database Release December 2017 Software v.3.8.6.4 2017-10-02
Report Run at: December 17, 2017 05:43 EST
"Nutrient data for: 45175645, KINGS, ORGANIC FRENCH GREEN LENTILS, UPC: 073866106537"
Food Group:  Branded Food Products Database
Common Name:

Nutrient,Unit,Data points,Std. Error,"0.25 cup = 35.0g",1Value per 100 g,
Proximates
"Energy",kcal,--,--,120,343
"Protein",g,--,--,9.00,25.71
"Total lipid (fat)",g,--,--,0.00,0.00
"Carbohydrate, by difference",g,--,--,21.00,60.00
"Fiber, total dietary",g,--,--,11.0,31.4
"Sugars, total",g,--,--,1.00,2.86
Minerals
"Calcium, Ca",mg,--,--,20,57
"Iron, Fe",mg,--,--,2.70,7.71
"Potassium, K",mg,--,--,330,943
"Sodium, Na",mg,--,--,0,0
Vitamins
"Vitamin C, total ascorbic acid",mg,--,--,1.2,3.4
"Vitamin A, IU",IU,--,--,0,0
Lipids
"Fatty acids, total saturated",g,--,--,0.000,0.000
"Fatty acids, total trans",g,--,--,0.000,0.000
"Cholesterol",mg,--,--,0,0
Amino Acids
Other
Ingredients
"ORGANIC FRENCH GREEN LENTILS" Date available: 10/08/2016 Date last updated by company: 10/08/2016
