Source: USDA Branded Food Products Database Release December 2017 Software v.3.8.6.4 2017-10-02
Report Run at: December 17, 2017 05:40 EST
"Nutrient data for: 45244185, KINGS COMMAND FOODS UNCOOKED CHICKEN BREAST PATTIE FRITTERS, 40-4 OUNCE PORTIONS PER 10 POUND NET WEIGHT MASTER CASE., UNPREPARED, GTIN: 10088374700778"
Food Group:  Branded Food Products Database
Common Name:

Nutrient,Unit,Data points,Std. Error,"113.0 g = 113.0g",1Value per 100 g,
Proximates
"Energy",kcal,--,--,210,186
"Protein",g,--,--,19.00,16.81
"Total lipid (fat)",g,--,--,2.00,1.77
"Carbohydrate, by difference",g,--,--,28.00,24.78
"Fiber, total dietary",g,--,--,1.0,0.9
"Sugars, total",g,--,--,0.00,0.00
Minerals
"Calcium, Ca",mg,--,--,80,71
"Iron, Fe",mg,--,--,1.80,1.59
"Sodium, Na",mg,--,--,699,619
Vitamins
"Vitamin C, total ascorbic acid",mg,--,--,0.0,0.0
"Vitamin A, IU",IU,--,--,0,0
Lipids
"Fatty acids, total saturated",g,--,--,0.497,0.440
"Fatty acids, total trans",g,--,--,0.000,0.000
"Cholesterol",mg,--,--,40,35
Amino Acids
Other
Ingredients
"Chicken Breast with Rib Meat, Water, Salt, Sodium Phosphate. Predusted and Battered with: Water, Enriched Wheat Flour (Niacin, Reduced Iron, Thiamine Mononitrate, Riboflavin, Folic Acid), Wheat Starch, Buttermilk Blend (Buttermilk, Whey), Salt, Leavening (Sodium Acid Pyrophosphate, Sodium Bicarbonate, Monocalcium Phosphate), Spice. Breaded with: Enriched Wheat Flour (Niacin, Reduced Iron, Thiamine Mononitrate, Riboflavin, Folic Acid), Wheat Flour, Leavening, (Sodium Acid Pyrophosphate, Sodium Bicarbonate, Corn Starch, Monocalcium Phosphate), Soy Flour." Date last updated by company: 12/29/2016
