Source: USDA Branded Food Products Database Release December 2017 Software v.3.8.6.4 2017-10-02
Report Run at: December 17, 2017 05:45 EST
"Nutrient data for: 45162946, KINNEY DRUGS, ELECTROLYTE WATER, UPC: 022198008262"
Food Group:  Branded Food Products Database
Common Name:

Nutrient,Unit,Data points,Std. Error,"12.0 OZA = 360.0g",1Value per 100 g,
Proximates
"Energy",kcal,--,--,0,0
"Protein",g,--,--,0.00,0.00
"Total lipid (fat)",g,--,--,0.00,0.00
"Carbohydrate, by difference",g,--,--,0.00,0.00
Minerals
"Potassium, K",mg,--,--,0,0
"Sodium, Na",mg,--,--,0,0
Vitamins
Lipids
Amino Acids
Other
Ingredients
"VAPOR DISTILLED WATER, ELECTROLYTES (POTASSIUM BICARBONATE, CALCIUM CHLORIDE, MAGNESIUM CHLORIDE)." Date available: 07/14/2017 Date last updated by company: 07/14/2017
