Source: USDA Branded Food Products Database Release December 2017 Software v.3.8.6.4 2017-10-02
Report Run at: December 17, 2017 05:46 EST
"Nutrient data for: 45292958, KIPPER SNACKS, UPC: 073230001512"
Food Group:  Branded Food Products Database
Common Name:

Nutrient,Unit,Data points,Std. Error,"1 CAN = 70.0g",1Value per 100 g,
Proximates
"Energy",kcal,--,--,150,214
"Protein",g,--,--,15.00,21.43
"Total lipid (fat)",g,--,--,10.00,14.29
"Carbohydrate, by difference",g,--,--,0.00,0.00
"Fiber, total dietary",g,--,--,0.0,0.0
"Sugars, total",g,--,--,0.00,0.00
Minerals
"Calcium, Ca",mg,--,--,60,86
"Iron, Fe",mg,--,--,0.88,1.25
"Sodium, Na",mg,--,--,290,414
Vitamins
"Vitamin C, total ascorbic acid",mg,--,--,0.0,0.0
"Vitamin A, IU",IU,--,--,0,0
Lipids
"Fatty acids, total saturated",g,--,--,1.498,2.140
"Fatty acids, total trans",g,--,--,0.000,0.000
"Cholesterol",mg,--,--,45,64
Amino Acids
Other
Ingredients
"SMOKED FILLETS OF KIPPERED HERRING (FISH), WATER, SALT" Date available: 07/14/2017 Date last updated by company: 07/14/2017
