Source: USDA Branded Food Products Database Release December 2017 Software v.3.8.6.4 2017-10-02
Report Run at: December 17, 2017 05:47 EST
"Nutrient data for: 45004486, KIRKWOOD, PURE GROUND TURKEY, UPC: 041498194376"
Food Group:  Branded Food Products Database
Common Name:

Nutrient,Unit,Data points,Std. Error,"4.0 oz = 112.0g",1Value per 100 g,
Proximates
"Energy",kcal,--,--,220,196
"Protein",g,--,--,17.00,15.18
"Total lipid (fat)",g,--,--,17.00,15.18
"Carbohydrate, by difference",g,--,--,0.00,0.00
Minerals
"Calcium, Ca",mg,--,--,0,0
"Iron, Fe",mg,--,--,0.00,0.00
"Sodium, Na",mg,--,--,85,76
Vitamins
"Vitamin C, total ascorbic acid",mg,--,--,0.0,0.0
"Vitamin A, IU",IU,--,--,0,0
Lipids
"Fatty acids, total saturated",g,--,--,4.995,4.460
"Fatty acids, total trans",g,--,--,0.000,0.000
"Cholesterol",mg,--,--,110,98
Amino Acids
Other
Ingredients
"PURE GROUND TURKEY" Date available: 09/23/2016 Date last updated by company: 09/23/2016
