Source: USDA Branded Food Products Database Release December 2017 Software v.3.8.6.4 2017-10-02
Report Run at: December 17, 2017 05:47 EST
"Nutrient data for: 45004769, KIRKWOOD, CHICKEN BREASTS WITH RIB MEAT, UPC: 041498180492"
Food Group:  Branded Food Products Database
Common Name:

Nutrient,Unit,Data points,Std. Error,"4.0 ONZ = 112.0g",1Value per 100 g,
Proximates
"Energy",kcal,--,--,110,98
"Protein",g,--,--,23.00,20.54
"Total lipid (fat)",g,--,--,2.50,2.23
"Carbohydrate, by difference",g,--,--,0.00,0.00
"Fiber, total dietary",g,--,--,0.0,0.0
"Sugars, total",g,--,--,0.00,0.00
Minerals
"Calcium, Ca",mg,--,--,0,0
"Iron, Fe",mg,--,--,1.25,1.12
"Sodium, Na",mg,--,--,220,196
Vitamins
"Vitamin C, total ascorbic acid",mg,--,--,0.0,0.0
"Vitamin A, IU",IU,--,--,0,0
Lipids
"Fatty acids, total saturated",g,--,--,0.504,0.450
"Fatty acids, total trans",g,--,--,0.000,0.000
"Cholesterol",mg,--,--,65,58
Amino Acids
Other
Ingredients
"**SEASONED SOLUTION: WATER, SEA SALT, NATURAL FLAVOR, CHICKEN BROTH." Date available: 06/25/2017 Date last updated by company: 06/25/2017
