Source: USDA Branded Food Products Database Release December 2017 Software v.3.8.6.4 2017-10-02
Report Run at: December 17, 2017 05:54 EST
"Nutrient data for: 45226745, KLOSTERMAN, HONEY HOT DOG BUNS, UPC: 051721002286"
Food Group:  Branded Food Products Database
Common Name:

Nutrient,Unit,Data points,Std. Error,"1 BUN = 45.0g",1Value per 100 g,
Proximates
"Energy",kcal,--,--,120,267
"Protein",g,--,--,4.00,8.89
"Total lipid (fat)",g,--,--,1.50,3.33
"Carbohydrate, by difference",g,--,--,22.00,48.89
"Fiber, total dietary",g,--,--,1.0,2.2
"Sugars, total",g,--,--,2.00,4.44
Minerals
"Calcium, Ca",mg,--,--,40,89
"Iron, Fe",mg,--,--,1.20,2.67
"Sodium, Na",mg,--,--,200,444
Vitamins
"Vitamin C, total ascorbic acid",mg,--,--,0.0,0.0
"Thiamin",mg,--,--,0.450,1.000
"Riboflavin",mg,--,--,0.170,0.378
"Niacin",mg,--,--,2.222,4.938
"Vitamin A, IU",IU,--,--,0,0
Lipids
"Fatty acids, total saturated",g,--,--,0.000,0.000
"Fatty acids, total trans",g,--,--,0.000,0.000
"Cholesterol",mg,--,--,0,0
Amino Acids
Other
Ingredients
"ENRICHED WHEAT FLOUR (WHEAT FLOUR, MALTED BARLEY FLOUR, NIACIN, IRON, THIAMIN MONONITRATE, RIBOFLAVIN, FOLIC ACID), WATER, YEAST, CORN SYRUP, CONTAINS 2% OR LESS OF THE FOLLOWING: HONEY, SOYBEAN OIL, SALT, WHEAT GLUTEN, INVERT SUGAR, WHEAT STARCH, DOUGH CONDITIONERS (MONO & DIGLYCERIDES, SODIUM STEAROYL LACTYLATE, ETHOXYLATED MONO- AND DIGLYCERIDES, ASCORBIC ACID), CALCIUM PROPIONATE (PRESERVATIVE), CORN FLOUR, SPICES (TURMERIC AND PAPRIKA), ARTIFICIAL FLAVORS, YEAST NUTRIENTS (CALCIUM SULFATE, AMMONIUM SULFATE), CITRIC ACID." Date available: 07/14/2017 Date last updated by company: 07/14/2017
