Source: USDA Branded Food Products Database Release December 2017 Software v.3.8.6.4 2017-10-02
Report Run at: December 17, 2017 05:56 EST
"Nutrient data for: 45187584, KNICPSCHILDT CHOCOLATIER, CHOCOPALOGIE, SILKY ARTISAN CARAMEL SAUCE, UPC: 810855011553"
Food Group:  Branded Food Products Database
Common Name:

Nutrient,Unit,Data points,Std. Error,"28.0 GRM = 28.0g",1Value per 100 g,
Proximates
"Energy",kcal,--,--,100,357
"Protein",g,--,--,0.00,0.00
"Total lipid (fat)",g,--,--,3.50,12.50
"Carbohydrate, by difference",g,--,--,17.00,60.71
"Fiber, total dietary",g,--,--,0.0,0.0
"Sugars, total",g,--,--,17.00,60.71
Minerals
"Calcium, Ca",mg,--,--,0,0
"Iron, Fe",mg,--,--,0.00,0.00
"Sodium, Na",mg,--,--,210,750
Vitamins
"Vitamin C, total ascorbic acid",mg,--,--,0.0,0.0
"Vitamin A, IU",IU,--,--,0,0
Lipids
"Fatty acids, total saturated",g,--,--,1.999,7.140
"Fatty acids, total trans",g,--,--,0.000,0.000
"Cholesterol",mg,--,--,0,0
Amino Acids
Other
Ingredients
"ORGANIC SUGAR*, WATER, ORGANIC PALM OIL, ORGANIC MILK POWDER, HAWAIIAN SEA SALT, ORGANIC SOYA LECITHIN, ORGANIC CITRIC ACID." Date available: 07/14/2017 Date last updated by company: 07/14/2017
