Source: USDA Branded Food Products Database Release December 2017 Software v.3.8.6.4 2017-10-02
Report Run at: December 17, 2017 05:56 EST
"Nutrient data for: 45096575, KNORR, BROTH MIX, CHICKEN, UPC: 063350703151"
Food Group:  Branded Food Products Database
Common Name:

Nutrient,Unit,Data points,Std. Error,"1 CUP PREPARED = 5.0g",1Value per 100 g,
Proximates
"Energy",kcal,--,--,15,300
"Protein",g,--,--,0.00,0.00
"Total lipid (fat)",g,--,--,0.00,0.00
"Carbohydrate, by difference",g,--,--,1.00,20.00
Minerals
"Sodium, Na",mg,--,--,880,17600
Vitamins
Lipids
"Cholesterol",mg,--,--,5,100
Amino Acids
Other
Ingredients
"SALT, MONO SODIUM GLUTAMATE, CORN SYRUP SOLIDS, DRIED CHICKEN MEAT, CORN STARCH , CHICKEN FAT, SUGAR ,HYDROLYZED SOY PROTEIN, HYDROLYZED CORN PROTEIN, CALCIUM SILICATE (ANTICKING AGENT), NATURAL AND ARTIFICIAL FLAVORS (EGG)., YEAST EXTRACT (BARLEY), HYDROLYZED WHEAT PROTEIN, DISODIUM GUANYLATE, DISODIUM INOSINATE , TAPIOCA DEXTRIN, DEXTROSE, DISODIUM PHOSPHATE, AUTOLYZED YEAST EXTRACT,SPICES , MALTODEXTRIN, WHEY (MILK), CRAMEL COLOR, MODIFIED CORN STARCH, ONION POWDER." Date available: 06/25/2017 Date last updated by company: 06/25/2017
