Source: USDA Branded Food Products Database Release December 2017 Software v.3.8.6.4 2017-10-02
Report Run at: December 17, 2017 05:57 EST
"Nutrient data for: 45088561, KNORR, SAUCE MIX, PARMA ROSA, UPC: 048001703650"
Food Group:  Branded Food Products Database
Common Name:

Nutrient,Unit,Data points,Std. Error,"0.25 CUP PREPARED | MAKES = 8.0g",1Value per 100 g,
Proximates
"Energy",kcal,--,--,30,375
"Protein",g,--,--,1.00,12.50
"Total lipid (fat)",g,--,--,1.00,12.50
"Carbohydrate, by difference",g,--,--,4.00,50.00
"Fiber, total dietary",g,--,--,0.0,0.0
"Sugars, total",g,--,--,2.00,25.00
Minerals
"Calcium, Ca",mg,--,--,20,250
"Iron, Fe",mg,--,--,0.00,0.00
"Sodium, Na",mg,--,--,280,3500
Vitamins
"Vitamin C, total ascorbic acid",mg,--,--,20.3,253.6
"Vitamin A, IU",IU,--,--,846,10569
Lipids
"Fatty acids, total saturated",g,--,--,0.000,0.000
"Fatty acids, total trans",g,--,--,0.000,0.000
"Cholesterol",mg,--,--,5,62
Amino Acids
Other
Ingredients
"TOMATO POWDER, PARMESAN AND ROMANO CHEESES (PASTEURIZED MILK, CHEESE CULTURES, SALT, ENZYMES), WHEY PROTEIN CONCENTRATE, CORN STARCH, WHEAT FLOUR (WHEAT FLOUR, NIACIN, REDUCED IRON, THIAMIN MONONITRATE, RIBOFLAVIN, FOLIC ACID), MALTODEXTRIN, SALT, HYDROLYZED CORN PROTEIN, HIGH OLEIC SUNFLOWER OIL, SUGAR, SPICES, GARLIC POWDER, WHEY, PARSLEY*, NATURAL FLAVOR, PAPRIKA OLEORESIN AND ANNATTO EXTRACT (FOR COLOR), SOY LECITHIN." Date available: 07/14/2017 Date last updated by company: 07/14/2017
