Source: USDA Branded Food Products Database Release December 2017 Software v.3.8.6.4 2017-10-02
Report Run at: December 17, 2017 05:57 EST
"Nutrient data for: 45088577, KNORR, MINICUBES, SEASONING, ONION, UPC: 048001217461"
Food Group:  Branded Food Products Database
Common Name:

Nutrient,Unit,Data points,Std. Error,"1 MINI CUBE = 4.0g",1Value per 100 g,
Proximates
"Energy",kcal,--,--,10,250
"Protein",g,--,--,0.00,0.00
"Total lipid (fat)",g,--,--,0.00,0.00
"Carbohydrate, by difference",g,--,--,1.00,25.00
Minerals
"Sodium, Na",mg,--,--,750,18750
Vitamins
Lipids
Amino Acids
Other
Ingredients
"SALT, MONOSODIUM GLUTAMATE, ONION POWDER, SUGAR, CORN STARCH, HYDROGENATED PALM OIL, PALM OIL, SILICON DIOXIDE (PREVENTS CAKING), SOYBEAN OIL, NATURAL FLAVOR, ONION JUICE CONCENTRATE, SULFUR DIOXIDE (USED TO PROTECT QUALITY)." Date available: 07/14/2017 Date last updated by company: 07/14/2017
