Source: USDA Branded Food Products Database Release December 2017 Software v.3.8.6.4 2017-10-02
Report Run at: December 17, 2017 05:57 EST
"Nutrient data for: 45088594, KNORR, MI ARROZ, RICE SEASONING MIX, WHITE, UPC: 048001263178"
Food Group:  Branded Food Products Database
Common Name:

Nutrient,Unit,Data points,Std. Error,"0.167 PACKET = 2.0g",1Value per 100 g,
Proximates
"Energy",kcal,--,--,0,0
"Protein",g,--,--,0.00,0.00
"Total lipid (fat)",g,--,--,0.00,0.00
"Carbohydrate, by difference",g,--,--,0.00,0.00
Minerals
"Sodium, Na",mg,--,--,660,33000
Vitamins
Lipids
Amino Acids
Other
Ingredients
"SALT, MONOSODIUM GLUTAMATE, NATURAL AND ARTIFICIAL FLAVOR, CORN STARCH, SILICON DIOXIDE (PREVENTS CAKING), CELLULOSE GUM, AUTOLYZED YEAST EXTRACT (BARLEY), SUGAR, DISODIUM INOSINATE." Date available: 08/15/2017 Date last updated by company: 08/15/2017
