Source: USDA Branded Food Products Database Release December 2017 Software v.3.8.6.4 2017-10-02
Report Run at: December 17, 2017 05:57 EST
"Nutrient data for: 45088963, KNORR, RECIPE MIX, GOULASH, BEEF FLAVORED WITH OTHER NATURAL FLAVORS, UPC: 048001222434"
Food Group:  Branded Food Products Database
Common Name:

Nutrient,Unit,Data points,Std. Error,"1.33 Tbsp = 11.0g",1Value per 100 g,
Proximates
"Energy",kcal,--,--,35,318
"Protein",g,--,--,1.00,9.09
"Total lipid (fat)",g,--,--,0.00,0.00
"Carbohydrate, by difference",g,--,--,8.00,72.73
"Fiber, total dietary",g,--,--,1.0,9.1
"Sugars, total",g,--,--,2.00,18.18
Minerals
"Calcium, Ca",mg,--,--,0,0
"Iron, Fe",mg,--,--,1.64,14.87
"Sodium, Na",mg,--,--,370,3364
Vitamins
"Vitamin C, total ascorbic acid",mg,--,--,27.3,247.9
"Vitamin A, IU",IU,--,--,2272,20659
Lipids
"Fatty acids, total saturated",g,--,--,0.000,0.000
"Fatty acids, total trans",g,--,--,0.000,0.000
"Cholesterol",mg,--,--,0,0
Amino Acids
Other
Ingredients
"MALTODEXTRIN (CORN, POTATO), ONION*, WHEAT FLOUR (WHEAT FLOUR, NIACIN, REDUCED IRON, THIAMIN MONONITRATE, RIBOFLAVIN, FOLIC ACID), PAPRIKA AND CARAMEL (FOR COLOR), TOMATO POWDER, RED AND GREEN BELL PEPPERS*, POTATO STARCH, SALT, SUGAR, HYDROLYZED VEGETABLE PROTEIN (CORN, SOY, WHEAT), SPICES, GARLIC POWDER, HIGH OLEIC SUNFLOWER OIL, YEAST EXTRACT, NATURAL FLAVOR, GUAR GUM, ONION POWDER, DISODIUM GUANYLATE, DISODIUM INOSINATE, SOYBEAN OIL, BEEF FAT, SULFITES (USED TO PROTECT QUALITY)." Date available: 07/14/2017 Date last updated by company: 07/14/2017
