Source: USDA Branded Food Products Database Release December 2017 Software v.3.8.6.4 2017-10-02
Report Run at: December 17, 2017 06:00 EST
"Nutrient data for: 45018749, KOHINOOR, RICE & CURRY, DAL PALAK WITH ZEERA RICE, UPC: 810347010200"
Food Group:  Branded Food Products Database
Common Name:

Nutrient,Unit,Data points,Std. Error,"1 PACK = 350.0g",1Value per 100 g,
Proximates
"Energy",kcal,--,--,466,133
"Protein",g,--,--,15.99,4.57
"Total lipid (fat)",g,--,--,7.00,2.00
"Carbohydrate, by difference",g,--,--,85.02,24.29
"Fiber, total dietary",g,--,--,10.2,2.9
"Sugars, total",g,--,--,1.01,0.29
Minerals
"Calcium, Ca",mg,--,--,200,57
"Iron, Fe",mg,--,--,0.81,0.23
"Sodium, Na",mg,--,--,850,243
Vitamins
"Vitamin C, total ascorbic acid",mg,--,--,8.0,2.3
"Vitamin A, IU",IU,--,--,119,34
Lipids
"Fatty acids, total saturated",g,--,--,1.015,0.290
"Fatty acids, total trans",g,--,--,0.000,0.000
"Cholesterol",mg,--,--,0,0
Amino Acids
Other
Ingredients
"DAL PALAK: SPLIT BENGAL GRAM, SPLIT GREEN GRAM, WATER, SPINACH, REFINED SUNFLOWER OIL, ONION, GARLIC, GINGER, GREEN CHILLI, CUMIN POWDER, CORIANDER POWDER, WHITE SALT, TURMERIC POWDER, RED CHILLI POWDER, FENNEL POWDER, KASURI METHI AND BLACK PEPPER POWDER. ZEERA RICE: WATER, BASMATI RICE, REFINED SUNFLOWER OIL, SALT AND CUMIN SEEDS." Date available: 06/25/2017 Date last updated by company: 06/25/2017
