Source: USDA Branded Food Products Database Release December 2017 Software v.3.8.6.4 2017-10-02
Report Run at: December 17, 2017 06:04 EST
"Nutrient data for: 45240668, KOMBUCHA WONDER DRINK, SPARKLING FERMENTED TEA, GREEN TEA & LEMON, UPC: 665479071502"
Food Group:  Branded Food Products Database
Common Name:

Nutrient,Unit,Data points,Std. Error,"1 CAN = 250.0g",1Value per 100 g,
Proximates
"Energy",kcal,--,--,60,24
"Protein",g,--,--,0.00,0.00
"Total lipid (fat)",g,--,--,0.00,0.00
"Carbohydrate, by difference",g,--,--,16.00,6.40
"Sugars, total",g,--,--,8.00,3.20
Minerals
"Sodium, Na",mg,--,--,0,0
Vitamins
Lipids
Amino Acids
Other
Ingredients
"WATER, ORGANIC BREWED GREEN TEA (WATER, ORGANIC GREEN TEA LEAVES), ORGANIC KOMBUCHA (WATER, ORGANIC CANE JUICE, ORGANIC OOLONG TEA LEAVES, YEAST AND BACTERIA CULTURES), ORGANIC CANE JUICE, ORGANIC LEMON EXTRACT, CARBON DIOXIDE." Date available: 06/25/2017 Date last updated by company: 06/25/2017
