Source: USDA Branded Food Products Database Release December 2017 Software v.3.8.6.4 2017-10-02
Report Run at: December 17, 2017 06:02 EST
"Nutrient data for: 45169013, KOMBUCHA, UPC: 748252410634"
Food Group:  Branded Food Products Database
Common Name:

Nutrient,Unit,Data points,Std. Error,"6.0 OZA = 180.0g",1Value per 100 g,
Proximates
"Energy",kcal,--,--,20,11
"Protein",g,--,--,0.00,0.00
"Total lipid (fat)",g,--,--,0.00,0.00
"Carbohydrate, by difference",g,--,--,5.00,2.78
"Sugars, total",g,--,--,4.00,2.22
Minerals
"Sodium, Na",mg,--,--,0,0
Vitamins
Lipids
Amino Acids
Other
Ingredients
"ORGANIC RAW KOMBUCHA, ORGANIC BLUEBERRIES, ORGANIC CASCADE HOPS" Date available: 07/14/2017 Date last updated by company: 07/14/2017
