Source: USDA Branded Food Products Database Release December 2017 Software v.3.8.6.4 2017-10-02
Report Run at: December 17, 2017 06:01 EST
"Nutrient data for: 45263273, KOMBUCHA, A BUBBLY PROBIOTIC TEA, UPC: 851861006096"
Food Group:  Branded Food Products Database
Common Name:

Nutrient,Unit,Data points,Std. Error,"8.0 OZA = 237.0g",1Value per 100 g,
Proximates
"Energy",kcal,--,--,36,15
"Protein",g,--,--,0.00,0.00
"Total lipid (fat)",g,--,--,0.00,0.00
"Carbohydrate, by difference",g,--,--,6.99,2.95
"Sugars, total",g,--,--,1.99,0.84
Minerals
"Sodium, Na",mg,--,--,9,4
Vitamins
Lipids
Amino Acids
Other
Ingredients
"FILTERED WATER, KOMBUCHA CULTURE (YEAST AND BACTERIA CULTURES), ORGANIC BLACK TEA, ORGANIC GREEN TEA, ORGANIC EVAPORATED CANE JUICE (SUGAR), COLD-PRESSED ORGANIC GINGER JUICE, COLD-PRESSED ORGANIC LEMON JUICE." Date available: 07/14/2017 Date last updated by company: 07/14/2017
