Source: USDA Branded Food Products Database Release December 2017 Software v.3.8.6.4 2017-10-02
Report Run at: December 17, 2017 06:04 EST
"Nutrient data for: 45325823, KOMBUCHA, UPC: 867606000120"
Food Group:  Branded Food Products Database
Common Name:

Nutrient,Unit,Data points,Std. Error,"12.0 OZA = 353.0g",1Value per 100 g,
Proximates
"Energy",kcal,--,--,28,8
"Protein",g,--,--,0.00,0.00
"Total lipid (fat)",g,--,--,0.00,0.00
"Carbohydrate, by difference",g,--,--,6.99,1.98
"Sugars, total",g,--,--,6.99,1.98
Minerals
"Sodium, Na",mg,--,--,0,0
Vitamins
Lipids
Amino Acids
Other
Ingredients
"REVERSE OSMOSIS WATER, LIVE & RAW KOMBUCHA CULTURE, ORGANIC GREEN & BLACK TEA BLEND, ORGANIC CANE SUGAR, NATURAL GINGER EXTRACT." Date available: 08/11/2017 Date last updated by company: 08/11/2017
