Source: USDA Branded Food Products Database Release December 2017 Software v.3.8.6.4 2017-10-02
Report Run at: December 17, 2017 06:05 EST
"Nutrient data for: 45209074, KONA COFFEE CHOCOLATE, UPC: 097729700038"
Food Group:  Branded Food Products Database
Common Name:

Nutrient,Unit,Data points,Std. Error,"2.0 PIECES = 13.0g",1Value per 100 g,
Proximates
"Energy",kcal,--,--,60,462
"Protein",g,--,--,1.00,7.69
"Total lipid (fat)",g,--,--,4.50,34.62
"Carbohydrate, by difference",g,--,--,7.00,53.85
"Fiber, total dietary",g,--,--,1.0,7.7
"Sugars, total",g,--,--,5.00,38.46
Minerals
"Calcium, Ca",mg,--,--,0,0
"Iron, Fe",mg,--,--,0.00,0.00
"Sodium, Na",mg,--,--,15,115
Vitamins
"Vitamin C, total ascorbic acid",mg,--,--,0.0,0.0
"Vitamin A, IU",IU,--,--,0,0
Lipids
"Fatty acids, total saturated",g,--,--,3.000,23.080
"Fatty acids, total trans",g,--,--,0.000,0.000
"Cholesterol",mg,--,--,0,0
Amino Acids
Other
Ingredients
"DARK CHOCOLATE (CHOCOLATE LIQUOR, SUGAR, COCOA BUTTER, SOY LECITHIN [AN EMULSIFIER], NATURAL VANILLA FLAVOR), CARAMEL (TAPIOCA, CORN SYRUP, SUGAR, NONFAT MILK, FRACTIONATED PALM KERNEL OIL, CREAM, BUTTER (CREAM, SALT), INSTANT COFFEE, WATER, SALT, SOY LECITHIN, SODIUM CITRATE, NATURAL FLAVOR, PECTIN, VITAMIN E (MIXED TOCOPHEROLS FOR ADDED FRESHNESS)." Date available: 07/14/2017 Date last updated by company: 07/14/2017
