Source: USDA Branded Food Products Database Release December 2017 Software v.3.8.6.4 2017-10-02
Report Run at: December 17, 2017 06:05 EST
"Nutrient data for: 45188665, KONSERWA WIEJSKA, UPC: 885963003578"
Food Group:  Branded Food Products Database
Common Name:

Nutrient,Unit,Data points,Std. Error,"3.0 ONZ = 84.0g",1Value per 100 g,
Proximates
"Energy",kcal,--,--,270,321
"Protein",g,--,--,8.00,9.52
"Total lipid (fat)",g,--,--,25.00,29.76
"Carbohydrate, by difference",g,--,--,3.00,3.57
"Fiber, total dietary",g,--,--,0.0,0.0
"Sugars, total",g,--,--,0.00,0.00
Minerals
"Calcium, Ca",mg,--,--,0,0
"Iron, Fe",mg,--,--,0.47,0.56
"Sodium, Na",mg,--,--,670,798
Vitamins
"Vitamin C, total ascorbic acid",mg,--,--,0.0,0.0
"Vitamin A, IU",IU,--,--,0,0
Lipids
"Fatty acids, total saturated",g,--,--,9.996,11.900
"Fatty acids, total trans",g,--,--,0.000,0.000
"Cholesterol",mg,--,--,40,48
Amino Acids
Other
Ingredients
"PORK FAT, WATER, PORK MEAT, PORK SKINS, PORK HEAD MEAT, MECHANICALLY SEPARATED PORK MEAT, PORK BELLY, MODIFIED FOOD STARCH, SALT, GARLIC, SODIUM PHOSPHATE, NATURAL PEPPER, MONOSODIUM GLUTAMATE, SEASONINGS CONTAINING: MALTODEXTRINS, SALT, MONOSODIUM GLUTAMATE, SOY PROTEIN HYDROLYZATE, NATURAL FLAVOUR (OLEORESINS AND OILS OF PEPPER, PAPRIKA, NUTMEG, GINGER, GARLIC, CARAWAY, PIMENTO, CELERY BASED ON RAPESEED OIL CONTAINING MAX 1% OF ERUCIC ACID), SODIUM ASCORBATE, SODIUM NITRATE." Date available: 07/14/2017 Date last updated by company: 07/14/2017
