Source: USDA Branded Food Products Database Release December 2017 Software v.3.8.6.4 2017-10-02
Report Run at: December 17, 2017 06:06 EST
"Nutrient data for: 45140587, KOOL-AID, GELATIN SNACKS GELATINITAS, STRAWBERRY, ORANGE, LEMON LIME, GRAPE, UPC: 043000059227"
Food Group:  Branded Food Products Database
Common Name:

Nutrient,Unit,Data points,Std. Error,"1 SNACK = 99.0g",1Value per 100 g,
Proximates
"Energy",kcal,--,--,70,71
"Protein",g,--,--,1.00,1.01
"Total lipid (fat)",g,--,--,0.00,0.00
"Carbohydrate, by difference",g,--,--,17.00,17.17
"Fiber, total dietary",g,--,--,0.0,0.0
"Sugars, total",g,--,--,17.00,17.17
Minerals
"Calcium, Ca",mg,--,--,0,0
"Iron, Fe",mg,--,--,0.00,0.00
"Sodium, Na",mg,--,--,40,40
Vitamins
"Vitamin C, total ascorbic acid",mg,--,--,0.0,0.0
"Vitamin A, IU",IU,--,--,0,0
Lipids
"Fatty acids, total saturated",g,--,--,0.000,0.000
"Fatty acids, total trans",g,--,--,0.000,0.000
"Cholesterol",mg,--,--,0,0
Amino Acids
Other
Ingredients
"WATER, HIGH FRUCTOSE CORN SYRUP, SUGAR, GELATIN, CONTAINS LESS THAN 0.5% OF CITRIC ACID (FOR TARTNESS), SODIUM CITRATE (CONTROLS ACIDITY), NATURAL AND ARTIFICIAL FLAVOR, RED 40, YELLOW 6, BLUE 1, YELLOW 5" Date available: 09/23/2016 Date last updated by company: 09/23/2016
