Source: USDA Branded Food Products Database Release December 2017 Software v.3.8.6.4 2017-10-02
Report Run at: December 17, 2017 06:06 EST
"Nutrient data for: 45193112, KOOL-AID, DRINK MIX, CHERRY, UPC: 043000023471"
Food Group:  Branded Food Products Database
Common Name:

Nutrient,Unit,Data points,Std. Error,"0.5 PACKET = 8.0g",1Value per 100 g,
Proximates
"Energy",kcal,--,--,30,375
"Protein",g,--,--,0.00,0.00
"Total lipid (fat)",g,--,--,0.00,0.00
"Carbohydrate, by difference",g,--,--,7.00,87.50
"Sugars, total",g,--,--,7.00,87.50
Minerals
"Sodium, Na",mg,--,--,0,0
Vitamins
"Vitamin C, total ascorbic acid",mg,--,--,6.0,75.0
Lipids
Amino Acids
Other
Ingredients
"SUGAR, FRUCTOSE, CITRIC ACID, CONTAINS LESS THAN 2% OF ARTIFICIAL FLAVOR, ASCORBIC ACID (VITAMIN C), VITAMIN E ACETATE, CALCIUM PHOSPHATE, ACESULFAME POTASSIUM AND SUCRALOSE (SWEETENERS), ARTIFICIAL COLOR, RED 40." Date available: 09/23/2016 Date last updated by company: 09/23/2016
