Source: USDA Branded Food Products Database Release December 2017 Software v.3.8.6.4 2017-10-02
Report Run at: December 17, 2017 06:09 EST
"Nutrient data for: 45329513, KOREAN CHILI SAUCE, UPC: 852320000013"
Food Group:  Branded Food Products Database
Common Name:

Nutrient,Unit,Data points,Std. Error,"1 tsp = 6.0g",1Value per 100 g,
Proximates
"Energy",kcal,--,--,10,167
"Protein",g,--,--,0.00,0.00
"Total lipid (fat)",g,--,--,0.00,0.00
"Carbohydrate, by difference",g,--,--,2.00,33.33
"Fiber, total dietary",g,--,--,0.0,0.0
"Sugars, total",g,--,--,2.00,33.33
Minerals
"Calcium, Ca",mg,--,--,0,0
"Iron, Fe",mg,--,--,0.00,0.00
"Sodium, Na",mg,--,--,120,2000
Vitamins
"Vitamin C, total ascorbic acid",mg,--,--,0.0,0.0
"Vitamin A, IU",IU,--,--,0,0
Lipids
"Fatty acids, total saturated",g,--,--,0.000,0.000
"Fatty acids, total trans",g,--,--,0.000,0.000
"Cholesterol",mg,--,--,0,0
Amino Acids
Other
Ingredients
"WATER, RICE, RED PEPPER POWDER, SUGAR, RICE WINE (WATER, RICE, YEAST), RICE SYRUP, SALT, GARLIC, CANE SUGAR, VINEGAR, ONION" Date available: 10/13/2017 Date last updated by company: 10/13/2017
