Source: USDA Branded Food Products Database Release December 2017 Software v.3.8.6.4 2017-10-02
Report Run at: December 17, 2017 06:10 EST
"Nutrient data for: 45123987, KOREAN-STYLE GRILLED CHICKEN, UPC: 695119820306"
Food Group:  Branded Food Products Database
Common Name:

Nutrient,Unit,Data points,Std. Error,"0.5 PACKAGE = 312.0g",1Value per 100 g,
Proximates
"Energy",kcal,--,--,321,103
"Protein",g,--,--,22.99,7.37
"Total lipid (fat)",g,--,--,3.49,1.12
"Carbohydrate, by difference",g,--,--,44.99,14.42
"Fiber, total dietary",g,--,--,3.1,1.0
"Sugars, total",g,--,--,36.00,11.54
Minerals
"Calcium, Ca",mg,--,--,100,32
"Iron, Fe",mg,--,--,0.69,0.22
"Potassium, K",mg,--,--,509,163
"Sodium, Na",mg,--,--,1020,327
Vitamins
"Vitamin C, total ascorbic acid",mg,--,--,67.4,21.6
"Vitamin A, IU",IU,--,--,2811,901
Lipids
"Fatty acids, total saturated",g,--,--,0.499,0.160
"Fatty acids, total trans",g,--,--,0.000,0.000
"Cholesterol",mg,--,--,59,19
Amino Acids
Other
Ingredients
"GRILLED WHITE MEAT CHICKEN BREAST [CHICKEN BREAST MEAT, WATER, RICE STARCH, SALT, SODIUM BICARBONATE, BLACK PEPPER], SAUCE [WATER, SUGAR, SOY SAUCE (WATER, WHEAT, SOYBEANS, SALT, ALCOHOL {TO RETAIN FRESHNESS}, VINEGAR AND LACTIC ACID), DEXTROSE, MISO PASTE (WATER, SOYBEANS, RICE, SEA SALT, ALCOHOL), BROWN SUGAR, RED CHILI PEPPER, GARLIC PUREE (GARLIC, CITRIC ACID), DISTILLED VINEGAR, APPLE PASTE, MODIFIED CORNSTARCH, GINGER PUREE (GINGER, WATER, CITRIC ACID), SESAME OIL, YEAST EXTRACT, COOKING WINE (WATER, RICE, ALCOHOL, SALT), SPICES, CULTURED DEXTROSE], ONIONS, RED BELL PEPPERS, CARROTS, GREEN ONIONS." Date available: 08/07/2017 Date last updated by company: 08/07/2017
