Source: USDA Branded Food Products Database Release December 2017 Software v.3.8.6.4 2017-10-02
Report Run at: December 17, 2017 06:10 EST
"Nutrient data for: 45271386, KOREAN STYLE FIRE-GRILLED CHICKEN, UPC: 807176711774"
Food Group:  Branded Food Products Database
Common Name:

Nutrient,Unit,Data points,Std. Error,"1 cup = 130.0g",1Value per 100 g,
Proximates
"Energy",kcal,--,--,190,146
"Protein",g,--,--,15.00,11.54
"Total lipid (fat)",g,--,--,8.00,6.15
"Carbohydrate, by difference",g,--,--,15.00,11.54
"Fiber, total dietary",g,--,--,1.0,0.8
"Sugars, total",g,--,--,9.00,6.92
Minerals
"Calcium, Ca",mg,--,--,20,15
"Iron, Fe",mg,--,--,0.47,0.36
"Sodium, Na",mg,--,--,699,538
Vitamins
"Vitamin C, total ascorbic acid",mg,--,--,0.8,0.6
"Vitamin A, IU",IU,--,--,490,377
Lipids
"Fatty acids, total saturated",g,--,--,1.495,1.150
"Fatty acids, total trans",g,--,--,0.000,0.000
"Cholesterol",mg,--,--,100,77
Amino Acids
Other
Ingredients
"COOKED MARINATED CHICKEN [CHICKEN DARK MEAT, SOY SAUCE [WATER, WHEAT, SOYBEANS, SALT], SUGAR, POTATO STARCH, GARLIC, SALTED COOKING RICE WINE [WATER, DEXTROSE, RICE, CORN SYRUP, SALT], WATER, SESAME OIL, BLACK PEPPER], WATER, ROASTED YELLOW ONION, CARROTS, GREEN ONIONS, SOY SAUCE [WATER, WHEAT, SOYBEANS, SALT], BROWN SUGAR, MODIFIED CORN STARCH, GARLIC, SOYBEAN OIL, SALTED COOKING RICE WINE (WATER, DEXTROSE, RICE, CORN SYRUP, SALT), SESAME OIL, NATURAL CHICKEN FLAVOR (MALTODEXTRIN, YEAST EXTRACT, SOY SAUCE [SOYBEANS, WHEAT, SALT], TAPIOCA MALTODEXTRIN, CHICKEN FAT, NATURAL FLAVORS], BLACK PEPPER." Date available: 07/14/2017 Date last updated by company: 07/14/2017
