Source: USDA Branded Food Products Database Release December 2017 Software v.3.8.6.4 2017-10-02
Report Run at: December 17, 2017 06:11 EST
"Nutrient data for: 45218102, KOSHER DILL CHIPS, UPC: 793573905031"
Food Group:  Branded Food Products Database
Common Name:

Nutrient,Unit,Data points,Std. Error,"3.0 -4 CHIPS | APPR. = 26.0g",1Value per 100 g,
Proximates
"Energy",kcal,--,--,4,15
"Protein",g,--,--,0.00,0.00
"Total lipid (fat)",g,--,--,0.00,0.00
"Carbohydrate, by difference",g,--,--,1.00,3.85
"Fiber, total dietary",g,--,--,0.0,0.0
"Sugars, total",g,--,--,0.00,0.00
Minerals
"Calcium, Ca",mg,--,--,0,0
"Iron, Fe",mg,--,--,0.00,0.00
"Sodium, Na",mg,--,--,210,808
Vitamins
"Vitamin C, total ascorbic acid",mg,--,--,0.0,0.0
"Vitamin A, IU",IU,--,--,0,0
Lipids
"Fatty acids, total saturated",g,--,--,0.000,0.000
"Fatty acids, total trans",g,--,--,0.000,0.000
"Cholesterol",mg,--,--,0,0
Amino Acids
Other
Ingredients
"CONTENTS: FRESH CUCUMBERS, WATER, SALT, VINEGAR, NATURAL FLAVORS, TUMERIC, 1/10 OF 1 % SODIUM BENZOATE, CALCIUM CHLORIDE, EDTA." Date available: 07/14/2017 Date last updated by company: 07/14/2017
