Source: USDA Branded Food Products Database Release December 2017 Software v.3.8.6.4 2017-10-02
Report Run at: December 17, 2017 06:12 EST
"Nutrient data for: 45059193, KOSHER DILL SANDWICH SLICES, UPC: 041318191011"
Food Group:  Branded Food Products Database
Common Name:

Nutrient,Unit,Data points,Std. Error,"2.0 SLICES) | (ABOUT = 28.0g",1Value per 100 g,
Proximates
"Energy",kcal,--,--,0,0
"Protein",g,--,--,0.00,0.00
"Total lipid (fat)",g,--,--,0.00,0.00
"Carbohydrate, by difference",g,--,--,1.00,3.57
Minerals
"Sodium, Na",mg,--,--,210,750
Vitamins
Lipids
Amino Acids
Other
Ingredients
"FRESH CUCUMBERS, WATER, VINEGAR, SALT, CALCIUM CHLORIDE, POLYSORBATE 80, NATURAL FLAVORS, YELLOW 5" Date available: 06/24/2017 Date last updated by company: 06/24/2017
