Source: USDA Branded Food Products Database Release December 2017 Software v.3.8.6.4 2017-10-02
Report Run at: December 17, 2017 06:20 EST
"Nutrient data for: 45290317, KRAUT KRISPS 1 BILLION PROBIOTICS, UPC: 850273005444"
Food Group:  Branded Food Products Database
Common Name:

Nutrient,Unit,Data points,Std. Error,"1 ONZ = 28.0g",1Value per 100 g,
Proximates
"Energy",kcal,--,--,130,464
"Protein",g,--,--,1.00,3.57
"Total lipid (fat)",g,--,--,8.00,28.57
"Carbohydrate, by difference",g,--,--,14.00,50.00
"Fiber, total dietary",g,--,--,2.0,7.1
"Sugars, total",g,--,--,0.00,0.00
Minerals
"Calcium, Ca",mg,--,--,22,79
"Iron, Fe",mg,--,--,0.00,0.00
"Potassium, K",mg,--,--,52,186
"Sodium, Na",mg,--,--,210,750
Vitamins
"Vitamin D",IU,--,--,0,0
Lipids
"Fatty acids, total saturated",g,--,--,1.999,7.140
"Fatty acids, total monounsaturated",g,--,--,3.500,12.500
"Fatty acids, total polyunsaturated",g,--,--,2.500,8.930
"Fatty acids, total trans",g,--,--,0.000,0.000
"Cholesterol",mg,--,--,0,0
Amino Acids
Other
Ingredients
"SAUERKRAUT* (GREEN CABBAGE*, WATER, SEA SALT), CORN FLOUR*, VEGETABLE OIL* (SUNFLOWER* AND/OR SAFFLOWER* AND/OR RED PALM OLEIN*), BROWN RICE FLOUR*, SEA SALT, ORGANIC INULIN*, BACILLUS COAGULANS GBI-30 6086." Date available: 09/22/2017 Date last updated by company: 09/22/2017
