Source: USDA Branded Food Products Database Release December 2017 Software v.3.8.6.4 2017-10-02
Report Run at: December 17, 2017 06:22 EST
"Nutrient data for: 45190813, KRINGLE, UPC: 045251001178"
Food Group:  Branded Food Products Database
Common Name:

Nutrient,Unit,Data points,Std. Error,"0.0833 KRINGLE = 52.0g",1Value per 100 g,
Proximates
"Energy",kcal,--,--,160,308
"Protein",g,--,--,2.00,3.85
"Total lipid (fat)",g,--,--,8.00,15.38
"Carbohydrate, by difference",g,--,--,20.00,38.46
"Fiber, total dietary",g,--,--,1.0,1.9
"Sugars, total",g,--,--,13.00,25.00
Minerals
"Calcium, Ca",mg,--,--,20,38
"Iron, Fe",mg,--,--,0.38,0.73
"Sodium, Na",mg,--,--,115,221
Vitamins
"Vitamin C, total ascorbic acid",mg,--,--,0.0,0.0
"Vitamin A, IU",IU,--,--,212,407
Lipids
"Fatty acids, total saturated",g,--,--,3.500,6.730
"Fatty acids, total trans",g,--,--,0.000,0.000
"Cholesterol",mg,--,--,5,10
Amino Acids
Other
Ingredients
"WHEAT FLOUR, SUGAR, MARGARINE (INTERESTERIFIED SOYBEAN OIL, WATER, SALT, MONO- AND DIGLYCERIDES, COLORED WITH ANNATTO/TURMERIC, CALCIUM DISODIUM EDTA ADDED AS A PRESERVATIVE, ARTIFICIAL BUTTER FLAVOR, VITAMIN A PALMITATE ADDED.), HIGH FRUCTOSE CORN SYRUP, BROWN SUGAR (SUGAR, MOLASSES, CANE SYRUP), EGGS, CORN SYRUP, CHERRIES, CONTAINS 2% OR LESS OF THE FOLLOWING: WATER, MODIFIED FOOD STARCH, SALT, CREAM CHEESE (PASTEURIZED CULTURED CREAM, SKIM MILK, NATURAL ACIDS, SALT, XANTHAN, LOCUST BEAN AND GUAR GUMS, NATURAL FLAVORS), MALTODEXTRIN, SOY PROTEIN, YEAST, DEXTROSE, POTASSIUM SORBATE, TOCOPHEROLS PRESERVATIVE, AGAR-AGAR, CALCIUM CARBONATE, PARTIALLY HYDROGENATED SOYBEAN AND COTTONSEED OILS, BENZOIC ACID, LACTIC ACID, PALM OIL, POLYSORBATE 60, CITRIC ACID, SOY FLOUR, CANOLA OIL, RED 40, YELLOW 5, YELLOW 6, NATURAL & ARTIFICIAL FLAVORS, SODIUM BENZOATE, CALCIUM PROPIONATE, MALTED BARLEY, CORN STARCH, CINNAMON, EGG YOLKS, SOY LECITHIN, ENZYMES, BAKING SODA, COLOR ADDED." Date available: 07/14/2017 Date last updated by company: 07/14/2017
