Source: USDA Branded Food Products Database Release December 2017 Software v.3.8.6.4 2017-10-02
Report Run at: December 17, 2017 06:23 EST
"Nutrient data for: 45169099, KRISTINE'S KETCHUP, SPOONABLY DELICIOUS! KETCHUP, UPC: 799456554297"
Food Group:  Branded Food Products Database
Common Name:

Nutrient,Unit,Data points,Std. Error,"1 Tbsp = 17.0g",1Value per 100 g,
Proximates
"Energy",kcal,--,--,15,88
"Protein",g,--,--,0.00,0.00
"Total lipid (fat)",g,--,--,0.00,0.00
"Carbohydrate, by difference",g,--,--,4.00,23.53
"Fiber, total dietary",g,--,--,0.0,0.0
"Sugars, total",g,--,--,3.00,17.65
Minerals
"Calcium, Ca",mg,--,--,0,0
"Iron, Fe",mg,--,--,0.00,0.00
"Sodium, Na",mg,--,--,75,441
Vitamins
"Vitamin C, total ascorbic acid",mg,--,--,12.2,71.6
"Vitamin A, IU",IU,--,--,338,1988
Lipids
"Fatty acids, total saturated",g,--,--,0.000,0.000
"Fatty acids, total trans",g,--,--,0.000,0.000
"Cholesterol",mg,--,--,0,0
Amino Acids
Other
Ingredients
"ORGANIC TOMATO PUREE, ORGANIC TOMATO PASTE, WATER, ORGANIC CANE SUGAR, ORGANIC APPLE CIDER VINEGAR. CONTAINS LESS THAN 2% OF EACH OF THE FOLLOWING: SEA SALT, SPICES, ORGANIC ONION POWDER, ORGANIC GARLIC POWDER." Date available: 07/14/2017 Date last updated by company: 07/14/2017
