Source: USDA Branded Food Products Database Release December 2017 Software v.3.8.6.4 2017-10-02
Report Run at: December 17, 2017 06:24 EST
"Nutrient data for: 45139266, KROGER, ARTIC BLASTERS, ICE CREAM BARS, VANILLA, CHOCOLATE, UPC: 011110571205"
Food Group:  Branded Food Products Database
Common Name:

Nutrient,Unit,Data points,Std. Error,"1 BAR = 47.0g",1Value per 100 g,
Proximates
"Energy",kcal,--,--,150,319
"Protein",g,--,--,2.00,4.26
"Total lipid (fat)",g,--,--,10.00,21.28
"Carbohydrate, by difference",g,--,--,13.00,27.66
"Fiber, total dietary",g,--,--,1.0,2.1
"Sugars, total",g,--,--,10.00,21.28
Minerals
"Calcium, Ca",mg,--,--,40,85
"Iron, Fe",mg,--,--,0.36,0.77
"Potassium, K",mg,--,--,110,234
"Sodium, Na",mg,--,--,35,74
Vitamins
"Vitamin C, total ascorbic acid",mg,--,--,0.0,0.0
"Vitamin A, IU",IU,--,--,100,213
Lipids
"Fatty acids, total saturated",g,--,--,7.999,17.020
"Fatty acids, total trans",g,--,--,0.000,0.000
"Cholesterol",mg,--,--,15,32
Amino Acids
Other
Ingredients
"ICE CREAM - MILK, CREAM, SUGAR SYRUP, CORN SYRUP, WHEY, BUTTERMILK, MALTODEXTRIN, CELLULOSE GEL, MONO- AND DIGLYCERIDES, GUAR GUM, CELLULOSE GUM, LOCUST BEAN GUM, POLYSORBATE 80, CARRAGEENAN, ARTIFICIAL FLAVOR, SUCRALOSE, ANNATTO (FOR COLOR). CHOCOLATE FLAVORED COATING - COCONUT OIL, SUGAR, COCOA, COCOA PROCESSED WITH ALKALI, PARTIALLY HYDROGENATED SOYBEAN OIL, SOY LECITHIN, SALT, NATURAL FLAVOR." Date available: 07/14/2017 Date last updated by company: 07/14/2017
