Source: USDA Branded Food Products Database Release December 2017 Software v.3.8.6.4 2017-10-02
Report Run at: December 17, 2017 07:03 EST
"Nutrient data for: 45171523, KROGER, WHIPPED CREAM CHEESE SPREAD, ONION & CHIVE, UPC: 011110864598"
Food Group:  Branded Food Products Database
Common Name:

Nutrient,Unit,Data points,Std. Error,"2.0 Tbsp = 20.0g",1Value per 100 g,
Proximates
"Energy",kcal,--,--,60,300
"Protein",g,--,--,1.00,5.00
"Total lipid (fat)",g,--,--,5.00,25.00
"Carbohydrate, by difference",g,--,--,2.00,10.00
"Fiber, total dietary",g,--,--,1.0,5.0
"Sugars, total",g,--,--,1.00,5.00
Minerals
"Calcium, Ca",mg,--,--,0,0
"Iron, Fe",mg,--,--,0.00,0.00
"Sodium, Na",mg,--,--,75,375
Vitamins
"Vitamin C, total ascorbic acid",mg,--,--,0.0,0.0
"Vitamin A, IU",IU,--,--,750,3750
Lipids
"Fatty acids, total saturated",g,--,--,3.500,17.500
"Fatty acids, total trans",g,--,--,0.000,0.000
"Cholesterol",mg,--,--,15,75
Amino Acids
Other
Ingredients
"PASTEURIZED MILK AND CREAM, WATER, INULIN, MALTODEXTRIN, WHEY PROTEIN CONCENTRATE, ONIONS*, SALT, CHEESE CULTURE, CHIVES*, GUAR AND CAROB BEAN AND XANTHAN GUMS, NATURAL FLAVOR, MODIFIED TAPIOCA STARCH, GARLIC, POTASSIUM SORBATE (PRESERVATIVE), LACTIC ACID, LEMON CONCENTRATE, CITRIC ACID VITAMIN A PALMITATE, LEMON OIL." Date available: 07/14/2017 Date last updated by company: 07/14/2017
