Source: USDA Branded Food Products Database Release December 2017 Software v.3.8.6.4 2017-10-02
Report Run at: December 17, 2017 06:33 EST
"Nutrient data for: 45332086, KROGER, CRUNCHY POPCORN SHRIMP, UPC: 011110963857"
Food Group:  Branded Food Products Database
Common Name:

Nutrient,Unit,Data points,Std. Error,"14.0 SHRIMP | ABOUT = 85.0g",1Value per 100 g,
Proximates
"Energy",kcal,--,--,210,247
"Protein",g,--,--,10.00,11.76
"Total lipid (fat)",g,--,--,11.00,12.94
"Carbohydrate, by difference",g,--,--,20.00,23.53
"Fiber, total dietary",g,--,--,1.0,1.2
"Sugars, total",g,--,--,2.00,2.35
Minerals
"Calcium, Ca",mg,--,--,20,24
"Iron, Fe",mg,--,--,1.44,1.69
"Sodium, Na",mg,--,--,520,612
Vitamins
"Vitamin C, total ascorbic acid",mg,--,--,0.0,0.0
"Vitamin A, IU",IU,--,--,0,0
Lipids
"Fatty acids, total saturated",g,--,--,1.496,1.760
"Fatty acids, total monounsaturated",g,--,--,1.998,2.350
"Fatty acids, total polyunsaturated",g,--,--,6.001,7.060
"Fatty acids, total trans",g,--,--,0.000,0.000
"Cholesterol",mg,--,--,55,65
Amino Acids
Other
Ingredients
"SHRIMP, BLEACHED WHEAT FLOUR, SOYBEAN OIL, ENRICHED BLEACHED WHEAT FLOUR (FLOUR, NIACIN, FERROUS SULFATE, THIAMINE MONONITRATE, RIBOFLAVIN, FOLIC ACID), WATER, YELLOW CORN FLOUR, CONTAINS 2% OR LESS OF CITRIC ACID, DEXTROSE, DISODIUM INOSINATE AND DISODIUM GUANYLATE, ENRICHED WHEAT FLOUR (FLOUR, NIACIN, REDUCED IRON, THIAMINE MONONITRATE, RIBOFLAVIN, FOLIC ACID), GARLIC POWDER, LEAVENING (SODIUM ACID PYROPHOSPHATE, SODIUM BICARBONATE), METHYLCELLULOSE, MODIFIED CORN STARCH, PAPRIKA OLEORESIN, SALT, SODIUM ALGINATE, SODIUM BISULFITE (AS A PRESERVATIVE), SODIUM TRIPOLYPHOSPHATE (TO RETAIN MOISTURE), SOY FLOUR, SPICE EXTRACTIVES, SUGAR, WHEY POWDER, YEAST." Date available: 10/13/2017 Date last updated by company: 10/13/2017
