Source: USDA Branded Food Products Database Release December 2017 Software v.3.8.6.4 2017-10-02
Report Run at: December 17, 2017 06:30 EST
"Nutrient data for: 45114085, KROGER, CLASSIC WAVY POTATO CHIPS, UPC: 011110838261"
Food Group:  Branded Food Products Database
Common Name:

Nutrient,Unit,Data points,Std. Error,"22.0 CHIPS = 28.0g",1Value per 100 g,
Proximates
"Energy",kcal,--,--,160,571
"Protein",g,--,--,1.00,3.57
"Total lipid (fat)",g,--,--,11.00,39.29
"Carbohydrate, by difference",g,--,--,15.00,53.57
"Fiber, total dietary",g,--,--,1.0,3.6
"Sugars, total",g,--,--,1.00,3.57
Minerals
"Calcium, Ca",mg,--,--,0,0
"Iron, Fe",mg,--,--,0.64,2.29
"Potassium, K",mg,--,--,270,964
"Sodium, Na",mg,--,--,135,482
Vitamins
"Vitamin C, total ascorbic acid",mg,--,--,16.1,57.4
"Vitamin A, IU",IU,--,--,0,0
Lipids
"Fatty acids, total saturated",g,--,--,1.501,5.360
"Fatty acids, total monounsaturated",g,--,--,2.500,8.930
"Fatty acids, total polyunsaturated",g,--,--,6.000,21.430
"Fatty acids, total trans",g,--,--,0.000,0.000
"Cholesterol",mg,--,--,0,0
Amino Acids
Other
Ingredients
"POTATOES, VEGETABLE OIL (CORN, SUNFLOWER, AND/OR CANOLA), SALT." Date available: 06/25/2017 Date last updated by company: 06/25/2017
