Source: USDA Branded Food Products Database Release December 2017 Software v.3.8.6.4 2017-10-02
Report Run at: December 17, 2017 06:24 EST
"Nutrient data for: 45171448, KROGER, ALL-VEGETABLE SHORTENING, UPC: 011110846242"
Food Group:  Branded Food Products Database
Common Name:

Nutrient,Unit,Data points,Std. Error,"1 Tbsp = 12.0g",1Value per 100 g,
Proximates
"Energy",kcal,--,--,110,917
"Protein",g,--,--,0.00,0.00
"Total lipid (fat)",g,--,--,12.00,100.00
"Carbohydrate, by difference",g,--,--,0.00,0.00
Minerals
"Sodium, Na",mg,--,--,0,0
Vitamins
Lipids
"Fatty acids, total saturated",g,--,--,3.000,25.000
"Fatty acids, total monounsaturated",g,--,--,2.500,20.830
"Fatty acids, total polyunsaturated",g,--,--,6.000,50.000
"Fatty acids, total trans",g,--,--,0.000,0.000
"Cholesterol",mg,--,--,0,0
Amino Acids
Other
Ingredients
"SOYBEAN OIL, HYDROGENATED PALM OIL, PALM OIL, MONO AND DIGLYCERIDES, TBHQ AND CITRIC ACID ADDED TO HELP PROTECT FLAVOR." Date available: 07/14/2017 Date last updated by company: 07/14/2017
