Source: USDA Branded Food Products Database Release December 2017 Software v.3.8.6.4 2017-10-02
Report Run at: December 17, 2017 06:46 EST
"Nutrient data for: 45112809, KROGER, LITE NONFAT YOGURT, VANILLA, UPC: 011110453235"
Food Group:  Branded Food Products Database
Common Name:

Nutrient,Unit,Data points,Std. Error,"6.0 ONZ = 170.0g",1Value per 100 g,
Proximates
"Energy",kcal,--,--,80,47
"Protein",g,--,--,6.00,3.53
"Total lipid (fat)",g,--,--,0.00,0.00
"Carbohydrate, by difference",g,--,--,12.00,7.06
"Fiber, total dietary",g,--,--,1.0,0.6
"Sugars, total",g,--,--,8.99,5.29
Minerals
"Calcium, Ca",mg,--,--,250,147
"Iron, Fe",mg,--,--,0.00,0.00
"Potassium, K",mg,--,--,260,153
"Sodium, Na",mg,--,--,105,62
Vitamins
"Vitamin C, total ascorbic acid",mg,--,--,0.0,0.0
"Vitamin A, IU",IU,--,--,299,176
"Vitamin D",IU,--,--,60,35
Lipids
"Fatty acids, total saturated",g,--,--,0.000,0.000
"Fatty acids, total trans",g,--,--,0.000,0.000
"Cholesterol",mg,--,--,5,3
Amino Acids
Other
Ingredients
"CULTURED NONFAT MILK, MODIFIED CORN STARCH, PHOSPHORIC ACID, NATURAL FLAVOR, GELATIN, TRICALCIUM PHOSPHATE, SOLUBLE CORN FIBER, AGAR, CULTURED, DEXTROSE, SODIUM CITRATE, SUCRALOSE, NEOTAME, ACESULFAME POTASSIUM, ANNATTO AND TURMERIC EXTRACT (FOR COLOR), VITAMIN A PALMITATE, VITAMIN D3, AND ACTIVE CULTURES WITH L. ACIDOPHILUS AND B. BIFIDUM." Date available: 06/25/2017 Date last updated by company: 06/25/2017
