Source: USDA Branded Food Products Database Release December 2017 Software v.3.8.6.4 2017-10-02
Report Run at: December 17, 2017 06:33 EST
"Nutrient data for: 45092849, KROGER, CRUNCHY COCONUT SHRIMP WITH A SWEET CHILI SAUCE, UPC: 011110963666"
Food Group:  Branded Food Products Database
Common Name:

Nutrient,Unit,Data points,Std. Error,"4.0 oz = 113.0g",1Value per 100 g,
Proximates
"Energy",kcal,--,--,310,274
"Protein",g,--,--,8.99,7.96
"Total lipid (fat)",g,--,--,16.00,14.16
"Carbohydrate, by difference",g,--,--,31.00,27.43
"Fiber, total dietary",g,--,--,0.0,0.0
"Sugars, total",g,--,--,10.00,8.85
Minerals
"Calcium, Ca",mg,--,--,20,18
"Iron, Fe",mg,--,--,0.72,0.64
"Sodium, Na",mg,--,--,560,496
Vitamins
"Vitamin C, total ascorbic acid",mg,--,--,0.0,0.0
"Vitamin A, IU",IU,--,--,0,0
Lipids
"Fatty acids, total saturated",g,--,--,8.000,7.080
"Fatty acids, total monounsaturated",g,--,--,4.995,4.420
"Fatty acids, total polyunsaturated",g,--,--,1.503,1.330
"Fatty acids, total trans",g,--,--,0.000,0.000
"Cholesterol",mg,--,--,50,44
Amino Acids
Other
Ingredients
"COCONUT SHRIMP - SHRIMP, COCONUT FLAKE, WHEAT FLOUR, SOYBEAN OIL, WATER, MODIFIED TAPIOCA STARCH, WHEAT STARCH, MODIFIED CORN STARCH, SALT, SUGAR, DEXTROSE, YEAST, LEAVENING (SODIUM ACID PYROPHOSPHATE, SODIUM BICARBONATE), ARTIFICIAL FLAVOR, SUNFLOWER OIL, SODIUM TRIPOLYPHOSHATE, (TO RETAIN MOISTURE), SAUCE, - SUGAR, WATER, VINEGAR, GARLIC, CHILI, SALT, MODIFIED CORN STARCH, XANTHAN GUM, SPICE." Date available: 03/22/2017 Date last updated by company: 03/22/2017
