Source: USDA Branded Food Products Database Release December 2017 Software v.3.8.6.4 2017-10-02
Report Run at: December 17, 2017 06:38 EST
"Nutrient data for: 45112321, KROGER, FRESH SELECTIONS, COBB SALAD KIT FOR ONE, ROMAINE LETTUCE, HARD BOILED EGGS, TURKEY BREAST, ICEBERG LETTUCE, BACON, CHUNKY BLEU CHEESE DRESSING, UPC: 011110917379"
Food Group:  Branded Food Products Database
Common Name:

Nutrient,Unit,Data points,Std. Error,"1 PACKAGE = 177.0g",1Value per 100 g,
Proximates
"Energy",kcal,--,--,280,158
"Protein",g,--,--,14.99,8.47
"Total lipid (fat)",g,--,--,22.99,12.99
"Carbohydrate, by difference",g,--,--,4.99,2.82
"Fiber, total dietary",g,--,--,1.9,1.1
"Sugars, total",g,--,--,2.00,1.13
Minerals
"Calcium, Ca",mg,--,--,41,23
"Iron, Fe",mg,--,--,0.85,0.48
"Sodium, Na",mg,--,--,740,418
Vitamins
"Vitamin C, total ascorbic acid",mg,--,--,2.8,1.6
"Vitamin A, IU",IU,--,--,5142,2905
Lipids
"Fatty acids, total saturated",g,--,--,4.000,2.260
"Fatty acids, total trans",g,--,--,0.000,0.000
"Cholesterol",mg,--,--,140,79
Amino Acids
Other
Ingredients
"ROMAINE LETTUCE, CHUNKY BLEU CHEESE DRESSING (CANOLA OIL, CULTURED BUTTERMILK, BLEU CHEESE [MILK, SALT, CULTURE, ENZYMES], WATER, EGG YOLK, SALT, DISTILLED VINEGAR, SUGAR, MALTODEXTRIN, CULTURED DEXTROSE, DRIED GARLIC, XANTHAN GUM, CARRAGEENAN GUM, MUSTARD FLOUR, SPICE), HARD-COOKED EGGS (EGG, WATER, CITRIC ACID, SODIUM BENZOATE [AS A PRESERVATIVE]), TURKEY BREAST (TURKEY BREAST, WATER, CONTAINS 2% OR LESS OF SUGAR, SALT, SODIUM PHOSPHATE [PRESERVATIVE], SODIUM DIACETATE [PRESERVATIVE], SODIUM NITRATE [PRESERVATIVE], POTASSIUM LACTATE [PRESERVATIVE], SODIUM ERYTHORBATE [PRESERVATIVE]), ICEBERG LETTUCE, BACON BITS (BACON CURED WITH WATER, SALT, SUGAR, SODIUM NITRATE [PRESERVATIVE], MAY CONTAIN SMOKE FLAVORING, DEXTROSE, BROWN SUGAR, SODIUM PHOSPHATE [TO ENHANCE FLAVOR],SODIUM ERYTHORBATE [PRESERVATIVE], SODIUM ASCORBATE [PRESERVATIVE], POTASSIUM CHLORIDE [PRESERVATIVE], FLAVORING)." Date available: 06/25/2017 Date last updated by company: 06/25/2017
