Source: USDA Branded Food Products Database Release December 2017 Software v.3.8.6.4 2017-10-02
Report Run at: December 17, 2017 06:58 EST
"Nutrient data for: 45120797, KROGER, SMOKY BACON CHEDDAR SMOKED SAUSAGE, UPC: 011110611116"
Food Group:  Branded Food Products Database
Common Name:

Nutrient,Unit,Data points,Std. Error,"1 LINK = 66.0g",1Value per 100 g,
Proximates
"Energy",kcal,--,--,210,318
"Protein",g,--,--,9.00,13.64
"Total lipid (fat)",g,--,--,18.00,27.27
"Carbohydrate, by difference",g,--,--,5.00,7.58
"Fiber, total dietary",g,--,--,0.0,0.0
"Sugars, total",g,--,--,2.00,3.03
Minerals
"Calcium, Ca",mg,--,--,60,91
"Iron, Fe",mg,--,--,0.30,0.46
"Sodium, Na",mg,--,--,570,864
Vitamins
"Vitamin C, total ascorbic acid",mg,--,--,0.0,0.0
"Vitamin A, IU",IU,--,--,166,252
Lipids
"Fatty acids, total saturated",g,--,--,7.003,10.610
"Fatty acids, total trans",g,--,--,0.000,0.000
"Cholesterol",mg,--,--,40,61
Amino Acids
Other
Ingredients
"PORK, WATER, CHEDDAR CHEESE ([CULTURED PASTEURIZED MILK, SALT, ENZYMES], WATER, CREAM, SODIUM PHOSPHATE, SALT, SORBIC ACID, CAROTENAL [COLOR]), BACON ([CURED WITH WATER, SALT, SUGAR, SODIUM PHOSPHATES, SODIUM ASCORBATE, SODIUM NITRITE], HICKORY SMOKE FLAVOR), CORN SYRUP, CONTAINS 2% OR LESS SEA SALT, DEXTROSE, MODIFIED FOOD STARCH, FLAVORINGS, POTASSIUM CHLORIDE, DRIED VINEGAR POWDER, NATURAL BACON FLAVOR (MALTODEXTRIN, RENDERED BACON FAT AND BACON BITS ([CURED WITH WATER, SALT, SUGAR, SODIUM PHOSPHATE, SODIUM ASCORBATE, SODIUM NITRITE], NATURAL SMOKE FLAVOR (PARTIALLY HYDROGENATED SOYBEAN OIL, SALT, SILICON DIOXIDE, NATURAL FLAVOR [CONTAINS NATURAL SMOKE FLAVOR]), SODIUM PHOSPHATE, SALT, SODIUM ERYTHORBATE, SODIUM NITRITE." Date available: 06/25/2017 Date last updated by company: 06/25/2017
