Source: USDA Branded Food Products Database Release December 2017 Software v.3.8.6.4 2017-10-02
Report Run at: December 17, 2017 06:54 EST
"Nutrient data for: 45090506, KROGER, REDUCED FAT GRAHAM CRACKER, UPC: 011110817068"
Food Group:  Branded Food Products Database
Common Name:

Nutrient,Unit,Data points,Std. Error,"0.125 CRUST = 21.0g",1Value per 100 g,
Proximates
"Energy",kcal,--,--,100,476
"Protein",g,--,--,1.00,4.76
"Total lipid (fat)",g,--,--,3.50,16.67
"Carbohydrate, by difference",g,--,--,15.00,71.43
"Fiber, total dietary",g,--,--,1.0,4.8
"Sugars, total",g,--,--,6.00,28.57
Minerals
"Calcium, Ca",mg,--,--,0,0
"Iron, Fe",mg,--,--,0.86,4.08
"Sodium, Na",mg,--,--,100,476
Vitamins
"Vitamin C, total ascorbic acid",mg,--,--,0.0,0.0
"Vitamin A, IU",IU,--,--,0,0
Lipids
"Fatty acids, total saturated",g,--,--,2.499,11.900
"Fatty acids, total monounsaturated",g,--,--,1.000,4.760
"Fatty acids, total polyunsaturated",g,--,--,0.000,0.000
"Fatty acids, total trans",g,--,--,0.000,0.000
"Cholesterol",mg,--,--,0,0
Amino Acids
Other
Ingredients
"ENRICHED FLOUR (WHEAT FLOUR, NIACIN, REDUCED IRON, THIAMINE MONONITRATE, RIBOFLAVIN, FOLIC ACID), SUGAR, PALM AND PALM KERNEL OIL WITH TBHQ FOR FRESHNESS, GRAHAM FLOUR, CORN SYRUP,MOLASSES. CONTAINS 2% OR LESS OF: SALT, LEAVENING (BAKING SODA SODIUM ACID PYROPHOSPHATE, MONOCALCIUM PHOSPHATE), CARAMEL COLOR, SOY LECITHIN, ANNATTO EXTRACT FOR COLOR, TURMERIC EXTRACT FOR COLOR." Date available: 08/17/2017 Date last updated by company: 08/17/2017
