Source: USDA Branded Food Products Database Release December 2017 Software v.3.8.6.4 2017-10-02
Report Run at: December 17, 2017 06:40 EST
"Nutrient data for: 45240379, KROGER, GELATIN DESSERT, CHERRY, UPC: 011110673510"
Food Group:  Branded Food Products Database
Common Name:

Nutrient,Unit,Data points,Std. Error,"0.25 PACKET = 21.0g",1Value per 100 g,
Proximates
"Energy",kcal,--,--,80,381
"Protein",g,--,--,1.00,4.76
"Total lipid (fat)",g,--,--,0.00,0.00
"Carbohydrate, by difference",g,--,--,18.00,85.71
"Sugars, total",g,--,--,18.00,85.71
Minerals
"Sodium, Na",mg,--,--,80,381
Vitamins
Lipids
Amino Acids
Other
Ingredients
"SUGAR, DEXTROSE, GELATIN, CONTAINS 2% OR LESS OF: ADIPIC ACID, FUMARIC ACID, DISODIUM PHOSPHATE, ARTIFICIAL FLAVOR, RED 40." Date available: 07/28/2017 Date last updated by company: 07/28/2017
