Source: USDA Branded Food Products Database Release December 2017 Software v.3.8.6.4 2017-10-02
Report Run at: December 17, 2017 06:30 EST
"Nutrient data for: 45126368, KROGER, COCKTAIL SHRIMP WITH SAUCE, UPC: 011110964021"
Food Group:  Branded Food Products Database
Common Name:

Nutrient,Unit,Data points,Std. Error,"9.0 SHRIMP) & 1 TBSP SAUCE (25G) | SHRIMP, (ABOUT = 85.0g",1Value per 100 g,
Proximates
"Energy",kcal,--,--,110,129
"Protein",g,--,--,18.00,21.18
"Total lipid (fat)",g,--,--,1.00,1.18
"Carbohydrate, by difference",g,--,--,8.00,9.41
"Fiber, total dietary",g,--,--,0.0,0.0
"Sugars, total",g,--,--,4.00,4.71
Minerals
"Calcium, Ca",mg,--,--,40,47
"Iron, Fe",mg,--,--,2.70,3.18
"Sodium, Na",mg,--,--,580,682
Vitamins
"Vitamin C, total ascorbic acid",mg,--,--,2.4,2.8
"Vitamin A, IU",IU,--,--,200,235
Lipids
"Fatty acids, total saturated",g,--,--,0.000,0.000
"Fatty acids, total trans",g,--,--,0.000,0.000
"Cholesterol",mg,--,--,165,194
Amino Acids
Other
Ingredients
"COOKED SHRIMP, SLAT. COCKTAIL SAUCE: TOMATO PASTE, WATER, SUGAR, PREPARED HORSERADISH (HORSERADISH, WATER, VINEGAR, SALT, SOY BEAN OIL, ARTIFICIAL MUSTARD FLAVOR), VINEGAR, SALT, GRANULATED ONION AND GARLIC, POTASSIUM SORBATE (PRESERVATIVE), SODIUM BENZOATE (PRESERVATIVE), XANTHAN GUM, HORSERADISH FLAVOR, PECTINASE, RED 40." Date available: 08/14/2017 Date last updated by company: 08/14/2017
