Source: USDA Branded Food Products Database Release December 2017 Software v.3.8.6.4 2017-10-02
Report Run at: December 17, 2017 06:50 EST
"Nutrient data for: 45106782, KROGER, NON-DAIRY COFFEE CREAMER, ORIGINAL, UPC: 011110883650"
Food Group:  Branded Food Products Database
Common Name:

Nutrient,Unit,Data points,Std. Error,"1 tsp = 2.0g",1Value per 100 g,
Proximates
"Energy",kcal,--,--,10,500
"Protein",g,--,--,0.00,0.00
"Total lipid (fat)",g,--,--,0.50,25.00
"Carbohydrate, by difference",g,--,--,1.00,50.00
"Fiber, total dietary",g,--,--,0.0,0.0
"Sugars, total",g,--,--,0.00,0.00
Minerals
"Calcium, Ca",mg,--,--,0,0
"Iron, Fe",mg,--,--,0.00,0.00
"Sodium, Na",mg,--,--,0,0
Vitamins
"Vitamin C, total ascorbic acid",mg,--,--,0.0,0.0
"Vitamin A, IU",IU,--,--,0,0
Lipids
"Fatty acids, total saturated",g,--,--,0.000,0.000
"Fatty acids, total trans",g,--,--,0.000,0.000
"Cholesterol",mg,--,--,0,0
Amino Acids
Other
Ingredients
"CORN SYRUP SOLIDS, VEGETABLE OIL (CONTAINING ONE OR MORE OF THE FOLLOWING: PALM, PALM KERNEL, COCONUT, SOYBEAN), SODIUM CAGEINATIE*(A MILK DERIVATIVE), DIPOTASSIUM PHOSPHATE, MONOGLYCERIDES, CONTAINS 2% OR LESS OF: SILICON DIOXIDE, NATURAL AND ARTIFICIAL FLAVORS, ARTIFICIAL COLOR." Date available: 06/25/2017 Date last updated by company: 06/25/2017
