Source: USDA Branded Food Products Database Release December 2017 Software v.3.8.6.4 2017-10-02
Report Run at: December 17, 2017 07:00 EST
"Nutrient data for: 45252117, KROGER, TAILGATING COLOSSAL CHOCOLATE CHIP COOKIE, UPC: 011110198693"
Food Group:  Branded Food Products Database
Common Name:

Nutrient,Unit,Data points,Std. Error,"0.125 COOKIE = 78.0g",1Value per 100 g,
Proximates
"Energy",kcal,--,--,400,513
"Protein",g,--,--,2.00,2.56
"Total lipid (fat)",g,--,--,19.00,24.36
"Carbohydrate, by difference",g,--,--,53.00,67.95
"Fiber, total dietary",g,--,--,0.0,0.0
"Sugars, total",g,--,--,36.00,46.15
Minerals
"Calcium, Ca",mg,--,--,0,0
"Iron, Fe",mg,--,--,0.92,1.18
"Sodium, Na",mg,--,--,210,269
Vitamins
"Vitamin C, total ascorbic acid",mg,--,--,0.0,0.0
"Vitamin A, IU",IU,--,--,0,0
Lipids
"Fatty acids, total saturated",g,--,--,6.997,8.970
"Fatty acids, total trans",g,--,--,0.000,0.000
"Cholesterol",mg,--,--,10,13
Amino Acids
Other
Ingredients
"COOKIE-ENRICHED FLOUR(WHEAT FLOUR, NIACIN, REDUCED IRON, THIAMIN MONONITRATE, RIBOFLAVIN, FOLIC ACID), SUGAR, PARTIALLY HYDROGENATED SOYBEAN AND/OR COTTONSEED OIL, CHOCOLATE CHIPS(SUGAR, CHOCOLATE LIQUOR, COCOA BUTTER, DEXTROSE, SOY LECITHIN, NATURAL FLAVOR), EGGS, FRUCTOSE, MOLASSES, WATER, CONTAINS 2% OR LESS OF LEAVENING(SODIUM BICARBONATE, SODIUM ALUMINUM PHOSPHATE, MONOCALCIUM PHOSPHATE), SALT, NATURAL & ARTIFICIAL FLAVORS, CORN STARCH, SOY LECITHIN, NONFAT MILK WHITE ICING-SUGAR, VEGETABLE SHORTENING (INTERESTERIFIED SOYBEAN OIL, SOYBEAN OIL, HYDROGENATED COTTONSEED OIL, MONO- AND DIGLYCERIDES, POLYSORBATE 60), CORN SYRUP, WATER, CONTAINS LESS THAN 2% OF SALT, CITRIC ACID, CORNSTARCH, NATURAL AND ARTIFICIAL FLAVOR, DEXTROSE, TITANIUM DIOXIDE (FOR COLOR), POTASSIUM SORBATE(PRESERVATIVE), CHOCOLATE ICING-ALSO CONTAINS-COCOA PROCESSED WITH ALKALI, COLORED ICING-ALSO CONTAINS-SHORTENING(PALM OIL, CANOLA AND/OR SOYBEAN OIL, MONO AND DIGLYCERIDES, POLYSORBATE 60, TBHQ(PRESERVATIVE)], CONTAINS LESS THAT 2% OF GUAR GUM, PHOSPHORIC ACID, SODIUM BENZOATE(PRESERVATIVE), BLUE 1, YELLOW 5, YELLOW 6, RED 40, RED 40 LAKE, RED 3, BLUE 2 LAKE, YELLOW 6 LAKE, IF CHOCOLATE FUDGE ICED ALSO CONTAINS VEGETABLE OIL(PALM, CANOLA), WATER, HIGH FRUCTOSE CORN SYRUP, COCOA(PROCESSED WITH ALKALI), SWEETENED CONDENSED MILK(MILK, SUGAR), MONO AND DIGLYCERIDES, POLYSORBATE 60, SOY LECITHIN IF CARAMEL ICED ALSO CONTAINS-VEGETABLE OIL(PALM). WATER, HIGH FRUCTOSE CORN SYRUP, WHEY (MILK), ARTIFICIAL COLOR, INCLUDING RED 40, MONO AND DIGLYCERIDES, POLYSORBATE 60, SOY LECITHIN" Date available: 10/09/2017 Date last updated by company: 10/09/2017
