Source: USDA Branded Food Products Database Release December 2017 Software v.3.8.6.4 2017-10-02
Report Run at: December 17, 2017 07:04 EST
"Nutrient data for: 45253763, KROGER, WHITE GRAD CAKE WITH ORANGE BORDERS, UPC: 011110193636"
Food Group:  Branded Food Products Database
Common Name:

Nutrient,Unit,Data points,Std. Error,"0.03125 CAKE = 90.0g",1Value per 100 g,
Proximates
"Energy",kcal,--,--,360,400
"Protein",g,--,--,3.00,3.33
"Total lipid (fat)",g,--,--,15.00,16.67
"Carbohydrate, by difference",g,--,--,56.00,62.22
"Fiber, total dietary",g,--,--,0.2,0.2
"Sugars, total",g,--,--,43.00,47.78
Minerals
"Calcium, Ca",mg,--,--,20,22
"Iron, Fe",mg,--,--,0.96,1.07
"Sodium, Na",mg,--,--,340,378
Vitamins
"Vitamin C, total ascorbic acid",mg,--,--,0.0,0.0
"Vitamin A, IU",IU,--,--,0,0
Lipids
"Fatty acids, total saturated",g,--,--,3.996,4.440
"Fatty acids, total trans",g,--,--,0.000,0.000
"Cholesterol",mg,--,--,30,33
Amino Acids
Other
Ingredients
"CAKE SUGAR, ENRICHED BLEACHED FLOUR (BLEACHED WHEAT FLOUR, NIACIN, REDUCED IRON, THIAMINE MONONITRATE, RIBOFLAVIN, FOLIC ACID), WATER, SOYBEAN OIL, EGGS, EGG WHITES, MODIFIED CORN STARCH, CONTAINS 2% OR LESS OF NONFAT MILK, SALT, LEAVENING (SODIUM ACID PYROPHOSPHATE, SODIUM BICARBONATE, CORN STARCH, MONOCALCIUM PHOSPHATE), VITAL WHEAT GLUTEN, EMULSIFIERS (SORBITAN MONOSTEARATE, MONO-AND DIGLYCERIDES, POLYSORBATE 60, SODIUM STEAROYL LACTYLATE, SOY LECITHIN), DEXTROSE, ARTIFICIAL AND NATURAL FLAVORS. WHITE ICING ALSO CONTAINS-VEGETABLE SHORTENING (INTERESTERIFIED SOYBEAN OIL, SOYBEAN OIL, HYDROGENATED COTTONSEED OIL, MONO- AND DIGLYCERIDES, POLYSORBATE 60), CORN SYRUP, CONTAINS 2% OR LESS OF CITRIC ACID, ALPHA TOCOPHEROL, TITANIUM DIOXIDE (FOR COLOR), POTASSIUM SORBATE (PRESERVATIVE), COLORED ICING MAY ALSO CONTAIN-COCOA (PROCESSED WITH ALKALI), SOYBEAN OIL. CONTAINS 2% OR LESS OF MALTODEXTRIN, INVERT SUGAR, HIGH FRUCTOSE CORN SYRUP, YELLOW 5, YELLOW 5 LAKE, YELLOW 6, YELLOW 6 LAKE, RED 3, BLUE 1, BLUE 1 LAKE, RED 40 LAKE, RED 40, MODIFIED CORN STARCH, GUM ARABIC, LOCUST BEAN GUM, CARAMEL COLOR, SODIUM BENZOATE (PRESERVATIVE)." Date available: 10/09/2017 Date last updated by company: 10/09/2017
