Source: USDA Branded Food Products Database Release December 2017 Software v.3.8.6.4 2017-10-02
Report Run at: December 17, 2017 06:36 EST
"Nutrient data for: 45085641, KROGER, EASY BAKE SEASONED COATING MIX, PORK, UPC: 011110708793"
Food Group:  Branded Food Products Database
Common Name:

Nutrient,Unit,Data points,Std. Error,"0.125 PACKET (COATS ABOUT 1 PARK CHOP) = 11.0g",1Value per 100 g,
Proximates
"Energy",kcal,--,--,40,364
"Protein",g,--,--,1.00,9.09
"Total lipid (fat)",g,--,--,0.00,0.00
"Carbohydrate, by difference",g,--,--,8.00,72.73
"Fiber, total dietary",g,--,--,0.0,0.0
"Sugars, total",g,--,--,1.00,9.09
Minerals
"Calcium, Ca",mg,--,--,0,0
"Iron, Fe",mg,--,--,0.00,0.00
"Sodium, Na",mg,--,--,270,2455
Vitamins
"Vitamin C, total ascorbic acid",mg,--,--,0.0,0.0
"Vitamin A, IU",IU,--,--,0,0
Lipids
"Fatty acids, total saturated",g,--,--,0.000,0.000
"Fatty acids, total trans",g,--,--,0.000,0.000
"Cholesterol",mg,--,--,0,0
Amino Acids
Other
Ingredients
"BLEACHED WHEAT FLOUR, SALT, DEXTROSE, DEHYDRATED ONION, SOYBEAN OIL, SUGAR, COLOR (PAPRIKA, CARAMEL), SPICE, YEAST, NATURAL FLAVOR." Date available: 08/16/2017 Date last updated by company: 08/16/2017
