Source: USDA Branded Food Products Database Release December 2017 Software v.3.8.6.4 2017-10-02
Report Run at: December 17, 2017 06:28 EST
"Nutrient data for: 45097354, KROGER, CHEESE RAVIOLI, UPC: 011110853684"
Food Group:  Branded Food Products Database
Common Name:

Nutrient,Unit,Data points,Std. Error,"9.0 PIECES = 145.0g",1Value per 100 g,
Proximates
"Energy",kcal,--,--,280,193
"Protein",g,--,--,12.01,8.28
"Total lipid (fat)",g,--,--,7.00,4.83
"Carbohydrate, by difference",g,--,--,42.01,28.97
"Fiber, total dietary",g,--,--,3.0,2.1
"Sugars, total",g,--,--,3.00,2.07
Minerals
"Calcium, Ca",mg,--,--,100,69
"Iron, Fe",mg,--,--,1.74,1.20
"Sodium, Na",mg,--,--,300,207
Vitamins
"Vitamin C, total ascorbic acid",mg,--,--,0.0,0.0
"Vitamin A, IU",IU,--,--,290,200
Lipids
"Fatty acids, total saturated",g,--,--,4.002,2.760
"Fatty acids, total trans",g,--,--,0.000,0.000
"Cholesterol",mg,--,--,45,31
Amino Acids
Other
Ingredients
"ENRICHED DURUM FLOUR (WHEAT FLOUR, NIACIN, FERROUS SULFATE, THIAMINE MONONITRATE, RIBOFLAVIN, FOLIC ACID), WATER, RICOTTA CHEESE (WHEY, MILK, DISTILLED VINEGAR, STABILIZER [MODIFIED CORN STARCH, GUAR GUM, CARRAGEENAN], SALT), EGGS, CONTAINS LESS THAN 2% OF: PARMESAN CHEESE (PART SKR MILK, CHEESE CULTURES, SALT, ENZYMES), ROMANO CHEESE MADE FROM COW'S MILK (CULTURED MILK, SALT, ENZYMES), BUTTER (CREAM, NATURAL FLAVORINGS), DEHYDRATED GARLIC, DEHYDRATED ONION, PARSLEY, MODIFIED CORN STARCH, SALT, CITRIC ACID (FOR FLAVOR)." Date available: 06/25/2017 Date last updated by company: 06/25/2017
