Source: USDA Branded Food Products Database Release December 2017 Software v.3.8.6.4 2017-10-02
Report Run at: December 17, 2017 06:42 EST
"Nutrient data for: 45171553, KROGER, HAZEL NUT, UPC: 011110874733"
Food Group:  Branded Food Products Database
Common Name:

Nutrient,Unit,Data points,Std. Error,"1 Tbsp = 15.0g",1Value per 100 g,
Proximates
"Energy",kcal,--,--,30,200
"Protein",g,--,--,0.00,0.00
"Total lipid (fat)",g,--,--,0.00,0.00
"Carbohydrate, by difference",g,--,--,6.00,40.00
"Fiber, total dietary",g,--,--,0.0,0.0
"Sugars, total",g,--,--,6.00,40.00
Minerals
"Calcium, Ca",mg,--,--,0,0
"Iron, Fe",mg,--,--,0.00,0.00
"Sodium, Na",mg,--,--,0,0
Vitamins
"Vitamin C, total ascorbic acid",mg,--,--,0.0,0.0
"Vitamin A, IU",IU,--,--,0,0
Lipids
"Fatty acids, total saturated",g,--,--,0.000,0.000
"Fatty acids, total monounsaturated",g,--,--,0.000,0.000
"Fatty acids, total polyunsaturated",g,--,--,0.000,0.000
"Fatty acids, total trans",g,--,--,0.000,0.000
"Cholesterol",mg,--,--,0,0
Amino Acids
Other
Ingredients
"WATER, SUGAR, CORN SYRUP SOLIDS, HIGH OLEIC SOYBEAN OIL*, LESS THAN 2% OF: SODIUM CASEINATE (A MILK DERIVATIVE)**, DIPOTASSIUM PHOSPHATE, TITANIUM DIOXIDE (FOR COLOR), NATURAL AND ARTIFICIAL FLAVOR, DATEM, CARRAGEENAN, POLYSORBATE 60, MIXED TOCOPHEROLS (FOR FRESHNESS)." Date available: 07/14/2017 Date last updated by company: 07/14/2017
