Source: USDA Branded Food Products Database Release December 2017 Software v.3.8.6.4 2017-10-02
Report Run at: December 17, 2017 07:02 EST
"Nutrient data for: 45065989, KROGER, TURKEY BACON PIECES, HICKORY SMOKE, UPC: 011110800084"
Food Group:  Branded Food Products Database
Common Name:

Nutrient,Unit,Data points,Std. Error,"1 Tbsp = 7.0g",1Value per 100 g,
Proximates
"Energy",kcal,--,--,25,357
"Protein",g,--,--,2.00,28.57
"Total lipid (fat)",g,--,--,2.00,28.57
"Carbohydrate, by difference",g,--,--,0.00,0.00
"Fiber, total dietary",g,--,--,0.0,0.0
"Sugars, total",g,--,--,0.00,0.00
Minerals
"Sodium, Na",mg,--,--,130,1857
Vitamins
Lipids
"Fatty acids, total saturated",g,--,--,0.000,0.000
"Fatty acids, total trans",g,--,--,0.000,0.000
"Cholesterol",mg,--,--,10,143
Amino Acids
Other
Ingredients
"TURKEY, MECHANICALLY SEPARATED TURKEY, WATER, SALT, SUGAR, FLAVORING (SALT, SUGAR, MALTODEXTRIN, NATURAL SMOKE FLAVOR, SPICE), SODIUM PHOSPHATE, SODIUM ERYTHORBATE, SODIUM NITRITE." Date available: 07/14/2017 Date last updated by company: 07/14/2017
