Source: USDA Branded Food Products Database Release December 2017 Software v.3.8.6.4 2017-10-02
Report Run at: December 17, 2017 07:03 EST
"Nutrient data for: 45085636, KROGER, WHIPPED TOPPING MIX, UPC: 011110003805"
Food Group:  Branded Food Products Database
Common Name:

Nutrient,Unit,Data points,Std. Error,"0.083 POUCH DRY MIX = 3.0g",1Value per 100 g,
Proximates
"Energy",kcal,--,--,15,500
"Protein",g,--,--,0.00,0.00
"Total lipid (fat)",g,--,--,1.00,33.33
"Carbohydrate, by difference",g,--,--,2.00,66.67
"Fiber, total dietary",g,--,--,0.0,0.0
"Sugars, total",g,--,--,2.00,66.67
Minerals
"Calcium, Ca",mg,--,--,0,0
"Iron, Fe",mg,--,--,0.00,0.00
"Sodium, Na",mg,--,--,0,0
Vitamins
"Vitamin C, total ascorbic acid",mg,--,--,0.0,0.0
"Vitamin A, IU",IU,--,--,0,0
Lipids
"Fatty acids, total saturated",g,--,--,1.000,33.330
"Fatty acids, total trans",g,--,--,0.000,0.000
"Cholesterol",mg,--,--,0,0
Amino Acids
Other
Ingredients
"SUGAR, PARTIALLY HYDROGENATED VEGETABLE OILS (COCONUT, PALM KERNEL, PALM, SOYBEAN OILS), CORN SYRUP SOLIDS, PROPYLENE GLYCOL MONOSTEARATE, SODIUM CASEINATE (MILK DERIVATIVE), ACETYLATED MONOGLYCERIDES, MONO-AND DIGLYCERIDES, ARTIFICIAL FLAVOR." Date available: 06/25/2017 Date last updated by company: 06/25/2017
