Source: USDA Branded Food Products Database Release December 2017 Software v.3.8.6.4 2017-10-02
Report Run at: December 17, 2017 06:41 EST
"Nutrient data for: 45086782, KROGER, GRILL TIME, CHICKEN SEASONING, UPC: 011110711847"
Food Group:  Branded Food Products Database
Common Name:

Nutrient,Unit,Data points,Std. Error,"0.25 tsp = 0.7g",1Value per 100 g,
Proximates
"Energy",kcal,--,--,0,0
"Protein",g,--,--,0.00,0.00
"Total lipid (fat)",g,--,--,0.00,0.00
"Carbohydrate, by difference",g,--,--,0.00,0.00
Minerals
"Sodium, Na",mg,--,--,75,10714
Vitamins
Lipids
Amino Acids
Other
Ingredients
"GARLIC*, SALT, ONION*, SPICES (BLACK PEPPER, SAGE, THYME, ROSEMARY, RED PEPPER), PARSLEY*, ORANGE PEEL*, PAPRIKA, GREEN BELL PEPPER (SULFUR DIOXIDE FOR COLOR RETENTION.)" Date available: 07/14/2017 Date last updated by company: 07/14/2017
