Source: USDA Branded Food Products Database Release December 2017 Software v.3.8.6.4 2017-10-02
Report Run at: December 17, 2017 06:36 EST
"Nutrient data for: 45113306, KROGER, ENGLISH MUFFINS, SOUR DOUGH, UPC: 011110025302"
Food Group:  Branded Food Products Database
Common Name:

Nutrient,Unit,Data points,Std. Error,"1 MUFFIN = 57.0g",1Value per 100 g,
Proximates
"Energy",kcal,--,--,140,246
"Protein",g,--,--,4.00,7.02
"Total lipid (fat)",g,--,--,0.50,0.88
"Carbohydrate, by difference",g,--,--,27.00,47.37
"Fiber, total dietary",g,--,--,1.0,1.8
"Sugars, total",g,--,--,1.00,1.75
Minerals
"Calcium, Ca",mg,--,--,80,140
"Iron, Fe",mg,--,--,1.74,3.05
"Sodium, Na",mg,--,--,270,474
Vitamins
"Vitamin C, total ascorbic acid",mg,--,--,0.0,0.0
"Vitamin A, IU",IU,--,--,0,0
Lipids
"Fatty acids, total saturated",g,--,--,0.000,0.000
"Fatty acids, total monounsaturated",g,--,--,0.000,0.000
"Fatty acids, total polyunsaturated",g,--,--,0.502,0.880
"Fatty acids, total trans",g,--,--,0.000,0.000
"Cholesterol",mg,--,--,0,0
Amino Acids
Other
Ingredients
"ENRICHED FLOUR (WHEAT FLOUR, BARLEY MALT, NIACIN, REDUCED IRON, THIAMINE MONONITRATE, RIBOFLAVIN, FOLIC ACID), WATER, YEAST. CONTAINS 2% OR LESS OF SALT, CORN MEAL, HIGH FRUCTOSE CORN SYRUP, RYE FLOUR, VINEGAR, SOYBEAN OIL, CITRIC ACID, CALCIUM CITRATE, SOY FLOUR. SORBIC ACID AND CALCIUM PROPIONATE (PRESERVATIVES), ENZYMES" Date available: 07/28/2017 Date last updated by company: 07/28/2017
