Source: USDA Branded Food Products Database Release December 2017 Software v.3.8.6.4 2017-10-02
Report Run at: December 17, 2017 07:04 EST
"Nutrient data for: 45102462, KROGER, WHITE HAMBURGER ENRICHED BUNS, UPC: 011110026460"
Food Group:  Branded Food Products Database
Common Name:

Nutrient,Unit,Data points,Std. Error,"1 BUN = 43.0g",1Value per 100 g,
Proximates
"Energy",kcal,--,--,80,186
"Protein",g,--,--,4.00,9.30
"Total lipid (fat)",g,--,--,0.50,1.16
"Carbohydrate, by difference",g,--,--,19.00,44.19
"Fiber, total dietary",g,--,--,4.0,9.3
"Sugars, total",g,--,--,2.00,4.65
Minerals
"Calcium, Ca",mg,--,--,300,698
"Iron, Fe",mg,--,--,0.84,1.95
"Sodium, Na",mg,--,--,210,488
Vitamins
"Vitamin C, total ascorbic acid",mg,--,--,0.0,0.0
"Thiamin",mg,--,--,0.430,1.000
"Riboflavin",mg,--,--,0.340,0.791
"Niacin",mg,--,--,0.466,1.084
"Vitamin A, IU",IU,--,--,0,0
Lipids
"Fatty acids, total saturated",g,--,--,0.000,0.000
"Fatty acids, total monounsaturated",g,--,--,0.000,0.000
"Fatty acids, total polyunsaturated",g,--,--,0.000,0.000
"Fatty acids, total trans",g,--,--,0.000,0.000
"Cholesterol",mg,--,--,0,0
Amino Acids
Other
Ingredients
"WATER, ENRICHED FLOUR (WHEAT FLOUR, MALTED BARLEY, NIACIN, REDUCED IRON, THIAMINE MONONITRATE, RIBOFLAVIN, FOLIC ACID), SOY FIBER, HIGH FRUCTOSE CORN SYRUP, WHEAT GLUTEN, OAT FIBER, CALCIUM SULFATE, YEAST. CONTAINS 2% OR LESS OF: SALT, VINEGAR, SOY FLOUR, SOYBEAN OIL, SODIUM STEAROYL LACTYLATE, GUAR GUM, MONO- AND DIGLYCERIDES, AMMONIUM SULFATE, ASCORBIC ACID, CALCIUM IODATE, CALCIUM PROPIONATE (PRESERVATIVE)." Date available: 06/25/2017 Date last updated by company: 06/25/2017
