Source: USDA Branded Food Products Database Release December 2017 Software v.3.8.6.4 2017-10-02
Report Run at: December 17, 2017 06:52 EST
"Nutrient data for: 45092915, KROGER, PORK SAUSAGE LINKS, MAPLE, UPC: 011110972927"
Food Group:  Branded Food Products Database
Common Name:

Nutrient,Unit,Data points,Std. Error,"3.0 PAN FRIED LINKS = 55.0g",1Value per 100 g,
Proximates
"Energy",kcal,--,--,170,309
"Protein",g,--,--,10.00,18.18
"Total lipid (fat)",g,--,--,13.00,23.64
"Carbohydrate, by difference",g,--,--,3.00,5.45
"Fiber, total dietary",g,--,--,0.0,0.0
"Sugars, total",g,--,--,2.00,3.64
Minerals
"Calcium, Ca",mg,--,--,0,0
"Iron, Fe",mg,--,--,0.72,1.31
"Potassium, K",mg,--,--,60,109
"Sodium, Na",mg,--,--,570,1036
Vitamins
"Vitamin C, total ascorbic acid",mg,--,--,0.0,0.0
"Vitamin A, IU",IU,--,--,0,0
Lipids
"Fatty acids, total saturated",g,--,--,3.998,7.270
"Fatty acids, total trans",g,--,--,0.000,0.000
"Cholesterol",mg,--,--,45,82
Amino Acids
Other
Ingredients
"PORK, WATER, CONTAINS 2% OR LESS OF: SALT, SODIUM LACTATE, SUGAR, DEXTROSE, NATURAL AND ARTIFICIAL MAPLE FLAVOR (CONTAINS SUGAR, CORN SYRUP), MALTODEXTRIN, POTASSIUM CHLORIDE, NATURAL FLAVORS, CARAMEL COLOR, OLEORESIN CAPSICUM, SPICES, CORN OIL, CALCIUM STEARATE, SILICON DIOXIDE, ENCASED IN COLLAGEN CASINGS." Date available: 06/25/2017 Date last updated by company: 06/25/2017
