Source: USDA Branded Food Products Database Release December 2017 Software v.3.8.6.4 2017-10-02
Report Run at: December 17, 2017 06:50 EST
"Nutrient data for: 45121619, KROGER, NATURAL CUT POTATO WEDGES, UPC: 011110875723"
Food Group:  Branded Food Products Database
Common Name:

Nutrient,Unit,Data points,Std. Error,"9.0 WEDGES = 85.0g",1Value per 100 g,
Proximates
"Energy",kcal,--,--,110,129
"Protein",g,--,--,2.00,2.35
"Total lipid (fat)",g,--,--,3.00,3.53
"Carbohydrate, by difference",g,--,--,17.00,20.00
"Fiber, total dietary",g,--,--,2.0,2.4
"Sugars, total",g,--,--,0.00,0.00
Minerals
"Calcium, Ca",mg,--,--,0,0
"Iron, Fe",mg,--,--,0.72,0.85
"Potassium, K",mg,--,--,310,365
"Sodium, Na",mg,--,--,260,306
Vitamins
"Vitamin C, total ascorbic acid",mg,--,--,6.0,7.1
"Vitamin A, IU",IU,--,--,0,0
Lipids
"Fatty acids, total saturated",g,--,--,0.000,0.000
"Fatty acids, total monounsaturated",g,--,--,1.496,1.760
"Fatty acids, total polyunsaturated",g,--,--,1.003,1.180
"Fatty acids, total trans",g,--,--,0.000,0.000
"Cholesterol",mg,--,--,0,0
Amino Acids
Other
Ingredients
"POTATOES, VEGETABLE OIL (CONTAINS ONE OR MORE OF THE FOLLOWING OILS, CANOLA, SOYBEAN, COTTONSEED, SUNFLOWER, CORN). CONTAINS 2% OR LESS OF ANNATTO (COLOR), CARAMEL COLOR, DEXTROSE, SALT, SODIUM ACID PYROPHOSPHATE ADDED TO MAINTAIN COLOR." Date available: 08/16/2017 Date last updated by company: 08/16/2017
