Source: USDA Branded Food Products Database Release December 2017 Software v.3.8.6.4 2017-10-02
Report Run at: December 17, 2017 06:43 EST
"Nutrient data for: 45139134, KROGER, ICED COFFEE BEVERAGE, VANILLA, UPC: 011110857187"
Food Group:  Branded Food Products Database
Common Name:

Nutrient,Unit,Data points,Std. Error,"1 cup = 240.0g",1Value per 100 g,
Proximates
"Energy",kcal,--,--,139,58
"Protein",g,--,--,1.99,0.83
"Total lipid (fat)",g,--,--,2.50,1.04
"Carbohydrate, by difference",g,--,--,27.00,11.25
"Fiber, total dietary",g,--,--,0.0,0.0
"Sugars, total",g,--,--,21.00,8.75
Minerals
"Calcium, Ca",mg,--,--,79,33
"Iron, Fe",mg,--,--,0.00,0.00
"Sodium, Na",mg,--,--,125,52
Vitamins
"Vitamin C, total ascorbic acid",mg,--,--,0.0,0.0
"Vitamin A, IU",IU,--,--,149,62
Lipids
"Fatty acids, total saturated",g,--,--,1.488,0.620
"Fatty acids, total trans",g,--,--,0.000,0.000
"Cholesterol",mg,--,--,10,4
Amino Acids
Other
Ingredients
"COFFEE (WATER, COFFEE EXTRACT), MILK, SUGAR, CORN SYRUP, WHEY, CREAM, CONTAINS LESS THAN 1% OF: CARRAGEENAN, NATURAL AND ARTIFICIAL FLAVOR, GELLAN GUM, SODIUM CITRATE, CARAMEL COLOR." Date available: 07/14/2017 Date last updated by company: 07/14/2017
