Source: USDA Branded Food Products Database Release December 2017 Software v.3.8.6.4 2017-10-02
Report Run at: December 17, 2017 06:27 EST
"Nutrient data for: 45138270, KROGER, CARBMASTER, ULTRA-FILTERED NONFAT MILK, CHOCOLATE, UPC: 011110502094"
Food Group:  Branded Food Products Database
Common Name:

Nutrient,Unit,Data points,Std. Error,"8.0 OZA = 240.0g",1Value per 100 g,
Proximates
"Energy",kcal,--,--,79,33
"Protein",g,--,--,10.99,4.58
"Total lipid (fat)",g,--,--,0.00,0.00
"Carbohydrate, by difference",g,--,--,7.01,2.92
"Fiber, total dietary",g,--,--,1.0,0.4
"Sugars, total",g,--,--,6.00,2.50
Minerals
"Calcium, Ca",mg,--,--,401,167
"Iron, Fe",mg,--,--,0.36,0.15
"Sodium, Na",mg,--,--,211,88
Vitamins
"Vitamin C, total ascorbic acid",mg,--,--,0.0,0.0
"Vitamin A, IU",IU,--,--,749,312
"Vitamin D",IU,--,--,101,42
Lipids
"Fatty acids, total saturated",g,--,--,0.000,0.000
"Fatty acids, total trans",g,--,--,0.000,0.000
"Cholesterol",mg,--,--,5,2
Amino Acids
Other
Ingredients
"ULTRAFILTERED NONFAT MILK, COCOA PROCESSED WITH ALKALI, SUCRALOSE*, LACTASE ENZYME*, NATURAL & ARTIFICIAL FLAVOR, SALT. CARRAGEENAN, ACESULFAME 0 POTASSIUM*, VITAMIN A PALMITATE, VITAMIN D3." Date available: 06/25/2017 Date last updated by company: 06/25/2017
