Source: USDA Branded Food Products Database Release December 2017 Software v.3.8.6.4 2017-10-02
Report Run at: December 17, 2017 06:28 EST
"Nutrient data for: 45103079, KROGER, CHICKEN NOODLE CONDENSED SOUP, UPC: 011110836915"
Food Group:  Branded Food Products Database
Common Name:

Nutrient,Unit,Data points,Std. Error,"0.5 cup = 123.0g",1Value per 100 g,
Proximates
"Energy",kcal,--,--,70,57
"Protein",g,--,--,3.00,2.44
"Total lipid (fat)",g,--,--,2.00,1.63
"Carbohydrate, by difference",g,--,--,10.00,8.13
"Fiber, total dietary",g,--,--,0.0,0.0
"Sugars, total",g,--,--,0.00,0.00
Minerals
"Calcium, Ca",mg,--,--,0,0
"Iron, Fe",mg,--,--,0.71,0.58
"Sodium, Na",mg,--,--,649,528
Vitamins
"Vitamin C, total ascorbic acid",mg,--,--,0.0,0.0
"Vitamin A, IU",IU,--,--,598,486
Lipids
"Fatty acids, total saturated",g,--,--,0.504,0.410
"Fatty acids, total trans",g,--,--,0.000,0.000
"Cholesterol",mg,--,--,15,12
Amino Acids
Other
Ingredients
"CHICKEN BROTH, ENRICHED EGG NOODLES (ENRICHED DURUM WHEAT FLOUR, NIACIN FERROUS SULFATE, THIAMIN MONONITRATE, RIBOFLAVIN, FOLIC ACID), WHOLE EGG, EGG WHITES, COOKED CHICKEN MEAT, CONTAINS 2% OR LESS OF CORN STARCH, SALT, CHICKEN FAT, MECHANICALLY SEPARATED CHICKEN, POTASSIUM, CHLORIDE, YEAST EXTRACT, NATURAL FLAVOR, DEXTROSE, GARLIC POWDER, ONION POWDER, MALTODEXTRIN, BETA CAROTENE (COLOR), SODIUM PHOSPHATE FLAVOR, SOY LECITHIN." Date available: 06/25/2017 Date last updated by company: 06/25/2017
