Source: USDA Branded Food Products Database Release December 2017 Software v.3.8.6.4 2017-10-02
Report Run at: December 17, 2017 06:50 EST
"Nutrient data for: 45087080, KROGER, OLD FASHIONED LEMONADE DRINK MIX, UPC: 011110871640"
Food Group:  Branded Food Products Database
Common Name:

Nutrient,Unit,Data points,Std. Error,"0.12 CAP = 17.0g",1Value per 100 g,
Proximates
"Energy",kcal,--,--,60,353
"Protein",g,--,--,0.00,0.00
"Total lipid (fat)",g,--,--,0.00,0.00
"Carbohydrate, by difference",g,--,--,16.00,94.12
"Fiber, total dietary",g,--,--,0.0,0.0
"Sugars, total",g,--,--,16.00,94.12
Minerals
"Calcium, Ca",mg,--,--,0,0
"Iron, Fe",mg,--,--,0.00,0.00
"Sodium, Na",mg,--,--,20,118
Vitamins
"Vitamin C, total ascorbic acid",mg,--,--,0.0,0.0
"Vitamin A, IU",IU,--,--,0,0
Lipids
"Fatty acids, total saturated",g,--,--,0.000,0.000
"Fatty acids, total trans",g,--,--,0.000,0.000
"Cholesterol",mg,--,--,0,0
Amino Acids
Other
Ingredients
"SUGAR, FRUCTOSE, CITRIC ACID (PROVIDES TARTNESS), CONTAINS LESS THAN 2% OF: ASCORBIC ACID(VITAMIN C), MODIFIED CORN STARCH, DEXTRIN, SODIUM CITRATE AND POTASSIUM CITRATE (CONTROLS ACIDITY), NATURAL FLAVOR, MALTODEXTRIN, XANTHAN GUM, SILICON DIOXIDE (PREVENTS CAKING), ARTIFICIAL COLOR, BHA, DL-ALPHA-TOCOPHEROL, YELLOW 5 LAKE." Date available: 06/25/2017 Date last updated by company: 06/25/2017
