Source: USDA Branded Food Products Database Release December 2017 Software v.3.8.6.4 2017-10-02
Report Run at: December 17, 2017 07:09 EST
"Nutrient data for: 45325867, KUNG PAO SAUCE, UPC: 011225191404"
Food Group:  Branded Food Products Database
Common Name:

Nutrient,Unit,Data points,Std. Error,"0.25 cup = 60.0g",1Value per 100 g,
Proximates
"Energy",kcal,--,--,120,200
"Protein",g,--,--,2.00,3.33
"Total lipid (fat)",g,--,--,1.50,2.50
"Carbohydrate, by difference",g,--,--,22.00,36.67
"Fiber, total dietary",g,--,--,0.0,0.0
"Sugars, total",g,--,--,16.00,26.67
Minerals
"Calcium, Ca",mg,--,--,20,33
"Iron, Fe",mg,--,--,0.00,0.00
"Potassium, K",mg,--,--,116,194
"Sodium, Na",mg,--,--,760,1267
Vitamins
"Vitamin D",IU,--,--,0,0
Lipids
"Fatty acids, total saturated",g,--,--,0.000,0.000
"Fatty acids, total trans",g,--,--,0.000,0.000
"Cholesterol",mg,--,--,0,0
Amino Acids
Other
Ingredients
"SOY SAUCE (WATER, WHEAT, SOYBEANS, SALT, SUGAR, SEASONING, LACTIC ACID, SODIUM BENZOATE - PRESERVATIVE), WATER, SUGAR, GARLIC, GINGER, COOKING WINE (CORN SYRUP, WATER, RICE SEASONING, DISTILLED VINEGAR, FERMENTED WHEAT PROTEIN, FLAVOR, CALCIUM CARBONATE, SOY SAUCE [WATER, WHEAT, SOYBEANS, SALT], SODIUM BENZOATE - PRESERVATIVE), RICE VINEGAR, MODIFIED CORN STARCH, SESAME OIL, PEANUT OIL, ONIONS, POTASSIUM CHLORIDE, XANTHAN GUM, POTASSIUM SORBATE (PRESERVATIVE), SPICE, FLAVOR." Date available: 08/11/2017 Date last updated by company: 08/11/2017
