Source: USDA Branded Food Products Database Release December 2017 Software v.3.8.6.4 2017-10-02
Report Run at: December 17, 2017 09:45 EST
"Nutrient data for: 45265350, L'IL GRAB SUNFLOWER SEEDS, UPC: 028400598170"
Food Group:  Branded Food Products Database
Common Name:

Nutrient,Unit,Data points,Std. Error,"1 PACKAGE = 19.8g",1Value per 100 g,
Proximates
"Energy",kcal,--,--,120,606
"Protein",g,--,--,4.00,20.20
"Total lipid (fat)",g,--,--,9.00,45.45
"Carbohydrate, by difference",g,--,--,4.00,20.20
"Fiber, total dietary",g,--,--,2.0,10.1
"Sugars, total",g,--,--,1.00,5.05
Minerals
"Calcium, Ca",mg,--,--,20,101
"Iron, Fe",mg,--,--,0.72,3.64
"Sodium, Na",mg,--,--,440,2222
Vitamins
"Vitamin C, total ascorbic acid",mg,--,--,0.0,0.0
"Vitamin A, IU",IU,--,--,0,0
Lipids
"Fatty acids, total saturated",g,--,--,1.501,7.580
"Fatty acids, total monounsaturated",g,--,--,2.000,10.100
"Fatty acids, total polyunsaturated",g,--,--,5.999,30.300
"Fatty acids, total trans",g,--,--,0.000,0.000
"Cholesterol",mg,--,--,0,0
Amino Acids
Other
Ingredients
"SUNFLOWER SEEDS, SALT, SEA SALT, SODIUM DIACETATE, MALTODEXTRIN (MADE FROM CORN), SUGAR, MONOSODIUM GLUTAMATE, DILL WEED, OLIVE OIL, CITRIC ACID, AND NATURAL FLAVORS (INCLUDING NATURAL EXTRACTIVES OF DILL WEED)." Date available: 01/13/2017 Date last updated by company: 01/13/2017
