Source: USDA Branded Food Products Database Release December 2017 Software v.3.8.6.4 2017-10-02
Report Run at: December 17, 2017 07:12 EST
"Nutrient data for: 45171382, LA BREA BAKERY, SLICED WHITE ARTISAN SANDWICH BREAD, UPC: 013087901207"
Food Group:  Branded Food Products Database
Common Name:

Nutrient,Unit,Data points,Std. Error,"2.0 SLICES = 49.0g",1Value per 100 g,
Proximates
"Energy",kcal,--,--,130,265
"Protein",g,--,--,1.00,2.04
"Total lipid (fat)",g,--,--,3.00,6.12
"Carbohydrate, by difference",g,--,--,26.00,53.06
"Fiber, total dietary",g,--,--,2.0,4.1
"Sugars, total",g,--,--,3.00,6.12
Minerals
"Calcium, Ca",mg,--,--,60,122
"Iron, Fe",mg,--,--,1.84,3.75
"Sodium, Na",mg,--,--,310,633
Vitamins
"Vitamin C, total ascorbic acid",mg,--,--,0.0,0.0
"Vitamin A, IU",IU,--,--,0,0
Lipids
"Fatty acids, total saturated",g,--,--,0.000,0.000
"Fatty acids, total trans",g,--,--,0.000,0.000
"Cholesterol",mg,--,--,0,0
Amino Acids
Other
Ingredients
"WATER, GLUTEN-FREE BLEND (CORN STARCH, MODIFIED TAPIOCA STARCH, TAPIOCA STARCH, POTATO STARCH, SORGHUM FLOUR, RICE FOUR, AMARANTH FLOUR), CANOLA OIL, SUGAR, PSYLLIUM, CONTAINS 2% OR LESS OF: YEAST, DRIED EGG WHITE, INVERT SUGAR, MODIFIED CELLULOSE GUM, SALT, CULTURED CORN SYRUP SOLIDS, CELLULOSE POWDER, XANTHAN GUM, ENZYMES, NIACIN, REDUCED IRON, THIAMINE MONONITRATE, RIBOFLAVIN, FOLIC ACID." Date available: 07/14/2017 Date last updated by company: 07/14/2017
