Source: USDA Branded Food Products Database Release December 2017 Software v.3.8.6.4 2017-10-02
Report Run at: December 17, 2017 07:12 EST
"Nutrient data for: 45176177, LA BREE'S BAKERY, HAPPY ST.PATRICK'S DAY GREEN & WHITE MIN CUPCAKES, UPC: 074555038849"
Food Group:  Branded Food Products Database
Common Name:

Nutrient,Unit,Data points,Std. Error,"3.0 PIECES = 74.0g",1Value per 100 g,
Proximates
"Energy",kcal,--,--,300,405
"Protein",g,--,--,2.00,2.70
"Total lipid (fat)",g,--,--,16.00,21.62
"Carbohydrate, by difference",g,--,--,41.00,55.41
"Fiber, total dietary",g,--,--,1.0,1.4
"Sugars, total",g,--,--,31.00,41.89
Minerals
"Calcium, Ca",mg,--,--,20,27
"Iron, Fe",mg,--,--,2.43,3.29
"Sodium, Na",mg,--,--,260,351
Vitamins
"Vitamin C, total ascorbic acid",mg,--,--,0.0,0.0
"Vitamin A, IU",IU,--,--,169,228
Lipids
"Fatty acids, total saturated",g,--,--,6.001,8.110
"Fatty acids, total trans",g,--,--,0.000,0.000
"Cholesterol",mg,--,--,20,27
Amino Acids
Other
Ingredients
"CAKE [SUGAR, BLEACHED ENRICHED WHEAT FLOUR (FLOUR, NIACIN, IRON, THIAMINE MONONITRATE, RIBOFLAVIN, FOLIC ACID), WATER, EGGS, SOYBEAN OIL, VEGETABLE SHORTENING (PALM OIL, MONO AND DIGLYCERIDES, POLYSORBATE 60), CORN SYRUP, FOOD STARCH-MODIFIED, WHEY, VITAL WHEAT GLUTEN, SALT, SODIUM ALUMINUM PHOSPHATE, DEXTROSE, TITANIUM DIOXIDE, SODIUM PROPIONATE AND POTASSIUM SORBATE (PRESERVATIVES), OLEYL LACTYLIC ACID, SODIUM BICARBONATE, SORBITAN MONOSTEARATE, POLYSORBATE 60, PROPYLENE GLYCOL MONOESTERS, MONO AND DIGLYCERIDES, DATEM, BETA CAROTENE, SOY LECITHIN, ARTIFICIAL FLAVOR, YELLOW 5, YELLOW 6, RED 40, RED 3, GREEN 3, BLUE 1 GUM ARABIC, CITRIC ACID, XANTHAN GUM, PHOSPHORIC ACID], ICING [SUGAR, VEGETABLE SHORTENING (PALM OIL, MONO AND DIGLYCERIDES, POLYSORBATE 60), WATER, COCOA (PROCESSED WITH ALKALI), CORN SYRUP, GLYCERIN, CORN STARCH, FOOD STARCH-MODIFIED, GUAR GUM, NATURAL AND ARTIFICIAL VANILLA AND BUTTER FLAVORS, SALT, SORBITAN MONOSTEARATE, POLYSORBATE 60, MONOGLYCERIDES, PHOSPHORIC ACID, SODIUM PROPIONATE AND POTASSIUM SORBATE (PRESERVATIVES), GUM ARABIC, CITRIC ACID, XANTHAN GUM, YELLOW 5, YELLOW 6, RED 40, GREEN 3, BLUE 1, RED 3], TOPPINGS [SUGAR, CORN STARCH, MODIFIED CORN STARCH, PALM KERNEL OIL, SOY LECITHIN, COCOA (PROCESSED WITH ALKALI), GLUCOSE, NATURAL AND ARTIFICIAL FLAVOR, GUM ARABIC, BLUE 1, RED 40, RED 3, YELLOW 5, YELLOW 6, YELLOW LAKE 6, POLYSORBATE 60, SALT, SUGAR GLAZE.]." Date available: 07/14/2017 Date last updated by company: 07/14/2017
