Source: USDA Branded Food Products Database Release December 2017 Software v.3.8.6.4 2017-10-02
Report Run at: December 17, 2017 07:14 EST
"Nutrient data for: 45102528, LA CHONA, CREMA SOUR CREAM, UPC: 616594507131"
Food Group:  Branded Food Products Database
Common Name:

Nutrient,Unit,Data points,Std. Error,"2.0 Tbsp = 30.0g",1Value per 100 g,
Proximates
"Energy",kcal,--,--,60,200
"Protein",g,--,--,1.00,3.33
"Total lipid (fat)",g,--,--,6.00,20.00
"Carbohydrate, by difference",g,--,--,2.00,6.67
"Fiber, total dietary",g,--,--,0.0,0.0
"Sugars, total",g,--,--,1.00,3.33
Minerals
"Calcium, Ca",mg,--,--,40,133
"Iron, Fe",mg,--,--,0.00,0.00
"Sodium, Na",mg,--,--,45,150
Vitamins
"Vitamin C, total ascorbic acid",mg,--,--,0.0,0.0
"Vitamin A, IU",IU,--,--,334,1112
Lipids
"Fatty acids, total saturated",g,--,--,3.501,11.670
"Fatty acids, total trans",g,--,--,0.000,0.000
"Cholesterol",mg,--,--,20,67
Amino Acids
Other
Ingredients
"CULTURED MILK, CREAM, CONTAINS LESS THAN 2% OF: WHEY, FOOD STARCH - MODIFIED (CORN), SODIUM PHOSPHATE (SODIUM TRIPOLYPHOSPHATE), GUAR GUM, CARRAGEENAN, CALCIUM SULFATE, LOCUST BEAN GUM, POTASSIUM SORBATE (PRESERVATIVE)." Date available: 06/25/2017 Date last updated by company: 06/25/2017
