Source: USDA Branded Food Products Database Release December 2017 Software v.3.8.6.4 2017-10-02
Report Run at: December 17, 2017 07:21 EST
"Nutrient data for: 45181519, LA FE, EDAMAME, UPC: 023545104774"
Food Group:  Branded Food Products Database
Common Name:

Nutrient,Unit,Data points,Std. Error,"0.67 cup = 85.0g",1Value per 100 g,
Proximates
"Energy",kcal,--,--,110,129
"Protein",g,--,--,11.00,12.94
"Total lipid (fat)",g,--,--,5.00,5.88
"Carbohydrate, by difference",g,--,--,7.00,8.24
"Fiber, total dietary",g,--,--,4.0,4.7
"Sugars, total",g,--,--,1.00,1.18
Minerals
"Calcium, Ca",mg,--,--,60,71
"Iron, Fe",mg,--,--,1.80,2.12
"Potassium, K",mg,--,--,280,329
"Sodium, Na",mg,--,--,0,0
Vitamins
"Vitamin C, total ascorbic acid",mg,--,--,6.0,7.1
"Vitamin A, IU",IU,--,--,0,0
Lipids
"Fatty acids, total saturated",g,--,--,1.003,1.180
"Fatty acids, total monounsaturated",g,--,--,1.003,1.180
"Fatty acids, total polyunsaturated",g,--,--,1.003,1.180
"Fatty acids, total trans",g,--,--,0.000,0.000
"Cholesterol",mg,--,--,0,0
Amino Acids
Other
Ingredients
"EDAMAME BEANS." Date available: 07/14/2017 Date last updated by company: 07/14/2017
