Source: USDA Branded Food Products Database Release December 2017 Software v.3.8.6.4 2017-10-02
Report Run at: December 17, 2017 07:24 EST
"Nutrient data for: 45030802, LA FLOR, CULANTRO Y ACHIOTE SAZON SEASONING, UPC: 077636025059"
Food Group:  Branded Food Products Database
Common Name:

Nutrient,Unit,Data points,Std. Error,"0.25 tsp = 1.0g",1Value per 100 g,
Proximates
"Energy",kcal,--,--,3,300
"Protein",g,--,--,0.00,0.00
"Total lipid (fat)",g,--,--,0.00,0.00
"Carbohydrate, by difference",g,--,--,1.00,100.00
"Fiber, total dietary",g,--,--,0.0,0.0
"Sugars, total",g,--,--,0.00,0.00
Minerals
"Sodium, Na",mg,--,--,172,17200
Vitamins
Lipids
"Fatty acids, total saturated",g,--,--,0.000,0.000
"Cholesterol",mg,--,--,0,0
Amino Acids
Other
Ingredients
"SALT, CORN STARCH MALTODEXTRIN, GARLIC DEHYDRATED, CUMIN, YELLOW #5, CORIANDER, ANNATTO, RED #40, DISODIUM INOSINATE, DISODIUM GUANYLATE AND NOT MORE THAN 2% SILICON DIOXIDE ADDED." Date available: 06/24/2017 Date last updated by company: 06/24/2017
