Source: USDA Branded Food Products Database Release December 2017 Software v.3.8.6.4 2017-10-02
Report Run at: December 17, 2017 07:25 EST
"Nutrient data for: 45163254, LA GUACAMAYA, AUTHENTIC HOT SAUCE, UPC: 050959000125"
Food Group:  Branded Food Products Database
Common Name:

Nutrient,Unit,Data points,Std. Error,"1 tsp = 5.0g",1Value per 100 g,
Proximates
"Energy",kcal,--,--,0,0
"Protein",g,--,--,0.00,0.00
"Total lipid (fat)",g,--,--,0.00,0.00
"Carbohydrate, by difference",g,--,--,0.00,0.00
Minerals
"Sodium, Na",mg,--,--,55,1100
Vitamins
Lipids
Amino Acids
Other
Ingredients
"WATER, DRIED PEPPERS, IODIZED SALT, ACETIC ACID, SPICES, CITRIC ACID, XANTHAN GUM, SODIUM BENZOATE AS PRESERVATIVE AND SODIUM ERYTHORBATE, IT CAN CONTENTS FD&C RED NO. 40 OR FD&C YELLOW NO. 6." Date available: 06/25/2017 Date last updated by company: 06/25/2017
