Source: USDA Branded Food Products Database Release December 2017 Software v.3.8.6.4 2017-10-02
Report Run at: December 17, 2017 07:46 EST
"Nutrient data for: 45099625, LA NOVIA DEL SOL, ACEITUNAS RELLENAS DE ANCHOA, UPC: 836411000045"
Food Group:  Branded Food Products Database
Common Name:

Nutrient,Unit,Data points,Std. Error,"5.0 PIECES = 15.0g",1Value per 100 g,
Proximates
"Energy",kcal,--,--,20,133
"Protein",g,--,--,0.00,0.00
"Total lipid (fat)",g,--,--,2.00,13.33
"Carbohydrate, by difference",g,--,--,1.00,6.67
"Fiber, total dietary",g,--,--,0.0,0.0
"Sugars, total",g,--,--,0.00,0.00
Minerals
"Calcium, Ca",mg,--,--,20,133
"Iron, Fe",mg,--,--,0.00,0.00
"Sodium, Na",mg,--,--,250,1667
Vitamins
"Vitamin C, total ascorbic acid",mg,--,--,20.0,133.3
"Vitamin A, IU",IU,--,--,0,0
Lipids
"Fatty acids, total saturated",g,--,--,0.000,0.000
"Fatty acids, total trans",g,--,--,0.000,0.000
"Cholesterol",mg,--,--,0,0
Amino Acids
Other
Ingredients
"PITTED GREEN MANZANILLA OLIVES, WATER, SALT, ANCHOVY, MONOSODIUM GLUTAMATE, LACTIC ACID, CITRIC ACID, ASCORBIC ACID, SODIUM ALGINATE." Date available: 07/14/2017 Date last updated by company: 07/14/2017
