Source: USDA Branded Food Products Database Release December 2017 Software v.3.8.6.4 2017-10-02
Report Run at: December 17, 2017 07:48 EST
"Nutrient data for: 45030693, LA PASTA, EXOTIC MUSHROOM RAVIOLI PASTA, UPC: 079706020971"
Food Group:  Branded Food Products Database
Common Name:

Nutrient,Unit,Data points,Std. Error,"3.4 ONZ = 95.0g",1Value per 100 g,
Proximates
"Energy",kcal,--,--,190,200
"Protein",g,--,--,7.00,7.37
"Total lipid (fat)",g,--,--,4.50,4.74
"Carbohydrate, by difference",g,--,--,26.00,27.37
"Fiber, total dietary",g,--,--,2.0,2.1
"Sugars, total",g,--,--,0.00,0.00
Minerals
"Calcium, Ca",mg,--,--,80,84
"Iron, Fe",mg,--,--,2.12,2.23
"Sodium, Na",mg,--,--,450,474
Vitamins
"Vitamin C, total ascorbic acid",mg,--,--,0.0,0.0
"Vitamin A, IU",IU,--,--,147,155
Lipids
"Fatty acids, total saturated",g,--,--,2.498,2.630
"Fatty acids, total trans",g,--,--,0.000,0.000
"Cholesterol",mg,--,--,25,26
Amino Acids
Other
Ingredients
"FRESH CRIMINI MUSHROOMS, FRESH PORTOBELLO MUSHROOMS, SHITAKE MUSHROOMS, RICOTTA CHEESE (PASTEURIZED WHOLE MILK, VINEGAR, SALT.), MOZZARELLA CHEESE (PASTEURIZED MILK, CHEESE CULTURES, SALT, ENZYMEZ, POWDERED CELLULOSE TO PREVENT CAKING), ROMANO CHEESE (PASTEURIZED COW'S MILK, CHEESE CULTURES, SALT, ENZYMES, POWDERED CELLULOSE TO PREVENT CAKING), HEAVY CREAM, ONION, BREAD CRUMBS (WHEAT FLOUR, SUGAR, YEAST, SALT), PARMESAN CHEESE (PASTEURIZED PART-SKIM MILK, CHEESE CULTURE, SALT, ENZYMES, POWDERED CELLULOSE TO PREVENT CAKING), EVO CANOLA OIL, BLACK PEPPER, FRESH PARSLEY, PARSLEY FLAKES, THYME, DURUM FLOUR (DURUM FLOUR, NIACIN, THIAMINE, RIBOFLAVIN, FOLIC ACID.), PASTURIZED LIQUID WHOLE EGGS, PORCINI POWDER, PORCINI PASTA BASE, FILTERED WATER AND SEA SALT." Date available: 06/24/2017 Date last updated by company: 06/24/2017
