Source: USDA Branded Food Products Database Release December 2017 Software v.3.8.6.4 2017-10-02
Report Run at: December 17, 2017 07:48 EST
"Nutrient data for: 45030697, LA PASTA, SPINACH LINGUINE, UPC: 079706020643"
Food Group:  Branded Food Products Database
Common Name:

Nutrient,Unit,Data points,Std. Error,"85.0 GRM = 85.0g",1Value per 100 g,
Proximates
"Energy",kcal,--,--,240,282
"Protein",g,--,--,12.00,14.12
"Total lipid (fat)",g,--,--,3.50,4.12
"Carbohydrate, by difference",g,--,--,43.00,50.59
"Fiber, total dietary",g,--,--,3.0,3.5
"Sugars, total",g,--,--,0.00,0.00
Minerals
"Calcium, Ca",mg,--,--,60,71
"Iron, Fe",mg,--,--,5.93,6.98
"Sodium, Na",mg,--,--,310,365
Vitamins
"Vitamin C, total ascorbic acid",mg,--,--,0.0,0.0
"Vitamin A, IU",IU,--,--,165,194
Lipids
"Fatty acids, total saturated",g,--,--,1.003,1.180
"Fatty acids, total trans",g,--,--,0.000,0.000
"Cholesterol",mg,--,--,35,41
Amino Acids
Other
Ingredients
"ENRICHED DURUM WHEAT FLOUR (DURUM FLOUR, NIACIN, THIAMINE, RIBOFLAVIN, FOLIC ACID.), PASTEURIZED WHOLE EGGS, FILTERED WATER, DEHYDRATED SPINACH, SALT." Date available: 06/24/2017 Date last updated by company: 06/24/2017
