Source: USDA Branded Food Products Database Release December 2017 Software v.3.8.6.4 2017-10-02
Report Run at: December 17, 2017 07:49 EST
"Nutrient data for: 45004068, LA PIANA, ARTICHOKE & MUSHROOM BRUSCHETTA, UPC: 785514002251"
Food Group:  Branded Food Products Database
Common Name:

Nutrient,Unit,Data points,Std. Error,"0.25 cup = 60.0g",1Value per 100 g,
Proximates
"Energy",kcal,--,--,80,133
"Protein",g,--,--,1.00,1.67
"Total lipid (fat)",g,--,--,7.00,11.67
"Carbohydrate, by difference",g,--,--,3.00,5.00
"Fiber, total dietary",g,--,--,1.0,1.7
"Sugars, total",g,--,--,1.00,1.67
Minerals
"Calcium, Ca",mg,--,--,10,17
"Iron, Fe",mg,--,--,0.30,0.50
"Sodium, Na",mg,--,--,200,333
Vitamins
"Vitamin C, total ascorbic acid",mg,--,--,4.5,7.5
"Vitamin A, IU",IU,--,--,125,208
Lipids
"Fatty acids, total saturated",g,--,--,1.002,1.670
"Fatty acids, total trans",g,--,--,0.000,0.000
"Cholesterol",mg,--,--,0,0
Amino Acids
Other
Ingredients
"DICED TOMATOES (TOMATOES, TOMATO JUICE, CITRIC ACID AS PH CONTROL AGENT), ARTICHOKES, BUTTON MUSHROOMS, SUNFLOWER OIL, PORCINI MUSHROOMS, EXTRA VIRGIN OLIVE OIL, SALT, DEHYDRATED ROSEMARY, CHILI PEPPER, DEHYDRATED OREGANO, GARLIC POWDER, DEHYDRATED PARSLEY, WHITE PEPPER, LACTIC ACID AS PH CONTROL AGENT." Date available: 06/25/2017 Date last updated by company: 06/25/2017
