Source: USDA Branded Food Products Database Release December 2017 Software v.3.8.6.4 2017-10-02
Report Run at: December 17, 2017 08:16 EST
"Nutrient data for: 45040537, LA VICTORIA, SALSA BRAVA HOT SAUCE, UPC: 072101011469"
Food Group:  Branded Food Products Database
Common Name:

Nutrient,Unit,Data points,Std. Error,"1 Tbsp = 16.0g",1Value per 100 g,
Proximates
"Energy",kcal,--,--,5,31
"Protein",g,--,--,0.00,0.00
"Total lipid (fat)",g,--,--,0.00,0.00
"Carbohydrate, by difference",g,--,--,1.00,6.25
"Sugars, total",g,--,--,1.00,6.25
Minerals
"Calcium, Ca",mg,--,--,0,0
"Iron, Fe",mg,--,--,0.36,2.25
"Sodium, Na",mg,--,--,110,688
Vitamins
"Vitamin C, total ascorbic acid",mg,--,--,1.2,7.5
"Vitamin A, IU",IU,--,--,0,0
Lipids
"Fatty acids, total saturated",g,--,--,0.000,0.000
"Fatty acids, total trans",g,--,--,0.000,0.000
"Cholesterol",mg,--,--,0,0
Amino Acids
Other
Ingredients
"WATER, JALAPENO PEPPERS, TOMATO PASTE, RED CALIFORNIA CHILES, ONIONS, DISTILLED VINEGAR, MODIFIED FOOD STARCH, SALT, GARLIC AND SODIUM BENZOATE (0.1% AS A PRESERVATIVE)." Date available: 06/24/2017 Date last updated by company: 06/24/2017
