Source: USDA Branded Food Products Database Release December 2017 Software v.3.8.6.4 2017-10-02
Report Run at: December 17, 2017 08:16 EST
"Nutrient data for: 45206838, LA VICTORIA, SALSA VERDE PINEAPPLE, UPC: 072101709670"
Food Group:  Branded Food Products Database
Common Name:

Nutrient,Unit,Data points,Std. Error,"2.0 Tbsp = 31.0g",1Value per 100 g,
Proximates
"Energy",kcal,--,--,15,48
"Protein",g,--,--,0.00,0.00
"Total lipid (fat)",g,--,--,0.00,0.00
"Carbohydrate, by difference",g,--,--,3.00,9.68
"Fiber, total dietary",g,--,--,1.0,3.2
"Sugars, total",g,--,--,2.00,6.45
Minerals
"Sodium, Na",mg,--,--,220,710
Vitamins
"Vitamin C, total ascorbic acid",mg,--,--,14.5,46.8
Lipids
Amino Acids
Other
Ingredients
"TOMATILLOS, WATER, CRUSHED PINEAPPLES (PINEAPPLES, PINEAPPLE JUICE, ASCORBIC ACID TO PROTECT COLOR), JALAPENO PEPPERS, FIRE ROASTED POBLANO PEPPERS, ONIONS, ROASTED POBLANO PEPPERS, FIRE ROASTED TOMATILLOS (INCLUDES CITRIC ACID), SUGAR, LESS THAN 2% OF SALT, ROASTED JALAPENO PEPPERS, MODIFIED FOOD STARCH, DEHYDRATED GARLIC, SPICE, SODIUM BENZOATE (A PRESERVATIVE), XANTHAN GUM, DEHYDRATED CILANTRO" Date available: 08/25/2017 Date last updated by company: 08/25/2017
