Source: USDA Branded Food Products Database Release December 2017 Software v.3.8.6.4 2017-10-02
Report Run at: December 17, 2017 08:20 EST
"Nutrient data for: 45041039, LA YOGURT, ORIGINAL BLENDED LOWFAT YOGURT, RASPBERRY, UPC: 053600000611"
Food Group:  Branded Food Products Database
Common Name:

Nutrient,Unit,Data points,Std. Error,"1 CONTAINER = 170.0g",1Value per 100 g,
Proximates
"Energy",kcal,--,--,160,94
"Protein",g,--,--,5.00,2.94
"Total lipid (fat)",g,--,--,1.50,0.88
"Carbohydrate, by difference",g,--,--,31.01,18.24
"Fiber, total dietary",g,--,--,0.0,0.0
"Sugars, total",g,--,--,25.99,15.29
Minerals
"Calcium, Ca",mg,--,--,201,118
"Iron, Fe",mg,--,--,0.00,0.00
"Potassium, K",mg,--,--,250,147
"Sodium, Na",mg,--,--,90,53
Vitamins
"Vitamin C, total ascorbic acid",mg,--,--,3.6,2.1
"Vitamin A, IU",IU,--,--,750,441
"Vitamin D",IU,--,--,80,47
Lipids
"Fatty acids, total saturated",g,--,--,1.003,0.590
"Fatty acids, total trans",g,--,--,0.000,0.000
"Cholesterol",mg,--,--,5,3
Amino Acids
Other
Ingredients
"CULTURED PASTEURIZED GRADE A LOWFAT MILK, SUGAR, RASPBERRY PUREE, MODIFIED CORNSTARCH, NONFAT MILK SOLIDS, NATURAL FLAVORS, PECTIN, LOCUST BEAN GUM, POTASSIUM SORBATE (TO MAINTAIN FRESHNESS), MONOCALCIUM PHOSPHATE, RED 401, VITAMIN A PALMITATE AND VITAMIN D3. CONTAINS ACTIVE YOGURT WITH L. BULGARICUS, S. THERMOPHILUS, BIFIDOBACTERIUM BB-12, L.ACIDOPHILUS AND L. CASEI CULTURES." Date available: 07/14/2017 Date last updated by company: 07/14/2017
