Source: USDA Branded Food Products Database Release December 2017 Software v.3.8.6.4 2017-10-02
Report Run at: December 17, 2017 07:12 EST
"Nutrient data for: 45176224, LABREE'S BAKERY, HOME STYLE ICED GOLD CUPCAKE, UPC: 074555049746"
Food Group:  Branded Food Products Database
Common Name:

Nutrient,Unit,Data points,Std. Error,"1 PIECES = 52.0g",1Value per 100 g,
Proximates
"Energy",kcal,--,--,210,404
"Protein",g,--,--,2.00,3.85
"Total lipid (fat)",g,--,--,10.00,19.23
"Carbohydrate, by difference",g,--,--,29.00,55.77
"Fiber, total dietary",g,--,--,0.0,0.0
"Sugars, total",g,--,--,22.00,42.31
Minerals
"Calcium, Ca",mg,--,--,20,38
"Iron, Fe",mg,--,--,1.11,2.13
"Sodium, Na",mg,--,--,200,385
Vitamins
"Vitamin C, total ascorbic acid",mg,--,--,0.0,0.0
"Vitamin A, IU",IU,--,--,0,0
Lipids
"Fatty acids, total saturated",g,--,--,3.500,6.730
"Fatty acids, total trans",g,--,--,0.000,0.000
"Cholesterol",mg,--,--,20,38
Amino Acids
Other
Ingredients
"CAKE [SUGAR, BLEACHED ENRICHED WHEAT FLOUR (FLOUR, NIACIN, IRON, THIAMINE MONONITRATE, RIBOFLAVIN, FOLIC ACID), WATER, EGGS, SOYBEAN OIL, VEGETABLE SHORTENING (PALM OIL, MONO AND DIGLYCERIDES, POLYSORBATE 60), CORN SYRUP, FOOD STARCH-MODIFIED, WHEY, VITAL WHEAT GLUTEN, SALT, SODIUM ALUMINUM PHOSPHATE, DEXTROSE, TITANIUM DIOXIDE, SODIUM PROPIONATE AND POTASSIUM SORBATE (PRESERVATIVES), OLEYL LACTYLIC ACID, SODIUM BICARBONATE, SORBITAN MONOSTEARATE, POLYSORBATE 60, PROPYLENE GLYCOL MONOSTEARATE, MONO AND DIGLYCERIDES, DATEM, BETA CAROTENE, SOY LECITHIN, ARTIFICIAL FLAVOR, YELLOW 5, GUM ARABIC, CITRIC ACID, XANTHAN GUM, PHOSPHORIC ACID], ICING [SUGAR, VEGETABLE SHORTENING (PALM OIL, MONO AND DIGLYCERIDES, POLYSORBATE 60), WATER, COCOA (PROCESSED WITH ALKALI), CORN SYRUP, GLYCERIN, CORN STARCH, FOOD STARCH-MODIFIED, GUAR GUM, NATURAL AND ARTIFICIAL VANILLA AND BUTTER FLAVORS, SALT, SORBITAN MONOSTEARATE, POLYSORBATE 60, MONOGLYCERIDES, PHOSPHORIC ACID, SODIUM PROPIONATE AND POTASSIUM SORBATE (PRESERVATIVES), GUM ARABIC, CITRIC ACID, XANTHAN GUM, YELLOW 5, YELLOW 6, RED 40, GREEN 3, BLUE 1, RED 3], TOPPINGS [SUGAR, MODIFIED CORN STARCH, PALM KERNEL OIL, CORN STARCH, ARTIFICIAL FLAVOR, SOY LECITHIN, GUM ARABIC, COCOA (PROCESSED WITH ALKALI), FD&C BLUE 1, RED 3, YELLOW 5, YELLOW 6, RED 40, CONFECTIONERS GLAZE, POLYSORBATE 60]." Date available: 07/14/2017 Date last updated by company: 07/14/2017
