Source: USDA Branded Food Products Database Release December 2017 Software v.3.8.6.4 2017-10-02
Report Run at: December 17, 2017 07:12 EST
"Nutrient data for: 45176190, LABREE'S BAKERY, HOME STYLE MARBLE SWIRL CAKE, UPC: 074555044901"
Food Group:  Branded Food Products Database
Common Name:

Nutrient,Unit,Data points,Std. Error,"0.125 SLICE = 74.0g",1Value per 100 g,
Proximates
"Energy",kcal,--,--,290,392
"Protein",g,--,--,3.00,4.05
"Total lipid (fat)",g,--,--,14.00,18.92
"Carbohydrate, by difference",g,--,--,41.00,55.41
"Fiber, total dietary",g,--,--,1.0,1.4
"Sugars, total",g,--,--,30.00,40.54
Minerals
"Calcium, Ca",mg,--,--,20,27
"Iron, Fe",mg,--,--,1.55,2.10
"Sodium, Na",mg,--,--,230,311
Vitamins
"Vitamin C, total ascorbic acid",mg,--,--,0.0,0.0
"Vitamin A, IU",IU,--,--,108,146
Lipids
"Fatty acids, total saturated",g,--,--,5.002,6.760
"Fatty acids, total trans",g,--,--,0.000,0.000
"Cholesterol",mg,--,--,25,34
Amino Acids
Other
Ingredients
"CAKE [SUGAR, WATER, BLEACHED ENRICHED WHEAT FLOUR (FLOUR, NIACIN, IRON, THIAMINE MONONITRATE, RIBOFLAVIN, FOLIC ACID), EGGS, SOYBEAN OIL. COCOA (PROCESSED WITH ALKALI), VEGETABLE SHORTENING (PALM OIL, MONO AND DIGLYCERIDES, POLYSORBATE 60), CORN SYRUP FOOD STARCH-MODIFIED. WHEY, DOUGH IMPROVER (WATER, MONO AND DIGLYCERIDES OF FATTY ACIDS, GLYCEROL, PROPYLENE GLYCOL, PROPYLENE GLYCOL ESTERS OF FATTY ACIDS, SALTS OF FATTY ACIDS, SODIUM HYDROXIDE, CALCIUM CHLORIDE), VITAL WHEAT GLUTEN, SALT, SODIUM ALUMINUM PHOSPHATE, DEXTROSE, TITANIUM DIOXIDE, SODIUM PROPIONATE AND POTASSIUM SORBATE (PRESERVATIVES), OLEYL LACTYLIC ACID, NATURAL AND ARTIFICIAL VANILLA FLAVOR, SODIUM BICARBONATE, PROPYLENE GLYCOL MONOESTERS, MONO AND DIGLYCERIDES, DATEM, BETA CAROTENE, SOY LECITHIN, CARBOXYMETHYLCELLULOSE, COLORS (ANATTO EXTRACT, TURMERIC), ARTIFICIAL FLAVOR, YELLOW 5, GUM ARABIC, CITRIC ACID, XANTHAN GUM] ICING [SUGAR, VEGETABLE SHORTENING (PALM OIL, MONO AND DIGLYCERIDES, POLYSORBATE 60), WATER, CORN SYRUP, CORN STARCH, COCOA (PROCESSED WITH ALKALI), NATURAL AND ARTIFICIAL VANILLA AND BUTTER FLAVORS, SORBITAN MONOSTEARATE, SALT, GLYCERIN, FOOD STARCH-MODIFIED. GUAR GUM. PHOSPHORIC ACID." Date available: 07/14/2017 Date last updated by company: 07/14/2017
