Source: USDA Branded Food Products Database Release December 2017 Software v.3.8.6.4 2017-10-02
Report Run at: December 17, 2017 07:15 EST
"Nutrient data for: 45130432, LACHOY Chicken Chow Mein Bi Pak, UNPREPARED, GTIN: 00044300121119"
Food Group:  Branded Food Products Database
Common Name:

Nutrient,Unit,Data points,Std. Error,"1 Cup (250g) = 250.0g",1Value per 100 g,
Proximates
"Energy",kcal,--,--,100,40
"Protein",g,--,--,5.00,2.00
"Total lipid (fat)",g,--,--,4.00,1.60
"Carbohydrate, by difference",g,--,--,11.00,4.40
"Fiber, total dietary",g,--,--,3.0,1.2
"Sugars, total",g,--,--,2.00,0.80
Minerals
"Calcium, Ca",mg,--,--,20,8
"Iron, Fe",mg,--,--,0.72,0.29
"Potassium, K",mg,--,--,105,42
"Sodium, Na",mg,--,--,1520,608
Vitamins
"Vitamin C, total ascorbic acid",mg,--,--,12.0,4.8
"Vitamin A, IU",IU,--,--,1500,600
Lipids
"Fatty acids, total saturated",g,--,--,1.000,0.400
"Fatty acids, total monounsaturated",g,--,--,2.000,0.800
"Fatty acids, total polyunsaturated",g,--,--,1.000,0.400
"Fatty acids, total trans",g,--,--,0.000,0.000
"Cholesterol",mg,--,--,15,6
Amino Acids
Other
Ingredients
"Gravy With Chicken: Chicken Broth, Diced Seasoned Thigh Meat Chicken (Thigh Meat Chicken, Water, Isolated Soy Protein, Salt, Modified Potato Starch , Modified Corn Starch, Sodium Phosphates), Modified Corn Starch, Less Than 2% Of: Salt, Chicken Fat, Soy Sauce (Water, Salt, Hydrolyzed Soy Protein, Corn Syrup, Caramel Color), Sugar, Hydrolyzed Corn Protein, Dehydrated Garlic, Onion Powder, Turmeric (Color), Natural Flavor. CONTAINS: SOY. Asian Style Vegetable Mix & Seasonings: Ingredients: Water, Bean Sprouts, Celery, Carrots, Red Bell Peppers, Water Chestnuts, Bamboo Shoots, Baby Corn, Less Than 2% Of: Salt, Sugar, Ascorbic Acid (To Protect Color), Citric Acid, Flavor." Date available: 10/12/2017 Date last updated by company: 10/12/2017
