Source: USDA Branded Food Products Database Release December 2017 Software v.3.8.6.4 2017-10-02
Report Run at: December 17, 2017 07:15 EST
"Nutrient data for: 45134152, LACHOY Light Soy Sauce, UNPREPARED, GTIN: 00044300125209"
Food Group:  Branded Food Products Database
Common Name:

Nutrient,Unit,Data points,Std. Error,"1 tbsp (15mL) = 287.0g",1Value per 100 g,
Proximates
"Energy",kcal,--,--,9,3
"Protein",g,--,--,1.00,0.35
"Total lipid (fat)",g,--,--,0.00,0.00
"Carbohydrate, by difference",g,--,--,2.01,0.70
"Fiber, total dietary",g,--,--,0.0,0.0
"Sugars, total",g,--,--,1.00,0.35
Minerals
"Calcium, Ca",mg,--,--,0,0
"Iron, Fe",mg,--,--,0.00,0.00
"Potassium, K",mg,--,--,419,146
"Sodium, Na",mg,--,--,439,153
Vitamins
"Vitamin C, total ascorbic acid",mg,--,--,0.0,0.0
"Vitamin A, IU",IU,--,--,0,0
Lipids
"Fatty acids, total saturated",g,--,--,0.000,0.000
"Fatty acids, total monounsaturated",g,--,--,0.000,0.000
"Fatty acids, total polyunsaturated",g,--,--,0.000,0.000
"Fatty acids, total trans",g,--,--,0.000,0.000
"Cholesterol",mg,--,--,0,0
Amino Acids
Other
Ingredients
"Water, Hydrolyzed Soy Protein, Corn Syrup, Salt, Caramel Color, Lactic Acid, Potassium Sorbate (Preservative).  CONTAINS: Soy" Date available: 10/12/2017 Date last updated by company: 10/12/2017
