Source: USDA Branded Food Products Database Release December 2017 Software v.3.8.6.4 2017-10-02
Report Run at: December 17, 2017 07:17 EST
"Nutrient data for: 45189709, LACRUZ SPECIALTY FOODS, MANGO CHUTNEY, UPC: 859217004048"
Food Group:  Branded Food Products Database
Common Name:

Nutrient,Unit,Data points,Std. Error,"1 Tbsp = 15.0g",1Value per 100 g,
Proximates
"Energy",kcal,--,--,50,333
"Protein",g,--,--,0.00,0.00
"Total lipid (fat)",g,--,--,0.00,0.00
"Carbohydrate, by difference",g,--,--,12.00,80.00
"Sugars, total",g,--,--,11.00,73.33
Minerals
"Sodium, Na",mg,--,--,0,0
Vitamins
"Vitamin C, total ascorbic acid",mg,--,--,20.0,133.3
"Vitamin A, IU",IU,--,--,666,4443
Lipids
Amino Acids
Other
Ingredients
"MANGO, SUGAR, VINEGAR, ONION, RAISINS, GINGER, GARLIC, MUSTARD SEED, MANGO POWDER, CITRIC ACID, ASCORBIC ACID, CHILI PEPPER." Date available: 07/14/2017 Date last updated by company: 07/14/2017
