Source: USDA Branded Food Products Database Release December 2017 Software v.3.8.6.4 2017-10-02
Report Run at: December 17, 2017 07:18 EST
"Nutrient data for: 45031448, LACTAID, ICE CREAM, CHOCOLATE, UPC: 044100193026"
Food Group:  Branded Food Products Database
Common Name:

Nutrient,Unit,Data points,Std. Error,"0.5 cup = 71.0g",1Value per 100 g,
Proximates
"Energy",kcal,--,--,160,225
"Protein",g,--,--,3.00,4.23
"Total lipid (fat)",g,--,--,8.00,11.27
"Carbohydrate, by difference",g,--,--,19.00,26.76
"Fiber, total dietary",g,--,--,0.0,0.0
"Sugars, total",g,--,--,13.00,18.31
Minerals
"Calcium, Ca",mg,--,--,80,113
"Iron, Fe",mg,--,--,0.72,1.01
"Sodium, Na",mg,--,--,40,56
Vitamins
"Vitamin C, total ascorbic acid",mg,--,--,0.0,0.0
"Vitamin A, IU",IU,--,--,300,423
Lipids
"Fatty acids, total saturated",g,--,--,4.998,7.040
"Fatty acids, total trans",g,--,--,0.000,0.000
"Cholesterol",mg,--,--,30,42
Amino Acids
Other
Ingredients
"MILK, CREAM, SUGAR, CORN SYRUP, COCOA PROCESSED WITH ALKALI, GUAR GUM, LOCUST BEAN GUM, LACTASE ENZYME*" Date available: 06/24/2017 Date last updated by company: 06/24/2017
