Source: USDA Branded Food Products Database Release December 2017 Software v.3.8.6.4 2017-10-02
Report Run at: December 17, 2017 07:20 EST
"Nutrient data for: 45225378, LADY FINGERS SPONGE CAKES, UPC: 041573241315"
Food Group:  Branded Food Products Database
Common Name:

Nutrient,Unit,Data points,Std. Error,"4.0 LADYFINGERS = 28.0g",1Value per 100 g,
Proximates
"Energy",kcal,--,--,100,357
"Protein",g,--,--,2.00,7.14
"Total lipid (fat)",g,--,--,1.50,5.36
"Carbohydrate, by difference",g,--,--,19.00,67.86
"Fiber, total dietary",g,--,--,0.0,0.0
"Sugars, total",g,--,--,10.00,35.71
Minerals
"Calcium, Ca",mg,--,--,40,143
"Iron, Fe",mg,--,--,1.29,4.59
"Sodium, Na",mg,--,--,250,893
Vitamins
"Vitamin C, total ascorbic acid",mg,--,--,0.0,0.0
"Vitamin A, IU",IU,--,--,0,0
Lipids
"Fatty acids, total saturated",g,--,--,0.000,0.000
"Fatty acids, total trans",g,--,--,0.000,0.000
"Cholesterol",mg,--,--,65,232
Amino Acids
Other
Ingredients
"EGGS, ENRICHED BLEACHED FLOUR (WHEAT FLOUR, NIACIN, REDUCED IRON, THIAMINE MONONITRATE, RIBOFLAVIN, FOLIC ACID), SUGAR, BAKING POWDER (SODIUM PHOSPHATE, SODIUM BICARBONATE, CORNSTARCH, CALCIUM PHOSPHATE), CORN SYRUP, CONTAINS LESS THAN 2% OF EACH OF THE FOLLOWING: SODIUM PROPIONATE (PRESERVATIVE), SALT, CALCIUM PROPIONATE (PRESERVATIVE), CARBOXYMETHYL CELLULOSE, CORNSTARCH, MONOGLYCERIDES OF FATTY ACIDS, NATURAL FLAVOR, ARTIFICIAL FLAVOR (POLYSORBATE 80), SOYBEAN OIL." Date available: 07/14/2017 Date last updated by company: 07/14/2017
