Source: USDA Branded Food Products Database Release December 2017 Software v.3.8.6.4 2017-10-02
Report Run at: December 17, 2017 07:27 EST
"Nutrient data for: 45283878, LAKE WHITE BASS FILLETS, UPC: 685682291511"
Food Group:  Branded Food Products Database
Common Name:

Nutrient,Unit,Data points,Std. Error,"1 PIECE = 100.0g",1Value per 100 g,
Proximates
"Energy",kcal,--,--,130,130
"Protein",g,--,--,17.00,17.00
"Total lipid (fat)",g,--,--,7.00,7.00
"Carbohydrate, by difference",g,--,--,0.00,0.00
"Fiber, total dietary",g,--,--,0.0,0.0
"Sugars, total",g,--,--,0.00,0.00
Minerals
"Calcium, Ca",mg,--,--,20,20
"Iron, Fe",mg,--,--,0.72,0.72
"Potassium, K",mg,--,--,260,260
"Sodium, Na",mg,--,--,90,90
Vitamins
"Vitamin C, total ascorbic acid",mg,--,--,0.0,0.0
"Vitamin A, IU",IU,--,--,0,0
Lipids
"Fatty acids, total saturated",g,--,--,1.500,1.500
"Fatty acids, total trans",g,--,--,0.100,0.100
"Cholesterol",mg,--,--,80,80
Amino Acids
Other
Ingredients
"WHITE BEANS (MORONE CHRYSOPS)." Date available: 05/10/2017 Date last updated by company: 05/10/2017
