Source: USDA Branded Food Products Database Release December 2017 Software v.3.8.6.4 2017-10-02
Report Run at: December 17, 2017 07:26 EST
"Nutrient data for: 45332042, LAKE CHAMPLAIN CHOCOLATE, ORGANIC PEANUT BUTTER CHOCOLATE, PEANUT BUTTER, UPC: 769933854929"
Food Group:  Branded Food Products Database
Common Name:

Nutrient,Unit,Data points,Std. Error,"3.0 BLOCKS = 35.0g",1Value per 100 g,
Proximates
"Energy",kcal,--,--,200,571
"Protein",g,--,--,4.00,11.43
"Total lipid (fat)",g,--,--,14.00,40.00
"Carbohydrate, by difference",g,--,--,16.00,45.71
"Fiber, total dietary",g,--,--,1.0,2.9
"Sugars, total",g,--,--,15.00,42.86
Minerals
"Calcium, Ca",mg,--,--,60,171
"Iron, Fe",mg,--,--,2.57,7.35
"Sodium, Na",mg,--,--,45,129
Vitamins
"Vitamin C, total ascorbic acid",mg,--,--,0.0,0.0
"Vitamin A, IU",IU,--,--,143,409
Lipids
"Fatty acids, total saturated",g,--,--,7.000,20.000
"Fatty acids, total trans",g,--,--,0.000,0.000
"Cholesterol",mg,--,--,5,14
Amino Acids
Other
Ingredients
"*+MILK AND *WHITE CHOCOLATE (*+SUGAR, *+COCOA BUTTER, *MILK POWDER, *+CHOCOLATE LIQUOR, SOYBEAN LECITHIN (NON-GMO), AND *+VANILLA), *SALTED PEANUT BUTTER, AND *PEANUT FLOUR." Date available: 10/13/2017 Date last updated by company: 10/13/2017
