Source: USDA Branded Food Products Database Release December 2017 Software v.3.8.6.4 2017-10-02
Report Run at: December 17, 2017 07:30 EST
"Nutrient data for: 45205084, LALA, YOGURT SMOOTHIE, PINA COLADA, UPC: 815473015457"
Food Group:  Branded Food Products Database
Common Name:

Nutrient,Unit,Data points,Std. Error,"1 BOTTLE = 207.0g",1Value per 100 g,
Proximates
"Energy",kcal,--,--,149,72
"Protein",g,--,--,5.01,2.42
"Total lipid (fat)",g,--,--,4.00,1.93
"Carbohydrate, by difference",g,--,--,23.99,11.59
"Fiber, total dietary",g,--,--,2.9,1.4
"Sugars, total",g,--,--,18.01,8.70
Minerals
"Calcium, Ca",mg,--,--,201,97
"Iron, Fe",mg,--,--,0.00,0.00
"Potassium, K",mg,--,--,261,126
"Sodium, Na",mg,--,--,85,41
Vitamins
"Vitamin C, total ascorbic acid",mg,--,--,2.1,1.0
"Vitamin A, IU",IU,--,--,410,198
"Vitamin D",IU,--,--,99,48
Lipids
"Fatty acids, total saturated",g,--,--,2.505,1.210
"Fatty acids, total trans",g,--,--,0.000,0.000
"Cholesterol",mg,--,--,21,10
Amino Acids
Other
Ingredients
"GRADE A PASTEURIZED CULTURED REDUCED FAT MILK, WATER, SUGAR, SOLUBLE CORN FIBER, CONCENTRATED PINEAPPLE JUICE, CORN STARCH-MODIFIED, NATURAL FLAVORS, PECTIN, CITRIC ACID, POTASSIUM SORBATE (FOR FRESHNESS), STEVIA LEAF EXTRACT (NATURAL SWEETENER), TURMERIC (FOR COLOR), VITAMIN A PALMITATE, VITAMIN D3." Date available: 07/14/2017 Date last updated by company: 07/14/2017
