Source: USDA Branded Food Products Database Release December 2017 Software v.3.8.6.4 2017-10-02
Report Run at: December 17, 2017 07:28 EST
"Nutrient data for: 45205023, LALA, CRAVEABLES YOGURT SMOOTHIE, STRAWBERRY CHEESECAKE, UPC: 815473016249"
Food Group:  Branded Food Products Database
Common Name:

Nutrient,Unit,Data points,Std. Error,"1 BOTTLE = 311.0g",1Value per 100 g,
Proximates
"Energy",kcal,--,--,230,74
"Protein",g,--,--,7.99,2.57
"Total lipid (fat)",g,--,--,6.00,1.93
"Carbohydrate, by difference",g,--,--,36.01,11.58
"Fiber, total dietary",g,--,--,4.0,1.3
"Sugars, total",g,--,--,27.99,9.00
Minerals
"Calcium, Ca",mg,--,--,299,96
"Iron, Fe",mg,--,--,0.00,0.00
"Potassium, K",mg,--,--,401,129
"Sodium, Na",mg,--,--,131,42
Vitamins
"Vitamin C, total ascorbic acid",mg,--,--,4.7,1.5
"Vitamin A, IU",IU,--,--,750,241
"Vitamin D",IU,--,--,159,51
Lipids
"Fatty acids, total saturated",g,--,--,4.012,1.290
"Fatty acids, total trans",g,--,--,0.000,0.000
"Cholesterol",mg,--,--,25,8
Amino Acids
Other
Ingredients
"GRADE A PASTEURIZED CULTURED REDUCED FAT MILK, WATER, SUGAR, SOLUBLE CORN FIBER, STRAWBERRIES, CORN STARCH-MODIFIED, NATURAL FLAVORS, FRUIT AND VEGETABLE JUICE (FOR COLOR), PECTIN, CITRIC ACID, POTASSIUM SORBATE (FOR FRESHNESS), STEVIA LEAF EXTRACT (NATURAL SWEETENER), VITAMIN A PALMITATE, VITAMIN D3." Date available: 07/14/2017 Date last updated by company: 07/14/2017
