Source: USDA Branded Food Products Database Release December 2017 Software v.3.8.6.4 2017-10-02
Report Run at: December 17, 2017 07:31 EST
"Nutrient data for: 45186850, LAMBERT'S, SWEET RUB O'MINE BARBEQUE, UPC: 852266006025"
Food Group:  Branded Food Products Database
Common Name:

Nutrient,Unit,Data points,Std. Error,"0.25 tsp = 1.0g",1Value per 100 g,
Proximates
"Energy",kcal,--,--,5,500
"Protein",g,--,--,0.00,0.00
"Total lipid (fat)",g,--,--,0.00,0.00
"Carbohydrate, by difference",g,--,--,1.00,100.00
Minerals
"Sodium, Na",mg,--,--,85,8500
Vitamins
Lipids
Amino Acids
Other
Ingredients
"SUGAR, SALT, DEHYDRATED ONION AND GARLIC, EVAPORATED CANE JUICE, PAPRIKA (COLOR), SPICES INCLUDING CHILI PEPPER, MUSTARD FLOUR, MONOSODIUM GLUTAMATE, SODIUM DIACETATE, CELERY, CARAMEL COLOR, NATURAL FLAVOR, EXTRACTIVES OF PAPRIKA (COLOR) AND NOT MORE THAN 2% TRICALCIUM PHOSPHATE ADDED TO PREVENT CAKING." Date available: 07/14/2017 Date last updated by company: 07/14/2017
