Source: USDA Branded Food Products Database Release December 2017 Software v.3.8.6.4 2017-10-02
Report Run at: December 17, 2017 07:37 EST
"Nutrient data for: 45157690, LANCE, FLAVORED POPCORN, HOT CHEESE, UPC: 076410904245"
Food Group:  Branded Food Products Database
Common Name:

Nutrient,Unit,Data points,Std. Error,"2.5 CUPS | ABOUT = 28.0g",1Value per 100 g,
Proximates
"Energy",kcal,--,--,160,571
"Protein",g,--,--,2.00,7.14
"Total lipid (fat)",g,--,--,10.00,35.71
"Carbohydrate, by difference",g,--,--,14.00,50.00
"Fiber, total dietary",g,--,--,3.0,10.7
"Sugars, total",g,--,--,1.00,3.57
Minerals
"Calcium, Ca",mg,--,--,0,0
"Iron, Fe",mg,--,--,0.64,2.29
"Sodium, Na",mg,--,--,370,1321
Vitamins
"Vitamin C, total ascorbic acid",mg,--,--,0.0,0.0
"Vitamin A, IU",IU,--,--,0,0
Lipids
"Fatty acids, total saturated",g,--,--,2.999,10.710
"Fatty acids, total trans",g,--,--,0.000,0.000
"Cholesterol",mg,--,--,0,0
Amino Acids
Other
Ingredients
"POPCORN, VEGETABLE OIL (CONTAINS ONE OR MORE OF THE FOLLOWING; CANOLA OIL, COCONUT OIL, SOYBEAN OIL}, MALTODEXTRIN, SALT, WHEY, BUTTERMILK, CHEDDAR CHEESE (PASTURIZED MILK, CHEESE CULTURES, SALT, ENZYMES), SUGAR, NATURAL FLAVOR, SODIUM PHOSPHATE, SODIUM CITRATE, ARTIFICIAL COLORS (YELLOW 5, YELLOW 6 , RED 40 LAKE ), SOY LECITHIN, AUTOLYZED YEAST EXTRACT, ONION POWDER, SPICE AND HERB ( CONTAINS PAPRIKA FOR COLOR), MONOSODIUM GLUTAMATE, ANNATTO (FOR COLOR)." Date available: 07/14/2017 Date last updated by company: 07/14/2017
