Source: USDA Branded Food Products Database Release December 2017 Software v.3.8.6.4 2017-10-02
Report Run at: December 17, 2017 07:36 EST
"Nutrient data for: 45223666, LANCE, BOLDS CRACKER SANDWICHES, BACON CHEDDAR, UPC: 076410902074"
Food Group:  Branded Food Products Database
Common Name:

Nutrient,Unit,Data points,Std. Error,"1 PACKAGE = 39.0g",1Value per 100 g,
Proximates
"Energy",kcal,--,--,190,487
"Protein",g,--,--,4.00,10.26
"Total lipid (fat)",g,--,--,9.00,23.08
"Carbohydrate, by difference",g,--,--,24.00,61.54
"Fiber, total dietary",g,--,--,1.0,2.6
"Sugars, total",g,--,--,5.00,12.82
Minerals
"Calcium, Ca",mg,--,--,100,256
"Iron, Fe",mg,--,--,1.85,4.74
"Sodium, Na",mg,--,--,300,769
Vitamins
"Vitamin C, total ascorbic acid",mg,--,--,0.0,0.0
"Vitamin A, IU",IU,--,--,0,0
Lipids
"Fatty acids, total saturated",g,--,--,3.498,8.970
"Fatty acids, total monounsaturated",g,--,--,2.999,7.690
"Fatty acids, total polyunsaturated",g,--,--,2.999,7.690
"Fatty acids, total trans",g,--,--,0.000,0.000
"Cholesterol",mg,--,--,5,13
Amino Acids
Other
Ingredients
"ENRICHED FLOUR (WHEAT FLOUR, NIACIN, REDUCED IRON, THIAMINE MONONITRATE, RIBOFLAVIN, FOLIC ACID), VEGETABLE OIL (CONTAINS ONE OR MORE OF THE FOLLOWING: SOYBEAN OIL, PALM OIL, CANOLA OIL, CORN OIL), CHEESE POWDER (DAIRY WHEY, CHEESE [PASTEURIZED MILK, CHEESE CULTURE, SALT, ENZYMES], BUTTERMILK SOLIDS, SALT, BUTTER, ENZYME MODIFIED BUTTEROIL, CALCIUM PHOSPHATE, LACTIC ACID, YELLOW 5, YELLOW 6, ANNATTO [COLOR], TURMERIC [COLOR]), DEPROTEINIZED WHEY, IMITATION BACON BITS (TEXTURED VEGETABLE PROTEIN [SOY FLOUR, CARAMEL COLOR, RED 3], SOYBEAN OIL, SALT, NATURAL FLAVORING, HYDROLYZED SOY PROTEIN), SUGAR, LEAVENING (SODIUM BICARBONATE, AMMONIUM BICARBONATE, MONOCALCIUM PHOSPHATE), CORN SYRUP, SALT, NATURAL BACON FLAVOR, SOY LECITHIN." Date available: 07/14/2017 Date last updated by company: 07/14/2017
