Source: USDA Branded Food Products Database Release December 2017 Software v.3.8.6.4 2017-10-02
Report Run at: December 17, 2017 07:40 EST
"Nutrient data for: 45223697, LANCE, TOASTY CRACKER SANDWICHES, CHEDDAR CHEESE, UPC: 076410901992"
Food Group:  Branded Food Products Database
Common Name:

Nutrient,Unit,Data points,Std. Error,"1 PACKAGE 6 CRACKERS = 35.5g",1Value per 100 g,
Proximates
"Energy",kcal,--,--,180,507
"Protein",g,--,--,3.00,8.45
"Total lipid (fat)",g,--,--,9.00,25.35
"Carbohydrate, by difference",g,--,--,22.00,61.97
"Fiber, total dietary",g,--,--,0.0,0.0
"Sugars, total",g,--,--,3.00,8.45
Minerals
"Calcium, Ca",mg,--,--,60,169
"Iron, Fe",mg,--,--,1.52,4.28
"Sodium, Na",mg,--,--,310,873
Vitamins
"Vitamin C, total ascorbic acid",mg,--,--,0.0,0.0
"Vitamin A, IU",IU,--,--,0,0
Lipids
"Fatty acids, total saturated",g,--,--,3.500,9.860
"Fatty acids, total monounsaturated",g,--,--,3.000,8.450
"Fatty acids, total polyunsaturated",g,--,--,3.000,8.450
"Fatty acids, total trans",g,--,--,0.000,0.000
"Cholesterol",mg,--,--,0,0
Amino Acids
Other
Ingredients
"ENRICHED FLOUR (WHEAT FLOUR, NIACIN, REDUCED IRON, THIAMINE MONONITRATE, RIBOFLAVIN, FOLIC ACID), VEGETABLE OIL (CONTAINS ONE OR MORE OF THE FOLLOWING: SOYBEAN OIL, PALM OIL, CANOLA OIL, CORN OIL), CHEESE POWDER (DAIRY WHEY, MALTODEXTRIN, CHEDDAR CHEESE [PASTEURIZED MILK, CHEESE CULTURE, SALT, ENZYMES], SALT, WHEY PROTEIN CONCENTRATE, NONFAT DRY MILK, NATURAL & ARTIFICIAL FLAVORS, CITRIC ACID, LACTIC ACID, YELLOW 5, YELLOW 6, BUTTER. DIPOTASSIUM PHOSPHATE. BUTTERMILK, CARAMEL COLOR), DEPROTEINIZED WHEY, SUGAR. LEAVENING (SODIUM BICARBONATE, AMMONIUM BICARBONATE, MONOCALCIUM PHOSPHATE), CORN SYRUP, SALT. WHEAT GLUTEN. SOY LECITHIN." Date available: 07/14/2017 Date last updated by company: 07/14/2017
