Source: USDA Branded Food Products Database Release December 2017 Software v.3.8.6.4 2017-10-02
Report Run at: December 17, 2017 07:43 EST
"Nutrient data for: 45173185, LAND O LAKES, FAT FREE SMALL CURD COTTAGE CHEESE, UPC: 034500641289"
Food Group:  Branded Food Products Database
Common Name:

Nutrient,Unit,Data points,Std. Error,"0.5 cup = 113.0g",1Value per 100 g,
Proximates
"Energy",kcal,--,--,80,71
"Protein",g,--,--,12.00,10.62
"Total lipid (fat)",g,--,--,0.00,0.00
"Carbohydrate, by difference",g,--,--,6.00,5.31
"Fiber, total dietary",g,--,--,0.0,0.0
"Sugars, total",g,--,--,4.99,4.42
Minerals
"Calcium, Ca",mg,--,--,99,88
"Iron, Fe",mg,--,--,0.00,0.00
"Sodium, Na",mg,--,--,431,381
Vitamins
"Vitamin C, total ascorbic acid",mg,--,--,0.0,0.0
"Vitamin A, IU",IU,--,--,194,172
Lipids
"Fatty acids, total saturated",g,--,--,0.000,0.000
"Fatty acids, total trans",g,--,--,0.000,0.000
"Cholesterol",mg,--,--,5,4
Amino Acids
Other
Ingredients
"CULTURED NONFAT MILK, LESS THAN 2% OF WHEY, SALT, MALTODEXTRIN, ARTIFICIAL COLOR*, GUAR GUM, CITRIC ACID, CARRAGEENAN, MONO AND DIGLYCERIDES, POLYSORBATE 80, LOCUST BEAN GUM, NATURAL AND ARTIFICIAL FLAVOR, POTASSIUM SORBATE (PRESERVATIVE), VITAMIN A PALMITATE, ENZYME." Date available: 07/14/2017 Date last updated by company: 07/14/2017
