Source: USDA Branded Food Products Database Release December 2017 Software v.3.8.6.4 2017-10-02
Report Run at: December 17, 2017 07:43 EST
"Nutrient data for: 45136704, LAND O LAKES, MINI MOO'S, HALF & HALF MILK & CREAM CREAMER, UPC: 034500632720"
Food Group:  Branded Food Products Database
Common Name:

Nutrient,Unit,Data points,Std. Error,"1 CREAMER = 9.0g",1Value per 100 g,
Proximates
"Energy",kcal,--,--,10,111
"Protein",g,--,--,0.00,0.00
"Total lipid (fat)",g,--,--,1.00,11.11
"Carbohydrate, by difference",g,--,--,0.00,0.00
"Fiber, total dietary",g,--,--,0.0,0.0
"Sugars, total",g,--,--,0.00,0.00
Minerals
"Calcium, Ca",mg,--,--,20,222
"Iron, Fe",mg,--,--,0.00,0.00
"Sodium, Na",mg,--,--,5,56
Vitamins
"Vitamin C, total ascorbic acid",mg,--,--,0.0,0.0
"Vitamin A, IU",IU,--,--,0,0
Lipids
"Fatty acids, total saturated",g,--,--,0.500,5.560
"Fatty acids, total trans",g,--,--,0.000,0.000
"Cholesterol",mg,--,--,0,0
Amino Acids
Other
Ingredients
"HALF & HALF, SODIUM CITRATE, DATEM, TETRA SODIUM PYROPHOSPHATE AND CARRAGEENAN." Date available: 07/28/2017 Date last updated by company: 07/28/2017
