Source: USDA Branded Food Products Database Release December 2017 Software v.3.8.6.4 2017-10-02
Report Run at: December 17, 2017 07:42 EST
"Nutrient data for: 45144736, LANDMARK CONFECTIONS, MILK CHOCOLATE PEANUTS, UPC: 639277895011"
Food Group:  Branded Food Products Database
Common Name:

Nutrient,Unit,Data points,Std. Error,"29.0 PIECES = 42.0g",1Value per 100 g,
Proximates
"Energy",kcal,--,--,220,524
"Protein",g,--,--,5.00,11.90
"Total lipid (fat)",g,--,--,15.00,35.71
"Carbohydrate, by difference",g,--,--,21.00,50.00
"Fiber, total dietary",g,--,--,2.0,4.8
"Sugars, total",g,--,--,18.00,42.86
Minerals
"Calcium, Ca",mg,--,--,40,95
"Iron, Fe",mg,--,--,0.43,1.02
"Sodium, Na",mg,--,--,20,48
Vitamins
"Vitamin C, total ascorbic acid",mg,--,--,0.0,0.0
"Vitamin A, IU",IU,--,--,0,0
Lipids
"Fatty acids, total saturated",g,--,--,6.002,14.290
"Fatty acids, total trans",g,--,--,0.000,0.000
"Cholesterol",mg,--,--,5,12
Amino Acids
Other
Ingredients
"MILK CHOCOLATE (SUGAR, COCOA BUTTER, MILK, CHOCOLATE LIQUOR, SOY LECITHIN - AN EMULSIFIER, ARTIFICIAL FLAVORING, AND SALT), PEANUTS, GUM ARABIC, SUGAR, CORN SYRUP, MODIFIED STARCH, COCONUT OIL, CONFECTIONER'S GLAZE, XANTHAN GUM." Date available: 07/14/2017 Date last updated by company: 07/14/2017
