Source: USDA Branded Food Products Database Release December 2017 Software v.3.8.6.4 2017-10-02
Report Run at: December 17, 2017 07:42 EST
"Nutrient data for: 45323089, LANDJAEGER SNACK STICKS, UPC: 654383121281"
Food Group:  Branded Food Products Database
Common Name:

Nutrient,Unit,Data points,Std. Error,"1 ONZ = 28.0g",1Value per 100 g,
Proximates
"Energy",kcal,--,--,60,214
"Protein",g,--,--,5.00,17.86
"Total lipid (fat)",g,--,--,4.00,14.29
"Carbohydrate, by difference",g,--,--,1.00,3.57
"Fiber, total dietary",g,--,--,0.0,0.0
"Sugars, total",g,--,--,1.00,3.57
Minerals
"Calcium, Ca",mg,--,--,0,0
"Iron, Fe",mg,--,--,0.64,2.29
"Sodium, Na",mg,--,--,330,1179
Vitamins
"Vitamin C, total ascorbic acid",mg,--,--,0.0,0.0
"Vitamin A, IU",IU,--,--,0,0
Lipids
"Fatty acids, total saturated",g,--,--,1.501,5.360
"Cholesterol",mg,--,--,20,71
Amino Acids
Other
Ingredients
"BEEF, PORK, SALT, SPICES, DEXTROSE, CORN SYRUP SOLIDS, WATER, NATURAL FLAVORING, GARLIC POWDER, SODIUM ERYTHORBATE, LACTIC ACID STARTER CULTURE, SODIUM NITRITE, COLLAGEN CASINGS." Date available: 07/14/2017 Date last updated by company: 07/14/2017
