Source: USDA Branded Food Products Database Release December 2017 Software v.3.8.6.4 2017-10-02
Report Run at: December 17, 2017 07:41 EST
"Nutrient data for: 45171342, LANDIES CANDIES, SWEET & TREATS, MILK CHOCOLATE CAKE TOPPER WITH CANDLE, UPC: 013065503218"
Food Group:  Branded Food Products Database
Common Name:

Nutrient,Unit,Data points,Std. Error,"1 NUMBER | ABOUT = 21.0g",1Value per 100 g,
Proximates
"Energy",kcal,--,--,109,519
"Protein",g,--,--,2.00,9.52
"Total lipid (fat)",g,--,--,7.00,33.33
"Carbohydrate, by difference",g,--,--,13.00,61.90
"Fiber, total dietary",g,--,--,1.0,4.8
"Sugars, total",g,--,--,12.00,57.14
Minerals
"Calcium, Ca",mg,--,--,40,190
"Iron, Fe",mg,--,--,0.00,0.00
"Sodium, Na",mg,--,--,16,76
Vitamins
"Vitamin C, total ascorbic acid",mg,--,--,0.0,0.0
"Vitamin A, IU",IU,--,--,100,476
Lipids
"Fatty acids, total saturated",g,--,--,4.000,19.050
"Fatty acids, total trans",g,--,--,0.000,0.000
"Cholesterol",mg,--,--,5,24
Amino Acids
Other
Ingredients
"SUGAR, MILK, COCOA BUTTER, CHOCOLATE LIQUOR, SOY LECITHIN (AN EMULSIFIER), VANILLIN (AN ARTIFICIAL FLAVOR)" Date available: 08/30/2017 Date last updated by company: 08/30/2017
