Source: USDA Branded Food Products Database Release December 2017 Software v.3.8.6.4 2017-10-02
Report Run at: December 17, 2017 07:42 EST
"Nutrient data for: 45016985, LAND O'FROST, PREMIUM, HICKORY SMOKED TURKEY BREAST, UPC: 051900016080"
Food Group:  Branded Food Products Database
Common Name:

Nutrient,Unit,Data points,Std. Error,"4.0 SLICES = 50.0g",1Value per 100 g,
Proximates
"Energy",kcal,--,--,90,180
"Protein",g,--,--,8.00,16.00
"Total lipid (fat)",g,--,--,5.00,10.00
"Carbohydrate, by difference",g,--,--,3.00,6.00
"Sugars, total",g,--,--,2.00,4.00
Minerals
"Iron, Fe",mg,--,--,0.40,0.79
"Sodium, Na",mg,--,--,510,1020
Vitamins
Lipids
"Fatty acids, total saturated",g,--,--,1.500,3.000
"Fatty acids, total trans",g,--,--,0.000,0.000
"Cholesterol",mg,--,--,25,50
Amino Acids
Other
Ingredients
"TURKEY BREAST, WATER, WHITE TURKEY, DEXTROSE, SALT. LESS THAN 2% OF BROWN SUGAR, FLAVORING, MODIFIED CORN STARCH, SODIUM ERYTHORBATE, SODIUM PHOSPHATES, SODIUM NITRITE." Date available: 06/25/2017 Date last updated by company: 06/25/2017
