Source: USDA Branded Food Products Database Release December 2017 Software v.3.8.6.4 2017-10-02
Report Run at: December 17, 2017 07:45 EST
"Nutrient data for: 45170926, LANGERS, JUICE COCKTAIL, STRAWBERRY WATERMELON, UPC: 041755006138"
Food Group:  Branded Food Products Database
Common Name:

Nutrient,Unit,Data points,Std. Error,"8.0 OZA = 237.0g",1Value per 100 g,
Proximates
"Energy",kcal,--,--,109,46
"Protein",g,--,--,0.00,0.00
"Total lipid (fat)",g,--,--,0.00,0.00
"Carbohydrate, by difference",g,--,--,27.99,11.81
"Sugars, total",g,--,--,26.99,11.39
Minerals
"Sodium, Na",mg,--,--,9,4
Vitamins
"Vitamin C, total ascorbic acid",mg,--,--,60.7,25.6
Lipids
"Fatty acids, total saturated",g,--,--,0.000,0.000
"Fatty acids, total trans",g,--,--,0.000,0.000
"Cholesterol",mg,--,--,0,0
Amino Acids
Other
Ingredients
"FILTERED WATER, FRUIT JUICES (PEAR, STRAWBERRY, WATERMELON PUREE, GRAPE AND PINEAPPLE) FROM CONCENTRATE (FILTERED WATER AND FRUIT JUICE CONCENTRATES), SUGAR, NATURAL FLAVORS, CITRIC ACID, ASCORBIC ACID (VITAMIN C), PECTIN, ESTERGUM, FRUIT AND VEGETABLE JUICE (COLOR)." Date available: 07/14/2017 Date last updated by company: 07/14/2017
