Source: USDA Branded Food Products Database Release December 2017 Software v.3.8.6.4 2017-10-02
Report Run at: December 17, 2017 07:44 EST
"Nutrient data for: 45235906, LANGERS, APPLE GRAPE 100% JUICE WITH ADDED VITAMIN C, UPC: 041755400073"
Food Group:  Branded Food Products Database
Common Name:

Nutrient,Unit,Data points,Std. Error,"8.0 OZA = 237.0g",1Value per 100 g,
Proximates
"Energy",kcal,--,--,121,51
"Protein",g,--,--,0.00,0.00
"Total lipid (fat)",g,--,--,0.00,0.00
"Carbohydrate, by difference",g,--,--,30.00,12.66
"Sugars, total",g,--,--,26.99,11.39
Minerals
"Sodium, Na",mg,--,--,14,6
Vitamins
"Vitamin C, total ascorbic acid",mg,--,--,73.0,30.8
Lipids
"Fatty acids, total saturated",g,--,--,0.000,0.000
"Fatty acids, total trans",g,--,--,0.000,0.000
"Cholesterol",mg,--,--,0,0
Amino Acids
Other
Ingredients
"APPLE AND GRAPE JUICES FROM CONCENTRATE (FILTERED WATER, APPLE AND GRAPE JUICE CONCENTRATES), ASCORBIC ACID (VITAMIN C), NATURAL FLAVOR, FRUIT AND VEGETABLE JUICE (COLOR)" Date available: 06/25/2017 Date last updated by company: 06/25/2017
