Source: USDA Branded Food Products Database Release December 2017 Software v.3.8.6.4 2017-10-02
Report Run at: December 17, 2017 07:44 EST
"Nutrient data for: 45143241, LANGERS, AGUA FRESCA LITE WATER + JUICE BEVERAGE, PINEAPPLE, UPC: 041755701613"
Food Group:  Branded Food Products Database
Common Name:

Nutrient,Unit,Data points,Std. Error,"1 BOTTLE = 414.0g",1Value per 100 g,
Proximates
"Energy",kcal,--,--,17,4
"Protein",g,--,--,0.00,0.00
"Total lipid (fat)",g,--,--,0.00,0.00
"Carbohydrate, by difference",g,--,--,2.98,0.72
"Sugars, total",g,--,--,1.99,0.48
Minerals
"Sodium, Na",mg,--,--,25,6
Vitamins
"Vitamin C, total ascorbic acid",mg,--,--,0.8,0.2
"Vitamin A, IU",IU,--,--,174,42
Lipids
"Fatty acids, total saturated",g,--,--,0.000,0.000
"Fatty acids, total trans",g,--,--,0.000,0.000
"Cholesterol",mg,--,--,0,0
Amino Acids
Other
Ingredients
"FILTERED WATER, PINEAPPLE JUICE CONCENTRATE, FRUIT AND VEGETABLE JUICE (COLOR), CITRIC ACID, NATURAL FLAVORS, MALIC ACID AND SUCRALOSE." Date available: 07/14/2017 Date last updated by company: 07/14/2017
