Source: USDA Branded Food Products Database Release December 2017 Software v.3.8.6.4 2017-10-02
Report Run at: December 17, 2017 07:45 EST
"Nutrient data for: 45155810, LANGERS, 100% JUICE, RUBY RED GRAPEFRUIT, UPC: 041755009030"
Food Group:  Branded Food Products Database
Common Name:

Nutrient,Unit,Data points,Std. Error,"8.0 OZA = 237.0g",1Value per 100 g,
Proximates
"Energy",kcal,--,--,121,51
"Protein",g,--,--,0.00,0.00
"Total lipid (fat)",g,--,--,0.00,0.00
"Carbohydrate, by difference",g,--,--,30.00,12.66
"Sugars, total",g,--,--,26.99,11.39
Minerals
"Sodium, Na",mg,--,--,14,6
Vitamins
"Vitamin C, total ascorbic acid",mg,--,--,73.0,30.8
Lipids
"Fatty acids, total saturated",g,--,--,0.000,0.000
"Fatty acids, total trans",g,--,--,0.000,0.000
"Cholesterol",mg,--,--,0,0
Amino Acids
Other
Ingredients
"RUBY RED GRAPEFRUIT JUICE FROM CONCENTRATE (FILTERED WATER, RUBY RED GRAPEFRUIT JUICE CONCENTRATE), ASCORBIC ACID (VITAMIN C), RED #40." Date available: 07/14/2017 Date last updated by company: 07/14/2017
