Source: USDA Branded Food Products Database Release December 2017 Software v.3.8.6.4 2017-10-02
Report Run at: December 17, 2017 07:53 EST
"Nutrient data for: 45255247, LARABAR, FRUIT & NUT FOOD BAR, KEY LIME PIE, UPC: 021908509143"
Food Group:  Branded Food Products Database
Common Name:

Nutrient,Unit,Data points,Std. Error,"1 BAR = 51.0g",1Value per 100 g,
Proximates
"Energy",kcal,--,--,220,431
"Protein",g,--,--,4.00,7.84
"Total lipid (fat)",g,--,--,10.00,19.61
"Carbohydrate, by difference",g,--,--,31.00,60.78
"Fiber, total dietary",g,--,--,4.0,7.8
"Sugars, total",g,--,--,24.00,47.06
Minerals
"Calcium, Ca",mg,--,--,20,39
"Iron, Fe",mg,--,--,0.85,1.66
"Magnesium, Mg",mg,--,--,31,61
"Phosphorus, P",mg,--,--,79,154
"Potassium, K",mg,--,--,350,686
"Sodium, Na",mg,--,--,5,10
Vitamins
"Vitamin C, total ascorbic acid",mg,--,--,0.0,0.0
"Vitamin A, IU",IU,--,--,0,0
Lipids
"Fatty acids, total saturated",g,--,--,3.499,6.860
"Fatty acids, total monounsaturated",g,--,--,4.498,8.820
"Fatty acids, total polyunsaturated",g,--,--,1.499,2.940
"Fatty acids, total trans",g,--,--,0.000,0.000
"Cholesterol",mg,--,--,0,0
Amino Acids
Other
Ingredients
"DATES, CASHEWS, ALMONDS, UNSWEETENED COCONUT, LIME JUICE CONCENTRATE." Date available: 06/25/2017 Date last updated by company: 06/25/2017
