Source: USDA Branded Food Products Database Release December 2017 Software v.3.8.6.4 2017-10-02
Report Run at: December 17, 2017 07:52 EST
"Nutrient data for: 45244441, LARABAR FRT NT FD BAR LEMON, UNPREPARED, GTIN: 00021908509174"
Food Group:  Branded Food Products Database
Common Name:

Nutrient,Unit,Data points,Std. Error,"1 bar (51g) = 51.0g",1Value per 100 g,
Proximates
"Energy",kcal,--,--,220,431
"Protein",g,--,--,5.00,9.80
"Total lipid (fat)",g,--,--,11.00,21.57
"Carbohydrate, by difference",g,--,--,26.00,50.98
"Fiber, total dietary",g,--,--,4.0,7.8
"Sugars, total",g,--,--,18.00,35.29
Minerals
"Calcium, Ca",mg,--,--,20,39
"Iron, Fe",mg,--,--,1.44,2.82
"Magnesium, Mg",mg,--,--,60,118
"Phosphorus, P",mg,--,--,100,196
"Potassium, K",mg,--,--,330,647
"Sodium, Na",mg,--,--,5,10
"Copper, Cu",mg,--,--,0.500,0.980
Vitamins
"Vitamin C, total ascorbic acid",mg,--,--,2.4,4.7
"Vitamin A, IU",IU,--,--,0,0
Lipids
"Fatty acids, total saturated",g,--,--,1.499,2.940
"Fatty acids, total trans",g,--,--,0.000,0.000
"Cholesterol",mg,--,--,0,0
Amino Acids
Other
Ingredients
"DATES, CASHEWS, ALMONDS, LEMON JUICE CONCENTRATE, DRIED LEMON JUICE CONCENTRATE, LEMON OIL." Date available: 05/24/2017 Date last updated by company: 05/16/2017
