Source: USDA Branded Food Products Database Release December 2017 Software v.3.8.6.4 2017-10-02
Report Run at: December 17, 2017 07:58 EST
"Nutrient data for: 45225328, LARGE GRADE A EGGS, UPC: 041415002661"
Food Group:  Branded Food Products Database
Common Name:

Nutrient,Unit,Data points,Std. Error,"1 EGG = 50.0g",1Value per 100 g,
Proximates
"Energy",kcal,--,--,70,140
"Protein",g,--,--,6.00,12.00
"Total lipid (fat)",g,--,--,4.50,9.00
"Carbohydrate, by difference",g,--,--,1.00,2.00
Minerals
"Calcium, Ca",mg,--,--,20,40
"Iron, Fe",mg,--,--,0.72,1.44
"Sodium, Na",mg,--,--,65,130
Vitamins
"Vitamin C, total ascorbic acid",mg,--,--,0.0,0.0
"Vitamin A, IU",IU,--,--,300,600
Lipids
"Fatty acids, total saturated",g,--,--,1.500,3.000
"Fatty acids, total trans",g,--,--,0.000,0.000
"Cholesterol",mg,--,--,215,430
Amino Acids
Other
Ingredients
"LARGE EGGS." Date available: 07/14/2017 Date last updated by company: 07/14/2017
