Source: USDA Branded Food Products Database Release December 2017 Software v.3.8.6.4 2017-10-02
Report Run at: December 17, 2017 08:00 EST
"Nutrient data for: 45273413, LARGE RAW SHRIMP, UPC: 075391024287"
Food Group:  Branded Food Products Database
Common Name:

Nutrient,Unit,Data points,Std. Error,"9.0 SHRIMP | ABOUT = 113.0g",1Value per 100 g,
Proximates
"Energy",kcal,--,--,140,124
"Protein",g,--,--,26.00,23.01
"Total lipid (fat)",g,--,--,2.00,1.77
"Carbohydrate, by difference",g,--,--,2.00,1.77
"Fiber, total dietary",g,--,--,0.0,0.0
"Sugars, total",g,--,--,0.00,0.00
Minerals
"Calcium, Ca",mg,--,--,99,88
"Iron, Fe",mg,--,--,0.27,0.24
"Sodium, Na",mg,--,--,1070,947
Vitamins
"Vitamin C, total ascorbic acid",mg,--,--,0.0,0.0
"Vitamin A, IU",IU,--,--,226,200
Lipids
"Fatty acids, total saturated",g,--,--,0.497,0.440
"Fatty acids, total trans",g,--,--,0.000,0.000
"Cholesterol",mg,--,--,240,212
Amino Acids
Other
Ingredients
"SHRIMP, WATER, SALT, SODIUM TRIPOLYPHOSPHATE (TO RETAIN MOISTURE)" Date available: 07/14/2017 Date last updated by company: 07/14/2017
