Source: USDA Branded Food Products Database Release December 2017 Software v.3.8.6.4 2017-10-02
Report Run at: December 17, 2017 07:55 EST
"Nutrient data for: 45273924, LARGE BROWN FRESH EGGS, UPC: 085239304051"
Food Group:  Branded Food Products Database
Common Name:

Nutrient,Unit,Data points,Std. Error,"1 EGG = 50.0g",1Value per 100 g,
Proximates
"Energy",kcal,--,--,70,140
"Protein",g,--,--,6.00,12.00
"Total lipid (fat)",g,--,--,5.00,10.00
"Carbohydrate, by difference",g,--,--,0.00,0.00
"Fiber, total dietary",g,--,--,0.0,0.0
"Sugars, total",g,--,--,0.00,0.00
Minerals
"Calcium, Ca",mg,--,--,20,40
"Iron, Fe",mg,--,--,0.72,1.44
"Sodium, Na",mg,--,--,70,140
Vitamins
"Vitamin C, total ascorbic acid",mg,--,--,0.0,0.0
"Vitamin A, IU",IU,--,--,300,600
Lipids
"Fatty acids, total saturated",g,--,--,1.500,3.000
"Fatty acids, total trans",g,--,--,0.000,0.000
"Cholesterol",mg,--,--,185,370
Amino Acids
Other
Ingredients
"LARGE BROWN FRESH EGGS" Date available: 03/12/2017 Date last updated by company: 03/12/2017
