Source: USDA Branded Food Products Database Release December 2017 Software v.3.8.6.4 2017-10-02
Report Run at: December 17, 2017 08:06 EST
"Nutrient data for: 45020670, LAS CAMPANAS, RED HOT BEEF BURRITO, UPC: 939696130145"
Food Group:  Branded Food Products Database
Common Name:

Nutrient,Unit,Data points,Std. Error,"4.0 ONZ = 113.0g",1Value per 100 g,
Proximates
"Energy",kcal,--,--,340,301
"Protein",g,--,--,8.99,7.96
"Total lipid (fat)",g,--,--,16.00,14.16
"Carbohydrate, by difference",g,--,--,39.00,34.51
"Fiber, total dietary",g,--,--,4.0,3.5
"Sugars, total",g,--,--,0.99,0.88
Minerals
"Calcium, Ca",mg,--,--,40,35
"Iron, Fe",mg,--,--,3.34,2.96
"Sodium, Na",mg,--,--,570,504
Vitamins
"Vitamin C, total ascorbic acid",mg,--,--,2.9,2.6
"Vitamin A, IU",IU,--,--,247,219
Lipids
"Fatty acids, total saturated",g,--,--,4.995,4.420
"Fatty acids, total trans",g,--,--,0.000,0.000
"Cholesterol",mg,--,--,15,13
Amino Acids
Other
Ingredients
"FILLING: WATER, BEEF, PINTO BEANS, TOMATO PASTE, CEREAL (CORN, WHEAT, RYE, OAT, RICE FLOURS), DEHYDRATED ONION, TEXTURED VEGETABLE PROTEIN (SOY FLOUR, CARAMEL COLOR, ZINC OXIDE, FERROUS SULFATE, NIACINAMIDE, CALCIUM PANTOTHENATE, PYRIDOXINE HYDROCHLORIDE, RIBOFLAVIN, THIAMINE MONONITRATE, VITAMIN A PALMITATE, VITAMIN B12), SALT, JALAPENO PUREE (JALAPENO PEPPERS, CITRIC ACID), SPICES, GROUND RED PEPPER, CRUSHED RED PEPPER, GARLIC POWDER, CARAMEL COLOR. TORTILLA: ENRICHED FLOUR (BLEACHED WHEAT FLOUR, NIACIN, IRON, THIAMINE MONONITRATE, RIBOFLAVIN, FOLIC ACID), WATER VEGETABLE OIL (SOYBEAN, CANOLA OR CORN OILS), SALT, BAKING POWDER (SODIUM BICARBONATE, CORN STARCH, SODIUM ALUMINIUM SULFATE, CALCIUM SULFATE, MONOCALCIUM PHOSPHATE), GUAR GUM, DOUGH CONDITIONER (SODIUM METABISULFATE, CORN STARCH, MICROCRYSTALLINE CELLULOSE, DICALCIUM PHOSPHATE)." Date available: 06/25/2017 Date last updated by company: 06/25/2017
