Source: USDA Branded Food Products Database Release December 2017 Software v.3.8.6.4 2017-10-02
Report Run at: December 17, 2017 08:05 EST
"Nutrient data for: 45330460, LASAGNA WITH ITALIAN SAUSAGE, UPC: 826766952328"
Food Group:  Branded Food Products Database
Common Name:

Nutrient,Unit,Data points,Std. Error,"1 CONTAINER = 283.0g",1Value per 100 g,
Proximates
"Energy",kcal,--,--,640,226
"Protein",g,--,--,32.01,11.31
"Total lipid (fat)",g,--,--,45.00,15.90
"Carbohydrate, by difference",g,--,--,27.99,9.89
"Fiber, total dietary",g,--,--,1.1,0.4
"Sugars, total",g,--,--,9.99,3.53
Minerals
"Calcium, Ca",mg,--,--,699,247
"Iron, Fe",mg,--,--,0.71,0.25
"Sodium, Na",mg,--,--,1511,534
Vitamins
"Vitamin C, total ascorbic acid",mg,--,--,5.9,2.1
"Vitamin A, IU",IU,--,--,741,262
Lipids
"Fatty acids, total saturated",g,--,--,23.998,8.480
"Fatty acids, total trans",g,--,--,0.990,0.350
"Cholesterol",mg,--,--,130,46
Amino Acids
Other
Ingredients
"ALFREDO SAUCE (MILK, CREAM [40% BUTTERFAT], WATER, BUTTER [CREAM AND SALT], PARMESAN CHEESE [PASTEURIZED COW'S MILK, CHEESE CULTURE, SALT, ENZYMES], ASIAGO CHEESE [PASTEURIZED PART SKIM MILK, CHEESE CULTURE, ENZYMES, SALT], CORN STARCH, SEA SALT, PARMESAN CHEESE FLAVOR [PARMESAN CHEESE (PASTEURIZED MILK, CULTURES, SALT AND ENZYMES), WATER, SALT, SODIUM PHOSPHATE AND SODIUM CITRATE AND XANTHAN GUM], EXPELLER PRESSED CANOLA OIL, ACACIA GUM, BLACK PEPPER), PIZZA SAUCE (VINE-RIPENED FRESH TOMATOES, BLEND OF EXTRA VIRGIN OLIVE OIL AND SUNFLOWER OIL, SALT, OREGANO, GRANULATED GARLIC, BLACK PEPPER AND NATURALLY DERIVED CITRIC ACID), COOKED PASTA SHEET (LASAGNA PASTA [WATER, DURUM FLOUR (DURUM WHEAT FLOUR, NIACIN, FERROUS SULFATE, THIAMIN MONONITRATE, RIBOFLAVIN, FOLIC ACID), SEMOLINA FLOUR (SEMOLINA, NIACIN, FERROUS SULFATE, THIAMIN MONONITRATE, RIBOFLAVIN, FOLIC ACID), EGG WHITES (EGG WHITES, XANTHAN GUM, TRIETHYL CITRATE)], WATER), MOZZARELLA CHEESE (LOW MOISTURE PART SKIM MOZZARELLA CHEESE [PASTEURIZED MILK, CHEESE CULTURES, SALT, ENZYMES], POTATO STARCH, CANOLA OIL AND CELLULOSE POWDER ADDED TO PREVENT CAKING, NATAMYCIN [A NATURAL MOLD INHIBITOR]), COOKED ITALIAN SAUSAGE (PORK, WATER, SALT, SPICES, CORN SYRUP SOLIDS, CARAMEL COLOR, SODIUM PHOSPHATES, AUTOLYZED YEAST, FLAVORING, BHA, BHT, CITRIC ACID), PARMESAN CHEESE (PARMESAN CHEESE [PASTEURIZED PART-SKIM COW'S MILK, CHEESE CULTURES, SALT, ENZYMES], POWDERED CELLULOSE ADDED TO PREVENT CAKING NATAMYCIN [A NATURAL MOLD INHIBITOR]), BUTTER (CREAM, NATURAL FLAVORING)." Date available: 10/13/2017 Date last updated by company: 10/13/2017
