Source: USDA Branded Food Products Database Release December 2017 Software v.3.8.6.4 2017-10-02
Report Run at: December 17, 2017 08:05 EST
"Nutrient data for: 45223818, LASAGNE, ENRICHED EGG PASTA PRODUCT, UPC: 076808001914"
Food Group:  Branded Food Products Database
Common Name:

Nutrient,Unit,Data points,Std. Error,"3.0 PIECES = 51.0g",1Value per 100 g,
Proximates
"Energy",kcal,--,--,190,373
"Protein",g,--,--,7.00,13.73
"Total lipid (fat)",g,--,--,1.50,2.94
"Carbohydrate, by difference",g,--,--,37.00,72.55
"Fiber, total dietary",g,--,--,2.0,3.9
"Sugars, total",g,--,--,1.00,1.96
Minerals
"Calcium, Ca",mg,--,--,0,0
"Iron, Fe",mg,--,--,4.94,9.69
"Sodium, Na",mg,--,--,5,10
Vitamins
"Vitamin C, total ascorbic acid",mg,--,--,0.0,0.0
"Thiamin",mg,--,--,0.510,1.000
"Riboflavin",mg,--,--,0.255,0.500
"Niacin",mg,--,--,3.236,6.345
"Vitamin A, IU",IU,--,--,0,0
Lipids
"Fatty acids, total saturated",g,--,--,0.000,0.000
"Fatty acids, total trans",g,--,--,0.000,0.000
"Cholesterol",mg,--,--,15,29
Amino Acids
Other
Ingredients
"SEMOLINA (WHEAT), DURUM WHEAT FLOUR, EGGS, NIACIN, IRON (FERROUS LACTATE), THIAMINE MONONITRATE, RIBOFLAVIN, FOLIC ACID." Date available: 07/14/2017 Date last updated by company: 07/14/2017
