Source: USDA Branded Food Products Database Release December 2017 Software v.3.8.6.4 2017-10-02
Report Run at: December 17, 2017 08:03 EST
"Nutrient data for: 45198592, LASAGNA ALFREDO WITH BROCCOLI, UPC: 073369149949"
Food Group:  Branded Food Products Database
Common Name:

Nutrient,Unit,Data points,Std. Error,"1 PACKAGE = 213.0g",1Value per 100 g,
Proximates
"Energy",kcal,--,--,279,131
"Protein",g,--,--,9.01,4.23
"Total lipid (fat)",g,--,--,10.99,5.16
"Carbohydrate, by difference",g,--,--,36.00,16.90
"Fiber, total dietary",g,--,--,1.9,0.9
"Sugars, total",g,--,--,3.00,1.41
Minerals
"Calcium, Ca",mg,--,--,149,70
"Iron, Fe",mg,--,--,1.64,0.77
"Sodium, Na",mg,--,--,541,254
Vitamins
"Vitamin C, total ascorbic acid",mg,--,--,5.5,2.6
"Vitamin A, IU",IU,--,--,458,215
Lipids
"Fatty acids, total saturated",g,--,--,5.006,2.350
"Fatty acids, total trans",g,--,--,0.000,0.000
"Cholesterol",mg,--,--,30,14
Amino Acids
Other
Ingredients
"COOKED ENRICHED PASTA (WATER, SEMOLINA [ENRICHED WITH NIACIN, FERROUS SULFATE, THIAMINE MONONITRATE, RIBOFLAVIN, FOLIC ACID]), HALF & HALF (MILK AND CREAM), WATER, BROCCOLI, LOW MOISTURE PART SKIM MOZZARELLA CHEESE (CHEESE [CULTURED PASTEURIZED PART SKIM MILK, SALT, ENZYMES], MODIFIED FOOD STARCH), LESS THAN 2% OF MARGARINE (LIQUID AND HYDROGENATED SOYBEAN OIL, WATER, SALT, VEGETABLE MONO AND DIGLYCERIDES, SOY LECITHIN, NATURAL AND ARTIFICIAL FLAVOR, BHA & BHT ADDED TO PROTECT FLAVOR, VITAMIN A PALMITATE AND VITAMIN D3 ADDED), MODIFIED FOOD STARCH, GRATED CHEESE BLEND (PARMESAN AND ASIAGO CHEESES [CULTURED MILK, SALT, ENZYMES], NATURAL FLAVOR, CELLULOSE, SALT), SALT, MALTODEXTRIN, SPICE, XANTHAN GUM." Date available: 07/14/2017 Date last updated by company: 07/14/2017
