Source: USDA Branded Food Products Database Release December 2017 Software v.3.8.6.4 2017-10-02
Report Run at: December 17, 2017 08:05 EST
"Nutrient data for: 45329536, LASAGNA WITH MEAT SAUCE, UPC: 079893106694"
Food Group:  Branded Food Products Database
Common Name:

Nutrient,Unit,Data points,Std. Error,"1 TRAY = 303.0g",1Value per 100 g,
Proximates
"Energy",kcal,--,--,300,99
"Protein",g,--,--,16.00,5.28
"Total lipid (fat)",g,--,--,5.00,1.65
"Carbohydrate, by difference",g,--,--,47.00,15.51
"Fiber, total dietary",g,--,--,5.2,1.7
"Sugars, total",g,--,--,9.00,2.97
Minerals
"Calcium, Ca",mg,--,--,251,83
"Iron, Fe",mg,--,--,2.30,0.76
"Sodium, Na",mg,--,--,709,234
Vitamins
"Vitamin C, total ascorbic acid",mg,--,--,5.8,1.9
"Vitamin A, IU",IU,--,--,1930,637
Lipids
"Fatty acids, total saturated",g,--,--,2.000,0.660
"Fatty acids, total trans",g,--,--,0.000,0.000
"Cholesterol",mg,--,--,21,7
Amino Acids
Other
Ingredients
"MEAT SAUCE (WATER, TOMATOES IN JUICE [TOMATOES, TOMATO JUICE, CITRIC ACID, CALCIUM CHLORIDE], TOMATOES IN PUREE [TOMATOES, TOMATO PUREE, SALT], COOKED BEEF TOPPING [BEEF, WATER, SOY PROTEIN CONCENTRATE, SALT, SEASONING {SUGAR, SPICES, SPICE, SPICE EXTRACTIVES}, SODIUM PHOSPHATE, FLAVORING], TOMATO PASTE, ONION, DRIED TOMATO, DRIED GARLIC, SUGAR, YEAST EXTRACT [YEAST EXTRACT, SALT], PARMESAN CHEESE FLAVOR [GRANULAR AND PARMESAN CHEESES {PASTEURIZED MILK, CHEESE CULTURES, SALT, ENZYMES], WATER, SALT, LACTIC ACID, CITRIC ACID], MODIFIED CORN STARCH, SALT, SPICES, ONION POWDER), COOKED LASAGNA PASTA (WATER, ENRICHED SEMOLINA [DURUM SEMOLINA, NIACIN, FERROUS SULFATE, THIAMIN MONONITRATE, RIBOFLAVIN, FOLIC ACID]), RICOTTA CHEESE MIX (LOWFAT RICOTTA CHEESE [PASTEURIZED WHEY, PASTEURIZED MILK, VINEGAR, SALT, CARRAGEENAN, VITAMIN A PALMITATE], MILK [WITH VITAMIN D3], WATER, MODIFIED CORN STARCH, SOYBEAN OIL, ENRICHED BLEACHED WHEAT FLOUR [NIACIN, REDUCED IRON, THIAMINE MONONITRATE, RIBOFLAVIN, FOLIC ACID], SALT, SPICES, XANTHAN GUM, SOY LECITHIN), CARROTS, REDUCED FAT MOZZARELLA CHEESE (PASTEURIZED PART-SKIM MILK, CHEESE CULTURES, SALT, ENZYMES, VITAMIN A PALMITATE)." Date available: 10/13/2017 Date last updated by company: 10/13/2017
