Source: USDA Branded Food Products Database Release December 2017 Software v.3.8.6.4 2017-10-02
Report Run at: December 17, 2017 08:11 EST
"Nutrient data for: 45144395, LAURA LYNN, DARK CHOCOLATE COVERED ALMONDS, UPC: 086854061381"
Food Group:  Branded Food Products Database
Common Name:

Nutrient,Unit,Data points,Std. Error,"20.0 PIECES = 80.0g",1Value per 100 g,
Proximates
"Energy",kcal,--,--,410,512
"Protein",g,--,--,6.00,7.50
"Total lipid (fat)",g,--,--,28.00,35.00
"Carbohydrate, by difference",g,--,--,43.00,53.75
"Fiber, total dietary",g,--,--,6.0,7.5
"Sugars, total",g,--,--,32.00,40.00
Minerals
"Calcium, Ca",mg,--,--,60,75
"Iron, Fe",mg,--,--,5.06,6.33
"Sodium, Na",mg,--,--,30,38
Vitamins
"Vitamin C, total ascorbic acid",mg,--,--,0.0,0.0
"Vitamin A, IU",IU,--,--,0,0
Lipids
"Fatty acids, total saturated",g,--,--,13.000,16.250
"Fatty acids, total trans",g,--,--,0.000,0.000
"Cholesterol",mg,--,--,0,0
Amino Acids
Other
Ingredients
"DARK CHOCOLATE (SUGAR, UNSWEETENED CHOCOLATE, COCOA BUTTER, UNSWEETENED CHOCOLATE PROCESSED WITH ALKALI, SOY LECITHIN [AN EMULSIFIER], SALT, VANILLA EXTRACT), WHOLE ROASTED ALMONDS, WATER, CORN SYRUP, SUGAR, ARABIC GUM, POTASSIUM SORBATE, CITRIC ACID, CONFECTIONER'S GLAZE, VEGETABLE OIL." Date available: 07/14/2017 Date last updated by company: 07/14/2017
