Source: USDA Branded Food Products Database Release December 2017 Software v.3.8.6.4 2017-10-02
Report Run at: December 17, 2017 08:13 EST
"Nutrient data for: 45176783, LAURA LYNN, SMALL CURD COTTAGE CHEESE, UPC: 086854001271"
Food Group:  Branded Food Products Database
Common Name:

Nutrient,Unit,Data points,Std. Error,"0.5 cup = 113.0g",1Value per 100 g,
Proximates
"Energy",kcal,--,--,80,71
"Protein",g,--,--,12.99,11.50
"Total lipid (fat)",g,--,--,0.00,0.00
"Carbohydrate, by difference",g,--,--,6.00,5.31
"Fiber, total dietary",g,--,--,0.0,0.0
"Sugars, total",g,--,--,4.99,4.42
Minerals
"Calcium, Ca",mg,--,--,99,88
"Iron, Fe",mg,--,--,0.00,0.00
"Potassium, K",mg,--,--,170,150
"Sodium, Na",mg,--,--,431,381
Vitamins
"Vitamin C, total ascorbic acid",mg,--,--,0.0,0.0
"Vitamin A, IU",IU,--,--,194,172
Lipids
"Fatty acids, total saturated",g,--,--,0.000,0.000
"Fatty acids, total trans",g,--,--,0.000,0.000
"Cholesterol",mg,--,--,5,4
Amino Acids
Other
Ingredients
"CULTURED PASTEURIZED NONFAT MILK, NONFAT MILK, CONTAINS LESS THAN 2% OF: CREAM*, WHEY, MALTODEXTRIN, ARTIFICIAL COLOR**, GUAR GUM, CITRIC ACID, CARRAGEENAN, MONO AND DIGLYCERIDES*, LOCUST BEAN GUM, SALT, NATURAL AND ARTIFICIAL FLAVOR, VITAMIN A PALMITATE, ENZYME, POTASSIUM SORBATE AND CARBON DIOXIDE (TO PRESERVE FRESHNESS)." Date available: 07/14/2017 Date last updated by company: 07/14/2017
