Source: USDA Branded Food Products Database Release December 2017 Software v.3.8.6.4 2017-10-02
Report Run at: December 17, 2017 08:13 EST
"Nutrient data for: 45144393, LAURA LYNN, SODA, UPC: 086854058466"
Food Group:  Branded Food Products Database
Common Name:

Nutrient,Unit,Data points,Std. Error,"1 CAN = 355.0g",1Value per 100 g,
Proximates
"Energy",kcal,--,--,0,0
"Protein",g,--,--,0.00,0.00
"Total lipid (fat)",g,--,--,0.00,0.00
"Carbohydrate, by difference",g,--,--,0.99,0.28
"Sugars, total",g,--,--,0.00,0.00
Minerals
"Sodium, Na",mg,--,--,36,10
Vitamins
Lipids
Amino Acids
Other
Ingredients
"CARBONATED WATER, CITRIC ACID, NATURAL FLAVOR, POTASSIUM BENZOATE (PRESERVATIVE). PECTIN, POTASSIUM CITRATE, GUM ACACIA, ORANGE JUICE CONCENTRATE, ASPARTAME, CAFFEINE, ACESULFAME POTASSIUM, SUCRALOSE, BROMINATED VEGETABLE OIL, YELLOW 5. CALCIUM DISODIUM EDTA (TO PROTECT FLAVOR)." Date available: 08/27/2017 Date last updated by company: 08/27/2017
