Source: USDA Branded Food Products Database Release December 2017 Software v.3.8.6.4 2017-10-02
Report Run at: December 17, 2017 08:15 EST
"Nutrient data for: 45209630, LAVASH BREAD, UPC: 688267143984"
Food Group:  Branded Food Products Database
Common Name:

Nutrient,Unit,Data points,Std. Error,"1 LAVASH = 56.0g",1Value per 100 g,
Proximates
"Energy",kcal,--,--,100,179
"Protein",g,--,--,8.00,14.29
"Total lipid (fat)",g,--,--,2.50,4.46
"Carbohydrate, by difference",g,--,--,18.00,32.14
"Fiber, total dietary",g,--,--,8.0,14.3
"Sugars, total",g,--,--,1.00,1.79
Minerals
"Calcium, Ca",mg,--,--,100,179
"Iron, Fe",mg,--,--,1.61,2.87
"Sodium, Na",mg,--,--,280,500
Vitamins
"Vitamin C, total ascorbic acid",mg,--,--,0.0,0.0
"Vitamin A, IU",IU,--,--,0,0
Lipids
"Fatty acids, total saturated",g,--,--,0.000,0.000
"Fatty acids, total monounsaturated",g,--,--,1.002,1.790
"Fatty acids, total polyunsaturated",g,--,--,0.000,0.000
"Fatty acids, total trans",g,--,--,0.000,0.000
"Cholesterol",mg,--,--,0,0
Amino Acids
Other
Ingredients
"WATER, WHOLE WHEAT FLOUR, OAT FIBER, WHEAT GLUTEN. SOY FLOUR. OAT BRAN, YEAST. CONTAINS 2% OR LESS OF: CORN FLOUR, CORNSTARCH, SOY PROTEIN. SOYBEAN OIL, SALT, SESAME FLOUR, SUGAR, DEXTROSE, ASCORBIC ACID, SODIUM BICARBONATE, POTASSIUM SORBATE. FUMARIC ACID, CALCIUM ACID PYROPHOSPHATE, MONOCALCIUM PHOSPHATE. MONO- AND DIGLYCERIDES, SODIUM METABISULFITE, CITRIC ACID, CALCIUM PROPIONATE (PRESERVATIVE)." Date available: 07/14/2017 Date last updated by company: 07/14/2017
