Source: USDA Branded Food Products Database Release December 2017 Software v.3.8.6.4 2017-10-02
Report Run at: December 17, 2017 08:17 EST
"Nutrient data for: 45012162, LAWRY'S, GARLIC SALT, UPC: 021500011006"
Food Group:  Branded Food Products Database
Common Name:

Nutrient,Unit,Data points,Std. Error,"0.25 tsp = 0.9g",1Value per 100 g,
Proximates
"Energy",kcal,--,--,0,0
"Protein",g,--,--,0.00,0.00
"Total lipid (fat)",g,--,--,0.00,0.00
"Carbohydrate, by difference",g,--,--,0.00,0.00
Minerals
"Sodium, Na",mg,--,--,240,26667
Vitamins
Lipids
Amino Acids
Other
Ingredients
"SALT, GARLIC, MODIFIED FOOD STARCH, SUGAR, PARSLEY, PARTIALLY HYDROGENATED VEGETABLE OIL (COTTONSEED, SOYBEAN), CARROT OIL (FOR COLOR), GARLIC OIL." Date available: 06/25/2017 Date last updated by company: 06/25/2017
