Source: USDA Branded Food Products Database Release December 2017 Software v.3.8.6.4 2017-10-02
Report Run at: December 17, 2017 08:17 EST
"Nutrient data for: 45107617, LAWRY'S, FAJITAS SEASONING MIX, UPC: 021500800914"
Food Group:  Branded Food Products Database
Common Name:

Nutrient,Unit,Data points,Std. Error,"1 tsp = 4.0g",1Value per 100 g,
Proximates
"Energy",kcal,--,--,15,375
"Protein",g,--,--,0.00,0.00
"Total lipid (fat)",g,--,--,0.00,0.00
"Carbohydrate, by difference",g,--,--,3.00,75.00
Minerals
"Sodium, Na",mg,--,--,330,8250
Vitamins
Lipids
Amino Acids
Other
Ingredients
"MALTODEXTRIN, SALT, SPICE (INCLUDING PAPRIKA AND CHILI PEPPER), MODIFIED CORN STARCH, SUGAR, SOY SAUCE (SOYBEAN, WHEAT, SALT), CITRIC ACID, CARAMEL COLOR, AUTOLYZED YEAST EXTRACT, NATURAL FLAVOR, GARLIC, BEEF EXTRACT, AND BEEF FAT." Date available: 07/14/2017 Date last updated by company: 07/14/2017
