Source: USDA Branded Food Products Database Release December 2017 Software v.3.8.6.4 2017-10-02
Report Run at: December 17, 2017 08:17 EST
"Nutrient data for: 45202096, LAWRY'S, MARINADE, TUSCAN SUN-DRIED TOMATO, UPC: 021500010061"
Food Group:  Branded Food Products Database
Common Name:

Nutrient,Unit,Data points,Std. Error,"1 Tbsp = 15.0g",1Value per 100 g,
Proximates
"Energy",kcal,--,--,15,100
"Protein",g,--,--,0.00,0.00
"Total lipid (fat)",g,--,--,0.00,0.00
"Carbohydrate, by difference",g,--,--,2.00,13.33
"Sugars, total",g,--,--,1.00,6.67
Minerals
"Sodium, Na",mg,--,--,340,2267
Vitamins
"Vitamin C, total ascorbic acid",mg,--,--,4.0,26.7
Lipids
Amino Acids
Other
Ingredients
"WATER, DISTILLED VINEGAR, HIGH FRUCTOSE CORN SYRUP, SALT, GARLIC, MODIFIED CORN STARCH, EXTRA VIRGIN OLIVE OIL, ONION, SPICES (INCLUDING OREGANO AND ROSEMARY), RED BELL PEPPER, SUN-DRIED TOMATO, CITRIC ACID, XANTHAN GUM, POTASSIUM SORBATE AND SODIUM BENZOATE (TO PROTECT QUALITY), EXTRACTIVES OF PAPRIKA, NATURAL FLAVOR, AND SULFITING AGENTS." Date available: 06/25/2017 Date last updated by company: 06/25/2017
