Source: USDA Branded Food Products Database Release December 2017 Software v.3.8.6.4 2017-10-02
Report Run at: December 17, 2017 08:23 EST
"Nutrient data for: 45248965, LAY'S, POTATO CHIPS, INDIAN TIKKA MASALA, UPC: 028400624763"
Food Group:  Branded Food Products Database
Common Name:

Nutrient,Unit,Data points,Std. Error,"18.0 CHIPS | ABOUT = 28.0g",1Value per 100 g,
Proximates
"Energy",kcal,--,--,150,536
"Protein",g,--,--,2.00,7.14
"Total lipid (fat)",g,--,--,8.00,28.57
"Carbohydrate, by difference",g,--,--,17.00,60.71
"Fiber, total dietary",g,--,--,2.0,7.1
"Sugars, total",g,--,--,1.00,3.57
Minerals
"Calcium, Ca",mg,--,--,0,0
"Iron, Fe",mg,--,--,0.36,1.29
"Potassium, K",mg,--,--,350,1250
"Sodium, Na",mg,--,--,150,536
Vitamins
"Vitamin C, total ascorbic acid",mg,--,--,6.0,21.4
"Vitamin A, IU",IU,--,--,100,357
Lipids
"Fatty acids, total saturated",g,--,--,1.501,5.360
"Fatty acids, total trans",g,--,--,0.000,0.000
"Cholesterol",mg,--,--,0,0
Amino Acids
Other
Ingredients
"POTATOES, VEGETABLE OIL (SUNFLOWER, CORN, AND/OR CANOLA OIL), TIKKA MASALA SEASONING (SPICES [INCLUDING TURMERIC AND CUMIN], TOMATO POWDER, SALT, SUGAR, MALTODEXTRIN [MADE FROM CORN], ONION POWDER, DEXTROSE, YEAST EXTRACT, BUTTER [CREAM, SALT], SKIM MILK, CREAM, NATURAL FLAVOR, SOUR CREAM [CULTURED CREAM, SKIM MILK], GARLIC POWDER, SUNFLOWER OIL, CITRIC ACID, LACTOSE, PAPRIKA EXTRACTS, BROWN SUGAR, TURMERIC, TURMERIC EXTRACTS, AND ANNATTO EXTRACTS)." Date available: 09/23/2016 Date last updated by company: 09/23/2016
