Source: USDA Branded Food Products Database Release December 2017 Software v.3.8.6.4 2017-10-02
Report Run at: December 17, 2017 08:19 EST
"Nutrient data for: 45158958, LAYAL'S GOURMET SWEETS, DATES & ALMONDS TAMRIYA, UPC: 862834000010"
Food Group:  Branded Food Products Database
Common Name:

Nutrient,Unit,Data points,Std. Error,"1 COOKIE = 340.0g",1Value per 100 g,
Proximates
"Energy",kcal,--,--,58,17
"Protein",g,--,--,0.99,0.29
"Total lipid (fat)",g,--,--,2.11,0.62
"Carbohydrate, by difference",g,--,--,10.00,2.94
"Fiber, total dietary",g,--,--,1.0,0.3
"Sugars, total",g,--,--,7.00,2.06
Minerals
"Calcium, Ca",mg,--,--,0,0
"Iron, Fe",mg,--,--,0.07,0.02
"Sodium, Na",mg,--,--,3,1
Vitamins
"Vitamin C, total ascorbic acid",mg,--,--,0.0,0.0
"Vitamin A, IU",IU,--,--,0,0
Lipids
"Fatty acids, total saturated",g,--,--,0.000,0.000
"Fatty acids, total trans",g,--,--,0.000,0.000
"Cholesterol",mg,--,--,3,1
Amino Acids
Other
Ingredients
"BLEACHED WHEAT FLOUR, DATES, OIL (SOYBEAN & CORN), WATER, MILK, SEMOLINA (PURIFIED WHEAT MIDDLINGS), EGG, TREE NUTS (ALMOND), 2% OR LESS OF THE FOLLOWING: ROSE WATER, VANILLA, CORNSTARCH, BAKING POWDER, SESAME, YEAST & SALT." Date available: 08/18/2017 Date last updated by company: 08/18/2017
