Source: USDA Branded Food Products Database Release December 2017 Software v.3.8.6.4 2017-10-02
Report Run at: December 17, 2017 08:25 EST
"Nutrient data for: 45060546, LCING ORANGE, UPC: 052100048604"
Food Group:  Branded Food Products Database
Common Name:

Nutrient,Unit,Data points,Std. Error,"1 tsp = 6.0g",1Value per 100 g,
Proximates
"Energy",kcal,--,--,25,417
"Protein",g,--,--,0.00,0.00
"Total lipid (fat)",g,--,--,1.00,16.67
"Carbohydrate, by difference",g,--,--,5.00,83.33
"Sugars, total",g,--,--,4.00,66.67
Minerals
"Sodium, Na",mg,--,--,15,250
Vitamins
Lipids
Amino Acids
Other
Ingredients
"INGREDIENTS: SUGAR, PARTIALLY HYDROGENATED VEGETABLE OIL (SOYBEAN, COTTONSEED), WATER, CORN SYRUP, MODIFIED CORNSTARCH, SALT, CORNSTARCH, MONO-AND DIGLCERIDES, NATURAL & ARTIFICIAL FLAVOR, YELLOW 6 LAKE POTASSIUM SORBATE (PRESERVATIVE), POLYSORBATE 60, CITRIC ACID." Date available: 06/24/2017 Date last updated by company: 06/24/2017
