Source: USDA Branded Food Products Database Release December 2017 Software v.3.8.6.4 2017-10-02
Report Run at: December 17, 2017 08:29 EST
"Nutrient data for: 45165712, LE CARAMEL, COCONUT CARAMELS, UPC: 689466500332"
Food Group:  Branded Food Products Database
Common Name:

Nutrient,Unit,Data points,Std. Error,"3.0 PIECES = 15.0g",1Value per 100 g,
Proximates
"Energy",kcal,--,--,60,400
"Protein",g,--,--,0.00,0.00
"Total lipid (fat)",g,--,--,1.50,10.00
"Carbohydrate, by difference",g,--,--,11.00,73.33
"Fiber, total dietary",g,--,--,0.0,0.0
"Sugars, total",g,--,--,8.00,53.33
Minerals
"Calcium, Ca",mg,--,--,10,67
"Sodium, Na",mg,--,--,80,533
Vitamins
"Vitamin A, IU",IU,--,--,166,1110
Lipids
"Fatty acids, total saturated",g,--,--,1.000,6.670
"Cholesterol",mg,--,--,3,20
Amino Acids
Other
Ingredients
"PURE CANE SUGAR, MILK, GLUCOSE SYRUP, SALTED BUTTER, DEXTROSE, SEA SALT, NATURAL COCONUT FLAVOR." Date available: 10/13/2017 Date last updated by company: 10/13/2017
