Source: USDA Branded Food Products Database Release December 2017 Software v.3.8.6.4 2017-10-02
Report Run at: December 17, 2017 08:35 EST
"Nutrient data for: 45085762, LE KUM KEE, CURRY SAUCE, UPC: 078895610123"
Food Group:  Branded Food Products Database
Common Name:

Nutrient,Unit,Data points,Std. Error,"1.5 Tbsp = 29.0g",1Value per 100 g,
Proximates
"Energy",kcal,--,--,70,241
"Protein",g,--,--,1.00,3.45
"Total lipid (fat)",g,--,--,4.50,15.52
"Carbohydrate, by difference",g,--,--,7.00,24.14
"Fiber, total dietary",g,--,--,1.0,3.4
"Sugars, total",g,--,--,5.00,17.24
Minerals
"Calcium, Ca",mg,--,--,0,0
"Iron, Fe",mg,--,--,2.92,10.07
"Sodium, Na",mg,--,--,1200,4138
Vitamins
"Vitamin C, total ascorbic acid",mg,--,--,0.0,0.0
"Vitamin A, IU",IU,--,--,0,0
Lipids
"Fatty acids, total saturated",g,--,--,1.499,5.170
"Fatty acids, total trans",g,--,--,0.000,0.000
"Cholesterol",mg,--,--,0,0
Amino Acids
Other
Ingredients
"WATER, SOYBEAN OIL, SALT, WHITE SUGAR, COCONUT POWDER, TOMATO PASTE, TURMERIC POWDER, ONION POWDER, GARLIC POWDER, CORIANDER POWDER, ONION POWDER, SPICES, SOY SAUCE (WATER, SOYBEAN, SALT, WHEAT, HIGH FRUCTOSE CORN SYRUP), OYSTER EXTRACTIVES (OYSTER, WATER, SALT), MODIFIED CORN STARCH, CARAMEL COLOR, DISODIUM 5'-INOSINATE AND DISODIUM 5'-GUANYLATE AS FLAVOR ENHANCERS, CONTAINS SOYBEAN, MILK PRODUCT, OYESTER" Date available: 06/25/2017 Date last updated by company: 06/25/2017
