Source: USDA Branded Food Products Database Release December 2017 Software v.3.8.6.4 2017-10-02
Report Run at: December 17, 2017 08:25 EST
"Nutrient data for: 45193328, LEAF SPINACH, UPC: 011110817112"
Food Group:  Branded Food Products Database
Common Name:

Nutrient,Unit,Data points,Std. Error,"0.5 cup = 115.0g",1Value per 100 g,
Proximates
"Energy",kcal,--,--,30,26
"Protein",g,--,--,3.00,2.61
"Total lipid (fat)",g,--,--,0.00,0.00
"Carbohydrate, by difference",g,--,--,4.00,3.48
"Fiber, total dietary",g,--,--,4.0,3.5
"Sugars, total",g,--,--,0.00,0.00
Minerals
"Calcium, Ca",mg,--,--,150,130
"Iron, Fe",mg,--,--,4.07,3.54
"Potassium, K",mg,--,--,490,426
"Sodium, Na",mg,--,--,85,74
Vitamins
"Vitamin C, total ascorbic acid",mg,--,--,5.4,4.7
"Vitamin A, IU",IU,--,--,5652,4915
Lipids
"Fatty acids, total saturated",g,--,--,0.000,0.000
"Fatty acids, total trans",g,--,--,0.000,0.000
"Cholesterol",mg,--,--,0,0
Amino Acids
Other
Ingredients
"SPINACH WATER." Date available: 07/14/2017 Date last updated by company: 07/14/2017
