Source: USDA Branded Food Products Database Release December 2017 Software v.3.8.6.4 2017-10-02
Report Run at: December 17, 2017 08:31 EST
"Nutrient data for: 45085739, LEE KUM KEE, PANDA, LO MEIN OYSTER FLAVORED SAUCE, UPC: 078895140934"
Food Group:  Branded Food Products Database
Common Name:

Nutrient,Unit,Data points,Std. Error,"1 Tbsp = 18.0g",1Value per 100 g,
Proximates
"Energy",kcal,--,--,35,194
"Protein",g,--,--,0.00,0.00
"Total lipid (fat)",g,--,--,1.50,8.33
"Carbohydrate, by difference",g,--,--,5.00,27.78
"Sugars, total",g,--,--,4.00,22.22
Minerals
"Sodium, Na",mg,--,--,780,4333
Vitamins
Lipids
Amino Acids
Other
Ingredients
"WATER, SUGAR, SALT, SESAME OIL, OYSTER EXTRACTIVES (OYSTER, WATER, SALT), MODIFIED CORN STARCH, CONTAINS LESS THAN 2% OF CORN MALTODEXTRIN, MONOSODIUM GLUTAMATE, CARAMEL COLOR, DEHYDRATED CHICKEN MEAT, CHICKEN BROTH, NATURAL AND ARTIFICIAL FLAVORS, CHICKEN FAT, PROPYLENE, GLYCOL ALGINATE, YEAST EXTRACT, DISODIUM-INOSINATE, DISODIUM-GUANYLATE, TORULA YEAST, SPICE, POTASSIUM SORBATE ADDED AS A PRESERVATIVE." Date available: 06/25/2017 Date last updated by company: 06/25/2017
