Source: USDA Branded Food Products Database Release December 2017 Software v.3.8.6.4 2017-10-02
Report Run at: December 17, 2017 08:31 EST
"Nutrient data for: 45108713, LEE KUM KEE, STIR - FRY SAUCE, UPC: 078895143003"
Food Group:  Branded Food Products Database
Common Name:

Nutrient,Unit,Data points,Std. Error,"2.0 Tbsp = 33.0g",1Value per 100 g,
Proximates
"Energy",kcal,--,--,30,91
"Protein",g,--,--,0.00,0.00
"Total lipid (fat)",g,--,--,0.50,1.52
"Carbohydrate, by difference",g,--,--,6.00,18.18
"Sugars, total",g,--,--,4.00,12.12
Minerals
"Sodium, Na",mg,--,--,1000,3030
Vitamins
Lipids
"Fatty acids, total saturated",g,--,--,0.000,0.000
"Fatty acids, total trans",g,--,--,0.000,0.000
"Cholesterol",mg,--,--,0,0
Amino Acids
Other
Ingredients
"WATER, SUGAR, SALT, SHERRY COOKING WINE (SHERRY WINE, SALT, POTASSIUM METABISULFITE), MODIFIED CORN STARCH, CONTAINS LESS THAN 2% OF SOYBEANS, WHEAT FLOUR, RICE COOKING WINE, SESAME OIL SOYBEAN OIL, CITRIC ACID, CARAMEL COLOR, GARLIC, LACTIC ACID, SPICE, REB A (STEVIA EXTRACT), AND SODIUM BENZOATE ADDED AS A PRESERVATIVE." Date available: 06/25/2017 Date last updated by company: 06/25/2017
