Source: USDA Branded Food Products Database Release December 2017 Software v.3.8.6.4 2017-10-02
Report Run at: December 17, 2017 08:31 EST
"Nutrient data for: 45088318, LEE KUM KEE, SAUCE FOR BLACK PEPPER CHICKEN, UPC: 078895122046"
Food Group:  Branded Food Products Database
Common Name:

Nutrient,Unit,Data points,Std. Error,"1 Tbsp = 15.0g",1Value per 100 g,
Proximates
"Energy",kcal,--,--,30,200
"Protein",g,--,--,0.00,0.00
"Total lipid (fat)",g,--,--,0.00,0.00
"Carbohydrate, by difference",g,--,--,6.00,40.00
"Sugars, total",g,--,--,4.00,26.67
Minerals
"Sodium, Na",mg,--,--,530,3533
Vitamins
Lipids
Amino Acids
Other
Ingredients
"WATER, HIGH FRUCTOSE CORN SYRUP, SUGAR, SOY SAUCE (WATER, SOYBEANS, SALT, WHEAT FLOUR, CARAMEL COLOR, HIGH FRUCTOSE CORN SYRUP), SALT, OYSTER SAUCE (WATER, SUGAR, SALT. OYSTER EXTRACTIVES (OYSTER, WATER, SALT), MODIFIED CORN STARCH, CARAMEL COLOR), TOMATO PASTE, BLACK PEPPER, YEAST EXTRACT (YEAST EXTRACT, WATER, SALT), DEHYDRATED GARLIC, MODIFIED CORN STARCH, SOYBEAN OIL, CARAMEL COLOR, CITRIC ACID, DISODIUM 5'-INOSINATE AND DISODIUM 5'-GUANYLATE AS FLAVOR ENHANCERS." Date available: 07/14/2017 Date last updated by company: 07/14/2017
