Source: USDA Branded Food Products Database Release December 2017 Software v.3.8.6.4 2017-10-02
Report Run at: December 17, 2017 08:34 EST
"Nutrient data for: 45172585, LEHI ROLLER MILLS, COOKIE MIX, PUMPKIN CHOCOLATE CHIP, UPC: 022825001284"
Food Group:  Branded Food Products Database
Common Name:

Nutrient,Unit,Data points,Std. Error,"3.0 Tbsp = 37.0g",1Value per 100 g,
Proximates
"Energy",kcal,--,--,140,378
"Protein",g,--,--,2.00,5.41
"Total lipid (fat)",g,--,--,1.50,4.05
"Carbohydrate, by difference",g,--,--,30.00,81.08
"Fiber, total dietary",g,--,--,1.0,2.7
"Sugars, total",g,--,--,18.00,48.65
Minerals
"Calcium, Ca",mg,--,--,0,0
"Iron, Fe",mg,--,--,1.17,3.16
"Sodium, Na",mg,--,--,105,284
Vitamins
"Vitamin C, total ascorbic acid",mg,--,--,0.0,0.0
"Thiamin",mg,--,--,0.000,0.000
"Riboflavin",mg,--,--,0.034,0.092
"Niacin",mg,--,--,0.864,2.335
"Vitamin A, IU",IU,--,--,0,0
Lipids
"Fatty acids, total saturated",g,--,--,0.999,2.700
"Fatty acids, total trans",g,--,--,0.000,0.000
"Cholesterol",mg,--,--,0,0
Amino Acids
Other
Ingredients
"BLEACHED ENRICHED FLOUR (WHEAT FLOUR, NIACIN, REDUCED IRON, THIAMINE MONONITRATE, RIBOFLAVIN, FOLIC ACID), SUGAR, BROWN SUGAR, CHOCOLATE CHIPS [SUGAR, CHOCOLATE LIQUOR, COCOA BUTTER, SOY LECITHIN (EMULSIFIER), VANILLIN (AN ARTIFICIAL FLAVOR)], SPICES (NUTMEG CINNAMON, GINGER, CLOVES), PUMPKIN POWDER (DRIED PUMPKIN, MALTODEXTRIN, LECITHIN), CINNAMON, SODIUM BICARBONATE, BAKING POWDER, SALT." Date available: 07/14/2017 Date last updated by company: 07/14/2017
