Source: USDA Branded Food Products Database Release December 2017 Software v.3.8.6.4 2017-10-02
Report Run at: December 17, 2017 08:35 EST
"Nutrient data for: 45029073, LEILA BAY TRADING CO., CRANBERRY ALMOND GRANOLA, UPC: 023882190034"
Food Group:  Branded Food Products Database
Common Name:

Nutrient,Unit,Data points,Std. Error,"2.0 ONZ = 56.0g",1Value per 100 g,
Proximates
"Energy",kcal,--,--,250,446
"Protein",g,--,--,4.00,7.14
"Total lipid (fat)",g,--,--,12.00,21.43
"Carbohydrate, by difference",g,--,--,33.00,58.93
"Fiber, total dietary",g,--,--,3.0,5.4
"Sugars, total",g,--,--,13.00,23.21
Minerals
"Calcium, Ca",mg,--,--,60,107
"Iron, Fe",mg,--,--,4.42,7.89
"Sodium, Na",mg,--,--,100,179
Vitamins
"Vitamin C, total ascorbic acid",mg,--,--,0.0,0.0
"Vitamin A, IU",IU,--,--,0,0
Lipids
"Fatty acids, total saturated",g,--,--,4.502,8.040
"Fatty acids, total trans",g,--,--,0.000,0.000
"Cholesterol",mg,--,--,0,0
Amino Acids
Other
Ingredients
"DRIED CRANBERRIES (CRANBERRIES, SUGAR, SUNFLOWER OIL), OATS, ALMONDS, MALTED WHEAT FLAKES, PUFFED RICE, (RICE FLOUR, SUGAR, MALT EXTRACT, SALT), BROWN SUGAR (INVERT SUGAR, MOLASSES), BROWN RICE SYRUP, UNSWEETENED COCONUT, SESAME SEEDS, RICE BRAN OIL, VANILLA, BAKING SODA, SALT, NATURAL FLAVOR." Date available: 06/24/2017 Date last updated by company: 06/24/2017
