Source: USDA Branded Food Products Database Release December 2017 Software v.3.8.6.4 2017-10-02
Report Run at: December 17, 2017 08:37 EST
"Nutrient data for: 45241572, LEMONADE, LIQUID WATER ENHANCER, UPC: 713733186926"
Food Group:  Branded Food Products Database
Common Name:

Nutrient,Unit,Data points,Std. Error,"0.5 tsp = 2.0g",1Value per 100 g,
Proximates
"Energy",kcal,--,--,5,250
"Protein",g,--,--,0.00,0.00
"Total lipid (fat)",g,--,--,0.00,0.00
"Carbohydrate, by difference",g,--,--,2.00,100.00
"Sugars, total",g,--,--,1.00,50.00
Minerals
"Sodium, Na",mg,--,--,0,0
Vitamins
Lipids
Amino Acids
Other
Ingredients
"WATER, CITRIC ACID, CANE SUGAR, GLYCERIN, STEVIA EXTRACT (SWEETENER), GUM ARABIC, LESS THAN 2%: NATURAL FLAVOR." Date available: 07/31/2017 Date last updated by company: 07/31/2017
