Source: USDA Branded Food Products Database Release December 2017 Software v.3.8.6.4 2017-10-02
Report Run at: December 17, 2017 08:51 EST
"Nutrient data for: 45288837, LEMON PIE, UPC: 049705545522"
Food Group:  Branded Food Products Database
Common Name:

Nutrient,Unit,Data points,Std. Error,"0.25 PIE = 99.0g",1Value per 100 g,
Proximates
"Energy",kcal,--,--,270,273
"Protein",g,--,--,2.00,2.02
"Total lipid (fat)",g,--,--,14.00,14.14
"Carbohydrate, by difference",g,--,--,35.00,35.35
"Fiber, total dietary",g,--,--,3.0,3.0
"Sugars, total",g,--,--,13.00,13.13
Minerals
"Calcium, Ca",mg,--,--,0,0
"Iron, Fe",mg,--,--,1.37,1.38
"Sodium, Na",mg,--,--,270,273
Vitamins
"Vitamin C, total ascorbic acid",mg,--,--,0.0,0.0
"Vitamin A, IU",IU,--,--,0,0
Lipids
"Fatty acids, total saturated",g,--,--,6.999,7.070
"Fatty acids, total trans",g,--,--,0.000,0.000
"Cholesterol",mg,--,--,15,15
Amino Acids
Other
Ingredients
"WATER, WHEAT FLOUR*, VEGETABLE OIL (PALM AND /OR SOYBEAN OIL), SUGAR, CORN SYRUP, FOOD STARCH - MODIFIED, CONTAINS LESS THAN 2% OF THE FOLLOWING: LEMON JUICE SOLIDS, WHOLE EGGS, BUTTER, DEXTROSE, SALT, RICE FLOUR, MONO- & DIGLYCERIDES, NATURAL COLOR, RICE SYRUP, MALTODEXTRIN, TAPIOCA DEXTRIN, CITRIC ACID, POTASSIUM SORBATE AND SODIUM PROPIONATE (PRESERVATIVES)." Date available: 07/14/2017 Date last updated by company: 07/14/2017
