Source: USDA Branded Food Products Database Release December 2017 Software v.3.8.6.4 2017-10-02
Report Run at: December 17, 2017 08:39 EST
"Nutrient data for: 45265039, LEMONADE, UPC: 025000052729"
Food Group:  Branded Food Products Database
Common Name:

Nutrient,Unit,Data points,Std. Error,"8.0 OZA = 240.0g",1Value per 100 g,
Proximates
"Energy",kcal,--,--,120,50
"Protein",g,--,--,0.00,0.00
"Total lipid (fat)",g,--,--,0.00,0.00
"Carbohydrate, by difference",g,--,--,30.00,12.50
"Sugars, total",g,--,--,28.01,11.67
Minerals
"Sodium, Na",mg,--,--,14,6
Vitamins
Lipids
Amino Acids
Other
Ingredients
"CONTAINS PURE FILTERED WATER, SUGAR, LEMON JUICE, NATURAL FLAVORS." Date available: 08/11/2017 Date last updated by company: 08/11/2017
