Source: USDA Branded Food Products Database Release December 2017 Software v.3.8.6.4 2017-10-02
Report Run at: December 17, 2017 08:37 EST
"Nutrient data for: 45152187, LEMONADE, UPC: 070847022978"
Food Group:  Branded Food Products Database
Common Name:

Nutrient,Unit,Data points,Std. Error,"10.0 OZA = 296.0g",1Value per 100 g,
Proximates
"Energy",kcal,--,--,80,27
"Protein",g,--,--,0.00,0.00
"Total lipid (fat)",g,--,--,0.00,0.00
"Carbohydrate, by difference",g,--,--,19.00,6.42
"Sugars, total",g,--,--,18.00,6.08
Minerals
"Sodium, Na",mg,--,--,0,0
Vitamins
"Vitamin C, total ascorbic acid",mg,--,--,7.4,2.5
Lipids
Amino Acids
Other
Ingredients
"PURE FILTERED WATER, CANE SUGAR, NATURAL LEMON JUICE CONCENTRATE, CITRIC ACID, NATURAL FLAVOR (EXTRACTS OF STRAWBERRIES), FRUIT & VEGETABLE JUICE" Date available: 07/14/2017 Date last updated by company: 07/14/2017
