Source: USDA Branded Food Products Database Release December 2017 Software v.3.8.6.4 2017-10-02
Report Run at: December 17, 2017 08:46 EST
"Nutrient data for: 45329548, LEMON & HERB CHICKEN PASTA, UPC: 021130100880"
Food Group:  Branded Food Products Database
Common Name:

Nutrient,Unit,Data points,Std. Error,"1 cup = 120.0g",1Value per 100 g,
Proximates
"Energy",kcal,--,--,120,100
"Protein",g,--,--,8.00,6.67
"Total lipid (fat)",g,--,--,4.00,3.33
"Carbohydrate, by difference",g,--,--,13.00,10.83
"Fiber, total dietary",g,--,--,2.0,1.7
"Sugars, total",g,--,--,1.00,0.83
Minerals
"Calcium, Ca",mg,--,--,20,17
"Iron, Fe",mg,--,--,1.68,1.40
"Sodium, Na",mg,--,--,240,200
Vitamins
"Vitamin C, total ascorbic acid",mg,--,--,7.0,5.8
"Vitamin A, IU",IU,--,--,1750,1458
Lipids
"Fatty acids, total saturated",g,--,--,2.004,1.670
"Fatty acids, total trans",g,--,--,0.000,0.000
"Cholesterol",mg,--,--,20,17
Amino Acids
Other
Ingredients
"WHOLE WHEAT PASTA (WATER, [WHOLE GRAIN DURUM WHEAT FLOUR]), WHITE CHICKEN MEAT (CHICKEN BREAST MEAT WITH RIB MEAT, WATER, LESS THAN 2% RICE STARCH, VINEGAR, SALT, SUGAR), LEMON THYME BUTTER SAUCE (WATER, CHABLIS WINE [CONTAINS SULFITES], CREAM, BUTTER [PASTEURIZED CREAM, NATURAL FLAVORS], GARLIC, CHICKEN STOCK [POTATO STARCH, CORN STARCH, COOKED CHICKEN & CHICKEN FAT, DRIED SOY SAUCE {(WHEAT, SOYBEANS, SALT), MATODEXTRIN, SALT}, YEAST EXTRACT, SALT, EVAPORATED CANE SUGAR, DRIED VEGETABLES, CANOLA OIL, NATURAL CHICKEN FLAVORING, CALCIUM STEARATE, CARAMEL COLOR, EXTRACTIVES OF TURMERIC & PAPRIKA], SHALLOT, MODIFIED CORN STARCH, LEMON JUICE CONCENTRATE, LEMON PEEL, BASIL, SPICES, SALT, PARSLEY, SUGAR, CHIVE, LEMON OIL),BABY SPINACH, ZUCCHINI, SNAP PEAS, CARROT, CANOLA OIL, EXTRA VIRGIN OLIVE OIL." Date available: 10/13/2017 Date last updated by company: 10/13/2017
