Source: USDA Branded Food Products Database Release December 2017 Software v.3.8.6.4 2017-10-02
Report Run at: December 17, 2017 08:44 EST
"Nutrient data for: 45284207, LEMON GINGER BISCOTTI, UPC: 041678777566"
Food Group:  Branded Food Products Database
Common Name:

Nutrient,Unit,Data points,Std. Error,"1 BISCOTTO = 25.0g",1Value per 100 g,
Proximates
"Energy",kcal,--,--,70,280
"Protein",g,--,--,2.00,8.00
"Total lipid (fat)",g,--,--,3.50,14.00
"Carbohydrate, by difference",g,--,--,9.00,36.00
"Fiber, total dietary",g,--,--,0.0,0.0
"Sugars, total",g,--,--,4.00,16.00
Minerals
"Calcium, Ca",mg,--,--,0,0
"Iron, Fe",mg,--,--,0.72,2.88
"Sodium, Na",mg,--,--,55,220
Vitamins
"Vitamin C, total ascorbic acid",mg,--,--,0.0,0.0
"Vitamin A, IU",IU,--,--,0,0
Lipids
"Fatty acids, total saturated",g,--,--,0.000,0.000
"Fatty acids, total trans",g,--,--,0.000,0.000
"Cholesterol",mg,--,--,0,0
Amino Acids
Other
Ingredients
"ENRICHED WHEAT FLOUR (FLOUR, MALTED BARLEY FLOUR, NIACIN, REDUCED IRON, THIAMINE MONONITRATE, RIBOFLAVIN, FOLIC ACID), SUGAR, EGGS PRESERVED WITH NISIN PREPARATION, SOYBEAN OIL, CRYSTALLIZED GINGER (GINGER, SUGAR, SULPHUR DIOXIDE), WALNUTS, CRYSTALLIZED LEMON POWDER (CITRIC ACID, LEMON OIL, LEMON JUICE, ASCORBIC ACID, MALTODEXTRIN), GROUND GINGER, NATURAL FLAVOR, SALT, BAKING POWDER (SODIUM ACID PYROPHOSPHATE, BAKING SODA, CORN STARCH, MONOCALCIUM PHOSPHATE MONOHYDRATE, CALCIUM SULFATE), BAKING SODA." Date available: 07/14/2017 Date last updated by company: 07/14/2017
