Source: USDA Branded Food Products Database Release December 2017 Software v.3.8.6.4 2017-10-02
Report Run at: December 17, 2017 08:48 EST
"Nutrient data for: 45290402, LEMON LIME SHERBET, UPC: 044100707643"
Food Group:  Branded Food Products Database
Common Name:

Nutrient,Unit,Data points,Std. Error,"0.666 cup = 115.0g",1Value per 100 g,
Proximates
"Energy",kcal,--,--,160,139
"Protein",g,--,--,1.00,0.87
"Total lipid (fat)",g,--,--,1.00,0.87
"Carbohydrate, by difference",g,--,--,35.99,31.30
"Fiber, total dietary",g,--,--,0.0,0.0
"Sugars, total",g,--,--,26.00,22.61
Minerals
"Calcium, Ca",mg,--,--,49,43
"Iron, Fe",mg,--,--,0.00,0.00
"Potassium, K",mg,--,--,77,67
"Sodium, Na",mg,--,--,34,30
Vitamins
"Vitamin D",IU,--,--,0,0
Lipids
"Fatty acids, total saturated",g,--,--,1.000,0.870
"Fatty acids, total trans",g,--,--,0.000,0.000
"Cholesterol",mg,--,--,5,4
Amino Acids
Other
Ingredients
"WATER, MILK, SUGAR, CORN SYRUP, HIGH FRUCTOSE CORN SYRUP, CONCENTRATED LEMON & LIME JUICES, WHEY, CITRIC ACID, NATURAL FLAVORS, CONCENTRATED ORANGE JUICE, NONFAT MILK, POLYSORBATE 80, GUAR GUM, MONO & DIGLYCERIDES, CELLULOSE GUM, YELLOW 5 & 6 AND BLUE 1." Date available: 09/22/2017 Date last updated by company: 09/22/2017
