Source: USDA Branded Food Products Database Release December 2017 Software v.3.8.6.4 2017-10-02
Report Run at: December 17, 2017 08:37 EST
"Nutrient data for: 45158667, LEMONADE, UPC: 857557004018"
Food Group:  Branded Food Products Database
Common Name:

Nutrient,Unit,Data points,Std. Error,"16.0 OZA = 473.0g",1Value per 100 g,
Proximates
"Energy",kcal,--,--,24,5
"Protein",g,--,--,0.00,0.00
"Total lipid (fat)",g,--,--,0.00,0.00
"Carbohydrate, by difference",g,--,--,7.00,1.48
"Fiber, total dietary",g,--,--,0.0,0.0
"Sugars, total",g,--,--,7.00,1.48
Minerals
"Calcium, Ca",mg,--,--,0,0
"Iron, Fe",mg,--,--,0.00,0.00
"Sodium, Na",mg,--,--,14,3
Vitamins
"Vitamin C, total ascorbic acid",mg,--,--,0.0,0.0
"Vitamin A, IU",IU,--,--,0,0
Lipids
"Fatty acids, total saturated",g,--,--,0.000,0.000
"Fatty acids, total trans",g,--,--,0.000,0.000
"Cholesterol",mg,--,--,0,0
Amino Acids
Other
Ingredients
"WATER, PURE CANE SUGAR, LEMON JUICE FROM CONCENTRATE, NATURAL FLAVORS, ALOE VERA JUICE FROM CONCENTRATE, CITRIC ACID, MONK FRUIT EXTRACT, WHITE TEA." Date available: 07/14/2017 Date last updated by company: 07/14/2017
