Source: USDA Branded Food Products Database Release December 2017 Software v.3.8.6.4 2017-10-02
Report Run at: December 17, 2017 08:49 EST
"Nutrient data for: 45287374, LEMON MERINGUE PIE FANCY TRUFFLES, UPC: 052302733209"
Food Group:  Branded Food Products Database
Common Name:

Nutrient,Unit,Data points,Std. Error,"3.0 TRUFFLES = 35.0g",1Value per 100 g,
Proximates
"Energy",kcal,--,--,210,600
"Protein",g,--,--,1.00,2.86
"Total lipid (fat)",g,--,--,15.00,42.86
"Carbohydrate, by difference",g,--,--,18.00,51.43
"Fiber, total dietary",g,--,--,2.0,5.7
"Sugars, total",g,--,--,15.00,42.86
Minerals
"Calcium, Ca",mg,--,--,20,57
"Iron, Fe",mg,--,--,1.54,4.41
"Sodium, Na",mg,--,--,15,43
Vitamins
"Vitamin C, total ascorbic acid",mg,--,--,0.0,0.0
"Vitamin A, IU",IU,--,--,0,0
Lipids
"Fatty acids, total saturated",g,--,--,12.001,34.290
"Fatty acids, total trans",g,--,--,0.000,0.000
"Cholesterol",mg,--,--,0,0
Amino Acids
Other
Ingredients
"VEGETABLE FATS (PALM KERNEL, PALM), SUGAR, COCOA POWDER PROCESSED WITH ALKALI, WHEY POWDER, MERINGUE CHIPS (SUGAR, WHEAT STARCH, EGG WHITE, ARTIFICIAL FLAVOR), CANDIED LEMON PEEL PIECES (LEMON PEELS, SUGAR, FRUCTOSE-GLUCOSE SYRUP FROM WHEAT, DEXTROSE FROM WHEAT, LEMON ESSENTIAL OIL, CITRIC ACID, SULPHUR DIOXIDE), LEMON ESSENTIAL OIL, COCOA BUTTER, ARTIFICIAL FLAVOR." Date available: 07/14/2017 Date last updated by company: 07/14/2017
