Source: USDA Branded Food Products Database Release December 2017 Software v.3.8.6.4 2017-10-02
Report Run at: December 17, 2017 08:52 EST
"Nutrient data for: 45287801, LEMON SHORTBREAD COOKIES, UPC: 021130309610"
Food Group:  Branded Food Products Database
Common Name:

Nutrient,Unit,Data points,Std. Error,"2.0 COOKIES = 30.0g",1Value per 100 g,
Proximates
"Energy",kcal,--,--,150,500
"Protein",g,--,--,1.00,3.33
"Total lipid (fat)",g,--,--,7.00,23.33
"Carbohydrate, by difference",g,--,--,20.00,66.67
"Fiber, total dietary",g,--,--,0.0,0.0
"Sugars, total",g,--,--,9.00,30.00
Minerals
"Calcium, Ca",mg,--,--,0,0
"Iron, Fe",mg,--,--,0.70,2.33
"Potassium, K",mg,--,--,0,0
"Sodium, Na",mg,--,--,75,250
Vitamins
"Vitamin D",IU,--,--,0,0
Lipids
"Fatty acids, total saturated",g,--,--,4.500,15.000
"Fatty acids, total trans",g,--,--,0.000,0.000
"Cholesterol",mg,--,--,0,0
Amino Acids
Other
Ingredients
"ENRICHED WHEAT FLOUR (FLOUR, NIACIN, REDUCED IRON, THIAMINE MONONITRATE, RIBOFLAVIN, FOLIC ACID), SUGAR, VEGETABLE OIL SHORTENING (PALM AND PALM KERNAL OIL), CORNSTARCH, CORN SYRUP, LEAVENING (SODIUM ACID PYROPHOSPHATE, BAKING SODA), SALT, NATURAL AND ARTIFICIAL FLAVOR, SOY LECITHIN, ANNATTO (COLOR), CITRIC ACID, MALIC ACID." Date available: 10/13/2017 Date last updated by company: 10/13/2017
