Source: USDA Branded Food Products Database Release December 2017 Software v.3.8.6.4 2017-10-02
Report Run at: December 17, 2017 08:50 EST
"Nutrient data for: 45287624, LEMON PEPPER SEASONING BLEND, UPC: 607880100396"
Food Group:  Branded Food Products Database
Common Name:

Nutrient,Unit,Data points,Std. Error,"0.25 tsp = 0.8g",1Value per 100 g,
Proximates
"Energy",kcal,--,--,0,0
"Protein",g,--,--,0.00,0.00
"Total lipid (fat)",g,--,--,0.00,0.00
"Carbohydrate, by difference",g,--,--,0.00,0.00
Minerals
"Sodium, Na",mg,--,--,240,30000
Vitamins
Lipids
Amino Acids
Other
Ingredients
"SALT, CITRIC ACID, SPICES (INCLUDING BLACK PEPPER), ONION, SUGAR, GARLIC, MODIFIED CORN STARCH, LEMON EXTRACTIVES, FD&C YELLOW 5 LAKE." Date available: 09/30/2017 Date last updated by company: 09/30/2017
