Source: USDA Branded Food Products Database Release December 2017 Software v.3.8.6.4 2017-10-02
Report Run at: December 17, 2017 08:49 EST
"Nutrient data for: 45270944, LEMON PEPPER BAKED TOFU, UPC: 760685709604"
Food Group:  Branded Food Products Database
Common Name:

Nutrient,Unit,Data points,Std. Error,"3.0 PCS = 85.0g",1Value per 100 g,
Proximates
"Energy",kcal,--,--,120,141
"Protein",g,--,--,11.00,12.94
"Total lipid (fat)",g,--,--,7.00,8.24
"Carbohydrate, by difference",g,--,--,4.00,4.71
"Fiber, total dietary",g,--,--,2.0,2.4
"Sugars, total",g,--,--,1.00,1.18
Minerals
"Calcium, Ca",mg,--,--,0,0
"Iron, Fe",mg,--,--,1.80,2.12
"Sodium, Na",mg,--,--,180,212
Vitamins
"Vitamin C, total ascorbic acid",mg,--,--,0.0,0.0
"Vitamin A, IU",IU,--,--,0,0
Lipids
"Fatty acids, total saturated",g,--,--,1.003,1.180
"Fatty acids, total trans",g,--,--,0.000,0.000
"Cholesterol",mg,--,--,0,0
Amino Acids
Other
Ingredients
"ORGANIC TOFU (FILTERED WATER, ORGANIC SOYBEANS, NIGARI (A NATURAL COAGULANT), ORGANIC WHEAT FREE TAMARI (WATER, ORGANIC SOYBEANS, SALT), LEMON JUICE, CANOLA OIL, ORGANIC APPLE CIDER VINEGAR, BLACK PEPPER, ORGANIC GARLIC, ORGANIC ROSEMARY, ORGANIC DILL." Date available: 07/14/2017 Date last updated by company: 07/14/2017
