Source: USDA Branded Food Products Database Release December 2017 Software v.3.8.6.4 2017-10-02
Report Run at: December 17, 2017 08:38 EST
"Nutrient data for: 45235949, LEMONADE, UPC: 035826082213"
Food Group:  Branded Food Products Database
Common Name:

Nutrient,Unit,Data points,Std. Error,"8.0 OZA = 240.0g",1Value per 100 g,
Proximates
"Energy",kcal,--,--,110,46
"Protein",g,--,--,0.00,0.00
"Total lipid (fat)",g,--,--,0.00,0.00
"Carbohydrate, by difference",g,--,--,28.01,11.67
"Sugars, total",g,--,--,27.00,11.25
Minerals
"Sodium, Na",mg,--,--,36,15
Vitamins
Lipids
"Fatty acids, total saturated",g,--,--,0.000,0.000
"Fatty acids, total trans",g,--,--,0.000,0.000
"Cholesterol",mg,--,--,0,0
Amino Acids
Other
Ingredients
"FILTERED WATER, SUGAR, LEMON JUICE CONCENTRATE, NATURAL FLAVOR." Date available: 07/14/2017 Date last updated by company: 07/14/2017
