Source: USDA Branded Food Products Database Release December 2017 Software v.3.8.6.4 2017-10-02
Report Run at: December 17, 2017 08:54 EST
"Nutrient data for: 45122753, LENDER'S, BAGELS, VERY BERRY, UPC: 076800006641"
Food Group:  Branded Food Products Database
Common Name:

Nutrient,Unit,Data points,Std. Error,"1 BAGEL = 81.0g",1Value per 100 g,
Proximates
"Energy",kcal,--,--,220,272
"Protein",g,--,--,7.00,8.64
"Total lipid (fat)",g,--,--,1.50,1.85
"Carbohydrate, by difference",g,--,--,43.00,53.09
"Fiber, total dietary",g,--,--,2.0,2.5
"Sugars, total",g,--,--,12.00,14.81
Minerals
"Calcium, Ca",mg,--,--,40,49
"Iron, Fe",mg,--,--,3.67,4.53
"Sodium, Na",mg,--,--,180,222
Vitamins
"Vitamin C, total ascorbic acid",mg,--,--,0.0,0.0
"Vitamin A, IU",IU,--,--,0,0
Lipids
"Fatty acids, total saturated",g,--,--,0.000,0.000
"Fatty acids, total trans",g,--,--,0.000,0.000
"Cholesterol",mg,--,--,0,0
Amino Acids
Other
Ingredients
"ENRICHED WHEAT FLOUR (FLOUR, ENZYMES, ASCORBIC ACID [DOUGH CONDITIONER], NIACIN, REDUCED IRON, THIAMINE MONONITRATE, RIBOFLAVIN, FOLIC ACID), WATER, BROWN SUGAR, HIGH FRUCTOSE CORN SYRUP, STRAWBERRY FLAVORED BITS (SUGAR, CORN SYRUP, CORN CEREAL, PARTIALLY HYDROGENATED VEGETABLE OIL (COTTONSEED AND/OR SOYBEAN), MODIFIED FOOD STARCH, CITRIC ACID, NATURAL AND ARTIFICIAL FLAVORS, RED 40, AND BLUE 2), YEAST, BLUEBERRY FLAVORED BITS (SUGAR, CORN SYRUP, MODIFIED FOOD STARCH [CORN], CORN CEREAL, COTTONSEED FIBER, PARTIALLY HYDROGENATED VEGETABLE OIL [COTTONSEED AND/OR SOYBEAN], NATURAL AND ARTIFICIAL FLAVOR, RED 40 LAKE, BLUE 2 LAKE, AND BLUE 1 LAKE), CONTAINS 2% OR LESS OF; STRAWBERRY CONCENTRATE, VITAL WHEAT GLUTEN, SALT, NATURAL AND ARTIFICIAL STRAWBERRY FLAVOR, SOYBEAN OIL, MONO- AND DIGLYCERIDES, SORBIC ACID, DISTILLED MONOGLYCERIDES, PRESERVATIVES (CALCIUM PROPIONATE), XANTHAN GUM, DOUGH CONDITIONERS (CALCIUM SULFATE, L-CYSTEINE), ENZYMES (ENZYMES, WHEAT GLUTEN, MONOGLYCERIDES), EGG YOLK POWDER, RED 40 LAKE (COLOR), YELLOW CORN MEAL." Date available: 06/25/2017 Date last updated by company: 06/25/2017
