Source: USDA Branded Food Products Database Release December 2017 Software v.3.8.6.4 2017-10-02
Report Run at: December 17, 2017 08:55 EST
"Nutrient data for: 45285541, LENTIL BURGER, UPC: 860084000033"
Food Group:  Branded Food Products Database
Common Name:

Nutrient,Unit,Data points,Std. Error,"1 BURGER = 94.0g",1Value per 100 g,
Proximates
"Energy",kcal,--,--,110,117
"Protein",g,--,--,5.00,5.32
"Total lipid (fat)",g,--,--,1.50,1.60
"Carbohydrate, by difference",g,--,--,18.00,19.15
"Fiber, total dietary",g,--,--,5.0,5.3
"Sugars, total",g,--,--,2.00,2.13
Minerals
"Calcium, Ca",mg,--,--,20,21
"Iron, Fe",mg,--,--,1.63,1.73
"Sodium, Na",mg,--,--,240,255
Vitamins
"Vitamin C, total ascorbic acid",mg,--,--,2.2,2.3
"Vitamin A, IU",IU,--,--,2713,2886
Lipids
"Fatty acids, total saturated",g,--,--,0.000,0.000
"Fatty acids, total trans",g,--,--,0.000,0.000
"Cholesterol",mg,--,--,0,0
Amino Acids
Other
Ingredients
"LENTILS, BROWN RICE, CARROTS, CHICKPEAS, FLAXSEED, WATER, SALT, EXTRA VIRGIN OLIVE OIL, SPICES" Date available: 07/14/2017 Date last updated by company: 07/14/2017
