Source: USDA Branded Food Products Database Release December 2017 Software v.3.8.6.4 2017-10-02
Report Run at: December 17, 2017 08:59 EST
"Nutrient data for: 45149936, LES PEARLS MILK CHOCOLATE, UPC: 813601021806"
Food Group:  Branded Food Products Database
Common Name:

Nutrient,Unit,Data points,Std. Error,"3.0 CHOCOLATES = 40.0g",1Value per 100 g,
Proximates
"Energy",kcal,--,--,220,550
"Protein",g,--,--,2.00,5.00
"Total lipid (fat)",g,--,--,13.00,32.50
"Carbohydrate, by difference",g,--,--,24.00,60.00
"Fiber, total dietary",g,--,--,1.0,2.5
"Sugars, total",g,--,--,23.00,57.50
Minerals
"Calcium, Ca",mg,--,--,60,150
"Iron, Fe",mg,--,--,0.45,1.12
"Sodium, Na",mg,--,--,25,62
Vitamins
"Vitamin C, total ascorbic acid",mg,--,--,0.0,0.0
"Vitamin A, IU",IU,--,--,0,0
Lipids
"Fatty acids, total saturated",g,--,--,8.000,20.000
"Fatty acids, total trans",g,--,--,0.000,0.000
"Cholesterol",mg,--,--,5,12
Amino Acids
Other
Ingredients
"SUGAR, VEGETABLE FATS (PALM, PALM KERNEL), COCOA BUTTER, WHOLE MILK POWDER, UNSWEETENED CHOCOLATE, WHEY POWDER, CARAMELIZED PISTACHIO CHIPS (PISTACHIOS, SUGAR), NON FAT DRY MILK, COCOA PROCESSED WITH ALKALI, HAZELNUT PASTE, SUNFLOWER LECITHIN, NATURAL AND ARTIFICIAL FLAVORS, MILK FAT, LACTOSE" Date available: 07/14/2017 Date last updated by company: 07/14/2017
