Source: USDA Branded Food Products Database Release December 2017 Software v.3.8.6.4 2017-10-02
Report Run at: December 17, 2017 09:00 EST
"Nutrient data for: 45160350, LESSEREVIL, SUPER BITES, CRUNCHY BAKED NUGGETS, WHITE BEAN, BROWN RICE, QUINOA, LENTIL, CHIA, UPC: 180999001889"
Food Group:  Branded Food Products Database
Common Name:

Nutrient,Unit,Data points,Std. Error,"41.0 PIECES | ABOUT = 27.0g",1Value per 100 g,
Proximates
"Energy",kcal,--,--,100,370
"Protein",g,--,--,3.00,11.11
"Total lipid (fat)",g,--,--,3.00,11.11
"Carbohydrate, by difference",g,--,--,17.00,62.96
"Fiber, total dietary",g,--,--,3.0,11.1
"Sugars, total",g,--,--,1.00,3.70
Minerals
"Calcium, Ca",mg,--,--,20,74
"Iron, Fe",mg,--,--,1.33,4.94
"Sodium, Na",mg,--,--,200,741
Vitamins
"Vitamin C, total ascorbic acid",mg,--,--,2.2,8.2
"Vitamin A, IU",IU,--,--,0,0
Lipids
"Fatty acids, total saturated",g,--,--,0.200,0.740
"Fatty acids, total monounsaturated",g,--,--,2.001,7.410
"Fatty acids, total polyunsaturated",g,--,--,0.000,0.000
"Fatty acids, total trans",g,--,--,0.000,0.000
"Cholesterol",mg,--,--,0,0
Amino Acids
Other
Ingredients
"WHITE BEAN FLOUR, RICE BLEND (RICE FLOUR, BROWN RICE), DEHYDRATED POTATO, ORGANIC SUNFLOWER AND/OR SAFFLOWER OIL, TAPIOCA FLOUR, QUINOA FLOUR, LENTIL FLOUR, CHIA POWDER, ORGANIC CHEDDAR CHEESE BLEND [(ORGANIC CULTURED PASTEURIZED MILK, SALT, ENZYMES), ORGANIC NONFAT MILK, ORGANIC WHEY, SALT], ORGANIC WHEY, ORGANIC TAPIOCA SOLIDS, SEA SALT, ORGANIC EVAPORATED CANE SUGAR, ORGANIC ONION POWDER, ORGANIC GARLIC POWDER, ORGANIC TOMATO POWDER, NATURAL FLAVOR, ORGANIC SPICES, NATURAL EXTRACTIVES OF PAPRIKA, CITRIC ACID." Date available: 07/14/2017 Date last updated by company: 07/14/2017
