Source: USDA Branded Food Products Database Release December 2017 Software v.3.8.6.4 2017-10-02
Report Run at: December 17, 2017 09:06 EST
"Nutrient data for: 45092171, LIANDELI, INSTANT JELLYFISH, UPC: 6933220503195"
Food Group:  Branded Food Products Database
Common Name:

Nutrient,Unit,Data points,Std. Error,"1 ONZ = 28.0g",1Value per 100 g,
Proximates
"Energy",kcal,--,--,10,36
"Protein",g,--,--,2.00,7.14
"Total lipid (fat)",g,--,--,0.00,0.00
"Carbohydrate, by difference",g,--,--,1.00,3.57
"Sugars, total",g,--,--,0.00,0.00
Minerals
"Calcium, Ca",mg,--,--,10,36
"Iron, Fe",mg,--,--,4.37,15.62
"Sodium, Na",mg,--,--,1680,6000
Vitamins
"Vitamin C, total ascorbic acid",mg,--,--,0.0,0.0
"Vitamin A, IU",IU,--,--,0,0
Lipids
"Fatty acids, total saturated",g,--,--,0.000,0.000
"Fatty acids, total trans",g,--,--,0.000,0.000
"Cholesterol",mg,--,--,0,0
Amino Acids
Other
Ingredients
"JELLYFISH, WATER, SALT, MSG. POTASSIUM SORBATE, CITRIC ACID, SEASONING INGREDIENTS: SAUCE PACKAGE: CHILI, SAUCE (SOYBEAN FLOUR SALT) SUGAR, SESAME MSG, SPICES, DISODIUM 5'-RIBONUCLEOTIDE, POTASSIUM SORBATE. SODIUM DEHYDROACETATE, SEASONING PACKETS: MSG, SUGAR, SESAME, CHIVES, EDIBLE SPICES, OYSTER SAUCE PACKAGE: OYSTER SAUCE, SEASONING OIL PACKAGE: SOYBEAN OF SESAME OIL CHILI SPICES ARTIFICIAL FLAVOR." Date available: 06/25/2017 Date last updated by company: 06/25/2017
