Source: USDA Branded Food Products Database Release December 2017 Software v.3.8.6.4 2017-10-02
Report Run at: December 17, 2017 09:07 EST
"Nutrient data for: 45321203, LIBBY'S, HEALTHY ADVENTURES, SANTA FE BLEND, UPC: 037100300013"
Food Group:  Branded Food Products Database
Common Name:

Nutrient,Unit,Data points,Std. Error,"1 cup = 115.0g",1Value per 100 g,
Proximates
"Energy",kcal,--,--,140,122
"Protein",g,--,--,5.00,4.35
"Total lipid (fat)",g,--,--,1.50,1.30
"Carbohydrate, by difference",g,--,--,25.00,21.74
"Fiber, total dietary",g,--,--,6.0,5.2
"Sugars, total",g,--,--,7.00,6.09
Minerals
"Calcium, Ca",mg,--,--,0,0
"Iron, Fe",mg,--,--,1.07,0.93
"Potassium, K",mg,--,--,130,113
"Sodium, Na",mg,--,--,140,122
Vitamins
"Vitamin C, total ascorbic acid",mg,--,--,13.3,11.6
"Vitamin A, IU",IU,--,--,554,482
Lipids
"Fatty acids, total saturated",g,--,--,0.000,0.000
"Fatty acids, total trans",g,--,--,0.000,0.000
"Cholesterol",mg,--,--,0,0
Amino Acids
Other
Ingredients
"FIRE ROASTED CORN, BLACK BEANS, FIRE ROASTED RED BELL PEPPERS, FIRE ROASTED POBLANO PEPPERS, WATER, TOMATO PASTE, SUGAR, CANOLA OIL, MODIFIED CORN STARCH, SALT, MALTODEXTRIN, SPICES, LIME JUICE CONCENTRATE, DEHYDRATED ONION, DEHYDRATED GARLIC, CITRIC ACID, PAPRIKA, OLEORSIN PAPRIKA (COLORING), NATURAL FLAVORS, SOYBEAN OIL, SMOKE FLAVOR." Date available: 06/24/2017 Date last updated by company: 06/24/2017
