Source: USDA Branded Food Products Database Release December 2017 Software v.3.8.6.4 2017-10-02
Report Run at: December 17, 2017 09:09 EST
"Nutrient data for: 45156670, LIBERTY ORCHARDS, APLETS & COTLETS, APPLE & APRICOT CANDIES, UPC: 072680004067"
Food Group:  Branded Food Products Database
Common Name:

Nutrient,Unit,Data points,Std. Error,"3.0 PIECES = 42.0g",1Value per 100 g,
Proximates
"Energy",kcal,--,--,150,357
"Protein",g,--,--,1.00,2.38
"Total lipid (fat)",g,--,--,4.00,9.52
"Carbohydrate, by difference",g,--,--,31.00,73.81
"Sugars, total",g,--,--,24.00,57.14
Minerals
"Sodium, Na",mg,--,--,45,107
Vitamins
Lipids
"Fatty acids, total trans",g,--,--,0.000,0.000
Amino Acids
Other
Ingredients
"SUGAR, CORN SYRUP, WALNUTS, MODIFIED CORN STARCH, FRUIT JUICE FROM CONCENTRATE (APPLE, APRICOT), PECTIN (PECTIN, DISODIUM DIPHOSPHATE, SODIUM POLYPHOSPHATE, DEXTROSE, DICALCIUM PHOSPHATE), NATURAL FLAVORS, SODIUM CITRATE, CITRIC ACID, MALIC ACID, SOY LECITHIN." Date available: 10/13/2017 Date last updated by company: 10/13/2017
