Source: USDA Branded Food Products Database Release December 2017 Software v.3.8.6.4 2017-10-02
Report Run at: December 17, 2017 09:09 EST
"Nutrient data for: 45099343, LIBERTY ORCHARDS, CHOCOLATE-DIPPED FRUIT DELIGHTS, DELICIOUSLY SOFT FRUIT & NUT CANDIES IN RICH CHOCOLATE, UPC: 072680018958"
Food Group:  Branded Food Products Database
Common Name:

Nutrient,Unit,Data points,Std. Error,"3.0 PIECES = 42.0g",1Value per 100 g,
Proximates
"Energy",kcal,--,--,170,405
"Protein",g,--,--,1.00,2.38
"Total lipid (fat)",g,--,--,6.00,14.29
"Carbohydrate, by difference",g,--,--,30.00,71.43
"Fiber, total dietary",g,--,--,1.0,2.4
"Sugars, total",g,--,--,24.00,57.14
Minerals
"Calcium, Ca",mg,--,--,0,0
"Iron, Fe",mg,--,--,0.00,0.00
"Sodium, Na",mg,--,--,40,95
Vitamins
"Vitamin C, total ascorbic acid",mg,--,--,0.0,0.0
"Vitamin A, IU",IU,--,--,0,0
Lipids
"Fatty acids, total saturated",g,--,--,1.999,4.760
"Fatty acids, total trans",g,--,--,0.000,0.000
"Cholesterol",mg,--,--,0,0
Amino Acids
Other
Ingredients
"SUGAR, CORN SYRUP, NUTMEATS (WALNUTS, PECANS, ALMONDS, MACADAMIAS, CASHEWS), CHOCOLATE LIQUOR, MODIFIED CORN STARCH, FRUIT [FRUIT JUICE FROM CONCENTRATE (STRAWBERRY, BLUEBERRY, RASPBERRY, APRICOT), DRIED APRICOTS, PINEAPPLE], COCOA BUTTER, MILK, PECTIN (PECTIN, DISODIUM DIPHOSPHATE, SODIUM POLYPHOSPHATE, DEXTROSE, DICALCIUM PHOSPHATE), BUTTER OIL, NATURAL FLAVORS, SODIUM CITRATE, CITRIC ACID, MALIC ACID." Date available: 07/14/2017 Date last updated by company: 07/14/2017
