Source: USDA Branded Food Products Database Release December 2017 Software v.3.8.6.4 2017-10-02
Report Run at: December 17, 2017 09:10 EST
"Nutrient data for: 45261274, LICORICE, UPC: 687106390985"
Food Group:  Branded Food Products Database
Common Name:

Nutrient,Unit,Data points,Std. Error,"7.0 PCS = 40.0g",1Value per 100 g,
Proximates
"Energy",kcal,--,--,160,400
"Protein",g,--,--,1.00,2.50
"Total lipid (fat)",g,--,--,1.50,3.75
"Carbohydrate, by difference",g,--,--,34.00,85.00
"Fiber, total dietary",g,--,--,0.0,0.0
"Sugars, total",g,--,--,27.00,67.50
Minerals
"Calcium, Ca",mg,--,--,40,100
"Iron, Fe",mg,--,--,1.80,4.50
"Sodium, Na",mg,--,--,15,38
Vitamins
"Vitamin C, total ascorbic acid",mg,--,--,0.0,0.0
"Vitamin A, IU",IU,--,--,125,312
Lipids
"Fatty acids, total saturated",g,--,--,1.500,3.750
"Fatty acids, total trans",g,--,--,0.000,0.000
"Cholesterol",mg,--,--,0,0
Amino Acids
Other
Ingredients
"SUGAR, MOLASSES, WHEAT FLOUR, GLUCOSE SYRUP, COCONUT, PALM OIL, BEEF GELATIN, CORN FLOUR, MODIFIED CORN STARCH, GLYCEROL, COCOA, LICORICE EXTRACT, NATURAL COLORS (BEETROOT RED, CURCUMIN, CAPSANTHIN, PLAIN CARAMEL), BEESWAX, SPIRULINA CONCENTRATE, NATURAL FLAVOURS, FRUIT AND VEGETABLE CONCENTRATES (RADISH, BLACKCURRANT, CARROT, NETTLE, SPINACH), SULPHITES AS PRESERVATIVES." Date available: 07/14/2017 Date last updated by company: 07/14/2017
