Source: USDA Branded Food Products Database Release December 2017 Software v.3.8.6.4 2017-10-02
Report Run at: December 17, 2017 09:13 EST
"Nutrient data for: 45193133, LIFEWAY, KEFIR CULTURED LOWFAT MILK SMOOTHIE, BLUEBERRY MAPLE, UPC: 017077111089"
Food Group:  Branded Food Products Database
Common Name:

Nutrient,Unit,Data points,Std. Error,"1 BOTTLE = 240.0g",1Value per 100 g,
Proximates
"Energy",kcal,--,--,161,67
"Protein",g,--,--,10.99,4.58
"Total lipid (fat)",g,--,--,1.99,0.83
"Carbohydrate, by difference",g,--,--,24.00,10.00
"Fiber, total dietary",g,--,--,2.9,1.2
"Sugars, total",g,--,--,19.99,8.33
Minerals
"Calcium, Ca",mg,--,--,300,125
"Iron, Fe",mg,--,--,0.00,0.00
"Sodium, Na",mg,--,--,125,52
Vitamins
"Vitamin C, total ascorbic acid",mg,--,--,0.0,0.0
"Vitamin A, IU",IU,--,--,355,148
"Vitamin D",IU,--,--,101,42
Lipids
"Fatty acids, total saturated",g,--,--,1.488,0.620
"Fatty acids, total trans",g,--,--,0.000,0.000
"Cholesterol",mg,--,--,10,4
Amino Acids
Other
Ingredients
"PASTEURIZED CULTURED LOWFAT MILK NONFAT MILK, CANE SUGAR, OAT FIBER, PECTIN, NATURAL BLUEBERRY FLAVOR, NATURAL MAPLE FLAVOR, NATURAL FLAVOR VITAMIN A PALMITATE, VITAMIN D3." Date available: 06/25/2017 Date last updated by company: 06/25/2017
