Source: USDA Branded Food Products Database Release December 2017 Software v.3.8.6.4 2017-10-02
Report Run at: December 17, 2017 09:13 EST
"Nutrient data for: 45235298, LIFEWAY, VEGGIE BLEND KEFIR CULTURED LOWFAT MILK, BEET, UPC: 017077115087"
Food Group:  Branded Food Products Database
Common Name:

Nutrient,Unit,Data points,Std. Error,"1 BOTTLE = 240.0g",1Value per 100 g,
Proximates
"Energy",kcal,--,--,110,46
"Protein",g,--,--,10.01,4.17
"Total lipid (fat)",g,--,--,2.50,1.04
"Carbohydrate, by difference",g,--,--,12.00,5.00
"Fiber, total dietary",g,--,--,1.0,0.4
"Sugars, total",g,--,--,15.00,6.25
Minerals
"Calcium, Ca",mg,--,--,300,125
"Iron, Fe",mg,--,--,0.36,0.15
"Sodium, Na",mg,--,--,120,50
Vitamins
"Vitamin C, total ascorbic acid",mg,--,--,0.0,0.0
"Vitamin A, IU",IU,--,--,300,125
"Vitamin D",IU,--,--,101,42
Lipids
"Fatty acids, total saturated",g,--,--,1.488,0.620
"Fatty acids, total trans",g,--,--,0.000,0.000
"Cholesterol",mg,--,--,10,4
Amino Acids
Other
Ingredients
"PASTEURIZED CULTURED MILK(MONFAT MILK, BEET JUICE CONCENTRATE PECTIN, NATURAL BEET FLAVOR , NATURAL FLAVORS, VITAMIN A PALMITATE, VITAMIN B6." Date available: 06/24/2017 Date last updated by company: 06/24/2017
