Source: USDA Branded Food Products Database Release December 2017 Software v.3.8.6.4 2017-10-02
Report Run at: December 17, 2017 09:14 EST
"Nutrient data for: 45112450, LIFT PROTEIN BAR, PEANUT BUTTER CHOCOLATE CHIP, UPC: 637480041737"
Food Group:  Branded Food Products Database
Common Name:

Nutrient,Unit,Data points,Std. Error,"1 BAR = 60.0g",1Value per 100 g,
Proximates
"Energy",kcal,--,--,200,333
"Protein",g,--,--,20.00,33.33
"Total lipid (fat)",g,--,--,5.00,8.33
"Carbohydrate, by difference",g,--,--,25.00,41.67
"Fiber, total dietary",g,--,--,16.0,26.7
"Sugars, total",g,--,--,3.00,5.00
Minerals
"Calcium, Ca",mg,--,--,150,250
"Iron, Fe",mg,--,--,0.24,0.40
"Potassium, K",mg,--,--,45,75
"Sodium, Na",mg,--,--,170,283
Vitamins
"Vitamin C, total ascorbic acid",mg,--,--,0.0,0.0
"Vitamin A, IU",IU,--,--,0,0
Lipids
"Fatty acids, total saturated",g,--,--,2.502,4.170
"Fatty acids, total trans",g,--,--,0.000,0.000
"Cholesterol",mg,--,--,35,58
Amino Acids
Other
Ingredients
"WHEY PROTEIN BLEND (WHEY PROTEIN CONCENTRATE, WHEY PROTEIN ISOLATE), SOLUBLE CORN FIBER, WHEY PROTEIN CRISPS (WHEY PROTEIN ISOLATE, WHEY PROTEIN CONCENTRATE, TAPIOCA STARCH, SUNFLOWER LECITHIN), WATER, GLYCERIN, CHOCOLATE CHIPS (SUGAR, UNSWEETENED CHOCOLATE, COCOA BUTTER), PEANUT OIL, NATURAL FLAVOR, COCONUT OIL, CARAMEL COLOR, SALT, SUCRALOSE." Date available: 07/14/2017 Date last updated by company: 07/14/2017
