Source: USDA Branded Food Products Database Release December 2017 Software v.3.8.6.4 2017-10-02
Report Run at: December 17, 2017 09:17 EST
"Nutrient data for: 45126450, LIGHT CHUNKY BLUE CHEESE DRESSING, UPC: 070200510012"
Food Group:  Branded Food Products Database
Common Name:

Nutrient,Unit,Data points,Std. Error,"2.0 Tbsp = 31.0g",1Value per 100 g,
Proximates
"Energy",kcal,--,--,90,290
"Protein",g,--,--,1.00,3.23
"Total lipid (fat)",g,--,--,7.00,22.58
"Carbohydrate, by difference",g,--,--,4.00,12.90
"Fiber, total dietary",g,--,--,1.0,3.2
"Sugars, total",g,--,--,2.00,6.45
Minerals
"Calcium, Ca",mg,--,--,0,0
"Iron, Fe",mg,--,--,0.00,0.00
"Sodium, Na",mg,--,--,300,968
Vitamins
"Vitamin C, total ascorbic acid",mg,--,--,0.0,0.0
"Vitamin A, IU",IU,--,--,0,0
Lipids
"Fatty acids, total saturated",g,--,--,1.500,4.840
"Fatty acids, total trans",g,--,--,0.000,0.000
"Cholesterol",mg,--,--,15,48
Amino Acids
Other
Ingredients
"WATER, SOYBEAN OIL, BUTTERMILK, BLUE CHEESE (MILK, CHEESE CULTURES, SALT, ENZYMES), CORN SYRUP SOLIDS, DISTILLED VINEGAR, EGG YOLK, SUGAR, SALT, MICROCRYSTALLINE CELLULOSE, AUTOLYZED YEAST EXTRACT, XANTHAN GUM, CELLULOSE GUM, PROPYLENE GLYCOL ALGINATE, PHOSPHORIC ACID, DEHYDRATED GARLIC, NATURAL FLAVORS." Date available: 07/14/2017 Date last updated by company: 07/14/2017
