Source: USDA Branded Food Products Database Release December 2017 Software v.3.8.6.4 2017-10-02
Report Run at: December 17, 2017 09:31 EST
"Nutrient data for: 45105667, LIGHTLY SWEETENED CORN AND WHOLE WHEAT FLAKE CEREAL WITH WHOLE GRAIN OAT CLUSTERS, UPC: 883978096042"
Food Group:  Branded Food Products Database
Common Name:

Nutrient,Unit,Data points,Std. Error,"0.75 cup = 30.0g",1Value per 100 g,
Proximates
"Energy",kcal,--,--,120,400
"Protein",g,--,--,2.00,6.67
"Total lipid (fat)",g,--,--,1.00,3.33
"Carbohydrate, by difference",g,--,--,25.00,83.33
"Fiber, total dietary",g,--,--,1.0,3.3
"Sugars, total",g,--,--,6.00,20.00
Minerals
"Calcium, Ca",mg,--,--,0,0
"Iron, Fe",mg,--,--,6.60,22.00
"Potassium, K",mg,--,--,60,200
"Sodium, Na",mg,--,--,150,500
Vitamins
"Vitamin C, total ascorbic acid",mg,--,--,0.0,0.0
"Vitamin A, IU",IU,--,--,0,0
Lipids
"Fatty acids, total saturated",g,--,--,0.000,0.000
"Fatty acids, total monounsaturated",g,--,--,0.000,0.000
"Fatty acids, total polyunsaturated",g,--,--,0.000,0.000
"Fatty acids, total trans",g,--,--,0.000,0.000
"Cholesterol",mg,--,--,0,0
Amino Acids
Other
Ingredients
"CORN, WHOLE GRAIN WHEAT, SUGAR, WHOLE GRAIN ROLLED OATS, RICE FLOUR, CANOLA OIL, CORN SYRUP, SALT, BARLEY MALT EXTRACT, MOLASSES, HONEY, NATURAL FLAVOR, CARAMEL COLOR, REDUCED IRON." Date available: 06/25/2017 Date last updated by company: 06/25/2017
