Source: USDA Branded Food Products Database Release December 2017 Software v.3.8.6.4 2017-10-02
Report Run at: December 17, 2017 09:17 EST
"Nutrient data for: 45273588, LIGHT CHURNED STYLE ICE CREAM, UPC: 719283596178"
Food Group:  Branded Food Products Database
Common Name:

Nutrient,Unit,Data points,Std. Error,"0.5 cup = 60.0g",1Value per 100 g,
Proximates
"Energy",kcal,--,--,130,217
"Protein",g,--,--,4.00,6.67
"Total lipid (fat)",g,--,--,5.00,8.33
"Carbohydrate, by difference",g,--,--,19.00,31.67
"Fiber, total dietary",g,--,--,1.0,1.7
"Sugars, total",g,--,--,15.00,25.00
Minerals
"Calcium, Ca",mg,--,--,100,167
"Iron, Fe",mg,--,--,0.81,1.35
"Sodium, Na",mg,--,--,55,92
Vitamins
"Vitamin C, total ascorbic acid",mg,--,--,0.0,0.0
"Vitamin A, IU",IU,--,--,225,375
Lipids
"Fatty acids, total saturated",g,--,--,2.502,4.170
"Fatty acids, total trans",g,--,--,0.000,0.000
"Cholesterol",mg,--,--,10,17
Amino Acids
Other
Ingredients
"MILKFAT AND NONFAT MILK, SUGAR, SWEETCREAM BUTTERMILK, CHOCOLATE FUDGE [POWDERED SUGAR (SUGAR, CORNSTARCH), PEANUT OIL, COCOA (PROCESSED WITH ALKALI), WHEY, SALT, SOY LECITHIN (EMULSIFIER)], PEANUT BUTTER CUPS {COATING [SUGAR, COCONUT OIL, COCOA (PROCESSED WITH ALKALI), NONFAT MILK, MILK, SOY LECITHIN (EMULSIFIER), NATURAL FLAVORS], PEANUT BUTTER (PEANUTS, SALT)} CORN SYRUP, COCOA (PROCESSED WITH ALKALI), CONTAINS LESS THAN 2% OF WHEY, MONO AND DIGLYCERIDES, GUAR GUM, TARA GUM, CELLULOSE GUM, PROPYLENE GLYCOL MONOESTER, XANTHAN GUM, CARRAGEENAN, VITAMIN A PALMITATE." Date available: 07/14/2017 Date last updated by company: 07/14/2017
