Source: USDA Branded Food Products Database Release December 2017 Software v.3.8.6.4 2017-10-02
Report Run at: December 17, 2017 09:19 EST
"Nutrient data for: 45101134, LIGHT CREAMY RANCH DRESSING, UPC: 015400070676"
Food Group:  Branded Food Products Database
Common Name:

Nutrient,Unit,Data points,Std. Error,"2.0 Tbsp = 30.0g",1Value per 100 g,
Proximates
"Energy",kcal,--,--,50,167
"Protein",g,--,--,0.00,0.00
"Total lipid (fat)",g,--,--,3.00,10.00
"Carbohydrate, by difference",g,--,--,5.00,16.67
"Fiber, total dietary",g,--,--,0.0,0.0
"Sugars, total",g,--,--,1.00,3.33
Minerals
"Calcium, Ca",mg,--,--,20,67
"Iron, Fe",mg,--,--,0.00,0.00
"Sodium, Na",mg,--,--,300,1000
Vitamins
"Vitamin C, total ascorbic acid",mg,--,--,0.0,0.0
"Vitamin A, IU",IU,--,--,0,0
Lipids
"Fatty acids, total saturated",g,--,--,0.000,0.000
"Fatty acids, total trans",g,--,--,0.000,0.000
"Cholesterol",mg,--,--,0,0
Amino Acids
Other
Ingredients
"MALTODEXTRIN, SOYBEAN OIL, DISTILLED VINEGAR, CULTURED BUTTERMILK, (CULTURED PASTEURIZED PART-SKIM MILK, NON-FAT MILK POWDER, SALT), SUGAR, MODIFIED FOOD STARCH, BUTTERMILK POWDER, SALT, CONTAINS 2% OR LESS: EGG YOLK, LACTIC ACID, MONOSODIUM GLUTAMATE, TITANIUM DIOXIDE (COLOR), XANTHAN GUM, PROPYLENE GLYCOL ALGINATE, DISODIUM PHOSPHATE, GARLIC*, GARLIC, SPICES, ONION*, SODIUM BENZOATE AND POTASSIUM SORBATE AS PRESERVATIVES, ONION, CALCIUM DISODIUM EDTA TO PRESERVE FLAVOR, *DEHYDRATED." Date available: 06/25/2017 Date last updated by company: 06/25/2017
