Source: USDA Branded Food Products Database Release December 2017 Software v.3.8.6.4 2017-10-02
Report Run at: December 17, 2017 09:34 EST
"Nutrient data for: 45237117, LIGHT MAYONNAISE, UPC: 026700148453"
Food Group:  Branded Food Products Database
Common Name:

Nutrient,Unit,Data points,Std. Error,"1 Tbsp = 15.0g",1Value per 100 g,
Proximates
"Energy",kcal,--,--,10,67
"Protein",g,--,--,0.00,0.00
"Total lipid (fat)",g,--,--,0.00,0.00
"Carbohydrate, by difference",g,--,--,2.00,13.33
"Fiber, total dietary",g,--,--,0.0,0.0
"Sugars, total",g,--,--,1.00,6.67
Minerals
"Calcium, Ca",mg,--,--,0,0
"Iron, Fe",mg,--,--,0.00,0.00
"Sodium, Na",mg,--,--,125,833
Vitamins
"Vitamin C, total ascorbic acid",mg,--,--,0.0,0.0
"Vitamin A, IU",IU,--,--,0,0
Lipids
"Fatty acids, total saturated",g,--,--,0.000,0.000
"Fatty acids, total trans",g,--,--,0.000,0.000
"Cholesterol",mg,--,--,0,0
Amino Acids
Other
Ingredients
"WATER, FOOD STARCH-MODIFIED, EGG WHITES, CORN SYRUP SOLIDS, DISTILLED VINEGAR, SUGAR, SOYBEAN OIL, SALT, CONTAINS LESS THAN 2% OF ARTIFICIAL COLOR (TITANIUM DIOXIDE), XANTHAN GUM, SODIUM BENZOATE AND POTASSIUM SORBATE (AS PRESERVATIVES), PHOSPHORIC ACID," Date available: 09/23/2016 Date last updated by company: 09/23/2016
