Source: USDA Branded Food Products Database Release December 2017 Software v.3.8.6.4 2017-10-02
Report Run at: December 17, 2017 09:35 EST
"Nutrient data for: 45141093, LIGHT NONFAT YOGURT, UPC: 708820414167"
Food Group:  Branded Food Products Database
Common Name:

Nutrient,Unit,Data points,Std. Error,"6.0 ONZ = 170.0g",1Value per 100 g,
Proximates
"Energy",kcal,--,--,100,59
"Protein",g,--,--,5.00,2.94
"Total lipid (fat)",g,--,--,0.00,0.00
"Carbohydrate, by difference",g,--,--,19.99,11.76
"Fiber, total dietary",g,--,--,0.0,0.0
"Sugars, total",g,--,--,14.01,8.24
Minerals
"Calcium, Ca",mg,--,--,185,109
"Iron, Fe",mg,--,--,0.00,0.00
"Potassium, K",mg,--,--,255,150
"Sodium, Na",mg,--,--,85,50
Vitamins
Lipids
"Fatty acids, total saturated",g,--,--,0.000,0.000
"Fatty acids, total trans",g,--,--,0.000,0.000
"Cholesterol",mg,--,--,5,3
Amino Acids
Other
Ingredients
"CULTURED, PASTEURIZED, SKIM MILK WITH VITAMINS A & D, WATER, PEACHES, FRUCTOSE, MODIFIED CORN STARCH, PECTIN, NONFAT DRY MILK, NATURAL FLAVORS, CITRIC ACID, ACESULFAME POTASSIUM, POTASSIUM SORBATE, SODIUM CITRATE, ANNATTO (FOR COLOR), CALCIUM CITRATE, SUCRALOSE. CONTAINS FIVE LIVE AND ACTIVE CULTURES INCLUDING S. THERMOPHILUS, L. BULGARICUS, L. ACIDOPHILUS, L. PARACASEI, L. RHAMNOSUS." Date available: 10/06/2017 Date last updated by company: 10/06/2017
