Source: USDA Branded Food Products Database Release December 2017 Software v.3.8.6.4 2017-10-02
Report Run at: December 17, 2017 09:35 EST
"Nutrient data for: 45228825, LIGHT NONFAT PROBIOTIC DRINK, UPC: 699235000000"
Food Group:  Branded Food Products Database
Common Name:

Nutrient,Unit,Data points,Std. Error,"1 BOTTLE = 80.0g",1Value per 100 g,
Proximates
"Energy",kcal,--,--,30,38
"Protein",g,--,--,1.00,1.25
"Total lipid (fat)",g,--,--,0.00,0.00
"Carbohydrate, by difference",g,--,--,6.00,7.50
"Fiber, total dietary",g,--,--,1.0,1.2
"Sugars, total",g,--,--,4.00,5.00
Minerals
"Calcium, Ca",mg,--,--,40,50
"Sodium, Na",mg,--,--,15,19
Vitamins
Lipids
"Cholesterol",mg,--,--,0,0
Amino Acids
Other
Ingredients
"WATER, SKIM MILK POWDER, CORN DEXTRIN, SUGAR, GLUCOSE, PECTIN, NATURAL FLAVORS, REB A (STEVIA EXTRACT), LACTOBACILLUS CASEI SHIROTA" Date available: 07/14/2017 Date last updated by company: 07/14/2017
