Source: USDA Branded Food Products Database Release December 2017 Software v.3.8.6.4 2017-10-02
Report Run at: December 17, 2017 09:39 EST
"Nutrient data for: 45008557, LIGHT RED KIDNEY BEANS, UPC: 00833387"
Food Group:  Branded Food Products Database
Common Name:

Nutrient,Unit,Data points,Std. Error,"0.5 cup = 131.0g",1Value per 100 g,
Proximates
"Energy",kcal,--,--,110,84
"Protein",g,--,--,8.00,6.11
"Total lipid (fat)",g,--,--,0.00,0.00
"Carbohydrate, by difference",g,--,--,19.00,14.50
"Fiber, total dietary",g,--,--,6.0,4.6
"Sugars, total",g,--,--,1.00,0.76
Minerals
"Calcium, Ca",mg,--,--,80,61
"Iron, Fe",mg,--,--,1.78,1.36
"Sodium, Na",mg,--,--,179,137
Vitamins
"Vitamin C, total ascorbic acid",mg,--,--,5.9,4.5
"Vitamin A, IU",IU,--,--,0,0
Lipids
"Fatty acids, total saturated",g,--,--,0.000,0.000
"Fatty acids, total trans",g,--,--,0.000,0.000
"Cholesterol",mg,--,--,0,0
Amino Acids
Other
Ingredients
"LIGHT RED KIDNEY BEANS, WATER, SALT, CALCIUM CHLORIDE (ADDED TO HELP MAINTAIN FIRMNESS), DISODIUM EDTA (ADDED TO PROMOTE COLOR RETENTION)." Date available: 06/24/2017 Date last updated by company: 06/24/2017
