Source: USDA Branded Food Products Database Release December 2017 Software v.3.8.6.4 2017-10-02
Report Run at: December 17, 2017 09:18 EST
"Nutrient data for: 45238641, LIGHT CORN SYRUP, UPC: 761720051405"
Food Group:  Branded Food Products Database
Common Name:

Nutrient,Unit,Data points,Std. Error,"2.0 Tbsp = 30.0g",1Value per 100 g,
Proximates
"Energy",kcal,--,--,120,400
"Protein",g,--,--,0.00,0.00
"Total lipid (fat)",g,--,--,0.00,0.00
"Carbohydrate, by difference",g,--,--,30.00,100.00
"Sugars, total",g,--,--,10.00,33.33
Minerals
"Sodium, Na",mg,--,--,30,100
Vitamins
Lipids
Amino Acids
Other
Ingredients
"CORN SYRUP, SALT, VANILLA." Date available: 07/14/2017 Date last updated by company: 07/14/2017
