Source: USDA Branded Food Products Database Release December 2017 Software v.3.8.6.4 2017-10-02
Report Run at: December 17, 2017 09:23 EST
"Nutrient data for: 45052132, LIGHT ICE CREAM, UPC: 041497013777"
Food Group:  Branded Food Products Database
Common Name:

Nutrient,Unit,Data points,Std. Error,"0.5 cup = 66.0g",1Value per 100 g,
Proximates
"Energy",kcal,--,--,130,197
"Protein",g,--,--,3.00,4.55
"Total lipid (fat)",g,--,--,4.00,6.06
"Carbohydrate, by difference",g,--,--,20.00,30.30
"Fiber, total dietary",g,--,--,1.0,1.5
"Sugars, total",g,--,--,19.00,28.79
Minerals
"Calcium, Ca",mg,--,--,100,152
"Iron, Fe",mg,--,--,0.00,0.00
"Sodium, Na",mg,--,--,50,76
Vitamins
"Vitamin C, total ascorbic acid",mg,--,--,0.0,0.0
"Vitamin A, IU",IU,--,--,337,511
Lipids
"Fatty acids, total saturated",g,--,--,3.003,4.550
"Fatty acids, total trans",g,--,--,0.000,0.000
"Cholesterol",mg,--,--,10,15
Amino Acids
Other
Ingredients
"NONFAT MILK, SUGAR, CHOCO CHIPS (SUGAR, COCONUT OIL, COCOA PROCESSED WITH ALKALI, NATURAL COCOA POWDER, BUTTER OIL, SOY LECITHIN, NATURAL FLAVORS), CORN SYRUP, CREAM, WHEY PROTEIN CONCENTRATE, PROPYLENE GLYCOL MONOESTER, MONO- AND DIGLYCERIDES, GUAR GUM, CELLULOSE GUM, CARRAGEENAN, NATURAL FLAVOR, GREEN COLOR (YELLOW 5, BLUE 1), VITAMIN A PALMITATE." Date available: 08/08/2017 Date last updated by company: 08/08/2017
