Source: USDA Branded Food Products Database Release December 2017 Software v.3.8.6.4 2017-10-02
Report Run at: December 17, 2017 09:22 EST
"Nutrient data for: 45111361, LIGHT ICE CREAM, UPC: 070640010240"
Food Group:  Branded Food Products Database
Common Name:

Nutrient,Unit,Data points,Std. Error,"0.5 cup = 65.0g",1Value per 100 g,
Proximates
"Energy",kcal,--,--,130,200
"Protein",g,--,--,2.00,3.08
"Total lipid (fat)",g,--,--,3.50,5.38
"Carbohydrate, by difference",g,--,--,21.00,32.31
"Fiber, total dietary",g,--,--,0.0,0.0
"Sugars, total",g,--,--,15.00,23.08
Minerals
"Calcium, Ca",mg,--,--,100,154
"Iron, Fe",mg,--,--,0.40,0.62
"Potassium, K",mg,--,--,140,215
"Sodium, Na",mg,--,--,75,115
Vitamins
"Vitamin C, total ascorbic acid",mg,--,--,0.0,0.0
"Vitamin A, IU",IU,--,--,225,346
Lipids
"Fatty acids, total saturated",g,--,--,2.002,3.080
"Fatty acids, total trans",g,--,--,0.000,0.000
"Cholesterol",mg,--,--,10,15
Amino Acids
Other
Ingredients
"MILK, BUTTERMILK, WHEY, COOKIE PIECES {SUGAR, ENRICHED WHEAT FLOUR (WHEAT FLOUR, NIACIN, REDUCED IRON, THIAMIN MONONITRATE, RIBOFLAVIN, FOLIC ACID), SOYBEAN OIL, PALM OIL, COCOA PROCESSED WITH ALKALI, INVERT SUGAR, CONTAINS 2% OR LESS OF YELLOW CORN FLOUR, CHOCOLATE, CORN STARCH, SALT, LEAVENING (BAKING SODA, MONOCALCIUM PHOSPHATE), WHEY, NATURAL AND ARTIFICIAL FLAVOR, SOY LECITHIN}, SUGAR, CORN SYRUP, CREAM, SKIM MILK, CONTAINS 2% OR LESS OF MONO AND DIGLYCERIDES, CAROB BEAN GUM, GUAR GUM, CARRAGEENAN, VANILLA EXTRACT, ARTIFICIAL FLAVOR, POLYSORBATE 80, ANNATTO FOR COLOR, VITAMIN A PALMITATE." Date available: 07/14/2017 Date last updated by company: 07/14/2017
