Source: USDA Branded Food Products Database Release December 2017 Software v.3.8.6.4 2017-10-02
Report Run at: December 17, 2017 09:36 EST
"Nutrient data for: 45227131, LIGHT NONFAT YOGURT, UPC: 085239284155"
Food Group:  Branded Food Products Database
Common Name:

Nutrient,Unit,Data points,Std. Error,"1 CONTAINER = 170.0g",1Value per 100 g,
Proximates
"Energy",kcal,--,--,80,47
"Protein",g,--,--,6.00,3.53
"Total lipid (fat)",g,--,--,0.00,0.00
"Carbohydrate, by difference",g,--,--,14.01,8.24
"Fiber, total dietary",g,--,--,0.0,0.0
"Sugars, total",g,--,--,8.99,5.29
Minerals
"Calcium, Ca",mg,--,--,201,118
"Iron, Fe",mg,--,--,0.00,0.00
"Potassium, K",mg,--,--,260,153
"Sodium, Na",mg,--,--,95,56
Vitamins
"Vitamin C, total ascorbic acid",mg,--,--,1.2,0.7
"Vitamin A, IU",IU,--,--,500,294
"Vitamin D",IU,--,--,80,47
Lipids
"Fatty acids, total saturated",g,--,--,0.000,0.000
"Fatty acids, total trans",g,--,--,0.000,0.000
"Cholesterol",mg,--,--,0,0
Amino Acids
Other
Ingredients
"CULTURED PASTEURIZED GRADE A NONFAT MILK, PEACHES, MODIFIED CORN STARCH, FRUCTOSE, NATURAL FLAVORS, KOSHER GELATIN, SUCRALOSE*, POTASSIUM SORBATE (FOR FRESHNESS), ACESULFAME POTASSIUM*, CITRIC ACID, ANNATTO (FOR COLOR), VITAMIN A PALMITATE, VITAMIN D3. CONTAINS LIVE AND ACTIVE CULTURES (S.THERMOPHILUS, L.BULGARICUS, L.ACIDOPHILUS, BIFIDUS, L.CASEI)." Date available: 07/14/2017 Date last updated by company: 07/14/2017
