Source: USDA Branded Food Products Database Release December 2017 Software v.3.8.6.4 2017-10-02
Report Run at: December 17, 2017 09:22 EST
"Nutrient data for: 45102379, LIGHT ICE CREAM, UPC: 011225107306"
Food Group:  Branded Food Products Database
Common Name:

Nutrient,Unit,Data points,Std. Error,"0.5 cup = 63.0g",1Value per 100 g,
Proximates
"Energy",kcal,--,--,100,159
"Protein",g,--,--,2.00,3.17
"Total lipid (fat)",g,--,--,3.00,4.76
"Carbohydrate, by difference",g,--,--,16.00,25.40
"Fiber, total dietary",g,--,--,1.0,1.6
"Sugars, total",g,--,--,13.00,20.63
Minerals
"Calcium, Ca",mg,--,--,80,127
"Iron, Fe",mg,--,--,0.40,0.64
"Sodium, Na",mg,--,--,45,71
Vitamins
"Vitamin C, total ascorbic acid",mg,--,--,0.0,0.0
"Vitamin A, IU",IU,--,--,225,357
Lipids
"Fatty acids, total saturated",g,--,--,1.997,3.170
"Fatty acids, total trans",g,--,--,0.000,0.000
"Cholesterol",mg,--,--,10,16
Amino Acids
Other
Ingredients
"MILKFAT AND NONFAT MILK, SUGAR, SWEETCREAM BUTTERMILK, CORN SYRUP, WHEY, COCOA PROCESSED WITH ALKALI, CONTAINS LESS THAN 2% OF PROPYLENE GLYCOL MONOESTER, MONO & DIGLYCERIDES, GUAR GUM, CELLULOSE GUM, CARRAGEENAN, VITAMIN A PALMITATE." Date available: 07/14/2017 Date last updated by company: 07/14/2017
