Source: USDA Branded Food Products Database Release December 2017 Software v.3.8.6.4 2017-10-02
Report Run at: December 17, 2017 09:37 EST
"Nutrient data for: 45270164, LIGHT NONFAT YOGURT, UPC: 076200000980"
Food Group:  Branded Food Products Database
Common Name:

Nutrient,Unit,Data points,Std. Error,"1 CONTAINER = 170.0g",1Value per 100 g,
Proximates
"Energy",kcal,--,--,80,47
"Protein",g,--,--,7.00,4.12
"Total lipid (fat)",g,--,--,0.00,0.00
"Carbohydrate, by difference",g,--,--,16.00,9.41
"Fiber, total dietary",g,--,--,3.1,1.8
"Sugars, total",g,--,--,8.01,4.71
Minerals
"Calcium, Ca",mg,--,--,150,88
"Iron, Fe",mg,--,--,0.00,0.00
"Sodium, Na",mg,--,--,95,56
Vitamins
"Vitamin C, total ascorbic acid",mg,--,--,1.2,0.7
"Vitamin A, IU",IU,--,--,0,0
Lipids
"Fatty acids, total saturated",g,--,--,0.000,0.000
"Fatty acids, total trans",g,--,--,0.000,0.000
"Cholesterol",mg,--,--,5,3
Amino Acids
Other
Ingredients
"CULTURED NONFAT MILK, CHERRIES, WHEY PROTEIN CONCENTRATE, INULIN, CORN STARCH-MODIFIED, GELATIN, PECTIN, NATURAL FLAVOR, MALIC ACID, CITRIC ACID, SUCRALOSE, POTASSIUM SORBATE (PRESERVATIVE), ACESULFAME POTASSIUM, RED 40." Date available: 07/14/2017 Date last updated by company: 07/14/2017
