Source: USDA Branded Food Products Database Release December 2017 Software v.3.8.6.4 2017-10-02
Report Run at: December 17, 2017 09:21 EST
"Nutrient data for: 45218727, LIGHT GREEK NONFAT YOGURT, UPC: 036632029119"
Food Group:  Branded Food Products Database
Common Name:

Nutrient,Unit,Data points,Std. Error,"1 CONTAINER = 150.0g",1Value per 100 g,
Proximates
"Energy",kcal,--,--,80,53
"Protein",g,--,--,12.00,8.00
"Total lipid (fat)",g,--,--,0.00,0.00
"Carbohydrate, by difference",g,--,--,8.00,5.33
"Fiber, total dietary",g,--,--,0.0,0.0
"Sugars, total",g,--,--,7.00,4.67
Minerals
"Calcium, Ca",mg,--,--,150,100
"Potassium, K",mg,--,--,200,133
"Sodium, Na",mg,--,--,60,40
Vitamins
"Vitamin A, IU",IU,--,--,0,0
"Vitamin D",IU,--,--,60,40
Lipids
"Fatty acids, total saturated",g,--,--,0.000,0.000
"Cholesterol",mg,--,--,4,3
Amino Acids
Other
Ingredients
"CULTURED GRADE A NON FAT MILK, WATER, STRAWBERRIES, CONTAINS LESS THAN 1% OF FRUCTOSE, MODIFIED CORN STARCH, FRUIT JUICE CONCENTRATE AND VEGETABLE JUICE CONCENTRATE (FOR COLOR), NATURAL FLAVOR, PECTIN, CARRAGEENAN, SUCRALOSE, SODIUM CITRATE, ACESULFAME POTASSIUM, VITAMIN D3, CALCIUM CITRATE, LACTIC ACID." Date available: 07/14/2017 Date last updated by company: 07/14/2017
