Source: USDA Branded Food Products Database Release December 2017 Software v.3.8.6.4 2017-10-02
Report Run at: December 17, 2017 09:14 EST
"Nutrient data for: 45199508, LIGHT ALFREDO SAUCE, UPC: 607880036664"
Food Group:  Branded Food Products Database
Common Name:

Nutrient,Unit,Data points,Std. Error,"0.25 cup = 61.0g",1Value per 100 g,
Proximates
"Energy",kcal,--,--,50,82
"Protein",g,--,--,1.00,1.64
"Total lipid (fat)",g,--,--,4.00,6.56
"Carbohydrate, by difference",g,--,--,2.00,3.28
"Fiber, total dietary",g,--,--,0.0,0.0
"Sugars, total",g,--,--,0.00,0.00
Minerals
"Calcium, Ca",mg,--,--,20,33
"Iron, Fe",mg,--,--,0.00,0.00
"Sodium, Na",mg,--,--,330,541
Vitamins
"Vitamin C, total ascorbic acid",mg,--,--,0.0,0.0
"Vitamin A, IU",IU,--,--,423,693
Lipids
"Fatty acids, total saturated",g,--,--,2.001,3.280
"Fatty acids, total trans",g,--,--,0.000,0.000
"Cholesterol",mg,--,--,25,41
Amino Acids
Other
Ingredients
"WATER, CREAM, CHEESE BLEND (GRANULAR, PARMESAN, AND ROMANO CHEESE [MILK, CHEESE CULTURES, SALT, ENZYMES], WATER, SALT, LACTIC ACID, CITRIC ACID), MODIFIED CORNSTARCH, ENZYME MODIFIED EGG YOLKS (EGG YOLKS, WATER, SALT, ENZYMES), SALT, SOYBEAN OIL, DISODIUM PHOSPHATE, DRIED GARLIC, YEAST EXTRACT, NATURAL FLAVORS, XANTHAN GUM." Date available: 07/14/2017 Date last updated by company: 07/14/2017
