Source: USDA Branded Food Products Database Release December 2017 Software v.3.8.6.4 2017-10-02
Report Run at: December 17, 2017 09:20 EST
"Nutrient data for: 45126532, LIGHT FLATBREAD, UPC: 688339923193"
Food Group:  Branded Food Products Database
Common Name:

Nutrient,Unit,Data points,Std. Error,"1 FLATBREAD = 53.0g",1Value per 100 g,
Proximates
"Energy",kcal,--,--,90,170
"Protein",g,--,--,9.00,16.98
"Total lipid (fat)",g,--,--,1.50,2.83
"Carbohydrate, by difference",g,--,--,14.00,26.42
"Fiber, total dietary",g,--,--,8.0,15.1
"Sugars, total",g,--,--,0.00,0.00
Minerals
"Calcium, Ca",mg,--,--,0,0
"Iron, Fe",mg,--,--,1.12,2.12
"Sodium, Na",mg,--,--,250,472
Vitamins
"Vitamin C, total ascorbic acid",mg,--,--,0.0,0.0
"Vitamin A, IU",IU,--,--,0,0
Lipids
"Fatty acids, total saturated",g,--,--,0.000,0.000
"Fatty acids, total trans",g,--,--,0.000,0.000
"Cholesterol",mg,--,--,0,0
Amino Acids
Other
Ingredients
"WATER, WHOLE WHEAT FLOUR, VITAL WHEAT GLUTEN, OAT FIBER, ENRICHED WHEAT FLOUR (WHEAT FLOUR, NIACIN, REDUCED IRON, THIAMINE MONONITRATE, RIBOFLAVIN, FOLIC ACID), CONTAINS 2% OR LESS OF SOYBEAN OIL, MALTITOL, YEAST, WHEAT PROTEIN ISOLATE, SODIUM ACID PYROPHOSPHATE, BAKING SODA, FUMARIC ACID, POTASSIUM SORBATE AND SODIUM PROPIONATE (PRESERVATIVES), CELLULOSE GUM, GUAR GUM, XANTHAN GUM, MALTODEXTRIN, SALT, ANNATTO EXTRACT (COLOR), CALCIUM SULFATE, CALCIUM PEROXIDE, ENZYMES." Date available: 07/14/2017 Date last updated by company: 07/14/2017
