Source: USDA Branded Food Products Database Release December 2017 Software v.3.8.6.4 2017-10-02
Report Run at: December 17, 2017 09:44 EST
"Nutrient data for: 45086842, LIGURIAN BASIL PESTO, UPC: 8032529643620"
Food Group:  Branded Food Products Database
Common Name:

Nutrient,Unit,Data points,Std. Error,"0.25 cup = 60.0g",1Value per 100 g,
Proximates
"Energy",kcal,--,--,344,573
"Protein",g,--,--,4.00,6.67
"Total lipid (fat)",g,--,--,36.00,60.00
"Carbohydrate, by difference",g,--,--,4.00,6.67
Minerals
"Calcium, Ca",mg,--,--,160,267
"Iron, Fe",mg,--,--,1.52,2.54
"Sodium, Na",mg,--,--,656,1093
Vitamins
"Vitamin C, total ascorbic acid",mg,--,--,19.0,31.7
"Vitamin A, IU",IU,--,--,1268,2113
Lipids
"Fatty acids, total saturated",g,--,--,7.998,13.330
"Cholesterol",mg,--,--,12,20
Amino Acids
Other
Ingredients
"BASIL GENOVESE DOP (35%), EXTRA VIRGIN OLIVE OIL (30%), CASHEWNUTS, CHEESE POWDER, WHEY POWDER, SALT, EMULSIFYING SALT), GRANA PADANO DOP (MILK, SLYSOZYM: EGG PROTEIN), PECORINO ROMANO DOP (SHEEP MILK, SALT RENEY, PINENUTS, GARLIC, SALT, ACIDITY CORRECTOR: CITRIC ACID." Date available: 07/14/2017 Date last updated by company: 07/14/2017
