Source: USDA Branded Food Products Database Release December 2017 Software v.3.8.6.4 2017-10-02
Report Run at: December 17, 2017 09:46 EST
"Nutrient data for: 45177382, LILLY'S, CHOCOLATE HUMMUS, UPC: 645136000359"
Food Group:  Branded Food Products Database
Common Name:

Nutrient,Unit,Data points,Std. Error,"2.0 Tbsp = 30.0g",1Value per 100 g,
Proximates
"Energy",kcal,--,--,80,267
"Protein",g,--,--,2.00,6.67
"Total lipid (fat)",g,--,--,4.00,13.33
"Carbohydrate, by difference",g,--,--,10.00,33.33
"Fiber, total dietary",g,--,--,2.0,6.7
"Sugars, total",g,--,--,4.00,13.33
Minerals
"Calcium, Ca",mg,--,--,20,67
"Iron, Fe",mg,--,--,1.20,4.00
"Sodium, Na",mg,--,--,90,300
Vitamins
"Vitamin C, total ascorbic acid",mg,--,--,6.0,20.0
"Vitamin A, IU",IU,--,--,0,0
Lipids
"Fatty acids, total saturated",g,--,--,0.501,1.670
"Fatty acids, total trans",g,--,--,0.000,0.000
"Cholesterol",mg,--,--,0,0
Amino Acids
Other
Ingredients
"ORGANIC GARBANZO BEANS, OLIVE OIL, CANE SUGAR, ORANGE JUICE, UNSWEETENED COCOA, SESAME TAHINI, CITRIC ACID, SEA-SALT, VANILLA." Date available: 07/14/2017 Date last updated by company: 07/14/2017
