Source: USDA Branded Food Products Database Release December 2017 Software v.3.8.6.4 2017-10-02
Report Run at: December 17, 2017 09:48 EST
"Nutrient data for: 45249065, LIMEADE, UPC: 036192123289"
Food Group:  Branded Food Products Database
Common Name:

Nutrient,Unit,Data points,Std. Error,"8.0 OZA = 240.0g",1Value per 100 g,
Proximates
"Energy",kcal,--,--,101,42
"Protein",g,--,--,0.00,0.00
"Total lipid (fat)",g,--,--,0.00,0.00
"Carbohydrate, by difference",g,--,--,24.00,10.00
"Sugars, total",g,--,--,22.99,9.58
Minerals
"Potassium, K",mg,--,--,24,10
"Sodium, Na",mg,--,--,10,4
Vitamins
"Vitamin C, total ascorbic acid",mg,--,--,3.6,1.5
Lipids
Amino Acids
Other
Ingredients
"FILTERED WATER, ORGANIC SUGAR, ORGANIC LIME AND ORGANIC WHITE GRAPE JUICE CONCENTRATES, ORGANIC NATURAL FLAVORS, ORGANIC LIME JUICE, ORGANIC LEMON JUICE CONCENTRATE" Date available: 07/14/2017 Date last updated by company: 07/14/2017
