Source: USDA Branded Food Products Database Release December 2017 Software v.3.8.6.4 2017-10-02
Report Run at: December 17, 2017 09:49 EST
"Nutrient data for: 45189791, LIME SWEET PICKLE, UPC: 011433113939"
Food Group:  Branded Food Products Database
Common Name:

Nutrient,Unit,Data points,Std. Error,"1 Tbsp = 20.0g",1Value per 100 g,
Proximates
"Energy",kcal,--,--,50,250
"Protein",g,--,--,0.00,0.00
"Total lipid (fat)",g,--,--,1.00,5.00
"Carbohydrate, by difference",g,--,--,11.00,55.00
"Fiber, total dietary",g,--,--,0.0,0.0
"Sugars, total",g,--,--,10.00,50.00
Minerals
"Calcium, Ca",mg,--,--,20,100
"Iron, Fe",mg,--,--,0.90,4.50
"Sodium, Na",mg,--,--,320,1600
Vitamins
"Vitamin C, total ascorbic acid",mg,--,--,0.0,0.0
"Vitamin A, IU",IU,--,--,0,0
Lipids
"Cholesterol",mg,--,--,0,0
Amino Acids
Other
Ingredients
"LIME (45%), SUGAR (35%), JAGGERY (10%), SALT, CORN OIL, RED CHILI POWDER, CORIANDER, FENUGREEK, MUSTARD, TURMERIC, SPICES, CITRIC ACID, PRESERVATIVES SODIUM BENZOATE (E211)." Date available: 07/14/2017 Date last updated by company: 07/14/2017
