Source: USDA Branded Food Products Database Release December 2017 Software v.3.8.6.4 2017-10-02
Report Run at: December 17, 2017 09:47 EST
"Nutrient data for: 45151492, LIMEADE FROZEN CONCENTRATE, UPC: 041268111411"
Food Group:  Branded Food Products Database
Common Name:

Nutrient,Unit,Data points,Std. Error,"8.0 FL. OZ. PREPARED | MAKES = 45.0g",1Value per 100 g,
Proximates
"Energy",kcal,--,--,90,200
"Protein",g,--,--,1.00,2.22
"Total lipid (fat)",g,--,--,0.00,0.00
"Carbohydrate, by difference",g,--,--,26.00,57.78
"Sugars, total",g,--,--,23.00,51.11
Minerals
"Calcium, Ca",mg,--,--,0,0
"Iron, Fe",mg,--,--,0.00,0.00
"Sodium, Na",mg,--,--,0,0
Vitamins
"Vitamin C, total ascorbic acid",mg,--,--,6.0,13.3
"Vitamin A, IU",IU,--,--,0,0
Lipids
"Cholesterol",mg,--,--,0,0
Amino Acids
Other
Ingredients
"HIGH FRUCTOSE CORN SYRUP, WATER, CONCENTRATED LIME JUICE, SUGAR SYRUP, LIME PULP, LIME OIL." Date available: 07/14/2017 Date last updated by company: 07/14/2017
