Source: USDA Branded Food Products Database Release December 2017 Software v.3.8.6.4 2017-10-02
Report Run at: December 17, 2017 09:52 EST
"Nutrient data for: 45086368, LIMONE BISCOTTI, UPC: 718604145484"
Food Group:  Branded Food Products Database
Common Name:

Nutrient,Unit,Data points,Std. Error,"1 BISCOTTI = 24.0g",1Value per 100 g,
Proximates
"Energy",kcal,--,--,110,458
"Protein",g,--,--,2.00,8.33
"Total lipid (fat)",g,--,--,3.50,14.58
"Carbohydrate, by difference",g,--,--,17.00,70.83
"Fiber, total dietary",g,--,--,0.0,0.0
"Sugars, total",g,--,--,11.00,45.83
Minerals
"Calcium, Ca",mg,--,--,20,83
"Iron, Fe",mg,--,--,0.75,3.13
"Sodium, Na",mg,--,--,85,354
Vitamins
"Vitamin C, total ascorbic acid",mg,--,--,0.0,0.0
"Vitamin A, IU",IU,--,--,0,0
Lipids
"Fatty acids, total saturated",g,--,--,2.501,10.420
"Fatty acids, total trans",g,--,--,0.000,0.000
"Cholesterol",mg,--,--,20,83
Amino Acids
Other
Ingredients
"WHEAT FLOUR, SUGAR, WHITE CONFECTIONARY COATING (SUGAR, FRACTIONATED PALM KERNEL OIL, MILK, WHEY, SKIM MILK, SOY LECITHIN [AN EMULSIFIER], SALT, VANILLA), EGGS, BUTTER, NATURAL FLAVORS, BAKING POWDER (SODIUM ACID PYROPHOSPHATE, BAKING SODA, CORN STARCH, MONOCALCIUM PHOSPHATE), SALT, MALTED BARLEY FLOUR." Date available: 07/14/2017 Date last updated by company: 07/14/2017
