Source: USDA Branded Food Products Database Release December 2017 Software v.3.8.6.4 2017-10-02
Report Run at: December 17, 2017 09:54 EST
"Nutrient data for: 45041722, LINDT, DARK CARAMEL WITH A TOUCH OF SEA SALT, UPC: 037466062273"
Food Group:  Branded Food Products Database
Common Name:

Nutrient,Unit,Data points,Std. Error,"4.0 SQUARES = 40.0g",1Value per 100 g,
Proximates
"Energy",kcal,--,--,200,500
"Protein",g,--,--,2.00,5.00
"Total lipid (fat)",g,--,--,12.00,30.00
"Carbohydrate, by difference",g,--,--,22.00,55.00
"Fiber, total dietary",g,--,--,1.0,2.5
"Sugars, total",g,--,--,21.00,52.50
Minerals
"Calcium, Ca",mg,--,--,20,50
"Iron, Fe",mg,--,--,1.35,3.38
"Sodium, Na",mg,--,--,60,150
Vitamins
"Vitamin C, total ascorbic acid",mg,--,--,0.0,0.0
"Vitamin A, IU",IU,--,--,0,0
Lipids
"Fatty acids, total saturated",g,--,--,7.000,17.500
"Fatty acids, total trans",g,--,--,0.000,0.000
"Cholesterol",mg,--,--,5,12
Amino Acids
Other
Ingredients
"SUGAR, CHOCOLATE, CARAMEL PIECES (SUGAR, LACTOSE, MILKFAT, COCOA BUTTER, SKIM MILK, SALT, RAPESEED LECITHIN (EMULSIFIER), ARTIFICIAL FLAVOR), COCOA BUTTER, BUTTERFAT, SOYA LECITHIN (EMULSIFIER), SEA SALT, ARTIFICIAL FLAVORS." Date available: 07/14/2017 Date last updated by company: 07/14/2017
