Source: USDA Branded Food Products Database Release December 2017 Software v.3.8.6.4 2017-10-02
Report Run at: December 17, 2017 10:00 EST
"Nutrient data for: 45234979, LINDY'S, HOMEMADE, PREMIUM ITALIAN ICE, ORANGE, UPC: 815294000137"
Food Group:  Branded Food Products Database
Common Name:

Nutrient,Unit,Data points,Std. Error,"1 CUP = 177.0g",1Value per 100 g,
Proximates
"Energy",kcal,--,--,99,56
"Protein",g,--,--,0.00,0.00
"Total lipid (fat)",g,--,--,0.00,0.00
"Carbohydrate, by difference",g,--,--,26.00,14.69
"Fiber, total dietary",g,--,--,0.0,0.0
"Sugars, total",g,--,--,20.99,11.86
Minerals
"Calcium, Ca",mg,--,--,0,0
"Iron, Fe",mg,--,--,0.00,0.00
"Sodium, Na",mg,--,--,19,11
Vitamins
"Vitamin C, total ascorbic acid",mg,--,--,0.0,0.0
"Vitamin A, IU",IU,--,--,0,0
Lipids
"Fatty acids, total saturated",g,--,--,0.000,0.000
"Fatty acids, total trans",g,--,--,0.000,0.000
"Cholesterol",mg,--,--,0,0
Amino Acids
Other
Ingredients
"WATER, HIGH FRUCTOSE CORN SYRUP, CORN SYRUP, SUGAR, ORANGE JUICE CONCENTRATE WITH PECTIN, NATURAL FLAVOR, CITRIC ACID, DEXTROSE, LECITHIN (SOY), GUAR GUM, XANTHAN GUM, CARRAGEENAN, YELLOW #6, YELLOW #5, RED #40" Date available: 07/14/2017 Date last updated by company: 07/14/2017
