Source: USDA Branded Food Products Database Release December 2017 Software v.3.8.6.4 2017-10-02
Report Run at: December 17, 2017 09:57 EST
"Nutrient data for: 45154483, LINDT, LINDOR WHITE CHOCOLATE TRUFFELS, PEPPERMINT, UPC: 009542011758"
Food Group:  Branded Food Products Database
Common Name:

Nutrient,Unit,Data points,Std. Error,"3.0 BALLS = 36.0g",1Value per 100 g,
Proximates
"Energy",kcal,--,--,230,639
"Protein",g,--,--,2.00,5.56
"Total lipid (fat)",g,--,--,19.00,52.78
"Carbohydrate, by difference",g,--,--,14.00,38.89
"Fiber, total dietary",g,--,--,1.0,2.8
"Sugars, total",g,--,--,14.00,38.89
Minerals
"Calcium, Ca",mg,--,--,60,167
"Iron, Fe",mg,--,--,0.00,0.00
"Sodium, Na",mg,--,--,30,83
Vitamins
"Vitamin C, total ascorbic acid",mg,--,--,0.0,0.0
"Vitamin A, IU",IU,--,--,0,0
Lipids
"Fatty acids, total saturated",g,--,--,14.000,38.890
"Fatty acids, total trans",g,--,--,0.000,0.000
"Cholesterol",mg,--,--,5,14
Amino Acids
Other
Ingredients
"WHITE CHOCOLATE [SUGAR, COCOA BUTTER, MILK, SKIM MILK, SOYA LECITHIN (EMULSFIER), VANILLIN (ARTIFICIAL FLAVORING)], VEGETABLE OIL (COCONUT, PAL KERNEL), SUGAR, COCOA BUTTE, MILK SKIM MILK, PEPPERMINT PIECES (SUGAR, BEET JUICE CONCENTRATE, PEPPERMINT OIL, TURMERIC COLOR), SOYA LECITHIN (EMULSIFIER), PEPPERMINT OIL, ARTIFICIAL FLAVOR." Date available: 07/14/2017 Date last updated by company: 07/14/2017
