Source: USDA Branded Food Products Database Release December 2017 Software v.3.8.6.4 2017-10-02
Report Run at: December 17, 2017 10:06 EST
"Nutrient data for: 45010269, LIPTON, ICED BLACK TEA WITH HONEY, LEMON, UPC: 041000207792"
Food Group:  Branded Food Products Database
Common Name:

Nutrient,Unit,Data points,Std. Error,"0.5 PACKET, (MAKES 8 FL OZ PREPARED) = 2.0g",1Value per 100 g,
Proximates
"Energy",kcal,--,--,5,250
"Protein",g,--,--,0.00,0.00
"Total lipid (fat)",g,--,--,0.00,0.00
"Carbohydrate, by difference",g,--,--,1.00,50.00
"Sugars, total",g,--,--,1.00,50.00
Minerals
"Sodium, Na",mg,--,--,20,1000
Vitamins
Lipids
Amino Acids
Other
Ingredients
"HONEY GRANULES (SUGAR, HONEY), CITRIC ACID (PROVIDES TARTNESS), BLACK TEA POWDER, GREEN TEA POWDER, MALTODEXTRIN (CORN), CARAMEL COLOR (CONTAINS SULFITES), SUCRALOSE (SWEETENER), NATURAL FLAVOR, HIBISCUS EXTRACT." Date available: 06/24/2017 Date last updated by company: 06/24/2017
