Source: USDA Branded Food Products Database Release December 2017 Software v.3.8.6.4 2017-10-02
Report Run at: December 17, 2017 10:05 EST
"Nutrient data for: 45079296, LIPTON, DIET LOW CALORIE ICED TEA MIX, LEMON NATURAL FLAVOR, UPC: 041000008726"
Food Group:  Branded Food Products Database
Common Name:

Nutrient,Unit,Data points,Std. Error,"8.0 FL OZ PREPARED = 2.0g",1Value per 100 g,
Proximates
"Energy",kcal,--,--,5,250
"Protein",g,--,--,0.00,0.00
"Total lipid (fat)",g,--,--,0.00,0.00
"Carbohydrate, by difference",g,--,--,1.00,50.00
Minerals
"Sodium, Na",mg,--,--,0,0
Vitamins
Lipids
Amino Acids
Other
Ingredients
"MALTODEXTRIN, MALIC ACID (PROVIDES TARTNESS), INSTANT TEA POWDER, ASPARTAME* (SWEETENER), ACESULFAME POTASSIUM (NON-NUTRITIVE SWEETENER), MAGNESIUM OXIDE (PREVENTS CAKING), NATURAL FLAVOR. SWEETENED WITH A NUTRITIVE SWEETENER AND A NON-NUTRITIVE SWEETENER" Date available: 07/14/2017 Date last updated by company: 07/14/2017
