Source: USDA Branded Food Products Database Release December 2017 Software v.3.8.6.4 2017-10-02
Report Run at: December 17, 2017 10:08 EST
"Nutrient data for: 45079470, LIPTON, SUPERFRUIT GREEN TEA, ACAI DRAGONFRUIT MELON FLAVOR WITH OTHER NATURAL FLAVOR, UPC: 041000197659"
Food Group:  Branded Food Products Database
Common Name:

Nutrient,Unit,Data points,Std. Error,"1 TEA BAG (MAKES 8 FL OZ PREPARED) = 1.1g",1Value per 100 g,
Proximates
"Energy",kcal,--,--,0,0
"Protein",g,--,--,0.00,0.00
"Total lipid (fat)",g,--,--,0.00,0.00
"Carbohydrate, by difference",g,--,--,0.00,0.00
Minerals
"Potassium, K",mg,--,--,5,455
"Sodium, Na",mg,--,--,0,0
Vitamins
Lipids
Amino Acids
Other
Ingredients
"GREEN TEA, NATURAL FLAVOR, DRAGONFRUIT JUICE SOLIDS, SOY LECITHIN." Date available: 07/14/2017 Date last updated by company: 07/14/2017
