Source: USDA Branded Food Products Database Release December 2017 Software v.3.8.6.4 2017-10-02
Report Run at: December 17, 2017 10:09 EST
"Nutrient data for: 45079283, LIPTON, SWEETENED ICED TEA MIX, LEMON NATURAL FLAVOR, UPC: 041000008450"
Food Group:  Branded Food Products Database
Common Name:

Nutrient,Unit,Data points,Std. Error,"8.0 FL OZ PREPARED) | (MAKES = 18.0g",1Value per 100 g,
Proximates
"Energy",kcal,--,--,70,389
"Protein",g,--,--,0.00,0.00
"Total lipid (fat)",g,--,--,0.00,0.00
"Carbohydrate, by difference",g,--,--,18.00,100.00
"Sugars, total",g,--,--,17.00,94.44
Minerals
"Sodium, Na",mg,--,--,0,0
Vitamins
Lipids
Amino Acids
Other
Ingredients
"CANE SUGAR, CITRIC ACID (PROVIDES TARTNESS), INSTANT TEA POWDER, CARROT JUICE (COLOR), NATURAL FLAVOR." Date available: 07/14/2017 Date last updated by company: 07/14/2017
