Source: USDA Branded Food Products Database Release December 2017 Software v.3.8.6.4 2017-10-02
Report Run at: December 17, 2017 10:20 EST
"Nutrient data for: 45162856, LITE COCONUT MILK, UPC: 021130008490"
Food Group:  Branded Food Products Database
Common Name:

Nutrient,Unit,Data points,Std. Error,"0.333 cup = 79.0g",1Value per 100 g,
Proximates
"Energy",kcal,--,--,45,57
"Protein",g,--,--,0.00,0.00
"Total lipid (fat)",g,--,--,4.50,5.70
"Carbohydrate, by difference",g,--,--,1.00,1.27
"Fiber, total dietary",g,--,--,0.0,0.0
"Sugars, total",g,--,--,0.00,0.00
Minerals
"Calcium, Ca",mg,--,--,0,0
"Iron, Fe",mg,--,--,0.00,0.00
"Potassium, K",mg,--,--,22,28
"Sodium, Na",mg,--,--,10,13
Vitamins
"Vitamin C, total ascorbic acid",mg,--,--,0.0,0.0
"Vitamin A, IU",IU,--,--,0,0
Lipids
"Fatty acids, total saturated",g,--,--,4.503,5.700
"Fatty acids, total trans",g,--,--,0.000,0.000
"Cholesterol",mg,--,--,0,0
Amino Acids
Other
Ingredients
"WATER, COCONUT, STABILIZERS (GUAR GUM, CARBOXYMETHYLCELLULOSE), EMULSIFIER (SUCROSE FATTY ACID ESTERS)." Date available: 08/15/2017 Date last updated by company: 08/15/2017
