Source: USDA Branded Food Products Database Release December 2017 Software v.3.8.6.4 2017-10-02
Report Run at: December 17, 2017 10:28 EST
"Nutrient data for: 45003121, LITE SHREDDED MOZZARELLA CHEESE, UPC: 00990226"
Food Group:  Branded Food Products Database
Common Name:

Nutrient,Unit,Data points,Std. Error,"1 ONZ = 28.0g",1Value per 100 g,
Proximates
"Energy",kcal,--,--,45,161
"Protein",g,--,--,5.00,17.86
"Total lipid (fat)",g,--,--,3.00,10.71
"Carbohydrate, by difference",g,--,--,0.00,0.00
"Fiber, total dietary",g,--,--,0.0,0.0
"Sugars, total",g,--,--,0.00,0.00
Minerals
"Calcium, Ca",mg,--,--,200,714
"Iron, Fe",mg,--,--,0.00,0.00
"Sodium, Na",mg,--,--,190,679
Vitamins
"Vitamin C, total ascorbic acid",mg,--,--,0.0,0.0
"Vitamin A, IU",IU,--,--,357,1275
Lipids
"Fatty acids, total saturated",g,--,--,1.000,3.570
"Fatty acids, total trans",g,--,--,0.000,0.000
"Cholesterol",mg,--,--,10,36
Amino Acids
Other
Ingredients
"PASTEURIZED PART SKIM COW'S MILK, SALT, CHEESE CULTURES, MICROBIAL RENNET, MICROCRYSTALLINE CELLULOSE (TO PREVENT CAKING), NATAMYCIN (MOLD INHIBITOR)." Date available: 09/12/2017 Date last updated by company: 09/12/2017
