Source: USDA Branded Food Products Database Release December 2017 Software v.3.8.6.4 2017-10-02
Report Run at: December 17, 2017 10:28 EST
"Nutrient data for: 45065972, LITE RASPBERRY VINAIGRETTE, UPC: 011110851024"
Food Group:  Branded Food Products Database
Common Name:

Nutrient,Unit,Data points,Std. Error,"2.0 Tbsp = 30.0g",1Value per 100 g,
Proximates
"Energy",kcal,--,--,75,250
"Protein",g,--,--,0.00,0.00
"Total lipid (fat)",g,--,--,6.00,20.00
"Carbohydrate, by difference",g,--,--,6.00,20.00
"Fiber, total dietary",g,--,--,0.0,0.0
"Sugars, total",g,--,--,5.00,16.67
Minerals
"Calcium, Ca",mg,--,--,0,0
"Iron, Fe",mg,--,--,0.00,0.00
"Sodium, Na",mg,--,--,250,833
Vitamins
"Vitamin C, total ascorbic acid",mg,--,--,0.0,0.0
"Vitamin A, IU",IU,--,--,0,0
Lipids
"Fatty acids, total saturated",g,--,--,0.000,0.000
"Fatty acids, total trans",g,--,--,0.000,0.000
"Cholesterol",mg,--,--,0,0
Amino Acids
Other
Ingredients
"WATER, RED WINE VINEGAR, CANOLA OIL, SUGAR, SALT, WHITE WINE VINEGAR, DEHYDRATED GARLIC, MUSTARD SEED, BLACK PEPPER, RASPBERRY JUICE (FROM CONCENTRATE), ONION POWDER, XANTHAN GUM, RASPBERRY FLAVOR, RASPBERRY COLOR (RED 40, POTASSIUM SORBATE, BLUE 1), CITRIC ACID, SPICES, TURMERIC." Date available: 07/14/2017 Date last updated by company: 07/14/2017
