Source: USDA Branded Food Products Database Release December 2017 Software v.3.8.6.4 2017-10-02
Report Run at: December 17, 2017 10:25 EST
"Nutrient data for: 45223158, LITEHOUSE, PEAR GORGONZOLA VINAIGRETTE DRESSING, UPC: 077661123072"
Food Group:  Branded Food Products Database
Common Name:

Nutrient,Unit,Data points,Std. Error,"2.0 Tbsp = 30.0g",1Value per 100 g,
Proximates
"Energy",kcal,--,--,50,167
"Protein",g,--,--,0.00,0.00
"Total lipid (fat)",g,--,--,2.50,8.33
"Carbohydrate, by difference",g,--,--,7.00,23.33
"Fiber, total dietary",g,--,--,0.0,0.0
"Sugars, total",g,--,--,6.00,20.00
Minerals
"Calcium, Ca",mg,--,--,20,67
"Iron, Fe",mg,--,--,0.60,2.00
"Sodium, Na",mg,--,--,240,800
Vitamins
"Vitamin C, total ascorbic acid",mg,--,--,6.0,20.0
"Vitamin A, IU",IU,--,--,0,0
Lipids
"Fatty acids, total saturated",g,--,--,0.399,1.330
"Fatty acids, total monounsaturated",g,--,--,1.500,5.000
"Fatty acids, total polyunsaturated",g,--,--,0.501,1.670
"Fatty acids, total trans",g,--,--,0.000,0.000
"Cholesterol",mg,--,--,0,0
Amino Acids
Other
Ingredients
"WATER, PEAR PUREE, PEAR JUICE CONCENTRATE, CHARDONNAY WINE VINEGAR, CANOLA OIL, BROWN SUGAR, GORGONZOLA CHEESE (MILK, SALT, CULTURE, ENZYMES), SALT, XANTHAN GUM, DRIED CHIVE, CITRIC ACID, SPICE, NATURAL FLAVOR." Date available: 07/14/2017 Date last updated by company: 07/14/2017
