Source: USDA Branded Food Products Database Release December 2017 Software v.3.8.6.4 2017-10-02
Report Run at: December 17, 2017 10:22 EST
"Nutrient data for: 45014746, LITEHOUSE, DIP, CREAM CHEESE, UPC: 077661125038"
Food Group:  Branded Food Products Database
Common Name:

Nutrient,Unit,Data points,Std. Error,"2.0 Tbsp = 33.0g",1Value per 100 g,
Proximates
"Energy",kcal,--,--,90,273
"Protein",g,--,--,1.00,3.03
"Total lipid (fat)",g,--,--,4.50,13.64
"Carbohydrate, by difference",g,--,--,11.00,33.33
"Fiber, total dietary",g,--,--,0.0,0.0
"Sugars, total",g,--,--,10.00,30.30
Minerals
"Calcium, Ca",mg,--,--,20,61
"Iron, Fe",mg,--,--,0.00,0.00
"Sodium, Na",mg,--,--,120,364
Vitamins
"Vitamin C, total ascorbic acid",mg,--,--,0.0,0.0
"Vitamin A, IU",IU,--,--,151,459
Lipids
"Fatty acids, total saturated",g,--,--,2.000,6.060
"Fatty acids, total monounsaturated",g,--,--,1.502,4.550
"Fatty acids, total polyunsaturated",g,--,--,0.000,0.000
"Fatty acids, total trans",g,--,--,0.000,0.000
"Cholesterol",mg,--,--,10,30
Amino Acids
Other
Ingredients
"WATER, SUGAR, NEUFCHATEL CHEESE [PASTEURIZED MILK AND CREAM, CULTURE, SALT, STABILIZERS (CAROB BEAN GUM AND/OR GUAR GUM AND/OR XANTHAN GUM)], CREAM CHEESE POWDER [CREAM CHEESE (CREAM, MILK, SKIM MILK, WHEY, CULTURES, SALT, ENZYMES), WHEY, NATURAL FLAVOR], CANOLA OIL, DISTILLED VINEGAR, MODIFIED CORN STARCH, GLUCONIC ACID, NATURAL FLAVORS, LACTIC ACID, MALTODEXTRIN, CULTURED DEXTROSE, SALT, XANTHAN GUM, CITRIC ACID." Date available: 07/14/2017 Date last updated by company: 07/14/2017
