Source: USDA Branded Food Products Database Release December 2017 Software v.3.8.6.4 2017-10-02
Report Run at: December 17, 2017 10:28 EST
"Nutrient data for: 45279421, LITE REDUCED CALORIE SYRUP, UPC: 07078445863"
Food Group:  Branded Food Products Database
Common Name:

Nutrient,Unit,Data points,Std. Error,"0.25 cup = 60.0g",1Value per 100 g,
Proximates
"Energy",kcal,--,--,100,167
"Protein",g,--,--,0.00,0.00
"Total lipid (fat)",g,--,--,0.00,0.00
"Carbohydrate, by difference",g,--,--,26.00,43.33
"Fiber, total dietary",g,--,--,1.0,1.7
"Sugars, total",g,--,--,24.00,40.00
Minerals
"Calcium, Ca",mg,--,--,0,0
"Iron, Fe",mg,--,--,0.00,0.00
"Sodium, Na",mg,--,--,170,283
Vitamins
"Vitamin C, total ascorbic acid",mg,--,--,0.0,0.0
"Vitamin A, IU",IU,--,--,0,0
Lipids
"Fatty acids, total saturated",g,--,--,0.000,0.000
"Fatty acids, total trans",g,--,--,0.000,0.000
"Cholesterol",mg,--,--,0,0
Amino Acids
Other
Ingredients
"WATER, HIGH FRUCTOSE CORN SYRUP, SUGAR SYRUP, CONTAINS 2% OR LESS OF: CELLULOSE GUM, SALT, NATURAL AND ARTIFICIAL FLAVORS, SORBIC ACID AND SODIUM BENZOATE (PRESERVATIVES), CARAMEL COLOR, SODIUM HEXAMETAPHOSPHATE, CITRIC ACID." Date available: 07/14/2017 Date last updated by company: 07/14/2017
