Source: USDA Branded Food Products Database Release December 2017 Software v.3.8.6.4 2017-10-02
Report Run at: December 17, 2017 10:23 EST
"Nutrient data for: 45222843, LITEHOUSE, DRESSING & DIP, PARMESAN CAESAR, UPC: 077661123027"
Food Group:  Branded Food Products Database
Common Name:

Nutrient,Unit,Data points,Std. Error,"2.0 Tbsp = 30.0g",1Value per 100 g,
Proximates
"Energy",kcal,--,--,100,333
"Protein",g,--,--,1.00,3.33
"Total lipid (fat)",g,--,--,10.00,33.33
"Carbohydrate, by difference",g,--,--,3.00,10.00
"Fiber, total dietary",g,--,--,0.0,0.0
"Sugars, total",g,--,--,1.00,3.33
Minerals
"Calcium, Ca",mg,--,--,40,133
"Iron, Fe",mg,--,--,0.00,0.00
"Sodium, Na",mg,--,--,220,733
Vitamins
"Vitamin C, total ascorbic acid",mg,--,--,2.0,6.7
"Vitamin A, IU",IU,--,--,0,0
Lipids
"Fatty acids, total saturated",g,--,--,0.999,3.330
"Fatty acids, total monounsaturated",g,--,--,5.001,16.670
"Fatty acids, total polyunsaturated",g,--,--,2.499,8.330
"Fatty acids, total trans",g,--,--,0.000,0.000
"Cholesterol",mg,--,--,5,17
Amino Acids
Other
Ingredients
"WATER, CANOLA OIL, PARMESAN CHEESE (SKIM MILK, CULTURE, SALT, ENZYMES), CIDER VINEGAR, SALT, ROMANO CHEESE (MILK, CULTURE SALT, ENZYMES), LEMON JUICE, CONCENTRATE, EGG YOLK, SUGAR, GARLIC, SPICE, WORCESTERSHIRE POWDER (MOLASSES, VINEGAR, CORN SYRUP, SALT, CARAMEL COLOR, GARLIC, SUCROSE, SPICES, TAMARIND, NATURAL FLAVOR, MALTODEXTRIN), CITRIC ACID, XANTHAN GUM, DRIED ONION, ANCHOVY POWDER, (MALTODEXTRIN, ANCHOVY EXTRACT, SALT), CARAMEL COLOR, YEAST EXTRACT (YEAST EXTRACT, NATURAL FLAVOR)." Date available: 07/14/2017 Date last updated by company: 07/14/2017
