Source: USDA Branded Food Products Database Release December 2017 Software v.3.8.6.4 2017-10-02
Report Run at: December 17, 2017 10:33 EST
"Nutrient data for: 45112266, LITTLE DEBBIE, MINI GLAZED DONUTS, UPC: 024300044557"
Food Group:  Branded Food Products Database
Common Name:

Nutrient,Unit,Data points,Std. Error,"4.0 DONUTS = 60.0g",1Value per 100 g,
Proximates
"Energy",kcal,--,--,250,417
"Protein",g,--,--,2.00,3.33
"Total lipid (fat)",g,--,--,11.00,18.33
"Carbohydrate, by difference",g,--,--,35.00,58.33
"Fiber, total dietary",g,--,--,1.0,1.7
"Sugars, total",g,--,--,21.00,35.00
Minerals
"Calcium, Ca",mg,--,--,40,67
"Iron, Fe",mg,--,--,0.99,1.65
"Potassium, K",mg,--,--,60,100
"Sodium, Na",mg,--,--,240,400
Vitamins
"Vitamin C, total ascorbic acid",mg,--,--,0.0,0.0
"Vitamin A, IU",IU,--,--,0,0
Lipids
"Fatty acids, total saturated",g,--,--,6.000,10.000
"Fatty acids, total monounsaturated",g,--,--,3.000,5.000
"Fatty acids, total polyunsaturated",g,--,--,1.500,2.500
"Fatty acids, total trans",g,--,--,0.000,0.000
"Cholesterol",mg,--,--,15,25
Amino Acids
Other
Ingredients
"SUGAR, ENRICHED WHEAT FLOUR (WHEAT FLOUR BARLEY MALT, NIACIN, REDUCED IRON, THIAMIN MONONITRATE [VITAMIN B1], RIBOFLAVIN [VITAMIN B2], FOLIC ACID), WATER, PALM OIL. CONTAINS 2% OR LESS OF EACH OF THE FOLLOWING: NONFAT DRY MILK, EGG YOLKS, SOY FLOUR, WHEAT AND TAPIOCA STARCHES, WHEAT GERM, LEAVENING (BAKING SODA, SODIUM ACID PYROPHOSPHATE, SODIUM ALUMINUM PHOSPHATE), CORN SYRUP SOLIDS, SALT, DEXTROSE, SOYBEAN OIL, SOY LECITHIN, MONO- AND DIGLYCERIDES, GLYCERIN, CELLULOSE AND KARAYA AND GUAR GUMS, CALCIUM CARBONATE, DEXTRIN, AGAR, CORN STARCH, CITRIC ACID, SORBIC ACID AND POTASSIUM SORBATE (TO RETAIN FRESHNESS), NATURAL AND ARTIFICIAL FLAVORS, (CONTAINS LEMON), NUTMEG, MALTODEXTRIN, ARTIFICIAL COLORS, POTATO STARCH." Date available: 07/14/2017 Date last updated by company: 07/14/2017
