Source: USDA Branded Food Products Database Release December 2017 Software v.3.8.6.4 2017-10-02
Report Run at: December 17, 2017 10:40 EST
"Nutrient data for: 45160418, LITTLE TEMPTATIONS, SOUR WATERMELON BELTS, UPC: 611190480949"
Food Group:  Branded Food Products Database
Common Name:

Nutrient,Unit,Data points,Std. Error,"4.0 PIECES = 40.0g",1Value per 100 g,
Proximates
"Energy",kcal,--,--,160,400
"Protein",g,--,--,1.00,2.50
"Total lipid (fat)",g,--,--,1.50,3.75
"Carbohydrate, by difference",g,--,--,32.00,80.00
"Fiber, total dietary",g,--,--,0.0,0.0
"Sugars, total",g,--,--,24.00,60.00
Minerals
"Calcium, Ca",mg,--,--,0,0
"Iron, Fe",mg,--,--,0.00,0.00
"Sodium, Na",mg,--,--,20,50
Vitamins
"Vitamin C, total ascorbic acid",mg,--,--,0.0,0.0
"Vitamin A, IU",IU,--,--,0,0
Lipids
"Fatty acids, total saturated",g,--,--,1.000,2.500
"Fatty acids, total trans",g,--,--,0.000,0.000
"Cholesterol",mg,--,--,0,0
Amino Acids
Other
Ingredients
"SUGAR, CORN SYRUP WHEAT FLOUR, MALIC ACID, VEGETABLE FAT (PALM) ARTIFICIAL FLAVOR, CITRIC ACID, SORBITOL, MODIFIED CORN STARCH, MONO AND DIGLYCERIDES OF VEGETABLE FATTY ACIDS, COLORS (TITANIUM DIOXIDE FD&C RED NO. 40, YELLOW NO.5)" Date available: 07/14/2017 Date last updated by company: 07/14/2017
