Source: USDA Branded Food Products Database Release December 2017 Software v.3.8.6.4 2017-10-02
Report Run at: December 17, 2017 10:35 EST
"Nutrient data for: 45044143, LITTLE DUCK ORGANICS, TINY YOGURTS, RASPBERRY & COCONUT, UPC: 856341003442"
Food Group:  Branded Food Products Database
Common Name:

Nutrient,Unit,Data points,Std. Error,"0.25 cup = 7.0g",1Value per 100 g,
Proximates
"Energy",kcal,--,--,21,300
"Protein",g,--,--,0.00,0.00
"Total lipid (fat)",g,--,--,1.00,14.29
"Carbohydrate, by difference",g,--,--,4.00,57.14
"Fiber, total dietary",g,--,--,1.0,14.3
"Sugars, total",g,--,--,3.00,42.86
Minerals
"Calcium, Ca",mg,--,--,8,114
"Iron, Fe",mg,--,--,0.10,1.43
"Potassium, K",mg,--,--,0,0
"Sodium, Na",mg,--,--,3,43
Vitamins
"Vitamin C, total ascorbic acid",mg,--,--,0.9,12.9
"Vitamin A, IU",IU,--,--,0,0
Lipids
"Fatty acids, total trans",g,--,--,0.000,0.000
Amino Acids
Other
Ingredients
"ORGANIC APPLE PUREE CONCENTRATE, ORGANIC SKIM MILK YOGURT, ORGANIC COCONUT MILK ORGANIC RASPBERRY JUICE CONCENTRATE. NATURAL FLAVORS." Date last updated by company: 12/16/2015
