Source: USDA Branded Food Products Database Release December 2017 Software v.3.8.6.4 2017-10-02
Report Run at: December 17, 2017 10:41 EST
"Nutrient data for: 45216727, LIVE, RAW & ORGANIC KOMBUCHA SODA, PURE DOCTOR, UPC: 890704002222"
Food Group:  Branded Food Products Database
Common Name:

Nutrient,Unit,Data points,Std. Error,"8.0 OZA = 8.0g",1Value per 100 g,
Proximates
"Energy",kcal,--,--,1,17
"Protein",g,--,--,0.00,0.00
"Total lipid (fat)",g,--,--,0.00,0.00
"Carbohydrate, by difference",g,--,--,0.30,3.75
"Sugars, total",g,--,--,0.30,3.75
Minerals
"Sodium, Na",mg,--,--,0,0
Vitamins
Lipids
"Cholesterol",mg,--,--,0,0
Amino Acids
Other
Ingredients
"ORGANIC RAW KOMBUCHA (ORGANIC FAIR TRADE CERTIFIED TEA, ORGANIC FAIR TRADE CERTIFIED EVAPORATED CANE JUICE, AND ORGANIC KOMBUCHA CULTURE FERMENTED IN PURIFIED WATER), NATURAL FLAVORS, ORGANIC STEVIA EXTRACT (NATURAL SWEETENER)" Date available: 09/27/2017 Date last updated by company: 09/27/2017
