Source: USDA Branded Food Products Database Release December 2017 Software v.3.8.6.4 2017-10-02
Report Run at: December 17, 2017 10:43 EST
"Nutrient data for: 45207033, LLOYD'S, SEASONED & SMOKED BABY BACK PORK RIBS, UPC: 078929100415"
Food Group:  Branded Food Products Database
Common Name:

Nutrient,Unit,Data points,Std. Error,"5.0 ONZ = 140.0g",1Value per 100 g,
Proximates
"Energy",kcal,--,--,350,250
"Protein",g,--,--,24.00,17.14
"Total lipid (fat)",g,--,--,21.99,15.71
"Carbohydrate, by difference",g,--,--,13.01,9.29
"Sugars, total",g,--,--,13.01,9.29
Minerals
"Calcium, Ca",mg,--,--,41,29
"Iron, Fe",mg,--,--,2.70,1.93
"Sodium, Na",mg,--,--,540,386
Vitamins
"Vitamin C, total ascorbic acid",mg,--,--,0.0,0.0
"Vitamin A, IU",IU,--,--,99,71
Lipids
"Fatty acids, total saturated",g,--,--,7.994,5.710
"Cholesterol",mg,--,--,95,68
Amino Acids
Other
Ingredients
"COOKED PORK BABYBACK RIBS, TOMATO PUREE (WATER, TOMATO PASTE), MOLASSES, BROWN SUGAR, VINEGAR, CONTAINS 2% OR LESS OF SUGAR, SEASONING RUB (SUGAR, SPICES, SALT, PAPRIKA, DEXTROSE, GARLIC POWDER, COCOA POWDER PROCESSED WITH ALKALI, TAMARIND EXTRACT [CORN SYRUP, PRUNE JUICE CONCENTRATE,EXTRACTIVES OF TAMARIND, WATER, TARTARIC ACID, CARAMEL COLOR, CITRIC ACID, MOLASSES], TOCOPHEROLS, SUNFLOWER OIL, NATURAL FLAVORS), HONEY, MODIFIED CORNSTARCH, SALT, NATURAL SMOKE FLAVORING, SODIUM PHOSPHATES, SODIUM BENZOATE, FLAVORING, CARAMEL COLOR, NISIN PREPARATION (SALT, NISIN)." Date available: 07/14/2017 Date last updated by company: 07/14/2017
