Source: USDA Branded Food Products Database Release December 2017 Software v.3.8.6.4 2017-10-02
Report Run at: December 17, 2017 10:47 EST
"Nutrient data for: 45316597, LOADED QUESORTTO BURRITO, UPC: 079606020286"
Food Group:  Branded Food Products Database
Common Name:

Nutrient,Unit,Data points,Std. Error,"1 BURRITO = 227.0g",1Value per 100 g,
Proximates
"Energy",kcal,--,--,470,207
"Protein",g,--,--,22.00,9.69
"Total lipid (fat)",g,--,--,16.00,7.05
"Carbohydrate, by difference",g,--,--,59.00,25.99
"Fiber, total dietary",g,--,--,0.9,0.4
"Sugars, total",g,--,--,4.99,2.20
Minerals
"Calcium, Ca",mg,--,--,107,47
"Iron, Fe",mg,--,--,3.00,1.32
"Potassium, K",mg,--,--,279,123
"Sodium, Na",mg,--,--,969,427
Vitamins
"Vitamin D",IU,--,--,0,0
Lipids
"Fatty acids, total saturated",g,--,--,7.990,3.520
"Fatty acids, total trans",g,--,--,0.000,0.000
"Cholesterol",mg,--,--,50,22
Amino Acids
Other
Ingredients
"FILLING: SEASONED GRILLED CHIPOTLE CHICKEN (GRILLED SEASONED BREAST MEAT WITH RIB MEAT [WATER, SALT, POTATO STARCH, ONION, GARLIC POWDER, VINEGAR, SPICE], CHIPOTLE SEASONING [GRANULATED HONEY {SUGAR, HONEY}, DRIED CHILES, SALT, PAPRIKA, SPICES, MAY CONTAIN 2% OR LESS OF ONION, GARLIC]), WATER, CHIPOTLE PUREE (WATER, VINEGAR, CHIPOTLE JALAPENO, TOMATO PASTE, SALT, DRIED RED CHILE, SPICES, ONION POWDER, GARLIC POWDER), MODIFIED FOOD STARCH, SOUR CREAM (CULTURE CREAM [CREAM NONFAT MILK, CULTURE, ENZYMES], SALT, LACTIC ACID TOCOPHEROLS, CONTAINS LESS THAN 2% SILICON DIOXIDE, SODIUM CITRATE), DAIRY WHEY, SALT, RED RICE (WATER, LONG GRAIN PARBOILED RICE, BLACK BEANS, DICED TOMATOES (TOMATOES, CALCIUM CHLORIDE, CITRIC ACID), TOMATO PASTE, DEHYDRATED ONION, GARLIC POWDER, SALT, ANNATTO [COLOR], SPICE), CHEESE SAUCE (CHEDDAR CHEESE [PASTEURIZED MILK, CHEESE CULTURES, SALT, ENZYMES], WATER, CHEESE SAUCE MIX (DEHYDRATED BLEND OF WHEY, CHEESE [GRANULAR & CHEDDAR {PASTEURIZED MILK, CHEESE CULTURES, SALT, ENZYMES}], BUTTERMILK SOLIDS, WHEY PROTEIN CONCENTRATE, SALT, CONTAINS LESS THAN 2% OF SODIUM PHOSPHATES, CITRIC ACID, LACTIC ACID), MODIFIED FOOD STARCH, ANNATTO [COLOR]). TORTILLA: ENRICHED BLEACHED WHEAT FLOUR (NIACIN, REDUCED IRON, THIAMINE, MONONITRATE, RIBOFLAVIN, FOLIC ACID), WATER, PALM OIL, SALT, MONOGLYCERIDE, DIGLYCERIDE, BAKING POWDER (CORN STARCH, SODIUM ACID PYROPHOSPHATES, SODIUM BICARBONATE, MONOCALCIUM PHOSPHATE), ENZYMES." Date available: 09/25/2017 Date last updated by company: 09/25/2017
