Source: USDA Branded Food Products Database Release December 2017 Software v.3.8.6.4 2017-10-02
Report Run at: December 17, 2017 10:46 EST
"Nutrient data for: 45230091, LOADED 5-LAYER BURRITO, UPC: 079606020415"
Food Group:  Branded Food Products Database
Common Name:

Nutrient,Unit,Data points,Std. Error,"1 BURRITO = 227.0g",1Value per 100 g,
Proximates
"Energy",kcal,--,--,499,220
"Protein",g,--,--,23.00,10.13
"Total lipid (fat)",g,--,--,17.00,7.49
"Carbohydrate, by difference",g,--,--,61.99,27.31
"Fiber, total dietary",g,--,--,2.0,0.9
"Sugars, total",g,--,--,4.00,1.76
Minerals
"Calcium, Ca",mg,--,--,95,42
"Iron, Fe",mg,--,--,4.00,1.76
"Potassium, K",mg,--,--,350,154
"Sodium, Na",mg,--,--,981,432
Vitamins
"Vitamin D",IU,--,--,0,0
Lipids
"Fatty acids, total saturated",g,--,--,8.989,3.960
"Fatty acids, total trans",g,--,--,0.000,0.000
"Cholesterol",mg,--,--,50,22
Amino Acids
Other
Ingredients
"FILLING: SEASONED GRILLED CHIPOTLE CHICKEN (GRILLED SEASONED BREAST MEAT WITH RIB MEAT [WATER, SALT, POTATO STARCH, ONION, GARLIC POWDER, VINEGAR, SPICE], CHIPOTLE SEASONING [GRANULATED HONEY {SUGAR, HONEY}, DRIED CHILES, SALT, PAPRIKA, SPICES, MAY CONTAIN 2% OR LESS OF ONION, GARLIC]), MONTEREY JACK CHEESE (PASTEURIZED MILK, CHEESE CULTURES, SALT, ENZYMES), FIRE ROASTED YELLOW CORN, BLACK BEAN, WATER, DICE TOMATOES (TOMATOES, CALCIUM CHLORIDE, CITRIC ACID), ROASTED RED ONION, ANAHEIM PEPPERS, CILANTRO, CONCENTRATE LIME JUICE, TOMATO PASTE, GARLIC POWDER, ONION POWDER, SALT, SPICES, MODIFIED FOOD STARCH, PAPRIKA, RED PEPPER. CHEESE SAUCE (CHEDDAR CHEESE [PASTEURIZED MILK, CHEESE CULTURES, SALT, ENZYMES], WATER, CHEESE SAUCE MIX (DEHYDRATED BLEND OF WHEY, CHEESE [GRANULAR & CHEDDAR {PASTEURIZED MILK, CHEESE CULTURES, SALT, ENZYMES}, BUTTERMILK SOLIDS, WHEY PROTEIN CONCENTRATE, SALT, CONTAINS LESS THAN 2% OF SODIUM PHOSPHATES, CITRIC ACID, LACTIC ACID), MODIFIED FOOD STARCH, ANNATTO [COLOR]). RED RICE (WATER, LONG GRAIN PARBOILED RICE, BLACK BEANS, DICED TOMATOES [TOMATOES, CALCIUM CHLORIDE, CITRIC ACID], TOMATO PASTE, DEHYDRATED ONION, GARLIC POWDER, SALT, ANNATTO [COLOR], SPICE). TORTILLA: ENRICHED BLEACHED WHEAT FLOUR (NIACIN, REDUCED IRON, THIAMINE, MONONITRATE, RIBOFLAVIN AND FOLIC ACID), WATER, PALM SHORTENING, SALT, MONO & DIGLYCERIDES, BAKING POWDER (CORN STARCH, SODIUM ACID PYROPHOSPHATE, SODIUM BICARBONATE AND MONOCALCIUM PHOSPHATE), ENZYMES." Date available: 09/25/2017 Date last updated by company: 09/25/2017
