Source: USDA Branded Food Products Database Release December 2017 Software v.3.8.6.4 2017-10-02
Report Run at: December 17, 2017 10:47 EST
"Nutrient data for: 45331570, LOADED POTATO DIP MIX, UPC: 078742240206"
Food Group:  Branded Food Products Database
Common Name:

Nutrient,Unit,Data points,Std. Error,"2.0 TBSP. DIP) | MIX, (SEASONS = 1.2g",1Value per 100 g,
Proximates
"Energy",kcal,--,--,5,417
"Protein",g,--,--,0.00,0.00
"Total lipid (fat)",g,--,--,0.00,0.00
"Carbohydrate, by difference",g,--,--,1.00,83.33
Minerals
"Sodium, Na",mg,--,--,140,11667
Vitamins
Lipids
Amino Acids
Other
Ingredients
"SALT, CORN MALTODEXTRIN, GARLIC, ONION, CHEDDAR CHEESE (MILK, CHEESE CULTURES, SALT, ENZYMES), SPICES (INCLUDING PAPRIKA), SUGAR, YEAST EXTRACT, SOUR CREAM (CREAM, NONFAT MILK, CULTURES), WHEY, NATURAL FLAVOR (INCLUDING HICKORY SMOKE), CULTURED NONFAT MILK, RENDERED BACON FAT, BACON (CURED WITH WATER, SALT, SODIUM ERYTHORBATE, SODIUM NITRITE)." Date available: 10/13/2017 Date last updated by company: 10/13/2017
