Source: USDA Branded Food Products Database Release December 2017 Software v.3.8.6.4 2017-10-02
Report Run at: December 17, 2017 10:48 EST
"Nutrient data for: 45209132, LOAF CAKE, UPC: 605388128133"
Food Group:  Branded Food Products Database
Common Name:

Nutrient,Unit,Data points,Std. Error,"1 LOAF = 85.0g",1Value per 100 g,
Proximates
"Energy",kcal,--,--,340,400
"Protein",g,--,--,3.00,3.53
"Total lipid (fat)",g,--,--,16.00,18.82
"Carbohydrate, by difference",g,--,--,46.00,54.12
"Fiber, total dietary",g,--,--,0.0,0.0
"Sugars, total",g,--,--,26.00,30.59
Minerals
"Calcium, Ca",mg,--,--,20,24
"Iron, Fe",mg,--,--,1.02,1.20
"Sodium, Na",mg,--,--,260,306
Vitamins
"Vitamin C, total ascorbic acid",mg,--,--,0.0,0.0
"Vitamin A, IU",IU,--,--,94,111
Lipids
"Fatty acids, total saturated",g,--,--,3.001,3.530
"Fatty acids, total trans",g,--,--,0.000,0.000
"Cholesterol",mg,--,--,40,47
Amino Acids
Other
Ingredients
"SUGAR, ENRICHED BLEACHED FLOUR (WHEAT FLOUR, NIACIN, IRON, THIAMINE MONONITRATE, RIBOFLAVIN, FOLIC ACID), WATER, SOYBEAN OIL, EGGS, LEMON PEEL, CONTAINS 2% LESS OF: MARGARINE (PALM OIL, WATER, SALT, MONO AND DIGLYCERIDES, SOY LECITHIN, SODIUM BENZOATE [PRESERVATIVE], ARTIFICIAL FLAVOR, BETA-CAROTENE FOR COLOR AND VITAMIN A PALMITATE), BLEACHED WHEAT FLOUR, FOOD STARCH-MODIFIED, LEMON OIL, INVERT SUGAR, GLYCERIN, BAKING SODA, SODIUM ALUMINUM PHOSPHATE, MONO-AND DIGLYCERIDES, PROPYLENE GLYCOL MONOESTERS OF FATS AND FATTY ACIDS, SODIUM STEAROYL LACTYLATE, POLYSORBATE 60, WHEY, NONFAT DRY MILK, WHEAT GLUTEN, SALT, SOY FLOUR, PRESERVATIVES (SODIUM PROPINATE, POTASSIUM SORBATE AND SORBIC ACID), NATURAL AND ARTIFICIAL FLAVOR, XANTHAN GUM, GUAR GUM, FD&C YELLOW #5, TURMERIC FOR COLOR." Date available: 10/10/2017 Date last updated by company: 10/10/2017
