Source: USDA Branded Food Products Database Release December 2017 Software v.3.8.6.4 2017-10-02
Report Run at: December 17, 2017 10:48 EST
"Nutrient data for: 45264439, LOAF CAKE, UPC: 011110260215"
Food Group:  Branded Food Products Database
Common Name:

Nutrient,Unit,Data points,Std. Error,"0.2 LOAF, ABOUT 1 1/2"""" SLICE = 76.0g",1Value per 100 g,
Proximates
"Energy",kcal,--,--,280,368
"Protein",g,--,--,4.00,5.26
"Total lipid (fat)",g,--,--,14.00,18.42
"Carbohydrate, by difference",g,--,--,36.00,47.37
"Fiber, total dietary",g,--,--,1.0,1.3
"Sugars, total",g,--,--,20.00,26.32
Minerals
"Calcium, Ca",mg,--,--,20,26
"Iron, Fe",mg,--,--,0.76,1.00
"Sodium, Na",mg,--,--,260,342
Vitamins
"Vitamin C, total ascorbic acid",mg,--,--,0.0,0.0
"Vitamin A, IU",IU,--,--,106,139
Lipids
"Fatty acids, total saturated",g,--,--,2.500,3.290
"Fatty acids, total trans",g,--,--,0.000,0.000
"Cholesterol",mg,--,--,55,72
Amino Acids
Other
Ingredients
"SUGAR, BLEACHED ENRICHED FLOUR (WHEAT FLOUR, BARLEY MALT, NIACIN, REDUCED IRON, THIAMINE MONONITRATE, RIBOFLAVIN, FOLIC ACID), EGGS, SOYBEAN OIL, WATER, MODIFIED CORN STARCH, MOLASSES. CONTAINS 2% OR LESS OF: GINGER, SPICE, WHEY, LEAVENING (SODIUM ALUMINUM PHOSPHATE, BAKING SODA), VITAL WHEAT GLUTEN, SALT, EMULSIFIERS (PROPYLENE GLYCOL MONO- AND DIESTERS OF FATTY ACIDS, MONO- AND DIGLYCERIDES, SODIUM STEAROYL LACTYLATE), ARTIFICIAL FLAVOR, SOY FLOUR." Date available: 07/14/2017 Date last updated by company: 07/14/2017
