Source: USDA Branded Food Products Database Release December 2017 Software v.3.8.6.4 2017-10-02
Report Run at: December 17, 2017 10:52 EST
"Nutrient data for: 45159540, LOC MARIA, CREPES BELGIAN CHOCOLATE BISCUITS, UPC: 876012009603"
Food Group:  Branded Food Products Database
Common Name:

Nutrient,Unit,Data points,Std. Error,"6.0 COOKIES = 30.0g",1Value per 100 g,
Proximates
"Energy",kcal,--,--,150,500
"Protein",g,--,--,2.00,6.67
"Total lipid (fat)",g,--,--,6.00,20.00
"Carbohydrate, by difference",g,--,--,20.00,66.67
"Fiber, total dietary",g,--,--,1.0,3.3
"Sugars, total",g,--,--,15.00,50.00
Minerals
"Calcium, Ca",mg,--,--,20,67
"Iron, Fe",mg,--,--,1.80,6.00
"Sodium, Na",mg,--,--,70,233
Vitamins
"Vitamin C, total ascorbic acid",mg,--,--,0.0,0.0
"Vitamin A, IU",IU,--,--,166,555
Lipids
"Fatty acids, total saturated",g,--,--,3.999,13.330
"Fatty acids, total trans",g,--,--,0.000,0.000
"Cholesterol",mg,--,--,5,17
Amino Acids
Other
Ingredients
"MILK CHOCOLATE (SUGAR, COCOA BUTTER, MILK, UNSWEETENED CHOCOLATE, LACTOSE, SOY LECITHIN AS AN EMULSIFIER, VANILLA FLAVOR), ENRICHED WHEAT FLOUR (WHEAT FLOUR, THIAMINE MONONITRATE, IRON SULPHATE, FOLIC ACID, RIBOFLAVIN, NIACIN), SUGAR, BUTTER, LACTOSE, MILK PROTEIN, SALT, BARLEY MALT EXTRACT, BAKING SODA, MALTODEXTRIN." Date available: 07/14/2017 Date last updated by company: 07/14/2017
