Source: USDA Branded Food Products Database Release December 2017 Software v.3.8.6.4 2017-10-02
Report Run at: December 17, 2017 10:52 EST
"Nutrient data for: 45181386, LOCHMEAD FARMS, SHERBET, PEACH WITH BLUEBERRY SWIRL, UPC: 018673663040"
Food Group:  Branded Food Products Database
Common Name:

Nutrient,Unit,Data points,Std. Error,"0.5 cup = 76.0g",1Value per 100 g,
Proximates
"Energy",kcal,--,--,110,145
"Protein",g,--,--,1.00,1.32
"Total lipid (fat)",g,--,--,1.00,1.32
"Carbohydrate, by difference",g,--,--,24.00,31.58
"Fiber, total dietary",g,--,--,0.0,0.0
"Sugars, total",g,--,--,18.00,23.68
Minerals
"Calcium, Ca",mg,--,--,20,26
"Iron, Fe",mg,--,--,0.00,0.00
"Sodium, Na",mg,--,--,20,26
Vitamins
"Vitamin C, total ascorbic acid",mg,--,--,0.0,0.0
"Vitamin A, IU",IU,--,--,0,0
Lipids
"Fatty acids, total saturated",g,--,--,1.003,1.320
"Fatty acids, total trans",g,--,--,0.000,0.000
"Cholesterol",mg,--,--,5,7
Amino Acids
Other
Ingredients
"MILK, SUGAR, CORN SYRUP SOLIDS, BLUEBERRY SWIRL (SUGAR, WATER, BLUEBERRIES, ORGANIC RICE STARCH, NATURAL FLAVOR, CITRIC ACID, GUAR GUM), PEACH SHERBET BASE (NATURAL FLAVOR, FRUIT & VEGETABLE JUICE COLOR, ANNATTO EXTRACT TURMERIC EXTRACT), CREAM, STABILIZER (GUAR GUM, XANTHAN GUM, CAROB BEAN GUM)" Date available: 07/14/2017 Date last updated by company: 07/14/2017
