Source: USDA Branded Food Products Database Release December 2017 Software v.3.8.6.4 2017-10-02
Report Run at: December 17, 2017 10:56 EST
"Nutrient data for: 45160797, LOFTHOUSE, MINI FROSTED SUGAR COOKIES, UPC: 708971927813"
Food Group:  Branded Food Products Database
Common Name:

Nutrient,Unit,Data points,Std. Error,"2.0 COOKIES = 30.0g",1Value per 100 g,
Proximates
"Energy",kcal,--,--,130,433
"Protein",g,--,--,1.00,3.33
"Total lipid (fat)",g,--,--,4.00,13.33
"Carbohydrate, by difference",g,--,--,21.00,70.00
"Fiber, total dietary",g,--,--,0.0,0.0
"Sugars, total",g,--,--,13.00,43.33
Minerals
"Calcium, Ca",mg,--,--,0,0
"Iron, Fe",mg,--,--,0.60,2.00
"Sodium, Na",mg,--,--,90,300
Vitamins
"Vitamin C, total ascorbic acid",mg,--,--,0.0,0.0
"Vitamin A, IU",IU,--,--,334,1112
Lipids
"Fatty acids, total saturated",g,--,--,2.001,6.670
"Fatty acids, total trans",g,--,--,0.000,0.000
"Cholesterol",mg,--,--,5,17
Amino Acids
Other
Ingredients
"SUGAR, ENRICHED BLEACHED WHEAT FLOUR (FLOUR, NIACIN, REDUCED IRON, THIAMINE MONONITRATE, RIBOFLAVIN, FOLIC ACID), MARGARINE (PALM OIL, WATER, SOYBEAN OIL, SALT, CONTAINS 2% OR LESS OF: MONO- & DIGLYCERIDES, CALCIUM DISODIUM EDTA [PRESERVATIVE], ARTIFICIAL FLAVOR, ANNATTO [COLOR], VITAMIN A PALMITATE), WATER, CONTAINS 2% OR LESS OF: CORN STARCH, VEGETABLE OIL (PALM KERNEL OIL AND/OR PALM OIL AND/OR PARTIALLY HYDROGENATED VEGETABLE OIL [COTTONSEED AND/OR SOYBEAN OIL), EGGS, LEAVENING (BAKING SODA, SODIUM ACID PYROPHOSPHATE MONOCALCIUM PHOSPHATE, CALCIUM SULFATE), NATURAL & ARTIFICIAL FLAVORS, CORN SYRUP, DEXTRIN, COCOA PROCESSED WITH ALKALI, SOYBEAN OIL, SOY LECITHIN (EMULSIFIER), CONFECTIONERS GLAZE (LAC RESIN), SKIM MILK, POLYSORBATE 60, CARNAUBA WAX, COLORS (BLUE 1, BLUE 1 LAKE, BLUE 2, BLUE 2 LAKE, RED 3, RED 40, RED 40 LAKE, YELLOW 5, YELLOW 5 LAKE, YELLOW 6, YELLOW 6 LAKE), CORN SYRUP SOLIDS, NONFAT MILK, SODIUM CASEINATE, MILK PROTEIN CONCENTRATE, SALT FOOD STARCH - MODIFIED, MONO & DIGLYCERIDES." Date available: 07/14/2017 Date last updated by company: 07/14/2017
