Source: USDA Branded Food Products Database Release December 2017 Software v.3.8.6.4 2017-10-02
Report Run at: December 17, 2017 10:55 EST
"Nutrient data for: 45050527, LOFTHOUSE, DELICIOUS COOKIES, GINGERBREAD BOY, UPC: 708971911553"
Food Group:  Branded Food Products Database
Common Name:

Nutrient,Unit,Data points,Std. Error,"28.0 g = 28.0g",1Value per 100 g,
Proximates
"Energy",kcal,--,--,130,464
"Total lipid (fat)",g,--,--,4.50,16.07
Minerals
Vitamins
Lipids
"Fatty acids, total saturated",g,--,--,2.50,8.93
"Fatty acids, total trans",g,--,--,0.00,0.00
Amino Acids
Other
Ingredients
"ENRICHED BLEACHED WHEAT FLOUR (FLOUR, NIACIN, REDUCED IRON, THIAMINE MONONITRATE, RIBOFLAVIN, FOLIC ACID), SUGAR, BUTTER (CREAM, SALT, ANNATTO [COLOR]), MOLASSES, CONTAINS 2% OR LESS OF: WHOLE WHEAT FLOUR, SPICE, BAKING SODA, SOY LECITHIN (EMULSIFIER), WHEY, EGGS, CORN SYRUP, SALT." Date last updated by company: 12/23/2015
