Source: USDA Branded Food Products Database Release December 2017 Software v.3.8.6.4 2017-10-02
Report Run at: December 17, 2017 10:57 EST
"Nutrient data for: 45047420, LOIN CHOPS, UPC: 213009305353"
Food Group:  Branded Food Products Database
Common Name:

Nutrient,Unit,Data points,Std. Error,"4.0 ONZ = 112.0g",1Value per 100 g,
Proximates
"Energy",kcal,--,--,190,170
"Protein",g,--,--,20.00,17.86
"Total lipid (fat)",g,--,--,12.00,10.71
"Carbohydrate, by difference",g,--,--,0.00,0.00
Minerals
"Iron, Fe",mg,--,--,0.55,0.49
"Sodium, Na",mg,--,--,280,250
Vitamins
Lipids
"Fatty acids, total saturated",g,--,--,3.998,3.570
"Cholesterol",mg,--,--,65,58
Amino Acids
Other
Ingredients
"WATER, POTASSIUM LACTATE, SODIUM PHOSPHATE, SALT, SODIUM DIACETATE." Date available: 06/24/2017 Date last updated by company: 06/24/2017
