Source: USDA Branded Food Products Database Release December 2017 Software v.3.8.6.4 2017-10-02
Report Run at: December 17, 2017 10:58 EST
"Nutrient data for: 45283269, LOLLIPOP RINGS, UPC: 038252450106"
Food Group:  Branded Food Products Database
Common Name:

Nutrient,Unit,Data points,Std. Error,"1 POP = 12.0g",1Value per 100 g,
Proximates
"Energy",kcal,--,--,50,417
"Protein",g,--,--,0.00,0.00
"Total lipid (fat)",g,--,--,0.00,0.00
"Carbohydrate, by difference",g,--,--,12.00,100.00
"Fiber, total dietary",g,--,--,0.0,0.0
"Sugars, total",g,--,--,10.00,83.33
Minerals
"Calcium, Ca",mg,--,--,0,0
"Iron, Fe",mg,--,--,0.00,0.00
"Sodium, Na",mg,--,--,0,0
Vitamins
"Vitamin C, total ascorbic acid",mg,--,--,0.0,0.0
"Vitamin A, IU",IU,--,--,0,0
Lipids
"Fatty acids, total saturated",g,--,--,0.000,0.000
"Fatty acids, total trans",g,--,--,0.000,0.000
"Cholesterol",mg,--,--,0,0
Amino Acids
Other
Ingredients
"WATERMELON INGREDIENTS: SUGAR, GLUCOSE SYRUP, WATER, ARTIFICIAL FLAVOR, LACTIC ACID, CITRIC ACID, MALIC ACID, SODIUM CITRATE, ARTIFICIAL COLOR (FD&C RED 40), BLUE RASPBERRY INGREDIENTS: SUGAR, GLUCOSE SYRUP, WATER, ARTIFICIAL FLAVOR, CITRIC ACID, MALIC ACID, SODIUM CITRATE, ARTIFICIAL COLOR (FD&C BLUE 1), GREEN APPLE INGREDIENTS: SUGAR, GLUCOSE SYRUP, WATER, ARTIFICIAL FLAVOR, CITRIC ACID, MALIC ACID, SODIUM CITRATE, ARTIFICIAL COLORS (FD&C YELLOW 5, FD&C BLUE 1)" Date available: 07/14/2017 Date last updated by company: 07/14/2017
