Source: USDA Branded Food Products Database Release December 2017 Software v.3.8.6.4 2017-10-02
Report Run at: December 17, 2017 11:11 EST
"Nutrient data for: 45264415, LONG POTATO ROLLS, UPC: 071010310113"
Food Group:  Branded Food Products Database
Common Name:

Nutrient,Unit,Data points,Std. Error,"1 ROLL = 53.0g",1Value per 100 g,
Proximates
"Energy",kcal,--,--,140,264
"Protein",g,--,--,4.00,7.55
"Total lipid (fat)",g,--,--,1.50,2.83
"Carbohydrate, by difference",g,--,--,27.00,50.94
"Fiber, total dietary",g,--,--,1.0,1.9
"Sugars, total",g,--,--,4.00,7.55
Minerals
"Calcium, Ca",mg,--,--,0,0
"Iron, Fe",mg,--,--,1.36,2.56
"Potassium, K",mg,--,--,70,132
"Sodium, Na",mg,--,--,250,472
Vitamins
"Vitamin C, total ascorbic acid",mg,--,--,0.0,0.0
"Thiamin",mg,--,--,0.000,0.000
"Riboflavin",mg,--,--,0.136,0.257
"Niacin",mg,--,--,1.886,3.558
"Vitamin A, IU",IU,--,--,0,0
Lipids
"Fatty acids, total saturated",g,--,--,0.000,0.000
"Fatty acids, total monounsaturated",g,--,--,0.000,0.000
"Fatty acids, total polyunsaturated",g,--,--,1.002,1.890
"Fatty acids, total trans",g,--,--,0.000,0.000
"Cholesterol",mg,--,--,0,0
Amino Acids
Other
Ingredients
"ENRICHED FLOUR (WHEAT FLOUR, MALTED BARLEY FLOUR, NIACIN, REDUCED IRON, THIAMIN MONONITRATE, RIBOFLAVIN, FOLIC ACID), WATER, SUGAR, DEHYDRATED POTATOES, YEAST, CONTAINS 2% OR LESS OF EACH OF THE FOLLOWING: SOYBEAN OIL, WHEAT GLUTEN, SALT, CULTURED WHEAT FLOUR, GUAR GUM, WHEAT FLOUR, VINEGAR, ASCORBIC ACID (DOUGH CONDITIONER), ENZYMES." Date available: 07/14/2017 Date last updated by company: 07/14/2017
