Source: USDA Branded Food Products Database Release December 2017 Software v.3.8.6.4 2017-10-02
Report Run at: December 17, 2017 11:08 EST
"Nutrient data for: 45162510, LONG GROVE CONFECTIONERY CO, PASTEL MINT NONPAREILS, UPC: 008725050133"
Food Group:  Branded Food Products Database
Common Name:

Nutrient,Unit,Data points,Std. Error,"12.0 PC = 40.0g",1Value per 100 g,
Proximates
"Energy",kcal,--,--,200,500
"Protein",g,--,--,2.00,5.00
"Total lipid (fat)",g,--,--,10.00,25.00
"Carbohydrate, by difference",g,--,--,27.00,67.50
"Fiber, total dietary",g,--,--,0.0,0.0
"Sugars, total",g,--,--,21.00,52.50
Minerals
"Calcium, Ca",mg,--,--,60,150
"Iron, Fe",mg,--,--,0.00,0.00
"Sodium, Na",mg,--,--,35,88
Vitamins
"Vitamin C, total ascorbic acid",mg,--,--,0.0,0.0
"Vitamin A, IU",IU,--,--,0,0
Lipids
"Fatty acids, total saturated",g,--,--,9.000,22.500
"Fatty acids, total trans",g,--,--,0.000,0.000
"Cholesterol",mg,--,--,0,0
Amino Acids
Other
Ingredients
"CONFECTIONERY COATING (SUGAR, VEGETABLE OIL [PALM KERNEL, HYDROGENATED PALM AND PALM KERNEL], WHEY POWDER, NONFAT DRY MILK,M WHOLE MILK SOLIDS, SORBITAN MONOSTEARATE, POLYSORBATE 60, SOY LECITHIN [EMULSIFIER], VANILLIN [ARTIFICIAL FLAVORING], SALT), NONPAREILS (SUGAR, CORNSTARCH, CONFECTIONER'S GLAZE, CARNAUBA WAX), ARTIFICIAL COLORING (RED 40 LAKE, YELLOW 5 LAKE, BLUE 1 LAKE), NATURAL FLAVOR." Date available: 07/14/2017 Date last updated by company: 07/14/2017
