Source: USDA Branded Food Products Database Release December 2017 Software v.3.8.6.4 2017-10-02
Report Run at: December 17, 2017 11:05 EST
"Nutrient data for: 45107679, LONG GRAIN WHITE RICE IN A CREAMY BLEND OF PARMESAN, GARLIC AND HERBS, UPC: 071429012479"
Food Group:  Branded Food Products Database
Common Name:

Nutrient,Unit,Data points,Std. Error,"1 CUP PREPARED) | DRY MIX, ( = 64.0g",1Value per 100 g,
Proximates
"Energy",kcal,--,--,250,391
"Protein",g,--,--,7.00,10.94
"Total lipid (fat)",g,--,--,4.00,6.25
"Carbohydrate, by difference",g,--,--,45.00,70.31
"Fiber, total dietary",g,--,--,1.0,1.6
"Sugars, total",g,--,--,6.00,9.38
Minerals
"Calcium, Ca",mg,--,--,100,156
"Iron, Fe",mg,--,--,1.27,1.98
"Sodium, Na",mg,--,--,530,828
Vitamins
"Vitamin C, total ascorbic acid",mg,--,--,0.0,0.0
"Vitamin A, IU",IU,--,--,0,0
Lipids
"Fatty acids, total saturated",g,--,--,1.997,3.120
"Fatty acids, total trans",g,--,--,0.000,0.000
"Cholesterol",mg,--,--,10,16
Amino Acids
Other
Ingredients
"ENRICHED LONG GRAIN PARBOILED RICE (RICE, IRON, NIACIN, THIAMINE MONONITRATE, FOLIC ACID), BUTTERMILK, WHEY, CORN STARCH, PARMESAN CHEESE (PART SKIM MILK, CHEESE CULTURES, SALT, ENZYMES), PALM OIL, CREAM CHEESE (PASTEURIZED MILK & CREAM, CHEESE CULTURES, SALT, CAROB BEAN GUM), GARLIC, SALT, LACTOSE, NONFAT DRY MILK, PARMESAN CHEESE (CULTURED PART-SKIM COW'S MILK, SALT, ENZYMES), ROMANO CHEESE (PART-SKIM COW'S MILK, CHEESE CULTURES, SALT, ENZYMES), ONION, YEAST EXTRACT, SPICES AND HERBS (INCLUDING PARSLEY, CHILI PEPPER, TURMERIC), TAMARI SOY SAUCE (SOYBEAN, SALT), NATURAL FLAVOR, SODIUM CASEINATE, SUGAR & EXTRACTIVES OF ANNATTO." Date available: 07/14/2017 Date last updated by company: 07/14/2017
