Source: USDA Branded Food Products Database Release December 2017 Software v.3.8.6.4 2017-10-02
Report Run at: December 17, 2017 11:10 EST
"Nutrient data for: 45265947, LONG LASTING CHEWS, UPC: 041420053030"
Food Group:  Branded Food Products Database
Common Name:

Nutrient,Unit,Data points,Std. Error,"9.0 PIECES = 39.0g",1Value per 100 g,
Proximates
"Energy",kcal,--,--,150,385
"Protein",g,--,--,0.00,0.00
"Total lipid (fat)",g,--,--,1.00,2.56
"Carbohydrate, by difference",g,--,--,34.00,87.18
"Fiber, total dietary",g,--,--,0.0,0.0
"Sugars, total",g,--,--,23.00,58.97
Minerals
"Calcium, Ca",mg,--,--,0,0
"Iron, Fe",mg,--,--,0.00,0.00
"Sodium, Na",mg,--,--,45,115
Vitamins
"Vitamin C, total ascorbic acid",mg,--,--,0.0,0.0
"Vitamin A, IU",IU,--,--,0,0
Lipids
"Fatty acids, total saturated",g,--,--,0.000,0.000
"Fatty acids, total trans",g,--,--,0.000,0.000
"Cholesterol",mg,--,--,0,0
Amino Acids
Other
Ingredients
"CORN SYRUP, SUGAR, PARTIALLY HYDROGENATED SOYBEAN OIL, CITRIC ACID, SALT, SOY LECITHIN (EMULSIFIER), ARTIFICIAL FLAVORS, RED 40, YELLOW 5, BLUE 1, BLUE 2." Date available: 07/14/2017 Date last updated by company: 07/14/2017
