Source: USDA Branded Food Products Database Release December 2017 Software v.3.8.6.4 2017-10-02
Report Run at: December 17, 2017 11:10 EST
"Nutrient data for: 45199462, LONG LASTING ENERGY BAR, UPC: 097421178975"
Food Group:  Branded Food Products Database
Common Name:

Nutrient,Unit,Data points,Std. Error,"1 BAR = 50.0g",1Value per 100 g,
Proximates
"Energy",kcal,--,--,180,360
"Protein",g,--,--,12.00,24.00
"Total lipid (fat)",g,--,--,7.00,14.00
"Carbohydrate, by difference",g,--,--,24.00,48.00
"Fiber, total dietary",g,--,--,3.0,6.0
"Sugars, total",g,--,--,14.00,28.00
Minerals
"Calcium, Ca",mg,--,--,50,100
"Iron, Fe",mg,--,--,0.72,1.44
"Potassium, K",mg,--,--,80,160
"Sodium, Na",mg,--,--,200,400
Vitamins
"Vitamin C, total ascorbic acid",mg,--,--,0.0,0.0
"Vitamin A, IU",IU,--,--,0,0
Lipids
"Fatty acids, total saturated",g,--,--,3.500,7.000
"Fatty acids, total trans",g,--,--,0.000,0.000
"Cholesterol",mg,--,--,5,10
Amino Acids
Other
Ingredients
"COATING (SUGAR, FRACTIONATED PALM KERNEL OIL, WHEY, NONFAT MILK, CULTURED WHEY, SOY LECITHIN, NATURAL FLAVOR), CARAMEL FILLING (CORN SYRUP, SUGAR, CREAM, FRUCTOSE, PALM OIL, SALT, NATURAL FLAVOR), OLIGOFRUCTOSE (FROM CHICORY ROOT), SOY PROTEIN ISOLATE, ALMONDS, MALTITOL SYRUP, CANE INVERT SYRUP, SOY CRISPS (SOY PROTEIN ISOLATE, TAPIOCA STARCH, SALT), PEANUTS, WHEY PROTEIN ISOLATE, CALCIUM CASEINATE, FRUCTOSE SYRUP, WHOLE OATS (CONTAINS WHEAT), AND LESS THAN 2% OF: NONFAT MILK, HIGH OLEIC CANOLA OIL, SOY LECITHIN, WATER, SALT, NATURAL FLAVOR." Date available: 07/14/2017 Date last updated by company: 07/14/2017
