Source: USDA Branded Food Products Database Release December 2017 Software v.3.8.6.4 2017-10-02
Report Run at: December 17, 2017 11:10 EST
"Nutrient data for: 45319162, LONG LASTING FLAVOR SUGARFREE GUM, UPC: 02283801"
Food Group:  Branded Food Products Database
Common Name:

Nutrient,Unit,Data points,Std. Error,"1 STICK = 2.7g",1Value per 100 g,
Proximates
"Energy",kcal,--,--,5,185
"Protein",g,--,--,0.00,0.00
"Total lipid (fat)",g,--,--,0.00,0.00
"Carbohydrate, by difference",g,--,--,2.00,74.07
"Sugars, total",g,--,--,0.00,0.00
Minerals
"Sodium, Na",mg,--,--,0,0
Vitamins
Lipids
Amino Acids
Other
Ingredients
"SORBITOL, GUM BASE, GLYCEROL, HYDROGENATED STARCH HYDROLYSATE; LESS THAN 2% OF: NATURAL AND ARTIFICIAL FLAVORS, MALIC ACID, MANNITOL, ASPARTAME, ASPARTAME-ACESULFAME, CITRIC ACID, ACESULFAME K, HYDROXYLATED SOY LECITHIN COLORS (RED 40 LAKE, RED 40), SOY LECITHIN BHT (TO MAINTAIN FRESHNESS)." Date available: 07/14/2017 Date last updated by company: 07/14/2017
