Source: USDA Branded Food Products Database Release December 2017 Software v.3.8.6.4 2017-10-02
Report Run at: December 17, 2017 11:11 EST
"Nutrient data for: 45154122, LOOKA PATISSERIE, MACARON CHOCOLATE COOKIE, UPC: 831193006322"
Food Group:  Branded Food Products Database
Common Name:

Nutrient,Unit,Data points,Std. Error,"1.34 ONZ = 38.0g",1Value per 100 g,
Proximates
"Energy",kcal,--,--,190,500
"Protein",g,--,--,4.00,10.53
"Total lipid (fat)",g,--,--,11.00,28.95
"Carbohydrate, by difference",g,--,--,19.00,50.00
"Fiber, total dietary",g,--,--,1.0,2.6
"Sugars, total",g,--,--,19.00,50.00
Minerals
"Calcium, Ca",mg,--,--,20,53
"Iron, Fe",mg,--,--,1.90,4.99
"Sodium, Na",mg,--,--,15,39
Vitamins
"Vitamin C, total ascorbic acid",mg,--,--,3.2,8.3
"Vitamin A, IU",IU,--,--,0,0
Lipids
"Fatty acids, total saturated",g,--,--,4.001,10.530
"Fatty acids, total trans",g,--,--,0.000,0.000
"Cholesterol",mg,--,--,10,26
Amino Acids
Other
Ingredients
"DARK CHOCOLATE (UNSWEETENED COCOA, SUGAR, COCOA BUTTER, SOY LECITHIN, VANILLA), SUGAR, ALMOND MEAL POWDERED SUGAR (SUGAR CORNSTARCH), EGG WHITE, CREAM (MILK), BUTTER (CREAM [MILK]), WATER, COCOA POWDER PROCESSED WITH ALKALI, EGG WHITE POWDER." Date available: 07/14/2017 Date last updated by company: 07/14/2017
