Source: USDA Branded Food Products Database Release December 2017 Software v.3.8.6.4 2017-10-02
Report Run at: December 17, 2017 11:13 EST
"Nutrient data for: 45190086, LOREDANA'S, FIG BALSAMIC VINAIGRETTE, UPC: 894613001772"
Food Group:  Branded Food Products Database
Common Name:

Nutrient,Unit,Data points,Std. Error,"1 Tbsp = 15.0g",1Value per 100 g,
Proximates
"Energy",kcal,--,--,70,467
"Protein",g,--,--,0.00,0.00
"Total lipid (fat)",g,--,--,6.00,40.00
"Carbohydrate, by difference",g,--,--,4.00,26.67
"Fiber, total dietary",g,--,--,0.0,0.0
"Sugars, total",g,--,--,3.00,20.00
Minerals
"Calcium, Ca",mg,--,--,0,0
"Iron, Fe",mg,--,--,0.00,0.00
"Sodium, Na",mg,--,--,25,167
Vitamins
"Vitamin C, total ascorbic acid",mg,--,--,8.1,54.1
"Vitamin A, IU",IU,--,--,0,0
Lipids
"Fatty acids, total saturated",g,--,--,1.000,6.670
"Fatty acids, total trans",g,--,--,0.000,0.000
"Cholesterol",mg,--,--,0,0
Amino Acids
Other
Ingredients
"ALL NATURAL INGREDIENTS: OLIVE OIL, HONEY, FIG BALSAMIC VINEGAR, (BALSAMIC VINEGAR DRIED FIGS, SUGAR, PORT WINE, LEMON JUICE), WATER, YELLOW MUSTARD, STRAWBERRIES, GARLIC POWDER, SEASONINGS AND SPICE." Date available: 07/14/2017 Date last updated by company: 07/14/2017
