Source: USDA Branded Food Products Database Release December 2017 Software v.3.8.6.4 2017-10-02
Report Run at: December 17, 2017 11:14 EST
"Nutrient data for: 45202155, LORINA, SPARKLING SODA, PINK LEMONADE, UPC: 647613000395"
Food Group:  Branded Food Products Database
Common Name:

Nutrient,Unit,Data points,Std. Error,"8.0 fl oz = 240.0g",1Value per 100 g,
Proximates
"Energy",kcal,--,--,127,53
"Protein",g,--,--,0.00,0.00
"Total lipid (fat)",g,--,--,0.00,0.00
"Carbohydrate, by difference",g,--,--,31.01,12.92
"Sugars, total",g,--,--,31.01,12.92
Minerals
"Sodium, Na",mg,--,--,0,0
Vitamins
Lipids
Amino Acids
Other
Ingredients
"CARBONATED WATER, SUGAR, CITRIC ACID, NATURAL LEMON AND LIME FLAVORS, GRAPE SKIN EXTRACT (AS COLOR)." Date available: 06/25/2017 Date last updated by company: 06/25/2017
