Source: USDA Branded Food Products Database Release December 2017 Software v.3.8.6.4 2017-10-02
Report Run at: December 17, 2017 11:16 EST
"Nutrient data for: 45120602, LOTTE, PEPERO CHOCO WHITE DOUBLE DIP, UPC: 8801062640430"
Food Group:  Branded Food Products Database
Common Name:

Nutrient,Unit,Data points,Std. Error,"0.88 ONZ = 25.0g",1Value per 100 g,
Proximates
"Energy",kcal,--,--,135,540
"Protein",g,--,--,2.00,8.00
"Total lipid (fat)",g,--,--,7.00,28.00
"Carbohydrate, by difference",g,--,--,16.00,64.00
"Fiber, total dietary",g,--,--,0.0,0.0
"Sugars, total",g,--,--,10.00,40.00
Minerals
"Calcium, Ca",mg,--,--,0,0
"Iron, Fe",mg,--,--,0.00,0.00
"Sodium, Na",mg,--,--,40,160
Vitamins
"Vitamin C, total ascorbic acid",mg,--,--,0.0,0.0
"Vitamin A, IU",IU,--,--,0,0
Lipids
"Fatty acids, total saturated",g,--,--,4.200,16.800
"Fatty acids, total trans",g,--,--,0.000,0.000
"Cholesterol",mg,--,--,0,0
Amino Acids
Other
Ingredients
"WHITE SUGAR, VEGETABLE OIL, MILK, COCOA MASS, MALT, COCOA BUTTER, DEXTRIN, EGG, WHEAT, FRUCTOSE, SALT, VANILLA FLAOVER, FERMENT." Date available: 10/13/2017 Date last updated by company: 10/13/2017
