Source: USDA Branded Food Products Database Release December 2017 Software v.3.8.6.4 2017-10-02
Report Run at: December 17, 2017 11:20 EST
"Nutrient data for: 45233547, LOUISIANA SUPREME, TERIYAKI SAUCE & MARINADE, UPC: 781923241724"
Food Group:  Branded Food Products Database
Common Name:

Nutrient,Unit,Data points,Std. Error,"1 Tbsp = 15.0g",1Value per 100 g,
Proximates
"Energy",kcal,--,--,35,233
"Protein",g,--,--,0.00,0.00
"Total lipid (fat)",g,--,--,0.00,0.00
"Carbohydrate, by difference",g,--,--,8.00,53.33
"Sugars, total",g,--,--,8.00,53.33
Minerals
"Sodium, Na",mg,--,--,470,3133
Vitamins
Lipids
Amino Acids
Other
Ingredients
"HIGH FRUCTOSE CORN SYRUP, DISTILLED VINEGAR, WINE, SALT, HYDROLYZED SOY PROTEIN, CORN SYRUP, CARAMEL COLOR, GUAR GUM, DRIED GARLIC, CITRIC ACID (AS A PRESERVATIVE)" Date available: 07/14/2017 Date last updated by company: 07/14/2017
