Source: USDA Branded Food Products Database Release December 2017 Software v.3.8.6.4 2017-10-02
Report Run at: December 17, 2017 11:21 EST
"Nutrient data for: 45168455, LOURDES GOURMET, MANGO SPREAD, UPC: 603522028004"
Food Group:  Branded Food Products Database
Common Name:

Nutrient,Unit,Data points,Std. Error,"1 Tbsp = 18.0g",1Value per 100 g,
Proximates
"Energy",kcal,--,--,30,167
"Protein",g,--,--,0.00,0.00
"Total lipid (fat)",g,--,--,0.00,0.00
"Carbohydrate, by difference",g,--,--,9.00,50.00
"Sugars, total",g,--,--,8.00,44.44
Minerals
"Sodium, Na",mg,--,--,0,0
Vitamins
"Vitamin C, total ascorbic acid",mg,--,--,12.2,67.6
Lipids
Amino Acids
Other
Ingredients
"MANGO, CANE SUGAR, WATER AND PECTIN." Date available: 07/14/2017 Date last updated by company: 07/14/2017
