Source: USDA Branded Food Products Database Release December 2017 Software v.3.8.6.4 2017-10-02
Report Run at: December 17, 2017 11:24 EST
"Nutrient data for: 45214331, LOVELY PLUSH PAL WITH ARTIFICIALLY CANDY, UPC: 049022744271"
Food Group:  Branded Food Products Database
Common Name:

Nutrient,Unit,Data points,Std. Error,"1 PIECE = 6.0g",1Value per 100 g,
Proximates
"Energy",kcal,--,--,25,417
"Protein",g,--,--,0.00,0.00
"Total lipid (fat)",g,--,--,0.00,0.00
"Carbohydrate, by difference",g,--,--,6.00,100.00
"Sugars, total",g,--,--,4.00,66.67
Minerals
"Sodium, Na",mg,--,--,0,0
Vitamins
Lipids
Amino Acids
Other
Ingredients
"SUGAR, GLUCOSE SYRUP, CITRIC ACID, ARTIFICIAL FLAVOR, ARTIFICIAL COLOR (RED NO. 40)." Date available: 07/14/2017 Date last updated by company: 07/14/2017
