Source: USDA Branded Food Products Database Release December 2017 Software v.3.8.6.4 2017-10-02
Report Run at: December 17, 2017 11:49 EST
"Nutrient data for: 45180359, LOW FAT GRANOLA, UPC: 722639105177"
Food Group:  Branded Food Products Database
Common Name:

Nutrient,Unit,Data points,Std. Error,"0.5 cup = 55.0g",1Value per 100 g,
Proximates
"Energy",kcal,--,--,220,400
"Protein",g,--,--,6.00,10.91
"Total lipid (fat)",g,--,--,2.50,4.55
"Carbohydrate, by difference",g,--,--,44.00,80.00
"Fiber, total dietary",g,--,--,4.0,7.3
"Sugars, total",g,--,--,11.00,20.00
Minerals
"Calcium, Ca",mg,--,--,20,36
"Iron, Fe",mg,--,--,2.70,4.91
"Sodium, Na",mg,--,--,20,36
Vitamins
"Vitamin C, total ascorbic acid",mg,--,--,0.0,0.0
"Vitamin A, IU",IU,--,--,0,0
Lipids
"Fatty acids, total saturated",g,--,--,0.000,0.000
"Cholesterol",mg,--,--,0,0
Amino Acids
Other
Ingredients
"WHOLE ROLLED OATS, MILLED CANE SUGAR, MOLASSES CORNSTARCH, DRIED APPLES (ERYTHROBIC ACID, CITRIC ACID, SODIUM CHLORIDE, CALCIUM CHLORIDE AS PRESERVATIVES), CINNAMON BARK, FRUIT JUICE CONCENTRATE (PEAR AND PEACH JUICE), HONEY, NATURAL FLAVOR, CARDOMOM SEED, FENNELL SEED, FENUGREEK SEED AND NUTMEG." Date available: 08/10/2017 Date last updated by company: 08/10/2017
