Source: USDA Branded Food Products Database Release December 2017 Software v.3.8.6.4 2017-10-02
Report Run at: December 17, 2017 11:50 EST
"Nutrient data for: 45039478, LOW-FAT GREEK YOGURT, UPC: 818290014702"
Food Group:  Branded Food Products Database
Common Name:

Nutrient,Unit,Data points,Std. Error,"1 CONTAINER = 150.0g",1Value per 100 g,
Proximates
"Energy",kcal,--,--,180,120
"Protein",g,--,--,12.00,8.00
"Total lipid (fat)",g,--,--,5.00,3.33
"Carbohydrate, by difference",g,--,--,23.00,15.33
"Fiber, total dietary",g,--,--,1.1,0.7
"Sugars, total",g,--,--,17.00,11.33
Minerals
"Calcium, Ca",mg,--,--,150,100
"Iron, Fe",mg,--,--,0.00,0.00
"Potassium, K",mg,--,--,180,120
"Sodium, Na",mg,--,--,90,60
Vitamins
"Vitamin C, total ascorbic acid",mg,--,--,0.0,0.0
"Vitamin A, IU",IU,--,--,0,0
Lipids
"Fatty acids, total saturated",g,--,--,3.000,2.000
"Fatty acids, total trans",g,--,--,0.000,0.000
"Cholesterol",mg,--,--,15,10
Amino Acids
Other
Ingredients
"LOWFAT YOGURT (CULTURED PASTEURIZED NONFAT MILK, CREAM, LIVE AND ACTIVE CULTURES: S. THERMOPHILUS, L. BULGARICUS, L. ACIDOPHILUS, BIFIDUS AND L. CASEI), STRAWBERRIES, EVAPORATED CANE SUGAR, SUGAR, WHEAT FLOUR, WATER, GRAHAM FLOUR, PALM OIL, COCOA BUTTER, MILK, NATURAL FLAVORS, SKIM MILK, FRUIT PECTIN, BAKING SODA, SALT, MALTED BARLEY FLOUR, HONEY, LOCUST BEAN GUM, ORGANIC SOY LECITHIN, GRAPE AND BLACK CARROT JUICE CONCENTRATE (FOR COLOR), LEMON JUICE CONCENTRATE, VANILLA." Date available: 07/14/2017 Date last updated by company: 07/14/2017
