Source: USDA Branded Food Products Database Release December 2017 Software v.3.8.6.4 2017-10-02
Report Run at: December 17, 2017 12:18 EST
"Nutrient data for: 45288035, LOW FAT YOGURT VITAMINS A &D, UPC: 070470137131"
Food Group:  Branded Food Products Database
Common Name:

Nutrient,Unit,Data points,Std. Error,"1 CONTAINER = 170.0g",1Value per 100 g,
Proximates
"Energy",kcal,--,--,150,88
"Protein",g,--,--,6.00,3.53
"Total lipid (fat)",g,--,--,2.01,1.18
"Carbohydrate, by difference",g,--,--,25.01,14.71
"Sugars, total",g,--,--,18.00,10.59
Minerals
"Calcium, Ca",mg,--,--,201,118
"Phosphorus, P",mg,--,--,150,88
"Sodium, Na",mg,--,--,95,56
Vitamins
"Vitamin A, IU",IU,--,--,750,441
"Vitamin D",IU,--,--,80,47
Lipids
"Fatty acids, total saturated",g,--,--,1.003,0.590
"Fatty acids, total trans",g,--,--,0.000,0.000
"Cholesterol",mg,--,--,10,6
Amino Acids
Other
Ingredients
"STRAWBERRY INGREDIENTS: PASTEURIZED GRADE A REDUCED FAT MILK, SUGAR, STRAWBERRIES, MODIFIED CORN STARCH, KOSHER GELATIN, NATURAL FLAVOR, PECTIN, COLORED WITH CARMINE, YOGURT CULTURES (L. BULGARICUS, S. THERMOPHILUS, L. ACIDOPHILUS), VITAMIN A ACETATE, VITAMIN D3., RAINBOW SHERBET INGREDIENTS: PASTEURIZED GRADE A REDUCED FAT MILK, SUGAR, MODIFIED CORN STARCH, KOSHER GELATIN, COLORED WITH BEET JUICE CONCENTRATE AND PAPRIKA EXTRACT, NATURAL FLAVOR, YOGURT CULTURES (L. BULGARICUS, S. THERMOPHILUS, L. ACIDOPHILUS), VITAMIN A ACETATE, VITAMIN D3." Date available: 05/06/2017 Date last updated by company: 05/06/2017
