Source: USDA Branded Food Products Database Release December 2017 Software v.3.8.6.4 2017-10-02
Report Run at: December 17, 2017 11:48 EST
"Nutrient data for: 45329097, LOW FAT FUDGE BARS, UPC: 041512113529"
Food Group:  Branded Food Products Database
Common Name:

Nutrient,Unit,Data points,Std. Error,"1 BAR = 70.0g",1Value per 100 g,
Proximates
"Energy",kcal,--,--,100,143
"Protein",g,--,--,2.00,2.86
"Total lipid (fat)",g,--,--,2.00,2.86
"Carbohydrate, by difference",g,--,--,17.00,24.29
"Fiber, total dietary",g,--,--,0.0,0.0
"Sugars, total",g,--,--,17.00,24.29
Minerals
"Calcium, Ca",mg,--,--,80,114
"Iron, Fe",mg,--,--,0.36,0.51
"Sodium, Na",mg,--,--,120,171
Vitamins
"Vitamin C, total ascorbic acid",mg,--,--,0.0,0.0
"Vitamin A, IU",IU,--,--,0,0
Lipids
"Fatty acids, total saturated",g,--,--,1.498,2.140
"Fatty acids, total trans",g,--,--,0.000,0.000
"Cholesterol",mg,--,--,10,14
Amino Acids
Other
Ingredients
"WATER, CORN SYRUP, WHEY, HIGH FRUCTOSE CORN SYRUP, BUTTERMILK, MILKFAT AND NONFAT MILK, SUGAR, COCOA PROCESSED WITH ALKALI, COCOA, WHEAT FLOUR, MONO- AND DIGLYCERIDES, GUAR GUM, CAROB BEAN GUM, POLYSORBATE 80, CARRAGEENAN, SOY LECITHIN, MALT." Date available: 10/13/2017 Date last updated by company: 10/13/2017
