Source: USDA Branded Food Products Database Release December 2017 Software v.3.8.6.4 2017-10-02
Report Run at: December 17, 2017 11:49 EST
"Nutrient data for: 45323924, LOW-FAT GREEK YOGURT DRINK, UPC: 818290010209"
Food Group:  Branded Food Products Database
Common Name:

Nutrient,Unit,Data points,Std. Error,"1 BOTTLE = 296.0g",1Value per 100 g,
Proximates
"Energy",kcal,--,--,201,68
"Protein",g,--,--,14.00,4.73
"Total lipid (fat)",g,--,--,5.00,1.69
"Carbohydrate, by difference",g,--,--,25.99,8.78
"Fiber, total dietary",g,--,--,2.1,0.7
"Sugars, total",g,--,--,21.99,7.43
Minerals
"Calcium, Ca",mg,--,--,249,84
"Iron, Fe",mg,--,--,0.00,0.00
"Potassium, K",mg,--,--,429,145
"Sodium, Na",mg,--,--,115,39
Vitamins
"Vitamin C, total ascorbic acid",mg,--,--,0.0,0.0
"Vitamin A, IU",IU,--,--,115,39
Lipids
"Fatty acids, total saturated",g,--,--,2.990,1.010
"Fatty acids, total trans",g,--,--,0.000,0.000
"Cholesterol",mg,--,--,30,10
Amino Acids
Other
Ingredients
"LOWFAT YOGURT (CULTURED PASTEURIZED NONFAT MILK, CREAM), WATER, EVAPORATED CANE SUGAR, BLUEBERRIES, RASPBERRIES, BLACKBERRIES, ORGANIC HONEY, FRUIT PECTIN, NATURAL FLAVOR, CHICORY ROOT FIBER, LOCUST BEAN GUM, FRUIT JUICE CONCENTRATE (FOR COLOR), LEMON JUICE CONCENTRATE. CONTAINS LIVE AND ACTIVE CULTURES: S. THERMOPHILUS, L. BULGARICUS, L. ACIDOPHILUS, BIFIDUS AND L. CASEI." Date available: 07/14/2017 Date last updated by company: 07/14/2017
