Source: USDA Branded Food Products Database Release December 2017 Software v.3.8.6.4 2017-10-02
Report Run at: December 17, 2017 11:49 EST
"Nutrient data for: 45232111, LOW-FAT GREEK YOGURT DRINK, UPC: 818290010803"
Food Group:  Branded Food Products Database
Common Name:

Nutrient,Unit,Data points,Std. Error,"1 BOTTLE = 296.0g",1Value per 100 g,
Proximates
"Energy",kcal,--,--,189,64
"Protein",g,--,--,14.00,4.73
"Total lipid (fat)",g,--,--,5.00,1.69
"Carbohydrate, by difference",g,--,--,24.01,8.11
"Fiber, total dietary",g,--,--,0.9,0.3
"Sugars, total",g,--,--,20.01,6.76
Minerals
"Calcium, Ca",mg,--,--,299,101
"Iron, Fe",mg,--,--,0.00,0.00
"Potassium, K",mg,--,--,429,145
"Sodium, Na",mg,--,--,115,39
Vitamins
"Vitamin C, total ascorbic acid",mg,--,--,0.0,0.0
"Vitamin A, IU",IU,--,--,115,39
Lipids
"Fatty acids, total saturated",g,--,--,2.990,1.010
"Fatty acids, total trans",g,--,--,0.000,0.000
"Cholesterol",mg,--,--,30,10
Amino Acids
Other
Ingredients
"LOWFAT YOGURT (CULTURED PASTEURIZED NONFAT MILK, CREAM), WATER, APPLE PUREE, EVAPORATED CANE SUGAR, NATURAL FLAVORS, CHICORY ROOT FIBER, FRUIT PECTIN, LOCUST BEAN GUM, KEY LIME PUREE, LEMON PUREE, FRUIT AND VEGETABLE JUICE CONCENTRATE (FOR COLOR). TURMERIC (FOR COLOR), LIME JUICE CONCENTRATE, LEMON JUICE CONCENTRATE. CONTAINS LIVE AND ACTIVE CULTURES: S. THERMOPHILUS, L. BULGARICUS, L. ACIDOPHILUS, BIFIDUS AND L. CASEI." Date available: 07/17/2017 Date last updated by company: 07/17/2017
