Source: USDA Branded Food Products Database Release December 2017 Software v.3.8.6.4 2017-10-02
Report Run at: December 17, 2017 11:53 EST
"Nutrient data for: 45289702, LOW FAT MILK CHOCOLATE, UPC: 717544205036"
Food Group:  Branded Food Products Database
Common Name:

Nutrient,Unit,Data points,Std. Error,"1 cup = 240.0g",1Value per 100 g,
Proximates
"Energy",kcal,--,--,161,67
"Protein",g,--,--,9.00,3.75
"Total lipid (fat)",g,--,--,2.50,1.04
"Carbohydrate, by difference",g,--,--,25.99,10.83
"Fiber, total dietary",g,--,--,0.0,0.0
"Sugars, total",g,--,--,25.01,10.42
Minerals
"Calcium, Ca",mg,--,--,300,125
"Iron, Fe",mg,--,--,0.00,0.00
"Sodium, Na",mg,--,--,221,92
Vitamins
"Vitamin C, total ascorbic acid",mg,--,--,0.0,0.0
"Vitamin A, IU",IU,--,--,499,208
"Vitamin D",IU,--,--,101,42
Lipids
"Fatty acids, total saturated",g,--,--,1.488,0.620
"Fatty acids, total trans",g,--,--,0.000,0.000
"Cholesterol",mg,--,--,10,4
Amino Acids
Other
Ingredients
"LOWFAT MILK, SUGAR, COCOA (PROCESSED WITH ALKALI), SALT, CARRAGEENAN, VITAMIN A PALMITATE AND VITAMIN D3." Date available: 07/14/2017 Date last updated by company: 07/14/2017
