Source: USDA Branded Food Products Database Release December 2017 Software v.3.8.6.4 2017-10-02
Report Run at: December 17, 2017 11:26 EST
"Nutrient data for: 45091087, LOW CALORIE DRINK MIX, UPC: 072392379941"
Food Group:  Branded Food Products Database
Common Name:

Nutrient,Unit,Data points,Std. Error,"0.5 STICK = 3.0g",1Value per 100 g,
Proximates
"Energy",kcal,--,--,20,667
"Protein",g,--,--,0.00,0.00
"Total lipid (fat)",g,--,--,0.00,0.00
"Carbohydrate, by difference",g,--,--,3.00,100.00
"Sugars, total",g,--,--,2.00,66.67
Minerals
"Sodium, Na",mg,--,--,0,0
Vitamins
Lipids
Amino Acids
Other
Ingredients
"ORGANIC DRIED CANE SYRUP, ORGANIC NATURAL FLAVOR, ORGANIC MALTODEXTRIN, ORGANIC STEVIA EXTRACT, CONTAINS 2% OR LESS OF THE FOLLOWING: CITRIC ACID, VEGETABLE JUICE POWDER FOR COLOR, ORGANIC GUAR GUM, TARTARIC ACID." Date available: 07/14/2017 Date last updated by company: 07/14/2017
