Source: USDA Branded Food Products Database Release December 2017 Software v.3.8.6.4 2017-10-02
Report Run at: December 17, 2017 11:39 EST
"Nutrient data for: 45046093, LOWES FOODS, SALSA CON QUESO, UPC: 741643021594"
Food Group:  Branded Food Products Database
Common Name:

Nutrient,Unit,Data points,Std. Error,"2.0 Tbsp = 34.0g",1Value per 100 g,
Proximates
"Energy",kcal,--,--,45,132
"Protein",g,--,--,1.00,2.94
"Total lipid (fat)",g,--,--,3.00,8.82
"Carbohydrate, by difference",g,--,--,4.00,11.76
"Fiber, total dietary",g,--,--,0.0,0.0
"Sugars, total",g,--,--,1.00,2.94
Minerals
"Calcium, Ca",mg,--,--,20,59
"Iron, Fe",mg,--,--,0.00,0.00
"Sodium, Na",mg,--,--,280,824
Vitamins
"Vitamin C, total ascorbic acid",mg,--,--,0.0,0.0
"Vitamin A, IU",IU,--,--,0,0
Lipids
"Fatty acids, total saturated",g,--,--,1.000,2.940
"Fatty acids, total trans",g,--,--,0.000,0.000
"Cholesterol",mg,--,--,5,15
Amino Acids
Other
Ingredients
"WATER, NONFAT MILK, MONETARY JACK CHEESE (MILK, CHEESE CULTURES, SALT, ENZYMES), VEGETABLE OIL (CORN AND/OR SOYBEAN), MALTODEXTRIN, MODIFIED CORNSTARCH, GREEN CHILES, RED BELL PEPPERS, SALT, TOMATOES, NATURAL FLAVOR, JALAPENO PEPPERS, SODIUM ALGINATE, XANTHAN GUM, SODIUM PHOSPHATE, VINEGAR, SODIUM ALGINATE, XANTHAN GUM, SODIUM PHOSPHATE, VINEGAR, SODIUM CITRATE, MONO & DI-GLYCERIDES, SORBIC ACID (PRESERVATIVE), MONOSODIUM GLUTAMATE, ARTIFICIAL COLOR (FD&C YELLOW #5 AND YELLOW #6)." Date available: 09/30/2017 Date last updated by company: 09/30/2017
