Source: USDA Branded Food Products Database Release December 2017 Software v.3.8.6.4 2017-10-02
Report Run at: December 17, 2017 11:39 EST
"Nutrient data for: 45033219, LOWES FOODS, SALT, UPC: 741643036017"
Food Group:  Branded Food Products Database
Common Name:

Nutrient,Unit,Data points,Std. Error,"0.25 tsp = 1.5g",1Value per 100 g,
Proximates
"Energy",kcal,--,--,0,0
"Protein",g,--,--,0.00,0.00
"Total lipid (fat)",g,--,--,0.00,0.00
"Carbohydrate, by difference",g,--,--,0.00,0.00
Minerals
"Sodium, Na",mg,--,--,590,39333
Vitamins
Lipids
Amino Acids
Other
Ingredients
"SALT, SODIUM SILICOALUMINATE." Date available: 06/24/2017 Date last updated by company: 06/24/2017
