Source: USDA Branded Food Products Database Release December 2017 Software v.3.8.6.4 2017-10-02
Report Run at: December 17, 2017 11:56 EST
"Nutrient data for: 45190399, LOWFAT MILK, UPC: 035826089816"
Food Group:  Branded Food Products Database
Common Name:

Nutrient,Unit,Data points,Std. Error,"354.0 MLT = 354.0g",1Value per 100 g,
Proximates
"Energy",kcal,--,--,241,68
"Protein",g,--,--,12.99,3.67
"Total lipid (fat)",g,--,--,4.00,1.13
"Carbohydrate, by difference",g,--,--,40.99,11.58
"Fiber, total dietary",g,--,--,0.0,0.0
"Sugars, total",g,--,--,37.98,10.73
Minerals
"Calcium, Ca",mg,--,--,450,127
"Iron, Fe",mg,--,--,0.50,0.14
"Potassium, K",mg,--,--,669,189
"Sodium, Na",mg,--,--,329,93
Vitamins
"Vitamin C, total ascorbic acid",mg,--,--,0.0,0.0
"Vitamin A, IU",IU,--,--,510,144
"Vitamin D",IU,--,--,142,40
Lipids
"Fatty acids, total saturated",g,--,--,2.513,0.710
"Fatty acids, total monounsaturated",g,--,--,0.991,0.280
"Fatty acids, total polyunsaturated",g,--,--,0.000,0.000
"Fatty acids, total trans",g,--,--,0.000,0.000
"Cholesterol",mg,--,--,21,6
Amino Acids
Other
Ingredients
"LOW FAT MILK, SUGAR, CONTAINS LESS THAN 1% OF: COCOA (PROCESSED WITH ALKALI), CORN STARCH, COCOA, NONFAT MILK, SALT, CARRAGEENAN, ARTIFICIAL FLAVOR, VITAMIN A PALMITATE, VITAMIN D3." Date available: 09/05/2017 Date last updated by company: 09/05/2017
