Source: USDA Branded Food Products Database Release December 2017 Software v.3.8.6.4 2017-10-02
Report Run at: December 17, 2017 11:49 EST
"Nutrient data for: 45001910, LOWFAT GRANOLA CEREAL WITH ALMOND, UPC: 00859097"
Food Group:  Branded Food Products Database
Common Name:

Nutrient,Unit,Data points,Std. Error,"0.75 cup = 55.0g",1Value per 100 g,
Proximates
"Energy",kcal,--,--,210,382
"Protein",g,--,--,4.00,7.27
"Total lipid (fat)",g,--,--,3.00,5.45
"Carbohydrate, by difference",g,--,--,44.00,80.00
"Fiber, total dietary",g,--,--,5.0,9.1
"Sugars, total",g,--,--,15.00,27.27
Minerals
"Calcium, Ca",mg,--,--,20,36
"Iron, Fe",mg,--,--,1.08,1.96
"Sodium, Na",mg,--,--,75,136
Vitamins
"Vitamin C, total ascorbic acid",mg,--,--,0.0,0.0
"Vitamin A, IU",IU,--,--,0,0
Lipids
"Fatty acids, total saturated",g,--,--,0.000,0.000
"Fatty acids, total trans",g,--,--,0.000,0.000
"Cholesterol",mg,--,--,0,0
Amino Acids
Other
Ingredients
"WHOLE ROLLED WHEAT, MILLED CANE SUGAR, RICE FLOUR, CORNSTARCH, VEGETABLE OIL (CANOLA AND/OR SAFFLOWER AND/OR SUNFLOWER OIL), BROWN RICE SYRUP, ALMONDS, SALT, NATURAL FLAVOR, BARLEY MALT SYRUP." Date available: 06/24/2017 Date last updated by company: 06/24/2017
