Source: USDA Branded Food Products Database Release December 2017 Software v.3.8.6.4 2017-10-02
Report Run at: December 17, 2017 12:08 EST
"Nutrient data for: 45101310, LOWFAT YOGURT, UPC: 072830400091"
Food Group:  Branded Food Products Database
Common Name:

Nutrient,Unit,Data points,Std. Error,"6.0 ONZ = 170.0g",1Value per 100 g,
Proximates
"Energy",kcal,--,--,150,88
"Protein",g,--,--,8.99,5.29
"Total lipid (fat)",g,--,--,2.01,1.18
"Carbohydrate, by difference",g,--,--,25.99,15.29
"Fiber, total dietary",g,--,--,0.0,0.0
"Sugars, total",g,--,--,21.00,12.35
Minerals
"Calcium, Ca",mg,--,--,250,147
"Iron, Fe",mg,--,--,0.00,0.00
"Sodium, Na",mg,--,--,70,41
Vitamins
"Vitamin C, total ascorbic acid",mg,--,--,0.0,0.0
"Vitamin A, IU",IU,--,--,100,59
Lipids
"Fatty acids, total saturated",g,--,--,1.496,0.880
"Fatty acids, total trans",g,--,--,0.000,0.000
"Cholesterol",mg,--,--,15,9
Amino Acids
Other
Ingredients
"CULTURED PASTEURIZED GRADE A REDUCED FAT MILK, FRUIT BLEND (WATER, SUGAR, CHERRIES, CORN STARCH, NATURAL FLAVOR, FRUIT JUICE [COLOR], CITRIC ACID), MILK PROTEIN CONCENTRATE, CORN STARCH." Date available: 07/14/2017 Date last updated by company: 07/14/2017
