Source: USDA Branded Food Products Database Release December 2017 Software v.3.8.6.4 2017-10-02
Report Run at: December 17, 2017 12:11 EST
"Nutrient data for: 45193761, LOWFAT YOGURT, UPC: 018894304579"
Food Group:  Branded Food Products Database
Common Name:

Nutrient,Unit,Data points,Std. Error,"1 cup = 227.0g",1Value per 100 g,
Proximates
"Energy",kcal,--,--,211,93
"Protein",g,--,--,6.99,3.08
"Total lipid (fat)",g,--,--,2.00,0.88
"Carbohydrate, by difference",g,--,--,40.00,17.62
"Fiber, total dietary",g,--,--,0.0,0.0
"Sugars, total",g,--,--,34.00,14.98
Minerals
"Calcium, Ca",mg,--,--,599,264
"Iron, Fe",mg,--,--,0.27,0.12
"Potassium, K",mg,--,--,350,154
"Sodium, Na",mg,--,--,109,48
Vitamins
"Vitamin C, total ascorbic acid",mg,--,--,1.8,0.8
"Vitamin A, IU",IU,--,--,935,412
"Vitamin D",IU,--,--,120,53
Lipids
"Fatty acids, total saturated",g,--,--,0.999,0.440
"Fatty acids, total trans",g,--,--,0.000,0.000
"Cholesterol",mg,--,--,9,4
Amino Acids
Other
Ingredients
"CULTURED PASTEURIZED GRADE A LOW FAT MILK, SUGAR, STRAWBERRIES, WATER, FOOD STARCH-MODIFIED, CALCIUM PHOSPHATE, NATURAL FLAVOR, PECTIN, CARRAGEENAN, FRUIT AND VEGETABLE JUICE (COLOR), CITRIC ACID, ANNATTO EXTRACT COLOR, POTASSIUM SORBATE (TO MAINTAIN FRESHNESS), VITAMIN A PALMITATE, VITAMIN D3." Date available: 07/14/2017 Date last updated by company: 07/14/2017
