Source: USDA Branded Food Products Database Release December 2017 Software v.3.8.6.4 2017-10-02
Report Run at: December 17, 2017 12:09 EST
"Nutrient data for: 45055836, LOWFAT YOGURT, UPC: 741643452015"
Food Group:  Branded Food Products Database
Common Name:

Nutrient,Unit,Data points,Std. Error,"1 CONTAINER = 170.0g",1Value per 100 g,
Proximates
"Energy",kcal,--,--,150,88
"Protein",g,--,--,6.00,3.53
"Total lipid (fat)",g,--,--,1.50,0.88
"Carbohydrate, by difference",g,--,--,28.00,16.47
"Fiber, total dietary",g,--,--,0.0,0.0
"Sugars, total",g,--,--,24.00,14.12
Minerals
"Calcium, Ca",mg,--,--,150,88
"Iron, Fe",mg,--,--,0.00,0.00
"Sodium, Na",mg,--,--,80,47
Vitamins
"Vitamin C, total ascorbic acid",mg,--,--,1.2,0.7
"Vitamin A, IU",IU,--,--,100,59
Lipids
"Fatty acids, total saturated",g,--,--,1.003,0.590
"Fatty acids, total trans",g,--,--,0.000,0.000
"Cholesterol",mg,--,--,10,6
Amino Acids
Other
Ingredients
"INGREDIENTS: CULTURED PASTEURIZED GRADE A LOWFAT MILK, SUGAR, BLUBERRIES, CORN SYRUP, MODIFIED CORN STARCH, KOSHER GELATIN, NATURAL FLAVORS, POTASSIUM SORBATE (TO MAINTAIN FRESHNESS), CITRIC ACID, RED 40 AND BLUE 1, CONTAINS ACTIVE YOGURT CULTURES INCLUDING L. BULGARICUS, S. THERMOPHILUS, BIFIDUS, L. ACIDOPHILUS AND L. CASEI" Date available: 06/24/2017 Date last updated by company: 06/24/2017
