Source: USDA Branded Food Products Database Release December 2017 Software v.3.8.6.4 2017-10-02
Report Run at: December 17, 2017 12:16 EST
"Nutrient data for: 45281340, LOWFAT YOGURT, UPC: 03003406120"
Food Group:  Branded Food Products Database
Common Name:

Nutrient,Unit,Data points,Std. Error,"1 cup = 227.0g",1Value per 100 g,
Proximates
"Energy",kcal,--,--,150,66
"Protein",g,--,--,12.01,5.29
"Total lipid (fat)",g,--,--,4.49,1.98
"Carbohydrate, by difference",g,--,--,17.00,7.49
"Fiber, total dietary",g,--,--,0.0,0.0
"Sugars, total",g,--,--,17.00,7.49
Minerals
"Calcium, Ca",mg,--,--,400,176
"Iron, Fe",mg,--,--,0.00,0.00
"Phosphorus, P",mg,--,--,225,99
"Potassium, K",mg,--,--,570,251
"Sodium, Na",mg,--,--,200,88
Vitamins
"Vitamin C, total ascorbic acid",mg,--,--,0.0,0.0
"Riboflavin",mg,--,--,0.511,0.225
"Pantothenic acid",mg,--,--,1.001,0.441
"Vitamin A, IU",IU,--,--,150,66
"Vitamin D",IU,--,--,0,0
Lipids
"Fatty acids, total saturated",g,--,--,2.996,1.320
"Fatty acids, total trans",g,--,--,0.000,0.000
"Cholesterol",mg,--,--,16,7
Amino Acids
Other
Ingredients
"CULTURED PASTEURIZED GRADE A LOW FAT MILK, WHEY PROTEIN CONCENTRATE, PECTIN, CALCIUM CHLORIDE." Date available: 07/14/2017 Date last updated by company: 07/14/2017
