Source: USDA Branded Food Products Database Release December 2017 Software v.3.8.6.4 2017-10-02
Report Run at: December 17, 2017 12:25 EST
"Nutrient data for: 45172320, LUCERNE DAIRY FARMS, WHOLE MILK RICOTTA CHEESE, UPC: 021130048830"
Food Group:  Branded Food Products Database
Common Name:

Nutrient,Unit,Data points,Std. Error,"0.25 cup = 62.0g",1Value per 100 g,
Proximates
"Energy",kcal,--,--,100,161
"Protein",g,--,--,5.00,8.06
"Total lipid (fat)",g,--,--,7.00,11.29
"Carbohydrate, by difference",g,--,--,4.00,6.45
"Fiber, total dietary",g,--,--,0.0,0.0
"Sugars, total",g,--,--,3.00,4.84
Minerals
"Calcium, Ca",mg,--,--,100,161
"Iron, Fe",mg,--,--,0.00,0.00
"Sodium, Na",mg,--,--,85,137
Vitamins
"Vitamin C, total ascorbic acid",mg,--,--,0.0,0.0
"Vitamin A, IU",IU,--,--,266,429
Lipids
"Fatty acids, total saturated",g,--,--,4.501,7.260
"Fatty acids, total trans",g,--,--,0.000,0.000
"Cholesterol",mg,--,--,30,48
Amino Acids
Other
Ingredients
"PASTEURIZED MILK, PASTEURIZED WHEY, VINEGAR, STABILIZER (MODIFIED FOOD STARCH, GUAR GUM, CARRAGEENAN), SALT." Date available: 07/14/2017 Date last updated by company: 07/14/2017
