Source: USDA Branded Food Products Database Release December 2017 Software v.3.8.6.4 2017-10-02
Report Run at: December 17, 2017 12:26 EST
"Nutrient data for: 45193868, LUCERNE, LOW FAT YOGURT, STRAWBERRY, UPC: 021130077441"
Food Group:  Branded Food Products Database
Common Name:

Nutrient,Unit,Data points,Std. Error,"8.0 ONZ = 227.0g",1Value per 100 g,
Proximates
"Energy",kcal,--,--,179,79
"Protein",g,--,--,7.99,3.52
"Total lipid (fat)",g,--,--,2.50,1.10
"Carbohydrate, by difference",g,--,--,31.01,13.66
"Fiber, total dietary",g,--,--,0.0,0.0
"Sugars, total",g,--,--,23.99,10.57
Minerals
"Calcium, Ca",mg,--,--,699,308
"Iron, Fe",mg,--,--,0.00,0.00
"Sodium, Na",mg,--,--,95,42
Vitamins
"Vitamin C, total ascorbic acid",mg,--,--,2.7,1.2
"Vitamin A, IU",IU,--,--,749,330
"Vitamin D",IU,--,--,100,44
Lipids
"Fatty acids, total saturated",g,--,--,1.498,0.660
"Fatty acids, total trans",g,--,--,0.000,0.000
"Cholesterol",mg,--,--,9,4
Amino Acids
Other
Ingredients
"CULTURED PASTEURIZED GRADE A LOWFAT MILK, SUGAR, STRAWBERRIES, MODIFIED CORN STARCH, TRI-CALCIUM PHOSPHATE, GELATIN, NATURAL FLAVORS, NONFAT MILK SOLIDS, CITRIC ACID, ORGANIC FRUIT & VEGETABLE JUICE (FOR COLOR), BETA CAROTENE (FOR COLOR), VITAMIN A PALMITATE, VITAMIN D3." Date available: 07/14/2017 Date last updated by company: 07/14/2017
