Source: USDA Branded Food Products Database Release December 2017 Software v.3.8.6.4 2017-10-02
Report Run at: December 17, 2017 12:27 EST
"Nutrient data for: 45087509, LUCINI ITALIA, SICILIAN OLIVE AND WILD CAPER SAUCE, UPC: 648505557218"
Food Group:  Branded Food Products Database
Common Name:

Nutrient,Unit,Data points,Std. Error,"0.5 cup = 125.0g",1Value per 100 g,
Proximates
"Energy",kcal,--,--,50,40
"Protein",g,--,--,1.00,0.80
"Total lipid (fat)",g,--,--,1.50,1.20
"Carbohydrate, by difference",g,--,--,8.00,6.40
"Fiber, total dietary",g,--,--,2.0,1.6
"Sugars, total",g,--,--,2.00,1.60
Minerals
"Calcium, Ca",mg,--,--,20,16
"Iron, Fe",mg,--,--,0.38,0.30
"Sodium, Na",mg,--,--,290,232
Vitamins
"Vitamin C, total ascorbic acid",mg,--,--,6.4,5.1
"Vitamin A, IU",IU,--,--,105,84
Lipids
"Fatty acids, total saturated",g,--,--,0.000,0.000
"Fatty acids, total trans",g,--,--,0.000,0.000
"Cholesterol",mg,--,--,0,0
Amino Acids
Other
Ingredients
"VINE-RIPENED ITALIAN GARDEN TOMATOES, BLACK AND GREEN OLIVES, EXTRA VIRGIN OLIVE OIL, WILD CAPERS, ONIONS WHITE WINE VINEGAR, BASIL, PARSLEY, SALT, BLACK PEPPER." Date available: 06/25/2017 Date last updated by company: 06/25/2017
