Source: USDA Branded Food Products Database Release December 2017 Software v.3.8.6.4 2017-10-02
Report Run at: December 17, 2017 12:27 EST
"Nutrient data for: 45138634, LUCINI, ARTISAN VINAIGRETTE, CHERRY BALSAMIC & ROSEMARY, UPC: 648505112509"
Food Group:  Branded Food Products Database
Common Name:

Nutrient,Unit,Data points,Std. Error,"2.0 Tbsp = 30.0g",1Value per 100 g,
Proximates
"Energy",kcal,--,--,120,400
"Protein",g,--,--,1.00,3.33
"Total lipid (fat)",g,--,--,12.00,40.00
"Carbohydrate, by difference",g,--,--,3.00,10.00
"Sugars, total",g,--,--,3.00,10.00
Minerals
"Sodium, Na",mg,--,--,105,350
Vitamins
Lipids
"Fatty acids, total saturated",g,--,--,0.999,3.330
Amino Acids
Other
Ingredients
"EXPELLER PRESSED HIGH OLEIC SAFFLOWER OIL, WATER, BALSAMIC VINEGAR, EVAPORATED CANE JUICE, SOUR CHEERY JUICE CONCENTRATE, ROSEMARY, SEA SALT, GARLIC, BLACK PEPPER, XANTHAN GUM (NATURAL THICKENER), NATURAL FLAVOR, CARAMEL COLOR" Date available: 10/13/2017 Date last updated by company: 10/13/2017
