Source: USDA Branded Food Products Database Release December 2017 Software v.3.8.6.4 2017-10-02
Report Run at: December 17, 2017 12:30 EST
"Nutrient data for: 45223466, LUCKY LEAF, JUICE FROM CONCENTRATE, APPLE CIDER, UPC: 028500120905"
Food Group:  Branded Food Products Database
Common Name:

Nutrient,Unit,Data points,Std. Error,"8.0 OZA = 240.0g",1Value per 100 g,
Proximates
"Energy",kcal,--,--,120,50
"Protein",g,--,--,0.00,0.00
"Total lipid (fat)",g,--,--,0.00,0.00
"Carbohydrate, by difference",g,--,--,31.01,12.92
"Sugars, total",g,--,--,25.99,10.83
Minerals
"Sodium, Na",mg,--,--,24,10
Vitamins
"Vitamin C, total ascorbic acid",mg,--,--,18.0,7.5
Lipids
Amino Acids
Other
Ingredients
"WATER, APPLE CIDER CONCENTRATE AND ASCORBIC ACID (VITAMIN C)." Date available: 08/20/2017 Date last updated by company: 08/20/2017
