Source: USDA Branded Food Products Database Release December 2017 Software v.3.8.6.4 2017-10-02
Report Run at: December 17, 2017 12:28 EST
"Nutrient data for: 45166516, LUCKY COUNTRY, SOFT LICORICE CANDY, FIRESTICK CINNAMON, UPC: 817795000593"
Food Group:  Branded Food Products Database
Common Name:

Nutrient,Unit,Data points,Std. Error,"5.0 PIECES = 40.0g",1Value per 100 g,
Proximates
"Energy",kcal,--,--,140,350
"Protein",g,--,--,1.00,2.50
"Total lipid (fat)",g,--,--,0.50,1.25
"Carbohydrate, by difference",g,--,--,32.00,80.00
"Fiber, total dietary",g,--,--,0.0,0.0
"Sugars, total",g,--,--,17.00,42.50
Minerals
"Calcium, Ca",mg,--,--,0,0
"Iron, Fe",mg,--,--,0.00,0.00
"Sodium, Na",mg,--,--,0,0
Vitamins
"Vitamin C, total ascorbic acid",mg,--,--,0.0,0.0
"Vitamin A, IU",IU,--,--,0,0
Lipids
"Fatty acids, total saturated",g,--,--,0.500,1.250
"Fatty acids, total trans",g,--,--,0.000,0.000
"Cholesterol",mg,--,--,0,0
Amino Acids
Other
Ingredients
"CANE SUGAR, CORN SYRUP, WHEAT FLOUR (GLUTEN), HIGH FRUCTOSE CORN SYRUP, MODIFIED CORN STARCH, CONTAINS 2% OR LESS OF THE FOLLOWING: NATURAL FLAVOR, MONO AND DI-GLYCERIDES (EMULSIFIER), ARTIFICIAL COLOR (RED 40, BLUE 1, CITRIC ACID, SODIUM BENZOATE, PHOSPHORIC ACID), LICORICE EXTRACT" Date available: 07/14/2017 Date last updated by company: 07/14/2017
