Source: USDA Branded Food Products Database Release December 2017 Software v.3.8.6.4 2017-10-02
Report Run at: December 17, 2017 12:32 EST
"Nutrient data for: 45240343, LUCOZADE, ENERGY, SPARKLING LEMON AND RED BERRY FLAVOUR GLUCOSE DRINK WITH SUGAR AND SWEETENERS, PINK LEMONADE, UPC: 5054267000872"
Food Group:  Branded Food Products Database
Common Name:

Nutrient,Unit,Data points,Std. Error,"100.0 MLT = 100.0g",1Value per 100 g,
Proximates
"Energy",kcal,--,--,41,41
"Protein",g,--,--,0.01,0.01
"Total lipid (fat)",g,--,--,0.00,0.00
"Carbohydrate, by difference",g,--,--,9.70,9.70
"Sugars, total",g,--,--,6.80,6.80
Minerals
Vitamins
Lipids
"Fatty acids, total saturated",g,--,--,0.000,0.000
Amino Acids
Other
Ingredients
"CARBONATED WATER, GLUCOSE FRUCTOSE SYRUP (14%), FRUIT JUICES FROM CONCENTRATE (1.5%) (LEMON, CRANBERRY, RASPBERRY), ACID (CITRIC ACID), COMMINUTED LEMON (0.5%), FLAVOURINGS, SWEETENERS (ACESULFAME K, SUCRALOSE), PRESERVATIVE (POTASSIUM SORBATE), CAFFEINE, COLOUR (ANTHOCYANINS), STABILISERS (LOCUST BEAN GUM, ACACIA GUM, GLYCEROL ESTERS OF WOOD ROSINS)." Date available: 07/14/2017 Date last updated by company: 07/14/2017
