Source: USDA Branded Food Products Database Release December 2017 Software v.3.8.6.4 2017-10-02
Report Run at: December 17, 2017 12:37 EST
"Nutrient data for: 45239270, LUNA POPS, POPS, SEA SALT CARAMEL, UPC: 856767003231"
Food Group:  Branded Food Products Database
Common Name:

Nutrient,Unit,Data points,Std. Error,"1 POP = 90.0g",1Value per 100 g,
Proximates
"Energy",kcal,--,--,130,144
"Protein",g,--,--,2.00,2.22
"Total lipid (fat)",g,--,--,4.50,5.00
"Carbohydrate, by difference",g,--,--,20.00,22.22
"Fiber, total dietary",g,--,--,0.0,0.0
"Sugars, total",g,--,--,18.00,20.00
Minerals
"Calcium, Ca",mg,--,--,80,89
"Iron, Fe",mg,--,--,0.00,0.00
"Sodium, Na",mg,--,--,140,156
Vitamins
"Vitamin C, total ascorbic acid",mg,--,--,0.0,0.0
"Vitamin A, IU",IU,--,--,0,0
Lipids
"Fatty acids, total saturated",g,--,--,0.000,0.000
"Fatty acids, total trans",g,--,--,0.000,0.000
"Cholesterol",mg,--,--,0,0
Amino Acids
Other
Ingredients
"CREAM BASE (CREAM, MILK, CORN SYRUP, SUGAR, SWEET DAIRY WHEY, STABILIZERS AND EMULSIFIERS TO IMPROVE TEXTURE (MONO-DIGLYCERIDES, CELLULOSE GUM, GUAR GUM, CALCIUM SULFATE, CARAGEENAN)), WATER, ORGANIC EVAPORATED CANE JUICE, SEA SALT, XANTHAN GUM" Date available: 07/14/2017 Date last updated by company: 07/14/2017
