Source: USDA Branded Food Products Database Release December 2017 Software v.3.8.6.4 2017-10-02
Report Run at: December 17, 2017 12:38 EST
"Nutrient data for: 45186812, LUNCH BUNDLE, BAGELATOR, UPC: 852035004054"
Food Group:  Branded Food Products Database
Common Name:

Nutrient,Unit,Data points,Std. Error,"1 SERVING = 112.0g",1Value per 100 g,
Proximates
"Energy",kcal,--,--,390,348
"Protein",g,--,--,10.00,8.93
"Total lipid (fat)",g,--,--,15.00,13.39
"Carbohydrate, by difference",g,--,--,56.00,50.00
"Fiber, total dietary",g,--,--,4.0,3.6
"Sugars, total",g,--,--,20.00,17.86
Minerals
"Calcium, Ca",mg,--,--,100,89
"Iron, Fe",mg,--,--,5.62,5.02
"Sodium, Na",mg,--,--,530,473
Vitamins
"Vitamin C, total ascorbic acid",mg,--,--,3.0,2.7
"Vitamin A, IU",IU,--,--,1250,1116
Lipids
"Fatty acids, total saturated",g,--,--,4.995,4.460
"Fatty acids, total trans",g,--,--,0.000,0.000
"Cholesterol",mg,--,--,15,13
Amino Acids
Other
Ingredients
"LOW FAT CREAM CHEESE: PASTEURIZED CULTURED SKIM MILK AND CREAM, WHEY, SALT, MODIFIED FOOD STARCH, STABILIZER (XANTHAN, LOCUST BEAN AND GUAR GUMS), ANTIOXIDANT SUPERFOOD MIX: DRIED CURRANT DRIED CRANBERRY AND BLUEBERRIES (CRANBERRY, BLUEBERRIES, SUGAR, CITRIC ACID, NATURAL FLAVORS, ELDERBERRY JUICE CONCENTRATE (COLOR), SUNFLOWER OIL), PUMPKIN SEEDS (PUMPKIN SEEDS, SEA SALT. CHOCOLATE COVERED PRETZELS; NATURAL MILK CHOCOLATE [SUGAR, COCOA, BUTTER MILK, CHOCOLATE LIQUOR, SOY LECITHIN (EMULSIFIER), VANILLA, SALT), PRETZELS (ENRICHED WHEAT FLOUR (WHEAT FLOUR, NIACIN, REDUCED IRON, THIAMINE MONONITRATE, RIBOFLAVIN, FOLIC ACID), CORN SYRUP, VEGETABLE OIL, SALT, SODIUM BICARBONATE, YEAST. VEGGIE STICKS: SWEET POTATO, TARO, PURPLE SWEET POTATO, GREEN BEANS, CANOLA OIL, MALTOSE DEXTRIN, SEA SALT. BAGEL CHIPS: ENRICHED WHEAT FLOUR (WHEAT FLOUR, NIACIN, REDUCED IRON, THIAMIN MONONITRATE, RIBOFLAVIN, FOLIC ACID), SUNFLOWER OIL AND/OR CANOLA OIL, ORGANIC CANE SUGAR, WHEAT GLUTEN, SEA SALT, AND LESS THAN 2% OF THE FOLLOWING: MALT EXTRACT, YEAST, MALTED BARLEY FLOUR, ROSEMARY EXTRACT, AND ASCORBIC ACID. NATURAL CORN CEREAL: CORN MEAL, OATS, WHOLE GRAIN OAT BRAN, SUGAR, CORN BRAN, CORN STARCH MODIFIED, CORN SYRUP, SALT, TRISODIUM PHOSPHATE, VITAMIN E (MIXED TOCOPHEROLS; NATURALLY PRESERVES FRESHNESS)." Date available: 07/14/2017 Date last updated by company: 07/14/2017
