Source: USDA Branded Food Products Database Release December 2017 Software v.3.8.6.4 2017-10-02
Report Run at: December 17, 2017 12:39 EST
"Nutrient data for: 45049282, LUNCHEON MEAT, UPC: 075069153431"
Food Group:  Branded Food Products Database
Common Name:

Nutrient,Unit,Data points,Std. Error,"2.0 ONZ = 56.0g",1Value per 100 g,
Proximates
"Energy",kcal,--,--,120,214
"Protein",g,--,--,8.00,14.29
"Total lipid (fat)",g,--,--,10.00,17.86
"Carbohydrate, by difference",g,--,--,1.00,1.79
"Sugars, total",g,--,--,1.00,1.79
Minerals
"Calcium, Ca",mg,--,--,60,107
"Iron, Fe",mg,--,--,0.71,1.26
"Sodium, Na",mg,--,--,570,1018
Vitamins
Lipids
"Fatty acids, total saturated",g,--,--,2.498,4.460
"Fatty acids, total trans",g,--,--,0.000,0.000
"Cholesterol",mg,--,--,75,134
Amino Acids
Other
Ingredients
"MECHANICALLY SEPARATED CHICKEN, SALT, CONTAINS 2% OR LESS OF: SUGAR, SODIUM PHOSPHATES, SPICES, SODIUM ERYTHORBATE, SODIUM NITRITE." Date available: 08/31/2017 Date last updated by company: 08/31/2017
