Source: USDA Branded Food Products Database Release December 2017 Software v.3.8.6.4 2017-10-02
Report Run at: December 17, 2017 12:41 EST
"Nutrient data for: 45024983, LUNDBERG, ORGANIC SHORT GRAIN BROWN RICE, UPC: 000000039536"
Food Group:  Branded Food Products Database
Common Name:

Nutrient,Unit,Data points,Std. Error,"0.25 cup = 51.0g",1Value per 100 g,
Proximates
"Energy",kcal,--,--,170,333
"Protein",g,--,--,3.00,5.88
"Total lipid (fat)",g,--,--,1.50,2.94
"Carbohydrate, by difference",g,--,--,40.00,78.43
"Fiber, total dietary",g,--,--,3.0,5.9
Minerals
"Iron, Fe",mg,--,--,0.72,1.41
Vitamins
Lipids
Amino Acids
Other
Ingredients
"ORGANIC SHORT GRAIN BROWN RICE" Date available: 09/23/2016 Date last updated by company: 09/23/2016
