Source: USDA Branded Food Products Database Release December 2017 Software v.3.8.6.4 2017-10-02
Report Run at: December 17, 2017 12:41 EST
"Nutrient data for: 45084258, LUNDBERG, ORGANIC BROWN RICE PASTA AND SAUCE MIX, UPC: 073416020726"
Food Group:  Branded Food Products Database
Common Name:

Nutrient,Unit,Data points,Std. Error,"1 CUP AS PREPARED = 64.0g",1Value per 100 g,
Proximates
"Energy",kcal,--,--,220,344
"Protein",g,--,--,5.00,7.81
"Total lipid (fat)",g,--,--,3.50,5.47
"Carbohydrate, by difference",g,--,--,46.00,71.88
"Fiber, total dietary",g,--,--,4.0,6.2
"Sugars, total",g,--,--,2.00,3.12
Minerals
"Calcium, Ca",mg,--,--,20,31
"Iron, Fe",mg,--,--,3.94,6.15
"Sodium, Na",mg,--,--,440,688
Vitamins
"Vitamin C, total ascorbic acid",mg,--,--,7.9,12.3
"Vitamin A, IU",IU,--,--,0,0
Lipids
"Fatty acids, total saturated",g,--,--,0.499,0.780
"Fatty acids, total trans",g,--,--,0.000,0.000
"Cholesterol",mg,--,--,0,0
Amino Acids
Other
Ingredients
"ORGANIC BROWN RICE PASTA (ORGANIC BROWN RICE FLOUR), ORGANIC DRIED GARLIC, ORGANIC CORN STARCH, ORGANIC DRIED ONION, SEA SALT, ORGANIC DRIED CANE SYRUP, ORGANIC BROWN RICE FLOUR, ORGANIC MUSHROOM EXTRACT, ORGANIC SPICES (PARSLEY, PEPPER) ORGANIC RICE CONCENTRATE, ORGANIC OLIVE OIL, ORGANIC SESAME OIL." Date available: 06/25/2017 Date last updated by company: 06/25/2017
