Source: USDA Branded Food Products Database Release December 2017 Software v.3.8.6.4 2017-10-02
Report Run at: December 17, 2017 12:46 EST
"Nutrient data for: 45156610, LUNDS & BYERLYS, SPICE DROPS, UPC: 072431018176"
Food Group:  Branded Food Products Database
Common Name:

Nutrient,Unit,Data points,Std. Error,"8.0 PC'S = 23.0g",1Value per 100 g,
Proximates
"Energy",kcal,--,--,80,348
"Protein",g,--,--,0.00,0.00
"Total lipid (fat)",g,--,--,0.00,0.00
"Carbohydrate, by difference",g,--,--,20.00,86.96
"Fiber, total dietary",g,--,--,0.0,0.0
"Sugars, total",g,--,--,13.00,56.52
Minerals
"Calcium, Ca",mg,--,--,0,0
"Iron, Fe",mg,--,--,0.00,0.00
"Sodium, Na",mg,--,--,0,0
Vitamins
"Vitamin C, total ascorbic acid",mg,--,--,0.0,0.0
"Vitamin A, IU",IU,--,--,0,0
Lipids
"Fatty acids, total saturated",g,--,--,0.000,0.000
"Fatty acids, total trans",g,--,--,0.000,0.000
"Cholesterol",mg,--,--,0,0
Amino Acids
Other
Ingredients
"CORN SYRUP, SUGAR, MODIFIED FOOD STARCH (CORN), NATURAL AND ARTIFICIAL FLAVORS, RED 40, YELLOW 5, BLUE 1, SODIUM CITRATE." Date available: 07/14/2017 Date last updated by company: 07/14/2017
