Source: USDA Branded Food Products Database Release December 2017 Software v.3.8.6.4 2017-10-02
Report Run at: December 17, 2017 12:42 EST
"Nutrient data for: 45255336, LUNDS & BYERLYS, BY THE BAY SEAFOOD SEASONING, UPC: 072431000799"
Food Group:  Branded Food Products Database
Common Name:

Nutrient,Unit,Data points,Std. Error,"3.2 ONZ = 90.0g",1Value per 100 g,
Proximates
Minerals
Vitamins
Lipids
Amino Acids
Other
Ingredients
"SEA SALT, CELERY SEED, PAPRIKA, YELLOW MUSTARD, PEPPER, BAY LEAF, GINGER, MACE, ALLSPICE, CINNAMON, CLOVE, CARDAMOM AND CAYENNE." Date available: 10/08/2016 Date last updated by company: 10/08/2016
