Source: USDA Branded Food Products Database Release December 2017 Software v.3.8.6.4 2017-10-02
Report Run at: December 17, 2017 12:42 EST
"Nutrient data for: 45156611, LUNDS & BYERLYS, COOKIE DOUGH, MILK CHOCOLATE, UPC: 072431018039"
Food Group:  Branded Food Products Database
Common Name:

Nutrient,Unit,Data points,Std. Error,"15.0 PC'S = 30.0g",1Value per 100 g,
Proximates
"Energy",kcal,--,--,150,500
"Protein",g,--,--,1.00,3.33
"Total lipid (fat)",g,--,--,8.00,26.67
"Carbohydrate, by difference",g,--,--,20.00,66.67
"Fiber, total dietary",g,--,--,0.8,2.8
"Sugars, total",g,--,--,16.00,53.33
Minerals
"Calcium, Ca",mg,--,--,20,67
"Iron, Fe",mg,--,--,1.20,4.00
"Sodium, Na",mg,--,--,40,133
Vitamins
"Vitamin C, total ascorbic acid",mg,--,--,0.0,0.0
"Vitamin A, IU",IU,--,--,83,278
Lipids
"Fatty acids, total saturated",g,--,--,3.999,13.330
"Fatty acids, total trans",g,--,--,0.000,0.000
"Cholesterol",mg,--,--,5,17
Amino Acids
Other
Ingredients
"MILK CHOCOLATE (SUGAR, COCOA BUTTER, MILK, CHOCOLATE LIQUOR, SOY LECITHIN (AN, EMULSIFIER), VANILLA (AN ARTIFICIAL FLAVOR)), COOKIE DOUGH (WHEAT FLOUR, BROWN SUGAR, PARTIALLY HYDROGENATED SOYBEAN AND/OR COTTONSEED OIL, CHOCOLATE CHIPS (SUGAR, CHOCOLATE LIQUOR, COCOA BUTTER, SOY LECITHIN), GLYCERIN, SUGAR, HIGH FRUCTOSE CORN SYRUP, NATURAL FLAVOR, SALT, SODIUM BICARBONATE), GUM ARABIC, CORN SYRUP, SUGAR, CERTIFIED CONFECTIONER'S GLAZE (FOOD GRADE LAC RESIN)." Date available: 07/14/2017 Date last updated by company: 07/14/2017
