Source: USDA Branded Food Products Database Release December 2017 Software v.3.8.6.4 2017-10-02
Report Run at: December 17, 2017 12:44 EST
"Nutrient data for: 45154717, LUNDS & BYERLYS, MINI COOKIES, BLUEBERRY, LEMON, UPC: 018169483084"
Food Group:  Branded Food Products Database
Common Name:

Nutrient,Unit,Data points,Std. Error,"1 COOKIES = 14.0g",1Value per 100 g,
Proximates
"Energy",kcal,--,--,60,429
"Protein",g,--,--,1.00,7.14
"Total lipid (fat)",g,--,--,2.00,14.29
"Carbohydrate, by difference",g,--,--,8.00,57.14
"Fiber, total dietary",g,--,--,0.0,0.0
"Sugars, total",g,--,--,4.00,28.57
Minerals
"Calcium, Ca",mg,--,--,0,0
"Iron, Fe",mg,--,--,0.00,0.00
"Sodium, Na",mg,--,--,40,286
Vitamins
"Vitamin C, total ascorbic acid",mg,--,--,0.0,0.0
"Vitamin A, IU",IU,--,--,0,0
Lipids
"Fatty acids, total saturated",g,--,--,1.000,7.140
"Fatty acids, total trans",g,--,--,0.000,0.000
"Cholesterol",mg,--,--,6,43
Amino Acids
Other
Ingredients
"ALL PURPOSE FLOUR (WHEAT FLOUR, MALTED BARLEY FLOUR, NIACIN, REDUCED IRON, THIAMIN MONONITRATE, RIBOFLAVIN, FOLIC ACID), CANE SUGAR, DRIED BLUEBERRIES (BLUEBERRIES, SUGAR, SUNFLOWER OIL), SALTED BUTTER (PASTEURIZED CREAM [MILK], SALT), SOYBEAN OIL, WHOLE EGGS, CREAM CHEESE (PASTEURIZED MILK & CREAM, CHEESE CULTURE, SALT, CAROB BEAN GUM), LEMON JUICE, WHOLE MILK (MILK, VITAMIN A PALMITATE, VITAMIN D3), LEMON RAPPE (LEMON PEEL, SUGAR, WATER, NATURAL LEMON FLAVOR, ACIDULANT [CITRIC ACID], POTASSIUM SORBATE [PRESERVATIVE], BETA CAROTENE [COLOR]), VANILLA EXTRACT (VANILLA BEAN EXTRACTIVES, CORN SYRUP, ETHYL ALCOHOL, WATER), SODIUM BICARBONATE, SALT, BAKING POWDER (CORNSTARCH, SODIUM BICARBONATE, SODIUM ALUMINUM SULFATE, MONOCALCIUM PHOSPHATE), NATURAL BLUEBERRY FLAVOR." Date available: 07/14/2017 Date last updated by company: 07/14/2017
