Source: USDA Branded Food Products Database Release December 2017 Software v.3.8.6.4 2017-10-02
Report Run at: December 17, 2017 21:29 EST
"Nutrient data for: 45248495, M&M'S, MILK CHOCOLATE CANDIES, UPC: 040000499916"
Food Group:  Branded Food Products Database
Common Name:

Nutrient,Unit,Data points,Std. Error,"1 PACK = 47.9g",1Value per 100 g,
Proximates
"Energy",kcal,--,--,230,480
"Protein",g,--,--,2.00,4.18
"Total lipid (fat)",g,--,--,9.00,18.79
"Carbohydrate, by difference",g,--,--,35.00,73.07
"Fiber, total dietary",g,--,--,1.0,2.1
"Sugars, total",g,--,--,31.00,64.72
Minerals
"Calcium, Ca",mg,--,--,40,84
"Iron, Fe",mg,--,--,0.38,0.79
"Sodium, Na",mg,--,--,35,73
Vitamins
"Vitamin C, total ascorbic acid",mg,--,--,1.2,2.5
"Vitamin A, IU",IU,--,--,104,218
Lipids
"Fatty acids, total saturated",g,--,--,5.001,10.440
"Fatty acids, total trans",g,--,--,0.000,0.000
"Cholesterol",mg,--,--,5,10
Amino Acids
Other
Ingredients
"MILK CHOCOLATE (SUGAR, CHOCOLATE, SKIM MILK, COCOA BUTTER, LACTOSE, MILKFAT, SOY LECITHIN, SALT, ARTIFICIAL FLAVORS), SUGAR, CORNSTARCH, LESS THAN 1% - CORN SYRUP, DEXTRIN, COLORING (INCLUDES BLUE 1 LAKE, YELLOW 6, RED 40, YELLOW 5, BLUE 1, RED 40 LAKE, BLUE 2 LAKE, YELLOW 6 LAKE, YELLOW 5 LAKE, BLUE 2), GUM ACACIA." Date available: 07/14/2017 Date last updated by company: 07/14/2017
