Source: USDA Branded Food Products Database Release December 2017 Software v.3.8.6.4 2017-10-02
Report Run at: December 17, 2017 13:07 EST
"Nutrient data for: 45284693, MAC & CHEESE PESTO, UPC: 018894360247"
Food Group:  Branded Food Products Database
Common Name:

Nutrient,Unit,Data points,Std. Error,"1 CUP (200G) | PREPARED ABOUT = 74.0g",1Value per 100 g,
Proximates
"Energy",kcal,--,--,280,378
"Protein",g,--,--,10.00,13.51
"Total lipid (fat)",g,--,--,6.00,8.11
"Carbohydrate, by difference",g,--,--,45.00,60.81
"Fiber, total dietary",g,--,--,2.0,2.7
"Sugars, total",g,--,--,6.00,8.11
Minerals
"Calcium, Ca",mg,--,--,80,108
"Iron, Fe",mg,--,--,6.08,8.22
"Sodium, Na",mg,--,--,750,1014
Vitamins
"Vitamin C, total ascorbic acid",mg,--,--,0.0,0.0
"Vitamin A, IU",IU,--,--,0,0
Lipids
"Fatty acids, total saturated",g,--,--,1.998,2.700
"Fatty acids, total trans",g,--,--,0.000,0.000
"Cholesterol",mg,--,--,5,7
Amino Acids
Other
Ingredients
"MACARONI (DURUM WHEAT SEMOLINA), PROCESS CHEESE FOOD IN POWDER [CHEDDAR CHEESE AND GOUDA CHEESE BLEND (PASTEURIZED MILK, SALT, CHEESE CULTURES, ENZYMES), WHEY POWDER, SALT, SODIUM CITRATE, DISODIUM PHOSPHATE] POWDERED SUNFLOWER OIL PREPARATION (SUNFLOWER OIL, GLUCOSE SYRUP SODIUM CASEINATE, SILICON DIOXIDE), WHEY POWDER, NATURAL FLAVORS, POTATO STARCH, SALT, DEHYDRATED SPINACH, DEHYDRATED BASIL, ONION POWDER, GARLIC POWDER, YEAST EXTRACT, TURMERIC POWDER." Date available: 07/14/2017 Date last updated by company: 07/14/2017
