Source: USDA Branded Food Products Database Release December 2017 Software v.3.8.6.4 2017-10-02
Report Run at: December 17, 2017 13:08 EST
"Nutrient data for: 45291315, MAC & CHEESE SNACKS, MADE WITH REAL CHEESE, UPC: 028400666336"
Food Group:  Branded Food Products Database
Common Name:

Nutrient,Unit,Data points,Std. Error,"3.0 PIECES | ABOUT = 81.0g",1Value per 100 g,
Proximates
"Energy",kcal,--,--,260,321
"Protein",g,--,--,6.00,7.41
"Total lipid (fat)",g,--,--,13.00,16.05
"Carbohydrate, by difference",g,--,--,27.00,33.33
"Fiber, total dietary",g,--,--,5.0,6.2
"Sugars, total",g,--,--,3.00,3.70
Minerals
"Calcium, Ca",mg,--,--,100,123
"Iron, Fe",mg,--,--,1.20,1.48
"Potassium, K",mg,--,--,120,148
"Sodium, Na",mg,--,--,520,642
Vitamins
"Vitamin D",IU,--,--,0,0
Lipids
"Fatty acids, total saturated",g,--,--,4.001,4.940
"Fatty acids, total trans",g,--,--,0.000,0.000
"Cholesterol",mg,--,--,10,12
Amino Acids
Other
Ingredients
"WATER, ENRICHED FLOUR (BLEACHED WHEAT FLOUR, NIACIN, FERROUS SULFATE, THIAMIN MONONITRATE, RIBOFLAVIN, FOLIC ACID), SOYBEAN OIL, ENRICHED DURUM SEMOLINA WHEAT FLOUR (DURUM SEMOLINA WHEAT FLOUR, NIACIN, FERROUS SULFATE, THIAMIN MONONITRATE, RIBOFLAVIN, FOLIC ACID), CHEDDAR CHEESE (PASTEURIZED MILK, CHEESE CULTURES, SALT, ENZYMES), BLEACHED WHEAT FLOUR, YELLOW CORN FLOUR, WHEY, AND LESS THAN 2% OF THE FOLLOWING: MILK PROTEIN CONCENTRATE, CANOLA OIL, ENZYME MODIFIED CHEESE (PASTEURIZED MILK, WATER, SODIUM PHOSPHATE, MILK FAT, SALT, CHEESE CULTURES, ENZYMES), SODIUM PHOSPHATE, SODIUM HEXAMETAPHOSPHATE, SALT, MALIC ACID, LACTIC ACID, SORBIC ACID (PRESERVATIVE), ARTIFICIAL COLOR (YELLOW 5, YELLOW 5 LAKE, YELLOW 6, YELLOW 6 LAKE), SPICES, YEAST, SUGAR, ONION POWDER, CITRIC ACID, NATURAL AND ARTIFICIAL FLAVORS, MALTODEXTRIN, MODIFIED POTATO STARCH, MODIFIED POTATO STARCH, MODIFIED CORN STARCH, MEDIUM CHAIN TRIGLYCERIDES, DEXTROSE, LEAVENING AGENTS (SODIUM ACID PYROPHOSPHATE, BAKING SODA, MONOCALCIUM PHOSPHATE), BUTTERMILK, GRANULAR CHEESE (PASTEURIZED MILK, CHEESE CULTURES, SALT, ENZYMES), WHEY PROTEIN CONCENTRATE, ENZYME, CHEDDAR CHEESE (MILK, CHEESE CULTURES, SALT, ENZYMES), SEMI-SOFT CHEESE (PASTEURIZED MILK, CHEESE CULTURES, SALT, ENZYMES), CELLULOSE GUM, DISODIUM PHOSPHATE, MODIFIED CELLULOSE, SOY LECITHIN, COCONUT OIL, BUTTER (CREAM, SALT), UNSALTED BUTTER (PASTEURIZED CREAM, NATURAL FLAVOR), SKIM MILK, MONOSODIUM GLUTAMATE, RICE FLOUR, GUM ACACIA, TAPIOCA DEXTRIN, CORN STARCH, CORN SYRUP SOLIDS, DL-ALPHA-TOCOPHEROLS, XANTHAN GUM, REDUCED IRON, AND EGG." Date available: 09/22/2017 Date last updated by company: 09/22/2017
