Source: USDA Branded Food Products Database Release December 2017 Software v.3.8.6.4 2017-10-02
Report Run at: December 17, 2017 13:09 EST
"Nutrient data for: 45331082, MAC & CHEESE, UPC: 078742249636"
Food Group:  Branded Food Products Database
Common Name:

Nutrient,Unit,Data points,Std. Error,"1 cup = 244.0g",1Value per 100 g,
Proximates
"Energy",kcal,--,--,439,180
"Protein",g,--,--,17.01,6.97
"Total lipid (fat)",g,--,--,24.01,9.84
"Carbohydrate, by difference",g,--,--,38.99,15.98
"Fiber, total dietary",g,--,--,1.0,0.4
"Sugars, total",g,--,--,6.00,2.46
Minerals
"Calcium, Ca",mg,--,--,388,159
"Iron, Fe",mg,--,--,2.00,0.82
"Potassium, K",mg,--,--,210,86
"Sodium, Na",mg,--,--,1549,635
Vitamins
"Vitamin D",IU,--,--,0,0
Lipids
"Fatty acids, total saturated",g,--,--,11.004,4.510
"Fatty acids, total trans",g,--,--,0.488,0.200
"Cholesterol",mg,--,--,49,20
Amino Acids
Other
Ingredients
"MAC AND CHEESE: WATER, PASTA (SEMOLINA [WHEAT], EGG WHITES, NIACIN, IRON [FERROUS SULFATE], THIAMINE MONONITRATE, RIBOFLAVIN, FOLIC ACID), PASTEURIZED PROCESS WHITE CHEDDAR CHEESE (CHEDDAR CHEESE [PASTEURIZED MILK, CHEESE CULTURE, SALT, ENZYMES], WATER, SODIUM PHOSPHATE, MILKFAT, SALT), WHOLE MILK (MILK, VITAMIN D3), HAVARTI CHEESE (PASTEURIZED MILK, CHEESE CULTURE, SALT, ENZYMES), SOYBEAN OIL, SWEET WHEY, MODIFIED CORNSTARCH, CREAM CHEESE (PASTEURIZED MILK AND CREAM, CHEESE CULTURE, SALT, GUAR GUM, CAROB BEAN, XANTHAN GUM), GRATED PARMESAN/ROMANO CHEESE BLEND (PARMESAN AND ROMANO CHEESE MADE WITH COW'S MILK [PASTEURIZED MILK, CHEESE CULTURES, SALT, ENZYMES], POWDERED CELLULOSE [TO PREVENT CAKING]), SALT, EMULSIFIER BLEND (SODIUM POLYPHOSPHATE, SODIUM PHOSPHATE), SOY LECITHIN, SPICE. PANKO BREADCRUMBS: BLEACHED WHEAT FLOUR, CANE SUGAR, YEAST, SALT." Date available: 10/13/2017 Date last updated by company: 10/13/2017
