Source: USDA Branded Food Products Database Release December 2017 Software v.3.8.6.4 2017-10-02
Report Run at: December 17, 2017 13:07 EST
"Nutrient data for: 45324418, MAC & CHEESE HATCH CHILE, UPC: 024812501166"
Food Group:  Branded Food Products Database
Common Name:

Nutrient,Unit,Data points,Std. Error,"1 PACKAGE = 255.0g",1Value per 100 g,
Proximates
"Energy",kcal,--,--,411,161
"Protein",g,--,--,13.01,5.10
"Total lipid (fat)",g,--,--,23.00,9.02
"Carbohydrate, by difference",g,--,--,37.00,14.51
"Fiber, total dietary",g,--,--,4.1,1.6
"Sugars, total",g,--,--,3.01,1.18
Minerals
"Calcium, Ca",mg,--,--,219,86
"Iron, Fe",mg,--,--,1.91,0.75
"Potassium, K",mg,--,--,270,106
"Sodium, Na",mg,--,--,839,329
Vitamins
"Vitamin D",IU,--,--,0,0
Lipids
"Fatty acids, total saturated",g,--,--,12.011,4.710
"Fatty acids, total trans",g,--,--,0.510,0.200
"Cholesterol",mg,--,--,64,25
Amino Acids
Other
Ingredients
"COOKED PASTA (WATER, DURUM WHEAT SEMOLINA), WATER, ROASTED HATCH CHILE PEPPERS, WHITE CHEDDAR CHEESE (CHEDDAR CHEESE [PASTEURIZED MILK, CULTURES, SALT, ENZYMES], NATAMYCIN* [NATURAL MOLD INHIBITOR]), CREAM, CARAMELIZED ONIONS (ONIONS, ONION FLAVORING [GUM ARABIC, FLAVORINGS, RICE CONCENTRATE]), ROASTED ANAHEIM CHILE PEPPER PUREE, ROASTED POBLANO CHILE PEPPER PUREE, LESS THAN 2% OF: BUTTER (CREAM), CORN STARCH, SEA SALT, SPICES, GARLIC POWDER, ONION POWDER." Date available: 09/25/2017 Date last updated by company: 09/25/2017
