Source: USDA Branded Food Products Database Release December 2017 Software v.3.8.6.4 2017-10-02
Report Run at: December 17, 2017 13:05 EST
"Nutrient data for: 45284913, MACARONI SALAD, UPC: 825779020116"
Food Group:  Branded Food Products Database
Common Name:

Nutrient,Unit,Data points,Std. Error,"8.0 ONZ = 227.0g",1Value per 100 g,
Proximates
"Energy",kcal,--,--,370,163
"Protein",g,--,--,7.99,3.52
"Total lipid (fat)",g,--,--,17.00,7.49
"Carbohydrate, by difference",g,--,--,45.99,20.26
"Fiber, total dietary",g,--,--,3.0,1.3
"Sugars, total",g,--,--,6.99,3.08
Minerals
"Calcium, Ca",mg,--,--,41,18
"Iron, Fe",mg,--,--,1.66,0.73
"Sodium, Na",mg,--,--,770,339
Vitamins
"Vitamin C, total ascorbic acid",mg,--,--,11.1,4.9
"Vitamin A, IU",IU,--,--,247,109
Lipids
"Fatty acids, total saturated",g,--,--,2.497,1.100
"Fatty acids, total monounsaturated",g,--,--,5.993,2.640
"Fatty acids, total polyunsaturated",g,--,--,7.990,3.520
"Fatty acids, total trans",g,--,--,0.000,0.000
"Cholesterol",mg,--,--,9,4
Amino Acids
Other
Ingredients
"ELBOW MACARONI (SEMOLINA FROM DURUM WHEAT, FERROUS SULFATE, NIACIN, THIAMINE MONONITRATE, RIBOFLAVIN, FOLIC ACID), RED AND GREEN PEPPER, YELLOW ONION, CELERY, BEST FOODS MAYONNAISE (SOYBEAN, WHOLE EGGS, EGG YOLK, WATER, VINEGAR, SALT, SUGAR, LEMON JUICE, NATURAL FLAVORS, CALCIUM DISODIUM EDTA [TO PROTECT FLAVOR], CLASSIC MUSTARD, WHITE WINE VINEGAR (DILUTED WITH WATER TO 5% ACIDITY AND POTASSIUM METABISULFITE), BLACK PEPPER." Date available: 07/14/2017 Date last updated by company: 07/14/2017
