Source: USDA Branded Food Products Database Release December 2017 Software v.3.8.6.4 2017-10-02
Report Run at: December 17, 2017 13:04 EST
"Nutrient data for: 45053890, MACARONI SALAD, UPC: 041497058396"
Food Group:  Branded Food Products Database
Common Name:

Nutrient,Unit,Data points,Std. Error,"0.5 cup = 136.0g",1Value per 100 g,
Proximates
"Energy",kcal,--,--,320,235
"Protein",g,--,--,4.00,2.94
"Total lipid (fat)",g,--,--,17.00,12.50
"Carbohydrate, by difference",g,--,--,37.01,27.21
"Fiber, total dietary",g,--,--,1.0,0.7
"Sugars, total",g,--,--,15.00,11.03
Minerals
"Calcium, Ca",mg,--,--,20,15
"Iron, Fe",mg,--,--,1.48,1.09
"Sodium, Na",mg,--,--,480,353
Vitamins
"Vitamin C, total ascorbic acid",mg,--,--,1.2,0.9
"Vitamin A, IU",IU,--,--,514,378
Lipids
"Fatty acids, total saturated",g,--,--,2.502,1.840
"Fatty acids, total trans",g,--,--,0.000,0.000
"Cholesterol",mg,--,--,20,15
Amino Acids
Other
Ingredients
"PASTA (DURUM WHEAT SEMOLINA, NIACIN, FERROUS SULFATE, THIAMINE MONONITRATE, RIBOFLAVIN, FOLIC ACID), DRESSING (SOYBEAN OIL, CORN SYRUP, VINEGAR, WATER, EGG YOLKS, MODIFIED CORN STARCH, SALT, MUSTARD FLOUR, ONION POWDER, NATURAL FLAVOR, CALCIUM DISODIUM EDTA [PRESERVATIVE]), SUGAR, RED ONION, WATER, MUSTARD (WATER, VINEGAR, MUSTARD SEED, SALT, TURMERIC, SPICES), CARROTS, PICKLE RELISH (CUCUMBERS, CORN SYRUPS, SUGAR, DISTILLED VINEGAR, SALT, PEPPERS, XANTHAN GUM, SODIUM BENZOATE [PRESERVATIVE], CALCIUM CHLORIDE, SPICES, NATURAL FLAVORS, POLYSORBATE 80), EGGS, SODIUM LACTATE, SODIUM DIACETATE, POTASSIUM SORBATE AND SODIUM BENZOATE (PRESERVATIVES), CELERY SEED, XANTHAN GUM (AS A THICKENER)." Date available: 08/11/2017 Date last updated by company: 08/11/2017
