Source: USDA Branded Food Products Database Release December 2017 Software v.3.8.6.4 2017-10-02
Report Run at: December 17, 2017 12:58 EST
"Nutrient data for: 45014846, MACARONI & CHEESE DINNER, UPC: 021130505982"
Food Group:  Branded Food Products Database
Common Name:

Nutrient,Unit,Data points,Std. Error,"2.5 ONZ = 70.0g",1Value per 100 g,
Proximates
"Energy",kcal,--,--,240,343
"Protein",g,--,--,8.00,11.43
"Total lipid (fat)",g,--,--,1.50,2.14
"Carbohydrate, by difference",g,--,--,48.00,68.57
"Fiber, total dietary",g,--,--,2.0,2.9
"Sugars, total",g,--,--,4.00,5.71
Minerals
"Calcium, Ca",mg,--,--,40,57
"Iron, Fe",mg,--,--,6.43,9.18
"Sodium, Na",mg,--,--,610,871
Vitamins
"Vitamin C, total ascorbic acid",mg,--,--,0.0,0.0
"Vitamin A, IU",IU,--,--,0,0
Lipids
"Fatty acids, total saturated",g,--,--,0.497,0.710
"Fatty acids, total trans",g,--,--,0.000,0.000
"Cholesterol",mg,--,--,5,7
Amino Acids
Other
Ingredients
"ENRICHED MACARONI (WHEAT FLOUR, NIACIN, IRON [FERROUS SULFATE], THIAMINE MONONITRATE, RIBOFLAVIN, FOLIC ACID), ENRICHED BLEACHED FLOUR (BLEACHED FLOUR, NIACIN, IRON, THIAMINE MONONITRATE, RIBOFLAVIN, FOLIC ACID), DAIRY PRODUCT SOLIDS, GRANULAR AND CHEDDAR CHEESE (MILK, CHEESE CULTURE, SALT, ENZYMES), WHEY, SALT, MODIFIED CORN STARCH, WHEY PROTEIN CONCENTRATE, DISODIUM PHOSPHATE, TETRASODIUM PHOSPHATE, TETRASODIUM PYROPHOSPHATE, SODIUM TRIPOLYPHOSPHATE, LACTIC ACID, CITRIC ACID, YELLOW 5 AND 6 (COLOR)." Date available: 08/11/2017 Date last updated by company: 08/11/2017
