Source: USDA Branded Food Products Database Release December 2017 Software v.3.8.6.4 2017-10-02
Report Run at: December 17, 2017 13:05 EST
"Nutrient data for: 45285447, MACARONI SALAD, UPC: 071117190441"
Food Group:  Branded Food Products Database
Common Name:

Nutrient,Unit,Data points,Std. Error,"0.666 cup = 145.0g",1Value per 100 g,
Proximates
"Energy",kcal,--,--,320,221
"Protein",g,--,--,6.00,4.14
"Total lipid (fat)",g,--,--,17.99,12.41
"Carbohydrate, by difference",g,--,--,35.00,24.14
"Fiber, total dietary",g,--,--,1.0,0.7
Minerals
"Calcium, Ca",mg,--,--,20,14
"Iron, Fe",mg,--,--,1.39,0.96
"Sodium, Na",mg,--,--,460,317
Vitamins
"Vitamin C, total ascorbic acid",mg,--,--,2.3,1.6
"Vitamin A, IU",IU,--,--,97,67
Lipids
"Fatty acids, total saturated",g,--,--,3.001,2.070
"Fatty acids, total trans",g,--,--,0.000,0.000
"Cholesterol",mg,--,--,55,38
Amino Acids
Other
Ingredients
"COOKED MACARONI (SEMOLINA WHEAT FLOUR [ENRICHED WITH NIACIN, IRON, THIAMINE MONONITRATE, RIBOFLAVIN, FOLIC ACID], EGG WHITE), MAYONNAISE (SOYBEAN OIL, WATER, EGG YOLKS, VINEGAR, SALT), SUGAR, HARD COOKED EGGS, RED BELL PEPPER, WATER, CARROT, MUSTARD (VINEGAR, WATER, MUSTARD SEEDS, SALT, TURMERIC, PAPRIKA, SPICE, GARLIC POWDER), ONION, VINEGAR, SALT, MODIFIED CORN STARCH, SODIUM BENZOATE (PRESERVATIVE), POTASSIUM SORBATE (PRESERVATIVE), XANTHAN GUM." Date available: 07/14/2017 Date last updated by company: 07/14/2017
