Source: USDA Branded Food Products Database Release December 2017 Software v.3.8.6.4 2017-10-02
Report Run at: December 17, 2017 13:02 EST
"Nutrient data for: 45078944, MACARONI & CHESSE, UPC: 041220301379"
Food Group:  Branded Food Products Database
Common Name:

Nutrient,Unit,Data points,Std. Error,"0.5 CUP SAUCE & 1/3 CUP CHEESE SAUCE = 98.0g",1Value per 100 g,
Proximates
"Energy",kcal,--,--,310,316
"Protein",g,--,--,12.00,12.24
"Total lipid (fat)",g,--,--,10.00,10.20
"Carbohydrate, by difference",g,--,--,44.00,44.90
"Fiber, total dietary",g,--,--,2.0,2.0
"Sugars, total",g,--,--,3.00,3.06
Minerals
"Calcium, Ca",mg,--,--,150,153
"Iron, Fe",mg,--,--,4.60,4.69
"Potassium, K",mg,--,--,210,214
"Sodium, Na",mg,--,--,870,888
Vitamins
"Vitamin C, total ascorbic acid",mg,--,--,0.0,0.0
"Vitamin A, IU",IU,--,--,3189,3254
Lipids
"Fatty acids, total saturated",g,--,--,3.499,3.570
"Fatty acids, total trans",g,--,--,0.000,0.000
"Cholesterol",mg,--,--,20,20
Amino Acids
Other
Ingredients
"ENRICHED MACARONI (WHEAT FLOUR, NIACIN, IRON, [FERROUS SULFATE], THIAMINE MONONITRATE, RIBOFLAVIN, FOLIC ACID), CHEDDAR CHEESE SAUCE (CHEDDAR CHEESE [MILK, CHEESE CULTURE, SALT, ENZYMES], WATER, WHEY, CANOLA OIL, SODIUM PHOSPHATE, SALT, WHEY, PROTEIN CONCENTRATE, CONTAINS 2% OR LESS OF MILK, SKIM MILK, SODIUM ALGINATE, LACTIC ACID, PRESERVATIVE [SORBIC ACID], CHEESE CULTURE, COLOR [APOCAROTENAL], ENZYMES)." Date available: 07/28/2017 Date last updated by company: 07/28/2017
