Source: USDA Branded Food Products Database Release December 2017 Software v.3.8.6.4 2017-10-02
Report Run at: December 17, 2017 12:59 EST
"Nutrient data for: 45215514, MACARONI & CHEESE DINNER, UPC: 077890347904"
Food Group:  Branded Food Products Database
Common Name:

Nutrient,Unit,Data points,Std. Error,"1 PACKAGE = 58.0g",1Value per 100 g,
Proximates
"Energy",kcal,--,--,230,397
"Protein",g,--,--,6.00,10.34
"Total lipid (fat)",g,--,--,4.00,6.90
"Carbohydrate, by difference",g,--,--,40.00,68.97
"Fiber, total dietary",g,--,--,1.0,1.7
"Sugars, total",g,--,--,6.00,10.34
Minerals
"Calcium, Ca",mg,--,--,60,103
"Iron, Fe",mg,--,--,6.21,10.70
"Potassium, K",mg,--,--,220,379
"Sodium, Na",mg,--,--,440,759
Vitamins
"Vitamin C, total ascorbic acid",mg,--,--,0.0,0.0
"Vitamin A, IU",IU,--,--,0,0
Lipids
"Fatty acids, total saturated",g,--,--,2.001,3.450
"Fatty acids, total trans",g,--,--,0.000,0.000
"Cholesterol",mg,--,--,0,0
Amino Acids
Other
Ingredients
"ENRICHED MACARONI PRODUCT (WHEAT FLOUR, DURUM FLOUR, NIACIN, FERROUS SULFATE, THIAMINE MONONITRATE, RIBOFLAVIN, FOLIC ACID), WHEY, CORN SYRUP SOLIDS, MODIFIED CORNSTARCH, CONTAINS 2% OR LESS OF PALM OIL, NATURAL FLAVORS, SALT, ACETYLATED MONOGLYCERIDES, POTASSIUM CHLORIDE, BUTTER (CREAM, SALT), SILICON DIOXIDE, MALTODEXTRIN, CHEDDAR CHEESE (PASTEURIZED MILK, CHEESE CULTURES, SALT, ENZYMES), MILK PROTEIN CONCENTRATE, NONFAT MILK, DISODIUM PHOSPHATE, MEDIUM CHAIN TRIGLYCERIDES, CITRIC ACID, LACTIC ACID, YELLOW 5, YELLOW 6 LAKE, YELLOW 5 LAKE, YELLOW 6, ARTIFICIAL FLAVOR, SOYBEAN OIL." Date available: 07/14/2017 Date last updated by company: 07/14/2017
