Source: USDA Branded Food Products Database Release December 2017 Software v.3.8.6.4 2017-10-02
Report Run at: December 17, 2017 12:54 EST
"Nutrient data for: 45258515, MACADAMIA MILK, UPC: 858045004213"
Food Group:  Branded Food Products Database
Common Name:

Nutrient,Unit,Data points,Std. Error,"240.0 ML = 8.0g",1Value per 100 g,
Proximates
"Energy",kcal,--,--,4,54
"Protein",g,--,--,0.13,1.67
"Total lipid (fat)",g,--,--,0.17,2.08
"Carbohydrate, by difference",g,--,--,0.57,7.08
"Fiber, total dietary",g,--,--,0.0,0.4
"Sugars, total",g,--,--,0.30,3.75
Minerals
"Calcium, Ca",mg,--,--,17,208
"Iron, Fe",mg,--,--,0.06,0.76
"Sodium, Na",mg,--,--,4,54
Vitamins
"Vitamin C, total ascorbic acid",mg,--,--,0.0,0.0
"Vitamin A, IU",IU,--,--,0,0
Lipids
"Fatty acids, total saturated",g,--,--,0.034,0.420
"Fatty acids, total trans",g,--,--,0.000,0.000
"Cholesterol",mg,--,--,0,0
Amino Acids
Other
Ingredients
"MACADAMIA MILK (FILTERED WATER, MACADAMIAS), VEGETABLE PROTEIN, CANE SUGAR, MALTODEXTRIN, SOLUBLE (CORN) FIBER, WHOLE GRAIN BROWN RICE SYRUP SOLIDS, TRICALCIUM PHOSPHATE, DIPOTASSIUM PHOSPHATE, SUNFLOWER LECITHIN, SODIUM CITRATE, GELLAN GUM, NATURAL FLAVOR." Date available: 07/14/2017 Date last updated by company: 07/14/2017
