Source: USDA Branded Food Products Database Release December 2017 Software v.3.8.6.4 2017-10-02
Report Run at: December 17, 2017 13:00 EST
"Nutrient data for: 45078989, MACARONI & CHEESE, UPC: 041220780679"
Food Group:  Branded Food Products Database
Common Name:

Nutrient,Unit,Data points,Std. Error,"0.333 BOX = 70.0g",1Value per 100 g,
Proximates
"Energy",kcal,--,--,250,357
"Protein",g,--,--,6.00,8.57
"Total lipid (fat)",g,--,--,1.00,1.43
"Carbohydrate, by difference",g,--,--,51.00,72.86
"Fiber, total dietary",g,--,--,3.0,4.3
"Sugars, total",g,--,--,2.00,2.86
Minerals
"Calcium, Ca",mg,--,--,40,57
"Iron, Fe",mg,--,--,9.65,13.78
"Sodium, Na",mg,--,--,580,829
Vitamins
"Vitamin C, total ascorbic acid",mg,--,--,0.0,0.0
"Vitamin A, IU",IU,--,--,0,0
Lipids
"Fatty acids, total saturated",g,--,--,0.000,0.000
"Fatty acids, total trans",g,--,--,0.000,0.000
"Cholesterol",mg,--,--,0,0
Amino Acids
Other
Ingredients
"INGREDIENTS:ENRICHED MACARONI [DURUM AND ENRICHED WHEAT FLOUR (NIACIN, FERROUS SULFATE, THIAMINE MONONITRATE, RIBOFLAVIN, FOLIC ACID)], CHEESE SAUCE MIX: MALTODEXTRIN, WHEY, SALT, CHEDDAR CHEESE (PASTEURIZED) MILK, CHEESE CULTURES, SALT, ENZYMES), CREAM, SODIUM PHOSPHATE, CITRIC ACID, YELLOW 5 &6, YELLOW 5 & 6 LAKE." Date available: 06/24/2017 Date last updated by company: 06/24/2017
