Source: USDA Branded Food Products Database Release December 2017 Software v.3.8.6.4 2017-10-02
Report Run at: December 17, 2017 12:59 EST
"Nutrient data for: 45274789, MACARONI & CHEESE LOAF, UPC: 076819000777"
Food Group:  Branded Food Products Database
Common Name:

Nutrient,Unit,Data points,Std. Error,"1 SLICE = 32.0g",1Value per 100 g,
Proximates
"Energy",kcal,--,--,90,281
"Protein",g,--,--,4.00,12.50
"Total lipid (fat)",g,--,--,7.00,21.88
"Carbohydrate, by difference",g,--,--,2.00,6.25
"Fiber, total dietary",g,--,--,0.0,0.0
"Sugars, total",g,--,--,0.00,0.00
Minerals
"Calcium, Ca",mg,--,--,40,125
"Iron, Fe",mg,--,--,0.00,0.00
"Sodium, Na",mg,--,--,310,969
Vitamins
"Vitamin C, total ascorbic acid",mg,--,--,0.0,0.0
"Vitamin A, IU",IU,--,--,0,0
Lipids
"Fatty acids, total saturated",g,--,--,3.002,9.380
"Fatty acids, total trans",g,--,--,0.000,0.000
"Cholesterol",mg,--,--,15,47
Amino Acids
Other
Ingredients
"BEEF AND PORK, WATER, PASTEURIZED CHEDDAR CHEESE (CHEDDAR CHEESE (CULTURED MILK, SALT, ENZYMES), CREAM, SODIUM PHOSPHATE, SALT, SORBIC ACID (PRESERVATIVE), APO-CAROTENAL AND BETA CAROTENE (COLOR)), MACARONI (WHEAT SEMOLINA, NIACIN, FOLIC ACID, FERROUS SULPHATE (IRON), RIBOFLAVIN, THIAMINE MONONITRATE), NONFAT DRY MILK, CORN SYRUP, SALT, SWEET RED PEPPERS (BELL PEPPERS, WATER, CITRIC ACID), DEXTROSE, SODIUM CITRATE, SPICES, SODIUM DIACETATE, ONION, SODIUM ERYTHORBATE, SPICE EXTRACTIVES, GARLIC, SODIUM NITRITE." Date available: 07/14/2017 Date last updated by company: 07/14/2017
