Source: USDA Branded Food Products Database Release December 2017 Software v.3.8.6.4 2017-10-02
Report Run at: December 17, 2017 13:02 EST
"Nutrient data for: 45261200, MACARONI & CHEESE, UPC: 60788003512"
Food Group:  Branded Food Products Database
Common Name:

Nutrient,Unit,Data points,Std. Error,"1 PKG = 58.0g",1Value per 100 g,
Proximates
"Energy",kcal,--,--,220,379
"Protein",g,--,--,6.00,10.34
"Total lipid (fat)",g,--,--,3.50,6.03
"Carbohydrate, by difference",g,--,--,41.00,70.69
"Fiber, total dietary",g,--,--,1.0,1.7
"Sugars, total",g,--,--,5.00,8.62
Minerals
"Calcium, Ca",mg,--,--,60,103
"Iron, Fe",mg,--,--,6.21,10.70
"Sodium, Na",mg,--,--,470,810
Vitamins
"Vitamin C, total ascorbic acid",mg,--,--,0.0,0.0
"Vitamin A, IU",IU,--,--,0,0
Lipids
"Fatty acids, total saturated",g,--,--,1.502,2.590
"Fatty acids, total trans",g,--,--,0.000,0.000
"Cholesterol",mg,--,--,0,0
Amino Acids
Other
Ingredients
"ENRICHED MACARONI PRODUCT (WHEAT FLOUR, DURUM WHEAT FLOUR, NIACIN, FERROUS SULFATE, THIAMINE MONONITRATE, RIBOFLAVIN, FOLIC ACID), WHEY, MALTODEXTRIN, PALM AND/OR SOYBEAN OIL, SALT, CHEDDAR AND BLUE CHEESES (PASTEURIZED MILK, SALT, ANNATTO EXTRACT, CHEESE CULTURES, ENZYMES), LACTOSE, MODIFIED TAROCA STARCH, EMULSIFIERS (ACETIC ACID ESTERS OF MONO-AND DIGLYCERIDES, MEDIUM CHAIN TRIGLYCERIDES), MODIFIED CORN STARCH, WHOLE MILK POWDER, POTASSIUM CHLORIDE, SILICON DIOXIDE, NATURAL AND ARTIFICIAL FLAVOR, MONO- AND DIGLYCERIDES, SODIUM CASEINATE, COLOR (TITANIUM DIOXIDE, YELLOW 5 LAKE, YELLOW 6 LAKE, YELLOW 5, YELLOW 6), CITRIC ACID, POTASSIUM PHOSPHATE, LACTIC ACID, GUAR GUM." Date available: 07/14/2017 Date last updated by company: 07/14/2017
