Source: USDA Branded Food Products Database Release December 2017 Software v.3.8.6.4 2017-10-02
Report Run at: December 17, 2017 13:14 EST
"Nutrient data for: 45024071, MACRINA BAKERY, SEEDED MACRINA BAGUETTE, UPC: 891886000631"
Food Group:  Branded Food Products Database
Common Name:

Nutrient,Unit,Data points,Std. Error,"1 SLICE = 42.0g",1Value per 100 g,
Proximates
"Energy",kcal,--,--,140,333
"Protein",g,--,--,5.00,11.90
"Total lipid (fat)",g,--,--,3.00,7.14
"Carbohydrate, by difference",g,--,--,23.00,54.76
"Fiber, total dietary",g,--,--,2.0,4.8
"Sugars, total",g,--,--,0.00,0.00
Minerals
"Calcium, Ca",mg,--,--,80,190
"Iron, Fe",mg,--,--,1.71,4.08
"Sodium, Na",mg,--,--,240,571
Vitamins
"Vitamin C, total ascorbic acid",mg,--,--,0.0,0.0
"Vitamin A, IU",IU,--,--,0,0
Lipids
"Fatty acids, total saturated",g,--,--,0.000,0.000
"Fatty acids, total trans",g,--,--,0.000,0.000
"Cholesterol",mg,--,--,0,0
Amino Acids
Other
Ingredients
"UNBLEACHED WHEAT FLOUR, FILTERED WATER, SESAME SEEDS, ORGANIC WHEAT FLOUR, WHOLE GRAIN WHEAT FLOUR, SEA SALT, FENNEL SEEDS, BLACK POPPY SEEDS, YEAST." Date available: 06/25/2017 Date last updated by company: 06/25/2017
