Source: USDA Branded Food Products Database Release December 2017 Software v.3.8.6.4 2017-10-02
Report Run at: December 17, 2017 13:13 EST
"Nutrient data for: 45023989, MACRINA BAKERY, CINNAMON SWIRL BRIOCHE, CINNAMON, UPC: 855324005459"
Food Group:  Branded Food Products Database
Common Name:

Nutrient,Unit,Data points,Std. Error,"1 SLICE = 42.0g",1Value per 100 g,
Proximates
"Energy",kcal,--,--,150,357
"Protein",g,--,--,3.00,7.14
"Total lipid (fat)",g,--,--,4.00,9.52
"Carbohydrate, by difference",g,--,--,27.00,64.29
"Fiber, total dietary",g,--,--,1.0,2.4
"Sugars, total",g,--,--,13.00,30.95
Minerals
"Calcium, Ca",mg,--,--,40,95
"Iron, Fe",mg,--,--,1.29,3.06
"Sodium, Na",mg,--,--,105,250
Vitamins
"Vitamin C, total ascorbic acid",mg,--,--,0.0,0.0
"Vitamin A, IU",IU,--,--,238,567
Lipids
"Fatty acids, total saturated",g,--,--,2.499,5.950
"Fatty acids, total trans",g,--,--,0.000,0.000
"Cholesterol",mg,--,--,25,60
Amino Acids
Other
Ingredients
"UNBLEACHED WHEAT FLOUR, BROWN SUGAR, WHOLE MILK, EGGS, UNSALTED BUTTER (MILK, NATURAL FLAVORING), SUGAR, FILTERED WATER, CINNAMON, VANILLA EXTRACT, TURBINADO RAW SUGAR, SEA SALT, YEAST." Date available: 06/25/2017 Date last updated by company: 06/25/2017
