Source: USDA Branded Food Products Database Release December 2017 Software v.3.8.6.4 2017-10-02
Report Run at: December 17, 2017 13:14 EST
"Nutrient data for: 45169693, MACRINA BAKERY, SLICED RUSTIC POTATO LOAF, UPC: 855324005121"
Food Group:  Branded Food Products Database
Common Name:

Nutrient,Unit,Data points,Std. Error,"1 SLICE = 47.0g",1Value per 100 g,
Proximates
"Energy",kcal,--,--,120,255
"Protein",g,--,--,4.00,8.51
"Total lipid (fat)",g,--,--,1.50,3.19
"Carbohydrate, by difference",g,--,--,24.00,51.06
"Fiber, total dietary",g,--,--,1.0,2.1
"Sugars, total",g,--,--,0.00,0.00
Minerals
"Calcium, Ca",mg,--,--,0,0
"Iron, Fe",mg,--,--,1.26,2.69
"Sodium, Na",mg,--,--,320,681
Vitamins
"Vitamin C, total ascorbic acid",mg,--,--,2.8,6.0
"Vitamin A, IU",IU,--,--,0,0
Lipids
"Fatty acids, total saturated",g,--,--,0.000,0.000
"Fatty acids, total trans",g,--,--,0.000,0.000
"Cholesterol",mg,--,--,0,0
Amino Acids
Other
Ingredients
"UNBLEACHED WHEAT FLOUR, POTATOES, FILTERED WATER, EXPELLER PRESSED CANOLA OIL/EXTRA VIRGIN OLIVE OIL BLEND, SEA SALT, YEAST." Date available: 07/14/2017 Date last updated by company: 07/14/2017
