Source: USDA Branded Food Products Database Release December 2017 Software v.3.8.6.4 2017-10-02
Report Run at: December 17, 2017 13:16 EST
"Nutrient data for: 45009457, MAD DOG & MERRILL, SIGNATURE SAUCE, UPC: 013964262476"
Food Group:  Branded Food Products Database
Common Name:

Nutrient,Unit,Data points,Std. Error,"2.0 Tbsp = 35.0g",1Value per 100 g,
Proximates
"Energy",kcal,--,--,60,171
"Protein",g,--,--,0.00,0.00
"Total lipid (fat)",g,--,--,0.00,0.00
"Carbohydrate, by difference",g,--,--,14.00,40.00
"Fiber, total dietary",g,--,--,0.0,0.0
"Sugars, total",g,--,--,12.00,34.29
Minerals
"Calcium, Ca",mg,--,--,0,0
"Iron, Fe",mg,--,--,0.61,1.74
"Sodium, Na",mg,--,--,320,914
Vitamins
"Vitamin C, total ascorbic acid",mg,--,--,2.0,5.8
"Vitamin A, IU",IU,--,--,169,483
Lipids
"Fatty acids, total saturated",g,--,--,0.000,0.000
"Fatty acids, total trans",g,--,--,0.000,0.000
"Cholesterol",mg,--,--,0,0
Amino Acids
Other
Ingredients
"HIGH FRUCTOSE CORN SYRUP, WATER, TOMATO PASTE ,DISTILLED VINEGAR, SUGAR , PINEAPPLE JUICE CONCENTRATE,FOOD STARCH-MODIFIED,SALT,MOLASSES,NATURAL HICKORY SMOKE FLAVOR,CARAMEL COLOR,DEHYDRATED ONION AND GARLIC,SPICES,SODIUM BENZOATE (AS A PRESERVATIVE)" Date available: 06/24/2017 Date last updated by company: 06/24/2017
