Source: USDA Branded Food Products Database Release December 2017 Software v.3.8.6.4 2017-10-02
Report Run at: December 17, 2017 13:20 EST
"Nutrient data for: 45265996, MADE WITH REAL CHEESE, UPC: 041497004478"
Food Group:  Branded Food Products Database
Common Name:

Nutrient,Unit,Data points,Std. Error,"24.0 CHIPS) | (ABOUT = 28.0g",1Value per 100 g,
Proximates
"Energy",kcal,--,--,130,464
"Protein",g,--,--,2.00,7.14
"Total lipid (fat)",g,--,--,6.00,21.43
"Carbohydrate, by difference",g,--,--,19.00,67.86
"Fiber, total dietary",g,--,--,1.0,3.6
"Sugars, total",g,--,--,1.00,3.57
Minerals
"Calcium, Ca",mg,--,--,40,143
"Iron, Fe",mg,--,--,0.64,2.29
"Sodium, Na",mg,--,--,260,929
Vitamins
"Vitamin C, total ascorbic acid",mg,--,--,0.0,0.0
"Vitamin A, IU",IU,--,--,179,638
Lipids
"Fatty acids, total saturated",g,--,--,1.999,7.140
"Fatty acids, total trans",g,--,--,0.000,0.000
"Cholesterol",mg,--,--,0,0
Amino Acids
Other
Ingredients
"YELLOW CORN, VEGETABLE OIL (ONE OR MORE OF THE FOLLOWING: CORN, COTTONSEED, PALM, SUNFLOWER), CHEDDAR CHEESE (MILK, CHEESE CULTURES, SALT, ENZYMES), SALT, WHEY, BUTTERMILK SOLIDS, MONOSODIUM GLUTAMATE, TOMATO POWDER, SUGAR, CITRIC ACID, GARLIC POWDER, ONION POWDER, SWEET CREAM, EXTRACTIVES OF PAPRIKA, SPICE, DISODIUM PHOSPHATE, LACTIC ACID, DISODIUM INOSINATE AND DISODIUM GUANYLATE, YELLOW 6, AND EXTRACTIVES OF ANNATTO." Date available: 07/14/2017 Date last updated by company: 07/14/2017
