Source: USDA Branded Food Products Database Release December 2017 Software v.3.8.6.4 2017-10-02
Report Run at: December 17, 2017 13:17 EST
"Nutrient data for: 45168825, MADE IN NATURE, COCONUT CITRUS + CHIA TELULA BEVERAGE, UPC: 720379580117"
Food Group:  Branded Food Products Database
Common Name:

Nutrient,Unit,Data points,Std. Error,"8.0 OZA = 236.0g",1Value per 100 g,
Proximates
"Energy",kcal,--,--,120,51
"Protein",g,--,--,3.00,1.27
"Total lipid (fat)",g,--,--,1.51,0.64
"Carbohydrate, by difference",g,--,--,23.01,9.75
"Fiber, total dietary",g,--,--,5.0,2.1
"Sugars, total",g,--,--,16.99,7.20
Minerals
"Calcium, Ca",mg,--,--,59,25
"Iron, Fe",mg,--,--,1.44,0.61
"Sodium, Na",mg,--,--,99,42
Vitamins
"Vitamin C, total ascorbic acid",mg,--,--,24.1,10.2
"Vitamin A, IU",IU,--,--,1001,424
Lipids
"Fatty acids, total saturated",g,--,--,0.000,0.000
"Fatty acids, total trans",g,--,--,0.000,0.000
"Cholesterol",mg,--,--,0,0
Amino Acids
Other
Ingredients
"ORGANIC COCONUT JUICE, ORGANIC CARROT JUICE, ORGANIC ORANGE JUICE, ORGANIC LEMON JUICE, ORGANIC APPLE JUICE, ORGANIC CHIA SEEDS." Date available: 07/14/2017 Date last updated by company: 07/14/2017
