Source: USDA Branded Food Products Database Release December 2017 Software v.3.8.6.4 2017-10-02
Report Run at: December 17, 2017 13:20 EST
"Nutrient data for: 45051233, MADE WITH REAL CINNAMON & HONEY, UPC: 041497556168"
Food Group:  Branded Food Products Database
Common Name:

Nutrient,Unit,Data points,Std. Error,"1 CONTAINER = 35.0g",1Value per 100 g,
Proximates
"Energy",kcal,--,--,150,429
"Protein",g,--,--,2.00,5.71
"Total lipid (fat)",g,--,--,3.00,8.57
"Carbohydrate, by difference",g,--,--,28.00,80.00
"Fiber, total dietary",g,--,--,1.0,2.9
"Sugars, total",g,--,--,10.00,28.57
Minerals
"Calcium, Ca",mg,--,--,150,429
"Iron, Fe",mg,--,--,1.54,4.41
"Potassium, K",mg,--,--,50,143
"Sodium, Na",mg,--,--,135,386
Vitamins
"Vitamin C, total ascorbic acid",mg,--,--,0.0,0.0
"Vitamin A, IU",IU,--,--,0,0
Lipids
"Fatty acids, total saturated",g,--,--,0.000,0.000
"Fatty acids, total monounsaturated",g,--,--,0.500,1.430
"Fatty acids, total polyunsaturated",g,--,--,1.502,4.290
"Fatty acids, total trans",g,--,--,0.000,0.000
"Cholesterol",mg,--,--,0,0
Amino Acids
Other
Ingredients
"INGREDIENTS: ENRICHED FLOUR (WHEAT FLOUR, NIACIN, REDUCED IRON, THIAMIN MONONITRATE {VITAMIN B1}, RIBOFLAVIN {VITAMIN B2}, FOLIC ACID), SUGAR, GRAHAM FLOUR (WHOLE GRAIN WHEAT FLOUR), CANOLA AND/OR SOYBEAN OIL, HIGH FRUCTOSE CORN SYRUP, HONEY, CONTAINS 2% OR LESS OF BAKING SODA, CALCIUM CARBONATE, SALT, CINNAMON, DEXTROSE, SOY LECITHIN (EMULSIFIER), NATURAL CINNAMON FLAVOR, VANILLIN (ARTIFICIAL FLAVOR), SODIUM SULFITE." Date available: 06/25/2017 Date last updated by company: 06/25/2017
