Source: USDA Branded Food Products Database Release December 2017 Software v.3.8.6.4 2017-10-02
Report Run at: December 17, 2017 13:22 EST
"Nutrient data for: 45108910, MADHAVA, FLIP FOR FLAPJACKS PANCAKE MIX, UPC: 078314321005"
Food Group:  Branded Food Products Database
Common Name:

Nutrient,Unit,Data points,Std. Error,"0.1 PKG = 44.0g",1Value per 100 g,
Proximates
"Energy",kcal,--,--,150,341
"Protein",g,--,--,4.00,9.09
"Total lipid (fat)",g,--,--,0.00,0.00
"Carbohydrate, by difference",g,--,--,33.00,75.00
"Fiber, total dietary",g,--,--,2.0,4.5
"Sugars, total",g,--,--,6.00,13.64
Minerals
"Calcium, Ca",mg,--,--,100,227
"Iron, Fe",mg,--,--,1.64,3.72
"Sodium, Na",mg,--,--,550,1250
Vitamins
"Vitamin C, total ascorbic acid",mg,--,--,1.1,2.5
"Vitamin A, IU",IU,--,--,0,0
Lipids
"Fatty acids, total saturated",g,--,--,0.000,0.000
"Fatty acids, total trans",g,--,--,0.000,0.000
"Cholesterol",mg,--,--,0,0
Amino Acids
Other
Ingredients
"ORGANIC WHEAT FLOUR, ORGANIC SPELT, ORGANIC CANE SUGAR, BAKING POWDER (MONOCALCIUM PHOSPHATE, SODIUM BICARBONATE, CORN STARCH), ORGANIC COCONUT SUGAR, ORGANIC KAMUT KHORASAN WHEAT, SALT, GUM ARABIC, CARRAGEENAN, XANTHAN GUM" Date available: 06/25/2017 Date last updated by company: 06/25/2017
