Source: USDA Branded Food Products Database Release December 2017 Software v.3.8.6.4 2017-10-02
Report Run at: December 17, 2017 13:26 EST
"Nutrient data for: 45151890, MAGIC MIX { TRAIL MIX }, UPC: 049022880511"
Food Group:  Branded Food Products Database
Common Name:

Nutrient,Unit,Data points,Std. Error,"1 PACKAGE = 42.0g",1Value per 100 g,
Proximates
"Energy",kcal,--,--,200,476
"Protein",g,--,--,4.00,9.52
"Total lipid (fat)",g,--,--,11.00,26.19
"Carbohydrate, by difference",g,--,--,24.00,57.14
"Fiber, total dietary",g,--,--,2.0,4.8
"Sugars, total",g,--,--,19.00,45.24
Minerals
"Calcium, Ca",mg,--,--,20,48
"Iron, Fe",mg,--,--,0.86,2.04
"Sodium, Na",mg,--,--,70,167
Vitamins
"Vitamin C, total ascorbic acid",mg,--,--,0.0,0.0
"Vitamin A, IU",IU,--,--,0,0
Lipids
"Fatty acids, total saturated",g,--,--,4.498,10.710
"Fatty acids, total trans",g,--,--,0.000,0.000
"Cholesterol",mg,--,--,0,0
Amino Acids
Other
Ingredients
"PEANUTS (PEANUTS, PEANUT OIL, SALT), RAISINS, M&M'S MILK CHOCOLATE CANDIES (MILK CHOCOLATE [SUGAR, CHOCOLATE, SKIM MILK, COCOA BUTTER, LACTOSE, MILKFAT, SOY LECITHIN, SALT, ARTIFICIAL FLAVORS], SUGAR, CORNSTARCH, LESS THAN 1% OF CORN SYRUP, DEXTRIN, COLORING [INCLUDES BLUE 1 LAKE, YELLOW 6, RED 40, YELLOW 5, BLUE 1, RED 40 LAKE, BLUE 2 LAKE, YELLOW 6 LAKE, YELLOW 5 LAKE, BLUE 2], GUM ACACIA), SEMISWEET CHOCOLATE CHIPS (SUGAR, CHOCOLATE LIQUOR, COCOA BUTTER, DEXTROSE, SOY LECITHIN, VANILLIN [ARTIFICIAL FLAVOR]), PEANUT BUTTER FLAVORED DROPS (SUGAR, PALM KERNEL AND PALM OIL, PARTIALLY DEFATTED PEANUT FLOUR, WHEY POWDER, NONFAT DRY MILK, PEANUTS, ANHYDROUS DEXTROSE, SALT, SOY LECITHIN)." Date available: 07/14/2017 Date last updated by company: 07/14/2017
