Source: USDA Branded Food Products Database Release December 2017 Software v.3.8.6.4 2017-10-02
Report Run at: December 17, 2017 13:29 EST
"Nutrient data for: 45314489, MAHI-MAHI BURGERS, UPC: 028029195200"
Food Group:  Branded Food Products Database
Common Name:

Nutrient,Unit,Data points,Std. Error,"1 BURGER = 79.0g",1Value per 100 g,
Proximates
"Energy",kcal,--,--,100,127
"Protein",g,--,--,13.00,16.46
"Total lipid (fat)",g,--,--,4.50,5.70
"Carbohydrate, by difference",g,--,--,1.00,1.27
"Fiber, total dietary",g,--,--,0.0,0.0
"Sugars, total",g,--,--,0.00,0.00
Minerals
"Calcium, Ca",mg,--,--,20,25
"Iron, Fe",mg,--,--,1.16,1.47
"Sodium, Na",mg,--,--,280,354
Vitamins
"Vitamin C, total ascorbic acid",mg,--,--,0.0,0.0
"Vitamin A, IU",IU,--,--,107,136
Lipids
"Fatty acids, total saturated",g,--,--,0.000,0.000
"Fatty acids, total trans",g,--,--,0.000,0.000
"Cholesterol",mg,--,--,50,63
Amino Acids
Other
Ingredients
"MAHI-MAHI, VEGETABLE OIL (CANOLA AND/OR SOYBEAN), WATER, CONTAINS 2% OR LESS OF: POTATO EXTRACT, SEA SALT, SEASONING (RICE FLOUR, SEA SALT, SPICES [INCLUDING PAPRIKA AND BLACK PEPPER], NATURAL FLAVOR INCLUDING SMOKE, DEHYDRATED PARSLEY, GRILL FLAVOR [TAPIOCA DEXTRIN, GRILL FLAVOR {FROM SUNFLOWER OIL}]), MUSTARD FLOUR, ROSEMARY EXTRACT." Date available: 07/14/2017 Date last updated by company: 07/14/2017
