Source: USDA Branded Food Products Database Release December 2017 Software v.3.8.6.4 2017-10-02
Report Run at: December 17, 2017 13:31 EST
"Nutrient data for: 45191399, MAINE WILD MINI MUFFINS, UPC: 074555077954"
Food Group:  Branded Food Products Database
Common Name:

Nutrient,Unit,Data points,Std. Error,"2.0 PIECES = 51.0g",1Value per 100 g,
Proximates
"Energy",kcal,--,--,180,353
"Protein",g,--,--,2.00,3.92
"Total lipid (fat)",g,--,--,9.00,17.65
"Carbohydrate, by difference",g,--,--,24.00,47.06
"Fiber, total dietary",g,--,--,0.0,0.0
"Sugars, total",g,--,--,13.00,25.49
Minerals
"Calcium, Ca",mg,--,--,0,0
"Iron, Fe",mg,--,--,0.78,1.52
"Sodium, Na",mg,--,--,65,127
Vitamins
"Vitamin C, total ascorbic acid",mg,--,--,0.0,0.0
"Vitamin A, IU",IU,--,--,0,0
Lipids
"Fatty acids, total saturated",g,--,--,1.499,2.940
"Fatty acids, total trans",g,--,--,0.000,0.000
"Cholesterol",mg,--,--,20,39
Amino Acids
Other
Ingredients
"SUGAR, BLEACHED ENRICHED WHEAT FLOUR (FLOUR, MALTED BARLEY FLOUR, NIACIN, REDUCED IRON, THIAMINE MONONITRATE, RIBOFLAVIN, FOLIC ACID), WATER, SOYBEAN OIL, BLUEBERRIES, EGGS, MODIFIED FOOD STARCH, DEXTROSE, VITAL WHEAT GLUTEN, WHEY, SALT, TITANIUM DIOXIDE, GUAR GUM, SODIUM ALUMINIUM PHOSPHATE, SODIUM BICARBONATE, MONO AND DIGLYCERIDES, PROPYLENE GLYCOL MONOESTERS, SODIUM PROPIONATE AND POTASSIUM SORBATE (PRESERVATIVES), BAKING POWDER (SODIUM BICARBONATE, SODIUM ACID PYROPHOSPHATE, CORN STARCH, MONOCALCIUM PHOSPHATE), DATEM, SOY LECITHIN (AN EMULSIFIER), SORBITAN MONOSTEARATE, POLYSORBATE 60, CARBOXYMETHYLCELLULOSE, COLORS (ANNATTO EXTRACT, TURMERIC), BETA CAROTENE, ARTIFICIAL FLAVOR, PHOSPHORIC ACID." Date available: 07/14/2017 Date last updated by company: 07/14/2017
