Source: USDA Branded Food Products Database Release December 2017 Software v.3.8.6.4 2017-10-02
Report Run at: December 17, 2017 13:31 EST
"Nutrient data for: 45159487, MAINE ROOT, FLAVORED SODA, LEMON LIME, UPC: 862284000110"
Food Group:  Branded Food Products Database
Common Name:

Nutrient,Unit,Data points,Std. Error,"1 BOTTLE = 355.0g",1Value per 100 g,
Proximates
"Energy",kcal,--,--,163,46
"Protein",g,--,--,0.00,0.00
"Total lipid (fat)",g,--,--,0.00,0.00
"Carbohydrate, by difference",g,--,--,40.01,11.27
"Sugars, total",g,--,--,40.01,11.27
Minerals
"Sodium, Na",mg,--,--,36,10
Vitamins
Lipids
Amino Acids
Other
Ingredients
"CARBONATED PURE WATER, FAIR TRADE CERTIFIED ORGANIC CANE JUICE AND SPICES." Date available: 07/14/2017 Date last updated by company: 07/14/2017
