Source: USDA Branded Food Products Database Release December 2017 Software v.3.8.6.4 2017-10-02
Report Run at: December 17, 2017 13:32 EST
"Nutrient data for: 45149283, MAIN & GEARY, SPICY MIX, UPC: 707492074983"
Food Group:  Branded Food Products Database
Common Name:

Nutrient,Unit,Data points,Std. Error,"17.0 | PER CONTAINER = 30.0g",1Value per 100 g,
Proximates
"Energy",kcal,--,--,150,500
"Protein",g,--,--,5.00,16.67
"Total lipid (fat)",g,--,--,9.00,30.00
"Carbohydrate, by difference",g,--,--,14.00,46.67
"Fiber, total dietary",g,--,--,2.0,6.7
"Sugars, total",g,--,--,1.00,3.33
Minerals
"Calcium, Ca",mg,--,--,20,67
"Iron, Fe",mg,--,--,2.40,8.00
"Sodium, Na",mg,--,--,160,533
Vitamins
"Vitamin C, total ascorbic acid",mg,--,--,0.0,0.0
"Vitamin A, IU",IU,--,--,166,555
Lipids
"Fatty acids, total saturated",g,--,--,1.500,5.000
"Fatty acids, total trans",g,--,--,0.000,0.000
"Cholesterol",mg,--,--,0,0
Amino Acids
Other
Ingredients
"ROASTED PEANUTS (PEANUTS, PEANUT OIL), HOT CAJUN CORN STICKS (YELLOW CORN MASA, SOYBEAN OIL, CAJUN SEASONING [POTATO FLOUR, SPICES AND HERBS, SALT, ONION POWDER, TOMATO POWDER, GARLIC POWDER, NATURAL FLAVORINGS, MALTODEXTRIN, MODIFIED CORNSTARCH, GREEN BELL PEPPER POWDER], SALT), NATURAL CHILL CRESCENTS (RICE, SOY SAUCE [WATER, SOYBEAN, WHEAT, SALT], MODIFIED FOOD STARCH, SUGAR, GLUCOSE SYRUP, COLOR [CARAMEL, PAPRIKA], CHILL EXTRACT), ROASTED CORN (CORN, PALM OIL, SALT), HULLED PUMPKIN SEEDS, NATURAL ZESTY SEASONING (SALT MALTODEXTRIN, PAPRIKA, CHILL PEPPER, SPICES, NATURAL FLAVORING, SILICON DIOXIDE)." Date available: 09/08/2017 Date last updated by company: 09/08/2017
