Source: USDA Branded Food Products Database Release December 2017 Software v.3.8.6.4 2017-10-02
Report Run at: December 17, 2017 13:32 EST
"Nutrient data for: 45149281, MAIN & GEARY, MIX, SWEET & SPICY, UPC: 707492074952"
Food Group:  Branded Food Products Database
Common Name:

Nutrient,Unit,Data points,Std. Error,"0.25 cup = 30.0g",1Value per 100 g,
Proximates
"Energy",kcal,--,--,120,400
"Protein",g,--,--,3.00,10.00
"Total lipid (fat)",g,--,--,7.00,23.33
"Carbohydrate, by difference",g,--,--,12.00,40.00
"Fiber, total dietary",g,--,--,1.0,3.3
"Sugars, total",g,--,--,5.00,16.67
Minerals
"Calcium, Ca",mg,--,--,20,67
"Iron, Fe",mg,--,--,1.20,4.00
"Sodium, Na",mg,--,--,170,567
Vitamins
"Vitamin C, total ascorbic acid",mg,--,--,0.0,0.0
"Vitamin A, IU",IU,--,--,0,0
Lipids
"Fatty acids, total saturated",g,--,--,0.999,3.330
"Fatty acids, total trans",g,--,--,0.000,0.000
"Cholesterol",mg,--,--,0,0
Amino Acids
Other
Ingredients
"BUTTER TOFFEE PEANUTS (PEANUTS, SUGAR, BUTTER, SALT), ZESTY PEANUTS (PEANUTS, NATURAL ZESTY SEASONING (SALT, MALTODEXTRIN, PAPRIKA, CHILI PEPPER, SPICES, NATURAL FLAVORING, SILICON DIOXIDE), PEANUT OIL), HOT CAJUN CORN STICKS (YELLOW CORN MASA, SOYBEAN OIL, CAJUN SEASONING [POTATO FLOUR, SPICES AND HERBS, SALT, ONION POWDER, TOMATO POWDER, GARLIC POWDER, NATURAL FLAVORINGS, MALTODEXTRIN, MODIFIED CORNSTARCH, GREEN BELL PEPPER POWDER], SALT), HONEY ROASTED PEANUTS (PEANUTS, SUGAR, HONEY, POTATO STARCH, PEANUT OIL, MALTODEXTRIN, SALT, XANTHAN GUM), HONEY ROAST SESAME MIX (UNBLEACHED WHEAT FLOUR [WHEAT FLOUR, MALTED BARLEY FLOUR], SOYBEAN OIL, SESAME SEEDS, HONEY COATING [SUGAR, WHEAT STARCH, HONEY], BULGUR WHEAT, TACK BLEND [MALTODEXTRIN, XANTHAN GUM], SALT, COLORING [TURMERIC, BEET POWDER]), CAJUN SESAME STICKS (UNBLEACHED WHEAT FLOUR [WHEAT FLOUR, MALTED BARLEY FLOUR], SOYBEAN OIL, SESAME SEEDS, BULGUR WHEAT, CAJUN SEASONING [SALT, SPICES, DEHYDRATED ONION, TORULA YEAST, GREEN BELL PEPPER, DEHYDRATED GARLIC, COCOA POWDER, COLORING {OLEORESIN PAPRIKA}], SALT, COLORING [BEET POWDER, TURMERIC])." Date available: 07/14/2017 Date last updated by company: 07/14/2017
