Source: USDA Branded Food Products Database Release December 2017 Software v.3.8.6.4 2017-10-02
Report Run at: December 17, 2017 13:33 EST
"Nutrient data for: 45065061, MAIZ BLANCO, UPC: 074734100732"
Food Group:  Branded Food Products Database
Common Name:

Nutrient,Unit,Data points,Std. Error,"0.5 cup = 122.0g",1Value per 100 g,
Proximates
"Energy",kcal,--,--,70,57
"Protein",g,--,--,2.00,1.64
"Total lipid (fat)",g,--,--,0.50,0.41
"Carbohydrate, by difference",g,--,--,18.00,14.75
"Fiber, total dietary",g,--,--,3.0,2.5
"Sugars, total",g,--,--,0.00,0.00
Minerals
"Calcium, Ca",mg,--,--,0,0
"Iron, Fe",mg,--,--,0.38,0.31
"Sodium, Na",mg,--,--,400,328
Vitamins
"Vitamin C, total ascorbic acid",mg,--,--,2.6,2.1
"Vitamin A, IU",IU,--,--,0,0
Lipids
"Fatty acids, total saturated",g,--,--,0.000,0.000
"Fatty acids, total trans",g,--,--,0.000,0.000
"Cholesterol",mg,--,--,0,0
Amino Acids
Other
Ingredients
"PROCESSED CORN, WATER, SALT, SODIUM BISULFITE." Date available: 06/24/2017 Date last updated by company: 06/24/2017
