Source: USDA Branded Food Products Database Release December 2017 Software v.3.8.6.4 2017-10-02
Report Run at: December 17, 2017 13:37 EST
"Nutrient data for: 45206206, MALK, PURE COLD PRESSED UNSWEETENED CASHEW MILK, UPC: 861029000132"
Food Group:  Branded Food Products Database
Common Name:

Nutrient,Unit,Data points,Std. Error,"1 SERVING = 226.8g",1Value per 100 g,
Proximates
"Energy",kcal,--,--,100,44
"Protein",g,--,--,2.99,1.32
"Total lipid (fat)",g,--,--,8.01,3.53
"Carbohydrate, by difference",g,--,--,4.99,2.20
"Fiber, total dietary",g,--,--,0.9,0.4
"Sugars, total",g,--,--,1.00,0.44
Minerals
"Calcium, Ca",mg,--,--,20,9
"Iron, Fe",mg,--,--,1.09,0.48
"Sodium, Na",mg,--,--,104,46
Vitamins
"Vitamin C, total ascorbic acid",mg,--,--,0.0,0.0
"Vitamin A, IU",IU,--,--,0,0
Lipids
"Fatty acids, total saturated",g,--,--,1.497,0.660
"Fatty acids, total trans",g,--,--,0.000,0.000
"Cholesterol",mg,--,--,0,0
Amino Acids
Other
Ingredients
"3 SIMPLE INGREDIENTS - FILTERED WATER, ORGANIC CASHEWS, HIMALAYAN SALT." Date available: 07/14/2017 Date last updated by company: 07/14/2017
