Source: USDA Branded Food Products Database Release December 2017 Software v.3.8.6.4 2017-10-02
Report Run at: December 17, 2017 13:39 EST
"Nutrient data for: 45256717, MAMA LUPE'S, SOFT CORN TORTILLAS, UPC: 036035211043"
Food Group:  Branded Food Products Database
Common Name:

Nutrient,Unit,Data points,Std. Error,"1 TORTILLA = 26.0g",1Value per 100 g,
Proximates
"Energy",kcal,--,--,52,200
"Protein",g,--,--,1.00,3.85
"Total lipid (fat)",g,--,--,1.00,3.85
"Carbohydrate, by difference",g,--,--,11.00,42.31
"Fiber, total dietary",g,--,--,1.0,3.8
"Sugars, total",g,--,--,0.00,0.00
Minerals
"Calcium, Ca",mg,--,--,10,38
"Iron, Fe",mg,--,--,0.38,1.47
"Sodium, Na",mg,--,--,4,15
Vitamins
"Vitamin C, total ascorbic acid",mg,--,--,0.0,0.0
"Vitamin A, IU",IU,--,--,0,0
Lipids
"Fatty acids, total saturated",g,--,--,0.000,0.000
"Fatty acids, total trans",g,--,--,0.000,0.000
"Cholesterol",mg,--,--,0,0
Amino Acids
Other
Ingredients
"WATER, GROUND CORN TREATED WITH LIME, GUAR GUM, CELLULOSE GUM, SALT, PROPIONIC ACID (TO PRESERVE FRESHNESS), BENZIOC ACID (PRESERVATIVE), FUMARIC ACID, SORBIC ACID & CALCIUM PROPIONATE (AS A PRESERVATIVE), PHOSPHORIC ACID AND ENZYMES (TO PRESERVE FRESHNESS)." Date available: 07/14/2017 Date last updated by company: 07/14/2017
