Source: USDA Branded Food Products Database Release December 2017 Software v.3.8.6.4 2017-10-02
Report Run at: December 17, 2017 13:39 EST
"Nutrient data for: 45186221, MAMA LYCHA, RELAJO MOLIDO GROUND SPICE MIX, UPC: 763441000212"
Food Group:  Branded Food Products Database
Common Name:

Nutrient,Unit,Data points,Std. Error,"1 PIECE = 56.0g",1Value per 100 g,
Proximates
"Energy",kcal,--,--,200,357
"Protein",g,--,--,3.00,5.36
"Total lipid (fat)",g,--,--,10.00,17.86
"Carbohydrate, by difference",g,--,--,25.00,44.64
"Fiber, total dietary",g,--,--,0.0,0.0
"Sugars, total",g,--,--,15.00,26.79
Minerals
"Calcium, Ca",mg,--,--,100,179
"Iron, Fe",mg,--,--,1.13,2.01
"Sodium, Na",mg,--,--,112,200
Vitamins
"Vitamin C, total ascorbic acid",mg,--,--,0.0,0.0
"Vitamin A, IU",IU,--,--,357,638
Lipids
"Fatty acids, total saturated",g,--,--,3.002,5.360
"Fatty acids, total trans",g,--,--,0.101,0.180
"Cholesterol",mg,--,--,26,46
Amino Acids
Other
Ingredients
"SESAME SEEDS, OREGANO, BAY LEAVES, GARLIC, PUMPKIN SEEDS, PLUM, CHILIS, ANNATO, GROUND CLOVES, CUMMINE, BLACK PEPPER." Date available: 07/14/2017 Date last updated by company: 07/14/2017
