Source: USDA Branded Food Products Database Release December 2017 Software v.3.8.6.4 2017-10-02
Report Run at: December 17, 2017 13:41 EST
"Nutrient data for: 45057983, MAMA MARY'S, RED & GREEN PEPPER STRIPS, UPC: 876941005431"
Food Group:  Branded Food Products Database
Common Name:

Nutrient,Unit,Data points,Std. Error,"0.5 tsp = 4.0g",1Value per 100 g,
Proximates
"Energy",kcal,--,--,0,0
"Protein",g,--,--,0.00,0.00
"Total lipid (fat)",g,--,--,0.00,0.00
"Carbohydrate, by difference",g,--,--,0.00,0.00
"Fiber, total dietary",g,--,--,0.0,0.0
"Sugars, total",g,--,--,0.00,0.00
Minerals
"Calcium, Ca",mg,--,--,0,0
"Iron, Fe",mg,--,--,0.00,0.00
"Sodium, Na",mg,--,--,20,500
Vitamins
"Vitamin C, total ascorbic acid",mg,--,--,156.0,3900.0
"Vitamin A, IU",IU,--,--,3250,81250
Lipids
"Fatty acids, total saturated",g,--,--,0.000,0.000
"Fatty acids, total trans",g,--,--,0.000,0.000
"Cholesterol",mg,--,--,0,0
Amino Acids
Other
Ingredients
"RED AND GREEN PIMENTOS, WATER, SALT, SUGAR, CITRIC ACID, AND CALCIUM CHLORIDE." Date available: 07/14/2017 Date last updated by company: 07/14/2017
