Source: USDA Branded Food Products Database Release December 2017 Software v.3.8.6.4 2017-10-02
Report Run at: December 17, 2017 13:44 EST
"Nutrient data for: 45118879, MAMA TERE, PLANTAIN FLOUR, UPC: 812828010648"
Food Group:  Branded Food Products Database
Common Name:

Nutrient,Unit,Data points,Std. Error,"1.06 ONZ = 30.0g",1Value per 100 g,
Proximates
"Energy",kcal,--,--,110,367
"Protein",g,--,--,1.00,3.33
"Total lipid (fat)",g,--,--,0.00,0.00
"Carbohydrate, by difference",g,--,--,26.00,86.67
"Fiber, total dietary",g,--,--,0.0,0.0
Minerals
"Sodium, Na",mg,--,--,0,0
Vitamins
Lipids
"Fatty acids, total saturated",g,--,--,0.000,0.000
"Cholesterol",mg,--,--,0,0
Amino Acids
Other
Ingredients
"PLANTAIN FLOUR." Date available: 06/25/2017 Date last updated by company: 06/25/2017
