Source: USDA Branded Food Products Database Release December 2017 Software v.3.8.6.4 2017-10-02
Report Run at: December 17, 2017 13:53 EST
"Nutrient data for: 45014882, MAN DIP, BUFFALO STYLE FIERY CHICKEN & CHEESE DIP, UPC: 864908000025"
Food Group:  Branded Food Products Database
Common Name:

Nutrient,Unit,Data points,Std. Error,"0.25 cup = 55.0g",1Value per 100 g,
Proximates
"Energy",kcal,--,--,110,200
"Protein",g,--,--,7.00,12.73
"Total lipid (fat)",g,--,--,8.00,14.55
"Carbohydrate, by difference",g,--,--,2.00,3.64
"Fiber, total dietary",g,--,--,0.0,0.0
"Sugars, total",g,--,--,1.00,1.82
Minerals
"Calcium, Ca",mg,--,--,20,36
"Iron, Fe",mg,--,--,0.00,0.00
"Sodium, Na",mg,--,--,450,818
Vitamins
"Vitamin C, total ascorbic acid",mg,--,--,0.0,0.0
"Vitamin A, IU",IU,--,--,272,495
Lipids
"Fatty acids, total saturated",g,--,--,3.998,7.270
"Fatty acids, total trans",g,--,--,0.000,0.000
"Cholesterol",mg,--,--,40,73
Amino Acids
Other
Ingredients
"CREAM CHEESE (PASTEURIZED CULTURED MILK AND CREAM, SALT, STABILIZERS (XANTHAN AND/OR CAROB BEAN AND/OR GUAR GUMS)), CHICKEN BREAST MEAT, HOT SAUCE (PEPPERS, VINEGAR, WATER, SALT, GARLIC POWDER), CONTAINS 2% OR LESS OF THE FOLLOWING: MALTODEXTRIN, CULTURED DEXTROSE, SODIUM DIACETATE, NISIN, SODIUM CHLORIDE, EGG, WHITE LYSOZYME, CELLULOSE GUM." Date available: 06/25/2017 Date last updated by company: 06/25/2017
