Source: USDA Branded Food Products Database Release December 2017 Software v.3.8.6.4 2017-10-02
Report Run at: December 17, 2017 14:00 EST
"Nutrient data for: 45120849, MANGO MEDLEY, UPC: 873668000848"
Food Group:  Branded Food Products Database
Common Name:

Nutrient,Unit,Data points,Std. Error,"140.0 GRM = 140.0g",1Value per 100 g,
Proximates
"Energy",kcal,--,--,60,43
"Protein",g,--,--,0.99,0.71
"Total lipid (fat)",g,--,--,0.00,0.00
"Carbohydrate, by difference",g,--,--,16.00,11.43
"Fiber, total dietary",g,--,--,2.0,1.4
"Sugars, total",g,--,--,12.00,8.57
Minerals
"Calcium, Ca",mg,--,--,20,14
"Iron, Fe",mg,--,--,0.36,0.26
"Potassium, K",mg,--,--,239,171
"Sodium, Na",mg,--,--,0,0
Vitamins
"Vitamin C, total ascorbic acid",mg,--,--,42.0,30.0
"Vitamin A, IU",IU,--,--,750,536
Lipids
"Fatty acids, total saturated",g,--,--,0.000,0.000
"Fatty acids, total trans",g,--,--,0.000,0.000
"Cholesterol",mg,--,--,0,0
Amino Acids
Other
Ingredients
"MANGOS, SLICED STRAWBERRIES, SLICED PEACHES, ASCORBIC ACID AND CITRIC ACID (TO PROMOTE COLOR RETENTION)." Date available: 07/14/2017 Date last updated by company: 07/14/2017
