Source: USDA Branded Food Products Database Release December 2017 Software v.3.8.6.4 2017-10-02
Report Run at: December 17, 2017 14:00 EST
"Nutrient data for: 45267892, MANGO KEY LIME CHUTNEY, UPC: 648253121211"
Food Group:  Branded Food Products Database
Common Name:

Nutrient,Unit,Data points,Std. Error,"0.25 cup = 70.0g",1Value per 100 g,
Proximates
"Energy",kcal,--,--,70,100
"Total lipid (fat)",g,--,--,0.00,0.00
"Carbohydrate, by difference",g,--,--,17.00,24.29
"Fiber, total dietary",g,--,--,1.0,1.4
"Sugars, total",g,--,--,15.00,21.43
Minerals
"Sodium, Na",mg,--,--,85,121
Vitamins
"Vitamin C, total ascorbic acid",mg,--,--,10.7,15.3
"Vitamin A, IU",IU,--,--,536,765
Lipids
Amino Acids
Other
Ingredients
"MANGO, WATER, GRAPE JUICE CONCENTRATE, APPLE CIDER VINEGAR, KEY LIME PUREE (WATER, LIME JUICE CONCENTRATE, PULP, LIME OIL), TAPIOCA STARCH, GINGER, GARLIC, SPICES, CHILI PEPPER." Date available: 10/19/2017 Date last updated by company: 10/19/2017
