Source: USDA Branded Food Products Database Release December 2017 Software v.3.8.6.4 2017-10-02
Report Run at: December 17, 2017 14:05 EST
"Nutrient data for: 45067747, MANGOS SLICED IN SYRUP, UPC: 072878255431"
Food Group:  Branded Food Products Database
Common Name:

Nutrient,Unit,Data points,Std. Error,"2.0 PIECES = 137.0g",1Value per 100 g,
Proximates
"Energy",kcal,--,--,121,88
"Protein",g,--,--,0.00,0.00
"Total lipid (fat)",g,--,--,0.00,0.00
"Carbohydrate, by difference",g,--,--,30.00,21.90
"Fiber, total dietary",g,--,--,1.0,0.7
"Sugars, total",g,--,--,30.00,21.90
Minerals
"Calcium, Ca",mg,--,--,0,0
"Iron, Fe",mg,--,--,0.00,0.00
"Sodium, Na",mg,--,--,10,7
Vitamins
"Vitamin C, total ascorbic acid",mg,--,--,6.2,4.5
"Vitamin A, IU",IU,--,--,511,373
Lipids
"Fatty acids, total saturated",g,--,--,0.000,0.000
"Fatty acids, total trans",g,--,--,0.000,0.000
"Cholesterol",mg,--,--,0,0
Amino Acids
Other
Ingredients
"SLICED MANGOS, WATER AND SUGAR." Date available: 07/14/2017 Date last updated by company: 07/14/2017
