Source: USDA Branded Food Products Database Release December 2017 Software v.3.8.6.4 2017-10-02
Report Run at: December 17, 2017 13:59 EST
"Nutrient data for: 45314885, MANGO JUICE DRINK, UPC: 8964000022993"
Food Group:  Branded Food Products Database
Common Name:

Nutrient,Unit,Data points,Std. Error,"1 cup = 240.0g",1Value per 100 g,
Proximates
"Energy",kcal,--,--,125,52
"Protein",g,--,--,1.01,0.42
"Total lipid (fat)",g,--,--,0.00,0.00
"Carbohydrate, by difference",g,--,--,31.01,12.92
"Fiber, total dietary",g,--,--,1.0,0.4
"Sugars, total",g,--,--,30.00,12.50
Minerals
"Calcium, Ca",mg,--,--,19,8
"Iron, Fe",mg,--,--,0.72,0.30
"Sodium, Na",mg,--,--,5,2
Vitamins
"Vitamin C, total ascorbic acid",mg,--,--,42.0,17.5
"Vitamin A, IU",IU,--,--,4001,1667
Lipids
"Fatty acids, total saturated",g,--,--,0.000,0.000
"Fatty acids, total trans",g,--,--,0.000,0.000
"Cholesterol",mg,--,--,0,0
Amino Acids
Other
Ingredients
"WATER, MANGO PULP, SUGAR, CITRIC ACID, ASCORBIC ACID, STABILIZER: CARBOXYMETHYL CELLULOSE, PRESERVATIVES: SODIUM BENZOATE, POTASSIUM SORBATE & POTASSIUM METABISULPHITE, NATURAL FOOD COLOR: BETA CAROTENE, ARTIFICIAL FOOD COLOR: FD&C YELLOW 6 & ARTIFICIAL MANGO FLAVOR." Date available: 09/27/2017 Date last updated by company: 09/27/2017
