Source: USDA Branded Food Products Database Release December 2017 Software v.3.8.6.4 2017-10-02
Report Run at: December 17, 2017 13:57 EST
"Nutrient data for: 45268837, MANGO FILLED CROISSANTS, UPC: 810509008878"
Food Group:  Branded Food Products Database
Common Name:

Nutrient,Unit,Data points,Std. Error,"1 CROISSANT = 42.0g",1Value per 100 g,
Proximates
"Energy",kcal,--,--,110,262
"Protein",g,--,--,2.00,4.76
"Total lipid (fat)",g,--,--,4.50,10.71
"Carbohydrate, by difference",g,--,--,19.00,45.24
"Fiber, total dietary",g,--,--,0.0,0.0
"Sugars, total",g,--,--,8.00,19.05
Minerals
"Calcium, Ca",mg,--,--,40,95
"Iron, Fe",mg,--,--,0.94,2.25
"Sodium, Na",mg,--,--,95,226
Vitamins
"Vitamin C, total ascorbic acid",mg,--,--,3.1,7.5
"Vitamin A, IU",IU,--,--,262,624
Lipids
"Fatty acids, total saturated",g,--,--,1.999,4.760
"Fatty acids, total trans",g,--,--,0.000,0.000
"Cholesterol",mg,--,--,0,0
Amino Acids
Other
Ingredients
"WHEAT FLOUR (ENRICHED WHEAT FLOUR [NIACIN, REDUCED IRON, THIAMINE MONONITRATE, RIBOFLAVIN, FOLIC ACID]. MALTED BARLEY), MANGO FILLING (WATER, SUGAR, MANGOES, FOOD STARCH-MODIFIED, CONTAINS 2% OR LESS OF: AGAR-AGAR, CITRIC ACID, NATURAL AND ARTIFICIAL FLAVOR, PRESERVATIVE [POTASSIUM SORBATE], SODIUM CITRATE, TITANIUM DIOXIDE [COLOR], TRAGACANTH GUM, YELLOW 6), WATER, MARGARINE (MADE FROM PALM OIL, WATER, SOYBEAN OIL, SUGAR, SOYBEAN LECITHIN [SOY, WITH MONO- AND DIGLYCERIDES ADDED, POTASSIUM SORBATE AND CITRIC ACID ADDED AS PRESERVATIVES, ARTIFICIAL BUTTER FLAVOR, COLORED WITH BETA CAROTENE. VITAMIN A PALMITATE ADDED), SUGAR, NONFAT MILK POWDER, YEAST, UNSALTED BUTTER (CREAM), SALT, VITAL WHEAT GLUTEN, CALCIUM PROPIONATE, ENZYMES [CONTAINS WHEAT] AND 2% OR LESS OF EACH OF THE FOLLOWING: ASCORBIC ACID [VITAMIN C], SOYBEAN OIL), POTASSIUM SORBATE (PRESERVATIVE), DOUGH CONDITIONER (WHEAT FLOUR, ENZYMES), DRY EGGS (CORN FLOUR, DEXTROSE, SALT, SOY OIL, EGG YOLK, SOY LECITHIN CONTAINS 2% OR LESS OF: BETA CAROTENE)." Date available: 07/14/2017 Date last updated by company: 07/14/2017
