Source: USDA Branded Food Products Database Release December 2017 Software v.3.8.6.4 2017-10-02
Report Run at: December 17, 2017 14:01 EST
"Nutrient data for: 45275951, MANGO PEACH SALSA, UPC: 077718998516"
Food Group:  Branded Food Products Database
Common Name:

Nutrient,Unit,Data points,Std. Error,"2.0 Tbsp = 30.0g",1Value per 100 g,
Proximates
"Energy",kcal,--,--,20,67
"Protein",g,--,--,0.00,0.00
"Total lipid (fat)",g,--,--,0.00,0.00
"Carbohydrate, by difference",g,--,--,6.00,20.00
"Fiber, total dietary",g,--,--,1.0,3.3
"Sugars, total",g,--,--,5.00,16.67
Minerals
"Calcium, Ca",mg,--,--,0,0
"Iron, Fe",mg,--,--,0.00,0.00
"Sodium, Na",mg,--,--,80,267
Vitamins
"Vitamin C, total ascorbic acid",mg,--,--,30.0,100.0
"Vitamin A, IU",IU,--,--,833,2778
Lipids
"Fatty acids, total saturated",g,--,--,0.000,0.000
"Fatty acids, total trans",g,--,--,0.000,0.000
"Cholesterol",mg,--,--,0,0
Amino Acids
Other
Ingredients
"PEACH, MANGO, TOMATO, RED BELL PEPPER, CHILI SAUCE (SUGAR, WATER, VINEGAR, GARLIC, SALT, GUAR GUM, CITRIC ACID), SUGAR, CILANTRO, CONTAINS LESS THAN 1%: SALT, LACTIC ACID, POTASSIUM SORBATE (PRESERVATIVE), AND SODIUM BENZOATE (PRESERVATIVE)" Date available: 07/14/2017 Date last updated by company: 07/14/2017
