Source: USDA Branded Food Products Database Release December 2017 Software v.3.8.6.4 2017-10-02
Report Run at: December 17, 2017 14:04 EST
"Nutrient data for: 45182742, MANGO SHERBET, UPC: 041318450590"
Food Group:  Branded Food Products Database
Common Name:

Nutrient,Unit,Data points,Std. Error,"0.5 cup = 85.0g",1Value per 100 g,
Proximates
"Energy",kcal,--,--,110,129
"Protein",g,--,--,1.00,1.18
"Total lipid (fat)",g,--,--,1.00,1.18
"Carbohydrate, by difference",g,--,--,26.00,30.59
"Fiber, total dietary",g,--,--,0.0,0.0
"Sugars, total",g,--,--,19.00,22.35
Minerals
"Calcium, Ca",mg,--,--,20,24
"Iron, Fe",mg,--,--,0.00,0.00
"Sodium, Na",mg,--,--,20,24
Vitamins
"Vitamin C, total ascorbic acid",mg,--,--,1.4,1.6
"Vitamin A, IU",IU,--,--,112,132
Lipids
"Fatty acids, total saturated",g,--,--,0.501,0.590
"Fatty acids, total trans",g,--,--,0.000,0.000
"Cholesterol",mg,--,--,5,6
Amino Acids
Other
Ingredients
"WATER, MANGO PUREE (MANGO PUREE, HIGH FRUCTOSE CORN SYRUP, CORN SYRUP, GUAR GUM, NATURAL FLAVOR, CITRIC ACID, ASCORBIC ACID), CORN SYRUP, SKIM MILK, HIGH FRUCTOSE CORN SYRUP, SUGAR, CREAM, WHEY, CONTAINS 2% OR LESS OF LOCUST BEAN GUM, MONO-AND DIGLYCERIDES, MODIFIED CELLULOSE, GUAR GUM, POLYSORBATE 80, NATURAL FLAVORS, CITRIC ACID, RED 40, TURMERIC (COLOR)." Date available: 07/14/2017 Date last updated by company: 07/14/2017
