Source: USDA Branded Food Products Database Release December 2017 Software v.3.8.6.4 2017-10-02
Report Run at: December 17, 2017 14:12 EST
"Nutrient data for: 45168728, MANITOU TRADING COMPANY, LOWCOUNTRY RED RICE, UPC: 687080623321"
Food Group:  Branded Food Products Database
Common Name:

Nutrient,Unit,Data points,Std. Error,"0.25 cup = 50.0g",1Value per 100 g,
Proximates
"Energy",kcal,--,--,180,360
"Protein",g,--,--,5.00,10.00
"Total lipid (fat)",g,--,--,2.50,5.00
"Carbohydrate, by difference",g,--,--,36.00,72.00
"Fiber, total dietary",g,--,--,3.0,6.0
"Sugars, total",g,--,--,1.00,2.00
Minerals
"Calcium, Ca",mg,--,--,20,40
"Iron, Fe",mg,--,--,1.29,2.59
"Sodium, Na",mg,--,--,380,760
Vitamins
"Vitamin C, total ascorbic acid",mg,--,--,21.6,43.2
"Vitamin A, IU",IU,--,--,675,1350
Lipids
"Fatty acids, total saturated",g,--,--,0.000,0.000
"Fatty acids, total trans",g,--,--,0.000,0.000
"Cholesterol",mg,--,--,0,0
Amino Acids
Other
Ingredients
"ORGANIC BROWN RICE, ORGANIC MILLET SEED, ORGANIC KANIWA, ORGANIC DAIKON RADISH SEEDS, ORGANIC BELL PEPPERS, ORGANIC TOMATO POWDER CONTAINS 2% OR LESS SALT, ORGANIC MINCED ONION, ORGANIC CANOLA OIL, ORGANIC MINCED GARLIC, ORGANIC PAPRIKA, ORGANIC SPICES, ORGANIC LEEK FLAKES, CITRIC ACID" Date available: 07/14/2017 Date last updated by company: 07/14/2017
