Source: USDA Branded Food Products Database Release December 2017 Software v.3.8.6.4 2017-10-02
Report Run at: December 17, 2017 14:10 EST
"Nutrient data for: 45040547, MANISCHEWITZ, POTATO PANCAKE MIX, UPC: 072700000642"
Food Group:  Branded Food Products Database
Common Name:

Nutrient,Unit,Data points,Std. Error,"3.0 Tbsp = 24.0g",1Value per 100 g,
Proximates
"Energy",kcal,--,--,80,333
"Protein",g,--,--,2.00,8.33
"Total lipid (fat)",g,--,--,1.00,4.17
"Carbohydrate, by difference",g,--,--,18.00,75.00
"Fiber, total dietary",g,--,--,2.0,8.3
"Sugars, total",g,--,--,1.00,4.17
Minerals
"Calcium, Ca",mg,--,--,0,0
"Iron, Fe",mg,--,--,0.60,2.50
"Sodium, Na",mg,--,--,500,2083
Vitamins
"Vitamin C, total ascorbic acid",mg,--,--,4.0,16.7
"Vitamin A, IU",IU,--,--,0,0
Lipids
"Fatty acids, total saturated",g,--,--,0.499,2.080
"Fatty acids, total trans",g,--,--,0.000,0.000
"Cholesterol",mg,--,--,0,0
Amino Acids
Other
Ingredients
"POTATOES (CONTAINS SULFITES TO MAINTAIN WHITENESS), POTATO STARCH, SALT, ONION, VEGETABLE SHORTENING (PARTIALLY HYDROGENATED COTTONSEED OIL)." Date available: 06/24/2017 Date last updated by company: 06/24/2017
