Source: USDA Branded Food Products Database Release December 2017 Software v.3.8.6.4 2017-10-02
Report Run at: December 17, 2017 14:15 EST
"Nutrient data for: 45191602, MANTECADAS MUFFINS, UPC: 078742100432"
Food Group:  Branded Food Products Database
Common Name:

Nutrient,Unit,Data points,Std. Error,"1 MUFFIN = 99.0g",1Value per 100 g,
Proximates
"Energy",kcal,--,--,320,323
"Protein",g,--,--,4.00,4.04
"Total lipid (fat)",g,--,--,12.00,12.12
"Carbohydrate, by difference",g,--,--,50.00,50.51
"Fiber, total dietary",g,--,--,1.0,1.0
"Sugars, total",g,--,--,28.00,28.28
Minerals
"Calcium, Ca",mg,--,--,40,40
"Iron, Fe",mg,--,--,0.80,0.81
"Sodium, Na",mg,--,--,350,354
Vitamins
"Vitamin C, total ascorbic acid",mg,--,--,0.0,0.0
"Vitamin A, IU",IU,--,--,417,421
Lipids
"Fatty acids, total saturated",g,--,--,2.000,2.020
"Fatty acids, total trans",g,--,--,0.000,0.000
"Cholesterol",mg,--,--,35,35
Amino Acids
Other
Ingredients
"BLEACHED ENRICHED WHEAT FLOUR (WHEAT FLOUR, NIACIN, REDUCED IRON, THIAMINE MONONITRATE, RIBOFLAVIN, FOLIC ACID), SUGAR, WATER, SOYBEAN AND/OR CANOLA OIL, EGGS, BUTTERMILK (PART-SKIM MILK, SALT, SODIUM CITRATE, BACTERIAL CULTURE), WHEY (MILK), MODIFIED CORN STARCH, LEAVENING (SODIUM ACID PYROPHOSPHATE, SODIUM BICARBONATE, MONOCALCIUM PHOSPHATE), NATURAL AND ARTIFICIAL FLAVOR, SOY LECITHIN, MONO- AND DIGLYCERIDES, SALT, SODIUM STEAROYL LACTYLATE, CELLULOSE GUM, BETA-CAROTENE (COLOR)." Date available: 07/14/2017 Date last updated by company: 07/14/2017
