Source: USDA Branded Food Products Database Release December 2017 Software v.3.8.6.4 2017-10-02
Report Run at: December 17, 2017 14:19 EST
"Nutrient data for: 45214613, MANZANILLA STUFFED SPANISH OLIVES WITH PIMENTO, UPC: 070253283253"
Food Group:  Branded Food Products Database
Common Name:

Nutrient,Unit,Data points,Std. Error,"5.0 OLIVES = 15.0g",1Value per 100 g,
Proximates
"Energy",kcal,--,--,25,167
"Protein",g,--,--,0.00,0.00
"Total lipid (fat)",g,--,--,2.50,16.67
"Carbohydrate, by difference",g,--,--,0.00,0.00
Minerals
"Sodium, Na",mg,--,--,120,800
Vitamins
Lipids
"Fatty acids, total trans",g,--,--,0.000,0.000
Amino Acids
Other
Ingredients
"MANZANILLA OLIVES, WATER, MINCED PIMENTOS, SALT, LACTIC ACID, SODIUM ALGINATE, GUAR GUM, CALCIUM CHLORIDE AND POTASSIUM SORBATE." Date available: 10/19/2017 Date last updated by company: 10/19/2017
