Source: USDA Branded Food Products Database Release December 2017 Software v.3.8.6.4 2017-10-02
Report Run at: December 17, 2017 14:30 EST
"Nutrient data for: 45285361, MAPLE SODA, UPC: 866235000136"
Food Group:  Branded Food Products Database
Common Name:

Nutrient,Unit,Data points,Std. Error,"1 CAN = 355.0g",1Value per 100 g,
Proximates
"Energy",kcal,--,--,89,25
"Protein",g,--,--,0.00,0.00
"Total lipid (fat)",g,--,--,0.00,0.00
"Carbohydrate, by difference",g,--,--,19.99,5.63
"Sugars, total",g,--,--,16.01,4.51
Minerals
"Calcium, Ca",mg,--,--,39,11
"Iron, Fe",mg,--,--,0.75,0.21
"Potassium, K",mg,--,--,110,31
"Sodium, Na",mg,--,--,0,0
"Zinc, Zn",mg,--,--,0.28,0.08
"Manganese, Mn",mg,--,--,0.000,0.000
Vitamins
Lipids
Amino Acids
Other
Ingredients
"CARBONATED MAPLE SAP" Date available: 09/21/2017 Date last updated by company: 09/21/2017
