Source: USDA Branded Food Products Database Release December 2017 Software v.3.8.6.4 2017-10-02
Report Run at: December 17, 2017 14:27 EST
"Nutrient data for: 45136128, MAPLE HILL CREAMERY, DRINKABLE YOGURT, VANILLA, UPC: 705105543253"
Food Group:  Branded Food Products Database
Common Name:

Nutrient,Unit,Data points,Std. Error,"0.5 CONTAINER = 177.0g",1Value per 100 g,
Proximates
"Energy",kcal,--,--,150,85
"Protein",g,--,--,6.99,3.95
"Total lipid (fat)",g,--,--,6.99,3.95
"Carbohydrate, by difference",g,--,--,16.99,9.60
"Fiber, total dietary",g,--,--,0.0,0.0
"Sugars, total",g,--,--,16.00,9.04
Minerals
"Calcium, Ca",mg,--,--,250,141
"Iron, Fe",mg,--,--,0.00,0.00
"Sodium, Na",mg,--,--,99,56
Vitamins
"Vitamin C, total ascorbic acid",mg,--,--,0.0,0.0
"Vitamin A, IU",IU,--,--,289,163
Lipids
"Fatty acids, total saturated",g,--,--,4.991,2.820
"Fatty acids, total trans",g,--,--,0.000,0.000
"Cholesterol",mg,--,--,30,17
Amino Acids
Other
Ingredients
"WHOLE ORGANIC MILK, ORGANIC SUGAR, ORGANIC VANILLA EXTRACT, CULTURES." Date available: 07/14/2017 Date last updated by company: 07/14/2017
