Source: USDA Branded Food Products Database Release December 2017 Software v.3.8.6.4 2017-10-02
Report Run at: December 17, 2017 14:27 EST
"Nutrient data for: 45004570, MAPLE HILL CREAMERY, CREAMLINE YOGURT MADE FROM ORGANIC MILK, VANILLA, UPC: 705105541754"
Food Group:  Branded Food Products Database
Common Name:

Nutrient,Unit,Data points,Std. Error,"1 cup = 227.0g",1Value per 100 g,
Proximates
"Energy",kcal,--,--,200,88
"Protein",g,--,--,8.99,3.96
"Total lipid (fat)",g,--,--,10.01,4.41
"Carbohydrate, by difference",g,--,--,22.00,9.69
"Fiber, total dietary",g,--,--,0.0,0.0
"Sugars, total",g,--,--,21.00,9.25
Minerals
"Calcium, Ca",mg,--,--,300,132
"Iron, Fe",mg,--,--,0.00,0.00
"Sodium, Na",mg,--,--,129,57
Vitamins
"Vitamin C, total ascorbic acid",mg,--,--,0.0,0.0
"Vitamin A, IU",IU,--,--,225,99
Lipids
"Fatty acids, total saturated",g,--,--,5.993,2.640
"Fatty acids, total trans",g,--,--,0.000,0.000
"Cholesterol",mg,--,--,34,15
Amino Acids
Other
Ingredients
"PASTEURIZED WHOLE ORGANIC MILK, ORGANIC SUGAR, ORGANIC VANILLA EXTRACT, LIVE YOGURT CULTURES." Date available: 07/14/2017 Date last updated by company: 07/14/2017
