Source: USDA Branded Food Products Database Release December 2017 Software v.3.8.6.4 2017-10-02
Report Run at: December 17, 2017 14:26 EST
"Nutrient data for: 45023156, MAPLEGROVE FOODS, PASTARISO, GLUTEN FREE MAC & CHEEZE, BROWN RICE MACARONI & WHITE CHEDDAR CHEESE, UPC: 770218300017"
Food Group:  Branded Food Products Database
Common Name:

Nutrient,Unit,Data points,Std. Error,"2.0 oz = 56.0g",1Value per 100 g,
Proximates
"Energy",kcal,--,--,169,302
"Protein",g,--,--,8.00,14.29
"Total lipid (fat)",g,--,--,1.00,1.79
"Carbohydrate, by difference",g,--,--,32.00,57.14
"Fiber, total dietary",g,--,--,6.0,10.7
"Sugars, total",g,--,--,2.00,3.57
Minerals
"Calcium, Ca",mg,--,--,60,107
"Iron, Fe",mg,--,--,2.70,4.82
"Sodium, Na",mg,--,--,152,271
Vitamins
"Vitamin C, total ascorbic acid",mg,--,--,0.0,0.0
"Vitamin A, IU",IU,--,--,300,536
Lipids
"Fatty acids, total saturated",g,--,--,0.498,0.890
"Fatty acids, total trans",g,--,--,0.000,0.000
"Cholesterol",mg,--,--,3,5
Amino Acids
Other
Ingredients
"PASTA-ORGANIC WHOLEGRAIN BROWN RICE FLOUR. CHEESE SAUCE MIX-ORGANIC WHEY, ORGANIC CHEDDAR CHEESE POWDER (ORGANIC CHEDDAR CHEESE {PASTEURIZED MILK, CHEESE CULTURES, SALT, ENZYMES}, SODIUM PHOSPHATE), ORGANIC CORN STARCH, SALT,." Date available: 03/22/2017 Date last updated by company: 03/22/2017
