Source: USDA Branded Food Products Database Release December 2017 Software v.3.8.6.4 2017-10-02
Report Run at: December 17, 2017 14:25 EST
"Nutrient data for: 45141061, MAPLE GROVE FARMS OF VERMONT, SUGAR FREE BALSAMIC VINAIGRETTE, UPC: 074683008516"
Food Group:  Branded Food Products Database
Common Name:

Nutrient,Unit,Data points,Std. Error,"2.0 Tbsp = 30.0g",1Value per 100 g,
Proximates
"Energy",kcal,--,--,10,33
"Protein",g,--,--,0.00,0.00
"Total lipid (fat)",g,--,--,0.00,0.00
"Carbohydrate, by difference",g,--,--,1.00,3.33
Minerals
"Sodium, Na",mg,--,--,90,300
Vitamins
"Vitamin C, total ascorbic acid",mg,--,--,2.0,6.7
Lipids
Amino Acids
Other
Ingredients
"WATER, CIDER VINEGAR, BALSAMIC VINEGAR, DRIED ONION, DRIED GARLIC, SALT, DRIED RED AND GREEN BELL PEPPERS, XANTHAN GUM, GUAR GUM, NATURAL FLAVOR, SUCRALOSE, POTASSIUM SORBATE (TO PRESERVE FRESHNESS)," Date available: 07/14/2017 Date last updated by company: 07/14/2017
