Source: USDA Branded Food Products Database Release December 2017 Software v.3.8.6.4 2017-10-02
Report Run at: December 17, 2017 14:31 EST
"Nutrient data for: 45239136, MAPLE SYRUP, UPC: 886926045550"
Food Group:  Branded Food Products Database
Common Name:

Nutrient,Unit,Data points,Std. Error,"0.25 cup = 60.0g",1Value per 100 g,
Proximates
"Energy",kcal,--,--,210,350
"Protein",g,--,--,0.00,0.00
"Total lipid (fat)",g,--,--,0.00,0.00
"Carbohydrate, by difference",g,--,--,53.00,88.33
"Fiber, total dietary",g,--,--,0.0,0.0
"Sugars, total",g,--,--,50.00,83.33
Minerals
"Calcium, Ca",mg,--,--,60,100
"Iron, Fe",mg,--,--,0.90,1.50
"Sodium, Na",mg,--,--,5,8
Vitamins
"Vitamin C, total ascorbic acid",mg,--,--,0.0,0.0
"Vitamin A, IU",IU,--,--,0,0
Lipids
"Fatty acids, total saturated",g,--,--,0.000,0.000
"Fatty acids, total trans",g,--,--,0.000,0.000
"Cholesterol",mg,--,--,0,0
Amino Acids
Other
Ingredients
"PURE MAPLE SYRUP." Date available: 07/14/2017 Date last updated by company: 07/14/2017
