Source: USDA Branded Food Products Database Release December 2017 Software v.3.8.6.4 2017-10-02
Report Run at: December 17, 2017 14:34 EST
"Nutrient data for: 45096264, MARANATHA, ALMOND SPREAD, DARK CHOCOLATE, UPC: 051651093637"
Food Group:  Branded Food Products Database
Common Name:

Nutrient,Unit,Data points,Std. Error,"2.0 Tbsp = 32.0g",1Value per 100 g,
Proximates
"Energy",kcal,--,--,180,562
"Protein",g,--,--,4.00,12.50
"Total lipid (fat)",g,--,--,14.00,43.75
"Carbohydrate, by difference",g,--,--,12.00,37.50
"Fiber, total dietary",g,--,--,2.0,6.2
"Sugars, total",g,--,--,9.00,28.12
Minerals
"Calcium, Ca",mg,--,--,80,250
"Iron, Fe",mg,--,--,1.69,5.28
"Sodium, Na",mg,--,--,15,47
Vitamins
"Vitamin C, total ascorbic acid",mg,--,--,0.0,0.0
"Vitamin A, IU",IU,--,--,0,0
Lipids
"Fatty acids, total saturated",g,--,--,3.002,9.380
"Fatty acids, total trans",g,--,--,0.000,0.000
"Cholesterol",mg,--,--,0,0
Amino Acids
Other
Ingredients
"DRY ROASTED ALMONDS, EVAPORATED CANE JUICE, PALM OIL, COCA POWDER (ALKALIZED), NON-FAT DRY MILK, CANOLA OIL, SOY LECITHIN, NATURAL VANILLA FLAVOR, SALT." Date available: 06/25/2017 Date last updated by company: 06/25/2017
