Source: USDA Branded Food Products Database Release December 2017 Software v.3.8.6.4 2017-10-02
Report Run at: December 17, 2017 14:43 EST
"Nutrient data for: 45098354, MARCELLED POTATO CHIPS, UPC: 073364000986"
Food Group:  Branded Food Products Database
Common Name:

Nutrient,Unit,Data points,Std. Error,"20.0 CHIPS) | (ABOUT = 28.0g",1Value per 100 g,
Proximates
"Energy",kcal,--,--,150,536
"Protein",g,--,--,2.00,7.14
"Total lipid (fat)",g,--,--,9.00,32.14
"Carbohydrate, by difference",g,--,--,15.00,53.57
"Fiber, total dietary",g,--,--,1.0,3.6
"Sugars, total",g,--,--,5.00,17.86
Minerals
"Calcium, Ca",mg,--,--,0,0
"Iron, Fe",mg,--,--,1.29,4.59
"Sodium, Na",mg,--,--,180,643
Vitamins
"Vitamin C, total ascorbic acid",mg,--,--,0.0,0.0
"Vitamin A, IU",IU,--,--,357,1275
Lipids
"Fatty acids, total saturated",g,--,--,1.501,5.360
"Fatty acids, total trans",g,--,--,1.501,5.360
"Cholesterol",mg,--,--,0,0
Amino Acids
Other
Ingredients
"INGREDIENTS: SELECT POTATOES, CONTAINS ONE OR MORE OF THE FOLLOWING OILS/SHORTENINGS: SOYBEAN, PARTIALLY HYDROGENATED VEGETABLE (SOYBEAN), SAFFLOWER, CORN, CANOLA, OR COTTONSEED, SALT ADDED. BARBEQUE SEASONING CONTAINS: SUGAR, TORULA YEAST, DEXTROSE, ONION AND GARLIC POWDERS, SALT, SPICES, MOLASSES POWDER, YEAST EXTRACT, NATURAL FLAVORS, OLEORESIN PAPRIKA, SESAME OIL, AND SILICON DIOXIDE ADDED TO PREVENT CAKING." Date available: 07/14/2017 Date last updated by company: 07/14/2017
