Source: USDA Branded Food Products Database Release December 2017 Software v.3.8.6.4 2017-10-02
Report Run at: December 17, 2017 14:49 EST
"Nutrient data for: 45258357, MARGARITE FLATBREAD, UPC: 852514006104"
Food Group:  Branded Food Products Database
Common Name:

Nutrient,Unit,Data points,Std. Error,"1 PACKAGE = 269.0g",1Value per 100 g,
Proximates
"Energy",kcal,--,--,549,204
"Protein",g,--,--,22.00,8.18
"Total lipid (fat)",g,--,--,24.99,9.29
"Carbohydrate, by difference",g,--,--,55.01,20.45
"Fiber, total dietary",g,--,--,8.9,3.3
"Sugars, total",g,--,--,6.99,2.60
Minerals
"Calcium, Ca",mg,--,--,600,223
"Iron, Fe",mg,--,--,2.34,0.87
"Sodium, Na",mg,--,--,931,346
Vitamins
"Vitamin C, total ascorbic acid",mg,--,--,4.6,1.7
"Vitamin A, IU",IU,--,--,780,290
Lipids
"Fatty acids, total saturated",g,--,--,11.997,4.460
"Fatty acids, total trans",g,--,--,0.000,0.000
"Cholesterol",mg,--,--,65,24
Amino Acids
Other
Ingredients
"FLATBREAD (WHOLE WHEAT FLOUR, WATER, WHEAT FLOUR, YEAST, CONTAINS 2% OR LESS OF: PALM OIL, HONEY, EXTRA VIRGIN OLIVE OIL, SALT, SUGAR), TOMATOES, MOZZARELLA CHEESE (PASTEURIZED MILK, VINEGAR, ENZYMES, SALT), OLD SCHOOL PIZZA SAUCE (TOMATO SAUCE [TOMATO CONCENTRATE (WATER, TOMATO PASTE), WATER, SALT, ONION POWDER, GARLIC POWDER, CITRIC ACID, NATURAL FLAVORS], TOMATO PASTE [TOMATOES, CITRIC ACID], NON-GMO CANOLA OIL AND EXTRA VIRGIN OLIVE OIL, PIZZA SAUCE [SUGAR, DEHYDRATED GARLIC AND ONION, SALT, SPICES, PAPRIKA], RED WINE VINEGAR [BURGUNDY WINE VINEGAR, DILUTED WITH WATER TO 5% ACIDITY, SULPHUR DIOXIDE ADDED TO WINE TO PROTECT COLOR]), CHEESE BLEND (PARMESAN CHEESE [PASTEURIZED MILK, CHEESE CULTURES, SALT, ENZYMES], ASIAGO CHEESE [PASTEURIZED MILK, CHEESE CULTURE, SALT, AND ENZYMES. POWDERED CELLULOSE IS ADDED TO PREVENT CAKING]), HERB MIX (OREGANO, BASIL, GARLIC)." Date available: 08/30/2017 Date last updated by company: 08/30/2017
