Source: USDA Branded Food Products Database Release December 2017 Software v.3.8.6.4 2017-10-02
Report Run at: December 17, 2017 14:51 EST
"Nutrient data for: 45232675, MARGHERITA RICE CRUST PIZZA, UPC: 042272003846"
Food Group:  Branded Food Products Database
Common Name:

Nutrient,Unit,Data points,Std. Error,"1 PIZZA = 181.0g",1Value per 100 g,
Proximates
"Energy",kcal,--,--,491,271
"Protein",g,--,--,12.00,6.63
"Total lipid (fat)",g,--,--,25.00,13.81
"Carbohydrate, by difference",g,--,--,55.01,30.39
"Fiber, total dietary",g,--,--,4.0,2.2
"Sugars, total",g,--,--,8.00,4.42
Minerals
"Calcium, Ca",mg,--,--,199,110
"Iron, Fe",mg,--,--,1.94,1.07
"Sodium, Na",mg,--,--,681,376
Vitamins
"Vitamin C, total ascorbic acid",mg,--,--,3.8,2.1
"Vitamin A, IU",IU,--,--,646,357
Lipids
"Fatty acids, total saturated",g,--,--,5.991,3.310
"Fatty acids, total trans",g,--,--,0.000,0.000
"Cholesterol",mg,--,--,20,11
Amino Acids
Other
Ingredients
"FILTERED WATER, ORGANIC TOMATO PUREE, ORGANIC RICE FLOUR, WHOLE MILK MOZZARELLA CHEESE (PASTEURIZED WHOLE MILK, CULTURE, VINEGAR [GLUTEN FREE], SALT, ENZYMES [WITHOUT ANIMAL ENZYMES OR RENNET]), ORGANIC SUNFLOWER SEED MEAL, ORGANIC POTATOES, ORGANIC EXTRA VIRGIN OLIVE OIL, ORGANIC TAPIOCA STARCH, ORGANIC AGAVE NECTAR, PARMESAN CHEESE (PASTEURIZED PART-SKIM MILK, CULTURE, SALT, ENZYMES [WITHOUT ANIMAL ENZYMES OR RENNET]), EXPELLER PRESSED HIGH OLEIC SAFFLOWER AND/OR SUNFLOWER OIL, ORGANIC BASIL, SEA SALT, ORGANIC GARLIC, ORGANIC CANE SUGAR, YEAST, SOY LECITHIN, SPICES*." Date available: 08/22/2017 Date last updated by company: 08/22/2017
