Source: USDA Branded Food Products Database Release December 2017 Software v.3.8.6.4 2017-10-02
Report Run at: December 17, 2017 14:51 EST
"Nutrient data for: 45286128, MARGHERITA PIZZA, UPC: 075450199637"
Food Group:  Branded Food Products Database
Common Name:

Nutrient,Unit,Data points,Std. Error,"0.333 PIZZA = 140.0g",1Value per 100 g,
Proximates
"Energy",kcal,--,--,309,221
"Protein",g,--,--,16.00,11.43
"Total lipid (fat)",g,--,--,11.00,7.86
"Carbohydrate, by difference",g,--,--,35.99,25.71
"Fiber, total dietary",g,--,--,2.0,1.4
"Sugars, total",g,--,--,3.00,2.14
Minerals
"Calcium, Ca",mg,--,--,200,143
"Iron, Fe",mg,--,--,5.01,3.58
"Sodium, Na",mg,--,--,820,586
Vitamins
"Vitamin C, total ascorbic acid",mg,--,--,11.8,8.4
"Vitamin A, IU",IU,--,--,697,498
Lipids
"Fatty acids, total saturated",g,--,--,6.006,4.290
"Fatty acids, total trans",g,--,--,0.000,0.000
"Cholesterol",mg,--,--,41,29
Amino Acids
Other
Ingredients
"DOUGH (SOFT WHEAT FLOUR, WATER, SUNFLOWER SEED OIL, SALT, YEAST), TOMATO SAUCE (TOMATO PASSATA, WATER, TOMATO PASTE, ONION, CORN STARCH, GARLIC, BASIL, SALT, BALSAMIC VINEGAR 'ACETO BALSAMICO DI MODENA' PGI [WINE VINEGAR, CONCENTRATED GRAPE MUST], BLACK PEPPER, OREGANO, DILL), SLICED MOZZARELLA CHEESE (MILK, SALT, MICROBIAL RENNET), MOZZARELLA CHEESE (MILK, STARTER CULTURE, MICROBIAL RENNET, SALT), GRANA PADANO DOP CHEESE (MILK, SALT, ANIMAL RENNET, LYSOZYME FROM EGGS [PRESERVATIVE]), BASIL." Date available: 07/14/2017 Date last updated by company: 07/14/2017
