Source: USDA Branded Food Products Database Release December 2017 Software v.3.8.6.4 2017-10-02
Report Run at: December 17, 2017 14:49 EST
"Nutrient data for: 45098058, MARGE GRANOLA, BLUEBERRY ALMOND FLAX, UPC: 852446005060"
Food Group:  Branded Food Products Database
Common Name:

Nutrient,Unit,Data points,Std. Error,"0.333 cup = 31.0g",1Value per 100 g,
Proximates
"Energy",kcal,--,--,133,429
"Protein",g,--,--,3.00,9.68
"Total lipid (fat)",g,--,--,7.00,22.58
"Carbohydrate, by difference",g,--,--,15.00,48.39
"Fiber, total dietary",g,--,--,2.6,8.4
"Sugars, total",g,--,--,3.00,9.68
Minerals
"Calcium, Ca",mg,--,--,40,129
"Iron, Fe",mg,--,--,1.45,4.68
"Sodium, Na",mg,--,--,91,294
Vitamins
"Vitamin C, total ascorbic acid",mg,--,--,2.0,6.3
"Vitamin A, IU",IU,--,--,0,0
Lipids
"Fatty acids, total saturated",g,--,--,1.001,3.230
"Fatty acids, total trans",g,--,--,0.000,0.000
"Cholesterol",mg,--,--,0,0
Amino Acids
Other
Ingredients
"CERTIFIED GLUTEN-FREE OATS, ALMONDS, ORGANIC SUNFLOWER SEEDS, DRIED WILD BLUEBERRIES (SUN-FLOWER OIL, SUGAR), ORGANIC FLAX SEEDS, OLIVE OIL, ORGANIC MAPLE SYRUP, PURE VANILLA EXTRACT, KOSHER SALT, GROUND GINGER, GROUND CINNAMON." Date available: 07/14/2017 Date last updated by company: 07/14/2017
