Source: USDA Branded Food Products Database Release December 2017 Software v.3.8.6.4 2017-10-02
Report Run at: December 17, 2017 14:47 EST
"Nutrient data for: 45056374, MARGARET HOLMES, SEASONED CABBAGE, UPC: 041443118433"
Food Group:  Branded Food Products Database
Common Name:

Nutrient,Unit,Data points,Std. Error,"0.5 cup = 118.0g",1Value per 100 g,
Proximates
"Energy",kcal,--,--,30,25
"Protein",g,--,--,1.00,0.85
"Total lipid (fat)",g,--,--,0.00,0.00
"Carbohydrate, by difference",g,--,--,7.00,5.93
"Fiber, total dietary",g,--,--,0.9,0.8
"Sugars, total",g,--,--,4.00,3.39
Minerals
"Calcium, Ca",mg,--,--,40,34
"Iron, Fe",mg,--,--,0.98,0.83
"Sodium, Na",mg,--,--,460,390
Vitamins
"Vitamin C, total ascorbic acid",mg,--,--,65.1,55.2
"Vitamin A, IU",IU,--,--,136,115
Lipids
"Fatty acids, total saturated",g,--,--,0.000,0.000
"Fatty acids, total trans",g,--,--,0.000,0.000
"Cholesterol",mg,--,--,0,0
Amino Acids
Other
Ingredients
"CABBAGE, WATER, SUGAR, SALT, MODIFIED FOOD STARCH, DEHYDRATED ONION, MONOSODIUM GLUTAMATE, NATURAL FLAVOR, SPICES, NATURAL SMOKE FLAVOR, ERYTHORBIC ACID, ASCORBIC ACID, CALCIUM DISODIUM EDTA (TO PRESERVE COLOR), AND PARTIALLY HYDROGENATED SOYBEAN OIL." Date available: 07/14/2017 Date last updated by company: 07/14/2017
