Source: USDA Branded Food Products Database Release December 2017 Software v.3.8.6.4 2017-10-02
Report Run at: December 17, 2017 15:13 EST
"Nutrient data for: 45201260, MARINARA SAUCE, UPC: 758666111218"
Food Group:  Branded Food Products Database
Common Name:

Nutrient,Unit,Data points,Std. Error,"0.5 cup = 120.0g",1Value per 100 g,
Proximates
"Energy",kcal,--,--,70,58
"Protein",g,--,--,1.00,0.83
"Total lipid (fat)",g,--,--,2.00,1.67
"Carbohydrate, by difference",g,--,--,10.00,8.33
"Fiber, total dietary",g,--,--,1.0,0.8
"Sugars, total",g,--,--,9.00,7.50
Minerals
"Calcium, Ca",mg,--,--,6,5
"Iron, Fe",mg,--,--,0.58,0.48
"Sodium, Na",mg,--,--,566,472
Vitamins
"Vitamin C, total ascorbic acid",mg,--,--,0.0,0.0
"Vitamin A, IU",IU,--,--,0,0
Lipids
"Fatty acids, total saturated",g,--,--,0.396,0.330
"Fatty acids, total trans",g,--,--,0.000,0.000
"Cholesterol",mg,--,--,0,0
Amino Acids
Other
Ingredients
"DICED TOMATOES, TOMATO PURE, ONIONS, EXTRA VIRGIN OLIVE OIL, SALT, SUGAR, CELERY, GARLIC, BASIL, CHILI PEPPER, ACIDITY REGULATOR: E330." Date available: 07/14/2017 Date last updated by company: 07/14/2017
