Source: USDA Branded Food Products Database Release December 2017 Software v.3.8.6.4 2017-10-02
Report Run at: December 17, 2017 14:57 EST
"Nutrient data for: 45134888, MARIE CALLENDERS Blackberry Cobbler, UNPREPARED, GTIN: 00612781401503"
Food Group:  Branded Food Products Database
Common Name:

Nutrient,Unit,Data points,Std. Error,"0.125 cobbler (113g) = 113.0g",1Value per 100 g,
Proximates
"Energy",kcal,--,--,350,310
"Protein",g,--,--,2.00,1.77
"Total lipid (fat)",g,--,--,20.00,17.70
"Carbohydrate, by difference",g,--,--,40.00,35.40
"Fiber, total dietary",g,--,--,2.0,1.8
"Sugars, total",g,--,--,18.00,15.93
Minerals
"Calcium, Ca",mg,--,--,0,0
"Iron, Fe",mg,--,--,1.44,1.27
"Potassium, K",mg,--,--,55,49
"Sodium, Na",mg,--,--,160,142
Vitamins
"Vitamin C, total ascorbic acid",mg,--,--,1.2,1.1
"Vitamin A, IU",IU,--,--,0,0
Lipids
"Fatty acids, total saturated",g,--,--,8.995,7.960
"Fatty acids, total monounsaturated",g,--,--,2.994,2.650
"Fatty acids, total polyunsaturated",g,--,--,6.995,6.190
"Fatty acids, total trans",g,--,--,0.000,0.000
"Cholesterol",mg,--,--,0,0
Amino Acids
Other
Ingredients
"Filling: Blackberries, Sugar, Water, Apples, Modified Corn Starch, Corn Starch, Salt. Crust: Enriched Wheat Flour (Wheat Flour, Niacin, Reduced Iron, Thiamine Mononitrate, Riboflavin, Folic Acid), Soybean Oil, Hydrogenated Soybean Oil, Water, Dextrose, Salt. CONTAINS: WHEAT." Date available: 10/12/2017 Date last updated by company: 10/12/2017
