Source: USDA Branded Food Products Database Release December 2017 Software v.3.8.6.4 2017-10-02
Report Run at: December 17, 2017 15:11 EST
"Nutrient data for: 45196770, MARINARA PASTA SAUCE, UPC: 058335001865"
Food Group:  Branded Food Products Database
Common Name:

Nutrient,Unit,Data points,Std. Error,"0.5 cup = 120.0g",1Value per 100 g,
Proximates
"Energy",kcal,--,--,46,38
"Protein",g,--,--,2.00,1.67
"Total lipid (fat)",g,--,--,0.00,0.00
"Carbohydrate, by difference",g,--,--,9.00,7.50
"Fiber, total dietary",g,--,--,2.0,1.7
"Sugars, total",g,--,--,5.00,4.17
Minerals
"Calcium, Ca",mg,--,--,14,12
"Iron, Fe",mg,--,--,0.36,0.30
"Potassium, K",mg,--,--,212,177
"Sodium, Na",mg,--,--,440,367
Vitamins
"Vitamin C, total ascorbic acid",mg,--,--,0.6,0.5
"Vitamin A, IU",IU,--,--,779,649
Lipids
"Fatty acids, total saturated",g,--,--,0.000,0.000
"Fatty acids, total trans",g,--,--,0.000,0.000
"Cholesterol",mg,--,--,0,0
Amino Acids
Other
Ingredients
"CRUSHED TOMATOES (WATER, CONCENTRATED CRUSHED TOMATOES), SALT, SUGAR, DRIED ONIONS, NON-HYDROGENATED SOYBEAN OIL, SPICES, DRIED GARLIC, CITRIC ACID." Date available: 07/14/2017 Date last updated by company: 07/14/2017
