Source: USDA Branded Food Products Database Release December 2017 Software v.3.8.6.4 2017-10-02
Report Run at: December 17, 2017 15:14 EST
"Nutrient data for: 45219443, MARINARA SAUCE, UPC: 077890343937"
Food Group:  Branded Food Products Database
Common Name:

Nutrient,Unit,Data points,Std. Error,"0.5 cup = 125.0g",1Value per 100 g,
Proximates
"Energy",kcal,--,--,50,40
"Protein",g,--,--,1.00,0.80
"Total lipid (fat)",g,--,--,1.50,1.20
"Carbohydrate, by difference",g,--,--,9.00,7.20
"Fiber, total dietary",g,--,--,2.0,1.6
"Sugars, total",g,--,--,5.00,4.00
Minerals
"Calcium, Ca",mg,--,--,20,16
"Iron, Fe",mg,--,--,1.14,0.91
"Sodium, Na",mg,--,--,490,392
Vitamins
"Vitamin C, total ascorbic acid",mg,--,--,6.4,5.1
"Vitamin A, IU",IU,--,--,211,169
Lipids
"Fatty acids, total saturated",g,--,--,0.000,0.000
"Fatty acids, total trans",g,--,--,0.000,0.000
"Cholesterol",mg,--,--,0,0
Amino Acids
Other
Ingredients
"ITALIAN TOMATOES, ONIONS, OLIVE OIL, SALT, GARLIC, WATER, SUGAR, MODIFIED CORN STARCH, BASIL, SPICES." Date available: 07/14/2017 Date last updated by company: 07/14/2017
