Source: USDA Branded Food Products Database Release December 2017 Software v.3.8.6.4 2017-10-02
Report Run at: December 17, 2017 15:15 EST
"Nutrient data for: 45221092, MARINARA VERDE, UPC: 741360849839"
Food Group:  Branded Food Products Database
Common Name:

Nutrient,Unit,Data points,Std. Error,"0.5 cup = 125.0g",1Value per 100 g,
Proximates
"Energy",kcal,--,--,70,56
"Protein",g,--,--,2.00,1.60
"Total lipid (fat)",g,--,--,2.50,2.00
"Carbohydrate, by difference",g,--,--,11.00,8.80
"Fiber, total dietary",g,--,--,3.0,2.4
"Sugars, total",g,--,--,1.00,0.80
Minerals
"Calcium, Ca",mg,--,--,40,32
"Iron, Fe",mg,--,--,1.52,1.22
"Sodium, Na",mg,--,--,460,368
Vitamins
"Vitamin C, total ascorbic acid",mg,--,--,19.0,15.2
"Vitamin A, IU",IU,--,--,792,634
Lipids
"Fatty acids, total saturated",g,--,--,0.000,0.000
"Fatty acids, total trans",g,--,--,0.000,0.000
"Cholesterol",mg,--,--,0,0
Amino Acids
Other
Ingredients
"CALIFORNIA TOMATOES, ONION, BELL PEPPERS, MUSHROOMS, EXTRA VIRGIN OLIVE OIL, ITALIAN PARSLEY, GARLIC, BASIL, SEA SALT, PEPPER" Date available: 07/14/2017 Date last updated by company: 07/14/2017
