Source: USDA Branded Food Products Database Release December 2017 Software v.3.8.6.4 2017-10-02
Report Run at: December 17, 2017 14:57 EST
"Nutrient data for: 45133854, MARIE CALLENDERS Breakfast Bacon Egg And Cheese Pot Pie, UNPREPARED, GTIN: 00021131700188"
Food Group:  Branded Food Products Database
Common Name:

Nutrient,Unit,Data points,Std. Error,"1 Piece (198g) = 198.0g",1Value per 100 g,
Proximates
"Energy",kcal,--,--,511,258
"Protein",g,--,--,11.01,5.56
"Total lipid (fat)",g,--,--,32.00,16.16
"Carbohydrate, by difference",g,--,--,45.01,22.73
"Fiber, total dietary",g,--,--,4.0,2.0
"Sugars, total",g,--,--,3.01,1.52
Minerals
"Calcium, Ca",mg,--,--,101,51
"Iron, Fe",mg,--,--,2.69,1.36
"Potassium, K",mg,--,--,190,96
"Sodium, Na",mg,--,--,501,253
Vitamins
"Vitamin C, total ascorbic acid",mg,--,--,2.4,1.2
"Vitamin A, IU",IU,--,--,101,51
Lipids
"Fatty acids, total saturated",g,--,--,13.999,7.070
"Fatty acids, total monounsaturated",g,--,--,7.009,3.540
"Fatty acids, total polyunsaturated",g,--,--,9.999,5.050
"Fatty acids, total trans",g,--,--,0.000,0.000
"Cholesterol",mg,--,--,105,53
Amino Acids
Other
Ingredients
"Filling:  Cheese Sauce (Water, Cream, Cheddar Cheese [Pasteurized Cultured Milk, Salt, Enzymes, Annatto Coloring], Modified Corn Starch, Salt, Spice), Scrambled Eggs (Whole Eggs, Non Fat Milk, Corn Starch, Citric Acid), Potatoes (Potatoes, Disodium Dihydrogen Pyrophosphate [to promote color retention], Dextrose), Contains 2% or less of: Bacon (Bacon Cured With: Water, Salt, Sodium Phosphate, Sodium Nitrate, Smoke Flavoring. May Contain: Sugar, Sodium Erythrobate, Brown Sugar, Sodium Ascorbate, Potassium Chloride, Dextrose). Crust:  Enriched Wheat Flour (Wheat Flour, Niacin, Reduced Iron, Thiamine Mononitrate, Riboflavin, Folic Acid), Interesterified Soybean Oil, Water, Salt, Modified Whey, Caramel Color. CONTAINS: EGG, MILK, WHEAT." Date available: 10/12/2017 Date last updated by company: 10/10/2017
