Source: USDA Branded Food Products Database Release December 2017 Software v.3.8.6.4 2017-10-02
Report Run at: December 17, 2017 15:21 EST
"Nutrient data for: 45018879, MARINELLA, ITALIAN TOMATO PUREE WITH BASIL, UPC: 784380300102"
Food Group:  Branded Food Products Database
Common Name:

Nutrient,Unit,Data points,Std. Error,"0.5 cup = 120.0g",1Value per 100 g,
Proximates
"Energy",kcal,--,--,40,33
"Total lipid (fat)",g,--,--,1.00,0.83
"Carbohydrate, by difference",g,--,--,6.00,5.00
"Fiber, total dietary",g,--,--,2.0,1.7
"Sugars, total",g,--,--,4.00,3.33
Minerals
"Calcium, Ca",mg,--,--,20,17
"Iron, Fe",mg,--,--,0.72,0.60
"Sodium, Na",mg,--,--,20,17
Vitamins
"Vitamin C, total ascorbic acid",mg,--,--,3.0,2.5
"Vitamin A, IU",IU,--,--,250,208
Lipids
"Fatty acids, total saturated",g,--,--,0.000,0.000
"Fatty acids, total trans",g,--,--,0.000,0.000
"Cholesterol",mg,--,--,0,0
Amino Acids
Other
Ingredients
"FRESH TOMATOES PUREE, BASIL, SALT, ACIDITY REGULATOR: CITRIC ACID." Date available: 06/25/2017 Date last updated by company: 06/25/2017
