Source: USDA Branded Food Products Database Release December 2017 Software v.3.8.6.4 2017-10-02
Report Run at: December 17, 2017 15:02 EST
"Nutrient data for: 45134178, MARIE CALLENDERS Red Velvet Cake, UNPREPARED, GTIN: 00021131509149"
Food Group:  Branded Food Products Database
Common Name:

Nutrient,Unit,Data points,Std. Error,"1 mini cake (82g) = 82.0g",1Value per 100 g,
Proximates
"Energy",kcal,--,--,290,354
"Protein",g,--,--,3.00,3.66
"Total lipid (fat)",g,--,--,12.00,14.63
"Carbohydrate, by difference",g,--,--,43.00,52.44
"Fiber, total dietary",g,--,--,1.0,1.2
"Sugars, total",g,--,--,29.00,35.37
Minerals
"Calcium, Ca",mg,--,--,0,0
"Iron, Fe",mg,--,--,1.44,1.76
"Potassium, K",mg,--,--,55,67
"Sodium, Na",mg,--,--,260,317
Vitamins
"Vitamin C, total ascorbic acid",mg,--,--,0.0,0.0
"Vitamin A, IU",IU,--,--,200,244
Lipids
"Fatty acids, total saturated",g,--,--,5.002,6.100
"Fatty acids, total monounsaturated",g,--,--,3.001,3.660
"Fatty acids, total polyunsaturated",g,--,--,3.501,4.270
"Fatty acids, total trans",g,--,--,0.000,0.000
"Cholesterol",mg,--,--,20,24
Amino Acids
Other
Ingredients
"Sugar, Water, Enriched Wheat Flour (Bleached Wheat Flour, Niacin, Reduced Iron, Thiamine Mononitrate, Riboflavin, Folic Acid), Cream Cheese (Pasteurized Milk and Cream, Cheese Cultures, Salt, Carob Bean Gum), Soybean Oil, Butter, Less than 2% of: Cocoa Powder, Distilled Vinegar, Invert Sugar, Corn Starch, Sodium Bicarbonate, Salt, Natural Flavor, Modified Corn Starch, Corn Syrup, Xanthan Gum, Red 40, Caramel Color. CONTAINS: WHEAT, MILK." Date available: 10/11/2017 Date last updated by company: 10/07/2017
