Source: USDA Branded Food Products Database Release December 2017 Software v.3.8.6.4 2017-10-02
Report Run at: December 17, 2017 15:16 EST
"Nutrient data for: 45195773, MARINATED ARTICHOKES QUARTERS WITH EXTRA VIRGIN OLIVE, UPC: 041190054121"
Food Group:  Branded Food Products Database
Common Name:

Nutrient,Unit,Data points,Std. Error,"0.25 cup = 60.0g",1Value per 100 g,
Proximates
"Energy",kcal,--,--,50,83
"Protein",g,--,--,1.00,1.67
"Total lipid (fat)",g,--,--,5.00,8.33
"Carbohydrate, by difference",g,--,--,0.00,0.00
"Fiber, total dietary",g,--,--,3.0,5.0
"Sugars, total",g,--,--,0.00,0.00
Minerals
"Calcium, Ca",mg,--,--,40,67
"Iron, Fe",mg,--,--,0.90,1.50
"Sodium, Na",mg,--,--,380,633
Vitamins
"Vitamin C, total ascorbic acid",mg,--,--,2.0,3.3
"Vitamin A, IU",IU,--,--,83,139
Lipids
"Fatty acids, total saturated",g,--,--,1.998,3.330
"Fatty acids, total trans",g,--,--,0.000,0.000
"Cholesterol",mg,--,--,0,0
Amino Acids
Other
Ingredients
"ARTICHOKES 60%, SUNFLOWER OIL, EXTRA VIRGIN OLIVE OIL 8%, WINE VINEGAR, SALT, FLAVORING (POTATOES MALTODEXTRINES, YEAST EXTRACT, NATURAL FLAVOURING), PARSLEY, BASIL, ANTIOXIDANT AGENT: ASCORBIC ACID." Date available: 07/14/2017 Date last updated by company: 07/14/2017
