Source: USDA Branded Food Products Database Release December 2017 Software v.3.8.6.4 2017-10-02
Report Run at: December 17, 2017 15:08 EST
"Nutrient data for: 45285570, MARINADE SAUCE, UPC: 744042000399"
Food Group:  Branded Food Products Database
Common Name:

Nutrient,Unit,Data points,Std. Error,"2.0 Tbsp = 35.0g",1Value per 100 g,
Proximates
"Energy",kcal,--,--,50,143
"Protein",g,--,--,0.00,0.00
"Total lipid (fat)",g,--,--,2.50,7.14
"Carbohydrate, by difference",g,--,--,11.00,31.43
"Fiber, total dietary",g,--,--,8.0,22.9
"Sugars, total",g,--,--,12.00,34.29
Minerals
"Calcium, Ca",mg,--,--,0,0
"Iron, Fe",mg,--,--,0.61,1.74
"Sodium, Na",mg,--,--,220,629
Vitamins
"Vitamin C, total ascorbic acid",mg,--,--,4.1,11.6
"Vitamin A, IU",IU,--,--,169,483
Lipids
"Fatty acids, total saturated",g,--,--,0.000,0.000
"Fatty acids, total trans",g,--,--,0.000,0.000
"Cholesterol",mg,--,--,0,0
Amino Acids
Other
Ingredients
"WATER, SUGAR, APPLE CIDER VINEGAR, TOMATO PASTE, JAMAICAN JERK SEASONING (SCALLION, HOT PEPPER (SCOTCH BONNET, WEST INDIA RED, WEST INDIA YELLOW), SALT, SPICES, CITRIC ACID), DISTILLED VINEGAR, CORN STARCH, SOYBEAN OIL, ONION, GARLIC, NATURAL FLAVOR, PAPRIKA OLEORESIN, NATURAL SMOKE FLAVOR, GROUND CELERY SEED, CHILI PEPPER, PAPRIKA" Date available: 07/14/2017 Date last updated by company: 07/14/2017
