Source: USDA Branded Food Products Database Release December 2017 Software v.3.8.6.4 2017-10-02
Report Run at: December 17, 2017 15:23 EST
"Nutrient data for: 45264372, MARIONBERRY PRESERVES, UPC: 737550020225"
Food Group:  Branded Food Products Database
Common Name:

Nutrient,Unit,Data points,Std. Error,"1 Tbsp = 20.0g",1Value per 100 g,
Proximates
"Energy",kcal,--,--,60,300
"Protein",g,--,--,0.00,0.00
"Total lipid (fat)",g,--,--,0.00,0.00
"Carbohydrate, by difference",g,--,--,14.00,70.00
"Fiber, total dietary",g,--,--,1.0,5.0
"Sugars, total",g,--,--,13.00,65.00
Minerals
"Sodium, Na",mg,--,--,0,0
Vitamins
Lipids
Amino Acids
Other
Ingredients
"PREMIUM NORTHWEST MARIONBERRIES, SUGAR" Date available: 07/14/2017 Date last updated by company: 07/14/2017
