Source: USDA Branded Food Products Database Release December 2017 Software v.3.8.6.4 2017-10-02
Report Run at: December 17, 2017 14:58 EST
"Nutrient data for: 45134501, MARIE CALLENDERS Comfort Bakes Cheddar And Bacon Potato Bake, UNPREPARED, GTIN: 00021131350338"
Food Group:  Branded Food Products Database
Common Name:

Nutrient,Unit,Data points,Std. Error,"1 Meal (283g) = 283.0g",1Value per 100 g,
Proximates
"Energy",kcal,--,--,340,120
"Protein",g,--,--,12.00,4.24
"Total lipid (fat)",g,--,--,26.01,9.19
"Carbohydrate, by difference",g,--,--,35.01,12.37
"Fiber, total dietary",g,--,--,5.1,1.8
"Sugars, total",g,--,--,2.01,0.71
Minerals
"Calcium, Ca",mg,--,--,201,71
"Iron, Fe",mg,--,--,0.71,0.25
"Potassium, K",mg,--,--,736,260
"Sodium, Na",mg,--,--,860,304
Vitamins
"Vitamin C, total ascorbic acid",mg,--,--,3.7,1.3
"Vitamin A, IU",IU,--,--,5001,1767
Lipids
"Fatty acids, total saturated",g,--,--,8.009,2.830
"Fatty acids, total monounsaturated",g,--,--,5.009,1.770
"Fatty acids, total polyunsaturated",g,--,--,2.490,0.880
"Fatty acids, total trans",g,--,--,0.000,0.000
"Cholesterol",mg,--,--,45,16
Amino Acids
Other
Ingredients
"Roasted Potatoes, Water, Cheddar Cheese (Pasteurized Milk, Cheese Culture, Salt, Enzymes, Annatto), Bacon (cured with Water, Salt, Sodium Phosphate, Sodium Erythorbate, Sodium Nitrite.  May Contain Sugar, Brown Sugar and/or Smoke Flavor), Wine, Scallions, Contains 2% or less of: Butter (Cream, Salt), Modified Corn Starch, Cheese Powder (Whey, Cheese [Granular and Blue {Pasteurized Milk, Cultures, Salt, Enzymes}], Sunflower Oil, Maltodextrin, Salt, Sodium Phosphate, Citric Acid, Lactic Acid), Soybean Oil, Nonfat Dry Milk, Cheddar Cheese Flavor (Cheddar and Colby Cheese [Pasteurized Milk, Cheese Cultures, Salt, Enzymes], Water, Lactic Acid, Yeast Extract, Sodium Citrate, Sodium Phosphate, Salt, Enzymes), Salt, Sodium Phosphates, Sodium Acid Pyrophosphate, Xanthan Gum, Guar Gum, Beta Carotene, Corn Oil. CONTAINS: MILK." Date available: 10/12/2017 Date last updated by company: 10/12/2017
