Source: USDA Branded Food Products Database Release December 2017 Software v.3.8.6.4 2017-10-02
Report Run at: December 17, 2017 15:13 EST
"Nutrient data for: 45196900, MARINARA SAUCE, UPC: 070234011004"
Food Group:  Branded Food Products Database
Common Name:

Nutrient,Unit,Data points,Std. Error,"0.5 cup = 113.0g",1Value per 100 g,
Proximates
"Energy",kcal,--,--,70,62
"Protein",g,--,--,2.00,1.77
"Total lipid (fat)",g,--,--,4.00,3.54
"Carbohydrate, by difference",g,--,--,6.00,5.31
"Fiber, total dietary",g,--,--,1.0,0.9
"Sugars, total",g,--,--,4.00,3.54
Minerals
"Calcium, Ca",mg,--,--,20,18
"Iron, Fe",mg,--,--,0.76,0.67
"Sodium, Na",mg,--,--,420,372
Vitamins
"Vitamin C, total ascorbic acid",mg,--,--,5.1,4.5
"Vitamin A, IU",IU,--,--,792,701
Lipids
"Fatty acids, total saturated",g,--,--,0.000,0.000
"Fatty acids, total trans",g,--,--,0.000,0.000
"Cholesterol",mg,--,--,0,0
Amino Acids
Other
Ingredients
"WHOLE TOMATOES, ONIONS, OLIVE OIL, SALT, GARLIC, BASIL, SPICES" Date available: 07/14/2017 Date last updated by company: 07/14/2017
