Source: USDA Branded Food Products Database Release December 2017 Software v.3.8.6.4 2017-10-02
Report Run at: December 17, 2017 15:14 EST
"Nutrient data for: 45326988, MARINARA SAUCE, UPC: 085715209214"
Food Group:  Branded Food Products Database
Common Name:

Nutrient,Unit,Data points,Std. Error,"0.5 cup = 113.0g",1Value per 100 g,
Proximates
"Energy",kcal,--,--,60,53
"Protein",g,--,--,0.99,0.88
"Total lipid (fat)",g,--,--,4.50,3.98
"Carbohydrate, by difference",g,--,--,4.99,4.42
"Fiber, total dietary",g,--,--,0.0,0.0
"Sugars, total",g,--,--,2.99,2.65
Minerals
"Calcium, Ca",mg,--,--,6,5
"Iron, Fe",mg,--,--,6.99,6.19
"Potassium, K",mg,--,--,12,11
"Sodium, Na",mg,--,--,210,186
Vitamins
"Vitamin D",IU,--,--,0,0
Lipids
"Fatty acids, total saturated",g,--,--,0.497,0.440
"Fatty acids, total trans",g,--,--,0.000,0.000
"Cholesterol",mg,--,--,0,0
Amino Acids
Other
Ingredients
"IMPORTED ITALIAN WHOLE PLUM TOMATOES, TOMATO PUREE, OIL (50/50 BLEND OF EXTRA VIRGIN OLIVE OIL & CANOLA OIL), FRESH GARLIC, SALT, FRESH PARSLEY, FRESH BASIL, BLACK PEPPER, GARLIC POWDER." Date available: 10/18/2017 Date last updated by company: 10/18/2017
