Source: USDA Branded Food Products Database Release December 2017 Software v.3.8.6.4 2017-10-02
Report Run at: December 17, 2017 15:00 EST
"Nutrient data for: 45134561, MARIE CALLENDERS Grilled Chicken Alfredo Bake Dinners, UNPREPARED, GTIN: 00021131505677"
Food Group:  Branded Food Products Database
Common Name:

Nutrient,Unit,Data points,Std. Error,"1 Meal (369g) = 369.0g",1Value per 100 g,
Proximates
"Energy",kcal,--,--,461,125
"Protein",g,--,--,27.01,7.32
"Total lipid (fat)",g,--,--,19.00,5.15
"Carbohydrate, by difference",g,--,--,45.02,12.20
"Fiber, total dietary",g,--,--,7.0,1.9
"Sugars, total",g,--,--,3.99,1.08
Minerals
"Calcium, Ca",mg,--,--,199,54
"Iron, Fe",mg,--,--,1.44,0.39
"Potassium, K",mg,--,--,661,179
"Sodium, Na",mg,--,--,889,241
Vitamins
"Vitamin C, total ascorbic acid",mg,--,--,12.2,3.3
"Vitamin A, IU",IU,--,--,3502,949
Lipids
"Fatty acids, total saturated",g,--,--,8.007,2.170
"Fatty acids, total monounsaturated",g,--,--,5.018,1.360
"Fatty acids, total polyunsaturated",g,--,--,4.502,1.220
"Fatty acids, total trans",g,--,--,0.000,0.000
"Cholesterol",mg,--,--,66,18
Amino Acids
Other
Ingredients
"Cooked Enriched Pasta (Water, Durum Flour [Durum Wheat Semolina, Niacin, Ferrous Sulfate {Iron}, Thiamine Mononitrate, Riboflavin, Folic Acid], Soybean Oil, Egg Whites), Chicken (White Meat Chicken, Water, Olive Oil, Isolated Soy Protein Product [Isolated Soy Protein, Modified Potato Starch, Corn Starch, Carrageenan, Soy Lecithin], Dextrose, Potassium Chloride, Salt, Sodium Phosphates, Flavoring), Water, Broccoli, Carrots, Cream, Parmesan and Romano Cheese from Cow's Milk (Part-Skim Milk, Cheese Culture, Salt, Enzymes), Red Bell Peppers, Contains 2% or less of: Garlic Sherry Wine, Soybean Oil, Nonfat Dry Milk, Modified Corn Starch, Salt, Modified Rice Starch, Gelatin, Xanthan Gum, Flavoring, Guar Gum, Paprika. CONTAINS: EGG, MILK, SOY, WHEAT." Date available: 10/12/2017 Date last updated by company: 10/12/2017
