Source: USDA Branded Food Products Database Release December 2017 Software v.3.8.6.4 2017-10-02
Report Run at: December 17, 2017 15:03 EST
"Nutrient data for: 45134545, MARIE CALLENDERS Swedish Meatballs Dinners, UNPREPARED, GTIN: 00021131504670"
Food Group:  Branded Food Products Database
Common Name:

Nutrient,Unit,Data points,Std. Error,"1 Meal (369g) = 369.0g",1Value per 100 g,
Proximates
"Energy",kcal,--,--,432,117
"Protein",g,--,--,23.98,6.50
"Total lipid (fat)",g,--,--,19.00,5.15
"Carbohydrate, by difference",g,--,--,41.00,11.11
"Fiber, total dietary",g,--,--,5.2,1.4
"Sugars, total",g,--,--,1.99,0.54
Minerals
"Calcium, Ca",mg,--,--,100,27
"Iron, Fe",mg,--,--,3.62,0.98
"Potassium, K",mg,--,--,421,114
"Sodium, Na",mg,--,--,1299,352
Vitamins
"Vitamin C, total ascorbic acid",mg,--,--,3.7,1.0
"Vitamin A, IU",IU,--,--,199,54
Lipids
"Fatty acids, total saturated",g,--,--,7.011,1.900
"Fatty acids, total monounsaturated",g,--,--,8.007,2.170
"Fatty acids, total polyunsaturated",g,--,--,2.989,0.810
"Fatty acids, total trans",g,--,--,0.000,0.000
"Cholesterol",mg,--,--,89,24
Amino Acids
Other
Ingredients
"Sauce (Water, Sour Cream [Milk, Cream, Whey, Modified Food Starch, Sodium Phosphate, Guar Gum, Carrageenan, Calcium Sulfate, Locust Bean Gum, Sodium Citrate, Culture, Natamyacin], Modified Corn Starch, Onions, Soybean Oil, Beef Flavor [Cooked Beef, Yeast Extract, Maltodextrin, Caramelized Sugar Syrup, Beef Tallow, Beef Extract, Vegetable Juice Concentrates {Onion, Carrot, Celery}, Salt, Sugar, Corn Starch, Lactic Acid, Flavorings], Butter [Cream, Salt], Salt, Nonfat Dry Milk, Burgundy Wine, Rochester Sauce [Distilled Vinegar, Corn Syrup, Water, Salt, Garlic Powder, Spices, Tamarind, Natural Flavor], Sugar, Canola Oil, Garlic, Spice, Xanthan Gum, Guar Gum), Cooked Enriched Pasta (Water, Durum Flour [Durum Wheat Semolina, Niacin, Ferrous Sulfate {Iron}, Thiamine Mononitrate, Riboflavin, Folic Acid], Dried Whole Eggs, Soybean Oil), Swedish Meatballs (Beef, Pork, Water, Bread Crumb [Unbleached Wheat Flour, Sugar, Salt, Yeast], Onions, Textured Soy Protein Concentrate [Soy Protein, Soy Carbohydrate, Caramel Color], Soy Protein Concentrate, Salt, Beef Flavor [Cooked Beef, Yeast Extract, Maltodextrin, Caramelized Sugar Syrup, Beef Tallow, Beef Extract, Vegetable Juice Concentrates {Onion, Carrot, Celery}, Salt, Sugar, Corn Starch, Lactic Acid, Flavorings], Burgundy Wine, Caramel Color, Spice, Canola Oil, Garlic, Butter [Cream, Salt], Soy Lecithin). CONTAINS: EGG, MILK. SOY, WHEAT." Date available: 10/12/2017 Date last updated by company: 10/12/2017
