Source: USDA Branded Food Products Database Release December 2017 Software v.3.8.6.4 2017-10-02
Report Run at: December 17, 2017 15:08 EST
"Nutrient data for: 45282857, MARINADE LEMON PEPPER WITH LEMON JUICE, UPC: 036800285309"
Food Group:  Branded Food Products Database
Common Name:

Nutrient,Unit,Data points,Std. Error,"1 Tbsp = 15.0g",1Value per 100 g,
Proximates
"Energy",kcal,--,--,10,67
"Protein",g,--,--,0.00,0.00
"Total lipid (fat)",g,--,--,0.00,0.00
"Carbohydrate, by difference",g,--,--,2.00,13.33
"Fiber, total dietary",g,--,--,0.0,0.0
"Sugars, total",g,--,--,1.00,6.67
Minerals
"Calcium, Ca",mg,--,--,0,0
"Iron, Fe",mg,--,--,0.00,0.00
"Sodium, Na",mg,--,--,330,2200
Vitamins
"Vitamin C, total ascorbic acid",mg,--,--,4.0,26.7
"Vitamin A, IU",IU,--,--,0,0
Lipids
"Fatty acids, total saturated",g,--,--,0.000,0.000
"Fatty acids, total trans",g,--,--,0.000,0.000
"Cholesterol",mg,--,--,0,0
Amino Acids
Other
Ingredients
"WATER, LEMON JUICE FROM CONCENTRATE, DISTILLED VINEGAR, HIGH FRUCTOSE CORN SYRUP, SALT, CONTAINS LESS THAN 2% OF MODIFIED FOOD STARCH SPICE (INCLUDING BLACK PEPPER), GARLIC, DRIED LEMON PEEL, ONION, XANTHAN GUM, NATURAL FLAVOR, SODIUM BENZOATE AND POTASSIUM SORBATE (AS PRESERVATIVES), CALCIUM DISODIUM EDTA TO PROTECT FLAVOR, BETA-CAROTENE (FOR COLOR)." Date available: 07/14/2017 Date last updated by company: 07/14/2017
