Source: USDA Branded Food Products Database Release December 2017 Software v.3.8.6.4 2017-10-02
Report Run at: December 17, 2017 15:01 EST
"Nutrient data for: 45134619, MARIE CALLENDERS Pasta Al Dente Penne Chicken Piccata Fresh Steamer, UNPREPARED, GTIN: 00021131508296"
Food Group:  Branded Food Products Database
Common Name:

Nutrient,Unit,Data points,Std. Error,"1 Meal (283g) = 283.0g",1Value per 100 g,
Proximates
"Energy",kcal,--,--,359,127
"Protein",g,--,--,20.01,7.07
"Total lipid (fat)",g,--,--,14.01,4.95
"Carbohydrate, by difference",g,--,--,35.01,12.37
"Fiber, total dietary",g,--,--,5.1,1.8
"Sugars, total",g,--,--,0.99,0.35
Minerals
"Calcium, Ca",mg,--,--,99,35
"Iron, Fe",mg,--,--,1.81,0.64
"Potassium, K",mg,--,--,351,124
"Sodium, Na",mg,--,--,829,293
Vitamins
"Vitamin C, total ascorbic acid",mg,--,--,0.0,0.0
"Vitamin A, IU",IU,--,--,201,71
Lipids
"Fatty acids, total saturated",g,--,--,4.500,1.590
"Fatty acids, total monounsaturated",g,--,--,6.000,2.120
"Fatty acids, total polyunsaturated",g,--,--,3.000,1.060
"Fatty acids, total trans",g,--,--,0.000,0.000
"Cholesterol",mg,--,--,45,16
Amino Acids
Other
Ingredients
"Cooked Enriched Pasta (Water, Durum Wheat Semolina, Niacin, Iron [Ferrous Sulfate], Thiamine Mononitrate, Riboflavin, Folic Acid), Water, White Meat Chicken, Spinach, Garlic, Wine, Canola Oil, Parmesan Cheese (Part-Skim Milk, Cheese Culture, Salt, Enzymes), Contains 2% or less of: Butter, Modified Food Starch, Chicken Broth Powder Blend (Maltodextrin, Chicken Broth, Salt, Flavors), Capers (Capers, Water, Vinegar, Salt), Sugar, Salt, Onions, Spices, Rice Starch, Flavoring, Dried Whey, Dextrose, Yeast Extract, Lemon Juice Concentrate, Sodium Phosphate, Chicken Fat, Dried Cane Syrup, Hydrolyzed (Corn & Wheat Gluten, Soy) Protein, Maltodextrin, Citric Acid, Parmesan Cheese Powder (Parmesan Cheese [Partially Skim Milk, Cultures, Salt, Enzymes], Disodium Phosphate), Disodium Inosinate and Disodium Guanylate, Natural Extractives Of Turmeric And Annatto, Spice Extractives Including Paprika, Soy Lecithin. CONTAINS: WHEAT, MILK, SOY." Date available: 10/12/2017 Date last updated by company: 10/11/2017
