Source: USDA Branded Food Products Database Release December 2017 Software v.3.8.6.4 2017-10-02
Report Run at: December 17, 2017 14:57 EST
"Nutrient data for: 45134919, MARIE CALLENDERS Breakfast Ham Cheese Pot Pie, UNPREPARED, GTIN: 00021131700171"
Food Group:  Branded Food Products Database
Common Name:

Nutrient,Unit,Data points,Std. Error,"1 Piece (198g) = 198.0g",1Value per 100 g,
Proximates
"Energy",kcal,--,--,469,237
"Protein",g,--,--,10.00,5.05
"Total lipid (fat)",g,--,--,27.01,13.64
"Carbohydrate, by difference",g,--,--,46.00,23.23
"Fiber, total dietary",g,--,--,3.0,1.5
"Sugars, total",g,--,--,3.01,1.52
Minerals
"Calcium, Ca",mg,--,--,79,40
"Iron, Fe",mg,--,--,1.80,0.91
"Potassium, K",mg,--,--,170,86
"Sodium, Na",mg,--,--,649,328
Vitamins
"Vitamin C, total ascorbic acid",mg,--,--,2.4,1.2
"Vitamin A, IU",IU,--,--,400,202
Lipids
"Fatty acids, total saturated",g,--,--,11.999,6.060
"Fatty acids, total monounsaturated",g,--,--,5.009,2.530
"Fatty acids, total polyunsaturated",g,--,--,7.999,4.040
"Fatty acids, total trans",g,--,--,0.000,0.000
"Cholesterol",mg,--,--,20,10
Amino Acids
Other
Ingredients
"Filling:  Cheese Sauce (Water, Cream, Cheddar Cheese [Pasteurized Cultured Milk, Salt, Enzymes, Annatto Coloring], Modified Corn Starch, Salt, Spice), Potatoes (Potatoes, Sodium Acid Pyrophosphate), Diced Ham Water Added (Ham, Water, Contains less than 2% of: Sugar, Salt, Potassium Chloride, Sodium Phosphate, Maltodextrin, Natural Flavors, Smoke Flavoring, Sodium Erythorbate, Sodium Nitrite), Green Bell Pepper, Red Bell Pepper. Crust:  Enriched Wheat Flour (Wheat Flour, Niacin, Reduced Iron, Thiamine Mononitrate, Riboflavin, Folic Acid), Interesterified Soybean Oil, Water, Salt, Modified Whey, Caramel Color. CONTAINS: MILK, WHEAT" Date available: 10/12/2017 Date last updated by company: 10/12/2017
