Source: USDA Branded Food Products Database Release December 2017 Software v.3.8.6.4 2017-10-02
Report Run at: December 17, 2017 14:52 EST
"Nutrient data for: 45108349, MARIA COOKIES, UPC: 041331049429"
Food Group:  Branded Food Products Database
Common Name:

Nutrient,Unit,Data points,Std. Error,"5.0 COOKIES = 30.0g",1Value per 100 g,
Proximates
"Energy",kcal,--,--,130,433
"Protein",g,--,--,2.00,6.67
"Total lipid (fat)",g,--,--,3.00,10.00
"Carbohydrate, by difference",g,--,--,24.00,80.00
"Fiber, total dietary",g,--,--,1.0,3.3
"Sugars, total",g,--,--,6.00,20.00
Minerals
"Calcium, Ca",mg,--,--,0,0
"Iron, Fe",mg,--,--,0.00,0.00
"Sodium, Na",mg,--,--,105,350
Vitamins
"Vitamin C, total ascorbic acid",mg,--,--,0.0,0.0
"Thiamin",mg,--,--,0.000,0.000
"Riboflavin",mg,--,--,0.000,0.000
"Niacin",mg,--,--,0.000,0.000
"Vitamin A, IU",IU,--,--,0,0
Lipids
"Fatty acids, total saturated",g,--,--,1.500,5.000
"Fatty acids, total trans",g,--,--,0.000,0.000
"Cholesterol",mg,--,--,0,0
Amino Acids
Other
Ingredients
"WHEAT FLOUR, SUGAR, VEGETABLE FAT, GLUCOSE AND FRUCTOSE SYRUP, POWDER WHEY, GASIFIERS (SODIUM BICARBONATE AND AMMONIA BICARBONATE, SALT, EMULSIFIER (SOYA LECITHIN), ANTIOXIDANT (SODIUM BISULPHITE)." Date available: 07/14/2017 Date last updated by company: 07/14/2017
