Source: USDA Branded Food Products Database Release December 2017 Software v.3.8.6.4 2017-10-02
Report Run at: December 17, 2017 15:16 EST
"Nutrient data for: 45316097, MARINATED ARTICHOKE SALAD, UPC: 070670009641"
Food Group:  Branded Food Products Database
Common Name:

Nutrient,Unit,Data points,Std. Error,"0.333 cup = 85.0g",1Value per 100 g,
Proximates
"Energy",kcal,--,--,110,129
"Protein",g,--,--,1.00,1.18
"Total lipid (fat)",g,--,--,10.00,11.76
"Carbohydrate, by difference",g,--,--,5.00,5.88
"Fiber, total dietary",g,--,--,2.0,2.4
"Sugars, total",g,--,--,1.00,1.18
Minerals
"Calcium, Ca",mg,--,--,20,24
"Iron, Fe",mg,--,--,0.55,0.65
"Sodium, Na",mg,--,--,320,376
Vitamins
"Vitamin C, total ascorbic acid",mg,--,--,13.8,16.2
"Vitamin A, IU",IU,--,--,153,180
Lipids
"Fatty acids, total saturated",g,--,--,1.003,1.180
"Fatty acids, total trans",g,--,--,0.000,0.000
"Cholesterol",mg,--,--,0,0
Amino Acids
Other
Ingredients
"ARTICHOKE HEARTS, WATER, RED PEPPERS IN STRIPS, SUNFLOWER OIL, GREEN OLIVES, CANE VINEGAR, SALT AND SPICES." Date available: 07/14/2017 Date last updated by company: 07/14/2017
