Source: USDA Branded Food Products Database Release December 2017 Software v.3.8.6.4 2017-10-02
Report Run at: December 17, 2017 14:57 EST
"Nutrient data for: 45135062, MARIE CALLENDERS Carrot Cake, UNPREPARED, GTIN: 00021131509156"
Food Group:  Branded Food Products Database
Common Name:

Nutrient,Unit,Data points,Std. Error,"1 mini cake (82g) = 82.0g",1Value per 100 g,
Proximates
"Energy",kcal,--,--,300,366
"Protein",g,--,--,3.00,3.66
"Total lipid (fat)",g,--,--,15.00,18.29
"Carbohydrate, by difference",g,--,--,39.00,47.56
"Fiber, total dietary",g,--,--,1.0,1.2
"Sugars, total",g,--,--,25.00,30.49
Minerals
"Calcium, Ca",mg,--,--,20,24
"Iron, Fe",mg,--,--,0.72,0.88
"Potassium, K",mg,--,--,85,104
"Sodium, Na",mg,--,--,360,439
Vitamins
"Vitamin C, total ascorbic acid",mg,--,--,0.0,0.0
"Vitamin A, IU",IU,--,--,1500,1829
Lipids
"Fatty acids, total saturated",g,--,--,4.502,5.490
"Fatty acids, total monounsaturated",g,--,--,6.002,7.320
"Fatty acids, total polyunsaturated",g,--,--,3.001,3.660
"Fatty acids, total trans",g,--,--,0.000,0.000
"Cholesterol",mg,--,--,35,43
Amino Acids
Other
Ingredients
"Sugar, Carrots, Cream Cheese (Pasteurized Milk and Cream, Cheese Cultures, Salt, Carob Bean Gum), Enriched Wheat Flour (Bleached Wheat Flour, Niacin, Reduced Iron, Thiamine Mononitrate, Riboflavin, Folic Acid), Soybean Oil, Eggs, Pineapple, Butter, Walnuts, Pineapple Juice, Less than 2% of: Invert Sugar, Sodium Bicarbonate, Corn Starch, Salt, Water, Spice, Natural Flavor, Modified Corn Starch, Sodium Acid Pyrophosphate, Corn Syrup, Monocalcium Phosphate, Caramel Color. CONTAINS: MILK, WHEAT, EGG, TREE NUT (WALNUT)." Date available: 10/24/2017 Date last updated by company: 10/24/2017
