Source: USDA Branded Food Products Database Release December 2017 Software v.3.8.6.4 2017-10-02
Report Run at: December 17, 2017 15:08 EST
"Nutrient data for: 45238909, MARINADE STEAK & CHOP, UPC: 021130480227"
Food Group:  Branded Food Products Database
Common Name:

Nutrient,Unit,Data points,Std. Error,"1 Tbsp = 15.0g",1Value per 100 g,
Proximates
"Energy",kcal,--,--,5,33
"Protein",g,--,--,0.00,0.00
"Total lipid (fat)",g,--,--,0.00,0.00
"Carbohydrate, by difference",g,--,--,1.00,6.67
"Sugars, total",g,--,--,1.00,6.67
Minerals
"Sodium, Na",mg,--,--,370,2467
Vitamins
Lipids
Amino Acids
Other
Ingredients
"WATER, DISTILLED VINEGAR, SALT, SOY SAUCE (WATER, WHEAT, SOYBEANS, SALT), LEMON JUICE CONCENTRATE, HIGH FRUCTOSE CORN SYRUP, LESS THAN 2% OF: MODIFIED CORN STARCH, CARAMEL COLOR, DEHYDRATED GARLIC, SOYBEAN OIL, SPICES, HYDROLYZED SOY PROTEIN, XANTHAN GUM, DEHYDRATED ONION, TURMERIC AND PAPRIKA (COLOR), POTASSIUM SORBATE AND SODIUM BENZOATE (USED TO PRESERVE QUALITY), SUGAR, DRIED RED BELL PEPPER." Date available: 07/14/2017 Date last updated by company: 07/14/2017
