Source: USDA Branded Food Products Database Release December 2017 Software v.3.8.6.4 2017-10-02
Report Run at: December 17, 2017 15:00 EST
"Nutrient data for: 45134540, MARIE CALLENDERS Fettuccini Alfredo With Bread, UNPREPARED, GTIN: 00021131504656"
Food Group:  Branded Food Products Database
Common Name:

Nutrient,Unit,Data points,Std. Error,"1 Meal (369g) = 369.0g",1Value per 100 g,
Proximates
"Energy",kcal,--,--,609,165
"Protein",g,--,--,22.99,6.23
"Total lipid (fat)",g,--,--,31.00,8.40
"Carbohydrate, by difference",g,--,--,59.00,15.99
"Fiber, total dietary",g,--,--,8.9,2.4
"Sugars, total",g,--,--,2.99,0.81
Minerals
"Calcium, Ca",mg,--,--,351,95
"Iron, Fe",mg,--,--,2.69,0.73
"Potassium, K",mg,--,--,221,60
"Sodium, Na",mg,--,--,1081,293
Vitamins
"Vitamin C, total ascorbic acid",mg,--,--,3.7,1.0
"Vitamin A, IU",IU,--,--,399,108
Lipids
"Fatty acids, total saturated",g,--,--,12.989,3.520
"Fatty acids, total monounsaturated",g,--,--,8.007,2.170
"Fatty acids, total polyunsaturated",g,--,--,8.007,2.170
"Fatty acids, total trans",g,--,--,0.517,0.140
"Cholesterol",mg,--,--,44,12
Amino Acids
Other
Ingredients
"Cooked Enriched Pasta (Water, Durum Flour [Durum Wheat Semolina, Niacin, Ferrous Sulfate {Iron}, Thiamine Mononitrate, Riboflavin, Folic Acid], Soybean Oil, Dried Egg Whites), Water, Garlic Bread (Unbleached Enriched Flour [Wheat Flour, Malted Barley Flour, Niacin, Reduced Iron, Thiamine Mononitrate, Riboflavin, Folic Acid], Water, Garlic Flavored Toppings [Liquid and Hydrogenated Soybean Oil, Water, Salt, Vegetable Mono & Diglycerides, Soy Lecithin, Sodium Benzoate {preservative}, Natural & Artificial Flavors, Citric Acid, Calcium Disodium EDTA Added to Protect Flavor, Beta Carotene {Color}, Vitamin A Palmitate Added, Parsley Flakes], Yeast, Wheat Gluten, Fully Refined Soybean Oil, Salt, Calcium Propionate {to retain freshness}, Granulated Sugar, Dough Improver [Malted Wheat Flour, Enzymes, Ascorbic Acid], Calcium Sulfate, Enzymes), Cream, Parmesan and Romano Cheese from Cow's Milk (Part-Skim Milk, Cheese Culture, Salt, Enzymes), Garlic Sherry Wine, Contains 2% or less of: Soybean Oil, Nonfat Dry Milk, Modified Corn Starch, Salt, Modified Rice Starch, Gelatin, Xanthan Gum, Guar Gum, Garlic Powder, Spice, Paprika. CONTAINS: EGGS, MILK, SOY, WHEAT." Date available: 10/12/2017 Date last updated by company: 10/12/2017
