Source: USDA Branded Food Products Database Release December 2017 Software v.3.8.6.4 2017-10-02
Report Run at: December 17, 2017 15:57 EST
"Nutrient data for: 45165228, MARKET PANTRY, WHITE CHOCOLATES COVERED COOKIES, UPC: 085239018323"
Food Group:  Branded Food Products Database
Common Name:

Nutrient,Unit,Data points,Std. Error,"1 COOKIE = 20.0g",1Value per 100 g,
Proximates
"Energy",kcal,--,--,110,550
"Protein",g,--,--,1.00,5.00
"Total lipid (fat)",g,--,--,6.00,30.00
"Carbohydrate, by difference",g,--,--,12.00,60.00
"Fiber, total dietary",g,--,--,0.0,0.0
"Sugars, total",g,--,--,10.00,50.00
Minerals
"Calcium, Ca",mg,--,--,20,100
"Iron, Fe",mg,--,--,0.00,0.00
"Sodium, Na",mg,--,--,10,50
Vitamins
"Vitamin C, total ascorbic acid",mg,--,--,0.0,0.0
"Vitamin A, IU",IU,--,--,0,0
Lipids
"Fatty acids, total saturated",g,--,--,4.000,20.000
"Fatty acids, total trans",g,--,--,0.000,0.000
"Cholesterol",mg,--,--,5,25
Amino Acids
Other
Ingredients
"WHITE CHOCOLATE (SUGAR, COCOA BUTTER, WHOLE MILK POWDER, SOY LECITHIN, VANILLA), PUFF PASTRY (CREAM [VEGETABLE OIL, SUGAR, WHEY POWDER, GLUCOSE, WHOLE MILK POWDER, WHEAT STARCH, SOY LECITHIN, NATURAL FLAVOR], WHEAT FLOUR, MARGARINE [PALM OIL, SUNFLOWER OIL, WATER], SUGAR, SALT, BUTTER), COLOR (SOY LECITHIN, PROPYLENE GLYCOL, RED 3, WATER, HIGH FRUCTOSE CORN SYRUP, GLYCERINE, SUGAR, MODIFIED FOOD STARCH, BLUE 1, SODIUM BENZOATE, POTASSIUM SORBATE, CARRAGEENAN GUM, CITRIC ACID, XANTHAN GUM)." Date available: 07/14/2017 Date last updated by company: 07/14/2017
