Source: USDA Branded Food Products Database Release December 2017 Software v.3.8.6.4 2017-10-02
Report Run at: December 17, 2017 16:00 EST
"Nutrient data for: 45005685, MARKETSIDE, EXTRA LARGE FIVE CHEESE PIZZA, MOZZARELLA, PROVOLONE, MONTEREY JACK, PARMESAN & ROMANO, UPC: 681131715348"
Food Group:  Branded Food Products Database
Common Name:

Nutrient,Unit,Data points,Std. Error,"0.12 PIZZA = 145.0g",1Value per 100 g,
Proximates
"Energy",kcal,--,--,349,241
"Protein",g,--,--,14.99,10.34
"Total lipid (fat)",g,--,--,15.99,11.03
"Carbohydrate, by difference",g,--,--,38.00,26.21
"Fiber, total dietary",g,--,--,2.0,1.4
"Sugars, total",g,--,--,4.00,2.76
Minerals
"Calcium, Ca",mg,--,--,300,207
"Iron, Fe",mg,--,--,1.45,1.00
"Sodium, Na",mg,--,--,690,476
Vitamins
"Vitamin C, total ascorbic acid",mg,--,--,1.6,1.1
"Vitamin A, IU",IU,--,--,673,464
Lipids
"Fatty acids, total saturated",g,--,--,8.004,5.520
"Fatty acids, total trans",g,--,--,0.000,0.000
"Cholesterol",mg,--,--,41,28
Amino Acids
Other
Ingredients
"CRUST (WHEAT FLOUR, WATER, SOYBEAN OIL, BREADCRUMBS [WHEAT FLOUR, SUGAR, YEAST, SALT], YEAST, SUGAR, CONTAINS 2% OR LESS OF: RYE SOURDOUGH [FERMENTED RYE FLOUR, SALT], OLIVE OIL, SALT), SAUCE (DICED TOMATOES [TOMATOES, TOMATO JUICE, CITRIC ACID, CALCIUM CHLORIDE], WATER, TOMATO PASTE, HIGH FRUCTOSE CORN SYRUP, MODIFIED CORN STARCH, BLEND OF ROMANO AND PARMESAN CHEESES [PASTEURIZED PART SKIM COW'S MILK, CHEESE CULTURES, SALT, ENZYMES], SALT, CITRIC ACID, SPICES, SODIUM BENZOATE AND POTASSIUM SORBATE [PRESERVATIVES], GARLIC POWDER, ONION POWDER), WHOLE MILK MOZZARELLA CHEESE (PASTEURIZED MILK, CHEESE CULTURE, SALT, ENZYMES), PROVOLONE CHEESE (PASTEURIZED MILK, CHEESE CULTURE, SALT, ENZYMES), MONTEREY JACK CHEESE (PASTEURIZED MILK, CHEESE CULTURE, SALT, ENZYMES), PARMESAN CHEESE (PASTEURIZED PART SKIM MILK, CHEESE CULTURE, SALT, ENZYMES, POWDERED CELLULOSE [ANTI-CAKING AGENT]), ROMANO CHEESE (PASTEURIZED PART SKIM COW'S MILK, CHEESE CULTURE, SALT, ENZYMES, POWDERED CELLULOSE [ANTI-CAKING AGENT]), GARLIC, DRIED PARSLEY, DRIED OREGANO." Date available: 06/25/2017 Date last updated by company: 06/25/2017
