Source: USDA Branded Food Products Database Release December 2017 Software v.3.8.6.4 2017-10-02
Report Run at: December 17, 2017 15:32 EST
"Nutrient data for: 45057222, MARKET PANTRY, BIRTHDAY CAKE ICE CREAM, UPC: 085239734155"
Food Group:  Branded Food Products Database
Common Name:

Nutrient,Unit,Data points,Std. Error,"0.5 cup = 66.0g",1Value per 100 g,
Proximates
"Energy",kcal,--,--,160,242
"Protein",g,--,--,2.00,3.03
"Total lipid (fat)",g,--,--,7.00,10.61
"Carbohydrate, by difference",g,--,--,22.00,33.33
"Fiber, total dietary",g,--,--,0.0,0.0
"Sugars, total",g,--,--,17.00,25.76
Minerals
"Calcium, Ca",mg,--,--,60,91
"Iron, Fe",mg,--,--,0.00,0.00
"Sodium, Na",mg,--,--,60,91
Vitamins
"Vitamin C, total ascorbic acid",mg,--,--,0.0,0.0
"Vitamin A, IU",IU,--,--,225,341
Lipids
"Fatty acids, total saturated",g,--,--,4.501,6.820
"Fatty acids, total trans",g,--,--,0.000,0.000
"Cholesterol",mg,--,--,30,45
Amino Acids
Other
Ingredients
"MILKFAT AND NONFAT MILK, SWEET CREAM BUTTERMILK, CAKE PIECES (SUGAR, WHEAT FLOUR, EGGS, MARGARINE [SOYBEAN AND PALM OIL, WATER, SALT, MONO AND DIBLYCERIDES, SOY LECITHIN, NATURAL FLAVOR {MILK}, ANNATTO {COLOR}, VITAMIN A PALMITATE], CORNSTARCH, NATURAL FLAVOR, SOY LECITHIN, SALT), SUGAR, CORN SYRUP, VANILLA FROSTING FLAVOR (CORN SYRUP, WATER, SUGAR, NATURAL AND ARTIFICIAL FLAVOR, SODIUM CITRATE, POTASSIUM SORBATE, CITRIC ACID), CANDY SPRINKLES (SUGAR, COCONUT OIL, SOYBEAN OIL, SOY LECITHIN, NATURAL AND ARTIFICIAL FLAVORS, RED 40, BLUE 1), HIGH FRUCTOSE CORN SYRUP, WHEY, MONO AND DIGLYCERIDES, GUAR GUM, CALCIUM SULFATE, CAROB BEAN GUM, CARRAGEENAN." Date available: 07/14/2017 Date last updated by company: 07/14/2017
