Source: USDA Branded Food Products Database Release December 2017 Software v.3.8.6.4 2017-10-02
Report Run at: December 17, 2017 16:03 EST
"Nutrient data for: 45037667, MARKETS OF MEIJER, DOUBLE CHOC CHIP MUFFINS, UPC: 041250165125"
Food Group:  Branded Food Products Database
Common Name:

Nutrient,Unit,Data points,Std. Error,"1 MUFFIN = 133.0g",1Value per 100 g,
Proximates
"Energy",kcal,--,--,469,353
"Protein",g,--,--,6.00,4.51
"Total lipid (fat)",g,--,--,26.00,19.55
"Carbohydrate, by difference",g,--,--,53.00,39.85
"Fiber, total dietary",g,--,--,3.1,2.3
"Sugars, total",g,--,--,32.00,24.06
Minerals
"Calcium, Ca",mg,--,--,40,30
"Iron, Fe",mg,--,--,2.23,1.68
"Sodium, Na",mg,--,--,350,263
Vitamins
"Vitamin C, total ascorbic acid",mg,--,--,0.0,0.0
"Vitamin A, IU",IU,--,--,82,62
Lipids
"Fatty acids, total saturated",g,--,--,5.998,4.510
"Fatty acids, total trans",g,--,--,0.000,0.000
"Cholesterol",mg,--,--,74,56
Amino Acids
Other
Ingredients
"SUGAR, ENRICHED FLOUR (WHEAT FLOUR, NIACIN, FERROUS SULFATE, THIAMIN MONONITRATE, RIBOFLAVIN, FOLIC ACID), EGGS, SOYBEAN OIL, WATER, CHOCOLATE CHIPS (SUGAR, CHOCOLATE LIQUOR, COCOA BUTTER, SOY LECITHIN, AND VANILLA), COCOA (PROCESSED WITH ALKALI), MODIFIED CORN STARCH. CONTAINS 2% OR LESS OF EACH OF THE FOLLOWING: VEGETABLE SHORTENING (SOYBEAN OIL, GLYCERYL -LACTO ADDED TO FATTY ACIDS, MONO- AND DIGLYCERIDES WITH BHT AND CITRIC ACID ADDED AS PRESERVATIVES, NATURAL AND ARTIFICIAL FLAVOR,, ACIDIC SODIUM ALUMINUM PHOSPHATE, CELLULOSE GUM, SEMI-SWEET CHOCOLATE DROPS (SUGAR, CHOCOLATE LIQUOR, COCOA BUTTER, DEXTROSE, AND SOY LECITHIN), MONOCALCIUM PHOSPHATE, MALTED BARLEY FLOUR, SOY LECITHIN." Date available: 07/14/2017 Date last updated by company: 07/14/2017
