Source: USDA Branded Food Products Database Release December 2017 Software v.3.8.6.4 2017-10-02
Report Run at: December 17, 2017 15:27 EST
"Nutrient data for: 45147351, MARKET BASKET, PREMIUM RICH & SMOOTH DARK CHOCOLATE, UPC: 049705168721"
Food Group:  Branded Food Products Database
Common Name:

Nutrient,Unit,Data points,Std. Error,"4.0 PIECES = 40.0g",1Value per 100 g,
Proximates
"Energy",kcal,--,--,210,525
"Protein",g,--,--,3.00,7.50
"Total lipid (fat)",g,--,--,16.00,40.00
"Carbohydrate, by difference",g,--,--,13.00,32.50
"Fiber, total dietary",g,--,--,5.0,12.5
"Sugars, total",g,--,--,11.00,27.50
Minerals
"Calcium, Ca",mg,--,--,20,50
"Iron, Fe",mg,--,--,2.25,5.62
"Sodium, Na",mg,--,--,10,25
Vitamins
"Vitamin C, total ascorbic acid",mg,--,--,0.0,0.0
"Vitamin A, IU",IU,--,--,0,0
Lipids
"Fatty acids, total saturated",g,--,--,11.000,27.500
"Fatty acids, total trans",g,--,--,0.000,0.000
"Cholesterol",mg,--,--,0,0
Amino Acids
Other
Ingredients
"CHOCOLATE, SUGAR, COCOA BUTTER, SOY LECITHIN (EMULSIFIER), NATURAL VANILLA FLAVORING." Date available: 07/14/2017 Date last updated by company: 07/14/2017
