Source: USDA Branded Food Products Database Release December 2017 Software v.3.8.6.4 2017-10-02
Report Run at: December 17, 2017 15:47 EST
"Nutrient data for: 45177452, MARKET PANTRY, MINI CUPCAKES, UPC: 085239020661"
Food Group:  Branded Food Products Database
Common Name:

Nutrient,Unit,Data points,Std. Error,"3.0 CUPCAKES = 71.0g",1Value per 100 g,
Proximates
"Energy",kcal,--,--,300,423
"Protein",g,--,--,2.00,2.82
"Total lipid (fat)",g,--,--,15.00,21.13
"Carbohydrate, by difference",g,--,--,38.00,53.52
"Fiber, total dietary",g,--,--,0.0,0.0
"Sugars, total",g,--,--,32.00,45.07
Minerals
"Calcium, Ca",mg,--,--,20,28
"Iron, Fe",mg,--,--,0.40,0.57
"Sodium, Na",mg,--,--,180,254
Vitamins
"Vitamin C, total ascorbic acid",mg,--,--,0.0,0.0
"Vitamin A, IU",IU,--,--,0,0
Lipids
"Fatty acids, total saturated",g,--,--,4.501,6.340
"Fatty acids, total trans",g,--,--,0.000,0.000
"Cholesterol",mg,--,--,25,35
Amino Acids
Other
Ingredients
"CAKE: SUGAR, BLEACHED ENRICHED WHEAT FLOUR (WHEAT FLOUR, NIACIN, REDUCED IRON, THIAMINE MONONITRATE, RIBOFLAVIN, FOLIC ACID), WATER, EGG, SOY BEAN AND CANOLA OIL, MODIFIED CORN STARCH, WHEY POWDER, LEAVENING (SODIUM ACID PYROPHOSPHATE, SODIUM BICARBONATE, CORN STARCH, MONOCALCIUM PHOSPHATE, CALCIUM SULFATE), SOY LECITHIN, WHEAT GLUTEN, SALT, YELLOW 6, RED 40, DIACETYL TARTARIC ACID ESTERS OF MONO AND DIGLYCERIDES, ARTIFICAL FLAVOR. ICING: ICING SUGAR, SHORTENING (CANOLA PALM, MODIFIED PALM AND PALM KERNEL OIL), GLUCOSE, WATER, SKIM MILK POWDER, YELLOW 6, MONO AND DIGLYCERIDES, BUTTER (CREAM, SALT), ARTIFICAL FLAVOR, SALT, POLYSORBATE 60. SPRINKLES: SUGAR, YELLOW 5, BLUE 1." Date available: 07/14/2017 Date last updated by company: 07/14/2017
