Source: USDA Branded Food Products Database Release December 2017 Software v.3.8.6.4 2017-10-02
Report Run at: December 17, 2017 15:55 EST
"Nutrient data for: 45059436, MARKET PANTRY, TACO BLEND FINELY SHREDDED CHEESE, UPC: 085239116388"
Food Group:  Branded Food Products Database
Common Name:

Nutrient,Unit,Data points,Std. Error,"0.25 cup = 26.0g",1Value per 100 g,
Proximates
"Energy",kcal,--,--,100,385
"Protein",g,--,--,6.00,23.08
"Total lipid (fat)",g,--,--,8.00,30.77
"Carbohydrate, by difference",g,--,--,2.00,7.69
"Fiber, total dietary",g,--,--,0.0,0.0
"Sugars, total",g,--,--,0.00,0.00
Minerals
"Calcium, Ca",mg,--,--,150,577
"Iron, Fe",mg,--,--,0.00,0.00
"Sodium, Na",mg,--,--,180,692
Vitamins
"Vitamin C, total ascorbic acid",mg,--,--,0.0,0.0
"Vitamin A, IU",IU,--,--,385,1479
Lipids
"Fatty acids, total saturated",g,--,--,5.000,19.230
"Fatty acids, total trans",g,--,--,0.000,0.000
"Cholesterol",mg,--,--,25,96
Amino Acids
Other
Ingredients
"CHEDDAR CHEESE (PASTEURIZED MILK, CHEESE CULTURE, SALT, ENZYMES, ANNATTO COLOR), MONTEREY JACK CHEESE (PASTEURIZED MILK, CHEESE CULTURE, SALT, ENZYMES), SPICES (CHILI PEPPER, PAPRIKA, DEHYDRATED GARLIC, CUMIN, BLACK PEPPER, SALT, OREGANO, CAYENNE PEPPER, AND SILICON DIOXIDE TO PREVENT CAKING), POTATO STARCH, CORN STARCH AND CELLULOSE POWDER TO PREVENT CAKING, NATAMYCIN (MOLD INHIBITOR)." Date available: 07/14/2017 Date last updated by company: 07/14/2017
