Source: USDA Branded Food Products Database Release December 2017 Software v.3.8.6.4 2017-10-02
Report Run at: December 17, 2017 15:28 EST
"Nutrient data for: 45174236, MARKET BASKET, 100% WHOLE WHEAT, UPC: 049705538357"
Food Group:  Branded Food Products Database
Common Name:

Nutrient,Unit,Data points,Std. Error,"1 SLICE = 43.0g",1Value per 100 g,
Proximates
"Energy",kcal,--,--,100,233
"Protein",g,--,--,5.00,11.63
"Total lipid (fat)",g,--,--,1.50,3.49
"Carbohydrate, by difference",g,--,--,18.00,41.86
"Fiber, total dietary",g,--,--,3.0,7.0
"Sugars, total",g,--,--,4.00,9.30
Minerals
"Calcium, Ca",mg,--,--,200,465
"Iron, Fe",mg,--,--,1.67,3.89
"Potassium, K",mg,--,--,55,128
"Sodium, Na",mg,--,--,180,419
Vitamins
"Vitamin C, total ascorbic acid",mg,--,--,2.8,6.5
"Thiamin",mg,--,--,0.430,1.000
"Riboflavin",mg,--,--,0.102,0.237
"Niacin",mg,--,--,1.396,3.247
"Vitamin A, IU",IU,--,--,0,0
Lipids
"Fatty acids, total saturated",g,--,--,0.000,0.000
"Fatty acids, total monounsaturated",g,--,--,0.000,0.000
"Fatty acids, total polyunsaturated",g,--,--,1.002,2.330
"Fatty acids, total trans",g,--,--,0.000,0.000
"Cholesterol",mg,--,--,0,0
Amino Acids
Other
Ingredients
"COARSE WHOLE WHEAT FLOUR, WATER, SUGAR, YEAST, VITAL WHEAT GLUTEN, WHOLE GRAIN WHEAT FLAKES, CONTAINS 2% OR LESS OF THE FOLLOWING: WHOLE GRAIN RYE FLAKES, WHEAT GERM, SOYBEAN OIL, DRY HONEY (HONEY, WHEAT STARCH) SALT, CALCIUM SULFATE, MOLASSES, NATURAL MOLD INHIBITOR (VINEGAR, SILICA, ACETIC ACID, (PRODUCED BY FERMENTATION)), WHEAT BRAN MAIFELD BARLEY FLOUR, NIACIN, REDUCED IRON, THIAMIN MONONITRATE, RIBOFLAVIN, FOLIC ACID, DEFATTED FLAXSEED, ASCORBIC ACID ADDED AS A DOUGH CONDITIONER (VITAMIN C)." Date available: 07/14/2017 Date last updated by company: 07/14/2017
