Source: USDA Branded Food Products Database Release December 2017 Software v.3.8.6.4 2017-10-02
Report Run at: December 17, 2017 16:08 EST
"Nutrient data for: 45178434, MARKTESIDE, BAKE AT HOME, PUMPERNICKEL BREAD BOULE, UPC: 681131123594"
Food Group:  Branded Food Products Database
Common Name:

Nutrient,Unit,Data points,Std. Error,"0.11 OF A LOAF = 57.0g",1Value per 100 g,
Proximates
"Energy",kcal,--,--,150,263
"Protein",g,--,--,5.00,8.77
"Total lipid (fat)",g,--,--,1.00,1.75
"Carbohydrate, by difference",g,--,--,30.00,52.63
"Fiber, total dietary",g,--,--,2.0,3.5
"Sugars, total",g,--,--,1.00,1.75
Minerals
"Calcium, Ca",mg,--,--,80,140
"Iron, Fe",mg,--,--,1.58,2.77
"Sodium, Na",mg,--,--,230,404
Vitamins
"Vitamin C, total ascorbic acid",mg,--,--,0.0,0.0
"Vitamin A, IU",IU,--,--,0,0
Lipids
"Fatty acids, total saturated",g,--,--,0.000,0.000
"Fatty acids, total trans",g,--,--,0.000,0.000
"Cholesterol",mg,--,--,0,0
Amino Acids
Other
Ingredients
"ENRICHED FLOUR (WHEAT FLOUR, MALTED BARLEY FLOUR, NIACIN, REDUCED IRON, THIAMIN MONONITRATE, RIBOFLAVIN, FOLIC ACID), WATER, RYE FLAKES, RYE FLOUR, CARAMEL (COLOR), CONTAINS 2% OR LESS OF: MOLASSES, WHEAT GLUTEN, PALM OIL, CULTURED WHEAT STARCH, SEA SALT, YEAST, CARAWAY SEED, ENZYMES." Date available: 07/14/2017 Date last updated by company: 07/14/2017
