Source: USDA Branded Food Products Database Release December 2017 Software v.3.8.6.4 2017-10-02
Report Run at: December 17, 2017 15:25 EST
"Nutrient data for: 45143400, MARKET BASKET, CHOCOLATE CHUNK COOKIES, UPC: 049705808252"
Food Group:  Branded Food Products Database
Common Name:

Nutrient,Unit,Data points,Std. Error,"2.0 ONZ = 57.0g",1Value per 100 g,
Proximates
"Energy",kcal,--,--,250,439
"Protein",g,--,--,3.00,5.26
"Total lipid (fat)",g,--,--,10.00,17.54
"Carbohydrate, by difference",g,--,--,37.00,64.91
"Fiber, total dietary",g,--,--,1.0,1.8
"Sugars, total",g,--,--,23.00,40.35
Minerals
"Calcium, Ca",mg,--,--,20,35
"Iron, Fe",mg,--,--,1.27,2.22
"Sodium, Na",mg,--,--,190,333
Vitamins
"Vitamin C, total ascorbic acid",mg,--,--,0.0,0.0
"Vitamin A, IU",IU,--,--,0,0
Lipids
"Fatty acids, total saturated",g,--,--,4.999,8.770
"Fatty acids, total trans",g,--,--,0.000,0.000
"Cholesterol",mg,--,--,20,35
Amino Acids
Other
Ingredients
"ENRICHED FLOUR (WHEAT FLOUR, MALTED BARLEY FLOUR, NIACIN, REDUCED IRON, THIAMINE MONONITRATE, RIBOFLAVIN, FOLIC ACID), CHOCOLATE CHIPS (SUGAR, CHOCOLATE LIQUOR, COCOA BUTTER, SOYALECITHIN AS EMULSIFIER, VANILLA), SUGAR, LIGHT BROWN SUGAR, BUTTER (CREAM, NATURAL FLAVORING), WHOLE EGGS, CANOLA OIL, INVERT CANE SUGAR, MILK, SLAT, BAKING SODA, PURE VANILLA, BAKING POWDER." Date available: 07/14/2017 Date last updated by company: 07/14/2017
