Source: USDA Branded Food Products Database Release December 2017 Software v.3.8.6.4 2017-10-02
Report Run at: December 17, 2017 15:48 EST
"Nutrient data for: 45222583, MARKET PANTRY, PICANTE SAUCE, HOT, UPC: 492122613730"
Food Group:  Branded Food Products Database
Common Name:

Nutrient,Unit,Data points,Std. Error,"2.0 Tbsp = 30.0g",1Value per 100 g,
Proximates
"Energy",kcal,--,--,10,33
"Protein",g,--,--,0.00,0.00
"Total lipid (fat)",g,--,--,0.00,0.00
"Carbohydrate, by difference",g,--,--,2.00,6.67
"Fiber, total dietary",g,--,--,1.0,3.3
"Sugars, total",g,--,--,1.00,3.33
Minerals
"Calcium, Ca",mg,--,--,0,0
"Iron, Fe",mg,--,--,0.00,0.00
"Sodium, Na",mg,--,--,230,767
Vitamins
"Vitamin C, total ascorbic acid",mg,--,--,8.0,26.7
"Vitamin A, IU",IU,--,--,166,555
Lipids
"Fatty acids, total saturated",g,--,--,0.000,0.000
"Fatty acids, total trans",g,--,--,0.000,0.000
"Cholesterol",mg,--,--,0,0
Amino Acids
Other
Ingredients
"CRUSHED TOMATOES (WATER, CONCENTRATED CRUSHED TOMATOES), JALAPENO PEPPERS, ONION, WATER, DISTILLED VINEGAR, CONTAINS LESS THAN 2% OF: SALT, DEHYDRATED ONION, DEHYDRATED GARLIC, NATURAL FLAVOR." Date available: 07/14/2017 Date last updated by company: 07/14/2017
