Source: USDA Branded Food Products Database Release December 2017 Software v.3.8.6.4 2017-10-02
Report Run at: December 17, 2017 15:47 EST
"Nutrient data for: 45207124, MARKET PANTRY, MUSTARD DRESSING, HONEY, UPC: 085239804414"
Food Group:  Branded Food Products Database
Common Name:

Nutrient,Unit,Data points,Std. Error,"2.0 Tbsp = 30.0g",1Value per 100 g,
Proximates
"Energy",kcal,--,--,130,433
"Protein",g,--,--,0.00,0.00
"Total lipid (fat)",g,--,--,11.00,36.67
"Carbohydrate, by difference",g,--,--,7.00,23.33
"Fiber, total dietary",g,--,--,0.0,0.0
"Sugars, total",g,--,--,6.00,20.00
Minerals
"Calcium, Ca",mg,--,--,0,0
"Iron, Fe",mg,--,--,0.60,2.00
"Sodium, Na",mg,--,--,150,500
Vitamins
"Vitamin C, total ascorbic acid",mg,--,--,0.0,0.0
"Vitamin A, IU",IU,--,--,0,0
Lipids
"Fatty acids, total saturated",g,--,--,1.500,5.000
"Fatty acids, total monounsaturated",g,--,--,2.499,8.330
"Fatty acids, total polyunsaturated",g,--,--,6.000,20.000
"Fatty acids, total trans",g,--,--,0.000,0.000
"Cholesterol",mg,--,--,15,50
Amino Acids
Other
Ingredients
"SOYBEAN OIL, HIGH FRUCTOSE CORN SYRUP, DISTILLED VINEGAR, WATER, DIJON MUSTARD (WATER, MUSTARD SEED, DISTILLED VINEGAR, SALT, WHITE WINE, CITRIC ACID, TARTARIC ACID, TURMERIC, SPICE), HONEY, EGG YOLKS, SUGAR, CONTAINS LESS THAN 2% OF SPICE, XANTHAN GUM, SALT, NATURAL FLAVOR, PAPRIKA, MUSTARD BRAN, PAPRIKA EXTRACT (FOR COLOR), CALCIUM DISODIUM EDTA TO PROTECT FLAVOR, YELLOW 5." Date available: 07/14/2017 Date last updated by company: 07/14/2017
