Source: USDA Branded Food Products Database Release December 2017 Software v.3.8.6.4 2017-10-02
Report Run at: December 17, 2017 15:43 EST
"Nutrient data for: 45226980, MARKET PANTRY, ICE CREAM, UPC: 085239724101"
Food Group:  Branded Food Products Database
Common Name:

Nutrient,Unit,Data points,Std. Error,"0.5 cup = 65.0g",1Value per 100 g,
Proximates
"Energy",kcal,--,--,150,231
"Protein",g,--,--,2.00,3.08
"Total lipid (fat)",g,--,--,7.00,10.77
"Carbohydrate, by difference",g,--,--,19.00,29.23
"Fiber, total dietary",g,--,--,0.0,0.0
"Sugars, total",g,--,--,14.00,21.54
Minerals
"Calcium, Ca",mg,--,--,80,123
"Iron, Fe",mg,--,--,0.00,0.00
"Sodium, Na",mg,--,--,75,115
Vitamins
"Vitamin C, total ascorbic acid",mg,--,--,0.0,0.0
"Vitamin A, IU",IU,--,--,225,346
Lipids
"Fatty acids, total saturated",g,--,--,3.998,6.150
"Fatty acids, total trans",g,--,--,0.000,0.000
"Cholesterol",mg,--,--,25,38
Amino Acids
Other
Ingredients
"MILKFAT AND NONFAT MILK, SWEET CREAM BUTTERMILK, COOKIES (SUGAR, ENRICHED WHEAT FLOUR [WHEAT FLOUR, NIACIN, REDUCED IRON, THIAMIN MONONITRATE, RIBOFLAVIN, FOLIC ACID], VEGETABLE OIL [SOYBEAN, PALM, PALM KERNEL], COCOA PROCESSED WITH ALKALI, INVERT SUGAR, YELLOW CORN FLOUR, CHOCOLATE, CORNSTARCH, SALT, LEAVENING [BAKING SODA, MONOCALCIUM PHOSPHATE], WHEY, NATURAL AND ARTIFICIAL FLAVOR, SOY LECITHIN), SUGAR, CORN SYRUP, HIGH FRUCTOSE CORN SYRUP, WHEY, NATURAL FLAVOR, MONO AND DIGLYCERIDES, ARTIFICIAL COLOR (YELLOW 5, BLUE 1), GUAR GUM, CALCIUM SULFATE, CAROB BEAN GUM, ANNATTO (COLOR), CARRAGEENAN." Date available: 07/14/2017 Date last updated by company: 07/14/2017
