Source: USDA Branded Food Products Database Release December 2017 Software v.3.8.6.4 2017-10-02
Report Run at: December 17, 2017 15:36 EST
"Nutrient data for: 45226853, MARKET PANTRY, CRACKERS, LIGHT AND FLAKY, UPC: 085239110195"
Food Group:  Branded Food Products Database
Common Name:

Nutrient,Unit,Data points,Std. Error,"4.0 CRACKERS = 14.0g",1Value per 100 g,
Proximates
"Energy",kcal,--,--,70,500
"Protein",g,--,--,1.00,7.14
"Total lipid (fat)",g,--,--,3.00,21.43
"Carbohydrate, by difference",g,--,--,9.00,64.29
"Fiber, total dietary",g,--,--,0.0,0.0
"Sugars, total",g,--,--,1.00,7.14
Minerals
"Calcium, Ca",mg,--,--,0,0
"Iron, Fe",mg,--,--,1.29,9.18
"Phosphorus, P",mg,--,--,71,510
"Sodium, Na",mg,--,--,125,893
Vitamins
"Vitamin C, total ascorbic acid",mg,--,--,0.0,0.0
"Thiamin",mg,--,--,0.280,2.000
"Riboflavin",mg,--,--,0.034,0.243
"Niacin",mg,--,--,2.858,20.414
"Vitamin A, IU",IU,--,--,0,0
Lipids
"Fatty acids, total saturated",g,--,--,0.500,3.570
"Fatty acids, total monounsaturated",g,--,--,0.500,3.570
"Fatty acids, total polyunsaturated",g,--,--,1.499,10.710
"Fatty acids, total trans",g,--,--,0.000,0.000
"Cholesterol",mg,--,--,0,0
Amino Acids
Other
Ingredients
"ENRICHED FLOUR (WHEAT FLOUR, NIACIN, REDUCED IRON, THIAMIN MONONITRATE, RIBOFLAVIN, FOLIC ACID, CANOLA AND/OR SOYBEAN AND/OR PALM OIL WITH TBHQ ADDED TO PRESERVE FRESHNESS, SUGAR, CONTAINS 2% OR LESS OF: SALT, LEAVENING (SODIUM ACID PYROPHOSPHATE, BAKING SODA, MONOCALCIUM PHOSPHATE), HIGH FRUCTOSE CORN SYRUP, CORN SYRUP, CORNSTARCH, SOY LECITHIN, SODIUM SULFITE." Date available: 07/14/2017 Date last updated by company: 07/14/2017
