Source: USDA Branded Food Products Database Release December 2017 Software v.3.8.6.4 2017-10-02
Report Run at: December 17, 2017 15:55 EST
"Nutrient data for: 45227092, MARKET PANTRY, SYRUP, BUTTER, UPC: 085239031117"
Food Group:  Branded Food Products Database
Common Name:

Nutrient,Unit,Data points,Std. Error,"0.25 cup = 60.0g",1Value per 100 g,
Proximates
"Energy",kcal,--,--,210,350
"Protein",g,--,--,0.00,0.00
"Total lipid (fat)",g,--,--,0.00,0.00
"Carbohydrate, by difference",g,--,--,52.00,86.67
"Fiber, total dietary",g,--,--,0.0,0.0
"Sugars, total",g,--,--,34.00,56.67
Minerals
"Calcium, Ca",mg,--,--,0,0
"Iron, Fe",mg,--,--,0.00,0.00
"Sodium, Na",mg,--,--,130,217
Vitamins
"Vitamin C, total ascorbic acid",mg,--,--,0.0,0.0
"Vitamin A, IU",IU,--,--,0,0
Lipids
"Fatty acids, total saturated",g,--,--,0.000,0.000
"Fatty acids, total trans",g,--,--,0.000,0.000
"Cholesterol",mg,--,--,0,0
Amino Acids
Other
Ingredients
"CORN SYRUP, HIGH FRUCTOSE CORN SYRUP, WATER, CONTAINS 2% OR LESS OF: SALT, CELLULOSE GUM, NATURAL AND ARTIFICIAL FLAVOR, SODIUM HEXAMETAPHOSPHATE, SODIUM BENZOATE AND SORBIC ACID (AS PRESERVATIVES), CARAMEL COLOR." Date available: 07/14/2017 Date last updated by company: 07/14/2017
