Source: USDA Branded Food Products Database Release December 2017 Software v.3.8.6.4 2017-10-02
Report Run at: December 17, 2017 15:25 EST
"Nutrient data for: 45147346, MARKET BASKET, CHOCOLATE BISCOTTI, UPC: 049705806203"
Food Group:  Branded Food Products Database
Common Name:

Nutrient,Unit,Data points,Std. Error,"1 BIWSCOTT = 60.0g",1Value per 100 g,
Proximates
"Energy",kcal,--,--,230,383
"Protein",g,--,--,3.00,5.00
"Total lipid (fat)",g,--,--,13.00,21.67
"Carbohydrate, by difference",g,--,--,27.00,45.00
"Fiber, total dietary",g,--,--,2.0,3.3
"Sugars, total",g,--,--,16.00,26.67
Minerals
"Calcium, Ca",mg,--,--,20,33
"Iron, Fe",mg,--,--,1.20,2.00
"Sodium, Na",mg,--,--,55,92
Vitamins
"Vitamin C, total ascorbic acid",mg,--,--,0.0,0.0
"Vitamin A, IU",IU,--,--,250,417
Lipids
"Fatty acids, total saturated",g,--,--,6.000,10.000
"Fatty acids, total trans",g,--,--,0.000,0.000
"Cholesterol",mg,--,--,40,67
Amino Acids
Other
Ingredients
"KING ARTHUR ARTISAN WHEAT FLOUR (UNBLEACHED, UNBROMATED HARDSPRING WHEAT FLOUR, MALTED BARLEY FLOUR, NIACIN, REDUCED IRON, THIAMIN MONONITRATE, RIBOFLAVIN, FOLIC ACID), SEMI SWEET CHOCOLATE CHUNKS (SUGAR, UNSWEETENED CHOCOLATE, COCOA BUTTER, UNSWEETENED CHOCOLATE PROCESSED WITH ALKALI, SOY LECITHIN (AN EMULSIFIER), SALT), BUTTER (CREAM, NATURAL FLAVORINGS), SUGAR, MILK CHOCOLATE CHIPS (SUGAR, COCOABUTTER, FULL CREAM POWDER, COCOA LIQUOR, LECITHIN, VANILLA, COCOA), CAGE FREE EGGS (EGGS), COCOA POWDER, DUTCH COCOA POWDER, BAKING, SALT." Date available: 07/14/2017 Date last updated by company: 07/14/2017
