Source: USDA Branded Food Products Database Release December 2017 Software v.3.8.6.4 2017-10-02
Report Run at: December 17, 2017 15:29 EST
"Nutrient data for: 45101695, MARKET CLASSICS, SOUP MIX, HEARTY CHICKEN NOODLE, AN ALL NATURAL BLEND OF PASTA, GINGER, ONION, CARROTS AND SPICES, UPC: 24496148"
Food Group:  Branded Food Products Database
Common Name:

Nutrient,Unit,Data points,Std. Error,"0.25 cup = 21.0g",1Value per 100 g,
Proximates
"Energy",kcal,--,--,70,333
"Protein",g,--,--,2.00,9.52
"Total lipid (fat)",g,--,--,0.00,0.00
"Carbohydrate, by difference",g,--,--,16.00,76.19
"Fiber, total dietary",g,--,--,1.0,4.8
"Sugars, total",g,--,--,2.00,9.52
Minerals
"Calcium, Ca",mg,--,--,20,95
"Iron, Fe",mg,--,--,1.71,8.16
"Sodium, Na",mg,--,--,450,2143
Vitamins
"Vitamin C, total ascorbic acid",mg,--,--,8.6,40.8
"Vitamin A, IU",IU,--,--,2381,11338
Lipids
"Fatty acids, total saturated",g,--,--,0.000,0.000
"Fatty acids, total trans",g,--,--,0.000,0.000
"Cholesterol",mg,--,--,0,0
Amino Acids
Other
Ingredients
"PASTA (DURUM SEMOLINA, FERROUS SULFATE, NIACIN, THIAMINE MONONITRATE, RIBOFLAVIN, FOLIC ACID), SOUP BASE (CORN STARCH, SEA SALT, GINGER, DRIED CANE SYRUP, WHEY, ONION, GARLIC, MALTODEXTRIN, SPICES, CHICKEN BROTH CHICKEN FAT, NATURAL FLAVOR, TURMERIC, BLACK PEPPER), ONION, CARROT, TOMATO, LEEK, BELL PEPPER, PARSLEY." Date available: 06/25/2017 Date last updated by company: 06/25/2017
