Source: USDA Branded Food Products Database Release December 2017 Software v.3.8.6.4 2017-10-02
Report Run at: December 17, 2017 15:41 EST
"Nutrient data for: 45227164, MARKET PANTRY, GREEK LIGHT NONFAT YOGURT, BLUEBERRY, UPC: 085239284377"
Food Group:  Branded Food Products Database
Common Name:

Nutrient,Unit,Data points,Std. Error,"1 CONTAINER = 150.0g",1Value per 100 g,
Proximates
"Energy",kcal,--,--,90,60
"Protein",g,--,--,12.00,8.00
"Total lipid (fat)",g,--,--,0.00,0.00
"Carbohydrate, by difference",g,--,--,9.00,6.00
"Fiber, total dietary",g,--,--,0.0,0.0
"Sugars, total",g,--,--,8.00,5.33
Minerals
"Calcium, Ca",mg,--,--,150,100
"Iron, Fe",mg,--,--,0.00,0.00
"Phosphorus, P",mg,--,--,170,113
"Potassium, K",mg,--,--,190,127
"Sodium, Na",mg,--,--,45,30
Vitamins
"Vitamin C, total ascorbic acid",mg,--,--,0.0,0.0
"Riboflavin",mg,--,--,0.169,0.113
"Pantothenic acid",mg,--,--,0.200,0.133
"Vitamin A, IU",IU,--,--,0,0
"Vitamin D",IU,--,--,60,40
Lipids
"Fatty acids, total saturated",g,--,--,0.000,0.000
"Fatty acids, total trans",g,--,--,0.000,0.000
"Cholesterol",mg,--,--,4,3
Amino Acids
Other
Ingredients
"CULTURED PASTEURIZED GRADE A NONFAT MILK, WATER, BLUEBERRIES, FRUCTOSE, MODIFIED FOOD STARCH, ACESULFAME POTASSIUM, MALIC ACID, NATURAL FLAVOR, SUCRALOSE, FRUIT AND VEGETABLE JUICE (COLOR), VITAMIN D3." Date available: 07/14/2017 Date last updated by company: 07/14/2017
