Source: USDA Branded Food Products Database Release December 2017 Software v.3.8.6.4 2017-10-02
Report Run at: December 17, 2017 15:42 EST
"Nutrient data for: 45057221, MARKET PANTRY, ICE CREAM, COOKIE DOUGH, UPC: 085239731031"
Food Group:  Branded Food Products Database
Common Name:

Nutrient,Unit,Data points,Std. Error,"0.5 cup = 66.0g",1Value per 100 g,
Proximates
"Energy",kcal,--,--,160,242
"Protein",g,--,--,2.00,3.03
"Total lipid (fat)",g,--,--,8.00,12.12
"Carbohydrate, by difference",g,--,--,21.00,31.82
"Fiber, total dietary",g,--,--,0.0,0.0
"Sugars, total",g,--,--,15.00,22.73
Minerals
"Calcium, Ca",mg,--,--,80,121
"Iron, Fe",mg,--,--,0.00,0.00
"Sodium, Na",mg,--,--,55,83
Vitamins
"Vitamin C, total ascorbic acid",mg,--,--,0.0,0.0
"Vitamin A, IU",IU,--,--,337,511
Lipids
"Fatty acids, total saturated",g,--,--,5.003,7.580
"Fatty acids, total trans",g,--,--,0.000,0.000
"Cholesterol",mg,--,--,30,45
Amino Acids
Other
Ingredients
"MILKFAT AND NONFAT MILK, SWEET CREAM BUTTERMILK, COOKIE DOUGH (WHEAT FLOUR, BROWN SUGAR, BUTTER [CREAM, SALT], CHOCOLATE CHIPS [SUGAR, CHOCOLATE LIQUOR, COCOA BUTTER, SOY LECITHIN, VANILLA EXTRACT], PASTEURIZED EGGS, SUGAR, CORN STARCH, VANILLA, SALT), SUGAR, CORN SYRUP, HIGH FRUCTOSE CORN SYRUP, WHEY, CHOCOLATE FLAVORED CHUNKS (SUGAR, COCONUT OIL, COCOA PROCESSED WITH ALKALI, COCOA, BUTTER OIL, SOY LECITHIN, NATURAL FLAVORS), MONO AND DIGLYCERIDES, NATURAL AND ARTIFICIAL FLAVOR, GUAR GUM, CALCIUM SULFATE, CAROB BEAN GUM, ANNATTO (COLOR), CARRAGEENAN." Date available: 07/14/2017 Date last updated by company: 07/14/2017
