Source: USDA Branded Food Products Database Release December 2017 Software v.3.8.6.4 2017-10-02
Report Run at: December 17, 2017 15:41 EST
"Nutrient data for: 45207061, MARKET PANTRY, GIARDINIERA MIX, UPC: 085239063248"
Food Group:  Branded Food Products Database
Common Name:

Nutrient,Unit,Data points,Std. Error,"6.0 PIECES | ABOUT = 28.0g",1Value per 100 g,
Proximates
"Energy",kcal,--,--,0,0
"Protein",g,--,--,0.00,0.00
"Total lipid (fat)",g,--,--,0.00,0.00
"Carbohydrate, by difference",g,--,--,0.00,0.00
Minerals
"Sodium, Na",mg,--,--,380,1357
Vitamins
Lipids
Amino Acids
Other
Ingredients
"WATER, CAULIFLOWER, CARROTS, CUCUMBERS, CELERY, VINEGAR, SALT, RED BELL PEPPERS, ONIONS, PEPPERONCINI, CALCIUM CHLORIDE, SODIUM BENZOATE AND POTASSIUM SORBATE (PRESERVATIVES), ALUM, SODIUM BISULFITE (COLOR PROTECTANT)." Date available: 07/14/2017 Date last updated by company: 07/14/2017
