Source: USDA Branded Food Products Database Release December 2017 Software v.3.8.6.4 2017-10-02
Report Run at: December 17, 2017 15:31 EST
"Nutrient data for: 45063037, MARKET PANTRY, AU GRATIN POTATOES IN A RICH CREAMY CHEESE SAUCE, UPC: 085239141120"
Food Group:  Branded Food Products Database
Common Name:

Nutrient,Unit,Data points,Std. Error,"0.5 CUP PREPARED | MAKES ABOUT = 28.0g",1Value per 100 g,
Proximates
"Energy",kcal,--,--,100,357
"Protein",g,--,--,2.00,7.14
"Total lipid (fat)",g,--,--,0.50,1.79
"Carbohydrate, by difference",g,--,--,21.00,75.00
"Fiber, total dietary",g,--,--,1.0,3.6
"Sugars, total",g,--,--,3.00,10.71
Minerals
"Calcium, Ca",mg,--,--,40,143
"Iron, Fe",mg,--,--,0.00,0.00
"Sodium, Na",mg,--,--,550,1964
Vitamins
"Vitamin C, total ascorbic acid",mg,--,--,6.4,22.9
"Vitamin A, IU",IU,--,--,0,0
Lipids
"Fatty acids, total saturated",g,--,--,0.000,0.000
"Fatty acids, total trans",g,--,--,0.000,0.000
"Cholesterol",mg,--,--,0,0
Amino Acids
Other
Ingredients
"DRIED POTATOES, CORN STARCH, WHEY, ENRICHED FLOUR (WHEAT FLOUR, NIACIN, IRON, THIAMIN MONONITRATE, RIBOFLAVIN, FOLIC ACID), SALT, NONFAT DRY MILK, CHEDDAR CHEESE (PASTEURIZED MILK, CHEESE CULTURES, SALT, ENZYMES), ONION POWDER, MALTODEXTRIN, SODIUM PHOSPHATE, BUTTERMILK, SOYBEAN OIL, NATURAL FLAVORS, GARLIC POWDER, YEAST EXTRACT, CITRIC ACID, DISODIUM INOSINATE, DISODIUM GUANYLATE, ARTIFICIAL COLOR (YELLOW 5 LAKE, YELLOW 6 LAKE), SODIUM BISULFITE (PRESERVATIVE)." Date available: 07/14/2017 Date last updated by company: 07/14/2017
