Source: USDA Branded Food Products Database Release December 2017 Software v.3.8.6.4 2017-10-02
Report Run at: December 17, 2017 15:57 EST
"Nutrient data for: 45226940, MARKET PANTRY, TURKEY SAUSAGE SNACK BITES, UPC: 085239120491"
Food Group:  Branded Food Products Database
Common Name:

Nutrient,Unit,Data points,Std. Error,"6.0 PIECES = 30.0g",1Value per 100 g,
Proximates
"Energy",kcal,--,--,80,267
"Protein",g,--,--,7.00,23.33
"Total lipid (fat)",g,--,--,5.00,16.67
"Carbohydrate, by difference",g,--,--,1.00,3.33
"Fiber, total dietary",g,--,--,0.0,0.0
"Sugars, total",g,--,--,0.00,0.00
Minerals
"Calcium, Ca",mg,--,--,40,133
"Iron, Fe",mg,--,--,0.60,2.00
"Sodium, Na",mg,--,--,300,1000
Vitamins
"Vitamin C, total ascorbic acid",mg,--,--,0.0,0.0
"Vitamin A, IU",IU,--,--,0,0
Lipids
"Fatty acids, total saturated",g,--,--,1.500,5.000
"Fatty acids, total trans",g,--,--,0.000,0.000
"Cholesterol",mg,--,--,25,83
Amino Acids
Other
Ingredients
"TURKEY, MECHANICALLY SEPARATED TURKEY, CONTAINS 2% OR LESS OF: SALT, CORN SYRUP SOLIDS, SPICES, DEXTROSE, LACTIC ACID STARTER CULTURE, CARRAGEENAN, SODIUM ERYTHORBATE, GARLIC POWDER, SODIUM NITRITE, IN COLLAGEN CASING." Date available: 07/14/2017 Date last updated by company: 07/14/2017
