Source: USDA Branded Food Products Database Release December 2017 Software v.3.8.6.4 2017-10-02
Report Run at: December 17, 2017 16:09 EST
"Nutrient data for: 45166535, MARLEY BEVERAGE CO, ONE DROP, PREIMUM COFFEE DRINK, VANILLA, UPC: 819768010714"
Food Group:  Branded Food Products Database
Common Name:

Nutrient,Unit,Data points,Std. Error,"11.0 OZA = 325.0g",1Value per 100 g,
Proximates
"Energy",kcal,--,--,221,68
"Protein",g,--,--,6.99,2.15
"Total lipid (fat)",g,--,--,4.00,1.23
"Carbohydrate, by difference",g,--,--,40.01,12.31
"Fiber, total dietary",g,--,--,0.0,0.0
"Sugars, total",g,--,--,36.99,11.38
Minerals
"Calcium, Ca",mg,--,--,250,77
"Iron, Fe",mg,--,--,0.39,0.12
"Potassium, K",mg,--,--,559,172
"Sodium, Na",mg,--,--,84,26
Vitamins
"Vitamin C, total ascorbic acid",mg,--,--,2.6,0.8
"Vitamin A, IU",IU,--,--,110,34
Lipids
"Fatty acids, total saturated",g,--,--,2.502,0.770
"Fatty acids, total trans",g,--,--,0.000,0.000
"Cholesterol",mg,--,--,16,5
Amino Acids
Other
Ingredients
"BREWED WITH PREMIUM JAMAICAN COFFEE BLEND (TRIPLE FILTERED WATER, COFFEE), LOW FAT, MILK, PURE CANE SUGAR (SUCROSE), NATURAL FLAVORS, PECTIN, POTASSIUM CARBONATE." Date available: 09/14/2017 Date last updated by company: 09/14/2017
