Source: USDA Branded Food Products Database Release December 2017 Software v.3.8.6.4 2017-10-02
Report Run at: December 17, 2017 16:10 EST
"Nutrient data for: 45260797, MARMALADES, UPC: 040232084928"
Food Group:  Branded Food Products Database
Common Name:

Nutrient,Unit,Data points,Std. Error,"1 Tbsp = 21.0g",1Value per 100 g,
Proximates
"Energy",kcal,--,--,50,238
"Protein",g,--,--,0.00,0.00
"Total lipid (fat)",g,--,--,0.00,0.00
"Carbohydrate, by difference",g,--,--,14.00,66.67
"Sugars, total",g,--,--,12.00,57.14
Minerals
"Sodium, Na",mg,--,--,0,0
Vitamins
"Vitamin C, total ascorbic acid",mg,--,--,8.1,38.7
Lipids
Amino Acids
Other
Ingredients
"ORGANIC FRUIT (ORANGES, LIMES), NON-GMO CERTIFIED PURE CANE SUGAR, WATER (TO COOK CITRUS IN FOR JUICE MAKING), ORGANIC CRYSTALLIZED GINGER." Date available: 07/14/2017 Date last updated by company: 07/14/2017
