Source: USDA Branded Food Products Database Release December 2017 Software v.3.8.6.4 2017-10-02
Report Run at: December 17, 2017 16:16 EST
"Nutrient data for: 45218683, MARSHMALLOW POLE, UPC: 845120030021"
Food Group:  Branded Food Products Database
Common Name:

Nutrient,Unit,Data points,Std. Error,"5.0 POLES = 42.0g",1Value per 100 g,
Proximates
"Energy",kcal,--,--,160,381
"Protein",g,--,--,1.00,2.38
"Total lipid (fat)",g,--,--,0.00,0.00
"Carbohydrate, by difference",g,--,--,38.00,90.48
"Fiber, total dietary",g,--,--,0.0,0.0
"Sugars, total",g,--,--,36.00,85.71
Minerals
"Calcium, Ca",mg,--,--,0,0
"Iron, Fe",mg,--,--,0.00,0.00
"Sodium, Na",mg,--,--,0,0
Vitamins
"Vitamin C, total ascorbic acid",mg,--,--,0.0,0.0
"Vitamin A, IU",IU,--,--,0,0
Lipids
"Fatty acids, total saturated",g,--,--,0.000,0.000
"Fatty acids, total trans",g,--,--,0.000,0.000
"Cholesterol",mg,--,--,0,0
Amino Acids
Other
Ingredients
"SUGAR, GLUCOSE SYRUP, GELATIN, WATER, CORN STARCH, SORBITOL, ARTIFICIAL FLAVORS, ARTIFICIAL COLORS (FD&C RED #40, FD&C YELLOW #5, FD&C BLUE #1)" Date available: 07/14/2017 Date last updated by company: 07/14/2017
