Source: USDA Branded Food Products Database Release December 2017 Software v.3.8.6.4 2017-10-02
Report Run at: December 17, 2017 16:16 EST
"Nutrient data for: 45317368, MARSHMALLOW MUNCHIE, MARSHMALLOW & CRISPY RICE SQUARE, CHOCOLATY PEPPERMINT, UPC: 690763075010"
Food Group:  Branded Food Products Database
Common Name:

Nutrient,Unit,Data points,Std. Error,"1 BAR = 64.0g",1Value per 100 g,
Proximates
"Energy",kcal,--,--,267,417
"Protein",g,--,--,1.00,1.56
"Total lipid (fat)",g,--,--,7.00,10.94
"Carbohydrate, by difference",g,--,--,50.00,78.12
"Fiber, total dietary",g,--,--,0.0,0.0
"Sugars, total",g,--,--,28.00,43.75
Minerals
"Calcium, Ca",mg,--,--,0,0
"Iron, Fe",mg,--,--,0.00,0.00
"Sodium, Na",mg,--,--,250,391
Vitamins
"Vitamin C, total ascorbic acid",mg,--,--,0.0,0.0
"Thiamin",mg,--,--,0.000,0.000
"Riboflavin",mg,--,--,0.000,0.000
"Niacin",mg,--,--,0.000,0.000
"Vitamin A, IU",IU,--,--,0,0
Lipids
"Fatty acids, total saturated",g,--,--,3.002,4.690
"Fatty acids, total trans",g,--,--,0.000,0.000
"Cholesterol",mg,--,--,0,0
Amino Acids
Other
Ingredients
"MARSHMALLOW (CORN SYRUP, GLUCOSE-FRUCTOSE, SUGAR, WATER, GELATIN, MODIFIED CORN STARCH), CRISP RICE (RICE, SUGAR, SALT, MALT (CORN FLOUR, MALTED BARLEY), REDUCED IRON, NIACINAMIDE, THIAMIN HYDROCHLORIDE (VITAMIN B), CALCIUM PENTOTHENATE, FOLIC ACID AND BHT (PRESERVATIVE), CHOCOLATE (SUGAR, HYDROGENATED AND FRACTIONATED PALM KERNEL OIL, COCOA POWDER, WHEY POWDER, NONFAT MILK POWDER, SOY LECITHIN ADDED AS AN EMULSIFIER AND NATURAL VANILLA FLAVOR), MARGARINE (PALM OIL, WATER, SALT, VEGETABLE MONOGLYCERIDES, WHEY SOLIDS, SODIUM BENZOATE, (PRESERVATIVE), NATURAL AND ARTIFICIAL FLAVOR, CITRIC ACID, BETA CAROTENE (COLOR), VITAMIN A PALMITATE ADDED), PEPPERMINT (SUGAR, CORN SYRUP, PURE PEPPERMINT OIL, FD&C RED 40), GLYCERIN, ARTIFICIAL VANILLA FLAVOR, TBHQ (PRESERVATIVE)." Date available: 07/14/2017 Date last updated by company: 07/14/2017
