Source: USDA Branded Food Products Database Release December 2017 Software v.3.8.6.4 2017-10-02
Report Run at: December 17, 2017 16:17 EST
"Nutrient data for: 45257720, MARSHMALLOW RICE TREATS, UPC: 094922781338"
Food Group:  Branded Food Products Database
Common Name:

Nutrient,Unit,Data points,Std. Error,"1.5 ONZ = 44.0g",1Value per 100 g,
Proximates
"Energy",kcal,--,--,180,409
"Protein",g,--,--,1.00,2.27
"Total lipid (fat)",g,--,--,4.00,9.09
"Carbohydrate, by difference",g,--,--,33.00,75.00
"Fiber, total dietary",g,--,--,0.0,0.0
"Sugars, total",g,--,--,15.00,34.09
Minerals
"Calcium, Ca",mg,--,--,0,0
"Iron, Fe",mg,--,--,1.23,2.79
"Sodium, Na",mg,--,--,125,284
Vitamins
"Vitamin C, total ascorbic acid",mg,--,--,5.5,12.4
"Vitamin A, IU",IU,--,--,227,517
Lipids
"Fatty acids, total saturated",g,--,--,0.000,0.000
"Fatty acids, total trans",g,--,--,0.502,1.140
"Cholesterol",mg,--,--,0,0
Amino Acids
Other
Ingredients
"MARSHMALLOWS (CORN SYRUP, SUGAR, GELATIN, MODIFIED CORN STARCH), CRISP RICE (MALT EXTRACT, VITAMINS A, C, D, B6, B12, IRON, CALCIUM, THIAMINE, RIBOFLAVIN, NIACIN, FOLATE, PHOSPHORUS, MAGNESIUM, ZINC), OIL, (CORN AND CANOLA), SYRUP, (CORN), NATURAL AND ARTIFICIAL FLAVORS, CITRIC ACID, MALTODEXTRIN, CALCIUM PHOSPHATE, RED 3, RED 40, RED 40 LAKE, BLUE 1, YELLOW 5, YELLOW 5 LAKE, YELLOW 6, HUMECTANT: (GLYCERIN) EDIBLE PAPER (POTATO STARCH, VEGETABLE OIL, WATER), ALCOHOL, SALT, WATER, NON-DAIRY BUTTER FLAVOR, PRESERVATIVE (BHT), (TOCOPHEROLS)." Date available: 07/14/2017 Date last updated by company: 07/14/2017
