Source: USDA Branded Food Products Database Release December 2017 Software v.3.8.6.4 2017-10-02
Report Run at: December 17, 2017 16:17 EST
"Nutrient data for: 45040955, MARSHMALLOWS, UPC: 025675124806"
Food Group:  Branded Food Products Database
Common Name:

Nutrient,Unit,Data points,Std. Error,"4.0 PIECES, PER CONTAINER ABOUT = 28.0g",1Value per 100 g,
Proximates
"Energy",kcal,--,--,90,321
"Protein",g,--,--,1.00,3.57
"Total lipid (fat)",g,--,--,0.00,0.00
"Carbohydrate, by difference",g,--,--,22.00,78.57
"Sugars, total",g,--,--,15.00,53.57
Minerals
"Sodium, Na",mg,--,--,25,89
Vitamins
Lipids
Amino Acids
Other
Ingredients
"CORN SYRUP, SUGAR, DEXTROSE, MODIFIED FOOD STARCH (CORN), WATER, FISH GELATIN, NATURAL AND ARTIFICIAL FLAVOR, TETRASODIUM PYROPHOSPHATE, BLUE 1." Date available: 07/19/2017 Date last updated by company: 07/19/2017
