Source: USDA Branded Food Products Database Release December 2017 Software v.3.8.6.4 2017-10-02
Report Run at: December 17, 2017 16:24 EST
"Nutrient data for: 45120633, MARUKOME, NORI SEAWEED MISO SOUP, UPC: 898216001894"
Food Group:  Branded Food Products Database
Common Name:

Nutrient,Unit,Data points,Std. Error,"1 PACKET = 8.2g",1Value per 100 g,
Proximates
"Energy",kcal,--,--,30,366
"Protein",g,--,--,2.00,24.39
"Total lipid (fat)",g,--,--,1.00,12.20
"Carbohydrate, by difference",g,--,--,4.00,48.78
"Fiber, total dietary",g,--,--,1.0,12.2
"Sugars, total",g,--,--,1.00,12.20
Minerals
"Calcium, Ca",mg,--,--,20,244
"Iron, Fe",mg,--,--,0.00,0.00
"Sodium, Na",mg,--,--,620,7561
Vitamins
"Vitamin C, total ascorbic acid",mg,--,--,0.0,0.0
"Vitamin A, IU",IU,--,--,0,0
Lipids
"Fatty acids, total saturated",g,--,--,0.000,0.000
"Fatty acids, total trans",g,--,--,0.000,0.000
"Cholesterol",mg,--,--,0,0
Amino Acids
Other
Ingredients
"POWDERED MISO (SOYBEANS [NON-GENETICALLY MODIFIED], RICE, SEA SALT), DEXTRIN, SEA LETTUCE, NORI SEAWEED, POWDERED YEAST EXTRACT, DRIED GREEN ONION, BONITO POWDER." Date available: 06/25/2017 Date last updated by company: 06/25/2017
