Source: USDA Branded Food Products Database Release December 2017 Software v.3.8.6.4 2017-10-02
Report Run at: December 17, 2017 16:26 EST
"Nutrient data for: 45289429, MARYLAND STYLE CRAB CAKES, UPC: 041322120502"
Food Group:  Branded Food Products Database
Common Name:

Nutrient,Unit,Data points,Std. Error,"1 CRAB CAKE + 1 OZ SAUCE = 113.0g",1Value per 100 g,
Proximates
"Energy",kcal,--,--,240,212
"Protein",g,--,--,10.99,9.73
"Total lipid (fat)",g,--,--,12.99,11.50
"Carbohydrate, by difference",g,--,--,19.00,16.81
"Fiber, total dietary",g,--,--,1.0,0.9
"Sugars, total",g,--,--,2.99,2.65
Minerals
"Calcium, Ca",mg,--,--,80,71
"Iron, Fe",mg,--,--,2.49,2.20
"Sodium, Na",mg,--,--,831,735
Vitamins
"Vitamin C, total ascorbic acid",mg,--,--,15.5,13.7
"Vitamin A, IU",IU,--,--,4314,3818
Lipids
"Fatty acids, total saturated",g,--,--,1.503,1.330
"Fatty acids, total trans",g,--,--,0.000,0.000
"Cholesterol",mg,--,--,55,49
Amino Acids
Other
Ingredients
"CRABMEAT, SALAD DRESSING (WATER, SOYBEAN OIL, EGG YOLK, SUGAR, MODIFIED CORN STARCH, MODIFIED TAPIOCA STARCH, SALT, MUSTARD PASTE [DISTILLED VINEGAR, MODIFIED TAPIOCA STARCH, MUSTARD POWDER, WATER], GELATIN, XANTHAN GUM, CITRIC ACID, SPICE), BREAD CRUMBS (WHEAT FLOUR, SHORTENING, SUGAR, SALT, YEAST, YEAST FOOD), ONION, SHALLOT, RED BELL PEPPER, MUSTARD (DISTILLED VINEGAR, MUSTARD SEED, WATER, SALT, WHITE WINE, CITRIC ACID, TARTARIC ACID, SPICES), CONTAINS 2% OR LESS OF EACH OF THE FOLLOWING: CITRIC ACID, EGG WHITE POWDER, SALT, SPICES, SUGAR, WHEAT FLOUR, YEAST EXTRACT. AIOLI SAUCE: WATER, SUNFLOWER OIL, RICE VINEGAR, WHOLE EGGS, MODIFIED CORN STARCH, BREAD CRUMBS (WHEAT FLOUR, SALT, DEXTROSE, PALM OIL), LEMON JUICE, SUGAR, GARLIC, SALT, MUSTARD (DISTILLED VINEGAR, MUSTARD SEED, WATER, SALT, WHITE WINE, CITRIC ACID, TARTARIC ACID, TURMERIC), SPICES, OLEORESIN PAPRIKA (COLOR)." Date available: 07/14/2017 Date last updated by company: 07/14/2017
