Source: USDA Branded Food Products Database Release December 2017 Software v.3.8.6.4 2017-10-02
Report Run at: December 17, 2017 16:30 EST
"Nutrient data for: 45272962, MARZIPAN FRUIT, UPC: 817317021105"
Food Group:  Branded Food Products Database
Common Name:

Nutrient,Unit,Data points,Std. Error,"1 PIECE = 30.0g",1Value per 100 g,
Proximates
"Energy",kcal,--,--,133,443
"Protein",g,--,--,1.00,3.33
"Total lipid (fat)",g,--,--,3.00,10.00
"Carbohydrate, by difference",g,--,--,24.00,80.00
"Fiber, total dietary",g,--,--,0.0,0.0
"Sugars, total",g,--,--,24.00,80.00
Minerals
"Calcium, Ca",mg,--,--,20,67
"Iron, Fe",mg,--,--,0.60,2.00
"Sodium, Na",mg,--,--,0,0
Vitamins
"Vitamin C, total ascorbic acid",mg,--,--,0.0,0.0
"Vitamin A, IU",IU,--,--,0,0
Lipids
"Fatty acids, total saturated",g,--,--,0.333,1.110
"Fatty acids, total trans",g,--,--,0.000,0.000
"Cholesterol",mg,--,--,0,0
Amino Acids
Other
Ingredients
"SUGAR, ALMONDS, HONEY, PRESERVATIVE: POTASSIUM SORBATE, COLORS: F.D.&C. YELLOW NO 5 (TARTRAZINE), F.D.&C. YELLOW NO 6, F.D.&C. RED NO 40, F.D.&C. BLUE NO 2, F.D.&C. BLUE NO 1. COATING AGENT: SHELLAC DEWAXED. FLAVORS." Date available: 07/14/2017 Date last updated by company: 07/14/2017
