Source: USDA Branded Food Products Database Release December 2017 Software v.3.8.6.4 2017-10-02
Report Run at: December 17, 2017 16:30 EST
"Nutrient data for: 45056386, MARZIPAN MINI EGGS, UPC: 041498288228"
Food Group:  Branded Food Products Database
Common Name:

Nutrient,Unit,Data points,Std. Error,"2.0 EGGS = 40.0g",1Value per 100 g,
Proximates
"Energy",kcal,--,--,190,475
"Protein",g,--,--,3.00,7.50
"Total lipid (fat)",g,--,--,10.00,25.00
"Carbohydrate, by difference",g,--,--,21.00,52.50
"Fiber, total dietary",g,--,--,3.0,7.5
"Sugars, total",g,--,--,21.00,52.50
Minerals
"Calcium, Ca",mg,--,--,40,100
"Iron, Fe",mg,--,--,2.25,5.62
Vitamins
Lipids
"Fatty acids, total saturated",g,--,--,2.500,6.250
Amino Acids
Other
Ingredients
"SUGAR, GROUND ALMONDS, CHOCOLATE LIQUOR, WATER, COCOA BUTTER, SUNFLOWER LECITHIN, INVERTASE." Date available: 10/04/2017 Date last updated by company: 10/04/2017
