Source: USDA Branded Food Products Database Release December 2017 Software v.3.8.6.4 2017-10-02
Report Run at: December 17, 2017 16:28 EST
"Nutrient data for: 45037730, MARZETTI, HONEY FRENCH DRESSING, UPC: 070200500440"
Food Group:  Branded Food Products Database
Common Name:

Nutrient,Unit,Data points,Std. Error,"2.0 Tbsp = 33.0g",1Value per 100 g,
Proximates
"Energy",kcal,--,--,170,515
"Protein",g,--,--,0.00,0.00
"Total lipid (fat)",g,--,--,14.00,42.42
"Carbohydrate, by difference",g,--,--,11.00,33.33
"Fiber, total dietary",g,--,--,0.0,0.0
"Sugars, total",g,--,--,10.00,30.30
Minerals
"Calcium, Ca",mg,--,--,0,0
"Iron, Fe",mg,--,--,0.00,0.00
"Sodium, Na",mg,--,--,240,727
Vitamins
"Vitamin C, total ascorbic acid",mg,--,--,0.0,0.0
"Vitamin A, IU",IU,--,--,0,0
Lipids
"Fatty acids, total saturated",g,--,--,2.000,6.060
"Fatty acids, total trans",g,--,--,0.000,0.000
"Cholesterol",mg,--,--,0,0
Amino Acids
Other
Ingredients
"HIGH FRUCTOSE CORN SYRUP, SOYBEAN OIL, CORN-CIDER, VINEGAR, TOMATO PASTE, DISTILLED VINEGAR, SALT, PAPRIKA, SPICES (INCLUDING MUSTARD SEED), HONEY, BEET JUICE CONCENTRATE, ONION*, NATURAL FLAVORS, XANTHAN GUM, PROPYLENE GLYCOL ALGINATE, GARLIC*." Date available: 07/14/2017 Date last updated by company: 07/14/2017
