Source: USDA Branded Food Products Database Release December 2017 Software v.3.8.6.4 2017-10-02
Report Run at: December 17, 2017 16:30 EST
"Nutrient data for: 45270094, MASALA CHAI, UPC: 897530001757"
Food Group:  Branded Food Products Database
Common Name:

Nutrient,Unit,Data points,Std. Error,"1 SACHET = 2.5g",1Value per 100 g,
Proximates
"Energy",kcal,--,--,0,0
"Protein",g,--,--,0.00,0.00
"Total lipid (fat)",g,--,--,0.00,0.00
"Carbohydrate, by difference",g,--,--,0.00,0.00
"Fiber, total dietary",g,--,--,0.0,0.0
"Sugars, total",g,--,--,0.00,0.00
Minerals
"Sodium, Na",mg,--,--,0,0
Vitamins
Lipids
Amino Acids
Other
Ingredients
"ASSAM BLACK TEA, GINGER PIECES, CINNAMON, CARDAMOM SEEDS, CARDAMOM, VANILLA PIECES, NATURAL CINNAMON FLAVOR." Date available: 07/14/2017 Date last updated by company: 07/14/2017
