Source: USDA Branded Food Products Database Release December 2017 Software v.3.8.6.4 2017-10-02
Report Run at: December 17, 2017 16:31 EST
"Nutrient data for: 45034341, MASALA RICE & LENTILS, UPC: 70650500021"
Food Group:  Branded Food Products Database
Common Name:

Nutrient,Unit,Data points,Std. Error,"0.5 PACKAGE = 85.0g",1Value per 100 g,
Proximates
"Energy",kcal,--,--,260,306
"Protein",g,--,--,6.00,7.06
"Total lipid (fat)",g,--,--,5.00,5.88
"Carbohydrate, by difference",g,--,--,47.00,55.29
"Fiber, total dietary",g,--,--,2.0,2.4
"Sugars, total",g,--,--,4.00,4.71
Minerals
"Calcium, Ca",mg,--,--,40,47
"Iron, Fe",mg,--,--,0.57,0.67
"Sodium, Na",mg,--,--,310,365
Vitamins
"Vitamin C, total ascorbic acid",mg,--,--,0.0,0.0
"Vitamin A, IU",IU,--,--,0,0
Lipids
"Fatty acids, total saturated",g,--,--,2.499,2.940
"Fatty acids, total trans",g,--,--,0.000,0.000
"Cholesterol",mg,--,--,0,0
Amino Acids
Other
Ingredients
"RICE: 100% JASMINE RICE. SAUCE: ONION, WATER, TOMATO PASTE, SOYBEAN OIL, SUGAR, GINGER, GARLIC, SALT, GARAM MASALA (BLACK PEPPER, CUMIN, CORIANDER, CARDAMOM, BAY LEAF, CINNAMON, CLOVE, GREEN CARDAMOM, NUTMEG), CORIANDER, POTASSIUM CHLORIDE, CUMIN SEEDS, TURMERIC, CINNAMON, CUMIN POWDER, YEAST EXTRACT, BAY LEAF, CHILI, ALPHA-TOCOPHEROL (AN ANTIOXIDANT). COCONUT MILK POWDER: COCONUT, GLUCOSE SYRUP (TAPIOCA), MONO AND DIGLYCERIDE (AN EMULSIFIER), DIPOTASSIUM PHOSPHATE (A STABILIZER), SILICON DIOXIDE (TO PREVENT CAKING). LENTILS: PINK LENTILS." Date available: 07/14/2017 Date last updated by company: 07/14/2017
