Source: USDA Branded Food Products Database Release December 2017 Software v.3.8.6.4 2017-10-02
Report Run at: December 17, 2017 16:32 EST
"Nutrient data for: 45324301, MASHED HOMESTYLE CAULIFLOWER, UPC: 028800400066"
Food Group:  Branded Food Products Database
Common Name:

Nutrient,Unit,Data points,Std. Error,"0.5 cup = 135.0g",1Value per 100 g,
Proximates
"Energy",kcal,--,--,100,74
"Protein",g,--,--,2.00,1.48
"Total lipid (fat)",g,--,--,9.00,6.67
"Carbohydrate, by difference",g,--,--,2.00,1.48
"Fiber, total dietary",g,--,--,0.9,0.7
"Sugars, total",g,--,--,1.00,0.74
Minerals
"Calcium, Ca",mg,--,--,20,15
"Iron, Fe",mg,--,--,0.23,0.17
"Sodium, Na",mg,--,--,481,356
Vitamins
"Vitamin C, total ascorbic acid",mg,--,--,15.1,11.2
"Vitamin A, IU",IU,--,--,252,187
Lipids
"Fatty acids, total saturated",g,--,--,5.994,4.440
"Fatty acids, total trans",g,--,--,0.000,0.000
"Cholesterol",mg,--,--,26,19
Amino Acids
Other
Ingredients
"CAULIFLOWER, WATER, BUTTER (PASTEURIZED CREAM, SALT), SEA SALT, WHITE PEPPER." Date available: 08/10/2017 Date last updated by company: 08/10/2017
