Source: USDA Branded Food Products Database Release December 2017 Software v.3.8.6.4 2017-10-02
Report Run at: December 17, 2017 16:33 EST
"Nutrient data for: 45183587, MASHED POTATOES, UPC: 075446040019"
Food Group:  Branded Food Products Database
Common Name:

Nutrient,Unit,Data points,Std. Error,"0.5 cup = 124.0g",1Value per 100 g,
Proximates
"Energy",kcal,--,--,150,121
"Protein",g,--,--,3.00,2.42
"Total lipid (fat)",g,--,--,7.01,5.65
"Carbohydrate, by difference",g,--,--,20.00,16.13
"Fiber, total dietary",g,--,--,2.0,1.6
"Sugars, total",g,--,--,1.00,0.81
Minerals
"Calcium, Ca",mg,--,--,20,16
"Iron, Fe",mg,--,--,1.22,0.98
"Sodium, Na",mg,--,--,420,339
Vitamins
"Vitamin C, total ascorbic acid",mg,--,--,6.8,5.5
"Vitamin A, IU",IU,--,--,339,273
Lipids
"Fatty acids, total saturated",g,--,--,3.001,2.420
"Fatty acids, total trans",g,--,--,0.000,0.000
"Cholesterol",mg,--,--,15,12
Amino Acids
Other
Ingredients
"POTATOES, WHOLE MILK, BUTTER (SWEET CREAM, SALT), MARGARINE (LIQUID AND HYDROGENATED SOYBEAN OIL, WATER, SALT, CONTAINS LESS THAN 2% OF VEGETABLE MONO AND DIGLYCERIDES, SOY LECITHIN, CITRIC ACID, NATURAL AND ARTIFICIAL FLAVOR, VITAMIN A PALMITATE ADDED), SALT, WATER, POTASSIUM SORBATE TO PROTECT FLAVOR, TITANIUM DIOXIDE (COLOR), DISODIUM PYROPHOSPHATE TO MAINTAIN COLOR, SPICE." Date available: 07/14/2017 Date last updated by company: 07/14/2017
