Source: USDA Branded Food Products Database Release December 2017 Software v.3.8.6.4 2017-10-02
Report Run at: December 17, 2017 16:36 EST
"Nutrient data for: 45284796, MASHED POTATOES, UPC: 07078421498"
Food Group:  Branded Food Products Database
Common Name:

Nutrient,Unit,Data points,Std. Error,"0.5 CUP PREPARED | MAKES = 28.0g",1Value per 100 g,
Proximates
"Energy",kcal,--,--,110,393
"Protein",g,--,--,2.00,7.14
"Total lipid (fat)",g,--,--,3.50,12.50
"Carbohydrate, by difference",g,--,--,19.00,67.86
"Fiber, total dietary",g,--,--,2.0,7.1
"Sugars, total",g,--,--,1.00,3.57
Minerals
"Calcium, Ca",mg,--,--,20,71
"Iron, Fe",mg,--,--,1.80,6.43
"Potassium, K",mg,--,--,350,1250
"Sodium, Na",mg,--,--,580,2071
Vitamins
"Vitamin C, total ascorbic acid",mg,--,--,30.0,107.1
"Vitamin A, IU",IU,--,--,0,0
Lipids
"Fatty acids, total saturated",g,--,--,2.500,8.930
"Fatty acids, total trans",g,--,--,0.000,0.000
"Cholesterol",mg,--,--,0,0
Amino Acids
Other
Ingredients
"POTATOES*, COCONUT OIL, CORN SYRUP SOLIDS, SALT, CANOLA OIL, GARLIC*, SODIUM CASEINATE (FROM MILK), MONO- AND DIGLYCERIDES, NATURAL AND ARTIFICIAL FLAVORS, CALCIUM STEAROYL LACTYLATE, PARSLEY*, ANNATTO AND TURMERIC EXTRACTS (COLOR), SPICE, TITANIUM DIOXIDE (COLOR), DIPOTASSIUM PHOSPHATE, DISODIUM INOSINATE AND DISODIUM GUANYLATE, FRESHNESS PRESERVED WITH SODIUM ACID PYROPHOSPHATE, SODIUM BISULFITE, CITRIC ACID." Date available: 07/14/2017 Date last updated by company: 07/14/2017
