Source: USDA Branded Food Products Database Release December 2017 Software v.3.8.6.4 2017-10-02
Report Run at: December 17, 2017 16:36 EST
"Nutrient data for: 45284822, MASHED POTATOES, UPC: 07078421499"
Food Group:  Branded Food Products Database
Common Name:

Nutrient,Unit,Data points,Std. Error,"0.5 CUP PREPARED | AS PACKAGED, MAKES = 28.0g",1Value per 100 g,
Proximates
"Energy",kcal,--,--,120,429
"Protein",g,--,--,2.00,7.14
"Total lipid (fat)",g,--,--,2.50,8.93
"Carbohydrate, by difference",g,--,--,23.00,82.14
"Fiber, total dietary",g,--,--,2.0,7.1
"Sugars, total",g,--,--,2.00,7.14
Minerals
"Calcium, Ca",mg,--,--,20,71
"Iron, Fe",mg,--,--,1.80,6.43
"Sodium, Na",mg,--,--,600,2143
Vitamins
"Vitamin C, total ascorbic acid",mg,--,--,18.0,64.3
"Vitamin A, IU",IU,--,--,0,0
Lipids
"Fatty acids, total saturated",g,--,--,1.501,5.360
"Fatty acids, total trans",g,--,--,0.000,0.000
"Cholesterol",mg,--,--,0,0
Amino Acids
Other
Ingredients
"POTATOES*, MALTODEXTRIN (FROM CORN), SALT, DAIRY PRODUCT SOLIDS, COCONUT OIL, BUTTER (CREAM, SALT), NATURAL AND ARTIFICIAL FLAVORS, DEXTROSE, NONFAT MILK, SODIUM CASEINATE (FROM MILK), MONO- AND DIGLYCERIDES, DIPOTASSIUM PHOSPHATE, ONION*, REFINED SOYBEAN OIL, SPICE, DISODIUM INOSINATE AND DISODIUM GUANYLATE, ANNATTO (COLOR), TURMERIC EXTRACT (COLOR), FRESHNESS PRESERVED WITH SODIUM ACID PYROPHOSPHATE, SODIUM BISULFITE, CITRIC ACID." Date available: 07/14/2017 Date last updated by company: 07/14/2017
