Source: USDA Branded Food Products Database Release December 2017 Software v.3.8.6.4 2017-10-02
Report Run at: December 17, 2017 16:32 EST
"Nutrient data for: 45331574, MASHED CAULIFLOWER WITH SEA SALT, UPC: 034183000045"
Food Group:  Branded Food Products Database
Common Name:

Nutrient,Unit,Data points,Std. Error,"0.5 cup = 113.0g",1Value per 100 g,
Proximates
"Energy",kcal,--,--,70,62
"Protein",g,--,--,0.99,0.88
"Total lipid (fat)",g,--,--,3.50,3.10
"Carbohydrate, by difference",g,--,--,6.99,6.19
"Fiber, total dietary",g,--,--,2.0,1.8
"Sugars, total",g,--,--,2.00,1.77
Minerals
"Calcium, Ca",mg,--,--,0,0
"Iron, Fe",mg,--,--,0.50,0.44
"Potassium, K",mg,--,--,231,204
"Sodium, Na",mg,--,--,460,407
Vitamins
"Vitamin D",IU,--,--,0,0
Lipids
"Fatty acids, total saturated",g,--,--,2.000,1.770
"Fatty acids, total trans",g,--,--,0.000,0.000
"Cholesterol",mg,--,--,10,9
Amino Acids
Other
Ingredients
"CAULIFLOWER, ORGANIC CREAM, LESS THAN 2% OF: CORN STARCH, WATER, ORGANIC UNSALTED BUTTER (ORGANIC CREAM), SEA SALT." Date available: 10/13/2017 Date last updated by company: 10/13/2017
