Source: USDA Branded Food Products Database Release December 2017 Software v.3.8.6.4 2017-10-02
Report Run at: December 17, 2017 16:39 EST
"Nutrient data for: 45234800, MASTER OF MIXES, LITE SWEET M' SOUR MIXER, UPC: 070491271029"
Food Group:  Branded Food Products Database
Common Name:

Nutrient,Unit,Data points,Std. Error,"0.5 cup = 4.0g",1Value per 100 g,
Proximates
"Energy",kcal,--,--,0,8
"Protein",g,--,--,0.00,0.00
"Total lipid (fat)",g,--,--,0.00,0.00
"Carbohydrate, by difference",g,--,--,0.27,6.67
"Fiber, total dietary",g,--,--,0.0,0.0
"Sugars, total",g,--,--,0.03,0.83
Minerals
"Calcium, Ca",mg,--,--,0,0
"Iron, Fe",mg,--,--,0.00,0.00
"Sodium, Na",mg,--,--,1,29
Vitamins
"Vitamin C, total ascorbic acid",mg,--,--,0.2,5.7
"Vitamin A, IU",IU,--,--,0,0
Lipids
"Fatty acids, total saturated",g,--,--,0.000,0.000
"Cholesterol",mg,--,--,0,0
Amino Acids
Other
Ingredients
"CONTAINS: WATER, LEMON JUICE FROM CONCENTRATE, LIME JUICE FROM CONCENTRATE, ERYTHRITOL, CITRIC ACID, MODIFIED FOOD STARCH (TAPIOCA), SODIUM CITRATE, NATURAL FLAVORS, SODIUM BENZOATE, GUM ARABIC, SUCRALOSE, POTASSIUM SORBATE, SORBITAN MONOSTEARATE, SODIUM METABISULFITE, ESTER GUM, BROMINATED VEGETABLE OIL, FD&C YELLOW #5." Date available: 07/14/2017 Date last updated by company: 07/14/2017
