Source: USDA Branded Food Products Database Release December 2017 Software v.3.8.6.4 2017-10-02
Report Run at: December 17, 2017 16:39 EST
"Nutrient data for: 45172441, MASTROIANNI BROS, 100% WHOLE GAIN BREAD, UPC: 030084222647"
Food Group:  Branded Food Products Database
Common Name:

Nutrient,Unit,Data points,Std. Error,"1 SLICE = 28.0g",1Value per 100 g,
Proximates
"Energy",kcal,--,--,70,250
"Protein",g,--,--,4.00,14.29
"Total lipid (fat)",g,--,--,0.00,0.00
"Carbohydrate, by difference",g,--,--,13.00,46.43
"Fiber, total dietary",g,--,--,2.0,7.1
"Sugars, total",g,--,--,2.00,7.14
Minerals
"Calcium, Ca",mg,--,--,0,0
"Iron, Fe",mg,--,--,1.29,4.59
"Sodium, Na",mg,--,--,150,536
Vitamins
"Vitamin C, total ascorbic acid",mg,--,--,0.0,0.0
"Vitamin A, IU",IU,--,--,0,0
Lipids
"Fatty acids, total saturated",g,--,--,0.000,0.000
"Fatty acids, total trans",g,--,--,0.000,0.000
"Cholesterol",mg,--,--,0,0
Amino Acids
Other
Ingredients
"WHOLE WHEAT FLOUR, WATER, WHEAT GLUTEN, ORGANIC GRAIN AND SEED BLEND (CRACKED RYE, CRACKED YELLOW CORN, CRACKED WHEAT, CRACKED BARLEY, STEEL CUT OATS, FLAX SEED, HULLED MILLET), HONEY, BROWN SUGAR, CONTAINS LESS THAN 2% OF EACH OF THE FOLLOWING: SALT, DRIED YEAST, ASCORBIC ACID ADDED AS A DOUGH CONDITIONER." Date available: 07/14/2017 Date last updated by company: 07/14/2017
