Source: USDA Branded Food Products Database Release December 2017 Software v.3.8.6.4 2017-10-02
Report Run at: December 17, 2017 16:40 EST
"Nutrient data for: 45313555, MATCHA GREEN TEA LATTE MIX, UPC: 011110884459"
Food Group:  Branded Food Products Database
Common Name:

Nutrient,Unit,Data points,Std. Error,"1 CONTAINER = 23.0g",1Value per 100 g,
Proximates
"Energy",kcal,--,--,100,435
"Protein",g,--,--,1.00,4.35
"Total lipid (fat)",g,--,--,1.50,6.52
"Carbohydrate, by difference",g,--,--,20.00,86.96
"Fiber, total dietary",g,--,--,0.0,0.0
"Sugars, total",g,--,--,15.00,65.22
Minerals
"Calcium, Ca",mg,--,--,40,174
"Iron, Fe",mg,--,--,0.00,0.00
"Sodium, Na",mg,--,--,40,174
Vitamins
"Vitamin C, total ascorbic acid",mg,--,--,2.6,11.3
"Vitamin A, IU",IU,--,--,652,2835
Lipids
"Fatty acids, total saturated",g,--,--,1.000,4.350
"Fatty acids, total trans",g,--,--,0.000,0.000
"Cholesterol",mg,--,--,0,0
Amino Acids
Other
Ingredients
"CANE SUGAR, NONDAIRY CREAMER (COCONUT OIL, CORN SYRUP SOLIDS, SODIUM CASEINATE, SODIUM CITRATE, MONO AND DIGLYCERIDES, SALT, SODIUM ALUMINUM SILICATE), MALTED MILK POWDER (MALTED BARLEY, WHEAT FLOUR, MILK POWDER, HYDROLYZED WHEAT GLUTEN, BICARBONATE OF SODA, SALT), MATCHA GREEN TEA POWDER, SKIM MILK POWDER, WHOLE MILK POWDER, NATURAL FLAVOR, PECTIN, TARA GUM." Date available: 07/14/2017 Date last updated by company: 07/14/2017
