Source: USDA Branded Food Products Database Release December 2017 Software v.3.8.6.4 2017-10-02
Report Run at: December 17, 2017 16:46 EST
"Nutrient data for: 45197814, MATZO - STYLE SQUARES, UPC: 073490132599"
Food Group:  Branded Food Products Database
Common Name:

Nutrient,Unit,Data points,Std. Error,"1 MATZO = 30.0g",1Value per 100 g,
Proximates
"Energy",kcal,--,--,135,450
"Protein",g,--,--,1.00,3.33
"Total lipid (fat)",g,--,--,4.00,13.33
"Carbohydrate, by difference",g,--,--,24.00,80.00
"Fiber, total dietary",g,--,--,0.5,1.7
"Sugars, total",g,--,--,0.00,0.00
Minerals
"Calcium, Ca",mg,--,--,0,0
"Iron, Fe",mg,--,--,0.00,0.00
"Sodium, Na",mg,--,--,7,23
Vitamins
"Vitamin C, total ascorbic acid",mg,--,--,0.0,0.0
"Vitamin A, IU",IU,--,--,0,0
Lipids
"Fatty acids, total saturated",g,--,--,1.500,5.000
"Fatty acids, total trans",g,--,--,0.000,0.000
"Cholesterol",mg,--,--,10,33
Amino Acids
Other
Ingredients
"TAPIOCA STARCH, WATER, POTATO STARCH, POTATO FLAKES, PALM OIL, MALTODEXTRIN, HONEY, EGG YOLKS, NATURAL VINEGAR." Date available: 07/14/2017 Date last updated by company: 07/14/2017
