Source: USDA Branded Food Products Database Release December 2017 Software v.3.8.6.4 2017-10-02
Report Run at: December 17, 2017 16:48 EST
"Nutrient data for: 45162419, MAUI & SONS, COCONUT CHIPS, DARK CHOCOLATE, UPC: 451099004156"
Food Group:  Branded Food Products Database
Common Name:

Nutrient,Unit,Data points,Std. Error,"0.5 PACKAGE = 20.0g",1Value per 100 g,
Proximates
"Energy",kcal,--,--,110,550
"Protein",g,--,--,1.00,5.00
"Total lipid (fat)",g,--,--,7.00,35.00
"Carbohydrate, by difference",g,--,--,11.00,55.00
"Fiber, total dietary",g,--,--,2.0,10.0
"Sugars, total",g,--,--,8.00,40.00
Minerals
"Calcium, Ca",mg,--,--,0,0
"Iron, Fe",mg,--,--,0.72,3.60
"Sodium, Na",mg,--,--,80,400
Vitamins
"Vitamin C, total ascorbic acid",mg,--,--,18.0,90.0
"Vitamin A, IU",IU,--,--,0,0
Lipids
"Fatty acids, total saturated",g,--,--,6.000,30.000
"Fatty acids, total trans",g,--,--,0.000,0.000
"Cholesterol",mg,--,--,0,0
Amino Acids
Other
Ingredients
"COCONUT CHIPS (COCONUT, CANE SUGAR, SALT), DARK CHOCOLATE COMPOUND (CANE SUGAR, VEGETABLE FAT, COCOA POWDER, LECITHIN, VANILLA FLAVOR)" Date available: 07/14/2017 Date last updated by company: 07/14/2017
