Source: USDA Branded Food Products Database Release December 2017 Software v.3.8.6.4 2017-10-02
Report Run at: December 17, 2017 16:47 EST
"Nutrient data for: 45231713, MAUI CARAMACS, UPC: 071873228822"
Food Group:  Branded Food Products Database
Common Name:

Nutrient,Unit,Data points,Std. Error,"3.0 PIECES = 42.0g",1Value per 100 g,
Proximates
"Energy",kcal,--,--,210,500
"Protein",g,--,--,2.00,4.76
"Total lipid (fat)",g,--,--,11.00,26.19
"Carbohydrate, by difference",g,--,--,27.00,64.29
"Fiber, total dietary",g,--,--,1.0,2.4
"Sugars, total",g,--,--,22.00,52.38
Minerals
"Calcium, Ca",mg,--,--,60,143
"Iron, Fe",mg,--,--,0.86,2.04
"Sodium, Na",mg,--,--,40,95
Vitamins
"Vitamin C, total ascorbic acid",mg,--,--,0.0,0.0
"Vitamin A, IU",IU,--,--,119,283
Lipids
"Fatty acids, total saturated",g,--,--,6.002,14.290
"Fatty acids, total trans",g,--,--,0.000,0.000
"Cholesterol",mg,--,--,5,12
Amino Acids
Other
Ingredients
"CARAMEL [CORN SYRUP, CONDENSED MILK, LIQUID SUGAR, PARTIALLY HYDROGENATED COCONUT OIL, BUTTER, SALT, DISODIUM PHOSPHATE, SOY LECITHIN (EMULSIFIER), ARTIFICIAL FLAVOR], MILK CHOCOLATE [SUGAR, MILK, CHOCOLATE, COCOA BUTTER, SOY LECITHIN (EMULSIFIER), VANILLIN (ARTIFICIAL FLAVOR)], DRY ROASTED MACADAMIA NUTS." Date available: 07/14/2017 Date last updated by company: 07/14/2017
