Source: USDA Branded Food Products Database Release December 2017 Software v.3.8.6.4 2017-10-02
Report Run at: December 17, 2017 16:48 EST
"Nutrient data for: 45153610, MAUI&SONS, COCONUT CHIPS, UPC: 745109907392"
Food Group:  Branded Food Products Database
Common Name:

Nutrient,Unit,Data points,Std. Error,"0.25 PACKAGE = 20.0g",1Value per 100 g,
Proximates
"Energy",kcal,--,--,110,550
"Protein",g,--,--,1.00,5.00
"Total lipid (fat)",g,--,--,7.00,35.00
"Carbohydrate, by difference",g,--,--,11.00,55.00
"Fiber, total dietary",g,--,--,3.0,15.0
"Sugars, total",g,--,--,7.00,35.00
Minerals
"Calcium, Ca",mg,--,--,0,0
"Iron, Fe",mg,--,--,0.90,4.50
"Sodium, Na",mg,--,--,160,800
Vitamins
"Vitamin C, total ascorbic acid",mg,--,--,30.0,150.0
"Vitamin A, IU",IU,--,--,0,0
Lipids
"Fatty acids, total saturated",g,--,--,6.000,30.000
"Fatty acids, total trans",g,--,--,0.000,0.000
"Cholesterol",mg,--,--,0,0
Amino Acids
Other
Ingredients
"COCONUT, SUGAR, SALT." Date available: 07/14/2017 Date last updated by company: 07/14/2017
