Source: USDA Branded Food Products Database Release December 2017 Software v.3.8.6.4 2017-10-02
Report Run at: December 17, 2017 16:51 EST
"Nutrient data for: 45140300, MAXWELL HOUSE, INTERNATIONAL LATTE BEVERAGE MIX, ICED FRENCH VANILLA, UPC: 043000003947"
Food Group:  Branded Food Products Database
Common Name:

Nutrient,Unit,Data points,Std. Error,"1 STICK = 98.4g",1Value per 100 g,
Proximates
"Energy",kcal,--,--,60,61
"Protein",g,--,--,0.00,0.00
"Total lipid (fat)",g,--,--,0.00,0.00
"Carbohydrate, by difference",g,--,--,16.00,16.26
"Fiber, total dietary",g,--,--,0.0,0.0
"Sugars, total",g,--,--,15.00,15.24
Minerals
"Calcium, Ca",mg,--,--,0,0
"Iron, Fe",mg,--,--,0.00,0.00
"Sodium, Na",mg,--,--,0,0
Vitamins
"Vitamin C, total ascorbic acid",mg,--,--,0.0,0.0
"Vitamin A, IU",IU,--,--,0,0
Lipids
"Fatty acids, total saturated",g,--,--,0.000,0.000
"Fatty acids, total trans",g,--,--,0.000,0.000
"Cholesterol",mg,--,--,0,0
Amino Acids
Other
Ingredients
"SUGAR, INSTANT COFFEE, MALTODEXTRIN, ARTIFICIAL FLAVOR, MILK." Date available: 09/23/2016 Date last updated by company: 09/23/2016
