Source: USDA Branded Food Products Database Release December 2017 Software v.3.8.6.4 2017-10-02
Report Run at: December 17, 2017 16:51 EST
"Nutrient data for: 45140188, MAXWELL HOUSE, ICED COFFE, CARAMEL, UPC: 04369107"
Food Group:  Branded Food Products Database
Common Name:

Nutrient,Unit,Data points,Std. Error,"0.1 BOTTLE = 5.0g",1Value per 100 g,
Proximates
"Energy",kcal,--,--,15,300
"Protein",g,--,--,0.00,0.00
"Total lipid (fat)",g,--,--,0.00,0.00
"Carbohydrate, by difference",g,--,--,4.00,80.00
"Sugars, total",g,--,--,1.00,20.00
Minerals
"Sodium, Na",mg,--,--,25,500
Vitamins
Lipids
Amino Acids
Other
Ingredients
"CONCENTRATED COFFEE (WATER, COFFEE SOLIDS), FRUCTOSE, GLYCERIN, CARAMEL COLOR, NATURAL FLAVOR, CONTAINS LESS THAN 2% OF SALT, SUCRALOSE AND ACESULFAME POTASSIUM (SWEETENERS), POTASSIUM SORBATE (PRESERVATIVE), SULFUR DIOXIDE (SULFITES)." Date available: 07/14/2017 Date last updated by company: 07/14/2017
