Source: USDA Branded Food Products Database Release December 2017 Software v.3.8.6.4 2017-10-02
Report Run at: December 17, 2017 16:52 EST
"Nutrient data for: 45206283, MAYFAIR FARM, ALMOND CAKE, UPC: 869297000106"
Food Group:  Branded Food Products Database
Common Name:

Nutrient,Unit,Data points,Std. Error,"0.1 PIECES = 66.0g",1Value per 100 g,
Proximates
"Energy",kcal,--,--,270,409
"Protein",g,--,--,5.00,7.58
"Total lipid (fat)",g,--,--,16.00,24.24
"Carbohydrate, by difference",g,--,--,29.00,43.94
"Fiber, total dietary",g,--,--,2.0,3.0
"Sugars, total",g,--,--,23.00,34.85
Minerals
"Calcium, Ca",mg,--,--,60,91
"Iron, Fe",mg,--,--,0.87,1.32
"Sodium, Na",mg,--,--,180,273
Vitamins
"Vitamin C, total ascorbic acid",mg,--,--,0.0,0.0
"Vitamin A, IU",IU,--,--,485,735
Lipids
"Fatty acids, total saturated",g,--,--,7.003,10.610
"Fatty acids, total trans",g,--,--,0.000,0.000
"Cholesterol",mg,--,--,80,121
Amino Acids
Other
Ingredients
"SUGAR, EGGS, ALMONDS, BUTTER (CREAM, NATURAL FLAVORING), GLUTEN FREE FLOUR (GARBANZO BEAN FLOUR, POTATO STARCH, TAPIOCA FLOUR, WHITE SORGHUM FLOUR, FAVA BEAN FLOUR) BAKING POWDER (SODIUM ACID PYROPHOSPHATE, SODIUM BICARBONATE CORN STARCH, AND MONOCALCIUM PHOSPHATE), SALT, ALMOND EXTRACT (ETHYL ALCOHOL, WATER, OIL OF BITTER ALMOND)" Date available: 07/14/2017 Date last updated by company: 07/14/2017
