Source: USDA Branded Food Products Database Release December 2017 Software v.3.8.6.4 2017-10-02
Report Run at: December 17, 2017 16:53 EST
"Nutrient data for: 45273084, MAYNARD'S MEMPHIS BBQ, SEASONING & RUB, UPC: 857611002066"
Food Group:  Branded Food Products Database
Common Name:

Nutrient,Unit,Data points,Std. Error,"1 GRM = 1.0g",1Value per 100 g,
Proximates
"Energy",kcal,--,--,3,300
"Protein",g,--,--,0.00,0.00
"Total lipid (fat)",g,--,--,0.00,0.00
"Carbohydrate, by difference",g,--,--,1.00,100.00
"Fiber, total dietary",g,--,--,0.2,25.0
"Sugars, total",g,--,--,0.00,0.00
Minerals
"Calcium, Ca",mg,--,--,0,0
"Iron, Fe",mg,--,--,0.00,0.00
"Sodium, Na",mg,--,--,91,9100
Vitamins
"Vitamin C, total ascorbic acid",mg,--,--,30.0,3000.0
"Vitamin A, IU",IU,--,--,5000,500000
Lipids
"Fatty acids, total saturated",g,--,--,0.000,0.000
"Fatty acids, total trans",g,--,--,0.000,0.000
"Cholesterol",mg,--,--,0,0
Amino Acids
Other
Ingredients
"ALL NATURAL INGREDIENTS: CHILE POWDER, SALT, BROWN SUGAR, WHITE SUGAR, GRANULATED GARLIC, GRANULATED ONION, BLACK PEPPER, WHITE PEPPER, CUMIN, CINNAMON, COCOA." Date available: 07/14/2017 Date last updated by company: 07/14/2017
