Source: USDA Branded Food Products Database Release December 2017 Software v.3.8.6.4 2017-10-02
Report Run at: December 17, 2017 16:56 EST
"Nutrient data for: 45324790, MAYONNAISE, UPC: 052500050542"
Food Group:  Branded Food Products Database
Common Name:

Nutrient,Unit,Data points,Std. Error,"1 Tbsp = 15.0g",1Value per 100 g,
Proximates
"Energy",kcal,--,--,50,333
"Protein",g,--,--,0.00,0.00
"Total lipid (fat)",g,--,--,5.00,33.33
"Carbohydrate, by difference",g,--,--,1.00,6.67
"Sugars, total",g,--,--,0.00,0.00
Minerals
"Calcium, Ca",mg,--,--,0,0
"Iron, Fe",mg,--,--,0.00,0.00
"Sodium, Na",mg,--,--,110,733
Vitamins
"Vitamin C, total ascorbic acid",mg,--,--,0.0,0.0
"Vitamin A, IU",IU,--,--,338,2253
Lipids
"Fatty acids, total saturated",g,--,--,0.500,3.330
"Fatty acids, total monounsaturated",g,--,--,1.000,6.670
"Fatty acids, total polyunsaturated",g,--,--,3.000,20.000
"Fatty acids, total trans",g,--,--,0.000,0.000
"Cholesterol",mg,--,--,10,67
Amino Acids
Other
Ingredients
"WATER, SOYBEAN OIL, MODIFIED FOOD STARCH, EGG YOLKS, DISTILLED AND CIDER VINEGAR, HIGH FRUCTOSE CORN SYRUP, SALT, SUGAR, LEMON JUICE, SPICE, XANTHAN GUM, POTASSIUM SORBATE (PRESERVATIVE), D, L, ALPHA TOCOPHEROL ACETATE (VITAMIN E), BETA CAROTENE (COLOR), NATURAL FLAVORS." Date available: 08/10/2017 Date last updated by company: 08/10/2017
