Source: USDA Branded Food Products Database Release December 2017 Software v.3.8.6.4 2017-10-02
Report Run at: December 17, 2017 16:53 EST
"Nutrient data for: 45202954, MAYO DIPPING SAUCE ROASTED GREEN CHILE, UPC: 855740004012"
Food Group:  Branded Food Products Database
Common Name:

Nutrient,Unit,Data points,Std. Error,"1 Tbsp = 15.0g",1Value per 100 g,
Proximates
"Energy",kcal,--,--,70,467
"Protein",g,--,--,0.00,0.00
"Total lipid (fat)",g,--,--,7.00,46.67
"Carbohydrate, by difference",g,--,--,1.00,6.67
"Fiber, total dietary",g,--,--,0.0,0.0
"Sugars, total",g,--,--,2.00,13.33
Minerals
"Calcium, Ca",mg,--,--,0,0
"Iron, Fe",mg,--,--,0.00,0.00
"Sodium, Na",mg,--,--,65,433
Vitamins
"Vitamin C, total ascorbic acid",mg,--,--,4.0,27.0
"Vitamin A, IU",IU,--,--,0,0
Lipids
"Fatty acids, total saturated",g,--,--,1.500,10.000
"Fatty acids, total trans",g,--,--,0.000,0.000
"Cholesterol",mg,--,--,10,67
Amino Acids
Other
Ingredients
"MAYONAISE (SOYBEAN OIL, WHOLE EGGS, EGG YOLK, WATER, VINEGAR, SALT SUGAR, LEMON JUICE CONCENTRATE, CALCIUM DISODIUM EDTA [PRESERVATIVE], NATURAL FLAVORS), FIRE ROASTED JALAPENO PEPPERS (JALAPENO PEPPERS, SALT, CITRIC ACID AND CALCIUM CHLORIDE), CREAM CHEESE (PASTEURIZED MILK, CREAM, CHEESE CULTURE, SALT, CAROB BEAN GUM), ROASTED GARLIC, SALT, POTASSIUM SORBATE AND SODIUM BENZOATE (TO PRESERVE FRESHNESS), NATURAL SMOKE FLAVOR, GHOST CHILE POWDER." Date available: 07/14/2017 Date last updated by company: 07/14/2017
