Source: USDA Branded Food Products Database Release December 2017 Software v.3.8.6.4 2017-10-02
Report Run at: December 17, 2017 16:56 EST
"Nutrient data for: 45198076, MAYO SANDWICH SPREAD, UPC: 075450139594"
Food Group:  Branded Food Products Database
Common Name:

Nutrient,Unit,Data points,Std. Error,"1 Tbsp = 15.0g",1Value per 100 g,
Proximates
"Energy",kcal,--,--,100,667
"Protein",g,--,--,0.00,0.00
"Total lipid (fat)",g,--,--,11.00,73.33
"Carbohydrate, by difference",g,--,--,1.00,6.67
Minerals
"Sodium, Na",mg,--,--,85,567
Vitamins
Lipids
"Fatty acids, total saturated",g,--,--,1.000,6.670
"Cholesterol",mg,--,--,10,67
Amino Acids
Other
Ingredients
"CANOLA OIL, WATER, ROASTED GARLIC(GARLIC, OLIVE OIL), FROZEN EGG YOLK, SUGAR, SALT, DISTILLED VINEGAR, DRIED GARLIC, GARLIC, LEMON JUICE CONCENTRATE, POTASSIUM SORBATE (PRESERVATIVE), NATURAL FLAVOR, CITRIC ACID, DISODIUM EDTA (TO PROTECT FLAVOR)." Date available: 07/14/2017 Date last updated by company: 07/14/2017
