Source: USDA Branded Food Products Database Release December 2017 Software v.3.8.6.4 2017-10-02
Report Run at: December 17, 2017 16:59 EST
"Nutrient data for: 45044086, MAZOR'S, PUFF PASTRY SHEET, UPC: 735873400205"
Food Group:  Branded Food Products Database
Common Name:

Nutrient,Unit,Data points,Std. Error,"1 SHEET = 43.0g",1Value per 100 g,
Proximates
"Energy",kcal,--,--,160,372
"Protein",g,--,--,2.00,4.65
"Total lipid (fat)",g,--,--,9.00,20.93
"Carbohydrate, by difference",g,--,--,17.00,39.53
"Fiber, total dietary",g,--,--,1.0,2.3
"Sugars, total",g,--,--,1.00,2.33
Minerals
"Calcium, Ca",mg,--,--,0,0
"Iron, Fe",mg,--,--,1.26,2.92
"Sodium, Na",mg,--,--,240,558
Vitamins
"Vitamin C, total ascorbic acid",mg,--,--,0.0,0.0
"Vitamin A, IU",IU,--,--,349,812
Lipids
"Fatty acids, total saturated",g,--,--,3.500,8.140
"Fatty acids, total trans",g,--,--,0.000,0.000
"Cholesterol",mg,--,--,0,0
Amino Acids
Other
Ingredients
"ENRICHED FLOUR (WHEAT FLOUR, NIACIN, REDUCED IRON, THIAMIN MONONITRATE, ENZYME, RIBOFLAVIN, FOLIC ACID), MARGARINE (PALM OIL, WATER, SALT, MONO DIGLYCERIDES, SOY LECITHIN, SODIUM BENZOATE [PRESERVATIVE], ARTIFICIAL BUTTER FLAVOR, BETA CAROTENE [COLOR], VITAMIN A PALMITATE), WATER, SOYBEAN OIL, SUGAR, VINEGAR, SALT." Date available: 07/14/2017 Date last updated by company: 07/14/2017
