Source: USDA Branded Food Products Database Release December 2017 Software v.3.8.6.4 2017-10-02
Report Run at: December 17, 2017 16:59 EST
"Nutrient data for: 45010915, MAZOLA, TOMATO BOUILLON, CHICKEN, UPC: 361740953071"
Food Group:  Branded Food Products Database
Common Name:

Nutrient,Unit,Data points,Std. Error,"1 tsp = 4.0g",1Value per 100 g,
Proximates
"Energy",kcal,--,--,5,125
"Protein",g,--,--,0.00,0.00
"Total lipid (fat)",g,--,--,0.00,0.00
"Carbohydrate, by difference",g,--,--,1.00,25.00
"Sugars, total",g,--,--,1.00,25.00
Minerals
"Sodium, Na",mg,--,--,950,23750
Vitamins
Lipids
"Fatty acids, total saturated",g,--,--,0.000,0.000
"Fatty acids, total trans",g,--,--,0.000,0.000
"Cholesterol",mg,--,--,0,0
Amino Acids
Other
Ingredients
"SEA SALT, MONOSODIUM GLUTAMATE, DEXTROSE, DEHYDRATED TOMATO, CHICKEN FAT, CITRIC ACID, CHICKEN MEAT, CORN STARCH, HYDROLYZED CORN PROTEIN, YEAST EXTRACT, DISODIUM INOSINATE, CARAMEL COLOR, TURMERIC (COLOR), PARSLEY, DISODIUM GUANYLATE, YELLOW 6 LAKE, ANNATTO EXTRACTS (COLOR), NATURAL FLAVOR, RED 40, YELLOW 6, RIBOFLAVIN (COLOR), LESS THAN 2% SILICON DIOXIDE TO PREVENT CAKING." Date available: 07/14/2017 Date last updated by company: 07/14/2017
