Source: USDA Branded Food Products Database Release December 2017 Software v.3.8.6.4 2017-10-02
Report Run at: December 17, 2017 17:08 EST
"Nutrient data for: 45084700, MC CORMICK, GARLIC PEPPER, GARLIC, UPC: 052100012063"
Food Group:  Branded Food Products Database
Common Name:

Nutrient,Unit,Data points,Std. Error,"0.25 tsp = 0.7g",1Value per 100 g,
Proximates
"Energy",kcal,--,--,0,0
"Protein",g,--,--,0.00,0.00
"Total lipid (fat)",g,--,--,0.00,0.00
"Carbohydrate, by difference",g,--,--,0.00,0.00
Minerals
"Sodium, Na",mg,--,--,105,15000
Vitamins
Lipids
Amino Acids
Other
Ingredients
"GARLIC, BLACK PEPPER, SALT, BROWN SUGAR, ONION, RED BELL PEPPERS, PARSLEY, AND GARLIC OIL." Date available: 06/25/2017 Date last updated by company: 06/25/2017
