Source: USDA Branded Food Products Database Release December 2017 Software v.3.8.6.4 2017-10-02
Report Run at: December 17, 2017 16:59 EST
"Nutrient data for: 45176823, MCCAINN'S, IRISH OATMEAL, APPLE CINNAMON, UPC: 072463000620"
Food Group:  Branded Food Products Database
Common Name:

Nutrient,Unit,Data points,Std. Error,"1 cup = 54.0g",1Value per 100 g,
Proximates
"Energy",kcal,--,--,200,370
"Protein",g,--,--,3.00,5.56
"Total lipid (fat)",g,--,--,2.00,3.70
"Carbohydrate, by difference",g,--,--,42.00,77.78
"Fiber, total dietary",g,--,--,3.0,5.6
"Sugars, total",g,--,--,21.00,38.89
Minerals
"Calcium, Ca",mg,--,--,100,185
"Iron, Fe",mg,--,--,3.67,6.79
"Magnesium, Mg",mg,--,--,40,75
"Phosphorus, P",mg,--,--,153,283
"Sodium, Na",mg,--,--,290,537
Vitamins
"Vitamin C, total ascorbic acid",mg,--,--,0.0,0.0
"Thiamin",mg,--,--,0.540,1.000
"Riboflavin",mg,--,--,0.340,0.630
"Niacin",mg,--,--,4.074,7.544
"Vitamin B-6",mg,--,--,0.407,0.754
"Vitamin A, IU",IU,--,--,1018,1886
Lipids
"Fatty acids, total saturated",g,--,--,0.502,0.930
"Fatty acids, total monounsaturated",g,--,--,0.502,0.930
"Fatty acids, total polyunsaturated",g,--,--,0.502,0.930
"Fatty acids, total trans",g,--,--,0.000,0.000
"Cholesterol",mg,--,--,0,0
Amino Acids
Other
Ingredients
"WHOLE GRAIN IRISH OATS, SUGAR, DEHYDRATED APPLES (TREATED WITH SODIUM SULFITE TO PROMOTE COLOR RETENTION), CINNAMON, SALT, NATURAL FLAVORS, CALCIUM CARBONATE (A SOURCE OF CALCIUM), GUAR GUM, MONO- AND DIGLYCERIDES, FERRIC PHOSPHATE (A SOURCE OF IRON), NIACINAMIDE*, PYRIDOXINE HYDROCHLORIDE (VITAMIN B6)*, RIBOFLAVIN*, VITAMIN A PALMITATE, THIAMIN MONONITRATE*, FOLIC ACID*." Date available: 07/14/2017 Date last updated by company: 07/14/2017
