Source: USDA Branded Food Products Database Release December 2017 Software v.3.8.6.4 2017-10-02
Report Run at: December 17, 2017 17:00 EST
"Nutrient data for: 45010828, MCCAIN, SMILES, UPC: 072714933820"
Food Group:  Branded Food Products Database
Common Name:

Nutrient,Unit,Data points,Std. Error,"3.0 ONZ = 85.0g",1Value per 100 g,
Proximates
"Energy",kcal,--,--,150,176
"Protein",g,--,--,2.00,2.35
"Total lipid (fat)",g,--,--,5.00,5.88
"Carbohydrate, by difference",g,--,--,24.00,28.24
"Fiber, total dietary",g,--,--,2.0,2.4
"Sugars, total",g,--,--,1.00,1.18
Minerals
"Calcium, Ca",mg,--,--,0,0
"Iron, Fe",mg,--,--,0.21,0.25
"Potassium, K",mg,--,--,220,259
"Sodium, Na",mg,--,--,240,282
Vitamins
"Vitamin C, total ascorbic acid",mg,--,--,0.0,0.0
"Vitamin A, IU",IU,--,--,0,0
Lipids
"Fatty acids, total saturated",g,--,--,0.501,0.590
"Fatty acids, total monounsaturated",g,--,--,2.499,2.940
"Fatty acids, total polyunsaturated",g,--,--,1.496,1.760
"Fatty acids, total trans",g,--,--,0.000,0.000
"Cholesterol",mg,--,--,0,0
Amino Acids
Other
Ingredients
"POTATOES, DEHYDRATED POTATOES, CANOLA & COTTONSEED OIL, POTATO STARCH, SEA SALT, SODIUM ACID PYROPHOSPHATE (MAINTAINS NATURAL COLOR)." Date available: 07/14/2017 Date last updated by company: 07/14/2017
