Source: USDA Branded Food Products Database Release December 2017 Software v.3.8.6.4 2017-10-02
Report Run at: December 17, 2017 17:00 EST
"Nutrient data for: 45083755, MCCLURE'S, PICKLE SPEARS, GARLIC & DILL, UPC: 896180001032"
Food Group:  Branded Food Products Database
Common Name:

Nutrient,Unit,Data points,Std. Error,"1 ONZ = 28.0g",1Value per 100 g,
Proximates
"Energy",kcal,--,--,5,18
"Protein",g,--,--,0.00,0.00
"Total lipid (fat)",g,--,--,0.00,0.00
"Carbohydrate, by difference",g,--,--,2.00,7.14
"Sugars, total",g,--,--,1.00,3.57
Minerals
"Sodium, Na",mg,--,--,70,250
Vitamins
"Vitamin C, total ascorbic acid",mg,--,--,10.7,38.3
"Vitamin A, IU",IU,--,--,179,638
Lipids
Amino Acids
Other
Ingredients
"CUCUMBERS, VINEGAR, WATER, SALT, GARLIC, DILL." Date available: 06/24/2017 Date last updated by company: 06/24/2017
