Source: USDA Branded Food Products Database Release December 2017 Software v.3.8.6.4 2017-10-02
Report Run at: December 17, 2017 17:04 EST
"Nutrient data for: 45243686, MCCORMICK, CULINARY, BEEF MARINADE WITH RED WINE, UPC: 052100010564"
Food Group:  Branded Food Products Database
Common Name:

Nutrient,Unit,Data points,Std. Error,"1 Tbsp = 15.0g",1Value per 100 g,
Proximates
"Energy",kcal,--,--,35,233
"Protein",g,--,--,0.00,0.00
"Total lipid (fat)",g,--,--,3.50,23.33
"Carbohydrate, by difference",g,--,--,1.00,6.67
Minerals
"Sodium, Na",mg,--,--,350,2333
Vitamins
Lipids
"Fatty acids, total saturated",g,--,--,0.500,3.330
Amino Acids
Other
Ingredients
"RED WINE VINEGAR, WORCESTERSHIRE SAUCE (DISTILLED VINEGAR AND WATER, MOLASSES, CORN SYRUP, SALT, CARAMEL COLOR, GARLIC, SUGAR, SPICES, ANCHOVIES, TAMARIND, NATURAL FLAVOR, AND SULFITING AGENTS), SOYBEAN OIL, RED WINE, SALT, SPICES, GARLIC, ONION, XANTHAN GUM, AND SULFITING AGENTS." Date available: 07/14/2017 Date last updated by company: 07/14/2017
