Source: USDA Branded Food Products Database Release December 2017 Software v.3.8.6.4 2017-10-02
Report Run at: December 17, 2017 17:01 EST
"Nutrient data for: 45107862, MCCORMICK, BAC'N PIECES, APPLEWOOD SMOKED BITS, BACON, UPC: 052100031316"
Food Group:  Branded Food Products Database
Common Name:

Nutrient,Unit,Data points,Std. Error,"1 Tbsp = 7.0g",1Value per 100 g,
Proximates
"Energy",kcal,--,--,30,429
"Protein",g,--,--,3.00,42.86
"Total lipid (fat)",g,--,--,1.00,14.29
"Carbohydrate, by difference",g,--,--,2.00,28.57
"Fiber, total dietary",g,--,--,1.0,14.3
"Sugars, total",g,--,--,1.00,14.29
Minerals
"Sodium, Na",mg,--,--,160,2286
Vitamins
Lipids
Amino Acids
Other
Ingredients
"TEXTURED SOY FLOUR, CANOLA OIL, SALT, CARAMEL COLOR, NATURAL AND ARTIFICIAL FLAVOR, YEAST EXTRACT, FD&C RED NO. 40, NATURAL APPLEWOOD SMOKE, AND DISODIUM GUANYLATE (FLAVOR ENHANCERS)." Date available: 07/14/2017 Date last updated by company: 07/14/2017
