Source: USDA Branded Food Products Database Release December 2017 Software v.3.8.6.4 2017-10-02
Report Run at: December 17, 2017 17:03 EST
"Nutrient data for: 45108155, MCCORMICK, COUNTRY GRAVY MIX, SAUSAGE FLAVOR, UPC: 052100097237"
Food Group:  Branded Food Products Database
Common Name:

Nutrient,Unit,Data points,Std. Error,"0.25 CUP) | MIX (MAKES = 9.0g",1Value per 100 g,
Proximates
"Energy",kcal,--,--,40,444
"Protein",g,--,--,1.00,11.11
"Total lipid (fat)",g,--,--,2.00,22.22
"Carbohydrate, by difference",g,--,--,5.00,55.56
"Sugars, total",g,--,--,1.00,11.11
Minerals
"Sodium, Na",mg,--,--,280,3111
Vitamins
Lipids
"Fatty acids, total saturated",g,--,--,0.500,5.560
"Fatty acids, total monounsaturated",g,--,--,1.000,11.110
Amino Acids
Other
Ingredients
"MODIFIED CORN STARCH, SUNFLOWER OIL, ENRICHED WHEAT FLOUR (FLOUR, NIACIN, IRON, THIAMINE MONONITRATE, RIBOFLAVIN, FOLIC ACID), CORN SYRUP SOLIDS, BUTTERMILK SOLIDS, SALT, CORN STARCH, SPICES (INCLUDING BLACK PEPPER, SAGE, FENNEL), SODIUM CASEINATE, MONO- AND DIGLYCERIDES (FOR SMOOTHNESS), DIPOTASSIUM PHOSPHATE, WHEY, HYDROLYZED CORN GLUTEN, SOY PROTEIN AND WHEAT GLUTEN, YEAST EXTRACT, DISODIUM INOSINATE AND GUANYLATE (FLAVOR ENHANCERS), NATURAL FLAVORS (INCLUDING SMOKE AND SAUSAGE), ONION, GARLIC, AND CARAMEL COLOR." Date available: 07/14/2017 Date last updated by company: 07/14/2017
