Source: USDA Branded Food Products Database Release December 2017 Software v.3.8.6.4 2017-10-02
Report Run at: December 17, 2017 17:03 EST
"Nutrient data for: 45243681, MCCORMICK, COCKTAIL SAUCE FOR SEAFOOD, EXTRA HOT, UPC: 041234010021"
Food Group:  Branded Food Products Database
Common Name:

Nutrient,Unit,Data points,Std. Error,"0.25 cup = 60.0g",1Value per 100 g,
Proximates
"Energy",kcal,--,--,90,150
"Protein",g,--,--,1.00,1.67
"Total lipid (fat)",g,--,--,0.50,0.83
"Carbohydrate, by difference",g,--,--,19.00,31.67
"Fiber, total dietary",g,--,--,1.0,1.7
"Sugars, total",g,--,--,16.00,26.67
Minerals
"Calcium, Ca",mg,--,--,0,0
"Iron, Fe",mg,--,--,0.00,0.00
"Sodium, Na",mg,--,--,970,1617
Vitamins
"Vitamin C, total ascorbic acid",mg,--,--,5.0,8.3
"Vitamin A, IU",IU,--,--,83,139
Lipids
"Fatty acids, total saturated",g,--,--,0.000,0.000
"Fatty acids, total trans",g,--,--,0.000,0.000
"Cholesterol",mg,--,--,0,0
Amino Acids
Other
Ingredients
"TOMATO PASTE, HIGH FRUCTOSE CORN SYRUP, WATER, VINEGAR, HORSERADISH, SALT, LEMON JUICE CONCENTRATE, RED PEPPER, ONION, SODIUM BENZOATE (ADDED AS A PRESERVATIVE), XANTHAN GUM, NATURAL AND ARTIFICIAL FLAVORS, AND GARLIC." Date available: 07/14/2017 Date last updated by company: 07/14/2017
