Source: USDA Branded Food Products Database Release December 2017 Software v.3.8.6.4 2017-10-02
Report Run at: December 17, 2017 17:09 EST
"Nutrient data for: 45106992, MCCORMICK, GOLDEN DIPT, ORIGINAL HOMESTYLE SEASONED CHICKEN FRY MIX, UPC: 041234702117"
Food Group:  Branded Food Products Database
Common Name:

Nutrient,Unit,Data points,Std. Error,"2.0 Tbsp = 14.0g",1Value per 100 g,
Proximates
"Energy",kcal,--,--,45,321
"Protein",g,--,--,1.00,7.14
"Total lipid (fat)",g,--,--,0.00,0.00
"Carbohydrate, by difference",g,--,--,10.00,71.43
Minerals
"Sodium, Na",mg,--,--,630,4500
Vitamins
Lipids
Amino Acids
Other
Ingredients
"YELLOW CORN FLOUR, ENRICHED WHEAT FLOUR (FLOUR, NIACIN, IRON, THIAMINE MONONITRATE, RIBOFLAVIN, AND FOLIC ACID), SALT, SUGAR, SODIUM ALGINATE, SPICE, AND NATURAL FLAVOR." Date available: 07/14/2017 Date last updated by company: 07/14/2017
