Source: USDA Branded Food Products Database Release December 2017 Software v.3.8.6.4 2017-10-02
Report Run at: December 17, 2017 17:18 EST
"Nutrient data for: 45118000, MCCORMICK, PRODUCE PARTNERS, GREAT GUACAMOLE MIX, MILD, UPC: 070528006815"
Food Group:  Branded Food Products Database
Common Name:

Nutrient,Unit,Data points,Std. Error,"2.0 TBSP. PREPARED DIP) | (MAKES = 1.8g",1Value per 100 g,
Proximates
"Energy",kcal,--,--,10,556
"Protein",g,--,--,0.00,0.00
"Total lipid (fat)",g,--,--,0.00,0.00
"Carbohydrate, by difference",g,--,--,1.00,55.56
Minerals
"Sodium, Na",mg,--,--,70,3889
Vitamins
Lipids
Amino Acids
Other
Ingredients
"CORN MALTODEXTRIN, SALT, ONION, NONFAT DRY MILK, MODIFIED TAPIOCA STARCH, RED BELL PEPPER,SOUR CREAM (CREAM, NONFAT MILK, CULTURES), GARLIC, CORN SYRUP SOLIDS, JALAPENO PEPPER, CULTURED NONFAT MILK, LEMON JUICE SOLIDS, SPICES (INCLUDING PARSLEY), AND NATURAL FLAVOR" Date available: 07/14/2017 Date last updated by company: 07/14/2017
