Source: USDA Branded Food Products Database Release December 2017 Software v.3.8.6.4 2017-10-02
Report Run at: December 17, 2017 17:18 EST
"Nutrient data for: 45107680, MCCORMICK, POT ROAST SLOW COOKER SAUCE WITH CARAMELIZED ONION & CRACKED BLACK PEPPER, UPC: 052100031095"
Food Group:  Branded Food Products Database
Common Name:

Nutrient,Unit,Data points,Std. Error,"2.0 Tbsp = 32.0g",1Value per 100 g,
Proximates
"Energy",kcal,--,--,20,62
"Protein",g,--,--,1.00,3.12
"Total lipid (fat)",g,--,--,0.00,0.00
"Carbohydrate, by difference",g,--,--,4.00,12.50
"Sugars, total",g,--,--,1.00,3.12
Minerals
"Sodium, Na",mg,--,--,410,1281
Vitamins
"Vitamin A, IU",IU,--,--,169,528
Lipids
Amino Acids
Other
Ingredients
"WATER, TOMATO PUREE (WATER, TOMATO PASTE, ONION, SALT, MODIFIED CORN STARCH, DISTILLED VINEGAR, CARROT, BROWN SUGAR, WORCESTERSHIRE SAUCE (VINEGAR, MOLASSES, CORN SYRUP, WATER, SALT, CARAMEL COLOR, GARLIC, SUGAR, SPICES, TAMARIND, NATURAL FLAVOR), SPICES (INCLUDING CRACKED BLACK PEPPER), POTATO STARCH, YEAST EXTRACT, CITRIC ACID, LACTIC ACID, CARAMEL COLOR, NATURAL FLAVOR, AND BEEF EXTRACT." Date available: 07/14/2017 Date last updated by company: 07/14/2017
