Source: USDA Branded Food Products Database Release December 2017 Software v.3.8.6.4 2017-10-02
Report Run at: December 17, 2017 17:14 EST
"Nutrient data for: 45106897, MCCORMICK, ITALIAN HERB SPAGHETTI SAUCE SEASONING MIX, UPC: 052100012155"
Food Group:  Branded Food Products Database
Common Name:

Nutrient,Unit,Data points,Std. Error,"2.0 tsp = 6.0g",1Value per 100 g,
Proximates
"Energy",kcal,--,--,20,333
"Protein",g,--,--,0.00,0.00
"Total lipid (fat)",g,--,--,0.00,0.00
"Carbohydrate, by difference",g,--,--,4.00,66.67
"Sugars, total",g,--,--,2.00,33.33
Minerals
"Sodium, Na",mg,--,--,500,8333
Vitamins
"Vitamin C, total ascorbic acid",mg,--,--,20.0,333.3
Lipids
Amino Acids
Other
Ingredients
"SUGAR, SALT, ONION, MODIFIED CORN STARCH, SPICES AND HERBS (INCLUDING BASIL, MARJORAM, BLACK PEPPER, AND RED PEPPER), GARLIC, RED BELL PEPPERS, AND SUNFLOWER OIL." Date available: 07/14/2017 Date last updated by company: 07/14/2017
