Source: USDA Branded Food Products Database Release December 2017 Software v.3.8.6.4 2017-10-02
Report Run at: December 17, 2017 17:18 EST
"Nutrient data for: 45106934, MCCORMICK, PREMIUM TACO SEASONING MIX, UPC: 052100465074"
Food Group:  Branded Food Products Database
Common Name:

Nutrient,Unit,Data points,Std. Error,"2.0 TACOS) | (SEASONS = 6.0g",1Value per 100 g,
Proximates
"Energy",kcal,--,--,20,333
"Protein",g,--,--,0.00,0.00
"Total lipid (fat)",g,--,--,0.00,0.00
"Carbohydrate, by difference",g,--,--,4.00,66.67
"Sugars, total",g,--,--,1.00,16.67
Minerals
"Sodium, Na",mg,--,--,370,6167
Vitamins
"Vitamin A, IU",IU,--,--,834,13892
Lipids
Amino Acids
Other
Ingredients
"YELLOW CORN MEAL, SPICES (INCLUDING CHILI PEPPER, CUMIN, OREGANO), SEA SALT, ONION, GARLIC, DEMARARA SUGAR (UNREFINED SUGAR), SMOKED PAPRIKA, RED & GREEN BELL PEPPERS, COCOA POWDER PROCESSED WITH ALKALI, SALT, AND JALAPENO PEPPER." Date available: 07/14/2017 Date last updated by company: 07/14/2017
