Source: USDA Branded Food Products Database Release December 2017 Software v.3.8.6.4 2017-10-02
Report Run at: December 17, 2017 17:21 EST
"Nutrient data for: 45107278, MCCORMICK, VEGETABLE DIP, UPC: 052100063850"
Food Group:  Branded Food Products Database
Common Name:

Nutrient,Unit,Data points,Std. Error,"2.0 TBSP. DIP) | (SEASONS = 1.6g",1Value per 100 g,
Proximates
"Energy",kcal,--,--,5,312
"Protein",g,--,--,0.00,0.00
"Total lipid (fat)",g,--,--,0.00,0.00
"Carbohydrate, by difference",g,--,--,1.00,62.50
Minerals
"Sodium, Na",mg,--,--,130,8125
Vitamins
Lipids
Amino Acids
Other
Ingredients
"ONION, HYDROLYZED CORN GLUTEN AND WHEAT GLUTEN, SALT, CORN MALTODEXTRIN, CARROT, TOMATO, MODIFIED TAPIOCA AND CORN STARCHES, YEAST EXTRACT, CELERY, CABBAGE, AND SPICES (INCLUDING PARSLEY)." Date available: 08/30/2017 Date last updated by company: 08/30/2017
