Source: USDA Branded Food Products Database Release December 2017 Software v.3.8.6.4 2017-10-02
Report Run at: December 17, 2017 17:20 EST
"Nutrient data for: 45107815, MCCORMICK, SLOW COOKERS RED WINE BRAISED ROAST SEASONING MIX, UPC: 052100021850"
Food Group:  Branded Food Products Database
Common Name:

Nutrient,Unit,Data points,Std. Error,"2.0 tsp = 4.5g",1Value per 100 g,
Proximates
"Energy",kcal,--,--,15,333
"Protein",g,--,--,0.00,0.00
"Total lipid (fat)",g,--,--,0.00,0.00
"Carbohydrate, by difference",g,--,--,3.00,66.67
Minerals
"Sodium, Na",mg,--,--,450,10000
Vitamins
Lipids
Amino Acids
Other
Ingredients
"MODIFIED CORN STARCH, SALT, HYDROLYZED CORN, SOY AND WHEAT PROTEIN, SUGAR, SPICES, (INCLUDING BLACK PEPPER AND THYME), POTATO MALTODEXTRIN, GARLIC, ONION, MALIC ACID, RED WINE, CORN MALTODEXTRIN, NATURAL FLAVOR, BEEF STOCK, YEAST EXTRACT, CHICKEN, RED WINE VINEGAR, AND BEEF FAT." Date available: 07/14/2017 Date last updated by company: 07/14/2017
