Source: USDA Branded Food Products Database Release December 2017 Software v.3.8.6.4 2017-10-02
Report Run at: December 17, 2017 17:04 EST
"Nutrient data for: 45107980, MCCORMICK, CRUNCHY AND FLAVOURFUL SALAD TOPPINS, UPC: 052100326283"
Food Group:  Branded Food Products Database
Common Name:

Nutrient,Unit,Data points,Std. Error,"1.333 Tbsp = 7.0g",1Value per 100 g,
Proximates
"Energy",kcal,--,--,35,500
"Protein",g,--,--,2.00,28.57
"Total lipid (fat)",g,--,--,1.50,21.43
"Carbohydrate, by difference",g,--,--,3.00,42.86
"Sugars, total",g,--,--,1.00,14.29
Minerals
"Sodium, Na",mg,--,--,65,929
Vitamins
"Vitamin C, total ascorbic acid",mg,--,--,8.6,122.5
"Vitamin A, IU",IU,--,--,714,10207
Lipids
Amino Acids
Other
Ingredients
"SUNFLOWER SEEDS, SOYBEANS, TEXTURED SOY FLOUR, RICE, ONION, CARROTS, CANOLA OIL, RED AND GREEN BELL PEPPERS, SALT, SUGAR, PARSLEY, BARLEY MALT EXTRACT, CARAMEL COLOR, NATURAL AND ARTIFICIAL FLAVOR, LACTIC ACID, YEAST EXTRACT, DISODIUM INOSINATE AND DISODIUM GUANYLATE (FLAVOR ENHANCERS), AND FD&C RED #3." Date available: 10/06/2017 Date last updated by company: 10/06/2017
