Source: USDA Branded Food Products Database Release December 2017 Software v.3.8.6.4 2017-10-02
Report Run at: December 17, 2017 17:16 EST
"Nutrient data for: 45113633, MCCORMICK, ORGANICS, BROWN GRAVY MIX, UPC: 052100035093"
Food Group:  Branded Food Products Database
Common Name:

Nutrient,Unit,Data points,Std. Error,"0.25 CUP | MAKES = 6.0g",1Value per 100 g,
Proximates
"Energy",kcal,--,--,20,333
"Protein",g,--,--,0.00,0.00
"Total lipid (fat)",g,--,--,0.00,0.00
"Carbohydrate, by difference",g,--,--,4.00,66.67
Minerals
"Sodium, Na",mg,--,--,250,4167
Vitamins
Lipids
Amino Acids
Other
Ingredients
"ORGANIC LONG GRAIN WHITE RICE FLOUR, ORGANIC WHEAT STARCH, SEA SALT, ORGANIC ONION, ORGANIC TAMARI SOY SAUCE (ORGANIC SOYBEANS, ORGANIC CORN AND/OR TAPIOCA MALTODEXTRIN, SALT), ORGANIC YEAST EXTRACT, ORGANIC BEEF FLAVOR (CONTAINS ORGANIC BEEF), ORGANIC GUM ARABIC, ORGANIC CARAMEL COLOR, ORGANIC SPICES (INCLUDING BLACK PEPPER) & ORGANIC GARLIC." Date available: 07/14/2017 Date last updated by company: 07/14/2017
