Source: USDA Branded Food Products Database Release December 2017 Software v.3.8.6.4 2017-10-02
Report Run at: December 17, 2017 17:03 EST
"Nutrient data for: 45113748, MCCORMICK, CHILI SEASONING MIX, ORIGINAL, UPC: 052100034775"
Food Group:  Branded Food Products Database
Common Name:

Nutrient,Unit,Data points,Std. Error,"1 CUP CHILI) | (SEASONS = 9.0g",1Value per 100 g,
Proximates
"Energy",kcal,--,--,30,333
"Protein",g,--,--,1.00,11.11
"Total lipid (fat)",g,--,--,1.00,11.11
"Carbohydrate, by difference",g,--,--,5.00,55.56
"Fiber, total dietary",g,--,--,1.0,11.1
"Sugars, total",g,--,--,1.00,11.11
Minerals
"Iron, Fe",mg,--,--,2.00,22.22
"Sodium, Na",mg,--,--,350,3889
Vitamins
"Vitamin A, IU",IU,--,--,1667,18517
Lipids
Amino Acids
Other
Ingredients
"CHILI PEPPER AND OTHER SPICES (INCLUDING CUMIN). ENRICHED WHEAT FLOUR (FLOUR, NIACIN, IRON, THIAMINE MONONITRATE, RIBOFLAVIN, FOLIC ACID), ONION, SALT, AND GARLIC." Date available: 07/14/2017 Date last updated by company: 07/14/2017
