Source: USDA Branded Food Products Database Release December 2017 Software v.3.8.6.4 2017-10-02
Report Run at: December 17, 2017 17:17 EST
"Nutrient data for: 45107378, MCCORMICK, PERFECT PINCH CAJUN SEASONING, UPC: 052100329741"
Food Group:  Branded Food Products Database
Common Name:

Nutrient,Unit,Data points,Std. Error,"0.25 tsp = 0.8g",1Value per 100 g,
Proximates
"Energy",kcal,--,--,0,0
"Protein",g,--,--,0.00,0.00
"Total lipid (fat)",g,--,--,0.00,0.00
"Carbohydrate, by difference",g,--,--,0.00,0.00
Minerals
"Sodium, Na",mg,--,--,55,6875
Vitamins
Lipids
Amino Acids
Other
Ingredients
"GARLIC, SALT, ONION, PAPRIKA, OREGANO, WHITE PEPPER, RED PEPPER, AND SPICE." Date available: 07/14/2017 Date last updated by company: 07/14/2017
