Source: USDA Branded Food Products Database Release December 2017 Software v.3.8.6.4 2017-10-02
Report Run at: December 17, 2017 17:15 EST
"Nutrient data for: 45107213, MCCORMICK, MAYONESA MAYONNAISE WITH LIME JUICE, UPC: 052100371450"
Food Group:  Branded Food Products Database
Common Name:

Nutrient,Unit,Data points,Std. Error,"1 Tbsp = 14.0g",1Value per 100 g,
Proximates
"Energy",kcal,--,--,100,714
"Protein",g,--,--,0.00,0.00
"Total lipid (fat)",g,--,--,11.00,78.57
"Carbohydrate, by difference",g,--,--,0.00,0.00
Minerals
"Sodium, Na",mg,--,--,85,607
Vitamins
Lipids
"Fatty acids, total saturated",g,--,--,2.001,14.290
"Cholesterol",mg,--,--,10,71
Amino Acids
Other
Ingredients
"SOYBEAN OIL, EGG YOLKS, WATER, DISTILLED VINEGAR, SUGAR, IODIZED SALT, SPICES, LIME JUICE CONCENTRATE, DISODIUM EDTA (ADDED TO PROTECT FLAVOR), EXTRACTIVES OF PAPRIKA, AND NATURAL FLAVOR, AND EXTRACTIVES OF RED PEPPER." Date available: 07/14/2017 Date last updated by company: 07/14/2017
