Source: USDA Branded Food Products Database Release December 2017 Software v.3.8.6.4 2017-10-02
Report Run at: December 17, 2017 17:23 EST
"Nutrient data for: 45097686, MCSWEER, SWEET 'N SOUR DILLS, UPC: 186756000065"
Food Group:  Branded Food Products Database
Common Name:

Nutrient,Unit,Data points,Std. Error,"3.0 SLICES = 28.0g",1Value per 100 g,
Proximates
"Energy",kcal,--,--,20,71
"Protein",g,--,--,0.00,0.00
"Total lipid (fat)",g,--,--,0.00,0.00
"Carbohydrate, by difference",g,--,--,5.00,17.86
"Sugars, total",g,--,--,5.00,17.86
Minerals
"Sodium, Na",mg,--,--,420,1500
Vitamins
Lipids
Amino Acids
Other
Ingredients
"CUCUMBERS, VINEGAR, SUGAR, WATER, SALT, GARLIC, ONION, DILL SEED." Date available: 06/25/2017 Date last updated by company: 06/25/2017
