Source: USDA Branded Food Products Database Release December 2017 Software v.3.8.6.4 2017-10-02
Report Run at: December 17, 2017 17:23 EST
"Nutrient data for: 45273011, MCT & ORGANIC GRASS FED BUTTER, UPC: 850361007053"
Food Group:  Branded Food Products Database
Common Name:

Nutrient,Unit,Data points,Std. Error,"1 PACKET = 28.0g",1Value per 100 g,
Proximates
"Energy",kcal,--,--,200,714
"Protein",g,--,--,3.00,10.71
"Total lipid (fat)",g,--,--,19.00,67.86
"Carbohydrate, by difference",g,--,--,4.00,14.29
"Fiber, total dietary",g,--,--,0.0,0.0
"Sugars, total",g,--,--,4.00,14.29
Minerals
"Calcium, Ca",mg,--,--,150,536
"Iron, Fe",mg,--,--,0.00,0.00
"Sodium, Na",mg,--,--,45,161
Vitamins
"Vitamin C, total ascorbic acid",mg,--,--,0.0,0.0
"Vitamin A, IU",IU,--,--,200,714
Lipids
"Fatty acids, total saturated",g,--,--,15.999,57.140
"Fatty acids, total trans",g,--,--,0.000,0.000
"Cholesterol",mg,--,--,10,36
Amino Acids
Other
Ingredients
"NON GMO MCT OIL (FROM COCONUT AND PALM), ORGANIC NON FAT MILK POWDER (PASTURE RAISED), ORGANIC CLARIFIED BUTTER (PASTURE RAISED), ORGANIC SUNFLOWER LECITHIN, DISODIUM PHOSPHATE, NON GMO TOCOPHEROLS (VITAMIN E)." Date available: 08/22/2017 Date last updated by company: 08/22/2017
