Source: USDA Branded Food Products Database Release December 2017 Software v.3.8.6.4 2017-10-02
Report Run at: December 17, 2017 19:15 EST
"Nutrient data for: 45174468, ME TOO!, SPREAD QUARTERS, UPC: 045400310120"
Food Group:  Branded Food Products Database
Common Name:

Nutrient,Unit,Data points,Std. Error,"1 Tbsp = 14.0g",1Value per 100 g,
Proximates
"Energy",kcal,--,--,70,500
"Protein",g,--,--,0.00,0.00
"Total lipid (fat)",g,--,--,7.00,50.00
"Carbohydrate, by difference",g,--,--,0.00,0.00
"Fiber, total dietary",g,--,--,0.0,0.0
"Sugars, total",g,--,--,0.00,0.00
Minerals
"Calcium, Ca",mg,--,--,0,0
"Iron, Fe",mg,--,--,0.00,0.00
"Sodium, Na",mg,--,--,110,786
Vitamins
"Vitamin C, total ascorbic acid",mg,--,--,0.0,0.0
"Vitamin A, IU",IU,--,--,1690,12075
Lipids
"Fatty acids, total saturated",g,--,--,1.499,10.710
"Fatty acids, total monounsaturated",g,--,--,2.001,14.290
"Fatty acids, total polyunsaturated",g,--,--,2.001,14.290
"Fatty acids, total trans",g,--,--,2.001,14.290
"Cholesterol",mg,--,--,0,0
Amino Acids
Other
Ingredients
"LIQUID AND PARTIALLY HYDROGENATED SOYBEAN OIL, WATER, SALT, CONTAINS LESS THAN 2% OF VEGETABLE MONO & DIGLYCERIDES, SOY LECITHIN, POTASSIUM SORBATE AND SODIUM BENZOATE (AS PRESERVATIVES), CITRIC ACID, NATURAL & ARTIFICIAL FLAVOR, BETA CAROTENE (COLOR), VITAMIN A PALMITATE ADDED, WHEY." Date available: 07/14/2017 Date last updated by company: 07/14/2017
