Source: USDA Branded Food Products Database Release December 2017 Software v.3.8.6.4 2017-10-02
Report Run at: December 17, 2017 17:26 EST
"Nutrient data for: 45204472, MEAL MIXTURE FOR BAKED STUFFED PEPPERS, UPC: 3850104271441"
Food Group:  Branded Food Products Database
Common Name:

Nutrient,Unit,Data points,Std. Error,"1 tsp = 10.0g",1Value per 100 g,
Proximates
"Energy",kcal,--,--,25,250
"Protein",g,--,--,1.00,10.00
"Total lipid (fat)",g,--,--,0.00,0.00
"Carbohydrate, by difference",g,--,--,5.00,50.00
"Sugars, total",g,--,--,1.00,10.00
Minerals
"Sodium, Na",mg,--,--,1100,11000
Vitamins
Lipids
Amino Acids
Other
Ingredients
"BREAD CRUMBS (WHEAT FLOUR, YEAST, SALT), TABLE SALT, DRIED ONION, DRIED POTATO, WHEAT FLOUR, YEAST EXTRACT, DRIED GARLIC, POWDERED EGG, SWEET PAPRIKA, BLACK PEPPER, PARSLEY." Date available: 07/14/2017 Date last updated by company: 07/14/2017
