Source: USDA Branded Food Products Database Release December 2017 Software v.3.8.6.4 2017-10-02
Report Run at: December 17, 2017 17:25 EST
"Nutrient data for: 45282169, MEAL BARS, UPC: 853152100599"
Food Group:  Branded Food Products Database
Common Name:

Nutrient,Unit,Data points,Std. Error,"1 BAR = 85.0g",1Value per 100 g,
Proximates
"Energy",kcal,--,--,360,424
"Protein",g,--,--,8.00,9.41
"Total lipid (fat)",g,--,--,15.00,17.65
"Carbohydrate, by difference",g,--,--,50.00,58.82
"Fiber, total dietary",g,--,--,5.0,5.9
"Sugars, total",g,--,--,22.00,25.88
Minerals
"Calcium, Ca",mg,--,--,80,94
"Iron, Fe",mg,--,--,1.69,1.99
"Sodium, Na",mg,--,--,30,35
Vitamins
"Vitamin C, total ascorbic acid",mg,--,--,2.8,3.3
"Vitamin A, IU",IU,--,--,471,554
Lipids
"Fatty acids, total saturated",g,--,--,2.499,2.940
"Fatty acids, total trans",g,--,--,0.000,0.000
"Cholesterol",mg,--,--,0,0
Amino Acids
Other
Ingredients
"BROWN RICE SYRUP+, OATS+, DATES+, CASHEW BUTTER+ (CASHEWS+, SUNFLOWER OIL+), SUNFLOWER SEEDS+, RAISINS+, CASHEWS, FLAX SEEDS+, SESAME SEEDS+, ALMONDS, CRISP BROWN RICE+, DRIED CANE SYRUP+, BLUEBERRY PUREE, EXPELLER PRESSED CANOLA OIL+, BLUEBERRIES, VEGETABLE GLYCERINE, WHEAT GRASS+*, DRIED PINEAPPLE, DRIED PAPAYA, APPLE JUICE CONCENTRATE, DRIED CANE SYRUP, RICE SYRUP+, OAT FLOUR+, NATURAL VANILLA FLAVOR, BARLEY GRASS+*, PUMPKIN SEED+, MOLASSES+, ALFALFA+*, NATURAL BLUEBERRY FLAVOR, F.O.S. (FROM CHICORY ROOT), CITRIC ACID, NATURAL BERRY FLAVOR, APPLE PECTIN FIBER*, ARABIC GUM, ROSE HIPS+*, MACA ROOT+*, SPINACH+*, NATURAL FLAVORS, SUNFLOWER OIL, SALT, ROSEMARY EXTRACT, PINEAPPLE+*, CARROT+*, ACEROLA CHERRY*, SPIRULINA+*, CHLORELA+*, GREEN TEA, PEPPERMINT*, BROCCOLI+* ACAI+*, BEET+*, RASPBERRY*, GOJI BERRY+*, SILICA, NATURAL TOCOPHEROLS AND ASCORBIC ACID (ADDED TO PRESERVE FLAVOR), L. ACIDOPHILUS, PROTEASE, SIBERIAN ELEUTHERO ROOT*, ALPHA AND BETA AMYLASE, LIPASE, LACTASE, CELLULASE." Date available: 07/14/2017 Date last updated by company: 07/14/2017
