Source: USDA Branded Food Products Database Release December 2017 Software v.3.8.6.4 2017-10-02
Report Run at: December 17, 2017 17:29 EST
"Nutrient data for: 45314119, MEATBALLS, UPC: 073504200207"
Food Group:  Branded Food Products Database
Common Name:

Nutrient,Unit,Data points,Std. Error,"6.0 MEATBALLS = 85.0g",1Value per 100 g,
Proximates
"Energy",kcal,--,--,200,235
"Protein",g,--,--,12.00,14.12
"Total lipid (fat)",g,--,--,14.00,16.47
"Carbohydrate, by difference",g,--,--,5.00,5.88
"Fiber, total dietary",g,--,--,1.0,1.2
"Sugars, total",g,--,--,2.00,2.35
Minerals
"Calcium, Ca",mg,--,--,40,47
"Iron, Fe",mg,--,--,2.54,2.99
"Sodium, Na",mg,--,--,600,706
Vitamins
"Vitamin C, total ascorbic acid",mg,--,--,0.0,0.0
"Vitamin A, IU",IU,--,--,0,0
Lipids
"Fatty acids, total saturated",g,--,--,4.998,5.880
"Fatty acids, total trans",g,--,--,0.000,0.000
"Cholesterol",mg,--,--,65,76
Amino Acids
Other
Ingredients
"BEEF, PORK, MECHANICALLY SEPARATED TURKEY (WITH NATURAL FLAVOR), WATER, TEXTURED VEGETABLE PROTEIN (WITH CARAMEL COLOR), DEXTROSE, MODIFIED FOOD STARCH, SALT, GARLIC POWDER, ONION, SPICES, HYDROLYZED SOY PROTEIN, SODIUM PHOSPHATE AND NATURAL FLAVOR." Date available: 07/14/2017 Date last updated by company: 07/14/2017
