Source: USDA Branded Food Products Database Release December 2017 Software v.3.8.6.4 2017-10-02
Report Run at: December 17, 2017 17:34 EST
"Nutrient data for: 45330445, MEAT TRIO PIZZA ITALIAN SAUSAGE, BEEF PATTY CRUMBLE & PREMIUM DELI STYLE PEPPERONI, UPC: 681131166836"
Food Group:  Branded Food Products Database
Common Name:

Nutrient,Unit,Data points,Std. Error,"0.25 PIZZA = 122.0g",1Value per 100 g,
Proximates
"Energy",kcal,--,--,350,287
"Protein",g,--,--,15.99,13.11
"Total lipid (fat)",g,--,--,21.00,17.21
"Carbohydrate, by difference",g,--,--,24.00,19.67
"Fiber, total dietary",g,--,--,2.0,1.6
"Sugars, total",g,--,--,2.00,1.64
Minerals
"Calcium, Ca",mg,--,--,200,164
"Iron, Fe",mg,--,--,2.88,2.36
"Sodium, Na",mg,--,--,820,672
Vitamins
"Vitamin C, total ascorbic acid",mg,--,--,7.7,6.3
"Vitamin A, IU",IU,--,--,479,393
Lipids
"Fatty acids, total saturated",g,--,--,10.004,8.200
"Fatty acids, total trans",g,--,--,0.000,0.000
"Cholesterol",mg,--,--,40,33
Amino Acids
Other
Ingredients
"TOPPINGS: CHEESES (LOW MOISTURE MOZZARELLA CHEESE [PASTEURIZED MILK, CHEESE CULTURES, SALT, ENZYMES], PROVOLONE CHEESE [PASTEURIZED MILK, CHEESE CULTURES, SALT, ENZYMES], ASIAGO CHEESE [{PASTEURIZED MILK, CHEESE CULTURES, SALT, ENZYMES}, POWDERED CELLULOSE ADDED TO PREVENT CAKING, NATAMYCIN {A NATURAL MOLD INHIBITOR}], ROMANO CHEESE [{PASTEURIZED MILK, CHEESE CULTURES, SALT, ENZYMES}, POWDERED CELLULOSE ADDED TO PREVENT CAKING, NATAMYCIN {A NATURAL MOLD INHIBITOR}]), SAUCE (TOMATO PUREE [WATER, TOMATO PASTE], CONTAINS 2% OR LESS OF SUGAR, SPICES, SALT, SOYBEAN OIL, CITRIC ACID, XANTHAN GUM, DEHYDRATED ONION, DEHYDRATED GARLIC), COOKED ITALIAN SAUSAGE (PORK, SPICES, WATER, SALT, CORN SYRUP SOLIDS, DRIED GARLIC, PAPRIKA, SUGAR, LEMON JUICE POWDER [CORN SYRUP SOLIDS, LEMON JUICE SOLIDS, LEMON OIL], FLAVORING), COOKED BEEF PATTY CRUMBLES (BEEF, WATER, TEXTURED VEGETABLE PROTEIN [SOY FLOUR, CARAMEL COLOR], SALT, SPICE, GRANULATED ONION, GRANULATED GARLIC), PEPPERONI (PORK, SALT, CONTAINS 2% OR LESS OF BEEF, DEXTROSE, FLAVORINGS, LACTIC ACID STARTER CULTURE, OLEORESIN OF PAPRIKA, SODIUM NITRITE, SPICES, VITAMIN C [SODIUM ASCORBATE], BHA, BHT, CITRIC ACID), SPICES. CRUST: ENRICHED FLOUR (WHEAT FLOUR, NIACIN, IRON, THIAMINE MONONITRATE, RIBOFLAVIN, FOLIC ACID), WATER, PALM OIL, SOYBEAN OIL, CONTAINS 2% OR LESS OF BREAD CRUMBS (WHEAT FLOUR, SUGAR, YEAST, SALT), SALT, ACACIA GUM, YEAST, WHEAT FLOUR, ENZYMES." Date available: 10/13/2017 Date last updated by company: 10/13/2017
