Source: USDA Branded Food Products Database Release December 2017 Software v.3.8.6.4 2017-10-02
Report Run at: December 17, 2017 17:30 EST
"Nutrient data for: 45205405, MEATLESS BREAKFAST PATTIES, UPC: 099482443269"
Food Group:  Branded Food Products Database
Common Name:

Nutrient,Unit,Data points,Std. Error,"1 PATTY = 38.0g",1Value per 100 g,
Proximates
"Energy",kcal,--,--,60,158
"Protein",g,--,--,6.00,15.79
"Total lipid (fat)",g,--,--,2.50,6.58
"Carbohydrate, by difference",g,--,--,4.00,10.53
"Fiber, total dietary",g,--,--,2.0,5.3
"Sugars, total",g,--,--,1.00,2.63
Minerals
"Calcium, Ca",mg,--,--,20,53
"Iron, Fe",mg,--,--,2.42,6.36
"Sodium, Na",mg,--,--,135,355
Vitamins
"Vitamin C, total ascorbic acid",mg,--,--,0.0,0.0
"Vitamin A, IU",IU,--,--,0,0
Lipids
"Fatty acids, total saturated",g,--,--,0.000,0.000
"Fatty acids, total monounsaturated",g,--,--,1.501,3.950
"Fatty acids, total polyunsaturated",g,--,--,0.502,1.320
"Fatty acids, total trans",g,--,--,0.000,0.000
"Cholesterol",mg,--,--,0,0
Amino Acids
Other
Ingredients
"WATER, TEXTURED SOY PROTEIN, TEXTURED VEGETABLE PROTEIN (SOY FLOUR, CARAMEL COLOR), SEASONING (SPICES, ORGANIC EVAPORATED CANE SUGAR, PAPRIKA, SEA SALT, AUTOLYZED YEAST EXTRACT, CITRIC ACID), EXPELLER PRESSED CANOLA OIL, WHEAT GLUTEN, METHYLCELLULOSE." Date available: 07/14/2017 Date last updated by company: 07/14/2017
