Source: USDA Branded Food Products Database Release December 2017 Software v.3.8.6.4 2017-10-02
Report Run at: December 17, 2017 17:29 EST
"Nutrient data for: 45052031, MEAT HOT DOGS, UPC: 041497196470"
Food Group:  Branded Food Products Database
Common Name:

Nutrient,Unit,Data points,Std. Error,"1 FRANK = 56.0g",1Value per 100 g,
Proximates
"Energy",kcal,--,--,170,304
"Protein",g,--,--,6.00,10.71
"Total lipid (fat)",g,--,--,15.00,26.79
"Carbohydrate, by difference",g,--,--,2.00,3.57
"Fiber, total dietary",g,--,--,0.0,0.0
"Sugars, total",g,--,--,1.00,1.79
Minerals
"Calcium, Ca",mg,--,--,0,0
"Iron, Fe",mg,--,--,0.35,0.63
"Sodium, Na",mg,--,--,500,893
Vitamins
"Vitamin C, total ascorbic acid",mg,--,--,1.2,2.1
"Vitamin A, IU",IU,--,--,197,351
Lipids
"Fatty acids, total saturated",g,--,--,5.001,8.930
"Fatty acids, total trans",g,--,--,0.000,0.000
"Cholesterol",mg,--,--,45,80
Amino Acids
Other
Ingredients
"MECHANICALLY SEPARATED CHICKEN, PORK, WATER, SALT, CONTAINS LESS THAN 2% OF: DEXTROSE, CORN SYRUP, SODIUM PHOSPHATE, MODIFIED FOOD STARCH, FLAVORING, SUGAR, LAURIC ARGINATE, SODIUM ERYTHORBATE, OLEORESIN OF PAPRIKA, SODIUM NITRATE." Date available: 06/25/2017 Date last updated by company: 06/25/2017
