Source: USDA Branded Food Products Database Release December 2017 Software v.3.8.6.4 2017-10-02
Report Run at: December 17, 2017 17:34 EST
"Nutrient data for: 45282673, MEAT TENDERIZER, UPC: 041130310713"
Food Group:  Branded Food Products Database
Common Name:

Nutrient,Unit,Data points,Std. Error,"0.25 tsp = 1.2g",1Value per 100 g,
Proximates
"Energy",kcal,--,--,0,0
"Protein",g,--,--,0.00,0.00
"Total lipid (fat)",g,--,--,0.00,0.00
"Carbohydrate, by difference",g,--,--,0.00,0.00
Minerals
"Sodium, Na",mg,--,--,450,37500
Vitamins
Lipids
Amino Acids
Other
Ingredients
"SALT, GARLIC, DEXTROSE, BROMELAIN, SPICE, TRICALCIUM PHOSPHATE (TO MAKE FREE FLOWING), YELLOW LAKE #5, AND RED LAKE #40." Date available: 07/14/2017 Date last updated by company: 07/14/2017
