Source: USDA Branded Food Products Database Release December 2017 Software v.3.8.6.4 2017-10-02
Report Run at: December 17, 2017 17:36 EST
"Nutrient data for: 45202678, MEDITERRANEAN CHICKEN SALAD WITH LITE GREEK DRESSING, UPC: 782796028467"
Food Group:  Branded Food Products Database
Common Name:

Nutrient,Unit,Data points,Std. Error,"0.5 SALAD = 219.0g",1Value per 100 g,
Proximates
"Energy",kcal,--,--,210,96
"Protein",g,--,--,12.00,5.48
"Total lipid (fat)",g,--,--,13.01,5.94
"Carbohydrate, by difference",g,--,--,16.01,7.31
"Fiber, total dietary",g,--,--,1.1,0.5
"Sugars, total",g,--,--,3.00,1.37
Minerals
"Calcium, Ca",mg,--,--,59,27
"Iron, Fe",mg,--,--,0.46,0.21
"Sodium, Na",mg,--,--,491,224
Vitamins
"Vitamin C, total ascorbic acid",mg,--,--,38.3,17.5
"Vitamin A, IU",IU,--,--,1119,511
Lipids
"Fatty acids, total saturated",g,--,--,4.008,1.830
"Fatty acids, total trans",g,--,--,0.000,0.000
"Cholesterol",mg,--,--,31,14
Amino Acids
Other
Ingredients
"ICEBERG & ROMAINE LETTUCE MIX (ICEBERG LETTUCE, ROMAINE LETTUCE), CHICKEN (BONELESS SKINLESS CHICKEN BREAST, WATER, SEASONING (SALT, HERBS AND SPICES, DEHYDRATED ONION, DEHYDRATED GARLIC)), LITE GREEK DRESSING (WATER, CANOLA OIL, SUGAR, EXTRA VIRGIN OLIVE OIL, OLIVE OIL, WHITE WINE VINEGAR, FETA CHEESE (MILK, SALT, CULTURE, ENZYMES), DISTILLED VINEGAR, MODIFIED CORN STARCH, SALT, DRIED ONION, DRIED GARLIC, NATURAL FLAVORS, SPICES, LEMON JUICE CONCENTRATE, ASCORBIC ACID, XANTHAN GUM, GUAR GUM, DRIED BELL PEPPER, GARLIC EXTRACT), GRAPE TOMATOES, FETA CHEESE CRUMBLES (PASTEURIZED MILK, CHEESE CULTURES, SALT, ENZYMES, POWDERED CELLULOSE (TO PREVENT CAKING)), RED ONION, CROUTONS (WHEAT FLOUR, SUNFLOWER OIL, CRACKED RYE, CRACKED WHEAT, YEAST, SEA SALT, 2% OR LESS OF SUGAR, WHEAT GLUTEN, DEHYDRATED ROASTED GARLIC, NATURAL OLIVE OIL FLAVOR, ASCORBIC ACID). SEASONING (ONION, SPICES (BLACK PEPPER, PARSLEY, CELERY SEED, BASIL, BAY, MARJORAM, OREGANO, SAVORY, THYME, CAYENNE PEPPER, CORIANDER, CUMIN, MUSTARD, ROSEMARY), GARLIC, CARROT, ORANGE PEEL, TOMATO LEMON JUICE POWDER, CITRIC ACID, OIL OF LEMON)." Date available: 07/14/2017 Date last updated by company: 07/14/2017
