Source: USDA Branded Food Products Database Release December 2017 Software v.3.8.6.4 2017-10-02
Report Run at: December 17, 2017 17:50 EST
"Nutrient data for: 45278394, MEDIUM RED ENCHILADA SAUCE, UPC: 01121301717"
Food Group:  Branded Food Products Database
Common Name:

Nutrient,Unit,Data points,Std. Error,"0.25 cup = 60.0g",1Value per 100 g,
Proximates
"Energy",kcal,--,--,20,33
"Protein",g,--,--,0.00,0.00
"Total lipid (fat)",g,--,--,0.00,0.00
"Carbohydrate, by difference",g,--,--,4.00,6.67
"Fiber, total dietary",g,--,--,0.0,0.0
"Sugars, total",g,--,--,1.00,1.67
Minerals
"Calcium, Ca",mg,--,--,0,0
"Iron, Fe",mg,--,--,0.00,0.00
"Potassium, K",mg,--,--,35,58
"Sodium, Na",mg,--,--,280,467
Vitamins
"Vitamin C, total ascorbic acid",mg,--,--,0.0,0.0
"Vitamin A, IU",IU,--,--,203,338
Lipids
"Fatty acids, total saturated",g,--,--,0.000,0.000
"Fatty acids, total trans",g,--,--,0.000,0.000
"Cholesterol",mg,--,--,0,0
Amino Acids
Other
Ingredients
"WATER, TOMATO PUREE (WATER, TOMATO PASTE), MODIFIED FOOD STARCH, CONTAINS LESS THAN 2% OF: SALT, VINEGAR, SUGAR, CHILI PEPPER, SOYBEAN OIL, CITRIC ACID, ONION POWDER, RED PEPPER, NATURAL FLAVOR." Date available: 07/14/2017 Date last updated by company: 07/14/2017
