Source: USDA Branded Food Products Database Release December 2017 Software v.3.8.6.4 2017-10-02
Report Run at: December 17, 2017 17:42 EST
"Nutrient data for: 45188877, MEDITERRANEAN TRADITIONAL HUMMUS, TOMATOES, OLIVE & FETA MIX WITH WITH SLICED CUCUMBER, UPC: 5051379100704"
Food Group:  Branded Food Products Database
Common Name:

Nutrient,Unit,Data points,Std. Error,"1 CONTAINER = 255.0g",1Value per 100 g,
Proximates
"Energy",kcal,--,--,339,133
"Protein",g,--,--,9.00,3.53
"Total lipid (fat)",g,--,--,28.00,10.98
"Carbohydrate, by difference",g,--,--,17.01,6.67
"Fiber, total dietary",g,--,--,5.1,2.0
"Sugars, total",g,--,--,4.00,1.57
Minerals
"Calcium, Ca",mg,--,--,99,39
"Iron, Fe",mg,--,--,0.28,0.11
"Sodium, Na",mg,--,--,1061,416
Vitamins
"Vitamin C, total ascorbic acid",mg,--,--,3.1,1.2
"Vitamin A, IU",IU,--,--,196,77
Lipids
"Fatty acids, total saturated",g,--,--,1.989,0.780
"Fatty acids, total trans",g,--,--,0.000,0.000
"Cholesterol",mg,--,--,5,2
Amino Acids
Other
Ingredients
"HUMMUS (CHICKPEAS, CANOLA OIL, SESAME SEED PASTE, LEMON JUICE, GARLIC PUREE, SALT, CUMIN POWDER, CORN STARCH, CORIANDER POWDER), TOMATOES, CUCUMBER, OLIVE AND FETA MIX [KALAMATA STYLE OLIVES (OLIVES, WATER, SALT, VINEGAR, SPICES, OLIVE OIL), FETA CHEESE (PASTEURIZED MILK, SALT, CHEESE CULTURE, ENZYMES)]." Date available: 07/14/2017 Date last updated by company: 07/14/2017
