Source: USDA Branded Food Products Database Release December 2017 Software v.3.8.6.4 2017-10-02
Report Run at: December 17, 2017 17:37 EST
"Nutrient data for: 45201233, MEDITERRANEAN GRAIN SALAD CUP, UPC: 717887916019"
Food Group:  Branded Food Products Database
Common Name:

Nutrient,Unit,Data points,Std. Error,"1 CONTAINER = 163.0g",1Value per 100 g,
Proximates
"Energy",kcal,--,--,170,104
"Protein",g,--,--,6.99,4.29
"Total lipid (fat)",g,--,--,6.00,3.68
"Carbohydrate, by difference",g,--,--,26.00,15.95
"Fiber, total dietary",g,--,--,2.9,1.8
"Sugars, total",g,--,--,0.99,0.61
Minerals
"Calcium, Ca",mg,--,--,99,61
"Iron, Fe",mg,--,--,1.24,0.76
"Sodium, Na",mg,--,--,210,129
Vitamins
"Vitamin C, total ascorbic acid",mg,--,--,15.5,9.5
"Vitamin A, IU",IU,--,--,1718,1054
Lipids
"Fatty acids, total saturated",g,--,--,0.994,0.610
"Fatty acids, total trans",g,--,--,0.000,0.000
"Cholesterol",mg,--,--,5,3
Amino Acids
Other
Ingredients
"GRAIN MIX (WATER, BULGUR WHEAT, CRACKED WHEAT], FARRO, WHOLE QUINOA, KALE, PITTED KALAMATA OLIVES [OLIVES, WATER, SALT, VINEGAR, OLIVE OIL], LEMON JUICE, OLIVE OIL, PARSLEY, SPEARMINT, BLACK PEPPER), CUCUMBER, TOMATOES FETA CHEESE (PASTEURIZED MILK, SALT, CHEESE CULTURE, ENZYMES, POTATO STARCH [ADDED TO PREVENT CAKING])." Date available: 07/14/2017 Date last updated by company: 07/14/2017
