Source: USDA Branded Food Products Database Release December 2017 Software v.3.8.6.4 2017-10-02
Report Run at: December 17, 2017 17:36 EST
"Nutrient data for: 45260635, MEDITERRANEAN BRANZING SEA BASS FILLET, UPC: 8697425101669"
Food Group:  Branded Food Products Database
Common Name:

Nutrient,Unit,Data points,Std. Error,"4.0 ONZ = 113.0g",1Value per 100 g,
Proximates
"Energy",kcal,--,--,180,159
"Protein",g,--,--,17.00,15.04
"Total lipid (fat)",g,--,--,12.00,10.62
"Carbohydrate, by difference",g,--,--,0.00,0.00
Minerals
"Calcium, Ca",mg,--,--,99,88
"Iron, Fe",mg,--,--,1.36,1.20
"Sodium, Na",mg,--,--,60,53
Vitamins
Lipids
"Fatty acids, total saturated",g,--,--,2.000,1.770
"Cholesterol",mg,--,--,55,49
Amino Acids
Other
Ingredients
"SEA BASS FILLET (MEDITERRANEAN BRANZINO), WATER (FOR PROTECTIVE PURPOSES)." Date available: 10/19/2017 Date last updated by company: 10/19/2017
