Source: USDA Branded Food Products Database Release December 2017 Software v.3.8.6.4 2017-10-02
Report Run at: December 17, 2017 17:54 EST
"Nutrient data for: 45291811, MEDIUM WALNUT PIECES, UPC: 095248661519"
Food Group:  Branded Food Products Database
Common Name:

Nutrient,Unit,Data points,Std. Error,"0.25 cup = 32.0g",1Value per 100 g,
Proximates
"Energy",kcal,--,--,220,688
"Protein",g,--,--,5.00,15.62
"Total lipid (fat)",g,--,--,21.00,65.62
"Carbohydrate, by difference",g,--,--,3.00,9.38
"Fiber, total dietary",g,--,--,3.0,9.4
"Sugars, total",g,--,--,0.00,0.00
Minerals
"Calcium, Ca",mg,--,--,20,62
"Iron, Fe",mg,--,--,1.69,5.28
"Sodium, Na",mg,--,--,0,0
Vitamins
"Vitamin C, total ascorbic acid",mg,--,--,0.0,0.0
"Vitamin A, IU",IU,--,--,0,0
Lipids
"Fatty acids, total saturated",g,--,--,15.002,46.880
"Fatty acids, total trans",g,--,--,0.000,0.000
"Cholesterol",mg,--,--,0,0
Amino Acids
Other
Ingredients
"SHELLED WALNUTS." Date available: 07/14/2017 Date last updated by company: 07/14/2017
