Source: USDA Branded Food Products Database Release December 2017 Software v.3.8.6.4 2017-10-02
Report Run at: December 17, 2017 17:56 EST
"Nutrient data for: 45285758, MEGA S'MORES, UPC: 894224001901"
Food Group:  Branded Food Products Database
Common Name:

Nutrient,Unit,Data points,Std. Error,"102.0 GRM = 102.0g",1Value per 100 g,
Proximates
"Energy",kcal,--,--,420,412
"Protein",g,--,--,4.00,3.92
"Total lipid (fat)",g,--,--,21.00,20.59
"Carbohydrate, by difference",g,--,--,60.00,58.82
"Fiber, total dietary",g,--,--,2.0,2.0
"Sugars, total",g,--,--,32.00,31.37
Minerals
"Calcium, Ca",mg,--,--,20,20
"Iron, Fe",mg,--,--,1.46,1.43
"Sodium, Na",mg,--,--,260,255
Vitamins
"Vitamin C, total ascorbic acid",mg,--,--,0.0,0.0
"Vitamin A, IU",IU,--,--,0,0
Lipids
"Fatty acids, total saturated",g,--,--,7.997,7.840
"Fatty acids, total trans",g,--,--,1.000,0.980
"Cholesterol",mg,--,--,0,0
Amino Acids
Other
Ingredients
"ENRICHED FLOUR (WHEAT FLOUR, NIACIN, IRON, THIAMIN MONONITRATE, RIBOFLAVIN, FOLIC ACID), WATER, MILK CHOCOLATE (SUGAR, CHOCOLATE LIQUOR, COCOA BUTTER, WHOLE MILK, SOY LECITHIN, SALT, VANILLA), HIGH FRUCTOSE CORN SYRUP, SHORTENING (PALM OIL, SOYBEAN OIL AND CANOLA OIL (WITH TBHQ), WHOLE WHEAT FLOUR, CORN SYRUP, SUGAR, CHOCOLATE GRAHAM CRUNCH (SUGAR, YELLOW CORN FLOUR, CORN STARCH, COCOA, CANOLA OIL, DEXTROSE, NATURAL AND ARTIFICIAL FLAVORS, CARAMEL COLOR, SALT), FRUCTOSE, CONTAINS 2% OR LESS OF: BROWN SUGAR, COLOR (TITIANIUM DIOXIDE, CARAMEL, ANNATTO), DEXTROSE, DOUGH CONDITIONER (SODIUM METABISULFITE, CORN STARCH, CALCIUM PHOSPHATE, CALCIUM STEARATE, MONOGLYCERIDES, PROPIONIC AND/OR ACETIC AND/OR PHOSPHORIC ACID), GUAR GUM, HONEY, LEAVENING (SODIUM ALUMINUM PHOSPHATE, BAKING SODA), MODIFIED TAPIOCA AND CORN STARCH, NATURAL AND ARTIFICIAL FLAVORS, SHORTENING (PALM OIL, SOY LECITHIN, NATURAL AND ARTIFICIAL FLAVORS, BETA CAROTENE), SALT, SOYBEAN OIL, EGG WHITES." Date available: 08/10/2017 Date last updated by company: 08/10/2017
