Source: USDA Branded Food Products Database Release December 2017 Software v.3.8.6.4 2017-10-02
Report Run at: December 17, 2017 17:55 EST
"Nutrient data for: 45308530, MEGA GREEN JUICE BLEND FROM FIVE CONCENTRATES WITH OTHER INGREDIENTS, UPC: 074682107524"
Food Group:  Branded Food Products Database
Common Name:

Nutrient,Unit,Data points,Std. Error,"8.0 OZA = 240.0g",1Value per 100 g,
Proximates
"Energy",kcal,--,--,120,50
"Protein",g,--,--,1.01,0.42
"Total lipid (fat)",g,--,--,0.00,0.00
"Carbohydrate, by difference",g,--,--,28.99,12.08
"Sugars, total",g,--,--,25.01,10.42
Minerals
"Calcium, Ca",mg,--,--,19,8
"Iron, Fe",mg,--,--,1.80,0.75
"Potassium, K",mg,--,--,290,121
"Sodium, Na",mg,--,--,24,10
Vitamins
"Vitamin C, total ascorbic acid",mg,--,--,60.0,25.0
"Vitamin A, IU",IU,--,--,1999,833
Lipids
Amino Acids
Other
Ingredients
"FILTERED WATER (SUFFICIENT TO RECONSTITUTE), APPLE JUICE CONCENTRATE, BANANA PUREE, PINEAPPLE JUICE CONCENTRATE, PEACH AND MANGO PUREES, SPIRULINA, CHLORELLA, BROCCOLI AND SPINACH POWDERS, ASCORBIC ACID (VITAMIN C), GELLAN GUM, NATURAL FLAVOR, PEACH JUICE CONCENTRATE." Date available: 07/14/2017 Date last updated by company: 07/14/2017
