Source: USDA Branded Food Products Database Release December 2017 Software v.3.8.6.4 2017-10-02
Report Run at: December 17, 2017 18:13 EST
"Nutrient data for: 45145217, MEIJER, DIET ROOT BEER, UPC: 708820970731"
Food Group:  Branded Food Products Database
Common Name:

Nutrient,Unit,Data points,Std. Error,"12.0 OZA = 355.0g",1Value per 100 g,
Proximates
"Energy",kcal,--,--,0,0
"Protein",g,--,--,0.00,0.00
"Total lipid (fat)",g,--,--,0.00,0.00
"Carbohydrate, by difference",g,--,--,0.99,0.28
"Sugars, total",g,--,--,0.99,0.28
Minerals
"Sodium, Na",mg,--,--,36,10
Vitamins
Lipids
Amino Acids
Other
Ingredients
"CARBONATED WATER, CARAMEL COLOR, POTASSIUM BENZOATE (PRESERVATIVE), NATURAL AND ARTIFICIAL FLAVOR, ASPARTAME, MALIC ACID, ACESULFAME POTASSIUM." Date available: 07/14/2017 Date last updated by company: 07/14/2017
