Source: USDA Branded Food Products Database Release December 2017 Software v.3.8.6.4 2017-10-02
Report Run at: December 17, 2017 19:00 EST
"Nutrient data for: 45139348, MEIJER, TRUE GOODNESS, ORGANIC STRING MOZZARELLA CHEESE STICKS, UPC: 719283196736"
Food Group:  Branded Food Products Database
Common Name:

Nutrient,Unit,Data points,Std. Error,"1 STICK = 28.0g",1Value per 100 g,
Proximates
"Energy",kcal,--,--,80,286
"Protein",g,--,--,7.00,25.00
"Total lipid (fat)",g,--,--,6.00,21.43
"Carbohydrate, by difference",g,--,--,1.00,3.57
"Fiber, total dietary",g,--,--,0.0,0.0
"Sugars, total",g,--,--,0.00,0.00
Minerals
"Calcium, Ca",mg,--,--,187,668
"Iron, Fe",mg,--,--,0.03,0.11
"Potassium, K",mg,--,--,25,89
"Sodium, Na",mg,--,--,200,714
Vitamins
"Vitamin A, IU",IU,--,--,237,846
Lipids
"Fatty acids, total saturated",g,--,--,3.500,12.500
"Fatty acids, total trans",g,--,--,0.000,0.000
"Cholesterol",mg,--,--,20,71
Amino Acids
Other
Ingredients
"ORGANIC CULTURED PASTEURIZED PART-SKIM MILK, SALT, MICROBIAL ENZYMES." Date available: 10/05/2017 Date last updated by company: 10/05/2017
