Source: USDA Branded Food Products Database Release December 2017 Software v.3.8.6.4 2017-10-02
Report Run at: December 17, 2017 19:02 EST
"Nutrient data for: 45234543, MEIJER, VITAMIN D MILK, UPC: 041250102007"
Food Group:  Branded Food Products Database
Common Name:

Nutrient,Unit,Data points,Std. Error,"1 cup = 240.0g",1Value per 100 g,
Proximates
"Energy",kcal,--,--,149,62
"Protein",g,--,--,7.99,3.33
"Total lipid (fat)",g,--,--,7.99,3.33
"Carbohydrate, by difference",g,--,--,12.00,5.00
"Fiber, total dietary",g,--,--,0.0,0.0
"Sugars, total",g,--,--,12.00,5.00
Minerals
"Calcium, Ca",mg,--,--,300,125
"Iron, Fe",mg,--,--,0.00,0.00
"Sodium, Na",mg,--,--,106,44
Vitamins
"Vitamin C, total ascorbic acid",mg,--,--,0.0,0.0
"Vitamin A, IU",IU,--,--,401,167
"Vitamin D",IU,--,--,120,50
Lipids
"Fatty acids, total saturated",g,--,--,4.992,2.080
"Fatty acids, total trans",g,--,--,0.000,0.000
"Cholesterol",mg,--,--,24,10
Amino Acids
Other
Ingredients
"MILK, VITAMIN D3." Date available: 06/24/2017 Date last updated by company: 06/24/2017
