Source: USDA Branded Food Products Database Release December 2017 Software v.3.8.6.4 2017-10-02
Report Run at: December 17, 2017 18:04 EST
"Nutrient data for: 45038691, MEIJER, CHICKEN SAUSAGE, ROASTED GARLIC AND ASIAGO, UPC: 713733886758"
Food Group:  Branded Food Products Database
Common Name:

Nutrient,Unit,Data points,Std. Error,"1 LNIK = 85.0g",1Value per 100 g,
Proximates
"Energy",kcal,--,--,140,165
"Protein",g,--,--,16.00,18.82
"Total lipid (fat)",g,--,--,8.00,9.41
"Carbohydrate, by difference",g,--,--,1.00,1.18
"Fiber, total dietary",g,--,--,0.0,0.0
"Sugars, total",g,--,--,0.00,0.00
Minerals
"Calcium, Ca",mg,--,--,40,47
"Iron, Fe",mg,--,--,0.47,0.55
"Sodium, Na",mg,--,--,640,753
Vitamins
"Vitamin C, total ascorbic acid",mg,--,--,7.0,8.2
"Vitamin A, IU",IU,--,--,65,76
Lipids
"Fatty acids, total saturated",g,--,--,3.502,4.120
"Fatty acids, total trans",g,--,--,0.000,0.000
"Cholesterol",mg,--,--,80,94
Amino Acids
Other
Ingredients
"CHICKEN, ASIAGO CHEESE (PASTEURIZED MILK, CHEESE CULTURES, SALT, ENZYMES) AND 2% OR LESS OF THE FOLLOWING: SALT, VINEGAR, ROASTED GARLIC, CULTURED CELERY JUICE POWDER, NATURAL SPICES, SUGAR, NATURAL FLAVOR, CHERRY POWDER AND CANE SUGAR, BEEF COLLAGEN CASING." Date available: 07/14/2017 Date last updated by company: 07/14/2017
