Source: USDA Branded Food Products Database Release December 2017 Software v.3.8.6.4 2017-10-02
Report Run at: December 17, 2017 18:03 EST
"Nutrient data for: 45118982, MEIJER, CEREAL BARS, APPLE CINNAMON, UPC: 886926045857"
Food Group:  Branded Food Products Database
Common Name:

Nutrient,Unit,Data points,Std. Error,"1 ONZ = 28.0g",1Value per 100 g,
Proximates
"Energy",kcal,--,--,120,429
"Protein",g,--,--,1.00,3.57
"Total lipid (fat)",g,--,--,4.00,14.29
"Carbohydrate, by difference",g,--,--,20.00,71.43
"Fiber, total dietary",g,--,--,1.0,3.6
"Sugars, total",g,--,--,11.00,39.29
Minerals
"Calcium, Ca",mg,--,--,80,286
"Iron, Fe",mg,--,--,1.54,5.51
"Sodium, Na",mg,--,--,65,232
Vitamins
"Vitamin C, total ascorbic acid",mg,--,--,5.2,18.4
"Thiamin",mg,--,--,0.280,1.000
"Riboflavin",mg,--,--,0.136,0.486
"Niacin",mg,--,--,2.286,8.164
"Vitamin A, IU",IU,--,--,143,511
Lipids
"Fatty acids, total saturated",g,--,--,1.999,7.140
"Fatty acids, total trans",g,--,--,0.000,0.000
"Cholesterol",mg,--,--,0,0
Amino Acids
Other
Ingredients
"APPLE CINNAMON FILLING [SUGAR, FRUCTOSE, PINEAPPLE PUREE, GLUCOSE, MODIFIED TAPIOCA STARCH, GLYCERINE, APPLE POWDER, PECTIN, HYDROGENATED VEGETABLE SHORTENING (SOYBEAN OIL), CELLULOSE, MALIC ACID, SALT, CARAMEL COLOR, SODIUM CITRATE, CALCIUM CITRATE, ARTIFICIAL FLAVORS, CINNAMON, SODIUM BENZOATE (PRESERVATIVE), SUCRALOSE], OATS, WHOLE WHEAT FLOUR, VEGETABLE SHORTENING (PALM OIL), HIGH FRUCTOSE CORN SYRUP, SUGAR, WATER, SOYBEAN OIL, GLYCERINE, MILK, WHEAT BRAN, CALCIUM CARBONATE, IODIZED SALT, SOY LECITHIN, BAKING SODA, XANTHAN GUM, ASCORBIC ACID (VITAMIN C), VITAMIN E, FERROUS FUMARATE (IRON), VITAMIN A, NIACINAMIDE (NIACIN), ZINC OXIDE, POTASSIUM IODIDE, PYRIDOXINE HCL (VITAMIN B6), RIBOFLAVIN (VITAMIN B2), THIAMIN MONONITRATE (VITAMIN B1), CYANOCOBALAMIN (VITAMIN B12), FOLIC ACID, ARTIFICIAL FLAVOR, AMMONIUM BICARBONATE, MONOCALCIUM PHOSPHATE." Date available: 06/25/2017 Date last updated by company: 06/25/2017
