Source: USDA Branded Food Products Database Release December 2017 Software v.3.8.6.4 2017-10-02
Report Run at: December 17, 2017 18:53 EST
"Nutrient data for: 45042932, MEIJER, SOUTHWEST SALSA, UPC: 713733629287"
Food Group:  Branded Food Products Database
Common Name:

Nutrient,Unit,Data points,Std. Error,"2.0 Tbsp = 30.0g",1Value per 100 g,
Proximates
"Energy",kcal,--,--,20,67
"Protein",g,--,--,1.00,3.33
"Total lipid (fat)",g,--,--,0.50,1.67
"Carbohydrate, by difference",g,--,--,4.00,13.33
"Fiber, total dietary",g,--,--,1.0,3.3
"Sugars, total",g,--,--,1.00,3.33
Minerals
"Calcium, Ca",mg,--,--,0,0
"Iron, Fe",mg,--,--,0.61,2.03
"Sodium, Na",mg,--,--,65,217
Vitamins
"Vitamin C, total ascorbic acid",mg,--,--,6.1,20.3
"Vitamin A, IU",IU,--,--,169,563
Lipids
"Fatty acids, total saturated",g,--,--,0.000,0.000
"Fatty acids, total trans",g,--,--,0.000,0.000
"Cholesterol",mg,--,--,0,0
Amino Acids
Other
Ingredients
"DICED TOMATOES IN JUICE (TOMATOES, TOMATO JUICE, SALT, CITRIC ACID, CALCIUM CHLORIDE [FIRMING AGENT]), CORN, CITRUS CUMIN VINAIGRETTE (WATER, SUGAR, CANOLA OIL, LIME JUICE CONCENTRATE, SALT, DISTILLED VINEGAR, CUMIN, DRIED GARLIC, DRIED ONION, SPICE, XANTHAN GUM), BLACK-EYED PEAS (BLACK-EYED PEAS, WATER, SALT, CALCIUM CHLORIDE [FIRMING AGENT], AND CALCIUM DISODIUM EDTA [PROMOTE COLOR RETENTION]), GREEN BELL PEPPERS, RED ONION, CILANTRO, BLACK BEANS (WATER, BLACK BEANS, SALT, CALCIUM CHLORIDE [FIRMING AGENT]), POTASSIUM SORBATE (TO PRESERVE FRESHNESS)." Date available: 09/20/2017 Date last updated by company: 09/20/2017
