Source: USDA Branded Food Products Database Release December 2017 Software v.3.8.6.4 2017-10-02
Report Run at: December 17, 2017 18:40 EST
"Nutrient data for: 45141019, MEIJER, PASTA SAUCE, TOMATO & BASIL, UPC: 719283263032"
Food Group:  Branded Food Products Database
Common Name:

Nutrient,Unit,Data points,Std. Error,"0.5 cup = 124.0g",1Value per 100 g,
Proximates
"Energy",kcal,--,--,81,65
"Protein",g,--,--,2.00,1.61
"Total lipid (fat)",g,--,--,2.50,2.02
"Carbohydrate, by difference",g,--,--,13.00,10.48
"Fiber, total dietary",g,--,--,4.0,3.2
"Sugars, total",g,--,--,9.00,7.26
Minerals
"Calcium, Ca",mg,--,--,40,32
"Iron, Fe",mg,--,--,0.76,0.61
"Sodium, Na",mg,--,--,410,331
Vitamins
"Vitamin C, total ascorbic acid",mg,--,--,1.2,1.0
"Vitamin A, IU",IU,--,--,1056,852
Lipids
"Fatty acids, total saturated",g,--,--,0.000,0.000
"Fatty acids, total trans",g,--,--,0.000,0.000
"Cholesterol",mg,--,--,0,0
Amino Acids
Other
Ingredients
"TOMATO PUREE (WATER, TOMATO PASTE), DICED TOMATOES IN TOMATO JUICE, SUGAR, SOYBEAN OIL, SALT, BASIL, DEHYDRATED ONIONS, GARLIC, SPICES, LEMON JUICE." Date available: 07/14/2017 Date last updated by company: 07/14/2017
