Source: USDA Branded Food Products Database Release December 2017 Software v.3.8.6.4 2017-10-02
Report Run at: December 17, 2017 18:56 EST
"Nutrient data for: 45040632, MEIJER, TACO SHELL, NACHO CHEESE, UPC: 713733083379"
Food Group:  Branded Food Products Database
Common Name:

Nutrient,Unit,Data points,Std. Error,"2.0 SHELLS = 22.0g",1Value per 100 g,
Proximates
"Energy",kcal,--,--,100,455
"Protein",g,--,--,1.00,4.55
"Total lipid (fat)",g,--,--,5.00,22.73
"Carbohydrate, by difference",g,--,--,12.00,54.55
"Fiber, total dietary",g,--,--,2.0,9.1
"Sugars, total",g,--,--,1.00,4.55
Minerals
"Calcium, Ca",mg,--,--,20,91
"Iron, Fe",mg,--,--,0.82,3.72
"Sodium, Na",mg,--,--,410,1864
Vitamins
"Vitamin C, total ascorbic acid",mg,--,--,0.0,0.0
"Vitamin A, IU",IU,--,--,227,1034
Lipids
"Fatty acids, total saturated",g,--,--,0.499,2.270
"Fatty acids, total trans",g,--,--,0.000,0.000
"Cholesterol",mg,--,--,0,0
Amino Acids
Other
Ingredients
"CORN MASA FLOUR, VEGETABLE OIL (CANOLA OIL AND/OR PALM OIL), SPICE BLEND (MALTODEXTRIN, SALT, MONOSODIUM GLUTAMATE, WHEY, DEHYDRATED VEGETABLES (TOMATO, ONION, GARLIC), NATURAL AND ARTIFICIAL FLAVORS, SPICES, DEXTROSE, CHEDDAR CHEESE (CULTURED MILK, SALT, ENZYMES), LACTIC ACID, ARTIFICIAL COLORS (YELLOW 6 LAKE, YELLOW 5 LAKE, YELLOW 5, YELLOW 6), BUTTERMILK, YEAST EXTRACT, CITRIC ACID, DISODIUM INOSINATE, DISODIUM GUANYLATE, SILICON DIOXIDE), POWDERED CELLULOSE, TRACE OF LIME." Date available: 06/24/2017 Date last updated by company: 06/24/2017
