Source: USDA Branded Food Products Database Release December 2017 Software v.3.8.6.4 2017-10-02
Report Run at: December 17, 2017 18:09 EST
"Nutrient data for: 45036249, MEIJER, CRACKER CRISPS, ROSEMARY DATE, UPC: 708820049420"
Food Group:  Branded Food Products Database
Common Name:

Nutrient,Unit,Data points,Std. Error,"8.0 -10 CRACKERS = 28.0g",1Value per 100 g,
Proximates
"Energy",kcal,--,--,80,286
"Protein",g,--,--,2.00,7.14
"Total lipid (fat)",g,--,--,1.50,5.36
"Carbohydrate, by difference",g,--,--,16.00,57.14
"Fiber, total dietary",g,--,--,1.0,3.6
"Sugars, total",g,--,--,6.00,21.43
Minerals
"Calcium, Ca",mg,--,--,20,71
"Iron, Fe",mg,--,--,1.29,4.59
"Sodium, Na",mg,--,--,115,411
Vitamins
"Vitamin C, total ascorbic acid",mg,--,--,0.0,0.0
"Vitamin A, IU",IU,--,--,0,0
Lipids
"Fatty acids, total saturated",g,--,--,0.000,0.000
"Fatty acids, total trans",g,--,--,0.000,0.000
"Cholesterol",mg,--,--,0,0
Amino Acids
Other
Ingredients
"BUTTERMILK (LOW FAT MILK, SALT, BACTERIAL CULTURE), UNBLEACHED WHEAT FLOUR, SUGAR, DATES (PITTED), BROWN FLAX SEEDS, SUNFLOWER SEEDS, ROLLED OATS, MILLET, BAKING SODA, DRIED ROSEMARY, SEA SALT, BLACK PEPPER." Date available: 06/24/2017 Date last updated by company: 06/24/2017
