Source: USDA Branded Food Products Database Release December 2017 Software v.3.8.6.4 2017-10-02
Report Run at: December 17, 2017 18:33 EST
"Nutrient data for: 45040864, MEIJER, MILD CHEDDAR CHEESE, UPC: 041250950561"
Food Group:  Branded Food Products Database
Common Name:

Nutrient,Unit,Data points,Std. Error,"1 """" CUBE = 28.0g",1Value per 100 g,
Proximates
"Energy",kcal,--,--,110,393
"Protein",g,--,--,6.00,21.43
"Total lipid (fat)",g,--,--,9.00,32.14
"Carbohydrate, by difference",g,--,--,1.00,3.57
"Fiber, total dietary",g,--,--,0.0,0.0
"Sugars, total",g,--,--,0.00,0.00
Minerals
"Calcium, Ca",mg,--,--,201,718
"Iron, Fe",mg,--,--,0.04,0.14
"Potassium, K",mg,--,--,20,71
"Sodium, Na",mg,--,--,190,679
Vitamins
"Vitamin A, IU",IU,--,--,352,1257
Lipids
"Fatty acids, total saturated",g,--,--,5.001,17.860
"Fatty acids, total trans",g,--,--,0.000,0.000
"Cholesterol",mg,--,--,30,107
Amino Acids
Other
Ingredients
"CULTURED PASTEURIZED MILK, SALT, ENZYMES, COLOR ADDED." Date available: 10/06/2017 Date last updated by company: 10/06/2017
