Source: USDA Branded Food Products Database Release December 2017 Software v.3.8.6.4 2017-10-02
Report Run at: December 17, 2017 18:34 EST
"Nutrient data for: 45077000, MEIJER, MINI MARSHMALLOWS, UPC: 041250939658"
Food Group:  Branded Food Products Database
Common Name:

Nutrient,Unit,Data points,Std. Error,"0.5 cup = 25.0g",1Value per 100 g,
Proximates
"Energy",kcal,--,--,80,320
"Protein",g,--,--,1.00,4.00
"Total lipid (fat)",g,--,--,0.00,0.00
"Carbohydrate, by difference",g,--,--,20.00,80.00
"Sugars, total",g,--,--,13.00,52.00
Minerals
"Sodium, Na",mg,--,--,20,80
Vitamins
Lipids
Amino Acids
Other
Ingredients
"CORN SYRUP, SUGAR, MODIFIED FOOD STARCH (CORN), DEXTROSE, WATER, GELATIN, NATURAL AND ARTIFICIAL FLAVOR, TETRASODIUM PYROPHOSPHATE, BLUE 1." Date available: 03/22/2017 Date last updated by company: 03/22/2017
