Source: USDA Branded Food Products Database Release December 2017 Software v.3.8.6.4 2017-10-02
Report Run at: December 17, 2017 18:27 EST
"Nutrient data for: 45039721, MEIJER, INSTANT PUDDING & PIE FILLING, CHOCOLATE, UPC: 041250088912"
Food Group:  Branded Food Products Database
Common Name:

Nutrient,Unit,Data points,Std. Error,"0.167 PACKAGE (MAKES 1/2 CUP) = 28.0g",1Value per 100 g,
Proximates
"Energy",kcal,--,--,100,357
"Protein",g,--,--,0.00,0.00
"Total lipid (fat)",g,--,--,0.00,0.00
"Carbohydrate, by difference",g,--,--,26.00,92.86
"Fiber, total dietary",g,--,--,0.0,0.0
"Sugars, total",g,--,--,20.00,71.43
Minerals
"Calcium, Ca",mg,--,--,0,0
"Iron, Fe",mg,--,--,2.57,9.19
"Sodium, Na",mg,--,--,440,1571
Vitamins
"Vitamin C, total ascorbic acid",mg,--,--,0.0,0.0
"Vitamin A, IU",IU,--,--,0,0
Lipids
"Fatty acids, total saturated",g,--,--,0.000,0.000
"Fatty acids, total trans",g,--,--,0.000,0.000
"Cholesterol",mg,--,--,0,0
Amino Acids
Other
Ingredients
"SUGAR, MODIFIED FOOD STARCH, COCOA POWDER PROCESSED WITH ALKALI, DEXTROSE, DISODIUM PHOSPHATE, CONTAINS 2% OR LESS OF TETRASODIUM PYROPHOSPHATE, NONFAT DRY MILK, SALT, MONO-AND DIGLYCERIDES (PREVENT FOAMING), PARTIALLY HYDROGENATED SOYBEAN OIL WITH BHA (PRESERVATIVE), TITANIUM DIOXIDE (FOR COLOR), RED 40, YELLOW 5, BLUE 1, NATURAL AND ARTIFICIAL FLAVOR." Date available: 08/12/2017 Date last updated by company: 08/12/2017
