Source: USDA Branded Food Products Database Release December 2017 Software v.3.8.6.4 2017-10-02
Report Run at: December 17, 2017 18:50 EST
"Nutrient data for: 45037204, MEIJER, SHARP CHEDDAR SINGLES, UPC: 041250051350"
Food Group:  Branded Food Products Database
Common Name:

Nutrient,Unit,Data points,Std. Error,"1 SLICE = 21.0g",1Value per 100 g,
Proximates
"Energy",kcal,--,--,50,238
"Protein",g,--,--,4.00,19.05
"Total lipid (fat)",g,--,--,3.00,14.29
"Carbohydrate, by difference",g,--,--,2.00,9.52
"Fiber, total dietary",g,--,--,0.0,0.0
"Sugars, total",g,--,--,1.00,4.76
Minerals
"Calcium, Ca",mg,--,--,300,1429
"Iron, Fe",mg,--,--,0.00,0.00
"Sodium, Na",mg,--,--,320,1524
Vitamins
"Vitamin C, total ascorbic acid",mg,--,--,0.0,0.0
"Vitamin A, IU",IU,--,--,476,2267
Lipids
"Fatty acids, total saturated",g,--,--,1.999,9.520
"Fatty acids, total trans",g,--,--,0.000,0.000
"Cholesterol",mg,--,--,10,48
Amino Acids
Other
Ingredients
"MILK, SKIM MILK, WHEY, MILK PROTEIN CONCENTRATE, BUTTERMILK, SODIUM CITRATE, CALCIUM PHOSPHATE, CONTAINS 2% OR LESS OF SALT, MALTODEXTRIN SODIUM PHOSPHATE, LACTIC ACID, SORBIC ACID (PRESERVATIVE), XANTHAN GUM, LOCUST BEAN GUM, GUAR GUM, NATURAL FLAVOR, COLOR ADDED, CHEESE CULTURES, ENZYMES, VITMAIN A PALMITATE." Date available: 06/24/2017 Date last updated by company: 06/24/2017
