Source: USDA Branded Food Products Database Release December 2017 Software v.3.8.6.4 2017-10-02
Report Run at: December 17, 2017 18:38 EST
"Nutrient data for: 45038972, MEIJER, NO SALT ADDED TOMATO SAUCE, UPC: 708820779679"
Food Group:  Branded Food Products Database
Common Name:

Nutrient,Unit,Data points,Std. Error,"0.25 cup = 61.0g",1Value per 100 g,
Proximates
"Energy",kcal,--,--,20,33
"Protein",g,--,--,1.00,1.64
"Total lipid (fat)",g,--,--,0.00,0.00
"Carbohydrate, by difference",g,--,--,4.00,6.56
"Fiber, total dietary",g,--,--,1.0,1.6
"Sugars, total",g,--,--,2.00,3.28
Minerals
"Calcium, Ca",mg,--,--,0,0
"Iron, Fe",mg,--,--,0.73,1.20
"Potassium, K",mg,--,--,140,230
"Sodium, Na",mg,--,--,15,25
Vitamins
"Vitamin C, total ascorbic acid",mg,--,--,2.4,4.0
"Vitamin A, IU",IU,--,--,203,333
Lipids
"Fatty acids, total saturated",g,--,--,0.000,0.000
"Fatty acids, total trans",g,--,--,0.000,0.000
"Cholesterol",mg,--,--,0,0
Amino Acids
Other
Ingredients
"TOMATO PUREE (WATER,TOMATO PASTE), WATER, LESS THAN 2% OF: ONION POWDER, GARLIC POWDER, CITRIC ACID, NATURAL FLAVORS, DEHYDRATED BELL PEPPER." Date available: 07/14/2017 Date last updated by company: 07/14/2017
