Source: USDA Branded Food Products Database Release December 2017 Software v.3.8.6.4 2017-10-02
Report Run at: December 17, 2017 19:02 EST
"Nutrient data for: 45040166, MEIJER, UNSWEETENED TART CHERRIES, UPC: 041250207566"
Food Group:  Branded Food Products Database
Common Name:

Nutrient,Unit,Data points,Std. Error,"0.66 cup = 100.0g",1Value per 100 g,
Proximates
"Energy",kcal,--,--,45,45
"Protein",g,--,--,1.00,1.00
"Total lipid (fat)",g,--,--,0.00,0.00
"Carbohydrate, by difference",g,--,--,11.00,11.00
"Fiber, total dietary",g,--,--,2.0,2.0
"Sugars, total",g,--,--,9.00,9.00
Minerals
"Calcium, Ca",mg,--,--,0,0
"Iron, Fe",mg,--,--,0.50,0.50
"Sodium, Na",mg,--,--,0,0
Vitamins
"Vitamin C, total ascorbic acid",mg,--,--,1.7,1.7
"Vitamin A, IU",IU,--,--,1050,1050
Lipids
"Fatty acids, total saturated",g,--,--,0.000,0.000
"Fatty acids, total trans",g,--,--,0.000,0.000
"Cholesterol",mg,--,--,0,0
Amino Acids
Other
Ingredients
"RED TART CHERRIES." Date available: 06/24/2017 Date last updated by company: 06/24/2017
