Source: USDA Branded Food Products Database Release December 2017 Software v.3.8.6.4 2017-10-02
Report Run at: December 17, 2017 18:04 EST
"Nutrient data for: 45038590, MEIJER, CHICKEN BREAST FILLETS WITH RIB MEAT, UPC: 708820001671"
Food Group:  Branded Food Products Database
Common Name:

Nutrient,Unit,Data points,Std. Error,"4.0 ONZ = 112.0g",1Value per 100 g,
Proximates
"Energy",kcal,--,--,120,107
"Protein",g,--,--,21.00,18.75
"Total lipid (fat)",g,--,--,4.00,3.57
"Carbohydrate, by difference",g,--,--,0.00,0.00
"Fiber, total dietary",g,--,--,0.0,0.0
"Sugars, total",g,--,--,0.00,0.00
Minerals
"Calcium, Ca",mg,--,--,0,0
"Iron, Fe",mg,--,--,0.55,0.49
"Sodium, Na",mg,--,--,200,179
Vitamins
"Vitamin C, total ascorbic acid",mg,--,--,0.0,0.0
"Vitamin A, IU",IU,--,--,0,0
Lipids
"Fatty acids, total saturated",g,--,--,0.997,0.890
"Fatty acids, total monounsaturated",g,--,--,2.005,1.790
"Fatty acids, total polyunsaturated",g,--,--,0.504,0.450
"Fatty acids, total trans",g,--,--,0.000,0.000
"Cholesterol",mg,--,--,55,49
Amino Acids
Other
Ingredients
"CHICKEN BROTH INGREDIENTS: CHICKEN BROTH, SALT, FLAVORING." Date available: 06/24/2017 Date last updated by company: 06/24/2017
