Source: USDA Branded Food Products Database Release December 2017 Software v.3.8.6.4 2017-10-02
Report Run at: December 17, 2017 18:43 EST
"Nutrient data for: 45038314, MEIJER, PREMIUM QUALITY ALMONDS NUTS, UPC: 719283148995"
Food Group:  Branded Food Products Database
Common Name:

Nutrient,Unit,Data points,Std. Error,"0.25 cup = 34.0g",1Value per 100 g,
Proximates
"Energy",kcal,--,--,200,588
"Protein",g,--,--,7.00,20.59
"Total lipid (fat)",g,--,--,17.00,50.00
"Carbohydrate, by difference",g,--,--,7.00,20.59
"Fiber, total dietary",g,--,--,4.0,11.8
"Sugars, total",g,--,--,1.00,2.94
Minerals
"Calcium, Ca",mg,--,--,80,235
"Iron, Fe",mg,--,--,2.12,6.23
"Sodium, Na",mg,--,--,0,0
Vitamins
"Vitamin C, total ascorbic acid",mg,--,--,0.0,0.0
"Vitamin A, IU",IU,--,--,0,0
Lipids
"Fatty acids, total saturated",g,--,--,1.499,4.410
"Fatty acids, total trans",g,--,--,0.000,0.000
"Cholesterol",mg,--,--,0,0
Amino Acids
Other
Ingredients
"ALMONDS." Date available: 07/14/2017 Date last updated by company: 07/14/2017
