Source: USDA Branded Food Products Database Release December 2017 Software v.3.8.6.4 2017-10-02
Report Run at: December 17, 2017 18:36 EST
"Nutrient data for: 45041082, MEIJER NATURALS, APPLESAUCE, UPC: 886926203271"
Food Group:  Branded Food Products Database
Common Name:

Nutrient,Unit,Data points,Std. Error,"1 JAR = 71.0g",1Value per 100 g,
Proximates
"Energy",kcal,--,--,40,56
"Protein",g,--,--,0.00,0.00
"Total lipid (fat)",g,--,--,0.00,0.00
"Carbohydrate, by difference",g,--,--,9.00,12.68
"Fiber, total dietary",g,--,--,1.0,1.4
"Sugars, total",g,--,--,8.00,11.27
Minerals
"Calcium, Ca",mg,--,--,0,0
"Iron, Fe",mg,--,--,0.00,0.00
"Sodium, Na",mg,--,--,0,0
Vitamins
"Vitamin C, total ascorbic acid",mg,--,--,2.3,3.3
"Vitamin A, IU",IU,--,--,0,0
Lipids
"Fatty acids, total trans",g,--,--,0.000,0.000
Amino Acids
Other
Ingredients
"FRESH APPLES, WATER, LEMON JUICE CONCENTRATE." Date available: 07/14/2017 Date last updated by company: 07/14/2017
