Source: USDA Branded Food Products Database Release December 2017 Software v.3.8.6.4 2017-10-02
Report Run at: December 17, 2017 18:56 EST
"Nutrient data for: 45141313, MEIJER, THIN SLICED COLBY JACK CHEESE, UPC: 708820729711"
Food Group:  Branded Food Products Database
Common Name:

Nutrient,Unit,Data points,Std. Error,"3.0 SLICES = 32.0g",1Value per 100 g,
Proximates
"Energy",kcal,--,--,120,375
"Protein",g,--,--,7.00,21.88
"Total lipid (fat)",g,--,--,10.00,31.25
"Carbohydrate, by difference",g,--,--,1.00,3.12
"Fiber, total dietary",g,--,--,0.0,0.0
"Sugars, total",g,--,--,0.00,0.00
Minerals
"Calcium, Ca",mg,--,--,219,684
"Iron, Fe",mg,--,--,0.24,0.75
"Potassium, K",mg,--,--,35,109
"Sodium, Na",mg,--,--,210,656
Vitamins
"Vitamin A, IU",IU,--,--,318,994
Lipids
"Fatty acids, total saturated",g,--,--,7.002,21.880
"Fatty acids, total trans",g,--,--,0.000,0.000
"Cholesterol",mg,--,--,30,94
Amino Acids
Other
Ingredients
"COLBY CHEESE (CULTURED PASTEURIZED MILK, SALT, ENZYMES, COLOR ADDED), MONTEREY JACK CHEESE (CULTURED PASTEURIZED MILK, SALT, ENZYMES)." Date available: 10/06/2017 Date last updated by company: 10/06/2017
