Source: USDA Branded Food Products Database Release December 2017 Software v.3.8.6.4 2017-10-02
Report Run at: December 17, 2017 18:22 EST
"Nutrient data for: 45042070, MEIJER, GOLD, THREE BEAN SALSA WITH ROASTED CORN, MILD, UPC: 708820425859"
Food Group:  Branded Food Products Database
Common Name:

Nutrient,Unit,Data points,Std. Error,"2.0 Tbsp = 28.0g",1Value per 100 g,
Proximates
"Energy",kcal,--,--,15,54
"Protein",g,--,--,1.00,3.57
"Total lipid (fat)",g,--,--,0.00,0.00
"Carbohydrate, by difference",g,--,--,2.00,7.14
"Fiber, total dietary",g,--,--,1.0,3.6
"Sugars, total",g,--,--,1.00,3.57
Minerals
"Calcium, Ca",mg,--,--,0,0
"Iron, Fe",mg,--,--,1.61,5.74
"Sodium, Na",mg,--,--,140,500
Vitamins
"Vitamin C, total ascorbic acid",mg,--,--,16.1,57.4
"Vitamin A, IU",IU,--,--,982,3507
Lipids
"Fatty acids, total saturated",g,--,--,0.000,0.000
"Fatty acids, total trans",g,--,--,0.000,0.000
"Cholesterol",mg,--,--,0,0
Amino Acids
Other
Ingredients
"TOMATOES, FILTERED WATER, CORN, KIDNEY BEANS, PINTO BEANS, TOMATO PASTE, ASSORTED PEPPERS, BLACK BEANS, ONIONS, APPLE CIDER VINEGAR, EVAPORATED CANE JUICE, CILANTRO, SALT, BASIL, GARLIC, SPICES, AND XANTHAN GUM." Date available: 07/14/2017 Date last updated by company: 07/14/2017
