Source: USDA Branded Food Products Database Release December 2017 Software v.3.8.6.4 2017-10-02
Report Run at: December 17, 2017 18:40 EST
"Nutrient data for: 45040500, MEIJER, PARMESAN PASTA & SAUCE, UPC: 708820263277"
Food Group:  Branded Food Products Database
Common Name:

Nutrient,Unit,Data points,Std. Error,"0.5 PACKAGE = 60.0g",1Value per 100 g,
Proximates
"Energy",kcal,--,--,230,383
"Protein",g,--,--,9.00,15.00
"Total lipid (fat)",g,--,--,3.00,5.00
"Carbohydrate, by difference",g,--,--,40.00,66.67
"Fiber, total dietary",g,--,--,2.0,3.3
"Sugars, total",g,--,--,4.00,6.67
Minerals
"Calcium, Ca",mg,--,--,100,167
"Iron, Fe",mg,--,--,7.50,12.50
"Sodium, Na",mg,--,--,690,1150
Vitamins
"Vitamin C, total ascorbic acid",mg,--,--,5.0,8.3
"Thiamin",mg,--,--,0.600,1.000
"Riboflavin",mg,--,--,0.255,0.425
"Niacin",mg,--,--,4.666,7.777
"Vitamin A, IU",IU,--,--,833,1389
Lipids
"Fatty acids, total saturated",g,--,--,1.500,2.500
"Fatty acids, total trans",g,--,--,0.000,0.000
"Cholesterol",mg,--,--,5,8
Amino Acids
Other
Ingredients
"ENRICHED PASTA (WHEAT FLOUR, NIACIN, FERROUS SULFATE, THIAMIN MONONITRATE, RIBOFLAVIN, FOLID ACID), ENRICHED SPINACH PASTA (WHEAT FLOUR, DRIED SPINACH, NIACIN, FERROUS SULFATE, THIAMIN MONONITRATE, RIBOFLAVIN, FOLIC ACID), PARMESAN CHEESE (MILK, SALT, CHEESE CULTURES), ACID WHEY, ROMANO CHEESE (MILK, SALT, CHEESE CULTURES), SALT, CONTAINS LESS THAN 2% OF THE FOLLOWING: ONION POWDER, BUTTER (CREAM, NONFAT MILK, SALT), SWEET WHEY, CREAM CHEESE (SWEET CREAM, NONFAT MILK, CHEESE CULTURE), GARLIC POWDER, BUTTERMILK, NONFAT MILK SOLIDS, DISODIUM PHOSPHATE, GREEN ONION/CHIVES*, SUGAR, CORNSTARCH-MODIFIED, LACTIC ACID, CITRIC ACID, NATURAL FLAVOR." Date available: 06/24/2017 Date last updated by company: 06/24/2017
