Source: USDA Branded Food Products Database Release December 2017 Software v.3.8.6.4 2017-10-02
Report Run at: December 17, 2017 18:26 EST
"Nutrient data for: 45039529, MEIJER, ICE CREAM, STRAWBERRY, UPC: 886926172430"
Food Group:  Branded Food Products Database
Common Name:

Nutrient,Unit,Data points,Std. Error,"0.5 cup = 68.0g",1Value per 100 g,
Proximates
"Energy",kcal,--,--,130,191
"Protein",g,--,--,2.00,2.94
"Total lipid (fat)",g,--,--,7.00,10.29
"Carbohydrate, by difference",g,--,--,16.00,23.53
"Fiber, total dietary",g,--,--,0.0,0.0
"Sugars, total",g,--,--,13.00,19.12
Minerals
"Calcium, Ca",mg,--,--,60,88
"Iron, Fe",mg,--,--,0.00,0.00
"Sodium, Na",mg,--,--,35,51
Vitamins
"Vitamin C, total ascorbic acid",mg,--,--,2.7,4.0
"Vitamin A, IU",IU,--,--,337,496
Lipids
"Fatty acids, total saturated",g,--,--,4.502,6.620
"Fatty acids, total trans",g,--,--,0.000,0.000
"Cholesterol",mg,--,--,25,37
Amino Acids
Other
Ingredients
"MILK FAT AND NONFAT MILK, SUGAR, STRAWBERRIES (STRAWBERRIES, SUGAR, PECTIN), CORN SYRUP, CONTAINS LESS THAN 2% OF WHEY, MONO AND DIGLYCERIDES, CELLULOSE GUM, GUAR GUM, CARRAGEENAN, NATURAL FLAVORS, LOCUST BEAN GUM, CITRIC ACID, PHOSPHORIC ACID, MALIC ACID, RED #40, ANNATTO (COLOR)." Date available: 06/24/2017 Date last updated by company: 06/24/2017
