Source: USDA Branded Food Products Database Release December 2017 Software v.3.8.6.4 2017-10-02
Report Run at: December 17, 2017 18:29 EST
"Nutrient data for: 45038856, MEIJER, KETTLE COOKED POTATO CHIPS, SALT & PEPPER, UPC: 719283492753"
Food Group:  Branded Food Products Database
Common Name:

Nutrient,Unit,Data points,Std. Error,"18.0 CHIPS = 28.0g",1Value per 100 g,
Proximates
"Energy",kcal,--,--,140,500
"Protein",g,--,--,2.00,7.14
"Total lipid (fat)",g,--,--,8.00,28.57
"Carbohydrate, by difference",g,--,--,17.00,60.71
"Fiber, total dietary",g,--,--,1.0,3.6
"Sugars, total",g,--,--,2.00,7.14
Minerals
"Calcium, Ca",mg,--,--,0,0
"Iron, Fe",mg,--,--,0.64,2.29
"Potassium, K",mg,--,--,290,1036
"Sodium, Na",mg,--,--,190,679
Vitamins
"Vitamin C, total ascorbic acid",mg,--,--,16.1,57.4
"Vitamin A, IU",IU,--,--,0,0
Lipids
"Fatty acids, total saturated",g,--,--,1.000,3.570
"Fatty acids, total monounsaturated",g,--,--,1.999,7.140
"Fatty acids, total polyunsaturated",g,--,--,5.001,17.860
"Fatty acids, total trans",g,--,--,0.000,0.000
"Cholesterol",mg,--,--,0,0
Amino Acids
Other
Ingredients
"POTATOES, VEGETABLE OIL (CONTAINS ONE OR MORE OF THE FOLLOWING: CORN, SUNFLOWER, OR CANOLA OIL), SEA SALT, SPICES, SUGAR, CORN SYRUP SOLIDS, MODIFIED CORN STARCH, WHEY, MONOSODIUM GLUTAMATE, ONION AND GARLIC POWDER, AUTOLYZED YEAST EXTRACT, HYDROLYZED SOY PROTEIN, SODIUM DIACETATE, CITRIC ACID, LACTOSE, SODIUM CASEINATE, DISODIUM INOSINATE AND DISODIUM GUANYLATE, CARAMEL COLOR, NATURAL FLAVOR." Date available: 06/24/2017 Date last updated by company: 06/24/2017
