Source: USDA Branded Food Products Database Release December 2017 Software v.3.8.6.4 2017-10-02
Report Run at: December 17, 2017 18:57 EST
"Nutrient data for: 45036376, MEIJER, TRUE GOODNESS, BAKED GRAIN CRACKERS, UPC: 708820385672"
Food Group:  Branded Food Products Database
Common Name:

Nutrient,Unit,Data points,Std. Error,"23.0 CRACKERS = 30.0g",1Value per 100 g,
Proximates
"Energy",kcal,--,--,140,467
"Protein",g,--,--,2.00,6.67
"Total lipid (fat)",g,--,--,6.00,20.00
"Carbohydrate, by difference",g,--,--,21.00,70.00
"Fiber, total dietary",g,--,--,3.0,10.0
"Sugars, total",g,--,--,2.00,6.67
Minerals
"Calcium, Ca",mg,--,--,20,67
"Iron, Fe",mg,--,--,2.40,8.00
"Sodium, Na",mg,--,--,180,600
Vitamins
"Vitamin C, total ascorbic acid",mg,--,--,2.0,6.7
"Vitamin A, IU",IU,--,--,0,0
Lipids
"Fatty acids, total saturated",g,--,--,0.501,1.670
"Fatty acids, total monounsaturated",g,--,--,3.000,10.000
"Fatty acids, total polyunsaturated",g,--,--,1.500,5.000
"Fatty acids, total trans",g,--,--,0.000,0.000
"Cholesterol",mg,--,--,0,0
Amino Acids
Other
Ingredients
"ENRICHED FLOUR (WHEAT NIACIN, REDUCED IRON, THIAMIN MONONITRATE, RIBOFLAVIN, FOLIC ACID), SUNFLOWER AND/OIL CANOLA OIL (CONTAINS ASCORBIC ACID AND ROSEMARY FOR FRESHNESS), OATMEAL, SUGAR, INULIN, RYE FLOUR, WHEAT, GERM, MULTIGRAIN FLOUR AND SEEDS BLEND (WHEAT, RYE, TRITICALE, BARLEY, CORN, MILLET, SOYBEAN, SUNFLOWER SEEDS, RICE, FLAX, DURUM WHEAT, OATS), OAT FIBER, SALT, INVERT SUGAR SYRUP, MALTED BARLEY FLOUR, SODIUM BICARBONATE, ONION POWDER, MONOCALCIUM PHOSPHATE, ENZYMES." Date available: 06/24/2017 Date last updated by company: 06/24/2017
