Source: USDA Branded Food Products Database Release December 2017 Software v.3.8.6.4 2017-10-02
Report Run at: December 17, 2017 18:23 EST
"Nutrient data for: 45180003, MEIJER, GREEN SIXLETS CANDY COATED CHOCOLATE FLAVORED CANDY, UPC: 708820300989"
Food Group:  Branded Food Products Database
Common Name:

Nutrient,Unit,Data points,Std. Error,"48.0 PIECES = 40.0g",1Value per 100 g,
Proximates
"Energy",kcal,--,--,190,475
"Protein",g,--,--,1.00,2.50
"Total lipid (fat)",g,--,--,8.00,20.00
"Carbohydrate, by difference",g,--,--,29.00,72.50
"Fiber, total dietary",g,--,--,0.0,0.0
"Sugars, total",g,--,--,28.00,70.00
Minerals
"Calcium, Ca",mg,--,--,20,50
"Iron, Fe",mg,--,--,0.90,2.25
"Sodium, Na",mg,--,--,85,212
Vitamins
"Vitamin C, total ascorbic acid",mg,--,--,0.0,0.0
"Vitamin A, IU",IU,--,--,0,0
Lipids
"Fatty acids, total saturated",g,--,--,7.000,17.500
"Fatty acids, total trans",g,--,--,0.000,0.000
"Cholesterol",mg,--,--,0,0
Amino Acids
Other
Ingredients
"SUGAR, DEXTROSE, PARTIALLY HYDROGENATED PALM KERNEL OIL, REDUCED PROTEIN WHEY, COCOA, CORN SYRUP, CAROB, TAPIOCA DEXTRIN, SOY LECITHIN, NATURAL AND ARTIFICIAL FLAVORS, CARNAUBA WAX, SALT, COLORS (YELLOW 5, BLUE 1, TITANIUM DIOXIDE)." Date available: 07/14/2017 Date last updated by company: 07/14/2017
