Source: USDA Branded Food Products Database Release December 2017 Software v.3.8.6.4 2017-10-02
Report Run at: December 17, 2017 18:04 EST
"Nutrient data for: 45234444, MEIJER, CHEWY GRANOLA BARS, PEANUT BUTTER, CHOCOLATE CHIP, UPC: 713733120210"
Food Group:  Branded Food Products Database
Common Name:

Nutrient,Unit,Data points,Std. Error,"1 BAR = 24.0g",1Value per 100 g,
Proximates
"Energy",kcal,--,--,100,417
"Protein",g,--,--,2.00,8.33
"Total lipid (fat)",g,--,--,2.50,10.42
"Carbohydrate, by difference",g,--,--,18.00,75.00
"Fiber, total dietary",g,--,--,1.0,4.2
"Sugars, total",g,--,--,7.00,29.17
Minerals
"Calcium, Ca",mg,--,--,80,333
"Iron, Fe",mg,--,--,1.20,5.00
"Sodium, Na",mg,--,--,80,333
Vitamins
"Vitamin C, total ascorbic acid",mg,--,--,0.0,0.0
"Vitamin A, IU",IU,--,--,0,0
Lipids
"Fatty acids, total saturated",g,--,--,1.001,4.170
"Fatty acids, total trans",g,--,--,0.000,0.000
"Cholesterol",mg,--,--,0,0
Amino Acids
Other
Ingredients
"GRANOLA (WHOLE GRAIN ROLLED OATS, WHOLE GRAIN BROWN RICE FLOUR, SUGAR, WHOLE WHEAT FLAKES, HIGH OLEIC CANOLA OIL, MOLASSES, ENRICHED WHEAT FLOUR [BLEACHED WHEAT FLOUR, MALTED BARELY FLOUR, NIACIN, REDUCED IRON, THIAMIN MONONITRATE, RIBOFLAVIN, FOLIC ACID], CALCIUM CARBONATE, SODIUM BICARBONATE, NONFAT DRY MILK, SOY LECITHIN, CARAMEL COLOR), WHOLE GRAIN BROWN RICE FLOUR, CORN SYRUP, INVERT SUGAR, SEMISWEET CHOCOLATE CHIPS (SUGAR, CHOCOLATE LIQUOR, COCOA BUTTER, SOY LECITHIN, SALT, VANILLA), PEANUT BUTTER FLAVORED CHIPS (SUGAR, PARTIALLY DEFATTED PEANUT FLOUR, PALM KERNEL AND PALM OIL, NONFAT DRY MILK, DEXTROSE, SOY LECITHIN, SALT), PEANUT BUTTER (ROASTED PEANUTS), CORN SYRUP SOLIDS, GLYCERIN, LESS THAN 2% OF: SUGAR, PEANUT OIL, CALCIUM CARBONATE, SALT, MOLASSES, HONEY, NATURAL AND ARTIFICIAL FLAVORS, CITRIC ACID, CARAMEL COLOR, MIXED TOCOPHEROLS (A PRESERVATIVE)." Date available: 07/14/2017 Date last updated by company: 07/14/2017
