Source: USDA Branded Food Products Database Release December 2017 Software v.3.8.6.4 2017-10-02
Report Run at: December 17, 2017 18:29 EST
"Nutrient data for: 45042418, MEIJER, KIDS, SWEET POTATO & MANGO WITH APPLE BLEND PUREE SNACK, UPC: 708820110182"
Food Group:  Branded Food Products Database
Common Name:

Nutrient,Unit,Data points,Std. Error,"1 POUCH = 113.0g",1Value per 100 g,
Proximates
"Energy",kcal,--,--,70,62
"Protein",g,--,--,0.99,0.88
"Total lipid (fat)",g,--,--,0.00,0.00
"Carbohydrate, by difference",g,--,--,17.00,15.04
"Fiber, total dietary",g,--,--,2.0,1.8
"Sugars, total",g,--,--,10.99,9.73
Minerals
"Calcium, Ca",mg,--,--,20,18
"Iron, Fe",mg,--,--,0.63,0.56
"Sodium, Na",mg,--,--,10,9
Vitamins
"Vitamin C, total ascorbic acid",mg,--,--,6.7,5.9
"Vitamin A, IU",IU,--,--,2434,2154
Lipids
"Fatty acids, total saturated",g,--,--,0.000,0.000
"Fatty acids, total trans",g,--,--,0.000,0.000
"Cholesterol",mg,--,--,0,0
Amino Acids
Other
Ingredients
"SWEET POTATO PUREE, MANGO PUREE, APPLES, LEMON JUICE CONCENTRATE, ASCORBIC ACID (TO MAINTAIN COLOR)." Date available: 07/14/2017 Date last updated by company: 07/14/2017
