Source: USDA Branded Food Products Database Release December 2017 Software v.3.8.6.4 2017-10-02
Report Run at: December 17, 2017 18:24 EST
"Nutrient data for: 45041626, MEIJER, HASH BROWN PATTIES, SHREDDED POTATOES, UPC: 708820306028"
Food Group:  Branded Food Products Database
Common Name:

Nutrient,Unit,Data points,Std. Error,"1 PATTY = 64.0g",1Value per 100 g,
Proximates
"Energy",kcal,--,--,140,219
"Protein",g,--,--,2.00,3.12
"Total lipid (fat)",g,--,--,8.00,12.50
"Carbohydrate, by difference",g,--,--,15.00,23.44
"Fiber, total dietary",g,--,--,2.0,3.1
"Sugars, total",g,--,--,1.00,1.56
Minerals
"Calcium, Ca",mg,--,--,0,0
"Iron, Fe",mg,--,--,0.48,0.75
"Sodium, Na",mg,--,--,270,422
Vitamins
"Vitamin C, total ascorbic acid",mg,--,--,3.2,5.0
"Vitamin A, IU",IU,--,--,0,0
Lipids
"Fatty acids, total saturated",g,--,--,1.997,3.120
"Fatty acids, total monounsaturated",g,--,--,4.000,6.250
"Fatty acids, total polyunsaturated",g,--,--,1.997,3.120
"Fatty acids, total trans",g,--,--,0.000,0.000
"Cholesterol",mg,--,--,0,0
Amino Acids
Other
Ingredients
"POTATOES, VEGETABLE OIL (CONTAINS ONE OR MORE OF THE FOLLOWING: CANOLA OIL, CORN OIL, COTTONSEED OIL, PALM OIL, SOYBEAN OIL, SUNFLOWER OIL), SALT, DEHYDRATED POTATO, ENRICHED WHEAT FLOUR (FLOUR, NIACIN, IRON, THIAMIN MONONITRATE, RIBOFLAVIN, FOLIC ACID), POTASSIUM SORBATE (TO MAINTAIN FRESHNESS), NATURAL FLAVORING, DISODIUM DIHYDROGEN PYROPHOSPHATE (TO PROMOTE COLOR RETENTION), DEXTROSE." Date available: 07/14/2017 Date last updated by company: 07/14/2017
