Source: USDA Branded Food Products Database Release December 2017 Software v.3.8.6.4 2017-10-02
Report Run at: December 17, 2017 18:18 EST
"Nutrient data for: 45038189, MEIJER, FREE & LIGHT, DRINK MIX, FRUIT PUNCH, UPC: 708820063624"
Food Group:  Branded Food Products Database
Common Name:

Nutrient,Unit,Data points,Std. Error,"0.5 PACKET = 1.3g",1Value per 100 g,
Proximates
"Energy",kcal,--,--,5,385
"Protein",g,--,--,0.00,0.00
"Total lipid (fat)",g,--,--,0.00,0.00
"Carbohydrate, by difference",g,--,--,0.00,0.00
"Sugars, total",g,--,--,0.00,0.00
Minerals
"Sodium, Na",mg,--,--,10,769
Vitamins
Lipids
Amino Acids
Other
Ingredients
"CITRIC ACID, MALTODEXTRIN, NATURAL AND ARTIFICIAL FLAVOR, ASPARTAME**, CALCIUM PHOSPHATE, SODIUM CITRATE, RED 40, CONTAINS LESS THAN 2% OF: POTASSIUM CITRATE, ACESULFAME POTASSIUM, GUM ARABIC, MAGNESIUM OXIDE, CALCIUM SILICATE, ARTIFICIAL COLOR, BLUE 1." Date available: 07/14/2017 Date last updated by company: 07/14/2017
