Source: USDA Branded Food Products Database Release December 2017 Software v.3.8.6.4 2017-10-02
Report Run at: December 17, 2017 18:04 EST
"Nutrient data for: 45234828, MEIJER, CHEWY SWEET & SALTY PRETZEL BARS, PEANUT CHOCOLATE CHUNK, UPC: 713733762434"
Food Group:  Branded Food Products Database
Common Name:

Nutrient,Unit,Data points,Std. Error,"1 BAR = 35.0g",1Value per 100 g,
Proximates
"Energy",kcal,--,--,160,457
"Protein",g,--,--,3.00,8.57
"Total lipid (fat)",g,--,--,7.00,20.00
"Carbohydrate, by difference",g,--,--,22.00,62.86
"Fiber, total dietary",g,--,--,3.0,8.6
"Sugars, total",g,--,--,9.00,25.71
Minerals
"Calcium, Ca",mg,--,--,0,0
"Iron, Fe",mg,--,--,0.82,2.35
"Sodium, Na",mg,--,--,135,386
Vitamins
"Vitamin C, total ascorbic acid",mg,--,--,0.0,0.0
"Vitamin A, IU",IU,--,--,0,0
Lipids
"Fatty acids, total saturated",g,--,--,2.499,7.140
"Fatty acids, total monounsaturated",g,--,--,3.500,10.000
"Fatty acids, total polyunsaturated",g,--,--,0.500,1.430
"Fatty acids, total trans",g,--,--,0.000,0.000
"Cholesterol",mg,--,--,0,0
Amino Acids
Other
Ingredients
"PEANUTS, CORN SYRUP, CHOCOLATE FLAVORED COATING (SUGAR, VEGETABLE OILS [PALM KERNEL AND FULLY HYDROGENATED PALM], SKIM MILK, COCOA, WHOLE MILK, SORBITAN TRISTEARATE, SOY LECITHIN, SALT, VANILLA, NATURAL AND ARTIFICIAL FLAVORS), GRANOLA (WHOLE GRAIN ROLLED OATS, BARLEY FLAKES, SUGAR, HONEY, HIGH OLEIC CANOLA OIL, SOY LECITHIN, SALT, SODIUM BICARBONATE), PRETZEL PIECES (ENRICHED WHEAT FLOUR [WHEAT FLOUR, NIACIN, REDUCED IRON, THIAMIN MONONITRATE, RIBOFLAVIN, FOLIC ACID], MALT, SALT, SOYBEAN OIL, YEAST), RICE AND WHEAT FLAKES (MILLED RICE, ROLLED WHEAT, SUGAR, SALT, BARLEY MALT), SOLUBLE CORN FIBER, SEMISWEET CHOCOLATE CHUNKS (SUGAR, CHOCOLATE LIQUOR, COCOA BUTTER, ANHYDROUS DEXTROSE, SOY LECITHIN, VANILLIN [AN ARTIFICIAL FLAVOR]), CRISP RICE (RICE FLOUR, SUGAR, BARLEY MALT EXTRACT, SALT), FRUCTOSE, HIGH OLEIC CANOLA OIL, GLYCERIN, LESS THAN 2% OF: PALM KERNEL OIL, WATER, CORN SYRUP SOLIDS, SALT, PEANUT OIL, SOY LECITHIN, XANTHAN GUM, MIXED TOCOPHEROLS (ANTIOXIDANT), ALMOND FLOUR." Date available: 07/14/2017 Date last updated by company: 07/14/2017
