Source: USDA Branded Food Products Database Release December 2017 Software v.3.8.6.4 2017-10-02
Report Run at: December 17, 2017 18:38 EST
"Nutrient data for: 45038322, MEIJER, NUT TOPPING, UPC: 041250028703"
Food Group:  Branded Food Products Database
Common Name:

Nutrient,Unit,Data points,Std. Error,"2.0 Tbsp = 16.0g",1Value per 100 g,
Proximates
"Energy",kcal,--,--,100,625
"Protein",g,--,--,3.00,18.75
"Total lipid (fat)",g,--,--,9.00,56.25
"Carbohydrate, by difference",g,--,--,3.00,18.75
"Fiber, total dietary",g,--,--,1.0,6.2
"Sugars, total",g,--,--,1.00,6.25
Minerals
"Calcium, Ca",mg,--,--,0,0
"Iron, Fe",mg,--,--,1.12,7.03
"Sodium, Na",mg,--,--,0,0
Vitamins
"Vitamin C, total ascorbic acid",mg,--,--,0.0,0.0
"Vitamin A, IU",IU,--,--,0,0
Lipids
"Fatty acids, total saturated",g,--,--,1.000,6.250
"Fatty acids, total trans",g,--,--,0.000,0.000
"Cholesterol",mg,--,--,0,0
Amino Acids
Other
Ingredients
"DRY ROASTED PEANUTS, PECANS." Date available: 07/14/2017 Date last updated by company: 07/14/2017
