Source: USDA Branded Food Products Database Release December 2017 Software v.3.8.6.4 2017-10-02
Report Run at: December 17, 2017 18:26 EST
"Nutrient data for: 45039556, MEIJER, ICE CREAM, BUTTER PECAN, UPC: 886926169898"
Food Group:  Branded Food Products Database
Common Name:

Nutrient,Unit,Data points,Std. Error,"0.5 cup = 68.0g",1Value per 100 g,
Proximates
"Energy",kcal,--,--,160,235
"Protein",g,--,--,2.00,2.94
"Total lipid (fat)",g,--,--,10.00,14.71
"Carbohydrate, by difference",g,--,--,15.00,22.06
"Fiber, total dietary",g,--,--,0.0,0.0
"Sugars, total",g,--,--,12.00,17.65
Minerals
"Calcium, Ca",mg,--,--,60,88
"Iron, Fe",mg,--,--,0.00,0.00
"Sodium, Na",mg,--,--,45,66
Vitamins
"Vitamin C, total ascorbic acid",mg,--,--,0.0,0.0
"Vitamin A, IU",IU,--,--,337,496
Lipids
"Fatty acids, total saturated",g,--,--,4.998,7.350
"Fatty acids, total trans",g,--,--,0.000,0.000
"Cholesterol",mg,--,--,30,44
Amino Acids
Other
Ingredients
"MILKFAT AND NONFAT MILK, SUGAR, CORN SYRUP, PECANS (PECANS, COTTONSEED OIL, BUTTER, SALT), WHEY, CONTAINS LESS THAN 2% OF NATURAL AND ARTIFICIAL FLAVORS, MONO AND DIGLYCERIDES, CELLULOSE GUM, GUAR GUM, CARRAGEENAN, ANNATTO (COLOR), CARAMEL COLOR." Date available: 07/14/2017 Date last updated by company: 07/14/2017
