Source: USDA Branded Food Products Database Release December 2017 Software v.3.8.6.4 2017-10-02
Report Run at: December 17, 2017 18:24 EST
"Nutrient data for: 45042649, MEIJER, HAMBURGER BUNS, POTATO, UPC: 713733272360"
Food Group:  Branded Food Products Database
Common Name:

Nutrient,Unit,Data points,Std. Error,"1 BUN = 44.0g",1Value per 100 g,
Proximates
"Energy",kcal,--,--,110,250
"Protein",g,--,--,4.00,9.09
"Total lipid (fat)",g,--,--,1.50,3.41
"Carbohydrate, by difference",g,--,--,22.00,50.00
"Fiber, total dietary",g,--,--,1.0,2.3
"Sugars, total",g,--,--,3.00,6.82
Minerals
"Calcium, Ca",mg,--,--,60,136
"Iron, Fe",mg,--,--,1.64,3.72
"Sodium, Na",mg,--,--,200,455
Vitamins
"Vitamin C, total ascorbic acid",mg,--,--,0.0,0.0
"Thiamin",mg,--,--,0.440,1.000
"Riboflavin",mg,--,--,0.136,0.309
"Niacin",mg,--,--,1.818,4.132
"Vitamin A, IU",IU,--,--,0,0
Lipids
"Fatty acids, total saturated",g,--,--,0.000,0.000
"Fatty acids, total monounsaturated",g,--,--,0.000,0.000
"Fatty acids, total polyunsaturated",g,--,--,0.502,1.140
"Fatty acids, total trans",g,--,--,0.000,0.000
"Cholesterol",mg,--,--,0,0
Amino Acids
Other
Ingredients
"ENRICHED UNBLEACHED FLOUR [WHEAT FLOUR, MALTED BARLEY FLOUR, REDUCED IRON, THIAMINE MONONITRATE (VITAMIN B1), RIBOFLAVIN (VITAMIN B2), NIACIN (VITAMIN B3), FOLIC ACID], WATER, HIGH FRUCTOSE CORN SYRUP, YEAST, WHEAT GLUTEN, DEHYDRATED POTATO FLAKES, SOYBEAN OIL, SALT, MONOGLYCERIDES, CALCIUM PROPIONATE (A PRESERVATIVE), SODIUM STEAROYL LACTYLATE, YELLOW CORN FLOUR, SPICE OILS (TURMERIC AND ANNATTO), NATURAL & ARTIFICIAL FLAVOR, CALCIUM SULFATE, CITRIC ACID, ASCORBIC ACID." Date available: 07/14/2017 Date last updated by company: 07/14/2017
