Source: USDA Branded Food Products Database Release December 2017 Software v.3.8.6.4 2017-10-02
Report Run at: December 17, 2017 19:05 EST
"Nutrient data for: 45159230, MELANIE, EXTRA MAGNIFICENT, CHOCOLATE COLLECTION, UPC: 623720434667"
Food Group:  Branded Food Products Database
Common Name:

Nutrient,Unit,Data points,Std. Error,"0.85 ONZ = 24.0g",1Value per 100 g,
Proximates
"Energy",kcal,--,--,140,583
"Protein",g,--,--,1.70,7.08
"Total lipid (fat)",g,--,--,10.00,41.67
"Carbohydrate, by difference",g,--,--,12.00,50.00
"Fiber, total dietary",g,--,--,0.2,0.8
"Sugars, total",g,--,--,6.00,25.00
Minerals
"Calcium, Ca",mg,--,--,40,167
"Iron, Fe",mg,--,--,0.75,3.13
"Sodium, Na",mg,--,--,25,104
Vitamins
"Vitamin C, total ascorbic acid",mg,--,--,0.0,0.0
"Vitamin A, IU",IU,--,--,209,869
Lipids
"Fatty acids, total saturated",g,--,--,4.001,16.670
"Fatty acids, total trans",g,--,--,0.799,3.330
"Cholesterol",mg,--,--,2,8
Amino Acids
Other
Ingredients
"CHOCOLATE (SUGAR, COCOA MASS, COCOA BUTTER, LECITHIN, MILK FAT, VANILLA), SUGAR, WHOLE MILK POWDER, HAZELNUTS, PARTIALLY HYDROGENATED VEGETABLE OIL (PALM & SOYA), REDUCED FAT COCOA POWDER, LECITHIN, ARTIFICIAL FLAVOR, VANILLA." Date available: 07/14/2017 Date last updated by company: 07/14/2017
