Source: USDA Branded Food Products Database Release December 2017 Software v.3.8.6.4 2017-10-02
Report Run at: December 17, 2017 19:07 EST
"Nutrient data for: 45248536, MELLO YELLO, CITRUS FLAVORED SODA, CITRUS, UPC: 040000028635"
Food Group:  Branded Food Products Database
Common Name:

Nutrient,Unit,Data points,Std. Error,"1 CAN = 355.0g",1Value per 100 g,
Proximates
"Energy",kcal,--,--,170,48
"Protein",g,--,--,0.00,0.00
"Total lipid (fat)",g,--,--,0.00,0.00
"Carbohydrate, by difference",g,--,--,47.00,13.24
"Sugars, total",g,--,--,47.00,13.24
Minerals
"Sodium, Na",mg,--,--,46,13
Vitamins
Lipids
Amino Acids
Other
Ingredients
"CARBONATED WATER, HIGH FRUCTOSE CORN SYRUP, CONCENTRATED ORANGE JUICE, CITRIC ACID, NATURAL FLAVORS, SODIUM BENZOATE AND EDTA (TO PROTECT TASTE), POTASSIUM CITRATE, CAFFEINE, YELLOW 5, CAROB BEAN GUM" Date available: 07/14/2017 Date last updated by company: 07/14/2017
