Source: USDA Branded Food Products Database Release December 2017 Software v.3.8.6.4 2017-10-02
Report Run at: December 17, 2017 19:07 EST
"Nutrient data for: 45331633, MELLO-CREME PUMPKINS, UPC: 041497136285"
Food Group:  Branded Food Products Database
Common Name:

Nutrient,Unit,Data points,Std. Error,"7.0 PIECES = 39.0g",1Value per 100 g,
Proximates
"Energy",kcal,--,--,150,385
"Protein",g,--,--,0.00,0.00
"Total lipid (fat)",g,--,--,0.00,0.00
"Carbohydrate, by difference",g,--,--,36.00,92.31
"Fiber, total dietary",g,--,--,0.0,0.0
"Sugars, total",g,--,--,30.00,76.92
Minerals
"Calcium, Ca",mg,--,--,0,0
"Iron, Fe",mg,--,--,0.00,0.00
"Sodium, Na",mg,--,--,40,103
Vitamins
"Vitamin C, total ascorbic acid",mg,--,--,0.0,0.0
"Vitamin A, IU",IU,--,--,0,0
Lipids
"Fatty acids, total saturated",g,--,--,0.000,0.000
"Fatty acids, total trans",g,--,--,0.000,0.000
"Cholesterol",mg,--,--,0,0
Amino Acids
Other
Ingredients
"MELLO-CREME PUMPKINS (SUGAR, CORN SYRUP, CONTAINS LESS THAN 2% OF THE FOLLOWING: SALT, HONEY, CONFECTIONER'S GLAZE, GLYCERINE, EGG WHITES, NATURAL AND ARTIFICIAL FLAVORS, MINERAL OIL, ARTIFICIAL COLORS (INCLUDING FD&C: YELLOW #6, RED #40, YELLOW #5 AND BLUE #1), COCONUT OIL, CARNAUBA WAX)." Date available: 10/13/2017 Date last updated by company: 10/13/2017
