Source: USDA Branded Food Products Database Release December 2017 Software v.3.8.6.4 2017-10-02
Report Run at: December 17, 2017 19:08 EST
"Nutrient data for: 45274401, MELT & DIP PASTEURIZED PREPARED CHEESE PRODUCT, UPC: 085239112205"
Food Group:  Branded Food Products Database
Common Name:

Nutrient,Unit,Data points,Std. Error,"0.25 INCH SLICE = 28.0g",1Value per 100 g,
Proximates
"Energy",kcal,--,--,80,286
"Protein",g,--,--,5.00,17.86
"Total lipid (fat)",g,--,--,6.00,21.43
"Carbohydrate, by difference",g,--,--,2.00,7.14
"Fiber, total dietary",g,--,--,0.0,0.0
"Sugars, total",g,--,--,2.00,7.14
Minerals
"Calcium, Ca",mg,--,--,250,893
"Iron, Fe",mg,--,--,0.00,0.00
"Sodium, Na",mg,--,--,370,1321
Vitamins
"Vitamin C, total ascorbic acid",mg,--,--,0.0,0.0
"Vitamin A, IU",IU,--,--,535,1912
Lipids
"Fatty acids, total saturated",g,--,--,3.500,12.500
"Fatty acids, total trans",g,--,--,0.000,0.000
"Cholesterol",mg,--,--,20,71
Amino Acids
Other
Ingredients
"MILK, WATER, WHEY, CREAM, WHEY PROTEIN CONCENTRATE, SODIUM PHOSPHATE, MILK PROTEIN CONCENTRATE, CONTAINS 2% OR LESS OF CALCIUM PHOSPHATE, CHEESE CULTURE, COLOR ADDED, ENZYMES, LACTIC ACID, MILKFAT, SALT, SODIUM ALGINATE, SODIUM CITRATE, SORBIC ACID (PRESERVATIVE), VITAMIN A PALMITATE." Date available: 09/12/2017 Date last updated by company: 09/12/2017
