Source: USDA Branded Food Products Database Release December 2017 Software v.3.8.6.4 2017-10-02
Report Run at: December 17, 2017 19:09 EST
"Nutrient data for: 45160945, MELVILLE CANDY, HONEY SPOONS, UPC: 732577204252"
Food Group:  Branded Food Products Database
Common Name:

Nutrient,Unit,Data points,Std. Error,"1 SPOON = 14.0g",1Value per 100 g,
Proximates
"Energy",kcal,--,--,45,321
"Protein",g,--,--,0.00,0.00
"Total lipid (fat)",g,--,--,0.00,0.00
"Carbohydrate, by difference",g,--,--,12.00,85.71
"Fiber, total dietary",g,--,--,0.0,0.0
"Sugars, total",g,--,--,10.00,71.43
Minerals
"Calcium, Ca",mg,--,--,0,0
"Iron, Fe",mg,--,--,0.00,0.00
"Sodium, Na",mg,--,--,0,0
Vitamins
"Vitamin C, total ascorbic acid",mg,--,--,0.0,0.0
"Vitamin A, IU",IU,--,--,0,0
Lipids
"Fatty acids, total saturated",g,--,--,0.000,0.000
"Fatty acids, total trans",g,--,--,0.000,0.000
"Cholesterol",mg,--,--,0,0
Amino Acids
Other
Ingredients
"SUGAR, CORN SYRUP, WATER, HONEY, NATURAL HONEY FLAVORING,BEE POLLEN GRANULES, CANOLA OIL, SOY LECITHIN." Date available: 07/14/2017 Date last updated by company: 07/14/2017
