Source: USDA Branded Food Products Database Release December 2017 Software v.3.8.6.4 2017-10-02
Report Run at: December 17, 2017 19:10 EST
"Nutrient data for: 45041825, MENTOS, FRUIT MIX MINI CHEWY MINT, STRAWBERRY, LEMON, ORANGE, UPC: 073390026479"
Food Group:  Branded Food Products Database
Common Name:

Nutrient,Unit,Data points,Std. Error,"1 PIECE = 2.0g",1Value per 100 g,
Proximates
"Energy",kcal,--,--,10,500
"Protein",g,--,--,0.00,0.00
"Total lipid (fat)",g,--,--,0.00,0.00
"Carbohydrate, by difference",g,--,--,2.00,100.00
"Sugars, total",g,--,--,1.50,75.00
Minerals
"Sodium, Na",mg,--,--,0,0
Vitamins
Lipids
Amino Acids
Other
Ingredients
"SUGAR, WHEAT GLUCOSE SYRUP, HYDROGENATED COCONUT OIL, CITRIC ACID, FRUIT JUICE FROM CONCENTRATE (STRAWBERRY, ORANGE, LEMON (1%), RICE STARCH, GUM ARABIC NATURAL FLAVORS, SUCROSE ESTERS OF FATTY ACIDS, GELLAN GUM, CARNAUBA WAX, COLORS (BETA-CAROTENE, BEETROOT RED), BEESWAX." Date available: 07/14/2017 Date last updated by company: 07/14/2017
