Source: USDA Branded Food Products Database Release December 2017 Software v.3.8.6.4 2017-10-02
Report Run at: December 17, 2017 19:11 EST
"Nutrient data for: 45278327, MENUDITO, UPC: 070132101203"
Food Group:  Branded Food Products Database
Common Name:

Nutrient,Unit,Data points,Std. Error,"1 cup = 245.0g",1Value per 100 g,
Proximates
"Energy",kcal,--,--,130,53
"Protein",g,--,--,12.01,4.90
"Total lipid (fat)",g,--,--,4.51,1.84
"Carbohydrate, by difference",g,--,--,11.00,4.49
"Fiber, total dietary",g,--,--,2.9,1.2
"Sugars, total",g,--,--,1.00,0.41
Minerals
"Calcium, Ca",mg,--,--,81,33
"Iron, Fe",mg,--,--,1.45,0.59
"Sodium, Na",mg,--,--,1139,465
Vitamins
"Vitamin C, total ascorbic acid",mg,--,--,4.9,2.0
"Vitamin A, IU",IU,--,--,2499,1020
Lipids
"Fatty acids, total saturated",g,--,--,1.494,0.610
"Fatty acids, total trans",g,--,--,0.000,0.000
"Cholesterol",mg,--,--,100,41
Amino Acids
Other
Ingredients
"WATER, BEEF TRIPE, HOMINY, BROTH, CHILI PEPPERS AND CONTAINS 2% OF LESS OF THE FOLLOWING: SALT, SPICE, SEASONING (DEXTROSE, SALT, ONION POWDER, CELERY POWDER, SPICES, BLACK PEPPER, HYDROLYZED CORN GLUTEN WITH PARTIALLY HYDROGENATED SOY AND COTTONSEED OIL, SUGAR, SOYBEAN OIL), NATURAL FLAVOR." Date available: 07/14/2017 Date last updated by company: 07/14/2017
