Source: USDA Branded Food Products Database Release December 2017 Software v.3.8.6.4 2017-10-02
Report Run at: December 17, 2017 19:13 EST
"Nutrient data for: 45101754, MERLOT CHEESE, UPC: 011863118764"
Food Group:  Branded Food Products Database
Common Name:

Nutrient,Unit,Data points,Std. Error,"1 INCH CUBE | ABOUT A = 28.0g",1Value per 100 g,
Proximates
"Energy",kcal,--,--,120,429
"Protein",g,--,--,7.00,25.00
"Total lipid (fat)",g,--,--,10.00,35.71
"Carbohydrate, by difference",g,--,--,0.00,0.00
"Fiber, total dietary",g,--,--,0.0,0.0
"Sugars, total",g,--,--,0.00,0.00
Minerals
"Calcium, Ca",mg,--,--,180,643
"Iron, Fe",mg,--,--,0.00,0.00
"Sodium, Na",mg,--,--,165,589
Vitamins
"Vitamin C, total ascorbic acid",mg,--,--,0.0,0.0
"Vitamin A, IU",IU,--,--,535,1912
Lipids
"Fatty acids, total saturated",g,--,--,5.001,17.860
"Fatty acids, total trans",g,--,--,0.000,0.000
"Cholesterol",mg,--,--,30,107
Amino Acids
Other
Ingredients
"BELLAVITANO CHEESE (PASTEURIZED COW'S MILK, CHEESE CULTURES, SALT, ENZYMES), MERLOT WINE (GRAPES, WATER, YEAST)." Date available: 07/14/2017 Date last updated by company: 07/14/2017
