Source: USDA Branded Food Products Database Release December 2017 Software v.3.8.6.4 2017-10-02
Report Run at: December 17, 2017 19:13 EST
"Nutrient data for: 45157914, MERRY CHRISTMAS SHORTBREAD COOKIES, UPC: 096162581853"
Food Group:  Branded Food Products Database
Common Name:

Nutrient,Unit,Data points,Std. Error,"28.0 GRM = 28.0g",1Value per 100 g,
Proximates
"Energy",kcal,--,--,130,464
"Protein",g,--,--,2.00,7.14
"Total lipid (fat)",g,--,--,7.00,25.00
"Carbohydrate, by difference",g,--,--,15.00,53.57
"Fiber, total dietary",g,--,--,0.0,0.0
"Sugars, total",g,--,--,5.00,17.86
Minerals
"Calcium, Ca",mg,--,--,0,0
"Iron, Fe",mg,--,--,1.29,4.59
"Sodium, Na",mg,--,--,55,196
Vitamins
"Vitamin C, total ascorbic acid",mg,--,--,0.0,0.0
"Vitamin A, IU",IU,--,--,179,638
Lipids
"Fatty acids, total saturated",g,--,--,2.999,10.710
"Fatty acids, total trans",g,--,--,0.000,0.000
"Cholesterol",mg,--,--,10,36
Amino Acids
Other
Ingredients
"ENRICHED FLOUR [WHEAT FLOUR, MALTED BARLEY FLOUR, NIACIN, REDUCED IRON, THIAMINE MONONITRATE, RIBOFLAVIN AND FOLIC ACID], SUGAR, EGGS, VEGETABLE SHORTENING [PALM OIL AND SOYBEAN OIL], MARGARINE (SOYBEAN OIL, PALM OIL, WATER, SALT, MONO AND DIGLYCERIDES, SOY LECITHIN, SODIUM BENZOATE, ARTIFICIAL FLAVOR, VITAMIN A PALMITATE AND BETA CAROTENE (COLOR), CHOCOLATE FLAVORED COATING [VEGETABLE SHORTENING (PARTIALLY HYDROGENATED SOYBEAN AND COTTONSEED OIL), WATER, COCOA, SALT, SOY LECITHIN, MONO AND DIGLYCERIDES, SODIUM BENZOATE (TO PRESERVE FRESHNESS) AND ARTIFICIAL FLAVORS], SPRINKLES [SUGAR, CORN STARCH, VEGETABLE OIL (PARTIALLY HYDROGENATED SOYBEAN AND COTTONSEED), DEXTRIN, SOY LECITHIN, CONFECTIONER'S GLAZE, AND COLORING INCLUDES: YELLOW #5, RED #40, YELLOW #6, BLUE #1, RED #3 AND BLUE #2], NATURAL AND ARTIFICIAL FLAVORS, SALT AND WHEY [FROM MILK]." Date available: 07/14/2017 Date last updated by company: 07/14/2017
