Source: USDA Branded Food Products Database Release December 2017 Software v.3.8.6.4 2017-10-02
Report Run at: December 17, 2017 19:16 EST
"Nutrient data for: 45035798, MEXENE, ORIGINAL CHILI POWDER SEASONING, UPC: 017600022011"
Food Group:  Branded Food Products Database
Common Name:

Nutrient,Unit,Data points,Std. Error,"5.0 tsp = 10.0g",1Value per 100 g,
Proximates
"Energy",kcal,--,--,37,370
"Protein",g,--,--,1.00,10.00
"Carbohydrate, by difference",g,--,--,5.00,50.00
Minerals
"Sodium, Na",mg,--,--,235,2350
Vitamins
"Vitamin C, total ascorbic acid",mg,--,--,30.0,300.0
"Vitamin A, IU",IU,--,--,2000,20000
Lipids
Amino Acids
Other
Ingredients
"CHILI PEPPER, SALT, CUMIN, OREGANO, GARLIC, SILICON DIOXIDE." Date available: 07/14/2017 Date last updated by company: 07/14/2017
