Source: USDA Branded Food Products Database Release December 2017 Software v.3.8.6.4 2017-10-02
Report Run at: December 17, 2017 19:20 EST
"Nutrient data for: 45231471, MEXICAN-STYLE CHICKEN AND VEGETABLES, UPC: 637480091435"
Food Group:  Branded Food Products Database
Common Name:

Nutrient,Unit,Data points,Std. Error,"1 TRAY = 255.0g",1Value per 100 g,
Proximates
"Energy",kcal,--,--,360,141
"Protein",g,--,--,33.00,12.94
"Total lipid (fat)",g,--,--,19.99,7.84
"Carbohydrate, by difference",g,--,--,10.00,3.92
"Fiber, total dietary",g,--,--,3.1,1.2
"Sugars, total",g,--,--,3.01,1.18
Minerals
"Calcium, Ca",mg,--,--,301,118
"Iron, Fe",mg,--,--,1.10,0.43
"Sodium, Na",mg,--,--,1270,498
Vitamins
"Vitamin C, total ascorbic acid",mg,--,--,20.7,8.1
"Vitamin A, IU",IU,--,--,1530,600
Lipids
"Fatty acids, total saturated",g,--,--,9.996,3.920
"Fatty acids, total trans",g,--,--,0.510,0.200
"Cholesterol",mg,--,--,110,43
Amino Acids
Other
Ingredients
"GRILLED SEASONED CHICKEN BREAST MEAT STRIPS (CHICKEN BREAST MEAT, WATER, LESS THAN 2% LEMON JUICE CONCENTRATE, VINEGAR, SALT), WATER, GREEN BELL PEPPERS, RED BELL PEPPERS, PASTEURIZED PROCESS MONTEREY JACK CHEESE (CULTURED MILK, WATER, MILKFAT, SKIM MILK, SODIUM PHOSPHATES, SALT, ENZYMES), CHEDDAR CHEESE (PASTEURIZED MILK, CHEESE CULTURE, SALT, ENZYMES, ANNATTO [COLOR]), ONIONS, FIRE ROASTED TOMATOES (FIRE ROASTED TOMATOES, TOMATO JUICE, CITRIC ACID, CALCIUM CHLORIDE), LESS THAN 2% OF TOMATO PASTE, CHICKEN STOCK, CANOLA OIL, ROASTED ONION PUREE, CHIPOTLE CHILE PEPPER PUREE (CHIPOTLE CHILE PEPPERS, CITRIC ACID), GARLIC PUREE, CHICKEN FAT, CHILI POWDER (CHILI PEPPER, SPICES, SALT, GARLIC POWDER), SOLUBLE CORN FIBER, MODIFIED FOOD STARCH, SALT, SPICES, CELLULOSE, SMOKED PAPRIKA (PAPRIKA, NATURAL SMOKE FLAVOR), XANTHAN GUM, EXTRACTIVES OF PAPRIKA AND NATURAL FLAVORS, SOY LECITHIN, CITRIC ACID." Date available: 07/14/2017 Date last updated by company: 07/14/2017
