Source: USDA Branded Food Products Database Release December 2017 Software v.3.8.6.4 2017-10-02
Report Run at: December 17, 2017 19:20 EST
"Nutrient data for: 45204188, MEXICAN SALSA, UPC: 859500002140"
Food Group:  Branded Food Products Database
Common Name:

Nutrient,Unit,Data points,Std. Error,"2.0 Tbsp = 32.0g",1Value per 100 g,
Proximates
"Energy",kcal,--,--,25,78
"Protein",g,--,--,1.00,3.12
"Total lipid (fat)",g,--,--,0.00,0.00
"Carbohydrate, by difference",g,--,--,5.00,15.62
"Fiber, total dietary",g,--,--,1.0,3.1
"Sugars, total",g,--,--,1.00,3.12
Minerals
"Potassium, K",mg,--,--,75,234
"Sodium, Na",mg,--,--,140,438
Vitamins
"Vitamin C, total ascorbic acid",mg,--,--,5.6,17.6
"Vitamin B-6",mg,--,--,0.068,0.211
"Vitamin A, IU",IU,--,--,3906,12206
Lipids
"Cholesterol",mg,--,--,0,0
Amino Acids
Other
Ingredients
"SWEET POTATO, BLACK BEANS, WATER, CORN, LIME JUICE, GARLIC, SALT, GINGER, CITRIC ACID, CHIPOTLE, CUMIN, CAYENNE." Date available: 07/14/2017 Date last updated by company: 07/14/2017
