Source: USDA Branded Food Products Database Release December 2017 Software v.3.8.6.4 2017-10-02
Report Run at: December 17, 2017 19:20 EST
"Nutrient data for: 45230944, MEXICAN STYLE CHICKEN CRUMBLE, UPC: 085239342169"
Food Group:  Branded Food Products Database
Common Name:

Nutrient,Unit,Data points,Std. Error,"3.0 ONZ = 85.0g",1Value per 100 g,
Proximates
"Energy",kcal,--,--,130,153
"Protein",g,--,--,23.00,27.06
"Total lipid (fat)",g,--,--,3.00,3.53
"Carbohydrate, by difference",g,--,--,3.00,3.53
"Fiber, total dietary",g,--,--,0.0,0.0
"Sugars, total",g,--,--,1.00,1.18
Minerals
"Calcium, Ca",mg,--,--,20,24
"Iron, Fe",mg,--,--,1.08,1.27
"Sodium, Na",mg,--,--,710,835
Vitamins
"Vitamin C, total ascorbic acid",mg,--,--,2.4,2.8
"Vitamin A, IU",IU,--,--,200,235
Lipids
"Fatty acids, total saturated",g,--,--,1.003,1.180
"Fatty acids, total trans",g,--,--,0.000,0.000
"Cholesterol",mg,--,--,60,71
Amino Acids
Other
Ingredients
"GROUND CHICKEN (WHITE MEAT, DARK MEAT), TOMATOES, ONIONS, JALAPENO, POTATO STARCH, KOSHER SALT, BEEF BASE (BEEF STOCK, NATURAL FLAVOR, SALT, YEAST EXTRACT, SUGAR, AND BEEF FAT), DEHYDRATED VINEGAR, ORGANIC CHILI PEPPER, GARLIC, SUGAR, PAPRIKA, CUMIN, OREGANO, NATURAL FLAVOR, CAYENNE PEPPER." Date available: 09/07/2017 Date last updated by company: 09/07/2017
