Source: USDA Branded Food Products Database Release December 2017 Software v.3.8.6.4 2017-10-02
Report Run at: December 17, 2017 19:17 EST
"Nutrient data for: 45239088, MEXICAN CASSEROLE BOWLS, UPC: 042272001637"
Food Group:  Branded Food Products Database
Common Name:

Nutrient,Unit,Data points,Std. Error,"1 BOWL = 269.0g",1Value per 100 g,
Proximates
"Energy",kcal,--,--,379,141
"Protein",g,--,--,12.00,4.46
"Total lipid (fat)",g,--,--,16.01,5.95
"Carbohydrate, by difference",g,--,--,47.99,17.84
"Fiber, total dietary",g,--,--,8.1,3.0
"Sugars, total",g,--,--,4.01,1.49
Minerals
"Calcium, Ca",mg,--,--,250,93
"Iron, Fe",mg,--,--,1.13,0.42
"Sodium, Na",mg,--,--,780,290
Vitamins
"Vitamin C, total ascorbic acid",mg,--,--,0.8,0.3
"Vitamin A, IU",IU,--,--,126,47
Lipids
"Fatty acids, total saturated",g,--,--,5.003,1.860
"Fatty acids, total trans",g,--,--,0.000,0.000
"Cholesterol",mg,--,--,19,7
Amino Acids
Other
Ingredients
"FILTERED WATER, ORGANIC CORN, ORGANIC CORN MASA (ORGANIC STONEGROUND CORN, TRACE OF LIME), ORGANIC BLACK BEANS, MONTEREY JACK CHEESE (PASTEURIZED MILK, CULTURE, SALT, ENZYMES [WITHOUT ANIMAL ENZYMES OR RENNET]), OLIVES, EXPELLER PRESSED HIGH OLEIC SAFFLOWER AND/OR SUNFLOWER OIL, ORGANIC TOMATO PUREE, ORGANIC ONIONS, ORGANIC SWEET RICE FLOUR, SPICES, SEA SALT, ORGANIC GARLIC, ORGANIC CILANTRO." Date available: 10/17/2017 Date last updated by company: 10/17/2017
