Source: USDA Branded Food Products Database Release December 2017 Software v.3.8.6.4 2017-10-02
Report Run at: December 17, 2017 19:19 EST
"Nutrient data for: 45220590, MEXICANO BRAND HORIZO, UPC: 628586350762"
Food Group:  Branded Food Products Database
Common Name:

Nutrient,Unit,Data points,Std. Error,"2.5 ONZ = 75.0g",1Value per 100 g,
Proximates
"Energy",kcal,--,--,190,253
"Protein",g,--,--,12.00,16.00
"Total lipid (fat)",g,--,--,16.00,21.33
"Carbohydrate, by difference",g,--,--,1.00,1.33
"Fiber, total dietary",g,--,--,0.0,0.0
"Sugars, total",g,--,--,1.00,1.33
Minerals
"Calcium, Ca",mg,--,--,0,0
"Iron, Fe",mg,--,--,0.53,0.70
"Sodium, Na",mg,--,--,400,533
Vitamins
"Vitamin C, total ascorbic acid",mg,--,--,0.9,1.2
"Vitamin A, IU",IU,--,--,0,0
Lipids
"Fatty acids, total saturated",g,--,--,6.997,9.330
"Fatty acids, total trans",g,--,--,0.000,0.000
"Cholesterol",mg,--,--,50,67
Amino Acids
Other
Ingredients
"PORK, SALT, SPICES, VINEGAR, PAPRIKA, RED PEPPER, CITRIC ACID, SODIUM CARBONATE" Date available: 07/14/2017 Date last updated by company: 07/14/2017
