Source: USDA Branded Food Products Database Release December 2017 Software v.3.8.6.4 2017-10-02
Report Run at: December 17, 2017 19:23 EST
"Nutrient data for: 45260611, MEXICAN STYLE QUESO DIP, UPC: 891499001247"
Food Group:  Branded Food Products Database
Common Name:

Nutrient,Unit,Data points,Std. Error,"2.0 Tbsp = 26.0g",1Value per 100 g,
Proximates
"Energy",kcal,--,--,70,269
"Protein",g,--,--,4.00,15.38
"Total lipid (fat)",g,--,--,6.00,23.08
"Carbohydrate, by difference",g,--,--,1.00,3.85
"Fiber, total dietary",g,--,--,0.0,0.0
"Sugars, total",g,--,--,1.00,3.85
Minerals
"Calcium, Ca",mg,--,--,100,385
"Iron, Fe",mg,--,--,0.00,0.00
"Sodium, Na",mg,--,--,180,692
Vitamins
"Vitamin C, total ascorbic acid",mg,--,--,0.0,0.0
"Vitamin A, IU",IU,--,--,577,2219
Lipids
"Fatty acids, total saturated",g,--,--,3.500,13.460
"Fatty acids, total trans",g,--,--,0.000,0.000
"Cholesterol",mg,--,--,15,58
Amino Acids
Other
Ingredients
"WHITE CHEESE [AMERICAN CHEESE (CULTURED MILK, SALT, ENZYMES), CREAM, SODIUM PHOSPHATE, SALT] REDUCED FAT MILK, JALAPENO PEPPER MIX (JALAPENO PEPPERS, WATER, VINEGAR, CARROTS, SALT, ONIONS, CANOLA OIL, SUGAR, SPICES AND GARLIC), CHIPOTLE CHILE PASTE." Date available: 07/14/2017 Date last updated by company: 07/14/2017
