Source: USDA Branded Food Products Database Release December 2017 Software v.3.8.6.4 2017-10-02
Report Run at: December 17, 2017 19:25 EST
"Nutrient data for: 45256400, MEZZALUNA RAVIOLI, UPC: 077886301590"
Food Group:  Branded Food Products Database
Common Name:

Nutrient,Unit,Data points,Std. Error,"10.0 PIECES = 142.0g",1Value per 100 g,
Proximates
"Energy",kcal,--,--,280,197
"Protein",g,--,--,12.00,8.45
"Total lipid (fat)",g,--,--,10.00,7.04
"Carbohydrate, by difference",g,--,--,36.00,25.35
"Fiber, total dietary",g,--,--,2.0,1.4
"Sugars, total",g,--,--,0.99,0.70
Minerals
"Calcium, Ca",mg,--,--,151,106
"Iron, Fe",mg,--,--,1.52,1.07
"Sodium, Na",mg,--,--,410,289
Vitamins
"Vitamin C, total ascorbic acid",mg,--,--,2.0,1.4
"Vitamin A, IU",IU,--,--,1480,1042
Lipids
"Fatty acids, total saturated",g,--,--,4.998,3.520
"Fatty acids, total trans",g,--,--,0.000,0.000
"Cholesterol",mg,--,--,45,32
Amino Acids
Other
Ingredients
"ENRICHED EXTRA FANCY DURUM FLOUR AND SEMOLINA (DURUM WHEAT FLOUR, SEMOLINA, NIACIN, IRON [FERROUS SULFATE], THIAMIN MONONITRATE, RIBOFLAVIN, FOLIC ACID), WATER, RICOTTA CHEESE (PASTEURIZED MILK, PASTEURIZED WHEY, PASTEURIZED CREAM, VINEGAR, STABILIZERS [XANTHAN GUM, LOCUST BEAN GUM, GUAR GUM]), BABY SPINACH, CREAM CHEESE (PASTEURIZED MILK AND CREAM, CHEESE CULTURE, SALT, STABILIZERS [CAROB BEAN GUM AND/OR XANTHAN GUM AND/OR GUAR GUMS]), LOW MOISTURE PART SKIM MOZZARELLA CHEESE (PASTEURIZED MILK, CHEESE CULTURES, SALT, ENZYMES), WHOLE EGGS, BREAD CRUMBS (BLEACHED WHEAT FLOUR, YEAST, SUGAR, SALT), FOOD STARCH-MODIFIED, SALT, DRIED EGG WHITES, SOYBEAN OIL, GARLIC, BETA CAROTENE." Date available: 08/10/2017 Date last updated by company: 08/10/2017
