Source: USDA Branded Food Products Database Release December 2017 Software v.3.8.6.4 2017-10-02
Report Run at: December 17, 2017 19:25 EST
"Nutrient data for: 45284034, MEZZALUNA RAVIOLI, UPC: 077886301460"
Food Group:  Branded Food Products Database
Common Name:

Nutrient,Unit,Data points,Std. Error,"10.0 PIECES = 142.0g",1Value per 100 g,
Proximates
"Energy",kcal,--,--,310,218
"Protein",g,--,--,14.00,9.86
"Total lipid (fat)",g,--,--,12.99,9.15
"Carbohydrate, by difference",g,--,--,33.99,23.94
"Fiber, total dietary",g,--,--,2.0,1.4
"Sugars, total",g,--,--,0.99,0.70
Minerals
"Calcium, Ca",mg,--,--,250,176
"Iron, Fe",mg,--,--,1.22,0.86
"Sodium, Na",mg,--,--,371,261
Vitamins
"Vitamin C, total ascorbic acid",mg,--,--,0.0,0.0
"Vitamin A, IU",IU,--,--,845,595
Lipids
"Fatty acids, total saturated",g,--,--,7.001,4.930
"Fatty acids, total trans",g,--,--,0.000,0.000
"Cholesterol",mg,--,--,65,46
Amino Acids
Other
Ingredients
"ENRICHED EXTRA FANCY DURUM FLOUR AND SEMOLINA (DURUM WHEAT FLOUR, SEMOLINA, NIACIN, IRON [FERROUS SULFATE], THIAMIN MONONITRATE, RIBOFLAVIN, FOLIC ACID), WATER, RICOTTA CHEESE (PASTEURIZED MILK, PASTEURIZED WHEY, PASTEURIZED CREAM, VINEGAR, STABILIZERS [XANTHAN GUM, LOCUST BEAN GUM, GUAR GUM]), ASIAGO CHEESE (PASTEURIZED MILK, CHEESE CULTURES, SALT, ENZYMES, POWDERED CELLULOSE TO PREVENT CAKING), WHOLE EGGS, LOW MOISTURE PART SKIM MOZZARELLA CHEESE (PASTEURIZED MILK, CHEESE CULTURES, SALT, ENZYMES), CREAM (CREAM, CARRAGEENAN), HALF & HALF (MILK, CREAM), FOOD STARCH-MODIFIED, SALT, BREAD CRUMBS (BLEACHED WHEAT FLOUR, YEAST, SUGAR, SALT), SPICES, DEHYDRATED PARSLEY, BETA CAROTENE." Date available: 08/10/2017 Date last updated by company: 08/10/2017
