Source: USDA Branded Food Products Database Release December 2017 Software v.3.8.6.4 2017-10-02
Report Run at: December 17, 2017 19:26 EST
"Nutrient data for: 45196402, MICHAEL ANGELO'S, LASAGNA WITH MEAT SAUCE, UPC: 037363986580"
Food Group:  Branded Food Products Database
Common Name:

Nutrient,Unit,Data points,Std. Error,"8.1 OZ = 227.0g",1Value per 100 g,
Proximates
"Energy",kcal,--,--,300,132
"Protein",g,--,--,18.00,7.93
"Total lipid (fat)",g,--,--,11.01,4.85
"Carbohydrate, by difference",g,--,--,33.01,14.54
"Fiber, total dietary",g,--,--,3.0,1.3
"Sugars, total",g,--,--,5.99,2.64
Minerals
"Calcium, Ca",mg,--,--,250,110
"Iron, Fe",mg,--,--,2.32,1.02
"Sodium, Na",mg,--,--,479,211
Vitamins
"Vitamin C, total ascorbic acid",mg,--,--,10.2,4.5
"Vitamin A, IU",IU,--,--,858,378
Lipids
"Fatty acids, total saturated",g,--,--,4.495,1.980
"Fatty acids, total trans",g,--,--,0.000,0.000
"Cholesterol",mg,--,--,54,24
Amino Acids
Other
Ingredients
"TOMATOES (TOMATOES, SALT), RICOTTA CHEESE (MILK [WHOLE & SKIM], VINEGAR SALT, MAY CONTAIN WHEY), WATER, PASTA (DURUM SEMOLINA), BEEF, MOZZARELLA CHEESE (PASTEURIZED MILK, CHEESE CULTURE, SALT, ENYZMES), ONION, EGG, IMPORTED ROMANO CHEESE (PASTEURIZED SHEEPS MILK, CULTURES, RENNET, SALT), SOY OIL, SPICES, SALT, OLIVE OIL, GARLIC." Date available: 08/07/2017 Date last updated by company: 08/07/2017
