Source: USDA Branded Food Products Database Release December 2017 Software v.3.8.6.4 2017-10-02
Report Run at: December 17, 2017 19:26 EST
"Nutrient data for: 45023537, MICHAEL ANGELO'S, EGGPLANT PARMESAN, UPC: 037363009128"
Food Group:  Branded Food Products Database
Common Name:

Nutrient,Unit,Data points,Std. Error,"1 TRAY = 312.0g",1Value per 100 g,
Proximates
"Energy",kcal,--,--,431,138
"Protein",g,--,--,21.00,6.73
"Total lipid (fat)",g,--,--,27.99,8.97
"Carbohydrate, by difference",g,--,--,25.99,8.33
"Fiber, total dietary",g,--,--,5.9,1.9
"Sugars, total",g,--,--,6.99,2.24
Minerals
"Calcium, Ca",mg,--,--,399,128
"Iron, Fe",mg,--,--,1.12,0.36
"Sodium, Na",mg,--,--,761,244
Vitamins
"Vitamin C, total ascorbic acid",mg,--,--,18.7,6.0
"Vitamin A, IU",IU,--,--,936,300
Lipids
"Fatty acids, total saturated",g,--,--,8.986,2.880
"Fatty acids, total trans",g,--,--,0.000,0.000
"Cholesterol",mg,--,--,109,35
Amino Acids
Other
Ingredients
"TOMATOES (TOMATOES, SALT, BASIL), EGGPLANT, MOZZARELLA CHEESE (PASTEURIZED MILK, CHEESE CULTURE, SALT, ENZYMES), EGG, WATER, SOY BEAN OIL, BREAD CRUMBS (WHEAT FLOUR, WHOLE WHEAT FLOUR, WHEY, SUGAR, SALT, ROMANO CHEESE [PART SKIM COW'S MILK, CHEESE CULTURE, SALT, ENZYMES], SOYBEAN OIL (AS A PROCESSING AID), YEAST, SPICE, GARLIC POWDER, ONION POWDER, DEHYDRATED PARSLEY, PAPRIKA), ENRICHED FLOUR (WHEAT FLOUR, MALTED BARLEY FLOUR, NIACIN, IRON (REDUCED), THIAMINE MONONITRATE, RIBOFLAVIN, FOLIC ACID), ONIONS, IMPORTED ROMANO CHEESE (PASTEURIZED SHEEP'S MILK, CULTURES, RENNET, SALT), SOY OIL, PARMESAN CHEESE (PASTEURIZED PART SKIM COW'S MILK, CHEESE CULTURES, SALT, ENZYMES), OLIVE OIL, SPICES, SALT, GARLIC, SUGAR." Date available: 10/15/2017 Date last updated by company: 10/15/2017
