Source: USDA Branded Food Products Database Release December 2017 Software v.3.8.6.4 2017-10-02
Report Run at: December 17, 2017 19:28 EST
"Nutrient data for: 45111617, MICHELINA'S, FOUR CHEESE LASAGNA, UPC: 717854105583"
Food Group:  Branded Food Products Database
Common Name:

Nutrient,Unit,Data points,Std. Error,"1 PACKAGE = 227.0g",1Value per 100 g,
Proximates
"Energy",kcal,--,--,270,119
"Protein",g,--,--,11.01,4.85
"Total lipid (fat)",g,--,--,5.99,2.64
"Carbohydrate, by difference",g,--,--,42.99,18.94
"Fiber, total dietary",g,--,--,3.0,1.3
"Sugars, total",g,--,--,4.99,2.20
Minerals
"Calcium, Ca",mg,--,--,150,66
"Iron, Fe",mg,--,--,2.32,1.02
"Sodium, Na",mg,--,--,529,233
Vitamins
"Vitamin C, total ascorbic acid",mg,--,--,7.7,3.4
"Vitamin A, IU",IU,--,--,645,284
Lipids
"Fatty acids, total saturated",g,--,--,2.996,1.320
"Fatty acids, total trans",g,--,--,0.000,0.000
"Cholesterol",mg,--,--,16,7
Amino Acids
Other
Ingredients
"COOKED ENRICHED PASTA (WATER, SEMOLINA [ENRICHED WITH NIACIN, FERROUS SULFATE, THIAMINE MONONITRATE, RIBOFLAVIN, FOLIC ACID]), DICED TOMATOES (TOMATOES, TOMATO JUICE, CALCIUM CHLORIDE, CITRIC ACID), WATER, TOMATO PASTE, LOW MOISTURE PART SKIM MOZZARELLA CHEESE (CHEESE {CULTURED PASTEURIZED PART SKIM MILK, SALT, ENZYMES], MODIFIED FOOD STARCH), PART SKIM RICOTTA CHEESE (WHEY, MILK, VINEGAR, CARRAGEENAN), CHEDDAR CHEESE (PASTEURIZED MILK, CHEESE CULTURES, SALT, ENZYMES, ANNATTO [COLOR]), ONIONS, PARMESAN CHEESE (PASTEURIZED PART SKIM MILK, CULTURES, SALT, ENZYMES), LESS THAN 1% OF: SALT, MALTODEXTRIN, GARLIC (WITH WATER AND CITRIC ACID), MARGARINE (LIQUID AND HYDROGENATED SOYBEAN OIL, WATER, SALT,VEGETABLE MONO AND DIGLYCERIDES, SOY LECITHIN, NATURAL AND ARTIFICIAL FLAVOR, BHA & BHT ADDED TO PROTECT FLAVOR, VITAMIN A PALMITATE AND VITAMIN D3 ADDED), SUGAR, MODIFIED FOOD STARCH, CANOLA OIL, SPICES, BEEF BASE (ROASTED BEEF AND CONCENTRATED BEEF STOCK, SALT, HYDROLYZED PLANT PROTEIN [SOY, CORN, WHEAT], CORN OIL, SUGAR, AUTOLYZED YEAST, FLAVORING, MALTODEXTRIN, DRIED WHEY, DEXTROSE, CARAMEL COLOR), XANTHAN GUM, EXTRACTIVES OF PAPRIKA AND NATURAL FLAVORS, GARLIC SALT (SALT, DEHYDRATED GARLIC)." Date available: 07/14/2017 Date last updated by company: 07/14/2017
