Source: USDA Branded Food Products Database Release December 2017 Software v.3.8.6.4 2017-10-02
Report Run at: December 17, 2017 19:31 EST
"Nutrient data for: 45282388, MICROWAVEABLE CHICKEN SANDWICH, UPC: 021130214501"
Food Group:  Branded Food Products Database
Common Name:

Nutrient,Unit,Data points,Std. Error,"1 SANDWICH = 157.0g",1Value per 100 g,
Proximates
"Energy",kcal,--,--,469,299
"Protein",g,--,--,16.00,10.19
"Total lipid (fat)",g,--,--,22.00,14.01
"Carbohydrate, by difference",g,--,--,50.99,32.48
"Fiber, total dietary",g,--,--,2.0,1.3
"Sugars, total",g,--,--,7.00,4.46
Minerals
"Calcium, Ca",mg,--,--,39,25
"Iron, Fe",mg,--,--,1.46,0.93
"Sodium, Na",mg,--,--,689,439
Vitamins
"Vitamin C, total ascorbic acid",mg,--,--,1.3,0.8
"Vitamin A, IU",IU,--,--,53,34
Lipids
"Fatty acids, total saturated",g,--,--,4.506,2.870
"Fatty acids, total trans",g,--,--,0.000,0.000
"Cholesterol",mg,--,--,39,25
Amino Acids
Other
Ingredients
"FULLY COOKED BREADED CHICKEN BREAST PATTY WITH RIB MEAT: CHICKEN BREAST WITH RIB MEAT, WATER, BLEACHED WHEAT FLOUR, BREAD CRUMBS (WHEAT FLOUR, YEAST, SUGAR, SALT), MODIFIED CORN STARCH, SALT, MODIFIED FOOD STARCH, SODIUM PHOSPHATE, SPICES, GARLIC POWDER, PAPRIKA, EXTRACTIVE OF PAPRIKA, SPICE EXTRACTIVES, LEAVENING (SODIUM ACID PYROPHOSPHATE, SODIUM BICARBONATE), DRIED EGG WHITES, WHEAT GLUTEN, DEXTROSE, NATURAL FLAVOR. SET IN VEGETABLE OIL. BUN: ENRICHED BLEACHED WHEAT FLOUR (WHEAT FLOUR, NIACIN, REDUCED IRON, THIAMINE MONONITRATE, RIBOFLAVIN, FOLIC ACID, ENZYME), WATER, SUGAR, SOYBEAN OIL, CONTAINS 2% OR LESS OF: YEAST (YEAST, SORBITAN MONOSTEARATE, ASCORBIC ACID), SALT, MONOGLYCERIDES WITH ASCORBIC ACID AND CITRIC ACID (ANTIOXIDANTS), CALCIUM PROPIONATE (PRESERVATIVE), CALCIUM SULFATE, ENZYMES, WHEAT STARCH, ASCORBIC ACID." Date available: 07/14/2017 Date last updated by company: 07/14/2017
