Source: USDA Branded Food Products Database Release December 2017 Software v.3.8.6.4 2017-10-02
Report Run at: December 17, 2017 19:32 EST
"Nutrient data for: 45036524, MICROWAVE POPCORN, UPC: 713733879620"
Food Group:  Branded Food Products Database
Common Name:

Nutrient,Unit,Data points,Std. Error,"4.5 CUPS POPPED) SERVINGS PER BAG ABOUT 2.5 | (MAKES ABOUT = 30.0g",1Value per 100 g,
Proximates
"Energy",kcal,--,--,160,533
"Protein",g,--,--,2.00,6.67
"Total lipid (fat)",g,--,--,11.00,36.67
"Carbohydrate, by difference",g,--,--,15.00,50.00
"Fiber, total dietary",g,--,--,3.0,10.0
Minerals
"Iron, Fe",mg,--,--,1.20,4.00
"Potassium, K",mg,--,--,200,667
"Sodium, Na",mg,--,--,300,1000
Vitamins
Lipids
"Fatty acids, total saturated",g,--,--,5.001,16.670
"Fatty acids, total trans",g,--,--,0.000,0.000
"Cholesterol",mg,--,--,0,0
Amino Acids
Other
Ingredients
"WHOLE GRAIN POPPING CORN, PALM OIL, SALT, POTASSIUM CHLORIDE, NATURAL BUTTER FLAVOR, ANNATTO COLORING AND CITRIC ACID." Date available: 09/11/2017 Date last updated by company: 09/11/2017
