Source: USDA Branded Food Products Database Release December 2017 Software v.3.8.6.4 2017-10-02
Report Run at: December 17, 2017 19:33 EST
"Nutrient data for: 45329849, MICROWAVE POPCORN, UPC: 866787000004"
Food Group:  Branded Food Products Database
Common Name:

Nutrient,Unit,Data points,Std. Error,"0.333 BAG = 28.0g",1Value per 100 g,
Proximates
"Energy",kcal,--,--,150,536
"Protein",g,--,--,2.00,7.14
"Total lipid (fat)",g,--,--,11.00,39.29
"Carbohydrate, by difference",g,--,--,13.00,46.43
"Fiber, total dietary",g,--,--,3.0,10.7
"Sugars, total",g,--,--,1.00,3.57
Minerals
"Calcium, Ca",mg,--,--,18,64
"Iron, Fe",mg,--,--,1.00,3.57
"Potassium, K",mg,--,--,70,250
"Sodium, Na",mg,--,--,320,1143
Vitamins
Lipids
"Fatty acids, total saturated",g,--,--,5.001,17.860
"Fatty acids, total trans",g,--,--,0.000,0.000
"Cholesterol",mg,--,--,0,0
Amino Acids
Other
Ingredients
"POPCORN, PALM OIL, SEASONINGS (ONION, SPICES (PEPPER, PARSLEY, CELERY SEED, GINGER, BASIL, BAY, MARJORAM, OREGANO), BELL PEPPERS, DEFATTED SOY GRITS, LEMON JUICE SOLIDS (CORN SYRUP SOLIDS, CITRIC ACID, NATURAL LEMON FLAVOR), GARLIC, FLAVORING, ORANGE AND LEMON PEEL), GARLIC SALT (SALT, GARLIC, NATURAL FLAVOR), BLACK PEPPER, ITALIAN SEASONING (WHOLE OREGANO, PARSLEY FLAKES, WHOLE THYME, WHOLE MARJORAM, ROSEMARY, SAGE, BASIL, SAVORY, BLACK PEPPER, GROUND NUTMEG), PAPRIKA, OREGANO." Date available: 10/04/2017 Date last updated by company: 10/04/2017
