Source: USDA Branded Food Products Database Release December 2017 Software v.3.8.6.4 2017-10-02
Report Run at: December 17, 2017 19:31 EST
"Nutrient data for: 45328771, MICROWAVABLE SOUP MIX, UPC: 760263100014"
Food Group:  Branded Food Products Database
Common Name:

Nutrient,Unit,Data points,Std. Error,"1 PACKET = 36.0g",1Value per 100 g,
Proximates
"Energy",kcal,--,--,150,417
"Protein",g,--,--,2.00,5.56
"Total lipid (fat)",g,--,--,6.00,16.67
"Carbohydrate, by difference",g,--,--,22.00,61.11
"Fiber, total dietary",g,--,--,0.0,0.0
"Sugars, total",g,--,--,7.00,19.44
Minerals
"Calcium, Ca",mg,--,--,60,167
"Iron, Fe",mg,--,--,1.50,4.17
"Sodium, Na",mg,--,--,890,2472
Vitamins
"Vitamin C, total ascorbic acid",mg,--,--,3.3,9.3
"Vitamin A, IU",IU,--,--,278,772
Lipids
"Fatty acids, total saturated",g,--,--,2.999,8.330
"Fatty acids, total trans",g,--,--,0.000,0.000
"Cholesterol",mg,--,--,0,0
Amino Acids
Other
Ingredients
"MODIFIED CORN STARCH, CORN SYRUP SOLIDS, WHEY, PALM OIL, BROCCOLI*, SALT, MALTODEXTRIN, ONION*, NATURAL AND ARTIFICIAL FLAVORS, MONOSODIUM GLUTAMATE, DIPOTASSIUM PHOSPHATE, SODIUM CASEINATE, MONO AND DIGLYCERIDES, SEA SALT, PARSLEY, XANTHAN GUM, DISODIUM PHOSPHATE, CHEDDAR CHEESE (PASTEURIZED MILK, CHEESE CULTURES, SALT, ENZYMES), DISODIUM INOSINATE AND DISODIUM GUANYLATE, WORCESTERSHIRE SAUCE* (DISTILLED VINEGAR, MOLASSES, SALT, CARAMEL COLOR, GARLIC, SUGAR, SPICES, TAMARIND, NATURAL FLAVOR, CORN SYRUP), BLUE CHEESE (PASTEURIZED MILK, CHEESE CULTURES, SALT, ENZYMES), YELLOW 5, YELLOW 6, YEAST EXTRACT, SPICE, ANNATTO EXTRACT (COLOR), CHICKEN FAT, TURMERIC EXTRACT (COLOR)." Date available: 10/13/2017 Date last updated by company: 10/13/2017
