Source: USDA Branded Food Products Database Release December 2017 Software v.3.8.6.4 2017-10-02
Report Run at: December 17, 2017 19:31 EST
"Nutrient data for: 45106263, MICROWAVABLE MAC & CHEESE, UPC: 00417181"
Food Group:  Branded Food Products Database
Common Name:

Nutrient,Unit,Data points,Std. Error,"1 PACKET, MAKES ABOUT 3/4 CUP = 61.0g",1Value per 100 g,
Proximates
"Energy",kcal,--,--,230,377
"Protein",g,--,--,9.00,14.75
"Total lipid (fat)",g,--,--,4.00,6.56
"Carbohydrate, by difference",g,--,--,39.00,63.93
"Fiber, total dietary",g,--,--,2.0,3.3
"Sugars, total",g,--,--,5.00,8.20
Minerals
"Calcium, Ca",mg,--,--,82,134
"Iron, Fe",mg,--,--,0.59,0.97
"Sodium, Na",mg,--,--,570,934
Vitamins
"Vitamin C, total ascorbic acid",mg,--,--,0.0,0.0
"Vitamin A, IU",IU,--,--,82,134
Lipids
"Fatty acids, total saturated",g,--,--,2.501,4.100
"Fatty acids, total trans",g,--,--,0.000,0.000
"Cholesterol",mg,--,--,10,16
Amino Acids
Other
Ingredients
"ORGANIC WHEAT MACARONI, CHEDDAR CHEESE (CULTURED PASTEURIZED MILK, SALT, MICROBIAL ENZYMES), WHEY, BUTTERMILK, CREAM, SALT, CORN STARCH, SODIUM PHOSPHATE." Date available: 08/18/2017 Date last updated by company: 08/18/2017
