Source: USDA Branded Food Products Database Release December 2017 Software v.3.8.6.4 2017-10-02
Report Run at: December 17, 2017 19:32 EST
"Nutrient data for: 45085062, MICROWAVE POPCORN, UPC: 856369004087"
Food Group:  Branded Food Products Database
Common Name:

Nutrient,Unit,Data points,Std. Error,"3.0 CUPS POPPED) | UNPOPPED (MAKES ABOUT = 33.0g",1Value per 100 g,
Proximates
"Energy",kcal,--,--,180,545
"Protein",g,--,--,3.00,9.09
"Total lipid (fat)",g,--,--,11.00,33.33
"Carbohydrate, by difference",g,--,--,17.00,51.52
"Fiber, total dietary",g,--,--,3.0,9.1
"Sugars, total",g,--,--,1.00,3.03
Minerals
"Calcium, Ca",mg,--,--,20,61
"Iron, Fe",mg,--,--,1.09,3.31
"Sodium, Na",mg,--,--,125,379
Vitamins
"Vitamin C, total ascorbic acid",mg,--,--,0.0,0.0
"Vitamin A, IU",IU,--,--,151,459
Lipids
"Fatty acids, total saturated",g,--,--,3.000,9.090
"Fatty acids, total monounsaturated",g,--,--,6.999,21.210
"Fatty acids, total polyunsaturated",g,--,--,2.000,6.060
"Fatty acids, total trans",g,--,--,0.000,0.000
"Cholesterol",mg,--,--,5,15
Amino Acids
Other
Ingredients
"ORGANIC POPCORN KERNELS*, HIGH OLEIC SUNFLOWER OIL, BUTTER POWDER (CREAM, SALT, BUTTERMILK), SEA SALT." Date available: 07/14/2017 Date last updated by company: 07/14/2017
