Source: USDA Branded Food Products Database Release December 2017 Software v.3.8.6.4 2017-10-02
Report Run at: December 17, 2017 19:36 EST
"Nutrient data for: 45156645, MIDWOOD BRANDS, GUMBALLS, UPC: 032251172588"
Food Group:  Branded Food Products Database
Common Name:

Nutrient,Unit,Data points,Std. Error,"3.0 PIECES = 4.0g",1Value per 100 g,
Proximates
"Energy",kcal,--,--,10,250
"Protein",g,--,--,0.00,0.00
"Total lipid (fat)",g,--,--,0.00,0.00
"Carbohydrate, by difference",g,--,--,3.00,75.00
"Fiber, total dietary",g,--,--,0.0,0.0
"Sugars, total",g,--,--,2.00,50.00
Minerals
"Calcium, Ca",mg,--,--,0,0
"Iron, Fe",mg,--,--,0.00,0.00
"Sodium, Na",mg,--,--,0,0
Vitamins
"Vitamin C, total ascorbic acid",mg,--,--,0.0,0.0
"Vitamin A, IU",IU,--,--,0,0
Lipids
"Fatty acids, total saturated",g,--,--,0.000,0.000
"Fatty acids, total trans",g,--,--,0.000,0.000
"Cholesterol",mg,--,--,0,0
Amino Acids
Other
Ingredients
"SUGAR, CHEWING GUM BASE, GLUCOSE SYRUP, DEXTROSE, CORN STARCH, MALTODEXTRIN, ARTIFICIAL FLAVOR, GUM ARABIC, CARNAUBA WAX, SOY LECITHIN, GLYCERIN, ARTIFICIAL COLOR (RED 40, BLUE 1, YELLOW 5), TITANIUM DIOXIDE (FOR COLOR)." Date available: 07/14/2017 Date last updated by company: 07/14/2017
