Source: USDA Branded Food Products Database Release December 2017 Software v.3.8.6.4 2017-10-02
Report Run at: December 17, 2017 19:37 EST
"Nutrient data for: 45159662, MIFRUT, MELON CONCENTRATE, UPC: 889529000162"
Food Group:  Branded Food Products Database
Common Name:

Nutrient,Unit,Data points,Std. Error,"236.0 ML = 8.0g",1Value per 100 g,
Proximates
"Energy",kcal,--,--,2,29
"Protein",g,--,--,0.00,0.00
"Total lipid (fat)",g,--,--,0.00,0.00
"Carbohydrate, by difference",g,--,--,0.47,5.83
"Fiber, total dietary",g,--,--,0.0,0.0
"Sugars, total",g,--,--,0.43,5.42
Minerals
"Calcium, Ca",mg,--,--,0,4
"Iron, Fe",mg,--,--,0.00,0.00
"Sodium, Na",mg,--,--,0,3
Vitamins
Lipids
"Fatty acids, total saturated",g,--,--,0.000,0.000
"Fatty acids, total trans",g,--,--,0.000,0.000
Amino Acids
Other
Ingredients
"FILTERED WATER, SUGAR CANE, MELON CONCENTRATE, APPLE PUREE, NATURAL FLAVOR, XANTHAN GUM, ACESULFAME POTASSIUM 0.04 G/L_ CITRIC ACID, ARABIG GUM, 0.01% SODIUM BENZOATE AND 0.01% POTASSIUM SORBATE AS PRESERVATIVES, SAIB, ESTHER GUM, CAPTRIN, SODIUM ERIOTRBATE, FD&C YELLOW #6 AND FD&C RED #40." Date available: 07/14/2017 Date last updated by company: 07/14/2017
