Source: USDA Branded Food Products Database Release December 2017 Software v.3.8.6.4 2017-10-02
Report Run at: December 17, 2017 19:40 EST
"Nutrient data for: 45141827, MIKESELL'S, POPCORN, CHEDDAR, UPC: 071104302277"
Food Group:  Branded Food Products Database
Common Name:

Nutrient,Unit,Data points,Std. Error,"1 ONZ = 28.0g",1Value per 100 g,
Proximates
"Energy",kcal,--,--,160,571
"Protein",g,--,--,2.00,7.14
"Total lipid (fat)",g,--,--,12.00,42.86
"Carbohydrate, by difference",g,--,--,11.00,39.29
"Fiber, total dietary",g,--,--,2.0,7.1
"Sugars, total",g,--,--,1.00,3.57
Minerals
"Calcium, Ca",mg,--,--,0,0
"Iron, Fe",mg,--,--,0.64,2.29
"Sodium, Na",mg,--,--,310,1107
Vitamins
"Vitamin C, total ascorbic acid",mg,--,--,0.0,0.0
"Vitamin A, IU",IU,--,--,0,0
Lipids
"Fatty acids, total saturated",g,--,--,1.999,7.140
"Fatty acids, total monounsaturated",g,--,--,2.999,10.710
"Fatty acids, total polyunsaturated",g,--,--,7.000,25.000
"Fatty acids, total trans",g,--,--,0.000,0.000
"Cholesterol",mg,--,--,0,0
Amino Acids
Other
Ingredients
"POPCORN, SOYBEAN OIL AND/OR CANOLA OIL, MALTODEXTRIN WHEY, CORN FLOUR, CHEDDAR AND BLUE CHEESE (PASTEURIZED MILK, SALT, ANNATTO EXTRACT, CHEESE CULTURE, ENZYMES), SALT, BUTTER (CREAM, WATER, SALT), BETA CAROTENE, FERROUS SULFATE, NATURAL & ARTIFICIAL FLAVOR, BUTTERMILK, MONOSODIUM GLUTAMATE, YELLOW 6, YELLOW 5, YELLOW 5 LAKE." Date available: 07/14/2017 Date last updated by company: 07/14/2017
