Source: USDA Branded Food Products Database Release December 2017 Software v.3.8.6.4 2017-10-02
Report Run at: December 17, 2017 19:40 EST
"Nutrient data for: 45241038, MILCA, RED POP ROJA SODA, UPC: 042997330333"
Food Group:  Branded Food Products Database
Common Name:

Nutrient,Unit,Data points,Std. Error,"1 CAN = 355.0g",1Value per 100 g,
Proximates
"Energy",kcal,--,--,209,59
"Protein",g,--,--,0.00,0.00
"Total lipid (fat)",g,--,--,0.00,0.00
"Carbohydrate, by difference",g,--,--,52.01,14.65
"Sugars, total",g,--,--,48.99,13.80
Minerals
"Sodium, Na",mg,--,--,46,13
Vitamins
Lipids
Amino Acids
Other
Ingredients
"CARBONATE WATER, HIGH FRUCTOSE CORN SYRUP, CITRIC ACID, ARTIFICIAL FLAVOR RED 40, SODIUM BENZOATE (AS A PRESERVATIVE)." Date available: 06/24/2017 Date last updated by company: 06/24/2017
