Source: USDA Branded Food Products Database Release December 2017 Software v.3.8.6.4 2017-10-02
Report Run at: December 17, 2017 19:46 EST
"Nutrient data for: 45330676, MILD ITALIAN SAUSAGE, UPC: 041130592423"
Food Group:  Branded Food Products Database
Common Name:

Nutrient,Unit,Data points,Std. Error,"3.0 ONZ = 84.0g",1Value per 100 g,
Proximates
"Energy",kcal,--,--,190,226
"Protein",g,--,--,14.00,16.67
"Total lipid (fat)",g,--,--,15.00,17.86
"Carbohydrate, by difference",g,--,--,0.00,0.00
Minerals
"Iron, Fe",mg,--,--,0.71,0.84
"Sodium, Na",mg,--,--,510,607
Vitamins
"Vitamin A, IU",IU,--,--,66,78
Lipids
"Fatty acids, total saturated",g,--,--,4.998,5.950
"Fatty acids, total trans",g,--,--,0.000,0.000
"Cholesterol",mg,--,--,55,65
Amino Acids
Other
Ingredients
"PORK, WATER, SEASONING (SALT, SPICES (INCLUDING FENNEL), PAPRIKA, DEXTROSE, GARLIC POWDER, BHA, BHT, CITRIC ACID)." Date available: 09/23/2017 Date last updated by company: 09/23/2017
