Source: USDA Branded Food Products Database Release December 2017 Software v.3.8.6.4 2017-10-02
Report Run at: December 17, 2017 19:48 EST
"Nutrient data for: 45268548, MILD VENISON STICKS, UPC: 793573929082"
Food Group:  Branded Food Products Database
Common Name:

Nutrient,Unit,Data points,Std. Error,"30.0 GRM = 30.0g",1Value per 100 g,
Proximates
"Energy",kcal,--,--,58,193
"Protein",g,--,--,6.00,20.00
"Total lipid (fat)",g,--,--,4.00,13.33
"Carbohydrate, by difference",g,--,--,0.00,0.00
"Fiber, total dietary",g,--,--,0.0,0.0
"Sugars, total",g,--,--,0.00,0.00
Minerals
"Calcium, Ca",mg,--,--,10,33
"Iron, Fe",mg,--,--,1.20,4.00
"Sodium, Na",mg,--,--,300,1000
Vitamins
"Vitamin C, total ascorbic acid",mg,--,--,0.0,0.0
"Vitamin A, IU",IU,--,--,0,0
Lipids
"Fatty acids, total saturated",g,--,--,1.500,5.000
"Cholesterol",mg,--,--,20,67
Amino Acids
Other
Ingredients
"VENISON, BEEF, WATER, SALT, SPICES (INCLUDING GROUND MUSTARD), SUGAR, GARLIC POWDER, ENCAPSULATED CITRIC ACID AND LACTIC AND NATURAL HICKORY SMOKE FLAVOR, CELERY JUICE POWDER AND SEA SALT. CHERRY POWDER" Date available: 07/14/2017 Date last updated by company: 07/14/2017
