Source: USDA Branded Food Products Database Release December 2017 Software v.3.8.6.4 2017-10-02
Report Run at: December 17, 2017 19:42 EST
"Nutrient data for: 45246103, MILD CHEDDAR CHEESE, UPC: 719283595379"
Food Group:  Branded Food Products Database
Common Name:

Nutrient,Unit,Data points,Std. Error,"1 SLICE = 22.0g",1Value per 100 g,
Proximates
"Energy",kcal,--,--,90,409
"Protein",g,--,--,5.00,22.73
"Total lipid (fat)",g,--,--,8.00,36.36
"Carbohydrate, by difference",g,--,--,1.00,4.55
"Fiber, total dietary",g,--,--,0.0,0.0
"Sugars, total",g,--,--,0.00,0.00
Minerals
"Calcium, Ca",mg,--,--,161,732
"Iron, Fe",mg,--,--,0.03,0.14
"Potassium, K",mg,--,--,15,68
"Sodium, Na",mg,--,--,150,682
Vitamins
"Vitamin A, IU",IU,--,--,282,1282
Lipids
"Fatty acids, total saturated",g,--,--,4.499,20.450
"Fatty acids, total trans",g,--,--,0.000,0.000
"Cholesterol",mg,--,--,20,91
Amino Acids
Other
Ingredients
"CULTURED PASTEURIZED MILK, SALT, ENZYMES, COLOR ADDED." Date available: 10/06/2017 Date last updated by company: 10/06/2017
