Source: USDA Branded Food Products Database Release December 2017 Software v.3.8.6.4 2017-10-02
Report Run at: December 17, 2017 20:16 EST
"Nutrient data for: 45011436, MILK & HONEY, TOASTED OATMEAL, CHERRY ALMOND MIX, UPC: 890864003015"
Food Group:  Branded Food Products Database
Common Name:

Nutrient,Unit,Data points,Std. Error,"1 CONTAINER = 75.0g",1Value per 100 g,
Proximates
"Energy",kcal,--,--,300,400
"Protein",g,--,--,7.00,9.33
"Total lipid (fat)",g,--,--,9.00,12.00
"Carbohydrate, by difference",g,--,--,48.00,64.00
"Fiber, total dietary",g,--,--,10.0,13.3
"Sugars, total",g,--,--,17.00,22.67
Minerals
"Calcium, Ca",mg,--,--,40,53
"Iron, Fe",mg,--,--,1.98,2.64
"Sodium, Na",mg,--,--,190,253
Vitamins
"Vitamin C, total ascorbic acid",mg,--,--,0.0,0.0
"Vitamin A, IU",IU,--,--,0,0
Lipids
"Fatty acids, total saturated",g,--,--,3.000,4.000
"Fatty acids, total monounsaturated",g,--,--,2.002,2.670
"Fatty acids, total polyunsaturated",g,--,--,3.998,5.330
"Fatty acids, total trans",g,--,--,0.000,0.000
"Cholesterol",mg,--,--,0,0
Amino Acids
Other
Ingredients
"ROLLED OATS, ALMONDS, COCONUT, BROWN SUGAR, WHEAT GERM, CINNAMON, VANILLA, SALT, DRIED CHERRIES." Date available: 09/26/2017 Date last updated by company: 09/26/2017
