Source: USDA Branded Food Products Database Release December 2017 Software v.3.8.6.4 2017-10-02
Report Run at: December 17, 2017 20:00 EST
"Nutrient data for: 45134138, Milk Chocolate Fudge, #10 can, UNPREPARED, GTIN: 00027000220405"
Food Group:  Branded Food Products Database
Common Name:

Nutrient,Unit,Data points,Std. Error,"2.0 tbsp (37g) = 37.0g",1Value per 100 g,
Proximates
"Energy",kcal,--,--,130,351
"Protein",g,--,--,2.00,5.41
"Total lipid (fat)",g,--,--,3.00,8.11
"Carbohydrate, by difference",g,--,--,22.00,59.46
"Fiber, total dietary",g,--,--,1.0,2.7
"Sugars, total",g,--,--,15.00,40.54
Minerals
"Calcium, Ca",mg,--,--,40,108
"Iron, Fe",mg,--,--,1.80,4.86
"Potassium, K",mg,--,--,105,284
"Sodium, Na",mg,--,--,60,162
Vitamins
"Vitamin C, total ascorbic acid",mg,--,--,0.0,0.0
"Vitamin A, IU",IU,--,--,0,0
Lipids
"Fatty acids, total saturated",g,--,--,2.501,6.760
"Fatty acids, total monounsaturated",g,--,--,0.000,0.000
"Fatty acids, total polyunsaturated",g,--,--,0.000,0.000
"Fatty acids, total trans",g,--,--,0.000,0.000
"Cholesterol",mg,--,--,0,0
Amino Acids
Other
Ingredients
"Nonfat Milk, Corn Syrup, Sugar, Hydrogenated Coconut Oil, Cocoa, less than 2% of: Modified Corn Starch, Salt, Sodium Bicarbonate, Artificial Flavor, Potassium Sorbate (Preservative), Barley Malt Extract. CONTAINS: MILK." Date available: 10/12/2017 Date last updated by company: 10/12/2017
