Source: USDA Branded Food Products Database Release December 2017 Software v.3.8.6.4 2017-10-02
Report Run at: December 17, 2017 20:13 EST
"Nutrient data for: 45047376, MILK CHOCOLATE WITH HAZELNUTS, UPC: 666785203502"
Food Group:  Branded Food Products Database
Common Name:

Nutrient,Unit,Data points,Std. Error,"1 PACKAGE = 48.0g",1Value per 100 g,
Proximates
"Energy",kcal,--,--,290,604
"Protein",g,--,--,4.00,8.33
"Total lipid (fat)",g,--,--,21.00,43.75
"Carbohydrate, by difference",g,--,--,19.00,39.58
"Fiber, total dietary",g,--,--,2.0,4.2
"Sugars, total",g,--,--,18.00,37.50
Minerals
"Calcium, Ca",mg,--,--,20,42
"Iron, Fe",mg,--,--,0.00,0.00
"Sodium, Na",mg,--,--,20,42
Vitamins
"Vitamin C, total ascorbic acid",mg,--,--,0.0,0.0
"Vitamin A, IU",IU,--,--,0,0
Lipids
"Fatty acids, total saturated",g,--,--,9.000,18.750
"Fatty acids, total trans",g,--,--,0.000,0.000
"Cholesterol",mg,--,--,5,10
Amino Acids
Other
Ingredients
"CHOCOLATE LIQUOR, SUGAR, COCOA BUTTER, MILK, HAZELNUTS, LECITHIN AND EMULSIFIER" Date available: 06/24/2017 Date last updated by company: 06/24/2017
