Source: USDA Branded Food Products Database Release December 2017 Software v.3.8.6.4 2017-10-02
Report Run at: December 17, 2017 19:56 EST
"Nutrient data for: 45198973, MILK CHOCOLATE COVERED CRISPY TREATS, UPC: 085239110232"
Food Group:  Branded Food Products Database
Common Name:

Nutrient,Unit,Data points,Std. Error,"1 PIECE = 34.0g",1Value per 100 g,
Proximates
"Energy",kcal,--,--,170,500
"Protein",g,--,--,1.00,2.94
"Total lipid (fat)",g,--,--,9.00,26.47
"Carbohydrate, by difference",g,--,--,21.00,61.76
"Fiber, total dietary",g,--,--,1.0,2.9
"Sugars, total",g,--,--,15.00,44.12
Minerals
"Calcium, Ca",mg,--,--,20,59
"Iron, Fe",mg,--,--,2.65,7.79
"Sodium, Na",mg,--,--,50,147
Vitamins
"Vitamin C, total ascorbic acid",mg,--,--,3.5,10.4
"Vitamin A, IU",IU,--,--,147,432
Lipids
"Fatty acids, total saturated",g,--,--,6.001,17.650
"Fatty acids, total trans",g,--,--,0.000,0.000
"Cholesterol",mg,--,--,5,15
Amino Acids
Other
Ingredients
"MILK CHOCOLATE {SUGAR, COCOA BUTTER, CHOCOLATE LIQUOR, MILK POWDER, SOY LECITHIN, VANILLA), CRISP RICE FLOUR, SUGAR, BARLEY MALT EXTRACT, SALT, DISTILLED MONOGLYCERIDES, PARTIALLY HYDROGENATED VEGETARIAN OILS [COTTONSEED AND SOYBEANS], RICE EXTRACT), MARSHMALLOW CREME (CORN SYRUP, SUGAR, DRIED EGG WHITE, VANILLIN, CREAM OF TARTAR, XANTHAN GUM, BLUE 1), MARSHMALLOW (CORN SYRUP, MODIFIED CORNSTARCH, SUGAR, GELATIN, TETRASODIUM PYROPHOSPHATE), WHITE CHOCOLATE (SUGAR, COCOA BUTTER, WHOLE MILK POWDER, SOY LECITHIN, VANILLA), BUTTER (SWEET CREAM, SALT), COLOR ADDED (WATER, HIGH FRUCTOSE CORN SYRUP, GLYCERINE, SUGAR, MODIFIED FOOD STARCH, RED 3, BLUE 1, SODIUM BENZOATE AND POTASSIUM SORBATE [PRESERVATIVES], CARRAGEENAN, GUM, CITRIC ACID, XANTHAN GUM, SOY LECITHIN, PROPYLENE GLYCOL, RED 3, TURMERIC)." Date available: 07/14/2017 Date last updated by company: 07/14/2017
