Source: USDA Branded Food Products Database Release December 2017 Software v.3.8.6.4 2017-10-02
Report Run at: December 17, 2017 20:05 EST
"Nutrient data for: 45269118, MILK CHOCOLATE SANTA, UPC: 839425001398"
Food Group:  Branded Food Products Database
Common Name:

Nutrient,Unit,Data points,Std. Error,"1.5 ONZ = 43.0g",1Value per 100 g,
Proximates
"Energy",kcal,--,--,230,535
"Protein",g,--,--,3.00,6.98
"Total lipid (fat)",g,--,--,15.00,34.88
"Carbohydrate, by difference",g,--,--,24.00,55.81
"Fiber, total dietary",g,--,--,1.0,2.3
"Sugars, total",g,--,--,22.00,51.16
Minerals
"Calcium, Ca",mg,--,--,80,186
"Iron, Fe",mg,--,--,1.67,3.89
"Sodium, Na",mg,--,--,30,70
Vitamins
"Vitamin C, total ascorbic acid",mg,--,--,0.0,0.0
"Vitamin A, IU",IU,--,--,0,0
Lipids
"Fatty acids, total saturated",g,--,--,9.000,20.930
"Fatty acids, total trans",g,--,--,0.000,0.000
"Cholesterol",mg,--,--,10,23
Amino Acids
Other
Ingredients
"MILK CHOCOLATE (SUGAR, COCOA BUTTER, UNSWEETENED CHOCOLATE, WHOLE MILK POWDER, NON FAT DRY MILK, MILKFAT, SOY LECITHIN - ADDED AS AN EMULSIFIER, NATURAL VANILLA EXTRACT)." Date available: 07/14/2017 Date last updated by company: 07/14/2017
