Source: USDA Branded Food Products Database Release December 2017 Software v.3.8.6.4 2017-10-02
Report Run at: December 17, 2017 20:12 EST
"Nutrient data for: 45286092, MILK CHOCOLATE WITH CANDY WONDER BALL, UPC: 041376100864"
Food Group:  Branded Food Products Database
Common Name:

Nutrient,Unit,Data points,Std. Error,"1 PACKAGE = 28.0g",1Value per 100 g,
Proximates
"Energy",kcal,--,--,140,500
"Protein",g,--,--,1.00,3.57
"Total lipid (fat)",g,--,--,6.00,21.43
"Carbohydrate, by difference",g,--,--,20.00,71.43
"Fiber, total dietary",g,--,--,0.0,0.0
"Sugars, total",g,--,--,17.00,60.71
Minerals
"Calcium, Ca",mg,--,--,0,0
"Iron, Fe",mg,--,--,0.00,0.00
"Sodium, Na",mg,--,--,30,107
Vitamins
"Vitamin C, total ascorbic acid",mg,--,--,0.0,0.0
"Vitamin A, IU",IU,--,--,0,0
Lipids
"Fatty acids, total saturated",g,--,--,4.001,14.290
"Fatty acids, total trans",g,--,--,0.000,0.000
"Cholesterol",mg,--,--,0,0
Amino Acids
Other
Ingredients
"MILK CHOCOLATE (SUGAR, COCOA BUTTER, COCOA MASS, WHEY (MILK), SKIMMED MILK POWDER, WHOLE MILK POWDER, SUNFLOWER LECITHIN (AN EMULSIFIER), VANILLIN (AN ARTIFICIAL FLAVOR), DEXTROSE, MALTODEXTRIN, MALIC ACID, CORN SYRUP, NATURAL AND ARTIFICIAL FLAVORS, MAGNESIUM STEARATE, ARTIFICIAL COLORS (RED 40, BLUE 1, YELLOW 5, YELLOW 6)." Date available: 07/14/2017 Date last updated by company: 07/14/2017
