Source: USDA Branded Food Products Database Release December 2017 Software v.3.8.6.4 2017-10-02
Report Run at: December 17, 2017 20:21 EST
"Nutrient data for: 45235542, MILKWISE, ORIGINAL MILK BEVERAGE, UPC: 044100151316"
Food Group:  Branded Food Products Database
Common Name:

Nutrient,Unit,Data points,Std. Error,"1 cup = 240.0g",1Value per 100 g,
Proximates
"Energy",kcal,--,--,70,29
"Protein",g,--,--,3.00,1.25
"Total lipid (fat)",g,--,--,2.50,1.04
"Carbohydrate, by difference",g,--,--,9.00,3.75
"Fiber, total dietary",g,--,--,0.0,0.0
"Sugars, total",g,--,--,7.99,3.33
Minerals
"Calcium, Ca",mg,--,--,451,188
"Iron, Fe",mg,--,--,0.00,0.00
"Sodium, Na",mg,--,--,149,62
Vitamins
"Vitamin C, total ascorbic acid",mg,--,--,0.0,0.0
"Vitamin A, IU",IU,--,--,0,0
"Vitamin D",IU,--,--,101,42
Lipids
"Fatty acids, total saturated",g,--,--,1.488,0.620
"Fatty acids, total trans",g,--,--,0.000,0.000
"Cholesterol",mg,--,--,10,4
Amino Acids
Other
Ingredients
"WATER, LOWFAT MILK, SUGAR, CALCIUM CARBONATE, SALT, GELLAN GUM, NATURAL FLAVORS AND VITAMIN D3." Date available: 07/14/2017 Date last updated by company: 07/14/2017
