Source: USDA Branded Food Products Database Release December 2017 Software v.3.8.6.4 2017-10-02
Report Run at: December 17, 2017 19:52 EST
"Nutrient data for: 45287546, MILK CHOCOLATE BUNNY, UPC: 747599401251"
Food Group:  Branded Food Products Database
Common Name:

Nutrient,Unit,Data points,Std. Error,"2.0 PIECES = 20.0g",1Value per 100 g,
Proximates
"Energy",kcal,--,--,100,500
"Protein",g,--,--,1.00,5.00
"Total lipid (fat)",g,--,--,5.00,25.00
"Carbohydrate, by difference",g,--,--,12.00,60.00
"Fiber, total dietary",g,--,--,0.5,2.5
"Sugars, total",g,--,--,11.00,55.00
Minerals
"Calcium, Ca",mg,--,--,20,100
"Iron, Fe",mg,--,--,0.90,4.50
"Sodium, Na",mg,--,--,30,150
Vitamins
"Vitamin C, total ascorbic acid",mg,--,--,0.0,0.0
"Vitamin A, IU",IU,--,--,0,0
Lipids
"Fatty acids, total saturated",g,--,--,3.000,15.000
"Fatty acids, total trans",g,--,--,0.000,0.000
"Cholesterol",mg,--,--,5,25
Amino Acids
Other
Ingredients
"SUGAR, WHOLE MILK POWDER, CORN SYRUP, COCOA BUTTER, UNSWEETENED CHOCOLATE, SWEETENED CONDENSED MILK (PASTEURIZED MILK, SUGAR), PALM OIL, WATER, BUTTER (CREAM, SALT), NATURAL AND ARTIFICIAL FLAVOR, DISODIUM PHOSPHATE, SALT, SOY LECITHIN - AN EMULSIFIER, SORBITOL, POTASSIUM SORBATE, VANILLA, CITRIC ACID AND TBHQ - AS PRESERVATIVES." Date available: 07/14/2017 Date last updated by company: 07/14/2017
