Source: USDA Branded Food Products Database Release December 2017 Software v.3.8.6.4 2017-10-02
Report Run at: December 17, 2017 20:10 EST
"Nutrient data for: 45268172, MILK CHOCOLATE, UPC: 731427527916"
Food Group:  Branded Food Products Database
Common Name:

Nutrient,Unit,Data points,Std. Error,"2.0 PIECES = 38.0g",1Value per 100 g,
Proximates
"Energy",kcal,--,--,150,395
"Protein",g,--,--,1.00,2.63
"Total lipid (fat)",g,--,--,6.00,15.79
"Carbohydrate, by difference",g,--,--,22.00,57.89
"Fiber, total dietary",g,--,--,0.0,0.0
"Sugars, total",g,--,--,18.00,47.37
Minerals
"Calcium, Ca",mg,--,--,40,105
"Iron, Fe",mg,--,--,0.47,1.25
"Sodium, Na",mg,--,--,115,303
Vitamins
"Vitamin C, total ascorbic acid",mg,--,--,0.0,0.0
"Vitamin A, IU",IU,--,--,0,0
Lipids
"Fatty acids, total saturated",g,--,--,4.001,10.530
"Fatty acids, total trans",g,--,--,0.000,0.000
"Cholesterol",mg,--,--,5,13
Amino Acids
Other
Ingredients
"CARAMEL (EVAPORATED MILK) [MILK, DIPOTASSIUM PHOSPHATE, CARRAGEENAN, VITAMIN D3], CORN SYRUP, SUGAR, INVERT SUGAR, HEAVY CREAM, NON-HYDROGENATED PALM KERNEL OIL [WITH CITRIC ACID ADDED FOR FRESHNESS], SWEET BUTTER [CREAM, NATURAL FLAVOR], VANILLA EXTRACT), MILK CHOCOLATE (SUGAR, COCOA BUTTER, UNSWEETENED CHOCOLATE, WHOLE MILK POWDER, SOY LECITHIN [EMULSIFIER], VANILLA EXTRACT), HIMALAYAN PINK SEA SALT." Date available: 07/14/2017 Date last updated by company: 07/14/2017
