Source: USDA Branded Food Products Database Release December 2017 Software v.3.8.6.4 2017-10-02
Report Run at: December 17, 2017 19:52 EST
"Nutrient data for: 45142320, MILK CHOCOLATE BISCOTTINI, UPC: 020439049463"
Food Group:  Branded Food Products Database
Common Name:

Nutrient,Unit,Data points,Std. Error,"0.25 cup = 40.0g",1Value per 100 g,
Proximates
"Energy",kcal,--,--,200,500
"Protein",g,--,--,2.00,5.00
"Total lipid (fat)",g,--,--,10.00,25.00
"Carbohydrate, by difference",g,--,--,27.00,67.50
"Fiber, total dietary",g,--,--,1.0,2.5
"Sugars, total",g,--,--,21.00,52.50
Minerals
"Calcium, Ca",mg,--,--,40,100
"Iron, Fe",mg,--,--,0.90,2.25
"Sodium, Na",mg,--,--,55,138
Vitamins
"Vitamin C, total ascorbic acid",mg,--,--,0.0,0.0
"Vitamin A, IU",IU,--,--,0,0
Lipids
"Fatty acids, total saturated",g,--,--,5.000,12.500
"Fatty acids, total trans",g,--,--,0.000,0.000
"Cholesterol",mg,--,--,5,12
Amino Acids
Other
Ingredients
"PURE MILK CHOCOLATE [CONTAINS: SUGAR, COCOA BUTTER, MILK, COCOA MASS, SOY LECITHIN (AN EMULSIFIER), VANILLA], ENRICHED FLOUR (WHEAT FLOUR, NIACIN, REDUCED IRON, THIAMINE MONONITRATE, RIBOFLAVIN, FOLIC ACID), SUGAR, VEGETABLE OIL SHORTENING (PARTIALLY HYDROGENATED SOYBEAN AND/OR COTTON SEED OILS), HIGH FRUCTOSE CORN SYRUP, MOLASSES, CINNAMON, SALT, SODIUM BICARBONATE, GINGER, ALLSPICE, SOY LECITHIN., CONFECTIONER'S GLAZE, GUM ARABIC, GROUND CINNAMON" Date available: 07/14/2017 Date last updated by company: 07/14/2017
