Source: USDA Branded Food Products Database Release December 2017 Software v.3.8.6.4 2017-10-02
Report Run at: December 17, 2017 20:17 EST
"Nutrient data for: 45081739, MILKSHAKES, UPC: 076310681017"
Food Group:  Branded Food Products Database
Common Name:

Nutrient,Unit,Data points,Std. Error,"11.5 OZA = 255.0g",1Value per 100 g,
Proximates
"Energy",kcal,--,--,441,173
"Protein",g,--,--,7.01,2.75
"Total lipid (fat)",g,--,--,12.01,4.71
"Carbohydrate, by difference",g,--,--,78.00,30.59
"Fiber, total dietary",g,--,--,1.0,0.4
"Sugars, total",g,--,--,72.01,28.24
Minerals
"Calcium, Ca",mg,--,--,250,98
"Iron, Fe",mg,--,--,0.51,0.20
"Sodium, Na",mg,--,--,135,53
Vitamins
"Vitamin C, total ascorbic acid",mg,--,--,0.8,0.3
"Vitamin A, IU",IU,--,--,283,111
Lipids
"Fatty acids, total saturated",g,--,--,8.007,3.140
"Fatty acids, total trans",g,--,--,0.000,0.000
"Cholesterol",mg,--,--,36,14
Amino Acids
Other
Ingredients
"SKIM MILK, SUGAR, CREAM, CORN SYRUP, HIGH FRUCTOSE CORN SYRUP, WATER, COCOA, WHEY, NATURAL FLAVORS, STABILIZER (GUAR GUM, CARRAGEENAN), SALT, CELLULOSE GUM, CARAMEL COLOR, ARTIFICIAL FLAVORS." Date available: 07/14/2017 Date last updated by company: 07/14/2017
