Source: USDA Branded Food Products Database Release December 2017 Software v.3.8.6.4 2017-10-02
Report Run at: December 17, 2017 20:06 EST
"Nutrient data for: 45249981, MILK CHOCOLATE TRAIL MIX, UPC: 041770333707"
Food Group:  Branded Food Products Database
Common Name:

Nutrient,Unit,Data points,Std. Error,"1.4 ONZ = 40.0g",1Value per 100 g,
Proximates
"Energy",kcal,--,--,210,525
"Protein",g,--,--,3.00,7.50
"Total lipid (fat)",g,--,--,13.00,32.50
"Carbohydrate, by difference",g,--,--,22.00,55.00
"Fiber, total dietary",g,--,--,1.0,2.5
"Sugars, total",g,--,--,19.00,47.50
Minerals
"Calcium, Ca",mg,--,--,80,200
"Iron, Fe",mg,--,--,0.90,2.25
"Sodium, Na",mg,--,--,50,125
Vitamins
"Vitamin C, total ascorbic acid",mg,--,--,0.0,0.0
"Vitamin A, IU",IU,--,--,0,0
Lipids
"Fatty acids, total saturated",g,--,--,7.000,17.500
"Fatty acids, total trans",g,--,--,0.000,0.000
"Cholesterol",mg,--,--,10,25
Amino Acids
Other
Ingredients
"MILK CHOCOLATE (SUGAR, COCOA BUTTER, WHOLE MILK POWDER, UNSWEETENED CHOCOLATE (COCOA MASS), SKIM MILK POWDER, MILK FAT, SOY LECITHIN (EMULSIFIER), VANILLA (NATURAL FLAVOR)), BANANA PUREE, DRY ROASTED PEANUTS, SUNFLOWER SEEDS (SUNFLOWER KERNELS, SUNFLOWER OIL, SALT), PRETZEL TWISTS (ENRICHED WHEAT FLOUR (WHEAT FLOUR, NIACIN, REDUCED IRON, THIAMIN MONONITRATE, RIBOFLAVIN, FOLIC ACID), SALT, LESS THAN 2% OF (CANOLA AND/OR SOYBEAN OIL, CORN SYRUP, BARLEY MALT EXTRACT, LEAVENING (CONTAINS ONE OR MORE OF: YEAST, SODIUM BICARBONATE, AMMONIUM BICARBONATE)))." Date available: 07/14/2017 Date last updated by company: 07/14/2017
