Source: USDA Branded Food Products Database Release December 2017 Software v.3.8.6.4 2017-10-02
Report Run at: December 17, 2017 20:12 EST
"Nutrient data for: 45325894, MILK CHOCOLATE, UPC: 8435070421516"
Food Group:  Branded Food Products Database
Common Name:

Nutrient,Unit,Data points,Std. Error,"25.0 GRM = 25.0g",1Value per 100 g,
Proximates
"Energy",kcal,--,--,141,564
"Protein",g,--,--,2.00,8.00
"Total lipid (fat)",g,--,--,10.00,40.00
"Carbohydrate, by difference",g,--,--,11.00,44.00
"Fiber, total dietary",g,--,--,1.0,4.0
"Sugars, total",g,--,--,11.00,44.00
Minerals
"Calcium, Ca",mg,--,--,360,1440
"Iron, Fe",mg,--,--,0.36,1.44
"Sodium, Na",mg,--,--,14,56
Vitamins
"Vitamin C, total ascorbic acid",mg,--,--,0.1,0.5
"Vitamin A, IU",IU,--,--,30,120
Lipids
"Fatty acids, total saturated",g,--,--,7.000,28.000
"Fatty acids, total trans",g,--,--,0.000,0.000
"Cholesterol",mg,--,--,2,8
Amino Acids
Other
Ingredients
"COCOA BUTTER, SUGAR, COCOA MASS, LEMON CRISPY (10%) (LEMON, SUCROSE, FRUCTOSE, ACIDITY REGULATOR (CITRIC ACID), NATURAL LEMON FLAVOR WITH OTHER NATURAL FLAVORS), WHOLE MILK POWDER, SKIMMED MILK POWDER, JUNIPER (0.5%), EMULSIFIER (SOYA LECITHIN), NATURAL VANILLA FLAVOR. COCOA: 47% MINIMUM." Date available: 08/11/2017 Date last updated by company: 08/11/2017
