Source: USDA Branded Food Products Database Release December 2017 Software v.3.8.6.4 2017-10-02
Report Run at: December 17, 2017 20:01 EST
"Nutrient data for: 45279703, MILK CHOCOLATE HOT COCOA MIX, UPC: 041268193226"
Food Group:  Branded Food Products Database
Common Name:

Nutrient,Unit,Data points,Std. Error,"8.0 FL OZ (240ML) PREPARED = 35.0g",1Value per 100 g,
Proximates
"Energy",kcal,--,--,140,400
"Protein",g,--,--,2.00,5.71
"Total lipid (fat)",g,--,--,1.50,4.29
"Carbohydrate, by difference",g,--,--,30.00,85.71
"Fiber, total dietary",g,--,--,1.0,2.9
"Sugars, total",g,--,--,27.00,77.14
Minerals
"Calcium, Ca",mg,--,--,60,171
"Iron, Fe",mg,--,--,1.03,2.94
"Sodium, Na",mg,--,--,180,514
Vitamins
"Vitamin C, total ascorbic acid",mg,--,--,0.0,0.0
"Vitamin A, IU",IU,--,--,0,0
Lipids
"Fatty acids, total saturated",g,--,--,0.000,0.000
"Fatty acids, total trans",g,--,--,0.000,0.000
"Cholesterol",mg,--,--,0,0
Amino Acids
Other
Ingredients
"SUGAR, WHEY, CORN SYRUP SOLIDS, COCOA (PROCESSED WITH ALKALI), MARSHMALLOWS (SUGAR, CORN SYRUP, MODIFIED CORN STARCH, GELATIN, ARTIFICIAL FLAVOR), NONFAT MILK, PARTIALLY HYDROGENATED SOYBEAN OIL, CONTAINS 2% OR LESS OF: WHEY PROTEIN CONCENTRATE, SALT, SODIUM CASEINATE, DIPOTASSIUM PHOSPHATE, EMULSIFIER (MONO- AND DIGLYCERIDES), ARTIFICIAL FLAVOR." Date available: 07/14/2017 Date last updated by company: 07/14/2017
