Source: USDA Branded Food Products Database Release December 2017 Software v.3.8.6.4 2017-10-02
Report Run at: December 17, 2017 19:54 EST
"Nutrient data for: 45318403, MILK CHOCOLATE, CHOCOLATE CANDIES, UPC: 040000416487"
Food Group:  Branded Food Products Database
Common Name:

Nutrient,Unit,Data points,Std. Error,"1.5 ONZ = 42.0g",1Value per 100 g,
Proximates
"Energy",kcal,--,--,200,476
"Protein",g,--,--,2.00,4.76
"Total lipid (fat)",g,--,--,8.00,19.05
"Carbohydrate, by difference",g,--,--,31.00,73.81
"Fiber, total dietary",g,--,--,1.0,2.4
"Sugars, total",g,--,--,27.00,64.29
Minerals
"Calcium, Ca",mg,--,--,40,95
"Iron, Fe",mg,--,--,0.43,1.02
"Sodium, Na",mg,--,--,30,71
Vitamins
Lipids
"Fatty acids, total saturated",g,--,--,4.998,11.900
"Fatty acids, total trans",g,--,--,0.000,0.000
"Cholesterol",mg,--,--,5,12
Amino Acids
Other
Ingredients
"MILK CHOCOLATE (SUGAR, CHOCOLATE, SKIM MILK, COCOA BUTTER, LACTOSE, MILKFAT, SOY LECITHIN, SALT, ARTIFICIAL FLAVORS), SUGAR, CORNSTARCH, LESS THAN 1% - CORN SYRUP, DEXTRIN, COLORING (INCLUDES BLUE 1, YELLOW 5, YELLOW 6, RED 40, YELLOW 5 LAKE, BLUE 1 LAKE, YELLOW 6 LAKE, RED 40 LAKE, BLUE 2 LAKE, BLUE 2), GUM ACACIA." Date available: 07/14/2017 Date last updated by company: 07/14/2017
