Source: USDA Branded Food Products Database Release December 2017 Software v.3.8.6.4 2017-10-02
Report Run at: December 17, 2017 20:16 EST
"Nutrient data for: 45288967, MILKIS CARBONATED DRINK, UPC: 8801056791018"
Food Group:  Branded Food Products Database
Common Name:

Nutrient,Unit,Data points,Std. Error,"1 CAN = 250.0g",1Value per 100 g,
Proximates
"Energy",kcal,--,--,130,52
"Protein",g,--,--,0.00,0.00
"Total lipid (fat)",g,--,--,0.00,0.00
"Carbohydrate, by difference",g,--,--,30.00,12.00
"Sugars, total",g,--,--,30.00,12.00
Minerals
"Sodium, Na",mg,--,--,10,4
Vitamins
Lipids
Amino Acids
Other
Ingredients
"FILTERED WATER, SUGAR, CARBON DIOXIDE, POWDERED SKIM MILK, CITRIC ACID, STRAWBERRY FLAVOR, SOYBEAN POLYSACCHARIDE, PHOSPHORIC ACID, FD&C RED #40, YELLOW #6" Date available: 10/06/2017 Date last updated by company: 10/06/2017
