Source: USDA Branded Food Products Database Release December 2017 Software v.3.8.6.4 2017-10-02
Report Run at: December 17, 2017 20:16 EST
"Nutrient data for: 45158744, MILKITA, MILKSHAKE CANDY, BANANA, UPC: 882095222945"
Food Group:  Branded Food Products Database
Common Name:

Nutrient,Unit,Data points,Std. Error,"4.0 PIECES = 16.0g",1Value per 100 g,
Proximates
"Energy",kcal,--,--,60,375
"Protein",g,--,--,0.00,0.00
"Total lipid (fat)",g,--,--,1.00,6.25
"Carbohydrate, by difference",g,--,--,13.00,81.25
"Fiber, total dietary",g,--,--,0.0,0.0
"Sugars, total",g,--,--,7.00,43.75
Minerals
"Calcium, Ca",mg,--,--,100,625
"Iron, Fe",mg,--,--,0.00,0.00
"Sodium, Na",mg,--,--,5,31
Vitamins
"Vitamin C, total ascorbic acid",mg,--,--,0.0,0.0
"Vitamin A, IU",IU,--,--,0,0
Lipids
"Fatty acids, total saturated",g,--,--,0.000,0.000
"Fatty acids, total trans",g,--,--,0.000,0.000
"Cholesterol",mg,--,--,0,0
Amino Acids
Other
Ingredients
"CONDENSED FILLED MILK (SUCROSE, FRESH MILK, SKIM MILK, POWDER, PALM OIL), GLUCOSE, SUGAR, HYDROGENATED COCONUT OIL (TREE NUTS) CALCIUM CARBONATE COCONUT OIL (TREE NUTS), CALCIUM CARBONATE, BUTTER (MILK FAT, NON FAT DRY MILK, SALT), ARTIFICIAL BANANA EXTRACT, ANTIOXIDANT (BHT), FD& C YELLOW 5." Date available: 07/14/2017 Date last updated by company: 07/14/2017
