Source: USDA Branded Food Products Database Release December 2017 Software v.3.8.6.4 2017-10-02
Report Run at: December 17, 2017 20:05 EST
"Nutrient data for: 45057745, MILK CHOCOLATE SALTED CARAMEL BISCOTTI, UPC: 085239096246"
Food Group:  Branded Food Products Database
Common Name:

Nutrient,Unit,Data points,Std. Error,"1 BISCOTTI = 24.0g",1Value per 100 g,
Proximates
"Energy",kcal,--,--,100,417
"Protein",g,--,--,2.00,8.33
"Total lipid (fat)",g,--,--,3.50,14.58
"Carbohydrate, by difference",g,--,--,17.00,70.83
"Fiber, total dietary",g,--,--,0.0,0.0
"Sugars, total",g,--,--,11.00,45.83
Minerals
"Calcium, Ca",mg,--,--,20,83
"Iron, Fe",mg,--,--,0.75,3.13
"Sodium, Na",mg,--,--,210,875
Vitamins
"Vitamin C, total ascorbic acid",mg,--,--,0.0,0.0
"Vitamin A, IU",IU,--,--,0,0
Lipids
"Fatty acids, total saturated",g,--,--,1.999,8.330
"Fatty acids, total trans",g,--,--,0.000,0.000
"Cholesterol",mg,--,--,20,83
Amino Acids
Other
Ingredients
"WHEAT FLOUR, MILK CHOCOLATE (SUGAR, COCOA BUTTER, CHOCOLATE LIQUOR, SKIM MILK, SOY LECITHIN, VANILLA), SUGAR, CARAMEL BITS (SUGAR, CORN SYRUP, LIQUID SUGAR (SUGAR, WATER), SKIM MILK, PALM OIL, BUTTER, SALT, MONO AND DIGLYCERIDES, NATURAL FLAVOR, SOY LECITHIN), EGGS, BUTTER, SEA SALT, BROWN SUGAR, NATURAL FLAVORS, BAKING POWDER (SODIUM ACID PYROPHOSHATE, BAKING SODA, CORN STARCH, MONOCALCIUM PHOSPHATE), SALT, CARAMEL COLOR, MALTED BARLEY FLOUR." Date available: 07/14/2017 Date last updated by company: 07/14/2017
