Source: USDA Branded Food Products Database Release December 2017 Software v.3.8.6.4 2017-10-02
Report Run at: December 17, 2017 20:10 EST
"Nutrient data for: 45269877, MILK CHOCOLATE, UPC: 5000159434249"
Food Group:  Branded Food Products Database
Common Name:

Nutrient,Unit,Data points,Std. Error,"100.0 GRM = 100.0g",1Value per 100 g,
Proximates
"Energy",kcal,--,--,503,503
"Protein",g,--,--,8.20,8.20
"Total lipid (fat)",g,--,--,24.60,24.60
"Carbohydrate, by difference",g,--,--,61.60,61.60
"Sugars, total",g,--,--,51.70,51.70
Minerals
Vitamins
Lipids
"Fatty acids, total saturated",g,--,--,15.200,15.200
Amino Acids
Other
Ingredients
"SUGAR, SKIMMED MILK POWDER, COCOA BUTTER, GLUCOSE SYRUP, BARLEY MALT EXTRACT, COCOA MASS, PALM FAT, LACTOSE AND PROTEIN FROM WHEY (FROM MILK), WHEY POWDER (FROM MILK), MILK FAT, EMULSIFIERS (SOYA LECITHIN, E492), WHEAT FLOUR, PALM KERNEL FAT, PALM KERNEL OIL, RAISING AGENTS (E341, E500, E501), WHEAT GLUTEN, SALT, GLAZING AGENT (PECTIN), NATURAL VANILLA EXTRACT. MILK CHOCOLATE CONTAINS MILK SOLIDS 14% MINIMUM." Date available: 10/19/2017 Date last updated by company: 10/19/2017
