Source: USDA Branded Food Products Database Release December 2017 Software v.3.8.6.4 2017-10-02
Report Run at: December 17, 2017 19:59 EST
"Nutrient data for: 45281727, MILK CHOCOLATE EGGS, UPC: 747599317873"
Food Group:  Branded Food Products Database
Common Name:

Nutrient,Unit,Data points,Std. Error,"6.0 PIECES = 43.0g",1Value per 100 g,
Proximates
"Energy",kcal,--,--,220,512
"Protein",g,--,--,3.00,6.98
"Total lipid (fat)",g,--,--,13.00,30.23
"Carbohydrate, by difference",g,--,--,26.00,60.47
"Fiber, total dietary",g,--,--,1.0,2.3
"Sugars, total",g,--,--,24.00,55.81
Minerals
"Calcium, Ca",mg,--,--,80,186
"Iron, Fe",mg,--,--,0.84,1.95
"Sodium, Na",mg,--,--,30,70
Vitamins
"Vitamin C, total ascorbic acid",mg,--,--,1.4,3.3
"Vitamin A, IU",IU,--,--,117,271
Lipids
"Fatty acids, total saturated",g,--,--,7.998,18.600
"Fatty acids, total trans",g,--,--,0.000,0.000
"Cholesterol",mg,--,--,10,23
Amino Acids
Other
Ingredients
"MILK CHOCOLATE (SUGAR, WHOLE MILK POWDER, COCOA BUTTER, UNSWEETENED CHOCOLATE, SOY LECITHIN - AN EMULSIFIER, VANIILLA)." Date available: 07/14/2017 Date last updated by company: 07/14/2017
