Source: USDA Branded Food Products Database Release December 2017 Software v.3.8.6.4 2017-10-02
Report Run at: December 17, 2017 19:57 EST
"Nutrient data for: 45081218, MILK CHOCOLATE COVERED PRETZEL ROUNDS, UPC: 009542015374"
Food Group:  Branded Food Products Database
Common Name:

Nutrient,Unit,Data points,Std. Error,"0.25 cup = 40.0g",1Value per 100 g,
Proximates
"Energy",kcal,--,--,210,525
"Protein",g,--,--,2.00,5.00
"Total lipid (fat)",g,--,--,12.00,30.00
"Carbohydrate, by difference",g,--,--,25.00,62.50
"Fiber, total dietary",g,--,--,2.0,5.0
"Sugars, total",g,--,--,14.00,35.00
Minerals
"Calcium, Ca",mg,--,--,60,150
"Iron, Fe",mg,--,--,0.45,1.12
"Sodium, Na",mg,--,--,180,450
Vitamins
"Vitamin C, total ascorbic acid",mg,--,--,0.0,0.0
"Vitamin A, IU",IU,--,--,125,312
Lipids
"Fatty acids, total saturated",g,--,--,7.000,17.500
"Fatty acids, total trans",g,--,--,0.000,0.000
"Cholesterol",mg,--,--,5,12
Amino Acids
Other
Ingredients
"MILK CHOCOLATE [SUGAR, MILK, COCOA BUTTER CHOCOLATE, SOYA LECITHIN (EMULSIFIER), BARLEY MALT.... VANILLA (ARTIFICIAL FLAVORING)], PRETZEL PIECES [POTATO FLOUR, CORN) STARCH, RICE FLOUR, PALM OIL, TAPIOCA SYRUP, LEAVENING (SODIUM, PYROPHOSPHATE, POTATO STARCH, SODIUM BICARBONATE, MONOCALCIUM PHOSPHATE), CELLULOSE GUM, BAMBOO FIBER, SALT, YEAST], GUM ARABIC, CORN SYRUP, SHELLAC." Date available: 06/25/2017 Date last updated by company: 06/25/2017
