Source: USDA Branded Food Products Database Release December 2017 Software v.3.8.6.4 2017-10-02
Report Run at: December 17, 2017 20:10 EST
"Nutrient data for: 45268893, MILK CHOCOLATE, UPC: 819077016919"
Food Group:  Branded Food Products Database
Common Name:

Nutrient,Unit,Data points,Std. Error,"4.0 PIECES = 40.0g",1Value per 100 g,
Proximates
"Energy",kcal,--,--,220,550
"Protein",g,--,--,2.00,5.00
"Total lipid (fat)",g,--,--,13.00,32.50
"Carbohydrate, by difference",g,--,--,21.00,52.50
"Fiber, total dietary",g,--,--,1.0,2.5
"Sugars, total",g,--,--,21.00,52.50
Minerals
"Calcium, Ca",mg,--,--,100,250
"Iron, Fe",mg,--,--,0.45,1.12
"Sodium, Na",mg,--,--,40,100
Vitamins
"Vitamin C, total ascorbic acid",mg,--,--,1.5,3.8
"Vitamin A, IU",IU,--,--,0,0
Lipids
"Fatty acids, total saturated",g,--,--,8.000,20.000
"Fatty acids, total trans",g,--,--,0.000,0.000
"Cholesterol",mg,--,--,5,12
Amino Acids
Other
Ingredients
"SUGAR, COCOA BUTTER, DRY WHOLE MILK, CHOCOLATE, NONFAT DRY MILK, SOY LECITHIN (EMULSIFIER), NATURAL VANILLA FLAVORING." Date available: 07/14/2017 Date last updated by company: 07/14/2017
