Source: USDA Branded Food Products Database Release December 2017 Software v.3.8.6.4 2017-10-02
Report Run at: December 17, 2017 20:07 EST
"Nutrient data for: 45228650, MILK CHOCOLATE TRUFFLES, UPC: 819893024440"
Food Group:  Branded Food Products Database
Common Name:

Nutrient,Unit,Data points,Std. Error,"3.0 BALLS = 36.0g",1Value per 100 g,
Proximates
"Energy",kcal,--,--,220,611
"Protein",g,--,--,2.00,5.56
"Total lipid (fat)",g,--,--,17.00,47.22
"Carbohydrate, by difference",g,--,--,16.00,44.44
"Fiber, total dietary",g,--,--,1.0,2.8
"Sugars, total",g,--,--,14.00,38.89
Minerals
"Calcium, Ca",mg,--,--,60,167
"Iron, Fe",mg,--,--,0.50,1.39
"Sodium, Na",mg,--,--,35,97
Vitamins
"Vitamin C, total ascorbic acid",mg,--,--,0.0,0.0
"Vitamin A, IU",IU,--,--,139,386
Lipids
"Fatty acids, total saturated",g,--,--,11.999,33.330
"Fatty acids, total trans",g,--,--,0.000,0.000
"Cholesterol",mg,--,--,5,14
Amino Acids
Other
Ingredients
"MILK CHOCOLATE [SUGAR, MILK, COCOA BUTTER, CHOCOLATE, SOYA LECITHIN (EMULSIFIER), BARLEY MALT POWDER, VANILLIN (ARTIFICIAL FLAVORING)], VEGETABLE OIL (COCONUT, PALM KERNEL), SUGAR, CHOCOLATE, COCOA BUTTER, MILK, SOYA LECITHIN (EMULSIFIER), BARLEY MALT POWDER, ARTIFICIAL FLAVORS." Date available: 07/14/2017 Date last updated by company: 07/14/2017
