Source: USDA Branded Food Products Database Release December 2017 Software v.3.8.6.4 2017-10-02
Report Run at: December 17, 2017 20:21 EST
"Nutrient data for: 45250489, MILKY WAY, MIDNIGHT DARK CHOCOLATE, GOLDEN CARAMEL & VANILLA NOUGAT, UPC: 040000504047"
Food Group:  Branded Food Products Database
Common Name:

Nutrient,Unit,Data points,Std. Error,"1 BAR = 40.0g",1Value per 100 g,
Proximates
"Energy",kcal,--,--,180,450
"Protein",g,--,--,1.00,2.50
"Total lipid (fat)",g,--,--,7.00,17.50
"Carbohydrate, by difference",g,--,--,29.00,72.50
"Fiber, total dietary",g,--,--,1.0,2.5
"Sugars, total",g,--,--,24.00,60.00
Minerals
"Calcium, Ca",mg,--,--,25,62
"Iron, Fe",mg,--,--,0.45,1.12
"Sodium, Na",mg,--,--,50,125
Vitamins
"Vitamin A, IU",IU,--,--,62,155
Lipids
"Fatty acids, total saturated",g,--,--,4.500,11.250
"Fatty acids, total trans",g,--,--,0.000,0.000
"Cholesterol",mg,--,--,5,12
Amino Acids
Other
Ingredients
"SEMISWEET CHOCOLATE (SUGAR, CHOCOLATE PROCESSED WITH ALKALI, CHOCOLATE, COCOA BUTTER, MILKFAT, SOY LECITHIN, ARTIFICIAL AND NATURAL FLAVORS), CORN SYRUP, SUGAR, HYDROGENATED PALM KERNEL OIL AND/OR PALM OIL, SKIM MILK, LESS THAN 2% - MILKFAT, LACTOSE, SALT, EGG WHITES, NATURAL AND ARTIFICIAL FLAVORS, CHOCOLATE." Date available: 10/13/2017 Date last updated by company: 10/13/2017
