Source: USDA Branded Food Products Database Release December 2017 Software v.3.8.6.4 2017-10-02
Report Run at: December 17, 2017 20:17 EST
"Nutrient data for: 45204970, MILK PROTEIN SHAKE, UPC: 093966005370"
Food Group:  Branded Food Products Database
Common Name:

Nutrient,Unit,Data points,Std. Error,"1 BOTTLE = 325.0g",1Value per 100 g,
Proximates
"Energy",kcal,--,--,188,58
"Protein",g,--,--,15.99,4.92
"Total lipid (fat)",g,--,--,2.99,0.92
"Carbohydrate, by difference",g,--,--,23.98,7.38
"Fiber, total dietary",g,--,--,0.0,0.0
"Sugars, total",g,--,--,23.01,7.08
Minerals
"Calcium, Ca",mg,--,--,500,154
"Iron, Fe",mg,--,--,0.00,0.00
"Sodium, Na",mg,--,--,221,68
Vitamins
"Vitamin C, total ascorbic acid",mg,--,--,0.0,0.0
"Vitamin A, IU",IU,--,--,75,23
"Vitamin D",IU,--,--,140,43
Lipids
"Fatty acids, total saturated",g,--,--,1.495,0.460
"Fatty acids, total trans",g,--,--,0.000,0.000
"Cholesterol",mg,--,--,20,6
Amino Acids
Other
Ingredients
"ORGANIC LOWFAT MILK, ORGANIC FILTERED SKIM MILK, ORGANIC FAIR TRADE UNREFINED CANE SUGAR, ORGANIC FAIR TRADE VANILLA BEAN FLAVOR, LACTASE ENZYME, GELLAN GUM, ORGANIC STEVIA, VITAMIN D3." Date available: 07/14/2017 Date last updated by company: 07/14/2017
