Source: USDA Branded Food Products Database Release December 2017 Software v.3.8.6.4 2017-10-02
Report Run at: December 17, 2017 20:17 EST
"Nutrient data for: 45159075, MILKITA, MILKSHAKE LOLLIPOPS, ASSORTED, UPC: 882095222723"
Food Group:  Branded Food Products Database
Common Name:

Nutrient,Unit,Data points,Std. Error,"1 PIECE = 11.5g",1Value per 100 g,
Proximates
"Energy",kcal,--,--,50,435
"Protein",g,--,--,0.00,0.00
"Total lipid (fat)",g,--,--,0.50,4.35
"Carbohydrate, by difference",g,--,--,10.00,86.96
"Fiber, total dietary",g,--,--,0.0,0.0
"Sugars, total",g,--,--,8.00,69.57
Minerals
"Calcium, Ca",mg,--,--,100,870
"Iron, Fe",mg,--,--,0.00,0.00
"Sodium, Na",mg,--,--,10,87
Vitamins
"Vitamin C, total ascorbic acid",mg,--,--,0.0,0.0
"Vitamin A, IU",IU,--,--,0,0
Lipids
"Fatty acids, total saturated",g,--,--,0.000,0.000
"Fatty acids, total trans",g,--,--,0.000,0.000
"Cholesterol",mg,--,--,0,0
Amino Acids
Other
Ingredients
"GLUCOSE, SUGAR, CONDENSED FILLED MILK (SUCROSE, FRESH MILK, SKIM MILK POWDER, PALM OIL), WHEY, HYDROGENATED COCONUT OIL (TREE NUTS), CALCIUM CARBONATE, CHOCOLATE LIQUOR, COCOA POWDER (PROCESSED WITH ALKALIZING AGENT), SALT, ARTIFICIAL FLAVORS (MELON, STRAWBERRY, CHOCOLATE, BANANA, MILK), EMULSIFIER (SOY LECITHIN), FRUIT EXTRACTS (MELON, STRAWBERRY, BANANA), ANTIOXIDANT (BHT), FD & C YELLOW 5, FD & C RED 3, FD & C BLUE 1." Date available: 07/14/2017 Date last updated by company: 07/14/2017
