Source: USDA Branded Food Products Database Release December 2017 Software v.3.8.6.4 2017-10-02
Report Run at: December 17, 2017 20:02 EST
"Nutrient data for: 45152898, MILK CHOCOLATE MINIATURE BARS, UPC: 088468573014"
Food Group:  Branded Food Products Database
Common Name:

Nutrient,Unit,Data points,Std. Error,"5.0 PIECES = 39.0g",1Value per 100 g,
Proximates
"Energy",kcal,--,--,210,538
"Protein",g,--,--,3.00,7.69
"Total lipid (fat)",g,--,--,14.00,35.90
"Carbohydrate, by difference",g,--,--,18.00,46.15
"Fiber, total dietary",g,--,--,1.0,2.6
"Sugars, total",g,--,--,16.00,41.03
Minerals
"Calcium, Ca",mg,--,--,60,154
"Iron, Fe",mg,--,--,0.69,1.78
"Sodium, Na",mg,--,--,25,64
Vitamins
"Vitamin C, total ascorbic acid",mg,--,--,0.0,0.0
"Vitamin A, IU",IU,--,--,0,0
Lipids
"Fatty acids, total saturated",g,--,--,9.001,23.080
"Fatty acids, total trans",g,--,--,0.000,0.000
"Cholesterol",mg,--,--,10,26
Amino Acids
Other
Ingredients
"MILK CHOCOLATE INGREDIENTS: SUGAR, COCOA BUTTER, COCOA BEANS, WHOLE MILK POWDER (18%), EMULSIFIER: RAPE LECITHINS, BOURBON VANILLA (VANILLA EXTRACT AND PODS). COCOA: 37% MINIMUM." Date available: 07/14/2017 Date last updated by company: 07/14/2017
