Source: USDA Branded Food Products Database Release December 2017 Software v.3.8.6.4 2017-10-02
Report Run at: December 17, 2017 20:22 EST
"Nutrient data for: 45114407, MILLER'S, AMERICAN PASTEURIZED PROCESS CHEESE FOOD, UPC: 078812314004"
Food Group:  Branded Food Products Database
Common Name:

Nutrient,Unit,Data points,Std. Error,"1 SLICE = 19.0g",1Value per 100 g,
Proximates
"Energy",kcal,--,--,60,316
"Protein",g,--,--,4.00,21.05
"Total lipid (fat)",g,--,--,5.00,26.32
"Carbohydrate, by difference",g,--,--,1.00,5.26
"Fiber, total dietary",g,--,--,0.0,0.0
"Sugars, total",g,--,--,1.00,5.26
Minerals
"Calcium, Ca",mg,--,--,100,526
"Iron, Fe",mg,--,--,0.00,0.00
"Sodium, Na",mg,--,--,220,1158
Vitamins
"Vitamin C, total ascorbic acid",mg,--,--,0.0,0.0
"Vitamin A, IU",IU,--,--,526,2771
Lipids
"Fatty acids, total saturated",g,--,--,3.000,15.790
"Fatty acids, total trans",g,--,--,0.000,0.000
"Cholesterol",mg,--,--,15,79
Amino Acids
Other
Ingredients
"KOSHER AMERICAN CHEESE (CULTURED MILK, SALT, AND ENZYMES), WATER, SKIM MILK, SODIUM CITRATE, SALT, SORBIC ACID (PRESERVATIVE), ARTIFICIAL COLOR." Date available: 06/25/2017 Date last updated by company: 06/25/2017
