Source: USDA Branded Food Products Database Release December 2017 Software v.3.8.6.4 2017-10-02
Report Run at: December 17, 2017 20:21 EST
"Nutrient data for: 45056196, MILLCROFT FARMS COMPANY, BLUEBERRY SYRUP, UPC: 754530108032"
Food Group:  Branded Food Products Database
Common Name:

Nutrient,Unit,Data points,Std. Error,"4.0 Tbsp = 81.0g",1Value per 100 g,
Proximates
"Energy",kcal,--,--,210,259
"Protein",g,--,--,0.00,0.00
"Total lipid (fat)",g,--,--,0.00,0.00
"Carbohydrate, by difference",g,--,--,54.00,66.67
"Fiber, total dietary",g,--,--,1.0,1.2
"Sugars, total",g,--,--,52.00,64.20
Minerals
"Calcium, Ca",mg,--,--,0,0
"Iron, Fe",mg,--,--,0.15,0.19
"Sodium, Na",mg,--,--,0,0
Vitamins
Lipids
Amino Acids
Other
Ingredients
"SUGAR, WATER, BLUEBERRY JUICE CONCENTRATE, CITADEL" Date available: 08/02/2017 Date last updated by company: 08/02/2017
