Source: USDA Branded Food Products Database Release December 2017 Software v.3.8.6.4 2017-10-02
Report Run at: December 17, 2017 20:24 EST
"Nutrient data for: 45122077, MILWAUKEE'S, WISCONSIN'S, PETITE DILL PICKLES, UPC: 054100172600"
Food Group:  Branded Food Products Database
Common Name:

Nutrient,Unit,Data points,Std. Error,"3.0 PICKLES | ABOUT = 28.0g",1Value per 100 g,
Proximates
"Energy",kcal,--,--,5,18
"Protein",g,--,--,0.00,0.00
"Total lipid (fat)",g,--,--,0.00,0.00
"Carbohydrate, by difference",g,--,--,1.00,3.57
"Sugars, total",g,--,--,1.00,3.57
Minerals
"Sodium, Na",mg,--,--,260,929
Vitamins
Lipids
Amino Acids
Other
Ingredients
"CUCUMBERS, WATER, SALT, DISTILLED VINEGAR, CALCIUM CHLORIDE, NATURAL FLAVORS, POLYSORBATE 80, YELLOW 5, POTASSIUM METABISULFITE." Date available: 07/14/2017 Date last updated by company: 07/14/2017
