Source: USDA Branded Food Products Database Release December 2017 Software v.3.8.6.4 2017-10-02
Report Run at: December 17, 2017 20:27 EST
"Nutrient data for: 45206232, MINDFUL FUNCTIONAL FOOD, TART CHERRY LEMON BALM DREAM BAR, UPC: 862146000227"
Food Group:  Branded Food Products Database
Common Name:

Nutrient,Unit,Data points,Std. Error,"38.0 GRM = 38.0g",1Value per 100 g,
Proximates
"Energy",kcal,--,--,160,421
"Protein",g,--,--,3.00,7.89
"Total lipid (fat)",g,--,--,9.00,23.68
"Carbohydrate, by difference",g,--,--,18.00,47.37
"Fiber, total dietary",g,--,--,2.0,5.3
"Sugars, total",g,--,--,9.00,23.68
Minerals
"Calcium, Ca",mg,--,--,40,105
"Iron, Fe",mg,--,--,0.95,2.49
"Sodium, Na",mg,--,--,40,105
Vitamins
"Vitamin C, total ascorbic acid",mg,--,--,3.2,8.3
"Vitamin A, IU",IU,--,--,263,692
Lipids
"Fatty acids, total saturated",g,--,--,0.999,2.630
"Fatty acids, total trans",g,--,--,0.000,0.000
"Cholesterol",mg,--,--,0,0
Amino Acids
Other
Ingredients
"*TART CHERRIES, GLUTEN-FREE ROLLED OATS, WALNUTS, *POPPY SEEDS *NON-GMO SOY LECITHIN, HONEY, *TART CHERRY CONCENTRATE, *LEMON BALM, *COCONUT OIL *FLAX MEAL, *LOCUST BEAN GUM & AGAR, KOSHER SALT" Date available: 07/14/2017 Date last updated by company: 07/14/2017
