Source: USDA Branded Food Products Database Release December 2017 Software v.3.8.6.4 2017-10-02
Report Run at: December 17, 2017 20:28 EST
"Nutrient data for: 45238119, MINESTRONE SOUP, UPC: 688267122101"
Food Group:  Branded Food Products Database
Common Name:

Nutrient,Unit,Data points,Std. Error,"1 cup = 240.0g",1Value per 100 g,
Proximates
"Energy",kcal,--,--,130,54
"Protein",g,--,--,4.01,1.67
"Total lipid (fat)",g,--,--,3.50,1.46
"Carbohydrate, by difference",g,--,--,22.01,9.17
"Fiber, total dietary",g,--,--,1.9,0.8
"Sugars, total",g,--,--,4.01,1.67
Minerals
"Calcium, Ca",mg,--,--,41,17
"Iron, Fe",mg,--,--,1.08,0.45
"Sodium, Na",mg,--,--,590,246
Vitamins
"Vitamin C, total ascorbic acid",mg,--,--,4.8,2.0
"Vitamin A, IU",IU,--,--,499,208
Lipids
"Fatty acids, total saturated",g,--,--,0.504,0.210
"Fatty acids, total trans",g,--,--,0.000,0.000
"Cholesterol",mg,--,--,0,0
Amino Acids
Other
Ingredients
"FILTERED WATER, KIDNEY BEANS, NOODLE (DURUM WHEAT SEMOLINA, EGG WHITES), GARBANZO BEANS, POTATO, ONION, ROASTED TOMATO CONCENTRATE (ROASTED TOMATOES, TOMATO PASTE, SALT, SUGAR, NATURAL FLAVORINGS, CILANTRO), CELERY, DICED TOMATOES, TOMATO PASTE, SAFFLOWER OIL, CHICKEN FLAVOR CONCENTRATE (CHICKEN BROTH, YEAST EXTRACT, CANE SUGAR, FLAVOR, CHICKEN FLAVOR, CHICKEN FAT, CORN STARCH, CELERY JUICE CONCENTRATE, CARROT JUICE CONCENTRATE, ONION JUICE CONCENTRATE, TURMERIC), CORN STARCH, PEAS, GREEN BEANS, PARMESAN CHEESE (PASTEURIZED PART-SKIM MILK, CHEESE CULTURE, SALT, ENZYMES), SUGAR, BASIL, GARLIC POWDER, SEA SALT, BLACK PEPPER, OREGANO." Date available: 07/14/2017 Date last updated by company: 07/14/2017
