Source: USDA Branded Food Products Database Release December 2017 Software v.3.8.6.4 2017-10-02
Report Run at: December 17, 2017 20:28 EST
"Nutrient data for: 45204669, MINESTRONE SOUP, UPC: 876314002326"
Food Group:  Branded Food Products Database
Common Name:

Nutrient,Unit,Data points,Std. Error,"1 cup = 245.0g",1Value per 100 g,
Proximates
"Energy",kcal,--,--,270,110
"Protein",g,--,--,7.01,2.86
"Total lipid (fat)",g,--,--,14.99,6.12
"Carbohydrate, by difference",g,--,--,25.99,10.61
"Fiber, total dietary",g,--,--,5.9,2.4
"Sugars, total",g,--,--,8.01,3.27
Minerals
"Calcium, Ca",mg,--,--,59,24
"Iron, Fe",mg,--,--,2.69,1.10
"Sodium, Na",mg,--,--,659,269
Vitamins
"Vitamin C, total ascorbic acid",mg,--,--,36.0,14.7
"Vitamin A, IU",IU,--,--,6500,2653
Lipids
"Fatty acids, total saturated",g,--,--,2.009,0.820
"Fatty acids, total trans",g,--,--,0.000,0.000
"Cholesterol",mg,--,--,0,0
Amino Acids
Other
Ingredients
"WATER, POTATOES, PEAS, CARROTS, BEANS, EXTRA VIRGIN OLIVE OIL, CELERY, SAVOY CABBAGE, BLACK CABBAGE, PEPPER, ONIONS, PARSLEY, RICE SYRUP FROM ORGANIC FARMING, SEA SALT, LACTIC ACID." Date available: 07/14/2017 Date last updated by company: 07/14/2017
