Source: USDA Branded Food Products Database Release December 2017 Software v.3.8.6.4 2017-10-02
Report Run at: December 17, 2017 20:27 EST
"Nutrient data for: 45234590, MINERAL WATER, UPC: 021136010374"
Food Group:  Branded Food Products Database
Common Name:

Nutrient,Unit,Data points,Std. Error,"0.0 none = 12.0g",1Value per 100 g,
Proximates
"Energy",kcal,--,--,0,0
"Protein",g,--,--,0.00,0.00
"Total lipid (fat)",g,--,--,0.00,0.00
"Carbohydrate, by difference",g,--,--,0.00,0.00
"Sugars, total",g,--,--,0.00,0.00
Minerals
"Sodium, Na",mg,--,--,0,4
Vitamins
Lipids
Amino Acids
Other
Ingredients
"CARBONATED MINERAL WATER BOTTLED ONLY AT SOURCE." Date available: 06/24/2017 Date last updated by company: 06/24/2017
