Source: USDA Branded Food Products Database Release December 2017 Software v.3.8.6.4 2017-10-02
Report Run at: December 17, 2017 20:42 EST
"Nutrient data for: 45280680, MINI ITALIAN STYLE MEATBALLS, UPC: 021130110438"
Food Group:  Branded Food Products Database
Common Name:

Nutrient,Unit,Data points,Std. Error,"6.0 MEATBALLS = 85.0g",1Value per 100 g,
Proximates
"Energy",kcal,--,--,250,294
"Protein",g,--,--,14.00,16.47
"Total lipid (fat)",g,--,--,19.00,22.35
"Carbohydrate, by difference",g,--,--,5.00,5.88
"Fiber, total dietary",g,--,--,1.0,1.2
"Sugars, total",g,--,--,0.00,0.00
Minerals
"Calcium, Ca",mg,--,--,60,71
"Iron, Fe",mg,--,--,2.03,2.39
"Sodium, Na",mg,--,--,630,741
Vitamins
"Vitamin C, total ascorbic acid",mg,--,--,0.0,0.0
"Vitamin A, IU",IU,--,--,0,0
Lipids
"Fatty acids, total saturated",g,--,--,7.004,8.240
"Fatty acids, total trans",g,--,--,0.501,0.590
"Cholesterol",mg,--,--,55,65
Amino Acids
Other
Ingredients
"BEEF, PORK, WATER, TEXTURED SOY FLOUR, BREAD CRUMBS (WHEAT FLOUR, SALT, AND YEAST), SOY PROTEIN CONCENTRATE, SEASONING (PARMESAN CHEESE [PART SKIM COW'S MILK, CHEESE CULTURES, SALT, ENZYMES], SPICES, SPICE EXTRACTIVES ON A DEXTROSE CARRIER, DEHYDRATED GARLIC, PARSLEY, ONION POWDER), SALT, SODIUM TRIPOLYPHOSPHATE, NATURAL FLAVOR." Date available: 07/14/2017 Date last updated by company: 07/14/2017
