Source: USDA Branded Food Products Database Release December 2017 Software v.3.8.6.4 2017-10-02
Report Run at: December 17, 2017 20:46 EST
"Nutrient data for: 45283966, MINI MUFFINS, UPC: 888109010225"
Food Group:  Branded Food Products Database
Common Name:

Nutrient,Unit,Data points,Std. Error,"1 PACKAGE = 46.0g",1Value per 100 g,
Proximates
"Energy",kcal,--,--,170,370
"Protein",g,--,--,2.00,4.35
"Total lipid (fat)",g,--,--,7.00,15.22
"Carbohydrate, by difference",g,--,--,25.00,54.35
"Fiber, total dietary",g,--,--,1.0,2.2
"Sugars, total",g,--,--,15.00,32.61
Minerals
"Calcium, Ca",mg,--,--,20,43
"Iron, Fe",mg,--,--,1.72,3.74
"Sodium, Na",mg,--,--,135,293
Vitamins
"Vitamin C, total ascorbic acid",mg,--,--,0.0,0.0
"Vitamin A, IU",IU,--,--,0,0
Lipids
"Fatty acids, total saturated",g,--,--,0.998,2.170
"Fatty acids, total trans",g,--,--,0.000,0.000
"Cholesterol",mg,--,--,35,76
Amino Acids
Other
Ingredients
"SUGAR, ENRICHED BLEACHED WHEAT FLOUR [FLOUR, MALTED BARLEY FLOUR, REDUCED IRON, ""B"" VITAMINS (NIACIN, THIAMINE MONONITRATE (B1), RIBOFLAVIN (B2), FOLIC ACID)], WHOLE EGGS, BLUEBERRIES, CANOLA OIL, WATER, EGG WHITES. CONTAINS 2% OR LESS OF: SOY LECITHIN, WHEY, MODIFIED CORN STARCH, MONO AND DIGLYCERIDES, LEAVENINGS (BAKING SODA, SODIUM ALUMINUM PHOSPHATE, ALUMINUM SULFATE), SOYBEAN OIL, SALT, SODIUM STEAROYL LACTYLATE, WHEAT GLUTEN, NATURAL AND ARTIFICIAL FLAVOR, POLYSORBATE 60, NONFAT MILK SOLIDS, XANTHAN GUM, CALCIUM ACETATE, DEXTROSE, GUAR GUM, CITRIC ACID, WHEAT FLOUR, SORBIC ACID (TO RETAIN FRESHNESS)." Date available: 07/14/2017 Date last updated by company: 07/14/2017
