Source: USDA Branded Food Products Database Release December 2017 Software v.3.8.6.4 2017-10-02
Report Run at: December 17, 2017 20:31 EST
"Nutrient data for: 45135674, MINI BROWNIES, UPC: 085239460207"
Food Group:  Branded Food Products Database
Common Name:

Nutrient,Unit,Data points,Std. Error,"2.0 BROWNIES = 50.0g",1Value per 100 g,
Proximates
"Energy",kcal,--,--,230,460
"Protein",g,--,--,1.00,2.00
"Total lipid (fat)",g,--,--,12.00,24.00
"Carbohydrate, by difference",g,--,--,30.00,60.00
"Fiber, total dietary",g,--,--,1.0,2.0
"Sugars, total",g,--,--,21.00,42.00
Minerals
"Calcium, Ca",mg,--,--,20,40
"Iron, Fe",mg,--,--,0.86,1.73
"Sodium, Na",mg,--,--,85,170
Vitamins
"Vitamin C, total ascorbic acid",mg,--,--,0.0,0.0
"Vitamin A, IU",IU,--,--,0,0
Lipids
"Fatty acids, total saturated",g,--,--,4.000,8.000
"Fatty acids, total trans",g,--,--,0.000,0.000
"Cholesterol",mg,--,--,0,0
Amino Acids
Other
Ingredients
"SUGAR, BLEACHED WHEAT FLOUR, NIACIN, REDUCED IRON, THIAMINE MONONITRATE, RIBOFLAVIN, FOLIC ACID), SOYBEAN OR COCOA OIL, EGG WHITE, CORN SYRUP, WATER, CHOCOLATE (SUGAR, CHOCOLATE LIQUOR, COCOA BUTTER, SOY LECITHIN, VANILLA EXTRACT), COCOA POWDER PROCESSED WITH SODIUM ACIDPYROPHOSPHATE, SODIUM BICARBONATE, CORN STARCH, MONOCALCIUM PHSPHATE, CALCIUM SULFATE), WHEY POWDER, MODIFIED CORN STARCH, LEAVENING SODIUM ACID PYROPHOSPHATE, SODIUM BICARBONATE, CORN STARCH, MONOCALCIUM PHOSPHATE, CALCIUM SULFATE), SOY LECITHIN. ICING: ICING SUGAR, NON-HYDROGENATED VEGETABLE OIL SHORTENING (CANOLA, PALM, MODIFIED PALM AND PALM KERNEL OILS), GLUCOSE, WATER, SKIMMED MILK POWDER, MONO AND DIGLYCERIDES, BUTTER, SALT, ARTIFICIAL FLAVOR, RED 3, RED 40 LAKE, POLYSORBATE 60. CHOCOLATY HEART: SUGAR, PALM KERNEL OIL, PARTIALLY HYDROGENATED SOYBEAN OIL, COCOA POWDER PROCESSED WITH ALKALI, WHOLE MILK, CHOCOLATE, NON FAT MILK, COCOA, PARTIALLY HYDROGENATED." Date available: 06/24/2017 Date last updated by company: 06/24/2017
