Source: USDA Branded Food Products Database Release December 2017 Software v.3.8.6.4 2017-10-02
Report Run at: December 17, 2017 20:51 EST
"Nutrient data for: 45237129, MINI RITZ, MOZZARELLA & MINI CHIPS AHOY!, UPC: 044700063934"
Food Group:  Branded Food Products Database
Common Name:

Nutrient,Unit,Data points,Std. Error,"1 PACKAGE = 96.0g",1Value per 100 g,
Proximates
"Energy",kcal,--,--,210,219
"Protein",g,--,--,7.00,7.29
"Total lipid (fat)",g,--,--,10.00,10.42
"Carbohydrate, by difference",g,--,--,21.00,21.88
"Fiber, total dietary",g,--,--,1.0,1.0
"Sugars, total",g,--,--,7.00,7.29
Minerals
"Calcium, Ca",mg,--,--,200,208
"Iron, Fe",mg,--,--,1.08,1.12
"Sodium, Na",mg,--,--,340,354
Vitamins
"Vitamin C, total ascorbic acid",mg,--,--,0.0,0.0
"Vitamin A, IU",IU,--,--,0,0
Lipids
"Fatty acids, total saturated",g,--,--,4.003,4.170
"Fatty acids, total trans",g,--,--,0.499,0.520
"Cholesterol",mg,--,--,10,10
Amino Acids
Other
Ingredients
"PASTEURIZED PREPARED MOZZARELLA CHEESE PRODUCT - PASTEURIZED PART-SKIM MILK, WATER, MILK PROTEIN CONCENTRATE, CONTAINS LESS THAN 2% OF SALT, SODIUM CITRATE, MILKFAT, CHEESE CULTURE, SORBIC ACID AS A PRESERVATIVE, ENZYMES, WITH SUNFLOWER LECITHIN ADDED FOR" Date available: 09/23/2016 Date last updated by company: 09/23/2016
