Source: USDA Branded Food Products Database Release December 2017 Software v.3.8.6.4 2017-10-02
Report Run at: December 17, 2017 20:48 EST
"Nutrient data for: 45198810, MINI PIZZA BAGELS, UPC: 075450150742"
Food Group:  Branded Food Products Database
Common Name:

Nutrient,Unit,Data points,Std. Error,"4.0 PIECES = 88.0g",1Value per 100 g,
Proximates
"Energy",kcal,--,--,190,216
"Protein",g,--,--,10.00,11.36
"Total lipid (fat)",g,--,--,6.00,6.82
"Carbohydrate, by difference",g,--,--,27.00,30.68
"Fiber, total dietary",g,--,--,3.0,3.4
"Sugars, total",g,--,--,3.00,3.41
Minerals
"Calcium, Ca",mg,--,--,100,114
"Iron, Fe",mg,--,--,3.99,4.53
"Potassium, K",mg,--,--,125,142
"Sodium, Na",mg,--,--,430,489
Vitamins
"Vitamin C, total ascorbic acid",mg,--,--,10.6,12.1
"Vitamin A, IU",IU,--,--,0,0
Lipids
"Fatty acids, total saturated",g,--,--,2.499,2.840
"Fatty acids, total monounsaturated",g,--,--,1.998,2.270
"Fatty acids, total polyunsaturated",g,--,--,1.003,1.140
"Fatty acids, total trans",g,--,--,0.000,0.000
"Cholesterol",mg,--,--,15,17
Amino Acids
Other
Ingredients
"BAGEL (ENRICHED FLOUR [WHEAT FLOUR, NIACIN, REDUCED IRON, THIAMINE MONONITRATE {B1}, RIBOFLAVIN {B2}, FOLIC ACID], WATER, WHOLE WHEAT FLOUR, CONTAINS LESS THAN 2% OF THE FOLLOWING: SUGAR, WHEAT GLUTEN, YEAST, SALT, SOYBEAN OIL, MODIFIED WHEAT STARCH, SOY PROTEIN ISOLATE, VINEGAR [PRESERVATIVE]), TOMATO SAUCE (WATER, TOMATO PASTE, SPICES [SUGAR, SALT, GARLIC, BLACK PEPPER, BASIL]), MOZZARELLA CHEESE (PASTEURIZED MILK, NONFAT MILK, CULTURES, SALT, ENZYMES), SAUSAGE (PORK, WATER, SPICES, CORN SYRUP SOLIDS, SALT, SODIUM PHOSPHATE, GARLIC), PEPPERONI (PORK, BEEF, SALT, CONTAINS 2% OR LESS OF: SPICES, DEXTROSE, LACTIC ACID STARTER CULTURE, OLEORESIN OF PAPRIKA, FLAVORING, SODIUM NITRITE, BHA, BHT, CITRIC ACID." Date available: 07/14/2017 Date last updated by company: 07/14/2017
