Source: USDA Branded Food Products Database Release December 2017 Software v.3.8.6.4 2017-10-02
Report Run at: December 17, 2017 20:30 EST
"Nutrient data for: 45214525, MINI BLUEBERRY MUFFINS, UPC: 051933339811"
Food Group:  Branded Food Products Database
Common Name:

Nutrient,Unit,Data points,Std. Error,"1 MUFFIN | APPROX. = 25.0g",1Value per 100 g,
Proximates
"Energy",kcal,--,--,100,400
"Protein",g,--,--,1.00,4.00
"Total lipid (fat)",g,--,--,6.00,24.00
"Carbohydrate, by difference",g,--,--,11.00,44.00
"Fiber, total dietary",g,--,--,0.0,0.0
"Sugars, total",g,--,--,6.00,24.00
Minerals
"Calcium, Ca",mg,--,--,0,0
"Iron, Fe",mg,--,--,0.00,0.00
"Sodium, Na",mg,--,--,150,600
Vitamins
"Vitamin C, total ascorbic acid",mg,--,--,0.0,0.0
"Vitamin A, IU",IU,--,--,0,0
Lipids
"Fatty acids, total saturated",g,--,--,4.000,16.000
"Fatty acids, total trans",g,--,--,0.000,0.000
"Cholesterol",mg,--,--,20,80
Amino Acids
Other
Ingredients
"ENRICHED BLEACHED WHEAT FLOUR (FLOUR, NIACIN, IRON, THIAMINE MONONITRATE, RIBOFLAVIN, FOLIC ACID, ENZYME), SUGAR, WHOLE EGGS, LIQUID SOYBEAN OIL, WATER, BLUEBERRIES, CORN SYRUP, WHEY (MILK), MODIFIED CORN STARCH, CONTAINS 2% OR LESS OF EACH LEAVENING (BAKING SODA, SODIUM ALUMINUM PHOSPHATE), SALT, MONO AND DIGLYCERIDES, CALCIUM ACETATE, XANTHAN GUM GUAR GUM, PROPYLENE GLYCOL, METHYLPARABEN, PROPYLPARABEN, SODIUM BENZOATE, SODIUM PROPIONATE AND POTASSIUM SORBATE (PRESERVATIVES), SODIUM STEAROYL LACTYLATE, CITRIC ACID, NATURAL AND ARTIFICIAL FLAVORS." Date available: 10/13/2017 Date last updated by company: 10/13/2017
