Source: USDA Branded Food Products Database Release December 2017 Software v.3.8.6.4 2017-10-02
Report Run at: December 17, 2017 20:30 EST
"Nutrient data for: 45283309, MINI BEEF RAVIOLI IN TOMATO & MEAT SAUCE, UPC: 041303016237"
Food Group:  Branded Food Products Database
Common Name:

Nutrient,Unit,Data points,Std. Error,"1 cup = 244.0g",1Value per 100 g,
Proximates
"Energy",kcal,--,--,229,94
"Protein",g,--,--,7.00,2.87
"Total lipid (fat)",g,--,--,9.00,3.69
"Carbohydrate, by difference",g,--,--,29.01,11.89
"Fiber, total dietary",g,--,--,2.9,1.2
"Sugars, total",g,--,--,5.00,2.05
Minerals
"Calcium, Ca",mg,--,--,20,8
"Iron, Fe",mg,--,--,1.90,0.78
"Sodium, Na",mg,--,--,749,307
Vitamins
"Vitamin C, total ascorbic acid",mg,--,--,0.0,0.0
"Vitamin A, IU",IU,--,--,212,87
Lipids
"Fatty acids, total saturated",g,--,--,3.489,1.430
"Fatty acids, total monounsaturated",g,--,--,3.489,1.430
"Fatty acids, total polyunsaturated",g,--,--,1.000,0.410
"Fatty acids, total trans",g,--,--,0.000,0.000
"Cholesterol",mg,--,--,10,4
Amino Acids
Other
Ingredients
"TOMATOES (TOMATO PUREE, WATER), WATER, ENRICHED WHEAT FLOUR (WHEAT FLOUR, MALTED BARLEY FLOUR, NIACIN, IRON, THIAMINE MONONITRATE [VITAMIN B1], RIBOFLAVIN [VITAMIN B2], AND FOLIC ACID), BEEF, CRACKERMEAL (BLEACHED WHEAT FLOUR, NIACIN, IRON, THIAMINE MONONITRATE, RIBOFLAVIN, FOLIC ACID), LESS THAN 2% OF: HIGH FRUCTOSE CORN SYRUP, SEA SALT, SALT, TEXTURED VEGETABLE PROTEIN (SOY FLOUR, SOY PROTEIN CONCENTRATE, CARAMEL COLOR), MODIFIED CORN STARCH, SOYBEAN OIL, CARROTS, POTASSIUM CHLORIDE, CARAMEL COLOR, AMMONIUM CHLORIDE, CITRIC ACID, FLAVORINGS, YEAST EXTRACT, ENZYME MODIFIED CHEESE (CHEDDAR CHEESE [PASTEURIZED MILK, CULTURES, SALT ENZYMES], CREAM, WATER, SALT, SODIUM PHOSPHATE, XANTHAN GUM, CAROTENAL [COLOR]), LACTIC ACID." Date available: 07/14/2017 Date last updated by company: 07/14/2017
