Source: USDA Branded Food Products Database Release December 2017 Software v.3.8.6.4 2017-10-02
Report Run at: December 17, 2017 20:29 EST
"Nutrient data for: 45180902, MINI BEEF BURGERS, UPC: 011110602855"
Food Group:  Branded Food Products Database
Common Name:

Nutrient,Unit,Data points,Std. Error,"1 PATTY = 56.0g",1Value per 100 g,
Proximates
"Energy",kcal,--,--,120,214
"Protein",g,--,--,11.00,19.64
"Total lipid (fat)",g,--,--,9.00,16.07
"Carbohydrate, by difference",g,--,--,0.00,0.00
"Fiber, total dietary",g,--,--,0.0,0.0
"Sugars, total",g,--,--,0.00,0.00
Minerals
"Calcium, Ca",mg,--,--,0,0
"Iron, Fe",mg,--,--,1.64,2.93
"Sodium, Na",mg,--,--,40,71
Vitamins
"Vitamin C, total ascorbic acid",mg,--,--,0.0,0.0
"Vitamin A, IU",IU,--,--,0,0
Lipids
"Fatty acids, total saturated",g,--,--,3.002,5.360
"Cholesterol",mg,--,--,40,71
Amino Acids
Other
Ingredients
"BEEF." Date available: 08/10/2017 Date last updated by company: 08/10/2017
