Source: USDA Branded Food Products Database Release December 2017 Software v.3.8.6.4 2017-10-02
Report Run at: December 17, 2017 20:32 EST
"Nutrient data for: 45265964, MINI CANES JELLY CANES CANDY, UPC: 041420749117"
Food Group:  Branded Food Products Database
Common Name:

Nutrient,Unit,Data points,Std. Error,"7.0 PIECES = 42.0g",1Value per 100 g,
Proximates
"Energy",kcal,--,--,140,333
"Protein",g,--,--,0.00,0.00
"Total lipid (fat)",g,--,--,0.00,0.00
"Carbohydrate, by difference",g,--,--,35.00,83.33
"Sugars, total",g,--,--,24.00,57.14
Minerals
"Sodium, Na",mg,--,--,10,24
Vitamins
Lipids
Amino Acids
Other
Ingredients
"SUGAR, CORN SYRUP, MODIFIED FOOD STARCH (CORN), CITRIC ACID, LACTIC ACID, NATURAL AND ARTIFICIAL FLAVORS, SODIUM LACTATE, TITANIUM DIOXIDE [COLOR], YELLOW 5, RED 40, BLUE 1." Date available: 07/14/2017 Date last updated by company: 07/14/2017
