Source: USDA Branded Food Products Database Release December 2017 Software v.3.8.6.4 2017-10-02
Report Run at: December 17, 2017 20:55 EST
"Nutrient data for: 45120523, MINI TACOS BEEF & CHEESE, UPC: 073202895156"
Food Group:  Branded Food Products Database
Common Name:

Nutrient,Unit,Data points,Std. Error,"4.0 MINI TACOS = 85.0g",1Value per 100 g,
Proximates
"Energy",kcal,--,--,220,259
"Protein",g,--,--,8.00,9.41
"Total lipid (fat)",g,--,--,11.00,12.94
"Carbohydrate, by difference",g,--,--,23.00,27.06
"Fiber, total dietary",g,--,--,3.0,3.5
"Sugars, total",g,--,--,1.00,1.18
Minerals
"Calcium, Ca",mg,--,--,100,118
"Iron, Fe",mg,--,--,1.08,1.27
"Sodium, Na",mg,--,--,430,506
Vitamins
"Vitamin C, total ascorbic acid",mg,--,--,1.2,1.4
"Vitamin A, IU",IU,--,--,400,471
Lipids
"Fatty acids, total saturated",g,--,--,4.003,4.710
"Fatty acids, total trans",g,--,--,0.000,0.000
"Cholesterol",mg,--,--,20,24
Amino Acids
Other
Ingredients
"STONEGROUND CORN MASA FLOUR (WITH TRACE OF LIME), WATER, GROUND BEEF, AMERICAN AND CHEDDAR CHEESE PRODUCT [CULTURED MILK, SKIM MILK, WATER, SODIUM PYROPHOSPHATE, SALT, LACTIC ACID, SORBIC ACID (PRESERVATIVE), ARTIFICIAL COLOR, ENZYMES], PASTEURIZED PROCESS CHEDDAR CHEESE [CULTURED MILK, WATER, SALT, SODIUM PHOSPHATE, CREAM, SODIUM HEXAMETAPHOSPHATE, SORBIC ACID (PRESERVATIVE), ARTIFICIAL COLOR, LACTIC ACID, ENZYMES]. CONTAINS LESS THAN 2% OF: JALAPENO PEPPERS (JALAPENOS, VINEGAR, SALT), GREEN CHILE PEPPERS (GREEN CHILES, CITRIC ACID), ONIONS, GARLIC IN OIL (GARLIC, WATER, SOYBEAN OIL, PHOSPHORIC ACID), LEMON JUICE (WATER, SOYBEAN OIL, PHOSPHORIC ACID), LEMON JUICE (WATER, LEMON JUICE CONCENTRATE AND LEMON OIL), SEASONING (SPICES, DEHYDRATED GARLIC AND ONION, SUGAR, MUSTARD), TEXTURED VEGETABLE PROTEIN (SOY FLOUR, CARAMEL COLOR), DRIED EGG WHITES, WHEAT FLOUR, MODIFIED FOOD STARCH, METHYLCELLULOSE, SALT, CARAMEL COLOR." Date available: 09/25/2017 Date last updated by company: 09/25/2017
