Source: USDA Branded Food Products Database Release December 2017 Software v.3.8.6.4 2017-10-02
Report Run at: December 17, 2017 20:33 EST
"Nutrient data for: 45252643, MINI CHOCOLATE BARS, UPC: 818700012618"
Food Group:  Branded Food Products Database
Common Name:

Nutrient,Unit,Data points,Std. Error,"3.0 MINI BARS = 36.0g",1Value per 100 g,
Proximates
"Energy",kcal,--,--,200,556
"Protein",g,--,--,3.00,8.33
"Total lipid (fat)",g,--,--,14.00,38.89
"Carbohydrate, by difference",g,--,--,18.00,50.00
"Fiber, total dietary",g,--,--,2.0,5.6
"Sugars, total",g,--,--,17.00,47.22
Minerals
"Calcium, Ca",mg,--,--,50,139
"Iron, Fe",mg,--,--,2.25,6.25
"Sodium, Na",mg,--,--,25,69
Vitamins
"Vitamin C, total ascorbic acid",mg,--,--,0.0,0.0
"Vitamin A, IU",IU,--,--,0,0
Lipids
"Fatty acids, total saturated",g,--,--,6.998,19.440
"Fatty acids, total trans",g,--,--,0.000,0.000
"Cholesterol",mg,--,--,10,28
Amino Acids
Other
Ingredients
"SUGAR, MILK, UNSWEETENED CHOCOLATE, COCOA FAT, HAZELNUTS, VEGETABLE FAT (SHEA, COCONUT OIL, SUNFLOWER OIL), WHEY POWDER, ALMONDS, PISTACHIOS, POLYDEXTROSE (BULKING AGENT), COCOA POWDER, COCONUT, ISOMALT (ANTI-CAKING AGENT), RAPESEED OIL, SOY LECITHIN (EMULSIFIER), CRISPED CEREALS (RICE FLOUR, SUGAR, SALT, COCOA FAT), DEXTRIN, INULIN, NATURAL COFFEE FLAVOR, NATURAL VANILLA FLAVOR. CONTAINS: MILK, TREE NUTS (HAZELNUTS, ALMONDS, COCONUT, PISTACHIOS) AND SOYBEANS" Date available: 07/14/2017 Date last updated by company: 07/14/2017
