Source: USDA Branded Food Products Database Release December 2017 Software v.3.8.6.4 2017-10-02
Report Run at: December 17, 2017 20:55 EST
"Nutrient data for: 45189352, MINI SWEET PEPPER SEASONING, UPC: 874896008286"
Food Group:  Branded Food Products Database
Common Name:

Nutrient,Unit,Data points,Std. Error,"0.5 tsp = 1.4g",1Value per 100 g,
Proximates
"Energy",kcal,--,--,3,214
"Protein",g,--,--,0.00,0.00
"Total lipid (fat)",g,--,--,0.00,0.00
"Carbohydrate, by difference",g,--,--,1.00,71.43
Minerals
"Sodium, Na",mg,--,--,189,13500
Vitamins
Lipids
Amino Acids
Other
Ingredients
"SPICES (INCLUDING CHILI PEPPER, PAPRIKA AND EXTRACTIVES OF PAPRIKA), SALT, GARLIC, ONION, CORN SYRUP SOLIDS, CITRIC ACID, NATURAL LIME FLAVOR." Date available: 09/30/2017 Date last updated by company: 09/30/2017
