Source: USDA Branded Food Products Database Release December 2017 Software v.3.8.6.4 2017-10-02
Report Run at: December 17, 2017 20:38 EST
"Nutrient data for: 45113265, MINI DONUTS, UPC: 025600089132"
Food Group:  Branded Food Products Database
Common Name:

Nutrient,Unit,Data points,Std. Error,"2.0 ONZ = 57.0g",1Value per 100 g,
Proximates
"Energy",kcal,--,--,260,456
"Protein",g,--,--,2.00,3.51
"Total lipid (fat)",g,--,--,14.00,24.56
"Carbohydrate, by difference",g,--,--,31.00,54.39
"Fiber, total dietary",g,--,--,1.0,1.8
"Sugars, total",g,--,--,14.00,24.56
Minerals
"Calcium, Ca",mg,--,--,20,35
"Iron, Fe",mg,--,--,0.70,1.22
"Sodium, Na",mg,--,--,230,404
Vitamins
"Vitamin C, total ascorbic acid",mg,--,--,0.0,0.0
"Vitamin A, IU",IU,--,--,0,0
Lipids
"Fatty acids, total saturated",g,--,--,6.002,10.530
"Fatty acids, total monounsaturated",g,--,--,4.497,7.890
"Fatty acids, total polyunsaturated",g,--,--,2.001,3.510
"Fatty acids, total trans",g,--,--,0.000,0.000
"Cholesterol",mg,--,--,5,9
Amino Acids
Other
Ingredients
"UNBLEACHED ENRICHED FLOUR (WHEAT FLOUR, NIACIN, REDUCED IRON, THIAMIN MONONITRATE, RIBOFLAVIN, FOLIC ACID, SUGAR COATING (DEXTROSE, MODIFIED CORNSTARCH, PARTIALLY HYDROGENATED VEGETABLE OIL [SOYBEAN AND/OR COTTONSEED OIL], TITANIUM DIOXIDE (COLOR), HYDROGENATED COTTONSEED OIL, ARTIFICIAL FLAVOR, CORN STARCH, CALCIUM PROPIONATE [PRESERVATIVES]), VEGETABLE OILS (PALM OIL AND SOYBEAN OIL), SUGAR, NONFAT MILK, WATER, BLUEBERRY BITS (SUGAR, WHEAT FLOUR, CANOLA OIL, WHEAT STARCH, NATURAL AND ARTIFICIAL FLAVORS, RED 40, BLUE 1, CITRIC ACID, DRIED BLUEBERRIES), EGG YOLKS, CONTAINS 2% OR LESS OF EACH OF THE FOLLOWING: SOY FLOUR, LEAVENING (SODIUM BICARBONATE, SODIUM ACID PYROPHOSPHATE, SODIUM ALUMINUM PHOSPHATE, MONOCALCIUM PHOSPHATE), CORN SYRUP SOLIDS, SALT GLYCERINE, WHEAT STARCH, DEXTROSE, CALCIUM SULFATE, WHEAT FLOUR, SOY LECITHIN, DISTILLED MONOGLYCERIDES, NATURAL AND ARTIFICIAL FLAVORS, SODIUM STEAROYL LACTYLATE, GUAR GUM, PROPYLENE GLYCOL MONOESTER, TAPIOCA DEXTRIN, CORN DEXTRIN, XANTHAN GUM, ENZYMES, KARAYA GUM, COLORED WITH TURMERIC AND ANNATTO, PRESERVED WITH SODIUM PROPIONATE, SORBIC ACID AND POTASSIUM SORBATE." Date available: 06/24/2017 Date last updated by company: 06/24/2017
