Source: USDA Branded Food Products Database Release December 2017 Software v.3.8.6.4 2017-10-02
Report Run at: December 17, 2017 20:40 EST
"Nutrient data for: 45288625, MINI FROSTED SUGAR COOKIES, UPC: 085239441268"
Food Group:  Branded Food Products Database
Common Name:

Nutrient,Unit,Data points,Std. Error,"2.0 COOKIES = 30.0g",1Value per 100 g,
Proximates
"Energy",kcal,--,--,130,433
"Protein",g,--,--,1.00,3.33
"Total lipid (fat)",g,--,--,4.00,13.33
"Carbohydrate, by difference",g,--,--,21.00,70.00
"Fiber, total dietary",g,--,--,0.0,0.0
"Sugars, total",g,--,--,13.00,43.33
Minerals
"Calcium, Ca",mg,--,--,0,0
"Iron, Fe",mg,--,--,0.60,2.00
"Sodium, Na",mg,--,--,90,300
Vitamins
"Vitamin C, total ascorbic acid",mg,--,--,0.0,0.0
"Vitamin A, IU",IU,--,--,334,1112
Lipids
"Fatty acids, total saturated",g,--,--,2.001,6.670
"Fatty acids, total trans",g,--,--,0.000,0.000
"Cholesterol",mg,--,--,5,17
Amino Acids
Other
Ingredients
"SUGAR, ENRICHED BLEACHED WHEAT FLOUR (FLOUR, NIACIN, REDUCED IRON, THIAMINE MONONITRATE, RIBOFLAVIN, FOLIC ACID), MARGARINE (PALM OIL, WATER, SOYBEAN OIL, SALT, CONTAINS 2% OR LESS OF: MONO- & DIGLYCERIDES, CALCIUM DISODIUM EDTA [PRESERVATIVE], ARTIFICIAL FLAVOR, ANNATTO [COLOR], VITAMIN A PALMITATE), WATER, CONTAINS 2% OR LESS OF: CORN STARCH, RICE FLOUR, EGGS, LEAVENING (SODIUM ACID PYROPHOSPHATE, BAKING SODA, MONOCALCIUM PHOSPHATE), NATURAL & ARTIFICIAL FLAVORS, CORN SYRUP SOLIDS, SOYBEAN OIL, SKIM MILK, PALM KERNEL OIL, PALM OIL, POLYSORBATE 60, COLORS (YELLOW 5 LAKE, BLUE 1 LAKE, BLUE 1, RED 3, YELLOW 5, YELLOW 6, BLUE 2, RED 40), NONFAT MILK, SOY LECITHIN (EMULSIFIER), SODIUM CASEINATE, MILK PROTEIN CONCENTRATE, SALT, FOOD STARCH - MODIFIED, CARRAGEENAN, CELLULOSE GUM, MONO & DIGLYCERIDES." Date available: 07/14/2017 Date last updated by company: 07/14/2017
