Source: USDA Branded Food Products Database Release December 2017 Software v.3.8.6.4 2017-10-02
Report Run at: December 17, 2017 20:41 EST
"Nutrient data for: 45207202, MINI GOLD CUPCAKES WITH BUTTER CREME ICING, UPC: 010995305530"
Food Group:  Branded Food Products Database
Common Name:

Nutrient,Unit,Data points,Std. Error,"3.0 CUPCAKES = 85.0g",1Value per 100 g,
Proximates
"Energy",kcal,--,--,340,400
"Protein",g,--,--,2.00,2.35
"Total lipid (fat)",g,--,--,14.00,16.47
"Carbohydrate, by difference",g,--,--,52.00,61.18
"Fiber, total dietary",g,--,--,1.0,1.2
"Sugars, total",g,--,--,40.00,47.06
Minerals
"Calcium, Ca",mg,--,--,0,0
"Iron, Fe",mg,--,--,0.68,0.80
"Sodium, Na",mg,--,--,230,271
Vitamins
"Vitamin C, total ascorbic acid",mg,--,--,0.0,0.0
"Vitamin A, IU",IU,--,--,0,0
Lipids
"Fatty acids, total saturated",g,--,--,4.998,5.880
"Fatty acids, total trans",g,--,--,0.000,0.000
"Cholesterol",mg,--,--,20,24
Amino Acids
Other
Ingredients
"SUGAR, WATER, BLEACHED ENRICHED WHEAT FLOUR( FLOUR, NIACIN, REDUCED IRON, THIAMINE MONONITRATE, RIBOFLAVIN, FOLIC ACID), VEGETABLE OIL (PALM, SOYBEAN, PALM KERNEL, CANOLA), FOOD STARCH-MODIFIED, EGGS, CORNSTARCH, CORN SYRUP, LEAVENING (SODIUM ACID PYROPHOSPHATE, BAKING SODA, MONOCALCIUM PHOSPHATE, SODIUM ALUMINUM PHOSPHATE, ALUMINUM SULFATE), SALT, NONFAT MILK, EGG WHITES, MONO- AND DIGLYCERIDES, WHEY, SOY LECITHIN, WHEAT STARCH, POLYGLYCEROL ESTERS OF FATTY ACIDS, GUAR GUM, POLYSORBATE 60, NATURAL & ARTIFICIAL FLAVORS, POTASSIUM SORBATE (PRESERVATIVE), GUM ARABIC, RED 40, GLYCERIN, DATEM, SODIUM STEAROYL LACTYLATE, RED 3, WHEAT PROTEIN ISOLATE, YELLOW 6, CALCIUM STEAROYL-2-LACTYLATE, XANTHAN GUM, SODIUM CARBOXYMETHYLCELLULOSE, METHYLCELLULOSE, YELLOW 5." Date available: 07/14/2017 Date last updated by company: 07/14/2017
