Source: USDA Branded Food Products Database Release December 2017 Software v.3.8.6.4 2017-10-02
Report Run at: December 17, 2017 20:30 EST
"Nutrient data for: 45325192, MINI BITES, UPC: 752202571122"
Food Group:  Branded Food Products Database
Common Name:

Nutrient,Unit,Data points,Std. Error,"2.0 MINI CAKES = 57.0g",1Value per 100 g,
Proximates
"Energy",kcal,--,--,200,351
"Protein",g,--,--,1.00,1.75
"Total lipid (fat)",g,--,--,8.00,14.04
"Carbohydrate, by difference",g,--,--,32.00,56.14
"Fiber, total dietary",g,--,--,0.0,0.0
"Sugars, total",g,--,--,23.00,40.35
Minerals
"Calcium, Ca",mg,--,--,100,175
"Iron, Fe",mg,--,--,0.51,0.89
"Sodium, Na",mg,--,--,130,228
Vitamins
"Vitamin C, total ascorbic acid",mg,--,--,0.0,0.0
"Vitamin A, IU",IU,--,--,0,0
Lipids
"Fatty acids, total saturated",g,--,--,2.001,3.510
"Fatty acids, total trans",g,--,--,0.000,0.000
"Cholesterol",mg,--,--,20,35
Amino Acids
Other
Ingredients
"MIX - CAKE MIX (SUGAR, ENRICHED WHEAT FLOUR BLEACHED [FLOUR, NIACIN, IRON, THIAMINIE, MONONITRATE, RIBOFLAVIN, FOLIC ACID], FOOD STARCH-MODIFIED, SOYBEAN OIL, CONTAINS 2% OR LESS OF: EGGS, LEAVENING [BAKING SODA, SODIUM ALUMINUM PHOSPHATE], MONO- AND DIGLYCERIDES, NATURAL AND ARTIFICIAL FLAVOR, PROPYLENE GLYCOL MONO- AND DIESTERS OF FATTY ACIDS, SALT, SODIUM STEAROYL LACTYLATE, SOY FLOUR, VITAL WHEAT GLUTEN, WHEY [MILK]), POWDERED SUGAR (SUGAR, CORNSTARCH), WATER, SOYBEAN OIL, WHOLE EGGS, SUGAR, CORN SYRUP, STRAWBERRY FILLING (WATER, HIGH FRUCTOSE CORN SYRUP, STRAWBERRIES, CORN SYRUP, MODIFIED FOOD STARCH, EVAPORATED APPLE [PRESERVE WITH SODIUM SULFITE], PRESERVATIVES [SODIUM BENZOATE, SODIUM PROPIONATE, POTASSIUM SORBATE], SALT, ARTIFICIAL FLAVOR, LEMON JUICE CONCENTRATE, CITRIC ACID, RED 40, PHOSPHORIC ACID, BLUE 1), STRAWBERRY FILLING (STRAWBERRIES, WATER, HIGH FRUCTOSE CORN SYRUP, SUGAR, MODIFIED CORN STARCH, CORN SYRUP, CONTAINS 2% OR LESS OF THE FOLLOWING: CITRIC ACID, NATURAL FLAVOR, SODIUM BENZOATE, AND POTASSIUM SORBATE [PRESERVATIVES], SALT, F.D. & C. RED 40), PALM OIL, NATURAL FLAVOR, EGG EXTENDER (WHEAT FLOUR, EGGS, SOY OIL, CONTAINS 2% OR LESS OF: CARBOXYMETHYL CELLULOSE, SOYA LECITHIN, SALT, SODIUM BICARBONATE, ANNATTO, TURMERIC), NATURAL AND ARTIFICIAL FLAVOR, ICING STABILIZER (DEXTROSE, CALCIUM SULFATE, CALCIUM CARBONATE, AGAR AGAR, CONTAINS 2% OR LESS LOCUST BEAN GUM, MONO- & DIGLYCERIDES), ICING STABILIZER (DEXTROSE, CALCIUM SULFATE, CALCIUM CARBONATE, AGAR, CONTAINS 2% OR LESS SALT, MONO- & DIGLYCERIDES, LOCUST BEAN GUM, TITANIUM DIOXIDE, ARTIFICIAL FLAVOR), MALTODEXTRIN, COCOA PROCESSED WITH POTASSIUM CARBONATE, ICING STABILIZER (SUGAR, CALCIUM CARBONATE, AGAR, SALT, MONOGLYCERIDES), COCOA POWDER COCOA (PROCESSED WITH ALKALI), TITANIUM DIOXIDE (COLOR), SODIUM PROPIONATE (PRESERVATIVE), CITRIC ACID, POTASSIUM SORBATE (PRESERVATIVE), SALT, RED COLOR (WATER, FD&C RED #40, SODIUM BENZOATE, CITRIC ACID)." Date available: 10/11/2017 Date last updated by company: 10/11/2017
