Source: USDA Branded Food Products Database Release December 2017 Software v.3.8.6.4 2017-10-02
Report Run at: December 17, 2017 20:45 EST
"Nutrient data for: 45217761, MINI MUFFINS, UPC: 00759313151052"
Food Group:  Branded Food Products Database
Common Name:

Nutrient,Unit,Data points,Std. Error,"2.0 MUFFINS = 50.0g",1Value per 100 g,
Proximates
"Energy",kcal,--,--,190,380
"Protein",g,--,--,2.00,4.00
"Total lipid (fat)",g,--,--,9.00,18.00
"Carbohydrate, by difference",g,--,--,25.00,50.00
"Fiber, total dietary",g,--,--,0.0,0.0
"Sugars, total",g,--,--,13.00,26.00
Minerals
"Calcium, Ca",mg,--,--,20,40
"Iron, Fe",mg,--,--,1.58,3.17
"Sodium, Na",mg,--,--,150,300
Vitamins
"Vitamin C, total ascorbic acid",mg,--,--,0.0,0.0
"Vitamin A, IU",IU,--,--,0,0
Lipids
"Fatty acids, total saturated",g,--,--,1.500,3.000
"Fatty acids, total trans",g,--,--,0.000,0.000
"Cholesterol",mg,--,--,25,50
Amino Acids
Other
Ingredients
"SUGAR, ENRICHED BLEACHED WHEAT FLOUR (FLOUR, NIACIN, IRON, THIAMINE MONONITRATE, RIBOFLAVIN, FOLIC ACID), SOYBEAN OIL, WATER, EGGS, BLUEBERRIES, CONTAINS 2% OR LESS OF: FOOD STARCH-MODIFIED, INVERT SUGAR, GLYCERINE, SODIUM ALUMINIUM PHOSPHATE, BAKING SODA, MONOCALCIUM PHOSPHATE, MONO AND DIGLYCERIDES, SODIUM STEAROYL LACTYLATE, POLYSORBATE 60, WHEY, SALT, WHEAT GLUTEN, NONFAT MILK, CARROT FIBER, GLUCOSE SYRUP, DEXTROSE, POTASSIUM SORBATE AND SORBIC ACID (PRESERVATIVES), GUAR GUM, XANTHAN GUM, NATURAL AND ARTIFICIAL FLAVOR." Date available: 07/14/2017 Date last updated by company: 07/14/2017
