Source: USDA Branded Food Products Database Release December 2017 Software v.3.8.6.4 2017-10-02
Report Run at: December 17, 2017 20:54 EST
"Nutrient data for: 45214765, MINIS, UPC: 070970545207"
Food Group:  Branded Food Products Database
Common Name:

Nutrient,Unit,Data points,Std. Error,"10.0 CHICKS = 40.0g",1Value per 100 g,
Proximates
"Energy",kcal,--,--,140,350
"Protein",g,--,--,1.00,2.50
"Total lipid (fat)",g,--,--,0.00,0.00
"Carbohydrate, by difference",g,--,--,34.00,85.00
"Sugars, total",g,--,--,31.00,77.50
Minerals
"Sodium, Na",mg,--,--,15,38
Vitamins
Lipids
"Fatty acids, total saturated",g,--,--,0.000,0.000
"Fatty acids, total trans",g,--,--,0.000,0.000
"Cholesterol",mg,--,--,0,0
Amino Acids
Other
Ingredients
"SUGAR, CORN SYRUP, GELATIN, CONTAINS LESS THAN 0.5% OF THE FOLLOWING INGREDIENTS: NATURAL AND ARTIFICIAL FLAVOR, POTASSIUM SORBATE (A PRESERVATIVE), CARNAUBA WAX." Date available: 07/14/2017 Date last updated by company: 07/14/2017
