Source: USDA Branded Food Products Database Release December 2017 Software v.3.8.6.4 2017-10-02
Report Run at: December 17, 2017 20:56 EST
"Nutrient data for: 45278716, MINI VANILLA-FLAVORED ICE CREAM SANDWICHES, UPC: 085239079591"
Food Group:  Branded Food Products Database
Common Name:

Nutrient,Unit,Data points,Std. Error,"1 SANDWICH = 34.0g",1Value per 100 g,
Proximates
"Energy",kcal,--,--,90,265
"Protein",g,--,--,1.00,2.94
"Total lipid (fat)",g,--,--,3.00,8.82
"Carbohydrate, by difference",g,--,--,15.00,44.12
"Fiber, total dietary",g,--,--,0.0,0.0
"Sugars, total",g,--,--,8.00,23.53
Minerals
"Calcium, Ca",mg,--,--,20,59
"Iron, Fe",mg,--,--,0.00,0.00
"Sodium, Na",mg,--,--,50,147
Vitamins
"Vitamin C, total ascorbic acid",mg,--,--,0.0,0.0
"Vitamin A, IU",IU,--,--,0,0
Lipids
"Fatty acids, total saturated",g,--,--,1.999,5.880
"Fatty acids, total trans",g,--,--,0.000,0.000
"Cholesterol",mg,--,--,10,29
Amino Acids
Other
Ingredients
"ICE CREAM (MILKFAT AND NONFAT MILK, HIGH FRUCTOSE CORN SYRUP, CORN SYRUP, SWEET CREAM BUTTERMILK, SUGAR, WHEY, CONTAINS LESS THAN 2% OF NATURAL AND ARTIFICIAL FLAVOR, GUAR GUM, MONO AND DIGLYCERIDES, XANTHAN GUM, POLYSORBATE 80, CELLULOSE GUM, CARRAGEENAN, ANNATTO [COLOR]), CHOCOLATE-FLAVORED WAFERS (BLEACHED WHEAT FLOUR, SUGAR, CARAMEL COLOR, DEXTROSE, PALM OIL, CORN FLOUR, CONTAINS LESS THAN 2% OF COCOA, HIGH FRUCTOSE CORN SYRUP, CORN SYRUP, MODIFIED CORN STARCH, BAKING SODA, SALT, MONO AND DIGLYCERIDES, SOY LECITHIN)." Date available: 07/14/2017 Date last updated by company: 07/14/2017
