Source: USDA Branded Food Products Database Release December 2017 Software v.3.8.6.4 2017-10-02
Report Run at: December 17, 2017 20:48 EST
"Nutrient data for: 45191591, MINI PECAN TARTS GOLDEN PASTRY SHELL, UPC: 078742085302"
Food Group:  Branded Food Products Database
Common Name:

Nutrient,Unit,Data points,Std. Error,"4.0 TARTS = 116.0g",1Value per 100 g,
Proximates
"Energy",kcal,--,--,470,405
"Protein",g,--,--,5.00,4.31
"Total lipid (fat)",g,--,--,21.00,18.10
"Carbohydrate, by difference",g,--,--,61.00,52.59
"Fiber, total dietary",g,--,--,1.0,0.9
"Sugars, total",g,--,--,28.00,24.14
Minerals
"Calcium, Ca",mg,--,--,20,17
"Iron, Fe",mg,--,--,0.78,0.67
"Sodium, Na",mg,--,--,125,108
Vitamins
"Vitamin C, total ascorbic acid",mg,--,--,0.0,0.0
"Vitamin A, IU",IU,--,--,0,0
Lipids
"Fatty acids, total saturated",g,--,--,6.995,6.030
"Fatty acids, total trans",g,--,--,0.000,0.000
"Cholesterol",mg,--,--,55,47
Amino Acids
Other
Ingredients
"PASTRY: ENRICHED WHEAT FLOUR (WHEAT FLOUR, NIACIN, REDUCED IRON, THIAMIN MONONITRATE, RIBOFLAVIN, FOLIC ACID), SHORTENING (PALM, SOYBEAN AND MODIFIED PALM OIL), WATER, DEXTROSE, MARGARINE [SOYBEAN AND MODIFIED PALM OIL, WATER, SALT, WHEY POWDER, SOYBEAN LECITHIN, MONOGLYCERIDES, NATURAL FLAVOR, VITAMIN A PALMITATE, VITAMIN D3, COLOR (ANNATTO)], SUGAR, VINEGAR, SALT, FILLING: CORN SYRUP, SUGAR, EGG, PECANS, MARGARINE [CANOLA OIL, WATER, MODIFIED PALM AND PALM KERNEL OIL, SALT, WHEY POWDER, SOYBEAN LECITHIN, MONOGLYCERIDES, POTASSIUM SORBATE (PRESERVATIVE), ARTIFICIAL FLAVOR, VITAMIN A PALMITATE, VITAMIN D3]), SOYBEAN OIL, MOLASSES, BUTTER (CREAM, SALT), ARTIFICIAL FLAVOR, SALT, VINEGAR." Date available: 07/14/2017 Date last updated by company: 07/14/2017
