Source: USDA Branded Food Products Database Release December 2017 Software v.3.8.6.4 2017-10-02
Report Run at: December 17, 2017 20:53 EST
"Nutrient data for: 45194362, MINI SMOKED SAUSAGES, UPC: 025108062422"
Food Group:  Branded Food Products Database
Common Name:

Nutrient,Unit,Data points,Std. Error,"2.0 ONZ = 56.0g",1Value per 100 g,
Proximates
"Energy",kcal,--,--,140,250
"Protein",g,--,--,10.00,17.86
"Total lipid (fat)",g,--,--,10.00,17.86
"Carbohydrate, by difference",g,--,--,2.00,3.57
"Fiber, total dietary",g,--,--,0.0,0.0
"Sugars, total",g,--,--,1.00,1.79
Minerals
"Calcium, Ca",mg,--,--,20,36
"Iron, Fe",mg,--,--,0.55,0.98
"Sodium, Na",mg,--,--,510,911
Vitamins
"Vitamin C, total ascorbic acid",mg,--,--,0.0,0.0
"Vitamin A, IU",IU,--,--,152,271
Lipids
"Fatty acids, total saturated",g,--,--,3.998,7.140
"Fatty acids, total trans",g,--,--,0.000,0.000
"Cholesterol",mg,--,--,35,62
Amino Acids
Other
Ingredients
"PORK, BACON PIECES (CURED WITH WATER, SALT, SUGAR, SODIUM ERYTHORBATE, AND/OR SODIUM ASCORBATE, SODIUM NITRITE. MAY CONTAIN NATURAL SMOKE FLAVORING, SODIUM PHOSPHATE), WATER, PASTEURIZED AND PROCESSED CHEDDAR CHEESE (CHEDDAR CHEESE [CULTURED MILK, SALT, ENZYMES], WATER, CREAM, SODIUM PHOSPHATE, SALT, BETA CAROTENE [COLOR]), CONTAINS 2% OR LESS OF THE FOLLOWING: SUGAR, SALT, DEXTROSE, MALTODEXTRIN, SPICES, FLAVORINGS, DEHYDRATED CHEDDAR CHEESE (PASTEURIZED MILK, CHEESE CULTURES, SALT, ENZYMES), BELL PEPPERS, WHEY, DEHYDRATED CHEESE (PASTEURIZED MILK, CULTURES, SALT), DISODIUM PHOSPHATE, YEAST EXTRACT, PAPRIKA, POTASSIUM LACTATE, POTASSIUM ACETATE, SODIUM DIACETATE, SODIUM ERYTHORBATE, SODIUM NITRITE." Date available: 07/14/2017 Date last updated by company: 07/14/2017
