Source: USDA Branded Food Products Database Release December 2017 Software v.3.8.6.4 2017-10-02
Report Run at: December 17, 2017 20:34 EST
"Nutrient data for: 45192032, MINI CLASSIC ITALIA CANNOLI, UPC: 652703005525"
Food Group:  Branded Food Products Database
Common Name:

Nutrient,Unit,Data points,Std. Error,"1 FILLED CANNOLI = 32.0g",1Value per 100 g,
Proximates
"Energy",kcal,--,--,110,344
"Protein",g,--,--,3.00,9.38
"Total lipid (fat)",g,--,--,5.00,15.62
"Carbohydrate, by difference",g,--,--,12.00,37.50
"Fiber, total dietary",g,--,--,0.0,0.0
"Sugars, total",g,--,--,9.00,28.12
Minerals
"Calcium, Ca",mg,--,--,60,188
"Iron, Fe",mg,--,--,0.62,1.94
"Sodium, Na",mg,--,--,20,62
Vitamins
"Vitamin C, total ascorbic acid",mg,--,--,0.0,0.0
"Vitamin A, IU",IU,--,--,0,0
Lipids
"Fatty acids, total saturated",g,--,--,3.002,9.380
"Fatty acids, total trans",g,--,--,0.000,0.000
"Cholesterol",mg,--,--,15,47
Amino Acids
Other
Ingredients
"ROCOTTA IMPASTATA CHEESE (MILK, STARTER, SALT), SUGAR, ENRICHED WHEAT FLOUR (WHEAT FLOUR, MALTED BARLEY FLOUR, NIACIN, IRON, THIAMINE MONONITRATE, RIBOFLAVIN, FOLIC ACID), CHOCOLATE CHIPS (SUGAR, UNSWEETENED CHOCOLATE, COCOA BUTTER, SOY LECITHIN (AN EMULSIFIER), NATURAL VANILLA EXTRACT), VEGETABLE SHORTENING (PALM AND/OR COTTONSEED AND/OR SOY OILS), WATER, EGGS, VINEGAR, DONUT SUGAR DEXTROSE, CORN STARCH, VEGETABLE SHORTENING (PALM OIL), CONTAINS 2% OR LESS OF THE FOLLOWING: TITANIUM DIOXIDE, NATURAL AND ARTIFICIAL FLAVOR, EGG WHITES, WHEY (MILK), WHEAT FLOUR, SOY FLOUR), CINNAMON, NATURAL FLAVOR." Date available: 07/14/2017 Date last updated by company: 07/14/2017
