Source: USDA Branded Food Products Database Release December 2017 Software v.3.8.6.4 2017-10-02
Report Run at: December 17, 2017 20:40 EST
"Nutrient data for: 45282876, MINI GOLD CUPCAKES, UPC: 688267041655"
Food Group:  Branded Food Products Database
Common Name:

Nutrient,Unit,Data points,Std. Error,"3.0 CUPCAKES = 71.0g",1Value per 100 g,
Proximates
"Energy",kcal,--,--,270,380
"Protein",g,--,--,2.00,2.82
"Total lipid (fat)",g,--,--,10.00,14.08
"Carbohydrate, by difference",g,--,--,42.00,59.15
"Fiber, total dietary",g,--,--,0.0,0.0
"Sugars, total",g,--,--,30.00,42.25
Minerals
"Calcium, Ca",mg,--,--,20,28
"Iron, Fe",mg,--,--,0.81,1.14
"Sodium, Na",mg,--,--,270,380
Vitamins
"Vitamin C, total ascorbic acid",mg,--,--,0.0,0.0
"Vitamin A, IU",IU,--,--,0,0
Lipids
"Fatty acids, total saturated",g,--,--,3.500,4.930
"Fatty acids, total trans",g,--,--,0.000,0.000
"Cholesterol",mg,--,--,20,28
Amino Acids
Other
Ingredients
"SUGAR, WATER, BLEACHED ENRICHED WHEAT FLOUR (FLOUR, NIACIN, REDUCED IRON, THIAMIN MONONITRATE, RIBOFLAVIN, FOLIC ACID), VEGETABLE OIL (PALM, SOYBEAN, PALM KERNEL, CANOLA), EGGS, FOOD STARCH-MODIFIED, CORNSTARCH, LEAVENING (SODIUM ACID PYROPHOSPHATE, BAKING SODA, MONOCALCIUM PHOSPHATE, SODIUM ALUMINUM PHOSPHATE, ALUMINUM SULFATE), CORN SYRUP, NONFAT MILK, MONO- AND DIGLYCERIDES, EGG WHITES, SALT, WHEY, SOY LECITHIN, POTASSIUM SORBATE (PRESERVATIVE), WHEAT STARCH, CONFECTIONERS GLAZE, GUAR GUM, POLYSORBATE 60, POLYGLYCEROL ESTERS OF FATTY ACIDS, GLYCERIN, RED 40, SODIUM STEAROYL LACTYLATE, WHEAT PROTEIN, NATURAL AND ARTIFICIAL FLAVOR, DATEM, CALCIUM STEAROYL-2-LACTYLATE, RED 3, BLUE 1, XANTHAN GUM, SODIUM CARBOXYMETHYLCELLULOSE, METHYLCELLULOSE, YELLOW 5." Date available: 07/14/2017 Date last updated by company: 07/14/2017
