Source: USDA Branded Food Products Database Release December 2017 Software v.3.8.6.4 2017-10-02
Report Run at: December 17, 2017 20:58 EST
"Nutrient data for: 45269878, MINSTRELS MILK CHOCOLATE, UPC: 5000159479240"
Food Group:  Branded Food Products Database
Common Name:

Nutrient,Unit,Data points,Std. Error,"100.0 GRM = 100.0g",1Value per 100 g,
Proximates
"Energy",kcal,--,--,499,499
"Protein",g,--,--,5.30,5.30
"Total lipid (fat)",g,--,--,22.00,22.00
"Carbohydrate, by difference",g,--,--,69.10,69.10
"Sugars, total",g,--,--,67.86,67.86
Minerals
Vitamins
Lipids
"Fatty acids, total saturated",g,--,--,13.100,13.100
Amino Acids
Other
Ingredients
"SUGAR, COCOA BUTTER, SKIMMED MILK POWDER, COCOA MASS, LACTOSE AND PROTEIN FROM WHEY (FROM MILK), PALM FAT, WHEY POWDER (FROM MILK), MILK FAT, EMULSIFIER (SOYA LECITHIN), DEXTRIN, NATURAL COLOURS (CURCUMIN, VEGETABLE CARBON, BEETROOT RED), STARCH, GLAZING AGENT (CARNAUBA WAX), COCONUT OIL, NATURAL VANILLA EXTRACT. MILK CHOCOLATE CONTAINS MILK SOLIDS 14% MINIMUM." Date available: 10/19/2017 Date last updated by company: 10/19/2017
