Source: USDA Branded Food Products Database Release December 2017 Software v.3.8.6.4 2017-10-02
Report Run at: December 17, 2017 20:59 EST
"Nutrient data for: 45214677, MINT CHOCOLATE CHIP ICE CREAM, UPC: 070640011674"
Food Group:  Branded Food Products Database
Common Name:

Nutrient,Unit,Data points,Std. Error,"0.5 cup = 64.0g",1Value per 100 g,
Proximates
"Energy",kcal,--,--,120,188
"Protein",g,--,--,2.00,3.12
"Total lipid (fat)",g,--,--,5.00,7.81
"Carbohydrate, by difference",g,--,--,16.00,25.00
"Fiber, total dietary",g,--,--,0.0,0.0
"Sugars, total",g,--,--,11.00,17.19
Minerals
"Calcium, Ca",mg,--,--,80,125
"Iron, Fe",mg,--,--,0.00,0.00
"Potassium, K",mg,--,--,125,195
"Sodium, Na",mg,--,--,40,62
Vitamins
"Vitamin C, total ascorbic acid",mg,--,--,0.0,0.0
"Vitamin A, IU",IU,--,--,337,527
Lipids
"Fatty acids, total saturated",g,--,--,3.501,5.470
"Fatty acids, total trans",g,--,--,0.000,0.000
"Cholesterol",mg,--,--,20,31
Amino Acids
Other
Ingredients
"MILK, BUTTERMILK, WHEY, CREAM, CORN SYRUP, SKIM MILK, HIGH FRUCTOSE CORN SYRUP, SUGAR, CHOCOLATE FLAVORED CHIPS (SUGAR, HYDROGENATED PALM KERNEL OIL, COCONUT OIL, COCOA, COCOA PROCESSED WITH ALKALI, SOY LECITHIN, SALT, VANILLA), CONTAINS 2% OR LESS OF REDISTILLED OIL OF PEPPERMINT, MONO & DIGLYCERIDES, CAROB BEAN GUM, GUAR GUM, CELLULOSE GEL, CELLULOSE GUM, CARRAGEENAN, VITAMIN A PALMITATE, BLUE 1, YELLOW 5." Date available: 07/14/2017 Date last updated by company: 07/14/2017
