Source: USDA Branded Food Products Database Release December 2017 Software v.3.8.6.4 2017-10-02
Report Run at: December 17, 2017 20:59 EST
"Nutrient data for: 45270347, MINT COW TRACKS ICE CREAM, UPC: 041483030740"
Food Group:  Branded Food Products Database
Common Name:

Nutrient,Unit,Data points,Std. Error,"0.5 cup = 66.0g",1Value per 100 g,
Proximates
"Energy",kcal,--,--,180,273
"Protein",g,--,--,2.00,3.03
"Total lipid (fat)",g,--,--,10.00,15.15
"Carbohydrate, by difference",g,--,--,20.00,30.30
"Fiber, total dietary",g,--,--,1.0,1.5
"Sugars, total",g,--,--,17.00,25.76
Minerals
"Calcium, Ca",mg,--,--,60,91
"Iron, Fe",mg,--,--,0.00,0.00
"Sodium, Na",mg,--,--,65,98
Vitamins
"Vitamin C, total ascorbic acid",mg,--,--,0.0,0.0
"Vitamin A, IU",IU,--,--,225,341
Lipids
"Fatty acids, total saturated",g,--,--,5.003,7.580
"Fatty acids, total trans",g,--,--,0.000,0.000
"Cholesterol",mg,--,--,25,38
Amino Acids
Other
Ingredients
"MILKFAT AND NONFAT MILK, SWEET CREAM BUTTERMILK, FUDGE SWIRL (SUGAR, PEANUT OIL, COCOA PROCESSED WITH ALKALI, WHEY POWDER, SALT, SOY LECITHIN), SUGAR, CHOCOLATY MINT FILLED COWS (SUGAR, COCONUT OIL, PARTIALLY HYDROGENATED SOYBEAN OIL, SKIM MILK, MILK, COCOA PROCESSED WITH ALKALI, SOY LECITHIN, OIL OF PEPPERMINT, NATURAL AND ARTIFICIAL FLAVOR, SALT, YELLOW 5 LAKE, BLUE 1 LAKE), CORN SYRUP, HIGH FRUCTOSE CORN SYRUP, WHEY, CONTAINS LESS THAN 2% OF NATURAL FLAVOR, MONO AND DIGLYCERIDES, ARTIFICIAL COLOR (YELLOW 5, BLUE 1), GUAR GUM, CALCIUM SULFATE, CAROB BEAN GUM, CARRAGEENAN." Date available: 07/14/2017 Date last updated by company: 07/14/2017
