Source: USDA Branded Food Products Database Release December 2017 Software v.3.8.6.4 2017-10-02
Report Run at: December 17, 2017 21:03 EST
"Nutrient data for: 45121028, MINUTE, BROWN & WILD RICE, UPC: 017400140045"
Food Group:  Branded Food Products Database
Common Name:

Nutrient,Unit,Data points,Std. Error,"1 cup = 125.0g",1Value per 100 g,
Proximates
"Energy",kcal,--,--,230,184
"Protein",g,--,--,5.00,4.00
"Total lipid (fat)",g,--,--,4.50,3.60
"Carbohydrate, by difference",g,--,--,42.00,33.60
"Fiber, total dietary",g,--,--,5.0,4.0
"Sugars, total",g,--,--,0.00,0.00
Minerals
"Iron, Fe",mg,--,--,0.40,0.32
"Potassium, K",mg,--,--,135,108
"Sodium, Na",mg,--,--,130,104
Vitamins
"Vitamin C, total ascorbic acid",mg,--,--,0.0,0.0
"Thiamin",mg,--,--,0.000,0.000
"Riboflavin",mg,--,--,0.037,0.030
"Niacin",mg,--,--,1.680,1.344
"Vitamin A, IU",IU,--,--,0,0
Lipids
"Fatty acids, total saturated",g,--,--,0.500,0.400
"Fatty acids, total trans",g,--,--,0.000,0.000
"Cholesterol",mg,--,--,0,0
Amino Acids
Other
Ingredients
"WATER, BROWN RICE, WILD RICE, SOYBEAN OIL, SALT, SOY LECITHIN (EMULSIFIER)." Date available: 10/11/2017 Date last updated by company: 10/11/2017
