Source: USDA Branded Food Products Database Release December 2017 Software v.3.8.6.4 2017-10-02
Report Run at: December 17, 2017 21:03 EST
"Nutrient data for: 45093586, MINUTE, READY TO SERVE! MULTI-GRAIN MEDLEY, UPC: 017400140076"
Food Group:  Branded Food Products Database
Common Name:

Nutrient,Unit,Data points,Std. Error,"1 cup = 125.0g",1Value per 100 g,
Proximates
"Energy",kcal,--,--,250,200
"Protein",g,--,--,6.00,4.80
"Total lipid (fat)",g,--,--,5.00,4.00
"Carbohydrate, by difference",g,--,--,45.00,36.00
"Fiber, total dietary",g,--,--,7.0,5.6
"Sugars, total",g,--,--,1.00,0.80
Minerals
"Calcium, Ca",mg,--,--,20,16
"Iron, Fe",mg,--,--,0.81,0.65
"Potassium, K",mg,--,--,230,184
"Sodium, Na",mg,--,--,160,128
Vitamins
"Vitamin C, total ascorbic acid",mg,--,--,0.0,0.0
"Vitamin A, IU",IU,--,--,0,0
Lipids
"Fatty acids, total saturated",g,--,--,0.500,0.400
"Fatty acids, total trans",g,--,--,0.000,0.000
"Cholesterol",mg,--,--,0,0
Amino Acids
Other
Ingredients
"WATER, MULTI-GRAIN BLEND (WHEAT, RYE, BARLEY), WHOLE GRAIN BROWN RICE, OATS, SUNFLOWER OIL, QUINOA, SOY LECITHIN (EMULSIFIER), SALT." Date available: 09/16/2017 Date last updated by company: 09/16/2017
