Source: USDA Branded Food Products Database Release December 2017 Software v.3.8.6.4 2017-10-02
Report Run at: December 17, 2017 21:03 EST
"Nutrient data for: 45121008, MINUTE, CHICKEN FLAVOR RICE MIX, CHICKEN, UPC: 017400140021"
Food Group:  Branded Food Products Database
Common Name:

Nutrient,Unit,Data points,Std. Error,"1 cup = 125.0g",1Value per 100 g,
Proximates
"Energy",kcal,--,--,230,184
"Protein",g,--,--,6.00,4.80
"Total lipid (fat)",g,--,--,4.00,3.20
"Carbohydrate, by difference",g,--,--,41.00,32.80
"Fiber, total dietary",g,--,--,2.0,1.6
"Sugars, total",g,--,--,1.00,0.80
Minerals
"Potassium, K",mg,--,--,125,100
"Sodium, Na",mg,--,--,940,752
Vitamins
"Vitamin C, total ascorbic acid",mg,--,--,0.9,0.7
"Thiamin",mg,--,--,0.000,0.000
"Riboflavin",mg,--,--,0.255,0.204
"Niacin",mg,--,--,5.600,4.480
Lipids
"Fatty acids, total saturated",g,--,--,0.000,0.000
"Fatty acids, total trans",g,--,--,0.000,0.000
"Cholesterol",mg,--,--,0,0
Amino Acids
Other
Ingredients
"WATER, PARBOILED LONG GRAIN WHITE RICE, SEASONING [SALT, MONOSODIUM GLUTAMATE, ONION POWDER, HYDROLYZED CORN AND SOY PROTEIN, SUGAR, CORN STARCH, GARLIC POWDER, MALTODEXTRIN, TURMERIC (COLOR), YEAST EXTRACT, SPICE, HYDROLYZED YEAST EXTRACT, CYSTEINE HYDROCHLORIDE, NATURAL AND ARTIFICIAL FLAVOR, < 2% SILICON DIOXIDE, ADDED AS AN ANTI-CAKING AGENT], SUNFLOWER OIL, YEAST EXTRACT, GELATIN, SOY LECITHIN (EMULSIFIER)." Date available: 08/16/2017 Date last updated by company: 08/16/2017
