Source: USDA Branded Food Products Database Release December 2017 Software v.3.8.6.4 2017-10-02
Report Run at: December 17, 2017 21:06 EST
"Nutrient data for: 45160828, MIRAVALLE, LUNETAS, UPC: 712810991217"
Food Group:  Branded Food Products Database
Common Name:

Nutrient,Unit,Data points,Std. Error,"78.0 GRM = 78.0g",1Value per 100 g,
Proximates
"Energy",kcal,--,--,240,308
"Protein",g,--,--,2.00,2.56
"Total lipid (fat)",g,--,--,10.00,12.82
"Carbohydrate, by difference",g,--,--,34.00,43.59
"Fiber, total dietary",g,--,--,1.0,1.3
"Sugars, total",g,--,--,31.00,39.74
Minerals
"Calcium, Ca",mg,--,--,40,51
"Iron, Fe",mg,--,--,0.23,0.30
"Sodium, Na",mg,--,--,30,38
Vitamins
"Vitamin C, total ascorbic acid",mg,--,--,0.0,0.0
"Vitamin A, IU",IU,--,--,0,0
Lipids
"Fatty acids, total saturated",g,--,--,5.998,7.690
"Fatty acids, total trans",g,--,--,0.000,0.000
"Cholesterol",mg,--,--,5,6
Amino Acids
Other
Ingredients
"MILK CHOCOLATE (SUGAR, CHOCOLATE, COCOA BUTTER, SKIM MILK, MILK FAT, LACTOSE, SOY LECITHIN, SALT, ARTIFICIAL FLAVORS), SUGAR, CORN STARCH, LESS THAN 1% CORN SYRUP, GUM ACACIA, COLORING (INCLUDES RED 40 LAKE, YELLOW 6, YELLOW 5, BLUE 2 LAKE, RED 40, BLUE 1 LAKE, BLUE 1, YELLOW 5 LAKE, YELLOW 6 LAKE), DEXTRIN." Date available: 07/14/2017 Date last updated by company: 07/14/2017
