Source: USDA Branded Food Products Database Release December 2017 Software v.3.8.6.4 2017-10-02
Report Run at: December 17, 2017 21:05 EST
"Nutrient data for: 45139324, MIRA, PREMIUM TROPICAL LIGHT NECTAR, MANGO, UPC: 036426300301"
Food Group:  Branded Food Products Database
Common Name:

Nutrient,Unit,Data points,Std. Error,"8.0 OZA = 240.0g",1Value per 100 g,
Proximates
"Energy",kcal,--,--,65,27
"Protein",g,--,--,0.00,0.00
"Total lipid (fat)",g,--,--,0.00,0.00
"Carbohydrate, by difference",g,--,--,16.99,7.08
"Fiber, total dietary",g,--,--,1.0,0.4
"Sugars, total",g,--,--,16.01,6.67
Minerals
"Sodium, Na",mg,--,--,19,8
Vitamins
"Vitamin C, total ascorbic acid",mg,--,--,72.0,30.0
Lipids
"Fatty acids, total saturated",g,--,--,0.000,0.000
"Fatty acids, total trans",g,--,--,0.000,0.000
"Cholesterol",mg,--,--,0,0
Amino Acids
Other
Ingredients
"FILTERED WATER, MANGO PUREE, SUGAR, SUCRALOSE, CELLULOSE GUM, CITRIC ACID, ASCORBIC ACID, NATURAL MANGO FLAVOR, BETA CAROTENE." Date available: 07/14/2017 Date last updated by company: 07/14/2017
