Source: USDA Branded Food Products Database Release December 2017 Software v.3.8.6.4 2017-10-02
Report Run at: December 17, 2017 21:08 EST
"Nutrient data for: 45237243, MISO SALMON WITH UDON NOODLES, UPC: 028585801034"
Food Group:  Branded Food Products Database
Common Name:

Nutrient,Unit,Data points,Std. Error,"1 TRAY = 255.0g",1Value per 100 g,
Proximates
"Energy",kcal,--,--,339,133
"Protein",g,--,--,22.01,8.63
"Total lipid (fat)",g,--,--,12.01,4.71
"Carbohydrate, by difference",g,--,--,37.00,14.51
"Fiber, total dietary",g,--,--,3.1,1.2
"Sugars, total",g,--,--,4.00,1.57
Minerals
"Calcium, Ca",mg,--,--,41,16
"Iron, Fe",mg,--,--,1.10,0.43
"Sodium, Na",mg,--,--,579,227
Vitamins
"Vitamin C, total ascorbic acid",mg,--,--,13.8,5.4
"Vitamin A, IU",IU,--,--,956,375
Lipids
"Fatty acids, total saturated",g,--,--,3.009,1.180
"Fatty acids, total trans",g,--,--,0.000,0.000
"Cholesterol",mg,--,--,46,18
Amino Acids
Other
Ingredients
"COOKED UDON NOODLES (ENRICHED WHEAT FLOUR [WHEAT FLOUR, MALTED BARLEY FLOUR, NIACIN, IRON, THIAMINE MONONITRATE, RIBOFLAVIN, FOLIC ACID], WATER, SALT), ATLANTIC SALMON (COLOR ADDED), STRI FRY VEGETABLE BLEND (BROCCOLI, CARROTS, MUSHROOMS, ONIONS, BELL PEPPER, WATER CHESTNUTS, SUGAR SNAP PEAS, GREEN BEANS, EDAMAME, BOK CHOY), INJECTABLE MARINADE (MALTODEXTRIN, FOOD STARCH, NATURAL FLAVORS, DEXTROSE, SALT, XANTHAN GUM), SWEET CHILI SAUCE (SUGAR, WATER, PICKLED RED CHILI, VINEGAR, GARLIC, SALT, XANTHAN GUM), GREEN ONION, LIGHT SOY SAUCE (WATER, WHEAT, SOYBEANS, SALT, LACTIC ACID, SODIUM BENZOATE [PRESERVATIVE]), RICE WINE VINEGAR, MISO PASTE (WATER, SOYBEANS, RICE, SALT, ETHYL ALCOHOL), BUTTER (PASTEURIZED CREAM, NATURAL FLAVORINGS), SESAME SEEDS, SUGAR, SWEET COOKING RICE SEASONING (GLUCOSE SYRUP, WATER, ALCOHOL, RICE, CORN SYRUP, SALT), SAKE WINE, GARLIC, GINGER." Date available: 08/16/2017 Date last updated by company: 08/16/2017
