Source: USDA Branded Food Products Database Release December 2017 Software v.3.8.6.4 2017-10-02
Report Run at: December 17, 2017 21:07 EST
"Nutrient data for: 45328329, MISO & EASY BROTH CONCENTRATE, UPC: 892565002700"
Food Group:  Branded Food Products Database
Common Name:

Nutrient,Unit,Data points,Std. Error,"2.0 tsp = 12.0g",1Value per 100 g,
Proximates
"Energy",kcal,--,--,15,125
"Total lipid (fat)",g,--,--,0.00,0.00
"Carbohydrate, by difference",g,--,--,2.00,16.67
Minerals
"Sodium, Na",mg,--,--,440,3667
Vitamins
Lipids
Amino Acids
Other
Ingredients
"MISO (FILTERED WATER, SOYBEANS [NON-GENETICALLY MODIFIED], RICE, SEA SALT), FILTERED WATER, SWEET RICE WINE, SEA SALT, TOMATO PASTE, ALCOHOL (TO PRESERVE FRESHNESS), GINGER POWDER, YEAST EXTRACT, SHIITAKE MUSHROOM EXTRACT." Date available: 10/19/2017 Date last updated by company: 10/19/2017
