Source: USDA Branded Food Products Database Release December 2017 Software v.3.8.6.4 2017-10-02
Report Run at: December 17, 2017 21:07 EST
"Nutrient data for: 45202344, MISO CHICKEN POTSTICKERS, UPC: 760941241213"
Food Group:  Branded Food Products Database
Common Name:

Nutrient,Unit,Data points,Std. Error,"5.0 PIECES = 113.0g",1Value per 100 g,
Proximates
"Energy",kcal,--,--,200,177
"Protein",g,--,--,10.99,9.73
"Total lipid (fat)",g,--,--,4.50,3.98
"Carbohydrate, by difference",g,--,--,28.00,24.78
"Fiber, total dietary",g,--,--,1.0,0.9
"Sugars, total",g,--,--,4.00,3.54
Minerals
"Calcium, Ca",mg,--,--,20,18
"Iron, Fe",mg,--,--,0.54,0.48
"Sodium, Na",mg,--,--,370,327
Vitamins
"Vitamin C, total ascorbic acid",mg,--,--,6.8,6.0
"Vitamin A, IU",IU,--,--,226,200
Lipids
"Fatty acids, total saturated",g,--,--,0.994,0.880
"Fatty acids, total trans",g,--,--,0.000,0.000
"Cholesterol",mg,--,--,31,27
Amino Acids
Other
Ingredients
"FILLING: CHICKEN, NAPA CABBAGE, MISO (SOYBEAN, WATER, WHEAT FLOUR AND SALT), MIRIN (CORN SYRUP, WATER, ALCOHOL, RICE, VINEGAR, AND SALT), SESAME OIL, SUGAR, GARLIC POWDER, MODIFIED STARCH., WRAPPER: WHEAT FLOUR, WATER, WHEAT GLUTEN, CORN STARCH, SALT." Date available: 07/14/2017 Date last updated by company: 07/14/2017
