Source: USDA Branded Food Products Database Release December 2017 Software v.3.8.6.4 2017-10-02
Report Run at: December 17, 2017 21:08 EST
"Nutrient data for: 45199850, MISSION CLEAN PROTEIN BAR, UPC: 631656500431"
Food Group:  Branded Food Products Database
Common Name:

Nutrient,Unit,Data points,Std. Error,"1 BAR = 60.0g",1Value per 100 g,
Proximates
"Energy",kcal,--,--,190,317
"Protein",g,--,--,20.00,33.33
"Total lipid (fat)",g,--,--,6.00,10.00
"Carbohydrate, by difference",g,--,--,24.00,40.00
"Fiber, total dietary",g,--,--,20.0,33.3
"Sugars, total",g,--,--,1.00,1.67
Minerals
"Calcium, Ca",mg,--,--,60,100
"Iron, Fe",mg,--,--,1.20,2.00
"Sodium, Na",mg,--,--,180,300
Vitamins
"Vitamin C, total ascorbic acid",mg,--,--,0.0,0.0
"Vitamin A, IU",IU,--,--,0,0
Lipids
"Fatty acids, total saturated",g,--,--,1.998,3.330
"Fatty acids, total trans",g,--,--,0.000,0.000
"Cholesterol",mg,--,--,5,8
Amino Acids
Other
Ingredients
"PROTEIN BLEND (MILK PROTEIN ISOLATE, WHEY PROTEIN ISOLATE), ISOMALTO-OLIGOSACCHARIDES, GROUND ALMONDS, WATER, COCOA (PROCESSED WITH ALKALI), NATURAL FLAVOR, SOLUBLE CORN FIBER, RICE FLOUR, PALM OIL, ERYTHRITOL, SEA SALT, UNSWEETENED CHOCOLATE, REBAUDIOSIDE A (STEVIA), SOY LECITHIN, TOCOPHEROLS (PRESERVATIVE), SOYBEAN OIL." Date available: 07/14/2017 Date last updated by company: 07/14/2017
