Source: USDA Branded Food Products Database Release December 2017 Software v.3.8.6.4 2017-10-02
Report Run at: December 17, 2017 21:10 EST
"Nutrient data for: 45162987, MISS VICKIE'S, ORIGINAL KETTLE POTATO CHIPS, SEA SALT, UPC: 028400009973"
Food Group:  Branded Food Products Database
Common Name:

Nutrient,Unit,Data points,Std. Error,"1 PACKAGE = 38.9g",1Value per 100 g,
Proximates
"Energy",kcal,--,--,210,540
"Protein",g,--,--,3.00,7.71
"Total lipid (fat)",g,--,--,13.00,33.42
"Carbohydrate, by difference",g,--,--,22.00,56.56
"Fiber, total dietary",g,--,--,2.0,5.1
"Sugars, total",g,--,--,1.00,2.57
Minerals
"Calcium, Ca",mg,--,--,0,0
"Iron, Fe",mg,--,--,0.72,1.85
"Magnesium, Mg",mg,--,--,24,62
"Phosphorus, P",mg,--,--,40,103
"Potassium, K",mg,--,--,500,1285
"Sodium, Na",mg,--,--,120,308
"Zinc, Zn",mg,--,--,0.30,0.77
Vitamins
"Vitamin C, total ascorbic acid",mg,--,--,9.0,23.1
"Vitamin B-6",mg,--,--,0.300,0.771
"Vitamin A, IU",IU,--,--,0,0
Lipids
"Fatty acids, total saturated",g,--,--,1.999,5.140
"Fatty acids, total trans",g,--,--,0.000,0.000
"Cholesterol",mg,--,--,0,0
Amino Acids
Other
Ingredients
"POTATOES, VEGETABLE OIL (SUNFLOWER, CORN, AND/OR CANOLA OIL), AND SEA SALT." Date available: 09/28/2016 Date last updated by company: 09/28/2016
