Source: USDA Branded Food Products Database Release December 2017 Software v.3.8.6.4 2017-10-02
Report Run at: December 17, 2017 21:09 EST
"Nutrient data for: 45123773, MISSION PIZZA CO, ITALIAN SAUSAGE THIN CRUST PIZZA, UPC: 075706127528"
Food Group:  Branded Food Products Database
Common Name:

Nutrient,Unit,Data points,Std. Error,"0.25 PIZZA = 141.0g",1Value per 100 g,
Proximates
"Energy",kcal,--,--,340,241
"Protein",g,--,--,13.00,9.22
"Total lipid (fat)",g,--,--,17.00,12.06
"Carbohydrate, by difference",g,--,--,32.01,22.70
"Fiber, total dietary",g,--,--,2.0,1.4
"Sugars, total",g,--,--,4.00,2.84
Minerals
"Calcium, Ca",mg,--,--,250,177
"Iron, Fe",mg,--,--,1.99,1.41
"Sodium, Na",mg,--,--,850,603
Vitamins
"Vitamin C, total ascorbic acid",mg,--,--,12.4,8.8
"Vitamin A, IU",IU,--,--,553,392
Lipids
"Fatty acids, total saturated",g,--,--,7.995,5.670
"Fatty acids, total trans",g,--,--,0.000,0.000
"Cholesterol",mg,--,--,35,25
Amino Acids
Other
Ingredients
"WATER, WHEAT FLOUR, PASTEURIZED MILK, PORK, TOMATOES, LIQUID & HYDROGENATED SOYBEAN OIL, CONTAINS 2% OR LESS OF THE FOLLOWING: PALM OIL, YEAST, SALT, CORN MEAL, DEHYDRATED POTATOES, SUGAR, SPICES & SPICE EXTRACTIVES (INCLUDING PAPRIKA), CHEESE CULTURES, ENZYMES, WHEAT GLUTEN, CULTURED WHEY, WHEY, VINEGAR, PROCESSING AIDS, LECITHIN, CORN STARCH, MONOCALCIUM PHOSPHATE, SODIUM ACID PYROPHOSPHATE, SODIUM BICARBONATE, NATURAL & ARTIFICIAL FLAVOR, BETA CAROTENE, CITRIC ACID, DIMETHYLPOLYSILOXANE, SOY LECITHIN, TBHQ, ONION POWDER, GARLIC POWDER, SOYBEAN OIL (PROCESSING AID), ASCORBIC ACID, FERROUS SULFATE, FOLIC ACID, NIACIN, RIBOFLAVIN, THIAMINE MONONITRATE." Date available: 07/14/2017 Date last updated by company: 07/14/2017
