Source: USDA Branded Food Products Database Release December 2017 Software v.3.8.6.4 2017-10-02
Report Run at: December 17, 2017 21:10 EST
"Nutrient data for: 45327598, MIST TWST, SPARKLING FLAVORED SODA, LEMON LIME, UPC: 012000150470"
Food Group:  Branded Food Products Database
Common Name:

Nutrient,Unit,Data points,Std. Error,"1 Bottle = 500.0g",1Value per 100 g,
Proximates
"Energy",kcal,--,--,210,42
"Protein",g,--,--,0.00,0.00
"Total lipid (fat)",g,--,--,0.00,0.00
"Carbohydrate, by difference",g,--,--,55.00,11.00
"Sugars, total",g,--,--,55.00,11.00
Minerals
"Sodium, Na",mg,--,--,45,9
Vitamins
Lipids
Amino Acids
Other
Ingredients
"CARBONATED WATER, HIGH FRUCTOSE CORN SYRUP, LEMON JUICE CONCENTRATE, NATURAL FLAVOR, CITRIC ACID, POTASSIUM SORBATE AND POTASSIUM BENZOATE (PRESERVE FRESHNESS), CALCIUM DISODIUM EDTA (TO PROTECT FLAVOR)." Date available: 06/25/2017 Date last updated by company: 06/25/2017
