Source: USDA Branded Food Products Database Release December 2017 Software v.3.8.6.4 2017-10-02
Report Run at: December 17, 2017 21:10 EST
"Nutrient data for: 45248730, MISTIC, FLAVORED JUICE DRINK, UPC: 089396642902"
Food Group:  Branded Food Products Database
Common Name:

Nutrient,Unit,Data points,Std. Error,"8.0 OZA = 240.0g",1Value per 100 g,
Proximates
"Energy",kcal,--,--,130,54
"Protein",g,--,--,0.00,0.00
"Total lipid (fat)",g,--,--,0.00,0.00
"Carbohydrate, by difference",g,--,--,31.99,13.33
"Sugars, total",g,--,--,31.01,12.92
Minerals
"Sodium, Na",mg,--,--,41,17
Vitamins
"Vitamin C, total ascorbic acid",mg,--,--,60.0,25.0
"Vitamin A, IU",IU,--,--,1500,625
Lipids
Amino Acids
Other
Ingredients
"FILTERED WATER, HIGH FRUCTOSE CORN SYRUP, PEAR AND CARROT JUICE CONCENTRATES, CITRIC ACID, ASCORBIC ACID (VITAMIN C), NATURAL FLAVORS, RED 40." Date available: 07/14/2017 Date last updated by company: 07/14/2017
