Source: USDA Branded Food Products Database Release December 2017 Software v.3.8.6.4 2017-10-02
Report Run at: December 17, 2017 21:15 EST
"Nutrient data for: 45136427, MIXED FRUIT NUT BAR, UPC: 854990003219"
Food Group:  Branded Food Products Database
Common Name:

Nutrient,Unit,Data points,Std. Error,"0.5 BAR = 32.5g",1Value per 100 g,
Proximates
"Energy",kcal,--,--,151,465
"Protein",g,--,--,2.00,6.15
"Total lipid (fat)",g,--,--,9.00,27.69
"Carbohydrate, by difference",g,--,--,20.00,61.54
"Fiber, total dietary",g,--,--,1.0,3.1
"Sugars, total",g,--,--,11.00,33.85
Minerals
"Calcium, Ca",mg,--,--,0,0
"Iron, Fe",mg,--,--,1.11,3.41
"Sodium, Na",mg,--,--,0,0
Vitamins
"Vitamin C, total ascorbic acid",mg,--,--,0.0,0.0
"Vitamin A, IU",IU,--,--,0,0
Lipids
"Fatty acids, total saturated",g,--,--,1.001,3.080
"Fatty acids, total trans",g,--,--,0.000,0.000
"Cholesterol",mg,--,--,0,0
Amino Acids
Other
Ingredients
"PEANUTS, RAISINS, CRANBERRIES, CORN SYRUP, SUGAR" Date available: 10/17/2017 Date last updated by company: 10/17/2017
