Source: USDA Branded Food Products Database Release December 2017 Software v.3.8.6.4 2017-10-02
Report Run at: December 17, 2017 21:12 EST
"Nutrient data for: 45202554, MIXED BERRIES, UPC: 782796021215"
Food Group:  Branded Food Products Database
Common Name:

Nutrient,Unit,Data points,Std. Error,"5.0 ONZ = 142.0g",1Value per 100 g,
Proximates
"Energy",kcal,--,--,70,49
"Protein",g,--,--,0.99,0.70
"Total lipid (fat)",g,--,--,0.50,0.35
"Carbohydrate, by difference",g,--,--,17.00,11.97
"Fiber, total dietary",g,--,--,5.0,3.5
"Sugars, total",g,--,--,11.01,7.75
Minerals
"Calcium, Ca",mg,--,--,20,14
"Iron, Fe",mg,--,--,0.71,0.50
"Sodium, Na",mg,--,--,0,0
Vitamins
"Vitamin C, total ascorbic acid",mg,--,--,47.3,33.3
"Vitamin A, IU",IU,--,--,98,69
Lipids
"Fatty acids, total saturated",g,--,--,0.000,0.000
"Fatty acids, total trans",g,--,--,0.000,0.000
"Cholesterol",mg,--,--,0,0
Amino Acids
Other
Ingredients
"STRAWBERRIES, BLACKBERRIES, BLUEBERRIES, RASPBERRIES, JUICES." Date available: 07/14/2017 Date last updated by company: 07/14/2017
