Source: USDA Branded Food Products Database Release December 2017 Software v.3.8.6.4 2017-10-02
Report Run at: December 17, 2017 21:13 EST
"Nutrient data for: 45285678, MIXED BERRY PARFAIT, UPC: 636910500455"
Food Group:  Branded Food Products Database
Common Name:

Nutrient,Unit,Data points,Std. Error,"8.0 ONZ = 228.0g",1Value per 100 g,
Proximates
"Energy",kcal,--,--,262,115
"Protein",g,--,--,17.99,7.89
"Total lipid (fat)",g,--,--,4.99,2.19
"Carbohydrate, by difference",g,--,--,39.01,17.11
"Fiber, total dietary",g,--,--,4.1,1.8
"Sugars, total",g,--,--,24.01,10.53
Minerals
"Calcium, Ca",mg,--,--,189,83
"Iron, Fe",mg,--,--,1.07,0.47
"Sodium, Na",mg,--,--,107,47
Vitamins
"Vitamin C, total ascorbic acid",mg,--,--,4.6,2.0
"Vitamin A, IU",IU,--,--,36,16
Lipids
"Fatty acids, total saturated",g,--,--,1.003,0.440
"Fatty acids, total trans",g,--,--,0.000,0.000
"Cholesterol",mg,--,--,9,4
Amino Acids
Other
Ingredients
"VANILLA YOGURT (PASTEURIZED MILK, ACTIVE CULTURES, VANILLA BEAN EXTRACT), HONEY GRANOLA (WHOLE GRAIN OATS, BROWN SUGAR, CANOLA OIL, DRIED BLUEBERRIES (BLUEBERRIES, SUGAR), FLAX SEEDS, HONEY, VANILLA BEAN EXTRACT, GROUND CINNAMON, SALT), STRAWBERRY JAM (STRAWBERRY, SUGAR, FRUIT PECTIN, CITRIC ACID, GRAPE JUICE CONCENTRATE), BLACKBERRIES." Date available: 07/14/2017 Date last updated by company: 07/14/2017
