Source: USDA Branded Food Products Database Release December 2017 Software v.3.8.6.4 2017-10-02
Report Run at: December 17, 2017 21:13 EST
"Nutrient data for: 45200706, MIXED FRUIT & CHERRIES IN EXTRA LIGHT SYRUP, UPC: 688267163999"
Food Group:  Branded Food Products Database
Common Name:

Nutrient,Unit,Data points,Std. Error,"1 CONTAINER = 198.0g",1Value per 100 g,
Proximates
"Energy",kcal,--,--,101,51
"Protein",g,--,--,0.00,0.00
"Total lipid (fat)",g,--,--,0.00,0.00
"Carbohydrate, by difference",g,--,--,25.01,12.63
"Fiber, total dietary",g,--,--,2.0,1.0
"Sugars, total",g,--,--,22.00,11.11
Minerals
"Calcium, Ca",mg,--,--,20,10
"Iron, Fe",mg,--,--,0.26,0.13
"Potassium, K",mg,--,--,135,68
"Sodium, Na",mg,--,--,26,13
Vitamins
"Vitamin C, total ascorbic acid",mg,--,--,67.9,34.3
"Vitamin A, IU",IU,--,--,71,36
Lipids
"Fatty acids, total saturated",g,--,--,0.000,0.000
"Fatty acids, total trans",g,--,--,0.000,0.000
"Cholesterol",mg,--,--,0,0
Amino Acids
Other
Ingredients
"FRUIT (PINEAPPLE, PEACHES, PEARS, CHERRIES [CHERRIES, CARMINE]), WATER, SUGAR, CITRIC ACID, PRESERVATIVES (ASCORBIC ACID, POTASSIUM SORBATE, SODIUM BENZOATE), NATURAL FLAVOR." Date available: 07/14/2017 Date last updated by company: 07/14/2017
