Source: USDA Branded Food Products Database Release December 2017 Software v.3.8.6.4 2017-10-02
Report Run at: December 17, 2017 21:25 EST
"Nutrient data for: 45231651, MIXED VEGETABLE, UPC: 070560950886"
Food Group:  Branded Food Products Database
Common Name:

Nutrient,Unit,Data points,Std. Error,"0.666 cup = 88.0g",1Value per 100 g,
Proximates
"Energy",kcal,--,--,60,68
"Protein",g,--,--,2.00,2.27
"Total lipid (fat)",g,--,--,0.00,0.00
"Carbohydrate, by difference",g,--,--,11.00,12.50
"Fiber, total dietary",g,--,--,2.0,2.3
"Sugars, total",g,--,--,4.00,4.55
Minerals
"Calcium, Ca",mg,--,--,20,23
"Iron, Fe",mg,--,--,0.34,0.39
"Sodium, Na",mg,--,--,20,23
Vitamins
"Vitamin C, total ascorbic acid",mg,--,--,3.5,4.0
"Vitamin A, IU",IU,--,--,966,1098
Lipids
"Fatty acids, total saturated",g,--,--,0.000,0.000
"Fatty acids, total trans",g,--,--,0.000,0.000
"Cholesterol",mg,--,--,0,0
Amino Acids
Other
Ingredients
"CARROTS, CORN GREEN BEANS, PEAS." Date available: 07/14/2017 Date last updated by company: 07/14/2017
