Source: USDA Branded Food Products Database Release December 2017 Software v.3.8.6.4 2017-10-02
Report Run at: December 17, 2017 21:18 EST
"Nutrient data for: 45218671, MIXED NUTS, UPC: 840986071041"
Food Group:  Branded Food Products Database
Common Name:

Nutrient,Unit,Data points,Std. Error,"3.0 TBSP) | (ABOUT = 28.0g",1Value per 100 g,
Proximates
"Energy",kcal,--,--,170,607
"Protein",g,--,--,6.00,21.43
"Total lipid (fat)",g,--,--,15.00,53.57
"Carbohydrate, by difference",g,--,--,5.00,17.86
"Fiber, total dietary",g,--,--,2.0,7.1
"Sugars, total",g,--,--,1.00,3.57
Minerals
"Calcium, Ca",mg,--,--,40,143
"Iron, Fe",mg,--,--,1.29,4.59
"Sodium, Na",mg,--,--,140,500
Vitamins
"Vitamin C, total ascorbic acid",mg,--,--,0.0,0.0
"Vitamin A, IU",IU,--,--,0,0
Lipids
"Fatty acids, total saturated",g,--,--,2.500,8.930
"Fatty acids, total trans",g,--,--,0.000,0.000
"Cholesterol",mg,--,--,0,0
Amino Acids
Other
Ingredients
"PEANUTS, CASHEWS, ALMONDS, HAZELNUTS, BRAZILS, PECANS, PEANUT OIL, SALT." Date available: 07/14/2017 Date last updated by company: 07/14/2017
