Source: USDA Branded Food Products Database Release December 2017 Software v.3.8.6.4 2017-10-02
Report Run at: December 17, 2017 21:14 EST
"Nutrient data for: 45004948, MIXED FRUIT IN EXTRA LIGHT SYRUP, UPC: 024000523505"
Food Group:  Branded Food Products Database
Common Name:

Nutrient,Unit,Data points,Std. Error,"0.5 cup = 126.0g",1Value per 100 g,
Proximates
"Energy",kcal,--,--,60,48
"Protein",g,--,--,0.00,0.00
"Total lipid (fat)",g,--,--,0.00,0.00
"Carbohydrate, by difference",g,--,--,14.99,11.90
"Fiber, total dietary",g,--,--,1.0,0.8
"Sugars, total",g,--,--,12.00,9.52
Minerals
"Calcium, Ca",mg,--,--,0,0
"Iron, Fe",mg,--,--,0.40,0.32
"Potassium, K",mg,--,--,110,87
"Sodium, Na",mg,--,--,5,4
Vitamins
"Vitamin C, total ascorbic acid",mg,--,--,4.0,3.2
"Vitamin A, IU",IU,--,--,111,88
Lipids
"Fatty acids, total saturated",g,--,--,0.000,0.000
"Fatty acids, total trans",g,--,--,0.000,0.000
"Cholesterol",mg,--,--,0,0
Amino Acids
Other
Ingredients
"FRUIT (PEACHES, PEARS, GRAPES), WATER, HIGH FRUCTOSE CORN SYRUP, CORN SYRUP, SUGAR" Date available: 06/25/2017 Date last updated by company: 06/25/2017
