Source: USDA Branded Food Products Database Release December 2017 Software v.3.8.6.4 2017-10-02
Report Run at: December 17, 2017 21:11 EST
"Nutrient data for: 45258282, MIXED BEAN SOUP MIX, UPC: 852965004896"
Food Group:  Branded Food Products Database
Common Name:

Nutrient,Unit,Data points,Std. Error,"0.25 cup = 52.0g",1Value per 100 g,
Proximates
"Energy",kcal,--,--,180,346
"Protein",g,--,--,11.00,21.15
"Total lipid (fat)",g,--,--,1.00,1.92
"Carbohydrate, by difference",g,--,--,32.00,61.54
"Fiber, total dietary",g,--,--,10.0,19.2
"Sugars, total",g,--,--,3.00,5.77
Minerals
"Calcium, Ca",mg,--,--,40,77
"Iron, Fe",mg,--,--,2.59,4.99
"Sodium, Na",mg,--,--,410,788
Vitamins
"Vitamin C, total ascorbic acid",mg,--,--,5.8,11.1
"Vitamin A, IU",IU,--,--,192,370
Lipids
"Fatty acids, total saturated",g,--,--,0.000,0.000
"Fatty acids, total trans",g,--,--,0.000,0.000
"Cholesterol",mg,--,--,0,0
Amino Acids
Other
Ingredients
"CONTAINS THE FOLLOWING VARIETIES OF BEANS, SPLIT PEAS AND LENTILS (GREAT NORTHERNS, BLACK, RED, LENTILS, GREEN SPLIT PEAS, YELLOW SPLIT PEAS, PINK, SMALL LIMA), SEASONING (SPICES, SALT, SUGAR, DEHYDRATED: GARLIC, ONION, CELERY, PARSLEY, CARROTS, BELL PEPPERS)." Date available: 10/11/2017 Date last updated by company: 10/11/2017
