Source: USDA Branded Food Products Database Release December 2017 Software v.3.8.6.4 2017-10-02
Report Run at: December 17, 2017 21:59 EST
"Nutrient data for: 45240955, MO.TEA, ICE TEA, LIME & AGAVE, UPC: 852911005007"
Food Group:  Branded Food Products Database
Common Name:

Nutrient,Unit,Data points,Std. Error,"8.0 OZA = 240.0g",1Value per 100 g,
Proximates
"Energy",kcal,--,--,41,17
"Protein",g,--,--,1.01,0.42
"Total lipid (fat)",g,--,--,0.00,0.00
"Carbohydrate, by difference",g,--,--,10.01,4.17
"Fiber, total dietary",g,--,--,0.0,0.0
"Sugars, total",g,--,--,9.00,3.75
Minerals
"Calcium, Ca",mg,--,--,60,25
"Iron, Fe",mg,--,--,0.00,0.00
"Sodium, Na",mg,--,--,19,8
Vitamins
"Vitamin C, total ascorbic acid",mg,--,--,22.6,9.4
"Vitamin A, IU",IU,--,--,0,0
Lipids
"Fatty acids, total saturated",g,--,--,0.000,0.000
"Fatty acids, total trans",g,--,--,0.000,0.000
"Cholesterol",mg,--,--,0,0
Amino Acids
Other
Ingredients
"FILTERED WATER, MORINGA LEAVES, TRUE LIME CONCENTRATE MADE FROM 100% FIRST COLD PRESSED LIMES, CITRIC ACID, AGAVE AND OUR 5 SPICE BLEND INCLUDING CLOVES, ANISE, STAR ANISE, GINGER, AND CINNAMON." Date available: 06/24/2017 Date last updated by company: 06/24/2017
