Source: USDA Branded Food Products Database Release December 2017 Software v.3.8.6.4 2017-10-02
Report Run at: December 17, 2017 21:31 EST
"Nutrient data for: 45235593, MOCHI SHERBET BONBONS, UPC: 019022128586"
Food Group:  Branded Food Products Database
Common Name:

Nutrient,Unit,Data points,Std. Error,"1 PIECES = 40.0g",1Value per 100 g,
Proximates
"Energy",kcal,--,--,70,175
"Protein",g,--,--,1.00,2.50
"Total lipid (fat)",g,--,--,1.00,2.50
"Carbohydrate, by difference",g,--,--,16.00,40.00
"Fiber, total dietary",g,--,--,0.0,0.0
"Sugars, total",g,--,--,13.00,32.50
Minerals
"Calcium, Ca",mg,--,--,0,0
"Iron, Fe",mg,--,--,0.00,0.00
"Sodium, Na",mg,--,--,20,50
Vitamins
"Vitamin C, total ascorbic acid",mg,--,--,0.0,0.0
"Vitamin A, IU",IU,--,--,0,0
Lipids
"Fatty acids, total saturated",g,--,--,0.400,1.000
"Fatty acids, total trans",g,--,--,0.000,0.000
"Cholesterol",mg,--,--,5,12
Amino Acids
Other
Ingredients
"SHERBET INGREDIENTS: WATER, SUGAR, SKIM MILK, CORN SYRUP SOLIDS, MANGO PUREE, CREAM, WHEY, CITRIC ACID, TURMERIC(FOR COLOR), GUAR GUM, MONO & DIGLYCERIDES, ANNATTO EXTRACT(FOR COLOR), NATURAL FLAVOR, SALT, CELLULOSE GUM, LOCUST BEAN GUM, CARRAGEENAN. COATING INGREDIENTS: SUGAR, WATER, RICE FLOUR, TREHALOSE, EGG WHITES, ANNATTO EXTRACT(FOR COLOR), TURMERIC(FOR COLOR), BEET JUICE AND BEET POWDER(FOR COLOR)DUSTED WITH CORN & POTATO STARCH." Date available: 07/11/2017 Date last updated by company: 07/11/2017
