Source: USDA Branded Food Products Database Release December 2017 Software v.3.8.6.4 2017-10-02
Report Run at: December 17, 2017 21:31 EST
"Nutrient data for: 45001524, MOCHI ICE CREAM BONBONS, UPC: 019022128593"
Food Group:  Branded Food Products Database
Common Name:

Nutrient,Unit,Data points,Std. Error,"1 PIECE = 40.0g",1Value per 100 g,
Proximates
"Energy",kcal,--,--,80,200
"Protein",g,--,--,1.00,2.50
"Total lipid (fat)",g,--,--,2.50,6.25
"Carbohydrate, by difference",g,--,--,14.00,35.00
"Fiber, total dietary",g,--,--,0.0,0.0
"Sugars, total",g,--,--,12.00,30.00
Minerals
"Calcium, Ca",mg,--,--,20,50
"Iron, Fe",mg,--,--,0.00,0.00
"Sodium, Na",mg,--,--,30,75
Vitamins
"Vitamin C, total ascorbic acid",mg,--,--,1.2,3.0
"Vitamin A, IU",IU,--,--,0,0
Lipids
"Fatty acids, total saturated",g,--,--,1.500,3.750
"Fatty acids, total trans",g,--,--,0.000,0.000
"Cholesterol",mg,--,--,10,25
Amino Acids
Other
Ingredients
"ICE CREAM INGREDIENTS: MILK, CREAM, SUGAR, STRAWBERRIES (STRAWBERRIES, SUGAR), CORN SYRUP SOLIDS, SKIM MILK, WHEY, NATURAL FLAVOR, GUAR GUM, MONO & DIGLYCERIDES, BEET JUICE AND BEET POWDER (FOR COLOR), CELLULOSE GUM, LOCUST BEAN GUM, CARRAGEENAN. COATING INGREDIENTS: SUGAR, WATER, RICE FLOUR, TREHALOSE, EGG WHITES, BEET JUICE AND BEET POWDER (FOR COLOR), DUSTED WITH CORN & POTATO STARCH" Date available: 06/24/2017 Date last updated by company: 06/24/2017
