Source: USDA Branded Food Products Database Release December 2017 Software v.3.8.6.4 2017-10-02
Report Run at: December 17, 2017 21:31 EST
"Nutrient data for: 45323327, MOCKINGBIRD TRAIL MIX PEANUTS, ROASTED ALMONDS, WALNUTS, BANANA CHIPS, CHOCOLATE CHIPS, & DARK CHOCOLATE COATED PUFFED QUINOA, UPC: 628055758136"
Food Group:  Branded Food Products Database
Common Name:

Nutrient,Unit,Data points,Std. Error,"0.25 cup = 30.0g",1Value per 100 g,
Proximates
"Energy",kcal,--,--,160,533
"Protein",g,--,--,5.00,16.67
"Total lipid (fat)",g,--,--,14.00,46.67
"Carbohydrate, by difference",g,--,--,7.00,23.33
"Fiber, total dietary",g,--,--,2.0,6.7
"Sugars, total",g,--,--,3.00,10.00
Minerals
"Calcium, Ca",mg,--,--,20,67
"Iron, Fe",mg,--,--,1.20,4.00
"Sodium, Na",mg,--,--,20,67
Vitamins
"Vitamin C, total ascorbic acid",mg,--,--,0.0,0.0
"Vitamin A, IU",IU,--,--,0,0
Lipids
"Fatty acids, total saturated",g,--,--,3.000,10.000
"Fatty acids, total trans",g,--,--,0.000,0.000
"Cholesterol",mg,--,--,0,0
Amino Acids
Other
Ingredients
"PEANUTS*, ROASTED ALMONDS* (ALMONDS, SEA SALT), WALNUTS*, BANANA CHIPS* (DRIED BANANA*, COCONUT OIL*, SUGAR*), CHOCOLATE CHIPS* (COCOA LIQUOR*, CANE SUGAR*, COCOA BUTTER*, COCOA POWDER*, TAPIOCA MALTODEXTRIN*), DARK CHOCOLATE COATED PUFFED QUINOA* (CANE SUGAR*, COCOA MASS*, COCOA BUTTER*, COCOA POWDER*, PUFFED QUINOA*)." Date available: 07/14/2017 Date last updated by company: 07/14/2017
