Source: USDA Branded Food Products Database Release December 2017 Software v.3.8.6.4 2017-10-02
Report Run at: December 17, 2017 21:33 EST
"Nutrient data for: 45080604, MOIST SELECT CAKE MIX, UPC: 713733108287"
Food Group:  Branded Food Products Database
Common Name:

Nutrient,Unit,Data points,Std. Error,"0.083 PACKAGE (ABOUT 1/3 CUP DRY MIX) = 39.0g",1Value per 100 g,
Proximates
"Energy",kcal,--,--,150,385
"Protein",g,--,--,2.00,5.13
"Total lipid (fat)",g,--,--,3.00,7.69
"Carbohydrate, by difference",g,--,--,30.00,76.92
"Fiber, total dietary",g,--,--,1.0,2.6
"Sugars, total",g,--,--,17.00,43.59
Minerals
"Calcium, Ca",mg,--,--,40,103
"Iron, Fe",mg,--,--,1.48,3.79
"Potassium, K",mg,--,--,95,244
"Sodium, Na",mg,--,--,370,949
Vitamins
"Vitamin C, total ascorbic acid",mg,--,--,0.0,0.0
"Vitamin A, IU",IU,--,--,0,0
Lipids
"Fatty acids, total saturated",g,--,--,0.998,2.560
"Fatty acids, total monounsaturated",g,--,--,0.998,2.560
"Fatty acids, total polyunsaturated",g,--,--,0.499,1.280
"Fatty acids, total trans",g,--,--,0.000,0.000
"Cholesterol",mg,--,--,0,0
Amino Acids
Other
Ingredients
"SUGAR, ENRICHED BLEACHED FLOUR (BLEACHED WHEAT FLOUR, NIACIN, IRON, THIAMINE MONONITRATE, RIBOFLAVIN, FOLIC ACID), VEGETABLE SHORTENING (CONTAINS ONE OR MORE OF THE FOLLOWING: [PALM AND/OR SOYBEAN OIL] WITH EMULSIFIER [PROPYLYENE GLYCOL MONOESTERS, MONO AND DIGLYCERIDES, SOY LECITHIN WITH PRESERVATIVE [BHT, CITRIC ACID]), COCOA (PROCESSED WITH ALKALI), DEXTROSE, MODIFIED CORN STARCH, LEAVENING (BAKING SODA, MONOCALCIUM PHOSPHATE, SODIUM ALUMINUM PHOSPHATE), CONTAINS 2% OR LESS OF: SALT, CELLULOSE GUM, GUAR GUM, ARTIFICIAL FLAVOR." Date available: 09/12/2017 Date last updated by company: 09/12/2017
