Source: USDA Branded Food Products Database Release December 2017 Software v.3.8.6.4 2017-10-02
Report Run at: December 17, 2017 21:33 EST
"Nutrient data for: 45002407, MOJO CRIOLLO, UPC: 071692000906"
Food Group:  Branded Food Products Database
Common Name:

Nutrient,Unit,Data points,Std. Error,"1 Tbsp = 15.0g",1Value per 100 g,
Proximates
"Energy",kcal,--,--,0,0
"Protein",g,--,--,0.00,0.00
"Total lipid (fat)",g,--,--,0.00,0.00
"Carbohydrate, by difference",g,--,--,1.00,6.67
"Fiber, total dietary",g,--,--,0.0,0.0
"Sugars, total",g,--,--,0.00,0.00
Minerals
"Sodium, Na",mg,--,--,170,1133
Vitamins
Lipids
"Fatty acids, total saturated",g,--,--,0.00,0.00
"Fatty acids, total monounsaturated",g,--,--,0.00,0.00
"Fatty acids, total polyunsaturated",g,--,--,0.00,0.00
Amino Acids
Other
Ingredients
"WATER, DISTILLED VINEGAR, DEHYDRATED GARLIC, CITRIC ACID, DEHYDRATEDONION SALT, SUGAR, HERBS, AND ESPECIES, MODIFIED CORN STARCH, CARAMEL COLOR, CANOLA OIL AND SODIUM BENZOARTE AS A PRESERVATIVE AND BISULFITE" Date last updated by company: 03/26/2014
