Source: USDA Branded Food Products Database Release December 2017 Software v.3.8.6.4 2017-10-02
Report Run at: December 17, 2017 21:34 EST
"Nutrient data for: 45205542, MOLONAY TUBILDERBORST, CURRY KETCHUP, UPC: 696859150159"
Food Group:  Branded Food Products Database
Common Name:

Nutrient,Unit,Data points,Std. Error,"1 Tbsp = 17.0g",1Value per 100 g,
Proximates
"Energy",kcal,--,--,10,59
"Protein",g,--,--,0.00,0.00
"Total lipid (fat)",g,--,--,0.00,0.00
"Carbohydrate, by difference",g,--,--,3.00,17.65
"Fiber, total dietary",g,--,--,0.0,0.0
"Sugars, total",g,--,--,2.00,11.76
Minerals
"Calcium, Ca",mg,--,--,0,0
"Iron, Fe",mg,--,--,0.00,0.00
"Sodium, Na",mg,--,--,170,1000
Vitamins
"Vitamin C, total ascorbic acid",mg,--,--,4.9,28.7
"Vitamin A, IU",IU,--,--,0,0
Lipids
"Fatty acids, total saturated",g,--,--,0.000,0.000
"Fatty acids, total trans",g,--,--,0.000,0.000
"Cholesterol",mg,--,--,0,0
Amino Acids
Other
Ingredients
"TOMATO PUREE (ORGANIC TOMATO PASTE, WATER), CIDER VINEGAR, TURBINADO SUGAR, SEA SALT, LESS THAN 2% OF EACH OF THE FOLLOWING: SPICES DEHYDRATED ONION, DEHYDRATED BELL PEPPER,MUSTARD FLOUR, CELERY SEED. PAPRIKA BLACK PEPPER, AND RED PEPPER." Date available: 07/14/2017 Date last updated by company: 07/14/2017
