Source: USDA Branded Food Products Database Release December 2017 Software v.3.8.6.4 2017-10-02
Report Run at: December 17, 2017 21:36 EST
"Nutrient data for: 45049384, MOM'S, PASTA SAUCE, PRIMAVERA, UPC: 096906002354"
Food Group:  Branded Food Products Database
Common Name:

Nutrient,Unit,Data points,Std. Error,"4.0 oz = 120.0g",1Value per 100 g,
Proximates
"Energy",kcal,--,--,50,42
"Protein",g,--,--,2.00,1.67
"Total lipid (fat)",g,--,--,1.50,1.25
"Carbohydrate, by difference",g,--,--,7.00,5.83
"Fiber, total dietary",g,--,--,1.0,0.8
"Sugars, total",g,--,--,4.00,3.33
Minerals
"Calcium, Ca",mg,--,--,60,50
"Iron, Fe",mg,--,--,0.36,0.30
"Sodium, Na",mg,--,--,720,600
Vitamins
"Vitamin C, total ascorbic acid",mg,--,--,9.0,7.5
"Vitamin A, IU",IU,--,--,1250,1042
Lipids
"Fatty acids, total saturated",g,--,--,0.000,0.000
"Fatty acids, total trans",g,--,--,0.000,0.000
"Cholesterol",mg,--,--,0,0
Amino Acids
Other
Ingredients
"TOMATOES (VINE RIPENED FRESH TOMATOES, CITRIC ACID, CALCIUM CHLORIDE), WATER, ONION, GREEN BELL PEPPERS (WITH WATER AND CITRIC ACID), RED WINE VINEGAR, CARROTS, EXTRA VIRGIN OLIVE OIL, GREEN BEANS (WITH WATER AND SALT), SALT, TOMATO PASTE, GARLIC WILD MUSHROOMS (BOLETUS, BLACK FUNGUS, OYSTER, AND PORCINI CEPES), PAPRIKA, BLACK PEPPER, OREGANO." Date last updated by company: 05/26/2014
