Source: USDA Branded Food Products Database Release December 2017 Software v.3.8.6.4 2017-10-02
Report Run at: December 17, 2017 21:35 EST
"Nutrient data for: 45011620, MOMMA B'S, HOMESTYLE MAC & CHEESE, UPC: 858046004021"
Food Group:  Branded Food Products Database
Common Name:

Nutrient,Unit,Data points,Std. Error,"1 cup = 220.0g",1Value per 100 g,
Proximates
"Energy",kcal,--,--,420,191
"Protein",g,--,--,22.00,10.00
"Total lipid (fat)",g,--,--,28.01,12.73
"Carbohydrate, by difference",g,--,--,20.00,9.09
"Fiber, total dietary",g,--,--,1.1,0.5
"Sugars, total",g,--,--,4.00,1.82
Minerals
"Calcium, Ca",mg,--,--,601,273
"Iron, Fe",mg,--,--,1.23,0.56
"Sodium, Na",mg,--,--,671,305
Vitamins
"Vitamin C, total ascorbic acid",mg,--,--,0.0,0.0
"Vitamin A, IU",IU,--,--,1421,646
Lipids
"Fatty acids, total saturated",g,--,--,17.996,8.180
"Fatty acids, total trans",g,--,--,0.000,0.000
"Cholesterol",mg,--,--,79,36
Amino Acids
Other
Ingredients
"COOKED ENRICHED MACARONI (WATER, SEMOLINA [WHEAT], NIACIN. IRON [FERROUS SULFATE] THIAMIN MONONITRATE. RIBOFLAVIN, FOLIC ACID). CHEDDAR CHEESE (CULTURED MILK, SALT, ENZYMES, ANNATTO). MONTEREY JACK CHEESE (CULTURE MILK, SALT ENZYMES), MILK, WATER, CREAM CHEESE (MILK AND CREAM, CHEESE CULTURE, SALT, STABILIZERS [CAROB BEAN AND/OR XANTHAN AND/OR GUAR GUMS]), RICE STARCH, NATURAL FLAVORS (MILK), SUGAR, NATURAL FLAVOR (MALTODEXTRIN), SALT AND SPICE." Date available: 06/24/2017 Date last updated by company: 06/24/2017
