Source: USDA Branded Food Products Database Release December 2017 Software v.3.8.6.4 2017-10-02
Report Run at: December 17, 2017 21:40 EST
"Nutrient data for: 45212671, MONTAMORE CHEESE & ROASTED RED PEPPER SPREAD, UPC: 847847003746"
Food Group:  Branded Food Products Database
Common Name:

Nutrient,Unit,Data points,Std. Error,"2.0 Tbsp = 28.0g",1Value per 100 g,
Proximates
"Energy",kcal,--,--,110,393
"Protein",g,--,--,3.00,10.71
"Total lipid (fat)",g,--,--,11.00,39.29
"Carbohydrate, by difference",g,--,--,1.00,3.57
"Fiber, total dietary",g,--,--,0.0,0.0
"Sugars, total",g,--,--,0.00,0.00
Minerals
"Calcium, Ca",mg,--,--,60,214
"Iron, Fe",mg,--,--,0.00,0.00
"Sodium, Na",mg,--,--,130,464
Vitamins
"Vitamin C, total ascorbic acid",mg,--,--,0.0,0.0
"Vitamin A, IU",IU,--,--,357,1275
Lipids
"Fatty acids, total saturated",g,--,--,4.001,14.290
"Fatty acids, total trans",g,--,--,0.000,0.000
"Cholesterol",mg,--,--,20,71
Amino Acids
Other
Ingredients
"MONTAMORE CHEESE (PASTEURIZED MILK, CHEESE CULTURES, SALT, ENZYMES), CREAM CHEESE (PASTEURIZED MILK AND CREAM, CHEESE CULTURES, SALT, CAROB BEAN AND/OR XANTHAN AND/OR GUAR GUMS), MAYONNAISE (SOYBEAN OIL, WATER, CORN SYRUP, EGG YOLK, DISTILLED AND CIDER VINEGAR, SALT, SPICE), ARTICHOKE HEART (ARTICHOKE, SALT), ROASTED RED PEPPER (PEPPER, SALT), GARLIC PUREE." Date available: 07/14/2017 Date last updated by company: 07/14/2017
