Source: USDA Branded Food Products Database Release December 2017 Software v.3.8.6.4 2017-10-02
Report Run at: December 17, 2017 21:45 EST
"Nutrient data for: 45062134, MONTEREY JACK NATURAL CHEESE, UPC: 072830002035"
Food Group:  Branded Food Products Database
Common Name:

Nutrient,Unit,Data points,Std. Error,"1 oz = 28.0g",1Value per 100 g,
Proximates
"Energy",kcal,--,--,110,393
"Protein",g,--,--,7.00,25.00
"Total lipid (fat)",g,--,--,9.00,32.14
"Carbohydrate, by difference",g,--,--,0.00,0.00
"Fiber, total dietary",g,--,--,0.0,0.0
"Sugars, total",g,--,--,0.00,0.00
Minerals
"Calcium, Ca",mg,--,--,200,714
"Iron, Fe",mg,--,--,0.36,1.29
"Sodium, Na",mg,--,--,160,571
Vitamins
"Vitamin C, total ascorbic acid",mg,--,--,0.0,0.0
"Vitamin A, IU",IU,--,--,300,1071
Lipids
"Fatty acids, total saturated",g,--,--,6.00,21.43
"Fatty acids, total trans",g,--,--,0.00,0.00
"Cholesterol",mg,--,--,25,89
Amino Acids
Other
Ingredients
"CULTURED PASTEURIZED MILK, SALT, ENZYMES." Date last updated by company: 02/03/2016
