Source: USDA Branded Food Products Database Release December 2017 Software v.3.8.6.4 2017-10-02
Report Run at: December 17, 2017 21:46 EST
"Nutrient data for: 45189539, MOODY GIRL, HOT SALSA, UPC: 857356001010"
Food Group:  Branded Food Products Database
Common Name:

Nutrient,Unit,Data points,Std. Error,"2.0 Tbsp = 31.0g",1Value per 100 g,
Proximates
"Energy",kcal,--,--,10,32
"Protein",g,--,--,0.00,0.00
"Total lipid (fat)",g,--,--,0.00,0.00
"Carbohydrate, by difference",g,--,--,2.00,6.45
"Fiber, total dietary",g,--,--,0.0,0.0
"Sugars, total",g,--,--,1.00,3.23
Minerals
"Calcium, Ca",mg,--,--,20,65
"Iron, Fe",mg,--,--,0.00,0.00
"Sodium, Na",mg,--,--,190,613
Vitamins
"Vitamin C, total ascorbic acid",mg,--,--,5.8,18.7
"Vitamin A, IU",IU,--,--,322,1040
Lipids
"Fatty acids, total saturated",g,--,--,0.000,0.000
"Fatty acids, total trans",g,--,--,0.000,0.000
"Cholesterol",mg,--,--,0,0
Amino Acids
Other
Ingredients
"TOMATOES (TOMATO, TOMATO JUICE, CITRIC ACID, CALCIUM CHLORIDE), ONION, WATER, TOMATO PASTE, VINEGAR (5%), JALAPENOS (JALAPENO PEPPER, VINEGAR, SALT, WATER), SALT, SUGAR, SPICES, GARLIC POWDER." Date available: 07/14/2017 Date last updated by company: 07/14/2017
