Source: USDA Branded Food Products Database Release December 2017 Software v.3.8.6.4 2017-10-02
Report Run at: December 17, 2017 21:47 EST
"Nutrient data for: 45328038, MOONSTRUCK, BEER BERRIES TUMBLED IN DARK CHOCOLATE, UPC: 711175122380"
Food Group:  Branded Food Products Database
Common Name:

Nutrient,Unit,Data points,Std. Error,"85.0 PIECES = 40.0g",1Value per 100 g,
Proximates
"Energy",kcal,--,--,230,575
"Protein",g,--,--,3.00,7.50
"Total lipid (fat)",g,--,--,15.00,37.50
"Carbohydrate, by difference",g,--,--,20.00,50.00
"Fiber, total dietary",g,--,--,4.0,10.0
"Sugars, total",g,--,--,11.00,27.50
Minerals
"Calcium, Ca",mg,--,--,0,0
"Iron, Fe",mg,--,--,6.75,16.88
"Sodium, Na",mg,--,--,10,25
Vitamins
"Vitamin C, total ascorbic acid",mg,--,--,0.0,0.0
"Vitamin A, IU",IU,--,--,0,0
Lipids
"Fatty acids, total saturated",g,--,--,10.000,25.000
"Fatty acids, total trans",g,--,--,0.000,0.000
"Cholesterol",mg,--,--,5,12
Amino Acids
Other
Ingredients
"DARK CHOCOLATE 68% COCOO (UNSWEETENED CHOCOLATE, SUGAR, COCOA BUTTER, SOY LECITHIN [ON EMULSIFIER], VANILLA), GERMAN MALTED WHEAT BERRIES, CLARIFIED BUTTER (MILK FAT), DRIED MALT EXTRACT, MODIFIED STARCH AND SUCROSE, POWDERED SUGAR, COCOA POWDER (PROCESSED WITH ALKALI), CONFECTIONER'S GLAZE." Date available: 07/14/2017 Date last updated by company: 07/14/2017
