Source: USDA Branded Food Products Database Release December 2017 Software v.3.8.6.4 2017-10-02
Report Run at: December 17, 2017 21:49 EST
"Nutrient data for: 45121759, MORANO, FOUR CHEESE PASTA SAUCE, UPC: 788624098824"
Food Group:  Branded Food Products Database
Common Name:

Nutrient,Unit,Data points,Std. Error,"6.0 ONZ = 170.1g",1Value per 100 g,
Proximates
"Energy",kcal,--,--,53,31
"Protein",g,--,--,2.99,1.76
"Total lipid (fat)",g,--,--,2.01,1.18
"Carbohydrate, by difference",g,--,--,7.99,4.70
"Fiber, total dietary",g,--,--,2.0,1.2
"Sugars, total",g,--,--,5.00,2.94
Minerals
"Sodium, Na",mg,--,--,522,307
Vitamins
Lipids
"Fatty acids, total saturated",g,--,--,1.004,0.590
"Fatty acids, total trans",g,--,--,0.000,0.000
"Cholesterol",mg,--,--,3,2
Amino Acids
Other
Ingredients
"TOMATO SAUCE (SPICES), TOMATO PASTE (TOMATOES), PARMESAN CHEESE, ROMANO CHEESE, RICOTTA CHEESE, MOZZARELLA CHEESE, (CHEESE CONTAINS MILK), SUGAR, MOLASSES, OREGANO, BASIL, PARSLEY, SALT, PEPPER, GARLIC, BAY LEAVES, CITRIC ACID." Date available: 10/13/2017 Date last updated by company: 10/13/2017
