Source: USDA Branded Food Products Database Release December 2017 Software v.3.8.6.4 2017-10-02
Report Run at: December 17, 2017 21:58 EST
"Nutrient data for: 45004037, MOSER ROTH, PREMIUM DARK CHOCOLATE BARS, COCOA, UPC: 072799830717"
Food Group:  Branded Food Products Database
Common Name:

Nutrient,Unit,Data points,Std. Error,"2.0 PIECES = 50.0g",1Value per 100 g,
Proximates
"Energy",kcal,--,--,330,660
"Protein",g,--,--,6.00,12.00
"Total lipid (fat)",g,--,--,26.00,52.00
"Carbohydrate, by difference",g,--,--,16.00,32.00
"Fiber, total dietary",g,--,--,6.0,12.0
"Sugars, total",g,--,--,8.00,16.00
Minerals
"Calcium, Ca",mg,--,--,40,80
"Iron, Fe",mg,--,--,10.80,21.60
"Sodium, Na",mg,--,--,75,150
Vitamins
"Vitamin C, total ascorbic acid",mg,--,--,0.0,0.0
"Vitamin A, IU",IU,--,--,0,0
Lipids
"Fatty acids, total saturated",g,--,--,16.000,32.000
"Fatty acids, total trans",g,--,--,0.000,0.000
"Cholesterol",mg,--,--,0,0
Amino Acids
Other
Ingredients
"CHOCOLATE (COCOA LIQUOR, COCOA BUTTER, FAT-REDUCED COCOA), SUGAR, SOY LECITHIN EMULSIFIER, FLAVOR NATURAL VANILLA EXTRACT." Date available: 06/25/2017 Date last updated by company: 06/25/2017
