Source: USDA Branded Food Products Database Release December 2017 Software v.3.8.6.4 2017-10-02
Report Run at: December 17, 2017 22:02 EST
"Nutrient data for: 45318732, MOTT'S, APPLESAUCE, CINNAMON, UPC: 014800001808"
Food Group:  Branded Food Products Database
Common Name:

Nutrient,Unit,Data points,Std. Error,"0.5 cup = 128.0g",1Value per 100 g,
Proximates
"Energy",kcal,--,--,110,86
"Protein",g,--,--,0.00,0.00
"Total lipid (fat)",g,--,--,0.00,0.00
"Carbohydrate, by difference",g,--,--,29.00,22.66
"Fiber, total dietary",g,--,--,1.0,0.8
"Sugars, total",g,--,--,27.00,21.09
Minerals
"Calcium, Ca",mg,--,--,0,0
"Iron, Fe",mg,--,--,0.00,0.00
"Potassium, K",mg,--,--,79,62
"Sodium, Na",mg,--,--,0,0
Vitamins
"Vitamin C, total ascorbic acid",mg,--,--,6.5,5.1
"Vitamin A, IU",IU,--,--,0,0
Lipids
"Fatty acids, total saturated",g,--,--,0.000,0.000
"Fatty acids, total trans",g,--,--,0.000,0.000
"Cholesterol",mg,--,--,0,0
Amino Acids
Other
Ingredients
"APPLES, HIGH FRUCTOSE CORN SYRUP, WATER ASCORBIC ACID (VITAMIN C), CINAAMPON, NATURAL FLAVOR." Date available: 06/25/2017 Date last updated by company: 06/25/2017
