Source: USDA Branded Food Products Database Release December 2017 Software v.3.8.6.4 2017-10-02
Report Run at: December 17, 2017 22:04 EST
"Nutrient data for: 45231622, MOUNTAIN CULTURE KOMBUCHA, KOMBUCHA, CITRA HOPS, UPC: 094922428172"
Food Group:  Branded Food Products Database
Common Name:

Nutrient,Unit,Data points,Std. Error,"6.0 OZA = 177.0g",1Value per 100 g,
Proximates
"Energy",kcal,--,--,11,6
"Protein",g,--,--,0.00,0.00
"Total lipid (fat)",g,--,--,0.00,0.00
"Carbohydrate, by difference",g,--,--,2.99,1.69
"Fiber, total dietary",g,--,--,0.0,0.0
"Sugars, total",g,--,--,2.99,1.69
Minerals
"Calcium, Ca",mg,--,--,0,0
"Iron, Fe",mg,--,--,0.00,0.00
"Sodium, Na",mg,--,--,5,3
Vitamins
"Vitamin C, total ascorbic acid",mg,--,--,0.0,0.0
"Vitamin A, IU",IU,--,--,0,0
Lipids
"Fatty acids, total saturated",g,--,--,0.000,0.000
"Fatty acids, total trans",g,--,--,0.000,0.000
"Cholesterol",mg,--,--,0,0
Amino Acids
Other
Ingredients
"CONTAINS ONLY: DRY HOPPED RAW KOMBUCHA (PURE MOUNTAIN WATER, LIVE KOMBUCHA CULTURE, ORGANIC EVAPORATED CANE JUICE, AND ORGANIC TEA)." Date available: 06/25/2017 Date last updated by company: 06/25/2017
