Source: USDA Branded Food Products Database Release December 2017 Software v.3.8.6.4 2017-10-02
Report Run at: December 17, 2017 22:05 EST
"Nutrient data for: 45266388, MOUNTAIN DRIVE, UPC: 075450000467"
Food Group:  Branded Food Products Database
Common Name:

Nutrient,Unit,Data points,Std. Error,"1 CAN = 355.0g",1Value per 100 g,
Proximates
"Energy",kcal,--,--,192,54
"Protein",g,--,--,0.00,0.00
"Total lipid (fat)",g,--,--,0.00,0.00
"Carbohydrate, by difference",g,--,--,46.01,12.96
"Sugars, total",g,--,--,46.01,12.96
Minerals
"Sodium, Na",mg,--,--,50,14
Vitamins
"Vitamin C, total ascorbic acid",mg,--,--,15.3,4.3
Lipids
Amino Acids
Other
Ingredients
"CARBONATED WATER, HIGH FRUCTOSE CORN SYRUP, CITRIC ACID, SODIUM BENZOATE (PRESERVATIVE), SODIUM CITRATE, NATURAL FLAVORS, CAFFEINE, ASCORBIC ACID (PRESERVATIVE), GUM ACACIA, ESTER GUM, YELLOW #5." Date available: 07/14/2017 Date last updated by company: 07/14/2017
