Source: USDA Branded Food Products Database Release December 2017 Software v.3.8.6.4 2017-10-02
Report Run at: December 17, 2017 22:05 EST
"Nutrient data for: 45217970, MOUNTAIN MIX, UPC: 011150989954"
Food Group:  Branded Food Products Database
Common Name:

Nutrient,Unit,Data points,Std. Error,"0.25 cup = 40.0g",1Value per 100 g,
Proximates
"Energy",kcal,--,--,190,475
"Protein",g,--,--,5.00,12.50
"Total lipid (fat)",g,--,--,11.00,27.50
"Carbohydrate, by difference",g,--,--,20.00,50.00
"Fiber, total dietary",g,--,--,1.0,2.5
"Sugars, total",g,--,--,16.00,40.00
Minerals
"Calcium, Ca",mg,--,--,30,75
"Iron, Fe",mg,--,--,1.12,2.81
"Sodium, Na",mg,--,--,95,238
Vitamins
"Vitamin C, total ascorbic acid",mg,--,--,0.0,0.0
"Vitamin A, IU",IU,--,--,0,0
Lipids
"Fatty acids, total saturated",g,--,--,2.000,5.000
"Fatty acids, total trans",g,--,--,0.000,0.000
"Cholesterol",mg,--,--,0,0
Amino Acids
Other
Ingredients
"RAISINS (USA, CHILE), ROASTED PEANUTS (PEANUTS (BRAZIL, ARGENTINA), HIGH OLEIC SUNFLOWER OIL, SEA SALT), PEANUT POKIES (MILK CHOCOLATE (SUGAR, COCOA BUTTER, WHOLE MILK POWDER, CHOCOLATE LIQUOR, LACTOSE, SOY LECITHIN (AN EMULSIFIER), VANILLIN (AN ARTIFICIAL FLAVOR), PEANUTS, SUGAR, ARTIFICIAL COLORS (YELLOW #5 & #6, BLUE #1 & #2, RED #40, METHYL AND PROPYL PARABENS), CORN OR PEANUT OIL, CORN SYRUP, GUM ARABIC, CONFECTIONER'S GLAZE, CARNAUBA WAX), ROASTED ALMONDS (ALMONDS (USA), SUNFLOWER OIL, SEA SALT), ROASTED CASHEWS (CASHEWS (BRAZIL, VIETNAM), HIGH OLEIC SUNFLOWER OIL, SEA SALT)." Date available: 07/14/2017 Date last updated by company: 07/14/2017
