Source: USDA Branded Food Products Database Release December 2017 Software v.3.8.6.4 2017-10-02
Report Run at: December 17, 2017 22:07 EST
"Nutrient data for: 45134411, Move Over Butter, Sodium Free, UNPREPARED, GTIN: 00027000732304"
Food Group:  Branded Food Products Database
Common Name:

Nutrient,Unit,Data points,Std. Error,"1 Tbsp (15 mL) = 14.0g",1Value per 100 g,
Proximates
"Energy",kcal,--,--,130,929
"Protein",g,--,--,0.00,0.00
"Total lipid (fat)",g,--,--,14.00,100.00
"Carbohydrate, by difference",g,--,--,0.00,0.00
"Fiber, total dietary",g,--,--,0.0,0.0
"Sugars, total",g,--,--,0.00,0.00
Minerals
"Calcium, Ca",mg,--,--,0,0
"Iron, Fe",mg,--,--,0.00,0.00
"Sodium, Na",mg,--,--,0,0
Vitamins
"Vitamin C, total ascorbic acid",mg,--,--,0.0,0.0
"Vitamin A, IU",IU,--,--,0,0
Lipids
"Fatty acids, total saturated",g,--,--,3.000,21.430
"Fatty acids, total monounsaturated",g,--,--,3.000,21.430
"Fatty acids, total polyunsaturated",g,--,--,7.000,50.000
"Fatty acids, total trans",g,--,--,0.000,0.000
"Cholesterol",mg,--,--,0,0
Amino Acids
Other
Ingredients
"Soybean Oil, Cottonseed Oil, Hydrogenated Soybean Oil, Soy Lecithin, Hydrogenated Cottonseed Oil, Monoglycerides, Natural and Artificial Flavor, TBHQ (for freshness), Beta Carotene (Color). CONTAINS: SOY." Date available: 10/12/2017 Date last updated by company: 10/12/2017
