Source: USDA Branded Food Products Database Release December 2017 Software v.3.8.6.4 2017-10-02
Report Run at: December 17, 2017 22:11 EST
"Nutrient data for: 45226616, MOZZARELLA & ROASTED GARLIC CHICKEN SAUSAGE, UPC: 828686012014"
Food Group:  Branded Food Products Database
Common Name:

Nutrient,Unit,Data points,Std. Error,"1 LINK = 90.0g",1Value per 100 g,
Proximates
"Energy",kcal,--,--,160,178
"Protein",g,--,--,17.00,18.89
"Total lipid (fat)",g,--,--,8.00,8.89
"Carbohydrate, by difference",g,--,--,4.00,4.44
"Fiber, total dietary",g,--,--,1.0,1.1
"Sugars, total",g,--,--,2.00,2.22
Minerals
"Calcium, Ca",mg,--,--,80,89
"Iron, Fe",mg,--,--,0.66,0.73
"Sodium, Na",mg,--,--,730,811
Vitamins
"Vitamin C, total ascorbic acid",mg,--,--,0.7,0.8
"Vitamin A, IU",IU,--,--,305,339
Lipids
"Fatty acids, total saturated",g,--,--,2.997,3.330
"Fatty acids, total trans",g,--,--,0.000,0.000
"Cholesterol",mg,--,--,80,89
Amino Acids
Other
Ingredients
"CHICKEN, MOZZARELLA CHEESE (PASTEURIZED MILK, CHEESE CULTURE, SALT, ENZYMES), ARTICHOKES, LESS THAN 2% OF ROASTED GARLIC, SUGAR, NATURAL SPICES, GARLIC, PAPRIKA, PARSLEY, SALT, VINEGAR, IN BEEF COLLAGEN CASING." Date available: 07/14/2017 Date last updated by company: 07/14/2017
