Source: USDA Branded Food Products Database Release December 2017 Software v.3.8.6.4 2017-10-02
Report Run at: December 17, 2017 22:12 EST
"Nutrient data for: 45278741, MOZZARELLA STRING CHEESE TWISTERS, UPC: 03003407926"
Food Group:  Branded Food Products Database
Common Name:

Nutrient,Unit,Data points,Std. Error,"1 PIECE = 24.0g",1Value per 100 g,
Proximates
"Energy",kcal,--,--,70,292
"Protein",g,--,--,6.00,25.00
"Total lipid (fat)",g,--,--,4.50,18.75
"Carbohydrate, by difference",g,--,--,0.00,0.00
"Fiber, total dietary",g,--,--,0.0,0.0
"Sugars, total",g,--,--,0.00,0.00
Minerals
"Calcium, Ca",mg,--,--,150,625
"Iron, Fe",mg,--,--,0.00,0.00
"Sodium, Na",mg,--,--,160,667
Vitamins
"Vitamin C, total ascorbic acid",mg,--,--,0.0,0.0
"Vitamin A, IU",IU,--,--,416,1735
Lipids
"Fatty acids, total saturated",g,--,--,3.000,12.500
"Fatty acids, total trans",g,--,--,0.000,0.000
"Cholesterol",mg,--,--,15,62
Amino Acids
Other
Ingredients
"PASTEURIZED PART-SKIM MILK, CHEESE CULTURE, SALT, ENZYMES, ANNATTO (VEGETABLE COLOR)." Date available: 07/14/2017 Date last updated by company: 07/14/2017
