Source: USDA Branded Food Products Database Release December 2017 Software v.3.8.6.4 2017-10-02
Report Run at: December 17, 2017 22:11 EST
"Nutrient data for: 45139174, MOZZARELLA LOW-MOISTURE PART-SKIM CHEESE, UPC: 041250051381"
Food Group:  Branded Food Products Database
Common Name:

Nutrient,Unit,Data points,Std. Error,"1 SLICE = 22.0g",1Value per 100 g,
Proximates
"Energy",kcal,--,--,70,318
"Protein",g,--,--,5.00,22.73
"Total lipid (fat)",g,--,--,4.50,20.45
"Carbohydrate, by difference",g,--,--,1.00,4.55
"Fiber, total dietary",g,--,--,0.0,0.0
"Sugars, total",g,--,--,0.00,0.00
Minerals
"Calcium, Ca",mg,--,--,158,718
"Iron, Fe",mg,--,--,0.05,0.23
"Potassium, K",mg,--,--,45,205
"Sodium, Na",mg,--,--,150,682
Vitamins
"Vitamin A, IU",IU,--,--,188,855
Lipids
"Fatty acids, total saturated",g,--,--,2.499,11.360
"Fatty acids, total trans",g,--,--,0.000,0.000
"Cholesterol",mg,--,--,15,68
Amino Acids
Other
Ingredients
"CULTURED PASTEURIZED REDUCED FAT MILK, SALT, ENZYMES." Date available: 10/05/2017 Date last updated by company: 10/05/2017
