Source: USDA Branded Food Products Database Release December 2017 Software v.3.8.6.4 2017-10-02
Report Run at: December 17, 2017 22:11 EST
"Nutrient data for: 45039981, MOZZARELLA & PESTO PIZZA, UPC: 058336180002"
Food Group:  Branded Food Products Database
Common Name:

Nutrient,Unit,Data points,Std. Error,"0.5 PIZZA = 163.0g",1Value per 100 g,
Proximates
"Energy",kcal,--,--,430,264
"Protein",g,--,--,17.00,10.43
"Total lipid (fat)",g,--,--,22.00,13.50
"Carbohydrate, by difference",g,--,--,42.01,25.77
"Fiber, total dietary",g,--,--,2.0,1.2
"Sugars, total",g,--,--,3.99,2.45
Minerals
"Calcium, Ca",mg,--,--,249,153
"Iron, Fe",mg,--,--,3.23,1.98
"Sodium, Na",mg,--,--,660,405
Vitamins
"Vitamin C, total ascorbic acid",mg,--,--,1.5,0.9
"Vitamin A, IU",IU,--,--,0,0
Lipids
"Fatty acids, total saturated",g,--,--,8.003,4.910
"Fatty acids, total trans",g,--,--,0.000,0.000
"Cholesterol",mg,--,--,29,18
Amino Acids
Other
Ingredients
"ENRICHED FLOUR (WHEAT FLOUR, NIACIN, REDUCED IRON, THIAMINE MONONITRATE, RIBOFLAVIN, FOLIC ACID), WATER, LOW MOISTURE PART SKIM MOZZARELLA CHEESE (PASTEURIZED PART SKIM MILK, CHEESE CULTURE, SALT, CALCIUM CHLORIDE, ENZYME), TOMATO PUREE, EDAM CHEESE (PASTEURIZED MILK, CHEESE CULTURE, SALT, ENZYME, CALCIUM CHLORIDE), SOYBEAN OIL, DICED TOMATOES, CONTAINS 2 PERCENT OR LESS OF CANOLA OIL, YEAST, SALT, BASIL, SUGAR, PARSLEY, SPINACH, MODIFIED CORN STARCH, SPICES, GARLIC POWDER, PALM OIL, HYDROLYZED CORN PROTEIN, DEXTROSE, MONO AND DIGLYCERIDES, CONCENTRATED LEMON JUICE, CARAMEL COLOR" Date available: 07/14/2017 Date last updated by company: 07/14/2017
