Source: USDA Branded Food Products Database Release December 2017 Software v.3.8.6.4 2017-10-02
Report Run at: December 17, 2017 22:13 EST
"Nutrient data for: 45149787, MR. FITZPATRICK'S, CORDIAL, BLACKCURRANT, UPC: 792851359368"
Food Group:  Branded Food Products Database
Common Name:

Nutrient,Unit,Data points,Std. Error,"1 CUP (240 ML) PREPARED | MAKES = 48.0g",1Value per 100 g,
Proximates
"Energy",kcal,--,--,120,250
"Protein",g,--,--,0.00,0.00
"Total lipid (fat)",g,--,--,0.00,0.00
"Carbohydrate, by difference",g,--,--,28.00,58.33
"Sugars, total",g,--,--,28.00,58.33
Minerals
"Sodium, Na",mg,--,--,0,0
Vitamins
"Vitamin C, total ascorbic acid",mg,--,--,67.5,140.6
Lipids
Amino Acids
Other
Ingredients
"WATER, SUGAR, BLACKCURRANT JUICE (FROM CONCENTRATE), MALIC ACID, NATURAL FLAVORS, POTASSIUM SORBATE (PRESERVATIVE), ASCORBIC ACID (VITAMIN C)." Date available: 07/14/2017 Date last updated by company: 07/14/2017
