Source: USDA Branded Food Products Database Release December 2017 Software v.3.8.6.4 2017-10-02
Report Run at: December 17, 2017 22:22 EST
"Nutrient data for: 45043277, MR. SPRINKLES, RAINBOW SPRINKLES, UPC: 072248170807"
Food Group:  Branded Food Products Database
Common Name:

Nutrient,Unit,Data points,Std. Error,"1 tsp = 4.0g",1Value per 100 g,
Proximates
"Energy",kcal,--,--,20,500
"Protein",g,--,--,0.00,0.00
"Total lipid (fat)",g,--,--,1.00,25.00
"Carbohydrate, by difference",g,--,--,3.00,75.00
"Sugars, total",g,--,--,2.00,50.00
Minerals
"Sodium, Na",mg,--,--,0,0
Vitamins
Lipids
"Fatty acids, total saturated",g,--,--,1.000,25.000
"Fatty acids, total trans",g,--,--,0.000,0.000
Amino Acids
Other
Ingredients
"SUGAR, CORN STARCH, PALM OIL, PALM KERNEL OIL, SOY LECITHIN, CONFECTIONER'S GLAZE, RED 40 LAKE, YELLOW 5 LAKE, BLUE 1 LAKE, YELLOW 6 LAKE, RED 3, BLUE 1, NATURAL AND ARTIFICIAL FLAVOR, CARNAUBA WAX." Date available: 06/24/2017 Date last updated by company: 06/24/2017
