Source: USDA Branded Food Products Database Release December 2017 Software v.3.8.6.4 2017-10-02
Report Run at: December 17, 2017 22:15 EST
"Nutrient data for: 45147738, MRS. CALL'S, SOFT CARAMEL MILK CHOCOLATE PECAN CLUSTERS, UPC: 855347001391"
Food Group:  Branded Food Products Database
Common Name:

Nutrient,Unit,Data points,Std. Error,"1 PIECE) | (ABOUT = 21.0g",1Value per 100 g,
Proximates
"Energy",kcal,--,--,100,476
"Protein",g,--,--,1.00,4.76
"Total lipid (fat)",g,--,--,6.00,28.57
"Carbohydrate, by difference",g,--,--,12.00,57.14
"Fiber, total dietary",g,--,--,1.0,4.8
"Sugars, total",g,--,--,9.00,42.86
Minerals
"Calcium, Ca",mg,--,--,20,95
"Iron, Fe",mg,--,--,0.43,2.04
"Sodium, Na",mg,--,--,30,143
Vitamins
"Vitamin C, total ascorbic acid",mg,--,--,0.0,0.0
"Vitamin A, IU",IU,--,--,238,1133
Lipids
"Fatty acids, total saturated",g,--,--,2.499,11.900
"Fatty acids, total trans",g,--,--,0.000,0.000
"Cholesterol",mg,--,--,5,24
Amino Acids
Other
Ingredients
"CARAMEL (SUGAR, BROWN SUGAR, CORN SYRUP, SWEETENED CONDENSED MILK, CREAM, BUTTER, WATER, NATURAL VANILLA EXTRACT, SALT, SOY LECITHIN), MILK CHOCOLATE (SUGAR, COCOA BUTTER CHOCOLAT LIQUOR, NONFAT MILK, SOY LECITHIN, VANILLA), PECANS." Date available: 07/14/2017 Date last updated by company: 07/14/2017
