Source: USDA Branded Food Products Database Release December 2017 Software v.3.8.6.4 2017-10-02
Report Run at: December 17, 2017 22:18 EST
"Nutrient data for: 45222692, MRS. FRESHLEY'S, CREME FILLED FUDGE COOKIES, FUDGE CREMES, UPC: 072250046732"
Food Group:  Branded Food Products Database
Common Name:

Nutrient,Unit,Data points,Std. Error,"1 COOKIE = 34.0g",1Value per 100 g,
Proximates
"Energy",kcal,--,--,150,441
"Protein",g,--,--,1.00,2.94
"Total lipid (fat)",g,--,--,7.00,20.59
"Carbohydrate, by difference",g,--,--,21.00,61.76
"Fiber, total dietary",g,--,--,1.0,2.9
"Sugars, total",g,--,--,10.00,29.41
Minerals
"Calcium, Ca",mg,--,--,0,0
"Iron, Fe",mg,--,--,1.59,4.67
"Sodium, Na",mg,--,--,100,294
Vitamins
"Vitamin C, total ascorbic acid",mg,--,--,0.0,0.0
"Vitamin A, IU",IU,--,--,0,0
Lipids
"Fatty acids, total saturated",g,--,--,3.499,10.290
"Fatty acids, total monounsaturated",g,--,--,1.999,5.880
"Fatty acids, total polyunsaturated",g,--,--,0.500,1.470
"Fatty acids, total trans",g,--,--,0.000,0.000
"Cholesterol",mg,--,--,0,0
Amino Acids
Other
Ingredients
"ENRICHED UNBLEACHED AND BLEACHED FLOUR (WHEAT FLOUR, NIACIN, REDUCED IRON, THIAMINE MONONITRATE [VITAMIN B1], RIBOFLAVIN [VITAMIN B2], FOLIC ACID), PALM OIL, SUGAR, HIGH FRUCTOSE CORN SYRUP, WATER, CONFECTIONERY COATING (SUGAR, PALM KERNEL OIL AND HYDROGENATED PALM OIL, NON FAT DRY MILK, COCOA POWDER [PROCESSED WITH ALKALI], SOY LECITHIN, AND VANILLAIN [ARTIFICIAL FLAVOR]), COCOA (NATURAL AND PROCESSED WITH ALKALI), CORN SYRUP, DEXTROSE, CONTAINS 2% OR LESS OF EACH OF THE FOLLOWING: GLYCERINE, MODIFIED CORNSTARCH, AMMONIUM BICARBONATE, MONO-AND DIGLYCERIDES, SALT, LEAVENING (BAKING SODA), SODIUM STEAROYL LACTYLATE, CARAMEL COLOR, MONOGLYCERIDES, POLYSORBATE 60, NATURAL AND ARTIFICIAL FLAVOR, DATEM, MALTODEXTRIN, EGG YOLKS, EGGS, FD&C RED #40, SOYBEAN OIL, CITRIC ACID, XANTHAN GUM, CELLULOSE GUM, SOY LECITHIN, POTASSIUM SORBATE AND SORBIC ACID (TO RETARD SPOILAGE)." Date available: 07/14/2017 Date last updated by company: 07/14/2017
