Source: USDA Branded Food Products Database Release December 2017 Software v.3.8.6.4 2017-10-02
Report Run at: December 17, 2017 22:15 EST
"Nutrient data for: 45101631, MRS CRIMBLE'S, 6 LARGE CHOC MACAROONS, UPC: 886294000007"
Food Group:  Branded Food Products Database
Common Name:

Nutrient,Unit,Data points,Std. Error,"1.3 ONZ = 36.8g",1Value per 100 g,
Proximates
"Energy",kcal,--,--,171,465
"Protein",g,--,--,1.00,2.72
"Total lipid (fat)",g,--,--,8.00,21.74
"Carbohydrate, by difference",g,--,--,22.00,59.78
"Fiber, total dietary",g,--,--,2.0,5.4
"Sugars, total",g,--,--,19.00,51.63
Minerals
"Calcium, Ca",mg,--,--,0,0
"Iron, Fe",mg,--,--,0.98,2.66
"Sodium, Na",mg,--,--,10,27
Vitamins
"Vitamin C, total ascorbic acid",mg,--,--,0.0,0.0
"Vitamin A, IU",IU,--,--,0,0
Lipids
"Fatty acids, total saturated",g,--,--,8.000,21.740
"Fatty acids, total trans",g,--,--,0.000,0.000
"Cholesterol",mg,--,--,0,0
Amino Acids
Other
Ingredients
"SUGAR, COCONUT, GLUCOSE SYRUP*, EGG WHITE, DEXTROSE*, POTATO STARCH, VEGETABLE OIL PALM, PALM KERNEL, COCONUT), REDUCED FAT COCOA POWDER, STABILISER: SORBITAN RISTEARAT**, EMULSIFIER: SOYA LECITHIN." Date available: 06/25/2017 Date last updated by company: 06/25/2017
