Source: USDA Branded Food Products Database Release December 2017 Software v.3.8.6.4 2017-10-02
Report Run at: December 17, 2017 22:18 EST
"Nutrient data for: 45223431, MRS. FRESHLEY'S, CUPCAKES, BANANA PUDDING, UPC: 072250003070"
Food Group:  Branded Food Products Database
Common Name:

Nutrient,Unit,Data points,Std. Error,"1 CUPCAKE = 57.0g",1Value per 100 g,
Proximates
"Energy",kcal,--,--,200,351
"Protein",g,--,--,1.00,1.75
"Total lipid (fat)",g,--,--,6.00,10.53
"Carbohydrate, by difference",g,--,--,35.00,61.40
"Fiber, total dietary",g,--,--,0.0,0.0
"Sugars, total",g,--,--,25.00,43.86
Minerals
"Calcium, Ca",mg,--,--,100,175
"Iron, Fe",mg,--,--,0.51,0.89
"Sodium, Na",mg,--,--,180,316
Vitamins
"Vitamin C, total ascorbic acid",mg,--,--,0.0,0.0
"Vitamin A, IU",IU,--,--,0,0
Lipids
"Fatty acids, total saturated",g,--,--,2.001,3.510
"Fatty acids, total monounsaturated",g,--,--,2.001,3.510
"Fatty acids, total polyunsaturated",g,--,--,2.001,3.510
"Fatty acids, total trans",g,--,--,0.000,0.000
"Cholesterol",mg,--,--,5,9
Amino Acids
Other
Ingredients
"SUGAR, WATER, ENRICHED UNBLEACHED AND BLEACHED FLOUR (WHEAT FLOUR, MALTED BARLEY FLOUR, NIACIN, REDUCED IRON, THIAMIN MONONITRATE, RIBOFLAVIN, FOLIC ACID), SOYBEAN OIL, PALM OIL, EGGS, EGG WHITES, CONTAINS 2% OR LESS OF EACH OF THE FOLLOWING: DEXTROSE, CORN SYRUP, EGG YOLKS, MODIFIED CORNSTARCH, HIGH FRUCTOSE CORN SYRUP, LEAVENING (SODIUM ACID PYROPHOSPHATE, BAKING SODA, MONOCALCIUM PHOSPHATE), MONO- AND DIGLYCERIDES, SALT, CALCIUM CARBONATE, CORN STARCH, CALCIUM SULFATE, TITANIUM DIOXIDE (COLOR), SORBITAN MONOSTEARATE, POLYSORBATE 80, NATURAL AND ARTIFICIAL FLAVORS, POLYSORBATE 60, DATEM, SOY LECITHIN, SODIUM STEAROYL LACTYLATE, AGAR, GUAR GUM, COLORED WITH EXTRACTIVES OF TURMERIC AND ANNATTO SEED, SODIUM HEXAMETAPHOSPHATE, MONOGLYCERIDES, CITRIC ACID, CELLULOSE GUM, XANTHAN GUM, CARAMEL COLOR, PRESERVED WITH POTASSIUM SORBATE, SORBIC ACID AND SODIUM PROPIONATE, TOPPED WITH VANILLA COOKIE CRUMBS (WHEAT FLOUR, SUGAR, SOYBEAN OIL, HIGH FRUCTOSE CORN SYRUP, SALT, SODIUM BICARBONATE, ARTIFICIAL AND NATURAL FLAVORS)." Date available: 07/14/2017 Date last updated by company: 07/14/2017
