Source: USDA Branded Food Products Database Release December 2017 Software v.3.8.6.4 2017-10-02
Report Run at: December 17, 2017 22:23 EST
"Nutrient data for: 45006558, MRS.T'S, SWEET POTATO PIEROGIES, UPC: 041164444347"
Food Group:  Branded Food Products Database
Common Name:

Nutrient,Unit,Data points,Std. Error,"3.0 PIEROGIES = 114.0g",1Value per 100 g,
Proximates
"Energy",kcal,--,--,190,167
"Protein",g,--,--,5.00,4.39
"Total lipid (fat)",g,--,--,3.00,2.63
"Carbohydrate, by difference",g,--,--,36.00,31.58
"Fiber, total dietary",g,--,--,3.0,2.6
"Sugars, total",g,--,--,5.00,4.39
Minerals
"Calcium, Ca",mg,--,--,21,18
"Iron, Fe",mg,--,--,1.07,0.94
"Sodium, Na",mg,--,--,329,289
Vitamins
"Vitamin C, total ascorbic acid",mg,--,--,4.4,3.9
"Vitamin A, IU",IU,--,--,373,327
Lipids
"Fatty acids, total saturated",g,--,--,0.502,0.440
"Fatty acids, total trans",g,--,--,0.000,0.000
"Cholesterol",mg,--,--,15,13
Amino Acids
Other
Ingredients
"WATER, WHOLE WHEAT FLOUR, ENRICHED DURUM FLOUR (DURUM WHEAT FLOUR, NIACIN, IRON, THIAMINE, RIBOFLAVIN, FOLIC ACID), DEHYDRATED SWEET POTATOES (SWEET POTATOES, SUGAR, SODIUM ACID AND TETRA SODIUM PYROPHOSPHATES), DEHYDRATED POTATOES (POTATOES, MONO & DIGLYCERIDES, SODIUM ACID PYROPHOSPHATE, CITRIC ACID), SOYBEAN OIL, NATURAL BUTTER FLAVOR (WHEY, BUTTER OIL, CORN SYRUP SOLIDS, SALT, GUAR GUM, ANNATTO AND TURMERIC [COLOR]), EGGS, SUGAR, SALT, SPICE, BETA CAROTENE, ASCORBIC ACID." Date available: 07/14/2017 Date last updated by company: 07/14/2017
