Source: USDA Branded Food Products Database Release December 2017 Software v.3.8.6.4 2017-10-02
Report Run at: December 17, 2017 22:18 EST
"Nutrient data for: 45227190, MRS. FRESHLEY'S, CHOCOLATE PIE MADE WITH HERSHEY'S COCOA, UPC: 072359001038"
Food Group:  Branded Food Products Database
Common Name:

Nutrient,Unit,Data points,Std. Error,"1 PIE = 128.0g",1Value per 100 g,
Proximates
"Energy",kcal,--,--,500,391
"Protein",g,--,--,5.00,3.91
"Total lipid (fat)",g,--,--,23.00,17.97
"Carbohydrate, by difference",g,--,--,67.99,53.12
"Fiber, total dietary",g,--,--,2.9,2.3
"Sugars, total",g,--,--,27.00,21.09
Minerals
"Calcium, Ca",mg,--,--,150,117
"Iron, Fe",mg,--,--,3.52,2.75
"Sodium, Na",mg,--,--,270,211
Vitamins
"Vitamin C, total ascorbic acid",mg,--,--,0.0,0.0
"Vitamin A, IU",IU,--,--,0,0
Lipids
"Fatty acids, total saturated",g,--,--,12.006,9.380
"Fatty acids, total monounsaturated",g,--,--,8.000,6.250
"Fatty acids, total polyunsaturated",g,--,--,1.997,1.560
"Fatty acids, total trans",g,--,--,0.000,0.000
"Cholesterol",mg,--,--,5,4
Amino Acids
Other
Ingredients
"WATER, ENRICHED UNBLEACHED AND BLEACHED FLOUR (WHEAT FLOUR, NIACIN, REDUCED IRON, THIAMIN MONONITRATE, RIBOFLAVIN, FOLIC ACID), CORN SYRUP, SUGAR, PALM OIL, COCOA (NATURAL AND PROCESSED WITH ALKALI), CONTAINS 2% OR LESS OF EACH OF THE FOLLOWING: CORNSTARCH, MODIFIED CORNSTARCH, SALT, CORN SYRUP SOLIDS, CALCIUM CARBONATE, CALCIUM SULFATE, DEXTROSE, SOY LECITHIN, ARTIFICIAL COLORING (TITANIUM DIOXIDE, FD&C YELLOW #6, FD&C YELLOW #5), GLUCONO DELTA LACTONE, SODIUM STEAROYL LACTYLATE, ARTIFICIAL FLAVORS, SODIUM ALGINATE, CHOCOLATE LIQUOR, AGAR, LOCUST BEAN GUM, CITRIC ACID, SODIUM HEXAMETAPHOSPHATE, MALTODEXTRIN, WHEAT STARCH, PRESERVED WITH SORBIC ACID, SODIUM BENZOATE AND POTASSIUM SORBATE." Date available: 07/14/2017 Date last updated by company: 07/14/2017
