Source: USDA Branded Food Products Database Release December 2017 Software v.3.8.6.4 2017-10-02
Report Run at: December 17, 2017 22:20 EST
"Nutrient data for: 45190890, MRS. KLEIN'S, DILL PICKLES, UPC: 046569654902"
Food Group:  Branded Food Products Database
Common Name:

Nutrient,Unit,Data points,Std. Error,"1 ONZ = 28.0g",1Value per 100 g,
Proximates
"Energy",kcal,--,--,0,0
"Protein",g,--,--,0.00,0.00
"Total lipid (fat)",g,--,--,0.00,0.00
"Carbohydrate, by difference",g,--,--,0.00,0.00
"Sugars, total",g,--,--,0.00,0.00
Minerals
"Sodium, Na",mg,--,--,390,1393
Vitamins
Lipids
"Fatty acids, total saturated",g,--,--,0.000,0.000
"Fatty acids, total trans",g,--,--,0.000,0.000
Amino Acids
Other
Ingredients
"CUCUMBERS, WATER, SALT, VINEGAR, DILL OIL & NATURAL FLAVORS, SODIUM BENZOATE (PRESERVATIVE), CALCIUM CHLORIDE, TUMERIC, POLYSORBATE 80, YELLOW #5, BLUE#1." Date available: 07/14/2017 Date last updated by company: 07/14/2017
