Source: USDA Branded Food Products Database Release December 2017 Software v.3.8.6.4 2017-10-02
Report Run at: December 17, 2017 22:17 EST
"Nutrient data for: 45143580, MRS. FIELDS, CREAM STICKS, PEPPERMINT, UPC: 070203043814"
Food Group:  Branded Food Products Database
Common Name:

Nutrient,Unit,Data points,Std. Error,"1 CONTAINER = 37.0g",1Value per 100 g,
Proximates
"Energy",kcal,--,--,150,405
"Protein",g,--,--,1.00,2.70
"Total lipid (fat)",g,--,--,5.00,13.51
"Carbohydrate, by difference",g,--,--,25.00,67.57
"Fiber, total dietary",g,--,--,1.0,2.7
"Sugars, total",g,--,--,20.00,54.05
Minerals
"Calcium, Ca",mg,--,--,20,54
"Iron, Fe",mg,--,--,0.48,1.31
"Sodium, Na",mg,--,--,30,81
Vitamins
"Vitamin C, total ascorbic acid",mg,--,--,0.0,0.0
"Vitamin A, IU",IU,--,--,0,0
Lipids
"Fatty acids, total saturated",g,--,--,3.001,8.110
"Fatty acids, total trans",g,--,--,0.000,0.000
"Cholesterol",mg,--,--,0,0
Amino Acids
Other
Ingredients
"SUGAR, DARK CHOCOLATE [SUGAR, CHOCOLATE LIQUOR, COCOA BUTTER, SOY LECITHIN-EMULSIFIER, NATURAL VANILLA FLAVOR], CORN SYRUP, VEGETABLE OILS [PARTIALLY HYDROGENATED SOYBEAN/COTTONSEED OILS/PALM KERNEL OIL, SOY LECITHIN AND CITRIC ACID], CHOCOLATE COATING [SUGAR, PARTIALLY HYDROGENATED PALM/PALM KERNEL OILS DUTCHED COCOA, NONFAT DRY MILK, DRIED WHEY, SOY LECITHIN-EMULSIFIER, SALT, ARTIFICIAL FLAVOR], CANDY CANE POWDER [SUGAR, CORN SYRUP, RED 40, PROPYLENE GLYCOL, GLYCERIN, TITANIUM DIOXIDE, SODIUM BENZOATE, PEPPERMINT OIL], CONTAINS LESS THAN 1%: SALT, INVERTASE, PEPPERMINT OIL, DRIED EGG WHITES, COCONUT OIL." Date available: 07/14/2017 Date last updated by company: 07/14/2017
