Source: USDA Branded Food Products Database Release December 2017 Software v.3.8.6.4 2017-10-02
Report Run at: December 17, 2017 22:22 EST
"Nutrient data for: 45203631, MRS. SMITH'S, ORIGINAL FLAKY CRUST, DUTCH APPLE PIE, UPC: 027700679015"
Food Group:  Branded Food Products Database
Common Name:

Nutrient,Unit,Data points,Std. Error,"0.125 PIE = 131.0g",1Value per 100 g,
Proximates
"Energy",kcal,--,--,341,260
"Protein",g,--,--,2.00,1.53
"Total lipid (fat)",g,--,--,14.00,10.69
"Carbohydrate, by difference",g,--,--,51.00,38.93
"Fiber, total dietary",g,--,--,1.0,0.8
"Sugars, total",g,--,--,26.00,19.85
Minerals
"Calcium, Ca",mg,--,--,41,31
"Iron, Fe",mg,--,--,0.28,0.21
"Potassium, K",mg,--,--,90,69
"Sodium, Na",mg,--,--,310,237
Vitamins
"Vitamin C, total ascorbic acid",mg,--,--,2.2,1.7
"Vitamin A, IU",IU,--,--,0,0
Lipids
"Fatty acids, total saturated",g,--,--,6.995,5.340
"Fatty acids, total monounsaturated",g,--,--,5.004,3.820
"Fatty acids, total polyunsaturated",g,--,--,2.004,1.530
"Fatty acids, total trans",g,--,--,0.000,0.000
"Cholesterol",mg,--,--,0,0
Amino Acids
Other
Ingredients
"FILLING: APPLES, WATER, SUGAR, MODIFIED FOOD STARCH, CORN SYRUP, BROWN SUGAR, SALT, SPICE, XANTHAN GUM. CRUST: WHEAT FLOUR, SHORTENING BUTTER BLEND (PALM OIL, BUTTER [CREAM, SALT]), PALM OIL, WATER, SOYBEAN OIL, SALT, DEXTROSE, YEAST, MONO- AND DIGLYCERIDES. STREUSEL: WHEAT FLOUR, BROWN SUGAR, PALM OIL, SUGAR, SOYBEAN OIL, SILICON DIOXIDE, SALT, DEXTROSE, MONO- AND DIGLYCERIDES." Date available: 07/14/2017 Date last updated by company: 07/14/2017
