Source: USDA Branded Food Products Database Release December 2017 Software v.3.8.6.4 2017-10-02
Report Run at: December 17, 2017 22:19 EST
"Nutrient data for: 45223195, MRS. FRESHLEY'S, DELICIOUS DEALS, FRUIT&GRAIN LOW FAT CEREAL BARS, STRAWBERRY, UPC: 072250049917"
Food Group:  Branded Food Products Database
Common Name:

Nutrient,Unit,Data points,Std. Error,"1 BAR = 28.0g",1Value per 100 g,
Proximates
"Energy",kcal,--,--,100,357
"Protein",g,--,--,1.00,3.57
"Total lipid (fat)",g,--,--,2.00,7.14
"Carbohydrate, by difference",g,--,--,20.00,71.43
"Fiber, total dietary",g,--,--,1.0,3.6
"Sugars, total",g,--,--,11.00,39.29
Minerals
"Calcium, Ca",mg,--,--,150,536
"Iron, Fe",mg,--,--,1.03,3.67
"Sodium, Na",mg,--,--,60,214
Vitamins
"Vitamin C, total ascorbic acid",mg,--,--,0.0,0.0
"Vitamin A, IU",IU,--,--,0,0
Lipids
"Fatty acids, total saturated",g,--,--,1.000,3.570
"Fatty acids, total trans",g,--,--,0.000,0.000
"Cholesterol",mg,--,--,0,0
Amino Acids
Other
Ingredients
"PASTRY: ENRICHED BLEACHED AND UNBLEACHED WHEAT FLOUR, GLUCOSE-FRUCTOSE, SUGAR, ROLLED OATS, PALM OIL, SKIM MILK, CORN SYRUP, CALCIUM CARBONATE, WHEAT GLUTEN, BAKING POWDER, GLYCERIN, SALT, HONEY, MALTODEXTRIN, SOYBEAN OIL, CORNSTARCH, SODIUM STEAROYL LACTYLATE, XANTHAN GUM, DEXTROSE, ARTIFICIAL FLAVOUR, SOY LECITHIN, POTASSIUM SORBATE AND SORBIC ACID. TOPPED WITH OAT BRAN. FILLING: GLUCOSE-FRUCTOSE, RAISIN PASTE, WATER, EVAPORATED APPLES, YELLOW CORN FLOUR, MODIFIED CORNSTARCH, SUGAR, CITRIC ACID, ARTIFICIAL FLAVOUR, ARTIFICIAL COLOUR, SORBIC ACID AND POTASSIUM SORBATE." Date available: 07/14/2017 Date last updated by company: 07/14/2017
