Source: USDA Branded Food Products Database Release December 2017 Software v.3.8.6.4 2017-10-02
Report Run at: December 17, 2017 22:16 EST
"Nutrient data for: 45140004, MRS DASH, SLOPPY JOE SEASONING MIX, UPC: 605021885133"
Food Group:  Branded Food Products Database
Common Name:

Nutrient,Unit,Data points,Std. Error,"1.5 tsp = 4.5g",1Value per 100 g,
Proximates
"Energy",kcal,--,--,15,333
"Protein",g,--,--,0.30,6.67
"Total lipid (fat)",g,--,--,0.00,0.00
"Carbohydrate, by difference",g,--,--,4.00,88.89
"Fiber, total dietary",g,--,--,0.0,0.0
"Sugars, total",g,--,--,2.00,44.44
Minerals
"Calcium, Ca",mg,--,--,20,444
"Iron, Fe",mg,--,--,4.00,88.88
"Sodium, Na",mg,--,--,0,0
Vitamins
"Vitamin C, total ascorbic acid",mg,--,--,26.7,592.5
"Vitamin A, IU",IU,--,--,1111,24689
Lipids
"Fatty acids, total saturated",g,--,--,0.000,0.000
"Fatty acids, total trans",g,--,--,0.000,0.000
"Cholesterol",mg,--,--,0,0
Amino Acids
Other
Ingredients
"SUGAR, DRIED ONION, BROWN SUGAR, SPICES (BLACK PEPPER, CELERY SEED, CHILI PEPPER, CINNAMON, CUMIN, NUTMEG), CORN STARCH, MALTODEXTRIN, POTASSIUM CHLORIDE, YEAST EXTRACT, TOMATO POWDER, DRIED RED AND GREEN BELL PEPPER, DRIED GARLIC, CITRIC ACID, GLUCOSE, NATURAL FLAVOR, VINEGAR." Date available: 10/06/2017 Date last updated by company: 10/06/2017
