Source: USDA Branded Food Products Database Release December 2017 Software v.3.8.6.4 2017-10-02
Report Run at: December 17, 2017 22:18 EST
"Nutrient data for: 45223514, MRS. FRESHLEY'S, CANDY TOPPED FUDGE BAKE BROWNIE, UPC: 072250913997"
Food Group:  Branded Food Products Database
Common Name:

Nutrient,Unit,Data points,Std. Error,"1 BROWNIE = 78.0g",1Value per 100 g,
Proximates
"Energy",kcal,--,--,330,423
"Protein",g,--,--,3.00,3.85
"Total lipid (fat)",g,--,--,11.00,14.10
"Carbohydrate, by difference",g,--,--,53.00,67.95
"Fiber, total dietary",g,--,--,2.0,2.6
"Sugars, total",g,--,--,27.00,34.62
Minerals
"Calcium, Ca",mg,--,--,20,26
"Iron, Fe",mg,--,--,0.92,1.18
"Sodium, Na",mg,--,--,230,295
Vitamins
"Vitamin C, total ascorbic acid",mg,--,--,0.0,0.0
"Vitamin A, IU",IU,--,--,0,0
Lipids
"Fatty acids, total saturated",g,--,--,5.998,7.690
"Fatty acids, total monounsaturated",g,--,--,4.001,5.130
"Fatty acids, total polyunsaturated",g,--,--,1.498,1.920
"Fatty acids, total trans",g,--,--,0.000,0.000
"Cholesterol",mg,--,--,0,0
Amino Acids
Other
Ingredients
"ENRICHED BLEACHED FLOUR (WHEAT FLOUR, NIACIN, REDUCED IRON, THIAMIN MONONITRATE, RIBOFLAVIN, FOLIC ACID), CORN SYRUP, PALM OIL, COCOA (NATURAL AND PROCESSED WITH ALKALI), HIGH FRUCTOSE CORN SYRUP, EGG YOLKS, DARK CHOCOLATE FLAVORED CHIPS (SUGAR, HYDROGENATED PALM KERNEL OIL, COCOA, SOY LECITHIN, NATURAL FLAVOR, CORN STARCH, TITANIUM DIOXIDE [COLOR], ARTIFICIAL COLORS [YELLOW 5 LAKE, RED 40 LAKE, YELLOW 6 LAKE, BLUE 1 LAKE, BLUE 2 LAKE, RED 3, YELLOW 5}, CONFECTIONER'S GLAZE, CARNAUBA WAX, MILK, SOY FLOUR), CONTAINS 2% OR LESS OF EACH OF THE FOLLOWING: EGGS, WATER, CORN SYRUP SOLIDS, SORBITOL, SOY LECITHIN, EGG WHITES, SALT, MODIFIED CORN STARCH, SOYBEAN OIL, NATURAL AND ARTIFICIAL FLAVORS, PARTIALLY HYDROGENATED VEGETABLE SHORTENING (SOYBEAN AND COTTONSEED OIL), LEAVENING (SODIUM ACID PYROPHOSPHATE, SODIUM BICARBONATE, CORNSTARCH, MONOCALCIUM PHOSPHATE), POLYSORBATE 60, MONO AND DIGLYCERIDES, CHOCOLATE LIQUOR, CALCIUM PHOSPHATE, CALCIUM CARBONATE, CELLULOSE GUM, CALCIUM SULFATE, CARAMEL COLOR, AGAR, DEXTROSE, LOCUST BEAN GUM, SODIUM HEXAMETAPHOSPHATE, SORBIC ACID (TO RETARD SPOILAGE)." Date available: 07/14/2017 Date last updated by company: 07/14/2017
