Source: USDA Branded Food Products Database Release December 2017 Software v.3.8.6.4 2017-10-02
Report Run at: December 17, 2017 22:15 EST
"Nutrient data for: 45178692, MRS. B'S GOODIES, SWEET BAGEL, UPC: 703510511522"
Food Group:  Branded Food Products Database
Common Name:

Nutrient,Unit,Data points,Std. Error,"1.3 ONZ = 37.0g",1Value per 100 g,
Proximates
"Energy",kcal,--,--,130,351
"Protein",g,--,--,2.00,5.41
"Total lipid (fat)",g,--,--,4.00,10.81
"Carbohydrate, by difference",g,--,--,21.00,56.76
"Fiber, total dietary",g,--,--,1.0,2.7
"Sugars, total",g,--,--,6.00,16.22
Minerals
"Calcium, Ca",mg,--,--,20,54
"Iron, Fe",mg,--,--,3.21,8.68
"Sodium, Na",mg,--,--,55,149
Vitamins
"Vitamin C, total ascorbic acid",mg,--,--,0.0,0.0
"Vitamin A, IU",IU,--,--,297,804
Lipids
"Fatty acids, total saturated",g,--,--,2.002,5.410
"Fatty acids, total trans",g,--,--,0.000,0.000
"Cholesterol",mg,--,--,10,27
Amino Acids
Other
Ingredients
"FLOUR, SUGAR, BUTTER, DATE, MILK, BAKING POWDER, YEAST & SPICES" Date available: 07/14/2017 Date last updated by company: 07/14/2017
