Source: USDA Branded Food Products Database Release December 2017 Software v.3.8.6.4 2017-10-02
Report Run at: December 17, 2017 22:16 EST
"Nutrient data for: 45021625, MRS. CUBBISON'S, BUTTER & GARLIC CROUTONS, BUTTER & GARLIC, UPC: 074714085653"
Food Group:  Branded Food Products Database
Common Name:

Nutrient,Unit,Data points,Std. Error,"2.0 Tbsp = 7.0g",1Value per 100 g,
Proximates
"Energy",kcal,--,--,30,429
"Protein",g,--,--,1.00,14.29
"Total lipid (fat)",g,--,--,1.50,21.43
"Carbohydrate, by difference",g,--,--,4.00,57.14
"Fiber, total dietary",g,--,--,0.0,0.0
"Sugars, total",g,--,--,1.00,14.29
Minerals
"Calcium, Ca",mg,--,--,0,0
"Iron, Fe",mg,--,--,2.57,36.75
"Sodium, Na",mg,--,--,80,1143
Vitamins
"Vitamin C, total ascorbic acid",mg,--,--,0.0,0.0
"Vitamin A, IU",IU,--,--,0,0
Lipids
"Fatty acids, total saturated",g,--,--,0.000,0.000
"Fatty acids, total trans",g,--,--,0.000,0.000
"Cholesterol",mg,--,--,0,0
Amino Acids
Other
Ingredients
"ENRICHED FLOUR (WHEAT FLOUR, MALTED BARLEY FLOUR, NIACIN, THIAMIN MONONITRATE, REDUCED IRON, RIBOFLAVIN, FOLIC ACID), CANOLA AND/OR SUNFLOWER OIL, HIGH FRUCTOSE CORN SYRUP, YEAST, DEHYDRATED GARLIC MALTODEXTRIN, SALT, 2% OR LESS OF , NATURAL FLAVORS (MILK), SALT,BUTTER OIL, CITRIC ACID, WHEAT GLUTEN, CALCIUM PROPIONATE (PRESERVATIVE), CALCIUM PROPIONATE (PRESERVATIVE), CALCIUM PEROXIDE, CALCIUM SULFATE, ASCORBIC ACID, AZODICARBONAMIDE, ENZYMES, SODIUM STEAROYL LACTYLATE, EXTRACTIVE OF ANNATTO (COLOR), ALPHA TOCOPHEROL (ANTIOXIDANT), CITRIC ACID, TBHQ (TO PRESERVE FRESHNESS)." Date available: 06/25/2017 Date last updated by company: 06/25/2017
