Source: USDA Branded Food Products Database Release December 2017 Software v.3.8.6.4 2017-10-02
Report Run at: December 17, 2017 22:15 EST
"Nutrient data for: 45189588, MRS. BARR'S NATURAL FOODS, SO SWEET GRANOLA CEREAL, CRANBERRY ALMOND, UPC: 857913004027"
Food Group:  Branded Food Products Database
Common Name:

Nutrient,Unit,Data points,Std. Error,"0.25 cup = 28.0g",1Value per 100 g,
Proximates
"Energy",kcal,--,--,130,464
"Protein",g,--,--,3.00,10.71
"Total lipid (fat)",g,--,--,6.00,21.43
"Carbohydrate, by difference",g,--,--,15.00,53.57
"Fiber, total dietary",g,--,--,2.0,7.1
"Sugars, total",g,--,--,7.00,25.00
Minerals
"Calcium, Ca",mg,--,--,20,71
"Iron, Fe",mg,--,--,1.41,5.05
"Sodium, Na",mg,--,--,25,89
Vitamins
"Vitamin C, total ascorbic acid",mg,--,--,0.0,0.0
"Vitamin A, IU",IU,--,--,0,0
Lipids
"Fatty acids, total saturated",g,--,--,0.501,1.790
"Fatty acids, total trans",g,--,--,0.000,0.000
"Cholesterol",mg,--,--,0,0
Amino Acids
Other
Ingredients
"ORGANIC OATS, ALMONDS, CRANBERRIES, ORGANIC EXPELLER PRESSED HIGH OLEIC SUNFLOWER OIL, ORGANIC AGAVE NECTAR, MAPLE SYRUP, CANE SUGAR, CINNAMON, GF VANILLA EXTRACT, IODIZED SEA SALT." Date available: 07/14/2017 Date last updated by company: 07/14/2017
