Source: USDA Branded Food Products Database Release December 2017 Software v.3.8.6.4 2017-10-02
Report Run at: December 17, 2017 22:20 EST
"Nutrient data for: 45194260, MRS. GERRY'S, PREMIUM MACARONI & CHEESE, UPC: 017839805058"
Food Group:  Branded Food Products Database
Common Name:

Nutrient,Unit,Data points,Std. Error,"1 cup = 225.0g",1Value per 100 g,
Proximates
"Energy",kcal,--,--,331,147
"Protein",g,--,--,13.01,5.78
"Total lipid (fat)",g,--,--,15.01,6.67
"Carbohydrate, by difference",g,--,--,36.00,16.00
"Fiber, total dietary",g,--,--,2.0,0.9
"Sugars, total",g,--,--,5.00,2.22
Minerals
"Calcium, Ca",mg,--,--,200,89
"Iron, Fe",mg,--,--,0.63,0.28
"Sodium, Na",mg,--,--,1040,462
Vitamins
"Vitamin C, total ascorbic acid",mg,--,--,0.0,0.0
"Vitamin A, IU",IU,--,--,223,99
Lipids
"Fatty acids, total saturated",g,--,--,6.997,3.110
"Fatty acids, total trans",g,--,--,0.495,0.220
"Cholesterol",mg,--,--,40,18
Amino Acids
Other
Ingredients
"MACARONI (ENRICHED DURUM WHEAT SEMOLINA [DURUM WHEAT, IRON, NIACIN, THIAMINE MONONITRATE, RIBOFLAVIN, FOLIC ACID], WATER, MILK, AMERICAN CHEESE (PASTEURIZED MILK, CHEESE CULTURE, SALT, ENZYMES), CHEDDAR CHEESE (PASTEURIZED MILK, CHEESE CULTURE, SALT, ENZYMES), SALT, BUTTER (CREAM, SALT), SOYBEAN OIL, MODIFIED CORN STARCH, WHEY, WHEY PROTEIN CONCENTRATE, SKIM MILK, MILK FAT, HYDROGENATED COTTONSEED OIL, VEGETABLE MONO DIGLYCERIDES, SOY LECITHIN, CITRIC ACID, SODIUM PHOSPHATE, ANNATTO (COLOR), POTASSIUM SORBATE AND SODIUM BENZOATE (PRESERVATIVES), ARTIFICIAL FLAVOR, VITAMIN A PALMITATE." Date available: 10/18/2017 Date last updated by company: 10/18/2017
