Source: USDA Branded Food Products Database Release December 2017 Software v.3.8.6.4 2017-10-02
Report Run at: December 17, 2017 22:27 EST
"Nutrient data for: 45016708, MT. OLIVE, ZESTY GARLIC KOSHER DILLS, UPC: 009300184007"
Food Group:  Branded Food Products Database
Common Name:

Nutrient,Unit,Data points,Std. Error,"0.5 PICKLE | ABOUT = 28.0g",1Value per 100 g,
Proximates
"Energy",kcal,--,--,5,18
"Protein",g,--,--,0.00,0.00
"Total lipid (fat)",g,--,--,0.00,0.00
"Carbohydrate, by difference",g,--,--,1.00,3.57
Minerals
"Sodium, Na",mg,--,--,260,929
Vitamins
Lipids
Amino Acids
Other
Ingredients
"CUCUMBERS, WATER, VINEGAR, SALT, ONION FLAKES, GARLIC FLAKES, CALCIUM CHLORIDE, 0.1% SODIUM BENZOATE (PRESERVATIVE), NATURAL FLAVORS, POLYSORBATE 80, AND YELLOW 5." Date available: 07/14/2017 Date last updated by company: 07/14/2017
