Source: USDA Branded Food Products Database Release December 2017 Software v.3.8.6.4 2017-10-02
Report Run at: December 17, 2017 22:25 EST
"Nutrient data for: 45118527, MT. OLIVE, BANANA PEPPER RINGS, UPC: 009300001014"
Food Group:  Branded Food Products Database
Common Name:

Nutrient,Unit,Data points,Std. Error,"9.0 RINGS = 28.0g",1Value per 100 g,
Proximates
"Energy",kcal,--,--,10,36
"Protein",g,--,--,0.00,0.00
"Total lipid (fat)",g,--,--,0.00,0.00
"Carbohydrate, by difference",g,--,--,2.00,7.14
Minerals
"Sodium, Na",mg,--,--,310,1107
Vitamins
Lipids
Amino Acids
Other
Ingredients
"BANANA PEPPERS, WATER, VINEGAR, SALT, CALCIUM CHLORIDE, 0.1% SODIUM BENZOATE (PRESERVATIVE), POLYSORBATE 80, SODIUM BISULFITE (PRESERVATIVE), TURMERIC, AND NATURAL FLAVORS." Date available: 06/25/2017 Date last updated by company: 06/25/2017
