Source: USDA Branded Food Products Database Release December 2017 Software v.3.8.6.4 2017-10-02
Report Run at: December 17, 2017 22:27 EST
"Nutrient data for: 45086115, MT. OLIVE, SANDWICH STUFFERS KOSHER DILL, UPC: 009300006514"
Food Group:  Branded Food Products Database
Common Name:

Nutrient,Unit,Data points,Std. Error,"1 SLICE | ABOUT = 28.0g",1Value per 100 g,
Proximates
"Energy",kcal,--,--,5,18
"Protein",g,--,--,0.00,0.00
"Total lipid (fat)",g,--,--,0.00,0.00
"Carbohydrate, by difference",g,--,--,1.00,3.57
Minerals
"Sodium, Na",mg,--,--,260,929
Vitamins
Lipids
Amino Acids
Other
Ingredients
"CUCUMBERS, WATER, VINEGAR, SEA SALT, CALCIUM CHLORIDE (FIRMING AGENT), 0.1% SODIUM BENZOATE (PRESERVATIVE), NATURAL FLAVORS, POLYSORBATE 80, AND TURMERIC (FOR COLOR)." Date available: 07/14/2017 Date last updated by company: 07/14/2017
