Source: USDA Branded Food Products Database Release December 2017 Software v.3.8.6.4 2017-10-02
Report Run at: December 17, 2017 22:30 EST
"Nutrient data for: 45314306, MUENSTER CHEESE, UPC: 042634771048"
Food Group:  Branded Food Products Database
Common Name:

Nutrient,Unit,Data points,Std. Error,"1 SLICE = 23.0g",1Value per 100 g,
Proximates
"Energy",kcal,--,--,80,348
"Protein",g,--,--,5.00,21.74
"Total lipid (fat)",g,--,--,7.00,30.43
"Carbohydrate, by difference",g,--,--,0.00,0.00
"Fiber, total dietary",g,--,--,0.0,0.0
"Sugars, total",g,--,--,0.00,0.00
Minerals
"Calcium, Ca",mg,--,--,150,652
"Iron, Fe",mg,--,--,0.00,0.00
"Sodium, Na",mg,--,--,105,457
Vitamins
"Vitamin C, total ascorbic acid",mg,--,--,0.0,0.0
"Vitamin A, IU",IU,--,--,435,1891
Lipids
"Fatty acids, total saturated",g,--,--,4.501,19.570
"Fatty acids, total trans",g,--,--,0.000,0.000
"Cholesterol",mg,--,--,15,65
Amino Acids
Other
Ingredients
"CULTURED PASTEURIZED MILK, SALT, ENZYMES, ANNATTO (COLOR)." Date available: 07/14/2017 Date last updated by company: 07/14/2017
