Source: USDA Branded Food Products Database Release December 2017 Software v.3.8.6.4 2017-10-02
Report Run at: December 17, 2017 22:33 EST
"Nutrient data for: 45214878, MUFFINS, UPC: 072220009880"
Food Group:  Branded Food Products Database
Common Name:

Nutrient,Unit,Data points,Std. Error,"1 MUFFIN = 99.0g",1Value per 100 g,
Proximates
"Energy",kcal,--,--,380,384
"Protein",g,--,--,6.00,6.06
"Total lipid (fat)",g,--,--,23.00,23.23
"Carbohydrate, by difference",g,--,--,41.00,41.41
"Fiber, total dietary",g,--,--,3.0,3.0
"Sugars, total",g,--,--,28.00,28.28
Minerals
"Calcium, Ca",mg,--,--,60,61
"Iron, Fe",mg,--,--,2.00,2.02
"Sodium, Na",mg,--,--,360,364
Vitamins
"Vitamin C, total ascorbic acid",mg,--,--,0.0,0.0
"Vitamin A, IU",IU,--,--,111,112
Lipids
"Fatty acids, total saturated",g,--,--,3.505,3.540
"Fatty acids, total trans",g,--,--,0.000,0.000
"Cholesterol",mg,--,--,90,91
Amino Acids
Other
Ingredients
"SUGAR, WHOLE EGGS, CANOLA OIL, GLUTEN FREE OAT FLOUR, WATER, SEMI-SWEET CHOCOLATE CHIPS (EVAPORATED CANE SYRUP, NATURAL CHOCOLATE LIQUOR [NON-ALCOHOLIC], NON-DAIRY COCOA BUTTER), COCOA, BAKING POWDER (SODIUM ACID PYROPHOSPHATE, SODIUM BICARBONATE, CORNSTARCH, MONOCALCIUM PHOSPHATE), SALT, VANILLA, XANTHAN GUM." Date available: 07/14/2017 Date last updated by company: 07/14/2017
