Source: USDA Branded Food Products Database Release December 2017 Software v.3.8.6.4 2017-10-02
Report Run at: December 17, 2017 22:32 EST
"Nutrient data for: 45186964, MUFFINS, UPC: 86176600020"
Food Group:  Branded Food Products Database
Common Name:

Nutrient,Unit,Data points,Std. Error,"1 (MUFFIN) = 62.0g",1Value per 100 g,
Proximates
"Energy",kcal,--,--,98,158
"Protein",g,--,--,5.00,8.06
"Total lipid (fat)",g,--,--,7.00,11.29
"Carbohydrate, by difference",g,--,--,5.00,8.06
"Fiber, total dietary",g,--,--,3.0,4.8
"Sugars, total",g,--,--,1.00,1.61
Minerals
"Calcium, Ca",mg,--,--,20,32
"Iron, Fe",mg,--,--,1.28,2.06
"Sodium, Na",mg,--,--,182,294
Vitamins
"Vitamin C, total ascorbic acid",mg,--,--,0.0,0.0
"Vitamin A, IU",IU,--,--,266,429
Lipids
"Fatty acids, total saturated",g,--,--,0.998,1.610
"Fatty acids, total trans",g,--,--,0.000,0.000
"Cholesterol",mg,--,--,28,45
Amino Acids
Other
Ingredients
"NON-GMO EGGS, ALMOND FLOUR, PURIFIED WATER, COCONUT FLOUR, TOASTED ONION FLAKES, BAKING SODA, KOSHER SALT." Date available: 07/14/2017 Date last updated by company: 07/14/2017
