Source: USDA Branded Food Products Database Release December 2017 Software v.3.8.6.4 2017-10-02
Report Run at: December 17, 2017 22:35 EST
"Nutrient data for: 45326570, MUFFINS, UPC: 853332003146"
Food Group:  Branded Food Products Database
Common Name:

Nutrient,Unit,Data points,Std. Error,"1 MUFFIN = 113.0g",1Value per 100 g,
Proximates
"Energy",kcal,--,--,440,389
"Protein",g,--,--,6.00,5.31
"Total lipid (fat)",g,--,--,23.00,20.35
"Carbohydrate, by difference",g,--,--,57.00,50.44
"Fiber, total dietary",g,--,--,3.1,2.7
"Sugars, total",g,--,--,27.00,23.89
Minerals
"Calcium, Ca",mg,--,--,99,88
"Iron, Fe",mg,--,--,0.70,0.62
"Sodium, Na",mg,--,--,170,150
Vitamins
"Vitamin C, total ascorbic acid",mg,--,--,0.0,0.0
"Vitamin A, IU",IU,--,--,97,86
Lipids
"Fatty acids, total saturated",g,--,--,4.497,3.980
"Fatty acids, total trans",g,--,--,0.000,0.000
"Cholesterol",mg,--,--,50,44
Amino Acids
Other
Ingredients
"GRANULATED SUGAR, CANOLA OIL, EGG WHITES, WHITE RICE FLOUR, CHOCOLATE CHIPS (SUGAR, CHOCOLATE LIQUOR, COCOA BUTTER, SOY LECITHIN (AN EMULSIFIER), VANILLA EXTRACT), EGGS, POTATO STARCH, TAPIOCA FLOUR, SOY FLOUR, BROWN RICE FLOUR, BAKING POWDER, XANTHAN GUM, CELLULOSE GUM, SALT" Date available: 10/13/2017 Date last updated by company: 10/13/2017
