Source: USDA Branded Food Products Database Release December 2017 Software v.3.8.6.4 2017-10-02
Report Run at: December 17, 2017 22:34 EST
"Nutrient data for: 45256494, MUFFINS, UPC: 0717887215235"
Food Group:  Branded Food Products Database
Common Name:

Nutrient,Unit,Data points,Std. Error,"1 MUFFIN = 71.0g",1Value per 100 g,
Proximates
"Energy",kcal,--,--,240,338
"Protein",g,--,--,4.00,5.63
"Total lipid (fat)",g,--,--,11.00,15.49
"Carbohydrate, by difference",g,--,--,32.00,45.07
"Fiber, total dietary",g,--,--,1.0,1.4
"Sugars, total",g,--,--,17.00,23.94
Minerals
"Calcium, Ca",mg,--,--,40,56
"Iron, Fe",mg,--,--,1.68,2.36
"Sodium, Na",mg,--,--,300,423
Vitamins
"Vitamin C, total ascorbic acid",mg,--,--,0.0,0.0
"Vitamin A, IU",IU,--,--,155,218
Lipids
"Fatty acids, total saturated",g,--,--,2.499,3.520
"Fatty acids, total trans",g,--,--,0.000,0.000
"Cholesterol",mg,--,--,25,35
Amino Acids
Other
Ingredients
"ENRICHED UNBLEACHED FLOUR (WHEAT FLOUR, NIACIN, REDUCED IRON, THIAMIN MONONITRATE, RIBOFLAVIN, FOLIC ACID), BUTTERMILK (CULTURED LOWFAT MILK, SALT), BLUEBERRIES, SUGAR, CREAM CHEESE (PASTEURIZED MILK AND CREAM, CHEESE CULTURE, SALT, STABILIZERS [CAROB BEAN AND/OR XANTHAN AND/OR GUAR GUM]), CANOLA OIL, POWDERED SUGAR (SUGAR, CORNSTARCH), WHOLE EGGS, PAN OIL (CANOLA OIL, SOY LECITHIN), NONFAT DRY MILK, BAKING POWDER (SODIUM ACID PYROPHOSPHATE, BICARBONATE SODA, CORN STARCH AND MONOCALCIUM PHOSPHATE), LEMON FLAVEDO (LEMON PEEL, SUGAR, LEMON OIL), ENRICHED UNBLEACHED FLOUR (WHEAT FLOUR, ASCORBNIC ACID [DOUGH CONDITIONER], NIACIN, REDUCED ITON, THIAMN MONONITRATE, RIBOFLAVIN, FOLIC ACID), MOLASSES, SEA SALT, VANILLA EXTRACT (WATER, ETHYL ALCOHOL, VANILLA BEANS EXTRACTIVES), LEMON JUICE, BAKING SODA, CITRIC ACID (PRESERVATIVE)." Date available: 07/14/2017 Date last updated by company: 07/14/2017
