Source: USDA Branded Food Products Database Release December 2017 Software v.3.8.6.4 2017-10-02
Report Run at: December 17, 2017 22:36 EST
"Nutrient data for: 45228693, MUG CAKE WITH VANILLA CAKE MIX, UPC: 819893024570"
Food Group:  Branded Food Products Database
Common Name:

Nutrient,Unit,Data points,Std. Error,"1 PACKAGE = 59.0g",1Value per 100 g,
Proximates
"Energy",kcal,--,--,220,373
"Protein",g,--,--,10.00,16.95
"Total lipid (fat)",g,--,--,1.50,2.54
"Carbohydrate, by difference",g,--,--,43.00,72.88
"Fiber, total dietary",g,--,--,1.0,1.7
"Sugars, total",g,--,--,26.00,44.07
Minerals
"Calcium, Ca",mg,--,--,100,169
"Iron, Fe",mg,--,--,0.49,0.83
"Sodium, Na",mg,--,--,350,593
Vitamins
"Vitamin C, total ascorbic acid",mg,--,--,2.4,4.1
"Vitamin A, IU",IU,--,--,3729,6320
Lipids
"Fatty acids, total saturated",g,--,--,0.501,0.850
"Fatty acids, total trans",g,--,--,0.000,0.000
"Cholesterol",mg,--,--,10,17
Amino Acids
Other
Ingredients
"SUGAR, BLEACHED WHEAT FLOUR, WHEY PROTEIN CONCENTRATE, OAT FLOUR, FOOD STARCH MODIFIED, BAKING POWDER (SODIUM ACID PYROPHOSPHATE, SODIUM BICARBONATE, CORN STARCH, MONOCALCIUM PHOSPHATE), NATURAL FLAVOR, BETA CAROTENE, BEET COLOR (MALTODEXTRIN, BEET JUICE, CITRIC AND ASCORBIC ACID), SALT." Date available: 07/14/2017 Date last updated by company: 07/14/2017
