Source: USDA Branded Food Products Database Release December 2017 Software v.3.8.6.4 2017-10-02
Report Run at: December 17, 2017 22:36 EST
"Nutrient data for: 45230476, MUG SET WITH 2 PACKETS OF CHOCOLATE FUDGE COCOA MIX, UPC: 768395504168"
Food Group:  Branded Food Products Database
Common Name:

Nutrient,Unit,Data points,Std. Error,"1 PACKET = 28.0g",1Value per 100 g,
Proximates
"Energy",kcal,--,--,110,393
"Protein",g,--,--,0.00,0.00
"Total lipid (fat)",g,--,--,0.00,0.00
"Carbohydrate, by difference",g,--,--,27.00,96.43
"Fiber, total dietary",g,--,--,0.0,0.0
"Sugars, total",g,--,--,21.00,75.00
Minerals
"Calcium, Ca",mg,--,--,20,71
"Iron, Fe",mg,--,--,0.64,2.29
"Sodium, Na",mg,--,--,70,250
Vitamins
"Vitamin C, total ascorbic acid",mg,--,--,0.0,0.0
"Vitamin A, IU",IU,--,--,0,0
Lipids
"Fatty acids, total saturated",g,--,--,0.000,0.000
"Fatty acids, total trans",g,--,--,0.000,0.000
"Cholesterol",mg,--,--,0,0
Amino Acids
Other
Ingredients
"SUGAR, DEXTROSE, MALTODEXTRIN, WHEY, COCOA (PROCESSED WITH ALKALI), SALT, NONFAT DRY MILK, NATURAL AND ARTIFICIAL FLAVORS, PARTIALLY HYDROGENATED SOYBEAN OIL, CORN SYRUP SOLIDS, SODIUM CASEINATE, MONO AND DIGLYCERIDES, SODIUM SILICOALUMINATE, DIPOTASSIUM PHOSPHATE, SODIUM STEAROYL LACTYLATE, SODIUM ALGINATE, ANNATTO EXTRACT, TURMERIC." Date available: 07/14/2017 Date last updated by company: 07/14/2017
