Source: USDA Branded Food Products Database Release December 2017 Software v.3.8.6.4 2017-10-02
Report Run at: December 17, 2017 22:36 EST
"Nutrient data for: 45311232, MUIR GLEN, ORGANIC HOMESTYLE SPLIT PEA SOUP, UPC: 725342412563"
Food Group:  Branded Food Products Database
Common Name:

Nutrient,Unit,Data points,Std. Error,"1 cup = 255.0g",1Value per 100 g,
Proximates
"Energy",kcal,--,--,120,47
"Protein",g,--,--,7.01,2.75
"Total lipid (fat)",g,--,--,0.51,0.20
"Carbohydrate, by difference",g,--,--,24.00,9.41
"Fiber, total dietary",g,--,--,4.1,1.6
"Sugars, total",g,--,--,4.00,1.57
Minerals
"Calcium, Ca",mg,--,--,0,0
"Iron, Fe",mg,--,--,1.05,0.41
"Sodium, Na",mg,--,--,780,306
Vitamins
"Vitamin C, total ascorbic acid",mg,--,--,0.0,0.0
"Vitamin A, IU",IU,--,--,0,0
Lipids
"Fatty acids, total saturated",g,--,--,0.000,0.000
"Fatty acids, total monounsaturated",g,--,--,0.000,0.000
"Fatty acids, total polyunsaturated",g,--,--,0.000,0.000
"Fatty acids, total trans",g,--,--,0.000,0.000
"Cholesterol",mg,--,--,0,0
Amino Acids
Other
Ingredients
"WATER, SPLIT PEAS*, CELERY*, CONTAINS LESS THAN 2% OF: RAW SUGAR*, SEA SALT, ONION POWDER*, CORN STARCH*, BLACK PEPPER*, NATURAL SMOKE FLAVOR, NUTMEG*, BAY LEAVES*." Date available: 06/24/2017 Date last updated by company: 06/24/2017
