Source: USDA Branded Food Products Database Release December 2017 Software v.3.8.6.4 2017-10-02
Report Run at: December 17, 2017 22:45 EST
"Nutrient data for: 45057757, MULTIGRAIN WITH QUINOA & FLAX PITA CRACKERS, UPC: 085239112960"
Food Group:  Branded Food Products Database
Common Name:

Nutrient,Unit,Data points,Std. Error,"10.0 CRACKERS = 28.0g",1Value per 100 g,
Proximates
"Energy",kcal,--,--,120,429
"Protein",g,--,--,3.00,10.71
"Total lipid (fat)",g,--,--,4.00,14.29
"Carbohydrate, by difference",g,--,--,18.00,64.29
"Fiber, total dietary",g,--,--,2.0,7.1
"Sugars, total",g,--,--,1.00,3.57
Minerals
"Calcium, Ca",mg,--,--,20,71
"Iron, Fe",mg,--,--,1.93,6.88
"Sodium, Na",mg,--,--,170,607
Vitamins
"Vitamin C, total ascorbic acid",mg,--,--,0.0,0.0
"Vitamin A, IU",IU,--,--,0,0
Lipids
"Fatty acids, total saturated",g,--,--,0.000,0.000
"Fatty acids, total trans",g,--,--,0.000,0.000
"Cholesterol",mg,--,--,0,0
Amino Acids
Other
Ingredients
"WHEAT FLOUR, SUNFLOWER OIL, WHOLE WHEAT FLOUR (WHOLE WHEAT FLOUR, ASCORBIC ACID, ENZYME), MULTIGRAIN AND SEED BLEND (FLAXSEEDS, GOLDEN FLAX SEEDS, OATBRAN, WHEAT BRAN, MILLET, ROLLED OATS, RYE, SUNFLOWER SEED, WHOLE GRAIN ORGANIC SPELT FLOUR, MALTED BARLEY FLOUR, SUNFLOWER OIL), ORGANIC WHITE QUINOA SEED, CORN STARCH, SEA SALT, OAT FIBER, HONEY, YEAST, WHEAT GLUTEN, NATURAL FLAVOR, DRY MOLASSES (MOLASSES, WHEAT STARCH), BAKING POWDER (SODIUM ACID PYROPHOSPHATE, SODIUM BICARBONATE, CORN STARCH, MONOCALCIUM PHOSPHATE), WHEAT STARCH, ASCORBIC ACID." Date available: 07/14/2017 Date last updated by company: 07/14/2017
