Source: USDA Branded Food Products Database Release December 2017 Software v.3.8.6.4 2017-10-02
Report Run at: December 17, 2017 22:38 EST
"Nutrient data for: 45285110, MULTIFRUITS JAM, UPC: 617115024328"
Food Group:  Branded Food Products Database
Common Name:

Nutrient,Unit,Data points,Std. Error,"1 Tbsp = 20.0g",1Value per 100 g,
Proximates
"Energy",kcal,--,--,30,150
"Protein",g,--,--,0.00,0.00
"Total lipid (fat)",g,--,--,0.00,0.00
"Carbohydrate, by difference",g,--,--,7.00,35.00
"Sugars, total",g,--,--,6.00,30.00
Minerals
"Sodium, Na",mg,--,--,0,0
Vitamins
"Vitamin C, total ascorbic acid",mg,--,--,4.1,20.3
"Vitamin A, IU",IU,--,--,0,0
Lipids
Amino Acids
Other
Ingredients
"APRICOTS, STRAWBERRIES, SOUR CHERRIES, SUGAR, GLUCOSE-FRUCTOSE SYRUP, WATER, PECTIN, CITRIC ACID, GUAR GUM." Date available: 07/14/2017 Date last updated by company: 07/14/2017
