Source: USDA Branded Food Products Database Release December 2017 Software v.3.8.6.4 2017-10-02
Report Run at: December 17, 2017 22:42 EST
"Nutrient data for: 45254545, MULTIGRAIN OVAL BREAD, UPC: 628553060144"
Food Group:  Branded Food Products Database
Common Name:

Nutrient,Unit,Data points,Std. Error,"0.125 LOAF (ABOUT 1"""" SLICE) = 56.0g",1Value per 100 g,
Proximates
"Energy",kcal,--,--,160,286
"Protein",g,--,--,5.00,8.93
"Total lipid (fat)",g,--,--,3.00,5.36
"Carbohydrate, by difference",g,--,--,29.00,51.79
"Fiber, total dietary",g,--,--,3.0,5.4
"Sugars, total",g,--,--,2.00,3.57
Minerals
"Calcium, Ca",mg,--,--,80,143
"Iron, Fe",mg,--,--,1.61,2.87
"Sodium, Na",mg,--,--,310,554
Vitamins
"Vitamin C, total ascorbic acid",mg,--,--,0.0,0.0
"Vitamin A, IU",IU,--,--,0,0
Lipids
"Fatty acids, total saturated",g,--,--,0.000,0.000
"Fatty acids, total trans",g,--,--,0.000,0.000
"Cholesterol",mg,--,--,0,0
Amino Acids
Other
Ingredients
"UNBLEACHED ENRICHED WHEAT FLOUR (WHEAT FLOUR, NIACIN, IRON, THIAMINE MONONITRATE, RIBOFLAVIN, FOLIC ACID), WATER, SESAME SEEDS, WHOLE GRAIN RYE FLOUR, ROLLED OATS, BROWN FLAX SEEDS, MILLET SEEDS, SUNFLOWER SEEDS, HONEY, WHOLE WHEAT FLOUR, WHEAT STARCH, SALT, LESS THAN 2%: YEAST, MALTED BARLEY FLOUR, WHEAT FLOUR, ENZYMES, NATURAL FLAVOR." Date available: 07/14/2017 Date last updated by company: 07/14/2017
