Source: USDA Branded Food Products Database Release December 2017 Software v.3.8.6.4 2017-10-02
Report Run at: December 17, 2017 22:48 EST
"Nutrient data for: 45321520, MUR GLN TOMATO SAUCE NO SALT, UNPREPARED, GTIN: 00725342285716"
Food Group:  Branded Food Products Database
Common Name:

Nutrient,Unit,Data points,Std. Error,"0.25 cup (62g) = 62.0g",1Value per 100 g,
Proximates
"Energy",kcal,--,--,25,40
"Protein",g,--,--,1.00,1.61
"Total lipid (fat)",g,--,--,0.00,0.00
"Carbohydrate, by difference",g,--,--,5.00,8.06
"Fiber, total dietary",g,--,--,1.0,1.6
"Sugars, total",g,--,--,3.00,4.84
Minerals
"Calcium, Ca",mg,--,--,0,0
"Iron, Fe",mg,--,--,0.36,0.58
"Sodium, Na",mg,--,--,20,32
Vitamins
"Vitamin C, total ascorbic acid",mg,--,--,2.4,3.9
"Vitamin A, IU",IU,--,--,400,645
Lipids
"Fatty acids, total saturated",g,--,--,0.000,0.000
"Fatty acids, total trans",g,--,--,0.000,0.000
"Cholesterol",mg,--,--,0,0
Amino Acids
Other
Ingredients
"ORGANIC TOMATO PUREE (WATER, ORGANIC TOMATO PASTE), ORGANIC ONION POWDER, CITRIC ACID, ORGANIC GARLIC POWDER." Date available: 10/10/2017 Date last updated by company: 07/02/2017
