Source: USDA Branded Food Products Database Release December 2017 Software v.3.8.6.4 2017-10-02
Report Run at: December 17, 2017 22:49 EST
"Nutrient data for: 45003832, MURRY'S, SUNRISE BEEF PATTIES, UPC: 073744018334"
Food Group:  Branded Food Products Database
Common Name:

Nutrient,Unit,Data points,Std. Error,"3.0 PATTIES = 115.0g",1Value per 100 g,
Proximates
"Energy",kcal,--,--,420,365
"Protein",g,--,--,15.00,13.04
"Total lipid (fat)",g,--,--,39.00,33.91
"Carbohydrate, by difference",g,--,--,3.00,2.61
"Fiber, total dietary",g,--,--,2.0,1.7
"Sugars, total",g,--,--,1.00,0.87
Minerals
"Calcium, Ca",mg,--,--,60,52
"Iron, Fe",mg,--,--,1.33,1.16
"Sodium, Na",mg,--,--,890,774
Vitamins
"Vitamin C, total ascorbic acid",mg,--,--,0.0,0.0
"Vitamin A, IU",IU,--,--,0,0
Lipids
"Fatty acids, total saturated",g,--,--,15.997,13.910
"Fatty acids, total trans",g,--,--,0.000,0.000
"Cholesterol",mg,--,--,66,57
Amino Acids
Other
Ingredients
"BEEF, WATER, TEXTURED SOY PROTEIN CONCENTRATE, SALT, DEXTROSE, FLAVORING, SUGAR, HYDROLYZED CORN PROTEIN, AUTOLYZED YEAST EXTRACT, BHA, CITRIC ACID, PROPYL GALLATE" Date available: 06/25/2017 Date last updated by company: 06/25/2017
