Source: USDA Branded Food Products Database Release December 2017 Software v.3.8.6.4 2017-10-02
Report Run at: December 17, 2017 22:49 EST
"Nutrient data for: 45248534, MURRAY, VANILLA WAFERS, UPC: 082011984210"
Food Group:  Branded Food Products Database
Common Name:

Nutrient,Unit,Data points,Std. Error,"4.0 COOKIES = 28.0g",1Value per 100 g,
Proximates
"Energy",kcal,--,--,130,464
"Protein",g,--,--,1.00,3.57
"Total lipid (fat)",g,--,--,8.00,28.57
"Carbohydrate, by difference",g,--,--,19.00,67.86
"Fiber, total dietary",g,--,--,4.0,14.3
"Sugars, total",g,--,--,0.00,0.00
Minerals
"Calcium, Ca",mg,--,--,0,0
"Iron, Fe",mg,--,--,0.64,2.29
"Sodium, Na",mg,--,--,20,71
Vitamins
"Vitamin C, total ascorbic acid",mg,--,--,0.0,0.0
"Vitamin A, IU",IU,--,--,0,0
Lipids
"Fatty acids, total saturated",g,--,--,2.500,8.930
"Fatty acids, total trans",g,--,--,0.000,0.000
"Cholesterol",mg,--,--,0,0
Amino Acids
Other
Ingredients
"ENRICHED FLOUR (WHEAT FLOUR, NIACIN, REDUCED IRON, THIAMIN MONONITRATE [VITAMIN B1], RIBOFLAVIN [ VITAMIN B2], FOLIC ACID), VEGETABLE OIL (SOYBEAN, PALM AND PAM KERNEL OIL WITH TBHQ FOR FRESHNESS), POLYDEXTROSE SORBITOL* MALTODEXTRIN, CONTAINS TWO PERCENT OR LESS OF SOY LECITHIN, ARTIFICIAL VANNILA FLAVOR, SALT ACESULFAME POTASSIUM, BAKING SODA, SUCRALOSE, YELLO #5, YELLOW#6, RED #40." Date available: 07/14/2017 Date last updated by company: 07/14/2017
