Source: USDA Branded Food Products Database Release December 2017 Software v.3.8.6.4 2017-10-02
Report Run at: December 17, 2017 22:52 EST
"Nutrient data for: 45055057, MUSHROOM FETTUCCINE, UPC: 089789001439"
Food Group:  Branded Food Products Database
Common Name:

Nutrient,Unit,Data points,Std. Error,"2.0 ONZ = 60.0g",1Value per 100 g,
Proximates
"Energy",kcal,--,--,215,358
"Protein",g,--,--,8.00,13.33
"Total lipid (fat)",g,--,--,0.00,0.00
"Carbohydrate, by difference",g,--,--,47.00,78.33
"Fiber, total dietary",g,--,--,2.0,3.3
"Sugars, total",g,--,--,0.00,0.00
Minerals
"Calcium, Ca",mg,--,--,30,50
"Iron, Fe",mg,--,--,11.34,18.90
"Sodium, Na",mg,--,--,10,17
Vitamins
"Vitamin C, total ascorbic acid",mg,--,--,14.0,23.3
"Vitamin A, IU",IU,--,--,583,972
Lipids
"Fatty acids, total saturated",g,--,--,0.000,0.000
"Fatty acids, total trans",g,--,--,0.000,0.000
"Cholesterol",mg,--,--,0,0
Amino Acids
Other
Ingredients
"UNBLEACHED WHEAT FLOUR, BOLETES EUROPEAN FLOUR AND CHAMPIGNON POWDER" Date available: 09/20/2017 Date last updated by company: 09/20/2017
