Source: USDA Branded Food Products Database Release December 2017 Software v.3.8.6.4 2017-10-02
Report Run at: December 17, 2017 22:57 EST
"Nutrient data for: 45195670, MUSHROOM TORTELLINI WITH MUSHROOM & WINE SAUCE, UPC: 030223010647"
Food Group:  Branded Food Products Database
Common Name:

Nutrient,Unit,Data points,Std. Error,"1 cup = 140.0g",1Value per 100 g,
Proximates
"Energy",kcal,--,--,230,164
"Protein",g,--,--,9.00,6.43
"Total lipid (fat)",g,--,--,9.00,6.43
"Carbohydrate, by difference",g,--,--,31.00,22.14
"Fiber, total dietary",g,--,--,2.9,2.1
"Sugars, total",g,--,--,2.00,1.43
Minerals
"Calcium, Ca",mg,--,--,99,71
"Iron, Fe",mg,--,--,1.08,0.77
"Sodium, Na",mg,--,--,540,386
Vitamins
"Vitamin C, total ascorbic acid",mg,--,--,1.3,0.9
"Vitamin A, IU",IU,--,--,300,214
Lipids
"Fatty acids, total saturated",g,--,--,4.998,3.570
"Fatty acids, total trans",g,--,--,0.000,0.000
"Cholesterol",mg,--,--,41,29
Amino Acids
Other
Ingredients
"MUSHROOM TORTELLONI (WATER, UNENRICHED EXTRA FANCY FLOUR, UNENRICHED SEMOLINA, RICOTTA CHEESE [PASTEURIZED WHEY, PASTEURIZED MILK, VINEGAR, CARRAGEENAN], WHITE CHEDDAR CHEESE [CULTURED GRADE A PASTEURIZED MILK, SALT AND ENZYMES], BREAD CRUMBS [BLEACHED WHITE FLOUR, YEAST, SUGAR, SALT], PASTEURIZED EGGS, ROMANO CHEESE [PASTEURIZED SHEEP'S MILK, CHEESE CULTURE, SALT AND ENZYMES], CREMINI MUSHROOMS, SALT, MUSHROOM POWDER, SPICE), MUSHROOM & WINE SAUCE (WATER, MUSHROOMS, ONION, CHABLIS WINE, MILK, CREAM, RICE STARCH, MUSHROOM STOCK [MUSHROOM CONCENTRATE, NATURAL FLAVOR, SUGAR, SALT, YEAST EXTRACT, XANTHAN GUM], CANOLA & OLIVE OIL BLEND, BUTTER [CREAM, SALT], SEA SALT, PARSLEY, GARLIC, CHICKEN BROTH CONCENTRATE [CHICKEN STOCK, NATURAL FLAVOR, SALT, SUGAR, YEAST EXTRACT], PEPPER, LEMON JUICE CONCENTRATE, GUM [XANTHAN, GUAR AND CARRAGEENAN]), ASPARAGUS, ROASTED TOMATO WITH OIL (TOMATOES, CANOLA OIL, GARLIC, SPICES, SALT), PARMESAN CHEESE (PASTEURIZED PART-SKIM MILK, SALT, CHEESE CULTURE, ENZYMES, [POTATO STARCH AND POWDERED CELLULOSE {TO PREVENT CAKING}, NATAMYCIN {A NATURAL MOLD INHIBITOR}])." Date available: 07/14/2017 Date last updated by company: 07/14/2017
