Source: USDA Branded Food Products Database Release December 2017 Software v.3.8.6.4 2017-10-02
Report Run at: December 17, 2017 22:52 EST
"Nutrient data for: 45198486, MUSHROOM DASHI SIMMER SAUCE, UPC: 077890403860"
Food Group:  Branded Food Products Database
Common Name:

Nutrient,Unit,Data points,Std. Error,"2.0 Tbsp = 30.0g",1Value per 100 g,
Proximates
"Energy",kcal,--,--,25,83
"Protein",g,--,--,0.00,0.00
"Total lipid (fat)",g,--,--,0.50,1.67
"Carbohydrate, by difference",g,--,--,5.00,16.67
"Fiber, total dietary",g,--,--,0.0,0.0
"Sugars, total",g,--,--,3.00,10.00
Minerals
"Calcium, Ca",mg,--,--,0,0
"Iron, Fe",mg,--,--,0.00,0.00
"Sodium, Na",mg,--,--,190,633
Vitamins
"Vitamin C, total ascorbic acid",mg,--,--,0.0,0.0
"Vitamin A, IU",IU,--,--,0,0
Lipids
"Fatty acids, total saturated",g,--,--,0.000,0.000
"Fatty acids, total trans",g,--,--,0.000,0.000
"Cholesterol",mg,--,--,0,0
Amino Acids
Other
Ingredients
"WATER, SUGAR, CORN SYRUP, FERMENTED RICE EXTRACT (RICE ALCOHOL, SALT, CITRIC ACID), TAHINI (GROUND SESAME SEEDS), SHIITAKE MUSHROOMS, SOYBEANS, SESAME OIL, SALT, MODIFIED CORNSTARCH, MILLED KELP, ALCOHOL, VINEGAR, LACTIC ACID, ALCOHOL, VINEGAR, LACTIC ACID, NISIN PREPARATION, SOYBEAN OIL, NATURAL FLAVOR." Date available: 07/14/2017 Date last updated by company: 07/14/2017
