Source: USDA Branded Food Products Database Release December 2017 Software v.3.8.6.4 2017-10-02
Report Run at: December 17, 2017 22:57 EST
"Nutrient data for: 45190201, MUSO, BROWN RICE CRACKERS, BLACK SESAME, UPC: 4958325001874"
Food Group:  Branded Food Products Database
Common Name:

Nutrient,Unit,Data points,Std. Error,"6.0 CRACKERS = 30.0g",1Value per 100 g,
Proximates
"Energy",kcal,--,--,150,500
"Protein",g,--,--,4.00,13.33
"Total lipid (fat)",g,--,--,7.00,23.33
"Carbohydrate, by difference",g,--,--,17.00,56.67
"Fiber, total dietary",g,--,--,3.0,10.0
"Sugars, total",g,--,--,0.00,0.00
Minerals
"Calcium, Ca",mg,--,--,150,500
"Iron, Fe",mg,--,--,1.20,4.00
"Potassium, K",mg,--,--,120,400
"Sodium, Na",mg,--,--,130,433
Vitamins
"Vitamin C, total ascorbic acid",mg,--,--,0.0,0.0
"Vitamin A, IU",IU,--,--,0,0
Lipids
"Fatty acids, total saturated",g,--,--,0.999,3.330
"Fatty acids, total trans",g,--,--,0.000,0.000
"Cholesterol",mg,--,--,0,0
Amino Acids
Other
Ingredients
"BLACK SESAME (47%), BROWN RICE, TAMARI SOY SAUCE, BROWN RICE SYRUP (BROWN RICE, BARLEY MALT) KUDZU STARCH." Date available: 07/14/2017 Date last updated by company: 07/14/2017
