Source: USDA Branded Food Products Database Release December 2017 Software v.3.8.6.4 2017-10-02
Report Run at: December 17, 2017 22:59 EST
"Nutrient data for: 45223234, MUSSELMAN'S, SQUEEZABLES APPLE SAUCE, STRAWBERRY, UPC: 037323117825"
Food Group:  Branded Food Products Database
Common Name:

Nutrient,Unit,Data points,Std. Error,"1 POUCH = 90.0g",1Value per 100 g,
Proximates
"Energy",kcal,--,--,60,67
"Protein",g,--,--,0.00,0.00
"Total lipid (fat)",g,--,--,0.00,0.00
"Carbohydrate, by difference",g,--,--,16.00,17.78
"Fiber, total dietary",g,--,--,1.0,1.1
"Sugars, total",g,--,--,15.00,16.67
Minerals
"Iron, Fe",mg,--,--,0.28,0.31
"Sodium, Na",mg,--,--,0,0
Vitamins
Lipids
Amino Acids
Other
Ingredients
"APPLES, APPLE JUICE CONCENTRATE, STRAWBERRY PUREE, VEGETABLE JUICE FOR COLOR, NATURAL FLAVOR AND ASCORBIC ACID (VITAMIN C) ADDED TO MAINTAIN COLOR." Date available: 10/10/2017 Date last updated by company: 10/10/2017
