Source: USDA Branded Food Products Database Release December 2017 Software v.3.8.6.4 2017-10-02
Report Run at: December 17, 2017 23:00 EST
"Nutrient data for: 45212591, MUSSELS, UPC: 825710335552"
Food Group:  Branded Food Products Database
Common Name:

Nutrient,Unit,Data points,Std. Error,"2.0 LB PACK = 227.0g",1Value per 100 g,
Proximates
"Energy",kcal,--,--,141,62
"Protein",g,--,--,19.00,8.37
"Total lipid (fat)",g,--,--,3.50,1.54
"Carbohydrate, by difference",g,--,--,5.99,2.64
"Fiber, total dietary",g,--,--,0.0,0.0
"Sugars, total",g,--,--,0.00,0.00
Minerals
"Calcium, Ca",mg,--,--,41,18
"Iron, Fe",mg,--,--,5.40,2.38
"Sodium, Na",mg,--,--,449,198
Vitamins
"Vitamin C, total ascorbic acid",mg,--,--,10.2,4.5
"Vitamin A, IU",IU,--,--,257,113
Lipids
"Fatty acids, total saturated",g,--,--,0.499,0.220
"Fatty acids, total trans",g,--,--,0.000,0.000
"Cholesterol",mg,--,--,45,20
Amino Acids
Other
Ingredients
"FARM RAISED MUSSELS (MYTILUS CHILENSIS)" Date available: 08/07/2017 Date last updated by company: 08/07/2017
