Source: USDA Branded Food Products Database Release December 2017 Software v.3.8.6.4 2017-10-02
Report Run at: December 17, 2017 22:59 EST
"Nutrient data for: 45223035, MUSSELMAN'S, PIE FILLING, STRAWBERRY, UPC: 037323158200"
Food Group:  Branded Food Products Database
Common Name:

Nutrient,Unit,Data points,Std. Error,"0.33 cup = 85.0g",1Value per 100 g,
Proximates
"Energy",kcal,--,--,90,106
"Protein",g,--,--,0.00,0.00
"Total lipid (fat)",g,--,--,0.00,0.00
"Carbohydrate, by difference",g,--,--,23.00,27.06
"Fiber, total dietary",g,--,--,1.0,1.2
"Sugars, total",g,--,--,18.00,21.18
Minerals
"Calcium, Ca",mg,--,--,0,0
"Iron, Fe",mg,--,--,0.00,0.00
"Sodium, Na",mg,--,--,10,12
Vitamins
"Vitamin C, total ascorbic acid",mg,--,--,0.0,0.0
"Vitamin A, IU",IU,--,--,0,0
Lipids
"Fatty acids, total saturated",g,--,--,0.000,0.000
"Fatty acids, total trans",g,--,--,0.000,0.000
"Cholesterol",mg,--,--,0,0
Amino Acids
Other
Ingredients
"STRAWBERRIES, WATER, HIGH FRUCTOSE CORN SYRUP, CORN SYRUP, FOOD STARCH-MODIFIED (CORN), CITRIC ACID AND DISODIUM EDTA (TO MAINTAIN COLOR), RED 40 COLOR ADDED." Date available: 07/14/2017 Date last updated by company: 07/14/2017
