Source: USDA Branded Food Products Database Release December 2017 Software v.3.8.6.4 2017-10-02
Report Run at: December 17, 2017 23:00 EST
"Nutrient data for: 45324365, MUSSELS COOKED, UPC: 681131714754"
Food Group:  Branded Food Products Database
Common Name:

Nutrient,Unit,Data points,Std. Error,"4.0 ONZ = 113.0g",1Value per 100 g,
Proximates
"Energy",kcal,--,--,130,115
"Protein",g,--,--,24.00,21.24
"Total lipid (fat)",g,--,--,2.99,2.65
"Carbohydrate, by difference",g,--,--,2.99,2.65
"Fiber, total dietary",g,--,--,0.0,0.0
"Sugars, total",g,--,--,0.00,0.00
Minerals
"Calcium, Ca",mg,--,--,60,53
"Iron, Fe",mg,--,--,4.07,3.60
"Sodium, Na",mg,--,--,380,336
Vitamins
"Vitamin C, total ascorbic acid",mg,--,--,0.0,0.0
"Vitamin A, IU",IU,--,--,150,133
Lipids
"Fatty acids, total saturated",g,--,--,0.497,0.440
"Fatty acids, total trans",g,--,--,0.000,0.000
"Cholesterol",mg,--,--,45,40
Amino Acids
Other
Ingredients
"MUSSELS." Date available: 08/11/2017 Date last updated by company: 08/11/2017
