Source: USDA Branded Food Products Database Release December 2017 Software v.3.8.6.4 2017-10-02
Report Run at: December 17, 2017 23:01 EST
"Nutrient data for: 45053772, MUSTARD POTATO SALAD, UPC: 071117181531"
Food Group:  Branded Food Products Database
Common Name:

Nutrient,Unit,Data points,Std. Error,"0.5 cup = 135.0g",1Value per 100 g,
Proximates
"Energy",kcal,--,--,170,126
"Protein",g,--,--,3.00,2.22
"Total lipid (fat)",g,--,--,7.01,5.19
"Carbohydrate, by difference",g,--,--,25.00,18.52
"Fiber, total dietary",g,--,--,3.0,2.2
"Sugars, total",g,--,--,5.00,3.70
Minerals
"Calcium, Ca",mg,--,--,0,0
"Iron, Fe",mg,--,--,1.50,1.11
"Sodium, Na",mg,--,--,810,600
Vitamins
"Vitamin C, total ascorbic acid",mg,--,--,0.0,0.0
"Vitamin A, IU",IU,--,--,104,77
Lipids
"Fatty acids, total saturated",g,--,--,0.999,0.740
"Fatty acids, total trans",g,--,--,0.000,0.000
"Cholesterol",mg,--,--,5,4
Amino Acids
Other
Ingredients
"POTATOES, MAYONNAISE (SOYBEAN OIL, WATER, EGG YOLKS, VINEGAR, HIGH FRUCTOSE CORN SYRUP, SALT, CALCIUM DISODIUM EDTA TO PROTECT FLAVOR), MUSTARD (WATER, VINEGAR, MUSTARD SEED, SALT, SUGAR, SOYBEAN OIL, TURMERIC AND PAPRIKA, ANNATTO, GARLIC, SPICES, XANTHAN GUM, CALCIUM DISODIUM EDTA; RETAINS PRODUCT FRESHNESS, NATURAL FLAVOR, CITRIC ACID), DILL PICKLE (CUCUMBERS, DISTILLED VINEGAR, SALT, CONTAINS LESS THAN 2% OF: XANTHAN GUM, SODIUM BENZOATE [PRESERVATIVE], ALUM, CALCIUM CHLORIDE, NATURAL FLAVORING, TURMERIC, POLYSORBATE 80), WATER, HIGH FRUCTOSE CORN SYRUP, CELERY, SALT, VINEGAR, ONION, RED PEPPER, MODIFIED CORN STARCH, POTASSIUM SORBATE AND SODIUM BENZOATE TO PROTECT FLAVOR, SUGAR, ANNATTO COLOR (SOYBEAN OIL, ANNATTO EXTRACT, MONO- AND DIGLYCERIDES), XANTHAN GUM." Date available: 08/11/2017 Date last updated by company: 08/11/2017
