Source: USDA Branded Food Products Database Release December 2017 Software v.3.8.6.4 2017-10-02
Report Run at: December 17, 2017 23:01 EST
"Nutrient data for: 45324228, MUSTARD POTATO SALAD, UPC: 078742132303"
Food Group:  Branded Food Products Database
Common Name:

Nutrient,Unit,Data points,Std. Error,"0.5 cup = 135.0g",1Value per 100 g,
Proximates
"Energy",kcal,--,--,190,141
"Protein",g,--,--,3.00,2.22
"Total lipid (fat)",g,--,--,10.00,7.41
"Carbohydrate, by difference",g,--,--,23.00,17.04
"Fiber, total dietary",g,--,--,3.0,2.2
"Sugars, total",g,--,--,4.00,2.96
Minerals
"Calcium, Ca",mg,--,--,20,15
"Iron, Fe",mg,--,--,1.50,1.11
"Sodium, Na",mg,--,--,830,615
Vitamins
"Vitamin C, total ascorbic acid",mg,--,--,6.2,4.6
"Vitamin A, IU",IU,--,--,104,77
Lipids
"Fatty acids, total saturated",g,--,--,1.499,1.110
"Fatty acids, total trans",g,--,--,0.000,0.000
"Cholesterol",mg,--,--,5,4
Amino Acids
Other
Ingredients
"POTATOES, MAYONNAISE (SOYBEAN OIL, WATER, EGG YOLKS, VINEGAR, SALT), MUSTARD (WATER, VINEGAR, MUSTARD SEED, SALT, SUGAR, SOYBEAN OIL, TURMERIC, PAPRIKA, ANNATTO EXTRACT COLOR, GARLIC, SPICES, XANTHAN GUM, CALCIUM DISODIUM EDTA [PRESERVATIVE], NATURAL FLAVOR, CITRIC ACID), DILL PICKLE (CUCUMBERS, DISTILLED VINEGAR, SALT, CONTAINS LESS THAN 2% OF: XANTHAN GUM, SODIUM BENZOATE [PRESERVATIVE], ALUMINUM SULFATE, CALCIUM CHLORIDE, NATURAL FLAVORING, TURMERIC, POLYSORBATE 80), CELERY, SUGAR, ONION, WATER, RED BELL PEPPER, SALT, VINEGAR, MODIFIED CORNSTARCH, POTASSIUM SORBATE (PRESERVATIVE), SODIUM BENZOATE (PRESERVATIVE), ANNATTO EXTRACT COLOR, XANTHAN GUM." Date available: 08/11/2017 Date last updated by company: 08/11/2017
