Source: USDA Branded Food Products Database Release December 2017 Software v.3.8.6.4 2017-10-02
Report Run at: December 17, 2017 23:03 EST
"Nutrient data for: 45199664, MUSTARD, UPC: 630003752127"
Food Group:  Branded Food Products Database
Common Name:

Nutrient,Unit,Data points,Std. Error,"1 tsp = 6.2g",1Value per 100 g,
Proximates
"Energy",kcal,--,--,20,323
"Protein",g,--,--,0.00,0.00
"Total lipid (fat)",g,--,--,0.00,0.00
"Carbohydrate, by difference",g,--,--,4.00,64.52
"Fiber, total dietary",g,--,--,0.0,0.0
"Sugars, total",g,--,--,4.00,64.52
Minerals
"Calcium, Ca",mg,--,--,0,0
"Iron, Fe",mg,--,--,0.00,0.00
"Sodium, Na",mg,--,--,30,484
Vitamins
"Vitamin C, total ascorbic acid",mg,--,--,0.0,0.0
"Vitamin A, IU",IU,--,--,0,0
Lipids
"Fatty acids, total saturated",g,--,--,0.000,0.000
"Fatty acids, total trans",g,--,--,0.000,0.000
"Cholesterol",mg,--,--,0,0
Amino Acids
Other
Ingredients
"SUGAR, CIDER VINEGAR, CLOVER HONEY, MUSTARD FLOUR, WATER, SOYBEAN OIL, AND SALT." Date available: 07/14/2017 Date last updated by company: 07/14/2017
