Source: USDA Branded Food Products Database Release December 2017 Software v.3.8.6.4 2017-10-02
Report Run at: December 17, 2017 23:06 EST
"Nutrient data for: 45016665, MY CHI DELIGHTS, ALMOND & SESAME TREATS, UPC: 804879340218"
Food Group:  Branded Food Products Database
Common Name:

Nutrient,Unit,Data points,Std. Error,"5.0 PIECES | ABOUT = 28.0g",1Value per 100 g,
Proximates
"Energy",kcal,--,--,160,571
"Protein",g,--,--,5.00,17.86
"Total lipid (fat)",g,--,--,11.00,39.29
"Carbohydrate, by difference",g,--,--,10.00,35.71
"Fiber, total dietary",g,--,--,2.0,7.1
"Sugars, total",g,--,--,7.00,25.00
Minerals
"Calcium, Ca",mg,--,--,60,214
"Iron, Fe",mg,--,--,2.06,7.35
"Sodium, Na",mg,--,--,40,143
Vitamins
"Vitamin C, total ascorbic acid",mg,--,--,0.0,0.0
"Vitamin A, IU",IU,--,--,0,0
Lipids
"Fatty acids, total saturated",g,--,--,0.501,1.790
"Fatty acids, total trans",g,--,--,0.000,0.000
"Cholesterol",mg,--,--,0,0
Amino Acids
Other
Ingredients
"ALMONDS, SESAME SEEDS, CANE SUGAR, EXTRA-VIRGIN OLIVE OIL, SALT, VANILLA (VANILLA BEAN EXTRACTIVES, DEXTROSE)." Date available: 07/14/2017 Date last updated by company: 07/14/2017
