Source: USDA Branded Food Products Database Release December 2017 Software v.3.8.6.4 2017-10-02
Report Run at: December 17, 2017 23:07 EST
"Nutrient data for: 45150299, MY DADS COOKIES, GLUTEN FREE BISCOTTI, CHOCOLATE CHIP, UPC: 852291004065"
Food Group:  Branded Food Products Database
Common Name:

Nutrient,Unit,Data points,Std. Error,"4.0 COOKIES = 32.0g",1Value per 100 g,
Proximates
"Energy",kcal,--,--,150,469
"Protein",g,--,--,1.00,3.12
"Total lipid (fat)",g,--,--,7.00,21.88
"Carbohydrate, by difference",g,--,--,22.00,68.75
"Fiber, total dietary",g,--,--,1.0,3.1
"Sugars, total",g,--,--,12.00,37.50
Minerals
"Calcium, Ca",mg,--,--,0,0
"Iron, Fe",mg,--,--,0.56,1.75
"Sodium, Na",mg,--,--,40,125
Vitamins
"Vitamin C, total ascorbic acid",mg,--,--,0.0,0.0
"Vitamin A, IU",IU,--,--,0,0
Lipids
"Fatty acids, total saturated",g,--,--,3.501,10.940
"Fatty acids, total trans",g,--,--,0.000,0.000
"Cholesterol",mg,--,--,15,47
Amino Acids
Other
Ingredients
"GLUTEN FREE FLOUR (BROWN RICE FLOUR, POTATO STARCH, TAPIOCA FLOUR, XANTHAN GUM), SUGAR, ORGANIC PALM OIL, EGG, CHOCOLATE CHIPS (SUGAR, COCOA POWDER (PROCESSED WITH ALKALI), CHOCOLATE LIQUOR, SOY LECITHIN, VANILLA EXTRACT), BROWN SUGAR, NATURAL VANILLA EXTRACT, AGAVE, CREAM OF TARTAR, BAKING SODA, BAKING POWDER (SODIUM ACID PYROPHOSPHATE, SODIUM BICARBONATE, CORNSTARCH, MONOCALCIUM PHOSPHATE), SALT." Date available: 07/14/2017 Date last updated by company: 07/14/2017
