Source: USDA Branded Food Products Database Release December 2017 Software v.3.8.6.4 2017-10-02
Report Run at: December 17, 2017 23:07 EST
"Nutrient data for: 45051853, MY ESSENTIALS, BEEFY ONION SOUP MIX, UPC: 725439114929"
Food Group:  Branded Food Products Database
Common Name:

Nutrient,Unit,Data points,Std. Error,"0.25 POUCH = 8.0g",1Value per 100 g,
Proximates
"Energy",kcal,--,--,25,312
"Protein",g,--,--,1.00,12.50
"Total lipid (fat)",g,--,--,0.00,0.00
"Carbohydrate, by difference",g,--,--,4.00,50.00
"Fiber, total dietary",g,--,--,0.0,0.0
"Sugars, total",g,--,--,0.00,0.00
Minerals
"Calcium, Ca",mg,--,--,20,250
"Iron, Fe",mg,--,--,0.00,0.00
"Sodium, Na",mg,--,--,430,5375
Vitamins
"Vitamin C, total ascorbic acid",mg,--,--,15.0,187.5
"Vitamin A, IU",IU,--,--,0,0
Lipids
"Fatty acids, total saturated",g,--,--,0.000,0.000
"Fatty acids, total trans",g,--,--,0.000,0.000
"Cholesterol",mg,--,--,0,0
Amino Acids
Other
Ingredients
"DEHYDRATED ONION, MONOSODIUM GLUTAMATE, CORNSTARCH, SALT, ONION POWDER, HYDROLYZED SOY AND CORN PROTEIN, SUGAR, CARAMEL COLOR, BEEF STOCK*, SILICON DIOXIDE." Date available: 07/14/2017 Date last updated by company: 07/14/2017
