Source: USDA Branded Food Products Database Release December 2017 Software v.3.8.6.4 2017-10-02
Report Run at: December 17, 2017 23:07 EST
"Nutrient data for: 45018424, MY ESSENTIALS, BOIL-IN-BAG WHITE RICE, UPC: 725439113045"
Food Group:  Branded Food Products Database
Common Name:

Nutrient,Unit,Data points,Std. Error,"54.0 G DRY RICE, (ABOUT 1 CUP COOKED), (2 PER BAG/4 BAGS PER CONTAINER) = 54.0g",1Value per 100 g,
Proximates
"Energy",kcal,--,--,190,352
"Protein",g,--,--,4.00,7.41
"Total lipid (fat)",g,--,--,0.00,0.00
"Carbohydrate, by difference",g,--,--,43.00,79.63
"Fiber, total dietary",g,--,--,0.0,0.0
"Sugars, total",g,--,--,0.00,0.00
Minerals
"Calcium, Ca",mg,--,--,20,37
"Iron, Fe",mg,--,--,1.20,2.22
"Sodium, Na",mg,--,--,0,0
Vitamins
"Vitamin C, total ascorbic acid",mg,--,--,0.0,0.0
"Thiamin",mg,--,--,0.000,0.000
"Niacin",mg,--,--,1.666,3.085
"Vitamin A, IU",IU,--,--,0,0
Lipids
"Fatty acids, total saturated",g,--,--,0.000,0.000
"Fatty acids, total trans",g,--,--,0.000,0.000
"Cholesterol",mg,--,--,0,0
Amino Acids
Other
Ingredients
"ENRICHED PRECOOKED PARBOILED LONG GRAIN RICE [RICE, NIACIN, (NIACINAMIDE), IRON (FERRIC ORTHOPHOSPHATE), THIAMIN (THIAMIN MONONITRATE), FOLIC ACID]." Date available: 07/14/2017 Date last updated by company: 07/14/2017
