Source: USDA Branded Food Products Database Release December 2017 Software v.3.8.6.4 2017-10-02
Report Run at: December 17, 2017 23:08 EST
"Nutrient data for: 45021960, MY ESSENTIALS, FROSTING, CREAM CHEESE, UPC: 725439107631"
Food Group:  Branded Food Products Database
Common Name:

Nutrient,Unit,Data points,Std. Error,"2.0 Tbsp = 33.0g",1Value per 100 g,
Proximates
"Energy",kcal,--,--,140,424
"Protein",g,--,--,0.00,0.00
"Total lipid (fat)",g,--,--,6.00,18.18
"Carbohydrate, by difference",g,--,--,22.00,66.67
"Fiber, total dietary",g,--,--,0.0,0.0
"Sugars, total",g,--,--,19.00,57.58
Minerals
"Calcium, Ca",mg,--,--,0,0
"Iron, Fe",mg,--,--,0.00,0.00
"Sodium, Na",mg,--,--,55,167
Vitamins
"Vitamin C, total ascorbic acid",mg,--,--,0.0,0.0
"Vitamin A, IU",IU,--,--,0,0
Lipids
"Fatty acids, total saturated",g,--,--,3.000,9.090
"Fatty acids, total trans",g,--,--,0.000,0.000
"Cholesterol",mg,--,--,5,15
Amino Acids
Other
Ingredients
"SUGAR, ANIMAL SHORTENING (CONTAINS ONE OR MORE OF THE FOLLOWING: TALLOW, LARD, HYDROGENATED TALLOW, WITH PRESERVATIVE [BHT, CITRIC ACID]), WATER, HIGH FRUCTOSE CORN SYRUP, NATURAL AND ARTIFICIAL FLAVOR WITH SOY LECITHIN, CORN STARCH, MODIFIED WHEAT STARCH, EMULSIFIERS (MONO- AND DIGLYCERIDES WITH PRESERVATIVES [MIXED TOCOPHEROLS, ASCORBIC ACID AND CITRIC ACID], POLYSORBATE 60, SOY LECITHIN), SALT, PRESERVATIVE (POTASSIUM SORBATE), COLOR (TITANIUM DIOXIDE, YELLOW 5, YELLOW 6), DEXTROSE, LACTIC ACID, AGAR." Date available: 07/14/2017 Date last updated by company: 07/14/2017
