Source: USDA Branded Food Products Database Release December 2017 Software v.3.8.6.4 2017-10-02
Report Run at: December 17, 2017 23:10 EST
"Nutrient data for: 45089960, MY FAVORITE, PANCAKE & WAFFLE MIX, ROCKY ROAD, UPC: 24969598"
Food Group:  Branded Food Products Database
Common Name:

Nutrient,Unit,Data points,Std. Error,"0.33 cup = 45.0g",1Value per 100 g,
Proximates
"Energy",kcal,--,--,160,356
"Protein",g,--,--,4.00,8.89
"Total lipid (fat)",g,--,--,2.50,5.56
"Carbohydrate, by difference",g,--,--,32.00,71.11
"Fiber, total dietary",g,--,--,1.0,2.2
"Sugars, total",g,--,--,7.00,15.56
Minerals
"Calcium, Ca",mg,--,--,40,89
"Iron, Fe",mg,--,--,1.28,2.84
"Sodium, Na",mg,--,--,610,1356
Vitamins
"Vitamin C, total ascorbic acid",mg,--,--,0.0,0.0
"Vitamin A, IU",IU,--,--,0,0
Lipids
"Fatty acids, total saturated",g,--,--,0.500,1.110
"Fatty acids, total trans",g,--,--,0.000,0.000
"Cholesterol",mg,--,--,0,0
Amino Acids
Other
Ingredients
"UNBLEACHED WHEAT FLOUR (WHEAT FLOUR, MALTED BARLEY FLOUR), SUGAR, DUTCHED COCOA POWDER, BAKING POWDER (SODIUM ACID PYROPHOSPHATE, SODIUM BICARBONATE, CORN STARCH,MONOCALCIUM PHOSPHATE), MARSHMALLOW BITS(SUGAR, CORN SYRUP, ROLLED CORN GRITS, CORN GRITS, CORN STARCH, PALM OIL, TITANIUM DIOXIDE, ARTIFICIAL FLAVOR), WALNUTS, SEMISWEET CHOCOLATE CHIPS (SUGAR CHOCOLATE LIQUOR, COCOA BUTTER, SOY LECITHIN (AN EMULSIFIER, VANILLA), SWEET WHEY, SEA SALT, NATURAL FLAVORS." Date available: 06/25/2017 Date last updated by company: 06/25/2017
