Source: USDA Branded Food Products Database Release December 2017 Software v.3.8.6.4 2017-10-02
Report Run at: December 17, 2017 23:13 EST
"Nutrient data for: 45039567, NACHO CHEESE & BEEF EXTRA CRUNCHY MINI CHIMIS, UPC: 071007724497"
Food Group:  Branded Food Products Database
Common Name:

Nutrient,Unit,Data points,Std. Error,"2.0 CHIMICHANGAS = 85.0g",1Value per 100 g,
Proximates
"Energy",kcal,--,--,240,282
"Protein",g,--,--,9.00,10.59
"Total lipid (fat)",g,--,--,13.00,15.29
"Carbohydrate, by difference",g,--,--,23.00,27.06
"Fiber, total dietary",g,--,--,1.0,1.2
"Sugars, total",g,--,--,1.00,1.18
Minerals
"Calcium, Ca",mg,--,--,100,118
"Iron, Fe",mg,--,--,4.13,4.86
"Sodium, Na",mg,--,--,340,400
Vitamins
"Vitamin C, total ascorbic acid",mg,--,--,2.7,3.2
"Vitamin A, IU",IU,--,--,688,809
Lipids
"Fatty acids, total saturated",g,--,--,4.497,5.290
"Fatty acids, total trans",g,--,--,0.000,0.000
"Cholesterol",mg,--,--,20,24
Amino Acids
Other
Ingredients
"ENRICHED WHEAT FLOUR - ENRICHED WHEAT FLOUR (ENRICHED WITH NIACIN, REDUCED IRON, THIAMIN MONONITRATE, RIBOFLAVIN, FOLIC ACID), WATER - CHEDDAR CHEESE - (CULTURED PASTEURIZED MILK, SALT, ENZYMES, ANNATTO), COOKED SEASONED BEEF TOPPING - COOKED SEASONED BEEF TOPPING (BEEF, WATER, DEHYDRATED ONION, SALT, CHILI PEPPER, SPICES, SUGAR, SODIUM PHOSPHATE, GARLIC), VEGETABLE OIL - (SOYBEAN, CANOLA, PALM AND/OR CORN OIL), COOKED BEANS - (WITH SALT, GRANULATED GARLIC), BATTER MIX - (ENRICHED BLEACHED WHEAT FLOUR [ENRICHED WITH NIACIN, REDUCED IRON, THIAMINE MONONITRATE, RIBOFLAVIN, FOLIC ACID], MODIFIED FOOD STARCH, DEXTROSE, SALT, ONION POWDER, SPICES, DEHYDRATED GARLIC, LEAVENING [SODIUM ACID PYROPHOSPHATE, SODIUM BICARBONATE], MUSTARD SEED, MALTODEXTRIN, FLAVOR [FROM COTTONSEED AND SOYBEAN OIL], HYDROLYZED CORN GLUTEN, XANTHAN GUM, SOY SAUCE [FERMENTED SOYBEANS, WHEAT, SALT], NATURAL FLAVORS WITH EXTRACTIVES OF PAPRIKA, CORN SYRUP SOLIDS), CONTAINS 2% OR LESS - JALAPENO PEPPER (WITH SALT, ACETIC ACID, CALCIUM CHLORIDE), CHILI PEPPER, MODIFIED CORN STARCH, SALT, FLAVOR, SPICES, CHILI FLAVOR (WITH CANOLA OIL, NATURAL FLAVORS), DOUGH CONDITIONERS (YEAST, WHEAT GLUTEN, SUGAR, GUAR GUM, MODIFIED FOOD STARCH, SODIUM METABISULFITE)." Date available: 10/13/2017 Date last updated by company: 10/13/2017
