Source: USDA Branded Food Products Database Release December 2017 Software v.3.8.6.4 2017-10-02
Report Run at: December 17, 2017 23:14 EST
"Nutrient data for: 45253566, NACHO CHEESE SAUCE, UPC: 079426212076"
Food Group:  Branded Food Products Database
Common Name:

Nutrient,Unit,Data points,Std. Error,"1 cup = 99.0g",1Value per 100 g,
Proximates
"Energy",kcal,--,--,120,121
"Protein",g,--,--,1.00,1.01
"Total lipid (fat)",g,--,--,9.00,9.09
"Carbohydrate, by difference",g,--,--,11.00,11.11
"Fiber, total dietary",g,--,--,0.0,0.0
"Sugars, total",g,--,--,4.00,4.04
Minerals
"Calcium, Ca",mg,--,--,60,61
"Iron, Fe",mg,--,--,0.00,0.00
"Sodium, Na",mg,--,--,780,788
Vitamins
"Vitamin C, total ascorbic acid",mg,--,--,0.0,0.0
"Vitamin A, IU",IU,--,--,0,0
Lipids
"Fatty acids, total saturated",g,--,--,2.000,2.020
"Fatty acids, total trans",g,--,--,3.000,3.030
"Cholesterol",mg,--,--,0,0
Amino Acids
Other
Ingredients
"CHEESE WHEY, PARTIALLY HYDROGENATED SOYBEAN OIL, MODIFIED FOOD STARCH, CHEESE (CHEDDAR AND BLUE CHEESE (CULTURED MILK, SALT AND ENZYMES)), JALAPENO PEPPERS, SODIUM PHOSPHATE, SALT, MALTODEXTRIN, MONOSODIUM GLUTAMATE, VINEGAR, NATURAL FLAVORS, MONO AND DIGLYCERIDES, SODIUM STEAROYL LACTYLATE, COLOR ADDED (INCLUDING CARAMEL COLOR, YELLOW 5 AND YELLOW 6)." Date available: 07/14/2017 Date last updated by company: 07/14/2017
