Source: USDA Branded Food Products Database Release December 2017 Software v.3.8.6.4 2017-10-02
Report Run at: December 17, 2017 23:15 EST
"Nutrient data for: 45332878, NACHO SLICED JALAPENOS, UPC: 077153900198"
Food Group:  Branded Food Products Database
Common Name:

Nutrient,Unit,Data points,Std. Error,"1 ONZ = 30.0g",1Value per 100 g,
Proximates
"Energy",kcal,--,--,5,17
"Protein",g,--,--,0.00,0.00
"Total lipid (fat)",g,--,--,0.00,0.00
"Carbohydrate, by difference",g,--,--,1.00,3.33
"Sugars, total",g,--,--,1.00,3.33
Minerals
"Sodium, Na",mg,--,--,310,1033
Vitamins
"Vitamin C, total ascorbic acid",mg,--,--,4.0,13.3
"Vitamin A, IU",IU,--,--,334,1112
Lipids
Amino Acids
Other
Ingredients
"JALAPENO PEPPERS, WATER, DISTILLED VINEGAR, SALT, CONTAINS LESS THAN 2% OF CALCIUM CHLORIDE, TURMERIC AND SODIUM METABISULFITE (PRESERVATIVE)." Date available: 10/19/2017 Date last updated by company: 10/19/2017
