Source: USDA Branded Food Products Database Release December 2017 Software v.3.8.6.4 2017-10-02
Report Run at: December 17, 2017 23:15 EST
"Nutrient data for: 45077187, NACHOS PICKLED JALAPENO NACHO SCLICES, UPC: 076397005119"
Food Group:  Branded Food Products Database
Common Name:

Nutrient,Unit,Data points,Std. Error,"2.0 Tbsp = 30.0g",1Value per 100 g,
Proximates
"Energy",kcal,--,--,10,33
"Protein",g,--,--,0.00,0.00
"Total lipid (fat)",g,--,--,0.00,0.00
"Carbohydrate, by difference",g,--,--,1.00,3.33
"Fiber, total dietary",g,--,--,1.0,3.3
Minerals
"Sodium, Na",mg,--,--,410,1367
Vitamins
Lipids
Amino Acids
Other
Ingredients
"JALAPENO PEPPERS, WATER, VINEGAR, IODIZED SALT, ONIONS, SPICES AND SOYBEAN OIL." Date available: 07/14/2017 Date last updated by company: 07/14/2017
