Source: USDA Branded Food Products Database Release December 2017 Software v.3.8.6.4 2017-10-02
Report Run at: December 17, 2017 23:16 EST
"Nutrient data for: 45264976, NAKED CHICKEN PARMESAN OVER SPAGHETTI SQUASH, UPC: 023933932828"
Food Group:  Branded Food Products Database
Common Name:

Nutrient,Unit,Data points,Std. Error,"12.96 ONZ = 413.0g",1Value per 100 g,
Proximates
"Energy",kcal,--,--,264,64
"Protein",g,--,--,29.20,7.07
"Total lipid (fat)",g,--,--,7.39,1.79
"Carbohydrate, by difference",g,--,--,21.19,5.13
"Fiber, total dietary",g,--,--,5.8,1.4
"Sugars, total",g,--,--,14.29,3.46
Minerals
"Calcium, Ca",mg,--,--,182,44
"Iron, Fe",mg,--,--,0.66,0.16
"Sodium, Na",mg,--,--,690,167
Vitamins
"Vitamin C, total ascorbic acid",mg,--,--,28.9,7.0
"Vitamin A, IU",IU,--,--,1780,431
Lipids
"Fatty acids, total saturated",g,--,--,2.519,0.610
"Fatty acids, total trans",g,--,--,0.000,0.000
"Cholesterol",mg,--,--,78,19
Amino Acids
Other
Ingredients
"CHICKEN (WATER, MARINADE [MILK, PLUM EXTRACT, ANTIOXIDANT ROSEMARY EXTRACT, GELATIN], SPAGHETTI SQUASH, BROCCOLI, TOMATO SAUCE (TOMATOES, ONION, CARROT, OLIVE OIL, SUNFLOWER OIL, SALT, GARLIC, BASIL, SUGAR, PEPPER, CITRIC ACID) ZUCCHINI, PARMESAN CHEESE (MILK, CULTURES, SALT, ENZYMES), BASIL." Date available: 08/30/2017 Date last updated by company: 08/30/2017
