Source: USDA Branded Food Products Database Release December 2017 Software v.3.8.6.4 2017-10-02
Report Run at: December 17, 2017 23:16 EST
"Nutrient data for: 45234056, NAKED, ALMONDMILK JUICE SMOOTHIE, PEACHY ALMOND, UPC: 082592010032"
Food Group:  Branded Food Products Database
Common Name:

Nutrient,Unit,Data points,Std. Error,"15.2 OZA = 450.0g",1Value per 100 g,
Proximates
"Energy",kcal,--,--,302,67
"Protein",g,--,--,10.98,2.44
"Total lipid (fat)",g,--,--,13.01,2.89
"Carbohydrate, by difference",g,--,--,36.99,8.22
"Fiber, total dietary",g,--,--,4.0,0.9
"Sugars, total",g,--,--,26.01,5.78
Minerals
"Calcium, Ca",mg,--,--,58,13
"Iron, Fe",mg,--,--,0.77,0.17
"Magnesium, Mg",mg,--,--,32,7
"Potassium, K",mg,--,--,212,47
"Sodium, Na",mg,--,--,162,36
Vitamins
"Vitamin C, total ascorbic acid",mg,--,--,0.0,0.0
"Vitamin A, IU",IU,--,--,0,0
Lipids
"Fatty acids, total saturated",g,--,--,0.990,0.220
Amino Acids
Other
Ingredients
"ALMONDMILK (FILTERED WATER, ALMONDS), APPLE JUICE, PEACH PUREE, BANANA PUREE, PINEAPPLE JUICE, ORANGE JUICE, SOY PROTEIN ISOLATE, NATURAL FLAVORS, SALT." Date available: 10/13/2017 Date last updated by company: 10/13/2017
