Source: USDA Branded Food Products Database Release December 2017 Software v.3.8.6.4 2017-10-02
Report Run at: December 17, 2017 23:18 EST
"Nutrient data for: 45122521, NALLEY, SANDWICH CREATIONS, PULLED PORK IN BBQ SAUCE, UPC: 041321316258"
Food Group:  Branded Food Products Database
Common Name:

Nutrient,Unit,Data points,Std. Error,"5.0 ONZ = 142.0g",1Value per 100 g,
Proximates
"Energy",kcal,--,--,170,120
"Protein",g,--,--,25.01,17.61
"Total lipid (fat)",g,--,--,3.49,2.46
"Carbohydrate, by difference",g,--,--,9.00,6.34
"Fiber, total dietary",g,--,--,1.0,0.7
"Sugars, total",g,--,--,4.00,2.82
Minerals
"Calcium, Ca",mg,--,--,20,14
"Iron, Fe",mg,--,--,0.70,0.49
"Sodium, Na",mg,--,--,450,317
Vitamins
"Vitamin C, total ascorbic acid",mg,--,--,0.0,0.0
"Vitamin A, IU",IU,--,--,0,0
Lipids
"Fatty acids, total saturated",g,--,--,0.994,0.700
"Fatty acids, total trans",g,--,--,0.000,0.000
"Cholesterol",mg,--,--,80,56
Amino Acids
Other
Ingredients
"COOKED PORK (PORK, WATER, MODIFIED FOOD STARCH, SALT, SODIUM PHOSPHATES), SAUCE (WATER, SAUCE BLEND [FRUCTOSE, MODIFIED CORN STARCH, VINEGAR POWDER (MALTODEXTRIN, WHITE VINEGAR), BROWN SUGAR, TOMATO POWDER, MOLASSES POWDER (MOLASSES, MALTODEXTRIN), PAPRIKA (COLOR), GARLIC POWDER, NATURAL SMOKE FLAVOR, ONION POWDER, CITRIC ACID, MALIC ACID, SPICES, CARAMEL COLOR], SUGAR, VINEGAR, SMOKE FLAVOR, MODIFIED FOOD STARCH, XANTHAM GUM)." Date available: 08/16/2017 Date last updated by company: 08/16/2017
