Source: USDA Branded Food Products Database Release December 2017 Software v.3.8.6.4 2017-10-02
Report Run at: December 17, 2017 23:18 EST
"Nutrient data for: 45066732, NALLEY, ELITES, PREMIUM CHILI PEPPER PETITES PICKLES, HOT, SPICY, UPC: 041820105131"
Food Group:  Branded Food Products Database
Common Name:

Nutrient,Unit,Data points,Std. Error,"15.5 PICKLES | ABOUT = 28.0g",1Value per 100 g,
Proximates
"Energy",kcal,--,--,0,0
"Protein",g,--,--,0.00,0.00
"Total lipid (fat)",g,--,--,0.00,0.00
"Carbohydrate, by difference",g,--,--,0.00,0.00
Minerals
"Sodium, Na",mg,--,--,290,1036
Vitamins
Lipids
Amino Acids
Other
Ingredients
"FRESH CUCUMBERS, WATER, VINEGAR, SALT, FRESH GARLIC, FRESH ONIONS, FRESH CHILI PEPPERS, CALCIUM CHLORIDE, NATURAL AND ARTIFICIAL FLAVORS, POLYSORBATE 80, YELLOW 5." Date available: 07/28/2017 Date last updated by company: 07/28/2017
