Source: USDA Branded Food Products Database Release December 2017 Software v.3.8.6.4 2017-10-02
Report Run at: December 17, 2017 23:20 EST
"Nutrient data for: 45024925, NANCY'S, CULTURED LOW FAT COTTAGE CHEESE, UPC: 043192315101"
Food Group:  Branded Food Products Database
Common Name:

Nutrient,Unit,Data points,Std. Error,"0.5 cup = 113.0g",1Value per 100 g,
Proximates
"Energy",kcal,--,--,80,71
"Protein",g,--,--,14.00,12.39
"Total lipid (fat)",g,--,--,0.99,0.88
"Carbohydrate, by difference",g,--,--,2.99,2.65
"Fiber, total dietary",g,--,--,0.0,0.0
"Sugars, total",g,--,--,2.99,2.65
Minerals
"Calcium, Ca",mg,--,--,60,53
"Iron, Fe",mg,--,--,0.00,0.00
"Sodium, Na",mg,--,--,304,269
Vitamins
"Vitamin C, total ascorbic acid",mg,--,--,0.0,0.0
"Vitamin A, IU",IU,--,--,0,0
Lipids
"Fatty acids, total saturated",g,--,--,0.497,0.440
"Fatty acids, total trans",g,--,--,0.000,0.000
"Cholesterol",mg,--,--,5,4
Amino Acids
Other
Ingredients
"ORGANIC SKIM MILK, ORGANIC CREAM, ORGANIC NONFAT MILK POWDER, L. ACIDOPHILUS, B. BIFIDUM AND 4 STRAINS OF LACTIC CULTURES, SALT." Date available: 07/14/2017 Date last updated by company: 07/14/2017
