Source: USDA Branded Food Products Database Release December 2017 Software v.3.8.6.4 2017-10-02
Report Run at: December 17, 2017 23:20 EST
"Nutrient data for: 45163368, NANCY'S, LOWFAT CULTURED MILK, ORGANIC PEACH, UPC: 043192200148"
Food Group:  Branded Food Products Database
Common Name:

Nutrient,Unit,Data points,Std. Error,"8.0 OZA = 240.0g",1Value per 100 g,
Proximates
"Energy",kcal,--,--,199,83
"Protein",g,--,--,9.00,3.75
"Total lipid (fat)",g,--,--,2.50,1.04
"Carbohydrate, by difference",g,--,--,37.99,15.83
"Fiber, total dietary",g,--,--,1.0,0.4
"Sugars, total",g,--,--,37.01,15.42
Minerals
"Calcium, Ca",mg,--,--,300,125
"Iron, Fe",mg,--,--,0.00,0.00
"Sodium, Na",mg,--,--,110,46
Vitamins
"Vitamin C, total ascorbic acid",mg,--,--,1.7,0.7
"Vitamin A, IU",IU,--,--,72,30
Lipids
"Fatty acids, total saturated",g,--,--,1.992,0.830
"Fatty acids, total trans",g,--,--,0.000,0.000
"Cholesterol",mg,--,--,14,6
Amino Acids
Other
Ingredients
"PASTEURIZED ORGANIC MILK, ORGANIC PEACHES, ORGANIC AGAVE NECTAR, ORGANIC NONFAT DRY MILK, ORGANIC INULIN, AND LIVE CULTURES, INCLUDING PROBIOTICS: BIFIDOBACTERIUM LACTIS BB-12*, L. ACIDOPHILUS LA-5*, L. RHAMNOSUS LB3." Date available: 06/25/2017 Date last updated by company: 06/25/2017
