Source: USDA Branded Food Products Database Release December 2017 Software v.3.8.6.4 2017-10-02
Report Run at: December 17, 2017 23:22 EST
"Nutrient data for: 45259786, NANKHATAI TRADITIONAL INDIAN COOKIES, UPC: 01143155625"
Food Group:  Branded Food Products Database
Common Name:

Nutrient,Unit,Data points,Std. Error,"3.0 PIECES | ABOUT = 44.0g",1Value per 100 g,
Proximates
"Energy",kcal,--,--,200,455
"Protein",g,--,--,2.00,4.55
"Total lipid (fat)",g,--,--,12.00,27.27
"Carbohydrate, by difference",g,--,--,22.00,50.00
"Fiber, total dietary",g,--,--,2.0,4.5
"Sugars, total",g,--,--,10.00,22.73
Minerals
"Calcium, Ca",mg,--,--,60,136
"Iron, Fe",mg,--,--,2.05,4.65
"Sodium, Na",mg,--,--,90,205
Vitamins
"Vitamin C, total ascorbic acid",mg,--,--,0.0,0.0
"Vitamin A, IU",IU,--,--,0,0
Lipids
"Fatty acids, total saturated",g,--,--,4.501,10.230
"Cholesterol",mg,--,--,0,0
Amino Acids
Other
Ingredients
"WHEAT FLOUR (50%), SUGAR (21%), HYDROGENATED VEGETABLE OIL (CONTAINS ONE OR MORE OF THE FOLLOWING: SESAME OIL, SOYBEAN OIL, PALM OIL), CARDAMOM, NUTMEG, SODIUM BICARBONATE, BUTYLATED HYDROXYANISOLE (E320), SALT." Date available: 07/14/2017 Date last updated by company: 07/14/2017
