Source: USDA Branded Food Products Database Release December 2017 Software v.3.8.6.4 2017-10-02
Report Run at: December 17, 2017 23:23 EST
"Nutrient data for: 45080644, NAPOLEON, GARLIC CLOVES, UPC: 041253163005"
Food Group:  Branded Food Products Database
Common Name:

Nutrient,Unit,Data points,Std. Error,"1 Tbsp = 12.0g",1Value per 100 g,
Proximates
"Energy",kcal,--,--,5,42
"Total lipid (fat)",g,--,--,0.00,0.00
"Carbohydrate, by difference",g,--,--,1.00,8.33
Minerals
"Calcium, Ca",mg,--,--,0,0
"Iron, Fe",mg,--,--,0.00,0.00
"Sodium, Na",mg,--,--,200,1667
Vitamins
"Vitamin C, total ascorbic acid",mg,--,--,0.0,0.0
"Vitamin A, IU",IU,--,--,0,0
Lipids
"Fatty acids, total trans",g,--,--,0.000,0.000
Amino Acids
Other
Ingredients
"GARLIC CLOVES, WATER, SALT, VINEGAR, CITRIC ACID, LACTIC ACID" Date available: 06/25/2017 Date last updated by company: 06/25/2017
