Source: USDA Branded Food Products Database Release December 2017 Software v.3.8.6.4 2017-10-02
Report Run at: December 17, 2017 23:24 EST
"Nutrient data for: 45284659, NASHVILLE HOT CHICKEN MARINADE, UPC: 074964200301"
Food Group:  Branded Food Products Database
Common Name:

Nutrient,Unit,Data points,Std. Error,"1 Tbsp = 15.0g",1Value per 100 g,
Proximates
"Energy",kcal,--,--,10,67
"Protein",g,--,--,1.00,6.67
"Total lipid (fat)",g,--,--,0.00,0.00
"Carbohydrate, by difference",g,--,--,1.00,6.67
"Fiber, total dietary",g,--,--,0.0,0.0
"Sugars, total",g,--,--,1.00,6.67
Minerals
"Calcium, Ca",mg,--,--,0,0
"Iron, Fe",mg,--,--,0.00,0.00
"Sodium, Na",mg,--,--,630,4200
Vitamins
"Vitamin C, total ascorbic acid",mg,--,--,4.8,32.0
"Vitamin A, IU",IU,--,--,0,0
Lipids
"Fatty acids, total saturated",g,--,--,0.000,0.000
"Fatty acids, total trans",g,--,--,0.000,0.000
"Cholesterol",mg,--,--,0,0
Amino Acids
Other
Ingredients
"SOY SAUCE (WATER, SALT, HYDROLYZED SOY PROTEIN, INVERT SYRUP, CARAMEL COLOR), WATER, LIME JUICE (FROM CONCENTRATE), RED CHILE SAUCE (CHIPOTLE CHILE PEPPERS, NATURAL FLAVOR, SALT, CITRIC ACID), VINEGAR, SUGAR, DRIED GARLIC & ONION, SPICE, NATURAL FLAVOR, CITRIC ACID, LIME OIL." Date available: 07/14/2017 Date last updated by company: 07/14/2017
