Source: USDA Branded Food Products Database Release December 2017 Software v.3.8.6.4 2017-10-02
Report Run at: December 17, 2017 23:25 EST
"Nutrient data for: 45160455, NASSAU CANDY, GUMMY FROGS CANDY, UPC: 618645298760"
Food Group:  Branded Food Products Database
Common Name:

Nutrient,Unit,Data points,Std. Error,"8.0 PIECES = 41.0g",1Value per 100 g,
Proximates
"Energy",kcal,--,--,160,390
"Protein",g,--,--,3.00,7.32
"Total lipid (fat)",g,--,--,0.00,0.00
"Carbohydrate, by difference",g,--,--,37.00,90.24
"Fiber, total dietary",g,--,--,0.0,0.0
"Sugars, total",g,--,--,24.00,58.54
Minerals
"Calcium, Ca",mg,--,--,0,0
"Iron, Fe",mg,--,--,0.00,0.00
"Sodium, Na",mg,--,--,0,0
Vitamins
"Vitamin C, total ascorbic acid",mg,--,--,0.0,0.0
"Vitamin A, IU",IU,--,--,0,0
Lipids
"Fatty acids, total saturated",g,--,--,0.000,0.000
"Fatty acids, total trans",g,--,--,0.000,0.000
"Cholesterol",mg,--,--,0,0
Amino Acids
Other
Ingredients
"CORN SYRUP, SUGAR, DEXTROSE, GELATIN, CITRIC ACID, STARCH, NATURAL & ARTIFICIAL FLAVORS, FRACTIONED COCONUT OIL, CARNAUBA WAX, BEESWAX, ARTIFICIAL COLORS (YELLOW 5, BLUE 1)." Date available: 07/14/2017 Date last updated by company: 07/14/2017
