Source: USDA Branded Food Products Database Release December 2017 Software v.3.8.6.4 2017-10-02
Report Run at: December 17, 2017 23:25 EST
"Nutrient data for: 45168538, NASSAU CANDY, MILK CHOCOLATE COVERED ALMONDS & CARAMEL, UPC: 618645239442"
Food Group:  Branded Food Products Database
Common Name:

Nutrient,Unit,Data points,Std. Error,"2.0 PIECES = 33.0g",1Value per 100 g,
Proximates
"Energy",kcal,--,--,170,515
"Protein",g,--,--,4.00,12.12
"Total lipid (fat)",g,--,--,11.00,33.33
"Carbohydrate, by difference",g,--,--,13.00,39.39
"Fiber, total dietary",g,--,--,1.0,3.0
"Sugars, total",g,--,--,9.00,27.27
Minerals
"Calcium, Ca",mg,--,--,60,182
"Iron, Fe",mg,--,--,1.09,3.31
"Sodium, Na",mg,--,--,35,106
Vitamins
"Vitamin C, total ascorbic acid",mg,--,--,0.0,0.0
"Vitamin A, IU",IU,--,--,0,0
Lipids
"Fatty acids, total saturated",g,--,--,3.000,9.090
"Fatty acids, total trans",g,--,--,0.000,0.000
"Cholesterol",mg,--,--,5,15
Amino Acids
Other
Ingredients
"MILK CHOCOLATE (SUGAR, WHOLE MILK POWDER, COCOA BUTTER, CHOCOLATE LIQUOR, SKIM MILK POWDER, MILKFAT, SOY LECITHIN [EMULSIFIER], VANILLA EXTRACT), CARAMEL (EVAPORATED MILK [MILK, DIPOTASSIUM PHOSPHATE, CARRAGEENAN, VITAMIN D3], GLUCOSE SYRUP, SUGAR, INVERTASE, CREAM, NON-HYDROGENATED PALM KERNEL OIL, BUTTER [CREAM AND SALT], SALT, VANILLA EXTRACT), ALMONDS (ROASTED IN NON-HYDROGENATED SUNFLOWER OIL)." Date available: 07/14/2017 Date last updated by company: 07/14/2017
