Source: USDA Branded Food Products Database Release December 2017 Software v.3.8.6.4 2017-10-02
Report Run at: December 18, 2017 00:20 EST
"Nutrient data for: 45310702, NAT VLY SWEET SALTY NUT GRAN BARS ALMOND, UNPREPARED, GTIN: 00016000442818"
Food Group:  Branded Food Products Database
Common Name:

Nutrient,Unit,Data points,Std. Error,"1 bar (35g) = 35.0g",1Value per 100 g,
Proximates
"Energy",kcal,--,--,160,457
"Protein",g,--,--,3.00,8.57
"Total lipid (fat)",g,--,--,7.00,20.00
"Carbohydrate, by difference",g,--,--,22.00,62.86
"Fiber, total dietary",g,--,--,1.0,2.9
"Sugars, total",g,--,--,8.00,22.86
Minerals
"Calcium, Ca",mg,--,--,20,57
"Iron, Fe",mg,--,--,0.36,1.03
"Sodium, Na",mg,--,--,140,400
Vitamins
"Vitamin C, total ascorbic acid",mg,--,--,0.0,0.0
"Vitamin A, IU",IU,--,--,0,0
Lipids
"Fatty acids, total saturated",g,--,--,1.998,5.710
"Fatty acids, total trans",g,--,--,0.000,0.000
"Cholesterol",mg,--,--,0,0
Amino Acids
Other
Ingredients
"ALMONDS, CORN SYRUP, WHOLE GRAIN OATS, SUGAR, RICE FLOUR, PALM KERNEL OIL, WHOLE GRAIN WHEAT, VEGETABLE GLYCERIN, HONEY ROASTED ALMOND BUTTER (ALMONDS, HONEY, MALTODEXTRIN, PALM OIL, MIXED TOCOPHEROLS), WHEY, FRUCTOSE, CANOLA OIL, SALT, SOY LECITHIN, CORN STARCH, BARLEY MALT EXTRACT, BAKING SODA, NATURAL FLAVOR, VITAMIN E (MIXED TOCOPHEROLS) ADDED TO RETAIN FRESHNESS." Date available: 10/22/2017 Date last updated by company: 06/15/2017
