Source: USDA Branded Food Products Database Release December 2017 Software v.3.8.6.4 2017-10-02
Report Run at: December 18, 2017 00:18 EST
"Nutrient data for: 45310972, NAT VLY BACKPACKER CHWY OTML BITS CHOC CHIP, UNPREPARED, GTIN: 00016000514157"
Food Group:  Branded Food Products Database
Common Name:

Nutrient,Unit,Data points,Std. Error,"1 pouch (35g) = 35.0g",1Value per 100 g,
Proximates
"Energy",kcal,--,--,150,429
"Protein",g,--,--,2.00,5.71
"Total lipid (fat)",g,--,--,6.00,17.14
"Carbohydrate, by difference",g,--,--,24.00,68.57
"Fiber, total dietary",g,--,--,2.0,5.7
"Sugars, total",g,--,--,9.00,25.71
Minerals
"Calcium, Ca",mg,--,--,0,0
"Iron, Fe",mg,--,--,0.36,1.03
"Sodium, Na",mg,--,--,130,371
Vitamins
"Vitamin C, total ascorbic acid",mg,--,--,0.0,0.0
"Vitamin A, IU",IU,--,--,0,0
Lipids
"Fatty acids, total saturated",g,--,--,1.001,2.860
"Fatty acids, total trans",g,--,--,0.000,0.000
"Cholesterol",mg,--,--,0,0
Amino Acids
Other
Ingredients
"WHOLE GRAIN OATS, WHOLE WHEAT FLOUR, SUGAR, CANOLA OIL, TAPIOCA SYRUP, SEMISWEET CHOCOLATE CHIPS (SUGAR, CHOCOLATE LIQUOR, COCOA BUTTER, SOY LECITHIN, VANILLA EXTRACT), VEGETABLE GLYCERIN, CHICORY ROOT EXTRACT, PALM KERNEL AND PALM OILS, BROWN RICE FLOUR, WHOLE CORN FLOUR, RAISIN JUICE CONCENTRATE, MOLASSES, WHEAT STARCH, COCOA, BAKING SODA, SALT, GUM ARABIC, EGG WHITE, SOY LECITHIN, MILK, NATURAL FLAVOR, OIL OF ROSEMARY." Date available: 10/20/2017 Date last updated by company: 10/20/2017
