Source: USDA Branded Food Products Database Release December 2017 Software v.3.8.6.4 2017-10-02
Report Run at: December 17, 2017 23:26 EST
"Nutrient data for: 45034398, NATHAN'S FAMOUS, DELI STYLE MUSTARD, UPC: 041740994228"
Food Group:  Branded Food Products Database
Common Name:

Nutrient,Unit,Data points,Std. Error,"1 tsp = 5.0g",1Value per 100 g,
Proximates
"Energy",kcal,--,--,0,0
"Protein",g,--,--,0.00,0.00
"Total lipid (fat)",g,--,--,0.00,0.00
"Carbohydrate, by difference",g,--,--,0.00,0.00
Minerals
"Sodium, Na",mg,--,--,40,800
Vitamins
Lipids
Amino Acids
Other
Ingredients
"SELECT MUSTARD SEEDS, VINEGAR, SALT, TURMERIC AND SPICES." Date available: 06/24/2017 Date last updated by company: 06/24/2017
