Source: USDA Branded Food Products Database Release December 2017 Software v.3.8.6.4 2017-10-02
Report Run at: December 17, 2017 23:26 EST
"Nutrient data for: 45046062, NATHAN'S FAMOUS, BAR-B-Q SAUCE, UPC: 041740996215"
Food Group:  Branded Food Products Database
Common Name:

Nutrient,Unit,Data points,Std. Error,"1 tsp = 5.0g",1Value per 100 g,
Proximates
"Energy",kcal,--,--,5,100
"Protein",g,--,--,0.00,0.00
"Total lipid (fat)",g,--,--,0.00,0.00
"Carbohydrate, by difference",g,--,--,1.00,20.00
"Sugars, total",g,--,--,1.00,20.00
Minerals
"Sodium, Na",mg,--,--,35,700
Vitamins
"Vitamin A, IU",IU,--,--,1014,20290
Lipids
"Fatty acids, total trans",g,--,--,0.000,0.000
Amino Acids
Other
Ingredients
"TOMATO PASTE, VINEGAR, SUGAR, DEXTROSE, MOLASSES, PAPRIKA, SALT, ONION, SPICES, NATURAL SMOKE FLAVOR & VEGETABLE STABILIZER." Date available: 07/14/2017 Date last updated by company: 07/14/2017
