Source: USDA Branded Food Products Database Release December 2017 Software v.3.8.6.4 2017-10-02
Report Run at: December 18, 2017 00:15 EST
"Nutrient data for: 45257940, NATURE'S PROMISE ORGANIC TOFU FIRM, UPC: 688267049378"
Food Group:  Branded Food Products Database
Common Name:

Nutrient,Unit,Data points,Std. Error,"0.2 PACKAGE = 79.0g",1Value per 100 g,
Proximates
"Energy",kcal,--,--,70,89
"Protein",g,--,--,7.00,8.86
"Total lipid (fat)",g,--,--,3.00,3.80
"Carbohydrate, by difference",g,--,--,2.00,2.53
"Fiber, total dietary",g,--,--,1.0,1.3
"Sugars, total",g,--,--,0.00,0.00
Minerals
"Calcium, Ca",mg,--,--,100,127
"Iron, Fe",mg,--,--,1.16,1.47
"Sodium, Na",mg,--,--,15,19
Vitamins
"Vitamin C, total ascorbic acid",mg,--,--,0.0,0.0
"Vitamin A, IU",IU,--,--,0,0
Lipids
"Fatty acids, total saturated",g,--,--,0.000,0.000
"Fatty acids, total trans",g,--,--,0.000,0.000
"Cholesterol",mg,--,--,0,0
Amino Acids
Other
Ingredients
"WATER, ORGANIC WHOLE SOYBEANS, CALCIUM SULFATE, MAGNESIUM CHLORIDE." Date available: 07/14/2017 Date last updated by company: 07/14/2017
