Source: USDA Branded Food Products Database Release December 2017 Software v.3.8.6.4 2017-10-02
Report Run at: December 17, 2017 23:48 EST
"Nutrient data for: 45314147, NATURALLY SWEETENED DRINK MIX, UPC: 043000071106"
Food Group:  Branded Food Products Database
Common Name:

Nutrient,Unit,Data points,Std. Error,"0.125 PACKET = 1.6g",1Value per 100 g,
Proximates
"Energy",kcal,--,--,5,312
"Protein",g,--,--,0.00,0.00
"Total lipid (fat)",g,--,--,0.00,0.00
"Carbohydrate, by difference",g,--,--,1.00,62.50
"Sugars, total",g,--,--,1.00,62.50
Minerals
"Sodium, Na",mg,--,--,15,938
Vitamins
Lipids
Amino Acids
Other
Ingredients
"SUGAR, CITRIC ACID, DRIED CORN SYRUP, INSTANT TEA, STEVIA LEAF EXTRACT (SWEETENER), SODIUM CITRATE, CONTAINS LESS THAN 2% OF MAGNESIUM OXIDE, NATURAL FLAVOR." Date available: 07/14/2017 Date last updated by company: 07/14/2017
