Source: USDA Branded Food Products Database Release December 2017 Software v.3.8.6.4 2017-10-02
Report Run at: December 17, 2017 23:59 EST
"Nutrient data for: 45272393, NATURAL* UNCURED TURKEY HOT DOG, UPC: 025317775205"
Food Group:  Branded Food Products Database
Common Name:

Nutrient,Unit,Data points,Std. Error,"1 HOT DOG = 47.0g",1Value per 100 g,
Proximates
"Energy",kcal,--,--,70,149
"Protein",g,--,--,7.00,14.89
"Total lipid (fat)",g,--,--,3.50,7.45
"Carbohydrate, by difference",g,--,--,0.00,0.00
"Fiber, total dietary",g,--,--,0.0,0.0
"Sugars, total",g,--,--,0.00,0.00
Minerals
"Calcium, Ca",mg,--,--,0,0
"Iron, Fe",mg,--,--,0.00,0.00
"Sodium, Na",mg,--,--,450,957
Vitamins
"Vitamin C, total ascorbic acid",mg,--,--,0.0,0.0
"Vitamin A, IU",IU,--,--,0,0
Lipids
"Fatty acids, total saturated",g,--,--,0.498,1.060
"Fatty acids, total trans",g,--,--,0.000,0.000
"Cholesterol",mg,--,--,35,74
Amino Acids
Other
Ingredients
"TURKEY**, WATER. CONTAINS LESS THAN 2% OF THE FOLLOWING: SEA SALT, VINEGAR, SPICES, PAPRIKA, DEHYDRATED GARLIC, DEHYDRATED ONION, CELERY POWDER, CHERRY POWDER." Date available: 10/04/2017 Date last updated by company: 10/04/2017
