Source: USDA Branded Food Products Database Release December 2017 Software v.3.8.6.4 2017-10-02
Report Run at: December 17, 2017 23:36 EST
"Nutrient data for: 45241941, NATURAL DIRECTIONS, ORGANIC COCONUT MILK, UPC: 015400192064"
Food Group:  Branded Food Products Database
Common Name:

Nutrient,Unit,Data points,Std. Error,"0.33 cup = 80.0g",1Value per 100 g,
Proximates
"Energy",kcal,--,--,160,200
"Protein",g,--,--,2.00,2.50
"Total lipid (fat)",g,--,--,14.00,17.50
"Carbohydrate, by difference",g,--,--,6.00,7.50
"Fiber, total dietary",g,--,--,1.0,1.2
"Sugars, total",g,--,--,2.00,2.50
Minerals
"Calcium, Ca",mg,--,--,0,0
"Iron, Fe",mg,--,--,0.00,0.00
"Magnesium, Mg",mg,--,--,48,60
"Phosphorus, P",mg,--,--,60,75
"Potassium, K",mg,--,--,130,162
"Sodium, Na",mg,--,--,15,19
Vitamins
"Vitamin C, total ascorbic acid",mg,--,--,0.0,0.0
"Vitamin A, IU",IU,--,--,0,0
Lipids
"Fatty acids, total saturated",g,--,--,14.000,17.500
"Fatty acids, total trans",g,--,--,0.000,0.000
"Cholesterol",mg,--,--,0,0
Amino Acids
Other
Ingredients
"ORGANIC COCONUT EXTRACT (47%), WATER, AND ORGANIC GUAR GUM (E412)." Date available: 06/25/2017 Date last updated by company: 06/25/2017
