Source: USDA Branded Food Products Database Release December 2017 Software v.3.8.6.4 2017-10-02
Report Run at: December 17, 2017 23:50 EST
"Nutrient data for: 45169269, NATURAL NECTAR, ORGANIC BREAKFAST BISCUIT MULTIGRAINS &CHOCOLATE CHIPS, UPC: 817252011360"
Food Group:  Branded Food Products Database
Common Name:

Nutrient,Unit,Data points,Std. Error,"2.0 COOKIES = 25.0g",1Value per 100 g,
Proximates
"Energy",kcal,--,--,120,480
"Protein",g,--,--,2.00,8.00
"Total lipid (fat)",g,--,--,4.50,18.00
"Carbohydrate, by difference",g,--,--,17.00,68.00
"Fiber, total dietary",g,--,--,1.0,4.0
"Sugars, total",g,--,--,6.00,24.00
Minerals
"Calcium, Ca",mg,--,--,0,0
"Iron, Fe",mg,--,--,0.72,2.88
"Sodium, Na",mg,--,--,60,240
Vitamins
"Vitamin C, total ascorbic acid",mg,--,--,0.0,0.0
"Vitamin A, IU",IU,--,--,0,0
Lipids
"Fatty acids, total saturated",g,--,--,2.500,10.000
"Fatty acids, total trans",g,--,--,0.000,0.000
"Cholesterol",mg,--,--,0,0
Amino Acids
Other
Ingredients
"ORGANIC UNBLEACHED WHEAT FLOUR, ORGANIC CANE SUGAR, ORGANIC, PALM OIL, ORGANIC FAIR TRADE CERTIFIED 7% CHOCOLATE CHIPS* (ORGANIC SUGAR, ORGANIC COCOA PASTE, ORGANIC COCOA BUTTER, SUNFLOWER LECITHIN), ORGANIC MULTIGRAIN CLUSTERS (ORGANIC RICE, ORGANIC OATS, ORGANIC CANE SUGAR, ORGANIC BARLEY MALT SYRUP, SEA SALT), ORGANIC HONEY, BAKING POWDERS (AMMONIUM HYDROGEN CARBONATE - SODIUM HYDROGEN CARBONATE - MONOCALCIUM PHOSPHATE), SALT." Date available: 07/14/2017 Date last updated by company: 07/14/2017
