Source: USDA Branded Food Products Database Release December 2017 Software v.3.8.6.4 2017-10-02
Report Run at: December 17, 2017 23:52 EST
"Nutrient data for: 45286854, NATURAL PROBIOTIC KOMBUCHA, UPC: 866050000199"
Food Group:  Branded Food Products Database
Common Name:

Nutrient,Unit,Data points,Std. Error,"8.0 OZA = 8.0g",1Value per 100 g,
Proximates
"Energy",kcal,--,--,1,17
"Protein",g,--,--,0.00,0.00
"Total lipid (fat)",g,--,--,0.00,0.00
"Carbohydrate, by difference",g,--,--,0.30,3.75
"Fiber, total dietary",g,--,--,0.0,0.0
"Sugars, total",g,--,--,0.33,4.17
Minerals
"Sodium, Na",mg,--,--,1,12
Vitamins
Lipids
"Fatty acids, total saturated",g,--,--,0.000,0.000
"Fatty acids, total trans",g,--,--,0.000,0.000
"Cholesterol",mg,--,--,0,0
Amino Acids
Other
Ingredients
"FILTERED WATER, ORGANIC KOMBUCHA CULTURE, ORGANIC GREEN TEA, ORGANIC BLACK TEA, ORGANIC CANE SUGAR, GINGER ROOT, TURMERIC ROOT, RAISINS" Date available: 07/14/2017 Date last updated by company: 07/14/2017
