Source: USDA Branded Food Products Database Release December 2017 Software v.3.8.6.4 2017-10-02
Report Run at: December 17, 2017 23:50 EST
"Nutrient data for: 45307167, NATURAL ORANGE FLAVORED WATER BEVERAGE, UPC: 068274911477"
Food Group:  Branded Food Products Database
Common Name:

Nutrient,Unit,Data points,Std. Error,"8.0 OZA = 237.0g",1Value per 100 g,
Proximates
"Energy",kcal,--,--,0,0
"Protein",g,--,--,0.00,0.00
"Total lipid (fat)",g,--,--,0.00,0.00
"Carbohydrate, by difference",g,--,--,0.00,0.00
"Sugars, total",g,--,--,0.00,0.00
Minerals
"Sodium, Na",mg,--,--,26,11
Vitamins
Lipids
Amino Acids
Other
Ingredients
"PURIFIED WATER, NATURAL FLAVORS, CITRIC ACID, SODIUM POLYPHOSPHATE, POTASSIUM SORBATE (PRESERVE FRESHNESS), POTASSIUM BENZOATE (PRESERVE FRESHNESS), SUCRALOSE, ACESULFAME POTASSIUM, CALCIUM DISODIUM EDTA, MAGNESIUM SULFATE." Date available: 07/14/2017 Date last updated by company: 07/14/2017
