Source: USDA Branded Food Products Database Release December 2017 Software v.3.8.6.4 2017-10-02
Report Run at: December 17, 2017 23:54 EST
"Nutrient data for: 45058219, NATURAL SEA, SOLID WHITE ALBACORE, UPC: 042563017569"
Food Group:  Branded Food Products Database
Common Name:

Nutrient,Unit,Data points,Std. Error,"1 POUCH = 85.0g",1Value per 100 g,
Proximates
"Energy",kcal,--,--,100,118
"Protein",g,--,--,21.00,24.71
"Total lipid (fat)",g,--,--,0.50,0.59
"Carbohydrate, by difference",g,--,--,1.00,1.18
"Fiber, total dietary",g,--,--,0.0,0.0
"Sugars, total",g,--,--,0.00,0.00
Minerals
"Calcium, Ca",mg,--,--,0,0
"Iron, Fe",mg,--,--,0.72,0.85
"Sodium, Na",mg,--,--,50,59
Vitamins
"Vitamin C, total ascorbic acid",mg,--,--,0.0,0.0
"Vitamin A, IU",IU,--,--,0,0
Lipids
"Fatty acids, total saturated",g,--,--,0.000,0.000
"Fatty acids, total monounsaturated",g,--,--,0.000,0.000
"Fatty acids, total polyunsaturated",g,--,--,0.000,0.000
"Fatty acids, total trans",g,--,--,0.000,0.000
"Cholesterol",mg,--,--,45,53
Amino Acids
Other
Ingredients
"ALBACORE TUNA, SPRING WATER." Date available: 07/14/2017 Date last updated by company: 07/14/2017
