Source: USDA Branded Food Products Database Release December 2017 Software v.3.8.6.4 2017-10-02
Report Run at: December 17, 2017 23:42 EST
"Nutrient data for: 45187028, NATURALISSIMA, UNCURED PANCETTA, UPC: 017869777134"
Food Group:  Branded Food Products Database
Common Name:

Nutrient,Unit,Data points,Std. Error,"2.0 ONZ = 56.0g",1Value per 100 g,
Proximates
"Energy",kcal,--,--,200,357
"Protein",g,--,--,9.00,16.07
"Total lipid (fat)",g,--,--,18.00,32.14
"Carbohydrate, by difference",g,--,--,0.00,0.00
"Fiber, total dietary",g,--,--,0.0,0.0
"Sugars, total",g,--,--,0.00,0.00
Minerals
"Calcium, Ca",mg,--,--,0,0
"Iron, Fe",mg,--,--,0.32,0.58
"Sodium, Na",mg,--,--,990,1768
Vitamins
"Vitamin C, total ascorbic acid",mg,--,--,0.0,0.0
"Vitamin A, IU",IU,--,--,0,0
Lipids
"Fatty acids, total saturated",g,--,--,5.998,10.710
"Fatty acids, total trans",g,--,--,0.000,0.000
"Cholesterol",mg,--,--,45,80
Amino Acids
Other
Ingredients
"PORK, SEA SALT, CONTAINS LESS THAN 2% OF THE FOLLOWING: NATURAL FLAVORING, TURBINADO SUGAR, GARLIC, LACTIC ACID STARTER CULTURE, CELERY POWDER, WINE." Date available: 07/14/2017 Date last updated by company: 07/14/2017
