Source: USDA Branded Food Products Database Release December 2017 Software v.3.8.6.4 2017-10-02
Report Run at: December 17, 2017 23:30 EST
"Nutrient data for: 45258863, NATURAL BREW, DRAFT ROOT BEER, UPC: 074682117448"
Food Group:  Branded Food Products Database
Common Name:

Nutrient,Unit,Data points,Std. Error,"12.0 OZA = 355.0g",1Value per 100 g,
Proximates
"Energy",kcal,--,--,170,48
"Protein",g,--,--,0.00,0.00
"Total lipid (fat)",g,--,--,0.00,0.00
"Carbohydrate, by difference",g,--,--,42.99,12.11
"Sugars, total",g,--,--,41.00,11.55
Minerals
"Sodium, Na",mg,--,--,11,3
Vitamins
Lipids
Amino Acids
Other
Ingredients
"SPARKLING FILTERED WATER, SUGAR, NATURAL FLAVORS, BOURBON VANILLA EXTRACT, ANISE, LICORICE ROOT, BIRCH OIL, WINTERGREEN OIL, CARAMEL COLOR, PHOSPHORIC ACID." Date available: 06/25/2017 Date last updated by company: 06/25/2017
