Source: USDA Branded Food Products Database Release December 2017 Software v.3.8.6.4 2017-10-02
Report Run at: December 17, 2017 23:40 EST
"Nutrient data for: 45054625, NATURAL GOLDEN CRUNCHY TILAPIA FILLETS, UPC: 610379725031"
Food Group:  Branded Food Products Database
Common Name:

Nutrient,Unit,Data points,Std. Error,"4.0 ONZ = 113.4g",1Value per 100 g,
Proximates
"Energy",kcal,--,--,240,212
"Protein",g,--,--,16.00,14.11
"Total lipid (fat)",g,--,--,11.00,9.70
"Carbohydrate, by difference",g,--,--,17.00,14.99
"Fiber, total dietary",g,--,--,1.0,0.9
"Sugars, total",g,--,--,1.00,0.88
Minerals
"Calcium, Ca",mg,--,--,0,0
"Iron, Fe",mg,--,--,0.27,0.24
"Sodium, Na",mg,--,--,280,247
Vitamins
"Vitamin C, total ascorbic acid",mg,--,--,0.9,0.8
"Vitamin A, IU",IU,--,--,0,0
Lipids
"Fatty acids, total saturated",g,--,--,2.495,2.200
"Fatty acids, total trans",g,--,--,0.000,0.000
"Cholesterol",mg,--,--,35,31
Amino Acids
Other
Ingredients
"INGREDIENTS: FISH, ENRICHED WHEAT FLOUR (FLOUR, NIACIN, FERROUS SULFATE, THIAMINE MONONITRATE, RIBOFLAVIN, FOLIC ACID), BLEACHED WHEAT FLOUR, WATER, MODIFIED CORN STARCH, SALT, DEXTROSE, YELLOW CORN FLOUR, MILK, SUGAR, PARTIALLY HYDROGENATED SOYBEAN OIL, EXTRACTIVE OF PAPRIKA, SPICE EXTRACTIVE, FRIED IN CANOLA OIL" Date available: 06/25/2017 Date last updated by company: 06/25/2017
