Source: USDA Branded Food Products Database Release December 2017 Software v.3.8.6.4 2017-10-02
Report Run at: December 18, 2017 00:10 EST
"Nutrient data for: 45170864, NATURE'S OWN, 100% GRAPE JUICE, GRAPE, UPC: 073314648817"
Food Group:  Branded Food Products Database
Common Name:

Nutrient,Unit,Data points,Std. Error,"8.0 OZA = 240.0g",1Value per 100 g,
Proximates
"Energy",kcal,--,--,149,62
"Protein",g,--,--,1.01,0.42
"Total lipid (fat)",g,--,--,0.00,0.00
"Carbohydrate, by difference",g,--,--,37.01,15.42
"Sugars, total",g,--,--,37.01,15.42
Minerals
"Sodium, Na",mg,--,--,19,8
Vitamins
"Vitamin C, total ascorbic acid",mg,--,--,72.0,30.0
Lipids
Amino Acids
Other
Ingredients
"GRAPE JUICE, (MAY BE SWEETENED WITH GRAPE JUICE CONCENTRATE), POTASSIUM METABISULFITE, ADDED TO ENHANCE FRESHNESS, ASCORBIC ACID (VITAMIN C)." Date available: 07/14/2017 Date last updated by company: 07/14/2017
