Source: USDA Branded Food Products Database Release December 2017 Software v.3.8.6.4 2017-10-02
Report Run at: December 18, 2017 00:09 EST
"Nutrient data for: 45158868, NATURE'S HARVEST, TREK MIX, UPC: 071725749093"
Food Group:  Branded Food Products Database
Common Name:

Nutrient,Unit,Data points,Std. Error,"1 PACKAGE = 35.0g",1Value per 100 g,
Proximates
"Energy",kcal,--,--,160,457
"Protein",g,--,--,5.00,14.29
"Total lipid (fat)",g,--,--,10.00,28.57
"Carbohydrate, by difference",g,--,--,18.00,51.43
"Fiber, total dietary",g,--,--,2.0,5.7
"Sugars, total",g,--,--,11.00,31.43
Minerals
"Calcium, Ca",mg,--,--,20,57
"Iron, Fe",mg,--,--,1.03,2.94
"Sodium, Na",mg,--,--,75,214
Vitamins
"Vitamin C, total ascorbic acid",mg,--,--,0.0,0.0
"Vitamin A, IU",IU,--,--,0,0
Lipids
"Fatty acids, total saturated",g,--,--,2.499,7.140
"Fatty acids, total monounsaturated",g,--,--,3.500,10.000
"Fatty acids, total polyunsaturated",g,--,--,2.999,8.570
"Fatty acids, total trans",g,--,--,0.000,0.000
"Cholesterol",mg,--,--,0,0
Amino Acids
Other
Ingredients
"PEANUTS (PEANUTS, VEGETABLE OIL [PEANUT, COTTONSEED, CANOLA AND/OR, SOYBEAN OIL], SALT), RAISINS, CHOCOLATE FLAVORED CANDIES (CONFECTIONERY COATING [SUGAR, PARTIALLY HYDROGENATED PALM KERNEL OIL, COCOA POWDER, WHEY POWDER, NONFAT MILK POWDER, SOY LECITHIN, VANILLIN (AN ARTIFICIAL FLAVOR)], SUGAR, ARTIFICIAL COLORING [INCLUDES RED 40 LAKE, YELLOW 6 LAKE, YELLOW 6,YELLOW 5 LAKE, BLUE 2 LAKE BLUE 1 LAKE], GUM ARABIC, CORN SYRUP, CONFECTIONER'S GLAZE), SUNFLOWER KERNELS (SUNFLOWER KERNELS [VEGETABLE OIL, PEANUT, COTTONSEED, SOYBEAN AND/OR, CANOLA OIL], SALT)." Date available: 07/14/2017 Date last updated by company: 07/14/2017
