Source: USDA Branded Food Products Database Release December 2017 Software v.3.8.6.4 2017-10-02
Report Run at: December 18, 2017 00:10 EST
"Nutrient data for: 45143196, NATURE'S NECTAR, SUPER GREEN SMOOTHIE, UPC: 041498298821"
Food Group:  Branded Food Products Database
Common Name:

Nutrient,Unit,Data points,Std. Error,"8.0 OZA = 240.0g",1Value per 100 g,
Proximates
"Energy",kcal,--,--,120,50
"Protein",g,--,--,1.01,0.42
"Total lipid (fat)",g,--,--,0.00,0.00
"Carbohydrate, by difference",g,--,--,27.00,11.25
"Fiber, total dietary",g,--,--,1.9,0.8
"Sugars, total",g,--,--,24.00,10.00
Minerals
"Calcium, Ca",mg,--,--,19,8
"Iron, Fe",mg,--,--,0.36,0.15
"Potassium, K",mg,--,--,350,146
"Sodium, Na",mg,--,--,19,8
Vitamins
"Vitamin C, total ascorbic acid",mg,--,--,66.0,27.5
"Vitamin A, IU",IU,--,--,1001,417
Lipids
"Fatty acids, total saturated",g,--,--,0.000,0.000
"Fatty acids, total trans",g,--,--,0.000,0.000
"Cholesterol",mg,--,--,0,0
Amino Acids
Other
Ingredients
"PINEAPPLE JUICE FROM CONCENTRATE (WATER, CONCENTRATED PINEAPPLE JUICE), APPLE JUICE FROM CONCENTRATE (WATER, CONCENTRATED APPLE JUICE), MANGO PUREE, BANANA PUREE, KIWI JUICE FROM CONCENTRATE (WATER, CONCENTRATE KIWI JUICE), PECTIN, SPIRULINA, CHORELLA, SPINACH, BROCCOLI, BARLEY GRASS, WHEAT GRASS, ECHINACEA, GARLIC, ARTICHOKE, LEMON BIOFLAVONOIDS, DULSE, GREEN TEA, NATURAL FLAVOR, ASCORBIC ACID (VITAMIN C)." Date available: 07/14/2017 Date last updated by company: 07/14/2017
