Source: USDA Branded Food Products Database Release December 2017 Software v.3.8.6.4 2017-10-02
Report Run at: December 17, 2017 23:38 EST
"Nutrient data for: 45058843, NATURAL ELECTROLYTE ENHANCED DRINK TABS, UPC: 811660020457"
Food Group:  Branded Food Products Database
Common Name:

Nutrient,Unit,Data points,Std. Error,"1 Tablet = 5.3g",1Value per 100 g,
Proximates
"Energy",kcal,--,--,12,226
"Carbohydrate, by difference",g,--,--,4.00,75.47
"Sugars, total",g,--,--,1.00,18.87
Minerals
"Calcium, Ca",mg,--,--,13,245
"Magnesium, Mg",mg,--,--,25,472
"Potassium, K",mg,--,--,101,1906
"Sodium, Na",mg,--,--,359,6774
Vitamins
"Vitamin C, total ascorbic acid",mg,--,--,38000.0,716981.1
Lipids
Amino Acids
Other
Ingredients
"CITRIC ACID, DEXTROSE, NATURAL FLAVORS, MONK FRUIT EXTRACT, VEGETABLE JUICE COLOR STEVIA LEAF EXTRACT, AVOCADO OIL, RIBOFLAVIN(FOR COLOR)" Date last updated by company: 01/23/2016
