Source: USDA Branded Food Products Database Release December 2017 Software v.3.8.6.4 2017-10-02
Report Run at: December 18, 2017 00:08 EST
"Nutrient data for: 45010817, NATURE'S HARVEST, SANTA FE TRAIL MIX, UPC: 071725728173"
Food Group:  Branded Food Products Database
Common Name:

Nutrient,Unit,Data points,Std. Error,"0.333 cup = 30.0g",1Value per 100 g,
Proximates
"Energy",kcal,--,--,150,500
"Protein",g,--,--,5.00,16.67
"Total lipid (fat)",g,--,--,9.00,30.00
"Carbohydrate, by difference",g,--,--,14.00,46.67
"Fiber, total dietary",g,--,--,2.0,6.7
"Sugars, total",g,--,--,1.00,3.33
Minerals
"Calcium, Ca",mg,--,--,20,67
"Iron, Fe",mg,--,--,1.20,4.00
"Sodium, Na",mg,--,--,300,1000
Vitamins
"Vitamin C, total ascorbic acid",mg,--,--,0.0,0.0
"Vitamin A, IU",IU,--,--,0,0
Lipids
"Fatty acids, total saturated",g,--,--,1.500,5.000
"Fatty acids, total trans",g,--,--,0.000,0.000
"Cholesterol",mg,--,--,0,0
Amino Acids
Other
Ingredients
"PEANUTS (PEANUTS, PEANUT OIL AND/OR COTTONSEED OIL AND/OR CANOLA OIL AND/OR SOYBEAN OIL, SALT), ROASTED CORN (CORN, SUNFLOWER OIL, SALT), CHILI CRACKERS (GLUTINOUS RICE, SOY SAUCE (WATER, SOYBEANS, WHEAT, SALT), SUGAR, MODIFIED TAPIOCA STARCH, CHILI POWDER, COLOR ADDED (YELLOW 6, YELLOW 5)), SESAME STICKS (UNBLEACHED WHEAT FLOUR (CONTAINS MALTED BARLEY FLOUR AS A NATURAL ENZYME ADDITIVE), SOYBEAN OIL, SESAME SEEDS, BULGUR WHEAT, SALT, COLORED WITH (BEET POWDER AND TURMERIC)), CHILI LEMON CORN STICKS (YELLOW CORN MASA, SOYBEAN OIL, CHILI LEMON SEASONING (MALTODEXTRIN, SALT, PAPRIKA AND OTHER SPICES, CITRIC ACID, ONION POWDER, TOMATO POWDER, GARLIC POWDER, NATURAL FLAVOR, CHILI PEPPER, PAPRIKA EXTRACT, COCOA POWDER (WITH ALKALI), PARTIALLY HYDROGENATED SOYBEAN OIL)), PEPITAS (PUMPKIN KERNELS, PEANUT OIL, SALT), SEASONING (SALT, SPICES, DEXTROSE, YELLOW CORN FLOUR, ONION POWDER, MONOSODIUM GLUTAMATE, HYDROLYZED CORN PROTEIN, GARLIC POWDER, TOMATO POWDER, EXTRACTIVES OF PAPRIKA, NATURAL FLAVOR, CARAMEL COLOR, SILICON DIOXIDE (ANTI-CAKING AGENT))." Date available: 07/14/2017 Date last updated by company: 07/14/2017
