Source: USDA Branded Food Products Database Release December 2017 Software v.3.8.6.4 2017-10-02
Report Run at: December 17, 2017 23:55 EST
"Nutrient data for: 45208195, NATURAL SHREDDED ROASTED GARLIC MONTEREY JACK CHEESE & LOW MOISTURE PART-SKIM MOZZARELLA CHEESE & PROVOLONE CHEESE, UPC: 054783301830"
Food Group:  Branded Food Products Database
Common Name:

Nutrient,Unit,Data points,Std. Error,"1 OZ = 28.0g",1Value per 100 g,
Proximates
"Energy",kcal,--,--,100,357
"Protein",g,--,--,7.00,25.00
"Total lipid (fat)",g,--,--,8.00,28.57
"Carbohydrate, by difference",g,--,--,1.00,3.57
"Fiber, total dietary",g,--,--,0.0,0.0
"Sugars, total",g,--,--,0.00,0.00
Minerals
"Calcium, Ca",mg,--,--,200,714
"Iron, Fe",mg,--,--,0.00,0.00
"Sodium, Na",mg,--,--,240,857
Vitamins
"Vitamin C, total ascorbic acid",mg,--,--,0.0,0.0
"Vitamin A, IU",IU,--,--,535,1912
Lipids
"Fatty acids, total saturated",g,--,--,4.500,16.070
"Fatty acids, total trans",g,--,--,0.000,0.000
"Cholesterol",mg,--,--,20,71
Amino Acids
Other
Ingredients
"*ROASTED GARLIC MONTEREY JACK CHEESE: PASTEURIZED MILK, CHEESE CULTURE, SALT, ENZYMES, CARAMEL COLORING, AND GRANULATED ROASTED GARLIC. **LOW MOISTURE PART-SKIM MOZZARELLA CHEESE: PASTEURIZED PART-SKIM MILK, DAIRY PRODUCT SOURCED CHEESE CULTURE, SALT, AND VEGETABLE SOURCED ENZYMES. ***PROVOLONE CHEESE: PASTEURIZED MILK, DAIRY PRODUCT SOURCED CHEESE CULTURE, SALT, AND VEGETABLE SOURCED ENZYMES. POTATO STARCH AND POWDERED CELLULOSE ADDED TO PREVENT CAKING, AND NATAMYCIN (A NATURAL MOLD INHIBITOR)." Date available: 10/13/2017 Date last updated by company: 10/13/2017
