Source: USDA Branded Food Products Database Release December 2017 Software v.3.8.6.4 2017-10-02
Report Run at: December 18, 2017 00:07 EST
"Nutrient data for: 45164641, NATURE'S HARVEST, DARK CHOCOLATE COVERED RAISINS, UPC: 071725749291"
Food Group:  Branded Food Products Database
Common Name:

Nutrient,Unit,Data points,Std. Error,"3.0 Tbsp = 38.0g",1Value per 100 g,
Proximates
"Energy",kcal,--,--,150,395
"Protein",g,--,--,1.00,2.63
"Total lipid (fat)",g,--,--,6.00,15.79
"Carbohydrate, by difference",g,--,--,27.00,71.05
"Fiber, total dietary",g,--,--,2.0,5.3
"Sugars, total",g,--,--,21.00,55.26
Minerals
"Calcium, Ca",mg,--,--,0,0
"Iron, Fe",mg,--,--,0.95,2.49
"Sodium, Na",mg,--,--,0,0
Vitamins
"Vitamin C, total ascorbic acid",mg,--,--,0.0,0.0
"Vitamin A, IU",IU,--,--,0,0
Lipids
"Fatty acids, total saturated",g,--,--,4.001,10.530
"Fatty acids, total trans",g,--,--,0.000,0.000
"Cholesterol",mg,--,--,0,0
Amino Acids
Other
Ingredients
"DARK CHOCOLATE (SUGAR, CHOCOLATE LIQUOR, COCOA BUTTER, SOY LECITHIN, VANILLA), RAISINS, GUM ARABIC. CORN SYRUP, CONFECTIONERS GLAZE" Date available: 07/14/2017 Date last updated by company: 07/14/2017
