Source: USDA Branded Food Products Database Release December 2017 Software v.3.8.6.4 2017-10-02
Report Run at: December 17, 2017 23:45 EST
"Nutrient data for: 45150292, NATURALLY FLAVORED PECAN ROOT BEER, UPC: 852174005004"
Food Group:  Branded Food Products Database
Common Name:

Nutrient,Unit,Data points,Std. Error,"12.0 OZA = 355.0g",1Value per 100 g,
Proximates
"Energy",kcal,--,--,170,48
"Protein",g,--,--,0.00,0.00
"Total lipid (fat)",g,--,--,0.00,0.00
"Carbohydrate, by difference",g,--,--,45.01,12.68
"Sugars, total",g,--,--,43.98,12.39
Minerals
"Sodium, Na",mg,--,--,14,4
Vitamins
Lipids
Amino Acids
Other
Ingredients
"CARBONATED WATER, SUGAR, NATURAL FLAVORS, CARAMEL COLOR, PHOSPHORIC ACID, SODIUM BENZOATE (PRESERVATIVE), POTASSIUM SORBATE (PRESERVATIVE)." Date available: 07/14/2017 Date last updated by company: 07/14/2017
