Source: USDA Branded Food Products Database Release December 2017 Software v.3.8.6.4 2017-10-02
Report Run at: December 17, 2017 23:36 EST
"Nutrient data for: 45086261, NATURAL DIRECTIONS, ORGANIC CHILI BEANS, UPC: 015400196321"
Food Group:  Branded Food Products Database
Common Name:

Nutrient,Unit,Data points,Std. Error,"0.5 cup = 130.0g",1Value per 100 g,
Proximates
"Energy",kcal,--,--,140,108
"Protein",g,--,--,8.00,6.15
"Total lipid (fat)",g,--,--,1.50,1.15
"Carbohydrate, by difference",g,--,--,25.00,19.23
"Fiber, total dietary",g,--,--,7.0,5.4
"Sugars, total",g,--,--,2.00,1.54
Minerals
"Calcium, Ca",mg,--,--,60,46
"Iron, Fe",mg,--,--,1.79,1.38
"Sodium, Na",mg,--,--,350,269
Vitamins
"Vitamin C, total ascorbic acid",mg,--,--,0.0,0.0
"Vitamin A, IU",IU,--,--,200,154
Lipids
"Fatty acids, total saturated",g,--,--,0.000,0.000
"Fatty acids, total trans",g,--,--,0.000,0.000
"Cholesterol",mg,--,--,0,0
Amino Acids
Other
Ingredients
"ORGANIC PINTO BEANS, WATER, ORGANIC TOMATO PASTE, SEA SALT, ORGANIC CHILI SEASONING ( ORGANIC SPICES, SALT, ORGANIC GARLIC), ORGANIC CORN STARCH, ORGANIC SOYBEAN OIL, ORGANIC SUGAR." Date available: 06/25/2017 Date last updated by company: 06/25/2017
