Source: USDA Branded Food Products Database Release December 2017 Software v.3.8.6.4 2017-10-02
Report Run at: December 17, 2017 23:58 EST
"Nutrient data for: 45293332, NATURAL SWISS CHEESE SLICES, UPC: 041268187614"
Food Group:  Branded Food Products Database
Common Name:

Nutrient,Unit,Data points,Std. Error,"1 SLICE = 19.0g",1Value per 100 g,
Proximates
"Energy",kcal,--,--,60,316
"Protein",g,--,--,6.00,31.58
"Total lipid (fat)",g,--,--,4.00,21.05
"Carbohydrate, by difference",g,--,--,0.00,0.00
"Fiber, total dietary",g,--,--,0.0,0.0
"Sugars, total",g,--,--,0.00,0.00
Minerals
"Calcium, Ca",mg,--,--,200,1053
"Iron, Fe",mg,--,--,0.00,0.00
"Potassium, K",mg,--,--,15,79
"Sodium, Na",mg,--,--,40,211
Vitamins
"Vitamin D",IU,--,--,0,0
Lipids
"Fatty acids, total saturated",g,--,--,2.500,13.160
"Fatty acids, total trans",g,--,--,0.000,0.000
"Cholesterol",mg,--,--,15,79
Amino Acids
Other
Ingredients
"PASTEURIZED PART-SKIM MILK, CHEESE CULTURE, SALT, ENZYMES, VITAMIN A PALMITATE." Date available: 09/23/2017 Date last updated by company: 09/23/2017
