Source: USDA Branded Food Products Database Release December 2017 Software v.3.8.6.4 2017-10-02
Report Run at: December 17, 2017 23:38 EST
"Nutrient data for: 45331675, NATURAL ESSENCE WATER, UPC: 798304411263"
Food Group:  Branded Food Products Database
Common Name:

Nutrient,Unit,Data points,Std. Error,"1 BOTTLE = 473.0g",1Value per 100 g,
Proximates
"Energy",kcal,--,--,9,2
"Protein",g,--,--,0.00,0.00
"Total lipid (fat)",g,--,--,0.00,0.00
"Carbohydrate, by difference",g,--,--,12.01,2.54
"Fiber, total dietary",g,--,--,5.2,1.1
"Sugars, total",g,--,--,0.00,0.00
Minerals
"Sodium, Na",mg,--,--,0,0
Vitamins
Lipids
Amino Acids
Other
Ingredients
"FILTERED WATER, ERYTHRITOL, INULIN (FIBER), CITRIC ACID, NATURAL FLAVOR, STEVIA" Date available: 10/13/2017 Date last updated by company: 10/13/2017
