Source: USDA Branded Food Products Database Release December 2017 Software v.3.8.6.4 2017-10-02
Report Run at: December 17, 2017 23:41 EST
"Nutrient data for: 45167143, NATURAL ISSIMA, UNCURED HARD SALAMI PANINO, SMOKE, UPC: 017869874468"
Food Group:  Branded Food Products Database
Common Name:

Nutrient,Unit,Data points,Std. Error,"4.0 PIECES = 85.0g",1Value per 100 g,
Proximates
"Energy",kcal,--,--,300,353
"Protein",g,--,--,17.00,20.00
"Total lipid (fat)",g,--,--,25.00,29.41
"Carbohydrate, by difference",g,--,--,2.00,2.35
"Fiber, total dietary",g,--,--,0.0,0.0
"Sugars, total",g,--,--,0.00,0.00
Minerals
"Calcium, Ca",mg,--,--,250,294
"Iron, Fe",mg,--,--,0.23,0.27
"Sodium, Na",mg,--,--,360,424
Vitamins
"Vitamin C, total ascorbic acid",mg,--,--,0.0,0.0
"Vitamin A, IU",IU,--,--,324,381
Lipids
"Fatty acids, total saturated",g,--,--,12.002,14.120
"Fatty acids, total trans",g,--,--,0.000,0.000
"Cholesterol",mg,--,--,30,35
Amino Acids
Other
Ingredients
"MOZZARELLA CHEESE INGREDIENTS: PASTEURIZED MILK, CHEESE CULTURES, SALT, ENZYMES. HARD SALAMI INGREDIENTS: PORK, SEA SALT, CONTAINS LESS THAN 2% OF THE FOLLOWING: TURBINADO SUGAR, NATURAL FLAVORING, WINE, NATURAL SMOKE FLAVOR, GARLIC, CELERY POWDER, LACTIC ACID, STARTER CULTURE." Date available: 10/13/2017 Date last updated by company: 10/13/2017
