Source: USDA Branded Food Products Database Release December 2017 Software v.3.8.6.4 2017-10-02
Report Run at: December 17, 2017 23:58 EST
"Nutrient data for: 45314617, NATURAL THREE GRAIN BREAD, UPC: 084213000736"
Food Group:  Branded Food Products Database
Common Name:

Nutrient,Unit,Data points,Std. Error,"1 PIECE = 72.0g",1Value per 100 g,
Proximates
"Energy",kcal,--,--,120,167
"Protein",g,--,--,4.00,5.56
"Total lipid (fat)",g,--,--,2.00,2.78
"Carbohydrate, by difference",g,--,--,24.00,33.33
"Fiber, total dietary",g,--,--,6.0,8.3
"Sugars, total",g,--,--,0.00,0.00
Minerals
"Calcium, Ca",mg,--,--,40,56
"Iron, Fe",mg,--,--,1.87,2.60
"Sodium, Na",mg,--,--,340,472
Vitamins
"Vitamin C, total ascorbic acid",mg,--,--,0.0,0.0
"Thiamin",mg,--,--,0.000,0.000
"Riboflavin",mg,--,--,0.071,0.098
"Niacin",mg,--,--,0.556,0.772
"Vitamin A, IU",IU,--,--,0,0
Lipids
"Fatty acids, total saturated",g,--,--,0.000,0.000
"Fatty acids, total trans",g,--,--,0.000,0.000
"Cholesterol",mg,--,--,0,0
Amino Acids
Other
Ingredients
"WHOLE KERNEL RYE, WATER, WHOLEMEAL RYE FLOUR, OAT KERNELS, BARLEY KERNELS, FLAX SEED, SALT, OAT FIBER, SESAME SEEDS, YEAST." Date available: 07/14/2017 Date last updated by company: 07/14/2017
