Source: USDA Branded Food Products Database Release December 2017 Software v.3.8.6.4 2017-10-02
Report Run at: December 18, 2017 00:13 EST
"Nutrient data for: 45051673, NATURE'S PLACE, ORGANIC MICROWAVE POPCORN, BUTTER, UPC: 725439942539"
Food Group:  Branded Food Products Database
Common Name:

Nutrient,Unit,Data points,Std. Error,"0.333 OF BAG = 33.0g",1Value per 100 g,
Proximates
"Energy",kcal,--,--,140,424
"Protein",g,--,--,2.00,6.06
"Total lipid (fat)",g,--,--,6.00,18.18
"Carbohydrate, by difference",g,--,--,20.00,60.61
"Fiber, total dietary",g,--,--,3.0,9.1
"Sugars, total",g,--,--,1.00,3.03
Minerals
"Calcium, Ca",mg,--,--,0,0
"Iron, Fe",mg,--,--,1.09,3.31
"Sodium, Na",mg,--,--,270,818
Vitamins
"Vitamin C, total ascorbic acid",mg,--,--,0.0,0.0
"Vitamin A, IU",IU,--,--,0,0
Lipids
"Fatty acids, total saturated",g,--,--,2.501,7.580
"Fatty acids, total trans",g,--,--,0.000,0.000
"Cholesterol",mg,--,--,0,0
Amino Acids
Other
Ingredients
"CERTIFIED ORGANIC GOURMET YELLOW POPCORN, CERTIFIED ORGANIC PALM OIL, CERTIFIED ORGANIC BUTTER FLAVOR (DIACETYL FREE), SALT." Date available: 07/14/2017 Date last updated by company: 07/14/2017
