Source: USDA Branded Food Products Database Release December 2017 Software v.3.8.6.4 2017-10-02
Report Run at: December 17, 2017 23:47 EST
"Nutrient data for: 45003509, NATURALLY SELECT, YOGURT RAISINS, UPC: 071725701527"
Food Group:  Branded Food Products Database
Common Name:

Nutrient,Unit,Data points,Std. Error,"16.0 PIECES = 30.0g",1Value per 100 g,
Proximates
"Energy",kcal,--,--,140,467
"Protein",g,--,--,1.00,3.33
"Total lipid (fat)",g,--,--,6.00,20.00
"Carbohydrate, by difference",g,--,--,22.00,73.33
"Fiber, total dietary",g,--,--,1.0,3.3
"Sugars, total",g,--,--,20.00,66.67
Minerals
"Calcium, Ca",mg,--,--,0,0
"Iron, Fe",mg,--,--,0.00,0.00
"Sodium, Na",mg,--,--,15,50
Vitamins
"Vitamin C, total ascorbic acid",mg,--,--,0.0,0.0
"Vitamin A, IU",IU,--,--,0,0
Lipids
"Fatty acids, total saturated",g,--,--,5.001,16.670
"Fatty acids, total trans",g,--,--,0.000,0.000
"Cholesterol",mg,--,--,0,0
Amino Acids
Other
Ingredients
"YOGURT COATING (SUGAR, PARTIALLY HYDROGENATED VEGETABLE OIL (PALM KERNEL, COCONUT, PALM), NONFAT MILK, YOGURT POWDER (CULTURED WHEY (MILK), NONFAT MILK), COLORED WITH TITANIUM DIOXIDE, LACTIC ACID, SOY LECITHIN (AN EMULSIFIER), VANILLIN (AN ARTIFICIAL FLAVORING)), RAISINS, CONFECTIONER'S GLAZE (SHELLAC), GUM ARABIC, CORN SYRUP, TAPIOCA DEXTRIN." Date available: 06/25/2017 Date last updated by company: 06/25/2017
