Source: USDA Branded Food Products Database Release December 2017 Software v.3.8.6.4 2017-10-02
Report Run at: December 17, 2017 23:41 EST
"Nutrient data for: 45218604, NATURAL HAPPY HEART TRAIL MIX, UPC: 030684700927"
Food Group:  Branded Food Products Database
Common Name:

Nutrient,Unit,Data points,Std. Error,"0.25 cup = 30.0g",1Value per 100 g,
Proximates
"Energy",kcal,--,--,143,477
"Protein",g,--,--,3.00,10.00
"Total lipid (fat)",g,--,--,8.00,26.67
"Carbohydrate, by difference",g,--,--,16.30,54.33
"Fiber, total dietary",g,--,--,2.0,6.7
"Sugars, total",g,--,--,11.50,38.33
Minerals
"Calcium, Ca",mg,--,--,0,0
"Iron, Fe",mg,--,--,0.00,0.00
"Sodium, Na",mg,--,--,1,3
Vitamins
"Vitamin C, total ascorbic acid",mg,--,--,0.0,0.0
"Vitamin A, IU",IU,--,--,0,0
Lipids
"Fatty acids, total saturated",g,--,--,0.801,2.670
"Fatty acids, total trans",g,--,--,0.000,0.000
"Cholesterol",mg,--,--,0,0
Amino Acids
Other
Ingredients
"CRANBERRIES, CASHEWS, ALMONDS, WALNUTS, PUMPKIN KERNELS, SUGAR, CITRIC ACID AND SUNFLOWER OIL." Date available: 07/14/2017 Date last updated by company: 07/14/2017
