Source: USDA Branded Food Products Database Release December 2017 Software v.3.8.6.4 2017-10-02
Report Run at: December 18, 2017 00:01 EST
"Nutrient data for: 45033733, NATURE ADDICTS, FRUIT STICKS, APPLE RASPBERRY, UPC: 855752005007"
Food Group:  Branded Food Products Database
Common Name:

Nutrient,Unit,Data points,Std. Error,"1 POUCH = 30.0g",1Value per 100 g,
Proximates
"Energy",kcal,--,--,100,333
"Protein",g,--,--,0.00,0.00
"Total lipid (fat)",g,--,--,0.00,0.00
"Carbohydrate, by difference",g,--,--,24.00,80.00
"Fiber, total dietary",g,--,--,1.0,3.3
"Sugars, total",g,--,--,19.00,63.33
Minerals
"Iron, Fe",mg,--,--,1.44,4.80
"Sodium, Na",mg,--,--,10,33
Vitamins
Lipids
Amino Acids
Other
Ingredients
"CONCENTRATED APPLE PUREE, CONCENTRATE APPLE JUICE, RASPBERRY PUREE, CONCENTRATED ELDERBERRY JUICE, PECTIN (FROM FRUIT), CITRUS FIBER, NATURAL RASPBERRY FLAVOR." Date available: 10/04/2017 Date last updated by company: 10/04/2017
