Source: USDA Branded Food Products Database Release December 2017 Software v.3.8.6.4 2017-10-02
Report Run at: December 17, 2017 23:48 EST
"Nutrient data for: 45243484, NATURALLY SWEET BALSAMIC, UPC: 892579004370"
Food Group:  Branded Food Products Database
Common Name:

Nutrient,Unit,Data points,Std. Error,"16.0 | BOTTLE = 15.0g",1Value per 100 g,
Proximates
"Energy",kcal,--,--,10,67
"Protein",g,--,--,0.00,0.00
"Total lipid (fat)",g,--,--,0.00,0.00
"Carbohydrate, by difference",g,--,--,3.00,20.00
"Sugars, total",g,--,--,3.00,20.00
Minerals
"Iron, Fe",mg,--,--,1.20,8.00
"Sodium, Na",mg,--,--,0,0
Vitamins
Lipids
"Fatty acids, total trans",g,--,--,0.000,0.000
Amino Acids
Other
Ingredients
"GRAPE MUST, WINE VINEGAR, AND CHOCOLATE ESSENCE." Date available: 06/25/2017 Date last updated by company: 06/25/2017
