Source: USDA Branded Food Products Database Release December 2017 Software v.3.8.6.4 2017-10-02
Report Run at: December 18, 2017 00:16 EST
"Nutrient data for: 45205477, NATURE'S RANCHER, HONEY GINGER & SOY COOKING & GRILLING SAUCE, UPC: 634098425508"
Food Group:  Branded Food Products Database
Common Name:

Nutrient,Unit,Data points,Std. Error,"1 Tbsp = 15.0g",1Value per 100 g,
Proximates
"Energy",kcal,--,--,20,133
"Protein",g,--,--,0.00,0.00
"Total lipid (fat)",g,--,--,0.00,0.00
"Carbohydrate, by difference",g,--,--,3.00,20.00
"Fiber, total dietary",g,--,--,0.0,0.0
"Sugars, total",g,--,--,3.00,20.00
Minerals
"Calcium, Ca",mg,--,--,0,0
"Iron, Fe",mg,--,--,0.00,0.00
"Sodium, Na",mg,--,--,170,1133
Vitamins
"Vitamin C, total ascorbic acid",mg,--,--,4.8,32.0
"Vitamin A, IU",IU,--,--,0,0
Lipids
"Fatty acids, total saturated",g,--,--,0.000,0.000
"Fatty acids, total trans",g,--,--,0.000,0.000
"Cholesterol",mg,--,--,0,0
Amino Acids
Other
Ingredients
"WATER, TAMARI SAUCE (WATER, SOYBEANS, WHEAT, SALT), HONEY, WHITE VINEGAR, BROWN SUGAR, GINGER, GARLIC PUREE (GARLIC, WATER, CITRIC ACID), CRUSHED RED PEPPERS, SOYBEAN OIL, SESAME OIL, XANTHAN GUM." Date available: 07/14/2017 Date last updated by company: 07/14/2017
