Source: USDA Branded Food Products Database Release December 2017 Software v.3.8.6.4 2017-10-02
Report Run at: December 18, 2017 00:07 EST
"Nutrient data for: 45233537, NATURE'S HARVEST, HONEY WHEATBERRY BREAD, UPC: 078700801777"
Food Group:  Branded Food Products Database
Common Name:

Nutrient,Unit,Data points,Std. Error,"1 SLICE = 31.0g",1Value per 100 g,
Proximates
"Energy",kcal,--,--,80,258
"Protein",g,--,--,3.00,9.68
"Total lipid (fat)",g,--,--,1.00,3.23
"Carbohydrate, by difference",g,--,--,15.00,48.39
"Fiber, total dietary",g,--,--,1.0,3.2
"Sugars, total",g,--,--,2.00,6.45
Minerals
"Calcium, Ca",mg,--,--,40,129
"Iron, Fe",mg,--,--,1.16,3.75
"Sodium, Na",mg,--,--,125,403
Vitamins
"Vitamin C, total ascorbic acid",mg,--,--,0.0,0.0
"Thiamin",mg,--,--,0.000,0.000
"Riboflavin",mg,--,--,0.034,0.110
"Niacin",mg,--,--,1.936,6.245
"Vitamin A, IU",IU,--,--,0,0
Lipids
"Fatty acids, total saturated",g,--,--,0.000,0.000
"Fatty acids, total monounsaturated",g,--,--,0.000,0.000
"Fatty acids, total polyunsaturated",g,--,--,0.000,0.000
"Fatty acids, total trans",g,--,--,0.000,0.000
"Cholesterol",mg,--,--,0,0
Amino Acids
Other
Ingredients
"WHOLE WHEAT FLOUR, WATER, ENRICHED WHEAT FLOUR [FLOUR, MALTED BARLEY FLOUR, REDUCED IRON, NIACIN, THIAMIN MONONITRATE (VITAMIN B1), RIBOFLAVIN (VITAMIN B2), FOLIC ACID], BULGUR WHEAT, WHEAT GLUTEN, HONEY, YEAST, SUGAR, CRUSHED WHEAT, SALT, SOYBEAN OIL, MOLASSES, CALCIUM PROPIONATE (PRESERVATIVE), MONOGLYCERIDES, DATEM, GRAIN VINEGAR, CALCIUM SULFATE, SOY LECITHIN, CITRIC ACID, POTASSIUM IODATE." Date available: 07/11/2017 Date last updated by company: 07/11/2017
