Source: USDA Branded Food Products Database Release December 2017 Software v.3.8.6.4 2017-10-02
Report Run at: December 18, 2017 00:17 EST
"Nutrient data for: 45057278, NATURE'S WAY, NATURE'S MIX, UPC: 609722844185"
Food Group:  Branded Food Products Database
Common Name:

Nutrient,Unit,Data points,Std. Error,"1.1 ONZ = 30.0g",1Value per 100 g,
Proximates
"Energy",kcal,--,--,120,400
"Protein",g,--,--,2.00,6.67
"Total lipid (fat)",g,--,--,4.00,13.33
"Carbohydrate, by difference",g,--,--,20.00,66.67
"Fiber, total dietary",g,--,--,3.0,10.0
"Sugars, total",g,--,--,14.00,46.67
Minerals
"Calcium, Ca",mg,--,--,40,133
"Iron, Fe",mg,--,--,1.80,6.00
"Sodium, Na",mg,--,--,10,33
Vitamins
"Vitamin C, total ascorbic acid",mg,--,--,2.0,6.7
"Vitamin A, IU",IU,--,--,166,555
Lipids
"Fatty acids, total saturated",g,--,--,0.999,3.330
"Fatty acids, total trans",g,--,--,0.000,0.000
"Cholesterol",mg,--,--,0,0
Amino Acids
Other
Ingredients
"ROASTED PEANUTS (COTTONSEED OIL), RAISINS (SUNFLOWER OIL), CRANBERRIES (SUGAR, SUNFLOWER OIL), PINEAPPLE (SUGAR), PAPAYA (SUGAR), ROASTED ALMONDS (COTTONSEED OIL), ROASTED CASHEWS (COTTONSEED OIL)." Date available: 07/14/2017 Date last updated by company: 07/14/2017
