Source: USDA Branded Food Products Database Release December 2017 Software v.3.8.6.4 2017-10-02
Report Run at: December 18, 2017 00:22 EST
"Nutrient data for: 45045835, NAVY BEANS, UPC: 041331024907"
Food Group:  Branded Food Products Database
Common Name:

Nutrient,Unit,Data points,Std. Error,"0.25 cup = 38.0g",1Value per 100 g,
Proximates
"Energy",kcal,--,--,127,333
"Protein",g,--,--,8.44,22.22
"Total lipid (fat)",g,--,--,0.42,1.11
"Carbohydrate, by difference",g,--,--,22.80,60.00
"Fiber, total dietary",g,--,--,5.9,15.6
"Sugars, total",g,--,--,1.69,4.44
Minerals
"Calcium, Ca",mg,--,--,51,133
"Iron, Fe",mg,--,--,2.28,6.00
"Potassium, K",mg,--,--,448,1178
"Sodium, Na",mg,--,--,0,0
Vitamins
"Vitamin C, total ascorbic acid",mg,--,--,0.0,0.0
"Vitamin A, IU",IU,--,--,0,0
Lipids
"Fatty acids, total saturated",g,--,--,0.000,0.000
"Fatty acids, total trans",g,--,--,0.000,0.000
"Cholesterol",mg,--,--,0,0
Amino Acids
Other
Ingredients
"NAVY BEANS" Date available: 03/31/2017 Date last updated by company: 03/31/2017
