Source: USDA Branded Food Products Database Release December 2017 Software v.3.8.6.4 2017-10-02
Report Run at: December 18, 2017 00:25 EST
"Nutrient data for: 45331628, NEAPOLITAN ICE CREAM, UPC: 015418007893"
Food Group:  Branded Food Products Database
Common Name:

Nutrient,Unit,Data points,Std. Error,"0.667 cup = 85.0g",1Value per 100 g,
Proximates
"Energy",kcal,--,--,160,188
"Protein",g,--,--,3.00,3.53
"Total lipid (fat)",g,--,--,9.00,10.59
"Carbohydrate, by difference",g,--,--,20.00,23.53
"Fiber, total dietary",g,--,--,0.0,0.0
"Sugars, total",g,--,--,16.00,18.82
Minerals
"Calcium, Ca",mg,--,--,93,109
"Iron, Fe",mg,--,--,0.00,0.00
"Potassium, K",mg,--,--,184,216
"Sodium, Na",mg,--,--,50,59
Vitamins
"Vitamin D",IU,--,--,0,0
Lipids
"Fatty acids, total saturated",g,--,--,6.001,7.060
"Fatty acids, total trans",g,--,--,0.000,0.000
"Cholesterol",mg,--,--,35,41
Amino Acids
Other
Ingredients
"MILK, CREAM, SUGAR, CORN SYRUP, SKIM MILK SOLIDS, STRAWBERRY PUREE (STRAWBERRIES, CORN SYRUP, SUGAR, WATER, FRUIT AND VEGETABLE JUICES [COLOR], CAROB BEAN GUM), WHEY, COCOA (PROCESSED WITH ALKALI) STABILIZED AND EMULSIFIED BY MONO AND DIGLYCERIDES, CELLULOSE GUM, CALCIUM SULFATE, GUAR GUM, AND CARRAGEENAN, NATURAL COLOR (WATER BEET JUICE, ANNATTO AND TURMERIC), NATURAL AND ARTIFICIAL FLAVOR." Date available: 10/13/2017 Date last updated by company: 10/13/2017
