Source: USDA Branded Food Products Database Release December 2017 Software v.3.8.6.4 2017-10-02
Report Run at: December 18, 2017 00:25 EST
"Nutrient data for: 45225153, NEAPOLITAN, LIGHT ICE CREAM, UPC: 034500634267"
Food Group:  Branded Food Products Database
Common Name:

Nutrient,Unit,Data points,Std. Error,"0.5 cup = 63.0g",1Value per 100 g,
Proximates
"Energy",kcal,--,--,110,175
"Protein",g,--,--,3.00,4.76
"Total lipid (fat)",g,--,--,3.50,5.56
"Carbohydrate, by difference",g,--,--,17.00,26.98
"Fiber, total dietary",g,--,--,0.0,0.0
"Sugars, total",g,--,--,14.00,22.22
Minerals
"Calcium, Ca",mg,--,--,100,159
"Iron, Fe",mg,--,--,0.00,0.00
"Sodium, Na",mg,--,--,50,79
Vitamins
"Vitamin C, total ascorbic acid",mg,--,--,0.0,0.0
"Vitamin A, IU",IU,--,--,338,536
Lipids
"Fatty acids, total saturated",g,--,--,2.501,3.970
"Fatty acids, total trans",g,--,--,0.000,0.000
"Cholesterol",mg,--,--,15,24
Amino Acids
Other
Ingredients
"MILKFAT AND NONFAT MILK, SUGAR, CORN SYRUP, CONTAINS LESS THAN 2% OF WHEY, COCOA PROCESSED WITH ALKALI, STRAWBERRIES, PROPYLENE GLYCOL MONOESTER, MONO & DIGLYCERIDES, GUAR GUM, CELLULOSE GUM, CARRAGEENAN, NATURAL AND ARTIFICIAL FLAVOR, CAROB BEAN GUM, STRAWBERRY SEEDS, RED #40, VITAMIN A PALMITATE, ANNATTO (COLOR)." Date available: 07/14/2017 Date last updated by company: 07/14/2017
