Source: USDA Branded Food Products Database Release December 2017 Software v.3.8.6.4 2017-10-02
Report Run at: December 18, 2017 00:28 EST
"Nutrient data for: 45228318, NECTAR, UPC: 041331028004"
Food Group:  Branded Food Products Database
Common Name:

Nutrient,Unit,Data points,Std. Error,"8.0 OZA = 240.0g",1Value per 100 g,
Proximates
"Energy",kcal,--,--,149,62
"Protein",g,--,--,0.00,0.00
"Total lipid (fat)",g,--,--,0.00,0.00
"Carbohydrate, by difference",g,--,--,36.00,15.00
"Fiber, total dietary",g,--,--,1.0,0.4
"Sugars, total",g,--,--,34.01,14.17
Minerals
"Calcium, Ca",mg,--,--,19,8
"Iron, Fe",mg,--,--,0.00,0.00
"Sodium, Na",mg,--,--,29,12
Vitamins
"Vitamin C, total ascorbic acid",mg,--,--,60.0,25.0
"Vitamin A, IU",IU,--,--,0,0
Lipids
"Fatty acids, total saturated",g,--,--,0.000,0.000
"Fatty acids, total trans",g,--,--,0.000,0.000
"Cholesterol",mg,--,--,0,0
Amino Acids
Other
Ingredients
"WATER, LIQUID INVERT SUGAR, TAMARIND PUREE, NATURAL FLAVOR AND ASCORBIC ACID (VITAMIN C)." Date available: 07/14/2017 Date last updated by company: 07/14/2017
