Source: USDA Branded Food Products Database Release December 2017 Software v.3.8.6.4 2017-10-02
Report Run at: December 18, 2017 00:28 EST
"Nutrient data for: 45145388, NECTAR, UPC: 717544202561"
Food Group:  Branded Food Products Database
Common Name:

Nutrient,Unit,Data points,Std. Error,"1 cup = 240.0g",1Value per 100 g,
Proximates
"Energy",kcal,--,--,139,58
"Protein",g,--,--,1.01,0.42
"Total lipid (fat)",g,--,--,0.00,0.00
"Carbohydrate, by difference",g,--,--,34.99,14.58
"Fiber, total dietary",g,--,--,1.0,0.4
"Sugars, total",g,--,--,33.00,13.75
Minerals
"Calcium, Ca",mg,--,--,199,83
"Iron, Fe",mg,--,--,1.80,0.75
"Sodium, Na",mg,--,--,14,6
Vitamins
"Vitamin C, total ascorbic acid",mg,--,--,60.0,25.0
"Vitamin A, IU",IU,--,--,101,42
Lipids
"Fatty acids, total saturated",g,--,--,0.000,0.000
"Fatty acids, total trans",g,--,--,0.000,0.000
"Cholesterol",mg,--,--,0,0
Amino Acids
Other
Ingredients
"WATER, STRAWBERRY PUREE, SUGAR, BANANA PUREE, CALCIUM LACTATE, CITRIC ACID, SODIUM CITRATE, NATURAL VEGETABLE COLOR, GUAR GUM, ASCORBIC ACID (VITAMIN C) AND NATURAL FLAVORS." Date available: 07/14/2017 Date last updated by company: 07/14/2017
