Source: USDA Branded Food Products Database Release December 2017 Software v.3.8.6.4 2017-10-02
Report Run at: December 18, 2017 00:30 EST
"Nutrient data for: 45044380, NEILLY'S, YUCA FRIES, UPC: 188314000609"
Food Group:  Branded Food Products Database
Common Name:

Nutrient,Unit,Data points,Std. Error,"1 cup = 227.0g",1Value per 100 g,
Proximates
"Energy",kcal,--,--,213,94
"Protein",g,--,--,2.00,0.88
"Total lipid (fat)",g,--,--,0.66,0.29
"Carbohydrate, by difference",g,--,--,51.01,22.47
"Fiber, total dietary",g,--,--,2.0,0.9
"Sugars, total",g,--,--,2.00,0.88
Minerals
"Calcium, Ca",mg,--,--,20,9
"Iron, Fe",mg,--,--,0.14,0.06
"Sodium, Na",mg,--,--,257,113
Vitamins
"Vitamin C, total ascorbic acid",mg,--,--,6.8,3.0
"Vitamin A, IU",IU,--,--,0,0
Lipids
"Fatty acids, total saturated",g,--,--,0.000,0.000
"Cholesterol",mg,--,--,0,0
Amino Acids
Other
Ingredients
"YUCA, WATER, SALT" Date available: 06/24/2017 Date last updated by company: 06/24/2017
