Source: USDA Branded Food Products Database Release December 2017 Software v.3.8.6.4 2017-10-02
Report Run at: December 18, 2017 00:30 EST
"Nutrient data for: 45044373, NEILLY'S, JERK CHICKEN WITH RICE & BEANS, UPC: 088314000428"
Food Group:  Branded Food Products Database
Common Name:

Nutrient,Unit,Data points,Std. Error,"10.0 ONZ = 283.0g",1Value per 100 g,
Proximates
"Energy",kcal,--,--,300,106
"Protein",g,--,--,21.99,7.77
"Total lipid (fat)",g,--,--,2.49,0.88
"Carbohydrate, by difference",g,--,--,47.01,16.61
"Fiber, total dietary",g,--,--,5.1,1.8
"Sugars, total",g,--,--,5.01,1.77
Minerals
"Calcium, Ca",mg,--,--,79,28
"Iron, Fe",mg,--,--,2.49,0.88
"Sodium, Na",mg,--,--,1571,555
Vitamins
"Vitamin C, total ascorbic acid",mg,--,--,2.5,0.9
"Vitamin A, IU",IU,--,--,1551,548
Lipids
"Fatty acids, total saturated",g,--,--,0.509,0.180
"Fatty acids, total trans",g,--,--,0.000,0.000
"Cholesterol",mg,--,--,40,14
Amino Acids
Other
Ingredients
"COOKED RICE (WATER, LONG GRAIN PAR-BOILED RICE, SALT, IRON PHOSPHATE, NIACIN, THIAMINE MONONITRATE, FOLIC ACID)), COOKED CHICKEN (BONELESS SKINLESS CHICKEN BREAST MEAT WITH RIB MEAT, WATER, ISOLATED SOY PROTEIN PRODUCT (ISOLATED SOY PROTEIN, MODIFIED FOOD STARCH, CORN STARCH, CARRAGEENAN WITH LESS THAN 2% SOY LECITHIN), SEASONING (POTASSIUM CITRATE, CITRIC ACID, SODIUM DIACETATE, VEGETABLE OIL), SALT, SODIUM PHOPSPHATES, CARRAGEENAN), KIDNEY BEANS (DARK RED KIDNEY BEANS, WATER, SALT, CALCIUM CHLORIDE, AND DISODIUM EDTA (TO PRESERVE COLOR)), WATER, ONIONS, LEEKS, JERK SEASONING (SPICES, SALT, SUGAR, PAPRIKA, AND DEHYDRATED GARLIC AND ONION)" Date available: 06/24/2017 Date last updated by company: 06/24/2017
