Source: USDA Branded Food Products Database Release December 2017 Software v.3.8.6.4 2017-10-02
Report Run at: December 18, 2017 00:30 EST
"Nutrient data for: 45235073, NEOGURI, UPC: 031146022991"
Food Group:  Branded Food Products Database
Common Name:

Nutrient,Unit,Data points,Std. Error,"8.0 CONTAINER = 60.0g",1Value per 100 g,
Proximates
"Energy",kcal,--,--,260,433
"Protein",g,--,--,4.00,6.67
"Total lipid (fat)",g,--,--,8.00,13.33
"Carbohydrate, by difference",g,--,--,42.00,70.00
"Fiber, total dietary",g,--,--,1.0,1.7
"Sugars, total",g,--,--,2.00,3.33
Minerals
"Calcium, Ca",mg,--,--,0,0
"Iron, Fe",mg,--,--,1.20,2.00
"Sodium, Na",mg,--,--,1010,1683
Vitamins
"Vitamin C, total ascorbic acid",mg,--,--,0.0,0.0
"Vitamin A, IU",IU,--,--,0,0
Lipids
"Fatty acids, total saturated",g,--,--,3.498,5.830
"Fatty acids, total monounsaturated",g,--,--,3.000,5.000
"Fatty acids, total polyunsaturated",g,--,--,1.002,1.670
"Fatty acids, total trans",g,--,--,0.000,0.000
"Cholesterol",mg,--,--,0,0
Amino Acids
Other
Ingredients
"ENRICHED WHEAT FLOUR (WHEAT FLOUR, NIACIN, REDUCED IRON, THIAMINE MONONITRATE, RIBOFLAVIN, FOLIC ACID), PALM OIL, POTATO STARCH, MODIFIED POTATO STARCH, SALT, CONTAINS LESS THAN 2% OF EACH OF THE FOLLOWING: ANCHOVY EXTRACT*, ANCHOVY*, BEEF EXTRACT*, BEEF FAT*, BEEF STOCK*, BLACK PEPPER*, BONITO EXTRACT*, CARAMEL* (COLOR), CORN SYRUP*, CUTTLEFISH EXTRACT*, DEHYDRATED VEGETABLES (SEAWEED, CARROT, GREEN ONION), DEXTROSE, DISODIUM GUANYLATE, DISODIUM INOSINATE, DISODIUM SUCCINATE, GARLIC*, HYDROLYZED SOY PROTEIN, MALTODEXTRIN, MODIFIED CORN STARCH, MODIFIED TAPIOCA STARCH, MUSSEL*, NATURAL FLAVORS, ONION*, POTASSIUM CARBONATE, RADISH EXTRACT*, RED CHILI PEPPER*, RIBOFLAVIN (COLOR), SAND LANCE EXTRACT*, SODIUM CARBONATE, SODIUM PHOSPHATES, SOY*, SUGAR, TOCOPHEROLS (ANTIOXIDANT), TUNA EXTRACT*, WHEAT GLUTEN, YEAST EXTRACT, YELLOW CORN FLOUR." Date available: 07/14/2017 Date last updated by company: 07/14/2017
