Source: USDA Branded Food Products Database Release December 2017 Software v.3.8.6.4 2017-10-02
Report Run at: December 18, 2017 00:31 EST
"Nutrient data for: 45265334, NEPOLITAN CLASSIC ICE CREAM, UPC: 038259101988"
Food Group:  Branded Food Products Database
Common Name:

Nutrient,Unit,Data points,Std. Error,"0.5 cup = 68.0g",1Value per 100 g,
Proximates
"Energy",kcal,--,--,140,206
"Protein",g,--,--,3.00,4.41
"Total lipid (fat)",g,--,--,7.00,10.29
"Carbohydrate, by difference",g,--,--,17.00,25.00
"Fiber, total dietary",g,--,--,0.0,0.0
"Sugars, total",g,--,--,14.00,20.59
Minerals
"Calcium, Ca",mg,--,--,100,147
"Iron, Fe",mg,--,--,0.00,0.00
"Sodium, Na",mg,--,--,70,103
Vitamins
"Vitamin C, total ascorbic acid",mg,--,--,0.0,0.0
"Vitamin A, IU",IU,--,--,337,496
Lipids
"Fatty acids, total saturated",g,--,--,4.502,6.620
"Fatty acids, total trans",g,--,--,0.000,0.000
"Cholesterol",mg,--,--,30,44
Amino Acids
Other
Ingredients
"SKIM MILK, CREAM, SUGAR, CORN SYRUP, WHEY, STRAWBERRIES (STRAWBERRIES, WATER, CORN SYRUP, CORNSTARCH, SUGAR, NATURAL FLAVORS, BEET JUICE COLOR, SODIUM BENZOATE AND POTASSIUM SORBATE [PRESERVATIVES], CITRIC ACID, SODIUM CITRATE, GUAR GUM), COCOA PROCESSED WITH ALKALI, CONTAINS 2% OR LESS OF MONO- AND DIGLYCERIDES, GUAR GUM, CALCIUM SULFATE, LOCUST BEAN GUM, CARRAGEENAN, VANILLA EXTRACT, NATURAL STRAWBERRY FLAVOR, BEET JUICE COLOR, ANNATTO COLOR." Date available: 07/14/2017 Date last updated by company: 07/14/2017
