Source: USDA Branded Food Products Database Release December 2017 Software v.3.8.6.4 2017-10-02
Report Run at: December 18, 2017 00:31 EST
"Nutrient data for: 45245614, NERDS, SPOOKY SOFT & CHEWY ROPE CANDY, UPC: 079200753412"
Food Group:  Branded Food Products Database
Common Name:

Nutrient,Unit,Data points,Std. Error,"1 ROPE = 26.0g",1Value per 100 g,
Proximates
"Energy",kcal,--,--,90,346
"Protein",g,--,--,0.00,0.00
"Total lipid (fat)",g,--,--,0.00,0.00
"Carbohydrate, by difference",g,--,--,22.00,84.62
"Sugars, total",g,--,--,20.00,76.92
Minerals
"Sodium, Na",mg,--,--,5,19
Vitamins
Lipids
Amino Acids
Other
Ingredients
"DEXTROSE, SUGAR, CORN SYRUP, GELATIN, AND LESS THAN 2% OF MALIC ACID, GLYCERIN, NATURAL FLAVORS, CONFECTIONER'S GLAZE (LAC RESIN), CITRIC ACID, CARNAUBA WAX, COLOR ADDED, CARMINE COLOR, BLUE 1 LAKE, BLUE 2 LAKE, RED 40, RED 40 LAKE, YELLOW 6." Date available: 07/14/2017 Date last updated by company: 07/14/2017
