Source: USDA Branded Food Products Database Release December 2017 Software v.3.8.6.4 2017-10-02
Report Run at: December 18, 2017 00:33 EST
"Nutrient data for: 45248841, NESTLE, KIKAT CANDY, UPC: 691372700010"
Food Group:  Branded Food Products Database
Common Name:

Nutrient,Unit,Data points,Std. Error,"1.19 ONZ = 33.9g",1Value per 100 g,
Proximates
"Energy",kcal,--,--,189,558
"Protein",g,--,--,1.50,4.42
"Total lipid (fat)",g,--,--,11.00,32.45
"Carbohydrate, by difference",g,--,--,21.00,61.95
"Fiber, total dietary",g,--,--,1.0,2.9
"Sugars, total",g,--,--,15.00,44.25
Minerals
"Calcium, Ca",mg,--,--,0,0
"Iron, Fe",mg,--,--,0.53,1.57
"Sodium, Na",mg,--,--,75,221
Vitamins
"Vitamin C, total ascorbic acid",mg,--,--,3.5,10.4
"Vitamin A, IU",IU,--,--,0,0
Lipids
"Fatty acids, total saturated",g,--,--,5.000,14.750
"Fatty acids, total trans",g,--,--,0.000,0.000
"Cholesterol",mg,--,--,3,9
Amino Acids
Other
Ingredients
"CHOCOLATE (VEGETABLE OIL, SUGAR, LACTOSE, MILK POWDER, COCOA BUTTER), BISCUIT (WHEAT FLOUR SUGAR, VEGETABLE OIL, SALT), WHEAT FLOUR, LACTOSE VEGETABLE OIL, SUGAR, GREEN TEA PASTE, GREEN TEA POWDER, GREEN TEA, MILK POWDER, COCOA POWDER, YEAST, CACAO MASS, COCOA BUTTER, SOY LECITHIN, BAKING POWDER, FLAVOR, BAKING SODA, YEAST FOOD, VITAMIN E." Date available: 07/14/2017 Date last updated by company: 07/14/2017
