Source: USDA Branded Food Products Database Release December 2017 Software v.3.8.6.4 2017-10-02
Report Run at: December 18, 2017 00:45 EST
"Nutrient data for: 45091884, NEW YORK STYLE CHEESECAKE, UPC: 010374220003"
Food Group:  Branded Food Products Database
Common Name:

Nutrient,Unit,Data points,Std. Error,"1 SLICE = 85.0g",1Value per 100 g,
Proximates
"Energy",kcal,--,--,330,388
"Protein",g,--,--,4.00,4.71
"Total lipid (fat)",g,--,--,20.00,23.53
"Carbohydrate, by difference",g,--,--,33.00,38.82
"Fiber, total dietary",g,--,--,1.0,1.2
"Sugars, total",g,--,--,20.00,23.53
Minerals
"Calcium, Ca",mg,--,--,40,47
"Iron, Fe",mg,--,--,1.06,1.25
"Sodium, Na",mg,--,--,230,271
Vitamins
"Vitamin C, total ascorbic acid",mg,--,--,0.0,0.0
"Vitamin A, IU",IU,--,--,735,865
Lipids
"Fatty acids, total saturated",g,--,--,9.996,11.760
"Fatty acids, total trans",g,--,--,0.000,0.000
"Cholesterol",mg,--,--,50,59
Amino Acids
Other
Ingredients
"CREAM CHEESE [CULTURED CREAM AND MILK, SALT, XANTHAN, CAROB BEAN AND GUAR GUMS], SUGAR, WHOLE WHEAT FLOUR, MARGARINE [PALM OIL, WATER, SOYBEAN OIL, SALT, NATURAL FLAVOR (MILK), SOY LECITHIN, BETA CAROTENE (COLOR), VITAMIN A PALMITATE], MILK, CANOLA AND/OR PALM OIL, ENRICHED WHEAT FLOUR [WHEAT FLOUR, NIACIN, REDUCED IRON, THIAMIN MONONITRATE, RIBOFLAVIN, FOLIC ACID], SOUR CREAM [CULTURED MILK, CREAM, ENZYMES], SOYBEAN OIL, GLUCOSE, BROWN SUGAR, EGGS (DRIED), NATURAL FLAVOR, XANTHAN GUM, LOCUST BEAN GUM, GUAR GUM, SALT, INVERT SUGAR, MOLASSES AND CARAMEL COLOR, BAKING SODA, CINNAMON, APOCAROTENAL (COLOR)." Date available: 07/14/2017 Date last updated by company: 07/14/2017
