Source: USDA Branded Food Products Database Release December 2017 Software v.3.8.6.4 2017-10-02
Report Run at: December 18, 2017 00:37 EST
"Nutrient data for: 45259808, NEW ENGLAND'S GOURMET GRANOLA, UPC: 609728066758"
Food Group:  Branded Food Products Database
Common Name:

Nutrient,Unit,Data points,Std. Error,"0.25 cup = 28.0g",1Value per 100 g,
Proximates
"Energy",kcal,--,--,130,464
"Protein",g,--,--,2.00,7.14
"Total lipid (fat)",g,--,--,7.00,25.00
"Carbohydrate, by difference",g,--,--,15.00,53.57
"Fiber, total dietary",g,--,--,2.0,7.1
"Sugars, total",g,--,--,6.00,21.43
Minerals
"Calcium, Ca",mg,--,--,20,71
"Iron, Fe",mg,--,--,1.41,5.05
"Sodium, Na",mg,--,--,30,107
Vitamins
"Vitamin C, total ascorbic acid",mg,--,--,0.0,0.0
"Vitamin A, IU",IU,--,--,0,0
Lipids
"Fatty acids, total saturated",g,--,--,1.999,7.140
"Fatty acids, total trans",g,--,--,0.000,0.000
"Cholesterol",mg,--,--,0,0
Amino Acids
Other
Ingredients
"ROLLED OATS, PURE ORGANIC MAPLE SYRUP, SEMI-SWEET CHOCOLATE (SUGAR, CHOCOLATE, COCOA BUTTER, MILKFAT, SOY LECITHIN, NATURAL FLAVORS), ALMONDS, COCONUT, NON-GMO/EXPELLER-PRESSED CANOLA OIL, BROWN SUGAR, VANILLA, CINNAMON, SEA SALT" Date available: 07/14/2017 Date last updated by company: 07/14/2017
