Source: USDA Branded Food Products Database Release December 2017 Software v.3.8.6.4 2017-10-02
Report Run at: December 18, 2017 00:37 EST
"Nutrient data for: 45037074, NEW ENGLAND STYLE WHITE CLAM SAUCE, UPC: 070718001095"
Food Group:  Branded Food Products Database
Common Name:

Nutrient,Unit,Data points,Std. Error,"125.0 g = 125.0g",1Value per 100 g,
Proximates
"Energy",kcal,--,--,120,96
"Protein",g,--,--,8.00,6.40
"Total lipid (fat)",g,--,--,7.00,5.60
"Carbohydrate, by difference",g,--,--,7.00,5.60
"Fiber, total dietary",g,--,--,1.0,0.8
"Sugars, total",g,--,--,0.00,0.00
Minerals
"Calcium, Ca",mg,--,--,80,64
"Iron, Fe",mg,--,--,0.72,0.58
"Sodium, Na",mg,--,--,470,376
Vitamins
"Vitamin C, total ascorbic acid",mg,--,--,0.0,0.0
"Vitamin A, IU",IU,--,--,0,0
Lipids
"Fatty acids, total saturated",g,--,--,0.500,0.400
"Fatty acids, total trans",g,--,--,0.000,0.000
"Cholesterol",mg,--,--,20,16
Amino Acids
Other
Ingredients
"MILK, WATER, PREMIUM CHOPPED CLAMS, NON-GMO CANOLA OIL, WHEAT FLOUR, SALT, ONION, CANE JUICE, GARLIC, PARSLEY, PEPPER AND OREGANO." Date available: 03/22/2017 Date last updated by company: 03/22/2017
