Source: USDA Branded Food Products Database Release December 2017 Software v.3.8.6.4 2017-10-02
Report Run at: December 18, 2017 00:44 EST
"Nutrient data for: 45199347, NEW YORK MAPLE SYRUP, UPC: 091037960313"
Food Group:  Branded Food Products Database
Common Name:

Nutrient,Unit,Data points,Std. Error,"4.0 Tbsp = 60.0g",1Value per 100 g,
Proximates
"Energy",kcal,--,--,200,333
"Protein",g,--,--,0.00,0.00
"Total lipid (fat)",g,--,--,0.00,0.00
"Carbohydrate, by difference",g,--,--,53.00,88.33
"Sugars, total",g,--,--,53.00,88.33
Minerals
"Sodium, Na",mg,--,--,7,12
Vitamins
Lipids
"Fatty acids, total trans",g,--,--,0.000,0.000
Amino Acids
Other
Ingredients
"NEW YORK MAPLE SYRUP." Date available: 07/14/2017 Date last updated by company: 07/14/2017
