Source: USDA Branded Food Products Database Release December 2017 Software v.3.8.6.4 2017-10-02
Report Run at: December 18, 2017 00:34 EST
"Nutrient data for: 45168715, NEW BARN, ALMOND CREME, NON-DAIRY FROZEN DESSERT, ORGANIC VANILLA, UPC: 685248987605"
Food Group:  Branded Food Products Database
Common Name:

Nutrient,Unit,Data points,Std. Error,"0.5 cup = 118.0g",1Value per 100 g,
Proximates
"Energy",kcal,--,--,181,153
"Protein",g,--,--,5.00,4.24
"Total lipid (fat)",g,--,--,12.00,10.17
"Carbohydrate, by difference",g,--,--,17.00,14.41
"Fiber, total dietary",g,--,--,2.0,1.7
"Sugars, total",g,--,--,13.99,11.86
Minerals
"Calcium, Ca",mg,--,--,60,51
"Iron, Fe",mg,--,--,0.72,0.61
"Potassium, K",mg,--,--,140,119
"Sodium, Na",mg,--,--,15,13
Vitamins
"Vitamin C, total ascorbic acid",mg,--,--,0.0,0.0
"Vitamin A, IU",IU,--,--,0,0
Lipids
"Fatty acids, total saturated",g,--,--,1.003,0.850
"Fatty acids, total trans",g,--,--,0.000,0.000
"Cholesterol",mg,--,--,15,13
Amino Acids
Other
Ingredients
"WATER, ORGANIC ALMONDS, ORGANIC CANE SUGAR, ORGANIC EGG YOLKS, ORGANIC VANILLA (WATER, ORGANIC ALCOHOL, ORGANIC VANILLA BEAN EXTRACTIVES AND ORGANIC SUGAR), ORGANIC CAROB FLOUR, ORGANIC GROUND VANILLA BEANS SALT." Date available: 07/14/2017 Date last updated by company: 07/14/2017
