Source: USDA Branded Food Products Database Release December 2017 Software v.3.8.6.4 2017-10-02
Report Run at: December 18, 2017 00:43 EST
"Nutrient data for: 45258259, NEW YORK DATE BAR, UPC: 850906005018"
Food Group:  Branded Food Products Database
Common Name:

Nutrient,Unit,Data points,Std. Error,"1 PACKAGE = 43.0g",1Value per 100 g,
Proximates
"Energy",kcal,--,--,170,395
"Protein",g,--,--,2.00,4.65
"Total lipid (fat)",g,--,--,8.00,18.60
"Carbohydrate, by difference",g,--,--,28.00,65.12
"Fiber, total dietary",g,--,--,3.0,7.0
"Sugars, total",g,--,--,24.00,55.81
Minerals
"Calcium, Ca",mg,--,--,40,93
"Iron, Fe",mg,--,--,0.67,1.56
"Potassium, K",mg,--,--,289,672
"Sodium, Na",mg,--,--,0,0
Vitamins
Lipids
"Fatty acids, total saturated",g,--,--,0.499,1.160
Amino Acids
Other
Ingredients
"DATES, PECANS." Date available: 09/21/2017 Date last updated by company: 09/21/2017
