Source: USDA Branded Food Products Database Release December 2017 Software v.3.8.6.4 2017-10-02
Report Run at: December 18, 2017 00:45 EST
"Nutrient data for: 45210924, NEW YORK-STYLE CHEESECAKES, UPC: 853264005027"
Food Group:  Branded Food Products Database
Common Name:

Nutrient,Unit,Data points,Std. Error,"1 CHEESECAKE = 84.0g",1Value per 100 g,
Proximates
"Energy",kcal,--,--,290,345
"Protein",g,--,--,5.00,5.95
"Total lipid (fat)",g,--,--,19.00,22.62
"Carbohydrate, by difference",g,--,--,28.00,33.33
"Fiber, total dietary",g,--,--,1.0,1.2
"Sugars, total",g,--,--,23.00,27.38
Minerals
"Calcium, Ca",mg,--,--,60,71
"Iron, Fe",mg,--,--,1.07,1.27
"Sodium, Na",mg,--,--,200,238
Vitamins
"Vitamin C, total ascorbic acid",mg,--,--,0.0,0.0
"Vitamin A, IU",IU,--,--,669,797
Lipids
"Fatty acids, total saturated",g,--,--,9.996,11.900
"Fatty acids, total trans",g,--,--,0.000,0.000
"Cholesterol",mg,--,--,90,107
Amino Acids
Other
Ingredients
"CREAM CHEESE (PASTEURIZED MILK AND CREAM, CHEESE CULTURE, SALT, STABILIZERS [CAROB BEAN AND/OR XANTHAN AND/OR GUAR GUMS]), SUGAR, EGGS, ENRICHED FLOUR BLEACHED (WHEAT FLOUR, NIACIN, IRON, THIAMIN MONONITRATE, RIBOFLAVIN, FOLIC ACID), MILK, CREAM, BUTTER, HIGH FRUCTOSE CORN SYRUP, CONTAINS LESS THAN 2% OF THE FOLLOWING: SALT, COCOA POWDER PROCESSED WITH ALKALI, SOYBEAN OIL, PALM OIL, PALM OIL KERNEL, BAKING SODA, HONEY, WATER, ALCOHOL, NATURAL FLAVOR, DISODIUM PHOSPHATE, SODIUM CITRATE, CARRAGEENAN, PROPYLENE GLYCOL, ETHYL ALCOHOL, CITRIC ACID." Date available: 07/14/2017 Date last updated by company: 07/14/2017
