Source: USDA Branded Food Products Database Release December 2017 Software v.3.8.6.4 2017-10-02
Report Run at: December 18, 2017 00:46 EST
"Nutrient data for: 45287706, NEW YORK-STYLE CHEESECAKE, UPC: 492180200644"
Food Group:  Branded Food Products Database
Common Name:

Nutrient,Unit,Data points,Std. Error,"1 SLICE = 113.0g",1Value per 100 g,
Proximates
"Energy",kcal,--,--,320,283
"Protein",g,--,--,4.99,4.42
"Total lipid (fat)",g,--,--,16.00,14.16
"Carbohydrate, by difference",g,--,--,39.00,34.51
"Fiber, total dietary",g,--,--,1.0,0.9
"Sugars, total",g,--,--,29.00,25.66
Minerals
"Calcium, Ca",mg,--,--,60,53
"Iron, Fe",mg,--,--,0.79,0.70
"Sodium, Na",mg,--,--,370,327
Vitamins
"Vitamin C, total ascorbic acid",mg,--,--,0.0,0.0
"Vitamin A, IU",IU,--,--,443,392
Lipids
"Fatty acids, total saturated",g,--,--,10.000,8.850
"Fatty acids, total trans",g,--,--,0.000,0.000
"Cholesterol",mg,--,--,60,53
Amino Acids
Other
Ingredients
"CREAM CHEESE (PASTEURIZED MILK AND CREAM, CHEESE CULTURE, SALT, STABILIZERS [CAROB BEAN GUM, XANTHAN GUM, GUAR GUM]), SUGAR, WATER, HONEY GRAHAM CRUMBS (UNBLEACHED WHEAT FLOUR, GRAHAM FLOUR, SUGAR, PALM, AND PALM KERNEL OIL, MOLASSES, HONEY, SALT, SODIUM BICARBONATE), SOUR CREAM (CULTURED CREAM, MODIFIED FOOD STARCH, SODIUM PHOSPHATE, GUAR GUM, CARRAGEENAN, LOCUST BEAN GUM, POTASSIUM SORBATE [PRESERVATIVE]), WHOLE EGGS WITH CITRIC ACID (PRESERVATIVE), MARGARINE (PALM OIL, WATER, SALT, MONO AND DIGLYCERIDES, ARTIFICIAL BUTTER FLAVOR, ANNATTO [COLOR], CALCIUM DISODIUM EDTA [PRESERVATIVE], VITAMIN A PALMITATE ADDED), WHEY PROTEIN CONCENTRATE, CORN STARCH, DARK BROWN SUGAR, NATURAL FLAVORS, SALT, MODIFIED FOOD STARCH, MILK, LACTIC ACID, CREAM, ORANGE JUICE FROM CONCENTRATE (WATER, ORANGE JUICE CONCENTRATE), LEMON JUICE FROM CONCENTRATE (WATER, LEMON JUICE CONCENTRATE, SODIUM BISULFITE AND SODIUM BENZOATE [PRESERVATIVES], LEMON OIL), SPICE, XANTHAN GUM, POTASSIUM SORBATE [PRESERVATIVES], ENZYMES, CHEESE CULTURE, SOY LECITHIN." Date available: 10/05/2017 Date last updated by company: 10/05/2017
