Source: USDA Branded Food Products Database Release December 2017 Software v.3.8.6.4 2017-10-02
Report Run at: December 18, 2017 00:39 EST
"Nutrient data for: 45056450, NEWMAN'S OWN, LITE ITALIAN DRESSING, UPC: 020662000033"
Food Group:  Branded Food Products Database
Common Name:

Nutrient,Unit,Data points,Std. Error,"2.0 Tbsp = 30.0g",1Value per 100 g,
Proximates
"Energy",kcal,--,--,60,200
"Protein",g,--,--,0.00,0.00
"Total lipid (fat)",g,--,--,6.00,20.00
"Carbohydrate, by difference",g,--,--,1.00,3.33
"Fiber, total dietary",g,--,--,0.0,0.0
"Sugars, total",g,--,--,0.00,0.00
Minerals
"Calcium, Ca",mg,--,--,0,0
"Iron, Fe",mg,--,--,0.00,0.00
"Sodium, Na",mg,--,--,260,867
Vitamins
"Vitamin C, total ascorbic acid",mg,--,--,0.0,0.0
"Vitamin A, IU",IU,--,--,0,0
Lipids
"Fatty acids, total saturated",g,--,--,0.999,3.330
"Fatty acids, total trans",g,--,--,0.000,0.000
"Cholesterol",mg,--,--,0,0
Amino Acids
Other
Ingredients
"WATER, RED WINE VINEGAR, OLIVE OIL, VEGETABLE OIL (SOYBEAN OIL AND/OR CANOLA OIL), EXTRA VIRGIN OLIVE OIL, SALT, ONION, CONTAINS 2% OR LESS OF: SPICES, DISTILLED VINEGAR, GARLIC, LEMON JUICE CONCENTRATE, XANTHAN GUM, NATURAL FLAVOR, TURMERIC (COLOR)." Date available: 07/14/2017 Date last updated by company: 07/14/2017
