Source: USDA Branded Food Products Database Release December 2017 Software v.3.8.6.4 2017-10-02
Report Run at: December 18, 2017 00:38 EST
"Nutrient data for: 45056482, NEWMAN'S OWN, DRESSING, POPPY SEED, UPC: 020662004727"
Food Group:  Branded Food Products Database
Common Name:

Nutrient,Unit,Data points,Std. Error,"2.0 Tbsp = 30.0g",1Value per 100 g,
Proximates
"Energy",kcal,--,--,140,467
"Protein",g,--,--,0.00,0.00
"Total lipid (fat)",g,--,--,13.00,43.33
"Carbohydrate, by difference",g,--,--,5.00,16.67
"Fiber, total dietary",g,--,--,0.0,0.0
"Sugars, total",g,--,--,5.00,16.67
Minerals
"Calcium, Ca",mg,--,--,20,67
"Iron, Fe",mg,--,--,0.00,0.00
"Sodium, Na",mg,--,--,220,733
Vitamins
"Vitamin C, total ascorbic acid",mg,--,--,0.0,0.0
"Vitamin A, IU",IU,--,--,0,0
Lipids
"Fatty acids, total saturated",g,--,--,2.001,6.670
"Fatty acids, total trans",g,--,--,0.000,0.000
"Cholesterol",mg,--,--,0,0
Amino Acids
Other
Ingredients
"VEGETABLE OIL (SOYBEAN OIL AND/OR CANOLA OIL), WATER, SUGAR, APPLE CIDER VINEGAR, DISTILLED VINEGAR, ONION, CONTAINS 2% OR LESS OF: SALT, POPPY SEEDS, MUSTARD FLOUR, XANTHAN GUM, CITRIC ACID." Date available: 07/14/2017 Date last updated by company: 07/14/2017
