Source: USDA Branded Food Products Database Release December 2017 Software v.3.8.6.4 2017-10-02
Report Run at: December 18, 2017 00:38 EST
"Nutrient data for: 45030776, NEWMAN'S OWN, DARK CHOCOLATE, UPC: 757645013000"
Food Group:  Branded Food Products Database
Common Name:

Nutrient,Unit,Data points,Std. Error,"1 BAR = 92.0g",1Value per 100 g,
Proximates
"Energy",kcal,--,--,470,511
"Protein",g,--,--,4.00,4.35
"Total lipid (fat)",g,--,--,32.00,34.78
"Carbohydrate, by difference",g,--,--,53.00,57.61
"Fiber, total dietary",g,--,--,6.0,6.5
"Sugars, total",g,--,--,41.00,44.57
Minerals
"Calcium, Ca",mg,--,--,40,43
"Iron, Fe",mg,--,--,1.46,1.59
"Sodium, Na",mg,--,--,10,11
Vitamins
"Vitamin C, total ascorbic acid",mg,--,--,0.0,0.0
"Vitamin A, IU",IU,--,--,0,0
Lipids
"Fatty acids, total saturated",g,--,--,18.998,20.650
"Fatty acids, total trans",g,--,--,0.000,0.000
"Cholesterol",mg,--,--,0,0
Amino Acids
Other
Ingredients
"ORGANIC DARK CHOCOLATE (ORGANIC SUGAR, ORGANIC CHOCOLATE LIQUOR*, ORGANIC COCOA BUTTER*, ORGANIC SOY LECITHIN [AN EMULSIFIER], ORGANIC VANILLA)." Date available: 07/14/2017 Date last updated by company: 07/14/2017
