Source: USDA Branded Food Products Database Release December 2017 Software v.3.8.6.4 2017-10-02
Report Run at: December 18, 2017 00:39 EST
"Nutrient data for: 45007038, NEWMAN'S OWN, LIGHTEN UP!, LIGHT CAESAR DRESSING, UPC: 020662002884"
Food Group:  Branded Food Products Database
Common Name:

Nutrient,Unit,Data points,Std. Error,"2.0 Tbsp = 30.0g",1Value per 100 g,
Proximates
"Energy",kcal,--,--,70,233
"Protein",g,--,--,1.00,3.33
"Total lipid (fat)",g,--,--,6.00,20.00
"Carbohydrate, by difference",g,--,--,3.00,10.00
"Fiber, total dietary",g,--,--,0.0,0.0
"Sugars, total",g,--,--,2.00,6.67
Minerals
"Calcium, Ca",mg,--,--,40,133
"Iron, Fe",mg,--,--,0.00,0.00
"Sodium, Na",mg,--,--,380,1267
Vitamins
"Vitamin C, total ascorbic acid",mg,--,--,0.0,0.0
"Vitamin A, IU",IU,--,--,0,0
Lipids
"Fatty acids, total saturated",g,--,--,0.999,3.330
"Fatty acids, total trans",g,--,--,0.000,0.000
"Cholesterol",mg,--,--,5,17
Amino Acids
Other
Ingredients
"WATER, VEGETABLE OIL (SOYBEAN OIL AND/OR CANOLA OIL), DISTILLED VINEGAR, ROMANO CHEESE (PASTEURIZED MILK, CHEESE CULTURE, ENZYMES, SALT), SUGAR, SALT, GARLIC*, CONTAINS 2% OR LESS OF: RED PEPPER, SPICE, ANCHOVIES, LEMON JUICE CONCENTRATE, MUSTARD SEED, XANTHAN GUM." Date available: 07/14/2017 Date last updated by company: 07/14/2017
