Source: USDA Branded Food Products Database Release December 2017 Software v.3.8.6.4 2017-10-02
Report Run at: December 18, 2017 00:38 EST
"Nutrient data for: 45006280, NEWMAN'S OWN, COMPLETE SKILLET MEAL FOR TWO, CHICKEN FETTUCCINI ALFREDO, UPC: 020662005113"
Food Group:  Branded Food Products Database
Common Name:

Nutrient,Unit,Data points,Std. Error,"0.5 PACKAGE = 340.0g",1Value per 100 g,
Proximates
"Energy",kcal,--,--,411,121
"Protein",g,--,--,24.99,7.35
"Total lipid (fat)",g,--,--,12.00,3.53
"Carbohydrate, by difference",g,--,--,48.99,14.41
"Fiber, total dietary",g,--,--,3.1,0.9
"Sugars, total",g,--,--,7.99,2.35
Minerals
"Calcium, Ca",mg,--,--,201,59
"Iron, Fe",mg,--,--,0.82,0.24
"Sodium, Na",mg,--,--,881,259
Vitamins
"Vitamin C, total ascorbic acid",mg,--,--,15.6,4.6
"Vitamin A, IU",IU,--,--,575,169
Lipids
"Fatty acids, total saturated",g,--,--,4.998,1.470
"Fatty acids, total trans",g,--,--,0.000,0.000
"Cholesterol",mg,--,--,109,32
Amino Acids
Other
Ingredients
"ALFREDO SAUCE (WHOLE MILK, WATER, SEASONING [PARMESAN & ROMANO CHEESE BLEND (MADE FROM COW'S MILK) {MILK, CHEESE CULTURES, SALT, ENZYMES}, CORN STARCH, WHOLE MILK, MALTODEXTRIN, BUTTER {SWEET CREAM, SALT}, SALT, NONFAT DRY MILK, YEAST EXTRACT, SUGAR, GARLIC?, LACTIC ACID, ONION?, SPICE], WHITE WINE, OLIVE OIL), BLANCHED FETTUCCINI PASTA (WATER, DURUM WHEAT SEMOLINA, EGGS), FULLY COOKED SKINLESS BONELESS CHICKEN WHITE MEAT STRIPS (SKINLESS BONELESS CHICKEN BREAST MEAT WITH RIB MEAT, WATER, RICE STARCH, SEA SALT, GARLIC, ONION, PEPPER AND CELERY), RED BELL PEPPER, DICED TOMATO, PORTOBELLO MUSHROOMS." Date available: 07/14/2017 Date last updated by company: 07/14/2017
