Source: USDA Branded Food Products Database Release December 2017 Software v.3.8.6.4 2017-10-02
Report Run at: December 18, 2017 00:48 EST
"Nutrient data for: 45146927, NFLPA, QUARTERBACK GUMMIES, UPC: 818480010491"
Food Group:  Branded Food Products Database
Common Name:

Nutrient,Unit,Data points,Std. Error,"8.0 PIECES = 40.0g",1Value per 100 g,
Proximates
"Energy",kcal,--,--,160,400
"Protein",g,--,--,3.00,7.50
"Total lipid (fat)",g,--,--,0.00,0.00
"Carbohydrate, by difference",g,--,--,36.00,90.00
"Fiber, total dietary",g,--,--,0.0,0.0
"Sugars, total",g,--,--,21.00,52.50
Minerals
"Sodium, Na",mg,--,--,5,12
Vitamins
Lipids
"Fatty acids, total saturated",g,--,--,0.000,0.000
"Fatty acids, total trans",g,--,--,0.000,0.000
"Cholesterol",mg,--,--,0,0
Amino Acids
Other
Ingredients
"CORN SYRUP, SUGAR, BEEF GELATINE, APPLE JUICE FROM CONCENTRATE, CITRIC ACID, PALM OIL, ARTIFICIAL FLAVORS, CARNAUBA WAX, BEES WAX, COLORS (YELLOW NO.5, RED NO.40, BLUE NO.1, YELLOW NO.6)." Date available: 07/14/2017 Date last updated by company: 07/14/2017
