Source: USDA Branded Food Products Database Release December 2017 Software v.3.8.6.4 2017-10-02
Report Run at: December 18, 2017 00:54 EST
"Nutrient data for: 45104217, NICE!, PEANUT LOVER'S TRAIL MIX, UPC: 049022846524"
Food Group:  Branded Food Products Database
Common Name:

Nutrient,Unit,Data points,Std. Error,"0.25 cup = 32.0g",1Value per 100 g,
Proximates
"Energy",kcal,--,--,170,531
"Protein",g,--,--,5.00,15.62
"Total lipid (fat)",g,--,--,10.00,31.25
"Carbohydrate, by difference",g,--,--,15.00,46.88
"Fiber, total dietary",g,--,--,2.0,6.2
"Sugars, total",g,--,--,8.00,25.00
Minerals
"Calcium, Ca",mg,--,--,20,62
"Iron, Fe",mg,--,--,0.56,1.75
"Sodium, Na",mg,--,--,100,312
Vitamins
"Vitamin C, total ascorbic acid",mg,--,--,0.0,0.0
"Vitamin A, IU",IU,--,--,0,0
Lipids
"Fatty acids, total saturated",g,--,--,3.002,9.380
"Fatty acids, total trans",g,--,--,0.000,0.000
"Cholesterol",mg,--,--,0,0
Amino Acids
Other
Ingredients
"PEANUTS (PEANUTS, VEGETABLE OIL [PEANUT, COTTONSEED, CANOLA AND/OR SOYBEAN OIL], SALT), PEANUT BUTTER FLAVORED DROPS (SUGAR, PALM KERNEL AND PALM OIL, PARTIALLY DEFATTED PEANUT FLOUR, WHEY POWDER, NONFAT DRY MILK, PEANUTS, ANHYDROUS DEXTROSE, SALT, SOY LECITHIN), M&M'S PEANUT CHOCOLATE CANDIES (MILK CHOCOLATE [SUGAR, CHOCOLATE, COCOA BUTTER, SKIM MILK, LACTOSE, MILKFAT, PEANUTS, SOY LECITHIN, SALT, ARTIFICIAL FLAVORS], SUGAR, PEANUTS, CORNSTARCH, LESS THAN 1% - CORN SYRUP, DEXTRIN COLORING [INCLUDES BLUE 1 LAKE, YELLOW 6, RED 40, YELLOW 5, BLUE 1, YELLOW 6 LAKE, RED 40 LAKE, YELLOW 5 LAKE, BLUE 2 LAKE, BLUE 2]. GUM ACACIA), PRETZELS (WHEAT FLOUR, SALT, VEGETABLE OIL [SUNFLOWER, CANOLA AND/OR RICE OIL], CORN SYRUP, MALT SYRUP, YEAST)." Date available: 06/25/2017 Date last updated by company: 06/25/2017
