Source: USDA Branded Food Products Database Release December 2017 Software v.3.8.6.4 2017-10-02
Report Run at: December 18, 2017 00:53 EST
"Nutrient data for: 45104288, NICE!, MAYO {MAYONNAISE}, UPC: 049022865204"
Food Group:  Branded Food Products Database
Common Name:

Nutrient,Unit,Data points,Std. Error,"1 Tbsp = 14.0g",1Value per 100 g,
Proximates
"Energy",kcal,--,--,100,714
"Protein",g,--,--,0.00,0.00
"Total lipid (fat)",g,--,--,11.00,78.57
"Carbohydrate, by difference",g,--,--,0.00,0.00
"Fiber, total dietary",g,--,--,0.0,0.0
"Sugars, total",g,--,--,0.00,0.00
Minerals
"Calcium, Ca",mg,--,--,0,0
"Iron, Fe",mg,--,--,0.00,0.00
"Sodium, Na",mg,--,--,80,571
Vitamins
"Vitamin C, total ascorbic acid",mg,--,--,0.0,0.0
"Vitamin A, IU",IU,--,--,0,0
Lipids
"Fatty acids, total saturated",g,--,--,1.499,10.710
"Fatty acids, total monounsaturated",g,--,--,2.500,17.860
"Fatty acids, total polyunsaturated",g,--,--,6.000,42.860
"Fatty acids, total trans",g,--,--,0.000,0.000
"Cholesterol",mg,--,--,10,71
Amino Acids
Other
Ingredients
"SOYBEAN OIL, WATER, WHOLE EGGS, EGG YOLKS, DISTILLED VINEGAR, CONTAINS LESS THAN 2% SALT, SUGAR, NATURAL FLAVOR, CONCENTRATED LEMON JUICE, PAPRIKA EXTRACT (COLOR), CALCIUM, DISODIUM EDTA TO PROTECT FLAVOR." Date available: 06/25/2017 Date last updated by company: 06/25/2017
