Source: USDA Branded Food Products Database Release December 2017 Software v.3.8.6.4 2017-10-02
Report Run at: December 18, 2017 00:52 EST
"Nutrient data for: 45103770, NICE!, FRUIT SNACK, UPC: 049022643000"
Food Group:  Branded Food Products Database
Common Name:

Nutrient,Unit,Data points,Std. Error,"1 POUCH = 26.0g",1Value per 100 g,
Proximates
"Energy",kcal,--,--,80,308
"Protein",g,--,--,1.00,3.85
"Total lipid (fat)",g,--,--,0.00,0.00
"Carbohydrate, by difference",g,--,--,20.00,76.92
"Fiber, total dietary",g,--,--,0.0,0.0
"Sugars, total",g,--,--,13.00,50.00
Minerals
"Calcium, Ca",mg,--,--,0,0
"Iron, Fe",mg,--,--,0.00,0.00
"Sodium, Na",mg,--,--,10,38
Vitamins
"Vitamin C, total ascorbic acid",mg,--,--,1153.9,4437.9
"Vitamin A, IU",IU,--,--,0,0
Lipids
"Fatty acids, total saturated",g,--,--,0.000,0.000
"Fatty acids, total trans",g,--,--,0.000,0.000
"Cholesterol",mg,--,--,0,0
Amino Acids
Other
Ingredients
"CORN SYRUP, APPLE JUICE FROM CONCENTRATE, SUCROSE,FOOD STARCH-MODIFIED (CORN), GELATIN, LACTIC ACID, CITRIC ACID. ASCORBIC ACID (VITAMIN C), NATURAL AND ARTIFICIAL FLAVORS, COCONUT OIL,SODIUM LACTATE,SODIUM CITRATE, CARNAUBA WAX, RED 40, YELLOW 5, BLUE 1." Date available: 06/25/2017 Date last updated by company: 06/25/2017
