Source: USDA Branded Food Products Database Release December 2017 Software v.3.8.6.4 2017-10-02
Report Run at: December 18, 2017 00:58 EST
"Nutrient data for: 45178244, NIKOLA'S BAKERY, FRENCH POUND CAKE, VANILLA, UPC: 647669165024"
Food Group:  Branded Food Products Database
Common Name:

Nutrient,Unit,Data points,Std. Error,"3.6 ONZ = 102.0g",1Value per 100 g,
Proximates
"Energy",kcal,--,--,340,333
"Protein",g,--,--,5.00,4.90
"Total lipid (fat)",g,--,--,18.00,17.65
"Carbohydrate, by difference",g,--,--,40.00,39.22
"Fiber, total dietary",g,--,--,1.0,1.0
"Sugars, total",g,--,--,23.00,22.55
Minerals
"Calcium, Ca",mg,--,--,40,39
"Iron, Fe",mg,--,--,0.85,0.83
"Sodium, Na",mg,--,--,320,314
Vitamins
"Vitamin C, total ascorbic acid",mg,--,--,0.0,0.0
"Vitamin A, IU",IU,--,--,0,0
Lipids
"Fatty acids, total saturated",g,--,--,2.999,2.940
"Fatty acids, total trans",g,--,--,0.000,0.000
"Cholesterol",mg,--,--,65,64
Amino Acids
Other
Ingredients
"CAKE BASE: (SUGAR, ENRICHED FLOUR (WHEAT FLOUR, NIACIN, IRON, THIAMIN MONONITRATE, RIBOFLAVIN, FOLIC ACID), SOYBEAN OIL, MODIFIED CORN STARCH. CONTAINS 2% OR LESS OF: WHEY, LEAVENING (BAKING SODA, SODIUM ACID PYROPHOSPHATE), SALT, SORBITAN MONOSTEARATE, NON FAT MILK, VITAL WHEAT GLUTEN, POLYSORBATE 60, XANTHAN GUM, GUAR GUM, MONO AND DIGLYCERIDES, NATURAL FLAVORS, SOY FLOUR, EGG), WHOLE EGG, WATER, SOYBEAN OIL, VANILLA EXTRACT, EGG YOLKS SUGARED, SOUR CREAM (GRADE A CULTURED CREAM), CONDENSED MILK (WHOLE MILK, SUGAR)." Date available: 10/10/2017 Date last updated by company: 10/10/2017
