Source: USDA Branded Food Products Database Release December 2017 Software v.3.8.6.4 2017-10-02
Report Run at: December 18, 2017 00:59 EST
"Nutrient data for: 45242806, NING CHI, HOT PICKLED SOYBEAN, UPC: 4718426089726"
Food Group:  Branded Food Products Database
Common Name:

Nutrient,Unit,Data points,Std. Error,"1 Tbsp = 10.0g",1Value per 100 g,
Proximates
"Energy",kcal,--,--,39,390
"Protein",g,--,--,1.00,10.00
"Total lipid (fat)",g,--,--,4.00,40.00
"Carbohydrate, by difference",g,--,--,0.00,0.00
"Fiber, total dietary",g,--,--,1.0,10.0
"Sugars, total",g,--,--,1.00,10.00
Minerals
"Calcium, Ca",mg,--,--,0,0
"Iron, Fe",mg,--,--,0.00,0.00
"Sodium, Na",mg,--,--,266,2660
Vitamins
"Vitamin C, total ascorbic acid",mg,--,--,0.0,0.0
"Vitamin A, IU",IU,--,--,0,0
Lipids
"Fatty acids, total saturated",g,--,--,0.800,8.000
"Fatty acids, total trans",g,--,--,0.000,0.000
"Cholesterol",mg,--,--,0,0
Amino Acids
Other
Ingredients
"FRESH CHILI, SOYBEAN OIL, BLACK SOYBEAN, SUGAR, SALT." Date available: 07/14/2017 Date last updated by company: 07/14/2017
