Source: USDA Branded Food Products Database Release December 2017 Software v.3.8.6.4 2017-10-02
Report Run at: December 18, 2017 01:31 EST
"Nutrient data for: 45241340, NO. 1, WHOLE ABALONE MUSHROOM, UPC: 610232028385"
Food Group:  Branded Food Products Database
Common Name:

Nutrient,Unit,Data points,Std. Error,"13.0 PEASE = 100.0g",1Value per 100 g,
Proximates
"Energy",kcal,--,--,8,8
"Protein",g,--,--,1.00,1.00
"Total lipid (fat)",g,--,--,0.00,0.00
"Carbohydrate, by difference",g,--,--,1.00,1.00
"Fiber, total dietary",g,--,--,2.0,2.0
"Sugars, total",g,--,--,0.00,0.00
Minerals
"Calcium, Ca",mg,--,--,10,10
"Iron, Fe",mg,--,--,0.00,0.00
"Sodium, Na",mg,--,--,284,284
Vitamins
"Vitamin C, total ascorbic acid",mg,--,--,0.0,0.0
"Vitamin A, IU",IU,--,--,0,0
Lipids
"Fatty acids, total saturated",g,--,--,0.000,0.000
"Fatty acids, total trans",g,--,--,0.000,0.000
"Cholesterol",mg,--,--,0,0
Amino Acids
Other
Ingredients
"ABALONE MUSHROOM WATER AND SALT" Date available: 06/25/2017 Date last updated by company: 06/25/2017
