Source: USDA Branded Food Products Database Release December 2017 Software v.3.8.6.4 2017-10-02
Report Run at: December 18, 2017 01:05 EST
"Nutrient data for: 45206226, NO MERCY!, AFRICAN-STYLE HOT SAUCE, UPC: 861702000091"
Food Group:  Branded Food Products Database
Common Name:

Nutrient,Unit,Data points,Std. Error,"1 tsp = 5.0g",1Value per 100 g,
Proximates
"Energy",kcal,--,--,10,200
"Protein",g,--,--,0.00,0.00
"Total lipid (fat)",g,--,--,1.00,20.00
"Carbohydrate, by difference",g,--,--,1.00,20.00
"Fiber, total dietary",g,--,--,0.0,0.0
"Sugars, total",g,--,--,0.00,0.00
Minerals
"Calcium, Ca",mg,--,--,0,0
"Iron, Fe",mg,--,--,0.00,0.00
"Sodium, Na",mg,--,--,40,800
Vitamins
"Vitamin C, total ascorbic acid",mg,--,--,12.2,243.5
"Vitamin A, IU",IU,--,--,0,0
Lipids
"Fatty acids, total saturated",g,--,--,0.000,0.000
"Fatty acids, total trans",g,--,--,0.000,0.000
"Cholesterol",mg,--,--,0,0
Amino Acids
Other
Ingredients
"WATER, PURE OLIVE OIL, TOMATO PASTE, HABANERO PEPPERS, FRESH ONION, FRESH GARLIC, GRANULATED GARLIC, FRESH GINGER, POWDERED GINGER, SEA SALT, GLUCONO DELTA LACTONE (NATURAL ACIDIFIER), DARK BROWN SUGAR AND BLACK PEPPER." Date available: 07/14/2017 Date last updated by company: 07/14/2017
