Source: USDA Branded Food Products Database Release December 2017 Software v.3.8.6.4 2017-10-02
Report Run at: December 18, 2017 01:32 EST
"Nutrient data for: 45093545, NO YOLKS, ENRICHED EGG WHITE PASTA, DUMPLINGS, UPC: 071730007201"
Food Group:  Branded Food Products Database
Common Name:

Nutrient,Unit,Data points,Std. Error,"1.5 cup = 56.0g",1Value per 100 g,
Proximates
"Energy",kcal,--,--,200,357
"Protein",g,--,--,8.00,14.29
"Total lipid (fat)",g,--,--,1.00,1.79
"Carbohydrate, by difference",g,--,--,40.00,71.43
"Fiber, total dietary",g,--,--,2.0,3.6
"Sugars, total",g,--,--,2.00,3.57
Minerals
"Calcium, Ca",mg,--,--,20,36
"Iron, Fe",mg,--,--,1.42,2.53
"Potassium, K",mg,--,--,125,223
"Sodium, Na",mg,--,--,20,36
Vitamins
"Vitamin C, total ascorbic acid",mg,--,--,0.0,0.0
"Thiamin",mg,--,--,0.560,1.000
"Riboflavin",mg,--,--,0.170,0.304
"Niacin",mg,--,--,2.946,5.261
"Vitamin A, IU",IU,--,--,0,0
Lipids
"Fatty acids, total saturated",g,--,--,0.000,0.000
"Fatty acids, total monounsaturated",g,--,--,0.000,0.000
"Fatty acids, total polyunsaturated",g,--,--,0.498,0.890
"Fatty acids, total trans",g,--,--,0.000,0.000
"Cholesterol",mg,--,--,0,0
Amino Acids
Other
Ingredients
"SEMOLINA (WHEAT), DURUM FLOUR (WHEAT), CORN FLOUR, WHEAT FLOUR, DRIED EGG WHITES, NIACIN, FERROUS SULFATE (IRON), THIAMIN MONONITRATE, RIBOFLAVIN, FOLIC ACID." Date available: 07/14/2017 Date last updated by company: 07/14/2017
