Source: USDA Branded Food Products Database Release December 2017 Software v.3.8.6.4 2017-10-02
Report Run at: December 18, 2017 01:20 EST
"Nutrient data for: 45209561, NON-STICK COOKING SPRAY OIL, UPC: 022506285606"
Food Group:  Branded Food Products Database
Common Name:

Nutrient,Unit,Data points,Std. Error,"0.33 SECOND SPRAY | ABOUT = 0.25g",1Value per 100 g,
Proximates
"Energy",kcal,--,--,0,0
"Protein",g,--,--,0.00,0.00
"Total lipid (fat)",g,--,--,0.00,0.00
"Carbohydrate, by difference",g,--,--,0.00,0.00
Minerals
"Sodium, Na",mg,--,--,0,0
Vitamins
Lipids
"Fatty acids, total saturated",g,--,--,0.000,0.000
"Fatty acids, total trans",g,--,--,0.000,0.000
"Cholesterol",mg,--,--,0,0
Amino Acids
Other
Ingredients
"MECHANICALLY (EXPELLER) PRESSED REFINED ORGANIC COCONUT OIL, SOY LECITHIN, NATURAL FLAVOR, PROPELLANT (NO CHLOROFLUOROCARBONS)." Date available: 07/14/2017 Date last updated by company: 07/14/2017
