Source: USDA Branded Food Products Database Release December 2017 Software v.3.8.6.4 2017-10-02
Report Run at: December 18, 2017 01:08 EST
"Nutrient data for: 45026886, NON-DAIRY FROZEN DESSERT, UPC: 896767001035"
Food Group:  Branded Food Products Database
Common Name:

Nutrient,Unit,Data points,Std. Error,"0.5 cup = 97.0g",1Value per 100 g,
Proximates
"Energy",kcal,--,--,240,247
"Protein",g,--,--,1.00,1.03
"Total lipid (fat)",g,--,--,19.00,19.59
"Carbohydrate, by difference",g,--,--,18.00,18.56
"Fiber, total dietary",g,--,--,1.0,1.0
"Sugars, total",g,--,--,14.00,14.43
Minerals
"Calcium, Ca",mg,--,--,0,0
"Iron, Fe",mg,--,--,1.34,1.38
"Sodium, Na",mg,--,--,35,36
Vitamins
"Vitamin C, total ascorbic acid",mg,--,--,0.0,0.0
"Vitamin A, IU",IU,--,--,0,0
Lipids
"Fatty acids, total saturated",g,--,--,15.995,16.490
"Fatty acids, total trans",g,--,--,0.000,0.000
"Cholesterol",mg,--,--,0,0
Amino Acids
Other
Ingredients
"ORGANIC COCONUT MILK (ORGANIC COCONUT, WATER, ORGANIC GUAR GUM*), ORGANIC AGAVE SYRUP, ORGANIC DARK CHOCOLATE FLAKES (ORGANIC FAIR TRADE DARK CHOCOLATE [ORGANIC FAIR TRADE COCOA LIQUOR, ORGANIC FAIR TRADE CANE SUGAR, ORGANIC FAIR TRADE COCOA BUTTER, ORGANIC FAIR TRADE COCOA POWDER], ORGANIC COCONUT OIL), ORGANIC COCONUT CREAM, ORGANIC PEPPERMINT EXTRACT, ORGANIC VANILLA EXTRACT." Date available: 07/14/2017 Date last updated by company: 07/14/2017
