Source: USDA Branded Food Products Database Release December 2017 Software v.3.8.6.4 2017-10-02
Report Run at: December 18, 2017 01:11 EST
"Nutrient data for: 45199449, NON-FAT GREEK YOGURT, UPC: 818290014474"
Food Group:  Branded Food Products Database
Common Name:

Nutrient,Unit,Data points,Std. Error,"1 CONTAINER = 150.0g",1Value per 100 g,
Proximates
"Energy",kcal,--,--,120,80
"Protein",g,--,--,12.00,8.00
"Total lipid (fat)",g,--,--,0.00,0.00
"Carbohydrate, by difference",g,--,--,19.00,12.67
"Fiber, total dietary",g,--,--,1.1,0.7
"Sugars, total",g,--,--,15.00,10.00
Minerals
"Calcium, Ca",mg,--,--,150,100
"Iron, Fe",mg,--,--,0.00,0.00
"Sodium, Na",mg,--,--,60,40
Vitamins
"Vitamin C, total ascorbic acid",mg,--,--,6.8,4.5
"Vitamin A, IU",IU,--,--,0,0
Lipids
"Fatty acids, total saturated",g,--,--,0.000,0.000
"Fatty acids, total trans",g,--,--,0.000,0.000
"Cholesterol",mg,--,--,4,3
Amino Acids
Other
Ingredients
"NONFAT YOGURT (CULTURED PASTEURIZED NONFAT MILK, LIVE AND ACTIVE CULTURES: S. THERMOPHILUS, L. BULGARICUS, L. ACIDOPHILUS, BIFIDUS AND L. CASEI). STRAWBERRIES, EVAPORATED CANE JUICE, PECTIN, NATURAL FLAVORS, LOCUST BEAN GUM, FRUIT AND VEGETABLE JUICE CONCENTRATE (FOR COLOR)." Date available: 07/14/2017 Date last updated by company: 07/14/2017
