Source: USDA Branded Food Products Database Release December 2017 Software v.3.8.6.4 2017-10-02
Report Run at: December 18, 2017 01:06 EST
"Nutrient data for: 45055552, NON-DAIRY COFFEE CREAMER, AMARETTO, UPC: 035826064912"
Food Group:  Branded Food Products Database
Common Name:

Nutrient,Unit,Data points,Std. Error,"4.0 tsp = 12.0g",1Value per 100 g,
Proximates
"Energy",kcal,--,--,60,500
"Protein",g,--,--,0.00,0.00
"Total lipid (fat)",g,--,--,2.50,20.83
"Carbohydrate, by difference",g,--,--,9.00,75.00
"Fiber, total dietary",g,--,--,0.0,0.0
"Sugars, total",g,--,--,7.00,58.33
Minerals
"Calcium, Ca",mg,--,--,0,0
"Iron, Fe",mg,--,--,0.00,0.00
"Potassium, K",mg,--,--,50,417
"Sodium, Na",mg,--,--,10,83
Vitamins
"Vitamin C, total ascorbic acid",mg,--,--,0.0,0.0
"Vitamin A, IU",IU,--,--,0,0
Lipids
"Fatty acids, total saturated",g,--,--,1.500,12.500
"Fatty acids, total monounsaturated",g,--,--,1.000,8.330
"Fatty acids, total polyunsaturated",g,--,--,0.000,0.000
"Fatty acids, total trans",g,--,--,0.000,0.000
"Cholesterol",mg,--,--,0,0
Amino Acids
Other
Ingredients
"SUGAR, PARTIALLY HYDROGENATED PALM OIL, CORN SYRUP SOLIDS, SODIUM CASEINATE (A MILK DERIVATIVE), NATURAL AND ARTIFICIAL FLAVOR, DIPOTASSIUM PHOSPHATE, MONO AND DIGLYCERIDES, SILICON DIOXIDE, SOY LECITHIN." Date available: 06/24/2017 Date last updated by company: 06/24/2017
