Source: USDA Branded Food Products Database Release December 2017 Software v.3.8.6.4 2017-10-02
Report Run at: December 18, 2017 01:15 EST
"Nutrient data for: 45194015, NONFAT YOGURT, UPC: 035826094261"
Food Group:  Branded Food Products Database
Common Name:

Nutrient,Unit,Data points,Std. Error,"1 CONTAINER = 170.0g",1Value per 100 g,
Proximates
"Energy",kcal,--,--,100,59
"Protein",g,--,--,6.00,3.53
"Total lipid (fat)",g,--,--,0.00,0.00
"Carbohydrate, by difference",g,--,--,19.99,11.76
"Fiber, total dietary",g,--,--,0.3,0.2
"Sugars, total",g,--,--,13.01,7.65
Minerals
"Calcium, Ca",mg,--,--,201,118
"Iron, Fe",mg,--,--,0.00,0.00
"Potassium, K",mg,--,--,299,176
"Sodium, Na",mg,--,--,100,59
Vitamins
"Vitamin C, total ascorbic acid",mg,--,--,0.0,0.0
"Vitamin A, IU",IU,--,--,0,0
Lipids
"Fatty acids, total saturated",g,--,--,0.000,0.000
"Fatty acids, total trans",g,--,--,0.000,0.000
"Cholesterol",mg,--,--,5,3
Amino Acids
Other
Ingredients
"CULTURED PASTEURIZED NONFAT MILK, WHEY PROTEIN CONCENTRATE, BLUEBERRIES, FRUCTOSE, MODIFIED CORN STARCH, WHEY, POTASSIUM SORBATE (TO PRESERVE FRESHNESS), SODIUM CITRATE, NATURAL FLAVORS, ASPARTAME**, CITRIC ACID, CARRAGEENAN, PECTIN, RED 40 AND BLUE 1." Date available: 07/14/2017 Date last updated by company: 07/14/2017
