Source: USDA Branded Food Products Database Release December 2017 Software v.3.8.6.4 2017-10-02
Report Run at: December 18, 2017 01:10 EST
"Nutrient data for: 45118339, NONFAT GREEK YOGURT, UPC: 078355540007"
Food Group:  Branded Food Products Database
Common Name:

Nutrient,Unit,Data points,Std. Error,"1 CONTAINER = 170.0g",1Value per 100 g,
Proximates
"Energy",kcal,--,--,100,59
"Protein",g,--,--,8.99,5.29
"Total lipid (fat)",g,--,--,0.00,0.00
"Carbohydrate, by difference",g,--,--,16.00,9.41
"Fiber, total dietary",g,--,--,2.0,1.2
"Sugars, total",g,--,--,14.01,8.24
Minerals
"Calcium, Ca",mg,--,--,350,206
"Iron, Fe",mg,--,--,0.00,0.00
"Potassium, K",mg,--,--,461,271
"Sodium, Na",mg,--,--,134,79
Vitamins
"Vitamin C, total ascorbic acid",mg,--,--,0.0,0.0
"Vitamin A, IU",IU,--,--,0,0
Lipids
"Fatty acids, total saturated",g,--,--,0.000,0.000
"Fatty acids, total trans",g,--,--,0.000,0.000
"Cholesterol",mg,--,--,5,3
Amino Acids
Other
Ingredients
"CULTURED PASTEURIZED GRADE A NONFAT MILK, INULIN, PECTIN." Date available: 09/09/2017 Date last updated by company: 09/09/2017
