Source: USDA Branded Food Products Database Release December 2017 Software v.3.8.6.4 2017-10-02
Report Run at: December 18, 2017 01:12 EST
"Nutrient data for: 45218358, NONFAT GREEK YOGURT, UPC: 021130076529"
Food Group:  Branded Food Products Database
Common Name:

Nutrient,Unit,Data points,Std. Error,"6.0 ONZ = 170.0g",1Value per 100 g,
Proximates
"Energy",kcal,--,--,100,59
"Protein",g,--,--,11.00,6.47
"Total lipid (fat)",g,--,--,0.00,0.00
"Carbohydrate, by difference",g,--,--,12.00,7.06
"Fiber, total dietary",g,--,--,1.0,0.6
"Sugars, total",g,--,--,10.00,5.88
Minerals
"Calcium, Ca",mg,--,--,299,176
"Iron, Fe",mg,--,--,0.00,0.00
"Sodium, Na",mg,--,--,80,47
Vitamins
"Vitamin C, total ascorbic acid",mg,--,--,1.2,0.7
"Vitamin A, IU",IU,--,--,750,441
Lipids
"Fatty acids, total saturated",g,--,--,0.000,0.000
"Fatty acids, total trans",g,--,--,0.000,0.000
"Cholesterol",mg,--,--,10,6
Amino Acids
Other
Ingredients
"CULTURED PASTEURIZED GRADE A NONFAT MILK, BLUEBERRY BASE (WATER, BLUEBERRIES, FRUCTOSE, NATURAL FLAVOR, LOCUST BEAN GUM, PECTIN, CALCIUM CITRATE, SUCRALOSE, ACESULFAME POTASSIUM, LEMON JUICE CONCENTRATE), MILK PROTEIN CONCENTRATE, MODIFIED CORN STARCH, VITAMIN A ACETATE, VITAMIN D3." Date available: 07/14/2017 Date last updated by company: 07/14/2017
