Source: USDA Branded Food Products Database Release December 2017 Software v.3.8.6.4 2017-10-02
Report Run at: December 18, 2017 01:15 EST
"Nutrient data for: 45039447, NONFAT YOGURT, UPC: 036632002600"
Food Group:  Branded Food Products Database
Common Name:

Nutrient,Unit,Data points,Std. Error,"1 cup = 225.0g",1Value per 100 g,
Proximates
"Energy",kcal,--,--,110,49
"Protein",g,--,--,7.00,3.11
"Total lipid (fat)",g,--,--,0.00,0.00
"Carbohydrate, by difference",g,--,--,20.00,8.89
"Fiber, total dietary",g,--,--,0.0,0.0
"Sugars, total",g,--,--,13.01,5.78
Minerals
"Calcium, Ca",mg,--,--,250,111
"Iron, Fe",mg,--,--,0.00,0.00
"Phosphorus, P",mg,--,--,151,67
"Potassium, K",mg,--,--,310,138
"Sodium, Na",mg,--,--,115,51
"Zinc, Zn",mg,--,--,0.90,0.40
Vitamins
"Vitamin C, total ascorbic acid",mg,--,--,0.0,0.0
"Riboflavin",mg,--,--,0.425,0.189
"Vitamin A, IU",IU,--,--,567,252
"Vitamin D",IU,--,--,81,36
Lipids
"Fatty acids, total saturated",g,--,--,0.000,0.000
"Fatty acids, total trans",g,--,--,0.000,0.000
"Cholesterol",mg,--,--,4,2
Amino Acids
Other
Ingredients
"CULTURED GRADE A NON FAT MILK, WATER, MODIFIED FOOD STARCH, CANE SUGAR, CONTAINS LESS THAN 1% KOSHER GELATIN, NATURAL AND ARTIFICIAL FLAVORS, SUCRALOSE, SODIUM CITRATE, ACESULFAME POTASSIUM, CITRIC ACID, VITAMIN A PALMITATE, VITAMIN D3." Date available: 10/13/2017 Date last updated by company: 10/13/2017
