Source: USDA Branded Food Products Database Release December 2017 Software v.3.8.6.4 2017-10-02
Report Run at: December 18, 2017 01:09 EST
"Nutrient data for: 45188872, NONFAT COTTAGE CHEESE, UPC: 5051379004774"
Food Group:  Branded Food Products Database
Common Name:

Nutrient,Unit,Data points,Std. Error,"0.5 cup = 113.0g",1Value per 100 g,
Proximates
"Energy",kcal,--,--,80,71
"Protein",g,--,--,14.00,12.39
"Total lipid (fat)",g,--,--,0.00,0.00
"Carbohydrate, by difference",g,--,--,4.00,3.54
"Fiber, total dietary",g,--,--,0.0,0.0
"Sugars, total",g,--,--,4.00,3.54
Minerals
"Calcium, Ca",mg,--,--,99,88
"Iron, Fe",mg,--,--,0.00,0.00
"Sodium, Na",mg,--,--,390,345
Vitamins
"Vitamin C, total ascorbic acid",mg,--,--,0.0,0.0
"Vitamin A, IU",IU,--,--,194,172
Lipids
"Fatty acids, total saturated",g,--,--,0.000,0.000
"Fatty acids, total trans",g,--,--,0.000,0.000
"Cholesterol",mg,--,--,0,0
Amino Acids
Other
Ingredients
"CULTURED PASTEURIZED GRADE A NONFAT MILK, SALT, STABILIZERS [TAPIOCA STARCH, GUAR GUM, MONO AND DIGLYCERIDES, XANTHAN GUM, SODIUM PHOSPHATE, LOCUST BEAN GUM], NATURAL FLAVOR, VITAMIN A PALMITATE, CARBON DIOXIDE (TO MAINTAIN FRESHNESS)." Date available: 10/13/2017 Date last updated by company: 10/13/2017
