Source: USDA Branded Food Products Database Release December 2017 Software v.3.8.6.4 2017-10-02
Report Run at: December 18, 2017 01:15 EST
"Nutrient data for: 45194013, NONFAT YOGURT, UPC: 035826094339"
Food Group:  Branded Food Products Database
Common Name:

Nutrient,Unit,Data points,Std. Error,"1 CONTAINER = 170.0g",1Value per 100 g,
Proximates
"Energy",kcal,--,--,80,47
"Protein",g,--,--,6.00,3.53
"Total lipid (fat)",g,--,--,0.00,0.00
"Carbohydrate, by difference",g,--,--,14.01,8.24
"Fiber, total dietary",g,--,--,0.0,0.0
"Sugars, total",g,--,--,8.01,4.71
Minerals
"Calcium, Ca",mg,--,--,201,118
"Iron, Fe",mg,--,--,0.00,0.00
"Potassium, K",mg,--,--,291,171
"Sodium, Na",mg,--,--,100,59
Vitamins
"Vitamin C, total ascorbic acid",mg,--,--,0.0,0.0
"Vitamin A, IU",IU,--,--,0,0
Lipids
"Fatty acids, total saturated",g,--,--,0.000,0.000
"Fatty acids, total trans",g,--,--,0.000,0.000
"Cholesterol",mg,--,--,5,3
Amino Acids
Other
Ingredients
"CULTURED PASTEURIZED NONFAT MILK, WHEY PROTEIN CONCENTRATE, MODIFIED CORN STARCH, WHEY, VANILLA EXTRACT, NATURAL FLAVOR, PHOSPHORIC ACID, CARRAGEENAN, PECTIN, ASPARTAME**, POTASSIUM SORBATE AND SODIUM BENZOATE (TO PRESERVE FRESHNESS), ACESULFAME POTASSIUM AND SODIUM CITRATE." Date available: 07/14/2017 Date last updated by company: 07/14/2017
