Source: USDA Branded Food Products Database Release December 2017 Software v.3.8.6.4 2017-10-02
Report Run at: December 18, 2017 01:18 EST
"Nutrient data for: 45238343, NONGSHIM, BOWL NOODLE SOUP, BEEF, UPC: 031146263622"
Food Group:  Branded Food Products Database
Common Name:

Nutrient,Unit,Data points,Std. Error,"0.5 BOWL = 43.0g",1Value per 100 g,
Proximates
"Energy",kcal,--,--,190,442
"Protein",g,--,--,4.00,9.30
"Total lipid (fat)",g,--,--,6.00,13.95
"Carbohydrate, by difference",g,--,--,29.00,67.44
"Fiber, total dietary",g,--,--,1.0,2.3
"Sugars, total",g,--,--,2.00,4.65
Minerals
"Calcium, Ca",mg,--,--,0,0
"Iron, Fe",mg,--,--,1.26,2.92
"Sodium, Na",mg,--,--,950,2209
Vitamins
"Vitamin C, total ascorbic acid",mg,--,--,0.0,0.0
"Vitamin A, IU",IU,--,--,0,0
Lipids
"Fatty acids, total saturated",g,--,--,3.001,6.980
"Fatty acids, total monounsaturated",g,--,--,2.498,5.810
"Fatty acids, total polyunsaturated",g,--,--,0.499,1.160
"Fatty acids, total trans",g,--,--,0.000,0.000
"Cholesterol",mg,--,--,0,0
Amino Acids
Other
Ingredients
"ENRICHED WHEAT FLOUR (WHEAT FLOUR, NIACIN, REDUCED IRON, THIAMINE MONONITRATE, RIBOFLAVIN, FOLIC ACID), PALM OIL, POTATO STARCH, MODIFIED POTATO STARCH, SALT, DEHYDRATED VEGETABLES (ONION, CARROT, GREEN CABBAGE, GREEN ONION), CONTAINS LESS THAN 2% OF EACH OF THE FOLLOWING: BEEF EXTRACT*, BEEF FAT*, BEEF STOCK*, BLACK PEPPER*, CARAMEL* (COLOR), CITRIC ACID, CORN STARCH, DEXTROSE, DISODIUM GUANYLATE, DISODIUM INOSINATE, DISODIUM SUCCINATE, GARLIC*, GUAR GUM, HYDROLYZED SOY PROTEIN, MALTODEXTRIN, MUSHROOM*, NATURAL FLAVORS, ONION, POTASSIUM CARBONATE, RIBOFLAVIN (COLOR), RICE*, SODIUM CARBONATE, SODIUM PHOSPHATES, SOYBEANS*, SUGAR, SUNFLOWER OIL, TEXTURED VEGETABLE PROTEIN (SOY FLOUR, PARTIALLY HYDROGENATED SOYBEAN OIL, SALT, CARAMEL COLOR), TOCOPHEROLS (ANTIOXIDANT), YEAST EXTRACT. *POWDERED" Date available: 07/14/2017 Date last updated by company: 07/14/2017
