Source: USDA Branded Food Products Database Release December 2017 Software v.3.8.6.4 2017-10-02
Report Run at: December 18, 2017 01:18 EST
"Nutrient data for: 45050644, NONGSHIM, BOWL NOODLE SOUP, SHRIMP, UPC: 031146007592"
Food Group:  Branded Food Products Database
Common Name:

Nutrient,Unit,Data points,Std. Error,"0.5 BOWL = 43.0g",1Value per 100 g,
Proximates
"Energy",kcal,--,--,190,442
"Protein",g,--,--,4.00,9.30
"Total lipid (fat)",g,--,--,6.00,13.95
"Carbohydrate, by difference",g,--,--,29.00,67.44
"Fiber, total dietary",g,--,--,1.0,2.3
"Sugars, total",g,--,--,1.00,2.33
Minerals
"Calcium, Ca",mg,--,--,0,0
"Iron, Fe",mg,--,--,0.84,1.95
"Sodium, Na",mg,--,--,800,1860
Vitamins
"Vitamin C, total ascorbic acid",mg,--,--,0.0,0.0
"Vitamin A, IU",IU,--,--,0,0
Lipids
"Fatty acids, total saturated",g,--,--,3.001,6.980
"Fatty acids, total trans",g,--,--,0.000,0.000
"Cholesterol",mg,--,--,0,0
Amino Acids
Other
Ingredients
"WHEAT FLOUR, PALM OIL, POTATO STARCH, MODIFIED POTATO STARCH, SALT, MALTODEXTRIN, CONTAINS LESS THAN 2% OF EACH OF THE FOLLOWING: BEEF FAT*, BLACK PEPPER*, CARAMEL*, CELERY SEED*, CLAM*, CORN SYRUP*, CRAB*, CUTTLEFISH*, DEHYDRATED GREEN ONION, DEXTROSE, DISODIUM GUANYLATE, DISODIUM INOSINATE, DISODIUM SUCCINATE, FISH SAUCE* (CORVINA, CUTTLEFISH, SALT), FREEZE DRIED SHRIMP, GARLIC*, HYDROLYZED SOY PROTEIN, JAPANESE PARSLEY*, MODIFIED CORN STARCH, MUSSEL*, NATURAL FLAVORS, ONION*, OYSTER EXTRACT*, POTASSIUM CARBONATE, RADISH*, RED CHILI PEPPER*, RIBOFLAVIN (COLOR), RICE*, SAND LANCE CONCENTRATE*, SEA SQUIRT*, SEAWEED EXTRACT*, SHRIMP*, SODIUM CARBONATE, SODIUM PHOSPHATES, SOYBEANS*, SUGAR, TOCOPHEROLS (ANTIOXIDANT), TUNA*, XANTHAN GUM, YEAST EXTRACT." Date available: 06/25/2017 Date last updated by company: 06/25/2017
