Source: USDA Branded Food Products Database Release December 2017 Software v.3.8.6.4 2017-10-02
Report Run at: December 18, 2017 01:20 EST
"Nutrient data for: 45096804, NONPAREILS DECORS, UPC: 052100005713"
Food Group:  Branded Food Products Database
Common Name:

Nutrient,Unit,Data points,Std. Error,"1 tsp = 4.0g",1Value per 100 g,
Proximates
"Energy",kcal,--,--,15,375
"Protein",g,--,--,0.00,0.00
"Total lipid (fat)",g,--,--,0.00,0.00
"Carbohydrate, by difference",g,--,--,4.00,100.00
"Sugars, total",g,--,--,2.00,50.00
Minerals
"Sodium, Na",mg,--,--,0,0
Vitamins
Lipids
Amino Acids
Other
Ingredients
"SUGAR, CORN STARCH, CONFECTIONER'S GLAZE, RED 3, YELLOW 5, BLUE 1, YELLOW 6, RED 40, CARNAUBA WAX." Date available: 07/14/2017 Date last updated by company: 07/14/2017
