Source: USDA Branded Food Products Database Release December 2017 Software v.3.8.6.4 2017-10-02
Report Run at: December 18, 2017 01:22 EST
"Nutrient data for: 45161784, NOOMA, ELECTROLYTE DRINK, BLUEBERRY PEACH, UPC: 851373005051"
Food Group:  Branded Food Products Database
Common Name:

Nutrient,Unit,Data points,Std. Error,"1 CONTAINER = 500.0g",1Value per 100 g,
Proximates
"Energy",kcal,--,--,15,3
"Protein",g,--,--,0.00,0.00
"Total lipid (fat)",g,--,--,0.00,0.00
"Carbohydrate, by difference",g,--,--,3.00,0.60
"Sugars, total",g,--,--,3.00,0.60
Minerals
"Potassium, K",mg,--,--,530,106
"Sodium, Na",mg,--,--,110,22
Vitamins
Lipids
Amino Acids
Other
Ingredients
"FILTERED WATER, ORGANIC CANE SUGAR, ORGANIC BLUEBERRY FLAVOR, ORGANIC PEACH MANGO FLAVOR, DIPOTASSIUM PHOSPHATE (ELECTROLYTE), SEA SALT (ELECTROLYTE), ORGANIC STEVIA (REB A 98%)." Date available: 07/14/2017 Date last updated by company: 07/14/2017
