Source: USDA Branded Food Products Database Release December 2017 Software v.3.8.6.4 2017-10-02
Report Run at: December 18, 2017 01:23 EST
"Nutrient data for: 45015544, NOOSA, PLAIN YOGURT, UPC: 853923002800"
Food Group:  Branded Food Products Database
Common Name:

Nutrient,Unit,Data points,Std. Error,"8.0 ONZ = 227.0g",1Value per 100 g,
Proximates
"Energy",kcal,--,--,241,106
"Protein",g,--,--,17.00,7.49
"Total lipid (fat)",g,--,--,14.01,6.17
"Carbohydrate, by difference",g,--,--,13.01,5.73
"Fiber, total dietary",g,--,--,0.0,0.0
"Sugars, total",g,--,--,13.01,5.73
Minerals
"Calcium, Ca",mg,--,--,429,189
"Iron, Fe",mg,--,--,0.41,0.18
"Sodium, Na",mg,--,--,159,70
Vitamins
"Vitamin C, total ascorbic acid",mg,--,--,0.0,0.0
"Vitamin A, IU",IU,--,--,336,148
Lipids
"Fatty acids, total saturated",g,--,--,8.989,3.960
"Fatty acids, total trans",g,--,--,0.000,0.000
"Cholesterol",mg,--,--,50,22
Amino Acids
Other
Ingredients
"GRADE A PASTEURIZED MILK, GRADE A CREAM, GRADE A SKIM MILK, GRADE A MILK PROTEIN, KOSHER GELATIN, PECTIN, LIVE ACTIVE CULTURES: S. THERMOPHILUS, L. BULGARICUS, L. ACIDOPHILUS, BIFIDUS, AND L. CASEL." Date available: 07/14/2017 Date last updated by company: 07/14/2017
