Source: USDA Branded Food Products Database Release December 2017 Software v.3.8.6.4 2017-10-02
Report Run at: December 18, 2017 01:23 EST
"Nutrient data for: 45201340, NOPALITOS, UPC: 724752999961"
Food Group:  Branded Food Products Database
Common Name:

Nutrient,Unit,Data points,Std. Error,"0.75 cup = 85.0g",1Value per 100 g,
Proximates
"Energy",kcal,--,--,15,18
"Protein",g,--,--,1.00,1.18
"Total lipid (fat)",g,--,--,0.00,0.00
"Carbohydrate, by difference",g,--,--,3.00,3.53
"Fiber, total dietary",g,--,--,2.0,2.4
"Sugars, total",g,--,--,1.00,1.18
Minerals
"Calcium, Ca",mg,--,--,150,176
"Iron, Fe",mg,--,--,0.59,0.70
"Sodium, Na",mg,--,--,20,24
Vitamins
"Vitamin C, total ascorbic acid",mg,--,--,14.8,17.4
"Vitamin A, IU",IU,--,--,659,775
Lipids
"Fatty acids, total saturated",g,--,--,0.000,0.000
"Fatty acids, total trans",g,--,--,0.000,0.000
"Cholesterol",mg,--,--,0,0
Amino Acids
Other
Ingredients
"CACTUS." Date available: 07/14/2017 Date last updated by company: 07/14/2017
