Source: USDA Branded Food Products Database Release December 2017 Software v.3.8.6.4 2017-10-02
Report Run at: December 18, 2017 01:26 EST
"Nutrient data for: 45157407, NORTH STAR, PEANUT LOVERS' MOUNTAIN TRAIL MIX, UPC: 080948631566"
Food Group:  Branded Food Products Database
Common Name:

Nutrient,Unit,Data points,Std. Error,"3.0 Tbsp = 33.0g",1Value per 100 g,
Proximates
"Energy",kcal,--,--,160,485
"Protein",g,--,--,5.00,15.15
"Total lipid (fat)",g,--,--,10.00,30.30
"Carbohydrate, by difference",g,--,--,15.00,45.45
"Fiber, total dietary",g,--,--,2.0,6.1
"Sugars, total",g,--,--,10.00,30.30
Minerals
"Calcium, Ca",mg,--,--,40,121
"Iron, Fe",mg,--,--,1.09,3.31
"Sodium, Na",mg,--,--,70,212
Vitamins
"Vitamin C, total ascorbic acid",mg,--,--,0.0,0.0
"Vitamin A, IU",IU,--,--,0,0
Lipids
"Fatty acids, total saturated",g,--,--,1.502,4.550
"Fatty acids, total trans",g,--,--,0.000,0.000
"Cholesterol",mg,--,--,0,0
Amino Acids
Other
Ingredients
"RAISINS, PEANUT (PEANUTS, PEANUT OIL, SALT), M&M PEANUT CHOCOLATE CANDIES (MILK CHOCOLATE [SUGAR, CHOCOLATE, COCOA BUTTER, SKIM MILK, LACTOSE, MILKFAT, PEANUTS, SOY LECITHIN, SALT, ARTIFICIAL FLAVORS], SUGAR, PEANUTS, CORNSTARCH, LESS THAN 1% CORN SYRUP, GUM ACACIA, COLORING [INCLUDES BLUE 1 LAKE, RED 40 LAKE, BLUE 2 LAKE, YELLOW 6 LAKE, YELLOW 5 LAKE, BLUE 2], DEXTRIN), ALMONDS (ALMONDS, PEANUT OIL, SALT), CASHEWS (CASHEWS, PEANUT OIL, SALT)." Date available: 07/14/2017 Date last updated by company: 07/14/2017
