Source: USDA Branded Food Products Database Release December 2017 Software v.3.8.6.4 2017-10-02
Report Run at: December 18, 2017 01:26 EST
"Nutrient data for: 45157410, NORTH STAR TRADING COMPANY, PISTACHIO BERRY TRAIL MIX, UPC: 080948630873"
Food Group:  Branded Food Products Database
Common Name:

Nutrient,Unit,Data points,Std. Error,"0.25 cup = 34.0g",1Value per 100 g,
Proximates
"Energy",kcal,--,--,170,500
"Protein",g,--,--,4.00,11.76
"Total lipid (fat)",g,--,--,11.00,32.35
"Carbohydrate, by difference",g,--,--,17.00,50.00
"Fiber, total dietary",g,--,--,2.0,5.9
"Sugars, total",g,--,--,12.00,35.29
Minerals
"Calcium, Ca",mg,--,--,60,176
"Iron, Fe",mg,--,--,1.06,3.11
"Sodium, Na",mg,--,--,80,235
Vitamins
"Vitamin C, total ascorbic acid",mg,--,--,1.8,5.2
"Vitamin A, IU",IU,--,--,147,432
Lipids
"Fatty acids, total saturated",g,--,--,2.499,7.350
"Fatty acids, total trans",g,--,--,0.000,0.000
"Cholesterol",mg,--,--,0,0
Amino Acids
Other
Ingredients
"PISTACHIOS (PISTACHIOS, SALT), WHITE CHOCOLATE DROPS (SUGAR, COCOA BUTTER, WHOLE MILK POWDER, NONFAT MILK POWDER, SOY LECITHIN, VANILLA [NATURAL FLAVOR], NATURAL FLAVOR), DRIED CRANBERRIES (CRANBERRIES, SUGAR, CITRIC ACID, SUNFLOWER OIL, ELDERBERRY JUICE CONCENTRATE [COLOR]), ALMONDS (ALMONDS, PEANUT OIL, SALT), CASHEWS (CASHEWS, PEANUT OIL, SALT), DRIED CHERRIES (CHERRIES, SUGAR, SUNFLOWER OIL)." Date available: 07/14/2017 Date last updated by company: 07/14/2017
