Source: USDA Branded Food Products Database Release December 2017 Software v.3.8.6.4 2017-10-02
Report Run at: December 18, 2017 01:25 EST
"Nutrient data for: 45284237, NORTHERN FISHERIES COD LOINS, UPC: 815838020263"
Food Group:  Branded Food Products Database
Common Name:

Nutrient,Unit,Data points,Std. Error,"4.0 ONZ = 112.0g",1Value per 100 g,
Proximates
"Energy",kcal,--,--,90,80
"Protein",g,--,--,20.00,17.86
"Total lipid (fat)",g,--,--,0.50,0.45
"Carbohydrate, by difference",g,--,--,0.00,0.00
"Fiber, total dietary",g,--,--,0.0,0.0
"Sugars, total",g,--,--,0.00,0.00
Minerals
"Calcium, Ca",mg,--,--,20,18
"Iron, Fe",mg,--,--,0.27,0.24
"Sodium, Na",mg,--,--,290,259
Vitamins
"Vitamin A, IU",IU,--,--,100,89
Lipids
"Fatty acids, total saturated",g,--,--,0.000,0.000
"Fatty acids, total trans",g,--,--,0.000,0.000
"Cholesterol",mg,--,--,45,40
Amino Acids
Other
Ingredients
"COD, SODIUM TRIPOLYPHOSPHATE" Date available: 07/14/2017 Date last updated by company: 07/14/2017
