Source: USDA Branded Food Products Database Release December 2017 Software v.3.8.6.4 2017-10-02
Report Run at: December 18, 2017 01:26 EST
"Nutrient data for: 45170910, NORTHLAND, 100% JUICE, POMEGRANATE BLUEBERRY, UPC: 753792002515"
Food Group:  Branded Food Products Database
Common Name:

Nutrient,Unit,Data points,Std. Error,"8.0 OZA = 240.0g",1Value per 100 g,
Proximates
"Energy",kcal,--,--,120,50
"Protein",g,--,--,0.00,0.00
"Total lipid (fat)",g,--,--,0.00,0.00
"Carbohydrate, by difference",g,--,--,28.01,11.67
"Sugars, total",g,--,--,25.99,10.83
Minerals
"Iron, Fe",mg,--,--,0.36,0.15
"Potassium, K",mg,--,--,365,152
"Sodium, Na",mg,--,--,24,10
Vitamins
"Vitamin C, total ascorbic acid",mg,--,--,60.0,25.0
"Vitamin A, IU",IU,--,--,499,208
Lipids
Amino Acids
Other
Ingredients
"100% FRUIT JUICE FROM APPLE, PEAR, JUJUBE FRUIT, POMEGRANATE AND BLUEBERRY JUICE CONCENTRATES (FILTERED WATER AND JUICE CONCENTRATES), CITRIC ACID, NATURAL FLAVOR, VEGETABLE COLOR, PECTIN, ASCORBIC ACID (VITAMIN C), VITAMIN A PALMITATE, VITAMIN E ACETATE." Date available: 07/14/2017 Date last updated by company: 07/14/2017
