Source: USDA Branded Food Products Database Release December 2017 Software v.3.8.6.4 2017-10-02
Report Run at: December 18, 2017 01:26 EST
"Nutrient data for: 45170887, NORTHLAND, 100% JUICE, CRANBERRY CHERRY, UPC: 753792002065"
Food Group:  Branded Food Products Database
Common Name:

Nutrient,Unit,Data points,Std. Error,"8.0 OZA = 240.0g",1Value per 100 g,
Proximates
"Energy",kcal,--,--,139,58
"Protein",g,--,--,0.00,0.00
"Total lipid (fat)",g,--,--,0.00,0.00
"Carbohydrate, by difference",g,--,--,34.99,14.58
"Sugars, total",g,--,--,31.01,12.92
Minerals
"Potassium, K",mg,--,--,190,79
"Sodium, Na",mg,--,--,36,15
Vitamins
"Vitamin C, total ascorbic acid",mg,--,--,72.0,30.0
"Vitamin A, IU",IU,--,--,499,208
Lipids
Amino Acids
Other
Ingredients
"100% JUICE FROM APPLE, CRANBERRY, JUJUBE FRUIT, PEAR AND CHERRY JUICE CONCENTRATE (FILTERED WATER, JUICE CONCENTRATES), CITRIC ACID, VEGETABLE COLOR, NATURAL FLAVORS, ASCORBIC ACID (VITAMIN C), GRAPE SKIN EXTRACT, VITAMIN A PALMITATE, VITAMIN E ACETATE" Date available: 07/14/2017 Date last updated by company: 07/14/2017
