Source: USDA Branded Food Products Database Release December 2017 Software v.3.8.6.4 2017-10-02
Report Run at: December 18, 2017 01:26 EST
"Nutrient data for: 45144279, NORTH STAR TRADING COMPANY, MONSTER TRAIL MIX, UPC: 080948630699"
Food Group:  Branded Food Products Database
Common Name:

Nutrient,Unit,Data points,Std. Error,"0.25 cup = 33.0g",1Value per 100 g,
Proximates
"Energy",kcal,--,--,170,515
"Protein",g,--,--,4.00,12.12
"Total lipid (fat)",g,--,--,10.00,30.30
"Carbohydrate, by difference",g,--,--,16.00,48.48
"Fiber, total dietary",g,--,--,2.0,6.1
"Sugars, total",g,--,--,12.00,36.36
Minerals
"Calcium, Ca",mg,--,--,20,61
"Iron, Fe",mg,--,--,1.09,3.31
"Sodium, Na",mg,--,--,70,212
Vitamins
"Vitamin C, total ascorbic acid",mg,--,--,0.0,0.0
"Vitamin A, IU",IU,--,--,0,0
Lipids
"Fatty acids, total saturated",g,--,--,3.501,10.610
"Fatty acids, total trans",g,--,--,0.000,0.000
"Cholesterol",mg,--,--,0,0
Amino Acids
Other
Ingredients
"PEANUTS (PEANUTS, PEANUT OIL, SALT), SEMISWEET CHOCOLATE CHIPS [SUGAR, CHOCOLATE LIQUOR, COCOA BUTTER, DEXTROSE, SOY LECITHIN, VANILLIN [ARTIFICIAL FLAVOR]), PEANUT BUTTER FLAVORED DROPS (SUGAR, PARTIALLY HYDROGENATED PALM KERNEL OIL, PARTIALLY DEFATTED PEANUT FLOUR, NONFAT DRY MILK SOLIDS, WHEY POWDER, PEANUT BUTTER [PEANUTS, HYDROGENATED COTTONSEED AND RAPESEED OIL], ANHYDROUS DEXTROSE, SALT, SOY LECITHIN), RAISINS, M&M'S MILK CHOCOLATE CANDIES (MILK CHOCOLATE [SUGAR, CHOCOLATE, SKIM MILK, COCOA BUTTER, LACTOSE, MILKFAT, SOY LECITHIN, SALT, ARTIFICIAL FLAVORS], SUGAR, CORNSTARCH, LESS THAN 1% OF CORN SYRUP, DEXTRIN COLORING [INCLUDES RED 40 LAKE, RED 40, BLUE 1, YELLOW 6, BLUE 1 LAKE, YELLOW 5, BLUE 2 LAKE, YELLOW 6 LAKE, YELLOW 5 LAKE, BLUE 2], GUM ACACIA)." Date available: 07/14/2017 Date last updated by company: 07/14/2017
