Source: USDA Branded Food Products Database Release December 2017 Software v.3.8.6.4 2017-10-02
Report Run at: December 18, 2017 01:27 EST
"Nutrient data for: 45184641, NORTHWEST BERRY BLEND, UPC: 638882000933"
Food Group:  Branded Food Products Database
Common Name:

Nutrient,Unit,Data points,Std. Error,"1 cup = 146.0g",1Value per 100 g,
Proximates
"Energy",kcal,--,--,70,48
"Protein",g,--,--,0.99,0.68
"Total lipid (fat)",g,--,--,0.50,0.34
"Carbohydrate, by difference",g,--,--,16.99,11.64
"Fiber, total dietary",g,--,--,5.0,3.4
"Sugars, total",g,--,--,10.00,6.85
Minerals
"Calcium, Ca",mg,--,--,20,14
"Iron, Fe",mg,--,--,0.69,0.47
"Sodium, Na",mg,--,--,0,0
Vitamins
"Vitamin C, total ascorbic acid",mg,--,--,25.8,17.7
"Vitamin A, IU",IU,--,--,96,66
Lipids
"Fatty acids, total saturated",g,--,--,0.000,0.000
"Fatty acids, total trans",g,--,--,0.000,0.000
"Cholesterol",mg,--,--,0,0
Amino Acids
Other
Ingredients
"BLUEBERRIES, STRAWBERRIES, MARION BLACKBERRIES AND RED RASPBERRIES." Date available: 07/14/2017 Date last updated by company: 07/14/2017
