Source: USDA Branded Food Products Database Release December 2017 Software v.3.8.6.4 2017-10-02
Report Run at: December 18, 2017 01:30 EST
"Nutrient data for: 45314924, NOTORIOUSLY NUTTY GIDDY UP & GO GRANOLA, UPC: 858070005018"
Food Group:  Branded Food Products Database
Common Name:

Nutrient,Unit,Data points,Std. Error,"0.5 cup = 43.0g",1Value per 100 g,
Proximates
"Energy",kcal,--,--,181,421
"Protein",g,--,--,4.00,9.30
"Total lipid (fat)",g,--,--,9.00,20.93
"Carbohydrate, by difference",g,--,--,24.00,55.81
"Fiber, total dietary",g,--,--,4.0,9.3
"Sugars, total",g,--,--,8.00,18.60
Minerals
"Sodium, Na",mg,--,--,60,140
Vitamins
Lipids
"Fatty acids, total saturated",g,--,--,1.002,2.330
"Cholesterol",mg,--,--,0,0
Amino Acids
Other
Ingredients
"ORGANIC & GLUTEN FREE OATS, ORGANIC AGAVE NECTAR, ORGANIC RAISINS, ORGANIC & GLUTEN FREE CORN FLAKES (CORN AND/OR YELLOW CORN FLOUR, GRAPE AND/OR PEAR JUICE CONCENTRATE, SEA SALT), ORGANIC ALMONDS, ORGANIC FLAXSEED MEAL, ORGANIC SUNFLOWER OIL, ORGANIC WALNUTS, ORGANIC PECANS, ORGANIC CINNAMON, SALT, ORGANIC VANILLA (ORGANIC ETHYL ALCOHOL AND MACAQUE VANILLA ORGANIC BEANS EXTRACTIVES)." Date available: 09/23/2017 Date last updated by company: 09/23/2017
