Source: USDA Branded Food Products Database Release December 2017 Software v.3.8.6.4 2017-10-02
Report Run at: December 18, 2017 01:31 EST
"Nutrient data for: 45260252, NOVELTY MILK CHOCOLATE, UPC: 6948812131625"
Food Group:  Branded Food Products Database
Common Name:

Nutrient,Unit,Data points,Std. Error,"0.5 PIECE = 33.0g",1Value per 100 g,
Proximates
"Energy",kcal,--,--,180,545
"Protein",g,--,--,2.00,6.06
"Total lipid (fat)",g,--,--,11.00,33.33
"Carbohydrate, by difference",g,--,--,19.00,57.58
"Fiber, total dietary",g,--,--,1.0,3.0
"Sugars, total",g,--,--,18.00,54.55
Minerals
"Calcium, Ca",mg,--,--,60,182
"Iron, Fe",mg,--,--,2.18,6.61
"Sodium, Na",mg,--,--,25,76
Vitamins
"Vitamin C, total ascorbic acid",mg,--,--,0.0,0.0
"Vitamin A, IU",IU,--,--,0,0
Lipids
"Fatty acids, total saturated",g,--,--,6.999,21.210
"Fatty acids, total trans",g,--,--,0.000,0.000
"Cholesterol",mg,--,--,6,18
Amino Acids
Other
Ingredients
"MILK CHOCOLATE (SUGAR, WHOLE MILK POWDER, COCOA BUTTER, COCOA MASS, EMULSIFIER: SOY LECITHIN, FLAVORING: VANILLA), COLORANT COMPOUND (CORN STARCH, THICKENER: GUM ARABIC, COLORANTS: YELLOW 5, YELLOW 6, RED 3, BLUE 1, EMULSIFIER: SUCROSE FATTY ACID ESTERS)." Date available: 07/14/2017 Date last updated by company: 07/14/2017
