Source: USDA Branded Food Products Database Release December 2017 Software v.3.8.6.4 2017-10-02
Report Run at: December 18, 2017 01:32 EST
"Nutrient data for: 45160957, NOW REAL FOOD, RAW SUNFLOWER SEEDS, UPC: 733739070524"
Food Group:  Branded Food Products Database
Common Name:

Nutrient,Unit,Data points,Std. Error,"0.25 cup = 35.0g",1Value per 100 g,
Proximates
"Energy",kcal,--,--,200,571
"Protein",g,--,--,7.00,20.00
"Total lipid (fat)",g,--,--,18.00,51.43
"Carbohydrate, by difference",g,--,--,7.00,20.00
"Fiber, total dietary",g,--,--,3.0,8.6
"Sugars, total",g,--,--,1.00,2.86
Minerals
"Calcium, Ca",mg,--,--,20,57
"Iron, Fe",mg,--,--,2.57,7.35
"Magnesium, Mg",mg,--,--,172,490
"Sodium, Na",mg,--,--,0,0
Vitamins
"Vitamin C, total ascorbic acid",mg,--,--,0.0,0.0
"Vitamin A, IU",IU,--,--,0,0
Lipids
"Fatty acids, total saturated",g,--,--,1.502,4.290
"Fatty acids, total trans",g,--,--,0.000,0.000
"Cholesterol",mg,--,--,0,0
Amino Acids
Other
Ingredients
"ORGANIC HULLED SUNFLOWER SEEDS." Date available: 07/14/2017 Date last updated by company: 07/14/2017
