Source: USDA Branded Food Products Database Release December 2017 Software v.3.8.6.4 2017-10-02
Report Run at: December 18, 2017 01:33 EST
"Nutrient data for: 45194354, NUESKE'S, BACON CHEDDAR BRATWURST, APPLEWOOD SMOKED, UPC: 024211312608"
Food Group:  Branded Food Products Database
Common Name:

Nutrient,Unit,Data points,Std. Error,"1 LINK = 91.0g",1Value per 100 g,
Proximates
"Energy",kcal,--,--,230,253
"Protein",g,--,--,11.00,12.09
"Total lipid (fat)",g,--,--,19.00,20.88
"Carbohydrate, by difference",g,--,--,4.00,4.40
"Fiber, total dietary",g,--,--,0.0,0.0
"Sugars, total",g,--,--,1.00,1.10
Minerals
"Calcium, Ca",mg,--,--,60,66
"Iron, Fe",mg,--,--,0.44,0.48
"Sodium, Na",mg,--,--,780,857
Vitamins
"Vitamin C, total ascorbic acid",mg,--,--,18.1,19.9
"Vitamin A, IU",IU,--,--,60,66
Lipids
"Fatty acids, total saturated",g,--,--,6.998,7.690
"Fatty acids, total trans",g,--,--,0.000,0.000
"Cholesterol",mg,--,--,50,55
Amino Acids
Other
Ingredients
"PORK, BACON [CURED WITH WATER, SALT, SUGAR, SODIUM PHOSPHATE, SODIUM ERYTHORBATE, SODIUM NITRITE], WATER, CHEDDAR CHEESE [PASTEURIZED MILK, CHEESE CULTURE, SALT, ENZYMES, ANNATTO (VEGETABLE COLOR), POTATO STARCH AND POWDERED CELLULOSE, NATAMYCIN], CORN SYRUP SOLIDS, SALT, SODIUM LACTATE, SUGAR, SODIUM DIACETATE, ASCORBIC ACID, SPICE EXTRACTIVES, SODIUM NITRITE." Date available: 07/14/2017 Date last updated by company: 07/14/2017
