Source: USDA Branded Food Products Database Release December 2017 Software v.3.8.6.4 2017-10-02
Report Run at: December 18, 2017 01:37 EST
"Nutrient data for: 45267413, NUT CRUMB, UPC: 085969700215"
Food Group:  Branded Food Products Database
Common Name:

Nutrient,Unit,Data points,Std. Error,"1 SLICE = 43.0g",1Value per 100 g,
Proximates
"Energy",kcal,--,--,140,326
"Protein",g,--,--,2.00,4.65
"Total lipid (fat)",g,--,--,5.00,11.63
"Carbohydrate, by difference",g,--,--,21.00,48.84
"Fiber, total dietary",g,--,--,0.0,0.0
"Sugars, total",g,--,--,13.00,30.23
Minerals
"Calcium, Ca",mg,--,--,20,47
"Iron, Fe",mg,--,--,1.34,3.11
"Sodium, Na",mg,--,--,135,314
Vitamins
"Vitamin C, total ascorbic acid",mg,--,--,2.2,5.2
"Vitamin A, IU",IU,--,--,0,0
Lipids
"Fatty acids, total saturated",g,--,--,1.002,2.330
"Fatty acids, total trans",g,--,--,0.000,0.000
"Cholesterol",mg,--,--,20,47
Amino Acids
Other
Ingredients
"SUGAR, ENRICHED WHEAT FLOUR (WHEAT FLOUR, MALTED BARLEY FLOUR, NIACIN, IRON, THIAMINE MONONITRATE, RIBOFLAVIN, FOLIC ACID), BANANA, WHOLE EGG, SOYBEAN OIL, WATER, LEAVENING (SODIUM ACID PYROPHOSPHATE, BAKING SODA, MONOCALCIUM PHOSPHATE), WHEAT GLUTEN, SALT, XANTHAN GUM, NATURAL & ARTIFICIAL FLAVOR TOPPING: SUGAR, ENRICHED WHEAT FLOUR (UNBLEACHED WHEAT FLOUR, NIACIN, IRON, THIAMIN MONONITRATE, RIBOFLAVIN, FOLIC ACID), WALNUTS, CINNAMON, PALM OIL, SOYBEAN OIL, WATER, MODIFIED FOOD STARCH, SHORTENING (PALM OIL, PROPYLENE GLYCOL MONO AND DI ESTERS OF FAT, MONO AND DI GLYCERIDES), MALTODEXTRIN, SALT, VITAL WHEAT GLUTEN, LEAVENING (BAKING SODA, SODIUM ALUMINUM PHOSPHATE ACIDIC WITH ALUMINUM SULFATE), ARTIFICIAL FLAVOR, DEXTROSE, CORN STARCH, POLYSORBATE 60, SODIUM STEAROYL LACTYLATE, CELLULOSE GUM, GUAR GUM, XANTHAN GUM, CALCIUM ACETATE, SOYBEAN LECITHIN, SODIUM BENZOATE (AS A PRESERVATIVE), BETA CAROTENE (COLOR), VITAMIN A PALMITATE." Date available: 07/14/2017 Date last updated by company: 07/14/2017
