Source: USDA Branded Food Products Database Release December 2017 Software v.3.8.6.4 2017-10-02
Report Run at: December 18, 2017 01:37 EST
"Nutrient data for: 45265176, NUT & FRUIT BAR, UPC: 030000561331"
Food Group:  Branded Food Products Database
Common Name:

Nutrient,Unit,Data points,Std. Error,"1 BAR = 40.0g",1Value per 100 g,
Proximates
"Energy",kcal,--,--,190,475
"Protein",g,--,--,5.00,12.50
"Total lipid (fat)",g,--,--,13.00,32.50
"Carbohydrate, by difference",g,--,--,18.00,45.00
"Fiber, total dietary",g,--,--,4.0,10.0
"Sugars, total",g,--,--,7.00,17.50
Minerals
"Calcium, Ca",mg,--,--,60,150
"Iron, Fe",mg,--,--,1.08,2.70
"Sodium, Na",mg,--,--,290,725
Vitamins
"Vitamin C, total ascorbic acid",mg,--,--,0.0,0.0
"Vitamin A, IU",IU,--,--,0,0
Lipids
"Fatty acids, total saturated",g,--,--,2.000,5.000
"Fatty acids, total trans",g,--,--,0.000,0.000
"Cholesterol",mg,--,--,0,0
Amino Acids
Other
Ingredients
"ORGANIC ALMONDS, PEANUTS, ORGANIC TAPIOCA SYRUP, ORGANIC HONEY, ORGANIC SULTANA RAISINS, ORGANIC TAPIOCA SYRUP SOLIDS, CHICORY ROOT FIBER, CHIPOTLE SEASONING (SEA SALT, SPICES, ONION POWDER, GARLIC POWDER, TRICALCIUM PHOSPHATE), ORGANIC CASHEWS, CRISP RICE (RICE FLOUR, SUGAR, SALT), ORGANIC COCOA BUTTER, ORGANIC CANE SUGAR, SOY LECITHIN, TOCOPHEROLS (PRESERVATIVE)." Date available: 10/13/2017 Date last updated by company: 10/13/2017
