Source: USDA Branded Food Products Database Release December 2017 Software v.3.8.6.4 2017-10-02
Report Run at: December 18, 2017 01:38 EST
"Nutrient data for: 45205540, NUTIVA, NURTURE VITALITY, ORGANIC HAZELNUT SPREAD WITH COCOA, UPC: 692752107474"
Food Group:  Branded Food Products Database
Common Name:

Nutrient,Unit,Data points,Std. Error,"2.0 Tbsp = 37.0g",1Value per 100 g,
Proximates
"Energy",kcal,--,--,190,514
"Protein",g,--,--,3.00,8.11
"Total lipid (fat)",g,--,--,13.00,35.14
"Carbohydrate, by difference",g,--,--,18.00,48.65
"Fiber, total dietary",g,--,--,4.0,10.8
"Sugars, total",g,--,--,12.00,32.43
Minerals
"Calcium, Ca",mg,--,--,40,108
"Iron, Fe",mg,--,--,0.97,2.63
"Sodium, Na",mg,--,--,0,0
Vitamins
"Vitamin C, total ascorbic acid",mg,--,--,0.0,0.0
"Vitamin A, IU",IU,--,--,1013,2739
Lipids
"Fatty acids, total saturated",g,--,--,4.999,13.510
"Fatty acids, total monounsaturated",g,--,--,3.500,9.460
"Fatty acids, total polyunsaturated",g,--,--,1.498,4.050
"Fatty acids, total trans",g,--,--,0.000,0.000
"Cholesterol",mg,--,--,0,0
Amino Acids
Other
Ingredients
"CANE SUGAR*, COCOA*, PALM OLEIN*?, FLAXSEED FLOUR*, HAZELNUT*, RED PALM FRUIT OIL*?, CAROB FLOUR*, INULIN*, REFINED COCONUT OIL*, CHIA SEED OIL*, PALM STEARIN*?, SUNFLOWER LECITHIN*, VANILLA FLAVOR.*" Date available: 07/28/2017 Date last updated by company: 07/28/2017
