Source: USDA Branded Food Products Database Release December 2017 Software v.3.8.6.4 2017-10-02
Report Run at: December 18, 2017 01:39 EST
"Nutrient data for: 45159335, NUTRESA, NUCITA, CREAMY CANDY, CHOCOLATE, VANILLA AND STRAWBERRY, UPC: 045735000888"
Food Group:  Branded Food Products Database
Common Name:

Nutrient,Unit,Data points,Std. Error,"3.0 PIECES = 45.0g",1Value per 100 g,
Proximates
"Energy",kcal,--,--,230,511
"Protein",g,--,--,1.00,2.22
"Total lipid (fat)",g,--,--,13.00,28.89
"Carbohydrate, by difference",g,--,--,29.00,64.44
"Fiber, total dietary",g,--,--,0.0,0.0
"Sugars, total",g,--,--,27.00,60.00
Minerals
"Calcium, Ca",mg,--,--,40,89
"Iron, Fe",mg,--,--,0.00,0.00
"Sodium, Na",mg,--,--,55,122
Vitamins
"Vitamin C, total ascorbic acid",mg,--,--,1.4,3.0
"Vitamin A, IU",IU,--,--,111,247
Lipids
"Fatty acids, total saturated",g,--,--,1.998,4.440
"Fatty acids, total trans",g,--,--,0.999,2.220
"Cholesterol",mg,--,--,0,0
Amino Acids
Other
Ingredients
"SUGAR, PARTIALLY HYDROGENATED SOYBEAN VEGETABLE OIL, VEGETABLE FAT, NONFAT MILK SOLIDS, NONFAT MILK, MALTODEXTRIN, COCOA POWDER, SOY LECITHIN, ARTIFICIAL FLAVORS, TBHQ (ANTIOXIDANT) AND ERYTHROSIN (FOR USA AND CHILE: FD&C RED 40 ALUMINIUM LAKE, TITANIUM DIOXIDE)." Date available: 07/14/2017 Date last updated by company: 07/14/2017
