Source: USDA Branded Food Products Database Release December 2017 Software v.3.8.6.4 2017-10-02
Report Run at: December 18, 2017 01:52 EST
"Nutrient data for: 45150753, NUTSTER, GREEK YOGURT FILLING DRY ROASTED WHOLE ALMONDS, STRAWBERRY, UPC: 013413796088"
Food Group:  Branded Food Products Database
Common Name:

Nutrient,Unit,Data points,Std. Error,"5.0 PCS = 42.0g",1Value per 100 g,
Proximates
"Energy",kcal,--,--,230,548
"Protein",g,--,--,3.00,7.14
"Total lipid (fat)",g,--,--,13.00,30.95
"Carbohydrate, by difference",g,--,--,25.00,59.52
"Fiber, total dietary",g,--,--,2.0,4.8
"Sugars, total",g,--,--,19.00,45.24
Minerals
"Calcium, Ca",mg,--,--,60,143
"Iron, Fe",mg,--,--,0.86,2.04
"Sodium, Na",mg,--,--,26,62
Vitamins
"Vitamin C, total ascorbic acid",mg,--,--,0.0,0.0
"Vitamin A, IU",IU,--,--,0,0
Lipids
"Fatty acids, total saturated",g,--,--,8.001,19.050
"Fatty acids, total trans",g,--,--,0.000,0.000
"Cholesterol",mg,--,--,5,12
Amino Acids
Other
Ingredients
"FAIRTRADE CHOCOLATE [SUGAR, COCOA MASS, COCOA BUTTER, SOY LECITHIN (EMULSIFIER), VANILLA], DRY ROASTED ALMONDS, CANE SUGAR, UNBLEACHED WHEAT FLOUR, CRISP RICE, SOYBEAN OIL, COCONUT OIL, GREEK YOGURT POWDER (NONFAT MILK SOLIDS, CULTURE, LACTIC ACID, NATURAL FLAVOR), FREEZE DRIED STRAWBERRY POWDER, MILK POWDER, COCOA POWDER, LACTIC ACID, SOY LECITHIN (EMULSIFIER), NATURAL FLAVORS, SALT, BAKING SODA (RAISING AGENT)." Date available: 07/14/2017 Date last updated by company: 07/14/2017
