Source: USDA Branded Food Products Database Release December 2017 Software v.3.8.6.4 2017-10-02
Report Run at: December 18, 2017 01:52 EST
"Nutrient data for: 45054808, NUTS & SEEDS, UPC: 071725742094"
Food Group:  Branded Food Products Database
Common Name:

Nutrient,Unit,Data points,Std. Error,"0.25 cup = 30.0g",1Value per 100 g,
Proximates
"Energy",kcal,--,--,150,500
"Protein",g,--,--,4.00,13.33
"Total lipid (fat)",g,--,--,8.00,26.67
"Carbohydrate, by difference",g,--,--,15.00,50.00
"Fiber, total dietary",g,--,--,2.0,6.7
"Sugars, total",g,--,--,10.00,33.33
Minerals
"Calcium, Ca",mg,--,--,33,111
"Iron, Fe",mg,--,--,0.60,2.00
"Sodium, Na",mg,--,--,60,200
Vitamins
"Vitamin C, total ascorbic acid",mg,--,--,0.0,0.0
"Vitamin A, IU",IU,--,--,0,0
Lipids
"Fatty acids, total saturated",g,--,--,0.999,3.330
"Fatty acids, total trans",g,--,--,0.000,0.000
"Cholesterol",mg,--,--,0,0
Amino Acids
Other
Ingredients
"PEANUTS (PEANUTS, PEANUT OIL AND/OR COTTONSEED OIL AND/OR CANOLA OIL AND/OR SOYBEAN OIL, SALT), DRIED PINEAPPLE (PINEAPPLE, SUGAR, CITRIC ACID, SULFUR DIOXIDE (TO PRESERVE COLOR)), DRIED CRANBERRIES (CRANBERRIES, SUGAR, CITRIC ACID, SUNFLOWER OIL (PROCESSING AID), ELDERBERRY JUICE CONCENTRATE (COLOR)), GOLDEN RAISINS (RAISINS, SULFUR DIOXIDE TO PRESERVE COLOR)), ALMONDS (ALMONDS, PEANUT OIL AND/OR COTTONSEED OIL AND/OR CANOLA OIL AND/OR SOYBEAN OIL, SALT), MACADAMIAS (MACADAMIAS, MALTODEXTRIN, SALT)." Date available: 09/26/2017 Date last updated by company: 09/26/2017
