Source: USDA Branded Food Products Database Release December 2017 Software v.3.8.6.4 2017-10-02
Report Run at: December 18, 2017 01:50 EST
"Nutrient data for: 45193999, NUTS ENERGY BALLS, UPC: 016073521472"
Food Group:  Branded Food Products Database
Common Name:

Nutrient,Unit,Data points,Std. Error,"1 BALL = 42.0g",1Value per 100 g,
Proximates
"Energy",kcal,--,--,140,333
"Protein",g,--,--,8.00,19.05
"Total lipid (fat)",g,--,--,7.00,16.67
"Carbohydrate, by difference",g,--,--,21.00,50.00
"Fiber, total dietary",g,--,--,3.0,7.1
"Sugars, total",g,--,--,14.00,33.33
Minerals
"Calcium, Ca",mg,--,--,20,48
"Iron, Fe",mg,--,--,3.21,7.65
"Sodium, Na",mg,--,--,55,131
Vitamins
"Vitamin C, total ascorbic acid",mg,--,--,2.9,6.8
"Vitamin A, IU",IU,--,--,0,0
Lipids
"Fatty acids, total saturated",g,--,--,2.499,5.950
"Fatty acids, total trans",g,--,--,0.000,0.000
"Cholesterol",mg,--,--,0,0
Amino Acids
Other
Ingredients
"DATES, PUMPKIN SEED PROTEIN POWDER, CASHEWS, COCONUT, PREBIOTIC DIETARY (TAPIOCA) FIBER, CRANBERRIES (CRANBERRIES, APPLE JUICE CONCENTRATE, SUNFLOWER OIL), PUMPKIN SEEDS, BLUEBERRIES (CULTIVATED BLUEBERRIES, APPLE JUICE CONCENTRATE, SUNFLOWER OIL), STRAWBERRIES, HONEY, GOJI BERRIES, RASPBERRIES, SEA SALT." Date available: 07/14/2017 Date last updated by company: 07/14/2017
