Source: USDA Branded Food Products Database Release December 2017 Software v.3.8.6.4 2017-10-02
Report Run at: December 18, 2017 01:55 EST
"Nutrient data for: 45101065, NUTTY OAT LOAF BREAD, UPC: 024126017001"
Food Group:  Branded Food Products Database
Common Name:

Nutrient,Unit,Data points,Std. Error,"1 SLICE = 28.0g",1Value per 100 g,
Proximates
"Energy",kcal,--,--,70,250
"Protein",g,--,--,3.00,10.71
"Total lipid (fat)",g,--,--,1.50,5.36
"Carbohydrate, by difference",g,--,--,13.00,46.43
"Fiber, total dietary",g,--,--,1.0,3.6
"Sugars, total",g,--,--,2.00,7.14
Minerals
"Calcium, Ca",mg,--,--,40,143
"Iron, Fe",mg,--,--,1.29,4.59
"Sodium, Na",mg,--,--,110,393
Vitamins
"Vitamin C, total ascorbic acid",mg,--,--,0.0,0.0
"Thiamin",mg,--,--,0.280,1.000
"Riboflavin",mg,--,--,0.182,0.650
"Niacin",mg,--,--,2.142,7.650
"Vitamin A, IU",IU,--,--,0,0
Lipids
"Fatty acids, total saturated",g,--,--,0.000,0.000
"Fatty acids, total trans",g,--,--,0.000,0.000
"Cholesterol",mg,--,--,0,0
Amino Acids
Other
Ingredients
"UNBLEACHED ENRICHED WHEAT FLOUR [FLOUR, BARLEY MALT, NIACIN (VITAMIN B3), IRON, THIAMIN MONONITRATE (VITAMIN B1), RIBOFLAVIN (VITAMIN B2), FOLIC ACID (VITAMIN B9)], WATER, SUGAR, WHEAT GLUTEN, YEAST, SUNFLOWER SEEDS, OATS, CONTAINS 2% OR LESS OF THE FOLLOWING: SOYBEAN OIL, SALT, HAZELNUTS, DOUGH CONDITIONERS (ETHOXYLATED MONO & DIGLYCERIDES, MONOGLYCERIDES, SODIUM STEAROYL LACTYLATE, ASCORBIC ACID), CALCIUM PROPIONATE (TO RETAIN FRESHNESS), YEAST NUTRIENTS (CALCIUM SULFATE, MONOCALCIUM PHOSPHATE, AMMONIUM SULFATE), FUMARIC ACID, WHEAT STARCH, SOY LECITHIN." Date available: 09/09/2017 Date last updated by company: 09/09/2017
