Source: USDA Branded Food Products Database Release December 2017 Software v.3.8.6.4 2017-10-02
Report Run at: December 18, 2017 01:54 EST
"Nutrient data for: 45261723, NUTTY CRUNCH, UPC: 859954004103"
Food Group:  Branded Food Products Database
Common Name:

Nutrient,Unit,Data points,Std. Error,"1 ONZ = 28.0g",1Value per 100 g,
Proximates
"Energy",kcal,--,--,133,476
"Protein",g,--,--,1.80,6.43
"Total lipid (fat)",g,--,--,5.00,17.86
"Carbohydrate, by difference",g,--,--,20.30,72.50
"Fiber, total dietary",g,--,--,1.3,4.6
"Sugars, total",g,--,--,9.90,35.36
Minerals
"Calcium, Ca",mg,--,--,10,36
"Iron, Fe",mg,--,--,0.64,2.29
"Sodium, Na",mg,--,--,74,264
Vitamins
"Vitamin C, total ascorbic acid",mg,--,--,0.0,0.0
"Vitamin A, IU",IU,--,--,90,320
Lipids
"Fatty acids, total saturated",g,--,--,1.100,3.930
"Fatty acids, total trans",g,--,--,0.000,0.000
"Cholesterol",mg,--,--,4,15
Amino Acids
Other
Ingredients
"POPCORN (POPPED IN COCONUT OIL), BROWN SUGAR, CORN SYRUP SUGAR, BUTTER (CREAM [MILK] SALT), PECANS, ALMONDS, CASHEWS, BLANCHED PEANUTS VANILLA (ARTIFICIAL BUTTER-VANILLA WATER, PROPYLENE GLYCOL, AND FLAVORS), SALT, BAKING SODA." Date available: 07/14/2017 Date last updated by company: 07/14/2017
