Source: USDA Branded Food Products Database Release December 2017 Software v.3.8.6.4 2017-10-02
Report Run at: December 18, 2017 01:53 EST
"Nutrient data for: 45225014, NUTTY BARS WAFERS WITH PEANUT BUTTER, UPC: 024300834660"
Food Group:  Branded Food Products Database
Common Name:

Nutrient,Unit,Data points,Std. Error,"2.0 COOKIES = 60.0g",1Value per 100 g,
Proximates
"Energy",kcal,--,--,330,550
"Protein",g,--,--,4.00,6.67
"Total lipid (fat)",g,--,--,20.00,33.33
"Carbohydrate, by difference",g,--,--,34.00,56.67
"Fiber, total dietary",g,--,--,1.0,1.7
"Sugars, total",g,--,--,22.00,36.67
Minerals
"Calcium, Ca",mg,--,--,0,0
"Iron, Fe",mg,--,--,0.90,1.50
"Sodium, Na",mg,--,--,125,208
Vitamins
"Vitamin C, total ascorbic acid",mg,--,--,0.0,0.0
"Vitamin A, IU",IU,--,--,0,0
Lipids
"Fatty acids, total saturated",g,--,--,7.998,13.330
"Fatty acids, total trans",g,--,--,0.000,0.000
"Cholesterol",mg,--,--,0,0
Amino Acids
Other
Ingredients
"DEXTROSE, PEANUT BUTTER, ENRICHED FLOUR (WHEAT FLOUR, NIACIN, REDUCED IRON, THIAMIN MONONITRATE [VITAMIN B1], RIBOFLAVIN [VITAMIN B2], FOLIC ACID), SUGAR, PARTIALLY HYDROGENATED SOYBEAN AND COTTONSEED OIL WITH TBHQ TO PRESERVE FLAVOR, PALM AND PALM KERNEL OIL, WATER, COCOA SOYBEAN OIL, SALT, EMULSIFIERS (SOY LECITHIN, MONO-AND DIGLYCERIDES), CORN STARCH, BAKING SODA, CITRIC ACID, ARTIFICIAL FLAVOR, WHEY (MILK), EGG WHITES." Date available: 07/14/2017 Date last updated by company: 07/14/2017
