Source: USDA Branded Food Products Database Release December 2017 Software v.3.8.6.4 2017-10-02
Report Run at: December 18, 2017 03:08 EST
"Nutrient data for: 45242954, O ORGANICS, ORGANIC PASTA SAUCE, TOMATO BASIL, UPC: 079893404615"
Food Group:  Branded Food Products Database
Common Name:

Nutrient,Unit,Data points,Std. Error,"0.5 cup = 120.0g",1Value per 100 g,
Proximates
"Energy",kcal,--,--,50,42
"Protein",g,--,--,2.00,1.67
"Total lipid (fat)",g,--,--,1.50,1.25
"Carbohydrate, by difference",g,--,--,8.00,6.67
"Fiber, total dietary",g,--,--,2.0,1.7
"Sugars, total",g,--,--,3.00,2.50
Minerals
"Calcium, Ca",mg,--,--,40,33
"Iron, Fe",mg,--,--,1.14,0.95
"Sodium, Na",mg,--,--,440,367
Vitamins
"Vitamin C, total ascorbic acid",mg,--,--,9.5,7.9
"Vitamin A, IU",IU,--,--,528,440
Lipids
"Fatty acids, total saturated",g,--,--,0.000,0.000
"Fatty acids, total trans",g,--,--,0.000,0.000
"Cholesterol",mg,--,--,0,0
Amino Acids
Other
Ingredients
"ORGANIC DICED TOMATOES, WATER, ORGANIC TOMATO PASTE, ORGANIC EXTRA VIRGIN OLIVE OIL, ORGANIC BASIL, SEA SALT, ORGANIC DEHYDRATED ONIONS, ORGANIC VINEGAR, ORGANIC GARLIC POWDER, ORGANIC SPICES." Date available: 07/14/2017 Date last updated by company: 07/14/2017
