Source: USDA Branded Food Products Database Release December 2017 Software v.3.8.6.4 2017-10-02
Report Run at: December 18, 2017 03:10 EST
"Nutrient data for: 45091374, O ORGANICS, WILD RICE MIX, UPC: 079893411576"
Food Group:  Branded Food Products Database
Common Name:

Nutrient,Unit,Data points,Std. Error,"0.25 cup = 42.0g",1Value per 100 g,
Proximates
"Energy",kcal,--,--,150,357
"Protein",g,--,--,4.00,9.52
"Total lipid (fat)",g,--,--,1.00,2.38
"Carbohydrate, by difference",g,--,--,31.00,73.81
"Fiber, total dietary",g,--,--,2.0,4.8
"Sugars, total",g,--,--,1.00,2.38
Minerals
"Calcium, Ca",mg,--,--,0,0
"Iron, Fe",mg,--,--,0.77,1.84
"Potassium, K",mg,--,--,83,198
"Sodium, Na",mg,--,--,10,24
Vitamins
"Vitamin C, total ascorbic acid",mg,--,--,0.0,0.0
"Vitamin A, IU",IU,--,--,0,0
Lipids
"Fatty acids, total saturated",g,--,--,0.000,0.000
"Fatty acids, total trans",g,--,--,0.000,0.000
"Cholesterol",mg,--,--,1,2
Amino Acids
Other
Ingredients
"ORGANIC BROWN BASMATI RICE, ORGANIC WILD RICE." Date available: 08/15/2017 Date last updated by company: 08/15/2017
