Source: USDA Branded Food Products Database Release December 2017 Software v.3.8.6.4 2017-10-02
Report Run at: December 18, 2017 01:58 EST
"Nutrient data for: 45218824, OAT BRAN SESAME STICKS, UPC: 038718038206"
Food Group:  Branded Food Products Database
Common Name:

Nutrient,Unit,Data points,Std. Error,"0.333 cup = 30.0g",1Value per 100 g,
Proximates
"Energy",kcal,--,--,170,567
"Protein",g,--,--,3.00,10.00
"Total lipid (fat)",g,--,--,12.00,40.00
"Carbohydrate, by difference",g,--,--,13.00,43.33
"Fiber, total dietary",g,--,--,1.0,3.3
"Sugars, total",g,--,--,0.00,0.00
Minerals
"Calcium, Ca",mg,--,--,60,200
"Iron, Fe",mg,--,--,3.00,10.00
"Sodium, Na",mg,--,--,340,1133
Vitamins
"Vitamin C, total ascorbic acid",mg,--,--,0.0,0.0
"Vitamin A, IU",IU,--,--,0,0
Lipids
"Fatty acids, total saturated",g,--,--,2.001,6.670
"Fatty acids, total trans",g,--,--,0.000,0.000
"Cholesterol",mg,--,--,0,0
Amino Acids
Other
Ingredients
"UNBLEACHED WHEAT FLOUR (CONTAINS MALTED BARLEY FLOUR AS A NATURAL ENZYME ADDITIVE), SOYBEAN OIL, SESAME SEEDS, OAT BRAN, BULGUR WHEAT, SALT, COLORED WITH (BEET POWDER AND TURMERIC)." Date available: 07/14/2017 Date last updated by company: 07/14/2017
