Source: USDA Branded Food Products Database Release December 2017 Software v.3.8.6.4 2017-10-02
Report Run at: December 18, 2017 01:58 EST
"Nutrient data for: 45294189, OAT, BLUEBERRY, LEMON, SNACK BARS, UPC: 093709600336"
Food Group:  Branded Food Products Database
Common Name:

Nutrient,Unit,Data points,Std. Error,"1 BAR = 40.0g",1Value per 100 g,
Proximates
"Energy",kcal,--,--,170,425
"Protein",g,--,--,2.00,5.00
"Total lipid (fat)",g,--,--,7.00,17.50
"Carbohydrate, by difference",g,--,--,26.00,65.00
"Fiber, total dietary",g,--,--,2.0,5.0
"Sugars, total",g,--,--,10.00,25.00
Minerals
"Calcium, Ca",mg,--,--,20,50
"Iron, Fe",mg,--,--,1.08,2.70
"Sodium, Na",mg,--,--,120,300
Vitamins
"Vitamin C, total ascorbic acid",mg,--,--,2.4,6.0
"Vitamin A, IU",IU,--,--,0,0
Lipids
"Fatty acids, total saturated",g,--,--,1.500,3.750
"Fatty acids, total trans",g,--,--,0.000,0.000
"Cholesterol",mg,--,--,15,38
Amino Acids
Other
Ingredients
"GLUTEN-FREE OATS, ORGANIC AGAVE, BLUEBERRIES (BLUEBERRIES, SUGAR, SUNFLOWER OIL), RICE BLEND (BROWN RICE FLOUR, WHITE RICE FLOUR, TAPIOCA STARCH, SWEET RICE FLOUR, XANTHAN GUM), COCONUT SUGAR, MONOUNSATURATED SAFFLOWER OIL, ORGANIC EGGS, ALMONDS, COCONUT, CHIA SEEDS, NATURAL FLAVORS, SEA SALT, BAKING SODA, LEMON OIL, NUTMEG, XANTHAN GUM." Date available: 06/24/2017 Date last updated by company: 06/24/2017
