Source: USDA Branded Food Products Database Release December 2017 Software v.3.8.6.4 2017-10-02
Report Run at: December 18, 2017 02:00 EST
"Nutrient data for: 45222850, OATMEAL CREME FILLED COOKIES, UPC: 072250903257"
Food Group:  Branded Food Products Database
Common Name:

Nutrient,Unit,Data points,Std. Error,"1 COOKIE = 38.0g",1Value per 100 g,
Proximates
"Energy",kcal,--,--,170,447
"Protein",g,--,--,1.00,2.63
"Total lipid (fat)",g,--,--,7.00,18.42
"Carbohydrate, by difference",g,--,--,25.00,65.79
"Fiber, total dietary",g,--,--,1.0,2.6
"Sugars, total",g,--,--,11.00,28.95
Minerals
"Calcium, Ca",mg,--,--,0,0
"Iron, Fe",mg,--,--,0.95,2.49
"Sodium, Na",mg,--,--,180,474
Vitamins
"Vitamin C, total ascorbic acid",mg,--,--,0.0,0.0
"Vitamin A, IU",IU,--,--,0,0
Lipids
"Fatty acids, total saturated",g,--,--,4.001,10.530
"Fatty acids, total monounsaturated",g,--,--,2.500,6.580
"Fatty acids, total polyunsaturated",g,--,--,0.502,1.320
"Fatty acids, total trans",g,--,--,0.000,0.000
"Cholesterol",mg,--,--,0,0
Amino Acids
Other
Ingredients
"ENRICHED FLOUR [WHEAT FLOUR, NIACIN, REDUCED IRON, THIAMINE MONONITRATE (VITAMIN B1), RIBOFLAVIN (VITAMIN B2), FOLIC ACID], PALM OIL, SUGAR, HIGH FRUCTOSE CORN SYRUP, WATER, CORN SYRUP, RAISIN PASTE, GLYCERIN, CONTAINS 2% OR LESS OF EACH OF THE FOLLOWING: LEAVENING (BAKING SODA, SODIUM ALUMINUM SULFATE, CORNSTARCH, CALCIUM SULFATE, MONOCALCIUM PHOSPHATE), FINE CRUSHED WHOLE OATS, MODIFIED CORNSTARCH, SALT, COCOA, MOLASSES, SODIUM STEAROYL LACTYLATE, WHEAT STARCH, ARTIFICIAL FLAVORS, MONO- AND DIGLYCERIDES, POLYSORBATE 60, CINNAMON, MONOGLYCERIDES, CARAMEL COLOR, CLOVE, NUTMEG, SOY LECITHIN, DEXTROSE, XANTHAN GUM, PROPYLENE GLYCOL ALGINATE." Date available: 07/14/2017 Date last updated by company: 07/14/2017
