Source: USDA Branded Food Products Database Release December 2017 Software v.3.8.6.4 2017-10-02
Report Run at: December 18, 2017 02:03 EST
"Nutrient data for: 45333392, OATMEAL, UPC: 078716101304"
Food Group:  Branded Food Products Database
Common Name:

Nutrient,Unit,Data points,Std. Error,"0.25 cup = 30.0g",1Value per 100 g,
Proximates
"Energy",kcal,--,--,120,400
"Protein",g,--,--,4.00,13.33
"Total lipid (fat)",g,--,--,2.50,8.33
"Carbohydrate, by difference",g,--,--,20.00,66.67
"Fiber, total dietary",g,--,--,3.0,10.0
"Sugars, total",g,--,--,3.00,10.00
Minerals
"Calcium, Ca",mg,--,--,20,67
"Iron, Fe",mg,--,--,1.98,6.60
"Sodium, Na",mg,--,--,35,117
Vitamins
"Vitamin C, total ascorbic acid",mg,--,--,0.0,0.0
"Vitamin A, IU",IU,--,--,0,0
Lipids
"Fatty acids, total saturated",g,--,--,0.999,3.330
"Fatty acids, total trans",g,--,--,0.000,0.000
"Cholesterol",mg,--,--,0,0
Amino Acids
Other
Ingredients
"GLUTEN FREE QUICK OATS, BROWN SUGAR, CREAMER, COCONUT OIL, CORN SYRUP SOLIDS, SODIUM CASEINATE (A MILK DERIVATIVE), DIPOTASSIUM PHOSPHATE, SUGAR, MONO & DIGLYCERIDES, SILICON DIOXIDE, POLYSORBATE 80, TETRASODIUM PYROPHOSPHATE, SOY LECITHIN, NATURAL AND ARTIFICIAL MAPLE FLAVOR (DEXTROSE, MALTODEXTRIN, LESS THAN 2.0% SILICON DIOXIDE ADDED TO PREVENT CAKING), NON-IODIZED SALT." Date available: 10/13/2017 Date last updated by company: 10/13/2017
