Source: USDA Branded Food Products Database Release December 2017 Software v.3.8.6.4 2017-10-02
Report Run at: December 18, 2017 02:02 EST
"Nutrient data for: 45262593, OATMEAL RAISIN COOKIES, UPC: 049022578012"
Food Group:  Branded Food Products Database
Common Name:

Nutrient,Unit,Data points,Std. Error,"1 COOKIE = 25.0g",1Value per 100 g,
Proximates
"Energy",kcal,--,--,90,360
"Protein",g,--,--,1.00,4.00
"Total lipid (fat)",g,--,--,3.00,12.00
"Carbohydrate, by difference",g,--,--,17.00,68.00
"Fiber, total dietary",g,--,--,1.0,4.0
"Sugars, total",g,--,--,9.00,36.00
Minerals
"Calcium, Ca",mg,--,--,0,0
"Iron, Fe",mg,--,--,0.00,0.00
"Sodium, Na",mg,--,--,80,320
Vitamins
"Vitamin C, total ascorbic acid",mg,--,--,0.0,0.0
"Vitamin A, IU",IU,--,--,0,0
Lipids
"Fatty acids, total saturated",g,--,--,1.000,4.000
"Fatty acids, total trans",g,--,--,1.000,4.000
"Cholesterol",mg,--,--,5,20
Amino Acids
Other
Ingredients
"ENRICHED BLEACHED AND UNBLEACHED FLOUR (WHEAT FLOUR, NIACIN, IRON, THIAMIN MONONITRATE, RIBOFLAVIN, FOLIC ACID), SUGAR, VEGETABLE SHORTENING (PARTIALLY HYDROGENATED SOYBEAN AND/OR COTTONSEED OILS), HIGH FRUCTOSE CORN SYRUP, OATMEAL, RAISIN PASTE, RAISINS, WATER, CORN SYRUP, DRIED EGGS, LEAVENING (BAKING SODA), SALT, DRIED WHEY, CINNAMON, NATURAL & ARTIFICIAL FLAVORS." Date available: 07/14/2017 Date last updated by company: 07/14/2017
