Source: USDA Branded Food Products Database Release December 2017 Software v.3.8.6.4 2017-10-02
Report Run at: December 18, 2017 01:59 EST
"Nutrient data for: 45102242, OATMEAL & BROWN CRUNCH, UPC: 07131405622"
Food Group:  Branded Food Products Database
Common Name:

Nutrient,Unit,Data points,Std. Error,"1 SLICE = 45.0g",1Value per 100 g,
Proximates
"Energy",kcal,--,--,140,311
"Protein",g,--,--,5.00,11.11
"Total lipid (fat)",g,--,--,2.00,4.44
"Carbohydrate, by difference",g,--,--,23.00,51.11
"Fiber, total dietary",g,--,--,2.0,4.4
"Sugars, total",g,--,--,3.00,6.67
Minerals
"Calcium, Ca",mg,--,--,20,44
"Iron, Fe",mg,--,--,2.00,4.44
"Sodium, Na",mg,--,--,220,489
Vitamins
"Vitamin C, total ascorbic acid",mg,--,--,0.0,0.0
"Thiamin",mg,--,--,0.450,1.000
"Riboflavin",mg,--,--,0.102,0.227
"Niacin",mg,--,--,1.778,3.951
"Vitamin A, IU",IU,--,--,0,0
Lipids
"Fatty acids, total saturated",g,--,--,0.000,0.000
"Fatty acids, total monounsaturated",g,--,--,0.500,1.110
"Fatty acids, total polyunsaturated",g,--,--,0.000,0.000
"Fatty acids, total trans",g,--,--,0.000,0.000
"Cholesterol",mg,--,--,0,0
Amino Acids
Other
Ingredients
"ENRICHED UNBLEACHED FLOUR [WHEAT FLOUR, MALTED BARLEY FLOUR, REDUCED IRON, THIAMINE MONONITRATE (VITAMIN B1), RIBOFLAVIN (VITAMIN B2), NIACIN (VITAMIN B3) FOLIC ACID], WHOLE GRAIN WHEAT FLOUR, YEAST, WATER, BROWN SUGAR, ROLLED OATS, WHEAT GLUTEN, WHOLE OAT GROATS, NATURAL SOUR, SUNFLOWER SEEDS, NON-GMO SOYBEAN OIL, MILLET, FLAX SEED, NON-GMO CORN CEREAL, CINNAMON, CRACKED WHEAT, SEA SALT, POTATO FLOUR, BARLEY MALT, CULTURED WHEAT FLOUR, WHEAT STARCH, VINEGAR, CALCIUM SULFATE, CITRIC ACID, ASCORBIC ACID, SOY LECITHIN." Date available: 07/14/2017 Date last updated by company: 07/14/2017
