Source: USDA Branded Food Products Database Release December 2017 Software v.3.8.6.4 2017-10-02
Report Run at: December 18, 2017 02:00 EST
"Nutrient data for: 45155380, OATMEAL CREMES COOKIES, UPC: 041268197088"
Food Group:  Branded Food Products Database
Common Name:

Nutrient,Unit,Data points,Std. Error,"1 COOKIE = 37.0g",1Value per 100 g,
Proximates
"Energy",kcal,--,--,170,459
"Protein",g,--,--,1.00,2.70
"Total lipid (fat)",g,--,--,7.00,18.92
"Carbohydrate, by difference",g,--,--,24.00,64.86
"Fiber, total dietary",g,--,--,1.0,2.7
"Sugars, total",g,--,--,11.00,29.73
Minerals
"Calcium, Ca",mg,--,--,0,0
"Iron, Fe",mg,--,--,0.97,2.63
"Sodium, Na",mg,--,--,170,459
Vitamins
"Vitamin C, total ascorbic acid",mg,--,--,0.0,0.0
"Vitamin A, IU",IU,--,--,0,0
Lipids
"Fatty acids, total saturated",g,--,--,3.500,9.460
"Fatty acids, total monounsaturated",g,--,--,2.501,6.760
"Fatty acids, total polyunsaturated",g,--,--,0.500,1.350
"Fatty acids, total trans",g,--,--,0.000,0.000
"Cholesterol",mg,--,--,0,0
Amino Acids
Other
Ingredients
"UNBLEACHED ENRICHED FLOUR [WHEAT FLOUR, NIACIN, REDUCED IRON, THIAMINE MONONITRATE (VITAMIN B1), RIBOFLAVIN (VITAMIN B2), FOLIC ACID], PALM OIL, SUGAR, HIGH FRUCTOSE CORN SYRUP, WATER, CORN SYRUP, RAISIN PASTE, GLYCERINE, CONTAINS 2% OR LESS OF EACH OF THE FOLLOWING: LEAVENING (BAKING SODA, SODIUM ALUMINUM SULFATE, CORNSTARCH, CALCIUM SULFATE, MONOCALCIUM PHOSPHATE), FINE CRUSHED WHOLE OATS, MODIFIED CORN STARCH, SALT, COCOA, MOLASSES, SODIUM STEAROYL LACTYLATE, WHEAT STARCH, ARTIFICIAL FLAVORS, MONO AND DIGLYCERIDES, POLYSORBATE 60, CINNAMON, MONOGLYCERIDES, CARAMEL COLOR, CLOVE, NUTMEG, SOY LECITHIN, DEXTROSE, XANTHAN GUM, PROPYLENE GLYCOL ALGINATE." Date available: 07/14/2017 Date last updated by company: 07/14/2017
