Source: USDA Branded Food Products Database Release December 2017 Software v.3.8.6.4 2017-10-02
Report Run at: December 18, 2017 01:59 EST
"Nutrient data for: 45047043, OATMEAL CLASSIC WITH FLAX & CHIA, UPC: 039978021847"
Food Group:  Branded Food Products Database
Common Name:

Nutrient,Unit,Data points,Std. Error,"1 CONTAINER = 51.0g",1Value per 100 g,
Proximates
"Energy",kcal,--,--,210,412
"Protein",g,--,--,7.00,13.73
"Total lipid (fat)",g,--,--,5.00,9.80
"Carbohydrate, by difference",g,--,--,34.00,66.67
"Fiber, total dietary",g,--,--,7.0,13.7
"Sugars, total",g,--,--,1.00,1.96
Minerals
"Calcium, Ca",mg,--,--,20,39
"Iron, Fe",mg,--,--,1.41,2.77
"Sodium, Na",mg,--,--,160,314
Vitamins
"Vitamin C, total ascorbic acid",mg,--,--,0.0,0.0
"Vitamin A, IU",IU,--,--,0,0
Lipids
"Fatty acids, total saturated",g,--,--,1.000,1.960
"Fatty acids, total trans",g,--,--,0.000,0.000
"Cholesterol",mg,--,--,0,0
Amino Acids
Other
Ingredients
"GLUTEN FREE WHOLE GRAIN OATS, CHIA SEED, FLAXSEED, SEA SALT." Date available: 10/04/2017 Date last updated by company: 10/04/2017
