Source: USDA Branded Food Products Database Release December 2017 Software v.3.8.6.4 2017-10-02
Report Run at: December 18, 2017 01:59 EST
"Nutrient data for: 45211947, OATMEAL CHOCOLATE CHIP COOKIES MIX, UPC: 608866689201"
Food Group:  Branded Food Products Database
Common Name:

Nutrient,Unit,Data points,Std. Error,"3.0 Tbsp = 35.0g",1Value per 100 g,
Proximates
"Energy",kcal,--,--,150,429
"Protein",g,--,--,2.00,5.71
"Total lipid (fat)",g,--,--,3.00,8.57
"Carbohydrate, by difference",g,--,--,28.00,80.00
"Fiber, total dietary",g,--,--,1.0,2.9
"Sugars, total",g,--,--,15.00,42.86
Minerals
"Calcium, Ca",mg,--,--,40,114
"Iron, Fe",mg,--,--,0.82,2.35
"Sodium, Na",mg,--,--,70,200
Vitamins
"Vitamin C, total ascorbic acid",mg,--,--,0.0,0.0
"Vitamin A, IU",IU,--,--,0,0
Lipids
"Fatty acids, total saturated",g,--,--,1.502,4.290
"Fatty acids, total trans",g,--,--,0.000,0.000
"Cholesterol",mg,--,--,0,0
Amino Acids
Other
Ingredients
"SEMI-SWEET CHOCOLATE CHIPS (SUGAR, CHOCOLATE LIQUOR, COCOA BUTTER, SOY LECITHIN (AN EMULSIFIER), VANILLA, SALT), CERTIFIED GLUTEN FREE OATS, WHITE SUGAR, WHITE RICE FLOUR, BROWN SUGAR, MILLET FLOUR, ALUMINUM FREE BAKING POWDER, CINNAMON, SALT, BAKING SODA." Date available: 07/14/2017 Date last updated by company: 07/14/2017
