Source: USDA Branded Food Products Database Release December 2017 Software v.3.8.6.4 2017-10-02
Report Run at: December 18, 2017 02:04 EST
"Nutrient data for: 45199477, OATS GREEK YOGURT, UPC: 818290014726"
Food Group:  Branded Food Products Database
Common Name:

Nutrient,Unit,Data points,Std. Error,"1 CONTAINER = 150.0g",1Value per 100 g,
Proximates
"Energy",kcal,--,--,160,107
"Protein",g,--,--,10.01,6.67
"Total lipid (fat)",g,--,--,2.00,1.33
"Carbohydrate, by difference",g,--,--,25.99,17.33
"Fiber, total dietary",g,--,--,3.0,2.0
"Sugars, total",g,--,--,16.00,10.67
Minerals
"Calcium, Ca",mg,--,--,100,67
"Iron, Fe",mg,--,--,1.23,0.82
"Potassium, K",mg,--,--,240,160
"Sodium, Na",mg,--,--,45,30
Vitamins
"Vitamin C, total ascorbic acid",mg,--,--,0.0,0.0
"Vitamin A, IU",IU,--,--,0,0
Lipids
"Fatty acids, total saturated",g,--,--,1.005,0.670
"Fatty acids, total trans",g,--,--,0.000,0.000
"Cholesterol",mg,--,--,10,7
Amino Acids
Other
Ingredients
"LOWFAT YOGURT (CULTURED PASTEURIZED NONFAT MILK, CREAM, LIVE AND ACTIVE CULTURES: S. THERMOPHILUS, L. BULGARICUS, L. ACIDOPHILUS, BIFIDUS AND L. CASEI), WATER, BROWN SUGAR, STEEL-CUT OATS, RAISINS, OAT FIBER, PECTIN, LEMON JUICE CONCENTRATE, NATURAL FLAVORS, LOCUST BEAN GUM, GUAR GUM." Date available: 07/14/2017 Date last updated by company: 07/14/2017
