Source: USDA Branded Food Products Database Release December 2017 Software v.3.8.6.4 2017-10-02
Report Run at: December 18, 2017 02:04 EST
"Nutrient data for: 45188436, OATS & GRAIN CEREAL, UPC: 848737003051"
Food Group:  Branded Food Products Database
Common Name:

Nutrient,Unit,Data points,Std. Error,"0.75 cup = 55.0g",1Value per 100 g,
Proximates
"Energy",kcal,--,--,220,400
"Protein",g,--,--,4.00,7.27
"Total lipid (fat)",g,--,--,4.00,7.27
"Carbohydrate, by difference",g,--,--,43.00,78.18
"Fiber, total dietary",g,--,--,3.0,5.5
"Sugars, total",g,--,--,11.00,20.00
Minerals
"Calcium, Ca",mg,--,--,20,36
"Iron, Fe",mg,--,--,1.08,1.96
"Sodium, Na",mg,--,--,75,136
Vitamins
"Vitamin C, total ascorbic acid",mg,--,--,60.0,109.1
"Vitamin A, IU",IU,--,--,0,0
Lipids
"Fatty acids, total saturated",g,--,--,0.501,0.910
"Fatty acids, total monounsaturated",g,--,--,2.002,3.640
"Fatty acids, total polyunsaturated",g,--,--,1.001,1.820
"Fatty acids, total trans",g,--,--,0.000,0.000
"Cholesterol",mg,--,--,0,0
Amino Acids
Other
Ingredients
"RICE FLOUR, WHOLE OATS, MILLED CANE SUGAR, VEGETABLE OIL (CANOLA AND/OR SAFFLOWER AND/OR SUNFLOWER OIL), BARLEY MALT SYRUP, VANILLA BEAN PASTE (SUGAR, VANILLA EXTRACT, VANILLA BEAN, GUM TRAGACANTH), CORN FLOUR, RICE BRAN, NATURAL FLAVOR, OAT FIBER, VANILLA EXTRACT, AMARANTH, BARLEY, SALT, ASCORBIC ACID, QUINOA, MIXED TOCOPHEROLS (NATURAL VITAMIN E TO MAINTAIN FRESHNESS), STEVIA LEAF EXTRACT." Date available: 07/14/2017 Date last updated by company: 07/14/2017
