Source: USDA Branded Food Products Database Release December 2017 Software v.3.8.6.4 2017-10-02
Report Run at: December 18, 2017 02:05 EST
"Nutrient data for: 45257944, OATS + YOGURT, UPC: 857283004214"
Food Group:  Branded Food Products Database
Common Name:

Nutrient,Unit,Data points,Std. Error,"1 CONTAINER = 150.0g",1Value per 100 g,
Proximates
"Energy",kcal,--,--,130,87
"Protein",g,--,--,10.01,6.67
"Total lipid (fat)",g,--,--,4.00,2.67
"Carbohydrate, by difference",g,--,--,13.99,9.33
"Fiber, total dietary",g,--,--,5.0,3.3
"Sugars, total",g,--,--,5.00,3.33
Minerals
"Calcium, Ca",mg,--,--,80,53
"Iron, Fe",mg,--,--,0.81,0.54
"Sodium, Na",mg,--,--,20,13
Vitamins
"Vitamin C, total ascorbic acid",mg,--,--,0.0,0.0
"Vitamin A, IU",IU,--,--,226,151
Lipids
"Fatty acids, total saturated",g,--,--,2.505,1.670
"Fatty acids, total trans",g,--,--,0.000,0.000
"Cholesterol",mg,--,--,34,23
Amino Acids
Other
Ingredients
"ORGANIC PASTEURIZED SKIM MILK, ORGANIC PASTEURIZED WHOLE MILK, WATER, ORGANIC GLUTEN-FREE STEEL CUT OATS, ORGANIC DICED APPLES, ORGANIC APPLE JUICE CONCENTRATE, ORGANIC OAT FIBER, ORGANIC HONEY, ORGANIC CINNAMON, ORGANIC APPLE FLAVOR, ORGANIC LEMON JUICE CONCENTRATE, ORGANIC STEVIA EXTRACT, CULTURES (S. THERMOPHILUS, L. ACIDOPHILUS, L. BULGARICUS, L. YOGOURTI)." Date available: 07/14/2017 Date last updated by company: 07/14/2017
