Source: USDA Branded Food Products Database Release December 2017 Software v.3.8.6.4 2017-10-02
Report Run at: December 18, 2017 02:04 EST
"Nutrient data for: 45188441, OATS & FLAX OATMEAL, UPC: 848737005000"
Food Group:  Branded Food Products Database
Common Name:

Nutrient,Unit,Data points,Std. Error,"1 PACKET = 40.0g",1Value per 100 g,
Proximates
"Energy",kcal,--,--,150,375
"Protein",g,--,--,4.00,10.00
"Total lipid (fat)",g,--,--,2.00,5.00
"Carbohydrate, by difference",g,--,--,29.00,72.50
"Fiber, total dietary",g,--,--,3.0,7.5
"Sugars, total",g,--,--,11.00,27.50
Minerals
"Calcium, Ca",mg,--,--,0,0
"Iron, Fe",mg,--,--,1.08,2.70
"Sodium, Na",mg,--,--,130,325
Vitamins
"Vitamin C, total ascorbic acid",mg,--,--,0.0,0.0
"Vitamin A, IU",IU,--,--,0,0
Lipids
"Fatty acids, total saturated",g,--,--,0.000,0.000
"Fatty acids, total monounsaturated",g,--,--,0.500,1.250
"Fatty acids, total polyunsaturated",g,--,--,1.000,2.500
"Fatty acids, total trans",g,--,--,0.000,0.000
"Cholesterol",mg,--,--,0,0
Amino Acids
Other
Ingredients
"ORGANIC ROLLED OATS, ORGANIC DRIED SUGAR CANE SYRUP, ORGANIC FLAXSEED, SEA SALT." Date available: 07/14/2017 Date last updated by company: 07/14/2017
