Source: USDA Branded Food Products Database Release December 2017 Software v.3.8.6.4 2017-10-02
Report Run at: December 18, 2017 02:14 EST
"Nutrient data for: 45110338, OCEAN SPRAY, RUBY RED GRAPEFRUIT JUICE DRINK, UPC: 031200276278"
Food Group:  Branded Food Products Database
Common Name:

Nutrient,Unit,Data points,Std. Error,"8.0 fl oz = 251.0g",1Value per 100 g,
Proximates
"Energy",kcal,--,--,115,46
"Protein",g,--,--,0.00,0.00
"Total lipid (fat)",g,--,--,0.00,0.00
"Carbohydrate, by difference",g,--,--,29.29,11.67
"Sugars, total",g,--,--,29.29,11.67
Minerals
"Potassium, K",mg,--,--,105,42
"Sodium, Na",mg,--,--,30,12
Vitamins
"Vitamin C, total ascorbic acid",mg,--,--,62.8,25.0
"Vitamin A, IU",IU,--,--,1047,417
Lipids
Amino Acids
Other
Ingredients
"FILTERED WATER, RUBY RED GRAPEFRUIT JUICE FROM CONCENTRATE, CANE OR BEET SUGAR, CARROT JUICE FROM CONCENTRATE, GRAPEFRUIT JUICE PULP, CITRIC ACID, NATURAL FLAVORS, SODIUM CITRATE, ASCORBIC ACID (VITAMIN C), BETA CAROTENE (VITAMIN A)" Date available: 03/22/2017 Date last updated by company: 03/22/2017
