Source: USDA Branded Food Products Database Release December 2017 Software v.3.8.6.4 2017-10-02
Report Run at: December 18, 2017 02:08 EST
"Nutrient data for: 45110356, OCEAN SPRAY, CRAISINS, GREEK YOGURT COVERED SWEETENED DRIED CRANBERRIES, UPC: 031200037213"
Food Group:  Branded Food Products Database
Common Name:

Nutrient,Unit,Data points,Std. Error,"2.0 Tbsp = 30.0g",1Value per 100 g,
Proximates
"Energy",kcal,--,--,140,467
"Protein",g,--,--,1.00,3.33
"Total lipid (fat)",g,--,--,6.00,20.00
"Carbohydrate, by difference",g,--,--,21.00,70.00
"Fiber, total dietary",g,--,--,1.0,3.3
"Sugars, total",g,--,--,21.00,70.00
Minerals
"Calcium, Ca",mg,--,--,40,133
"Iron, Fe",mg,--,--,0.00,0.00
"Sodium, Na",mg,--,--,10,33
Vitamins
"Vitamin C, total ascorbic acid",mg,--,--,0.0,0.0
"Vitamin A, IU",IU,--,--,0,0
Lipids
"Fatty acids, total saturated",g,--,--,5.001,16.670
"Fatty acids, total trans",g,--,--,0.000,0.000
"Cholesterol",mg,--,--,0,0
Amino Acids
Other
Ingredients
"GREEK YOGURT COATING [SUGAR, PALM KERNEL OIL, NONFAT MILK POWDER, GREEK YOGURT POWDER (NONFAT MILK SOLIDS, CULTURE, LACTIC ACID, NATURAL FLAVOR), LACTIC ACID, SOY LECITHIN (AN EMULSIFIER), NATURAL FLAVOR], SWEETENED DRIED CRANBERRIES (CRANBERRIES, SUGAR), COATING (GUM ACACIA, MALTODEXTRIN, AND SUGAR), CONFECTIONER'S GLAZE." Date available: 09/23/2016 Date last updated by company: 09/23/2016
