Source: USDA Branded Food Products Database Release December 2017 Software v.3.8.6.4 2017-10-02
Report Run at: December 18, 2017 02:17 EST
"Nutrient data for: 45134078, ODOMS TENNESSEE PRIDE Sausage Pancakes, UNPREPARED, GTIN: 00072290022413"
Food Group:  Branded Food Products Database
Common Name:

Nutrient,Unit,Data points,Std. Error,"2.0 Sandwiches (78g) = 78.0g",1Value per 100 g,
Proximates
"Energy",kcal,--,--,220,282
"Protein",g,--,--,6.00,7.69
"Total lipid (fat)",g,--,--,14.00,17.95
"Carbohydrate, by difference",g,--,--,18.00,23.08
"Fiber, total dietary",g,--,--,1.0,1.3
"Sugars, total",g,--,--,6.00,7.69
Minerals
"Calcium, Ca",mg,--,--,40,51
"Iron, Fe",mg,--,--,1.08,1.38
"Potassium, K",mg,--,--,150,192
"Sodium, Na",mg,--,--,520,667
Vitamins
"Vitamin C, total ascorbic acid",mg,--,--,0.0,0.0
"Vitamin A, IU",IU,--,--,0,0
Lipids
"Fatty acids, total saturated",g,--,--,4.501,5.770
"Fatty acids, total monounsaturated",g,--,--,5.998,7.690
"Fatty acids, total polyunsaturated",g,--,--,3.003,3.850
"Fatty acids, total trans",g,--,--,0.000,0.000
"Cholesterol",mg,--,--,25,32
Amino Acids
Other
Ingredients
"Natural and Artificially Flavored Maple Pancake: Water, Enriched Flour (Wheat Flour, Niacin, Reduced Iron, Thiamine Mononitrate, Riboflavin, Folic Acid), Whey, Maple Bits [Sugar, Vegetable Oil (Palm, Palm Kernel Oils), Wheat Flour, Cocoa Powder, Glucose, Extractives Of Foenugreek, Maple Sugar, Caramel Color, Soy Lecithin], Corn Flour, Sugar, Contains 2% Or Less Of: Soybean Oil, Leavening (Sodium Bicarbonate, Sodium Acid Pyrophosphate, Monocalcium Phosphate), Dextrose, Salt, Natural And Artificial Flavors (Contains Barley, Milk), Maltodextrin, Modified Corn Starch, Caramel Color, Corn Syrup Solids, Eggs, Corn Starch, Sodium Stearoyl Lactylate, Potassium Sorbate And Calcium Propionate (Preservatives), Mono- And Diglycerides, Xanthan Gum. Sausage Patty: Pork, Water, Contains Less than 2% of: Salt, Spice and Spice Extractives, Sodium Phosphate, Sugar, Monosodium Glutamate, Caramel Color, BHT, Citric Acid, Propyl Gallate. CONTAINS: WHEAT, EGGS, MILK, SOY." Date available: 10/12/2017 Date last updated by company: 10/12/2017
