Source: USDA Branded Food Products Database Release December 2017 Software v.3.8.6.4 2017-10-02
Report Run at: December 18, 2017 02:17 EST
"Nutrient data for: 45134057, ODOMS TENNESSEE PRIDE Sausage Croissant, UNPREPARED, GTIN: 00072290052762"
Food Group:  Branded Food Products Database
Common Name:

Nutrient,Unit,Data points,Std. Error,"2.0 Sandwiches (72g) = 72.0g",1Value per 100 g,
Proximates
"Energy",kcal,--,--,280,389
"Protein",g,--,--,7.00,9.72
"Total lipid (fat)",g,--,--,19.00,26.39
"Carbohydrate, by difference",g,--,--,21.00,29.17
"Fiber, total dietary",g,--,--,1.0,1.4
"Sugars, total",g,--,--,3.00,4.17
Minerals
"Calcium, Ca",mg,--,--,40,56
"Iron, Fe",mg,--,--,1.44,2.00
"Potassium, K",mg,--,--,110,153
"Sodium, Na",mg,--,--,510,708
Vitamins
"Vitamin C, total ascorbic acid",mg,--,--,0.0,0.0
"Vitamin A, IU",IU,--,--,200,278
Lipids
"Fatty acids, total saturated",g,--,--,7.999,11.110
"Fatty acids, total monounsaturated",g,--,--,6.998,9.720
"Fatty acids, total polyunsaturated",g,--,--,3.002,4.170
"Fatty acids, total trans",g,--,--,0.000,0.000
"Cholesterol",mg,--,--,20,28
Amino Acids
Other
Ingredients
"Croissant: Enriched Flour (Wheat Flour, Malted Barley Flour, Niacin, Reduced Iron, Thiamine Mononitrate, Riboflavin, Folic Acid), Water, Margarine (Palm Oil, Water, Salt, Monoglycerides, Whey, Sodium Benzoate [Preservative], Natural And Artificial Flavor, Citric Acid [Preservative], Beta-Carotene Color, Vitamin A Palmitate), High Fructose Corn Syrup, Contains Less Than 2 % Of: Yeast, Salt, Whey, Calcium Propionate (Preservative), Calcium Sulfate, Dextrose, Sugar, Maltodextrin, Wheat Flour, Natural And Artificial Flavor, Enzymes, Ascorbic Acid (Dough Conditioner), Capric Acid And Caprylic Acid Triglyceride Blend, Gum Arabic, Calcium Phosphate, High Oleic Canola Oil. Sausage Patty: Pork, Water, Contains Less than 2% of: Salt, Spice and Spice Extractives, Sodium Phosphate, Sugar, Monosodium Glutamate, Caramel Color, BHT, Citric Acid, Propyl Gallate. CONTAINS: WHEAT, MILK." Date available: 10/12/2017 Date last updated by company: 10/09/2017
