Source: USDA Branded Food Products Database Release December 2017 Software v.3.8.6.4 2017-10-02
Report Run at: December 18, 2017 02:20 EST
"Nutrient data for: 45166717, OH, SUGAR!, CHOCOLATE MALT BALLS, UPC: 848582005491"
Food Group:  Branded Food Products Database
Common Name:

Nutrient,Unit,Data points,Std. Error,"40.0 GRM = 40.0g",1Value per 100 g,
Proximates
"Energy",kcal,--,--,200,500
"Protein",g,--,--,1.00,2.50
"Total lipid (fat)",g,--,--,11.00,27.50
"Carbohydrate, by difference",g,--,--,27.00,67.50
"Fiber, total dietary",g,--,--,1.0,2.5
"Sugars, total",g,--,--,22.00,55.00
Minerals
"Calcium, Ca",mg,--,--,40,100
"Iron, Fe",mg,--,--,0.00,0.00
"Sodium, Na",mg,--,--,15,38
Vitamins
"Vitamin C, total ascorbic acid",mg,--,--,0.0,0.0
"Vitamin A, IU",IU,--,--,0,0
Lipids
"Fatty acids, total saturated",g,--,--,9.000,22.500
"Fatty acids, total trans",g,--,--,0.000,0.000
"Cholesterol",mg,--,--,5,12
Amino Acids
Other
Ingredients
"SUGAR, CORN SYRUP, PARTIALLY HYDROGENATED PALM KERNEL OIL, WHEY, MALTED MILK (MALTED BARLEY, WHEAT FLOUR, MILK, SODIUM BICARBONATE, SALT), COCOA POWDER, MALT SYRUP, COCONUT OIL, SORBITAN TRISTEARATE, MONO & DIGLYCERIDES, SOY LECITHIN, SALT, MODIFIED FOOD STARCH, GUM ARABIC, ARTIFICIAL FLAVORS, CONFECTIONERS' GLAZE" Date available: 07/14/2017 Date last updated by company: 07/14/2017
