Source: USDA Branded Food Products Database Release December 2017 Software v.3.8.6.4 2017-10-02
Report Run at: December 18, 2017 02:21 EST
"Nutrient data for: 45159245, OISHI, CORN SNACK, NACHO CHEESE, UPC: 800194180676"
Food Group:  Branded Food Products Database
Common Name:

Nutrient,Unit,Data points,Std. Error,"1.06 ONZ = 30.0g",1Value per 100 g,
Proximates
"Energy",kcal,--,--,160,533
"Protein",g,--,--,2.00,6.67
"Total lipid (fat)",g,--,--,8.00,26.67
"Carbohydrate, by difference",g,--,--,18.00,60.00
"Fiber, total dietary",g,--,--,0.0,0.0
"Sugars, total",g,--,--,1.00,3.33
Minerals
"Calcium, Ca",mg,--,--,0,0
"Iron, Fe",mg,--,--,0.00,0.00
"Sodium, Na",mg,--,--,180,600
Vitamins
"Vitamin C, total ascorbic acid",mg,--,--,0.0,0.0
"Vitamin A, IU",IU,--,--,0,0
Lipids
"Fatty acids, total saturated",g,--,--,3.999,13.330
"Fatty acids, total trans",g,--,--,0.000,0.000
"Cholesterol",mg,--,--,5,17
Amino Acids
Other
Ingredients
"CORN, VEGETABLE OIL (MAY CONSIST OF COCONUT OIL AND/OR PALM OLEIN), CHEESE POWDER, SUGAR, MILK POWDER, SALT, ARTIFICIAL FLAVOR (TACO), MONOSODIUM GLUTAMATE (AS FLAVOR ENHANCER), ONION POWDER, NATURAL MILK FLAVOR, GARLIC POWDER, GROUND OREGANO, DISODIUM INOSINATE, DISODIUM GUANYLATE, SPICES, AND TBHQ (ADDED TO RETARD RANCIDITY)." Date available: 07/14/2017 Date last updated by company: 07/14/2017
