Source: USDA Branded Food Products Database Release December 2017 Software v.3.8.6.4 2017-10-02
Report Run at: December 18, 2017 02:22 EST
"Nutrient data for: 45170828, OKF, ALOE VERA KING, ALOE VERA DRINK, PINEAPPLE, UPC: 884394000293"
Food Group:  Branded Food Products Database
Common Name:

Nutrient,Unit,Data points,Std. Error,"8.0 OZA = 240.0g",1Value per 100 g,
Proximates
"Energy",kcal,--,--,91,38
"Protein",g,--,--,0.00,0.00
"Total lipid (fat)",g,--,--,0.00,0.00
"Carbohydrate, by difference",g,--,--,22.01,9.17
"Fiber, total dietary",g,--,--,0.0,0.0
"Sugars, total",g,--,--,19.01,7.92
Minerals
"Sodium, Na",mg,--,--,7,3
Vitamins
"Vitamin C, total ascorbic acid",mg,--,--,36.0,15.0
Lipids
"Fatty acids, total saturated",g,--,--,0.000,0.000
"Fatty acids, total trans",g,--,--,0.000,0.000
"Cholesterol",mg,--,--,0,0
Amino Acids
Other
Ingredients
"MINERAL WATER, ORGANIC ALOE VERA GEL POWDER, ALOE VERA GEL, ORGANIC CANE SUGAR, ALOE VERA JUICE, HONEY, CITRIC ACID, CALCIUM LACTATE, NATURAL PINEAPPLE FLAVOR, VITAMIN C, GELLAN GUM, SALT, COLORED WITH BETA-CAROTENE." Date available: 06/25/2017 Date last updated by company: 06/25/2017
