Source: USDA Branded Food Products Database Release December 2017 Software v.3.8.6.4 2017-10-02
Report Run at: December 18, 2017 02:23 EST
"Nutrient data for: 45184831, OKRA, UPC: 669212176066"
Food Group:  Branded Food Products Database
Common Name:

Nutrient,Unit,Data points,Std. Error,"7.0 (3 INCH) PODS = 83.0g",1Value per 100 g,
Proximates
"Energy",kcal,--,--,25,30
"Protein",g,--,--,2.00,2.41
"Total lipid (fat)",g,--,--,0.00,0.00
"Carbohydrate, by difference",g,--,--,6.00,7.23
"Fiber, total dietary",g,--,--,3.0,3.6
"Sugars, total",g,--,--,1.00,1.20
Minerals
"Calcium, Ca",mg,--,--,60,72
"Iron, Fe",mg,--,--,0.72,0.87
"Sodium, Na",mg,--,--,5,6
Vitamins
"Vitamin C, total ascorbic acid",mg,--,--,18.0,21.7
"Vitamin A, IU",IU,--,--,300,361
Lipids
"Fatty acids, total saturated",g,--,--,0.000,0.000
"Fatty acids, total trans",g,--,--,0.000,0.000
"Cholesterol",mg,--,--,0,0
Amino Acids
Other
Ingredients
"OKRA" Date available: 11/25/2016 Date last updated by company: 11/25/2016
