Source: USDA Branded Food Products Database Release December 2017 Software v.3.8.6.4 2017-10-02
Report Run at: December 18, 2017 02:41 EST
"Nutrient data for: 45037577, OLD WISCONSIN, PREMIUM SUMMER SAUSAGE, TURKEY, UPC: 073170800381"
Food Group:  Branded Food Products Database
Common Name:

Nutrient,Unit,Data points,Std. Error,"2.0 ONZ = 56.0g",1Value per 100 g,
Proximates
"Energy",kcal,--,--,120,214
"Protein",g,--,--,11.00,19.64
"Total lipid (fat)",g,--,--,7.00,12.50
"Carbohydrate, by difference",g,--,--,1.00,1.79
"Fiber, total dietary",g,--,--,0.0,0.0
"Sugars, total",g,--,--,0.00,0.00
Minerals
"Calcium, Ca",mg,--,--,0,0
"Iron, Fe",mg,--,--,0.71,1.26
"Sodium, Na",mg,--,--,710,1268
Vitamins
"Vitamin C, total ascorbic acid",mg,--,--,29.5,52.6
"Vitamin A, IU",IU,--,--,0,0
Lipids
"Fatty acids, total saturated",g,--,--,1.999,3.570
"Fatty acids, total trans",g,--,--,0.000,0.000
"Cholesterol",mg,--,--,40,71
Amino Acids
Other
Ingredients
"TURKEY, SALT, CONTAINS 2% OR LESS OF: DEXTROSE, LACTIC ACID STARTER CULTURE, SPICES, NATURAL FLAVORINGS, GARLIC POWDER, SODIUM ASCORBATE, SODIUM NITRITE." Date available: 07/14/2017 Date last updated by company: 07/14/2017
