Source: USDA Branded Food Products Database Release December 2017 Software v.3.8.6.4 2017-10-02
Report Run at: December 18, 2017 02:41 EST
"Nutrient data for: 45206573, OLD WISCONSIN, FULLY COOKED SMOKED SAUSAGE LINKS, UPC: 073170100122"
Food Group:  Branded Food Products Database
Common Name:

Nutrient,Unit,Data points,Std. Error,"1 LINK = 66.0g",1Value per 100 g,
Proximates
"Energy",kcal,--,--,220,333
"Protein",g,--,--,7.00,10.61
"Total lipid (fat)",g,--,--,20.00,30.30
"Carbohydrate, by difference",g,--,--,2.00,3.03
"Fiber, total dietary",g,--,--,0.0,0.0
"Sugars, total",g,--,--,0.00,0.00
Minerals
"Calcium, Ca",mg,--,--,20,30
"Iron, Fe",mg,--,--,0.30,0.46
"Sodium, Na",mg,--,--,640,970
Vitamins
"Vitamin C, total ascorbic acid",mg,--,--,0.0,0.0
"Vitamin A, IU",IU,--,--,0,0
Lipids
"Fatty acids, total saturated",g,--,--,7.003,10.610
"Cholesterol",mg,--,--,40,61
Amino Acids
Other
Ingredients
"PORK, WATER, [CHEDDAR CHEESE (MILK, CHEESE CULTURE, SALT AND ENZYMES), WATER, CREAM, SODIUM PHOSPHATE, ENZYME MODIFIED CHEESE (MILK, CHEESE CULTURE, SALT, ENZYMES, WATER, DISODIUM PHOSPHATE, LIPOLYZED CREAM), SALT, SORBIC ACID (PRESERVATIVE), CITRIC ACID, APOCAROTENAL (COLOR)], BEEF, CONTAINS 2% OR LESS OF: SALT, CORN SYRUP SOLIDS, NATURAL SPICES, DEXTROSE, SODIUM AND POTASSIUM LACTATE, NATURAL FLAVORINGS, SODIUM DIACETATE, SODIUM ERYTHORBATE (MADE FROM SUGAR), SODIUM NITRITE." Date available: 07/14/2017 Date last updated by company: 07/14/2017
