Source: USDA Branded Food Products Database Release December 2017 Software v.3.8.6.4 2017-10-02
Report Run at: December 18, 2017 02:34 EST
"Nutrient data for: 45082950, OLD FASHIONED OATS, UPC: 883978152854"
Food Group:  Branded Food Products Database
Common Name:

Nutrient,Unit,Data points,Std. Error,"0.5 cup = 40.0g",1Value per 100 g,
Proximates
"Energy",kcal,--,--,150,375
"Protein",g,--,--,5.00,12.50
"Total lipid (fat)",g,--,--,3.00,7.50
"Carbohydrate, by difference",g,--,--,27.00,67.50
"Fiber, total dietary",g,--,--,4.0,10.0
"Sugars, total",g,--,--,1.00,2.50
Minerals
"Calcium, Ca",mg,--,--,0,0
"Iron, Fe",mg,--,--,1.80,4.50
"Sodium, Na",mg,--,--,0,0
Vitamins
"Vitamin C, total ascorbic acid",mg,--,--,0.0,0.0
"Vitamin A, IU",IU,--,--,0,0
Lipids
"Fatty acids, total saturated",g,--,--,0.500,1.250
"Fatty acids, total monounsaturated",g,--,--,1.000,2.500
"Fatty acids, total polyunsaturated",g,--,--,1.000,2.500
"Fatty acids, total trans",g,--,--,0.000,0.000
"Cholesterol",mg,--,--,0,0
Amino Acids
Other
Ingredients
"100% WHOLE GRAIN ROLLED OATS." Date available: 07/14/2017 Date last updated by company: 07/14/2017
