Source: USDA Branded Food Products Database Release December 2017 Software v.3.8.6.4 2017-10-02
Report Run at: December 18, 2017 02:41 EST
"Nutrient data for: 45036549, OLD WISCONSIN, SPREADABLE PATE, ORIGINAL, UPC: 073170292155"
Food Group:  Branded Food Products Database
Common Name:

Nutrient,Unit,Data points,Std. Error,"2.0 ONZ = 56.0g",1Value per 100 g,
Proximates
"Energy",kcal,--,--,210,375
"Protein",g,--,--,8.00,14.29
"Total lipid (fat)",g,--,--,18.00,32.14
"Carbohydrate, by difference",g,--,--,3.00,5.36
"Fiber, total dietary",g,--,--,0.0,0.0
"Sugars, total",g,--,--,3.00,5.36
Minerals
"Calcium, Ca",mg,--,--,0,0
"Iron, Fe",mg,--,--,5.30,9.47
"Sodium, Na",mg,--,--,520,929
Vitamins
"Vitamin C, total ascorbic acid",mg,--,--,0.0,0.0
"Vitamin A, IU",IU,--,--,7857,14030
Lipids
"Fatty acids, total saturated",g,--,--,7.000,12.500
"Fatty acids, total trans",g,--,--,0.000,0.000
"Cholesterol",mg,--,--,75,134
Amino Acids
Other
Ingredients
"PORK, PORK LIVERS, BACON (CURED WITH WATER, SALT, CONTAINS 2% OR LESS OF: SUGAR, SODIUM PHOSPHATE, SMOKE FLAVORING, SODIUM ERYTHORBATE [MADE FROM SUGAR], SODIUM NITRITE), POTATO STARCH, SALT, CORN SYRUP, DEXTROSE, WATER, FLAVORINGS, NATURAL FLAVORINGS, SUGAR, SODIUM NITRITE." Date available: 07/14/2017 Date last updated by company: 07/14/2017
