Source: USDA Branded Food Products Database Release December 2017 Software v.3.8.6.4 2017-10-02
Report Run at: December 18, 2017 02:31 EST
"Nutrient data for: 45053889, OLD FASHIONED COLE SLAW, UPC: 041497058495"
Food Group:  Branded Food Products Database
Common Name:

Nutrient,Unit,Data points,Std. Error,"0.33 cup = 83.0g",1Value per 100 g,
Proximates
"Energy",kcal,--,--,180,217
"Protein",g,--,--,1.00,1.20
"Total lipid (fat)",g,--,--,15.00,18.07
"Carbohydrate, by difference",g,--,--,10.00,12.05
"Fiber, total dietary",g,--,--,1.0,1.2
"Sugars, total",g,--,--,8.00,9.64
Minerals
"Calcium, Ca",mg,--,--,40,48
"Iron, Fe",mg,--,--,0.61,0.73
"Sodium, Na",mg,--,--,590,711
Vitamins
"Vitamin C, total ascorbic acid",mg,--,--,43.5,52.4
"Vitamin A, IU",IU,--,--,1265,1524
Lipids
"Fatty acids, total saturated",g,--,--,2.498,3.010
"Fatty acids, total trans",g,--,--,0.000,0.000
"Cholesterol",mg,--,--,15,18
Amino Acids
Other
Ingredients
"CABBAGE, MAYONNAISE (SOYBEAN OIL, WHOLE EGGS, EGG YOLKS, DISTILLED VINEGAR, WATER, SALT, SUGAR, DEXTROSE, MUSTARD FLOUR, LEMON JUICE CONCENTRATE, NATURAL FLAVOR, ONION POWDER, GARLIC POWDER, CALCIUM DISODIUM EDTA [ PRESERVATIVES]), DRESSING (SOYBEAN OIL, CORN SYRUP, VINEGAR, WATER, MODIFIED CORN STARCH, SALT, MUSTARD FLOUR, ONION POWDER, NATURAL FLAVOR, CALCIUM DISODIUM EDTA [ PRESERVATIVES]), SUGAR, VINEGAR, CARROTS, ASCORBIC ACID 9TO MAINTAIN COLOR), POTASSIUM SORBATE AND SODIUM BENZOATE (PRESERVATIVES), CITRIC ACID, XANTHAN GUM (AS A THICKENER), WHITE PEPPER." Date available: 09/20/2017 Date last updated by company: 09/20/2017
