Source: USDA Branded Food Products Database Release December 2017 Software v.3.8.6.4 2017-10-02
Report Run at: December 18, 2017 02:41 EST
"Nutrient data for: 45206965, OLD WISCONSIN, FAST FUEL TURKEY SAUSAGE SNACK BITES, UPC: 073170129536"
Food Group:  Branded Food Products Database
Common Name:

Nutrient,Unit,Data points,Std. Error,"6.0 PIECES = 30.0g",1Value per 100 g,
Proximates
"Energy",kcal,--,--,90,300
"Protein",g,--,--,8.00,26.67
"Total lipid (fat)",g,--,--,3.00,10.00
"Carbohydrate, by difference",g,--,--,6.00,20.00
"Fiber, total dietary",g,--,--,0.0,0.0
"Sugars, total",g,--,--,6.00,20.00
Minerals
"Calcium, Ca",mg,--,--,20,67
"Iron, Fe",mg,--,--,1.20,4.00
"Sodium, Na",mg,--,--,420,1400
Vitamins
"Vitamin C, total ascorbic acid",mg,--,--,0.0,0.0
"Vitamin A, IU",IU,--,--,0,0
Lipids
"Fatty acids, total saturated",g,--,--,0.999,3.330
"Fatty acids, total trans",g,--,--,0.000,0.000
"Cholesterol",mg,--,--,25,83
Amino Acids
Other
Ingredients
"TURKEY, BROWN SUGAR, DRIED HONEY (REFINERY SYRUP, HONEY), CONTAINS 2% OR LESS OF: HYDROLYZED CORN PROTEIN, SALT, FRUCTOSE, LACTIC ACID STARTER CULTURE, SODIUM ERYTHORBATE, SODIUM NITRITE. IN COLLAGEN CASING." Date available: 07/14/2017 Date last updated by company: 07/14/2017
