Source: USDA Branded Food Products Database Release December 2017 Software v.3.8.6.4 2017-10-02
Report Run at: December 18, 2017 02:35 EST
"Nutrient data for: 45194277, OLD FASHIONED POTATO SALAD, UPC: 017839941015"
Food Group:  Branded Food Products Database
Common Name:

Nutrient,Unit,Data points,Std. Error,"0.5 cup = 126.0g",1Value per 100 g,
Proximates
"Energy",kcal,--,--,239,190
"Protein",g,--,--,3.00,2.38
"Total lipid (fat)",g,--,--,17.00,13.49
"Carbohydrate, by difference",g,--,--,20.00,15.87
"Fiber, total dietary",g,--,--,2.0,1.6
"Sugars, total",g,--,--,3.00,2.38
Minerals
"Calcium, Ca",mg,--,--,20,16
"Iron, Fe",mg,--,--,0.40,0.32
"Sodium, Na",mg,--,--,500,397
Vitamins
"Vitamin C, total ascorbic acid",mg,--,--,6.7,5.3
"Vitamin A, IU",IU,--,--,111,88
Lipids
"Fatty acids, total saturated",g,--,--,3.994,3.170
"Fatty acids, total trans",g,--,--,0.000,0.000
"Cholesterol",mg,--,--,76,60
Amino Acids
Other
Ingredients
"POTATOES, MAYONNAISE (SOYBEAN OIL, WATER, EGG YOLK, HIGH FRUCTOSE CORN SYRUP, VINEGAR, SALT, MUSTARD, NATURAL FLAVOR, CITRIC ACID, CALCIUM DISODIUM EDTA [TO PROTECT FLAVOR], LEMON JUICE), EGGS, SALAD DRESSING (WATER, SOYBEAN OIL, HIGH FRUCTOSE CORN SYRUP, VINEGAR, MODIFIED FOOD STARCH, EGG YOLK, SALT, NATURAL FLAVOR, GARLIC, PAPRIKA, CALCIUM DISODIUM EDTA [TO PROTECT FLAVOR], LEMON JUICE), SOUR CREAM (CULTURED MILK, CREAM, NONFAT MILK, MODIFIED CORN STARCH, GUAR GUM, SODIUM CITRATE, CARRAGEENAN, LOCUST BEAN GUM, POTASSIUM SORBATE [PRESERVATIVE], NATURAL FLAVOR), MUSTARD (WATER, VINEGAR, MUSTARD SEED, SALT, TURMERIC), SUGAR, ONIONS, VINEGAR, SALT, GLUCONO-DELTA-LACTONE, SODIUM BENZOATE (PRESERVATIVE), WHITE PEPPER, POTASSIUM SORBATE (PRESERVATIVE), CELERY SEEDS." Date available: 07/14/2017 Date last updated by company: 07/14/2017
