Source: USDA Branded Food Products Database Release December 2017 Software v.3.8.6.4 2017-10-02
Report Run at: December 18, 2017 02:23 EST
"Nutrient data for: 45107022, OLD BAY, GARLIC AND HERB SEASONING, UPC: 070328160038"
Food Group:  Branded Food Products Database
Common Name:

Nutrient,Unit,Data points,Std. Error,"0.25 tsp = 0.8g",1Value per 100 g,
Proximates
"Energy",kcal,--,--,0,0
"Protein",g,--,--,0.00,0.00
"Total lipid (fat)",g,--,--,0.00,0.00
"Carbohydrate, by difference",g,--,--,0.00,0.00
Minerals
"Sodium, Na",mg,--,--,100,12500
Vitamins
Lipids
Amino Acids
Other
Ingredients
"GARLIC, SALT, SPICES AND HERBS (INCLUDING CELERY SEED, RED PEPPER, AND BAY LEAVES), PAPRIKA, MODIFIED CORN STARCH, AND NATURAL FLAVORS." Date available: 07/14/2017 Date last updated by company: 07/14/2017
