Source: USDA Branded Food Products Database Release December 2017 Software v.3.8.6.4 2017-10-02
Report Run at: December 18, 2017 02:38 EST
"Nutrient data for: 45176074, OLD FASHIONFRUIT CAKE, UPC: 073652410015"
Food Group:  Branded Food Products Database
Common Name:

Nutrient,Unit,Data points,Std. Error,"0.0625 CONTENTS = 114.0g",1Value per 100 g,
Proximates
"Energy",kcal,--,--,390,342
"Protein",g,--,--,7.00,6.14
"Total lipid (fat)",g,--,--,8.99,7.89
"Carbohydrate, by difference",g,--,--,71.00,62.28
"Fiber, total dietary",g,--,--,9.0,7.9
"Sugars, total",g,--,--,36.00,31.58
Minerals
"Calcium, Ca",mg,--,--,100,88
"Iron, Fe",mg,--,--,1.89,1.66
"Sodium, Na",mg,--,--,65,57
Vitamins
"Vitamin C, total ascorbic acid",mg,--,--,2.5,2.2
"Vitamin A, IU",IU,--,--,211,185
Lipids
"Fatty acids, total saturated",g,--,--,1.505,1.320
"Fatty acids, total trans",g,--,--,0.000,0.000
"Cholesterol",mg,--,--,60,53
Amino Acids
Other
Ingredients
"RAISINS, ORANGE PEEL, PINEAPPLE, FLOUR (BLEACHED WHEAT, MALTED BARLEY, NIACIN, REDUCED IRON, THIAMINE MONONITRATE, RIBOFLAVIN, FOLIC ACID), CHERRIES, NUT MEALS (ALMONDS, PECANS, AND WALNUTS), WATER, CORN SYRUP, SUGAR, HIGH FRUCTOSE CORN SYRUP, MARGARINE, LIQUID MARGARINE (PARTIALLY HYDROGENATED SOYBEAN OIL, HYDROGENATED SOYBEAN OIL, SOYBEAN OIL, WATER, SALT, MONO AND DIGLYCERIDES, SOY LECITHIN, NATURAL AND ARTIFICIAL FLAVOR), LEMON PEEL, DRIED WHOLE EGGS, CONTAINS 2% OR LESS OF EACH OF THE FOLLOWING: SODIUM BENZOATE AND POTASSIUM SORBATE AND SORBIC ACID AND VITAMIN A PALMITATE AND SULFUR DIOXIDE (PRESERVATIVES). BETA-CAROTENE (COLOR), CITRIC ACID, ARTIFICIAL RUM FLAVOR, FD&C RED NO. 40, YELLOW NO. 5, AND BLUE NO. 1." Date available: 07/14/2017 Date last updated by company: 07/14/2017
