Source: USDA Branded Food Products Database Release December 2017 Software v.3.8.6.4 2017-10-02
Report Run at: December 18, 2017 02:27 EST
"Nutrient data for: 45310683, OLD EL PASO STAND N STUFF TACO SHELLS, UNPREPARED, GTIN: 00046000279183"
Food Group:  Branded Food Products Database
Common Name:

Nutrient,Unit,Data points,Std. Error,"2.0 shells (27g) = 27.0g",1Value per 100 g,
Proximates
"Energy",kcal,--,--,130,481
"Protein",g,--,--,2.00,7.41
"Total lipid (fat)",g,--,--,6.00,22.22
"Carbohydrate, by difference",g,--,--,16.00,59.26
"Fiber, total dietary",g,--,--,1.0,3.7
"Sugars, total",g,--,--,0.00,0.00
Minerals
"Calcium, Ca",mg,--,--,20,74
"Iron, Fe",mg,--,--,0.36,1.33
"Sodium, Na",mg,--,--,110,407
Vitamins
"Vitamin C, total ascorbic acid",mg,--,--,0.0,0.0
"Vitamin A, IU",IU,--,--,0,0
Lipids
"Fatty acids, total saturated",g,--,--,2.500,9.260
"Fatty acids, total trans",g,--,--,0.000,0.000
"Cholesterol",mg,--,--,0,0
Amino Acids
Other
Ingredients
"LIMED CORN FLOUR, PALM OIL, SALT." Date available: 10/10/2017 Date last updated by company: 08/26/2017
