Source: USDA Branded Food Products Database Release December 2017 Software v.3.8.6.4 2017-10-02
Report Run at: December 18, 2017 02:29 EST
"Nutrient data for: 45114864, OLD FASHIONED BAKED PECAN PIE, UPC: 011233077226"
Food Group:  Branded Food Products Database
Common Name:

Nutrient,Unit,Data points,Std. Error,"1 PIE = 92.0g",1Value per 100 g,
Proximates
"Energy",kcal,--,--,480,522
"Protein",g,--,--,5.00,5.43
"Total lipid (fat)",g,--,--,29.00,31.52
"Carbohydrate, by difference",g,--,--,54.00,58.70
"Fiber, total dietary",g,--,--,4.0,4.3
"Sugars, total",g,--,--,28.00,30.43
Minerals
"Calcium, Ca",mg,--,--,20,22
"Iron, Fe",mg,--,--,1.96,2.13
"Sodium, Na",mg,--,--,300,326
Vitamins
"Vitamin C, total ascorbic acid",mg,--,--,0.0,0.0
"Vitamin A, IU",IU,--,--,136,148
Lipids
"Fatty acids, total saturated",g,--,--,11.003,11.960
"Fatty acids, total trans",g,--,--,0.000,0.000
"Cholesterol",mg,--,--,45,49
Amino Acids
Other
Ingredients
"WHEAT FLOUR*, CORN SYRUP, VEGETABLE OIL (PALM AND/OR SOYBEAN), SUGAR, WATER, PECANS*, WHOLE EGGS*, CONTAINS LESS THAN 2% OF THE FOLLOWING: FOOD STARCH - MODIFIED, BUTTER*, SALT, DEXTRIN, MALTODEXTRIN, NATURAL AND ARTIFICIAL FLAVOR, POTASSIUM SORBATE AND SODIUM PROPIONATE (PRESERVATIVES), NONFAT MILK*, WHEY (MILK)*, DEXTROSE, RICE SYRUP, CITRIC ACID, ASCORBIC ACID, SOY LECITHIN*, L-CYSTEINE ENZYMES." Date available: 06/25/2017 Date last updated by company: 06/25/2017
