Source: USDA Branded Food Products Database Release December 2017 Software v.3.8.6.4 2017-10-02
Report Run at: December 18, 2017 02:24 EST
"Nutrient data for: 45112775, OLD CAPE COD, HONEY DIJON MARINADE DRESSING, UPC: 090997100500"
Food Group:  Branded Food Products Database
Common Name:

Nutrient,Unit,Data points,Std. Error,"2.0 Tbsp = 30.0g",1Value per 100 g,
Proximates
"Energy",kcal,--,--,50,167
"Protein",g,--,--,0.00,0.00
"Total lipid (fat)",g,--,--,0.00,0.00
"Carbohydrate, by difference",g,--,--,10.00,33.33
"Fiber, total dietary",g,--,--,0.0,0.0
"Sugars, total",g,--,--,8.00,26.67
Minerals
"Calcium, Ca",mg,--,--,20,67
"Iron, Fe",mg,--,--,0.00,0.00
"Sodium, Na",mg,--,--,110,367
Vitamins
"Vitamin C, total ascorbic acid",mg,--,--,0.0,0.0
"Vitamin A, IU",IU,--,--,0,0
Lipids
"Fatty acids, total saturated",g,--,--,0.000,0.000
"Fatty acids, total trans",g,--,--,0.000,0.000
"Cholesterol",mg,--,--,0,0
Amino Acids
Other
Ingredients
"WATER, SUGAR, DIJON MUSTARD (VINEGAR, WATER, MUSTARD SEED, SALT, WHITE WINE, CITRIC ACID, TARTARIC ACID, TURMERIC, PAPRIKA, NATURAL FLAVOR), DISTILLED VINEGAR, MALTODEXTRIN, CIDER VINEGAR, HONEY, CULTURED BUTTERMILK (MILK AND CULTURES), SPICE, ONION, XANTHAN GUM, GUAR GUM, ARABIC GUM, NATURAL FLAVOR, AND MIXED TOCOPHEROLS (VITAMIN E)." Date available: 06/25/2017 Date last updated by company: 06/25/2017
