Source: USDA Branded Food Products Database Release December 2017 Software v.3.8.6.4 2017-10-02
Report Run at: December 18, 2017 02:39 EST
"Nutrient data for: 45023112, OLD OAK, COOKED PORK AND TEXTURED VEGETABLE PROTEIN WITH BARBECUE SAUCE, BARBECUE, UPC: 077541005351"
Food Group:  Branded Food Products Database
Common Name:

Nutrient,Unit,Data points,Std. Error,"0.5 cup = 114.0g",1Value per 100 g,
Proximates
"Energy",kcal,--,--,210,184
"Protein",g,--,--,21.00,18.42
"Total lipid (fat)",g,--,--,11.00,9.65
"Carbohydrate, by difference",g,--,--,6.00,5.26
"Fiber, total dietary",g,--,--,0.0,0.0
"Sugars, total",g,--,--,3.00,2.63
Minerals
"Calcium, Ca",mg,--,--,21,18
"Iron, Fe",mg,--,--,1.61,1.41
"Sodium, Na",mg,--,--,520,456
Vitamins
"Vitamin C, total ascorbic acid",mg,--,--,0.9,0.8
"Vitamin A, IU",IU,--,--,0,0
Lipids
"Fatty acids, total saturated",g,--,--,4.001,3.510
"Fatty acids, total trans",g,--,--,0.000,0.000
"Cholesterol",mg,--,--,60,53
Amino Acids
Other
Ingredients
"PORK, WATER, BARBECUE SAUCE (VINEGAR, WATER, KETCHUP [RED RIPE TOMATOES, DISTILLED VINEGAR, HIGH FRUCTOSE CORN SYRUP, CORN SYRUP, SALT, SPICE, ONION POWDER, NATURAL FLAVORING], SALT, SUGAR, MUSTARD [WATER, DISTILLED VINEGAR, MUSTARD SEED, MUSTARD BRAN, SALT, TURMERIC), WORCHESTERSHIRE SAUCE [WATER, DISTILLED VINEGAR, SALT, SUGAR, HYDROLYZED SOY PROTEIN, CORN SYRUP SOLIDS, CITRIC ACID, CARAMEL COLOR, GARLIC POWDER, ONION POWDER, BLACK PEPPER, SPICES, SPICE EXTRACTIVES, SILICON DIOXIDE], RED PEPPER, BLACK PEPPER), TEXTURED VEGETABLE PROTEIN (SOY FLOUR. CARAMEL COLOR)." Date available: 10/13/2017 Date last updated by company: 10/13/2017
