Source: USDA Branded Food Products Database Release December 2017 Software v.3.8.6.4 2017-10-02
Report Run at: December 18, 2017 02:40 EST
"Nutrient data for: 45044882, OLD WISCONSIN, BEEF SAUSAGE SNACK BITES, UPC: 073170724830"
Food Group:  Branded Food Products Database
Common Name:

Nutrient,Unit,Data points,Std. Error,"6.0 PIECES = 30.0g",1Value per 100 g,
Proximates
"Energy",kcal,--,--,140,467
"Protein",g,--,--,6.00,20.00
"Total lipid (fat)",g,--,--,11.00,36.67
"Carbohydrate, by difference",g,--,--,1.00,3.33
"Fiber, total dietary",g,--,--,0.0,0.0
"Sugars, total",g,--,--,1.00,3.33
Minerals
"Calcium, Ca",mg,--,--,0,0
"Iron, Fe",mg,--,--,1.32,4.40
"Sodium, Na",mg,--,--,460,1533
Vitamins
"Vitamin C, total ascorbic acid",mg,--,--,0.0,0.0
"Vitamin A, IU",IU,--,--,0,0
Lipids
"Fatty acids, total saturated",g,--,--,5.001,16.670
"Fatty acids, total trans",g,--,--,0.000,0.000
"Cholesterol",mg,--,--,25,83
Amino Acids
Other
Ingredients
"BEEF, SALT, CONTAINS 2% OR LESS OF: CORN SYRUP SOLIDS, NATURAL SPICES, DEXTROSE, LACTIC ACID STARTER CULTURE, NATURAL FLAVORINGS, SODIUM ERYTHORBATE (MADE FROM SUGAR), GARLIC POWDER, SODIUM NITRITE, WATER." Date available: 07/14/2017 Date last updated by company: 07/14/2017
