Source: USDA Branded Food Products Database Release December 2017 Software v.3.8.6.4 2017-10-02
Report Run at: December 18, 2017 02:39 EST
"Nutrient data for: 45164876, OLD ORCHARD, LEMONADE, WATERMELON CUCUMBER, UPC: 075355114818"
Food Group:  Branded Food Products Database
Common Name:

Nutrient,Unit,Data points,Std. Error,"8.0 OZA = 240.0g",1Value per 100 g,
Proximates
"Energy",kcal,--,--,130,54
"Protein",g,--,--,0.00,0.00
"Total lipid (fat)",g,--,--,0.00,0.00
"Carbohydrate, by difference",g,--,--,27.00,11.25
"Sugars, total",g,--,--,25.01,10.42
Minerals
"Calcium, Ca",mg,--,--,0,0
"Iron, Fe",mg,--,--,0.00,0.00
"Sodium, Na",mg,--,--,14,6
Vitamins
"Vitamin C, total ascorbic acid",mg,--,--,0.0,0.0
"Vitamin A, IU",IU,--,--,0,0
Lipids
Amino Acids
Other
Ingredients
"FILTERED WATER, ORGANIC CANE SUGAR, ORGANIC LEMON JUICE CONCENTRATE, CITRIC ACID, NATURAL FLAVORS, VEGETABLE JUICE EXTRACT (FOR COLOR), ORGANIC WATERMELON JUICE." Date available: 07/14/2017 Date last updated by company: 07/14/2017
