Source: USDA Branded Food Products Database Release December 2017 Software v.3.8.6.4 2017-10-02
Report Run at: December 18, 2017 02:23 EST
"Nutrient data for: 45107464, OLD BAY, COCKTAIL SAUCE, UPC: 070328820642"
Food Group:  Branded Food Products Database
Common Name:

Nutrient,Unit,Data points,Std. Error,"0.25 cup = 68.0g",1Value per 100 g,
Proximates
"Energy",kcal,--,--,90,132
"Protein",g,--,--,1.00,1.47
"Total lipid (fat)",g,--,--,1.00,1.47
"Carbohydrate, by difference",g,--,--,20.00,29.41
"Fiber, total dietary",g,--,--,2.0,2.9
"Sugars, total",g,--,--,16.00,23.53
Minerals
"Calcium, Ca",mg,--,--,0,0
"Iron, Fe",mg,--,--,0.32,0.47
"Sodium, Na",mg,--,--,860,1265
Vitamins
"Vitamin C, total ascorbic acid",mg,--,--,5.3,7.8
"Vitamin A, IU",IU,--,--,177,260
Lipids
"Fatty acids, total saturated",g,--,--,0.000,0.000
"Fatty acids, total trans",g,--,--,0.000,0.000
"Cholesterol",mg,--,--,0,0
Amino Acids
Other
Ingredients
"TOMATO PASTE, HIGH FRUCTOSE CORN SYRUP, VINEGAR, WATER, LEMON JUICE, HORSERADISH, OLD BAY SEASONING (CELERY SALT [SALT, CELERY SEED], SPICES [INCLUDING MUSTARD, RED PEPPER AND BLACK PEPPER], AND PAPRIKA), SALT, SOYBEAN OIL, MODIFIED CORN STARCH, ONION, MOLASSES, NATURAL & ARTIFICIAL FLAVOR, SODIUM BENZOATE (AS PRESERVATIVE), XANTHAN GUM, GARLIC, AND CARAMEL COLOR." Date available: 07/14/2017 Date last updated by company: 07/14/2017
