Source: USDA Branded Food Products Database Release December 2017 Software v.3.8.6.4 2017-10-02
Report Run at: December 18, 2017 02:32 EST
"Nutrient data for: 45225764, OLD FASHIONED FRIED PORK SKINS, CHICHARRONES, UPC: 072080046100"
Food Group:  Branded Food Products Database
Common Name:

Nutrient,Unit,Data points,Std. Error,"0.5 ONZ = 14.0g",1Value per 100 g,
Proximates
"Energy",kcal,--,--,80,571
"Protein",g,--,--,9.00,64.29
"Total lipid (fat)",g,--,--,5.00,35.71
"Carbohydrate, by difference",g,--,--,0.00,0.00
"Fiber, total dietary",g,--,--,0.0,0.0
"Sugars, total",g,--,--,0.00,0.00
Minerals
"Calcium, Ca",mg,--,--,0,0
"Iron, Fe",mg,--,--,0.00,0.00
"Sodium, Na",mg,--,--,270,1929
Vitamins
"Vitamin C, total ascorbic acid",mg,--,--,0.0,0.0
"Vitamin A, IU",IU,--,--,0,0
Lipids
"Fatty acids, total saturated",g,--,--,2.001,14.290
"Fatty acids, total trans",g,--,--,0.000,0.000
"Cholesterol",mg,--,--,20,143
Amino Acids
Other
Ingredients
"FRIED PORK SKINS, MALTODEXTRIN, SALT, BROWN SUGAR, MONOSODIUM GLUTAMATE, DEHYDRATED ONION AND GARLIC, HYDROLYZED CORN PROTEIN, TORULA YEAST, SPICES." Date available: 07/14/2017 Date last updated by company: 07/14/2017
