Source: USDA Branded Food Products Database Release December 2017 Software v.3.8.6.4 2017-10-02
Report Run at: December 18, 2017 02:40 EST
"Nutrient data for: 45266444, OLD TIME SODA, UPC: 075450067514"
Food Group:  Branded Food Products Database
Common Name:

Nutrient,Unit,Data points,Std. Error,"1 CAN = 355.0g",1Value per 100 g,
Proximates
"Energy",kcal,--,--,170,48
"Protein",g,--,--,0.00,0.00
"Total lipid (fat)",g,--,--,0.00,0.00
"Carbohydrate, by difference",g,--,--,42.00,11.83
"Sugars, total",g,--,--,42.00,11.83
Minerals
"Sodium, Na",mg,--,--,39,11
Vitamins
Lipids
Amino Acids
Other
Ingredients
"CARBONATED WATER, HIGH FRUCTOSE CORN SYRUP, CARAMEL COLOR, SODIUM BENZOATE (PRESERVATIVE), NATURAL AND ARTIFICIAL FLAVORS, CITRIC ACID." Date available: 07/14/2017 Date last updated by company: 07/14/2017
