Source: USDA Branded Food Products Database Release December 2017 Software v.3.8.6.4 2017-10-02
Report Run at: December 18, 2017 02:31 EST
"Nutrient data for: 45291666, OLD FASHIONED CRUNCHY PEANUT BUTTER, UPC: 851087000281"
Food Group:  Branded Food Products Database
Common Name:

Nutrient,Unit,Data points,Std. Error,"2.0 Tbsp = 32.0g",1Value per 100 g,
Proximates
"Energy",kcal,--,--,190,594
"Protein",g,--,--,8.00,25.00
"Total lipid (fat)",g,--,--,16.00,50.00
"Carbohydrate, by difference",g,--,--,6.00,18.75
"Fiber, total dietary",g,--,--,2.0,6.2
"Sugars, total",g,--,--,1.00,3.12
Minerals
"Calcium, Ca",mg,--,--,20,62
"Iron, Fe",mg,--,--,1.13,3.52
"Sodium, Na",mg,--,--,40,125
Vitamins
"Vitamin C, total ascorbic acid",mg,--,--,0.0,0.0
"Vitamin A, IU",IU,--,--,0,0
Lipids
"Fatty acids, total saturated",g,--,--,2.000,6.250
"Fatty acids, total trans",g,--,--,0.000,0.000
"Cholesterol",mg,--,--,0,0
Amino Acids
Other
Ingredients
"OUR SIMPLE INGREDIENTS: PEANUTS, SALT." Date available: 07/14/2017 Date last updated by company: 07/14/2017
