Source: USDA Branded Food Products Database Release December 2017 Software v.3.8.6.4 2017-10-02
Report Run at: December 18, 2017 02:26 EST
"Nutrient data for: 45009178, OLDE CAPE COD, BBQ & GRILLING SAUCE, SWEET & BOLD, UPC: 090997630106"
Food Group:  Branded Food Products Database
Common Name:

Nutrient,Unit,Data points,Std. Error,"1 ONZ = 35.0g",1Value per 100 g,
Proximates
"Energy",kcal,--,--,60,171
"Protein",g,--,--,0.00,0.00
"Total lipid (fat)",g,--,--,0.00,0.00
"Carbohydrate, by difference",g,--,--,15.00,42.86
"Fiber, total dietary",g,--,--,0.0,0.0
"Sugars, total",g,--,--,12.00,34.29
Minerals
"Calcium, Ca",mg,--,--,0,0
"Iron, Fe",mg,--,--,0.36,1.03
"Sodium, Na",mg,--,--,230,657
Vitamins
"Vitamin C, total ascorbic acid",mg,--,--,2.4,6.9
"Vitamin A, IU",IU,--,--,100,286
Lipids
"Fatty acids, total saturated",g,--,--,0.000,0.000
"Fatty acids, total trans",g,--,--,0.000,0.000
"Cholesterol",mg,--,--,0,0
Amino Acids
Other
Ingredients
"SUGAR, DISTILLED VINEGAR, WATER, TOMATO PASTE, MALTODEXTRIN MOLASSES, MODIFIED STARCH, WORCESTERSHIRE SAUCE (DISTILLED VINEGAR, WATER, MOLASSES, SUGAR, SALT, CARAMEL COLOR, GARLIC, TOMARIND, SPICES), SALT, CARAMEL COLOR, NATURAL SMOKE FLAVOR, SPICES, SODIUM BENZOATE (PRESERVATIVE), CITRIC ACID, GARLIC AND NATURAL FLAVOR." Date available: 06/24/2017 Date last updated by company: 06/24/2017
