Source: USDA Branded Food Products Database Release December 2017 Software v.3.8.6.4 2017-10-02
Report Run at: December 18, 2017 02:26 EST
"Nutrient data for: 45314765, OLDE CANADIAN CHICKEN RUB, UPC: 018894250555"
Food Group:  Branded Food Products Database
Common Name:

Nutrient,Unit,Data points,Std. Error,"10.0 GRM = 10.0g",1Value per 100 g,
Proximates
"Energy",kcal,--,--,27,274
"Protein",g,--,--,0.50,5.00
"Total lipid (fat)",g,--,--,0.20,2.00
"Carbohydrate, by difference",g,--,--,6.10,61.00
"Fiber, total dietary",g,--,--,0.7,7.0
Minerals
"Calcium, Ca",mg,--,--,28,280
"Iron, Fe",mg,--,--,0.40,4.00
"Sodium, Na",mg,--,--,985,9846
Vitamins
"Vitamin C, total ascorbic acid",mg,--,--,8.5,85.0
"Vitamin A, IU",IU,--,--,437,4368
Lipids
Amino Acids
Other
Ingredients
"DEHYDRATED GARLIC & ONION, SALT, SPICES, DEHYDRATED PARSLEY & GREEN BELL PEPPER, ORANGE PEEL, PAPRIKA AND SILICON DIOXIDE TO PREVENT CAKING." Date available: 07/14/2017 Date last updated by company: 07/14/2017
