Source: USDA Branded Food Products Database Release December 2017 Software v.3.8.6.4 2017-10-02
Report Run at: December 18, 2017 02:45 EST
"Nutrient data for: 45237878, OLIVE OIL & GARLIC SAUCE, UPC: 036200219331"
Food Group:  Branded Food Products Database
Common Name:

Nutrient,Unit,Data points,Std. Error,"0.5 cup = 127.0g",1Value per 100 g,
Proximates
"Energy",kcal,--,--,100,79
"Protein",g,--,--,3.00,2.36
"Total lipid (fat)",g,--,--,3.51,2.76
"Carbohydrate, by difference",g,--,--,14.00,11.02
"Fiber, total dietary",g,--,--,1.0,0.8
"Sugars, total",g,--,--,12.00,9.45
Minerals
"Calcium, Ca",mg,--,--,39,31
"Iron, Fe",mg,--,--,1.44,1.13
"Sodium, Na",mg,--,--,351,276
Vitamins
"Vitamin C, total ascorbic acid",mg,--,--,21.0,16.5
"Vitamin A, IU",IU,--,--,1250,984
Lipids
"Fatty acids, total saturated",g,--,--,0.000,0.000
"Fatty acids, total trans",g,--,--,0.000,0.000
"Cholesterol",mg,--,--,0,0
Amino Acids
Other
Ingredients
"TOMATO PUREE (WATER, TOMATO PASTE), DICED TOMATOES [TOMATOES, JUICE, CALCIUM CHLORIDE (FIRMING AID), CITRIC ACID], GARLIC, EXTRA VIRGIN OLIVE OIL, SUGAR, ONIONS, SALT, SPICES, CITRIC ACID, NATURAL FLAVOR." Date available: 09/23/2016 Date last updated by company: 09/23/2016
