Source: USDA Branded Food Products Database Release December 2017 Software v.3.8.6.4 2017-10-02
Report Run at: December 18, 2017 02:45 EST
"Nutrient data for: 45293163, OLIVE OIL & HERB CHICKEN WITH BASIL PISTOU, UPC: 027182726696"
Food Group:  Branded Food Products Database
Common Name:

Nutrient,Unit,Data points,Std. Error,"4.5 ONZ = 128.0g",1Value per 100 g,
Proximates
"Energy",kcal,--,--,180,141
"Protein",g,--,--,23.00,17.97
"Total lipid (fat)",g,--,--,8.00,6.25
"Carbohydrate, by difference",g,--,--,3.99,3.12
"Fiber, total dietary",g,--,--,0.0,0.0
"Sugars, total",g,--,--,1.00,0.78
Minerals
"Calcium, Ca",mg,--,--,20,16
"Iron, Fe",mg,--,--,0.72,0.56
"Sodium, Na",mg,--,--,380,297
Vitamins
"Vitamin C, total ascorbic acid",mg,--,--,0.0,0.0
"Vitamin A, IU",IU,--,--,133,104
Lipids
"Fatty acids, total saturated",g,--,--,1.498,1.170
"Cholesterol",mg,--,--,60,47
Amino Acids
Other
Ingredients
"ITALIAN SEASONED BONELESS SKINLESS CHICKEN BREASTS: BONELESS SKINLESS CHICKEN BREASTS MARINATED WITH UP TO 9% CHICKEN BROTH, SEA SALT, NATURAL FLAVOR. RUB: SEASONING (SEA SALT, DRIED ONION, DRIED GARLIC, MALTODEXTRIN, SPICES, DEXTROSE, YEAST EXTRACT, VEGETABLE STOCK (CARROT, ONION, CELERY), NATURAL FLAVORS, CONTAINS LESS THAN 2% OF CITRIC ACID, SALT AND LEMON OIL.), VINEGAR. BASIL PISTOU: CANOLA/OLIVE OIL BLEND, BASIL, SORREL, PARMESAN CHEESE (COW'S MILK, CULTURES, SALT, ENZYMES), GARLIC, PARSLEY, SALT, BLACK PEPPER, GROUND FENNEL AND CITRIC ACID." Date available: 07/14/2017 Date last updated by company: 07/14/2017
