Source: USDA Branded Food Products Database Release December 2017 Software v.3.8.6.4 2017-10-02
Report Run at: December 18, 2017 02:44 EST
"Nutrient data for: 45257729, OLIVE MUFFALATA, UPC: 187839000415"
Food Group:  Branded Food Products Database
Common Name:

Nutrient,Unit,Data points,Std. Error,"2.0 Tbsp = 1.0g",1Value per 100 g,
Proximates
"Energy",kcal,--,--,2,167
"Protein",g,--,--,0.00,0.00
"Total lipid (fat)",g,--,--,0.15,15.00
"Carbohydrate, by difference",g,--,--,0.07,6.67
"Fiber, total dietary",g,--,--,0.0,3.3
"Sugars, total",g,--,--,0.00,0.00
Minerals
"Sodium, Na",mg,--,--,14,1433
Vitamins
Lipids
"Fatty acids, total saturated",g,--,--,0.017,1.670
"Fatty acids, total trans",g,--,--,0.000,0.000
"Cholesterol",mg,--,--,0,0
Amino Acids
Other
Ingredients
"SELECT RIPE OLIVES, CAULIFLOWER, PEPPERS, CELERY, CARROTS, SPICES, PURE SOYBEAN OIL." Date available: 07/14/2017 Date last updated by company: 07/14/2017
