Source: USDA Branded Food Products Database Release December 2017 Software v.3.8.6.4 2017-10-02
Report Run at: December 18, 2017 02:50 EST
"Nutrient data for: 45015186, OLIVIA, CHOCOLATE CHIP COOKIE DOUGH, UPC: 859665002689"
Food Group:  Branded Food Products Database
Common Name:

Nutrient,Unit,Data points,Std. Error,"2.6 OZ = 74.0g",1Value per 100 g,
Proximates
"Energy",kcal,--,--,300,405
"Protein",g,--,--,2.00,2.70
"Total lipid (fat)",g,--,--,16.00,21.62
"Carbohydrate, by difference",g,--,--,36.00,48.65
"Fiber, total dietary",g,--,--,3.0,4.1
"Sugars, total",g,--,--,20.00,27.03
Minerals
"Calcium, Ca",mg,--,--,20,27
"Iron, Fe",mg,--,--,0.98,1.32
"Sodium, Na",mg,--,--,70,95
Vitamins
"Vitamin C, total ascorbic acid",mg,--,--,0.0,0.0
"Vitamin A, IU",IU,--,--,54,73
Lipids
"Fatty acids, total saturated",g,--,--,2.997,4.050
"Fatty acids, total trans",g,--,--,0.000,0.000
"Cholesterol",mg,--,--,0,0
Amino Acids
Other
Ingredients
"POWDERED CANE SUGAR (CORN FREE, VEGAN), SORGHUM FLOUR, PALM OIL, COCONUT MILK (CONSIDERED A TREE NUT), WATER, CANE SUGAR(VEGAN), TAPIOCA STARCH, COCOA, SOY FREE CHOCOLATE CHIPS(EVAPORATED CANE JUICE, NATURAL CHOCOLATE LIQUOR, NON-DAIRY COCOA BUTTER), OLIVE OIL, VANILLA EXTRACT, APPLE CIDER VINEGAR, XANTHAN GUM, BAKING POWDER, BICARBONITE OF SODA." Date available: 07/14/2017 Date last updated by company: 07/14/2017
