Source: USDA Branded Food Products Database Release December 2017 Software v.3.8.6.4 2017-10-02
Report Run at: December 18, 2017 02:47 EST
"Nutrient data for: 45243516, OLIVE OIL, UPC: 072248287550"
Food Group:  Branded Food Products Database
Common Name:

Nutrient,Unit,Data points,Std. Error,"1 Tbsp = 15.0g",1Value per 100 g,
Proximates
"Energy",kcal,--,--,130,867
"Protein",g,--,--,0.00,0.00
"Total lipid (fat)",g,--,--,14.00,93.33
"Carbohydrate, by difference",g,--,--,0.00,0.00
Minerals
"Sodium, Na",mg,--,--,0,0
Vitamins
Lipids
"Fatty acids, total saturated",g,--,--,1.000,6.670
"Fatty acids, total monounsaturated",g,--,--,11.000,73.330
"Fatty acids, total polyunsaturated",g,--,--,1.999,13.330
"Fatty acids, total trans",g,--,--,0.000,0.000
"Cholesterol",mg,--,--,0,0
Amino Acids
Other
Ingredients
"OLIVE OIL, NATURAL EXTRACTS OF LEMON." Date available: 06/25/2017 Date last updated by company: 06/25/2017
