Source: USDA Branded Food Products Database Release December 2017 Software v.3.8.6.4 2017-10-02
Report Run at: December 18, 2017 02:51 EST
"Nutrient data for: 45090771, OLLI SALUMERIA, PEPPERONI CLASSIC AMERICAN SALAME, UPC: 813039020143"
Food Group:  Branded Food Products Database
Common Name:

Nutrient,Unit,Data points,Std. Error,"1 ONZ = 28.0g",1Value per 100 g,
Proximates
"Energy",kcal,--,--,100,357
"Protein",g,--,--,8.00,28.57
"Total lipid (fat)",g,--,--,7.00,25.00
"Carbohydrate, by difference",g,--,--,0.00,0.00
"Fiber, total dietary",g,--,--,0.0,0.0
"Sugars, total",g,--,--,0.00,0.00
Minerals
"Calcium, Ca",mg,--,--,20,71
"Iron, Fe",mg,--,--,0.71,2.53
"Sodium, Na",mg,--,--,430,1536
Vitamins
"Vitamin C, total ascorbic acid",mg,--,--,0.0,0.0
"Vitamin A, IU",IU,--,--,0,0
Lipids
"Fatty acids, total saturated",g,--,--,2.500,8.930
"Fatty acids, total trans",g,--,--,0.000,0.000
"Cholesterol",mg,--,--,25,89
Amino Acids
Other
Ingredients
"PORK, SEA SALT, CONTAINS LESS THAN 2% OF THE FOLLOWING: TURBINADO SUGAR, NATURAL FLAVORING, WINE, SWEET PAPRIKA, GARLIC, LACTIC ACID STARTER CULTURE." Date available: 06/25/2017 Date last updated by company: 06/25/2017
