Source: USDA Branded Food Products Database Release December 2017 Software v.3.8.6.4 2017-10-02
Report Run at: December 18, 2017 02:52 EST
"Nutrient data for: 45024944, OLY KRAUT, GOURMET SAUERKRAUT, SPICY GARLIC, UPC: 705105960760"
Food Group:  Branded Food Products Database
Common Name:

Nutrient,Unit,Data points,Std. Error,"1 ONZ = 28.0g",1Value per 100 g,
Proximates
"Energy",kcal,--,--,15,54
"Protein",g,--,--,1.00,3.57
"Total lipid (fat)",g,--,--,0.00,0.00
"Carbohydrate, by difference",g,--,--,4.00,14.29
"Fiber, total dietary",g,--,--,1.0,3.6
"Sugars, total",g,--,--,2.00,7.14
Minerals
"Calcium, Ca",mg,--,--,20,71
"Iron, Fe",mg,--,--,1.67,5.97
"Sodium, Na",mg,--,--,230,821
Vitamins
"Vitamin C, total ascorbic acid",mg,--,--,55.7,199.0
"Vitamin A, IU",IU,--,--,3482,12436
Lipids
"Fatty acids, total saturated",g,--,--,0.000,0.000
"Fatty acids, total trans",g,--,--,0.000,0.000
"Cholesterol",mg,--,--,0,0
Amino Acids
Other
Ingredients
"CABBAGE*, ONION*, CARROT*, GARLIC*, DAIKON*, GINGER*, SEA SALT, DRIED CHILE FLAKE*, AND JACOBSEN SALT CO.SEA SALT." Date available: 08/16/2017 Date last updated by company: 08/16/2017
