Source: USDA Branded Food Products Database Release December 2017 Software v.3.8.6.4 2017-10-02
Report Run at: December 18, 2017 02:55 EST
"Nutrient data for: 45003335, ON-COR, LASAGNA WITH MEAT SAUCE, UPC: 070575040220"
Food Group:  Branded Food Products Database
Common Name:

Nutrient,Unit,Data points,Std. Error,"1 cup = 191.0g",1Value per 100 g,
Proximates
"Energy",kcal,--,--,220,115
"Protein",g,--,--,9.00,4.71
"Total lipid (fat)",g,--,--,9.00,4.71
"Carbohydrate, by difference",g,--,--,26.00,13.61
"Fiber, total dietary",g,--,--,1.0,0.5
"Sugars, total",g,--,--,6.00,3.14
Minerals
"Calcium, Ca",mg,--,--,80,42
"Iron, Fe",mg,--,--,1.47,0.77
"Sodium, Na",mg,--,--,800,419
Vitamins
"Vitamin C, total ascorbic acid",mg,--,--,1.1,0.6
"Vitamin A, IU",IU,--,--,409,214
Lipids
"Fatty acids, total saturated",g,--,--,3.992,2.090
"Fatty acids, total trans",g,--,--,0.497,0.260
"Cholesterol",mg,--,--,15,8
Amino Acids
Other
Ingredients
"TOMATO PUREE, COOKED LASAGNA PASTA (WATER, SEMOLINA ENRICHED FLOUR [NIACIN, FERROUS SULFATE, THIAMINE MONONITRATE, RIBOFLAVIN, FOLIC ACID]), GROUND BEEF, WATER, COTTAGE CHEESE (GRADE A SKIM MILK, CREAM, LESS THAN 2% OF THE FOLLOWING: SALT, GUAR GUM, CALCIUM SULFATE, LOCUST BEAN GUM, CARRAGEENAN, MONO AND DIGLYCERIDES, SODIUM AND MONOPOTASSIUM PHOSPHATE, DEXTROSE, WATER, CITRIC ACID, LACTIC ACID, PHOSPHORIC ACID, NATURAL FLAVORING, POTASSIUM SORBATE, CALCIUM CHLORIDE, CULTURES, ENZYMES), LOW MOISTURE PART SKIM MILK MOZZARELLA CHEESE (PASTEURIZED PART SKIM MILK, CHEESE CULTURES, SALT, ENZYMES, POWDERED CELLULOSE ADDED TO PREVENT CAKING), MODIFIED CORN STARCH, SALT, SUGAR, TEXTURED VEGETABLE PROTEIN CONCENTRATE (SOY PROTEIN CONCENTRATE, CARAMEL COLOR), ONION POWDER, SPICE, GARLIC POWDER." Date available: 07/14/2017 Date last updated by company: 07/14/2017
