Source: USDA Branded Food Products Database Release December 2017 Software v.3.8.6.4 2017-10-02
Report Run at: December 18, 2017 02:55 EST
"Nutrient data for: 45012702, ON-COR, CHICKEN NIBBLERS, NIBLET SHAPED CHICKEN PATTIES, MADE WITH WHITE MEAT, UPC: 070575250155"
Food Group:  Branded Food Products Database
Common Name:

Nutrient,Unit,Data points,Std. Error,"5.0 NIBBLERS = 77.0g",1Value per 100 g,
Proximates
"Energy",kcal,--,--,250,325
"Protein",g,--,--,10.00,12.99
"Total lipid (fat)",g,--,--,16.00,20.78
"Carbohydrate, by difference",g,--,--,14.00,18.18
"Fiber, total dietary",g,--,--,4.0,5.2
"Sugars, total",g,--,--,0.00,0.00
Minerals
"Calcium, Ca",mg,--,--,40,52
"Iron, Fe",mg,--,--,1.19,1.55
"Sodium, Na",mg,--,--,600,779
Vitamins
"Vitamin C, total ascorbic acid",mg,--,--,0.0,0.0
"Vitamin A, IU",IU,--,--,111,144
Lipids
"Fatty acids, total saturated",g,--,--,3.996,5.190
"Fatty acids, total trans",g,--,--,0.000,0.000
"Cholesterol",mg,--,--,35,45
Amino Acids
Other
Ingredients
"WHITE CHICKEN, BREADING AND BATTER (WHEAT FLOUR, WATER, BLEACHED WHEAT FLOUR, SALT, CONTAINS LESS THAN 2% OF THE FOLLOWING: DEXTROSE, SUGAR, YELLOW CORN FLOUR, SOYBEAN OIL, SPICES, GARLIC POWDER, MONOSODIUM GLUTAMATE, OLEORESIN PAPRIKA, SPICE EXTRACTIVES), WATER, CHICKEN SKINS, TEXTURED SOY PROTEIN CONCENTRATE, CONTAINS LESS THAN 2% OF THE FOLLOWING: SALT, SODIUM PHOSPHATE, MONOSODIUM GLUTAMATE, HYDROLYZED CORN PROTEIN, ONION POWDER, SPICES, FLAVORINGS, NONFAT DRY MILK." Date available: 06/25/2017 Date last updated by company: 06/25/2017
