Source: USDA Branded Food Products Database Release December 2017 Software v.3.8.6.4 2017-10-02
Report Run at: December 18, 2017 03:04 EST
"Nutrient data for: 45322977, ON-THE-GO ALMONDS, UPC: 041570130667"
Food Group:  Branded Food Products Database
Common Name:

Nutrient,Unit,Data points,Std. Error,"1 BAG = 17.0g",1Value per 100 g,
Proximates
"Energy",kcal,--,--,100,588
"Protein",g,--,--,4.00,23.53
"Total lipid (fat)",g,--,--,9.00,52.94
"Carbohydrate, by difference",g,--,--,3.00,17.65
"Fiber, total dietary",g,--,--,2.0,11.8
"Sugars, total",g,--,--,1.00,5.88
Minerals
"Calcium, Ca",mg,--,--,40,235
"Iron, Fe",mg,--,--,2.12,12.45
"Magnesium, Mg",mg,--,--,118,692
"Potassium, K",mg,--,--,115,676
"Sodium, Na",mg,--,--,25,147
Vitamins
"Vitamin C, total ascorbic acid",mg,--,--,0.0,0.0
"Vitamin A, IU",IU,--,--,0,0
Lipids
"Fatty acids, total saturated",g,--,--,0.500,2.940
"Fatty acids, total monounsaturated",g,--,--,5.999,35.290
"Fatty acids, total polyunsaturated",g,--,--,2.501,14.710
"Fatty acids, total trans",g,--,--,0.000,0.000
"Cholesterol",mg,--,--,0,0
Amino Acids
Other
Ingredients
"ALMONDS, VEGETABLE OIL (CANOLA AND/OR SAFFLOWER), SEA SALT." Date available: 08/22/2017 Date last updated by company: 08/22/2017
