Source: USDA Branded Food Products Database Release December 2017 Software v.3.8.6.4 2017-10-02
Report Run at: December 18, 2017 03:04 EST
"Nutrient data for: 45058867, ON-THE GO, UPC: 736436201130"
Food Group:  Branded Food Products Database
Common Name:

Nutrient,Unit,Data points,Std. Error,"1 PACKAGE = 120.0g",1Value per 100 g,
Proximates
"Energy",kcal,--,--,370,308
"Protein",g,--,--,24.00,20.00
"Total lipid (fat)",g,--,--,29.00,24.17
"Carbohydrate, by difference",g,--,--,5.00,4.17
"Fiber, total dietary",g,--,--,3.0,2.5
"Sugars, total",g,--,--,1.00,0.83
Minerals
"Calcium, Ca",mg,--,--,200,167
"Iron, Fe",mg,--,--,0.42,0.35
"Sodium, Na",mg,--,--,670,558
Vitamins
"Vitamin C, total ascorbic acid",mg,--,--,0.0,0.0
"Vitamin A, IU",IU,--,--,467,389
Lipids
"Fatty acids, total saturated",g,--,--,9.996,8.330
"Fatty acids, total trans",g,--,--,0.000,0.000
"Cholesterol",mg,--,--,205,171
Amino Acids
Other
Ingredients
"GENOA SALAME (PORK, SEA SALT, LESS THAN 2% OF: TURBINADO SUGAR, SPICES, NATURAL FLAVORING, ORGANIC WINE, LACTIC ACID STARTER CULTURE), HARD BOILED EGG (HARD BOILED EGG, CITRIC ACID, SODIUM BENZOATE); PROVOLONE CHEESE (PASTEURIZED MILK, CHEESE CULTURES, SALT, ENZYMES); ALMONDS (ALMOND NUTS)." Date available: 07/14/2017 Date last updated by company: 07/14/2017
