Source: USDA Branded Food Products Database Release December 2017 Software v.3.8.6.4 2017-10-02
Report Run at: December 18, 2017 02:59 EST
"Nutrient data for: 45279592, ONION SOUP MIX, UPC: 041268200870"
Food Group:  Branded Food Products Database
Common Name:

Nutrient,Unit,Data points,Std. Error,"0.25 POUCH MAKES ABOUT 1 CUP PREPARED = 7.0g",1Value per 100 g,
Proximates
"Energy",kcal,--,--,20,286
"Protein",g,--,--,1.00,14.29
"Total lipid (fat)",g,--,--,0.00,0.00
"Carbohydrate, by difference",g,--,--,4.00,57.14
"Fiber, total dietary",g,--,--,0.0,0.0
"Sugars, total",g,--,--,0.00,0.00
Minerals
"Calcium, Ca",mg,--,--,20,286
"Iron, Fe",mg,--,--,0.00,0.00
"Sodium, Na",mg,--,--,610,8714
Vitamins
"Vitamin C, total ascorbic acid",mg,--,--,17.1,244.9
"Vitamin A, IU",IU,--,--,0,0
Lipids
"Fatty acids, total saturated",g,--,--,0.000,0.000
"Fatty acids, total trans",g,--,--,0.000,0.000
"Cholesterol",mg,--,--,0,0
Amino Acids
Other
Ingredients
"DEHYDRATED ONIONS, SALT, ONION POWDER, SUGAR, CORN SYRUP SOLIDS, CORNSTARCH, YEAST EXTRACT, CONTAINS LESS THAN 2% OF: CARAMEL COLOR (CONTAINS SULFITES), PARTIALLY HYDROGENATED SOYBEAN AND/OR COTTONSEED OIL, NATURAL FLAVOR, DISODIUM INOSINATE, CORNSTARCH - MODIFIED, SILICON DIOXIDE (TO PREVENT CAKING)." Date available: 07/14/2017 Date last updated by company: 07/14/2017
