Source: USDA Branded Food Products Database Release December 2017 Software v.3.8.6.4 2017-10-02
Report Run at: December 18, 2017 02:56 EST
"Nutrient data for: 45273955, ONION 8 COUNT SANDWICH ROLLS, UPC: 011110863645"
Food Group:  Branded Food Products Database
Common Name:

Nutrient,Unit,Data points,Std. Error,"1 BUN = 64.0g",1Value per 100 g,
Proximates
"Energy",kcal,--,--,180,281
"Protein",g,--,--,6.00,9.38
"Total lipid (fat)",g,--,--,2.50,3.91
"Carbohydrate, by difference",g,--,--,32.00,50.00
"Fiber, total dietary",g,--,--,2.0,3.1
"Sugars, total",g,--,--,3.00,4.69
Minerals
"Calcium, Ca",mg,--,--,20,31
"Iron, Fe",mg,--,--,1.13,1.76
"Sodium, Na",mg,--,--,280,438
Vitamins
"Vitamin C, total ascorbic acid",mg,--,--,0.0,0.0
"Vitamin A, IU",IU,--,--,0,0
Lipids
"Fatty acids, total saturated",g,--,--,0.000,0.000
"Fatty acids, total monounsaturated",g,--,--,0.000,0.000
"Fatty acids, total polyunsaturated",g,--,--,0.998,1.560
"Fatty acids, total trans",g,--,--,0.000,0.000
"Cholesterol",mg,--,--,0,0
Amino Acids
Other
Ingredients
"ENRICHED WHEAT FLOUR (WHEAT FLOUR, MALTED BARLEY FLOUR, NIACIN, REDUCED IRON, THIAMINE MONONITRATE, RIBOFLAVIN, FOLIC ACID), WATER, ONIONS, HIGH FRUCTOSE CORN SYRUP, YEAST, WHEAT GLUTEN, SOYBEAN OIL. CONTAINS 2% OR LESS OF: SALT, CORN FLOUR, SPICES (TURMERIC AND PAPRIKA), ARTIFICIAL FLAVORS, POPPY SEED, DOUGH CONDITIONERS (SODIUM STEAROYL LACTYLATE, DATEM, MONO & DIGLYCERIDES, ENZYMES), VINEGAR, YEAST NUTRIENTS (MONOCALCIUM PHOSPHATE, CALCIUM SULFATE, AMMONIUM SULFATE), POTASSIUM SORBATE AND CALCIUM PROPIONATE (PRESERVATIVES), WHEAT STARCH." Date available: 07/14/2017 Date last updated by company: 07/14/2017
