Source: USDA Branded Food Products Database Release December 2017 Software v.3.8.6.4 2017-10-02
Report Run at: December 18, 2017 02:56 EST
"Nutrient data for: 45254106, ONION BAGELS, UPC: 045674530507"
Food Group:  Branded Food Products Database
Common Name:

Nutrient,Unit,Data points,Std. Error,"1 BAGEL = 104.0g",1Value per 100 g,
Proximates
"Energy",kcal,--,--,270,260
"Protein",g,--,--,10.00,9.62
"Total lipid (fat)",g,--,--,1.00,0.96
"Carbohydrate, by difference",g,--,--,55.00,52.88
"Fiber, total dietary",g,--,--,2.0,1.9
"Sugars, total",g,--,--,3.00,2.88
Minerals
"Calcium, Ca",mg,--,--,150,144
"Iron, Fe",mg,--,--,3.81,3.66
"Sodium, Na",mg,--,--,410,394
Vitamins
"Vitamin C, total ascorbic acid",mg,--,--,19.0,18.3
"Vitamin A, IU",IU,--,--,0,0
Lipids
"Fatty acids, total saturated",g,--,--,0.000,0.000
"Fatty acids, total trans",g,--,--,0.000,0.000
"Cholesterol",mg,--,--,0,0
Amino Acids
Other
Ingredients
"UNBROMATED UNBLEACHED ENRICHED WHEAT FLOUR [FLOUR, MALTED BARLEY FLOUR, NIACIN (VITAMIN B3), REDUCED IRON, THIAMINE MONONITRATE (VITAMIN B1), RIBOFLAVIN (VITAMIN B2), FOLIC ACID], WATER, TOASTED ONION, SUGAR, SALT, YEAST, CALCIUM PROPIONATE, WHEAT GLUTEN, ENZYMES, MONOGLYCERIDES, ASCORBIC ACID, XANTHAN GUM, GUAR GUM, CORN MEAL." Date available: 07/14/2017 Date last updated by company: 07/14/2017
