Source: USDA Branded Food Products Database Release December 2017 Software v.3.8.6.4 2017-10-02
Report Run at: December 18, 2017 03:05 EST
"Nutrient data for: 45268804, OOEY GOOEY BUTTER BAR, UPC: 799953074038"
Food Group:  Branded Food Products Database
Common Name:

Nutrient,Unit,Data points,Std. Error,"1 SLICE = 99.0g",1Value per 100 g,
Proximates
"Energy",kcal,--,--,290,293
"Protein",g,--,--,5.00,5.05
"Total lipid (fat)",g,--,--,11.00,11.11
"Carbohydrate, by difference",g,--,--,46.00,46.46
"Fiber, total dietary",g,--,--,1.0,1.0
"Sugars, total",g,--,--,27.00,27.27
Minerals
"Calcium, Ca",mg,--,--,20,20
"Iron, Fe",mg,--,--,0.54,0.55
"Sodium, Na",mg,--,--,300,303
Vitamins
"Vitamin C, total ascorbic acid",mg,--,--,1.8,1.8
"Vitamin A, IU",IU,--,--,50,51
Lipids
"Fatty acids, total saturated",g,--,--,2.000,2.020
"Fatty acids, total trans",g,--,--,0.000,0.000
"Cholesterol",mg,--,--,35,35
Amino Acids
Other
Ingredients
"CAKE BATTER (FLOUR, SUGAR, NATURAL STARCH, CANOLA OIL, BAKING POWDER, SALT, NATURAL FLAVORS & VEGETABLE GUM) POWDERED SUGAR, CREAM CHEESE (PASTEURIZED MILK & CREAM, CHEESE CULTURE, SALT, STABILIZERS (XANTHAN AND/OR CAROB BEAN AND/OR GUAR GUM)) EGGS, UNSALTED BUTTER (CREAM, NATURAL FLAVORS), VANILLA." Date available: 07/14/2017 Date last updated by company: 07/14/2017
