Source: USDA Branded Food Products Database Release December 2017 Software v.3.8.6.4 2017-10-02
Report Run at: December 18, 2017 03:10 EST
"Nutrient data for: 45175803, OPAA!, BUFFALO FETA GREEK YOGURT DIP, UPC: 075365064509"
Food Group:  Branded Food Products Database
Common Name:

Nutrient,Unit,Data points,Std. Error,"2.0 Tbsp = 28.0g",1Value per 100 g,
Proximates
"Energy",kcal,--,--,30,107
"Protein",g,--,--,2.00,7.14
"Total lipid (fat)",g,--,--,1.50,5.36
"Carbohydrate, by difference",g,--,--,2.00,7.14
"Fiber, total dietary",g,--,--,0.0,0.0
"Sugars, total",g,--,--,0.00,0.00
Minerals
"Calcium, Ca",mg,--,--,40,143
"Iron, Fe",mg,--,--,0.00,0.00
"Sodium, Na",mg,--,--,240,857
Vitamins
"Vitamin C, total ascorbic acid",mg,--,--,2.2,7.7
"Vitamin A, IU",IU,--,--,179,638
Lipids
"Fatty acids, total saturated",g,--,--,0.501,1.790
"Fatty acids, total trans",g,--,--,0.000,0.000
"Cholesterol",mg,--,--,5,18
Amino Acids
Other
Ingredients
"GREEK YOGURT (PASTEURIZED GRADE A SKIM MILK, MILK PROTEIN CONCENTRATE, CREAM, PECTIN, ENZYMES, ACTIVE YOGURT CULTURES), WHOLE PEELED TOMATOES (TOMATOES, TOMATO JUICE, SALT, CITRIC ACID, CALCIUM CHLORIDE), CAYENNE PEPPER SAUCE (RED CAYENNE PEPPERS, DISTILLED VINEGAR, GARLIC), FETA CHEESE [PASTEURIZED PART SKIM MILK, (OR PASTEURIZED PART WHOLE MILK) CHEESE CULTURE, ENZYMES], ONIONS, SOYBEAN OIL AND/OR CANOLA OIL, CONTAINS 2% OR LESS OF: DEHYDRATED ONIONS, CORN STARCH, ASCORBIC ACID, CULTURED SUGAR, SPICE, XANTHAN GUM." Date available: 07/14/2017 Date last updated by company: 07/14/2017
