Source: USDA Branded Food Products Database Release December 2017 Software v.3.8.6.4 2017-10-02
Report Run at: December 18, 2017 03:11 EST
"Nutrient data for: 45112602, OPEN PIT, ORIGINAL BARBECUE SAUCE, ORIGINAL, UPC: 054100977991"
Food Group:  Branded Food Products Database
Common Name:

Nutrient,Unit,Data points,Std. Error,"2.0 Tbsp = 34.0g",1Value per 100 g,
Proximates
"Energy",kcal,--,--,45,132
"Protein",g,--,--,0.00,0.00
"Total lipid (fat)",g,--,--,0.00,0.00
"Carbohydrate, by difference",g,--,--,10.00,29.41
"Sugars, total",g,--,--,9.00,26.47
Minerals
"Calcium, Ca",mg,--,--,40,118
"Iron, Fe",mg,--,--,0.00,0.00
"Sodium, Na",mg,--,--,510,1500
Vitamins
"Vitamin C, total ascorbic acid",mg,--,--,0.0,0.0
"Vitamin A, IU",IU,--,--,0,0
Lipids
Amino Acids
Other
Ingredients
"HIGH FRUCTOSE CORN SYRUP, WATER, DISTILLED VINEGAR, TOMATO PUREE [WATER, TOMATO PASTE], SALT, FOOD STARCH-MODIFIED. CONTAINS 2% OR LESS OF: SOYBEAN OIL, SAUCE BLEND (WATER, HYDROLYZED CORN AND SOY PROTEIN, SALT), SPICE, ONION POWDER, DEHYDRATED GARLIC, NATURAL AND ARTIFICIAL FLAVOR, CARAMEL COLOR, COLORED WITH (YELLOW 6, RED 40, TITANIUM DIOXIDE, BLUE 1)." Date available: 06/25/2017 Date last updated by company: 06/25/2017
