Source: USDA Branded Food Products Database Release December 2017 Software v.3.8.6.4 2017-10-02
Report Run at: December 18, 2017 03:10 EST
"Nutrient data for: 45176535, OPEN NATURE, DAIRY CREAMER, HAZELNUT, UPC: 079893081007"
Food Group:  Branded Food Products Database
Common Name:

Nutrient,Unit,Data points,Std. Error,"1 Tbsp = 15.0g",1Value per 100 g,
Proximates
"Energy",kcal,--,--,40,267
"Protein",g,--,--,0.00,0.00
"Total lipid (fat)",g,--,--,1.50,10.00
"Carbohydrate, by difference",g,--,--,5.00,33.33
"Fiber, total dietary",g,--,--,0.0,0.0
"Sugars, total",g,--,--,5.00,33.33
Minerals
"Calcium, Ca",mg,--,--,20,133
"Iron, Fe",mg,--,--,0.00,0.00
"Sodium, Na",mg,--,--,15,100
Vitamins
"Vitamin C, total ascorbic acid",mg,--,--,0.0,0.0
"Vitamin A, IU",IU,--,--,333,2223
Lipids
"Fatty acids, total saturated",g,--,--,1.000,6.670
"Fatty acids, total trans",g,--,--,0.000,0.000
"Cholesterol",mg,--,--,5,33
Amino Acids
Other
Ingredients
"NONFAT MILK, SUGAR, HEAVY CREAM, NATURAL FLAVOR, SALT." Date available: 07/14/2017 Date last updated by company: 07/14/2017
