Source: USDA Branded Food Products Database Release December 2017 Software v.3.8.6.4 2017-10-02
Report Run at: December 18, 2017 03:10 EST
"Nutrient data for: 45222372, OPEN FACED SALMON BAGEL, UPC: 5051379084103"
Food Group:  Branded Food Products Database
Common Name:

Nutrient,Unit,Data points,Std. Error,"1 BAGEL SANDWICH = 142.0g",1Value per 100 g,
Proximates
"Energy",kcal,--,--,270,190
"Protein",g,--,--,17.00,11.97
"Total lipid (fat)",g,--,--,7.99,5.63
"Carbohydrate, by difference",g,--,--,32.01,22.54
"Fiber, total dietary",g,--,--,2.0,1.4
"Sugars, total",g,--,--,3.00,2.11
Minerals
"Calcium, Ca",mg,--,--,80,56
"Iron, Fe",mg,--,--,1.39,0.98
"Sodium, Na",mg,--,--,630,444
Vitamins
"Vitamin C, total ascorbic acid",mg,--,--,1.8,1.3
"Vitamin A, IU",IU,--,--,155,109
Lipids
"Fatty acids, total saturated",g,--,--,4.998,3.520
"Fatty acids, total trans",g,--,--,0.000,0.000
"Cholesterol",mg,--,--,30,21
Amino Acids
Other
Ingredients
"PLAIN BAGEL [WATER, SUCROSE )SUGAR, WATER), WHEAT GLUTEN, SALT, CULTURED CORN SYRUP SOLID, CULTURED DEXTROSE, WHEAT FLOUR, MONOCALCIUM PHOSPHATE, WHEAT STARCH, INSTANT YEAST (YEAST, SORBITAN MONOSTEARATE, ASCORBIC ACID), DISTILLED VINEGAR, WHEAT FLOUR, BARLEY MALT FLOUR, NIACIN, REDUCED IRON, THIAMIN MONONITRATE, ENZYMES, MONOGLYCERIDE, WHEAT GLUTEN, RIBOFLAVIN, FOLIC ACID], SALMON (ATLANTIC SALMON, SALT, BROWN SUGAR, OAKWOOD SMOKE), CUCUMBER, HERB CREAM CHEESE [CHEESE CREAM (CREAM, MILK, BACTERIAL CULTURE, SALT, NATAMYCIN), LEMON JUICE CONCENTRATE, PARSLEY, BLACK PEPPER, LOCUST BEAN GUM, XANTHAN GUM, GUAR GUM], ONION, PEPPERCORN BLEND (SPICES, SUNFLOWER OIL), DILL." Date available: 07/14/2017 Date last updated by company: 07/14/2017
