Source: USDA Branded Food Products Database Release December 2017 Software v.3.8.6.4 2017-10-02
Report Run at: December 18, 2017 03:11 EST
"Nutrient data for: 45121788, OPEN PIT, THICK & TANGY BARBECUE SAUCE, ORIGINAL, UPC: 054100977601"
Food Group:  Branded Food Products Database
Common Name:

Nutrient,Unit,Data points,Std. Error,"2.0 Tbsp = 34.0g",1Value per 100 g,
Proximates
"Energy",kcal,--,--,50,147
"Protein",g,--,--,0.00,0.00
"Total lipid (fat)",g,--,--,0.00,0.00
"Carbohydrate, by difference",g,--,--,11.00,32.35
"Sugars, total",g,--,--,10.00,29.41
Minerals
"Calcium, Ca",mg,--,--,40,118
"Iron, Fe",mg,--,--,0.00,0.00
"Sodium, Na",mg,--,--,470,1382
Vitamins
"Vitamin C, total ascorbic acid",mg,--,--,4.0,11.9
"Vitamin A, IU",IU,--,--,338,994
Lipids
Amino Acids
Other
Ingredients
"HIGH FRUCTOSE CORN SYRUP, TOMATO PUREE (WATER, TOMATO PASTE), WATER, DISTILLED VINEGAR, SALT, FOOD STARCH-MODIFIED. CONTAINS 2% OR LESS OF: SEASONING BLEND (SPICE, CORN SYRUP SOLIDS, ONION POWDER, GARLIC POWDER, SALT, SUGAR,CARAMEL COLOR, XANTHAN GUM, NATURAL FLAVOR, SOY SAUCE (SOYBEANS, SALT), HICKORY SMOKE FLAVOR, OLEORESIN PAPRIKA, CARAMEL COLOR." Date available: 06/25/2017 Date last updated by company: 06/25/2017
