Source: USDA Branded Food Products Database Release December 2017 Software v.3.8.6.4 2017-10-02
Report Run at: December 18, 2017 03:16 EST
"Nutrient data for: 45236867, ORANGE JIGGER, UPC: 667450001133"
Food Group:  Branded Food Products Database
Common Name:

Nutrient,Unit,Data points,Std. Error,"1 BOTTLE = 275.0g",1Value per 100 g,
Proximates
"Energy",kcal,--,--,129,47
"Protein",g,--,--,0.99,0.36
"Total lipid (fat)",g,--,--,0.00,0.00
"Carbohydrate, by difference",g,--,--,30.99,11.27
"Sugars, total",g,--,--,30.00,10.91
Minerals
"Sodium, Na",mg,--,--,0,0
Vitamins
Lipids
Amino Acids
Other
Ingredients
"CARBONATED WATER, FERMENTED GINGER ROOT EXTRACTS (GINGER ROOT, WATER, YEAST), CANE SUGAR, MANDARIN JUICE CONCENTRATE, FLAVORS (SEVILLE ORANGE, SPEEDWELL, JUNIPER EXTRACTS)." Date available: 06/25/2017 Date last updated by company: 06/25/2017
