Source: USDA Branded Food Products Database Release December 2017 Software v.3.8.6.4 2017-10-02
Report Run at: December 18, 2017 03:19 EST
"Nutrient data for: 45283366, ORANGE JUICE, UPC: 07078402460"
Food Group:  Branded Food Products Database
Common Name:

Nutrient,Unit,Data points,Std. Error,"8.0 OZA = 240.0g",1Value per 100 g,
Proximates
"Energy",kcal,--,--,110,46
"Protein",g,--,--,1.99,0.83
"Total lipid (fat)",g,--,--,0.00,0.00
"Carbohydrate, by difference",g,--,--,25.99,10.83
"Fiber, total dietary",g,--,--,0.0,0.0
"Sugars, total",g,--,--,22.01,9.17
Minerals
"Calcium, Ca",mg,--,--,350,146
"Magnesium, Mg",mg,--,--,24,10
"Phosphorus, P",mg,--,--,19,8
"Potassium, K",mg,--,--,451,188
"Sodium, Na",mg,--,--,0,0
Vitamins
"Vitamin C, total ascorbic acid",mg,--,--,72.0,30.0
"Thiamin",mg,--,--,0.000,0.000
"Riboflavin",mg,--,--,0.067,0.028
"Niacin",mg,--,--,0.799,0.333
"Vitamin B-6",mg,--,--,0.120,0.050
"Vitamin D",IU,--,--,101,42
Lipids
Amino Acids
Other
Ingredients
"ORANGE JUICE, TRI-CALCIUM PHOSPHATE, CALCIUM LACTATE, VITAMIN D3." Date available: 07/14/2017 Date last updated by company: 07/14/2017
