Source: USDA Branded Food Products Database Release December 2017 Software v.3.8.6.4 2017-10-02
Report Run at: December 18, 2017 03:14 EST
"Nutrient data for: 45110266, ORANGE DREAM BAR, UPC: 070640300129"
Food Group:  Branded Food Products Database
Common Name:

Nutrient,Unit,Data points,Std. Error,"1 BAR = 49.0g",1Value per 100 g,
Proximates
"Energy",kcal,--,--,70,143
"Protein",g,--,--,1.00,2.04
"Total lipid (fat)",g,--,--,1.00,2.04
"Carbohydrate, by difference",g,--,--,13.00,26.53
"Fiber, total dietary",g,--,--,0.0,0.0
"Sugars, total",g,--,--,11.00,22.45
Minerals
"Calcium, Ca",mg,--,--,40,82
"Iron, Fe",mg,--,--,0.00,0.00
"Potassium, K",mg,--,--,60,122
"Sodium, Na",mg,--,--,20,41
Vitamins
"Vitamin C, total ascorbic acid",mg,--,--,0.0,0.0
"Vitamin A, IU",IU,--,--,173,354
Lipids
"Fatty acids, total saturated",g,--,--,1.000,2.040
"Fatty acids, total trans",g,--,--,0.000,0.000
"Cholesterol",mg,--,--,5,10
Amino Acids
Other
Ingredients
"REDUCED FAT ICE CREAM (MILK, BUTTERMILK, WHEY, SUGAR, CORN SYRUP, CREAM, SKIM MILK, CONTAINS 2% OR LESS OF VANILLA EXTRACT, ARTIFICIAL FLAVOR, MONO AND DIGLYCERIDES, CAROB BEAN GUM, GUAR GUM, CARRAGEENAN, POLYSORBATE 80, VITAMIN A PALMITATE). ORANGE SHERBET (WATER, SUGAR, HIGH FRUCTOSE CORN SYRUP, WHEY, CORN SYRUP, CREAM, CONTAINS 1% OR LESS OF ORANGE JUICE CONCENTRATE, OIL OF ORANGE, CITRIC ACID, GUAR GUM, HYDROXYPROPYL METHYLCELLULOSE, CAROB BEAN GUM, XANTHAN GUM, POLYSORBATE 80, YELLOW 6)." Date available: 07/14/2017 Date last updated by company: 07/14/2017
