Source: USDA Branded Food Products Database Release December 2017 Software v.3.8.6.4 2017-10-02
Report Run at: December 18, 2017 03:15 EST
"Nutrient data for: 45063296, ORANGE GEL, UPC: 038900030339"
Food Group:  Branded Food Products Database
Common Name:

Nutrient,Unit,Data points,Std. Error,"1 CONTAINER = 123.0g",1Value per 100 g,
Proximates
"Energy",kcal,--,--,100,81
"Protein",g,--,--,0.00,0.00
"Total lipid (fat)",g,--,--,0.00,0.00
"Carbohydrate, by difference",g,--,--,24.00,19.51
"Fiber, total dietary",g,--,--,1.0,0.8
"Sugars, total",g,--,--,22.00,17.89
Minerals
"Calcium, Ca",mg,--,--,0,0
"Iron, Fe",mg,--,--,0.00,0.00
"Potassium, K",mg,--,--,30,24
"Sodium, Na",mg,--,--,55,45
Vitamins
"Vitamin C, total ascorbic acid",mg,--,--,12.2,9.9
"Vitamin A, IU",IU,--,--,244,198
Lipids
"Fatty acids, total saturated",g,--,--,0.000,0.000
"Fatty acids, total trans",g,--,--,0.000,0.000
"Cholesterol",mg,--,--,0,0
Amino Acids
Other
Ingredients
"WATER, MANDARIN ORANGES, SUGAR, CARRAGEENAN, NATURAL AND ARTIFICIAL FLAVORS, SODIUM CITRATE, LOCUST BEAN GUM, FUMARIC ACID, CALCIUM LACTATE, MALIC ACID, ASCORBIC ACID (TO PROMOTE COLOR RETENTION), AND FD&C YELLOW #6 (COLOR)." Date available: 10/13/2017 Date last updated by company: 10/13/2017
