Source: USDA Branded Food Products Database Release December 2017 Software v.3.8.6.4 2017-10-02
Report Run at: December 18, 2017 03:17 EST
"Nutrient data for: 45153048, ORANGE JUICE, UPC: 610014095482"
Food Group:  Branded Food Products Database
Common Name:

Nutrient,Unit,Data points,Std. Error,"4.0 ONZ = 114.0g",1Value per 100 g,
Proximates
"Energy",kcal,--,--,50,44
"Protein",g,--,--,0.00,0.00
"Total lipid (fat)",g,--,--,0.00,0.00
"Carbohydrate, by difference",g,--,--,12.00,10.53
"Fiber, total dietary",g,--,--,0.2,0.2
"Sugars, total",g,--,--,8.00,7.02
Minerals
"Calcium, Ca",mg,--,--,10,9
"Iron, Fe",mg,--,--,0.18,0.16
"Sodium, Na",mg,--,--,0,0
Vitamins
"Vitamin C, total ascorbic acid",mg,--,--,54.0,47.4
"Vitamin A, IU",IU,--,--,200,175
Lipids
"Fatty acids, total saturated",g,--,--,0.000,0.000
"Fatty acids, total trans",g,--,--,0.000,0.000
"Cholesterol",mg,--,--,0,0
Amino Acids
Other
Ingredients
"ORANGES" Date available: 07/14/2017 Date last updated by company: 07/14/2017
