Source: USDA Branded Food Products Database Release December 2017 Software v.3.8.6.4 2017-10-02
Report Run at: December 18, 2017 03:15 EST
"Nutrient data for: 45328496, ORANGE DRINK, UPC: 041130306617"
Food Group:  Branded Food Products Database
Common Name:

Nutrient,Unit,Data points,Std. Error,"8.0 OZA = 240.0g",1Value per 100 g,
Proximates
"Energy",kcal,--,--,60,25
"Protein",g,--,--,0.00,0.00
"Total lipid (fat)",g,--,--,0.00,0.00
"Carbohydrate, by difference",g,--,--,15.00,6.25
"Sugars, total",g,--,--,13.99,5.83
Minerals
"Sodium, Na",mg,--,--,5,2
Vitamins
Lipids
Amino Acids
Other
Ingredients
"WATER, HIGH FRUCTOSE CORN SYRUP, PEAR JUICE FROM CONCENTRATE, LESS THAN 1% OF: CITRIC ACID, POTASSIUM SORBATE (PRESERVATIVE), ACESULFAME POTASSIUM, GUM ARABIC, FD&C YELLOW #6, SODIUM CITRATE, NATURAL AND ARTIFICIAL FLAVOR, GLYCERYL ABIETATE, BROMINATED SOYBEAN OIL, SUCRALOSE." Date available: 09/27/2017 Date last updated by company: 09/27/2017
