Source: USDA Branded Food Products Database Release December 2017 Software v.3.8.6.4 2017-10-02
Report Run at: December 18, 2017 03:14 EST
"Nutrient data for: 45047522, ORANGE CREME ALMONDS, UPC: 071725728395"
Food Group:  Branded Food Products Database
Common Name:

Nutrient,Unit,Data points,Std. Error,"0.25 cup = 30.0g",1Value per 100 g,
Proximates
"Energy",kcal,--,--,170,567
"Protein",g,--,--,3.00,10.00
"Total lipid (fat)",g,--,--,11.00,36.67
"Carbohydrate, by difference",g,--,--,15.00,50.00
"Fiber, total dietary",g,--,--,1.0,3.3
"Sugars, total",g,--,--,14.00,46.67
Minerals
"Calcium, Ca",mg,--,--,60,200
"Iron, Fe",mg,--,--,0.60,2.00
"Sodium, Na",mg,--,--,15,50
Vitamins
"Vitamin C, total ascorbic acid",mg,--,--,0.0,0.0
"Vitamin A, IU",IU,--,--,0,0
Lipids
"Fatty acids, total saturated",g,--,--,5.001,16.670
"Fatty acids, total trans",g,--,--,0.000,0.000
"Cholesterol",mg,--,--,0,0
Amino Acids
Other
Ingredients
"INGREDIENTS: WHITE CHOCOLATE (SUGAR, COCOA BUTTER, WHOLE MILK POWDER, SOY LECITHIN (AN EMULSIFIER), VANILLA (NATURAL FLAVOR), CONFECTIONER'S COATING (SUGAR, PALM KERNEL OIL, NONFAT DRY MILK, ANHYDROUS MILKFAT, NATURAL FLAVOR, SOY LECITHIN (AN EMULSIFIER), ALMONDS, NATURAL FLAVOR, COLOR ADDED (YELLOW 6 LAKE), TAPIOCA DEXTRIN, CONFECTIONERS GLAZE" Date available: 08/11/2017 Date last updated by company: 08/11/2017
