Source: USDA Branded Food Products Database Release December 2017 Software v.3.8.6.4 2017-10-02
Report Run at: December 18, 2017 03:25 EST
"Nutrient data for: 45314087, ORANGE TANGERINE, UPC: 043000071595"
Food Group:  Branded Food Products Database
Common Name:

Nutrient,Unit,Data points,Std. Error,"0.25 PACKAGE (MAKES 1/2 CUP) = 21.0g",1Value per 100 g,
Proximates
"Energy",kcal,--,--,80,381
"Protein",g,--,--,1.00,4.76
"Total lipid (fat)",g,--,--,0.00,0.00
"Carbohydrate, by difference",g,--,--,18.00,85.71
"Sugars, total",g,--,--,18.00,85.71
Minerals
"Sodium, Na",mg,--,--,75,357
Vitamins
"Vitamin C, total ascorbic acid",mg,--,--,5.7,27.2
Lipids
"Fatty acids, total saturated",g,--,--,0.000,0.000
"Fatty acids, total trans",g,--,--,0.000,0.000
Amino Acids
Other
Ingredients
"CANE SUGAR, GELATIN, DRIED ORANGE JUICE ADIPIC ACID (FOR TARTNESS), CONTAINS LESS THAN 1% OF DISODIUM PHOSPHATE (CONTROLS ACIDITY), SODIUM CITRATE (CONTROLS ACIDITY), FUMARIC ACID (FOR TARTNESS), NATURAL FLAVOR, OLEORESIN TURMERIC AND BEET JUICE (FOR COLOR)." Date available: 07/14/2017 Date last updated by company: 07/14/2017
