Source: USDA Branded Food Products Database Release December 2017 Software v.3.8.6.4 2017-10-02
Report Run at: December 18, 2017 03:27 EST
"Nutrient data for: 45210938, ORCHARD BLEND, UPC: 071725727879"
Food Group:  Branded Food Products Database
Common Name:

Nutrient,Unit,Data points,Std. Error,"0.25 CUP | ABOUT = 40.0g",1Value per 100 g,
Proximates
"Energy",kcal,--,--,110,275
"Protein",g,--,--,1.00,2.50
"Total lipid (fat)",g,--,--,8.12,20.31
"Carbohydrate, by difference",g,--,--,27.00,67.50
"Fiber, total dietary",g,--,--,3.0,7.5
"Sugars, total",g,--,--,14.00,35.00
Minerals
"Calcium, Ca",mg,--,--,0,0
"Iron, Fe",mg,--,--,1.35,3.38
"Sodium, Na",mg,--,--,20,50
Vitamins
"Vitamin C, total ascorbic acid",mg,--,--,6.0,15.0
"Vitamin A, IU",IU,--,--,250,625
Lipids
"Fatty acids, total saturated",g,--,--,0.000,0.000
"Fatty acids, total trans",g,--,--,0.000,0.000
"Cholesterol",mg,--,--,0,0
Amino Acids
Other
Ingredients
"DRIED PLUMS (PLUMS, POTASSIUM SORBATE [A PRESERVATIVE)], DRIED APRICOTS [APRICOTS, SULFUR DIOXIDE (TO PRESERVE COLOR)], DRIED PEACHES [PEACHES, SULFUR DIOXIDE (ADDED FOR COLOR RETENTION AND AS A PRESERVATIVE)], DRIED APPLES [APPLES, SULFUR DIOXIDE (TO PRESERVE COLOR)]." Date available: 10/13/2017 Date last updated by company: 10/13/2017
