Source: USDA Branded Food Products Database Release December 2017 Software v.3.8.6.4 2017-10-02
Report Run at: December 18, 2017 03:28 EST
"Nutrient data for: 45147080, ORCHARD PURE, ORANGE JUICE, UPC: 041900080402"
Food Group:  Branded Food Products Database
Common Name:

Nutrient,Unit,Data points,Std. Error,"1 CONTAINER = 414.0g",1Value per 100 g,
Proximates
"Energy",kcal,--,--,190,46
"Protein",g,--,--,4.02,0.97
"Total lipid (fat)",g,--,--,0.00,0.00
"Carbohydrate, by difference",g,--,--,46.99,11.35
"Fiber, total dietary",g,--,--,0.0,0.0
"Sugars, total",g,--,--,37.01,8.94
Minerals
"Calcium, Ca",mg,--,--,41,10
"Iron, Fe",mg,--,--,0.00,0.00
"Potassium, K",mg,--,--,820,198
"Sodium, Na",mg,--,--,29,7
Vitamins
"Vitamin C, total ascorbic acid",mg,--,--,72.9,17.6
"Vitamin A, IU",IU,--,--,0,0
Lipids
"Fatty acids, total saturated",g,--,--,0.000,0.000
"Fatty acids, total trans",g,--,--,0.000,0.000
"Cholesterol",mg,--,--,0,0
Amino Acids
Other
Ingredients
"WATER, ORANGE JUICE CONCENTRATE." Date available: 07/14/2017 Date last updated by company: 07/14/2017
