Source: USDA Branded Food Products Database Release December 2017 Software v.3.8.6.4 2017-10-02
Report Run at: December 18, 2017 03:27 EST
"Nutrient data for: 45013360, ORCHARD BAR, CONCORD GRAPE PEANUT CRUNCH, UPC: 858059002717"
Food Group:  Branded Food Products Database
Common Name:

Nutrient,Unit,Data points,Std. Error,"1 BAR = 40.0g",1Value per 100 g,
Proximates
"Energy",kcal,--,--,170,425
"Protein",g,--,--,5.00,12.50
"Total lipid (fat)",g,--,--,5.00,12.50
"Carbohydrate, by difference",g,--,--,26.00,65.00
"Fiber, total dietary",g,--,--,2.0,5.0
"Sugars, total",g,--,--,17.00,42.50
Minerals
"Calcium, Ca",mg,--,--,30,75
"Iron, Fe",mg,--,--,0.90,2.25
"Sodium, Na",mg,--,--,105,262
Vitamins
"Vitamin C, total ascorbic acid",mg,--,--,12.0,30.0
"Vitamin A, IU",IU,--,--,0,0
Lipids
"Fatty acids, total saturated",g,--,--,0.500,1.250
"Fatty acids, total trans",g,--,--,0.000,0.000
"Cholesterol",mg,--,--,0,0
Amino Acids
Other
Ingredients
"FRUIT [FRUIT JUICE FROM CONCENTRATE (ORGANIC APPLE, CONCORD GRAPE), RED GRAPES, ORGANIC APPLE FLAKE], ORGANIC EVAPORATED CANE SYRUP, ORGANIC TAPIOCA SYRUP, PEANUTS, SEEDS (SUNFLOWER, FLAX), SOY PROTEIN NUGGETS (SOY PROTEIN ISOLATE, TAPIOCA STARCH, SALT), FRUIT PECTIN, CITRIC ACID, NATURAL FLAVORS, SODIUM CITRATE, SALT, ASCORBIC ACID, VITAMIN E (TO PRESERVE FRESHNESS)." Date available: 10/18/2017 Date last updated by company: 10/18/2017
