Source: USDA Branded Food Products Database Release December 2017 Software v.3.8.6.4 2017-10-02
Report Run at: December 18, 2017 03:27 EST
"Nutrient data for: 45009090, ORCHARD CHOICE, BLUE RIBBON, MISSION FIGS, UPC: 041126005524"
Food Group:  Branded Food Products Database
Common Name:

Nutrient,Unit,Data points,Std. Error,"4.0 FIGS = 40.0g",1Value per 100 g,
Proximates
"Energy",kcal,--,--,110,275
"Protein",g,--,--,1.00,2.50
"Total lipid (fat)",g,--,--,0.00,0.00
"Carbohydrate, by difference",g,--,--,26.00,65.00
"Fiber, total dietary",g,--,--,5.0,12.5
"Sugars, total",g,--,--,20.00,50.00
Minerals
"Calcium, Ca",mg,--,--,60,150
"Iron, Fe",mg,--,--,1.08,2.70
"Magnesium, Mg",mg,--,--,24,60
"Potassium, K",mg,--,--,240,600
"Sodium, Na",mg,--,--,0,0
"Copper, Cu",mg,--,--,0.160,0.400
Vitamins
"Vitamin C, total ascorbic acid",mg,--,--,0.0,0.0
"Vitamin B-6",mg,--,--,0.120,0.300
"Vitamin A, IU",IU,--,--,0,0
Lipids
"Fatty acids, total saturated",g,--,--,0.000,0.000
"Fatty acids, total trans",g,--,--,0.000,0.000
"Cholesterol",mg,--,--,0,0
Amino Acids
Other
Ingredients
"DRIED FIGS WITH POTASSIUM SORBATE ADDED AS A PRESERVATIVE." Date available: 07/14/2017 Date last updated by company: 07/14/2017
