Source: USDA Branded Food Products Database Release December 2017 Software v.3.8.6.4 2017-10-02
Report Run at: December 18, 2017 03:32 EST
"Nutrient data for: 45224003, OREGON MINT WITH CHOCOLATE FLAKES HANDMADE ICE CREAM, UPC: 856014001119"
Food Group:  Branded Food Products Database
Common Name:

Nutrient,Unit,Data points,Std. Error,"0.5 cup = 91.0g",1Value per 100 g,
Proximates
"Energy",kcal,--,--,240,264
"Protein",g,--,--,4.00,4.40
"Total lipid (fat)",g,--,--,15.00,16.48
"Carbohydrate, by difference",g,--,--,23.00,25.27
"Fiber, total dietary",g,--,--,1.0,1.1
"Sugars, total",g,--,--,21.00,23.08
Minerals
"Calcium, Ca",mg,--,--,100,110
"Iron, Fe",mg,--,--,0.00,0.00
"Sodium, Na",mg,--,--,80,88
Vitamins
"Vitamin C, total ascorbic acid",mg,--,--,0.0,0.0
"Vitamin A, IU",IU,--,--,450,494
Lipids
"Fatty acids, total saturated",g,--,--,9.000,9.890
"Fatty acids, total trans",g,--,--,0.000,0.000
"Cholesterol",mg,--,--,105,115
Amino Acids
Other
Ingredients
"ICE CREAM: RBST-FREE FRESH MILK AND CREAM, ORGANIC SUGAR, EGG YOLKS, RBST-FREE DRY MILK, FRESH MINT LEAVES, PURE MINT OIL, LOCUST BEAN GUM. CHOCOLATE FLAKE: CHOCOLATE (SUGAR, CHOCOLATE LIQUOR, COCOA BUTTER, SOY LECITHIN, VANILLA), COCONUT OIL." Date available: 07/14/2017 Date last updated by company: 07/14/2017
