Source: USDA Branded Food Products Database Release December 2017 Software v.3.8.6.4 2017-10-02
Report Run at: December 18, 2017 05:11 EST
"Nutrient data for: 45272192, ORGANIC HAZELNUT SPREAD WITH COCOA, UPC: 692752107450"
Food Group:  Branded Food Products Database
Common Name:

Nutrient,Unit,Data points,Std. Error,"1 PACKET = 22.0g",1Value per 100 g,
Proximates
"Energy",kcal,--,--,120,545
"Protein",g,--,--,2.00,9.09
"Total lipid (fat)",g,--,--,8.00,36.36
"Carbohydrate, by difference",g,--,--,11.00,50.00
"Fiber, total dietary",g,--,--,3.0,13.6
"Sugars, total",g,--,--,7.00,31.82
Minerals
"Calcium, Ca",mg,--,--,20,91
"Iron, Fe",mg,--,--,0.36,1.64
"Sodium, Na",mg,--,--,0,0
Vitamins
"Vitamin C, total ascorbic acid",mg,--,--,0.0,0.0
"Vitamin A, IU",IU,--,--,500,2273
Lipids
"Fatty acids, total saturated",g,--,--,3.001,13.640
"Fatty acids, total monounsaturated",g,--,--,2.000,9.090
"Fatty acids, total polyunsaturated",g,--,--,1.001,4.550
"Fatty acids, total trans",g,--,--,0.000,0.000
"Cholesterol",mg,--,--,0,0
Amino Acids
Other
Ingredients
"CANE SUGAR*, COCOA*, PALM OLEIN*?, FLAXSEED FLOUR*, HAZELNUT*, RED PALM FRUIT OIL*?, CAROB FLOUR*, INULIN*, REFINED COCONUT OIL*, CHIA SEED OIL*, PALM STEARIN*?, SUNFLOWER LECITHIN*, VANILLA FLAVOR.*." Date available: 07/14/2017 Date last updated by company: 07/14/2017
