Source: USDA Branded Food Products Database Release December 2017 Software v.3.8.6.4 2017-10-02
Report Run at: December 18, 2017 05:09 EST
"Nutrient data for: 45291378, ORGANIC GROUND PORK, UPC: 093966001426"
Food Group:  Branded Food Products Database
Common Name:

Nutrient,Unit,Data points,Std. Error,"4.0 ONZ = 113.0g",1Value per 100 g,
Proximates
"Energy",kcal,--,--,299,265
"Protein",g,--,--,19.00,16.81
"Total lipid (fat)",g,--,--,24.00,21.24
"Carbohydrate, by difference",g,--,--,0.00,0.00
"Fiber, total dietary",g,--,--,0.0,0.0
"Sugars, total",g,--,--,0.00,0.00
Minerals
"Calcium, Ca",mg,--,--,20,18
"Iron, Fe",mg,--,--,0.81,0.72
"Sodium, Na",mg,--,--,66,58
Vitamins
"Vitamin C, total ascorbic acid",mg,--,--,0.9,0.8
"Vitamin A, IU",IU,--,--,0,0
Lipids
"Fatty acids, total saturated",g,--,--,8.995,7.960
"Cholesterol",mg,--,--,80,71
Amino Acids
Other
Ingredients
"USDA CERTIFIED ORGANIC PORK." Date available: 07/14/2017 Date last updated by company: 07/14/2017
