Source: USDA Branded Food Products Database Release December 2017 Software v.3.8.6.4 2017-10-02
Report Run at: December 18, 2017 07:19 EST
"Nutrient data for: 45045049, ORGANIC VILLE, RED MISO SOUP, UPC: 858867005269"
Food Group:  Branded Food Products Database
Common Name:

Nutrient,Unit,Data points,Std. Error,"1 Tbsp = 18.0g",1Value per 100 g,
Proximates
"Energy",kcal,--,--,25,139
"Protein",g,--,--,1.00,5.56
"Total lipid (fat)",g,--,--,0.50,2.78
"Carbohydrate, by difference",g,--,--,4.00,22.22
"Fiber, total dietary",g,--,--,0.0,0.0
"Sugars, total",g,--,--,2.00,11.11
Minerals
"Calcium, Ca",mg,--,--,0,0
"Iron, Fe",mg,--,--,4.90,27.22
"Sodium, Na",mg,--,--,790,4389
Vitamins
"Vitamin C, total ascorbic acid",mg,--,--,0.0,0.0
"Vitamin A, IU",IU,--,--,0,0
Lipids
"Fatty acids, total saturated",g,--,--,0.000,0.000
"Fatty acids, total trans",g,--,--,0.000,0.000
"Cholesterol",mg,--,--,0,0
Amino Acids
Other
Ingredients
"ORGANIC SOYBEAN PASTE (WATER, ORGANIC SOYBEANS, ORGANIC RICE, SEA SALT, YEAST, KOJI CULTURE), WATER, ORGANIC BREWED SEASONING (ORGANIC SWEET RICE, ORGANIC DISTILLED SPIRITS (ORGANIC SWEET RICE, WATER, YEAST), ORGANIC RICE, SEA SALT, KOJI CULTURE), SEA SALT, ALCOHOL, ORGANIC SUGAR, YEAST EXTRACT POWDER, ORGANIC ONION POWDER, SHIITAKE MUSHROOM EXTRACT, KELP POWDER." Date available: 07/14/2017 Date last updated by company: 07/14/2017
