Source: USDA Branded Food Products Database Release December 2017 Software v.3.8.6.4 2017-10-02
Report Run at: December 18, 2017 05:45 EST
"Nutrient data for: 45192801, ORGANIC MUFFINS, UPC: 848737006526"
Food Group:  Branded Food Products Database
Common Name:

Nutrient,Unit,Data points,Std. Error,"1 MUFFIN = 99.0g",1Value per 100 g,
Proximates
"Energy",kcal,--,--,400,404
"Protein",g,--,--,6.00,6.06
"Total lipid (fat)",g,--,--,16.00,16.16
"Carbohydrate, by difference",g,--,--,60.00,60.61
"Fiber, total dietary",g,--,--,1.0,1.0
"Sugars, total",g,--,--,33.00,33.33
Minerals
"Calcium, Ca",mg,--,--,60,61
"Iron, Fe",mg,--,--,0.40,0.40
"Sodium, Na",mg,--,--,220,222
Vitamins
"Vitamin C, total ascorbic acid",mg,--,--,0.0,0.0
"Vitamin A, IU",IU,--,--,0,0
Lipids
"Fatty acids, total saturated",g,--,--,3.000,3.030
"Fatty acids, total trans",g,--,--,0.000,0.000
"Cholesterol",mg,--,--,50,51
Amino Acids
Other
Ingredients
"ORGANIC WHEAT FLOUR, ORGANIC SUGAR, ORGANIC INVERT CANE SYRUP, ORGANIC SOYBEAN OIL, WATER, ORGANIC WHOLE EGGS, ORGANIC CRANBERRIES, ORGANIC NONFAT MILK POWDER, ORGANIC GROUND WHOLE LEMONS, ORGANIC NATURAL LEMON FLAVOR, BAKING POWDER (MONOCALCIUM PHOSPHATE, SODIUM BICARBONATE, NON-GMO CORN STARCH), SALT." Date available: 07/14/2017 Date last updated by company: 07/14/2017
