Source: USDA Branded Food Products Database Release December 2017 Software v.3.8.6.4 2017-10-02
Report Run at: December 18, 2017 05:24 EST
"Nutrient data for: 45193737, ORGANIC KEFIR CULTURED WHOLE MILK VIT D PEACHED AND CREAM, UPC: 017077077323"
Food Group:  Branded Food Products Database
Common Name:

Nutrient,Unit,Data points,Std. Error,"1 cup = 240.0g",1Value per 100 g,
Proximates
"Energy",kcal,--,--,190,79
"Protein",g,--,--,10.01,4.17
"Total lipid (fat)",g,--,--,7.99,3.33
"Carbohydrate, by difference",g,--,--,19.99,8.33
"Fiber, total dietary",g,--,--,0.0,0.0
"Sugars, total",g,--,--,19.99,8.33
Minerals
"Calcium, Ca",mg,--,--,300,125
"Iron, Fe",mg,--,--,0.00,0.00
"Sodium, Na",mg,--,--,125,52
Vitamins
"Vitamin C, total ascorbic acid",mg,--,--,0.0,0.0
"Vitamin A, IU",IU,--,--,355,148
"Vitamin D",IU,--,--,101,42
Lipids
"Fatty acids, total saturated",g,--,--,4.992,2.080
"Fatty acids, total trans",g,--,--,0.000,0.000
"Cholesterol",mg,--,--,29,12
Amino Acids
Other
Ingredients
"PASTEURIZED CULTURED ORGANIC GRADE A MILK, ORGANIC CANE SUGAR, PECTIN, ORGANIC PEACH FLAVOR, ORGANIC VANILLA EXTRACT, ORGANIC ANNATTO EXTRACT (FOR COLOR), VITAMIN D3. CONTAINS LIVE AND ACTIVE CULTURES." Date available: 07/14/2017 Date last updated by company: 07/14/2017
