Source: USDA Branded Food Products Database Release December 2017 Software v.3.8.6.4 2017-10-02
Report Run at: December 18, 2017 06:13 EST
"Nutrient data for: 45238285, ORGANIC RANCH DRESSING, UPC: 042563600242"
Food Group:  Branded Food Products Database
Common Name:

Nutrient,Unit,Data points,Std. Error,"2.0 Tbsp = 30.0g",1Value per 100 g,
Proximates
"Energy",kcal,--,--,120,400
"Protein",g,--,--,1.00,3.33
"Total lipid (fat)",g,--,--,13.00,43.33
"Carbohydrate, by difference",g,--,--,2.00,6.67
"Fiber, total dietary",g,--,--,0.0,0.0
"Sugars, total",g,--,--,1.00,3.33
Minerals
"Calcium, Ca",mg,--,--,20,67
"Iron, Fe",mg,--,--,0.00,0.00
"Sodium, Na",mg,--,--,230,767
Vitamins
"Vitamin C, total ascorbic acid",mg,--,--,0.0,0.0
"Vitamin A, IU",IU,--,--,0,0
Lipids
"Fatty acids, total saturated",g,--,--,2.001,6.670
"Fatty acids, total trans",g,--,--,0.000,0.000
"Cholesterol",mg,--,--,0,0
Amino Acids
Other
Ingredients
"ORGANIC SOYBEAN OIL, WATER, ORGANIC CIDER VINEGAR, ORGANIC MILK SOLIDS, SEA SALT, ORGANIC BUTTERMILK POWDER, ORGANIC EVAPORATED CANE SUGAR, ORGANIC DIJON MUSTARD (ORGANIC APPLE CIDER VINEGAR, WATER, ORGANIC MUSTARD SEED, SALT, ORGANIC SPICES), ORGANIC ONION POWDER, ORGANIC SOUR CREAM POWDER (ORGANIC CREAM, CULTURES, LACTIC ACID, ORGANIC NONFAT MILK SOLIDS, CITRIC ACID), ORGANIC GARLIC, ORGANIC LEMON JUICE CONCENTRATE, ORGANIC EGG POWDER, ORGANIC GARLIC POWDER, XANTHAN GUM, ORGANIC BLACK PEPPER, ORGANIC GREEN ONIONS, ORGANIC PARSLEY, ORGANIC CELERY SEED." Date available: 07/14/2017 Date last updated by company: 07/14/2017
