Source: USDA Branded Food Products Database Release December 2017 Software v.3.8.6.4 2017-10-02
Report Run at: December 18, 2017 04:30 EST
"Nutrient data for: 45049687, ORGANIC CURRANTS, UPC: 744335610137"
Food Group:  Branded Food Products Database
Common Name:

Nutrient,Unit,Data points,Std. Error,"2.0 ONZ = 57.0g",1Value per 100 g,
Proximates
"Energy",kcal,--,--,184,323
"Protein",g,--,--,1.00,1.75
"Total lipid (fat)",g,--,--,0.00,0.00
"Carbohydrate, by difference",g,--,--,44.00,77.19
"Fiber, total dietary",g,--,--,3.0,5.3
"Sugars, total",g,--,--,41.00,71.93
Minerals
"Calcium, Ca",mg,--,--,30,53
"Iron, Fe",mg,--,--,1.01,1.77
"Sodium, Na",mg,--,--,14,25
Vitamins
"Vitamin C, total ascorbic acid",mg,--,--,0.0,0.0
"Vitamin A, IU",IU,--,--,0,0
Lipids
"Fatty acids, total saturated",g,--,--,0.000,0.000
"Fatty acids, total trans",g,--,--,0.000,0.000
"Cholesterol",mg,--,--,0,0
Amino Acids
Other
Ingredients
"ORGANIC ZANTE CURRANTS." Date available: 07/14/2017 Date last updated by company: 07/14/2017
