Source: USDA Branded Food Products Database Release December 2017 Software v.3.8.6.4 2017-10-02
Report Run at: December 18, 2017 05:05 EST
"Nutrient data for: 45183909, ORGANIC GREAT VALUE, SWEET POTATOES, UPC: 078742133188"
Food Group:  Branded Food Products Database
Common Name:

Nutrient,Unit,Data points,Std. Error,"0.5 cup = 88.0g",1Value per 100 g,
Proximates
"Energy",kcal,--,--,90,102
"Protein",g,--,--,2.00,2.27
"Total lipid (fat)",g,--,--,0.00,0.00
"Carbohydrate, by difference",g,--,--,20.00,22.73
"Fiber, total dietary",g,--,--,2.0,2.3
"Sugars, total",g,--,--,5.00,5.68
Minerals
"Calcium, Ca",mg,--,--,20,23
"Iron, Fe",mg,--,--,0.65,0.74
"Potassium, K",mg,--,--,320,364
"Sodium, Na",mg,--,--,5,6
Vitamins
"Vitamin C, total ascorbic acid",mg,--,--,10.9,12.4
"Vitamin A, IU",IU,--,--,6363,7231
Lipids
"Fatty acids, total saturated",g,--,--,0.000,0.000
"Fatty acids, total trans",g,--,--,0.000,0.000
"Cholesterol",mg,--,--,0,0
Amino Acids
Other
Ingredients
"ORGANIC SWEET POTATOES." Date available: 07/14/2017 Date last updated by company: 07/14/2017
