Source: USDA Branded Food Products Database Release December 2017 Software v.3.8.6.4 2017-10-02
Report Run at: December 18, 2017 06:28 EST
"Nutrient data for: 45324433, ORGANIC SALSA, UPC: 079893115634"
Food Group:  Branded Food Products Database
Common Name:

Nutrient,Unit,Data points,Std. Error,"2.0 Tbsp = 28.0g",1Value per 100 g,
Proximates
"Energy",kcal,--,--,10,36
"Protein",g,--,--,0.00,0.00
"Total lipid (fat)",g,--,--,0.00,0.00
"Carbohydrate, by difference",g,--,--,1.00,3.57
"Fiber, total dietary",g,--,--,0.0,0.0
"Sugars, total",g,--,--,1.00,3.57
Minerals
"Calcium, Ca",mg,--,--,5,18
"Iron, Fe",mg,--,--,0.00,0.00
"Potassium, K",mg,--,--,110,393
"Sodium, Na",mg,--,--,105,375
Vitamins
"Vitamin D",IU,--,--,0,0
Lipids
"Fatty acids, total saturated",g,--,--,0.000,0.000
"Fatty acids, total trans",g,--,--,0.000,0.000
"Cholesterol",mg,--,--,0,0
Amino Acids
Other
Ingredients
"ORGANIC TOMATOES (WITH ORGANIC TOMATO JUICE, CALCIUM CHLORIDE, CITRIC ACID), ORGANIC JALAPENO PEPPERS, WATER, ORGANIC ROASTED ONIONS, ORGANIC ROASTED GARLIC, ORGANIC LIME JUICE, CONTAINS LESS THAN 2% OF: ORGANIC SERRANO PEPPERS, ORGANIC CILANTRO, SEA SALT, ORGANIC CHILI POWDER, ORGANIC BLACK PEPPER." Date available: 09/25/2017 Date last updated by company: 09/25/2017
