Source: USDA Branded Food Products Database Release December 2017 Software v.3.8.6.4 2017-10-02
Report Run at: December 18, 2017 05:51 EST
"Nutrient data for: 45105886, ORGANIC ORIGINAL POPPED CORN CAKES, UPC: 671959000016"
Food Group:  Branded Food Products Database
Common Name:

Nutrient,Unit,Data points,Std. Error,"2.0 SLICES = 12.0g",1Value per 100 g,
Proximates
"Energy",kcal,--,--,46,383
"Protein",g,--,--,1.00,8.33
"Total lipid (fat)",g,--,--,0.00,0.00
"Carbohydrate, by difference",g,--,--,9.00,75.00
"Fiber, total dietary",g,--,--,1.0,8.3
"Sugars, total",g,--,--,0.00,0.00
Minerals
"Sodium, Na",mg,--,--,31,258
Vitamins
Lipids
"Fatty acids, total saturated",g,--,--,0.000,0.000
"Fatty acids, total trans",g,--,--,0.000,0.000
"Cholesterol",mg,--,--,0,0
Amino Acids
Other
Ingredients
"ORGANIC CORN (99%), ORGANIC EXPELLER PRESSED SUNFLOWER OIL+, SEA SALT" Date available: 09/23/2017 Date last updated by company: 09/23/2017
