Source: USDA Branded Food Products Database Release December 2017 Software v.3.8.6.4 2017-10-02
Report Run at: December 18, 2017 04:02 EST
"Nutrient data for: 45197198, ORGANIC BUTTER SQUASH SOUP, UPC: 070038639152"
Food Group:  Branded Food Products Database
Common Name:

Nutrient,Unit,Data points,Std. Error,"1 cup = 245.0g",1Value per 100 g,
Proximates
"Energy",kcal,--,--,71,29
"Protein",g,--,--,1.00,0.41
"Total lipid (fat)",g,--,--,2.01,0.82
"Carbohydrate, by difference",g,--,--,13.01,5.31
"Fiber, total dietary",g,--,--,2.0,0.8
"Sugars, total",g,--,--,3.99,1.63
Minerals
"Calcium, Ca",mg,--,--,20,8
"Iron, Fe",mg,--,--,0.00,0.00
"Sodium, Na",mg,--,--,451,184
Vitamins
"Vitamin C, total ascorbic acid",mg,--,--,0.0,0.0
"Vitamin A, IU",IU,--,--,1250,510
Lipids
"Fatty acids, total saturated",g,--,--,1.004,0.410
"Fatty acids, total trans",g,--,--,0.000,0.000
"Cholesterol",mg,--,--,5,2
Amino Acids
Other
Ingredients
"FILTERED WATER, ORGANIC BUTTERNUT SQUASH, ORGANIC CORN STARCH, ORGANIC CREAM, CONTAINS LESS THAN 2% OF THE FOLLOWING INGREDIENTS: ORGANIC VEGETABLE STOCK FLAVOR (ORGANIC CARROT, ORGANIC ONION, ORGANIC CELERY, SEA SALT), ORGANIC CARROT JUICE CONCENTRATE, ORGANIC FLAVOR, SEA SALT, YEAST EXTRACT, ORGANIC ONION POWDER, ORGANIC SPICES." Date available: 07/14/2017 Date last updated by company: 07/14/2017
