Source: USDA Branded Food Products Database Release December 2017 Software v.3.8.6.4 2017-10-02
Report Run at: December 18, 2017 06:00 EST
"Nutrient data for: 45230260, ORGANIC PIZZA SAUCE, UPC: 688267125201"
Food Group:  Branded Food Products Database
Common Name:

Nutrient,Unit,Data points,Std. Error,"0.25 cup = 56.0g",1Value per 100 g,
Proximates
"Energy",kcal,--,--,30,54
"Protein",g,--,--,1.00,1.79
"Total lipid (fat)",g,--,--,1.00,1.79
"Carbohydrate, by difference",g,--,--,4.00,7.14
"Fiber, total dietary",g,--,--,1.0,1.8
"Sugars, total",g,--,--,2.00,3.57
Minerals
"Calcium, Ca",mg,--,--,15,27
"Iron, Fe",mg,--,--,0.50,0.89
"Sodium, Na",mg,--,--,220,393
Vitamins
Lipids
"Fatty acids, total saturated",g,--,--,0.000,0.000
Amino Acids
Other
Ingredients
"ORGANIC TOMATO PUREE, ORGANIC DICED TOMATOES IN ORGANIC TOMATO JUICE, ORGANIC EXTRA VIRGIN OLIVE OIL, SALT, ORGANIC OREGANO, ORGANIC GARLIC, ORGANIC PARSLEY." Date available: 10/19/2017 Date last updated by company: 10/19/2017
