Source: USDA Branded Food Products Database Release December 2017 Software v.3.8.6.4 2017-10-02
Report Run at: December 18, 2017 06:44 EST
"Nutrient data for: 45201351, ORGANIC SPINACH SPRING MIX, UPC: 725439951586"
Food Group:  Branded Food Products Database
Common Name:

Nutrient,Unit,Data points,Std. Error,"2.0 cup = 85.0g",1Value per 100 g,
Proximates
"Energy",kcal,--,--,10,12
"Protein",g,--,--,2.00,2.35
"Total lipid (fat)",g,--,--,0.00,0.00
"Carbohydrate, by difference",g,--,--,5.00,5.88
"Fiber, total dietary",g,--,--,4.0,4.7
"Sugars, total",g,--,--,0.00,0.00
Minerals
"Calcium, Ca",mg,--,--,60,71
"Iron, Fe",mg,--,--,3.60,4.24
"Sodium, Na",mg,--,--,65,76
Vitamins
"Vitamin C, total ascorbic acid",mg,--,--,18.0,21.2
"Vitamin A, IU",IU,--,--,4000,4706
Lipids
"Fatty acids, total saturated",g,--,--,0.000,0.000
"Fatty acids, total trans",g,--,--,0.000,0.000
"Cholesterol",mg,--,--,0,0
Amino Acids
Other
Ingredients
"SPINACH, TANGO, LOLLA ROSA, RED & GREEN ROMAINE, RED & GREEN OAK, RED & GREEN ROMAINE, RED & GREEN OAK, RED & GREEN CHARD, MIZUNA, RADICCHIO, FRISEE, BEET GREENS, ARUGULA, TAT-SOI, RED MUSTARD, KALE, COLLARDS." Date available: 07/14/2017 Date last updated by company: 07/14/2017
