Source: USDA Branded Food Products Database Release December 2017 Software v.3.8.6.4 2017-10-02
Report Run at: December 18, 2017 03:46 EST
"Nutrient data for: 45322662, ORGANIC BAGELS, UPC: 013764028029"
Food Group:  Branded Food Products Database
Common Name:

Nutrient,Unit,Data points,Std. Error,"1 BAGEL = 95.0g",1Value per 100 g,
Proximates
"Energy",kcal,--,--,250,263
"Protein",g,--,--,11.00,11.58
"Total lipid (fat)",g,--,--,2.50,2.63
"Carbohydrate, by difference",g,--,--,49.00,51.58
"Fiber, total dietary",g,--,--,3.0,3.2
"Sugars, total",g,--,--,11.00,11.58
Minerals
"Calcium, Ca",mg,--,--,40,42
"Iron, Fe",mg,--,--,1.25,1.32
"Sodium, Na",mg,--,--,390,411
Vitamins
"Vitamin C, total ascorbic acid",mg,--,--,0.0,0.0
"Vitamin A, IU",IU,--,--,0,0
Lipids
"Fatty acids, total saturated",g,--,--,0.000,0.000
"Fatty acids, total monounsaturated",g,--,--,0.998,1.050
"Fatty acids, total polyunsaturated",g,--,--,0.998,1.050
"Fatty acids, total trans",g,--,--,0.000,0.000
"Cholesterol",mg,--,--,0,0
Amino Acids
Other
Ingredients
"ORGANIC WHEAT FLOUR, WATER, ORGANIC RAISINS, ORGANIC WHOLE WHEAT FLOUR, ORGANIC WHEAT GLUTEN, ORGANIC THICK ROLLED OATS, ORGANIC CINNAMON BITES (ORGANIC SUGAR, ORGANIC WHEAT FLOUR, ORGANIC CINNAMON, ORGANIC SUNFLOWER OIL), ORGANIC CINNAMON SWIRL (ORGANIC SUGAR, ORGANIC WHEAT FLOUR, ORGANIC CINNAMON), ORGANIC CANE SUGAR, YEAST, ORGANIC EXPELLER PRESSED CANOLA OIL, ORGANIC MOLASSES, SALT, ORGANIC CULTURED WHEAT, ORGANIC VINEGAR, ORGANIC YELLOW CORNMEAL, WHEAT ENZYMES." Date available: 08/21/2017 Date last updated by company: 08/21/2017
