Source: USDA Branded Food Products Database Release December 2017 Software v.3.8.6.4 2017-10-02
Report Run at: December 18, 2017 05:40 EST
"Nutrient data for: 45289715, ORGANIC 25 MILK FAT REDUCED FAT MILK, UPC: 717544205197"
Food Group:  Branded Food Products Database
Common Name:

Nutrient,Unit,Data points,Std. Error,"1 cup = 240.0g",1Value per 100 g,
Proximates
"Energy",kcal,--,--,139,58
"Protein",g,--,--,9.00,3.75
"Total lipid (fat)",g,--,--,4.99,2.08
"Carbohydrate, by difference",g,--,--,13.99,5.83
"Fiber, total dietary",g,--,--,0.0,0.0
"Sugars, total",g,--,--,13.01,5.42
Minerals
"Calcium, Ca",mg,--,--,350,146
"Iron, Fe",mg,--,--,0.00,0.00
"Sodium, Na",mg,--,--,139,58
Vitamins
"Vitamin C, total ascorbic acid",mg,--,--,1.2,0.5
"Vitamin A, IU",IU,--,--,499,208
"Vitamin D",IU,--,--,101,42
Lipids
"Fatty acids, total saturated",g,--,--,3.000,1.250
"Fatty acids, total trans",g,--,--,0.000,0.000
"Cholesterol",mg,--,--,24,10
Amino Acids
Other
Ingredients
"CERTIFIED ORGANIC REDUCED FAT MILK, CERTIFIED ORGANIC NONFAT MILK, VITAMIN A PALMITATE AND VITAMIN D3." Date available: 07/14/2017 Date last updated by company: 07/14/2017
