Source: USDA Branded Food Products Database Release December 2017 Software v.3.8.6.4 2017-10-02
Report Run at: December 18, 2017 06:04 EST
"Nutrient data for: 45188958, ORGANIC POWER FRUIT BLEND, UPC: 873668002231"
Food Group:  Branded Food Products Database
Common Name:

Nutrient,Unit,Data points,Std. Error,"1 cup = 140.0g",1Value per 100 g,
Proximates
"Energy",kcal,--,--,80,57
"Protein",g,--,--,0.99,0.71
"Total lipid (fat)",g,--,--,0.00,0.00
"Carbohydrate, by difference",g,--,--,20.01,14.29
"Fiber, total dietary",g,--,--,4.1,2.9
"Sugars, total",g,--,--,14.99,10.71
Minerals
"Calcium, Ca",mg,--,--,20,14
"Iron, Fe",mg,--,--,0.71,0.51
"Sodium, Na",mg,--,--,0,0
Vitamins
"Vitamin C, total ascorbic acid",mg,--,--,15.0,10.7
"Vitamin A, IU",IU,--,--,99,71
Lipids
"Fatty acids, total saturated",g,--,--,0.000,0.000
"Fatty acids, total trans",g,--,--,0.000,0.000
"Cholesterol",mg,--,--,0,0
Amino Acids
Other
Ingredients
"ORGANIC DARK SWEET CHERRIES (PRODUCT OF TURKEY), ORGANIC BLUEBERRIES (PRODUCT OF CHILE OR USA), ORGANIC BLACKBERRIES (PRODUCT OF CHILE)." Date available: 07/14/2017 Date last updated by company: 07/14/2017
