Source: USDA Branded Food Products Database Release December 2017 Software v.3.8.6.4 2017-10-02
Report Run at: December 18, 2017 07:34 EST
"Nutrient data for: 45173839, ORGANIC YELLOW CAKE MIX, UPC: 041449450193"
Food Group:  Branded Food Products Database
Common Name:

Nutrient,Unit,Data points,Std. Error,"0.1 PACKAGE MIX = 44.0g",1Value per 100 g,
Proximates
"Energy",kcal,--,--,160,364
"Protein",g,--,--,2.00,4.55
"Total lipid (fat)",g,--,--,1.00,2.27
"Carbohydrate, by difference",g,--,--,36.00,81.82
"Fiber, total dietary",g,--,--,1.0,2.3
"Sugars, total",g,--,--,19.00,43.18
Minerals
"Calcium, Ca",mg,--,--,100,227
"Iron, Fe",mg,--,--,0.00,0.00
"Sodium, Na",mg,--,--,330,750
Vitamins
"Vitamin C, total ascorbic acid",mg,--,--,0.0,0.0
"Vitamin A, IU",IU,--,--,0,0
Lipids
"Fatty acids, total saturated",g,--,--,0.000,0.000
"Fatty acids, total trans",g,--,--,0.000,0.000
"Cholesterol",mg,--,--,0,0
Amino Acids
Other
Ingredients
"ORGANIC WHEAT FLOUR, ORGANIC SUGAR. CONTAINS 2% OR LESS OF THE FOLLOWING: BAKING SODA, ORGANIC SOYBEAN OIL, SEA SALT, XANTHAN GUM, ORGANIC NATURAL FLAVORS (CONTAINS MILK), ORGANIC GUAR GUM, ORGANIC ARABIC GUM, MONOCALCIUM PHOSPHATE (LEAVENING), SODIUM ACID PYROPHOSPHATE (LEAVENING)." Date available: 07/14/2017 Date last updated by company: 07/14/2017
