Source: USDA Branded Food Products Database Release December 2017 Software v.3.8.6.4 2017-10-02
Report Run at: December 18, 2017 04:51 EST
"Nutrient data for: 45189343, ORGANIC FROZEN DESSERT, UPC: 870001003054"
Food Group:  Branded Food Products Database
Common Name:

Nutrient,Unit,Data points,Std. Error,"0.5 cup = 113.0g",1Value per 100 g,
Proximates
"Energy",kcal,--,--,270,239
"Protein",g,--,--,6.99,6.19
"Total lipid (fat)",g,--,--,15.00,13.27
"Carbohydrate, by difference",g,--,--,31.00,27.43
"Fiber, total dietary",g,--,--,2.0,1.8
"Sugars, total",g,--,--,22.00,19.47
Minerals
"Calcium, Ca",mg,--,--,20,18
"Iron, Fe",mg,--,--,3.04,2.69
"Sodium, Na",mg,--,--,20,18
Vitamins
"Vitamin C, total ascorbic acid",mg,--,--,0.0,0.0
"Vitamin A, IU",IU,--,--,0,0
Lipids
"Fatty acids, total saturated",g,--,--,2.497,2.210
"Fatty acids, total trans",g,--,--,0.000,0.000
"Cholesterol",mg,--,--,0,0
Amino Acids
Other
Ingredients
"ORGANIC CASHEW MILK (FILTERED WATER, ORGANIC CASHEWS), ORGANIC SUGAR (ORGANIC EVAPORATED CANE JUICE), ORGANIC COCOA POWDER (NON ALKALIZED), ORGANIC VANILLA EXTRACT, CHOCOLATE EXTRACT, ORGANIC COFFEE, KOSHER SALT" Date available: 07/14/2017 Date last updated by company: 07/14/2017
