Source: USDA Branded Food Products Database Release December 2017 Software v.3.8.6.4 2017-10-02
Report Run at: December 18, 2017 07:01 EST
"Nutrient data for: 45196965, ORGANIC TOMATO BASIL PASTA SAUCE, UPC: 070625528418"
Food Group:  Branded Food Products Database
Common Name:

Nutrient,Unit,Data points,Std. Error,"0.5 cup = 124.0g",1Value per 100 g,
Proximates
"Energy",kcal,--,--,69,56
"Protein",g,--,--,2.00,1.61
"Total lipid (fat)",g,--,--,2.50,2.02
"Carbohydrate, by difference",g,--,--,12.00,9.68
"Fiber, total dietary",g,--,--,2.0,1.6
"Sugars, total",g,--,--,8.00,6.45
Minerals
"Calcium, Ca",mg,--,--,40,32
"Iron, Fe",mg,--,--,1.53,1.23
"Sodium, Na",mg,--,--,510,411
Vitamins
"Vitamin C, total ascorbic acid",mg,--,--,0.0,0.0
"Vitamin A, IU",IU,--,--,792,639
Lipids
"Fatty acids, total saturated",g,--,--,0.000,0.000
"Fatty acids, total trans",g,--,--,0.000,0.000
"Cholesterol",mg,--,--,0,0
Amino Acids
Other
Ingredients
"ORGANIC TOMATO PUREE (WATER, ORGANIC TOMATO PASTE, CITRIC ACID), ORGANIC DICED TOMATOES IN ORGANIC TOMATO JUICE, ORGANIC SUGAR, ORGANIC SOYBEAN OIL, SEA SALT, ORGANIC EXTRA VIRGIN OLIVE OIL, ORGANIC DRIED ONION, ORGANIC DRIED BASIL, ORGANIC SPICES, ORGANIC DRIED GARLIC." Date available: 10/13/2017 Date last updated by company: 10/13/2017
