Source: USDA Branded Food Products Database Release December 2017 Software v.3.8.6.4 2017-10-02
Report Run at: December 18, 2017 06:40 EST
"Nutrient data for: 45193607, ORGANIC SOUP, UPC: 011150479554"
Food Group:  Branded Food Products Database
Common Name:

Nutrient,Unit,Data points,Std. Error,"1 cup = 245.0g",1Value per 100 g,
Proximates
"Energy",kcal,--,--,211,86
"Protein",g,--,--,11.00,4.49
"Total lipid (fat)",g,--,--,2.99,1.22
"Carbohydrate, by difference",g,--,--,35.01,14.29
"Fiber, total dietary",g,--,--,14.9,6.1
"Sugars, total",g,--,--,3.99,1.63
Minerals
"Calcium, Ca",mg,--,--,81,33
"Iron, Fe",mg,--,--,5.39,2.20
"Sodium, Na",mg,--,--,801,327
Vitamins
"Vitamin C, total ascorbic acid",mg,--,--,17.9,7.3
"Vitamin A, IU",IU,--,--,399,163
Lipids
"Fatty acids, total saturated",g,--,--,0.000,0.000
"Fatty acids, total trans",g,--,--,0.000,0.000
"Cholesterol",mg,--,--,0,0
Amino Acids
Other
Ingredients
"VEGETABLE STOCK* (WATER, VEGETABLE BASE* [CARROTS*, ONIONS*, CELERY*, SEA SALT]), BLACK BEANS*, ONIONS*, RED BELL PEPPERS*, BLACK BEAN FLAKES* (BLACK BEANS*, SALT), CONTAINS 2% OR LESS OF: RED WINE VINEGAR*, GARLIC*, JALAPENO PEPPERS*, CANOLA OIL*, OREGANO*, SEA SALT, SPICES*." Date available: 07/14/2017 Date last updated by company: 07/14/2017
