Source: USDA Branded Food Products Database Release December 2017 Software v.3.8.6.4 2017-10-02
Report Run at: December 18, 2017 04:04 EST
"Nutrient data for: 45094778, ORGANIC CANDY CHEWS, UPC: 853715003213"
Food Group:  Branded Food Products Database
Common Name:

Nutrient,Unit,Data points,Std. Error,"5.0 PCS = 30.0g",1Value per 100 g,
Proximates
"Energy",kcal,--,--,120,400
"Protein",g,--,--,0.00,0.00
"Total lipid (fat)",g,--,--,1.50,5.00
"Carbohydrate, by difference",g,--,--,25.00,83.33
"Fiber, total dietary",g,--,--,0.0,0.0
"Sugars, total",g,--,--,17.00,56.67
Minerals
"Calcium, Ca",mg,--,--,1,3
"Iron, Fe",mg,--,--,0.00,0.00
"Potassium, K",mg,--,--,22,73
"Sodium, Na",mg,--,--,0,0
Vitamins
"Vitamin C, total ascorbic acid",mg,--,--,90.0,300.0
"Vitamin D",IU,--,--,0,0
Lipids
"Fatty acids, total saturated",g,--,--,0.999,3.330
"Fatty acids, total trans",g,--,--,0.000,0.000
"Cholesterol",mg,--,--,0,0
Amino Acids
Other
Ingredients
"ORGANIC BROWN RICE SYRUP, ORGANIC CANE SYRUP, ORGANIC PALM SHORTENING*, ASCORBIC ACID, CITRIC ACID, NATURAL FLAVORS, ORGANIC RICE EXTRACT. COLORED WITH: BEETROOT JUICE AND ORGANIC CURCUMIN (TURMERIC)." Date available: 07/14/2017 Date last updated by company: 07/14/2017
