Source: USDA Branded Food Products Database Release December 2017 Software v.3.8.6.4 2017-10-02
Report Run at: December 18, 2017 04:32 EST
"Nutrient data for: 45267049, ORGANIC DARK CHOCOLATE SNACK BITES, UPC: 076500040945"
Food Group:  Branded Food Products Database
Common Name:

Nutrient,Unit,Data points,Std. Error,"1.4 ONZ = 40.0g",1Value per 100 g,
Proximates
"Energy",kcal,--,--,200,500
"Protein",g,--,--,2.00,5.00
"Total lipid (fat)",g,--,--,14.00,35.00
"Carbohydrate, by difference",g,--,--,23.00,57.50
"Fiber, total dietary",g,--,--,2.0,5.0
"Sugars, total",g,--,--,19.00,47.50
Minerals
"Calcium, Ca",mg,--,--,20,50
"Iron, Fe",mg,--,--,3.38,8.44
"Sodium, Na",mg,--,--,10,25
Vitamins
"Vitamin C, total ascorbic acid",mg,--,--,0.0,0.0
"Vitamin A, IU",IU,--,--,0,0
Lipids
"Fatty acids, total saturated",g,--,--,6.000,15.000
"Fatty acids, total trans",g,--,--,0.000,0.000
"Cholesterol",mg,--,--,0,0
Amino Acids
Other
Ingredients
"ORGANIC DARK CHOCOLATE (*ORGANIC CHOCOLATE LIQUOR, *ORGANIC DRIED CANE SYRUP, *ORGANIC COCOA BUTTER, ORGANIC SOY LECITHIN ADDED AS AN EMULSIFIER, AND ORGANIC VANILLA EXTRACT), *ORGANIC CANE SUGAR, ORGANIC PECANS, ORGANIC DARK BROWN SUGAR (ORGANIC EVAPORATED CANE JUICE AND ORGANIC MOLASSES), GUM ARABIC, GLUCOSE SYRUP, WATER, VEGETABLE FAT, CITRIC ACID, POTASSIUM SORBATE, ORGANIC TAPIOCA SYRUP (ORGANIC TAPIOCA STARCH, WATER), ORGANIC CREAM, SEA SALT, ORGANIC CINNAMON." Date available: 09/02/2017 Date last updated by company: 09/02/2017
