Source: USDA Branded Food Products Database Release December 2017 Software v.3.8.6.4 2017-10-02
Report Run at: December 18, 2017 05:55 EST
"Nutrient data for: 45081186, ORGANIC PEANUT BUTTER POWDER, UPC: 794367000352"
Food Group:  Branded Food Products Database
Common Name:

Nutrient,Unit,Data points,Std. Error,"2.0 Tbsp = 10.0g",1Value per 100 g,
Proximates
"Energy",kcal,--,--,40,400
"Protein",g,--,--,3.00,30.00
"Total lipid (fat)",g,--,--,1.00,10.00
"Carbohydrate, by difference",g,--,--,3.00,30.00
"Fiber, total dietary",g,--,--,1.0,10.0
"Sugars, total",g,--,--,3.00,30.00
Minerals
"Calcium, Ca",mg,--,--,0,0
"Iron, Fe",mg,--,--,0.00,0.00
"Sodium, Na",mg,--,--,40,400
Vitamins
"Vitamin C, total ascorbic acid",mg,--,--,6.0,60.0
"Vitamin A, IU",IU,--,--,0,0
Lipids
"Fatty acids, total saturated",g,--,--,0.000,0.000
"Fatty acids, total trans",g,--,--,0.000,0.000
"Cholesterol",mg,--,--,0,0
Amino Acids
Other
Ingredients
"PARTIALLY DEFATTED ORGANIC PEANUT FLOUR, ORGANIC COCONUT SUGAR, SEA SALT." Date available: 06/25/2017 Date last updated by company: 06/25/2017
