Source: USDA Branded Food Products Database Release December 2017 Software v.3.8.6.4 2017-10-02
Report Run at: December 18, 2017 06:47 EST
"Nutrient data for: 45291287, ORGANIC SPROUTED 100% WHOLE WHEAT BREAD, UPC: 028833170301"
Food Group:  Branded Food Products Database
Common Name:

Nutrient,Unit,Data points,Std. Error,"1 SLICE = 43.0g",1Value per 100 g,
Proximates
"Energy",kcal,--,--,90,209
"Protein",g,--,--,7.00,16.28
"Total lipid (fat)",g,--,--,0.00,0.00
"Carbohydrate, by difference",g,--,--,18.00,41.86
"Fiber, total dietary",g,--,--,5.0,11.6
"Sugars, total",g,--,--,2.00,4.65
Minerals
"Calcium, Ca",mg,--,--,0,0
"Iron, Fe",mg,--,--,1.26,2.92
"Sodium, Na",mg,--,--,150,349
Vitamins
"Vitamin C, total ascorbic acid",mg,--,--,0.0,0.0
"Vitamin A, IU",IU,--,--,0,0
Lipids
"Fatty acids, total saturated",g,--,--,0.000,0.000
"Fatty acids, total trans",g,--,--,0.000,0.000
"Cholesterol",mg,--,--,0,0
Amino Acids
Other
Ingredients
"SPROUTED ORGANIC WHOLE WHEAT BERRIES, FILTERED WATER, ORGANIC WHEAT GLUTEN, ORGANIC OAT FIBER, ORGANIC DATES, FRESH YEAST, ORGANIC RAISINS, ORGANIC VINEGAR, CULTURED WHEAT STARCH, SEA SALT, ORGANIC BARLEY MALT, ORGANIC SUNFLOWER OIL. TOPPING: ORGANIC OAT BRAN." Date available: 07/14/2017 Date last updated by company: 07/14/2017
