Source: USDA Branded Food Products Database Release December 2017 Software v.3.8.6.4 2017-10-02
Report Run at: December 18, 2017 05:39 EST
"Nutrient data for: 45044994, ORGANIC MIGHTY OMEGA SUPERFOOD HOT CEREAL, UPC: 767335000128"
Food Group:  Branded Food Products Database
Common Name:

Nutrient,Unit,Data points,Std. Error,"1 CONTAINER) | ( = 74.0g",1Value per 100 g,
Proximates
"Energy",kcal,--,--,300,405
"Protein",g,--,--,8.00,10.81
"Total lipid (fat)",g,--,--,7.00,9.46
"Carbohydrate, by difference",g,--,--,52.00,70.27
"Fiber, total dietary",g,--,--,10.0,13.5
"Sugars, total",g,--,--,15.00,20.27
Minerals
"Calcium, Ca",mg,--,--,60,81
"Iron, Fe",mg,--,--,1.46,1.97
"Potassium, K",mg,--,--,250,338
"Sodium, Na",mg,--,--,100,135
Vitamins
"Vitamin C, total ascorbic acid",mg,--,--,0.0,0.0
"Vitamin A, IU",IU,--,--,0,0
Lipids
"Fatty acids, total saturated",g,--,--,0.999,1.350
"Fatty acids, total monounsaturated",g,--,--,1.502,2.030
"Fatty acids, total polyunsaturated",g,--,--,4.003,5.410
"Fatty acids, total trans",g,--,--,0.000,0.000
"Cholesterol",mg,--,--,0,0
Amino Acids
Other
Ingredients
"ORGANIC THICK CUT WHOLE GRAIN OATS, ORGANIC SUGAR, ORGANIC FLAX SEED, ORGANIC CHIA SEED, ORGANIC HEMP SEED, ORGANIC QUINOA, ORGANIC CINNAMON, SEA SALT." Date available: 07/14/2017 Date last updated by company: 07/14/2017
