Source: USDA Branded Food Products Database Release December 2017 Software v.3.8.6.4 2017-10-02
Report Run at: December 18, 2017 06:38 EST
"Nutrient data for: 45106064, ORGANIC SNACK BAR, UPC: 853152100759"
Food Group:  Branded Food Products Database
Common Name:

Nutrient,Unit,Data points,Std. Error,"1 BAR = 46.0g",1Value per 100 g,
Proximates
"Energy",kcal,--,--,190,413
"Protein",g,--,--,6.00,13.04
"Total lipid (fat)",g,--,--,8.00,17.39
"Carbohydrate, by difference",g,--,--,28.00,60.87
"Fiber, total dietary",g,--,--,3.0,6.5
"Sugars, total",g,--,--,11.00,23.91
Minerals
"Calcium, Ca",mg,--,--,20,43
"Iron, Fe",mg,--,--,4.89,10.63
"Sodium, Na",mg,--,--,65,141
Vitamins
"Vitamin C, total ascorbic acid",mg,--,--,0.0,0.0
"Vitamin A, IU",IU,--,--,0,0
Lipids
"Fatty acids, total saturated",g,--,--,2.001,4.350
"Fatty acids, total trans",g,--,--,0.000,0.000
"Cholesterol",mg,--,--,0,0
Amino Acids
Other
Ingredients
"TAPIOCA SYRUP, ROLLED OATS, PEANUT BUTTER (PEANUTS), CRISP BROWN RICE, DRIED CANE SYRUP, BROWN RICE PROTEIN, WHOLE GRAIN BROWN RICE FLOUR, CHOCOLATE LIQUOR, SUNFLOWER SEEDS, AGAVE FIBER (INULIN), GLYCERIN, EXPELLER PRESSED CANOLA OIL, FLAX SEEDS, CHIA SEEDS, NATURAL PEANUT BUTTER FLAVOR , PEANUT EXTRACT, RICE SYRUP, OAT FLOUR, SALT, MOLASSES, COCOA BUTTER, NATURAL CARAMEL FLAVOR, ROSEMARY EXTRACT, VANILLA EXTRACT." Date available: 06/25/2017 Date last updated by company: 06/25/2017
