Source: USDA Branded Food Products Database Release December 2017 Software v.3.8.6.4 2017-10-02
Report Run at: December 18, 2017 05:24 EST
"Nutrient data for: 45057303, ORGANIC KETTLE CORN ORGANIC RICE CAKES, UPC: 073416000421"
Food Group:  Branded Food Products Database
Common Name:

Nutrient,Unit,Data points,Std. Error,"1 CAKE = 22.0g",1Value per 100 g,
Proximates
"Energy",kcal,--,--,80,364
"Protein",g,--,--,1.00,4.55
"Total lipid (fat)",g,--,--,0.50,2.27
"Carbohydrate, by difference",g,--,--,18.00,81.82
"Fiber, total dietary",g,--,--,1.0,4.5
"Sugars, total",g,--,--,3.00,13.64
Minerals
"Calcium, Ca",mg,--,--,0,0
"Iron, Fe",mg,--,--,0.82,3.72
"Sodium, Na",mg,--,--,70,318
Vitamins
"Vitamin C, total ascorbic acid",mg,--,--,0.0,0.0
"Vitamin A, IU",IU,--,--,0,0
Lipids
"Fatty acids, total saturated",g,--,--,0.000,0.000
"Fatty acids, total trans",g,--,--,0.000,0.000
"Cholesterol",mg,--,--,0,0
Amino Acids
Other
Ingredients
"ORGANIC WHOLE GRAIN BROWN RICE, ORGANIC EVAPORATED CANE SYRUP, ORGANIC POPCORN, SEA SALT, ORGANIC MOLASSES, ORGANIC RICE CONCENTRATE, ORGANIC BUTTER TYPE FLAVOR." Date available: 10/04/2017 Date last updated by company: 10/04/2017
