Source: USDA Branded Food Products Database Release December 2017 Software v.3.8.6.4 2017-10-02
Report Run at: December 18, 2017 05:53 EST
"Nutrient data for: 45219219, ORGANIC PASTA SAUCE, UPC: 075450127584"
Food Group:  Branded Food Products Database
Common Name:

Nutrient,Unit,Data points,Std. Error,"0.5 cup = 113.0g",1Value per 100 g,
Proximates
"Energy",kcal,--,--,70,62
"Protein",g,--,--,2.00,1.77
"Total lipid (fat)",g,--,--,2.99,2.65
"Carbohydrate, by difference",g,--,--,8.99,7.96
"Fiber, total dietary",g,--,--,2.0,1.8
"Sugars, total",g,--,--,4.99,4.42
Minerals
"Calcium, Ca",mg,--,--,40,35
"Iron, Fe",mg,--,--,0.76,0.67
"Sodium, Na",mg,--,--,350,310
Vitamins
"Vitamin C, total ascorbic acid",mg,--,--,19.0,16.8
"Vitamin A, IU",IU,--,--,792,701
Lipids
"Fatty acids, total saturated",g,--,--,0.994,0.880
"Fatty acids, total trans",g,--,--,0.000,0.000
"Cholesterol",mg,--,--,5,4
Amino Acids
Other
Ingredients
"ORGANIC TOMATOES, ORGANIC TOMATO PUREE, ORGANIC HEAVY CREAM, ORGANIC SWEET WHEY, ORGANIC ONIONS, ORGANIC GARLIC PUREE (ORGANIC GARLIC, WATER), ORGANIC SOYBEAN OIL, SALT, ORGANIC LEMON JUICE CONCENTRATE, ORGANIC BASIL, ORGANIC VODKA, ORGANIC OREGANO." Date available: 07/14/2017 Date last updated by company: 07/14/2017
