Source: USDA Branded Food Products Database Release December 2017 Software v.3.8.6.4 2017-10-02
Report Run at: December 18, 2017 03:59 EST
"Nutrient data for: 45176625, ORGANIC BROTH, UPC: 077890390771"
Food Group:  Branded Food Products Database
Common Name:

Nutrient,Unit,Data points,Std. Error,"24.0 | BOX ABOUT = 240.0g",1Value per 100 g,
Proximates
"Energy",kcal,--,--,19,8
"Protein",g,--,--,4.01,1.67
"Total lipid (fat)",g,--,--,0.00,0.00
"Carbohydrate, by difference",g,--,--,0.00,0.00
"Fiber, total dietary",g,--,--,0.0,0.0
"Sugars, total",g,--,--,0.00,0.00
Minerals
"Calcium, Ca",mg,--,--,0,0
"Iron, Fe",mg,--,--,0.00,0.00
"Potassium, K",mg,--,--,134,56
"Sodium, Na",mg,--,--,139,58
Vitamins
"Vitamin C, total ascorbic acid",mg,--,--,0.0,0.0
"Vitamin A, IU",IU,--,--,0,0
Lipids
"Fatty acids, total saturated",g,--,--,0.000,0.000
"Fatty acids, total trans",g,--,--,0.000,0.000
"Cholesterol",mg,--,--,0,0
Amino Acids
Other
Ingredients
"WATER, ORGANIC CHICKEN STOCK, ORGANIC CHICKEN FLAVOR, ORGANIC CARROT JUICE CONCENTRATE, SEA SALT, ORGANIC ONION JUICE CONCENTRATE, NATURAL FLAVORS, ORGANIC CELERY JUICE CONCENTRATE, YEAST EXTRACT, ORGANIC SPICES." Date available: 07/14/2017 Date last updated by company: 07/14/2017
