Source: USDA Branded Food Products Database Release December 2017 Software v.3.8.6.4 2017-10-02
Report Run at: December 18, 2017 04:25 EST
"Nutrient data for: 45147069, ORGANIC CRANBERRY - HARVEST MIX, UPC: 829364002532"
Food Group:  Branded Food Products Database
Common Name:

Nutrient,Unit,Data points,Std. Error,"0.25 cup = 40.0g",1Value per 100 g,
Proximates
"Energy",kcal,--,--,200,500
"Protein",g,--,--,6.00,15.00
"Total lipid (fat)",g,--,--,13.00,32.50
"Carbohydrate, by difference",g,--,--,17.00,42.50
"Sugars, total",g,--,--,12.00,30.00
Minerals
"Calcium, Ca",mg,--,--,20,50
"Iron, Fe",mg,--,--,1.35,3.38
"Sodium, Na",mg,--,--,0,0
Vitamins
"Vitamin C, total ascorbic acid",mg,--,--,0.0,0.0
"Vitamin A, IU",IU,--,--,0,0
Lipids
"Fatty acids, total saturated",g,--,--,4.000,10.000
"Fatty acids, total trans",g,--,--,0.000,0.000
"Cholesterol",mg,--,--,0,0
Amino Acids
Other
Ingredients
"ORGANIC CHOCOLATE CHIPS (ORGANIC DEHYDRATED CANE JUICE, ORGANIC UNSWEETENED CHOCOLATE, ORGANIC COCOA BUTTER, SOY LECITHIN, ORGANIC VANILLA), ORGANIC PEANUTS, ORGANIC ALMONDS, ORGANIC PUMPKIN SEEDS ORGANIC CRANBERRIES (ORGANIC CRANBERRIES, ORGANIC SUGAR, ORGANIC SUNFLOWER OIL OR ORGANIC CANOLA OIL), ORGANIC SUNFLOWER SEEDS, ORGANIC RAISINS, ORGANIC APPLES." Date available: 10/13/2017 Date last updated by company: 10/13/2017
