Source: USDA Branded Food Products Database Release December 2017 Software v.3.8.6.4 2017-10-02
Report Run at: December 18, 2017 06:22 EST
"Nutrient data for: 45080646, ORGANIC RICE PILAF, UPC: 099482453312"
Food Group:  Branded Food Products Database
Common Name:

Nutrient,Unit,Data points,Std. Error,"0.5 CUP PREPARED = 56.0g",1Value per 100 g,
Proximates
"Energy",kcal,--,--,190,339
"Protein",g,--,--,4.00,7.14
"Total lipid (fat)",g,--,--,0.00,0.00
"Carbohydrate, by difference",g,--,--,42.00,75.00
"Fiber, total dietary",g,--,--,1.0,1.8
"Sugars, total",g,--,--,0.00,0.00
Minerals
"Calcium, Ca",mg,--,--,0,0
"Iron, Fe",mg,--,--,0.29,0.52
"Sodium, Na",mg,--,--,710,1268
Vitamins
"Vitamin C, total ascorbic acid",mg,--,--,0.0,0.0
"Vitamin A, IU",IU,--,--,0,0
Lipids
"Fatty acids, total saturated",g,--,--,0.000,0.000
"Fatty acids, total monounsaturated",g,--,--,0.000,0.000
"Fatty acids, total polyunsaturated",g,--,--,0.000,0.000
"Fatty acids, total trans",g,--,--,0.000,0.000
"Cholesterol",mg,--,--,0,0
Amino Acids
Other
Ingredients
"INGREDIENTS: ORGANIC PARBOILED LONG GRAIN WHITE RICE, ORGANIC ORZO PASTA (ORGANIC DURUM WHEAT SEMOLINA), SALT, ORGANIC ROASTED GARLIC (ORGANIC DEHYDRATED GARLIC, ORGANIC EXPELLER PRESSED SUNFLOWER SEED OIL), ORGANIC DEHYDRATED GARLIC, YEAST EXTRACT (NATURAL FLAVORS), ORGANIC ONION POWDER, ORGANIC PARSLEY*, ORGANIC THYME*, DRIED" Date available: 06/25/2017 Date last updated by company: 06/25/2017
