Source: USDA Branded Food Products Database Release December 2017 Software v.3.8.6.4 2017-10-02
Report Run at: December 18, 2017 07:30 EST
"Nutrient data for: 45285859, ORGANIC WHOLE MILK YOGURT, UPC: 20052159703367"
Food Group:  Branded Food Products Database
Common Name:

Nutrient,Unit,Data points,Std. Error,"1 POUCH = 99.0g",1Value per 100 g,
Proximates
"Energy",kcal,--,--,110,111
"Protein",g,--,--,5.00,5.05
"Total lipid (fat)",g,--,--,3.00,3.03
"Carbohydrate, by difference",g,--,--,15.00,15.15
"Fiber, total dietary",g,--,--,0.0,0.0
"Sugars, total",g,--,--,12.00,12.12
Minerals
"Calcium, Ca",mg,--,--,150,152
"Iron, Fe",mg,--,--,0.00,0.00
"Potassium, K",mg,--,--,230,232
"Sodium, Na",mg,--,--,75,76
Vitamins
"Vitamin C, total ascorbic acid",mg,--,--,0.0,0.0
"Vitamin A, IU",IU,--,--,100,101
"Vitamin D",IU,--,--,40,40
Lipids
"Fatty acids, total saturated",g,--,--,2.000,2.020
"Fatty acids, total trans",g,--,--,0.000,0.000
"Cholesterol",mg,--,--,10,10
Amino Acids
Other
Ingredients
"CULTURED PASTEURIZED ORGANIC WHOLE MILK, ORGANIC CANE SUGAR, ORGANIC PEAR PUREE, ORGANIC SPINACH PUREE, ORGANIC MANGO PUREE, PECTIN, NATURAL FLAVOR, FISH OIL (ANCHOVY AND SARDINE OILS: NATURAL SOURCES OF DHA AND EPA, VITAMIN E: TO MAINTAIN FRESHNESS OF THE FISH OIL), VITAMIN D3." Date available: 07/14/2017 Date last updated by company: 07/14/2017
