Source: USDA Branded Food Products Database Release December 2017 Software v.3.8.6.4 2017-10-02
Report Run at: December 18, 2017 05:54 EST
"Nutrient data for: 45286052, ORGANIC PASTA SAUCE, UPC: 079893404752"
Food Group:  Branded Food Products Database
Common Name:

Nutrient,Unit,Data points,Std. Error,"0.5 cup = 120.0g",1Value per 100 g,
Proximates
"Energy",kcal,--,--,46,38
"Protein",g,--,--,2.00,1.67
"Total lipid (fat)",g,--,--,1.00,0.83
"Carbohydrate, by difference",g,--,--,7.00,5.83
"Fiber, total dietary",g,--,--,2.0,1.7
"Sugars, total",g,--,--,4.00,3.33
Minerals
"Calcium, Ca",mg,--,--,40,33
"Iron, Fe",mg,--,--,0.76,0.63
"Potassium, K",mg,--,--,0,0
"Sodium, Na",mg,--,--,500,417
Vitamins
"Vitamin C, total ascorbic acid",mg,--,--,9.5,7.9
"Vitamin A, IU",IU,--,--,0,0
Lipids
"Fatty acids, total saturated",g,--,--,0.504,0.420
"Fatty acids, total trans",g,--,--,0.000,0.000
"Cholesterol",mg,--,--,5,4
Amino Acids
Other
Ingredients
"ORGANIC DICED TOMATOES IN ORGANIC TOMATO JUICE, ORGANIC TOMATO PUREE (FILTERED WATER, ORGANIC TOMATO PASTE), SALT, ORGANIC ONIONS, ORGANIC ROMANO CHEESE (PASTEURIZED ORGANIC MILK, CHEESE CULTURES, SEA SALT, MICROBIAL ENZYMES), ORGANIC PARMESAN CHEESE (PASTEURIZED ORGANIC MILK, CHEESE CULTURES, SEA SALT, MICROBIAL ENZYMES), ORGANIC ASIAGO CHEESE (PASTEURIZED ORGANIC MILK, CHEESE CULTURES, SEA SALT, MICROBIAL ENZYMES), ORGANIC EXTRA VIRGIN OLIVE OIL, ORGANIC PROVOLONE CHEESE (PASTEURIZED ORGANIC MILK, CHEESE CULTURES, SEA SALT, MICROBIAL ENZYMES), ORGANIC DRIED BASIL, ORGANIC DRIED OREGANO." Date available: 07/14/2017 Date last updated by company: 07/14/2017
