Source: USDA Branded Food Products Database Release December 2017 Software v.3.8.6.4 2017-10-02
Report Run at: December 18, 2017 06:36 EST
"Nutrient data for: 45211398, ORGANIC SLICED PORTABELLA MUSHROOMS, UPC: 077890364796"
Food Group:  Branded Food Products Database
Common Name:

Nutrient,Unit,Data points,Std. Error,"3.0 ONZ = 85.0g",1Value per 100 g,
Proximates
"Energy",kcal,--,--,20,24
"Protein",g,--,--,3.00,3.53
"Total lipid (fat)",g,--,--,0.00,0.00
"Carbohydrate, by difference",g,--,--,3.00,3.53
"Fiber, total dietary",g,--,--,1.0,1.2
"Sugars, total",g,--,--,0.00,0.00
Minerals
"Iron, Fe",mg,--,--,0.36,0.42
"Potassium, K",mg,--,--,300,353
"Sodium, Na",mg,--,--,15,18
Vitamins
"Vitamin C, total ascorbic acid",mg,--,--,1.2,1.4
Lipids
Amino Acids
Other
Ingredients
"ORGANIC PORTABELLA MUSHROOMS." Date available: 07/14/2017 Date last updated by company: 07/14/2017
