Source: USDA Branded Food Products Database Release December 2017 Software v.3.8.6.4 2017-10-02
Report Run at: December 18, 2017 04:51 EST
"Nutrient data for: 45224047, ORGANIC FROZEN FRUIT SNACK, UPC: 897229002454"
Food Group:  Branded Food Products Database
Common Name:

Nutrient,Unit,Data points,Std. Error,"1 TUBE = 57.0g",1Value per 100 g,
Proximates
"Energy",kcal,--,--,35,61
"Protein",g,--,--,0.00,0.00
"Total lipid (fat)",g,--,--,0.00,0.00
"Carbohydrate, by difference",g,--,--,9.00,15.79
"Fiber, total dietary",g,--,--,1.0,1.8
"Sugars, total",g,--,--,7.00,12.28
Minerals
"Calcium, Ca",mg,--,--,0,0
"Iron, Fe",mg,--,--,0.00,0.00
"Potassium, K",mg,--,--,95,167
"Sodium, Na",mg,--,--,0,0
Vitamins
"Vitamin C, total ascorbic acid",mg,--,--,10.5,18.5
"Vitamin A, IU",IU,--,--,210,369
Lipids
"Fatty acids, total saturated",g,--,--,0.000,0.000
"Fatty acids, total trans",g,--,--,0.000,0.000
"Cholesterol",mg,--,--,0,0
Amino Acids
Other
Ingredients
"ORGANIC MANGOS, ORGANIC GRAPES, ORGANIC PINEAPPLES, ORGANIC BANANAS, LESS THAN 1% ORGANIC GUAR/ACACIA (A NATURAL SOURCE OF FIBER)." Date available: 07/14/2017 Date last updated by company: 07/14/2017
