Source: USDA Branded Food Products Database Release December 2017 Software v.3.8.6.4 2017-10-02
Report Run at: December 18, 2017 05:42 EST
"Nutrient data for: 45326267, ORGANIC MIXED BERRY BLEND, UPC: 853010006162"
Food Group:  Branded Food Products Database
Common Name:

Nutrient,Unit,Data points,Std. Error,"1 cup = 140.0g",1Value per 100 g,
Proximates
"Energy",kcal,--,--,80,57
"Protein",g,--,--,0.99,0.71
"Total lipid (fat)",g,--,--,0.50,0.36
"Carbohydrate, by difference",g,--,--,17.00,12.14
"Fiber, total dietary",g,--,--,5.0,3.6
"Sugars, total",g,--,--,10.00,7.14
Minerals
"Calcium, Ca",mg,--,--,20,14
"Iron, Fe",mg,--,--,0.71,0.51
"Sodium, Na",mg,--,--,0,0
Vitamins
"Vitamin C, total ascorbic acid",mg,--,--,30.0,21.4
"Vitamin A, IU",IU,--,--,0,0
Lipids
"Fatty acids, total saturated",g,--,--,0.000,0.000
"Fatty acids, total trans",g,--,--,0.000,0.000
"Cholesterol",mg,--,--,0,0
Amino Acids
Other
Ingredients
"STRAWBERRIES, BLUEBERRIES, RASPBERRIES, BLACKBERRIES" Date available: 08/11/2017 Date last updated by company: 08/11/2017
