Source: USDA Branded Food Products Database Release December 2017 Software v.3.8.6.4 2017-10-02
Report Run at: December 18, 2017 05:40 EST
"Nutrient data for: 45256615, ORGANIC 2% MILK FAT CREAM TOP BLENDED YOGURT, UPC: 011150502771"
Food Group:  Branded Food Products Database
Common Name:

Nutrient,Unit,Data points,Std. Error,"6.0 ONZ = 170.0g",1Value per 100 g,
Proximates
"Energy",kcal,--,--,121,71
"Protein",g,--,--,6.00,3.53
"Total lipid (fat)",g,--,--,3.50,2.06
"Carbohydrate, by difference",g,--,--,10.00,5.88
"Fiber, total dietary",g,--,--,0.0,0.0
"Sugars, total",g,--,--,6.00,3.53
Minerals
"Calcium, Ca",mg,--,--,201,118
"Iron, Fe",mg,--,--,0.36,0.21
"Potassium, K",mg,--,--,260,153
"Sodium, Na",mg,--,--,80,47
Vitamins
"Vitamin C, total ascorbic acid",mg,--,--,1.2,0.7
"Vitamin A, IU",IU,--,--,201,118
Lipids
"Fatty acids, total saturated",g,--,--,1.496,0.880
"Fatty acids, total trans",g,--,--,0.000,0.000
"Cholesterol",mg,--,--,15,9
Amino Acids
Other
Ingredients
"ORGANIC CULTURED GRADE A MILK, RASPBERRY PUREE (ORGANIC CANE SUGAR, ORGANIC RASPBERRIES, WATER, ORGANIC RASPBERRY FLAVOR, PECTIN, LACTIC ACID), LACX CARROT (FOR COLOR), ORGANIC NONFAT MILK, ORGANIC CREAM." Date available: 07/14/2017 Date last updated by company: 07/14/2017
