Source: USDA Branded Food Products Database Release December 2017 Software v.3.8.6.4 2017-10-02
Report Run at: December 18, 2017 06:24 EST
"Nutrient data for: 45286978, ORGANIC ROASTED UNSALTED ALMONDS, UPC: 079893294612"
Food Group:  Branded Food Products Database
Common Name:

Nutrient,Unit,Data points,Std. Error,"0.25 CUP) | (ABOUT = 28.0g",1Value per 100 g,
Proximates
"Energy",kcal,--,--,170,607
"Protein",g,--,--,6.00,21.43
"Total lipid (fat)",g,--,--,15.00,53.57
"Carbohydrate, by difference",g,--,--,6.00,21.43
"Fiber, total dietary",g,--,--,3.0,10.7
"Sugars, total",g,--,--,1.00,3.57
Minerals
"Calcium, Ca",mg,--,--,70,250
"Iron, Fe",mg,--,--,1.00,3.57
"Potassium, K",mg,--,--,190,679
"Sodium, Na",mg,--,--,0,0
Vitamins
"Vitamin D",IU,--,--,0,0
Lipids
"Fatty acids, total saturated",g,--,--,1.000,3.570
"Fatty acids, total monounsaturated",g,--,--,9.999,35.710
"Fatty acids, total polyunsaturated",g,--,--,3.500,12.500
"Fatty acids, total trans",g,--,--,0.000,0.000
"Cholesterol",mg,--,--,0,0
Amino Acids
Other
Ingredients
"ORGANIC ALMONDS, ORGANIC SUNFLOWER OIL." Date available: 09/25/2017 Date last updated by company: 09/25/2017
