Source: USDA Branded Food Products Database Release December 2017 Software v.3.8.6.4 2017-10-02
Report Run at: December 18, 2017 05:45 EST
"Nutrient data for: 45288376, ORGANIC MUESLI, UPC: 853305003272"
Food Group:  Branded Food Products Database
Common Name:

Nutrient,Unit,Data points,Std. Error,"1 PACKET = 40.0g",1Value per 100 g,
Proximates
"Energy",kcal,--,--,160,400
"Protein",g,--,--,6.00,15.00
"Total lipid (fat)",g,--,--,5.00,12.50
"Carbohydrate, by difference",g,--,--,25.00,62.50
"Fiber, total dietary",g,--,--,4.0,10.0
"Sugars, total",g,--,--,4.00,10.00
Minerals
"Iron, Fe",mg,--,--,3.38,8.44
"Sodium, Na",mg,--,--,0,0
Vitamins
"Vitamin A, IU",IU,--,--,625,1562
Lipids
"Fatty acids, total saturated",g,--,--,0.500,1.250
"Fatty acids, total trans",g,--,--,0.000,0.000
"Cholesterol",mg,--,--,0,0
Amino Acids
Other
Ingredients
"GLUTEN FREE OATS*, CRANBERRIES* (CRANBERRIES*, EVAPORATED CANE JUICE*, SUNFLOWER OIL*), HAZELNUTS*, CHERRIES*, COCONUT OIL*, DARK CHOCOLATE* (EVAPORATED CANE JUICE*, CHOCOLATE LIQUOR*, COCOA BUTTER*, SOY LECITHIN*, VANILLA*), RAISIN PUREE*, CHIA SEEDS*, CACAO NIBS*" Date available: 09/22/2017 Date last updated by company: 09/22/2017
