Source: USDA Branded Food Products Database Release December 2017 Software v.3.8.6.4 2017-10-02
Report Run at: December 18, 2017 05:53 EST
"Nutrient data for: 45196110, ORGANIC PASTA SAUCE, UPC: 046567030111"
Food Group:  Branded Food Products Database
Common Name:

Nutrient,Unit,Data points,Std. Error,"0.5 cup = 125.0g",1Value per 100 g,
Proximates
"Energy",kcal,--,--,100,80
"Protein",g,--,--,2.00,1.60
"Total lipid (fat)",g,--,--,6.00,4.80
"Carbohydrate, by difference",g,--,--,10.00,8.00
"Fiber, total dietary",g,--,--,2.0,1.6
"Sugars, total",g,--,--,6.00,4.80
Minerals
"Calcium, Ca",mg,--,--,100,80
"Iron, Fe",mg,--,--,0.38,0.30
"Sodium, Na",mg,--,--,360,288
Vitamins
"Vitamin C, total ascorbic acid",mg,--,--,22.2,17.8
"Vitamin A, IU",IU,--,--,1056,845
Lipids
"Fatty acids, total saturated",g,--,--,1.000,0.800
"Fatty acids, total trans",g,--,--,0.000,0.000
"Cholesterol",mg,--,--,0,0
Amino Acids
Other
Ingredients
"ITALIAN VINE RIPENED ORGANIC TOMATOES (ORGANIC DICED, ORGANIC JUICE), ITALIAN ORGANIC WHOLE CHERRY TOMATOES, ORGANIC TOMATO PASTE, ORGANIC EXTRA VIRGIN OLIVE OIL, ORGANIC ROASTED GARLIC, ORGANIC PARSLEY, CITRIC ACID, ORGANIC GARLIC POWDER, ORGANIC GROUND BLACK PEPPER." Date available: 07/14/2017 Date last updated by company: 07/14/2017
