Source: USDA Branded Food Products Database Release December 2017 Software v.3.8.6.4 2017-10-02
Report Run at: December 18, 2017 04:05 EST
"Nutrient data for: 45268198, ORGANIC CARAMEL ICE CREAM, UPC: 718122065776"
Food Group:  Branded Food Products Database
Common Name:

Nutrient,Unit,Data points,Std. Error,"0.5 cup = 85.0g",1Value per 100 g,
Proximates
"Energy",kcal,--,--,200,235
"Protein",g,--,--,3.00,3.53
"Total lipid (fat)",g,--,--,12.00,14.12
"Carbohydrate, by difference",g,--,--,24.00,28.24
"Fiber, total dietary",g,--,--,0.0,0.0
"Sugars, total",g,--,--,17.00,20.00
Minerals
"Calcium, Ca",mg,--,--,80,94
"Iron, Fe",mg,--,--,0.36,0.42
"Sodium, Na",mg,--,--,40,47
Vitamins
"Vitamin C, total ascorbic acid",mg,--,--,1.2,1.4
"Vitamin A, IU",IU,--,--,422,497
Lipids
"Fatty acids, total saturated",g,--,--,7.998,9.410
"Cholesterol",mg,--,--,60000,70588
Amino Acids
Other
Ingredients
"ORGANIC MILK, ORGANIC CREAM, ORGANIC EVAPORATED CANE JUICE, CARAMEL (ORGANIC SUGAR, ORGANIC CREAM, ORGANIC NON FAT MILK, ORGANIC TAPIOCA SYRUP, ORGANIC CARAMELIZED SUGAR, SEA SALT), ORGANIC EGG YOLKS, ORGANIC NON FAT MILK, ORGANIC VANILLA EXTRACT." Date available: 10/13/2017 Date last updated by company: 10/13/2017
