Source: USDA Branded Food Products Database Release December 2017 Software v.3.8.6.4 2017-10-02
Report Run at: December 18, 2017 06:27 EST
"Nutrient data for: 45041995, ORGANIC SALSA, UPC: 719283594051"
Food Group:  Branded Food Products Database
Common Name:

Nutrient,Unit,Data points,Std. Error,"2.0 Tbsp = 30.0g",1Value per 100 g,
Proximates
"Energy",kcal,--,--,10,33
"Protein",g,--,--,0.00,0.00
"Total lipid (fat)",g,--,--,0.00,0.00
"Carbohydrate, by difference",g,--,--,3.00,10.00
"Fiber, total dietary",g,--,--,1.0,3.3
"Sugars, total",g,--,--,2.00,6.67
Minerals
"Calcium, Ca",mg,--,--,20,67
"Sodium, Na",mg,--,--,140,467
Vitamins
"Vitamin C, total ascorbic acid",mg,--,--,6.1,20.3
Lipids
"Fatty acids, total saturated",g,--,--,0.000,0.000
"Fatty acids, total trans",g,--,--,0.000,0.000
Amino Acids
Other
Ingredients
"ORGANIC TOMATOES, ORGANIC TOMATO PUREE, ORGANIC ONIONS, ORGANIC GREEN BELL PEPPERS, ORGANIC SUGAR, SALT, ORGANIC JALAPENO PEPPERS, ORGANIC GARLIC PUREE (ORGANIC GARLIC, WATER), ORGANIC WHITE VINEGAR, ORGANIC CILANTRO, ORGANIC CUMIN, ORGANIC BLACK PEPPER, ORGANIC CHIPOTLE PEPPER POWDER." Date available: 10/17/2017 Date last updated by company: 10/17/2017
