Source: USDA Branded Food Products Database Release December 2017 Software v.3.8.6.4 2017-10-02
Report Run at: December 18, 2017 05:18 EST
"Nutrient data for: 45179816, ORGANIC INDIA, ORGANIC GHEE, UPC: 801541508617"
Food Group:  Branded Food Products Database
Common Name:

Nutrient,Unit,Data points,Std. Error,"1 Tbsp = 15.0g",1Value per 100 g,
Proximates
"Energy",kcal,--,--,130,867
"Protein",g,--,--,0.00,0.00
"Total lipid (fat)",g,--,--,15.00,100.00
"Carbohydrate, by difference",g,--,--,0.00,0.00
"Fiber, total dietary",g,--,--,0.0,0.0
"Sugars, total",g,--,--,0.00,0.00
Minerals
"Sodium, Na",mg,--,--,0,0
Vitamins
"Vitamin A, IU",IU,--,--,1014,6763
Lipids
"Fatty acids, total saturated",g,--,--,9.000,60.000
"Fatty acids, total trans",g,--,--,0.500,3.330
"Cholesterol",mg,--,--,40,267
Amino Acids
Other
Ingredients
"100% CERTIFIED ORGANIC BUTTER (MILK)." Date available: 07/14/2017 Date last updated by company: 07/14/2017
