Source: USDA Branded Food Products Database Release December 2017 Software v.3.8.6.4 2017-10-02
Report Run at: December 18, 2017 04:38 EST
"Nutrient data for: 45331324, ORGANIC DIPPED RICE CAKES, UPC: 857360004281"
Food Group:  Branded Food Products Database
Common Name:

Nutrient,Unit,Data points,Std. Error,"1 CAKE = 17.0g",1Value per 100 g,
Proximates
"Energy",kcal,--,--,80,471
"Protein",g,--,--,1.00,5.88
"Total lipid (fat)",g,--,--,4.00,23.53
"Carbohydrate, by difference",g,--,--,10.00,58.82
"Fiber, total dietary",g,--,--,1.0,5.9
"Sugars, total",g,--,--,5.00,29.41
Minerals
"Calcium, Ca",mg,--,--,0,0
"Iron, Fe",mg,--,--,0.70,4.12
"Potassium, K",mg,--,--,40,235
"Sodium, Na",mg,--,--,0,0
Vitamins
"Vitamin D",IU,--,--,0,0
Lipids
"Fatty acids, total saturated",g,--,--,2.501,14.710
"Fatty acids, total trans",g,--,--,0.000,0.000
"Cholesterol",mg,--,--,0,0
Amino Acids
Other
Ingredients
"ORGANIC DARK CHOCOLATE (ORGANIC SUGAR, ORGANIC COCOA MASS, ORGANIC COCOA BUTTER, SOY LECITHIN, NATURAL VANILLA FLAVOR), ORGANIC RICE." Date available: 10/13/2017 Date last updated by company: 10/13/2017
