Source: USDA Branded Food Products Database Release December 2017 Software v.3.8.6.4 2017-10-02
Report Run at: December 18, 2017 06:19 EST
"Nutrient data for: 45214637, ORGANIC RED RASPBERRY PRESERVES, UPC: 070572105021"
Food Group:  Branded Food Products Database
Common Name:

Nutrient,Unit,Data points,Std. Error,"1 Tbsp = 20.0g",1Value per 100 g,
Proximates
"Energy",kcal,--,--,60,300
"Protein",g,--,--,0.00,0.00
"Total lipid (fat)",g,--,--,0.00,0.00
"Carbohydrate, by difference",g,--,--,14.00,70.00
"Sugars, total",g,--,--,10.00,50.00
Minerals
"Sodium, Na",mg,--,--,10,50
Vitamins
Lipids
Amino Acids
Other
Ingredients
"ORGANIC RED RASPBERRIES, ORGANIC CRYSTALLIZED CANE JUICE, FRUIT PECTIN AND CITRIC ACID." Date available: 07/14/2017 Date last updated by company: 07/14/2017
