Source: USDA Branded Food Products Database Release December 2017 Software v.3.8.6.4 2017-10-02
Report Run at: December 18, 2017 05:40 EST
"Nutrient data for: 45332905, ORGANIC MILK, UPC: 00052603930192"
Food Group:  Branded Food Products Database
Common Name:

Nutrient,Unit,Data points,Std. Error,"240.0 ML = 8.0g",1Value per 100 g,
Proximates
"Energy",kcal,--,--,5,67
"Protein",g,--,--,0.27,3.33
"Total lipid (fat)",g,--,--,0.17,2.08
"Carbohydrate, by difference",g,--,--,0.70,8.75
"Fiber, total dietary",g,--,--,0.0,0.4
"Sugars, total",g,--,--,0.67,8.33
Minerals
"Calcium, Ca",mg,--,--,10,125
"Iron, Fe",mg,--,--,0.02,0.30
"Sodium, Na",mg,--,--,4,56
Vitamins
"Vitamin C, total ascorbic acid",mg,--,--,0.0,0.0
"Vitamin A, IU",IU,--,--,17,211
"Vitamin D",IU,--,--,3,42
Lipids
"Fatty acids, total saturated",g,--,--,0.100,1.250
"Fatty acids, total trans",g,--,--,0.000,0.000
"Cholesterol",mg,--,--,1,8
Amino Acids
Other
Ingredients
"REDUCED FAT MILK*, CANE SUGAR*, COCOA POWDER*, VANILLA FLAVOR WITH OTHER NATURAL FLAVORS*, CARRAGEENAN, SEA SALT, VITAMIN A PALMITATE, VITAMIN D3." Date available: 10/13/2017 Date last updated by company: 10/13/2017
