Source: USDA Branded Food Products Database Release December 2017 Software v.3.8.6.4 2017-10-02
Report Run at: December 18, 2017 04:18 EST
"Nutrient data for: 45329953, ORGANIC COCONUT CHARCOAL LEMONADE, UPC: 095474099315"
Food Group:  Branded Food Products Database
Common Name:

Nutrient,Unit,Data points,Std. Error,"8.0 OZA = 237.0g",1Value per 100 g,
Proximates
"Energy",kcal,--,--,19,8
"Protein",g,--,--,1.00,0.42
"Total lipid (fat)",g,--,--,0.00,0.00
"Carbohydrate, by difference",g,--,--,4.50,1.90
"Fiber, total dietary",g,--,--,0.9,0.4
"Sugars, total",g,--,--,4.01,1.69
Minerals
"Calcium, Ca",mg,--,--,0,0
"Iron, Fe",mg,--,--,35.55,15.00
"Sodium, Na",mg,--,--,9,4
"Zinc, Zn",mg,--,--,1.49,0.63
Vitamins
"Vitamin C, total ascorbic acid",mg,--,--,9.0,3.8
"Vitamin B-6",mg,--,--,1.012,0.427
"Vitamin A, IU",IU,--,--,0,0
Lipids
"Fatty acids, total saturated",g,--,--,0.000,0.000
"Fatty acids, total trans",g,--,--,0.000,0.000
"Cholesterol",mg,--,--,0,0
Amino Acids
Other
Ingredients
"REVERSE OSMOSIS WATER (CHLORINE & FLUORIDE FREE), ACTIVATED COCONUT CHARCOAL, JUICE FROM: ORGANIC LEMON; ORGANIC MAPLE SYRUP" Date available: 10/13/2017 Date last updated by company: 10/13/2017
