Source: USDA Branded Food Products Database Release December 2017 Software v.3.8.6.4 2017-10-02
Report Run at: December 18, 2017 06:49 EST
"Nutrient data for: 45197367, ORGANICS TOMATO PUREE, UPC: 07203671880"
Food Group:  Branded Food Products Database
Common Name:

Nutrient,Unit,Data points,Std. Error,"0.25 cup = 63.0g",1Value per 100 g,
Proximates
"Energy",kcal,--,--,20,32
"Protein",g,--,--,1.00,1.59
"Total lipid (fat)",g,--,--,0.00,0.00
"Carbohydrate, by difference",g,--,--,5.00,7.94
"Fiber, total dietary",g,--,--,1.0,1.6
"Sugars, total",g,--,--,3.00,4.76
Minerals
"Calcium, Ca",mg,--,--,20,32
"Iron, Fe",mg,--,--,0.69,1.09
"Potassium, K",mg,--,--,250,397
"Sodium, Na",mg,--,--,30,48
Vitamins
"Vitamin C, total ascorbic acid",mg,--,--,2.3,3.6
"Vitamin A, IU",IU,--,--,714,1134
Lipids
"Fatty acids, total saturated",g,--,--,0.000,0.000
"Fatty acids, total trans",g,--,--,0.000,0.000
"Cholesterol",mg,--,--,0,0
Amino Acids
Other
Ingredients
"ORGANIC TOMATO PUREE, CITRIC ACID." Date available: 07/14/2017 Date last updated by company: 07/14/2017
