Source: USDA Branded Food Products Database Release December 2017 Software v.3.8.6.4 2017-10-02
Report Run at: December 18, 2017 03:51 EST
"Nutrient data for: 45188951, ORGANIC 4 BERRY MIX, UPC: 873668001227"
Food Group:  Branded Food Products Database
Common Name:

Nutrient,Unit,Data points,Std. Error,"1 cup = 140.0g",1Value per 100 g,
Proximates
"Energy",kcal,--,--,70,50
"Protein",g,--,--,0.99,0.71
"Total lipid (fat)",g,--,--,0.50,0.36
"Carbohydrate, by difference",g,--,--,14.99,10.71
"Fiber, total dietary",g,--,--,6.0,4.3
"Sugars, total",g,--,--,7.99,5.71
Minerals
"Calcium, Ca",mg,--,--,20,14
"Iron, Fe",mg,--,--,0.71,0.51
"Sodium, Na",mg,--,--,0,0
Vitamins
"Vitamin C, total ascorbic acid",mg,--,--,42.0,30.0
"Vitamin A, IU",IU,--,--,99,71
Lipids
"Fatty acids, total saturated",g,--,--,0.000,0.000
"Fatty acids, total trans",g,--,--,0.000,0.000
"Cholesterol",mg,--,--,0,0
Amino Acids
Other
Ingredients
"ORGANIC (RASPBERRIES, BLUEBERRIES, STRAWBERRIES, BLACKBERRIES)." Date available: 07/14/2017 Date last updated by company: 07/14/2017
