Source: USDA Branded Food Products Database Release December 2017 Software v.3.8.6.4 2017-10-02
Report Run at: December 18, 2017 03:59 EST
"Nutrient data for: 45273995, ORGANIC BROWN FLAX, UPC: 019061192739"
Food Group:  Branded Food Products Database
Common Name:

Nutrient,Unit,Data points,Std. Error,"1 ONZ = 28.0g",1Value per 100 g,
Proximates
"Energy",kcal,--,--,150,536
"Protein",g,--,--,5.00,17.86
"Total lipid (fat)",g,--,--,8.00,28.57
"Carbohydrate, by difference",g,--,--,8.00,28.57
"Fiber, total dietary",g,--,--,8.0,28.6
"Sugars, total",g,--,--,1.00,3.57
Minerals
"Calcium, Ca",mg,--,--,60,214
"Iron, Fe",mg,--,--,2.60,9.30
"Sodium, Na",mg,--,--,9,32
Vitamins
"Vitamin C, total ascorbic acid",mg,--,--,0.0,0.0
"Vitamin A, IU",IU,--,--,0,0
Lipids
"Fatty acids, total saturated",g,--,--,1.000,3.570
"Fatty acids, total trans",g,--,--,0.000,0.000
"Cholesterol",mg,--,--,0,0
Amino Acids
Other
Ingredients
"ORGANIC BROWN FLAX." Date available: 07/14/2017 Date last updated by company: 07/14/2017
