Source: USDA Branded Food Products Database Release December 2017 Software v.3.8.6.4 2017-10-02
Report Run at: December 18, 2017 04:38 EST
"Nutrient data for: 45219158, ORGANIC DRESSING, UPC: 075450127591"
Food Group:  Branded Food Products Database
Common Name:

Nutrient,Unit,Data points,Std. Error,"2.0 Tbsp = 30.0g",1Value per 100 g,
Proximates
"Energy",kcal,--,--,100,333
"Protein",g,--,--,0.00,0.00
"Total lipid (fat)",g,--,--,10.00,33.33
"Carbohydrate, by difference",g,--,--,2.00,6.67
"Fiber, total dietary",g,--,--,0.0,0.0
"Sugars, total",g,--,--,1.00,3.33
Minerals
"Calcium, Ca",mg,--,--,0,0
"Iron, Fe",mg,--,--,0.00,0.00
"Sodium, Na",mg,--,--,130,433
Vitamins
"Vitamin C, total ascorbic acid",mg,--,--,0.0,0.0
"Vitamin A, IU",IU,--,--,0,0
Lipids
"Fatty acids, total saturated",g,--,--,2.001,6.670
"Fatty acids, total trans",g,--,--,0.000,0.000
"Cholesterol",mg,--,--,5,17
Amino Acids
Other
Ingredients
"FILTERED WATER, ORGANIC SOYBEAN OIL, ORGANIC SOUR CREAM (ORGANIC CULTURED PASTEURIZED NON FAT MILK, ORGANIC PASTEURIZED CREAM, ACIDOPHILUS AND BIFIDUS CULTURES, MICROBIAL ENZYMES), ORGANIC WHITE VINEGAR, ORGANIC EGG YOLKS, ORGANIC BUTTERMILK POWDER (ORGANIC BUTTERMILK, ORGANIC SKIM MILK), ORGANIC SUGAR, SALT, ORGANIC MALTODEXTRIN, ORGANIC LEMON JUICE CONCENTRATE, ORGANIC ONION POWDER, ORGANIC GARLIC POWDER, ORGANIC GROUND MUSTARD SEED, ORGANIC PARSLEY, ORGANIC BLACK PEPPER, XANTHAN GUM (A NATURAL THICKENER)." Date available: 07/14/2017 Date last updated by company: 07/14/2017
