Source: USDA Branded Food Products Database Release December 2017 Software v.3.8.6.4 2017-10-02
Report Run at: December 18, 2017 06:38 EST
"Nutrient data for: 45289137, ORGANICS MULTI-SEED, INDEED MULTI-SEED BREAD, UPC: 073711840340"
Food Group:  Branded Food Products Database
Common Name:

Nutrient,Unit,Data points,Std. Error,"1 SLICE = 43.0g",1Value per 100 g,
Proximates
"Energy",kcal,--,--,120,279
"Protein",g,--,--,5.00,11.63
"Total lipid (fat)",g,--,--,3.00,6.98
"Carbohydrate, by difference",g,--,--,19.00,44.19
"Fiber, total dietary",g,--,--,3.0,7.0
"Sugars, total",g,--,--,3.00,6.98
Minerals
"Calcium, Ca",mg,--,--,40,93
"Iron, Fe",mg,--,--,1.26,2.92
"Sodium, Na",mg,--,--,160,372
Vitamins
"Vitamin C, total ascorbic acid",mg,--,--,0.0,0.0
"Vitamin A, IU",IU,--,--,0,0
Lipids
"Fatty acids, total saturated",g,--,--,0.000,0.000
"Fatty acids, total trans",g,--,--,0.000,0.000
"Cholesterol",mg,--,--,0,0
Amino Acids
Other
Ingredients
"WATER, ORGANIC WHEAT FLOUR, ORGANIC WHOLE WHEAT FLOUR, ORGANIC WHITE WHOLE WHEAT, ORGANIC ROLLED OATS,ORGANIC DRIED CANE SYRUP, YEAST, ORGANIC WHEAT GLUTEN, ORGANIC SUNFLOWER SEEDS, CONTAINS 2% OR LESS OF THE FOLLOWING: ORGANIC BROWN FLAX SEED, ORGANIC BLACK SESAME SEED, ORGANIC AMARANTH, ORGANIC POPPY SEED, ORGANIC SESAME SEEDS, ORGANIC VINEGAR, ORGANIC PUMPKIN SEEDS, SEA SALT, ORGANIC SOYBEAN OIL, CULTURED ORGANIC UNBLEACHED WHEAT FLOUR, ORGANIC SOY LECITHIN, CALCIUM SULFATE, ASCORBIC ACID, ENZYMES." Date available: 07/14/2017 Date last updated by company: 07/14/2017
