Source: USDA Branded Food Products Database Release December 2017 Software v.3.8.6.4 2017-10-02
Report Run at: December 18, 2017 06:00 EST
"Nutrient data for: 45178392, ORGANIC PIZZA DOUGH, UPC: 748252621719"
Food Group:  Branded Food Products Database
Common Name:

Nutrient,Unit,Data points,Std. Error,"2.0 ONZ = 57.0g",1Value per 100 g,
Proximates
"Energy",kcal,--,--,163,286
"Protein",g,--,--,5.00,8.77
"Total lipid (fat)",g,--,--,0.00,0.00
"Carbohydrate, by difference",g,--,--,35.00,61.40
"Fiber, total dietary",g,--,--,2.0,3.5
"Sugars, total",g,--,--,1.00,1.75
Minerals
"Calcium, Ca",mg,--,--,10,18
"Iron, Fe",mg,--,--,0.79,1.39
"Sodium, Na",mg,--,--,334,586
Vitamins
"Vitamin C, total ascorbic acid",mg,--,--,0.0,0.0
"Vitamin A, IU",IU,--,--,0,0
Lipids
"Fatty acids, total saturated",g,--,--,0.000,0.000
"Fatty acids, total trans",g,--,--,0.000,0.000
"Cholesterol",mg,--,--,0,0
Amino Acids
Other
Ingredients
"WATER, ORGANIC UNBLEACHED WHEAT FLOUR (WITH GERM AND BRAN), ORGANIC UNBLEACHED MALTED FLOUR, SEA SALT, YEAST, ORGANIC WHOLE WHEAT FLOUR, ORGANIC MALT EXTRACT." Date available: 07/14/2017 Date last updated by company: 07/14/2017
