Source: USDA Branded Food Products Database Release December 2017 Software v.3.8.6.4 2017-10-02
Report Run at: December 18, 2017 05:40 EST
"Nutrient data for: 45291989, ORGANIC MILK COFFEE, UPC: 853471004875"
Food Group:  Branded Food Products Database
Common Name:

Nutrient,Unit,Data points,Std. Error,"1 BOTTLE = 60.0g",1Value per 100 g,
Proximates
"Energy",kcal,--,--,35,58
"Protein",g,--,--,1.00,1.67
"Total lipid (fat)",g,--,--,1.00,1.67
"Carbohydrate, by difference",g,--,--,7.00,11.67
"Fiber, total dietary",g,--,--,0.0,0.0
"Sugars, total",g,--,--,7.00,11.67
Minerals
"Calcium, Ca",mg,--,--,40,67
"Iron, Fe",mg,--,--,0.00,0.00
"Sodium, Na",mg,--,--,10,17
Vitamins
"Vitamin D",IU,--,--,96,160
Lipids
"Fatty acids, total saturated",g,--,--,0.498,0.830
"Fatty acids, total trans",g,--,--,0.000,0.000
"Cholesterol",mg,--,--,3,5
Amino Acids
Other
Ingredients
"ORGANIC COLD-BREW FORTO COFFEE (WATER, FAIR-TRADE & ORGANIC COFFEE EXTRACT), ORGANIC WHOLE MILK, ORGANIC CANE SUGAR, NATURAL FLAVOR, ORGANIC CAFFEINE FROM COFFEE, BAKING SODA" Date available: 07/14/2017 Date last updated by company: 07/14/2017
