Source: USDA Branded Food Products Database Release December 2017 Software v.3.8.6.4 2017-10-02
Report Run at: December 18, 2017 03:51 EST
"Nutrient data for: 45219166, ORGANIC BLACK BEAN & CORN SALSA, UPC: 075450127614"
Food Group:  Branded Food Products Database
Common Name:

Nutrient,Unit,Data points,Std. Error,"2.0 Tbsp = 30.0g",1Value per 100 g,
Proximates
"Energy",kcal,--,--,15,50
"Protein",g,--,--,1.00,3.33
"Total lipid (fat)",g,--,--,0.00,0.00
"Carbohydrate, by difference",g,--,--,3.00,10.00
"Fiber, total dietary",g,--,--,1.0,3.3
"Sugars, total",g,--,--,1.00,3.33
Minerals
"Calcium, Ca",mg,--,--,0,0
"Iron, Fe",mg,--,--,0.00,0.00
"Sodium, Na",mg,--,--,120,400
Vitamins
"Vitamin C, total ascorbic acid",mg,--,--,6.0,20.0
"Vitamin A, IU",IU,--,--,334,1112
Lipids
"Fatty acids, total saturated",g,--,--,0.000,0.000
"Fatty acids, total trans",g,--,--,0.000,0.000
"Cholesterol",mg,--,--,0,0
Amino Acids
Other
Ingredients
"ORGANIC TOMATO PUREE, ORGANIC FIRE-ROASTED TOMATOES, ORGANIC ROASTED CORN, ORGANIC ONIONS, ORGANIC BLACK BEANS, ORGANIC ROASTED ONIONS, ORGANIC TOMATOES, ORGANIC WHITE VINEGAR, ORGANIC JALAPENO PEPPERS, ORGANIC GARLIC, SALT, ORGANIC CHILI POWDER, ORGANIC CILANTRO, ORGANIC MARJORAM, ORGANIC THYME." Date available: 07/14/2017 Date last updated by company: 07/14/2017
