Source: USDA Branded Food Products Database Release December 2017 Software v.3.8.6.4 2017-10-02
Report Run at: December 18, 2017 07:16 EST
"Nutrient data for: 45222558, ORGANIC VEGETABLE BROTH, UPC: 085239188477"
Food Group:  Branded Food Products Database
Common Name:

Nutrient,Unit,Data points,Std. Error,"1 cup = 240.0g",1Value per 100 g,
Proximates
"Energy",kcal,--,--,14,6
"Protein",g,--,--,0.00,0.00
"Total lipid (fat)",g,--,--,0.00,0.00
"Carbohydrate, by difference",g,--,--,3.00,1.25
"Fiber, total dietary",g,--,--,0.0,0.0
"Sugars, total",g,--,--,1.01,0.42
Minerals
"Calcium, Ca",mg,--,--,0,0
"Iron, Fe",mg,--,--,0.00,0.00
"Sodium, Na",mg,--,--,571,238
Vitamins
"Vitamin C, total ascorbic acid",mg,--,--,0.0,0.0
"Vitamin A, IU",IU,--,--,0,0
Lipids
"Fatty acids, total saturated",g,--,--,0.000,0.000
"Fatty acids, total trans",g,--,--,0.000,0.000
"Cholesterol",mg,--,--,0,0
Amino Acids
Other
Ingredients
"VEGETABLE STOCK* (WATER, VEGETABLE STOCK FLAVOR* [CARROT*, ONION*, CELERY*, SEA SALT]), CONTAINS LESS THAN 2% OF: SALT, PEAR JUICE CONCENTRATE*, CANE SUGAR*, CARROT JUICE CONCENTRATE*, NATURAL FLAVOR, ORGANIC SUNFLOWER OIL**, ONION POWDER*, MUSHROOM POWDER*." Date available: 07/14/2017 Date last updated by company: 07/14/2017
