Source: USDA Branded Food Products Database Release December 2017 Software v.3.8.6.4 2017-10-02
Report Run at: December 18, 2017 06:00 EST
"Nutrient data for: 45079139, ORGANIC PIQUILLO PEPPERS, UPC: 832924005508"
Food Group:  Branded Food Products Database
Common Name:

Nutrient,Unit,Data points,Std. Error,"2.0 PIECES = 50.0g",1Value per 100 g,
Proximates
"Energy",kcal,--,--,20,40
"Protein",g,--,--,1.00,2.00
"Total lipid (fat)",g,--,--,0.00,0.00
"Carbohydrate, by difference",g,--,--,4.00,8.00
"Fiber, total dietary",g,--,--,1.0,2.0
"Sugars, total",g,--,--,3.00,6.00
Minerals
"Calcium, Ca",mg,--,--,0,0
"Iron, Fe",mg,--,--,0.00,0.00
"Sodium, Na",mg,--,--,115,230
Vitamins
"Vitamin C, total ascorbic acid",mg,--,--,60.0,120.0
"Vitamin A, IU",IU,--,--,300,600
Lipids
"Fatty acids, total trans",g,--,--,0.000,0.000
"Cholesterol",mg,--,--,0,0
Amino Acids
Other
Ingredients
"ORGANIC PIQUILLO PEPPERS*, SALT, ACIDULANT: CITRIC ACID. *CERTIFIED ORGANIC BY THE CONSJO DE LA PRODUCCION AGRARIA." Date available: 06/24/2017 Date last updated by company: 06/24/2017
