Source: USDA Branded Food Products Database Release December 2017 Software v.3.8.6.4 2017-10-02
Report Run at: December 18, 2017 05:56 EST
"Nutrient data for: 45281371, ORGANIC PEAS, UPC: 888670009970"
Food Group:  Branded Food Products Database
Common Name:

Nutrient,Unit,Data points,Std. Error,"0.25 cup = 85.0g",1Value per 100 g,
Proximates
"Energy",kcal,--,--,65,76
"Protein",g,--,--,4.00,4.71
"Total lipid (fat)",g,--,--,0.00,0.00
"Carbohydrate, by difference",g,--,--,12.00,14.12
"Fiber, total dietary",g,--,--,4.0,4.7
"Sugars, total",g,--,--,4.00,4.71
Minerals
"Calcium, Ca",mg,--,--,0,0
"Iron, Fe",mg,--,--,0.00,0.00
"Sodium, Na",mg,--,--,5,6
Vitamins
"Vitamin C, total ascorbic acid",mg,--,--,15.0,17.6
"Vitamin A, IU",IU,--,--,1700,2000
Lipids
"Fatty acids, total saturated",g,--,--,0.000,0.000
"Fatty acids, total trans",g,--,--,0.000,0.000
"Cholesterol",mg,--,--,0,0
Amino Acids
Other
Ingredients
"ORGANIC PEAS." Date available: 07/14/2017 Date last updated by company: 07/14/2017
