Source: USDA Branded Food Products Database Release December 2017 Software v.3.8.6.4 2017-10-02
Report Run at: December 18, 2017 07:28 EST
"Nutrient data for: 45328666, ORGANIC WHOLE MILK SMOOTH & CREAMY YOGURT, UPC: 052159703394"
Food Group:  Branded Food Products Database
Common Name:

Nutrient,Unit,Data points,Std. Error,"1 cup = 227.0g",1Value per 100 g,
Proximates
"Energy",kcal,--,--,159,70
"Protein",g,--,--,7.99,3.52
"Total lipid (fat)",g,--,--,8.99,3.96
"Carbohydrate, by difference",g,--,--,12.01,5.29
"Fiber, total dietary",g,--,--,0.0,0.0
"Sugars, total",g,--,--,11.01,4.85
Minerals
"Calcium, Ca",mg,--,--,300,132
"Iron, Fe",mg,--,--,0.00,0.00
"Potassium, K",mg,--,--,379,167
"Sodium, Na",mg,--,--,116,51
Vitamins
"Vitamin C, total ascorbic acid",mg,--,--,0.0,0.0
"Vitamin A, IU",IU,--,--,397,175
"Vitamin D",IU,--,--,100,44
Lipids
"Fatty acids, total saturated",g,--,--,4.994,2.200
"Fatty acids, total trans",g,--,--,0.000,0.000
"Cholesterol",mg,--,--,34,15
Amino Acids
Other
Ingredients
"CULTURED PASTEURIZED ORGANIC WHOLE MILK, PECTIN, VITAMIN D3." Date available: 10/13/2017 Date last updated by company: 10/13/2017
