Source: USDA Branded Food Products Database Release December 2017 Software v.3.8.6.4 2017-10-02
Report Run at: December 18, 2017 03:38 EST
"Nutrient data for: 45287454, ORGANIC 100% APPLE JUICE, UPC: 028700139745"
Food Group:  Branded Food Products Database
Common Name:

Nutrient,Unit,Data points,Std. Error,"1 BOX = 200.0g",1Value per 100 g,
Proximates
"Energy",kcal,--,--,100,50
"Protein",g,--,--,0.00,0.00
"Total lipid (fat)",g,--,--,0.00,0.00
"Carbohydrate, by difference",g,--,--,25.00,12.50
"Sugars, total",g,--,--,22.00,11.00
Minerals
"Potassium, K",mg,--,--,240,120
"Sodium, Na",mg,--,--,20,10
Vitamins
Lipids
Amino Acids
Other
Ingredients
"ORGANIC APPLE JUICE FROM CONCENTRATE (WATER, CONCENTRATED ORGANIC APPLE JUICE)." Date available: 07/14/2017 Date last updated by company: 07/14/2017
