Source: USDA Branded Food Products Database Release December 2017 Software v.3.8.6.4 2017-10-02
Report Run at: December 18, 2017 05:45 EST
"Nutrient data for: 45219349, ORGANIC MULBERRY JUICE, UPC: 854424004010"
Food Group:  Branded Food Products Database
Common Name:

Nutrient,Unit,Data points,Std. Error,"8.0 ONZ = 227.0g",1Value per 100 g,
Proximates
"Energy",kcal,--,--,91,40
"Protein",g,--,--,0.00,0.00
"Total lipid (fat)",g,--,--,0.00,0.00
"Carbohydrate, by difference",g,--,--,22.00,9.69
"Fiber, total dietary",g,--,--,0.0,0.0
"Sugars, total",g,--,--,21.00,9.25
Minerals
"Calcium, Ca",mg,--,--,20,9
"Iron, Fe",mg,--,--,0.73,0.32
"Magnesium, Mg",mg,--,--,25,11
"Potassium, K",mg,--,--,200,88
"Sodium, Na",mg,--,--,20,9
Vitamins
"Vitamin C, total ascorbic acid",mg,--,--,0.0,0.0
"Vitamin A, IU",IU,--,--,0,0
Lipids
"Fatty acids, total saturated",g,--,--,0.000,0.000
"Fatty acids, total trans",g,--,--,0.000,0.000
"Cholesterol",mg,--,--,0,0
Amino Acids
Other
Ingredients
"ORGANIC BLACK MULBERRY JUICE, ORGANIC COCONUT WATER." Date available: 07/14/2017 Date last updated by company: 07/14/2017
