Source: USDA Branded Food Products Database Release December 2017 Software v.3.8.6.4 2017-10-02
Report Run at: December 18, 2017 04:53 EST
"Nutrient data for: 45323796, ORGANIC FRUIT JUICE, UPC: 857529006989"
Food Group:  Branded Food Products Database
Common Name:

Nutrient,Unit,Data points,Std. Error,"1 BOTTLE = 354.0g",1Value per 100 g,
Proximates
"Energy",kcal,--,--,120,34
"Protein",g,--,--,0.99,0.28
"Total lipid (fat)",g,--,--,0.00,0.00
"Carbohydrate, by difference",g,--,--,29.98,8.47
"Fiber, total dietary",g,--,--,0.0,0.0
"Sugars, total",g,--,--,19.01,5.37
Minerals
"Calcium, Ca",mg,--,--,0,0
"Iron, Fe",mg,--,--,0.00,0.00
"Potassium, K",mg,--,--,510,144
"Sodium, Na",mg,--,--,0,0
Vitamins
"Vitamin C, total ascorbic acid",mg,--,--,3.2,0.9
"Vitamin A, IU",IU,--,--,1526,431
Lipids
"Fatty acids, total saturated",g,--,--,0.000,0.000
"Fatty acids, total trans",g,--,--,0.000,0.000
"Cholesterol",mg,--,--,0,0
Amino Acids
Other
Ingredients
"ORGANIC WATERMELON JUICE, ORGANIC LEMON JUICE, ORGANIC LIME JUICE" Date available: 07/14/2017 Date last updated by company: 07/14/2017
