Source: USDA Branded Food Products Database Release December 2017 Software v.3.8.6.4 2017-10-02
Report Run at: December 18, 2017 05:10 EST
"Nutrient data for: 45314844, ORGANIC HABANERO RANCH DRESSING, UPC: 818148020381"
Food Group:  Branded Food Products Database
Common Name:

Nutrient,Unit,Data points,Std. Error,"2.0 Tbsp = 28.0g",1Value per 100 g,
Proximates
"Energy",kcal,--,--,170,607
"Protein",g,--,--,0.00,0.00
"Total lipid (fat)",g,--,--,20.00,71.43
"Carbohydrate, by difference",g,--,--,1.00,3.57
"Sugars, total",g,--,--,0.00,0.00
Minerals
"Calcium, Ca",mg,--,--,6,21
"Potassium, K",mg,--,--,13,46
"Sodium, Na",mg,--,--,230,821
Vitamins
Lipids
"Fatty acids, total saturated",g,--,--,1.501,5.360
"Fatty acids, total trans",g,--,--,0.000,0.000
"Cholesterol",mg,--,--,10,36
Amino Acids
Other
Ingredients
"*HIGH OLEIC SUNFLOWER OIL, WATER, *LEMON JUICE, *MUSTARD (*VINEGAR, WATER, *MUSTARD SEEDS, SALT, *SPICES), *CAGE-FREE SALTED EGG YOLKS (*CAGE-FREE EGG YOLKS, SALT), *HABENERO PEPPER SAUCE (*JALAPENO PEPPERS, *HABENERO PEPPERS, *VINEGAR, SEA SALT, *APPLE CIDER VINEGAR), *DISTILLED VINEGAR, SEA SALT, *ONION POWDER, *SPICES, *GARLIC POWDER, *BLACK PEPPER, *WHOLE EGG." Date available: 09/25/2017 Date last updated by company: 09/25/2017
