Source: USDA Branded Food Products Database Release December 2017 Software v.3.8.6.4 2017-10-02
Report Run at: December 18, 2017 03:39 EST
"Nutrient data for: 45002530, ORGANIC APPLESAUCE, UPC: 011535503140"
Food Group:  Branded Food Products Database
Common Name:

Nutrient,Unit,Data points,Std. Error,"0.5 cup = 127.0g",1Value per 100 g,
Proximates
"Energy",kcal,--,--,70,55
"Protein",g,--,--,0.00,0.00
"Total lipid (fat)",g,--,--,0.00,0.00
"Carbohydrate, by difference",g,--,--,18.00,14.17
"Fiber, total dietary",g,--,--,2.0,1.6
"Sugars, total",g,--,--,15.00,11.81
Minerals
"Sodium, Na",mg,--,--,0,0
Vitamins
"Vitamin C, total ascorbic acid",mg,--,--,36.3,28.6
Lipids
Amino Acids
Other
Ingredients
"ORGANIC APPLES, WATER, ASCORBIC ACID (VITAMIN C)." Date available: 06/25/2017 Date last updated by company: 06/25/2017
