Source: USDA Branded Food Products Database Release December 2017 Software v.3.8.6.4 2017-10-02
Report Run at: December 18, 2017 05:38 EST
"Nutrient data for: 45048499, ORGANIC MEDIUM SALSA, UPC: 952774553537"
Food Group:  Branded Food Products Database
Common Name:

Nutrient,Unit,Data points,Std. Error,"2.0 Tbsp = 30.0g",1Value per 100 g,
Proximates
"Energy",kcal,--,--,10,33
"Protein",g,--,--,0.00,0.00
"Total lipid (fat)",g,--,--,0.00,0.00
"Carbohydrate, by difference",g,--,--,2.00,6.67
"Fiber, total dietary",g,--,--,0.0,0.0
"Sugars, total",g,--,--,1.00,3.33
Minerals
"Calcium, Ca",mg,--,--,0,0
"Iron, Fe",mg,--,--,0.00,0.00
"Sodium, Na",mg,--,--,140,467
Vitamins
"Vitamin C, total ascorbic acid",mg,--,--,4.0,13.3
"Vitamin A, IU",IU,--,--,334,1112
Lipids
"Fatty acids, total saturated",g,--,--,0.000,0.000
"Fatty acids, total trans",g,--,--,0.000,0.000
"Cholesterol",mg,--,--,0,0
Amino Acids
Other
Ingredients
"ORGANIC TOMATOES(ORGANIC TOMATOES, ORGANIC TOMATO JUICE, CITRIC ACID, CALCIUM CHLORIDE), ORGANIC TOMATO PUREE, WATER, ORGANIC APPLE CIDER VINEGAR, ORGANIC CILANTRO, ORGANIC ONION, ORGANIC JALAPENO PEPPERS, SEA SALT, ORGANIC CHILI FLAKES, ORGANIC GARLIC POWDER, ORGANIC CUMIN POWDER, ORGANIC CHILI POWDER." Date available: 06/25/2017 Date last updated by company: 06/25/2017
