Source: USDA Branded Food Products Database Release December 2017 Software v.3.8.6.4 2017-10-02
Report Run at: December 18, 2017 03:48 EST
"Nutrient data for: 45267895, ORGANIC BANANA CHIPS, UPC: 648570018621"
Food Group:  Branded Food Products Database
Common Name:

Nutrient,Unit,Data points,Std. Error,"0.5 cup = 30.0g",1Value per 100 g,
Proximates
"Energy",kcal,--,--,150,500
"Protein",g,--,--,1.00,3.33
"Total lipid (fat)",g,--,--,8.00,26.67
"Carbohydrate, by difference",g,--,--,20.00,66.67
"Fiber, total dietary",g,--,--,1.0,3.3
"Sugars, total",g,--,--,5.00,16.67
Minerals
"Calcium, Ca",mg,--,--,0,0
"Iron, Fe",mg,--,--,0.48,1.60
"Sodium, Na",mg,--,--,0,0
Vitamins
"Vitamin C, total ascorbic acid",mg,--,--,0.0,0.0
"Vitamin A, IU",IU,--,--,134,445
Lipids
"Fatty acids, total saturated",g,--,--,6.999,23.330
"Cholesterol",mg,--,--,0,0
Amino Acids
Other
Ingredients
"ORGANIC BANANAS (ORGANIC COCONUT OIL, ORGANIC SUGAR)." Date available: 10/13/2017 Date last updated by company: 10/13/2017
