Source: USDA Branded Food Products Database Release December 2017 Software v.3.8.6.4 2017-10-02
Report Run at: December 18, 2017 06:58 EST
"Nutrient data for: 45203095, ORGANIC THAI JASMINE MEDLEY WITH RED, BLACK & WHITE JASMINE RICES, UPC: 838869018030"
Food Group:  Branded Food Products Database
Common Name:

Nutrient,Unit,Data points,Std. Error,"5.0 ONZ = 142.0g",1Value per 100 g,
Proximates
"Energy",kcal,--,--,180,127
"Protein",g,--,--,4.00,2.82
"Total lipid (fat)",g,--,--,0.99,0.70
"Carbohydrate, by difference",g,--,--,40.00,28.17
"Fiber, total dietary",g,--,--,2.0,1.4
"Sugars, total",g,--,--,0.00,0.00
Minerals
"Calcium, Ca",mg,--,--,20,14
"Iron, Fe",mg,--,--,0.21,0.15
"Sodium, Na",mg,--,--,0,0
Vitamins
"Vitamin C, total ascorbic acid",mg,--,--,0.0,0.0
"Vitamin A, IU",IU,--,--,0,0
Lipids
"Fatty acids, total saturated",g,--,--,0.000,0.000
"Fatty acids, total trans",g,--,--,0.000,0.000
"Cholesterol",mg,--,--,0,0
Amino Acids
Other
Ingredients
"COOKED ORGANIC WHITE JASMINE RICE (WATER AND RICE), COOKED ORGANIC RED JASMINE RICE (WATER AND RICE), COOKED ORGANIC BLACK JASMINE RICE (WATER AND RICE)." Date available: 07/14/2017 Date last updated by company: 07/14/2017
