Source: USDA Branded Food Products Database Release December 2017 Software v.3.8.6.4 2017-10-02
Report Run at: December 18, 2017 04:17 EST
"Nutrient data for: 45218269, ORGANIC CLASSIC ITALIAN DRESSING, UPC: 070974002010"
Food Group:  Branded Food Products Database
Common Name:

Nutrient,Unit,Data points,Std. Error,"2.0 Tbsp = 30.0g",1Value per 100 g,
Proximates
"Energy",kcal,--,--,80,267
"Protein",g,--,--,0.00,0.00
"Total lipid (fat)",g,--,--,8.00,26.67
"Carbohydrate, by difference",g,--,--,2.00,6.67
"Fiber, total dietary",g,--,--,0.0,0.0
"Sugars, total",g,--,--,1.00,3.33
Minerals
"Calcium, Ca",mg,--,--,0,0
"Iron, Fe",mg,--,--,0.00,0.00
"Sodium, Na",mg,--,--,320,1067
Vitamins
"Vitamin C, total ascorbic acid",mg,--,--,0.0,0.0
"Vitamin A, IU",IU,--,--,0,0
Lipids
"Fatty acids, total saturated",g,--,--,1.500,5.000
"Fatty acids, total trans",g,--,--,0.000,0.000
"Cholesterol",mg,--,--,0,0
Amino Acids
Other
Ingredients
"FILTERED WATER, ORGANIC SOYBEAN OIL, ORGANIC WHITE VINEGAR ORGANIC SUGAR, SALT, ORGANIC LEMON JUICE CONCENTRATE, ORGANIC GARLIC, ORGANIC ONIONS, ORGANIC RED BELL PEPPERS, ORGANIC BLACK PEPPER, ORGANIC BASIL, ORGANIC OREGANO, XANTHAN GUM." Date available: 07/14/2017 Date last updated by company: 07/14/2017
