Source: USDA Branded Food Products Database Release December 2017 Software v.3.8.6.4 2017-10-02
Report Run at: December 18, 2017 05:02 EST
"Nutrient data for: 45263558, ORGANIC GRANOLA BAR, UPC: 184500000415"
Food Group:  Branded Food Products Database
Common Name:

Nutrient,Unit,Data points,Std. Error,"1 BAR = 30.0g",1Value per 100 g,
Proximates
"Energy",kcal,--,--,120,400
"Protein",g,--,--,2.00,6.67
"Total lipid (fat)",g,--,--,4.00,13.33
"Carbohydrate, by difference",g,--,--,20.00,66.67
"Fiber, total dietary",g,--,--,2.0,6.7
"Sugars, total",g,--,--,7.00,23.33
Minerals
"Calcium, Ca",mg,--,--,20,67
"Iron, Fe",mg,--,--,0.96,3.20
"Sodium, Na",mg,--,--,0,0
Vitamins
"Vitamin C, total ascorbic acid",mg,--,--,1.6,5.3
"Vitamin A, IU",IU,--,--,400,1333
Lipids
"Fatty acids, total saturated",g,--,--,0.000,0.000
"Fatty acids, total trans",g,--,--,0.000,0.000
"Cholesterol",mg,--,--,0,0
Amino Acids
Other
Ingredients
"18 RABBITS GRANOLA* (WHOLE GRAIN OATS*, HONEY*, SUNFLOWER OIL*, MAPLE SYRUP*, SUNFLOWER SEEDS*, PUMPKIN SEEDS*, SESAME SEEDS*, VANILLA*), TAPIOCA SYRUP*, MANGOES*, STRAWBERRIES*, OAT SYRUP SOLIDS*, (WITH VITAMIN E), CHIA SEEDS*." Date available: 07/14/2017 Date last updated by company: 07/14/2017
