Source: USDA Branded Food Products Database Release December 2017 Software v.3.8.6.4 2017-10-02
Report Run at: December 18, 2017 03:38 EST
"Nutrient data for: 45333337, ORGANIC APPLE CIDER VINEGAR, UPC: 043600006058"
Food Group:  Branded Food Products Database
Common Name:

Nutrient,Unit,Data points,Std. Error,"8.0 OZA = 240.0g",1Value per 100 g,
Proximates
"Energy",kcal,--,--,43,18
"Protein",g,--,--,0.00,0.00
"Total lipid (fat)",g,--,--,0.00,0.00
"Carbohydrate, by difference",g,--,--,10.99,4.58
"Fiber, total dietary",g,--,--,0.0,0.0
"Sugars, total",g,--,--,9.00,3.75
Minerals
"Sodium, Na",mg,--,--,0,0
Vitamins
Lipids
"Fatty acids, total saturated",g,--,--,0.000,0.000
"Fatty acids, total trans",g,--,--,0.000,0.000
"Cholesterol",mg,--,--,0,0
Amino Acids
Other
Ingredients
"FILTERED WATER, CERTIFIED ORGANIC APPLE CIDER VINEGAR, ORGANIC HONEY, ORGANIC LEMON CONCENTRATE, AND NATURAL CINNAMON FLAVOR." Date available: 10/13/2017 Date last updated by company: 10/13/2017
