Source: USDA Branded Food Products Database Release December 2017 Software v.3.8.6.4 2017-10-02
Report Run at: December 18, 2017 05:18 EST
"Nutrient data for: 45231805, ORGANIC ICELANDIC YOGURT, UPC: 859776003261"
Food Group:  Branded Food Products Database
Common Name:

Nutrient,Unit,Data points,Std. Error,"5.0 ONZ = 142.0g",1Value per 100 g,
Proximates
"Energy",kcal,--,--,151,106
"Protein",g,--,--,12.99,9.15
"Total lipid (fat)",g,--,--,4.50,3.17
"Carbohydrate, by difference",g,--,--,15.00,10.56
"Fiber, total dietary",g,--,--,2.0,1.4
"Sugars, total",g,--,--,12.99,9.15
Minerals
"Calcium, Ca",mg,--,--,89,63
"Iron, Fe",mg,--,--,0.99,0.70
"Potassium, K",mg,--,--,121,85
"Sodium, Na",mg,--,--,20,14
Vitamins
Lipids
"Fatty acids, total saturated",g,--,--,3.493,2.460
"Fatty acids, total trans",g,--,--,0.000,0.000
"Cholesterol",mg,--,--,50,35
Amino Acids
Other
Ingredients
"ORGANIC GRADE A PASTEURIZED SKIM MILK, ORGANIC GRADE A PASTEURIZED WHOLE MILK, ORGANIC BLACKBERRIES, ORGANIC CANE SUGAR, WATER, NATURAL FLAVOR, ORGANIC LOCUST BEAN GUM, PECTIN, FRUIT AND VEGETABLE JUICE (FOR COLOR), LIVE AND ACTIVE CULTURES." Date available: 08/15/2017 Date last updated by company: 08/15/2017
