Source: USDA Branded Food Products Database Release December 2017 Software v.3.8.6.4 2017-10-02
Report Run at: December 18, 2017 05:17 EST
"Nutrient data for: 45241187, ORGANIC ICED GREEN TEA WITH COCONUT WATER, UPC: 856820160123"
Food Group:  Branded Food Products Database
Common Name:

Nutrient,Unit,Data points,Std. Error,"16.0 OZA = 473.0g",1Value per 100 g,
Proximates
"Energy",kcal,--,--,80,17
"Protein",g,--,--,0.00,0.00
"Total lipid (fat)",g,--,--,0.00,0.00
"Carbohydrate, by difference",g,--,--,20.01,4.23
"Sugars, total",g,--,--,20.01,4.23
Minerals
"Sodium, Na",mg,--,--,19,4
Vitamins
"Vitamin C, total ascorbic acid",mg,--,--,60.1,12.7
Lipids
"Fatty acids, total trans",g,--,--,0.000,0.000
Amino Acids
Other
Ingredients
"FILTERED WATER, COCONUT WATER+, CANE SUGAR+*, NATURAL FLAVORS (COCONUT & OTHER), GREEN TEA+*, CITRIC ACID, ASCORBIC ACID (VITAMIN C), CONTAINS 5% COCONUT WATER." Date available: 07/14/2017 Date last updated by company: 07/14/2017
