Source: USDA Branded Food Products Database Release December 2017 Software v.3.8.6.4 2017-10-02
Report Run at: December 18, 2017 04:34 EST
"Nutrient data for: 45089797, ORGANIC DEGLET NOUR DATES, UPC: 811406020079"
Food Group:  Branded Food Products Database
Common Name:

Nutrient,Unit,Data points,Std. Error,"1.25 ONZ = 35.5g",1Value per 100 g,
Proximates
"Energy",kcal,--,--,105,296
"Protein",g,--,--,1.00,2.82
"Total lipid (fat)",g,--,--,0.00,0.00
"Carbohydrate, by difference",g,--,--,24.00,67.61
"Fiber, total dietary",g,--,--,2.5,7.0
"Sugars, total",g,--,--,19.00,53.52
Minerals
"Calcium, Ca",mg,--,--,20,56
"Iron, Fe",mg,--,--,0.40,1.14
"Sodium, Na",mg,--,--,2,7
Vitamins
"Vitamin C, total ascorbic acid",mg,--,--,0.0,0.0
"Vitamin A, IU",IU,--,--,0,0
Lipids
"Fatty acids, total saturated",g,--,--,0.000,0.000
"Fatty acids, total trans",g,--,--,0.000,0.000
"Cholesterol",mg,--,--,0,0
Amino Acids
Other
Ingredients
"ORGANIC DRIED DATES, WATER" Date available: 07/14/2017 Date last updated by company: 07/14/2017
