Source: USDA Branded Food Products Database Release December 2017 Software v.3.8.6.4 2017-10-02
Report Run at: December 18, 2017 06:58 EST
"Nutrient data for: 45064778, ORGANIC TEXMATI WHITE RICE, UPC: 074401911418"
Food Group:  Branded Food Products Database
Common Name:

Nutrient,Unit,Data points,Std. Error,"0.25 cup = 45.0g",1Value per 100 g,
Proximates
"Energy",kcal,--,--,150,333
"Protein",g,--,--,3.00,6.67
"Total lipid (fat)",g,--,--,0.50,1.11
"Carbohydrate, by difference",g,--,--,34.00,75.56
Minerals
"Sodium, Na",mg,--,--,0,0
Vitamins
Lipids
Amino Acids
Other
Ingredients
"ORGANIC TEXMATI WHITE RICE." Date available: 10/13/2017 Date last updated by company: 10/13/2017
