Source: USDA Branded Food Products Database Release December 2017 Software v.3.8.6.4 2017-10-02
Report Run at: December 18, 2017 06:54 EST
"Nutrient data for: 45179915, ORGANICS VEGETABLE SNACK TRAY, UPC: 826766384471"
Food Group:  Branded Food Products Database
Common Name:

Nutrient,Unit,Data points,Std. Error,"1 TBSP DIP | VEGETABLE WITH = 99.0g",1Value per 100 g,
Proximates
"Energy",kcal,--,--,60,61
"Protein",g,--,--,1.00,1.01
"Total lipid (fat)",g,--,--,4.00,4.04
"Carbohydrate, by difference",g,--,--,5.00,5.05
"Fiber, total dietary",g,--,--,2.0,2.0
"Sugars, total",g,--,--,3.00,3.03
Minerals
"Calcium, Ca",mg,--,--,40,40
"Iron, Fe",mg,--,--,0.18,0.18
"Sodium, Na",mg,--,--,190,192
Vitamins
"Vitamin C, total ascorbic acid",mg,--,--,6.0,6.1
"Vitamin A, IU",IU,--,--,2272,2295
Lipids
"Fatty acids, total saturated",g,--,--,0.505,0.510
"Fatty acids, total trans",g,--,--,0.000,0.000
"Cholesterol",mg,--,--,5,5
Amino Acids
Other
Ingredients
"ORGANIC CELERY, ORGANIC CARROTS, ORGANIC GRAPE TOMATOES, REDUCED FAT ORGANIC RANCH DRESSING (WATER, ORGANIC SOYBEAN OIL, ORGANIC CULTURED BUTTERMILK POWDER, ORGANIC DISTILLED VINEGAR, ORGANIC EGG YOLK, ORGANIC MALTODEXTRIN, SALT, ORGANIC SUGAR, ORGANIC CORN STARCH, ORGANIC DRIED GARLIC, ORGANIC DRIED CARROT, ORGANIC SKIM MILK POWER, ORGANIC DRIED ONION, ORGANIC CULTURED DEXTROSE, ORGANIC GREEN ONION, ORGANIC DRIED BELL PEPPER, ORGANIC SPICES, XANTHAN GUM, ORGANIC GUAR GUM, LACTIC ACID, ORGANIC MUSTARD FLOUR, CITRIC ACID, ORGANIC ROSEMARY EXTRACT), ORGANIC BROCCOLI," Date available: 07/14/2017 Date last updated by company: 07/14/2017
