Source: USDA Branded Food Products Database Release December 2017 Software v.3.8.6.4 2017-10-02
Report Run at: December 18, 2017 05:00 EST
"Nutrient data for: 45327263, ORGANIC GLUTEN FREE BREADED CHICKEN BREAST TENDERLOINS, UPC: 023700045966"
Food Group:  Branded Food Products Database
Common Name:

Nutrient,Unit,Data points,Std. Error,"3.0 ONZ = 84.0g",1Value per 100 g,
Proximates
"Energy",kcal,--,--,180,214
"Protein",g,--,--,15.00,17.86
"Total lipid (fat)",g,--,--,7.00,8.33
"Carbohydrate, by difference",g,--,--,14.00,16.67
"Fiber, total dietary",g,--,--,0.0,0.0
"Sugars, total",g,--,--,0.00,0.00
Minerals
"Calcium, Ca",mg,--,--,0,0
"Iron, Fe",mg,--,--,0.73,0.87
"Sodium, Na",mg,--,--,530,631
Vitamins
"Vitamin C, total ascorbic acid",mg,--,--,0.0,0.0
"Vitamin A, IU",IU,--,--,0,0
Lipids
"Fatty acids, total saturated",g,--,--,1.000,1.190
"Fatty acids, total monounsaturated",g,--,--,1.504,1.790
"Fatty acids, total polyunsaturated",g,--,--,3.503,4.170
"Fatty acids, total trans",g,--,--,0.000,0.000
"Cholesterol",mg,--,--,40,48
Amino Acids
Other
Ingredients
"ORGANIC CHICKEN BREAST TENDERLOINS, WATER, ORGANIC LONG GRAIN WHITE RICE FLOUR, ORGANIC RICE FLOUR, ORGANIC CORN STARCH, ORGANIC YELLOW CORN FLOUR, CONTAINS 2% OR LESS OF THE FOLLOWING: ORGANIC BLACK PEPPER, ORGANIC BROWN RICE FLOUR, ORGANIC GARLIC POWDER, ORGANIC ONION POWDER, ORGANIC PAPRIKA, ORGANIC SPICES, SALT, SEA SALT, XANTHAN GUM. BREADING SET IN VEGETABLE OIL." Date available: 10/13/2017 Date last updated by company: 10/13/2017
