Source: USDA Branded Food Products Database Release December 2017 Software v.3.8.6.4 2017-10-02
Report Run at: December 18, 2017 05:25 EST
"Nutrient data for: 45214221, ORGANIC KOSHER DILL BABY PICKLES, UPC: 041820037210"
Food Group:  Branded Food Products Database
Common Name:

Nutrient,Unit,Data points,Std. Error,"1 PICKLE | ABOUT = 28.0g",1Value per 100 g,
Proximates
"Energy",kcal,--,--,0,0
"Protein",g,--,--,0.00,0.00
"Total lipid (fat)",g,--,--,0.00,0.00
"Carbohydrate, by difference",g,--,--,1.00,3.57
Minerals
"Sodium, Na",mg,--,--,280,1000
Vitamins
Lipids
Amino Acids
Other
Ingredients
"CERTIFIED ORGANICALLY GROWN FRESH CUCUMBERS, WATER, ORGANIC VINEGAR, SALT, DEHYDRATED ORGANIC GARLIC, CALCIUM CHLORIDE, NATURAL FLAVORS, ORGANIC TURMERIC (COLOR)." Date available: 07/14/2017 Date last updated by company: 07/14/2017
