Source: USDA Branded Food Products Database Release December 2017 Software v.3.8.6.4 2017-10-02
Report Run at: December 18, 2017 04:13 EST
"Nutrient data for: 45256090, ORGANIC CHICKPEA PUFFS, UPC: 850126007090"
Food Group:  Branded Food Products Database
Common Name:

Nutrient,Unit,Data points,Std. Error,"1 PACK = 28.0g",1Value per 100 g,
Proximates
"Energy",kcal,--,--,130,464
"Protein",g,--,--,4.00,14.29
"Total lipid (fat)",g,--,--,5.00,17.86
"Carbohydrate, by difference",g,--,--,18.00,64.29
"Fiber, total dietary",g,--,--,3.0,10.7
"Sugars, total",g,--,--,2.00,7.14
Minerals
"Calcium, Ca",mg,--,--,20,71
"Iron, Fe",mg,--,--,2.57,9.19
"Sodium, Na",mg,--,--,170,607
Vitamins
"Vitamin C, total ascorbic acid",mg,--,--,2.2,7.7
"Vitamin A, IU",IU,--,--,179,638
Lipids
"Fatty acids, total saturated",g,--,--,0.000,0.000
"Fatty acids, total trans",g,--,--,0.000,0.000
"Cholesterol",mg,--,--,0,0
Amino Acids
Other
Ingredients
"ORGANIC CHICKPEA FLOUR, ORGANIC RICE FLOUR, ORGANIC SUNFLOWER OIL, ORGANIC TAPIOCA STARCH, ORGANIC SEASONING [SUGAR*, SALT, RED PEPPER*, VINEGAR POWDER (MALTODEXTRIN*, VINEGAR*), GARLIC POWDER*, JALAPENO PEPPER*, PAPRIKA EXTRACT (COLOR), NATURAL FLAVOR, YEAST EXTRACT*], ORGANIC PEAL HULL FIBER." Date available: 07/14/2017 Date last updated by company: 07/14/2017
