Source: USDA Branded Food Products Database Release December 2017 Software v.3.8.6.4 2017-10-02
Report Run at: December 18, 2017 07:24 EST
"Nutrient data for: 45333455, ORGANIC WHITE QUINOA, UPC: 020601411722"
Food Group:  Branded Food Products Database
Common Name:

Nutrient,Unit,Data points,Std. Error,"0.25 cup = 45.0g",1Value per 100 g,
Proximates
"Energy",kcal,--,--,170,378
"Protein",g,--,--,6.00,13.33
"Total lipid (fat)",g,--,--,2.50,5.56
"Carbohydrate, by difference",g,--,--,29.00,64.44
"Fiber, total dietary",g,--,--,3.0,6.7
"Sugars, total",g,--,--,1.00,2.22
Minerals
"Calcium, Ca",mg,--,--,21,47
"Iron, Fe",mg,--,--,2.00,4.44
"Potassium, K",mg,--,--,250,556
"Sodium, Na",mg,--,--,0,0
Vitamins
"Vitamin D",IU,--,--,0,0
Lipids
"Fatty acids, total saturated",g,--,--,0.000,0.000
"Fatty acids, total trans",g,--,--,0.000,0.000
"Cholesterol",mg,--,--,0,0
Amino Acids
Other
Ingredients
"ORGANIC WHITE QUINOA." Date available: 10/19/2017 Date last updated by company: 10/19/2017
