Source: USDA Branded Food Products Database Release December 2017 Software v.3.8.6.4 2017-10-02
Report Run at: December 18, 2017 05:35 EST
"Nutrient data for: 45066523, ORGANIC MANGO SALSA, UPC: 030684016981"
Food Group:  Branded Food Products Database
Common Name:

Nutrient,Unit,Data points,Std. Error,"2.0 Tbsp = 28.0g",1Value per 100 g,
Proximates
"Energy",kcal,--,--,20,71
"Protein",g,--,--,0.00,0.00
"Total lipid (fat)",g,--,--,0.00,0.00
"Carbohydrate, by difference",g,--,--,5.00,17.86
"Sugars, total",g,--,--,4.00,14.29
Minerals
"Calcium, Ca",mg,--,--,0,0
"Iron, Fe",mg,--,--,0.00,0.00
"Sodium, Na",mg,--,--,150,536
Vitamins
"Vitamin C, total ascorbic acid",mg,--,--,10.1,36.2
"Vitamin A, IU",IU,--,--,338,1207
Lipids
Amino Acids
Other
Ingredients
"ORGANIC DICED TOMATOES, WATER, ORGANIC CRUSHED TOMATOES, ORGANIC BROWN SUGAR, ORGANIC MANGOES, ORGANIC ONIONS, ORGANIC WHITE DISTILLED VINEGAR, ORGANIC RED BELL PEPPERS, SEA SALT, ORGANIC GREEN BELL PEPPERS, ORGANIC LIME JUICE CONCENTRATE, ORGANIC JALAPENOS, ORGANIC CILANTRO, ORGANIC CUMIN, NATURAL FLAVOR." Date available: 10/19/2017 Date last updated by company: 10/19/2017
