Source: USDA Branded Food Products Database Release December 2017 Software v.3.8.6.4 2017-10-02
Report Run at: December 18, 2017 03:55 EST
"Nutrient data for: 45204616, ORGANIC BLUE AGAVE & STEVIA BLEND, UPC: 858982001405"
Food Group:  Branded Food Products Database
Common Name:

Nutrient,Unit,Data points,Std. Error,"0.5 Tbsp = 11.0g",1Value per 100 g,
Proximates
"Energy",kcal,--,--,30,273
"Protein",g,--,--,0.00,0.00
"Total lipid (fat)",g,--,--,0.00,0.00
"Carbohydrate, by difference",g,--,--,8.00,72.73
"Sugars, total",g,--,--,8.00,72.73
Minerals
"Sodium, Na",mg,--,--,0,0
Vitamins
Lipids
Amino Acids
Other
Ingredients
"ORGANIC AGAVE NECTAR, WATER, ORGANIC STEVIA LEAF EXTRACT." Date available: 10/13/2017 Date last updated by company: 10/13/2017
