Source: USDA Branded Food Products Database Release December 2017 Software v.3.8.6.4 2017-10-02
Report Run at: December 18, 2017 04:54 EST
"Nutrient data for: 45324085, ORGANIC FRUIT SNACK, UPC: 815367010544"
Food Group:  Branded Food Products Database
Common Name:

Nutrient,Unit,Data points,Std. Error,"1 POUCH = 113.0g",1Value per 100 g,
Proximates
"Energy",kcal,--,--,90,80
"Protein",g,--,--,0.99,0.88
"Total lipid (fat)",g,--,--,0.50,0.44
"Carbohydrate, by difference",g,--,--,21.00,18.58
"Fiber, total dietary",g,--,--,2.0,1.8
"Sugars, total",g,--,--,18.00,15.93
Minerals
"Calcium, Ca",mg,--,--,0,0
"Iron, Fe",mg,--,--,0.16,0.14
"Sodium, Na",mg,--,--,5,4
Vitamins
"Vitamin C, total ascorbic acid",mg,--,--,0.6,0.5
"Vitamin A, IU",IU,--,--,44,39
Lipids
"Fatty acids, total saturated",g,--,--,0.000,0.000
"Fatty acids, total trans",g,--,--,0.000,0.000
"Cholesterol",mg,--,--,0,0
Amino Acids
Other
Ingredients
"ORGANIC BANANA, ORGANIC MANGO, ORGANIC ORANGE, ORGANIC LEMON JUICE CONCENTRATE" Date available: 08/10/2017 Date last updated by company: 08/10/2017
