Source: USDA Branded Food Products Database Release December 2017 Software v.3.8.6.4 2017-10-02
Report Run at: December 18, 2017 06:25 EST
"Nutrient data for: 45241539, ORGANIC ROSEMARY BALSAMIC VINAIGRETTE DRESSING, UPC: 077661146149"
Food Group:  Branded Food Products Database
Common Name:

Nutrient,Unit,Data points,Std. Error,"2.0 Tbsp = 30.0g",1Value per 100 g,
Proximates
"Energy",kcal,--,--,80,267
"Protein",g,--,--,0.00,0.00
"Total lipid (fat)",g,--,--,8.00,26.67
"Carbohydrate, by difference",g,--,--,3.00,10.00
"Fiber, total dietary",g,--,--,0.0,0.0
"Sugars, total",g,--,--,2.00,6.67
Minerals
"Calcium, Ca",mg,--,--,0,0
"Iron, Fe",mg,--,--,0.00,0.00
"Sodium, Na",mg,--,--,160,533
Vitamins
"Vitamin C, total ascorbic acid",mg,--,--,0.0,0.0
"Vitamin A, IU",IU,--,--,0,0
Lipids
"Fatty acids, total saturated",g,--,--,0.999,3.330
"Fatty acids, total monounsaturated",g,--,--,2.001,6.670
"Fatty acids, total polyunsaturated",g,--,--,4.500,15.000
"Fatty acids, total trans",g,--,--,0.000,0.000
"Cholesterol",mg,--,--,0,0
Amino Acids
Other
Ingredients
"WATER, BALSAMIC VINEGAR*, SOYBEAN OIL*, CANE SUGAR*, SALT, DRIED GARLIC*, ROSEMARY*, XANTHAN GUM, ACACIA GUM*, BLACK PEPPER*, ROSEMARY EXTRACT*, OREGANO*, THYME*, BASIL*, MARJORAM*." Date available: 07/14/2017 Date last updated by company: 07/14/2017
