Source: USDA Branded Food Products Database Release December 2017 Software v.3.8.6.4 2017-10-02
Report Run at: December 18, 2017 04:23 EST
"Nutrient data for: 45326779, ORGANIC COOKIES, UPC: 036800236912"
Food Group:  Branded Food Products Database
Common Name:

Nutrient,Unit,Data points,Std. Error,"2.0 COOKIES = 30.0g",1Value per 100 g,
Proximates
"Energy",kcal,--,--,150,500
"Protein",g,--,--,2.00,6.67
"Total lipid (fat)",g,--,--,7.00,23.33
"Carbohydrate, by difference",g,--,--,20.00,66.67
"Fiber, total dietary",g,--,--,1.0,3.3
"Sugars, total",g,--,--,9.00,30.00
Minerals
"Calcium, Ca",mg,--,--,0,0
"Iron, Fe",mg,--,--,1.20,4.00
"Sodium, Na",mg,--,--,60,200
Vitamins
"Vitamin C, total ascorbic acid",mg,--,--,0.0,0.0
"Vitamin A, IU",IU,--,--,0,0
Lipids
"Fatty acids, total saturated",g,--,--,3.000,10.000
"Fatty acids, total monounsaturated",g,--,--,3.000,10.000
"Fatty acids, total polyunsaturated",g,--,--,0.999,3.330
"Fatty acids, total trans",g,--,--,0.000,0.000
"Cholesterol",mg,--,--,0,0
Amino Acids
Other
Ingredients
"ORGANIC ENRICHED WHEAT FLOUR, (ORGANIC WHEAT FLOUR, NIACIN, IRON, THIAMINE MONONITRATE, RIBOFLAVIN, FOLIC ACID), ORGANIC CANE SUGAR, ORGANIC PALM OIL, ORGANIC ROLLED OATS, ORGANIC OAT FLOUR, ORGANIC CANE SUGAR SYRUP, ORGANIC BROWN SUGAR, BAKING SODA, ORGANIC CINNAMON, ORGANIC SOY LECITHIN, SEA SALT, ORGANIC CARAMEL COLOR, ORGANIC OATMEAL FLAVOR, ORGANIC VANILLA EXTRACT, CREAM OF TARTAR." Date available: 10/13/2017 Date last updated by company: 10/13/2017
