Source: USDA Branded Food Products Database Release December 2017 Software v.3.8.6.4 2017-10-02
Report Run at: December 18, 2017 07:08 EST
"Nutrient data for: 45158021, ORGANIC TWISTED FRUIT SNACK, UPC: 722252380012"
Food Group:  Branded Food Products Database
Common Name:

Nutrient,Unit,Data points,Std. Error,"1 PIECE = 20.0g",1Value per 100 g,
Proximates
"Energy",kcal,--,--,60,300
"Protein",g,--,--,0.00,0.00
"Total lipid (fat)",g,--,--,0.00,0.00
"Carbohydrate, by difference",g,--,--,16.00,80.00
"Fiber, total dietary",g,--,--,1.0,5.0
"Sugars, total",g,--,--,14.00,70.00
Minerals
"Calcium, Ca",mg,--,--,0,0
"Iron, Fe",mg,--,--,2.70,13.50
"Potassium, K",mg,--,--,130,650
"Sodium, Na",mg,--,--,5,25
Vitamins
"Vitamin C, total ascorbic acid",mg,--,--,30.0,150.0
"Vitamin A, IU",IU,--,--,0,0
Lipids
"Fatty acids, total saturated",g,--,--,0.000,0.000
"Fatty acids, total trans",g,--,--,0.000,0.000
"Cholesterol",mg,--,--,0,0
Amino Acids
Other
Ingredients
"ORGANIC APPLE PUREE CONCENTRATE, ORGANIC APPLE JUICE CONCENTRATE, ORGANIC NATURAL FLAVORS, MALIC ACID, PECTIN, COLORED WITH VEGETABLE JUICE, ORGANIC SUNFLOWER OIL, ORGANIC CARNAUBA WAX. VITAMINS & MINERALS: ASCORBIC ACID (VIT. C), FERRIC ORTHOPHOSPHATE (IRON)." Date available: 07/14/2017 Date last updated by company: 07/14/2017
