Source: USDA Branded Food Products Database Release December 2017 Software v.3.8.6.4 2017-10-02
Report Run at: December 18, 2017 05:29 EST
"Nutrient data for: 45329518, ORGANIC LIGHT BROWN RICE, UPC: 086582555770"
Food Group:  Branded Food Products Database
Common Name:

Nutrient,Unit,Data points,Std. Error,"0.25 cup = 45.0g",1Value per 100 g,
Proximates
"Energy",kcal,--,--,170,378
"Protein",g,--,--,4.00,8.89
"Total lipid (fat)",g,--,--,1.00,2.22
"Carbohydrate, by difference",g,--,--,35.00,77.78
"Fiber, total dietary",g,--,--,1.0,2.2
"Sugars, total",g,--,--,0.00,0.00
Minerals
"Calcium, Ca",mg,--,--,20,44
"Iron, Fe",mg,--,--,0.72,1.60
"Sodium, Na",mg,--,--,0,0
Vitamins
"Vitamin C, total ascorbic acid",mg,--,--,0.0,0.0
"Vitamin A, IU",IU,--,--,0,0
Lipids
"Fatty acids, total saturated",g,--,--,0.000,0.000
"Fatty acids, total trans",g,--,--,0.000,0.000
"Cholesterol",mg,--,--,0,0
Amino Acids
Other
Ingredients
"ORGANIC LONG GRAIN BROWN RICE" Date available: 10/13/2017 Date last updated by company: 10/13/2017
