Source: USDA Branded Food Products Database Release December 2017 Software v.3.8.6.4 2017-10-02
Report Run at: December 18, 2017 04:53 EST
"Nutrient data for: 45153147, ORGANIC FRUIT JUICE, UPC: 647854728102"
Food Group:  Branded Food Products Database
Common Name:

Nutrient,Unit,Data points,Std. Error,"8.0 OZ RECONST.) | ( = 2.5g",1Value per 100 g,
Proximates
"Energy",kcal,--,--,4,173
"Protein",g,--,--,0.03,1.33
"Total lipid (fat)",g,--,--,0.00,0.00
"Carbohydrate, by difference",g,--,--,1.03,41.33
"Fiber, total dietary",g,--,--,0.1,2.7
"Sugars, total",g,--,--,0.97,38.67
Minerals
"Calcium, Ca",mg,--,--,1,27
"Iron, Fe",mg,--,--,0.02,0.78
"Magnesium, Mg",mg,--,--,0,9
"Phosphorus, P",mg,--,--,1,22
"Potassium, K",mg,--,--,3,107
"Sodium, Na",mg,--,--,0,13
Vitamins
"Vitamin C, total ascorbic acid",mg,--,--,0.5,19.5
"Riboflavin",mg,--,--,0.001,0.045
"Niacin",mg,--,--,0.011,0.432
"Vitamin A, IU",IU,--,--,0,0
Lipids
"Fatty acids, total saturated",g,--,--,0.000,0.000
"Fatty acids, total trans",g,--,--,0.000,0.000
"Cholesterol",mg,--,--,0,0
Amino Acids
Other
Ingredients
"ORGANIC FRUIT PUREE (ORGANIC STRAWBERRY PUREE, ORGANIC RASPBERRY PUREE, ORGANIC BLACKBERRY PUREE), ORGANIC PEAR JUICE CONCENTRATE, WATER (TO RECONSTITUTE), ORGANIC APPLE JUICE CONCENTRATE, NATURAL FLAVOR, ORGANIC FLAVOR, ORGANIC LOCUST BEAN GUM, XANTHAN GUM." Date available: 08/28/2017 Date last updated by company: 08/28/2017
