Source: USDA Branded Food Products Database Release December 2017 Software v.3.8.6.4 2017-10-02
Report Run at: December 18, 2017 07:36 EST
"Nutrient data for: 45083501, ORGANIC ZERO CALORIE SWEETENER BLEND, UPC: 012511946067"
Food Group:  Branded Food Products Database
Common Name:

Nutrient,Unit,Data points,Std. Error,"0.5 tsp = 1.0g",1Value per 100 g,
Proximates
"Energy",kcal,--,--,0,0
"Protein",g,--,--,0.00,0.00
"Total lipid (fat)",g,--,--,0.00,0.00
"Carbohydrate, by difference",g,--,--,1.00,100.00
"Fiber, total dietary",g,--,--,1.0,100.0
Minerals
"Sodium, Na",mg,--,--,0,0
Vitamins
Lipids
Amino Acids
Other
Ingredients
"ORGANIC AGAVE INULIN, ORGANIC STEVIA EXTRACT (STEVIA REBAUDIANA), SILICA" Date available: 07/14/2017 Date last updated by company: 07/14/2017
