Source: USDA Branded Food Products Database Release December 2017 Software v.3.8.6.4 2017-10-02
Report Run at: December 18, 2017 06:30 EST
"Nutrient data for: 45273004, ORGANICS CHERRY GRANOLA BARK, UPC: 850008006098"
Food Group:  Branded Food Products Database
Common Name:

Nutrient,Unit,Data points,Std. Error,"2.0 PIECES = 38.0g",1Value per 100 g,
Proximates
"Energy",kcal,--,--,160,421
"Protein",g,--,--,3.00,7.89
"Total lipid (fat)",g,--,--,7.00,18.42
"Carbohydrate, by difference",g,--,--,23.00,60.53
"Fiber, total dietary",g,--,--,2.0,5.3
Minerals
"Calcium, Ca",mg,--,--,20,53
"Iron, Fe",mg,--,--,1.90,4.99
"Sodium, Na",mg,--,--,40,105
Vitamins
"Vitamin A, IU",IU,--,--,263,692
Lipids
"Fatty acids, total saturated",g,--,--,3.500,9.210
"Fatty acids, total trans",g,--,--,0.000,0.000
"Cholesterol",mg,--,--,0,0
Amino Acids
Other
Ingredients
"CHOCOLATE* (COCOA BEANS, EVAPORATED CANE SUGAR, COCOA BUTTER, SOYA LECITHIN), OATS*, MAPLE SYRUP*, DRIED CHERRIES* (SUGAR, SUNFLOWER OIL), ALMONDS*, CORNFLAKES* (CORNMEAL, FRUIT JUICE), COCONUT CHIPS*, SPROUTED QUINOA*, VIRGIN COCONUT OIL*, BROWN RICE FLOUR*, CANE SUGAR*, VANILLA EXTRACT*, SEA SALT" Date available: 07/14/2017 Date last updated by company: 07/14/2017
