Source: USDA Branded Food Products Database Release December 2017 Software v.3.8.6.4 2017-10-02
Report Run at: December 18, 2017 06:23 EST
"Nutrient data for: 45265878, ORGANIC ROASTED RED PEPPER HOMMUS, UPC: 044115416028"
Food Group:  Branded Food Products Database
Common Name:

Nutrient,Unit,Data points,Std. Error,"2.0 Tbsp = 28.0g",1Value per 100 g,
Proximates
"Energy",kcal,--,--,70,250
"Protein",g,--,--,2.00,7.14
"Total lipid (fat)",g,--,--,6.00,21.43
"Carbohydrate, by difference",g,--,--,4.00,14.29
"Fiber, total dietary",g,--,--,1.0,3.6
"Sugars, total",g,--,--,1.00,3.57
Minerals
"Calcium, Ca",mg,--,--,0,0
"Iron, Fe",mg,--,--,0.64,2.29
"Sodium, Na",mg,--,--,160,571
Vitamins
"Vitamin C, total ascorbic acid",mg,--,--,6.4,22.9
"Vitamin A, IU",IU,--,--,0,0
Lipids
"Fatty acids, total saturated",g,--,--,0.501,1.790
"Fatty acids, total trans",g,--,--,0.000,0.000
"Cholesterol",mg,--,--,0,0
Amino Acids
Other
Ingredients
"ORGANIC FRESH STEAMED CHICKPEAS, WATER, ORGANIC ROASTED RED PEPPER, ORGANIC SUNFLOWER OIL, ORGANIC EXTRA VIRGIN OIL, ORGANIC SESAME TAHINI, ORGANIC GARLIC, SEA SALT, ORGANIC LEMON JUICE, ORGANIC CUMIN." Date available: 07/14/2017 Date last updated by company: 07/14/2017
