Source: USDA Branded Food Products Database Release December 2017 Software v.3.8.6.4 2017-10-02
Report Run at: December 18, 2017 05:31 EST
"Nutrient data for: 45045050, ORGANIC LOWER SODIUM TOMATO SOUP, UPC: 767335077847"
Food Group:  Branded Food Products Database
Common Name:

Nutrient,Unit,Data points,Std. Error,"1 cup = 245.0g",1Value per 100 g,
Proximates
"Energy",kcal,--,--,81,33
"Protein",g,--,--,2.01,0.82
"Total lipid (fat)",g,--,--,0.00,0.00
"Carbohydrate, by difference",g,--,--,18.01,7.35
"Fiber, total dietary",g,--,--,2.0,0.8
"Sugars, total",g,--,--,10.00,4.08
Minerals
"Calcium, Ca",mg,--,--,39,16
"Iron, Fe",mg,--,--,0.91,0.37
"Sodium, Na",mg,--,--,289,118
Vitamins
"Vitamin C, total ascorbic acid",mg,--,--,9.1,3.7
"Vitamin A, IU",IU,--,--,500,204
Lipids
"Fatty acids, total saturated",g,--,--,0.000,0.000
"Fatty acids, total trans",g,--,--,0.000,0.000
"Cholesterol",mg,--,--,0,0
Amino Acids
Other
Ingredients
"FILTERED WATER, ORGANIC VEGETABLES (ORGANIC TOMATOES, ORGANIC ONION, ORGANIC GARLIC), ORGANIC CANE SUGAR, ORGANIC CORN STARCH, SEA SALT, ORGANIC BASIL, ORGANIC SPICES, CITRIC ACID." Date available: 07/14/2017 Date last updated by company: 07/14/2017
