Source: USDA Branded Food Products Database Release December 2017 Software v.3.8.6.4 2017-10-02
Report Run at: December 18, 2017 04:08 EST
"Nutrient data for: 45077298, ORGANIC CHANA MASALA, UPC: 023547852017"
Food Group:  Branded Food Products Database
Common Name:

Nutrient,Unit,Data points,Std. Error,"5.3 ONZ = 150.0g",1Value per 100 g,
Proximates
"Energy",kcal,--,--,380,253
"Protein",g,--,--,13.99,9.33
"Total lipid (fat)",g,--,--,13.01,8.67
"Carbohydrate, by difference",g,--,--,52.01,34.67
"Fiber, total dietary",g,--,--,18.0,12.0
"Sugars, total",g,--,--,0.00,0.00
Minerals
"Calcium, Ca",mg,--,--,200,133
"Iron, Fe",mg,--,--,2.34,1.56
"Sodium, Na",mg,--,--,590,393
Vitamins
"Vitamin C, total ascorbic acid",mg,--,--,0.0,0.0
"Vitamin A, IU",IU,--,--,260,173
Lipids
"Fatty acids, total saturated",g,--,--,1.005,0.670
"Fatty acids, total trans",g,--,--,0.000,0.000
"Cholesterol",mg,--,--,0,0
Amino Acids
Other
Ingredients
"ONION*, CHICKPEAS*, TOMATO*, SUNFLOWER OIL*, GARLIC*, GINGER*, GREEN CHILIES*, SALT, CUMIN POWDER*, CORIANDER SEEDS*, BLACK CARDAMON*, DRY MANGO POWDER*, BAY LEAVES*, TURMERIC*, RED CHILI POWDER*, CAROM SEEDS*, FENUGREEK LEAVES*, CINNAMON*, STAR ANISE*, CLOVES*, NUTMEG*, WATER" Date available: 07/14/2017 Date last updated by company: 07/14/2017
