Source: USDA Branded Food Products Database Release December 2017 Software v.3.8.6.4 2017-10-02
Report Run at: December 18, 2017 06:07 EST
"Nutrient data for: 45189608, ORGANIC PROTEIN BAR, UPC: 858236003094"
Food Group:  Branded Food Products Database
Common Name:

Nutrient,Unit,Data points,Std. Error,"1 BAR = 48.0g",1Value per 100 g,
Proximates
"Energy",kcal,--,--,210,438
"Protein",g,--,--,12.00,25.00
"Total lipid (fat)",g,--,--,9.00,18.75
"Carbohydrate, by difference",g,--,--,23.00,47.92
"Fiber, total dietary",g,--,--,2.0,4.2
"Sugars, total",g,--,--,13.00,27.08
Minerals
"Calcium, Ca",mg,--,--,40,83
"Iron, Fe",mg,--,--,2.25,4.69
"Magnesium, Mg",mg,--,--,33,69
"Phosphorus, P",mg,--,--,84,174
"Potassium, K",mg,--,--,160,333
"Sodium, Na",mg,--,--,40,83
Vitamins
"Vitamin C, total ascorbic acid",mg,--,--,1.0,2.1
"Vitamin A, IU",IU,--,--,0,0
Lipids
"Fatty acids, total saturated",g,--,--,6.000,12.500
"Fatty acids, total trans",g,--,--,0.000,0.000
"Cholesterol",mg,--,--,0,0
Amino Acids
Other
Ingredients
"ORGANIC COCONUT NECTAR, ORGANIC WHOLE GRAIN BROWN RICE PROTEIN, ORGANIC DARK CHOCOLATE (ORGANIC COCOA LIQUOR, ORGANIC DRIED CANE SYRUP, ORGANIC COCOA BUTTER), ORGANIC COCONUT OIL, ORGANIC OATS, ORGANIC COCOA LIQUOR, ORGANIC BROWN RICE CRISPS (ORGANIC BROWN RICE, ORGANIC BROWN RICE SYRUP, SEA SALT), SUNFLOWER LECITHIN, PEPPERMINT OIL, SEA SALT." Date available: 07/14/2017 Date last updated by company: 07/14/2017
