Source: USDA Branded Food Products Database Release December 2017 Software v.3.8.6.4 2017-10-02
Report Run at: December 18, 2017 05:48 EST
"Nutrient data for: 45232870, ORGANIC NUT BAR, UPC: 058449153481"
Food Group:  Branded Food Products Database
Common Name:

Nutrient,Unit,Data points,Std. Error,"1 BAR = 35.0g",1Value per 100 g,
Proximates
"Energy",kcal,--,--,200,571
"Protein",g,--,--,6.00,17.14
"Total lipid (fat)",g,--,--,14.00,40.00
"Carbohydrate, by difference",g,--,--,12.00,34.29
"Fiber, total dietary",g,--,--,5.0,14.3
"Sugars, total",g,--,--,4.00,11.43
Minerals
"Calcium, Ca",mg,--,--,40,114
"Iron, Fe",mg,--,--,1.65,4.70
"Sodium, Na",mg,--,--,190,543
Vitamins
"Vitamin C, total ascorbic acid",mg,--,--,1.4,3.9
"Vitamin A, IU",IU,--,--,0,0
Lipids
"Fatty acids, total saturated",g,--,--,1.502,4.290
"Fatty acids, total trans",g,--,--,0.000,0.000
"Cholesterol",mg,--,--,0,0
Amino Acids
Other
Ingredients
"ALMONDS*, PEANUTS*, INULIN*, CASHEWS*, TAPIOCA SYRUP*, PUMPKIN SEEDS*, CANE SUGAR*, SESAME SEEDS*, BRAZIL NUTS*, TAPIOCA STARCH*, FLAX SEEDS*, HONEY*, SUNFLOWER OIL*, SEA SALT, SUNFLOWER LECITHIN*." Date available: 07/14/2017 Date last updated by company: 07/14/2017
