Source: USDA Branded Food Products Database Release December 2017 Software v.3.8.6.4 2017-10-02
Report Run at: December 18, 2017 07:37 EST
"Nutrient data for: 45184712, ORGANIC ZUCCHINI SQUASH, UPC: 65830002125"
Food Group:  Branded Food Products Database
Common Name:

Nutrient,Unit,Data points,Std. Error,"0.5 cup = 76.0g",1Value per 100 g,
Proximates
"Energy",kcal,--,--,40,53
"Protein",g,--,--,1.00,1.32
"Total lipid (fat)",g,--,--,3.00,3.95
"Carbohydrate, by difference",g,--,--,2.00,2.63
"Fiber, total dietary",g,--,--,1.0,1.3
"Sugars, total",g,--,--,2.00,2.63
Minerals
"Calcium, Ca",mg,--,--,20,26
"Iron, Fe",mg,--,--,0.40,0.53
"Sodium, Na",mg,--,--,30,39
Vitamins
"Vitamin C, total ascorbic acid",mg,--,--,6.7,8.8
"Vitamin A, IU",IU,--,--,112,147
Lipids
"Fatty acids, total saturated",g,--,--,0.000,0.000
"Fatty acids, total trans",g,--,--,0.000,0.000
"Cholesterol",mg,--,--,0,0
Amino Acids
Other
Ingredients
"ORGANIC ZUCCHINI SQUASH, ORGANIC OLIVE OIL, ORGANIC PEPPER, AND SEA SALT." Date available: 09/16/2017 Date last updated by company: 09/16/2017
