Source: USDA Branded Food Products Database Release December 2017 Software v.3.8.6.4 2017-10-02
Report Run at: December 18, 2017 06:41 EST
"Nutrient data for: 45290635, ORGANIC SOUTHWEST STYLE MESQUITE SEASONING, UPC: 711535507055"
Food Group:  Branded Food Products Database
Common Name:

Nutrient,Unit,Data points,Std. Error,"0.25 tsp = 1.25g",1Value per 100 g,
Proximates
"Energy",kcal,--,--,0,0
"Protein",g,--,--,0.00,0.00
"Total lipid (fat)",g,--,--,0.00,0.00
"Carbohydrate, by difference",g,--,--,1.00,80.00
Minerals
"Sodium, Na",mg,--,--,170,13600
Vitamins
Lipids
Amino Acids
Other
Ingredients
"SEA SALT, *SPICES, *DEHYDRATED ONION, *DEHYDRATED GARLIC, *CANE SUGAR, *GROUND MUSTARD, NATURAL MESQUITE SMOKE FLAVOR, CITRIC ACID, *RICE CONCENTRATE (ADDED AS A FLOW AGENT)." Date available: 07/14/2017 Date last updated by company: 07/14/2017
