Source: USDA Branded Food Products Database Release December 2017 Software v.3.8.6.4 2017-10-02
Report Run at: December 18, 2017 06:34 EST
"Nutrient data for: 45214843, ORGANICS ICE CREAM, UPC: 072036709295"
Food Group:  Branded Food Products Database
Common Name:

Nutrient,Unit,Data points,Std. Error,"0.5 cup = 67.0g",1Value per 100 g,
Proximates
"Energy",kcal,--,--,160,239
"Protein",g,--,--,3.00,4.48
"Total lipid (fat)",g,--,--,10.00,14.93
"Carbohydrate, by difference",g,--,--,16.00,23.88
"Fiber, total dietary",g,--,--,1.0,1.5
"Sugars, total",g,--,--,15.00,22.39
Minerals
"Calcium, Ca",mg,--,--,80,119
"Iron, Fe",mg,--,--,1.21,1.81
"Sodium, Na",mg,--,--,30,45
Vitamins
"Vitamin C, total ascorbic acid",mg,--,--,1.3,2.0
"Vitamin A, IU",IU,--,--,338,504
Lipids
"Fatty acids, total saturated",g,--,--,6.003,8.960
"Fatty acids, total trans",g,--,--,0.000,0.000
"Cholesterol",mg,--,--,25,37
Amino Acids
Other
Ingredients
"ORGANIC MILK, ORGANIC CREAM, ORGANIC CANE SUGAR, ORGANIC COCOA (PROCESSED WITH ALKALI), ORGANIC NONFAT DRY MILK SOLIDS, ORGANIC LOCUST BEAN GUM." Date available: 07/14/2017 Date last updated by company: 07/14/2017
