Source: USDA Branded Food Products Database Release December 2017 Software v.3.8.6.4 2017-10-02
Report Run at: December 18, 2017 05:37 EST
"Nutrient data for: 45239683, ORGANIC MAYONNAISE, UPC: 099482447533"
Food Group:  Branded Food Products Database
Common Name:

Nutrient,Unit,Data points,Std. Error,"1 Tbsp = 15.0g",1Value per 100 g,
Proximates
"Energy",kcal,--,--,110,733
"Protein",g,--,--,0.00,0.00
"Total lipid (fat)",g,--,--,12.00,80.00
"Carbohydrate, by difference",g,--,--,0.00,0.00
Minerals
"Sodium, Na",mg,--,--,55,367
Vitamins
Lipids
"Fatty acids, total saturated",g,--,--,1.000,6.670
"Fatty acids, total monounsaturated",g,--,--,7.999,53.330
"Fatty acids, total polyunsaturated",g,--,--,3.499,23.330
"Fatty acids, total trans",g,--,--,0.000,0.000
"Cholesterol",mg,--,--,5,33
Amino Acids
Other
Ingredients
"INGREDIENTS: ORGANIC EXPELLER PRESSED CANOLA OIL, ORGANIC WHOLE EGGS, FILTERED WATER, ORGANIC EGG YOLKS, ORGANIC DISTILLED VINEGAR, ORGANIC WHITE MUSTARD (ORGANIC (DISTILLED VINEGAR, WATER, ORGANIC SEED, SALT, ORGANIC (LOVE), SALT, ORGANIC LEMON JUICE CONCENTRATE, NATURAL FLAVOR." Date available: 06/25/2017 Date last updated by company: 06/25/2017
