Source: USDA Branded Food Products Database Release December 2017 Software v.3.8.6.4 2017-10-02
Report Run at: December 18, 2017 06:42 EST
"Nutrient data for: 45028326, ORGANIC SPANISH RICE & RED BEAN SOUPS, UPC: 042272005642"
Food Group:  Branded Food Products Database
Common Name:

Nutrient,Unit,Data points,Std. Error,"0.5 CAN = 208.0g",1Value per 100 g,
Proximates
"Energy",kcal,--,--,139,67
"Protein",g,--,--,4.99,2.40
"Total lipid (fat)",g,--,--,2.50,1.20
"Carbohydrate, by difference",g,--,--,24.00,11.54
"Fiber, total dietary",g,--,--,5.0,2.4
"Sugars, total",g,--,--,3.00,1.44
Minerals
"Calcium, Ca",mg,--,--,40,19
"Iron, Fe",mg,--,--,2.12,1.02
"Sodium, Na",mg,--,--,691,332
Vitamins
"Vitamin C, total ascorbic acid",mg,--,--,5.6,2.7
"Vitamin A, IU",IU,--,--,119,57
Lipids
"Fatty acids, total saturated",g,--,--,0.000,0.000
"Fatty acids, total trans",g,--,--,0.000,0.000
"Cholesterol",mg,--,--,0,0
Amino Acids
Other
Ingredients
"FILTERED WATER, ORGANIC RED BEANS, ORGANIC DICED TOMATOES, ORGANIC ONIONS, ORGANIC BROWN RICE, ORGANIC BELL PEPPERS, ORGANIC ZUCCHINI, ORGANIC CORN, ORGANIC GREEN CHILES, ORGANIC GARLIC, ORGANIC HIGH OLEIC SAFFLOWER AND/OR SUNFLOWER OIL, SEA SALT, ORGANIC CILANTRO, ORGANIC SPICES, ORGANIC EXTRA VIRGIN OLIVE OIL, ORGANIC BLACK PEPPER." Date available: 07/14/2017 Date last updated by company: 07/14/2017
