Source: USDA Branded Food Products Database Release December 2017 Software v.3.8.6.4 2017-10-02
Report Run at: December 18, 2017 03:50 EST
"Nutrient data for: 45268896, ORGANIC BEEF CHILI AND SWEET POTATO, UPC: 819269012583"
Food Group:  Branded Food Products Database
Common Name:

Nutrient,Unit,Data points,Std. Error,"1 TRAY = 284.0g",1Value per 100 g,
Proximates
"Energy",kcal,--,--,290,102
"Protein",g,--,--,19.99,7.04
"Total lipid (fat)",g,--,--,10.00,3.52
"Carbohydrate, by difference",g,--,--,29.00,10.21
"Fiber, total dietary",g,--,--,4.0,1.4
"Sugars, total",g,--,--,6.99,2.46
Minerals
"Calcium, Ca",mg,--,--,60,21
"Iron, Fe",mg,--,--,1.25,0.44
"Sodium, Na",mg,--,--,241,85
Vitamins
"Vitamin C, total ascorbic acid",mg,--,--,8.2,2.9
"Vitamin A, IU",IU,--,--,9270,3264
Lipids
"Fatty acids, total saturated",g,--,--,3.493,1.230
"Fatty acids, total trans",g,--,--,0.000,0.000
"Cholesterol",mg,--,--,60,21
Amino Acids
Other
Ingredients
"ORGANIC GRASS FED BEEF CHILI (ORGANIC GRASS FED BEEF, ORGANIC CHICKEN STOCK (WATER, ORGANIC CHICKEN, ORGANIC ONION, ORGANIC CARROT, ORGANIC CELERY, ORGANIC SPICES), ORGANIC TOMATOES (ORGANIC TOMATOES, ORGANIC TOMATO PUREE), ORGANIC ONIONS, ORGANIC CHILI POWDER, ORGANIC POTATO FLOUR, ORGANIC JALAPENOS, ORGANIC HONEY, ORGANIC GARLIC, SEA SALT, ORGANIC BLACK PEPPER, ORGANIC GROUND CUMIN, ORGANIC COCOA POWDER, ORGANIC OREGANO), ORGANIC SWEET POTATO" Date available: 07/14/2017 Date last updated by company: 07/14/2017
