Source: USDA Branded Food Products Database Release December 2017 Software v.3.8.6.4 2017-10-02
Report Run at: December 18, 2017 04:43 EST
"Nutrient data for: 45269602, ORGANIC EUROPEAN CHOCOLATE MILK, UPC: 861682000081"
Food Group:  Branded Food Products Database
Common Name:

Nutrient,Unit,Data points,Std. Error,"8.0 ONZ = 237.0g",1Value per 100 g,
Proximates
"Energy",kcal,--,--,249,105
"Protein",g,--,--,10.00,4.22
"Total lipid (fat)",g,--,--,9.01,3.80
"Carbohydrate, by difference",g,--,--,31.00,13.08
"Fiber, total dietary",g,--,--,4.0,1.7
"Sugars, total",g,--,--,30.00,12.66
Minerals
"Calcium, Ca",mg,--,--,261,110
"Potassium, K",mg,--,--,348,147
"Sodium, Na",mg,--,--,109,46
Vitamins
"Vitamin C, total ascorbic acid",mg,--,--,3.1,1.3
"Vitamin A, IU",IU,--,--,303,128
Lipids
"Fatty acids, total saturated",g,--,--,5.996,2.530
"Fatty acids, total trans",g,--,--,0.000,0.000
"Cholesterol",mg,--,--,31,13
Amino Acids
Other
Ingredients
"ORGANIC MILK, ORGANIC CANE SUGAR, ORGANIC FAIR TRADE COCOA, ORGANIC VANILLA, ORGANIC CAROB BEAN GUM, GELLAN GUM" Date available: 10/19/2017 Date last updated by company: 10/19/2017
