Source: USDA Branded Food Products Database Release December 2017 Software v.3.8.6.4 2017-10-02
Report Run at: December 18, 2017 03:49 EST
"Nutrient data for: 45201232, ORGANIC BBQ SAUCE, UPC: 755795755504"
Food Group:  Branded Food Products Database
Common Name:

Nutrient,Unit,Data points,Std. Error,"2.0 Tbsp = 36.0g",1Value per 100 g,
Proximates
"Energy",kcal,--,--,50,139
"Protein",g,--,--,0.00,0.00
"Total lipid (fat)",g,--,--,0.50,1.39
"Carbohydrate, by difference",g,--,--,12.00,33.33
"Fiber, total dietary",g,--,--,0.0,0.0
"Sugars, total",g,--,--,11.00,30.56
Minerals
"Calcium, Ca",mg,--,--,0,0
"Iron, Fe",mg,--,--,0.61,1.69
"Sodium, Na",mg,--,--,60,167
Vitamins
"Vitamin C, total ascorbic acid",mg,--,--,0.0,0.0
"Vitamin A, IU",IU,--,--,169,469
Lipids
"Fatty acids, total saturated",g,--,--,0.000,0.000
"Fatty acids, total trans",g,--,--,0.000,0.000
"Cholesterol",mg,--,--,0,0
Amino Acids
Other
Ingredients
"ORGANIC TOMATO PUREE (WATER, ORGANIC TOMATO PASTE), ORGANIC SUGAR, ORGANIC YELLOW MUSTARD (WATER, ORGANIC MUSTARD SEED, SALT, ORGANIC TURMERIC, ORGANIC PAPRIKA, ORGANIC SPICES), ORGANIC DISTILLED VINEGAR, NATURAL HICKORY SMOKE FLAVOR, SALT, ORGANIC WORCESTERSHIRE SAUCE (ORGANIC DISTILLED VINEGAR, WATER, ORGANIC MOLASSES, SALT, ORGANIC SUGAR, ORGANIC GARLIC POWDER, ORGANIC SPICES, XANTHAN GUM, ORGANIC ONION POWDER, ORGANIC CARAMEL COLOR), ORGANIC MOLASSES, ORGANIC CORN STARCH, ORGANIC SOYBEAN OIL, ORGANIC GARLIC POWDER, ORGANIC ONION POWDER, ORGANIC CRUSHED RED PEPPERS, XANTHAN GUM, ORGANIC CARAMEL COLOR." Date available: 08/11/2017 Date last updated by company: 08/11/2017
