Source: USDA Branded Food Products Database Release December 2017 Software v.3.8.6.4 2017-10-02
Report Run at: December 18, 2017 06:00 EST
"Nutrient data for: 45234674, ORGANIC PITTED KALAMATA OLIVES, UPC: 607959300047"
Food Group:  Branded Food Products Database
Common Name:

Nutrient,Unit,Data points,Std. Error,"6.0 OLIVES = 15.0g",1Value per 100 g,
Proximates
"Energy",kcal,--,--,35,233
"Protein",g,--,--,1.00,6.67
"Total lipid (fat)",g,--,--,3.00,20.00
"Carbohydrate, by difference",g,--,--,1.00,6.67
Minerals
"Sodium, Na",mg,--,--,120,800
Vitamins
Lipids
"Fatty acids, total saturated",g,--,--,0.500,3.330
"Fatty acids, total trans",g,--,--,0.000,0.000
Amino Acids
Other
Ingredients
"KALAMATA OLIVES*, WATER, SEA SALT, VINEGAR*." Date available: 06/24/2017 Date last updated by company: 06/24/2017
