Source: USDA Branded Food Products Database Release December 2017 Software v.3.8.6.4 2017-10-02
Report Run at: December 18, 2017 04:38 EST
"Nutrient data for: 45196842, ORGANIC DRESSING & MARINADE, UPC: 070038640776"
Food Group:  Branded Food Products Database
Common Name:

Nutrient,Unit,Data points,Std. Error,"2.0 Tbsp = 30.0g",1Value per 100 g,
Proximates
"Energy",kcal,--,--,110,367
"Protein",g,--,--,0.00,0.00
"Total lipid (fat)",g,--,--,10.00,33.33
"Carbohydrate, by difference",g,--,--,4.00,13.33
"Fiber, total dietary",g,--,--,0.0,0.0
"Sugars, total",g,--,--,4.00,13.33
Minerals
"Calcium, Ca",mg,--,--,0,0
"Iron, Fe",mg,--,--,0.00,0.00
"Sodium, Na",mg,--,--,220,733
Vitamins
"Vitamin C, total ascorbic acid",mg,--,--,4.0,13.3
"Vitamin A, IU",IU,--,--,0,0
Lipids
"Fatty acids, total saturated",g,--,--,1.500,5.000
"Fatty acids, total trans",g,--,--,0.000,0.000
"Cholesterol",mg,--,--,0,0
Amino Acids
Other
Ingredients
"ORGANIC SOYBEAN OIL, WATER, ORGANIC CIDER VINEGAR, ORGANIC SOY SAUCE (WATER, ORGANIC SOYBEANS, ORGANIC WHEAT, SALT), ORGANIC EVAPORATED CANE SUGAR, ORGANIC ORANGE JUICE CONCENTRATE, ORGANIC DIJON MUSTARD (ORGANIC APPLE CIDER VINEGAR, WATER, ORGANIC MUSTARD SEED, SALT, ORGANIC SPICES), ORGANIC TOASTED SESAME OIL, ORGANIC GINGER, ORGANIC GARLIC, CITRIC ACID, ORGANIC BLACK PEPPER, ORGANIC OREGANO, XANTHAN GUM, ORGANIC BASIL, ORGANIC ROSEMARY EXTRACT." Date available: 07/14/2017 Date last updated by company: 07/14/2017
