Source: USDA Branded Food Products Database Release December 2017 Software v.3.8.6.4 2017-10-02
Report Run at: December 18, 2017 03:50 EST
"Nutrient data for: 45326709, ORGANIC BELGIAN SEMI-SWEET CHOCOLATE CHIPS, UPC: 711535511038"
Food Group:  Branded Food Products Database
Common Name:

Nutrient,Unit,Data points,Std. Error,"1 Tbsp = 15.0g",1Value per 100 g,
Proximates
"Energy",kcal,--,--,70,467
"Protein",g,--,--,1.00,6.67
"Total lipid (fat)",g,--,--,4.50,30.00
"Carbohydrate, by difference",g,--,--,10.00,66.67
"Fiber, total dietary",g,--,--,1.0,6.7
"Sugars, total",g,--,--,8.00,53.33
Minerals
"Calcium, Ca",mg,--,--,6,40
"Iron, Fe",mg,--,--,0.40,2.67
"Sodium, Na",mg,--,--,0,0
Vitamins
"Vitamin D",IU,--,--,0,0
Lipids
"Fatty acids, total saturated",g,--,--,2.501,16.670
"Fatty acids, total trans",g,--,--,0.000,0.000
"Cholesterol",mg,--,--,0,0
Amino Acids
Other
Ingredients
"ORGANIC SUGAR, ORGANIC CHOCOLATE LIQUOR, ORGANIC COCOA BUTTER, AND ORGANIC VANILLA POWDER." Date available: 10/18/2017 Date last updated by company: 10/18/2017
