Source: USDA Branded Food Products Database Release December 2017 Software v.3.8.6.4 2017-10-02
Report Run at: December 18, 2017 07:28 EST
"Nutrient data for: 45079795, ORGANIC WHOLE KERNEL SWEET CORN, UPC: 099482441593"
Food Group:  Branded Food Products Database
Common Name:

Nutrient,Unit,Data points,Std. Error,"0.5 cup = 125.0g",1Value per 100 g,
Proximates
"Energy",kcal,--,--,70,56
"Protein",g,--,--,2.00,1.60
"Total lipid (fat)",g,--,--,1.50,1.20
"Carbohydrate, by difference",g,--,--,9.00,7.20
"Fiber, total dietary",g,--,--,2.0,1.6
"Sugars, total",g,--,--,7.00,5.60
Minerals
"Calcium, Ca",mg,--,--,0,0
"Iron, Fe",mg,--,--,0.38,0.30
"Potassium, K",mg,--,--,160,128
"Sodium, Na",mg,--,--,10,8
Vitamins
"Vitamin C, total ascorbic acid",mg,--,--,3.8,3.0
"Vitamin A, IU",IU,--,--,0,0
Lipids
"Fatty acids, total saturated",g,--,--,0.000,0.000
"Fatty acids, total trans",g,--,--,0.000,0.000
"Cholesterol",mg,--,--,0,0
Amino Acids
Other
Ingredients
"ORGANIC SWEET CORN, WATER." Date available: 06/24/2017 Date last updated by company: 06/24/2017
