Source: USDA Branded Food Products Database Release December 2017 Software v.3.8.6.4 2017-10-02
Report Run at: December 18, 2017 06:52 EST
"Nutrient data for: 45221885, ORGANIC SUPERFOODS GREEK YOGURT, UPC: 819573011340"
Food Group:  Branded Food Products Database
Common Name:

Nutrient,Unit,Data points,Std. Error,"1 POUCH = 90.0g",1Value per 100 g,
Proximates
"Energy",kcal,--,--,70,78
"Protein",g,--,--,2.00,2.22
"Total lipid (fat)",g,--,--,1.00,1.11
"Carbohydrate, by difference",g,--,--,14.00,15.56
"Fiber, total dietary",g,--,--,2.0,2.2
"Sugars, total",g,--,--,11.00,12.22
Minerals
"Calcium, Ca",mg,--,--,20,22
"Iron, Fe",mg,--,--,1.36,1.51
"Sodium, Na",mg,--,--,15,17
Vitamins
"Vitamin C, total ascorbic acid",mg,--,--,22.7,25.2
"Vitamin A, IU",IU,--,--,189,210
Lipids
"Fatty acids, total saturated",g,--,--,0.504,0.560
"Fatty acids, total trans",g,--,--,0.000,0.000
"Cholesterol",mg,--,--,5,6
Amino Acids
Other
Ingredients
"ORGANIC APPLE PUREE, ORGANIC APPLE PUREE CONCENTRATE, ORGANIC GREEK WHOLE MILK YOGURT (ORGANIC CULTURED WHOLE MILK), ORGANIC STRAWBERRY PUREE, WATER, CONTAINS 0.5% OR LESS OF THE FOLLOWING: ORGANIC PURPLE CARROT JUICE CONCENTRATE (FOR COLOR), PECTIN, NATURAL FLAVOR, ASCORBIC ACID (VITAMIN C), CITRIC ACID, MALIC ACID." Date available: 07/14/2017 Date last updated by company: 07/14/2017
