Source: USDA Branded Food Products Database Release December 2017 Software v.3.8.6.4 2017-10-02
Report Run at: December 18, 2017 05:36 EST
"Nutrient data for: 45239512, ORGANIC MAPLE SYRUP, UPC: 085239031988"
Food Group:  Branded Food Products Database
Common Name:

Nutrient,Unit,Data points,Std. Error,"0.25 cup = 60.0g",1Value per 100 g,
Proximates
"Energy",kcal,--,--,200,333
"Protein",g,--,--,0.00,0.00
"Total lipid (fat)",g,--,--,0.00,0.00
"Carbohydrate, by difference",g,--,--,53.00,88.33
"Sugars, total",g,--,--,53.00,88.33
Minerals
"Sodium, Na",mg,--,--,5,8
Vitamins
Lipids
Amino Acids
Other
Ingredients
"ORGANIC PURE MAPLE SYRUP." Date available: 07/14/2017 Date last updated by company: 07/14/2017
