Source: USDA Branded Food Products Database Release December 2017 Software v.3.8.6.4 2017-10-02
Report Run at: December 18, 2017 03:38 EST
"Nutrient data for: 45216652, ORGANIC APPLE JUICE CONCENTRATE, UPC: 021908965116"
Food Group:  Branded Food Products Database
Common Name:

Nutrient,Unit,Data points,Std. Error,"8.0 FL. OZ. (240ML) | CONC., RECON. = 60.0g",1Value per 100 g,
Proximates
"Energy",kcal,--,--,120,200
"Protein",g,--,--,0.00,0.00
"Total lipid (fat)",g,--,--,0.00,0.00
"Carbohydrate, by difference",g,--,--,29.00,48.33
"Sugars, total",g,--,--,27.00,45.00
Minerals
"Potassium, K",mg,--,--,280,467
"Sodium, Na",mg,--,--,10,17
Vitamins
Lipids
Amino Acids
Other
Ingredients
"ORGANIC APPLE JUICE CONCENTRATE, WATER." Date available: 09/22/2017 Date last updated by company: 09/22/2017
