Source: USDA Branded Food Products Database Release December 2017 Software v.3.8.6.4 2017-10-02
Report Run at: December 18, 2017 04:02 EST
"Nutrient data for: 45050227, ORGANIC 85% CACAO EXTRA DARK CHOCOLATE BAR, UPC: 085239558010"
Food Group:  Branded Food Products Database
Common Name:

Nutrient,Unit,Data points,Std. Error,"0.5 BAR = 42.0g",1Value per 100 g,
Proximates
"Energy",kcal,--,--,280,667
"Protein",g,--,--,2.00,4.76
"Total lipid (fat)",g,--,--,25.00,59.52
"Carbohydrate, by difference",g,--,--,13.00,30.95
"Fiber, total dietary",g,--,--,3.0,7.1
"Sugars, total",g,--,--,8.00,19.05
Minerals
"Calcium, Ca",mg,--,--,0,0
"Iron, Fe",mg,--,--,2.14,5.10
"Sodium, Na",mg,--,--,15,36
Vitamins
"Vitamin C, total ascorbic acid",mg,--,--,0.0,0.0
"Vitamin A, IU",IU,--,--,0,0
Lipids
"Fatty acids, total saturated",g,--,--,14.998,35.710
"Fatty acids, total trans",g,--,--,0.000,0.000
"Cholesterol",mg,--,--,0,0
Amino Acids
Other
Ingredients
"DARK CHOCOLATE* (COCOA MASS*, COCOA BUTTER*, RAW CANE SUGAR*, SUNFLOWER LECITHIN [EMULSIFIER]*), COCOA BUTTER*. *FROM ORGANIC AGRICULTURE" Date available: 06/25/2017 Date last updated by company: 06/25/2017
