Source: USDA Branded Food Products Database Release December 2017 Software v.3.8.6.4 2017-10-02
Report Run at: December 18, 2017 03:33 EST
"Nutrient data for: 45333747, ORGAIN, ORGANIC PROTEIN NUTRITIONAL SHAKE, UPC: 851770003414"
Food Group:  Branded Food Products Database
Common Name:

Nutrient,Unit,Data points,Std. Error,"11.0 OZA = 330.0g",1Value per 100 g,
Proximates
"Energy",kcal,--,--,148,45
"Protein",g,--,--,25.01,7.58
"Total lipid (fat)",g,--,--,3.00,0.91
"Carbohydrate, by difference",g,--,--,7.99,2.42
"Fiber, total dietary",g,--,--,1.0,0.3
"Sugars, total",g,--,--,0.99,0.30
Minerals
"Calcium, Ca",mg,--,--,700,212
"Iron, Fe",mg,--,--,0.59,0.18
"Potassium, K",mg,--,--,399,121
"Sodium, Na",mg,--,--,261,79
Vitamins
"Vitamin C, total ascorbic acid",mg,--,--,0.0,0.0
"Vitamin A, IU",IU,--,--,0,0
Lipids
"Fatty acids, total saturated",g,--,--,0.495,0.150
"Cholesterol",mg,--,--,26,8
Amino Acids
Other
Ingredients
"FILTERED WATER, ORGAIN ORGANIC PROTEIN BLEND (ORGANIC GRASS FED MILK PROTEIN CONCENTRATE, ORGANIC WHEY PROTEIN CONCENTRATE), ORGANIC ERYTHRITOL, ORGANIC HIGH OLEIC SUNFLOWER OIL, ORGANIC NATURAL FLAVORS, ORGANIC RICE BRAN EXTRACT, POTASSIUM CITRATE, TRICALCIUM PHOSPHATE, ORGANIC INULIN, POTASSIUM CHLORIDE, SEA SALT, ORGANIC LOCUST BEAN, ORGANIC AGAR GUM, GELLAN GUM, SODIUM PHOSPHATE, ORGANIC STEVIA, MONK FRUIT EXTRACT." Date available: 07/14/2017 Date last updated by company: 07/14/2017
