Source: USDA Branded Food Products Database Release December 2017 Software v.3.8.6.4 2017-10-02
Report Run at: December 18, 2017 04:28 EST
"Nutrient data for: 45150397, ORGANIC CRUNCHY KALE, UPC: 854615002481"
Food Group:  Branded Food Products Database
Common Name:

Nutrient,Unit,Data points,Std. Error,"0.5 ONZ = 14.0g",1Value per 100 g,
Proximates
"Energy",kcal,--,--,66,471
"Protein",g,--,--,2.50,17.86
"Total lipid (fat)",g,--,--,4.50,32.14
"Carbohydrate, by difference",g,--,--,5.50,39.29
"Fiber, total dietary",g,--,--,1.0,7.1
"Sugars, total",g,--,--,0.50,3.57
Minerals
"Calcium, Ca",mg,--,--,50,357
"Iron, Fe",mg,--,--,3.86,27.55
"Sodium, Na",mg,--,--,73,521
Vitamins
"Vitamin C, total ascorbic acid",mg,--,--,130.7,933.7
"Vitamin A, IU",IU,--,--,16607,118621
Lipids
"Fatty acids, total saturated",g,--,--,0.500,3.570
"Fatty acids, total trans",g,--,--,0.000,0.000
"Cholesterol",mg,--,--,0,0
Amino Acids
Other
Ingredients
"*KALE, *RED BELL PEPPERS, *SUNFLOWER SEEDS, *CASHEWS, *LEMON JUICE, *JALAPENOS, *CHICKPEA MISO (RICE, CHICKPEAS, SEA SALT, WATER, KOJI SPORES), HIMALAYAN SEA SALT, *CAYENNE PEPPER." Date available: 10/13/2017 Date last updated by company: 10/13/2017
