Source: USDA Branded Food Products Database Release December 2017 Software v.3.8.6.4 2017-10-02
Report Run at: December 18, 2017 03:57 EST
"Nutrient data for: 45277186, ORGANIC BREAD & BUTTER PICKLE CHIPS, UPC: 725439941648"
Food Group:  Branded Food Products Database
Common Name:

Nutrient,Unit,Data points,Std. Error,"5.0 SLICES | ABOUT = 28.0g",1Value per 100 g,
Proximates
"Energy",kcal,--,--,30,107
"Protein",g,--,--,0.00,0.00
"Total lipid (fat)",g,--,--,0.00,0.00
"Carbohydrate, by difference",g,--,--,7.00,25.00
"Sugars, total",g,--,--,7.00,25.00
Minerals
"Sodium, Na",mg,--,--,90,321
Vitamins
Lipids
Amino Acids
Other
Ingredients
"CERTIFIED ORGANICALLY GROWN FRESH CUCUMBERS, ORGANIC SUGAR, WATER, ORGANIC VINEGAR, SALT, ORGANIC SPICES, DEHYDRATED ORGANIC ONIONS, CALCIUM CHLORIDE, NATURAL FLAVORS, ORGANIC TURMERIC (COLOR)." Date available: 07/14/2017 Date last updated by company: 07/14/2017
