Source: USDA Branded Food Products Database Release December 2017 Software v.3.8.6.4 2017-10-02
Report Run at: December 18, 2017 03:57 EST
"Nutrient data for: 45148345, ORGANIC BONE BROTH, UPC: 052603056069"
Food Group:  Branded Food Products Database
Common Name:

Nutrient,Unit,Data points,Std. Error,"240.0 ML = 8.0g",1Value per 100 g,
Proximates
"Energy",kcal,--,--,1,15
"Protein",g,--,--,0.30,3.75
"Total lipid (fat)",g,--,--,0.00,0.00
"Carbohydrate, by difference",g,--,--,0.00,0.00
"Fiber, total dietary",g,--,--,0.0,0.0
"Sugars, total",g,--,--,0.00,0.00
Minerals
"Calcium, Ca",mg,--,--,1,8
"Iron, Fe",mg,--,--,0.00,0.00
"Sodium, Na",mg,--,--,3,35
Vitamins
"Vitamin C, total ascorbic acid",mg,--,--,0.0,0.0
"Vitamin A, IU",IU,--,--,0,0
Lipids
"Fatty acids, total saturated",g,--,--,0.000,0.000
"Fatty acids, total trans",g,--,--,0.000,0.000
"Cholesterol",mg,--,--,0,0
Amino Acids
Other
Ingredients
"TURKEY STOCK (WATER, TURKEY*)*, ONION*, CIDER VINEGAR*, ROSEMARY EXTRACT*." Date available: 10/13/2017 Date last updated by company: 10/13/2017
