Source: USDA Branded Food Products Database Release December 2017 Software v.3.8.6.4 2017-10-02
Report Run at: December 18, 2017 04:10 EST
"Nutrient data for: 45291839, ORGANIC CHIA SEEDS, UPC: 856220004362"
Food Group:  Branded Food Products Database
Common Name:

Nutrient,Unit,Data points,Std. Error,"3.0 Tbsp = 30.0g",1Value per 100 g,
Proximates
"Energy",kcal,--,--,160,533
"Protein",g,--,--,5.00,16.67
"Total lipid (fat)",g,--,--,10.00,33.33
"Carbohydrate, by difference",g,--,--,14.00,46.67
"Fiber, total dietary",g,--,--,12.0,40.0
"Sugars, total",g,--,--,0.00,0.00
Minerals
"Calcium, Ca",mg,--,--,200,667
"Iron, Fe",mg,--,--,5.40,18.00
"Sodium, Na",mg,--,--,5,17
Vitamins
"Vitamin C, total ascorbic acid",mg,--,--,7.2,24.0
"Vitamin A, IU",IU,--,--,750,2500
Lipids
"Fatty acids, total saturated",g,--,--,0.999,3.330
"Fatty acids, total trans",g,--,--,0.000,0.000
"Cholesterol",mg,--,--,0,0
Amino Acids
Other
Ingredients
"ORGANIC CHIA SEEDS" Date available: 07/14/2017 Date last updated by company: 07/14/2017
