Source: USDA Branded Food Products Database Release December 2017 Software v.3.8.6.4 2017-10-02
Report Run at: December 18, 2017 05:45 EST
"Nutrient data for: 45280666, ORGANIC MULTIGRAIN BREAD, UPC: 082391000036"
Food Group:  Branded Food Products Database
Common Name:

Nutrient,Unit,Data points,Std. Error,"1 SLICE = 33.0g",1Value per 100 g,
Proximates
"Energy",kcal,--,--,90,273
"Protein",g,--,--,4.00,12.12
"Total lipid (fat)",g,--,--,1.50,4.55
"Carbohydrate, by difference",g,--,--,16.00,48.48
"Fiber, total dietary",g,--,--,2.0,6.1
"Sugars, total",g,--,--,3.00,9.09
Minerals
"Calcium, Ca",mg,--,--,0,0
"Iron, Fe",mg,--,--,1.09,3.31
"Sodium, Na",mg,--,--,135,409
Vitamins
"Vitamin C, total ascorbic acid",mg,--,--,0.0,0.0
"Vitamin A, IU",IU,--,--,0,0
Lipids
"Fatty acids, total saturated",g,--,--,0.000,0.000
"Fatty acids, total trans",g,--,--,0.000,0.000
"Cholesterol",mg,--,--,0,0
Amino Acids
Other
Ingredients
"ORGANIC WHOLE GRAIN AND SEED BLEND (ORGANIC OATS, ORGANIC CRACKED WHEAT, ORGANIC BARLEY FLAKES, ORGANIC TRITICALE FLAKES, ORGANIC SOFT WHITE WHEAT FLAKES, ORGANIC RYE FLAKES, ORGANIC AMARANTH, ORGANIC BROWN FLAX SEED, ORGANIC YELLOW CORN MEAL, ORGANIC WHEAT BRAN), FILTERED WATER, ORGANIC ENRICHED UNBLEACHED WHEAT FLOUR (WHEAT FLOUR, NIACIN, REDUCED IRON, THIAMIN MONONITRATE, RIBOFLAVIN AND FOLIC ACID) ORGANIC WHOLE WHEAT FLOUR, ORGANIC DRIED CANE SYRUP, YEAST, ORGANIC VITAL WHEAT GLUTEN, ORGANIC BROWN SUGAR, CONTAINS 2% OR LESS OF EACH OF THE FOLLOWING: ORGANIC SEED BLEND (ORGANIC WHOLE BROWN FLAX SEEDS, ORGANIC RAW SUNFLOWER SEED KERNELS, ORGANIC NATURAL BROWN SESAME SEEDS, ORGANIC NATURAL BLACK SESAME SEEDS, ORGANIC NATURAL BLUE POPPY SEEDS, ORGANIC QUINOA, ORGANIC RED QUINOA, ORGANIC BLACK QUINOA), ORGANIC WHOLE GRAIN OATS, ORGANIC SUNFLOWER SEEDS, SEA SALT, ORGANIC SOYBEAN OIL, ORGANIC CULTURED WHEAT FLOUR, ENZYMES, ASCORBIC ACID." Date available: 07/14/2017 Date last updated by company: 07/14/2017
