Source: USDA Branded Food Products Database Release December 2017 Software v.3.8.6.4 2017-10-02
Report Run at: December 18, 2017 03:52 EST
"Nutrient data for: 45253738, ORGANIC BLACK BEAN SPAGHETTI, UPC: 854183006003"
Food Group:  Branded Food Products Database
Common Name:

Nutrient,Unit,Data points,Std. Error,"2.0 ONZ = 56.0g",1Value per 100 g,
Proximates
"Energy",kcal,--,--,215,384
"Protein",g,--,--,25.00,44.64
"Total lipid (fat)",g,--,--,2.00,3.57
"Carbohydrate, by difference",g,--,--,23.00,41.07
"Fiber, total dietary",g,--,--,12.0,21.4
"Sugars, total",g,--,--,4.00,7.14
Minerals
"Calcium, Ca",mg,--,--,150,268
"Iron, Fe",mg,--,--,14.40,25.71
"Potassium, K",mg,--,--,1267,2262
"Sodium, Na",mg,--,--,4,7
Vitamins
"Vitamin C, total ascorbic acid",mg,--,--,0.0,0.0
"Vitamin A, IU",IU,--,--,0,0
Lipids
"Fatty acids, total saturated",g,--,--,1.501,2.680
"Fatty acids, total trans",g,--,--,0.000,0.000
"Cholesterol",mg,--,--,0,0
Amino Acids
Other
Ingredients
"ORGANIC BLACK BEANS." Date available: 10/13/2017 Date last updated by company: 10/13/2017
