Source: USDA Branded Food Products Database Release December 2017 Software v.3.8.6.4 2017-10-02
Report Run at: December 18, 2017 06:40 EST
"Nutrient data for: 45219431, ORGANIC SOURDOUGH ROLLS, UPC: 077890340448"
Food Group:  Branded Food Products Database
Common Name:

Nutrient,Unit,Data points,Std. Error,"1 ROLL = 85.0g",1Value per 100 g,
Proximates
"Energy",kcal,--,--,220,259
"Protein",g,--,--,8.00,9.41
"Total lipid (fat)",g,--,--,0.50,0.59
"Carbohydrate, by difference",g,--,--,46.00,54.12
"Fiber, total dietary",g,--,--,2.0,2.4
"Sugars, total",g,--,--,1.00,1.18
Minerals
"Calcium, Ca",mg,--,--,0,0
"Iron, Fe",mg,--,--,1.06,1.25
"Sodium, Na",mg,--,--,440,518
Vitamins
"Vitamin C, total ascorbic acid",mg,--,--,0.0,0.0
"Vitamin A, IU",IU,--,--,0,0
Lipids
"Fatty acids, total saturated",g,--,--,0.000,0.000
"Fatty acids, total trans",g,--,--,0.000,0.000
"Cholesterol",mg,--,--,0,0
Amino Acids
Other
Ingredients
"ORGANIC WHEAT FLOUR, WATER, CONTAINS 2% OR LESS OF: SEA SALT, YEAST." Date available: 07/14/2017 Date last updated by company: 07/14/2017
