Source: USDA Branded Food Products Database Release December 2017 Software v.3.8.6.4 2017-10-02
Report Run at: December 18, 2017 05:53 EST
"Nutrient data for: 45196187, ORGANIC PASTA SAUCE, UPC: 046567030098"
Food Group:  Branded Food Products Database
Common Name:

Nutrient,Unit,Data points,Std. Error,"0.5 cup = 125.0g",1Value per 100 g,
Proximates
"Energy",kcal,--,--,110,88
"Protein",g,--,--,2.00,1.60
"Total lipid (fat)",g,--,--,8.00,6.40
"Carbohydrate, by difference",g,--,--,8.00,6.40
"Fiber, total dietary",g,--,--,2.0,1.6
"Sugars, total",g,--,--,4.00,3.20
Minerals
"Calcium, Ca",mg,--,--,100,80
"Iron, Fe",mg,--,--,0.76,0.61
"Sodium, Na",mg,--,--,450,360
Vitamins
"Vitamin C, total ascorbic acid",mg,--,--,12.6,10.1
"Vitamin A, IU",IU,--,--,318,254
Lipids
"Fatty acids, total saturated",g,--,--,1.500,1.200
"Fatty acids, total trans",g,--,--,0.000,0.000
"Cholesterol",mg,--,--,5,4
Amino Acids
Other
Ingredients
"ITALIAN VINE RIPENED ORGANIC TOMATOES (ORGANIC DICED, ORGANIC JUICE), ITALIAN ORGANIC WHOLE CHERRY TOMATOES, ORGANIC TOMATO PASTE, ORGANIC EXTRA VIRGIN OLIVE OI, ORGANIC PARMIGIANO REGGIANO CHEESE (ORGANIC COW'S MILK, RENNET, SALT), ORGANIC ONION, SALT, ORGANIC CARROTS, CITRIC ACID, ORGANIC GROUND BLACK PEPPER." Date available: 07/14/2017 Date last updated by company: 07/14/2017
