Source: USDA Branded Food Products Database Release December 2017 Software v.3.8.6.4 2017-10-02
Report Run at: December 18, 2017 06:22 EST
"Nutrient data for: 45273170, ORGANIC RICE CAKES, UPC: 073416530904"
Food Group:  Branded Food Products Database
Common Name:

Nutrient,Unit,Data points,Std. Error,"1 CAKE = 21.0g",1Value per 100 g,
Proximates
"Energy",kcal,--,--,80,381
"Protein",g,--,--,2.00,9.52
"Total lipid (fat)",g,--,--,0.50,2.38
"Carbohydrate, by difference",g,--,--,17.00,80.95
"Fiber, total dietary",g,--,--,1.0,4.8
"Sugars, total",g,--,--,2.00,9.52
Minerals
"Calcium, Ca",mg,--,--,0,0
"Iron, Fe",mg,--,--,0.86,4.08
"Sodium, Na",mg,--,--,10,48
Vitamins
"Vitamin C, total ascorbic acid",mg,--,--,0.0,0.0
"Vitamin A, IU",IU,--,--,0,0
Lipids
"Fatty acids, total saturated",g,--,--,0.000,0.000
"Fatty acids, total trans",g,--,--,0.000,0.000
"Cholesterol",mg,--,--,0,0
Amino Acids
Other
Ingredients
"ORGANIC WHOLE GRAIN BROWN RICE, ORGANIC EVAPORATED CANE SYRUP, ORGANIC NATURAL FLAVOR, ORGANIC HONEY, ORGANIC HONEY TYPE FLAVOR, SEA SALT." Date available: 10/04/2017 Date last updated by company: 10/04/2017
