Source: USDA Branded Food Products Database Release December 2017 Software v.3.8.6.4 2017-10-02
Report Run at: December 18, 2017 04:33 EST
"Nutrient data for: 45196494, ORGANIC DARK RED KIDNEY BEANS, UPC: 046567032108"
Food Group:  Branded Food Products Database
Common Name:

Nutrient,Unit,Data points,Std. Error,"0.5 cup = 125.0g",1Value per 100 g,
Proximates
"Energy",kcal,--,--,110,88
"Protein",g,--,--,7.00,5.60
"Total lipid (fat)",g,--,--,0.00,0.00
"Carbohydrate, by difference",g,--,--,20.00,16.00
"Fiber, total dietary",g,--,--,6.0,4.8
"Sugars, total",g,--,--,2.00,1.60
Minerals
"Calcium, Ca",mg,--,--,40,32
"Iron, Fe",mg,--,--,1.50,1.20
"Sodium, Na",mg,--,--,140,112
Vitamins
"Vitamin C, total ascorbic acid",mg,--,--,0.0,0.0
"Vitamin A, IU",IU,--,--,0,0
Lipids
"Fatty acids, total saturated",g,--,--,0.000,0.000
"Fatty acids, total trans",g,--,--,0.000,0.000
"Cholesterol",mg,--,--,0,0
Amino Acids
Other
Ingredients
"ORGANIC KIDNEY BEANS, WATER, SEA SALT." Date available: 07/14/2017 Date last updated by company: 07/14/2017
