Source: USDA Branded Food Products Database Release December 2017 Software v.3.8.6.4 2017-10-02
Report Run at: December 18, 2017 04:08 EST
"Nutrient data for: 45288471, ORGANIC CHAI SEED, UPC: 492610211288"
Food Group:  Branded Food Products Database
Common Name:

Nutrient,Unit,Data points,Std. Error,"1 tsp = 4.5g",1Value per 100 g,
Proximates
"Energy",kcal,--,--,25,556
"Protein",g,--,--,1.00,22.22
"Total lipid (fat)",g,--,--,1.00,22.22
"Carbohydrate, by difference",g,--,--,2.00,44.44
"Fiber, total dietary",g,--,--,2.0,44.4
Minerals
"Sodium, Na",mg,--,--,0,0
Vitamins
Lipids
Amino Acids
Other
Ingredients
"ORGANIC WHOLE CHIA SEEDS." Date available: 08/26/2017 Date last updated by company: 08/26/2017
