Source: USDA Branded Food Products Database Release December 2017 Software v.3.8.6.4 2017-10-02
Report Run at: December 18, 2017 06:40 EST
"Nutrient data for: 45291918, ORGANIC SOURDOUGH EINKORN CRACKERS, UPC: 815421012507"
Food Group:  Branded Food Products Database
Common Name:

Nutrient,Unit,Data points,Std. Error,"18.0 CRACKERS = 30.0g",1Value per 100 g,
Proximates
"Energy",kcal,--,--,130,433
"Protein",g,--,--,3.00,10.00
"Total lipid (fat)",g,--,--,4.00,13.33
"Carbohydrate, by difference",g,--,--,20.00,66.67
"Fiber, total dietary",g,--,--,1.0,3.3
Minerals
"Calcium, Ca",mg,--,--,0,0
"Iron, Fe",mg,--,--,1.20,4.00
"Sodium, Na",mg,--,--,230,767
Vitamins
"Vitamin C, total ascorbic acid",mg,--,--,0.0,0.0
"Vitamin A, IU",IU,--,--,0,0
Lipids
"Fatty acids, total saturated",g,--,--,1.500,5.000
Amino Acids
Other
Ingredients
"ORGANIC EINKORN FLOUR, ORGANIC EINKORN SOURDOUGH STARTER (ORGANIC EINKORN FLOUR, WATER), ORGANIC PALM FRUIT OIL, SEA SALT." Date available: 07/14/2017 Date last updated by company: 07/14/2017
