Source: USDA Branded Food Products Database Release December 2017 Software v.3.8.6.4 2017-10-02
Report Run at: December 18, 2017 05:04 EST
"Nutrient data for: 45227057, ORGANIC GRASSFED GROUND BEEF, UPC: 085239013687"
Food Group:  Branded Food Products Database
Common Name:

Nutrient,Unit,Data points,Std. Error,"4.0 ONZ = 112.0g",1Value per 100 g,
Proximates
"Energy",kcal,--,--,200,179
"Protein",g,--,--,23.00,20.54
"Total lipid (fat)",g,--,--,11.00,9.82
"Carbohydrate, by difference",g,--,--,0.00,0.00
Minerals
"Calcium, Ca",mg,--,--,20,18
"Iron, Fe",mg,--,--,2.05,1.83
"Sodium, Na",mg,--,--,75,67
Vitamins
Lipids
"Fatty acids, total saturated",g,--,--,4.995,4.460
"Fatty acids, total trans",g,--,--,0.997,0.890
"Cholesterol",mg,--,--,75,67
Amino Acids
Other
Ingredients
"ORGANIC BEEF." Date available: 07/14/2017 Date last updated by company: 07/14/2017
