Source: USDA Branded Food Products Database Release December 2017 Software v.3.8.6.4 2017-10-02
Report Run at: December 18, 2017 04:16 EST
"Nutrient data for: 45293546, ORGANIC CINNAMON APPLE SAUCE, UPC: 036192122138"
Food Group:  Branded Food Products Database
Common Name:

Nutrient,Unit,Data points,Std. Error,"1 UNIT = 113.0g",1Value per 100 g,
Proximates
"Energy",kcal,--,--,60,53
"Protein",g,--,--,0.00,0.00
"Total lipid (fat)",g,--,--,0.00,0.00
"Carbohydrate, by difference",g,--,--,17.00,15.04
"Fiber, total dietary",g,--,--,1.0,0.9
"Sugars, total",g,--,--,14.00,12.39
Minerals
"Potassium, K",mg,--,--,130,115
"Sodium, Na",mg,--,--,10,9
Vitamins
"Vitamin C, total ascorbic acid",mg,--,--,37.2,32.9
Lipids
Amino Acids
Other
Ingredients
"ORGANIC APPLES, ORGANIC APPLE JUICE CONCENTRATE, ORGANIC CINNAMON, ASCORBIC ACID (VITAMIN C)." Date available: 07/14/2017 Date last updated by company: 07/14/2017
