Source: USDA Branded Food Products Database Release December 2017 Software v.3.8.6.4 2017-10-02
Report Run at: December 18, 2017 04:07 EST
"Nutrient data for: 45322816, ORGANIC CEREAL, UPC: 070617006207"
Food Group:  Branded Food Products Database
Common Name:

Nutrient,Unit,Data points,Std. Error,"0.75 cup = 30.0g",1Value per 100 g,
Proximates
"Energy",kcal,--,--,120,400
"Protein",g,--,--,3.00,10.00
"Total lipid (fat)",g,--,--,2.00,6.67
"Carbohydrate, by difference",g,--,--,24.00,80.00
"Fiber, total dietary",g,--,--,2.0,6.7
"Sugars, total",g,--,--,10.00,33.33
Minerals
"Calcium, Ca",mg,--,--,100,333
"Iron, Fe",mg,--,--,3.30,11.00
"Magnesium, Mg",mg,--,--,44,147
"Potassium, K",mg,--,--,80,267
"Sodium, Na",mg,--,--,80,267
Vitamins
"Vitamin C, total ascorbic acid",mg,--,--,0.0,0.0
"Vitamin A, IU",IU,--,--,0,0
Lipids
"Fatty acids, total saturated",g,--,--,0.000,0.000
"Fatty acids, total trans",g,--,--,0.000,0.000
"Cholesterol",mg,--,--,0,0
Amino Acids
Other
Ingredients
"ORGANIC WHOLE OAT FLOUR, ORGANIC EVAPORATED CANE SUGAR, ORGANIC NON-GMO CORN FLOUR, ORGANIC OAT BRAN, ORGANIC EXPELLER PRESSED HIGH OLEIC OIL (CANOLA AND/OR SUNFLOWER), ORGANIC APPLE JUICE CONCENTRATE, ORGANIC HONEY, CALCIUM CARBONATE, SEA SALT, ORGANIC GROUND ALMONDS, BAKING SODA, IRON (FERRIC ORTHOPHOSPHATE)." Date available: 07/14/2017 Date last updated by company: 07/14/2017
