Source: USDA Branded Food Products Database Release December 2017 Software v.3.8.6.4 2017-10-02
Report Run at: December 18, 2017 07:11 EST
"Nutrient data for: 45290726, ORGANIC UNSWEETENED VANILLA ALMONDMILK, UPC: 815369013802"
Food Group:  Branded Food Products Database
Common Name:

Nutrient,Unit,Data points,Std. Error,"1 cup = 8.0g",1Value per 100 g,
Proximates
"Energy",kcal,--,--,1,17
"Protein",g,--,--,0.03,0.42
"Total lipid (fat)",g,--,--,0.10,1.25
"Carbohydrate, by difference",g,--,--,0.07,0.83
"Fiber, total dietary",g,--,--,0.0,0.4
"Sugars, total",g,--,--,0.03,0.42
Minerals
"Calcium, Ca",mg,--,--,3,42
"Iron, Fe",mg,--,--,0.01,0.15
"Potassium, K",mg,--,--,2,27
"Sodium, Na",mg,--,--,5,67
Vitamins
"Vitamin C, total ascorbic acid",mg,--,--,0.0,0.0
"Vitamin A, IU",IU,--,--,17,211
"Vitamin D",IU,--,--,3,42
Lipids
"Fatty acids, total saturated",g,--,--,0.000,0.000
"Fatty acids, total trans",g,--,--,0.000,0.000
"Cholesterol",mg,--,--,0,0
Amino Acids
Other
Ingredients
"ORGANIC ALMONDMILK (FILTERED WATER, ORGANIC ALMONDS), TRICALCIUM PHOSPHATE, ORGANIC LOCUST BEAN GUM, ORGANIC VANILLA FLAVOR, SEA SALT, SUNFLOWER LECITHIN, GELLAN GUM, POTASSIUM CITRATE, ORGANIC VANILLA EXTRACT, VITAMIN A PALMITATE, VITAMIN D2, DL-ALPHA-TOCOPHEROL ACETATE (VITAMIN E), VITAMIN B12." Date available: 07/14/2017 Date last updated by company: 07/14/2017
