Source: USDA Branded Food Products Database Release December 2017 Software v.3.8.6.4 2017-10-02
Report Run at: December 18, 2017 04:00 EST
"Nutrient data for: 45174118, ORGANIC BROWNIE MIX, UPC: 041449450216"
Food Group:  Branded Food Products Database
Common Name:

Nutrient,Unit,Data points,Std. Error,"0.062 PACKAGE, ABOUT CUP MIX = 28.0g",1Value per 100 g,
Proximates
"Energy",kcal,--,--,110,393
"Protein",g,--,--,1.00,3.57
"Total lipid (fat)",g,--,--,2.00,7.14
"Carbohydrate, by difference",g,--,--,22.00,78.57
"Fiber, total dietary",g,--,--,1.0,3.6
"Sugars, total",g,--,--,5.00,17.86
Minerals
"Calcium, Ca",mg,--,--,0,0
"Iron, Fe",mg,--,--,1.03,3.67
"Sodium, Na",mg,--,--,120,429
Vitamins
"Vitamin C, total ascorbic acid",mg,--,--,0.0,0.0
"Vitamin A, IU",IU,--,--,0,0
Lipids
"Fatty acids, total saturated",g,--,--,0.501,1.790
"Fatty acids, total trans",g,--,--,0.000,0.000
"Cholesterol",mg,--,--,0,0
Amino Acids
Other
Ingredients
"ORGANIC SUGAR, ORGANIC WHEAT FLOUR, ORGANIC SEMI-SWEET CHOCOLATE (ORGANIC CANE SUGAR, ORGANIC UNSWEETENED CHOCOLATE, ORGANIC COCOA BUTTER, ORGANIC SOY LECITHIN [EMULSIFIER]), ORGANIC COCOA (PROCESSED WITH ALKALI), ORGANIC SOYBEAN OIL. CONTAINS 2% OR LESS OF THE FOLLOWING: SEA SALT, ORGANIC NATURAL FLAVOR, BAKING SODA." Date available: 07/14/2017 Date last updated by company: 07/14/2017
