Source: USDA Branded Food Products Database Release December 2017 Software v.3.8.6.4 2017-10-02
Report Run at: December 18, 2017 05:49 EST
"Nutrient data for: 45091047, ORGANIC 7 NUT & SEED BUTTER, UPC: 894697002085"
Food Group:  Branded Food Products Database
Common Name:

Nutrient,Unit,Data points,Std. Error,"2.0 Tbsp = 33.0g",1Value per 100 g,
Proximates
"Energy",kcal,--,--,190,576
"Protein",g,--,--,7.00,21.21
"Total lipid (fat)",g,--,--,17.00,51.52
"Carbohydrate, by difference",g,--,--,8.00,24.24
"Fiber, total dietary",g,--,--,3.0,9.1
"Sugars, total",g,--,--,1.00,3.03
Minerals
"Calcium, Ca",mg,--,--,39,118
"Iron, Fe",mg,--,--,1.23,3.73
"Potassium, K",mg,--,--,223,676
"Sodium, Na",mg,--,--,30,91
Vitamins
"Vitamin C, total ascorbic acid",mg,--,--,0.0,0.0
"Vitamin A, IU",IU,--,--,0,0
"Vitamin D",IU,--,--,0,0
Lipids
"Fatty acids, total saturated",g,--,--,2.501,7.580
"Fatty acids, total trans",g,--,--,0.000,0.000
"Cholesterol",mg,--,--,0,0
Amino Acids
Other
Ingredients
"PEANUTS*+, CASHEWS*+, ALMONDS*+, FLAX SEEDS*+, BRAZIL NUTS*+, HAZELNUTS*+, SUNFLOWER SEEDS*+, CELTIC SEA SALT" Date available: 07/14/2017 Date last updated by company: 07/14/2017
