Source: USDA Branded Food Products Database Release December 2017 Software v.3.8.6.4 2017-10-02
Report Run at: December 18, 2017 04:48 EST
"Nutrient data for: 45272193, ORGANIC FINELY GROUND FLAXSEED, UPC: 705875800730"
Food Group:  Branded Food Products Database
Common Name:

Nutrient,Unit,Data points,Std. Error,"2.0 Tbsp = 14.0g",1Value per 100 g,
Proximates
"Energy",kcal,--,--,60,429
"Protein",g,--,--,4.00,28.57
"Total lipid (fat)",g,--,--,1.50,10.71
"Carbohydrate, by difference",g,--,--,7.00,50.00
"Fiber, total dietary",g,--,--,4.0,28.6
"Sugars, total",g,--,--,0.00,0.00
Minerals
"Sodium, Na",mg,--,--,5,36
Vitamins
Lipids
"Fatty acids, total saturated",g,--,--,0.643,4.590
"Fatty acids, total trans",g,--,--,0.000,0.000
"Cholesterol",mg,--,--,0,0
Amino Acids
Other
Ingredients
"ORGANIC FLAXSEEDS." Date available: 10/19/2017 Date last updated by company: 10/19/2017
