Source: USDA Branded Food Products Database Release December 2017 Software v.3.8.6.4 2017-10-02
Report Run at: December 18, 2017 06:40 EST
"Nutrient data for: 45261789, ORGANIC SOUP, UPC: 073866572745"
Food Group:  Branded Food Products Database
Common Name:

Nutrient,Unit,Data points,Std. Error,"1 cup = 245.0g",1Value per 100 g,
Proximates
"Energy",kcal,--,--,91,37
"Protein",g,--,--,1.00,0.41
"Total lipid (fat)",g,--,--,1.00,0.41
"Carbohydrate, by difference",g,--,--,16.00,6.53
"Fiber, total dietary",g,--,--,2.0,0.8
"Sugars, total",g,--,--,10.00,4.08
Minerals
"Calcium, Ca",mg,--,--,39,16
"Iron, Fe",mg,--,--,0.71,0.29
"Sodium, Na",mg,--,--,710,290
Vitamins
"Vitamin C, total ascorbic acid",mg,--,--,3.7,1.5
"Vitamin A, IU",IU,--,--,11000,4490
Lipids
"Fatty acids, total saturated",g,--,--,0.000,0.000
"Fatty acids, total trans",g,--,--,0.000,0.000
"Cholesterol",mg,--,--,0,0
Amino Acids
Other
Ingredients
"VEGETABLE STOCK*, (WATER, VEGETABLE BASE* (VEGETABLES* [CARROTS*, TOMATOES*, ONIONS*, POTATOES*, GARLIC*], SEA SALT, DEXTROSE*, EVAPORATED CANE SYRUP*, CANOLA OIL*, SPICES*, TURMERIC*), CARROTS*, ONIONS*, CONTAINS 2% OR LESS OF: SUGAR*, CORN STARCH*, LEMON JUICE*, GARLIC*, CANOLA OIL*, SEA SALT, GINGER ROOT*, TURMERIC* AND SPICES*." Date available: 07/14/2017 Date last updated by company: 07/14/2017
