Source: USDA Branded Food Products Database Release December 2017 Software v.3.8.6.4 2017-10-02
Report Run at: December 18, 2017 04:59 EST
"Nutrient data for: 45136974, ORGANIC GIRL, SMOOTHIE, GREEN CIDER, UPC: 840469110045"
Food Group:  Branded Food Products Database
Common Name:

Nutrient,Unit,Data points,Std. Error,"1 BOTTLE = 296.0g",1Value per 100 g,
Proximates
"Energy",kcal,--,--,189,64
"Protein",g,--,--,7.99,2.70
"Total lipid (fat)",g,--,--,6.99,2.36
"Carbohydrate, by difference",g,--,--,25.99,8.78
"Fiber, total dietary",g,--,--,5.0,1.7
"Sugars, total",g,--,--,20.01,6.76
Minerals
"Calcium, Ca",mg,--,--,59,20
"Iron, Fe",mg,--,--,0.89,0.30
"Sodium, Na",mg,--,--,24,8
"Manganese, Mn",mg,--,--,0.000,0.000
Vitamins
"Vitamin C, total ascorbic acid",mg,--,--,2.1,0.7
"Vitamin A, IU",IU,--,--,0,0
Lipids
Amino Acids
Other
Ingredients
"ORGANIC SPINACH JUICE, ORGANIC APPLE JUICE, WATER, ORGANIC NONFAT GREEK YOGURT (ORGANIC CULTURED PASTEURIZED NONFAT MILK), ORGANIC FUJI APPLES, ORGANIC GREEN CHARD JUICE, ORGANIC UNFILTERED RAW APPLE CIDER VINEGAR, ORGANIC MAPLE SYRUP, ORGANIC BLANCHED ALMONDS, ORGANIC CHIA SEEDS, ORGANIC HEMP SEEDS, ORGANIC VANILLA EXTRACT, ORGANIC CINNAMON." Date available: 10/13/2017 Date last updated by company: 10/13/2017
