Source: USDA Branded Food Products Database Release December 2017 Software v.3.8.6.4 2017-10-02
Report Run at: December 18, 2017 06:06 EST
"Nutrient data for: 45019584, ORGANIC PREMIUM LIGHT SOY PASTE, UPC: 023547400553"
Food Group:  Branded Food Products Database
Common Name:

Nutrient,Unit,Data points,Std. Error,"2.0 tsp = 10.0g",1Value per 100 g,
Proximates
"Energy",kcal,--,--,20,200
"Protein",g,--,--,1.00,10.00
"Total lipid (fat)",g,--,--,0.00,0.00
"Carbohydrate, by difference",g,--,--,3.00,30.00
"Fiber, total dietary",g,--,--,1.0,10.0
"Sugars, total",g,--,--,2.00,20.00
Minerals
"Calcium, Ca",mg,--,--,0,0
"Iron, Fe",mg,--,--,0.00,0.00
"Potassium, K",mg,--,--,1750,17500
"Sodium, Na",mg,--,--,310,3100
Vitamins
"Vitamin D",IU,--,--,0,0
Lipids
"Fatty acids, total saturated",g,--,--,0.000,0.000
"Fatty acids, total trans",g,--,--,0.000,0.000
"Cholesterol",mg,--,--,0,0
Amino Acids
Other
Ingredients
"ORGANIC WHOLE SOYBEANS, ORGANIC HANDMADE RICE KOJI, SUN DRIED SEA SALT, BLUE RIDGE MTN WELL WATER, AND KOJI SPORES." Date available: 07/14/2017 Date last updated by company: 07/14/2017
