Source: USDA Branded Food Products Database Release December 2017 Software v.3.8.6.4 2017-10-02
Report Run at: December 18, 2017 05:53 EST
"Nutrient data for: 45088421, ORGANIC PASTA SAUCE, UPC: 848737000708"
Food Group:  Branded Food Products Database
Common Name:

Nutrient,Unit,Data points,Std. Error,"0.5 cup = 113.0g",1Value per 100 g,
Proximates
"Energy",kcal,--,--,40,35
"Protein",g,--,--,2.00,1.77
"Total lipid (fat)",g,--,--,0.99,0.88
"Carbohydrate, by difference",g,--,--,6.99,6.19
"Fiber, total dietary",g,--,--,2.0,1.8
"Sugars, total",g,--,--,4.00,3.54
Minerals
"Calcium, Ca",mg,--,--,40,35
"Iron, Fe",mg,--,--,1.14,1.01
"Sodium, Na",mg,--,--,431,381
Vitamins
"Vitamin C, total ascorbic acid",mg,--,--,9.5,8.4
"Vitamin A, IU",IU,--,--,318,281
Lipids
"Fatty acids, total saturated",g,--,--,0.000,0.000
"Fatty acids, total trans",g,--,--,0.000,0.000
"Cholesterol",mg,--,--,0,0
Amino Acids
Other
Ingredients
"ORGANIC TOMATO PUREE, ORGANIC TOMATOES, ORGANIC PORTOBELLO MUSHROOMS, SALT, ORGANIC SOYBEAN OIL, ORGANIC SUGAR, ORGANIC BASIL, ORGANIC GARLIC POWDER, ORGANIC ONIONS, ORGANIC GARLIC, ORGANIC MUSHROOM POWDER, ORGANIC OREGANO." Date available: 07/14/2017 Date last updated by company: 07/14/2017
