Source: USDA Branded Food Products Database Release December 2017 Software v.3.8.6.4 2017-10-02
Report Run at: December 18, 2017 07:19 EST
"Nutrient data for: 45268054, ORGANIC VEGGIES, UPC: 716519014765"
Food Group:  Branded Food Products Database
Common Name:

Nutrient,Unit,Data points,Std. Error,"0.25 TRAY = 115.0g",1Value per 100 g,
Proximates
"Energy",kcal,--,--,90,78
"Protein",g,--,--,2.00,1.74
"Total lipid (fat)",g,--,--,6.00,5.22
"Carbohydrate, by difference",g,--,--,8.00,6.96
"Fiber, total dietary",g,--,--,2.0,1.7
"Sugars, total",g,--,--,4.00,3.48
Minerals
"Calcium, Ca",mg,--,--,40,35
"Iron, Fe",mg,--,--,0.31,0.27
"Sodium, Na",mg,--,--,260,226
Vitamins
"Vitamin C, total ascorbic acid",mg,--,--,9.1,7.9
"Vitamin A, IU",IU,--,--,2826,2457
Lipids
"Fatty acids, total saturated",g,--,--,1.000,0.870
"Fatty acids, total trans",g,--,--,0.000,0.000
"Cholesterol",mg,--,--,5,4
Amino Acids
Other
Ingredients
"ORGANIC VEGETABLES (ORGANIC CARROTS, ORGANIC CELERY, ORGANIC BROCCOLI), ORGANIC RANCH DIP (ORGANIC BUTTER MILK, ORGANIC SOYBEAN OIL, WATER, ORGANIC EGG YOLK, ORGANIC DISTILLED VINEGAR, ORGANIC MALTODEXTRIN, SALT, ORGANIC SUGAR, ORGANIC CORN STARCH, ORGANIC DRIED CARROT, ORGANIC DRIED GARLIC,, ORGANIC SKIM MILK POWDER, ORGANIC DRIED ONION, ORGANIC CULTURED DEXTROSE, GUM LACTIC ACID, ORGANIC DRIED BELL PEPPER, ORGANIC SPICES, XANTHAN GUM, ORGANIC GUM, LACTIC ACID, ORGANIC MUSTARD FLOUR, CITRIC ACID, ORGANIC ROSEMARY EXTRACT)." Date available: 07/14/2017 Date last updated by company: 07/14/2017
