Source: USDA Branded Food Products Database Release December 2017 Software v.3.8.6.4 2017-10-02
Report Run at: December 18, 2017 06:35 EST
"Nutrient data for: 45155323, ORGANICS 100% JUICE CRANBERRY BLEND, UPC: 041220335602"
Food Group:  Branded Food Products Database
Common Name:

Nutrient,Unit,Data points,Std. Error,"8.0 OZA = 240.0g",1Value per 100 g,
Proximates
"Energy",kcal,--,--,120,50
"Protein",g,--,--,0.00,0.00
"Total lipid (fat)",g,--,--,0.00,0.00
"Carbohydrate, by difference",g,--,--,30.00,12.50
"Sugars, total",g,--,--,24.00,10.00
Minerals
"Iron, Fe",mg,--,--,0.36,0.15
"Potassium, K",mg,--,--,170,71
"Sodium, Na",mg,--,--,36,15
Vitamins
"Vitamin C, total ascorbic acid",mg,--,--,60.0,25.0
Lipids
Amino Acids
Other
Ingredients
"FILTERED WATER, ORGANIC WHITE GRAPE JUICE CONCENTRATE, ORGANIC PEAR JUICE CONCENTRATE, ORGANIC APPLE JUICE CONCENTRATE, ORGANIC CRANBERRY JUICE CONCENTRATE, ORGANIC NATURAL FLAVOR, ASCORBIC ACID (VITAMIN C)." Date available: 07/14/2017 Date last updated by company: 07/14/2017
