Source: USDA Branded Food Products Database Release December 2017 Software v.3.8.6.4 2017-10-02
Report Run at: December 18, 2017 05:06 EST
"Nutrient data for: 45256966, ORGANIC GREEK YOGURT, UPC: 070852993447"
Food Group:  Branded Food Products Database
Common Name:

Nutrient,Unit,Data points,Std. Error,"5.3 ONZ = 150.0g",1Value per 100 g,
Proximates
"Energy",kcal,--,--,120,80
"Protein",g,--,--,12.00,8.00
"Total lipid (fat)",g,--,--,0.00,0.00
"Carbohydrate, by difference",g,--,--,17.00,11.33
"Fiber, total dietary",g,--,--,1.1,0.7
"Sugars, total",g,--,--,13.99,9.33
Minerals
"Calcium, Ca",mg,--,--,150,100
"Iron, Fe",mg,--,--,0.00,0.00
"Potassium, K",mg,--,--,190,127
"Sodium, Na",mg,--,--,56,37
Vitamins
"Vitamin C, total ascorbic acid",mg,--,--,0.0,0.0
"Vitamin A, IU",IU,--,--,0,0
Lipids
"Fatty acids, total saturated",g,--,--,0.000,0.000
"Fatty acids, total trans",g,--,--,0.000,0.000
"Cholesterol",mg,--,--,10,7
Amino Acids
Other
Ingredients
"CULTURED PASTEURIZED ORGANIC NONFAT GRADE A MILK, ORGANIC STRAWBERRIES, ORGANIC SUGAR, PECTIN, NATURAL FLAVOR, CARROT JUICE (COLOR), ORGANIC LOCUST BEAN GUM, CITRIC ACID, CALCIUM CHLORIDE. LIVE CULTURES: LACTOBACILLUS BULGARICUS, STREPTOCOCCUS THERMOPHILUS, LACTOBACILLUS ACIDOPHILUS, BIFIDUS, LACTOBACILLUS CASEL." Date available: 09/08/2017 Date last updated by company: 09/08/2017
