Source: USDA Branded Food Products Database Release December 2017 Software v.3.8.6.4 2017-10-02
Report Run at: December 18, 2017 05:46 EST
"Nutrient data for: 45059714, ORGANIC MUSTARD, UPC: 036800383838"
Food Group:  Branded Food Products Database
Common Name:

Nutrient,Unit,Data points,Std. Error,"1 tsp = 5.0g",1Value per 100 g,
Proximates
"Energy",kcal,--,--,5,100
"Protein",g,--,--,0.00,0.00
"Total lipid (fat)",g,--,--,0.00,0.00
"Carbohydrate, by difference",g,--,--,0.00,0.00
"Sugars, total",g,--,--,0.00,0.00
Minerals
"Sodium, Na",mg,--,--,120,2400
Vitamins
Lipids
Amino Acids
Other
Ingredients
"WATER, ORGANIC MUSTARD SEEDS, ORGANIC VINEGAR, SALT, ORGANIC TURMERIC, ORGANIC SPICES." Date available: 07/14/2017 Date last updated by company: 07/14/2017
