Source: USDA Branded Food Products Database Release December 2017 Software v.3.8.6.4 2017-10-02
Report Run at: December 18, 2017 07:23 EST
"Nutrient data for: 45257540, ORGANIC WHITE BALSAMIC VINAIGRETTE, UPC: 077890411254"
Food Group:  Branded Food Products Database
Common Name:

Nutrient,Unit,Data points,Std. Error,"2.0 Tbsp = 30.0g",1Value per 100 g,
Proximates
"Energy",kcal,--,--,100,333
"Protein",g,--,--,0.00,0.00
"Total lipid (fat)",g,--,--,10.00,33.33
"Carbohydrate, by difference",g,--,--,3.00,10.00
"Fiber, total dietary",g,--,--,1.0,3.3
"Sugars, total",g,--,--,2.00,6.67
Minerals
"Potassium, K",mg,--,--,10,33
"Sodium, Na",mg,--,--,320,1067
Vitamins
Lipids
"Fatty acids, total saturated",g,--,--,1.500,5.000
Amino Acids
Other
Ingredients
"FILTERED WATER, ORGANIC SOYBEAN OIL, ORGANIC WHITE BALSAMIC VINEGAR (ORGANIC WINE VINEGAR, ORGANIC CONCENTRATED GRAPE MUST [CONTAINS NATURALLY OCCURING SULFITES]), ORGANIC EXTRA VIRGIN OLIVE OIL, ORGANIC WHITE VINEGAR, ORGANIC SUGAR, SALT, ORGANIC ONION PUREE, ORGANICLEMON JUICE CONCENTRATE, ORGANIC GARLIC BLACK PEPPER, ORGANIC PARSLEY, ORGANIC OREGANO, ORGANIC THYME, ORGANIC ROASTED GARLIC FLAVOR, XANTHAN GUM." Date available: 10/19/2017 Date last updated by company: 10/19/2017
