Source: USDA Branded Food Products Database Release December 2017 Software v.3.8.6.4 2017-10-02
Report Run at: December 18, 2017 06:09 EST
"Nutrient data for: 45100794, ORGANIC PURE BLENDED FRUITS & VEGETABLES, UPC: 079893320021"
Food Group:  Branded Food Products Database
Common Name:

Nutrient,Unit,Data points,Std. Error,"3.5 ONZ = 99.0g",1Value per 100 g,
Proximates
"Energy",kcal,--,--,60,61
"Protein",g,--,--,0.00,0.00
"Total lipid (fat)",g,--,--,0.00,0.00
"Carbohydrate, by difference",g,--,--,15.00,15.15
"Fiber, total dietary",g,--,--,2.0,2.0
"Sugars, total",g,--,--,13.00,13.13
Minerals
"Calcium, Ca",mg,--,--,0,0
"Iron, Fe",mg,--,--,0.00,0.00
"Sodium, Na",mg,--,--,10,10
Vitamins
"Vitamin C, total ascorbic acid",mg,--,--,8.5,8.6
"Vitamin A, IU",IU,--,--,505,510
Lipids
"Fatty acids, total saturated",g,--,--,0.000,0.000
"Fatty acids, total trans",g,--,--,0.000,0.000
"Cholesterol",mg,--,--,0,0
Amino Acids
Other
Ingredients
"ORGANIC BLUEBERRY PUREE, ORGANIC APPLE PUREE, ORGANIC CARROT PUREE, ORGANIC APPLE JUICE CONCENTRATE, NATURAL FLAVOR, ORGANIC LEMON JUICE CONCENTRATE, ASCORBIC ACID (VITAMIN C)." Date available: 10/13/2017 Date last updated by company: 10/13/2017
