Source: USDA Branded Food Products Database Release December 2017 Software v.3.8.6.4 2017-10-02
Report Run at: December 18, 2017 07:08 EST
"Nutrient data for: 45184204, ORGANIC TURKEY BURGERS, UPC: 089991602424"
Food Group:  Branded Food Products Database
Common Name:

Nutrient,Unit,Data points,Std. Error,"4.0 ONZ = 112.0g",1Value per 100 g,
Proximates
"Energy",kcal,--,--,170,152
"Protein",g,--,--,22.00,19.64
"Total lipid (fat)",g,--,--,9.00,8.04
"Carbohydrate, by difference",g,--,--,0.00,0.00
Minerals
"Iron, Fe",mg,--,--,0.82,0.73
"Sodium, Na",mg,--,--,65,58
Vitamins
Lipids
"Fatty acids, total saturated",g,--,--,2.005,1.790
"Fatty acids, total trans",g,--,--,0.000,0.000
"Cholesterol",mg,--,--,75,67
Amino Acids
Other
Ingredients
"ORGANIC TURKEY, ROSEMARY EXTRACT." Date available: 07/14/2017 Date last updated by company: 07/14/2017
