Source: USDA Branded Food Products Database Release December 2017 Software v.3.8.6.4 2017-10-02
Report Run at: December 18, 2017 07:06 EST
"Nutrient data for: 45111985, ORGANIC TRILAYER YOGURT, UPC: 052159702526"
Food Group:  Branded Food Products Database
Common Name:

Nutrient,Unit,Data points,Std. Error,"1 CONTAINER = 170.0g",1Value per 100 g,
Proximates
"Energy",kcal,--,--,190,112
"Protein",g,--,--,6.00,3.53
"Total lipid (fat)",g,--,--,6.00,3.53
"Carbohydrate, by difference",g,--,--,29.00,17.06
"Fiber, total dietary",g,--,--,1.0,0.6
"Sugars, total",g,--,--,27.00,15.88
Minerals
"Calcium, Ca",mg,--,--,201,118
"Iron, Fe",mg,--,--,0.00,0.00
"Potassium, K",mg,--,--,280,165
"Sodium, Na",mg,--,--,126,74
Vitamins
"Vitamin C, total ascorbic acid",mg,--,--,0.0,0.0
"Vitamin A, IU",IU,--,--,201,118
Lipids
"Fatty acids, total saturated",g,--,--,3.502,2.060
"Fatty acids, total trans",g,--,--,0.000,0.000
"Cholesterol",mg,--,--,26,15
Amino Acids
Other
Ingredients
"OUR FAMILY RECIPE: CULTURED PASTEURIZED ORGANIC WHOLE MILK, ORGANIC CANE SUGAR, ORGANIC PEARS, ORGANIC HONEY, NATURAL FLAVOR, PECTIN, ORGANIC CAROB BEAN GUM, ORGANIC LEMON JUICE CONCENTRATE, ORGANIC CINNAMON, SEA SALT, ORGANIC NUTMEG, ORGANIC GINGER." Date available: 07/25/2017 Date last updated by company: 07/25/2017
