Source: USDA Branded Food Products Database Release December 2017 Software v.3.8.6.4 2017-10-02
Report Run at: December 18, 2017 04:06 EST
"Nutrient data for: 45192894, ORGANIC CASHEW AMPLIFY DRINK, UPC: 852043003896"
Food Group:  Branded Food Products Database
Common Name:

Nutrient,Unit,Data points,Std. Error,"1 BOTTLE = 295.0g",1Value per 100 g,
Proximates
"Energy",kcal,--,--,201,68
"Protein",g,--,--,4.99,1.69
"Total lipid (fat)",g,--,--,11.00,3.73
"Carbohydrate, by difference",g,--,--,19.00,6.44
"Fiber, total dietary",g,--,--,4.1,1.4
"Sugars, total",g,--,--,14.99,5.08
Minerals
"Calcium, Ca",mg,--,--,41,14
"Iron, Fe",mg,--,--,1.18,0.40
"Magnesium, Mg",mg,--,--,32,11
"Sodium, Na",mg,--,--,30,10
"Zinc, Zn",mg,--,--,1.21,0.41
"Copper, Cu",mg,--,--,0.401,0.136
Vitamins
"Vitamin C, total ascorbic acid",mg,--,--,0.0,0.0
"Vitamin A, IU",IU,--,--,162,55
Lipids
"Fatty acids, total saturated",g,--,--,2.507,0.850
"Fatty acids, total trans",g,--,--,0.000,0.000
"Cholesterol",mg,--,--,0,0
Amino Acids
Other
Ingredients
"FILTERED WATER, ORGANIC CASHEWS, ORGANIC AGAVE SYRUP, ORGANIC VANILLA EXTRACT, ORGANIC CINNAMON, ORGANIC VANILLA SPECKS." Date available: 07/14/2017 Date last updated by company: 07/14/2017
