Source: USDA Branded Food Products Database Release December 2017 Software v.3.8.6.4 2017-10-02
Report Run at: December 18, 2017 04:53 EST
"Nutrient data for: 45138192, ORGANIC FRUIT JUICE DRINK, UPC: 854208005103"
Food Group:  Branded Food Products Database
Common Name:

Nutrient,Unit,Data points,Std. Error,"1 BOTTLE = 354.0g",1Value per 100 g,
Proximates
"Energy",kcal,--,--,170,48
"Protein",g,--,--,0.99,0.28
"Total lipid (fat)",g,--,--,0.50,0.14
"Carbohydrate, by difference",g,--,--,40.00,11.30
"Fiber, total dietary",g,--,--,1.1,0.3
"Sugars, total",g,--,--,29.98,8.47
Minerals
"Calcium, Ca",mg,--,--,39,11
"Iron, Fe",mg,--,--,0.00,0.00
"Sodium, Na",mg,--,--,0,0
Vitamins
"Vitamin C, total ascorbic acid",mg,--,--,12.0,3.4
"Vitamin A, IU",IU,--,--,0,0
Lipids
"Fatty acids, total saturated",g,--,--,0.000,0.000
"Fatty acids, total trans",g,--,--,0.000,0.000
"Cholesterol",mg,--,--,0,0
Amino Acids
Other
Ingredients
"ORGANIC APPLE JUICE, PURIFIED WATER, ORGANIC BANANA PUREE, ORGANIC BLUEBERRY PUREE, ORGANIC STRAWBERRY PUREE, ORGANIC ORANGE JUICE, ORGANIC BLACKBERRY PUREE, ORGANIC LEMON JUICE, ORGANIC CHIA SEED" Date available: 07/14/2017 Date last updated by company: 07/14/2017
