Source: USDA Branded Food Products Database Release December 2017 Software v.3.8.6.4 2017-10-02
Report Run at: December 18, 2017 07:38 EST
"Nutrient data for: 45250067, ORIENTAL TRADING, HELLO KITTY KAWAII COOKIES, UPC: 074601166199"
Food Group:  Branded Food Products Database
Common Name:

Nutrient,Unit,Data points,Std. Error,"0.5 BAG = 30.0g",1Value per 100 g,
Proximates
"Energy",kcal,--,--,120,400
"Protein",g,--,--,1.00,3.33
"Total lipid (fat)",g,--,--,2.00,6.67
"Carbohydrate, by difference",g,--,--,26.00,86.67
"Fiber, total dietary",g,--,--,0.0,0.0
"Sugars, total",g,--,--,7.00,23.33
Minerals
"Calcium, Ca",mg,--,--,10,33
"Iron, Fe",mg,--,--,0.00,0.00
"Sodium, Na",mg,--,--,15,50
Vitamins
"Vitamin C, total ascorbic acid",mg,--,--,0.0,0.0
"Vitamin A, IU",IU,--,--,0,0
Lipids
"Fatty acids, total saturated",g,--,--,0.000,0.000
"Fatty acids, total trans",g,--,--,0.000,0.000
"Cholesterol",mg,--,--,15,50
Amino Acids
Other
Ingredients
"POTATO STARCH, SUGAR, EGG, WHEAT FLOUR, SKIMMED MILK POWDER, HONEY, MALTOSE SYRUP, LACTOSE, FLAVOR (BUTTER FLAVOR, STRAWBERRY FLAVOR), SALT, SOYBEAN LECITHIN, AMMONIUM BICARBONATE, COLOR (FD&C RED NO.40)" Date available: 07/14/2017 Date last updated by company: 07/14/2017
