Source: USDA Branded Food Products Database Release December 2017 Software v.3.8.6.4 2017-10-02
Report Run at: December 18, 2017 07:42 EST
"Nutrient data for: 45206247, ORIGINAL BBQ SAUCE, UPC: 864605000007"
Food Group:  Branded Food Products Database
Common Name:

Nutrient,Unit,Data points,Std. Error,"2.0 Tbsp = 32.0g",1Value per 100 g,
Proximates
"Energy",kcal,--,--,20,62
"Protein",g,--,--,0.00,0.00
"Total lipid (fat)",g,--,--,0.00,0.00
"Carbohydrate, by difference",g,--,--,5.00,15.62
"Fiber, total dietary",g,--,--,0.0,0.0
"Sugars, total",g,--,--,5.00,15.62
Minerals
"Calcium, Ca",mg,--,--,0,0
"Iron, Fe",mg,--,--,0.00,0.00
"Sodium, Na",mg,--,--,85,266
Vitamins
"Vitamin C, total ascorbic acid",mg,--,--,1.2,3.8
"Vitamin A, IU",IU,--,--,0,0
Lipids
"Fatty acids, total saturated",g,--,--,0.000,0.000
"Fatty acids, total trans",g,--,--,0.000,0.000
"Cholesterol",mg,--,--,0,0
Amino Acids
Other
Ingredients
"TOMATOES (TOMATOES, WATER, CITRIC ACID), BROWN SUGAR, APPLE CIDER VINEGAR, ONIONS, MOLASSES, TOMATO PASTE (TOMATOES, CITRIC ACID), GROUND MUSTARD (WATER, MUSTARD SEED, VINEGAR, SALT), LEMON JUICE, ASSORTED PEPPERS, GARLIC, SPICES, GLUTEN-FREE VEGAN SOY SAUCE." Date available: 10/13/2017 Date last updated by company: 10/13/2017
