Source: USDA Branded Food Products Database Release December 2017 Software v.3.8.6.4 2017-10-02
Report Run at: December 18, 2017 08:11 EST
"Nutrient data for: 45089044, ORIGINAL SHELLS CHEESE SAUCE, UPC: 713733953573"
Food Group:  Branded Food Products Database
Common Name:

Nutrient,Unit,Data points,Std. Error,"1 PACKAGE = 68.0g",1Value per 100 g,
Proximates
"Energy",kcal,--,--,220,324
"Protein",g,--,--,7.00,10.29
"Total lipid (fat)",g,--,--,8.00,11.76
"Carbohydrate, by difference",g,--,--,32.00,47.06
"Fiber, total dietary",g,--,--,1.0,1.5
"Sugars, total",g,--,--,4.00,5.88
Minerals
"Calcium, Ca",mg,--,--,150,221
"Iron, Fe",mg,--,--,5.30,7.79
"Potassium, K",mg,--,--,220,324
"Sodium, Na",mg,--,--,600,882
Vitamins
"Vitamin C, total ascorbic acid",mg,--,--,0.0,0.0
"Vitamin A, IU",IU,--,--,0,0
Lipids
"Fatty acids, total saturated",g,--,--,1.999,2.940
"Fatty acids, total monounsaturated",g,--,--,2.999,4.410
"Fatty acids, total polyunsaturated",g,--,--,1.999,2.940
"Fatty acids, total trans",g,--,--,0.000,0.000
"Cholesterol",mg,--,--,5,7
Amino Acids
Other
Ingredients
"ENRICHED MACARONI PRODUCT (WHEAT FLOUR, DURUM FLOUR, NIACIN, FERROUS SULFATE, THIAMIN MONONITRATE, RIBOFLAVIN, FOLIC ACID), CHEESE SAUCE (WATER, CHEDDAR CHEESE [PASTEURIZED MILK, CHEESE CULTURE, SALT, ENZYMES], SOY AND/OR CANOLA OIL, WHEY, NON-FAT DRY MILK, MALTODEXTRIN, SODIUM PHOSPHATE, SALT, NATURAL FLAVORS, COLOR ADDED [BETA CAROTENE SOLUTION, PAPRIKA EXTRACT SOLUTION], LACTIC ACID, SODIUM ALGINATE, MONO AND DIGLYCERIDES, XANTHAN GUM), POWDER (MODIFIED TAPIOCA STARCH, CORN SYRUP SOLIDS, MALTODEXTRIN, SALT, ACETIC ACID ESTERS OF MONO AND DIGLYCERIDES, CALCIUM CARBONATE, POTASSIUM CHLORIDE, GUAR GUM, SILICON DIOXIDE)" Date available: 07/14/2017 Date last updated by company: 07/14/2017
