Source: USDA Branded Food Products Database Release December 2017 Software v.3.8.6.4 2017-10-02
Report Run at: December 18, 2017 08:08 EST
"Nutrient data for: 45231096, ORIGINAL RED, BLACK LICORICE, UPC: 041364002118"
Food Group:  Branded Food Products Database
Common Name:

Nutrient,Unit,Data points,Std. Error,"4.0 PIECES = 40.0g",1Value per 100 g,
Proximates
"Energy",kcal,--,--,140,350
"Protein",g,--,--,1.00,2.50
"Total lipid (fat)",g,--,--,0.00,0.00
"Carbohydrate, by difference",g,--,--,33.00,82.50
"Sugars, total",g,--,--,19.00,47.50
Minerals
"Sodium, Na",mg,--,--,30,75
Vitamins
Lipids
"Fatty acids, total saturated",g,--,--,0.000,0.000
"Fatty acids, total trans",g,--,--,0.000,0.000
Amino Acids
Other
Ingredients
"CORN SYRUP, WHEAT FLOUR, MOLASSES, CARAMEL COLORING, LICORICE EXTRACT, CITRIC ACID, ARTIFICIAL FLAVOR, ANISE FLAVOR, SALT, RED 40." Date available: 07/14/2017 Date last updated by company: 07/14/2017
