Source: USDA Branded Food Products Database Release December 2017 Software v.3.8.6.4 2017-10-02
Report Run at: December 18, 2017 08:15 EST
"Nutrient data for: 45333237, ORIGINAL TARTAR SAUCE, UPC: 07203661021"
Food Group:  Branded Food Products Database
Common Name:

Nutrient,Unit,Data points,Std. Error,"2.0 Tbsp = 30.0g",1Value per 100 g,
Proximates
"Energy",kcal,--,--,80,267
"Protein",g,--,--,0.00,0.00
"Total lipid (fat)",g,--,--,7.00,23.33
"Carbohydrate, by difference",g,--,--,4.00,13.33
"Fiber, total dietary",g,--,--,0.0,0.0
"Sugars, total",g,--,--,2.00,6.67
Minerals
"Calcium, Ca",mg,--,--,0,0
"Iron, Fe",mg,--,--,0.00,0.00
"Potassium, K",mg,--,--,0,0
"Sodium, Na",mg,--,--,330,1100
Vitamins
"Vitamin D",IU,--,--,0,0
Lipids
"Fatty acids, total saturated",g,--,--,0.999,3.330
"Fatty acids, total trans",g,--,--,0.000,0.000
"Cholesterol",mg,--,--,5,17
Amino Acids
Other
Ingredients
"WATER, SOYBEAN OIL, DISTILLED VINEGAR, CHOPPED PICKLES, HIGH FRUCTOSE CORN SYRUP, CORNSTARCH, HORSERADISH, EGG YOLKS, SALT, SUGAR, DEHYDRATED ONION AND GARLIC, MUSTARD FLOUR, LEMON JUICE CONCENTRATE, XANTHAN GUM, NATURAL AND ARTIFICIAL FLAVORING, SODIUM BENZOATE AND POTASSIUM SORBATE (ADDED AS PRESERVATIVES), EDTA-CALCIUM DISODIUM (TO PROTECT QUALITY)." Date available: 10/13/2017 Date last updated by company: 10/13/2017
