Source: USDA Branded Food Products Database Release December 2017 Software v.3.8.6.4 2017-10-02
Report Run at: December 18, 2017 08:16 EST
"Nutrient data for: 45016853, ORIGINAL TRENTON CRACKERS, BITE-SIZE OLYSTER & SOUP CRACKERS, UPC: 697321003478"
Food Group:  Branded Food Products Database
Common Name:

Nutrient,Unit,Data points,Std. Error,"12.0 CRACKERS = 18.0g",1Value per 100 g,
Proximates
"Energy",kcal,--,--,70,389
"Protein",g,--,--,1.00,5.56
"Total lipid (fat)",g,--,--,2.00,11.11
"Carbohydrate, by difference",g,--,--,13.00,72.22
"Fiber, total dietary",g,--,--,0.0,0.0
"Sugars, total",g,--,--,0.00,0.00
Minerals
"Calcium, Ca",mg,--,--,0,0
"Iron, Fe",mg,--,--,0.00,0.00
"Sodium, Na",mg,--,--,170,944
Vitamins
"Vitamin C, total ascorbic acid",mg,--,--,0.0,0.0
"Vitamin A, IU",IU,--,--,0,0
Lipids
"Fatty acids, total saturated",g,--,--,1.001,5.560
"Fatty acids, total trans",g,--,--,0.000,0.000
"Cholesterol",mg,--,--,0,0
Amino Acids
Other
Ingredients
"UNBLEACHED WHEAT FLOUR, PALM OIL, SEA SALT, BLACK PEPPER, YEAST." Date available: 06/25/2017 Date last updated by company: 06/25/2017
