Source: USDA Branded Food Products Database Release December 2017 Software v.3.8.6.4 2017-10-02
Report Run at: December 18, 2017 08:01 EST
"Nutrient data for: 45101730, ORIGINAL, MIX FOR YORKSHIRE PUDDINGS & PANCAKES, UPC: 5010105132013"
Food Group:  Branded Food Products Database
Common Name:

Nutrient,Unit,Data points,Std. Error,"100.0 g = 100.0g",1Value per 100 g,
Proximates
"Energy",kcal,--,--,335,335
"Protein",g,--,--,10.00,10.00
"Total lipid (fat)",g,--,--,1.40,1.40
"Carbohydrate, by difference",g,--,--,74.00,74.00
"Fiber, total dietary",g,--,--,2.6,2.6
Minerals
Vitamins
Lipids
Amino Acids
Other
Ingredients
"WHEAT FLOUR (CONTAINS CALCIUM CARBONATE, IRON, NIACIN, THIAMIN), SKIMMED MILK POWDER, SALT, DRIED EGG POWDER" Date available: 03/30/2017 Date last updated by company: 03/30/2017
