Source: USDA Branded Food Products Database Release December 2017 Software v.3.8.6.4 2017-10-02
Report Run at: December 18, 2017 07:42 EST
"Nutrient data for: 45202851, ORIGINAL BBQ SAUCE, UPC: 854106002006"
Food Group:  Branded Food Products Database
Common Name:

Nutrient,Unit,Data points,Std. Error,"2.0 Tbsp = 28.0g",1Value per 100 g,
Proximates
"Energy",kcal,--,--,40,143
"Protein",g,--,--,1.00,3.57
"Total lipid (fat)",g,--,--,1.00,3.57
"Carbohydrate, by difference",g,--,--,8.00,28.57
"Fiber, total dietary",g,--,--,1.0,3.6
"Sugars, total",g,--,--,7.00,25.00
Minerals
"Calcium, Ca",mg,--,--,20,71
"Iron, Fe",mg,--,--,0.61,2.17
"Sodium, Na",mg,--,--,520,1857
Vitamins
"Vitamin C, total ascorbic acid",mg,--,--,2.0,7.2
"Vitamin A, IU",IU,--,--,338,1207
Lipids
"Fatty acids, total saturated",g,--,--,0.000,0.000
"Fatty acids, total trans",g,--,--,0.000,0.000
"Cholesterol",mg,--,--,0,0
Amino Acids
Other
Ingredients
"MUSTARD (VINEGAR, MUSTARD SEED, SALT, TURMERIC, OLEORESIN PAPRIKA), SUGAR, WATER, CHILI POWDER (CHILI PEPPER, RED PEPPER, CUMIN, GARLIC, SILICON DIOXIDE [TO PREVENT CAKING]), SALT." Date available: 07/14/2017 Date last updated by company: 07/14/2017
