Source: USDA Branded Food Products Database Release December 2017 Software v.3.8.6.4 2017-10-02
Report Run at: December 18, 2017 08:07 EST
"Nutrient data for: 45313579, ORIGINAL RAW & ORGANIC KOMBUCHA, UPC: 604310727345"
Food Group:  Branded Food Products Database
Common Name:

Nutrient,Unit,Data points,Std. Error,"8.0 OZA = 240.0g",1Value per 100 g,
Proximates
"Energy",kcal,--,--,36,15
"Protein",g,--,--,1.01,0.42
"Total lipid (fat)",g,--,--,0.00,0.00
"Carbohydrate, by difference",g,--,--,7.01,2.92
"Fiber, total dietary",g,--,--,0.0,0.0
"Sugars, total",g,--,--,1.99,0.83
Minerals
"Calcium, Ca",mg,--,--,0,0
"Iron, Fe",mg,--,--,0.00,0.00
"Sodium, Na",mg,--,--,10,4
Vitamins
"Vitamin C, total ascorbic acid",mg,--,--,0.0,0.0
"Vitamin A, IU",IU,--,--,0,0
Lipids
"Fatty acids, total saturated",g,--,--,0.000,0.000
"Fatty acids, total trans",g,--,--,0.000,0.000
"Cholesterol",mg,--,--,0,0
Amino Acids
Other
Ingredients
"PILSNER LADEN WATER, ORGANIC CANE SUGAR, ORGANIC DARJEELING BLACK TEA, KOMBUCHA (MEDUSOMYCES GISEVI), LIVE CULTURE" Date available: 07/14/2017 Date last updated by company: 07/14/2017
