Source: USDA Branded Food Products Database Release December 2017 Software v.3.8.6.4 2017-10-02
Report Run at: December 18, 2017 08:09 EST
"Nutrient data for: 45105775, ORIGINAL SANTA MARIA VALLEY STYLE SALSA, UPC: 014309700011"
Food Group:  Branded Food Products Database
Common Name:

Nutrient,Unit,Data points,Std. Error,"2.0 Tbsp = 30.0g",1Value per 100 g,
Proximates
"Energy",kcal,--,--,10,33
"Protein",g,--,--,0.00,0.00
"Total lipid (fat)",g,--,--,0.00,0.00
"Carbohydrate, by difference",g,--,--,2.00,6.67
"Sugars, total",g,--,--,1.00,3.33
Minerals
"Iron, Fe",mg,--,--,3.04,10.15
"Sodium, Na",mg,--,--,170,567
Vitamins
"Vitamin C, total ascorbic acid",mg,--,--,10.1,33.8
"Vitamin A, IU",IU,--,--,338,1127
Lipids
Amino Acids
Other
Ingredients
"DICED TOMATOES WITH NATURAL JUICE, TOMATO PUREE (WATER, TOMATO PASTE), FRESH ONIONS, GREEN CHILIES, VINEGAR, SALT, GARLIC-FRESH & DEHYDRATED, PEPPER SAUCE AND BLACK PEPPER." Date available: 10/13/2017 Date last updated by company: 10/13/2017
