Source: USDA Branded Food Products Database Release December 2017 Software v.3.8.6.4 2017-10-02
Report Run at: December 18, 2017 07:44 EST
"Nutrient data for: 45304420, ORIGINAL BIRCH BEER, UPC: 760712010017"
Food Group:  Branded Food Products Database
Common Name:

Nutrient,Unit,Data points,Std. Error,"1 BOTTLE = 355.0g",1Value per 100 g,
Proximates
"Energy",kcal,--,--,160,45
"Protein",g,--,--,0.00,0.00
"Total lipid (fat)",g,--,--,0.00,0.00
"Carbohydrate, by difference",g,--,--,40.01,11.27
"Fiber, total dietary",g,--,--,0.0,0.0
"Sugars, total",g,--,--,40.01,11.27
Minerals
"Sodium, Na",mg,--,--,36,10
Vitamins
Lipids
"Fatty acids, total saturated",g,--,--,0.000,0.000
"Fatty acids, total trans",g,--,--,0.000,0.000
"Cholesterol",mg,--,--,0,0
Amino Acids
Other
Ingredients
"MADE FROM: CARBONATED WATER, CANE SUGAR, PURE BIRCH OILS, NATURAL FLAVORS, CARAMEL COLOR, NATURAL YUCCA EXTRACT, CITRIC ACID, SODIUM BENZOATE (PRESERVES FRESHNESS)." Date available: 06/25/2017 Date last updated by company: 06/25/2017
