Source: USDA Branded Food Products Database Release December 2017 Software v.3.8.6.4 2017-10-02
Report Run at: December 18, 2017 07:45 EST
"Nutrient data for: 45017814, ORIGINAL BLACK & TAN SAUCE, UPC: 852884004021"
Food Group:  Branded Food Products Database
Common Name:

Nutrient,Unit,Data points,Std. Error,"2.0 Tbsp = 36.0g",1Value per 100 g,
Proximates
"Energy",kcal,--,--,40,111
"Protein",g,--,--,0.00,0.00
"Total lipid (fat)",g,--,--,0.00,0.00
"Carbohydrate, by difference",g,--,--,11.00,30.56
"Fiber, total dietary",g,--,--,0.0,0.0
"Sugars, total",g,--,--,9.00,25.00
Minerals
"Calcium, Ca",mg,--,--,20,56
"Iron, Fe",mg,--,--,0.61,1.69
"Sodium, Na",mg,--,--,340,944
Vitamins
"Vitamin C, total ascorbic acid",mg,--,--,2.0,5.6
"Vitamin A, IU",IU,--,--,169,469
Lipids
"Fatty acids, total saturated",g,--,--,0.000,0.000
"Fatty acids, total trans",g,--,--,0.000,0.000
"Cholesterol",mg,--,--,0,0
Amino Acids
Other
Ingredients
"TOMATO PUREE (WATER, TOMATO PASTE), SUGAR, VINEGAR, MOLASSES, HONEY, YUENGLING LAGER BEER (WATER, CORN, HOPS, YEAST & MALT (WHEAT)), MODIFIED CORNSTARCH, SALT, NATURAL SMOKE FLAVOR, WORCESTERSHIRE SAUCE (DISTILLED VINEGAR, MOLASSES, CORN SYRUP, WATER, SALT, CARAMEL COLOR, SUGAR, SPICES, ANCHOVY PUREE (FISH), NATURAL FLAVOR (SOY), AND TAMARIND), ONION POWDER, GARLIC POWDER, CARAMEL COLORING, POTASSIUM SORBATE, CORN SYRUP." Date available: 07/28/2017 Date last updated by company: 07/28/2017
