Source: USDA Branded Food Products Database Release December 2017 Software v.3.8.6.4 2017-10-02
Report Run at: December 18, 2017 08:15 EST
"Nutrient data for: 45190480, ORIGINAL THE BRAWLIN' BUFFALO CHICKEN PIZZA, UPC: 038708950020"
Food Group:  Branded Food Products Database
Common Name:

Nutrient,Unit,Data points,Std. Error,"0.16 PIZZA = 138.0g",1Value per 100 g,
Proximates
"Energy",kcal,--,--,320,232
"Protein",g,--,--,18.00,13.04
"Total lipid (fat)",g,--,--,17.00,12.32
"Carbohydrate, by difference",g,--,--,28.00,20.29
"Fiber, total dietary",g,--,--,1.0,0.7
"Sugars, total",g,--,--,2.00,1.45
Minerals
"Calcium, Ca",mg,--,--,250,181
"Iron, Fe",mg,--,--,2.54,1.84
"Sodium, Na",mg,--,--,840,609
Vitamins
"Vitamin C, total ascorbic acid",mg,--,--,6.8,4.9
"Vitamin A, IU",IU,--,--,564,409
Lipids
"Fatty acids, total saturated",g,--,--,8.004,5.800
"Fatty acids, total trans",g,--,--,0.000,0.000
"Cholesterol",mg,--,--,50,36
Amino Acids
Other
Ingredients
"CRUST: ENRICHED WHEAT FLOUR (FLOUR, NIACIN, IRON, THIAMINE MONONITRATE, RIBOFLAVIN, FOLIC ACID, ENZYME, ASCORBIC ACID), WATER, SOYBEAN OIL, YEAST, BREAD CRUMBS (WHEAT FLOUR, YEAST, SUGAR, SALT), OLIVE OIL, SUGAR, SALT, CULTURED WHEAT STARCH, HONEY, SODIUM BICARBONATE, SODIUM ALUMINUM PHOSPHATE, L-CYSTEINE, CITRIC ACID. LOW MOISTURE MOZZARELLA CHEESE: PASTEURIZED MILK, CHEESE CULTURES, SALT, ENZYMES, POWDERED CELLULOSE (TO PREVENT CAKING). BUFFALO STYLE CHICKEN BREAST STRIPS WITH RIB MEAT: BONELESS CHICKEN BREAST WITH RIB MEAT, WATER, MODIFIED POTATO STARCH, MALTODEXTRIN, PAPRIKA, SALT, POTASSIUM LACTATE, AGED CAYENNE RED PEPPER SAUCE (AGED CAYENNE RED PEPPER, DISTILLED VINEGAR, SALT, GARLIC POWDER), SODIUM PHOSPHATES, DISTILLED VINEGAR, SPICES, NATURAL FLAVORS, SPICE EXTRACTIVE, GARLIC POWDER. BUFFALO WING SAUCE: [HOT SAUCE CONCENTRATE (AGED RED CAYENNE PEPPER, DISTILLED VINEGAR, SALT, DEHYDRATED GARLIC), WATER, SOYBEAN OIL, DISTILLED VINEGAR, SALT, XANTHAN GUM, POLYSORBATE 60, EXTRACTIVE OF PAPRIKA, NATURAL AND ARTIFICIAL FLAVOR. ALFREDO SAUCE: {CREAM, SKIM MILK, SOYBEAN OIL, CANOLA OIL, PARMESAN CHEESE (CULTURED MILK, SALT, ENZYMES), WATER, MODIFIED CORNSTARCH, ASIAGO CHEESE: (CULTURED MILK, SALT, ENZYMES), SALT, ROMANO CHEESE: (PASTEURIZED COW'S MILK, CHEESE CULTURE, SALT, ENZYMES), CREAM (CREAM, NONFAT MILK), ENZYME MODIFIED PARMESAN CHEESE: (CULTURED MILK, WATER, SALT, ENZYMES), WHEY PROTEIN CONCENTRATE, LACTOSE, DATEM, SPICE, XANTHAN GUM, SEASONING: (WHEAT STARCH, EXTRACTS OF ANNATTO AND TURMERIC COLOR, NATURAL FLAVOR), SEASONING: (MALTODEXTRIN, FLAVOR, ENZYME MODIFIED BUTTERFAT)}. PEPPER SAUCE: AGED CAYENNE RED PEPPERS, VINEGAR, WATER, SALT, GARLIC POWDER]. MOZZARELLA CHEESE: PASTEURIZED MILK, CHEESE CULTURES, SALT, ENZYMES. GORGONZOLA CHEESE: (PASTEURIZED MILK, CHEESE CULTURE, SALT, ENZYMES), CORNSTARCH, POTATO STARCH AND POWDERED CELLULOSE (TO PREVENT CAKING), SPICES, PARSLEY." Date available: 07/14/2017 Date last updated by company: 07/14/2017
