Source: USDA Branded Food Products Database Release December 2017 Software v.3.8.6.4 2017-10-02
Report Run at: December 18, 2017 08:07 EST
"Nutrient data for: 45085874, ORIGINAL QUINOA CHIPS, UPC: 708820337923"
Food Group:  Branded Food Products Database
Common Name:

Nutrient,Unit,Data points,Std. Error,"28.0 CHIPS | ABOUT = 28.0g",1Value per 100 g,
Proximates
"Energy",kcal,--,--,150,536
"Protein",g,--,--,3.00,10.71
"Total lipid (fat)",g,--,--,7.00,25.00
"Carbohydrate, by difference",g,--,--,18.00,64.29
"Fiber, total dietary",g,--,--,1.0,3.6
"Sugars, total",g,--,--,1.00,3.57
Minerals
"Calcium, Ca",mg,--,--,0,0
"Iron, Fe",mg,--,--,1.29,4.59
"Sodium, Na",mg,--,--,250,893
Vitamins
"Vitamin C, total ascorbic acid",mg,--,--,0.0,0.0
"Vitamin A, IU",IU,--,--,0,0
Lipids
"Fatty acids, total saturated",g,--,--,1.000,3.570
"Fatty acids, total trans",g,--,--,0.000,0.000
"Cholesterol",mg,--,--,0,0
Amino Acids
Other
Ingredients
"QUINOA FLOUR, CORN FLOUR, VEGETABLE OIL (SUNFLOWER, CANOLA OR CORN), RICE FLOUR, CORN STARCH, LENTIL FLOUR, PEA FLOUR, SUGAR, SEA SALT." Date available: 07/14/2017 Date last updated by company: 07/14/2017
