Source: USDA Branded Food Products Database Release December 2017 Software v.3.8.6.4 2017-10-02
Report Run at: December 18, 2017 07:42 EST
"Nutrient data for: 45195072, ORIGINAL BBQ SAUCE, UPC: 040232181191"
Food Group:  Branded Food Products Database
Common Name:

Nutrient,Unit,Data points,Std. Error,"2.0 Tbsp = 27.0g",1Value per 100 g,
Proximates
"Energy",kcal,--,--,40,148
"Protein",g,--,--,0.00,0.00
"Total lipid (fat)",g,--,--,2.00,7.41
"Carbohydrate, by difference",g,--,--,5.00,18.52
"Fiber, total dietary",g,--,--,0.0,0.0
"Sugars, total",g,--,--,5.00,18.52
Minerals
"Calcium, Ca",mg,--,--,0,0
"Iron, Fe",mg,--,--,0.00,0.00
"Sodium, Na",mg,--,--,400,1481
Vitamins
"Vitamin C, total ascorbic acid",mg,--,--,2.0,7.5
"Vitamin A, IU",IU,--,--,169,626
Lipids
"Fatty acids, total saturated",g,--,--,0.000,0.000
"Fatty acids, total trans",g,--,--,0.000,0.000
"Cholesterol",mg,--,--,0,0
Amino Acids
Other
Ingredients
"KETCHUP (TOMATO CONCENTRATE MADE FROM VINE RIPENED TOMATOES, HIGH FRUCTOSE CORN SYRUP, DISTILLED VINEGAR, CORN SYRUP, SALT, LESS THAN 2% OF: ONION POWDER, GARLIC POWDER, NATURAL FLAVORS), MAYONNAISE TYPE DRESSING (WATER, SOYBEAN OIL, VINEGAR, SUGAR, MODIFIED CORNSTARCH, EGGS, CONTAINS LESS THAN 2% SALT, MUSTARD FLOUR, PAPRIKA SPICE, NATURAL FLAVOR, POTASSIUM SORBATE AS A PRESERVATIVE, ENZYME MODIFIED EGG YOLK, DRIED GARLIC), VINEGAR, HOT SAUCE (PEPPERS, VINEGAR, SALT, XANTHAN GUM AND BENZOATE OF SODA (TO PRESERVE FRESHNESS AND FLAVOR), HONEY, SUGAR, MUSTARD, SALT, BLACK PEPPER, RED PEPPER FLAKES." Date available: 07/14/2017 Date last updated by company: 07/14/2017
