Source: USDA Branded Food Products Database Release December 2017 Software v.3.8.6.4 2017-10-02
Report Run at: December 18, 2017 07:40 EST
"Nutrient data for: 45333634, ORIGINAL APPLESAUCE, UPC: 036800018341"
Food Group:  Branded Food Products Database
Common Name:

Nutrient,Unit,Data points,Std. Error,"1 UNIT = 113.0g",1Value per 100 g,
Proximates
"Energy",kcal,--,--,90,80
"Protein",g,--,--,0.00,0.00
"Total lipid (fat)",g,--,--,0.00,0.00
"Carbohydrate, by difference",g,--,--,23.00,20.35
"Fiber, total dietary",g,--,--,2.0,1.8
"Sugars, total",g,--,--,19.00,16.81
Minerals
"Calcium, Ca",mg,--,--,6,5
"Iron, Fe",mg,--,--,0.00,0.00
"Potassium, K",mg,--,--,111,98
"Sodium, Na",mg,--,--,0,0
Vitamins
"Vitamin C, total ascorbic acid",mg,--,--,89.9,79.6
"Vitamin D",IU,--,--,0,0
Lipids
"Fatty acids, total saturated",g,--,--,0.000,0.000
"Fatty acids, total trans",g,--,--,0.000,0.000
"Cholesterol",mg,--,--,0,0
Amino Acids
Other
Ingredients
"APPLES, SUGAR, WATER, ASCORBIC ACID (VITAMIN C)." Date available: 10/19/2017 Date last updated by company: 10/19/2017
