Source: USDA Branded Food Products Database Release December 2017 Software v.3.8.6.4 2017-10-02
Report Run at: December 18, 2017 07:38 EST
"Nutrient data for: 45036591, ORIGINAL ALL NATURAL MICROWAVE POPCORN, UPC: 713733879712"
Food Group:  Branded Food Products Database
Common Name:

Nutrient,Unit,Data points,Std. Error,"4.5 CUPS POPPED), SERVINGS PER BAG ABOUT 2.5 | (MAKES ABOUT = 30.0g",1Value per 100 g,
Proximates
"Energy",kcal,--,--,120,400
"Protein",g,--,--,3.00,10.00
"Total lipid (fat)",g,--,--,2.50,8.33
"Carbohydrate, by difference",g,--,--,22.00,73.33
"Fiber, total dietary",g,--,--,4.0,13.3
Minerals
"Iron, Fe",mg,--,--,1.20,4.00
"Sodium, Na",mg,--,--,400,1333
Vitamins
Lipids
"Fatty acids, total saturated",g,--,--,0.999,3.330
"Fatty acids, total trans",g,--,--,0.000,0.000
"Cholesterol",mg,--,--,0,0
Amino Acids
Other
Ingredients
"WHOLE GRAIN POPPING CORN, PALM OIL, SALT, AND CITRIC ACID." Date available: 09/21/2017 Date last updated by company: 09/21/2017
