Source: USDA Branded Food Products Database Release December 2017 Software v.3.8.6.4 2017-10-02
Report Run at: December 18, 2017 07:43 EST
"Nutrient data for: 45192974, ORIGINAL BEEF JERKY, UPC: 854966005032"
Food Group:  Branded Food Products Database
Common Name:

Nutrient,Unit,Data points,Std. Error,"1 ONZ = 28.0g",1Value per 100 g,
Proximates
"Energy",kcal,--,--,80,286
"Protein",g,--,--,14.00,50.00
"Total lipid (fat)",g,--,--,1.00,3.57
"Carbohydrate, by difference",g,--,--,4.00,14.29
"Fiber, total dietary",g,--,--,1.0,3.6
"Sugars, total",g,--,--,3.00,10.71
Minerals
"Calcium, Ca",mg,--,--,0,0
"Iron, Fe",mg,--,--,4.82,17.22
"Sodium, Na",mg,--,--,390,1393
Vitamins
"Vitamin C, total ascorbic acid",mg,--,--,0.0,0.0
"Vitamin A, IU",IU,--,--,0,0
Lipids
"Fatty acids, total saturated",g,--,--,0.000,0.000
"Fatty acids, total trans",g,--,--,0.000,0.000
"Cholesterol",mg,--,--,30,107
Amino Acids
Other
Ingredients
"TOP ROUND BEEF, GLUTEN FREE REDUCED SODIUM SOY SAUCE (WATER, SOYBEANS, SALT, ALCOHOL), APPLE JUICE, BROWN SUGAR, PINEAPPLE JUICE, WATER, NATURAL HICKORY LIQUID SMOKE, RICE WINE, BLACK PEPPER, GRANULATED GARLIC, APPLE CIDER VINEGAR, GINGER, WHITE PEPPER." Date available: 07/14/2017 Date last updated by company: 07/14/2017
