Source: USDA Branded Food Products Database Release December 2017 Software v.3.8.6.4 2017-10-02
Report Run at: December 18, 2017 07:54 EST
"Nutrient data for: 45149075, ORIGINAL GOURMET, DOUBLE CHOCOLATE CHIP COOKIE, UPC: 654954213780"
Food Group:  Branded Food Products Database
Common Name:

Nutrient,Unit,Data points,Std. Error,"1 COOKIE = 42.0g",1Value per 100 g,
Proximates
"Energy",kcal,--,--,180,429
"Protein",g,--,--,1.00,2.38
"Total lipid (fat)",g,--,--,8.00,19.05
"Carbohydrate, by difference",g,--,--,26.00,61.90
"Fiber, total dietary",g,--,--,1.0,2.4
"Sugars, total",g,--,--,13.00,30.95
Minerals
"Calcium, Ca",mg,--,--,0,0
"Iron, Fe",mg,--,--,1.29,3.06
"Sodium, Na",mg,--,--,90,214
Vitamins
"Vitamin C, total ascorbic acid",mg,--,--,0.0,0.0
"Vitamin A, IU",IU,--,--,0,0
Lipids
"Fatty acids, total saturated",g,--,--,3.499,8.330
"Fatty acids, total trans",g,--,--,0.000,0.000
"Cholesterol",mg,--,--,5,12
Amino Acids
Other
Ingredients
"CAKE FLOUR (BLEACHED WHEAT FLOUR, NIACIN, REDUCED IRON, THIAMINE MONONITRATE, RIBOFLAVIN, FOLIC ACID), SHORTENING (INTERESTERIFIED SOYBEAN OIL), HIGH FRUCTOSE CORN SYRUP, CHOCOLATE CHIPS (SUGAR, CHOCOLATE LIQUOR, DEXTROSE, COCOA BUTTER, SOY LECITHIN (EMULSIFIER), VANILLA), SUGAR, ENRICHED FLOUR (WHEAT FLOUR, NIACIN, REDUCED IRON, THIAMINE MONONITRATE, RIBOFLAVIN, FOLIC ACID), CORN SYRUP, WATER, MODIFIED CORNSTARCH, RAISIN PASTE, MOLASSES, EGGS, GLYCERIN, SALT, BAKING SODA, VANILLA, COCOA POWDER, MONO- AND DIGLYCERIDES (EMULSIFIER)." Date available: 07/14/2017 Date last updated by company: 07/14/2017
