Source: USDA Branded Food Products Database Release December 2017 Software v.3.8.6.4 2017-10-02
Report Run at: December 18, 2017 08:08 EST
"Nutrient data for: 45274824, ORIGINAL RECIPE, SMOKED SHORTY SAUSAGES, UPC: 816012010513"
Food Group:  Branded Food Products Database
Common Name:

Nutrient,Unit,Data points,Std. Error,"2.0 LINKS = 25.0g",1Value per 100 g,
Proximates
"Energy",kcal,--,--,130,520
"Protein",g,--,--,7.00,28.00
"Total lipid (fat)",g,--,--,11.00,44.00
"Carbohydrate, by difference",g,--,--,1.00,4.00
"Fiber, total dietary",g,--,--,0.0,0.0
"Sugars, total",g,--,--,1.00,4.00
Minerals
"Calcium, Ca",mg,--,--,0,0
"Iron, Fe",mg,--,--,0.79,3.17
"Sodium, Na",mg,--,--,410,1640
Vitamins
"Vitamin C, total ascorbic acid",mg,--,--,0.0,0.0
"Vitamin A, IU",IU,--,--,0,0
Lipids
"Fatty acids, total saturated",g,--,--,4.000,16.000
"Fatty acids, total trans",g,--,--,0.000,0.000
"Cholesterol",mg,--,--,25,100
Amino Acids
Other
Ingredients
"PORK, SEA SALT, CHOPPED PARSLEY, CANE SUGAR, NATURAL FLAVOR, SPICES, VINEGAR, ROASTED GARLIC. MADE WITH BEEF COLLAGEN CASING." Date available: 09/08/2017 Date last updated by company: 09/08/2017
