Source: USDA Branded Food Products Database Release December 2017 Software v.3.8.6.4 2017-10-02
Report Run at: December 18, 2017 07:52 EST
"Nutrient data for: 45218838, ORIGINAL FLAVORED HICKORY SMOCKED MEAT STICK, UPC: 851015004220"
Food Group:  Branded Food Products Database
Common Name:

Nutrient,Unit,Data points,Std. Error,"2.0 ONZ = 56.0g",1Value per 100 g,
Proximates
"Energy",kcal,--,--,140,250
"Protein",g,--,--,9.00,16.07
"Total lipid (fat)",g,--,--,11.00,19.64
"Carbohydrate, by difference",g,--,--,1.00,1.79
"Sugars, total",g,--,--,1.00,1.79
Minerals
"Iron, Fe",mg,--,--,0.64,1.15
"Sodium, Na",mg,--,--,700,1250
Vitamins
Lipids
"Fatty acids, total saturated",g,--,--,3.998,7.140
"Cholesterol",mg,--,--,35,62
Amino Acids
Other
Ingredients
"PORK, BEEF, WATER, SEA SALT, DEXTROSE, SUGAR, PEPPER, CELERY JUICE POWDER (CELERY POWDER SEA SALT), GARLIC POWDER, ENCAPSULATED CITRIC ACID, IN COLLAGEN CASING." Date available: 10/19/2017 Date last updated by company: 10/19/2017
