Source: USDA Branded Food Products Database Release December 2017 Software v.3.8.6.4 2017-10-02
Report Run at: December 18, 2017 08:10 EST
"Nutrient data for: 45041345, ORIGINAL SAUSAGE BEER BRATS, UPC: 025583006010"
Food Group:  Branded Food Products Database
Common Name:

Nutrient,Unit,Data points,Std. Error,"3.5 ONZ = 99.0g",1Value per 100 g,
Proximates
"Energy",kcal,--,--,260,263
"Protein",g,--,--,24.00,24.24
"Total lipid (fat)",g,--,--,16.00,16.16
"Carbohydrate, by difference",g,--,--,8.00,8.08
"Fiber, total dietary",g,--,--,0.0,0.0
"Sugars, total",g,--,--,1.00,1.01
Minerals
"Calcium, Ca",mg,--,--,40,40
"Iron, Fe",mg,--,--,0.20,0.20
"Potassium, K",mg,--,--,260,263
"Sodium, Na",mg,--,--,610,616
Vitamins
"Vitamin C, total ascorbic acid",mg,--,--,0.0,0.0
"Vitamin A, IU",IU,--,--,0,0
Lipids
"Fatty acids, total saturated",g,--,--,1.000,1.010
"Fatty acids, total trans",g,--,--,0.000,0.000
"Cholesterol",mg,--,--,0,0
Amino Acids
Other
Ingredients
"WATER, VITAL WHEAT GLUTEN, EXPELLER PRESSED NON-GMO CANOLA OIL, ORGANIC TOFU (WATER, ORGANIC SOYBEANS, MAGNESIUM CHLORIDE, CALCIUM CHLORIDE), ONIONS, ORGANIC SOY FLOUR, FULL SAIL AMBER ALE (WATER, MALTED BARLEY, HOPS, YEAST), SEA SALT, ORGANIC CANE SUGAR, SPICES, DEHYDRATED ONION, GARLIC PUREE, CARRAGEENAN, DEHYDRATED GARLIC, KONJAC." Date available: 07/14/2017 Date last updated by company: 07/14/2017
