Source: USDA Branded Food Products Database Release December 2017 Software v.3.8.6.4 2017-10-02
Report Run at: December 18, 2017 08:14 EST
"Nutrient data for: 45239656, ORIGINAL SYRUP, UPC: 054100999900"
Food Group:  Branded Food Products Database
Common Name:

Nutrient,Unit,Data points,Std. Error,"0.25 cup = 60.0g",1Value per 100 g,
Proximates
"Energy",kcal,--,--,190,317
"Protein",g,--,--,0.00,0.00
"Total lipid (fat)",g,--,--,0.00,0.00
"Carbohydrate, by difference",g,--,--,50.00,83.33
"Sugars, total",g,--,--,31.00,51.67
Minerals
"Sodium, Na",mg,--,--,100,167
Vitamins
Lipids
"Fatty acids, total saturated",g,--,--,0.000,0.000
Amino Acids
Other
Ingredients
"CORN SYRUP, HIGH FRUCTOSE CORN SYRUP, WATER, CONTAINS 2% OR LESS OF: CELLULOSE GUM, NATURAL AND ARTIFICIAL FLAVORS, SALT, PRESERVATIVES (SODIUM BENZOATE, SORBIC ACID), CARAMEL COLOR, SODIUM HEXAMETAPHOSPHATE." Date available: 06/24/2017 Date last updated by company: 06/24/2017
