Source: USDA Branded Food Products Database Release December 2017 Software v.3.8.6.4 2017-10-02
Report Run at: December 18, 2017 07:40 EST
"Nutrient data for: 45287418, ORIGINAL APPLE SAUCE, UPC: 028700111611"
Food Group:  Branded Food Products Database
Common Name:

Nutrient,Unit,Data points,Std. Error,"0.5 cup = 130.0g",1Value per 100 g,
Proximates
"Energy",kcal,--,--,90,69
"Protein",g,--,--,0.00,0.00
"Total lipid (fat)",g,--,--,0.00,0.00
"Carbohydrate, by difference",g,--,--,21.00,16.15
"Fiber, total dietary",g,--,--,1.9,1.5
"Sugars, total",g,--,--,18.00,13.85
Minerals
"Potassium, K",mg,--,--,160,123
"Sodium, Na",mg,--,--,0,0
Vitamins
"Vitamin C, total ascorbic acid",mg,--,--,35.5,27.3
Lipids
Amino Acids
Other
Ingredients
"APPLES; CONCENTRATED APPLE JUICE; WATER; ASCORBIC ACID (VITAMIN C)." Date available: 07/14/2017 Date last updated by company: 07/14/2017
