Source: USDA Branded Food Products Database Release December 2017 Software v.3.8.6.4 2017-10-02
Report Run at: December 18, 2017 07:46 EST
"Nutrient data for: 45134440, Original, Carton, UNPREPARED, GTIN: 00029000031692"
Food Group:  Branded Food Products Database
Common Name:

Nutrient,Unit,Data points,Std. Error,"3.0 tbsp (46g) = 46.0g",1Value per 100 g,
Proximates
"Energy",kcal,--,--,25,54
"Protein",g,--,--,5.00,10.87
"Total lipid (fat)",g,--,--,0.00,0.00
"Carbohydrate, by difference",g,--,--,1.00,2.17
"Fiber, total dietary",g,--,--,0.0,0.0
"Sugars, total",g,--,--,0.00,0.00
Minerals
"Calcium, Ca",mg,--,--,0,0
"Iron, Fe",mg,--,--,0.72,1.57
"Potassium, K",mg,--,--,70,152
"Sodium, Na",mg,--,--,90,196
Vitamins
"Vitamin C, total ascorbic acid",mg,--,--,0.0,0.0
"Vitamin A, IU",IU,--,--,400,870
Lipids
"Fatty acids, total saturated",g,--,--,0.000,0.000
"Fatty acids, total monounsaturated",g,--,--,0.000,0.000
"Fatty acids, total polyunsaturated",g,--,--,0.000,0.000
"Fatty acids, total trans",g,--,--,0.000,0.000
"Cholesterol",mg,--,--,0,0
Amino Acids
Other
Ingredients
"Egg Whites (99%), Contains Less Than 1% of: Natural Flavor, Yeast Extract, Color (includes Beta Carotene), Spices, Salt, Onion Powder, Vegetable Gums (Xanthan Gum, Guar Gum). Vitamins and Minerals: Calcium (Sulfate), Iron (Ferric Phosphate), Vitamin E (Alpha Tocopherol Acetate), Zinc (Sulfate), Calcium Pantothenate, Vitamin B2 (Riboflavin), Vitamin B1 (Thiamine Mononitrate), Vitamin B6 (Pyridoxine Hydrochloride), Vitamin B12, Folic Acid, Vitamin D3, Biotin. CONTAINS: EGGS." Date available: 10/12/2017 Date last updated by company: 10/12/2017
