Source: USDA Branded Food Products Database Release December 2017 Software v.3.8.6.4 2017-10-02
Report Run at: December 18, 2017 07:42 EST
"Nutrient data for: 45220572, ORIGINAL BBQ SAUCE, UPC: 616909561254"
Food Group:  Branded Food Products Database
Common Name:

Nutrient,Unit,Data points,Std. Error,"2.0 Tbsp = 31.0g",1Value per 100 g,
Proximates
"Energy",kcal,--,--,25,81
"Protein",g,--,--,0.00,0.00
"Total lipid (fat)",g,--,--,0.00,0.00
"Carbohydrate, by difference",g,--,--,5.00,16.13
"Fiber, total dietary",g,--,--,0.0,0.0
"Sugars, total",g,--,--,4.00,12.90
Minerals
"Calcium, Ca",mg,--,--,20,65
"Iron, Fe",mg,--,--,0.61,1.96
"Sodium, Na",mg,--,--,140,452
Vitamins
"Vitamin C, total ascorbic acid",mg,--,--,0.0,0.0
"Vitamin A, IU",IU,--,--,0,0
Lipids
"Fatty acids, total saturated",g,--,--,0.000,0.000
"Fatty acids, total trans",g,--,--,0.000,0.000
"Cholesterol",mg,--,--,0,0
Amino Acids
Other
Ingredients
"WATER, TOMATO PASTE, WORCESTERSHIRE SAUCE (WATER, DISTILLED VINEGAR, HIGH FRUCTOSE CORN SYRUP, SALT, HYDROLYZED SOY PROTEIN, SPICE, DEXTROSE, CHILI PEPPER, CARAMEL COLOR, DRIED GARLIC, YEAST EXTRACT, DRIED ONION, MALIC ACID, NATURAL FLAVOR), MUSTARD (VINEGAR, WATER, MUSTARD SEED, SALT, WHITE WINE, CITRIC ACID, TARTARIC ACID, SPICES), LIQUID SMOKE, BROWN SUGAR, BEEF BASE (BEEF AND CONCENTRATED BEEF STOCK, NATURAL SEA SALT, YEAST EXTRACT, FLAVORING, VEGETABLE EXTRACT, MALT EXTRACT), WHITE DISTILLED VINEGAR, SPICES, SALT, MODIFIED CORNSTARCH." Date available: 07/14/2017 Date last updated by company: 07/14/2017
