Source: USDA Branded Food Products Database Release December 2017 Software v.3.8.6.4 2017-10-02
Report Run at: December 18, 2017 07:59 EST
"Nutrient data for: 45185544, ORIGINAL LIGHT & SAVORY MARINADE, UPC: 703327450045"
Food Group:  Branded Food Products Database
Common Name:

Nutrient,Unit,Data points,Std. Error,"1 Tbsp = 10.0g",1Value per 100 g,
Proximates
"Energy",kcal,--,--,25,250
"Protein",g,--,--,1.00,10.00
"Total lipid (fat)",g,--,--,0.50,5.00
"Carbohydrate, by difference",g,--,--,4.00,40.00
"Fiber, total dietary",g,--,--,0.0,0.0
"Sugars, total",g,--,--,3.00,30.00
Minerals
"Calcium, Ca",mg,--,--,0,0
"Iron, Fe",mg,--,--,1.22,12.17
"Sodium, Na",mg,--,--,310,3100
Vitamins
"Vitamin C, total ascorbic acid",mg,--,--,0.0,0.0
"Vitamin A, IU",IU,--,--,0,0
Lipids
"Fatty acids, total saturated",g,--,--,0.000,0.000
"Fatty acids, total trans",g,--,--,0.000,0.000
"Cholesterol",mg,--,--,0,0
Amino Acids
Other
Ingredients
"TAMARI SOY SAUCE (WATER, SOYBEANS, SALT, SUGAR), CANE SUGAR, ROASTED SESAME SEEDS, SESAME OIL, ONION, SPICES, GARLIC." Date available: 10/13/2017 Date last updated by company: 10/13/2017
