Source: USDA Branded Food Products Database Release December 2017 Software v.3.8.6.4 2017-10-02
Report Run at: December 18, 2017 08:15 EST
"Nutrient data for: 45064407, ORIGINAL TEXAS TOAST SEASONED CROUNTONS, UPC: 070200010659"
Food Group:  Branded Food Products Database
Common Name:

Nutrient,Unit,Data points,Std. Error,"2.0 Tbsp = 7.0g",1Value per 100 g,
Proximates
"Energy",kcal,--,--,35,500
"Protein",g,--,--,1.00,14.29
"Total lipid (fat)",g,--,--,2.00,28.57
"Carbohydrate, by difference",g,--,--,4.00,57.14
"Fiber, total dietary",g,--,--,0.0,0.0
"Sugars, total",g,--,--,0.00,0.00
Minerals
"Calcium, Ca",mg,--,--,0,0
"Iron, Fe",mg,--,--,0.00,0.00
"Sodium, Na",mg,--,--,85,1214
Vitamins
"Vitamin C, total ascorbic acid",mg,--,--,0.0,0.0
"Vitamin A, IU",IU,--,--,0,0
Lipids
"Fatty acids, total saturated",g,--,--,0.000,0.000
"Fatty acids, total trans",g,--,--,0.000,0.000
"Cholesterol",mg,--,--,0,0
Amino Acids
Other
Ingredients
"ENRICHED WHEAT FLOUR (WHEAT FLOUR, NIACIN, FERROUS SULFATE, THIAMINE MONONITRATE, RIBOFLAVIN, FOLIC ACID), CANOLA AND/OR SUNFLOWER OIL, SEASONING [SUGAR, WHEY, SALT, ROMANO CHEESE (MILK, SALT, CHEESE CULTURES, ENZYMES), PARMESAN CHEESE (MILK, CHEESE CULTURES, SALT, ENZYMES), TOMATO*, GARLIC*, NATURAL FLAVOR (INCLUDING AUTOLYZED YEAST EXTRACT), VINEGAR*, SPICES, PARSLEY], SALT, WATER, YEAST, NATURAL BUTTER FLAVOR (A MILK INGREDIENT), MALTED BARLEY FLOUR, CITRIC ACID AND/OR TOCOPHEROLS ADDED TO MAINTAIN FRESHNESS." Date available: 07/14/2017 Date last updated by company: 07/14/2017
