Source: USDA Branded Food Products Database Release December 2017 Software v.3.8.6.4 2017-10-02
Report Run at: December 18, 2017 07:54 EST
"Nutrient data for: 45160549, ORIGINAL GOURMET, ORIGINAL DOUBLE CHOCOLATE CHIP COOKIE, UPC: 654954210079"
Food Group:  Branded Food Products Database
Common Name:

Nutrient,Unit,Data points,Std. Error,"1 COOKIE = 26.0g",1Value per 100 g,
Proximates
"Energy",kcal,--,--,120,462
"Protein",g,--,--,5.00,19.23
"Total lipid (fat)",g,--,--,5.00,19.23
"Carbohydrate, by difference",g,--,--,17.00,65.38
"Fiber, total dietary",g,--,--,0.0,0.0
"Sugars, total",g,--,--,7.00,26.92
Minerals
"Calcium, Ca",mg,--,--,0,0
"Iron, Fe",mg,--,--,1.38,5.32
"Sodium, Na",mg,--,--,95,365
Vitamins
"Vitamin C, total ascorbic acid",mg,--,--,0.0,0.0
"Vitamin A, IU",IU,--,--,0,0
Lipids
"Fatty acids, total saturated",g,--,--,2.501,9.620
"Fatty acids, total trans",g,--,--,0.000,0.000
"Cholesterol",mg,--,--,5,19
Amino Acids
Other
Ingredients
"BLEACHED ENRICHED FLOUR (WHEAT FLOUR, NIACIN, REDUCED IRON, THIAMINE MONONITRATE, RIBOFLAVIN, FOLIC ACID), SHORTENING (INTERESTERIFIED SOYBEAN OIL), HIGH FRUCTOSE CORN SYRUP, CHOCOLATE CHIPS (SUGAR, CHOCOLATE LIQUOR, COCOA BUTTER, DEXTROSE, SOY LECITHIN [EMULSIFIER], VANILLA), SUGAR, CORN SYRUP, ENRICHED FLOUR (WHEAT FLOUR, NIACIN, REDUCED IRON, THIAMINE MONONITRATE, RIBOFLAVIN, FOLIC ACID), WATER, MODIFIED CORN STARCH, RAISIN PASTE, MOLASSES, EGGS, SALT, BAKING SODA, NATURAL & ARTIFICIAL VANILLA FLAVOR, GLYCERINE, COCOA POWDER, MONO-DIGLYCERIDES (EMULSIFIER)." Date available: 07/14/2017 Date last updated by company: 07/14/2017
