Source: USDA Branded Food Products Database Release December 2017 Software v.3.8.6.4 2017-10-02
Report Run at: December 18, 2017 07:51 EST
"Nutrient data for: 45212023, ORIGINAL DOUBLE COOKIE, UPC: 654954140048"
Food Group:  Branded Food Products Database
Common Name:

Nutrient,Unit,Data points,Std. Error,"1 COOKIE = 42.0g",1Value per 100 g,
Proximates
"Energy",kcal,--,--,190,452
"Protein",g,--,--,8.00,19.05
"Total lipid (fat)",g,--,--,8.00,19.05
"Carbohydrate, by difference",g,--,--,28.00,66.67
"Fiber, total dietary",g,--,--,1.0,2.4
"Sugars, total",g,--,--,10.00,23.81
Minerals
"Calcium, Ca",mg,--,--,0,0
"Iron, Fe",mg,--,--,1.29,3.06
"Sodium, Na",mg,--,--,170,405
Vitamins
"Vitamin C, total ascorbic acid",mg,--,--,0.0,0.0
"Vitamin A, IU",IU,--,--,0,0
Lipids
"Fatty acids, total saturated",g,--,--,3.998,9.520
"Fatty acids, total trans",g,--,--,0.000,0.000
"Cholesterol",mg,--,--,5,12
Amino Acids
Other
Ingredients
"BLEACHED, ENRICHED FLOUR (WHEAT FLOUR, NIACIN, REDUCED IRON, THIAMINE MONONITRATE, RIBOFLAVIN, FOLIC ACID), SHORTENING (INTERESTERIFIED SOYBEAN OIL), HIGH FRUCTOSE CORN SYRUP, GRANULATED SUGAR, CHOCOLATE CHIPS (SUGAR, CHOCOLATE LIQUOR, COCOA BUTTER, DEXTROSE, SOY LECITHIN (EMULSIFIER), VANILLA), REGULAR CORN SYRUP, WATER, MODIFIED FOOD STARCH, RAISIN PASTE, MOLASSES, DRIED WHOLE EGG POWDER, SALT, BAKING SODA, GLYCERINE, VANILLA FLAVOR, COCOA POWDER, EMULSIFIER (MONO-DIGLYCERIDES)." Date available: 07/14/2017 Date last updated by company: 07/14/2017
