Source: USDA Branded Food Products Database Release December 2017 Software v.3.8.6.4 2017-10-02
Report Run at: December 18, 2017 08:19 EST
"Nutrient data for: 45152534, ORLANDO, COOKIES, DOUBLE CHOCOLATE, UPC: 076323008689"
Food Group:  Branded Food Products Database
Common Name:

Nutrient,Unit,Data points,Std. Error,"2.0 COOKIES = 57.0g",1Value per 100 g,
Proximates
"Energy",kcal,--,--,150,263
"Protein",g,--,--,2.00,3.51
"Total lipid (fat)",g,--,--,6.00,10.53
"Carbohydrate, by difference",g,--,--,21.00,36.84
"Fiber, total dietary",g,--,--,1.0,1.8
"Sugars, total",g,--,--,10.00,17.54
Minerals
"Calcium, Ca",mg,--,--,0,0
"Iron, Fe",mg,--,--,1.27,2.22
"Sodium, Na",mg,--,--,120,211
Vitamins
"Vitamin C, total ascorbic acid",mg,--,--,0.0,0.0
"Vitamin A, IU",IU,--,--,176,308
Lipids
"Fatty acids, total saturated",g,--,--,3.500,6.140
"Fatty acids, total trans",g,--,--,0.000,0.000
"Cholesterol",mg,--,--,25,44
Amino Acids
Other
Ingredients
"FLOUR (WHEAT FLOUR, MALTED BARLEY FLOUR, NIACIN, REDUCED IRON, THIAMINE MONONITRATE, RIBOFLAVIN, FOLIC ACID), SUGAR, UNSALTED BUTTER, SEMI-SWEET CHOCOLATE, WHOLE EGGS, DARK COCOA POWDER, BAKING SODA, MOLASSES, SALT, NATURAL & ARTIFICIAL FLAVORS." Date available: 07/14/2017 Date last updated by company: 07/14/2017
