Source: USDA Branded Food Products Database Release December 2017 Software v.3.8.6.4 2017-10-02
Report Run at: December 18, 2017 08:21 EST
"Nutrient data for: 45101862, ORRINGTON FARMS, SLOW COOKERS TENDER POT ROAST SEASONING, UPC: 072058610739"
Food Group:  Branded Food Products Database
Common Name:

Nutrient,Unit,Data points,Std. Error,"1 CUP STEW | SEASONS = 9.0g",1Value per 100 g,
Proximates
"Energy",kcal,--,--,25,278
"Protein",g,--,--,1.00,11.11
"Total lipid (fat)",g,--,--,0.00,0.00
"Carbohydrate, by difference",g,--,--,5.00,55.56
"Fiber, total dietary",g,--,--,0.0,0.0
"Sugars, total",g,--,--,1.00,11.11
Minerals
"Calcium, Ca",mg,--,--,20,222
"Iron, Fe",mg,--,--,2.00,22.22
"Sodium, Na",mg,--,--,850,9444
Vitamins
"Vitamin C, total ascorbic acid",mg,--,--,0.0,0.0
"Vitamin A, IU",IU,--,--,0,0
Lipids
"Fatty acids, total saturated",g,--,--,0.000,0.000
"Fatty acids, total trans",g,--,--,0.000,0.000
"Cholesterol",mg,--,--,0,0
Amino Acids
Other
Ingredients
"CORN STARCH, SALT (INCLUDES SEA SALT), DEHYDRATED ONION, NATURAL BEEF BLEND (INCLUDES BEEF STOCK, BEEF EXTRACT, RENDERED BEEF FAT), SUGAR, BLACK PEPPER, CARAMELIZED SUGAR [CONTAINS MALTODEXTRIN (MADE FROM POTATO)], YEAST EXTRACT, SOYBEAN OIL, MALTODEXTRIN (MADE FROM CORN), NATURAL FLAVORS (CONTAINS CANOLA OIL)." Date available: 06/25/2017 Date last updated by company: 06/25/2017
