Source: USDA Branded Food Products Database Release December 2017 Software v.3.8.6.4 2017-10-02
Report Run at: December 18, 2017 08:22 EST
"Nutrient data for: 45133980, ORVILLE REDENBACHERS Butter Popcorn, UNPREPARED, GTIN: 00027000372418"
Food Group:  Branded Food Products Database
Common Name:

Nutrient,Unit,Data points,Std. Error,"2.0 tbsp (35g) unpopped (makes about 4.5 cups popped) = 35.0g",1Value per 100 g,
Proximates
"Energy",kcal,--,--,170,486
"Protein",g,--,--,2.00,5.71
"Total lipid (fat)",g,--,--,12.00,34.29
"Carbohydrate, by difference",g,--,--,17.00,48.57
"Fiber, total dietary",g,--,--,3.0,8.6
"Sugars, total",g,--,--,0.00,0.00
Minerals
"Calcium, Ca",mg,--,--,0,0
"Iron, Fe",mg,--,--,0.36,1.03
"Potassium, K",mg,--,--,0,0
"Sodium, Na",mg,--,--,320,914
Vitamins
"Vitamin C, total ascorbic acid",mg,--,--,0.0,0.0
"Vitamin A, IU",IU,--,--,0,0
"Vitamin D",IU,--,--,0,0
Lipids
"Fatty acids, total saturated",g,--,--,5.999,17.140
"Fatty acids, total monounsaturated",g,--,--,4.000,11.430
"Fatty acids, total polyunsaturated",g,--,--,1.502,4.290
"Fatty acids, total trans",g,--,--,0.000,0.000
"Cholesterol",mg,--,--,0,0
Amino Acids
Other
Ingredients
"Whole Grain Popping Corn, Palm Oil, Salt, Butter, Color Added (Annatto, Turmeric, Paprika), Natural Flavors, Mixed Tocopherols (Vitamin E for freshness). CONTAINS: MILK." Date available: 10/23/2017 Date last updated by company: 10/22/2017
