Source: USDA Branded Food Products Database Release December 2017 Software v.3.8.6.4 2017-10-02
Report Run at: December 18, 2017 08:27 EST
"Nutrient data for: 45043779, OSEM, TWISTS & CHEESE, TWIST SHAPED PASTA & CHEESE DINNER, UPC: 076937200677"
Food Group:  Branded Food Products Database
Common Name:

Nutrient,Unit,Data points,Std. Error,"85.0 GRM = 85.0g",1Value per 100 g,
Proximates
"Energy",kcal,--,--,320,376
"Protein",g,--,--,12.00,14.12
"Total lipid (fat)",g,--,--,3.50,4.12
"Carbohydrate, by difference",g,--,--,60.00,70.59
"Fiber, total dietary",g,--,--,3.0,3.5
"Sugars, total",g,--,--,4.00,4.71
Minerals
"Calcium, Ca",mg,--,--,100,118
"Iron, Fe",mg,--,--,0.00,0.00
"Sodium, Na",mg,--,--,750,882
Vitamins
"Vitamin C, total ascorbic acid",mg,--,--,0.0,0.0
"Vitamin A, IU",IU,--,--,294,346
Lipids
"Fatty acids, total saturated",g,--,--,1.998,2.350
"Fatty acids, total trans",g,--,--,0.000,0.000
"Cholesterol",mg,--,--,10,12
Amino Acids
Other
Ingredients
"PASTA RINGS (WHEAT FLOUR, ROSEMARY EXTRACT), CHEDDAR CHEESE (CULTURED PASTEURIZED MILK, SALT, ENZYMES), NONFAT MILK, WHEY, MALTODEXTRIN, BUTTER (CREAM, SALT), DISODIUM PHOSPHATE, YEAST EXTRACT, NATURAL FLAVOR, EXTRACTIVES OF ANNATTO." Date available: 08/11/2017 Date last updated by company: 08/11/2017
