Source: USDA Branded Food Products Database Release December 2017 Software v.3.8.6.4 2017-10-02
Report Run at: December 18, 2017 08:28 EST
"Nutrient data for: 45062526, OTHENTIC, CONDENSED GARDEN VEGETABLE SOUP, UPC: 855220003016"
Food Group:  Branded Food Products Database
Common Name:

Nutrient,Unit,Data points,Std. Error,"0.5 cup = 115.0g",1Value per 100 g,
Proximates
"Energy",kcal,--,--,140,122
"Protein",g,--,--,4.00,3.48
"Total lipid (fat)",g,--,--,4.00,3.48
"Carbohydrate, by difference",g,--,--,22.00,19.13
"Fiber, total dietary",g,--,--,1.0,0.9
"Sugars, total",g,--,--,3.00,2.61
Minerals
"Calcium, Ca",mg,--,--,40,35
"Iron, Fe",mg,--,--,0.77,0.67
"Potassium, K",mg,--,--,190,165
"Sodium, Na",mg,--,--,690,600
Vitamins
"Vitamin C, total ascorbic acid",mg,--,--,7.7,6.7
"Vitamin A, IU",IU,--,--,0,0
Lipids
"Fatty acids, total saturated",g,--,--,0.000,0.000
"Fatty acids, total trans",g,--,--,0.000,0.000
"Cholesterol",mg,--,--,0,0
Amino Acids
Other
Ingredients
"VEGETABLES (POTATOES CARROTS, GREEN PEAS, ONION, CELERY, PARSLEY, PARSLEY LEAVES), WATER, NOODLES, CREAM, WHEAT FLOUR, MARGARINE, SALT, CANOLA OIL, DRIED VEGETABLES, BLACK PEPPER, SOY PROTEIN, YEAST PROTEIN, NATURAL COLORS: TURMERIC, RIBOFLAVIN." Date available: 06/24/2017 Date last updated by company: 06/24/2017
