Source: USDA Branded Food Products Database Release December 2017 Software v.3.8.6.4 2017-10-02
Report Run at: December 18, 2017 08:31 EST
"Nutrient data for: 45143597, OUR FAMILY, CHOCOLATE CRANBERRY ALMOND TRAIL MIX, UPC: 070253272202"
Food Group:  Branded Food Products Database
Common Name:

Nutrient,Unit,Data points,Std. Error,"1 OUNCE = 28.0g",1Value per 100 g,
Proximates
"Energy",kcal,--,--,140,500
"Protein",g,--,--,4.00,14.29
"Total lipid (fat)",g,--,--,9.00,32.14
"Carbohydrate, by difference",g,--,--,13.00,46.43
"Fiber, total dietary",g,--,--,2.0,7.1
"Sugars, total",g,--,--,9.00,32.14
Minerals
"Calcium, Ca",mg,--,--,20,71
"Iron, Fe",mg,--,--,0.64,2.29
"Potassium, K",mg,--,--,120,429
"Sodium, Na",mg,--,--,50,179
Vitamins
"Vitamin C, total ascorbic acid",mg,--,--,0.0,0.0
"Vitamin A, IU",IU,--,--,0,0
Lipids
"Fatty acids, total saturated",g,--,--,1.999,7.140
"Fatty acids, total trans",g,--,--,0.000,0.000
"Cholesterol",mg,--,--,0,0
Amino Acids
Other
Ingredients
"PEANUTS (PEANUTS, PEANUT AND/OR SUNFLOWER OIL, SALT), DRIED CRANBERRIES (CRANBERRIES, SUGAR, SUNFLOWER, OIL), ALMONDS (ALMONDS, PEANUT AND/OR SUNFLOWER OIL, SALT), DARK CHOCOLATE CHUNKS (SUGAR, CHOCOLATE LIQUOR COCOA BUTTER, SOY LECITHIN, SALT AND VANILLA)." Date available: 07/14/2017 Date last updated by company: 07/14/2017
