Source: USDA Branded Food Products Database Release December 2017 Software v.3.8.6.4 2017-10-02
Report Run at: December 18, 2017 08:36 EST
"Nutrient data for: 45135987, OUR SPECIALTY, OATMEAL RAISIN COOKIES, UPC: 049800132504"
Food Group:  Branded Food Products Database
Common Name:

Nutrient,Unit,Data points,Std. Error,"1 COOKIE = 34.0g",1Value per 100 g,
Proximates
"Energy",kcal,--,--,170,500
"Protein",g,--,--,2.00,5.88
"Total lipid (fat)",g,--,--,7.00,20.59
"Carbohydrate, by difference",g,--,--,23.00,67.65
"Fiber, total dietary",g,--,--,1.0,2.9
"Sugars, total",g,--,--,11.00,32.35
Minerals
"Calcium, Ca",mg,--,--,0,0
"Iron, Fe",mg,--,--,1.06,3.11
"Sodium, Na",mg,--,--,150,441
Vitamins
"Vitamin C, total ascorbic acid",mg,--,--,0.0,0.0
"Vitamin A, IU",IU,--,--,441,1297
Lipids
"Fatty acids, total saturated",g,--,--,3.499,10.290
"Fatty acids, total trans",g,--,--,0.000,0.000
"Cholesterol",mg,--,--,5,15
Amino Acids
Other
Ingredients
"ENRICHED UNBLEACHED WHEAT FLOUR (WHEAT FLOUR, NIACIN, REDUCED IRON, THIAMINE MONONITRATE, RIBOFLAVIN, FOLIC ACID), MAR- GARINE (PALM OIL, WATER, SOYBEAN OIL, SALT, MONO AND DIGLYCERIDES, SOY LECITHIN, TO PRESERVE FRESHNESS (POTAS-SIUM SORBATE), VITAMIN A PALMITATE), SUGAR, OATS, RAI-SINS, CONTAINS LESS THAN 2% OF THE FOLLOWING: MOLASSES, EGG WHITES, HIGH FRUCTOSE CORN SYRUP, LEAVENING (SO-DIUM ACID PYROPHOSPHATE BAKING SODA, MONOCALCIUM PHOSPHATE), EGGS, CINNAMON NATURAL AND ARTIFICIAL FLA-VOR, SALT, SPICES, MODIFIED CORNSTARCH, CORN SYRUP SOLIDS, CALCIUM PHOSPHATE." Date available: 06/25/2017 Date last updated by company: 06/25/2017
