Source: USDA Branded Food Products Database Release December 2017 Software v.3.8.6.4 2017-10-02
Report Run at: December 18, 2017 08:35 EST
"Nutrient data for: 45156211, OUR FAMILY, TRAIL MIX, FRUIT & NUT, UPC: 070253272196"
Food Group:  Branded Food Products Database
Common Name:

Nutrient,Unit,Data points,Std. Error,"1 ONZ = 28.0g",1Value per 100 g,
Proximates
"Energy",kcal,--,--,120,429
"Protein",g,--,--,2.00,7.14
"Total lipid (fat)",g,--,--,4.50,16.07
"Carbohydrate, by difference",g,--,--,18.00,64.29
"Fiber, total dietary",g,--,--,1.0,3.6
"Sugars, total",g,--,--,13.00,46.43
Minerals
"Calcium, Ca",mg,--,--,20,71
"Iron, Fe",mg,--,--,1.29,4.59
"Potassium, K",mg,--,--,115,411
"Sodium, Na",mg,--,--,20,71
Vitamins
"Vitamin C, total ascorbic acid",mg,--,--,0.0,0.0
"Vitamin A, IU",IU,--,--,179,638
Lipids
"Fatty acids, total saturated",g,--,--,1.000,3.570
"Fatty acids, total trans",g,--,--,0.000,0.000
"Cholesterol",mg,--,--,0,0
Amino Acids
Other
Ingredients
"RAISINS, PEANUTS (PEANUTS, PEANUT AND/OR SUNFLOWER OIL), MANGO (MANGO, SUGAR, CITRIC ACID, SULFUR DIOXIDE, YELLOW 6 AND YELLOW 5), PINEAPPLE (PINEAPPLE, SUGAR, CITRIC ACID, SULFUR DIOXIDE), APRICOTS (APRICOTS, SULFUR DIOXIDE), BANANA CHIPS (BANANA, COCONUT OIL, SUGAR, BANANA FLAVORING), ALMONDS (ALMONDS, PEANUT AND/OR SUNFLOWER OIL), CRANBERRIES (CRANBERRIES (CRANBERRIES, SUGAR, SUNFLOWER OIL)." Date available: 07/14/2017 Date last updated by company: 07/14/2017
