Source: USDA Branded Food Products Database Release December 2017 Software v.3.8.6.4 2017-10-02
Report Run at: December 18, 2017 08:30 EST
"Nutrient data for: 45194305, OUR DELI SANDWICH, UPC: 018169667934"
Food Group:  Branded Food Products Database
Common Name:

Nutrient,Unit,Data points,Std. Error,"1 SANDWICH = 156.0g",1Value per 100 g,
Proximates
"Energy",kcal,--,--,331,212
"Protein",g,--,--,27.00,17.31
"Total lipid (fat)",g,--,--,12.00,7.69
"Carbohydrate, by difference",g,--,--,29.00,18.59
"Fiber, total dietary",g,--,--,2.0,1.3
"Sugars, total",g,--,--,3.00,1.92
Minerals
"Calcium, Ca",mg,--,--,200,128
"Iron, Fe",mg,--,--,0.97,0.62
"Sodium, Na",mg,--,--,700,449
Vitamins
"Vitamin C, total ascorbic acid",mg,--,--,0.0,0.0
"Vitamin A, IU",IU,--,--,89,57
Lipids
"Fatty acids, total saturated",g,--,--,6.006,3.850
"Fatty acids, total trans",g,--,--,0.000,0.000
"Cholesterol",mg,--,--,59,38
Amino Acids
Other
Ingredients
"ROAST BEEF (AFTER COOKING MAY CONTAIN UP TO A 10% SOLUTION OF WATER, SODIUM LACTATE, SALT, DEXTROSE, SODIUM PHOSPHATE, FLAVORING RUBBED WITH: SALT DEXTROSE, CARAMEL COLORING, SPICES, CELERY, FLAVORING), ITALIAN BREAD (ENRICHED UNBLEACHED FLOUR [WHEAT FLOUR, NIACIN, REDUCED IRON, THIAMINE MONONITRATE, RIBOFLAVIN, FOLIC ACID], WATER, YEAST, GRANULATED SUGAR, LESS THAN 2% OF WHEAT GLUTEN, SOYBEAN OIL, SALT, VINEGAR, WHITE RYE FLOUR, POTATO FLOUR BLEACHED OAT FIBER, DOUGH CONDITIONERS [MONOGLYCERIDES, SODIUM STEAROYL LACTYLATE, ASCORBIC ACID, CALCIUM SULFATE, ENZYMES], MONOCALCIUM PHOSPHATE CALCIUM PROPIONATE [PRESERVATIVE]), CHEDDAR CHEESE (CULTURED PASTEURIZED MILK, SALT, ENZYMES, ANNATTO COLOR)." Date available: 07/14/2017 Date last updated by company: 07/14/2017
