Source: USDA Branded Food Products Database Release December 2017 Software v.3.8.6.4 2017-10-02
Report Run at: December 18, 2017 08:37 EST
"Nutrient data for: 45326647, OUTLAW SURF & TURF SEASONING, UPC: 865279000294"
Food Group:  Branded Food Products Database
Common Name:

Nutrient,Unit,Data points,Std. Error,"0.5 tsp = 2.5g",1Value per 100 g,
Proximates
"Energy",kcal,--,--,0,0
"Protein",g,--,--,0.00,0.00
"Total lipid (fat)",g,--,--,0.00,0.00
"Carbohydrate, by difference",g,--,--,1.00,40.00
"Fiber, total dietary",g,--,--,0.0,0.0
"Sugars, total",g,--,--,0.00,0.00
Minerals
"Sodium, Na",mg,--,--,542,21680
Vitamins
Lipids
"Fatty acids, total saturated",g,--,--,0.000,0.000
"Fatty acids, total trans",g,--,--,0.000,0.000
"Cholesterol",mg,--,--,0,0
Amino Acids
Other
Ingredients
"SALT, BLACK PEPPER, SUGAR, GARLIC, ONION, SPICES (INCLUDING PAPRIKA AND EXTRACTIVES OF PAPRIKA), RED BELL GRANULES, MODIFIED FOOD STARCH, AND NATURAL FLAVORING, WITH LESS THAN 2% SILICON DIOXIDE AND SOYBEAN OIL ADDED TO PREVENT CAKING." Date available: 10/13/2017 Date last updated by company: 10/13/2017
