Source: USDA Branded Food Products Database Release December 2017 Software v.3.8.6.4 2017-10-02
Report Run at: December 18, 2017 08:42 EST
"Nutrient data for: 45189503, OVEN ROASTED PUMPKIN PASTA PURSE, UPC: 008006935401"
Food Group:  Branded Food Products Database
Common Name:

Nutrient,Unit,Data points,Std. Error,"1 cup = 100.0g",1Value per 100 g,
Proximates
"Energy",kcal,--,--,250,250
"Protein",g,--,--,10.00,10.00
"Total lipid (fat)",g,--,--,5.00,5.00
"Carbohydrate, by difference",g,--,--,41.00,41.00
"Fiber, total dietary",g,--,--,3.0,3.0
"Sugars, total",g,--,--,1.00,1.00
Minerals
"Calcium, Ca",mg,--,--,100,100
"Iron, Fe",mg,--,--,4.50,4.50
"Sodium, Na",mg,--,--,330,330
Vitamins
"Vitamin C, total ascorbic acid",mg,--,--,6.0,6.0
"Vitamin A, IU",IU,--,--,4375,4375
Lipids
"Fatty acids, total saturated",g,--,--,2.500,2.500
"Fatty acids, total trans",g,--,--,0.000,0.000
"Cholesterol",mg,--,--,15,15
Amino Acids
Other
Ingredients
"FILLING: PUMPKIN, RICOTTA CHEESE (PASTEURIZED WHEY, WHOLE MILK, CREAM, VINEGAR, SALT), CHEDDAR CHEESE (MILK, ENZYMES, SALT), PARMESAN CHEESE (PASTEURIZED MILK, CHEESE CULTURES, SALT, ENZYMES), BREADCRUMBS (WHEAT FLOUR, EVAPORATED CANE SYRUP, YEAST, SEA SALT), PARMESAN FLAVOR (PARMESAN CHEESE [MILK, CULTURE, SALT, ENZYMES], SALT, YEAST EXTRACT, UNSALTED BUTTER, CORN OIL, OLIVE OIL, CREME POWDER, SUGAR AND NATURAL FLAVORING), CANOLA OIL, ANNATTO OIL, SAGE, CINNAMON, SALT, ALL SPICE, CLOVE, NUTMEG, WHITE PEPPER. PASTA: DURUM FLOUR, WATER, EGGS, ANNATTO OIL." Date available: 07/14/2017 Date last updated by company: 07/14/2017
