Source: USDA Branded Food Products Database Release December 2017 Software v.3.8.6.4 2017-10-02
Report Run at: December 18, 2017 08:45 EST
"Nutrient data for: 45279031, OVEN ROASTED TURKEY BREAST, UPC: 044500076509"
Food Group:  Branded Food Products Database
Common Name:

Nutrient,Unit,Data points,Std. Error,"2.0 SLICES = 53.0g",1Value per 100 g,
Proximates
"Energy",kcal,--,--,50,94
"Protein",g,--,--,10.00,18.87
"Total lipid (fat)",g,--,--,0.50,0.94
"Carbohydrate, by difference",g,--,--,1.00,1.89
"Fiber, total dietary",g,--,--,0.0,0.0
"Sugars, total",g,--,--,0.00,0.00
Minerals
"Calcium, Ca",mg,--,--,0,0
"Iron, Fe",mg,--,--,0.38,0.71
"Potassium, K",mg,--,--,400,755
"Sodium, Na",mg,--,--,470,887
Vitamins
"Vitamin C, total ascorbic acid",mg,--,--,0.0,0.0
"Vitamin A, IU",IU,--,--,0,0
Lipids
"Fatty acids, total saturated",g,--,--,0.000,0.000
"Fatty acids, total trans",g,--,--,0.000,0.000
"Cholesterol",mg,--,--,30,57
Amino Acids
Other
Ingredients
"TURKEY BREAST, TURKEY BROTH, CONTAINS 2% OR LESS: POTASSIUM LACTATE, SALT, SODIUM PHOSPHATE, SUGAR, SODIUM PROPIONATE, FLAVOR, CARAMEL COLOR." Date available: 07/14/2017 Date last updated by company: 07/14/2017
