Source: USDA Branded Food Products Database Release December 2017 Software v.3.8.6.4 2017-10-02
Report Run at: December 18, 2017 08:44 EST
"Nutrient data for: 45217057, OVEN ROASTED TURKEY BREAST, UPC: 688267077067"
Food Group:  Branded Food Products Database
Common Name:

Nutrient,Unit,Data points,Std. Error,"2.0 ONZ = 56.0g",1Value per 100 g,
Proximates
"Energy",kcal,--,--,50,89
"Protein",g,--,--,11.00,19.64
"Total lipid (fat)",g,--,--,0.00,0.00
"Carbohydrate, by difference",g,--,--,1.00,1.79
"Sugars, total",g,--,--,0.00,0.00
Minerals
"Iron, Fe",mg,--,--,0.35,0.63
"Sodium, Na",mg,--,--,360,643
Vitamins
Lipids
"Fatty acids, total saturated",g,--,--,0.000,0.000
"Cholesterol",mg,--,--,30,54
Amino Acids
Other
Ingredients
"TURKEY, WATER, CONTAINS 2% OR LESS OF NATIVE POTATO STARCH, SEA SALT." Date available: 07/14/2017 Date last updated by company: 07/14/2017
