Source: USDA Branded Food Products Database Release December 2017 Software v.3.8.6.4 2017-10-02
Report Run at: December 18, 2017 08:44 EST
"Nutrient data for: 45183524, OVEN ROASTED TURKEY BREAST, UPC: 070100045324"
Food Group:  Branded Food Products Database
Common Name:

Nutrient,Unit,Data points,Std. Error,"3.0 SLICES = 57.0g",1Value per 100 g,
Proximates
"Energy",kcal,--,--,70,123
"Protein",g,--,--,12.00,21.05
"Total lipid (fat)",g,--,--,1.50,2.63
"Carbohydrate, by difference",g,--,--,1.00,1.75
"Fiber, total dietary",g,--,--,0.2,0.4
"Sugars, total",g,--,--,0.00,0.00
Minerals
"Iron, Fe",mg,--,--,0.70,1.22
"Sodium, Na",mg,--,--,450,789
Vitamins
Lipids
"Fatty acids, total saturated",g,--,--,0.000,0.000
"Fatty acids, total trans",g,--,--,0.000,0.000
"Cholesterol",mg,--,--,30,53
Amino Acids
Other
Ingredients
"TURKEY BREAST, TURKEY BROTH, CONTAINS 2% OR LESS OF SEA SALT, VINEGAR, CARRAGEENAN (FROM SEAWEED), CANE SUGAR, NATURAL FLAVORS." Date available: 07/14/2017 Date last updated by company: 07/14/2017
