Source: USDA Branded Food Products Database Release December 2017 Software v.3.8.6.4 2017-10-02
Report Run at: December 18, 2017 08:37 EST
"Nutrient data for: 45156372, OVEN BAKED, CARAMEL COCONUT & FUDGE COOKIES, UPC: 020200420026"
Food Group:  Branded Food Products Database
Common Name:

Nutrient,Unit,Data points,Std. Error,"2.0 COOKIES = 27.0g",1Value per 100 g,
Proximates
"Energy",kcal,--,--,130,481
"Protein",g,--,--,1.00,3.70
"Total lipid (fat)",g,--,--,6.00,22.22
"Carbohydrate, by difference",g,--,--,18.00,66.67
"Fiber, total dietary",g,--,--,1.0,3.7
"Sugars, total",g,--,--,11.00,40.74
Minerals
"Calcium, Ca",mg,--,--,0,0
"Iron, Fe",mg,--,--,1.33,4.94
"Potassium, K",mg,--,--,50,185
"Sodium, Na",mg,--,--,55,204
Vitamins
"Vitamin C, total ascorbic acid",mg,--,--,0.0,0.0
"Vitamin A, IU",IU,--,--,0,0
Lipids
"Fatty acids, total saturated",g,--,--,5.000,18.520
"Fatty acids, total monounsaturated",g,--,--,0.500,1.850
"Fatty acids, total polyunsaturated",g,--,--,0.000,0.000
"Fatty acids, total trans",g,--,--,0.000,0.000
"Cholesterol",mg,--,--,0,0
Amino Acids
Other
Ingredients
"SUGAR, ENRICHED FLOUR (WHEAT FLOUR, NIACIN, REDUCED IRON, THIAMINE MONONITRATE, RIBOFLAVIN, FOLIC ACID), VEGETABLE OIL (PALM KERNEL, PALM, HYDROGENATED COCONUT AND SOYBEAN OILS), COCONUT, CORN SYRUP, HIGH FRUCTOSE CORN SYRUP, SWEETENED CONDENSED MILK (MILK, SUGAR), SORBITOL, COCOA (PROCESSED WITH ALKALI), CORN SUGAR, WHEY, GLYCERINE, SALT, SOY LECITHIN, BAKING SODA, NATURAL AND ARTIFICIAL FLAVOR, MONOCALCIUM PHOSPHATE." Date available: 07/14/2017 Date last updated by company: 07/14/2017
