Source: USDA Branded Food Products Database Release December 2017 Software v.3.8.6.4 2017-10-02
Report Run at: December 18, 2017 08:48 EST
"Nutrient data for: 45171259, OVER THE TOP, STAR SPANGLED, UPC: 011225128288"
Food Group:  Branded Food Products Database
Common Name:

Nutrient,Unit,Data points,Std. Error,"1 tsp = 4.0g",1Value per 100 g,
Proximates
"Energy",kcal,--,--,15,375
"Protein",g,--,--,0.00,0.00
"Total lipid (fat)",g,--,--,0.00,0.00
"Carbohydrate, by difference",g,--,--,3.00,75.00
"Fiber, total dietary",g,--,--,0.0,0.0
"Sugars, total",g,--,--,2.00,50.00
Minerals
"Calcium, Ca",mg,--,--,0,0
"Iron, Fe",mg,--,--,0.00,0.00
"Sodium, Na",mg,--,--,0,0
Vitamins
"Vitamin C, total ascorbic acid",mg,--,--,0.0,0.0
"Vitamin A, IU",IU,--,--,0,0
Lipids
"Fatty acids, total saturated",g,--,--,0.000,0.000
"Fatty acids, total trans",g,--,--,0.000,0.000
"Cholesterol",mg,--,--,0,0
Amino Acids
Other
Ingredients
"SUGAR, RICE FLOUR, PARTIALLY HYDROGENATED VEGETABLE OIL (COTTONSEED AND/OR SOYBEAN), CORN STARCH, GUM ARABIC CELLULOSE GUM, CONFECTIONER'S GLAZE CARRAGEENAN, SOY LECITHIN, TITANIIUM DIOXIDE, RED 40, YELLOW 6, BLUE 1, BLUE 2 LAKE AND ARTIFICIAL FLAVOR." Date available: 07/14/2017 Date last updated by company: 07/14/2017
