Source: USDA Branded Food Products Database Release December 2017 Software v.3.8.6.4 2017-10-02
Report Run at: December 18, 2017 08:49 EST
"Nutrient data for: 45170981, OWENS, TURKEY SAUSAGE PATTIES, UPC: 070110001266"
Food Group:  Branded Food Products Database
Common Name:

Nutrient,Unit,Data points,Std. Error,"2.0 PATTIES = 68.0g",1Value per 100 g,
Proximates
"Energy",kcal,--,--,100,147
"Protein",g,--,--,12.00,17.65
"Total lipid (fat)",g,--,--,5.00,7.35
"Carbohydrate, by difference",g,--,--,1.00,1.47
"Fiber, total dietary",g,--,--,0.0,0.0
"Sugars, total",g,--,--,0.00,0.00
Minerals
"Calcium, Ca",mg,--,--,20,29
"Iron, Fe",mg,--,--,0.90,1.32
"Sodium, Na",mg,--,--,500,735
Vitamins
"Vitamin C, total ascorbic acid",mg,--,--,0.0,0.0
"Vitamin A, IU",IU,--,--,0,0
Lipids
"Fatty acids, total saturated",g,--,--,1.000,1.470
"Fatty acids, total trans",g,--,--,0.000,0.000
"Cholesterol",mg,--,--,45,66
Amino Acids
Other
Ingredients
"TURKEY, WATER, SEA SALT, CONTAINS 2% OR LESS OF THE FOLLOWING: CANE SUGAR, NATURAL FLAVORING, SPICES, ISOLATED POTATO PRODUCT." Date available: 07/14/2017 Date last updated by company: 07/14/2017
