Source: USDA Branded Food Products Database Release December 2017 Software v.3.8.6.4 2017-10-02
Report Run at: December 18, 2017 08:51 EST
"Nutrient data for: 45316017, OYSTER SAUCE, UPC: 070670004745"
Food Group:  Branded Food Products Database
Common Name:

Nutrient,Unit,Data points,Std. Error,"1 Tbsp = 16.0g",1Value per 100 g,
Proximates
"Energy",kcal,--,--,15,94
"Protein",g,--,--,0.00,0.00
"Total lipid (fat)",g,--,--,0.00,0.00
"Carbohydrate, by difference",g,--,--,3.00,18.75
"Sugars, total",g,--,--,3.00,18.75
Minerals
"Sodium, Na",mg,--,--,630,3938
Vitamins
Lipids
Amino Acids
Other
Ingredients
"WATER, SUGAR, SOY SAUCE (WATER, SOYBEANS, WHEAT, SALT), SALT, FOOD STARCH, PROTEIN EXTRACT (FISH PROTEIN [BONITO, OYSTER]), YEAST EXTRACT, NATURAL AND ARTIFICIAL FLAVORS, WHEAT FLOUR, CARAMEL COLOR, BISULFATE OF SODA, XANTHAN GUM, SODIUM BENZOATE (PRESERVATIVE)." Date available: 07/14/2017 Date last updated by company: 07/14/2017
