Source: USDA Branded Food Products Database Release December 2017 Software v.3.8.6.4 2017-10-02
Report Run at: December 18, 2017 13:51 EST
"Nutrient data for: 45126889, P'MOS, COMBINATION PIZZA, ITALIAN SAUSAGE & PEPPERONI, UPC: 075706180134"
Food Group:  Branded Food Products Database
Common Name:

Nutrient,Unit,Data points,Std. Error,"0.2 PIZZA = 139.0g",1Value per 100 g,
Proximates
"Energy",kcal,--,--,360,259
"Protein",g,--,--,17.00,12.23
"Total lipid (fat)",g,--,--,22.00,15.83
"Carbohydrate, by difference",g,--,--,24.01,17.27
"Fiber, total dietary",g,--,--,1.0,0.7
"Sugars, total",g,--,--,3.00,2.16
Minerals
"Calcium, Ca",mg,--,--,350,252
"Iron, Fe",mg,--,--,1.52,1.09
"Sodium, Na",mg,--,--,1049,755
Vitamins
"Vitamin C, total ascorbic acid",mg,--,--,8.5,6.1
"Vitamin A, IU",IU,--,--,702,505
Lipids
"Fatty acids, total saturated",g,--,--,10.995,7.910
"Fatty acids, total trans",g,--,--,0.000,0.000
"Cholesterol",mg,--,--,60,43
Amino Acids
Other
Ingredients
"LOW MOISTURE PART SKIM MOZZARELLA CHEESE (PASTEURIZED PART SKIM MILK, CHEESE CULTURES, SALT, ENZYMES), CRUST (FLOUR [WHEAT FLOUR, ENZYME], WATER, PALM OIL, WHITE DEGERMED CORN MEAL, YEAST, CONTAINS 2% OR LESS OF: SALT, SOYBEAN OIL, SUGAR, CULTURED WHEY, WHEY, VINEGAR, BAKING POWDER (SODIUM ACID PYROPHOSPHATE, SODIUM BICARBONATE, CORN STARCH, MONOCALCIUM PHOSPHATE, CALCIUM SULFATE], WHEAT FLOUR, ASCORBIC ACID, ENZYMES, FERROUS SULFATE, NIACIN, WHEAT FLOUR, THIAMINE MONONITRATE, RIBOFLAVIN, FOLIC ACID, SOY LECITHIN [PROCESSING AID]), SAUCE (WATER, TOMATOES, SPICE [SALT, SPICES, DEHYDRATED GARLIC, CITRIC ACID], OLIVE OIL, GARLIC), ITALIAN SAUSAGE (PORK, SALT, SPICES, WATER, CORN SYRUP SOLIDS, PAPRIKA, FLAVORING, DISODIUM INOSINATE AND DISODIUM GUANYLATE, BHA, BHT, PROPYLGALLATE, SOY LECITHIN [PROCESSING AID]), PEPPERONI (PORK, MECHANICALLY SEPARATED CHICKEN, BEEF, SALT, SPICES, DEXTROSE, LACTIC ACID STARTER CULTURE, OLEORESIN OF PAPRIKA, SODIUM ASCORBATE, FLAVORING, SODIUM NITRITE, BHA, BHT, CITRIC ACID)." Date available: 07/14/2017 Date last updated by company: 07/14/2017
