Source: USDA Branded Food Products Database Release December 2017 Software v.3.8.6.4 2017-10-02
Report Run at: December 17, 2017 07:02 EST
"Nutrient data for: 45183692, P&P LOAF, UPC: 070729041301"
Food Group:  Branded Food Products Database
Common Name:

Nutrient,Unit,Data points,Std. Error,"1 SLICE = 28.0g",1Value per 100 g,
Proximates
"Energy",kcal,--,--,90,321
"Protein",g,--,--,2.00,7.14
"Total lipid (fat)",g,--,--,7.00,25.00
"Carbohydrate, by difference",g,--,--,4.00,14.29
"Fiber, total dietary",g,--,--,0.0,0.0
"Sugars, total",g,--,--,2.00,7.14
Minerals
"Calcium, Ca",mg,--,--,0,0
"Iron, Fe",mg,--,--,0.00,0.00
"Sodium, Na",mg,--,--,260,929
Vitamins
"Vitamin C, total ascorbic acid",mg,--,--,0.0,0.0
"Vitamin A, IU",IU,--,--,0,0
Lipids
"Fatty acids, total saturated",g,--,--,1.999,7.140
"Fatty acids, total trans",g,--,--,0.000,0.000
"Cholesterol",mg,--,--,15,54
Amino Acids
Other
Ingredients
"MECHANICALLY SEPARATED CHICKEN, PORK, DICED PICKLES (CUCUMBERS, SUGAR, WATER, SALT, VINEGAR, ALUM, NATURAL AND ARTIFICIAL FLAVORS, TURMERIC, BENZOATE OF SODA), CORN SYRUP, MODIFIED FOOD STARCH, DICED RED BELL PEPPERS (RED BELL PEPPERS, VINEGAR, SALT, SODIUM BENZOATE, CALCIUM CHLORIDE), WATER, FLAVORINGS, SALT, BEEF, CONTAINS 2% OR LESS OF: DEXTROSE, SUGAR, POTASSIUM LACTATE, SODIUM PHOSPHATE, SODIUM DIACETATE, SODIUM ERYTHORBATE, SODIUM NITRITE." Date available: 07/14/2017 Date last updated by company: 07/14/2017
