Source: USDA Branded Food Products Database Release December 2017 Software v.3.8.6.4 2017-10-02
Report Run at: December 17, 2017 09:29 EST
"Nutrient data for: 45114428, P$$T..., DUPLEX SANDWICH COOKIES, UPC: 011110018625"
Food Group:  Branded Food Products Database
Common Name:

Nutrient,Unit,Data points,Std. Error,"2.0 COOKIES = 33.0g",1Value per 100 g,
Proximates
"Energy",kcal,--,--,160,485
"Protein",g,--,--,1.00,3.03
"Total lipid (fat)",g,--,--,6.00,18.18
"Carbohydrate, by difference",g,--,--,24.00,72.73
"Fiber, total dietary",g,--,--,1.0,3.0
"Sugars, total",g,--,--,11.00,33.33
Minerals
"Calcium, Ca",mg,--,--,0,0
"Iron, Fe",mg,--,--,1.09,3.31
"Sodium, Na",mg,--,--,110,333
Vitamins
"Vitamin C, total ascorbic acid",mg,--,--,0.0,0.0
"Vitamin A, IU",IU,--,--,0,0
Lipids
"Fatty acids, total saturated",g,--,--,1.502,4.550
"Fatty acids, total trans",g,--,--,0.000,0.000
"Cholesterol",mg,--,--,0,0
Amino Acids
Other
Ingredients
"ENRICHED BLEACHED WHEAT FLOUR (WHEAT FLOUR, NIACIN, REDUCED IRON, THIAMINE MONONITRATE, RIBOFLAVIN, FOLIC ACID), SUGAR, VEGETABLE OIL (CONTAINS ONE OR MORE OF THE FOLLOWING: PALM, CANOLA, SOYBEAN [WITH TBHQ {PRESERVATIVE}]), DEXTROSE, HIGH FRUCTOSE CORN SYRUP, CORN FLOUR, CONTAINS 2% OR LESS OF: COCOA PROCESSED WITH ALKALI, CORN STARCH, SALT, LEAVENING (BAKING SODA, CALCIUM PHOSPHATE), SOY LECITHIN, ARTIFICIAL COLORS (YELLOW 5 AND YELLOW 6), NATURAL AND ARTIFICIAL FLAVORS." Date available: 06/25/2017 Date last updated by company: 06/25/2017
