Source: USDA Branded Food Products Database Release December 2017 Software v.3.8.6.4 2017-10-02
Report Run at: December 18, 2017 08:52 EST
"Nutrient data for: 45135401, PACE PASTA CHILI BEANS, UNPREPARED, GTIN: 00041565214006"
Food Group:  Branded Food Products Database
Common Name:

Nutrient,Unit,Data points,Std. Error,"1 cup = 245.0g",1Value per 100 g,
Proximates
"Energy",kcal,--,--,211,86
"Protein",g,--,--,10.00,4.08
"Total lipid (fat)",g,--,--,7.01,2.86
"Carbohydrate, by difference",g,--,--,27.00,11.02
"Fiber, total dietary",g,--,--,4.9,2.0
"Sugars, total",g,--,--,5.00,2.04
Minerals
"Calcium, Ca",mg,--,--,66,27
"Iron, Fe",mg,--,--,2.50,1.02
"Sodium, Na",mg,--,--,889,363
Vitamins
"Vitamin C, total ascorbic acid",mg,--,--,0.0,0.0
"Vitamin A, IU",IU,--,--,1000,408
Lipids
"Fatty acids, total saturated",g,--,--,2.99,1.22
"Fatty acids, total trans",g,--,--,0.00,0.00
"Cholesterol",mg,--,--,15,6
Amino Acids
Other
Ingredients
"WATER, TOMATO PUREE (WATER, TOMATO PASTE), SEASONED COOKED BEEF AND PORK CRUMBLE (BEEF AND PORK, SALT, SPICE EXTRACTIVE), PINTO BEANS, MODIFIED FOOD STARCH, CONTAINS LESS THAN 2% OF: RED PEPPERS, SPICES, DEHYDRATED ONIONS, JALAPENO PEPPERS, WHEAT FLOUR, SOY PROTEIN CONCENTRATE, SUGAR, SALT, CHIPOTLE ADOBO PUREE (WATER, ONION, DEHYDRATED CHIPOTLE PEPPERS, TOMATO PASTE, CANOLA OIL, SUGAR, VINEGAR, SALT, GARLIC, NATURAL SMOKE FLAVORING, SPICE), DEHYDRATED GARLIC, PAPRIKA, CARAMEL COLOR." Date last updated by company: 10/21/2016
