Source: USDA Branded Food Products Database Release December 2017 Software v.3.8.6.4 2017-10-02
Report Run at: December 18, 2017 08:52 EST
"Nutrient data for: 45135402, PACE DIPS QUESO BLANCO, UNPREPARED, GTIN: 00041565227419"
Food Group:  Branded Food Products Database
Common Name:

Nutrient,Unit,Data points,Std. Error,"2.0 tbsp = 32.0g",1Value per 100 g,
Proximates
"Energy",kcal,--,--,40,125
"Protein",g,--,--,1.00,3.12
"Total lipid (fat)",g,--,--,3.00,9.38
"Carbohydrate, by difference",g,--,--,3.00,9.38
"Fiber, total dietary",g,--,--,0.0,0.0
"Sugars, total",g,--,--,0.00,0.00
Minerals
"Calcium, Ca",mg,--,--,22,69
"Iron, Fe",mg,--,--,0.00,0.00
"Sodium, Na",mg,--,--,220,688
Vitamins
"Vitamin C, total ascorbic acid",mg,--,--,0.0,0.0
"Vitamin A, IU",IU,--,--,0,0
Lipids
"Fatty acids, total saturated",g,--,--,1.00,3.12
"Fatty acids, total trans",g,--,--,0.00,0.00
"Cholesterol",mg,--,--,5,16
Amino Acids
Other
Ingredients
"WATER, JALAPENO PEPPERS, SOYBEAN OIL, PEPPER JACK CHEESE (CULTURED MILK, JALAPENO PEPPERS, SALT, ENZYMES), MODIFIED FOOD STARCH, MALTODEXTRIN, WHITE CHEDDAR CHEESE (MILK, CULTURES, SALT, ENZYMES), CONTAINS LESS THAN 2% OF: FLAVORING, SALT, COLOR ADDED, DISODIUM PHOSPHATE-DIHYDRATE, VINEGAR, TRISODIUM CITRATE, DATEM, DEHYDRATED RED PEPPERS, SORBIC ACID, LACTIC ACID, CITRIC ACID, DEHYDRATED ONIONS, YEAST EXTRACT, DEHYDRATED VINEGAR." Date last updated by company: 10/21/2016
