Source: USDA Branded Food Products Database Release December 2017 Software v.3.8.6.4 2017-10-02
Report Run at: December 18, 2017 08:53 EST
"Nutrient data for: 45062035, PACIFIC CHAI, SPICE CHAI LATTE, UPC: 661524001067"
Food Group:  Branded Food Products Database
Common Name:

Nutrient,Unit,Data points,Std. Error,"2.0 Tbsp = 21.0g",1Value per 100 g,
Proximates
"Energy",kcal,--,--,90,429
"Protein",g,--,--,1.00,4.76
"Total lipid (fat)",g,--,--,1.50,7.14
"Carbohydrate, by difference",g,--,--,16.00,76.19
"Fiber, total dietary",g,--,--,0.6,2.8
"Sugars, total",g,--,--,14.00,66.67
Minerals
"Calcium, Ca",mg,--,--,40,190
"Iron, Fe",mg,--,--,0.00,0.00
"Sodium, Na",mg,--,--,20,95
Vitamins
"Vitamin C, total ascorbic acid",mg,--,--,0.0,0.0
"Vitamin A, IU",IU,--,--,0,0
Lipids
"Fatty acids, total saturated",g,--,--,1.499,7.140
"Fatty acids, total trans",g,--,--,0.000,0.000
"Cholesterol",mg,--,--,0,0
Amino Acids
Other
Ingredients
"SUGAR, NONDAIRY CREAMER (COCONUT OIL, CORN SYRUP SOLIDS, SODIUM CASEINATE (A MILK DERIVATIVE), DIPOTASSIUM PHOSPHATE, SUGAR, MONO AND DIGLYCERIDES, SILICON DIOXIDE, TETRASODIUM PYROPHOSPHATE, SOY LECITHIN), NONFAT DRY MILK, SWEET WHEY, BLACK TEA, NATURAL & ARTIFICIAL FLAVORS, SPICE BLEND (CINNAMON, ANISE, CLOVES, GINGER), HONEY." Date available: 07/14/2017 Date last updated by company: 07/14/2017
