Source: USDA Branded Food Products Database Release December 2017 Software v.3.8.6.4 2017-10-02
Report Run at: December 18, 2017 08:54 EST
"Nutrient data for: 45193094, PACIFIC, ORGANIC ALMOND NON-DAIRY BEVERAGE, VANILLA, UPC: 052603065108"
Food Group:  Branded Food Products Database
Common Name:

Nutrient,Unit,Data points,Std. Error,"1 CUP = 240.0g",1Value per 100 g,
Proximates
"Energy",kcal,--,--,70,29
"Protein",g,--,--,1.01,0.42
"Total lipid (fat)",g,--,--,3.00,1.25
"Carbohydrate, by difference",g,--,--,10.99,4.58
"Fiber, total dietary",g,--,--,0.0,0.0
"Sugars, total",g,--,--,10.01,4.17
Minerals
"Calcium, Ca",mg,--,--,19,8
"Iron, Fe",mg,--,--,0.36,0.15
"Potassium, K",mg,--,--,149,62
"Sodium, Na",mg,--,--,149,62
Vitamins
"Vitamin C, total ascorbic acid",mg,--,--,0.0,0.0
"Riboflavin",mg,--,--,0.509,0.212
"Vitamin A, IU",IU,--,--,499,208
"Vitamin D",IU,--,--,101,42
Lipids
"Fatty acids, total saturated",g,--,--,0.000,0.000
"Fatty acids, total trans",g,--,--,0.000,0.000
"Cholesterol",mg,--,--,0,0
Amino Acids
Other
Ingredients
"ALMOND BASE* (FILTERED WATER, ALMONDS*), DRIED CANE SYRUP*, POTASSIUM CITRATE, SEA SALT, NATURAL VANILLA FLAVOR WITH OTHER NATURAL FLAVORS, CARRAGEENAN, RIBOFLAVIN (B2), VITAMIN A PALMITATE, VITAMIN D2." Date available: 06/25/2017 Date last updated by company: 06/25/2017
