Source: USDA Branded Food Products Database Release December 2017 Software v.3.8.6.4 2017-10-02
Report Run at: December 18, 2017 08:53 EST
"Nutrient data for: 45090755, PACIFIC FARMS, WASABI, EXTRA HOT, UPC: 071828050003"
Food Group:  Branded Food Products Database
Common Name:

Nutrient,Unit,Data points,Std. Error,"1 Tbsp = 5.0g",1Value per 100 g,
Proximates
"Energy",kcal,--,--,5,100
"Protein",g,--,--,0.00,0.00
"Total lipid (fat)",g,--,--,0.00,0.00
"Carbohydrate, by difference",g,--,--,1.00,20.00
"Fiber, total dietary",g,--,--,1.0,20.0
Minerals
"Sodium, Na",mg,--,--,20,400
Vitamins
Lipids
Amino Acids
Other
Ingredients
"GRATED WASABI, WATER, CELLULOSE, MALTODEXTRIN, RICE VINEGAR, SORBITOL, SOYBEAN OIL, FLAVORS (NATURAL, ARTIFICIAL), SUGAR, SALT, XANTHAN GUM, PHOSPHORIC ACID, CITRIC ACID, TITANIUM DIOXIDE, GUMS (XANTHAN, GUAR), POTASSIUM SORBATE, FD&C YELLOW 5, GREEN 3." Date available: 06/25/2017 Date last updated by company: 06/25/2017
