Source: USDA Branded Food Products Database Release December 2017 Software v.3.8.6.4 2017-10-02
Report Run at: December 18, 2017 08:58 EST
"Nutrient data for: 45080159, PAD THAI NOODLE SOUP, UPC: 767335011070"
Food Group:  Branded Food Products Database
Common Name:

Nutrient,Unit,Data points,Std. Error,"28.0 GRM = 28.0g",1Value per 100 g,
Proximates
"Energy",kcal,--,--,100,357
"Protein",g,--,--,2.00,7.14
"Total lipid (fat)",g,--,--,0.00,0.00
"Carbohydrate, by difference",g,--,--,22.00,78.57
"Fiber, total dietary",g,--,--,1.0,3.6
"Sugars, total",g,--,--,3.00,10.71
Minerals
"Calcium, Ca",mg,--,--,20,71
"Iron, Fe",mg,--,--,0.64,2.29
"Sodium, Na",mg,--,--,310,1107
Vitamins
"Vitamin C, total ascorbic acid",mg,--,--,0.0,0.0
"Vitamin A, IU",IU,--,--,0,0
Lipids
"Fatty acids, total saturated",g,--,--,0.000,0.000
"Fatty acids, total trans",g,--,--,0.000,0.000
"Cholesterol",mg,--,--,0,0
Amino Acids
Other
Ingredients
"RICE NOODLES*, VEGETABLES* (ONION, GARLIC, CARROT, PEPPERS, CILANTRO, SHALLOTS), YEAST EXTRACT, NATURAL FLAVORS, ORGANIC CANE SUGAR, STARCHES (TAPIOCA, POTATO), LIME*, SEA SALT, TOFU* (SOYBEANS), TAMARIND*, SPICES, TURMERIC, MILD CHILES, PAPRIKA EXTRACT." Date available: 07/14/2017 Date last updated by company: 07/14/2017
