Source: USDA Branded Food Products Database Release December 2017 Software v.3.8.6.4 2017-10-02
Report Run at: December 18, 2017 08:58 EST
"Nutrient data for: 45037269, PAD THAI SEASONING MIX, UPC: 041390042164"
Food Group:  Branded Food Products Database
Common Name:

Nutrient,Unit,Data points,Std. Error,"2.33 tsp = 7.0g",1Value per 100 g,
Proximates
"Energy",kcal,--,--,20,286
"Protein",g,--,--,0.00,0.00
"Total lipid (fat)",g,--,--,0.00,0.00
"Carbohydrate, by difference",g,--,--,5.00,71.43
"Sugars, total",g,--,--,1.00,14.29
Minerals
"Sodium, Na",mg,--,--,510,7286
Vitamins
Lipids
Amino Acids
Other
Ingredients
"MALTODEXTRIN, DEHYDRATED SOY SAUCE (SOY SAUCE [WHEAT, SOYBEANS, SALT], MALTODEXTRIN, SALT), SALT, DEXTROSE, TOMATO POWDER, SUGAR, MODIFIED CORN STARCH, SPICES, DEHYDRATED ONION, SHRIMP POWDER, VINEGAR, OYSTER EXTRACT (MOLLUSCAN SHELLFISH), NATURAL FLAVORS." Date available: 06/24/2017 Date last updated by company: 06/24/2017
