Source: USDA Branded Food Products Database Release December 2017 Software v.3.8.6.4 2017-10-02
Report Run at: December 18, 2017 08:57 EST
"Nutrient data for: 45097425, PADMA'S EASY EXOTIC, WHOLE GRAIN BROWN RICE, UPC: 838869018016"
Food Group:  Branded Food Products Database
Common Name:

Nutrient,Unit,Data points,Std. Error,"1 CUP = 142.0g",1Value per 100 g,
Proximates
"Energy",kcal,--,--,200,141
"Protein",g,--,--,5.00,3.52
"Total lipid (fat)",g,--,--,1.51,1.06
"Carbohydrate, by difference",g,--,--,43.00,30.28
"Fiber, total dietary",g,--,--,3.0,2.1
"Sugars, total",g,--,--,0.00,0.00
Minerals
"Calcium, Ca",mg,--,--,20,14
"Iron, Fe",mg,--,--,0.23,0.16
"Sodium, Na",mg,--,--,0,0
Vitamins
"Vitamin C, total ascorbic acid",mg,--,--,0.0,0.0
"Vitamin A, IU",IU,--,--,0,0
Lipids
"Fatty acids, total saturated",g,--,--,0.000,0.000
"Fatty acids, total trans",g,--,--,0.000,0.000
"Cholesterol",mg,--,--,0,0
Amino Acids
Other
Ingredients
"COOKED ORGANIC BROWN RICE (WATER AND RICE)." Date available: 09/21/2017 Date last updated by company: 09/21/2017
