Source: USDA Branded Food Products Database Release December 2017 Software v.3.8.6.4 2017-10-02
Report Run at: December 18, 2017 09:02 EST
"Nutrient data for: 45082250, PALAZZOLO'S, GELATO, CREME DE MENTHE CHIP, UPC: 797043180089"
Food Group:  Branded Food Products Database
Common Name:

Nutrient,Unit,Data points,Std. Error,"4.0 ONZ = 113.0g",1Value per 100 g,
Proximates
"Energy",kcal,--,--,170,150
"Protein",g,--,--,2.99,2.65
"Total lipid (fat)",g,--,--,10.00,8.85
"Carbohydrate, by difference",g,--,--,18.00,15.93
"Fiber, total dietary",g,--,--,0.0,0.0
"Sugars, total",g,--,--,17.00,15.04
Minerals
"Calcium, Ca",mg,--,--,99,88
"Iron, Fe",mg,--,--,0.00,0.00
"Sodium, Na",mg,--,--,50,44
Vitamins
"Vitamin C, total ascorbic acid",mg,--,--,0.0,0.0
"Vitamin A, IU",IU,--,--,299,265
Lipids
"Fatty acids, total saturated",g,--,--,6.995,6.190
"Fatty acids, total trans",g,--,--,0.000,0.000
"Cholesterol",mg,--,--,35,31
Amino Acids
Other
Ingredients
"MILK, CREAM, SUGAR, CORN SYRUP, CREME DE MENTHE CHIPS (SUGAR, PARTIALLY HYDROGENATED VEGETABLE OILS (PALM KERNEL AND PALM), COCOA PROCESSED WITH ALKALI, NONFAT MILK, LACTOSE, MILK PROTEIN CONCENTRATE, SOY LECITHIN (A NATURAL EMULSIFIER), NATURAL AND ARTIFICIAL FLAVORS, PEPPERMINT OIL, COLORS ADDED (YELLOW 5 LAKE, BLUE 1 LAKE), NONFAT DRY MILK, CREME DE MENTHE (PROPYLENE GLYCOL, XANTHAN GUM, TURMERIC, BLUE 1, FLAVORS), VEGETABLE STABILIZER." Date available: 06/25/2017 Date last updated by company: 06/25/2017
