Source: USDA Branded Food Products Database Release December 2017 Software v.3.8.6.4 2017-10-02
Report Run at: December 18, 2017 09:08 EST
"Nutrient data for: 45126857, PALERMO'S, PIZZERIA MEDIUM CRUST MEAT LOVERS PIZZA, UPC: 075706148073"
Food Group:  Branded Food Products Database
Common Name:

Nutrient,Unit,Data points,Std. Error,"0.25 PIZZA = 142.0g",1Value per 100 g,
Proximates
"Energy",kcal,--,--,339,239
"Protein",g,--,--,12.00,8.45
"Total lipid (fat)",g,--,--,15.00,10.56
"Carbohydrate, by difference",g,--,--,37.01,26.06
"Fiber, total dietary",g,--,--,2.0,1.4
"Sugars, total",g,--,--,5.00,3.52
Minerals
"Calcium, Ca",mg,--,--,200,141
"Iron, Fe",mg,--,--,1.48,1.04
"Sodium, Na",mg,--,--,880,620
Vitamins
"Vitamin C, total ascorbic acid",mg,--,--,5.0,3.5
"Vitamin A, IU",IU,--,--,412,290
Lipids
"Fatty acids, total saturated",g,--,--,6.007,4.230
"Fatty acids, total trans",g,--,--,0.000,0.000
"Cholesterol",mg,--,--,36,25
Amino Acids
Other
Ingredients
"CRUST (ENRICHED WHEAT FLOUR [{FLOUR, NIACIN, REDUCED IRON, THIAMIN MONONITRATE, RIBOFLAVIN, FOLIC ACID}, MALTED BARLEY FLOUR, ASCORBIC ACID], WATER, SOYBEAN OIL, BREAD CRUMBS [WHEAT FLOUR, YEAST, SUGAR, SALT], YEAST, 2% OR LESS OF THE FOLLOWING: HONEY, SUGAR, SALT), LOW MOISTURE PART SKIM MOZZARELLA CHEESE (PASTEURIZED PART SKIM MILK, CHEESE CULTURES, SALT, ENZYMES), SAUCE (WATER, TOMATOES, SUGAR, SALT, DEHYDRATED GARLIC, SPICE), ITALIAN SAUSAGE (PORK, SPICES, WATER, SALT, CORN SYRUP SOLIDS, DRIED GARLIC, PAPRIKA, SUGAR, LEMON JUICE POWDER [CORN SYRUP SOLIDS, LEMON JUICE SOLIDS, LEMON OIL], FLAVORING, BHA, BHT, PROPYL GALLATE), PEPPERONI (PORK, BEEF, SALT, SPICES, DEXTROSE, LACTIC ACID STARTER CULTURE, OLEORESIN OF PAPRIKA, FLAVORING, SODIUM NITRITE, BHA, BHT, CITRIC ACID), BACON (PORK CURED WITH WATER, SALT, SUGAR, SMOKE FLAVORING, SODIUM PHOSPHATE, SODIUM ERYTHORBATE, SODIUM NITRITE." Date available: 07/14/2017 Date last updated by company: 07/14/2017
