Source: USDA Branded Food Products Database Release December 2017 Software v.3.8.6.4 2017-10-02
Report Run at: December 18, 2017 09:04 EST
"Nutrient data for: 45168501, PALEO FOLKS, FLUFFY PANCAKE MIX, UPC: 614458907240"
Food Group:  Branded Food Products Database
Common Name:

Nutrient,Unit,Data points,Std. Error,"2.0 PANCAKES = 107.0g",1Value per 100 g,
Proximates
"Energy",kcal,--,--,340,318
"Protein",g,--,--,7.00,6.54
"Total lipid (fat)",g,--,--,15.00,14.02
"Carbohydrate, by difference",g,--,--,44.00,41.12
"Fiber, total dietary",g,--,--,4.0,3.7
"Sugars, total",g,--,--,13.00,12.15
Minerals
"Calcium, Ca",mg,--,--,100,93
"Iron, Fe",mg,--,--,0.67,0.63
"Sodium, Na",mg,--,--,350,327
Vitamins
"Vitamin C, total ascorbic acid",mg,--,--,1.4,1.3
"Vitamin A, IU",IU,--,--,112,105
Lipids
"Fatty acids, total saturated",g,--,--,11.000,10.280
"Cholesterol",mg,--,--,155,145
Amino Acids
Other
Ingredients
"TAPIOCA FLOUR. ORGANIC COCONUT FLOUR. ORGANIC COCONUT SUGAR. BAKING POWDER. AND SEA SALT." Date available: 09/20/2017 Date last updated by company: 09/20/2017
