Source: USDA Branded Food Products Database Release December 2017 Software v.3.8.6.4 2017-10-02
Report Run at: December 18, 2017 09:07 EST
"Nutrient data for: 45276409, PALERINDA CANDY, UPC: 701209243211"
Food Group:  Branded Food Products Database
Common Name:

Nutrient,Unit,Data points,Std. Error,"99.0 GRM = 99.0g",1Value per 100 g,
Proximates
"Energy",kcal,--,--,149,151
"Protein",g,--,--,0.30,0.30
"Total lipid (fat)",g,--,--,0.66,0.67
"Carbohydrate, by difference",g,--,--,35.00,35.35
"Sugars, total",g,--,--,26.60,26.87
Minerals
"Calcium, Ca",mg,--,--,26,26
"Iron, Fe",mg,--,--,0.82,0.83
"Sodium, Na",mg,--,--,333,336
Vitamins
"Vitamin C, total ascorbic acid",mg,--,--,0.4,0.4
"Vitamin A, IU",IU,--,--,0,0
Lipids
Amino Acids
Other
Ingredients
"SUGAR, NATURAL TAMARIND FRUIT PULP, CORN SYRUP, CITRIC ACID, GROUND CHILI PEPPER." Date available: 07/14/2017 Date last updated by company: 07/14/2017
