Source: USDA Branded Food Products Database Release December 2017 Software v.3.8.6.4 2017-10-02
Report Run at: December 18, 2017 09:09 EST
"Nutrient data for: 45179432, PALMAS, SHREDDED MOZZARELLA CHEESE, UPC: 640976501066"
Food Group:  Branded Food Products Database
Common Name:

Nutrient,Unit,Data points,Std. Error,"0.25 cup = 28.0g",1Value per 100 g,
Proximates
"Energy",kcal,--,--,90,321
"Protein",g,--,--,1.00,3.57
"Total lipid (fat)",g,--,--,5.00,17.86
"Carbohydrate, by difference",g,--,--,7.00,25.00
"Fiber, total dietary",g,--,--,0.0,0.0
"Sugars, total",g,--,--,2.00,7.14
Minerals
"Calcium, Ca",mg,--,--,200,714
"Iron, Fe",mg,--,--,0.00,0.00
"Sodium, Na",mg,--,--,390,1393
Vitamins
"Vitamin C, total ascorbic acid",mg,--,--,0.0,0.0
"Vitamin A, IU",IU,--,--,0,0
Lipids
"Fatty acids, total saturated",g,--,--,2.500,8.930
"Fatty acids, total trans",g,--,--,0.000,0.000
"Cholesterol",mg,--,--,0,0
Amino Acids
Other
Ingredients
"WATER, INTERESTERIFIED SOYBEAN OIL, FOOD STARCH-MODIFIED, WHEY, GELATIN, COR SYRUP SOLIDS, SODIUM CITRATE, SALT, POWDERED CORN STARCH (ADDED TO PREVENT CAKING), CALCIUM PHOSPHATE, ARTIFICIAL AND NATURAL FLAVORS, LACTIC ACID, SORBIC ACID (PRESERVATIVE), DEXTROSE, XANTHAN GUM, LOCUST BEAN GUM, GUAR GUM, ARTIFICIAL COLOR, GLUCOSE OXIDASE." Date available: 07/14/2017 Date last updated by company: 07/14/2017
