Source: USDA Branded Food Products Database Release December 2017 Software v.3.8.6.4 2017-10-02
Report Run at: December 18, 2017 09:11 EST
"Nutrient data for: 45157697, PALMER'S CANDIES, FROSTED SNOWFLAKE PRETZELS, UPC: 077232231007"
Food Group:  Branded Food Products Database
Common Name:

Nutrient,Unit,Data points,Std. Error,"5.0 PIECES = 30.0g",1Value per 100 g,
Proximates
"Energy",kcal,--,--,140,467
"Protein",g,--,--,2.00,6.67
"Total lipid (fat)",g,--,--,5.00,16.67
"Carbohydrate, by difference",g,--,--,21.00,70.00
"Fiber, total dietary",g,--,--,0.0,0.0
"Sugars, total",g,--,--,13.00,43.33
Minerals
"Calcium, Ca",mg,--,--,20,67
"Iron, Fe",mg,--,--,0.60,2.00
"Sodium, Na",mg,--,--,130,433
Vitamins
"Vitamin C, total ascorbic acid",mg,--,--,0.0,0.0
"Vitamin A, IU",IU,--,--,0,0
Lipids
"Fatty acids, total saturated",g,--,--,5.001,16.670
"Fatty acids, total trans",g,--,--,0.000,0.000
"Cholesterol",mg,--,--,0,0
Amino Acids
Other
Ingredients
"SUGAR, ENRICHED WHEAT FLOUR (WHEAT FLOUR, NIACIN, REDUCED IRON, THIAMINE MONONITRATE, RIBOFLAVIN, FOLIC ACID), VEGETABLE OILS (HYDROGENATED PALM KERNEL OIL.MAY CONTAIN ONE OR MORE OF THE FOLLOWING: CORN, CANOLA, COTTONSEED, SOYBEAN), SKIM MILK, SALT, LACTOSE, CORN SYRUP, TITANIUM DIOXIDE (ARTIFICIAL COLORING), SODIUM BICARBONATE, DISTILLED MONGLYCERIDES, YEAST, SOY LECITHIN (AN EMULSIFIER), VANILLIN (AN ARTIFICIAL FLAVORING), CORNSTARCH, CONFECTIONER'S GLAZE AND CARNAUBA WAX." Date available: 07/14/2017 Date last updated by company: 07/14/2017
