Source: USDA Branded Food Products Database Release December 2017 Software v.3.8.6.4 2017-10-02
Report Run at: December 18, 2017 09:13 EST
"Nutrient data for: 45188714, PALMETTO CHEESE SPREAD, UPC: 896040001110"
Food Group:  Branded Food Products Database
Common Name:

Nutrient,Unit,Data points,Std. Error,"2.0 Tbsp = 30.0g",1Value per 100 g,
Proximates
"Energy",kcal,--,--,140,467
"Protein",g,--,--,4.00,13.33
"Total lipid (fat)",g,--,--,13.00,43.33
"Carbohydrate, by difference",g,--,--,1.00,3.33
"Fiber, total dietary",g,--,--,0.0,0.0
"Sugars, total",g,--,--,0.00,0.00
Minerals
"Calcium, Ca",mg,--,--,100,333
"Iron, Fe",mg,--,--,0.00,0.00
"Sodium, Na",mg,--,--,170,567
Vitamins
"Vitamin C, total ascorbic acid",mg,--,--,2.0,6.7
"Vitamin A, IU",IU,--,--,500,1667
Lipids
"Fatty acids, total saturated",g,--,--,5.001,16.670
"Fatty acids, total trans",g,--,--,0.000,0.000
"Cholesterol",mg,--,--,20,67
Amino Acids
Other
Ingredients
"SHARP CHEDDAR CHEESE (CULTURED PASTEURIZED MILK, SALT, ENZYMES, ARTIFICIAL COLOR. POTATO STARCH AND POWDERED CELLULOSE, NATAMYCIN), CREAM CHEESE (PASTEURIZED MILK AND CREAM, CHEESE CULTURE, SALT. LOCUST BEAN GUM), MAYONNAISE (SOYBEAN OIL, WATER, WHOLE EGGS AND EGG YOLKS, VINEGAR, SALT, SUGAR, LEMON JUICE , NATURAL FLAVORS, CALCIUM DISODIUM EDTA), PIMENTOS, ONION, SPICES, NOVAGARD, (MALTODEXTRIN, CULTURED DEXTROSE, SODIUM DIACETATE, NISIN, SODIUM CHLORIDE, EGG WHITE LYSOZYME), POTASSIUM SORBATE." Date available: 07/14/2017 Date last updated by company: 07/14/2017
