Source: USDA Branded Food Products Database Release December 2017 Software v.3.8.6.4 2017-10-02
Report Run at: December 18, 2017 09:11 EST
"Nutrient data for: 45142961, PALMER, MILK CHOCOLATE COINS, UPC: 041269191276"
Food Group:  Branded Food Products Database
Common Name:

Nutrient,Unit,Data points,Std. Error,"0.125 CONTAINER = 36.0g",1Value per 100 g,
Proximates
"Energy",kcal,--,--,190,528
"Protein",g,--,--,1.00,2.78
"Total lipid (fat)",g,--,--,11.00,30.56
"Carbohydrate, by difference",g,--,--,23.00,63.89
"Fiber, total dietary",g,--,--,1.0,2.8
"Sugars, total",g,--,--,22.00,61.11
Minerals
"Calcium, Ca",mg,--,--,40,111
"Iron, Fe",mg,--,--,0.50,1.39
"Sodium, Na",mg,--,--,65,181
Vitamins
"Vitamin C, total ascorbic acid",mg,--,--,0.0,0.0
"Vitamin A, IU",IU,--,--,0,0
Lipids
"Fatty acids, total saturated",g,--,--,10.001,27.780
"Fatty acids, total trans",g,--,--,0.000,0.000
"Cholesterol",mg,--,--,0,0
Amino Acids
Other
Ingredients
"MILK CHOCOLATE (SUGAR, CHOCOLATE LIQUOR, DRY WHOLE MILK, COCOA BUTTER, COCOA, SOY LECITHIN [EMULSIFIER], NATURAL VANILLA)." Date available: 07/14/2017 Date last updated by company: 07/14/2017
