Source: USDA Branded Food Products Database Release December 2017 Software v.3.8.6.4 2017-10-02
Report Run at: December 18, 2017 09:13 EST
"Nutrient data for: 45192892, PALMIER, UPC: 852032003043"
Food Group:  Branded Food Products Database
Common Name:

Nutrient,Unit,Data points,Std. Error,"1 ONZ = 28.0g",1Value per 100 g,
Proximates
"Energy",kcal,--,--,170,607
"Protein",g,--,--,1.00,3.57
"Total lipid (fat)",g,--,--,14.00,50.00
"Carbohydrate, by difference",g,--,--,11.00,39.29
"Fiber, total dietary",g,--,--,0.0,0.0
"Sugars, total",g,--,--,1.00,3.57
Minerals
"Calcium, Ca",mg,--,--,300,1071
"Iron, Fe",mg,--,--,2.83,10.10
"Sodium, Na",mg,--,--,47,168
"Zinc, Zn",mg,--,--,1.50,5.36
Vitamins
"Vitamin C, total ascorbic acid",mg,--,--,0.0,0.0
"Thiamin",mg,--,--,0.560,2.000
"Riboflavin",mg,--,--,1.336,4.770
"Niacin",mg,--,--,5.892,21.043
"Vitamin A, IU",IU,--,--,589,2105
Lipids
"Fatty acids, total saturated",g,--,--,4.001,14.290
"Fatty acids, total trans",g,--,--,0.000,0.000
"Cholesterol",mg,--,--,0,0
Amino Acids
Other
Ingredients
"ENRICHED FLOUR (WHEAT FLOUR, MALTED BARLEY FLOUR, NIACIN, THIAMIN, MONONITRATE, RIBOFLAVIN, FOLIC ACID) PARTIALLY HYDROGENATED, SOYBEAN COTTONSEED OIL, WATER, SOYBEAN OIL, SALT, MONOCALCIUM, PHOSPHATE AND SUGAR." Date available: 09/23/2017 Date last updated by company: 09/23/2017
