Source: USDA Branded Food Products Database Release December 2017 Software v.3.8.6.4 2017-10-02
Report Run at: December 18, 2017 09:14 EST
"Nutrient data for: 45319095, PAMANA, PANG KARE-KARE, STEW BASED MIX, UPC: 795981810372"
Food Group:  Branded Food Products Database
Common Name:

Nutrient,Unit,Data points,Std. Error,"5.0 GRM = 5.0g",1Value per 100 g,
Proximates
"Energy",kcal,--,--,20,400
"Protein",g,--,--,1.00,20.00
"Total lipid (fat)",g,--,--,0.00,0.00
"Carbohydrate, by difference",g,--,--,3.00,60.00
Minerals
"Sodium, Na",mg,--,--,90,1800
Vitamins
Lipids
Amino Acids
Other
Ingredients
"RICE FLOUR, GARLIC POWDER, ONION POWDER, YEAST EXTRACT, HYDROLYZED VEGETABLE PROTEIN, NATURAL CHICKEN FLAVOR, ROASTED PEANUT OIL, ANNATTO EXTRACT." Date available: 07/14/2017 Date last updated by company: 07/14/2017
