Source: USDA Branded Food Products Database Release December 2017 Software v.3.8.6.4 2017-10-02
Report Run at: December 18, 2017 09:14 EST
"Nutrient data for: 45319086, PAMANA, GREEN JACKFRUIT IN WATER, UPC: 795981220072"
Food Group:  Branded Food Products Database
Common Name:

Nutrient,Unit,Data points,Std. Error,"140.0 GRM = 140.0g",1Value per 100 g,
Proximates
"Energy",kcal,--,--,29,21
"Protein",g,--,--,0.99,0.71
"Total lipid (fat)",g,--,--,0.00,0.00
"Carbohydrate, by difference",g,--,--,7.00,5.00
"Fiber, total dietary",g,--,--,2.9,2.1
"Sugars, total",g,--,--,0.00,0.00
Minerals
"Calcium, Ca",mg,--,--,20,14
"Iron, Fe",mg,--,--,1.89,1.35
"Sodium, Na",mg,--,--,630,450
Vitamins
"Vitamin C, total ascorbic acid",mg,--,--,0.0,0.0
"Vitamin A, IU",IU,--,--,0,0
Lipids
"Fatty acids, total saturated",g,--,--,0.000,0.000
"Fatty acids, total trans",g,--,--,0.000,0.000
"Cholesterol",mg,--,--,0,0
Amino Acids
Other
Ingredients
"YOUNG JACK FRUIT, WATER, CITRIC ACID, SODIUM METABISULFITE." Date available: 06/25/2017 Date last updated by company: 06/25/2017
