Source: USDA Branded Food Products Database Release December 2017 Software v.3.8.6.4 2017-10-02
Report Run at: December 18, 2017 09:15 EST
"Nutrient data for: 45319098, PAMANA, SALTED SHRIMP FRY, UPC: 795981259027"
Food Group:  Branded Food Products Database
Common Name:

Nutrient,Unit,Data points,Std. Error,"1 Tbsp = 15.0g",1Value per 100 g,
Proximates
"Energy",kcal,--,--,10,67
"Protein",g,--,--,2.00,13.33
"Total lipid (fat)",g,--,--,0.00,0.00
"Carbohydrate, by difference",g,--,--,0.00,0.00
"Fiber, total dietary",g,--,--,0.0,0.0
"Sugars, total",g,--,--,0.00,0.00
Minerals
"Calcium, Ca",mg,--,--,150,1000
"Iron, Fe",mg,--,--,3.65,24.35
"Sodium, Na",mg,--,--,1380,9200
Vitamins
"Vitamin C, total ascorbic acid",mg,--,--,0.0,0.0
"Vitamin A, IU",IU,--,--,6763,45087
Lipids
"Fatty acids, total saturated",g,--,--,0.000,0.000
"Fatty acids, total trans",g,--,--,0.000,0.000
"Cholesterol",mg,--,--,20,133
Amino Acids
Other
Ingredients
"SHRIMP FRY, SALT, FD&C RED #3 (ERYTHROSINE)." Date available: 07/14/2017 Date last updated by company: 07/14/2017
