Source: USDA Branded Food Products Database Release December 2017 Software v.3.8.6.4 2017-10-02
Report Run at: December 18, 2017 09:17 EST
"Nutrient data for: 45312880, PAMPA, SOFT AND CREAMY CREAM CHEESE FROSTING, CREAM CHEESE, UPC: 876941000580"
Food Group:  Branded Food Products Database
Common Name:

Nutrient,Unit,Data points,Std. Error,"2.0 Tbsp = 34.0g",1Value per 100 g,
Proximates
"Energy",kcal,--,--,140,412
"Protein",g,--,--,0.00,0.00
"Total lipid (fat)",g,--,--,5.00,14.71
"Carbohydrate, by difference",g,--,--,24.00,70.59
"Fiber, total dietary",g,--,--,1.0,2.9
"Sugars, total",g,--,--,21.00,61.76
Minerals
"Calcium, Ca",mg,--,--,0,0
"Iron, Fe",mg,--,--,0.00,0.00
"Sodium, Na",mg,--,--,65,191
Vitamins
"Vitamin C, total ascorbic acid",mg,--,--,0.0,0.0
"Vitamin A, IU",IU,--,--,0,0
Lipids
"Fatty acids, total saturated",g,--,--,2.499,7.350
"Fatty acids, total trans",g,--,--,1.499,4.410
"Cholesterol",mg,--,--,0,0
Amino Acids
Other
Ingredients
"SUGAR, PARTIALLY HYDROGENATED VEGETABLE OIL (SOYBEAN, SUNFLOWER AND/OR COTTONSEED OILS), WATER, CORN SYRUP, CORN STARCH AND/OR WHEAT STARCH, CONTAINS 2% OR LESS OF SALT, DISTILLED MONO AND DIGLYCERIDES, WHEY POWDER (FROM MILK), CELLULOSE GUM, YELLOW 5, YELLOW 6, RED 40, TITANIUM DIOXIDE, POLYSORBATE 60, SODIUM STEAROYL LACTILATE, SODIUM ACID PYROPHOSPHATE, CITRIC ACID, SODIUM CITRATE, NONFAT MILK, POTASSIUM SORBATE (PRESERVATIVE), NATURAL AND ARTIFICIAL FLAVORS" Date available: 06/25/2017 Date last updated by company: 06/25/2017
