Source: USDA Branded Food Products Database Release December 2017 Software v.3.8.6.4 2017-10-02
Report Run at: December 18, 2017 09:17 EST
"Nutrient data for: 45306053, PAMPANGA, LUMPIA VEGETABLE EGG ROLL WITH PORK, UPC: 085396304413"
Food Group:  Branded Food Products Database
Common Name:

Nutrient,Unit,Data points,Std. Error,"3.0 EGGROLIS = 119.0g",1Value per 100 g,
Proximates
"Energy",kcal,--,--,120,101
"Protein",g,--,--,9.00,7.56
"Total lipid (fat)",g,--,--,7.00,5.88
"Carbohydrate, by difference",g,--,--,6.00,5.04
"Fiber, total dietary",g,--,--,2.0,1.7
"Sugars, total",g,--,--,1.00,0.84
Minerals
"Calcium, Ca",mg,--,--,60,50
"Iron, Fe",mg,--,--,1.02,0.86
"Sodium, Na",mg,--,--,380,319
Vitamins
"Vitamin C, total ascorbic acid",mg,--,--,15.0,12.6
"Vitamin A, IU",IU,--,--,1606,1350
Lipids
"Fatty acids, total saturated",g,--,--,1.999,1.680
"Fatty acids, total trans",g,--,--,0.000,0.000
"Cholesterol",mg,--,--,20,17
Amino Acids
Other
Ingredients
"FILLINGS: CABBAGE, BEAN SPROUTS, PORK, CARROTS, JICAMA, GREEN BEANS, ONIONS, FISH SAUCE (ANCHOVY EXTRACT, WATER, SALT, FRUCTOSE AND HYDROLYZED VEGETABLE PROTEIN), GRANULATED GARLIC, SALT, MONOSODIUM GLUTAMATE, SOYBEAN OIL, BLACK PEPPER. WRAPPER: UNBLEACHED WHEAT FLOUR ENRICHED (NIACIN, REDUCED IRON, THIAMINE MONONITRATE, RIBOFLAVIN, FOLIC ACID), WATER, SALT, GLYCERINE, SORBITOL." Date available: 06/25/2017 Date last updated by company: 06/25/2017
