Source: USDA Branded Food Products Database Release December 2017 Software v.3.8.6.4 2017-10-02
Report Run at: December 18, 2017 09:24 EST
"Nutrient data for: 45287770, PAN DE LECHE, UPC: 816149010929"
Food Group:  Branded Food Products Database
Common Name:

Nutrient,Unit,Data points,Std. Error,"35.0 GRM = 35.0g",1Value per 100 g,
Proximates
"Energy",kcal,--,--,123,351
"Protein",g,--,--,3.00,8.57
"Total lipid (fat)",g,--,--,3.00,8.57
"Carbohydrate, by difference",g,--,--,19.00,54.29
"Fiber, total dietary",g,--,--,0.9,2.6
"Sugars, total",g,--,--,5.00,14.29
Minerals
"Calcium, Ca",mg,--,--,40,114
"Iron, Fe",mg,--,--,0.51,1.47
"Sodium, Na",mg,--,--,190,543
Vitamins
"Vitamin C, total ascorbic acid",mg,--,--,1.7,4.9
"Vitamin A, IU",IU,--,--,71,204
Lipids
"Fatty acids, total saturated",g,--,--,1.001,2.860
"Fatty acids, total trans",g,--,--,0.000,0.000
"Cholesterol",mg,--,--,9,26
Amino Acids
Other
Ingredients
"WHEAT FLOUR; SUGAR; WATER; VEGETABLE OILS (CANOLA, RAPESEED); FRESH WHOLE EGGS; CREME FRAICHE (CULTURED PASTEURIZED MILK); YEAST; SALT; SKIMMED MILK POWDER (RECONSTITUTED SKIMMED MILK 12.5%); WHEAT GLUTEN; NATURAL FLAVOURING; EMULSIFIERS (MONO AND DIGLYCERIDES OF FATTY ACIDS, SODIUM STEAROYL-2-LACTYLATE, MONO- AND DIACETYL TARTARIC ACID ESTERS OF MONO AND DIGLYCERIDES OF FATTY ACIDS); MILK PROTEINS; FLAVORING; DEACTIVATED YEAST; PRESERVATIVE (CALCIUM PROPIONATE); COLORING (BETA CAROTENE)." Date available: 07/14/2017 Date last updated by company: 07/14/2017
