Source: USDA Branded Food Products Database Release December 2017 Software v.3.8.6.4 2017-10-02
Report Run at: December 18, 2017 09:23 EST
"Nutrient data for: 45218010, PANCAKE& WAFFLE SYRUP, UPC: 011161147060"
Food Group:  Branded Food Products Database
Common Name:

Nutrient,Unit,Data points,Std. Error,"0.25 cup = 60.0g",1Value per 100 g,
Proximates
"Energy",kcal,--,--,210,350
"Protein",g,--,--,0.00,0.00
"Total lipid (fat)",g,--,--,0.00,0.00
"Carbohydrate, by difference",g,--,--,52.00,86.67
"Sugars, total",g,--,--,32.00,53.33
Minerals
"Sodium, Na",mg,--,--,120,200
Vitamins
Lipids
Amino Acids
Other
Ingredients
"CORN SYRUP, HIGH FRUCTOSE CORN SYRUP, WATER, ARTIFICIAL AND NATURAL FLAVORS, SALT, CELLULOSE GUM, CARAMEL COLOR, SODIUM HEXAMETAPHOSPHATE, SODIUM BENZOATE AND SORBIC ACID (PRESERVATIVES)." Date available: 07/14/2017 Date last updated by company: 07/14/2017
