Source: USDA Branded Food Products Database Release December 2017 Software v.3.8.6.4 2017-10-02
Report Run at: December 18, 2017 09:19 EST
"Nutrient data for: 45256391, PANCAKE MIX, UPC: 074703601598"
Food Group:  Branded Food Products Database
Common Name:

Nutrient,Unit,Data points,Std. Error,"0.33 cup = 45.0g",1Value per 100 g,
Proximates
"Energy",kcal,--,--,160,356
"Protein",g,--,--,4.00,8.89
"Total lipid (fat)",g,--,--,2.00,4.44
"Carbohydrate, by difference",g,--,--,33.00,73.33
"Fiber, total dietary",g,--,--,2.0,4.4
"Sugars, total",g,--,--,8.00,17.78
Minerals
"Calcium, Ca",mg,--,--,150,333
"Iron, Fe",mg,--,--,1.28,2.84
"Sodium, Na",mg,--,--,380,844
Vitamins
"Vitamin C, total ascorbic acid",mg,--,--,0.0,0.0
"Vitamin A, IU",IU,--,--,0,0
Lipids
"Fatty acids, total saturated",g,--,--,0.999,2.220
"Fatty acids, total trans",g,--,--,0.000,0.000
"Cholesterol",mg,--,--,0,0
Amino Acids
Other
Ingredients
"UNBLEACHED WHEAT FLOUR, RYE FLOUR, OAT FLOUR, SUGAR, SEMISWEET CHOCOLATE CHIPS (SUGAR, CHOCOLATE LIQUOR, COCOA BUTTER, SOY LECITHIN [AN EMULSIFIER], VANILLA), COCOA (ALKALIZED), SWEET WHEY, SWEET CREAM BUTTERMILK, MONOCALCIUM PHOSPHATE, SODIUM BICARBONATE, SALT, NATURAL FLAVOR." Date available: 07/14/2017 Date last updated by company: 07/14/2017
