Source: USDA Branded Food Products Database Release December 2017 Software v.3.8.6.4 2017-10-02
Report Run at: December 18, 2017 09:20 EST
"Nutrient data for: 45217894, PANCAKE SAUSAGE, UPC: 051933748651"
Food Group:  Branded Food Products Database
Common Name:

Nutrient,Unit,Data points,Std. Error,"1 PANCAKE & SAUSAGE = 71.0g",1Value per 100 g,
Proximates
"Energy",kcal,--,--,180,254
"Protein",g,--,--,6.00,8.45
"Total lipid (fat)",g,--,--,9.00,12.68
"Carbohydrate, by difference",g,--,--,21.00,29.58
"Fiber, total dietary",g,--,--,0.0,0.0
"Sugars, total",g,--,--,7.00,9.86
Minerals
"Calcium, Ca",mg,--,--,0,0
"Iron, Fe",mg,--,--,0.00,0.00
"Sodium, Na",mg,--,--,340,479
Vitamins
"Vitamin C, total ascorbic acid",mg,--,--,0.0,0.0
"Vitamin A, IU",IU,--,--,0,0
Lipids
"Fatty acids, total saturated",g,--,--,3.003,4.230
"Fatty acids, total trans",g,--,--,0.000,0.000
"Cholesterol",mg,--,--,25,35
Amino Acids
Other
Ingredients
"PANCAKE INGREDIENTS: WATER, WHEAT FLOUR (BLEACHED), SUGAR, SOYBEAN OIL, SOY FLOUR, LEAVENING (SODIUM ACID PYROPHOSPHATE, SODIUM BICARBONATE), EGGS, DEXTROSE, SALT, ARTIFICIAL FLAVOR, NONFAT DRY MILK. COOKED IN VEGETABLE OIL (CONTAINS ONE OR MORE OF: CORN OIL, COTTONSEED OIL, SOYBEAN OIL). SAUSAGE INGREDIENTS: PORK, WATER, IMITATION MAPLE FLAVOR (SUGAR, SALT, MALTODEXTRIN, SPICES, CORN SYRUP SOLIDS, NATURAL FLAVORS, ARTIFICIAL FLAVORS, CITRIC ACID, PROPYL GALLATE)." Date available: 07/14/2017 Date last updated by company: 07/14/2017
