Source: USDA Branded Food Products Database Release December 2017 Software v.3.8.6.4 2017-10-02
Report Run at: December 18, 2017 09:24 EST
"Nutrient data for: 45028404, PANDA, THE REAL TASTE OF LICORICE, ALL NATURAL RASPBERRY LICORICE, RASPBERRY, UPC: 075172079369"
Food Group:  Branded Food Products Database
Common Name:

Nutrient,Unit,Data points,Std. Error,"15.0 PIECES = 40.0g",1Value per 100 g,
Proximates
"Energy",kcal,--,--,130,325
"Protein",g,--,--,2.00,5.00
"Total lipid (fat)",g,--,--,0.00,0.00
"Carbohydrate, by difference",g,--,--,30.00,75.00
"Sugars, total",g,--,--,17.00,42.50
Minerals
"Calcium, Ca",mg,--,--,0,0
"Iron, Fe",mg,--,--,0.45,1.12
"Sodium, Na",mg,--,--,80,200
Vitamins
Lipids
"Fatty acids, total saturated",g,--,--,0.000,0.000
"Fatty acids, total trans",g,--,--,0.000,0.000
"Cholesterol",mg,--,--,0,0
Amino Acids
Other
Ingredients
"MOLASSES, WHEAT FLOUR, RASPBERRY PUREE, CITRIC ACID, NATURAL RASPBERRY FLAVOR, BLACK CARROT JUICE, LICORICE EXTRACT." Date available: 07/14/2017 Date last updated by company: 07/14/2017
