Source: USDA Branded Food Products Database Release December 2017 Software v.3.8.6.4 2017-10-02
Report Run at: December 18, 2017 09:26 EST
"Nutrient data for: 45283779, PANETTE TWIN LOAVES, UPC: 071476002225"
Food Group:  Branded Food Products Database
Common Name:

Nutrient,Unit,Data points,Std. Error,"1 SLICE = 24.0g",1Value per 100 g,
Proximates
"Energy",kcal,--,--,70,292
"Protein",g,--,--,2.00,8.33
"Total lipid (fat)",g,--,--,1.00,4.17
"Carbohydrate, by difference",g,--,--,13.00,54.17
"Fiber, total dietary",g,--,--,1.0,4.2
"Sugars, total",g,--,--,0.00,0.00
Minerals
"Calcium, Ca",mg,--,--,0,0
"Iron, Fe",mg,--,--,1.50,6.25
"Sodium, Na",mg,--,--,120,500
Vitamins
"Vitamin C, total ascorbic acid",mg,--,--,0.0,0.0
"Thiamin",mg,--,--,0.240,1.000
"Riboflavin",mg,--,--,0.142,0.590
"Niacin",mg,--,--,2.500,10.417
"Vitamin A, IU",IU,--,--,0,0
Lipids
"Fatty acids, total saturated",g,--,--,0.000,0.000
"Fatty acids, total monounsaturated",g,--,--,0.000,0.000
"Fatty acids, total polyunsaturated",g,--,--,0.000,0.000
"Fatty acids, total trans",g,--,--,0.000,0.000
"Cholesterol",mg,--,--,0,0
Amino Acids
Other
Ingredients
"ENRICHED UNBLEACHED FLOUR (WHEAT FLOUR, MALT BARLEY-FLOUR, NIACIN, FERROUS SULFATE, THIAMINE MONONITRATE, RIBOFLAVIN, FOLIC ACID, POTASSIUM BROMATE), WATER, PARTIALLY HYDROGENATED VEGETABLE SHORTENING (PARTIALLY HYDROGENATED SOYBEAN AND COTTONSEED OILS WITH MONO-DIGLYCERIDES AND POLYSORBATE 60), YEAST, SALT, MALT, MONO-DIGLYCERIDES, GUAR GUM, CORN SYRUP SOLIDS, ENZYME, SOY OIL." Date available: 07/14/2017 Date last updated by company: 07/14/2017
