Source: USDA Branded Food Products Database Release December 2017 Software v.3.8.6.4 2017-10-02
Report Run at: December 18, 2017 09:26 EST
"Nutrient data for: 45032076, PANERA BREAD, ORGANIC VEGETARIAN CHILI, UPC: 077958690188"
Food Group:  Branded Food Products Database
Common Name:

Nutrient,Unit,Data points,Std. Error,"1 cup = 245.0g",1Value per 100 g,
Proximates
"Energy",kcal,--,--,130,53
"Protein",g,--,--,6.00,2.45
"Total lipid (fat)",g,--,--,2.01,0.82
"Carbohydrate, by difference",g,--,--,22.00,8.98
"Fiber, total dietary",g,--,--,7.1,2.9
"Sugars, total",g,--,--,3.99,1.63
Minerals
"Calcium, Ca",mg,--,--,59,24
"Iron, Fe",mg,--,--,1.91,0.78
"Sodium, Na",mg,--,--,470,192
Vitamins
"Vitamin C, total ascorbic acid",mg,--,--,25.5,10.4
"Vitamin A, IU",IU,--,--,2376,970
Lipids
"Fatty acids, total saturated",g,--,--,0.000,0.000
"Fatty acids, total trans",g,--,--,0.000,0.000
"Cholesterol",mg,--,--,0,0
Amino Acids
Other
Ingredients
"VEGETABLE STOCK* (WATER, VEGETABLE BASE* [CARROTS*, TOMATOES*, ONIONS*, POTATOES*, GARLIC*, SEA SALT, DEXTROSE*, EVAPORATED CANE SYRUP*, CANOLA OIL*, SPICES*, TURMERIC*]), TOMATOES* (CRUSHED TOMATOES*, TOMATO PUREE*, NATURALLY DERIVED CITRIC ACID), CHICKPEAS*, WATER, SEA SALT), KIDNEY BEANS* (KIDNEY BEANS*, WATER, SEA SALT, KOMBU SEAWEED), ONIONS*, CELERY*, CARROTS*, RED BELL PEPPERS*, BLACK BEANS*, LENTILS*, CONTAINS 2% OR LESS OF: CORN STARCH, GARLIC*, CANOLA OIL*, LEMON JUICE*, CILANTRO*, CHILI POWDER*, SPICES* AND JALAPENO PEPPERS*." Date available: 07/14/2017 Date last updated by company: 07/14/2017
