Source: USDA Branded Food Products Database Release December 2017 Software v.3.8.6.4 2017-10-02
Report Run at: December 18, 2017 09:27 EST
"Nutrient data for: 45217939, PANINI ROLL, UPC: 053702015087"
Food Group:  Branded Food Products Database
Common Name:

Nutrient,Unit,Data points,Std. Error,"3.0 ONZ = 84.0g",1Value per 100 g,
Proximates
"Energy",kcal,--,--,300,357
"Protein",g,--,--,18.00,21.43
"Total lipid (fat)",g,--,--,21.00,25.00
"Carbohydrate, by difference",g,--,--,1.00,1.19
"Fiber, total dietary",g,--,--,0.0,0.0
"Sugars, total",g,--,--,0.00,0.00
Minerals
"Calcium, Ca",mg,--,--,450,536
"Iron, Fe",mg,--,--,0.00,0.00
"Sodium, Na",mg,--,--,600,714
Vitamins
"Vitamin C, total ascorbic acid",mg,--,--,0.0,0.0
"Vitamin A, IU",IU,--,--,328,390
Lipids
"Fatty acids, total saturated",g,--,--,12.004,14.290
"Fatty acids, total trans",g,--,--,0.000,0.000
"Cholesterol",mg,--,--,75,89
Amino Acids
Other
Ingredients
"LOW MOISTURE MOZZARELLA CHEESE (PASTEURIZED MILK, CULTURES, SALT, ENZYMES), CHORIZO (PORK, SALT, PAPRIKA, WINE, DEXTROSE, SUGAR, GARLIC FLAVORINGS, SPICES, SODIUM ERYTHORBATE, LACTIC ACID, STARTER CULTURE, SODIUM NITRITE)." Date available: 07/14/2017 Date last updated by company: 07/14/2017
