Source: USDA Branded Food Products Database Release December 2017 Software v.3.8.6.4 2017-10-02
Report Run at: December 18, 2017 09:29 EST
"Nutrient data for: 45183033, PANNA COTTA GELATO, UPC: 04656703050"
Food Group:  Branded Food Products Database
Common Name:

Nutrient,Unit,Data points,Std. Error,"0.5 cup = 100.0g",1Value per 100 g,
Proximates
"Energy",kcal,--,--,220,220
"Protein",g,--,--,3.00,3.00
"Total lipid (fat)",g,--,--,10.00,10.00
"Carbohydrate, by difference",g,--,--,30.00,30.00
"Fiber, total dietary",g,--,--,1.0,1.0
"Sugars, total",g,--,--,29.00,29.00
Minerals
"Calcium, Ca",mg,--,--,150,150
"Sodium, Na",mg,--,--,75,75
Vitamins
Lipids
"Fatty acids, total saturated",g,--,--,8.000,8.000
"Cholesterol",mg,--,--,10,10
Amino Acids
Other
Ingredients
"SKIM MILK, SUGAR, CORN SYRUP, COCONUT OIL, WATER, BUTTER, HIGH FRUCTOSE CORN SYRUP, WHOLE MILK, COCOA BUTTER, COCOA MASS, CARAMEL COLOR, MONO- AND DIGLYCERIDES, SODIUM ALGINATE, LOCUST BEAN GUM, PECTIN, XANTHAN GUM, SOY LECITHIN, SPICES, NATURAL VANILLA FLAVOR, ARTIFICIAL FLAVOR." Date available: 10/19/2017 Date last updated by company: 10/19/2017
