Source: USDA Branded Food Products Database Release December 2017 Software v.3.8.6.4 2017-10-02
Report Run at: December 18, 2017 09:31 EST
"Nutrient data for: 45027000, PAPA CHARLIE'S, SEASONED GRAVY & PREMIUM THIN SLICED SEASONED ROAST BEEF, UPC: 763335030240"
Food Group:  Branded Food Products Database
Common Name:

Nutrient,Unit,Data points,Std. Error,"0.66 cup = 151.0g",1Value per 100 g,
Proximates
"Energy",kcal,--,--,45,30
"Protein",g,--,--,14.99,9.93
"Total lipid (fat)",g,--,--,1.99,1.32
"Carbohydrate, by difference",g,--,--,1.99,1.32
"Fiber, total dietary",g,--,--,2.0,1.3
"Sugars, total",g,--,--,0.00,0.00
Minerals
"Calcium, Ca",mg,--,--,20,13
"Iron, Fe",mg,--,--,1.33,0.88
"Sodium, Na",mg,--,--,510,338
Vitamins
"Vitamin C, total ascorbic acid",mg,--,--,0.0,0.0
"Vitamin A, IU",IU,--,--,92,61
Lipids
"Fatty acids, total saturated",g,--,--,0.498,0.330
"Fatty acids, total trans",g,--,--,0.000,0.000
"Cholesterol",mg,--,--,11,7
Amino Acids
Other
Ingredients
"GRAVY: WATER, SALT, DEXTROSE, BEEF FAT, HYDROLYZED SOY PROTEIN, MALTODEXTRIN, SUGAR, ONION POWDER, HYDROLYZED CORN, TORULA AND BREWERS YEAST PROTEIN, CARAMEL COLOR, SPICES, NATURAL FLAVOR, DISODIUM INOSINATE AND DISODIUM GUANYLATE, CONTAINS 2% OR LESS OF SPICES (INCLUDING BASIL AND OREGANO), RED BELL PEPPER, CORN STARCH, CITRIC ACID, GARLIC, SOYBEAN OIL, POLYSORBATE 80, ETHYL ALCOHOL, EXTRACTIVE OF GARLIC, SEASONED COOKED ROAST BEEF: WATER, SEASONING [SALT, HYDROLYZED SOY PROTEIN, SODIUM PHOSPHATE, SUGAR, SODIUM CITRATE, HYDROLYZED CORN PROTEIN, SODIUM DIACETATE, ONION POWDER, NATURAL FLAVORS (INCLUDING OREGANO, BASIL AND GARLIC)]." Date available: 07/14/2017 Date last updated by company: 07/14/2017
