Source: USDA Branded Food Products Database Release December 2017 Software v.3.8.6.4 2017-10-02
Report Run at: December 18, 2017 09:32 EST
"Nutrient data for: 45187505, PAPA STEVE'S, NO JUNK RAW PROTEIN BARS, DARK CHOCOLATE CHERRY CASHEW, UPC: 748252681102"
Food Group:  Branded Food Products Database
Common Name:

Nutrient,Unit,Data points,Std. Error,"2.2 ONZ = 62.0g",1Value per 100 g,
Proximates
"Energy",kcal,--,--,220,355
"Protein",g,--,--,13.00,20.97
"Total lipid (fat)",g,--,--,10.00,16.13
"Carbohydrate, by difference",g,--,--,27.00,43.55
"Fiber, total dietary",g,--,--,15.0,24.2
"Sugars, total",g,--,--,6.00,9.68
Minerals
"Calcium, Ca",mg,--,--,20,32
"Iron, Fe",mg,--,--,0.23,0.37
"Sodium, Na",mg,--,--,7,11
Vitamins
"Vitamin C, total ascorbic acid",mg,--,--,23.2,37.5
"Vitamin A, IU",IU,--,--,64,104
Lipids
"Fatty acids, total saturated",g,--,--,1.500,2.420
"Fatty acids, total trans",g,--,--,0.000,0.000
"Cholesterol",mg,--,--,0,0
Amino Acids
Other
Ingredients
"CASHEWS, MONTMORENCY TART CHERRIES (APPLE JUICE CONCENTRATE, SUNFLOWER OIL), PEA PROTEIN, RAW HEMP SEEDS, ORGANIC CERTIFIED GLUTEN FREE OATS, TAPIOCA FIBER, ORGANIC PEANUTS, ORGANIC DARK CHOCOLATE (ORGANIC COCOA BUTTER, ORGANIC COCOA POWDER, ORGANIC RAW CANE SUGAR (LESS THAN 1%), ORGANIC NATURAL FLAVOR." Date available: 10/13/2017 Date last updated by company: 10/13/2017
