Source: USDA Branded Food Products Database Release December 2017 Software v.3.8.6.4 2017-10-02
Report Run at: December 18, 2017 09:31 EST
"Nutrient data for: 45144253, PAPAS FRITAS POTATO CHIPS, UPC: 078907200595"
Food Group:  Branded Food Products Database
Common Name:

Nutrient,Unit,Data points,Std. Error,"18.0 CHIPS | ABOUT = 32.0g",1Value per 100 g,
Proximates
"Energy",kcal,--,--,170,531
"Protein",g,--,--,2.00,6.25
"Total lipid (fat)",g,--,--,10.00,31.25
"Carbohydrate, by difference",g,--,--,18.00,56.25
"Fiber, total dietary",g,--,--,1.0,3.1
"Sugars, total",g,--,--,0.00,0.00
Minerals
"Calcium, Ca",mg,--,--,0,0
"Iron, Fe",mg,--,--,1.13,3.52
"Sodium, Na",mg,--,--,420,1312
Vitamins
"Vitamin C, total ascorbic acid",mg,--,--,3.7,11.7
"Vitamin A, IU",IU,--,--,156,488
Lipids
"Fatty acids, total saturated",g,--,--,1.501,4.690
"Fatty acids, total monounsaturated",g,--,--,2.499,7.810
"Fatty acids, total polyunsaturated",g,--,--,6.000,18.750
"Fatty acids, total trans",g,--,--,0.000,0.000
"Cholesterol",mg,--,--,0,0
Amino Acids
Other
Ingredients
"POTATOES, VEGETABLE OIL (SUNFLOWER, SAFFLOWER, CANOLA, CORN, COTTONSEED AND/OR RICE OIL), SALT, CITRIC ACID, SUGAR, YEAST EXTRACT, MALTODEXTRIN, HYDROLYZED SOY PROTEIN, SODIUM DIACETATE, ARTIFICIAL COLOR (RED 40 LAKE, YELLOW 6 LAKE), ONION POWDER, EXTRACTIVES OF PAPRIKA, NATURAL FLAVOR (INCLUDING RED PEPPER EXTRACT AND LIME EXTRACT)." Date available: 07/14/2017 Date last updated by company: 07/14/2017
