Source: USDA Branded Food Products Database Release December 2017 Software v.3.8.6.4 2017-10-02
Report Run at: December 18, 2017 09:34 EST
"Nutrient data for: 45205590, PAPPARDELLE'S, CHEESE TORTELLONI EGG DOUGH, UPC: 719433290154"
Food Group:  Branded Food Products Database
Common Name:

Nutrient,Unit,Data points,Std. Error,"4.0 ONZ = 115.0g",1Value per 100 g,
Proximates
"Energy",kcal,--,--,350,304
"Protein",g,--,--,19.00,16.52
"Total lipid (fat)",g,--,--,11.01,9.57
"Carbohydrate, by difference",g,--,--,49.00,42.61
"Fiber, total dietary",g,--,--,1.0,0.9
"Sugars, total",g,--,--,1.00,0.87
Minerals
"Calcium, Ca",mg,--,--,250,217
"Iron, Fe",mg,--,--,4.38,3.81
"Sodium, Na",mg,--,--,380,330
Vitamins
"Vitamin C, total ascorbic acid",mg,--,--,1.5,1.3
"Vitamin A, IU",IU,--,--,365,317
Lipids
"Fatty acids, total saturated",g,--,--,6.003,5.220
"Fatty acids, total trans",g,--,--,0.000,0.000
"Cholesterol",mg,--,--,60,52
Amino Acids
Other
Ingredients
"FILLING ROMANO CHEESE (SHEEPS MILK, CHEESE CULTURES, SALT, ENZYMES), PARMESAN CHEESE (COWS MILK CHEESE CULTURES, SALT, ENZYMES) CREAM CHEESE (PASTEURIZED MILK AND CREAM, CHEESE CULTURE, SOYBEAN FIBER, SALT, CAROB BEAN AND/OR XANTHAN AND/OR GUAR GUMS), BREAD CRUMBS (UNBLEACHED WHEAT FLOUR, SUGAR, SALT, YEAST), ASIAGO CHEESE (COWS MILK, CHEESE CULTURES SALT, & ENZYMES), VEGETABLE OIL, RICOTTA CHEESE (PASTEURIZED MILK, VINEGAR, SALT), SOYBEAN FIBER, SPICES, NATURAL FLAVORS. DOUGH DURUM SAMOLINE FLOUR (MILLED WHEAT, NIACIN, IRON, THIAMINE MONONITRATE, RIBOFLAVIN, FOLIC ACID), EGGS, WATER, WHEAT GLUTEN, VEGETABLE OIL,." Date available: 08/21/2017 Date last updated by company: 08/21/2017
