Source: USDA Branded Food Products Database Release December 2017 Software v.3.8.6.4 2017-10-02
Report Run at: December 18, 2017 09:35 EST
"Nutrient data for: 45255404, PAPPY JACK HOT DOGS, UPC: 649522420585"
Food Group:  Branded Food Products Database
Common Name:

Nutrient,Unit,Data points,Std. Error,"1 LINK = 90.0g",1Value per 100 g,
Proximates
"Energy",kcal,--,--,230,256
"Protein",g,--,--,14.00,15.56
"Total lipid (fat)",g,--,--,17.00,18.89
"Carbohydrate, by difference",g,--,--,4.00,4.44
"Sugars, total",g,--,--,3.00,3.33
Minerals
"Iron, Fe",mg,--,--,0.66,0.73
"Sodium, Na",mg,--,--,610,678
Vitamins
"Vitamin C, total ascorbic acid",mg,--,--,2.2,2.4
Lipids
"Fatty acids, total saturated",g,--,--,8.001,8.890
"Fatty acids, total trans",g,--,--,0.000,0.000
"Cholesterol",mg,--,--,58000,64444
Amino Acids
Other
Ingredients
"PORK AND BEEF, PEPPERJACK CHEESE (CULTURED PASTEURIZED MILK, JALAPENO PEPPERS, SALT, ENZYMES), WATER, NON FAT DRY MILK, SALT, SPICES, PAPRIKA, SODIUM PHOSPHATE, SODIUM ERYTHORBATE, SODIUM NITRATE." Date available: 10/13/2017 Date last updated by company: 10/13/2017
