Source: USDA Branded Food Products Database Release December 2017 Software v.3.8.6.4 2017-10-02
Report Run at: December 18, 2017 09:49 EST
"Nutrient data for: 45170025, PAR'S NATURAL FOODS, BALSAMIC ITALIAN PICKLED VEGETABLES, UPC: 862898000032"
Food Group:  Branded Food Products Database
Common Name:

Nutrient,Unit,Data points,Std. Error,"2.0 Tbsp = 21.0g",1Value per 100 g,
Proximates
"Energy",kcal,--,--,10,48
"Protein",g,--,--,1.19,5.67
"Total lipid (fat)",g,--,--,0.00,0.00
"Carbohydrate, by difference",g,--,--,2.00,9.52
"Fiber, total dietary",g,--,--,0.3,1.2
"Sugars, total",g,--,--,2.00,9.52
Minerals
"Calcium, Ca",mg,--,--,0,0
"Iron, Fe",mg,--,--,0.00,0.00
"Sodium, Na",mg,--,--,40,190
Vitamins
"Vitamin C, total ascorbic acid",mg,--,--,80.0,380.9
"Vitamin A, IU",IU,--,--,1785,8502
Lipids
"Fatty acids, total saturated",g,--,--,0.000,0.000
"Fatty acids, total trans",g,--,--,0.000,0.000
"Cholesterol",mg,--,--,0,0
Amino Acids
Other
Ingredients
"GREEN TOMATOES, CUCUMBER, CARROTS, GARLIC, JALAPENO, CHINESE ARBOL CHILE, FRESH SQUEEZED LEMON JUICE, AGED BALSAMIC VINEGAR, SALT AND SPICES" Date available: 07/14/2017 Date last updated by company: 07/14/2017
