Source: USDA Branded Food Products Database Release December 2017 Software v.3.8.6.4 2017-10-02
Report Run at: December 18, 2017 09:38 EST
"Nutrient data for: 45185318, PARADISE JELLIES, SPICY FRUIT JELLY, FLORIDA ORANGE, UPC: 634002004270"
Food Group:  Branded Food Products Database
Common Name:

Nutrient,Unit,Data points,Std. Error,"1 Tbsp = 14.0g",1Value per 100 g,
Proximates
"Energy",kcal,--,--,35,250
"Protein",g,--,--,0.00,0.00
"Total lipid (fat)",g,--,--,0.00,0.00
"Carbohydrate, by difference",g,--,--,11.00,78.57
"Sugars, total",g,--,--,11.00,78.57
Minerals
"Sodium, Na",mg,--,--,0,0
Vitamins
"Vitamin C, total ascorbic acid",mg,--,--,8.1,58.0
Lipids
Amino Acids
Other
Ingredients
"ORANGE JUICE, SUGAR, WATER, PECTIN, TRINIDAD SCORPION PEPPER" Date available: 07/14/2017 Date last updated by company: 07/14/2017
