Source: USDA Branded Food Products Database Release December 2017 Software v.3.8.6.4 2017-10-02
Report Run at: December 18, 2017 09:38 EST
"Nutrient data for: 45288728, PARBOILED RICE, UPC: 075370160173"
Food Group:  Branded Food Products Database
Common Name:

Nutrient,Unit,Data points,Std. Error,"0.25 cup = 47.0g",1Value per 100 g,
Proximates
"Energy",kcal,--,--,170,362
"Protein",g,--,--,4.00,8.51
"Total lipid (fat)",g,--,--,0.00,0.00
"Carbohydrate, by difference",g,--,--,37.00,78.72
"Fiber, total dietary",g,--,--,2.0,4.3
"Sugars, total",g,--,--,0.00,0.00
Minerals
"Calcium, Ca",mg,--,--,0,0
"Iron, Fe",mg,--,--,1.38,2.93
"Sodium, Na",mg,--,--,0,0
Vitamins
"Thiamin",mg,--,--,0.000,0.000
Lipids
"Fatty acids, total saturated",g,--,--,0.000,0.000
"Fatty acids, total trans",g,--,--,0.000,0.000
"Cholesterol",mg,--,--,0,0
Amino Acids
Other
Ingredients
"LONG GRAIN PARBOILED RICE, IRON (FERRIC ORTHOPHOSPHATE), NIACIN, THIAMINE (THIAMINE MONONITRATE), AND FOLIC ACID (FOLATE)." Date available: 07/14/2017 Date last updated by company: 07/14/2017
