Source: USDA Branded Food Products Database Release December 2017 Software v.3.8.6.4 2017-10-02
Report Run at: December 18, 2017 09:45 EST
"Nutrient data for: 45267904, PARMESAN PASTA SAUCE, UPC: 688267053467"
Food Group:  Branded Food Products Database
Common Name:

Nutrient,Unit,Data points,Std. Error,"0.5 cup = 113.0g",1Value per 100 g,
Proximates
"Energy",kcal,--,--,60,53
"Protein",g,--,--,2.00,1.77
"Total lipid (fat)",g,--,--,2.00,1.77
"Carbohydrate, by difference",g,--,--,10.00,8.85
"Fiber, total dietary",g,--,--,2.0,1.8
"Sugars, total",g,--,--,6.00,5.31
Minerals
"Calcium, Ca",mg,--,--,29,26
"Iron, Fe",mg,--,--,0.99,0.88
"Potassium, K",mg,--,--,440,389
"Sodium, Na",mg,--,--,390,345
Vitamins
"Vitamin C, total ascorbic acid",mg,--,--,21.0,18.6
Lipids
"Fatty acids, total saturated",g,--,--,0.000,0.000
Amino Acids
Other
Ingredients
"ORGANIC TOMATO PUREE, ORGANIC DICED TOMATOES IN ORGANIC TOMATO JUICE, ORGANIC CANE SUGAR, ORGANIC EXTRA VIRGIN OLIVE OIL, ORGANIC PARMESAN CHEESE (PASTEURIZED ORGANIC MILK, CHEESE CULTURES, SEA SALT, MICROBIAL ENZYMES), SALT, ORGANIC ONIONS, ORGANIC GARLIC, ORGANIC BLACK PEPPER, ORGANIC OREGANO. ORGANIC BASIL, CITRIC ACID, ORGANIC THYME, ORGANIC FENNEL." Date available: 10/13/2017 Date last updated by company: 10/13/2017
