Source: USDA Branded Food Products Database Release December 2017 Software v.3.8.6.4 2017-10-02
Report Run at: December 18, 2017 09:44 EST
"Nutrient data for: 45257109, PARMESAN CHICKEN, UPC: 030223049920"
Food Group:  Branded Food Products Database
Common Name:

Nutrient,Unit,Data points,Std. Error,"17.25 ONZ = 489.0g",1Value per 100 g,
Proximates
"Energy",kcal,--,--,621,127
"Protein",g,--,--,49.00,10.02
"Total lipid (fat)",g,--,--,20.98,4.29
"Carbohydrate, by difference",g,--,--,77.02,15.75
"Fiber, total dietary",g,--,--,3.9,0.8
"Sugars, total",g,--,--,11.98,2.45
Minerals
"Calcium, Ca",mg,--,--,152,31
"Iron, Fe",mg,--,--,1.03,0.21
"Sodium, Na",mg,--,--,1511,309
Vitamins
"Vitamin C, total ascorbic acid",mg,--,--,0.5,0.1
"Vitamin A, IU",IU,--,--,112,23
Lipids
"Fatty acids, total saturated",g,--,--,6.015,1.230
"Fatty acids, total trans",g,--,--,0.000,0.000
"Cholesterol",mg,--,--,132,27
Amino Acids
Other
Ingredients
"SAUCE (TOMATOES, TOMATO SAUCE [TOMATO CONCENTRATE, SALT, CITRIC ACID, RED BELL PEPPER POWDER, DEXTROSE, SPICE, NATURAL FLAVORING], WATER, TOMATO PASTE, ONION, SUGAR, GARLIC, OLIVE OIL, MODIFIED CORN STARCH, SALT, WORCESTERSHIRE SAUCE [DISTILLED VINEGAR, MOLASSES, CORN SYRUP, WATER, SALT, CARAMEL COLOR, GARLIC POWDER, SUGAR, SPICES, TAMARIND, NATURAL FLAVORS], BASIL, BLACK PEPPER, THYME), PASTA (WATER [SEMOLINA (WHEAT), DURUM WHEAT FLOUR, NIACIN, IRON (FERROUS SULFATE), THIAMINE MONONITRATE, RIBOFLAVIN, FOLIC ACID]), BREADED CHICKEN CUTLET (CHICKEN (BONELESS CHICKEN BREAST, WATER, CONTAINS 2% OR LESS OF THE FOLLOWING. SOY PROTEIN CONCENTRATE, SODIUM LACTATE, SALT, MODIFIED CORN STARCH, CARRAGEENAN, SODIUM PHOSPHATE), BREAD CRUMBS (BLEACHED WHEAT FLOUR, DEXTROSE, YEAST, SALT], SOYBEAN OIL, BATTER [BLEACHED WHEAT FLOUR, MODIFIED CORN STARCH, SALT, MOISTURE, PART-SKIM MOZZARELLA CHEESE {PASTEURIZED MILK, CHEESE CULTURE, SALT, ENZYMES, POTATO STARCH & POWDERED (PASTEURIZED MILK, CHEESE CULTURE, SALT, ENZYMES, POTATO STARCH & POWDERED CELLULOSE (TO PREVENT CAKING), NATAMYCIN (A NATURAL MOLD INHIBOTOR))), PARMESAN CHEESE (PASTEURIZED MILK, CHEESE CULTURE, SALT, AND ENZYMES), CANOLA OIL, EXTRA VIRGIN OLIVE OIL." Date available: 08/30/2017 Date last updated by company: 08/30/2017
