Source: USDA Branded Food Products Database Release December 2017 Software v.3.8.6.4 2017-10-02
Report Run at: December 18, 2017 09:42 EST
"Nutrient data for: 45172743, PARMESAN CHEESE, UPC: 021130047291"
Food Group:  Branded Food Products Database
Common Name:

Nutrient,Unit,Data points,Std. Error,"0.25 CUP | ABOUT = 28.0g",1Value per 100 g,
Proximates
"Energy",kcal,--,--,120,429
"Protein",g,--,--,10.00,35.71
"Total lipid (fat)",g,--,--,8.00,28.57
"Carbohydrate, by difference",g,--,--,1.00,3.57
"Fiber, total dietary",g,--,--,0.0,0.0
"Sugars, total",g,--,--,0.00,0.00
Minerals
"Calcium, Ca",mg,--,--,350,1250
"Iron, Fe",mg,--,--,0.00,0.00
"Sodium, Na",mg,--,--,480,1714
Vitamins
"Vitamin C, total ascorbic acid",mg,--,--,0.0,0.0
"Vitamin A, IU",IU,--,--,357,1275
Lipids
"Fatty acids, total saturated",g,--,--,5.001,17.860
"Fatty acids, total trans",g,--,--,0.000,0.000
"Cholesterol",mg,--,--,20,71
Amino Acids
Other
Ingredients
"CULTURED PASTEURIZED MILK, SALT, ENZYMES, ANTICAKE (POTATO STARCH, CORN STARCH, POWDERED CELLULOSE), NATAMYCIN (MOLD INHIBITOR)." Date available: 09/13/2017 Date last updated by company: 09/13/2017
