Source: USDA Branded Food Products Database Release December 2017 Software v.3.8.6.4 2017-10-02
Report Run at: December 18, 2017 09:44 EST
"Nutrient data for: 45226492, PARMESAN ENCRUSTED TILAPIA, UPC: 728575940292"
Food Group:  Branded Food Products Database
Common Name:

Nutrient,Unit,Data points,Std. Error,"4.0 ONZ = 113.0g",1Value per 100 g,
Proximates
"Energy",kcal,--,--,231,204
"Protein",g,--,--,15.00,13.27
"Total lipid (fat)",g,--,--,10.00,8.85
"Carbohydrate, by difference",g,--,--,20.00,17.70
"Fiber, total dietary",g,--,--,4.0,3.5
"Sugars, total",g,--,--,0.99,0.88
Minerals
"Calcium, Ca",mg,--,--,20,18
"Iron, Fe",mg,--,--,0.00,0.00
"Sodium, Na",mg,--,--,470,416
Vitamins
"Vitamin C, total ascorbic acid",mg,--,--,5.9,5.2
"Vitamin A, IU",IU,--,--,0,0
Lipids
"Fatty acids, total saturated",g,--,--,2.000,1.770
"Fatty acids, total trans",g,--,--,0.000,0.000
"Cholesterol",mg,--,--,75,66
Amino Acids
Other
Ingredients
"TILAPIA, WHEAT FLOUR, SALT, SOYBEAN OIL, BLEACHED WHEAT FLOUR, ROMANO CHEESE (PART SKIM COW'S MILK, CHEESE CULTURES, SALT, ENZYMES), SPICE, SUGAR, YEAST, PARSLEY, DISODIUM PHOSPHATE, YELLOW 5&6, YELLOW CORN FLOUR, MODIFIED FOOD STARCH, PARMESAN CHEESE (PARTIALLY SKIM MILK, MILK, CHEESE CULTURES, SALT, ENZYMES, DISODIUM PHOSPHATE), LEAVENING (SODIUM ACID PYROPHOSPHATE AND SODIUM BICARBONATE), GARLIC POWDER, ONION POWDER, SPICE EXTRACTIVE AND LESS THAN 2% SODIUM SILICON ALUMINATE TO PREVENT CAKING. PARTIALLY FRIED IN LOW LINOLENIC CANOLA OIL, TBHQ AND CITRIC ACID ADDED TO PROTECT FLAVOR, DIMETHYLPOLYSILOXANE, AN ANTI-FOAMING AGENT ADDED." Date available: 09/09/2017 Date last updated by company: 09/09/2017
