Source: USDA Branded Food Products Database Release December 2017 Software v.3.8.6.4 2017-10-02
Report Run at: December 18, 2017 09:45 EST
"Nutrient data for: 45066803, PARMESAN & PEPPERCORN DRESSING, UPC: 090997100708"
Food Group:  Branded Food Products Database
Common Name:

Nutrient,Unit,Data points,Std. Error,"2.0 Tbsp = 30.0g",1Value per 100 g,
Proximates
"Energy",kcal,--,--,90,300
"Protein",g,--,--,1.00,3.33
"Total lipid (fat)",g,--,--,8.00,26.67
"Carbohydrate, by difference",g,--,--,3.00,10.00
"Fiber, total dietary",g,--,--,0.0,0.0
"Sugars, total",g,--,--,1.00,3.33
Minerals
"Calcium, Ca",mg,--,--,40,133
"Iron, Fe",mg,--,--,0.00,0.00
"Sodium, Na",mg,--,--,330,1100
Vitamins
"Vitamin C, total ascorbic acid",mg,--,--,0.0,0.0
"Vitamin A, IU",IU,--,--,0,0
Lipids
"Fatty acids, total saturated",g,--,--,0.999,3.330
"Fatty acids, total trans",g,--,--,0.000,0.000
"Cholesterol",mg,--,--,5,17
Amino Acids
Other
Ingredients
"WATER, CANOLA OIL, DISTILLED VINEGAR, PARMESAN CHEESE, (MILK, CULTURES, SALT, ENZYMES, CREAM, WATER), SUGAR, TAPIOCA MALTODEXTRIN, SALT, GARLIC JUICE, NON-FAT DRY MILK, EGG YOLKS, LACTIC ACID, NATURAL YEAST EXTRACT, CULTURED DAIRY SOLIDS (MILK, CULTURES), NATURAL FLAVORS, SPICE, LEMON JUICE (FROM CONCENTRATE), XANTHAN GUM, GUAR GUM, SODIUM ALGINATE, ARABIC GUM, GARLIC, ONION, AND MIXED TOCOPHEROLS (VITAMIN E)." Date available: 07/14/2017 Date last updated by company: 07/14/2017
