Source: USDA Branded Food Products Database Release December 2017 Software v.3.8.6.4 2017-10-02
Report Run at: December 18, 2017 09:40 EST
"Nutrient data for: 45238855, PARMESAN AND GARLIC CAESAR ARTISAN VINAIGRETTE, UPC: 648505132507"
Food Group:  Branded Food Products Database
Common Name:

Nutrient,Unit,Data points,Std. Error,"2.0 Tbsp = 30.0g",1Value per 100 g,
Proximates
"Energy",kcal,--,--,120,400
"Protein",g,--,--,1.00,3.33
"Total lipid (fat)",g,--,--,13.00,43.33
"Carbohydrate, by difference",g,--,--,1.00,3.33
"Fiber, total dietary",g,--,--,0.0,0.0
"Sugars, total",g,--,--,0.00,0.00
Minerals
"Calcium, Ca",mg,--,--,36,120
"Iron, Fe",mg,--,--,0.00,0.00
"Sodium, Na",mg,--,--,290,967
Vitamins
"Vitamin D",IU,--,--,0,0
Lipids
"Fatty acids, total saturated",g,--,--,0.999,3.330
"Fatty acids, total trans",g,--,--,0.000,0.000
"Cholesterol",mg,--,--,5,17
Amino Acids
Other
Ingredients
"EXPELLER PRESSED CANOLA OIL, WATER, ORGANIC PARMESAN CHEESE (PASTEURIZED ORGANIC MILK, CHEESE CULTURES, SEA SALT, ENZYMES), ORGANIC WHITE WINE VINEGAR, DIJON MUSTARD (ORGANIC DISTILLED VINEGAR, WATER, MUSTARD SEED, SEA SALT, TURMERIC, SPICES), GARLIC, SEA SALT, ANCHOVY PASTE (SALTED ANCHOVIES, OLIVE OIL, ACETIC ACID), CANE SUGAR, BLACK PEPPER, XANTHAN GUM, CRUSHED RED PEPPER." Date available: 10/13/2017 Date last updated by company: 10/13/2017
