Source: USDA Branded Food Products Database Release December 2017 Software v.3.8.6.4 2017-10-02
Report Run at: December 18, 2017 09:51 EST
"Nutrient data for: 45236027, PARTY MIX, UPC: 072609444455"
Food Group:  Branded Food Products Database
Common Name:

Nutrient,Unit,Data points,Std. Error,"1 CHIP, PER CONTAINER | ABOUT = 28.0g",1Value per 100 g,
Proximates
"Energy",kcal,--,--,150,536
"Protein",g,--,--,3.00,10.71
"Total lipid (fat)",g,--,--,8.00,28.57
"Carbohydrate, by difference",g,--,--,20.00,71.43
"Fiber, total dietary",g,--,--,2.0,7.1
"Sugars, total",g,--,--,2.00,7.14
Minerals
"Calcium, Ca",mg,--,--,0,0
"Iron, Fe",mg,--,--,0.64,2.29
"Sodium, Na",mg,--,--,320,1143
Vitamins
"Vitamin C, total ascorbic acid",mg,--,--,0.0,0.0
"Vitamin A, IU",IU,--,--,0,0
Lipids
"Fatty acids, total saturated",g,--,--,1.501,5.360
"Fatty acids, total trans",g,--,--,0.000,0.000
"Cholesterol",mg,--,--,0,0
Amino Acids
Other
Ingredients
"CORN CHIPS; WHOLE GRAIN CORN, VEGETABLE OIL (CONTAINS ONE OR MORE OF THE FOLLOWING: CANOLA, CORN, COTTONSEED, SAFFLOWER, SOYBEAN, OR SUNFLOWER), SALT, BBQ SEASONING (CORN FLOWER, SALT, SUGAR, SPICES, TORULA YEAST, MONOSODIUM GLUTAMATE, ONION POWER, TOMATO POWDER, CARAMEL COLOR, DEXTROSE, HYDROLYZED CORN PROTEIN, GARLIC POWDER, FD&C RED #40 LAKE, NATURAL, SMOKE FLAVOR, EXTRACTIVES, OF PAPRIKA, AUTOLYZED YEAST, PAPRIKA). FRIED CHEESE CURLS: CORN MEAL, VEGETABLE OIL (CONTAINS OR MORE OF THE FOLLOWING: CANOLA, CORN, COTTONSEED, SAFFLOWER, SOYBEAN OR SUNFLOWER), WHEY CHEESE (PASTEURIZED MILK, CHEESE CULTURES, SALT, ENZYMES), SALT, MALTODEXTRIN, NATURAL AND ARTIFICIAL FLAVORS, MONOSODIUM GLUTAMATE, SODIUM CASEINATE, DISODIUM PHOSPHATE, BUTTERMILK, WHEY PROTEIN CONCENTRATE, LACTIC ACID, MONO & DIGLYCERIDES, YELLOW #6 AND YELLOW #5. NACHO CHEESE TORTILLAS CHIPS: WHOLE GRAIN CORN, VEGETABLE, OIL (CONTAINS ONE OR MORE OF THE FOLLOWING: CANOLA, CORN, COTTONSEED, SAFFLOWER, SOYBEAN, OR SUNFLOWER), SALT, WHEY, DRIED ROMANO CHEESE (PASTEURIZED MILK, CHEESE, CULTURES, SALT, ENZYMES), SOYBEAN OIL, DRIED BUTTERMILK, DRIED CHEDDAR CHEESE (PASTEURIZED MILK, CHEESE CULTURES, SALT, ENZYMES), DRIED TOMATO, MONOSODIUM GLUTAMATE, WHEAT FLOUR, DRIED ONION, NON-FAT MILK, DRIED GARLIC, CITRIC ACID, SODIUM CITRATE, DRIED PARMESAN CHEESES (PASTEURIZED MILK, CHEESE CULTURES, SALT, ENZYMES), NATURAL AND ARTIFICIAL FLAVOR, AUTOLYZED YEAST EXTRACT, DISODIUM PHOSPHATE, LACTIC ACID, SPICE, DEXTROSE, PAPRIKA EXTRACT (COLOR), CARAMEL COLOR, YELLOW NO. 6, DISODIUM INOSINATE, DISODIUM GUANYLATE, SUCROSE, RED NO. 40 LAKE, TURMERIC EXTRACT (COLOR), DIPOTASSIUM PHOSPHATE." Date available: 06/25/2017 Date last updated by company: 06/25/2017
