Source: USDA Branded Food Products Database Release December 2017 Software v.3.8.6.4 2017-10-02
Report Run at: December 18, 2017 09:51 EST
"Nutrient data for: 45330933, PARTY DRINK MIX GREEN LIME SLIME, UPC: 819893027427"
Food Group:  Branded Food Products Database
Common Name:

Nutrient,Unit,Data points,Std. Error,"2.5 Tbsp = 20.0g",1Value per 100 g,
Proximates
"Energy",kcal,--,--,80,400
"Protein",g,--,--,0.00,0.00
"Total lipid (fat)",g,--,--,0.00,0.00
"Carbohydrate, by difference",g,--,--,20.00,100.00
"Fiber, total dietary",g,--,--,0.0,0.0
"Sugars, total",g,--,--,18.00,90.00
Minerals
"Calcium, Ca",mg,--,--,25,125
"Iron, Fe",mg,--,--,0.00,0.00
"Potassium, K",mg,--,--,1,5
"Sodium, Na",mg,--,--,25,125
Vitamins
"Vitamin D",IU,--,--,0,0
Lipids
"Fatty acids, total saturated",g,--,--,0.000,0.000
"Fatty acids, total trans",g,--,--,0.000,0.000
"Cholesterol",mg,--,--,0,0
Amino Acids
Other
Ingredients
"SUGAR, XANTHAN GUM, CITRIC ACID, NATURAL AND ARTIFICIAL FLAVOR, YELLOW 5, BLUE 1." Date available: 10/13/2017 Date last updated by company: 10/13/2017
