Source: USDA Branded Food Products Database Release December 2017 Software v.3.8.6.4 2017-10-02
Report Run at: December 18, 2017 09:57 EST
"Nutrient data for: 45006555, PASSAGE FOODS, KORMA SIMMER SAUCE, MILD, UPC: 2876923444010"
Food Group:  Branded Food Products Database
Common Name:

Nutrient,Unit,Data points,Std. Error,"2.0 Tbsp = 30.0g",1Value per 100 g,
Proximates
"Energy",kcal,--,--,50,167
"Protein",g,--,--,1.00,3.33
"Total lipid (fat)",g,--,--,3.50,11.67
"Carbohydrate, by difference",g,--,--,3.00,10.00
"Fiber, total dietary",g,--,--,1.0,3.3
"Sugars, total",g,--,--,2.00,6.67
Minerals
"Calcium, Ca",mg,--,--,20,67
"Iron, Fe",mg,--,--,1.22,4.06
"Sodium, Na",mg,--,--,200,667
Vitamins
"Vitamin C, total ascorbic acid",mg,--,--,2.0,6.8
"Vitamin A, IU",IU,--,--,169,563
Lipids
"Fatty acids, total saturated",g,--,--,0.999,3.330
"Cholesterol",mg,--,--,0,0
Amino Acids
Other
Ingredients
"WATER, ONION, SUNFLOWER OIL, HERBS & SPICES, COCONUT, YOGURT POWDER (NON-FAT MILK SOLIDS, CULTURES), GARLIC, GINGER, CASHEWS, SEA SALT, TOMATO PASTE, BROWN SUGAR, ALMONDS, DISTILLED VINEGAR, TURMERIC, LACTIC ACID, CITRIC ACID, GUAR GUM, XANTHAN GUM, CORN STARCH." Date available: 07/14/2017 Date last updated by company: 07/14/2017
