Source: USDA Branded Food Products Database Release December 2017 Software v.3.8.6.4 2017-10-02
Report Run at: December 18, 2017 09:57 EST
"Nutrient data for: 45273102, PASSION FRUIT, ENERGY DRINK, UPC: 859466005117"
Food Group:  Branded Food Products Database
Common Name:

Nutrient,Unit,Data points,Std. Error,"1 CAN = 355.0g",1Value per 100 g,
Proximates
"Energy",kcal,--,--,46,13
"Protein",g,--,--,0.99,0.28
"Total lipid (fat)",g,--,--,0.00,0.00
"Carbohydrate, by difference",g,--,--,9.02,2.54
"Fiber, total dietary",g,--,--,2.1,0.6
"Sugars, total",g,--,--,6.99,1.97
Minerals
"Potassium, K",mg,--,--,376,106
"Sodium, Na",mg,--,--,0,0
Vitamins
"Vitamin C, total ascorbic acid",mg,--,--,9.2,2.6
Lipids
Amino Acids
Other
Ingredients
"CARBONATED WATER, BREWED GUAYUSA (LEAVES), APPLE JUICE CONCENTRATE, PASSION FRUIT JUICE CONCENTRATE, LIME JUICE CONCENTRATE, NATURAL FLAVORS." Date available: 07/14/2017 Date last updated by company: 07/14/2017
