Source: USDA Branded Food Products Database Release December 2017 Software v.3.8.6.4 2017-10-02
Report Run at: December 18, 2017 10:20 EST
"Nutrient data for: 45257968, PASTRAMI AND SWISS CHEESE, UPC: 725439983044"
Food Group:  Branded Food Products Database
Common Name:

Nutrient,Unit,Data points,Std. Error,"1 SANDWICH = 213.0g",1Value per 100 g,
Proximates
"Energy",kcal,--,--,379,178
"Protein",g,--,--,27.01,12.68
"Total lipid (fat)",g,--,--,10.99,5.16
"Carbohydrate, by difference",g,--,--,46.01,21.60
"Fiber, total dietary",g,--,--,4.0,1.9
"Sugars, total",g,--,--,6.01,2.82
Minerals
"Calcium, Ca",mg,--,--,249,117
"Iron, Fe",mg,--,--,2.36,1.11
"Sodium, Na",mg,--,--,1220,573
Vitamins
"Vitamin C, total ascorbic acid",mg,--,--,1.5,0.7
"Vitamin A, IU",IU,--,--,0,0
Lipids
"Fatty acids, total saturated",g,--,--,4.494,2.110
"Fatty acids, total trans",g,--,--,0.000,0.000
"Cholesterol",mg,--,--,60,28
Amino Acids
Other
Ingredients
"HONEY WHEAT BAGUETTE (UNBLEACHED, ENRICHED WHEAT FLOUR [WHEAT FLOUR, NIACIN , REDUCED IRON, THIAMINE MONONITRATE, RIBOFLAVIN, FOLIC ACID, MALTED BARLEY FLOUR], WATER WHOLE WHEAT FLOUR, HONEY, SALT, MOLASSES YEAST), PASTRAMI (COATED WITH: MOLASSES, BLACK PEPPER, CARAMEL COLORING AND FLAVORING CURED WITH: WATER, SALT, SODIUM PHOSPHATE, POTASSIUM LACTATE, SUGAR, BROWNSUAGR,S ODIUM DIACETE, SODIUM ERYTHORBATE, SODIUM NITRITE, FLAVORING, SMOKE FLAVORING), SWISS CHEESE (PASTEURIZED PART SKIM COW'S MILK, CHEESE CULTURES SALT, ENZYMES), PICKLES (CUCUMBERS, WATER, VINEGAR, SALT, SPICES, GARLIC, CALCIUM CHLORIDE, SODIUM BENZOATE, TURMERIC, POLYSORBATE 80), ONIONS, DIJON MUSTARD (BLACK MUSTARD SEEDS, WATER, VINEGAR, WHITE WINE, SALT, SULFITES)." Date available: 07/14/2017 Date last updated by company: 07/14/2017
