Source: USDA Branded Food Products Database Release December 2017 Software v.3.8.6.4 2017-10-02
Report Run at: December 18, 2017 10:09 EST
"Nutrient data for: 45267547, PASTA SAUCE, UPC: 091037609304"
Food Group:  Branded Food Products Database
Common Name:

Nutrient,Unit,Data points,Std. Error,"0.5 cup = 125.0g",1Value per 100 g,
Proximates
"Energy",kcal,--,--,180,144
"Protein",g,--,--,3.00,2.40
"Total lipid (fat)",g,--,--,16.00,12.80
"Carbohydrate, by difference",g,--,--,8.00,6.40
"Fiber, total dietary",g,--,--,1.0,0.8
"Sugars, total",g,--,--,3.00,2.40
Minerals
"Calcium, Ca",mg,--,--,40,32
"Iron, Fe",mg,--,--,0.76,0.61
"Sodium, Na",mg,--,--,590,472
Vitamins
"Vitamin C, total ascorbic acid",mg,--,--,12.6,10.1
"Vitamin A, IU",IU,--,--,792,634
Lipids
"Fatty acids, total saturated",g,--,--,3.000,2.400
"Fatty acids, total trans",g,--,--,0.000,0.000
"Cholesterol",mg,--,--,2,2
Amino Acids
Other
Ingredients
"TOMATO FILETS, TOMATO PASTE, EXTRA VIRGIN OLIVE OIL, CLAM JUICE (CLAM JUICE, SALT), WATER, SOY SAUCE (WATER, WHEAT, SOYBEANS, SALT), GARLIC, ONION, CELERY, OREGANO, ANCHOVY PASTE (ANCHOVIES, SALT, OLIVE OIL, ACETIC ACID), PARSLEY, LEMON JUICE CONCENTRATE, SALT, BLACK PEPPER, CELERY SEED, CRUSHED RED PEPPER, CELERY SALT (SALT, SPICE)." Date available: 07/14/2017 Date last updated by company: 07/14/2017
