Source: USDA Branded Food Products Database Release December 2017 Software v.3.8.6.4 2017-10-02
Report Run at: December 18, 2017 10:20 EST
"Nutrient data for: 45054260, PASTRIES WITH ICING PACKETS, UPC: 041497026753"
Food Group:  Branded Food Products Database
Common Name:

Nutrient,Unit,Data points,Std. Error,"1 PASTRY WITH ICING = 54.0g",1Value per 100 g,
Proximates
"Energy",kcal,--,--,180,333
"Protein",g,--,--,3.00,5.56
"Total lipid (fat)",g,--,--,7.00,12.96
"Carbohydrate, by difference",g,--,--,27.00,50.00
"Fiber, total dietary",g,--,--,1.0,1.9
"Sugars, total",g,--,--,13.00,24.07
Minerals
"Calcium, Ca",mg,--,--,0,0
"Iron, Fe",mg,--,--,2.20,4.07
"Phosphorus, P",mg,--,--,122,226
"Sodium, Na",mg,--,--,190,352
Vitamins
"Vitamin C, total ascorbic acid",mg,--,--,0.0,0.0
"Thiamin",mg,--,--,0.000,0.000
"Riboflavin",mg,--,--,0.102,0.189
"Niacin",mg,--,--,1.222,2.263
"Vitamin A, IU",IU,--,--,0,0
Lipids
"Fatty acids, total saturated",g,--,--,1.501,2.780
"Fatty acids, total monounsaturated",g,--,--,1.501,2.780
"Fatty acids, total polyunsaturated",g,--,--,3.002,5.560
"Fatty acids, total trans",g,--,--,0.000,0.000
"Cholesterol",mg,--,--,5,9
Amino Acids
Other
Ingredients
"ENRICHED FLOUR (WHEAT FLOUR, NIACIN, REDUCED IRON, THIAMIN MONONITRATE, RIBOFLAVIN, FOLIC ACID), WATER, SUGAR, SOYBEAN OIL AND/OR COTTONSEED OIL, HIGH FRUCTOSE CORN SYRUP, CONTAINS 2% OR LESS OF: DEXTROSE, CORN STARCH, PALM AND PALM KERNEL OIL, LEAVENING (SODIUM BICARBONATE, SODIUM ALUMINUM PHOSPHATE), DRIED SWEET WHEY SOLIDS, CORN FLOUR, CORN SYRUP, YEAST, SALT, MODIFIED CORN STARCH, NON FAT DRY MILK, CITRIC ACID, EGGS, STRAWBERRY PUREE, DEXTRIN, NATURAL AND ARTIFICIAL FLAVORS, GUAR GUM, MONO AND DIGLYCERIDES, SODIUM STEAROYL LACTYLATE, SOY LECITHIN, AGAR, ARTIFICIAL COLOR, PECTIN, POTASSIUM SORBATE (PRESERVATIVE), SODIUM HEXAMETAPHOSPHATE, STEARIC ACID, LOCUST BEAN GUM, XANTHAN GUM, AMMONIUM SULFATE, L-CRYSTEINE, SODIUM CITRATE, CARRAGEENAN, ENZYMATICALLY MODIFIED WHEAT GLUTEN, SILICON DIOXIDE, RED 40, BLUE 1." Date available: 06/25/2017 Date last updated by company: 06/25/2017
