Source: USDA Branded Food Products Database Release December 2017 Software v.3.8.6.4 2017-10-02
Report Run at: December 18, 2017 10:17 EST
"Nutrient data for: 45208539, PASTEURIZED CHEESE SNACK, UPC: 075450094220"
Food Group:  Branded Food Products Database
Common Name:

Nutrient,Unit,Data points,Std. Error,"2.0 Tbsp = 31.0g",1Value per 100 g,
Proximates
"Energy",kcal,--,--,90,290
"Protein",g,--,--,4.00,12.90
"Total lipid (fat)",g,--,--,7.00,22.58
"Carbohydrate, by difference",g,--,--,3.00,9.68
"Fiber, total dietary",g,--,--,0.0,0.0
"Sugars, total",g,--,--,2.00,6.45
Minerals
"Calcium, Ca",mg,--,--,100,323
"Iron, Fe",mg,--,--,0.00,0.00
"Sodium, Na",mg,--,--,430,1387
Vitamins
"Vitamin C, total ascorbic acid",mg,--,--,0.0,0.0
"Vitamin A, IU",IU,--,--,162,521
Lipids
"Fatty acids, total saturated",g,--,--,3.001,9.680
"Fatty acids, total trans",g,--,--,0.000,0.000
"Cholesterol",mg,--,--,15,48
Amino Acids
Other
Ingredients
"WHEY, CHEDDAR CHEESE (MILK, CHEESE CULTURES, SALT, ENZYMES), SOYBEAN OIL, SODIUM PHOSPHATE, CONTAINS LESS THAN 2% OF: WHEY PROTEIN CONCENTRATE, SALT, CARRAGEENAN, SODIUM CITRATE, NATURAL FLAVOR, GLUCONO-DELTA LACTONE, LACTIC ACID, SORBIC ACID (A PRESERVATIVE), ARTIFICIAL COLOR (YELLOW #5,YELLOW #6)." Date available: 07/14/2017 Date last updated by company: 07/14/2017
