Source: USDA Branded Food Products Database Release December 2017 Software v.3.8.6.4 2017-10-02
Report Run at: December 18, 2017 10:08 EST
"Nutrient data for: 45215310, PASTA SAUCE, UPC: 011153052464"
Food Group:  Branded Food Products Database
Common Name:

Nutrient,Unit,Data points,Std. Error,"0.5 cup = 127.0g",1Value per 100 g,
Proximates
"Energy",kcal,--,--,70,55
"Protein",g,--,--,1.99,1.57
"Total lipid (fat)",g,--,--,1.00,0.79
"Carbohydrate, by difference",g,--,--,12.00,9.45
"Fiber, total dietary",g,--,--,3.0,2.4
"Sugars, total",g,--,--,5.99,4.72
Minerals
"Calcium, Ca",mg,--,--,20,16
"Iron, Fe",mg,--,--,1.14,0.90
"Sodium, Na",mg,--,--,470,370
Vitamins
"Vitamin C, total ascorbic acid",mg,--,--,6.3,5.0
"Vitamin A, IU",IU,--,--,423,333
Lipids
"Fatty acids, total saturated",g,--,--,0.000,0.000
"Fatty acids, total trans",g,--,--,0.000,0.000
"Cholesterol",mg,--,--,0,0
Amino Acids
Other
Ingredients
"TOMATO PUREE (WATER, TOMATO PASTE), MUSHROOMS, SUGAR, SALT, SOYBEAN OIL, DEHYDRATED ONIONS, GARLIC, SPICES, PECORINO ROMANO CHEESE (PASTEURIZED SHEEP'S MILK, SALT, CHEESE CULTURES, ENZYMES), EXTRA VIRGIN OLIVE OIL." Date available: 07/14/2017 Date last updated by company: 07/14/2017
