Source: USDA Branded Food Products Database Release December 2017 Software v.3.8.6.4 2017-10-02
Report Run at: December 18, 2017 10:20 EST
"Nutrient data for: 45077437, PASTRY CRISP, UPC: 713733120104"
Food Group:  Branded Food Products Database
Common Name:

Nutrient,Unit,Data points,Std. Error,"2.0 CRISPS = 25.0g",1Value per 100 g,
Proximates
"Energy",kcal,--,--,100,400
"Protein",g,--,--,1.00,4.00
"Total lipid (fat)",g,--,--,2.00,8.00
"Carbohydrate, by difference",g,--,--,20.00,80.00
"Fiber, total dietary",g,--,--,1.0,4.0
"Sugars, total",g,--,--,7.00,28.00
Minerals
"Calcium, Ca",mg,--,--,0,0
"Iron, Fe",mg,--,--,0.57,2.30
"Sodium, Na",mg,--,--,80,320
Vitamins
"Vitamin C, total ascorbic acid",mg,--,--,0.0,0.0
"Vitamin A, IU",IU,--,--,0,0
Lipids
"Fatty acids, total saturated",g,--,--,1.000,4.000
"Fatty acids, total trans",g,--,--,0.000,0.000
"Cholesterol",mg,--,--,0,0
Amino Acids
Other
Ingredients
"ENRICHED WHEAT FLOUR [WHEAT FLOUR, NIACIN, REDUCED IRON, THIAMIN MONONITRATE (VITAMIN B1), RIBOFLAVIN (VITAMIN B2), FOLIC ACID], BLUEBERRY FLAVORED FILLING [GLYCERINE, FRUCTOSE, DEXTROSE, SUGAR, WATER, CORN SYRUP, MODIFIED FOOD STARCH, APPLE JUICE CONCENTRATE, CALCIUM SULFATE DIHYDRATE, CANOLA OIL, CITRIC ACID, COLOR ADDED (BLUE 1, RED 40), NATURAL AND ARTIFICIAL FLAVOR, PECTIN, SALT, SODIUM BENZOATE (PRESERVATIVE), SODIUM CITRATE, SOY LECITHIN, TARTARIC ACID, TETRASODIUM PYROPHOSPHATE], COATING [SUGAR, PALM KERNEL AND PALM OIL, WHEY POWDER, NONFAT DRY MILK, SOY LECITHIN, COLOR ADDED, SALT, NATURAL FLAVOR], SUGAR, CORN SYRUP SOLIDS, PALM OIL, CORN STARCH, INVERT SUGAR, SOY LECITHIN, LEAVENING (BAKING SODA, SODIUM ALUMINUM PHOSPHATE), WHEY PERMEATE, SALT, NATURAL FLAVOR, CALCIUM CARBONATE, POTASSIUM SORBATE (PRESERVATIVE)." Date available: 07/14/2017 Date last updated by company: 07/14/2017
