Source: USDA Branded Food Products Database Release December 2017 Software v.3.8.6.4 2017-10-02
Report Run at: December 18, 2017 10:07 EST
"Nutrient data for: 45195139, PASTA SAUCE, UPC: 041130388569"
Food Group:  Branded Food Products Database
Common Name:

Nutrient,Unit,Data points,Std. Error,"0.5 cup = 120.0g",1Value per 100 g,
Proximates
"Energy",kcal,--,--,80,67
"Protein",g,--,--,1.00,0.83
"Total lipid (fat)",g,--,--,5.00,4.17
"Carbohydrate, by difference",g,--,--,7.00,5.83
"Fiber, total dietary",g,--,--,2.0,1.7
"Sugars, total",g,--,--,4.00,3.33
Minerals
"Calcium, Ca",mg,--,--,60,50
"Iron, Fe",mg,--,--,0.38,0.32
"Sodium, Na",mg,--,--,370,308
Vitamins
"Vitamin C, total ascorbic acid",mg,--,--,0.0,0.0
"Vitamin A, IU",IU,--,--,1585,1321
Lipids
"Fatty acids, total saturated",g,--,--,0.996,0.830
"Fatty acids, total trans",g,--,--,0.000,0.000
"Cholesterol",mg,--,--,0,0
Amino Acids
Other
Ingredients
"TOMATO PUREE (WATER, TOMATO PASTE), DICED TOMATOES, ONIONS, CARROTS, EXTRA VIRGIN OLIVE OIL, SALT, BASIL, SPICE." Date available: 07/14/2017 Date last updated by company: 07/14/2017
