Source: USDA Branded Food Products Database Release December 2017 Software v.3.8.6.4 2017-10-02
Report Run at: December 18, 2017 10:18 EST
"Nutrient data for: 45292251, PASTEURIZED PROCESS AMERICAN CHEESE SLICES, UPC: 046567002866"
Food Group:  Branded Food Products Database
Common Name:

Nutrient,Unit,Data points,Std. Error,"1 SLICE = 21.0g",1Value per 100 g,
Proximates
"Energy",kcal,--,--,80,381
"Protein",g,--,--,3.00,14.29
"Total lipid (fat)",g,--,--,7.00,33.33
"Carbohydrate, by difference",g,--,--,0.00,0.00
"Fiber, total dietary",g,--,--,0.0,0.0
"Sugars, total",g,--,--,1.00,4.76
Minerals
"Calcium, Ca",mg,--,--,100,476
"Iron, Fe",mg,--,--,0.00,0.00
"Sodium, Na",mg,--,--,370,1762
Vitamins
"Vitamin C, total ascorbic acid",mg,--,--,0.0,0.0
"Vitamin A, IU",IU,--,--,476,2267
Lipids
"Fatty acids, total saturated",g,--,--,4.000,19.050
"Fatty acids, total trans",g,--,--,0.000,0.000
"Cholesterol",mg,--,--,20,95
Amino Acids
Other
Ingredients
"CULTURED MILK, WATER, CREAM, SODIUM CITRATE, SALT, LACTIC ACID, SORBIC ACID (PRESERVATIVE), ARTIFICIAL COLOR, ENZYMES, SOY LECITHIN." Date available: 08/11/2017 Date last updated by company: 08/11/2017
