Source: USDA Branded Food Products Database Release December 2017 Software v.3.8.6.4 2017-10-02
Report Run at: December 18, 2017 10:19 EST
"Nutrient data for: 45084533, PASTEURIZED PROCESS CHEESE PRODUCT, UPC: 041303008522"
Food Group:  Branded Food Products Database
Common Name:

Nutrient,Unit,Data points,Std. Error,"1 SLICE = 21.0g",1Value per 100 g,
Proximates
"Energy",kcal,--,--,60,286
"Protein",g,--,--,3.00,14.29
"Total lipid (fat)",g,--,--,4.50,21.43
"Carbohydrate, by difference",g,--,--,2.00,9.52
"Fiber, total dietary",g,--,--,0.0,0.0
"Sugars, total",g,--,--,2.00,9.52
Minerals
"Calcium, Ca",mg,--,--,250,1190
"Iron, Fe",mg,--,--,0.00,0.00
"Sodium, Na",mg,--,--,280,1333
Vitamins
"Vitamin C, total ascorbic acid",mg,--,--,0.0,0.0
"Vitamin A, IU",IU,--,--,238,1133
"Vitamin D",IU,--,--,40,190
Lipids
"Fatty acids, total saturated",g,--,--,2.499,11.900
"Fatty acids, total trans",g,--,--,0.000,0.000
"Cholesterol",mg,--,--,15,71
Amino Acids
Other
Ingredients
"INGREDIENTS: CULTURED MILK, WATER, WHEY, CREAM, MODIFIED WHEY PROTEIN, SODIUM CITRATE, FOOD STARCH-MODIFIED, SALT, CALCIUM PHOSPHATE, MILK PROTEIN CONCENTRATE, LACTIC ACID, SORBIC ACID (PRESERVATIVE), SODIUM PHOSPHATE, ENZYMES, VITAMIN D3." Date available: 06/25/2017 Date last updated by company: 06/25/2017
