Source: USDA Branded Food Products Database Release December 2017 Software v.3.8.6.4 2017-10-02
Report Run at: December 18, 2017 10:14 EST
"Nutrient data for: 45312514, PASTA SOUP, UPC: 079893800271"
Food Group:  Branded Food Products Database
Common Name:

Nutrient,Unit,Data points,Std. Error,"1 CONTAINER = 45.0g",1Value per 100 g,
Proximates
"Energy",kcal,--,--,150,333
"Protein",g,--,--,7.00,15.56
"Total lipid (fat)",g,--,--,1.00,2.22
"Carbohydrate, by difference",g,--,--,30.00,66.67
"Fiber, total dietary",g,--,--,3.0,6.7
"Sugars, total",g,--,--,4.00,8.89
Minerals
"Calcium, Ca",mg,--,--,20,44
"Iron, Fe",mg,--,--,0.00,0.00
"Sodium, Na",mg,--,--,480,1067
Vitamins
"Vitamin C, total ascorbic acid",mg,--,--,49.0,108.9
"Vitamin A, IU",IU,--,--,0,0
Lipids
"Fatty acids, total saturated",g,--,--,0.000,0.000
"Fatty acids, total trans",g,--,--,0.000,0.000
"Cholesterol",mg,--,--,0,0
Amino Acids
Other
Ingredients
"DRY PASTA (SEMOLINA WHEAT FLOUR, NIACIN, FERROUS SULFATE [IRON], THIAMINE MONONITRATE, RIBOFLAVIN, FOLIC ACID), DRIED VEGETABLES (TOMATO, GARLIC, ONION), NATURAL FLAVORS, SALT, SILICON DIOXIDE, DRIED BASIL, DRIED PARSLEY XANTHAN GUM, SPICES." Date available: 10/13/2017 Date last updated by company: 10/13/2017
