Source: USDA Branded Food Products Database Release December 2017 Software v.3.8.6.4 2017-10-02
Report Run at: December 18, 2017 10:07 EST
"Nutrient data for: 45199315, PASTA SAUCE, UPC: 096906102405"
Food Group:  Branded Food Products Database
Common Name:

Nutrient,Unit,Data points,Std. Error,"0.5 cup = 120.0g",1Value per 100 g,
Proximates
"Energy",kcal,--,--,46,38
"Protein",g,--,--,1.00,0.83
"Total lipid (fat)",g,--,--,1.00,0.83
"Carbohydrate, by difference",g,--,--,9.00,7.50
"Fiber, total dietary",g,--,--,2.0,1.7
"Sugars, total",g,--,--,1.00,0.83
Minerals
"Calcium, Ca",mg,--,--,20,17
"Iron, Fe",mg,--,--,0.38,0.32
"Sodium, Na",mg,--,--,610,508
Vitamins
"Vitamin C, total ascorbic acid",mg,--,--,1.3,1.1
"Vitamin A, IU",IU,--,--,5812,4843
Lipids
"Fatty acids, total saturated",g,--,--,0.000,0.000
"Cholesterol",mg,--,--,5,4
Amino Acids
Other
Ingredients
"CHICKEN STOCK (WATER, DRIED CHICKEN STOCK, SALT, VEGETABLE STOCK [ONION, GARLIC, CELERY], GELATIN, CHICKEN [WITH FAT AND SKIN], TAPIOCA STARCH [NATIVE], NATURAL FLAVOR), PUMPKIN, SWEET POTATOES, ONION, CREAM, SALT, PARMESAN CHEESE (PART SKIM MILK, CHEESE CULTURES, SALT, ENZYMES), ROASTED GARLIC (WITH CANOLA OIL), MODIFIED TAPIOCA STARCH, GINGER ROOT, CITRIC ACID, SPICES." Date available: 07/14/2017 Date last updated by company: 07/14/2017
