Source: USDA Branded Food Products Database Release December 2017 Software v.3.8.6.4 2017-10-02
Report Run at: December 18, 2017 10:08 EST
"Nutrient data for: 45218531, PASTA SAUCE, UPC: 07203671209"
Food Group:  Branded Food Products Database
Common Name:

Nutrient,Unit,Data points,Std. Error,"0.5 cup = 128.0g",1Value per 100 g,
Proximates
"Energy",kcal,--,--,110,86
"Protein",g,--,--,3.99,3.12
"Total lipid (fat)",g,--,--,3.49,2.73
"Carbohydrate, by difference",g,--,--,15.00,11.72
"Fiber, total dietary",g,--,--,2.9,2.3
"Sugars, total",g,--,--,10.00,7.81
Minerals
"Calcium, Ca",mg,--,--,60,47
"Iron, Fe",mg,--,--,0.76,0.59
"Sodium, Na",mg,--,--,550,430
Vitamins
"Vitamin C, total ascorbic acid",mg,--,--,2.6,2.0
"Vitamin A, IU",IU,--,--,792,619
Lipids
"Fatty acids, total saturated",g,--,--,1.498,1.170
"Fatty acids, total trans",g,--,--,0.000,0.000
"Cholesterol",mg,--,--,5,4
Amino Acids
Other
Ingredients
"TOMATO PURE (WATER, TOMATO PASTE), TOMATOES, SUGAR, SOYBEAN OIL, PARMESAN CHEESE (CULTURED PAR-SKIM MILK, SALT, ENZYMES), ROMANO CHEESE (CULTURED PART-SKIM MILK, SALT, ENZYMES), SALT, DRIED GARLIC, DRIED ONION, BASIL, PARSLEY." Date available: 07/14/2017 Date last updated by company: 07/14/2017
