Source: USDA Branded Food Products Database Release December 2017 Software v.3.8.6.4 2017-10-02
Report Run at: December 18, 2017 10:02 EST
"Nutrient data for: 45260909, PASTA SALAD, UPC: 071100211825"
Food Group:  Branded Food Products Database
Common Name:

Nutrient,Unit,Data points,Std. Error,"0.5 cup = 41.0g",1Value per 100 g,
Proximates
"Energy",kcal,--,--,150,366
"Protein",g,--,--,5.00,12.20
"Total lipid (fat)",g,--,--,1.00,2.44
"Carbohydrate, by difference",g,--,--,29.00,70.73
"Fiber, total dietary",g,--,--,1.0,2.4
"Sugars, total",g,--,--,1.00,2.44
Minerals
"Calcium, Ca",mg,--,--,20,49
"Iron, Fe",mg,--,--,4.92,11.99
"Sodium, Na",mg,--,--,190,463
Vitamins
"Vitamin C, total ascorbic acid",mg,--,--,0.0,0.0
"Vitamin A, IU",IU,--,--,1025,2499
Lipids
"Fatty acids, total saturated",g,--,--,0.000,0.000
"Fatty acids, total trans",g,--,--,0.000,0.000
"Cholesterol",mg,--,--,0,0
Amino Acids
Other
Ingredients
"ENRICHED GEMELLI (DURUM WHEAT SEMOLINA, IRON, NIACIN, THIAMINE MONONITRATE, RIBOFLAVIN, FOLIC ACID), MALTODEXTRIN, CHEDDAR CHEESE (CULTURED PASTEURIZED MILK, SALT, ENZYMES), SALT, LESS THAN 1% OF: WHEY, BUTTERMILK, CRUSHED RED PEPPER, DRIED CHIPOTLE PEPPERS, SMOKED PAPRIKA, SPICES, NATURAL FLAVORS, MODIFIED FOOD STARCH, ENZYMES, DISODIUM PHOSPHATE, DISODIUM INOSINATE, DISODIUM GUANYLATE, CALCIUM STEARATE, MONOSODIUM GLUTAMATE, YELLOW 5, YELLOW 6." Date available: 07/14/2017 Date last updated by company: 07/14/2017
