Source: USDA Branded Food Products Database Release December 2017 Software v.3.8.6.4 2017-10-02
Report Run at: December 18, 2017 10:14 EST
"Nutrient data for: 45290523, PASTA TRPINA RIGATONI, UPC: 8033837768135"
Food Group:  Branded Food Products Database
Common Name:

Nutrient,Unit,Data points,Std. Error,"100.0 GRM = 100.0g",1Value per 100 g,
Proximates
"Energy",kcal,--,--,350,350
"Protein",g,--,--,12.00,12.00
"Total lipid (fat)",g,--,--,1.50,1.50
"Carbohydrate, by difference",g,--,--,72.00,72.00
"Fiber, total dietary",g,--,--,2.5,2.5
"Sugars, total",g,--,--,3.20,3.20
Minerals
"Sodium, Na",mg,--,--,4,4
Vitamins
Lipids
"Fatty acids, total saturated",g,--,--,0.040,0.040
"Fatty acids, total trans",g,--,--,0.000,0.000
"Cholesterol",mg,--,--,0,0
Amino Acids
Other
Ingredients
"DURUM WHEAT SEMOLINA FLOUR, WATER" Date available: 09/23/2017 Date last updated by company: 09/23/2017
