Source: USDA Branded Food Products Database Release December 2017 Software v.3.8.6.4 2017-10-02
Report Run at: December 18, 2017 10:02 EST
"Nutrient data for: 45202619, PASTA SALAD, UPC: 782796023257"
Food Group:  Branded Food Products Database
Common Name:

Nutrient,Unit,Data points,Std. Error,"1 cup = 100.0g",1Value per 100 g,
Proximates
"Energy",kcal,--,--,250,250
"Protein",g,--,--,10.00,10.00
"Total lipid (fat)",g,--,--,8.00,8.00
"Carbohydrate, by difference",g,--,--,33.00,33.00
"Fiber, total dietary",g,--,--,2.0,2.0
"Sugars, total",g,--,--,2.00,2.00
Minerals
"Calcium, Ca",mg,--,--,20,20
"Iron, Fe",mg,--,--,2.52,2.52
"Sodium, Na",mg,--,--,210,210
Vitamins
"Vitamin C, total ascorbic acid",mg,--,--,1.7,1.7
"Vitamin A, IU",IU,--,--,1400,1400
Lipids
"Fatty acids, total saturated",g,--,--,1.000,1.000
"Fatty acids, total trans",g,--,--,0.000,0.000
"Cholesterol",mg,--,--,25,25
Amino Acids
Other
Ingredients
"PENNE PASTA (SEMOLINA, NIACIN, FERROUS SULFATE (IRON), THIAMIN MONONITRATE, RIBOFLAVIN, FOLIC ACID), TUNA SALAD (TUNA (TUNA, WATER AND SALT), MAYONNAISE (VEGETABLE OIL [SOYBEAN, CANOLA], WATER, DISTILLED VINEGAR, EGG YOLK, SUGAR, SALT, SPICE, CALCIUM DISODIUM (EDTA TO PROTECT FLAVOR)), MAYONNAISE (WATER, VEGETABLE OIL (SOYBEAN AND/OR CANOLA), DISTILLED VINEGAR, EGG YOLK, MODIFIED FOOD STARCH, HIGH FRUCTOSE CORN SYRUP, CONTAINS LESS THAN 2% OF: SALT, POTASSIUM SORBATE AND SODIUM BENZOATE AS PRESERVATIVES, SPICES, XANTHAN GUM, LEMON JUICE CONCENTRATE, LACTIC ACID, DEXTROSE), CELERY, RED ONION, SALT, BLACK PEPPER), GREEN ONION, CELERY, DILL DRESSING (MAYONNAISE (VEGETABLE OIL [SOYBEAN, CANOLA], WATER, DISTILLED VINEGAR, EGG YOLK, SUGAR, SALT, SPICE, CALCIUM DISODIUM (EDTA TO PROTECT FLAVOR)), MAYONNAISE (WATER, VEGETABLE OIL (SOYBEAN AND/OR CANOLA), DISTILLED VINEGAR, EGG, YOLK, MODIFIED FOOD STARCH, HIGH FRUCTOSE CORN SYRUP, CONTAINS LESS THAN 2% OF: SALT, POTASSIUM SORBATE AND SODIUM BENZOATE AS PRESERVATIVES, SPICE, XANTHAN GUM, LEMON JUICE CONCENTRATE, LACTIC ACID, DEXTROSE), LEMON JUICE (FILTERED WATER, LEMON JUICE CONCENTRATE, SODIUM BISULFITE (PRESERVATIVE), SODIUM BENZOATE (PRESERVATIVE), LEMON OIL), DIJON MUSTARD (WATER, VINEGAR, MUSTARD SEED, SALT, WHITE WINE, FRUIT PECTIN, CITRIC ACID, TARTARIC ACID, SUGAR, SPICE), DILL WEED), CARROTS." Date available: 07/14/2017 Date last updated by company: 07/14/2017
