Source: USDA Branded Food Products Database Release December 2017 Software v.3.8.6.4 2017-10-02
Report Run at: December 18, 2017 10:11 EST
"Nutrient data for: 45325509, PASTA SAUCE, UPC: 018894750284"
Food Group:  Branded Food Products Database
Common Name:

Nutrient,Unit,Data points,Std. Error,"0.5 cup = 125.0g",1Value per 100 g,
Proximates
"Energy",kcal,--,--,80,64
"Protein",g,--,--,2.00,1.60
"Total lipid (fat)",g,--,--,2.50,2.00
"Carbohydrate, by difference",g,--,--,10.00,8.00
"Fiber, total dietary",g,--,--,3.0,2.4
"Sugars, total",g,--,--,7.00,5.60
Minerals
"Calcium, Ca",mg,--,--,20,16
"Iron, Fe",mg,--,--,0.76,0.61
"Potassium, K",mg,--,--,380,304
"Sodium, Na",mg,--,--,480,384
Vitamins
"Vitamin C, total ascorbic acid",mg,--,--,2.5,2.0
"Vitamin A, IU",IU,--,--,529,423
Lipids
"Fatty acids, total saturated",g,--,--,0.000,0.000
"Fatty acids, total trans",g,--,--,0.000,0.000
"Cholesterol",mg,--,--,0,0
Amino Acids
Other
Ingredients
"TOMATO PUREE (WATER, TOMATO PASTE), SOYBEAN OIL, SUGAR, SALT, DRIED ONIONS, OLIVE OIL, ROMANO CHEESE (MILK, CHEESE CULTURES, SALT, ENZYMES), DRIED GARLIC, SPICES, CITRIC ACID." Date available: 08/11/2017 Date last updated by company: 08/11/2017
