Source: USDA Branded Food Products Database Release December 2017 Software v.3.8.6.4 2017-10-02
Report Run at: December 18, 2017 10:21 EST
"Nutrient data for: 45065677, PATAK'S, MARINADE, TANDOORI MILD, UPC: 069276032153"
Food Group:  Branded Food Products Database
Common Name:

Nutrient,Unit,Data points,Std. Error,"2.0 Tbsp = 35.0g",1Value per 100 g,
Proximates
"Energy",kcal,--,--,35,100
"Protein",g,--,--,1.00,2.86
"Total lipid (fat)",g,--,--,1.00,2.86
"Carbohydrate, by difference",g,--,--,6.00,17.14
"Fiber, total dietary",g,--,--,2.0,5.7
"Sugars, total",g,--,--,2.00,5.71
Minerals
"Calcium, Ca",mg,--,--,0,0
"Iron, Fe",mg,--,--,0.00,0.00
"Sodium, Na",mg,--,--,790,2257
Vitamins
"Vitamin C, total ascorbic acid",mg,--,--,0.0,0.0
"Vitamin A, IU",IU,--,--,0,0
Lipids
"Fatty acids, total saturated",g,--,--,0.000,0.000
"Fatty acids, total trans",g,--,--,0.000,0.000
"Cholesterol",mg,--,--,0,0
Amino Acids
Other
Ingredients
"WATER, GINGER, TAMARIND, SALT, GARLIC POWDER, CORIANDER, CUMIN, ACETIC ACID, PAPRIKA (COLOR), SPICES, CARMINE (COLOR), LACTIC ACID, RED 40." Date available: 07/14/2017 Date last updated by company: 07/14/2017
