Source: USDA Branded Food Products Database Release December 2017 Software v.3.8.6.4 2017-10-02
Report Run at: December 18, 2017 10:25 EST
"Nutrient data for: 45311585, PAZAZZ, APPLE CIDER, UPC: 097691000143"
Food Group:  Branded Food Products Database
Common Name:

Nutrient,Unit,Data points,Std. Error,"8.0 OZA = 240.0g",1Value per 100 g,
Proximates
"Energy",kcal,--,--,120,50
"Protein",g,--,--,0.00,0.00
"Total lipid (fat)",g,--,--,0.00,0.00
"Carbohydrate, by difference",g,--,--,30.00,12.50
"Sugars, total",g,--,--,30.00,12.50
Minerals
"Iron, Fe",mg,--,--,0.55,0.23
"Sodium, Na",mg,--,--,60,25
Vitamins
"Vitamin C, total ascorbic acid",mg,--,--,5.5,2.3
Lipids
Amino Acids
Other
Ingredients
"APPLE JUICE, POTASSIUM SORBATE, SODIUM BENZOATE ADDED TO PRESERVE." Date available: 07/14/2017 Date last updated by company: 07/14/2017
