Source: USDA Branded Food Products Database Release December 2017 Software v.3.8.6.4 2017-10-02
Report Run at: December 18, 2017 10:26 EST
"Nutrient data for: 45155640, PB & J TRAIL MIX, UPC: 041735089786"
Food Group:  Branded Food Products Database
Common Name:

Nutrient,Unit,Data points,Std. Error,"0.25 cup = 30.0g",1Value per 100 g,
Proximates
"Energy",kcal,--,--,150,500
"Protein",g,--,--,4.00,13.33
"Total lipid (fat)",g,--,--,9.00,30.00
"Carbohydrate, by difference",g,--,--,15.00,50.00
"Fiber, total dietary",g,--,--,2.0,6.7
"Sugars, total",g,--,--,12.00,40.00
Minerals
"Calcium, Ca",mg,--,--,20,67
"Iron, Fe",mg,--,--,0.00,0.00
"Sodium, Na",mg,--,--,70,233
Vitamins
"Vitamin C, total ascorbic acid",mg,--,--,0.0,0.0
"Vitamin A, IU",IU,--,--,0,0
Lipids
"Fatty acids, total saturated",g,--,--,3.999,13.330
"Fatty acids, total monounsaturated",g,--,--,3.000,10.000
"Fatty acids, total polyunsaturated",g,--,--,1.500,5.000
"Fatty acids, total trans",g,--,--,0.000,0.000
"Cholesterol",mg,--,--,0,0
Amino Acids
Other
Ingredients
"PEANUTS (PEANUTS, PEANUT OIL AND/OR SOY OIL, SALT), PEANUT BUTTER CUPS (MILK CHOCOLATE [SUGAR, COCOA BUTTER, WHOLE MILK, CHOCOLATE, SOY LECITHIN, AND VANILLA], PEANUT BUTTER [PEANUTS, HYDROGENATED VEGETABLE OIL (RAPESEED AND COTTONSEED), SALT], HYDROGENATED PALM KERNEL OIL, POWDERED SUGAR, DEXTROSE, SALT, PROPYL GALLATE [TO MAINTAIN FRESHNESS]), DRIED CRANBERRIES (CRANBERRIES, SUGAR, SUNFLOWER OIL), CREAMY PEANUT DROP (SUGAR, PALM KERNEL AND PALM OIL, PARTIALLY DEFATTED PEANUT FLOUR, NONFAT DRY MILK SOLIDS, PEANUTS, ANHYDROUS DEXTROSE, SOY LECITHIN, SALT)" Date available: 08/10/2017 Date last updated by company: 08/10/2017
