Source: USDA Branded Food Products Database Release December 2017 Software v.3.8.6.4 2017-10-02
Report Run at: December 18, 2017 10:26 EST
"Nutrient data for: 45135913, PB2, PEANUT BUTTER POWDER WITH PREMIUM CHOCOLATE, UPC: 4870188008077"
Food Group:  Branded Food Products Database
Common Name:

Nutrient,Unit,Data points,Std. Error,"2.0 Tbsp = 12.0g",1Value per 100 g,
Proximates
"Energy",kcal,--,--,45,375
"Protein",g,--,--,4.00,33.33
"Total lipid (fat)",g,--,--,1.00,8.33
"Carbohydrate, by difference",g,--,--,6.00,50.00
"Fiber, total dietary",g,--,--,1.0,8.3
"Sugars, total",g,--,--,3.00,25.00
Minerals
"Calcium, Ca",mg,--,--,10,83
"Iron, Fe",mg,--,--,1.50,12.49
"Sodium, Na",mg,--,--,70,583
Vitamins
"Vitamin C, total ascorbic acid",mg,--,--,0.0,0.0
"Vitamin A, IU",IU,--,--,206,1717
Lipids
"Fatty acids, total saturated",g,--,--,0.000,0.000
"Fatty acids, total trans",g,--,--,0.010,0.080
"Cholesterol",mg,--,--,0,0
Amino Acids
Other
Ingredients
"ROASTED PEANUTS, COCOA POWDER, SUGAR AND SALT" Date available: 09/20/2017 Date last updated by company: 09/20/2017
