Source: USDA Branded Food Products Database Release December 2017 Software v.3.8.6.4 2017-10-02
Report Run at: December 18, 2017 10:27 EST
"Nutrient data for: 45025490, PCC, ORGANIC PECAN HALVES, UPC: 000000034715"
Food Group:  Branded Food Products Database
Common Name:

Nutrient,Unit,Data points,Std. Error,"1 ONZ = 28.4g",1Value per 100 g,
Proximates
"Energy",kcal,--,--,200,704
"Protein",g,--,--,3.00,10.56
"Total lipid (fat)",g,--,--,20.00,70.42
"Carbohydrate, by difference",g,--,--,4.00,14.08
"Fiber, total dietary",g,--,--,2.0,7.0
"Sugars, total",g,--,--,1.00,3.52
Minerals
Vitamins
Lipids
"Fatty acids, total saturated",g,--,--,1.999,7.040
Amino Acids
Other
Ingredients
"US GROWN ORGANIC PECANS." Date available: 07/14/2017 Date last updated by company: 07/14/2017
