Source: USDA Branded Food Products Database Release December 2017 Software v.3.8.6.4 2017-10-02
Report Run at: December 18, 2017 10:26 EST
"Nutrient data for: 45003877, PCC, CRYSTALLIZED GINGER, UPC: 744335610267"
Food Group:  Branded Food Products Database
Common Name:

Nutrient,Unit,Data points,Std. Error,"2.0 ONZ = 57.0g",1Value per 100 g,
Proximates
"Energy",kcal,--,--,202,354
"Protein",g,--,--,0.00,0.00
"Total lipid (fat)",g,--,--,2.00,3.51
"Carbohydrate, by difference",g,--,--,51.00,89.47
"Fiber, total dietary",g,--,--,2.0,3.5
"Sugars, total",g,--,--,40.00,70.18
Minerals
"Calcium, Ca",mg,--,--,40,70
"Iron, Fe",mg,--,--,0.63,1.11
"Sodium, Na",mg,--,--,22,39
Vitamins
"Vitamin C, total ascorbic acid",mg,--,--,1.0,1.8
"Vitamin A, IU",IU,--,--,88,154
Lipids
"Fatty acids, total saturated",g,--,--,0.000,0.000
"Fatty acids, total trans",g,--,--,0.000,0.000
"Cholesterol",mg,--,--,0,0
Amino Acids
Other
Ingredients
"GINGER ROOT, SUGAR, CITRIC ACID." Date available: 06/25/2017 Date last updated by company: 06/25/2017
