Source: USDA Branded Food Products Database Release December 2017 Software v.3.8.6.4 2017-10-02
Report Run at: December 18, 2017 10:26 EST
"Nutrient data for: 45018443, PCC, EXTRA LARGE PRUNES, BROOKS VARIETY, UPC: 744335610045"
Food Group:  Branded Food Products Database
Common Name:

Nutrient,Unit,Data points,Std. Error,"2.0 ONZ = 57.0g",1Value per 100 g,
Proximates
"Energy",kcal,--,--,150,263
"Protein",g,--,--,1.00,1.75
"Total lipid (fat)",g,--,--,0.00,0.00
"Carbohydrate, by difference",g,--,--,35.00,61.40
"Fiber, total dietary",g,--,--,4.0,7.0
"Sugars, total",g,--,--,18.00,31.58
Minerals
"Calcium, Ca",mg,--,--,0,0
"Iron, Fe",mg,--,--,0.76,1.33
"Sodium, Na",mg,--,--,4,7
Vitamins
"Vitamin C, total ascorbic acid",mg,--,--,0.0,0.0
"Vitamin A, IU",IU,--,--,280,492
Lipids
"Fatty acids, total saturated",g,--,--,0.000,0.000
"Fatty acids, total trans",g,--,--,0.000,0.000
"Cholesterol",mg,--,--,0,0
Amino Acids
Other
Ingredients
"PRUNES." Date available: 07/14/2017 Date last updated by company: 07/14/2017
