Source: USDA Branded Food Products Database Release December 2017 Software v.3.8.6.4 2017-10-02
Report Run at: December 18, 2017 10:30 EST
"Nutrient data for: 45113267, PEACH COBBLER MINI DONUTS, UPC: 025600085387"
Food Group:  Branded Food Products Database
Common Name:

Nutrient,Unit,Data points,Std. Error,"4.0 DONUTS = 62.0g",1Value per 100 g,
Proximates
"Energy",kcal,--,--,230,371
"Protein",g,--,--,3.00,4.84
"Total lipid (fat)",g,--,--,7.00,11.29
"Carbohydrate, by difference",g,--,--,41.00,66.13
"Fiber, total dietary",g,--,--,1.0,1.6
"Sugars, total",g,--,--,25.00,40.32
Minerals
"Calcium, Ca",mg,--,--,20,32
"Iron, Fe",mg,--,--,0.95,1.54
"Sodium, Na",mg,--,--,220,355
Vitamins
"Vitamin C, total ascorbic acid",mg,--,--,0.0,0.0
"Vitamin A, IU",IU,--,--,0,0
Lipids
"Fatty acids, total saturated",g,--,--,3.503,5.650
"Fatty acids, total monounsaturated",g,--,--,2.003,3.230
"Fatty acids, total polyunsaturated",g,--,--,0.998,1.610
"Fatty acids, total trans",g,--,--,0.000,0.000
"Cholesterol",mg,--,--,0,0
Amino Acids
Other
Ingredients
"SUGAR, UNBLEACHED ENRICHED FLOUR (WHEAT FLOUR, NIACIN, REDUCED IRON, THIAMIN MONONITRATE, RIBOFLAVIN, FOLIC ACID), WATER, VEGETABLE OIL (PALM OIL AND SOYBEAN OIL), CONTAINS 2% OR LESS OF EACH OF THE FOLLOWING: SOY FLOUR, LEAVENING (SODIUM BICARBONATE, SODIUM ACID PYROPHOSPHATE, SODIUM ALUMINUM PHOSPHATE, MONOCALCIUM PHOSPHATE), NONFAT MILK SOLIDS, GLYCERINE, BLEACHED WHEAT FLOUR, SALT, CORN SYRUP SOLIDS, WHEAT FLOUR, DEXTROSE, WHEAT STARCH, SOY LECITHIN, SUCROSE, DISTILLED MONOGLYCERIDES, NATURAL AND ARTIFICIAL FLAVOR, ENZYMES, WHEY (MILK) PROTEIN, CALCIUM CARBONATE, GUAR GUM, XANTHAN GUM, SODIUM STEAROYL LACTYLATE, MODIFIED CORN STARCH, PROPYLENE GLYCOL MONOESTER, EGG YOLKS, AGAR, TAPIOCA DEXTRIN, TITANIUM DIOXIDE (COLOR), CORN DEXTRIN, KARAYA GUM, MONOGLYCERIDES, COLORED WITH TURMERIC AND ANNATTO, CARAMEL COLOR, PRESERVED WITH POTASSIUM SORBATE, SODIUM PROPIONATE AND SORBIC ACID, TOPPING (ENRICHED FLOUR [WHEAT FLOUR, NIACIN, REDUCED IRON, THIAMINE MONONITRATE, RIBOFLAVIN, FOLIC ACID], SUGAR, WHEAT FLOUR, CANOLA OIL, WHOLE WHEAT FLOUR, SALT, SOYBEAN OIL, CARAMEL COLOR, ANNATTO AND PAPRIKA EXTRACTS [COLOR], HONEY POWDER [MALTODEXTRIN, HONEY], BAKING SODA, YEAST, YELLOW CORN FLOUR)." Date available: 07/14/2017 Date last updated by company: 07/14/2017
