Source: USDA Branded Food Products Database Release December 2017 Software v.3.8.6.4 2017-10-02
Report Run at: December 18, 2017 10:34 EST
"Nutrient data for: 45285365, PEACH PRESERVES, UPC: 042187398938"
Food Group:  Branded Food Products Database
Common Name:

Nutrient,Unit,Data points,Std. Error,"1 Tbsp = 20.0g",1Value per 100 g,
Proximates
"Energy",kcal,--,--,50,250
"Protein",g,--,--,0.00,0.00
"Total lipid (fat)",g,--,--,0.00,0.00
"Carbohydrate, by difference",g,--,--,13.00,65.00
"Fiber, total dietary",g,--,--,0.0,0.0
"Sugars, total",g,--,--,9.00,45.00
Minerals
"Sodium, Na",mg,--,--,5,25
Vitamins
Lipids
"Fatty acids, total trans",g,--,--,0.000,0.000
Amino Acids
Other
Ingredients
"PEACHES, CORN SYRUP, SUGAR, HIGH FRUCTOSE CORN SYRUP, PECTIN, AND CITRIC ACID." Date available: 07/14/2017 Date last updated by company: 07/14/2017
