Source: USDA Branded Food Products Database Release December 2017 Software v.3.8.6.4 2017-10-02
Report Run at: December 18, 2017 10:29 EST
"Nutrient data for: 45016514, PEACE CEREAL, ORGANIC CLUSTERS & FLAKES, BAOBAB COCONUT, UPC: 075070107010"
Food Group:  Branded Food Products Database
Common Name:

Nutrient,Unit,Data points,Std. Error,"0.666 cup = 55.0g",1Value per 100 g,
Proximates
"Energy",kcal,--,--,220,400
"Protein",g,--,--,5.00,9.09
"Total lipid (fat)",g,--,--,3.50,6.36
"Carbohydrate, by difference",g,--,--,43.00,78.18
"Fiber, total dietary",g,--,--,4.0,7.3
"Sugars, total",g,--,--,9.00,16.36
Minerals
"Calcium, Ca",mg,--,--,20,36
"Iron, Fe",mg,--,--,1.44,2.62
"Sodium, Na",mg,--,--,110,200
Vitamins
"Vitamin C, total ascorbic acid",mg,--,--,0.0,0.0
"Vitamin A, IU",IU,--,--,0,0
Lipids
"Fatty acids, total saturated",g,--,--,1.001,1.820
"Fatty acids, total trans",g,--,--,0.000,0.000
"Cholesterol",mg,--,--,0,0
Amino Acids
Other
Ingredients
"ORGANIC RICE FLOUR, ORGANIC WHOLE WHEAT FLOUR, ORGANIC WHOLE ROLLED OATS, ORGANIC MILLED CANE SUGAR, ORGANIC WHEAT BRAN, ORGANIC BARLEY MALT SYRUP, ORGANIC VEGETABLE OIL (ORGANIC CANOLA AND/OR ORGANIC SAFFLOWER AND/OR ORGANIC SAFFLOWER AND OR ORGANIC SUNFLOWER OIL), ORGANIC HONEY, SALT, NATURAL FLAVOR, ORGANIC BAOBAB FRUIT POWDER, ORGANIC ALMONDS, MIXED TOCOPHEROLS (NATURAL VITAMIN E TO MAINTAIN FRESHNESS)" Date available: 07/14/2017 Date last updated by company: 07/14/2017
