Source: USDA Branded Food Products Database Release December 2017 Software v.3.8.6.4 2017-10-02
Report Run at: December 18, 2017 10:29 EST
"Nutrient data for: 45136943, PEACE TEA, PINK LEMONADE ICE TEA, LEMONADE, UPC: 070847015642"
Food Group:  Branded Food Products Database
Common Name:

Nutrient,Unit,Data points,Std. Error,"8.0 OZA = 240.0g",1Value per 100 g,
Proximates
"Energy",kcal,--,--,50,21
"Protein",g,--,--,0.00,0.00
"Total lipid (fat)",g,--,--,0.00,0.00
"Carbohydrate, by difference",g,--,--,12.00,5.00
"Sugars, total",g,--,--,12.00,5.00
Minerals
"Sodium, Na",mg,--,--,19,8
Vitamins
Lipids
Amino Acids
Other
Ingredients
"BREWED NATURAL BLACK & GREEN TEA (FILTERED WATER, BLACK & GREEN TEA, SUGAR, APPLE JUICE CONCENTRATE, LEMON JUICE CONCENTRATE, CITRIC ACID, SODIUM CITRATE, NATURAL FLAVOR, GRAPE JUICE CONCENTRATE (COLOR), SUCRALOSE." Date available: 07/14/2017 Date last updated by company: 07/14/2017
