Source: USDA Branded Food Products Database Release December 2017 Software v.3.8.6.4 2017-10-02
Report Run at: December 18, 2017 10:43 EST
"Nutrient data for: 45049976, PEANUT BUTTER FILLED CHEESE PRETZEL PILLOWS, UPC: 072036707383"
Food Group:  Branded Food Products Database
Common Name:

Nutrient,Unit,Data points,Std. Error,"10.0 PRETZELS = 30.0g",1Value per 100 g,
Proximates
"Energy",kcal,--,--,150,500
"Protein",g,--,--,5.00,16.67
"Total lipid (fat)",g,--,--,8.00,26.67
"Carbohydrate, by difference",g,--,--,15.00,50.00
"Fiber, total dietary",g,--,--,2.0,6.7
"Sugars, total",g,--,--,2.00,6.67
Minerals
"Iron, Fe",mg,--,--,1.20,4.00
"Sodium, Na",mg,--,--,350,1167
Vitamins
Lipids
"Fatty acids, total saturated",g,--,--,2.001,6.670
"Cholesterol",mg,--,--,5,17
Amino Acids
Other
Ingredients
"ENRICHED WHEAT FLOUR (WHEAT FLOUR, NIACIN, REDUCED IRON, THIAMIN MONONITRATE, RIBOFLAVIN, FOLIC ACID), PEANUT BUTTER (PEANUTS, SUGAR, MONO- AND DIGLYCERIDES, SALT), CHEDDAR CHEESE (MILK, CHEESE CULTURES, SALT, ENZYMES), SALT, LESS THAN 2% OF: CANOLA OIL AND/OR SOYBEAN OIL, OAT FIBER, CREAM, SODIUM PHOSPHATE, ANNATTO (COLOR), LACTIC ACID, OLEORESIN OF PAPRIKA, LEAVENING (CONTAINS ONE OR MORE OF: YEAST, SODIUM BICARBONATE, AMMONIUM BICARBONATE), L-CYSTEINE." Date available: 10/13/2017 Date last updated by company: 10/13/2017
