Source: USDA Branded Food Products Database Release December 2017 Software v.3.8.6.4 2017-10-02
Report Run at: December 18, 2017 10:46 EST
"Nutrient data for: 45184413, PEANUT BUTTER S' MORES ICE CREAM, UPC: 075767320838"
Food Group:  Branded Food Products Database
Common Name:

Nutrient,Unit,Data points,Std. Error,"0.5 cup = 76.0g",1Value per 100 g,
Proximates
"Energy",kcal,--,--,220,289
"Protein",g,--,--,3.00,3.95
"Total lipid (fat)",g,--,--,11.00,14.47
"Carbohydrate, by difference",g,--,--,28.00,36.84
"Fiber, total dietary",g,--,--,1.0,1.3
"Sugars, total",g,--,--,19.00,25.00
Minerals
"Calcium, Ca",mg,--,--,60,79
"Iron, Fe",mg,--,--,0.00,0.00
"Sodium, Na",mg,--,--,90,118
Vitamins
"Vitamin C, total ascorbic acid",mg,--,--,0.0,0.0
"Vitamin A, IU",IU,--,--,225,296
Lipids
"Fatty acids, total saturated",g,--,--,5.001,6.580
"Fatty acids, total trans",g,--,--,0.000,0.000
"Cholesterol",mg,--,--,15,20
Amino Acids
Other
Ingredients
"MILK, MARSHMALLOW BASE (CORN SYRUP, WATER, SUGAR, GUM ARABIC, NATURAL FLAVORS, CITRIC ACID), CREAM, CORN SYRUP, LIQUID SUGAR, GRAHAM CRACKER SWIRLS [GRAHAM CRACKER (UNBLEACHED UNENRICHED WHEAT FLOUR, WHOLE WHEAT/GRAHAM FLOUR, SUGAR, PALM OIL, PALM KERNEL OIL, MOLASSES, HONEY, SALT, SODIUM BICARBONATE), SOYBEAN OIL, POWDERED SUGAR (SUGAR, CORNSTARCH), SALT, SOY LECITHIN], PEANUT BUTTER SWIRLS (PEANUTS, PEANUT OIL, DEXTROSE, SALT, MONO- AND DIGLYCERIDES), SKIM MILK, BUTTERMILK, FUDGE CHUNKS [SUGAR, COCONUT OIL, COCOA (PROCESSED WITH ALKALI), COCOA, MILKFAT, SOY LECITHIN, NATURAL FLAVORS, VANILLA EXTRACT, MILK], MILKFAT, WHEY, NATURAL FLAVOR, EGG YOLKS, MONO- AND DIGLYCERIDES, CELLULOSE GUM, GUAR GUM, CARRAGEENAN, DEXTROSE." Date available: 07/14/2017 Date last updated by company: 07/14/2017
