Source: USDA Branded Food Products Database Release December 2017 Software v.3.8.6.4 2017-10-02
Report Run at: December 18, 2017 10:53 EST
"Nutrient data for: 45192544, PEANUT POWDER WITH CACAAO, UPC: 793190915062"
Food Group:  Branded Food Products Database
Common Name:

Nutrient,Unit,Data points,Std. Error,"2.0 Tbsp = 14.0g",1Value per 100 g,
Proximates
"Energy",kcal,--,--,50,357
"Total lipid (fat)",g,--,--,1.50,10.71
"Fiber, total dietary",g,--,--,2.0,14.3
"Sugars, total",g,--,--,6.00,42.86
Minerals
"Calcium, Ca",mg,--,--,10,71
"Iron, Fe",mg,--,--,3.86,27.55
"Sodium, Na",mg,--,--,70,500
Vitamins
"Vitamin C, total ascorbic acid",mg,--,--,0.0,0.0
"Vitamin A, IU",IU,--,--,0,0
Lipids
"Fatty acids, total saturated",g,--,--,0.500,3.570
"Cholesterol",mg,--,--,0,0
Amino Acids
Other
Ingredients
"ORGANIC CACAO (THEOBROMA CACAO), ORGANIC CANE SUGAR, ROASTED PEANUTS, AND HIMALAYAN PINK SEA SALT" Date available: 07/14/2017 Date last updated by company: 07/14/2017
