Source: USDA Branded Food Products Database Release December 2017 Software v.3.8.6.4 2017-10-02
Report Run at: December 18, 2017 10:49 EST
"Nutrient data for: 45055488, PEANUT CARAMEL BAR, UPC: 053035358905"
Food Group:  Branded Food Products Database
Common Name:

Nutrient,Unit,Data points,Std. Error,"1 BAR = 50.0g",1Value per 100 g,
Proximates
"Energy",kcal,--,--,250,500
"Protein",g,--,--,5.00,10.00
"Total lipid (fat)",g,--,--,14.00,28.00
"Carbohydrate, by difference",g,--,--,27.00,54.00
"Fiber, total dietary",g,--,--,1.0,2.0
"Sugars, total",g,--,--,21.00,42.00
Minerals
"Calcium, Ca",mg,--,--,40,80
"Iron, Fe",mg,--,--,0.00,0.00
"Sodium, Na",mg,--,--,150,300
Vitamins
"Vitamin C, total ascorbic acid",mg,--,--,0.0,0.0
"Vitamin A, IU",IU,--,--,0,0
Lipids
"Fatty acids, total saturated",g,--,--,6.000,12.000
"Fatty acids, total trans",g,--,--,0.000,0.000
"Cholesterol",mg,--,--,10,20
Amino Acids
Other
Ingredients
"SUGAR, PEANUTS, GLUCOSE SYRUP, COCOA BUTTER, MILK, CONDENSED SKIM MILK, PALM FAT, COCOA LIQUOR, SORBITOL SYRUP, BARLEY MALT EXTRACT, LACTOSE, SALT, SWEET WHEY POWDER, CREAM, CARAMELIZED SUGAR SYRUP, SOY LECITHIN, EGG WHITE, NATURAL FLAVORING, MILK PROTEIN, MEDIUM FAT COCOA." Date available: 06/24/2017 Date last updated by company: 06/24/2017
