Source: USDA Branded Food Products Database Release December 2017 Software v.3.8.6.4 2017-10-02
Report Run at: December 18, 2017 10:51 EST
"Nutrient data for: 45316646, PEANUT CASHEW SUPER BUTTER WITH HONEY, CHIA & FLAX!, UPC: 855387006332"
Food Group:  Branded Food Products Database
Common Name:

Nutrient,Unit,Data points,Std. Error,"1 PACK = 32.0g",1Value per 100 g,
Proximates
"Energy",kcal,--,--,190,594
"Protein",g,--,--,7.00,21.88
"Total lipid (fat)",g,--,--,15.00,46.88
"Carbohydrate, by difference",g,--,--,9.00,28.12
"Fiber, total dietary",g,--,--,2.0,6.2
"Sugars, total",g,--,--,3.00,9.38
Minerals
"Calcium, Ca",mg,--,--,20,62
"Iron, Fe",mg,--,--,1.69,5.28
"Sodium, Na",mg,--,--,75,234
Vitamins
"Vitamin C, total ascorbic acid",mg,--,--,0.0,0.0
"Vitamin A, IU",IU,--,--,0,0
Lipids
"Fatty acids, total saturated",g,--,--,2.000,6.250
"Fatty acids, total trans",g,--,--,0.000,0.000
"Cholesterol",mg,--,--,0,0
Amino Acids
Other
Ingredients
"ROASTED PEANUTS, ROASTED CASHEWS, PEANUT OIL, ORGANIC CLOVER HONEY, FLAX SEEDS, CHIA SEEDS, SEA SALT." Date available: 07/14/2017 Date last updated by company: 07/14/2017
