Source: USDA Branded Food Products Database Release December 2017 Software v.3.8.6.4 2017-10-02
Report Run at: December 18, 2017 10:37 EST
"Nutrient data for: 45274720, PEANUT BANANA SORBET WITH FLUDGE, UPC: 850977005054"
Food Group:  Branded Food Products Database
Common Name:

Nutrient,Unit,Data points,Std. Error,"0.5 cup = 90.0g",1Value per 100 g,
Proximates
"Energy",kcal,--,--,190,211
"Protein",g,--,--,3.00,3.33
"Total lipid (fat)",g,--,--,8.00,8.89
"Carbohydrate, by difference",g,--,--,27.00,30.00
"Fiber, total dietary",g,--,--,1.0,1.1
"Sugars, total",g,--,--,21.00,23.33
Minerals
"Calcium, Ca",mg,--,--,0,0
"Iron, Fe",mg,--,--,0.81,0.90
"Potassium, K",mg,--,--,85,94
"Sodium, Na",mg,--,--,135,150
Vitamins
"Vitamin C, total ascorbic acid",mg,--,--,10.1,11.2
"Vitamin A, IU",IU,--,--,0,0
Lipids
"Fatty acids, total saturated",g,--,--,0.999,1.110
"Fatty acids, total trans",g,--,--,0.000,0.000
"Cholesterol",mg,--,--,0,0
Amino Acids
Other
Ingredients
"WATER, CANE SUGAR, VALENCIA PEANUT (NUT BUTTER, PIECES), TAPIOCA SYRUP, TAPIOCA MALTODEXTRIN, HIGH OLEIC SAFFLOWER OIL, BANANAS, COCOA, SEA SALT, GUAR GUM, SUNFLOWER LECITHIN, XANTHAN GUM, PEANUT AND/OR SAFFLOWER OIL, VANILLA EXTRACT, PECTIN, ASCORBIC ACID, CITRIC ACID, NATURAL FLAVOR." Date available: 07/14/2017 Date last updated by company: 07/14/2017
