Source: USDA Branded Food Products Database Release December 2017 Software v.3.8.6.4 2017-10-02
Report Run at: December 18, 2017 10:53 EST
"Nutrient data for: 45179961, PEANUT OIL, UPC: 830811001916"
Food Group:  Branded Food Products Database
Common Name:

Nutrient,Unit,Data points,Std. Error,"1 Tbsp = 14.0g",1Value per 100 g,
Proximates
"Energy",kcal,--,--,120,857
"Protein",g,--,--,0.00,0.00
"Total lipid (fat)",g,--,--,14.00,100.00
"Carbohydrate, by difference",g,--,--,0.00,0.00
Minerals
"Sodium, Na",mg,--,--,0,0
Vitamins
Lipids
"Fatty acids, total saturated",g,--,--,2.500,17.860
"Fatty acids, total monounsaturated",g,--,--,7.000,50.000
"Fatty acids, total polyunsaturated",g,--,--,4.500,32.140
"Fatty acids, total trans",g,--,--,0.000,0.000
"Cholesterol",mg,--,--,0,0
Amino Acids
Other
Ingredients
"PEANUT OIL" Date available: 10/12/2016 Date last updated by company: 10/12/2016
