Source: USDA Branded Food Products Database Release December 2017 Software v.3.8.6.4 2017-10-02
Report Run at: December 18, 2017 10:44 EST
"Nutrient data for: 45284765, PEANUT BUTTER HANDMADE COOKIES, UPC: 701990000352"
Food Group:  Branded Food Products Database
Common Name:

Nutrient,Unit,Data points,Std. Error,"1 COOKIE = 80.0g",1Value per 100 g,
Proximates
"Energy",kcal,--,--,380,475
"Protein",g,--,--,8.00,10.00
"Total lipid (fat)",g,--,--,23.00,28.75
"Carbohydrate, by difference",g,--,--,37.00,46.25
"Fiber, total dietary",g,--,--,2.0,2.5
"Sugars, total",g,--,--,23.00,28.75
Minerals
"Calcium, Ca",mg,--,--,30,38
"Iron, Fe",mg,--,--,0.90,1.12
"Sodium, Na",mg,--,--,300,375
Vitamins
"Vitamin C, total ascorbic acid",mg,--,--,0.0,0.0
"Vitamin A, IU",IU,--,--,250,312
Lipids
"Fatty acids, total saturated",g,--,--,8.000,10.000
"Fatty acids, total trans",g,--,--,0.000,0.000
"Cholesterol",mg,--,--,46,58
Amino Acids
Other
Ingredients
"PEANUT BUTTER, UNBLEACHED UNBROMATED FLOUR, BUTTER (CREAM, SALT), WHITE SUGAR, BROWN SUGAR, EGGS, VANILLA, BAKING SODA, SALT." Date available: 07/14/2017 Date last updated by company: 07/14/2017
