Source: USDA Branded Food Products Database Release December 2017 Software v.3.8.6.4 2017-10-02
Report Run at: December 18, 2017 10:48 EST
"Nutrient data for: 45191299, PEANUT BUTTER, UPC: 072488982024"
Food Group:  Branded Food Products Database
Common Name:

Nutrient,Unit,Data points,Std. Error,"2.0 Tbsp = 36.0g",1Value per 100 g,
Proximates
"Energy",kcal,--,--,210,583
"Protein",g,--,--,9.00,25.00
"Total lipid (fat)",g,--,--,18.00,50.00
"Carbohydrate, by difference",g,--,--,8.00,22.22
"Fiber, total dietary",g,--,--,3.0,8.3
"Sugars, total",g,--,--,2.00,5.56
Minerals
"Calcium, Ca",mg,--,--,20,56
"Iron, Fe",mg,--,--,1.00,2.78
"Sodium, Na",mg,--,--,0,0
Vitamins
"Vitamin C, total ascorbic acid",mg,--,--,0.0,0.0
"Vitamin A, IU",IU,--,--,0,0
Lipids
"Fatty acids, total saturated",g,--,--,2.498,6.940
"Fatty acids, total trans",g,--,--,0.000,0.000
"Cholesterol",mg,--,--,0,0
Amino Acids
Other
Ingredients
"PEANUTS." Date available: 07/14/2017 Date last updated by company: 07/14/2017
