Source: USDA Branded Food Products Database Release December 2017 Software v.3.8.6.4 2017-10-02
Report Run at: December 18, 2017 10:49 EST
"Nutrient data for: 45214926, PEANUT BUTTER, UPC: 072700021104"
Food Group:  Branded Food Products Database
Common Name:

Nutrient,Unit,Data points,Std. Error,"2.0 Tbsp = 32.0g",1Value per 100 g,
Proximates
"Energy",kcal,--,--,190,594
"Protein",g,--,--,9.00,28.12
"Total lipid (fat)",g,--,--,15.00,46.88
"Carbohydrate, by difference",g,--,--,6.00,18.75
"Fiber, total dietary",g,--,--,2.0,6.2
"Sugars, total",g,--,--,4.00,12.50
Minerals
"Calcium, Ca",mg,--,--,0,0
"Iron, Fe",mg,--,--,1.13,3.52
"Sodium, Na",mg,--,--,0,0
Vitamins
"Vitamin C, total ascorbic acid",mg,--,--,0.0,0.0
"Vitamin A, IU",IU,--,--,0,0
Lipids
"Fatty acids, total saturated",g,--,--,2.000,6.250
"Fatty acids, total trans",g,--,--,0.000,0.000
"Cholesterol",mg,--,--,0,0
Amino Acids
Other
Ingredients
"PEANUTS AND SUGAR." Date available: 07/14/2017 Date last updated by company: 07/14/2017
