Source: USDA Branded Food Products Database Release December 2017 Software v.3.8.6.4 2017-10-02
Report Run at: December 18, 2017 10:50 EST
"Nutrient data for: 45318690, PEANUT CARAMEL BAR, UPC: 010700807229"
Food Group:  Branded Food Products Database
Common Name:

Nutrient,Unit,Data points,Std. Error,"1 BAR = 52.0g",1Value per 100 g,
Proximates
"Energy",kcal,--,--,240,462
"Protein",g,--,--,7.00,13.46
"Total lipid (fat)",g,--,--,13.00,25.00
"Carbohydrate, by difference",g,--,--,27.00,51.92
"Fiber, total dietary",g,--,--,2.0,3.8
"Sugars, total",g,--,--,21.00,40.38
Minerals
"Calcium, Ca",mg,--,--,51,98
"Iron, Fe",mg,--,--,1.00,1.92
"Sodium, Na",mg,--,--,120,231
Vitamins
"Vitamin C, total ascorbic acid",mg,--,--,0.0,0.0
"Vitamin A, IU",IU,--,--,0,0
"Vitamin D",IU,--,--,0,0
Lipids
"Fatty acids, total saturated",g,--,--,2.501,4.810
"Fatty acids, total trans",g,--,--,0.000,0.000
"Cholesterol",mg,--,--,0,0
Amino Acids
Other
Ingredients
"PEANUTS; SUGAR; CORN SYRUP; SKIM MILK; VEGETABLE OIL [PALM OIL; SUNFLOWER OIL]; CONTAINS 2% OR LESS OF: SALT; CARRAGEENAN; MONO- AND DIGLYCERIDES." Date available: 10/13/2017 Date last updated by company: 10/13/2017
