Source: USDA Branded Food Products Database Release December 2017 Software v.3.8.6.4 2017-10-02
Report Run at: December 18, 2017 10:55 EST
"Nutrient data for: 45054467, PEANUTS SEA SALT & PEPPER, UPC: 810111011211"
Food Group:  Branded Food Products Database
Common Name:

Nutrient,Unit,Data points,Std. Error,"1 CONTAINER = 28.0g",1Value per 100 g,
Proximates
"Energy",kcal,--,--,157,561
"Protein",g,--,--,7.00,25.00
"Total lipid (fat)",g,--,--,13.00,46.43
"Carbohydrate, by difference",g,--,--,6.00,21.43
"Fiber, total dietary",g,--,--,2.0,7.1
"Sugars, total",g,--,--,1.00,3.57
Minerals
"Calcium, Ca",mg,--,--,110,393
"Iron, Fe",mg,--,--,0.32,1.15
"Sodium, Na",mg,--,--,195,696
Vitamins
"Vitamin C, total ascorbic acid",mg,--,--,0.0,0.0
"Vitamin A, IU",IU,--,--,0,0
Lipids
"Fatty acids, total saturated",g,--,--,1.999,7.140
"Fatty acids, total trans",g,--,--,0.000,0.000
"Cholesterol",mg,--,--,0,0
Amino Acids
Other
Ingredients
"INGREDIENTS: OIL ROASTED PEANUTS, SEA SALT & PEPPER SEASONING (SEA SALT, MALTODEXTRIN, SPICE, DEXTROSE, DRIED GARLIC, DRIED ONION, SAFFLOWER OIL, AND LESS THAN 2% SILICON DIOXIDE (ANTI-CAKING AGENT) AND PEANUT OIL." Date available: 06/25/2017 Date last updated by company: 06/25/2017
