Source: USDA Branded Food Products Database Release December 2017 Software v.3.8.6.4 2017-10-02
Report Run at: December 18, 2017 11:01 EST
"Nutrient data for: 45167396, PEARL RIVER PASTRY COMPANY, CHEESECAKE, UPC: 044261494178"
Food Group:  Branded Food Products Database
Common Name:

Nutrient,Unit,Data points,Std. Error,"146.0 GRM = 146.0g",1Value per 100 g,
Proximates
"Energy",kcal,--,--,540,370
"Protein",g,--,--,10.99,7.53
"Total lipid (fat)",g,--,--,46.00,31.51
"Carbohydrate, by difference",g,--,--,29.00,19.86
"Fiber, total dietary",g,--,--,1.0,0.7
"Sugars, total",g,--,--,2.99,2.05
Minerals
"Calcium, Ca",mg,--,--,80,55
"Iron, Fe",mg,--,--,0.61,0.42
"Sodium, Na",mg,--,--,390,267
Vitamins
"Vitamin A, IU",IU,--,--,1283,879
Lipids
"Fatty acids, total saturated",g,--,--,28.003,19.180
"Fatty acids, total trans",g,--,--,2.000,1.370
"Cholesterol",mg,--,--,185,127
Amino Acids
Other
Ingredients
"CREAM CHEESE, MALTITOL, EGGS, LEMON JUICE, VANILLA, BUTTER, AND CRUMBS (FLOUR, MALTITOL, BUTTER, PALM AND PALM KERNEL OIL, EGGS, COCOA POWDER, CINNAMON, VANILLA, SALT, NUTMEG.)" Date available: 10/13/2017 Date last updated by company: 10/13/2017
