Source: USDA Branded Food Products Database Release December 2017 Software v.3.8.6.4 2017-10-02
Report Run at: December 18, 2017 11:04 EST
"Nutrient data for: 45257455, PEAR SLICES, UPC: 074027999104"
Food Group:  Branded Food Products Database
Common Name:

Nutrient,Unit,Data points,Std. Error,"140.0 GRM = 140.0g",1Value per 100 g,
Proximates
"Energy",kcal,--,--,105,75
"Protein",g,--,--,0.99,0.71
"Total lipid (fat)",g,--,--,0.00,0.00
"Carbohydrate, by difference",g,--,--,26.00,18.57
"Fiber, total dietary",g,--,--,1.0,0.7
"Sugars, total",g,--,--,17.00,12.14
Minerals
"Calcium, Ca",mg,--,--,0,0
"Iron, Fe",mg,--,--,0.00,0.00
"Sodium, Na",mg,--,--,0,0
Vitamins
"Vitamin C, total ascorbic acid",mg,--,--,0.0,0.0
"Vitamin A, IU",IU,--,--,0,0
Lipids
"Fatty acids, total saturated",g,--,--,0.000,0.000
"Fatty acids, total trans",g,--,--,0.000,0.000
"Cholesterol",mg,--,--,0,0
Amino Acids
Other
Ingredients
"PEARS, WATER, SUGAR, CORN SYRUP, CITRIC ACID, VC." Date available: 07/14/2017 Date last updated by company: 07/14/2017
