Source: USDA Branded Food Products Database Release December 2017 Software v.3.8.6.4 2017-10-02
Report Run at: December 18, 2017 11:04 EST
"Nutrient data for: 45152621, PEARSON'S, MINT PATTIES, UPC: 077290905308"
Food Group:  Branded Food Products Database
Common Name:

Nutrient,Unit,Data points,Std. Error,"10.0 PIECES = 40.0g",1Value per 100 g,
Proximates
"Energy",kcal,--,--,160,400
"Protein",g,--,--,1.00,2.50
"Total lipid (fat)",g,--,--,3.00,7.50
"Carbohydrate, by difference",g,--,--,33.00,82.50
"Fiber, total dietary",g,--,--,1.0,2.5
"Sugars, total",g,--,--,30.00,75.00
Minerals
"Calcium, Ca",mg,--,--,0,0
"Iron, Fe",mg,--,--,1.80,4.50
"Sodium, Na",mg,--,--,45,112
Vitamins
"Vitamin C, total ascorbic acid",mg,--,--,0.0,0.0
"Vitamin A, IU",IU,--,--,0,0
Lipids
"Fatty acids, total saturated",g,--,--,1.500,3.750
"Fatty acids, total trans",g,--,--,0.000,0.000
"Cholesterol",mg,--,--,0,0
Amino Acids
Other
Ingredients
"SUGAR, CORN SYRUP, CHOCOLATE (CHOCOLATE LIQUOR PROCESSED WITH ALKALI, SUGAR, COCOA BUTTER, CHOCOLATE LIQUOR, COCOA, MILK FAT, AND SOY LECITHIN ADDED AS AN EMULSIFIER) MODIFIED SOY PROTEIN, SALT, PEPPERMINT OIL, AND INVERTASE." Date available: 07/14/2017 Date last updated by company: 07/14/2017
