Source: USDA Branded Food Products Database Release December 2017 Software v.3.8.6.4 2017-10-02
Report Run at: December 18, 2017 11:05 EST
"Nutrient data for: 45222622, PEARSON'S, THE ORIGINAL SALTED NUT ROLL, UPC: 077290963117"
Food Group:  Branded Food Products Database
Common Name:

Nutrient,Unit,Data points,Std. Error,"3.0 BARS = 42.0g",1Value per 100 g,
Proximates
"Energy",kcal,--,--,200,476
"Protein",g,--,--,7.00,16.67
"Total lipid (fat)",g,--,--,10.00,23.81
"Carbohydrate, by difference",g,--,--,23.00,54.76
"Fiber, total dietary",g,--,--,1.0,2.4
"Sugars, total",g,--,--,17.00,40.48
Minerals
"Calcium, Ca",mg,--,--,20,48
"Iron, Fe",mg,--,--,0.43,1.02
"Sodium, Na",mg,--,--,140,333
Vitamins
"Vitamin C, total ascorbic acid",mg,--,--,0.0,0.0
"Vitamin A, IU",IU,--,--,0,0
Lipids
"Fatty acids, total saturated",g,--,--,1.999,4.760
"Fatty acids, total trans",g,--,--,0.000,0.000
"Cholesterol",mg,--,--,0,0
Amino Acids
Other
Ingredients
"PEANUTS, SUGAR, CORN SYRUP, PALM OIL, REDUCED LACTOSE WHEY (MILK), SALT, COCONUT OIL, NATURAL AND ARTIFICIAL VANILLA FLAVORING, SOY LECITHIN, MODIFIED SOY PROTEIN, INVERTASE, TBHQ AND CITRIC ACID ADDED TO HELP PROTECT FLAVOR." Date available: 07/14/2017 Date last updated by company: 07/14/2017
