Source: USDA Branded Food Products Database Release December 2017 Software v.3.8.6.4 2017-10-02
Report Run at: December 18, 2017 11:01 EST
"Nutrient data for: 45174120, PEARL RIVER PASTRY COMPANY, CHOCOLATE FUDGE FLOURLESS CAKE, UPC: 044261419010"
Food Group:  Branded Food Products Database
Common Name:

Nutrient,Unit,Data points,Std. Error,"3.0 ONZ = 85.0g",1Value per 100 g,
Proximates
"Energy",kcal,--,--,360,424
"Protein",g,--,--,5.00,5.88
"Total lipid (fat)",g,--,--,25.00,29.41
"Carbohydrate, by difference",g,--,--,32.00,37.65
"Fiber, total dietary",g,--,--,3.0,3.5
"Sugars, total",g,--,--,27.00,31.76
Minerals
"Calcium, Ca",mg,--,--,20,24
"Iron, Fe",mg,--,--,1.06,1.25
"Sodium, Na",mg,--,--,30,35
Vitamins
"Vitamin C, total ascorbic acid",mg,--,--,0.0,0.0
"Vitamin A, IU",IU,--,--,117,138
Lipids
"Fatty acids, total saturated",g,--,--,15.002,17.650
"Fatty acids, total trans",g,--,--,0.000,0.000
"Cholesterol",mg,--,--,150,176
Amino Acids
Other
Ingredients
"DARK CHOCOLATE (COCOA MASS, SUGAR, COCOA BUTTER, SOYA LECITHIN-AN EMULSIFIER, AND VANILLA), EGGS, SUGAR, BUTTER, COCOA POWDER, CORN STARCH." Date available: 08/10/2017 Date last updated by company: 08/10/2017
