Source: USDA Branded Food Products Database Release December 2017 Software v.3.8.6.4 2017-10-02
Report Run at: December 18, 2017 11:00 EST
"Nutrient data for: 45315646, PEARL BARLEY, UPC: 04656701272"
Food Group:  Branded Food Products Database
Common Name:

Nutrient,Unit,Data points,Std. Error,"0.25 cup = 50.0g",1Value per 100 g,
Proximates
"Energy",kcal,--,--,180,360
"Protein",g,--,--,5.00,10.00
"Total lipid (fat)",g,--,--,0.50,1.00
"Carbohydrate, by difference",g,--,--,39.00,78.00
"Fiber, total dietary",g,--,--,8.0,16.0
"Sugars, total",g,--,--,0.00,0.00
Minerals
"Calcium, Ca",mg,--,--,20,40
"Iron, Fe",mg,--,--,0.76,1.51
"Sodium, Na",mg,--,--,0,0
Vitamins
"Vitamin C, total ascorbic acid",mg,--,--,0.0,0.0
"Vitamin A, IU",IU,--,--,0,0
Lipids
"Fatty acids, total saturated",g,--,--,0.000,0.000
"Fatty acids, total trans",g,--,--,0.000,0.000
"Cholesterol",mg,--,--,0,0
Amino Acids
Other
Ingredients
"PEARL BARLEY." Date available: 08/22/2017 Date last updated by company: 08/22/2017
