Source: USDA Branded Food Products Database Release December 2017 Software v.3.8.6.4 2017-10-02
Report Run at: December 18, 2017 11:01 EST
"Nutrient data for: 45325475, PEARLED COUSCOUS MIX, UPC: 072251003536"
Food Group:  Branded Food Products Database
Common Name:

Nutrient,Unit,Data points,Std. Error,"0.5 CUP DRY COUSCOUS & 2 TBSP. SEASONING MIX | ABOUT = 56.0g",1Value per 100 g,
Proximates
"Energy",kcal,--,--,200,357
"Protein",g,--,--,8.00,14.29
"Total lipid (fat)",g,--,--,2.00,3.57
"Carbohydrate, by difference",g,--,--,40.00,71.43
"Fiber, total dietary",g,--,--,2.0,3.6
"Sugars, total",g,--,--,1.00,1.79
Minerals
"Calcium, Ca",mg,--,--,50,89
"Iron, Fe",mg,--,--,0.90,1.61
"Potassium, K",mg,--,--,110,196
"Sodium, Na",mg,--,--,470,839
Vitamins
"Vitamin C, total ascorbic acid",mg,--,--,0.0,0.0
"Vitamin A, IU",IU,--,--,0,0
Lipids
"Fatty acids, total saturated",g,--,--,0.498,0.890
"Fatty acids, total trans",g,--,--,0.000,0.000
"Cholesterol",mg,--,--,0,0
Amino Acids
Other
Ingredients
"COUSCOUS (WHEAT), GARLIC*, AUTOLYZED YEAST EXTRACT, PARMESAN CHEESE (MILK, CULTURES, SALT, ENZYMES), SALT, BASIL, ONIONS*, SUNFLOWER OIL, BUTTER (CREAM, SALT), CULTURED NONFAT MILK, OLIVE OIL, YEAST EXTRACT, PARSLEY*, ROMANO CHEESE (MILK, CULTURES, SALT, ENZYMES), NATURAL FLAVOR, SOY PROTEIN ISOLATE." Date available: 08/11/2017 Date last updated by company: 08/11/2017
