Source: USDA Branded Food Products Database Release December 2017 Software v.3.8.6.4 2017-10-02
Report Run at: December 18, 2017 11:02 EST
"Nutrient data for: 45088916, PEARLS PITTED KALAMATA GREEK OLIVES, UPC: 072999255037"
Food Group:  Branded Food Products Database
Common Name:

Nutrient,Unit,Data points,Std. Error,"4.0 OLIVES = 15.0g",1Value per 100 g,
Proximates
"Energy",kcal,--,--,45,300
"Protein",g,--,--,0.00,0.00
"Total lipid (fat)",g,--,--,4.50,30.00
"Carbohydrate, by difference",g,--,--,1.00,6.67
Minerals
"Sodium, Na",mg,--,--,210,1400
Vitamins
Lipids
"Fatty acids, total saturated",g,--,--,0.500,3.330
"Fatty acids, total trans",g,--,--,0.000,0.000
"Cholesterol",mg,--,--,0,0
Amino Acids
Other
Ingredients
"OLIVES, WATER, RED WINE VINEGAR, SALT." Date available: 07/14/2017 Date last updated by company: 07/14/2017
