Source: USDA Branded Food Products Database Release December 2017 Software v.3.8.6.4 2017-10-02
Report Run at: December 18, 2017 11:06 EST
"Nutrient data for: 45200155, PEAS AND CARROTS, UPC: 688267023866"
Food Group:  Branded Food Products Database
Common Name:

Nutrient,Unit,Data points,Std. Error,"0.5 cup = 128.0g",1Value per 100 g,
Proximates
"Energy",kcal,--,--,60,47
"Protein",g,--,--,3.00,2.34
"Total lipid (fat)",g,--,--,0.00,0.00
"Carbohydrate, by difference",g,--,--,13.00,10.16
"Fiber, total dietary",g,--,--,4.0,3.1
"Sugars, total",g,--,--,3.99,3.12
Minerals
"Calcium, Ca",mg,--,--,20,16
"Iron, Fe",mg,--,--,1.10,0.86
"Potassium, K",mg,--,--,200,156
"Sodium, Na",mg,--,--,300,234
Vitamins
"Vitamin C, total ascorbic acid",mg,--,--,6.1,4.8
"Vitamin A, IU",IU,--,--,4063,3174
Lipids
"Fatty acids, total saturated",g,--,--,0.000,0.000
"Fatty acids, total trans",g,--,--,0.000,0.000
"Cholesterol",mg,--,--,0,0
Amino Acids
Other
Ingredients
"VEGETABLES (PEAS AND CARROTS), WATER, SUGAR, SALT." Date available: 07/14/2017 Date last updated by company: 07/14/2017
