Source: USDA Branded Food Products Database Release December 2017 Software v.3.8.6.4 2017-10-02
Report Run at: December 18, 2017 11:07 EST
"Nutrient data for: 45290612, PEAS CHICHAROS, UPC: 850942004136"
Food Group:  Branded Food Products Database
Common Name:

Nutrient,Unit,Data points,Std. Error,"0.5 cup = 125.0g",1Value per 100 g,
Proximates
"Energy",kcal,--,--,60,48
"Protein",g,--,--,4.00,3.20
"Total lipid (fat)",g,--,--,0.50,0.40
"Carbohydrate, by difference",g,--,--,10.00,8.00
"Fiber, total dietary",g,--,--,3.0,2.4
"Sugars, total",g,--,--,5.00,4.00
Minerals
"Calcium, Ca",mg,--,--,20,16
"Iron, Fe",mg,--,--,1.50,1.20
"Sodium, Na",mg,--,--,15,12
Vitamins
"Vitamin C, total ascorbic acid",mg,--,--,12.5,10.0
"Vitamin A, IU",IU,--,--,312,250
Lipids
"Fatty acids, total saturated",g,--,--,0.000,0.000
"Fatty acids, total trans",g,--,--,0.000,0.000
"Cholesterol",mg,--,--,0,0
Amino Acids
Other
Ingredients
"GREEN PEAS, WATER." Date available: 07/14/2017 Date last updated by company: 07/14/2017
