Source: USDA Branded Food Products Database Release December 2017 Software v.3.8.6.4 2017-10-02
Report Run at: December 18, 2017 11:12 EST
"Nutrient data for: 45203923, PECAN PIE, UPC: 891796002893"
Food Group:  Branded Food Products Database
Common Name:

Nutrient,Unit,Data points,Std. Error,"1 SLICE = 64.0g",1Value per 100 g,
Proximates
"Energy",kcal,--,--,240,375
"Protein",g,--,--,3.00,4.69
"Total lipid (fat)",g,--,--,14.00,21.88
"Carbohydrate, by difference",g,--,--,23.00,35.94
"Fiber, total dietary",g,--,--,1.0,1.6
"Sugars, total",g,--,--,12.00,18.75
Minerals
"Calcium, Ca",mg,--,--,20,31
"Iron, Fe",mg,--,--,0.70,1.10
"Sodium, Na",mg,--,--,90,141
Vitamins
"Vitamin C, total ascorbic acid",mg,--,--,0.0,0.0
"Vitamin A, IU",IU,--,--,586,916
Lipids
"Fatty acids, total saturated",g,--,--,4.998,7.810
"Fatty acids, total trans",g,--,--,0.000,0.000
"Cholesterol",mg,--,--,90,141
Amino Acids
Other
Ingredients
"WHOLE EGGS, LIGHT CORN SYRUP, UNSALTED BUTTER, GRANULATED SUGAR, PECANS, WHITE RICE FLOUR, TAPIOCA FLOUR, BROWN RICE FLOUR, CORNSTARCH, VANILLA EXTRACT, SALT, AND CHIA POWDER" Date available: 07/14/2017 Date last updated by company: 07/14/2017
