Source: USDA Branded Food Products Database Release December 2017 Software v.3.8.6.4 2017-10-02
Report Run at: December 18, 2017 11:09 EST
"Nutrient data for: 45148543, PECAN DELIGHT SANTA IN MILK CHOCOLATE, UPC: 077260061218"
Food Group:  Branded Food Products Database
Common Name:

Nutrient,Unit,Data points,Std. Error,"1 BAR = 57.0g",1Value per 100 g,
Proximates
"Energy",kcal,--,--,300,526
"Protein",g,--,--,3.00,5.26
"Total lipid (fat)",g,--,--,18.00,31.58
"Carbohydrate, by difference",g,--,--,33.00,57.89
"Fiber, total dietary",g,--,--,1.0,1.8
"Sugars, total",g,--,--,26.00,45.61
Minerals
"Calcium, Ca",mg,--,--,60,105
"Iron, Fe",mg,--,--,0.63,1.11
"Sodium, Na",mg,--,--,80,140
Vitamins
"Vitamin C, total ascorbic acid",mg,--,--,1.0,1.8
"Vitamin A, IU",IU,--,--,88,154
Lipids
"Fatty acids, total saturated",g,--,--,7.000,12.280
"Fatty acids, total trans",g,--,--,0.000,0.000
"Cholesterol",mg,--,--,10,18
Amino Acids
Other
Ingredients
"INGREDIENTS CONSIST OF MILK CHOCOLATE (SUGAR, WHOLE MILK, COCOA BUTTER, CHOCOLATE, SOY LECITHIN (AN EMULSIFIER), VANILLIN (AN ARTIFICIAL FLAVOR)], PECANS, CORN SYRUP, DAIRY CREAM, SUGAR, CONDENSED MILK, PARTIALLY HYDROGENATED PALM KERNEL OIL, INVERT SUGAR, BROWN SUGAR, SALT, NATURAL FLAVORS, AND SOY LECITHIN (AN EMULSIFIER). 6121-101" Date available: 07/14/2017 Date last updated by company: 07/14/2017
