Source: USDA Branded Food Products Database Release December 2017 Software v.3.8.6.4 2017-10-02
Report Run at: December 18, 2017 11:09 EST
"Nutrient data for: 45206304, PECAN FETA SALAD, UPC: 880066456665"
Food Group:  Branded Food Products Database
Common Name:

Nutrient,Unit,Data points,Std. Error,"6.875 ONZ = 195.0g",1Value per 100 g,
Proximates
"Energy",kcal,--,--,530,272
"Protein",g,--,--,7.00,3.59
"Total lipid (fat)",g,--,--,50.00,25.64
"Carbohydrate, by difference",g,--,--,16.01,8.21
"Fiber, total dietary",g,--,--,4.1,2.1
"Sugars, total",g,--,--,11.00,5.64
Minerals
"Calcium, Ca",mg,--,--,201,103
"Iron, Fe",mg,--,--,0.78,0.40
"Sodium, Na",mg,--,--,339,174
Vitamins
"Vitamin C, total ascorbic acid",mg,--,--,3.5,1.8
"Vitamin A, IU",IU,--,--,72,37
Lipids
"Fatty acids, total saturated",g,--,--,7.000,3.590
"Fatty acids, total trans",g,--,--,0.000,0.000
"Cholesterol",mg,--,--,25,13
Amino Acids
Other
Ingredients
"SPRING MIX GREENS, BALSAMIC VINAIGRETTE (CANOLA OIL, BALSAMIC VINEGAR, HONEY, PARSLEY, GARLIC, XANTHAN GUM, ONION POWDER, SALT, BLACK PEPPER), RED ONION, FETA CHEESE (PASTEURIZED MILK, SALT, CHEESE CULTURE & ENZYMES), MAPLE GLAZED PECANS (PECANS, MAPLE SYRUP)." Date available: 07/14/2017 Date last updated by company: 07/14/2017
