Source: USDA Branded Food Products Database Release December 2017 Software v.3.8.6.4 2017-10-02
Report Run at: December 18, 2017 11:15 EST
"Nutrient data for: 45200550, PECCAN PIE DESSERT BARS, UPC: 717887121543"
Food Group:  Branded Food Products Database
Common Name:

Nutrient,Unit,Data points,Std. Error,"1 BAR = 41.0g",1Value per 100 g,
Proximates
"Energy",kcal,--,--,220,537
"Protein",g,--,--,2.00,4.88
"Total lipid (fat)",g,--,--,16.00,39.02
"Carbohydrate, by difference",g,--,--,21.00,51.22
"Fiber, total dietary",g,--,--,1.0,2.4
"Sugars, total",g,--,--,13.00,31.71
Minerals
"Calcium, Ca",mg,--,--,0,0
"Iron, Fe",mg,--,--,2.20,5.36
"Sodium, Na",mg,--,--,90,220
Vitamins
"Vitamin C, total ascorbic acid",mg,--,--,0.0,0.0
"Vitamin A, IU",IU,--,--,0,0
Lipids
"Fatty acids, total saturated",g,--,--,5.998,14.630
"Fatty acids, total trans",g,--,--,0.000,0.000
"Cholesterol",mg,--,--,10,24
Amino Acids
Other
Ingredients
"ENRICHED UNBLEACHED FLOUR (WHEAT FLOUR, ASCORBIC ACID [DOUGH CONDITIONER], NIACIN, REDUCED IRON, THIAMIN MONONITRATE, RIBOFLAVIN, FOLIC ACID), PECANS, SUGAR, CREAM (MILK), HONEY, MARGARINE (PALM OIL, WATER, SOYBEAN OIL, SALT, WHEY [MILK], MONO DIGLYCERIDES, SOY LECITHIN, NATURAL FLAVOR, BETA CAROTENE [COLOR], VITAMIN A PALMITATE ADDED), PALM OIL, BUTTER (MILK), POWERED SUGAR (SUGAR, CORNSTARCH), BROWN SUGAR, SEA SALT." Date available: 07/14/2017 Date last updated by company: 07/14/2017
