Source: USDA Branded Food Products Database Release December 2017 Software v.3.8.6.4 2017-10-02
Report Run at: December 18, 2017 11:19 EST
"Nutrient data for: 45028120, PEELED GREEN WHEAT, UPC: 742987122060"
Food Group:  Branded Food Products Database
Common Name:

Nutrient,Unit,Data points,Std. Error,"35.0 GRM = 35.0g",1Value per 100 g,
Proximates
"Protein",g,--,--,5.00,14.29
"Total lipid (fat)",g,--,--,0.50,1.43
"Carbohydrate, by difference",g,--,--,25.00,71.43
"Sugars, total",g,--,--,0.00,0.00
Minerals
"Calcium, Ca",mg,--,--,26,73
"Iron, Fe",mg,--,--,1.08,3.09
"Potassium, K",mg,--,--,130,371
"Sodium, Na",mg,--,--,0,0
Vitamins
"Vitamin C, total ascorbic acid",mg,--,--,0.0,0.0
"Vitamin A, IU",IU,--,--,0,0
Lipids
"Fatty acids, total saturated",g,--,--,0.000,0.000
"Cholesterol",mg,--,--,0,0
Amino Acids
Other
Ingredients
"PEELED GREEN WHEAT." Date available: 10/13/2017 Date last updated by company: 10/13/2017
