Source: USDA Branded Food Products Database Release December 2017 Software v.3.8.6.4 2017-10-02
Report Run at: December 18, 2017 11:22 EST
"Nutrient data for: 45248674, PEEPS, MARSHMALLOW GHOSTS, UPC: 070970541773"
Food Group:  Branded Food Products Database
Common Name:

Nutrient,Unit,Data points,Std. Error,"3.0 GHOSTS = 32.0g",1Value per 100 g,
Proximates
"Energy",kcal,--,--,110,344
"Protein",g,--,--,1.00,3.12
"Total lipid (fat)",g,--,--,0.00,0.00
"Carbohydrate, by difference",g,--,--,28.00,87.50
"Sugars, total",g,--,--,26.00,81.25
Minerals
"Sodium, Na",mg,--,--,10,31
Vitamins
Lipids
"Fatty acids, total saturated",g,--,--,0.000,0.000
"Fatty acids, total trans",g,--,--,0.000,0.000
Amino Acids
Other
Ingredients
"SUGAR, CORN SYRUP, GELATIN, CONTAINS LESS THAN 0.5% OF THE FOLLOWING INGREDIENTS: POTASSIUM SORBATE (A PRESERVATIVE), NATURAL FLAVORS, CARNAUBA WAX." Date available: 07/14/2017 Date last updated by company: 07/14/2017
