Source: USDA Branded Food Products Database Release December 2017 Software v.3.8.6.4 2017-10-02
Report Run at: December 18, 2017 11:20 EST
"Nutrient data for: 45164577, PEEPS, CHICKS, MARSHMALLOW, UPC: 070970000133"
Food Group:  Branded Food Products Database
Common Name:

Nutrient,Unit,Data points,Std. Error,"5.0 CHICKS = 42.0g",1Value per 100 g,
Proximates
"Energy",kcal,--,--,140,333
"Protein",g,--,--,1.00,2.38
"Total lipid (fat)",g,--,--,0.00,0.00
"Carbohydrate, by difference",g,--,--,36.00,85.71
"Sugars, total",g,--,--,34.00,80.95
Minerals
"Sodium, Na",mg,--,--,15,36
Vitamins
Lipids
"Fatty acids, total saturated",g,--,--,0.000,0.000
"Fatty acids, total trans",g,--,--,0.000,0.000
Amino Acids
Other
Ingredients
"SUGAR, CORN SYRUP, GELATIN, CONTAINS LESS THAN 0.5% OF THE FOLLOWING INGREDIENTS: YELLOW #5 (TARTRAZINE), POTASSIUM SORBATE (A PRESERVATIVE), NATURAL FLAVORS, CARNAUBA WAX" Date available: 07/14/2017 Date last updated by company: 07/14/2017
