Source: USDA Branded Food Products Database Release December 2017 Software v.3.8.6.4 2017-10-02
Report Run at: December 18, 2017 11:22 EST
"Nutrient data for: 45143673, PEEPS, MARSHMALLOW, SOUR WATERMELON, UPC: 070970546884"
Food Group:  Branded Food Products Database
Common Name:

Nutrient,Unit,Data points,Std. Error,"5.0 CHICKS = 42.0g",1Value per 100 g,
Proximates
"Energy",kcal,--,--,130,310
"Protein",g,--,--,1.00,2.38
"Total lipid (fat)",g,--,--,0.00,0.00
"Carbohydrate, by difference",g,--,--,31.00,73.81
"Fiber, total dietary",g,--,--,0.0,0.0
"Sugars, total",g,--,--,27.00,64.29
Minerals
"Calcium, Ca",mg,--,--,0,0
"Iron, Fe",mg,--,--,0.00,0.00
"Sodium, Na",mg,--,--,0,0
Vitamins
"Vitamin C, total ascorbic acid",mg,--,--,0.0,0.0
"Vitamin A, IU",IU,--,--,0,0
Lipids
"Fatty acids, total saturated",g,--,--,0.000,0.000
"Fatty acids, total trans",g,--,--,0.000,0.000
"Cholesterol",mg,--,--,0,0
Amino Acids
Other
Ingredients
"SUGAR, CORN SYRUP, GELATIN, FUMARIC ACID, CITRIC ACID, PECTIN, CONTAINS LESS THAN 0.5% OF THE FOLLOWING: NATURAL AND ARTIFICIAL FLAVOR, YELLOW #5 LAKE, RED #40, YELLOW #5 (TARTRAZINE), POTASSIUM SORBATE (A PRESERVATIVE), BLUE #1 LAKE, BLUE #1, CARNAUBA WAX." Date available: 07/14/2017 Date last updated by company: 07/14/2017
