Source: USDA Branded Food Products Database Release December 2017 Software v.3.8.6.4 2017-10-02
Report Run at: December 18, 2017 11:24 EST
"Nutrient data for: 45101250, PELOPONNESE, DOLMAS STUFFED GRAPE LEAVES WITH RAISINS & PINE NUTS, UPC: 037279080068"
Food Group:  Branded Food Products Database
Common Name:

Nutrient,Unit,Data points,Std. Error,"5.0 DOLMAS = 138.0g",1Value per 100 g,
Proximates
"Energy",kcal,--,--,179,130
"Protein",g,--,--,2.99,2.17
"Total lipid (fat)",g,--,--,8.00,5.80
"Carbohydrate, by difference",g,--,--,20.00,14.49
"Fiber, total dietary",g,--,--,1.0,0.7
"Sugars, total",g,--,--,2.99,2.17
Minerals
"Calcium, Ca",mg,--,--,59,43
"Iron, Fe",mg,--,--,1.79,1.30
"Sodium, Na",mg,--,--,650,471
Vitamins
"Vitamin C, total ascorbic acid",mg,--,--,0.0,0.0
"Vitamin A, IU",IU,--,--,1000,725
Lipids
"Fatty acids, total saturated",g,--,--,0.994,0.720
"Fatty acids, total trans",g,--,--,0.000,0.000
"Cholesterol",mg,--,--,0,0
Amino Acids
Other
Ingredients
"COOKED RICE, ONIONS, GRAPE LEAVES, WATER, VIRGIN OLIVE OIL, SPICES, PINE NUTS, RAISINS, SEA SALT, CITRIC ACID." Date available: 10/13/2017 Date last updated by company: 10/13/2017
