Source: USDA Branded Food Products Database Release December 2017 Software v.3.8.6.4 2017-10-02
Report Run at: December 18, 2017 11:30 EST
"Nutrient data for: 45078687, PENNY'S BLUE CHEESE DIP, UPC: 749404608053"
Food Group:  Branded Food Products Database
Common Name:

Nutrient,Unit,Data points,Std. Error,"30.0 GRM = 30.0g",1Value per 100 g,
Proximates
"Energy",kcal,--,--,150,500
"Protein",g,--,--,1.00,3.33
"Total lipid (fat)",g,--,--,16.00,53.33
"Carbohydrate, by difference",g,--,--,1.00,3.33
"Fiber, total dietary",g,--,--,0.0,0.0
"Sugars, total",g,--,--,1.00,3.33
Minerals
"Calcium, Ca",mg,--,--,20,67
"Iron, Fe",mg,--,--,3.00,10.00
"Sodium, Na",mg,--,--,180,600
Vitamins
"Vitamin C, total ascorbic acid",mg,--,--,0.0,0.0
"Vitamin A, IU",IU,--,--,0,0
Lipids
"Fatty acids, total saturated",g,--,--,1.500,5.000
"Fatty acids, total trans",g,--,--,0.000,0.000
"Cholesterol",mg,--,--,10,33
Amino Acids
Other
Ingredients
"SOYBEAN OR CANOLA OIL, WATER, BLUE CHEESE ([PASTEURIZED MILK, CHEESE CULTURES, SALT ENZYMES], CULTURED SKIM MILK, NATAMYCIN TO PROTECT FLAVOR), DRY WHEY, EGGS, WHITE VINEGAR, SALT, SUGAR, DEHYDRATED GARLIC, SPICES, XANTHAN GUM, CITRIC ACID, POTASSIUM SORBATE AND SODIUM BENZOATE (AS PRESERVATIVES), LEMON JUICE CONCENTRATE." Date available: 07/14/2017 Date last updated by company: 07/14/2017
