Source: USDA Branded Food Products Database Release December 2017 Software v.3.8.6.4 2017-10-02
Report Run at: December 18, 2017 11:25 EST
"Nutrient data for: 45199211, PENNE PASTA AND CANNELLINI BEANS, UPC: 079893104287"
Food Group:  Branded Food Products Database
Common Name:

Nutrient,Unit,Data points,Std. Error,"1 TRAY = 289.0g",1Value per 100 g,
Proximates
"Energy",kcal,--,--,419,145
"Protein",g,--,--,16.01,5.54
"Total lipid (fat)",g,--,--,18.00,6.23
"Carbohydrate, by difference",g,--,--,46.99,16.26
"Fiber, total dietary",g,--,--,4.9,1.7
"Sugars, total",g,--,--,1.99,0.69
Minerals
"Calcium, Ca",mg,--,--,251,87
"Iron, Fe",mg,--,--,1.82,0.63
"Sodium, Na",mg,--,--,650,225
Vitamins
"Vitamin C, total ascorbic acid",mg,--,--,0.0,0.0
"Vitamin A, IU",IU,--,--,202,70
Lipids
"Fatty acids, total saturated",g,--,--,8.005,2.770
"Fatty acids, total trans",g,--,--,0.000,0.000
"Cholesterol",mg,--,--,40,14
Amino Acids
Other
Ingredients
"COOKED PASTA (SEMOLINA WHEAT FLOUR, WATER), LEMON CREAM SAUCE (WATER, CREAM, PARMESAN CHEESE [PASTEURIZED MILK, CHEESE CULTURES, SEA SALT, ENZYMES], EXPELLER PRESSED CANOLA OIL, LEMON PEEL [LEMON PEEL, WATER, CITRIC ACID], CORN STARCH, CHICKEN BASE [CHICKEN BROTH, SEA SALT, CHICKEN FLAVOR, DRIED CANE CHICKEN FAT, VEGETABLES (CARROT, CELERY, ONION), SOY SAUCE (WATER, SOYBEANS, SALT), POTATO FLOUR, ONION POWDER, TURMERIC, SPICE, FLAVOR, EXPELLER PRESSED CANOLA OIL), SEA SALT, ORGANIC SOY LECITHIN, SPICES, XANTHAN GUM, LEMON JUICE CONCENTRATE), WHITE BEANS (CANNELLINI BEANS, WATER), ONION, KALE, GARLIC, EXTRA VIRGIN OLIVE OIL, SEA SALT, RED CHILE PEPPERS, SPICE." Date available: 07/14/2017 Date last updated by company: 07/14/2017
