Source: USDA Branded Food Products Database Release December 2017 Software v.3.8.6.4 2017-10-02
Report Run at: December 18, 2017 11:47 EST
"Nutrient data for: 45003803, PEPPERONI BITES, UPC: 037600151405"
Food Group:  Branded Food Products Database
Common Name:

Nutrient,Unit,Data points,Std. Error,"1 ONZ = 28.0g",1Value per 100 g,
Proximates
"Energy",kcal,--,--,140,500
"Protein",g,--,--,5.00,17.86
"Total lipid (fat)",g,--,--,13.00,46.43
"Carbohydrate, by difference",g,--,--,0.00,0.00
"Fiber, total dietary",g,--,--,0.0,0.0
"Sugars, total",g,--,--,0.00,0.00
Minerals
"Calcium, Ca",mg,--,--,0,0
"Iron, Fe",mg,--,--,0.71,2.53
"Sodium, Na",mg,--,--,490,1750
Vitamins
"Vitamin C, total ascorbic acid",mg,--,--,0.0,0.0
"Vitamin A, IU",IU,--,--,0,0
Lipids
"Fatty acids, total saturated",g,--,--,6.000,21.430
"Fatty acids, total trans",g,--,--,0.000,0.000
"Cholesterol",mg,--,--,35,125
Amino Acids
Other
Ingredients
"PORK, BEEF, SALT, CONTAINS 2% OR LESS OF WATER, DEXTROSE, SPICES, LACTIC ACID STARTER CULTURE, OLEORESIN OF PAPRIKA, GARLIC POWDER, SODIUM NITRATE, BHA, BHT, CITRIC ACID." Date available: 07/14/2017 Date last updated by company: 07/14/2017
