Source: USDA Branded Food Products Database Release December 2017 Software v.3.8.6.4 2017-10-02
Report Run at: December 18, 2017 11:40 EST
"Nutrient data for: 45157916, PEPPERMINT BARK, UPC: 111509403442"
Food Group:  Branded Food Products Database
Common Name:

Nutrient,Unit,Data points,Std. Error,"3.0 """" X 3"""" PIECE = 40.0g",1Value per 100 g,
Proximates
"Energy",kcal,--,--,200,500
"Protein",g,--,--,1.00,2.50
"Total lipid (fat)",g,--,--,10.00,25.00
"Carbohydrate, by difference",g,--,--,25.00,62.50
"Fiber, total dietary",g,--,--,1.0,2.5
"Sugars, total",g,--,--,26.00,65.00
Minerals
"Calcium, Ca",mg,--,--,20,50
"Iron, Fe",mg,--,--,0.90,2.25
"Sodium, Na",mg,--,--,15,38
Vitamins
"Vitamin C, total ascorbic acid",mg,--,--,0.0,0.0
"Vitamin A, IU",IU,--,--,0,0
Lipids
"Fatty acids, total saturated",g,--,--,9.000,22.500
"Fatty acids, total trans",g,--,--,0.000,0.000
"Cholesterol",mg,--,--,0,0
Amino Acids
Other
Ingredients
"WHITE COATING (SUGAR, VEGETABLE OIL [PALM KERNEL AND HYDROGENATED PALM], WHEY POWDER [MILK], NONFAT DRY MILK, SORBITAN MONOSTEARATE, POLYSORBATE 60, SOY LECITHIN [EMULSIFIER], VANILLIN [ARTIFICIAL FLAVORING]), CONFECTIONERY COATING (SUGAR, VEGETABLE OIL [PALM KERNEL AND HYDROGENATED PALM], COCOA POWDER [MAY BE PROCESSED WITH ALKALI], WHEY POWDER [MILK], SOY LECITHIN, VANILLIN), CRUSHED CANDY CANE (SUGAR, CORN SYRUP, COLOR [TITANIUM DIOXIDE], NATURAL PEPPERMINT FLAVOR, FD&C RED #40), NATURAL FLAVOR." Date available: 07/14/2017 Date last updated by company: 07/14/2017
