Source: USDA Branded Food Products Database Release December 2017 Software v.3.8.6.4 2017-10-02
Report Run at: December 18, 2017 11:43 EST
"Nutrient data for: 45269892, PEPPERMINT CRUNCH CHOCOLATE WITH CHOCOLATE WITH MINT OIL AND RED SUGAR, UPC: 5029806018991"
Food Group:  Branded Food Products Database
Common Name:

Nutrient,Unit,Data points,Std. Error,"1 PIECE = 10.0g",1Value per 100 g,
Proximates
"Energy",kcal,--,--,60,600
"Protein",g,--,--,1.00,10.00
"Total lipid (fat)",g,--,--,3.50,35.00
"Carbohydrate, by difference",g,--,--,6.00,60.00
"Fiber, total dietary",g,--,--,0.0,0.0
"Sugars, total",g,--,--,6.00,60.00
Minerals
"Calcium, Ca",mg,--,--,20,200
"Iron, Fe",mg,--,--,5.40,54.00
"Sodium, Na",mg,--,--,5,50
Vitamins
"Vitamin C, total ascorbic acid",mg,--,--,0.0,0.0
"Vitamin A, IU",IU,--,--,0,0
Lipids
"Fatty acids, total saturated",g,--,--,2.000,20.000
"Fatty acids, total trans",g,--,--,0.000,0.000
"Cholesterol",mg,--,--,0,0
Amino Acids
Other
Ingredients
"SUGAR, COCOA FAT, DRY WHOLE MILK, SOY LECITHIN ADDED AS EMULSIFIER, ENGLISH PEPPERMINT OIL, NATURAL VANILLA FLAVOR, IRON OXIDE ADDED AS COLOR." Date available: 08/28/2017 Date last updated by company: 08/28/2017
