Source: USDA Branded Food Products Database Release December 2017 Software v.3.8.6.4 2017-10-02
Report Run at: December 18, 2017 11:48 EST
"Nutrient data for: 45110044, PEPPERONI PIZZA SNACKERS, UPC: 717854106542"
Food Group:  Branded Food Products Database
Common Name:

Nutrient,Unit,Data points,Std. Error,"11.0 SNACKS = 85.0g",1Value per 100 g,
Proximates
"Energy",kcal,--,--,210,247
"Protein",g,--,--,7.00,8.24
"Total lipid (fat)",g,--,--,9.00,10.59
"Carbohydrate, by difference",g,--,--,25.00,29.41
"Fiber, total dietary",g,--,--,1.0,1.2
"Sugars, total",g,--,--,3.00,3.53
Minerals
"Calcium, Ca",mg,--,--,80,94
"Iron, Fe",mg,--,--,4.13,4.86
"Sodium, Na",mg,--,--,280,329
Vitamins
"Vitamin C, total ascorbic acid",mg,--,--,34.4,40.5
"Vitamin A, IU",IU,--,--,688,809
Lipids
"Fatty acids, total saturated",g,--,--,2.499,2.940
"Fatty acids, total trans",g,--,--,0.000,0.000
"Cholesterol",mg,--,--,10,12
Amino Acids
Other
Ingredients
"ENRICHED WHEAT FLOUR (WHEAT FLOUR, FERROUS SULFATE, NIACIN, THIAMINE MONONITRATE, RIBOFLAVIN, FOLIC ACID), WATER, CONCENTRATED CRUSHED TOMATOES, PEPPERONI (PORK, BEEF, SALT, WATER, DEXTROSE, SPICES, LACTIC ACID STARTER CULTURE, OLEORESIN OF PAPRIKA, DEHYDRATED GARLIC, FLAVORING, SODIUM NITRITE, BHA, BHT, CITRIC ACID), REDUCED FAT MOZZARELLA CHEESE (PASTEURIZED PART SKIM MILK, NONFAT MILK, CHEESE CULTURES, MODIFIED CORN STARCH*, SALT, VITAMIN A PALMITATE, AND ENZYMES. *INGREDIENT NOT IN REGULAR MOZZARELLA CHEESE), SOYBEAN OIL, BELL PEPPERS, ONIONS, LESS THAN 2% OF MUSHROOMS, SOY FLOUR, MODIFIED FOOD STARCH, SUGAR, SALT, SWEET DAIRY WHEY, SOY LECITHIN, SPICES, GRANULATED GARLIC." Date available: 07/14/2017 Date last updated by company: 07/14/2017
