Source: USDA Branded Food Products Database Release December 2017 Software v.3.8.6.4 2017-10-02
Report Run at: December 18, 2017 11:33 EST
"Nutrient data for: 45008729, PEPPERED BEEF JERKY, UPC: 041303015179"
Food Group:  Branded Food Products Database
Common Name:

Nutrient,Unit,Data points,Std. Error,"1 ONZ = 28.0g",1Value per 100 g,
Proximates
"Energy",kcal,--,--,90,321
"Protein",g,--,--,14.00,50.00
"Total lipid (fat)",g,--,--,1.00,3.57
"Carbohydrate, by difference",g,--,--,5.00,17.86
"Fiber, total dietary",g,--,--,0.0,0.0
"Sugars, total",g,--,--,6.00,21.43
Minerals
"Calcium, Ca",mg,--,--,0,0
"Iron, Fe",mg,--,--,1.29,4.59
"Sodium, Na",mg,--,--,530,1893
Vitamins
"Vitamin C, total ascorbic acid",mg,--,--,0.0,0.0
"Vitamin A, IU",IU,--,--,0,0
Lipids
"Fatty acids, total saturated",g,--,--,0.000,0.000
"Fatty acids, total trans",g,--,--,0.000,0.000
"Cholesterol",mg,--,--,25,89
Amino Acids
Other
Ingredients
"BEEF, SUGAR, WATER, SALT, PAPAYA JUICE, CRUSHED BLACK PEPPER, HYDROLYZED CORN PROTEIN, MONOSODIUM GLUTAMATE, GARLIC POWDER, ONION POWDER, NATURAL SMOKE FLAVORING, BLACK PEPPER AQUARESIN, SODIUM NITRITE, BLACK PEPPER POWDER." Date available: 07/14/2017 Date last updated by company: 07/14/2017
