Source: USDA Branded Food Products Database Release December 2017 Software v.3.8.6.4 2017-10-02
Report Run at: December 18, 2017 11:46 EST
"Nutrient data for: 45215258, PEPPERMINT TWISTS CANDY, UPC: 075602250221"
Food Group:  Branded Food Products Database
Common Name:

Nutrient,Unit,Data points,Std. Error,"2.0 PIECES = 13.0g",1Value per 100 g,
Proximates
"Energy",kcal,--,--,50,385
"Protein",g,--,--,0.00,0.00
"Total lipid (fat)",g,--,--,0.00,0.00
"Carbohydrate, by difference",g,--,--,13.00,100.00
"Sugars, total",g,--,--,10.00,76.92
Minerals
"Sodium, Na",mg,--,--,0,0
Vitamins
Lipids
Amino Acids
Other
Ingredients
"SUGAR, CORN SYRUP, PEPPERMINT OIL, RED 40, RED 40 LAKE." Date available: 07/14/2017 Date last updated by company: 07/14/2017
