Source: USDA Branded Food Products Database Release December 2017 Software v.3.8.6.4 2017-10-02
Report Run at: December 18, 2017 11:34 EST
"Nutrient data for: 45197829, PEPPERED WITH SAUSAGE GRAVY MIX, UPC: 074026999518"
Food Group:  Branded Food Products Database
Common Name:

Nutrient,Unit,Data points,Std. Error,"0.25 cup = 9.75g",1Value per 100 g,
Proximates
"Energy",kcal,--,--,35,359
"Protein",g,--,--,1.00,10.26
"Total lipid (fat)",g,--,--,0.00,0.00
"Carbohydrate, by difference",g,--,--,7.00,71.79
"Fiber, total dietary",g,--,--,0.0,0.0
"Sugars, total",g,--,--,1.00,10.26
Minerals
"Calcium, Ca",mg,--,--,0,0
"Iron, Fe",mg,--,--,0.00,0.00
"Sodium, Na",mg,--,--,270,2769
Vitamins
"Vitamin C, total ascorbic acid",mg,--,--,0.0,0.0
"Vitamin A, IU",IU,--,--,0,0
Lipids
"Fatty acids, total saturated",g,--,--,0.000,0.000
"Fatty acids, total trans",g,--,--,0.000,0.000
"Cholesterol",mg,--,--,0,0
Amino Acids
Other
Ingredients
"ENRICHED WHEAT FLOUR (NIACIN, REDUCED IRON, THIAMINE MONONITRATE, RIBOFLAVIN, FOLIC ACID), MALTODEXTRIN, CORN STARCH, SALT, DEHYDRATED BUTTERMILK, DEHYDRATED PALM OIL, HYDROLYZED VEGETABLE PROTEIN (SOY AND CORN), DEHYDRATED SPICES, SUGAR, LACTOSE, COLOR ADDED (TITANIUM DIOXIDE), NATURAL FLAVORS, SODIUM CASEINATE, POTASSIUM PHOSPHATE, SODIUM SILICOALUMINATE TO REDUCE CAKING." Date available: 07/14/2017 Date last updated by company: 07/14/2017
