Source: USDA Branded Food Products Database Release December 2017 Software v.3.8.6.4 2017-10-02
Report Run at: December 18, 2017 11:35 EST
"Nutrient data for: 45316283, PEPPER JACK CHEESE CRISPY WHOLE GRAIN BAKED CRACKERS, UPC: 089947804407"
Food Group:  Branded Food Products Database
Common Name:

Nutrient,Unit,Data points,Std. Error,"30.0 CRACKERS = 30.0g",1Value per 100 g,
Proximates
"Energy",kcal,--,--,140,467
"Protein",g,--,--,3.00,10.00
"Total lipid (fat)",g,--,--,5.00,16.67
"Carbohydrate, by difference",g,--,--,20.00,66.67
"Fiber, total dietary",g,--,--,2.0,6.7
"Sugars, total",g,--,--,1.00,3.33
Minerals
"Calcium, Ca",mg,--,--,20,67
"Iron, Fe",mg,--,--,1.20,4.00
"Sodium, Na",mg,--,--,180,600
Vitamins
"Vitamin C, total ascorbic acid",mg,--,--,4.0,13.3
"Vitamin A, IU",IU,--,--,166,555
Lipids
"Fatty acids, total saturated",g,--,--,0.999,3.330
"Fatty acids, total monounsaturated",g,--,--,0.999,3.330
"Fatty acids, total polyunsaturated",g,--,--,3.000,10.000
"Fatty acids, total trans",g,--,--,0.000,0.000
"Cholesterol",mg,--,--,0,0
Amino Acids
Other
Ingredients
"(THAT WE ARE PROUD OF!) VAN'S GLUTEN FREE WHOLE GRAIN BLEND (OATS, BROWN RICE FLOUR, MILLET, QUINOA, AND AMARANTH), NON-GMO EXPELLER PRESSED SAFFLOWER AND/OR SUNFLOWER OIL, POTATO STARCH, RICE FLOUR, MONTEREY JACK CHEESE POWDER (CULTURED MILK, SALT, ENZYMES), BROWN SUGAR, CHEDDAR CHEESE [CHEDDAR CHEESE (CULTURED MILK, SALT, ENZYMES), WHEY, BUTTERMILK, SALT], RED JALAPENO PEPPER, SUNFLOWER LECITHIN, GREEN CHILE PEPPER, NATURAL FLAVORS, SPICES, CITRIC ACID." Date available: 07/14/2017 Date last updated by company: 07/14/2017
