Source: USDA Branded Food Products Database Release December 2017 Software v.3.8.6.4 2017-10-02
Report Run at: December 18, 2017 11:50 EST
"Nutrient data for: 45293287, PEPPERONI PIZZA, UPC: 637599100028"
Food Group:  Branded Food Products Database
Common Name:

Nutrient,Unit,Data points,Std. Error,"0.33 PIZZA = 151.0g",1Value per 100 g,
Proximates
"Energy",kcal,--,--,450,298
"Protein",g,--,--,19.00,12.58
"Total lipid (fat)",g,--,--,26.00,17.22
"Carbohydrate, by difference",g,--,--,31.00,20.53
"Fiber, total dietary",g,--,--,2.0,1.3
"Sugars, total",g,--,--,5.00,3.31
Minerals
"Calcium, Ca",mg,--,--,350,232
"Iron, Fe",mg,--,--,1.86,1.23
"Sodium, Na",mg,--,--,1200,795
Vitamins
"Vitamin C, total ascorbic acid",mg,--,--,7.7,5.1
"Vitamin A, IU",IU,--,--,968,641
Lipids
"Fatty acids, total saturated",g,--,--,12.005,7.950
"Fatty acids, total trans",g,--,--,0.000,0.000
"Cholesterol",mg,--,--,60,40
Amino Acids
Other
Ingredients
"TOPPINGS: PASTEURIZED PROCESS CHEESE [CHEDDAR, SWISS, PROVOLONE, MONTEREY JACK AND MUENSTER CHEESE (CULTURED MILK, SALT, ENZYMES), WATER, CREAM, SODIUM CITRATE. CONTAINS LESS THAN 2% OF SALT, SODIUM PHOSPHATE, SORBIC ACID (PRESERVATIVE)], SAUCE (TOMATOES, OLIVE AND SUNFLOWER OILS, SALT, SPICES, GRANULATED GARLIC, CITRIC ACID), PEPPERONI (PORK, BEEF, SALT, SPICES, DEXTROSE, LACTIC ACID STARTER CULTURE, PAPRIKA OLEORESIN, FLAVORING, GARLIC POWDER, SODIUM NITRITE AND BHA AND BHT AND CITRIC ACID ADDED TO PROTECT FLAVOR), ROMANO CHEESE (PASTEURIZED COW'S MILK, CHEESE CULTURES, SALT, ENZYMES). CRUST: ENRICHED BLEACHED FLOUR (WHEAT FLOUR, NIACIN, REDUCED IRON, THIAMIN MONONITRATE, RIBOFLAVIN, FOLIC ACID), WATER, SOYBEAN OIL, SUGAR, SALT, YEAST, CALCIUM PROPIONATE (PRESERVATIVE), L-CYSTEINE." Date available: 07/14/2017 Date last updated by company: 07/14/2017
