Source: USDA Branded Food Products Database Release December 2017 Software v.3.8.6.4 2017-10-02
Report Run at: December 18, 2017 11:58 EST
"Nutrient data for: 45008768, PERDUE, SHORT CUTS, CARVED CHICKEN BREAST, HONEY ROASTED, UPC: 072745002243"
Food Group:  Branded Food Products Database
Common Name:

Nutrient,Unit,Data points,Std. Error,"0.5 cup = 71.0g",1Value per 100 g,
Proximates
"Energy",kcal,--,--,90,127
"Protein",g,--,--,17.00,23.94
"Total lipid (fat)",g,--,--,2.00,2.82
"Carbohydrate, by difference",g,--,--,2.00,2.82
"Fiber, total dietary",g,--,--,0.0,0.0
"Sugars, total",g,--,--,2.00,2.82
Minerals
"Calcium, Ca",mg,--,--,0,0
"Iron, Fe",mg,--,--,0.86,1.21
"Sodium, Na",mg,--,--,440,620
Vitamins
"Vitamin C, total ascorbic acid",mg,--,--,1.4,2.0
"Vitamin A, IU",IU,--,--,0,0
Lipids
"Fatty acids, total saturated",g,--,--,0.497,0.700
"Fatty acids, total trans",g,--,--,0.000,0.000
"Cholesterol",mg,--,--,55,77
Amino Acids
Other
Ingredients
"BONELESS SKINLESS CHICKEN BREAST WITH RIB MEAT, WATER, HONEY, LEMON JUICE CONCENTRATE, SALT, BROWN SUGAR, SOY PROTEIN CONCENTRATE, VINEGAR, MALTODEXTRIN, FLAVORS." Date available: 09/01/2017 Date last updated by company: 09/01/2017
