Source: USDA Branded Food Products Database Release December 2017 Software v.3.8.6.4 2017-10-02
Report Run at: December 18, 2017 12:00 EST
"Nutrient data for: 45009934, PERFECT PASTA, CHEESE RAVIOLI, UPC: 097137302053"
Food Group:  Branded Food Products Database
Common Name:

Nutrient,Unit,Data points,Std. Error,"1 CUP = 122.0g",1Value per 100 g,
Proximates
"Energy",kcal,--,--,290,238
"Protein",g,--,--,14.01,11.48
"Total lipid (fat)",g,--,--,9.00,7.38
"Carbohydrate, by difference",g,--,--,41.00,33.61
"Fiber, total dietary",g,--,--,2.0,1.6
"Sugars, total",g,--,--,0.00,0.00
Minerals
"Calcium, Ca",mg,--,--,150,123
"Iron, Fe",mg,--,--,1.65,1.35
"Sodium, Na",mg,--,--,300,246
Vitamins
"Vitamin C, total ascorbic acid",mg,--,--,0.0,0.0
"Vitamin A, IU",IU,--,--,459,376
Lipids
"Fatty acids, total saturated",g,--,--,5.002,4.100
"Fatty acids, total trans",g,--,--,0.000,0.000
"Cholesterol",mg,--,--,70,57
Amino Acids
Other
Ingredients
"DURUM WHEAT FLOUR (ENRICHED WITH IRON (FERROUS SULFATE) AND B VITAMINS (NIACIN, THIAMIN, RIBOFLAVIN, FOLIC ACID)), WHOLE MILK RICOTTA CHEESE (SWEET WHEY, WHOLE MILK, SWEET CREAM, CULTURE, VINEGAR AND SALT), WATER, WHOLE EGG, ROMANO CHEESE (PASTEURIZED COW'S MILK, CHEESE CULTURES, SALT, ENZYMES, POWDERED CELLULOSE ADDED TO PREVENT CAKING), FLOUR BLEND (YELLOW CORN FLOUR, WHEAT FLOUR, SOYBEAN OIL, EXTRACTIVES OF TURMERIC AND PAPRIKA), PARMESAN CHEESE (PASTEURIZED PART-SKIM COW'S MILK, CHEESE CULTURES, SALT, ENZYMES, POWDERED CELLULOSE ADDED TO PREVENT CAKING), BREAD CRUMBS (WHEAT FLOUR, SUGAR, CANOLA OIL, SALT, YEAST), SALT, PARSLEY, HALF & HALF (MILK, CREAM), BLACK PEPPER." Date available: 06/24/2017 Date last updated by company: 06/24/2017
