Source: USDA Branded Food Products Database Release December 2017 Software v.3.8.6.4 2017-10-02
Report Run at: December 18, 2017 12:01 EST
"Nutrient data for: 45220429, PERFORMANCE ENERGY BAR, UPC: 097421309744"
Food Group:  Branded Food Products Database
Common Name:

Nutrient,Unit,Data points,Std. Error,"1 BAR = 57.0g",1Value per 100 g,
Proximates
"Energy",kcal,--,--,220,386
"Protein",g,--,--,6.00,10.53
"Total lipid (fat)",g,--,--,5.00,8.77
"Carbohydrate, by difference",g,--,--,38.00,66.67
"Fiber, total dietary",g,--,--,1.0,1.8
"Sugars, total",g,--,--,22.00,38.60
Minerals
"Calcium, Ca",mg,--,--,20,35
"Iron, Fe",mg,--,--,0.51,0.89
"Potassium, K",mg,--,--,120,211
"Sodium, Na",mg,--,--,200,351
Vitamins
"Vitamin C, total ascorbic acid",mg,--,--,0.0,0.0
"Vitamin A, IU",IU,--,--,0,0
Lipids
"Fatty acids, total saturated",g,--,--,0.998,1.750
"Fatty acids, total trans",g,--,--,0.000,0.000
"Cholesterol",mg,--,--,0,0
Amino Acids
Other
Ingredients
"DUAL SOURCE ENERGY BLEND (CANE INVERT SYRUP, MALTODEXTRIN, SUGAR, FRUCTOSE), PEANUT BUTTER, WHOLE OATS (CONTAINS WHEAT), DATE PASTE (DATES, ORGANIC CANE SYRUP, GLYCERIN), BROWN RICE FLOUR, SOY PROTEIN ISOLATE, DRIED CRANBERRIES AND STRAWBERRIES, SOY NUTS, GLYCERIN, SALT, CITRIC ACID, NATURAL FLAVOR, SUNFLOWER OIL, SOY LECITHIN, ALMONDS, MILK." Date available: 07/14/2017 Date last updated by company: 07/14/2017
