Source: USDA Branded Food Products Database Release December 2017 Software v.3.8.6.4 2017-10-02
Report Run at: December 18, 2017 11:59 EST
"Nutrient data for: 45051830, PERFECT FIT MEALS, LEMON PEPPER CHICKEN, UPC: 856095003460"
Food Group:  Branded Food Products Database
Common Name:

Nutrient,Unit,Data points,Std. Error,"10.5 oz = 298.0g",1Value per 100 g,
Proximates
"Energy",kcal,--,--,289,97
"Protein",g,--,--,44.01,14.77
"Total lipid (fat)",g,--,--,3.01,1.01
"Carbohydrate, by difference",g,--,--,23.01,7.72
"Fiber, total dietary",g,--,--,2.1,0.7
"Sugars, total",g,--,--,2.00,0.67
Minerals
"Calcium, Ca",mg,--,--,39,13
"Iron, Fe",mg,--,--,1.79,0.60
"Sodium, Na",mg,--,--,399,134
Vitamins
"Vitamin C, total ascorbic acid",mg,--,--,11.9,4.0
"Vitamin A, IU",IU,--,--,200,67
Lipids
"Fatty acids, total saturated",g,--,--,1.013,0.340
"Fatty acids, total trans",g,--,--,0.000,0.000
"Cholesterol",mg,--,--,110,37
Amino Acids
Other
Ingredients
"CHICKEN BREAST, ZUUCHINI SQUASH, SUMMER SQUASH, BROWN RICE, LEMON PEPPER SEASONING (BLACK PEPPER, SALT, SUGAR, LEMON PEEL, CITRIC ACID, LEMON JUICE SOLIDS (CORN SYRUP SOLIDS, NATURAL FLAVOR), ONION, GARLIC, OIL OF LEMON, TURMERIC EXTRACT AND LESS THAN 2% TRICALCIUM PHOSPHATE (ADDED TO PREVENT CAKING))" Date last updated by company: 12/30/2015
