Source: USDA Branded Food Products Database Release December 2017 Software v.3.8.6.4 2017-10-02
Report Run at: December 18, 2017 12:00 EST
"Nutrient data for: 45192224, PERFECT PANCAKE & WAFFLE MIX, UPC: 713109750317"
Food Group:  Branded Food Products Database
Common Name:

Nutrient,Unit,Data points,Std. Error,"3.0 PANCAKES AS PREPARED | DRY MIX; MAKES = 67.0g",1Value per 100 g,
Proximates
"Energy",kcal,--,--,230,343
"Protein",g,--,--,7.00,10.45
"Total lipid (fat)",g,--,--,1.00,1.49
"Carbohydrate, by difference",g,--,--,49.00,73.13
"Fiber, total dietary",g,--,--,4.0,6.0
"Sugars, total",g,--,--,6.00,8.96
Minerals
"Calcium, Ca",mg,--,--,200,299
"Iron, Fe",mg,--,--,1.61,2.41
"Sodium, Na",mg,--,--,550,821
Vitamins
"Vitamin C, total ascorbic acid",mg,--,--,0.0,0.0
"Vitamin A, IU",IU,--,--,0,0
Lipids
"Fatty acids, total saturated",g,--,--,0.000,0.000
"Fatty acids, total trans",g,--,--,0.000,0.000
"Cholesterol",mg,--,--,0,0
Amino Acids
Other
Ingredients
"WHOLE WHEAT FLOUR, UNBLEACHED ENRICHED WHEAT FLOUR (NIACIN, REDUCED IRON, THIAMINE MONONITRATE, RIBOFLAVIN, FOLIC ACID), MAPLE SUGAR, DOUBLE ACTING BAKING POWDER, PURE VANILLA POWDER, SEA SALT." Date available: 07/14/2017 Date last updated by company: 07/14/2017
