Source: USDA Branded Food Products Database Release December 2017 Software v.3.8.6.4 2017-10-02
Report Run at: December 18, 2017 12:02 EST
"Nutrient data for: 45057604, PERI-PERI SAUCE, UPC: 655273000020"
Food Group:  Branded Food Products Database
Common Name:

Nutrient,Unit,Data points,Std. Error,"4.0 tsp = 20.0g",1Value per 100 g,
Proximates
"Energy",kcal,--,--,15,75
"Protein",g,--,--,0.00,0.00
"Total lipid (fat)",g,--,--,1.00,5.00
"Carbohydrate, by difference",g,--,--,2.00,10.00
"Fiber, total dietary",g,--,--,0.0,0.0
"Sugars, total",g,--,--,1.00,5.00
Minerals
"Calcium, Ca",mg,--,--,0,0
"Iron, Fe",mg,--,--,0.00,0.00
"Sodium, Na",mg,--,--,560,2800
Vitamins
"Vitamin C, total ascorbic acid",mg,--,--,9.1,45.7
"Vitamin A, IU",IU,--,--,761,3805
Lipids
"Fatty acids, total saturated",g,--,--,0.000,0.000
"Fatty acids, total trans",g,--,--,0.000,0.000
"Cholesterol",mg,--,--,0,0
Amino Acids
Other
Ingredients
"WATER, WHITE VINEGAR, LEMON (6%), ONION (6%), SALT, SPICES (INCLUDING AFRICAN BIRD'S EYE CHILLI), SERRANO CHILLI, VEGETABLE OIL (SUNFLOWER SEEDS), GARLIC, XANTHAN GUM, PROPYLENE GLYCOL ALGINATE, CALCIUM DISODIUM EDTA (MAINTAINS COLOR)." Date available: 07/14/2017 Date last updated by company: 07/14/2017
