Source: USDA Branded Food Products Database Release December 2017 Software v.3.8.6.4 2017-10-02
Report Run at: December 18, 2017 12:03 EST
"Nutrient data for: 45184427, PERRY'S ICE CREAM, PREMIUM ICE CREAM, LEMON CHILLO, UPC: 075767450238"
Food Group:  Branded Food Products Database
Common Name:

Nutrient,Unit,Data points,Std. Error,"0.5 cup = 71.0g",1Value per 100 g,
Proximates
"Energy",kcal,--,--,190,268
"Protein",g,--,--,2.00,2.82
"Total lipid (fat)",g,--,--,11.00,15.49
"Carbohydrate, by difference",g,--,--,21.00,29.58
"Fiber, total dietary",g,--,--,0.0,0.0
"Sugars, total",g,--,--,17.00,23.94
Minerals
"Calcium, Ca",mg,--,--,80,113
"Iron, Fe",mg,--,--,0.00,0.00
"Sodium, Na",mg,--,--,90,127
Vitamins
"Vitamin C, total ascorbic acid",mg,--,--,0.0,0.0
"Vitamin A, IU",IU,--,--,225,317
Lipids
"Fatty acids, total saturated",g,--,--,4.998,7.040
"Fatty acids, total trans",g,--,--,0.000,0.000
"Cholesterol",mg,--,--,20,28
Amino Acids
Other
Ingredients
"MILK, CREAM, LEMON COOKIE SWIRLS (SHORTBREAD COOKIE CRUMB [ENRICHED FLOUR (WHEAT FLOUR, NIACIN, REDUCED IRON, THIAMINE MONONITRATE, RIBOFLAVIN, FOLIC ACID), SUGAR, BUTTER (CREAM, SALT), PALM OIL, PALM KERNEL OIL, SKIM MILK POWDER, SALT, SODIUM BICARBONATE], SOYBEAN OIL, POWDERED SUGAR (SUGAR, CORNSTARCH), NONFAT DRY MILK, CITRIC ACID, SALT, SOY LECITHIN, LEMON OIL, TURMERIC), CORN SYRUP, LIQUID SUGAR, SKIM MILK, BUTTERMILK, MILKFAT, WHEY, LEMON PUREE (WATER, LEMON PULP, CONCENTRATED LEMON JUICE, CORN SYRUP, NATURAL FLAVOR), NATURAL LEMON FLAVOR, CITRIC ACID, EGG YOLKS, MONO- AND DIGLYCERIDES, CELLULOSE GUM, GUAR GUM, CARRAGEENAN, DEXTROSE, TURMERIC EXTRACT (COLOR)." Date available: 07/14/2017 Date last updated by company: 07/14/2017
