Source: USDA Branded Food Products Database Release December 2017 Software v.3.8.6.4 2017-10-02
Report Run at: December 18, 2017 12:03 EST
"Nutrient data for: 45184425, PERRY'S ICE CREAM, PREMIUM ICE CREAM, CHOCOLATE STOUT, UPC: 075767450184"
Food Group:  Branded Food Products Database
Common Name:

Nutrient,Unit,Data points,Std. Error,"0.5 cup = 71.0g",1Value per 100 g,
Proximates
"Energy",kcal,--,--,160,225
"Protein",g,--,--,2.00,2.82
"Total lipid (fat)",g,--,--,8.00,11.27
"Carbohydrate, by difference",g,--,--,23.00,32.39
"Fiber, total dietary",g,--,--,1.0,1.4
"Sugars, total",g,--,--,17.00,23.94
Minerals
"Calcium, Ca",mg,--,--,80,113
"Iron, Fe",mg,--,--,0.00,0.00
"Sodium, Na",mg,--,--,55,77
Vitamins
"Vitamin C, total ascorbic acid",mg,--,--,0.0,0.0
"Vitamin A, IU",IU,--,--,225,317
Lipids
"Fatty acids, total saturated",g,--,--,4.998,7.040
"Fatty acids, total trans",g,--,--,0.000,0.000
"Cholesterol",mg,--,--,20,28
Amino Acids
Other
Ingredients
"MILK, CREAM, CORN SYRUP, LIQUID SUGAR, CHOCOLATE STOUT SWIRL [CORN SYRUP, WATER, DRY MALT EXTRACT, COCOA (PROCESSED WITH ALKALI), MODIFIED CORN STARCH, NATURAL FLAVOR], SKIM MILK, BUTTERMILK, CHOCOLATE MALT BASE [CORN SYRUP, COCOA (PROCESSED WITH ALKALI), WATER, DRY MALT EXTRACT, CARAMEL COLOR, MOLASSES, NATURAL FLAVOR, SALT, COFFEE], FUDGE FLAKE [SUGAR, COCONUT OIL, COCOA (PROCESSED WITH ALKALI), COCOA, MILKFAT, SOY LECITHIN, NATURAL FLAVORS, VANILLA EXTRACT, MILK], MILKFAT, WHEY, STOUT FLAVOR, EGG YOLKS, MONO- AND DIGLYCERIDES, CELLULOSE GUM, GUAR GUM, CARRAGEENAN, DEXTROSE." Date available: 07/14/2017 Date last updated by company: 07/14/2017
