Source: USDA Branded Food Products Database Release December 2017 Software v.3.8.6.4 2017-10-02
Report Run at: December 18, 2017 12:03 EST
"Nutrient data for: 45184403, PERRY'S ICE CREAM, ESCAPES, ICE CREAM, NUTTY PISTACHIOS, UPC: 075767320333"
Food Group:  Branded Food Products Database
Common Name:

Nutrient,Unit,Data points,Std. Error,"0.5 cup = 76.0g",1Value per 100 g,
Proximates
"Energy",kcal,--,--,180,237
"Protein",g,--,--,3.00,3.95
"Total lipid (fat)",g,--,--,10.00,13.16
"Carbohydrate, by difference",g,--,--,19.00,25.00
"Fiber, total dietary",g,--,--,1.0,1.3
"Sugars, total",g,--,--,17.00,22.37
Minerals
"Calcium, Ca",mg,--,--,100,132
"Iron, Fe",mg,--,--,0.00,0.00
"Sodium, Na",mg,--,--,65,86
Vitamins
"Vitamin C, total ascorbic acid",mg,--,--,0.0,0.0
"Vitamin A, IU",IU,--,--,337,444
Lipids
"Fatty acids, total saturated",g,--,--,5.001,6.580
"Fatty acids, total trans",g,--,--,0.000,0.000
"Cholesterol",mg,--,--,25,33
Amino Acids
Other
Ingredients
"MILK, CREAM, CORN SYRUP, LIQUID SUGAR, SKIM MILK, BUTTERMILK, ALMONDS [ALMONDS, COTTONSEED OIL, BUTTER (CREAM, SALT), SALT], MILKFAT, WHEY, NATURAL FLAVOR, EGG YOLKS, MONO- AND DIGLYCERIDES, CELLULOSE GUM, GUAR GUM, CARRAGEENAN, DEXTROSE." Date available: 07/14/2017 Date last updated by company: 07/14/2017
