Source: USDA Branded Food Products Database Release December 2017 Software v.3.8.6.4 2017-10-02
Report Run at: December 18, 2017 12:05 EST
"Nutrient data for: 45205875, PESTO CREAM, UPC: 850226003282"
Food Group:  Branded Food Products Database
Common Name:

Nutrient,Unit,Data points,Std. Error,"0.25 cup = 62.0g",1Value per 100 g,
Proximates
"Energy",kcal,--,--,140,226
"Protein",g,--,--,4.00,6.45
"Total lipid (fat)",g,--,--,11.00,17.74
"Carbohydrate, by difference",g,--,--,4.00,6.45
"Fiber, total dietary",g,--,--,1.0,1.6
"Sugars, total",g,--,--,2.00,3.23
Minerals
"Calcium, Ca",mg,--,--,40,65
"Sodium, Na",mg,--,--,135,218
Vitamins
"Vitamin A, IU",IU,--,--,634,1023
Lipids
"Fatty acids, total saturated",g,--,--,4.501,7.260
"Cholesterol",mg,--,--,25,40
Amino Acids
Other
Ingredients
"WHITE WINE (CONTAINS NATURAL SULPHITES), VEGETABLE STOCK, CERTIFIED VEGAN, LOW SODIUM, GLUTEN-FREE (CARROT STOCK, ONION STOCK, CELERY STOCK, LEMON JUICE, TOMATO PASTE, WATER, SALT, CARRAGEENAN, ROASTED GARLIC POWDER, ONION POWDER, SPICES), CREAM, PESTO SAUCE (BASIL BLEND (GENOVESE BASIL D.O.P., SUNFLOWER OIL, SEA SALT), SUNFLOWER OIL, PARMESAN CHEESE, (PASTEURIZED PART-SKIMMED COW'S MILK, CHEESE CULTURES, SEA SALT, ENZYMES) PINE NUTS, EXTRA VIRGIN OLIVE OIL, PECORINO-ROMANO D.O.P. CHEESE, (SHEEP MILK, RENNET, SALT), GARLIC, ASCORBIC ACID, BLACK PEPPER), SKIM MILK, ONIONS, WHEY PROTEIN, LEMON JUICE, SALT, SPICES, XANTHAN GUM, MALIC ACID." Date available: 10/19/2017 Date last updated by company: 10/19/2017
