Source: USDA Branded Food Products Database Release December 2017 Software v.3.8.6.4 2017-10-02
Report Run at: December 18, 2017 12:06 EST
"Nutrient data for: 45200399, PESTO PASTA SALAD, UPC: 663209110750"
Food Group:  Branded Food Products Database
Common Name:

Nutrient,Unit,Data points,Std. Error,"3.5 ONZ = 100.0g",1Value per 100 g,
Proximates
"Energy",kcal,--,--,200,200
"Protein",g,--,--,4.00,4.00
"Total lipid (fat)",g,--,--,13.00,13.00
"Carbohydrate, by difference",g,--,--,17.00,17.00
"Fiber, total dietary",g,--,--,2.0,2.0
"Sugars, total",g,--,--,3.00,3.00
Minerals
"Calcium, Ca",mg,--,--,40,40
"Iron, Fe",mg,--,--,1.51,1.51
"Sodium, Na",mg,--,--,85,85
Vitamins
"Vitamin C, total ascorbic acid",mg,--,--,6.7,6.7
"Vitamin A, IU",IU,--,--,420,420
Lipids
"Fatty acids, total saturated",g,--,--,1.000,1.000
"Fatty acids, total trans",g,--,--,0.000,0.000
"Cholesterol",mg,--,--,0,0
Amino Acids
Other
Ingredients
"COOKED PASTA (WATER, DURUM SEMOLINA FLOUR, NIACIN, FERROUS SULFATE, THIAMINE MONONITRATE, RIBOFLAVIN, FOLIC ACID), PESTO VINAIGRETTE CANOLA OIL, WATER, WHITE WINE VINEGAR (WHITE WINE VINEGAR DILUTED WITH WATER TO 5% ACIDITY AND POTASSIUM BISULFITE AS PRESERVATIVE), FRESH BASIL, PARMESAN CHEESE (MILK PART SKIM, CHEESE CULTURE, SALT, ENZYMES, CELLULOSE POWDER ADDED TO PREVENT CAKING, POTASSIUM SORBATE TO PROTECT FLAVOR), RICE VINEGAR (RICE VINEGAR (WATER, RICE), SUGAR, SALT), FRESH GARLIC, HONEY, LEMON JUICE (WATER, LEMON JUICE CONCENTRATE, ASCORBIC ACID (VITAMIN C), AND CITRIC ACID), SALT, BLACK PEPPER, XANTHAN GUM), TOMATOES, PEAS, PINE NUTS." Date available: 07/14/2017 Date last updated by company: 07/14/2017
