Source: USDA Branded Food Products Database Release December 2017 Software v.3.8.6.4 2017-10-02
Report Run at: December 18, 2017 12:06 EST
"Nutrient data for: 45285311, PESTO TORTELLINI, UPC: 698997809746"
Food Group:  Branded Food Products Database
Common Name:

Nutrient,Unit,Data points,Std. Error,"1 TRAY = 227.0g",1Value per 100 g,
Proximates
"Energy",kcal,--,--,361,159
"Protein",g,--,--,15.00,6.61
"Total lipid (fat)",g,--,--,18.00,7.93
"Carbohydrate, by difference",g,--,--,35.00,15.42
"Fiber, total dietary",g,--,--,3.0,1.3
"Sugars, total",g,--,--,2.00,0.88
Minerals
"Calcium, Ca",mg,--,--,350,154
"Iron, Fe",mg,--,--,0.93,0.41
"Sodium, Na",mg,--,--,620,273
Vitamins
"Vitamin C, total ascorbic acid",mg,--,--,25.9,11.4
"Vitamin A, IU",IU,--,--,858,378
Lipids
"Fatty acids, total saturated",g,--,--,8.989,3.960
"Fatty acids, total trans",g,--,--,0.000,0.000
"Cholesterol",mg,--,--,66,29
Amino Acids
Other
Ingredients
"GLUTEN FREE FOUR CHEESE TORTELLINI (DOUGH [WATER, BROWN RICE FLOUR, POTATO STARCH, TAPIOCA STARCH, EGG, EGG WHITE, XANTHAN GUM, FLAX SEED, SALT], WATER, FILLING [RICOTTA CHEESE {WHEY, MILK, VINEGAR, CULTURE, SALT}, MOZZARELLA CHEESE {MILK, CHEESE CULTURE, SALT}, ASIAGO CHEESE {CULTURED MILK, ENZYMES, SALT}, PARMESAN CHEESE {MILK, CHEESE CULTURE, SALT}, OLIVE OIL]), WATER, BROCCOLI, WHOLE MILK (MILK, VITAMIN D3), PARMESAN CHEESE (MILK, CHEESE CULTURES, SALT, ENZYMES), HEAVY CREAM, TOMATOES, COOKING WINE (WINE, SALT), BASIL, CORN STARCH, EXTRA VIRGIN OLIVE OIL, BUTTER, CANOLA OIL, LEMON JUICE FROM CONCENTRATE (WATER, LEMON JUICE CONCENTRATE), CHOPPED GARLIC (GARLIC, WATER), SEA SALT, SPICES." Date available: 07/14/2017 Date last updated by company: 07/14/2017
