Source: USDA Branded Food Products Database Release December 2017 Software v.3.8.6.4 2017-10-02
Report Run at: December 18, 2017 12:06 EST
"Nutrient data for: 45054723, PESTO SAUCE, UPC: 794376102153"
Food Group:  Branded Food Products Database
Common Name:

Nutrient,Unit,Data points,Std. Error,"1 STRIP = 40.0g",1Value per 100 g,
Proximates
"Energy",kcal,--,--,150,375
"Protein",g,--,--,1.00,2.50
"Total lipid (fat)",g,--,--,13.00,32.50
"Carbohydrate, by difference",g,--,--,6.00,15.00
"Fiber, total dietary",g,--,--,0.0,0.0
"Sugars, total",g,--,--,2.00,5.00
Minerals
"Calcium, Ca",mg,--,--,30,75
"Iron, Fe",mg,--,--,0.54,1.35
"Sodium, Na",mg,--,--,310,775
Vitamins
"Vitamin C, total ascorbic acid",mg,--,--,1.2,3.0
"Vitamin A, IU",IU,--,--,700,1750
Lipids
"Fatty acids, total saturated",g,--,--,2.000,5.000
"Fatty acids, total trans",g,--,--,0.000,0.000
"Cholesterol",mg,--,--,0,0
Amino Acids
Other
Ingredients
"BASIL LEAVES (34%), CANOLA OIL, GARLIC, WATER, OLIVE OIL, CORN STARCH, SALT, SUGAR, LEMON JUICE, SPICES." Date available: 08/10/2017 Date last updated by company: 08/10/2017
