Source: USDA Branded Food Products Database Release December 2017 Software v.3.8.6.4 2017-10-02
Report Run at: December 18, 2017 12:07 EST
"Nutrient data for: 45134161, PETER PAN Crunchy Honey Roast Peanut Butter, UNPREPARED, GTIN: 00045300002750"
Food Group:  Branded Food Products Database
Common Name:

Nutrient,Unit,Data points,Std. Error,"2.0 tbsp (34g) = 34.0g",1Value per 100 g,
Proximates
"Energy",kcal,--,--,210,618
"Protein",g,--,--,7.00,20.59
"Total lipid (fat)",g,--,--,16.00,47.06
"Carbohydrate, by difference",g,--,--,10.00,29.41
"Fiber, total dietary",g,--,--,2.0,5.9
"Sugars, total",g,--,--,7.00,20.59
Minerals
"Calcium, Ca",mg,--,--,0,0
"Iron, Fe",mg,--,--,0.36,1.06
"Potassium, K",mg,--,--,170,500
"Sodium, Na",mg,--,--,110,324
Vitamins
"Vitamin C, total ascorbic acid",mg,--,--,0.0,0.0
"Vitamin A, IU",IU,--,--,0,0
Lipids
"Fatty acids, total saturated",g,--,--,2.999,8.820
"Fatty acids, total monounsaturated",g,--,--,9.000,26.470
"Fatty acids, total polyunsaturated",g,--,--,3.998,11.760
"Fatty acids, total trans",g,--,--,0.000,0.000
"Cholesterol",mg,--,--,0,0
Amino Acids
Other
Ingredients
"Peanut Butter (Roasted Peanuts, Sugar, Less than 2% of: Molasses, Hydrogenated Vegetable Oils [Cottonseed and Rapeseed], Salt), Sugar, Honey. CONTAINS: PEANUTS." Date available: 10/12/2017 Date last updated by company: 10/12/2017
