Source: USDA Branded Food Products Database Release December 2017 Software v.3.8.6.4 2017-10-02
Report Run at: December 18, 2017 12:07 EST
"Nutrient data for: 45134180, PETER PAN Natural Creamy Peanut Butter, UNPREPARED, GTIN: 00045300005362"
Food Group:  Branded Food Products Database
Common Name:

Nutrient,Unit,Data points,Std. Error,"2.0 tbsp (33g) = 33.0g",1Value per 100 g,
Proximates
"Energy",kcal,--,--,210,636
"Protein",g,--,--,8.00,24.24
"Total lipid (fat)",g,--,--,17.00,51.52
"Carbohydrate, by difference",g,--,--,6.00,18.18
"Fiber, total dietary",g,--,--,2.0,6.1
"Sugars, total",g,--,--,3.00,9.09
Minerals
"Calcium, Ca",mg,--,--,0,0
"Iron, Fe",mg,--,--,0.36,1.09
"Potassium, K",mg,--,--,190,576
"Sodium, Na",mg,--,--,130,394
Vitamins
"Vitamin C, total ascorbic acid",mg,--,--,0.0,0.0
"Vitamin A, IU",IU,--,--,0,0
Lipids
"Fatty acids, total saturated",g,--,--,3.501,10.610
"Fatty acids, total monounsaturated",g,--,--,9.999,30.300
"Fatty acids, total polyunsaturated",g,--,--,2.000,6.060
"Fatty acids, total trans",g,--,--,0.000,0.000
"Cholesterol",mg,--,--,0,0
Amino Acids
Other
Ingredients
"Roasted Peanuts, Sugar, Palm Oil, Salt. CONTAINS: PEANUTS." Date available: 10/12/2017 Date last updated by company: 10/12/2017
