Source: USDA Branded Food Products Database Release December 2017 Software v.3.8.6.4 2017-10-02
Report Run at: December 18, 2017 12:08 EST
"Nutrient data for: 45169227, PETER'S YARD, ORIGINAL SOURDOUGH CRISPBREAD, UPC: 813136020008"
Food Group:  Branded Food Products Database
Common Name:

Nutrient,Unit,Data points,Std. Error,"5.0 PIECES = 14.0g",1Value per 100 g,
Proximates
"Energy",kcal,--,--,50,357
"Protein",g,--,--,1.00,7.14
"Total lipid (fat)",g,--,--,0.00,0.00
"Carbohydrate, by difference",g,--,--,11.00,78.57
"Fiber, total dietary",g,--,--,1.0,7.1
Minerals
"Sodium, Na",mg,--,--,92,657
Vitamins
Lipids
Amino Acids
Other
Ingredients
"MILK, ORGANIC RYE FLOUR, ORGANIC WHEAT FLOUR, SOURDOUGH (ORGANIC RYE FLOUR, WATER), ORGANIC WHOLEWHEAT FLOUR, ORGANIC HONEY, SALT, YEAST." Date available: 10/18/2017 Date last updated by company: 10/18/2017
