Source: USDA Branded Food Products Database Release December 2017 Software v.3.8.6.4 2017-10-02
Report Run at: December 18, 2017 12:07 EST
"Nutrient data for: 45134207, PETER PAN Crunchy Peanut Butter, UNPREPARED, GTIN: 00045300000558"
Food Group:  Branded Food Products Database
Common Name:

Nutrient,Unit,Data points,Std. Error,"2.0 tbsp (32g) = 32.0g",1Value per 100 g,
Proximates
"Energy",kcal,--,--,200,625
"Protein",g,--,--,8.00,25.00
"Total lipid (fat)",g,--,--,16.00,50.00
"Carbohydrate, by difference",g,--,--,6.00,18.75
"Fiber, total dietary",g,--,--,2.0,6.2
"Sugars, total",g,--,--,3.00,9.38
Minerals
"Calcium, Ca",mg,--,--,0,0
"Iron, Fe",mg,--,--,0.36,1.12
"Potassium, K",mg,--,--,190,594
"Sodium, Na",mg,--,--,110,344
Vitamins
"Vitamin C, total ascorbic acid",mg,--,--,0.0,0.0
"Vitamin A, IU",IU,--,--,0,0
Lipids
"Fatty acids, total saturated",g,--,--,3.002,9.380
"Fatty acids, total monounsaturated",g,--,--,8.998,28.120
"Fatty acids, total polyunsaturated",g,--,--,4.000,12.500
"Fatty acids, total trans",g,--,--,0.000,0.000
"Cholesterol",mg,--,--,0,0
Amino Acids
Other
Ingredients
"Roasted Peanuts, Sugar, Less than 2% of: Hydrogenated Vegetable Oils (Cottonseed and Rapeseed), Salt. CONTAINS: PEANUTS." Date available: 10/12/2017 Date last updated by company: 10/12/2017
