Source: USDA Branded Food Products Database Release December 2017 Software v.3.8.6.4 2017-10-02
Report Run at: December 18, 2017 12:13 EST
"Nutrient data for: 45205817, PETITS PAINS, KOUIGN - AMANN SWEET BUTTERY PASTRY, APPLE, UPC: 815680020084"
Food Group:  Branded Food Products Database
Common Name:

Nutrient,Unit,Data points,Std. Error,"1 PIECE = 88.0g",1Value per 100 g,
Proximates
"Energy",kcal,--,--,350,398
"Protein",g,--,--,6.00,6.82
"Total lipid (fat)",g,--,--,16.00,18.18
"Carbohydrate, by difference",g,--,--,45.00,51.14
"Fiber, total dietary",g,--,--,1.0,1.1
"Sugars, total",g,--,--,16.00,18.18
Minerals
"Calcium, Ca",mg,--,--,20,23
"Iron, Fe",mg,--,--,1.74,1.98
"Sodium, Na",mg,--,--,320,364
Vitamins
"Vitamin C, total ascorbic acid",mg,--,--,0.0,0.0
"Vitamin A, IU",IU,--,--,97,110
Lipids
"Fatty acids, total saturated",g,--,--,11.000,12.500
"Fatty acids, total trans",g,--,--,0.000,0.000
"Cholesterol",mg,--,--,15,17
Amino Acids
Other
Ingredients
"ENRICHED MALTED WHEAT FLOUR (WHEAT FLOUR, MALTED BARLEY FLOUR, NIACIN, IRON, THIAMIN MONONITRATE, RIBOFLAVIN, FOLIC ACID), WATER, SLICED APPLES (APPLE, WATER, CITRIC ACID), DRY BUTTER, SUGAR, UNSALTED BUTTER, EGGS, YEAST, SALT, MODIFIED CORN STARCH, CINNAMON, DOUGH CONDITIONER (WHEAT GLUTEN, XANTHAN GUM, ASCORBIC ACID, ENZYMES)" Date available: 07/14/2017 Date last updated by company: 07/14/2017
