Source: USDA Branded Food Products Database Release December 2017 Software v.3.8.6.4 2017-10-02
Report Run at: December 18, 2017 12:10 EST
"Nutrient data for: 45019291, PETITE DICED TOMATOES WITH SWEET ONION, UPC: 011150046305"
Food Group:  Branded Food Products Database
Common Name:

Nutrient,Unit,Data points,Std. Error,"0.5 cup = 121.0g",1Value per 100 g,
Proximates
"Energy",kcal,--,--,40,33
"Protein",g,--,--,1.00,0.83
"Total lipid (fat)",g,--,--,0.00,0.00
"Carbohydrate, by difference",g,--,--,9.00,7.44
"Fiber, total dietary",g,--,--,1.0,0.8
"Sugars, total",g,--,--,6.00,4.96
Minerals
"Calcium, Ca",mg,--,--,40,33
"Iron, Fe",mg,--,--,0.77,0.64
"Sodium, Na",mg,--,--,350,289
Vitamins
"Vitamin C, total ascorbic acid",mg,--,--,9.7,8.0
"Vitamin A, IU",IU,--,--,806,666
Lipids
"Fatty acids, total saturated",g,--,--,0.000,0.000
"Fatty acids, total trans",g,--,--,0.000,0.000
"Cholesterol",mg,--,--,0,0
Amino Acids
Other
Ingredients
"TOMATOES, TOMATO JUICE, SUGAR, DRIED ONION, SALT, CALCIUM CHLORIDE, CITRIC ACID, DRIED GARLIC, NATURAL FLAVORS." Date available: 06/25/2017 Date last updated by company: 06/25/2017
