Source: USDA Branded Food Products Database Release December 2017 Software v.3.8.6.4 2017-10-02
Report Run at: December 18, 2017 12:15 EST
"Nutrient data for: 45134455, PF CHANGS Chicken Eggroll, UNPREPARED, GTIN: 00031000700041"
Food Group:  Branded Food Products Database
Common Name:

Nutrient,Unit,Data points,Std. Error,"0.5 package (125g) = 125.0g",1Value per 100 g,
Proximates
"Energy",kcal,--,--,210,168
"Protein",g,--,--,6.00,4.80
"Total lipid (fat)",g,--,--,6.00,4.80
"Carbohydrate, by difference",g,--,--,33.00,26.40
"Fiber, total dietary",g,--,--,2.0,1.6
"Sugars, total",g,--,--,8.00,6.40
Minerals
"Calcium, Ca",mg,--,--,0,0
"Iron, Fe",mg,--,--,1.07,0.86
"Potassium, K",mg,--,--,180,144
"Sodium, Na",mg,--,--,520,416
Vitamins
"Vitamin C, total ascorbic acid",mg,--,--,2.4,1.9
"Vitamin A, IU",IU,--,--,1000,800
"Vitamin D",IU,--,--,0,0
Lipids
"Fatty acids, total saturated",g,--,--,2.000,1.600
"Fatty acids, total monounsaturated",g,--,--,1.000,0.800
"Fatty acids, total polyunsaturated",g,--,--,3.000,2.400
"Fatty acids, total trans",g,--,--,0.000,0.000
"Cholesterol",mg,--,--,15,12
Amino Acids
Other
Ingredients
"Egg Roll: Wrapper (Water, Enriched Flour [Wheat Flour, Niacin, Reduced Iron, Thiamine Mononitrate, Riboflavin, Folic Acid], Yellow Corn Flour, Water, Bleached Wheat Flour, Modified Food Starch, Contains 2% Or Less Of: Salt, Vegetable Oil [Cottonseed And/or Canola Oil], Dried Whole Egg, Dextrose, Salt, Leavening [Sodium Bicarbonate, Sodium Aluminum Phosphate], Onion Powder, Garlic Powder, Spice, Disodium Guanylate, Disodium Inosinate, Caramel Color), Filling (Dark Meat Chicken, Cabbage, Carrots, Green Onions, Garlic, Ginger, Salt). Fried in Vegetable Oil. Sauce: Water, Sugar, Rice Wine Vinegar, Tomato Paste, Ginger Puree (Ginger, Water), Chili Paste (Red Chili Peppers, Distilled Vinegar, Salt, Xanthan Gum), Xanthan Gum, Salt. CONTAINS: EGG, WHEAT" Date available: 10/23/2017 Date last updated by company: 10/22/2017
