Source: USDA Branded Food Products Database Release December 2017 Software v.3.8.6.4 2017-10-02
Report Run at: December 18, 2017 12:16 EST
"Nutrient data for: 45134671, PF CHANGS Shrimp Lo Mein Dinner, UNPREPARED, GTIN: 00031000670054"
Food Group:  Branded Food Products Database
Common Name:

Nutrient,Unit,Data points,Std. Error,"0.5 package (312g) = 312.0g",1Value per 100 g,
Proximates
"Energy",kcal,--,--,409,131
"Protein",g,--,--,16.01,5.13
"Total lipid (fat)",g,--,--,13.01,4.17
"Carbohydrate, by difference",g,--,--,56.00,17.95
"Fiber, total dietary",g,--,--,5.0,1.6
"Sugars, total",g,--,--,10.02,3.21
Minerals
"Calcium, Ca",mg,--,--,59,19
"Iron, Fe",mg,--,--,3.59,1.15
"Potassium, K",mg,--,--,321,103
"Sodium, Na",mg,--,--,811,260
Vitamins
"Vitamin C, total ascorbic acid",mg,--,--,3.7,1.2
"Vitamin A, IU",IU,--,--,1501,481
Lipids
"Fatty acids, total saturated",g,--,--,1.498,0.480
"Fatty acids, total monounsaturated",g,--,--,6.989,2.240
"Fatty acids, total polyunsaturated",g,--,--,3.994,1.280
"Fatty acids, total trans",g,--,--,0.000,0.000
"Cholesterol",mg,--,--,50,16
Amino Acids
Other
Ingredients
"Cooked Lo Mein Noodles (Water, Enriched Wheat Flour [Bleached And Unbleached Wheat Flour, Niacin, Reduced Iron, Thiamine Mononitrate, Riboflavin, Folic Acid], Soybean Oil, Turmeric And Annatto [Colors], Potassium Carbonate, Sodium Carbonate), Vegetables (Shiitake Mushrooms, Bok Choy, Carrots, Celery), Sauce (Water, Soy Sauce [Water, Wheat, Soybeans, Salt, Alcohol, Vinegar], Concentrated Chicken Broth, Canola Oil, Sugar, Garlic, Ginger, Oyster Flavored Sauce [Water, Sugar, Salt, Oyster Extractives {Oyster, Water, Salt}, Modified Corn Starch, Caramel Color], Less Than 2% Of: Sesame Seed Oil, Corn Starch, Cooking Wine [White Wine, Natural Flavor, Salt, Potassium Sorbate {Preservative}], Hydrogenated Palm Oil, Mushroom Extract, Salt, Soybeans, Wheat Flour, Soybean Oil, Caramel Color, Citric Acid, Cooking Wine [Rice, Water, Salt], Lactic Acid, Modified Corn Starch), Cooked Shrimp (Shrimp, Water, Sodium Tripolyphosphate, Salt). CONTAINS: CRUSTACEAN SHELLFISH (SHRIMP), SOY, WHEAT" Date available: 10/12/2017 Date last updated by company: 10/11/2017
