Source: USDA Branded Food Products Database Release December 2017 Software v.3.8.6.4 2017-10-02
Report Run at: December 18, 2017 12:18 EST
"Nutrient data for: 45140923, PHILADELPHIA, REDUCED FAT CREAM CHEESE, UPC: 021000612185"
Food Group:  Branded Food Products Database
Common Name:

Nutrient,Unit,Data points,Std. Error,"2.0 Tbsp = 31.0g",1Value per 100 g,
Proximates
"Energy",kcal,--,--,70,226
"Protein",g,--,--,2.00,6.45
"Total lipid (fat)",g,--,--,6.00,19.35
"Carbohydrate, by difference",g,--,--,2.00,6.45
"Fiber, total dietary",g,--,--,0.0,0.0
"Sugars, total",g,--,--,2.00,6.45
Minerals
"Calcium, Ca",mg,--,--,40,129
"Iron, Fe",mg,--,--,0.00,0.00
"Sodium, Na",mg,--,--,140,452
Vitamins
"Vitamin C, total ascorbic acid",mg,--,--,0.0,0.0
"Vitamin A, IU",IU,--,--,400,1290
Lipids
"Fatty acids, total saturated",g,--,--,3.500,11.290
"Fatty acids, total trans",g,--,--,0.000,0.000
"Cholesterol",mg,--,--,20,65
Amino Acids
Other
Ingredients
"PASTEURIZED MILK AND CREAM, WHEY PROTEIN CONCENTRATE, SALT, GUAR GUM, CAROB BEAN GUM, SORBIC ACID AS A PRESERVATIVE*, VITAMIN A PALMITATE, CHEESE CULTURE" Date available: 09/23/2016 Date last updated by company: 09/23/2016
