Source: USDA Branded Food Products Database Release December 2017 Software v.3.8.6.4 2017-10-02
Report Run at: December 18, 2017 12:20 EST
"Nutrient data for: 45214040, PHINEAS AND FERB VALENTINE CANDY CARD KIT, UPC: 041376503061"
Food Group:  Branded Food Products Database
Common Name:

Nutrient,Unit,Data points,Std. Error,"1 POP = 7.0g",1Value per 100 g,
Proximates
"Energy",kcal,--,--,25,357
"Protein",g,--,--,0.00,0.00
"Total lipid (fat)",g,--,--,0.00,0.00
"Carbohydrate, by difference",g,--,--,7.00,100.00
"Sugars, total",g,--,--,6.00,85.71
Minerals
"Sodium, Na",mg,--,--,0,0
Vitamins
Lipids
Amino Acids
Other
Ingredients
"SUGAR, CORN SYRUP, CITRIC ACID, ARTIFICIAL FLAVORS, ARTIFICIAL COLORS (RED 40, TITANIUM DIOXIDE)." Date available: 07/14/2017 Date last updated by company: 07/14/2017
