Source: USDA Branded Food Products Database Release December 2017 Software v.3.8.6.4 2017-10-02
Report Run at: December 18, 2017 12:25 EST
"Nutrient data for: 45079198, PICKLED FIGS, UPC: 896919002026"
Food Group:  Branded Food Products Database
Common Name:

Nutrient,Unit,Data points,Std. Error,"1 Tbsp = 30.0g",1Value per 100 g,
Proximates
"Energy",kcal,--,--,60,200
"Protein",g,--,--,0.00,0.00
"Total lipid (fat)",g,--,--,0.00,0.00
"Carbohydrate, by difference",g,--,--,13.00,43.33
"Sugars, total",g,--,--,7.00,23.33
Minerals
"Iron, Fe",mg,--,--,0.60,2.00
"Sodium, Na",mg,--,--,10,33
Vitamins
Lipids
Amino Acids
Other
Ingredients
"DRIED MISSION FIGS, CANE SUGAR, BALSAMIC VINEGAR (CONTAINS NATURALLY OCCURRING SULFITES), RED WINE, ROSEMARY, SALT." Date available: 06/24/2017 Date last updated by company: 06/24/2017
