Source: USDA Branded Food Products Database Release December 2017 Software v.3.8.6.4 2017-10-02
Report Run at: December 18, 2017 12:25 EST
"Nutrient data for: 45198848, PICKLED EGGS, UPC: 076187449109"
Food Group:  Branded Food Products Database
Common Name:

Nutrient,Unit,Data points,Std. Error,"1 EGG = 45.0g",1Value per 100 g,
Proximates
"Energy",kcal,--,--,63,140
"Protein",g,--,--,6.00,13.33
"Total lipid (fat)",g,--,--,4.00,8.89
"Carbohydrate, by difference",g,--,--,0.00,0.00
"Fiber, total dietary",g,--,--,0.0,0.0
"Sugars, total",g,--,--,0.00,0.00
Minerals
"Calcium, Ca",mg,--,--,20,44
"Iron, Fe",mg,--,--,0.80,1.78
"Sodium, Na",mg,--,--,60,133
Vitamins
"Vitamin C, total ascorbic acid",mg,--,--,0.0,0.0
"Vitamin A, IU",IU,--,--,222,493
Lipids
"Fatty acids, total saturated",g,--,--,1.498,3.330
"Fatty acids, total trans",g,--,--,0.000,0.000
"Cholesterol",mg,--,--,165,367
Amino Acids
Other
Ingredients
"HARD COOKED EGGS, WATER, WHITE DISTILLED VINEGAR, CARROTS, BANANA PEPPERS, SALT, GARLIC, TURMERIC, SODIUM BENZOATE, SODIUM METABISULFITE, YELLOW #5" Date available: 07/14/2017 Date last updated by company: 07/14/2017
