Source: USDA Branded Food Products Database Release December 2017 Software v.3.8.6.4 2017-10-02
Report Run at: December 18, 2017 12:27 EST
"Nutrient data for: 45042028, PICKLED SLICED CARROTS, UPC: 887284010273"
Food Group:  Branded Food Products Database
Common Name:

Nutrient,Unit,Data points,Std. Error,"2.0 Tbsp = 38.0g",1Value per 100 g,
Proximates
"Energy",kcal,--,--,15,39
"Protein",g,--,--,0.00,0.00
"Total lipid (fat)",g,--,--,0.50,1.32
"Carbohydrate, by difference",g,--,--,2.00,5.26
"Fiber, total dietary",g,--,--,1.0,2.6
"Sugars, total",g,--,--,1.00,2.63
Minerals
"Calcium, Ca",mg,--,--,0,0
"Iron, Fe",mg,--,--,3.69,9.72
"Sodium, Na",mg,--,--,330,868
Vitamins
Lipids
"Fatty acids, total saturated",g,--,--,0.000,0.000
"Fatty acids, total trans",g,--,--,0.000,0.000
"Cholesterol",mg,--,--,0,0
Amino Acids
Other
Ingredients
"CARROTS, WATER, VINEGAR, SALT, JALAPENO PAPPERS, ONION, CORN OIL, SUGAR OR HIGH FRUCTOSE CORN SYRUP, SPICES AND GARLIC." Date available: 09/23/2017 Date last updated by company: 09/23/2017
