Source: USDA Branded Food Products Database Release December 2017 Software v.3.8.6.4 2017-10-02
Report Run at: December 18, 2017 12:28 EST
"Nutrient data for: 45082806, PICKLED SWEET SCALLION, UPC: 070864036040"
Food Group:  Branded Food Products Database
Common Name:

Nutrient,Unit,Data points,Std. Error,"3.0 PIECES = 20.0g",1Value per 100 g,
Proximates
"Energy",kcal,--,--,20,100
"Protein",g,--,--,0.00,0.00
"Total lipid (fat)",g,--,--,0.00,0.00
"Carbohydrate, by difference",g,--,--,5.00,25.00
"Fiber, total dietary",g,--,--,1.0,5.0
"Sugars, total",g,--,--,2.00,10.00
Minerals
"Calcium, Ca",mg,--,--,0,0
"Iron, Fe",mg,--,--,0.90,4.50
"Sodium, Na",mg,--,--,140,700
Vitamins
"Vitamin C, total ascorbic acid",mg,--,--,0.0,0.0
"Vitamin A, IU",IU,--,--,0,0
Lipids
"Fatty acids, total saturated",g,--,--,0.000,0.000
"Fatty acids, total trans",g,--,--,0.000,0.000
"Cholesterol",mg,--,--,0,0
Amino Acids
Other
Ingredients
"SCALLION, WATER, SUGAR, CORN SYRUP, VINEGAR, CITRIC ACID, MALIC ACID, ACETIC ACID, MONOSODIUM GLUTAMATE, POTASSIUM SORBATE" Date available: 06/25/2017 Date last updated by company: 06/25/2017
