Source: USDA Branded Food Products Database Release December 2017 Software v.3.8.6.4 2017-10-02
Report Run at: December 18, 2017 12:38 EST
"Nutrient data for: 45191145, PIE, UPC: 070953665014"
Food Group:  Branded Food Products Database
Common Name:

Nutrient,Unit,Data points,Std. Error,"1 PIE = 113.0g",1Value per 100 g,
Proximates
"Energy",kcal,--,--,410,363
"Protein",g,--,--,2.00,1.77
"Total lipid (fat)",g,--,--,17.00,15.04
"Carbohydrate, by difference",g,--,--,61.00,53.98
"Fiber, total dietary",g,--,--,1.0,0.9
"Sugars, total",g,--,--,28.00,24.78
Minerals
"Calcium, Ca",mg,--,--,0,0
"Iron, Fe",mg,--,--,1.20,1.06
"Sodium, Na",mg,--,--,170,150
Vitamins
"Vitamin C, total ascorbic acid",mg,--,--,0.0,0.0
"Vitamin A, IU",IU,--,--,0,0
Lipids
"Fatty acids, total saturated",g,--,--,8.995,7.960
"Fatty acids, total monounsaturated",g,--,--,6.000,5.310
"Fatty acids, total polyunsaturated",g,--,--,1.503,1.330
"Fatty acids, total trans",g,--,--,0.000,0.000
"Cholesterol",mg,--,--,0,0
Amino Acids
Other
Ingredients
"ENRICHED BLEACHED WHEAT FLOUR (BLEACHED FLOUR, MALTED BARLEY FLOUR, NIACIN, REDUCED IRON, THIAMIN MONONITRATE, RIBOFLAVIN, FOLIC ACID), SUGAR, VEGETABLE OIL (CONTAINS ONE OR MORE OF THE FOLLOWING OILS: COTTONSEED OIL, PALM OIL, SOYBEAN OIL), PEACHES, WATER, HIGH FRUCTOSE CORN SYRUP, GLYCERIN, CORN SYRUP, CONTAINS 2% OR LESS OF THE FOLLOWING: MODIFIED CORN STARCH, APPLE POWDER, DEXTROSE, SALT, PRESERVATIVES (POTASSIUM SORBATE, SODIUM PROPIONATE, SODIUM BENZOATE, SULFUR DIOXIDE), SODIUM ALGINATE, SODIUM CITRATE, ADIPIC ACID, AGAR, NATURAL AND ARTIFICIAL FLAVOR, BAKING SODA, CITRIC ACID, CALCIUM CARBONATE, SPICE, DICALCIUM PHOSPHATE, XANTHAN GUM, NON FAT MILK, SOY FLOUR, EGGS." Date available: 07/14/2017 Date last updated by company: 07/14/2017
