Source: USDA Branded Food Products Database Release December 2017 Software v.3.8.6.4 2017-10-02
Report Run at: December 18, 2017 12:35 EST
"Nutrient data for: 45106124, PIE FILLING, UPC: 851141006815"
Food Group:  Branded Food Products Database
Common Name:

Nutrient,Unit,Data points,Std. Error,"0.5 cup = 133.0g",1Value per 100 g,
Proximates
"Energy",kcal,--,--,160,120
"Protein",g,--,--,1.00,0.75
"Total lipid (fat)",g,--,--,0.00,0.00
"Carbohydrate, by difference",g,--,--,40.01,30.08
"Fiber, total dietary",g,--,--,2.0,1.5
"Sugars, total",g,--,--,33.00,24.81
Minerals
"Calcium, Ca",mg,--,--,0,0
"Iron, Fe",mg,--,--,0.47,0.35
"Sodium, Na",mg,--,--,25,19
Vitamins
"Vitamin C, total ascorbic acid",mg,--,--,0.0,0.0
"Vitamin A, IU",IU,--,--,0,0
Lipids
"Fatty acids, total saturated",g,--,--,0.000,0.000
"Fatty acids, total trans",g,--,--,0.000,0.000
"Cholesterol",mg,--,--,0,0
Amino Acids
Other
Ingredients
"TART CHERRIES, CANE SUGAR, NATURAL CORN STARCH, TART CHERRY CONCENTRATE, LEMON JUICE, SALT, SPICES, NUT FREE ALMOND EXTRACT." Date available: 06/25/2017 Date last updated by company: 06/25/2017
