Source: USDA Branded Food Products Database Release December 2017 Software v.3.8.6.4 2017-10-02
Report Run at: December 18, 2017 12:33 EST
"Nutrient data for: 45084637, PIE CRUST, UPC: 041318270174"
Food Group:  Branded Food Products Database
Common Name:

Nutrient,Unit,Data points,Std. Error,"21.0 GRM = 21.0g",1Value per 100 g,
Proximates
"Energy",kcal,--,--,110,524
"Protein",g,--,--,1.00,4.76
"Total lipid (fat)",g,--,--,6.00,28.57
"Carbohydrate, by difference",g,--,--,12.00,57.14
"Fiber, total dietary",g,--,--,0.0,0.0
"Sugars, total",g,--,--,5.00,23.81
Minerals
"Calcium, Ca",mg,--,--,0,0
"Iron, Fe",mg,--,--,0.86,4.08
"Sodium, Na",mg,--,--,70,333
Vitamins
"Vitamin C, total ascorbic acid",mg,--,--,0.0,0.0
"Vitamin A, IU",IU,--,--,0,0
Lipids
"Fatty acids, total saturated",g,--,--,1.499,7.140
"Fatty acids, total trans",g,--,--,3.001,14.290
"Cholesterol",mg,--,--,0,0
Amino Acids
Other
Ingredients
"INGREDIENTS: GRAHAM MEAL (ENRICHED FLOUR [WHEAT FLOUR, NIACIN, REDUCED IRON, THIAMIN MONONITRATE, RIBOFLAVIN, FOLIC ACID], SUGAR, WHOLE WHEAT FLOUR, PARTIALLY HYDROGENATED SOYBEAN OIL, BROWN SUGAR, HIGH FRUCTOSE CORN SYRUP, HONEY, SODIUM BICARBONATE, SALT, MOLASSES, SOY, LECITHIN, MALT SYRUP, ARTIFICIAL FLAVOR), PARTIALLY HYDROGENATED VEGETABLE SHORTENING (CONTAINS SOYBEANS AND/OR COTTONSEED OIL), SUGAR, CORN STARCH, PRESERVATIVES (BHA, TBHQ, CITRIC ACID)" Date available: 06/25/2017 Date last updated by company: 06/25/2017
