Source: USDA Branded Food Products Database Release December 2017 Software v.3.8.6.4 2017-10-02
Report Run at: December 18, 2017 12:33 EST
"Nutrient data for: 45277339, PIE CRUST GRAHAM CRACKER, UPC: 07078446200"
Food Group:  Branded Food Products Database
Common Name:

Nutrient,Unit,Data points,Std. Error,"0.125 OF 9  CRUST = 21.0g",1Value per 100 g,
Proximates
"Energy",kcal,--,--,110,524
"Protein",g,--,--,1.00,4.76
"Total lipid (fat)",g,--,--,6.00,28.57
"Carbohydrate, by difference",g,--,--,12.00,57.14
"Fiber, total dietary",g,--,--,0.0,0.0
"Sugars, total",g,--,--,5.00,23.81
Minerals
"Calcium, Ca",mg,--,--,0,0
"Iron, Fe",mg,--,--,0.86,4.08
"Sodium, Na",mg,--,--,70,333
Vitamins
"Vitamin C, total ascorbic acid",mg,--,--,0.0,0.0
"Vitamin A, IU",IU,--,--,0,0
Lipids
"Fatty acids, total saturated",g,--,--,4.000,19.050
"Fatty acids, total trans",g,--,--,0.000,0.000
"Cholesterol",mg,--,--,0,0
Amino Acids
Other
Ingredients
"GRAHAM CRACKER MEAL (ENRICHED FLOUR [WHEAT FLOUR, NIACIN, REDUCED IRON, THIAMIN MONONITRATE, RIBOFLAVIN, FOLIC ACID], SUGAR, WHOLE WHEAT FLOUR, PALM OIL, HIGH FRUCTOSE CORN SYRUP BROWN SUGAR, HONEY, SODIUM BICARBONATE, MOLASSES, SALT, MALT SYRUP [MALTED BARLEY, CORN], ARTIFICIAL FLAVOR), VEGETABLE SHORTENING (CONTAINS HYDROGENATED PALM KERNEL, PALM OIL, CANOLA OIL), SUGAR, CORNSTARCH." Date available: 07/14/2017 Date last updated by company: 07/14/2017
