Source: USDA Branded Food Products Database Release December 2017 Software v.3.8.6.4 2017-10-02
Report Run at: December 18, 2017 12:35 EST
"Nutrient data for: 45019821, PIE FILLING, UPC: 011150015226"
Food Group:  Branded Food Products Database
Common Name:

Nutrient,Unit,Data points,Std. Error,"0.33 cup = 85.0g",1Value per 100 g,
Proximates
"Energy",kcal,--,--,110,129
"Protein",g,--,--,0.00,0.00
"Total lipid (fat)",g,--,--,0.00,0.00
"Carbohydrate, by difference",g,--,--,26.00,30.59
"Fiber, total dietary",g,--,--,1.0,1.2
"Sugars, total",g,--,--,15.00,17.65
Minerals
"Calcium, Ca",mg,--,--,0,0
"Iron, Fe",mg,--,--,0.00,0.00
"Sodium, Na",mg,--,--,40,47
Vitamins
"Vitamin C, total ascorbic acid",mg,--,--,9.0,10.6
"Vitamin A, IU",IU,--,--,0,0
Lipids
"Fatty acids, total saturated",g,--,--,0.000,0.000
"Fatty acids, total trans",g,--,--,0.000,0.000
"Cholesterol",mg,--,--,0,0
Amino Acids
Other
Ingredients
"SLICED PEACHES, WATER, SUGAR, MODIFIED CORN STARCH, SALT, CITRIC ACID, YELLOW 5, RED 40, ERYTHORBIC ACID (TO PROMOTE COLOR RETENTION)." Date available: 06/25/2017 Date last updated by company: 06/25/2017
