Source: USDA Branded Food Products Database Release December 2017 Software v.3.8.6.4 2017-10-02
Report Run at: December 18, 2017 12:37 EST
"Nutrient data for: 45090102, PIERRE, FRENCH BUTTER COOKIES COATED IN DARK CHOCOLATE, UPC: 080353991491"
Food Group:  Branded Food Products Database
Common Name:

Nutrient,Unit,Data points,Std. Error,"27.0 g = 27.0g",1Value per 100 g,
Proximates
"Energy",kcal,--,--,140,519
"Protein",g,--,--,2.00,7.41
"Total lipid (fat)",g,--,--,7.00,25.93
"Carbohydrate, by difference",g,--,--,18.00,66.67
"Fiber, total dietary",g,--,--,1.0,3.7
"Sugars, total",g,--,--,10.00,37.04
Minerals
"Calcium, Ca",mg,--,--,0,0
"Iron, Fe",mg,--,--,0.67,2.47
"Sodium, Na",mg,--,--,40,148
Vitamins
"Vitamin C, total ascorbic acid",mg,--,--,0.0,0.0
"Vitamin A, IU",IU,--,--,185,685
Lipids
"Fatty acids, total saturated",g,--,--,4.501,16.670
"Fatty acids, total trans",g,--,--,0.000,0.000
"Cholesterol",mg,--,--,15,56
Amino Acids
Other
Ingredients
"DARK CHOCOLATE 40% ( SUGAR, COCOA MASS, COCOA BUTTER, EMULSIFER, SOYA LECTHIN, NATURAL VANILLA FLAVOR), UNBLEACHED WHEAT FLOUR, SUGAR, BUTTER 13%, YOLKS POWDER RAISING AGENT , AMMONIUM HYDROGEN CARBONATE, WHOLE MILK POWDER,SALT" Date available: 06/25/2017 Date last updated by company: 06/25/2017
