Source: USDA Branded Food Products Database Release December 2017 Software v.3.8.6.4 2017-10-02
Report Run at: December 18, 2017 12:41 EST
"Nutrient data for: 45008643, PIK-NIK, SHOESTRING POTATOES, UPC: 074923405013"
Food Group:  Branded Food Products Database
Common Name:

Nutrient,Unit,Data points,Std. Error,"1 CAN = 50.0g",1Value per 100 g,
Proximates
"Energy",kcal,--,--,290,580
"Protein",g,--,--,3.00,6.00
"Total lipid (fat)",g,--,--,19.00,38.00
"Carbohydrate, by difference",g,--,--,25.00,50.00
"Fiber, total dietary",g,--,--,2.0,4.0
"Sugars, total",g,--,--,0.00,0.00
Minerals
"Calcium, Ca",mg,--,--,0,0
"Iron, Fe",mg,--,--,0.00,0.00
"Sodium, Na",mg,--,--,120,240
Vitamins
"Vitamin C, total ascorbic acid",mg,--,--,18.0,36.0
"Vitamin A, IU",IU,--,--,0,0
Lipids
"Fatty acids, total saturated",g,--,--,9.000,18.000
"Fatty acids, total trans",g,--,--,0.000,0.000
"Cholesterol",mg,--,--,0,0
Amino Acids
Other
Ingredients
"FRESH POTATOES, PURE VEGETABLE OIL (CONTAINS ONE OR MORE OF THE FOLLOWING: COTTONSEED OIL, PALM OLEIN OIL, SAFFLOWER OIL), SEA SALT." Date available: 06/24/2017 Date last updated by company: 06/24/2017
