Source: USDA Branded Food Products Database Release December 2017 Software v.3.8.6.4 2017-10-02
Report Run at: December 18, 2017 12:43 EST
"Nutrient data for: 45166834, PIMENTO, SPARKLING DRINK, SPICY GINGER, UPC: 853063005228"
Food Group:  Branded Food Products Database
Common Name:

Nutrient,Unit,Data points,Std. Error,"1 BOTTLE = 250.0g",1Value per 100 g,
Proximates
"Energy",kcal,--,--,70,28
"Protein",g,--,--,0.00,0.00
"Total lipid (fat)",g,--,--,0.00,0.00
"Carbohydrate, by difference",g,--,--,18.00,7.20
"Sugars, total",g,--,--,18.00,7.20
Minerals
"Sodium, Na",mg,--,--,0,0
Vitamins
Lipids
Amino Acids
Other
Ingredients
"CARBONATED WATER, SUGAR, ACIDIFIER: CITRIC ACID, NATURAL FLAVORS, ACESULFAME K, SUCRALOSE, CARAMEL COLOR." Date available: 07/14/2017 Date last updated by company: 07/14/2017
