Source: USDA Branded Food Products Database Release December 2017 Software v.3.8.6.4 2017-10-02
Report Run at: December 18, 2017 12:44 EST
"Nutrient data for: 45255768, PIMIENTO CHEESE, UPC: 851145004015"
Food Group:  Branded Food Products Database
Common Name:

Nutrient,Unit,Data points,Std. Error,"2.0 Tbsp = 30.0g",1Value per 100 g,
Proximates
"Energy",kcal,--,--,100,333
"Protein",g,--,--,4.00,13.33
"Total lipid (fat)",g,--,--,9.00,30.00
"Carbohydrate, by difference",g,--,--,3.00,10.00
"Fiber, total dietary",g,--,--,0.0,0.0
"Sugars, total",g,--,--,1.00,3.33
Minerals
"Calcium, Ca",mg,--,--,100,333
"Iron, Fe",mg,--,--,0.00,0.00
"Sodium, Na",mg,--,--,200,667
Vitamins
"Vitamin C, total ascorbic acid",mg,--,--,4.0,13.3
"Vitamin A, IU",IU,--,--,500,1667
Lipids
"Fatty acids, total saturated",g,--,--,3.999,13.330
"Fatty acids, total trans",g,--,--,0.000,0.000
"Cholesterol",mg,--,--,20,67
Amino Acids
Other
Ingredients
"CAGE-FREE EGG MAYONNAISE (EXPELLER PRESSED CANOLA OIL, CAGE-FREE EGG YOLKS, WATER, HONEY, DISTILLED VINEGAR, CAGE-FREE WHOLE EGG, CONTAINS LESS THAN 2% OF SALT, SPICE, LEMON JUICE CONCENTRATE, TOCOPHEROLS (VITAMIN E)], SHARP WHITE CHEDDAR CHEESE (PASTEURIZED MILK, SALT, ENZYMES, CALCIUM CHLORIDE), HICKORY SMOKED CHEDDAR (CULTURED MILK, WATER, CREAM, SKIM MILK, SODIUM PHOSPHATES, SALT, ENZYMES, VEGETABLE COLOR (ANNATTO AND PAPRIKA BLEND)), CANNED PIMIENTOS (RED PIMIENTOS, WATER, SALT, CITRIC ACID), APPLE CIDER VINEGAR, CULTURED DEXTROSE (TO PROTECT FRESHNESS), BLACK PEPPER, KOSHER SALT." Date available: 07/14/2017 Date last updated by company: 07/14/2017
