Source: USDA Branded Food Products Database Release December 2017 Software v.3.8.6.4 2017-10-02
Report Run at: December 18, 2017 12:45 EST
"Nutrient data for: 45188534, PINA COLADA MIX, UPC: 855048002048"
Food Group:  Branded Food Products Database
Common Name:

Nutrient,Unit,Data points,Std. Error,"4.0 ONZ = 113.0g",1Value per 100 g,
Proximates
"Energy",kcal,--,--,31,27
"Protein",g,--,--,0.00,0.00
"Total lipid (fat)",g,--,--,2.00,1.77
"Carbohydrate, by difference",g,--,--,6.00,5.31
"Fiber, total dietary",g,--,--,0.0,0.0
"Sugars, total",g,--,--,0.00,0.00
Minerals
"Sodium, Na",mg,--,--,20,18
Vitamins
Lipids
"Fatty acids, total saturated",g,--,--,2.000,1.770
"Fatty acids, total trans",g,--,--,0.000,0.000
"Cholesterol",mg,--,--,0,0
Amino Acids
Other
Ingredients
"WATER, GLYCERINE, COCONUT MILK (COCONUT MILK, MALTODEXTRIN, SODIUM CASEINATE), NATURAL AND ARTIFICIAL FLAVORS, CITRIC ACID, XANTHAN GUM, SODIUM BENZOATE, POTASSIUM SORBATE, SUCRALOSE, EXTRA VIRGIN COCONUT OIL." Date available: 05/24/2017 Date last updated by company: 05/24/2017
