Source: USDA Branded Food Products Database Release December 2017 Software v.3.8.6.4 2017-10-02
Report Run at: December 18, 2017 12:53 EST
"Nutrient data for: 45126295, PINEAPPLE SALSA, UPC: 020662000538"
Food Group:  Branded Food Products Database
Common Name:

Nutrient,Unit,Data points,Std. Error,"2.0 Tbsp = 32.0g",1Value per 100 g,
Proximates
"Energy",kcal,--,--,20,62
"Protein",g,--,--,0.00,0.00
"Total lipid (fat)",g,--,--,0.00,0.00
"Carbohydrate, by difference",g,--,--,5.00,15.62
"Fiber, total dietary",g,--,--,1.0,3.1
"Sugars, total",g,--,--,4.00,12.50
Minerals
"Calcium, Ca",mg,--,--,0,0
"Iron, Fe",mg,--,--,0.00,0.00
"Sodium, Na",mg,--,--,135,422
Vitamins
"Vitamin C, total ascorbic acid",mg,--,--,0.0,0.0
"Vitamin A, IU",IU,--,--,313,977
Lipids
"Fatty acids, total saturated",g,--,--,0.000,0.000
"Fatty acids, total trans",g,--,--,0.000,0.000
"Cholesterol",mg,--,--,0,0
Amino Acids
Other
Ingredients
"TOMATO PUREE (WATER, TOMATO PASTE), DICED TOMATOES, CRUSHED PINEAPPLES, JALAPENO PEPPERS, BROWN SUGAR (CANE SUGAR, MOLASSES), SALT, DISTILLED VINEGAR, ONIONS*, NATURAL FLAVORS, ALLSPICE." Date available: 07/14/2017 Date last updated by company: 07/14/2017
