Source: USDA Branded Food Products Database Release December 2017 Software v.3.8.6.4 2017-10-02
Report Run at: December 18, 2017 12:53 EST
"Nutrient data for: 45136467, PINEAPPLE RINGS, UPC: 609207618669"
Food Group:  Branded Food Products Database
Common Name:

Nutrient,Unit,Data points,Std. Error,"1.8 ONZ = 50.0g",1Value per 100 g,
Proximates
"Energy",kcal,--,--,140,280
"Protein",g,--,--,1.00,2.00
"Total lipid (fat)",g,--,--,0.00,0.00
"Carbohydrate, by difference",g,--,--,33.00,66.00
"Fiber, total dietary",g,--,--,3.0,6.0
"Sugars, total",g,--,--,18.00,36.00
Minerals
"Calcium, Ca",mg,--,--,0,0
"Iron, Fe",mg,--,--,0.29,0.58
"Sodium, Na",mg,--,--,10,20
Vitamins
"Vitamin C, total ascorbic acid",mg,--,--,0.9,1.9
"Vitamin A, IU",IU,--,--,0,0
Lipids
"Fatty acids, total saturated",g,--,--,0.000,0.000
"Fatty acids, total trans",g,--,--,0.000,0.000
"Cholesterol",mg,--,--,0,0
Amino Acids
Other
Ingredients
"PINEAPPLE, SUGAR, SULPHUR DIOXIDE (AS A PRESERVATIVE)." Date available: 10/13/2017 Date last updated by company: 10/13/2017
