Source: USDA Branded Food Products Database Release December 2017 Software v.3.8.6.4 2017-10-02
Report Run at: December 18, 2017 12:54 EST
"Nutrient data for: 45220638, PINEAPPLE SLICES IN LIGHT SYRUP, UPC: 642076210039"
Food Group:  Branded Food Products Database
Common Name:

Nutrient,Unit,Data points,Std. Error,"140.0 GRM = 140.0g",1Value per 100 g,
Proximates
"Energy",kcal,--,--,90,64
"Protein",g,--,--,0.00,0.00
"Total lipid (fat)",g,--,--,0.00,0.00
"Carbohydrate, by difference",g,--,--,21.99,15.71
"Fiber, total dietary",g,--,--,1.0,0.7
"Sugars, total",g,--,--,21.00,15.00
Minerals
"Calcium, Ca",mg,--,--,0,0
"Iron, Fe",mg,--,--,0.00,0.00
"Sodium, Na",mg,--,--,10,7
Vitamins
"Vitamin C, total ascorbic acid",mg,--,--,6.0,4.3
"Thiamin",mg,--,--,0.000,0.000
"Riboflavin",mg,--,--,0.000,0.000
"Vitamin A, IU",IU,--,--,0,0
Lipids
"Fatty acids, total saturated",g,--,--,0.000,0.000
"Fatty acids, total trans",g,--,--,0.000,0.000
"Cholesterol",mg,--,--,0,0
Amino Acids
Other
Ingredients
"PINEAPPLE, WATER, SUGAR, CITRIC ACID." Date available: 07/14/2017 Date last updated by company: 07/14/2017
