Source: USDA Branded Food Products Database Release December 2017 Software v.3.8.6.4 2017-10-02
Report Run at: December 18, 2017 12:45 EST
"Nutrient data for: 45284314, PINEAPPLE BANANA KALE SPINACH FRUIT BAR, UPC: 602652241031"
Food Group:  Branded Food Products Database
Common Name:

Nutrient,Unit,Data points,Std. Error,"1 BAR = 35.0g",1Value per 100 g,
Proximates
"Energy",kcal,--,--,110,314
"Protein",g,--,--,1.00,2.86
"Total lipid (fat)",g,--,--,0.00,0.00
"Carbohydrate, by difference",g,--,--,27.00,77.14
"Fiber, total dietary",g,--,--,2.5,7.1
"Sugars, total",g,--,--,18.00,51.43
Minerals
"Calcium, Ca",mg,--,--,20,57
"Iron, Fe",mg,--,--,0.82,2.35
"Potassium, K",mg,--,--,85,243
"Sodium, Na",mg,--,--,45,129
Vitamins
"Vitamin C, total ascorbic acid",mg,--,--,4.1,11.8
"Vitamin A, IU",IU,--,--,0,0
Lipids
"Fatty acids, total saturated",g,--,--,0.000,0.000
"Fatty acids, total monounsaturated",g,--,--,0.000,0.000
"Fatty acids, total polyunsaturated",g,--,--,0.000,0.000
"Fatty acids, total trans",g,--,--,0.000,0.000
"Cholesterol",mg,--,--,0,0
Amino Acids
Other
Ingredients
"PINEAPPLE, BANANA, APPLE, KALE, SPINACH." Date available: 09/25/2017 Date last updated by company: 09/25/2017
