Source: USDA Branded Food Products Database Release December 2017 Software v.3.8.6.4 2017-10-02
Report Run at: December 18, 2017 12:52 EST
"Nutrient data for: 45289935, PINEAPPLE NECTAR FROM CONCENTRATE, UPC: 076406065851"
Food Group:  Branded Food Products Database
Common Name:

Nutrient,Unit,Data points,Std. Error,"1 cup = 240.0g",1Value per 100 g,
Proximates
"Energy",kcal,--,--,101,42
"Protein",g,--,--,0.00,0.00
"Total lipid (fat)",g,--,--,0.00,0.00
"Carbohydrate, by difference",g,--,--,24.00,10.00
"Fiber, total dietary",g,--,--,0.0,0.0
"Sugars, total",g,--,--,24.00,10.00
Minerals
"Calcium, Ca",mg,--,--,41,17
"Iron, Fe",mg,--,--,0.72,0.30
"Sodium, Na",mg,--,--,36,15
Vitamins
"Vitamin C, total ascorbic acid",mg,--,--,0.0,0.0
"Vitamin A, IU",IU,--,--,0,0
Lipids
"Fatty acids, total saturated",g,--,--,0.000,0.000
"Fatty acids, total monounsaturated",g,--,--,0.000,0.000
"Fatty acids, total polyunsaturated",g,--,--,0.000,0.000
"Fatty acids, total trans",g,--,--,0.000,0.000
"Cholesterol",mg,--,--,0,0
Amino Acids
Other
Ingredients
"WATER, PINEAPPLE PUREE FROM CONCENTRATE, SUGAR AND/OR HIGH FRUCTOSE CORN SYRUP, CITRIC ACID, ASCORBIC ACID (PRESERVATIVE) AND SUCRALOSE." Date available: 07/14/2017 Date last updated by company: 07/14/2017
