Source: USDA Branded Food Products Database Release December 2017 Software v.3.8.6.4 2017-10-02
Report Run at: December 18, 2017 13:02 EST
"Nutrient data for: 45236762, PINK LEMONADE, UPC: 831134002079"
Food Group:  Branded Food Products Database
Common Name:

Nutrient,Unit,Data points,Std. Error,"8.0 OZA = 240.0g",1Value per 100 g,
Proximates
"Energy",kcal,--,--,120,50
"Protein",g,--,--,0.00,0.00
"Total lipid (fat)",g,--,--,0.00,0.00
"Carbohydrate, by difference",g,--,--,31.99,13.33
"Fiber, total dietary",g,--,--,0.0,0.0
"Sugars, total",g,--,--,28.01,11.67
Minerals
"Calcium, Ca",mg,--,--,0,0
"Iron, Fe",mg,--,--,1.08,0.45
"Sodium, Na",mg,--,--,10,4
Vitamins
"Vitamin C, total ascorbic acid",mg,--,--,0.0,0.0
"Vitamin A, IU",IU,--,--,0,0
Lipids
"Fatty acids, total saturated",g,--,--,0.000,0.000
"Cholesterol",mg,--,--,0,0
Amino Acids
Other
Ingredients
"WATER, CANE SUGAR, 400 GPL LEMON JUICE CONCENTRATE, LEMON PULP, NATURAL FLAVORS, CITRIC ACID, NATURAL COLOR, AND LESS THAN .1% POTASSIUM SORBATE." Date available: 06/25/2017 Date last updated by company: 06/25/2017
