Source: USDA Branded Food Products Database Release December 2017 Software v.3.8.6.4 2017-10-02
Report Run at: December 18, 2017 13:02 EST
"Nutrient data for: 45331883, PINK LEMONADE, UPC: 831134002154"
Food Group:  Branded Food Products Database
Common Name:

Nutrient,Unit,Data points,Std. Error,"12.0 OZA = 355.0g",1Value per 100 g,
Proximates
"Energy",kcal,--,--,170,48
"Protein",g,--,--,0.00,0.00
"Total lipid (fat)",g,--,--,0.00,0.00
"Carbohydrate, by difference",g,--,--,42.00,11.83
"Fiber, total dietary",g,--,--,0.0,0.0
"Sugars, total",g,--,--,40.01,11.27
Minerals
"Calcium, Ca",mg,--,--,0,0
"Iron, Fe",mg,--,--,0.75,0.21
"Sodium, Na",mg,--,--,11,3
Vitamins
"Vitamin D",IU,--,--,0,0
Lipids
"Fatty acids, total saturated",g,--,--,0.000,0.000
"Fatty acids, total trans",g,--,--,0.000,0.000
"Cholesterol",mg,--,--,0,0
Amino Acids
Other
Ingredients
"WATER, CANE SUGAR, LEMON JUICE CONCENTRATE, CITRIC ACID, NATURAL FLAVORS, CITRUS PECTIN, NATURAL COLORS, AND LESS THAN .1% POTASSIUM SORBATE FOR FRESHNESS." Date available: 10/04/2017 Date last updated by company: 10/04/2017
