Source: USDA Branded Food Products Database Release December 2017 Software v.3.8.6.4 2017-10-02
Report Run at: December 18, 2017 13:02 EST
"Nutrient data for: 45326599, PINK LEMONADE, UPC: 831134002123"
Food Group:  Branded Food Products Database
Common Name:

Nutrient,Unit,Data points,Std. Error,"16.0 ONZ = 473.0g",1Value per 100 g,
Proximates
"Energy",kcal,--,--,227,48
"Protein",g,--,--,6.01,1.27
"Total lipid (fat)",g,--,--,0.00,0.00
"Carbohydrate, by difference",g,--,--,56.00,11.84
"Fiber, total dietary",g,--,--,0.0,0.0
"Sugars, total",g,--,--,53.02,11.21
Minerals
"Calcium, Ca",mg,--,--,0,0
"Iron, Fe",mg,--,--,0.00,0.00
"Sodium, Na",mg,--,--,33,7
Vitamins
"Vitamin D",IU,--,--,0,0
Lipids
"Fatty acids, total saturated",g,--,--,0.000,0.000
"Fatty acids, total trans",g,--,--,0.000,0.000
"Cholesterol",mg,--,--,0,0
Amino Acids
Other
Ingredients
"WATER, FRESH SQUEEZED LEMON JUICE, CANE SUGAR, NATURAL COLOR." Date available: 10/13/2017 Date last updated by company: 10/13/2017
