Source: USDA Branded Food Products Database Release December 2017 Software v.3.8.6.4 2017-10-02
Report Run at: December 18, 2017 13:10 EST
"Nutrient data for: 45206045, PINT OF ARTISAN GELATO, UPC: 855769005151"
Food Group:  Branded Food Products Database
Common Name:

Nutrient,Unit,Data points,Std. Error,"0.5 cup = 118.0g",1Value per 100 g,
Proximates
"Energy",kcal,--,--,120,102
"Protein",g,--,--,1.99,1.69
"Total lipid (fat)",g,--,--,0.00,0.00
"Carbohydrate, by difference",g,--,--,15.00,12.71
"Fiber, total dietary",g,--,--,3.0,2.5
"Sugars, total",g,--,--,25.00,21.19
Minerals
"Calcium, Ca",mg,--,--,80,68
"Iron, Fe",mg,--,--,0.00,0.00
"Sodium, Na",mg,--,--,0,0
Vitamins
"Vitamin C, total ascorbic acid",mg,--,--,0.0,0.0
"Vitamin A, IU",IU,--,--,225,191
Lipids
"Fatty acids, total saturated",g,--,--,0.000,0.000
"Cholesterol",mg,--,--,0,0
Amino Acids
Other
Ingredients
"BANANAS, WATER, PURE CANE SUGAR, DEXTROSE, LESS THAN 1% LOCUST BEAN AND GUM, GUAR GUM" Date available: 10/13/2017 Date last updated by company: 10/13/2017
