Source: USDA Branded Food Products Database Release December 2017 Software v.3.8.6.4 2017-10-02
Report Run at: December 18, 2017 13:09 EST
"Nutrient data for: 45331712, PINTO BEANS, UPC: 075450011449"
Food Group:  Branded Food Products Database
Common Name:

Nutrient,Unit,Data points,Std. Error,"0.5 cup = 130.0g",1Value per 100 g,
Proximates
"Energy",kcal,--,--,110,85
"Protein",g,--,--,6.99,5.38
"Total lipid (fat)",g,--,--,0.00,0.00
"Carbohydrate, by difference",g,--,--,19.01,14.62
"Fiber, total dietary",g,--,--,8.1,6.2
"Sugars, total",g,--,--,1.00,0.77
Minerals
"Calcium, Ca",mg,--,--,75,58
"Iron, Fe",mg,--,--,1.60,1.23
"Sodium, Na",mg,--,--,410,315
Vitamins
"Vitamin D",IU,--,--,0,0
Lipids
"Fatty acids, total saturated",g,--,--,0.000,0.000
"Fatty acids, total trans",g,--,--,0.000,0.000
"Cholesterol",mg,--,--,0,0
Amino Acids
Other
Ingredients
"PREPARED PINTO BEANS, WATER, SALT, CALCIUM CHLORIDE (FIRMING AGENT), CALCIUM DISODIUM EDTA (TO PROTECT COLOR)." Date available: 10/13/2017 Date last updated by company: 10/13/2017
