Source: USDA Branded Food Products Database Release December 2017 Software v.3.8.6.4 2017-10-02
Report Run at: December 18, 2017 13:10 EST
"Nutrient data for: 45079131, PIQUANT & CRUNCHY CORNICHONS, UPC: 041253002007"
Food Group:  Branded Food Products Database
Common Name:

Nutrient,Unit,Data points,Std. Error,"1 ONZ = 29.0g",1Value per 100 g,
Proximates
"Energy",kcal,--,--,5,17
"Protein",g,--,--,0.00,0.00
"Total lipid (fat)",g,--,--,0.00,0.00
"Carbohydrate, by difference",g,--,--,0.00,0.00
"Fiber, total dietary",g,--,--,0.0,0.0
"Sugars, total",g,--,--,0.00,0.00
Minerals
"Calcium, Ca",mg,--,--,0,0
"Iron, Fe",mg,--,--,0.00,0.00
"Sodium, Na",mg,--,--,110,379
Vitamins
"Vitamin C, total ascorbic acid",mg,--,--,0.0,0.0
"Vitamin A, IU",IU,--,--,0,0
Lipids
"Fatty acids, total saturated",g,--,--,0.000,0.000
"Fatty acids, total trans",g,--,--,0.000,0.000
"Cholesterol",mg,--,--,0,0
Amino Acids
Other
Ingredients
"CORNICHONS, WATER, VINEGAR, SALT, SUGAR, SPICES (MUSTARD, OREGANO, DILL), ACIDIFIER: LACTIC ACID, ANTIOXIDANT: SODIUM METABISULFITE." Date available: 06/24/2017 Date last updated by company: 06/24/2017
