Source: USDA Branded Food Products Database Release December 2017 Software v.3.8.6.4 2017-10-02
Report Run at: December 18, 2017 13:11 EST
"Nutrient data for: 45146709, PIRULETA, LOLLIPOPS & CANDY POWDER, UPC: 812999014520"
Food Group:  Branded Food Products Database
Common Name:

Nutrient,Unit,Data points,Std. Error,"1 PIECE = 11.0g",1Value per 100 g,
Proximates
"Energy",kcal,--,--,40,364
"Protein",g,--,--,0.00,0.00
"Total lipid (fat)",g,--,--,0.00,0.00
"Carbohydrate, by difference",g,--,--,10.00,90.91
"Sugars, total",g,--,--,10.00,90.91
Minerals
"Sodium, Na",mg,--,--,18,164
Vitamins
Lipids
"Fatty acids, total saturated",g,--,--,0.000,0.000
"Fatty acids, total trans",g,--,--,0.000,0.000
Amino Acids
Other
Ingredients
"INGREDIENTS CANDY POWDER: SUGAR, CITRIC ACID, CALCIUM STEARATE, SALT, SILICON DIOXIDE, ARTIFICIAL FLAVORS (PINEAPPLE, CHERRY, BUBBLE GUM AND BLUEBERRY), ARTIFICIAL COLORS FD&C: RED 40, RED 3, YELLOW 5, BLUE 1 AND BLUE 2., INGREDIENTS LOLLIPOP: SUGAR, GLUCOSE, CITRIC ACID, ARTIFICIAL FLAVORS (PINEAPPLE, CHERRY, BUBBLE GUM AND BLUE BERRY), TITANIUM DIOXIDE, ARTIFICIAL COLORS FD&C: RED 40, RED 3 YELLOW 5 AND BLUE 2" Date available: 07/14/2017 Date last updated by company: 07/14/2017
