Source: USDA Branded Food Products Database Release December 2017 Software v.3.8.6.4 2017-10-02
Report Run at: December 18, 2017 13:11 EST
"Nutrient data for: 45162446, PISELLI, ICLASSICI CHOCOLATE BISCUIT, COCOA & HAZELNUTS, UPC: 032755321093"
Food Group:  Branded Food Products Database
Common Name:

Nutrient,Unit,Data points,Std. Error,"5.0 COOKIES) | (ABOUT = 45.0g",1Value per 100 g,
Proximates
"Energy",kcal,--,--,222,493
"Protein",g,--,--,4.00,8.89
"Total lipid (fat)",g,--,--,10.00,22.22
"Carbohydrate, by difference",g,--,--,29.00,64.44
"Fiber, total dietary",g,--,--,1.0,2.2
"Sugars, total",g,--,--,10.00,22.22
Minerals
"Calcium, Ca",mg,--,--,10,22
"Iron, Fe",mg,--,--,1.20,2.67
"Sodium, Na",mg,--,--,83,184
Vitamins
"Vitamin C, total ascorbic acid",mg,--,--,0.0,0.0
"Vitamin A, IU",IU,--,--,0,0
Lipids
"Fatty acids, total saturated",g,--,--,5.000,11.110
"Fatty acids, total trans",g,--,--,0.000,0.000
"Cholesterol",mg,--,--,5,11
Amino Acids
Other
Ingredients
"WHEAT FLOUR (CONTAINS GLUTEN), SUGAR (OF WHICH SUGAR 1,3% FOR TOPPING), HYDROGENATED VEGETABLE FAT (PALM OIL), CACAO POWDER 4,0%, EGGS, CHOCOLATE (SUGAR, COCOA MASS, COCOA BUTTER - COCOA 52% -, EMULSIFIER: SOY LECITHIN, FLAVOURINGS), BUTTER (CONTAIN MILK), RAISING AGENTS: SODIUM HUDROGEN CARBONATE, AMMONIUM HYDROGEN CARBONATE, MONOPOTASSIUM TARTRATE, SKIM MILK POWDER, HAZELNUT PASTE 0,3%, SALT, FLAVOURINGS, POWDERED EGG WHITE, CORN STARCH." Date available: 07/14/2017 Date last updated by company: 07/14/2017
