Source: USDA Branded Food Products Database Release December 2017 Software v.3.8.6.4 2017-10-02
Report Run at: December 18, 2017 13:12 EST
"Nutrient data for: 45324829, PISTACHIO NUTS, UPC: 088401240959"
Food Group:  Branded Food Products Database
Common Name:

Nutrient,Unit,Data points,Std. Error,"3.0 Tbsp = 30.0g",1Value per 100 g,
Proximates
"Energy",kcal,--,--,153,510
"Protein",g,--,--,4.00,13.33
"Total lipid (fat)",g,--,--,10.00,33.33
"Carbohydrate, by difference",g,--,--,15.00,50.00
"Fiber, total dietary",g,--,--,2.0,6.7
"Sugars, total",g,--,--,8.00,26.67
Minerals
"Calcium, Ca",mg,--,--,20,67
"Iron, Fe",mg,--,--,1.50,5.00
"Sodium, Na",mg,--,--,61,203
Vitamins
"Vitamin C, total ascorbic acid",mg,--,--,1.0,3.3
"Vitamin A, IU",IU,--,--,0,0
Lipids
"Fatty acids, total saturated",g,--,--,3.000,10.000
"Fatty acids, total trans",g,--,--,0.000,0.000
"Cholesterol",mg,--,--,0,0
Amino Acids
Other
Ingredients
"ROASTED, SALTED ALMONDS, ROASTED, SALTED PEANUTS, CHOCOLATE CHUNKS (SUGAR, CHOCOLATE LIQUOR, COCOA BUTTER, DEXTROSE, SOY LECITHIN (AN EMULSIFIER) VANILLIN), MARSHMALLOW DROPS (SUGAR, VEGETABLE FAT (PALM KERNEL AND/OR PALM) MALTODEXTRIN, NONFAT DRY MILK, SOY LECITHIN (AN EMULSIFIER), NATURAL FLAVOR(S), MINI CINNAMON GRAHAM CRACKERS (WHOLE WHEAT FLOUR, BLEACHED ENRICHED FLOUR (BLEACHED WHEAT FLOUR, NIACIN, REDUCED IRON, THIAMINE MONONITRATE, (VITAMIN B1), RIBOFLAVIN (VITAMIN B2), FOLIC ACID), SUGAR, SAFFLOWER OIL, INVERT SUGAR, BROWN SUGAR, CINNAMON, SOY LECITHIN, LEAVENINGS (SODIUM BICARBONATE, AMMONIUM BICARBONATE, MONOCALCIUM PHOSPHATE), SALT, NATURAL FLAVOR, DEXTROSE, EGG WHITES." Date available: 08/10/2017 Date last updated by company: 08/10/2017
