Source: USDA Branded Food Products Database Release December 2017 Software v.3.8.6.4 2017-10-02
Report Run at: December 18, 2017 13:18 EST
"Nutrient data for: 45267827, PITTED, HUNGARIAN SWEET CHERRIES, CERISES, DOUCES, UPC: 710069001176"
Food Group:  Branded Food Products Database
Common Name:

Nutrient,Unit,Data points,Std. Error,"0.5 cup = 114.0g",1Value per 100 g,
Proximates
"Energy",kcal,--,--,80,70
"Total lipid (fat)",g,--,--,0.00,0.00
"Carbohydrate, by difference",g,--,--,21.00,18.42
"Sugars, total",g,--,--,4.00,3.51
Minerals
"Iron, Fe",mg,--,--,0.00,0.00
"Sodium, Na",mg,--,--,5,4
Vitamins
"Vitamin C, total ascorbic acid",mg,--,--,5.9,5.2
Lipids
"Fatty acids, total saturated",g,--,--,0.000,0.000
"Fatty acids, total trans",g,--,--,0.000,0.000
Amino Acids
Other
Ingredients
"SWEET CHERRIES, WATER, SUGAR, CITRIC ACID." Date available: 10/19/2017 Date last updated by company: 10/19/2017
