Source: USDA Branded Food Products Database Release December 2017 Software v.3.8.6.4 2017-10-02
Report Run at: December 18, 2017 13:17 EST
"Nutrient data for: 45051311, PITTED DRIED PLUMS, UPC: 071022125033"
Food Group:  Branded Food Products Database
Common Name:

Nutrient,Unit,Data points,Std. Error,"0.75 PRUNES = 40.0g",1Value per 100 g,
Proximates
"Energy",kcal,--,--,100,250
"Protein",g,--,--,1.00,2.50
"Total lipid (fat)",g,--,--,0.00,0.00
"Carbohydrate, by difference",g,--,--,25.00,62.50
"Fiber, total dietary",g,--,--,3.0,7.5
"Sugars, total",g,--,--,13.00,32.50
Minerals
"Calcium, Ca",mg,--,--,0,0
"Iron, Fe",mg,--,--,0.00,0.00
"Magnesium, Mg",mg,--,--,8,20
"Phosphorus, P",mg,--,--,20,50
"Potassium, K",mg,--,--,180,450
"Sodium, Na",mg,--,--,0,0
"Copper, Cu",mg,--,--,0.080,0.200
"Manganese, Mn",mg,--,--,0.000,0.000
Vitamins
"Vitamin C, total ascorbic acid",mg,--,--,0.0,0.0
"Niacin",mg,--,--,0.800,2.000
"Pantothenic acid",mg,--,--,0.200,0.500
"Vitamin B-6",mg,--,--,0.120,0.300
"Vitamin A, IU",IU,--,--,750,1875
Lipids
"Fatty acids, total saturated",g,--,--,0.000,0.000
"Fatty acids, total trans",g,--,--,0.000,0.000
"Cholesterol",mg,--,--,0,0
Amino Acids
Other
Ingredients
"PITTED PRUNES (DRIED PLUMS), SUNFLOWER OIL, POTASSIUM SORBATE ADDED AS A PRESERVATIVE." Date available: 06/25/2017 Date last updated by company: 06/25/2017
