Source: USDA Branded Food Products Database Release December 2017 Software v.3.8.6.4 2017-10-02
Report Run at: December 18, 2017 13:19 EST
"Nutrient data for: 45291182, PITTED KALAMATA OLIVES, UPC: 607959701004"
Food Group:  Branded Food Products Database
Common Name:

Nutrient,Unit,Data points,Std. Error,"6.0 OLIVES = 15.0g",1Value per 100 g,
Proximates
"Energy",kcal,--,--,35,233
"Protein",g,--,--,1.00,6.67
"Total lipid (fat)",g,--,--,3.50,23.33
"Carbohydrate, by difference",g,--,--,0.00,0.00
"Sugars, total",g,--,--,0.00,0.00
Minerals
"Calcium, Ca",mg,--,--,20,133
"Iron, Fe",mg,--,--,1.20,8.00
"Sodium, Na",mg,--,--,130,867
Vitamins
"Vitamin C, total ascorbic acid",mg,--,--,0.0,0.0
"Vitamin A, IU",IU,--,--,0,0
Lipids
"Fatty acids, total saturated",g,--,--,0.500,3.330
"Fatty acids, total trans",g,--,--,0.000,0.000
Amino Acids
Other
Ingredients
"PITTED KALAMATA OLIVES, SEA SALT, VINEGAR, EXTRA VIRGIN OLIVE OIL." Date available: 07/14/2017 Date last updated by company: 07/14/2017
