Source: USDA Branded Food Products Database Release December 2017 Software v.3.8.6.4 2017-10-02
Report Run at: December 18, 2017 13:22 EST
"Nutrient data for: 45320312, PIXY STIX, CANDY FILLED FUN STRAWS, GRAPE, MAUI PUNCH, CHERRY, ORANGE, UPC: 079200115500"
Food Group:  Branded Food Products Database
Common Name:

Nutrient,Unit,Data points,Std. Error,"7.0 STRAWAS = 16.0g",1Value per 100 g,
Proximates
"Energy",kcal,--,--,60,375
"Protein",g,--,--,0.00,0.00
"Total lipid (fat)",g,--,--,0.00,0.00
"Carbohydrate, by difference",g,--,--,15.00,93.75
"Sugars, total",g,--,--,15.00,93.75
Minerals
"Sodium, Na",mg,--,--,0,0
Vitamins
Lipids
Amino Acids
Other
Ingredients
"DEXTROSE, MALTODEXTRIN, CITRIC ACID, AND LESS THAN 2% OF NATURAL FLAVORS, BLUE 1 LAKE, BLUE 2 LAKE, RED 40 LAKE, YELLOW 5 LAKE, YELLOW 6 LAKE." Date available: 07/14/2017 Date last updated by company: 07/14/2017
