Source: USDA Branded Food Products Database Release December 2017 Software v.3.8.6.4 2017-10-02
Report Run at: December 18, 2017 13:23 EST
"Nutrient data for: 45058613, PIZZA CRUST MIX, UPC: 071518021153"
Food Group:  Branded Food Products Database
Common Name:

Nutrient,Unit,Data points,Std. Error,"57.0 GRM = 57.0g",1Value per 100 g,
Proximates
"Energy",kcal,--,--,192,337
"Protein",g,--,--,3.00,5.26
"Total lipid (fat)",g,--,--,1.00,1.75
"Carbohydrate, by difference",g,--,--,45.00,78.95
"Fiber, total dietary",g,--,--,1.7,3.0
"Sugars, total",g,--,--,1.00,1.75
Minerals
"Calcium, Ca",mg,--,--,0,0
"Iron, Fe",mg,--,--,0.47,0.83
"Sodium, Na",mg,--,--,288,505
Vitamins
"Vitamin C, total ascorbic acid",mg,--,--,0.0,0.0
"Vitamin A, IU",IU,--,--,0,0
Lipids
"Fatty acids, total saturated",g,--,--,0.502,0.880
"Fatty acids, total trans",g,--,--,0.000,0.000
"Cholesterol",mg,--,--,0,0
Amino Acids
Other
Ingredients
"INGREDIENTS: BROWN RICE FLOUR, POTATO STARCH, TAPIOCA STARCH, YELLOW CORN MEAL, SUGAR, XANTHAN GUM, FLAKE SALT" Date available: 06/24/2017 Date last updated by company: 06/24/2017
