Source: USDA Branded Food Products Database Release December 2017 Software v.3.8.6.4 2017-10-02
Report Run at: December 18, 2017 13:27 EST
"Nutrient data for: 45082127, PIZZA SAUCE, UPC: 024000347965"
Food Group:  Branded Food Products Database
Common Name:

Nutrient,Unit,Data points,Std. Error,"0.25 cup = 63.0g",1Value per 100 g,
Proximates
"Energy",kcal,--,--,40,63
"Protein",g,--,--,1.00,1.59
"Total lipid (fat)",g,--,--,0.50,0.79
"Carbohydrate, by difference",g,--,--,7.00,11.11
"Fiber, total dietary",g,--,--,1.0,1.6
"Sugars, total",g,--,--,4.00,6.35
Minerals
"Calcium, Ca",mg,--,--,20,32
"Iron, Fe",mg,--,--,0.76,1.21
"Potassium, K",mg,--,--,220,349
"Sodium, Na",mg,--,--,320,508
Vitamins
"Vitamin C, total ascorbic acid",mg,--,--,19.0,30.2
"Vitamin A, IU",IU,--,--,634,1006
Lipids
"Fatty acids, total saturated",g,--,--,0.000,0.000
"Fatty acids, total trans",g,--,--,0.000,0.000
"Cholesterol",mg,--,--,0,0
Amino Acids
Other
Ingredients
"TOMATO PUREE (WATER, TOMATO PASTE), HIGH FRUCTOSE CORN SYRUP, PEPPERONI (PORK, BEEF, SALT, OLEORESIN OF PAPRIKA, NATURAL FLAVOR, LACTIC ACID STARTER CULTURE, SPICE, SODIUM ASCORBATE, SODIUM NITRATE, BHT, BHA, CITRIC ACID), SALT, MODIFIED FOOD STARCH (CORN), SPICES, ONION POWDER, SOYBEAN OIL, CARROT FIBER, CITRIC ACID, GARLIC POWDER, NATURAL FLAVOR." Date available: 07/14/2017 Date last updated by company: 07/14/2017
