Source: USDA Branded Food Products Database Release December 2017 Software v.3.8.6.4 2017-10-02
Report Run at: December 18, 2017 13:33 EST
"Nutrient data for: 45018050, PIZZELLE DI NONNA, ITALIAN WAFFLE COOKIE, LEMON, UPC: 051045000500"
Food Group:  Branded Food Products Database
Common Name:

Nutrient,Unit,Data points,Std. Error,"6.0 COOKIES = 30.0g",1Value per 100 g,
Proximates
"Energy",kcal,--,--,140,467
"Protein",g,--,--,3.00,10.00
"Total lipid (fat)",g,--,--,6.00,20.00
"Carbohydrate, by difference",g,--,--,19.00,63.33
"Fiber, total dietary",g,--,--,0.0,0.0
"Sugars, total",g,--,--,8.00,26.67
Minerals
"Calcium, Ca",mg,--,--,0,0
"Iron, Fe",mg,--,--,2.04,6.80
"Sodium, Na",mg,--,--,25,83
Vitamins
"Vitamin C, total ascorbic acid",mg,--,--,0.0,0.0
"Vitamin A, IU",IU,--,--,0,0
Lipids
"Fatty acids, total saturated",g,--,--,0.501,1.670
"Fatty acids, total trans",g,--,--,0.000,0.000
"Cholesterol",mg,--,--,30,100
Amino Acids
Other
Ingredients
"FLOUR, SUGAR, LIQUID WHOLE EGG, CANOLA OIL, SOY LECITHIN, CARAMEL (COLOR AGENT), LEMON FLAVOR, BAKING POWDER, SALT." Date available: 07/14/2017 Date last updated by company: 07/14/2017
