Source: USDA Branded Food Products Database Release December 2017 Software v.3.8.6.4 2017-10-02
Report Run at: December 18, 2017 13:25 EST
"Nutrient data for: 45281246, PIZZA DOUGH, UPC: 688267069710"
Food Group:  Branded Food Products Database
Common Name:

Nutrient,Unit,Data points,Std. Error,"0.125 OF DOUGH = 57.0g",1Value per 100 g,
Proximates
"Energy",kcal,--,--,130,228
"Protein",g,--,--,5.00,8.77
"Total lipid (fat)",g,--,--,1.00,1.75
"Carbohydrate, by difference",g,--,--,25.00,43.86
"Fiber, total dietary",g,--,--,1.0,1.8
"Sugars, total",g,--,--,1.00,1.75
Minerals
"Calcium, Ca",mg,--,--,0,0
"Iron, Fe",mg,--,--,1.74,3.05
"Sodium, Na",mg,--,--,300,526
Vitamins
"Vitamin C, total ascorbic acid",mg,--,--,0.0,0.0
"Vitamin A, IU",IU,--,--,0,0
Lipids
"Fatty acids, total saturated",g,--,--,0.000,0.000
"Fatty acids, total monounsaturated",g,--,--,0.000,0.000
"Fatty acids, total polyunsaturated",g,--,--,0.502,0.880
"Fatty acids, total trans",g,--,--,0.000,0.000
"Cholesterol",mg,--,--,0,0
Amino Acids
Other
Ingredients
"UNBLEACHED ENRICHED WHEAT FLOUR (WHEAT FLOUR, NIACIN, IRON, THIAMIN MONONITRATE, RIBOFLAVIN, FOLIC ACID), WATER, YEAST, DOUGH CONDITIONER (SALT, PALM OIL, DEXTROSE, WHEAT FLOUR, SOYBEAN OIL, MONO AND DIGLYCERIDES, ASCORBIC ACID, L-CYSTEINE), SOYBEAN OIL, SUGAR, SALT." Date available: 09/16/2017 Date last updated by company: 09/16/2017
