Source: USDA Branded Food Products Database Release December 2017 Software v.3.8.6.4 2017-10-02
Report Run at: December 18, 2017 13:29 EST
"Nutrient data for: 45190928, PIZZA, UPC: 049022895706"
Food Group:  Branded Food Products Database
Common Name:

Nutrient,Unit,Data points,Std. Error,"0.333 PIZZA = 137.0g",1Value per 100 g,
Proximates
"Energy",kcal,--,--,340,248
"Protein",g,--,--,16.00,11.68
"Total lipid (fat)",g,--,--,18.00,13.14
"Carbohydrate, by difference",g,--,--,29.00,21.17
"Fiber, total dietary",g,--,--,2.1,1.5
"Sugars, total",g,--,--,3.00,2.19
Minerals
"Calcium, Ca",mg,--,--,300,219
"Iron, Fe",mg,--,--,1.53,1.12
"Sodium, Na",mg,--,--,749,547
Vitamins
"Vitamin C, total ascorbic acid",mg,--,--,5.1,3.7
"Vitamin A, IU",IU,--,--,427,312
Lipids
"Fatty acids, total saturated",g,--,--,8.001,5.840
"Fatty acids, total trans",g,--,--,0.000,0.000
"Cholesterol",mg,--,--,30,22
Amino Acids
Other
Ingredients
"TOPPINGS: SAUCE (WATER, TOMATO PASTE, SOYBEAN OIL, MODIFIED FOOD STARCH, SALT, SPICES, SEASONING [SALT, PAPRIKA, SPICES, ONION POWDER, GARLIC POWDER, PARMESAN CHEESE {PASTEURIZED CULTURED PART-SKIM MILK, SALT, ENZYMES}], GARLIC POWDER, XANTHAN GUM), LOW MOISTURE PART-SKIM MOZZARELLA CHEESE (PASTEURIZED PART-SKIM MILK, CHEESE CULTURES, SALT, ENZYMES), COOKED ITALIAN STYLE PIZZA TOPPING (SAUSAGE [PORK, MECHANICALLY SEPARATED CHICKEN, SPICES, SALT, WATER, SUGAR, PAPRIKA, FLAVORINGS, SODIUM PHOSPHATES], WATER, TEXTURED VEGETABLE PROTEIN [SOY FLOUR, SOY PROTEIN CONCENTRATE, CARAMEL COLOR]), PEPPERONI MADE WITH PORK, CHICKEN AND BEEF (PORK, MECHANICALLY SEPARATED CHICKEN, BEEF, SALT, SPICES, DEXTROSE, LACTIC ACID STARTER CULTURE, OLEORESIN PAPRIKA, SODIUM ASCORBATE, FLAVORING, SODIUM NITRITE, BHA, BHT, CITRIC ACID). CRUST: WHEAT FLOUR, WATER, SOYBEAN OIL, PALM OIL, YEAST, WHEAT PROTEIN ISOLATE (WHEAT GLUTEN, LACTIC ACID), WHITE CORN MEAL, NATURAL FLAVOR, BETA CAROTENE (COLOR), DEXTROSE, SALT." Date available: 07/14/2017 Date last updated by company: 07/14/2017
