Source: USDA Branded Food Products Database Release December 2017 Software v.3.8.6.4 2017-10-02
Report Run at: December 18, 2017 13:31 EST
"Nutrient data for: 45214504, PIZZA, UPC: 051022605056"
Food Group:  Branded Food Products Database
Common Name:

Nutrient,Unit,Data points,Std. Error,"1 PIZZA = 147.0g",1Value per 100 g,
Proximates
"Energy",kcal,--,--,360,245
"Protein",g,--,--,11.00,7.48
"Total lipid (fat)",g,--,--,14.99,10.20
"Carbohydrate, by difference",g,--,--,47.00,31.97
"Fiber, total dietary",g,--,--,2.1,1.4
"Sugars, total",g,--,--,3.00,2.04
Minerals
"Calcium, Ca",mg,--,--,150,102
"Iron, Fe",mg,--,--,3.59,2.44
"Sodium, Na",mg,--,--,600,408
Vitamins
"Vitamin C, total ascorbic acid",mg,--,--,6.3,4.3
"Vitamin A, IU",IU,--,--,132,90
Lipids
"Fatty acids, total saturated",g,--,--,4.998,3.400
"Fatty acids, total monounsaturated",g,--,--,4.498,3.060
"Fatty acids, total polyunsaturated",g,--,--,3.499,2.380
"Fatty acids, total trans",g,--,--,0.000,0.000
"Cholesterol",mg,--,--,4,3
Amino Acids
Other
Ingredients
"CRUST: ENRICHED FLOUR (WHEAT FLOUR, MALTED BARLEY FLOUR, NIACIN, FERROUS SULFATE, THIAMINE MONONITRATE, RIBOFLAVIN, FOLIC ACID), WATER, SOYBEAN OIL, SUGAR, YEAST, SALT, BAKING POWDER (CORNSTARCH, SODIUM BICARBONATE, SODIUM ALUMINUM SULFATE, MONOCALCIUM PHOSPHATE), DEGERMINATED YELLOW CORNMEAL, SOY FLOUR. SAUCE: WATER, TOMATO PASTE (TOMATOES), SEASONING BLEND (MODIFIED CORN STARCH, SALT, DEHYDRATED ONION, DEHYDRATED GARLIC, SUGAR, SPICE, SOYBEAN OIL, CONTAINS LESS THAN 2% GUAR GUM, PARMESAN CHEESE (CULTURED MILK, SALT, ENZYMES], XANTHAN GUM, PAPRIKA, CITRIC ACID, BEET POWDER [COLOR], SOY FLOUR), SUGAR, MODIFIED FOOD STARCH. MOZZARELLA CHEESE BLEND: MOZZARELLA CHEESE SUBSTITUTE (WATER, PALM OIL, RENNET CASEIN [MILK PROTEIN], SODIUM ALUMINUM PHOSPHATE, MODIFIED FOOD STARCH, SALT, LACTIC ACID, NATURAL FLAVOR, SODIUM CITRATE, SORBIC ACID [PRESERVATIVE], ENRICHMENT BLEND [MAGNESIUM OXIDE, ZINC OXIDE, FERRIC-ORTHO-PHOSPHATE, VITAMIN A PALMITATE, RIBOFLAVIN, PYRIDOXINE HYDROCHLORIDE, NIACINAMIDE, THIAMINE MONONITRATE, VITAMIN B12], LOW MOISTURE PART-SKIM MOZZARELLA CHEESE (PASTEURIZED PART-SKIM MILK, CHEESE CULTURE, SALT, ENZYMES]), IMITATION MOZZARELLA CHEESE (WATER, PALM OIL, MODIFIED FOOD STARCH, WHEY, RENNET CASEIN [MILK PROTEIN], SALT, SODIUM ALUMINUM PHOSPHATE, CITRIC ACID, TRISODIUM PHOSPHATE, SODIUM CITRATE, POTASSIUM SORBATE, LACTIC ACID, NATURAL FLAVOR, LOW MOISTURE PART-SKIM MOZZARELLA CHEESE [PASTEURIZED PART-SKIM MILK, CHEESE CULTURES, SALT, ENZYMES]). COOKED PORK AND CHICKEN PIZZA TOPPING: SAUSAGE MADE WITH PORK AND CHICKEN (PORK, MECHANICALLY SEPARATED CHICKEN, WATER, SEASONING [SPICES, CORN SYRUP SOLIDS, SALT, DRY GARLIC, CHILI PEPPER, CARAMEL COLOR], CARAMEL COLOR, WATER, TEXTURED VEGETABLE PROTEIN [SOY PROTEIN CONCENTRATE, CARAMEL COLOR])." Date available: 07/14/2017 Date last updated by company: 07/14/2017
