Source: USDA Branded Food Products Database Release December 2017 Software v.3.8.6.4 2017-10-02
Report Run at: December 18, 2017 13:24 EST
"Nutrient data for: 45053985, PIZZA CRUST, UPC: 041497096350"
Food Group:  Branded Food Products Database
Common Name:

Nutrient,Unit,Data points,Std. Error,"0.167 CRUST = 65.0g",1Value per 100 g,
Proximates
"Energy",kcal,--,--,160,246
"Protein",g,--,--,5.00,7.69
"Total lipid (fat)",g,--,--,2.00,3.08
"Carbohydrate, by difference",g,--,--,30.00,46.15
"Fiber, total dietary",g,--,--,1.0,1.5
"Sugars, total",g,--,--,5.00,7.69
Minerals
"Calcium, Ca",mg,--,--,0,0
"Iron, Fe",mg,--,--,1.52,2.34
"Sodium, Na",mg,--,--,460,708
Vitamins
"Vitamin C, total ascorbic acid",mg,--,--,3.1,4.7
"Vitamin A, IU",IU,--,--,0,0
Lipids
"Fatty acids, total saturated",g,--,--,0.501,0.770
"Fatty acids, total monounsaturated",g,--,--,0.501,0.770
"Fatty acids, total polyunsaturated",g,--,--,0.501,0.770
"Fatty acids, total trans",g,--,--,0.000,0.000
"Cholesterol",mg,--,--,0,0
Amino Acids
Other
Ingredients
"ENRICHED BLEACHED FLOUR [WHEAT FLOUR, NIACIN, IRON, THIAMIN MONONITRATE (VITAMIN B1), RIBOFLAVIN (VITAMIN B2), FOLIC ACID], WATER, DEXTROSE, LEAVENING (GLUCONO DELTA-LACTONE, BAKING SODA), SUGAR. CONTAINS 2% OR LESS OF EACH OF THE FOLLOWING: PARTIALLY HYDROGENATED VEGETABLE OIL (SOYBEAN AND/OR COTTONSEED OILS), SALT, WHEAT GLUTEN, SOYBEAN OIL, HYDROGENATED COTTONSEED OIL, XANTHAN GUM, POTASSIUM SORBATE (PRESERVATIVE), ASCORBIC ACID, SOY FLOUR." Date available: 06/25/2017 Date last updated by company: 06/25/2017
