Source: USDA Branded Food Products Database Release December 2017 Software v.3.8.6.4 2017-10-02
Report Run at: December 18, 2017 13:31 EST
"Nutrient data for: 45220247, PIZZA, UPC: 8033462320036"
Food Group:  Branded Food Products Database
Common Name:

Nutrient,Unit,Data points,Std. Error,"0.333 PIZZA = 140.0g",1Value per 100 g,
Proximates
"Energy",kcal,--,--,350,250
"Protein",g,--,--,14.99,10.71
"Total lipid (fat)",g,--,--,14.00,10.00
"Carbohydrate, by difference",g,--,--,39.00,27.86
"Fiber, total dietary",g,--,--,2.0,1.4
"Sugars, total",g,--,--,4.00,2.86
Minerals
"Calcium, Ca",mg,--,--,60,43
"Iron, Fe",mg,--,--,4.26,3.04
"Potassium, K",mg,--,--,111,79
"Sodium, Na",mg,--,--,570,407
Vitamins
"Vitamin C, total ascorbic acid",mg,--,--,0.8,0.6
"Vitamin A, IU",IU,--,--,1323,945
Lipids
"Fatty acids, total saturated",g,--,--,4.998,3.570
"Fatty acids, total trans",g,--,--,0.000,0.000
"Cholesterol",mg,--,--,29,21
Amino Acids
Other
Ingredients
"WHEAT FLOUR, WATER, PEELED TOMATOES, MOZZARELLA CHEESE (MILK, SALT, RENNET), ASIAGO CHEESE (MILK, SALT, RENNET), FONTAL CHEESE (MILK, SALT, RENNET), EMMENTHAL CHEESE (MILK, SALT, RENNET), SALT, EXTRA VIRGIN OLIVE OIL, YEAST." Date available: 07/14/2017 Date last updated by company: 07/14/2017
