Source: USDA Branded Food Products Database Release December 2017 Software v.3.8.6.4 2017-10-02
Report Run at: December 18, 2017 13:26 EST
"Nutrient data for: 45064560, PIZZA SAUCE, UPC: 072368424552"
Food Group:  Branded Food Products Database
Common Name:

Nutrient,Unit,Data points,Std. Error,"0.25 cup = 63.0g",1Value per 100 g,
Proximates
"Energy",kcal,--,--,30,48
"Protein",g,--,--,1.00,1.59
"Total lipid (fat)",g,--,--,0.00,0.00
"Carbohydrate, by difference",g,--,--,7.00,11.11
"Fiber, total dietary",g,--,--,2.0,3.2
"Sugars, total",g,--,--,4.00,6.35
Minerals
"Calcium, Ca",mg,--,--,0,0
"Iron, Fe",mg,--,--,1.52,2.41
"Sodium, Na",mg,--,--,105,167
Vitamins
"Vitamin C, total ascorbic acid",mg,--,--,0.0,0.0
"Vitamin A, IU",IU,--,--,845,1342
Lipids
"Fatty acids, total saturated",g,--,--,0.000,0.000
"Fatty acids, total trans",g,--,--,0.000,0.000
"Cholesterol",mg,--,--,0,0
Amino Acids
Other
Ingredients
"TOMATO PUREE (WATER, TOMATO PASTE), SUGAR, GARLIC, SPICES, PEPPER, SALT AND ONION POWDER." Date available: 08/12/2017 Date last updated by company: 08/12/2017
