Source: USDA Branded Food Products Database Release December 2017 Software v.3.8.6.4 2017-10-02
Report Run at: December 18, 2017 13:29 EST
"Nutrient data for: 45082139, PIZZA SQUEEZE PIZZA SAUCE, UPC: 024000346166"
Food Group:  Branded Food Products Database
Common Name:

Nutrient,Unit,Data points,Std. Error,"0.25 cup = 63.0g",1Value per 100 g,
Proximates
"Energy",kcal,--,--,30,48
"Protein",g,--,--,1.00,1.59
"Total lipid (fat)",g,--,--,0.00,0.00
"Carbohydrate, by difference",g,--,--,6.00,9.52
"Fiber, total dietary",g,--,--,1.0,1.6
"Sugars, total",g,--,--,3.00,4.76
Minerals
"Calcium, Ca",mg,--,--,20,32
"Iron, Fe",mg,--,--,0.76,1.21
"Sodium, Na",mg,--,--,340,540
Vitamins
"Vitamin C, total ascorbic acid",mg,--,--,7.6,12.1
"Vitamin A, IU",IU,--,--,634,1006
Lipids
"Fatty acids, total saturated",g,--,--,0.000,0.000
"Fatty acids, total trans",g,--,--,0.000,0.000
"Cholesterol",mg,--,--,0,0
Amino Acids
Other
Ingredients
"TOMATO PUREE (WATER, TOMATO PASTE), CORN SYRUP, SALT, MODIFIED CORN STARCH, SOYBEAN OIL, ONION POWDER, NATURAL FLAVOR, CARROT FIBER, SPICES, CITRIC ACID, GARLIC POWDER, POTASSIUM SORBATE (PRESERVATIVES)." Date available: 07/14/2017 Date last updated by company: 07/14/2017
