Source: USDA Branded Food Products Database Release December 2017 Software v.3.8.6.4 2017-10-02
Report Run at: December 18, 2017 13:34 EST
"Nutrient data for: 45201692, PIZZETTA, UPC: 744463000107"
Food Group:  Branded Food Products Database
Common Name:

Nutrient,Unit,Data points,Std. Error,"1 PACKAGE = 170.0g",1Value per 100 g,
Proximates
"Energy",kcal,--,--,430,253
"Protein",g,--,--,12.00,7.06
"Total lipid (fat)",g,--,--,14.01,8.24
"Carbohydrate, by difference",g,--,--,56.00,32.94
"Fiber, total dietary",g,--,--,2.0,1.2
"Sugars, total",g,--,--,7.00,4.12
Minerals
"Calcium, Ca",mg,--,--,400,235
"Iron, Fe",mg,--,--,0.41,0.24
"Sodium, Na",mg,--,--,530,312
Vitamins
"Vitamin C, total ascorbic acid",mg,--,--,2.7,1.6
"Vitamin A, IU",IU,--,--,573,337
Lipids
"Fatty acids, total saturated",g,--,--,4.998,2.940
"Fatty acids, total trans",g,--,--,0.000,0.000
"Cholesterol",mg,--,--,26,15
Amino Acids
Other
Ingredients
"WHEAT FLOUR, TOMATOES, MOZZARELLA (PASTEURIZED COW MILK, SALT, ENZYMES), WATER, DURUM WHEAT SEMOLINA, EXTRA VIRGIN OLIVE OIL, SALT, YEAST, WHEAT GLUTEN, MALT FLOUR, BASIL, OREGANO." Date available: 07/14/2017 Date last updated by company: 07/14/2017
