Source: USDA Branded Food Products Database Release December 2017 Software v.3.8.6.4 2017-10-02
Report Run at: December 18, 2017 13:38 EST
"Nutrient data for: 45199868, PLAIN GREEK YOGURT, UPC: 850055003064"
Food Group:  Branded Food Products Database
Common Name:

Nutrient,Unit,Data points,Std. Error,"6.0 ONZ = 170.0g",1Value per 100 g,
Proximates
"Energy",kcal,--,--,150,88
"Protein",g,--,--,8.01,4.71
"Total lipid (fat)",g,--,--,11.00,6.47
"Carbohydrate, by difference",g,--,--,6.00,3.53
"Fiber, total dietary",g,--,--,0.0,0.0
"Sugars, total",g,--,--,5.00,2.94
Minerals
"Calcium, Ca",mg,--,--,230,135
"Iron, Fe",mg,--,--,0.19,0.11
"Sodium, Na",mg,--,--,54,32
Vitamins
"Vitamin C, total ascorbic acid",mg,--,--,0.0,0.0
"Vitamin A, IU",IU,--,--,201,118
Lipids
"Fatty acids, total saturated",g,--,--,8.007,4.710
"Fatty acids, total trans",g,--,--,0.000,0.000
"Cholesterol",mg,--,--,10,6
Amino Acids
Other
Ingredients
"CULTURED MILK" Date available: 07/14/2017 Date last updated by company: 07/14/2017
