Source: USDA Branded Food Products Database Release December 2017 Software v.3.8.6.4 2017-10-02
Report Run at: December 18, 2017 13:39 EST
"Nutrient data for: 45239627, PLAIN KEFIR, PASTEURIZED CULTURED MILK, UPC: 081312400009"
Food Group:  Branded Food Products Database
Common Name:

Nutrient,Unit,Data points,Std. Error,"1 CUP = 240.0g",1Value per 100 g,
Proximates
"Energy",kcal,--,--,91,38
"Protein",g,--,--,7.99,3.33
"Total lipid (fat)",g,--,--,2.50,1.04
"Carbohydrate, by difference",g,--,--,10.01,4.17
"Fiber, total dietary",g,--,--,0.0,0.0
"Sugars, total",g,--,--,9.00,3.75
Minerals
"Calcium, Ca",mg,--,--,300,125
"Iron, Fe",mg,--,--,0.00,0.00
"Sodium, Na",mg,--,--,74,31
Vitamins
"Vitamin C, total ascorbic acid",mg,--,--,0.0,0.0
"Vitamin A, IU",IU,--,--,530,221
Lipids
"Fatty acids, total saturated",g,--,--,1.488,0.620
"Fatty acids, total trans",g,--,--,0.000,0.000
"Cholesterol",mg,--,--,10,4
Amino Acids
Other
Ingredients
"ORGANIC LOWFAT PASTEURIZED MILK, LACTASE ENZYME, VITAMIN A AND FLOURISH LIVE ACTIVE CULTURES: L. BULGARICUS, L. ACIDOPHILUS, L. CASEI, L. RHAMNOSUS, L. LACTIS, L. DIACETYLACTIS, S. THERMOPHILUS, L. CREMORIS, LEUCONOSTOC CREMORIS AND B. BIFIDUM." Date available: 07/14/2017 Date last updated by company: 07/14/2017
