Source: USDA Branded Food Products Database Release December 2017 Software v.3.8.6.4 2017-10-02
Report Run at: December 18, 2017 13:38 EST
"Nutrient data for: 45282688, PLAIN GREEK NONFAT YOGURT, UPC: 036632019103"
Food Group:  Branded Food Products Database
Common Name:

Nutrient,Unit,Data points,Std. Error,"8.0 ONZ = 255.0g",1Value per 100 g,
Proximates
"Energy",kcal,--,--,120,47
"Protein",g,--,--,22.01,8.63
"Total lipid (fat)",g,--,--,0.00,0.00
"Carbohydrate, by difference",g,--,--,9.00,3.53
"Fiber, total dietary",g,--,--,0.0,0.0
"Sugars, total",g,--,--,9.00,3.53
Minerals
"Calcium, Ca",mg,--,--,250,98
"Iron, Fe",mg,--,--,0.00,0.00
"Sodium, Na",mg,--,--,79,31
Vitamins
"Vitamin C, total ascorbic acid",mg,--,--,0.0,0.0
"Vitamin A, IU",IU,--,--,0,0
Lipids
"Fatty acids, total saturated",g,--,--,0.000,0.000
"Fatty acids, total trans",g,--,--,0.000,0.000
"Cholesterol",mg,--,--,5,2
Amino Acids
Other
Ingredients
"CULTURED GRADE A NON FAT MILK." Date available: 07/14/2017 Date last updated by company: 07/14/2017
