Source: USDA Branded Food Products Database Release December 2017 Software v.3.8.6.4 2017-10-02
Report Run at: December 18, 2017 13:42 EST
"Nutrient data for: 45197047, PLAIN YOGURT, UPC: 094379111061"
Food Group:  Branded Food Products Database
Common Name:

Nutrient,Unit,Data points,Std. Error,"8.0 ONZ = 227.0g",1Value per 100 g,
Proximates
"Energy",kcal,--,--,220,97
"Protein",g,--,--,11.01,4.85
"Total lipid (fat)",g,--,--,11.01,4.85
"Carbohydrate, by difference",g,--,--,20.00,8.81
"Fiber, total dietary",g,--,--,0.0,0.0
"Sugars, total",g,--,--,19.00,8.37
Minerals
"Calcium, Ca",mg,--,--,400,176
"Iron, Fe",mg,--,--,0.00,0.00
"Potassium, K",mg,--,--,549,242
"Sodium, Na",mg,--,--,170,75
Vitamins
"Vitamin C, total ascorbic acid",mg,--,--,1.8,0.8
"Vitamin A, IU",IU,--,--,300,132
Lipids
"Fatty acids, total saturated",g,--,--,6.992,3.080
"Fatty acids, total trans",g,--,--,0.000,0.000
"Cholesterol",mg,--,--,45,20
Amino Acids
Other
Ingredients
"CULTURED GRADE A PASTEURIZED MILK, CREAM, NONFAT MILK, PECTIN, CARRAGEENAN." Date available: 07/14/2017 Date last updated by company: 07/14/2017
