Source: USDA Branded Food Products Database Release December 2017 Software v.3.8.6.4 2017-10-02
Report Run at: December 18, 2017 13:42 EST
"Nutrient data for: 45002134, PLAIN YOGURT, UPC: 795709040029"
Food Group:  Branded Food Products Database
Common Name:

Nutrient,Unit,Data points,Std. Error,"1 cup = 225.0g",1Value per 100 g,
Proximates
"Energy",kcal,--,--,119,53
"Protein",g,--,--,11.00,4.89
"Total lipid (fat)",g,--,--,0.00,0.00
"Carbohydrate, by difference",g,--,--,16.00,7.11
"Fiber, total dietary",g,--,--,0.0,0.0
"Sugars, total",g,--,--,9.99,4.44
Minerals
"Calcium, Ca",mg,--,--,400,178
"Iron, Fe",mg,--,--,0.81,0.36
"Sodium, Na",mg,--,--,130,58
Vitamins
"Vitamin C, total ascorbic acid",mg,--,--,0.0,0.0
"Vitamin A, IU",IU,--,--,0,0
Lipids
"Fatty acids, total saturated",g,--,--,0.000,0.000
"Fatty acids, total trans",g,--,--,0.000,0.000
"Cholesterol",mg,--,--,16,7
Amino Acids
Other
Ingredients
"ORGANIC CULTURED PASTEURIZED NONFAT MILK, PECTIN." Date available: 06/24/2017 Date last updated by company: 06/24/2017
