Source: USDA Branded Food Products Database Release December 2017 Software v.3.8.6.4 2017-10-02
Report Run at: December 18, 2017 13:40 EST
"Nutrient data for: 45179388, PLAIN PIZZA DOUGH, UPC: 810509007574"
Food Group:  Branded Food Products Database
Common Name:

Nutrient,Unit,Data points,Std. Error,"0.125 DOUGH = 57.0g",1Value per 100 g,
Proximates
"Energy",kcal,--,--,150,263
"Protein",g,--,--,4.00,7.02
"Total lipid (fat)",g,--,--,3.00,5.26
"Carbohydrate, by difference",g,--,--,25.00,43.86
"Fiber, total dietary",g,--,--,1.0,1.8
"Sugars, total",g,--,--,1.00,1.75
Minerals
"Calcium, Ca",mg,--,--,20,35
"Iron, Fe",mg,--,--,1.27,2.22
"Sodium, Na",mg,--,--,240,421
Vitamins
"Vitamin C, total ascorbic acid",mg,--,--,2.1,3.7
"Vitamin A, IU",IU,--,--,0,0
Lipids
"Fatty acids, total saturated",g,--,--,0.502,0.880
"Fatty acids, total trans",g,--,--,0.000,0.000
"Cholesterol",mg,--,--,0,0
Amino Acids
Other
Ingredients
"WHEAT FLOUR (ENRICHED WHEAT FLOUR [NIACIN, REDUCED IRON, THIAMINE MONONITRATE, RIBOFLAVIN, FOLIC ACID], MALTED BARLEY), WATER, SOYBEAN OIL, ENZYME (SALT, WHEAT FLOUR, WHEY, BUTTERMILK, DIACETYL TARTARIC ACID ESTERS OF MONO- DIGLYCERIDES [DATEM], ENZYMES, ASCORBIC ACID, L. CYSTEINE), CONTAINS LESS THAN 2% OF FRESH YEAST, DRY EGG (YELLOW CORN FLOUR, DEXTROSE [CONTAINS SULFITES], SALT, SOYBEAN OIL, EGG YOLKS, SOY LECITHIN AND 2% OR LESS OF EACH OF THE FOLLOWING: BETA CAROTENE [COLOR])." Date available: 07/14/2017 Date last updated by company: 07/14/2017
