Source: USDA Branded Food Products Database Release December 2017 Software v.3.8.6.4 2017-10-02
Report Run at: December 18, 2017 13:38 EST
"Nutrient data for: 45208960, PLAIN ENGLISH MUFFINS, UPC: 011161447863"
Food Group:  Branded Food Products Database
Common Name:

Nutrient,Unit,Data points,Std. Error,"1 MUFFIN = 56.0g",1Value per 100 g,
Proximates
"Energy",kcal,--,--,120,214
"Protein",g,--,--,4.00,7.14
"Total lipid (fat)",g,--,--,1.00,1.79
"Carbohydrate, by difference",g,--,--,25.00,44.64
"Fiber, total dietary",g,--,--,2.0,3.6
"Sugars, total",g,--,--,2.00,3.57
Minerals
"Calcium, Ca",mg,--,--,80,143
"Iron, Fe",mg,--,--,0.71,1.26
"Sodium, Na",mg,--,--,380,679
Vitamins
"Vitamin C, total ascorbic acid",mg,--,--,0.0,0.0
"Thiamin",mg,--,--,0.560,1.000
"Riboflavin",mg,--,--,0.170,0.304
"Niacin",mg,--,--,1.964,3.507
"Vitamin A, IU",IU,--,--,0,0
Lipids
"Fatty acids, total saturated",g,--,--,0.000,0.000
"Fatty acids, total monounsaturated",g,--,--,0.000,0.000
"Fatty acids, total polyunsaturated",g,--,--,0.498,0.890
"Fatty acids, total trans",g,--,--,0.000,0.000
"Cholesterol",mg,--,--,0,0
Amino Acids
Other
Ingredients
"ENRICHED FLOUR (WHEAT FLOUR, BARLEY MALT, NIACIN, REDUCED IRON, THIAMINE MONONITRATE, RIBOFLAVIN, FOLIC ACID), WATER, YEAST, CONTAINS 2% OR LESS OF THE FOLLOWING: SUGAR, BAKING POWDER (SODIUM ACID PYROPHOSPHATE, SODIUM BICARBONATE, CORN STARCH, MONOCALCIUM PHOSPHATE), DISTILLED VINEGAR, CORN FLOUR, SALT, WHEAT GLUTEN, SORBIC ACID AND CALCIUM PROPIONATE (TO RETARD SPOILAGE), CORN MEAL, SOY FLOUR, YEAST NUTRIENTS (CALCIUM SULFATE, AMMONIUM CHLORIDE), FUMARIC ACID, SOYBEAN OIL, CALCIUM PEROXIDE, AZODICARBONAMIDE, ASCORBIC ACID." Date available: 07/28/2017 Date last updated by company: 07/28/2017
