Source: USDA Branded Food Products Database Release December 2017 Software v.3.8.6.4 2017-10-02
Report Run at: December 18, 2017 13:35 EST
"Nutrient data for: 45226043, PLAIN BAGELS, UPC: 078742018362"
Food Group:  Branded Food Products Database
Common Name:

Nutrient,Unit,Data points,Std. Error,"1 BAGEL = 85.0g",1Value per 100 g,
Proximates
"Energy",kcal,--,--,230,271
"Protein",g,--,--,8.00,9.41
"Total lipid (fat)",g,--,--,1.00,1.18
"Carbohydrate, by difference",g,--,--,47.00,55.29
"Fiber, total dietary",g,--,--,2.0,2.4
"Sugars, total",g,--,--,6.00,7.06
Minerals
"Calcium, Ca",mg,--,--,60,71
"Iron, Fe",mg,--,--,3.49,4.11
"Potassium, K",mg,--,--,70,82
"Sodium, Na",mg,--,--,320,376
Vitamins
"Vitamin C, total ascorbic acid",mg,--,--,0.0,0.0
"Vitamin A, IU",IU,--,--,0,0
Lipids
"Fatty acids, total saturated",g,--,--,0.000,0.000
"Fatty acids, total monounsaturated",g,--,--,0.000,0.000
"Fatty acids, total polyunsaturated",g,--,--,0.000,0.000
"Fatty acids, total trans",g,--,--,0.000,0.000
"Cholesterol",mg,--,--,0,0
Amino Acids
Other
Ingredients
"ENRICHED FLOUR (WHEAT FLOUR, MALTED BARLEY FLOUR, NIACIN, REDUCED IRON, THIAMINE MONONITRATE, RIBOFLAVIN, FOLIC ACID), WATER, HIGH FRUCTOSE CORN SYRUP, YELLOW CORN MEAL, CONTAINS 2% OR LESS OF EACH OF THE FOLLOWING: WHEAT GLUTEN, SALT, YEAST, SUGAR CANE SYRUP, MALTED BARLEY FLOUR, CALCIUM SULFATE, DEXTROSE, MOLASSES, ENZYMES, ASCORBIC ACID, CALCIUM PROPIONATE (TO RETARD SPOILAGE)." Date available: 07/14/2017 Date last updated by company: 07/14/2017
