Source: USDA Branded Food Products Database Release December 2017 Software v.3.8.6.4 2017-10-02
Report Run at: December 18, 2017 13:43 EST
"Nutrient data for: 45256092, PLANTAIN CHIPS, UPC: 749289000065"
Food Group:  Branded Food Products Database
Common Name:

Nutrient,Unit,Data points,Std. Error,"1 ONZ = 28.3g",1Value per 100 g,
Proximates
"Energy",kcal,--,--,150,530
"Protein",g,--,--,1.00,3.53
"Total lipid (fat)",g,--,--,7.00,24.73
"Carbohydrate, by difference",g,--,--,20.00,70.67
"Fiber, total dietary",g,--,--,2.0,7.1
"Sugars, total",g,--,--,0.00,0.00
Minerals
"Calcium, Ca",mg,--,--,0,0
"Iron, Fe",mg,--,--,0.64,2.25
"Potassium, K",mg,--,--,200,707
"Sodium, Na",mg,--,--,240,848
Vitamins
"Vitamin C, total ascorbic acid",mg,--,--,15.9,56.2
"Vitamin A, IU",IU,--,--,0,0
Lipids
"Fatty acids, total saturated",g,--,--,3.000,10.600
"Fatty acids, total trans",g,--,--,0.000,0.000
"Cholesterol",mg,--,--,0,0
Amino Acids
Other
Ingredients
"GREEN PLANTAIN, NON-HYDROGENATED VEGETABLE OIL (PALMOLEIN), SALT, MALTODEXTRIN, CITRIC ACID, MALIC ACID, ASCORBIC ACID (ACIDULANTS), NATURAL LIME EXTRACT, JALAPENO CHILI POWDER, SUGAR, VEGETABLE PROTEIN, YEAST EXTRACT, SILICON DIOXIDE (ANTI-CAKING)." Date available: 07/14/2017 Date last updated by company: 07/14/2017
