Source: USDA Branded Food Products Database Release December 2017 Software v.3.8.6.4 2017-10-02
Report Run at: December 18, 2017 13:52 EST
"Nutrient data for: 45164782, POCKY, BISCUIT STICKS, STRAWBERRY CREAM, UPC: 073141153430"
Food Group:  Branded Food Products Database
Common Name:

Nutrient,Unit,Data points,Std. Error,"1 BAG = 12.0g",1Value per 100 g,
Proximates
"Energy",kcal,--,--,60,500
"Protein",g,--,--,1.00,8.33
"Total lipid (fat)",g,--,--,2.50,20.83
"Carbohydrate, by difference",g,--,--,9.00,75.00
"Fiber, total dietary",g,--,--,0.0,0.0
"Sugars, total",g,--,--,4.00,33.33
Minerals
"Calcium, Ca",mg,--,--,0,0
"Iron, Fe",mg,--,--,0.00,0.00
"Sodium, Na",mg,--,--,25,208
Vitamins
"Vitamin C, total ascorbic acid",mg,--,--,0.0,0.0
"Vitamin A, IU",IU,--,--,0,0
Lipids
"Fatty acids, total saturated",g,--,--,1.500,12.500
"Fatty acids, total trans",g,--,--,0.000,0.000
"Cholesterol",mg,--,--,0,0
Amino Acids
Other
Ingredients
"WHEAT FLOUR, SUGAR, BLEND OF VEGETABLE OIL (SUNFLOWER OIL, PALM OIL), LACTOSE, WHOLE MILK POWDER, PALM OIL SHORTENING, CONTAINS 1 PERCENT OR LESS OF: BEET RED COLOR, ARTIFICIAL FLAVORS, SALT, YEAST, STRAWBERRY POWDER, LECITHIN, LEAVENING (SODIUM BICARBONATE), MONOGLYCERIDES, SODIUM HYDROXIDE, PAPAIN." Date available: 07/14/2017 Date last updated by company: 07/14/2017
