Source: USDA Branded Food Products Database Release December 2017 Software v.3.8.6.4 2017-10-02
Report Run at: December 18, 2017 13:56 EST
"Nutrient data for: 45042084, POLAR VORTEX, DESSERT CAKE, UPC: 041250001126"
Food Group:  Branded Food Products Database
Common Name:

Nutrient,Unit,Data points,Std. Error,"0.067 CAKE = 79.0g",1Value per 100 g,
Proximates
"Energy",kcal,--,--,330,418
"Protein",g,--,--,2.00,2.53
"Total lipid (fat)",g,--,--,15.00,18.99
"Carbohydrate, by difference",g,--,--,46.00,58.23
"Fiber, total dietary",g,--,--,0.0,0.0
"Sugars, total",g,--,--,34.00,43.04
Minerals
"Calcium, Ca",mg,--,--,20,25
"Iron, Fe",mg,--,--,0.73,0.92
"Sodium, Na",mg,--,--,230,291
Vitamins
"Vitamin C, total ascorbic acid",mg,--,--,0.0,0.0
"Vitamin A, IU",IU,--,--,101,128
Lipids
"Fatty acids, total saturated",g,--,--,5.996,7.590
"Fatty acids, total trans",g,--,--,0.000,0.000
"Cholesterol",mg,--,--,30,38
Amino Acids
Other
Ingredients
"POWDERED SUGAR, ENRICHED WHEAT FLOUR BLEACHED (FLOUR, NIACIN, IRON, THIAMINE MONONITRATE, RIBOFLAVIN, FOLIC ACID), SUGAR, EGGS, WATER, SOYBEAN OIL, PALM OIL, CANOLA OIL, SEMISWEET CHOCOLATE CHIPS (SUGAR, UNSWEETENED CHOCOLATE, DEXTROSE, COCOA BUTTER, SOY LECITHIN, ARTIFICIAL FLAVOR), BUTTER (PASTEURIZED CREAM AND SALT), EGG WHITES, PARTIALLY HYDROGENATED VEGETABLE OIL (PALM KERNEL OIL), FOOD STARCH-MODIFIED, INVERT SUGAR, NONFAT MILK, BROWN SUGAR, GLYCERIN, DEXTROSE, SNOWFLAKE SHAPES (SUGAR, RICE FLOUR, VEGETABLE OIL [PALM, PALM KERNEL], CORNSTARCH, GUM ARABIC CELLULOSE GUM, TITANIUM DIOXIDE [COLOR], CONFECTIONER'S GLAZE [SHELLAC]), CRYSTAL SYRUP, GUM ARABIC, CARNAUBA WAX, HYDROXYLATED SOY LECITHIN), SALT, CORN SYRUP, MONO- AND DIGLYCERIDES, LEAVENING (BAKING SODA, SODIUM ACID PYROPHOSPHATE, SODIUM ALUMINUM PHOSPHATE), SNOWFLAKE DECORATION (SUGAR, EGG WHITES, FOOD STARCH-MODIFIED), POTASSIUM SORBATE AND SODIUM PROPIONATE (PRESERVATIVES), CORN FLOUR, SOY LECITHIN, NATURAL AND ARTIFICIAL FLAVOR, PROPYLENE GLYCOL MONO- AND DIESTERS OF FATTY ACIDS, DEXTRIN, CORNSTARCH, CARAMEL COLOR, POLYSORBATE 80, CITRIC ACID, SORBITAN TRISTEARATE, BLUE 1 LAKE, XANTHAN GUM, MODIFIED CELLULOSE, SORBITAN MONOSTEARATE, SODIUM STEAROYL LACTYLATE, SODIUM CITRATE, ANNATTO (COLOR), GUAR GUM, PROPYLENE GLYCOL MONOSTEARATE, SOY FLOUR, WHEY, ENZYMES." Date available: 10/06/2017 Date last updated by company: 10/06/2017
