Source: USDA Branded Food Products Database Release December 2017 Software v.3.8.6.4 2017-10-02
Report Run at: December 18, 2017 13:54 EST
"Nutrient data for: 45039685, POLANER, JAM, CONCORD GRAPE, UPC: 072400006678"
Food Group:  Branded Food Products Database
Common Name:

Nutrient,Unit,Data points,Std. Error,"1 Tbsp = 17.0g",1Value per 100 g,
Proximates
"Energy",kcal,--,--,10,59
"Protein",g,--,--,0.00,0.00
"Total lipid (fat)",g,--,--,0.00,0.00
"Carbohydrate, by difference",g,--,--,5.00,29.41
"Fiber, total dietary",g,--,--,3.0,17.6
"Sugars, total",g,--,--,0.00,0.00
Minerals
"Sodium, Na",mg,--,--,0,0
Vitamins
Lipids
Amino Acids
Other
Ingredients
"WATER*, MALTODEXTRIN*, POLYDEXTROSE*, CONCORD GRAPE PUREE CONCENTRATE+, CITRIC ACID, FRUIT PECTIN, LOCUST BEAN GUM *, NATURAL FLAVOR*, SUCRALOSE*, POTASSIUM SORBATE AND SODIUM BENZOATE (TO PRESERVE FRESHNESS), CALCIUM CHLORIDE*, RED #40* AND BLUE #1*." Date available: 07/14/2017 Date last updated by company: 07/14/2017
