Source: USDA Branded Food Products Database Release December 2017 Software v.3.8.6.4 2017-10-02
Report Run at: December 18, 2017 13:53 EST
"Nutrient data for: 45031943, POLANER, GRAPE JELLY, GRAPE, UPC: 072400000775"
Food Group:  Branded Food Products Database
Common Name:

Nutrient,Unit,Data points,Std. Error,"1 Tbsp = 19.0g",1Value per 100 g,
Proximates
"Energy",kcal,--,--,50,263
"Protein",g,--,--,0.00,0.00
"Total lipid (fat)",g,--,--,0.00,0.00
"Carbohydrate, by difference",g,--,--,13.00,68.42
"Sugars, total",g,--,--,7.00,36.84
Minerals
"Sodium, Na",mg,--,--,5,26
Vitamins
Lipids
"Fatty acids, total trans",g,--,--,0.000,0.000
Amino Acids
Other
Ingredients
"GRAPE JUICE, HIGH FRUCTOSE CORN SYRUP, CORN SYRUP, SUGAR, PECTIN, CITRIC ACID AND POTASSIUM CITRATE." Date available: 06/24/2017 Date last updated by company: 06/24/2017
