Source: USDA Branded Food Products Database Release December 2017 Software v.3.8.6.4 2017-10-02
Report Run at: December 18, 2017 13:57 EST
"Nutrient data for: 45018928, POLENTA VALSUGANA, PRE-COOKED CORN FLOUR, UPC: 072248355075"
Food Group:  Branded Food Products Database
Common Name:

Nutrient,Unit,Data points,Std. Error,"2.0 Tbsp = 30.0g",1Value per 100 g,
Proximates
"Energy",kcal,--,--,110,367
"Protein",g,--,--,2.00,6.67
"Total lipid (fat)",g,--,--,0.50,1.67
"Carbohydrate, by difference",g,--,--,24.00,80.00
"Fiber, total dietary",g,--,--,1.0,3.3
"Sugars, total",g,--,--,0.00,0.00
Minerals
"Calcium, Ca",mg,--,--,0,0
"Iron, Fe",mg,--,--,0.60,2.00
"Sodium, Na",mg,--,--,0,0
Vitamins
"Vitamin C, total ascorbic acid",mg,--,--,0.0,0.0
"Vitamin A, IU",IU,--,--,0,0
Lipids
"Fatty acids, total saturated",g,--,--,0.000,0.000
"Fatty acids, total trans",g,--,--,0.000,0.000
"Cholesterol",mg,--,--,0,0
Amino Acids
Other
Ingredients
"PRE-COOKED CORN FLOUR." Date available: 06/25/2017 Date last updated by company: 06/25/2017
