Source: USDA Branded Food Products Database Release December 2017 Software v.3.8.6.4 2017-10-02
Report Run at: December 18, 2017 13:58 EST
"Nutrient data for: 45326527, POLISH SAUSAGE, UPC: 036800264915"
Food Group:  Branded Food Products Database
Common Name:

Nutrient,Unit,Data points,Std. Error,"2.0 ONZ = 56.0g",1Value per 100 g,
Proximates
"Energy",kcal,--,--,160,286
"Protein",g,--,--,6.00,10.71
"Total lipid (fat)",g,--,--,13.00,23.21
"Carbohydrate, by difference",g,--,--,3.00,5.36
"Fiber, total dietary",g,--,--,0.0,0.0
"Sugars, total",g,--,--,1.00,1.79
Minerals
"Calcium, Ca",mg,--,--,60,107
"Iron, Fe",mg,--,--,0.35,0.63
"Sodium, Na",mg,--,--,430,768
Vitamins
"Vitamin C, total ascorbic acid",mg,--,--,1.2,2.1
"Vitamin A, IU",IU,--,--,0,0
Lipids
"Fatty acids, total saturated",g,--,--,4.502,8.040
"Fatty acids, total trans",g,--,--,0.000,0.000
"Cholesterol",mg,--,--,55,98
Amino Acids
Other
Ingredients
"MECHANICALLY SEPARATED CHICKEN, PORK, BEEF, WATER, CORN SYRUP, CONTAINS 2% OR LESS OF (MODIFIED FOOD STARCH, SALT, DEXTROSE, SODIUM LACTATE, SPICES, SUGAR, SODIUM PHOSPHATE, ONION, GARLIC, SODIUM ERYTHORBATE, SODIUM DIACETATE, NUTMEG, CORIANDER, SODIUM NITRITE)." Date available: 10/13/2017 Date last updated by company: 10/13/2017
