Source: USDA Branded Food Products Database Release December 2017 Software v.3.8.6.4 2017-10-02
Report Run at: December 18, 2017 14:00 EST
"Nutrient data for: 45311264, POLLY-O, WHOLE MILK RICOTTA CHEESE, UPC: 071040021218"
Food Group:  Branded Food Products Database
Common Name:

Nutrient,Unit,Data points,Std. Error,"0.25 cup = 63.0g",1Value per 100 g,
Proximates
"Energy",kcal,--,--,110,175
"Protein",g,--,--,7.00,11.11
"Total lipid (fat)",g,--,--,8.00,12.70
"Carbohydrate, by difference",g,--,--,2.00,3.17
"Fiber, total dietary",g,--,--,0.0,0.0
"Sugars, total",g,--,--,2.00,3.17
Minerals
"Calcium, Ca",mg,--,--,200,317
"Iron, Fe",mg,--,--,0.00,0.00
"Sodium, Na",mg,--,--,65,103
Vitamins
"Vitamin C, total ascorbic acid",mg,--,--,0.0,0.0
"Vitamin A, IU",IU,--,--,262,416
Lipids
"Fatty acids, total saturated",g,--,--,5.002,7.940
"Fatty acids, total trans",g,--,--,0.000,0.000
"Cholesterol",mg,--,--,25,40
Amino Acids
Other
Ingredients
"PASTEURIZED MILK, WHEY, MILKFAT, SALT, VINEGAR, GUAR GUM, CARRAGEENAN, XANTHAN GUM" Date available: 07/14/2017 Date last updated by company: 07/14/2017
