Source: USDA Branded Food Products Database Release December 2017 Software v.3.8.6.4 2017-10-02
Report Run at: December 18, 2017 14:00 EST
"Nutrient data for: 45273147, POLPA DI POMODORO CHOPPED TOMATOES, UPC: 8051406941055"
Food Group:  Branded Food Products Database
Common Name:

Nutrient,Unit,Data points,Std. Error,"0.5 cup = 130.0g",1Value per 100 g,
Proximates
"Energy",kcal,--,--,29,22
"Protein",g,--,--,1.60,1.23
"Total lipid (fat)",g,--,--,0.26,0.20
"Carbohydrate, by difference",g,--,--,4.20,3.23
"Fiber, total dietary",g,--,--,1.3,1.0
"Sugars, total",g,--,--,4.20,3.23
Minerals
"Calcium, Ca",mg,--,--,20,15
"Iron, Fe",mg,--,--,1.44,1.11
"Sodium, Na",mg,--,--,114,88
Vitamins
"Vitamin C, total ascorbic acid",mg,--,--,6.0,4.6
"Vitamin A, IU",IU,--,--,500,385
Lipids
"Fatty acids, total saturated",g,--,--,0.000,0.000
"Fatty acids, total trans",g,--,--,0.000,0.000
"Cholesterol",mg,--,--,0,0
Amino Acids
Other
Ingredients
"CHOPPED TOMATOES, TOMATO JUICE, SALT." Date available: 07/14/2017 Date last updated by company: 07/14/2017
