Source: USDA Branded Food Products Database Release December 2017 Software v.3.8.6.4 2017-10-02
Report Run at: December 18, 2017 14:01 EST
"Nutrient data for: 45319524, POLSKA KIELBASA, UPC: 044500341225"
Food Group:  Branded Food Products Database
Common Name:

Nutrient,Unit,Data points,Std. Error,"2.0 ONZ = 56.0g",1Value per 100 g,
Proximates
"Energy",kcal,--,--,180,321
"Protein",g,--,--,6.00,10.71
"Total lipid (fat)",g,--,--,16.00,28.57
"Carbohydrate, by difference",g,--,--,3.00,5.36
"Fiber, total dietary",g,--,--,0.0,0.0
"Sugars, total",g,--,--,1.00,1.79
Minerals
"Calcium, Ca",mg,--,--,20,36
"Iron, Fe",mg,--,--,0.35,0.63
"Potassium, K",mg,--,--,110,196
"Sodium, Na",mg,--,--,520,929
Vitamins
"Vitamin C, total ascorbic acid",mg,--,--,0.0,0.0
"Vitamin A, IU",IU,--,--,0,0
Lipids
"Fatty acids, total saturated",g,--,--,5.998,10.710
"Fatty acids, total trans",g,--,--,0.000,0.000
"Cholesterol",mg,--,--,35,62
Amino Acids
Other
Ingredients
"MEAT INGREDIENTS (PORK, BEEF), MECHANICALLY SEPARATED TURKEY, WATER, CORN SYRUP, CONTAINS 2% OR LESS: SALT, DEXTROSE, SPICE AND FLAVOR, ISOLATED SOY PRODUCT, SODIUM PHOSPHATE, ISOLATED SOY PROTEIN, YEAST EXTRACT, PORK STOCK, SODIUM ERYTHORBATE, SODIUM NITRITE." Date available: 07/14/2017 Date last updated by company: 07/14/2017
