Source: USDA Branded Food Products Database Release December 2017 Software v.3.8.6.4 2017-10-02
Report Run at: December 18, 2017 14:03 EST
"Nutrient data for: 45271558, POMEGRANATE POWDER, UPC: 811961020132"
Food Group:  Branded Food Products Database
Common Name:

Nutrient,Unit,Data points,Std. Error,"2.0 Tbsp = 15.0g",1Value per 100 g,
Proximates
"Energy",kcal,--,--,60,400
"Protein",g,--,--,0.00,0.00
"Total lipid (fat)",g,--,--,0.00,0.00
"Carbohydrate, by difference",g,--,--,14.00,93.33
"Fiber, total dietary",g,--,--,0.0,0.0
"Sugars, total",g,--,--,4.00,26.67
Minerals
"Calcium, Ca",mg,--,--,0,0
"Iron, Fe",mg,--,--,0.00,0.00
"Potassium, K",mg,--,--,55,367
"Sodium, Na",mg,--,--,10,67
Vitamins
"Vitamin C, total ascorbic acid",mg,--,--,520.0,3466.7
"Vitamin A, IU",IU,--,--,0,0
Lipids
"Fatty acids, total saturated",g,--,--,0.000,0.000
"Fatty acids, total trans",g,--,--,0.000,0.000
"Cholesterol",mg,--,--,0,0
Amino Acids
Other
Ingredients
"CERTIFIED ORGANIC POMEGRANATE POWDER (PUNICA GRANATUM)" Date available: 07/14/2017 Date last updated by company: 07/14/2017
