Source: USDA Branded Food Products Database Release December 2017 Software v.3.8.6.4 2017-10-02
Report Run at: December 18, 2017 14:02 EST
"Nutrient data for: 45314855, POMEGRANATE DRINK WITH BASIL SEEDS, UPC: 6284515067138"
Food Group:  Branded Food Products Database
Common Name:

Nutrient,Unit,Data points,Std. Error,"1 BOTTLE = 300.0g",1Value per 100 g,
Proximates
"Energy",kcal,--,--,156,52
"Protein",g,--,--,0.00,0.00
"Total lipid (fat)",g,--,--,0.00,0.00
"Carbohydrate, by difference",g,--,--,38.01,12.67
"Fiber, total dietary",g,--,--,0.9,0.3
"Sugars, total",g,--,--,36.00,12.00
Minerals
"Calcium, Ca",mg,--,--,99,33
"Iron, Fe",mg,--,--,0.00,0.00
"Sodium, Na",mg,--,--,27,9
Vitamins
"Vitamin C, total ascorbic acid",mg,--,--,0.0,0.0
"Vitamin A, IU",IU,--,--,0,0
Lipids
"Fatty acids, total saturated",g,--,--,0.000,0.000
"Fatty acids, total trans",g,--,--,0.000,0.000
"Cholesterol",mg,--,--,0,0
Amino Acids
Other
Ingredients
"WATER, BASIL SEED, SUGAR, CITRIC ACID (E330), GELLING AGENT (E418), CARAMEL COLOR, FD&C RED NO.40, ADDED FLAVORING AGENT." Date available: 07/14/2017 Date last updated by company: 07/14/2017
