Source: USDA Branded Food Products Database Release December 2017 Software v.3.8.6.4 2017-10-02
Report Run at: December 18, 2017 14:01 EST
"Nutrient data for: 45180936, POMEGRANATE ARILS, UPC: 011110874979"
Food Group:  Branded Food Products Database
Common Name:

Nutrient,Unit,Data points,Std. Error,"0.75 cup = 140.0g",1Value per 100 g,
Proximates
"Energy",kcal,--,--,120,86
"Protein",g,--,--,2.00,1.43
"Total lipid (fat)",g,--,--,2.00,1.43
"Carbohydrate, by difference",g,--,--,26.00,18.57
"Fiber, total dietary",g,--,--,6.0,4.3
"Sugars, total",g,--,--,19.00,13.57
Minerals
"Calcium, Ca",mg,--,--,20,14
"Iron, Fe",mg,--,--,0.36,0.26
"Sodium, Na",mg,--,--,0,0
Vitamins
"Vitamin C, total ascorbic acid",mg,--,--,15.0,10.7
"Vitamin A, IU",IU,--,--,0,0
Lipids
"Fatty acids, total saturated",g,--,--,0.000,0.000
"Fatty acids, total trans",g,--,--,0.000,0.000
"Cholesterol",mg,--,--,0,0
Amino Acids
Other
Ingredients
"POMEGRANATE ARILS." Date available: 07/14/2017 Date last updated by company: 07/14/2017
