Source: USDA Branded Food Products Database Release December 2017 Software v.3.8.6.4 2017-10-02
Report Run at: December 18, 2017 14:20 EST
"Nutrient data for: 45154358, POP!, GOURMET POPCORN, SRIRACHA HOT CHILI SAUCE, UPC: 855332005038"
Food Group:  Branded Food Products Database
Common Name:

Nutrient,Unit,Data points,Std. Error,"1 CONTAINER = 21.0g",1Value per 100 g,
Proximates
"Energy",kcal,--,--,120,571
"Protein",g,--,--,1.00,4.76
"Total lipid (fat)",g,--,--,9.00,42.86
"Carbohydrate, by difference",g,--,--,9.00,42.86
"Fiber, total dietary",g,--,--,1.0,4.8
"Sugars, total",g,--,--,1.00,4.76
Minerals
"Calcium, Ca",mg,--,--,0,0
"Iron, Fe",mg,--,--,0.86,4.08
"Sodium, Na",mg,--,--,330,1571
Vitamins
"Vitamin C, total ascorbic acid",mg,--,--,0.0,0.0
"Vitamin A, IU",IU,--,--,0,0
Lipids
"Fatty acids, total saturated",g,--,--,1.000,4.760
"Fatty acids, total trans",g,--,--,0.000,0.000
"Cholesterol",mg,--,--,0,0
Amino Acids
Other
Ingredients
"GOURMET POPCORN, SUNFLOWER OIL, HUY FOND FOODS SRIRACHA HOT CHILI SAUCE (CHILI, SUGAR, SALT, GARLIC, DISTILLED VINEGAR, POTASSIUM SORBATE, SODIUM BISULFITE, XANTHAN GUM), CHILI PEPPER, SUGAR, AND SALT." Date available: 07/14/2017 Date last updated by company: 07/14/2017
