Source: USDA Branded Food Products Database Release December 2017 Software v.3.8.6.4 2017-10-02
Report Run at: December 17, 2017 05:57 EST
"Nutrient data for: 45154307, POP WATER, SPARKLING BEVERAGE, NATURAL GRAPE, UPC: 853752004082"
Food Group:  Branded Food Products Database
Common Name:

Nutrient,Unit,Data points,Std. Error,"12.0 OZA = 355.0g",1Value per 100 g,
Proximates
"Energy",kcal,--,--,89,25
"Protein",g,--,--,0.00,0.00
"Total lipid (fat)",g,--,--,0.00,0.00
"Carbohydrate, by difference",g,--,--,13.99,3.94
"Sugars, total",g,--,--,6.99,1.97
Minerals
"Sodium, Na",mg,--,--,4,1
Vitamins
Lipids
Amino Acids
Other
Ingredients
"CARBONATED WATER, SUGAR, ERYTHRITOL, CITRIC ACID, MALIC ACID, STEVIA REBAUDIANA LEAF EXTRACT, NATURAL FLAVOR (EXTRACTS OF NATURAL GRAPE)." Date available: 07/14/2017 Date last updated by company: 07/14/2017
