Source: USDA Branded Food Products Database Release December 2017 Software v.3.8.6.4 2017-10-02
Report Run at: December 17, 2017 05:58 EST
"Nutrient data for: 45155627, POP WEAVER, SLIM POP MICROWAVE POPCORN, UPC: 041667038739"
Food Group:  Branded Food Products Database
Common Name:

Nutrient,Unit,Data points,Std. Error,"1 BAG, MAKES ABOUT 9 1/2 CUPS POPPED = 72.0g",1Value per 100 g,
Proximates
"Energy",kcal,--,--,390,542
"Protein",g,--,--,5.00,6.94
"Total lipid (fat)",g,--,--,26.00,36.11
"Carbohydrate, by difference",g,--,--,36.00,50.00
"Fiber, total dietary",g,--,--,6.0,8.3
"Sugars, total",g,--,--,0.00,0.00
Minerals
"Calcium, Ca",mg,--,--,20,28
"Iron, Fe",mg,--,--,1.00,1.39
"Sodium, Na",mg,--,--,310,431
Vitamins
Lipids
"Fatty acids, total saturated",g,--,--,4.997,6.940
"Fatty acids, total monounsaturated",g,--,--,13.997,19.440
"Fatty acids, total polyunsaturated",g,--,--,4.997,6.940
"Fatty acids, total trans",g,--,--,0.000,0.000
"Cholesterol",mg,--,--,0,0
Amino Acids
Other
Ingredients
"POPCORN, CANOLA OIL, HYDROGENATED COTTONSEED OIL, PALM OIL, SALT, NATURAL FLAVOR, TBHQ AND ASCORBIC ACID FOR FRESHNESS" Date available: 08/11/2017 Date last updated by company: 08/11/2017
