Source: USDA Branded Food Products Database Release December 2017 Software v.3.8.6.4 2017-10-02
Report Run at: December 18, 2017 14:06 EST
"Nutrient data for: 45206281, POP & BOTTLE, ALMOND MILK, VANILLA BEAN, UPC: 868806000040"
Food Group:  Branded Food Products Database
Common Name:

Nutrient,Unit,Data points,Std. Error,"11.0 ONZ = 325.0g",1Value per 100 g,
Proximates
"Energy",kcal,--,--,150,46
"Protein",g,--,--,4.00,1.23
"Total lipid (fat)",g,--,--,6.99,2.15
"Carbohydrate, by difference",g,--,--,21.00,6.46
"Fiber, total dietary",g,--,--,2.9,0.9
"Sugars, total",g,--,--,13.00,4.00
Minerals
"Calcium, Ca",mg,--,--,81,25
"Iron, Fe",mg,--,--,0.52,0.16
"Sodium, Na",mg,--,--,39,12
"Manganese, Mn",mg,--,--,0.000,0.000
Vitamins
"Vitamin C, total ascorbic acid",mg,--,--,1.0,0.3
"Vitamin A, IU",IU,--,--,0,0
Lipids
"Fatty acids, total saturated",g,--,--,0.000,0.000
"Fatty acids, total trans",g,--,--,0.000,0.000
"Cholesterol",mg,--,--,0,0
Amino Acids
Other
Ingredients
"ORGANIC ALMOND MILK (WATER, ORGANIC ALMONDS), ORGANIC DATES, ORGANIC COCONUT CRYSTALS, ORGANIC VANILLA BEAN EXTRACT, PINK HIMALAYAN SALT" Date available: 10/19/2017 Date last updated by company: 10/19/2017
