Source: USDA Branded Food Products Database Release December 2017 Software v.3.8.6.4 2017-10-02
Report Run at: December 18, 2017 14:19 EST
"Nutrient data for: 45057417, POPCRINKLES, POPPED POTATO CRINKLES, SOUR CREAM & ONION, UPC: 810607020192"
Food Group:  Branded Food Products Database
Common Name:

Nutrient,Unit,Data points,Std. Error,"0.87 ONZ = 25.0g",1Value per 100 g,
Proximates
"Energy",kcal,--,--,100,400
"Protein",g,--,--,2.00,8.00
"Total lipid (fat)",g,--,--,3.00,12.00
"Carbohydrate, by difference",g,--,--,17.00,68.00
"Fiber, total dietary",g,--,--,1.0,4.0
"Sugars, total",g,--,--,1.00,4.00
Minerals
"Calcium, Ca",mg,--,--,20,80
"Iron, Fe",mg,--,--,0.72,2.88
"Sodium, Na",mg,--,--,220,880
Vitamins
"Vitamin C, total ascorbic acid",mg,--,--,18.0,72.0
"Vitamin A, IU",IU,--,--,0,0
Lipids
"Fatty acids, total saturated",g,--,--,0.000,0.000
"Fatty acids, total monounsaturated",g,--,--,1.500,6.000
"Fatty acids, total polyunsaturated",g,--,--,1.000,4.000
"Fatty acids, total trans",g,--,--,0.000,0.000
"Cholesterol",mg,--,--,0,0
Amino Acids
Other
Ingredients
"POTATO FLAKES, POTATO STARCH, DEGERMED YELLOW CORN MEAL, WHOLE GRAIN CORN MEAL, SALT, SEASONING (WHEY, NONFAT DRY MILK, ONION POWDER, SALT, MALTODEXTRIN, SOUR CREAM {CULTURED CREAM, NONFAT MILK}, BUTTERMILK, NATURAL FLAVORS, PARSLEY, CITRIC ACID, YEAST EXTRACT, LACTIC ACID), SUNFLOWER OIL." Date available: 07/14/2017 Date last updated by company: 07/14/2017
