Source: USDA Branded Food Products Database Release December 2017 Software v.3.8.6.4 2017-10-02
Report Run at: December 18, 2017 14:18 EST
"Nutrient data for: 45322944, POPCORN, UPC: 046567018768"
Food Group:  Branded Food Products Database
Common Name:

Nutrient,Unit,Data points,Std. Error,"2.5 | AS PACKAGED, ABOUT = 33.0g",1Value per 100 g,
Proximates
"Energy",kcal,--,--,140,424
"Protein",g,--,--,3.00,9.09
"Total lipid (fat)",g,--,--,5.00,15.15
"Carbohydrate, by difference",g,--,--,20.00,60.61
"Fiber, total dietary",g,--,--,5.0,15.2
"Sugars, total",g,--,--,0.00,0.00
Minerals
"Calcium, Ca",mg,--,--,0,0
"Iron, Fe",mg,--,--,1.09,3.31
"Sodium, Na",mg,--,--,180,545
Vitamins
"Vitamin C, total ascorbic acid",mg,--,--,0.0,0.0
"Vitamin A, IU",IU,--,--,0,0
Lipids
"Fatty acids, total saturated",g,--,--,2.000,6.060
"Fatty acids, total monounsaturated",g,--,--,1.502,4.550
"Fatty acids, total polyunsaturated",g,--,--,0.000,0.000
"Fatty acids, total trans",g,--,--,0.000,0.000
"Cholesterol",mg,--,--,0,0
Amino Acids
Other
Ingredients
"POPCORN, PALM OIL WITH PRESERVATIVE (TBHQ), SALT, POTASSIUM CHLORIDE, NATURAL FLAVOR, COLOR (ANNATTO EXTRACT)." Date available: 09/09/2017 Date last updated by company: 09/09/2017
