Source: USDA Branded Food Products Database Release December 2017 Software v.3.8.6.4 2017-10-02
Report Run at: December 18, 2017 14:17 EST
"Nutrient data for: 45261111, POPCORN, UPC: 084114126740"
Food Group:  Branded Food Products Database
Common Name:

Nutrient,Unit,Data points,Std. Error,"3.0 CUPS | ABOUT = 28.0g",1Value per 100 g,
Proximates
"Energy",kcal,--,--,150,536
"Protein",g,--,--,2.00,7.14
"Total lipid (fat)",g,--,--,11.00,39.29
"Carbohydrate, by difference",g,--,--,14.00,50.00
"Fiber, total dietary",g,--,--,2.0,7.1
"Sugars, total",g,--,--,1.00,3.57
Minerals
"Calcium, Ca",mg,--,--,0,0
"Iron, Fe",mg,--,--,1.29,4.59
"Sodium, Na",mg,--,--,240,857
Vitamins
"Vitamin C, total ascorbic acid",mg,--,--,0.0,0.0
"Vitamin A, IU",IU,--,--,357,1275
Lipids
"Fatty acids, total saturated",g,--,--,1.000,3.570
"Fatty acids, total monounsaturated",g,--,--,8.000,28.570
"Fatty acids, total polyunsaturated",g,--,--,1.000,3.570
"Fatty acids, total trans",g,--,--,0.000,0.000
"Cholesterol",mg,--,--,0,0
Amino Acids
Other
Ingredients
"POPCORN, VEGETABLE OIL (SAFFLOWER, SUNFLOWER, AND/OR CANOLA OIL), MALTODEXTRIN, SALT, SUGAR, SPICES (CHILI PEPPER, RED CHILI, CAYENNE PEPPER), RED BELL PEPPER, GARLIC POWDER, PAPRIKA, VINEGAR, DRIED RED PEPPER SAUCE (AGED RED PEPPER, VINEGAR, SALT), NATURAL FLAVORS." Date available: 07/14/2017 Date last updated by company: 07/14/2017
