Source: USDA Branded Food Products Database Release December 2017 Software v.3.8.6.4 2017-10-02
Report Run at: December 18, 2017 14:14 EST
"Nutrient data for: 45152550, POPCORN, UPC: 076721279353"
Food Group:  Branded Food Products Database
Common Name:

Nutrient,Unit,Data points,Std. Error,"2.0 cup = 28.0g",1Value per 100 g,
Proximates
"Energy",kcal,--,--,160,571
"Protein",g,--,--,2.00,7.14
"Total lipid (fat)",g,--,--,12.00,42.86
"Carbohydrate, by difference",g,--,--,12.00,42.86
"Fiber, total dietary",g,--,--,2.0,7.1
"Sugars, total",g,--,--,1.00,3.57
Minerals
"Calcium, Ca",mg,--,--,40,143
"Iron, Fe",mg,--,--,0.64,2.29
"Sodium, Na",mg,--,--,470,1679
Vitamins
"Vitamin C, total ascorbic acid",mg,--,--,0.0,0.0
"Vitamin A, IU",IU,--,--,535,1912
Lipids
"Fatty acids, total saturated",g,--,--,1.501,5.360
"Fatty acids, total trans",g,--,--,0.000,0.000
"Cholesterol",mg,--,--,5,18
Amino Acids
Other
Ingredients
"POPCORN, VEGETABLE OIL (CORN, AND/OR SUNFLOWER, AND/OR CANOLA), BUTTERMILK, CHEDDAR CHEESE (CULTURED MILK, SALT, ENZYMES), SALT, SUGAR, NATURAL FLAVORS (INCLUDING TORULA YEAST), SPICES, DEHYDRATED ONION, MONOSODIUM GLUTAMATE, EXTRACTIVES OF PAPRIKA, EXTRACTIVES OF TURMERIC, DISODIUM PHOSPHATE, LACTIC ACID." Date available: 07/14/2017 Date last updated by company: 07/14/2017
