Source: USDA Branded Food Products Database Release December 2017 Software v.3.8.6.4 2017-10-02
Report Run at: December 18, 2017 14:07 EST
"Nutrient data for: 45268856, POPCORN CAKES, UPC: 816925020029"
Food Group:  Branded Food Products Database
Common Name:

Nutrient,Unit,Data points,Std. Error,"2.0 CAKES = 22.5g",1Value per 100 g,
Proximates
"Energy",kcal,--,--,90,400
"Protein",g,--,--,2.00,8.89
"Total lipid (fat)",g,--,--,2.50,11.11
"Carbohydrate, by difference",g,--,--,14.00,62.22
"Fiber, total dietary",g,--,--,3.0,13.3
"Sugars, total",g,--,--,0.00,0.00
Minerals
"Calcium, Ca",mg,--,--,0,0
"Iron, Fe",mg,--,--,0.80,3.55
"Sodium, Na",mg,--,--,210,933
Vitamins
"Vitamin C, total ascorbic acid",mg,--,--,0.0,0.0
"Vitamin A, IU",IU,--,--,0,0
Lipids
"Fatty acids, total saturated",g,--,--,0.000,0.000
"Fatty acids, total trans",g,--,--,0.000,0.000
"Cholesterol",mg,--,--,0,0
Amino Acids
Other
Ingredients
"POPCORN, SUNFLOWER OIL, RICE FLOUR, SEA SALT, NATURAL NON-DAIRY CHEDDAR FLAVOR AND LACTIC ACID." Date available: 07/14/2017 Date last updated by company: 07/14/2017
