Source: USDA Branded Food Products Database Release December 2017 Software v.3.8.6.4 2017-10-02
Report Run at: December 18, 2017 14:10 EST
"Nutrient data for: 45061416, POPCORN SALT, UPC: 070381100408"
Food Group:  Branded Food Products Database
Common Name:

Nutrient,Unit,Data points,Std. Error,"1 tsp = 1.0g",1Value per 100 g,
Proximates
"Energy",kcal,--,--,0,0
"Protein",g,--,--,0.00,0.00
"Total lipid (fat)",g,--,--,0.00,0.00
"Carbohydrate, by difference",g,--,--,0.00,0.00
"Sugars, total",g,--,--,0.00,0.00
Minerals
"Sodium, Na",mg,--,--,375,37500
Vitamins
Lipids
Amino Acids
Other
Ingredients
"SALT, MONOSODIUM GLUTAMATE, ARTIFICIAL FLAVOR (CONTAINS FD&C YELLOW #5 & #6, FD& C RED #40, FD&C BLUE #2), CANOLA OIL, SILICON DIOXIDE (ANTICAKING AGENT), ARTIFICIAL COLOR (CONTAINS SUGAR, FD&C YELLOW #5 & #6)." Date available: 07/14/2017 Date last updated by company: 07/14/2017
