Source: USDA Branded Food Products Database Release December 2017 Software v.3.8.6.4 2017-10-02
Report Run at: December 18, 2017 14:23 EST
"Nutrient data for: 45264034, POPPERS, CORN SNACKS, UPC: 041262285187"
Food Group:  Branded Food Products Database
Common Name:

Nutrient,Unit,Data points,Std. Error,"1 BAG = 21.0g",1Value per 100 g,
Proximates
"Energy",kcal,--,--,110,524
"Protein",g,--,--,1.00,4.76
"Total lipid (fat)",g,--,--,6.00,28.57
"Carbohydrate, by difference",g,--,--,13.00,61.90
"Fiber, total dietary",g,--,--,0.0,0.0
"Sugars, total",g,--,--,2.00,9.52
Minerals
"Calcium, Ca",mg,--,--,0,0
"Iron, Fe",mg,--,--,0.00,0.00
"Sodium, Na",mg,--,--,150,714
Vitamins
"Vitamin C, total ascorbic acid",mg,--,--,0.0,0.0
"Vitamin A, IU",IU,--,--,0,0
Lipids
"Fatty acids, total saturated",g,--,--,1.499,7.140
"Fatty acids, total trans",g,--,--,0.000,0.000
"Cholesterol",mg,--,--,0,0
Amino Acids
Other
Ingredients
"YELLOW CORN MEAL, VEGETABLE OIL (CONTAINS ONE OR MORE OF THE FOLLOWING: CORN, COTTONSEED, SUNFLOWER, SOYBEAN OR CANOLA OIL), WHEY, CORN STARCH, DEXTROSE, MALTODEXTRIN, SALT, JALAPENO PEPPER, CHEDDAR CHEESE (CULTURED MILK, SALT, ENZYMES), BUTTERMILK SOLIDS, ONION, BUTTER, MONOSODIUM GLUTAMATE, BUTTER OIL, NATURAL AND ARTIFICIAL FLAVORS, TORULA YEAST, GARLIC, YELLOW 6 LAKE, SODIUM PHOSPHATE, YELLOW 5 LAKE, EXTRACTIVES OF PAPRIKA, YELLOW 5, YELLOW 6, AUTOLYZED YEAST EXTRACT, THIAMIN HYDROCHLORIDE, FRUCTOSE, DISODIUM GUANYLATE, DISODIUM INOSINATE." Date available: 07/14/2017 Date last updated by company: 07/14/2017
