Source: USDA Branded Food Products Database Release December 2017 Software v.3.8.6.4 2017-10-02
Report Run at: December 18, 2017 14:23 EST
"Nutrient data for: 45218508, POPPERS, CRUNCH FRIES, UPC: 028400247122"
Food Group:  Branded Food Products Database
Common Name:

Nutrient,Unit,Data points,Std. Error,"32.0 PIECES | ABOUT = 28.0g",1Value per 100 g,
Proximates
"Energy",kcal,--,--,140,500
"Protein",g,--,--,1.00,3.57
"Total lipid (fat)",g,--,--,7.00,25.00
"Carbohydrate, by difference",g,--,--,19.00,67.86
"Fiber, total dietary",g,--,--,1.0,3.6
"Sugars, total",g,--,--,2.00,7.14
Minerals
"Calcium, Ca",mg,--,--,0,0
"Iron, Fe",mg,--,--,0.36,1.29
"Sodium, Na",mg,--,--,220,786
Vitamins
"Vitamin C, total ascorbic acid",mg,--,--,0.0,0.0
"Vitamin A, IU",IU,--,--,0,0
Lipids
"Fatty acids, total saturated",g,--,--,1.000,3.570
"Fatty acids, total trans",g,--,--,0.000,0.000
"Cholesterol",mg,--,--,0,0
Amino Acids
Other
Ingredients
"DRIED POTATOES, VEGETABLE OIL (CORN AND/OR SUNFLOWER OIL), POTATO STARCH, CHEDDAR SEASONING (MALTODEXTRIN [MADE FROM CORN], WHEY, SALT, CHEDDAR CHEESE [MILK, CHEESE CULTURES, SALT, ENZYMES], ONION POWDER, MONOSODIUM GLUTAMATE, CORN OIL, NATURAL AND ARTIFICIAL FLAVORS, ARTIFICIAL COLOR [YELLOW 5 LAKE, YELLOW 6 LAKE, YELLOW 5, YELLOW 6], BUTTERMILK, SOUR CREAM [CULTURED CREAM, SKIM MILK], LACTOSE, BUTTER [CREAM, SALT], SODIUM CASEINATE, CITRIC ACID, BLUE CHEESE [MILK, CHEESE CULTURES, SALT, ENZYMES], YEAST EXTRACT, LACTIC ACID, SKIM MILK, GARLIC POWDER, SUNFLOWER OIL), MODIFIED POTATO STARCH, AND SALT." Date available: 12/31/2016 Date last updated by company: 12/31/2016
