Source: USDA Branded Food Products Database Release December 2017 Software v.3.8.6.4 2017-10-02
Report Run at: December 18, 2017 14:25 EST
"Nutrient data for: 45085902, POPSICLE, AIR HEADS, ICE POPS, STRAWBERRY, BLUE RASPBERRY, WATERMELON, WHITE MYSTERY, UPC: 077567137036"
Food Group:  Branded Food Products Database
Common Name:

Nutrient,Unit,Data points,Std. Error,"80.0 g = 80.0g",1Value per 100 g,
Proximates
"Energy",kcal,--,--,100,125
"Protein",g,--,--,0.00,0.00
"Total lipid (fat)",g,--,--,0.00,0.00
"Carbohydrate, by difference",g,--,--,24.00,30.00
"Sugars, total",g,--,--,9.00,11.25
Minerals
"Sodium, Na",mg,--,--,10,12
Vitamins
"Vitamin C, total ascorbic acid",mg,--,--,21.0,26.2
Lipids
Amino Acids
Other
Ingredients
"STRAWBERRY POP [WATER, MALTODEXTRIN, HIGH FRUCTOSE CORN SYRUP, CORN SYRUP, SUGAR, CONTAINS 1 PERCENT OR LESS OF EACH OF THE FOLLOWING: CITRIC ACID, MALIC ACID, LOCUST BEAN GUM, GUAR GUM, NATURAL AND ARTIFICIAL FLAVOR, ASCORBIC ACID (VITAMIN C), RED 40] BLUE RASPBERRY POP [WATER, MALTODEXTRIN, HIGH FRUCTOSE CORN SYRUP, CORN SYRUP, SUGAR, CONTAINS 1 PERCENT OR LESS OF THE FOLLOWING: CITRIC ACID, MALIC ACID, LOCUST BEAN GUM, GUAR GUM, NATURAL AND ARTIFICIAL FLAVOR, ASCORBIC ACID (VITAMIN C), BLUE 1] WATERMELON POP [WATER, MALTODEXTRIN, HIGH FRUCTOSE CORN SYRUP, CORN SYRUP, SUGAR, CONTAINS 1 PERCENT OR LESS OF EACH OF THE FOLLOWING: CITRIC ACID, MALIC ACID, LOCUST BEAN GUM, GUAR GUM, ASCORBIC ACID (VITAMIN C), NATURAL AND ARTIFICIAL FLAVOR, YELLOW 5, BLUE 1] WHITE MYSTERY POP [WATER, MALTODEXTRIN, HIGH FRUCTOSE CORN SYRUP, CORN SYRUP, SUGAR, CONTAINS 1 PERCENT OR LESS OF EACH OF THE FOLLOWING: CITRIC ACID, MALIC ACID, LOCUST BEAN GUM, GUAR GUM, ASCORBIC ACID (VITAMIN C), NATURAL FLAVOR." Date available: 04/24/2017 Date last updated by company: 04/24/2017
