Source: USDA Branded Food Products Database Release December 2017 Software v.3.8.6.4 2017-10-02
Report Run at: December 18, 2017 14:25 EST
"Nutrient data for: 45062531, POPSALOT, GOURMET POPCORN, CLANDESTINE CARAMEL, UPC: 855250005004"
Food Group:  Branded Food Products Database
Common Name:

Nutrient,Unit,Data points,Std. Error,"1 cup = 30.0g",1Value per 100 g,
Proximates
"Energy",kcal,--,--,125,417
"Protein",g,--,--,1.00,3.33
"Total lipid (fat)",g,--,--,7.00,23.33
"Carbohydrate, by difference",g,--,--,16.00,53.33
"Fiber, total dietary",g,--,--,1.0,3.3
"Sugars, total",g,--,--,10.00,33.33
Minerals
"Calcium, Ca",mg,--,--,0,0
"Iron, Fe",mg,--,--,0.60,2.00
"Sodium, Na",mg,--,--,70,233
Vitamins
"Vitamin C, total ascorbic acid",mg,--,--,0.0,0.0
"Vitamin A, IU",IU,--,--,334,1112
Lipids
"Fatty acids, total saturated",g,--,--,2.001,6.670
"Fatty acids, total trans",g,--,--,0.000,0.000
"Cholesterol",mg,--,--,10,33
Amino Acids
Other
Ingredients
"NON GMO POPCRON, BROWN SUGAR, CORN SYRUP, BUTTER (CREAM SALT), PURE VANILLA EXTRACT, SEA SALT, BAKING SODA," Date available: 06/24/2017 Date last updated by company: 06/24/2017
