Source: USDA Branded Food Products Database Release December 2017 Software v.3.8.6.4 2017-10-02
Report Run at: December 17, 2017 06:03 EST
"Nutrient data for: 45283209, PORK & GREEN CHILE SAUCE, UPC: 070132108202"
Food Group:  Branded Food Products Database
Common Name:

Nutrient,Unit,Data points,Std. Error,"1 cup = 245.0g",1Value per 100 g,
Proximates
"Energy",kcal,--,--,299,122
"Protein",g,--,--,18.01,7.35
"Total lipid (fat)",g,--,--,22.00,8.98
"Carbohydrate, by difference",g,--,--,6.00,2.45
"Fiber, total dietary",g,--,--,2.0,0.8
"Sugars, total",g,--,--,1.00,0.41
Minerals
"Calcium, Ca",mg,--,--,20,8
"Iron, Fe",mg,--,--,1.52,0.62
"Sodium, Na",mg,--,--,1080,441
Vitamins
"Vitamin C, total ascorbic acid",mg,--,--,6.4,2.6
"Vitamin A, IU",IU,--,--,211,86
Lipids
"Fatty acids, total saturated",g,--,--,7.007,2.860
"Fatty acids, total trans",g,--,--,0.000,0.000
"Cholesterol",mg,--,--,76,31
Amino Acids
Other
Ingredients
"PORK, GREEN CHILE PUREE, WATER, ONIONS, TOMATILLOS, CONTAINS 2% OR LESS OF THE FOLLOWING: SALT, CORN OIL, CHICKEN BROTH CONCENTRATE [CHICKEN FAT, CHICKEN BROTH, DRIED SOY SAUCE [SOYBEANS, WHEAT, SALT], YEAST EXTRACT, DRIED WHEY, KONJAC GUM, CORNSTARCH, FLAVORING]), MODIFIED FOOD STARCH AND SPICES." Date available: 07/14/2017 Date last updated by company: 07/14/2017
