Source: USDA Branded Food Products Database Release December 2017 Software v.3.8.6.4 2017-10-02
Report Run at: December 17, 2017 06:03 EST
"Nutrient data for: 45199152, PORK ITALIAN STYLE MEATBALLS, UPC: 078742127309"
Food Group:  Branded Food Products Database
Common Name:

Nutrient,Unit,Data points,Std. Error,"2.0 MEATBALLS = 140.0g",1Value per 100 g,
Proximates
"Energy",kcal,--,--,400,286
"Protein",g,--,--,21.99,15.71
"Total lipid (fat)",g,--,--,32.00,22.86
"Carbohydrate, by difference",g,--,--,4.00,2.86
"Fiber, total dietary",g,--,--,0.0,0.0
"Sugars, total",g,--,--,2.00,1.43
Minerals
"Calcium, Ca",mg,--,--,99,71
"Iron, Fe",mg,--,--,0.92,0.66
"Potassium, K",mg,--,--,480,343
"Sodium, Na",mg,--,--,1140,814
Vitamins
"Vitamin C, total ascorbic acid",mg,--,--,2.1,1.5
"Vitamin A, IU",IU,--,--,343,245
Lipids
"Fatty acids, total saturated",g,--,--,11.004,7.860
"Fatty acids, total monounsaturated",g,--,--,13.006,9.290
"Fatty acids, total polyunsaturated",g,--,--,6.006,4.290
"Fatty acids, total trans",g,--,--,0.000,0.000
"Cholesterol",mg,--,--,90,64
Amino Acids
Other
Ingredients
"PORK, PARMESAN CHEESE (PASTEURIZED PART SKIM MILK, SALT, ENZYMES, CHEESE CULTURES, CELLULOSE POWDER, STARCH, POTASSIUM SORBATE), WATER, LESS THAN 2% OF THE FOLLOWING: SALT, PARSLEY, DEXTROSE, FLAVORINGS, PAPRIKA, CORN SYRUP SOLIDS, VINEGAR, SODIUM LACTATE, BHA, PROPYL GALLATE, CITRIC ACID." Date available: 07/14/2017 Date last updated by company: 07/14/2017
