Source: USDA Branded Food Products Database Release December 2017 Software v.3.8.6.4 2017-10-02
Report Run at: December 17, 2017 06:04 EST
"Nutrient data for: 45218154, PORK LOIN FILET, UPC: 070247211279"
Food Group:  Branded Food Products Database
Common Name:

Nutrient,Unit,Data points,Std. Error,"4.0 ONZ = 112.0g",1Value per 100 g,
Proximates
"Energy",kcal,--,--,120,107
"Protein",g,--,--,20.00,17.86
"Total lipid (fat)",g,--,--,2.50,2.23
"Carbohydrate, by difference",g,--,--,2.00,1.79
"Fiber, total dietary",g,--,--,0.0,0.0
"Sugars, total",g,--,--,1.00,0.89
Minerals
"Calcium, Ca",mg,--,--,0,0
"Iron, Fe",mg,--,--,0.55,0.49
"Sodium, Na",mg,--,--,430,384
Vitamins
"Vitamin C, total ascorbic acid",mg,--,--,0.0,0.0
"Vitamin A, IU",IU,--,--,152,136
Lipids
"Fatty acids, total saturated",g,--,--,0.997,0.890
"Fatty acids, total trans",g,--,--,0.000,0.000
"Cholesterol",mg,--,--,55,49
Amino Acids
Other
Ingredients
"WATER, POTASSIUM LACTATE, DEXTROSE, SODIUM PHOSPHATES, SALT, RUBBED WITH SPICES, DEXTROSE, SALT, DEHYDRATED GARLIC, ONION POWDER, MALTODEXTRIN, DEHYDRATED RED BELL PEPPER, NATURAL SMOKE FLAVOR, CITRIC ACID." Date available: 07/14/2017 Date last updated by company: 07/14/2017
