Source: USDA Branded Food Products Database Release December 2017 Software v.3.8.6.4 2017-10-02
Report Run at: December 17, 2017 06:06 EST
"Nutrient data for: 45199197, PORK SAUSAGE LINKS, UPC: 091945999313"
Food Group:  Branded Food Products Database
Common Name:

Nutrient,Unit,Data points,Std. Error,"3.0 COOKED LINKS = 56.0g",1Value per 100 g,
Proximates
"Energy",kcal,--,--,270,482
"Protein",g,--,--,11.00,19.64
"Total lipid (fat)",g,--,--,16.00,28.57
"Carbohydrate, by difference",g,--,--,3.00,5.36
"Sugars, total",g,--,--,1.00,1.79
Minerals
"Calcium, Ca",mg,--,--,20,36
"Iron, Fe",mg,--,--,0.35,0.63
"Sodium, Na",mg,--,--,400,714
Vitamins
Lipids
"Fatty acids, total saturated",g,--,--,5.998,10.710
"Fatty acids, total trans",g,--,--,0.000,0.000
"Cholesterol",mg,--,--,50,89
Amino Acids
Other
Ingredients
"PORK, WATER, AND LESS THAN 2% OF THE FOLLOWING: CORN SYRUP, SALT, POTASSIUM LACTATE, VINEGAR, DEXTROSE, SUGAR, FLAVORINGS, MONOSODIUM GLUTAMATE, MAPLE FLAVORING (WATER, PROPYLENE GLYCOL, CORN SYRUP, NATURAL FLAVOR, CARAMEL COLOR, MAPLE SYRUP, SODIUM BENZOATE), MAPLE SYRUP, BHA, PROPYL GALLATE, CITRIC ACID, IN A COLLAGEN CASING." Date available: 10/19/2017 Date last updated by company: 10/19/2017
