Source: USDA Branded Food Products Database Release December 2017 Software v.3.8.6.4 2017-10-02
Report Run at: December 17, 2017 06:09 EST
"Nutrient data for: 45292481, PORK SKINS, UPC: 073497005506"
Food Group:  Branded Food Products Database
Common Name:

Nutrient,Unit,Data points,Std. Error,"0.5 cup = 14.0g",1Value per 100 g,
Proximates
"Energy",kcal,--,--,80,571
"Protein",g,--,--,8.00,57.14
"Total lipid (fat)",g,--,--,5.00,35.71
"Carbohydrate, by difference",g,--,--,0.00,0.00
Minerals
"Sodium, Na",mg,--,--,230,1643
Vitamins
Lipids
"Fatty acids, total saturated",g,--,--,1.499,10.710
"Fatty acids, total trans",g,--,--,0.000,0.000
"Cholesterol",mg,--,--,20,143
Amino Acids
Other
Ingredients
"FRIED PORK SKINS, SALT." Date available: 07/14/2017 Date last updated by company: 07/14/2017
