Source: USDA Branded Food Products Database Release December 2017 Software v.3.8.6.4 2017-10-02
Report Run at: December 17, 2017 06:09 EST
"Nutrient data for: 45329595, PORK SKINS, UPC: 041200099203"
Food Group:  Branded Food Products Database
Common Name:

Nutrient,Unit,Data points,Std. Error,"0.5 ONZ = 14.0g",1Value per 100 g,
Proximates
"Energy",kcal,--,--,80,571
"Protein",g,--,--,7.00,50.00
"Total lipid (fat)",g,--,--,5.00,35.71
"Carbohydrate, by difference",g,--,--,0.00,0.00
"Fiber, total dietary",g,--,--,0.0,0.0
"Sugars, total",g,--,--,0.00,0.00
Minerals
"Calcium, Ca",mg,--,--,0,0
"Iron, Fe",mg,--,--,0.00,0.00
"Sodium, Na",mg,--,--,300,2143
Vitamins
"Vitamin C, total ascorbic acid",mg,--,--,0.0,0.0
"Vitamin A, IU",IU,--,--,0,0
Lipids
"Fatty acids, total saturated",g,--,--,2.001,14.290
"Fatty acids, total trans",g,--,--,0.000,0.000
"Cholesterol",mg,--,--,15,107
Amino Acids
Other
Ingredients
"FRIED PORK SKINS, SALT, SUGAR, RICE FLOUR, TORULA YEAST, MONOSODIUM GLUTAMATE, TOMATO POWDER, ONION POWDER, SPICES, EXTRACTIVES OF PAPRIKA, MALTODEXTRIN, TRICALCIUM PHOSPHATE, GROUND CHILI PEPPER, GARLIC POWDER, SPICE EXTRACTIVES." Date available: 10/13/2017 Date last updated by company: 10/13/2017
