Source: USDA Branded Food Products Database Release December 2017 Software v.3.8.6.4 2017-10-02
Report Run at: December 17, 2017 06:08 EST
"Nutrient data for: 45196653, PORK SAUSAGE, UPC: 051933053717"
Food Group:  Branded Food Products Database
Common Name:

Nutrient,Unit,Data points,Std. Error,"2.0 ONZ = 56.0g",1Value per 100 g,
Proximates
"Energy",kcal,--,--,230,411
"Protein",g,--,--,13.00,23.21
"Total lipid (fat)",g,--,--,20.00,35.71
"Carbohydrate, by difference",g,--,--,0.00,0.00
"Fiber, total dietary",g,--,--,0.0,0.0
"Sugars, total",g,--,--,0.00,0.00
Minerals
"Calcium, Ca",mg,--,--,20,36
"Iron, Fe",mg,--,--,0.71,1.26
"Sodium, Na",mg,--,--,510,911
Vitamins
"Vitamin C, total ascorbic acid",mg,--,--,0.0,0.0
"Vitamin A, IU",IU,--,--,0,0
Lipids
"Fatty acids, total saturated",g,--,--,7.000,12.500
"Fatty acids, total trans",g,--,--,0.000,0.000
"Cholesterol",mg,--,--,60,107
Amino Acids
Other
Ingredients
"PORK (PORK, FRESH HAMS, PORK TENDERLOINS), WATER, SALT, SPICES, SUGAR." Date available: 07/14/2017 Date last updated by company: 07/14/2017
