Source: USDA Branded Food Products Database Release December 2017 Software v.3.8.6.4 2017-10-02
Report Run at: December 17, 2017 06:06 EST
"Nutrient data for: 45126809, PORK SAUSAGE GRAVY, UPC: 075900005479"
Food Group:  Branded Food Products Database
Common Name:

Nutrient,Unit,Data points,Std. Error,"0.5 cup = 128.0g",1Value per 100 g,
Proximates
"Energy",kcal,--,--,160,125
"Protein",g,--,--,3.99,3.12
"Total lipid (fat)",g,--,--,11.00,8.59
"Carbohydrate, by difference",g,--,--,11.00,8.59
"Fiber, total dietary",g,--,--,0.0,0.0
"Sugars, total",g,--,--,1.00,0.78
Minerals
"Calcium, Ca",mg,--,--,20,16
"Iron, Fe",mg,--,--,0.18,0.14
"Sodium, Na",mg,--,--,570,445
Vitamins
"Vitamin C, total ascorbic acid",mg,--,--,0.0,0.0
"Vitamin A, IU",IU,--,--,0,0
Lipids
"Fatty acids, total saturated",g,--,--,3.994,3.120
"Fatty acids, total trans",g,--,--,0.000,0.000
"Cholesterol",mg,--,--,20,16
Amino Acids
Other
Ingredients
"WATER, PORK, GRAVY (FOOD STARCH-MODIFIED, PALM OIL, MALTODEXTRIN, ENRICHED BLEACHED FLOUR [WHEAT FLOUR, NIACIN, REDUCED IRON, THIAMIN MONONITRATE, RIBOFLAVIN, FOLIC ACID], SALT, CORN SYRUP SOLIDS, SUGAR, CONTAINS LESS THAN 2%: BLACK PEPPER, HIGH OLEIC SUNFLOWER OIL, SODIUM CASEINATE [A MILK DERIVATIVE], HYDROLYZED VEGETABLE PROTEIN [CORN, SOY, AND/OR WHEAT], AUTOLYZED YEAST EXTRACT, MONO GLYCERIDES, NATURAL AND ARTIFICIAL FLAVOR, SODIUM CITRATE, POTASSIUM CHLORIDE, CARRAGEENAN, DISODIUM GUANYLATE, DISODIUM INOSINATE, COLOR ADDED), CULTURED DEXTROSE, SEASONING (SALT, NATURAL SPICES, SUGAR, MONOSODIUM GLUTAMATE)." Date available: 07/14/2017 Date last updated by company: 07/14/2017
