Source: USDA Branded Food Products Database Release December 2017 Software v.3.8.6.4 2017-10-02
Report Run at: December 17, 2017 06:01 EST
"Nutrient data for: 45236692, PORK & BEEF SAUSAGE, UPC: 070773432025"
Food Group:  Branded Food Products Database
Common Name:

Nutrient,Unit,Data points,Std. Error,"1 LINK = 84.0g",1Value per 100 g,
Proximates
"Energy",kcal,--,--,260,310
"Protein",g,--,--,15.00,17.86
"Total lipid (fat)",g,--,--,21.00,25.00
"Carbohydrate, by difference",g,--,--,2.00,2.38
"Fiber, total dietary",g,--,--,0.0,0.0
"Sugars, total",g,--,--,1.00,1.19
Minerals
"Calcium, Ca",mg,--,--,60,71
"Iron, Fe",mg,--,--,0.71,0.84
"Sodium, Na",mg,--,--,730,869
Vitamins
"Vitamin C, total ascorbic acid",mg,--,--,0.0,0.0
"Vitamin A, IU",IU,--,--,131,156
Lipids
"Fatty acids, total saturated",g,--,--,7.997,9.520
"Fatty acids, total trans",g,--,--,0.000,0.000
"Cholesterol",mg,--,--,60,71
Amino Acids
Other
Ingredients
"PORK AND BEEF, CHEDDAR CHEESE (CULTURED MILK, WATER, CREAM, SKIM MILK, SODIUM PHOSPHATES, SALT, VEGETABLE COLOR, ENZYMES AND ANTICAKE), WATER, SALT, DEXTROSE, BLACK PEPPER, GROUND YELLOW MUSTARD, AUTOLYZED YEAST, CHILI PEPPER, (CHILI PEPPER, <100PPM ETHOXQUIN FOR COLOR RETENTION, NOT MORE THAN 2% SILICON DIOXIDE AS ANTI-CAKING), SUGAR, HABANERO PEPPERS, SODIUM PHOSPHATE, GRANULATED GARLIC, SODIUM ACETATE, SODIUM DIACETATE, JALAPENO PEPPERS, CAYENNE PEPPER, SODIUM ERYTHORBATE, SODIUM NITRATE, PACKED IN NATURAL PORK CASING." Date available: 06/25/2017 Date last updated by company: 06/25/2017
