Source: USDA Branded Food Products Database Release December 2017 Software v.3.8.6.4 2017-10-02
Report Run at: December 17, 2017 06:13 EST
"Nutrient data for: 45145558, POSH CHOCOLAT, MILK CHOCOLATE, UPC: 736211871299"
Food Group:  Branded Food Products Database
Common Name:

Nutrient,Unit,Data points,Std. Error,"1.15 ONZ = 32.5g",1Value per 100 g,
Proximates
"Energy",kcal,--,--,174,535
"Protein",g,--,--,2.30,7.08
"Total lipid (fat)",g,--,--,12.00,36.92
"Carbohydrate, by difference",g,--,--,17.00,52.31
"Fiber, total dietary",g,--,--,1.0,3.1
"Sugars, total",g,--,--,16.00,49.23
Minerals
"Calcium, Ca",mg,--,--,20,62
"Iron, Fe",mg,--,--,1.38,4.26
"Sodium, Na",mg,--,--,3,10
Vitamins
"Vitamin C, total ascorbic acid",mg,--,--,0.0,0.0
"Vitamin A, IU",IU,--,--,0,0
Lipids
"Fatty acids, total saturated",g,--,--,7.000,21.540
"Fatty acids, total trans",g,--,--,0.000,0.000
"Cholesterol",mg,--,--,6,18
Amino Acids
Other
Ingredients
"COCOA BUTTER, COCOA MASS, VANILLA BEANS, SOY LECITHIN, CANE SUGAR, DRY MILK, CHAI SPICES, SMOKED ALMONDS." Date available: 07/14/2017 Date last updated by company: 07/14/2017
