Source: USDA Branded Food Products Database Release December 2017 Software v.3.8.6.4 2017-10-02
Report Run at: December 17, 2017 06:13 EST
"Nutrient data for: 45191904, POSH PANTRY, LEMON CHIA MUFFINS, UPC: 604700219207"
Food Group:  Branded Food Products Database
Common Name:

Nutrient,Unit,Data points,Std. Error,"2.6 ONZ = 74.0g",1Value per 100 g,
Proximates
"Energy",kcal,--,--,280,378
"Protein",g,--,--,3.00,4.05
"Total lipid (fat)",g,--,--,15.00,20.27
"Carbohydrate, by difference",g,--,--,34.00,45.95
"Fiber, total dietary",g,--,--,1.0,1.4
"Sugars, total",g,--,--,18.00,24.32
Minerals
"Calcium, Ca",mg,--,--,20,27
"Iron, Fe",mg,--,--,1.61,2.17
"Sodium, Na",mg,--,--,240,324
Vitamins
"Vitamin C, total ascorbic acid",mg,--,--,0.0,0.0
"Vitamin A, IU",IU,--,--,149,201
Lipids
"Fatty acids, total saturated",g,--,--,1.998,2.700
"Fatty acids, total trans",g,--,--,0.000,0.000
"Cholesterol",mg,--,--,50,68
Amino Acids
Other
Ingredients
"SUGAR, ENRICHED WHEAT FLOUR BLEACHED (FLOUR, NIACIN, IRON, THIAMINE MONONITRATE, RIBOFLAVIN, FOLIC ACID), WHOLE EGGS, VEGETABLE OIL (CANOLA, PALM AND SOYBEAN), FOOD STARCH-MODIFIED, CHIA SEEDS, LEMON PEEL, LEMON JUICE, WHEY, LEAVENING (SODIUM ALUMINUM PHOSPHATE, BAKING SODA), SALT, PROPYLENE GLYCOL MONO & DIESTERS OF FATTY ACIDS, VITAL WHEAT GLUTEN, SODIUM STEAROYL LACTYLATE, DEXTROSE, CORN STARCH, NATURAL AND ARTIFICIAL FLAVOR, SODIUM PROPIONATE (AS A PRESERVATIVE), MONO & DIGLYCERIDES, SOY FLOUR AND YELLOW 5." Date available: 07/14/2017 Date last updated by company: 07/14/2017
