Source: USDA Branded Food Products Database Release December 2017 Software v.3.8.6.4 2017-10-02
Report Run at: December 17, 2017 06:14 EST
"Nutrient data for: 45240035, POSITIVE ENERGY, ORANGE JUICE, UPC: 854913004002"
Food Group:  Branded Food Products Database
Common Name:

Nutrient,Unit,Data points,Std. Error,"1 CONTAINER = 296.0g",1Value per 100 g,
Proximates
"Energy",kcal,--,--,139,47
"Protein",g,--,--,2.99,1.01
"Total lipid (fat)",g,--,--,0.00,0.00
"Carbohydrate, by difference",g,--,--,32.00,10.81
"Fiber, total dietary",g,--,--,0.6,0.2
"Sugars, total",g,--,--,25.01,8.45
Minerals
"Calcium, Ca",mg,--,--,21,7
"Iron, Fe",mg,--,--,0.30,0.10
"Magnesium, Mg",mg,--,--,27,9
"Potassium, K",mg,--,--,595,201
"Sodium, Na",mg,--,--,0,0
Vitamins
"Vitamin C, total ascorbic acid",mg,--,--,155.7,52.6
"Thiamin",mg,--,--,0.000,0.000
"Niacin",mg,--,--,0.648,0.219
"Pantothenic acid",mg,--,--,0.485,0.164
"Vitamin B-6",mg,--,--,0.098,0.033
"Vitamin A, IU",IU,--,--,326,110
Lipids
Amino Acids
Other
Ingredients
"ORANGE JUICE, NATURAL CAFFEINE, ASCORBIC ACID (VITAMIN C) NATURAL FLAVORS." Date available: 07/14/2017 Date last updated by company: 07/14/2017
