Source: USDA Branded Food Products Database Release December 2017 Software v.3.8.6.4 2017-10-02
Report Run at: December 17, 2017 06:15 EST
"Nutrient data for: 45155830, POSTOBON, SODA, APPLE, UPC: 051202008868"
Food Group:  Branded Food Products Database
Common Name:

Nutrient,Unit,Data points,Std. Error,"8.0 OZA = 240.0g",1Value per 100 g,
Proximates
"Energy",kcal,--,--,118,49
"Protein",g,--,--,0.00,0.00
"Total lipid (fat)",g,--,--,0.00,0.00
"Carbohydrate, by difference",g,--,--,30.00,12.50
"Sugars, total",g,--,--,30.00,12.50
Minerals
"Sodium, Na",mg,--,--,10,4
Vitamins
Lipids
Amino Acids
Other
Ingredients
"CONTAINS: CARBONATED WATER, HIGH FRUCTOSE CORN SYRUP, NATURAL AND ARTIFICIAL FLAVORS, CITRIC ACID, SODIUM BENZOATE (PRESERVATIVE) AND ARTIFICIAL COLORS (FD&C RED 40, FD&C BLUE 1)." Date available: 06/25/2017 Date last updated by company: 06/25/2017
