Source: USDA Branded Food Products Database Release December 2017 Software v.3.8.6.4 2017-10-02
Report Run at: December 17, 2017 06:50 EST
"Nutrient data for: 45221465, POT STICKERS, UPC: 807176708200"
Food Group:  Branded Food Products Database
Common Name:

Nutrient,Unit,Data points,Std. Error,"7.0 PIECES = 140.0g",1Value per 100 g,
Proximates
"Energy",kcal,--,--,270,193
"Protein",g,--,--,10.00,7.14
"Total lipid (fat)",g,--,--,12.00,8.57
"Carbohydrate, by difference",g,--,--,31.00,22.14
"Fiber, total dietary",g,--,--,2.0,1.4
"Sugars, total",g,--,--,2.00,1.43
Minerals
"Calcium, Ca",mg,--,--,41,29
"Iron, Fe",mg,--,--,1.64,1.17
"Sodium, Na",mg,--,--,589,421
Vitamins
"Vitamin C, total ascorbic acid",mg,--,--,0.0,0.0
"Vitamin A, IU",IU,--,--,0,0
Lipids
"Fatty acids, total saturated",g,--,--,3.500,2.500
"Fatty acids, total trans",g,--,--,0.000,0.000
"Cholesterol",mg,--,--,25,18
Amino Acids
Other
Ingredients
"FILLING: PORK CABBAGE, ONION, WATER, SOY SAUCE [WATER, WHEAT, SOYBEAN, SALT], SESAME OIL, GARLIC, SALT, SUGAR, GINGER, BLACK PEPPER DOUGH: ENRICHED FLOUR [WHEAT FLOUR, MALTED BARLEY FLOUR, NIACIN, REDUCED IRON, THIAMINE MONONITRATE, RIBOFLAVIN, FOLIC ACID], WATER, SOYBEAN OIL, SALT." Date available: 07/14/2017 Date last updated by company: 07/14/2017
