Source: USDA Branded Food Products Database Release December 2017 Software v.3.8.6.4 2017-10-02
Report Run at: December 17, 2017 06:19 EST
"Nutrient data for: 45045580, POTATO CHIPS, UPC: 041780000583"
Food Group:  Branded Food Products Database
Common Name:

Nutrient,Unit,Data points,Std. Error,"20.0 CHIPS | ABOUT = 28.0g",1Value per 100 g,
Proximates
"Energy",kcal,--,--,150,536
"Protein",g,--,--,2.00,7.14
"Total lipid (fat)",g,--,--,10.00,35.71
"Carbohydrate, by difference",g,--,--,14.00,50.00
"Fiber, total dietary",g,--,--,1.0,3.6
"Sugars, total",g,--,--,1.00,3.57
Minerals
"Calcium, Ca",mg,--,--,0,0
"Iron, Fe",mg,--,--,0.64,2.29
"Magnesium, Mg",mg,--,--,29,102
"Phosphorus, P",mg,--,--,71,255
"Potassium, K",mg,--,--,300,1071
"Sodium, Na",mg,--,--,240,857
Vitamins
"Vitamin C, total ascorbic acid",mg,--,--,10.7,38.3
"Thiamin",mg,--,--,0.000,0.000
"Niacin",mg,--,--,2.858,10.207
"Vitamin B-6",mg,--,--,0.143,0.510
"Vitamin A, IU",IU,--,--,0,0
Lipids
"Fatty acids, total saturated",g,--,--,2.500,8.930
"Fatty acids, total monounsaturated",g,--,--,1.999,7.140
"Fatty acids, total polyunsaturated",g,--,--,5.499,19.640
"Fatty acids, total trans",g,--,--,0.000,0.000
"Cholesterol",mg,--,--,0,0
Amino Acids
Other
Ingredients
"POTATOES, COTTONSEED OIL, DEXTROSE, SALT, SUGAR, CORN FLOUR, TORULA YEAST, ONION AND GARLIC POWDERS, HORSERADISH POWDER, TOMATO POWDER, NATURAL COLORING (INCLUDES EXTRACTIVES OF PAPRIKA, ANNATTO AND TURMERIC), SPICE EXTRACTIVES, NATURAL SMOKE FLAVOR." Date available: 07/14/2017 Date last updated by company: 07/14/2017
