Source: USDA Branded Food Products Database Release December 2017 Software v.3.8.6.4 2017-10-02
Report Run at: December 17, 2017 06:47 EST
"Nutrient data for: 45270519, POTATO SALAD, UPC: 035826070647"
Food Group:  Branded Food Products Database
Common Name:

Nutrient,Unit,Data points,Std. Error,"0.5 cup = 140.0g",1Value per 100 g,
Proximates
"Energy",kcal,--,--,200,143
"Protein",g,--,--,3.00,2.14
"Total lipid (fat)",g,--,--,9.00,6.43
"Carbohydrate, by difference",g,--,--,28.00,20.00
"Fiber, total dietary",g,--,--,2.9,2.1
"Sugars, total",g,--,--,6.01,4.29
Minerals
"Calcium, Ca",mg,--,--,0,0
"Iron, Fe",mg,--,--,1.44,1.03
"Sodium, Na",mg,--,--,480,343
Vitamins
"Vitamin C, total ascorbic acid",mg,--,--,15.0,10.7
"Vitamin A, IU",IU,--,--,99,71
Lipids
"Fatty acids, total saturated",g,--,--,1.498,1.070
"Fatty acids, total trans",g,--,--,0.000,0.000
"Cholesterol",mg,--,--,15,11
Amino Acids
Other
Ingredients
"POTATOES, MAYONNAISE (SOYBEAN OIL, WATER, EGG YOLKS, VINEGAR, HIGH FRUCTOSE CORN SYRUP, SALT, CALCIUM DISODIUM EDTA TO PROTECT FLAVOR), SWEET RELISH (CUCUMBERS, WATER, HIGH FRUCTOSE CORN SYRUP, SALT, WHITE DISTILLED VINEGAR, MODIFIED FOOD STARCH, NATURAL FLAVORS, SODIUM BENZOATE [PRESERVATIVE], CALCIUM CHLORIDE), HIGH FRUCTOSE CORN SYRUP, MUSTARD (DISTILLED VINEGAR, WATER, MUSTARD SEED, SALT, TURMERIC, PAPRIKA, SPICE, GARLIC POWDER), RED BELL PEPPER, HARD COOKED EGGS, GREEN BELL PEPPER, ONION, SUGAR, VINEGAR, SALT, WATER, MODIFIED CORN STARCH, POTASSIUM SORBATE AND SODIUM BENZOATE TO PROTECT FLAVOR, XANTHAN GUM, COLOR (WATER, PROPYLENE GLYCOL, YELLOW 5, CITRIC ACID, SODIUM BENZOATE AS A PRESERVATIVE)." Date available: 07/14/2017 Date last updated by company: 07/14/2017
