Source: USDA Branded Food Products Database Release December 2017 Software v.3.8.6.4 2017-10-02
Report Run at: December 17, 2017 06:46 EST
"Nutrient data for: 45194335, POTATO SALAD, UPC: 018894329787"
Food Group:  Branded Food Products Database
Common Name:

Nutrient,Unit,Data points,Std. Error,"0.66 cup = 151.0g",1Value per 100 g,
Proximates
"Energy",kcal,--,--,290,192
"Protein",g,--,--,4.00,2.65
"Total lipid (fat)",g,--,--,22.00,14.57
"Carbohydrate, by difference",g,--,--,20.01,13.25
"Fiber, total dietary",g,--,--,2.0,1.3
"Sugars, total",g,--,--,0.00,0.00
Minerals
"Calcium, Ca",mg,--,--,0,0
"Iron, Fe",mg,--,--,4.17,2.76
"Sodium, Na",mg,--,--,220,146
Vitamins
"Vitamin C, total ascorbic acid",mg,--,--,33.4,22.1
"Vitamin A, IU",IU,--,--,0,0
Lipids
"Fatty acids, total saturated",g,--,--,4.500,2.980
"Fatty acids, total trans",g,--,--,0.000,0.000
"Cholesterol",mg,--,--,26,17
Amino Acids
Other
Ingredients
"YUKON GOLD POTATOES; MAYONNAISE (SOYBEAN OIL, WATER, WHOLE EGGS AND EGG YOLKS, VINEGAR, SALT, SUGAR, LEMON JUICE [FROM CONCENTRATE], OLEORESIN PAPRIKA, NATURAL FLAVORS, CALCIUM DISODIUM EDTA [USED TO PROTECT QUALITY]); WATER; CHEDDAR CHEESE (PASTEURIZED MILK, CHEESE CULTURE, SALT, ENZYMES, ANNATTO COLORING, FLAVORED ANTICAKING AGENT [CORN FLOUR, SOYBEAN OIL, CELLULOSE, CHEESE CULTURES, SORBIC ACID, SODIUM CASEINATE, NATURAL AND ARTIFICIAL FLAVORS]); SOUR CREAM (CULTURED MILK, CREAM, MODIFIED FOOD STARCH, GUAR GUM, CARRAGEENAN, LOCUST BEAN GUM); SCALLIONS; WHITE VINEGAR; SEASONING (MALTODEXTRIN, CULTURED DEXTROSE, SODIUM DIACETATE, SALT, EGG WHITE LYSOZYME, NISIN PREPARATION); BACON (CURED WITH WATER, SALT, SUGAR, SODIUM ERYTHORBATE, SODIUM PHOSPHATE, SODIUM NITRATE, SMOKE FLAVORING. MAY ALSO CONTAIN BROWN SUGAR, DEXTROSE, FLAVORING, HONEY, DEHYDRATED PORK BROTH, POTASSIUM CHLORIDE, POTASSIUM LACTATE, SODIUM DIACETATE, SODIUM ASCORBATE, POTASSIUM CHLORIDE); BACON FLAVOR (NATURAL FLAVOR, SALT, NATURAL SMOKE FLAVOR, CITRIC ACID); GARLIC*, ONION*, SPICE." Date available: 07/14/2017 Date last updated by company: 07/14/2017
