Source: USDA Branded Food Products Database Release December 2017 Software v.3.8.6.4 2017-10-02
Report Run at: December 17, 2017 06:48 EST
"Nutrient data for: 45197123, POTATO SLIDER ROLLS, UPC: 071010000403"
Food Group:  Branded Food Products Database
Common Name:

Nutrient,Unit,Data points,Std. Error,"1 ROLL = 35.0g",1Value per 100 g,
Proximates
"Energy",kcal,--,--,100,286
"Protein",g,--,--,3.00,8.57
"Total lipid (fat)",g,--,--,1.00,2.86
"Carbohydrate, by difference",g,--,--,20.00,57.14
"Fiber, total dietary",g,--,--,1.0,2.9
"Sugars, total",g,--,--,4.00,11.43
Minerals
"Calcium, Ca",mg,--,--,0,0
"Iron, Fe",mg,--,--,1.54,4.41
"Potassium, K",mg,--,--,40,114
"Sodium, Na",mg,--,--,180,514
Vitamins
"Vitamin C, total ascorbic acid",mg,--,--,0.0,0.0
"Thiamin",mg,--,--,0.350,1.000
"Riboflavin",mg,--,--,0.102,0.291
"Niacin",mg,--,--,1.714,4.897
"Vitamin A, IU",IU,--,--,0,0
Lipids
"Fatty acids, total saturated",g,--,--,0.000,0.000
"Fatty acids, total monounsaturated",g,--,--,0.000,0.000
"Fatty acids, total polyunsaturated",g,--,--,0.500,1.430
"Fatty acids, total trans",g,--,--,0.000,0.000
"Cholesterol",mg,--,--,0,0
Amino Acids
Other
Ingredients
"ENRICHED FLOUR (WHEAT FLOUR, MALTED BARLEY FLOUR, NIACIN, REDUCED IRON, THIAMIN MONONITRATE, RIBOFLAVIN, FOLIC ACID), WATER, SUGAR, POTATO FLOUR, CONTAINS 2% OR LESS OF EACH OF THE FOLLOWING: SOYBEAN OIL, WHEAT GLUTEN, SALT, YEAST, RAISIN JUICE CONCENTRATE, WHEAT FLOUR, GUAR GUM, CALCIUM SULFATE, ENZYMES, ASCORBIC ACID (DOUGH CONDITIONER)" Date available: 07/14/2017 Date last updated by company: 07/14/2017
