Source: USDA Branded Food Products Database Release December 2017 Software v.3.8.6.4 2017-10-02
Report Run at: December 17, 2017 06:35 EST
"Nutrient data for: 45200731, POTATO DUSTED BURGER BUNS, UPC: 726486000074"
Food Group:  Branded Food Products Database
Common Name:

Nutrient,Unit,Data points,Std. Error,"2.0 ONZ = 57.0g",1Value per 100 g,
Proximates
"Energy",kcal,--,--,150,263
"Protein",g,--,--,3.00,5.26
"Total lipid (fat)",g,--,--,3.00,5.26
"Carbohydrate, by difference",g,--,--,26.00,45.61
"Fiber, total dietary",g,--,--,1.0,1.8
"Sugars, total",g,--,--,5.00,8.77
Minerals
"Calcium, Ca",mg,--,--,0,0
"Iron, Fe",mg,--,--,1.27,2.22
"Sodium, Na",mg,--,--,200,351
Vitamins
"Vitamin C, total ascorbic acid",mg,--,--,0.0,0.0
"Vitamin A, IU",IU,--,--,88,154
Lipids
"Fatty acids, total saturated",g,--,--,2.001,3.510
"Cholesterol",mg,--,--,10,18
Amino Acids
Other
Ingredients
"ENRICHED WHEAT FLOUR, WATER, GRANULATED SUGAR, EGGS, UNSALTED BUTTER, YEAST, MALT, DOUGH CONDITIONER, SALT, VITAL WHEAT GLUTEN, CALCIUM PROPIONATE, ENZYMES" Date available: 07/14/2017 Date last updated by company: 07/14/2017
