Source: USDA Branded Food Products Database Release December 2017 Software v.3.8.6.4 2017-10-02
Report Run at: December 17, 2017 06:44 EST
"Nutrient data for: 45283063, POTATO GNOCCHI, UPC: 041303000106"
Food Group:  Branded Food Products Database
Common Name:

Nutrient,Unit,Data points,Std. Error,"0.75 cup = 112.0g",1Value per 100 g,
Proximates
"Energy",kcal,--,--,270,241
"Protein",g,--,--,8.00,7.14
"Total lipid (fat)",g,--,--,0.50,0.45
"Carbohydrate, by difference",g,--,--,57.00,50.89
"Fiber, total dietary",g,--,--,2.0,1.8
"Sugars, total",g,--,--,2.00,1.79
Minerals
"Calcium, Ca",mg,--,--,40,36
"Iron, Fe",mg,--,--,3.37,3.01
"Sodium, Na",mg,--,--,190,170
Vitamins
"Vitamin C, total ascorbic acid",mg,--,--,7.5,6.7
"Vitamin A, IU",IU,--,--,0,0
Lipids
"Fatty acids, total saturated",g,--,--,0.000,0.000
"Fatty acids, total trans",g,--,--,0.000,0.000
"Cholesterol",mg,--,--,0,0
Amino Acids
Other
Ingredients
"ENRICHED DURUM FLOUR (DURUM FLOUR, NIACIN, FERROUS SULFATE, THIAMIN MONONITRATE, RIBOFLAVIN, FOLIC ACID), POTATO FLAKES (POTATOES, VEGETABLE MONOGLYCERIDES, SODIUM ACID PYROPHOSPHATE AND CITRIC ACID FOR COLOR RETENTION), WATER, SEA SALT, CORN MEAL USED IN PROCESSING." Date available: 07/14/2017 Date last updated by company: 07/14/2017
