Source: USDA Branded Food Products Database Release December 2017 Software v.3.8.6.4 2017-10-02
Report Run at: December 17, 2017 06:17 EST
"Nutrient data for: 45095120, POTATO CHIPS, UPC: 083791070032"
Food Group:  Branded Food Products Database
Common Name:

Nutrient,Unit,Data points,Std. Error,"1 ONZ = 28.3g",1Value per 100 g,
Proximates
"Energy",kcal,--,--,150,530
"Protein",g,--,--,2.00,7.07
"Total lipid (fat)",g,--,--,8.00,28.27
"Carbohydrate, by difference",g,--,--,17.00,60.07
"Fiber, total dietary",g,--,--,1.0,3.5
"Sugars, total",g,--,--,0.00,0.00
Minerals
"Calcium, Ca",mg,--,--,0,0
"Iron, Fe",mg,--,--,0.64,2.25
"Sodium, Na",mg,--,--,110,389
Vitamins
"Vitamin C, total ascorbic acid",mg,--,--,10.6,37.5
"Vitamin A, IU",IU,--,--,0,0
Lipids
"Fatty acids, total saturated",g,--,--,1.500,5.300
"Fatty acids, total trans",g,--,--,0.000,0.000
"Cholesterol",mg,--,--,0,0
Amino Acids
Other
Ingredients
"POTATOES, PEANUT OIL OR A BLEND OF PEANUT OIL AND CANOLA, CORN, OR SUNFLOWER OIL, DEXTROSE, MALTODEXTRIN, SALT, SPICES, PAPRIKA (COLOR), ONION POWDER, TORULA YEAST, GARLIC POWDER, NATURAL HICKORY SMOKE FLAVOR, EXTRACTIVES OF PAPRIKA (COLOR), ARTIFICIAL FLAVOR." Date available: 07/14/2017 Date last updated by company: 07/14/2017
