Source: USDA Branded Food Products Database Release December 2017 Software v.3.8.6.4 2017-10-02
Report Run at: December 17, 2017 06:45 EST
"Nutrient data for: 45081455, POTATO LEEK SOUP MIX, UPC: 766694301020"
Food Group:  Branded Food Products Database
Common Name:

Nutrient,Unit,Data points,Std. Error,"1 CUP PREPARED | ABOUT = 11.0g",1Value per 100 g,
Proximates
"Energy",kcal,--,--,30,273
"Protein",g,--,--,1.00,9.09
"Total lipid (fat)",g,--,--,0.00,0.00
"Carbohydrate, by difference",g,--,--,7.00,63.64
"Fiber, total dietary",g,--,--,1.0,9.1
"Sugars, total",g,--,--,0.00,0.00
Minerals
"Calcium, Ca",mg,--,--,20,182
"Iron, Fe",mg,--,--,1.64,14.87
"Sodium, Na",mg,--,--,5,45
Vitamins
"Vitamin C, total ascorbic acid",mg,--,--,21.8,198.3
"Vitamin A, IU",IU,--,--,909,8264
Lipids
"Fatty acids, total saturated",g,--,--,0.000,0.000
"Fatty acids, total trans",g,--,--,0.000,0.000
"Cholesterol",mg,--,--,0,0
Amino Acids
Other
Ingredients
"IDAHO POTATO CUBES, ONION, LEEK, CELERY, SCALLIONS AND SPICES." Date available: 06/25/2017 Date last updated by company: 06/25/2017
