Source: USDA Branded Food Products Database Release December 2017 Software v.3.8.6.4 2017-10-02
Report Run at: December 17, 2017 06:27 EST
"Nutrient data for: 45249527, POTATO CHIPS, UPC: 028400077699"
Food Group:  Branded Food Products Database
Common Name:

Nutrient,Unit,Data points,Std. Error,"15.0 CHIPS | ABOUT = 28.0g",1Value per 100 g,
Proximates
"Energy",kcal,--,--,150,536
"Protein",g,--,--,2.00,7.14
"Total lipid (fat)",g,--,--,9.00,32.14
"Carbohydrate, by difference",g,--,--,16.00,57.14
"Fiber, total dietary",g,--,--,1.0,3.6
"Sugars, total",g,--,--,2.00,7.14
Minerals
"Calcium, Ca",mg,--,--,0,0
"Iron, Fe",mg,--,--,0.36,1.29
"Sodium, Na",mg,--,--,150,536
Vitamins
"Vitamin C, total ascorbic acid",mg,--,--,6.0,21.4
"Thiamin",mg,--,--,0.000,0.000
"Vitamin B-6",mg,--,--,0.286,1.021
"Vitamin A, IU",IU,--,--,0,0
Lipids
"Fatty acids, total saturated",g,--,--,1.501,5.360
"Fatty acids, total trans",g,--,--,0.000,0.000
"Cholesterol",mg,--,--,0,0
Amino Acids
Other
Ingredients
"POTATOES, VEGETABLE OIL (SUNFLOWER, CORN, AND/OR CANOLA OIL), BARBECUE SEASONING (SUGAR, DEXTROSE, SALT, MALTODEXTRIN [MADE FROM CORN], MOLASSES, TORULA YEAST, ONION POWDER, SPICES, TOMATO POWDER, PAPRIKA, NATURAL FLAVORS [INCLUDING NATURAL SMOKE FLAVOR], CORN STARCH, CARAMEL COLOR, YEAST EXTRACT, PAPRIKA EXTRACT, GARLIC POWDER, AND MUSTARD SEED OIL)." Date available: 09/23/2016 Date last updated by company: 09/23/2016
