Source: USDA Branded Food Products Database Release December 2017 Software v.3.8.6.4 2017-10-02
Report Run at: December 17, 2017 06:21 EST
"Nutrient data for: 45151227, POTATO CHIPS, UPC: 032792120031"
Food Group:  Branded Food Products Database
Common Name:

Nutrient,Unit,Data points,Std. Error,"2.0 CUPS, OR ABOUT 10 CHIPS | OR ABOUT = 28.3g",1Value per 100 g,
Proximates
"Energy",kcal,--,--,150,530
"Protein",g,--,--,1.00,3.53
"Total lipid (fat)",g,--,--,10.00,35.34
"Carbohydrate, by difference",g,--,--,13.00,45.94
"Fiber, total dietary",g,--,--,1.0,3.5
"Sugars, total",g,--,--,1.00,3.53
Minerals
"Calcium, Ca",mg,--,--,0,0
"Iron, Fe",mg,--,--,0.64,2.25
"Sodium, Na",mg,--,--,220,777
Vitamins
"Vitamin C, total ascorbic acid",mg,--,--,15.9,56.2
"Vitamin A, IU",IU,--,--,0,0
Lipids
"Fatty acids, total saturated",g,--,--,2.001,7.070
"Fatty acids, total trans",g,--,--,2.001,7.070
"Cholesterol",mg,--,--,0,0
Amino Acids
Other
Ingredients
"SELECT POTATOES, VEGETABLE SHORTENING (CONTAINS ONE OR MORE OF THE FOLLOWING: PARTIALLY HYDROGENATED SOY, CORN, COTTONSEED, OR SUNFLOWER OIL), SALT, AND BARBECUE SEASONING COMPOSED OF: DEXTROSE, CORN FLOUR, SALT, PAPRIKA, ONION AND GARLIC POWDER, TORULA YEAST*, MONOSODIUM GLUTAMATE, CORN STARCH, EXTRACTIVES OF PAPRIKA AND OTHER SPICE, NATURAL HICKORY SMOKE FLAVOR AND LESS THAN 2% SILICON DIOXIDE AND VEGETABLE OIL ADDED TO PREVENT CAKING." Date available: 07/14/2017 Date last updated by company: 07/14/2017
