Source: USDA Branded Food Products Database Release December 2017 Software v.3.8.6.4 2017-10-02
Report Run at: December 17, 2017 06:32 EST
"Nutrient data for: 45314721, POTATO CHIPS, UPC: 011161031949"
Food Group:  Branded Food Products Database
Common Name:

Nutrient,Unit,Data points,Std. Error,"17.0 CHIPS = 28.0g",1Value per 100 g,
Proximates
"Energy",kcal,--,--,150,536
"Protein",g,--,--,2.00,7.14
"Total lipid (fat)",g,--,--,9.00,32.14
"Carbohydrate, by difference",g,--,--,17.00,60.71
"Fiber, total dietary",g,--,--,1.0,3.6
"Sugars, total",g,--,--,2.00,7.14
Minerals
"Calcium, Ca",mg,--,--,0,0
"Iron, Fe",mg,--,--,1.29,4.59
"Potassium, K",mg,--,--,330,1179
"Sodium, Na",mg,--,--,230,821
Vitamins
"Vitamin C, total ascorbic acid",mg,--,--,8.6,30.6
"Vitamin A, IU",IU,--,--,179,638
Lipids
"Fatty acids, total saturated",g,--,--,1.000,3.570
"Fatty acids, total monounsaturated",g,--,--,4.500,16.070
"Fatty acids, total polyunsaturated",g,--,--,2.500,8.930
"Fatty acids, total trans",g,--,--,0.000,0.000
"Cholesterol",mg,--,--,0,0
Amino Acids
Other
Ingredients
"POTATOES, CORN OIL AND/OR SUNFLOWER OIL, SUGAR, DEXTROSE, MALTODEXTRIN, SALT, SPICES, MOLASSES, CHILI PEPPER, PAPRIKA, TOMATO POWDER, ONION POWDER, TORULA YEAST, DISODIUM INOSINATE & DISODIUM GUANYLATE, GARLIC POWDER, CITRIC ACID, DRIED YEAST, NATURAL SMOKE FLAVOR, CARAMEL COLOR, EXTRACTIVES OF PAPRIKA, SPICE EXTRACTIVE, ARTIFICIAL MAPLE FLAVOR." Date available: 07/14/2017 Date last updated by company: 07/14/2017
