Source: USDA Branded Food Products Database Release December 2017 Software v.3.8.6.4 2017-10-02
Report Run at: December 17, 2017 06:33 EST
"Nutrient data for: 45326139, POTATO CHIPS, UPC: 032251256769"
Food Group:  Branded Food Products Database
Common Name:

Nutrient,Unit,Data points,Std. Error,"15.0 CHIPS | ABOUT = 28.0g",1Value per 100 g,
Proximates
"Energy",kcal,--,--,150,536
"Protein",g,--,--,1.00,3.57
"Total lipid (fat)",g,--,--,9.00,32.14
"Carbohydrate, by difference",g,--,--,16.00,57.14
"Fiber, total dietary",g,--,--,1.0,3.6
"Sugars, total",g,--,--,1.00,3.57
Minerals
"Calcium, Ca",mg,--,--,0,0
"Iron, Fe",mg,--,--,0.50,1.79
"Potassium, K",mg,--,--,310,1107
"Sodium, Na",mg,--,--,260,929
Vitamins
Lipids
"Fatty acids, total saturated",g,--,--,1.999,7.140
"Fatty acids, total monounsaturated",g,--,--,2.500,8.930
"Fatty acids, total polyunsaturated",g,--,--,4.500,16.070
"Fatty acids, total trans",g,--,--,0.000,0.000
"Cholesterol",mg,--,--,0,0
Amino Acids
Other
Ingredients
"POTATOES, VEGETABLE OIL (SUNFLOWER AND/OR CORN AND/OR CANOLA AND/OR COTTONSEED), SEASONING (CORN MALTODEXTRIN, SUGAR, SODIUM DIACETATE, WHEY, MONOSODIUM GLUTAMATE, SALT, SOUR CREAM POWDER [SOUR CREAM (CREAM, NONFAT MILK, CULTURES), NONFAT MILK, CITRIC ACID], FLAVORS, DILL WEED, ONION POWDER, YEAST EXTRACT, GARLIC POWDER, CHEDDAR CHEESE POWDER [CHEDDAR CHEESE (PASTEURIZED MILK, CULTURES, SALT, ENZYMES), WHEY, SALT, LACTIC ACID], LEMON JUICE SOLIDS), SALT." Date available: 08/11/2017 Date last updated by company: 08/11/2017
