Source: USDA Branded Food Products Database Release December 2017 Software v.3.8.6.4 2017-10-02
Report Run at: December 17, 2017 06:47 EST
"Nutrient data for: 45324837, POTATO SALAD WITH CAPE FREE EGGS, UPC: 030223019299"
Food Group:  Branded Food Products Database
Common Name:

Nutrient,Unit,Data points,Std. Error,"0.666 cup = 140.0g",1Value per 100 g,
Proximates
"Energy",kcal,--,--,290,207
"Protein",g,--,--,4.00,2.86
"Total lipid (fat)",g,--,--,21.99,15.71
"Carbohydrate, by difference",g,--,--,18.00,12.86
"Fiber, total dietary",g,--,--,2.0,1.4
"Sugars, total",g,--,--,0.99,0.71
Minerals
"Calcium, Ca",mg,--,--,20,14
"Iron, Fe",mg,--,--,0.36,0.26
"Sodium, Na",mg,--,--,620,443
Vitamins
"Vitamin C, total ascorbic acid",mg,--,--,6.0,4.3
"Vitamin A, IU",IU,--,--,99,71
Lipids
"Fatty acids, total saturated",g,--,--,3.500,2.500
"Fatty acids, total trans",g,--,--,0.000,0.000
"Cholesterol",mg,--,--,64,46
Amino Acids
Other
Ingredients
"POTATOES (RUSSET POTATOES, SALT, CITRIC ACID, SODIUM BENZOATE, POTASSIUM SORBATE, SODIUM ACID PYROPHOSPHATE), MAYONNAISE (SOYBEAN OIL, WATER, WHOLE EGGS AND EGG YOLKS, VINEGAR, SALT, SUGAR, LEMON JUICE, CALCIUM DISODIUM EDTA USED TO PROTECT QUALITY, NATURAL FLAVORS), EGGS, RED ONION, CELERY, GREEN ONION, APPLE CIDER VINEGAR (APPLE CIDER VINEGAR, WATER), SEA SALT." Date available: 08/10/2017 Date last updated by company: 08/10/2017
