Source: USDA Branded Food Products Database Release December 2017 Software v.3.8.6.4 2017-10-02
Report Run at: December 17, 2017 06:18 EST
"Nutrient data for: 45142414, POTATO CHIPS, UPC: 021140152374"
Food Group:  Branded Food Products Database
Common Name:

Nutrient,Unit,Data points,Std. Error,"15.0 CHIPS | ABOUT = 28.0g",1Value per 100 g,
Proximates
"Energy",kcal,--,--,150,536
"Protein",g,--,--,2.00,7.14
"Total lipid (fat)",g,--,--,9.00,32.14
"Carbohydrate, by difference",g,--,--,16.00,57.14
"Fiber, total dietary",g,--,--,1.0,3.6
"Sugars, total",g,--,--,1.00,3.57
Minerals
"Calcium, Ca",mg,--,--,20,71
"Iron, Fe",mg,--,--,0.64,2.29
"Sodium, Na",mg,--,--,160,571
Vitamins
"Vitamin C, total ascorbic acid",mg,--,--,8.6,30.6
"Vitamin A, IU",IU,--,--,0,0
Lipids
"Fatty acids, total saturated",g,--,--,1.000,3.570
"Fatty acids, total trans",g,--,--,0.000,0.000
"Cholesterol",mg,--,--,0,0
Amino Acids
Other
Ingredients
"POTATOES, VEGETABLE OIL (CORN AND/OR CANOLA AND/OR SUNFLOWER OIL), SEASONING (CORN MALTODEXTRIN, WHEY, SALT, BUTTERMILK POWDER, LACTOSE, SOUR CREAM [CULTURED CREAM, NONFAT DRY MILK], DEXTROSE, ONION POWDER, SODIUM DIACETATE, PARSLEY, YEAST EXTRACT, CITRIC ACID, GARLIC POWDER, NATURAL FLAVOR, LACTIC ACID, CALCIUM LACTATE, AND NOT MORE THAN 2% EACH CALCIUM SILICATE AND SILICON DIOXIDE ADDED AS ANTICAKING AGENTS)." Date available: 07/14/2017 Date last updated by company: 07/14/2017
