Source: USDA Branded Food Products Database Release December 2017 Software v.3.8.6.4 2017-10-02
Report Run at: December 17, 2017 06:38 EST
"Nutrient data for: 45266584, POTATOES GRATIN, UPC: 077890408605"
Food Group:  Branded Food Products Database
Common Name:

Nutrient,Unit,Data points,Std. Error,"1 PIECES = 100.0g",1Value per 100 g,
Proximates
"Energy",kcal,--,--,180,180
"Protein",g,--,--,4.00,4.00
"Total lipid (fat)",g,--,--,12.00,12.00
"Carbohydrate, by difference",g,--,--,14.00,14.00
"Fiber, total dietary",g,--,--,1.0,1.0
"Sugars, total",g,--,--,0.00,0.00
Minerals
"Calcium, Ca",mg,--,--,100,100
"Iron, Fe",mg,--,--,0.31,0.31
"Potassium, K",mg,--,--,230,230
"Sodium, Na",mg,--,--,380,380
Vitamins
"Vitamin C, total ascorbic acid",mg,--,--,0.0,0.0
"Vitamin A, IU",IU,--,--,425,425
Lipids
"Fatty acids, total saturated",g,--,--,8.000,8.000
"Fatty acids, total trans",g,--,--,0.000,0.000
"Cholesterol",mg,--,--,40,40
Amino Acids
Other
Ingredients
"POTATOES, CREAM, EMMENTHALER CHEESE (PASTEURIZED WHOLE MILK, LACTIC ACID STARTER CULTURE, SALT, ENZYMES), SALT, MODIFIED CELLULOSE, NATURAL GARLIC FLAVOR, SPICES (WHITE PEPPER, NUTMEG)." Date available: 07/14/2017 Date last updated by company: 07/14/2017
