Source: USDA Branded Food Products Database Release December 2017 Software v.3.8.6.4 2017-10-02
Report Run at: December 17, 2017 06:48 EST
"Nutrient data for: 45288388, POTATO SKINS, UPC: 720495922280"
Food Group:  Branded Food Products Database
Common Name:

Nutrient,Unit,Data points,Std. Error,"16.0 CHIPS | ABOUT = 28.4g",1Value per 100 g,
Proximates
"Energy",kcal,--,--,140,493
"Protein",g,--,--,1.00,3.52
"Total lipid (fat)",g,--,--,8.00,28.17
"Carbohydrate, by difference",g,--,--,16.00,56.34
"Fiber, total dietary",g,--,--,1.0,3.5
"Sugars, total",g,--,--,2.00,7.04
Minerals
"Calcium, Ca",mg,--,--,0,0
"Iron, Fe",mg,--,--,0.63,2.23
"Sodium, Na",mg,--,--,110,387
Vitamins
"Vitamin C, total ascorbic acid",mg,--,--,6.3,22.3
"Vitamin A, IU",IU,--,--,0,0
Lipids
"Fatty acids, total saturated",g,--,--,1.000,3.520
"Fatty acids, total trans",g,--,--,0.000,0.000
"Cholesterol",mg,--,--,0,0
Amino Acids
Other
Ingredients
"SOYBEAN OIL AND/OR SUNFLOWER OIL, POTATO STARCH, CORN, POTATO FLAKES, BABY BACK RIB SEASONING (SUGAR, SALT, SPICES, DEXTROSE, TOMATO POWDER, TORULA YEAST, MALTODEXTRIN, GARLIC POWDER, ONION POWDER, CITRIC ACID, CARAMEL COLOR, MOLASSES POWDER, NATURAL SMOKE FLAVOR, YEAST EXTRACT, VINEGAR, NATURAL FLAVORS, PAPRIKA EXTRACT, MALIC ACID), TAPIOCA STARCH, SUGAR, CORN MEAL, POTASSIUM CHLORIDE, SALT, CITRIC ACID, CARAMEL COLOR, MALIC ACID, MONOSODIUM GLUTAMATE, GLYCEROL MONOOLEATE." Date available: 07/14/2017 Date last updated by company: 07/14/2017
