Source: USDA Branded Food Products Database Release December 2017 Software v.3.8.6.4 2017-10-02
Report Run at: December 17, 2017 06:23 EST
"Nutrient data for: 45126579, POTATO CHIPS, UPC: 071104501731"
Food Group:  Branded Food Products Database
Common Name:

Nutrient,Unit,Data points,Std. Error,"17.0 CHIPS | ABOUT = 28.0g",1Value per 100 g,
Proximates
"Energy",kcal,--,--,150,536
"Protein",g,--,--,2.00,7.14
"Total lipid (fat)",g,--,--,9.00,32.14
"Carbohydrate, by difference",g,--,--,15.00,53.57
"Fiber, total dietary",g,--,--,1.0,3.6
"Sugars, total",g,--,--,1.00,3.57
Minerals
"Calcium, Ca",mg,--,--,0,0
"Iron, Fe",mg,--,--,0.64,2.29
"Sodium, Na",mg,--,--,250,893
Vitamins
"Vitamin C, total ascorbic acid",mg,--,--,10.7,38.3
"Vitamin A, IU",IU,--,--,0,0
Lipids
"Fatty acids, total saturated",g,--,--,1.501,5.360
"Fatty acids, total trans",g,--,--,0.000,0.000
"Cholesterol",mg,--,--,0,0
Amino Acids
Other
Ingredients
"POTATOES, VEGETABLE OIL (CONTAINS ONE OR MORE OF THE FOLLOWING: PEANUT, CORN, SUNFLOWER AND/OR CANOLA OIL), SUGAR, SALT, MALTODEXTRIN, DEXTROSE, ONION POWDER, MONOSODIUM GLUTAMATE, DRIED YEAST, TOMATO POWDER, GARLIC POWDER, SODIUM DIACETATE, RED PEPPER, CITRIC ACID, MALIC ACID, NATURAL HICKORY SMOKE FLAVOR, PAPRIKA EXTRACT (FLAVOR & COLOR), DISODIUM INOSINATE & DISODIUM GUANYLATE, FD&C RED NO. 40 LAKE, FD&C YELLOW NO. 6, NATURAL FLAVOR." Date available: 07/14/2017 Date last updated by company: 07/14/2017
