Source: USDA Branded Food Products Database Release December 2017 Software v.3.8.6.4 2017-10-02
Report Run at: December 17, 2017 06:27 EST
"Nutrient data for: 45248390, POTATO CHIPS, UPC: 028400559317"
Food Group:  Branded Food Products Database
Common Name:

Nutrient,Unit,Data points,Std. Error,"1 PACKAGE = 42.5g",1Value per 100 g,
Proximates
"Energy",kcal,--,--,240,565
"Protein",g,--,--,3.00,7.06
"Total lipid (fat)",g,--,--,15.00,35.29
"Carbohydrate, by difference",g,--,--,23.00,54.12
"Fiber, total dietary",g,--,--,2.0,4.7
"Sugars, total",g,--,--,2.00,4.71
Minerals
"Calcium, Ca",mg,--,--,20,47
"Iron, Fe",mg,--,--,0.72,1.69
"Potassium, K",mg,--,--,480,1129
"Sodium, Na",mg,--,--,210,494
Vitamins
"Vitamin C, total ascorbic acid",mg,--,--,9.0,21.2
"Thiamin",mg,--,--,0.000,0.000
"Niacin",mg,--,--,1.882,4.428
"Vitamin A, IU",IU,--,--,100,235
Lipids
"Fatty acids, total saturated",g,--,--,2.499,5.880
"Fatty acids, total trans",g,--,--,0.000,0.000
"Cholesterol",mg,--,--,0,0
Amino Acids
Other
Ingredients
"POTATOES, VEGETABLE OIL (SUNFLOWER, CORN, AND/OR CANOLA OIL), BACON MAC & CHEESE SEASONING (CHEDDAR CHEESE [MILK, CHEESE CULTURES, SALT, ENZYMES], WHEY, SALT, SKIM MILK, MALTODEXTRIN [MADE FROM CORN], WHEY PROTEIN CONCENTRATE, SPICES, YEAST EXTRACT, NATURAL FLAVOR [INCLUDING NATURAL BACON TYPE FLAVOR AND NATURAL EXTRACTIVES OF SESAME], DEXTROSE, ONION POWDER, ROMANO CHEESE [COW'S MILK, CHEESE CULTURES, SALT, ENZYMES], BUTTERMILK, SUNFLOWER OIL, LACTOSE, LACTIC ACID, CITRIC ACID, ANNATTO EXTRACTS, SUGAR, PAPRIKA EXTRACTS, PARMESAN CHEESE [MILK, CHEESE CULTURES, SALT, ENZYMES], AND BACON FAT)" Date available: 09/23/2016 Date last updated by company: 09/23/2016
