Source: USDA Branded Food Products Database Release December 2017 Software v.3.8.6.4 2017-10-02
Report Run at: December 17, 2017 06:47 EST
"Nutrient data for: 45252610, POTATO SKINS SNACKS, LOADED POTATO, UPC: 720495928824"
Food Group:  Branded Food Products Database
Common Name:

Nutrient,Unit,Data points,Std. Error,"16.0 CHIPS | ABOUT = 28.0g",1Value per 100 g,
Proximates
"Energy",kcal,--,--,130,464
"Protein",g,--,--,1.00,3.57
"Total lipid (fat)",g,--,--,7.00,25.00
"Carbohydrate, by difference",g,--,--,17.00,60.71
"Fiber, total dietary",g,--,--,1.0,3.6
"Sugars, total",g,--,--,1.00,3.57
Minerals
"Calcium, Ca",mg,--,--,20,71
"Iron, Fe",mg,--,--,0.00,0.00
"Sodium, Na",mg,--,--,190,679
Vitamins
"Vitamin C, total ascorbic acid",mg,--,--,0.0,0.0
"Vitamin A, IU",IU,--,--,179,638
Lipids
"Fatty acids, total saturated",g,--,--,1.000,3.570
"Fatty acids, total trans",g,--,--,0.000,0.000
"Cholesterol",mg,--,--,0,0
Amino Acids
Other
Ingredients
"POTATO FLAKES, SOYBEAN OIL, POTATO STARCH, CORN, LOADED POTATO SEASONING (MALTODEXTRIN, SALT, WHEY, NATURAL & ARTIFICIAL FLAVORS, TORULA YEAST, ONION POWDER, SPICES, YEAST EXTRACT, CHEDDAR CHEESE (CULTURED MILK, SALT, ENZYMES, LACTIC ACID, BUTTERMILK, EXTRACTIVE OF PAPRIKA, DISODIUM INOSINATE & DISODIUM GUANYLATE, CITRIC ACID, DISODIUM PHOSPHATE, EXTRACTIVES OF TURMERIC), TAPIOCA STARCH, SUGAR, CORN MEAL, POTASSIUM CHLORIDE, SALT, CITRIC ACID, CARAMEL (COLOR), MALIC ACID, MONOSODIUM GLUTAMATE, GLYCEROL MONOOLEATE (EMULSIFIER)." Date available: 07/14/2017 Date last updated by company: 07/14/2017
