Source: USDA Branded Food Products Database Release December 2017 Software v.3.8.6.4 2017-10-02
Report Run at: December 17, 2017 06:47 EST
"Nutrient data for: 45224963, POTATO SALAD WITH EGG, UPC: 021140021786"
Food Group:  Branded Food Products Database
Common Name:

Nutrient,Unit,Data points,Std. Error,"0.5 cup = 140.0g",1Value per 100 g,
Proximates
"Energy",kcal,--,--,230,164
"Protein",g,--,--,4.00,2.86
"Total lipid (fat)",g,--,--,16.00,11.43
"Carbohydrate, by difference",g,--,--,18.00,12.86
"Fiber, total dietary",g,--,--,2.0,1.4
"Sugars, total",g,--,--,5.00,3.57
Minerals
"Calcium, Ca",mg,--,--,20,14
"Iron, Fe",mg,--,--,1.44,1.03
"Sodium, Na",mg,--,--,340,243
Vitamins
"Vitamin C, total ascorbic acid",mg,--,--,1.3,0.9
"Vitamin A, IU",IU,--,--,200,143
Lipids
"Fatty acids, total saturated",g,--,--,2.996,2.140
"Fatty acids, total trans",g,--,--,0.000,0.000
"Cholesterol",mg,--,--,99,71
Amino Acids
Other
Ingredients
"POTATOES, HARD COOKED EGGS, MAYONNAISE (SOYBEAN OIL, WATER, EGG YOLKS, VINEGAR, HIGH FRUCTOSE CORN SYRUP, SALT, CALCIUM DISODIUM EDTA TO PROTECT FLAVOR), HIGH FRUCTOSE CORN SYRUP, SWEET RELISH (CUCUMBERS, WATER, HIGH FRUCTOSE CORN SYRUP, SALT, WHITE DISTILLED VINEGAR, MODIFIED FOOD STARCH, NATURAL FLAVORS, SODIUM BENZOATE [PRESERVATIVE], CALCIUM CHLORIDE), MUSTARD (WATER, VINEGAR, MUSTARD SEED, SALT, SUGAR, SOYBEAN OIL, TURMERIC AND PAPRIKA, ANNATTO, GARLIC, SPICES, XANTHAN GUM, CALCIUM DISODIUM EDTA TO RETAIN PRODUCT FRESHNESS, NATURAL FLAVOR, CITRIC ACID), CELERY, VINEGAR, ONION, RED BELL PEPPER, SALT, WATER, MODIFIED CORN STARCH, POTASSIUM SORBATE AND SODIUM BENZOATE TO PROTECT FLAVOR, SPICE, XANTHAN GUM, DILL WEED, PAPRIKA, ONION POWDER, ANNATTO COLOR (SOYBEAN OIL, ANNATTO EXTRACT, MONO- AND DIGLYCERIDES), OLEORESIN PAPRIKA." Date available: 07/14/2017 Date last updated by company: 07/14/2017
