Source: USDA Branded Food Products Database Release December 2017 Software v.3.8.6.4 2017-10-02
Report Run at: December 17, 2017 06:44 EST
"Nutrient data for: 45048167, POTATO GNOCCHI, UPC: 020038003477"
Food Group:  Branded Food Products Database
Common Name:

Nutrient,Unit,Data points,Std. Error,"2.0 ONZ = 56.0g",1Value per 100 g,
Proximates
"Energy",kcal,--,--,96,171
"Protein",g,--,--,2.00,3.57
"Total lipid (fat)",g,--,--,0.20,0.36
"Carbohydrate, by difference",g,--,--,17.00,30.36
"Fiber, total dietary",g,--,--,1.0,1.8
"Sugars, total",g,--,--,1.00,1.79
Minerals
"Calcium, Ca",mg,--,--,20,36
"Iron, Fe",mg,--,--,0.00,0.00
"Sodium, Na",mg,--,--,200,357
Vitamins
"Vitamin C, total ascorbic acid",mg,--,--,0.0,0.0
"Vitamin A, IU",IU,--,--,0,0
Lipids
"Fatty acids, total saturated",g,--,--,0.000,0.000
"Fatty acids, total trans",g,--,--,0.000,0.000
"Cholesterol",mg,--,--,0,0
Amino Acids
Other
Ingredients
"FRESH POTATO & POTATO FLAKES 86%, WHEAT FLOUR TYPE ""00"", POTATO STARCH, SALT, RICE FLOUR, ACIDITY REGULATOR: LACTIC ACID (E270), PRESERVATIVE: SORBIC ACID (E200), FLAVOR." Date available: 06/25/2017 Date last updated by company: 06/25/2017
