Source: USDA Branded Food Products Database Release December 2017 Software v.3.8.6.4 2017-10-02
Report Run at: December 17, 2017 06:44 EST
"Nutrient data for: 45276842, POTATO HOT DOG BUNS, UPC: 021130185085"
Food Group:  Branded Food Products Database
Common Name:

Nutrient,Unit,Data points,Std. Error,"1 BUN = 53.0g",1Value per 100 g,
Proximates
"Energy",kcal,--,--,140,264
"Protein",g,--,--,5.00,9.43
"Total lipid (fat)",g,--,--,1.50,2.83
"Carbohydrate, by difference",g,--,--,27.00,50.94
"Fiber, total dietary",g,--,--,1.0,1.9
"Sugars, total",g,--,--,3.00,5.66
Minerals
"Calcium, Ca",mg,--,--,60,113
"Iron, Fe",mg,--,--,1.70,3.20
"Sodium, Na",mg,--,--,270,509
Vitamins
"Vitamin C, total ascorbic acid",mg,--,--,0.0,0.0
"Thiamin",mg,--,--,0.000,0.000
"Riboflavin",mg,--,--,0.128,0.242
"Niacin",mg,--,--,1.510,2.849
"Vitamin A, IU",IU,--,--,0,0
Lipids
"Fatty acids, total saturated",g,--,--,0.000,0.000
"Fatty acids, total monounsaturated",g,--,--,0.000,0.000
"Fatty acids, total polyunsaturated",g,--,--,0.498,0.940
"Fatty acids, total trans",g,--,--,0.000,0.000
"Cholesterol",mg,--,--,0,0
Amino Acids
Other
Ingredients
"UNBLEACHED ENRICHED WHEAT FLOUR (FLOUR, MALTED BARLEY FLOUR, REDUCED IRON, NIACIN, THIAMIN MONONITRATE [VITAMIN B1], RIBOFLAVIN [VITAMIN B2], FOLIC ACID), WATER, HIGH FRUCTOSE CORN SYRUP, YEAST, WHEAT GLUTEN, POTATO FLOUR, SOYBEAN OIL, SALT, CALCIUM PROPIONATE (PRESERVATIVE), GRAIN VINEGAR, CORN FLOUR, MONOGLYCERIDES, DATEM, CALCIUM SULFATE, CELLULOSE GUM, SPICE & COLORING, CITRIC ACID, SUCRALOSE, ETHOXYLATED MONO-AND DIGLYCERIDES, CORNSTARCH, POTASSIUM IODATE, SOY LECITHIN." Date available: 07/14/2017 Date last updated by company: 07/14/2017
