Source: USDA Branded Food Products Database Release December 2017 Software v.3.8.6.4 2017-10-02
Report Run at: December 17, 2017 06:49 EST
"Nutrient data for: 45291551, POTLATCH SALMON SEASONING, UPC: 04656702387"
Food Group:  Branded Food Products Database
Common Name:

Nutrient,Unit,Data points,Std. Error,"0.25 tsp = 0.48g",1Value per 100 g,
Proximates
"Energy",kcal,--,--,0,0
"Protein",g,--,--,0.00,0.00
"Total lipid (fat)",g,--,--,0.00,0.00
"Carbohydrate, by difference",g,--,--,0.00,0.00
Minerals
"Sodium, Na",mg,--,--,40,8333
Vitamins
Lipids
Amino Acids
Other
Ingredients
"CUMIN, OREGANO, CHILI PEPPER, WHITE PEPPER, SEA SALT, DEHYDRATED GARLIC." Date available: 07/14/2017 Date last updated by company: 07/14/2017
