Source: USDA Branded Food Products Database Release December 2017 Software v.3.8.6.4 2017-10-02
Report Run at: December 17, 2017 06:51 EST
"Nutrient data for: 45282031, POULTRY GRAVY, UPC: 041268181759"
Food Group:  Branded Food Products Database
Common Name:

Nutrient,Unit,Data points,Std. Error,"0.25 cup = 57.0g",1Value per 100 g,
Proximates
"Energy",kcal,--,--,20,35
"Protein",g,--,--,0.00,0.00
"Total lipid (fat)",g,--,--,0.50,0.88
"Carbohydrate, by difference",g,--,--,3.00,5.26
"Fiber, total dietary",g,--,--,0.0,0.0
"Sugars, total",g,--,--,1.00,1.75
Minerals
"Calcium, Ca",mg,--,--,20,35
"Iron, Fe",mg,--,--,0.00,0.00
"Sodium, Na",mg,--,--,310,544
Vitamins
"Vitamin C, total ascorbic acid",mg,--,--,0.0,0.0
"Vitamin A, IU",IU,--,--,0,0
Lipids
"Fatty acids, total saturated",g,--,--,0.000,0.000
"Fatty acids, total trans",g,--,--,0.000,0.000
"Cholesterol",mg,--,--,0,0
Amino Acids
Other
Ingredients
"WATER, TURKEY STOCK (WATER, TURKEY BASE [COOKED TURKEY, SALT, CHICKEN FAT, SUGAR, MODIFIED FOOD STARCH, NATURAL FLAVORING, AUTOLYZED YEAST EXTRACT, DRIED WHEY, RENDERED TURKEY FAT AND FLAVORING, DEXTROSE, TURKEY BROTH, CARAMEL COLOR]), TURKEY GRAVY BASE (MODIFIED CORN STARCH, NON-FAT DRY MILK, NATURAL FLAVOR, ONION AND GARLIC POWDER, SPICES), TURKEY FLAVOR (TURKEY FLAVOR, SALT, TURKEY FAT, HYDROLYZED SOY PROTEIN, NATURAL FLAVORS, COOKED TURKEY, SUGAR, CARAMEL COLOR, TURMERIC), CONTAINS 2% OR LESS OF: MODIFIED FOOD STARCH, ACACIA AND XANTHAN GUMS, CARAMEL COLOR AND NISIN PREPARATION." Date available: 07/14/2017 Date last updated by company: 07/14/2017
