Source: USDA Branded Food Products Database Release December 2017 Software v.3.8.6.4 2017-10-02
Report Run at: December 17, 2017 06:52 EST
"Nutrient data for: 45209525, POUND CAKE, UPC: 655065005011"
Food Group:  Branded Food Products Database
Common Name:

Nutrient,Unit,Data points,Std. Error,"1 SLICE = 80.0g",1Value per 100 g,
Proximates
"Energy",kcal,--,--,290,362
"Protein",g,--,--,3.00,3.75
"Total lipid (fat)",g,--,--,12.00,15.00
"Carbohydrate, by difference",g,--,--,44.00,55.00
"Fiber, total dietary",g,--,--,0.0,0.0
"Sugars, total",g,--,--,32.00,40.00
Minerals
"Calcium, Ca",mg,--,--,20,25
"Iron, Fe",mg,--,--,0.36,0.45
"Sodium, Na",mg,--,--,150,188
Vitamins
"Vitamin C, total ascorbic acid",mg,--,--,0.0,0.0
"Vitamin A, IU",IU,--,--,300,375
Lipids
"Fatty acids, total saturated",g,--,--,3.000,3.750
"Fatty acids, total trans",g,--,--,3.000,3.750
"Cholesterol",mg,--,--,45,56
Amino Acids
Other
Ingredients
"SUGAR, BLEACHED WHEAT FLOUR, MARGARINE (PARTIALLY HYDROGENATED SOYBEAN AND COTTONSEED OILS, WATER, SALT, MONO AND DIGLYCERIDES, LECITHIN, SODIUM BENZOATE - A PRESERVATIVE, ARTIFICIAL FLAVOR, BETA CAROTENE, VITAMIN A PALMITATE), EGGS, NONFAT MILK, WATER. LESS THAN 2 PERCENT OF NATURAL AND/OR ARTIFICIAL FLAVORS, BAKING POWDER (CORN STARCH, BICARBONATE OF SODA, SODIUM ALUMINUM SULFATE, ACID PHOSPHATE OF CALCIUM)." Date available: 10/10/2017 Date last updated by company: 10/10/2017
