Source: USDA Branded Food Products Database Release December 2017 Software v.3.8.6.4 2017-10-02
Report Run at: December 17, 2017 06:53 EST
"Nutrient data for: 45105095, POWDERED DONUTS, UPC: 893536002620"
Food Group:  Branded Food Products Database
Common Name:

Nutrient,Unit,Data points,Std. Error,"57.0 g = 57.0g",1Value per 100 g,
Proximates
"Energy",kcal,--,--,220,386
"Protein",g,--,--,2.00,3.51
"Total lipid (fat)",g,--,--,11.00,19.30
"Carbohydrate, by difference",g,--,--,29.00,50.88
"Fiber, total dietary",g,--,--,1.0,1.8
"Sugars, total",g,--,--,12.00,21.05
Minerals
"Calcium, Ca",mg,--,--,20,35
"Iron, Fe",mg,--,--,0.35,0.61
"Sodium, Na",mg,--,--,300,526
Vitamins
"Vitamin C, total ascorbic acid",mg,--,--,0.0,0.0
"Vitamin A, IU",IU,--,--,0,0
Lipids
"Fatty acids, total saturated",g,--,--,3.500,6.140
"Fatty acids, total trans",g,--,--,0.000,0.000
"Cholesterol",mg,--,--,25,44
Amino Acids
Other
Ingredients
"GLUTEN FREE FLOUR (CORN STARCH, WHITE RICE, TAPIOCA), WATER, PALM OIL, SUGAR, EGGS, CANOLA OIL, BAKING POWDER, XANTHAN GUM, SALT, CONFECTION SUGAR (DEXTROSE, CORN STARCH)." Date available: 06/25/2017 Date last updated by company: 06/25/2017
