Source: USDA Branded Food Products Database Release December 2017 Software v.3.8.6.4 2017-10-02
Report Run at: December 17, 2017 06:53 EST
"Nutrient data for: 45064078, POWDERED ORGANIC PEANUT BUTTER, UPC: 00016073123454"
Food Group:  Branded Food Products Database
Common Name:

Nutrient,Unit,Data points,Std. Error,"2.0 Tbsp = 12.0g",1Value per 100 g,
Proximates
"Energy",kcal,--,--,45,375
"Protein",g,--,--,4.00,33.33
"Total lipid (fat)",g,--,--,1.50,12.50
"Carbohydrate, by difference",g,--,--,5.00,41.67
"Fiber, total dietary",g,--,--,1.0,8.3
"Sugars, total",g,--,--,3.00,25.00
Minerals
"Calcium, Ca",mg,--,--,0,0
"Iron, Fe",mg,--,--,1.50,12.49
"Potassium, K",mg,--,--,150,1250
"Sodium, Na",mg,--,--,90,750
Vitamins
"Vitamin C, total ascorbic acid",mg,--,--,0.0,0.0
"Vitamin A, IU",IU,--,--,0,0
Lipids
"Fatty acids, total saturated",g,--,--,0.000,0.000
"Fatty acids, total trans",g,--,--,0.000,0.000
"Cholesterol",mg,--,--,0,0
Amino Acids
Other
Ingredients
"ORGANIC PEANUTS, ORGANIC COCONUT SUGAR*, SEA SALT." Date available: 07/14/2017 Date last updated by company: 07/14/2017
