Source: USDA Branded Food Products Database Release December 2017 Software v.3.8.6.4 2017-10-02
Report Run at: December 17, 2017 06:58 EST
"Nutrient data for: 45241062, POWERBAR, PROTEIN RECOVERY BAR, UPC: 097421510003"
Food Group:  Branded Food Products Database
Common Name:

Nutrient,Unit,Data points,Std. Error,"1 BAR = 56.0g",1Value per 100 g,
Proximates
"Energy",kcal,--,--,260,464
"Protein",g,--,--,12.00,21.43
"Total lipid (fat)",g,--,--,10.00,17.86
"Carbohydrate, by difference",g,--,--,30.00,53.57
"Fiber, total dietary",g,--,--,0.0,0.0
"Sugars, total",g,--,--,19.00,33.93
Minerals
"Calcium, Ca",mg,--,--,80,143
"Iron, Fe",mg,--,--,0.77,1.38
"Potassium, K",mg,--,--,105,188
"Sodium, Na",mg,--,--,180,321
Vitamins
"Vitamin C, total ascorbic acid",mg,--,--,0.0,0.0
"Vitamin A, IU",IU,--,--,0,0
Lipids
"Fatty acids, total saturated",g,--,--,4.502,8.040
"Fatty acids, total trans",g,--,--,0.000,0.000
"Cholesterol",mg,--,--,5,9
Amino Acids
Other
Ingredients
"CHOCOLATE FLAVORED COATING (SUGAR, FRACTIONATED PALM KERNEL OIL, COCOA, WHEY, NONFAT MILK, SOY LECITHIN, NATURAL FLAVOR, TRISOURCE PROTEIN BLEND (WHEY PROTEIN ISOLATE, CALCIUM CASEINATE, SOY PROTEIN ISOLATE), GLUCOSE SYRUP, CARAMEL FILLING (GLUCOSE SYRUP, SUGAR, CREAM, FRUCTOSE , PALM OIL, SOU LECITHIN, SALT, NATURAL FLAVOR), PEANUT BUTTER, HIGH OLEIC CANOLA OIL, MALTODEXTRIN, CANE INVERT SYRUP, VEGETABLE GLYCERIN, SOY CRISPS (SOY PROTEIN ISOLATE, TAPIOCA STARCH, SALT, WHEAT), AND LESS THAN 2% OF: PEANUT OIL, SOY LECITHIN, SALT, GROUND ALMONDS, NATURAL FLAVOR, BUTTER (CREAM)." Date available: 07/14/2017 Date last updated by company: 07/14/2017
