Source: USDA Branded Food Products Database Release December 2017 Software v.3.8.6.4 2017-10-02
Report Run at: December 17, 2017 06:57 EST
"Nutrient data for: 45319377, POWERBAR, PERFORMANCE ENERGY BAR, MILK CHOCOLATE BROWNIE, UPC: 097421060300"
Food Group:  Branded Food Products Database
Common Name:

Nutrient,Unit,Data points,Std. Error,"1 BAR = 65.0g",1Value per 100 g,
Proximates
"Energy",kcal,--,--,240,369
"Protein",g,--,--,8.00,12.31
"Total lipid (fat)",g,--,--,3.50,5.38
"Carbohydrate, by difference",g,--,--,45.00,69.23
"Fiber, total dietary",g,--,--,1.0,1.5
"Sugars, total",g,--,--,27.00,41.54
Minerals
"Calcium, Ca",mg,--,--,250,385
"Iron, Fe",mg,--,--,2.77,4.26
"Potassium, K",mg,--,--,105,162
"Sodium, Na",mg,--,--,200,308
Vitamins
"Vitamin C, total ascorbic acid",mg,--,--,25.9,39.8
"Thiamin",mg,--,--,0.000,0.000
"Riboflavin",mg,--,--,0.170,0.262
"Vitamin B-6",mg,--,--,0.307,0.473
"Vitamin A, IU",IU,--,--,0,0
Lipids
"Fatty acids, total saturated",g,--,--,0.501,0.770
"Fatty acids, total trans",g,--,--,0.000,0.000
"Cholesterol",mg,--,--,0,0
Amino Acids
Other
Ingredients
"DUAL SOURCE ENERGY BLEND (CANE INVERT SYRUP, MALTODEXTRIN, FRUCTOSE, DEXTROSE), OAT BRAN (CONTAINS WHEAT), SOY PROTEIN ISOLATE, COOKIE BITS (RICE FLOUR, SUGAR, CANOLA OIL, COCOA, RICE STARCH, BAKING SODA, SALT), BROWN RICE FLOUR, ALKALIZED COCOA, AND LESS THAN 2% OF: HIGH OLEIC CANOLA OIL, CALCIUM PHOSPHATE, SOY LECITHIN, ASCORBIC ACID (VITAMIN C), NONFAT MILK, PARTIALLY DEFATTED PEANUT FLOUR, FERROUS FUMARATE (IRON), PYRIDOXINE HYDROCHLORIDE (VITAMIN B6), THIAMIN HYDROCHLORIDE (VITAMIN B1), RIBOFLAVIN (VITAMIN B2)." Date available: 07/14/2017 Date last updated by company: 07/14/2017
