Source: USDA Branded Food Products Database Release December 2017 Software v.3.8.6.4 2017-10-02
Report Run at: December 17, 2017 06:58 EST
"Nutrient data for: 45136715, POWERBAR, PROTEINPLUS, PROTEIN BAR, LEMON POPPY SEED POUND CAKE, UPC: 097421560237"
Food Group:  Branded Food Products Database
Common Name:

Nutrient,Unit,Data points,Std. Error,"1 BAR = 60.0g",1Value per 100 g,
Proximates
"Energy",kcal,--,--,200,333
"Protein",g,--,--,20.00,33.33
"Total lipid (fat)",g,--,--,7.00,11.67
"Carbohydrate, by difference",g,--,--,25.00,41.67
"Fiber, total dietary",g,--,--,5.0,8.3
"Sugars, total",g,--,--,3.00,5.00
Minerals
"Calcium, Ca",mg,--,--,100,167
"Iron, Fe",mg,--,--,1.80,3.00
"Sodium, Na",mg,--,--,130,217
Vitamins
"Vitamin C, total ascorbic acid",mg,--,--,2.4,4.0
"Vitamin A, IU",IU,--,--,0,0
Lipids
"Fatty acids, total saturated",g,--,--,2.502,4.170
"Fatty acids, total trans",g,--,--,0.000,0.000
"Cholesterol",mg,--,--,5,8
Amino Acids
Other
Ingredients
"TRISOURCE PROTEIN BLEND (SOY PROTEIN ISOLATE, CALCIUM CASEINATE, WHEY PROTEIN ISOLATE), MALTITOL, YOGURT COATING (MALTITOL, PALM KERNEL OIL, YOGURT POWDER (CULTURED WHEY PROTEIN CONCENTRATE AND CULTURED SKIM MILK), NONFAT DRY MILK SOLIDS, SOY LECITHIN, SA" Date available: 09/23/2016 Date last updated by company: 09/23/2016
