Source: USDA Branded Food Products Database Release December 2017 Software v.3.8.6.4 2017-10-02
Report Run at: December 17, 2017 07:07 EST
"Nutrient data for: 45257585, PRE-MADE FRESH VEGGIE SKEWER, UPC: 074641328434"
Food Group:  Branded Food Products Database
Common Name:

Nutrient,Unit,Data points,Std. Error,"1 SKEWER = 217.0g",1Value per 100 g,
Proximates
"Energy",kcal,--,--,50,23
"Protein",g,--,--,2.99,1.38
"Total lipid (fat)",g,--,--,0.00,0.00
"Carbohydrate, by difference",g,--,--,12.00,5.53
"Fiber, total dietary",g,--,--,3.0,1.4
"Sugars, total",g,--,--,4.99,2.30
Minerals
"Calcium, Ca",mg,--,--,39,18
"Iron, Fe",mg,--,--,0.28,0.13
"Sodium, Na",mg,--,--,0,0
Vitamins
"Vitamin C, total ascorbic acid",mg,--,--,28.2,13.0
"Vitamin A, IU",IU,--,--,391,180
Lipids
"Fatty acids, total saturated",g,--,--,0.000,0.000
"Fatty acids, total trans",g,--,--,0.000,0.000
"Cholesterol",mg,--,--,0,0
Amino Acids
Other
Ingredients
"ZUCCHINI, YELLOW SQUASH, RED ONIONS, CRIMINI MUSHROOMS, GREEN BELL PEPPERS, RED BELL PEPPERS." Date available: 07/14/2017 Date last updated by company: 07/14/2017
