Source: USDA Branded Food Products Database Release December 2017 Software v.3.8.6.4 2017-10-02
Report Run at: December 17, 2017 07:07 EST
"Nutrient data for: 45227360, PRE, GROUND BEEF, UPC: 863441000004"
Food Group:  Branded Food Products Database
Common Name:

Nutrient,Unit,Data points,Std. Error,"4.0 ONZ = 113.0g",1Value per 100 g,
Proximates
"Energy",kcal,--,--,231,204
"Protein",g,--,--,22.00,19.47
"Total lipid (fat)",g,--,--,15.00,13.27
"Carbohydrate, by difference",g,--,--,0.00,0.00
"Fiber, total dietary",g,--,--,0.0,0.0
"Sugars, total",g,--,--,0.00,0.00
Minerals
"Calcium, Ca",mg,--,--,0,0
"Iron, Fe",mg,--,--,2.70,2.39
"Sodium, Na",mg,--,--,85,75
Vitamins
"Vitamin C, total ascorbic acid",mg,--,--,0.0,0.0
"Vitamin A, IU",IU,--,--,0,0
Lipids
"Fatty acids, total saturated",g,--,--,8.000,7.080
"Fatty acids, total monounsaturated",g,--,--,6.000,5.310
"Fatty acids, total polyunsaturated",g,--,--,0.497,0.440
"Fatty acids, total trans",g,--,--,0.497,0.440
"Cholesterol",mg,--,--,70,62
Amino Acids
Other
Ingredients
"GROUND BEEF" Date available: 11/16/2016 Date last updated by company: 11/16/2016
