Source: USDA Branded Food Products Database Release December 2017 Software v.3.8.6.4 2017-10-02
Report Run at: December 17, 2017 08:31 EST
"Nutrient data for: 45230074, PRE-WASHED PINTO BEANS, UPC: 078742169040"
Food Group:  Branded Food Products Database
Common Name:

Nutrient,Unit,Data points,Std. Error,"0.25 cup = 35.0g",1Value per 100 g,
Proximates
"Energy",kcal,--,--,80,229
"Protein",g,--,--,7.00,20.00
"Total lipid (fat)",g,--,--,1.00,2.86
"Carbohydrate, by difference",g,--,--,21.00,60.00
"Fiber, total dietary",g,--,--,12.0,34.3
"Sugars, total",g,--,--,1.00,2.86
Minerals
"Calcium, Ca",mg,--,--,0,0
"Iron, Fe",mg,--,--,2.70,7.71
"Sodium, Na",mg,--,--,10,29
Vitamins
"Vitamin C, total ascorbic acid",mg,--,--,0.0,0.0
"Vitamin A, IU",IU,--,--,0,0
Lipids
"Fatty acids, total saturated",g,--,--,0.000,0.000
"Fatty acids, total trans",g,--,--,0.000,0.000
"Cholesterol",mg,--,--,0,0
Amino Acids
Other
Ingredients
"PINTO BEANS." Date available: 10/13/2017 Date last updated by company: 10/13/2017
