Source: USDA Branded Food Products Database Release December 2017 Software v.3.8.6.4 2017-10-02
Report Run at: December 17, 2017 07:04 EST
"Nutrient data for: 45256142, PRE-BAKED CUSTARD PIE, UPC: 011161036227"
Food Group:  Branded Food Products Database
Common Name:

Nutrient,Unit,Data points,Std. Error,"0.2 PIE = 125.0g",1Value per 100 g,
Proximates
"Energy",kcal,--,--,320,256
"Protein",g,--,--,7.00,5.60
"Total lipid (fat)",g,--,--,16.00,12.80
"Carbohydrate, by difference",g,--,--,38.00,30.40
"Fiber, total dietary",g,--,--,3.0,2.4
"Sugars, total",g,--,--,20.00,16.00
Minerals
"Calcium, Ca",mg,--,--,150,120
"Iron, Fe",mg,--,--,1.44,1.15
"Sodium, Na",mg,--,--,340,272
Vitamins
"Vitamin C, total ascorbic acid",mg,--,--,1.2,1.0
"Vitamin A, IU",IU,--,--,200,160
Lipids
"Fatty acids, total saturated",g,--,--,9.000,7.200
"Fatty acids, total trans",g,--,--,0.000,0.000
"Cholesterol",mg,--,--,65,52
Amino Acids
Other
Ingredients
"WATER, SUGAR, WHEAT FLOUR, WHOLE EGGS, VEGETABLE OIL (PALM AND/OR SOYBEAN OIL), COCONUT, CORN SYRUP, CONTAINS LESS THAN 2% OF THE FOLLOWING: NONFAT MILK, WHOLE MILK, FOOD STARCH-MODIFIED, SALT, DEXTROSE, SPICE, XANTHAN GUM, WHOLE WHAT/GRAHAM FLOUR, PALM KERNEL OIL, MOLASSES, HONEY, BAKING SODA, MONO-& DIGLYCERIDES, NATURAL & ARTIFICIAL FLACORS, GLUCONO DELTA LACTONE, POTASSIUM SORBATE (PRESERVATIVE)." Date available: 07/14/2017 Date last updated by company: 07/14/2017
