Source: USDA Branded Food Products Database Release December 2017 Software v.3.8.6.4 2017-10-02
Report Run at: December 17, 2017 07:06 EST
"Nutrient data for: 45135246, PREGO SAUCES GARLIC PARMESAN ALFREDO, UNPREPARED, GTIN: 00051000212214"
Food Group:  Branded Food Products Database
Common Name:

Nutrient,Unit,Data points,Std. Error,"0.25 cup = 61.0g",1Value per 100 g,
Proximates
"Energy",kcal,--,--,70,115
"Protein",g,--,--,1.00,1.64
"Total lipid (fat)",g,--,--,6.00,9.84
"Carbohydrate, by difference",g,--,--,3.00,4.92
"Fiber, total dietary",g,--,--,0.0,0.0
"Sugars, total",g,--,--,1.00,1.64
Minerals
"Calcium, Ca",mg,--,--,45,74
"Iron, Fe",mg,--,--,0.00,0.00
"Sodium, Na",mg,--,--,350,574
Vitamins
"Vitamin C, total ascorbic acid",mg,--,--,0.0,0.0
"Vitamin A, IU",IU,--,--,0,0
Lipids
"Fatty acids, total saturated",g,--,--,3.00,4.92
"Fatty acids, total trans",g,--,--,0.00,0.00
"Cholesterol",mg,--,--,30,49
Amino Acids
Other
Ingredients
"WATER, CREAM, PARMESAN CHEESE (PART-SKIM MILK, CULTURES, SALT, ENZYMES), ENZYME MODIFIED LIQUID EGG PRODUCT (EGG YOLKS, SALT, PHOSPHOLIPASE), MODIFIED FOOD STARCH, HYDROGENATED SOYBEAN OIL, BUTTER (CREAM, WATER, SALT), CONTAINS LESS THAN 2% OF:, ROASTED GARLIC PUREE (GARLIC, SUGAR), ROMANO CHEESE (PART-SKIM COW'S MILK, CULTURES, SALT, ENZYMES), SALT, SUGAR, DISODIUM PHOSPHATE-DIHYDRATE, GRANULAR AND PARMESAN CHEESE (MILK, CULTURES, SALT, ENZYMES), XANTHAN GUM, MONOSODIUM GLUTAMATE, GARLIC, BLACK PEPPER, YEAST EXTRACT, DEHYDRATED ONIONS, LACTIC ACID, SODIUM PHOSPHATE, ENZYMES." Date last updated by company: 10/21/2016
