Source: USDA Branded Food Products Database Release December 2017 Software v.3.8.6.4 2017-10-02
Report Run at: December 17, 2017 07:06 EST
"Nutrient data for: 45135438, PREGO SAUCES MERLOT TOMATO, UNPREPARED, GTIN: 00051000214232"
Food Group:  Branded Food Products Database
Common Name:

Nutrient,Unit,Data points,Std. Error,"0.5 cup = 130.0g",1Value per 100 g,
Proximates
"Energy",kcal,--,--,70,54
"Protein",g,--,--,2.00,1.54
"Total lipid (fat)",g,--,--,2.00,1.54
"Carbohydrate, by difference",g,--,--,12.00,9.23
"Fiber, total dietary",g,--,--,1.0,0.8
"Sugars, total",g,--,--,9.00,6.92
Minerals
"Calcium, Ca",mg,--,--,34,26
"Iron, Fe",mg,--,--,0.70,0.54
"Sodium, Na",mg,--,--,480,369
Vitamins
"Vitamin C, total ascorbic acid",mg,--,--,2.3,1.8
"Vitamin A, IU",IU,--,--,1251,962
Lipids
"Fatty acids, total saturated",g,--,--,0.00,0.00
"Fatty acids, total trans",g,--,--,0.00,0.00
"Cholesterol",mg,--,--,0,0
Amino Acids
Other
Ingredients
"TOMATO PUREE (WATER, TOMATO PASTE), DICED TOMATOES IN TOMATO JUICE, MERLOT WINE, ONIONS, SUGAR, CANOLA OIL, GARLIC, CONTAINS LESS THAN 1% OF: SALT, CARROT JUICE CONCENTRATE, VEGETABLES (CARROTS, ONIONS, CELERY), SPICE, BASIL, BLACK PEPPER, CITRIC ACID, POTATO FLOUR, YEAST EXTRACT, FLAVORING, DISODIUM GUANYLATE, DISODIUM INOSINATE." Date last updated by company: 10/21/2016
