Source: USDA Branded Food Products Database Release December 2017 Software v.3.8.6.4 2017-10-02
Report Run at: December 17, 2017 07:37 EST
"Nutrient data for: 45009186, PREMIUM ICE CREAM, UPC: 020735110065"
Food Group:  Branded Food Products Database
Common Name:

Nutrient,Unit,Data points,Std. Error,"0.5 cup = 66.0g",1Value per 100 g,
Proximates
"Energy",kcal,--,--,140,212
"Protein",g,--,--,2.00,3.03
"Total lipid (fat)",g,--,--,7.00,10.61
"Carbohydrate, by difference",g,--,--,17.00,25.76
"Fiber, total dietary",g,--,--,0.0,0.0
"Sugars, total",g,--,--,13.00,19.70
Minerals
"Calcium, Ca",mg,--,--,80,121
"Iron, Fe",mg,--,--,0.00,0.00
"Sodium, Na",mg,--,--,55,83
Vitamins
"Vitamin C, total ascorbic acid",mg,--,--,0.0,0.0
"Vitamin A, IU",IU,--,--,337,511
Lipids
"Fatty acids, total saturated",g,--,--,4.501,6.820
"Fatty acids, total trans",g,--,--,0.000,0.000
"Cholesterol",mg,--,--,25,38
Amino Acids
Other
Ingredients
"MILK, CREAM, CORN SYRUP, SUGAR, WHEY, NONFAT MILK, COCOA PROCESSED WITH ALKALI, CELLULOSE GEL, CELLULOSE GUM, MONO AND DIGLYCERIDES, NATURAL AND ARTIFICIAL FLAVORS, CARRAGEENAN, VANILLA BEAN." Date available: 07/14/2017 Date last updated by company: 07/14/2017
