Source: USDA Branded Food Products Database Release December 2017 Software v.3.8.6.4 2017-10-02
Report Run at: December 17, 2017 07:12 EST
"Nutrient data for: 45148442, PREMIUM BELGIAN MILK CHOCOLATE WITH SALTED POTATO CHIPS, UPC: 075450163858"
Food Group:  Branded Food Products Database
Common Name:

Nutrient,Unit,Data points,Std. Error,"4.0 SQUARES = 40.0g",1Value per 100 g,
Proximates
"Energy",kcal,--,--,210,525
"Protein",g,--,--,2.00,5.00
"Total lipid (fat)",g,--,--,12.00,30.00
"Carbohydrate, by difference",g,--,--,23.00,57.50
"Fiber, total dietary",g,--,--,1.0,2.5
"Sugars, total",g,--,--,21.00,52.50
Minerals
"Calcium, Ca",mg,--,--,60,150
"Iron, Fe",mg,--,--,1.80,4.50
"Sodium, Na",mg,--,--,60,150
Vitamins
"Vitamin C, total ascorbic acid",mg,--,--,0.0,0.0
"Vitamin A, IU",IU,--,--,0,0
Lipids
"Fatty acids, total saturated",g,--,--,7.000,17.500
"Fatty acids, total trans",g,--,--,0.000,0.000
"Cholesterol",mg,--,--,1,2
Amino Acids
Other
Ingredients
"SUGAR, COCOA BUTTER, FULL CREAM MILK POWDER, COCOA MASS, POTATO CHIPS (POTATO CHIPS, SUNFLOWER OIL, SALT), WHEY POWDER, LACTOSE, SOY LECITHIN (EMULSIFIER), SALT, NATURAL VANILLA FLAVOR" Date available: 07/14/2017 Date last updated by company: 07/14/2017
