Source: USDA Branded Food Products Database Release December 2017 Software v.3.8.6.4 2017-10-02
Report Run at: December 17, 2017 07:52 EST
"Nutrient data for: 45204331, PREMIUM ONION ROLLS, UPC: 870625002723"
Food Group:  Branded Food Products Database
Common Name:

Nutrient,Unit,Data points,Std. Error,"1 ROLL = 64.0g",1Value per 100 g,
Proximates
"Energy",kcal,--,--,250,391
"Protein",g,--,--,6.00,9.38
"Total lipid (fat)",g,--,--,7.00,10.94
"Carbohydrate, by difference",g,--,--,39.00,60.94
"Fiber, total dietary",g,--,--,1.0,1.6
"Sugars, total",g,--,--,6.00,9.38
Minerals
"Calcium, Ca",mg,--,--,20,31
"Iron, Fe",mg,--,--,1.41,2.20
"Sodium, Na",mg,--,--,320,500
Vitamins
"Vitamin C, total ascorbic acid",mg,--,--,0.0,0.0
"Vitamin A, IU",IU,--,--,390,610
Lipids
"Fatty acids, total saturated",g,--,--,1.498,2.340
"Fatty acids, total trans",g,--,--,0.000,0.000
"Cholesterol",mg,--,--,65,102
Amino Acids
Other
Ingredients
"WHEAT FLOUR (NIACIN, REDUCED IRON, THIAMINE, MONONITRATE, RIBOFLAVIN, FOLIC ACID, MALTED BARLEY FLOUR, POTASSIUM BROMATE), WATER, SUGAR, EGGS, SOYBEAN OIL, YEAST, ONIONS, PUMPKIN PUREE (ADDED FOR COLOR), SALT, POPPY SEEDS, WHEAT GLUTEN, MONOGLYCERIDES, GUAR GUM." Date available: 08/23/2017 Date last updated by company: 08/23/2017
