Source: USDA Branded Food Products Database Release December 2017 Software v.3.8.6.4 2017-10-02
Report Run at: December 17, 2017 07:45 EST
"Nutrient data for: 45331309, PREMIUM ICE CREAM, UPC: 041512140976"
Food Group:  Branded Food Products Database
Common Name:

Nutrient,Unit,Data points,Std. Error,"0.666 cup = 87.0g",1Value per 100 g,
Proximates
"Energy",kcal,--,--,210,241
"Protein",g,--,--,4.00,4.60
"Total lipid (fat)",g,--,--,11.00,12.64
"Carbohydrate, by difference",g,--,--,24.00,27.59
"Fiber, total dietary",g,--,--,1.0,1.1
"Sugars, total",g,--,--,18.00,20.69
Minerals
"Calcium, Ca",mg,--,--,105,121
"Iron, Fe",mg,--,--,0.60,0.69
"Sodium, Na",mg,--,--,70,80
Vitamins
"Vitamin D",IU,--,--,0,0
Lipids
"Fatty acids, total saturated",g,--,--,6.003,6.900
"Fatty acids, total trans",g,--,--,0.000,0.000
"Cholesterol",mg,--,--,35,40
Amino Acids
Other
Ingredients
"MILKFAT AND NONFAT MILK, SUGAR, FUDGE SWIRL (CORN SYRUP, WATER, COCOA PROCESSED WITH ALKALI, CORN STARCH-MODIFIED, SALT, POTASSIUM SORBATE [PRESERVATIVE], CITRIC ACID, NATURAL FLAVOR), CORN SYRUP, ALMONDS (ALMONDS, COTTONSEED OIL, BUTTER, SALT), CONTAINS LESS THAN 2% OF HIGH FRUCTOSE CORN SYRUP, PISTACHIOS, CANOLA OIL, MONO AND DIGLYCERIDES, GUAR GUM, CAROB BEAN GUM, NATURAL FLAVOR, YELLOW 5, BLUE 1, CARRAGEENAN, SOY LECITHIN." Date available: 10/13/2017 Date last updated by company: 10/13/2017
