Source: USDA Branded Food Products Database Release December 2017 Software v.3.8.6.4 2017-10-02
Report Run at: December 17, 2017 08:05 EST
"Nutrient data for: 45291728, PREMIUM SELECTIONS ICE CREAM, UPC: 07203644010"
Food Group:  Branded Food Products Database
Common Name:

Nutrient,Unit,Data points,Std. Error,"0.67 cup = 88.0g",1Value per 100 g,
Proximates
"Energy",kcal,--,--,180,205
"Protein",g,--,--,2.00,2.27
"Total lipid (fat)",g,--,--,9.00,10.23
"Carbohydrate, by difference",g,--,--,22.00,25.00
"Fiber, total dietary",g,--,--,0.0,0.0
"Sugars, total",g,--,--,19.00,21.59
Minerals
"Calcium, Ca",mg,--,--,88,100
"Iron, Fe",mg,--,--,0.00,0.00
"Potassium, K",mg,--,--,97,110
"Sodium, Na",mg,--,--,55,62
Vitamins
"Vitamin D",IU,--,--,0,0
Lipids
"Fatty acids, total saturated",g,--,--,6.002,6.820
"Fatty acids, total trans",g,--,--,0.000,0.000
"Cholesterol",mg,--,--,25,28
Amino Acids
Other
Ingredients
"MILK, CREAM, CORN SYRUP, SUGAR, MARASCHINO CHERRIES, HIGH FRUCTOSE CORN SYRUP, WHEY, NONFAT DRY MILK, GUAR GUM, MONO- AND DIGLYCERIDES, CELLULOSE GUM, POLYSORBATE 80, CARRAGEENAN, LOCUST BEAN GUM, VANILLA EXTRACT, NATURAL FLAVORS, SODIUM BENZOATE AND POTASSIUM SORBATE (PRESERVATIVES), CITRIC ACID, RED 3, SULFUR DIOXIDE (PRESERVATIVE)." Date available: 07/14/2017 Date last updated by company: 07/14/2017
