Source: USDA Branded Food Products Database Release December 2017 Software v.3.8.6.4 2017-10-02
Report Run at: December 17, 2017 07:58 EST
"Nutrient data for: 45228494, PREMIUM POPCORN, UPC: 041780003157"
Food Group:  Branded Food Products Database
Common Name:

Nutrient,Unit,Data points,Std. Error,"1 CUP | ABOUT = 28.0g",1Value per 100 g,
Proximates
"Energy",kcal,--,--,170,607
"Protein",g,--,--,1.00,3.57
"Total lipid (fat)",g,--,--,13.00,46.43
"Carbohydrate, by difference",g,--,--,12.00,42.86
"Fiber, total dietary",g,--,--,1.0,3.6
"Sugars, total",g,--,--,3.00,10.71
Minerals
"Calcium, Ca",mg,--,--,40,143
"Iron, Fe",mg,--,--,0.64,2.29
"Potassium, K",mg,--,--,130,464
"Sodium, Na",mg,--,--,240,857
Vitamins
"Vitamin C, total ascorbic acid",mg,--,--,0.0,0.0
"Vitamin A, IU",IU,--,--,0,0
Lipids
"Fatty acids, total saturated",g,--,--,3.500,12.500
"Fatty acids, total monounsaturated",g,--,--,1.999,7.140
"Fatty acids, total polyunsaturated",g,--,--,7.000,25.000
"Fatty acids, total trans",g,--,--,0.000,0.000
"Cholesterol",mg,--,--,5,18
Amino Acids
Other
Ingredients
"POPCORN, VEGETABLE OIL (CONTAINS ONE OR MORE OF THE FOLLOWING: COTTONSEED OIL, CORN OIL, CANOLA OIL, SUNFLOWER OIL, SAFFLOWER OIL), WHEY, CHEESE (CHEDDAR AND SEMISOFT [PASTEURIZED MILK, CHEESE CULTURE, SALT, ENZYMES]), SALT, MILKFAT, BUTTERMILK SOLIDS, NATURAL FLAVOR, BUTTER, SODIUM PHOSPHATE." Date available: 07/14/2017 Date last updated by company: 07/14/2017
