Source: USDA Branded Food Products Database Release December 2017 Software v.3.8.6.4 2017-10-02
Report Run at: December 17, 2017 07:43 EST
"Nutrient data for: 45283946, PREMIUM ICE CREAM, UPC: 075767320173"
Food Group:  Branded Food Products Database
Common Name:

Nutrient,Unit,Data points,Std. Error,"0.5 cup = 71.0g",1Value per 100 g,
Proximates
"Energy",kcal,--,--,160,225
"Protein",g,--,--,2.00,2.82
"Total lipid (fat)",g,--,--,7.00,9.86
"Carbohydrate, by difference",g,--,--,22.00,30.99
"Fiber, total dietary",g,--,--,0.0,0.0
"Sugars, total",g,--,--,19.00,26.76
Minerals
"Calcium, Ca",mg,--,--,80,113
"Iron, Fe",mg,--,--,0.00,0.00
"Sodium, Na",mg,--,--,55,77
Vitamins
"Vitamin C, total ascorbic acid",mg,--,--,0.0,0.0
"Vitamin A, IU",IU,--,--,449,633
Lipids
"Fatty acids, total saturated",g,--,--,4.501,6.340
"Fatty acids, total trans",g,--,--,0.000,0.000
"Cholesterol",mg,--,--,20,28
Amino Acids
Other
Ingredients
"MILK, CREAM, CORN SYRUP, LIQUID SUGAR, SPICED PUMPKIN SWIRLS [CORN SYRUP, PUMPKIN, SUGAR, MODIFIED CORNSTARCH, LEMON JUICE CONCENTRATE, SPICE (ALLSPICE AND CINNAMON)], CREAM CHEESE SWIRLS [CREAM CHEESE (PASTEURIZED MILK AND CREAM, CHEESE CULTURES, SALT, CAROB BEAN GUM, GUAR GUM), SUGAR, CORN SYRUP, WATER, LEMON JUICE CONCENTRATE, NATURAL FLAVOR], SKIM MILK, BUTTERMILK, ESPRESSO BASE (CORN SYRUP, WATER, BROWN SUGAR, COFFEE, MOLASSES, WHEAT FLOUR, NATURAL FLAVOR, SALT, XANTHAN GUM, CARAMEL COLOR), MILKFAT, WHEY, CARAMEL COLOR, MONO- AND DIGLYCERIDES, CELLULOSE GUM, GUAR GUM, CARRAGEENAN, DEXTROSE." Date available: 07/14/2017 Date last updated by company: 07/14/2017
