Source: USDA Branded Food Products Database Release December 2017 Software v.3.8.6.4 2017-10-02
Report Run at: December 17, 2017 08:07 EST
"Nutrient data for: 45330988, PREMIUM SMOKED SAUSAGE, UPC: 828526003004"
Food Group:  Branded Food Products Database
Common Name:

Nutrient,Unit,Data points,Std. Error,"2.5 ONZ = 70.0g",1Value per 100 g,
Proximates
"Energy",kcal,--,--,170,243
"Protein",g,--,--,11.00,15.71
"Total lipid (fat)",g,--,--,14.00,20.00
"Carbohydrate, by difference",g,--,--,1.00,1.43
"Fiber, total dietary",g,--,--,0.0,0.0
"Sugars, total",g,--,--,0.00,0.00
Minerals
"Calcium, Ca",mg,--,--,0,0
"Iron, Fe",mg,--,--,0.57,0.81
"Sodium, Na",mg,--,--,460,657
Vitamins
"Vitamin C, total ascorbic acid",mg,--,--,0.9,1.3
"Vitamin A, IU",IU,--,--,78,112
Lipids
"Fatty acids, total saturated",g,--,--,4.998,7.140
"Fatty acids, total trans",g,--,--,0.000,0.000
"Cholesterol",mg,--,--,50,71
Amino Acids
Other
Ingredients
"PORK, SEASONING (SALT, SPICES, SUGAR, DEXTROSE, MONOSODIUM GLUTAMATE, SODIUM ERYTHORBATE, SPICE EXTRACTIVES) WATER, SODIUM NITRTITE" Date available: 09/23/2017 Date last updated by company: 09/23/2017
