Source: USDA Branded Food Products Database Release December 2017 Software v.3.8.6.4 2017-10-02
Report Run at: December 17, 2017 07:31 EST
"Nutrient data for: 45287220, PREMIUM ICE BAR, UPC: 078469401010"
Food Group:  Branded Food Products Database
Common Name:

Nutrient,Unit,Data points,Std. Error,"3.0 OZA = 85.0g",1Value per 100 g,
Proximates
"Energy",kcal,--,--,70,82
"Protein",g,--,--,0.00,0.00
"Carbohydrate, by difference",g,--,--,18.00,21.18
"Sugars, total",g,--,--,18.00,21.18
Minerals
"Sodium, Na",mg,--,--,0,0
Vitamins
Lipids
"Fatty acids, total trans",g,--,--,0.000,0.000
Amino Acids
Other
Ingredients
"WATER, SUCROSE, DEXTROSE, NATURAL AND/OR ARTIFICIAL FLAVORS, GUAR GUM, CITRIC ACID, YELLOW #5, YELLOW #6, RED #40, CARAMEL COLOR" Date available: 10/04/2017 Date last updated by company: 10/04/2017
