Source: USDA Branded Food Products Database Release December 2017 Software v.3.8.6.4 2017-10-02
Report Run at: December 17, 2017 07:20 EST
"Nutrient data for: 45226495, PREMIUM COOKED SHRIMP, UPC: 731149359925"
Food Group:  Branded Food Products Database
Common Name:

Nutrient,Unit,Data points,Std. Error,"14.0 SHRIMP | ABOUT = 123.0g",1Value per 100 g,
Proximates
"Energy",kcal,--,--,100,81
"Protein",g,--,--,11.00,8.94
"Total lipid (fat)",g,--,--,0.50,0.41
"Carbohydrate, by difference",g,--,--,13.00,10.57
"Fiber, total dietary",g,--,--,1.0,0.8
"Sugars, total",g,--,--,9.00,7.32
Minerals
"Calcium, Ca",mg,--,--,41,33
"Iron, Fe",mg,--,--,0.36,0.29
"Sodium, Na",mg,--,--,990,805
Vitamins
"Vitamin C, total ascorbic acid",mg,--,--,1.2,1.0
"Vitamin A, IU",IU,--,--,100,81
Lipids
"Fatty acids, total saturated",g,--,--,0.000,0.000
"Fatty acids, total trans",g,--,--,0.000,0.000
"Cholesterol",mg,--,--,100,81
Amino Acids
Other
Ingredients
"SHRIMP, SALT, SODIUM TRIPOLYPHOSPHATE. COCKTAIL SAUCE - WATER, TOMATO PASTE, SUGAR, HORSERADISH, SALT, CITRIC ACID, ACETIC ACID, MODIFIED TAPIOCA STARCH, XANTHAN GUM, CARRAGEENAN, ONION, GARLIC, SPICES." Date available: 01/06/2017 Date last updated by company: 01/06/2017
