Source: USDA Branded Food Products Database Release December 2017 Software v.3.8.6.4 2017-10-02
Report Run at: December 17, 2017 08:11 EST
"Nutrient data for: 45266329, PREMIUM WASABI, UPC: 074410341121"
Food Group:  Branded Food Products Database
Common Name:

Nutrient,Unit,Data points,Std. Error,"1 tsp = 5.0g",1Value per 100 g,
Proximates
"Energy",kcal,--,--,15,300
"Protein",g,--,--,5.00,100.00
"Total lipid (fat)",g,--,--,0.50,10.00
"Carbohydrate, by difference",g,--,--,2.00,40.00
Minerals
"Sodium, Na",mg,--,--,115,2300
Vitamins
Lipids
Amino Acids
Other
Ingredients
"HORSERADISH, SORBITOL, CORN OIL, WATER, SALT, JAPANESE HORSERADISH(WASABI), SUGAR, MUSTARD EXTRACT, SEAWEED POWDER(KELP EXTRACT, SEAWEED, SOYBEAN, WHEAT, SALT, WATER, MALTODEXTRIN, SUGAR, CORN STARCH, BONITO EXTRACT, ALCOHOL), CITRIC ACID, XANTAHN GUM, FD&C YELLOW NO. 5, FD&C BLUE NO. 1)" Date available: 07/14/2017 Date last updated by company: 07/14/2017
