Source: USDA Branded Food Products Database Release December 2017 Software v.3.8.6.4 2017-10-02
Report Run at: December 17, 2017 07:29 EST
"Nutrient data for: 45048743, PREMIUM GRADE RICE, UPC: 011152285863"
Food Group:  Branded Food Products Database
Common Name:

Nutrient,Unit,Data points,Std. Error,"0.25 cup = 42.0g",1Value per 100 g,
Proximates
"Energy",kcal,--,--,150,357
"Protein",g,--,--,3.00,7.14
"Total lipid (fat)",g,--,--,0.00,0.00
"Carbohydrate, by difference",g,--,--,33.00,78.57
Minerals
"Sodium, Na",mg,--,--,0,0
Vitamins
Lipids
"Cholesterol",mg,--,--,0,0
Amino Acids
Other
Ingredients
"MILLED RICE." Date available: 07/14/2017 Date last updated by company: 07/14/2017
