Source: USDA Branded Food Products Database Release December 2017 Software v.3.8.6.4 2017-10-02
Report Run at: December 17, 2017 07:33 EST
"Nutrient data for: 45111547, PREMIUM ICE CREAM, UPC: 070640012435"
Food Group:  Branded Food Products Database
Common Name:

Nutrient,Unit,Data points,Std. Error,"0.5 cup = 73.0g",1Value per 100 g,
Proximates
"Energy",kcal,--,--,180,247
"Protein",g,--,--,2.00,2.74
"Total lipid (fat)",g,--,--,9.00,12.33
"Carbohydrate, by difference",g,--,--,24.00,32.88
"Fiber, total dietary",g,--,--,0.0,0.0
"Sugars, total",g,--,--,20.00,27.40
Minerals
"Calcium, Ca",mg,--,--,80,110
"Iron, Fe",mg,--,--,0.00,0.00
"Potassium, K",mg,--,--,125,171
"Sodium, Na",mg,--,--,70,96
Vitamins
"Vitamin C, total ascorbic acid",mg,--,--,0.0,0.0
"Vitamin A, IU",IU,--,--,225,308
Lipids
"Fatty acids, total saturated",g,--,--,5.000,6.850
"Fatty acids, total trans",g,--,--,0.000,0.000
"Cholesterol",mg,--,--,25,34
Amino Acids
Other
Ingredients
"MILK, CREAM, SKIM MILK, SUGAR, BUTTERMILK, WHEY, COOKIE DOUGH CHUNKS {WHEAT FLOUR, BROWN SUGAR, INTERESTERIFIED SOYBEAN OIL OR SOYBEAN OIL AND HYDROGENATED SOYBEAN OIL, SUGAR, CHOCOLATE CHIPS (SUGAR, UNSWEETENED CHOCOLATE, COCOA BUTTER, SOY LECITHIN, VANILLA EXTRACT), WATER, CORN STARCH, BAKING SODA, NATURAL FLAVOR, SALT, SOY LECITHIN, NATURAL & ARTIFICIAL VANILLA}, COOKIE DOUGH BATTER {SUGAR, CORN OIL, HIGH FRUCTOSE CORN SYRUP, BROWN SUGAR, WATER, UNBLEACHED WHEAT FLOUR, NONFAT MILK, BUTTER (CREAM, SALT), SALT, NATURAL FLAVORS, SOY LECITHIN, CARAMEL COLOR}, COOKIE DOUGH FLAVOR BASE (BROWN SUGAR, SUGAR, WATER, MOLASSES, UNBLEACHED WHEAT FLOUR, SALT), CHOCOLATE CHUNKS (SUGAR, COCONUT OIL, COCOA PROCESSED WITH ALKALI, COCOA POWDER, MILKFAT, SOY LECITHIN, VANILLA EXTRACT, NATURAL FLAVOR), CORN SYRUP, CONTAINS 1% OR LESS OF CAROB BEAN GUM, GUAR GUM, CARRAGEENAN, MONO & DIGLYCERIDES, CELLULOSE GEL, CELLULOSE GUM." Date available: 07/27/2017 Date last updated by company: 07/27/2017
