Source: USDA Branded Food Products Database Release December 2017 Software v.3.8.6.4 2017-10-02
Report Run at: December 17, 2017 07:43 EST
"Nutrient data for: 45281323, PREMIUM ICE CREAM, UPC: 607880405125"
Food Group:  Branded Food Products Database
Common Name:

Nutrient,Unit,Data points,Std. Error,"0.5 cup = 67.0g",1Value per 100 g,
Proximates
"Energy",kcal,--,--,130,194
"Protein",g,--,--,2.00,2.99
"Total lipid (fat)",g,--,--,7.00,10.45
"Carbohydrate, by difference",g,--,--,17.00,25.37
"Fiber, total dietary",g,--,--,0.0,0.0
"Sugars, total",g,--,--,12.00,17.91
Minerals
"Calcium, Ca",mg,--,--,80,119
"Iron, Fe",mg,--,--,0.00,0.00
"Sodium, Na",mg,--,--,55,82
Vitamins
"Vitamin C, total ascorbic acid",mg,--,--,0.0,0.0
"Vitamin A, IU",IU,--,--,225,336
Lipids
"Fatty acids, total saturated",g,--,--,4.000,5.970
"Fatty acids, total trans",g,--,--,0.000,0.000
"Cholesterol",mg,--,--,25,37
Amino Acids
Other
Ingredients
"MILKFAT AND NONFAT MILK, SUGAR, BLACK CHERRY SLICES {CHERRIES, WATER, CORN SYRUP, MODIFIED FOOD STARCH, CITRIC ACID, SODIUM BENZOATE, POTASSIUM SORBATE, NATURAL FLAVORS}, CORN SYRUP, WHEY (MILK) AND WHEY PROTEIN, STABILIZER (GUAR GUM, MONO AND DIGLYCERIDES, XANTHAN GUM, POLYSORBATE 80, CELLULOSE GUM, CARRAGEENAN, DEXTROSE), NATURAL FLAVOR, FD&C RED #40, BLUE #2, BLUE #1, GREEN #3." Date available: 07/14/2017 Date last updated by company: 07/14/2017
