Source: USDA Branded Food Products Database Release December 2017 Software v.3.8.6.4 2017-10-02
Report Run at: December 17, 2017 07:54 EST
"Nutrient data for: 45123594, PREMIUM ORGANIC GRANOLA, UPC: 058449771807"
Food Group:  Branded Food Products Database
Common Name:

Nutrient,Unit,Data points,Std. Error,"0.25 cup = 30.0g",1Value per 100 g,
Proximates
"Energy",kcal,--,--,140,467
"Protein",g,--,--,2.00,6.67
"Total lipid (fat)",g,--,--,6.00,20.00
"Carbohydrate, by difference",g,--,--,20.00,66.67
"Fiber, total dietary",g,--,--,2.0,6.7
"Sugars, total",g,--,--,6.00,20.00
Minerals
"Calcium, Ca",mg,--,--,0,0
"Iron, Fe",mg,--,--,1.32,4.40
"Sodium, Na",mg,--,--,55,183
Vitamins
"Vitamin C, total ascorbic acid",mg,--,--,2.2,7.3
"Vitamin A, IU",IU,--,--,0,0
Lipids
"Fatty acids, total saturated",g,--,--,0.999,3.330
"Fatty acids, total monounsaturated",g,--,--,1.500,5.000
"Fatty acids, total polyunsaturated",g,--,--,3.000,10.000
"Fatty acids, total trans",g,--,--,0.000,0.000
"Cholesterol",mg,--,--,0,0
Amino Acids
Other
Ingredients
"ROLLED OATS*, CANE SUGAR*, SOY OIL*, FAIR TRADE DARK CHOCOLATE CHUNKS* (CANE SUGAR*, UNSWEETENED CHOCOLATE*, COCOA BUTTER*, VANILLA*), FLAX SEEDS*, DRIED COCONUT*, COCOA*, FREEZE-DRIED BERRY BLEND* (FREEZE-DRIED STRAWBERRIES*, FREEZE-DRIED RASPBERRIES*), RICE STARCH*, SEA SALT, NATURAL FLAVOR, TOCOPHEROL (VITAMIN E)." Date available: 07/14/2017 Date last updated by company: 07/14/2017
