Source: USDA Branded Food Products Database Release December 2017 Software v.3.8.6.4 2017-10-02
Report Run at: December 17, 2017 07:32 EST
"Nutrient data for: 45274988, PREMIUM ICE CREAM CAKE, UPC: 783025050013"
Food Group:  Branded Food Products Database
Common Name:

Nutrient,Unit,Data points,Std. Error,"0.0416 CAKE = 87.0g",1Value per 100 g,
Proximates
"Energy",kcal,--,--,220,253
"Protein",g,--,--,3.00,3.45
"Total lipid (fat)",g,--,--,12.00,13.79
"Carbohydrate, by difference",g,--,--,28.00,32.18
"Fiber, total dietary",g,--,--,1.0,1.1
"Sugars, total",g,--,--,21.00,24.14
Minerals
"Calcium, Ca",mg,--,--,80,92
"Iron, Fe",mg,--,--,0.51,0.59
"Sodium, Na",mg,--,--,115,132
Vitamins
"Vitamin C, total ascorbic acid",mg,--,--,0.0,0.0
"Vitamin A, IU",IU,--,--,431,495
Lipids
"Fatty acids, total saturated",g,--,--,8.004,9.200
"Fatty acids, total trans",g,--,--,0.000,0.000
"Cholesterol",mg,--,--,25,29
Amino Acids
Other
Ingredients
"ICE CREAM (CREAM, SKIM MILK, WHEY POWDER, SUCROSE, CORN SYRUP, STABILIZER & EMULSIFIER [MONO & DIGLYCERIDES, GUAR GUM, LOCUST BEAN GUM, CALCIUM SULFATE, POLYSORBATE 80, CARRAGEENAN]), ICING (WATER, SUGAR, PARTIALLY HYDROGENATED PALM KERNEL OIL, DEXTROSE, CORN SYRUP, CONTAINS LESS THAN 2% OF: SODIUM CASEINATE, POTASSIUM SORBATE & SODIUM BENZOATE (PRESERVATIVES), CARBOHYDRATE GUM, POLYSORBATE 60, ARTIFICIAL FLAVOR, SALT, SOY PROTEIN ISOLATE, POLYGLYCEROL ESTERS OF FATTY ACIDS, MONO & DIGLYCERIDES, SODIUM CITRATE, DISODIUM PHOSPHATE, SOY LECITHIN, XANTHAN GUM), CHOCOLATE CRUNCH (BLEACHED WHEAT FLOUR, SUGAR, CARAMEL COLOR, PALM OIL, CONTAINS 2% OR LESS OF: COCOA, BAKING SODA, SALT, SOY LECITHIN), COCOA POWDER (COCOA PROCESSED WITH ALKALI, SUGAR, SALT, CARRAGEENAN, VANILLA), SOY & COCONUT OILS, DECORATIONS (SUGAR, RICE FLOUR, PARTIALLY HYDROGENATED COTTONSEED AND/OR SOYBEAN OILS, CORN STARCH, GUM ARABIC, CELLULOSE GUM, CONFECTIONER'S GLAZE, CARRAGEENAN, SOY LECITHIN, ARTIFICIAL FLAVOR, WATER, HIGH FRUCTOSE CORN SYRUP, GLYCERINE, ARTIFICIAL COLORS (MAY CONTAIN TITANIUM DIOXIDE, CARMINE, YELLOW 5, YELLOW 6, RED 3, RED 40, BLUE 1, BLUE 2, BLUE 2 LAKE), MODIFIED FOOD STARCH, PRESERVATIVES (MAY CONTAIN SODIUM BENZOATE, POTASSIUM SORBATE, METHYL PARABEN, PROPYL PARABEN), XANTHAN GUM AND/OR AGAR GUM, CITRIC ACID, MAY CONTAIN SALT AND/OR SORBITOL), TOPPING BASE (WATER, PARTIALLY HYDROGENATED PALM KERNEL OIL, SUGAR, CORN SYRUP, CONTAINS LESS THAN 2% OF: POLYSORBATE 60, CARBOHYDRATE GUM, NATURAL & ARTIFICIAL FLAVOR, SALT, SODIUM STEAROYL LACTYLATE, SORBITAN MONOSTEARATE, SODIUM CITRATE, SOY LECITHIN, XANTHAN GUM), NATURAL & ARTIFICIAL VANILLA FLAVOR." Date available: 10/11/2017 Date last updated by company: 10/11/2017
