Source: USDA Branded Food Products Database Release December 2017 Software v.3.8.6.4 2017-10-02
Report Run at: December 17, 2017 07:43 EST
"Nutrient data for: 45280366, PREMIUM ICE CREAM, UPC: 021130088553"
Food Group:  Branded Food Products Database
Common Name:

Nutrient,Unit,Data points,Std. Error,"0.5 cup = 60.0g",1Value per 100 g,
Proximates
"Energy",kcal,--,--,140,233
"Protein",g,--,--,3.00,5.00
"Total lipid (fat)",g,--,--,6.00,10.00
"Carbohydrate, by difference",g,--,--,18.00,30.00
"Fiber, total dietary",g,--,--,1.0,1.7
"Sugars, total",g,--,--,15.00,25.00
Minerals
"Calcium, Ca",mg,--,--,80,133
"Iron, Fe",mg,--,--,0.41,0.68
"Sodium, Na",mg,--,--,60,100
Vitamins
"Vitamin C, total ascorbic acid",mg,--,--,1.3,2.2
"Vitamin A, IU",IU,--,--,225,375
Lipids
"Fatty acids, total saturated",g,--,--,3.000,5.000
"Fatty acids, total trans",g,--,--,0.000,0.000
"Cholesterol",mg,--,--,10,17
Amino Acids
Other
Ingredients
"NONFAT MILK, CREAM, SUGAR, FUDGE MARBLE {POWDERED SUGAR [SUGAR, CORNSTARCH], VEGETABLE OIL [PEANUT AND/OR COTTONSEED AND/OR PALM OIL], COCOA [PROCESSED WITH ALKALI], WHEY, SALT, SOY LECITHIN, NATURAL FLAVOR}, MILK, CORN SYRUP, PEANUT BUTTER CUPS (SUGAR, PEANUT BUTTER [PEANUTS, SALT], COCONUT OIL, NONFAT MILK, WHOLE MILK, COCOA PROCESSED WITH ALKALI, SOY LECITHIN, NATURAL FLAVORS), WHEY, VANILLA EXTRACT, TARA GUM, TAPIOCA STARCH, MONO AND DIGLYCERIDES, GUAR GUM, POLYSORBATE 80, CELLULOSE GUM, XANTHAN GUM, DEXTROSE, CARRAGEENAN, VITAMIN A PALMITATE." Date available: 07/14/2017 Date last updated by company: 07/14/2017
