Source: USDA Branded Food Products Database Release December 2017 Software v.3.8.6.4 2017-10-02
Report Run at: December 17, 2017 07:48 EST
"Nutrient data for: 45317509, PREMIUM LIGHT TUNA IN WATER, UPC: 048000004925"
Food Group:  Branded Food Products Database
Common Name:

Nutrient,Unit,Data points,Std. Error,"1 POUCH = 60.0g",1Value per 100 g,
Proximates
"Energy",kcal,--,--,60,100
"Protein",g,--,--,11.00,18.33
"Total lipid (fat)",g,--,--,0.50,0.83
"Carbohydrate, by difference",g,--,--,0.00,0.00
"Fiber, total dietary",g,--,--,0.0,0.0
"Sugars, total",g,--,--,0.00,0.00
Minerals
"Calcium, Ca",mg,--,--,0,0
"Iron, Fe",mg,--,--,0.51,0.85
"Sodium, Na",mg,--,--,180,300
Vitamins
"Vitamin C, total ascorbic acid",mg,--,--,0.0,0.0
"Vitamin A, IU",IU,--,--,0,0
Lipids
"Fatty acids, total saturated",g,--,--,0.000,0.000
"Fatty acids, total monounsaturated",g,--,--,0.000,0.000
"Fatty acids, total polyunsaturated",g,--,--,0.000,0.000
"Fatty acids, total trans",g,--,--,0.000,0.000
"Cholesterol",mg,--,--,20,33
Amino Acids
Other
Ingredients
"INGREDIENTS: LIGHT TUNA, WATER, VEGETABLE BROTH (CONTAINS SOY), SALT" Date available: 06/25/2017 Date last updated by company: 06/25/2017
