Source: USDA Branded Food Products Database Release December 2017 Software v.3.8.6.4 2017-10-02
Report Run at: December 17, 2017 07:20 EST
"Nutrient data for: 45089008, PREMIUM COOKIE MIX, UPC: 041449470290"
Food Group:  Branded Food Products Database
Common Name:

Nutrient,Unit,Data points,Std. Error,"2.0 Tbsp = 21.0g",1Value per 100 g,
Proximates
"Energy",kcal,--,--,90,429
"Protein",g,--,--,1.00,4.76
"Carbohydrate, by difference",g,--,--,16.00,76.19
"Fiber, total dietary",g,--,--,1.0,4.8
"Sugars, total",g,--,--,9.00,42.86
Minerals
"Calcium, Ca",mg,--,--,0,0
"Iron, Fe",mg,--,--,1.37,6.53
"Sodium, Na",mg,--,--,115,548
Vitamins
"Vitamin C, total ascorbic acid",mg,--,--,0.0,0.0
"Vitamin A, IU",IU,--,--,0,0
Lipids
"Fatty acids, total saturated",g,--,--,1.000,4.760
"Fatty acids, total trans",g,--,--,0.000,0.000
"Cholesterol",mg,--,--,0,0
Amino Acids
Other
Ingredients
"ENRICHED BLEACHED FLOUR (WHEAT FLOUR, NIACIN, REDUCED IRON, THIAMIN MONONITRATE, RIBOFLAVIN, FOLIC ACID, MALTED BARLEY FLOUR, ENZYMES), SUGAR, BITTERSWEET CHOCOLATE CHIPS (UNSWEETENED CHOCOLATE, SUGAR, COCOA BUTTER, MILK FAT, SOY LECITHIN [EMULSIFIER], VANILLA EXTRACT), BROWN SUGAR, SEMI-SWEET CHOCOLATE CHIPS (SUGAR, UNSWEETENED CHOCOLATE, COCOA BUTTER, SOY LECITHIN [ EMULSIFIER], VANILLA EXTRACT). LESS THAN 2% OF: CANOLA OR SOYBEAN OIL, MODIFIED WHEAT STARCH, SALT, BAKING SODA, NATURAL AND ARTIFICIAL FLAVORS (CONTAINS MILK DERIVATIVES), CARAMEL COLOR." Date available: 07/14/2017 Date last updated by company: 07/14/2017
