Source: USDA Branded Food Products Database Release December 2017 Software v.3.8.6.4 2017-10-02
Report Run at: December 17, 2017 07:52 EST
"Nutrient data for: 45207454, PREMIUM MULTI GRAIN BREAD, UPC: 020601407602"
Food Group:  Branded Food Products Database
Common Name:

Nutrient,Unit,Data points,Std. Error,"1 SLICE = 60.0g",1Value per 100 g,
Proximates
"Energy",kcal,--,--,140,233
"Protein",g,--,--,6.00,10.00
"Total lipid (fat)",g,--,--,1.50,2.50
"Carbohydrate, by difference",g,--,--,29.00,48.33
"Fiber, total dietary",g,--,--,5.0,8.3
"Sugars, total",g,--,--,3.00,5.00
Minerals
"Calcium, Ca",mg,--,--,20,33
"Iron, Fe",mg,--,--,1.20,2.00
"Sodium, Na",mg,--,--,280,467
Vitamins
"Vitamin C, total ascorbic acid",mg,--,--,7.5,12.5
"Vitamin A, IU",IU,--,--,0,0
Lipids
"Fatty acids, total saturated",g,--,--,0.000,0.000
"Fatty acids, total trans",g,--,--,0.000,0.000
"Cholesterol",mg,--,--,0,0
Amino Acids
Other
Ingredients
"WATER, WHOLE WHEAT FLOUR, WHITE WHOLE WHEAT FLOUR, BROWN SUGAR, WHEAT GLUTEN, SUGAR, SALT, SOYBEAN OIL, YEAST, MOLASSES, HONEY, SUNFLOWER SEEDS, OAT FLAKES, OAT FLOUR, FLAX SEED, MILLET, WHEAT FLAKES, OAT BRAN, CARAMEL COLOR, WHITE DISTILLED VINEGAR, ENZYMES, ASCORBIC ACID." Date available: 07/14/2017 Date last updated by company: 07/14/2017
