Source: USDA Branded Food Products Database Release December 2017 Software v.3.8.6.4 2017-10-02
Report Run at: December 17, 2017 07:33 EST
"Nutrient data for: 45123699, PREMIUM ICE CREAM, UPC: 020735136317"
Food Group:  Branded Food Products Database
Common Name:

Nutrient,Unit,Data points,Std. Error,"0.5 cup = 66.0g",1Value per 100 g,
Proximates
"Energy",kcal,--,--,130,197
"Protein",g,--,--,2.00,3.03
"Total lipid (fat)",g,--,--,7.00,10.61
"Carbohydrate, by difference",g,--,--,16.00,24.24
"Fiber, total dietary",g,--,--,0.0,0.0
"Sugars, total",g,--,--,12.00,18.18
Minerals
"Calcium, Ca",mg,--,--,80,121
"Iron, Fe",mg,--,--,0.00,0.00
"Sodium, Na",mg,--,--,50,76
Vitamins
"Vitamin C, total ascorbic acid",mg,--,--,0.0,0.0
"Vitamin A, IU",IU,--,--,337,511
Lipids
"Fatty acids, total saturated",g,--,--,4.501,6.820
"Fatty acids, total trans",g,--,--,0.000,0.000
"Cholesterol",mg,--,--,25,38
Amino Acids
Other
Ingredients
"MILK, CREAM, CORN SYRUP, SUGAR, WHEY, NONFAT MILK, NATURAL AND ARTIFICIAL FLAVORS, CELLULOSE GEL, CELLULOSE GUM, MONO & DIGLYCERIDES, CARRAGEENAN, ANNATTO COLOR." Date available: 07/14/2017 Date last updated by company: 07/14/2017
