Source: USDA Branded Food Products Database Release December 2017 Software v.3.8.6.4 2017-10-02
Report Run at: December 17, 2017 07:31 EST
"Nutrient data for: 45292996, PREMIUM ICE BAR, UPC: 078469401003"
Food Group:  Branded Food Products Database
Common Name:

Nutrient,Unit,Data points,Std. Error,"3.0 OZA = 85.0g",1Value per 100 g,
Proximates
"Energy",kcal,--,--,70,82
"Protein",g,--,--,0.00,0.00
"Total lipid (fat)",g,--,--,0.00,0.00
"Carbohydrate, by difference",g,--,--,18.00,21.18
"Sugars, total",g,--,--,18.00,21.18
Minerals
"Sodium, Na",mg,--,--,0,0
Vitamins
Lipids
Amino Acids
Other
Ingredients
"WATER, SUCROSE, DEXTROSE, NATURAL AND/OR ARTIFICIAL FLAVORS, GUAR GUM, CITRIC ACID, YELLOW #5, BLUE #1, RED # 40" Date available: 07/14/2017 Date last updated by company: 07/14/2017
