Source: USDA Branded Food Products Database Release December 2017 Software v.3.8.6.4 2017-10-02
Report Run at: December 17, 2017 08:08 EST
"Nutrient data for: 45188235, PREMIUM STOLLEN MARZIPAN, UPC: 4101540759215"
Food Group:  Branded Food Products Database
Common Name:

Nutrient,Unit,Data points,Std. Error,"0.167 CAKE = 80.0g",1Value per 100 g,
Proximates
"Energy",kcal,--,--,330,412
"Protein",g,--,--,4.00,5.00
"Total lipid (fat)",g,--,--,15.00,18.75
"Carbohydrate, by difference",g,--,--,46.00,57.50
"Fiber, total dietary",g,--,--,3.0,3.8
"Sugars, total",g,--,--,26.00,32.50
Minerals
"Sodium, Na",mg,--,--,150,188
Vitamins
Lipids
"Fatty acids, total saturated",g,--,--,7.000,8.750
"Fatty acids, total trans",g,--,--,0.000,0.000
"Cholesterol",mg,--,--,10,12
Amino Acids
Other
Ingredients
"WHEAT FLOUR, 16% RAISINS, PALM FAT, SUGAR, 6% DRIED APPLE CHIPS, GLUCOSE, CANOLA OIL, HUMECTANTS (SORBITOL, GLYCEROL), YEAST, 2% OF APPLE PUREE, SWEET WHEY POWDER, FRUCTOSE, HAZELNUTS, EGGS, WHEAT STARCH, EMULSIFIERS (MONO-AND DIGLYCERIDES OF FATTY ACIDS, SOY LECITHIN), SALT, RICE FLOUR, CINNAMON, PECTINES (GELLING AGENTS), CITRIC ACID (ACIDS), NATURAL FLAVOR." Date available: 07/14/2017 Date last updated by company: 07/14/2017
