Source: USDA Branded Food Products Database Release December 2017 Software v.3.8.6.4 2017-10-02
Report Run at: December 17, 2017 07:54 EST
"Nutrient data for: 45318499, PREMIUM ORCHARD, YOGURT COVERED PRETZELS, UPC: 767000399052"
Food Group:  Branded Food Products Database
Common Name:

Nutrient,Unit,Data points,Std. Error,"9.0 pieces = 40.0g",1Value per 100 g,
Proximates
"Energy",kcal,--,--,190,475
"Protein",g,--,--,2.00,5.00
"Total lipid (fat)",g,--,--,7.00,17.50
"Carbohydrate, by difference",g,--,--,30.00,75.00
"Fiber, total dietary",g,--,--,1.0,2.5
"Sugars, total",g,--,--,17.00,42.50
Minerals
"Calcium, Ca",mg,--,--,0,0
"Iron, Fe",mg,--,--,0.00,0.00
"Sodium, Na",mg,--,--,130,325
Vitamins
"Vitamin C, total ascorbic acid",mg,--,--,0.0,0.0
"Vitamin A, IU",IU,--,--,0,0
Lipids
"Fatty acids, total saturated",g,--,--,6.000,15.000
"Fatty acids, total trans",g,--,--,0.000,0.000
"Cholesterol",mg,--,--,0,0
Amino Acids
Other
Ingredients
"YOGURT COATING (SUGAR,PALM KERNEL OIL, NONFAT DRY MILK, SWEET WHEY(MILK), NONFAT YOGURT, POWDER CULTURED WHEY, NONFAT MILK), TITANIUM DIOXIDE (COLOR), SOY LECITHIN, LACTIC ACID, NATURAL FLAVORS), PRETZELS (ENRICHED WHEAT POUR (WHEAT STARCH, NIACIN, REDUCED IRON, THIAMINE MONONITRATE, RIBOFLAVIN, FOLIC ACID, SILICON DIOXIDE (ANTI-CAKING AGENT), COM SYRUP, SALT, SODIUM BICARBONATE, YEAST)." Date available: 06/25/2017 Date last updated by company: 06/25/2017
