Source: USDA Branded Food Products Database Release December 2017 Software v.3.8.6.4 2017-10-02
Report Run at: December 17, 2017 07:29 EST
"Nutrient data for: 45077696, PREMIUM GRANOLA WITH NUTS, UPC: 041318290769"
Food Group:  Branded Food Products Database
Common Name:

Nutrient,Unit,Data points,Std. Error,"0.66 cup = 58.0g",1Value per 100 g,
Proximates
"Energy",kcal,--,--,290,500
"Protein",g,--,--,5.00,8.62
"Total lipid (fat)",g,--,--,14.00,24.14
"Carbohydrate, by difference",g,--,--,36.00,62.07
"Fiber, total dietary",g,--,--,3.0,5.2
"Sugars, total",g,--,--,12.00,20.69
Minerals
"Calcium, Ca",mg,--,--,300,517
"Iron, Fe",mg,--,--,1.37,2.36
"Sodium, Na",mg,--,--,180,310
Vitamins
"Vitamin C, total ascorbic acid",mg,--,--,0.0,0.0
"Vitamin A, IU",IU,--,--,0,0
Lipids
"Fatty acids, total saturated",g,--,--,2.999,5.170
"Fatty acids, total monounsaturated",g,--,--,7.998,13.790
"Fatty acids, total polyunsaturated",g,--,--,2.500,4.310
"Fatty acids, total trans",g,--,--,0.000,0.000
"Cholesterol",mg,--,--,0,0
Amino Acids
Other
Ingredients
"WHOLE GRAIN OAT FLAKES, SUGAR, PALM OIL, HAZELNUT KERNELS (CHOPPED AND WHOLE), RICE, CORN, ALMONDS (SLIVERED), BRAZIL NUT KERNELS (SLICED), PECANS NUTS (CHOPPED), CALCIUM CARBONATE, GRATED COCONUT, HONEY, MALTODEXTRIN, SALT, WHEAT GLUTEN, BARLEY AND WHEAT MALT FLOUR, CARAMEL SYRUP, BARLEY MALT EXTRACT, ASCORBIC ACID (ADDED TO PRESERVE FRESHNESS (ASCORBIC ACID, PALM OIL (HARDENED)), ARTIFICIAL FLAVOR, SUNFLOWER LECITHIN." Date available: 06/24/2017 Date last updated by company: 06/24/2017
