Source: USDA Branded Food Products Database Release December 2017 Software v.3.8.6.4 2017-10-02
Report Run at: December 17, 2017 08:11 EST
"Nutrient data for: 45177239, PREMIUM VALENTINE TWIST SUGAR COOKIE MIX, UPC: 634680171240"
Food Group:  Branded Food Products Database
Common Name:

Nutrient,Unit,Data points,Std. Error,"3.0 Tbsp = 25.0g",1Value per 100 g,
Proximates
"Energy",kcal,--,--,100,400
"Protein",g,--,--,1.00,4.00
"Total lipid (fat)",g,--,--,2.50,10.00
"Carbohydrate, by difference",g,--,--,19.00,76.00
"Fiber, total dietary",g,--,--,0.0,0.0
"Sugars, total",g,--,--,10.00,40.00
Minerals
"Calcium, Ca",mg,--,--,0,0
"Iron, Fe",mg,--,--,0.57,2.30
"Sodium, Na",mg,--,--,60,240
Vitamins
"Vitamin C, total ascorbic acid",mg,--,--,0.0,0.0
"Vitamin A, IU",IU,--,--,0,0
Lipids
"Fatty acids, total saturated",g,--,--,0.500,2.000
"Fatty acids, total trans",g,--,--,0.000,0.000
"Cholesterol",mg,--,--,0,0
Amino Acids
Other
Ingredients
"ENRICHED BLEACHED FLOUR (BLEACHED WHEAT FLOUR, NIACIN, IRON, THIAMINE MONONITRATE, RIBOFLAVIN, FOLIC ACID), SUGAR, PARTIALLY HYDROGENATED VEGETABLE SHORTENING (CONTAINS SOYBEAN OIL), CONTAINS 2% OR LESS OF: NATURAL AND ARTIFICIAL FLAVOR, SALT, LEAVENING (BAKING SODA), CORN STARCH. COLOR INGREDIENTS: WATER, SUGAR, RED #40 MODIFIED FOOD STARCH, XANTHAN GUM, POTASSIUM SORBATE PRESERVATIVE, SODIUM BENZOATE PRESERVATIVE, CITRIC ACID." Date available: 07/14/2017 Date last updated by company: 07/14/2017
