Source: USDA Branded Food Products Database Release December 2017 Software v.3.8.6.4 2017-10-02
Report Run at: December 17, 2017 08:11 EST
"Nutrient data for: 45184273, PREMIUM TURKEY BREAST, UPC: 075278153246"
Food Group:  Branded Food Products Database
Common Name:

Nutrient,Unit,Data points,Std. Error,"3.0 SLICES = 56.0g",1Value per 100 g,
Proximates
"Energy",kcal,--,--,60,107
"Protein",g,--,--,11.00,19.64
"Total lipid (fat)",g,--,--,0.50,0.89
"Carbohydrate, by difference",g,--,--,1.00,1.79
Minerals
"Calcium, Ca",mg,--,--,0,0
"Iron, Fe",mg,--,--,0.71,1.26
"Sodium, Na",mg,--,--,290,518
Vitamins
"Vitamin C, total ascorbic acid",mg,--,--,0.0,0.0
"Vitamin A, IU",IU,--,--,0,0
Lipids
"Fatty acids, total saturated",g,--,--,0.000,0.000
"Fatty acids, total trans",g,--,--,0.000,0.000
"Cholesterol",mg,--,--,25,45
Amino Acids
Other
Ingredients
"TURKEY BREAST, TURKEY BROTH, CONTAINS LESS THAN 2% OF SALT, SEA SALT (POTASSIUM MAGNESIUM CHLORIDE SALT), RICE FLOUR, LEMON JUICE CONCENTRATE, SUGAR, BROWNED IN VEGETABLE OIL." Date available: 07/14/2017 Date last updated by company: 07/14/2017
