Source: USDA Branded Food Products Database Release December 2017 Software v.3.8.6.4 2017-10-02
Report Run at: December 17, 2017 08:00 EST
"Nutrient data for: 45226653, PREMIUM QUALITY EDAMAME, UPC: 880124014516"
Food Group:  Branded Food Products Database
Common Name:

Nutrient,Unit,Data points,Std. Error,"1 BAG = 226.0g",1Value per 100 g,
Proximates
"Energy",kcal,--,--,140,62
"Protein",g,--,--,12.00,5.31
"Total lipid (fat)",g,--,--,4.99,2.21
"Carbohydrate, by difference",g,--,--,11.01,4.87
"Fiber, total dietary",g,--,--,4.1,1.8
"Sugars, total",g,--,--,1.99,0.88
Minerals
"Calcium, Ca",mg,--,--,79,35
"Iron, Fe",mg,--,--,0.68,0.30
"Sodium, Na",mg,--,--,5,2
Vitamins
"Vitamin C, total ascorbic acid",mg,--,--,4.5,2.0
"Vitamin A, IU",IU,--,--,75,33
Lipids
"Fatty acids, total saturated",g,--,--,0.497,0.220
"Fatty acids, total trans",g,--,--,0.000,0.000
"Cholesterol",mg,--,--,0,0
Amino Acids
Other
Ingredients
"EDAMAME" Date available: 07/14/2017 Date last updated by company: 07/14/2017
