Source: USDA Branded Food Products Database Release December 2017 Software v.3.8.6.4 2017-10-02
Report Run at: December 17, 2017 07:43 EST
"Nutrient data for: 45284270, PREMIUM ICE CREAM, UPC: 070905802740"
Food Group:  Branded Food Products Database
Common Name:

Nutrient,Unit,Data points,Std. Error,"0.5 cup = 74.0g",1Value per 100 g,
Proximates
"Energy",kcal,--,--,150,203
"Protein",g,--,--,2.00,2.70
"Total lipid (fat)",g,--,--,8.00,10.81
"Carbohydrate, by difference",g,--,--,16.00,21.62
"Fiber, total dietary",g,--,--,0.0,0.0
"Sugars, total",g,--,--,12.00,16.22
Minerals
"Calcium, Ca",mg,--,--,60,81
"Iron, Fe",mg,--,--,0.00,0.00
"Sodium, Na",mg,--,--,35,47
Vitamins
"Vitamin C, total ascorbic acid",mg,--,--,1.3,1.8
"Vitamin A, IU",IU,--,--,112,152
Lipids
"Fatty acids, total saturated",g,--,--,5.002,6.760
"Fatty acids, total trans",g,--,--,0.000,0.000
"Cholesterol",mg,--,--,35,47
Amino Acids
Other
Ingredients
"MILK & MILK SOLIDS, CREAM, SUGAR, CHOCOLATE FUDGE RIBBON (SKIM MILK, DEXTROSE, WATER, CORN SYRUP, SUGAR, COCOA PROCESSED WITH ALKALI, HIGH FRUCTOSE CORN SYRUP, MODIFIED CORN STARCH, MALTODEXTRIN, GUM BLEND (LOCUST BEAN, XANTHAN, GUAR), SALT, POTASSIUM SORBATE, VANILLA EXTRACT), CREAM, CORN SYRUP, SUGARED EGG YOLKS, MINI PEANUT BUTTER CUP (SUGAR, PEANUT BUTTER (PEANUTS, SALT), COCONUT OIL, NONFAT MILK, WHOLE MILK, COCOA PROCESSED WITH ALKALI, SOY LECITHIN (AN EMULSIFIER), NATURAL FLAVORS), STABILIZER (GUAR GUM, LOCUST BEAN GUM, CARRAGEENAN), NATURAL AND ARTIFICIAL FLAVORS." Date available: 07/14/2017 Date last updated by company: 07/14/2017
