Source: USDA Branded Food Products Database Release December 2017 Software v.3.8.6.4 2017-10-02
Report Run at: December 17, 2017 07:50 EST
"Nutrient data for: 45208099, PREMIUM MILK CHOCOLATE SEA SALT CARAMEL, UPC: 049705168660"
Food Group:  Branded Food Products Database
Common Name:

Nutrient,Unit,Data points,Std. Error,"1 BAR = 50.0g",1Value per 100 g,
Proximates
"Energy",kcal,--,--,240,480
"Protein",g,--,--,2.00,4.00
"Total lipid (fat)",g,--,--,13.00,26.00
"Carbohydrate, by difference",g,--,--,31.00,62.00
"Fiber, total dietary",g,--,--,1.0,2.0
"Sugars, total",g,--,--,28.00,56.00
Minerals
"Calcium, Ca",mg,--,--,60,120
"Iron, Fe",mg,--,--,0.36,0.72
"Sodium, Na",mg,--,--,100,200
Vitamins
"Vitamin C, total ascorbic acid",mg,--,--,0.0,0.0
"Vitamin A, IU",IU,--,--,100,200
Lipids
"Fatty acids, total saturated",g,--,--,7.000,14.000
"Fatty acids, total trans",g,--,--,0.000,0.000
"Cholesterol",mg,--,--,5,10
Amino Acids
Other
Ingredients
"MILK CHOCOLATE (SUGAR, COCOA BUTTER, CHOCOLATE LIQUOR, MILK, SOY LECITHIN, SALT, AND VANILLA), CARAMEL FILLING (CORN SYRUP, WATER, SUGAR, NONFAT DRY MILK, HIGH FRUCTOSE CORN SYRUP, AND BUTTER (CREAM, SALT), SEA SALT." Date available: 07/14/2017 Date last updated by company: 07/14/2017
