Source: USDA Branded Food Products Database Release December 2017 Software v.3.8.6.4 2017-10-02
Report Run at: December 17, 2017 08:01 EST
"Nutrient data for: 45183168, PREMIUM QUALITY ICE CREAM, UPC: 049705654705"
Food Group:  Branded Food Products Database
Common Name:

Nutrient,Unit,Data points,Std. Error,"0.5 cup = 65.0g",1Value per 100 g,
Proximates
"Energy",kcal,--,--,130,200
"Protein",g,--,--,2.00,3.08
"Total lipid (fat)",g,--,--,6.00,9.23
"Carbohydrate, by difference",g,--,--,16.00,24.62
"Fiber, total dietary",g,--,--,0.0,0.0
"Sugars, total",g,--,--,14.00,21.54
Minerals
"Calcium, Ca",mg,--,--,80,123
"Iron, Fe",mg,--,--,0.00,0.00
"Sodium, Na",mg,--,--,50,77
Vitamins
"Vitamin C, total ascorbic acid",mg,--,--,0.0,0.0
"Vitamin A, IU",IU,--,--,225,346
Lipids
"Fatty acids, total saturated",g,--,--,3.998,6.150
"Fatty acids, total trans",g,--,--,0.000,0.000
"Cholesterol",mg,--,--,30,46
Amino Acids
Other
Ingredients
"MILKFAT AND NONFAT MILK, SWEET CREAM BUTTERMILK, SUGAR, CORN STARCH, HIGH FRUCTOSE CORN SYRUP, STRAWBERRIES (STRAWBERRIES, SUGAR, GUAR GUM, CORN STARCH-MODIFIED, CITRIC ACID), WHEY, COCOA (PROCESSED WITH ALKALI), MONO AND DIGLYCERIDES, NATURAL FLAVOR, CITRIC ACID, GUAR GUM, CALCIUM SULFATE, LOCUST BEAN GUM, POLYSORBATE 80, SODIUM BICARBONATE, CARRAGEENAN, BEET JUICE CONCENTRATE AND ANNATTO (COLOR)." Date available: 07/14/2017 Date last updated by company: 07/14/2017
