Source: USDA Branded Food Products Database Release December 2017 Software v.3.8.6.4 2017-10-02
Report Run at: December 17, 2017 07:32 EST
"Nutrient data for: 45274995, PREMIUM ICE CREAM CAKE, UPC: 783025050082"
Food Group:  Branded Food Products Database
Common Name:

Nutrient,Unit,Data points,Std. Error,"0.06 CAKE = 72.0g",1Value per 100 g,
Proximates
"Energy",kcal,--,--,200,278
"Protein",g,--,--,3.00,4.17
"Total lipid (fat)",g,--,--,10.00,13.89
"Carbohydrate, by difference",g,--,--,26.00,36.11
"Fiber, total dietary",g,--,--,1.0,1.4
"Sugars, total",g,--,--,18.00,25.00
Minerals
"Calcium, Ca",mg,--,--,40,56
"Iron, Fe",mg,--,--,0.60,0.83
"Sodium, Na",mg,--,--,170,236
Vitamins
"Vitamin C, total ascorbic acid",mg,--,--,0.0,0.0
"Vitamin A, IU",IU,--,--,333,463
Lipids
"Fatty acids, total saturated",g,--,--,5.998,8.330
"Fatty acids, total trans",g,--,--,0.000,0.000
"Cholesterol",mg,--,--,25,35
Amino Acids
Other
Ingredients
"ICE CREAM (CREAM, SKIM MILK, WHEY POWDER, SUCROSE, CORN SYRUP, STABILIZER & EMULSIFIER [MONO & DIGLYCERIDES, GUAR GUM, LOCUST BEAN GUM, CALCIUM SULFATE, POLYSORBATE 80, CARRAGEENAN]), CAKE (SUGAR, EGGS, ENRICHED BLEACHED WHEAT FLOUR (FLOUR, NIACIN, FERROUS SULFATE, THIAMINE, RIBOFLAVIN, FOLIC ACID), NONFAT MILK, WATER, SOY OIL, EGG WHITES, COCOA PROCESSED WITH ALKALI, MODIFIED FOOD STARCH, SODIUM BICARBONATE, DISTILLED MONOGLYCERIDES, SALT, SODIUM ACID PYROPHOSPHATE, PROPYLENE GLYCOL MONOESTER, SOY LECITHIN, NATURAL & ARTIFICIAL FLAVORS, POLYGLYCEROL ESTER OF FATTY ACIDS), ICING (WATER, SUGAR, PARTIALLY HYDROGENATED PALM KERNEL OIL, DEXTROSE, CORN SYRUP, 2% OR LESS: SODIUM CASEINATE, POTASSIUM SORBATE & SODIUM BENZOATE (PRESERVATIVES), CARBOHYDRATE GUM, POLYSORBATE 60, ARTIFICIAL FLAVOR, SALT, SOY PROTEIN ISOLATE, POLYGLYCEROL ESTERS OF FATTY ACIDS, MONO & DIGLYCERIDES, SODIUM CITRATE, DISODIUM PHOSPHATE, SOY LECITHIN, XANTHAN GUM), CHOCOLATE WAFER (BLEACHED WHEAT FLOUR, SUGAR, PALM OIL, COCOA PROCESSED WITH ALKALI, 2% OR LESS: HIGH FRUCTOSE CORN SYRUP, CORN FLOUR, SALT, CARAMEL COLOR, BAKING SODA, SOY LECITHIN), DECORATIONS (SUGAR, RICE FLOUR, PARTIALLY HYDROGENATED COTTONSEED &/OR SOYBEAN OILS, CORN STARCH, GUM ARABIC, CELLULOSE GUM, CONFECTIONER'S GLAZE, CARRAGEENAN, SOY LECITHIN, ARTIFICIAL FLAVOR, WATER, HIGH FRUCTOSE CORN SYRUP, GLYCERINE, MAY CONTAIN ONE OR MORE OF THE FOLLOWING COLORS (TITANIUM DIOXIDE, CARMINE, YELLOW 5, YELLOW 6, RED 3, RED 40, BLUE 1, BLUE 2, BLUE 2 LAKE), SOYBEAN & COCONUT OIL, COCOA POWDER (COCOA PROCESSED WITH ALKALI, SUGAR, SALT, CARRAGEENAN, VANILLA), TOPPING BASE (WATER, PARTIALLY HYDROGENATED PALM KERNEL OIL, SUGAR, CORN SYRUP, 2% OR LESS: POLYSORBATE 60, CARBOHYDRATE GUM, NATURAL & ARTIFICIAL FLAVOR, SALT, SODIUM STEAROYL LACTYLATE, SORBITAN MONOSTEARATE, SODIUM CITRATE, SOY LECITHIN, XANTHAN GUM), NATURAL & ARTIFICIAL VANILLA FLAVOR." Date available: 07/14/2017 Date last updated by company: 07/14/2017
