Source: USDA Branded Food Products Database Release December 2017 Software v.3.8.6.4 2017-10-02
Report Run at: December 17, 2017 07:19 EST
"Nutrient data for: 45329656, PREMIUM COCONUT CREAM, UPC: 856660005134"
Food Group:  Branded Food Products Database
Common Name:

Nutrient,Unit,Data points,Std. Error,"0.333 cup = 80.0g",1Value per 100 g,
Proximates
"Energy",kcal,--,--,180,225
"Protein",g,--,--,2.00,2.50
"Total lipid (fat)",g,--,--,18.00,22.50
"Carbohydrate, by difference",g,--,--,3.00,3.75
"Fiber, total dietary",g,--,--,0.0,0.0
"Sugars, total",g,--,--,3.00,3.75
Minerals
"Calcium, Ca",mg,--,--,0,0
"Iron, Fe",mg,--,--,0.46,0.57
"Sodium, Na",mg,--,--,5,6
Vitamins
"Vitamin C, total ascorbic acid",mg,--,--,0.0,0.0
"Vitamin A, IU",IU,--,--,0,0
Lipids
"Fatty acids, total saturated",g,--,--,14.000,17.500
"Fatty acids, total trans",g,--,--,0.000,0.000
"Cholesterol",mg,--,--,0,0
Amino Acids
Other
Ingredients
"COCONUT, WATER, GUAR GUM." Date available: 10/13/2017 Date last updated by company: 10/13/2017
