Source: USDA Branded Food Products Database Release December 2017 Software v.3.8.6.4 2017-10-02
Report Run at: December 17, 2017 07:57 EST
"Nutrient data for: 45114265, PREMIUM POPCORN, UPC: 023896166803"
Food Group:  Branded Food Products Database
Common Name:

Nutrient,Unit,Data points,Std. Error,"4.0 CUPS POPPED), SERVINGS PER BAG ABOUT 3 | UNPOPPED (MAKES ABOUT = 26.0g",1Value per 100 g,
Proximates
"Energy",kcal,--,--,130,500
"Protein",g,--,--,2.00,7.69
"Total lipid (fat)",g,--,--,8.00,30.77
"Carbohydrate, by difference",g,--,--,13.00,50.00
"Fiber, total dietary",g,--,--,2.0,7.7
Minerals
"Iron, Fe",mg,--,--,0.69,2.67
"Sodium, Na",mg,--,--,250,962
Vitamins
Lipids
"Fatty acids, total saturated",g,--,--,3.999,15.380
"Fatty acids, total monounsaturated",g,--,--,3.000,11.540
"Fatty acids, total polyunsaturated",g,--,--,1.001,3.850
"Fatty acids, total trans",g,--,--,0.000,0.000
"Cholesterol",mg,--,--,0,0
Amino Acids
Other
Ingredients
"WHOLE GRAIN POPCORN, PALM OIL, SALT, NATURAL AND ARTIFICIAL FLAVOR [MILK], COLOR ADDED, FRESHNESS PRESERVED BY TBHQ." Date available: 09/11/2017 Date last updated by company: 09/11/2017
