Source: USDA Branded Food Products Database Release December 2017 Software v.3.8.6.4 2017-10-02
Report Run at: December 17, 2017 07:52 EST
"Nutrient data for: 45285663, PREMIUM NOODLE SOUP, UPC: 031146035915"
Food Group:  Branded Food Products Database
Common Name:

Nutrient,Unit,Data points,Std. Error,"1 CONTAINER = 75.0g",1Value per 100 g,
Proximates
"Energy",kcal,--,--,320,427
"Protein",g,--,--,8.00,10.67
"Total lipid (fat)",g,--,--,9.00,12.00
"Carbohydrate, by difference",g,--,--,51.00,68.00
"Fiber, total dietary",g,--,--,2.0,2.7
"Sugars, total",g,--,--,2.00,2.67
Minerals
"Calcium, Ca",mg,--,--,0,0
"Iron, Fe",mg,--,--,5.88,7.84
"Sodium, Na",mg,--,--,1170,1560
Vitamins
"Vitamin C, total ascorbic acid",mg,--,--,0.0,0.0
"Vitamin A, IU",IU,--,--,0,0
Lipids
"Fatty acids, total saturated",g,--,--,4.500,6.000
"Fatty acids, total monounsaturated",g,--,--,3.502,4.670
"Fatty acids, total polyunsaturated",g,--,--,0.998,1.330
"Fatty acids, total trans",g,--,--,0.000,0.000
"Cholesterol",mg,--,--,0,0
Amino Acids
Other
Ingredients
"ENRICHED WHEAT FLOUR (WHEAT FLOUR, NIACIN, REDUCED IRON, THIAMINE MONONITRATE, RIBOFLAVIN, FOLIC ACID), POTATO STARCH, PALM OIL, RICE FLOUR, MALTODEXTRIN, MODIFIED POTATO STARCH, BEEF BONE EXTRACT*, SALT, CONTAINS LESS THAN 2% OF: ANCHOVY EXTRACT*, BEEF EXTRACT*, BEEF FAT*, BLACK PEPPER*, CARAMEL (COLOR), CORN SYRUP*, DEFATTED SOY FLOUR, DEXTROSE, DISODIUM GUANYLATE, DISODIUM INOSINATE, DISODIUM SUCCINATE, DRIED GREEN ONION, DRIED SHIITAKE MUSHROOMS, FREEZE DRIED RED CHILI PEPPER (RED CHILI PEPPER, DEXTROSE, SALT), FREEZE DRIED WHITE BUTTON MUSHROOMS, GARLIC*, GINGER*, GUM ARABIC, HYDROLYZED CORN PROTEIN, HYDROLYZED SOY PROTEIN, MODIFIED CORN STARCH, MODIFIED TAPIOCA STARCH, MUSHROOM*, NATURAL FLAVORS, ONION*, POTASSIUM CARBONATE, RADISH EXTRACT*, RED CHILI PEPPER*, RIBOFLAVIN (COLOR), SODIUM CARBONATE, SODIUM PHOSPHATES, SOYBEAN SPROUT EXTRACT*, SUGAR, TOCOPHEROLS (ANTIOXIDANT), WHEAT GLUTEN, YEAST EXTRACT, YELLOW CORN FLOUR." Date available: 07/14/2017 Date last updated by company: 07/14/2017
