Source: USDA Branded Food Products Database Release December 2017 Software v.3.8.6.4 2017-10-02
Report Run at: December 17, 2017 07:45 EST
"Nutrient data for: 45333117, PREMIUM ICE CREAM, UPC: 041497012169"
Food Group:  Branded Food Products Database
Common Name:

Nutrient,Unit,Data points,Std. Error,"0.667 cup = 88.0g",1Value per 100 g,
Proximates
"Energy",kcal,--,--,210,239
"Protein",g,--,--,3.00,3.41
"Total lipid (fat)",g,--,--,10.00,11.36
"Carbohydrate, by difference",g,--,--,29.00,32.95
"Fiber, total dietary",g,--,--,0.0,0.0
"Sugars, total",g,--,--,22.00,25.00
Minerals
"Calcium, Ca",mg,--,--,98,111
"Iron, Fe",mg,--,--,0.00,0.00
"Sodium, Na",mg,--,--,75,85
Vitamins
"Vitamin D",IU,--,--,0,0
Lipids
"Fatty acids, total saturated",g,--,--,6.996,7.950
"Fatty acids, total trans",g,--,--,0.000,0.000
"Cholesterol",mg,--,--,30,34
Amino Acids
Other
Ingredients
"NONFAT MILK, CREAM, STRAWBERRY SWIRL (CORN SYRUP, STRAWBERRIES, SUGAR, WATER, MODIFIED CORNSTARCH, CITRIC ACID, NATURAL FLAVOR, STRAWBERRY SEEDS, BEET JUICE CONCENTRATE), CORN SYRUP, CHOCO FLAKES (SUGAR, COCONUT OIL, COCOA PROCESSED WITH ALKALI, HYDROGENATED COCONUT OIL, COCOA, SALT, SOY LECITHIN, NATURAL FLAVOR), SUGAR, STRAWBERRY PUREE (STRAWBERRIES, SUGAR, FRUIT AND VEGETABLE JUICE, CITRIC ACID, XANTHAN GUM, NATURAL FLAVOR), WHEY, CELLULOSE GUM, MONO- AND DIGLYCERIDES, LOCUST BEAN GUM, CARRAGEENAN." Date available: 10/13/2017 Date last updated by company: 10/13/2017
