Source: USDA Branded Food Products Database Release December 2017 Software v.3.8.6.4 2017-10-02
Report Run at: December 17, 2017 07:39 EST
"Nutrient data for: 45184993, PREMIUM ICE CREAM, UPC: 087932003521"
Food Group:  Branded Food Products Database
Common Name:

Nutrient,Unit,Data points,Std. Error,"0.5 cup = 65.0g",1Value per 100 g,
Proximates
"Energy",kcal,--,--,150,231
"Protein",g,--,--,2.00,3.08
"Total lipid (fat)",g,--,--,6.00,9.23
"Carbohydrate, by difference",g,--,--,21.00,32.31
"Fiber, total dietary",g,--,--,0.0,0.0
"Sugars, total",g,--,--,18.00,27.69
Minerals
"Calcium, Ca",mg,--,--,60,92
"Iron, Fe",mg,--,--,0.00,0.00
"Sodium, Na",mg,--,--,55,85
Vitamins
"Vitamin C, total ascorbic acid",mg,--,--,0.0,0.0
"Vitamin A, IU",IU,--,--,225,346
Lipids
"Fatty acids, total saturated",g,--,--,3.998,6.150
"Fatty acids, total trans",g,--,--,0.000,0.000
"Cholesterol",mg,--,--,20,31
Amino Acids
Other
Ingredients
"MILKFAT AND NONFAT MILK, SUGAR, CORN SYRUP, FROSTING RIBBON [SUGAR, WATER, HIGH FRUCTOSE CORN SYRUP, FOOD STARCH MODIFIED, TITANIUM DIOXIDE (COLOR), SALT, NATURAL AND ARTIFICIAL FLAVORS, POTASSIUM SORBATE (PRESERVATIVE), BLUE #1], COOKIE FRECKLES (SUGAR, COCONUT OIL, BUTTERMILK POWDER, NATURAL FLAVOR, TITANIUM DIOXIDE, SOY LECITHIN, YELLOW #6, YELLOW #5, BLUE #1), CREAM CHEESE (CULTURED PASTEURIZED MILK AND CREAM, SALT, ENZYMES), SWEETCREAM BUTTERMILK, WHEY, CONTAINS LESS THAN 2% OF NATURAL FLAVOR, FOOD STARCH-MODIFIED (CORN), MONO AND DIGLYCERIDES, CELLULOSE GUM, GUAR GUM, CARRAGEENAN, TITANIUM DIOXIDE AND ANNATTO (COLOR), SALT." Date available: 07/14/2017 Date last updated by company: 07/14/2017
