Source: USDA Branded Food Products Database Release December 2017 Software v.3.8.6.4 2017-10-02
Report Run at: December 17, 2017 07:22 EST
"Nutrient data for: 45317162, PREMIUM CUTS, PORK TENDERLOIN BACON WRAPPED, UPC: 221542713146"
Food Group:  Branded Food Products Database
Common Name:

Nutrient,Unit,Data points,Std. Error,"4.0 ONZ = 113.0g",1Value per 100 g,
Proximates
"Energy",kcal,--,--,240,212
"Protein",g,--,--,31.00,27.43
"Total lipid (fat)",g,--,--,12.00,10.62
"Carbohydrate, by difference",g,--,--,0.99,0.88
"Fiber, total dietary",g,--,--,0.0,0.0
"Sugars, total",g,--,--,0.00,0.00
Minerals
"Calcium, Ca",mg,--,--,0,0
"Iron, Fe",mg,--,--,0.81,0.72
"Sodium, Na",mg,--,--,850,752
Vitamins
"Vitamin C, total ascorbic acid",mg,--,--,0.0,0.0
"Vitamin A, IU",IU,--,--,0,0
Lipids
"Fatty acids, total saturated",g,--,--,2.994,2.650
"Fatty acids, total trans",g,--,--,0.000,0.000
"Cholesterol",mg,--,--,80,71
Amino Acids
Other
Ingredients
"*SOLUTION INGREDIENTS: PORK TENDERLOIN (BONELESS, TRIMMED), BACON (PORK CURED WITH WATER, SALT, BROWN SUGAR, SODIUM ERYTHORBATE, SODIUM NITRITE, NATURAL SMOKE FLAVOR, FLAVORINGS), SEASONING (SPICES [INCLUDING BLACK PEPPER, CORIANDER, OREGANO], SEA SALT, TURBANADO SUGAR, DEHYDRATED GARLIC, DEHYDRATED ONION, DEHYDRATED BELL PEPPER, XANTHAN GUM, SUNFLOWER OIL [PROCESSING AID]), VINEGAR POWDER, AND ROSEMARY EXTRACT (MALTODEXTRIN, ROSEMARY OLEORESIN)." Date available: 07/14/2017 Date last updated by company: 07/14/2017
