Source: USDA Branded Food Products Database Release December 2017 Software v.3.8.6.4 2017-10-02
Report Run at: December 17, 2017 07:36 EST
"Nutrient data for: 45183518, PREMIUM ICE CREAM, UPC: 070038642091"
Food Group:  Branded Food Products Database
Common Name:

Nutrient,Unit,Data points,Std. Error,"0.5 cup = 65.0g",1Value per 100 g,
Proximates
"Energy",kcal,--,--,130,200
"Protein",g,--,--,2.00,3.08
"Total lipid (fat)",g,--,--,7.00,10.77
"Carbohydrate, by difference",g,--,--,16.00,24.62
"Fiber, total dietary",g,--,--,1.0,1.5
"Sugars, total",g,--,--,11.00,16.92
Minerals
"Calcium, Ca",mg,--,--,60,92
"Iron, Fe",mg,--,--,0.40,0.62
"Sodium, Na",mg,--,--,40,62
Vitamins
"Vitamin C, total ascorbic acid",mg,--,--,0.0,0.0
"Vitamin A, IU",IU,--,--,225,346
Lipids
"Fatty acids, total saturated",g,--,--,4.498,6.920
"Fatty acids, total trans",g,--,--,0.000,0.000
"Cholesterol",mg,--,--,25,38
Amino Acids
Other
Ingredients
"MILKFAT AND NONFAT MILK, SUGAR, CORN SYRUP, HIGH FRUCTOSE CORN SYRUP, COCOA (PROCESSED WITH ALKALI), SWEETCREAM BUTTERMILK, WHEY, CONTAINS LESS THAN 2% OF GUAR GUM, MONO & DIGLYCERIDES, XANTHAN GUM, POLYSORBATE 80, CELLULOSE GUM, CARRAGEENAN." Date available: 07/14/2017 Date last updated by company: 07/14/2017
