Source: USDA Branded Food Products Database Release December 2017 Software v.3.8.6.4 2017-10-02
Report Run at: December 17, 2017 07:33 EST
"Nutrient data for: 45052139, PREMIUM ICE CREAM, UPC: 041497012428"
Food Group:  Branded Food Products Database
Common Name:

Nutrient,Unit,Data points,Std. Error,"0.5 cup = 66.0g",1Value per 100 g,
Proximates
"Energy",kcal,--,--,140,212
"Protein",g,--,--,3.00,4.55
"Total lipid (fat)",g,--,--,7.00,10.61
"Carbohydrate, by difference",g,--,--,16.00,24.24
"Fiber, total dietary",g,--,--,0.0,0.0
"Sugars, total",g,--,--,14.00,21.21
Minerals
"Calcium, Ca",mg,--,--,80,121
"Iron, Fe",mg,--,--,1.21,1.84
"Sodium, Na",mg,--,--,65,98
Vitamins
"Vitamin C, total ascorbic acid",mg,--,--,0.0,0.0
"Vitamin A, IU",IU,--,--,337,511
Lipids
"Fatty acids, total saturated",g,--,--,4.501,6.820
"Fatty acids, total trans",g,--,--,0.000,0.000
"Cholesterol",mg,--,--,25,38
Amino Acids
Other
Ingredients
"NONFAT MILK, CREAM, SUGAR, CORN SYRUP, COCOA PROCESSED WITH ALKALI, WHEY, CELLULOSE GUM, MONO- AND DIGLYCERIDES, LOCUST BEAN GUM, CARRAGEENAN." Date available: 08/08/2017 Date last updated by company: 08/08/2017
