Source: USDA Branded Food Products Database Release December 2017 Software v.3.8.6.4 2017-10-02
Report Run at: December 17, 2017 07:34 EST
"Nutrient data for: 45052299, PREMIUM ICE CREAM, UPC: 041497012947"
Food Group:  Branded Food Products Database
Common Name:

Nutrient,Unit,Data points,Std. Error,"0.5 cup = 66.0g",1Value per 100 g,
Proximates
"Energy",kcal,--,--,180,273
"Protein",g,--,--,4.00,6.06
"Total lipid (fat)",g,--,--,9.00,13.64
"Carbohydrate, by difference",g,--,--,21.00,31.82
"Fiber, total dietary",g,--,--,1.0,1.5
"Sugars, total",g,--,--,16.00,24.24
Minerals
"Calcium, Ca",mg,--,--,80,121
"Iron, Fe",mg,--,--,0.40,0.61
"Sodium, Na",mg,--,--,135,205
Vitamins
"Vitamin C, total ascorbic acid",mg,--,--,0.0,0.0
"Vitamin A, IU",IU,--,--,225,341
Lipids
"Fatty acids, total saturated",g,--,--,5.003,7.580
"Fatty acids, total trans",g,--,--,0.000,0.000
"Cholesterol",mg,--,--,20,30
Amino Acids
Other
Ingredients
"NONFAT MILK, CREAM, SEA SALT CARAMEL RIPPLE (CORN SYRUP, WATER, SWEETENED CONDENSED MILK [ CONDENSED MILK, SUGAR], SUGAR, SWEETENED CONDENSED SKIM MILK [ CONDENSED SKIM MILK, SUGAR], MODIFIED CORN STARCH, SEA SLAT, SODIUM ALGINATE, SODIUM BICARBONATE), SUGAR, PEANUT BUTTER (PEANUTS, CORN OIL AND/OR PEANUT OIL, DEXTROSE, SALT, MONO- AND DIGLYCERIDES), CHOCO PRETZELS (PRETZEL PIECES [ UNBLEACHED WATER FLOUR (FLOUR, NIACIN, REDUCED IRON, THIAMINE MONONITRATE, RIBOFLAVIN, FOLIC ACID), MALT, SALT, SOYBEAN OIL, YEAST], SUGAR, COCONUT OIL, NONFAT MILK, WHOLE MILK, COCOA PROCESSED WITH ALKALI, SOY LECITHIN, NATURAL FLAVORS), HIGH FRUCTOSE CORN SYRUP, CORN SYRUP WHEY CELLULOSE GUM, MONO-AND DIGLYCERIDES, LOCUST BEAN GUM, CARRAGEENAN." Date available: 08/08/2017 Date last updated by company: 08/08/2017
