Source: USDA Branded Food Products Database Release December 2017 Software v.3.8.6.4 2017-10-02
Report Run at: December 17, 2017 07:13 EST
"Nutrient data for: 45089003, PREMIUM BROWNIE MIX, UPC: 041449300221"
Food Group:  Branded Food Products Database
Common Name:

Nutrient,Unit,Data points,Std. Error,"0.25 cup = 33.0g",1Value per 100 g,
Proximates
"Energy",kcal,--,--,140,424
"Protein",g,--,--,1.00,3.03
"Carbohydrate, by difference",g,--,--,27.00,81.82
"Fiber, total dietary",g,--,--,1.0,3.0
"Sugars, total",g,--,--,18.00,54.55
Minerals
"Calcium, Ca",mg,--,--,0,0
"Iron, Fe",mg,--,--,1.31,3.97
"Sodium, Na",mg,--,--,110,333
Vitamins
"Vitamin C, total ascorbic acid",mg,--,--,0.0,0.0
"Vitamin A, IU",IU,--,--,0,0
Lipids
"Fatty acids, total saturated",g,--,--,1.502,4.550
"Fatty acids, total trans",g,--,--,0.000,0.000
"Cholesterol",mg,--,--,0,0
Amino Acids
Other
Ingredients
"SUGAR, ENRICHED BLEACHED FLOUR (WHEAT FLOUR, NIACIN, REDUCED IRON, THIAMIN MONONITRATE, RIBOFLAVIN, FOLIC ACID, MALTED BARLEY FLOUR, ENZYMES), SEMI-SWEET CHOCOLATE CHIPS (SUGAR, UNSWEETENED CHOCOLATE, COCOA BUTTER, SOY LECITHIN [EMULSIFIER], VANILLA EXTRACT), CANOLA OR SOYBEAN OIL, COCOA, COCOA (PROCESSED WITH ALKALI). LESS THAN 2% OF: WHEAT STARCH, SALT, ARTIFICIAL FLAVOR, BAKING SODA." Date available: 07/14/2017 Date last updated by company: 07/14/2017
