Source: USDA Branded Food Products Database Release December 2017 Software v.3.8.6.4 2017-10-02
Report Run at: December 17, 2017 07:13 EST
"Nutrient data for: 45031422, PREMIUM BROWNIE MIX, UPC: 041449302560"
Food Group:  Branded Food Products Database
Common Name:

Nutrient,Unit,Data points,Std. Error,"0.25 cup = 34.0g",1Value per 100 g,
Proximates
"Energy",kcal,--,--,140,412
"Protein",g,--,--,1.00,2.94
"Total lipid (fat)",g,--,--,4.00,11.76
"Carbohydrate, by difference",g,--,--,26.00,76.47
"Fiber, total dietary",g,--,--,1.0,2.9
"Sugars, total",g,--,--,18.00,52.94
Minerals
"Calcium, Ca",mg,--,--,0,0
"Iron, Fe",mg,--,--,1.27,3.74
"Sodium, Na",mg,--,--,115,338
Vitamins
"Vitamin C, total ascorbic acid",mg,--,--,0.0,0.0
"Vitamin A, IU",IU,--,--,0,0
Lipids
"Fatty acids, total saturated",g,--,--,0.500,1.470
"Fatty acids, total trans",g,--,--,0.000,0.000
"Cholesterol",mg,--,--,0,0
Amino Acids
Other
Ingredients
"SUGAR, ENRICHED BLEACHED FLOUR (WHEAT FLOUR, NIACIN, REDUCED IRON, THIAMIN MONONITRATE, RIBOFLAVIN, FOLIC ACID, MALTED BARLEY FLOUR, ENZYMES), WALNUTS, COCOA (PROCESSED WITH ALKALI), CANOLA OR SOYBEAN OIL. LESS THAN 2% OF: SALT, ARTIFICIAL FLAVOR, FOOD STARCH-MODIFIED, SOY LECITHIN (EMULSIFIER), BAKING SODA, XANTHAN GUM. FRESHNESS PRESERVED WITH BHT." Date available: 07/14/2017 Date last updated by company: 07/14/2017
