Source: USDA Branded Food Products Database Release December 2017 Software v.3.8.6.4 2017-10-02
Report Run at: December 17, 2017 07:24 EST
"Nutrient data for: 45283125, PREMIUM DELI HAM WATER ADDED, UPC: 015900000760"
Food Group:  Branded Food Products Database
Common Name:

Nutrient,Unit,Data points,Std. Error,"1 SLICE = 32.0g",1Value per 100 g,
Proximates
"Energy",kcal,--,--,40,125
"Protein",g,--,--,5.00,15.62
"Total lipid (fat)",g,--,--,1.00,3.12
"Carbohydrate, by difference",g,--,--,2.00,6.25
"Fiber, total dietary",g,--,--,0.0,0.0
"Sugars, total",g,--,--,2.00,6.25
Minerals
"Calcium, Ca",mg,--,--,0,0
"Iron, Fe",mg,--,--,0.62,1.94
"Sodium, Na",mg,--,--,360,1125
Vitamins
"Vitamin C, total ascorbic acid",mg,--,--,0.0,0.0
"Vitamin A, IU",IU,--,--,0,0
Lipids
"Fatty acids, total saturated",g,--,--,0.000,0.000
"Fatty acids, total trans",g,--,--,0.000,0.000
"Cholesterol",mg,--,--,15,47
Amino Acids
Other
Ingredients
"WATER, HONEY, SALT, 2% OR LESS OF THE FOLLOWING: BROWN SUGAR (SUGAR, CANE SYRUPS), MODIFIED CORN STARCH, POTASSIUM LACTATE, POTASSIUM ACETATE, SODIUM DIACETATE, SODIUM PHOSPHATES, SODIUM ERYTHORBATE, SODIUM NITRITE." Date available: 07/14/2017 Date last updated by company: 07/14/2017
