Source: USDA Branded Food Products Database Release December 2017 Software v.3.8.6.4 2017-10-02
Report Run at: December 17, 2017 07:38 EST
"Nutrient data for: 45184564, PREMIUM ICE CREAM, UPC: 077865010086"
Food Group:  Branded Food Products Database
Common Name:

Nutrient,Unit,Data points,Std. Error,"0.5 cup = 69.0g",1Value per 100 g,
Proximates
"Energy",kcal,--,--,160,232
"Protein",g,--,--,2.00,2.90
"Total lipid (fat)",g,--,--,8.00,11.59
"Carbohydrate, by difference",g,--,--,21.00,30.43
"Fiber, total dietary",g,--,--,1.0,1.4
"Sugars, total",g,--,--,16.00,23.19
Minerals
"Calcium, Ca",mg,--,--,60,87
"Iron, Fe",mg,--,--,0.00,0.00
"Sodium, Na",mg,--,--,55,80
Vitamins
"Vitamin C, total ascorbic acid",mg,--,--,0.0,0.0
"Vitamin A, IU",IU,--,--,225,326
Lipids
"Fatty acids, total saturated",g,--,--,5.003,7.250
"Fatty acids, total trans",g,--,--,0.000,0.000
"Cholesterol",mg,--,--,15,22
Amino Acids
Other
Ingredients
"FRESH WHOLE MILK, SUGAR, CHOCOLATE CHIP COOKIE DOUGH (WHEAT FLOUR, SUGAR, BROWN SUGAR, BUTTER, WATER, SOY OIL, CHOCOLATE CHIPS (SUGAR, CHOCOLATE LIQUOR, COCOA BUTTER, SOY LECITHIN [ADDED AS AN EMULSIFIER] AND VANILLA EXTRACT), CORN STARCH, MOLASSES, SALT, NATURAL FLAVOR, SOY LECITHIN, BAKING SODA), CREAM, CHOCOLATE FLAKE (SUGAR, PARTIALLY HYDROGENATED PALM KERNEL OIL, COCOA, CHOCOLATE LIQUOR, COCOA PROCESSED WITH ALKALI, AND SOY LECITHIN ADDED AS AN EMULSIFIER), CORN SYRUP SOLIDS, NON-FAT DRY MILK, STABILIZER (MICROCRYSTALLINE CELLULOSE, CELLULOSE GUM, MONO & DIGLYCERIDES, POLYSORBATE 80, CARRAGEENAN)." Date available: 07/14/2017 Date last updated by company: 07/14/2017
