Source: USDA Branded Food Products Database Release December 2017 Software v.3.8.6.4 2017-10-02
Report Run at: December 17, 2017 07:35 EST
"Nutrient data for: 45039509, PREMIUM ICE CREAM, UPC: 708820157859"
Food Group:  Branded Food Products Database
Common Name:

Nutrient,Unit,Data points,Std. Error,"0.66 cup = 90.0g",1Value per 100 g,
Proximates
"Energy",kcal,--,--,190,211
"Protein",g,--,--,2.00,2.22
"Total lipid (fat)",g,--,--,11.00,12.22
"Carbohydrate, by difference",g,--,--,21.00,23.33
"Fiber, total dietary",g,--,--,0.0,0.0
"Sugars, total",g,--,--,16.00,17.78
Minerals
"Calcium, Ca",mg,--,--,92,102
"Iron, Fe",mg,--,--,0.00,0.00
"Potassium, K",mg,--,--,103,114
"Sodium, Na",mg,--,--,45,50
Vitamins
"Vitamin D",IU,--,--,0,0
Lipids
"Fatty acids, total saturated",g,--,--,7.002,7.780
"Fatty acids, total trans",g,--,--,0.000,0.000
"Cholesterol",mg,--,--,45,50
Amino Acids
Other
Ingredients
"MILKFAT AND NONFAT MILK, SUGAR, CORN SYRUP, WHEY, CONTAINS LESS THAN 2% OF NATURAL FLAVOR, GROUND VANILLA BEAN, MONO & DIGLYCERIDES, CELLULOSE GUM, GUAR GUM, CARRAGEENAN." Date available: 10/17/2017 Date last updated by company: 10/17/2017
