Source: USDA Branded Food Products Database Release December 2017 Software v.3.8.6.4 2017-10-02
Report Run at: December 17, 2017 07:27 EST
"Nutrient data for: 45114581, PREMIUM GARBANZOS CHICKPEAS, UPC: 075669102105"
Food Group:  Branded Food Products Database
Common Name:

Nutrient,Unit,Data points,Std. Error,"0.5 cup = 135.0g",1Value per 100 g,
Proximates
"Energy",kcal,--,--,109,81
"Protein",g,--,--,5.99,4.44
"Total lipid (fat)",g,--,--,1.50,1.11
"Carbohydrate, by difference",g,--,--,17.00,12.59
"Fiber, total dietary",g,--,--,4.0,3.0
"Sugars, total",g,--,--,1.00,0.74
Minerals
"Calcium, Ca",mg,--,--,40,30
"Iron, Fe",mg,--,--,1.73,1.28
"Sodium, Na",mg,--,--,200,148
Vitamins
"Vitamin C, total ascorbic acid",mg,--,--,3.5,2.6
"Vitamin A, IU",IU,--,--,0,0
Lipids
"Fatty acids, total saturated",g,--,--,0.000,0.000
"Fatty acids, total trans",g,--,--,0.000,0.000
"Cholesterol",mg,--,--,0,0
Amino Acids
Other
Ingredients
"CHICKPEAS, WATER AND SALT. DISODIUM EDTA (ADDED TO PROMOTE COLOR RETENTION.)" Date available: 06/25/2017 Date last updated by company: 06/25/2017
