Source: USDA Branded Food Products Database Release December 2017 Software v.3.8.6.4 2017-10-02
Report Run at: December 17, 2017 08:05 EST
"Nutrient data for: 45106243, PREMIUM SESAME, UPC: 4711161700062"
Food Group:  Branded Food Products Database
Common Name:

Nutrient,Unit,Data points,Std. Error,"1 Tbsp = 14.0g",1Value per 100 g,
Proximates
"Energy",kcal,--,--,116,827
"Protein",g,--,--,0.07,0.50
"Total lipid (fat)",g,--,--,12.60,90.00
"Carbohydrate, by difference",g,--,--,0.50,3.57
"Fiber, total dietary",g,--,--,0.0,0.0
"Sugars, total",g,--,--,0.02,0.14
Minerals
"Calcium, Ca",mg,--,--,0,2
"Iron, Fe",mg,--,--,0.10,0.71
"Sodium, Na",mg,--,--,1,5
Vitamins
"Vitamin C, total ascorbic acid",mg,--,--,0.0,0.0
"Vitamin A, IU",IU,--,--,0,0
Lipids
"Fatty acids, total saturated",g,--,--,2.100,15.000
"Fatty acids, total trans",g,--,--,0.000,0.000
"Cholesterol",mg,--,--,0,0
Amino Acids
Other
Ingredients
"SESAME OIL. SOYBEAN OIL." Date available: 10/13/2017 Date last updated by company: 10/13/2017
