Source: USDA Branded Food Products Database Release December 2017 Software v.3.8.6.4 2017-10-02
Report Run at: December 17, 2017 07:40 EST
"Nutrient data for: 45217623, PREMIUM ICE CREAM, UPC: 74164300820"
Food Group:  Branded Food Products Database
Common Name:

Nutrient,Unit,Data points,Std. Error,"0.5 cup = 67.0g",1Value per 100 g,
Proximates
"Energy",kcal,--,--,140,209
"Protein",g,--,--,2.00,2.99
"Total lipid (fat)",g,--,--,7.00,10.45
"Carbohydrate, by difference",g,--,--,19.00,28.36
"Fiber, total dietary",g,--,--,0.0,0.0
"Sugars, total",g,--,--,17.00,25.37
Minerals
"Calcium, Ca",mg,--,--,80,119
"Iron, Fe",mg,--,--,0.00,0.00
"Sodium, Na",mg,--,--,50,75
Vitamins
"Vitamin C, total ascorbic acid",mg,--,--,0.0,0.0
"Vitamin A, IU",IU,--,--,225,336
Lipids
"Fatty acids, total saturated",g,--,--,4.000,5.970
"Fatty acids, total trans",g,--,--,0.000,0.000
"Cholesterol",mg,--,--,25,37
Amino Acids
Other
Ingredients
"MILKFAT AND NONFAT MILK, SUGAR, MILK CARAMEL VARIEGATE (MILK, SUGAR, CORN SYRUP, NONFAT MILK SOLIDS, BUTTER, SALT, PECTIN, SODIUM BICARBONATE, POTASSIUM SORBATE, VANILLIN), CORN SYRUP, HIGH FRUCTOSE CORN SYRUP, BUTTERMILK, MILK CARAMEL BASE (CORN SYRUP, SUGAR, WATER, NONFAT MILK SOLIDS, BUTTER, SALT), WHEY, MONO- AND DIGLYCERIDES, GUAR GUM, XANTHAN GUM, POLYSORBATE 80, CARAMEL COLOR, LOCUST BEAN GUM, CARRAGEENAN." Date available: 07/14/2017 Date last updated by company: 07/14/2017
