Source: USDA Branded Food Products Database Release December 2017 Software v.3.8.6.4 2017-10-02
Report Run at: December 17, 2017 07:34 EST
"Nutrient data for: 45056022, PREMIUM ICE CREAM, UPC: 020735111116"
Food Group:  Branded Food Products Database
Common Name:

Nutrient,Unit,Data points,Std. Error,"0.5 cup = 66.0g",1Value per 100 g,
Proximates
"Energy",kcal,--,--,170,258
"Protein",g,--,--,2.00,3.03
"Total lipid (fat)",g,--,--,10.00,15.15
"Carbohydrate, by difference",g,--,--,19.00,28.79
"Fiber, total dietary",g,--,--,1.0,1.5
"Sugars, total",g,--,--,14.00,21.21
Minerals
"Calcium, Ca",mg,--,--,60,91
"Iron, Fe",mg,--,--,0.40,0.61
"Sodium, Na",mg,--,--,85,129
Vitamins
"Vitamin C, total ascorbic acid",mg,--,--,0.0,0.0
"Vitamin A, IU",IU,--,--,225,341
Lipids
"Fatty acids, total saturated",g,--,--,5.003,7.580
"Fatty acids, total trans",g,--,--,0.000,0.000
"Cholesterol",mg,--,--,25,38
Amino Acids
Other
Ingredients
"MILK, CREAM, CORN SYRUP, CHOCOLATE COOKIE SWIRL [SOYBEAN OIL, SUGAR, CHOCOLATE COOKIES (WHEAT FLOUR, SUGAR, PALM AND PALM KERNEL OIL, COCOA PROCESSED WITH ALKALI, SALT, SODIUM BICARBONATE, NATURAL FLAVOR, SOY LECITHIN), COCOA PROCESSED WITH ALKALI, CORN STARCH, SALT, SOY LECITHIN, NATURAL FLAVOR], SUGAR, CHOCOLATE CRUNCHIES (SUGAR, WHEAT FLOUR, PARTIALLY HYDROGENATED PALM KERNEL & SOYBEAN OILS, COCOA PROCESSED WITH ALKALI, CARAMEL COLOR, COCOA, CORN SYRUP, SOY LECITHIN, SALT, SODIUM BICARBONATE, NATURAL FLAVOR), WHEY, NONFAT MILK, NATURAL AND ARTIFICIAL FLAVORS, CELLULOSE GEL, CELLULOSE GUM, MONO & DIGLYCERIDES, CARRAGEENAN, ANNATTO COLOR." Date available: 07/14/2017 Date last updated by company: 07/14/2017
