Source: USDA Branded Food Products Database Release December 2017 Software v.3.8.6.4 2017-10-02
Report Run at: December 17, 2017 07:41 EST
"Nutrient data for: 45219611, PREMIUM ICE CREAM, UPC: 858729002139"
Food Group:  Branded Food Products Database
Common Name:

Nutrient,Unit,Data points,Std. Error,"0.5 cup = 75.0g",1Value per 100 g,
Proximates
"Energy",kcal,--,--,170,227
"Protein",g,--,--,3.00,4.00
"Total lipid (fat)",g,--,--,9.00,12.00
"Carbohydrate, by difference",g,--,--,19.00,25.33
"Fiber, total dietary",g,--,--,0.2,0.3
"Sugars, total",g,--,--,16.00,21.33
Minerals
"Calcium, Ca",mg,--,--,100,133
"Iron, Fe",mg,--,--,0.00,0.00
"Sodium, Na",mg,--,--,45,60
Vitamins
"Vitamin C, total ascorbic acid",mg,--,--,0.0,0.0
"Vitamin A, IU",IU,--,--,400,533
Lipids
"Fatty acids, total saturated",g,--,--,6.000,8.000
"Fatty acids, total trans",g,--,--,0.000,0.000
"Cholesterol",mg,--,--,65,87
Amino Acids
Other
Ingredients
"NON FAT MILK, CREAM, SUGAR, CORN SYRUP, EGG YOLKS, WHEY, VANILLA EXTRACT, STABILIZER (LOCUST BEAN GUM, GUAR GUM, CARRAGEENAN), NUTMEG, ANNATTO AND TURMERIC EXTRACTS (ADDED FOR COLOR) AND NATURAL FLAVORS." Date available: 10/13/2017 Date last updated by company: 10/13/2017
