Source: USDA Branded Food Products Database Release December 2017 Software v.3.8.6.4 2017-10-02
Report Run at: December 17, 2017 07:20 EST
"Nutrient data for: 45195097, PREMIUM COOKED ITALIAN SAUSAGE, UPC: 041006098509"
Food Group:  Branded Food Products Database
Common Name:

Nutrient,Unit,Data points,Std. Error,"1 SAUSAGE = 91.0g",1Value per 100 g,
Proximates
"Energy",kcal,--,--,250,275
"Protein",g,--,--,21.00,23.08
"Total lipid (fat)",g,--,--,17.00,18.68
"Carbohydrate, by difference",g,--,--,4.00,4.40
"Fiber, total dietary",g,--,--,0.0,0.0
"Sugars, total",g,--,--,0.00,0.00
Minerals
"Calcium, Ca",mg,--,--,20,22
"Iron, Fe",mg,--,--,0.87,0.96
"Sodium, Na",mg,--,--,810,890
Vitamins
"Vitamin C, total ascorbic acid",mg,--,--,0.0,0.0
"Vitamin A, IU",IU,--,--,0,0
Lipids
"Fatty acids, total saturated",g,--,--,5.997,6.590
"Fatty acids, total trans",g,--,--,0.000,0.000
"Cholesterol",mg,--,--,80,88
Amino Acids
Other
Ingredients
"PORK, SPICES, SALT, RED PEPPER, DEXTROSE, PAPRIKA, BHA, BHT AND CITRIC ACID" Date available: 07/14/2017 Date last updated by company: 07/14/2017
