Source: USDA Branded Food Products Database Release December 2017 Software v.3.8.6.4 2017-10-02
Report Run at: December 17, 2017 07:24 EST
"Nutrient data for: 45054487, PREMIUM DRIED CHERRIES, UPC: 086101800121"
Food Group:  Branded Food Products Database
Common Name:

Nutrient,Unit,Data points,Std. Error,"0.33 cup = 44.0g",1Value per 100 g,
Proximates
"Energy",kcal,--,--,150,341
"Protein",g,--,--,1.00,2.27
"Total lipid (fat)",g,--,--,0.00,0.00
"Carbohydrate, by difference",g,--,--,37.00,84.09
"Fiber, total dietary",g,--,--,2.0,4.5
"Sugars, total",g,--,--,27.00,61.36
Minerals
"Calcium, Ca",mg,--,--,40,91
"Iron, Fe",mg,--,--,1.31,2.97
"Potassium, K",mg,--,--,292,664
"Sodium, Na",mg,--,--,0,0
Vitamins
"Vitamin C, total ascorbic acid",mg,--,--,0.0,0.0
"Vitamin A, IU",IU,--,--,455,1033
Lipids
"Fatty acids, total saturated",g,--,--,0.000,0.000
"Fatty acids, total trans",g,--,--,0.000,0.000
"Cholesterol",mg,--,--,0,0
Amino Acids
Other
Ingredients
"INGREDIENTS: CHERRIES, SUGAR, SUNFLOWER OIL." Date available: 06/25/2017 Date last updated by company: 06/25/2017
