Source: USDA Branded Food Products Database Release December 2017 Software v.3.8.6.4 2017-10-02
Report Run at: December 17, 2017 07:21 EST
"Nutrient data for: 45231236, PREMIUM COOKIES, UPC: 074699010022"
Food Group:  Branded Food Products Database
Common Name:

Nutrient,Unit,Data points,Std. Error,"2.0 COOKIES = 32.0g",1Value per 100 g,
Proximates
"Energy",kcal,--,--,170,531
"Protein",g,--,--,2.00,6.25
"Total lipid (fat)",g,--,--,10.00,31.25
"Carbohydrate, by difference",g,--,--,18.00,56.25
"Fiber, total dietary",g,--,--,0.0,0.0
"Sugars, total",g,--,--,7.00,21.88
Minerals
"Calcium, Ca",mg,--,--,0,0
"Iron, Fe",mg,--,--,1.13,3.52
"Sodium, Na",mg,--,--,70,219
Vitamins
"Vitamin C, total ascorbic acid",mg,--,--,0.0,0.0
"Vitamin A, IU",IU,--,--,0,0
Lipids
"Fatty acids, total saturated",g,--,--,4.499,14.060
"Fatty acids, total trans",g,--,--,0.000,0.000
"Cholesterol",mg,--,--,0,0
Amino Acids
Other
Ingredients
"ENRICHED WHEAT FLOUR (WHEAT FLOUR, NIACIN, REDUCED IRON, THIAMINE MONONITRATE, RIBOFLAVIN, FOLIC ACID), PALM AND / OR SOYBEAN OIL, WHITE SUGAR, EGG WHITES, ALMONDS, BROWN SUGAR, BAKING SODA, DEXTROSE, CORNSTARCH, SOY LECITHIN, NATURAL FLAVORS, SALT, NON-FAT DRIED MILK, ANNATTO COLOR." Date available: 07/14/2017 Date last updated by company: 07/14/2017
