Source: USDA Branded Food Products Database Release December 2017 Software v.3.8.6.4 2017-10-02
Report Run at: December 17, 2017 07:37 EST
"Nutrient data for: 45183826, PREMIUM ICE CREAM, UPC: 071452505269"
Food Group:  Branded Food Products Database
Common Name:

Nutrient,Unit,Data points,Std. Error,"0.5 cup = 67.0g",1Value per 100 g,
Proximates
"Energy",kcal,--,--,140,209
"Protein",g,--,--,4.00,5.97
"Total lipid (fat)",g,--,--,8.00,11.94
"Carbohydrate, by difference",g,--,--,18.00,26.87
"Fiber, total dietary",g,--,--,1.0,1.5
"Sugars, total",g,--,--,4.00,5.97
Minerals
"Calcium, Ca",mg,--,--,100,149
"Iron, Fe",mg,--,--,0.00,0.00
"Sodium, Na",mg,--,--,75,112
Vitamins
"Vitamin C, total ascorbic acid",mg,--,--,0.0,0.0
"Vitamin A, IU",IU,--,--,225,336
Lipids
"Fatty acids, total saturated",g,--,--,3.497,5.220
"Fatty acids, total trans",g,--,--,0.000,0.000
"Cholesterol",mg,--,--,10,15
Amino Acids
Other
Ingredients
"MILK, CREAM, NO SUGAR ADDED MOOSE TRACKS FUDGE (PEANUT OIL, COCOA PROCESSED WITH ALKALI, MALTODEXTRIN, MALTITOL, SORBITOL, COCOA, WHEY, SALT, SOY LECITHIN, NATURAL FLAVOR, SUCRALOSE, ACESULFAME POTASSIUM), NONFAT DRY MILK, LACTITOL MONOHYDRATE, SUGAR FREE PEANUT BUTTER CUPS (PEANUT BUTTER, [PEANUTS, SALT], COCONUT OIL, LACTITOL, MALTITOL, COCOA PROCESSED WITH ALKALI, SOY LECITHIN, VANILLA EXTRACT), MALTODEXTRIN, MICROCRYSTALLINE CELLULOSE, MONO & DIGLYCERIDES, CELLULOSE GUM, WHEY, CARRAGEENAN, VANILLA EXTRACT, SUCRALOSE, VITAMIN A PALMITATE." Date available: 07/14/2017 Date last updated by company: 07/14/2017
