Source: USDA Branded Food Products Database Release December 2017 Software v.3.8.6.4 2017-10-02
Report Run at: December 17, 2017 07:16 EST
"Nutrient data for: 45180693, PREMIUM CHOCOLATE ASSORTMENT, UPC: 747599319624"
Food Group:  Branded Food Products Database
Common Name:

Nutrient,Unit,Data points,Std. Error,"3.0 SQUARES = 43.0g",1Value per 100 g,
Proximates
"Energy",kcal,--,--,220,512
"Protein",g,--,--,2.00,4.65
"Total lipid (fat)",g,--,--,12.00,27.91
"Carbohydrate, by difference",g,--,--,27.00,62.79
"Fiber, total dietary",g,--,--,1.0,2.3
"Sugars, total",g,--,--,24.00,55.81
Minerals
"Calcium, Ca",mg,--,--,60,140
"Iron, Fe",mg,--,--,1.26,2.92
"Sodium, Na",mg,--,--,40,93
Vitamins
"Vitamin C, total ascorbic acid",mg,--,--,0.0,0.0
"Vitamin A, IU",IU,--,--,117,271
Lipids
"Fatty acids, total saturated",g,--,--,7.000,16.280
"Fatty acids, total trans",g,--,--,0.000,0.000
"Cholesterol",mg,--,--,5,12
Amino Acids
Other
Ingredients
"SUGAR, UNSWEETENED CHOCOLATE, COCOA BUTTER, WHOLE MILK POWDER, CORN SYRUP, SWEETENED CONDENSED MILK (PASTEURIZED MILK, SUGAR), HIGH FRUCTOSE CORN SYRUP, PALM OIL, WATER, BUTTER (CREAM, SALT), MILK FAT, NONFAT DRY MILK, NATURAL AND ARTIFICIAL FLAVOR, SOY LECITHIN AN EMULSIFIER, DISODIUM PHOSPHATE, SALT, SORBITOL, FLAKED CORN, YELLOW CORN FLOUR, SPICES, PARTIALLY HYDROGENATED VEGETABLE OIL (COTTONSEED AND/OR SOYBEAN), VANILLA, POTASSIUM SORBATE, CITRIC ACID AND TBHQ AS PRESERVATIVES, PEPPERMINT OIL, CORN STARCH, RED #40 LAKE, GELATIN, CORN SYRUP SOLIDS, CARAMEL COLOR." Date available: 07/14/2017 Date last updated by company: 07/14/2017
