Source: USDA Branded Food Products Database Release December 2017 Software v.3.8.6.4 2017-10-02
Report Run at: December 17, 2017 07:38 EST
"Nutrient data for: 45184580, PREMIUM ICE CREAM, UPC: 077865010260"
Food Group:  Branded Food Products Database
Common Name:

Nutrient,Unit,Data points,Std. Error,"0.5 cup = 69.0g",1Value per 100 g,
Proximates
"Energy",kcal,--,--,140,203
"Protein",g,--,--,2.00,2.90
"Total lipid (fat)",g,--,--,6.00,8.70
"Carbohydrate, by difference",g,--,--,18.00,26.09
"Fiber, total dietary",g,--,--,0.0,0.0
"Sugars, total",g,--,--,13.00,18.84
Minerals
"Calcium, Ca",mg,--,--,80,116
"Iron, Fe",mg,--,--,0.00,0.00
"Sodium, Na",mg,--,--,45,65
Vitamins
"Vitamin C, total ascorbic acid",mg,--,--,0.0,0.0
"Vitamin A, IU",IU,--,--,225,326
Lipids
"Fatty acids, total saturated",g,--,--,4.002,5.800
"Fatty acids, total trans",g,--,--,0.000,0.000
"Cholesterol",mg,--,--,20,29
Amino Acids
Other
Ingredients
"FRESH WHOLE MILK, SUGAR, COTTON CANDY VARIEGATE (CORN SYRUP, WATER, CORN STARCH-MODIFIED, NATURAL AND ARTIFICIAL FLAVORS, CELLULOSE AND LOCUST BEAN GUMS, SODIUM BENZOATE AND POTASSIUM SORBATE (AS PRESERVATIVES), CITRIC ACID, RED 3), CREAM, CORN SYRUP SOLIDS, NON-FAT DRY MILK, STABILIZER (MICROCRYSTALLINE CELLULOSE, CELLULOSE GUM, MONO & DIGLYCERIDES, POLYSORBATE 80, CARRAGEENAN), ARTIFICIAL FLAVOR, BLUE COLOR (WATER, BLUE 1, CITRIC ACID, SODIUM BENZOATE, RED 40)." Date available: 07/14/2017 Date last updated by company: 07/14/2017
