Source: USDA Branded Food Products Database Release December 2017 Software v.3.8.6.4 2017-10-02
Report Run at: December 17, 2017 07:38 EST
"Nutrient data for: 45184401, PREMIUM ICE CREAM, UPC: 075767320159"
Food Group:  Branded Food Products Database
Common Name:

Nutrient,Unit,Data points,Std. Error,"0.5 cup = 71.0g",1Value per 100 g,
Proximates
"Energy",kcal,--,--,180,254
"Protein",g,--,--,2.00,2.82
"Total lipid (fat)",g,--,--,10.00,14.08
"Carbohydrate, by difference",g,--,--,20.00,28.17
"Fiber, total dietary",g,--,--,0.0,0.0
"Sugars, total",g,--,--,16.00,22.54
Minerals
"Calcium, Ca",mg,--,--,80,113
"Iron, Fe",mg,--,--,0.00,0.00
"Sodium, Na",mg,--,--,100,141
Vitamins
"Vitamin C, total ascorbic acid",mg,--,--,0.0,0.0
"Vitamin A, IU",IU,--,--,337,475
Lipids
"Fatty acids, total saturated",g,--,--,4.501,6.340
"Fatty acids, total trans",g,--,--,0.000,0.000
"Cholesterol",mg,--,--,20,28
Amino Acids
Other
Ingredients
"MILK, CREAM, CORN SYRUP, LIQUID SUGAR, WHISKEY CARAMEL SWIRLS [CORN SYRUP, WATER, SWEETENED CONDENSED SKIM MILK (SUGAR, WATER, NONFAT MILK SOLIDS), BUTTER (CREAM, SALT), WHISKEY, DRY MALT EXTRACT, SALT, CARRAGEENAN, SODIUM BICARBONATE], SKIM MILK, BUTTERMILK, PECANS (PECANS, COTTONSEED OIL, BUTTER, SALT), MILKFAT, WHEY, NATURAL FLAVORS (NATURAL FLAVOR, WATER, SALT, SOY SAUCE), EGG YOLKS, MONO- AND DIGLYCERIDES, CELLULOSE GUM, GUAR GUM, CARRAGEENAN, DEXTROSE." Date available: 07/14/2017 Date last updated by company: 07/14/2017
