Source: USDA Branded Food Products Database Release December 2017 Software v.3.8.6.4 2017-10-02
Report Run at: December 17, 2017 07:15 EST
"Nutrient data for: 45256274, PREMIUM CHICAGO STYLE PIZZA, THIN CRUST, UPC: 043098201638"
Food Group:  Branded Food Products Database
Common Name:

Nutrient,Unit,Data points,Std. Error,"0.125 PIZZA = 78.0g",1Value per 100 g,
Proximates
"Energy",kcal,--,--,200,256
"Protein",g,--,--,8.00,10.26
"Total lipid (fat)",g,--,--,9.00,11.54
"Carbohydrate, by difference",g,--,--,22.00,28.21
"Fiber, total dietary",g,--,--,1.0,1.3
"Sugars, total",g,--,--,2.00,2.56
Minerals
"Calcium, Ca",mg,--,--,100,128
"Iron, Fe",mg,--,--,3.60,4.62
"Sodium, Na",mg,--,--,440,564
Vitamins
"Vitamin C, total ascorbic acid",mg,--,--,3.0,3.8
"Vitamin A, IU",IU,--,--,750,962
Lipids
"Fatty acids, total saturated",g,--,--,3.502,4.490
"Fatty acids, total trans",g,--,--,0.000,0.000
"Cholesterol",mg,--,--,15,19
Amino Acids
Other
Ingredients
"CRUST: FLOUR [WHEAT FLOUR (MALTED BARLEY FLOUR), NIACIN, IRON, THIAMIN, MONONITRATE, RIBOFLAVIN, FOLIC ACID), WATER, SOYBEAN OIL, SALT, YEAST, SUGAR, BUTTER. MOZZARELLA CHEESE: PASTEURIZED PART-SKIM MILK, CHEESE CULTURES, SALT, ENZYMES. SAUCE: TOMATO PUREE, WATER, SPICES, SALT, SUGAR. PEPPERONI: PORK, BEEF, SALT, SPICES, DEXTROSE, LACTIC ACID STARTER CULTURE, OLEORESIN OF PAPRIKA, FLAVORING, GARLIC POWDER, SODIUM NITRITE, BHA, BHT, CITRIC ACID." Date available: 07/14/2017 Date last updated by company: 07/14/2017
