Source: USDA Branded Food Products Database Release December 2017 Software v.3.8.6.4 2017-10-02
Report Run at: December 17, 2017 07:32 EST
"Nutrient data for: 45280125, PREMIUM ICE CREAM BAR, UPC: 767778000952"
Food Group:  Branded Food Products Database
Common Name:

Nutrient,Unit,Data points,Std. Error,"88.0 GRM = 88.0g",1Value per 100 g,
Proximates
"Energy",kcal,--,--,333,378
"Protein",g,--,--,4.00,4.55
"Total lipid (fat)",g,--,--,20.00,22.73
"Carbohydrate, by difference",g,--,--,35.00,39.77
"Fiber, total dietary",g,--,--,1.0,1.1
"Sugars, total",g,--,--,31.00,35.23
Minerals
"Calcium, Ca",mg,--,--,110,125
"Iron, Fe",mg,--,--,0.00,0.00
"Sodium, Na",mg,--,--,83,94
Vitamins
"Vitamin C, total ascorbic acid",mg,--,--,0.6,0.7
"Vitamin A, IU",IU,--,--,550,625
Lipids
"Fatty acids, total saturated",g,--,--,15.998,18.180
"Fatty acids, total trans",g,--,--,0.000,0.000
"Cholesterol",mg,--,--,49,56
Amino Acids
Other
Ingredients
"MILK FAT AND NON-FAT MILK, SUGAR, CORN SYRUP, SHREDDED COCONUT, CHOCOLATE FLAVORED COATING (COCONUT OIL, SUGAR, COCOA (PROCESSED WITH ALKALI), PARTIALLY HYDROGENATED COCONUT OIL, COCOA, WHEY, SOY, LECITHIN, SOYBEAN OIL, VANILLIN AND SALT), MONO AND DIGLYCERIDES, CELLULOSE GUM, GUAR GUM, POLYSORBATE 80, CARRAGEENAN, XANTHAN GUM, CAROB BEAN GUM, NATURAL AND ARTIFICIAL FLAVOR." Date available: 07/14/2017 Date last updated by company: 07/14/2017
