Source: USDA Branded Food Products Database Release December 2017 Software v.3.8.6.4 2017-10-02
Report Run at: December 17, 2017 07:27 EST
"Nutrient data for: 45261624, PREMIUM FROZEN YOGURT, UPC: 854824005006"
Food Group:  Branded Food Products Database
Common Name:

Nutrient,Unit,Data points,Std. Error,"0.5 cup = 67.0g",1Value per 100 g,
Proximates
"Energy",kcal,--,--,140,209
"Protein",g,--,--,3.00,4.48
"Total lipid (fat)",g,--,--,4.00,5.97
"Carbohydrate, by difference",g,--,--,23.00,34.33
"Fiber, total dietary",g,--,--,0.0,0.0
"Sugars, total",g,--,--,21.00,31.34
Minerals
"Calcium, Ca",mg,--,--,100,149
"Iron, Fe",mg,--,--,0.00,0.00
"Sodium, Na",mg,--,--,90,134
Vitamins
"Vitamin C, total ascorbic acid",mg,--,--,0.0,0.0
"Vitamin A, IU",IU,--,--,113,168
Lipids
"Fatty acids, total saturated",g,--,--,3.002,4.480
"Fatty acids, total trans",g,--,--,0.000,0.000
"Cholesterol",mg,--,--,5,7
Amino Acids
Other
Ingredients
"'GUILT FREE' INGREDIENTS: SKIM MILK, NONFAT CONDENSED MILK, SUGAR, YOGURT (CULTURED SKIM MILK), CARAMEL TOFFEE PIECES (SUGAR, BUTTER (CREAM, SALT), SALT), CARAMEL DROP (WHITE COATING (SUGAR, PALM KERNEL OIL, NONFAT DRY MILK, WHOLE MILK POWDER, SOY LECITHIN (EMULSIFIER), SALT), CARAMEL COLOR, NATURAL FLAVOR, SALT, ANNATTO), TAPIOCA MALTODEXTRIN, CARAMEL COLOR, NATURAL FLAVOR, CREAM, LOCUST BEAN GUM, GUAR GUM, CARRAGENAN." Date available: 07/14/2017 Date last updated by company: 07/14/2017
