Source: USDA Branded Food Products Database Release December 2017 Software v.3.8.6.4 2017-10-02
Report Run at: December 17, 2017 07:55 EST
"Nutrient data for: 45314179, PREMIUM ORGANIC SWEET PEAS, UPC: 021908503400"
Food Group:  Branded Food Products Database
Common Name:

Nutrient,Unit,Data points,Std. Error,"0.5 CUP PREPARED | FROZEN = 91.0g",1Value per 100 g,
Proximates
"Energy",kcal,--,--,60,66
"Protein",g,--,--,5.00,5.49
"Total lipid (fat)",g,--,--,0.00,0.00
"Carbohydrate, by difference",g,--,--,12.00,13.19
"Fiber, total dietary",g,--,--,4.0,4.4
"Sugars, total",g,--,--,4.00,4.40
Minerals
"Calcium, Ca",mg,--,--,0,0
"Iron, Fe",mg,--,--,0.00,0.00
"Potassium, K",mg,--,--,140,154
"Sodium, Na",mg,--,--,0,0
Vitamins
"Vitamin C, total ascorbic acid",mg,--,--,8.4,9.2
"Vitamin A, IU",IU,--,--,373,410
Lipids
"Fatty acids, total saturated",g,--,--,0.000,0.000
"Fatty acids, total trans",g,--,--,0.000,0.000
"Cholesterol",mg,--,--,0,0
Amino Acids
Other
Ingredients
"ORGANIC PEAS." Date available: 10/04/2017 Date last updated by company: 10/04/2017
