Source: USDA Branded Food Products Database Release December 2017 Software v.3.8.6.4 2017-10-02
Report Run at: December 17, 2017 07:35 EST
"Nutrient data for: 45181506, PREMIUM ICE CREAM, UPC: 021130085835"
Food Group:  Branded Food Products Database
Common Name:

Nutrient,Unit,Data points,Std. Error,"0.5 cup = 61.0g",1Value per 100 g,
Proximates
"Energy",kcal,--,--,130,213
"Protein",g,--,--,3.00,4.92
"Total lipid (fat)",g,--,--,4.00,6.56
"Carbohydrate, by difference",g,--,--,20.00,32.79
"Fiber, total dietary",g,--,--,1.0,1.6
"Sugars, total",g,--,--,15.00,24.59
Minerals
"Calcium, Ca",mg,--,--,60,98
"Iron, Fe",mg,--,--,0.81,1.33
"Sodium, Na",mg,--,--,65,107
Vitamins
"Vitamin C, total ascorbic acid",mg,--,--,0.0,0.0
"Vitamin A, IU",IU,--,--,112,184
Lipids
"Fatty acids, total saturated",g,--,--,2.501,4.100
"Fatty acids, total trans",g,--,--,0.000,0.000
"Cholesterol",mg,--,--,10,16
Amino Acids
Other
Ingredients
"NONFAT MILK, SUGAR, CREAM, CHOCOLATE MARBLE (CORN SYRUP, WATER, SUGAR, COCOA, MODIFIED CORN STARCH, COCOA PROCESSED WITH ALKALI, SALT, NONFAT MILK, CARRAGEENAN, NATURAL FLAVORS, CITRIC ACID), MILK, CORN SYRUP, CREME COOKIES (SUGAR, ENRICHED FLOUR (WHEAT FLOUR, NIACIN, REDUCED IRON, THIAMIN MONONITRATE, RIBOFLAVIN, FOLIC ACID), SOYBEAN AND PALM OIL, COCOA PROCESSED WITH ALKALI, INVERT SUGAR, CONTAINS 2% OR LESS OF DEGERMINATED YELLOW CORN FLOUR, CORNSTARCH, CHOCOLATE, SALT, LEAVENING (BAKING SODA, MONOCALCIUM PHOSPHATE), ARTIFICIAL FLAVOR, SOY LECITHIN, WHEY], CHOCOLATE LIQUOR, WHEY, COCOA PROCESSED WITH ALKALI, TAPIOCA STARCH, GUAR GUM, MONO & DIGLYCERIDES, TARA GUM, CELLULOSE GUM, POLYSORBATE 80, XANTHAN GUM, CARRAGEENAN, DEXTROSE, VITAMIN A PALMITATE." Date available: 07/14/2017 Date last updated by company: 07/14/2017
