Source: USDA Branded Food Products Database Release December 2017 Software v.3.8.6.4 2017-10-02
Report Run at: December 17, 2017 07:33 EST
"Nutrient data for: 45110416, PREMIUM ICE CREAM, UPC: 070640012695"
Food Group:  Branded Food Products Database
Common Name:

Nutrient,Unit,Data points,Std. Error,"0.5 cup = 65.0g",1Value per 100 g,
Proximates
"Energy",kcal,--,--,130,200
"Protein",g,--,--,3.00,4.62
"Total lipid (fat)",g,--,--,7.00,10.77
"Carbohydrate, by difference",g,--,--,15.00,23.08
"Fiber, total dietary",g,--,--,0.0,0.0
"Sugars, total",g,--,--,14.00,21.54
Minerals
"Calcium, Ca",mg,--,--,100,154
"Iron, Fe",mg,--,--,0.00,0.00
"Potassium, K",mg,--,--,125,192
"Sodium, Na",mg,--,--,45,69
Vitamins
"Vitamin C, total ascorbic acid",mg,--,--,0.0,0.0
"Vitamin A, IU",IU,--,--,337,519
Lipids
"Fatty acids, total saturated",g,--,--,3.998,6.150
"Fatty acids, total trans",g,--,--,0.000,0.000
"Cholesterol",mg,--,--,25,38
Amino Acids
Other
Ingredients
"MILK, SKIM MILK, CREAM, SUGAR, CORN SYRUP, CONTAINS 1% OR LESS OF VANILLA EXTRACT, ARTIFICIAL FLAVOR, CAROB BEAN GUM, GUAR GUM, CARRAGEENAN, MONO & DIGLYCERIDES, CELLULOSE GEL, CELLULOSE GUM, ANNATTO FOR COLOR." Date available: 07/14/2017 Date last updated by company: 07/14/2017
