Source: USDA Branded Food Products Database Release December 2017 Software v.3.8.6.4 2017-10-02
Report Run at: December 17, 2017 07:43 EST
"Nutrient data for: 45287751, PREMIUM ICE CREAM, UPC: 087932000148"
Food Group:  Branded Food Products Database
Common Name:

Nutrient,Unit,Data points,Std. Error,"0.5 cup = 67.0g",1Value per 100 g,
Proximates
"Energy",kcal,--,--,140,209
"Protein",g,--,--,2.00,2.99
"Total lipid (fat)",g,--,--,7.00,10.45
"Carbohydrate, by difference",g,--,--,16.00,23.88
"Fiber, total dietary",g,--,--,0.0,0.0
"Sugars, total",g,--,--,13.00,19.40
Minerals
"Calcium, Ca",mg,--,--,80,119
"Iron, Fe",mg,--,--,0.00,0.00
"Sodium, Na",mg,--,--,45,67
Vitamins
"Vitamin C, total ascorbic acid",mg,--,--,0.0,0.0
"Vitamin A, IU",IU,--,--,338,504
Lipids
"Fatty acids, total saturated",g,--,--,4.502,6.720
"Fatty acids, total trans",g,--,--,0.000,0.000
"Cholesterol",mg,--,--,30,45
Amino Acids
Other
Ingredients
"MILKFAT AND NONFAT MILK, SUGAR, CORN SYRUP, WHEY, CONTAINS LESS THAN 2% OF GUAR GUM, MONO & DIGLYCERIDES, XANTHAN GUM, POLYSORBATE 80, CELLULOSE GUM, CARRAGEENAN, NATURAL FLAVOR, ANNATTO (COLOR)." Date available: 07/14/2017 Date last updated by company: 07/14/2017
