Source: USDA Branded Food Products Database Release December 2017 Software v.3.8.6.4 2017-10-02
Report Run at: December 17, 2017 08:13 EST
"Nutrient data for: 45328761, PRENATAL SOFT-BAKED OAT BAR, UPC: 819573013139"
Food Group:  Branded Food Products Database
Common Name:

Nutrient,Unit,Data points,Std. Error,"1 BAR = 45.0g",1Value per 100 g,
Proximates
"Energy",kcal,--,--,150,333
"Protein",g,--,--,3.00,6.67
"Total lipid (fat)",g,--,--,3.00,6.67
"Carbohydrate, by difference",g,--,--,30.00,66.67
"Fiber, total dietary",g,--,--,7.0,15.6
"Sugars, total",g,--,--,11.00,24.44
Minerals
"Calcium, Ca",mg,--,--,200,444
"Iron, Fe",mg,--,--,1.28,2.84
"Sodium, Na",mg,--,--,5,11
Vitamins
"Vitamin C, total ascorbic acid",mg,--,--,0.0,0.0
"Vitamin A, IU",IU,--,--,0,0
Lipids
"Fatty acids, total saturated",g,--,--,0.000,0.000
"Fatty acids, total trans",g,--,--,0.000,0.000
"Cholesterol",mg,--,--,0,0
Amino Acids
Other
Ingredients
"ORGANIC GLUTEN FREE ROLLED OATS, ORGANIC AGAVE SYRUP, ORGANIC PRUNE PASTE, ORGANIC AGAVE INULIN, ORGANIC MILLED FLAX SEED, ORGANIC BLUEBERRIES (ORGANIC DRIED BLUEBERRIES, ORGANIC SUGAR, ORGANIC SUNFLOWER OIL), ORGANIC WHOLE GRAIN CRISPY RICE (ORGANIC WHOLE GRAIN BROWN RICE FLOUR, CALCIUM CARBONATE), VITAMIN AND MINERAL BLEND (CALCIUM CARBONATE, CHOLINE BITARTRATE), ORGANIC VEGETABLE GLYCERIN, ORGANIC BEET POWDER, ORGANIC VANILLA EXTRACT, BAKING POWDER (ORGANIC GRAPE JUICE CONCENTRATE EXTRACTS, ORGANIC CORN STARCH, SODIUM BICARBONATE (FOR LEAVENING)), DHA ALGAL OIL, NATURAL BLUEBERRY FLAVOR, MIXED TOCOPHEROLS (TO PRESERVE FRESHNESS)." Date available: 10/13/2017 Date last updated by company: 10/13/2017
