Source: USDA Branded Food Products Database Release December 2017 Software v.3.8.6.4 2017-10-02
Report Run at: December 17, 2017 08:14 EST
"Nutrient data for: 45291611, PREPARED HORSERADISH, UPC: 655257735405"
Food Group:  Branded Food Products Database
Common Name:

Nutrient,Unit,Data points,Std. Error,"1 tsp = 5.0g",1Value per 100 g,
Proximates
"Energy",kcal,--,--,5,100
"Protein",g,--,--,0.00,0.00
"Total lipid (fat)",g,--,--,0.00,0.00
"Carbohydrate, by difference",g,--,--,1.00,20.00
Minerals
"Sodium, Na",mg,--,--,10,200
Vitamins
"Vitamin C, total ascorbic acid",mg,--,--,0.0,0.0
Lipids
Amino Acids
Other
Ingredients
"HORSERADISH, DISTILLED VINEGAR, WATER, CORN STARCH, SOYBEAN OIL, SALT, ARTIFICIAL FLAVORING, SODIUM BENZOATE AND POTASSIUM SORBATE ADDED AS PRESERVATIVES, SODIUM BISULFITE AND EDTA-CALCIUM DISODIUM ADDED TO PROTECT COLOR AND FLAVOR." Date available: 07/14/2017 Date last updated by company: 07/14/2017
