Source: USDA Branded Food Products Database Release December 2017 Software v.3.8.6.4 2017-10-02
Report Run at: December 17, 2017 08:17 EST
"Nutrient data for: 45332943, PRESERVES, UPC: 041512088124"
Food Group:  Branded Food Products Database
Common Name:

Nutrient,Unit,Data points,Std. Error,"1 Tbsp = 20.0g",1Value per 100 g,
Proximates
"Energy",kcal,--,--,60,300
"Protein",g,--,--,0.00,0.00
"Total lipid (fat)",g,--,--,0.00,0.00
"Carbohydrate, by difference",g,--,--,14.00,70.00
"Sugars, total",g,--,--,10.00,50.00
Minerals
"Sodium, Na",mg,--,--,10,50
Vitamins
Lipids
"Fatty acids, total saturated",g,--,--,0.000,0.000
"Fatty acids, total trans",g,--,--,0.000,0.000
Amino Acids
Other
Ingredients
"RED RASPBERRIES, CORN SYRUP, SUGAR, PECTIN, CITRIC ACID." Date available: 10/19/2017 Date last updated by company: 10/19/2017
