Source: USDA Branded Food Products Database Release December 2017 Software v.3.8.6.4 2017-10-02
Report Run at: December 17, 2017 08:20 EST
"Nutrient data for: 45264771, PRESTIGE PREMIUM PASTA SAUCE, UPC: 021140031563"
Food Group:  Branded Food Products Database
Common Name:

Nutrient,Unit,Data points,Std. Error,"0.5 cup = 113.0g",1Value per 100 g,
Proximates
"Energy",kcal,--,--,70,62
"Protein",g,--,--,2.99,2.65
"Total lipid (fat)",g,--,--,2.00,1.77
"Carbohydrate, by difference",g,--,--,10.00,8.85
"Fiber, total dietary",g,--,--,1.0,0.9
"Sugars, total",g,--,--,2.99,2.65
Minerals
"Calcium, Ca",mg,--,--,20,18
"Iron, Fe",mg,--,--,0.38,0.34
"Sodium, Na",mg,--,--,330,292
Vitamins
"Vitamin C, total ascorbic acid",mg,--,--,1.2,1.1
"Vitamin A, IU",IU,--,--,0,0
Lipids
"Fatty acids, total saturated",g,--,--,0.994,0.880
"Fatty acids, total trans",g,--,--,0.000,0.000
"Cholesterol",mg,--,--,5,4
Amino Acids
Other
Ingredients
"WATER, MUSHROOMS, MARSALA WINE, ONIONS, FOOD STARCH-MODIFIED, ALL NATURAL BEEF STOCK (BEEF, WATER), SUGAR, NATURAL BEEF FLAVORING, CANOLA OIL, SALT, GARLIC, TARTARIC ACID, SPICES." Date available: 07/14/2017 Date last updated by company: 07/14/2017
