Source: USDA Branded Food Products Database Release December 2017 Software v.3.8.6.4 2017-10-02
Report Run at: December 17, 2017 08:18 EST
"Nutrient data for: 45042348, PRESIDENT, GOURMET SPREADABLE CHEESE, FETA, UPC: 077901003706"
Food Group:  Branded Food Products Database
Common Name:

Nutrient,Unit,Data points,Std. Error,"2.0 Tbsp = 28.0g",1Value per 100 g,
Proximates
"Energy",kcal,--,--,60,214
"Protein",g,--,--,3.00,10.71
"Total lipid (fat)",g,--,--,5.00,17.86
"Carbohydrate, by difference",g,--,--,2.00,7.14
"Fiber, total dietary",g,--,--,0.0,0.0
"Sugars, total",g,--,--,1.00,3.57
Minerals
"Calcium, Ca",mg,--,--,60,214
"Iron, Fe",mg,--,--,0.00,0.00
"Sodium, Na",mg,--,--,290,1036
Vitamins
"Vitamin C, total ascorbic acid",mg,--,--,0.0,0.0
"Vitamin A, IU",IU,--,--,357,1275
Lipids
"Fatty acids, total saturated",g,--,--,2.999,10.710
"Fatty acids, total trans",g,--,--,0.000,0.000
"Cholesterol",mg,--,--,15,54
Amino Acids
Other
Ingredients
"FETA CHEESE (PASTEURIZED MILK, CHEESE CULTURES, SALT, ENZYMES), PASTEURIZED CREAM, WATER, SKIM MILK, NATURAL FLAVOR, SODIUM POLYPHOSPHATE, SODIUM PHOSPHATE, SALT, CELLULOSE GUM AND GUAR GUM (STABILIZERS), SORBIC ACID (TO PROTECT FLAVOR)." Date available: 06/24/2017 Date last updated by company: 06/24/2017
