Source: USDA Branded Food Products Database Release December 2017 Software v.3.8.6.4 2017-10-02
Report Run at: December 17, 2017 08:21 EST
"Nutrient data for: 45264763, PRESTIGE REAL PREMIUM ICE CREAM, UPC: 021140031310"
Food Group:  Branded Food Products Database
Common Name:

Nutrient,Unit,Data points,Std. Error,"0.5 cup = 70.0g",1Value per 100 g,
Proximates
"Energy",kcal,--,--,160,229
"Protein",g,--,--,2.00,2.86
"Total lipid (fat)",g,--,--,8.00,11.43
"Carbohydrate, by difference",g,--,--,22.00,31.43
"Fiber, total dietary",g,--,--,0.0,0.0
"Sugars, total",g,--,--,16.00,22.86
Minerals
"Calcium, Ca",mg,--,--,80,114
"Iron, Fe",mg,--,--,0.00,0.00
"Sodium, Na",mg,--,--,60,86
Vitamins
"Vitamin C, total ascorbic acid",mg,--,--,0.0,0.0
"Vitamin A, IU",IU,--,--,337,482
Lipids
"Fatty acids, total saturated",g,--,--,4.501,6.430
"Fatty acids, total trans",g,--,--,0.000,0.000
"Cholesterol",mg,--,--,40,57
Amino Acids
Other
Ingredients
"MILK, CREAM, LIQUID SUGAR, SKIM MILK, BOURBON CARAMEL SWIRLS [CORN SYRUP, WATER, SWEETENED CONDENSED SKIM MILK (SUGAR, WATER, NONFAT MILK SOLIDS), BUTTER (CREAM, SALT), BOURBON, DRY MALT EXTRACT, SALT, CARRAGEENAN, SODIUM BICARBONATE], EGG NONG BASE (CORN SYRUP, EGG YOLKS, SUGAR, NUTMEG, SALT, NATURAL FLAVOR), CORN SYRUP, NATURAL FLAVOR, MONO- AND DIGLYCERIDES, GUAR GUM, CELLULOSE GUM, CARRAGEENAN, DEXTROSE." Date available: 07/14/2017 Date last updated by company: 07/14/2017
