Source: USDA Branded Food Products Database Release December 2017 Software v.3.8.6.4 2017-10-02
Report Run at: December 17, 2017 08:20 EST
"Nutrient data for: 45117454, PRESSED? BY KIND, MANGO APPLE CHIA FRUIT BARS, UPC: 602652243011"
Food Group:  Branded Food Products Database
Common Name:

Nutrient,Unit,Data points,Std. Error,"1 BAR = 35.0g",1Value per 100 g,
Proximates
"Energy",kcal,--,--,130,371
"Protein",g,--,--,1.00,2.86
"Total lipid (fat)",g,--,--,0.50,1.43
"Carbohydrate, by difference",g,--,--,31.00,88.57
"Fiber, total dietary",g,--,--,3.0,8.6
"Sugars, total",g,--,--,21.00,60.00
Minerals
"Calcium, Ca",mg,--,--,60,171
"Iron, Fe",mg,--,--,0.82,2.35
"Potassium, K",mg,--,--,135,386
"Sodium, Na",mg,--,--,70,200
Vitamins
"Vitamin C, total ascorbic acid",mg,--,--,1.4,3.9
"Vitamin A, IU",IU,--,--,457,1306
Lipids
"Fatty acids, total saturated",g,--,--,0.000,0.000
"Fatty acids, total monounsaturated",g,--,--,0.000,0.000
"Fatty acids, total polyunsaturated",g,--,--,0.000,0.000
"Fatty acids, total trans",g,--,--,0.000,0.000
"Cholesterol",mg,--,--,0,0
Amino Acids
Other
Ingredients
"MANGO, APPLE, CHIA SEEDS." Date available: 07/14/2017 Date last updated by company: 07/14/2017
