Source: USDA Branded Food Products Database Release December 2017 Software v.3.8.6.4 2017-10-02
Report Run at: December 17, 2017 08:15 EST
"Nutrient data for: 45053690, PRESERVES, UPC: 041498196165"
Food Group:  Branded Food Products Database
Common Name:

Nutrient,Unit,Data points,Std. Error,"1 Tbsp = 17.0g",1Value per 100 g,
Proximates
"Energy",kcal,--,--,10,59
"Protein",g,--,--,0.00,0.00
"Total lipid (fat)",g,--,--,0.00,0.00
"Carbohydrate, by difference",g,--,--,5.00,29.41
"Fiber, total dietary",g,--,--,0.0,0.0
"Sugars, total",g,--,--,0.00,0.00
Minerals
"Calcium, Ca",mg,--,--,0,0
"Iron, Fe",mg,--,--,0.00,0.00
"Potassium, K",mg,--,--,10,59
"Sodium, Na",mg,--,--,0,0
Vitamins
"Vitamin C, total ascorbic acid",mg,--,--,0.0,0.0
"Vitamin A, IU",IU,--,--,0,0
Lipids
"Fatty acids, total saturated",g,--,--,0.000,0.000
"Fatty acids, total trans",g,--,--,0.000,0.000
"Cholesterol",mg,--,--,0,0
Amino Acids
Other
Ingredients
"WATER**, STRAWBERRIES***, POLYDEXTROSE**, MALTODEXTRIN**, FRUIT PECTIN, CITRIC ACID, LOCUST BEAN GUM**, NATURAL FLAVOR**, DIPOTASSIUM SORBATE AND SODIUM BENZOATE (PRESERVATIVES), SUCRALOSE (SPLENDA BRAND [A NONNUTRITIVE SWEETENER])**, CALCIUM CHLORIDE**, RED 40, BLUE 1**. **INGREDIENTS NOT IN REGULAR PRESERVES. ***ADDS A TRIVIAL AMOUNT OF SUGAR." Date available: 08/11/2017 Date last updated by company: 08/11/2017
