Source: USDA Branded Food Products Database Release December 2017 Software v.3.8.6.4 2017-10-02
Report Run at: December 17, 2017 08:18 EST
"Nutrient data for: 45117552, PRESIDENT, RONDELE, GOURMET SPREADABLE CHEESE, ARTICHOKE & GARLIC, UPC: 070153292706"
Food Group:  Branded Food Products Database
Common Name:

Nutrient,Unit,Data points,Std. Error,"2.0 Tbsp = 23.0g",1Value per 100 g,
Proximates
"Energy",kcal,--,--,70,304
"Protein",g,--,--,1.00,4.35
"Total lipid (fat)",g,--,--,6.00,26.09
"Carbohydrate, by difference",g,--,--,2.00,8.70
"Fiber, total dietary",g,--,--,0.6,2.4
"Sugars, total",g,--,--,1.00,4.35
Minerals
"Calcium, Ca",mg,--,--,20,87
"Iron, Fe",mg,--,--,0.00,0.00
"Sodium, Na",mg,--,--,160,696
Vitamins
"Vitamin C, total ascorbic acid",mg,--,--,0.0,0.0
"Vitamin A, IU",IU,--,--,435,1891
Lipids
"Fatty acids, total saturated",g,--,--,4.000,17.390
"Fatty acids, total trans",g,--,--,0.000,0.000
"Cholesterol",mg,--,--,25,109
Amino Acids
Other
Ingredients
"CULTURED PASTEURIZED MILK AND CREAM, ARTICHOKES, DAIRY PRODUCT SOLIDS, SALT, GARLIC, SPICES, LOCUST BEAN AND GUAR GUMS (STABILIZERS), SORBIC ACID (TO PROTECT FLAVOR)." Date available: 06/25/2017 Date last updated by company: 06/25/2017
