Source: USDA Branded Food Products Database Release December 2017 Software v.3.8.6.4 2017-10-02
Report Run at: December 17, 2017 08:18 EST
"Nutrient data for: 45017702, PRESIDENT, LE BRIE SPREAD & DIP, UPC: 077901003850"
Food Group:  Branded Food Products Database
Common Name:

Nutrient,Unit,Data points,Std. Error,"2.0 Tbsp = 30.0g",1Value per 100 g,
Proximates
"Energy",kcal,--,--,80,267
"Protein",g,--,--,4.00,13.33
"Total lipid (fat)",g,--,--,7.00,23.33
"Carbohydrate, by difference",g,--,--,0.00,0.00
"Fiber, total dietary",g,--,--,0.0,0.0
"Sugars, total",g,--,--,0.00,0.00
Minerals
"Calcium, Ca",mg,--,--,80,267
"Iron, Fe",mg,--,--,0.61,2.03
"Sodium, Na",mg,--,--,200,667
Vitamins
"Vitamin C, total ascorbic acid",mg,--,--,0.0,0.0
"Vitamin A, IU",IU,--,--,676,2255
Lipids
"Fatty acids, total saturated",g,--,--,4.500,15.000
"Fatty acids, total trans",g,--,--,0.000,0.000
"Cholesterol",mg,--,--,25,83
Amino Acids
Other
Ingredients
"PASTEURIZED COW'S MILK SOFT-RIPENED CHEESE (MILK, CHEESE CULTURES, SALT, ENZYMES), SKIM MILK, BUTTER, EMULSIFYING SALT, MILK PROTEIN, PRESERVATIVE, NATURAL COLORING" Date available: 06/25/2017 Date last updated by company: 06/25/2017
