Source: USDA Branded Food Products Database Release December 2017 Software v.3.8.6.4 2017-10-02
Report Run at: December 17, 2017 08:22 EST
"Nutrient data for: 45212621, PRETZEL, CHEESE, FRUIT & VEGGIE SNACKERS, UPC: 826766257850"
Food Group:  Branded Food Products Database
Common Name:

Nutrient,Unit,Data points,Std. Error,"1 CONTAINER = 135.0g",1Value per 100 g,
Proximates
"Energy",kcal,--,--,220,163
"Protein",g,--,--,9.00,6.67
"Total lipid (fat)",g,--,--,9.00,6.67
"Carbohydrate, by difference",g,--,--,26.00,19.26
"Fiber, total dietary",g,--,--,2.0,1.5
"Sugars, total",g,--,--,11.00,8.15
Minerals
"Calcium, Ca",mg,--,--,200,148
"Iron, Fe",mg,--,--,0.27,0.20
"Sodium, Na",mg,--,--,460,341
Vitamins
"Vitamin C, total ascorbic acid",mg,--,--,0.4,0.3
"Vitamin A, IU",IU,--,--,1852,1372
Lipids
"Fatty acids, total saturated",g,--,--,4.995,3.700
"Fatty acids, total trans",g,--,--,0.000,0.000
"Cholesterol",mg,--,--,30,22
Amino Acids
Other
Ingredients
"GRAPES, CARROTS, CHEDDAR CHEESE (PASTEURIZED MILK, CHEESE CULTURES, SALT, ENZYMES, ANNATTO [VEGETABLE COLOR], POTATO STARCH, CORN STARCH AND POWDERED CELLULOSE ADDED TO PREVENT CAKING, NATAMYCIN [A NATURAL MOLD INHIBITOR], WAFFLE PRETZELS (UNBLEACHED ENRICHED WHEAT FLOUR [FLOUR, NIACIN, REDUCED IRON, THIAMINE MONONITRATE-B1, RIBOFLAVIN-B2, FOLIC ACID], MALT, SALT, SOYBEAN OIL AND YEAST)." Date available: 07/14/2017 Date last updated by company: 07/14/2017
