Source: USDA Branded Food Products Database Release December 2017 Software v.3.8.6.4 2017-10-02
Report Run at: December 17, 2017 08:23 EST
"Nutrient data for: 45273827, PRETZEL CRISPS, UPC: 049508008231"
Food Group:  Branded Food Products Database
Common Name:

Nutrient,Unit,Data points,Std. Error,"4.0 CRACKERS) | (ABOUT = 28.0g",1Value per 100 g,
Proximates
"Energy",kcal,--,--,120,429
"Protein",g,--,--,1.00,3.57
"Total lipid (fat)",g,--,--,6.00,21.43
"Carbohydrate, by difference",g,--,--,20.00,71.43
"Fiber, total dietary",g,--,--,1.0,3.6
"Sugars, total",g,--,--,11.00,39.29
Minerals
"Calcium, Ca",mg,--,--,0,0
"Iron, Fe",mg,--,--,2.57,9.19
"Sodium, Na",mg,--,--,95,339
Vitamins
"Vitamin C, total ascorbic acid",mg,--,--,0.0,0.0
"Vitamin A, IU",IU,--,--,0,0
Lipids
"Fatty acids, total saturated",g,--,--,2.999,10.710
"Fatty acids, total trans",g,--,--,0.000,0.000
"Cholesterol",mg,--,--,0,0
Amino Acids
Other
Ingredients
"COATING (REAL DARK CHOCOLATE [SUGAR, CHOCOLATE LIQUOR (PROCESSED WITH ALKALI), COCOA BUTTER, MILK FAT, SOY LECITHIN, (AN EMULSIFIER), NATURAL VANILLA FLAVOR]. PRETZEL CRISPS (ENRICHED WHEAT FLOUR [FLOUR, NIACIN, REDUCED IRON, THIAMIN MONONITRATE, RIBOFLAVIN, FOLIC ACID], SUGAR, SALT, MALT SYRUP [TAPIOCA SYRUP, MALT EXTRACT], SODA). TOPPING (SUGAR, CORN SYRUP, NATURAL COLORS, NATURAL PEPPERMINT OIL)." Date available: 07/14/2017 Date last updated by company: 07/14/2017
