Source: USDA Branded Food Products Database Release December 2017 Software v.3.8.6.4 2017-10-02
Report Run at: December 17, 2017 08:30 EST
"Nutrient data for: 45146057, PRETZEL, UPC: 036746137014"
Food Group:  Branded Food Products Database
Common Name:

Nutrient,Unit,Data points,Std. Error,"6.0 ONZ = 170.0g",1Value per 100 g,
Proximates
"Energy",kcal,--,--,427,251
"Protein",g,--,--,14.01,8.24
"Total lipid (fat)",g,--,--,6.00,3.53
"Carbohydrate, by difference",g,--,--,78.00,45.88
"Fiber, total dietary",g,--,--,0.0,0.0
"Sugars, total",g,--,--,0.00,0.00
Minerals
"Calcium, Ca",mg,--,--,20,12
"Iron, Fe",mg,--,--,0.53,0.31
"Sodium, Na",mg,--,--,675,397
Vitamins
"Vitamin C, total ascorbic acid",mg,--,--,0.0,0.0
"Vitamin A, IU",IU,--,--,29,17
Lipids
"Fatty acids, total saturated",g,--,--,1.292,0.760
"Fatty acids, total trans",g,--,--,0.000,0.000
"Cholesterol",mg,--,--,0,0
Amino Acids
Other
Ingredients
"WHEAT FLOUR, UNBLEACHED, WATER, SOYBEAN OIL, PALM OIL, YEAST, SALT, ENZYME." Date available: 07/14/2017 Date last updated by company: 07/14/2017
