Source: USDA Branded Food Products Database Release December 2017 Software v.3.8.6.4 2017-10-02
Report Run at: December 17, 2017 08:25 EST
"Nutrient data for: 45193525, PRETZEL PIECES, UPC: 011150223911"
Food Group:  Branded Food Products Database
Common Name:

Nutrient,Unit,Data points,Std. Error,"0.333 CUP) | (ABOUT = 28.0g",1Value per 100 g,
Proximates
"Energy",kcal,--,--,130,464
"Protein",g,--,--,2.00,7.14
"Total lipid (fat)",g,--,--,5.00,17.86
"Carbohydrate, by difference",g,--,--,19.00,67.86
"Fiber, total dietary",g,--,--,1.0,3.6
"Sugars, total",g,--,--,0.00,0.00
Minerals
"Calcium, Ca",mg,--,--,0,0
"Iron, Fe",mg,--,--,4.82,17.22
"Potassium, K",mg,--,--,30,107
"Sodium, Na",mg,--,--,300,1071
Vitamins
"Vitamin C, total ascorbic acid",mg,--,--,0.0,0.0
"Vitamin A, IU",IU,--,--,0,0
Lipids
"Fatty acids, total saturated",g,--,--,2.500,8.930
"Fatty acids, total monounsaturated",g,--,--,1.999,7.140
"Fatty acids, total polyunsaturated",g,--,--,0.000,0.000
"Fatty acids, total trans",g,--,--,0.000,0.000
"Cholesterol",mg,--,--,0,0
Amino Acids
Other
Ingredients
"ENRICHED WHEAT FLOUR (WHEAT FLOUR, NIACIN, REDUCED IRON, THIAMIN MONONITRATE, RIBOFLAVIN, FOLIC ACID), PALM OIL, LESS THAN 2% OF: RED HOT CAYENNE PEPPER SAUCE POWDER (RED HOT CAYENNE PEPPER SAUCE [AGED CAYENNE RED PEPPERS, VINEGAR, SALT, GARLIC], MALTODEXTRIN), SALT, VINEGAR POWDER (MALTODEXTRIN, MODIFIED CORN STARCH, VINEGAR), MALTODEXTRIN, SODIUM DIACETATE, GARLIC POWDER, ONION POWDER, YEAST EXTRACT, SPICE, LEAVENING (YEAST, SODIUM BICARBONATE AND/OR AMMONIUM BICARBONATE), EXTRACTIVES OF PAPRIKA DISODIUM INOSINATE AND DISODIUM GUANYLATE, OLEORESIN OF TURMERIC, NATURAL FLAVOR, CARAMEL COLOR." Date available: 07/14/2017 Date last updated by company: 07/14/2017
