Source: USDA Branded Food Products Database Release December 2017 Software v.3.8.6.4 2017-10-02
Report Run at: December 17, 2017 08:28 EST
"Nutrient data for: 45261703, PRETZEL STICKS, UPC: 077975086704"
Food Group:  Branded Food Products Database
Common Name:

Nutrient,Unit,Data points,Std. Error,"9.0 PRETZELS | ABOUT = 28.0g",1Value per 100 g,
Proximates
"Energy",kcal,--,--,120,429
"Protein",g,--,--,4.00,14.29
"Total lipid (fat)",g,--,--,2.50,8.93
"Carbohydrate, by difference",g,--,--,20.00,71.43
"Fiber, total dietary",g,--,--,3.0,10.7
"Sugars, total",g,--,--,2.00,7.14
Minerals
"Calcium, Ca",mg,--,--,0,0
"Iron, Fe",mg,--,--,1.93,6.88
"Potassium, K",mg,--,--,90,321
"Sodium, Na",mg,--,--,100,357
Vitamins
"Vitamin C, total ascorbic acid",mg,--,--,0.0,0.0
"Vitamin A, IU",IU,--,--,0,0
Lipids
"Fatty acids, total saturated",g,--,--,0.000,0.000
"Fatty acids, total monounsaturated",g,--,--,0.501,1.790
"Fatty acids, total polyunsaturated",g,--,--,1.501,5.360
"Fatty acids, total trans",g,--,--,0.000,0.000
"Cholesterol",mg,--,--,0,0
Amino Acids
Other
Ingredients
"ORGANIC WHOLE WHEAT FLOUR, WATER, ORGANIC BLUE AGAVE SYRUP, ORGANIC WHOLE OAT FLOUR, ORGANIC MALT, ORGANIC FLAX SEEDS, ORGANIC EXPELLER PRESSED HIGH-OLEIC SUNFLOWER OIL, ORGANIC WHOLE BUCK WHEAT FLOUR, ORGANIC WHOLE BROWN RICE FLOUR, ORGANIC WHOLE BARLEY FLOUR, SALT, ORGANIC WHOLE RYE FLOUR, ORGANIC CORN FLOUR, YEAST, ORGANIC SESAME SEEDS, ORGANIC QUINOA, ORGANIC MILLET, ORGANIC NATURAL FLAVOR, SODIUM BICARBONATE." Date available: 07/14/2017 Date last updated by company: 07/14/2017
