Source: USDA Branded Food Products Database Release December 2017 Software v.3.8.6.4 2017-10-02
Report Run at: December 17, 2017 08:24 EST
"Nutrient data for: 45198487, PRETZEL KAISER ROLLS, UPC: 077890396971"
Food Group:  Branded Food Products Database
Common Name:

Nutrient,Unit,Data points,Std. Error,"1 ROLL = 70.0g",1Value per 100 g,
Proximates
"Energy",kcal,--,--,200,286
"Protein",g,--,--,7.00,10.00
"Total lipid (fat)",g,--,--,3.50,5.00
"Carbohydrate, by difference",g,--,--,34.00,48.57
"Fiber, total dietary",g,--,--,2.0,2.9
"Sugars, total",g,--,--,3.00,4.29
Minerals
"Calcium, Ca",mg,--,--,20,29
"Iron, Fe",mg,--,--,1.93,2.75
"Sodium, Na",mg,--,--,580,829
Vitamins
"Vitamin C, total ascorbic acid",mg,--,--,0.0,0.0
"Vitamin A, IU",IU,--,--,0,0
Lipids
"Fatty acids, total saturated",g,--,--,0.497,0.710
"Fatty acids, total trans",g,--,--,0.000,0.000
"Cholesterol",mg,--,--,25,36
Amino Acids
Other
Ingredients
"WHEAT FLOUR, WATER, CANOLA OIL, YEAST, SALT, WHEAT GLUTEN, MALTED FLOUR (WHEAT), SODIUM HYDROXIDE." Date available: 07/14/2017 Date last updated by company: 07/14/2017
