Source: USDA Branded Food Products Database Release December 2017 Software v.3.8.6.4 2017-10-02
Report Run at: December 17, 2017 08:24 EST
"Nutrient data for: 45258593, PRETZEL MELT SANDWICH, UPC: 858312002171"
Food Group:  Branded Food Products Database
Common Name:

Nutrient,Unit,Data points,Std. Error,"164.0 GRM = 164.0g",1Value per 100 g,
Proximates
"Energy",kcal,--,--,400,244
"Protein",g,--,--,21.99,13.41
"Total lipid (fat)",g,--,--,14.01,8.54
"Carbohydrate, by difference",g,--,--,48.00,29.27
"Fiber, total dietary",g,--,--,1.0,0.6
"Sugars, total",g,--,--,7.00,4.27
Minerals
"Calcium, Ca",mg,--,--,180,110
"Iron, Fe",mg,--,--,0.75,0.46
"Sodium, Na",mg,--,--,700,427
Vitamins
"Vitamin C, total ascorbic acid",mg,--,--,2.5,1.5
"Vitamin A, IU",IU,--,--,259,158
Lipids
"Fatty acids, total saturated",g,--,--,8.003,4.880
"Fatty acids, total trans",g,--,--,0.000,0.000
"Cholesterol",mg,--,--,48,29
Amino Acids
Other
Ingredients
"WHEAT FLOUR (WHEAT FLOUR, NIACIN, REDUCED IRON, THIAMINE MONONITRATE, RIBOFLAVIN, FOLIC ACID, [MAY CONTAIN VITAMIN C {ASCORBIC ACID ADDED AS A DOUGH CONDITIONER}, ENZYME {ADDED FOR IMPROVED BAKING}, MALTED BARELY FLOUR]), EGG PATTIES (EGG WHITES, WATER, MODIFIED FOOD STARCH, NATURAL FLAVORS, GUAR GUM, XANTHAN GUM, COLOR [INCLUDES BETA CAROTENE]), CANADIAN STYLE BACON (WATER ADDED MADE WITH PORK SIRLOIN HIPS, CURED WITH: WATER, SALT, SUGAR, SODIUM LACTATE, SODIUM PHOSPHATE, SODIUM DIACETATE, SODIUM ASCORBATE, SODIUM NITRITE), MILD CHEDDAR CHEESE (PASTEURIZED MILK, CHEESE CULTURES, SALT, ENZYMES, ANNATTO {COLORING}), WATER, UNSALTED BUTTER (PASTEURIZED CREAM, LACTIC ACID, STARTER DISTILLATE), NONFAT DRY MILK, GRATED PARMESAN CHEESE (PASTEURIZED PART-SKIM COW'S MILK, CULTURE, SALT, STARCH AND POWDERED CELLULOSE TO PREVENT CAKING), YEAST, SUGAR, SALT, DOUGH CONDITIONER (WHEAT FLOUR, MALTED BARELY FLOUR, ASCORBIC ACID, SOYBEAN OIL, ENZYMES), BUTTERY CHEDDAR HS CHEESE FLAVOR (DEHYDRATED BLEND OF WHEY, PARTIALLY HYDROGENATED SOYBEAN OIL, MALTODEXTRIN, SALT, WHEY PROTEIN CONCENTRATE, CHEESE {CHEDDAR AND SEMISOFT {PASTEURIZED MILK, CHEESE CULTURE, SALT, ENZYMES}, CONTAINS LESS THAN 2% OF MONOSODIUM GLUTAMATE, SODIUM PHOSPHATE, LACTIC ACID, CITRIC ACID, BUTTER, YELLOW 5, AUTOLYZED YEAST EXTRACT, YELLOW 6, SPICE, ARTIFICIAL FLAVOR, TRICALCIUM PHOSPHATE)." Date available: 07/14/2017 Date last updated by company: 07/14/2017
