Source: USDA Branded Food Products Database Release December 2017 Software v.3.8.6.4 2017-10-02
Report Run at: December 17, 2017 08:22 EST
"Nutrient data for: 45028171, PRETZEL CRACKERS, UPC: 049508006060"
Food Group:  Branded Food Products Database
Common Name:

Nutrient,Unit,Data points,Std. Error,"10.0 CRACKERS = 28.0g",1Value per 100 g,
Proximates
"Energy",kcal,--,--,110,393
"Protein",g,--,--,2.00,7.14
"Total lipid (fat)",g,--,--,1.50,5.36
"Carbohydrate, by difference",g,--,--,22.00,78.57
"Fiber, total dietary",g,--,--,1.0,3.6
"Sugars, total",g,--,--,2.00,7.14
Minerals
"Calcium, Ca",mg,--,--,20,71
"Iron, Fe",mg,--,--,2.57,9.19
"Sodium, Na",mg,--,--,420,1500
Vitamins
"Vitamin C, total ascorbic acid",mg,--,--,0.0,0.0
"Vitamin A, IU",IU,--,--,179,638
Lipids
"Fatty acids, total saturated",g,--,--,0.000,0.000
"Fatty acids, total monounsaturated",g,--,--,0.000,0.000
"Fatty acids, total polyunsaturated",g,--,--,0.501,1.790
"Fatty acids, total trans",g,--,--,0.000,0.000
"Cholesterol",mg,--,--,0,0
Amino Acids
Other
Ingredients
"ENRICHED WHEAT FLOUR (FLOUR, NIACIN, REDUCED IRON, THIAMIN MONONITRATE, RIBOFLAVIN, FOLIC ACID), SEASONING (DEHYDRATED GARLIC, SUGAR, MALTODEXTRIN, SALT, SPICES, NATURAL FLAVORS, EXTRACT OF PAPRIKA, VINEGAR, CORN SYRUP SOLIDS, CITRIC ACID, LACTIC ACID, ORGANIC HONEY, YEAST EXTRACT, LIME JUICE SOLIDS, AND LESS THAN 2% SILICON DIOXIDE AND SUNFLOWER OIL [AS PROCESSING AIDS]), CANOLA OIL, CANE SUGAR, SALT, MALT SYRUP (TAPIOCA SYRUP, MALT EXTRACT), SODA." Date available: 07/14/2017 Date last updated by company: 07/14/2017
