Source: USDA Branded Food Products Database Release December 2017 Software v.3.8.6.4 2017-10-02
Report Run at: December 17, 2017 08:31 EST
"Nutrient data for: 45182875, PRICE CHOPPER, DELUXE MAC & CHEESE DINNER, UPC: 041735083753"
Food Group:  Branded Food Products Database
Common Name:

Nutrient,Unit,Data points,Std. Error,"0.25 BOX) MAKES ABOUT 1 CUP PREPARED | (ABOUT = 98.0g",1Value per 100 g,
Proximates
"Energy",kcal,--,--,320,327
"Protein",g,--,--,11.00,11.22
"Total lipid (fat)",g,--,--,9.00,9.18
"Carbohydrate, by difference",g,--,--,48.00,48.98
"Fiber, total dietary",g,--,--,2.0,2.0
"Sugars, total",g,--,--,4.00,4.08
Minerals
"Calcium, Ca",mg,--,--,150,153
"Iron, Fe",mg,--,--,4.60,4.69
"Potassium, K",mg,--,--,220,224
"Sodium, Na",mg,--,--,760,776
Vitamins
"Vitamin C, total ascorbic acid",mg,--,--,0.0,0.0
"Vitamin A, IU",IU,--,--,0,0
Lipids
"Fatty acids, total saturated",g,--,--,2.999,3.060
"Fatty acids, total monounsaturated",g,--,--,1.999,2.040
"Fatty acids, total polyunsaturated",g,--,--,3.499,3.570
"Fatty acids, total trans",g,--,--,0.000,0.000
"Cholesterol",mg,--,--,10,10
Amino Acids
Other
Ingredients
"ENRICHED MACARONI PRODUCT (WHEAT FLOUR, NIACIN, FERROUS SULFATE, THIAMIN MONONITRATE, RIBOFLAVIN, FOLIC ACID), CHEESE SAUCE MIX (WATER, CHEESE [CHEDDAR, MONTEREY JACK, ASIAGO AND PARMESAN CHEESES (PASTEURIZED MILK, CHEESE CULTURE, SALT, ENZYMES), SOYBEAN OIL, WHEY, NATURAL FLAVORS, SODIUM PHOSPHATE, SALT, CONTAINS 2% OR LESS OF MALTODEXTRIN, COLORS ADDED [PAPRIKA EXTRACT, BETA CAROTENE], SODIUM ALGINATE, CORN SYRUP SOLIDS, LACTIC ACID, MONO- AND DIGLYCERIDES)." Date available: 07/14/2017 Date last updated by company: 07/14/2017
