Source: USDA Branded Food Products Database Release December 2017 Software v.3.8.6.4 2017-10-02
Report Run at: December 17, 2017 08:36 EST
"Nutrient data for: 45177373, PRIDE GOURMET BAKERS, SOUTHERN SEVEN CAKE, UPC: 083142017525"
Food Group:  Branded Food Products Database
Common Name:

Nutrient,Unit,Data points,Std. Error,"0.053 CAKE = 56.0g",1Value per 100 g,
Proximates
"Energy",kcal,--,--,170,304
"Protein",g,--,--,2.00,3.57
"Total lipid (fat)",g,--,--,6.00,10.71
"Carbohydrate, by difference",g,--,--,27.00,48.21
"Fiber, total dietary",g,--,--,0.0,0.0
"Sugars, total",g,--,--,17.00,30.36
Minerals
"Calcium, Ca",mg,--,--,100,179
"Iron, Fe",mg,--,--,1.03,1.84
"Sodium, Na",mg,--,--,250,446
Vitamins
"Vitamin C, total ascorbic acid",mg,--,--,0.0,0.0
"Vitamin A, IU",IU,--,--,0,0
Lipids
"Fatty acids, total saturated",g,--,--,1.002,1.790
"Fatty acids, total trans",g,--,--,0.000,0.000
"Cholesterol",mg,--,--,40,71
Amino Acids
Other
Ingredients
"ENRICHED WHEAT FLOUR BLEACHED (FLOUR, NIACIN, REDUCED IRON, THIAMINE MONONITRATE, RIBOFLAVIN, FOLIC ACID), EGGS, WATER, SOYBEAN OIL, MODIFIED FOOD STARCH, DRY WHEY, CITRIC ACID, PROPYLENE GLYCOL MONO & DIESTERS WITH BHT & CITRIC ACID (PRESERVATIVES), LEAVENING (BAKING SODA, SODIUM ACID PYROPHOSPHATE, SODIUM ALUMINUM PHOSPHATE), VITAL WHEAT GLUTEN, SALT, CONTAINS 2% OR LESS OF CORN OIL, CALCIUM ACETATE, SOY FLOUR, CALCIUM SILICATE, MONO & DIGLYCERIDES, CORN STARCH, SORBITAN MONOSTEARATE, SODIUM STEARYL LACTYLATE, NONFAT MILK SOLIDS, DEXTROSE, CALCIUM PROPIONATE, SODIUM PROPIONATE, SODIUM CITRATE, & SODIUM BENZOATE (PRESERVATIVES), GUAR GUM, XANTHAN GUM, POLYSORBATE 60, SOY LECITHIN, NATURAL & ARTIFICIAL FLAVOR, WHEAT STARCH, CALCIUM CARBONATE, AGAR, BETA CAROTENE (COLOR), ARTIFICIAL COLOR (YELLOW 5 & 6)." Date available: 08/10/2017 Date last updated by company: 08/10/2017
