Source: USDA Branded Food Products Database Release December 2017 Software v.3.8.6.4 2017-10-02
Report Run at: December 17, 2017 08:37 EST
"Nutrient data for: 45161695, PRIMARY COLORS, VALENTINE JELLY KABOB, UPC: 845120070133"
Food Group:  Branded Food Products Database
Common Name:

Nutrient,Unit,Data points,Std. Error,"1 KABOB = 60.0g",1Value per 100 g,
Proximates
"Energy",kcal,--,--,190,317
"Protein",g,--,--,0.00,0.00
"Total lipid (fat)",g,--,--,0.00,0.00
"Carbohydrate, by difference",g,--,--,48.00,80.00
"Fiber, total dietary",g,--,--,1.0,1.7
"Sugars, total",g,--,--,42.00,70.00
Minerals
"Sodium, Na",mg,--,--,120,200
Vitamins
Lipids
"Fatty acids, total saturated",g,--,--,0.000,0.000
"Fatty acids, total trans",g,--,--,0.000,0.000
"Cholesterol",mg,--,--,0,0
Amino Acids
Other
Ingredients
"SUGAR, GLUCOSE SYRUP, PECTIN, GELATIN, WATER, CITRIC ACID, SODIUM CITRATE, ARTIFICIAL FLAVORS, ARTIFICIAL COLORS (FD&C RED 40, FD&C YELLOW 5, FD&C BLUE 1), TITANIUM DIOXIDE." Date available: 07/14/2017 Date last updated by company: 07/14/2017
