Source: USDA Branded Food Products Database Release December 2017 Software v.3.8.6.4 2017-10-02
Report Run at: December 17, 2017 08:38 EST
"Nutrient data for: 45139588, PRIMO TAGLIO, MESQUITE BBQ SEASONED CHICKEN BREAST, UPC: 042222129312"
Food Group:  Branded Food Products Database
Common Name:

Nutrient,Unit,Data points,Std. Error,"2.0 ONZ = 56.0g",1Value per 100 g,
Proximates
"Energy",kcal,--,--,60,107
"Protein",g,--,--,11.00,19.64
"Total lipid (fat)",g,--,--,1.00,1.79
"Carbohydrate, by difference",g,--,--,1.00,1.79
"Fiber, total dietary",g,--,--,0.0,0.0
"Sugars, total",g,--,--,1.00,1.79
Minerals
"Calcium, Ca",mg,--,--,20,36
"Iron, Fe",mg,--,--,0.35,0.63
"Sodium, Na",mg,--,--,470,839
Vitamins
"Vitamin C, total ascorbic acid",mg,--,--,1.2,2.1
"Vitamin A, IU",IU,--,--,0,0
Lipids
"Fatty acids, total saturated",g,--,--,0.000,0.000
"Fatty acids, total trans",g,--,--,0.000,0.000
"Cholesterol",mg,--,--,30,54
Amino Acids
Other
Ingredients
"CHICKEN BREAST MEAT, WATER, HONEY, CONTAINS LESS THAN 2% SALT, SUGAR, SODIUM PHOSPHATE, SODIUM ACETATE, SODIUM DIACETATE, NATURAL SMOKE FLAVOR. COATED WITH: SPICES, SALT, DEHYDRATED ONION, DEXTROSE, PARSLEY, DEHYDRATED GARLIC, NATURAL FLAVOR, NATURAL MESQUITE FLAVOR." Date available: 07/14/2017 Date last updated by company: 07/14/2017
