Source: USDA Branded Food Products Database Release December 2017 Software v.3.8.6.4 2017-10-02
Report Run at: December 17, 2017 08:48 EST
"Nutrient data for: 45103974, PRIVATE SELECTION, ITALIAN GNOCCHI WITH POTATO, UPC: 011110849489"
Food Group:  Branded Food Products Database
Common Name:

Nutrient,Unit,Data points,Std. Error,"0.75 cup = 120.0g",1Value per 100 g,
Proximates
"Energy",kcal,--,--,190,158
"Protein",g,--,--,4.00,3.33
"Total lipid (fat)",g,--,--,0.00,0.00
"Carbohydrate, by difference",g,--,--,40.00,33.33
"Fiber, total dietary",g,--,--,1.0,0.8
"Sugars, total",g,--,--,0.50,0.42
Minerals
"Calcium, Ca",mg,--,--,20,17
"Iron, Fe",mg,--,--,1.68,1.40
"Sodium, Na",mg,--,--,260,217
Vitamins
"Vitamin C, total ascorbic acid",mg,--,--,0.0,0.0
"Vitamin A, IU",IU,--,--,0,0
Lipids
"Fatty acids, total saturated",g,--,--,0.000,0.000
"Fatty acids, total trans",g,--,--,0.000,0.000
"Cholesterol",mg,--,--,0,0
Amino Acids
Other
Ingredients
"WATER. DEHYDRATED POTATO FLAKES PREPARE (POTATOES, MONO-AND DIGLYCERIDES OF FATTY ACIDS [EMULSIFIER]. NATURAL FLAVOR), WHEAT FLOUR, POTATO STARCH, RICE FLOUR, SALT, SPICES, LACTIC ACID, POTASSIUM PA I R SORBATE (PRESERVATIVE)." Date available: 06/25/2017 Date last updated by company: 06/25/2017
