Source: USDA Branded Food Products Database Release December 2017 Software v.3.8.6.4 2017-10-02
Report Run at: December 17, 2017 08:49 EST
"Nutrient data for: 45171140, PRIVATE SELECTION, MULTIGRAIN BATARD, UPC: 011110872876"
Food Group:  Branded Food Products Database
Common Name:

Nutrient,Unit,Data points,Std. Error,"0.166 LOAF = 57.0g",1Value per 100 g,
Proximates
"Energy",kcal,--,--,160,281
"Protein",g,--,--,5.00,8.77
"Total lipid (fat)",g,--,--,2.50,4.39
"Carbohydrate, by difference",g,--,--,29.00,50.88
"Fiber, total dietary",g,--,--,3.0,5.3
"Sugars, total",g,--,--,2.00,3.51
Minerals
"Calcium, Ca",mg,--,--,20,35
"Iron, Fe",mg,--,--,1.58,2.77
"Sodium, Na",mg,--,--,270,474
Vitamins
"Vitamin C, total ascorbic acid",mg,--,--,0.0,0.0
"Vitamin A, IU",IU,--,--,0,0
Lipids
"Fatty acids, total saturated",g,--,--,0.000,0.000
"Fatty acids, total trans",g,--,--,0.000,0.000
"Cholesterol",mg,--,--,0,0
Amino Acids
Other
Ingredients
"ENRICHED FLOUR (WHEAT FLOUR, MALTED BARLEY FLOUR, NIACIN, REDUCED IRON, THIAMINE MONONITRATE, RIBOFLAVIN, FOLIC ACID), WATER, WHOLE WHEAT FLOUR, WHEAT, HONEY, CONTAINS 2% OR LESS OF: FLAX SEEDS, SUNFLOWER SEEDS, RYE, SESAME SEEDS, OATS, SALT, MOLASSES, BARLEY, CORN, POPPY SEEDS, TRITICALE, MILLET, RICE BRAN, WHEAT GERM, YEAST." Date available: 07/14/2017 Date last updated by company: 07/14/2017
