Source: USDA Branded Food Products Database Release December 2017 Software v.3.8.6.4 2017-10-02
Report Run at: December 17, 2017 08:49 EST
"Nutrient data for: 45114832, PRIVATE SELECTION, NEW YORK STYLE CHEESECAKE, WHITE CHOCOLATE FLAVORED RASPBERRY, UPC: 011110606907"
Food Group:  Branded Food Products Database
Common Name:

Nutrient,Unit,Data points,Std. Error,"1 SLICE = 113.0g",1Value per 100 g,
Proximates
"Energy",kcal,--,--,400,354
"Protein",g,--,--,6.00,5.31
"Total lipid (fat)",g,--,--,23.00,20.35
"Carbohydrate, by difference",g,--,--,43.00,38.05
"Fiber, total dietary",g,--,--,1.0,0.9
"Sugars, total",g,--,--,30.00,26.55
Minerals
"Calcium, Ca",mg,--,--,60,53
"Iron, Fe",mg,--,--,0.79,0.70
"Sodium, Na",mg,--,--,310,274
Vitamins
"Vitamin C, total ascorbic acid",mg,--,--,0.0,0.0
"Vitamin A, IU",IU,--,--,553,489
Lipids
"Fatty acids, total saturated",g,--,--,14.001,12.390
"Fatty acids, total trans",g,--,--,0.497,0.440
"Cholesterol",mg,--,--,60,53
Amino Acids
Other
Ingredients
"BOTH CHEESECAKE FLAVORS: CREAM CHEESE (MILK, CREAM, CHEESE CULTURE, SALT, CAROB BEAN GUM), SUGAR, SKIM MILK, ENRICHED BLEACHED WHEAT FLOUR (FLOUR, MALTED BARLEY FLOUR, NIACIN, REDUCED IRON, THIAMINE MONONITRATE, RIBOFLAVIN, FOLIC ACID), WATER, EGGS, CORN SYRUP, CONTAINS LESS THAN 2% OF: HYDROGENATED COCONUT OIL, PALM OIL, MODIFIED CORNSTARCH, WHEY, SOYBEAN OIL, HONEY, GELATIN, NATURAL AND ARTIFICIAL FLAVOR, SALT, SOY LECITHIN, BAKING SODA, POTASSIUM SORBATE (PRESERVATIVE), CITRIC ACID, LOCUST BEAN GUM, XANTHAN GUM, SOY PROTEIN ISOLATE, MONO- AND DIGLYCERIDES, MODIFIED TAPIOCA STARCH, SODIUM CASEINATE, SODIUM CITRATE, DISODIUM PHOSPHATE, NATURAL FLAVOR, WHITE CHOCOLATE FLAVORED RASPBERRY ALSO CONTAINS: BUTTER (CREAM, SALT), WHITE CONFECTIONARY DROPS (SUGAR, COCOA BUTTER, WHOLE MILK, SOY LECITHIN, NATURAL FLAVOR), GRAHAM FLOUR, RASPBERRIES, PALM KERNEL OIL, BROWN SUGAR, COCONUT OIL, CARAMEL COLOR, CARROT AND BLUEBERRY JUICES (COLOR), MILK SOLIDS, SODIUM BENZOATE (PRESERVATIVE). CHOCOLATE TUXEDO ALSO CONTAINS: MARGARINE (SOYBEAN OIL, PALM OIL, WATER, SALT, MONO- AND DIGLYCERIDES, NONFAT MILK, SOY LECITHIN, SODIUM BENZOATE [PRESERVATIVE], ARTIFICIAL FLAVOR, VITAMIN A PALMITATE, BETA CAROTENE [COLOR]), COCOA, COCOA PROCESSED WITH ALKALI, CORNSTARCH, CHOCOLATE LIQUOR, CARRAGEENAN." Date available: 06/25/2017 Date last updated by company: 06/25/2017
