Source: USDA Branded Food Products Database Release December 2017 Software v.3.8.6.4 2017-10-02
Report Run at: December 17, 2017 08:47 EST
"Nutrient data for: 45123545, PRIVATE SELECTION, ICE CREAM, BLACK RASPBERRY DARK CHOCOLATE CHUNK, UPC: 011110004680"
Food Group:  Branded Food Products Database
Common Name:

Nutrient,Unit,Data points,Std. Error,"0.5 cup = 82.0g",1Value per 100 g,
Proximates
"Energy",kcal,--,--,210,256
"Protein",g,--,--,4.00,4.88
"Total lipid (fat)",g,--,--,12.00,14.63
"Carbohydrate, by difference",g,--,--,23.00,28.05
"Fiber, total dietary",g,--,--,0.0,0.0
"Sugars, total",g,--,--,19.00,23.17
Minerals
"Calcium, Ca",mg,--,--,80,98
"Iron, Fe",mg,--,--,0.40,0.49
"Sodium, Na",mg,--,--,40,49
Vitamins
"Vitamin C, total ascorbic acid",mg,--,--,1.3,1.6
"Vitamin A, IU",IU,--,--,338,412
Lipids
"Fatty acids, total saturated",g,--,--,7.003,8.540
"Fatty acids, total trans",g,--,--,0.000,0.000
"Cholesterol",mg,--,--,40,49
Amino Acids
Other
Ingredients
"ICE CREAM - MILK, CREAM, SUGAR, CORN SYRUP, RASPBERRY PUREE, RASPBERRY JUICE CONCENTRATE, WHEY PROTEIN CONCENTRATE, PROPYLENE GLYCOL MONOESTERS, GUAR GUM, CELLULOSE GEL, MONO- AND DIGLYCERIDES, LOCUST BEAN GUM, CELLULOSE GUM, RED 40, BLUE 1, NATURAL FLAVOR, CITRIC ACID, CARRAGEENAN,. CHOCOLATE CHUNK - SUGAR, SOYBEAN OIL, COCONUT OIL, COCOA PROCESSED WITH ALKALI, COCOA, NATURAL FLAVOR, SOY LECITHIN." Date available: 07/14/2017 Date last updated by company: 07/14/2017
