Source: USDA Branded Food Products Database Release December 2017 Software v.3.8.6.4 2017-10-02
Report Run at: December 17, 2017 08:45 EST
"Nutrient data for: 45193350, PRIVATE SELECTION, AUSSIE STYLE YOGURT, RASPBERRY, UPC: 011110878885"
Food Group:  Branded Food Products Database
Common Name:

Nutrient,Unit,Data points,Std. Error,"1 CONTAINER = 226.0g",1Value per 100 g,
Proximates
"Energy",kcal,--,--,280,124
"Protein",g,--,--,13.99,6.19
"Total lipid (fat)",g,--,--,11.01,4.87
"Carbohydrate, by difference",g,--,--,33.99,15.04
"Fiber, total dietary",g,--,--,0.9,0.4
"Sugars, total",g,--,--,32.00,14.16
Minerals
"Calcium, Ca",mg,--,--,400,177
"Iron, Fe",mg,--,--,0.27,0.12
"Phosphorus, P",mg,--,--,226,100
"Potassium, K",mg,--,--,289,128
"Sodium, Na",mg,--,--,99,44
Vitamins
"Vitamin C, total ascorbic acid",mg,--,--,1.8,0.8
"Riboflavin",mg,--,--,0.255,0.113
"Pantothenic acid",mg,--,--,0.599,0.265
"Vitamin A, IU",IU,--,--,301,133
"Vitamin D",IU,--,--,16,7
Lipids
"Fatty acids, total saturated",g,--,--,7.006,3.100
"Fatty acids, total trans",g,--,--,0.000,0.000
"Cholesterol",mg,--,--,45,20
Amino Acids
Other
Ingredients
"CULTURED PASTEURIZED GRADE A MILK, CANE SUGAR, RASPBERRIES, WATER, CREAM, MILK PROTEIN ISOLATE, ORGANIC HONEY, PECTIN, GELATIN, CALCIUM CHLORIDE, CAROB BEAN GUM, FRUIT AND VEGETABLE JUICE (COLOR), LEMON JUICE CONCENTRATE, NATURAL FLAVOR, AGAR." Date available: 07/14/2017 Date last updated by company: 07/14/2017
