Source: USDA Branded Food Products Database Release December 2017 Software v.3.8.6.4 2017-10-02
Report Run at: December 17, 2017 08:46 EST
"Nutrient data for: 45171364, PRIVATE SELECTION, CRUMBLEND GOAT CHEESE, CRANBERRIES & CINNAMON, UPC: 011110837721"
Food Group:  Branded Food Products Database
Common Name:

Nutrient,Unit,Data points,Std. Error,"0.25 cup = 28.0g",1Value per 100 g,
Proximates
"Energy",kcal,--,--,80,286
"Protein",g,--,--,3.00,10.71
"Total lipid (fat)",g,--,--,5.00,17.86
"Carbohydrate, by difference",g,--,--,3.00,10.71
"Fiber, total dietary",g,--,--,0.0,0.0
"Sugars, total",g,--,--,3.00,10.71
Minerals
"Calcium, Ca",mg,--,--,0,0
"Iron, Fe",mg,--,--,0.00,0.00
"Sodium, Na",mg,--,--,85,304
Vitamins
"Vitamin C, total ascorbic acid",mg,--,--,0.0,0.0
"Vitamin A, IU",IU,--,--,179,638
Lipids
"Fatty acids, total saturated",g,--,--,2.999,10.710
"Fatty acids, total trans",g,--,--,0.000,0.000
"Cholesterol",mg,--,--,15,54
Amino Acids
Other
Ingredients
"PASTEURIZED GOAT MILK, SEA SALT, CHEESE CULTURES, DEHYDRATED CRANBERRIES (CRANBERRIES, SUGAR, SUNFLOWER OIL), GROUND CINNAMON, ENZYMES, POWDERED CELLULOSE (TO PREVENT CAKING)." Date available: 07/14/2017 Date last updated by company: 07/14/2017
