Source: USDA Branded Food Products Database Release December 2017 Software v.3.8.6.4 2017-10-02
Report Run at: December 17, 2017 08:54 EST
"Nutrient data for: 45193702, PROBIOTIC, PROTEIN KEFIR, UPC: 017077161169"
Food Group:  Branded Food Products Database
Common Name:

Nutrient,Unit,Data points,Std. Error,"1 cup = 240.0g",1Value per 100 g,
Proximates
"Energy",kcal,--,--,161,67
"Protein",g,--,--,19.99,8.33
"Total lipid (fat)",g,--,--,0.00,0.00
"Carbohydrate, by difference",g,--,--,19.99,8.33
"Fiber, total dietary",g,--,--,0.0,0.0
"Sugars, total",g,--,--,19.99,8.33
Minerals
"Calcium, Ca",mg,--,--,300,125
"Iron, Fe",mg,--,--,0.00,0.00
"Sodium, Na",mg,--,--,125,52
Vitamins
"Vitamin C, total ascorbic acid",mg,--,--,0.0,0.0
"Vitamin A, IU",IU,--,--,355,148
"Vitamin D",IU,--,--,101,42
Lipids
"Fatty acids, total saturated",g,--,--,0.000,0.000
"Fatty acids, total trans",g,--,--,0.000,0.000
"Cholesterol",mg,--,--,5,2
Amino Acids
Other
Ingredients
"PASTEURIZED CULTURED NONFAT MILK, CANE SUGAR, WHEY PROTEIN CONCENTRATE, PECTIN, NATURAL CARAMEL FLAVOR, NATURAL FLAVORS, VITAMIN A PALMITATE, VITAMIN D3." Date available: 07/14/2017 Date last updated by company: 07/14/2017
