Source: USDA Branded Food Products Database Release December 2017 Software v.3.8.6.4 2017-10-02
Report Run at: December 17, 2017 08:54 EST
"Nutrient data for: 45314601, PROBIOTIC + PREBIOTIC ENHANCED BEVERAGE WITH ELECTROLYTES, UPC: 895070002135"
Food Group:  Branded Food Products Database
Common Name:

Nutrient,Unit,Data points,Std. Error,"8.0 OZA = 240.0g",1Value per 100 g,
Proximates
"Energy",kcal,--,--,29,12
"Protein",g,--,--,0.00,0.00
"Total lipid (fat)",g,--,--,0.00,0.00
"Carbohydrate, by difference",g,--,--,7.99,3.33
"Fiber, total dietary",g,--,--,1.9,0.8
"Sugars, total",g,--,--,6.00,2.50
Minerals
"Magnesium, Mg",mg,--,--,22,9
"Potassium, K",mg,--,--,108,45
"Sodium, Na",mg,--,--,0,0
Vitamins
Lipids
Amino Acids
Other
Ingredients
"FILTERED WATER, ORGANIC CANE SUGAR, LEMON JUICE CONCENTRATE, NATURAL FLAVORS (WITH CUCUMBER AND CANTALOUPE EXTRACTS), MONK FRUIT EXTRACT, SILICA." Date available: 07/14/2017 Date last updated by company: 07/14/2017
