Source: USDA Branded Food Products Database Release December 2017 Software v.3.8.6.4 2017-10-02
Report Run at: December 17, 2017 08:53 EST
"Nutrient data for: 45200411, PROBIOTIC DRINKABLE YOGURT, UPC: 855353004041"
Food Group:  Branded Food Products Database
Common Name:

Nutrient,Unit,Data points,Std. Error,"1 BOTTLE = 207.0g",1Value per 100 g,
Proximates
"Energy",kcal,--,--,89,43
"Protein",g,--,--,7.00,3.38
"Total lipid (fat)",g,--,--,0.00,0.00
"Carbohydrate, by difference",g,--,--,26.99,13.04
"Fiber, total dietary",g,--,--,8.1,3.9
"Sugars, total",g,--,--,10.00,4.83
Minerals
"Calcium, Ca",mg,--,--,250,121
"Iron, Fe",mg,--,--,0.00,0.00
"Sodium, Na",mg,--,--,110,53
Vitamins
"Vitamin C, total ascorbic acid",mg,--,--,0.0,0.0
"Vitamin A, IU",IU,--,--,0,0
"Vitamin D",IU,--,--,99,48
Lipids
"Fatty acids, total saturated",g,--,--,0.000,0.000
"Fatty acids, total trans",g,--,--,0.000,0.000
"Cholesterol",mg,--,--,4,2
Amino Acids
Other
Ingredients
"YOGURT BASE (SKIM MILK, PREBIOTIC FIBER, ERYTHRITOL, MILK PROTEIN CONCENTRATE, TAPIOCA STARCH, CARRAGEENAN, LOCUST BEAN GUM), BLACK CHERRY BASE (WATER, CHERRY PUREE, CORN STARCH, NATURAL FLAVORS, RED CABBAGE FOR COLOR), STEVIA LEAF EXTRACT, VITAMIN D. CONTAINS LIVE AND ACTIVE CULTURES: L. ACIDOPHILUS, L. BULGARICUS, L. PARACASEI, S. THERMOPHILUS." Date available: 11/25/2016 Date last updated by company: 11/25/2016
