Source: USDA Branded Food Products Database Release December 2017 Software v.3.8.6.4 2017-10-02
Report Run at: December 17, 2017 08:57 EST
"Nutrient data for: 45310849, PROG BREAD CRUMBS GRLC HERB, UNPREPARED, GTIN: 00041196891232"
Food Group:  Branded Food Products Database
Common Name:

Nutrient,Unit,Data points,Std. Error,"0.25 cup (28g) = 28.0g",1Value per 100 g,
Proximates
"Energy",kcal,--,--,100,357
"Protein",g,--,--,4.00,14.29
"Total lipid (fat)",g,--,--,1.00,3.57
"Carbohydrate, by difference",g,--,--,19.00,67.86
"Fiber, total dietary",g,--,--,1.0,3.6
"Sugars, total",g,--,--,2.00,7.14
Minerals
"Calcium, Ca",mg,--,--,60,214
"Iron, Fe",mg,--,--,1.08,3.86
"Sodium, Na",mg,--,--,480,1714
Vitamins
"Vitamin C, total ascorbic acid",mg,--,--,0.0,0.0
"Vitamin A, IU",IU,--,--,0,0
Lipids
"Fatty acids, total saturated",g,--,--,0.000,0.000
"Fatty acids, total trans",g,--,--,0.000,0.000
"Cholesterol",mg,--,--,0,0
Amino Acids
Other
Ingredients
"BREAD CRUMBS (ENRICHED FLOUR [FLOUR, MALTED BARLEY, NIACIN, FERROUS SULFATE, THIAMIN MONONITRATE (VITAMIN B1), RIBOFLAVIN (VITAMIN B2), FOLIC ACID], HIGH FRUCTOSE CORN SYRUP, CORN SYRUP, VEGETABLE OIL [SOYBEAN AND/OR COTTONSEED AND/OR CORN AND/OR CANOLA OILS], WATER, SALT. CONTAINS 2% OR LESS OF: YEAST, HONEY, MOLASSES, SUGAR, WHEAT GLUTEN, WHEY, SOY FLOUR, WHOLE WHEAT FLOUR, RYE FLOUR, CORN FLOUR, OAT BRAN, CORN MEAL, RICE FLOUR, POTATO FLOUR, BUTTER, DOUGH CONDITIONERS [MONO- AND DIGLYCERIDES, SODIUM AND/OR CALCIUM STEAROYL LACTYLATE, SOY LECITHIN, CALCIUM CARBONATE], YEAST NUTRIENTS [AMMONIUM SULFATE, CALCIUM SULFATE, MONOCALCIUM PHOSPHATE], VINEGAR, NONFAT MILK, BUTTERMILK, LACTIC ACID, CALCIUM PROPIONATE [PRESERVATIVE], POTASSIUM SORBATE [PRESERVATIVE], SESAME SEEDS, SUNFLOWER SEEDS, EGGS), OAT FLOUR, SALT, GARLIC POWDER, SPICES, DRIED PARSLEY, ONION POWDER, NATURAL FLAVOR." Date available: 10/17/2017 Date last updated by company: 05/29/2017
