Source: USDA Branded Food Products Database Release December 2017 Software v.3.8.6.4 2017-10-02
Report Run at: December 17, 2017 09:00 EST
"Nutrient data for: 45310593, PROGRESSO LIGHT SOUP NEW ENGLAND CLAM CHWDR, UNPREPARED, GTIN: 00041196452815"
Food Group:  Branded Food Products Database
Common Name:

Nutrient,Unit,Data points,Std. Error,"1 cup (251g) = 251.0g",1Value per 100 g,
Proximates
"Energy",kcal,--,--,100,40
"Protein",g,--,--,3.01,1.20
"Total lipid (fat)",g,--,--,2.51,1.00
"Carbohydrate, by difference",g,--,--,15.01,5.98
"Fiber, total dietary",g,--,--,2.0,0.8
"Sugars, total",g,--,--,1.00,0.40
Minerals
"Calcium, Ca",mg,--,--,0,0
"Iron, Fe",mg,--,--,0.35,0.14
"Potassium, K",mg,--,--,600,239
"Sodium, Na",mg,--,--,690,275
Vitamins
"Vitamin C, total ascorbic acid",mg,--,--,0.0,0.0
"Vitamin A, IU",IU,--,--,0,0
Lipids
"Fatty acids, total saturated",g,--,--,0.502,0.200
"Fatty acids, total monounsaturated",g,--,--,0.000,0.000
"Fatty acids, total polyunsaturated",g,--,--,1.004,0.400
"Fatty acids, total trans",g,--,--,0.000,0.000
"Cholesterol",mg,--,--,5,2
Amino Acids
Other
Ingredients
"CLAM BROTH, DRIED POTATOES, CLAMS, CELERY, MODIFIED FOOD STARCH, WATER. CONTAINS LESS THAN 2% OF: ONIONS, ARTIFICIAL COLOR, SOYBEAN OIL, NATURAL FLAVOR, SALT, POTASSIUM CHLORIDE, SOY PROTEIN CONCENTRATE, BUTTER, SODIUM PHOSPHATE, WHEY PROTEIN CONCENTRATE, DRIED PARSLEY, YEAST EXTRACT, SPICE." Date available: 10/10/2017 Date last updated by company: 10/06/2017
