Source: USDA Branded Food Products Database Release December 2017 Software v.3.8.6.4 2017-10-02
Report Run at: December 17, 2017 09:02 EST
"Nutrient data for: 45310957, PROGRESSO VGTBL CLSCS SOUP TOMATO ROTINI, UNPREPARED, GTIN: 00041196910841"
Food Group:  Branded Food Products Database
Common Name:

Nutrient,Unit,Data points,Std. Error,"1 cup (243g) = 243.0g",1Value per 100 g,
Proximates
"Energy",kcal,--,--,129,53
"Protein",g,--,--,4.01,1.65
"Total lipid (fat)",g,--,--,0.51,0.21
"Carbohydrate, by difference",g,--,--,27.99,11.52
"Fiber, total dietary",g,--,--,3.9,1.6
"Sugars, total",g,--,--,18.01,7.41
Minerals
"Calcium, Ca",mg,--,--,19,8
"Iron, Fe",mg,--,--,1.07,0.44
"Sodium, Na",mg,--,--,690,284
Vitamins
"Vitamin C, total ascorbic acid",mg,--,--,2.4,1.0
"Vitamin A, IU",IU,--,--,751,309
Lipids
"Fatty acids, total saturated",g,--,--,0.000,0.000
"Fatty acids, total monounsaturated",g,--,--,0.000,0.000
"Fatty acids, total polyunsaturated",g,--,--,0.000,0.000
"Fatty acids, total trans",g,--,--,0.000,0.000
"Cholesterol",mg,--,--,0,0
Amino Acids
Other
Ingredients
"TOMATO PUREE (WATER, TOMATO PASTE), WATER, TOMATOES, ROTINI PASTA (SEMOLINA WHEAT, WHEAT FLOUR, EGG WHITE*), SUGAR. CONTAINS LESS THAN 2% OF: CORN SYRUP SOLIDS, SALT, WHEAT FLOUR BLEACHED, MODIFIED FOOD STARCH, POTASSIUM CHLORIDE, OLIVE OIL, PARSLEY*, MALTODEXTRIN, GARLIC POWDER, SPICE, CITRIC ACID, CALCIUM CHLORIDE, ASCORBIC ACID, ONION POWDER, EXTRACTIVES OF TURMERIC, NATURAL FLAVOR.*DRIED" Date available: 10/17/2017 Date last updated by company: 10/17/2017
