Source: USDA Branded Food Products Database Release December 2017 Software v.3.8.6.4 2017-10-02
Report Run at: December 17, 2017 08:58 EST
"Nutrient data for: 45310943, PROGRESSO ARTICHOKES HEARTS, UNPREPARED, GTIN: 00041196890129"
Food Group:  Branded Food Products Database
Common Name:

Nutrient,Unit,Data points,Std. Error,"3.0 pieces with liquid (130g) = 130.0g",1Value per 100 g,
Proximates
"Energy",kcal,--,--,30,23
"Protein",g,--,--,1.00,0.77
"Total lipid (fat)",g,--,--,0.00,0.00
"Carbohydrate, by difference",g,--,--,5.00,3.85
"Fiber, total dietary",g,--,--,1.9,1.5
"Sugars, total",g,--,--,1.00,0.77
Minerals
"Calcium, Ca",mg,--,--,0,0
"Iron, Fe",mg,--,--,0.00,0.00
"Sodium, Na",mg,--,--,550,423
Vitamins
"Vitamin C, total ascorbic acid",mg,--,--,2.3,1.8
"Vitamin A, IU",IU,--,--,0,0
Lipids
"Fatty acids, total saturated",g,--,--,0.000,0.000
"Fatty acids, total trans",g,--,--,0.000,0.000
"Cholesterol",mg,--,--,0,0
Amino Acids
Other
Ingredients
"ARTICHOKES, WATER, SALT, CITRIC ACID, ASCORBIC ACID, CALCIUM CHLORIDE." Date available: 10/19/2017 Date last updated by company: 10/17/2017
