Source: USDA Branded Food Products Database Release December 2017 Software v.3.8.6.4 2017-10-02
Report Run at: December 17, 2017 09:05 EST
"Nutrient data for: 45261036, PROSCIUTTO PANINO, UPC: 017869805578"
Food Group:  Branded Food Products Database
Common Name:

Nutrient,Unit,Data points,Std. Error,"4.0 PIECES = 85.0g",1Value per 100 g,
Proximates
"Energy",kcal,--,--,250,294
"Protein",g,--,--,18.00,21.18
"Total lipid (fat)",g,--,--,19.00,22.35
"Carbohydrate, by difference",g,--,--,2.00,2.35
"Fiber, total dietary",g,--,--,0.0,0.0
"Sugars, total",g,--,--,0.00,0.00
Minerals
"Calcium, Ca",mg,--,--,250,294
"Iron, Fe",mg,--,--,0.00,0.00
"Sodium, Na",mg,--,--,340,400
Vitamins
"Vitamin C, total ascorbic acid",mg,--,--,0.0,0.0
"Vitamin A, IU",IU,--,--,324,381
Lipids
"Fatty acids, total saturated",g,--,--,9.996,11.760
"Fatty acids, total trans",g,--,--,0.000,0.000
"Cholesterol",mg,--,--,35,41
Amino Acids
Other
Ingredients
"MOZZARELLA CHEESE INGREDIENTS: PASTEURIZED MILK, CHEESE CULTURES, SALT, ENZYMES. PROSCIUTTO INGREDIENTS: PORK, SEA SALT." Date available: 07/14/2017 Date last updated by company: 07/14/2017
