Source: USDA Branded Food Products Database Release December 2017 Software v.3.8.6.4 2017-10-02
Report Run at: December 17, 2017 09:05 EST
"Nutrient data for: 45291768, PROSCIUTTO & MOZZARELLA ROLL, UPC: 041130380686"
Food Group:  Branded Food Products Database
Common Name:

Nutrient,Unit,Data points,Std. Error,"3.0 ONZ = 85.0g",1Value per 100 g,
Proximates
"Energy",kcal,--,--,220,259
"Protein",g,--,--,20.00,23.53
"Total lipid (fat)",g,--,--,16.00,18.82
"Carbohydrate, by difference",g,--,--,2.00,2.35
"Fiber, total dietary",g,--,--,0.0,0.0
"Sugars, total",g,--,--,1.00,1.18
Minerals
"Calcium, Ca",mg,--,--,400,471
"Iron, Fe",mg,--,--,0.23,0.27
"Sodium, Na",mg,--,--,670,788
Vitamins
"Vitamin C, total ascorbic acid",mg,--,--,0.0,0.0
"Vitamin A, IU",IU,--,--,324,381
Lipids
"Fatty acids, total saturated",g,--,--,9.996,11.760
"Fatty acids, total trans",g,--,--,0.000,0.000
"Cholesterol",mg,--,--,60,71
Amino Acids
Other
Ingredients
"MOZZARELLA CHEESE (PASTEURIZED MILK, CHEESE CULTURE, SALT, VINEGAR, ENZYMES), PROSCIUTTO (PORK, SALT)." Date available: 09/07/2017 Date last updated by company: 09/07/2017
