Source: USDA Branded Food Products Database Release December 2017 Software v.3.8.6.4 2017-10-02
Report Run at: December 17, 2017 09:10 EST
"Nutrient data for: 45258141, PROTEIN BAR, UPC: 810390027095"
Food Group:  Branded Food Products Database
Common Name:

Nutrient,Unit,Data points,Std. Error,"1 BAR = 63.0g",1Value per 100 g,
Proximates
"Energy",kcal,--,--,220,349
"Protein",g,--,--,20.00,31.75
"Total lipid (fat)",g,--,--,8.00,12.70
"Carbohydrate, by difference",g,--,--,26.00,41.27
"Fiber, total dietary",g,--,--,13.0,20.6
"Sugars, total",g,--,--,5.00,7.94
Minerals
"Calcium, Ca",mg,--,--,150,238
"Iron, Fe",mg,--,--,0.91,1.45
"Potassium, K",mg,--,--,180,286
"Sodium, Na",mg,--,--,240,381
Vitamins
"Vitamin C, total ascorbic acid",mg,--,--,0.0,0.0
"Vitamin A, IU",IU,--,--,0,0
Lipids
"Fatty acids, total saturated",g,--,--,1.499,2.380
"Fatty acids, total trans",g,--,--,0.000,0.000
"Cholesterol",mg,--,--,5,8
Amino Acids
Other
Ingredients
"DAIRY PROTEIN BLEND [WHEY PROTEIN ISOLATE, MILK PROTEIN, WHEY PROTEIN COCOA CRISP (WHEY PROTEIN ISOLATE, WHEY PROTEIN CONCENTRATE, TAPIOCA STARCH, COCOA (PROCESSED WITH ALKALI), CALCIUM CARBONATE, SUNFLOWER LECITHIN)], ISOMALTO- OILGOSACCHARIDES, GROUND ALMONDS, SOY PROTEIN ISOLATE, VEGETABLE GLYCERIN, WATER, CHICORY ROOT FIBER, UNSWEETENED CHOCOLATE, SUGAR, NATURAL FLAVOR, HIGH OLEIC SUNFLOWER OIL (WITH CITRIC ACID TO PROTECT FLAVOR), ERYTHRITOL, SALT, SUNFLOWER LECITHIN, DEXTROSE, SOY LECITHIN, STEVIA." Date available: 07/14/2017 Date last updated by company: 07/14/2017
