Source: USDA Branded Food Products Database Release December 2017 Software v.3.8.6.4 2017-10-02
Report Run at: December 17, 2017 09:21 EST
"Nutrient data for: 45316774, PROTEIN PLUS* BAR, UPC: 097421490961"
Food Group:  Branded Food Products Database
Common Name:

Nutrient,Unit,Data points,Std. Error,"1 BAR = 65.0g",1Value per 100 g,
Proximates
"Energy",kcal,--,--,270,415
"Protein",g,--,--,20.00,30.77
"Total lipid (fat)",g,--,--,8.00,12.31
"Carbohydrate, by difference",g,--,--,30.00,46.15
"Fiber, total dietary",g,--,--,2.0,3.1
"Sugars, total",g,--,--,20.00,30.77
Minerals
"Calcium, Ca",mg,--,--,80,123
"Iron, Fe",mg,--,--,0.88,1.36
"Potassium, K",mg,--,--,200,308
"Sodium, Na",mg,--,--,135,208
Vitamins
"Vitamin C, total ascorbic acid",mg,--,--,0.0,0.0
"Vitamin A, IU",IU,--,--,0,0
Lipids
"Fatty acids, total saturated",g,--,--,3.998,6.150
"Fatty acids, total trans",g,--,--,0.000,0.000
"Cholesterol",mg,--,--,0,0
Amino Acids
Other
Ingredients
"TRISOURCE PROTEIN BLEND (SOY PROTEIN ISOLATE, WHEY PROTEIN ISOLATE, CALCIUM CASEINATE), CHOCOLATE FLAVORED COATING (SUGAR, FRACTIONATED PALM KERNEL OIL, ALKALIZED COCOA, SOY LECITHIN, NONFAT MILK, NATURAL FLAVOR), GLUCOSE SYRUP, CANE INVERT SYRUP, FRUCTOSE SYRUP, SOY CRISPS (SOY PROTEIN ISOLATE, TAPIOCA STARCH, SALT), SOY NUTS, WHOLE OATS, HIGH OLEIC CANOLA OIL, ALKALIZED COCOA, VEGETABLE GLYCERIN, AND LESS THAN 2% OF: SOY LECITHIN, GROUND ALMONDS, NONFAT MILK, NATURAL FLAVOR." Date available: 07/14/2017 Date last updated by company: 07/14/2017
