Source: USDA Branded Food Products Database Release December 2017 Software v.3.8.6.4 2017-10-02
Report Run at: December 17, 2017 09:12 EST
"Nutrient data for: 45291902, PROTEIN BAR, UPC: 660726525098"
Food Group:  Branded Food Products Database
Common Name:

Nutrient,Unit,Data points,Std. Error,"1 BAR = 50.0g",1Value per 100 g,
Proximates
"Energy",kcal,--,--,190,380
"Protein",g,--,--,15.00,30.00
"Total lipid (fat)",g,--,--,6.00,12.00
"Carbohydrate, by difference",g,--,--,22.00,44.00
"Fiber, total dietary",g,--,--,5.0,10.0
"Sugars, total",g,--,--,4.00,8.00
Minerals
"Calcium, Ca",mg,--,--,100,200
"Iron, Fe",mg,--,--,1.15,2.30
"Potassium, K",mg,--,--,105,210
"Sodium, Na",mg,--,--,190,380
Vitamins
"Vitamin C, total ascorbic acid",mg,--,--,0.0,0.0
"Vitamin A, IU",IU,--,--,0,0
Lipids
"Fatty acids, total saturated",g,--,--,3.500,7.000
"Fatty acids, total trans",g,--,--,0.000,0.000
"Cholesterol",mg,--,--,5,10
Amino Acids
Other
Ingredients
"MILK DERIVED PROTEIN BLEND (MILK PROTEIN ISOLATE, WHEY PROTEIN ISOLATE, WHEY PROTEIN CONCENTRATE, CALCIUM CASEINATE, SODIUM CASEINATE), SOY PROTEIN ISOLATE, GLYCERIN, MALTITOL SYRUP, PEANUT BUTTER (PEANUTS), MALTITOL, SOLUBLE CORN FIBER, PARTIALLY DEFATTED PEANUT FLOUR, FRACTIONATED PALM KERNEL OIL, SUGAR, OLIGOFRUCTOSE, WATER, INVERT EVAPORATED CANE SUGAR, SOLUBLE VEGETABLE FIBER, NATURAL FLAVORS, TAPIOCA STARCH, EGG WHITE, MOLASSES, ENZYME-MODIFIED SOY PROTEIN, SALT, PECTIN, SUNFLOWER OIL WITH TOCOPHEROLS (TO PROTECT FLAVOR), COCOA, SOY LECITHIN, CALCIUM PHOSPHATE, CALCIUM CARBONATE, NONFAT MILK, CORNSTARCH, TARTARIC ACID, SUCRALOSE, SUNFLOWER LECITHIN, CARAMEL COLORING, CARRAGEENAN, STEVIA EXTRACT." Date available: 07/14/2017 Date last updated by company: 07/14/2017
