Source: USDA Branded Food Products Database Release December 2017 Software v.3.8.6.4 2017-10-02
Report Run at: December 17, 2017 09:16 EST
"Nutrient data for: 45330449, PROTEIN CHIPS, UPC: 859204006024"
Food Group:  Branded Food Products Database
Common Name:

Nutrient,Unit,Data points,Std. Error,"1 ONZ = 28.0g",1Value per 100 g,
Proximates
"Energy",kcal,--,--,120,429
"Protein",g,--,--,15.00,53.57
"Total lipid (fat)",g,--,--,4.00,14.29
"Carbohydrate, by difference",g,--,--,7.00,25.00
"Fiber, total dietary",g,--,--,3.0,10.7
"Sugars, total",g,--,--,1.00,3.57
Minerals
"Calcium, Ca",mg,--,--,30,107
"Iron, Fe",mg,--,--,9.00,32.14
"Potassium, K",mg,--,--,215,768
"Sodium, Na",mg,--,--,285,1018
Vitamins
"Vitamin C, total ascorbic acid",mg,--,--,0.0,0.0
"Vitamin A, IU",IU,--,--,90,320
Lipids
"Fatty acids, total saturated",g,--,--,0.000,0.000
"Fatty acids, total trans",g,--,--,0.000,0.000
"Cholesterol",mg,--,--,0,0
Amino Acids
Other
Ingredients
"PEA PROTEIN ISOLATE, POTATO FLAKES, SUNFLOWER OIL, GUAR GUM, SEASONING (SUGAR, SEA SALT, ONION POWDER, GARLIC POWDER, RICE FLOUR, TOMATO POWDER, PAPRIKA, LIME JUICE, SPICES, CITRIC ACID, CHIPOTLE PEPPER POWDER, NATURAL EXTRACTIVES OF PAPRIKA, JALAPENO PEPPER POWDER, LIME OIL)" Date available: 10/13/2017 Date last updated by company: 10/13/2017
