Source: USDA Branded Food Products Database Release December 2017 Software v.3.8.6.4 2017-10-02
Report Run at: December 17, 2017 09:20 EST
"Nutrient data for: 45231809, PROTEIN PANCAKE MIX, UPC: 814577020169"
Food Group:  Branded Food Products Database
Common Name:

Nutrient,Unit,Data points,Std. Error,"0.5 cup = 70.0g",1Value per 100 g,
Proximates
"Energy",kcal,--,--,270,386
"Protein",g,--,--,27.00,38.57
"Total lipid (fat)",g,--,--,7.00,10.00
"Carbohydrate, by difference",g,--,--,24.00,34.29
"Fiber, total dietary",g,--,--,4.0,5.7
"Sugars, total",g,--,--,8.00,11.43
Minerals
"Calcium, Ca",mg,--,--,250,357
"Iron, Fe",mg,--,--,1.54,2.20
"Sodium, Na",mg,--,--,636,909
Vitamins
"Vitamin C, total ascorbic acid",mg,--,--,0.0,0.0
"Vitamin A, IU",IU,--,--,0,0
Lipids
"Fatty acids, total saturated",g,--,--,1.001,1.430
"Fatty acids, total trans",g,--,--,0.000,0.000
"Cholesterol",mg,--,--,10,14
Amino Acids
Other
Ingredients
"WHEY PROTEIN ISOLATE, GLUTEN FREE OAT FLOUR, BUTTERMILK POWDER, FLAX SEED POWDER, NATURAL FLAVORS, BAKING POWDER, SALT, BAKING SODA, XANTHAN GUM, STEVIA." Date available: 07/14/2017 Date last updated by company: 07/14/2017
