Source: USDA Branded Food Products Database Release December 2017 Software v.3.8.6.4 2017-10-02
Report Run at: December 17, 2017 09:12 EST
"Nutrient data for: 45288332, PROTEIN BAR, UPC: 749826656786"
Food Group:  Branded Food Products Database
Common Name:

Nutrient,Unit,Data points,Std. Error,"1 BAR = 60.0g",1Value per 100 g,
Proximates
"Energy",kcal,--,--,200,333
"Protein",g,--,--,20.00,33.33
"Total lipid (fat)",g,--,--,8.00,13.33
"Carbohydrate, by difference",g,--,--,23.00,38.33
"Fiber, total dietary",g,--,--,16.0,26.7
"Sugars, total",g,--,--,2.00,3.33
Minerals
"Calcium, Ca",mg,--,--,100,167
"Iron, Fe",mg,--,--,0.48,0.80
"Potassium, K",mg,--,--,180,300
"Sodium, Na",mg,--,--,130,217
Vitamins
"Vitamin C, total ascorbic acid",mg,--,--,0.0,0.0
"Vitamin A, IU",IU,--,--,0,0
Lipids
"Fatty acids, total saturated",g,--,--,2.502,4.170
"Fatty acids, total trans",g,--,--,0.000,0.000
"Cholesterol",mg,--,--,10,17
Amino Acids
Other
Ingredients
"PROTEIN BLEND (MILK PROTEIN ISOLATE, WHEY PROTEIN ISOLATE), ISOMALTO-OLIGOSACCHARIDES, GROUND ALMONDS, WATER, SOLUBLE CORN FIBER, CHICORY ROOT FIBER, CHOCOLATE FLAVORED CHUNKS (WHEY PROTEIN CONCENTRATE, ERYTHRITOL, COCOA BUTTER, CHOCOLATE LIQUOR, SUNFLOWER LECITHIN, STEVIA LEAF EXTRACT), WHEY PROTEIN COCOA CRISPS (WHEY PROTEIN ISOLATE, WHEY PROTEIN CONCENTRATE, TAPIOCA STARCH, COCOA [PROCESSED WITH ALKALI], CALCIUM CARBONATE, SUNFLOWER LECITHIN), COCOA (PROCESSED WITH ALKALI), GLYCERIN, ERYTHRITOL, FRACTIONATED PALM OIL, NATURAL FLAVORS (CARAMEL COLOR), UNSWEETENED CHOCOLATE, SEA SALT, STEVIA LEAF EXTRACT." Date available: 10/13/2017 Date last updated by company: 10/13/2017
