Source: USDA Branded Food Products Database Release December 2017 Software v.3.8.6.4 2017-10-02
Report Run at: December 17, 2017 09:09 EST
"Nutrient data for: 45231371, PROTEIN BAR, UPC: 660726525401"
Food Group:  Branded Food Products Database
Common Name:

Nutrient,Unit,Data points,Std. Error,"1 BAR = 49.0g",1Value per 100 g,
Proximates
"Energy",kcal,--,--,180,367
"Protein",g,--,--,15.00,30.61
"Total lipid (fat)",g,--,--,6.00,12.24
"Carbohydrate, by difference",g,--,--,21.00,42.86
"Fiber, total dietary",g,--,--,5.0,10.2
"Sugars, total",g,--,--,9.00,18.37
Minerals
"Calcium, Ca",mg,--,--,80,163
"Iron, Fe",mg,--,--,1.18,2.40
"Potassium, K",mg,--,--,85,173
"Sodium, Na",mg,--,--,190,388
Vitamins
"Vitamin C, total ascorbic acid",mg,--,--,0.0,0.0
"Vitamin A, IU",IU,--,--,0,0
Lipids
"Fatty acids, total saturated",g,--,--,2.999,6.120
"Fatty acids, total trans",g,--,--,0.000,0.000
"Cholesterol",mg,--,--,5,10
Amino Acids
Other
Ingredients
"MILK DERIVED PROTEIN BLEND (WHEY PROTEIN ISOLATE, MILK PROTEIN ISOLATE, WHEY PROTEIN CONCENTRATE), SOY PROTEIN ISOLATE, MALTITOL SYRUP, SUGAR, SOLUBLE CORN FIBER, SOLUBLE VEGETABLE FIBER, INVERT EVAPORATED CANE SUGAR, FRACTIONATED PALM KERNEL OIL, SUNFLOWER OIL WITH TOCOPHEROLS (TO PROTECT FLAVOR), COCOA, WATER, GLYCERIN, NATURAL FLAVORS, NONFAT MILK, UNSWEETENED CHOCOLATE, SOY LECITHIN, TAPIOCA STARCH, ALKALIZED COCOA POWDER, SALT, CALCIUM CARBONATE, COCOA BUTTER, SUNFLOWER LECITHIN, SPIRULINA POWDER (ADDED FOR COLOR), STEVIA EXTRACT." Date available: 07/14/2017 Date last updated by company: 07/14/2017
