Source: USDA Branded Food Products Database Release December 2017 Software v.3.8.6.4 2017-10-02
Report Run at: December 17, 2017 09:15 EST
"Nutrient data for: 45292091, PROTEIN CHIPS, UPC: 888849000302"
Food Group:  Branded Food Products Database
Common Name:

Nutrient,Unit,Data points,Std. Error,"1 BAG = 32.0g",1Value per 100 g,
Proximates
"Energy",kcal,--,--,130,406
"Protein",g,--,--,22.00,68.75
"Total lipid (fat)",g,--,--,3.50,10.94
"Carbohydrate, by difference",g,--,--,4.00,12.50
"Fiber, total dietary",g,--,--,2.0,6.2
"Sugars, total",g,--,--,1.00,3.12
Minerals
"Calcium, Ca",mg,--,--,200,625
"Iron, Fe",mg,--,--,0.56,1.75
"Potassium, K",mg,--,--,0,0
"Sodium, Na",mg,--,--,190,594
Vitamins
"Vitamin C, total ascorbic acid",mg,--,--,0.0,0.0
"Vitamin A, IU",IU,--,--,0,0
Lipids
"Fatty acids, total saturated",g,--,--,0.499,1.560
"Fatty acids, total trans",g,--,--,0.000,0.000
"Cholesterol",mg,--,--,10,31
Amino Acids
Other
Ingredients
"PROTEIN BLEND (MILK PROTEIN ISOLATE, WHEY PROTEIN ISOLATE), HIGH OLEIC SUNFLOWER OIL, CORN STARCH, PSYLLIUM HUSK. CONTAINS LESS THAN 2% OF THE FOLLOWING: CHEDDAR CHEESE (MILK, CULTURES, SALT, ENZYMES), DEHYDRATED BUTTER (CREAM, SALT), BUTTERMILK POWDER, ONION POWDER, NONFAT DRY MILK, GARLIC POWDER, BUTTER OIL, WHEY POWDER, ANNATTO EXTRACT (COLOR), PAPRIKA EXTRACT (COLOR), TURMERIC (COLOR), CITRIC ACID, SALT, YEAST EXTRACT, CALCIUM CARBONATE, NATURAL FLAVORS." Date available: 07/14/2017 Date last updated by company: 07/14/2017
