Source: USDA Branded Food Products Database Release December 2017 Software v.3.8.6.4 2017-10-02
Report Run at: December 17, 2017 09:09 EST
"Nutrient data for: 45230797, PROTEIN BAR, UPC: 660726525111"
Food Group:  Branded Food Products Database
Common Name:

Nutrient,Unit,Data points,Std. Error,"1 BAR = 64.0g",1Value per 100 g,
Proximates
"Energy",kcal,--,--,250,391
"Protein",g,--,--,20.00,31.25
"Total lipid (fat)",g,--,--,9.00,14.06
"Carbohydrate, by difference",g,--,--,28.00,43.75
"Fiber, total dietary",g,--,--,7.0,10.9
"Sugars, total",g,--,--,10.00,15.62
Minerals
"Calcium, Ca",mg,--,--,80,125
"Iron, Fe",mg,--,--,0.22,0.35
"Potassium, K",mg,--,--,75,117
"Sodium, Na",mg,--,--,160,250
Vitamins
"Vitamin C, total ascorbic acid",mg,--,--,0.0,0.0
"Vitamin A, IU",IU,--,--,0,0
Lipids
"Fatty acids, total saturated",g,--,--,4.000,6.250
"Fatty acids, total trans",g,--,--,0.000,0.000
"Cholesterol",mg,--,--,5,8
Amino Acids
Other
Ingredients
"MILK DERIVED PROTEIN BLEND (MILK PROTEIN ISOLATE, WHEY PROTEIN ISOLATE), SUGAR, SOLUBLE VEGETABLE FIBER, GLYCERIN, MALTITOL SYRUP, ALMONDS, WATER, FRACTIONATED PALM KERNEL OIL, GROUND ALMONDS, PEA PROTEIN CONCENTRATE, SUNFLOWER OIL WITH TOCOPHEROLS (TO PROTECT FLAVOR), MALTODEXTRIN, NATURAL FLAVORS, EGG WHITE, RICE STARCH, SUNFLOWER LECITHIN, SALT, BUTTER (CREAM, SALT), CANOLA OIL, SOY PROTEIN ISOLATE, SAFFLOWER OIL, CARAMEL COLORING, SUCRALOSE, SOY LECITHIN." Date available: 07/14/2017 Date last updated by company: 07/14/2017
