Source: USDA Branded Food Products Database Release December 2017 Software v.3.8.6.4 2017-10-02
Report Run at: December 17, 2017 09:32 EST
"Nutrient data for: 45146596, PUBLIX, MARCONA ALMONDS ROASTED & SALTED, UPC: 041415413863"
Food Group:  Branded Food Products Database
Common Name:

Nutrient,Unit,Data points,Std. Error,"0.25 cup = 30.0g",1Value per 100 g,
Proximates
"Energy",kcal,--,--,180,600
"Protein",g,--,--,5.00,16.67
"Total lipid (fat)",g,--,--,17.00,56.67
"Carbohydrate, by difference",g,--,--,5.00,16.67
"Fiber, total dietary",g,--,--,2.0,6.7
"Sugars, total",g,--,--,2.00,6.67
Minerals
"Calcium, Ca",mg,--,--,80,267
"Iron, Fe",mg,--,--,1.80,6.00
"Sodium, Na",mg,--,--,170,567
Vitamins
"Vitamin C, total ascorbic acid",mg,--,--,0.0,0.0
"Vitamin A, IU",IU,--,--,0,0
Lipids
"Fatty acids, total saturated",g,--,--,1.500,5.000
"Fatty acids, total trans",g,--,--,0.000,0.000
"Cholesterol",mg,--,--,0,0
Amino Acids
Other
Ingredients
"MARCONA ALMONDS WITHOUT SKIN, ORGANIC OLEIC SUNFLOWER OIL, SALT." Date available: 07/14/2017 Date last updated by company: 07/14/2017
