Source: USDA Branded Food Products Database Release December 2017 Software v.3.8.6.4 2017-10-02
Report Run at: December 17, 2017 09:36 EST
"Nutrient data for: 45328840, PUDDING & PIE FILLING, UPC: 072392009459"
Food Group:  Branded Food Products Database
Common Name:

Nutrient,Unit,Data points,Std. Error,"0.5 cup = 13.0g",1Value per 100 g,
Proximates
"Energy",kcal,--,--,45,346
"Protein",g,--,--,0.00,0.00
"Total lipid (fat)",g,--,--,0.00,0.00
"Carbohydrate, by difference",g,--,--,12.00,92.31
"Fiber, total dietary",g,--,--,0.0,0.0
"Sugars, total",g,--,--,8.00,61.54
Minerals
"Calcium, Ca",mg,--,--,20,154
"Iron, Fe",mg,--,--,0.00,0.00
"Sodium, Na",mg,--,--,290,2231
Vitamins
"Vitamin C, total ascorbic acid",mg,--,--,0.0,0.0
"Vitamin A, IU",IU,--,--,0,0
Lipids
"Fatty acids, total saturated",g,--,--,0.000,0.000
"Fatty acids, total trans",g,--,--,0.000,0.000
"Cholesterol",mg,--,--,0,0
Amino Acids
Other
Ingredients
"SUGAR, FOOD STARCH MODIFIED, TETRASODIUM PYROPHOSPHATE, CONTAINS 2% OR LESS OF THE FOLLOWING: DISODIUM PHOSPHATE, NATURAL AND ARTIFICIAL FLAVOR, SALT, CALCIUM SULFATE, ASPARTAME*, ACESULFAME POTASSIUM, MONO- AND DIGLYCERIDES, PARTIALLY HYDROGENATED COTTONSEED OIL WITH CITRIC ACID AND TBHQ ADDED TO PRESERVE FRESHNESS, YELLOW 5, YELLOW 6." Date available: 10/13/2017 Date last updated by company: 10/13/2017
