Source: USDA Branded Food Products Database Release December 2017 Software v.3.8.6.4 2017-10-02
Report Run at: December 17, 2017 09:36 EST
"Nutrient data for: 45198109, PUDDING & PIE FILLING, UPC: 075450169157"
Food Group:  Branded Food Products Database
Common Name:

Nutrient,Unit,Data points,Std. Error,"0.25 PACKAGE (MAKES 1/2 CUP) = 25.0g",1Value per 100 g,
Proximates
"Energy",kcal,--,--,90,360
"Protein",g,--,--,0.00,0.00
"Total lipid (fat)",g,--,--,0.00,0.00
"Carbohydrate, by difference",g,--,--,23.00,92.00
"Fiber, total dietary",g,--,--,0.0,0.0
"Sugars, total",g,--,--,20.00,80.00
Minerals
"Calcium, Ca",mg,--,--,0,0
"Iron, Fe",mg,--,--,0.00,0.00
"Sodium, Na",mg,--,--,350,1400
Vitamins
"Vitamin C, total ascorbic acid",mg,--,--,0.0,0.0
"Vitamin A, IU",IU,--,--,0,0
Lipids
"Fatty acids, total saturated",g,--,--,0.000,0.000
"Fatty acids, total trans",g,--,--,0.000,0.000
"Cholesterol",mg,--,--,0,0
Amino Acids
Other
Ingredients
"SUGAR, MODIFIED FOOD STARCH, DEXTROSE, CONTAINS 2% OR LESS OF DISODIUM PHOSPHATE, TETRASODIUM PYROPHOSPHATE, STRAWBERRY POWDER (STRAWBERRY, SILICON DIOXIDE), DRIED STRAWBERRIES, NATURAL FLAVOR (CONTAIN MALTODEXTRIN, GUM ACACIA NATURAL FLVAOR, PROPYLENE GLYCOL, SILICON DIOXIDE)(, SALT, NONFAT DRY MILK, MONO- AND DIGLYCERIDES (CONTAINS PROPYL GALLATE AND CITRIC ACID AS ANTIOXIDANTS, PALM OIL, TITANIUM DIOXIDE (FOR COLOR)." Date available: 08/11/2017 Date last updated by company: 08/11/2017
