Source: USDA Branded Food Products Database Release December 2017 Software v.3.8.6.4 2017-10-02
Report Run at: December 17, 2017 09:38 EST
"Nutrient data for: 45058543, PUDDING, UPC: 011213101576"
Food Group:  Branded Food Products Database
Common Name:

Nutrient,Unit,Data points,Std. Error,"0.25 PACKAGE (MAKES 1/2 CUP) = 25.0g",1Value per 100 g,
Proximates
"Energy",kcal,--,--,90,360
"Protein",g,--,--,0.00,0.00
"Total lipid (fat)",g,--,--,0.00,0.00
"Carbohydrate, by difference",g,--,--,23.00,92.00
"Fiber, total dietary",g,--,--,0.0,0.0
"Sugars, total",g,--,--,17.00,68.00
Minerals
"Calcium, Ca",mg,--,--,0,0
"Iron, Fe",mg,--,--,1.44,5.76
"Sodium, Na",mg,--,--,130,520
Vitamins
"Vitamin C, total ascorbic acid",mg,--,--,0.0,0.0
"Vitamin A, IU",IU,--,--,0,0
Lipids
"Fatty acids, total saturated",g,--,--,0.000,0.000
"Fatty acids, total trans",g,--,--,0.000,0.000
"Cholesterol",mg,--,--,0,0
Amino Acids
Other
Ingredients
"SUGAR, CORNSTARCH, DEXTROSE, COCOA POWDER PROCESSED WITH ALKALI, CONTAINS 2% OR LESS OF SALT, PARTIALLY HYDROGENATED SOYBEAN OIL WITH BHA (PRESERVATIVE), CARRAGEENAN (THICKENER), MONO- AND DIGLYCERIDES (PREVENT FOAMING), RED 40, YELLOW 5, BLUE 1, NATURAL AND ARTIFICIAL FLAVOR." Date available: 10/13/2017 Date last updated by company: 10/13/2017
