Source: USDA Branded Food Products Database Release December 2017 Software v.3.8.6.4 2017-10-02
Report Run at: December 17, 2017 09:40 EST
"Nutrient data for: 45179691, PUFFED RICE, UPC: 688267026904"
Food Group:  Branded Food Products Database
Common Name:

Nutrient,Unit,Data points,Std. Error,"1 cup = 17.0g",1Value per 100 g,
Proximates
"Energy",kcal,--,--,70,412
"Protein",g,--,--,1.00,5.88
"Total lipid (fat)",g,--,--,0.00,0.00
"Carbohydrate, by difference",g,--,--,15.00,88.24
"Fiber, total dietary",g,--,--,0.0,0.0
"Sugars, total",g,--,--,0.00,0.00
Minerals
"Calcium, Ca",mg,--,--,0,0
"Iron, Fe",mg,--,--,15.88,93.43
"Potassium, K",mg,--,--,45,265
"Sodium, Na",mg,--,--,0,0
Vitamins
"Vitamin C, total ascorbic acid",mg,--,--,0.0,0.0
"Thiamin",mg,--,--,1.020,6.000
"Riboflavin",mg,--,--,0.255,1.500
"Niacin",mg,--,--,14.706,86.506
"Vitamin A, IU",IU,--,--,0,0
Lipids
"Fatty acids, total saturated",g,--,--,0.000,0.000
"Fatty acids, total trans",g,--,--,0.000,0.000
"Cholesterol",mg,--,--,0,0
Amino Acids
Other
Ingredients
"RICE, CONTAINS 2% OR LESS OF IRON (FERRIC ORTHOPHOSPHATE), NIACINAMIDE, VITAMIN B1 (THIAMIN MONONITRATE), VITAMIN B2 (RIBOFLAVIN)." Date available: 07/14/2017 Date last updated by company: 07/14/2017
