Source: USDA Branded Food Products Database Release December 2017 Software v.3.8.6.4 2017-10-02
Report Run at: December 17, 2017 09:39 EST
"Nutrient data for: 45225760, PUFF CORN, UPC: 072080032806"
Food Group:  Branded Food Products Database
Common Name:

Nutrient,Unit,Data points,Std. Error,"3.0 CHIPS | ABOUT = 28.0g",1Value per 100 g,
Proximates
"Energy",kcal,--,--,160,571
"Protein",g,--,--,2.00,7.14
"Total lipid (fat)",g,--,--,10.00,35.71
"Carbohydrate, by difference",g,--,--,15.00,53.57
"Fiber, total dietary",g,--,--,1.0,3.6
"Sugars, total",g,--,--,1.00,3.57
Minerals
"Calcium, Ca",mg,--,--,20,71
"Iron, Fe",mg,--,--,0.00,0.00
"Sodium, Na",mg,--,--,310,1107
Vitamins
"Vitamin C, total ascorbic acid",mg,--,--,0.0,0.0
"Thiamin",mg,--,--,0.000,0.000
"Riboflavin",mg,--,--,0.121,0.433
"Niacin",mg,--,--,1.428,5.100
"Vitamin A, IU",IU,--,--,0,0
Lipids
"Fatty acids, total saturated",g,--,--,3.500,12.500
"Fatty acids, total trans",g,--,--,0.000,0.000
"Cholesterol",mg,--,--,0,0
Amino Acids
Other
Ingredients
"ENRICHED CORN MEAL (CORN MEAL, FERROUS SULFATE, NIACIN, THIAMIN MONONITRATE, RIBOFLAVIN AND FOLIC ACID), CONTAINS ONE OR MORE OF THE FOLLOWING PURE VEGETABLE OILS: CORN, COTTONSEED, CANOLA, PALM OR SOYBEAN, SALT. INGREDIENTS OF SEASONING: REDUCED LACTOSE WHEY, WHEY, SOYBEAN OIL, CHEESE {CHEDDAR AND BLUE (MILK, SALT, CHEESE CULTURES, ENZYMES)}, MALTODEXTRIN, SALT, DISODIUM PHOSPHATE, ARTIFICIAL COLOR (INCLUDING FD&C YELLOW #6, FD&C YELLOW #5), CITRIC ACID, LACTIC ACID." Date available: 07/14/2017 Date last updated by company: 07/14/2017
