Source: USDA Branded Food Products Database Release December 2017 Software v.3.8.6.4 2017-10-02
Report Run at: December 17, 2017 09:39 EST
"Nutrient data for: 45260910, PUFFCORN DELITES BUFFALO SNACK, UPC: 071104202355"
Food Group:  Branded Food Products Database
Common Name:

Nutrient,Unit,Data points,Std. Error,"3.0 cup = 32.0g",1Value per 100 g,
Proximates
"Energy",kcal,--,--,180,562
"Protein",g,--,--,2.00,6.25
"Total lipid (fat)",g,--,--,11.00,34.38
"Carbohydrate, by difference",g,--,--,17.00,53.12
"Fiber, total dietary",g,--,--,0.0,0.0
"Sugars, total",g,--,--,0.00,0.00
Minerals
"Calcium, Ca",mg,--,--,0,0
"Iron, Fe",mg,--,--,0.00,0.00
"Sodium, Na",mg,--,--,430,1344
Vitamins
"Vitamin C, total ascorbic acid",mg,--,--,0.0,0.0
"Vitamin A, IU",IU,--,--,0,0
Lipids
"Fatty acids, total saturated",g,--,--,0.998,3.120
"Fatty acids, total trans",g,--,--,0.000,0.000
"Cholesterol",mg,--,--,0,0
Amino Acids
Other
Ingredients
"CORN MEAL, VEGETABLE OIL (CONTAINS ONE OR MORE OF THE FOLLOWING: CORN, AND/OR CANOLA OIL), MALTODEXTRIN, SALT, BUFFALO WING SAUCE POWDER (BUFFALO WING SAUCE [DISTILLED VINEGAR, AGED CAYENNE RED PEPPERS, SALT, WATER, CANOLA OIL, PAPRIKA, XANTHAN GUM, NATURAL FLAVOR, GARLIC POWDER], MALTODEXTRIN, ROSEMARY EXTRACT), SODIUM DIACETATE, GARLIC POWDER, CONTAINS 2% OR LESS OF : MONOSODIUM GLUTAMATE, BUTTER (CREAM, SALT), SUGAR, NATURAL & ARTIFICIAL FLAVOR, TRICALCIUM PHOSPHATE, PAPRIKA EXTRACT, CANOLA OIL, DISODIUM INOSINATE & DISODIUM GUANYLATE, FD&C RED# 40 LAKE, FD&C YELLOW#6 LAKE." Date available: 07/14/2017 Date last updated by company: 07/14/2017
