Source: USDA Branded Food Products Database Release December 2017 Software v.3.8.6.4 2017-10-02
Report Run at: December 17, 2017 09:43 EST
"Nutrient data for: 45325845, PULLED PORK IN SAUCE, UPC: 019722165829"
Food Group:  Branded Food Products Database
Common Name:

Nutrient,Unit,Data points,Std. Error,"2.0 ONZ = 56.0g",1Value per 100 g,
Proximates
"Energy",kcal,--,--,70,125
"Protein",g,--,--,7.00,12.50
"Total lipid (fat)",g,--,--,2.00,3.57
"Carbohydrate, by difference",g,--,--,5.00,8.93
"Fiber, total dietary",g,--,--,0.0,0.0
"Sugars, total",g,--,--,4.00,7.14
Minerals
"Calcium, Ca",mg,--,--,0,0
"Iron, Fe",mg,--,--,0.00,0.00
"Sodium, Na",mg,--,--,190,339
Vitamins
"Vitamin C, total ascorbic acid",mg,--,--,0.0,0.0
"Vitamin A, IU",IU,--,--,0,0
Lipids
"Fatty acids, total saturated",g,--,--,0.498,0.890
"Fatty acids, total trans",g,--,--,0.000,0.000
"Cholesterol",mg,--,--,25,45
Amino Acids
Other
Ingredients
"PORK (PORK, WATER, MODIFIED FOOD STARCH, SALT, SODIUM PHOSPHATES), SAUCE (WATER, BARBEQUE FLAVORING [BROWN SUGAR, TOMATO POWDER, DEHYDRATED ONION, DEHYDRATED GARLIC, NATURAL SMOKE FLAVOR, SOY SAUCE POWDER {(FERMENTED SOYBEANS, WHEAT, SALT), MALTODEXTRIN}, PAPRIKA, WORCESTERSHIRE SAUCE POWDER {(VINEGAR, MOLASSES, CORN SYRUP, SALT, CARAMEL COLOR, GARLIC, SUGAR, SPICES, TAMARIND, NATURAL FLAVOR), MALTODEXTRIN}, SPICES, CITRIC ACID, EXTRACTIVES OF PAPRIKA {COLOR}, MUSTARD, XANTHAN GUM, CARAMEL COLOR, SUCRALOSE], VINEGAR, SUGAR, SMOKE FLAVOR, MODIFIED FOOD STARCH)." Date available: 08/11/2017 Date last updated by company: 08/11/2017
