Source: USDA Branded Food Products Database Release December 2017 Software v.3.8.6.4 2017-10-02
Report Run at: December 17, 2017 09:54 EST
"Nutrient data for: 45285389, PUMPKIN SPICE CARAMEL CORN, UPC: 490710400960"
Food Group:  Branded Food Products Database
Common Name:

Nutrient,Unit,Data points,Std. Error,"0.667 cup = 29.0g",1Value per 100 g,
Proximates
"Energy",kcal,--,--,140,483
"Protein",g,--,--,2.00,6.90
"Total lipid (fat)",g,--,--,4.00,13.79
"Carbohydrate, by difference",g,--,--,23.00,79.31
"Fiber, total dietary",g,--,--,3.0,10.3
"Sugars, total",g,--,--,8.00,27.59
Minerals
"Calcium, Ca",mg,--,--,20,69
"Iron, Fe",mg,--,--,0.62,2.14
"Sodium, Na",mg,--,--,140,483
Vitamins
"Vitamin C, total ascorbic acid",mg,--,--,0.0,0.0
"Vitamin A, IU",IU,--,--,0,0
Lipids
"Fatty acids, total saturated",g,--,--,1.001,3.450
"Fatty acids, total trans",g,--,--,0.000,0.000
"Cholesterol",mg,--,--,5,17
Amino Acids
Other
Ingredients
"SUGAR, CORN SYRUP, POPCORN, ROASTED PUMPKIN SEED KERNELS (PUMPKIN SEED KERNELS, CANOLA OIL, SALT), BUTTER (CREAM, SALT), SALT, NATURAL FLAVOR, CINNAMON, NUTMEG, CLOVES, GINGER, CANOLA OIL, SOY LECITHIN, BETA CAROTENE (COLOR)." Date available: 07/14/2017 Date last updated by company: 07/14/2017
