Source: USDA Branded Food Products Database Release December 2017 Software v.3.8.6.4 2017-10-02
Report Run at: December 17, 2017 09:50 EST
"Nutrient data for: 45192512, PUMPKIN PIE, UPC: 783045980741"
Food Group:  Branded Food Products Database
Common Name:

Nutrient,Unit,Data points,Std. Error,"1 SLICE = 119.0g",1Value per 100 g,
Proximates
"Energy",kcal,--,--,290,244
"Protein",g,--,--,5.00,4.20
"Total lipid (fat)",g,--,--,9.00,7.56
"Carbohydrate, by difference",g,--,--,49.00,41.18
"Fiber, total dietary",g,--,--,1.0,0.8
"Sugars, total",g,--,--,30.00,25.21
Minerals
"Calcium, Ca",mg,--,--,100,84
"Iron, Fe",mg,--,--,1.13,0.95
"Sodium, Na",mg,--,--,259,218
Vitamins
"Vitamin C, total ascorbic acid",mg,--,--,3.8,3.2
"Vitamin A, IU",IU,--,--,788,662
Lipids
"Fatty acids, total saturated",g,--,--,3.998,3.360
"Fatty acids, total trans",g,--,--,0.000,0.000
"Cholesterol",mg,--,--,15,13
Amino Acids
Other
Ingredients
"WATER, PUMPKIN, SUGAR, UNBLEACHED ENRICHED WHEAT FLOUR (NIACIN, REDUCED IRON, THIAMINE MONONITRATE, RIBOFLAVIN, FOLIC ACID), PALM OIL, CORN SYRUP, NON FAT DRY MILK, WHOLE EGG, MODIFIED FOOD STARCH (CORN), WHEY, WHEAT PROTEIN ISOLATE (WHEAT GLUTEN, PHOSPHATE, LACTIC ACID, SULFITE), MODIFIED FOOD STARCH (TAPIOCA), NATURAL FLAVOR, SALT, SOYBEAN OIL, POTASSIUM SORBATE (AS A PRESERVATIVE), CITRIC ACID (AS A PRESERVATIVE), CINNAMON, VEGETABLE GUM (LOCUST BEAN GUM, CARRAGEENAN (STD WITH POTASSIUM CHLORIDE), MALTODEXTRIN, CORN STARCH, KONJAC, XANTHAN GUM, SODIUM CHLORIDE), DEXTROSE, SPICES, BAKING POWDER." Date available: 07/14/2017 Date last updated by company: 07/14/2017
