Source: USDA Branded Food Products Database Release December 2017 Software v.3.8.6.4 2017-10-02
Report Run at: December 17, 2017 09:45 EST
"Nutrient data for: 45278652, PUMPERNICKEL BREAD, UPC: 078742039886"
Food Group:  Branded Food Products Database
Common Name:

Nutrient,Unit,Data points,Std. Error,"2.0 SLICES = 64.0g",1Value per 100 g,
Proximates
"Energy",kcal,--,--,150,234
"Protein",g,--,--,5.00,7.81
"Total lipid (fat)",g,--,--,1.00,1.56
"Carbohydrate, by difference",g,--,--,31.00,48.44
"Fiber, total dietary",g,--,--,3.0,4.7
"Sugars, total",g,--,--,1.00,1.56
Minerals
"Calcium, Ca",mg,--,--,100,156
"Iron, Fe",mg,--,--,1.41,2.20
"Sodium, Na",mg,--,--,410,641
Vitamins
"Vitamin C, total ascorbic acid",mg,--,--,0.0,0.0
"Vitamin A, IU",IU,--,--,0,0
Lipids
"Fatty acids, total saturated",g,--,--,0.000,0.000
"Fatty acids, total trans",g,--,--,0.000,0.000
"Cholesterol",mg,--,--,0,0
Amino Acids
Other
Ingredients
"ENRICHED WHEAT FLOUR (WHEAT FLOUR, MALTED BARLEY FLOUR, NIACIN, REDUCED IRON, THIAMINE MONONITRATE, RIBOFLAVIN, FOLIC ACID), WATER, RYE FLOUR, RYE BASE (RYE FLOUR, SALT, WHEAT FLOUR, CARAWAY SEEDS, SUGAR, ACETIC ACID, LACTIC ACID, DILL SEED, NATURAL FLAVOR), CARAWAY SEEDS, YEAST, RYE CHOPS, CARAMEL COLOR, DOUGH CONDITIONER BLEND (CALCIUM SULFATE, WHEAT STARCH, WHEAT FLOUR, ENZYMES, SALT), VEGETABLE SHORTENING (MODIFIED PALM OIL, MONO AND DIGLYCERIDES, POLYSORBATE 60), WHITE DISTILLED VINEGAR, CALCIUM PROPIONATE (PRESERVATIVE), ASCORBIC ACID, ENZYMES." Date available: 07/14/2017 Date last updated by company: 07/14/2017
