Source: USDA Branded Food Products Database Release December 2017 Software v.3.8.6.4 2017-10-02
Report Run at: December 17, 2017 09:59 EST
"Nutrient data for: 45315339, PURE BAKING SODA, UPC: 049022554894"
Food Group:  Branded Food Products Database
Common Name:

Nutrient,Unit,Data points,Std. Error,"0.125 tsp = 0.6g",1Value per 100 g,
Proximates
"Energy",kcal,--,--,0,0
"Protein",g,--,--,0.00,0.00
"Total lipid (fat)",g,--,--,0.00,0.00
"Carbohydrate, by difference",g,--,--,0.00,0.00
Minerals
"Sodium, Na",mg,--,--,160,26667
Vitamins
Lipids
Amino Acids
Other
Ingredients
"SODIUM BICARBONATE." Date available: 07/14/2017 Date last updated by company: 07/14/2017
