Source: USDA Branded Food Products Database Release December 2017 Software v.3.8.6.4 2017-10-02
Report Run at: December 17, 2017 10:23 EST
"Nutrient data for: 45288185, PURELY MADE MIXED BERRIES & ACAI FILLED DARK CHOCOLATE BAR, UPC: 046567033730"
Food Group:  Branded Food Products Database
Common Name:

Nutrient,Unit,Data points,Std. Error,"1 BAR = 57.0g",1Value per 100 g,
Proximates
"Energy",kcal,--,--,260,456
"Protein",g,--,--,3.00,5.26
"Total lipid (fat)",g,--,--,14.00,24.56
"Carbohydrate, by difference",g,--,--,32.00,56.14
"Fiber, total dietary",g,--,--,3.0,5.3
"Sugars, total",g,--,--,26.00,45.61
Minerals
"Calcium, Ca",mg,--,--,20,35
"Iron, Fe",mg,--,--,0.00,0.00
"Sodium, Na",mg,--,--,0,0
Vitamins
"Vitamin C, total ascorbic acid",mg,--,--,1.0,1.8
"Vitamin A, IU",IU,--,--,0,0
Lipids
"Fatty acids, total saturated",g,--,--,9.000,15.790
"Fatty acids, total trans",g,--,--,0.000,0.000
"Cholesterol",mg,--,--,0,0
Amino Acids
Other
Ingredients
"DARK CHOCOLATE (COCOA MASS, SUGAR, COCOA BUTTER, SOY LECITHIN [EMULSIFIER], AND NATURAL VANILLA EXTRACT), FILLING (STRAWBERRY FILLING [STRAWBERRY, SUGAR, CORN SYRUP, WATER, PECTIN, SODIUM ALGINATE, CITRIC ACID, TRICALCIUM PHOSPHATE, NATURAL STRAWBERRY FLAVOR], RASPBERRY [SUGAR, RASPBERRIES, GLUCOSE, SUGAR SYRUP, PECTIN, CITRIC ACID, VEGETABLE GUM, TRICALCIUM PHOSPHATE, NATURAL FLAVOR], GRANULATED SUGAR, DRIED ACAI BERRY POWDER, NATURAL BLUEBERRY FLAVOR)." Date available: 10/04/2017 Date last updated by company: 10/04/2017
