Source: USDA Branded Food Products Database Release December 2017 Software v.3.8.6.4 2017-10-02
Report Run at: December 17, 2017 10:07 EST
"Nutrient data for: 45326419, PURE COCONUT WATER, UPC: 853883003114"
Food Group:  Branded Food Products Database
Common Name:

Nutrient,Unit,Data points,Std. Error,"8.0 OZA = 240.0g",1Value per 100 g,
Proximates
"Energy",kcal,--,--,29,12
"Protein",g,--,--,0.00,0.00
"Total lipid (fat)",g,--,--,0.00,0.00
"Carbohydrate, by difference",g,--,--,7.01,2.92
"Fiber, total dietary",g,--,--,0.0,0.0
"Sugars, total",g,--,--,7.01,2.92
Minerals
"Calcium, Ca",mg,--,--,19,8
"Iron, Fe",mg,--,--,0.00,0.00
"Magnesium, Mg",mg,--,--,24,10
"Potassium, K",mg,--,--,509,212
"Sodium, Na",mg,--,--,130,54
"Zinc, Zn",mg,--,--,0.29,0.12
"Manganese, Mn",mg,--,--,0.000,0.000
Vitamins
"Vitamin C, total ascorbic acid",mg,--,--,0.0,0.0
"Vitamin A, IU",IU,--,--,0,0
Lipids
"Fatty acids, total saturated",g,--,--,0.000,0.000
"Fatty acids, total trans",g,--,--,0.000,0.000
"Cholesterol",mg,--,--,0,0
Amino Acids
Other
Ingredients
"100% COCONUT WATER" Date available: 10/13/2017 Date last updated by company: 10/13/2017
