Source: USDA Branded Food Products Database Release December 2017 Software v.3.8.6.4 2017-10-02
Report Run at: December 17, 2017 10:23 EST
"Nutrient data for: 45174528, PURELY MADE FREEZE DRIED APPLES, UPC: 046567029887"
Food Group:  Branded Food Products Database
Common Name:

Nutrient,Unit,Data points,Std. Error,"1 BAG = 34.0g",1Value per 100 g,
Proximates
"Energy",kcal,--,--,130,382
"Protein",g,--,--,1.00,2.94
"Total lipid (fat)",g,--,--,0.00,0.00
"Carbohydrate, by difference",g,--,--,32.00,94.12
"Fiber, total dietary",g,--,--,4.0,11.8
"Sugars, total",g,--,--,22.00,64.71
Minerals
"Calcium, Ca",mg,--,--,0,0
"Iron, Fe",mg,--,--,0.00,0.00
"Sodium, Na",mg,--,--,10,29
Vitamins
"Vitamin C, total ascorbic acid",mg,--,--,148.2,436.0
"Vitamin A, IU",IU,--,--,118,346
Lipids
"Fatty acids, total saturated",g,--,--,0.000,0.000
"Fatty acids, total trans",g,--,--,0.000,0.000
"Cholesterol",mg,--,--,0,0
Amino Acids
Other
Ingredients
"FREEZE-DRIED FUJI APPLE WITH PEEL, ASCORBIC ACID, CITRIC ACID." Date available: 10/04/2017 Date last updated by company: 10/04/2017
