Source: USDA Branded Food Products Database Release December 2017 Software v.3.8.6.4 2017-10-02
Report Run at: December 17, 2017 10:32 EST
"Nutrient data for: 45232644, PURE PLANET, TART CHERRY MONTMORENCY CHERRY COCENTRATE, UPC: 091401870507"
Food Group:  Branded Food Products Database
Common Name:

Nutrient,Unit,Data points,Std. Error,"2.0 Tbsp = 30.0g",1Value per 100 g,
Proximates
"Energy",kcal,--,--,70,233
"Protein",g,--,--,1.00,3.33
"Total lipid (fat)",g,--,--,0.00,0.00
"Carbohydrate, by difference",g,--,--,17.00,56.67
"Sugars, total",g,--,--,17.00,56.67
Minerals
"Iron, Fe",mg,--,--,1.44,4.80
"Sodium, Na",mg,--,--,15,50
Vitamins
"Vitamin A, IU",IU,--,--,0,0
Lipids
Amino Acids
Other
Ingredients
"TART CHERRY JUICE CONCENTRATE." Date available: 07/14/2017 Date last updated by company: 07/14/2017
