Source: USDA Branded Food Products Database Release December 2017 Software v.3.8.6.4 2017-10-02
Report Run at: December 17, 2017 09:57 EST
"Nutrient data for: 45187357, PURE ABUNDANCE, LUNA CASHEW CHEESE, UPC: 702730934777"
Food Group:  Branded Food Products Database
Common Name:

Nutrient,Unit,Data points,Std. Error,"1 Tbsp = 18.0g",1Value per 100 g,
Proximates
"Energy",kcal,--,--,50,278
"Protein",g,--,--,1.00,5.56
"Total lipid (fat)",g,--,--,4.00,22.22
"Carbohydrate, by difference",g,--,--,2.00,11.11
"Fiber, total dietary",g,--,--,0.0,0.0
"Sugars, total",g,--,--,0.00,0.00
Minerals
"Calcium, Ca",mg,--,--,0,0
"Iron, Fe",mg,--,--,1.00,5.56
"Sodium, Na",mg,--,--,110,611
Vitamins
"Vitamin C, total ascorbic acid",mg,--,--,0.0,0.0
"Vitamin A, IU",IU,--,--,0,0
Lipids
"Fatty acids, total saturated",g,--,--,2.000,11.110
"Fatty acids, total trans",g,--,--,0.000,0.000
"Cholesterol",mg,--,--,0,0
Amino Acids
Other
Ingredients
"FILTERED WATER, ORGANIC CASHEWS, REJUVELAC (A PROBIOTIC LIQUID MADE WITH ORGANIC SPROUTED BUCKWHEAT & FILTERED WATER), ORGANIC COCONUT OIL, ORGANIC BROWN RICE, ORGANIC TAPIOCA STARCH, NUTRITIONAL YEAST, HIMALAYAN SALT, AGAR AGAR, MEDITERRANEAN SEA SALT, CERTIFIED VEGAN LACTIC ACID." Date available: 07/14/2017 Date last updated by company: 07/14/2017
