Source: USDA Branded Food Products Database Release December 2017 Software v.3.8.6.4 2017-10-02
Report Run at: December 17, 2017 10:08 EST
"Nutrient data for: 45154316, PURE COCONUT WATER WITH COCONUT PULP, UPC: 853883003152"
Food Group:  Branded Food Products Database
Common Name:

Nutrient,Unit,Data points,Std. Error,"1 CAN = 310.0g",1Value per 100 g,
Proximates
"Energy",kcal,--,--,59,19
"Protein",g,--,--,0.00,0.00
"Total lipid (fat)",g,--,--,0.00,0.00
"Carbohydrate, by difference",g,--,--,16.99,5.48
"Fiber, total dietary",g,--,--,0.0,0.0
"Sugars, total",g,--,--,16.00,5.16
Minerals
"Calcium, Ca",mg,--,--,19,6
"Iron, Fe",mg,--,--,0.40,0.13
"Magnesium, Mg",mg,--,--,19,6
"Potassium, K",mg,--,--,391,126
"Sodium, Na",mg,--,--,96,31
"Zinc, Zn",mg,--,--,0.31,0.10
"Manganese, Mn",mg,--,--,0.000,0.000
Vitamins
"Vitamin C, total ascorbic acid",mg,--,--,0.0,0.0
"Vitamin A, IU",IU,--,--,0,0
Lipids
"Fatty acids, total saturated",g,--,--,0.000,0.000
"Fatty acids, total trans",g,--,--,0.000,0.000
"Cholesterol",mg,--,--,0,0
Amino Acids
Other
Ingredients
"100% COCONUT WATER, YOUNG COCONUT PULP" Date available: 10/13/2017 Date last updated by company: 10/13/2017
