Source: USDA Branded Food Products Database Release December 2017 Software v.3.8.6.4 2017-10-02
Report Run at: December 17, 2017 10:08 EST
"Nutrient data for: 45155620, PURE COCONUT WATER WITH PULP, UPC: 041512135699"
Food Group:  Branded Food Products Database
Common Name:

Nutrient,Unit,Data points,Std. Error,"1 CAN = 500.0g",1Value per 100 g,
Proximates
"Energy",kcal,--,--,100,20
"Protein",g,--,--,0.00,0.00
"Total lipid (fat)",g,--,--,1.00,0.20
"Carbohydrate, by difference",g,--,--,24.00,4.80
"Fiber, total dietary",g,--,--,0.0,0.0
"Sugars, total",g,--,--,23.00,4.60
Minerals
"Calcium, Ca",mg,--,--,70,14
"Iron, Fe",mg,--,--,0.00,0.00
"Magnesium, Mg",mg,--,--,75,15
"Phosphorus, P",mg,--,--,125,25
"Potassium, K",mg,--,--,1125,225
"Sodium, Na",mg,--,--,85,17
Vitamins
"Vitamin C, total ascorbic acid",mg,--,--,0.0,0.0
"Vitamin A, IU",IU,--,--,0,0
"Vitamin D",IU,--,--,0,0
Lipids
"Fatty acids, total saturated",g,--,--,0.000,0.000
"Fatty acids, total trans",g,--,--,0.000,0.000
"Cholesterol",mg,--,--,0,0
Amino Acids
Other
Ingredients
"COCONUT WATER, COCONUT PULP." Date available: 10/13/2017 Date last updated by company: 10/13/2017
