Source: USDA Branded Food Products Database Release December 2017 Software v.3.8.6.4 2017-10-02
Report Run at: December 17, 2017 10:51 EST
"Nutrient data for: 45169469, Q SAUCE, BBQ SAUCE, UPC: 852665455639"
Food Group:  Branded Food Products Database
Common Name:

Nutrient,Unit,Data points,Std. Error,"2.0 Tbsp = 30.0g",1Value per 100 g,
Proximates
"Energy",kcal,--,--,40,133
"Protein",g,--,--,0.00,0.00
"Total lipid (fat)",g,--,--,0.00,0.00
"Carbohydrate, by difference",g,--,--,8.00,26.67
"Sugars, total",g,--,--,7.00,23.33
Minerals
"Calcium, Ca",mg,--,--,0,0
"Iron, Fe",mg,--,--,0.00,0.00
"Sodium, Na",mg,--,--,160,533
Vitamins
"Vitamin C, total ascorbic acid",mg,--,--,0.0,0.0
"Vitamin A, IU",IU,--,--,0,0
Lipids
Amino Acids
Other
Ingredients
"PREPARED MUSTARD (NO.1 MUSTARD SEED, SALT, TURMERIC, OLEORESIN PAPRIKA, SPICES), WATER, SUGAR, VINEGAR, MOLASSES (100% CANE SYRUP), CHILI POWDER, LIQUID SMOKE (WATER, NATURAL MESQUITE SMOKE FLAVOR, VINEGAR, MOLASSES, CARAMEL COLOR), TERIYAKI SAUCE (SOY SAUCE [WATER, WHEAT, SOYBEANS, SALT], SUGAR, SOY OIL AND/OR CANOLA OIL, GARLIC, SESAME SEEDS, DRIED ONION, FRESH GINGER/ SESAME OIL, ONION POWDER, GINGER POWDER), BLACK PEPPER, SALT, GARLIC POWDER, XANTHAN GUM, CRUSHED RED PEPPER, CINNAMON." Date available: 07/14/2017 Date last updated by company: 07/14/2017
