Source: USDA Branded Food Products Database Release December 2017 Software v.3.8.6.4 2017-10-02
Report Run at: December 17, 2017 10:50 EST
"Nutrient data for: 45092986, QFC, CAJUN KRAB SPREAD, UPC: 219583004477"
Food Group:  Branded Food Products Database
Common Name:

Nutrient,Unit,Data points,Std. Error,"2.0 Tbsp = 32.0g",1Value per 100 g,
Proximates
"Energy",kcal,--,--,70,219
"Protein",g,--,--,2.00,6.25
"Total lipid (fat)",g,--,--,4.50,14.06
"Carbohydrate, by difference",g,--,--,4.00,12.50
"Fiber, total dietary",g,--,--,0.0,0.0
"Sugars, total",g,--,--,1.00,3.12
Minerals
"Calcium, Ca",mg,--,--,0,0
"Iron, Fe",mg,--,--,0.00,0.00
"Sodium, Na",mg,--,--,180,562
Vitamins
"Vitamin C, total ascorbic acid",mg,--,--,0.0,0.0
"Vitamin A, IU",IU,--,--,344,1075
Lipids
"Fatty acids, total saturated",g,--,--,2.000,6.250
"Fatty acids, total trans",g,--,--,0.000,0.000
"Cholesterol",mg,--,--,15,47
Amino Acids
Other
Ingredients
"IMITATION CRAB MEAT (FISH PROTEIN [POLLOCK AND/OR PACIFIC WHITING], WATER, WHEAT STARCH, RICE WINE [WATER, SUGAR, ALCOHOL, RICE, SALT], EGG WHITE, SUGAR, SORBITOL, SOYBEAN OIL, CONTAINS 2% OR LESS OF: NATURAL & ARTIFICIAL FLAVORS, SALT, MODIFIED TAPIOCA STARCH, POTATO STARCH, CALCIUM CARBONATE, CARRAGENAN, POTASSIUM CHLORIDE, ISOLATED SOY PROTEIN, WHEAT GLUTEN, OAT FIBER, HYDROLYZED CORN PROTEIN, AUTOLYZED YEAST EXTRACT, SODIUM TRIPOLYPHOSPHATE, TETRASODIUM PYROPHOSPHATE, CARMINE, COLOR ADDED), NEUFCHATEL CHEESE (PASTEURIZED CULTURED MILK AND CREAM, SALT, STABILIZERS, [XANTHAN AND/OR CAROB BEAN AND/OR GUAR GUMS]), SALAD DRESSING (WATER, SOYBEAN OIL, SEASONING [SUGAR, MODIFIED CORN STARCH, SALT, SPICE, PAPRIKA], VINEGAR, EGG YOLKS, SALT, NATURAL FLAVOR, TETRASODIUM EDTA [FOR FRESHNESS]), PASTEURIZED PROCESS CHEESE SPREAD (CULTURED MILK, WATER, SKIM MILK, CREAM, WHEY, SODIUM PHOSPHATES, SALT, WORCESTERSHIRE SAUCE [VINGEGAR, MOLASSES, SALT, WATER, HIGH FRUCTOSE CORN SYRUP, ONION JUICE, HYDROLYZED CORN GLUTEN, GARLIC JUICE, YEASTE EXTRACT AND NATURAL FLAVORING], GUAR GUM, MUSTARD [VINEGAR, MUSTARD SEED, SALT, TURMERIC AND SPICES], VEGETABLE COLOR [ANNATTO AND PAPRIKA BLEND], ENZYMES), SEASONING (SALT, PAPRIKA, DEXTROSE, AUTOLYZED YEAST EXTRACT, SPICES, ONION, HYDROLYZED CORN PROTEIN, CORN STARCH, NATURAL FLAVOR, GARLIC, DISODIUM INOSINATE AND GUANYLATE, SOYBEAN OIL), RED BELL PEPPER (RED BELL PEPPERS, WATER, SALT, VINEGAR AND A TRACE OF CALCIUM CHLORIDE), GLUCONO DELTA LACTONE, MODIFIED FOOD STARCH, DEHYDRATED GARLIC, PHOSPHORIC ACID, CAYENNE PEPPER, (XANTHAN, GUAR, SODIUM ALGINATE), SODIUM BENZOATE AND POTASSIUM SORBATE (PRESERVATIVES)." Date available: 07/07/2017 Date last updated by company: 07/07/2017
