Source: USDA Branded Food Products Database Release December 2017 Software v.3.8.6.4 2017-10-02
Report Run at: December 17, 2017 10:51 EST
"Nutrient data for: 45256536, QUAKER, HOMESTYLE OATMEAL MUFFINS, BANANA WALNUT, UPC: 759313824253"
Food Group:  Branded Food Products Database
Common Name:

Nutrient,Unit,Data points,Std. Error,"1 MUFFIN = 71.0g",1Value per 100 g,
Proximates
"Energy",kcal,--,--,220,310
"Protein",g,--,--,5.00,7.04
"Total lipid (fat)",g,--,--,6.00,8.45
"Carbohydrate, by difference",g,--,--,37.00,52.11
"Fiber, total dietary",g,--,--,3.0,4.2
"Sugars, total",g,--,--,20.00,28.17
Minerals
"Calcium, Ca",mg,--,--,20,28
"Iron, Fe",mg,--,--,2.23,3.14
"Sodium, Na",mg,--,--,200,282
Vitamins
"Vitamin C, total ascorbic acid",mg,--,--,1.8,2.6
"Vitamin A, IU",IU,--,--,155,218
Lipids
"Fatty acids, total saturated",g,--,--,1.001,1.410
"Fatty acids, total trans",g,--,--,0.000,0.000
"Cholesterol",mg,--,--,40,56
Amino Acids
Other
Ingredients
"WHOLEGRAIN ROLLED OATS, BANANA PUREE, WATER, EGGS, BROWN SUGAR, SUGAR, WHOLE WHEAT FLOUR, SOYBEAN OIL, BLEACHED WHEAT FLOUR, WALNUTS. CONTAINS 2% OR LESS OF: WHEAT BRAN, MODIFIED CORN STARCH, HONEY, WHEAT GLUTEN, LACTIC ACID, MOLASSES BROWN RICE SYRUP, BAKING SODA, SODIUM ALUMINUM PHOSPHATE, MONOCALCIUM PHOSPHATE, MONO AND DIGLYCERIDES, SODIUM STEAROYL LACTYLATE, POLYSORBATE 60, WHEY, NONFAT DRY MILK, OAT FIBER, CITRUS FIBER, SALT, NATURAL FLAVOR, XANTHAN GUM, GUAR GUM." Date available: 07/14/2017 Date last updated by company: 07/14/2017
