Source: USDA Branded Food Products Database Release December 2017 Software v.3.8.6.4 2017-10-02
Report Run at: December 17, 2017 10:54 EST
"Nutrient data for: 45199436, QUARTER POUND BEEF PATTIES, UPC: 085239020098"
Food Group:  Branded Food Products Database
Common Name:

Nutrient,Unit,Data points,Std. Error,"1 PATTY = 112.0g",1Value per 100 g,
Proximates
"Energy",kcal,--,--,330,295
"Protein",g,--,--,18.00,16.07
"Total lipid (fat)",g,--,--,28.00,25.00
"Carbohydrate, by difference",g,--,--,0.00,0.00
"Fiber, total dietary",g,--,--,0.0,0.0
"Sugars, total",g,--,--,0.00,0.00
Minerals
"Calcium, Ca",mg,--,--,20,18
"Iron, Fe",mg,--,--,1.37,1.22
"Sodium, Na",mg,--,--,200,179
Vitamins
"Vitamin C, total ascorbic acid",mg,--,--,0.0,0.0
"Vitamin A, IU",IU,--,--,0,0
Lipids
"Fatty acids, total saturated",g,--,--,10.998,9.820
"Fatty acids, total trans",g,--,--,0.000,0.000
"Cholesterol",mg,--,--,90,80
Amino Acids
Other
Ingredients
"BEEF, WATER, LESS THAN 2% SEASONING (DRIED BEEF STOCK, HYDROLYZED CORN PROTEIN, SPICES, BROWN SUGAR, SALT, DRIED GARLIC, YEAST EXTRACT, NATURAL FLAVOR, DRIED ONION, FLAVOR [YEAST EXTRACT, SALT, SUNFLOWER OIL], DISODIUM INOSINATE, DISODIUM GUANYLATE)." Date available: 08/29/2017 Date last updated by company: 08/29/2017
