Source: USDA Branded Food Products Database Release December 2017 Software v.3.8.6.4 2017-10-02
Report Run at: December 17, 2017 10:57 EST
"Nutrient data for: 45029813, QUE PASA, ORGANIC CHIPOTLE MEDIUM SALSA, UPC: 068826200059"
Food Group:  Branded Food Products Database
Common Name:

Nutrient,Unit,Data points,Std. Error,"2.0 Tbsp = 31.0g",1Value per 100 g,
Proximates
"Energy",kcal,--,--,15,48
"Protein",g,--,--,0.00,0.00
"Total lipid (fat)",g,--,--,0.00,0.00
"Carbohydrate, by difference",g,--,--,3.00,9.68
"Fiber, total dietary",g,--,--,1.0,3.2
"Sugars, total",g,--,--,2.00,6.45
Minerals
"Calcium, Ca",mg,--,--,20,65
"Iron, Fe",mg,--,--,0.00,0.00
"Sodium, Na",mg,--,--,100,323
Vitamins
"Vitamin C, total ascorbic acid",mg,--,--,0.0,0.0
"Vitamin A, IU",IU,--,--,322,1040
Lipids
"Fatty acids, total saturated",g,--,--,0.000,0.000
"Fatty acids, total trans",g,--,--,0.000,0.000
"Cholesterol",mg,--,--,0,0
Amino Acids
Other
Ingredients
"DICED TOMATOES* IN TOMATO JUICE*, TOMATO PUREE* (WATER, TOMATO PASTE*, CITRIC ACID), RED BELL PEPPERS*, ONIONS*, CANE SUGAR*, GREEN BELL PEPPERS*, NATURAL FLAVORS, SEA SALT, DRIED GARLIC*, CHIPOTLE POWDER*, LEMON JUICE CONCENTRATE*, CILANTRO*, CITRIC ACID, XANTHAN GUM." Date available: 06/24/2017 Date last updated by company: 06/24/2017
