Source: USDA Branded Food Products Database Release December 2017 Software v.3.8.6.4 2017-10-02
Report Run at: December 17, 2017 10:55 EST
"Nutrient data for: 45154414, QUEEN OF KALE, KALE CHIPS, SWEET POTATO PIE, UPC: 857262005027"
Food Group:  Branded Food Products Database
Common Name:

Nutrient,Unit,Data points,Std. Error,"1 ONZ = 28.3g",1Value per 100 g,
Proximates
"Energy",kcal,--,--,120,424
"Protein",g,--,--,3.00,10.60
"Total lipid (fat)",g,--,--,6.00,21.20
"Carbohydrate, by difference",g,--,--,14.00,49.47
"Fiber, total dietary",g,--,--,2.0,7.1
"Sugars, total",g,--,--,6.00,21.20
Minerals
"Calcium, Ca",mg,--,--,80,283
"Iron, Fe",mg,--,--,2.54,8.99
"Sodium, Na",mg,--,--,125,442
Vitamins
"Vitamin C, total ascorbic acid",mg,--,--,95.4,337.1
"Vitamin A, IU",IU,--,--,18551,65551
Lipids
"Fatty acids, total saturated",g,--,--,0.999,3.530
"Fatty acids, total trans",g,--,--,0.000,0.000
"Cholesterol",mg,--,--,0,0
Amino Acids
Other
Ingredients
"KALE, SWEET POTATOES, WATER AGAVE NECTAR DARK, SUNFLOWER SEEDS, EXTRA VIRGIN OLIVE PIL, CINNAMON, NUTMEG, SEA SALT." Date available: 07/14/2017 Date last updated by company: 07/14/2017
