Source: USDA Branded Food Products Database Release December 2017 Software v.3.8.6.4 2017-10-02
Report Run at: December 17, 2017 11:06 EST
"Nutrient data for: 45291281, QUINOA CHIPS, UPC: 858641003382"
Food Group:  Branded Food Products Database
Common Name:

Nutrient,Unit,Data points,Std. Error,"21.0 CHIPS | ABOUT = 28.0g",1Value per 100 g,
Proximates
"Energy",kcal,--,--,140,500
"Protein",g,--,--,3.00,10.71
"Total lipid (fat)",g,--,--,7.00,25.00
"Carbohydrate, by difference",g,--,--,14.00,50.00
"Fiber, total dietary",g,--,--,2.0,7.1
"Sugars, total",g,--,--,0.00,0.00
Minerals
"Calcium, Ca",mg,--,--,0,0
"Iron, Fe",mg,--,--,0.00,0.00
"Sodium, Na",mg,--,--,310,1107
Vitamins
"Vitamin C, total ascorbic acid",mg,--,--,0.0,0.0
"Vitamin A, IU",IU,--,--,0,0
Lipids
"Fatty acids, total saturated",g,--,--,1.000,3.570
"Fatty acids, total trans",g,--,--,0.000,0.000
"Cholesterol",mg,--,--,0,0
Amino Acids
Other
Ingredients
"QUINOA FLOUR, CORN FLOUR, SUNFLOWER OIL, LENTIL FLOUR, PEA STARCH, PEA FLOUR, PEPPERED GOUDA & ROMANO SEASONING (IP MALTODEXTRIN, SALT, GOUDA CHEESE POWDER [GOUDA CHEESE (MILK, CULTURES, SALT, ENZYMES), NONFAT DRY MILK AND DISODIUM PHOSPHATE], NATURAL FLAVORS, SUGAR, SPICES, LACTIC ACID, CITRIC ACID), CHICKPEA FLOUR, PEA FIBER, PEA PROTEIN, SALT." Date available: 07/14/2017 Date last updated by company: 07/14/2017
