Source: USDA Branded Food Products Database Release December 2017 Software v.3.8.6.4 2017-10-02
Report Run at: December 17, 2017 11:08 EST
"Nutrient data for: 45192648, QUINOA PASTA FUSILLI, UPC: 813568002726"
Food Group:  Branded Food Products Database
Common Name:

Nutrient,Unit,Data points,Std. Error,"57.0 GRM = 57.0g",1Value per 100 g,
Proximates
"Energy",kcal,--,--,210,368
"Protein",g,--,--,8.00,14.04
"Total lipid (fat)",g,--,--,1.50,2.63
"Carbohydrate, by difference",g,--,--,40.00,70.18
"Fiber, total dietary",g,--,--,0.0,0.0
Minerals
"Sodium, Na",mg,--,--,30000,52632
Vitamins
Lipids
"Cholesterol",mg,--,--,0,0
Amino Acids
Other
Ingredients
"WHOLE GRAIN QUINOA FLOUR, POTATO STARCH (2%), EGG WHITE, VEGETABLE OIL" Date available: 09/06/2017 Date last updated by company: 09/06/2017
