Source: USDA Branded Food Products Database Release December 2017 Software v.3.8.6.4 2017-10-02
Report Run at: December 17, 2017 11:11 EST
"Nutrient data for: 45099939, QUOC VIET, SIMPLE & AUTHENTIC, BEEF FLAVORED """" PHO"""" SOUP BASE, UPC: 852403000039"
Food Group:  Branded Food Products Database
Common Name:

Nutrient,Unit,Data points,Std. Error,"2.0 tsp = 9.0g",1Value per 100 g,
Proximates
"Energy",kcal,--,--,30,333
"Protein",g,--,--,1.00,11.11
"Total lipid (fat)",g,--,--,2.00,22.22
"Carbohydrate, by difference",g,--,--,3.00,33.33
"Sugars, total",g,--,--,3.00,33.33
Minerals
"Sodium, Na",mg,--,--,1290,14333
Vitamins
Lipids
"Fatty acids, total saturated",g,--,--,0.500,5.560
"Fatty acids, total trans",g,--,--,0.000,0.000
"Cholesterol",mg,--,--,0,0
Amino Acids
Other
Ingredients
"SALT, SUGAR, BEEF FAT, DRIED BEEF STOCK, SPICES, YEAST EXTRACT, MALTODEXTRIN, FISH SAUCE (FERMENTED ANCHOVIES, MALTODEXTRIN AND SALT), DISODIUM INOSINATE, DISODIUM GUANYLATE AND NATURAL FLAVORING, SPICE FILTER BAGS PACKED SEPARATELY INSIDE." Date available: 07/14/2017 Date last updated by company: 07/14/2017
