Source: USDA Branded Food Products Database Release December 2017 Software v.3.8.6.4 2017-10-02
Report Run at: December 17, 2017 14:18 EST
"Nutrient data for: 45145401, R'E'NOLA FRUIT NUT & SEED MIX, UPC: 021908462929"
Food Group:  Branded Food Products Database
Common Name:

Nutrient,Unit,Data points,Std. Error,"1 POUCH = 33.0g",1Value per 100 g,
Proximates
"Energy",kcal,--,--,200,606
"Protein",g,--,--,5.00,15.15
"Total lipid (fat)",g,--,--,16.00,48.48
"Carbohydrate, by difference",g,--,--,10.00,30.30
"Fiber, total dietary",g,--,--,3.0,9.1
"Sugars, total",g,--,--,5.00,15.15
Minerals
"Calcium, Ca",mg,--,--,40,121
"Iron, Fe",mg,--,--,3.27,9.92
"Sodium, Na",mg,--,--,30,91
Vitamins
"Vitamin C, total ascorbic acid",mg,--,--,0.0,0.0
"Vitamin A, IU",IU,--,--,0,0
Lipids
"Fatty acids, total saturated",g,--,--,5.999,18.180
"Fatty acids, total trans",g,--,--,0.000,0.000
"Cholesterol",mg,--,--,0,0
Amino Acids
Other
Ingredients
"ALMONDS, SUNFLOWER SEEDS, TOASTED COCONUT, DRIED MOLASSES, PUMPKIN SEEDS, COCOA NIBS, COCONUT OIL, CASHEWS, TAPIOCA SYRUP, COCOA POWDER, SEA SALT, VANILLA EXTRACT." Date available: 07/14/2017 Date last updated by company: 07/14/2017
