Source: USDA Branded Food Products Database Release December 2017 Software v.3.8.6.4 2017-10-02
Report Run at: December 17, 2017 17:14 EST
"Nutrient data for: 45242915, R.W. KNUDSEN, FLAVORED APPLE JUICE, CARAMEL APPLE, UPC: 074682510041"
Food Group:  Branded Food Products Database
Common Name:

Nutrient,Unit,Data points,Std. Error,"8.0 OZA = 240.0g",1Value per 100 g,
Proximates
"Energy",kcal,--,--,110,46
"Protein",g,--,--,0.00,0.00
"Total lipid (fat)",g,--,--,0.00,0.00
"Carbohydrate, by difference",g,--,--,28.01,11.67
"Sugars, total",g,--,--,24.00,10.00
Minerals
"Calcium, Ca",mg,--,--,19,8
"Potassium, K",mg,--,--,250,104
"Sodium, Na",mg,--,--,14,6
Vitamins
Lipids
Amino Acids
Other
Ingredients
"SPARKLING FILTERED WATER (SUFFICIENT TO RECONSTITUTE), APPLE JUICE CONCENTRATE, NATURAL FLAVOR." Date available: 07/14/2017 Date last updated by company: 07/14/2017
