Source: USDA Branded Food Products Database Release December 2017 Software v.3.8.6.4 2017-10-02
Report Run at: December 17, 2017 17:14 EST
"Nutrient data for: 45244590, R.W. KNUDSEN FAMILY SPRITZER FLAVORED SPARKLING BEVERAGE FROM CONCENTRATE GINGER ALE, UPC: 074682114676"
Food Group:  Branded Food Products Database
Common Name:

Nutrient,Unit,Data points,Std. Error,"1 CAN = 311.0g",1Value per 100 g,
Proximates
"Energy",kcal,--,--,121,39
"Protein",g,--,--,0.00,0.00
"Total lipid (fat)",g,--,--,0.00,0.00
"Carbohydrate, by difference",g,--,--,27.99,9.00
"Sugars, total",g,--,--,26.99,8.68
Minerals
"Iron, Fe",mg,--,--,0.37,0.12
"Potassium, K",mg,--,--,190,61
"Sodium, Na",mg,--,--,19,6
Vitamins
Lipids
Amino Acids
Other
Ingredients
"SPARKLING FILTERED WATER, BREWED GINGER ROOT (WATER, GINGER ROOT PUREE), WHITE GRAPE AND APPLE JUICE CONCENTRATES, GINGER EXTRACT." Date available: 06/24/2017 Date last updated by company: 06/24/2017
