Source: USDA Branded Food Products Database Release December 2017 Software v.3.8.6.4 2017-10-02
Report Run at: December 17, 2017 11:17 EST
"Nutrient data for: 45158442, RADZ, CANDY + DISPENSER, UPC: 810174012514"
Food Group:  Branded Food Products Database
Common Name:

Nutrient,Unit,Data points,Std. Error,"1 PACK = 20.0g",1Value per 100 g,
Proximates
"Energy",kcal,--,--,70,350
"Protein",g,--,--,0.00,0.00
"Total lipid (fat)",g,--,--,0.00,0.00
"Carbohydrate, by difference",g,--,--,18.00,90.00
"Fiber, total dietary",g,--,--,0.0,0.0
"Sugars, total",g,--,--,18.00,90.00
Minerals
"Calcium, Ca",mg,--,--,0,0
"Iron, Fe",mg,--,--,0.00,0.00
"Sodium, Na",mg,--,--,5,25
Vitamins
"Vitamin C, total ascorbic acid",mg,--,--,0.0,0.0
"Vitamin A, IU",IU,--,--,0,0
Lipids
"Fatty acids, total saturated",g,--,--,0.000,0.000
"Fatty acids, total trans",g,--,--,0.000,0.000
"Cholesterol",mg,--,--,0,0
Amino Acids
Other
Ingredients
"DEXTROSE, GLUCOSE (CORN SYRUP), CITRIC ACID, CALCIUM STEARATE, TAPIOCA DEXTRIN, CONFECTIONER'S GLAZE (SHELLAC), CARNAUBA WAX, ARTIFICIAL FLAVORS AND ARTIFICIAL COLORS, INCLUDING FD & C RED NO.40, FD & C YELLOW NO.5 (TARTRAZINE), FD & C YELLOW NO.6, FD & C BLUE NO.1, TITANIUM DIOXIDE.4" Date available: 07/14/2017 Date last updated by company: 07/14/2017
