Source: USDA Branded Food Products Database Release December 2017 Software v.3.8.6.4 2017-10-02
Report Run at: December 17, 2017 11:18 EST
"Nutrient data for: 45064802, RAGU, CHEESE CREATIONS SAUCE, SIX CHEESE, UPC: 036200013755"
Food Group:  Branded Food Products Database
Common Name:

Nutrient,Unit,Data points,Std. Error,"0.5 cup = 129.0g",1Value per 100 g,
Proximates
"Energy",kcal,--,--,90,70
"Protein",g,--,--,3.01,2.33
"Total lipid (fat)",g,--,--,2.50,1.94
"Carbohydrate, by difference",g,--,--,14.00,10.85
"Fiber, total dietary",g,--,--,2.1,1.6
"Sugars, total",g,--,--,9.00,6.98
Minerals
"Calcium, Ca",mg,--,--,61,47
"Iron, Fe",mg,--,--,0.54,0.42
"Sodium, Na",mg,--,--,480,372
Vitamins
"Vitamin C, total ascorbic acid",mg,--,--,4.5,3.5
"Vitamin A, IU",IU,--,--,381,295
Lipids
"Fatty acids, total saturated",g,--,--,1.006,0.780
"Fatty acids, total trans",g,--,--,0.000,0.000
"Cholesterol",mg,--,--,5,4
Amino Acids
Other
Ingredients
"TOMATO PUREE (WATER, TOMATO PASTE), DICED TOMATOES IN PUREE [DICED TOMATOES, TOMATO PUREE, CALCIUM CHLORIDE (FIRMING AID), CITRIC ACID], SUGAR, RICOTTA CHEESE (MILK, WHEY, VINEGAR, SALT), ONIONS, SOYBEAN OIL, AGED ASIAGO CHEESE (CULTURED PART-SKIM MILK, SALT, ENZYMES), SALT, ROMANO CHEESE MADE FROM COW'S MILK (CULTURED PART-SKIM MILK, SALT, ENZYMES), BASIL, GARLIC, PARMESAN CHEESE (CULTURED PART-SKIM MILK, SALT, ENZYMES), FONTINA CHEESE (CULTURED MILK, SALT, ENZYMES), MOZZARELLA CHEESE (CULTURED MILK, NONFAT MILK, SALT, ENZYMES), SPICES, CITRIC ACID, DEHYDRATED ONIONS, NATURAL FLAVORS (CONTAINS EGG), NATURAL FLAVORS." Date available: 07/14/2017 Date last updated by company: 07/14/2017
