Source: USDA Branded Food Products Database Release December 2017 Software v.3.8.6.4 2017-10-02
Report Run at: December 17, 2017 11:19 EST
"Nutrient data for: 45180370, RAINBOW ACRES, NATURAL GRANOLA WITH MIXED NUTS, UPC: 722639105276"
Food Group:  Branded Food Products Database
Common Name:

Nutrient,Unit,Data points,Std. Error,"1 ONZ = 28.0g",1Value per 100 g,
Proximates
"Energy",kcal,--,--,119,425
"Protein",g,--,--,4.00,14.29
"Total lipid (fat)",g,--,--,4.00,14.29
"Carbohydrate, by difference",g,--,--,17.00,60.71
"Fiber, total dietary",g,--,--,2.0,7.1
"Sugars, total",g,--,--,5.00,17.86
Minerals
"Calcium, Ca",mg,--,--,10,36
"Iron, Fe",mg,--,--,2.12,7.58
"Sodium, Na",mg,--,--,0,0
Vitamins
"Vitamin C, total ascorbic acid",mg,--,--,4.7,16.8
"Vitamin A, IU",IU,--,--,0,0
Lipids
"Fatty acids, total saturated",g,--,--,1.000,3.570
"Cholesterol",mg,--,--,0,0
Amino Acids
Other
Ingredients
"WHOLE GRAIN ROLLED OATS, MIXED FRUIT JUICE CONCENTRATE (PINEAPPLE, PEAR, PEACH), EVAPORATED CANE JUICE CRYSTALS, NATURAL VANILLA FLAVOR, CASHEWS AND WALNUT." Date available: 07/14/2017 Date last updated by company: 07/14/2017
