Source: USDA Branded Food Products Database Release December 2017 Software v.3.8.6.4 2017-10-02
Report Run at: December 17, 2017 11:20 EST
"Nutrient data for: 45268372, RAINBOW MARSHMALLOW PUFFS, UPC: 768395503222"
Food Group:  Branded Food Products Database
Common Name:

Nutrient,Unit,Data points,Std. Error,"8.0 PIECES = 30.0g",1Value per 100 g,
Proximates
"Energy",kcal,--,--,100,333
"Protein",g,--,--,1.00,3.33
"Total lipid (fat)",g,--,--,0.00,0.00
"Carbohydrate, by difference",g,--,--,25.00,83.33
"Sugars, total",g,--,--,19.00,63.33
Minerals
"Sodium, Na",mg,--,--,5,17
Vitamins
Lipids
Amino Acids
Other
Ingredients
"SUGAR, MALTOSE SYRUP, WATER, DEXTROSE, SORBITOL, GELATIN, MODIFIED FOOD STARCH, ARTIFICIAL FLAVOR, RED 40, YELLOW 5, BLUE 1." Date available: 07/14/2017 Date last updated by company: 07/14/2017
