Source: USDA Branded Food Products Database Release December 2017 Software v.3.8.6.4 2017-10-02
Report Run at: December 17, 2017 11:19 EST
"Nutrient data for: 45226343, RAINBOW BELL PEPPERS, UPC: 688267042713"
Food Group:  Branded Food Products Database
Common Name:

Nutrient,Unit,Data points,Std. Error,"1 MEDIUM = 148.0g",1Value per 100 g,
Proximates
"Energy",kcal,--,--,25,17
"Protein",g,--,--,1.01,0.68
"Total lipid (fat)",g,--,--,0.00,0.00
"Carbohydrate, by difference",g,--,--,5.99,4.05
"Fiber, total dietary",g,--,--,2.1,1.4
"Sugars, total",g,--,--,4.00,2.70
Minerals
"Calcium, Ca",mg,--,--,21,14
"Iron, Fe",mg,--,--,0.41,0.28
"Potassium, K",mg,--,--,221,149
"Sodium, Na",mg,--,--,40,27
Vitamins
"Vitamin C, total ascorbic acid",mg,--,--,65.4,44.2
"Vitamin A, IU",IU,--,--,115,78
Lipids
Amino Acids
Other
Ingredients
"BELL PEPPERS." Date available: 10/19/2017 Date last updated by company: 10/19/2017
