Source: USDA Branded Food Products Database Release December 2017 Software v.3.8.6.4 2017-10-02
Report Run at: December 17, 2017 11:23 EST
"Nutrient data for: 45167462, RAINCOAST TRADING, SMOKED OYSTERS, UPC: 061712300185"
Food Group:  Branded Food Products Database
Common Name:

Nutrient,Unit,Data points,Std. Error,"2.5 ONZ = 70.0g",1Value per 100 g,
Proximates
"Energy",kcal,--,--,150,214
"Protein",g,--,--,18.00,25.71
"Total lipid (fat)",g,--,--,4.50,6.43
"Carbohydrate, by difference",g,--,--,9.00,12.86
"Fiber, total dietary",g,--,--,0.0,0.0
"Sugars, total",g,--,--,0.00,0.00
Minerals
"Calcium, Ca",mg,--,--,20,29
"Iron, Fe",mg,--,--,10.93,15.61
"Sodium, Na",mg,--,--,550,786
Vitamins
"Vitamin C, total ascorbic acid",mg,--,--,14.6,20.8
"Vitamin A, IU",IU,--,--,607,867
Lipids
"Fatty acids, total saturated",g,--,--,1.001,1.430
"Fatty acids, total trans",g,--,--,0.000,0.000
"Cholesterol",mg,--,--,95,136
Amino Acids
Other
Ingredients
"PACIFIC OYSTERS, OYSTER NECTAR, SEA SALT, GOLDEN YELLOW SUGAR, NATURAL HARDWOOD SMOKE" Date available: 07/14/2017 Date last updated by company: 07/14/2017
