Source: USDA Branded Food Products Database Release December 2017 Software v.3.8.6.4 2017-10-02
Report Run at: December 17, 2017 11:22 EST
"Nutrient data for: 45182900, RAINBOW SHERBET, UPC: 041735094100"
Food Group:  Branded Food Products Database
Common Name:

Nutrient,Unit,Data points,Std. Error,"85.0 G = 118.0g",1Value per 100 g,
Proximates
"Energy",kcal,--,--,120,102
"Protein",g,--,--,0.00,0.00
"Total lipid (fat)",g,--,--,1.00,0.85
"Carbohydrate, by difference",g,--,--,27.00,22.88
"Fiber, total dietary",g,--,--,0.0,0.0
"Sugars, total",g,--,--,27.00,22.88
Minerals
"Calcium, Ca",mg,--,--,20,17
"Iron, Fe",mg,--,--,0.00,0.00
"Sodium, Na",mg,--,--,40,34
Vitamins
"Vitamin C, total ascorbic acid",mg,--,--,0.0,0.0
"Vitamin A, IU",IU,--,--,0,0
Lipids
"Fatty acids, total saturated",g,--,--,0.496,0.420
"Fatty acids, total trans",g,--,--,0.000,0.000
"Cholesterol",mg,--,--,5,4
Amino Acids
Other
Ingredients
"WATER, CORN SYRUP, HIGH FRUCTOSE CORN SYRUP, SUGAR, WHEY, MILKFAT, RASPBERRY PUREE, ORANGE PUREE (CONCENTRATED ORANGE JUICE, CITRUS PULP, ORANGE OIL), LIME PUREE (CONCENTRATED LIME JUICE, CITRUS PULP, LIME OIL), CITRIC ACID, NATURAL FLAVORS, GUAR GUM, MONO- AND DIGLYCERIDES, XANTHAN GUM, POLYSORBATE 80, LOCUST BEAN GUM, CARRAGEENAN, ANNATTO, ARTIFICIAL COLOR (BLUE #1, RED #3, RED #40, YELLOW #5, YELLOW #6)." Date available: 07/14/2017 Date last updated by company: 07/14/2017
