Source: USDA Branded Food Products Database Release December 2017 Software v.3.8.6.4 2017-10-02
Report Run at: December 17, 2017 11:27 EST
"Nutrient data for: 45004530, RAISINS, UPC: 034036364300"
Food Group:  Branded Food Products Database
Common Name:

Nutrient,Unit,Data points,Std. Error,"1 BOX = 42.0g",1Value per 100 g,
Proximates
"Energy",kcal,--,--,130,310
"Protein",g,--,--,1.00,2.38
"Total lipid (fat)",g,--,--,0.00,0.00
"Carbohydrate, by difference",g,--,--,31.00,73.81
"Fiber, total dietary",g,--,--,2.0,4.8
"Sugars, total",g,--,--,29.00,69.05
Minerals
"Calcium, Ca",mg,--,--,20,48
"Iron, Fe",mg,--,--,1.03,2.45
"Potassium, K",mg,--,--,310,738
"Sodium, Na",mg,--,--,10,24
Vitamins
Lipids
Amino Acids
Other
Ingredients
"ORGANIC RAISINS." Date available: 10/13/2017 Date last updated by company: 10/13/2017
