Source: USDA Branded Food Products Database Release December 2017 Software v.3.8.6.4 2017-10-02
Report Run at: December 17, 2017 11:28 EST
"Nutrient data for: 45092280, RAKKYO, UPC: 070864033056"
Food Group:  Branded Food Products Database
Common Name:

Nutrient,Unit,Data points,Std. Error,"3.0 PIECES = 20.0g",1Value per 100 g,
Proximates
"Energy",kcal,--,--,20,100
"Protein",g,--,--,0.00,0.00
"Total lipid (fat)",g,--,--,0.00,0.00
"Carbohydrate, by difference",g,--,--,5.00,25.00
"Fiber, total dietary",g,--,--,1.0,5.0
"Sugars, total",g,--,--,2.00,10.00
Minerals
"Calcium, Ca",mg,--,--,0,0
"Iron, Fe",mg,--,--,0.45,2.23
"Sodium, Na",mg,--,--,140,700
Vitamins
"Vitamin C, total ascorbic acid",mg,--,--,0.0,0.0
"Vitamin A, IU",IU,--,--,0,0
Lipids
"Fatty acids, total saturated",g,--,--,0.000,0.000
"Cholesterol",mg,--,--,0,0
Amino Acids
Other
Ingredients
"SCALLION WATER, VINEGAR, SUGAR, SALT, M.S.G., POTASSIUM SORBATE AS PRESERVATIVE." Date available: 09/15/2017 Date last updated by company: 09/15/2017
