Source: USDA Branded Food Products Database Release December 2017 Software v.3.8.6.4 2017-10-02
Report Run at: December 17, 2017 11:37 EST
"Nutrient data for: 45232744, RAMEN NOODLE SOUP, UPC: 070662030066"
Food Group:  Branded Food Products Database
Common Name:

Nutrient,Unit,Data points,Std. Error,"1 CONTAINER = 64.0g",1Value per 100 g,
Proximates
"Energy",kcal,--,--,290,453
"Protein",g,--,--,6.00,9.38
"Total lipid (fat)",g,--,--,13.00,20.31
"Carbohydrate, by difference",g,--,--,38.00,59.38
"Fiber, total dietary",g,--,--,2.0,3.1
"Sugars, total",g,--,--,2.00,3.12
Minerals
"Calcium, Ca",mg,--,--,40,62
"Iron, Fe",mg,--,--,2.81,4.39
"Sodium, Na",mg,--,--,1480,2312
Vitamins
"Vitamin C, total ascorbic acid",mg,--,--,0.0,0.0
"Vitamin A, IU",IU,--,--,156,244
Lipids
"Fatty acids, total saturated",g,--,--,7.002,10.940
"Fatty acids, total trans",g,--,--,0.000,0.000
"Cholesterol",mg,--,--,5,8
Amino Acids
Other
Ingredients
"ENRICHED WHEAT FLOUR (WHEAT FLOUR, NIACIN, REDUCED IRON, THIAMINE MONONITRATE, RIBOFLAVIN, FOLIC ACID), PALM OIL, SALT, CONTAINS LESS THAN 2% OF DRIED CORN, DRIED CARROT FLAKE, GLUCOSE, DRIED GREEN PEA, MONOSODIUM GLUTAMATE, POWDERED CHICKEN, SPICE AND COLOR, ONION POWDER, HYDROLYZED CORN AND SOY PROTEIN, SUGAR, GARLIC POWDER, POTASSIUM CARBONATE, SODIUM CARBONATE, SODIUM TRIPOLYPHOSPHATE, CALCIUM SILICATE, CITRIC ACID, RENDERED CHICKEN FAT, AUTOLYZED YEAST EXTRACT, DISODIUM GUANYLATE, DISODIUM INOSINATE, NATURAL AND ARTIFICIAL FLAVOR, MALTODEXTRIN, SODIUM ALGINATE, TBHQ (PRESERVATIVE), AUTOLYZED TORULA YEAST EXTRACT." Date available: 06/24/2017 Date last updated by company: 06/24/2017
