Source: USDA Branded Food Products Database Release December 2017 Software v.3.8.6.4 2017-10-02
Report Run at: December 17, 2017 11:36 EST
"Nutrient data for: 45100173, RAMEN NOODLE SOUP, UPC: 041789002588"
Food Group:  Branded Food Products Database
Common Name:

Nutrient,Unit,Data points,Std. Error,"0.5 BLOCK OF NOODLES WITH SEASONING = 43.0g",1Value per 100 g,
Proximates
"Energy",kcal,--,--,190,442
"Protein",g,--,--,5.00,11.63
"Total lipid (fat)",g,--,--,7.00,16.28
"Carbohydrate, by difference",g,--,--,26.00,60.47
"Fiber, total dietary",g,--,--,1.0,2.3
"Sugars, total",g,--,--,1.00,2.33
Minerals
"Calcium, Ca",mg,--,--,23,54
"Iron, Fe",mg,--,--,1.67,3.89
"Sodium, Na",mg,--,--,810,1884
Vitamins
"Vitamin C, total ascorbic acid",mg,--,--,0.0,0.0
"Vitamin A, IU",IU,--,--,117,271
Lipids
"Fatty acids, total saturated",g,--,--,3.500,8.140
"Fatty acids, total trans",g,--,--,0.000,0.000
"Cholesterol",mg,--,--,0,0
Amino Acids
Other
Ingredients
"RAMEN NOODLE INGREDIENTS: ENRICHED WHEAT FLOUR (WHEAT FLOUR, NIACIN, REDUCED IRON, THIAMINE MONONITRATE, RIBOFLAVIN, FOLIC ACID), VEGETABLE OIL (CONTAINS ONE OR MORE OF THE FOLLOWING: CANOLA, COTTONSEED, PALM) PRESERVED BY TBHQ, CONTAINS LESS THAN 1% OF: SALT, SOY SAUCE (WATER, WHEAT, SOYBEANS, SALT), POTASSIUM CARBONATE, SODIUM (MONO, HEXAMETA, AND/OR TRIPOLY) PHOSPHATE, SODIUM CARBONATE, TURMERIC. SOUP BASE INGREDIENTS: SALT, SUGAR, MONOSODIUM GLUTAMATE, CONTAINS LESS THAN 1% OF: DEHYDRATED SOY SAUCE (WHEAT, SOYBEANS, SALT), DEHYDRATED VEGETABLES (ONION, GARLIC, CHIVE), HYDROLYZED CORN, WHEAT AND SOY PROTEIN, MALTODEXTRIN, CARAMEL COLOR, NATURAL FLAVORS, SPICES, YEAST EXTRACT, POWDERED CREAM SUBSTITUTE (PARTIALLY HYDROGENATED SOYBEAN OIL, CORN SYRUP SOLIDS, SODIUM CASEINATE [MILK DERIVATIVE]), BEEF FAT, CITRIC ACID, DISODIUM INOSINATE, DISODIUM GUANYLATE." Date available: 07/14/2017 Date last updated by company: 07/14/2017
