Source: USDA Branded Food Products Database Release December 2017 Software v.3.8.6.4 2017-10-02
Report Run at: December 17, 2017 11:37 EST
"Nutrient data for: 45326257, RAMEN NOODLE SOUP, UPC: 607880101317"
Food Group:  Branded Food Products Database
Common Name:

Nutrient,Unit,Data points,Std. Error,"0.5 DRY NOODLE BLOCK AND 1 TSP SEASONING MIX) | (ABOUT = 42.0g",1Value per 100 g,
Proximates
"Energy",kcal,--,--,190,452
"Protein",g,--,--,5.00,11.90
"Total lipid (fat)",g,--,--,7.00,16.67
"Carbohydrate, by difference",g,--,--,26.00,61.90
"Fiber, total dietary",g,--,--,1.0,2.4
"Sugars, total",g,--,--,1.00,2.38
Minerals
"Calcium, Ca",mg,--,--,0,0
"Iron, Fe",mg,--,--,3.21,7.65
"Sodium, Na",mg,--,--,860,2048
Vitamins
"Vitamin C, total ascorbic acid",mg,--,--,0.0,0.0
"Vitamin A, IU",IU,--,--,0,0
Lipids
"Fatty acids, total saturated",g,--,--,3.499,8.330
"Fatty acids, total trans",g,--,--,0.000,0.000
"Cholesterol",mg,--,--,0,0
Amino Acids
Other
Ingredients
"ENRICHED FLOUR (WHEAT FLOUR, NIACIN, REDUCED IRON, THIAMINE MONONITRATE, RIBOFLAVIN, FOLIC ACID), VEGETABLE OIL (PALM OIL, RICE BRAN OIL), SALT, CONTAINS LESS THAN 2% OF AUTOLYZED YEAST EXTRACT, BAKER'S YEAST EXTRACT, CARAMEL COLOR, CHICKEN FAT, CITRIC ACID, CORN SYRUP, DISODIUM GUANYLATE, DISODIUM INOSINATE, DRIED LEEK FLAKE, GARLIC POWDER, HYDROLYZED CORN PROTEIN, HYDROLYZED SOY PROTEIN, MALTODEXTRIN, MONOSODIUM GLUTAMATE, NATURAL FLAVOR, ONION POWDER, POTASSIUM CARBONATE, POWDERED CHICKEN, SHRIMP EXTRACT POWDER, SHRIMP POWDER, SODIUM ALGINATE, SODIUM CARBONATE, SODIUM TRIPOLYPHOSPHATE, SOYBEAN, SPICE (WITH TURMERIC COLOR), SUGAR, TBHQ (PRESERVATIVE), WHEAT." Date available: 08/16/2017 Date last updated by company: 08/16/2017
