Source: USDA Branded Food Products Database Release December 2017 Software v.3.8.6.4 2017-10-02
Report Run at: December 17, 2017 11:43 EST
"Nutrient data for: 45261164, RANCH PIZZA, UPC: 092825106753"
Food Group:  Branded Food Products Database
Common Name:

Nutrient,Unit,Data points,Std. Error,"0.25 PIZZA = 127.0g",1Value per 100 g,
Proximates
"Energy",kcal,--,--,271,213
"Protein",g,--,--,13.00,10.24
"Total lipid (fat)",g,--,--,9.00,7.09
"Carbohydrate, by difference",g,--,--,35.00,27.56
"Fiber, total dietary",g,--,--,1.0,0.8
"Sugars, total",g,--,--,3.00,2.36
Minerals
"Calcium, Ca",mg,--,--,150,118
"Iron, Fe",mg,--,--,1.66,1.31
"Sodium, Na",mg,--,--,700,551
Vitamins
"Vitamin C, total ascorbic acid",mg,--,--,0.0,0.0
"Vitamin A, IU",IU,--,--,154,121
Lipids
"Fatty acids, total saturated",g,--,--,2.997,2.360
"Fatty acids, total trans",g,--,--,0.000,0.000
"Cholesterol",mg,--,--,25,20
Amino Acids
Other
Ingredients
"CRUST (FLOUR [WHEAT FLOUR, ENZYMES], WATER, SUGAR, SOYBEAN OIL, YEAST, BREAD CRUMBS [WHEAT FLOUR, YEAST, SUGAR, SALT], SALT, HONEY, SOY LECITHIN [PROCESSING AID], SOYBEAN OIL), RANCH SAUCE (WATER, CREAMER [SUNFLOWER OIL, CORN SYRUP SOLIDS, SODIUM CASIENATE (MILK), MONO-AND DIGLYCERIDES, DIPOTASSIUM PHOSPHATE, CONTAINS 2% OR LESS OF TRICALCIUM PHOSPHATE, SOY LECITHIN, TOCOPHEROLS ADDED TO PROTECT FLAVOR], MALTODEXTRIN, MODIFIED FOOD STARCH, SALT, SUGAR, CULTURED BUTTERMILK, ONION POWDER, GARLIC POWDER, LESS THAN 2% OF SPICES, CITRIC ACID, LACTIC ACID, XANTHAN GUM, NATURAL & ARTIFICIAL FLAVOR), WHITE CHICKEN (CHICKEN BREAST WITH RIB MEAT, WATER, MODIFIED POTATO STARCH, SALT, SEASONING [NATURAL FLAVOR {CONTAINS TORULA YEAST}], SODIUM PHOSPHATE), LOW MOISTURE PART-SKIM MOZZARELLA CHEESE [PASTEURIZED PART-SKIM MILK, CHEESE CULTURES, SALT, ENZYMES], COOKED BACON (PORK CURED WITH WATER, SALT, SUGAR, SMOKE FLAVORING, SODIUM PHOSPHATE, SODIUM ERYTHORBATE, SODIUM NITRITE)." Date available: 07/14/2017 Date last updated by company: 07/14/2017
