Source: USDA Branded Food Products Database Release December 2017 Software v.3.8.6.4 2017-10-02
Report Run at: December 17, 2017 11:39 EST
"Nutrient data for: 45324929, RANCH DIP, UPC: 07203670625"
Food Group:  Branded Food Products Database
Common Name:

Nutrient,Unit,Data points,Std. Error,"2.0 Tbsp = 30.0g",1Value per 100 g,
Proximates
"Energy",kcal,--,--,60,200
"Protein",g,--,--,1.00,3.33
"Total lipid (fat)",g,--,--,5.00,16.67
"Carbohydrate, by difference",g,--,--,2.00,6.67
"Fiber, total dietary",g,--,--,0.0,0.0
"Sugars, total",g,--,--,1.00,3.33
Minerals
"Calcium, Ca",mg,--,--,38,127
"Iron, Fe",mg,--,--,0.00,0.00
"Sodium, Na",mg,--,--,135,450
Vitamins
"Vitamin D",IU,--,--,0,0
Lipids
"Fatty acids, total saturated",g,--,--,3.501,11.670
"Fatty acids, total trans",g,--,--,0.000,0.000
"Cholesterol",mg,--,--,15,50
Amino Acids
Other
Ingredients
"SOUR CREAM (CULTURED PASTEURIZED NONFAT MILK, CREAM, ENZYME), RANCH SEASONING (DEHYDRATED ONION, GARLIC, CARROT, BELL PEPPER, PARSLEY, MALTODEXTRIN, SALT, MONOSODIUM GLUTAMATE, MODIFIED FOOD STARCH [CORN], BUTTERMILK, SPICES, LESS THAN 2% SILICON DIOXIDE [PROCESSING AID])." Date available: 09/25/2017 Date last updated by company: 09/25/2017
