Source: USDA Branded Food Products Database Release December 2017 Software v.3.8.6.4 2017-10-02
Report Run at: December 17, 2017 11:52 EST
"Nutrient data for: 45177904, RASPBERRY FILLED DONUTS, UPC: 709129004813"
Food Group:  Branded Food Products Database
Common Name:

Nutrient,Unit,Data points,Std. Error,"1 DONUT = 78.0g",1Value per 100 g,
Proximates
"Energy",kcal,--,--,320,410
"Protein",g,--,--,2.00,2.56
"Total lipid (fat)",g,--,--,19.00,24.36
"Carbohydrate, by difference",g,--,--,34.00,43.59
"Fiber, total dietary",g,--,--,0.0,0.0
"Sugars, total",g,--,--,16.00,20.51
Minerals
"Calcium, Ca",mg,--,--,20,26
"Iron, Fe",mg,--,--,0.26,0.33
"Sodium, Na",mg,--,--,160,205
Vitamins
"Vitamin C, total ascorbic acid",mg,--,--,0.0,0.0
"Vitamin A, IU",IU,--,--,0,0
Lipids
"Fatty acids, total saturated",g,--,--,8.003,10.260
"Fatty acids, total trans",g,--,--,0.000,0.000
"Cholesterol",mg,--,--,5,6
Amino Acids
Other
Ingredients
"ENRICHED WHEAT FLOUR (NIACIN, REDUCED IRON, THIAMINE MONONITRATE, RIBOFLAVIN, FOLIC ACID), MALTED BARLEY FLOUR, WATER, PURE CANE SUGAR, TALLOW WITH MIXED TOCOPHEROLS, YEAST (YEAST, SORBITAN MONOSTEARATE, ASCORBIC ACID), CONCENTRATE (SOY FLOUR, SALT, MONOGLYCERIDES, GLUTEN, WHEAT FLOUR, LECITHIN, CALCIUM PROPIONATE, GUAR GUM, SOY OIL, MALTODEXTRIN, XANTHAN GUM, ASCORBIC ACID, AMYLASE). FILLING: CORN SYRUP, WATER, SUGAR, MODIFIED FOOD STARCH, NATURAL AND ARTIFICIAL FLAVOR, CITRIC ACID, SODIUM BENZOATE, SALT, RED #40. GLAZE: CONFECTIONERS SUGAR, WATER, PURE CANE SUGAR, GLAZE STABILIZER (MALTODEXTRIN, AGAR, SALT, LOCUST BEAN GUM, PARTIALLY HYDROGENATED SOYBEAN AND COTTONSEED OILS, SOYBEAN LECITHIN), NATURAL AND ARTIFICIAL BUTTER AND VANILLA FLAVORS, CORNSTARCH, NATURAL MIXED TOCOPHEROLS, DRY MILK INGREDIENTS." Date available: 07/14/2017 Date last updated by company: 07/14/2017
