Source: USDA Branded Food Products Database Release December 2017 Software v.3.8.6.4 2017-10-02
Report Run at: December 17, 2017 11:50 EST
"Nutrient data for: 45106197, RASPBERRY CHIPOTLE DIP, UPC: 078742142067"
Food Group:  Branded Food Products Database
Common Name:

Nutrient,Unit,Data points,Std. Error,"2.0 Tbsp = 30.0g",1Value per 100 g,
Proximates
"Energy",kcal,--,--,80,267
"Protein",g,--,--,1.00,3.33
"Total lipid (fat)",g,--,--,6.00,20.00
"Carbohydrate, by difference",g,--,--,6.00,20.00
"Fiber, total dietary",g,--,--,0.0,0.0
"Sugars, total",g,--,--,5.00,16.67
Minerals
"Calcium, Ca",mg,--,--,20,67
"Iron, Fe",mg,--,--,0.00,0.00
"Sodium, Na",mg,--,--,80,267
Vitamins
"Vitamin C, total ascorbic acid",mg,--,--,0.0,0.0
"Vitamin A, IU",IU,--,--,334,1112
Lipids
"Fatty acids, total saturated",g,--,--,3.999,13.330
"Fatty acids, total trans",g,--,--,0.000,0.000
"Cholesterol",mg,--,--,20,67
Amino Acids
Other
Ingredients
"CREAM CHEESE (PASTEURIZED CULTURED MILK AND CREAM, SALT, XANTHAN GUM, CAROB BEAN GUM, GUAR GUM), SUGAR, SOUR CRAM (CULTURED MILK CREAM, NONFAT MILK POWDER, GELATIN), RASPBERRIES, WATER, JALAPENO, PEPPER, APPLE CIDER VINEGAR, CHIPOTLE PEPPERS IN ADOBO SAUCE (CHIPOTLE PEPPERS, TOMATO PUREE [WATER AND TOMATO PASTE], VEGETABLE OIL [CORN OR SUNFLOWER], WHEAT FLOUR, SALT, VINEGAR, MODIFIED FOOD STARCH, ONION POWDER, GARLIC POWDER, CARAMEL COLOR, SPICES), MODIFIED FOOD STARCH, SALT, SODIUM BENZOATE (PRESERVATIVE), POTASSIUM SORBATE (PRESERVATIVE), NATURAL HICKORY SMOKE FLAVOR (WATER, NATURAL HICKORY SMOKE CONCENTRATE), CITRIC ACID, DEHYDRATED GARLIC, XANTHAN GUM." Date available: 06/25/2017 Date last updated by company: 06/25/2017
