Source: USDA Branded Food Products Database Release December 2017 Software v.3.8.6.4 2017-10-02
Report Run at: December 17, 2017 11:51 EST
"Nutrient data for: 45318279, RASPBERRY & DARK CHOCOLATE SWIRL, UPC: 040000406457"
Food Group:  Branded Food Products Database
Common Name:

Nutrient,Unit,Data points,Std. Error,"5.0 PIECES = 40.0g",1Value per 100 g,
Proximates
"Energy",kcal,--,--,220,550
"Protein",g,--,--,2.00,5.00
"Total lipid (fat)",g,--,--,14.00,35.00
"Carbohydrate, by difference",g,--,--,24.00,60.00
"Fiber, total dietary",g,--,--,2.0,5.0
"Sugars, total",g,--,--,21.00,52.50
Minerals
"Calcium, Ca",mg,--,--,40,100
"Iron, Fe",mg,--,--,0.45,1.12
"Sodium, Na",mg,--,--,25,62
Vitamins
"Vitamin C, total ascorbic acid",mg,--,--,1.5,3.8
"Vitamin A, IU",IU,--,--,125,312
Lipids
"Fatty acids, total saturated",g,--,--,8.000,20.000
"Fatty acids, total trans",g,--,--,0.000,0.000
"Cholesterol",mg,--,--,5,12
Amino Acids
Other
Ingredients
"SEMISWEET CHOCOLATE (SUGAR, CHOCOLATE PROCESSED WITH ALKALI, COCOA BUTTER, MILKFAT, SOY LECITHIN, NATURAL AND ARTIFICIAL FLAVORS), SUGAR, COCOA BUTTER, SKIM MILK, MILKFAT, SOY LECITHIN, SALT, PGPR, COLORING (RED 40 LAKE, BLUE 2 LAKE), NATURAL FLAVORS." Date available: 07/14/2017 Date last updated by company: 07/14/2017
