Source: USDA Branded Food Products Database Release December 2017 Software v.3.8.6.4 2017-10-02
Report Run at: December 17, 2017 11:54 EST
"Nutrient data for: 45315742, RASPBERRY & PEACH PIE, UPC: 081867020080"
Food Group:  Branded Food Products Database
Common Name:

Nutrient,Unit,Data points,Std. Error,"1 SLICE = 138.0g",1Value per 100 g,
Proximates
"Energy",kcal,--,--,400,290
"Protein",g,--,--,2.99,2.17
"Total lipid (fat)",g,--,--,13.99,10.14
"Carbohydrate, by difference",g,--,--,66.01,47.83
"Fiber, total dietary",g,--,--,1.9,1.4
"Sugars, total",g,--,--,43.00,31.16
Minerals
"Calcium, Ca",mg,--,--,0,0
"Iron, Fe",mg,--,--,1.31,0.95
"Sodium, Na",mg,--,--,139,101
Vitamins
"Vitamin C, total ascorbic acid",mg,--,--,5.4,3.9
"Vitamin A, IU",IU,--,--,272,197
Lipids
"Fatty acids, total saturated",g,--,--,8.004,5.800
"Fatty acids, total trans",g,--,--,0.000,0.000
"Cholesterol",mg,--,--,15,11
Amino Acids
Other
Ingredients
"PIE FILLING: FRUIT (PEACHES AND RED RASPBERRIES), PURE CANE SUGAR, MODIFIED FOOD STARCH. TOP & BOTTOM CRUST: UNBLEACHED ENRICHED WHEAT FLOUR (NIACIN, REDUCED IRON, THIAMINE MONONITRATE, RIBOFLAVIN, FOLIC ACID, ENZYMES), BUTTER, PALM FRUIT OIL, PURE CANE SUGAR, WATER, PECAN NUTS, SALT, EVAPORATED MILK, NATURAL VITAMIN E ADDED TO PRESERVE FRESHNESS." Date available: 07/14/2017 Date last updated by company: 07/14/2017
