Source: USDA Branded Food Products Database Release December 2017 Software v.3.8.6.4 2017-10-02
Report Run at: December 17, 2017 11:51 EST
"Nutrient data for: 45323692, RASPBERRY FILLED CHOCOLATE DONUTS, UPC: 072220219982"
Food Group:  Branded Food Products Database
Common Name:

Nutrient,Unit,Data points,Std. Error,"1 DONUT = 71.0g",1Value per 100 g,
Proximates
"Energy",kcal,--,--,290,408
"Protein",g,--,--,3.00,4.23
"Total lipid (fat)",g,--,--,15.00,21.13
"Carbohydrate, by difference",g,--,--,37.00,52.11
"Fiber, total dietary",g,--,--,1.0,1.4
"Sugars, total",g,--,--,21.00,29.58
Minerals
"Calcium, Ca",mg,--,--,20,28
"Iron, Fe",mg,--,--,2.09,2.95
"Sodium, Na",mg,--,--,310,437
Vitamins
"Vitamin C, total ascorbic acid",mg,--,--,0.0,0.0
"Vitamin A, IU",IU,--,--,0,0
Lipids
"Fatty acids, total saturated",g,--,--,7.001,9.860
"Fatty acids, total trans",g,--,--,0.000,0.000
"Cholesterol",mg,--,--,5,7
Amino Acids
Other
Ingredients
"DONUT: DONUT MIX (ENRICHED BLEACHED WHEAT FLOUR [WHEAT FLOUR, NIACIN, REDUCED IRON, THIAMIN MONONITRATE, RIBOFLAVIN, FOLIC ACID], SOYBEAN OIL, SOY FLOUR, CONTAINS 2% OR LESS OF EACH OF THE FOLLOWING: ARTIFICIAL FLAVOR, BETA-CAROTENE [COLOR], CITRIC ACID, CORN SYRUP SOLIDS, DEXTROSE, EGG YOLKS, ENZYMES, GUAR GUM, HIGH OLEIC CANOLA OIL, LEAVENING [BAKING SODA, SODIUM ACID PYROPHOSPHATE, SODIUM ALUMINUM PHOSPHATE], MONO- AND DIGLYCERIDES, NONFAT MILK, SODIUM PROPIONATE [PRESERVATIVE], PROPYLENE GLYCOL ESTERS OF FATTY ACIDS, SALT, SODIUM CASEINATE, SOY LECITHIN, WHEAT STARCH), WATER, SUGAR, PALM OIL, GLYCERINE. JELLY FILLING: FILLING BASE (SUGAR, MODIFIED FOOD STARCH, SODIUM ALGINATE, ADIPIC ACID, PROPYLENE GLYCOL, SILICON DIOXIDE, XANTHAN GUM, SODIUM BENZOATE AND POTASSIUM SORBATE AS PRESERVATIVES), WATER, RED #40, NATURAL AND ARTIFICIAL RASPBERRY FLAVOR, LACTIC ACID, BLUE #1. CHOCOLATE COATING: SUGAR, PALM KERNEL OIL, ALKALIZED COCOA POWDER, SOY LECITHIN, VANILLIN." Date available: 07/14/2017 Date last updated by company: 07/14/2017
