Source: USDA Branded Food Products Database Release December 2017 Software v.3.8.6.4 2017-10-02
Report Run at: December 17, 2017 11:51 EST
"Nutrient data for: 45171221, RASPBERRY DANISH COFFEE CAKE, UPC: 01121303220"
Food Group:  Branded Food Products Database
Common Name:

Nutrient,Unit,Data points,Std. Error,"0.125 CAKE = 50.0g",1Value per 100 g,
Proximates
"Energy",kcal,--,--,150,300
"Protein",g,--,--,2.00,4.00
"Total lipid (fat)",g,--,--,7.00,14.00
"Carbohydrate, by difference",g,--,--,22.00,44.00
"Fiber, total dietary",g,--,--,1.0,2.0
"Sugars, total",g,--,--,11.00,22.00
Minerals
"Calcium, Ca",mg,--,--,0,0
"Iron, Fe",mg,--,--,0.79,1.58
"Sodium, Na",mg,--,--,190,380
Vitamins
"Vitamin C, total ascorbic acid",mg,--,--,0.0,0.0
"Vitamin A, IU",IU,--,--,330,660
Lipids
"Fatty acids, total saturated",g,--,--,2.500,5.000
"Fatty acids, total trans",g,--,--,0.000,0.000
"Cholesterol",mg,--,--,10,20
Amino Acids
Other
Ingredients
"ENRICHED WHEAT FLOUR (WHEAT FLOUR, NIACIN, REDUCED IRON, THIAMINE MONONITRATE, RIBOFLAVIN, FOLIC ACID), RASPBERRY FILLING (WATER, HIGH FRUCTOSE CORN SYRUP, SUGAR, RASPBERRIES, CORN SYRUP, MODIFIED FOOD STARCH, NATURAL FLAVORS, CELLULOSE GUM, CITRIC ACID, POTASSIUM SORBATE [PRESERVATIVE], SALT, SODIUM CITRATE), MARGARINE (PALM OIL, SOYBEAN OIL, WATER, SALT, CONTAINS LESS THAN 2% OF EACH OF VEGETABLE MONO- AND DIGLYCERIDES SOY LECITHIN, SODIUM BENZOATE [A PRESERVATIVE], CITRIC ACID, NATURAL AND ARTIFICIAL FLAVOR, VITAMIN A PALMITATE ADDED, BETA CAROTENE [COLOR], WHEY, VITAMIN D), WATER, SUGAR, HIGH FRUCTOSE CORN SYRUP, WHOLE EGGS, HYDRATED MONOGLYCERIDE (WATER, MONOGLYCERIDES), CORN SYRUP, CONTAINS 2% OR LESS OF: YEAST, SALT, PALM OIL, MICROCRYSTALLINE CELLULOSE, TAPIOCA DEXTRIN, SOYBEAN OIL, SODIUM STEAROYL LACTYLATE, ARTIFICIAL FLAVOR, CASEIN, CINNAMON, LEAVENING (SODIUM BICARBONATE, SODIUM ACID PYROPHOSPHATE, MONOCALCIUM PHOSPHATE), AGAR, WHEY, FOOD STARCH MODIFIED, DEXTROSE, SOY LECITHIN, CELLULOSE GUM, EGG WHITES, ARTIFICIAL COLOR, NONFAT MILK, ENZYMES, ASCORBIC ACID, PRESERVATIVES (POTASSIUM SORBATE, CALCIUM PROPIONATE)." Date available: 07/14/2017 Date last updated by company: 07/14/2017
