Source: USDA Branded Food Products Database Release December 2017 Software v.3.8.6.4 2017-10-02
Report Run at: December 17, 2017 11:53 EST
"Nutrient data for: 45280465, RASPBERRY LEMONADE JUICE, UPC: 075450108101"
Food Group:  Branded Food Products Database
Common Name:

Nutrient,Unit,Data points,Std. Error,"8.0 FL OZ OF PREPARED PRODUCT | MAKES = 60.0g",1Value per 100 g,
Proximates
"Energy",kcal,--,--,120,200
"Protein",g,--,--,1.00,1.67
"Total lipid (fat)",g,--,--,0.00,0.00
"Carbohydrate, by difference",g,--,--,30.00,50.00
"Fiber, total dietary",g,--,--,0.0,0.0
"Sugars, total",g,--,--,30.00,50.00
Minerals
"Calcium, Ca",mg,--,--,0,0
"Iron, Fe",mg,--,--,0.00,0.00
"Potassium, K",mg,--,--,0,0
"Sodium, Na",mg,--,--,35,58
Vitamins
"Vitamin D",IU,--,--,0,0
Lipids
"Fatty acids, total saturated",g,--,--,0.000,0.000
"Fatty acids, total trans",g,--,--,0.000,0.000
"Cholesterol",mg,--,--,0,0
Amino Acids
Other
Ingredients
"HIGH FRUCTOSE CORN SYRUP, WATER, SUGAR SYRUP, CONCENTRATED LEMON JUICE, LEMON PULP, CONCENTRATED RASPBERRY JUICE, NATURAL FLAVORS." Date available: 10/13/2017 Date last updated by company: 10/13/2017
