Source: USDA Branded Food Products Database Release December 2017 Software v.3.8.6.4 2017-10-02
Report Run at: December 17, 2017 11:58 EST
"Nutrient data for: 45192109, RAVIOLI, UPC: 688267039638"
Food Group:  Branded Food Products Database
Common Name:

Nutrient,Unit,Data points,Std. Error,"1 cup = 100.0g",1Value per 100 g,
Proximates
"Energy",kcal,--,--,220,220
"Protein",g,--,--,10.00,10.00
"Total lipid (fat)",g,--,--,4.50,4.50
"Carbohydrate, by difference",g,--,--,33.00,33.00
"Fiber, total dietary",g,--,--,2.0,2.0
"Sugars, total",g,--,--,2.00,2.00
Minerals
"Calcium, Ca",mg,--,--,150,150
"Iron, Fe",mg,--,--,2.52,2.52
"Sodium, Na",mg,--,--,85,85
Vitamins
"Vitamin C, total ascorbic acid",mg,--,--,1.7,1.7
"Vitamin A, IU",IU,--,--,2100,2100
Lipids
"Fatty acids, total saturated",g,--,--,3.000,3.000
"Fatty acids, total trans",g,--,--,0.000,0.000
"Cholesterol",mg,--,--,25,25
Amino Acids
Other
Ingredients
"FILLING: RICOTTA CHEESE (MILK, WHEY, CREAM, VINEGAR, SALT, STABILIZERS [XANTHAN GUM, LOCUST BEAN GUAR GUM]), PUMPKIN, MOZZARELLA CHEESE (PASTEURIZED WHOLE MILK, CULTURE, SALT, ENZYMES), BLENDED OIL (CANOLA AND OLIVE), BREADCRUMBS (WHEAT FLOUR, SUGAR, YEAST, SEA SALT), HONEY, MOLASSES, EGGS, PAPRIKA OIL (COLOR), PARSLEY, CINNAMON, SALT, ALL SPICE, SAGE, CLOVE, WHITE PEPPER, NUTMEG, BETA-CAROTENE (COLOR), PASTA: DURUM FLOUR, WATER, EGGS, TOMATO PASTE, ANNATTO OIL (COLOR), PAPRIKA OIL (COLOR), BETA-CAROTENE (COLOR)." Date available: 07/14/2017 Date last updated by company: 07/14/2017
