Source: USDA Branded Food Products Database Release December 2017 Software v.3.8.6.4 2017-10-02
Report Run at: December 17, 2017 11:58 EST
"Nutrient data for: 45192102, RAVIOLI, UPC: 688267039348"
Food Group:  Branded Food Products Database
Common Name:

Nutrient,Unit,Data points,Std. Error,"1 cup = 100.0g",1Value per 100 g,
Proximates
"Energy",kcal,--,--,190,190
"Protein",g,--,--,8.00,8.00
"Total lipid (fat)",g,--,--,4.00,4.00
"Carbohydrate, by difference",g,--,--,30.00,30.00
"Fiber, total dietary",g,--,--,2.0,2.0
"Sugars, total",g,--,--,1.00,1.00
Minerals
"Calcium, Ca",mg,--,--,100,100
"Iron, Fe",mg,--,--,2.02,2.02
"Sodium, Na",mg,--,--,210,210
Vitamins
"Vitamin C, total ascorbic acid",mg,--,--,6.7,6.7
"Vitamin A, IU",IU,--,--,3150,3150
Lipids
"Fatty acids, total saturated",g,--,--,2.000,2.000
"Fatty acids, total trans",g,--,--,0.000,0.000
"Cholesterol",mg,--,--,20,20
Amino Acids
Other
Ingredients
"FILLING: BUTTERNUT SQUASH, RICOTTA CHEESE (MILK, WHEY, CREAM, VINEGAR, SALT, STABILIZERS [XANTHAN GUM, LOCUST BEAN GUM, GUAR GUM]), MOZZARELLA CHEESE (PASTEURIZED WHOLE MILK, CULTURE, SALT, ENZYMES), PARMESAN CHEESE (PART SKIMMED PASTEURIZED MILK, CHEESE CULTURES, SALT, RENNET), BREADCRUMBS (WHEAT FLOUR, SUGAR, YEAST, SEA SALT), HONEY, EGGS, BLENDED OIL (CANOLA AND OLIVE), SALT, PARSLEY, BLACK PEPPER, NUTMEG, CINNAMON. PASTA: DURUM FLOUR, WATER, EGGS, BETA-CAROTENE (COLOR), ANNATTO OIL (COLOR)." Date available: 07/14/2017 Date last updated by company: 07/14/2017
