Source: USDA Branded Food Products Database Release December 2017 Software v.3.8.6.4 2017-10-02
Report Run at: December 17, 2017 11:58 EST
"Nutrient data for: 45189501, RAVIOLI, UPC: 008006915137"
Food Group:  Branded Food Products Database
Common Name:

Nutrient,Unit,Data points,Std. Error,"4.0 FOR ONE SIDE OF PACKAGE, ABOUT 8 FOR BOTH SIDES | ABOUT = 100.0g",1Value per 100 g,
Proximates
"Energy",kcal,--,--,200,200
"Protein",g,--,--,13.00,13.00
"Total lipid (fat)",g,--,--,10.00,10.00
"Carbohydrate, by difference",g,--,--,29.00,29.00
"Fiber, total dietary",g,--,--,2.0,2.0
"Sugars, total",g,--,--,2.00,2.00
Minerals
"Calcium, Ca",mg,--,--,250,250
"Iron, Fe",mg,--,--,2.02,2.02
"Sodium, Na",mg,--,--,420,420
Vitamins
"Vitamin C, total ascorbic acid",mg,--,--,0.0,0.0
"Vitamin A, IU",IU,--,--,2450,2450
Lipids
"Fatty acids, total saturated",g,--,--,6.000,6.000
"Fatty acids, total trans",g,--,--,0.000,0.000
"Cholesterol",mg,--,--,35,35
Amino Acids
Other
Ingredients
"FILLING: RICOTTA CHEESE (MILK, WHEY, CREAM, VINEGAR, SALT, NATURAL STABILIZERS [XANTHAN GUM, LOCUST BEAN GUM, GUAR GUM]), ASIAGO CHEESE (PASTEURIZED PART SKIM MILK, CHEESE CULTURE, SALT, ENZYMES), MOZZARELLA CHEESE (PASTEURIZED WHOLE MILK, CULTURE, SALT, ENZYMES), MILK, PARMESAN CHEESE (PASTEURIZED MILK, CHEESE CULTURES, SALT, ENZYMES), BREADCRUMB (WHEAT FLOUR, EVAPORATED CANE SYRUP, YEAST, SEA SALT), PARMESAN FLAVOR (PARMESAN CHEESE {MILK, CULTURE, SALT, ENZYMES}, SALT, YEAST EXTRACT, UNSALTED BUTTER, CORN OIL, OLIVE OIL, CREAM POWDER, SUGAR AND NATURAL FLAVORING), EGGS, BLACK PEPPER, SALT. PASTA: DURUM FLOUR, WATER, EGGS, SPINACH POWDER, ANNATTO OIL, PAPRIKA OIL, BETA-CAROTENE." Date available: 07/14/2017 Date last updated by company: 07/14/2017
