Source: USDA Branded Food Products Database Release December 2017 Software v.3.8.6.4 2017-10-02
Report Run at: December 17, 2017 12:24 EST
"Nutrient data for: 45087177, RAW WALNUTS, UPC: 713733444682"
Food Group:  Branded Food Products Database
Common Name:

Nutrient,Unit,Data points,Std. Error,"0.333 cup = 34.0g",1Value per 100 g,
Proximates
"Energy",kcal,--,--,220,647
"Protein",g,--,--,5.00,14.71
"Total lipid (fat)",g,--,--,22.00,64.71
"Carbohydrate, by difference",g,--,--,5.00,14.71
"Fiber, total dietary",g,--,--,2.0,5.9
"Sugars, total",g,--,--,1.00,2.94
Minerals
"Calcium, Ca",mg,--,--,40,118
"Iron, Fe",mg,--,--,1.59,4.67
"Sodium, Na",mg,--,--,0,0
Vitamins
"Vitamin C, total ascorbic acid",mg,--,--,0.0,0.0
"Vitamin A, IU",IU,--,--,0,0
Lipids
"Fatty acids, total saturated",g,--,--,1.999,5.880
"Fatty acids, total trans",g,--,--,0.000,0.000
"Cholesterol",mg,--,--,0,0
Amino Acids
Other
Ingredients
"WALNUTS." Date available: 07/14/2017 Date last updated by company: 07/14/2017
