Source: USDA Branded Food Products Database Release December 2017 Software v.3.8.6.4 2017-10-02
Report Run at: December 17, 2017 12:07 EST
"Nutrient data for: 45204562, RAW + HEALTHY + DELICIOUS SNACK, UPC: 855895004004"
Food Group:  Branded Food Products Database
Common Name:

Nutrient,Unit,Data points,Std. Error,"40.0 GRM = 40.0g",1Value per 100 g,
Proximates
"Energy",kcal,--,--,140,350
"Protein",g,--,--,4.00,10.00
"Total lipid (fat)",g,--,--,5.00,12.50
"Carbohydrate, by difference",g,--,--,22.00,55.00
"Fiber, total dietary",g,--,--,3.0,7.5
"Sugars, total",g,--,--,9.00,22.50
Minerals
"Calcium, Ca",mg,--,--,40,100
"Iron, Fe",mg,--,--,1.44,3.60
"Sodium, Na",mg,--,--,10,25
Vitamins
"Vitamin C, total ascorbic acid",mg,--,--,0.0,0.0
"Vitamin A, IU",IU,--,--,300,750
Lipids
"Fatty acids, total saturated",g,--,--,1.000,2.500
"Fatty acids, total trans",g,--,--,0.000,0.000
"Cholesterol",mg,--,--,0,0
Amino Acids
Other
Ingredients
"ORGANIC SPROUTED BUCKWHEAT, RAW HONEY, ORGANIC RAW ALMOND BUTTER, ORGANIC RAW AGAVE NECTAR, ORGANIC RAW PUMPKIN SEEDS, ORGANIC CRANBERRIES, ORGANIC RAW GOJI BERRIES, ORGANIC RAW BLACK AND WHITE SESAME SEEDS, ORGANIC RAW SUNFLOWER SEEDS, ORGANIC RAW COCONUT OIL, ORGANIC CINNAMON, RAW VANILLA POWDER AND SEA SALT" Date available: 07/14/2017 Date last updated by company: 07/14/2017
