Source: USDA Branded Food Products Database Release December 2017 Software v.3.8.6.4 2017-10-02
Report Run at: December 17, 2017 12:20 EST
"Nutrient data for: 45225871, RAW SHRIMP, UPC: 075391032268"
Food Group:  Branded Food Products Database
Common Name:

Nutrient,Unit,Data points,Std. Error,"3.0 ONZ = 85.0g",1Value per 100 g,
Proximates
"Energy",kcal,--,--,60,71
"Protein",g,--,--,12.00,14.12
"Total lipid (fat)",g,--,--,1.00,1.18
"Carbohydrate, by difference",g,--,--,0.00,0.00
"Fiber, total dietary",g,--,--,1.0,1.2
"Sugars, total",g,--,--,0.00,0.00
Minerals
"Calcium, Ca",mg,--,--,40,47
"Iron, Fe",mg,--,--,0.18,0.21
"Sodium, Na",mg,--,--,480,565
Vitamins
"Vitamin C, total ascorbic acid",mg,--,--,0.0,0.0
"Vitamin A, IU",IU,--,--,150,176
Lipids
"Fatty acids, total saturated",g,--,--,0.000,0.000
"Fatty acids, total trans",g,--,--,0.000,0.000
"Cholesterol",mg,--,--,110,129
Amino Acids
Other
Ingredients
"SHRIMP, SALT, SODIUM TRIPOLYPHOSPHATE (TO RETAIN MOISTURE), SODIUM BISULFITE (PRESERVATIVE)" Date available: 07/14/2017 Date last updated by company: 07/14/2017
