Source: USDA Branded Food Products Database Release December 2017 Software v.3.8.6.4 2017-10-02
Report Run at: December 17, 2017 12:05 EST
"Nutrient data for: 45218976, RAW CRIPPS PINK APPLE JUICE, UPC: 851621003259"
Food Group:  Branded Food Products Database
Common Name:

Nutrient,Unit,Data points,Std. Error,"1 BOTTLE = 355.0g",1Value per 100 g,
Proximates
"Energy",kcal,--,--,181,51
"Protein",g,--,--,0.00,0.00
"Total lipid (fat)",g,--,--,0.00,0.00
"Carbohydrate, by difference",g,--,--,48.00,13.52
"Sugars, total",g,--,--,45.01,12.68
Minerals
"Iron, Fe",mg,--,--,0.75,0.21
"Sodium, Na",mg,--,--,0,0
Vitamins
"Vitamin C, total ascorbic acid",mg,--,--,40.5,11.4
Lipids
Amino Acids
Other
Ingredients
"CRIPPS PINK APPLE JUICE, VITAMIN C." Date available: 07/14/2017 Date last updated by company: 07/14/2017
