Source: USDA Branded Food Products Database Release December 2017 Software v.3.8.6.4 2017-10-02
Report Run at: December 17, 2017 12:03 EST
"Nutrient data for: 45108596, RAW 85% CACAO SINGLE ORIGIN PERU CHOCOLATE, UPC: 093573921827"
Food Group:  Branded Food Products Database
Common Name:

Nutrient,Unit,Data points,Std. Error,"29.0 g = 29.0g",1Value per 100 g,
Proximates
"Energy",kcal,--,--,130,448
"Protein",g,--,--,3.00,10.34
"Total lipid (fat)",g,--,--,9.00,31.03
"Carbohydrate, by difference",g,--,--,15.00,51.72
"Fiber, total dietary",g,--,--,7.0,24.1
"Sugars, total",g,--,--,6.00,20.69
Minerals
"Calcium, Ca",mg,--,--,0,0
"Iron, Fe",mg,--,--,0.18,0.62
"Sodium, Na",mg,--,--,30,103
Vitamins
"Vitamin C, total ascorbic acid",mg,--,--,0.0,0.0
"Vitamin A, IU",IU,--,--,0,0
Lipids
"Fatty acids, total saturated",g,--,--,5.000,17.240
"Fatty acids, total trans",g,--,--,0.000,0.000
"Cholesterol",mg,--,--,0,0
Amino Acids
Other
Ingredients
"ORGANIC RAW CACAO BEANS*, ORGANIC COCONUT PALM SUGAR*." Date available: 11/09/2016 Date last updated by company: 11/09/2016
