Source: USDA Branded Food Products Database Release December 2017 Software v.3.8.6.4 2017-10-02
Report Run at: December 17, 2017 12:19 EST
"Nutrient data for: 45213028, RAW SHRIMP, UPC: 8904073310047"
Food Group:  Branded Food Products Database
Common Name:

Nutrient,Unit,Data points,Std. Error,"5.0 SHRIMP) | (ABOUT = 112.0g",1Value per 100 g,
Proximates
"Energy",kcal,--,--,120,107
"Protein",g,--,--,23.00,20.54
"Total lipid (fat)",g,--,--,2.00,1.79
"Carbohydrate, by difference",g,--,--,1.00,0.89
"Fiber, total dietary",g,--,--,0.0,0.0
"Sugars, total",g,--,--,0.00,0.00
Minerals
"Calcium, Ca",mg,--,--,60,54
"Iron, Fe",mg,--,--,2.05,1.83
"Sodium, Na",mg,--,--,190,170
Vitamins
"Vitamin C, total ascorbic acid",mg,--,--,1.8,1.6
"Vitamin A, IU",IU,--,--,152,136
Lipids
"Fatty acids, total saturated",g,--,--,0.000,0.000
"Fatty acids, total trans",g,--,--,0.000,0.000
"Cholesterol",mg,--,--,150,134
Amino Acids
Other
Ingredients
"SHRIMP, SALT SODIUM TRIPOLYPHOSPHATE (TO RETAIN MOISTURE)" Date available: 07/14/2017 Date last updated by company: 07/14/2017
