Source: USDA Branded Food Products Database Release December 2017 Software v.3.8.6.4 2017-10-02
Report Run at: December 17, 2017 12:25 EST
"Nutrient data for: 45062715, RAW WILDFLOWER HONEY, UPC: 085239209929"
Food Group:  Branded Food Products Database
Common Name:

Nutrient,Unit,Data points,Std. Error,"1 Tbsp = 21.0g",1Value per 100 g,
Proximates
"Energy",kcal,--,--,60,286
"Protein",g,--,--,0.00,0.00
"Total lipid (fat)",g,--,--,0.00,0.00
"Carbohydrate, by difference",g,--,--,17.00,80.95
"Sugars, total",g,--,--,17.00,80.95
Minerals
"Sodium, Na",mg,--,--,0,0
Vitamins
Lipids
Amino Acids
Other
Ingredients
"HONEY" Date last updated by company: 02/06/2016
