Source: USDA Branded Food Products Database Release December 2017 Software v.3.8.6.4 2017-10-02
Report Run at: December 17, 2017 12:18 EST
"Nutrient data for: 45185559, RAW SHRIMP, UPC: 780526239541"
Food Group:  Branded Food Products Database
Common Name:

Nutrient,Unit,Data points,Std. Error,"4.0 ONZ = 113.0g",1Value per 100 g,
Proximates
"Energy",kcal,--,--,66,58
"Protein",g,--,--,16.00,14.16
"Total lipid (fat)",g,--,--,0.00,0.00
"Carbohydrate, by difference",g,--,--,0.00,0.00
"Fiber, total dietary",g,--,--,0.0,0.0
"Sugars, total",g,--,--,0.00,0.00
Minerals
"Calcium, Ca",mg,--,--,20,18
"Iron, Fe",mg,--,--,0.00,0.00
"Sodium, Na",mg,--,--,600,531
Vitamins
"Vitamin C, total ascorbic acid",mg,--,--,0.0,0.0
"Vitamin A, IU",IU,--,--,0,0
Lipids
"Fatty acids, total saturated",g,--,--,0.000,0.000
"Fatty acids, total trans",g,--,--,0.000,0.000
"Cholesterol",mg,--,--,125,111
Amino Acids
Other
Ingredients
"FARM RAISED SHRIMP (LITOPENAEUS VANNAME), SODIUM TRIPOLYPHOSPHATE, SALT." Date available: 07/14/2017 Date last updated by company: 07/14/2017
