Source: USDA Branded Food Products Database Release December 2017 Software v.3.8.6.4 2017-10-02
Report Run at: December 17, 2017 12:04 EST
"Nutrient data for: 45120927, RAW CHERRIES BERRIES & NUTS, UPC: 788709277526"
Food Group:  Branded Food Products Database
Common Name:

Nutrient,Unit,Data points,Std. Error,"0.25 CUP | ABOUT = 28.0g",1Value per 100 g,
Proximates
"Energy",kcal,--,--,140,500
"Protein",g,--,--,3.00,10.71
"Total lipid (fat)",g,--,--,9.00,32.14
"Carbohydrate, by difference",g,--,--,14.00,50.00
"Fiber, total dietary",g,--,--,2.0,7.1
"Sugars, total",g,--,--,9.00,32.14
Minerals
"Calcium, Ca",mg,--,--,20,71
"Iron, Fe",mg,--,--,1.29,4.59
"Sodium, Na",mg,--,--,0,0
Vitamins
"Vitamin C, total ascorbic acid",mg,--,--,2.2,7.7
"Vitamin A, IU",IU,--,--,179,638
Lipids
"Fatty acids, total saturated",g,--,--,1.000,3.570
"Fatty acids, total trans",g,--,--,0.000,0.000
"Cholesterol",mg,--,--,0,0
Amino Acids
Other
Ingredients
"CRANBERRIES (SUGAR, SUNFLOWER OIL), CASHEWS, ALMONDS, PECANS, CHERRIES (SUGAR, SUNFLOWER OIL)." Date available: 07/14/2017 Date last updated by company: 07/14/2017
