Source: USDA Branded Food Products Database Release December 2017 Software v.3.8.6.4 2017-10-02
Report Run at: December 17, 2017 12:27 EST
"Nutrient data for: 45038004, READ, 4 BEAN SALAD, UPC: 070672751500"
Food Group:  Branded Food Products Database
Common Name:

Nutrient,Unit,Data points,Std. Error,"0.33 cup = 85.0g",1Value per 100 g,
Proximates
"Energy",kcal,--,--,60,71
"Protein",g,--,--,1.00,1.18
"Total lipid (fat)",g,--,--,0.00,0.00
"Carbohydrate, by difference",g,--,--,13.00,15.29
"Fiber, total dietary",g,--,--,2.0,2.4
"Sugars, total",g,--,--,8.00,9.41
Minerals
"Calcium, Ca",mg,--,--,20,24
"Iron, Fe",mg,--,--,1.19,1.40
"Potassium, K",mg,--,--,90,106
"Sodium, Na",mg,--,--,300,353
Vitamins
"Vitamin C, total ascorbic acid",mg,--,--,4.0,4.7
"Vitamin A, IU",IU,--,--,0,0
Lipids
"Fatty acids, total saturated",g,--,--,0.000,0.000
"Fatty acids, total trans",g,--,--,0.000,0.000
"Cholesterol",mg,--,--,0,0
Amino Acids
Other
Ingredients
"GREEN BEANS, WATER, WAX BEANS, KIDNEY BEANS, GARBANZO BEANS, SUGAR, DISTILLED VINEGAR, DEHYDRATED ONIONS, RED PEPPERS, SALT, SOYBEAN OIL, TURMERIC" Date available: 06/24/2017 Date last updated by company: 06/24/2017
