Source: USDA Branded Food Products Database Release December 2017 Software v.3.8.6.4 2017-10-02
Report Run at: December 17, 2017 12:41 EST
"Nutrient data for: 45283806, REAL ICE CREAM, UPC: 041130612817"
Food Group:  Branded Food Products Database
Common Name:

Nutrient,Unit,Data points,Std. Error,"0.5 cup = 65.0g",1Value per 100 g,
Proximates
"Energy",kcal,--,--,120,185
"Protein",g,--,--,2.00,3.08
"Total lipid (fat)",g,--,--,6.00,9.23
"Carbohydrate, by difference",g,--,--,16.00,24.62
"Fiber, total dietary",g,--,--,0.0,0.0
"Sugars, total",g,--,--,11.00,16.92
Minerals
"Calcium, Ca",mg,--,--,80,123
"Iron, Fe",mg,--,--,0.00,0.00
"Sodium, Na",mg,--,--,45,69
Vitamins
"Vitamin C, total ascorbic acid",mg,--,--,4.0,6.2
"Vitamin A, IU",IU,--,--,225,346
Lipids
"Fatty acids, total saturated",g,--,--,3.497,5.380
"Fatty acids, total trans",g,--,--,0.000,0.000
"Cholesterol",mg,--,--,25,38
Amino Acids
Other
Ingredients
"MILKFAT AND NONFAT MILK, SWEET CREAM BUTTERMILK, STRAWBERRIES (STRAWBERRIES, SUGAR, CORN STARCH-MODIFIED, CITRIC ACID), SUGAR, CORN SYRUP, HIGH FRUCTOSE CORN SYRUP, WHEY, CITRIC ACID, NATURAL FLAVORS, MONO AND DIGLYCERIDES, GUAR GUM, CALCIUM SULFATE, CAROB BEAN GUM, RED 40, CARRAGEENAN." Date available: 07/14/2017 Date last updated by company: 07/14/2017
