Source: USDA Branded Food Products Database Release December 2017 Software v.3.8.6.4 2017-10-02
Report Run at: December 17, 2017 12:42 EST
"Nutrient data for: 45120814, REALLY CHUNKY DILLS WITH GARLIC, UPC: 032063107013"
Food Group:  Branded Food Products Database
Common Name:

Nutrient,Unit,Data points,Std. Error,"2.0 CHUNKS | ABOUT = 28.0g",1Value per 100 g,
Proximates
"Energy",kcal,--,--,0,0
"Protein",g,--,--,0.00,0.00
"Total lipid (fat)",g,--,--,0.00,0.00
"Carbohydrate, by difference",g,--,--,1.00,3.57
"Sugars, total",g,--,--,0.00,0.00
Minerals
"Sodium, Na",mg,--,--,350,1250
Vitamins
Lipids
Amino Acids
Other
Ingredients
"CUCUMBERS, WATER, SALT, VINEGAR, GARLIC, ALUM, NATURAL FLAVOR, SPICES, TUMERIC, AND, 1/10 OF 1% SODIUM BENZOATE AS A PRESERVATIVE." Date available: 07/14/2017 Date last updated by company: 07/14/2017
