Source: USDA Branded Food Products Database Release December 2017 Software v.3.8.6.4 2017-10-02
Report Run at: December 17, 2017 12:36 EST
"Nutrient data for: 45173058, REAL FOODS, BEAN DIP PLATTER WITH SALSA, UPC: 030223012573"
Food Group:  Branded Food Products Database
Common Name:

Nutrient,Unit,Data points,Std. Error,"0.25 cup = 57.0g",1Value per 100 g,
Proximates
"Energy",kcal,--,--,80,140
"Protein",g,--,--,4.00,7.02
"Total lipid (fat)",g,--,--,3.00,5.26
"Carbohydrate, by difference",g,--,--,10.00,17.54
"Fiber, total dietary",g,--,--,2.0,3.5
"Sugars, total",g,--,--,1.00,1.75
Minerals
"Calcium, Ca",mg,--,--,40,70
"Iron, Fe",mg,--,--,0.63,1.11
"Sodium, Na",mg,--,--,170,298
Vitamins
"Vitamin C, total ascorbic acid",mg,--,--,2.1,3.7
"Vitamin A, IU",IU,--,--,263,461
Lipids
"Fatty acids, total saturated",g,--,--,0.000,0.000
"Fatty acids, total trans",g,--,--,0.000,0.000
"Cholesterol",mg,--,--,0,0
Amino Acids
Other
Ingredients
"REFRIED BEANS (PINTO BEANS, WATER, CANOLA OIL, PAPRIKA, SALT, DRIED GARLIC), TOMATOES, TOMATO SAUCE (TOMATO CONCENTRATE [WATER, TOMATO PASTE], WATER, SALT, CITRIC ACID, RED BELL PEPPER POWDER, DEXTROSE, SPICES, NATURAL FLAVOR), CHEDDAR CHEESE (PASTEURIZED MILK, CHEESE CULTURES, SALT, ENZYMES, ANNATTO [COLOR], POTATO STARCH, CORN STARCH AND POWDERED CELLULOSE [TO PREVENT CAKING], NATAMYCIN [A NATURAL MOLD INHIBITOR]), GREEN ONION, SOUR CREAM (CULTURED MILK AND CREAM, WHEY, MODIFIED FOOD STARCH, SODIUM PHOSPHATE, GUAR GUM, CARAGEENAN, CALCIUM SULFATE, POTASSIUM SORBATE, AND LOCUST BEAN GUM), LIME JUICE, BLACK OLIVES (RIPE OLIVES, WATER, SALT AND FERROUS GLUCONATE [ADDED TO STABILIZE COLOR]), PEPPERONCINI (PEPPERS, WATER, SALT, VINEGAR, CITRIC ACID, SODIUM BISULFITE [TO ENHANCE COLOR], SODIUM BENZOATE, FD&C YELLOW NO.5), RED ONION, TOMATILLO, JALAPENO PEPPERS, CILANTRO, SALT, BLACK PEPPER, GARLIC." Date available: 09/27/2017 Date last updated by company: 09/27/2017
