Source: USDA Branded Food Products Database Release December 2017 Software v.3.8.6.4 2017-10-02
Report Run at: December 17, 2017 12:37 EST
"Nutrient data for: 45257081, REAL FOODS, POT PIE WITH WHITE MEAT CHICKEN & CURRY SAUCE, UPC: 030223009276"
Food Group:  Branded Food Products Database
Common Name:

Nutrient,Unit,Data points,Std. Error,"1 cup = 232.0g",1Value per 100 g,
Proximates
"Energy",kcal,--,--,501,216
"Protein",g,--,--,17.01,7.33
"Total lipid (fat)",g,--,--,39.00,16.81
"Carbohydrate, by difference",g,--,--,20.00,8.62
"Fiber, total dietary",g,--,--,0.9,0.4
"Sugars, total",g,--,--,2.00,0.86
Minerals
"Calcium, Ca",mg,--,--,39,17
"Iron, Fe",mg,--,--,1.62,0.70
"Sodium, Na",mg,--,--,420,181
Vitamins
"Vitamin C, total ascorbic acid",mg,--,--,2.8,1.2
"Vitamin A, IU",IU,--,--,241,104
Lipids
"Fatty acids, total saturated",g,--,--,19.001,8.190
"Fatty acids, total trans",g,--,--,0.000,0.000
"Cholesterol",mg,--,--,70,30
Amino Acids
Other
Ingredients
"CURRY FILLING (WATER, COCONUT MILK [COCONUT CREAM, WATER, XANTHAN GUM {AS A THICKENING AGENT}], CHICKEN BREAST [CHICKEN BREASTS WITH RIB MEAT MAY CONTAIN UP TO 2% RETAINED WATER], POTATOES, CARROTS, ONIONS, DRY ROUX MIX [WHEAT FLOUR, MODIFIED CORNSTARCH, MALTODEXTRIN, CORN SYRUP SOLIDS, NATURAL BUTTER FLAVOR {WHEY, ENZYME MODIFIED BUTTER OIL, DEHYDRATED BUTTER, CORN SYRUP SOLIDS, SALT, GUAR GUM, ANNATTO, TURMENC), 2% OR LESS OF VEGETABLE OIL {PARTIALLY HYDORGENATED COCONUT OR PALM KERNEL, HYDROGENATED SOYBEAN}, AUTOLYZED YEAST EXTRACT, SODIUM SILICOALUMINATE, SODIUM CASEINATE {A MILK DERIVATIVE}, SUGAR, DIPOTASSIUM PHOSPHATE, ARTIFICIAL COLORS, ARTIFICIAL FLAVOR, MONO AND DIGLYCERIDES, DATEM], SUGAR, CHICKEN FLAVOR CONCENTRATE [CHICKEN BROTH, YEAST EXTRACT, EVAPORATED CANE JUICE, FLAVOR, CHICKEN FLAVOR, CHICKEN FAT, CORN STARCH, CELERY JUICE CONCENTRATE, CARROT JUICE CONCENTRATE, ONION JUICE CONCENTRATE, AND TURMENC], RED BELL PEPPERS, CURRY PASTE [RED CHILI PEPPER, GARLIC, SOYBEAN OIL, LEMONGRASS GALANGAL {THAI GINGER}, SALT, SHALLOT, SPICES, KAFFIR LIME], JALAPENO, POMACE OLIVE OIL [REFINED POMACE OLIVE OIL, EXTRA VIRGIN OIL], GARLIC, BLACK PEPPER, CILANTRO, CURRY POWDER [CONANDER, TURMENC, FENNEL SEED, SALT, CUMIN, CHILI FENUGREEK, GARLIC POWDER, CASSIA, CLOVES, CURRY LEAVES NAGKESAR, TNFALA]), PIE CRUST (ENRICHED FLOUR [WHEAT FLOUR NIACIN, REDUCED IRON, THIAMINE MONONITRATE, RIBOFLAVIN, FOLIC ACID], VEGETABLE SHORTENING [PALM OIL, SOYBEAN OIL], WATER, MALTODEXTRIN, CONTAINS 2% OR LESS OF EACH OF THE FOLLOWING: DEXTROSE, CORN SYRUP, SALT, NONFAT DRY MILK, CALCIUM." Date available: 07/14/2017 Date last updated by company: 07/14/2017
