Source: USDA Branded Food Products Database Release December 2017 Software v.3.8.6.4 2017-10-02
Report Run at: December 17, 2017 12:42 EST
"Nutrient data for: 45112086, REAL ITALIAN BREAD, UPC: 078700009142"
Food Group:  Branded Food Products Database
Common Name:

Nutrient,Unit,Data points,Std. Error,"2.0 SLICES = 45.0g",1Value per 100 g,
Proximates
"Energy",kcal,--,--,120,267
"Protein",g,--,--,5.00,11.11
"Total lipid (fat)",g,--,--,1.50,3.33
"Carbohydrate, by difference",g,--,--,21.00,46.67
"Fiber, total dietary",g,--,--,1.0,2.2
"Sugars, total",g,--,--,1.00,2.22
Minerals
"Calcium, Ca",mg,--,--,100,222
"Iron, Fe",mg,--,--,1.60,3.56
"Sodium, Na",mg,--,--,220,489
Vitamins
"Vitamin C, total ascorbic acid",mg,--,--,0.0,0.0
"Thiamin",mg,--,--,0.000,0.000
"Riboflavin",mg,--,--,0.113,0.252
"Niacin",mg,--,--,1.778,3.951
"Vitamin A, IU",IU,--,--,0,0
Lipids
"Fatty acids, total saturated",g,--,--,0.000,0.000
"Fatty acids, total monounsaturated",g,--,--,0.000,0.000
"Fatty acids, total polyunsaturated",g,--,--,0.500,1.110
"Fatty acids, total trans",g,--,--,0.000,0.000
"Cholesterol",mg,--,--,0,0
Amino Acids
Other
Ingredients
"ENRICHED WHEAT FLOUR [FLOUR, MALTED BARLEY FLOUR, REDUCED IRON, NIACIN, THIAMIN MONONITRATE (VITAMIN B1), RIBOFLAVIN (VITAMIN B2), FOLIC ACID], WATER, WHEAT GLUTEN, YEAST, HIGH FRUCTOSE CORN SYRUP, SOYBEAN OIL, SESAME SEEDS, SALT, POTATO FLOUR, CALCIUM SULFATE, MALT EXTRACT (CORN AND BARLEY), MONOGLYCERIDES, CALCIUM PROPIONATE (PRESERVATIVE), DATEM, GRAIN VINEGAR, MONOCALCIUM PHOSPHATE, CORNSTARCH, SOY LECITHIN, POTASSIUM IODATE." Date available: 07/14/2017 Date last updated by company: 07/14/2017
