Source: USDA Branded Food Products Database Release December 2017 Software v.3.8.6.4 2017-10-02
Report Run at: December 17, 2017 12:40 EST
"Nutrient data for: 45270351, REAL ICE CREAM, UPC: 041483037398"
Food Group:  Branded Food Products Database
Common Name:

Nutrient,Unit,Data points,Std. Error,"0.5 cup = 65.0g",1Value per 100 g,
Proximates
"Energy",kcal,--,--,130,200
"Protein",g,--,--,2.00,3.08
"Total lipid (fat)",g,--,--,6.00,9.23
"Carbohydrate, by difference",g,--,--,16.00,24.62
"Fiber, total dietary",g,--,--,0.0,0.0
"Sugars, total",g,--,--,14.00,21.54
Minerals
"Calcium, Ca",mg,--,--,80,123
"Iron, Fe",mg,--,--,0.00,0.00
"Sodium, Na",mg,--,--,50,77
Vitamins
"Vitamin C, total ascorbic acid",mg,--,--,0.0,0.0
"Vitamin A, IU",IU,--,--,225,346
Lipids
"Fatty acids, total saturated",g,--,--,3.998,6.150
"Fatty acids, total trans",g,--,--,0.000,0.000
"Cholesterol",mg,--,--,25,38
Amino Acids
Other
Ingredients
"MILKFAT AND NONFAT MILK, SWEET CREAM BUTTERMILK, SUGAR, HIGH FRUCTOSE CORN SYRUP, CORN SYRUP, WHEY, COCOA (PROCESSED WITH ALKALI), MONO AND DIGLYCERIDES, GUAR GUM, NATURAL AND ARTIFICIAL FLAVOR, CALCIUM SULFATE, LOCUST BEAN GUM, ANNATTO (COLOR), CARRAGEENAN." Date available: 07/14/2017 Date last updated by company: 07/14/2017
