Source: USDA Branded Food Products Database Release December 2017 Software v.3.8.6.4 2017-10-02
Report Run at: December 17, 2017 12:34 EST
"Nutrient data for: 45278371, REAL COCONUT WHIPPED TOPPING, UPC: 066013583534"
Food Group:  Branded Food Products Database
Common Name:

Nutrient,Unit,Data points,Std. Error,"2.0 Tbsp = 7.0g",1Value per 100 g,
Proximates
"Energy",kcal,--,--,15,214
"Protein",g,--,--,0.00,0.00
"Total lipid (fat)",g,--,--,1.00,14.29
"Carbohydrate, by difference",g,--,--,1.00,14.29
"Fiber, total dietary",g,--,--,0.0,0.0
"Sugars, total",g,--,--,1.00,14.29
Minerals
"Calcium, Ca",mg,--,--,0,0
"Iron, Fe",mg,--,--,0.00,0.00
"Sodium, Na",mg,--,--,0,0
Vitamins
"Vitamin C, total ascorbic acid",mg,--,--,0.0,0.0
"Vitamin A, IU",IU,--,--,0,0
Lipids
"Fatty acids, total saturated",g,--,--,1.000,14.290
"Fatty acids, total trans",g,--,--,0.000,0.000
"Cholesterol",mg,--,--,0,0
Amino Acids
Other
Ingredients
"COCONUT CREAM, WATER, GLUCOSE SYRUP, SUGAR, CONTAINS LESS THAN 2% OF THE FOLLOWING: MONO AND DIGLYCERIDES, CELLULOSE GEL, CARRAGEENAN, CELLULOSE GUM, XANTHAN GUM, NITROUS OXIDE (PROPELLANT)." Date available: 07/14/2017 Date last updated by company: 07/14/2017
