Source: USDA Branded Food Products Database Release December 2017 Software v.3.8.6.4 2017-10-02
Report Run at: December 17, 2017 12:35 EST
"Nutrient data for: 45233491, REAL FOOD BAR, UPC: 859445005008"
Food Group:  Branded Food Products Database
Common Name:

Nutrient,Unit,Data points,Std. Error,"1 BAR = 56.0g",1Value per 100 g,
Proximates
"Energy",kcal,--,--,280,500
"Protein",g,--,--,10.00,17.86
"Total lipid (fat)",g,--,--,20.00,35.71
"Carbohydrate, by difference",g,--,--,21.00,37.50
"Fiber, total dietary",g,--,--,4.0,7.1
"Sugars, total",g,--,--,15.00,26.79
Minerals
"Calcium, Ca",mg,--,--,60,107
"Iron, Fe",mg,--,--,1.93,3.44
"Sodium, Na",mg,--,--,210,375
Vitamins
"Vitamin C, total ascorbic acid",mg,--,--,2.6,4.6
"Vitamin A, IU",IU,--,--,0,0
Lipids
"Fatty acids, total saturated",g,--,--,3.002,5.360
"Fatty acids, total trans",g,--,--,0.000,0.000
"Cholesterol",mg,--,--,0,0
Amino Acids
Other
Ingredients
"INGREDIENTS (NON-GMO): HEMP*, COCONUT PALM SUGAR*, PUMPKIN SEED BUTTER*, SUNFLOWER SEED BUTTER*, HEMP*, CHIA*, WATER, FLAX MEAL*, COCONUT OIL*, CINNAMON*, SEA SALT, VANILLA EXTRACT*, ROSEMARY*." Date available: 07/14/2017 Date last updated by company: 07/14/2017
