Source: USDA Branded Food Products Database Release December 2017 Software v.3.8.6.4 2017-10-02
Report Run at: December 17, 2017 12:35 EST
"Nutrient data for: 45318431, REAL CRANBERRIES, UPC: 040000490968"
Food Group:  Branded Food Products Database
Common Name:

Nutrient,Unit,Data points,Std. Error,"0.25 CUP) | (ABOUT = 42.0g",1Value per 100 g,
Proximates
"Energy",kcal,--,--,200,476
"Protein",g,--,--,2.00,4.76
"Total lipid (fat)",g,--,--,10.00,23.81
"Carbohydrate, by difference",g,--,--,29.00,69.05
"Fiber, total dietary",g,--,--,2.0,4.8
"Sugars, total",g,--,--,25.00,59.52
Minerals
"Calcium, Ca",mg,--,--,40,95
"Iron, Fe",mg,--,--,0.43,1.02
"Sodium, Na",mg,--,--,10,24
Vitamins
"Vitamin C, total ascorbic acid",mg,--,--,1.4,3.4
"Vitamin A, IU",IU,--,--,100,238
Lipids
"Fatty acids, total saturated",g,--,--,6.002,14.290
"Fatty acids, total trans",g,--,--,0.000,0.000
"Cholesterol",mg,--,--,5,12
Amino Acids
Other
Ingredients
"SWEET CHOCOLATE (SUGAR, CHOCOLATE, CHOCOLATE PROCESSED WITH ALKALI, COCOA BUTTER, MILKFAT, SKIM MILK, LACTOSE, SOY LECITHIN, ARTIFICIAL AND NATURAL FLAVORS), CRANBERRIES, SUGAR, CONFECTIONERY GLAZE, MALTODEXTRIN, CORN SYRUP." Date available: 10/03/2017 Date last updated by company: 10/03/2017
