Source: USDA Branded Food Products Database Release December 2017 Software v.3.8.6.4 2017-10-02
Report Run at: December 17, 2017 12:36 EST
"Nutrient data for: 45173045, REAL FOODS, DIP, ARTICHOKE & JALAPENO, UPC: 030223009672"
Food Group:  Branded Food Products Database
Common Name:

Nutrient,Unit,Data points,Std. Error,"2.0 Tbsp = 32.0g",1Value per 100 g,
Proximates
"Energy",kcal,--,--,90,281
"Protein",g,--,--,2.00,6.25
"Total lipid (fat)",g,--,--,8.00,25.00
"Carbohydrate, by difference",g,--,--,2.00,6.25
"Fiber, total dietary",g,--,--,0.0,0.0
"Sugars, total",g,--,--,1.00,3.12
Minerals
"Calcium, Ca",mg,--,--,80,250
"Iron, Fe",mg,--,--,0.00,0.00
"Sodium, Na",mg,--,--,150,469
Vitamins
"Vitamin C, total ascorbic acid",mg,--,--,7.5,23.4
"Vitamin A, IU",IU,--,--,156,488
Lipids
"Fatty acids, total saturated",g,--,--,3.002,9.380
"Fatty acids, total trans",g,--,--,0.000,0.000
"Cholesterol",mg,--,--,15,47
Amino Acids
Other
Ingredients
"SOUR CREAM (CULTURED PASTEURIZED CREAM AND MILK, WHEY, MODIFIED CORN STARCH, SODIUM PHOSPHATE, GUAR GUM, CARRAGEENAN, CALCIUM SULFATE, CULTURED DEXTROSE, POTASSIUM SORBATE [AS PRESERVATIVE], LOCUS BEAN GUM), ARTICHOKE HEARTS (ARTICHOKE HEATS, WATER, SALT, CITRIC ACID), MAYONNAISE (SOYBEAN OIL, WATER, WHOLE EGGS, EGG YOLKS VINEGAR, SALT, SUGAR, LEMON JUICE, CALCIUM DISODIUM EDTA [USED TO PROTECT QUALITY], NATURAL FLAVORS), PARMESAN CHEESE (PASTEURIZED PART SKIM COW'S MILK, CHEESE CULTURE, SALT, ENZYMES [AGED OVER 10 MONTHS], AND CELLULOSE [TO PREVENT CAKING]), PARMESAN CHEESE (PASTEURIZED MILK, SALT, CHEESE CULTURE, ENZYMES, POWDERED CELLULOSE [TO PREVENT CAKING SORBIC ACID [AS A PRESERVATIVE]), JALAPENO PEPPER, LEMON JUICE, CULTURED DEXTROSE, GUAR GUM, POWDERED CELLULOSE." Date available: 07/14/2017 Date last updated by company: 07/14/2017
