Source: USDA Branded Food Products Database Release December 2017 Software v.3.8.6.4 2017-10-02
Report Run at: December 17, 2017 12:46 EST
"Nutrient data for: 45168420, REAL PICKLES, ORGANIC BEETS, UPC: 182108000073"
Food Group:  Branded Food Products Database
Common Name:

Nutrient,Unit,Data points,Std. Error,"2.0 Tbsp = 30.0g",1Value per 100 g,
Proximates
"Energy",kcal,--,--,5,17
"Protein",g,--,--,0.00,0.00
"Total lipid (fat)",g,--,--,0.00,0.00
"Carbohydrate, by difference",g,--,--,1.00,3.33
"Fiber, total dietary",g,--,--,0.0,0.0
Minerals
"Sodium, Na",mg,--,--,170,567
Vitamins
"Vitamin C, total ascorbic acid",mg,--,--,2.0,6.7
Lipids
Amino Acids
Other
Ingredients
"BEETS*+, FILTERED WATER, ONION*+, CABBAGE*+, UNREFINED SEA SALT, ROSEMARY*" Date available: 10/13/2017 Date last updated by company: 10/13/2017
