Source: USDA Branded Food Products Database Release December 2017 Software v.3.8.6.4 2017-10-02
Report Run at: December 17, 2017 12:33 EST
"Nutrient data for: 45318435, REAL CHERRIES DIPPED IN SILKY SMOOTH DOVE DARK CHOCOLATE, UPC: 040000491187"
Food Group:  Branded Food Products Database
Common Name:

Nutrient,Unit,Data points,Std. Error,"0.25 CUP | ABOUT = 42.0g",1Value per 100 g,
Proximates
"Energy",kcal,--,--,200,476
"Protein",g,--,--,2.00,4.76
"Total lipid (fat)",g,--,--,10.00,23.81
"Carbohydrate, by difference",g,--,--,28.00,66.67
"Fiber, total dietary",g,--,--,2.0,4.8
"Sugars, total",g,--,--,24.00,57.14
Minerals
"Calcium, Ca",mg,--,--,40,95
"Iron, Fe",mg,--,--,0.86,2.04
"Sodium, Na",mg,--,--,10,24
Vitamins
"Vitamin C, total ascorbic acid",mg,--,--,1.4,3.4
"Vitamin A, IU",IU,--,--,119,283
Lipids
"Fatty acids, total saturated",g,--,--,6.002,14.290
"Fatty acids, total trans",g,--,--,0.000,0.000
"Cholesterol",mg,--,--,5,12
Amino Acids
Other
Ingredients
"SWEET CHOCOLATE (SUGAR, CHOCOLATE, CHOCOLATE PROCESSED WITH ALKALI, COCOA BUTTER, MILKFAT, SKIM MILK, LACTOSE, SOY LECITHIN, ARTIFICIAL AND NATURAL FLAVORS), CHERRIES, SUGAR, CONFECTIONERY GLAZE, MALTODEXTRIN, CORN SYRUP, MALIC ACID." Date available: 07/14/2017 Date last updated by company: 07/14/2017
