Source: USDA Branded Food Products Database Release December 2017 Software v.3.8.6.4 2017-10-02
Report Run at: December 17, 2017 12:49 EST
"Nutrient data for: 45050983, REAL VEGETABLE CHIPS, UPC: 728229139843"
Food Group:  Branded Food Products Database
Common Name:

Nutrient,Unit,Data points,Std. Error,"14.0 CHIPS | ABOUT = 28.0g",1Value per 100 g,
Proximates
"Energy",kcal,--,--,150,536
"Protein",g,--,--,1.00,3.57
"Total lipid (fat)",g,--,--,9.00,32.14
"Carbohydrate, by difference",g,--,--,16.00,57.14
"Fiber, total dietary",g,--,--,2.0,7.1
"Sugars, total",g,--,--,3.00,10.71
Minerals
"Calcium, Ca",mg,--,--,20,71
"Iron, Fe",mg,--,--,0.64,2.29
"Sodium, Na",mg,--,--,115,411
Vitamins
"Vitamin C, total ascorbic acid",mg,--,--,8.6,30.6
"Vitamin A, IU",IU,--,--,357,1275
Lipids
"Fatty acids, total saturated",g,--,--,0.501,1.790
"Fatty acids, total trans",g,--,--,0.000,0.000
"Cholesterol",mg,--,--,0,0
Amino Acids
Other
Ingredients
"A SEASONAL MIX OF ROOT VEGETABLES (TARO, SWEET POTATO, BATATA, YUCA, PARSNIP), EXPELLER PRESSED CANOLA OIL AND/OR SAFFLOWER OIL AND/OR SUNFLOWER OIL, SEA SALT, BEET JUICE CONCENTRATE (FOR COLOR)." Date available: 06/25/2017 Date last updated by company: 06/25/2017
