Source: USDA Branded Food Products Database Release December 2017 Software v.3.8.6.4 2017-10-02
Report Run at: December 17, 2017 12:40 EST
"Nutrient data for: 45277525, REAL ICE CREAM, UPC: 688267112485"
Food Group:  Branded Food Products Database
Common Name:

Nutrient,Unit,Data points,Std. Error,"0.5 cup = 68.0g",1Value per 100 g,
Proximates
"Energy",kcal,--,--,150,221
"Protein",g,--,--,2.00,2.94
"Total lipid (fat)",g,--,--,8.00,11.76
"Carbohydrate, by difference",g,--,--,18.00,26.47
"Fiber, total dietary",g,--,--,0.0,0.0
"Sugars, total",g,--,--,14.00,20.59
Minerals
"Calcium, Ca",mg,--,--,80,118
"Iron, Fe",mg,--,--,0.00,0.00
"Sodium, Na",mg,--,--,45,66
Vitamins
"Vitamin C, total ascorbic acid",mg,--,--,0.0,0.0
"Vitamin A, IU",IU,--,--,337,496
Lipids
"Fatty acids, total saturated",g,--,--,4.998,7.350
"Fatty acids, total trans",g,--,--,0.000,0.000
"Cholesterol",mg,--,--,45,66
Amino Acids
Other
Ingredients
"SKIM MILK, CREAM, SUGAR, CORN SYRUP, HIGH FRUCTOSE CORN SYRUP, WHEY, EGGS, CONTAINS 2% OR LESS OF: MONO- AND DIGLYCERIDES, GUAR GUM, CALCIUM SULFATE, LOCUST BEAN GUM, CARRAGEENAN, VANILLA EXTRACT WITH GROUND VANILLA BEAN SPECKS, TURMERIC COLOR." Date available: 07/14/2017 Date last updated by company: 07/14/2017
