Source: USDA Branded Food Products Database Release December 2017 Software v.3.8.6.4 2017-10-02
Report Run at: December 17, 2017 12:50 EST
"Nutrient data for: 45257767, REAPER SLING BLADE HOT SAUCE, UPC: 647293004966"
Food Group:  Branded Food Products Database
Common Name:

Nutrient,Unit,Data points,Std. Error,"0.2 ONZ = 5.0g",1Value per 100 g,
Proximates
"Energy",kcal,--,--,0,0
"Protein",g,--,--,0.00,0.00
"Total lipid (fat)",g,--,--,0.00,0.00
"Carbohydrate, by difference",g,--,--,2.00,40.00
"Fiber, total dietary",g,--,--,1.0,20.0
"Sugars, total",g,--,--,1.00,20.00
Minerals
"Calcium, Ca",mg,--,--,0,0
"Iron, Fe",mg,--,--,0.36,7.20
"Sodium, Na",mg,--,--,20,400
Vitamins
"Vitamin C, total ascorbic acid",mg,--,--,1.2,24.0
"Vitamin A, IU",IU,--,--,0,0
Lipids
"Fatty acids, total saturated",g,--,--,0.000,0.000
"Fatty acids, total trans",g,--,--,0.000,0.000
"Cholesterol",mg,--,--,0,0
Amino Acids
Other
Ingredients
"CHILE PEPPERS (CAROLINA REAPER, BHUT JOLOKIA), APPLE CIDER VINEGAR, DISTILLED VINEGAR, TOAMATO PASTE, LEMON JUICE, ONION, GARLIC, SALT, SPICES." Date available: 08/11/2017 Date last updated by company: 08/11/2017
