Source: USDA Branded Food Products Database Release December 2017 Software v.3.8.6.4 2017-10-02
Report Run at: December 17, 2017 12:51 EST
"Nutrient data for: 45149846, REBELLION, BEAN CRISPS, CHA-CHA CHILI, UPC: 810607020758"
Food Group:  Branded Food Products Database
Common Name:

Nutrient,Unit,Data points,Std. Error,"1 ONZ = 28.0g",1Value per 100 g,
Proximates
"Energy",kcal,--,--,110,393
"Protein",g,--,--,4.00,14.29
"Total lipid (fat)",g,--,--,4.00,14.29
"Carbohydrate, by difference",g,--,--,17.00,60.71
"Fiber, total dietary",g,--,--,3.0,10.7
"Sugars, total",g,--,--,1.00,3.57
Minerals
"Calcium, Ca",mg,--,--,0,0
"Iron, Fe",mg,--,--,1.93,6.88
"Sodium, Na",mg,--,--,150,536
Vitamins
"Vitamin C, total ascorbic acid",mg,--,--,0.0,0.0
"Vitamin A, IU",IU,--,--,357,1275
Lipids
"Fatty acids, total saturated",g,--,--,0.000,0.000
"Fatty acids, total monounsaturated",g,--,--,2.999,10.710
"Fatty acids, total polyunsaturated",g,--,--,0.000,0.000
"Fatty acids, total trans",g,--,--,0.000,0.000
"Cholesterol",mg,--,--,0,0
Amino Acids
Other
Ingredients
"BEANS( GREEN SPLIT PEA, YELLOW SPLIT PEA. BLACK BEAN). NON-GMO YELLOW CORN, TOPICAL SEASONING { TAPIOCA MALTODEXTRIN, SPICES (INCLUDING ANCHO CHILE PEPPER POWDER), EVAPORATED CANE JUICE, SEA SALT, TOMATO POWDER, GARLIC POWDER, ONION POWDER, GREEN BELL PEPPER POWDER, DEHYDRATED GREEN ONION, EXTRACTIVES OF PAPRIKA MALIC ACID, NATURAL FLAVOR}, AND SUNFLOWER OIL." Date available: 07/14/2017 Date last updated by company: 07/14/2017
