Source: USDA Branded Food Products Database Release December 2017 Software v.3.8.6.4 2017-10-02
Report Run at: December 17, 2017 13:56 EST
"Nutrient data for: 45067143, RED & WHITE, STUFFING MIX, CHICKEN, UPC: 050700003467"
Food Group:  Branded Food Products Database
Common Name:

Nutrient,Unit,Data points,Std. Error,"1 oz = 28.0g",1Value per 100 g,
Proximates
"Energy",kcal,--,--,110,393
"Protein",g,--,--,3.00,10.71
"Total lipid (fat)",g,--,--,1.00,3.57
"Carbohydrate, by difference",g,--,--,21.00,75.00
"Fiber, total dietary",g,--,--,0.0,0.0
"Sugars, total",g,--,--,2.00,7.14
Minerals
"Calcium, Ca",mg,--,--,0,0
"Iron, Fe",mg,--,--,1.44,5.14
"Sodium, Na",mg,--,--,390,1393
Vitamins
"Vitamin C, total ascorbic acid",mg,--,--,0.0,0.0
"Vitamin A, IU",IU,--,--,0,0
Lipids
"Fatty acids, total saturated",g,--,--,0.000,0.000
"Fatty acids, total trans",g,--,--,0.000,0.000
"Cholesterol",mg,--,--,0,0
Amino Acids
Other
Ingredients
"BREAD CRUMBS (ENRICHED FLOUR [WHEAT FLOUR, NIACIN, IRON, THIAMINE MONONITRATE, RIBOFLAVIN, FOLIC ACID], HIGH FRUCTOSE CORN SYRUP, CONTAINS 2% OR LESS OF EACH OF THE FOLLOWING: PARTIALLY HYDROGENATED VEGETABLE OIL [SOYBEAN AND/OR COTTONSEED OIL], SALT, COLOR [CARAMEL], NATURAL FLAVOR, YEAST, PRESERVATIVE [CALCIUM PROPIONATE], SOY LECITHIN, SOY FLOUR), MALTODEXTRIN, DEHYDRATED ONION, HYDROLYZED CORN AND SOY AND WHEAT PROTEIN, DEHYDRATED CELERY, SPICE SALT, AUTOLYZED YEAST EXTRACT, SUGAR, POTASSIUM CHLORIDE, COLOR (CARAMEL, TURMERIC), DEHYDRATED GARLIC, CALCIUM SILICATE, CORN STARCH, SOY FLOUR, CHICKEN FAT, CITRIC ACID, CHICKEN BROTH, DISODIUM INOSINATE, DISODIUM GUANYLATE, GELATIN, MODIFIED CORN STARCH, DEHYDRATED CHICKEN, NATURAL FLAVOR." Date available: 09/23/2016 Date last updated by company: 09/23/2016
