Source: USDA Branded Food Products Database Release December 2017 Software v.3.8.6.4 2017-10-02
Report Run at: December 17, 2017 13:13 EST
"Nutrient data for: 45003811, RED HOTS MEATS, UPC: 025325120172"
Food Group:  Branded Food Products Database
Common Name:

Nutrient,Unit,Data points,Std. Error,"1 LINK = 65.0g",1Value per 100 g,
Proximates
"Energy",kcal,--,--,180,277
"Protein",g,--,--,8.00,12.31
"Total lipid (fat)",g,--,--,15.00,23.08
"Carbohydrate, by difference",g,--,--,3.00,4.62
"Fiber, total dietary",g,--,--,0.0,0.0
"Sugars, total",g,--,--,1.00,1.54
Minerals
"Calcium, Ca",mg,--,--,60,92
"Iron, Fe",mg,--,--,0.92,1.41
"Sodium, Na",mg,--,--,670,1031
Vitamins
"Vitamin C, total ascorbic acid",mg,--,--,3.1,4.7
"Vitamin A, IU",IU,--,--,339,521
Lipids
"Fatty acids, total saturated",g,--,--,4.998,7.690
"Fatty acids, total trans",g,--,--,0.000,0.000
"Cholesterol",mg,--,--,60,92
Amino Acids
Other
Ingredients
"MECHANICALLY SEPARATED, CHICKEN, BEEF, PORK, WATER, SALT, CORN SYRUP SOLIDS, FLAVORINGS, DEXTROSE, PAPRIKA, SODIUM ERYTHORBATE, SODIUM NITRITE, COLLAGEN CASING." Date available: 09/06/2017 Date last updated by company: 09/06/2017
