Source: USDA Branded Food Products Database Release December 2017 Software v.3.8.6.4 2017-10-02
Report Run at: December 17, 2017 13:10 EST
"Nutrient data for: 45236393, RED GRAPE JUICE, UPC: 041497446568"
Food Group:  Branded Food Products Database
Common Name:

Nutrient,Unit,Data points,Std. Error,"8.0 OZA = 240.0g",1Value per 100 g,
Proximates
"Energy",kcal,--,--,139,58
"Protein",g,--,--,1.01,0.42
"Total lipid (fat)",g,--,--,0.00,0.00
"Carbohydrate, by difference",g,--,--,34.01,14.17
"Sugars, total",g,--,--,34.01,14.17
Minerals
"Sodium, Na",mg,--,--,41,17
Vitamins
Lipids
"Fatty acids, total saturated",g,--,--,0.000,0.000
Amino Acids
Other
Ingredients
"PASTEURIZED GRAPE JUICE AND GRAPE JUICE FROM CONCENTRATE, CARBON DIOXIDE, POTASSIUM METABISULFATE AND POTASSIUM SORBATE TO MAINTAIN FRESHNESS." Date available: 06/25/2017 Date last updated by company: 06/25/2017
