Source: USDA Branded Food Products Database Release December 2017 Software v.3.8.6.4 2017-10-02
Report Run at: December 17, 2017 13:52 EST
"Nutrient data for: 45211625, RED VELVET CHEESECAKE, UPC: 5051379077532"
Food Group:  Branded Food Products Database
Common Name:

Nutrient,Unit,Data points,Std. Error,"0.167 SLICE = 104.0g",1Value per 100 g,
Proximates
"Energy",kcal,--,--,360,346
"Protein",g,--,--,5.00,4.81
"Total lipid (fat)",g,--,--,22.00,21.15
"Carbohydrate, by difference",g,--,--,34.00,32.69
"Fiber, total dietary",g,--,--,1.0,1.0
"Sugars, total",g,--,--,27.00,25.96
Minerals
"Calcium, Ca",mg,--,--,20,19
"Iron, Fe",mg,--,--,0.86,0.83
"Sodium, Na",mg,--,--,210,202
Vitamins
"Vitamin C, total ascorbic acid",mg,--,--,0.0,0.0
"Vitamin A, IU",IU,--,--,601,578
Lipids
"Fatty acids, total saturated",g,--,--,13.000,12.500
"Fatty acids, total trans",g,--,--,0.000,0.000
"Cholesterol",mg,--,--,90,87
Amino Acids
Other
Ingredients
"CREAM CHEESE [CULTURED PASTEURIZED MILK, CREAM, SALT, STABILIZER (XANTHAN GUM, CAROB BEAN GUM, GUAR GUM)], SUGAR, EGGS, SOUR CREAM (CULTURED PASTEURIZED MILK, CREAM, NONFAT MILK, RENNET), GRAHAM CRUMB [ENRICHED WHEAT FLOUR (WHEAT FLOUR, NIACIN, REDUCED IRON, THIAMIN MONONITRATE, RIBOFLAVIN, FOLIC ACID), GRAHAM FLOUR, SUGAR, PALM OIL, BROWN SUGAR, HONEY, SALT, BAKING SODA, NATURAL FLAVOR], CHOCOLATE CRUMB (WHEAT FLOUR, SUGAR, PALM OIL, COCOA, HONEY, CHOCOLATE LIQUOR, SODIUM BICARBONATE, SALT, WHEY, SOY LECITHIN), PALM OIL, RED COLOR (WATER, PROPYLENE GLYCOL, RED NO. 3, RED NO. 40, YELLOW NO. 6), CANOLA OIL, ENRICHED WHEAT FLOUR (BLEACHED WHEAT FLOUR, NIACIN, REDUCED IRON, THIAMIN MONONITRATE, RIBOFLAVIN, FOLIC ACID), BUTTER (CREAM, NATURAL FLAVOR), CORN STARCH, WATER, RED VELVET FLAVOR (NATURAL FLAVOR, ARTIFICIAL FLAVOR), LOCUST BEAN GUM, XANTHAN GUM, COCOA POWDER, DISTILLED VINEGAR, VANILLA EXTRACT, BAKING SODA, CONTAINS 1% OR LESS OF: CANOLA OIL, SOY LECITHIN, WHEAT STARCH, NATURAL BUTTER FLAVOR, BETA-CAROTENE, BAKING POWDER (SODIUM BICARBONATE, CORN STARCH, SODIUM ALUMINUM SULFATE, CALCIUM SULFATE, MONOCALCIUM PHOSPHATE), SALT, POTASSIUM SORBATE, SODIUM BENZOATE." Date available: 07/14/2017 Date last updated by company: 07/14/2017
