Source: USDA Branded Food Products Database Release December 2017 Software v.3.8.6.4 2017-10-02
Report Run at: December 17, 2017 13:55 EST
"Nutrient data for: 45290361, RED, WHITE AND BLUE CAKES, UPC: 024300045042"
Food Group:  Branded Food Products Database
Common Name:

Nutrient,Unit,Data points,Std. Error,"2.0 CAKES = 75.0g",1Value per 100 g,
Proximates
"Energy",kcal,--,--,350,467
"Protein",g,--,--,2.00,2.67
"Total lipid (fat)",g,--,--,17.00,22.67
"Carbohydrate, by difference",g,--,--,47.00,62.67
"Fiber, total dietary",g,--,--,0.0,0.0
"Sugars, total",g,--,--,35.00,46.67
Minerals
"Calcium, Ca",mg,--,--,0,0
"Iron, Fe",mg,--,--,0.53,0.70
"Potassium, K",mg,--,--,60,80
"Sodium, Na",mg,--,--,170,227
Vitamins
"Vitamin C, total ascorbic acid",mg,--,--,0.0,0.0
"Vitamin A, IU",IU,--,--,0,0
Lipids
"Fatty acids, total saturated",g,--,--,9.000,12.000
"Fatty acids, total monounsaturated",g,--,--,3.998,5.330
"Fatty acids, total polyunsaturated",g,--,--,2.498,3.330
"Fatty acids, total trans",g,--,--,0.000,0.000
"Cholesterol",mg,--,--,0,0
Amino Acids
Other
Ingredients
"SUGAR, CORN SYRUP, PALM AND PALM KERNEL OIL, WATER, ENRICHED BLEACHED FLOUR (WHEAT FLOUR, BARLEY MALT, NIACIN, REDUCED IRON, THIAMIN MONONITRATE [VITAMIN B1], RIBOFLAVIN [VITAMIN B2], FOLIC ACID), PALM AND SOYBEAN OILS WITH TBHQ AND CITRIC ACID TO PROTECT FLAVOR, SOYBEAN OIL, DEXTROSE. CONTAINS 2% OR LESS OF EACH OF THE FOLLOWING: COCOA PROCESSED WITH ALKALI, CORN STARCH, EGG WHITES, TOPPERS (SUGAR, RICE FLOUR, PALM AND/OR PALM KERNEL OIL, CONFECTIONER'S GLAZE, GUM ARABIC, CELLULOSE GUM, CARRAGEENAN, BLUE 1, BLUE 2 LAKE, SOY LECITHIN, ARTIFICIAL FLAVOR), COCOA, EGGS, BAKING SODA, SALT, MONO- AND DIGLYCERIDES, SORBIC ACID (TO PRESERVE FRESHNESS), SOY LECITHIN, SORBITAN MONOSTEARATE, NATURAL AND ARTIFICIAL FLAVORS, SODIUM STEAROYL LACTYLATE, PROPYLENE GLYCOL MONOSTEARATE, POLYSORBATE 60, PLOYSORBATE 80, WHEY (MILK), ARTIFICIAL COLORS (INCLUDES RED 40 LAKE), SOY FLOUR." Date available: 07/14/2017 Date last updated by company: 07/14/2017
