Source: USDA Branded Food Products Database Release December 2017 Software v.3.8.6.4 2017-10-02
Report Run at: December 17, 2017 13:29 EST
"Nutrient data for: 45270498, RED SKIN POTATO SALAD, UPC: 035826069337"
Food Group:  Branded Food Products Database
Common Name:

Nutrient,Unit,Data points,Std. Error,"0.5 cup = 140.0g",1Value per 100 g,
Proximates
"Energy",kcal,--,--,230,164
"Protein",g,--,--,4.00,2.86
"Total lipid (fat)",g,--,--,16.00,11.43
"Carbohydrate, by difference",g,--,--,20.01,14.29
"Fiber, total dietary",g,--,--,2.0,1.4
"Sugars, total",g,--,--,3.00,2.14
Minerals
"Calcium, Ca",mg,--,--,0,0
"Iron, Fe",mg,--,--,1.08,0.77
"Sodium, Na",mg,--,--,550,393
Vitamins
"Vitamin C, total ascorbic acid",mg,--,--,6.0,4.3
"Vitamin A, IU",IU,--,--,99,71
Lipids
"Fatty acids, total saturated",g,--,--,2.996,2.140
"Fatty acids, total trans",g,--,--,0.000,0.000
"Cholesterol",mg,--,--,76,54
Amino Acids
Other
Ingredients
"RED POTATOES, MAYONNAISE (SOYBEAN OIL, WATER, EGG YOLKS, VINEGAR, HIGH FRUCTOSE CORN SYRUP, SALT, CALCIUM DISODIUM EDTA TO PROTECT FLAVOR), HARD COOKED EGGS, SWEET RELISH (CUCUMBERS, WATER, HIGH FRUCTOSE CORN SYRUP, SALT, WHITE DISTILLED VINEGAR, MODIFIED FOOD STARCH, NATURAL FLAVORS, SODIUM BENZOATE [PRESERVATIVE], CALCIUM CHLORIDE), CELERY, ONION, WATER, SALT, VINEGAR, SPICE, POTASSIUM SORBATE AND SODIUM BENZOATE TO PROTECT FLAVOR, MODIFIED CORN STARCH, XANTHAN GUM, OLEORESIN PAPRIKA." Date available: 07/14/2017 Date last updated by company: 07/14/2017
