Source: USDA Branded Food Products Database Release December 2017 Software v.3.8.6.4 2017-10-02
Report Run at: December 17, 2017 13:32 EST
"Nutrient data for: 45162073, RED THREAD GOOD, PURIST COLD BREW COFFEE, SUMATRA TUNAS INDAH, UPC: 859158004459"
Food Group:  Branded Food Products Database
Common Name:

Nutrient,Unit,Data points,Std. Error,"0.237 L = 8.0g",1Value per 100 g,
Proximates
"Energy",kcal,--,--,0,1
"Protein",g,--,--,0.00,0.00
"Total lipid (fat)",g,--,--,0.00,0.00
"Carbohydrate, by difference",g,--,--,0.00,0.00
"Sugars, total",g,--,--,0.00,0.00
Minerals
"Sodium, Na",mg,--,--,0,3
Vitamins
Lipids
Amino Acids
Other
Ingredients
"FILTERED WATER, ORGANIC COFFEE" Date available: 07/14/2017 Date last updated by company: 07/14/2017
