Source: USDA Branded Food Products Database Release December 2017 Software v.3.8.6.4 2017-10-02
Report Run at: December 17, 2017 13:08 EST
"Nutrient data for: 45244546, Red Gold 46oz. No Salt Added Tomato Juice, UNPREPARED, GTIN: 00072940143208"
Food Group:  Branded Food Products Database
Common Name:

Nutrient,Unit,Data points,Std. Error,"8.0 fl oz = 240.0g",1Value per 100 g,
Proximates
"Energy",kcal,--,--,50,21
"Protein",g,--,--,1.99,0.83
"Total lipid (fat)",g,--,--,0.00,0.00
"Carbohydrate, by difference",g,--,--,10.01,4.17
"Fiber, total dietary",g,--,--,1.9,0.8
"Sugars, total",g,--,--,7.01,2.92
Minerals
"Calcium, Ca",mg,--,--,19,8
"Iron, Fe",mg,--,--,0.36,0.15
"Potassium, K",mg,--,--,379,158
"Sodium, Na",mg,--,--,24,10
Vitamins
"Vitamin C, total ascorbic acid",mg,--,--,9.1,3.8
"Vitamin A, IU",IU,--,--,499,208
Lipids
"Fatty acids, total saturated",g,--,--,0.000,0.000
"Fatty acids, total trans",g,--,--,0.000,0.000
"Cholesterol",mg,--,--,0,0
Amino Acids
Other
Ingredients
"Tomato Juice From Concentrate (Water, Tomato Concentrate), Citric Acid, Vitamin C (Ascorbic Acid)." Date available: 10/05/2017 Date last updated by company: 09/18/2017
