Source: USDA Branded Food Products Database Release December 2017 Software v.3.8.6.4 2017-10-02
Report Run at: December 17, 2017 13:00 EST
"Nutrient data for: 45192575, RED CHILI LENTILS, UPC: 804879434771"
Food Group:  Branded Food Products Database
Common Name:

Nutrient,Unit,Data points,Std. Error,"1 SERVING = 50.0g",1Value per 100 g,
Proximates
"Energy",kcal,--,--,180,360
"Protein",g,--,--,13.00,26.00
"Total lipid (fat)",g,--,--,1.50,3.00
"Carbohydrate, by difference",g,--,--,30.00,60.00
"Fiber, total dietary",g,--,--,8.0,16.0
"Sugars, total",g,--,--,2.00,4.00
Minerals
"Calcium, Ca",mg,--,--,60,120
"Iron, Fe",mg,--,--,3.15,6.30
"Sodium, Na",mg,--,--,180,360
Vitamins
"Vitamin C, total ascorbic acid",mg,--,--,1.7,3.4
"Vitamin A, IU",IU,--,--,350,700
Lipids
Amino Acids
Other
Ingredients
"RED LENTILS, SUNDRIED TOMATO, CUMIN POWDER, ONION FLAKES, PAPRIKA POWDER, SEA SALT, RED CHILI FLAKES, LESS THAN 2% SPICES." Date available: 10/19/2017 Date last updated by company: 10/19/2017
