Source: USDA Branded Food Products Database Release December 2017 Software v.3.8.6.4 2017-10-02
Report Run at: December 17, 2017 12:56 EST
"Nutrient data for: 45235653, RED BEANS & RICE SOUP, UPC: 033017001876"
Food Group:  Branded Food Products Database
Common Name:

Nutrient,Unit,Data points,Std. Error,"53.0 GRM = 53.0g",1Value per 100 g,
Proximates
"Energy",kcal,--,--,170,321
"Protein",g,--,--,10.00,18.87
"Total lipid (fat)",g,--,--,1.00,1.89
"Carbohydrate, by difference",g,--,--,35.00,66.04
"Fiber, total dietary",g,--,--,10.0,18.9
"Sugars, total",g,--,--,3.00,5.66
Minerals
"Calcium, Ca",mg,--,--,80,151
"Iron, Fe",mg,--,--,2.55,4.81
"Sodium, Na",mg,--,--,590,1113
Vitamins
"Vitamin C, total ascorbic acid",mg,--,--,8.5,16.0
"Vitamin A, IU",IU,--,--,708,1335
Lipids
"Fatty acids, total saturated",g,--,--,0.000,0.000
"Fatty acids, total trans",g,--,--,0.000,0.000
"Cholesterol",mg,--,--,0,0
Amino Acids
Other
Ingredients
"RED BEANS, RICE, DRIED VEGETABLES (TOMATO, ONIONS, RED BELL PEPPERS, GARLIC, CORN, CELERY), PINTO BEANS, SALT, SPICES, AUTOLYZED YEAST EXTRACT, PAPRIKA SPICE & COLOR, CITRIC ACID, CALCIUM CHLORIDE (NATURAL SOURCE), NATURAL FLAVORS" Date available: 06/24/2017 Date last updated by company: 06/24/2017
