Source: USDA Branded Food Products Database Release December 2017 Software v.3.8.6.4 2017-10-02
Report Run at: December 17, 2017 13:08 EST
"Nutrient data for: 45129274, Red Gold 14.5oz Diced Tomatoes w/Onion, Celery & Green Pepper, UNPREPARED, GTIN: 00072940112174"
Food Group:  Branded Food Products Database
Common Name:

Nutrient,Unit,Data points,Std. Error,"0.5 Cup = 123.0g",1Value per 100 g,
Proximates
"Energy",kcal,--,--,30,24
"Protein",g,--,--,1.00,0.81
"Total lipid (fat)",g,--,--,0.00,0.00
"Carbohydrate, by difference",g,--,--,7.00,5.69
"Fiber, total dietary",g,--,--,1.0,0.8
"Sugars, total",g,--,--,5.01,4.07
Minerals
"Calcium, Ca",mg,--,--,20,16
"Iron, Fe",mg,--,--,0.36,0.29
"Potassium, K",mg,--,--,240,195
"Sodium, Na",mg,--,--,250,203
Vitamins
"Vitamin C, total ascorbic acid",mg,--,--,9.0,7.3
"Vitamin A, IU",IU,--,--,501,407
Lipids
"Fatty acids, total saturated",g,--,--,0.000,0.000
"Fatty acids, total trans",g,--,--,0.000,0.000
"Cholesterol",mg,--,--,0,0
Amino Acids
Other
Ingredients
"Tomatoes, Tomato Juice, Less Than 2% Of: Sugar, Salt, Dried Onion, Dried Celery, Dried Bell Pepper, Calcium Chloride, Citric Acid, Natural Flavors." Date available: 10/19/2017 Date last updated by company: 10/19/2017
