Source: USDA Branded Food Products Database Release December 2017 Software v.3.8.6.4 2017-10-02
Report Run at: December 17, 2017 13:08 EST
"Nutrient data for: 45129134, Red Gold 28oz. Diced Tomatoes, UNPREPARED, GTIN: 00072940162285"
Food Group:  Branded Food Products Database
Common Name:

Nutrient,Unit,Data points,Std. Error,"0.5 cup = 121.0g",1Value per 100 g,
Proximates
"Energy",kcal,--,--,25,21
"Protein",g,--,--,1.00,0.83
"Total lipid (fat)",g,--,--,0.00,0.00
"Carbohydrate, by difference",g,--,--,5.00,4.13
"Fiber, total dietary",g,--,--,1.0,0.8
"Sugars, total",g,--,--,3.00,2.48
Minerals
"Calcium, Ca",mg,--,--,21,17
"Iron, Fe",mg,--,--,0.36,0.30
"Potassium, K",mg,--,--,230,190
"Sodium, Na",mg,--,--,180,149
Vitamins
"Vitamin C, total ascorbic acid",mg,--,--,9.0,7.4
"Vitamin A, IU",IU,--,--,500,413
Lipids
"Fatty acids, total saturated",g,--,--,0.000,0.000
"Fatty acids, total trans",g,--,--,0.000,0.000
"Cholesterol",mg,--,--,0,0
Amino Acids
Other
Ingredients
"Tomatoes, Tomato Juice, Less Than 2% Of: Salt, Calcium Chloride, Citric Acid." Date available: 10/19/2017 Date last updated by company: 10/19/2017
