Source: USDA Branded Food Products Database Release December 2017 Software v.3.8.6.4 2017-10-02
Report Run at: December 17, 2017 13:15 EST
"Nutrient data for: 45282738, RED KIDNEY BEANS, UPC: 020871015583"
Food Group:  Branded Food Products Database
Common Name:

Nutrient,Unit,Data points,Std. Error,"0.5 cup = 130.0g",1Value per 100 g,
Proximates
"Energy",kcal,--,--,84,65
"Protein",g,--,--,6.01,4.62
"Total lipid (fat)",g,--,--,0.65,0.50
"Carbohydrate, by difference",g,--,--,14.00,10.77
"Fiber, total dietary",g,--,--,8.1,6.2
"Sugars, total",g,--,--,0.00,0.00
Minerals
"Calcium, Ca",mg,--,--,30,23
"Iron, Fe",mg,--,--,1.62,1.25
"Sodium, Na",mg,--,--,156,120
Vitamins
"Vitamin C, total ascorbic acid",mg,--,--,1.2,0.9
"Vitamin A, IU",IU,--,--,0,0
Lipids
"Fatty acids, total saturated",g,--,--,0.000,0.000
"Fatty acids, total trans",g,--,--,0.000,0.000
"Cholesterol",mg,--,--,0,0
Amino Acids
Other
Ingredients
"BOILED RED KIDNEY BEANS, WATER, SALT, ANTIOXIDANT: ASCORBIC ACID." Date available: 07/14/2017 Date last updated by company: 07/14/2017
