Source: USDA Branded Food Products Database Release December 2017 Software v.3.8.6.4 2017-10-02
Report Run at: December 17, 2017 13:50 EST
"Nutrient data for: 45186521, REDUCED SODIUM HIMALAYAN FIND PINK SALT MIX, UPC: 812907013072"
Food Group:  Branded Food Products Database
Common Name:

Nutrient,Unit,Data points,Std. Error,"0.25 tsp = 1.0g",1Value per 100 g,
Proximates
"Energy",kcal,--,--,0,0
"Protein",g,--,--,0.00,0.00
"Total lipid (fat)",g,--,--,0.00,0.00
"Carbohydrate, by difference",g,--,--,0.00,0.00
Minerals
"Potassium, K",mg,--,--,210,21000
"Sodium, Na",mg,--,--,220,22000
Vitamins
Lipids
Amino Acids
Other
Ingredients
"HIMALAYAN PINK SALT, POTASSIUM CHLORIDE, GLUTAMIC ACID, LYSINE, MAGNESIUM CARBONATE." Date available: 07/14/2017 Date last updated by company: 07/14/2017
