Source: USDA Branded Food Products Database Release December 2017 Software v.3.8.6.4 2017-10-02
Report Run at: December 17, 2017 13:50 EST
"Nutrient data for: 45061812, REDUCED SODIUM BLEND, UPC: 074263125565"
Food Group:  Branded Food Products Database
Common Name:

Nutrient,Unit,Data points,Std. Error,"1 Tbsp = 16.9g",1Value per 100 g,
Proximates
"Energy",kcal,--,--,40,237
"Protein",g,--,--,2.00,11.83
"Total lipid (fat)",g,--,--,3.00,17.75
"Carbohydrate, by difference",g,--,--,2.00,11.83
"Fiber, total dietary",g,--,--,0.0,0.0
"Sugars, total",g,--,--,1.00,5.92
Minerals
"Calcium, Ca",mg,--,--,20,118
"Iron, Fe",mg,--,--,1.07,6.31
"Sodium, Na",mg,--,--,700,4142
Vitamins
"Vitamin C, total ascorbic acid",mg,--,--,0.0,0.0
"Vitamin A, IU",IU,--,--,0,0
Lipids
"Fatty acids, total saturated",g,--,--,0.000,0.000
"Fatty acids, total trans",g,--,--,0.000,0.000
"Cholesterol",mg,--,--,0,0
Amino Acids
Other
Ingredients
"INGREDIENTS: SAY SAUCE (WATER, SALT, HYDROLYZED SOY PROTEIN, CORN SYRUP, CARAMEL COLORING), SOYBEAN OIL, WATER, CORN SYRUP, VINEGAR, SALT, SPICES, LESS THAN 2% DEHYDRATED ONION, DEHYDRATED GARLIC, XANTHAN GUM, POTASSIUM  SORBATE, SODIUM BENZOATE, PROPYLENE GLYCOL ALGINATE, EDTA, CARAMEL COLOR." Date available: 07/14/2017 Date last updated by company: 07/14/2017
