Source: USDA Branded Food Products Database Release December 2017 Software v.3.8.6.4 2017-10-02
Report Run at: December 17, 2017 13:34 EST
"Nutrient data for: 45237866, REDUCED FAT CREAM CHEESE WITH STRAWBERRIES, UPC: 02175203"
Food Group:  Branded Food Products Database
Common Name:

Nutrient,Unit,Data points,Std. Error,"2.0 Tbsp = 32.0g",1Value per 100 g,
Proximates
"Energy",kcal,--,--,70,219
"Protein",g,--,--,2.00,6.25
"Total lipid (fat)",g,--,--,4.50,14.06
"Carbohydrate, by difference",g,--,--,6.00,18.75
"Fiber, total dietary",g,--,--,0.0,0.0
"Sugars, total",g,--,--,6.00,18.75
Minerals
"Calcium, Ca",mg,--,--,40,125
"Iron, Fe",mg,--,--,0.00,0.00
"Sodium, Na",mg,--,--,115,359
Vitamins
"Vitamin C, total ascorbic acid",mg,--,--,2.4,7.5
"Vitamin A, IU",IU,--,--,200,625
Lipids
"Fatty acids, total saturated",g,--,--,3.002,9.380
"Fatty acids, total trans",g,--,--,0.000,0.000
"Cholesterol",mg,--,--,15,47
Amino Acids
Other
Ingredients
"PASTEURIZED MILK AND CREAM, SUGAR, STRAWBERRY PUREE, WHEY PROTEIN CONCENTRATE, DRIED STRAWBERRIES, WATER, SALT, FOOD STARCH-MODIFIED, CAROB BEAN GUM, GUAR GUM, XANTHAN GUM, SORBIC ACID* (AS A PRESERVATIVE), CITRIC ACID*, NATURAL FLAVOR, RED 40, VITAMIN A" Date available: 09/23/2016 Date last updated by company: 09/23/2016
