Source: USDA Branded Food Products Database Release December 2017 Software v.3.8.6.4 2017-10-02
Report Run at: December 17, 2017 13:59 EST
"Nutrient data for: 45242557, REED'S, JAMAICAN STYLE GINGER ALE, ORIGINAL GINGER BREW, UPC: 008274000061"
Food Group:  Branded Food Products Database
Common Name:

Nutrient,Unit,Data points,Std. Error,"12.0 fl oz = 355.0g",1Value per 100 g,
Proximates
"Energy",kcal,--,--,131,37
"Protein",g,--,--,0.00,0.00
"Total lipid (fat)",g,--,--,0.00,0.00
"Carbohydrate, by difference",g,--,--,33.02,9.30
"Sugars, total",g,--,--,33.02,9.30
Minerals
"Sodium, Na",mg,--,--,4,1
Vitamins
Lipids
Amino Acids
Other
Ingredients
"FRESHLY BREWED FROM: SPARKLING FILTERED WATER (SWEETENED BY A BLEND OF RAW SUGAR CANE, PINEAPPLE JUICE FROM CONCENTRATE AND HONEY), FRESH GINGER ROOT, LEMON AND LIME JUICES FROM CONCENTRATE AND SPICES." Date available: 06/25/2017 Date last updated by company: 06/25/2017
