Source: USDA Branded Food Products Database Release December 2017 Software v.3.8.6.4 2017-10-02
Report Run at: December 17, 2017 14:10 EST
"Nutrient data for: 45065071, REFRIED RED BEANS, UPC: 088313001174"
Food Group:  Branded Food Products Database
Common Name:

Nutrient,Unit,Data points,Std. Error,"0.5 cup = 130.0g",1Value per 100 g,
Proximates
"Energy",kcal,--,--,200,154
"Protein",g,--,--,6.99,5.38
"Total lipid (fat)",g,--,--,10.00,7.69
"Carbohydrate, by difference",g,--,--,19.99,15.38
"Fiber, total dietary",g,--,--,9.0,6.9
"Sugars, total",g,--,--,1.00,0.77
Minerals
"Calcium, Ca",mg,--,--,40,31
"Iron, Fe",mg,--,--,2.70,2.08
"Sodium, Na",mg,--,--,410,315
Vitamins
"Vitamin C, total ascorbic acid",mg,--,--,0.0,0.0
"Vitamin A, IU",IU,--,--,0,0
Lipids
"Fatty acids, total saturated",g,--,--,1.495,1.150
"Fatty acids, total trans",g,--,--,0.000,0.000
"Cholesterol",mg,--,--,0,0
Amino Acids
Other
Ingredients
"WATER, RED BEANS, BLEND OF VEGETABLE OIL (MAY CONTAIN SOYBEAN, COTTONSEED OR SUNFLOWER OIL), SALT, ONION AND GARLIC." Date available: 06/25/2017 Date last updated by company: 06/25/2017
