Source: USDA Branded Food Products Database Release December 2017 Software v.3.8.6.4 2017-10-02
Report Run at: December 17, 2017 14:09 EST
"Nutrient data for: 45198688, REFRIED BLACK BEAN, UPC: 078883220297"
Food Group:  Branded Food Products Database
Common Name:

Nutrient,Unit,Data points,Std. Error,"0.5 cup = 113.0g",1Value per 100 g,
Proximates
"Energy",kcal,--,--,140,124
"Protein",g,--,--,4.00,3.54
"Total lipid (fat)",g,--,--,6.99,6.19
"Carbohydrate, by difference",g,--,--,15.00,13.27
"Fiber, total dietary",g,--,--,4.0,3.5
"Sugars, total",g,--,--,0.99,0.88
Minerals
"Calcium, Ca",mg,--,--,40,35
"Iron, Fe",mg,--,--,1.66,1.47
"Sodium, Na",mg,--,--,400,354
Vitamins
"Vitamin C, total ascorbic acid",mg,--,--,0.0,0.0
"Vitamin A, IU",IU,--,--,0,0
Lipids
"Fatty acids, total saturated",g,--,--,0.497,0.440
"Fatty acids, total trans",g,--,--,0.000,0.000
"Cholesterol",mg,--,--,0,0
Amino Acids
Other
Ingredients
"WATER, BLACK BEANS, CANOLA AND/OR SUNFLOWER SEED OIL, ONION AND IODIZED SALT." Date available: 07/14/2017 Date last updated by company: 07/14/2017
