Source: USDA Branded Food Products Database Release December 2017 Software v.3.8.6.4 2017-10-02
Report Run at: December 17, 2017 14:10 EST
"Nutrient data for: 45172932, REGAL GOURMET SNACKS, BING CHERRIES JUMBO FAT FREE, UPC: 028744001060"
Food Group:  Branded Food Products Database
Common Name:

Nutrient,Unit,Data points,Std. Error,"1 ONZ = 28.0g",1Value per 100 g,
Proximates
"Energy",kcal,--,--,98,350
"Protein",g,--,--,0.90,3.21
"Total lipid (fat)",g,--,--,0.00,0.00
"Carbohydrate, by difference",g,--,--,22.90,81.79
"Fiber, total dietary",g,--,--,6.0,21.4
"Sugars, total",g,--,--,20.00,71.43
Minerals
"Calcium, Ca",mg,--,--,36,128
"Iron, Fe",mg,--,--,3.54,12.63
"Sodium, Na",mg,--,--,7,25
Vitamins
"Vitamin C, total ascorbic acid",mg,--,--,0.0,0.0
"Vitamin A, IU",IU,--,--,1429,5102
Lipids
"Fatty acids, total saturated",g,--,--,0.000,0.000
"Fatty acids, total trans",g,--,--,0.000,0.000
"Cholesterol",mg,--,--,0,0
Amino Acids
Other
Ingredients
"BING CHERRIES." Date available: 09/22/2017 Date last updated by company: 09/22/2017
