Source: USDA Branded Food Products Database Release December 2017 Software v.3.8.6.4 2017-10-02
Report Run at: December 17, 2017 14:11 EST
"Nutrient data for: 45118721, REGGIO'S, PREMIUM ITALIAN SAUSAGE PIZZA, UPC: 043098562944"
Food Group:  Branded Food Products Database
Common Name:

Nutrient,Unit,Data points,Std. Error,"0.5 PIZZA = 112.0g",1Value per 100 g,
Proximates
"Energy",kcal,--,--,280,250
"Protein",g,--,--,14.00,12.50
"Total lipid (fat)",g,--,--,10.00,8.93
"Carbohydrate, by difference",g,--,--,33.00,29.46
"Fiber, total dietary",g,--,--,2.0,1.8
"Sugars, total",g,--,--,2.00,1.79
Minerals
"Calcium, Ca",mg,--,--,100,89
"Iron, Fe",mg,--,--,4.70,4.20
"Sodium, Na",mg,--,--,520,464
Vitamins
"Vitamin C, total ascorbic acid",mg,--,--,4.1,3.7
"Vitamin A, IU",IU,--,--,523,467
Lipids
"Fatty acids, total saturated",g,--,--,3.002,2.680
"Fatty acids, total trans",g,--,--,0.000,0.000
"Cholesterol",mg,--,--,25,22
Amino Acids
Other
Ingredients
"CRUST: FLOUR (WHEAT FLOUR, (MALTED BARLEY FLOUR), NIACIN, IRON, THIAMIN, MONONITRATE, RIBOFLAVIN, FOLIC ACID), WATER, SOYBEAN OIL, SALT, YEAST, SUGAR, BUTTER. MOZZARELLA CHEESE: PASTEURIZED PART SKIM MILK, CHEESE CULTURES, SALT, ENZYMES. SAUCE: TOMATO PUREE, WATER, SPICE, SALT, SUGAR. SAUSAGE: PORK, SPICES, WATER, SALT, CORN SYRUP SOLIDS, GARLIC, PAPRIKA, NATURAL FLAVOR (AUTOLYZED YEAST EXTRACT, LACTIC ACID, SPICE EXTRACTIVE), SUGAR, DISODIUM INOSINATE AND DISODIUM GUANYLATE, SOY LECITHIN USED AS PROCESSING AID." Date available: 06/25/2017 Date last updated by company: 06/25/2017
