Source: USDA Branded Food Products Database Release December 2017 Software v.3.8.6.4 2017-10-02
Report Run at: December 17, 2017 14:12 EST
"Nutrient data for: 45101963, REGIONI D'ITALIA, BOLOGNESE MEAT SAUCE, UPC: 25031706"
Food Group:  Branded Food Products Database
Common Name:

Nutrient,Unit,Data points,Std. Error,"0.5 cup = 125.0g",1Value per 100 g,
Proximates
"Energy",kcal,--,--,130,104
"Protein",g,--,--,7.00,5.60
"Total lipid (fat)",g,--,--,6.00,4.80
"Carbohydrate, by difference",g,--,--,12.00,9.60
"Fiber, total dietary",g,--,--,2.0,1.6
"Sugars, total",g,--,--,7.00,5.60
Minerals
"Calcium, Ca",mg,--,--,60,48
"Iron, Fe",mg,--,--,1.90,1.52
"Sodium, Na",mg,--,--,570,456
Vitamins
"Vitamin C, total ascorbic acid",mg,--,--,12.6,10.1
"Vitamin A, IU",IU,--,--,792,634
Lipids
"Fatty acids, total saturated",g,--,--,2.000,1.600
"Fatty acids, total trans",g,--,--,0.000,0.000
"Cholesterol",mg,--,--,20,16
Amino Acids
Other
Ingredients
"TOMATO PULP (TOMATOES, CITRIC ACID), MINCED PORK MEAT, TOMATO PASTE, CARROTS, PECORINO CHEESE (SHEEPS MILK, SALT, RENNET), BALSAMIC VINEGAR OF MODENA P.G.I. (WINE VINEGAR, GRAPE MUST), RED WINE, EXTRA VIRGIN OLIVE OIL, RICE STARCH, SEA SALT, SUGAR, GARLIC, ONIONS, PAPRIKA, BLACK PEPPER, CELERY, ROSEMARY." Date available: 06/25/2017 Date last updated by company: 06/25/2017
