Source: USDA Branded Food Products Database Release December 2017 Software v.3.8.6.4 2017-10-02
Report Run at: December 17, 2017 14:14 EST
"Nutrient data for: 45157779, REISMAN'S, SUGAR FREE CHOCOLATE MINI BROWNIE BAR, UPC: 078619580008"
Food Group:  Branded Food Products Database
Common Name:

Nutrient,Unit,Data points,Std. Error,"1 ONZ = 28.0g",1Value per 100 g,
Proximates
"Energy",kcal,--,--,100,357
"Protein",g,--,--,1.00,3.57
"Total lipid (fat)",g,--,--,6.00,21.43
"Carbohydrate, by difference",g,--,--,12.00,42.86
"Fiber, total dietary",g,--,--,0.0,0.0
"Sugars, total",g,--,--,0.00,0.00
Minerals
"Calcium, Ca",mg,--,--,0,0
"Iron, Fe",mg,--,--,0.72,2.57
"Sodium, Na",mg,--,--,15,54
Vitamins
"Vitamin C, total ascorbic acid",mg,--,--,0.0,0.0
"Vitamin A, IU",IU,--,--,0,0
Lipids
"Fatty acids, total saturated",g,--,--,1.501,5.360
"Fatty acids, total trans",g,--,--,1.501,5.360
"Cholesterol",mg,--,--,10,36
Amino Acids
Other
Ingredients
"FLOUR, SORBITOL, EGGS, PARTIALLY HYDROGENATED SOY AND PALM OIL, SUGAR FREE FUDGE BASE, WATER, BAKING POWDER, SALT." Date available: 05/31/2017 Date last updated by company: 05/31/2017
