Source: USDA Branded Food Products Database Release December 2017 Software v.3.8.6.4 2017-10-02
Report Run at: December 17, 2017 14:22 EST
"Nutrient data for: 45326755, RESTAURANT STYLE HOT SAUCE, UPC: 862586000016"
Food Group:  Branded Food Products Database
Common Name:

Nutrient,Unit,Data points,Std. Error,"1 ONZ = 28.0g",1Value per 100 g,
Proximates
"Energy",kcal,--,--,10,36
"Protein",g,--,--,1.00,3.57
"Total lipid (fat)",g,--,--,0.00,0.00
"Carbohydrate, by difference",g,--,--,2.00,7.14
"Fiber, total dietary",g,--,--,0.0,0.0
"Sugars, total",g,--,--,1.00,3.57
Minerals
"Calcium, Ca",mg,--,--,20,71
"Iron, Fe",mg,--,--,0.72,2.57
"Sodium, Na",mg,--,--,380,1357
Vitamins
"Vitamin C, total ascorbic acid",mg,--,--,1.2,4.3
"Vitamin A, IU",IU,--,--,100,357
Lipids
"Fatty acids, total saturated",g,--,--,0.000,0.000
"Fatty acids, total trans",g,--,--,0.000,0.000
"Cholesterol",mg,--,--,70,250
Amino Acids
Other
Ingredients
"TOMATO SAUCE (TOMATOES, SALT, DEHYDRATED ONION, DEHYDRATED GARLIC, SPICES, NATURAL FLAVORINGS, DEHYDRATED BELL PEPPER), RED WINE VINEGAR, CRUSHED RED CHILI, CELTIC SEA SALT, GARLIC & SPICES." Date available: 10/13/2017 Date last updated by company: 10/13/2017
