Source: USDA Branded Food Products Database Release December 2017 Software v.3.8.6.4 2017-10-02
Report Run at: December 17, 2017 14:22 EST
"Nutrient data for: 45279934, RESTAURANT STYLE GARLIC & BUTTER CROUTONS, UPC: 041303002476"
Food Group:  Branded Food Products Database
Common Name:

Nutrient,Unit,Data points,Std. Error,"6.0 CROUTONS = 7.0g",1Value per 100 g,
Proximates
"Energy",kcal,--,--,30,429
"Protein",g,--,--,1.00,14.29
"Total lipid (fat)",g,--,--,1.00,14.29
"Carbohydrate, by difference",g,--,--,5.00,71.43
Minerals
"Sodium, Na",mg,--,--,75,1071
Vitamins
Lipids
Amino Acids
Other
Ingredients
"ENRICHED FLOUR (WHEAT FLOUR, MALTED BARLEY FLOUR, NIACIN, REDUCED IRON, THIAMIN MONONITRATE, RIBOFLAVIN, FOLIC ACID), CANOLA AND/OR SUNFLOWER OIL, GARLIC POWDER, YEAST, SALT, 2% OR LESS OF HIGH FRUCTOSE CORN SYRUP, NATURAL BUTTER FLAVOR (MILK), MALTODEXTRIN, CALCIUM PROPIONATE (PRESERVATIVE), TURMERIC POWDER (COLOR), ENZYMES, ASCORBIC ACID, TBHQ (TO PRESERVE FRESHNESS)." Date available: 10/13/2017 Date last updated by company: 10/13/2017
