Source: USDA Branded Food Products Database Release December 2017 Software v.3.8.6.4 2017-10-02
Report Run at: December 17, 2017 14:25 EST
"Nutrient data for: 45261975, REVUELTAS PUPUSAS, UPC: 738529026538"
Food Group:  Branded Food Products Database
Common Name:

Nutrient,Unit,Data points,Std. Error,"1 PUPUSA = 114.0g",1Value per 100 g,
Proximates
"Energy",kcal,--,--,329,289
"Protein",g,--,--,7.00,6.14
"Total lipid (fat)",g,--,--,19.00,16.67
"Carbohydrate, by difference",g,--,--,33.99,29.82
"Fiber, total dietary",g,--,--,1.0,0.9
"Sugars, total",g,--,--,1.00,0.88
Minerals
"Calcium, Ca",mg,--,--,40,35
"Iron, Fe",mg,--,--,2.02,1.77
"Sodium, Na",mg,--,--,241,211
Vitamins
"Vitamin C, total ascorbic acid",mg,--,--,0.0,0.0
"Vitamin A, IU",IU,--,--,0,0
Lipids
"Fatty acids, total saturated",g,--,--,0.000,0.000
"Fatty acids, total trans",g,--,--,0.000,0.000
"Cholesterol",mg,--,--,0,0
Amino Acids
Other
Ingredients
"WATER, CORN FLOUR, CHEESE, BEANS, TEXTURED SOY PROTEIN, TOMATO PASTE, GREEN PEPPER, VEGETABLE OIL, RED PEPPER, BEEF CONSOMME, ONION, GARLIC, NATURAL SPICES, SALT AND PRESERVATIVE CALCIUM PROPIONATE (LESS THAN 0.1%)." Date available: 10/13/2017 Date last updated by company: 10/13/2017
