Source: USDA Branded Food Products Database Release December 2017 Software v.3.8.6.4 2017-10-02
Report Run at: December 17, 2017 14:27 EST
"Nutrient data for: 45056265, RIB RUB SEASONING BLEND, UPC: 074683097893"
Food Group:  Branded Food Products Database
Common Name:

Nutrient,Unit,Data points,Std. Error,"0.5 tsp = 1.8g",1Value per 100 g,
Proximates
"Energy",kcal,--,--,5,278
"Protein",g,--,--,0.00,0.00
"Total lipid (fat)",g,--,--,0.00,0.00
"Carbohydrate, by difference",g,--,--,1.00,55.56
"Sugars, total",g,--,--,1.00,55.56
Minerals
"Sodium, Na",mg,--,--,290,16111
Vitamins
Lipids
Amino Acids
Other
Ingredients
"SALT, SUGAR, BROWN SUGAR, PAPRIKA, GARLIC POWDER, CALCIUM CARBONATE, GROUND MUSTARD, ONION POWDER, RED PEPPER, SPICES, CHILI POWDER, DEXTROSE, SOYBEAN OIL." Date available: 07/14/2017 Date last updated by company: 07/14/2017
