Source: USDA Branded Food Products Database Release December 2017 Software v.3.8.6.4 2017-10-02
Report Run at: December 17, 2017 14:27 EST
"Nutrient data for: 45083977, RIBBED CRACKLINGS IN OLD FASHIONED, UPC: 4800194101134"
Food Group:  Branded Food Products Database
Common Name:

Nutrient,Unit,Data points,Std. Error,"1.06 ONZ = 30.0g",1Value per 100 g,
Proximates
"Energy",kcal,--,--,150,500
"Total lipid (fat)",g,--,--,7.00,23.33
"Carbohydrate, by difference",g,--,--,19.00,63.33
"Fiber, total dietary",g,--,--,0.0,0.0
"Sugars, total",g,--,--,1.00,3.33
Minerals
"Calcium, Ca",mg,--,--,0,0
"Iron, Fe",mg,--,--,0.00,0.00
"Sodium, Na",mg,--,--,420,1400
Vitamins
"Vitamin C, total ascorbic acid",mg,--,--,0.0,0.0
"Vitamin A, IU",IU,--,--,0,0
Lipids
"Fatty acids, total saturated",g,--,--,3.501,11.670
"Fatty acids, total trans",g,--,--,0.000,0.000
"Cholesterol",mg,--,--,0,0
Amino Acids
Other
Ingredients
"WHEAT, TAPIOCA STARCH, VEGETABLE OIL (MAY CONSIST OF COCONUT OIL AND/OR PALM OLEIN), CORN STARCH, SALT, SODIUM DIACETATE, SUGAR, ARTIFICIAL FLAVORS (PORK, AND CHICKEN), MONOSODIUM GLUTAMATE (AS FLAVOR ENHANCER), CITRIC ACID, SPICES, SODIUM CITRATE, FISH SAUCE, HYDROLYZED SOY PROTEIN, LACTIC ACID, FD&C YELLOW NO. 5, DISODIUM INOSINATE, DISODIUM GUANYLATE, AND TBHQ (ADDED TO RETARD RANCIDITY)." Date available: 06/25/2017 Date last updated by company: 06/25/2017
