Source: USDA Branded Food Products Database Release December 2017 Software v.3.8.6.4 2017-10-02
Report Run at: December 17, 2017 14:39 EST
"Nutrient data for: 45088531, RICE SIDES CHICKEN FLAVOR, UPC: 041000022661"
Food Group:  Branded Food Products Database
Common Name:

Nutrient,Unit,Data points,Std. Error,"1 CUP PREPARED) | ( = 65.0g",1Value per 100 g,
Proximates
"Energy",kcal,--,--,240,369
"Protein",g,--,--,6.00,9.23
"Total lipid (fat)",g,--,--,2.50,3.85
"Carbohydrate, by difference",g,--,--,48.00,73.85
"Fiber, total dietary",g,--,--,1.0,1.5
"Sugars, total",g,--,--,1.00,1.54
Minerals
"Calcium, Ca",mg,--,--,20,31
"Iron, Fe",mg,--,--,1.25,1.92
"Sodium, Na",mg,--,--,660,1015
Vitamins
"Vitamin C, total ascorbic acid",mg,--,--,0.0,0.0
"Thiamin",mg,--,--,0.000,0.000
"Riboflavin",mg,--,--,0.102,0.157
"Niacin",mg,--,--,2.076,3.194
"Vitamin A, IU",IU,--,--,0,0
Lipids
"Fatty acids, total saturated",g,--,--,0.501,0.770
"Fatty acids, total trans",g,--,--,0.000,0.000
"Cholesterol",mg,--,--,5,8
Amino Acids
Other
Ingredients
"ENRICHED PARBOILED LONG GRAIN RICE [RICE, NIACIN, FERRIC ORTHOPHOSPHATE (IRON), THIAMINE MONONITRATE (VITAMIN B1), FOLIC ACID], ENRICHED VERMICELLI [WHEAT AND DURUM FLOUR, NIACIN, FERROUS SULFATE (IRON), THIAMINE MONONITRATE (VITAMIN B1), RIBOFLAVIN (VITAMIN B2), FOLIC ACID], CORN STARCH, MALTODEXTRIN, CHICKEN FAT (WITH ROSEMARY EXTRACT TO PROTECT QUALITY), HYDROLYZED SOY PROTEIN, CORN SYRUP*, SALT, CHICKEN POWDER, ONION POWDER, SUGAR, POTASSIUM CHLORIDE, CARROTS*, PARSLEY, YEAST EXTRACT, NATURAL FLAVOR, DISODIUM GUANYLATE, DISODIUM INOSINATE, EXTRACT OF TURMERIC (COLOR), SPICE." Date available: 07/14/2017 Date last updated by company: 07/14/2017
