Source: USDA Branded Food Products Database Release December 2017 Software v.3.8.6.4 2017-10-02
Report Run at: December 17, 2017 14:37 EST
"Nutrient data for: 45060644, RICE PUDDING, UPC: 042743170107"
Food Group:  Branded Food Products Database
Common Name:

Nutrient,Unit,Data points,Std. Error,"0.5 cup = 120.0g",1Value per 100 g,
Proximates
"Energy",kcal,--,--,140,117
"Protein",g,--,--,3.00,2.50
"Total lipid (fat)",g,--,--,3.00,2.50
"Carbohydrate, by difference",g,--,--,24.00,20.00
"Fiber, total dietary",g,--,--,1.0,0.8
"Sugars, total",g,--,--,12.00,10.00
Minerals
"Calcium, Ca",mg,--,--,100,83
"Iron, Fe",mg,--,--,0.00,0.00
"Sodium, Na",mg,--,--,110,92
Vitamins
"Vitamin C, total ascorbic acid",mg,--,--,0.0,0.0
"Vitamin A, IU",IU,--,--,0,0
Lipids
"Fatty acids, total saturated",g,--,--,2.004,1.670
"Fatty acids, total trans",g,--,--,0.000,0.000
"Cholesterol",mg,--,--,10,8
Amino Acids
Other
Ingredients
"INGREDIENTS: PASTEURIZED WHOLE MILK, RICE, SUGAR, CINNAMON, NATURAL & ARTIFICIAL FLAVOR, SALT, POTASSIUM SORBATE, SODIUM PROPIONATE, CALCIUM ACETATE." Date available: 07/14/2017 Date last updated by company: 07/14/2017
