Source: USDA Branded Food Products Database Release December 2017 Software v.3.8.6.4 2017-10-02
Report Run at: December 17, 2017 14:31 EST
"Nutrient data for: 45223744, RICE CHIPS, UPC: 073416035355"
Food Group:  Branded Food Products Database
Common Name:

Nutrient,Unit,Data points,Std. Error,"9.0 CHIPS | ABOUT = 28.0g",1Value per 100 g,
Proximates
"Energy",kcal,--,--,140,500
"Protein",g,--,--,2.00,7.14
"Total lipid (fat)",g,--,--,7.00,25.00
"Carbohydrate, by difference",g,--,--,18.00,64.29
"Fiber, total dietary",g,--,--,1.0,3.6
"Sugars, total",g,--,--,1.00,3.57
Minerals
"Calcium, Ca",mg,--,--,20,71
"Iron, Fe",mg,--,--,3.21,11.48
"Sodium, Na",mg,--,--,115,411
Vitamins
"Vitamin C, total ascorbic acid",mg,--,--,0.0,0.0
"Vitamin A, IU",IU,--,--,0,0
Lipids
"Fatty acids, total saturated",g,--,--,0.501,1.790
"Fatty acids, total trans",g,--,--,0.000,0.000
"Cholesterol",mg,--,--,0,0
Amino Acids
Other
Ingredients
"ORGANIC RICE FLOUR (PARBOILED BROWN RICE FLOUR, WHITE RICE FLOUR), ORGANIC WHOLE GRAIN BROWN RICE, HIGH OLEIC EXPELLER PRESSED SAFFLOWER OR SUNFLOWER OIL, ORGANIC WHOLE GRAIN CORN MASA FLOUR, ORGANIC SESAME SEEDS, DRIED CANE SYRUP, SALT, GARLIC POWDER, ONION POWDER, MUSTARD FLOUR, SPICES (BLACK PEPPER, WHITE PEPPER, MUSTARD), ORGANIC RICE CONCENTRATE, TARTARIC ACID, CITRIC ACID, TURMERIC, HONEY, NATURAL MUSTARD FLAVOR, TARRAGON OIL, ORGANIC CARAMEL COLOR." Date available: 07/14/2017 Date last updated by company: 07/14/2017
