Source: USDA Branded Food Products Database Release December 2017 Software v.3.8.6.4 2017-10-02
Report Run at: December 17, 2017 14:36 EST
"Nutrient data for: 45325474, RICE PILAF MIX, UPC: 072251001051"
Food Group:  Branded Food Products Database
Common Name:

Nutrient,Unit,Data points,Std. Error,"0.25 CUP DRY RICE & 1 TBSP SEASONING MIX (1 CUP PREPARED) | ABOUT = 56.0g",1Value per 100 g,
Proximates
"Energy",kcal,--,--,190,339
"Protein",g,--,--,4.00,7.14
"Total lipid (fat)",g,--,--,0.50,0.89
"Carbohydrate, by difference",g,--,--,43.00,76.79
"Fiber, total dietary",g,--,--,1.0,1.8
"Sugars, total",g,--,--,0.00,0.00
Minerals
"Calcium, Ca",mg,--,--,0,0
"Iron, Fe",mg,--,--,0.29,0.52
"Sodium, Na",mg,--,--,780,1393
Vitamins
"Vitamin C, total ascorbic acid",mg,--,--,0.0,0.0
"Vitamin A, IU",IU,--,--,0,0
Lipids
"Fatty acids, total saturated",g,--,--,0.000,0.000
"Fatty acids, total trans",g,--,--,0.000,0.000
"Cholesterol",mg,--,--,0,0
Amino Acids
Other
Ingredients
"PARBOILED LONG GRAIN RICE, ORZO (MACARONI PRODUCT MADE FROM WHEAT FLOUR), SALT, AUTOLYZED YEAST EXTRACT*, ONIONS*, GARLIC*, TURMERIC SPICE WHICH IMPARTS COLOR." Date available: 08/11/2017 Date last updated by company: 08/11/2017
