Source: USDA Branded Food Products Database Release December 2017 Software v.3.8.6.4 2017-10-02
Report Run at: December 17, 2017 14:30 EST
"Nutrient data for: 45229929, RICE CAKES, UPC: 075450075861"
Food Group:  Branded Food Products Database
Common Name:

Nutrient,Unit,Data points,Std. Error,"1 CAKE = 13.0g",1Value per 100 g,
Proximates
"Energy",kcal,--,--,50,385
"Protein",g,--,--,1.00,7.69
"Total lipid (fat)",g,--,--,0.00,0.00
"Carbohydrate, by difference",g,--,--,11.00,84.62
"Fiber, total dietary",g,--,--,0.0,0.0
"Sugars, total",g,--,--,3.00,23.08
Minerals
"Calcium, Ca",mg,--,--,0,0
"Iron, Fe",mg,--,--,0.00,0.00
"Sodium, Na",mg,--,--,30,231
Vitamins
"Vitamin C, total ascorbic acid",mg,--,--,0.0,0.0
"Vitamin A, IU",IU,--,--,0,0
Lipids
"Fatty acids, total saturated",g,--,--,0.000,0.000
"Fatty acids, total trans",g,--,--,0.000,0.000
"Cholesterol",mg,--,--,0,0
Amino Acids
Other
Ingredients
"WHOLE GRAIN BROWN RICE, CORN (WITH GERM REMOVED), SUGAR, CORN SYRUP, SALT, CARAMEL COLOR, SOY LECITHIN." Date available: 07/14/2017 Date last updated by company: 07/14/2017
