Source: USDA Branded Food Products Database Release December 2017 Software v.3.8.6.4 2017-10-02
Report Run at: December 17, 2017 14:39 EST
"Nutrient data for: 45088529, RICE SIDES CREAMY CHICKEN FLAVOR, UPC: 041000022623"
Food Group:  Branded Food Products Database
Common Name:

Nutrient,Unit,Data points,Std. Error,"1 CUP PREPARED) | ( = 66.0g",1Value per 100 g,
Proximates
"Energy",kcal,--,--,240,364
"Protein",g,--,--,7.00,10.61
"Total lipid (fat)",g,--,--,1.50,2.27
"Carbohydrate, by difference",g,--,--,49.00,74.24
"Fiber, total dietary",g,--,--,2.0,3.0
"Sugars, total",g,--,--,3.00,4.55
Minerals
"Calcium, Ca",mg,--,--,40,61
"Iron, Fe",mg,--,--,1.23,1.86
"Sodium, Na",mg,--,--,580,879
Vitamins
"Vitamin C, total ascorbic acid",mg,--,--,0.8,1.2
"Thiamin",mg,--,--,0.000,0.000
"Riboflavin",mg,--,--,0.102,0.155
"Niacin",mg,--,--,1.364,2.067
"Vitamin A, IU",IU,--,--,137,207
Lipids
"Fatty acids, total saturated",g,--,--,0.000,0.000
"Fatty acids, total trans",g,--,--,0.000,0.000
"Cholesterol",mg,--,--,0,0
Amino Acids
Other
Ingredients
"ENRICHED PARBOILED LONG GRAIN RICE [RICE, NIACIN, FERRIC ORTHOPHOSPHATE (IRON), THIAMIN MONONITRATE (VITAMIN B1), FOLIC ACID], ENRICHED VERMICELLI [WHEAT AND DURUM FLOUR, NIACIN, FERROUS SULFATE (IRON), THIAMIN MONONITRATE (VITAMIN B1), RIBOFLAVIN (VITAMIN B2), FOLIC ACID], WHEY (MILK), CORN STARCH, VEGETABLES* (CARROTS, ONIONS), HYDROLYZED SOY PROTEIN, SALT, CHICKEN FAT (WITH ROSEMARY EXTRACT TO PROTECT QUALITY), CREAM CHEESE* (PASTEURIZED MILK, CREAM, CHEESE CULTURES, SALT, CAROB BEAN GUM), SPICES, POTASSIUM CHLORIDE, YEAST EXTRACT, CHICKEN BROTH*, DISODIUM GUANYLATE, DISODIUM INOSINATE, NATURAL FLAVOR (MILK), SUGAR, NONFAT MILK*, EXTRACT OF TURMERIC (COLOR)" Date available: 07/14/2017 Date last updated by company: 07/14/2017
