Source: USDA Branded Food Products Database Release December 2017 Software v.3.8.6.4 2017-10-02
Report Run at: December 17, 2017 14:35 EST
"Nutrient data for: 45066140, RICE MIX, UPC: 011213086163"
Food Group:  Branded Food Products Database
Common Name:

Nutrient,Unit,Data points,Std. Error,"0.333 CUP DRY MIX | ABOUT = 70.0g",1Value per 100 g,
Proximates
"Energy",kcal,--,--,240,343
"Protein",g,--,--,6.00,8.57
"Total lipid (fat)",g,--,--,1.00,1.43
"Carbohydrate, by difference",g,--,--,50.00,71.43
"Fiber, total dietary",g,--,--,2.0,2.9
"Sugars, total",g,--,--,3.00,4.29
Minerals
"Calcium, Ca",mg,--,--,20,29
"Iron, Fe",mg,--,--,1.74,2.48
"Sodium, Na",mg,--,--,1400,2000
Vitamins
"Vitamin C, total ascorbic acid",mg,--,--,0.8,1.1
"Vitamin A, IU",IU,--,--,0,0
Lipids
"Fatty acids, total saturated",g,--,--,0.000,0.000
"Fatty acids, total trans",g,--,--,0.000,0.000
"Cholesterol",mg,--,--,0,0
Amino Acids
Other
Ingredients
"ENRICHED RICE (RICE, IRON [FERRIC ORTHOPHOSPHATE], NIACIN, THIAMINE MONONITRATE, FOLIC ACID), ENRICHED VERMICELLI (WHEAT, FLOUR, NIACIN, IRON [FERROUS SULFATE], THIAMINE MONONITRATE, RIBOFLAVIN FOLIC ACID), SALT, SUGAR, CORN SYRUP SOLIDS, MONOSODIUM GLUTAMATE, HYDROLYZED SOY PROTEIN, MALTODEXTRIN (FROM CORN), ONION*, GARLIC*, CHICKEN FAT, CELERY*, LEEKS*, MOLASSES*, (REFINERY SYRUP, MOLASSES), OLEORESIN TURMERIC (COLOR), PARSLEY*, DISODIUM INOSINATE AND DISODIUM GUANYLATE, CARAMEL (COLOR), NATURAL FLAVOR." Date available: 07/14/2017 Date last updated by company: 07/14/2017
