Source: USDA Branded Food Products Database Release December 2017 Software v.3.8.6.4 2017-10-02
Report Run at: December 17, 2017 14:37 EST
"Nutrient data for: 45196742, RICE PUDDING, UPC: 041268145294"
Food Group:  Branded Food Products Database
Common Name:

Nutrient,Unit,Data points,Std. Error,"0.5 cup = 129.0g",1Value per 100 g,
Proximates
"Energy",kcal,--,--,130,101
"Protein",g,--,--,4.00,3.10
"Total lipid (fat)",g,--,--,2.50,1.94
"Carbohydrate, by difference",g,--,--,23.99,18.60
"Fiber, total dietary",g,--,--,0.0,0.0
"Sugars, total",g,--,--,15.00,11.63
Minerals
"Calcium, Ca",mg,--,--,101,78
"Iron, Fe",mg,--,--,0.00,0.00
"Sodium, Na",mg,--,--,141,109
Vitamins
"Vitamin C, total ascorbic acid",mg,--,--,0.0,0.0
"Vitamin A, IU",IU,--,--,0,0
Lipids
"Fatty acids, total saturated",g,--,--,1.496,1.160
"Fatty acids, total trans",g,--,--,0.000,0.000
"Cholesterol",mg,--,--,15,12
Amino Acids
Other
Ingredients
"REDUCED MILK, RICE, SUGAR, CONTAINS LESS THAN 2% OF EGGS, SALT, NATURAL FLAVORS." Date available: 07/14/2017 Date last updated by company: 07/14/2017
