Source: USDA Branded Food Products Database Release December 2017 Software v.3.8.6.4 2017-10-02
Report Run at: December 17, 2017 14:46 EST
"Nutrient data for: 45157213, RICH'S, CHOCOLATE CHIP COOKIE, CHOCOLATE CHIP, UPC: 049800154841"
Food Group:  Branded Food Products Database
Common Name:

Nutrient,Unit,Data points,Std. Error,"1 COOKIE = 60.0g",1Value per 100 g,
Proximates
"Energy",kcal,--,--,320,533
"Protein",g,--,--,3.00,5.00
"Total lipid (fat)",g,--,--,16.00,26.67
"Carbohydrate, by difference",g,--,--,43.00,71.67
"Fiber, total dietary",g,--,--,1.0,1.7
"Sugars, total",g,--,--,30.00,50.00
Minerals
"Calcium, Ca",mg,--,--,0,0
"Iron, Fe",mg,--,--,0.90,1.50
"Sodium, Na",mg,--,--,220,367
Vitamins
"Vitamin C, total ascorbic acid",mg,--,--,0.0,0.0
"Vitamin A, IU",IU,--,--,0,0
Lipids
"Fatty acids, total saturated",g,--,--,7.998,13.330
"Fatty acids, total trans",g,--,--,0.000,0.000
"Cholesterol",mg,--,--,30,50
Amino Acids
Other
Ingredients
"SUGAR, SEMISWEET CHOCOLATE CHIPS (DRIED CANE SYRUP, CHOCOLATE LIQUOR, COCOA BUTTER), RICE FLOUR, PALM AND SOYBEAN OILS, BROWN SUGAR, DEFATTED SOY FLOUR, CORNSTARCH, POWDERED EGGS, NATURAL FLAVOR SALT." Date available: 07/14/2017 Date last updated by company: 07/14/2017
