Source: USDA Branded Food Products Database Release December 2017 Software v.3.8.6.4 2017-10-02
Report Run at: December 17, 2017 14:42 EST
"Nutrient data for: 45304208, RICH CHOCOLATE, CREAMY CARAMEL SMOOTH NOUGAT, UPC: 040000505396"
Food Group:  Branded Food Products Database
Common Name:

Nutrient,Unit,Data points,Std. Error,"2.0 BARS = 34.0g",1Value per 100 g,
Proximates
"Energy",kcal,--,--,160,471
"Protein",g,--,--,1.00,2.94
"Total lipid (fat)",g,--,--,6.00,17.65
"Carbohydrate, by difference",g,--,--,24.00,70.59
"Fiber, total dietary",g,--,--,0.0,0.0
"Sugars, total",g,--,--,21.00,61.76
Minerals
"Calcium, Ca",mg,--,--,20,59
"Iron, Fe",mg,--,--,0.42,1.24
"Sodium, Na",mg,--,--,45,132
Vitamins
"Vitamin C, total ascorbic acid",mg,--,--,1.2,3.5
"Vitamin A, IU",IU,--,--,100,294
Lipids
"Fatty acids, total saturated",g,--,--,4.502,13.240
"Fatty acids, total trans",g,--,--,0.000,0.000
"Cholesterol",mg,--,--,10,29
Amino Acids
Other
Ingredients
"MILK CHOCOLATE (SUGAR, COCOA BUTTER, SKIM MILK, CHOCOLATE, LACTOSE, MILKFAT, SOY LECITHIN, ARTIFICIAL FLAVOR), CORN SYRUP, SUGAR, HYDROGENATED PALM KERNEL OIL AND/OR PALM OIL, SKIM MILK, LESS THAN 2% - MILKFAT, COCOA POWDER PROCESSED WITH ALKALI, MALTED BARLEY, LACTOSE, SALT, EGG WHITES, CHOCOLATE, ARTIFICIAL FLAVOR." Date available: 07/14/2017 Date last updated by company: 07/14/2017
