Source: USDA Branded Food Products Database Release December 2017 Software v.3.8.6.4 2017-10-02
Report Run at: December 17, 2017 14:46 EST
"Nutrient data for: 45087783, RICH & VELVETY SQUARES CHOCOLATE, UPC: 747599306556"
Food Group:  Branded Food Products Database
Common Name:

Nutrient,Unit,Data points,Std. Error,"1 SQUARE = 11.0g",1Value per 100 g,
Proximates
"Energy",kcal,--,--,50,455
"Protein",g,--,--,1.00,9.09
"Total lipid (fat)",g,--,--,4.00,36.36
"Carbohydrate, by difference",g,--,--,6.00,54.55
"Fiber, total dietary",g,--,--,1.0,9.1
"Sugars, total",g,--,--,4.00,36.36
Minerals
"Calcium, Ca",mg,--,--,0,0
"Iron, Fe",mg,--,--,3.27,29.75
"Sodium, Na",mg,--,--,0,0
Vitamins
"Vitamin C, total ascorbic acid",mg,--,--,0.0,0.0
"Vitamin A, IU",IU,--,--,0,0
Lipids
"Fatty acids, total saturated",g,--,--,2.500,22.730
"Fatty acids, total trans",g,--,--,0.000,0.000
"Cholesterol",mg,--,--,0,0
Amino Acids
Other
Ingredients
"UNSWEETENED CHOCOLATE, SUGAR, COCOA BUTTER, MILK FAT, SOY LECITHIN - AN EMULSIFIER, VANILLA." Date available: 07/14/2017 Date last updated by company: 07/14/2017
