Source: USDA Branded Food Products Database Release December 2017 Software v.3.8.6.4 2017-10-02
Report Run at: December 17, 2017 14:48 EST
"Nutrient data for: 45053758, RICOTTA CHEESE, UPC: 041497089772"
Food Group:  Branded Food Products Database
Common Name:

Nutrient,Unit,Data points,Std. Error,"0.25 cup = 62.0g",1Value per 100 g,
Proximates
"Energy",kcal,--,--,100,161
"Protein",g,--,--,5.00,8.06
"Total lipid (fat)",g,--,--,8.00,12.90
"Carbohydrate, by difference",g,--,--,2.00,3.23
"Fiber, total dietary",g,--,--,0.0,0.0
"Sugars, total",g,--,--,2.00,3.23
Minerals
"Calcium, Ca",mg,--,--,200,323
"Iron, Fe",mg,--,--,0.00,0.00
"Sodium, Na",mg,--,--,80,129
Vitamins
"Vitamin C, total ascorbic acid",mg,--,--,0.0,0.0
"Vitamin A, IU",IU,--,--,242,390
Lipids
"Fatty acids, total saturated",g,--,--,4.997,8.060
"Fatty acids, total trans",g,--,--,0.000,0.000
"Cholesterol",mg,--,--,35,56
Amino Acids
Other
Ingredients
"PASTEURIZED WHOLE MILK, WHEY, CREAM, SKIM MILK, VINEGAR, SALT AND XANTHAN GUM, LOCUST BEAN GUM, GUAR GUM (STABILIZERS)." Date available: 10/13/2017 Date last updated by company: 10/13/2017
