Source: USDA Branded Food Products Database Release December 2017 Software v.3.8.6.4 2017-10-02
Report Run at: December 17, 2017 14:47 EST
"Nutrient data for: 45165506, RICO, TORTILLA CHIPS, UPC: 616043762753"
Food Group:  Branded Food Products Database
Common Name:

Nutrient,Unit,Data points,Std. Error,"10.0 CHIPS) | (APPROX. = 28.35g",1Value per 100 g,
Proximates
"Energy",kcal,--,--,140,494
"Protein",g,--,--,2.00,7.05
"Total lipid (fat)",g,--,--,7.00,24.69
"Carbohydrate, by difference",g,--,--,19.00,67.02
"Fiber, total dietary",g,--,--,2.0,7.1
"Sugars, total",g,--,--,0.00,0.00
Minerals
"Calcium, Ca",mg,--,--,20,71
"Iron, Fe",mg,--,--,0.64,2.24
"Sodium, Na",mg,--,--,100,353
Vitamins
"Vitamin C, total ascorbic acid",mg,--,--,0.0,0.0
"Vitamin A, IU",IU,--,--,0,0
Lipids
"Fatty acids, total saturated",g,--,--,1.001,3.530
"Fatty acids, total trans",g,--,--,0.000,0.000
"Cholesterol",mg,--,--,0,0
Amino Acids
Other
Ingredients
"CORN, VEGETABLE OIL (CONTAINS ONE OR MORE OF THE FOLLOWING: CORN, SUNFLOWER OR SOYBEAN OIL) & SALT." Date available: 07/14/2017 Date last updated by company: 07/14/2017
