Source: USDA Branded Food Products Database Release December 2017 Software v.3.8.6.4 2017-10-02
Report Run at: December 17, 2017 14:50 EST
"Nutrient data for: 45119125, RIENZI, EXTRA SHARP PROVOLONE CHEESE, UPC: 2773989005035"
Food Group:  Branded Food Products Database
Common Name:

Nutrient,Unit,Data points,Std. Error,"1 PIECES = 28.4g",1Value per 100 g,
Proximates
"Energy",kcal,--,--,100,352
"Protein",g,--,--,7.00,24.65
"Total lipid (fat)",g,--,--,7.00,24.65
"Carbohydrate, by difference",g,--,--,0.00,0.00
"Fiber, total dietary",g,--,--,0.0,0.0
"Sugars, total",g,--,--,0.00,0.00
Minerals
"Sodium, Na",mg,--,--,220,775
Vitamins
"Vitamin C, total ascorbic acid",mg,--,--,21.1,74.4
"Vitamin A, IU",IU,--,--,176,620
Lipids
"Fatty acids, total saturated",g,--,--,4.501,15.850
"Cholesterol",mg,--,--,20,70
Amino Acids
Other
Ingredients
"MADE FROM PASTEURIZED MILK AGED OVER 6 MONTHS" Date available: 06/25/2017 Date last updated by company: 06/25/2017
