Source: USDA Branded Food Products Database Release December 2017 Software v.3.8.6.4 2017-10-02
Report Run at: December 17, 2017 14:51 EST
"Nutrient data for: 45257588, RIGATONI POMODORO, UPC: 074847000332"
Food Group:  Branded Food Products Database
Common Name:

Nutrient,Unit,Data points,Std. Error,"1 cup = 240.0g",1Value per 100 g,
Proximates
"Energy",kcal,--,--,331,138
"Protein",g,--,--,13.01,5.42
"Total lipid (fat)",g,--,--,3.50,1.46
"Carbohydrate, by difference",g,--,--,61.99,25.83
"Fiber, total dietary",g,--,--,2.9,1.2
"Sugars, total",g,--,--,4.99,2.08
Minerals
"Calcium, Ca",mg,--,--,19,8
"Iron, Fe",mg,--,--,2.93,1.22
"Sodium, Na",mg,--,--,300,125
Vitamins
"Vitamin C, total ascorbic acid",mg,--,--,2.9,1.2
"Vitamin A, IU",IU,--,--,245,102
Lipids
"Fatty acids, total saturated",g,--,--,0.000,0.000
"Fatty acids, total trans",g,--,--,0.000,0.000
"Cholesterol",mg,--,--,0,0
Amino Acids
Other
Ingredients
"MEZZI RIGATONI: DURUM WHEAT SEMOLINA, NIACIN, IRON, LACTYLATE, THIAMINE MONONITRATE, RIBOFLAVIN, FOLIC ACID, WATER. SAN MARZANO POMODORO SAUCE: SAN MARZANO TOMATOES (CHOPPED TOMATOES, CRUSHED TOMATOES, TOMATO PUREE), WATER, EXTRA VIRGIN OLIVE OIL, GARLIC, SALT, BASIL, OIL BLEND (CANOLA OIL, EXTRA VIRGIN OLIVE OIL), CORN STARCH, RED PEPPER FLAKES, SPICES." Date available: 07/14/2017 Date last updated by company: 07/14/2017
