Source: USDA Branded Food Products Database Release December 2017 Software v.3.8.6.4 2017-10-02
Report Run at: December 17, 2017 14:54 EST
"Nutrient data for: 45146257, RING POP, HARD CANDY, UPC: 041116006517"
Food Group:  Branded Food Products Database
Common Name:

Nutrient,Unit,Data points,Std. Error,"1 PIECE = 14.0g",1Value per 100 g,
Proximates
"Energy",kcal,--,--,60,429
"Protein",g,--,--,0.00,0.00
"Total lipid (fat)",g,--,--,0.00,0.00
"Carbohydrate, by difference",g,--,--,14.00,100.00
"Sugars, total",g,--,--,11.00,78.57
Minerals
"Sodium, Na",mg,--,--,55,393
Vitamins
Lipids
"Fatty acids, total trans",g,--,--,0.000,0.000
Amino Acids
Other
Ingredients
"ALL FLAVORS CONTAIN: SUGAR, CORN SYRUP, BUFFERED LACTIC ACID, PEAR JUICE CONCENTRATE. ADDITIONALLY: CHERRY: NATURAL & ARTIFICIAL FLAVORS, RED 40. WATERMELON: ARTIFICIAL FLAVOR, ARTIFICIAL COLOR, BLUE 1. BLUE RASPBERRY: ARTIFICIAL FLAVOR, BLUE 1. STRAWBERRY: NATURAL & ARTIFICIAL FLAVORS, RED 3, BLUE 1. BERRY BLAST: NATURAL & ARTIFICIAL FLAVORS, ARTIFICIAL COLOR, RED 40 LAKE, BLUE 1 LAKE, RED 3, BLUE 1. TWISTED BLUE RASPBERRY WATERMELON: ARTIFICIAL FLAVOR, ARTIFICIAL COLOR, BLUE 1 LAKE, YELLOW 5 LAKE, YELLOW 5, BLUE 1." Date available: 09/27/2017 Date last updated by company: 09/27/2017
