Source: USDA Branded Food Products Database Release December 2017 Software v.3.8.6.4 2017-10-02
Report Run at: December 17, 2017 14:54 EST
"Nutrient data for: 45142829, RINGPOP, POPS, WATERMELON, STRAWBERRY, BLUE RASPBERRY, UPC: 041116025181"
Food Group:  Branded Food Products Database
Common Name:

Nutrient,Unit,Data points,Std. Error,"1 PIECE = 10.0g",1Value per 100 g,
Proximates
"Energy",kcal,--,--,45,450
"Protein",g,--,--,0.00,0.00
"Total lipid (fat)",g,--,--,0.00,0.00
"Carbohydrate, by difference",g,--,--,10.00,100.00
"Sugars, total",g,--,--,8.00,80.00
Minerals
"Sodium, Na",mg,--,--,40,400
Vitamins
Lipids
"Fatty acids, total trans",g,--,--,0.000,0.000
Amino Acids
Other
Ingredients
"ALL FLAVORS CONTAIN: SUGAR, CORN SYRUP, LACTIC ACID, SODIUM LACTATE. ADDITIONALLY: BLUE RASPBERRY: ARTIFICIAL FLAVOR, BLUE 1. STRAWBERRY: NATURAL & ARTIFICIAL FLAVOR, RED 3, BLUE 1. WATERMELON: ARTIFICIAL FLAVOR, TURMERIC (COLOR), BLUE 1." Date available: 07/14/2017 Date last updated by company: 07/14/2017
