Source: USDA Branded Food Products Database Release December 2017 Software v.3.8.6.4 2017-10-02
Report Run at: December 17, 2017 15:00 EST
"Nutrient data for: 45025440, RISING MOON ORGANICS, WILD CHANTERELLE MUSHROOM RAVIOLI, UPC: 785030116920"
Food Group:  Branded Food Products Database
Common Name:

Nutrient,Unit,Data points,Std. Error,"0.5 cup = 113.0g",1Value per 100 g,
Proximates
"Energy",kcal,--,--,240,212
"Protein",g,--,--,8.99,7.96
"Total lipid (fat)",g,--,--,2.99,2.65
"Carbohydrate, by difference",g,--,--,44.00,38.94
"Fiber, total dietary",g,--,--,2.0,1.8
"Sugars, total",g,--,--,0.99,0.88
Minerals
"Calcium, Ca",mg,--,--,60,53
"Iron, Fe",mg,--,--,1.86,1.65
"Sodium, Na",mg,--,--,330,292
Vitamins
"Vitamin C, total ascorbic acid",mg,--,--,8.2,7.3
"Vitamin A, IU",IU,--,--,0,0
Lipids
"Fatty acids, total saturated",g,--,--,1.503,1.330
"Fatty acids, total trans",g,--,--,0.000,0.000
"Cholesterol",mg,--,--,15,13
Amino Acids
Other
Ingredients
"PASTA INGREDIENTS: ORGANIC UNBLEACHED FLOUR, WATER, ORGANIC SEMOLINA FLOUR, ORGANIC EGGS, ORGANIC BLACK PEPPER, ORGANIC TURMERIC. FILLING INGREDIENTS: WATER, ORGANIC HALF & HALF (ORGANIC MILK, ORGANIC CREAM), ORGANIC CRIMINI MUSHROOMS, ORGANIC POTATO FLAKES, ORGANIC ASIAGO CHEESE (ORGANIC MILK, CHEESE CULTURES, ENZYMES, SALT), ORGANIC MOZZARELLA CHEESE (ORGANIC MILK, CHEESE CULTURES, ENZYMES, SALT), ORGANIC MODIFIED CORN STARCH, SEA SALT, ORGANIC SHIITAKE MUSHROOM, ORGANIC GARLIC, ORGANIC CHANTERELLE MUSHROOMS, ORGANIC PARSLEY FLAKES, ORGANIC ROSEMARY." Date available: 07/14/2017 Date last updated by company: 07/14/2017
