Source: USDA Branded Food Products Database Release December 2017 Software v.3.8.6.4 2017-10-02
Report Run at: December 17, 2017 15:00 EST
"Nutrient data for: 45287038, RISING CRUST SUPREME PIZZA, UPC: 036800244139"
Food Group:  Branded Food Products Database
Common Name:

Nutrient,Unit,Data points,Std. Error,"0.143 PIZZA = 132.0g",1Value per 100 g,
Proximates
"Energy",kcal,--,--,300,227
"Protein",g,--,--,11.00,8.33
"Total lipid (fat)",g,--,--,12.00,9.09
"Carbohydrate, by difference",g,--,--,37.00,28.03
"Fiber, total dietary",g,--,--,2.0,1.5
"Sugars, total",g,--,--,4.00,3.03
Minerals
"Calcium, Ca",mg,--,--,100,76
"Iron, Fe",mg,--,--,3.99,3.02
"Sodium, Na",mg,--,--,741,561
Vitamins
"Vitamin C, total ascorbic acid",mg,--,--,13.3,10.1
"Vitamin A, IU",IU,--,--,444,336
Lipids
"Fatty acids, total saturated",g,--,--,4.000,3.030
"Fatty acids, total trans",g,--,--,0.000,0.000
"Cholesterol",mg,--,--,25,19
Amino Acids
Other
Ingredients
"CRUST (ENRICHED FLOUR [WHEAT FLOUR, NIACIN, REDUCED IRON, THIAMINE MONONITRATE, RIBOFLAVIN, FOLIC ACID], WATER, SOYBEAN OIL, SUGAR, YEAST, 2% OR LESS: LEAVENING [SODIUM BICARBONATE, SODIUM ALUMINUM PHOSPHATE], SALT, CORN MEAL, SOY LECITHIN [PROCESSING AID]), SAUCE (WATER, TOMATOES, SPICE [SALT, SPICES, DEHYDRATED GARLIC, NATURAL FLAVORS, SUGAR, MALIC ACID]), LOW MOISTURE PART SKIM MOZZARELLA (PASTEURIZED PART SKIM MILK, CHEESE CULTURES, SALT, ENZYMES), COOKED SEASONED PIZZA TOPPING (PORK, MECHANICALLY SEPARATED CHICKEN, WATER, TEXTURED SOY PROTEIN CONCENTRATE, SPICE, SALT, SOY PROTEIN CONCENTRATE, SODIUM PHOSPHATES, PAPRIKA, MODIFIED CORN STARCH, NATURAL FLAVOR, AUTOLYZED YEAST EXTRACT, BHA, BHT, CITRIC ACID, YEAST EXTRACT, DISODIUM INOSINATE, SOY LECITHIN), PEPPERONI (PORK, MECHANICALLY SEPARATED CHICKEN, BEEF, SALT, SPICES, DEXTROSE, LACTIC ACID STARTER CULTURE, OLEORESIN OF PAPRIKA, SODIUM ASCORBATE, FLAVORING, SODIUM NITRITE, BHA, BHT, CITRIC ACID), GREEN PEPPER, ONION, RED PEPPER, BLACK OLIVES (OLIVES, WATER, SALT, FERROUS GLUCONATE)." Date available: 07/14/2017 Date last updated by company: 07/14/2017
