Source: USDA Branded Food Products Database Release December 2017 Software v.3.8.6.4 2017-10-02
Report Run at: December 17, 2017 15:02 EST
"Nutrient data for: 45143303, RITCHEY'S, LIGHTLY SWEETENED SWEET TEA, UPC: 042827202021"
Food Group:  Branded Food Products Database
Common Name:

Nutrient,Unit,Data points,Std. Error,"8.0 OZA = 240.0g",1Value per 100 g,
Proximates
"Energy",kcal,--,--,60,25
"Protein",g,--,--,0.00,0.00
"Total lipid (fat)",g,--,--,0.00,0.00
"Carbohydrate, by difference",g,--,--,13.99,5.83
"Sugars, total",g,--,--,13.99,5.83
Minerals
"Sodium, Na",mg,--,--,0,0
Vitamins
Lipids
Amino Acids
Other
Ingredients
"WATER, SUGAR, INSTANT TEA POWDER, PHOSPHORIC ACID, NATURAL FLAVORS, SODIUM BENZOATE" Date available: 07/14/2017 Date last updated by company: 07/14/2017
