Source: USDA Branded Food Products Database Release December 2017 Software v.3.8.6.4 2017-10-02
Report Run at: December 17, 2017 15:05 EST
"Nutrient data for: 45154744, RIVERTRAIL FOODS, CANDY CORN, UPC: 019061091469"
Food Group:  Branded Food Products Database
Common Name:

Nutrient,Unit,Data points,Std. Error,"21.0 PIECES = 40.0g",1Value per 100 g,
Proximates
"Energy",kcal,--,--,150,375
"Protein",g,--,--,1.00,2.50
"Total lipid (fat)",g,--,--,0.00,0.00
"Carbohydrate, by difference",g,--,--,37.00,92.50
"Fiber, total dietary",g,--,--,0.0,0.0
"Sugars, total",g,--,--,27.00,67.50
Minerals
"Calcium, Ca",mg,--,--,0,0
"Iron, Fe",mg,--,--,0.00,0.00
"Sodium, Na",mg,--,--,55,138
Vitamins
"Vitamin C, total ascorbic acid",mg,--,--,0.0,0.0
"Vitamin A, IU",IU,--,--,0,0
Lipids
"Fatty acids, total saturated",g,--,--,0.000,0.000
"Fatty acids, total trans",g,--,--,0.000,0.000
"Cholesterol",mg,--,--,0,0
Amino Acids
Other
Ingredients
"SUGAR, CORN SYRUP, SALT, GLYCERINE, EGG WHITES, CONFECTIONER'S GLAZE, NATURAL & ARTIFICIAL FLAVORS, MINERAL OIL, HONEY, CARNAUBA WAX, COCONUT OIL, ARTIFICIAL COLORS (YELLOW #6, YELLOW #5, RED #40, BLUE #1)." Date available: 07/14/2017 Date last updated by company: 07/14/2017
