Source: USDA Branded Food Products Database Release December 2017 Software v.3.8.6.4 2017-10-02
Report Run at: December 17, 2017 15:05 EST
"Nutrient data for: 45184761, RIVER VALLEY, ICE CREAM, VANILLA, UPC: 078982109318"
Food Group:  Branded Food Products Database
Common Name:

Nutrient,Unit,Data points,Std. Error,"0.5 cup = 65.0g",1Value per 100 g,
Proximates
"Energy",kcal,--,--,120,185
"Protein",g,--,--,1.00,1.54
"Total lipid (fat)",g,--,--,7.00,10.77
"Carbohydrate, by difference",g,--,--,15.00,23.08
"Fiber, total dietary",g,--,--,0.0,0.0
"Sugars, total",g,--,--,15.00,23.08
Minerals
"Calcium, Ca",mg,--,--,60,92
"Iron, Fe",mg,--,--,0.00,0.00
"Sodium, Na",mg,--,--,55,85
Vitamins
"Vitamin C, total ascorbic acid",mg,--,--,0.0,0.0
"Vitamin A, IU",IU,--,--,225,346
Lipids
"Fatty acids, total saturated",g,--,--,4.498,6.920
"Fatty acids, total trans",g,--,--,0.000,0.000
"Cholesterol",mg,--,--,25,38
Amino Acids
Other
Ingredients
"MILKFAT AND NONFAT MILK. CORN SYRUP, HIGH FRUCTOSE CORN SYRUP, SUGAR, WHEY, PROPYLENE GLYCOL MONOESTER, MONO AND DIGLYCERIDES, GUAR GUM, CELLULOSE GUM, CARRAGEENAN, ARTIFICIAL FLAVOR, ANNATTO (COLOR)" Date available: 07/14/2017 Date last updated by company: 07/14/2017
