Source: USDA Branded Food Products Database Release December 2017 Software v.3.8.6.4 2017-10-02
Report Run at: December 17, 2017 15:05 EST
"Nutrient data for: 45150851, RIVERTRAIL FOODS, SLIVERED ALMONDS, UPC: 019061092671"
Food Group:  Branded Food Products Database
Common Name:

Nutrient,Unit,Data points,Std. Error,"3.0 Tbsp = 30.0g",1Value per 100 g,
Proximates
"Energy",kcal,--,--,170,567
"Protein",g,--,--,7.00,23.33
"Total lipid (fat)",g,--,--,15.00,50.00
"Carbohydrate, by difference",g,--,--,5.00,16.67
"Fiber, total dietary",g,--,--,4.0,13.3
"Sugars, total",g,--,--,1.00,3.33
Minerals
"Calcium, Ca",mg,--,--,90,300
"Iron, Fe",mg,--,--,1.08,3.60
"Sodium, Na",mg,--,--,0,0
Vitamins
"Vitamin C, total ascorbic acid",mg,--,--,0.0,0.0
"Vitamin A, IU",IU,--,--,0,0
Lipids
"Fatty acids, total saturated",g,--,--,0.999,3.330
"Fatty acids, total trans",g,--,--,0.000,0.000
"Cholesterol",mg,--,--,0,0
Amino Acids
Other
Ingredients
"ALMOND" Date available: 11/29/2016 Date last updated by company: 11/29/2016
