Source: USDA Branded Food Products Database Release December 2017 Software v.3.8.6.4 2017-10-02
Report Run at: December 17, 2017 15:17 EST
"Nutrient data for: 45101240, ROASTED GARLIC + ROSEMARY CRACKERS, UPC: 855777003255"
Food Group:  Branded Food Products Database
Common Name:

Nutrient,Unit,Data points,Std. Error,"3.0 CRACKERS = 15.0g",1Value per 100 g,
Proximates
"Energy",kcal,--,--,60,400
"Protein",g,--,--,1.00,6.67
"Total lipid (fat)",g,--,--,2.00,13.33
"Carbohydrate, by difference",g,--,--,10.00,66.67
"Fiber, total dietary",g,--,--,1.0,6.7
"Sugars, total",g,--,--,1.00,6.67
Minerals
"Calcium, Ca",mg,--,--,0,0
"Iron, Fe",mg,--,--,1.20,8.00
"Potassium, K",mg,--,--,45,300
"Sodium, Na",mg,--,--,120,800
Vitamins
"Vitamin C, total ascorbic acid",mg,--,--,0.0,0.0
"Vitamin A, IU",IU,--,--,0,0
Lipids
"Fatty acids, total saturated",g,--,--,0.500,3.330
"Fatty acids, total monounsaturated",g,--,--,1.000,6.670
"Fatty acids, total polyunsaturated",g,--,--,0.000,0.000
"Fatty acids, total trans",g,--,--,0.000,0.000
"Cholesterol",mg,--,--,5,33
Amino Acids
Other
Ingredients
"BUTTERMILK (CULTURED 1% MILK, SALT, SODIUM CITRATE), CASSAVA FLOUR, FIVE WHOLE GRAIN GLUTEN FREE FLOUR (AMARANTH, QUINOA, MILLET, SORGHUM, TEFF), BUTTER (CREAM, SALT), POTATO STARCH, NON-GMO EXPELLER PRESSED CANOLA OIL, ROASTED GARLIC, CANE SUGAR, EXTRA VIRGIN OLIVE OIL, ROSEMARY, BAKING SODA, SEA SALT, VINEGAR, KOSHER SALT." Date available: 07/14/2017 Date last updated by company: 07/14/2017
