Source: USDA Branded Food Products Database Release December 2017 Software v.3.8.6.4 2017-10-02
Report Run at: December 17, 2017 15:32 EST
"Nutrient data for: 45250303, ROASTED & SALTED SUNFLOWER KERNELS, UPC: 023637410905"
Food Group:  Branded Food Products Database
Common Name:

Nutrient,Unit,Data points,Std. Error,"40.0 GRM = 40.0g",1Value per 100 g,
Proximates
"Energy",kcal,--,--,260,650
"Protein",g,--,--,9.00,22.50
"Total lipid (fat)",g,--,--,20.00,50.00
"Carbohydrate, by difference",g,--,--,10.00,25.00
"Fiber, total dietary",g,--,--,4.0,10.0
"Sugars, total",g,--,--,0.00,0.00
Minerals
"Calcium, Ca",mg,--,--,20,50
"Iron, Fe",mg,--,--,2.25,5.62
"Sodium, Na",mg,--,--,150,375
Vitamins
"Vitamin C, total ascorbic acid",mg,--,--,0.0,0.0
"Vitamin A, IU",IU,--,--,0,0
Lipids
"Fatty acids, total saturated",g,--,--,3.000,7.500
"Fatty acids, total trans",g,--,--,0.000,0.000
"Cholesterol",mg,--,--,0,0
Amino Acids
Other
Ingredients
"SUNFLOWER KERNELS, SUNFLOWER OIL SALT." Date available: 07/14/2017 Date last updated by company: 07/14/2017
