Source: USDA Branded Food Products Database Release December 2017 Software v.3.8.6.4 2017-10-02
Report Run at: December 17, 2017 15:15 EST
"Nutrient data for: 45268915, ROASTED GARLIC HUMMUS, UPC: 822986102055"
Food Group:  Branded Food Products Database
Common Name:

Nutrient,Unit,Data points,Std. Error,"1 ONZ = 28.0g",1Value per 100 g,
Proximates
"Energy",kcal,--,--,45,161
"Protein",g,--,--,2.00,7.14
"Total lipid (fat)",g,--,--,3.00,10.71
"Carbohydrate, by difference",g,--,--,4.00,14.29
"Fiber, total dietary",g,--,--,1.0,3.6
Minerals
"Calcium, Ca",mg,--,--,20,71
"Iron, Fe",mg,--,--,1.29,4.59
"Sodium, Na",mg,--,--,120,429
Vitamins
"Vitamin C, total ascorbic acid",mg,--,--,2.2,7.7
"Vitamin A, IU",IU,--,--,0,0
Lipids
"Fatty acids, total saturated",g,--,--,0.400,1.430
"Fatty acids, total trans",g,--,--,0.000,0.000
"Cholesterol",mg,--,--,0,0
Amino Acids
Other
Ingredients
"FRESHLY COOKED GARBANZO BEANS, TAHINI (PREMIUM STONE GROUND ROASTED SESAME SEEDS), FILTERED WATER, ROASTED GARLIC, ROASTED ONION, LEMON JUICE, EXTRA VIRGIN OLIVE OIL, SEA SALT, CITRIC ACID, CUMIN, CULTURED DEXTROSE, SPICES." Date available: 07/14/2017 Date last updated by company: 07/14/2017
