Source: USDA Branded Food Products Database Release December 2017 Software v.3.8.6.4 2017-10-02
Report Run at: December 17, 2017 15:09 EST
"Nutrient data for: 45214348, ROASTED ALMONDS, UPC: 049022764323"
Food Group:  Branded Food Products Database
Common Name:

Nutrient,Unit,Data points,Std. Error,"1.5 ONZ = 43.0g",1Value per 100 g,
Proximates
"Energy",kcal,--,--,260,605
"Protein",g,--,--,9.00,20.93
"Total lipid (fat)",g,--,--,24.00,55.81
"Carbohydrate, by difference",g,--,--,8.00,18.60
"Fiber, total dietary",g,--,--,5.0,11.6
"Sugars, total",g,--,--,2.00,4.65
Minerals
"Calcium, Ca",mg,--,--,120,279
"Iron, Fe",mg,--,--,1.67,3.89
"Sodium, Na",mg,--,--,150,349
Vitamins
"Vitamin C, total ascorbic acid",mg,--,--,0.0,0.0
"Vitamin A, IU",IU,--,--,0,0
Lipids
"Fatty acids, total saturated",g,--,--,2.000,4.650
"Fatty acids, total trans",g,--,--,0.000,0.000
"Cholesterol",mg,--,--,0,0
Amino Acids
Other
Ingredients
"ALMONDS, PEANUT AND/OR COTTONSEED OIL, SEA SALT." Date available: 07/14/2017 Date last updated by company: 07/14/2017
