Source: USDA Branded Food Products Database Release December 2017 Software v.3.8.6.4 2017-10-02
Report Run at: December 17, 2017 15:35 EST
"Nutrient data for: 45222547, ROASTED TOMATO & PINEAPPLE SAUCE, UPC: 085239602478"
Food Group:  Branded Food Products Database
Common Name:

Nutrient,Unit,Data points,Std. Error,"2.0 Tbsp = 30.0g",1Value per 100 g,
Proximates
"Energy",kcal,--,--,15,50
"Protein",g,--,--,0.00,0.00
"Total lipid (fat)",g,--,--,0.00,0.00
"Carbohydrate, by difference",g,--,--,4.00,13.33
"Fiber, total dietary",g,--,--,0.0,0.0
"Sugars, total",g,--,--,3.00,10.00
Minerals
"Calcium, Ca",mg,--,--,0,0
"Iron, Fe",mg,--,--,0.00,0.00
"Potassium, K",mg,--,--,75,250
"Sodium, Na",mg,--,--,210,700
Vitamins
"Vitamin C, total ascorbic acid",mg,--,--,8.0,26.7
"Vitamin A, IU",IU,--,--,166,555
Lipids
"Fatty acids, total saturated",g,--,--,0.000,0.000
"Fatty acids, total trans",g,--,--,0.000,0.000
"Cholesterol",mg,--,--,0,0
Amino Acids
Other
Ingredients
"TOMATOES (DICED TOMATOES, TOMATO PUREE), ROASTED JALAPENO PEPPERS, PINEAPPLE, SUGAR, WATER, ROASTED TOMATO PUREE, SALT, DISTILLED VINEGAR, ONION, NATURAL SMOKE FLAVOR, NATURAL FLAVOR." Date available: 07/14/2017 Date last updated by company: 07/14/2017
