Source: USDA Branded Food Products Database Release December 2017 Software v.3.8.6.4 2017-10-02
Report Run at: December 17, 2017 15:26 EST
"Nutrient data for: 45316233, ROASTED SALSA ROJA, UPC: 072878785303"
Food Group:  Branded Food Products Database
Common Name:

Nutrient,Unit,Data points,Std. Error,"2.0 Tbsp = 30.0g",1Value per 100 g,
Proximates
"Energy",kcal,--,--,5,17
"Protein",g,--,--,0.00,0.00
"Total lipid (fat)",g,--,--,0.00,0.00
"Carbohydrate, by difference",g,--,--,1.00,3.33
"Sugars, total",g,--,--,1.00,3.33
Minerals
"Sodium, Na",mg,--,--,260,867
Vitamins
Lipids
Amino Acids
Other
Ingredients
"FIRE ROASTED TOMATOES (TOMATOES, TOMATO JUICE, CITRIC ACID, CALCIUM CHLORIDE), JALAPENO PEPPERS, ROASTED JALAPENO PEPPERS, ONIONS, CILANTRO, DISTILLED VINEGAR, WATER, LESS THAN 2% OF SALT, GARLIC, SPICES, GUAR GUM." Date available: 10/13/2017 Date last updated by company: 10/13/2017
