Source: USDA Branded Food Products Database Release December 2017 Software v.3.8.6.4 2017-10-02
Report Run at: December 17, 2017 15:12 EST
"Nutrient data for: 45199321, ROASTED CHILE & PUMPKIN STEW STARTER, UPC: 096906202037"
Food Group:  Branded Food Products Database
Common Name:

Nutrient,Unit,Data points,Std. Error,"0.5 cup = 122.0g",1Value per 100 g,
Proximates
"Energy",kcal,--,--,35,29
"Protein",g,--,--,1.00,0.82
"Total lipid (fat)",g,--,--,0.65,0.53
"Carbohydrate, by difference",g,--,--,6.00,4.92
"Fiber, total dietary",g,--,--,2.0,1.6
"Sugars, total",g,--,--,2.00,1.64
Minerals
"Calcium, Ca",mg,--,--,20,16
"Iron, Fe",mg,--,--,0.30,0.25
"Sodium, Na",mg,--,--,510,418
Vitamins
"Vitamin C, total ascorbic acid",mg,--,--,2.6,2.1
"Vitamin A, IU",IU,--,--,952,780
Lipids
"Fatty acids, total saturated",g,--,--,0.000,0.000
"Fatty acids, total trans",g,--,--,0.000,0.000
"Cholesterol",mg,--,--,0,0
Amino Acids
Other
Ingredients
"TOMATOES [VINE-RIPENED TOMATOES, CALCIUM CHLORIDE, AND CITRIC ACID], PUMPKIN PUREE [WITH WATER], ONIONS, GREEN BELL PEPPER [WITH WATER AND CITRIC ACID], MODIFIED TAPIOCA STARCH, GARLIC, SALT, CHILI POWDER, GINGER POWDER, CUMIN, JALAPENO PEPPERS [WITH VINEGAR AND SALT], BLACK PEPPER, CINNAMON, ANCHO POWDER, NATURAL PUMPKIN FLAVOR, SMOKED PAPRIKA, CITRIC ACID." Date available: 07/14/2017 Date last updated by company: 07/14/2017
