Source: USDA Branded Food Products Database Release December 2017 Software v.3.8.6.4 2017-10-02
Report Run at: December 17, 2017 15:12 EST
"Nutrient data for: 45203472, ROASTED CHICKEN & GRAVY, UPC: 5051379091767"
Food Group:  Branded Food Products Database
Common Name:

Nutrient,Unit,Data points,Std. Error,"1 CHICKEN BREAST = 170.0g",1Value per 100 g,
Proximates
"Energy",kcal,--,--,190,112
"Protein",g,--,--,22.00,12.94
"Total lipid (fat)",g,--,--,10.00,5.88
"Carbohydrate, by difference",g,--,--,4.00,2.35
"Fiber, total dietary",g,--,--,0.0,0.0
"Sugars, total",g,--,--,0.00,0.00
Minerals
"Calcium, Ca",mg,--,--,0,0
"Iron, Fe",mg,--,--,1.09,0.64
"Sodium, Na",mg,--,--,639,376
Vitamins
"Vitamin C, total ascorbic acid",mg,--,--,0.0,0.0
"Vitamin A, IU",IU,--,--,0,0
Lipids
"Fatty acids, total saturated",g,--,--,2.992,1.760
"Fatty acids, total trans",g,--,--,0.000,0.000
"Cholesterol",mg,--,--,65,38
Amino Acids
Other
Ingredients
"SEASONED CHICKEN (CHICKEN BREAST, WATER, SALT, BLACK PEPPER, CARAMEL COLOR, SEASONING (MARJORAM, THYME, SAVORY, SAGE, ANISE, ROSEMARY, LAVENDER)], TURKEY GRAVY {WATER, WHEAT STARCH, TURKEY BASE (TURKEY STOCK, NATURAL FLAVOR, SALT, YEAST EXTRACT, SUGAR), C" Date available: 11/25/2016 Date last updated by company: 11/25/2016
