Source: USDA Branded Food Products Database Release December 2017 Software v.3.8.6.4 2017-10-02
Report Run at: December 17, 2017 15:37 EST
"Nutrient data for: 45250305, ROASTED & UNSALTED PISTACHIO KERNELS, UPC: 023637410929"
Food Group:  Branded Food Products Database
Common Name:

Nutrient,Unit,Data points,Std. Error,"0.25 cup = 30.0g",1Value per 100 g,
Proximates
"Energy",kcal,--,--,170,567
"Protein",g,--,--,6.00,20.00
"Total lipid (fat)",g,--,--,13.00,43.33
"Carbohydrate, by difference",g,--,--,9.00,30.00
"Fiber, total dietary",g,--,--,3.0,10.0
"Sugars, total",g,--,--,2.00,6.67
Minerals
"Calcium, Ca",mg,--,--,40,133
"Iron, Fe",mg,--,--,1.80,6.00
"Sodium, Na",mg,--,--,0,0
Vitamins
"Vitamin C, total ascorbic acid",mg,--,--,0.0,0.0
"Vitamin A, IU",IU,--,--,166,555
Lipids
"Fatty acids, total saturated",g,--,--,1.500,5.000
"Fatty acids, total trans",g,--,--,0.000,0.000
"Cholesterol",mg,--,--,0,0
Amino Acids
Other
Ingredients
"DRY ROASTED PISTACHIO KERNELS." Date available: 07/14/2017 Date last updated by company: 07/14/2017
