Source: USDA Branded Food Products Database Release December 2017 Software v.3.8.6.4 2017-10-02
Report Run at: December 17, 2017 15:39 EST
"Nutrient data for: 45276713, ROAST HALF DUCK, UPC: 073981324106"
Food Group:  Branded Food Products Database
Common Name:

Nutrient,Unit,Data points,Std. Error,"5.0 ONZ = 140.0g",1Value per 100 g,
Proximates
"Energy",kcal,--,--,300,214
"Protein",g,--,--,23.00,16.43
"Total lipid (fat)",g,--,--,19.00,13.57
"Carbohydrate, by difference",g,--,--,9.00,6.43
"Sugars, total",g,--,--,7.99,5.71
Minerals
"Iron, Fe",mg,--,--,0.71,0.51
"Sodium, Na",mg,--,--,640,457
Vitamins
"Vitamin A, IU",IU,--,--,39,28
Lipids
"Fatty acids, total saturated",g,--,--,4.998,3.570
"Cholesterol",mg,--,--,125,89
Amino Acids
Other
Ingredients
"DUCK INGREDIENTS: DUCK, WATER, SODIUM LACTATE, CONTAINS 2% OR LESS OF THE FOLLOWING: SODIUM PHOSPHATES, SALT, MALTODEXTRIN, MODIFIED FOOD STARCH, CELLULOSE GUM, NATURAL FLAVORINGS, OIL OF GARLIC. ORANGE SAUCE INGREDIENTS: ORANGE JUICE FROM CONCENTRATE, WATER, SUGAR, MODIFIED FOOD STARCH, DEXTROSE, CITRIC ACID, SALT, NATURAL FLAVOR, TORULA YEAST, XANTHAN GUM, SODIUM BENZOATE ADDED TO RETARD SPOILAGE, CARAMEL COLOR. SPICE, EXTRACTIVES OF PAPRIKA, ONION POWDER." Date available: 07/14/2017 Date last updated by company: 07/14/2017
