Source: USDA Branded Food Products Database Release December 2017 Software v.3.8.6.4 2017-10-02
Report Run at: December 17, 2017 15:28 EST
"Nutrient data for: 45252656, ROASTED SALTED CASHEWS, UPC: 835144009080"
Food Group:  Branded Food Products Database
Common Name:

Nutrient,Unit,Data points,Std. Error,"1 ONZ = 28.0g",1Value per 100 g,
Proximates
"Energy",kcal,--,--,163,582
"Protein",g,--,--,5.00,17.86
"Total lipid (fat)",g,--,--,13.00,46.43
"Carbohydrate, by difference",g,--,--,8.00,28.57
"Fiber, total dietary",g,--,--,1.0,3.6
"Sugars, total",g,--,--,1.00,3.57
Minerals
"Calcium, Ca",mg,--,--,10,36
"Iron, Fe",mg,--,--,2.89,10.33
"Sodium, Na",mg,--,--,86,307
Vitamins
"Vitamin C, total ascorbic acid",mg,--,--,0.0,0.0
"Vitamin A, IU",IU,--,--,0,0
Lipids
"Fatty acids, total saturated",g,--,--,1.999,7.140
"Fatty acids, total trans",g,--,--,0.000,0.000
"Cholesterol",mg,--,--,0,0
Amino Acids
Other
Ingredients
"CASHEWS, SOYBEAN OIL, SALT." Date available: 07/14/2017 Date last updated by company: 07/14/2017
