Source: USDA Branded Food Products Database Release December 2017 Software v.3.8.6.4 2017-10-02
Report Run at: December 17, 2017 15:16 EST
"Nutrient data for: 45055638, ROASTED GARLIC MUSTARD, UPC: 711381000120"
Food Group:  Branded Food Products Database
Common Name:

Nutrient,Unit,Data points,Std. Error,"1 tsp = 5.0g",1Value per 100 g,
Proximates
"Energy",kcal,--,--,5,100
"Protein",g,--,--,0.00,0.00
"Total lipid (fat)",g,--,--,0.00,0.00
"Carbohydrate, by difference",g,--,--,1.00,20.00
"Sugars, total",g,--,--,0.00,0.00
Minerals
"Iron, Fe",mg,--,--,0.00,0.00
"Sodium, Na",mg,--,--,75,1500
Vitamins
"Vitamin A, IU",IU,--,--,0,0
Lipids
"Fatty acids, total saturated",g,--,--,0.000,0.000
"Fatty acids, total trans",g,--,--,0.000,0.000
Amino Acids
Other
Ingredients
"MUSTARD (WATER, WHITE DISTILLED VINEGAR, MUSTARD SEED, WHITE WINE, GARLIC, SALT, SUGAR, XANTHAN GUM, SPICES, NATURAL FLAVOR, CITRIC ACID, CELERY SEED, TURMERIC, ANNATTO), GARLIC, CANOLA OIL, HONEY, SALT" Date available: 06/24/2017 Date last updated by company: 06/24/2017
