Source: USDA Branded Food Products Database Release December 2017 Software v.3.8.6.4 2017-10-02
Report Run at: December 17, 2017 15:30 EST
"Nutrient data for: 45316293, ROASTED & SALTED PEANUTS, UPC: 050336012215"
Food Group:  Branded Food Products Database
Common Name:

Nutrient,Unit,Data points,Std. Error,"0.25 CUP) | (ABOUT = 28.0g",1Value per 100 g,
Proximates
"Energy",kcal,--,--,160,571
"Protein",g,--,--,7.00,25.00
"Total lipid (fat)",g,--,--,14.00,50.00
"Carbohydrate, by difference",g,--,--,5.00,17.86
"Fiber, total dietary",g,--,--,2.0,7.1
"Sugars, total",g,--,--,1.00,3.57
Minerals
"Calcium, Ca",mg,--,--,26,93
"Iron, Fe",mg,--,--,1.00,3.57
"Potassium, K",mg,--,--,197,704
"Sodium, Na",mg,--,--,110,393
Vitamins
"Vitamin D",IU,--,--,0,0
Lipids
"Fatty acids, total saturated",g,--,--,1.999,7.140
"Fatty acids, total monounsaturated",g,--,--,7.000,25.000
"Fatty acids, total polyunsaturated",g,--,--,4.500,16.070
"Fatty acids, total trans",g,--,--,0.000,0.000
"Cholesterol",mg,--,--,0,0
Amino Acids
Other
Ingredients
"PEANUTS, SEA SALT, PEANUT OIL." Date available: 09/25/2017 Date last updated by company: 09/25/2017
