Source: USDA Branded Food Products Database Release December 2017 Software v.3.8.6.4 2017-10-02
Report Run at: December 17, 2017 15:15 EST
"Nutrient data for: 45082714, ROASTED GARLIC HUMMUS, UPC: 645136000113"
Food Group:  Branded Food Products Database
Common Name:

Nutrient,Unit,Data points,Std. Error,"2.0 Tbsp = 30.0g",1Value per 100 g,
Proximates
"Energy",kcal,--,--,86,287
"Protein",g,--,--,2.00,6.67
"Total lipid (fat)",g,--,--,3.50,11.67
"Carbohydrate, by difference",g,--,--,10.00,33.33
"Fiber, total dietary",g,--,--,2.0,6.7
"Sugars, total",g,--,--,1.00,3.33
Minerals
"Calcium, Ca",mg,--,--,30,100
"Iron, Fe",mg,--,--,1.20,4.00
"Sodium, Na",mg,--,--,109,363
Vitamins
"Vitamin C, total ascorbic acid",mg,--,--,6.0,20.0
"Vitamin A, IU",IU,--,--,0,0
Lipids
"Fatty acids, total saturated",g,--,--,0.000,0.000
"Fatty acids, total trans",g,--,--,0.000,0.000
"Cholesterol",mg,--,--,0,0
Amino Acids
Other
Ingredients
"ORGANIC GARBANZO BEANS, OLIVE OIL, SESAME TAHINI, ROASTED GARLIC, LEMON JUICE, SEA SALT, GARLIC, CITRIC ACID." Date available: 06/25/2017 Date last updated by company: 06/25/2017
