Source: USDA Branded Food Products Database Release December 2017 Software v.3.8.6.4 2017-10-02
Report Run at: December 17, 2017 15:37 EST
"Nutrient data for: 45275964, ROASTED UNSALTED IN-SHELL PUMPKIN SEEDS, UPC: 064777815748"
Food Group:  Branded Food Products Database
Common Name:

Nutrient,Unit,Data points,Std. Error,"0.5 cup = 50.0g",1Value per 100 g,
Proximates
"Energy",kcal,--,--,300,600
"Protein",g,--,--,15.00,30.00
"Total lipid (fat)",g,--,--,23.00,46.00
"Carbohydrate, by difference",g,--,--,8.00,16.00
"Fiber, total dietary",g,--,--,3.0,6.0
"Sugars, total",g,--,--,1.00,2.00
Minerals
"Calcium, Ca",mg,--,--,40,80
"Iron, Fe",mg,--,--,1.44,2.88
"Sodium, Na",mg,--,--,0,0
Vitamins
"Vitamin C, total ascorbic acid",mg,--,--,0.0,0.0
"Vitamin A, IU",IU,--,--,100,200
Lipids
"Fatty acids, total saturated",g,--,--,4.500,9.000
"Fatty acids, total trans",g,--,--,0.000,0.000
"Cholesterol",mg,--,--,0,0
Amino Acids
Other
Ingredients
"PUMPKIN SEEDS." Date available: 07/14/2017 Date last updated by company: 07/14/2017
