Source: USDA Branded Food Products Database Release December 2017 Software v.3.8.6.4 2017-10-02
Report Run at: December 17, 2017 15:07 EST
"Nutrient data for: 45197838, ROAST BEEF GRAVY MIX, UPC: 074026999556"
Food Group:  Branded Food Products Database
Common Name:

Nutrient,Unit,Data points,Std. Error,"0.25 cup = 9.74g",1Value per 100 g,
Proximates
"Energy",kcal,--,--,35,359
"Protein",g,--,--,0.00,0.00
"Total lipid (fat)",g,--,--,0.00,0.00
"Carbohydrate, by difference",g,--,--,7.00,71.87
"Fiber, total dietary",g,--,--,0.0,0.0
"Sugars, total",g,--,--,1.00,10.27
Minerals
"Calcium, Ca",mg,--,--,0,0
"Iron, Fe",mg,--,--,0.00,0.00
"Sodium, Na",mg,--,--,390,4004
Vitamins
"Vitamin C, total ascorbic acid",mg,--,--,0.0,0.0
"Vitamin A, IU",IU,--,--,0,0
Lipids
"Fatty acids, total saturated",g,--,--,0.000,0.000
"Fatty acids, total trans",g,--,--,0.000,0.000
"Cholesterol",mg,--,--,0,0
Amino Acids
Other
Ingredients
"MALTODEXTRIN, ENRICHED WHEAT FLOUR (NIACIN, REDUCED IRON, THIAMINE MONONITRATE, RIBOFLAVIN, FOLIC ACID), CORN STARCH, SALT, WHEY, HYDROLYZED VEGETABLE PROTEIN (SOY AND CORN), DEHYDRATED PALM OIL, COLOR ADDED (CARAMEL COLOR), SUGAR, ONION POWDER, LACTOSE, DEHYDRATED BLACK PEPPER, YEAST EXTRACT, CITRIC ACID, SODIUM CASEINATE, POTASSIUM PHOSPHATE, SODIUM SILICOALUMINATE TO REDUCE CAKING." Date available: 07/14/2017 Date last updated by company: 07/14/2017
