Source: USDA Branded Food Products Database Release December 2017 Software v.3.8.6.4 2017-10-02
Report Run at: December 17, 2017 15:38 EST
"Nutrient data for: 45286338, ROASTED VEGETABLE CLASSIC SNACK CRACKERS, UPC: 021130113217"
Food Group:  Branded Food Products Database
Common Name:

Nutrient,Unit,Data points,Std. Error,"5.0 CRACKERS = 16.0g",1Value per 100 g,
Proximates
"Energy",kcal,--,--,80,500
"Protein",g,--,--,1.00,6.25
"Total lipid (fat)",g,--,--,3.50,21.88
"Carbohydrate, by difference",g,--,--,10.00,62.50
"Fiber, total dietary",g,--,--,0.0,0.0
"Sugars, total",g,--,--,1.00,6.25
Minerals
"Calcium, Ca",mg,--,--,0,0
"Iron, Fe",mg,--,--,2.25,14.06
"Potassium, K",mg,--,--,20,125
"Sodium, Na",mg,--,--,150,938
Vitamins
"Vitamin C, total ascorbic acid",mg,--,--,0.0,0.0
"Vitamin A, IU",IU,--,--,0,0
Lipids
"Fatty acids, total saturated",g,--,--,1.000,6.250
"Fatty acids, total monounsaturated",g,--,--,1.000,6.250
"Fatty acids, total polyunsaturated",g,--,--,2.000,12.500
"Fatty acids, total trans",g,--,--,0.000,0.000
"Cholesterol",mg,--,--,0,0
Amino Acids
Other
Ingredients
"ENRICHED FLOUR (WHEAT FLOUR, NIACIN, IRON, THIAMIN MONONITRATE, RIBOFLAVIN, FOLIC ACID), VEGETABLE OIL (CANOLA AND/OR SOYBEAN AND/OR PALM OIL WITH TBHQ AND CITRIC ACID ADDED FOR FRESHNESS), SUGAR, DEHYDRATED VEGETABLE AND SPICE BLEND (CARROTS, ONIONS, DEXTROSE, SALT, HYDROLYZED SOY PROTEIN, TOMATO POWDER, GARLIC POWDER, GREEN AND RED BELL PEPPERS, SPICES, PARSLEY, SPICE EXTRACTIVE, SOYBEAN OIL), CONTAINS 2% OR LESS OF: SALT, LEAVENING (BAKING SODA AND/OR CALCIUM PHOSPHATE), HIGH FRUCTOSE CORN SYRUP, ONION POWDER, GARLIC POWDER, SOY LECITHIN, SODIUM SULFITE." Date available: 07/14/2017 Date last updated by company: 07/14/2017
