Source: USDA Branded Food Products Database Release December 2017 Software v.3.8.6.4 2017-10-02
Report Run at: December 17, 2017 15:13 EST
"Nutrient data for: 45137943, ROASTED COFFEE + MILK DRINK, UPC: 782269315209"
Food Group:  Branded Food Products Database
Common Name:

Nutrient,Unit,Data points,Std. Error,"8.0 OZA = 240.0g",1Value per 100 g,
Proximates
"Energy",kcal,--,--,139,58
"Protein",g,--,--,4.99,2.08
"Total lipid (fat)",g,--,--,1.49,0.62
"Carbohydrate, by difference",g,--,--,25.99,10.83
"Fiber, total dietary",g,--,--,0.0,0.0
"Sugars, total",g,--,--,25.01,10.42
Minerals
"Calcium, Ca",mg,--,--,149,62
"Iron, Fe",mg,--,--,0.00,0.00
"Sodium, Na",mg,--,--,91,38
Vitamins
"Vitamin C, total ascorbic acid",mg,--,--,0.0,0.0
"Vitamin A, IU",IU,--,--,0,0
Lipids
"Fatty acids, total saturated",g,--,--,1.008,0.420
"Fatty acids, total trans",g,--,--,0.000,0.000
"Cholesterol",mg,--,--,5,2
Amino Acids
Other
Ingredients
"BREWED COFFEE (WATER, COFFEE), REDUCED FAT MILK, SUGAR, NATURAL FLAVORS, AND CARRAGEENAN." Date available: 07/14/2017 Date last updated by company: 07/14/2017
