Source: USDA Branded Food Products Database Release December 2017 Software v.3.8.6.4 2017-10-02
Report Run at: December 17, 2017 15:07 EST
"Nutrient data for: 45287232, ROAST BEEF DELI SNADWICH, UPC: 049022857179"
Food Group:  Branded Food Products Database
Common Name:

Nutrient,Unit,Data points,Std. Error,"1 SERVING = 104.8g",1Value per 100 g,
Proximates
"Energy",kcal,--,--,220,210
"Protein",g,--,--,14.00,13.36
"Total lipid (fat)",g,--,--,8.00,7.63
"Carbohydrate, by difference",g,--,--,24.99,23.85
"Fiber, total dietary",g,--,--,5.0,4.8
"Sugars, total",g,--,--,1.00,0.95
Minerals
"Sodium, Na",mg,--,--,520,496
Vitamins
Lipids
"Fatty acids, total saturated",g,--,--,2.997,2.860
"Fatty acids, total trans",g,--,--,0.000,0.000
"Cholesterol",mg,--,--,25,24
Amino Acids
Other
Ingredients
"MULTI GRAIN BREAD (WATER, WHOLE WHEAT FLOUR, ENRICHED UNBLEACHED FLOUR( WHEAT FOUR, MALT BARLEY FLOUR, NIACIN, FERROUS SULFATE, THIAMIN MONONITRATE, RIBOFLAVIN, FOLIC ACID), 9 GRAIN MIX (HARD RED WHEAT, WHITE WHEAT, BARLEY, RYE, OATS, CORN, MILLET, BUCKWHEAT AND FLAX SEEDS), OAT FIBER, BROWN SUGAR, SOYBEAN OIL, RYE MEAL, FLAX SEEDS, BLACK SESAME SEEDS, WHEAT GLUTEN, MOLASSES, SALT, YEAST, ENZYME VINEGAR, CULTURED WHEAT FLOUR, CARAMEL COLOR, ASCORBIC ACID); ROAST BEEF (BEEF, WATER, SALT, SUGAR, SODIUM PHOSPHATE, GARLIC POWDER, CARAMEL COLOR, FLAVORINGS); CHEDDAR CHEESE (PASTEURIZED MILK, CHEESE CULTURES, SALT, ENZYMES, ANNATTO (COLOR)); TOMATO; LETTUCE; ONION." Date available: 10/13/2017 Date last updated by company: 10/13/2017
