Source: USDA Branded Food Products Database Release December 2017 Software v.3.8.6.4 2017-10-02
Report Run at: December 17, 2017 15:21 EST
"Nutrient data for: 45232886, ROASTED PEANUT DARK CHOCOLATE SUPERFOOD SNACK BAR, UPC: 058449153153"
Food Group:  Branded Food Products Database
Common Name:

Nutrient,Unit,Data points,Std. Error,"1 BAR = 38.0g",1Value per 100 g,
Proximates
"Energy",kcal,--,--,190,500
"Protein",g,--,--,5.00,13.16
"Total lipid (fat)",g,--,--,10.00,26.32
"Carbohydrate, by difference",g,--,--,20.00,52.63
"Fiber, total dietary",g,--,--,5.0,13.2
"Sugars, total",g,--,--,8.00,21.05
Minerals
"Calcium, Ca",mg,--,--,20,53
"Iron, Fe",mg,--,--,0.76,1.99
"Sodium, Na",mg,--,--,110,289
Vitamins
"Vitamin C, total ascorbic acid",mg,--,--,0.0,0.0
"Vitamin A, IU",IU,--,--,0,0
Lipids
"Fatty acids, total saturated",g,--,--,5.001,13.160
"Fatty acids, total monounsaturated",g,--,--,2.998,7.890
"Fatty acids, total polyunsaturated",g,--,--,0.999,2.630
"Fatty acids, total trans",g,--,--,0.000,0.000
"Cholesterol",mg,--,--,0,0
Amino Acids
Other
Ingredients
"ROASTED PEANUTS*, DRIED COCONUT*, FAIR TRADE DARK CHOCOLATE CHUNKS* (CANE SUGAR*, UNSWEETENED CHOCOLATE*, COCOA BUTTER*, VANILLA*), TAPIOCA SYRUP*, BROWN RICE SYRUP*, CHIA SEEDS*, HEMP SEEDS*, PEANUT BUTTER*, SEA SALT, TOCOPHEROLS (VITAMIN E)." Date available: 07/14/2017 Date last updated by company: 07/14/2017
