Source: USDA Branded Food Products Database Release December 2017 Software v.3.8.6.4 2017-10-02
Report Run at: December 17, 2017 15:23 EST
"Nutrient data for: 45056921, ROASTED PIQUILLO PEPPERS IN WATER, UPC: 072368700809"
Food Group:  Branded Food Products Database
Common Name:

Nutrient,Unit,Data points,Std. Error,"0.25 cup = 50.0g",1Value per 100 g,
Proximates
"Energy",kcal,--,--,20,40
"Protein",g,--,--,0.00,0.00
"Total lipid (fat)",g,--,--,0.00,0.00
"Carbohydrate, by difference",g,--,--,4.00,8.00
"Fiber, total dietary",g,--,--,1.0,2.0
"Sugars, total",g,--,--,3.00,6.00
Minerals
"Calcium, Ca",mg,--,--,25,50
"Iron, Fe",mg,--,--,0.00,0.00
"Potassium, K",mg,--,--,85,170
"Sodium, Na",mg,--,--,120,240
Vitamins
"Vitamin C, total ascorbic acid",mg,--,--,27.0,54.0
"Vitamin A, IU",IU,--,--,1250,2500
"Vitamin D",IU,--,--,0,0
Lipids
"Fatty acids, total saturated",g,--,--,0.000,0.000
"Fatty acids, total trans",g,--,--,0.000,0.000
"Cholesterol",mg,--,--,0,0
Amino Acids
Other
Ingredients
"PIQUILLO PEPPERS, WATER, SUGAR, SALT, CITRIC ACID, CALCIUM CHLORIDE." Date available: 10/13/2017 Date last updated by company: 10/13/2017
