Source: USDA Branded Food Products Database Release December 2017 Software v.3.8.6.4 2017-10-02
Report Run at: December 17, 2017 15:08 EST
"Nutrient data for: 45201104, ROASTED ALMOND PROTEIN NUT BARS, UPC: 753656712093"
Food Group:  Branded Food Products Database
Common Name:

Nutrient,Unit,Data points,Std. Error,"1 BAR = 38.5g",1Value per 100 g,
Proximates
"Energy",kcal,--,--,190,494
"Protein",g,--,--,9.00,23.38
"Total lipid (fat)",g,--,--,12.00,31.17
"Carbohydrate, by difference",g,--,--,14.00,36.36
"Fiber, total dietary",g,--,--,3.0,7.8
"Sugars, total",g,--,--,6.00,15.58
Minerals
"Calcium, Ca",mg,--,--,60,156
"Iron, Fe",mg,--,--,1.87,4.86
"Sodium, Na",mg,--,--,115,299
Vitamins
"Vitamin C, total ascorbic acid",mg,--,--,0.0,0.0
"Vitamin A, IU",IU,--,--,0,0
Lipids
"Fatty acids, total saturated",g,--,--,1.502,3.900
"Fatty acids, total trans",g,--,--,0.000,0.000
"Cholesterol",mg,--,--,0,0
Amino Acids
Other
Ingredients
"ALMONDS, PUMPKIN SEEDS, BROWN RICE SYRUP, SOY CRISPS (SOY PROTEIN ISOLATE, TAPIOCA STARCH, SALT), SUNFLOWER SEEDS, CHICORY FIBER, CANE SYRUP CRYSTALS, PEANUTS, NATURAL FLAVORS, SEA SALT." Date available: 10/13/2017 Date last updated by company: 10/13/2017
