Source: USDA Branded Food Products Database Release December 2017 Software v.3.8.6.4 2017-10-02
Report Run at: December 17, 2017 15:40 EST
"Nutrient data for: 45022329, ROBERT ROTHSCHILD FARM, ORGANIC HOT CHERRY MERLOT DIP, UPC: 011246701125"
Food Group:  Branded Food Products Database
Common Name:

Nutrient,Unit,Data points,Std. Error,"2.0 Tbsp = 39.0g",1Value per 100 g,
Proximates
"Energy",kcal,--,--,60,154
"Protein",g,--,--,0.00,0.00
"Total lipid (fat)",g,--,--,0.00,0.00
"Carbohydrate, by difference",g,--,--,14.00,35.90
"Fiber, total dietary",g,--,--,0.0,0.0
"Sugars, total",g,--,--,12.00,30.77
Minerals
"Calcium, Ca",mg,--,--,0,0
"Iron, Fe",mg,--,--,0.00,0.00
"Sodium, Na",mg,--,--,5,13
Vitamins
"Vitamin C, total ascorbic acid",mg,--,--,0.0,0.0
"Vitamin A, IU",IU,--,--,385,986
Lipids
"Fatty acids, total saturated",g,--,--,0.000,0.000
"Fatty acids, total trans",g,--,--,0.000,0.000
"Cholesterol",mg,--,--,0,0
Amino Acids
Other
Ingredients
"CHERRIES*, SUGAR*, WATER, CORNSTARCH*, MERLOT WINE*, HABANERO PEPPERS*." Date available: 06/25/2017 Date last updated by company: 06/25/2017
