Source: USDA Branded Food Products Database Release December 2017 Software v.3.8.6.4 2017-10-02
Report Run at: December 17, 2017 15:43 EST
"Nutrient data for: 45149588, ROCKY MOUNTAIN CHOCOLATE FACTORY, CRISPY BEARS MILK CHOCOLATE, UPC: 751269010834"
Food Group:  Branded Food Products Database
Common Name:

Nutrient,Unit,Data points,Std. Error,"2.0 PIECES = 33.0g",1Value per 100 g,
Proximates
"Energy",kcal,--,--,160,485
"Protein",g,--,--,1.00,3.03
"Total lipid (fat)",g,--,--,8.00,24.24
"Carbohydrate, by difference",g,--,--,21.00,63.64
"Fiber, total dietary",g,--,--,0.0,0.0
"Sugars, total",g,--,--,16.00,48.48
Minerals
"Calcium, Ca",mg,--,--,40,121
"Iron, Fe",mg,--,--,1.09,3.31
"Sodium, Na",mg,--,--,75,227
Vitamins
"Vitamin C, total ascorbic acid",mg,--,--,0.0,0.0
"Vitamin A, IU",IU,--,--,303,918
Lipids
"Fatty acids, total saturated",g,--,--,5.000,15.150
"Fatty acids, total trans",g,--,--,0.000,0.000
"Cholesterol",mg,--,--,5,15
Amino Acids
Other
Ingredients
"MILK CHOCOLATE (SUGAR, COCOA BUTTER, MILK, CHOCOLATE LIQUOR [PROCESSED WITH ALKALI], LACTOSE, MILKFAT, SOYA LECITHIN, NATURAL AND ARTIFICIAL FLAVORS), CORN SYRUP, SUGAR, CREAM (MILK, CARRAGEENAN, DEXTROSE), CRISP RICE (RICE FLOUR, SUGAR, MALT EXTRACT, SALT, DISTILLED MONOGLYCERIDES), MILK, HYDROGENATED COCONUT OIL, SALT, SOY LECITHIN, NATURAL AND/OR ARTIFICIAL FLAVOR, SHARES EQUIPMENT WITH PEANUTS, ALMONDS, CASHEWS, HAZELNUTS, MACADAMIAS, PECANS, WALNUTS, WHEAT, MILK, EGG & SOY." Date available: 07/14/2017 Date last updated by company: 07/14/2017
