Source: USDA Branded Food Products Database Release December 2017 Software v.3.8.6.4 2017-10-02
Report Run at: December 17, 2017 15:43 EST
"Nutrient data for: 45145768, ROCKY MOUNTAIN CHOCOLATE FACTORY, ENGLISH TOFFEE, UPC: 751269008572"
Food Group:  Branded Food Products Database
Common Name:

Nutrient,Unit,Data points,Std. Error,"2.0 PIECES = 33.0g",1Value per 100 g,
Proximates
"Energy",kcal,--,--,190,576
"Protein",g,--,--,3.00,9.09
"Total lipid (fat)",g,--,--,13.00,39.39
"Carbohydrate, by difference",g,--,--,15.00,45.45
"Fiber, total dietary",g,--,--,1.0,3.0
"Sugars, total",g,--,--,14.00,42.42
Minerals
"Calcium, Ca",mg,--,--,40,121
"Iron, Fe",mg,--,--,0.54,1.65
"Sodium, Na",mg,--,--,125,379
Vitamins
"Vitamin C, total ascorbic acid",mg,--,--,0.0,0.0
"Vitamin A, IU",IU,--,--,0,0
Lipids
"Fatty acids, total saturated",g,--,--,5.000,15.150
"Fatty acids, total trans",g,--,--,0.000,0.000
"Cholesterol",mg,--,--,15,45
Amino Acids
Other
Ingredients
"ALMONDS, SUGAR, BUTTER (CREAM, [MILK], WATER, SALT), MILK CHOCOLATE (SUGAR, COCOA BUTTER, MILK, CHOCOLATE LIQUOR [PROCESSED WITH ALKALI], LACTOSE, MILKFAT, SOYA LECITHIN, NATURAL AND ARTIFICIAL FLAVORS), SOY LECITHIN, SALT, SHARES EQUIPMENT WITH PEANUTS, ALMONDS, CASHEWS, HAZELNUTS, MACADAMIAS, PECANS, WALNUTS, WHEAT, MILK, EGG & SOY." Date available: 07/14/2017 Date last updated by company: 07/14/2017
