Source: USDA Branded Food Products Database Release December 2017 Software v.3.8.6.4 2017-10-02
Report Run at: December 17, 2017 15:42 EST
"Nutrient data for: 45033804, ROCKLAND BAKERY, ENRICHED HOT DOG, UPC: 034791281058"
Food Group:  Branded Food Products Database
Common Name:

Nutrient,Unit,Data points,Std. Error,"1 ROLL = 43.0g",1Value per 100 g,
Proximates
"Energy",kcal,--,--,100,233
"Protein",g,--,--,3.00,6.98
"Total lipid (fat)",g,--,--,1.00,2.33
"Carbohydrate, by difference",g,--,--,19.00,44.19
"Fiber, total dietary",g,--,--,1.0,2.3
"Sugars, total",g,--,--,2.00,4.65
Minerals
"Calcium, Ca",mg,--,--,40,93
"Iron, Fe",mg,--,--,1.26,2.92
"Sodium, Na",mg,--,--,170,395
Vitamins
"Vitamin C, total ascorbic acid",mg,--,--,1.4,3.3
"Vitamin A, IU",IU,--,--,0,0
Lipids
"Fatty acids, total saturated",g,--,--,0.000,0.000
"Fatty acids, total trans",g,--,--,0.000,0.000
"Cholesterol",mg,--,--,0,0
Amino Acids
Other
Ingredients
"ENRICHED WHEAT FLOUR, (WHEAT FLOUR, MALTED BARLEY FLOUR, NIACIN, REDUCED IRON, THIAMINE MONONITRATE, RIBOFLAVIN, FOLIC ACID), WATER, SUGAR, YEAST, SOYBEAN OIL, SALT, MONOGLYCERIDES, CALCIUM PROPIONATE, CALCIUM SULFATE, ENZYMES, GUAR GUM, CONDITIONER (DIACETYL TARTARIC ACID ESTHERS OF MONO-DIGLYCERIDES, ENZYMES (CONTAINS WHEAT), ASCORBIC ACID (VITAMIN C), AND 2% OF LESS OF EACH OF THE FOLLOWING: MALTED WHEAT FLOUR, PRESERVATIVES (PROPIONIC ACID, PHOSPHORIC ACID)." Date available: 06/24/2017 Date last updated by company: 06/24/2017
