Source: USDA Branded Food Products Database Release December 2017 Software v.3.8.6.4 2017-10-02
Report Run at: December 17, 2017 15:42 EST
"Nutrient data for: 45238409, ROCKSTAR, ENERGY DRINK, UPC: 818094003612"
Food Group:  Branded Food Products Database
Common Name:

Nutrient,Unit,Data points,Std. Error,"2.0 | ABOUT = 240.0g",1Value per 100 g,
Proximates
"Energy",kcal,--,--,120,50
"Protein",g,--,--,12.00,5.00
"Total lipid (fat)",g,--,--,1.99,0.83
"Carbohydrate, by difference",g,--,--,10.01,4.17
"Sugars, total",g,--,--,9.00,3.75
Minerals
"Calcium, Ca",mg,--,--,300,125
"Iron, Fe",mg,--,--,6.74,2.81
"Potassium, K",mg,--,--,319,133
"Sodium, Na",mg,--,--,250,104
Vitamins
"Vitamin C, total ascorbic acid",mg,--,--,45.1,18.8
"Niacin",mg,--,--,19.999,8.333
"Pantothenic acid",mg,--,--,10.001,4.167
"Vitamin B-6",mg,--,--,1.999,0.833
Lipids
"Cholesterol",mg,--,--,10,4
Amino Acids
Other
Ingredients
"WATER, MILK PROTEIN CONCENTRATE, NON FAT MILK, SUGAR, GLUCOSE, SUNFLOWER OIL, TAURINE, MICROCYSTALLINE CELLULOSE, SODIUM CITRATE, POTASSIUM PHOSPHATES, SALT, SODIUM BICARBONATE, MONO AND DIGLYCERIDES, CAFFEINE, SODIUM POLYPHOSPHATE, ASCORBIC ACID, CELLULOSE GUM, NATURAL FLAVORS, GLUCORONOLACTONE, ACESULFAME POTASSIUM, SUCRALOSE, PANTOTHENIC ACID, INOSITOL, L-CARNITINE, NIACINAMIDE, CARRAGEENAN, PYRIDOXINE HYDROCHLORIDE, PANAX GINSENG ROOT EXTRACT, GUARANA SEED EXTRACT." Date available: 07/14/2017 Date last updated by company: 07/14/2017
