Source: USDA Branded Food Products Database Release December 2017 Software v.3.8.6.4 2017-10-02
Report Run at: December 17, 2017 15:44 EST
"Nutrient data for: 45148512, ROCKY MTN PROVISIONS, BAR ROOM BLITZ - TRAIL MIX, UPC: 076958413551"
Food Group:  Branded Food Products Database
Common Name:

Nutrient,Unit,Data points,Std. Error,"0.33 cup = 30.0g",1Value per 100 g,
Proximates
"Energy",kcal,--,--,150,500
"Protein",g,--,--,5.00,16.67
"Total lipid (fat)",g,--,--,10.00,33.33
"Carbohydrate, by difference",g,--,--,13.00,43.33
"Fiber, total dietary",g,--,--,2.0,6.7
"Sugars, total",g,--,--,1.00,3.33
Minerals
"Calcium, Ca",mg,--,--,40,133
"Iron, Fe",mg,--,--,1.20,4.00
"Sodium, Na",mg,--,--,440,1467
Vitamins
"Vitamin C, total ascorbic acid",mg,--,--,0.0,0.0
"Vitamin A, IU",IU,--,--,0,0
Lipids
"Fatty acids, total saturated",g,--,--,1.500,5.000
"Fatty acids, total trans",g,--,--,0.000,0.000
"Cholesterol",mg,--,--,0,0
Amino Acids
Other
Ingredients
"PEANUTS (PEANUTS, PEANUT OIL, SALT), ROASTED CORN (CORN, PALM OIL, SEA SALT), ROASTED PEANUTS (PEANUTS, PEANUT OIL), SESAME STICKS (ENRICHED WHEAT FLOUR [UNBLEACHED WHEAT FLOUR, MALTED BARLEY FLOUR, NIACIN, IRON (REDUCED IRON), THIAMINE MONONITRATE, RIBOFLAVIN, FOLIC ACID], SOYBEAN OIL, SESAME SEEDS, BULGUR WHEAT, SALT, BEET POWDER [COLOR], TURMERIC [COLOR]), MICRO MINI PRETZELS (UNBLEACHED ENRICHED WHEAT FLOUR [FLOUR, NIACIN, REDUCED IRON, THIAMINE MONONITRATE-B1, RIBOFLAVIN-B2, FOLIC ACID], SALT, MALT, SOYBEAN OIL), PRETZEL NUGGETS (UNBLEACHED ENRICHED WHEAT FLOUR [FLOUR, NIACIN, REDUCED IRON, THIAMINE MONONITRATE, RIBOFLAVIN, FOLIC ACID], MALT, SALT, SOYBEAN OIL, YEAST), WORCESTERSHIRE SAUCE (VINEGAR, SUGAR, SALT, VEGETABLE AND FRUIT (ONION, TOMATO AND APPLE), CARAMEL COLOR, SPICE EXTRACT, YEAST EXTRACT, SPICES AND GARLIC), SALT, MALTODEXTRIN, SPICES, GARLIC POWDER AND ONION POWDER, CANOLA OIL" Date available: 07/14/2017 Date last updated by company: 07/14/2017
