Source: USDA Branded Food Products Database Release December 2017 Software v.3.8.6.4 2017-10-02
Report Run at: December 17, 2017 15:45 EST
"Nutrient data for: 45187574, ROCQ MACARONS, FRENCH MERINGUES, VANILLA, UPC: 0804551760389"
Food Group:  Branded Food Products Database
Common Name:

Nutrient,Unit,Data points,Std. Error,"1 PACKAGE = 57.0g",1Value per 100 g,
Proximates
"Energy",kcal,--,--,210,368
"Protein",g,--,--,3.00,5.26
"Total lipid (fat)",g,--,--,0.00,0.00
"Carbohydrate, by difference",g,--,--,51.00,89.47
"Fiber, total dietary",g,--,--,0.0,0.0
"Sugars, total",g,--,--,51.00,89.47
Minerals
"Calcium, Ca",mg,--,--,0,0
"Iron, Fe",mg,--,--,0.00,0.00
"Sodium, Na",mg,--,--,85,149
Vitamins
"Vitamin C, total ascorbic acid",mg,--,--,0.0,0.0
"Vitamin A, IU",IU,--,--,0,0
Lipids
"Fatty acids, total saturated",g,--,--,0.000,0.000
"Fatty acids, total trans",g,--,--,0.000,0.000
"Cholesterol",mg,--,--,0,0
Amino Acids
Other
Ingredients
"SUGAR, EGG WHITE, SEA SALT, VANILLA EXTRACT, VANILLA BEAN, GUAR GUM, TRIETHYL CITRATE." Date available: 07/14/2017 Date last updated by company: 07/14/2017
