Source: USDA Branded Food Products Database Release December 2017 Software v.3.8.6.4 2017-10-02
Report Run at: December 17, 2017 15:46 EST
"Nutrient data for: 45230192, ROJA ENCHILADA SAUCE, UPC: 092825097488"
Food Group:  Branded Food Products Database
Common Name:

Nutrient,Unit,Data points,Std. Error,"0.25 cup = 60.0g",1Value per 100 g,
Proximates
"Energy",kcal,--,--,35,58
"Protein",g,--,--,0.00,0.00
"Total lipid (fat)",g,--,--,1.50,2.50
"Carbohydrate, by difference",g,--,--,4.00,6.67
"Fiber, total dietary",g,--,--,1.0,1.7
"Sugars, total",g,--,--,0.00,0.00
Minerals
"Calcium, Ca",mg,--,--,0,0
"Iron, Fe",mg,--,--,0.37,0.61
"Sodium, Na",mg,--,--,270,450
Vitamins
"Vitamin C, total ascorbic acid",mg,--,--,3.7,6.1
"Vitamin A, IU",IU,--,--,1015,1691
Lipids
"Fatty acids, total saturated",g,--,--,0.000,0.000
"Fatty acids, total trans",g,--,--,0.000,0.000
"Cholesterol",mg,--,--,0,0
Amino Acids
Other
Ingredients
"WATER, TOMATOES, MODIFIED FOOD STARCH, SOYBEAN OIL, CHILI POWDER, SALT, GRANULATED GARLIC, SPICE, SUGAR, CITRIC ACID." Date available: 07/14/2017 Date last updated by company: 07/14/2017
