Source: USDA Branded Food Products Database Release December 2017 Software v.3.8.6.4 2017-10-02
Report Run at: December 17, 2017 15:49 EST
"Nutrient data for: 45037129, ROLAND, KALAMATA OLIVE TWISTS, PUFF PASTRY CRISPS, UPC: 041224728585"
Food Group:  Branded Food Products Database
Common Name:

Nutrient,Unit,Data points,Std. Error,"2.0 TWISTS = 16.0g",1Value per 100 g,
Proximates
"Energy",kcal,--,--,80,500
"Protein",g,--,--,2.00,12.50
"Total lipid (fat)",g,--,--,4.00,25.00
"Carbohydrate, by difference",g,--,--,9.00,56.25
"Fiber, total dietary",g,--,--,1.0,6.2
"Sugars, total",g,--,--,1.00,6.25
Minerals
"Calcium, Ca",mg,--,--,0,0
"Iron, Fe",mg,--,--,1.12,7.03
"Sodium, Na",mg,--,--,130,812
Vitamins
"Vitamin C, total ascorbic acid",mg,--,--,0.0,0.0
"Vitamin A, IU",IU,--,--,312,1953
Lipids
"Fatty acids, total saturated",g,--,--,2.499,15.620
"Fatty acids, total trans",g,--,--,0.000,0.000
"Cholesterol",mg,--,--,10,62
Amino Acids
Other
Ingredients
"WHEAT FLOUR, BUTTER, KALAMATA OLIVE. SKIMMED MILK POWDER, SALT, YEAST, BARLEY MALT FLOUR, SUGAR." Date available: 06/24/2017 Date last updated by company: 06/24/2017
