Source: USDA Branded Food Products Database Release December 2017 Software v.3.8.6.4 2017-10-02
Report Run at: December 17, 2017 15:51 EST
"Nutrient data for: 45243009, ROLAND, SPECULOOS COOKIE BUTTER, UPC: 041224658400"
Food Group:  Branded Food Products Database
Common Name:

Nutrient,Unit,Data points,Std. Error,"1 Tbsp = 15.0g",1Value per 100 g,
Proximates
"Energy",kcal,--,--,90,600
"Protein",g,--,--,1.00,6.67
"Total lipid (fat)",g,--,--,6.00,40.00
"Carbohydrate, by difference",g,--,--,8.00,53.33
"Fiber, total dietary",g,--,--,0.0,0.0
"Sugars, total",g,--,--,6.00,40.00
Minerals
"Calcium, Ca",mg,--,--,0,0
"Iron, Fe",mg,--,--,0.00,0.00
"Sodium, Na",mg,--,--,30,200
Vitamins
"Vitamin C, total ascorbic acid",mg,--,--,0.0,0.0
"Vitamin A, IU",IU,--,--,0,0
Lipids
"Fatty acids, total saturated",g,--,--,1.000,6.670
"Fatty acids, total trans",g,--,--,0.000,0.000
"Cholesterol",mg,--,--,0,0
Amino Acids
Other
Ingredients
"37% SPECULOOS COOKIES [WHEAT FLOUR, BROWN SUGAR, VEGETABLE OIL & FATS (PALM, CANOLA, & COCONUT OIL), RAW CANE SUGAR, SOY FLOUR, INVERT SUGAR, BAKING POWDER (SODIUM HYDROGEN CARBONATE), CINNAMON, NUTMEG], VEGETABLE OILS (CANOLA & PALM OIL), SUGAR, RAPESEED LECITHIN (AS AN EMULSIFIER)." Date available: 10/16/2017 Date last updated by company: 10/16/2017
