Source: USDA Branded Food Products Database Release December 2017 Software v.3.8.6.4 2017-10-02
Report Run at: December 17, 2017 15:52 EST
"Nutrient data for: 45029308, ROLAND, WHOLE WHEAT TRUFFLE MAC & CHEESE, UPC: 041224723726"
Food Group:  Branded Food Products Database
Common Name:

Nutrient,Unit,Data points,Std. Error,"0.5 cup = 61.0g",1Value per 100 g,
Proximates
"Energy",kcal,--,--,230,377
"Protein",g,--,--,9.00,14.75
"Total lipid (fat)",g,--,--,2.00,3.28
"Carbohydrate, by difference",g,--,--,42.00,68.85
"Fiber, total dietary",g,--,--,3.0,4.9
"Sugars, total",g,--,--,3.00,4.92
Minerals
"Calcium, Ca",mg,--,--,80,131
"Iron, Fe",mg,--,--,7.37,12.09
"Sodium, Na",mg,--,--,400,656
Vitamins
"Vitamin C, total ascorbic acid",mg,--,--,0.0,0.0
"Vitamin A, IU",IU,--,--,0,0
Lipids
"Fatty acids, total saturated",g,--,--,1.000,1.640
"Fatty acids, total trans",g,--,--,0.000,0.000
"Cholesterol",mg,--,--,5,8
Amino Acids
Other
Ingredients
"PASTA (WHOLE DURUM WHEAT FLOUR, SEMOLINA (WHEAT), NIACIN, IRON, THIAMINE MONONITRATE, RIBOFLAVIN, FOLIC ACID), SEASONING (CHEDDAR CHEESE (WHEY, CHEDDAR CHEESE (MILK, CULTURES, SALT, ENZYMES)), SALT, BUTTER, BUTTERMILK, SODIUM PHOSPHATE, DISODIUM PHOSPHATE, LACTIC ACID, NATURAL FLAVORS), WHEY, MALTODEXTRIN, SALT, NATURAL WHITE TRUFFLE FLAVOR, XANTHAN GUM, DEHYDRATED MUSHROOMS, GARLIC POWDER, YEAST EXTRACT, SPICE." Date available: 06/24/2017 Date last updated by company: 06/24/2017
