Source: USDA Branded Food Products Database Release December 2017 Software v.3.8.6.4 2017-10-02
Report Run at: December 17, 2017 15:50 EST
"Nutrient data for: 45232650, ROLAND, POMEGRANATE GLAZE MADE WITH BALSAMIC VINEGAR OF MODENA, UPC: 041224763029"
Food Group:  Branded Food Products Database
Common Name:

Nutrient,Unit,Data points,Std. Error,"1 Tbsp = 15.0g",1Value per 100 g,
Proximates
"Energy",kcal,--,--,20,133
"Protein",g,--,--,0.00,0.00
"Total lipid (fat)",g,--,--,0.00,0.00
"Carbohydrate, by difference",g,--,--,4.00,26.67
"Sugars, total",g,--,--,3.00,20.00
Minerals
"Sodium, Na",mg,--,--,0,0
Vitamins
Lipids
"Fatty acids, total saturated",g,--,--,0.000,0.000
"Fatty acids, total trans",g,--,--,0.000,0.000
Amino Acids
Other
Ingredients
"BALSAMIC VINEGAR OF MODENA (\"ACETO BALSAMICO DI MODENA P. G. I. \"), SUGAR, DEHYDRATED GLUCOSE SYRUP, LACTOSE (MILK), MODIFIED CORN STARCH, NATURAL COLOR OENOCYANIN, XANTHAN GUM STABILIZER, DEHYDRATED POMEGRANATE, NATURAL POMEGRANATE FLAVOR." Date available: 09/23/2016 Date last updated by company: 09/23/2016
