Source: USDA Branded Food Products Database Release December 2017 Software v.3.8.6.4 2017-10-02
Report Run at: December 17, 2017 15:49 EST
"Nutrient data for: 45028303, ROLAND, NONPAREILLES CAPERS, UPC: 041224700260"
Food Group:  Branded Food Products Database
Common Name:

Nutrient,Unit,Data points,Std. Error,"1 tsp = 4.0g",1Value per 100 g,
Proximates
"Energy",kcal,--,--,0,0
"Protein",g,--,--,0.00,0.00
"Total lipid (fat)",g,--,--,0.00,0.00
"Carbohydrate, by difference",g,--,--,0.00,0.00
Minerals
"Sodium, Na",mg,--,--,85,2125
Vitamins
Lipids
Amino Acids
Other
Ingredients
"CAPERS, WATER, VINEGAR, SALT." Date available: 07/14/2017 Date last updated by company: 07/14/2017
