Source: USDA Branded Food Products Database Release December 2017 Software v.3.8.6.4 2017-10-02
Report Run at: December 17, 2017 15:51 EST
"Nutrient data for: 45103791, ROLAND, SPICY BLACK BEAN SAUCE, SPICY, UPC: 041224870208"
Food Group:  Branded Food Products Database
Common Name:

Nutrient,Unit,Data points,Std. Error,"2.0 Tbsp = 34.0g",1Value per 100 g,
Proximates
"Energy",kcal,--,--,60,176
"Protein",g,--,--,2.00,5.88
"Total lipid (fat)",g,--,--,1.50,4.41
"Carbohydrate, by difference",g,--,--,9.00,26.47
"Fiber, total dietary",g,--,--,2.0,5.9
"Sugars, total",g,--,--,7.00,20.59
Minerals
"Calcium, Ca",mg,--,--,0,0
"Iron, Fe",mg,--,--,0.00,0.00
"Sodium, Na",mg,--,--,1090,3206
Vitamins
"Vitamin C, total ascorbic acid",mg,--,--,0.0,0.0
"Vitamin A, IU",IU,--,--,0,0
Lipids
"Fatty acids, total saturated",g,--,--,0.000,0.000
"Fatty acids, total trans",g,--,--,0.000,0.000
"Cholesterol",mg,--,--,0,0
Amino Acids
Other
Ingredients
"WATER, SUGAR,BLACK BEAN,SALT,GINGER,SOYBEAN OIL, GARLIC,VINEGAR,MODIFIED TAPIOCA STARCH, CARAMEL COLORING, CHILI, SOY SAUCE,GUAR GUM, BENZOIC ACID (AS A PRESERVATIVE" Date available: 10/13/2017 Date last updated by company: 10/13/2017
