Source: USDA Branded Food Products Database Release December 2017 Software v.3.8.6.4 2017-10-02
Report Run at: December 17, 2017 15:52 EST
"Nutrient data for: 45248921, ROLD GOLD, TINY TWISTS PRETZELS, ORIGINAL, UPC: 028400046060"
Food Group:  Branded Food Products Database
Common Name:

Nutrient,Unit,Data points,Std. Error,"1 PACKAGE = 56.7g",1Value per 100 g,
Proximates
"Energy",kcal,--,--,230,406
"Protein",g,--,--,4.00,7.05
"Total lipid (fat)",g,--,--,2.00,3.53
"Carbohydrate, by difference",g,--,--,47.00,82.89
"Fiber, total dietary",g,--,--,2.0,3.5
"Sugars, total",g,--,--,1.00,1.76
Minerals
"Calcium, Ca",mg,--,--,0,0
"Iron, Fe",mg,--,--,1.80,3.17
"Magnesium, Mg",mg,--,--,8,14
"Phosphorus, P",mg,--,--,40,71
"Potassium, K",mg,--,--,160,282
"Sodium, Na",mg,--,--,900,1587
Vitamins
"Vitamin C, total ascorbic acid",mg,--,--,0.0,0.0
"Thiamin",mg,--,--,0.000,0.000
"Riboflavin",mg,--,--,0.255,0.450
"Niacin",mg,--,--,1.764,3.111
"Vitamin A, IU",IU,--,--,0,0
Lipids
"Fatty acids, total saturated",g,--,--,0.000,0.000
"Fatty acids, total trans",g,--,--,0.000,0.000
"Cholesterol",mg,--,--,0,0
Amino Acids
Other
Ingredients
"ENRICHED FLOUR (WHEAT FLOUR, NIACIN, REDUCED IRON, THIAMIN MONONITRATE, RIBOFLAVIN, FOLIC ACID), SALT, CORN OIL, CORN SYRUP, AMMONIUM BICARBONATE, MALT EXTRACT, AND YEAST." Date available: 09/23/2016 Date last updated by company: 09/23/2016
