Source: USDA Branded Food Products Database Release December 2017 Software v.3.8.6.4 2017-10-02
Report Run at: December 17, 2017 16:00 EST
"Nutrient data for: 45151324, ROOTBEER BARRELS CANDY, UPC: 035826096401"
Food Group:  Branded Food Products Database
Common Name:

Nutrient,Unit,Data points,Std. Error,"3.0 PIECES = 18.0g",1Value per 100 g,
Proximates
"Energy",kcal,--,--,70,389
"Protein",g,--,--,0.00,0.00
"Total lipid (fat)",g,--,--,0.00,0.00
"Carbohydrate, by difference",g,--,--,18.00,100.00
"Sugars, total",g,--,--,13.00,72.22
Minerals
"Sodium, Na",mg,--,--,0,0
Vitamins
Lipids
"Fatty acids, total saturated",g,--,--,0.000,0.000
"Fatty acids, total trans",g,--,--,0.000,0.000
"Cholesterol",mg,--,--,0,0
Amino Acids
Other
Ingredients
"CORN SYRUP, SUGAR, ARTIFICIAL FLAVOR, ARTIFICIAL COLORS (FD&C YELLOW #6, YELLOW #5, RED #3, AND BLUE #1)." Date available: 07/14/2017 Date last updated by company: 07/14/2017
