Source: USDA Branded Food Products Database Release December 2017 Software v.3.8.6.4 2017-10-02
Report Run at: December 17, 2017 16:01 EST
"Nutrient data for: 45193635, ROOT BEER, UPC: 011161022404"
Food Group:  Branded Food Products Database
Common Name:

Nutrient,Unit,Data points,Std. Error,"12.0 OZA = 355.0g",1Value per 100 g,
Proximates
"Energy",kcal,--,--,160,45
"Protein",g,--,--,0.00,0.00
"Total lipid (fat)",g,--,--,0.00,0.00
"Carbohydrate, by difference",g,--,--,42.99,12.11
"Sugars, total",g,--,--,42.00,11.83
Minerals
"Sodium, Na",mg,--,--,71,20
Vitamins
Lipids
Amino Acids
Other
Ingredients
"CARBONATED WATER, HIGH FRUCTOSE CORN SYRUP, CARAMEL COLOR, SODIUM BENZOATE (PRESERVATIVE), CITRIC ACID, ACACIA GUM, NATURAL AND ARTIFICIAL FLAVORS, YUCCA EXTRACT." Date available: 07/14/2017 Date last updated by company: 07/14/2017
