Source: USDA Branded Food Products Database Release December 2017 Software v.3.8.6.4 2017-10-02
Report Run at: December 17, 2017 16:04 EST
"Nutrient data for: 45187107, ROSATI ICE, COCONUT WATER ICE, UPC: 077222373762"
Food Group:  Branded Food Products Database
Common Name:

Nutrient,Unit,Data points,Std. Error,"1 cup = 10.0g",1Value per 100 g,
Proximates
"Energy",kcal,--,--,5,50
"Protein",g,--,--,0.00,0.00
"Total lipid (fat)",g,--,--,0.00,0.00
"Carbohydrate, by difference",g,--,--,1.27,12.67
"Fiber, total dietary",g,--,--,0.0,0.0
"Sugars, total",g,--,--,1.07,10.67
Minerals
"Calcium, Ca",mg,--,--,2,17
"Iron, Fe",mg,--,--,0.00,0.00
"Magnesium, Mg",mg,--,--,2,17
"Potassium, K",mg,--,--,27,267
"Sodium, Na",mg,--,--,8,82
Vitamins
"Vitamin C, total ascorbic acid",mg,--,--,0.1,1.0
"Vitamin A, IU",IU,--,--,3,31
Lipids
"Fatty acids, total saturated",g,--,--,0.000,0.000
"Fatty acids, total trans",g,--,--,0.000,0.000
"Cholesterol",mg,--,--,0,0
Amino Acids
Other
Ingredients
"COCONUT WATER FROM CONCENTRATE, NATURAL SUGAR, MANGO PUREE, CELLULOSE GEL, SODIUM ALGINATE, XANTHAN GUM." Date available: 08/23/2017 Date last updated by company: 08/23/2017
