Source: USDA Branded Food Products Database Release December 2017 Software v.3.8.6.4 2017-10-02
Report Run at: December 17, 2017 16:05 EST
"Nutrient data for: 45079236, ROSEMARY JELLY, UPC: 679385000327"
Food Group:  Branded Food Products Database
Common Name:

Nutrient,Unit,Data points,Std. Error,"1 Tbsp = 15.0g",1Value per 100 g,
Proximates
"Energy",kcal,--,--,40,267
"Protein",g,--,--,1.00,6.67
"Total lipid (fat)",g,--,--,0.00,0.00
"Carbohydrate, by difference",g,--,--,10.00,66.67
"Fiber, total dietary",g,--,--,1.0,6.7
"Sugars, total",g,--,--,10.00,66.67
Minerals
"Sodium, Na",mg,--,--,0,0
Vitamins
Lipids
"Fatty acids, total saturated",g,--,--,0.000,0.000
"Fatty acids, total trans",g,--,--,0.000,0.000
"Cholesterol",mg,--,--,0,0
Amino Acids
Other
Ingredients
"APPLES, UNREFINED SUGAR, WATER, FRESH LEMON JUICE, FRESH ROSEMARY 1%. PREPARED WITH 70G OF FRUIT PER 100G. TOTAL SUGAR CONTENT 67G PER 100G." Date available: 06/24/2017 Date last updated by company: 06/24/2017
