Source: USDA Branded Food Products Database Release December 2017 Software v.3.8.6.4 2017-10-02
Report Run at: December 17, 2017 16:05 EST
"Nutrient data for: 45083657, ROSEMARY & GARLIC BREAD DIPPING SEASONING, UPC: 715483081551"
Food Group:  Branded Food Products Database
Common Name:

Nutrient,Unit,Data points,Std. Error,"1 tsp = 3.0g",1Value per 100 g,
Proximates
"Energy",kcal,--,--,5,167
"Protein",g,--,--,0.00,0.00
"Total lipid (fat)",g,--,--,0.00,0.00
"Carbohydrate, by difference",g,--,--,1.00,33.33
"Fiber, total dietary",g,--,--,0.0,0.0
"Sugars, total",g,--,--,0.00,0.00
Minerals
"Calcium, Ca",mg,--,--,10,333
"Iron, Fe",mg,--,--,6.00,199.98
"Sodium, Na",mg,--,--,380,12667
Vitamins
"Vitamin C, total ascorbic acid",mg,--,--,10.0,333.4
"Vitamin A, IU",IU,--,--,5000,166667
Lipids
"Fatty acids, total saturated",g,--,--,0.000,0.000
"Fatty acids, total trans",g,--,--,0.000,0.000
"Cholesterol",mg,--,--,0,0
Amino Acids
Other
Ingredients
"* GARLIC, SALT, SPICES (ROSEMARY, OREGANO, THYME, BLACK PEPPER, PARSLEY), CANOLA OIL (ANTICAKING)." Date available: 07/14/2017 Date last updated by company: 07/14/2017
