Source: USDA Branded Food Products Database Release December 2017 Software v.3.8.6.4 2017-10-02
Report Run at: December 17, 2017 16:05 EST
"Nutrient data for: 45314929, ROSEMARY & GARLIC WHOLE ROASTED CHICKEN, UPC: 021130101290"
Food Group:  Branded Food Products Database
Common Name:

Nutrient,Unit,Data points,Std. Error,"3.0 ONZ = 84.0g",1Value per 100 g,
Proximates
"Energy",kcal,--,--,150,179
"Protein",g,--,--,20.00,23.81
"Total lipid (fat)",g,--,--,8.00,9.52
"Carbohydrate, by difference",g,--,--,2.00,2.38
"Fiber, total dietary",g,--,--,0.0,0.0
"Sugars, total",g,--,--,0.00,0.00
Minerals
"Calcium, Ca",mg,--,--,20,24
"Iron, Fe",mg,--,--,1.20,1.43
"Sodium, Na",mg,--,--,135,161
Vitamins
"Vitamin C, total ascorbic acid",mg,--,--,0.0,0.0
"Vitamin A, IU",IU,--,--,166,198
Lipids
"Fatty acids, total saturated",g,--,--,2.503,2.980
"Fatty acids, total trans",g,--,--,0.000,0.000
"Cholesterol",mg,--,--,95,113
Amino Acids
Other
Ingredients
"WHOLE CHICKEN CONTAINING UP TO 15% OF SOLUTION (WATER, SALT, SODIUM TRIPOLYPHOSPHATE, BROWN SUGAR, RICE STARCH, DEXTROSE, CARRAGEENAN, SODIUM ACID PYROPHOSPHATE, GARLIC POWDER, SPICE EXTRACTIVES, XANTHAN GUM, VINEGAR), ROSEMARY GARLIC SEASONING (SALT, DEHYDRATED GARLIC, SPICES [INCLUDING ROSEMARY], SUGAR, MALTODEXTRIN, ONION POWDER, ROMANO CHEESE [PART SKIM COWS MILK, CULTURES, SALT, ENZYMES], PALM OIL, SESAME OIL, NATURAL FLAVOR)." Date available: 07/14/2017 Date last updated by company: 07/14/2017
