Source: USDA Branded Food Products Database Release December 2017 Software v.3.8.6.4 2017-10-02
Report Run at: December 17, 2017 16:07 EST
"Nutrient data for: 45130477, ROTEL Diced Chili Fixins Tomatoes, UNPREPARED, GTIN: 00064144281459"
Food Group:  Branded Food Products Database
Common Name:

Nutrient,Unit,Data points,Std. Error,"0.5 cup (125g) = 125.0g",1Value per 100 g,
Proximates
"Energy",kcal,--,--,35,28
"Protein",g,--,--,1.00,0.80
"Total lipid (fat)",g,--,--,0.00,0.00
"Carbohydrate, by difference",g,--,--,8.00,6.40
"Fiber, total dietary",g,--,--,3.0,2.4
"Sugars, total",g,--,--,4.00,3.20
Minerals
"Calcium, Ca",mg,--,--,40,32
"Iron, Fe",mg,--,--,1.44,1.15
"Potassium, K",mg,--,--,290,232
"Sodium, Na",mg,--,--,510,408
Vitamins
"Vitamin C, total ascorbic acid",mg,--,--,3.6,2.9
"Vitamin A, IU",IU,--,--,750,600
Lipids
"Fatty acids, total saturated",g,--,--,0.000,0.000
"Fatty acids, total monounsaturated",g,--,--,0.000,0.000
"Fatty acids, total polyunsaturated",g,--,--,0.000,0.000
"Fatty acids, total trans",g,--,--,0.000,0.000
"Cholesterol",mg,--,--,0,0
Amino Acids
Other
Ingredients
"Tomatoes, Water, Chopped Green Chili Peppers, Less than 2% of: Dried Chili Pepper, Salt, Dried Garlic, Oregano, Cumin, Dried Onion, Citric Acid, Red Pepper, Calcium Chloride, Natural Flavor, Cilantro." Date available: 10/11/2017 Date last updated by company: 10/11/2017
