Source: USDA Branded Food Products Database Release December 2017 Software v.3.8.6.4 2017-10-02
Report Run at: December 17, 2017 16:12 EST
"Nutrient data for: 45292975, ROTISSERIE SEASONED CHICKEN BREAST WITH RIB MEAT, UPC: 085239008638"
Food Group:  Branded Food Products Database
Common Name:

Nutrient,Unit,Data points,Std. Error,"2.0 ONZ = 56.0g",1Value per 100 g,
Proximates
"Energy",kcal,--,--,60,107
"Protein",g,--,--,9.00,16.07
"Total lipid (fat)",g,--,--,2.00,3.57
"Carbohydrate, by difference",g,--,--,2.00,3.57
"Fiber, total dietary",g,--,--,0.0,0.0
"Sugars, total",g,--,--,1.00,1.79
Minerals
"Calcium, Ca",mg,--,--,0,0
"Iron, Fe",mg,--,--,0.35,0.63
"Sodium, Na",mg,--,--,540,964
Vitamins
"Vitamin C, total ascorbic acid",mg,--,--,0.0,0.0
"Vitamin A, IU",IU,--,--,0,0
Lipids
"Fatty acids, total saturated",g,--,--,0.498,0.890
"Fatty acids, total monounsaturated",g,--,--,1.002,1.790
"Fatty acids, total polyunsaturated",g,--,--,0.000,0.000
"Fatty acids, total trans",g,--,--,0.000,0.000
"Cholesterol",mg,--,--,25,45
Amino Acids
Other
Ingredients
"BONELESS, SKINLESS CHICKEN BREAST WITH RIB MEAT, CHICKEN BROTH, CONTAINS 2% OR LESS OF THE FOLLOWING: CARRAGEENAN, GARLIC POWDER, MODIFIED CORN STARCH, NATURAL FLAVOR, ONION POWDER, SALT, SODIUM NITRITE, SODIUM PHOSPHATES, SODIUM PROPIONATE, SPICE EXTRACTIVE, SUGAR, YEAST EXTRACT, CARAMEL COLOR." Date available: 07/14/2017 Date last updated by company: 07/14/2017
