Source: USDA Branded Food Products Database Release December 2017 Software v.3.8.6.4 2017-10-02
Report Run at: December 17, 2017 16:13 EST
"Nutrient data for: 45286933, ROTISSERIE STYLE CHICKEN BREAST, UPC: 074175033347"
Food Group:  Branded Food Products Database
Common Name:

Nutrient,Unit,Data points,Std. Error,"2.0 ONZ = 56.0g",1Value per 100 g,
Proximates
"Energy",kcal,--,--,60,107
"Protein",g,--,--,12.00,21.43
"Total lipid (fat)",g,--,--,0.50,0.89
"Carbohydrate, by difference",g,--,--,2.00,3.57
"Fiber, total dietary",g,--,--,0.0,0.0
"Sugars, total",g,--,--,1.00,1.79
Minerals
"Calcium, Ca",mg,--,--,0,0
"Iron, Fe",mg,--,--,0.35,0.63
"Sodium, Na",mg,--,--,470,839
Vitamins
"Vitamin C, total ascorbic acid",mg,--,--,0.0,0.0
"Vitamin A, IU",IU,--,--,0,0
Lipids
"Fatty acids, total saturated",g,--,--,0.000,0.000
"Fatty acids, total trans",g,--,--,0.000,0.000
"Cholesterol",mg,--,--,30,54
Amino Acids
Other
Ingredients
"CHICKEN BREAST, WATER, CONTAINS 2% OR LESS OF THE FOLLOWING: VINEGAR, DEXTROSE, SEASONING (YEAST EXTRACT, SALT, DEXTROSE, MODIFIED FOOD STARCH, MALTODEXTRIN, NATURAL FLAVORS, DEHYDRATED ONION, GARLIC POWDER, SPICE, TOASTED SESAME OIL), MODIFIED FOOD STARCH, SALT, SODIUM PHOSPHATE, CARRAGEENAN." Date available: 07/14/2017 Date last updated by company: 07/14/2017
