Source: USDA Branded Food Products Database Release December 2017 Software v.3.8.6.4 2017-10-02
Report Run at: December 17, 2017 16:12 EST
"Nutrient data for: 45053641, ROTISSERIE SEASONED SMOKE FLAVOR ADDED, UPC: 034695124048"
Food Group:  Branded Food Products Database
Common Name:

Nutrient,Unit,Data points,Std. Error,"3.0 ONZ = 85.0g",1Value per 100 g,
Proximates
"Energy",kcal,--,--,110,129
"Protein",g,--,--,20.00,23.53
"Total lipid (fat)",g,--,--,2.00,2.35
"Carbohydrate, by difference",g,--,--,2.00,2.35
"Fiber, total dietary",g,--,--,0.0,0.0
"Sugars, total",g,--,--,1.00,1.18
Minerals
"Calcium, Ca",mg,--,--,20,24
"Iron, Fe",mg,--,--,0.72,0.85
"Sodium, Na",mg,--,--,440,518
Vitamins
"Vitamin C, total ascorbic acid",mg,--,--,1.2,1.4
"Vitamin A, IU",IU,--,--,0,0
Lipids
"Fatty acids, total saturated",g,--,--,0.501,0.590
"Fatty acids, total trans",g,--,--,0.000,0.000
"Cholesterol",mg,--,--,50,59
Amino Acids
Other
Ingredients
"BONELESS, SKINLESS CHICKEN BREAST WITH RIB MEAT, WATER, SEASONING (DEXTROSE, HYDROLYZED CORN AND SOY PROTEIN, SODIUM CITRATE, DEHYDRATED CHICKEN BROTH, SALT, CORN FLOUR, MALTODEXTRIN, SPICES, SODIUM DIACETATE, FLAVORINGS, SUGAR, YEAST EXTRACT, PARTIALLY HYDROGENATED COTTONSEED AND SOYBEAN OIL, PAPRIKA, DISODIUM INOSINATE AND DISODIUM GUANYLATE, GUM ACACIA, THIAMINE HYDROCHLORIDE, NATURAL SMOKE FLAVOR, BEEF EXTRACT, CITRIC ACID, ARTIFICIAL FLAVORS, DEHYDRATED PARSLEY), RICE STARCH, SEASONING (CHICKEN FAT, NATURAL CHICKEN FLAVOR, FLAVOR {SUNFLOWER OIL, NATURAL FLAVOR}, FLAVORINGS, OLEORESIN PAPRIKA), CHICKEN BASE (CHICKEN MEAT INCLUDING NATURAL CHICKEN JUICES, SALT, HYDROLYZED SOY PROTEIN, FRUCTOSE, CHICKEN FAT, AUTOLYZED YEAST, DRY CHICKEN BROTH, DEXTROSE, MODIFIED FOOD STARCH, ONION POWDER, NATURAL FLAVORS, SPICES INCLUDING TURMERIC), POTASSIUM AND SODIUM PHOSPHATES, SALT, SOY LECITHIN." Date available: 09/13/2017 Date last updated by company: 09/13/2017
