Source: USDA Branded Food Products Database Release December 2017 Software v.3.8.6.4 2017-10-02
Report Run at: December 17, 2017 16:10 EST
"Nutrient data for: 45111765, ROTINI PASTA IN BACON RANCH CREAM SAUCE, UPC: 073369060442"
Food Group:  Branded Food Products Database
Common Name:

Nutrient,Unit,Data points,Std. Error,"1 PACKAGE = 213.0g",1Value per 100 g,
Proximates
"Energy",kcal,--,--,271,127
"Protein",g,--,--,10.99,5.16
"Total lipid (fat)",g,--,--,6.01,2.82
"Carbohydrate, by difference",g,--,--,43.00,20.19
"Fiber, total dietary",g,--,--,1.9,0.9
"Sugars, total",g,--,--,8.01,3.76
Minerals
"Calcium, Ca",mg,--,--,149,70
"Iron, Fe",mg,--,--,1.64,0.77
"Sodium, Na",mg,--,--,390,183
Vitamins
"Vitamin C, total ascorbic acid",mg,--,--,1.1,0.5
"Vitamin A, IU",IU,--,--,92,43
Lipids
"Fatty acids, total saturated",g,--,--,2.002,0.940
"Fatty acids, total trans",g,--,--,0.000,0.000
"Cholesterol",mg,--,--,15,7
Amino Acids
Other
Ingredients
"COOKED ENRICHED MACARONI PRODUCT (WATER, DURUM SEMOLINA [ENRICHED WITH NIACIN, FERROUS SULFATE, THIAMINE MONONITRATE, RIBOFLAVIN, FOLIC ACID]), WATER, HALF AND HALF (MILK AND CREAM), DRY BUTTERMILK, LESS THAN 2% OF NATURAL UNCURED BACON (PORK, WATER, SALT, TURRINADO SUGAR, SEASONING [CULTURED CELERY JUICE POWDER, SEA SALT]), CANOLA OIL, SOUR CREAM TYPE FLAVOR (MILK, CREAM ,CHEESE CULTURES, SALT, CHEESE WHEY, NONFAT DRY MILK POWDER, NATURAL FLAVOR, LACTIC ACID, CITRIC ACID), RICE WINE VINEGAR (WATER, RICE), MODIFIED FOOD STARCH, GRANULATED GARLIC, SALT, GRANULATED ONION, SUGAR, XANTHAN GUM, LACTIC ACID, PARSLEY FLAKES, CITRIC ACID, SPICES." Date available: 07/14/2017 Date last updated by company: 07/14/2017
