Source: USDA Branded Food Products Database Release December 2017 Software v.3.8.6.4 2017-10-02
Report Run at: December 17, 2017 16:23 EST
"Nutrient data for: 45171648, ROUNDY'S, GOJI BERRIES, UPC: 011150950404"
Food Group:  Branded Food Products Database
Common Name:

Nutrient,Unit,Data points,Std. Error,"0.25 cup = 40.0g",1Value per 100 g,
Proximates
"Energy",kcal,--,--,150,375
"Protein",g,--,--,5.00,12.50
"Total lipid (fat)",g,--,--,0.00,0.00
"Carbohydrate, by difference",g,--,--,32.00,80.00
"Fiber, total dietary",g,--,--,1.0,2.5
"Sugars, total",g,--,--,30.00,75.00
Minerals
"Calcium, Ca",mg,--,--,0,0
"Iron, Fe",mg,--,--,1.44,3.60
"Sodium, Na",mg,--,--,190,475
Vitamins
"Vitamin C, total ascorbic acid",mg,--,--,6.0,15.0
"Vitamin A, IU",IU,--,--,1000,2500
Lipids
"Fatty acids, total saturated",g,--,--,0.000,0.000
"Fatty acids, total trans",g,--,--,0.000,0.000
"Cholesterol",mg,--,--,5,12
Amino Acids
Other
Ingredients
"GOJI BERRIES (TIBET)." Date available: 07/14/2017 Date last updated by company: 07/14/2017
