Source: USDA Branded Food Products Database Release December 2017 Software v.3.8.6.4 2017-10-02
Report Run at: December 17, 2017 16:23 EST
"Nutrient data for: 45018974, ROUNDY'S, GARDEN COMBINATION CHUNKY PASTA SAUCE, UPC: 011150084055"
Food Group:  Branded Food Products Database
Common Name:

Nutrient,Unit,Data points,Std. Error,"0.5 cup = 127.0g",1Value per 100 g,
Proximates
"Energy",kcal,--,--,70,55
"Protein",g,--,--,1.99,1.57
"Total lipid (fat)",g,--,--,1.50,1.18
"Carbohydrate, by difference",g,--,--,13.00,10.24
"Fiber, total dietary",g,--,--,3.0,2.4
"Sugars, total",g,--,--,9.99,7.87
Minerals
"Calcium, Ca",mg,--,--,20,16
"Iron, Fe",mg,--,--,0.76,0.60
"Potassium, K",mg,--,--,380,299
"Sodium, Na",mg,--,--,470,370
Vitamins
"Vitamin C, total ascorbic acid",mg,--,--,3.8,3.0
"Vitamin A, IU",IU,--,--,528,416
Lipids
"Fatty acids, total saturated",g,--,--,0.000,0.000
"Fatty acids, total trans",g,--,--,0.000,0.000
"Cholesterol",mg,--,--,0,0
Amino Acids
Other
Ingredients
"TOMATO PUREE (WATER, TOMATO PASTE), DICED TOMATOES IN TOMATO JUICE, SUGAR, ZUCCHINI, GREEN PEPPERS, CELERY, CARROTS, VEGETABLE OIL (COTTONSEED AND/OR CANOLA AND/OR SOYBEAN), SALT, DEHYDRATED ONION, DEHYDRATED GARLIC, SPICES (BASIL, OREGANO, SPICE), CITRIC ACID, DEHYDRATED PARSLEY." Date available: 06/25/2017 Date last updated by company: 06/25/2017
