Source: USDA Branded Food Products Database Release December 2017 Software v.3.8.6.4 2017-10-02
Report Run at: December 17, 2017 16:40 EST
"Nutrient data for: 45018040, ROUNDY'S, SELECT, WIDE EGG NOOGLES, UPC: 011150176590"
Food Group:  Branded Food Products Database
Common Name:

Nutrient,Unit,Data points,Std. Error,"2.0 ONZ = 57.0g",1Value per 100 g,
Proximates
"Energy",kcal,--,--,210,368
"Protein",g,--,--,9.00,15.79
"Total lipid (fat)",g,--,--,2.00,3.51
"Carbohydrate, by difference",g,--,--,39.00,68.42
"Fiber, total dietary",g,--,--,2.0,3.5
"Sugars, total",g,--,--,2.00,3.51
Minerals
"Calcium, Ca",mg,--,--,20,35
"Iron, Fe",mg,--,--,0.87,1.52
"Sodium, Na",mg,--,--,20,35
Vitamins
"Vitamin C, total ascorbic acid",mg,--,--,0.0,0.0
"Vitamin A, IU",IU,--,--,96,169
Lipids
"Fatty acids, total saturated",g,--,--,0.502,0.880
"Fatty acids, total trans",g,--,--,0.000,0.000
"Cholesterol",mg,--,--,55,96
Amino Acids
Other
Ingredients
"EXTRA FANCY DURUM WHEAT FLOUR, FRESH EGGS, WATER." Date available: 07/14/2017 Date last updated by company: 07/14/2017
