Source: USDA Branded Food Products Database Release December 2017 Software v.3.8.6.4 2017-10-02
Report Run at: December 17, 2017 16:45 EST
"Nutrient data for: 45021132, ROUNDY'S, THIN WHEAT MULTIGRAIN CRACKERS, CRISPY CRUNCHY, UPC: 011150231978"
Food Group:  Branded Food Products Database
Common Name:

Nutrient,Unit,Data points,Std. Error,"15.0 CRACKERS = 30.0g",1Value per 100 g,
Proximates
"Energy",kcal,--,--,140,467
"Protein",g,--,--,2.00,6.67
"Total lipid (fat)",g,--,--,6.00,20.00
"Carbohydrate, by difference",g,--,--,21.00,70.00
"Fiber, total dietary",g,--,--,3.0,10.0
"Sugars, total",g,--,--,2.00,6.67
Minerals
"Calcium, Ca",mg,--,--,20,67
"Iron, Fe",mg,--,--,3.00,10.00
"Sodium, Na",mg,--,--,180,600
Vitamins
"Vitamin C, total ascorbic acid",mg,--,--,0.0,0.0
"Vitamin A, IU",IU,--,--,0,0
Lipids
"Fatty acids, total saturated",g,--,--,0.501,1.670
"Fatty acids, total monounsaturated",g,--,--,3.501,11.670
"Fatty acids, total polyunsaturated",g,--,--,1.500,5.000
"Fatty acids, total trans",g,--,--,0.000,0.000
"Cholesterol",mg,--,--,0,0
Amino Acids
Other
Ingredients
"ENRICHED FLOUR (WHEAT FLOUR, NIACIN, REDUCED IRON, THIAMIN MONONITRATE, RIBOFLAVIN, FOLIC ACID), SUNFLOWER AND/OR CANOLA OIL (CONTAINS ASCORBIC ACID AND ROSEMARY EXTRACT FOR FRESHNESS), SUGAR, OATS, INULIN, RYE FLOUR, MULTIGRAIN FLOUR BLEND (WHEAT, RYE, TRITICALE, BARLEY, CORN, MILLET, SOYBEAN, SUNFLOWER SEEDS, RICE, FLAX, DURUM, OATS), WHEAT GERM, MODIFIED CORNSTARCH, SALT, INVERT SYRUP, SODIUM BICARBONATE, ONION POWDER, MALTED BARLEY FLOUR, MONOCALCIUM PHOSPHATE, ENZYMES, SODIUM METABISULFITE." Date available: 06/25/2017 Date last updated by company: 06/25/2017
