Source: USDA Branded Food Products Database Release December 2017 Software v.3.8.6.4 2017-10-02
Report Run at: December 17, 2017 16:15 EST
"Nutrient data for: 45141553, ROUNDY'S, ASSORTED FRUIT SLICES, UPC: 011150950411"
Food Group:  Branded Food Products Database
Common Name:

Nutrient,Unit,Data points,Std. Error,"42.0 GRM = 42.0g",1Value per 100 g,
Proximates
"Energy",kcal,--,--,140,333
"Protein",g,--,--,0.00,0.00
"Total lipid (fat)",g,--,--,0.00,0.00
"Carbohydrate, by difference",g,--,--,34.00,80.95
"Fiber, total dietary",g,--,--,0.0,0.0
"Sugars, total",g,--,--,13.00,30.95
Minerals
"Calcium, Ca",mg,--,--,0,0
"Iron, Fe",mg,--,--,0.00,0.00
"Sodium, Na",mg,--,--,10,24
Vitamins
"Vitamin C, total ascorbic acid",mg,--,--,0.0,0.0
"Vitamin A, IU",IU,--,--,0,0
Lipids
"Fatty acids, total saturated",g,--,--,0.000,0.000
"Fatty acids, total trans",g,--,--,0.000,0.000
"Cholesterol",mg,--,--,0,0
Amino Acids
Other
Ingredients
"SUGAR, CORN SYRUP, AGAR, CITRIC ACID, TITANIUM DIOXIDE, NATURAL AND ARTIFICIAL FLAVORS, ARTIFICIAL COLORS (FD&C YELLOW#5, YELLOW#6, RED#40, BLUE#1)" Date available: 07/14/2017 Date last updated by company: 07/14/2017
