Source: USDA Branded Food Products Database Release December 2017 Software v.3.8.6.4 2017-10-02
Report Run at: December 17, 2017 16:33 EST
"Nutrient data for: 45162611, ROUNDY'S, PITA CHIPS, UPC: 011150940238"
Food Group:  Branded Food Products Database
Common Name:

Nutrient,Unit,Data points,Std. Error,"9.0 CHIPS | ABOUT = 28.0g",1Value per 100 g,
Proximates
"Energy",kcal,--,--,130,464
"Protein",g,--,--,4.00,14.29
"Total lipid (fat)",g,--,--,4.50,16.07
"Carbohydrate, by difference",g,--,--,18.00,64.29
"Fiber, total dietary",g,--,--,2.0,7.1
"Sugars, total",g,--,--,1.00,3.57
Minerals
"Calcium, Ca",mg,--,--,20,71
"Iron, Fe",mg,--,--,0.64,2.29
"Sodium, Na",mg,--,--,180,643
Vitamins
"Vitamin C, total ascorbic acid",mg,--,--,4.3,15.3
"Vitamin A, IU",IU,--,--,0,0
Lipids
"Fatty acids, total saturated",g,--,--,0.501,1.790
"Fatty acids, total trans",g,--,--,0.000,0.000
"Cholesterol",mg,--,--,0,0
Amino Acids
Other
Ingredients
"WHEAT FLOUR, SUNFLOWER OIL, WHOLE WHEAT FLOUR, PARMESAN CHEESE [(MILK, SALT, CHEESE CULTURES, ENZYMES), WHEY, DISODIUM PHOSPHATE, LACTIC ACID], 2% OR LESS OF THE FOLLOWING: SALT, SUGAR, OAT FIBER, YEAST, SPICES, DEHYDRATED GARLIC AND ONION, NATURAL FLAVOR, ASCORBIC ACID." Date available: 07/14/2017 Date last updated by company: 07/14/2017
