Source: USDA Branded Food Products Database Release December 2017 Software v.3.8.6.4 2017-10-02
Report Run at: December 17, 2017 16:26 EST
"Nutrient data for: 45020813, ROUNDY'S, INSTANT PUDDING AND PIE FILLING, PISTACHIO, UPC: 011150110327"
Food Group:  Branded Food Products Database
Common Name:

Nutrient,Unit,Data points,Std. Error,"0.25 PACKAGE = 24.0g",1Value per 100 g,
Proximates
"Energy",kcal,--,--,90,375
"Protein",g,--,--,0.00,0.00
"Total lipid (fat)",g,--,--,0.00,0.00
"Carbohydrate, by difference",g,--,--,23.00,95.83
"Fiber, total dietary",g,--,--,0.0,0.0
"Sugars, total",g,--,--,19.00,79.17
Minerals
"Calcium, Ca",mg,--,--,0,0
"Iron, Fe",mg,--,--,0.00,0.00
"Sodium, Na",mg,--,--,320,1333
Vitamins
"Vitamin C, total ascorbic acid",mg,--,--,0.0,0.0
"Vitamin A, IU",IU,--,--,0,0
Lipids
"Fatty acids, total saturated",g,--,--,0.000,0.000
"Fatty acids, total trans",g,--,--,0.000,0.000
"Cholesterol",mg,--,--,0,0
Amino Acids
Other
Ingredients
"SUGAR, MODIFIED FOOD STARCH, CONTAINS 2% OR LESS OF ALMONDS, DISODIUM PHOSPHATE, TETRASODIUM PYROPHOSPHATE, PISTACHIOS, SALT, MONO- AND DIGLYCERIDES (PREVENT FOAMING), NONFAT DRY MILK, PARTIALLY HYDROGENATED SOYBEAN OIL WITH BHA (PRESERVATIVE), ARTIFICIAL FLAVORING, TITANIUM DIOXIDE (FOR COLOR), YELLOW 5, BLUE 1." Date available: 06/25/2017 Date last updated by company: 06/25/2017
