Source: USDA Branded Food Products Database Release December 2017 Software v.3.8.6.4 2017-10-02
Report Run at: December 17, 2017 16:35 EST
"Nutrient data for: 45162605, ROUNDY'S, RIPPLE POTATO CHIPS, JALAPENO POPPER, UPC: 011150224499"
Food Group:  Branded Food Products Database
Common Name:

Nutrient,Unit,Data points,Std. Error,"14.0 CHIPS | ABOUT = 28.0g",1Value per 100 g,
Proximates
"Energy",kcal,--,--,150,536
"Protein",g,--,--,2.00,7.14
"Total lipid (fat)",g,--,--,9.00,32.14
"Carbohydrate, by difference",g,--,--,15.00,53.57
"Fiber, total dietary",g,--,--,1.0,3.6
"Sugars, total",g,--,--,1.00,3.57
Minerals
"Calcium, Ca",mg,--,--,20,71
"Iron, Fe",mg,--,--,0.00,0.00
"Sodium, Na",mg,--,--,200,714
Vitamins
"Vitamin C, total ascorbic acid",mg,--,--,8.6,30.6
"Vitamin A, IU",IU,--,--,0,0
Lipids
"Fatty acids, total saturated",g,--,--,1.000,3.570
"Fatty acids, total monounsaturated",g,--,--,6.000,21.430
"Fatty acids, total polyunsaturated",g,--,--,2.500,8.930
"Fatty acids, total trans",g,--,--,0.000,0.000
"Cholesterol",mg,--,--,5,18
Amino Acids
Other
Ingredients
"POTATOES, CANOLA AND/OR SUNFLOWER OIL, BUTTERMILK, SOUR CREAM (CULTURED CREAM, NONFAT MILK), CONTAINS TWO PERCENT OR LESS OF: SALT, JALAPENO CHILI PEPPER, NATURAL FLAVORS, DEHYDRATED GARLIC, DEHYDRATED ONION, LACTIC ACID, CALCIUM LACTATE." Date available: 07/14/2017 Date last updated by company: 07/14/2017
