Source: USDA Branded Food Products Database Release December 2017 Software v.3.8.6.4 2017-10-02
Report Run at: December 17, 2017 16:38 EST
"Nutrient data for: 45009918, ROUNDY'S, SELECT, FOUR CHEESE JUMBO RAVIOLI, UPC: 011150562218"
Food Group:  Branded Food Products Database
Common Name:

Nutrient,Unit,Data points,Std. Error,"3.0 RAVIOLIS = 113.0g",1Value per 100 g,
Proximates
"Energy",kcal,--,--,200,177
"Protein",g,--,--,10.00,8.85
"Total lipid (fat)",g,--,--,8.99,7.96
"Carbohydrate, by difference",g,--,--,21.00,18.58
"Fiber, total dietary",g,--,--,1.0,0.9
"Sugars, total",g,--,--,0.00,0.00
Minerals
"Calcium, Ca",mg,--,--,200,177
"Iron, Fe",mg,--,--,0.89,0.79
"Sodium, Na",mg,--,--,350,310
Vitamins
"Vitamin C, total ascorbic acid",mg,--,--,1.5,1.3
"Vitamin A, IU",IU,--,--,495,438
Lipids
"Fatty acids, total saturated",g,--,--,4.995,4.420
"Fatty acids, total trans",g,--,--,0.000,0.000
"Cholesterol",mg,--,--,50,44
Amino Acids
Other
Ingredients
"DURUM WHEAT FLOUR (ENRICHED WITH IRON (FERROUS SULFATE) AND B VITAMINS (NIACIN, THIAMIN, RIBOFLAVIN, FOLIC ACID)), RICOTTA CHEESE (PASTEURIZED WHEY, CREAM, VINEGAR, AND SALT), WHOLE MILK RICOTTA CHEESE (SWEET WHEY, WHOLE MILK, SWEET CREAM, CULTURE, VINEGAR AND SALT), WATER, WHOLE EGG, ASIAGO CHEESE (PASTEURIZED COW'S MILK, CHEESE CULTURES, SALT, ENZYMES (POWDERED CELLULOSE ADDED TO PREVENT CAKING)), ROMANO CHEESE (PASTEURIZED SHEEP'S MILK, CHEESE CULTURE, SALT, ENZYMES, MODIFIED FOOD STARCH, POWDERED CELLULOSE (ANTI-CAKING AGENT), PARMESAN CHEESE (PASTEURIZED PART-SKIM MILK, CHEESE CULTURES, SALT, ENZYMES, MODIFIED FOOD STARCH, AND ANTI-CAKING AGENT (POWDERED CELLULOSE AND POTASSIUM SORBATE TO PROTECT FLAVOR)), FLOUR BLEND (YELLOW CORN FLOUR, WHEAT FLOUR, SOYBEAN OIL, EXTRACTIVES OF TURMERIC AND PAPRIKA), HALF & HALF (MILK, CREAM), SALT, PARSLEY, RICE FLOUR, WHEAT FIBER, BLACK PEPPER." Date available: 09/07/2017 Date last updated by company: 09/07/2017
