Source: USDA Branded Food Products Database Release December 2017 Software v.3.8.6.4 2017-10-02
Report Run at: December 17, 2017 16:38 EST
"Nutrient data for: 45009705, ROUNDY'S, SELECT, DARK CHOCOLATE ESPRESSO BEANS, UPC: 011150734585"
Food Group:  Branded Food Products Database
Common Name:

Nutrient,Unit,Data points,Std. Error,"36.0 PIECES = 40.0g",1Value per 100 g,
Proximates
"Energy",kcal,--,--,190,475
"Protein",g,--,--,2.00,5.00
"Total lipid (fat)",g,--,--,12.00,30.00
"Carbohydrate, by difference",g,--,--,23.00,57.50
"Fiber, total dietary",g,--,--,2.0,5.0
"Sugars, total",g,--,--,17.00,42.50
Minerals
"Calcium, Ca",mg,--,--,20,50
"Iron, Fe",mg,--,--,1.80,4.50
"Sodium, Na",mg,--,--,30,75
Vitamins
"Vitamin C, total ascorbic acid",mg,--,--,0.0,0.0
"Vitamin A, IU",IU,--,--,0,0
Lipids
"Fatty acids, total saturated",g,--,--,7.000,17.500
"Fatty acids, total trans",g,--,--,0.000,0.000
"Cholesterol",mg,--,--,0,0
Amino Acids
Other
Ingredients
"DARK CHOCOLATE (SUGAR, CHOCOLATE LIQUOR,COCOA BUTTER, CHOCOLATE LIQUOR PROCESSED WITH ALKALI, SOY LECITHIN (EMULSIFIER), SALT, VANILLA), DRY ROASTED COFFEE BEANS AND CONFECTIONERS GLAZE." Date available: 06/24/2017 Date last updated by company: 06/24/2017
