Source: USDA Branded Food Products Database Release December 2017 Software v.3.8.6.4 2017-10-02
Report Run at: December 17, 2017 16:32 EST
"Nutrient data for: 45018986, ROUNDY'S, PENNE RIGATE, WHOLE WHEAT MACARONI PRODUCT, UPC: 011150176569"
Food Group:  Branded Food Products Database
Common Name:

Nutrient,Unit,Data points,Std. Error,"0.75 CUP DRY = 56.0g",1Value per 100 g,
Proximates
"Energy",kcal,--,--,180,321
"Protein",g,--,--,7.00,12.50
"Total lipid (fat)",g,--,--,1.00,1.79
"Carbohydrate, by difference",g,--,--,41.00,73.21
"Fiber, total dietary",g,--,--,6.0,10.7
"Sugars, total",g,--,--,2.00,3.57
Minerals
"Calcium, Ca",mg,--,--,0,0
"Iron, Fe",mg,--,--,4.50,8.04
"Sodium, Na",mg,--,--,0,0
Vitamins
"Vitamin C, total ascorbic acid",mg,--,--,0.0,0.0
"Vitamin A, IU",IU,--,--,0,0
Lipids
"Fatty acids, total saturated",g,--,--,0.000,0.000
"Fatty acids, total monounsaturated",g,--,--,0.000,0.000
"Fatty acids, total polyunsaturated",g,--,--,1.002,1.790
"Fatty acids, total trans",g,--,--,0.000,0.000
"Cholesterol",mg,--,--,0,0
Amino Acids
Other
Ingredients
"100% DURUM WHOLE WHEAT FLOUR." Date available: 06/25/2017 Date last updated by company: 06/25/2017
