Source: USDA Branded Food Products Database Release December 2017 Software v.3.8.6.4 2017-10-02
Report Run at: December 17, 2017 16:16 EST
"Nutrient data for: 45019168, ROUNDY'S, BUTTERY HOMESTYLE MASHED POTATOES, UPC: 011150182027"
Food Group:  Branded Food Products Database
Common Name:

Nutrient,Unit,Data points,Std. Error,"0.25 cup = 28.0g",1Value per 100 g,
Proximates
"Energy",kcal,--,--,120,429
"Total lipid (fat)",g,--,--,4.50,16.07
"Carbohydrate, by difference",g,--,--,18.00,64.29
"Fiber, total dietary",g,--,--,1.0,3.6
"Sugars, total",g,--,--,1.00,3.57
Minerals
"Calcium, Ca",mg,--,--,20,71
"Iron, Fe",mg,--,--,1.80,6.43
"Sodium, Na",mg,--,--,610,2179
Vitamins
"Vitamin C, total ascorbic acid",mg,--,--,18.0,64.3
"Vitamin A, IU",IU,--,--,0,0
Lipids
"Fatty acids, total saturated",g,--,--,2.999,10.710
"Fatty acids, total trans",g,--,--,0.000,0.000
"Cholesterol",mg,--,--,0,0
Amino Acids
Other
Ingredients
"IDAHO POTATOES*, COCONUT OIL, CORN SYRUP SOLIDS, SALT, CANOLA OIL, NONFAT DRY MILK, SODIUM CASEINATE (FROM MILK), BUTTER* (CREAM AND SALT), MONO- AND DIGLYCERIDES, SPICES, NATURAL AND ARTIFICIAL FLAVORS, DIPOTASSIUM PHOSPHATE, CALCIUM STEAROYL LACTYLATE, DISODIUM INOSINATE AND DISODIUM GUANYLATE, TITANIUM DIOXIDE, ANNATTO AND TURMERIC (COLOR), FRESHNESS PRESERVED WITH SODIUM ACID PYROPHOSPHATE, SODIUM BISULFITE AND CITRIC ACID." Date available: 06/25/2017 Date last updated by company: 06/25/2017
