Source: USDA Branded Food Products Database Release December 2017 Software v.3.8.6.4 2017-10-02
Report Run at: December 17, 2017 16:29 EST
"Nutrient data for: 45150643, ROUNDY'S, NATURAL YOGURT PRETZELS, UPC: 011150950374"
Food Group:  Branded Food Products Database
Common Name:

Nutrient,Unit,Data points,Std. Error,"7.0 PCS = 40.0g",1Value per 100 g,
Proximates
"Energy",kcal,--,--,200,500
"Total lipid (fat)",g,--,--,9.00,22.50
"Carbohydrate, by difference",g,--,--,29.00,72.50
"Fiber, total dietary",g,--,--,0.0,0.0
"Sugars, total",g,--,--,18.00,45.00
Minerals
"Calcium, Ca",mg,--,--,40,100
"Iron, Fe",mg,--,--,0.90,2.25
"Sodium, Na",mg,--,--,90,225
Vitamins
"Vitamin C, total ascorbic acid",mg,--,--,0.0,0.0
"Vitamin A, IU",IU,--,--,0,0
Lipids
"Fatty acids, total saturated",g,--,--,8.000,20.000
"Fatty acids, total trans",g,--,--,0.000,0.000
"Cholesterol",mg,--,--,0,0
Amino Acids
Other
Ingredients
"YOGURT COATING (SUGAR, PALM KERNEL OIL, WHEY POWDER, NONFAT MILK POWDER, YOGURT POWDER [CULTURED WHEY, NONFAT MILK], SOY LECITHIN [AN EMULSIFIER], VANILLA), PRETZELS (ENRICHED FLOUR [WHEAT FLOUR, NIACIN, REDUCED IRON, THIAMINE MONONITRATE, RIBOFLAVIN, FOLIC ACID], CORN SYRUP, VEGETABLE OIL [CORN, CANOLA AND/OR SOYBEAN OIL], SALT, SODIUM BICARBONATE, YEAST)." Date available: 10/13/2017 Date last updated by company: 10/13/2017
