Source: USDA Branded Food Products Database Release December 2017 Software v.3.8.6.4 2017-10-02
Report Run at: December 17, 2017 16:22 EST
"Nutrient data for: 45012695, ROUNDY'S, FISHERMAN'S, TILAPIA FILLETS, UPC: 011150571005"
Food Group:  Branded Food Products Database
Common Name:

Nutrient,Unit,Data points,Std. Error,"1 FILLET = 142.0g",1Value per 100 g,
Proximates
"Energy",kcal,--,--,230,162
"Protein",g,--,--,24.00,16.90
"Total lipid (fat)",g,--,--,14.00,9.86
"Carbohydrate, by difference",g,--,--,2.00,1.41
"Fiber, total dietary",g,--,--,1.0,0.7
"Sugars, total",g,--,--,0.00,0.00
Minerals
"Calcium, Ca",mg,--,--,20,14
"Iron, Fe",mg,--,--,0.43,0.30
"Sodium, Na",mg,--,--,400,282
Vitamins
"Vitamin C, total ascorbic acid",mg,--,--,2.8,2.0
"Vitamin A, IU",IU,--,--,240,169
Lipids
"Fatty acids, total saturated",g,--,--,1.505,1.060
"Fatty acids, total trans",g,--,--,0.000,0.000
"Cholesterol",mg,--,--,55,39
Amino Acids
Other
Ingredients
"TILAPIA, WATER, OLIVE OIL BLEND (CANOLA OIL AND OLIVE OIL), SALT, NATURAL FLAVORS (WITH SMOKE AND GRILL FLAVORS), SPICES, DEHYDRATED GARLIC, PAPRIKA, DEHYDRATED ONION, RED BELL PEPPER, CITRIC ACID." Date available: 06/25/2017 Date last updated by company: 06/25/2017
