Source: USDA Branded Food Products Database Release December 2017 Software v.3.8.6.4 2017-10-02
Report Run at: December 17, 2017 16:43 EST
"Nutrient data for: 45170836, ROUNDY'S, SOY SAUCE, UPC: 011150119009"
Food Group:  Branded Food Products Database
Common Name:

Nutrient,Unit,Data points,Std. Error,"1 Tbsp = 15.0g",1Value per 100 g,
Proximates
"Energy",kcal,--,--,10,67
"Protein",g,--,--,0.00,0.00
"Total lipid (fat)",g,--,--,0.00,0.00
"Carbohydrate, by difference",g,--,--,0.00,0.00
"Sugars, total",g,--,--,1.00,6.67
Minerals
"Sodium, Na",mg,--,--,840,5600
Vitamins
Lipids
Amino Acids
Other
Ingredients
"WATER, HYDROLYZED SOY PROTEIN, SALT, CORN SYRUP, CARAMEL COLOR, CITRIC ACID AND POTASSIUM SORBATE (PRESERVATIVES)." Date available: 07/14/2017 Date last updated by company: 07/14/2017
