Source: USDA Branded Food Products Database Release December 2017 Software v.3.8.6.4 2017-10-02
Report Run at: December 17, 2017 16:15 EST
"Nutrient data for: 45019254, ROUNDY'S, BEEF RAVIOLI IN TOMATO AND MEAT SAUCE, UPC: 011150114509"
Food Group:  Branded Food Products Database
Common Name:

Nutrient,Unit,Data points,Std. Error,"1 cup = 240.0g",1Value per 100 g,
Proximates
"Energy",kcal,--,--,240,100
"Protein",g,--,--,7.99,3.33
"Total lipid (fat)",g,--,--,7.99,3.33
"Carbohydrate, by difference",g,--,--,34.01,14.17
"Fiber, total dietary",g,--,--,4.1,1.7
"Sugars, total",g,--,--,4.99,2.08
Minerals
"Calcium, Ca",mg,--,--,41,17
"Iron, Fe",mg,--,--,2.86,1.19
"Sodium, Na",mg,--,--,749,312
Vitamins
"Vitamin C, total ascorbic acid",mg,--,--,2.6,1.1
"Vitamin A, IU",IU,--,--,211,88
Lipids
"Fatty acids, total saturated",g,--,--,3.000,1.250
"Fatty acids, total monounsaturated",g,--,--,3.504,1.460
"Fatty acids, total polyunsaturated",g,--,--,0.504,0.210
"Fatty acids, total trans",g,--,--,0.000,0.000
"Cholesterol",mg,--,--,10,4
Amino Acids
Other
Ingredients
"TOMATO PUREE (WATER, TOMATO PASTE), WATER, ENRICHED WHEAT FLOUR (WHEAT FLOUR, MALTED BARLEY FLOUR, NIACIN, FERROUS SULFATE, THIAMINE MONONITRATE, RIBOFLAVIN, FOLIC ACID), BEEF, BREADCRUMBS (ENRICHED WHEAT FLOUR [WHEAT FLOUR, NIACIN, FERROUS SULFATE, THIAMINE MONONITRATE, RIBOFLAVIN, FOLIC ACID], DEXTROSE, SALT, YEAST, SOYBEAN OIL), CONTAINS LESS THAN 2%: HIGH FRUCTOSE CORN SYRUP, SALT, TEXTURED SOY PROTEIN (SOY FLOUR, CARAMEL COLOR), FOOD STARCH-MODIFIED, DEHYDRATED ONION, POTASSIUM CHLORIDE, NATURAL FLAVOR, CITRIC ACID, SOY PROTEIN CONCENTRATE, CARAMEL COLOR, GARLIC POWDER, CARROTS, SUGAR, ENZYME MODIFIED ROMANO CHEESE (ROMANO CHEESE [PASTEURIZED COW'S MILK, CHEESE CULTURES, SALT, ENZYMES], WATER, SALT, DISODIUM PHOSPHATE), SPICE EXTRACTS." Date available: 06/25/2017 Date last updated by company: 06/25/2017
