Source: USDA Branded Food Products Database Release December 2017 Software v.3.8.6.4 2017-10-02
Report Run at: December 17, 2017 16:18 EST
"Nutrient data for: 45019794, ROUNDY'S, CLASSIC WHITE CAKE MIX, UPC: 011150281249"
Food Group:  Branded Food Products Database
Common Name:

Nutrient,Unit,Data points,Std. Error,"0.083 PACKAGE = 39.0g",1Value per 100 g,
Proximates
"Energy",kcal,--,--,160,410
"Protein",g,--,--,1.00,2.56
"Total lipid (fat)",g,--,--,3.00,7.69
"Carbohydrate, by difference",g,--,--,31.00,79.49
"Fiber, total dietary",g,--,--,1.0,2.6
"Sugars, total",g,--,--,17.00,43.59
Minerals
"Calcium, Ca",mg,--,--,40,103
"Iron, Fe",mg,--,--,0.74,1.89
"Sodium, Na",mg,--,--,230,590
Vitamins
"Vitamin C, total ascorbic acid",mg,--,--,0.0,0.0
"Vitamin A, IU",IU,--,--,0,0
Lipids
"Fatty acids, total saturated",g,--,--,0.998,2.560
"Fatty acids, total trans",g,--,--,0.000,0.000
"Cholesterol",mg,--,--,0,0
Amino Acids
Other
Ingredients
"SUGAR, ENRICHED BLEACHED FLOUR (BLEACHED WHEAT FLOUR, NIACIN, IRON, THIAMINE MONONITRATE, RIBOFLAVIN, FOLIC ACID), VEGETABLE SHORTENING (CONTAINS ONE OR MORE OF THE FOLLOWING: [PALM OIL, AND/OR SOYBEAN OIL], WITH EMULSIFIER [PROPYLENE GLYCOL MONOESTERS, MONO AND DIGLYCERIDES, SOY LECITHIN]), MODIFIED CORN STARCH, EMULSIFIER (PROPYLENE GLYCOL MONO-AND DIESTERS, MONO AND DIGLYCERIDES), LEAVENING (BAKING SODA, SODIUM ALUMINIUM PHOSPHATE, MONOCALCIUM PHOSPHATE), SALT, DEXTROSE, ARTIFICIAL FLAVOR, LECITHIN, XANTHAN GUM, PRESERVATIVE (BHT, CITRIC ACID)." Date available: 08/08/2017 Date last updated by company: 08/08/2017
