Source: USDA Branded Food Products Database Release December 2017 Software v.3.8.6.4 2017-10-02
Report Run at: December 17, 2017 16:26 EST
"Nutrient data for: 45239338, ROUNDY'S, INSTANT OATMEAL, REGULAR, UPC: 011150299183"
Food Group:  Branded Food Products Database
Common Name:

Nutrient,Unit,Data points,Std. Error,"1 PACKET, PER CONTAINER = 28.0g",1Value per 100 g,
Proximates
"Energy",kcal,--,--,100,357
"Protein",g,--,--,3.00,10.71
"Total lipid (fat)",g,--,--,2.00,7.14
"Carbohydrate, by difference",g,--,--,19.00,67.86
"Fiber, total dietary",g,--,--,3.0,10.7
"Sugars, total",g,--,--,0.00,0.00
Minerals
"Calcium, Ca",mg,--,--,100,357
"Iron, Fe",mg,--,--,11.57,41.33
"Magnesium, Mg",mg,--,--,57,204
"Phosphorus, P",mg,--,--,214,765
"Potassium, K",mg,--,--,100,357
"Sodium, Na",mg,--,--,75,268
Vitamins
"Vitamin C, total ascorbic acid",mg,--,--,0.0,0.0
"Thiamin",mg,--,--,0.560,2.000
"Riboflavin",mg,--,--,0.340,1.214
"Niacin",mg,--,--,5.714,20.407
"Vitamin B-6",mg,--,--,0.571,2.041
"Vitamin A, IU",IU,--,--,1429,5102
"Vitamin D",IU,--,--,80,286
Lipids
"Fatty acids, total saturated",g,--,--,0.000,0.000
"Fatty acids, total monounsaturated",g,--,--,0.501,1.790
"Fatty acids, total polyunsaturated",g,--,--,0.501,1.790
"Fatty acids, total trans",g,--,--,0.000,0.000
"Cholesterol",mg,--,--,0,0
Amino Acids
Other
Ingredients
"WHOLE GRAIN ROLLED OATS, SALT, GUAR GUM, CARAMEL COLOR. VITAMIN AND MINERALS: CALCIUM CARBONATE (A SOURCE OF CALCIUM), FERRIC ORTHOPHOSPHATE (A SOURCE OF IRON), NIACINAMIDE*, VITAMIN A PALMITATE, PYRIDOXINE HYDROCHLORIDE*, RIBOFALVIN*, THIAMIN MONONITRATE*, FOLIC ACID*, VITAMIN D." Date available: 06/24/2017 Date last updated by company: 06/24/2017
