Source: USDA Branded Food Products Database Release December 2017 Software v.3.8.6.4 2017-10-02
Report Run at: December 17, 2017 16:15 EST
"Nutrient data for: 45019153, ROUNDY'S, AU GRATIN POTATOES, UPC: 011150183543"
Food Group:  Branded Food Products Database
Common Name:

Nutrient,Unit,Data points,Std. Error,"1 ONZ = 28.0g",1Value per 100 g,
Proximates
"Energy",kcal,--,--,100,357
"Protein",g,--,--,2.00,7.14
"Total lipid (fat)",g,--,--,0.00,0.00
"Carbohydrate, by difference",g,--,--,22.00,78.57
"Fiber, total dietary",g,--,--,2.0,7.1
"Sugars, total",g,--,--,0.00,0.00
Minerals
"Calcium, Ca",mg,--,--,20,71
"Iron, Fe",mg,--,--,1.80,6.43
"Sodium, Na",mg,--,--,580,2071
Vitamins
"Vitamin C, total ascorbic acid",mg,--,--,30.0,107.1
"Vitamin A, IU",IU,--,--,0,0
Lipids
"Fatty acids, total saturated",g,--,--,0.000,0.000
"Fatty acids, total trans",g,--,--,0.000,0.000
"Cholesterol",mg,--,--,0,0
Amino Acids
Other
Ingredients
"DEHYDRATED POTATO WITH PRESERVATIVE (SODIUM BISULFITE), CORN STARCH, MALTODEXTRIN, SALT, ENRICHED FLOUR (WHEAT FLOUR, NIACIN, IRON, THIAMINE MONONITRATE, RIBOFLAVIN, FOLIC ACID), WHEY, CHEDDAR CHEESE (MILK, CHEESE CULTURE, SALT, ENZYMES), DEHYDRATED ONION, POTASSIUM CHLORIDE, BUTTER, BAKING SODA, DEHYDRATED GARLIC, NATURAL FLAVOR, COLOR (YELLOW 5, YELLOW 6, YELLOW LAKE 5, YELLOW 6 LAKE), BUTTERMILK SOLIDS, SODIUM PHOSPHATE, MODIFIED CORN STARCH, ENZYME MODIFIED CHEESE (CHEDDAR CHEESE [MILK, CHEESE CULTURE, SALT ENZYMES], DISODIUM PHOSPHATE, ENZYMES, XANTHAN GUM), LACTIC ACID, DISODIUM INOSINATE, DISODIUM GUANYLATE." Date available: 06/25/2017 Date last updated by company: 06/25/2017
