Source: USDA Branded Food Products Database Release December 2017 Software v.3.8.6.4 2017-10-02
Report Run at: December 17, 2017 16:22 EST
"Nutrient data for: 45010823, ROUNDY'S, FRENCH STYLE CLASSIC DINNER ROLLS, UPC: 011150554787"
Food Group:  Branded Food Products Database
Common Name:

Nutrient,Unit,Data points,Std. Error,"1 ROLL = 43.0g",1Value per 100 g,
Proximates
"Energy",kcal,--,--,110,256
"Protein",g,--,--,4.00,9.30
"Total lipid (fat)",g,--,--,1.00,2.33
"Carbohydrate, by difference",g,--,--,23.00,53.49
"Fiber, total dietary",g,--,--,1.0,2.3
"Sugars, total",g,--,--,1.00,2.33
Minerals
"Calcium, Ca",mg,--,--,0,0
"Iron, Fe",mg,--,--,1.67,3.89
"Sodium, Na",mg,--,--,220,512
Vitamins
"Vitamin C, total ascorbic acid",mg,--,--,0.0,0.0
"Thiamin",mg,--,--,0.430,1.000
"Riboflavin",mg,--,--,0.136,0.316
"Niacin",mg,--,--,1.860,4.326
"Vitamin A, IU",IU,--,--,0,0
Lipids
"Fatty acids, total saturated",g,--,--,0.000,0.000
"Fatty acids, total monounsaturated",g,--,--,0.000,0.000
"Fatty acids, total polyunsaturated",g,--,--,0.000,0.000
"Fatty acids, total trans",g,--,--,0.000,0.000
"Cholesterol",mg,--,--,0,0
Amino Acids
Other
Ingredients
"ENRICHED FLOUR (BLEACHED WHEAT FLOUR, NIACIN, REDUCED IRON, THIAMINE MONONITRATE, RIBOFLAVIN, FOLIC ACID), WATER, SUGAR, SALT, PALM OIL, YEAST, DEXTROSE, MALTED BARLEY FLOUR, CALCIUM STEAROYL LACTYLATE, MALT POWDER (DRIED CORN SYRUP, BARLEY MALT EXTRACT), DATEM, SOYBEAN OIL, POTASSIUM IODATE, ASCORBIC ACID, ENZYMES, AZODICARBONAMIDE, L-CYSTEINE, SOUR DOUGH CULTURES." Date available: 07/14/2017 Date last updated by company: 07/14/2017
