Source: USDA Branded Food Products Database Release December 2017 Software v.3.8.6.4 2017-10-02
Report Run at: December 17, 2017 16:14 EST
"Nutrient data for: 45171477, ROUNDY'S, ALL NATURAL GRANOLA, FRENCH VANILLA, UPC: 011150940214"
Food Group:  Branded Food Products Database
Common Name:

Nutrient,Unit,Data points,Std. Error,"0.33 cup = 40.0g",1Value per 100 g,
Proximates
"Energy",kcal,--,--,170,425
"Protein",g,--,--,4.00,10.00
"Total lipid (fat)",g,--,--,6.00,15.00
"Carbohydrate, by difference",g,--,--,26.00,65.00
"Fiber, total dietary",g,--,--,3.0,7.5
"Sugars, total",g,--,--,4.00,10.00
Minerals
"Calcium, Ca",mg,--,--,20,50
"Iron, Fe",mg,--,--,1.48,3.71
"Sodium, Na",mg,--,--,0,0
Vitamins
"Vitamin C, total ascorbic acid",mg,--,--,0.0,0.0
"Vitamin A, IU",IU,--,--,0,0
Lipids
"Fatty acids, total saturated",g,--,--,0.500,1.250
"Fatty acids, total trans",g,--,--,0.000,0.000
"Cholesterol",mg,--,--,0,0
Amino Acids
Other
Ingredients
"ROLLED OATS, BROWN SUGAR, HONEY, CANOLA OIL, ALMONDS, MAPLE SYRUP, NATURAL FLAVOR." Date available: 07/14/2017 Date last updated by company: 07/14/2017
