Source: USDA Branded Food Products Database Release December 2017 Software v.3.8.6.4 2017-10-02
Report Run at: December 17, 2017 16:19 EST
"Nutrient data for: 45150628, ROUNDY'S, DARK CHOCOLATE, UPC: 011150734844"
Food Group:  Branded Food Products Database
Common Name:

Nutrient,Unit,Data points,Std. Error,"22.0 PIECES = 40.0g",1Value per 100 g,
Proximates
"Energy",kcal,--,--,180,450
"Protein",g,--,--,2.00,5.00
"Total lipid (fat)",g,--,--,10.00,25.00
"Carbohydrate, by difference",g,--,--,26.00,65.00
"Fiber, total dietary",g,--,--,2.0,5.0
"Sugars, total",g,--,--,22.00,55.00
Minerals
"Calcium, Ca",mg,--,--,20,50
"Iron, Fe",mg,--,--,0.90,2.25
"Potassium, K",mg,--,--,210,525
"Sodium, Na",mg,--,--,370,925
Vitamins
"Vitamin C, total ascorbic acid",mg,--,--,0.0,0.0
"Vitamin A, IU",IU,--,--,0,0
Lipids
"Fatty acids, total saturated",g,--,--,6.000,15.000
"Fatty acids, total trans",g,--,--,0.000,0.000
"Cholesterol",mg,--,--,0,0
Amino Acids
Other
Ingredients
"DARK CHOCOLATE (SUGAR, CHOCOLATE LIQUOR, COCOA BUTTER, CHOCOLATE LIQUOR PROCESSED WITH ALKALI, SOY LECITHIN [EMULSIFIER], SALT, NATURAL FLAVOR), CARAMEL (SUGAR, CORN SYRUP, LIQUID SUGAR, SKIM MILK, PALM OIL, BUTTER, SALT, MONO AND DIGLYCERIDES, SOY LECITHIN), SEA SALT, WATER, CONFECTIONER'S GLAZE, GUM ARABIC, SUGAR, CORN SYRUP, MODIFIED TAPIOCA STARCH, COCONUT OIL, CITRIC ACID, SORBIC ACID." Date available: 07/14/2017 Date last updated by company: 07/14/2017
