Source: USDA Branded Food Products Database Release December 2017 Software v.3.8.6.4 2017-10-02
Report Run at: December 17, 2017 16:21 EST
"Nutrient data for: 45180999, ROUNDY'S, FISHERMAN'S, LARGE SEA SCALLOPS, UPC: 011150602907"
Food Group:  Branded Food Products Database
Common Name:

Nutrient,Unit,Data points,Std. Error,"4.0 ONZ = 113.0g",1Value per 100 g,
Proximates
"Energy",kcal,--,--,80,71
"Protein",g,--,--,17.00,15.04
"Total lipid (fat)",g,--,--,0.99,0.88
"Carbohydrate, by difference",g,--,--,0.99,0.88
"Fiber, total dietary",g,--,--,0.0,0.0
"Sugars, total",g,--,--,0.00,0.00
Minerals
"Calcium, Ca",mg,--,--,0,0
"Iron, Fe",mg,--,--,0.27,0.24
"Sodium, Na",mg,--,--,170,150
Vitamins
"Vitamin C, total ascorbic acid",mg,--,--,0.0,0.0
"Vitamin A, IU",IU,--,--,0,0
Lipids
"Fatty acids, total saturated",g,--,--,0.000,0.000
"Fatty acids, total trans",g,--,--,0.000,0.000
"Cholesterol",mg,--,--,25,22
Amino Acids
Other
Ingredients
"SCALLOPS (MOLLUSKS)." Date available: 08/28/2017 Date last updated by company: 08/28/2017
