Source: USDA Branded Food Products Database Release December 2017 Software v.3.8.6.4 2017-10-02
Report Run at: December 17, 2017 16:24 EST
"Nutrient data for: 45171479, ROUNDY'S, HONEY GONE NUTS GRANOLA, HONEY, UPC: 011150950176"
Food Group:  Branded Food Products Database
Common Name:

Nutrient,Unit,Data points,Std. Error,"0.5 cup = 48.0g",1Value per 100 g,
Proximates
"Energy",kcal,--,--,200,417
"Total lipid (fat)",g,--,--,9.00,18.75
"Carbohydrate, by difference",g,--,--,28.00,58.33
"Fiber, total dietary",g,--,--,4.0,8.3
"Sugars, total",g,--,--,8.00,16.67
Minerals
"Calcium, Ca",mg,--,--,20,42
"Iron, Fe",mg,--,--,2.06,4.30
"Sodium, Na",mg,--,--,40,83
Vitamins
"Vitamin C, total ascorbic acid",mg,--,--,0.0,0.0
"Vitamin A, IU",IU,--,--,0,0
Lipids
"Fatty acids, total saturated",g,--,--,1.498,3.120
"Fatty acids, total trans",g,--,--,0.000,0.000
"Cholesterol",mg,--,--,0,0
Amino Acids
Other
Ingredients
"ROLLED OATS, HONEY, CANOLA OIL, ALMONDS, COCONUT, SUNFLOWER SEEDS, MOLASSES WALNUTS, SESAME SEEDS, CASHEWS, WATER, SALT, NATURAL FLAVOR." Date available: 10/13/2017 Date last updated by company: 10/13/2017
