Source: USDA Branded Food Products Database Release December 2017 Software v.3.8.6.4 2017-10-02
Report Run at: December 17, 2017 16:28 EST
"Nutrient data for: 45019248, ROUNDY'S, MACARONI AND BEEF IN TOMATO SAUCE, UPC: 011150114455"
Food Group:  Branded Food Products Database
Common Name:

Nutrient,Unit,Data points,Std. Error,"1 cup = 249.0g",1Value per 100 g,
Proximates
"Energy",kcal,--,--,249,100
"Protein",g,--,--,8.99,3.61
"Total lipid (fat)",g,--,--,8.99,3.61
"Carbohydrate, by difference",g,--,--,33.99,13.65
"Fiber, total dietary",g,--,--,3.0,1.2
"Sugars, total",g,--,--,5.00,2.01
Minerals
"Calcium, Ca",mg,--,--,20,8
"Iron, Fe",mg,--,--,2.86,1.15
"Sodium, Na",mg,--,--,720,289
Vitamins
"Vitamin C, total ascorbic acid",mg,--,--,2.5,1.0
"Vitamin A, IU",IU,--,--,212,85
Lipids
"Fatty acids, total saturated",g,--,--,3.511,1.410
"Fatty acids, total monounsaturated",g,--,--,4.009,1.610
"Fatty acids, total polyunsaturated",g,--,--,0.000,0.000
"Fatty acids, total trans",g,--,--,0.000,0.000
"Cholesterol",mg,--,--,20,8
Amino Acids
Other
Ingredients
"TOMATO PUREE (WATER, TOMATO PASTE), WATER, ENRICHED MACARONI (WHEAT FLOUR, NIACIN, FERROUS SULFATE, THIAMINE MONONITRATE, RIBOFLAVIN, FOLIC ACID), BEEF, CONTAINS LESS THAN 2%: HIGH FRUCTOSE CORN SYRUP, SALT, FOOD STARCH-MODIFIED, POTASSIUM CHLORIDE, NATURAL FLAVOR, YEAST EXTRACT, ENZYME MODIFIED ROMANO CHEESE (ROMANO CHEESE [PASTEURIZED COW'S MILK, CHEESE CULTURES, SALT, ENZYMES], WATER, SALT, DISODIUM PHOSPHATE), SPICE EXTRACT, CITRIC ACID, SPICE, CARAMEL COLOR." Date available: 06/25/2017 Date last updated by company: 06/25/2017
