Source: USDA Branded Food Products Database Release December 2017 Software v.3.8.6.4 2017-10-02
Report Run at: December 17, 2017 16:50 EST
"Nutrient data for: 45153479, ROYAL FARMS, DARK CHOCOLATE, RASPBERRY BURST, UPC: 721605284564"
Food Group:  Branded Food Products Database
Common Name:

Nutrient,Unit,Data points,Std. Error,"1 CONTAINER = 61.0g",1Value per 100 g,
Proximates
"Energy",kcal,--,--,270,443
"Protein",g,--,--,2.00,3.28
"Total lipid (fat)",g,--,--,15.00,24.59
"Carbohydrate, by difference",g,--,--,39.00,63.93
"Fiber, total dietary",g,--,--,3.0,4.9
"Sugars, total",g,--,--,32.00,52.46
Minerals
"Calcium, Ca",mg,--,--,20,33
"Iron, Fe",mg,--,--,1.18,1.94
"Sodium, Na",mg,--,--,40,66
Vitamins
"Vitamin C, total ascorbic acid",mg,--,--,0.0,0.0
"Vitamin A, IU",IU,--,--,82,134
Lipids
"Fatty acids, total saturated",g,--,--,8.998,14.750
"Fatty acids, total trans",g,--,--,0.000,0.000
"Cholesterol",mg,--,--,5,8
Amino Acids
Other
Ingredients
"DARK CHOCOLATE (SUGAR, CHOCOLATE LIQUOR, CHOCOLATE LIQUOR PROCESSED WITH ALKALI, COCOA BUTTER, BUTTERFAT, SOY LECITHIN, AND VANILLA), RASPBERRY FILLING (SUGAR, CORN SYRUP, RASPBERRY PUREE: CONTAINS 2 % OR LESS OF THE FOLLOWING: WATER, HIGH FRUCTOSE CORN SYRUP, DEXTROSE, CITRIC ACID, SODIUM CARBOXYMETHYLCELLULOSE, ARTIFICIAL FLAVOR, PECTIN, SODIUM CITRATE, SODIUM BENZOATE)." Date available: 07/14/2017 Date last updated by company: 07/14/2017
