Source: USDA Branded Food Products Database Release December 2017 Software v.3.8.6.4 2017-10-02
Report Run at: December 17, 2017 16:50 EST
"Nutrient data for: 45153481, ROYAL FARMS, DARK CHOCOLATE, SMOKIN' CHIPOTLE, UPC: 721605285851"
Food Group:  Branded Food Products Database
Common Name:

Nutrient,Unit,Data points,Std. Error,"1 BAR = 61.0g",1Value per 100 g,
Proximates
"Energy",kcal,--,--,310,508
"Protein",g,--,--,3.00,4.92
"Total lipid (fat)",g,--,--,20.00,32.79
"Carbohydrate, by difference",g,--,--,36.00,59.02
"Fiber, total dietary",g,--,--,3.0,4.9
"Sugars, total",g,--,--,28.00,45.90
Minerals
"Calcium, Ca",mg,--,--,20,33
"Iron, Fe",mg,--,--,1.48,2.42
"Sodium, Na",mg,--,--,65,107
Vitamins
"Vitamin C, total ascorbic acid",mg,--,--,0.0,0.0
"Vitamin A, IU",IU,--,--,82,134
Lipids
"Fatty acids, total saturated",g,--,--,11.999,19.670
"Fatty acids, total trans",g,--,--,0.000,0.000
"Cholesterol",mg,--,--,5,8
Amino Acids
Other
Ingredients
"DARK CHOCOLATE (SUGAR, CHOCOLATE LIQUOR, CHOCOLATE LIQUOR PROCESSED WITH ALKALI, COCOA BUTTER, BUTTERFAT, SOY LECITHIN, AND VANILLA), CHIPOTLE PEPPER (SMOKE DRIED JALAPENO PEPPER)." Date available: 07/14/2017 Date last updated by company: 07/14/2017
