Source: USDA Branded Food Products Database Release December 2017 Software v.3.8.6.4 2017-10-02
Report Run at: December 17, 2017 16:49 EST
"Nutrient data for: 45106345, ROYAL ANN CHERRIES IN LIGHT SYRUP, UPC: 737550030064"
Food Group:  Branded Food Products Database
Common Name:

Nutrient,Unit,Data points,Std. Error,"0.5 cup = 135.0g",1Value per 100 g,
Proximates
"Energy",kcal,--,--,130,96
"Protein",g,--,--,1.00,0.74
"Total lipid (fat)",g,--,--,0.50,0.37
"Carbohydrate, by difference",g,--,--,32.99,24.44
"Fiber, total dietary",g,--,--,2.0,1.5
"Sugars, total",g,--,--,31.00,22.96
Minerals
"Calcium, Ca",mg,--,--,0,0
"Iron, Fe",mg,--,--,0.38,0.28
"Sodium, Na",mg,--,--,0,0
Vitamins
"Vitamin C, total ascorbic acid",mg,--,--,5.0,3.7
"Vitamin A, IU",IU,--,--,104,77
Lipids
"Fatty acids, total saturated",g,--,--,0.000,0.000
"Cholesterol",mg,--,--,0,0
Amino Acids
Other
Ingredients
"PREMIUM NORTHWEST ROYAL ANN CHERRIES, WATER, SUGAR AND CITRIC ACID." Date available: 06/25/2017 Date last updated by company: 06/25/2017
