Source: USDA Branded Food Products Database Release December 2017 Software v.3.8.6.4 2017-10-02
Report Run at: December 17, 2017 16:55 EST
"Nutrient data for: 45243548, RUBY RED GRAPEFRUIT JUICE COCKTAIL, UPC: 015400035989"
Food Group:  Branded Food Products Database
Common Name:

Nutrient,Unit,Data points,Std. Error,"8.0 OZA = 240.0g",1Value per 100 g,
Proximates
"Energy",kcal,--,--,130,54
"Protein",g,--,--,0.00,0.00
"Total lipid (fat)",g,--,--,0.00,0.00
"Carbohydrate, by difference",g,--,--,33.00,13.75
"Sugars, total",g,--,--,33.00,13.75
Minerals
"Sodium, Na",mg,--,--,36,15
Vitamins
"Vitamin C, total ascorbic acid",mg,--,--,78.0,32.5
Lipids
Amino Acids
Other
Ingredients
"WATER, HIGH FRUCTOSE CORN SYRUP, GRAPEFRUIT JUICE CONCENTRATE, GRAPEFRUIT PULP SACS, CITRIC ACID, PECTIN, NATURAL FLAVORS, ASCORBIC ACID (VITAMIN C), RED 40." Date available: 06/25/2017 Date last updated by company: 06/25/2017
