Source: USDA Branded Food Products Database Release December 2017 Software v.3.8.6.4 2017-10-02
Report Run at: December 17, 2017 16:56 EST
"Nutrient data for: 45024940, RUDIS GLUTEN-FREE BAKERY, SPINACH TORTILLAS, UPC: 856750005013"
Food Group:  Branded Food Products Database
Common Name:

Nutrient,Unit,Data points,Std. Error,"1 TORTILLA = 32.0g",1Value per 100 g,
Proximates
"Energy",kcal,--,--,90,281
"Protein",g,--,--,1.00,3.12
"Total lipid (fat)",g,--,--,2.50,7.81
"Carbohydrate, by difference",g,--,--,17.00,53.12
"Fiber, total dietary",g,--,--,5.0,15.6
"Sugars, total",g,--,--,1.00,3.12
Minerals
"Calcium, Ca",mg,--,--,40,125
"Iron, Fe",mg,--,--,1.24,3.87
"Sodium, Na",mg,--,--,180,562
Vitamins
"Vitamin C, total ascorbic acid",mg,--,--,2.1,6.5
"Vitamin A, IU",IU,--,--,516,1611
Lipids
"Fatty acids, total saturated",g,--,--,0.000,0.000
"Fatty acids, total monounsaturated",g,--,--,0.998,3.120
"Fatty acids, total polyunsaturated",g,--,--,0.499,1.560
"Fatty acids, total trans",g,--,--,0.000,0.000
"Cholesterol",mg,--,--,0,0
Amino Acids
Other
Ingredients
"WHOLE GRAIN FLOURS (SORGHUM, BROWN RICE, CORN, AMARANTH, QUINOA, MILLET, TEFF), CORN STARCH, TAPIOCA FLOUR, RICE FLOUR, WATER, CANOLA OIL*, XANTHAN GUM, SPINACH, EVAPORATED CANE JUICE (CANE SUGAR), CULTURED DEXTROSE AND MALTODEXTRIN, SALT, BAKING POWDER (MONOCALCIUM PHOSPHATE, SODIUM BICARBONATE, CORN STARCH), GUAR GUM, DRIED CILANTRO LEAVES, MALIC ACID, GARLIC POWDER, APPLE CIDER VINEGAR, ACTIVE DRY YEAST." Date available: 07/14/2017 Date last updated by company: 07/14/2017
