Source: USDA Branded Food Products Database Release December 2017 Software v.3.8.6.4 2017-10-02
Report Run at: December 17, 2017 16:58 EST
"Nutrient data for: 45250646, RUFFLES, POTATO CHIPS, CHEDDAR & SOUR CREAM, UPC: 028400441070"
Food Group:  Branded Food Products Database
Common Name:

Nutrient,Unit,Data points,Std. Error,"11.0 CHIPS = 28.0g",1Value per 100 g,
Proximates
"Energy",kcal,--,--,160,571
"Protein",g,--,--,2.00,7.14
"Total lipid (fat)",g,--,--,10.00,35.71
"Carbohydrate, by difference",g,--,--,15.00,53.57
"Fiber, total dietary",g,--,--,1.0,3.6
"Sugars, total",g,--,--,1.00,3.57
Minerals
"Calcium, Ca",mg,--,--,0,0
"Iron, Fe",mg,--,--,0.36,1.29
"Magnesium, Mg",mg,--,--,16,57
"Phosphorus, P",mg,--,--,20,71
"Potassium, K",mg,--,--,330,1179
"Sodium, Na",mg,--,--,180,643
Vitamins
"Vitamin C, total ascorbic acid",mg,--,--,6.0,21.4
"Niacin",mg,--,--,2.142,7.650
"Vitamin B-6",mg,--,--,0.286,1.021
"Vitamin A, IU",IU,--,--,0,0
Lipids
"Fatty acids, total saturated",g,--,--,1.501,5.360
"Fatty acids, total trans",g,--,--,0.000,0.000
"Cholesterol",mg,--,--,0,0
Amino Acids
Other
Ingredients
"POTATOES, VEGETABLE OIL (SUNFLOWER, CORN, AND/OR CANOLA OIL), CHEDDAR & SOUR CREAM SEASONING (MALTODEXTRIN [MADE FROM CORN], SALT, WHEY, CHEDDAR CHEESE [MILK, CHEESE CULTURES, SALT, ENZYMES], ONION POWDER, CORN OIL, MONOSODIUM GLUTAMATE, NATURAL AND ARTIFICIAL FLAVOR, BUTTERMILK, CANOLA OIL, SOUR CREAM [CULTURED CREAM, SKIM MILK], LACTOSE, BUTTER [CREAM, SALT], SODIUM CASEINATE, YEAST EXTRACT, CITRIC ACID, SKIM MILK, BLUE CHEESE [MILK, CHEESE CULTURES, SALT, ENZYMES], LACTIC ACID, GARLIC POWDER, ARTIFICIAL COLOR [INCLUDING YELLOW 6, YELLOW 5], WHEY PROTEIN ISOLATE, SUNFLOWER OIL, AND MILK PROTEIN CONCENTRATE)." Date available: 09/23/2016 Date last updated by company: 09/23/2016
