Source: USDA Branded Food Products Database Release December 2017 Software v.3.8.6.4 2017-10-02
Report Run at: December 17, 2017 16:58 EST
"Nutrient data for: 45151074, RUFFLES QUESO CHEESE SAZONADAS FLAVORED, UPC: 028400415118"
Food Group:  Branded Food Products Database
Common Name:

Nutrient,Unit,Data points,Std. Error,"1 PACKAGE = 46.0g",1Value per 100 g,
Proximates
"Energy",kcal,--,--,250,543
"Protein",g,--,--,3.00,6.52
"Total lipid (fat)",g,--,--,16.00,34.78
"Carbohydrate, by difference",g,--,--,25.00,54.35
"Fiber, total dietary",g,--,--,2.0,4.3
"Sugars, total",g,--,--,2.00,4.35
Minerals
"Calcium, Ca",mg,--,--,20,43
"Iron, Fe",mg,--,--,0.72,1.57
"Magnesium, Mg",mg,--,--,24,52
"Potassium, K",mg,--,--,540,1174
"Sodium, Na",mg,--,--,370,804
Vitamins
"Vitamin C, total ascorbic acid",mg,--,--,9.0,19.6
"Thiamin",mg,--,--,0.000,0.000
"Niacin",mg,--,--,1.740,3.783
"Vitamin B-6",mg,--,--,0.326,0.709
"Vitamin A, IU",IU,--,--,400,870
Lipids
"Fatty acids, total saturated",g,--,--,2.498,5.430
"Fatty acids, total trans",g,--,--,0.000,0.000
"Cholesterol",mg,--,--,0,0
Amino Acids
Other
Ingredients
"POTATOES, VEGETABLE OIL (SUNFLOWER, CORN, AND/OR CANOLA OIL), QUESO SEASONING (SALT, WHEY, MALTODEXTRIN [MADE FROM CORN], WHEY PROTEIN CONCENTRATE, MONOSODIUM GLUTAMATE, CHEDDAR CHEESE [MILK, CHEESE CULTURES, SALT, ENZYMES], NATURAL FLAVOR [INCLUDING NATURAL EXTRACTIVES OF LIME], CITRIC ACID, SPICES [INCLUDING CHILI PEPPER], YEAST EXTRACT, SUNFLOWER OIL, BLUE CHEESE [MILK, CHEESE CULTURES, SALT, ENZYMES], GUM ARABIC, ONION POWDER, BUTTERMILK, PAPRIKA EXTRACTS, SOUR CREAM [CULTURED CREAM, SKIM MILK], BUTTER [CREAM, SALT], LACTIC ACID, GARLIC POWDER, CORN SYRUP SOLIDS, SKIM MILK, AND ANNATTO EXTRACTS)" Date available: 09/23/2016 Date last updated by company: 09/23/2016
