Source: USDA Branded Food Products Database Release December 2017 Software v.3.8.6.4 2017-10-02
Report Run at: December 17, 2017 16:57 EST
"Nutrient data for: 45252286, RUFFLES, CLASSIC POTATO CHIPS, HOT WINGS, UPC: 028400586658"
Food Group:  Branded Food Products Database
Common Name:

Nutrient,Unit,Data points,Std. Error,"11.0 CHIPS | ABOUT = 28.0g",1Value per 100 g,
Proximates
"Energy",kcal,--,--,150,536
"Protein",g,--,--,2.00,7.14
"Total lipid (fat)",g,--,--,9.00,32.14
"Carbohydrate, by difference",g,--,--,16.00,57.14
"Fiber, total dietary",g,--,--,1.0,3.6
"Sugars, total",g,--,--,1.00,3.57
Minerals
"Calcium, Ca",mg,--,--,0,0
"Iron, Fe",mg,--,--,0.36,1.29
"Potassium, K",mg,--,--,320,1143
"Sodium, Na",mg,--,--,170,607
Vitamins
"Vitamin C, total ascorbic acid",mg,--,--,6.0,21.4
"Thiamin",mg,--,--,0.000,0.000
"Niacin",mg,--,--,1.428,5.100
"Vitamin A, IU",IU,--,--,200,714
Lipids
"Fatty acids, total saturated",g,--,--,1.501,5.360
"Fatty acids, total trans",g,--,--,0.000,0.000
"Cholesterol",mg,--,--,0,0
Amino Acids
Other
Ingredients
"POTATOES, VEGETABLE OIL (SUNFLOWER, CORN, AND/OR CANOLA OIL), CLASSIC HOT WINGS SEASONING (MALTODEXTRIN [MADE FROM CORN], SALT, NATURAL FLAVOR, MONOSODIUM GLUTAMATE, SPICE, ONION POWDER, CHICKEN FAT, GARLIC POWDER, YEAST EXTRACT, CITRIC ACID, BROWN SUGAR, PAPRIKA EXTRACTS, BUTTER [CREAM, SALT], CHICKEN BROTH, CHICKEN POWDER, SKIM MILK, AND SUNFLOWER OIL)." Date available: 09/28/2016 Date last updated by company: 09/28/2016
