Source: USDA Branded Food Products Database Release December 2017 Software v.3.8.6.4 2017-10-02
Report Run at: December 17, 2017 17:02 EST
"Nutrient data for: 45165007, RUSSELL STOVER, ASSORTED FINE CHOCOLATES, UPC: 077260082848"
Food Group:  Branded Food Products Database
Common Name:

Nutrient,Unit,Data points,Std. Error,"3.0 PIECES = 46.0g",1Value per 100 g,
Proximates
"Energy",kcal,--,--,220,478
"Protein",g,--,--,2.00,4.35
"Total lipid (fat)",g,--,--,11.00,23.91
"Carbohydrate, by difference",g,--,--,29.00,63.04
"Fiber, total dietary",g,--,--,1.0,2.2
"Sugars, total",g,--,--,23.00,50.00
Minerals
"Calcium, Ca",mg,--,--,40,87
"Iron, Fe",mg,--,--,0.78,1.70
"Sodium, Na",mg,--,--,55,120
Vitamins
"Vitamin C, total ascorbic acid",mg,--,--,0.0,0.0
"Vitamin A, IU",IU,--,--,109,236
Lipids
"Fatty acids, total saturated",g,--,--,7.001,15.220
"Fatty acids, total trans",g,--,--,0.000,0.000
"Cholesterol",mg,--,--,5,11
Amino Acids
Other
Ingredients
"CONSIST OF CHOCOLATE (SUGAR, CHOCOLATE, CHOCOLATE PROCESSED WITH ALKALI, COCOA BUTTER, WHOLE MILK, MILK FAT, SOY LECITHIN (AN EMULSIFIER), VANILLIN (AN ARTIFICIAL FLAVOR), SUGAR, CORN SYRUP, DAIRY CREAM, PECANS, COCONUT WITH SODIUM METABISULFITE (TO PROMOTE SOY LECITHIN (AN EMULSIFIER), PEPPERMINT OIL, EGG ALBUMEN, TAPIOCA FLOUR, AND INVERTASE (AN ENZYME)." Date available: 07/14/2017 Date last updated by company: 07/14/2017
