Source: USDA Branded Food Products Database Release December 2017 Software v.3.8.6.4 2017-10-02
Report Run at: December 17, 2017 17:05 EST
"Nutrient data for: 45148528, RUSSELL STOVER, LOVE YA! ASSORTED CHOCOLATES, UPC: 077260062666"
Food Group:  Branded Food Products Database
Common Name:

Nutrient,Unit,Data points,Std. Error,"2.0 PIECES = 34.0g",1Value per 100 g,
Proximates
"Energy",kcal,--,--,150,441
"Protein",g,--,--,1.00,2.94
"Total lipid (fat)",g,--,--,6.00,17.65
"Carbohydrate, by difference",g,--,--,25.00,73.53
"Fiber, total dietary",g,--,--,1.0,2.9
"Sugars, total",g,--,--,20.00,58.82
Minerals
"Calcium, Ca",mg,--,--,20,59
"Iron, Fe",mg,--,--,1.06,3.11
"Sodium, Na",mg,--,--,60,176
Vitamins
"Vitamin C, total ascorbic acid",mg,--,--,0.0,0.0
"Vitamin A, IU",IU,--,--,0,0
Lipids
"Fatty acids, total saturated",g,--,--,3.998,11.760
"Fatty acids, total trans",g,--,--,0.000,0.000
"Cholesterol",mg,--,--,5,15
Amino Acids
Other
Ingredients
"INGREDIENTS CONSIST OF CHOCOLATE (SUGAR, CHOCOLATE, CHOCOLATE PROCESSED WITH ALKALI, COCOA BUTTER; WHOLE MILK, MILK FAT, SOY LECITHIN (AN EMULSIFIER), VANILLIN (AN ARTIFICIAL. FLAVOR)), SUGAR, CORN SYRUP, CONDENSED MILK, DAIRY CREAM, BROWN SUGAR, INVERT SUGAR, PARTIALLY HYDROGENATED PALM KERNEL OIL, COCONUT WITH SODIUM METABISULFITE (TO PROMOTE COLOR RETENTION), MOLASSES, NUTS (WALNUTS, ALMONDS, PECANS), CHERRIES [CHERRIES, CORN SYRUP, WATER, SUGAR, CITRIC ACID, SODIUM BENZOATE AND POTASSIUM SORBATE (PRESERVATIVES), SULFUR DIOXIDE (TO PROMOTE COLOR RETENTION), FD&C RED #40), SALT, SORBITOL, COCOA POWDER, EGG ALBUMEN, HONEY, STRAWBERRIES, NATURAL AND ARTIFICIAL FLAVORS, BUTTER, MAPLE SUGAR, SOY LECITHIN (AN EMULSIFIER), TAPIOCA FLOUR, FD&C COLORS (RED #40, YELLOW #5 & #6, BLUE #1), TOCOPHEROLS (A NATURAL ANTIOXIDANT), SODIUM BENZOATE (PRESERVATIVE), AND INVERTASE (AN ENZYME). 0205-140" Date available: 07/14/2017 Date last updated by company: 07/14/2017
