Source: USDA Branded Food Products Database Release December 2017 Software v.3.8.6.4 2017-10-02
Report Run at: December 17, 2017 17:07 EST
"Nutrient data for: 45114518, RUSSELL STOVER, SUGAR FREE CUPS, PEANUT BUTTER, UPC: 077260096227"
Food Group:  Branded Food Products Database
Common Name:

Nutrient,Unit,Data points,Std. Error,"2.0 PIECES = 34.0g",1Value per 100 g,
Proximates
"Energy",kcal,--,--,160,471
"Protein",g,--,--,3.00,8.82
"Total lipid (fat)",g,--,--,13.00,38.24
"Carbohydrate, by difference",g,--,--,16.00,47.06
"Fiber, total dietary",g,--,--,1.0,2.9
"Sugars, total",g,--,--,0.00,0.00
Minerals
"Calcium, Ca",mg,--,--,20,59
"Iron, Fe",mg,--,--,0.53,1.56
"Sodium, Na",mg,--,--,100,294
Vitamins
"Vitamin C, total ascorbic acid",mg,--,--,0.0,0.0
"Vitamin A, IU",IU,--,--,0,0
Lipids
"Fatty acids, total saturated",g,--,--,6.001,17.650
"Fatty acids, total trans",g,--,--,0.000,0.000
"Cholesterol",mg,--,--,3,10
Amino Acids
Other
Ingredients
"CONSIST OF CHOCOLATE CANDY {MALTITOL, CHOCOLATE, COCOA BUTTER, SODIUM CASEINATE (MILK), MILK FAT, SOY LECITHIN (AN EMULSIFIER), SUCRALOSE, NATURAL AND ARTIFICIAL FLAVOR, SALT}, PEANUT BUTTER (DRY ROASTED PEANUTS, HYDROGENATED COTTONSEED/RAPESEED OIL, SOY OIL, SALT), MALTITOL, HYDROGENATED VEGETABLE OIL (PALM KERNEL, SOYBEAN) AND SALT." Date available: 07/14/2017 Date last updated by company: 07/14/2017
