Source: USDA Branded Food Products Database Release December 2017 Software v.3.8.6.4 2017-10-02
Report Run at: December 17, 2017 17:11 EST
"Nutrient data for: 45086315, RUSTICHELLA D'ABRUZZO, STROZZAPRETI PASTA DI SEMOLA DI GRANO DURO, UPC: 793232111179"
Food Group:  Branded Food Products Database
Common Name:

Nutrient,Unit,Data points,Std. Error,"55.0 GRM = 55.0g",1Value per 100 g,
Proximates
"Energy",kcal,--,--,190,345
"Protein",g,--,--,6.00,10.91
"Total lipid (fat)",g,--,--,1.00,1.82
"Carbohydrate, by difference",g,--,--,41.00,74.55
"Fiber, total dietary",g,--,--,2.0,3.6
"Sugars, total",g,--,--,3.00,5.45
Minerals
"Calcium, Ca",mg,--,--,10,18
"Iron, Fe",mg,--,--,0.92,1.67
"Sodium, Na",mg,--,--,10,18
Vitamins
"Vitamin C, total ascorbic acid",mg,--,--,0.0,0.0
"Vitamin A, IU",IU,--,--,0,0
Lipids
"Fatty acids, total saturated",g,--,--,0.000,0.000
"Fatty acids, total trans",g,--,--,0.000,0.000
"Cholesterol",mg,--,--,0,0
Amino Acids
Other
Ingredients
"DURUM WHEAT SEMOLINA, WATER." Date available: 06/25/2017 Date last updated by company: 06/25/2017
