Source: USDA Branded Food Products Database Release December 2017 Software v.3.8.6.4 2017-10-02
Report Run at: December 17, 2017 17:12 EST
"Nutrient data for: 45156367, RUTTER'S, TEA COOLER WITH LEMONADE, UPC: 071156501031"
Food Group:  Branded Food Products Database
Common Name:

Nutrient,Unit,Data points,Std. Error,"8.0 ONZ = 237.0g",1Value per 100 g,
Proximates
"Energy",kcal,--,--,121,51
"Protein",g,--,--,0.00,0.00
"Total lipid (fat)",g,--,--,0.00,0.00
"Carbohydrate, by difference",g,--,--,40.01,16.88
"Sugars, total",g,--,--,21.99,9.28
Minerals
"Sodium, Na",mg,--,--,14,6
Vitamins
Lipids
Amino Acids
Other
Ingredients
"FILTERED WATER, SUGAR, MALTODEXTRIN, INSTANT TEA SOLIDS, CITRIC ACID, CARAMEL COLOR, LEMON JUICE FROM CONCENTRATE, NATURAL FLAVORS, SODIUM CITRATE, ORANGE JUICE FROM CONCENTRATE, PECTIN, FD&C #6, MODIFIED CORN STARCH, SODIUM BENZOATE AND POTASSIUM SORBATE AS PRESERVATIVES (TO PRESERVE FRESHNESS)." Date available: 07/14/2017 Date last updated by company: 07/14/2017
