Source: USDA Branded Food Products Database Release December 2017 Software v.3.8.6.4 2017-10-02
Report Run at: December 17, 2017 17:12 EST
"Nutrient data for: 45164601, RUTTER'S, GREEN TEA, MINT, UPC: 071156500997"
Food Group:  Branded Food Products Database
Common Name:

Nutrient,Unit,Data points,Std. Error,"8.0 ONZ = 237.0g",1Value per 100 g,
Proximates
"Energy",kcal,--,--,71,30
"Protein",g,--,--,0.00,0.00
"Total lipid (fat)",g,--,--,0.00,0.00
"Carbohydrate, by difference",g,--,--,17.99,7.59
"Sugars, total",g,--,--,17.99,7.59
Minerals
"Sodium, Na",mg,--,--,9,4
Vitamins
Lipids
Amino Acids
Other
Ingredients
"FILTERED WATER, SUGAR, INSTANT GREEN TEA POWDER, MALTODEXTRIN, CITRIC ACID, INSTANT TEA POWDER, MODIFIED CORN STARCH, NATURAL FLAVORS, TRIACETIN, BENZYL ALCOHOL, SODIUM BENZOATE AND POTASSIUM SORBATE AS PRESERVATIVES FOR FRESHNESS." Date available: 07/14/2017 Date last updated by company: 07/14/2017
