Source: USDA Branded Food Products Database Release December 2017 Software v.3.8.6.4 2017-10-02
Report Run at: December 18, 2017 02:00 EST
"Nutrient data for: 45216381, S'MORES PRETZELS, UPC: 032251093104"
Food Group:  Branded Food Products Database
Common Name:

Nutrient,Unit,Data points,Std. Error,"9.0 PRETZELS = 40.0g",1Value per 100 g,
Proximates
"Energy",kcal,--,--,190,475
"Protein",g,--,--,3.00,7.50
"Total lipid (fat)",g,--,--,8.00,20.00
"Carbohydrate, by difference",g,--,--,29.00,72.50
"Fiber, total dietary",g,--,--,1.0,2.5
"Sugars, total",g,--,--,15.00,37.50
Minerals
"Calcium, Ca",mg,--,--,40,100
"Iron, Fe",mg,--,--,0.00,0.00
"Sodium, Na",mg,--,--,140,350
Vitamins
"Vitamin C, total ascorbic acid",mg,--,--,0.0,0.0
"Vitamin A, IU",IU,--,--,0,0
Lipids
"Fatty acids, total saturated",g,--,--,7.000,17.500
"Fatty acids, total trans",g,--,--,0.000,0.000
"Cholesterol",mg,--,--,0,0
Amino Acids
Other
Ingredients
"CONFECTIONARY COATING (SUGAR, PALM KERNEL, AND PALM OILS, COCOA POWDER (PROCESSED WITH ALKALI), NONFAT DRY MILK, DRY WHEY (MILK), SOY LECITHIN (AN EMULSIFIER), VANILLA), PRETZELS (SOFT RED WINTER WHEAT FLOUR, SALT, SUNFLOWER OR CANOLA OR RICE OIL, CORN SYRUP, MALT SYRUP, YEAST), TOASTED MARSHMALLOW DRIZZLE (SUGAR, PALM KERNEL OIL, REDUCED MINERAL WHEY POWDER, NONFAT MILK POWDER, WHOLE MILK POWDER, SOY LECITHIN (AN EMULSIFIER), SALT, VANILLA, NATURAL AND ARTIFICIAL FLAVOR)." Date available: 07/14/2017 Date last updated by company: 07/14/2017
