Source: USDA Branded Food Products Database Release December 2017 Software v.3.8.6.4 2017-10-02
Report Run at: December 18, 2017 02:00 EST
"Nutrient data for: 45231032, S'MORES CRISPY TREAT, UPC: 492860500132"
Food Group:  Branded Food Products Database
Common Name:

Nutrient,Unit,Data points,Std. Error,"1.4 ONZ = 40.0g",1Value per 100 g,
Proximates
"Energy",kcal,--,--,180,450
"Protein",g,--,--,1.00,2.50
"Total lipid (fat)",g,--,--,4.00,10.00
"Carbohydrate, by difference",g,--,--,36.00,90.00
"Fiber, total dietary",g,--,--,0.0,0.0
"Sugars, total",g,--,--,22.00,55.00
Minerals
"Calcium, Ca",mg,--,--,0,0
"Iron, Fe",mg,--,--,2.25,5.62
"Sodium, Na",mg,--,--,115,288
Vitamins
"Vitamin C, total ascorbic acid",mg,--,--,0.0,0.0
"Vitamin A, IU",IU,--,--,500,1250
Lipids
"Fatty acids, total saturated",g,--,--,3.000,7.500
"Fatty acids, total trans",g,--,--,0.000,0.000
"Cholesterol",mg,--,--,5,12
Amino Acids
Other
Ingredients
"MARSHMALLOW (CORN SYRUP, SUGAR, MODIFIED CORNSTARCH, WATER, GELATIN), CEREAL (RICE, SUGAR, COCONUT OIL, COCOA PROCESSED WITH ALKALI, CONTAINS 2% OR LESS OF: CORN SYRUP, SALT, CARAMEL COLOR, NATURAL AND ARTIFICIAL FLAVOR. VITAMINS MINERALS: THIAMIN MONONITRATE, RIBOFLAVIN, NIACINAMIDE, PYRIDOXINE HYDROCHLORIDE, FOLIC ACID, VITAMIN B12, VITAMIN A PALMITATE, VITAMIN D, REDUCED IRON, ZINC OXIDE), FROSTING (SUGAR, HYDROGENATED PALM KERNEL OIL, COCOA POWDER, CHOCOLATE LIQUOR, COCOA POWDER PROCESSED WITH ALKALI, WHEY POWDER, SOY LECITHIN, SALT, ARTIFICIAL FLAVOR), CRISP RICE (RICE, SUGAR, CORN SYRUP, SALT, RIBOFLAVIN, NIACINAMIDE, FERRIC ORTHOPHOSPHATE, ZINC OXIDE), BUTTER (CREAM, SALT), SUGAR, CORN SYRUP, HIGH FRUCTOSE CORN SYRUP." Date available: 07/14/2017 Date last updated by company: 07/14/2017
