Source: USDA Branded Food Products Database Release December 2017 Software v.3.8.6.4 2017-10-02
Report Run at: December 18, 2017 12:12 EST
"Nutrient data for: 45099663, S&W, READY-CUT DICED TOMATOES WITH ROASTED GARLIC, UPC: 011194371210"
Food Group:  Branded Food Products Database
Common Name:

Nutrient,Unit,Data points,Std. Error,"0.5 cup = 118.0g",1Value per 100 g,
Proximates
"Energy",kcal,--,--,30,25
"Protein",g,--,--,1.99,1.69
"Total lipid (fat)",g,--,--,0.50,0.42
"Carbohydrate, by difference",g,--,--,5.00,4.24
"Fiber, total dietary",g,--,--,0.9,0.8
"Sugars, total",g,--,--,3.00,2.54
Minerals
"Calcium, Ca",mg,--,--,40,34
"Iron, Fe",mg,--,--,0.40,0.34
"Sodium, Na",mg,--,--,240,203
Vitamins
"Vitamin C, total ascorbic acid",mg,--,--,16.5,14.0
"Vitamin A, IU",IU,--,--,826,700
Lipids
"Fatty acids, total saturated",g,--,--,0.000,0.000
"Fatty acids, total trans",g,--,--,0.000,0.000
"Cholesterol",mg,--,--,0,0
Amino Acids
Other
Ingredients
"TOMATOES, TOMATO JUICE, TOMATO PUREE, ROASTED GARLIC, SALT, HIGH FRUCTOSE CORN SYRUP, OREGANO, CITRIC ACID, NATURAL FLAVORINGS, CALCIUM CHLORIDE, DEHYDRATED PARSLEY." Date available: 06/25/2017 Date last updated by company: 06/25/2017
