Source: USDA Branded Food Products Database Release December 2017 Software v.3.8.6.4 2017-10-02
Report Run at: December 17, 2017 17:15 EST
"Nutrient data for: 45222468, SAAG PANEER, UPC: 8904063252975"
Food Group:  Branded Food Products Database
Common Name:

Nutrient,Unit,Data points,Std. Error,"0.5 PACK = 142.0g",1Value per 100 g,
Proximates
"Energy",kcal,--,--,300,211
"Protein",g,--,--,9.00,6.34
"Total lipid (fat)",g,--,--,25.01,17.61
"Carbohydrate, by difference",g,--,--,11.01,7.75
"Fiber, total dietary",g,--,--,2.0,1.4
"Sugars, total",g,--,--,0.00,0.00
Minerals
"Calcium, Ca",mg,--,--,200,141
"Iron, Fe",mg,--,--,14.82,10.44
"Sodium, Na",mg,--,--,569,401
Vitamins
"Vitamin C, total ascorbic acid",mg,--,--,24.7,17.4
"Vitamin A, IU",IU,--,--,274,193
Lipids
"Fatty acids, total saturated",g,--,--,9.997,7.040
"Fatty acids, total trans",g,--,--,0.000,0.000
"Cholesterol",mg,--,--,40,28
Amino Acids
Other
Ingredients
"SPINACH (60%), INDIAN COTTAGE CHEESE (25%), ONIONS, REFINED SUNFLOWER OIL, MILK CREAM, BUTTER, FRESH GINGER, FRESH GARLIC, GREEN CHILI, SALT, SPICES (CARDAMOM, CINNAMON, NUTMEG, MACE, CUMIN SEEDS, CORIANDER, CLOVES, CURRY LEAVES), RED CHILI, TURMERIC POWDER." Date available: 10/18/2017 Date last updated by company: 10/18/2017
