Source: USDA Branded Food Products Database Release December 2017 Software v.3.8.6.4 2017-10-02
Report Run at: December 17, 2017 17:16 EST
"Nutrient data for: 45122995, SABLE & ROSENFELD, VERMOUTH TIPSY ONIONS, UPC: 069702900155"
Food Group:  Branded Food Products Database
Common Name:

Nutrient,Unit,Data points,Std. Error,"3.0 -4 ONIONS = 15.0g",1Value per 100 g,
Proximates
"Energy",kcal,--,--,10,67
"Protein",g,--,--,0.00,0.00
"Total lipid (fat)",g,--,--,0.00,0.00
"Carbohydrate, by difference",g,--,--,3.00,20.00
"Sugars, total",g,--,--,2.00,13.33
Minerals
"Sodium, Na",mg,--,--,95,633
Vitamins
Lipids
"Fatty acids, total saturated",g,--,--,0.000,0.000
"Fatty acids, total trans",g,--,--,0.000,0.000
Amino Acids
Other
Ingredients
"ONIONS, SUGAR, WATER, VINEGAR, SALT, SODIUM BENZOATE (AS PRESERVATIVE), CALCIUM CHLORIDE, VERMOUTH, NATURAL FLAVORS, SULPHITES, POTASSIUM SORBATE (AS PRESERVATIVE)." Date available: 09/11/2017 Date last updated by company: 09/11/2017
