Source: USDA Branded Food Products Database Release December 2017 Software v.3.8.6.4 2017-10-02
Report Run at: December 17, 2017 17:17 EST
"Nutrient data for: 45045185, SABRA, GREEK YOGURT DIP, UPC: 040822342407"
Food Group:  Branded Food Products Database
Common Name:

Nutrient,Unit,Data points,Std. Error,"2.0 Tbsp = 30.0g",1Value per 100 g,
Proximates
"Energy",kcal,--,--,35,117
"Protein",g,--,--,2.00,6.67
"Total lipid (fat)",g,--,--,2.50,8.33
"Carbohydrate, by difference",g,--,--,2.00,6.67
"Fiber, total dietary",g,--,--,0.0,0.0
"Sugars, total",g,--,--,1.00,3.33
Minerals
"Calcium, Ca",mg,--,--,40,133
"Iron, Fe",mg,--,--,0.00,0.00
"Sodium, Na",mg,--,--,110,367
Vitamins
"Vitamin C, total ascorbic acid",mg,--,--,13.6,45.3
"Vitamin A, IU",IU,--,--,0,0
Lipids
"Fatty acids, total saturated",g,--,--,1.500,5.000
"Fatty acids, total trans",g,--,--,0.000,0.000
"Cholesterol",mg,--,--,10,33
Amino Acids
Other
Ingredients
"YOGURT (SKIM MILK, CREAM, MILK PROTEIN CONCENTRATE CULTURES), RED & GREEN BELL PEPPERS, ONION, WATER, CANOLA OIL, SALT, GARLIC, SUGAR, PECTIN, CULTURED SKIM MILK, CULTURED DEXTROSE, SPICES, SODIUM CITRATE, NATURAL FLAVORS, CITRIC ACID." Date available: 07/14/2017 Date last updated by company: 07/14/2017
