Source: USDA Branded Food Products Database Release December 2017 Software v.3.8.6.4 2017-10-02
Report Run at: December 17, 2017 17:18 EST
"Nutrient data for: 45114268, SABRA, OLIVE TAPENADE HUMMUS, UPC: 040822011341"
Food Group:  Branded Food Products Database
Common Name:

Nutrient,Unit,Data points,Std. Error,"2.0 Tbsp = 28.0g",1Value per 100 g,
Proximates
"Energy",kcal,--,--,80,286
"Protein",g,--,--,2.00,7.14
"Total lipid (fat)",g,--,--,6.00,21.43
"Carbohydrate, by difference",g,--,--,4.00,14.29
"Fiber, total dietary",g,--,--,1.0,3.6
"Sugars, total",g,--,--,0.00,0.00
Minerals
"Calcium, Ca",mg,--,--,20,71
"Iron, Fe",mg,--,--,1.29,4.59
"Sodium, Na",mg,--,--,160,571
Vitamins
"Vitamin C, total ascorbic acid",mg,--,--,0.0,0.0
"Vitamin A, IU",IU,--,--,0,0
Lipids
"Fatty acids, total saturated",g,--,--,1.000,3.570
"Fatty acids, total trans",g,--,--,0.000,0.000
"Cholesterol",mg,--,--,0,0
Amino Acids
Other
Ingredients
"COOKED CHICKPEAS, TAHINI (GROUND SESAME), SOYBEAN OIL, GREEN OLIVES, KALAMATA OLIVES, WATER, GARLIC, SALT, CITRIC ACID, POTASSIUM SORBATE ADDED TO MAINTAIN FRESHNESS, SPICES." Date available: 06/25/2017 Date last updated by company: 06/25/2017
