Source: USDA Branded Food Products Database Release December 2017 Software v.3.8.6.4 2017-10-02
Report Run at: December 17, 2017 17:18 EST
"Nutrient data for: 45173614, SABRA, HUMMUS, CARAMELIZED ONION, SMOKED PAPRIKA, UPC: 040822012577"
Food Group:  Branded Food Products Database
Common Name:

Nutrient,Unit,Data points,Std. Error,"2.0 Tbsp = 28.0g",1Value per 100 g,
Proximates
"Energy",kcal,--,--,70,250
"Protein",g,--,--,2.00,7.14
"Total lipid (fat)",g,--,--,5.00,17.86
"Carbohydrate, by difference",g,--,--,4.00,14.29
"Fiber, total dietary",g,--,--,1.0,3.6
"Sugars, total",g,--,--,0.50,1.79
Minerals
"Calcium, Ca",mg,--,--,20,71
"Iron, Fe",mg,--,--,0.64,2.29
"Sodium, Na",mg,--,--,125,446
Vitamins
"Vitamin C, total ascorbic acid",mg,--,--,0.0,0.0
"Vitamin A, IU",IU,--,--,0,0
Lipids
"Fatty acids, total saturated",g,--,--,0.501,1.790
"Fatty acids, total trans",g,--,--,0.000,0.000
"Cholesterol",mg,--,--,0,0
Amino Acids
Other
Ingredients
"COOKED CHICKPEAS, TAHINI (GROUND SESAME), ONION, SOYBEAN OIL, WATER, GARLIC, SALT, CITRIC ACID, SUGAR, BALSAMIC VINEGAR, SMOKED PAPRIKA, POTASSIUM SORBATE ADDED TO MAINTAIN FRESHNESS, NATURAL FLAVORS, DEHYDRATED GREEN ONION, SPICES." Date available: 07/14/2017 Date last updated by company: 07/14/2017
