Source: USDA Branded Food Products Database Release December 2017 Software v.3.8.6.4 2017-10-02
Report Run at: December 17, 2017 17:19 EST
"Nutrient data for: 45045196, SABRETT, SKINLESS BEEF FRANKFURTERS, HICKORY SMOKE, UPC: 074338007321"
Food Group:  Branded Food Products Database
Common Name:

Nutrient,Unit,Data points,Std. Error,"1 FRANK = 46.0g",1Value per 100 g,
Proximates
"Energy",kcal,--,--,140,304
"Protein",g,--,--,6.00,13.04
"Total lipid (fat)",g,--,--,12.00,26.09
"Carbohydrate, by difference",g,--,--,2.00,4.35
"Fiber, total dietary",g,--,--,0.0,0.0
"Sugars, total",g,--,--,0.00,0.00
Minerals
"Calcium, Ca",mg,--,--,0,0
"Iron, Fe",mg,--,--,0.86,1.87
"Sodium, Na",mg,--,--,380,826
Vitamins
"Vitamin C, total ascorbic acid",mg,--,--,0.0,0.0
"Vitamin A, IU",IU,--,--,120,260
Lipids
"Fatty acids, total saturated",g,--,--,5.000,10.870
"Cholesterol",mg,--,--,30,65
Amino Acids
Other
Ingredients
"BEEF, WATER, SALT, CONTAINS LESS THAN 2%: SORBITOL, FLAVORING, POTASSIUM LACTATE, PAPRIKA, GARLIC POWDER, HICKORY SMOKE FLAVOR, SODIUM DIACETATE, SODIUM ERYTHORBATE, SODIUM NITRITE." Date available: 07/14/2017 Date last updated by company: 07/14/2017
