Source: USDA Branded Food Products Database Release December 2017 Software v.3.8.6.4 2017-10-02
Report Run at: December 17, 2017 17:21 EST
"Nutrient data for: 45281426, SACCHETTI, UPC: 008009935316"
Food Group:  Branded Food Products Database
Common Name:

Nutrient,Unit,Data points,Std. Error,"1 cup = 100.0g",1Value per 100 g,
Proximates
"Energy",kcal,--,--,240,240
"Protein",g,--,--,12.00,12.00
"Total lipid (fat)",g,--,--,8.00,8.00
"Carbohydrate, by difference",g,--,--,32.00,32.00
"Fiber, total dietary",g,--,--,2.0,2.0
"Sugars, total",g,--,--,1.00,1.00
Minerals
"Calcium, Ca",mg,--,--,250,250
"Iron, Fe",mg,--,--,2.02,2.02
"Sodium, Na",mg,--,--,610,610
Vitamins
"Vitamin C, total ascorbic acid",mg,--,--,0.0,0.0
"Vitamin A, IU",IU,--,--,1050,1050
Lipids
"Fatty acids, total saturated",g,--,--,4.500,4.500
"Fatty acids, total trans",g,--,--,0.000,0.000
"Cholesterol",mg,--,--,25,25
Amino Acids
Other
Ingredients
"FILLING: RICOTTA CHEESE (PASTEURIZED WHOLE MILK, VINEGAR, SALT), ASIAGO CHEESE (MILK, ENZYMES, SALT), PARMESAN CHEESE (PASTEURIZED MILK, CHEESE CULTURES, SALT, ENZYMES), PIQUILLO PEPPERS, MOZZARELLA CHEESE (PASTEURIZED WHOLE MILK, CULTURE, SALT, ENZYMES), BREADCRUMBS (WHEAT FLOUR, SUGAR, YEAST, SALT), ROMANO FLAVOR (ROMANO CHEESE {MILK, CULTURE, SALT, ENZYMES}, SALT, YEAST EXTRACT, BUTTER, CORN OIL, CREME POWDER, NON-FAT DRY MILK, OLIVE OIL AND NATURAL FLAVORING), PARSLEY, BLENDED OIL (OLIVE/CANOLA OIL), GARLIC, SALT. PASTA: DURUM FLOUR, WATER, EGGS, BETA-CAROTENE." Date available: 09/28/2017 Date last updated by company: 09/28/2017
