Source: USDA Branded Food Products Database Release December 2017 Software v.3.8.6.4 2017-10-02
Report Run at: December 17, 2017 17:22 EST
"Nutrient data for: 45162874, SAFEWAY, CHEESE PUFFS, UPC: 021130291175"
Food Group:  Branded Food Products Database
Common Name:

Nutrient,Unit,Data points,Std. Error,"1.5 cup = 28.0g",1Value per 100 g,
Proximates
"Energy",kcal,--,--,160,571
"Protein",g,--,--,1.00,3.57
"Total lipid (fat)",g,--,--,11.00,39.29
"Carbohydrate, by difference",g,--,--,15.00,53.57
"Fiber, total dietary",g,--,--,0.0,0.0
"Sugars, total",g,--,--,1.00,3.57
Minerals
"Calcium, Ca",mg,--,--,20,71
"Iron, Fe",mg,--,--,0.00,0.00
"Sodium, Na",mg,--,--,220,786
Vitamins
"Vitamin C, total ascorbic acid",mg,--,--,0.0,0.0
"Vitamin A, IU",IU,--,--,0,0
Lipids
"Fatty acids, total saturated",g,--,--,1.000,3.570
"Fatty acids, total trans",g,--,--,0.000,0.000
"Cholesterol",mg,--,--,0,0
Amino Acids
Other
Ingredients
"CORNMEAL, SUNFLOWER OIL AND/OR CORN OIL (CONTAINS CITRIC ACID), WHEY, SALT, CANOLA OIL, CHEDDAR CHEESE (CULTURED MILK, SALT, ENZYMES), MALTODEXTRIN, BUTTER (CREAM, SALT), NONFAT DRY MILK, WHEY PROTEIN CONCENTRATE, DISODIUM PHOSPHATE, MONOSODIUM GLUTAMATE, CITRIC ACID, ARTIFICIAL COLORS (INCLUDING YELLOW 5, YELLOW 6, RED 40, AND ANNATTO), NATURAL FLAVORS, LACTIC ACID." Date available: 07/14/2017 Date last updated by company: 07/14/2017
