Source: USDA Branded Food Products Database Release December 2017 Software v.3.8.6.4 2017-10-02
Report Run at: December 17, 2017 17:27 EST
"Nutrient data for: 45025741, SAFFRON ROAD, GOCHUJANG CHICKEN WITH BROWN RICE, UPC: 857063002195"
Food Group:  Branded Food Products Database
Common Name:

Nutrient,Unit,Data points,Std. Error,"10.0 ONZ = 283.0g",1Value per 100 g,
Proximates
"Energy",kcal,--,--,320,113
"Protein",g,--,--,18.00,6.36
"Total lipid (fat)",g,--,--,9.00,3.18
"Carbohydrate, by difference",g,--,--,42.00,14.84
"Fiber, total dietary",g,--,--,4.0,1.4
"Sugars, total",g,--,--,14.01,4.95
Minerals
"Calcium, Ca",mg,--,--,40,14
"Iron, Fe",mg,--,--,1.25,0.44
"Sodium, Na",mg,--,--,699,247
Vitamins
"Vitamin C, total ascorbic acid",mg,--,--,16.4,5.8
"Vitamin A, IU",IU,--,--,518,183
Lipids
"Fatty acids, total saturated",g,--,--,1.500,0.530
"Fatty acids, total trans",g,--,--,0.000,0.000
"Cholesterol",mg,--,--,59,21
Amino Acids
Other
Ingredients
"VEGETABLE SAUTE: BROCCOLI, MUSHROOMS, ONIONS, YELLOW SOYBEAN SPROUTS, BABY BOK CHOY, RED BELL PEPPERS, GREEN ONIONS, EXPELLER PRESSED CANOLA OIL, GARLIC PUREE (GARLIC, WATER), KOREAN RED PEPPER. SHORT GRAIN BROWN RICE: RICE, WATER. GOCHUJANG SAUCE: WATER, ORGANIC TAMARI (WATER, ORGANIC SOYBEANS, SALT, ORGANIC VINEGAR), DEHYDRATED CANE SYRUP, BROWN RICE SYRUP, RICE FLOUR, PEAR PUREE WITH ASCORBIC AICD, GARLIC PUREE WITH CITRIC ACID, RED PEPPER, ORGANIC RED MISO (WATER, ORGANIC SOYBEANS, ORGANIC RICE, SEA SALT, KOJI), APPLE JUICE CONCENTRATE, ORGANIC GINGER, ORGANIC PAPRIKA, ORGANIC ONION, LACTIC ACID. CHICKEN: BONELESS CHICKEN, WATER, RICE STARCH, EXPELLER PRESSED CANOLA OIL, LEMON JUICE CONCENTRATE, VINEGAR, GARLIC PUREE (GARLIC, WATER), GINGER." Date available: 07/14/2017 Date last updated by company: 07/14/2017
