Source: USDA Branded Food Products Database Release December 2017 Software v.3.8.6.4 2017-10-02
Report Run at: December 17, 2017 17:26 EST
"Nutrient data for: 45170460, SAFFRON ROAD, ACHIOTE ROASTED CHICKEN MEXICAN CUISINE WITH MESQUITE BLACK BEANS & GARLIC RICE, UPC: 857063002331"
Food Group:  Branded Food Products Database
Common Name:

Nutrient,Unit,Data points,Std. Error,"10.0 ONZ = 283.0g",1Value per 100 g,
Proximates
"Energy",kcal,--,--,269,95
"Protein",g,--,--,17.01,6.01
"Total lipid (fat)",g,--,--,6.00,2.12
"Carbohydrate, by difference",g,--,--,39.99,14.13
"Fiber, total dietary",g,--,--,4.0,1.4
"Sugars, total",g,--,--,0.99,0.35
Minerals
"Calcium, Ca",mg,--,--,40,14
"Iron, Fe",mg,--,--,1.25,0.44
"Sodium, Na",mg,--,--,481,170
Vitamins
"Vitamin C, total ascorbic acid",mg,--,--,1.7,0.6
"Vitamin A, IU",IU,--,--,139,49
Lipids
"Fatty acids, total saturated",g,--,--,2.009,0.710
"Fatty acids, total trans",g,--,--,0.000,0.000
"Cholesterol",mg,--,--,34,12
Amino Acids
Other
Ingredients
"GARLIC RICE: WATER, RICE EXPELLER PRESSED CANOLA OIL, GARLIC PUREE (GARLIC, WATER, SEA SALT). ACHIOTE SAUCE: WATER, CREAM, ONIONS, NATIVE CORN STARCH, GARLIC, AND 2% OR LESS OF: EXPELLER PRESSED CANOLA OIL, SEA SALT, TOMATO PASTE, CANE SUGAR, ANNATO POWDER, SPICES, GARLIC POWDER, CHILI POWDER (CHILI PEPPER, CUMIN, SALT, GARLIC, OREGANO), XANTHAN GUM, DEHYDRATED GARLIC, LACTIC ACID, ONION POWDER. CHICKEN: BONELESS WHITE MEAT CHICKEN,WATER, NATIVE RICE STARCH, LEMON JUICE CONCENTRATE, VINEGAR, GARLIC PUREE (GARLIC, WATER), CHILI POWDER (CHILI PEPPER, CUMIN, SALT, GARLIC, OREGANO). VEGETABLES: GRILLED ZUCCHINI, FIRE-ROASTED CORN. BLACK BEANS: WATER, BLACK BEANS, DEHYDRATED ONIONS, SEA SALT, CUMIN, BLACK PEPPER, NATURAL MESQUITE SMOKE FLAVOR (POTATO MALTODEXTRIN, MESQUITE SMOKE FLAVOR)." Date available: 07/14/2017 Date last updated by company: 07/14/2017
