Source: USDA Branded Food Products Database Release December 2017 Software v.3.8.6.4 2017-10-02
Report Run at: December 17, 2017 17:26 EST
"Nutrient data for: 45274434, SAFFRON RICE, UPC: 085239304129"
Food Group:  Branded Food Products Database
Common Name:

Nutrient,Unit,Data points,Std. Error,"1 cup = 125.0g",1Value per 100 g,
Proximates
"Energy",kcal,--,--,170,136
"Protein",g,--,--,4.00,3.20
"Total lipid (fat)",g,--,--,3.00,2.40
"Carbohydrate, by difference",g,--,--,32.00,25.60
"Fiber, total dietary",g,--,--,1.0,0.8
"Sugars, total",g,--,--,0.00,0.00
Minerals
"Calcium, Ca",mg,--,--,20,16
"Iron, Fe",mg,--,--,0.97,0.78
"Sodium, Na",mg,--,--,440,352
Vitamins
"Vitamin C, total ascorbic acid",mg,--,--,0.4,0.3
"Vitamin A, IU",IU,--,--,0,0
Lipids
"Fatty acids, total saturated",g,--,--,0.400,0.320
"Fatty acids, total trans",g,--,--,0.000,0.000
"Cholesterol",mg,--,--,0,0
Amino Acids
Other
Ingredients
"WATER, PARBOILED LONG GRAIN RICE, CANOLA OIL, SALT, SPICES, TOMATO POWDER, TURMERIC, SAFFRON, SAFFLOWER POWDER." Date available: 07/14/2017 Date last updated by company: 07/14/2017
