Source: USDA Branded Food Products Database Release December 2017 Software v.3.8.6.4 2017-10-02
Report Run at: December 17, 2017 17:28 EST
"Nutrient data for: 45008825, SAFFRON ROAD, VEGETABLE BIBIMBOP & BROWN RICE, UPC: 857063002188"
Food Group:  Branded Food Products Database
Common Name:

Nutrient,Unit,Data points,Std. Error,"10.0 ONZ = 283.0g",1Value per 100 g,
Proximates
"Energy",kcal,--,--,300,106
"Protein",g,--,--,12.00,4.24
"Total lipid (fat)",g,--,--,9.00,3.18
"Carbohydrate, by difference",g,--,--,44.01,15.55
"Fiber, total dietary",g,--,--,4.0,1.4
"Sugars, total",g,--,--,15.99,5.65
Minerals
"Calcium, Ca",mg,--,--,99,35
"Iron, Fe",mg,--,--,1.25,0.44
"Sodium, Na",mg,--,--,699,247
Vitamins
"Vitamin C, total ascorbic acid",mg,--,--,20.7,7.3
"Vitamin A, IU",IU,--,--,860,304
Lipids
"Fatty acids, total saturated",g,--,--,0.990,0.350
"Fatty acids, total trans",g,--,--,0.000,0.000
"Cholesterol",mg,--,--,0,0
Amino Acids
Other
Ingredients
"VEGETABLE SAUTE: BROCCOLI ONIONS, YELLOW SOYBEAN SPROUTS, MUSHROOMS, CARROTS, BABY BOKCHOY, RED BELL PEPPERS, YELLOW BELL PEPPER, EXPELLER PRESSED CANOLA OIL, GARLIC, TOASTED SESAME OIL, KOREANRED PEPPER. SHORT GRAIN BROWN RICE: RICE, WATER. GOCHUHANG SAUCE: WATER, ORGANIC TAMARI (WATER, ORGANIC SOYBEANS, SALT, ORGANIC VINEGAR), DEHYDRATED CANE SYRUP, BROWN RICE SYRUP, RICEFLOUR, PEAR PUREE WITH ASCORBIC ACID, GARLIC PUREE WITH CITRIC ACID, RED PEPPER ORGANIC RED MISO (WATER, ORGANIC SOYBEANS, ORGANIC RICE, SEA SALT, KOJI), APPLE JUICE CONCENTRATE, ORGANIC GINGER, ORGANIC PAPRIKA, ORGANIC ONION, LACTIC ACID. TOFU: ORGANIC FIRM TOFU (WATER, ORGANIC SOYBEANS, CALCIUM SULFATE, CALCIUM CHLORIDE)." Date available: 07/14/2017 Date last updated by company: 07/14/2017
