Source: USDA Branded Food Products Database Release December 2017 Software v.3.8.6.4 2017-10-02
Report Run at: December 17, 2017 17:32 EST
"Nutrient data for: 45196891, SALAD KICKERS, UPC: 070200011601"
Food Group:  Branded Food Products Database
Common Name:

Nutrient,Unit,Data points,Std. Error,"1 Tbsp = 8.0g",1Value per 100 g,
Proximates
"Energy",kcal,--,--,35,438
"Protein",g,--,--,1.00,12.50
"Total lipid (fat)",g,--,--,2.00,25.00
"Carbohydrate, by difference",g,--,--,3.00,37.50
"Fiber, total dietary",g,--,--,0.0,0.0
"Sugars, total",g,--,--,0.00,0.00
Minerals
"Calcium, Ca",mg,--,--,0,0
"Iron, Fe",mg,--,--,6.75,84.38
"Sodium, Na",mg,--,--,45,562
Vitamins
"Vitamin C, total ascorbic acid",mg,--,--,0.0,0.0
"Vitamin A, IU",IU,--,--,0,0
Lipids
"Fatty acids, total saturated",g,--,--,0.000,0.000
"Fatty acids, total trans",g,--,--,0.000,0.000
"Cholesterol",mg,--,--,0,0
Amino Acids
Other
Ingredients
"ROASTED PEPITAS (PEPITAS, CANOLA AND/OR PEANUT OIL), TRIANGLE CRACKERS (RICE, CORN), ROASTED ALMONDS (ALMONDS, CANOLA AND/OR PEANUT OIL), ROASTED CASHEWS (CASHEWS, CANOLA AND/OR PEANUT OIL), SEASONING BLEND {SALT, MALTODEXTRIN, CHEDDAR CHEESE* [CHEDDAR CHEESE (MILK, SALT, CULTURES, ENZYMES), DISODIUM PHOSPHATE], GARLIC*, ONION*, SUGAR, SPICES, WHEY, PARSLEY, YEAST EXTRACT, NATURAL FLAVORS, DISODIUM INOSINATE AND DISODIUM GUANYLATE}, SOY LECITHIN, CANOLA OIL." Date available: 07/14/2017 Date last updated by company: 07/14/2017
