Source: USDA Branded Food Products Database Release December 2017 Software v.3.8.6.4 2017-10-02
Report Run at: December 17, 2017 17:33 EST
"Nutrient data for: 45196011, SALAD ON GRAIN, UPC: 043701015096"
Food Group:  Branded Food Products Database
Common Name:

Nutrient,Unit,Data points,Std. Error,"263.0 GRM = 263.0g",1Value per 100 g,
Proximates
"Energy",kcal,--,--,671,255
"Protein",g,--,--,28.01,10.65
"Total lipid (fat)",g,--,--,25.01,9.51
"Carbohydrate, by difference",g,--,--,87.00,33.08
"Fiber, total dietary",g,--,--,6.0,2.3
"Sugars, total",g,--,--,20.99,7.98
Minerals
"Calcium, Ca",mg,--,--,0,0
"Iron, Fe",mg,--,--,0.00,0.00
"Sodium, Na",mg,--,--,1139,433
Vitamins
"Vitamin C, total ascorbic acid",mg,--,--,0.0,0.0
"Vitamin A, IU",IU,--,--,0,0
Lipids
"Fatty acids, total saturated",g,--,--,3.498,1.330
"Fatty acids, total trans",g,--,--,0.000,0.000
"Cholesterol",mg,--,--,50,19
Amino Acids
Other
Ingredients
"ENRICHED BREAD (ENRICHED UNBLEACHED WHEAT FLOUR [WHEAT FLOUR, MALTED BARLEY FLOUR, NIACIN, REDUCED IRON, THIAMIN MONONITRATE, RIBOFLAVIN AND FOLIC ACID], WATER, BREAD MIX [STEEL CUT WHEAT, STEEL CUT OATS, OAT FLAKES, BARLEY FLAKES, TRITCALE FLAKES, SOFT WHITE WHEAT FLAKES, RYE FLAKES, AMARANTH, FLAXSEED, TOASTED WHEAT GERM, CORN MEAL], WHOLE WHEAT FLOUR, YEAST, HIGH FRUCTOSE CORN SYRUP, VITAL WHEAT GLUTEN, VEGETABLE OIL [CANOLA AND/OR SOY], CONTAINS 2% OR LESS OF EACH OF THE FOLLOWING: SALT, HONEY, RAISIN JUICE CONCENTRATE, MOLASSES, SUNFLOWER SEEDS, YEAST NUTRIENT [AMMONIUM SULPHATE], DOUGH CONDITIONERS [MONO-DIGLYCERIDES, SODIUM STEAROYL LACTYLATE, ASCORBIC ACID, AZODICARBONAMIDE], CALCIUM SULFATE, ENZYMES, NONFAT DRY MILK, SOY FLOUR). CRANBERRY CHICKEN SALAD (COOKED WHITE CHICKEN, DRESSING [SOYBEAN OIL, WATER, VINEGAR, SUGAR, EGG YOLKS, MODIFIED FOOD STARCH, SALT, MUSTARD FLOUR, SPICE, PAPRIKA, NATURAL FLAVOR, DRIED GARLIC], CELERY, SWEETENED DRIED CRANBERRIES [CRANBERRIES, SUGAR, CITRIC ACID, SUNFLOWER OIL, ELDERBERRY JUICE CONCENTRATE {COLOR}], WATER CHESTNUTS, SUGAR, BREAD CRUMBS [BLEACHED WHEAT FLOUR, SUGAR, YEAST, SALT], VINEGAR, ONION, GLUCONO DELTA LACTONE, SALT, BLACK PEPPER, GUM ARABIC)" Date available: 07/14/2017 Date last updated by company: 07/14/2017
