Source: USDA Branded Food Products Database Release December 2017 Software v.3.8.6.4 2017-10-02
Report Run at: December 17, 2017 17:34 EST
"Nutrient data for: 45195150, SALAD TOPPINGS, UPC: 041143185308"
Food Group:  Branded Food Products Database
Common Name:

Nutrient,Unit,Data points,Std. Error,"0.25 cup = 28.0g",1Value per 100 g,
Proximates
"Energy",kcal,--,--,130,464
"Protein",g,--,--,3.00,10.71
"Total lipid (fat)",g,--,--,7.00,25.00
"Carbohydrate, by difference",g,--,--,14.00,50.00
"Fiber, total dietary",g,--,--,2.0,7.1
"Sugars, total",g,--,--,11.00,39.29
Minerals
"Calcium, Ca",mg,--,--,40,143
"Iron, Fe",mg,--,--,1.93,6.88
"Sodium, Na",mg,--,--,115,411
Vitamins
"Vitamin C, total ascorbic acid",mg,--,--,8.6,30.6
"Vitamin A, IU",IU,--,--,179,638
Lipids
"Fatty acids, total saturated",g,--,--,0.501,1.790
"Fatty acids, total trans",g,--,--,0.000,0.000
"Cholesterol",mg,--,--,0,0
Amino Acids
Other
Ingredients
"ALMONDS, DRIED CRANBERRIES (CRANBERRIES, SUGAR], RAISINS (NATURAL ANS GOLDEN (SULFUR DIOXIDE (SULFITES) TO PRESERVE COLOR), PUMPKIN SEEDS. CONTAINS 2% OR LESS OF SUGAR, SALT, TOMATO POWDER, CHILI POWDER, DRIED ONION AND GARLIC, CITRIC ACID, NATURAL VEGETABLE FLAVOR. CULTURED WHEY NATURAL FLAVOR, TAPIOCA SYRUP." Date available: 07/14/2017 Date last updated by company: 07/14/2017
