Source: USDA Branded Food Products Database Release December 2017 Software v.3.8.6.4 2017-10-02
Report Run at: December 17, 2017 17:29 EST
"Nutrient data for: 45031062, SALADA, DECAFFEINATED GREEN TEA, CITRUS MEDLEY, UPC: 020700402171"
Food Group:  Branded Food Products Database
Common Name:

Nutrient,Unit,Data points,Std. Error,"1 TEA BAG, MAKES 8 FL. OZ. = 1.75g",1Value per 100 g,
Proximates
"Energy",kcal,--,--,0,0
"Protein",g,--,--,0.00,0.00
"Total lipid (fat)",g,--,--,0.00,0.00
"Carbohydrate, by difference",g,--,--,0.00,0.00
Minerals
"Sodium, Na",mg,--,--,0,0
Vitamins
"Vitamin C, total ascorbic acid",mg,--,--,1714.3,97959.1
"Vitamin A, IU",IU,--,--,42857,2448971
Lipids
Amino Acids
Other
Ingredients
"DECAFFEINATED GREEN TEA, BETA CAROTENE, ELEUTHERO ROOT, VITAMIN C (ASCORBIC ACID), VITAMIN E (DIALPHA TOCOPHERYL ACETATE), NATURAL ORANGE/LEMON/LIME FLAVOR." Date available: 10/13/2017 Date last updated by company: 10/13/2017
