Source: USDA Branded Food Products Database Release December 2017 Software v.3.8.6.4 2017-10-02
Report Run at: December 17, 2017 17:31 EST
"Nutrient data for: 45332021, SALAD DRESSING & RECIPE MIX, UPC: 043000978689"
Food Group:  Branded Food Products Database
Common Name:

Nutrient,Unit,Data points,Std. Error,"0.125 ENVELOPE, PER CONTAINER = 2.5g",1Value per 100 g,
Proximates
"Energy",kcal,--,--,5,200
"Protein",g,--,--,0.00,0.00
"Total lipid (fat)",g,--,--,0.00,0.00
"Carbohydrate, by difference",g,--,--,1.00,40.00
"Sugars, total",g,--,--,1.00,40.00
Minerals
"Sodium, Na",mg,--,--,320,12800
Vitamins
Lipids
"Fatty acids, total saturated",g,--,--,0.000,0.000
"Fatty acids, total trans",g,--,--,0.000,0.000
Amino Acids
Other
Ingredients
"SUGAR, SALT, SODIUM CITRATE, GARLIC*, ONIONS*, SPICE, RED BELL, PEPPERS*, ONIONS*, XANTHAN GUM, MALTODEXTRIN, PARSLEY*, GUAR GUM, NATURAL FLAVOR, SOY SAUCE* (WHEAT, SOYBEANS, SALT), CITRIC ACID" Date available: 10/04/2017 Date last updated by company: 10/04/2017
