Source: USDA Branded Food Products Database Release December 2017 Software v.3.8.6.4 2017-10-02
Report Run at: December 17, 2017 17:30 EST
"Nutrient data for: 45226680, SALAD, CHEF WITH RANCH, ROMAINE, RANCH DRESSING, TOMATOES, TURKEY, CHEESE & TURKEY HAM, UPC: 898425001036"
Food Group:  Branded Food Products Database
Common Name:

Nutrient,Unit,Data points,Std. Error,"1 PACKAGE = 184.0g",1Value per 100 g,
Proximates
"Energy",kcal,--,--,180,98
"Protein",g,--,--,6.99,3.80
"Total lipid (fat)",g,--,--,13.01,7.07
"Carbohydrate, by difference",g,--,--,6.99,3.80
"Fiber, total dietary",g,--,--,2.0,1.1
"Sugars, total",g,--,--,3.00,1.63
Minerals
"Calcium, Ca",mg,--,--,99,54
"Iron, Fe",mg,--,--,0.83,0.45
"Sodium, Na",mg,--,--,710,386
Vitamins
"Vitamin C, total ascorbic acid",mg,--,--,18.2,9.9
"Vitamin A, IU",IU,--,--,4184,2274
Lipids
"Fatty acids, total saturated",g,--,--,3.496,1.900
"Cholesterol",mg,--,--,29,16
Amino Acids
Other
Ingredients
"ROMAINE LETTUCE, LITE RANCH DRESSING (WATER, SOYBEAN OIL, MALTODEXTRIN, BUTTERMILK, DISTILLED VINEGAR, SALT, SKIM MILK, MODIFIED FOOD STARCH, PHOSPHORIC ACID, EGG YOLK, *GARLIC, *ONION, LACTIC ACID, XANTHAN GUM, PROPYLENE GLYCOL ALGINATE, SPICES, PARSLEY, NATURAL FLAVOR, *DEHYDRATED.), TOMATOES, WHITE TURKEY (WHITE TURKEY, WATER, SKIN, MODIFIED FOOD STARCH, CORN SYRUP SOLIDS, SALT, SODIUM PHOSPHATE), CHEDDAR CHEESE (PASTEURIZED MILK, CHEESE CULTURES, SALT, ENZYMES), TURKEY HAM (TURKEY THIGH MEAT, WATER, SALT, CORN SYRUP SOLIDS, BROWN SUGAR, SODIUM PHOSPHATE, SODIUM ERYTHORBATE, SODIUM NITRITE)." Date available: 07/14/2017 Date last updated by company: 07/14/2017
