Source: USDA Branded Food Products Database Release December 2017 Software v.3.8.6.4 2017-10-02
Report Run at: December 17, 2017 17:38 EST
"Nutrient data for: 45324107, SALISBURY STEAK AND POTATOES, UPC: 078742141008"
Food Group:  Branded Food Products Database
Common Name:

Nutrient,Unit,Data points,Std. Error,"1 TRAY = 283.0g",1Value per 100 g,
Proximates
"Energy",kcal,--,--,340,120
"Protein",g,--,--,17.01,6.01
"Total lipid (fat)",g,--,--,18.99,6.71
"Carbohydrate, by difference",g,--,--,26.01,9.19
"Fiber, total dietary",g,--,--,3.1,1.1
"Sugars, total",g,--,--,3.99,1.41
Minerals
"Calcium, Ca",mg,--,--,99,35
"Iron, Fe",mg,--,--,1.87,0.66
"Potassium, K",mg,--,--,761,269
"Sodium, Na",mg,--,--,971,343
Vitamins
"Vitamin C, total ascorbic acid",mg,--,--,24.9,8.8
"Vitamin A, IU",IU,--,--,68,24
Lipids
"Fatty acids, total saturated",g,--,--,8.009,2.830
"Fatty acids, total monounsaturated",g,--,--,6.000,2.120
"Fatty acids, total polyunsaturated",g,--,--,0.509,0.180
"Fatty acids, total trans",g,--,--,0.990,0.350
"Cholesterol",mg,--,--,54,19
Amino Acids
Other
Ingredients
"COOKED BEEF, WATER, ROASTED POTATOES, CAULIFLOWER, BROCCOLI, BREAD CRUMBS (WHEAT FLOUR, LESS THAN 2% OF THE FOLLOWING: SUGAR, YEAST, SOYBEAN OIL, SALT), CHEDDAR CHEESE (PASTEURIZED MILK, CHEESE CULTURES, SALT, ENZYMES, ANNATTO [VEGETABLE COLOR]), ONION, CORNSTARCH, GREEN BELL PEPPER, BEEF FLAVOR BASE (BEEF FLAVORINGS [BEEF, FLAVORS], SALT), SALT, TOMATO PASTE, SUGAR, WHEAT FLOUR, WORCESTERSHIRE SAUCE (DISTILLED WHITE VINEGAR, MOLASSES, WATER, SUGAR, ONIONS, ANCHOVIES, SALT, GARLIC, CLOVES, TAMARIND EXTRACT, NATURAL FLAVORINGS, CHILI PEPPER EXTRACT), BEEF FLAVOR (BEEF STOCK, YEAST EXTRACT, FLAVORING, SALT, BEEF EXTRACT, ONION EXTRACT), SOY SAUCE (WATER, WHEAT, SOYBEANS, SALT), DRIED BEEF STOCK, MILK (VITAMIN D3 ADDED), CREAM, NONFAT DRY MILK, ONION POWDER, GARLIC POWDER, SPICE." Date available: 08/10/2017 Date last updated by company: 08/10/2017
