Source: USDA Branded Food Products Database Release December 2017 Software v.3.8.6.4 2017-10-02
Report Run at: December 17, 2017 17:38 EST
"Nutrient data for: 45205614, SALLIE'S GREATEST, JAM, PEACH + MINT, UPC: 728028065930"
Food Group:  Branded Food Products Database
Common Name:

Nutrient,Unit,Data points,Std. Error,"1 Tbsp = 15.0g",1Value per 100 g,
Proximates
"Energy",kcal,--,--,40,267
"Protein",g,--,--,0.00,0.00
"Total lipid (fat)",g,--,--,0.00,0.00
"Carbohydrate, by difference",g,--,--,11.00,73.33
"Sugars, total",g,--,--,10.00,66.67
Minerals
"Sodium, Na",mg,--,--,0,0
Vitamins
"Vitamin C, total ascorbic acid",mg,--,--,2.0,13.5
"Vitamin A, IU",IU,--,--,338,2253
Lipids
Amino Acids
Other
Ingredients
"ALL NATURAL CANE SUGAR, PEACHES, PECTIN (DEXTROSE, PECTIN AND FUMARIC ACID), PEPPERMINT LEAF, LEMON JUICE (WATER, LEMON JUICE CONCENTRATE)." Date available: 07/14/2017 Date last updated by company: 07/14/2017
