Source: USDA Branded Food Products Database Release December 2017 Software v.3.8.6.4 2017-10-02
Report Run at: December 17, 2017 17:40 EST
"Nutrient data for: 45261891, SALMON STIX, UPC: 626425100912"
Food Group:  Branded Food Products Database
Common Name:

Nutrient,Unit,Data points,Std. Error,"2.0 ONZ = 55.0g",1Value per 100 g,
Proximates
"Energy",kcal,--,--,220,400
"Protein",g,--,--,10.00,18.18
"Total lipid (fat)",g,--,--,18.00,32.73
"Carbohydrate, by difference",g,--,--,6.00,10.91
"Sugars, total",g,--,--,5.00,9.09
Minerals
"Calcium, Ca",mg,--,--,20,36
"Iron, Fe",mg,--,--,0.00,0.00
"Potassium, K",mg,--,--,190,345
"Sodium, Na",mg,--,--,280,509
Vitamins
"Vitamin C, total ascorbic acid",mg,--,--,0.0,0.0
"Vitamin A, IU",IU,--,--,0,0
Lipids
"Fatty acids, total saturated",g,--,--,3.498,6.360
"Fatty acids, total trans",g,--,--,0.000,0.000
"Cholesterol",mg,--,--,45,82
Amino Acids
Other
Ingredients
"FARM RAISED ATLANTIC SALMON WITH COLOR ADDED (THROUGH FEED), SUGAR, SALT, DEHYDRATED VEGETABLES (TOMATO, ONION) DEXTROSE, SPICES, FLAVOR, OAK SMOKE." Date available: 10/19/2017 Date last updated by company: 10/19/2017
