Source: USDA Branded Food Products Database Release December 2017 Software v.3.8.6.4 2017-10-02
Report Run at: December 17, 2017 17:41 EST
"Nutrient data for: 45063843, SALSA CON QUESO WITH SMOKED JALAPENO, UPC: 604183320308"
Food Group:  Branded Food Products Database
Common Name:

Nutrient,Unit,Data points,Std. Error,"2.0 Tbsp = 30.0g",1Value per 100 g,
Proximates
"Energy",kcal,--,--,30,100
"Protein",g,--,--,0.00,0.00
"Total lipid (fat)",g,--,--,1.50,5.00
"Carbohydrate, by difference",g,--,--,3.00,10.00
"Fiber, total dietary",g,--,--,0.0,0.0
"Sugars, total",g,--,--,2.00,6.67
Minerals
"Calcium, Ca",mg,--,--,20,67
"Iron, Fe",mg,--,--,0.00,0.00
"Sodium, Na",mg,--,--,150,500
Vitamins
"Vitamin C, total ascorbic acid",mg,--,--,2.0,6.7
"Vitamin A, IU",IU,--,--,166,555
Lipids
"Fatty acids, total saturated",g,--,--,0.666,2.220
"Fatty acids, total trans",g,--,--,0.000,0.000
"Cholesterol",mg,--,--,0,0
Amino Acids
Other
Ingredients
"FILTERED WATER, CHEESE BLEND (DEHYDRATED BLEND OF CHEDDAR CHEESE [WHEY, CHEDDAR {MILK, CHEESE CULTURE, SALT, ENZYMES}, WHEY PROTEIN CONCENTRATE, LACTOSE, MALTODEXTRIN, SALT, SODIUM PHOSPHATE, NATURAL FLAVOR, CITRIC ACID, LACTIC ACID], MODIFIED FOOD STARCH, WHEY, DEXTROSE, SALT, CORN STARCH, MALTODEXTRIN, XANTHAN GUM, ANNATTO, PAPRIKA), TOMATO, SOYBEAN OIL, BELL PEPPER, CHIPOTLE PEPPER, GREEN ONION, INACTIVE DRIED YEAST, NATURAL FLAVOR, DRIED ONION, VINEGAR, SPICES, JALAPENO PEPPER, SALT, CILANTRO, DRIED GARLIC, SUGAR, LACTIC ACID, CARROT." Date available: 09/30/2017 Date last updated by company: 09/30/2017
