Source: USDA Branded Food Products Database Release December 2017 Software v.3.8.6.4 2017-10-02
Report Run at: December 17, 2017 17:42 EST
"Nutrient data for: 45077743, SALSA JALAPENA, UPC: 072101011667"
Food Group:  Branded Food Products Database
Common Name:

Nutrient,Unit,Data points,Std. Error,"2.0 Tbsp = 30.0g",1Value per 100 g,
Proximates
"Energy",kcal,--,--,10,33
"Protein",g,--,--,0.00,0.00
"Total lipid (fat)",g,--,--,0.00,0.00
"Carbohydrate, by difference",g,--,--,2.00,6.67
"Fiber, total dietary",g,--,--,0.0,0.0
"Sugars, total",g,--,--,1.00,3.33
Minerals
"Calcium, Ca",mg,--,--,0,0
"Iron, Fe",mg,--,--,0.00,0.00
"Sodium, Na",mg,--,--,170,567
Vitamins
"Vitamin C, total ascorbic acid",mg,--,--,50.7,169.1
"Vitamin A, IU",IU,--,--,338,1127
Lipids
"Fatty acids, total saturated",g,--,--,0.000,0.000
"Fatty acids, total trans",g,--,--,0.000,0.000
"Cholesterol",mg,--,--,0,0
Amino Acids
Other
Ingredients
"RED JALAPENO PEPPERS, WATER, RED CALIFORNIA CHILES, ONIONS, TOMATO PASTE, DISTILLED VINEGAR, SALT, MODIFIED FOOD STARCH, GARLIC AND SODIUM BENZOATE (0.1% AS A PRESERVATIVE)." Date available: 10/13/2017 Date last updated by company: 10/13/2017
