Source: USDA Branded Food Products Database Release December 2017 Software v.3.8.6.4 2017-10-02
Report Run at: December 17, 2017 17:50 EST
"Nutrient data for: 45257766, SALSA, UPC: 641908932200"
Food Group:  Branded Food Products Database
Common Name:

Nutrient,Unit,Data points,Std. Error,"2.0 Tbsp = 32.0g",1Value per 100 g,
Proximates
"Energy",kcal,--,--,15,47
"Total lipid (fat)",g,--,--,0.00,0.00
"Carbohydrate, by difference",g,--,--,4.00,12.50
"Fiber, total dietary",g,--,--,0.0,0.0
"Sugars, total",g,--,--,2.00,6.25
Minerals
"Calcium, Ca",mg,--,--,0,0
"Iron, Fe",mg,--,--,0.00,0.00
"Sodium, Na",mg,--,--,80,250
Vitamins
"Vitamin C, total ascorbic acid",mg,--,--,15.2,47.5
"Vitamin A, IU",IU,--,--,169,528
Lipids
Amino Acids
Other
Ingredients
"DICED TOMATOES, ONION, TOMATO PUREE, BELL PEPPER, CHILI PEPPER, LEMON JUICE, BROWN SUGAR, VINEGAR, WORCESTERSHIRE SAUCE, SALT, CAYENNE PEPPER, PAPRIKA, XANTHAN GUM, GARLIC, CUMIN, ALLSPICE, CILANTRO." Date available: 10/13/2017 Date last updated by company: 10/13/2017
