Source: USDA Branded Food Products Database Release December 2017 Software v.3.8.6.4 2017-10-02
Report Run at: December 17, 2017 17:41 EST
"Nutrient data for: 45083178, SALSA CON QUESO, UPC: 041318251388"
Food Group:  Branded Food Products Database
Common Name:

Nutrient,Unit,Data points,Std. Error,"2.0 Tbsp = 31.0g",1Value per 100 g,
Proximates
"Energy",kcal,--,--,40,129
"Protein",g,--,--,1.00,3.23
"Total lipid (fat)",g,--,--,2.50,8.06
"Carbohydrate, by difference",g,--,--,3.00,9.68
"Fiber, total dietary",g,--,--,0.0,0.0
"Sugars, total",g,--,--,1.00,3.23
Minerals
"Calcium, Ca",mg,--,--,20,65
"Iron, Fe",mg,--,--,0.00,0.00
"Sodium, Na",mg,--,--,210,677
Vitamins
"Vitamin C, total ascorbic acid",mg,--,--,0.0,0.0
"Vitamin A, IU",IU,--,--,0,0
Lipids
"Fatty acids, total saturated",g,--,--,0.499,1.610
"Fatty acids, total trans",g,--,--,0.000,0.000
"Cholesterol",mg,--,--,5,16
Amino Acids
Other
Ingredients
"WATER, NONFAT MILK, MONTEREY JACK CHEESE (MILK, CHEESE CULTURES, SALT, ENZYMES), SOYBEAN OIL, MALTODEXTRIN, MODIFIED CORN STARCH, GREEN CHILIES, RED BELL PEPPERS, SALT, TOMATOES, NATURAL FLAVOR, JALAPENO PEPPERS, SODIUM ALGINATE, XANTHAN GUM, SODIUM PHOSPHATE, VINEGAR, SODIUM CITRATE, MONO & DI-GLYCERIDES, ARTIFICIAL COLOR, SORBIC ACID (PRESERVATIVE)." Date available: 06/25/2017 Date last updated by company: 06/25/2017
