Source: USDA Branded Food Products Database Release December 2017 Software v.3.8.6.4 2017-10-02
Report Run at: December 17, 2017 17:53 EST
"Nutrient data for: 45268965, SALSA VERDE, UPC: 829793005531"
Food Group:  Branded Food Products Database
Common Name:

Nutrient,Unit,Data points,Std. Error,"2.0 Tbsp = 39.0g",1Value per 100 g,
Proximates
"Energy",kcal,--,--,10,26
"Protein",g,--,--,0.00,0.00
"Total lipid (fat)",g,--,--,0.00,0.00
"Carbohydrate, by difference",g,--,--,2.00,5.13
"Fiber, total dietary",g,--,--,1.0,2.6
"Sugars, total",g,--,--,1.00,2.56
Minerals
"Calcium, Ca",mg,--,--,0,0
"Iron, Fe",mg,--,--,0.46,1.18
"Sodium, Na",mg,--,--,230,590
Vitamins
"Vitamin C, total ascorbic acid",mg,--,--,11.5,29.6
"Vitamin A, IU",IU,--,--,128,328
Lipids
"Fatty acids, total saturated",g,--,--,0.000,0.000
"Fatty acids, total trans",g,--,--,0.000,0.000
"Cholesterol",mg,--,--,0,0
Amino Acids
Other
Ingredients
"TOMATILLO, JALAPENO PEPPER JALAPENO PEPPER (JALAPENO PEPPERS, WATER CARROTS,VINEGAR, ONIONS, SALT, VEGETABLE OIL (SAFFLOWER, SOYBEAN, CANOLA, CORN)], SALT, GARLIC POWDER, WATER." Date available: 07/14/2017 Date last updated by company: 07/14/2017
