Source: USDA Branded Food Products Database Release December 2017 Software v.3.8.6.4 2017-10-02
Report Run at: December 17, 2017 17:44 EST
"Nutrient data for: 45269236, SALSA SAUCE, UPC: 852924003052"
Food Group:  Branded Food Products Database
Common Name:

Nutrient,Unit,Data points,Std. Error,"2.0 Tbsp = 33.0g",1Value per 100 g,
Proximates
"Energy",kcal,--,--,10,30
"Protein",g,--,--,0.00,0.00
"Total lipid (fat)",g,--,--,0.00,0.00
"Carbohydrate, by difference",g,--,--,2.00,6.06
"Fiber, total dietary",g,--,--,0.0,0.0
"Sugars, total",g,--,--,1.00,3.03
Minerals
"Calcium, Ca",mg,--,--,20,61
"Iron, Fe",mg,--,--,0.54,1.65
"Sodium, Na",mg,--,--,220,667
Vitamins
"Vitamin C, total ascorbic acid",mg,--,--,1.8,5.5
"Vitamin A, IU",IU,--,--,303,918
Lipids
"Fatty acids, total saturated",g,--,--,0.000,0.000
"Fatty acids, total trans",g,--,--,0.000,0.000
"Cholesterol",mg,--,--,0,0
Amino Acids
Other
Ingredients
"(TOMATOES, TOMATO JUICE, SALT, CALCIUM CHLORIDE, CITRIC ACID), WATER, TOMATO PASTE, JALAPENO PEPPERS, SALT, DEHYDRATED GARLIC." Date available: 07/14/2017 Date last updated by company: 07/14/2017
