Source: USDA Branded Food Products Database Release December 2017 Software v.3.8.6.4 2017-10-02
Report Run at: December 17, 2017 17:42 EST
"Nutrient data for: 45077841, SALSA DIVINO, UPC: 719212799243"
Food Group:  Branded Food Products Database
Common Name:

Nutrient,Unit,Data points,Std. Error,"2.0 Tbsp = 31.0g",1Value per 100 g,
Proximates
"Energy",kcal,--,--,10,32
"Protein",g,--,--,0.00,0.00
"Total lipid (fat)",g,--,--,0.00,0.00
"Carbohydrate, by difference",g,--,--,2.00,6.45
"Fiber, total dietary",g,--,--,0.0,0.0
"Sugars, total",g,--,--,1.00,3.23
Minerals
"Calcium, Ca",mg,--,--,20,65
"Iron, Fe",mg,--,--,0.58,1.88
"Sodium, Na",mg,--,--,260,839
Vitamins
"Vitamin C, total ascorbic acid",mg,--,--,5.8,18.7
"Vitamin A, IU",IU,--,--,162,521
Lipids
"Fatty acids, total saturated",g,--,--,0.000,0.000
"Fatty acids, total trans",g,--,--,0.000,0.000
"Cholesterol",mg,--,--,0,0
Amino Acids
Other
Ingredients
"TOMATOES, MILD GREEN CHILE PEPPERS, ONIONS, WATER, SALT, LIME JUICE, VINEGAR, TOMATO PASTE, SPICES, GARLIC, AND CILANTRO" Date available: 07/14/2017 Date last updated by company: 07/14/2017
