Source: USDA Branded Food Products Database Release December 2017 Software v.3.8.6.4 2017-10-02
Report Run at: December 17, 2017 17:53 EST
"Nutrient data for: 45219353, SALSA VERDE WITH POBLANO & HABANERO, UPC: 077718634711"
Food Group:  Branded Food Products Database
Common Name:

Nutrient,Unit,Data points,Std. Error,"2.0 Tbsp = 30.0g",1Value per 100 g,
Proximates
"Energy",kcal,--,--,15,50
"Protein",g,--,--,0.00,0.00
"Total lipid (fat)",g,--,--,0.50,1.67
"Carbohydrate, by difference",g,--,--,2.00,6.67
"Fiber, total dietary",g,--,--,1.0,3.3
"Sugars, total",g,--,--,1.00,3.33
Minerals
"Calcium, Ca",mg,--,--,0,0
"Iron, Fe",mg,--,--,0.00,0.00
"Sodium, Na",mg,--,--,100,333
Vitamins
"Vitamin C, total ascorbic acid",mg,--,--,15.0,50.0
"Vitamin A, IU",IU,--,--,166,555
Lipids
"Fatty acids, total saturated",g,--,--,0.000,0.000
"Fatty acids, total trans",g,--,--,0.000,0.000
"Cholesterol",mg,--,--,0,0
Amino Acids
Other
Ingredients
"TOMATILLO, POBLANO PEPPERS, ONION, WATER, LIME JUICE, CILANTRO, CANOLA OIL, GARLIC, CONTAINS LESS THAN 1%: CHICKEN BASE (ROASTED CHICKEN MEAT WITH NATURAL CHICKEN JUICES, SALT, AUTOLYZED YEAST EXTRACT, HYDROLYZED (SOY, WHEAT, CORN) GLUTEN PROTEINS, RENDERED CHICKEN FAT, DEHYDRATED COOKED CHICKEN MEAT, TORULA YEAST, EGG YOLK POWDER, DISODIUM INOSINATE & DISODIUM GUANYLATE, POTATO STARCH, CORN STARCH, TURMERIC POWDER), SALT, SUGAR, SODIUM BENZOATE, POTASSIUM SORBATE, CALCIUM CHLORIDE, SPICES, XANTHAN GUM AND HABANERO PEPPERS" Date available: 07/14/2017 Date last updated by company: 07/14/2017
