Source: USDA Branded Food Products Database Release December 2017 Software v.3.8.6.4 2017-10-02
Report Run at: December 17, 2017 18:03 EST
"Nutrient data for: 45054796, SALT 'N VINEGAR ARTIFICIALLY FLAVORED POTATO CHIPS, UPC: 041780000217"
Food Group:  Branded Food Products Database
Common Name:

Nutrient,Unit,Data points,Std. Error,"1 BAG = 28.3g",1Value per 100 g,
Proximates
"Energy",kcal,--,--,150,530
"Protein",g,--,--,2.00,7.07
"Total lipid (fat)",g,--,--,9.00,31.80
"Carbohydrate, by difference",g,--,--,14.00,49.47
"Fiber, total dietary",g,--,--,1.0,3.5
"Sugars, total",g,--,--,1.00,3.53
Minerals
"Calcium, Ca",mg,--,--,0,0
"Iron, Fe",mg,--,--,0.64,2.25
"Magnesium, Mg",mg,--,--,28,100
"Phosphorus, P",mg,--,--,71,250
"Potassium, K",mg,--,--,300,1060
"Sodium, Na",mg,--,--,270,954
Vitamins
"Vitamin C, total ascorbic acid",mg,--,--,10.6,37.5
"Thiamin",mg,--,--,0.000,0.000
"Niacin",mg,--,--,2.826,9.986
"Vitamin B-6",mg,--,--,0.142,0.500
"Vitamin A, IU",IU,--,--,0,0
Lipids
"Fatty acids, total saturated",g,--,--,2.001,7.070
"Fatty acids, total monounsaturated",g,--,--,2.001,7.070
"Fatty acids, total polyunsaturated",g,--,--,5.001,17.670
"Fatty acids, total trans",g,--,--,0.000,0.000
"Cholesterol",mg,--,--,0,0
Amino Acids
Other
Ingredients
"POTATOES, COTTONSEED OIL, SALT, LACTOSE, SODIUM DIACETATE, MALIC ACID, CITRIC ACID LUMARIC ACID, SOYBEAN OIL." Date available: 06/25/2017 Date last updated by company: 06/25/2017
