Source: USDA Branded Food Products Database Release December 2017 Software v.3.8.6.4 2017-10-02
Report Run at: December 17, 2017 18:03 EST
"Nutrient data for: 45052257, SALTINESS CLASSIC CRACKERS, UPC: 051933051171"
Food Group:  Branded Food Products Database
Common Name:

Nutrient,Unit,Data points,Std. Error,"5.0 CRACKERS = 15.0g",1Value per 100 g,
Proximates
"Energy",kcal,--,--,60,400
"Protein",g,--,--,1.00,6.67
"Total lipid (fat)",g,--,--,1.50,10.00
"Carbohydrate, by difference",g,--,--,11.00,73.33
"Fiber, total dietary",g,--,--,1.0,6.7
"Sugars, total",g,--,--,0.00,0.00
Minerals
"Calcium, Ca",mg,--,--,0,0
"Iron, Fe",mg,--,--,3.60,24.00
"Potassium, K",mg,--,--,20,133
"Sodium, Na",mg,--,--,160,1067
Vitamins
"Vitamin C, total ascorbic acid",mg,--,--,0.0,0.0
"Vitamin A, IU",IU,--,--,0,0
Lipids
"Fatty acids, total saturated",g,--,--,0.000,0.000
"Fatty acids, total monounsaturated",g,--,--,0.500,3.330
"Fatty acids, total polyunsaturated",g,--,--,1.000,6.670
"Fatty acids, total trans",g,--,--,0.000,0.000
"Cholesterol",mg,--,--,0,0
Amino Acids
Other
Ingredients
"ENRICHED FLOUR (WHEAT FLOUR, NIACIN, REDUCED IRON, THIAMINE MONONITRATE, RIBOFLAVIN, FOLIC ACID), VEGETABLE OIL (CONTAINS ONE OR MORE OF THE FOLLOWING: CANOLA OIL, CORN OIL, PALM OIL, SOYBEAN OIL), SALT, CONTAINS 2% OR LESS OF THE FOLLOWING: SODIUM BICARBONATE (LEAVENING), WHEAT GLUTEN, MALTED BARLEY FLOUR, YEAST." Date available: 06/25/2017 Date last updated by company: 06/25/2017
