Source: USDA Branded Food Products Database Release December 2017 Software v.3.8.6.4 2017-10-02
Report Run at: December 17, 2017 17:59 EST
"Nutrient data for: 45146163, SALTED PUMPKIN SEEDS, UPC: 038445620811"
Food Group:  Branded Food Products Database
Common Name:

Nutrient,Unit,Data points,Std. Error,"0.25 cup = 30.0g",1Value per 100 g,
Proximates
"Energy",kcal,--,--,170,567
"Protein",g,--,--,9.00,30.00
"Total lipid (fat)",g,--,--,15.00,50.00
"Carbohydrate, by difference",g,--,--,4.00,13.33
"Fiber, total dietary",g,--,--,3.0,10.0
"Sugars, total",g,--,--,1.00,3.33
Minerals
"Calcium, Ca",mg,--,--,20,67
"Iron, Fe",mg,--,--,3.00,10.00
"Sodium, Na",mg,--,--,50,167
Vitamins
"Vitamin C, total ascorbic acid",mg,--,--,0.0,0.0
"Vitamin A, IU",IU,--,--,0,0
Lipids
"Fatty acids, total saturated",g,--,--,2.499,8.330
"Fatty acids, total trans",g,--,--,0.000,0.000
"Cholesterol",mg,--,--,0,0
Amino Acids
Other
Ingredients
"SQUASH SEEDS (PUMPKIN SEEDS), SALT (TRICALCIUM PHOSPHATE), FLOUR (BLEACHED WHEAT FLOUR, MALTED BARLEY FLOUR), TITANIUM DIOXIDE (WHITE COLOR)" Date available: 07/14/2017 Date last updated by company: 07/14/2017
