Source: USDA Branded Food Products Database Release December 2017 Software v.3.8.6.4 2017-10-02
Report Run at: December 17, 2017 18:04 EST
"Nutrient data for: 45086749, SALT & PEPPER SHAKERS, UPC: 011110713520"
Food Group:  Branded Food Products Database
Common Name:

Nutrient,Unit,Data points,Std. Error,"0.25 tsp = 1.5g",1Value per 100 g,
Proximates
"Energy",kcal,--,--,0,0
"Protein",g,--,--,0.00,0.00
"Total lipid (fat)",g,--,--,0.00,0.00
"Carbohydrate, by difference",g,--,--,0.00,0.00
"Sugars, total",g,--,--,0.00,0.00
Minerals
"Sodium, Na",mg,--,--,590,39333
Vitamins
Lipids
Amino Acids
Other
Ingredients
"SALT (SALT, SODIUM SILICOALUMINATE, DEXTROSE, POTASSIUM IODIDE), BLACK PEPPER." Date available: 07/14/2017 Date last updated by company: 07/14/2017
