Source: USDA Branded Food Products Database Release December 2017 Software v.3.8.6.4 2017-10-02
Report Run at: December 17, 2017 18:06 EST
"Nutrient data for: 45204729, SALVADOREAN STYLE SOUR CREAM, UPC: 890237001129"
Food Group:  Branded Food Products Database
Common Name:

Nutrient,Unit,Data points,Std. Error,"2.0 Tbsp = 30.0g",1Value per 100 g,
Proximates
"Energy",kcal,--,--,60,200
"Protein",g,--,--,1.00,3.33
"Total lipid (fat)",g,--,--,5.00,16.67
"Carbohydrate, by difference",g,--,--,1.00,3.33
"Fiber, total dietary",g,--,--,0.0,0.0
"Sugars, total",g,--,--,1.00,3.33
Minerals
"Calcium, Ca",mg,--,--,20,67
"Iron, Fe",mg,--,--,0.00,0.00
"Sodium, Na",mg,--,--,125,417
Vitamins
"Vitamin C, total ascorbic acid",mg,--,--,0.0,0.0
"Vitamin A, IU",IU,--,--,0,0
Lipids
"Fatty acids, total saturated",g,--,--,0.999,3.330
"Fatty acids, total trans",g,--,--,0.000,0.000
"Cholesterol",mg,--,--,0,0
Amino Acids
Other
Ingredients
"SKIM MILK, WATER, SOYBEAN OIL, FOOD STARCH-MODIFIED (CORN), SALT, LACTIC AND CITRIC ACID, NATURAL AND ARTIFICIAL FLAVORS, GUAR GUM, MONO AND DIGLYCERIDES, POTASSIUM SORBATE TO PRESERVE FRESHNESS, LOCUST BEAN GUM, ANNATTO (COLOR), CARRAGEENAN." Date available: 07/14/2017 Date last updated by company: 07/14/2017
