Source: USDA Branded Food Products Database Release December 2017 Software v.3.8.6.4 2017-10-02
Report Run at: December 17, 2017 18:09 EST
"Nutrient data for: 45158694, SAM'S SAVORY SENSATIONS, POPCORN, WHITE CHEDDAR, UPC: 859954004196"
Food Group:  Branded Food Products Database
Common Name:

Nutrient,Unit,Data points,Std. Error,"1 ONZ = 20.0g",1Value per 100 g,
Proximates
"Energy",kcal,--,--,142,712
"Protein",g,--,--,3.60,18.00
"Total lipid (fat)",g,--,--,7.60,38.00
"Carbohydrate, by difference",g,--,--,15.00,75.00
"Fiber, total dietary",g,--,--,2.3,11.5
"Sugars, total",g,--,--,2.90,14.50
Minerals
"Calcium, Ca",mg,--,--,10,50
"Iron, Fe",mg,--,--,1.35,6.75
"Sodium, Na",mg,--,--,476,2382
Vitamins
"Vitamin C, total ascorbic acid",mg,--,--,0.0,0.0
"Vitamin A, IU",IU,--,--,375,1875
Lipids
"Fatty acids, total saturated",g,--,--,3.600,18.000
"Fatty acids, total trans",g,--,--,0.000,0.000
"Cholesterol",mg,--,--,12,61
Amino Acids
Other
Ingredients
"POPCORN (POPPED IN COCONUT OIL), WHITE CHEDDAR CHEESE CORN TREAT #2363 (WHEY, BUTTERMILK CULTURED PASTEURIZED MILK, SALT ENZYMES), SALT, NATURAL FLAVOR, DISODIUM PHOSPHATE), FARM GOLD WHITE CHEESE (PARTIALLY HYDROGENATED SOYBEAN OIL, CHEDDAR CHEESE (PASTEURIZED MILK, CHEESE CULTURES, SALT, ENZYMES), WHEY, WHEY PROTEIN CONCENTRATE, BUTTERMILK, SALT, AND SODIUM PHOSPHATE), BUTTER (CREAM [MILK] & SALT)." Date available: 07/14/2017 Date last updated by company: 07/14/2017
