Source: USDA Branded Food Products Database Release December 2017 Software v.3.8.6.4 2017-10-02
Report Run at: December 17, 2017 18:08 EST
"Nutrient data for: 45224393, SAM'S CHOICE, MEDIUM THAI CHILI PICKLE CHIPS, UPC: 078742155388"
Food Group:  Branded Food Products Database
Common Name:

Nutrient,Unit,Data points,Std. Error,"3.5 CHIPS | ABOUT = 28.0g",1Value per 100 g,
Proximates
"Energy",kcal,--,--,25,89
"Protein",g,--,--,0.00,0.00
"Total lipid (fat)",g,--,--,0.00,0.00
"Carbohydrate, by difference",g,--,--,6.00,21.43
"Sugars, total",g,--,--,5.00,17.86
Minerals
"Potassium, K",mg,--,--,20,71
"Sodium, Na",mg,--,--,170,607
Vitamins
Lipids
Amino Acids
Other
Ingredients
"CUCUMBERS, WATER, SUGAR, VINEGAR, CONTAINS LESS THAN 2% OF CALCIUM CHLORIDE, TURMERIC EXTRACT (COLOR), NATURAL FLAVOR, POLYSORBATE 80, SALT." Date available: 07/14/2017 Date last updated by company: 07/14/2017
