Source: USDA Branded Food Products Database Release December 2017 Software v.3.8.6.4 2017-10-02
Report Run at: December 17, 2017 18:06 EST
"Nutrient data for: 45169555, SAMBA FLAVOR, CHIMICHURRI DIP SAUCE MARINADE, JALAPENO, UPC: 853473004064"
Food Group:  Branded Food Products Database
Common Name:

Nutrient,Unit,Data points,Std. Error,"2.0 Tbsp = 30.0g",1Value per 100 g,
Proximates
"Energy",kcal,--,--,20,67
"Protein",g,--,--,0.00,0.00
"Total lipid (fat)",g,--,--,1.50,5.00
"Carbohydrate, by difference",g,--,--,2.00,6.67
"Fiber, total dietary",g,--,--,1.0,3.3
"Sugars, total",g,--,--,1.00,3.33
Minerals
"Calcium, Ca",mg,--,--,20,67
"Iron, Fe",mg,--,--,0.61,2.03
"Sodium, Na",mg,--,--,90,300
Vitamins
"Vitamin C, total ascorbic acid",mg,--,--,6.1,20.3
"Vitamin A, IU",IU,--,--,507,1690
Lipids
"Fatty acids, total saturated",g,--,--,0.000,0.000
"Fatty acids, total trans",g,--,--,0.000,0.000
"Cholesterol",mg,--,--,0,0
Amino Acids
Other
Ingredients
"WATER APPLE CIDER VINEGAR, ORGANIC CILENTRA LEMON JUICE, NON-GMO CANOLA OIL, ORGANIC PARSLEY SUGAR, ORGANIC ORGANIC, SEA SALT, RED PEPPERS, JALAPENO PEPPERS, XANTHAN GUM, GARLIC EXTRACT, ONION EXTRACT AND SPICES." Date available: 07/14/2017 Date last updated by company: 07/14/2017
