Source: USDA Branded Food Products Database Release December 2017 Software v.3.8.6.4 2017-10-02
Report Run at: December 17, 2017 18:06 EST
"Nutrient data for: 45234082, SAMBAZON, AMAZON SUPERFOOD JUICE, ACAI BERRY, UPC: 818411001154"
Food Group:  Branded Food Products Database
Common Name:

Nutrient,Unit,Data points,Std. Error,"8.0 OZA = 240.0g",1Value per 100 g,
Proximates
"Energy",kcal,--,--,79,33
"Protein",g,--,--,1.01,0.42
"Total lipid (fat)",g,--,--,2.50,1.04
"Carbohydrate, by difference",g,--,--,22.01,9.17
"Fiber, total dietary",g,--,--,1.9,0.8
"Sugars, total",g,--,--,9.00,3.75
Minerals
"Calcium, Ca",mg,--,--,19,8
"Iron, Fe",mg,--,--,0.00,0.00
"Potassium, K",mg,--,--,0,0
"Sodium, Na",mg,--,--,14,6
Vitamins
"Vitamin C, total ascorbic acid",mg,--,--,0.0,0.0
"Vitamin A, IU",IU,--,--,199,83
Lipids
"Fatty acids, total saturated",g,--,--,0.504,0.210
"Fatty acids, total trans",g,--,--,0.000,0.000
"Cholesterol",mg,--,--,0,0
Amino Acids
Other
Ingredients
"ORGANIC ACAI JUICE (FILTERED WATER, ORGANIC FAIR TRADE ACAI PUREE), ORGANIC SWEETENER BLEND (ORGANIC AGAVE SYRUP, ORGANIC ERYTHRITOL, ORGANIC STEVIA EXTRACT, ORGANIC LIME JUICE, ORGANIC INULIN, CONTAINS LESS THAN 0.5% OF: ORGANIC FLAVOR, SEA SALT, ORGANIC SUNFLOWER LECITHIN, MALIC ACID, CITRIC ACID, FRUIT & VEGETABLE JUICE (FOR COLOR)." Date available: 06/24/2017 Date last updated by company: 06/24/2017
