Source: USDA Branded Food Products Database Release December 2017 Software v.3.8.6.4 2017-10-02
Report Run at: December 17, 2017 18:06 EST
"Nutrient data for: 45216690, SAMBAZON, AMAZON ENERGY, ORGANIC ENERGY DRINK, ACAI BERRY, UPC: 818411000706"
Food Group:  Branded Food Products Database
Common Name:

Nutrient,Unit,Data points,Std. Error,"8.0 fl oz = 240.0g",1Value per 100 g,
Proximates
"Energy",kcal,--,--,91,38
"Protein",g,--,--,0.00,0.00
"Total lipid (fat)",g,--,--,0.00,0.00
"Carbohydrate, by difference",g,--,--,22.01,9.17
"Sugars, total",g,--,--,19.99,8.33
Minerals
"Calcium, Ca",mg,--,--,0,0
"Iron, Fe",mg,--,--,0.36,0.15
"Sodium, Na",mg,--,--,0,0
Vitamins
"Vitamin C, total ascorbic acid",mg,--,--,384.0,160.0
Lipids
"Cholesterol",mg,--,--,0,0
Amino Acids
Other
Ingredients
"SPARKLING FILTERED WATER, ORGANIC CANE SYRUP, ORGANIC CLARIFIED ACAI JUICE, ORGANIC ACEROLA JUICE (FILTERED WATER, ORGANIC ACEROLA CONCENTRATE), CITRIC ACID, ORGANIC NATURAL FLAVORS, ORGANIC GUARANA EXTRACT, ORGANIC GREEN TEA EXTRACT, FRUIT & VEGETABLE JUICE (FOR COLOR), GUAYAKI ORGANIC YERBA MATE EXTRACT." Date available: 06/25/2017 Date last updated by company: 06/25/2017
