Source: USDA Branded Food Products Database Release December 2017 Software v.3.8.6.4 2017-10-02
Report Run at: December 17, 2017 18:25 EST
"Nutrient data for: 45059130, SAN MARZANO TOMATOES, UPC: 072368425184"
Food Group:  Branded Food Products Database
Common Name:

Nutrient,Unit,Data points,Std. Error,"0.5 cup = 115.0g",1Value per 100 g,
Proximates
"Energy",kcal,--,--,25,22
"Protein",g,--,--,1.00,0.87
"Total lipid (fat)",g,--,--,0.00,0.00
"Carbohydrate, by difference",g,--,--,5.00,4.35
"Fiber, total dietary",g,--,--,1.0,0.9
"Sugars, total",g,--,--,4.00,3.48
Minerals
"Calcium, Ca",mg,--,--,40,35
"Iron, Fe",mg,--,--,1.52,1.32
"Sodium, Na",mg,--,--,90,78
Vitamins
"Vitamin C, total ascorbic acid",mg,--,--,9.5,8.3
"Vitamin A, IU",IU,--,--,792,689
Lipids
"Fatty acids, total saturated",g,--,--,0.000,0.000
"Fatty acids, total trans",g,--,--,0.000,0.000
"Cholesterol",mg,--,--,0,0
Amino Acids
Other
Ingredients
"SAN MARZANO WHOLE PEELED TOMATOES, SAN MARZANO TOMATO JUICE, BASIL LEAF, SALT." Date available: 08/23/2017 Date last updated by company: 08/23/2017
