Source: USDA Branded Food Products Database Release December 2017 Software v.3.8.6.4 2017-10-02
Report Run at: December 17, 2017 18:25 EST
"Nutrient data for: 45165902, SAN PABLO, PALANQUETAS, UPC: 722082009688"
Food Group:  Branded Food Products Database
Common Name:

Nutrient,Unit,Data points,Std. Error,"25.0 GRM = 25.0g",1Value per 100 g,
Proximates
"Energy",kcal,--,--,120,480
"Protein",g,--,--,4.00,16.00
"Total lipid (fat)",g,--,--,5.00,20.00
"Carbohydrate, by difference",g,--,--,15.00,60.00
"Fiber, total dietary",g,--,--,1.0,4.0
"Sugars, total",g,--,--,12.00,48.00
Minerals
"Calcium, Ca",mg,--,--,0,0
"Iron, Fe",mg,--,--,0.00,0.00
"Sodium, Na",mg,--,--,0,0
Vitamins
"Vitamin C, total ascorbic acid",mg,--,--,0.0,0.0
"Vitamin A, IU",IU,--,--,0,0
Lipids
"Fatty acids, total saturated",g,--,--,1.000,4.000
"Fatty acids, total trans",g,--,--,0.000,0.000
"Cholesterol",mg,--,--,0,0
Amino Acids
Other
Ingredients
"PEANUTS, SUGAR AND CORN SYRUP." Date available: 07/14/2017 Date last updated by company: 07/14/2017
