Source: USDA Branded Food Products Database Release December 2017 Software v.3.8.6.4 2017-10-02
Report Run at: December 17, 2017 18:24 EST
"Nutrient data for: 45119055, SAN MARCOS, EMSANMAR, SLICED JALAPENO PEPPERS, UPC: 074234981138"
Food Group:  Branded Food Products Database
Common Name:

Nutrient,Unit,Data points,Std. Error,"2.0 Tbsp = 31.0g",1Value per 100 g,
Proximates
"Energy",kcal,--,--,10,32
"Protein",g,--,--,0.00,0.00
"Total lipid (fat)",g,--,--,0.00,0.00
"Carbohydrate, by difference",g,--,--,2.00,6.45
"Fiber, total dietary",g,--,--,1.0,3.2
"Sugars, total",g,--,--,1.00,3.23
Minerals
"Sodium, Na",mg,--,--,360,1161
Vitamins
"Vitamin C, total ascorbic acid",mg,--,--,9.7,31.2
"Vitamin A, IU",IU,--,--,807,2602
Lipids
Amino Acids
Other
Ingredients
"SLICED JALAPENO PEPPERS, WATER, VINEGAR, CARROTS, SALT, ONIONS, CANOLA OIL,SUGAR, SPICES AND GARLIC." Date available: 06/25/2017 Date last updated by company: 06/25/2017
