Source: USDA Branded Food Products Database Release December 2017 Software v.3.8.6.4 2017-10-02
Report Run at: December 17, 2017 18:22 EST
"Nutrient data for: 45277785, SAN FRANCISCO STYLE SOURDOUGH LONG SLICED LOAF, UPC: 021130184613"
Food Group:  Branded Food Products Database
Common Name:

Nutrient,Unit,Data points,Std. Error,"1 SLICE = 26.0g",1Value per 100 g,
Proximates
"Energy",kcal,--,--,70,269
"Protein",g,--,--,3.00,11.54
"Total lipid (fat)",g,--,--,0.00,0.00
"Carbohydrate, by difference",g,--,--,13.00,50.00
"Fiber, total dietary",g,--,--,0.0,0.0
"Sugars, total",g,--,--,0.00,0.00
Minerals
"Calcium, Ca",mg,--,--,40,154
"Iron, Fe",mg,--,--,2.08,7.99
"Sodium, Na",mg,--,--,135,519
Vitamins
"Vitamin C, total ascorbic acid",mg,--,--,2.3,8.9
"Vitamin A, IU",IU,--,--,0,0
Lipids
"Fatty acids, total saturated",g,--,--,0.000,0.000
"Fatty acids, total trans",g,--,--,0.000,0.000
"Cholesterol",mg,--,--,0,0
Amino Acids
Other
Ingredients
"ENRICHED WHEAT FLOUR (NIACIN, REDUCED IRON, THIAMINE MONONITRATE, RIBOFLAVIN, FOLIC ACID) MALTED BARLEY FLOUR, WATER, WHEAT GLUTEN, SALT, CALCIUM SULFATE, DIACETLY TARTARIC ACID ESTERS OF MONO-DIGLYCERIDES (DATEM), ASCORBIC ACID, ENZYMES, CALCIUM PROPIONATE, YEAST." Date available: 07/14/2017 Date last updated by company: 07/14/2017
