Source: USDA Branded Food Products Database Release December 2017 Software v.3.8.6.4 2017-10-02
Report Run at: December 17, 2017 18:21 EST
"Nutrient data for: 45120168, SAN FRANCISCO, REFRIED RED SILK BEANS, UPC: 7411000507773"
Food Group:  Branded Food Products Database
Common Name:

Nutrient,Unit,Data points,Std. Error,"0.5 cup = 130.0g",1Value per 100 g,
Proximates
"Energy",kcal,--,--,160,123
"Protein",g,--,--,9.00,6.92
"Total lipid (fat)",g,--,--,5.00,3.85
"Carbohydrate, by difference",g,--,--,21.00,16.15
"Fiber, total dietary",g,--,--,9.0,6.9
"Sugars, total",g,--,--,1.00,0.77
Minerals
"Calcium, Ca",mg,--,--,60,46
"Iron, Fe",mg,--,--,3.60,2.77
"Sodium, Na",mg,--,--,471,362
Vitamins
"Vitamin C, total ascorbic acid",mg,--,--,2.3,1.8
"Vitamin A, IU",IU,--,--,0,0
Lipids
"Fatty acids, total saturated",g,--,--,2.002,1.540
"Fatty acids, total trans",g,--,--,0.000,0.000
"Cholesterol",mg,--,--,0,0
Amino Acids
Other
Ingredients
"WATER, RED BEANS, VEGETABLE OIL(WITH TBHQ AS ANTIOXIDANT), IODIZED SALT, ONION, SUGAR, BEEF FLAVOR (ARTIFICIAL FLAVORS), GARLIC" Date available: 06/25/2017 Date last updated by company: 06/25/2017
