Source: USDA Branded Food Products Database Release December 2017 Software v.3.8.6.4 2017-10-02
Report Run at: December 17, 2017 18:12 EST
"Nutrient data for: 45271067, SANDWICH BREAD, UPC: 852537005344"
Food Group:  Branded Food Products Database
Common Name:

Nutrient,Unit,Data points,Std. Error,"1 SLICE = 36.0g",1Value per 100 g,
Proximates
"Energy",kcal,--,--,160,444
"Protein",g,--,--,5.00,13.89
"Total lipid (fat)",g,--,--,13.00,36.11
"Carbohydrate, by difference",g,--,--,8.00,22.22
"Fiber, total dietary",g,--,--,2.0,5.6
"Sugars, total",g,--,--,4.00,11.11
Minerals
"Calcium, Ca",mg,--,--,40,111
"Iron, Fe",mg,--,--,1.50,4.17
"Sodium, Na",mg,--,--,130,361
Vitamins
"Vitamin C, total ascorbic acid",mg,--,--,0.0,0.0
"Vitamin A, IU",IU,--,--,139,386
Lipids
"Fatty acids, total saturated",g,--,--,3.499,9.720
"Fatty acids, total trans",g,--,--,0.000,0.000
"Cholesterol",mg,--,--,40,111
Amino Acids
Other
Ingredients
"EGG, ALMOND BUTTER, CASHEW BUTTER, WATER, HONEY, COCONUT OIL, COCONUT FLOUR, GOLDEN FLAXSEED MEAL, ALMOND FLOUR, APPLE CIDER VINEGAR, SEA SALT, BAKING SODA" Date available: 07/14/2017 Date last updated by company: 07/14/2017
