Source: USDA Branded Food Products Database Release December 2017 Software v.3.8.6.4 2017-10-02
Report Run at: December 17, 2017 18:12 EST
"Nutrient data for: 45021894, SANDWICH BROS., ANGUS CHEESEBURGERS FLATBREAD POCKET SANDWICHES, UPC: 077507001014"
Food Group:  Branded Food Products Database
Common Name:

Nutrient,Unit,Data points,Std. Error,"1 SANDWICH = 63.0g",1Value per 100 g,
Proximates
"Energy",kcal,--,--,160,254
"Protein",g,--,--,10.00,15.87
"Total lipid (fat)",g,--,--,9.00,14.29
"Carbohydrate, by difference",g,--,--,12.00,19.05
"Fiber, total dietary",g,--,--,1.0,1.6
"Sugars, total",g,--,--,1.00,1.59
Minerals
"Calcium, Ca",mg,--,--,80,127
"Iron, Fe",mg,--,--,1.70,2.70
"Sodium, Na",mg,--,--,340,540
Vitamins
"Vitamin C, total ascorbic acid",mg,--,--,0.0,0.0
"Vitamin A, IU",IU,--,--,135,214
Lipids
"Fatty acids, total saturated",g,--,--,4.000,6.350
"Fatty acids, total trans",g,--,--,0.000,0.000
"Cholesterol",mg,--,--,30,48
Amino Acids
Other
Ingredients
"100% ANGUS BURGER (BEEF, WATER, SPICES, SALT, NATURAL FLAVOR), POCKET BREAD (WHEAT FLOUR, WATER, SUNFLOWER OIL [ROSEMARY EXTRACT AND VITAMIN E], YEAST, CANE SUGAR, SALT, CALCIUM PROPIONATE, ENZYMES, FUMARIC ACID), PASTEURIZED PROCESS AMERICAN CHEESE (CULTURED MILK, WATER, CREAM, SODIUM PHOSPHATES, SALT, SORBIC ACID, ANNATTO, PAPRIKA EXTRACT, ENZYMES)." Date available: 07/14/2017 Date last updated by company: 07/14/2017
