Source: USDA Branded Food Products Database Release December 2017 Software v.3.8.6.4 2017-10-02
Report Run at: December 17, 2017 18:13 EST
"Nutrient data for: 45229421, SANDWICH BUNS, UPC: 03003404149"
Food Group:  Branded Food Products Database
Common Name:

Nutrient,Unit,Data points,Std. Error,"1 BUN = 47.0g",1Value per 100 g,
Proximates
"Energy",kcal,--,--,120,255
"Protein",g,--,--,4.00,8.51
"Total lipid (fat)",g,--,--,1.50,3.19
"Carbohydrate, by difference",g,--,--,23.00,48.94
"Fiber, total dietary",g,--,--,1.0,2.1
"Sugars, total",g,--,--,3.00,6.38
Minerals
"Calcium, Ca",mg,--,--,40,85
"Iron, Fe",mg,--,--,1.15,2.44
"Sodium, Na",mg,--,--,210,447
Vitamins
"Vitamin C, total ascorbic acid",mg,--,--,0.0,0.0
"Thiamin",mg,--,--,0.470,1.000
"Riboflavin",mg,--,--,0.181,0.385
"Niacin",mg,--,--,2.128,4.528
"Vitamin A, IU",IU,--,--,0,0
Lipids
"Fatty acids, total saturated",g,--,--,0.000,0.000
"Fatty acids, total trans",g,--,--,0.000,0.000
"Cholesterol",mg,--,--,0,0
Amino Acids
Other
Ingredients
"ENRICHED WHEAT FLOUR BLEACHED (WHEAT FLOUR, MALTED BARLEY FLOUR, NIACIN, IRON, THIAMINE MONONITRATE, RIBOFLAVIN, FOLIC ACID), WATER, HIGH FRUCTOSE CORN SYRUP, YEAST, CONTAINS 2% OR LESS OF THE FOLLOWING: SOYBEAN OIL, SALT, WHEAT GLUTEN, CALCIUM PROPIONATE (PRESERVATIVE), DOUGH CONDITIONER (MONOGLYCERIDES, ASCORBIC ACID), YEAST NUTRIENTS (AMMONIUM SULFATE), DEACTIVATED YEAST, ENZYMES" Date available: 07/14/2017 Date last updated by company: 07/14/2017
