Source: USDA Branded Food Products Database Release December 2017 Software v.3.8.6.4 2017-10-02
Report Run at: December 17, 2017 18:16 EST
"Nutrient data for: 45259932, SANDWICH CRACKER, UPC: 030100545521"
Food Group:  Branded Food Products Database
Common Name:

Nutrient,Unit,Data points,Std. Error,"1 PACKAGE = 39.0g",1Value per 100 g,
Proximates
"Energy",kcal,--,--,190,487
"Protein",g,--,--,4.00,10.26
"Total lipid (fat)",g,--,--,9.00,23.08
"Carbohydrate, by difference",g,--,--,23.00,58.97
"Fiber, total dietary",g,--,--,1.0,2.6
"Sugars, total",g,--,--,5.00,12.82
Minerals
"Calcium, Ca",mg,--,--,20,51
"Iron, Fe",mg,--,--,1.38,3.55
"Sodium, Na",mg,--,--,300,769
Vitamins
"Vitamin C, total ascorbic acid",mg,--,--,0.0,0.0
"Vitamin A, IU",IU,--,--,0,0
Lipids
"Fatty acids, total saturated",g,--,--,1.502,3.850
"Fatty acids, total trans",g,--,--,0.000,0.000
"Cholesterol",mg,--,--,0,0
Amino Acids
Other
Ingredients
"ENRICHED FLOUR (WHEAT FLOUR, NIACIN, REDUCED IRON, THIAMIN MONONITRATE [VITAMIN B1], RIBOFLAVIN [VITAMIN B2], FOLIC ACID), PEANUT BUTTER (ROASTED PEANUTS), SOYBEAN OIL WITH TBHQ FOR FRESHNESS, SUGAR, HIGH FRUCTOSE CORN SYRUP, DEXTROSE, CONTAINS TWO PERCENT OR LESS OF SALT, MALTED BARLEY FLOUR, LEAVENING (BAKING SODA, MONOCALCIUM PHOSPHATE, SODIUM ACID PYROPHOSPHATE), SOY LECITHIN, CORNSTARCH, YELLOW #6, CHEDDAR CHEESE (PASTEURIZED MILK, CHEESE CULTURES, SALT, ENZYMES), WHEY, BUTTERMILK, DISODIUM PHOSPHATE, RED PEPPER." Date available: 07/14/2017 Date last updated by company: 07/14/2017
