Source: USDA Branded Food Products Database Release December 2017 Software v.3.8.6.4 2017-10-02
Report Run at: December 17, 2017 18:15 EST
"Nutrient data for: 45176003, SANDWICH CRACKERS, UPC: 076410903408"
Food Group:  Branded Food Products Database
Common Name:

Nutrient,Unit,Data points,Std. Error,"12.0 CRACKERS | ABOUT = 28.0g",1Value per 100 g,
Proximates
"Energy",kcal,--,--,150,536
"Protein",g,--,--,1.00,3.57
"Total lipid (fat)",g,--,--,8.00,28.57
"Carbohydrate, by difference",g,--,--,17.00,60.71
"Fiber, total dietary",g,--,--,1.0,3.6
"Sugars, total",g,--,--,3.00,10.71
Minerals
"Calcium, Ca",mg,--,--,60,214
"Iron, Fe",mg,--,--,0.00,0.00
"Potassium, K",mg,--,--,70,250
"Sodium, Na",mg,--,--,270,964
Vitamins
"Vitamin C, total ascorbic acid",mg,--,--,0.0,0.0
"Vitamin A, IU",IU,--,--,0,0
Lipids
"Fatty acids, total saturated",g,--,--,2.999,10.710
"Fatty acids, total monounsaturated",g,--,--,2.500,8.930
"Fatty acids, total polyunsaturated",g,--,--,2.500,8.930
"Fatty acids, total trans",g,--,--,0.000,0.000
"Cholesterol",mg,--,--,0,0
Amino Acids
Other
Ingredients
"RICE FLOUR, VEGETABLE OIL (PALM OIL AND/OR SOYBEAN OIL), RICE STARCH, CHEESE POWDER (WHEY, MALTODEXTRIN, CHEDDAR CHEESE [PASTEURIZED MILK, CHEESE CULTURES, SALT, ENZYMES], BUTTER [CREAM, SALT], BUTTERMILK, NATURAL FLAVOR, SALT, YEAST EXTRACT, SUNFLOWER OIL, PAPRIKA EXTRACT [COLOR]), DAIRY WHEY, SUGAR, LEAVENING (SODIUM BICARBONATE, AMMONIUM BICARBONATE, MONOCALCIUM PHOSPHATE), POTATO STARCH, SALT, CORN SYRUP, CELLULOSE GUM, NONFAT DRY MILK, OAT FIBER, SOY LECITHIN (EMULSIFIER), LOCUST BEAN GUM." Date available: 07/14/2017 Date last updated by company: 07/14/2017
