Source: USDA Branded Food Products Database Release December 2017 Software v.3.8.6.4 2017-10-02
Report Run at: December 17, 2017 18:22 EST
"Nutrient data for: 45234703, SANGARIA, RAMUNE PREMIUM CARBONATED SOFT DRINK, STRAWBERRY, UPC: 733815003675"
Food Group:  Branded Food Products Database
Common Name:

Nutrient,Unit,Data points,Std. Error,"1 BOTTLE = 200.0g",1Value per 100 g,
Proximates
"Energy",kcal,--,--,100,50
"Protein",g,--,--,0.00,0.00
"Total lipid (fat)",g,--,--,0.00,0.00
"Carbohydrate, by difference",g,--,--,26.00,13.00
"Sugars, total",g,--,--,25.00,12.50
Minerals
"Sodium, Na",mg,--,--,30,15
Vitamins
Lipids
"Fatty acids, total saturated",g,--,--,0.000,0.000
"Fatty acids, total trans",g,--,--,0.000,0.000
"Cholesterol",mg,--,--,0,0
Amino Acids
Other
Ingredients
"CARBONATED WATER, SUGAR, NATURAL FLAVOR (STRAWBERRY), CITRIC ACID, SODIUM CITRATE, VITAMIN C, COLOR (TOMATO LYCOPENE EXTRACT)" Date available: 06/24/2017 Date last updated by company: 06/24/2017
