Source: USDA Branded Food Products Database Release December 2017 Software v.3.8.6.4 2017-10-02
Report Run at: December 17, 2017 18:26 EST
"Nutrient data for: 45234345, SANTA BARBARA BAR, SUPERFOOD RICH NUTRITION BAR, CRANBERRY WHITE CHOCOLATE, UPC: 684733000706"
Food Group:  Branded Food Products Database
Common Name:

Nutrient,Unit,Data points,Std. Error,"1 BAR = 45.0g",1Value per 100 g,
Proximates
"Energy",kcal,--,--,190,422
"Protein",g,--,--,8.00,17.78
"Total lipid (fat)",g,--,--,8.00,17.78
"Carbohydrate, by difference",g,--,--,23.00,51.11
"Fiber, total dietary",g,--,--,4.0,8.9
"Sugars, total",g,--,--,9.00,20.00
Minerals
"Calcium, Ca",mg,--,--,60,133
"Iron, Fe",mg,--,--,2.40,5.33
"Sodium, Na",mg,--,--,105,233
Vitamins
"Vitamin C, total ascorbic acid",mg,--,--,0.0,0.0
"Vitamin A, IU",IU,--,--,0,0
Lipids
"Fatty acids, total saturated",g,--,--,1.498,3.330
"Fatty acids, total trans",g,--,--,0.000,0.000
"Cholesterol",mg,--,--,10,22
Amino Acids
Other
Ingredients
"WHEY CRISPS (WHEY PROTEIN CONCENTRATE, RICE FLOUR), BROWN RICE SYRUP, GLUTEN FREE OATS, DRIED CRANBERRIES (CRANBERRIES, PINEAPPLE SYRUP), PUMPKIN SEEDS, CHICORY FIBER, CASHEW BUTTER, ALMONDS, WHITE CHOCOLATE CHIPS (SUGAR, COCOA BUTTER, WHOLE MILK POWDER, SOY LECITHIN, VANILLA EXTRACT), CURRANTS, SUNFLOWER SEEDS, CHIA SEEDS, BROWN RICE SYRUP SOLIDS, SEA SALT, NATURAL FLAVORS, SUNFLOWER LECITHIN, CITRIC ACID." Date available: 07/14/2017 Date last updated by company: 07/14/2017
