Source: USDA Branded Food Products Database Release December 2017 Software v.3.8.6.4 2017-10-02
Report Run at: December 17, 2017 18:31 EST
"Nutrient data for: 45187142, SANTOSHA CHOCOLATE, RHODIOLA & HAWAIIAN RED SALT, UPC: 093573921773"
Food Group:  Branded Food Products Database
Common Name:

Nutrient,Unit,Data points,Std. Error,"1 BAR = 29.0g",1Value per 100 g,
Proximates
"Energy",kcal,--,--,120,414
"Protein",g,--,--,3.00,10.34
"Total lipid (fat)",g,--,--,10.00,34.48
"Carbohydrate, by difference",g,--,--,16.00,55.17
"Fiber, total dietary",g,--,--,6.0,20.7
"Sugars, total",g,--,--,8.00,27.59
Minerals
"Calcium, Ca",mg,--,--,0,0
"Iron, Fe",mg,--,--,0.18,0.62
"Sodium, Na",mg,--,--,45,155
Vitamins
"Vitamin C, total ascorbic acid",mg,--,--,0.0,0.0
"Vitamin A, IU",IU,--,--,0,0
Lipids
"Fatty acids, total saturated",g,--,--,5.000,17.240
"Fatty acids, total trans",g,--,--,0.000,0.000
"Cholesterol",mg,--,--,0,0
Amino Acids
Other
Ingredients
"ORGANIC RAW CACAO BEANS*, ORGANIC RAW COCONUT*, ORGANIC COCONUT PALM SUGAR*, ORGANIC VANILLA BEAN*, ORGANIC RHODIOLA ROOT, HAWAIIAN RED SALT." Date available: 04/19/2017 Date last updated by company: 04/19/2017
