Source: USDA Branded Food Products Database Release December 2017 Software v.3.8.6.4 2017-10-02
Report Run at: December 17, 2017 18:31 EST
"Nutrient data for: 45036316, SAPUTO, STELLA, FRESHLY SHREDDED ASIAGO MEDIUM CHEESE, UPC: 075805726509"
Food Group:  Branded Food Products Database
Common Name:

Nutrient,Unit,Data points,Std. Error,"0.25 cup = 28.0g",1Value per 100 g,
Proximates
"Energy",kcal,--,--,120,429
"Protein",g,--,--,6.00,21.43
"Total lipid (fat)",g,--,--,9.00,32.14
"Carbohydrate, by difference",g,--,--,2.00,7.14
"Fiber, total dietary",g,--,--,1.0,3.6
"Sugars, total",g,--,--,0.00,0.00
Minerals
"Calcium, Ca",mg,--,--,250,893
"Iron, Fe",mg,--,--,0.00,0.00
"Sodium, Na",mg,--,--,300,1071
Vitamins
"Vitamin C, total ascorbic acid",mg,--,--,0.0,0.0
"Vitamin A, IU",IU,--,--,893,3189
Lipids
"Fatty acids, total saturated",g,--,--,6.000,21.430
"Fatty acids, total trans",g,--,--,0.000,0.000
"Cholesterol",mg,--,--,25,89
Amino Acids
Other
Ingredients
"ASIAGO MEDIUM AGED (PASTEURIZED PART-SKIM MILK, CHEESE CULTURES, SALT, ENZYMES), POWDERED CELLULOSE TO PREVENT CAKING, NATAMYCIN TO PROTECT FLAVOR." Date available: 06/24/2017 Date last updated by company: 06/24/2017
