Source: USDA Branded Food Products Database Release December 2017 Software v.3.8.6.4 2017-10-02
Report Run at: December 17, 2017 18:34 EST
"Nutrient data for: 45170651, SARA LEE, PREMIUM ROAST BEEF, UPC: 075971173947"
Food Group:  Branded Food Products Database
Common Name:

Nutrient,Unit,Data points,Std. Error,"2.0 ONZ = 56.0g",1Value per 100 g,
Proximates
"Energy",kcal,--,--,70,125
"Protein",g,--,--,11.00,19.64
"Total lipid (fat)",g,--,--,2.50,4.46
"Carbohydrate, by difference",g,--,--,2.00,3.57
"Fiber, total dietary",g,--,--,0.0,0.0
"Sugars, total",g,--,--,1.00,1.79
Minerals
"Calcium, Ca",mg,--,--,0,0
"Iron, Fe",mg,--,--,0.71,1.26
"Sodium, Na",mg,--,--,360,643
Vitamins
"Vitamin C, total ascorbic acid",mg,--,--,0.0,0.0
"Vitamin A, IU",IU,--,--,0,0
Lipids
"Fatty acids, total saturated",g,--,--,1.002,1.790
"Fatty acids, total trans",g,--,--,0.000,0.000
"Cholesterol",mg,--,--,35,62
Amino Acids
Other
Ingredients
"BEEF, WATER, CONTAINS 2% OR LESS: POTASSIUM LACTATE, SALT, BEEF STOCK, DEXTROSE, SODIUM PHOSPHATE, MALTODEXTRIN, HYDROLYZED CORN AND SOY PROTEIN, NATURAL AND ARTIFICIAL FLAVOR, BEEF FAT, MONOSODIUM GLUTAMATE, DISODIUM INOSINATE, DISODIUM GUANYLATE, SODIUM DIACETATE" Date available: 07/14/2017 Date last updated by company: 07/14/2017
