Source: USDA Branded Food Products Database Release December 2017 Software v.3.8.6.4 2017-10-02
Report Run at: December 17, 2017 18:32 EST
"Nutrient data for: 45147325, SARAH'S SAVORY SNACKS, SNACKS, COCONUT CURRANT CURRY, UPC: 850575004411"
Food Group:  Branded Food Products Database
Common Name:

Nutrient,Unit,Data points,Std. Error,"0.5 cup = 57.0g",1Value per 100 g,
Proximates
"Energy",kcal,--,--,290,509
"Protein",g,--,--,8.00,14.04
"Total lipid (fat)",g,--,--,20.00,35.09
"Carbohydrate, by difference",g,--,--,23.00,40.35
"Fiber, total dietary",g,--,--,4.0,7.0
"Sugars, total",g,--,--,8.00,14.04
Minerals
"Calcium, Ca",mg,--,--,40,70
"Iron, Fe",mg,--,--,2.37,4.16
"Sodium, Na",mg,--,--,15,26
Vitamins
"Vitamin C, total ascorbic acid",mg,--,--,0.0,0.0
"Vitamin A, IU",IU,--,--,0,0
Lipids
"Fatty acids, total saturated",g,--,--,8.003,14.040
"Fatty acids, total trans",g,--,--,0.000,0.000
"Cholesterol",mg,--,--,0,0
Amino Acids
Other
Ingredients
"CASHEWS, PEANUTS, GLUTEN FREE WHOLE GRAIN OATS, ORGANIC BROWN RICE SYRUP, SUNFLOWER SEEDS, ORGANIC COCONUT CHIPS, ORGANIC EXTRA VIRGIN COCONUT OIL, CURRANTS (CURRANTS, VEGETABLE OIL), FLAX SEED, HONEY, SESAME SEEDS, SPICES, SEA SALT" Date available: 07/14/2017 Date last updated by company: 07/14/2017
