Source: USDA Branded Food Products Database Release December 2017 Software v.3.8.6.4 2017-10-02
Report Run at: December 17, 2017 18:33 EST
"Nutrient data for: 45304814, SARA LEE, CHOCOLATE CREME PIE, UPC: 032100082907"
Food Group:  Branded Food Products Database
Common Name:

Nutrient,Unit,Data points,Std. Error,"0.2 PIE = 111.0g",1Value per 100 g,
Proximates
"Energy",kcal,--,--,450,405
"Protein",g,--,--,3.00,2.70
"Total lipid (fat)",g,--,--,27.00,24.32
"Carbohydrate, by difference",g,--,--,50.01,45.05
"Fiber, total dietary",g,--,--,3.0,2.7
"Sugars, total",g,--,--,32.00,28.83
Minerals
"Calcium, Ca",mg,--,--,20,18
"Iron, Fe",mg,--,--,2.03,1.83
"Sodium, Na",mg,--,--,320,288
Vitamins
"Vitamin C, total ascorbic acid",mg,--,--,0.0,0.0
"Vitamin A, IU",IU,--,--,112,101
Lipids
"Fatty acids, total saturated",g,--,--,18.004,16.220
"Fatty acids, total trans",g,--,--,0.500,0.450
"Cholesterol",mg,--,--,6,5
Amino Acids
Other
Ingredients
"SUGAR, ENRICHED FLOUR (WHEAT FLOUR, NIACIN, IRON, THIAMIN MONONITRATE, RIBOFLAVIN, FOLIC ACID). WATER, PARTIALLY HYDROGENATED PALM KERNEL OIL, VEGETABLE OIL (PALM AND SOYBEAN OILS), HIGH FRUCTOSE CORN SYRUP, WHEY, COCOA PROCESSED WITH ALKALI, BUTTER (CREAM, SALT), CORN SYRUP. CONTAINS 2% OR LESS OF EACH OF THE FOLLOWING: CHOCOLATE FLAKES (SUGAR, CHOCOLATE, COCOA BUTTER, BUTTER OIL, SOY LECITHIN, VANILLA), MODIFIED CORN STARCH, CORN STARCH, CHOCOLATE, GUMS (XANTHAN, CELLULOSE), POLYSORBATE 60, POLYGLYCEROL ESTERS OF FATTY ACIDS, SOY LECITHIN, SODIUM CITRATE, DISODIUM PHOSPHATE, NATURAL AND ARTIFICIAL FLAVORS, MONO-AND DIGLYCERIDES, BETA CAROTENE (COLOR), SALT, CORN FLOUR, DEXTROSE, BAKING POWDER, SOY FLOUR." Date available: 06/25/2017 Date last updated by company: 06/25/2017
