Source: USDA Branded Food Products Database Release December 2017 Software v.3.8.6.4 2017-10-02
Report Run at: December 17, 2017 18:33 EST
"Nutrient data for: 45112091, SARA LEE, DELIGHTFUL 100% WHOLE WHEAT BREAD, UPC: 072945715899"
Food Group:  Branded Food Products Database
Common Name:

Nutrient,Unit,Data points,Std. Error,"2.0 SLICES = 45.0g",1Value per 100 g,
Proximates
"Energy",kcal,--,--,90,200
"Protein",g,--,--,6.00,13.33
"Total lipid (fat)",g,--,--,1.00,2.22
"Carbohydrate, by difference",g,--,--,18.00,40.00
"Fiber, total dietary",g,--,--,5.0,11.1
"Sugars, total",g,--,--,2.00,4.44
Minerals
"Calcium, Ca",mg,--,--,60,133
"Iron, Fe",mg,--,--,1.20,2.67
"Sodium, Na",mg,--,--,190,422
Vitamins
"Vitamin C, total ascorbic acid",mg,--,--,0.0,0.0
"Thiamin",mg,--,--,0.000,0.000
"Riboflavin",mg,--,--,0.000,0.000
"Niacin",mg,--,--,1.334,2.964
"Vitamin A, IU",IU,--,--,0,0
Lipids
"Fatty acids, total saturated",g,--,--,0.000,0.000
"Fatty acids, total monounsaturated",g,--,--,0.000,0.000
"Fatty acids, total polyunsaturated",g,--,--,0.000,0.000
"Fatty acids, total trans",g,--,--,0.000,0.000
"Cholesterol",mg,--,--,0,0
Amino Acids
Other
Ingredients
"WHOLE WHEAT FLOUR, WATER, WHEAT GLUTEN, MODIFIED WHEAT STARCH, CELLULOSE FIBER, HONEY, YEAST, SUGAR, WHEAT BRAN, SALT, PRESERVATIVES (CALCIUM PROPIONATE, SORBIC ACID), GRAIN VINEGAR, SOYBEAN OIL, NATURAL FLAVOR, MONO- AND DIGLYCERIDES, DATEM, CELLULOSE GUM, CALCIUM SULFATE, MONOCALCIUM PHOSPHATE, REB A (NATURAL STEVIA LEAF SWEETENER), CORNSTARCH, SOY LECITHIN, CITRIC ACID, HONEY SOLIDS, POTASSIUM IODATE." Date available: 07/14/2017 Date last updated by company: 07/14/2017
