Source: USDA Branded Food Products Database Release December 2017 Software v.3.8.6.4 2017-10-02
Report Run at: December 17, 2017 18:33 EST
"Nutrient data for: 45293635, SARA LEE, CHEESE TOPPED CRUMB CAKES, UPC: 076515001108"
Food Group:  Branded Food Products Database
Common Name:

Nutrient,Unit,Data points,Std. Error,"1 CAKE = 59.0g",1Value per 100 g,
Proximates
"Energy",kcal,--,--,250,424
"Protein",g,--,--,2.00,3.39
"Total lipid (fat)",g,--,--,12.00,20.34
"Carbohydrate, by difference",g,--,--,34.00,57.63
"Fiber, total dietary",g,--,--,0.0,0.0
"Sugars, total",g,--,--,20.00,33.90
Minerals
"Calcium, Ca",mg,--,--,20,34
"Iron, Fe",mg,--,--,0.00,0.00
"Sodium, Na",mg,--,--,250,424
Vitamins
"Vitamin C, total ascorbic acid",mg,--,--,0.0,0.0
"Vitamin A, IU",IU,--,--,271,459
Lipids
"Fatty acids, total saturated",g,--,--,4.000,6.780
"Fatty acids, total monounsaturated",g,--,--,3.499,5.930
"Fatty acids, total polyunsaturated",g,--,--,3.499,5.930
"Fatty acids, total trans",g,--,--,0.000,0.000
"Cholesterol",mg,--,--,20,34
Amino Acids
Other
Ingredients
"BLEACHED WHEAT FLOUR, CHEESE FILLING [SUGAR. CREAM CHEESE (PASTEURIZED CULTURED CREAM AND MILK, SALT, XANTHAN, LOCUST BEAN AND GUAR GUM), EGG WHITES. PALM OIL, WATER, WHEY, MODIFIED CORNSTARCH, CORNSTARCH, SOYBEAN OIL, SALT, SODIUM CASEINATE, LACTOSE, PRESERVATIVES (SORBIC ACID, SODIUM BENZOATE), MODIFIED TAPIOCA STARCH, NATURAL AND ARTIFICIAL FLAVORS, LEMON JUICE CONCENTRATE, FUMARIC ACID, LACTIC ACID, GUMS (LOCUST BEAN, CARRAGEENAN), SODIUM STEAROYL LACTYLATE, PECTIN, SODIUM PHOSPHATE, MONOGLYCERIDES, CITRIC ACID, BETA CAROTENE (COLOR), VITAMIN A PALMITATE), SUGAR, WATER, EGGS, SOYBEAN OIL, PALM OIL, HIGH FRUCTOSE CORN SYRUP, MODIFIED CORNSTARCH, GLYCERIN, WHEY, SALT, LEAVENING (SODIUM ACID PYROPHOSPHATE, BAKING SODA, MONOCALCIUM PHOSPHATE), ARTIFICIAL FLAVOR, MONO- AND DIGLYCERIDES, GLYCERYL LACTOESTERS OF FATTY ACIDS, CORNSTARCH, SOY LECITHIN, POTASSIUM SORBATE (PRESERVATIVE), SODIUM STEAROYL LACTYLATE, XANTHAN GUM, CALCIUM CHLORIDE, YELLOW 5, CELLULOSE GUM. CARAMEL COLOR. VITAMIN A PALMITATE, ANNATTO COLOR, BETA CAROTENE (COLOR), GUAR GUM, SOY FLOUR." Date available: 06/24/2017 Date last updated by company: 06/24/2017
