Source: USDA Branded Food Products Database Release December 2017 Software v.3.8.6.4 2017-10-02
Report Run at: December 17, 2017 18:39 EST
"Nutrient data for: 45045478, SARGENTO, TASTINGS, GARLIC & HERS JACK CHEESE, UPC: 046100019887"
Food Group:  Branded Food Products Database
Common Name:

Nutrient,Unit,Data points,Std. Error,"0.33 CHUNK = 33.0g",1Value per 100 g,
Proximates
"Energy",kcal,--,--,120,364
"Protein",g,--,--,8.00,24.24
"Total lipid (fat)",g,--,--,10.00,30.30
"Carbohydrate, by difference",g,--,--,1.00,3.03
"Fiber, total dietary",g,--,--,0.0,0.0
"Sugars, total",g,--,--,0.00,0.00
Minerals
"Calcium, Ca",mg,--,--,200,606
"Iron, Fe",mg,--,--,0.00,0.00
"Sodium, Na",mg,--,--,190,576
Vitamins
"Vitamin C, total ascorbic acid",mg,--,--,0.0,0.0
"Vitamin A, IU",IU,--,--,606,1836
Lipids
"Fatty acids, total saturated",g,--,--,5.999,18.180
"Fatty acids, total trans",g,--,--,0.000,0.000
"Cholesterol",mg,--,--,30,91
Amino Acids
Other
Ingredients
"PASTEURIZED MILK, CHEESE CULTURE, SALT, GARLIC AND HERB SEASONING [GARLIC, ONION, SEA SALT, SPICE, PARSLEY, BUTTER (CREAM, SALT), SKIM MILK, SPICE EXTRACTIVES], PARSLEY, ENZYMES." Date available: 06/24/2017 Date last updated by company: 06/24/2017
