Source: USDA Branded Food Products Database Release December 2017 Software v.3.8.6.4 2017-10-02
Report Run at: December 17, 2017 18:41 EST
"Nutrient data for: 45205303, SASS, OLIVE OIL SESAME GARLIC NATURAL DRESSING, MARINADE & SAUCE, UPC: 044318111164"
Food Group:  Branded Food Products Database
Common Name:

Nutrient,Unit,Data points,Std. Error,"2.0 Tbsp = 29.0g",1Value per 100 g,
Proximates
"Energy",kcal,--,--,80,276
"Protein",g,--,--,1.00,3.45
"Total lipid (fat)",g,--,--,7.00,24.14
"Carbohydrate, by difference",g,--,--,3.00,10.34
"Fiber, total dietary",g,--,--,1.0,3.4
"Sugars, total",g,--,--,1.00,3.45
Minerals
"Calcium, Ca",mg,--,--,20,69
"Iron, Fe",mg,--,--,0.62,2.14
"Sodium, Na",mg,--,--,135,466
Vitamins
"Vitamin C, total ascorbic acid",mg,--,--,4.1,14.3
"Vitamin A, IU",IU,--,--,0,0
Lipids
"Fatty acids, total saturated",g,--,--,1.001,3.450
"Fatty acids, total trans",g,--,--,0.000,0.000
"Cholesterol",mg,--,--,0,0
Amino Acids
Other
Ingredients
"WATER, EXTRA VIRGIN OLIVE OIL, GROUND SESAME SEED, APPLE CIDER VINEGAR, GARLIC, BALSAMIC VINEGAR, SALT, SESAME OIL, SPICES, ROSEMARY EXTRACT." Date available: 07/14/2017 Date last updated by company: 07/14/2017
