Source: USDA Branded Food Products Database Release December 2017 Software v.3.8.6.4 2017-10-02
Report Run at: December 17, 2017 18:44 EST
"Nutrient data for: 45009507, SAUCE, UPC: 648172105590"
Food Group:  Branded Food Products Database
Common Name:

Nutrient,Unit,Data points,Std. Error,"0.5 cup = 120.0g",1Value per 100 g,
Proximates
"Energy",kcal,--,--,70,58
"Protein",g,--,--,1.00,0.83
"Total lipid (fat)",g,--,--,2.00,1.67
"Carbohydrate, by difference",g,--,--,10.00,8.33
"Fiber, total dietary",g,--,--,1.0,0.8
"Sugars, total",g,--,--,3.20,2.67
Minerals
"Calcium, Ca",mg,--,--,2,2
"Iron, Fe",mg,--,--,0.28,0.23
"Sodium, Na",mg,--,--,275,229
Vitamins
"Vitamin C, total ascorbic acid",mg,--,--,0.0,0.0
"Vitamin A, IU",IU,--,--,0,0
Lipids
"Fatty acids, total saturated",g,--,--,0.396,0.330
"Fatty acids, total trans",g,--,--,0.000,0.000
"Cholesterol",mg,--,--,0,0
Amino Acids
Other
Ingredients
"ITALIAN DICED TOMATOES, TUNA IN OIL, ONIONS, OLIVE OIL, SALT, PARSLEY, BLACK PEPPER, CAPERS, SUGAR. ACIDITY REGULATOR: CITRIC ACID." Date available: 10/13/2017 Date last updated by company: 10/13/2017
