Source: USDA Branded Food Products Database Release December 2017 Software v.3.8.6.4 2017-10-02
Report Run at: December 17, 2017 18:46 EST
"Nutrient data for: 45252700, SAUCE, UPC: 036200004821"
Food Group:  Branded Food Products Database
Common Name:

Nutrient,Unit,Data points,Std. Error,"0.5 cup = 129.0g",1Value per 100 g,
Proximates
"Energy",kcal,--,--,90,70
"Protein",g,--,--,2.00,1.55
"Total lipid (fat)",g,--,--,3.01,2.33
"Carbohydrate, by difference",g,--,--,12.00,9.30
"Fiber, total dietary",g,--,--,2.1,1.6
"Sugars, total",g,--,--,8.00,6.20
Minerals
"Calcium, Ca",mg,--,--,21,16
"Iron, Fe",mg,--,--,0.37,0.29
"Sodium, Na",mg,--,--,480,372
Vitamins
"Vitamin C, total ascorbic acid",mg,--,--,6.3,4.9
"Vitamin A, IU",IU,--,--,529,410
Lipids
"Fatty acids, total saturated",g,--,--,0.503,0.390
"Fatty acids, total trans",g,--,--,0.000,0.000
"Cholesterol",mg,--,--,0,0
Amino Acids
Other
Ingredients
"TOMATO PUREE (WATER, TOMATO PASTE), DICED TOMATOES IN PUREE [TOMATOES, TOMATO PUREE, CALCIUM CHLORIDE (FIRMING AID), CITRIC ACID], ONIONS, MUSHROOMS, SOYBEAN OIL, SUGAR, SALT, GARLIC, BASIL, ROMANO CHEESE [PASTEURIZED PART-SKIM MILK, CHEESE CULTURES, SALT, ENZYMES], SPICE, CITRIC ACID." Date available: 10/13/2017 Date last updated by company: 10/13/2017
