Source: USDA Branded Food Products Database Release December 2017 Software v.3.8.6.4 2017-10-02
Report Run at: December 17, 2017 18:46 EST
"Nutrient data for: 45204391, SAUCE, UPC: 888670032794"
Food Group:  Branded Food Products Database
Common Name:

Nutrient,Unit,Data points,Std. Error,"2.0 Tbsp = 32.0g",1Value per 100 g,
Proximates
"Energy",kcal,--,--,50,156
"Protein",g,--,--,0.00,0.00
"Total lipid (fat)",g,--,--,0.00,0.00
"Carbohydrate, by difference",g,--,--,12.00,37.50
"Fiber, total dietary",g,--,--,0.3,0.8
"Sugars, total",g,--,--,11.00,34.38
Minerals
"Calcium, Ca",mg,--,--,0,0
"Iron, Fe",mg,--,--,0.00,0.00
"Sodium, Na",mg,--,--,35,109
Vitamins
"Vitamin C, total ascorbic acid",mg,--,--,73.0,228.2
"Vitamin A, IU",IU,--,--,406,1269
Lipids
"Fatty acids, total saturated",g,--,--,0.000,0.000
"Fatty acids, total trans",g,--,--,0.000,0.000
"Cholesterol",mg,--,--,0,0
Amino Acids
Other
Ingredients
"CANE SUGAR, PINEAPPLE, RED AND GREEN BELL PEPPERS, MANGO, WATER, ONIONS, APPLE CIDER VINEGAR, RED JALAPENO PEPPERS, LEMON JUICE CONCENTRATE, CANOLA OR SOYBEAN OIL. CITRIC ACID, XANTHAN GUM, ASCORBIC ACID (VITAMIN C), HABANERO PEPPER." Date available: 07/14/2017 Date last updated by company: 07/14/2017
