Source: USDA Branded Food Products Database Release December 2017 Software v.3.8.6.4 2017-10-02
Report Run at: December 17, 2017 18:53 EST
"Nutrient data for: 45098707, SAUSAGE PIZZA, UPC: 042197012008"
Food Group:  Branded Food Products Database
Common Name:

Nutrient,Unit,Data points,Std. Error,"0.33 PIZZA = 123.0g",1Value per 100 g,
Proximates
"Energy",kcal,--,--,300,244
"Protein",g,--,--,17.99,14.63
"Total lipid (fat)",g,--,--,15.01,12.20
"Carbohydrate, by difference",g,--,--,25.01,20.33
"Fiber, total dietary",g,--,--,2.0,1.6
"Sugars, total",g,--,--,3.00,2.44
Minerals
"Calcium, Ca",mg,--,--,300,244
"Iron, Fe",mg,--,--,2.85,2.32
"Sodium, Na",mg,--,--,670,545
Vitamins
"Vitamin C, total ascorbic acid",mg,--,--,14.3,11.6
"Vitamin A, IU",IU,--,--,159,129
Lipids
"Fatty acids, total saturated",g,--,--,6.999,5.690
"Fatty acids, total trans",g,--,--,0.000,0.000
"Cholesterol",mg,--,--,41,33
Amino Acids
Other
Ingredients
"MOZZARELLA CHEESE (PASTEURIZED PART SKIM MILK, CHEESE CULTURES, SALT, ENZYMES), CRUST (WHEAT FLOUR [BLEACHED WHEAT FLOUR, NIACIN, REDUCED IRON, THIAMINE MONONITRATE, RIBOFLAVIN, ENZYME, FOLIC ACID]. WATER, LARD [BHA, PROPYL GALLATE WITH CITRIC ACID ADDED TO HELP PROTECT FLAVOR], SOY BEAN OIL, DOUGH CONDITIONER [WHEY, L-CYSTEINE, MONO-HYDROCHLORIDE], SALT, SUGAR, YEAST), SAUCE (WATER, TOMATO PUREE, ROMANO CHEESE [PASTEURIZED COW'S MILK, CHEESE CULTURES, SALT, ENZYMES], SALT, SPICES, SUGAR, GARLIC POWDER), COOKED ITALIAN SAUSAGE (PORK, SPICES, SALT, DEXTROSE, GARLIC POWDER, PAPRIKA, FLAVORING)." Date available: 07/14/2017 Date last updated by company: 07/14/2017
