Source: USDA Branded Food Products Database Release December 2017 Software v.3.8.6.4 2017-10-02
Report Run at: December 17, 2017 18:51 EST
"Nutrient data for: 45200625, SAUSAGE EGG & CHEESE ON BISCUIT, UPC: 722652690049"
Food Group:  Branded Food Products Database
Common Name:

Nutrient,Unit,Data points,Std. Error,"1 CONTAINER = 174.0g",1Value per 100 g,
Proximates
"Energy",kcal,--,--,539,310
"Protein",g,--,--,16.01,9.20
"Total lipid (fat)",g,--,--,36.99,21.26
"Carbohydrate, by difference",g,--,--,33.01,18.97
"Fiber, total dietary",g,--,--,1.0,0.6
"Sugars, total",g,--,--,4.99,2.87
Minerals
"Calcium, Ca",mg,--,--,150,86
"Iron, Fe",mg,--,--,2.17,1.25
"Sodium, Na",mg,--,--,1241,713
Vitamins
"Vitamin C, total ascorbic acid",mg,--,--,0.0,0.0
"Vitamin A, IU",IU,--,--,322,185
Lipids
"Fatty acids, total saturated",g,--,--,16.008,9.200
"Fatty acids, total trans",g,--,--,0.000,0.000
"Cholesterol",mg,--,--,171,98
Amino Acids
Other
Ingredients
"BUTTERMILK BISCUIT: ENRICHED WHEAT FLOUR (BLEACHED WHEAT FLOUR, NIACIN, REDUCED IRON, THIAMINE MONONITRATE, ROBOFLAVIN, FOLIC ACID, BUTTERMILK BLEND (CULTURED FAT FREE MILK, NONFAT MILK, GUAR GUM, TAPIOCA STARCH, SALT, SODIUM CITRATE, CARRAGEENAN, LOGUST BEAN GUM, MONO AND DIGLYCERIDES, MODIFIED TAPIOCA STARCH), PALM OIL, CONTAINS LESS THAN 2% OF EACH OF THE FOLLOWING: SODIUM BICARBONATE, SODIUM ALUMINUM PHOSPHATE, SALT, SUGAR, PARTIALLY HYDROGENATED SOYBEAN OIL, SOY LECITHIN, DATEM, WHEAT PROTEIN ISOLATE, CELLULOSE GUM, MONOCALCIUM PHOSPHATE, NATURAL FLAVORS. EGG PATTY: WHOLE EGGS, WATER, VEGETABLE OIL (CORN AND/OR SOYBEAN OIL), WHEY SOLIDS, NONFAT DRIED MILK, SALT, XANTHAN GUM, CITRIC ACID, WHITE PEPPER, ARTIFICIAL BUTTER FLAVOR (PARTIALLY HYDROGENATED SOY AND COTTONSEED OIL, MEDIUM CHAIN TRIGLYCERIDES, FLAVORED). SAUSAGE PATTY: PORK, WHEY PROTEIN CONCENTRATE, SALT, SPICES, CORN SYRUP SOLIDS, DEXTROSE, CARAMEL COLOR, SPICE EXTRACTIVES, BHA, PRPYL GALLATE, CITRIC ACID, PASTEURIZED PROCESS AMERICAN CHEESE PRODUCT: CULTURED MILK AND SKIM MILK, WHEY, SALT, SODIUM CITRATE, MODIFIED FOOD STARCH, ARTIFICIAL COLOR (IF COLORED), SODIUM PHOSPHATE, SORBIC ACID (PRESERVATIVE), LACTIC ACID, ENZYME, SOY LECITHIN (NON-STICKING AGENT)." Date available: 07/14/2017 Date last updated by company: 07/14/2017
