Source: USDA Branded Food Products Database Release December 2017 Software v.3.8.6.4 2017-10-02
Report Run at: December 17, 2017 18:52 EST
"Nutrient data for: 45225928, SAUSAGE PATTIES, UPC: 076020004212"
Food Group:  Branded Food Products Database
Common Name:

Nutrient,Unit,Data points,Std. Error,"1 ONZ = 28.0g",1Value per 100 g,
Proximates
"Energy",kcal,--,--,120,429
"Protein",g,--,--,5.00,17.86
"Total lipid (fat)",g,--,--,11.00,39.29
"Carbohydrate, by difference",g,--,--,0.00,0.00
"Fiber, total dietary",g,--,--,0.0,0.0
"Sugars, total",g,--,--,0.00,0.00
Minerals
"Calcium, Ca",mg,--,--,0,0
"Iron, Fe",mg,--,--,1.41,5.05
"Sodium, Na",mg,--,--,330,1179
Vitamins
"Vitamin C, total ascorbic acid",mg,--,--,0.0,0.0
"Vitamin A, IU",IU,--,--,0,0
Lipids
"Fatty acids, total saturated",g,--,--,6.000,21.430
"Fatty acids, total trans",g,--,--,0.000,0.000
"Cholesterol",mg,--,--,20,71
Amino Acids
Other
Ingredients
"PORK, WATER, SALT, FLAVORINGS, SUGAR, MONOSODIUM GLUTAMATE, LEMON POWDER (CORN SYRUP SOLIDS AND LEMON JUICE SOLIDS), BHA, BHT, PROPYL GALLATE, AND CITRIC ACID." Date available: 07/14/2017 Date last updated by company: 07/14/2017
