Source: USDA Branded Food Products Database Release December 2017 Software v.3.8.6.4 2017-10-02
Report Run at: December 17, 2017 18:58 EST
"Nutrient data for: 45087683, SAVORY FOODS, COOKIE-LICIOUS COLLECTION, COOKIE DOUGH, UPC: 733549027732"
Food Group:  Branded Food Products Database
Common Name:

Nutrient,Unit,Data points,Std. Error,"1 ONZ = 28.0g",1Value per 100 g,
Proximates
"Energy",kcal,--,--,120,429
"Protein",g,--,--,1.00,3.57
"Total lipid (fat)",g,--,--,4.50,16.07
"Carbohydrate, by difference",g,--,--,19.00,67.86
"Fiber, total dietary",g,--,--,1.0,3.6
"Sugars, total",g,--,--,11.00,39.29
Minerals
"Calcium, Ca",mg,--,--,0,0
"Iron, Fe",mg,--,--,0.00,0.00
"Sodium, Na",mg,--,--,100,357
Vitamins
"Vitamin C, total ascorbic acid",mg,--,--,0.0,0.0
"Vitamin A, IU",IU,--,--,0,0
Lipids
"Fatty acids, total saturated",g,--,--,2.500,8.930
"Fatty acids, total trans",g,--,--,0.000,0.000
"Cholesterol",mg,--,--,15,54
Amino Acids
Other
Ingredients
"RICE FLOUR, SEMI SWEET CHOCOLATE DROPS [SUGAR, CHOCOLATE LIQUOR, COCOA BUTTER, DEXTROSE, SOY LECITHIN (EMULSIFIER), VANILLIN (ARTIFICIAL FLAVOR)], BROWN SUGAR, SUGAR, BUTTER (CREAM, SALT), EGGS, CORNSTARCH, TAPIOCA FLOUR, CHOCOLATE LIQUOR, WATER, BAKING SODA (SODIUM BICARBONATE), SALT, NATURAL FLAVOR, XANTHAN GUM." Date available: 06/25/2017 Date last updated by company: 06/25/2017
