Source: USDA Branded Food Products Database Release December 2017 Software v.3.8.6.4 2017-10-02
Report Run at: December 17, 2017 18:59 EST
"Nutrient data for: 45199282, SAVORY SAGE STUFFING, UPC: 079893980997"
Food Group:  Branded Food Products Database
Common Name:

Nutrient,Unit,Data points,Std. Error,"0.5 cup = 110.0g",1Value per 100 g,
Proximates
"Energy",kcal,--,--,200,182
"Protein",g,--,--,4.00,3.64
"Total lipid (fat)",g,--,--,10.00,9.09
"Carbohydrate, by difference",g,--,--,25.00,22.73
"Fiber, total dietary",g,--,--,1.0,0.9
"Sugars, total",g,--,--,5.00,4.55
Minerals
"Calcium, Ca",mg,--,--,20,18
"Iron, Fe",mg,--,--,0.33,0.30
"Sodium, Na",mg,--,--,580,527
Vitamins
"Vitamin C, total ascorbic acid",mg,--,--,1.1,1.0
"Vitamin A, IU",IU,--,--,182,165
Lipids
"Fatty acids, total saturated",g,--,--,3.003,2.730
"Fatty acids, total trans",g,--,--,0.000,0.000
"Cholesterol",mg,--,--,10,9
Amino Acids
Other
Ingredients
"POULTRY STOCK (WATER, ROASTED CHICKEN BASE [OVEN ROASTED CHICKEN MEAT INCLUDING CHICKEN JUICES, SEA SALT, ORGANIC CANE SUGAR, CORN STARCH, CHICKEN FAT, YEAST EXTRACT, NATURAL FLAVORING (PEPPER AND ROSEMARY EXTRACTIVES), ONION POWDER, ORGANIC RICE FLOUR, ORGANIC MALTODEXTRIN, TURMERIC (COLOR)], TURKEY BASE [TURKEY MEAT INCLUDING JUICES, SEA SALT, YEAST EXTRACT, ORGANIC MALTODEXTRIN, CHICKEN FAT, ORGANIC CANE SUGAR.FLAVORINGS (ONION POWDER, SPICE EXTRACTIVES), DRIED WHEY, DEHYDRATED POTATO), PLAIN CROUTONS (ORGANIC WHEAT FLOUR, ORGANIC PALM FRUIT OIL, ORGANIC SUGAR, SALT, ORGANIC WHEAT GLUTEN, ORGANIC YEAST), CELERY, ONION, CANOLA OIL, SALTED BUTTER (CREAM [MILK], SALT) DRIED CRANBERRIES (CRANBERRIES, SUGAR, SUNFLOWER OIL), RAW CANE DEMERARA SUGAR, SPICES, SEA SALT." Date available: 07/14/2017 Date last updated by company: 07/14/2017
