Source: USDA Branded Food Products Database Release December 2017 Software v.3.8.6.4 2017-10-02
Report Run at: December 17, 2017 18:57 EST
"Nutrient data for: 45014532, SAVORY COLLECTION, CREAMY RANCH DRESSING, UPC: 095815221023"
Food Group:  Branded Food Products Database
Common Name:

Nutrient,Unit,Data points,Std. Error,"2.0 Tbsp = 30.0g",1Value per 100 g,
Proximates
"Energy",kcal,--,--,25,83
"Protein",g,--,--,0.00,0.00
"Total lipid (fat)",g,--,--,3.00,10.00
"Carbohydrate, by difference",g,--,--,4.00,13.33
"Fiber, total dietary",g,--,--,0.0,0.0
"Sugars, total",g,--,--,2.00,6.67
Minerals
"Potassium, K",mg,--,--,5,17
"Sodium, Na",mg,--,--,323,1077
Vitamins
Lipids
"Fatty acids, total saturated",g,--,--,0.000,0.000
"Fatty acids, total trans",g,--,--,0.000,0.000
"Cholesterol",mg,--,--,2,7
Amino Acids
Other
Ingredients
"WATER, HIGH FRUCTOSE CORN SYRUP, MODIFIED FOOD STARCH, VINEGAR, NON-HYDROGENATED SOYBEAN OIL, SALT, BUTTERMILK POWDER, DRIED EGG YOLKS, ONION POWDER, GARLIC POWDER, ARTIFICIAL COLOR, XANTHAN GUM (NATURAL FOOD FIBER), MONOSODIUM GLUTAMATE, LESS THAN 0.1% SODIUM BENZOATE AND POTASSIUM SORBATE (AS PRESERVATIVES), PHOSPHORIC ACID, SPICES, HERBS, CALCIUM DISODIUM EDTA (TO PROTECT FLAVOR), SPICE EXTRACTIVES." Date available: 07/14/2017 Date last updated by company: 07/14/2017
