Source: USDA Branded Food Products Database Release December 2017 Software v.3.8.6.4 2017-10-02
Report Run at: December 17, 2017 18:59 EST
"Nutrient data for: 45311229, SAVORY LENTIL, UPC: 725342412570"
Food Group:  Branded Food Products Database
Common Name:

Nutrient,Unit,Data points,Std. Error,"1 cup = 251.0g",1Value per 100 g,
Proximates
"Energy",kcal,--,--,120,48
"Protein",g,--,--,7.00,2.79
"Total lipid (fat)",g,--,--,1.51,0.60
"Carbohydrate, by difference",g,--,--,22.99,9.16
"Fiber, total dietary",g,--,--,4.0,1.6
Minerals
"Calcium, Ca",mg,--,--,20,8
"Iron, Fe",mg,--,--,1.76,0.70
"Sodium, Na",mg,--,--,781,311
Vitamins
"Vitamin C, total ascorbic acid",mg,--,--,0.0,0.0
"Vitamin A, IU",IU,--,--,733,292
Lipids
"Fatty acids, total saturated",g,--,--,0.000,0.000
"Fatty acids, total monounsaturated",g,--,--,1.004,0.400
"Fatty acids, total polyunsaturated",g,--,--,0.000,0.000
"Fatty acids, total trans",g,--,--,0.000,0.000
"Cholesterol",mg,--,--,0,0
Amino Acids
Other
Ingredients
"WATER, LENTILS*, CARROTS*, CELERY*, TOMATO PASTE*, CORN STARCH*, CONTAINS LESS THAN 1% OF: SEA SALT, EXTRA VIRGIN OLIVE OIL*, ONION POWDER*, RAW SUGAR*, PARSLEY FLAKES*, BLACK PEPPER*, THYME*." Date available: 06/24/2017 Date last updated by company: 06/24/2017
