Source: USDA Branded Food Products Database Release December 2017 Software v.3.8.6.4 2017-10-02
Report Run at: December 17, 2017 18:57 EST
"Nutrient data for: 45326142, SAVORY BAR, UPC: 853335005147"
Food Group:  Branded Food Products Database
Common Name:

Nutrient,Unit,Data points,Std. Error,"1 BAR = 35.0g",1Value per 100 g,
Proximates
"Energy",kcal,--,--,130,371
"Protein",g,--,--,6.00,17.14
"Total lipid (fat)",g,--,--,7.00,20.00
"Carbohydrate, by difference",g,--,--,18.00,51.43
"Fiber, total dietary",g,--,--,5.0,14.3
"Sugars, total",g,--,--,3.00,8.57
Minerals
"Calcium, Ca",mg,--,--,40,114
"Iron, Fe",mg,--,--,1.65,4.70
"Sodium, Na",mg,--,--,110,314
Vitamins
"Vitamin C, total ascorbic acid",mg,--,--,2.7,7.8
"Vitamin A, IU",IU,--,--,0,0
Lipids
"Fatty acids, total saturated",g,--,--,1.001,2.860
"Fatty acids, total trans",g,--,--,0.000,0.000
"Cholesterol",mg,--,--,0,0
Amino Acids
Other
Ingredients
"PEA CRISPS (PEA PROTEIN, RICE FLOUR), ALMONDS, INULIN, ORGANIC BROWN RICE SYRUP, CASHEWS, KALE, QUINOA, POMEGRANATE, CASHEW BUTTER, OLIVE OIL, VEGETABLE GLYCERIN, SEA SALT, SUNFLOWER OIL BLEND (SUNFLOWER OIL, ROSEMARY EXTRACT, MIXED TOCOPHEROLS), CITRIC ACID, AGAR, BASIL, ORGANIC FLAVOR." Date available: 08/11/2017 Date last updated by company: 08/11/2017
