Source: USDA Branded Food Products Database Release December 2017 Software v.3.8.6.4 2017-10-02
Report Run at: December 17, 2017 19:00 EST
"Nutrient data for: 45331966, SAVORY SPINACH MADE WITH FRESH HERBS & VEGETABLES, UPC: 600039108021"
Food Group:  Branded Food Products Database
Common Name:

Nutrient,Unit,Data points,Std. Error,"1 TORTILLA = 43.0g",1Value per 100 g,
Proximates
"Energy",kcal,--,--,110,256
"Protein",g,--,--,3.00,6.98
"Total lipid (fat)",g,--,--,2.50,5.81
"Carbohydrate, by difference",g,--,--,19.00,44.19
"Fiber, total dietary",g,--,--,0.5,1.2
"Sugars, total",g,--,--,0.00,0.00
Minerals
"Calcium, Ca",mg,--,--,40,93
"Iron, Fe",mg,--,--,1.15,2.68
"Sodium, Na",mg,--,--,240,558
Vitamins
"Vitamin C, total ascorbic acid",mg,--,--,0.8,1.8
"Vitamin A, IU",IU,--,--,384,892
Lipids
"Fatty acids, total saturated",g,--,--,0.499,1.160
"Fatty acids, total monounsaturated",g,--,--,0.499,1.160
"Fatty acids, total polyunsaturated",g,--,--,1.002,2.330
"Fatty acids, total trans",g,--,--,0.000,0.000
"Cholesterol",mg,--,--,0,0
Amino Acids
Other
Ingredients
"ENRICHED BLEACHED FLOUR (WHEAT FLOUR, NIACIN, REDUCED IRON, THIAMINE MONONITRATE, RIBOFLAVIN, FOLIC ACID), MALTED BARLEY FLOUR, WATER, VEGETABLE SHORTENING (PARTIALLY HYDROGENATED SOYBEAN AND COTTONSEED) AND CANOLA OIL, VEGETABLE PUREE AND EXTRACTS (GARLIC, CILANTRO, BASIL, PARSLEY, SPINACH), BAKING POWDER (SODIUM BICARBONATE, SODIUM ACID PYROPHOSPHATE, SODIUM ALUMINUM PHOSPHATE, STARCH, MONOCALCIUM PHOSPHATE) SALT, CALCIUM AND SODIUM PROPIONATE*, MONO AND DIGLYCERIDES, FUMARIC ACID, SUGAR, HYDROLYZED SOY PROTEIN, SODIUM STEAROYL LACTYLATE, NATURAL FLAVOR, ARTIFICIAL COLOR (YELLOW 5, YELLOW 6, BLUE 1, RED 40) XANTHAN GUM, GUAR GUM, ENZYMES." Date available: 10/13/2017 Date last updated by company: 10/13/2017
