Source: USDA Branded Food Products Database Release December 2017 Software v.3.8.6.4 2017-10-02
Report Run at: December 17, 2017 19:01 EST
"Nutrient data for: 45108562, SAWYER'S, CHISHOLM TRAIL CLASSIC CHILI MIX, UPC: 859736002648"
Food Group:  Branded Food Products Database
Common Name:

Nutrient,Unit,Data points,Std. Error,"0.33 cup = 49.0g",1Value per 100 g,
Proximates
"Energy",kcal,--,--,170,347
"Protein",g,--,--,9.00,18.37
"Total lipid (fat)",g,--,--,1.00,2.04
"Carbohydrate, by difference",g,--,--,31.00,63.27
"Fiber, total dietary",g,--,--,9.0,18.4
"Sugars, total",g,--,--,2.00,4.08
Minerals
"Calcium, Ca",mg,--,--,60,122
"Iron, Fe",mg,--,--,5.51,11.24
"Sodium, Na",mg,--,--,390,796
Vitamins
"Vitamin C, total ascorbic acid",mg,--,--,24.5,50.0
"Vitamin A, IU",IU,--,--,0,0
Lipids
"Fatty acids, total saturated",g,--,--,0.000,0.000
"Fatty acids, total trans",g,--,--,0.000,0.000
"Cholesterol",mg,--,--,0,0
Amino Acids
Other
Ingredients
"PRE-COOKED PINTO & KIDNEY BEANS, TOMATO POWDER, SPICES, DEHYDRATED VEGETABLES (ONIONS, RED & GREEN BELL PEPPERS), SUGAR, GARLIC POWDER, FOOD STARCH-MODIFIED, CARAMEL COLORING, SEA SALT, CITRIC ACID, ONION POWDER." Date available: 06/25/2017 Date last updated by company: 06/25/2017
