Source: USDA Branded Food Products Database Release December 2017 Software v.3.8.6.4 2017-10-02
Report Run at: December 17, 2017 19:03 EST
"Nutrient data for: 45265029, SCALLOPED POTATOES, UPC: 030223016892"
Food Group:  Branded Food Products Database
Common Name:

Nutrient,Unit,Data points,Std. Error,"1 cup = 140.0g",1Value per 100 g,
Proximates
"Energy",kcal,--,--,200,143
"Protein",g,--,--,6.01,4.29
"Total lipid (fat)",g,--,--,11.00,7.86
"Carbohydrate, by difference",g,--,--,18.00,12.86
"Fiber, total dietary",g,--,--,2.0,1.4
"Sugars, total",g,--,--,0.00,0.00
Minerals
"Calcium, Ca",mg,--,--,150,107
"Iron, Fe",mg,--,--,0.85,0.61
"Sodium, Na",mg,--,--,340,243
Vitamins
"Vitamin C, total ascorbic acid",mg,--,--,4.8,3.4
"Vitamin A, IU",IU,--,--,235,168
Lipids
"Fatty acids, total saturated",g,--,--,7.000,5.000
"Fatty acids, total trans",g,--,--,0.000,0.000
"Cholesterol",mg,--,--,35,25
Amino Acids
Other
Ingredients
"POTATOES (SLICED POTATOES, DEXTROSE, POTASSIUM SORBATE TO PROTECT FLAVOR, DISODIUM PYROPHOSPHATE TO MAINTAIN COLOR), SAUCE (HALF & HALF [GRADE A MILK, CREAM], WATER, HEAVY CREAM [GRADE A HEAVY CREAM], WHITE CHEDDAR CHEESE [CHEDDAR CHEESE {PASTEURIZED MILK, CHEESE CULTURE, SALT, ENZYMES}, POTATO STARCH AND POWDERED CELLULOSE {TO PREVENT CAKING}], PARMESAN CHEESE [PARMESAN CHEESE {PASTEURIZED MILK, CHEESE CULTURE, SALT, ENZYMES}, POTATO STARCH AND POWDERED CELLULOSE {TO PREVENT CAKING}], SWISS CHEESE [SWISS CHEESE {PASTEURIZED MILK, CHEESE CULTURE, SALT, ENZYMES}, POWDERED CELLULOSE {TO PREVENT CAKING}], BUTTER [PASTEURIZED CREAM, NATURAL FLAVORINGS], MODIFIED CORN STARCH, SALT, GARLIC, WHITE PEPPER), SWISS CHEESE (SWISS CHEESE [PASTEURIZED MILK, CHEESE CULTURE, SALT, ENZYMES], POWDERED CELLULOSE [TO PREVENT CAKING]), CHIVES." Date available: 09/15/2017 Date last updated by company: 09/15/2017
