Source: USDA Branded Food Products Database Release December 2017 Software v.3.8.6.4 2017-10-02
Report Run at: December 17, 2017 19:05 EST
"Nutrient data for: 45318721, SCHARFFEN BERGER, ROASTED & SHELLED CACAO BEANS, UPC: 643392500163"
Food Group:  Branded Food Products Database
Common Name:

Nutrient,Unit,Data points,Std. Error,"2.0 Tbsp = 22.0g",1Value per 100 g,
Proximates
"Energy",kcal,--,--,150,682
"Protein",g,--,--,3.00,13.64
"Total lipid (fat)",g,--,--,12.00,54.55
"Carbohydrate, by difference",g,--,--,7.00,31.82
"Fiber, total dietary",g,--,--,1.0,4.5
"Sugars, total",g,--,--,1.00,4.55
Minerals
"Calcium, Ca",mg,--,--,20,91
"Iron, Fe",mg,--,--,2.44,11.07
"Sodium, Na",mg,--,--,0,0
Vitamins
"Vitamin C, total ascorbic acid",mg,--,--,0.0,0.0
"Vitamin A, IU",IU,--,--,0,0
Lipids
"Fatty acids, total saturated",g,--,--,7.999,36.360
"Fatty acids, total trans",g,--,--,0.000,0.000
"Cholesterol",mg,--,--,0,0
Amino Acids
Other
Ingredients
"CACAO NIBS." Date available: 06/25/2017 Date last updated by company: 06/25/2017
