Source: USDA Branded Food Products Database Release December 2017 Software v.3.8.6.4 2017-10-02
Report Run at: December 17, 2017 19:05 EST
"Nutrient data for: 45318747, SCHARFFEN BERGER, MOCHA DARK CHOCOLATE WITH FRESHLY ROASTED COFFEE, UPC: 643392500224"
Food Group:  Branded Food Products Database
Common Name:

Nutrient,Unit,Data points,Std. Error,"0.5 BAR = 43.0g",1Value per 100 g,
Proximates
"Energy",kcal,--,--,200,465
"Protein",g,--,--,3.00,6.98
"Total lipid (fat)",g,--,--,15.00,34.88
"Carbohydrate, by difference",g,--,--,22.00,51.16
"Fiber, total dietary",g,--,--,4.0,9.3
"Sugars, total",g,--,--,16.00,37.21
Minerals
"Calcium, Ca",mg,--,--,0,0
"Iron, Fe",mg,--,--,1.67,3.89
"Sodium, Na",mg,--,--,0,0
Vitamins
"Vitamin C, total ascorbic acid",mg,--,--,0.0,0.0
"Vitamin A, IU",IU,--,--,0,0
Lipids
"Fatty acids, total saturated",g,--,--,10.002,23.260
"Fatty acids, total trans",g,--,--,0.000,0.000
"Cholesterol",mg,--,--,0,0
Amino Acids
Other
Ingredients
"SUGAR;COCOA*;COFFEE; NON-GMO SOY LECITHIN; WHOLE VANILLA BEANS." Date available: 06/25/2017 Date last updated by company: 06/25/2017
