Source: USDA Branded Food Products Database Release December 2017 Software v.3.8.6.4 2017-10-02
Report Run at: December 17, 2017 19:07 EST
"Nutrient data for: 45143009, SCHNUCKS, AUTUMN MIX CANDY, UPC: 041318222227"
Food Group:  Branded Food Products Database
Common Name:

Nutrient,Unit,Data points,Std. Error,"17.0 PCS = 40.0g",1Value per 100 g,
Proximates
"Energy",kcal,--,--,150,375
"Protein",g,--,--,1.00,2.50
"Total lipid (fat)",g,--,--,0.00,0.00
"Carbohydrate, by difference",g,--,--,36.00,90.00
"Fiber, total dietary",g,--,--,0.0,0.0
"Sugars, total",g,--,--,28.00,70.00
Minerals
"Calcium, Ca",mg,--,--,0,0
"Iron, Fe",mg,--,--,0.00,0.00
"Sodium, Na",mg,--,--,55,138
Vitamins
"Vitamin C, total ascorbic acid",mg,--,--,0.0,0.0
"Vitamin A, IU",IU,--,--,0,0
Lipids
"Fatty acids, total saturated",g,--,--,0.000,0.000
"Fatty acids, total trans",g,--,--,0.000,0.000
"Cholesterol",mg,--,--,0,0
Amino Acids
Other
Ingredients
"SUGAR, CORN SYRUP, CONTAINS LESS THAN 2% OF THE FOLLOWING: CONFECTIONER'S GLAZE, SALT, HONEY, NATURAL & ARTIFICIAL FLAVORS, GYLCERINE, EGG WHITES, MINERAL OIL, CARNAUBA WAX, COCONUT OIL, YELLOW 6, RED 40, YELLOW 5, YELLOW 6 LAKE, RED 40 LAKE, BLUE 1 LAKE, BLUE 1, YELLOW 5 LAKE." Date available: 07/14/2017 Date last updated by company: 07/14/2017
