Source: USDA Branded Food Products Database Release December 2017 Software v.3.8.6.4 2017-10-02
Report Run at: December 17, 2017 19:07 EST
"Nutrient data for: 45173742, SCHNUCKS BAKERY, DELUXE PETITE CAKE, GERMAN CHOCOLATE, UPC: 041318311662"
Food Group:  Branded Food Products Database
Common Name:

Nutrient,Unit,Data points,Std. Error,"0.167 CAKE = 76.0g",1Value per 100 g,
Proximates
"Energy",kcal,--,--,270,355
"Protein",g,--,--,3.00,3.95
"Total lipid (fat)",g,--,--,15.00,19.74
"Carbohydrate, by difference",g,--,--,32.00,42.11
"Fiber, total dietary",g,--,--,2.0,2.6
"Sugars, total",g,--,--,22.00,28.95
Minerals
"Calcium, Ca",mg,--,--,20,26
"Iron, Fe",mg,--,--,1.14,1.50
"Sodium, Na",mg,--,--,310,408
Vitamins
"Vitamin C, total ascorbic acid",mg,--,--,0.0,0.0
"Vitamin A, IU",IU,--,--,106,139
Lipids
"Fatty acids, total saturated",g,--,--,5.996,7.890
"Fatty acids, total trans",g,--,--,1.999,2.630
"Cholesterol",mg,--,--,10,13
Amino Acids
Other
Ingredients
"SUGAR, ENRICHED FLOUR BLEACHED (WHEAT FLOUR, NIACIN, IRON, THIAMIN MONONITRATE, RIBOFLAVIN, FOLIC ACID, WATER, SOYBEAN OIL, COCONUT, PARTIALLY HYDROGENATED SOYBEAN AND OR COTTONSEED OIL, EGG WHITES, EGG YOLK, MODIFIED FOOD STARCH, CORN SYRUP, PECANS, COCOA (PROCESSES WITH ALKALI), CONTAINS 2% OR LESS OF THE FOLLOWING: LEAVENING (BAKING SODA, SODIUM ALUMINUM PHOSPHATE, MONOCALCIUM PHOSPHATE), SALT, EMULSIFIERS (PROPYLENE GLYCOL MONO AND DIESTERS OF FATTY ACIDS, MONO AND DIGLYCERIDES, SORBITAN MONOSTEARATE, SOY LECITHIN, POLYSORBATE 60), CAROB POWDER, BUTTERMILK, DEXTROSE, MALTODEXTRIN, NONFAT MILK, SORBIC ACID, TETRA SODIUM PYROPHOSPHATE, AGAR, CHERRIES, XANTHAN GUM, CALCIUM ACETATE, ARTIFICIAL FLAVOR, SODIUM STEAROYL LACTYLATE, CELLULOSE GUM, GUAR GUM, PROPYL GALLATE, GLUCOSE SYRUP, CITRIC ACID AND SODIUM BENZOATE (PRESERVATIVES), CALCIUM CHLORIDE, RED 40, VITAMIN A PALMITATE." Date available: 10/10/2017 Date last updated by company: 10/10/2017
