Source: USDA Branded Food Products Database Release December 2017 Software v.3.8.6.4 2017-10-02
Report Run at: December 17, 2017 19:14 EST
"Nutrient data for: 45068025, SCHWARTAU, EXTRA BLACK CHERRY FRUIT SPREAD, UPC: 804066001014"
Food Group:  Branded Food Products Database
Common Name:

Nutrient,Unit,Data points,Std. Error,"1 Tbsp = 20.0g",1Value per 100 g,
Proximates
"Energy",kcal,--,--,50,250
"Protein",g,--,--,0.00,0.00
"Total lipid (fat)",g,--,--,0.00,0.00
"Carbohydrate, by difference",g,--,--,12.00,60.00
"Sugars, total",g,--,--,9.00,45.00
Minerals
"Sodium, Na",mg,--,--,0,0
Vitamins
Lipids
Amino Acids
Other
Ingredients
"BLACK CHERRIES, SUGAR, GLUCOSE SYRUP, SLOE JUICE, PECTIN, CITRIC ACID (ACIDULANT)." Date available: 07/14/2017 Date last updated by company: 07/14/2017
