Source: USDA Branded Food Products Database Release December 2017 Software v.3.8.6.4 2017-10-02
Report Run at: December 17, 2017 19:15 EST
"Nutrient data for: 45178059, SCONES, UPC: 717887220024"
Food Group:  Branded Food Products Database
Common Name:

Nutrient,Unit,Data points,Std. Error,"1 SCONE = 38.0g",1Value per 100 g,
Proximates
"Energy",kcal,--,--,160,421
"Protein",g,--,--,2.00,5.26
"Total lipid (fat)",g,--,--,7.00,18.42
"Carbohydrate, by difference",g,--,--,22.00,57.89
"Fiber, total dietary",g,--,--,0.0,0.0
"Sugars, total",g,--,--,11.00,28.95
Minerals
"Calcium, Ca",mg,--,--,20,53
"Iron, Fe",mg,--,--,1.04,2.74
"Sodium, Na",mg,--,--,130,342
Vitamins
"Vitamin C, total ascorbic acid",mg,--,--,0.0,0.0
"Vitamin A, IU",IU,--,--,290,762
Lipids
"Fatty acids, total saturated",g,--,--,4.001,10.530
"Fatty acids, total trans",g,--,--,0.000,0.000
"Cholesterol",mg,--,--,10,26
Amino Acids
Other
Ingredients
"SCONE MIX (ENRICHED WHEAT FLOUR [WHEAT FLOUR, NIACIN, IRON, THIAMINE MONONITRATE, RIBOFLAVIN, FOLIC ACID], SUGAR, LEAVENING [BAKING POWDER, SODIUM BICARBONATE, ENCAPSULATED SODIUM BICARBONATE, MONO DIGLYCERIDES], SALT, ORANGE PEEL), CINNAMON DROPS (SUGAR, PALM OIL, CINNAMON, NON FAT DRY MILK, SOY LECITHIN [EMULSIFIER]), WATER, POWDERED SUGAR (SUGAR, CORNSTARCH), BUTTER (FROM MILK), MARGARINE (PALM OIL, WATER, SOYBEAN OIL, SALT, WHEY [FROM MILK], MONO DIGLYCERIDES, SOY LECITHIN, NATURAL FLAVOR, BETA CAROTENE [COLOR], VITAMIN A PALMITATE ADDED), WHOLE EGGS, BUTTERMILK, CINNAMON FLAVOR (PROPYLENE GLYCOL, ETHYL ALCOHOL), CINNAMON, SUGAR, VANILLA EXTRACT (WATER, ETHYL ALCOHOL, VANILLA BEANS EXTRACTIVES), CORN SYRUP, GUM ACACIA, CANOLA OIL, SALT, MODIFIED RICE STARCH, GINGER, ALLSPICE, NUTMEG, GROUND CLOVES." Date available: 07/14/2017 Date last updated by company: 07/14/2017
