Source: USDA Branded Food Products Database Release December 2017 Software v.3.8.6.4 2017-10-02
Report Run at: December 17, 2017 19:17 EST
"Nutrient data for: 45273077, SCORCHING SCORPION, SCORPION PEPPER HOT SAUCE, UPC: 856682005068"
Food Group:  Branded Food Products Database
Common Name:

Nutrient,Unit,Data points,Std. Error,"1 ONZ = 28.0g",1Value per 100 g,
Proximates
"Energy",kcal,--,--,10,36
"Protein",g,--,--,0.00,0.00
"Total lipid (fat)",g,--,--,0.00,0.00
"Carbohydrate, by difference",g,--,--,2.00,7.14
"Fiber, total dietary",g,--,--,0.0,0.0
"Sugars, total",g,--,--,1.00,3.57
Minerals
"Calcium, Ca",mg,--,--,0,0
"Iron, Fe",mg,--,--,0.00,0.00
"Sodium, Na",mg,--,--,100,357
Vitamins
"Vitamin C, total ascorbic acid",mg,--,--,24.0,85.7
"Vitamin A, IU",IU,--,--,100,357
Lipids
"Fatty acids, total saturated",g,--,--,0.000,0.000
"Cholesterol",mg,--,--,0,0
Amino Acids
Other
Ingredients
"SCORPION PEPPERS, VINEGAR, CARROTS, SALT, GARLIC POWDER." Date available: 07/14/2017 Date last updated by company: 07/14/2017
