Source: USDA Branded Food Products Database Release December 2017 Software v.3.8.6.4 2017-10-02
Report Run at: December 17, 2017 19:22 EST
"Nutrient data for: 45139490, SEA CUISINE, STOUT SPIKED BBQ SALMON, UPC: 035493014876"
Food Group:  Branded Food Products Database
Common Name:

Nutrient,Unit,Data points,Std. Error,"1 FILLET = 140.0g",1Value per 100 g,
Proximates
"Energy",kcal,--,--,200,143
"Protein",g,--,--,27.01,19.29
"Total lipid (fat)",g,--,--,6.01,4.29
"Carbohydrate, by difference",g,--,--,7.99,5.71
"Fiber, total dietary",g,--,--,0.0,0.0
"Sugars, total",g,--,--,5.00,3.57
Minerals
"Calcium, Ca",mg,--,--,20,14
"Iron, Fe",mg,--,--,0.43,0.31
"Sodium, Na",mg,--,--,290,207
Vitamins
"Vitamin C, total ascorbic acid",mg,--,--,0.0,0.0
"Vitamin A, IU",IU,--,--,122,87
Lipids
"Fatty acids, total saturated",g,--,--,0.994,0.710
"Fatty acids, total trans",g,--,--,0.000,0.000
"Cholesterol",mg,--,--,55,39
Amino Acids
Other
Ingredients
"SALMON, WATER, BEER ( WATER, MALTED BARLEY, BARLEY, ROASTED BARLEY, HOPS, YEAST), SUGAR, CONTAINS 2% OR LESS OF: BROWN SUGAR, INVERT SUGAR SYRUP, TOMATO PASTE, ONION POWDER, GELATIN DEHYDRATED ONION, VINEGAR, DEHYDRATED GARLIC, SALT, SMOKE POWDERS (MALTODEXTRIN, HICKORY AND MESQUITE FLAVORS) SHALLOTS, GUAR GUM, MOLASSES, YEAST EXTRACT, CORN SYRUP, GARLIC POWDER, CORN STARCH, GUM ARABIC, METHYLCELLULOSE, NATURAL SMOKE FLAVOR, CONCENTRATED PINEAPPLE JUICE, BARLEY MALT EXTRACT, CARAMELIZED SUGAR SYRUP, TAMARIND PURE (TARTARIC ACID), SPICES, MALTODEXTRIN, NATURAL FLAVORS, CARAMEL COLOR" Date available: 07/14/2017 Date last updated by company: 07/14/2017
