Source: USDA Branded Food Products Database Release December 2017 Software v.3.8.6.4 2017-10-02
Report Run at: December 17, 2017 19:35 EST
"Nutrient data for: 45274615, SEA SALT & VINEGAR POTATO CHIPS, UPC: 492860100332"
Food Group:  Branded Food Products Database
Common Name:

Nutrient,Unit,Data points,Std. Error,"1 PACKAGE = 43.0g",1Value per 100 g,
Proximates
"Energy",kcal,--,--,210,488
"Protein",g,--,--,3.00,6.98
"Total lipid (fat)",g,--,--,11.00,25.58
"Carbohydrate, by difference",g,--,--,25.00,58.14
"Fiber, total dietary",g,--,--,2.0,4.7
"Sugars, total",g,--,--,1.00,2.33
Minerals
"Calcium, Ca",mg,--,--,20,47
"Iron, Fe",mg,--,--,0.84,1.95
"Sodium, Na",mg,--,--,360,837
Vitamins
"Vitamin C, total ascorbic acid",mg,--,--,10.4,24.3
"Vitamin A, IU",IU,--,--,0,0
Lipids
"Fatty acids, total saturated",g,--,--,1.002,2.330
"Fatty acids, total trans",g,--,--,0.000,0.000
"Cholesterol",mg,--,--,0,0
Amino Acids
Other
Ingredients
"POTATOES, SUNFLOWER OIL AND/OR CORN OIL, LACTOSE, SODIUM DIACETATE, SEA SALT, VINEGAR POWDER (MALTODEXTRIN, WHITE DISTILLED VINEGAR, MODIFIED CORN STARCH), MALIC ACID, SODIUM CITRATE." Date available: 07/14/2017 Date last updated by company: 07/14/2017
