Source: USDA Branded Food Products Database Release December 2017 Software v.3.8.6.4 2017-10-02
Report Run at: December 17, 2017 19:31 EST
"Nutrient data for: 45023480, SEA SALT DARK CHOCOLATE, UPC: 24041263"
Food Group:  Branded Food Products Database
Common Name:

Nutrient,Unit,Data points,Std. Error,"0.5 BAR = 43.0g",1Value per 100 g,
Proximates
"Energy",kcal,--,--,220,512
"Protein",g,--,--,2.00,4.65
"Total lipid (fat)",g,--,--,17.00,39.53
"Carbohydrate, by difference",g,--,--,21.00,48.84
"Fiber, total dietary",g,--,--,2.0,4.7
"Sugars, total",g,--,--,15.00,34.88
Minerals
"Calcium, Ca",mg,--,--,20,47
"Iron, Fe",mg,--,--,3.14,7.30
"Sodium, Na",mg,--,--,125,291
Vitamins
"Vitamin C, total ascorbic acid",mg,--,--,0.0,0.0
"Vitamin A, IU",IU,--,--,0,0
Lipids
"Fatty acids, total saturated",g,--,--,10.002,23.260
"Fatty acids, total trans",g,--,--,0.000,0.000
"Cholesterol",mg,--,--,0,0
Amino Acids
Other
Ingredients
"DARK CHOCOLATE (CHOCOLATE LIQUOR, SUGAR, COCOA BUTTER,SOY LECITHIN(AN EMULSIFIER), VANILLA), SEA SALT." Date available: 06/25/2017 Date last updated by company: 06/25/2017
