Source: USDA Branded Food Products Database Release December 2017 Software v.3.8.6.4 2017-10-02
Report Run at: December 17, 2017 19:21 EST
"Nutrient data for: 45045432, SEA BEST, SIGNATURE TILAPIA FLORENTINE, UPC: 075391032374"
Food Group:  Branded Food Products Database
Common Name:

Nutrient,Unit,Data points,Std. Error,"1 PORTION = 141.0g",1Value per 100 g,
Proximates
"Energy",kcal,--,--,190,135
"Protein",g,--,--,16.00,11.35
"Total lipid (fat)",g,--,--,11.00,7.80
"Carbohydrate, by difference",g,--,--,5.01,3.55
"Fiber, total dietary",g,--,--,3.0,2.1
"Sugars, total",g,--,--,1.00,0.71
Minerals
"Calcium, Ca",mg,--,--,149,106
"Iron, Fe",mg,--,--,1.09,0.77
"Sodium, Na",mg,--,--,381,270
Vitamins
"Vitamin C, total ascorbic acid",mg,--,--,3.0,2.1
"Vitamin A, IU",IU,--,--,3315,2351
Lipids
"Fatty acids, total saturated",g,--,--,5.005,3.550
"Fatty acids, total trans",g,--,--,0.000,0.000
"Cholesterol",mg,--,--,49,35
Amino Acids
Other
Ingredients
"TILAPIA, CHOPPED SPINACH, ROASTED GARLIC PARMESAN BUTTER SAUCE (NATURAL FLAVORS, DEHYDRATED GARLIC, PARTIALLY HYDROGENATED VEGETABLE OIL [SOYBEAN, COTTONSEED], COCONUT OIL, PARMESAN CHEESE [MILK, SALT, CULTURE, ENZYMES], SALT, DEHYDRATED ONION, MALTODEXTRIN, WHEY PROTEIN CONCENTRATE, ROMANO CHEESE [PASTEURIZED MILK, CHEESE CULTURES, SALT, ENZYMES], MODIFIED FOOD STARCH, WHEY SOLIDS, SUGAR, YEAST EXTRACT, PARSLEY, SODIUM CASEINATE [A MILK DERIVATIVE], ANNATTO EXTRACT, TURMERIC, AND NOT MORE THAN 2% SILICON DIOXIDE ADDED AS A PROCESSING AID), CREAM CHEESE (CULTURED PASTEURIZED MILK & CREAM, SALT, STABILIZERS [XANTHAN, LOCUST BEAN & GUAR GUM]), MOZZARELLA CHEESE (PASTEURIZED MILK, CHEESE CULTURE, SALT, ENZYMES, POWDERED CELLULOSE AND DEXTROSE [ADDED TO PREVENT CAKING]), HEAVY CREAM (CREAM AND LESS THAN 2% OF [MONO AND DIGLYCERIDES, CARRAGEENAN, POLYSORBATE 80, CELLULOSE GUM, GUAR GUM ADDED AS EMULSIFIERS AND STABILIZERS]), RED PEPPERS (DICED RED PEPPERS, WATER, SALT, CITRIC ACID AND CALCIUM CHLORIDE), OLIVE OIL BLEND (CANOLA AND / OR SOYBEAN OIL, EXTRA VIRGIN OLIVE OIL, BETA CAROTENE [COLOR]), GRATED PARMESAN CHEESE (PASTEURIZED PART SKIM COW'S MILK, CHEESE CULTURE, SALT, ENZYMES, POWDERED CELLULOSE [ANTI CAKING AGENT], CALCIUM PROPIONATE [PRESERVATIVES]), KOSHER SALT, WHOLE LEAF BASIL, GARLIC POWDER, BLACK PEPPER." Date available: 06/24/2017 Date last updated by company: 06/24/2017
