Source: USDA Branded Food Products Database Release December 2017 Software v.3.8.6.4 2017-10-02
Report Run at: December 17, 2017 19:33 EST
"Nutrient data for: 45216541, SEA SALT POPCORN, UPC: 635209101038"
Food Group:  Branded Food Products Database
Common Name:

Nutrient,Unit,Data points,Std. Error,"1 cup = 14.0g",1Value per 100 g,
Proximates
"Energy",kcal,--,--,80,571
"Protein",g,--,--,1.00,7.14
"Total lipid (fat)",g,--,--,6.00,42.86
"Carbohydrate, by difference",g,--,--,6.00,42.86
"Fiber, total dietary",g,--,--,1.0,7.1
Minerals
"Sodium, Na",mg,--,--,85,607
Vitamins
Lipids
"Fatty acids, total saturated",g,--,--,1.000,7.140
Amino Acids
Other
Ingredients
"POPCORN, NON-GMO CANOLA OIL, SALT." Date available: 10/19/2017 Date last updated by company: 10/19/2017
