Source: USDA Branded Food Products Database Release December 2017 Software v.3.8.6.4 2017-10-02
Report Run at: December 17, 2017 19:30 EST
"Nutrient data for: 45260233, SEA SALT CARAMEL TRUFFLES, UPC: 5019960014663"
Food Group:  Branded Food Products Database
Common Name:

Nutrient,Unit,Data points,Std. Error,"0.42 ONZ = 12.0g",1Value per 100 g,
Proximates
"Energy",kcal,--,--,60,500
"Protein",g,--,--,1.00,8.33
"Total lipid (fat)",g,--,--,3.50,29.17
"Carbohydrate, by difference",g,--,--,7.00,58.33
"Fiber, total dietary",g,--,--,0.3,2.5
"Sugars, total",g,--,--,6.00,50.00
Minerals
"Calcium, Ca",mg,--,--,20,167
"Iron, Fe",mg,--,--,1.50,12.49
"Sodium, Na",mg,--,--,19,158
Vitamins
"Vitamin C, total ascorbic acid",mg,--,--,0.0,0.0
"Vitamin A, IU",IU,--,--,0,0
Lipids
"Fatty acids, total saturated",g,--,--,2.000,16.670
"Fatty acids, total trans",g,--,--,0.000,0.000
"Cholesterol",mg,--,--,2,17
Amino Acids
Other
Ingredients
"MILK CHOCOLATE (70.1%) (SUGAR, COCOA FAT, DRY WHOLE MILK, UNSWEETENED CHOCOLATE, SOY LECITHIN ADDED AS EMULSIFIER, NATURAL VANILLA FLAVOR), INVERTED SUGAR SYRUP, SUGAR CONFECTIONERY (9.1%) (GLUCOSE SYRUP (WHEAT), EVAPORATED MILK (NON-FAT MILK, SUGAR), HYDROGENATED VEGETABLE FAT (COCONUT, PALM KERNEL), SALT, ARTIFICIAL FLAVORS, MONO- & DI-GLYCERIDES OF FAT-FORMING ACIDS (AN EMULSIFIER)), ICING SUGAR (CANE SUGAR, TRICALCIUM PHOSPHATE ADDED AS ANTI-CAKING AGENT), SEA SALT (0.38%)" Date available: 07/14/2017 Date last updated by company: 07/14/2017
