Source: USDA Branded Food Products Database Release December 2017 Software v.3.8.6.4 2017-10-02
Report Run at: December 17, 2017 19:35 EST
"Nutrient data for: 45183929, SEA SCALLOPS, UPC: 0079300851889"
Food Group:  Branded Food Products Database
Common Name:

Nutrient,Unit,Data points,Std. Error,"4.0 OUNCES = 112.0g",1Value per 100 g,
Proximates
"Energy",kcal,--,--,100,89
"Protein",g,--,--,19.00,16.96
"Total lipid (fat)",g,--,--,1.00,0.89
"Carbohydrate, by difference",g,--,--,3.00,2.68
"Fiber, total dietary",g,--,--,0.0,0.0
"Sugars, total",g,--,--,0.00,0.00
Minerals
"Calcium, Ca",mg,--,--,20,18
"Iron, Fe",mg,--,--,0.00,0.00
"Sodium, Na",mg,--,--,240,214
Vitamins
"Vitamin C, total ascorbic acid",mg,--,--,0.0,0.0
"Vitamin A, IU",IU,--,--,0,0
Lipids
"Fatty acids, total saturated",g,--,--,0.000,0.000
"Fatty acids, total trans",g,--,--,0.000,0.000
"Cholesterol",mg,--,--,35,31
Amino Acids
Other
Ingredients
"SEA SCALLOPS." Date available: 07/14/2017 Date last updated by company: 07/14/2017
