Source: USDA Branded Food Products Database Release December 2017 Software v.3.8.6.4 2017-10-02
Report Run at: December 17, 2017 19:24 EST
"Nutrient data for: 45281753, SEAFOOD LOBSTER DIP & SPREAD, UPC: 722223124140"
Food Group:  Branded Food Products Database
Common Name:

Nutrient,Unit,Data points,Std. Error,"1 tsp = 6.0g",1Value per 100 g,
Proximates
"Energy",kcal,--,--,24,400
"Protein",g,--,--,0.40,6.67
"Total lipid (fat)",g,--,--,2.50,41.67
"Carbohydrate, by difference",g,--,--,0.70,11.67
"Fiber, total dietary",g,--,--,0.0,0.0
"Sugars, total",g,--,--,0.20,3.33
Minerals
"Calcium, Ca",mg,--,--,0,0
"Iron, Fe",mg,--,--,0.00,0.00
"Sodium, Na",mg,--,--,55,917
Vitamins
"Vitamin C, total ascorbic acid",mg,--,--,0.0,0.0
Lipids
"Fatty acids, total saturated",g,--,--,0.100,1.670
"Fatty acids, total trans",g,--,--,0.000,0.000
"Cholesterol",mg,--,--,2,28
Amino Acids
Other
Ingredients
"SURIMI (WILD ALASKAN POLLOCK AND/OR PACIFIC WHITING, WATER, STARCHES, SUGAR, EGG WHITE, SOYBEAN OIL, SORBITOL, SALT), MAYONNAISE (SOYBEAN OIL, WATER, EGG YOLK, CORN SYRUP, VINEGAR, HIGH FRUCTOSE, SPICES, SALT, CALCIUM DISSODIUM EDTA), LOBSTER, STARCH, BUTTER POWDER, NATURAL FLAVORS, < 0.1% POT. SORBATE" Date available: 07/14/2017 Date last updated by company: 07/14/2017
