Source: USDA Branded Food Products Database Release December 2017 Software v.3.8.6.4 2017-10-02
Report Run at: December 17, 2017 19:26 EST
"Nutrient data for: 45258225, SEAFOOD SALAD, UPC: 782796023424"
Food Group:  Branded Food Products Database
Common Name:

Nutrient,Unit,Data points,Std. Error,"0.5 cup = 100.0g",1Value per 100 g,
Proximates
"Energy",kcal,--,--,110,110
"Protein",g,--,--,4.00,4.00
"Total lipid (fat)",g,--,--,4.50,4.50
"Carbohydrate, by difference",g,--,--,12.00,12.00
"Fiber, total dietary",g,--,--,1.0,1.0
"Sugars, total",g,--,--,3.00,3.00
Minerals
"Calcium, Ca",mg,--,--,80,80
"Iron, Fe",mg,--,--,0.00,0.00
"Sodium, Na",mg,--,--,480,480
Vitamins
"Vitamin C, total ascorbic acid",mg,--,--,5.0,5.0
"Vitamin A, IU",IU,--,--,140,140
Lipids
"Fatty acids, total saturated",g,--,--,0.000,0.000
"Fatty acids, total trans",g,--,--,0.000,0.000
"Cholesterol",mg,--,--,20,20
Amino Acids
Other
Ingredients
"IMITATION CRAB (POLLOCK, WATER, WHEAT STARCH, EGG WHITE, MODIFIED TAPIOCA STARCH, SUGAR, SORBITOL, RICE WINE (WATER, SUGAR, ALCOHOL, RICE, SALT), CONTAINS LESS THAN 2% OF CARMINE, CARRAGEENAN, COLOR ADDED, DISODIUM 'NOS:NATE & GUANYLATE, HYDROLYZED CORN, SOY & WHEAT PROTEIN, NATURAL & ARTIFICIAL CRAB FLAVOR, SODIUM TRIPOLYPHOSPHATE, TETRASODIUM PYROPHOSPHATE), IMITATION CRAB (FISH PROTEIN (POLLOCK AND/OR PACIFIC WHITING), WATER, WHEAT STARCH, RICE WINE (WATER SUGAR, ALCOHOL, RICE, SALT), EGG WHITE, SUGAR, SORBITOL, SOYBEAN OIL, CONTAINS 2% OR LESS OF: NATURAL & ARTIFICIAL FLAVORS, SALT, MODIFIED TAPIOCA STARCH, POTATO STARCH, CALCIUM CARBONATE, CARRAGEENAN, POTASSIUM CHLORIDE ISOLATED SOY PROTEIN, WHEAT GLUTEN, OAT FIBER, HYDROLYZED CORN PROTEIN, AUTOLYZED YEAST EXTRACT, SODIUM TRIPOLYPHOSPHATE, TETRASODIUM PYROPHOSPHATE, CARMINE, COLOR ADDED), MAYONNAISE (WATER, CANOLA OIL, EGG YOLK, DISTILLED VINEGAR, MODIFIED CORN STARCH, SUGAR, SALT, MUSTARD FLOUR, LEMON JUICE CONCENTRATE, XANTHAN GUM), CELERY, GREEN ONIONS, PARSLEY, LEMON JUICE, LIME JUICE, BLACK PEPPER." Date available: 07/14/2017 Date last updated by company: 07/14/2017
