Source: USDA Branded Food Products Database Release December 2017 Software v.3.8.6.4 2017-10-02
Report Run at: December 17, 2017 19:24 EST
"Nutrient data for: 45284689, SEAFOOD GUMBO, UPC: 667046005187"
Food Group:  Branded Food Products Database
Common Name:

Nutrient,Unit,Data points,Std. Error,"1 CUP = 235.0g",1Value per 100 g,
Proximates
"Energy",kcal,--,--,181,77
"Protein",g,--,--,18.00,7.66
"Total lipid (fat)",g,--,--,5.99,2.55
"Carbohydrate, by difference",g,--,--,12.01,5.11
"Fiber, total dietary",g,--,--,0.9,0.4
"Sugars, total",g,--,--,3.01,1.28
Minerals
"Calcium, Ca",mg,--,--,80,34
"Iron, Fe",mg,--,--,1.50,0.64
"Sodium, Na",mg,--,--,590,251
Vitamins
"Vitamin C, total ascorbic acid",mg,--,--,3.8,1.6
"Vitamin A, IU",IU,--,--,313,133
Lipids
"Fatty acids, total saturated",g,--,--,1.504,0.640
"Cholesterol",mg,--,--,120,51
Amino Acids
Other
Ingredients
"WATER, FRESH YELLOW ONIONS, CRAWFISH, SHRIMP, CRAB MEAT, ROUX (ENRICHED FLOUR, COTTONSEED OIL, PARTIALLY HYDROGENATED PALM OIL, TENOX 20), CELERY, CRAB BASE (COOKED CRAB MEAT, SALT, HYDROLYZED CORN. SOY, GLUTEN PROTEIN, MALTODEXTRIN, DRIED POTATO FLAKES, CLARIFIED BUTTER OIL, NATURAL FLAVOR, DRIED LOBSTER EXTRACT, AUTOLYZED YEAST EXTRACT, XANTHAN GUM, DISODIUM INOSINATE, DISODIUM GUANYLATE), SALT, SPICES." Date available: 07/14/2017 Date last updated by company: 07/14/2017
