Source: USDA Branded Food Products Database Release December 2017 Software v.3.8.6.4 2017-10-02
Report Run at: December 17, 2017 19:23 EST
"Nutrient data for: 45222245, SEAFOOD BISQUE, UPC: 856112004081"
Food Group:  Branded Food Products Database
Common Name:

Nutrient,Unit,Data points,Std. Error,"1 cup = 227.0g",1Value per 100 g,
Proximates
"Energy",kcal,--,--,261,115
"Protein",g,--,--,5.99,2.64
"Total lipid (fat)",g,--,--,21.00,9.25
"Carbohydrate, by difference",g,--,--,11.01,4.85
"Fiber, total dietary",g,--,--,0.9,0.4
"Sugars, total",g,--,--,3.00,1.32
Minerals
"Calcium, Ca",mg,--,--,41,18
"Iron, Fe",mg,--,--,0.77,0.34
"Sodium, Na",mg,--,--,931,410
Vitamins
"Vitamin C, total ascorbic acid",mg,--,--,5.2,2.3
"Vitamin A, IU",IU,--,--,1081,476
Lipids
"Fatty acids, total saturated",g,--,--,13.007,5.730
"Fatty acids, total trans",g,--,--,0.000,0.000
"Cholesterol",mg,--,--,84,37
Amino Acids
Other
Ingredients
"WATER, DICED TOMATOES (TOMATOES, CITRIC ACID, CALCIUM CHLORIDE), CREAM (MILK), PACIFIC COD, BUTTER (CREAM {MILK}), FLOUR (WHEAT FLOUR, NIACIN, REDUCED IRON, THIAMIN MONONITRATE, RIBOFLAVIN, FOLIC ACID), SHRIMP (SHRIMP MEAT WITH SALT ADDED), LOBSTER BASE (LOBSTER, SALT, AUTOLYZED YEAST, MALTODEXTRIN {FROM CORN}, BUTTER {CREAM, FLAVORINGS}, SHRIMP, MODIFIED POTATO STARCH, FLAVORINGS, ONION POWDER, CARAMEL COLOR, CITRIC ACID, SCALLOPS, EXTRACTIVE OF PAPRIKA, SPICES), KETA SALMON, ROCK CRAB (CRAB, WATER, SALT), CRAB BASE (BAKED CRAB MEAT INCLUDING NATURAL CRAB JUICES, SALT, SUGAR, MALTODEXTRIN {FROM CORN}, MODIFIED POTATO STARCH, BUTTER {CREAM, FLAVORINGS}, CORN OIL, NATURAL FLAVORINGS, ONION POWDER), POTATO STARCH, BASIL, DEHYDRATED GARLIC, SPICE." Date available: 07/14/2017 Date last updated by company: 07/14/2017
