Source: USDA Branded Food Products Database Release December 2017 Software v.3.8.6.4 2017-10-02
Report Run at: December 17, 2017 19:26 EST
"Nutrient data for: 45197372, SEAFOOD SALAD, UPC: 047502197005"
Food Group:  Branded Food Products Database
Common Name:

Nutrient,Unit,Data points,Std. Error,"1 UNIT = 113.0g",1Value per 100 g,
Proximates
"Energy",kcal,--,--,220,195
"Protein",g,--,--,4.00,3.54
"Total lipid (fat)",g,--,--,15.00,13.27
"Carbohydrate, by difference",g,--,--,18.00,15.93
"Fiber, total dietary",g,--,--,1.0,0.9
"Sugars, total",g,--,--,4.00,3.54
Minerals
"Calcium, Ca",mg,--,--,20,18
"Iron, Fe",mg,--,--,0.45,0.40
"Sodium, Na",mg,--,--,770,681
Vitamins
"Vitamin C, total ascorbic acid",mg,--,--,2.9,2.6
"Vitamin A, IU",IU,--,--,372,329
Lipids
"Fatty acids, total saturated",g,--,--,2.000,1.770
"Fatty acids, total trans",g,--,--,0.000,0.000
"Cholesterol",mg,--,--,10,9
Amino Acids
Other
Ingredients
"IMITATION CRAB (WATER, FISH PROTEIN [ALASKAN POLLOCK, AND/OR PACIFIC WHITING], POTATO STARCH, SORBITOL, WHEAT STARCH, SUGAR, WHEAT FLOUR, SALT, MIRIN [CORN SYRUP, FERMENTED RICE EXTRACT, WATER, SALT], SOYBEAN OIL, NATURAL AND ARTIFICIAL FLAVORS [HYDROLYZED SOY PROTEIN, CRAB EXTRACT], EGG WHITES, SOY LECITHIN, SODIUM TRIPOLYPHOSPHATE, TETRASODIUM PYROPHOSPHATE, COLOR ADDED [CARMINE, PAPRIKA, CANTHAXANTHIN, TITANIUM DIOXIDE]), MAYONNAISE (SOYBEAN OIL, CORN SYRUP, DISTILLED AND CIDER VINEGAR, EGGS, EGG YOLKS), CELERY ONIONS, WATER, CARROTS, CONTAINS 2% OR LESS: GARLIC, VINEGAR, LEMON JUICE CONCENTRATE, CITRIC ACID, SALT, XANTHAN GUM, SPICES, CALCIUM DISODIUM EDTA (ADDED TO PROTECT FLAVOR), NATURAL FLAVORS, SODIUM BENZOATE AND POTASSIUM SORBATE (ADDED TO MAINTAIN FRESHNESS)." Date available: 07/14/2017 Date last updated by company: 07/14/2017
