Source: USDA Branded Food Products Database Release December 2017 Software v.3.8.6.4 2017-10-02
Report Run at: December 17, 2017 19:36 EST
"Nutrient data for: 45145245, SEASIDE POP POPCORN SALTED CARAMEL, UPC: 020685001673"
Food Group:  Branded Food Products Database
Common Name:

Nutrient,Unit,Data points,Std. Error,"1.63 CUPS | ABOUT = 46.1g",1Value per 100 g,
Proximates
"Energy",kcal,--,--,200,434
"Protein",g,--,--,3.00,6.51
"Total lipid (fat)",g,--,--,11.00,23.86
"Carbohydrate, by difference",g,--,--,27.00,58.57
"Fiber, total dietary",g,--,--,6.0,13.0
"Sugars, total",g,--,--,6.00,13.02
Minerals
"Calcium, Ca",mg,--,--,0,0
"Iron, Fe",mg,--,--,0.00,0.00
"Sodium, Na",mg,--,--,330,716
Vitamins
"Vitamin C, total ascorbic acid",mg,--,--,0.0,0.0
"Vitamin A, IU",IU,--,--,0,0
Lipids
"Fatty acids, total saturated",g,--,--,1.000,2.170
"Fatty acids, total monounsaturated",g,--,--,6.002,13.020
"Fatty acids, total polyunsaturated",g,--,--,3.001,6.510
"Fatty acids, total trans",g,--,--,0.000,0.000
"Cholesterol",mg,--,--,0,0
Amino Acids
Other
Ingredients
"POPCORN, CANOLA OIL, SUGAR, SALT, MALTODEXTRIN, BUTTER ( CREAM, SALT), DRY MOLASSES, NATURAL FLAVOR, REBAUDIOSIDE A, CARAMEL COLOR." Date available: 07/14/2017 Date last updated by company: 07/14/2017
