Source: USDA Branded Food Products Database Release December 2017 Software v.3.8.6.4 2017-10-02
Report Run at: December 17, 2017 19:39 EST
"Nutrient data for: 45003231, SEASONED CHEESE CURLS, UPC: 072600081154"
Food Group:  Branded Food Products Database
Common Name:

Nutrient,Unit,Data points,Std. Error,"15.0 CURLS, PER CONTAINER ABOUT = 28.0g",1Value per 100 g,
Proximates
"Energy",kcal,--,--,160,571
"Protein",g,--,--,1.00,3.57
"Total lipid (fat)",g,--,--,10.00,35.71
"Carbohydrate, by difference",g,--,--,15.00,53.57
"Fiber, total dietary",g,--,--,0.0,0.0
"Sugars, total",g,--,--,1.00,3.57
Minerals
"Calcium, Ca",mg,--,--,0,0
"Iron, Fe",mg,--,--,0.64,2.29
"Sodium, Na",mg,--,--,480,1714
Vitamins
"Vitamin C, total ascorbic acid",mg,--,--,0.0,0.0
"Vitamin A, IU",IU,--,--,179,638
Lipids
"Fatty acids, total saturated",g,--,--,2.999,10.710
"Fatty acids, total trans",g,--,--,0.000,0.000
"Cholesterol",mg,--,--,0,0
Amino Acids
Other
Ingredients
"CORN MEAL, VEGETABLE OIL (ONE OR MORE OF THE FOLLOWING: CORN, COTTONSEED, PALM), MALTODEXTRIN, WHEY, MONOSODIUM GLUTAMATE, CHEDDAR CHEESE (PASTEURIZED CHEESE, CULTURE, SALT, ENZYMES), SUNFLOWER OIL, NONFAT MILK, PAPRIKA, SODIUM DIACETATE, ARTIFICIAL COLORS, LACTIC ACID, AND RED PEPPER." Date available: 08/31/2017 Date last updated by company: 08/31/2017
