Source: USDA Branded Food Products Database Release December 2017 Software v.3.8.6.4 2017-10-02
Report Run at: December 17, 2017 19:48 EST
"Nutrient data for: 45148700, SEASONED TORTILLA CHIPS, UPC: 079426285452"
Food Group:  Branded Food Products Database
Common Name:

Nutrient,Unit,Data points,Std. Error,"9.0 CHIPS | ABOUT = 28.0g",1Value per 100 g,
Proximates
"Energy",kcal,--,--,150,536
"Protein",g,--,--,1.00,3.57
"Total lipid (fat)",g,--,--,11.00,39.29
"Carbohydrate, by difference",g,--,--,13.00,46.43
"Fiber, total dietary",g,--,--,1.0,3.6
"Sugars, total",g,--,--,0.00,0.00
Minerals
"Calcium, Ca",mg,--,--,0,0
"Iron, Fe",mg,--,--,3.21,11.48
"Sodium, Na",mg,--,--,240,857
Vitamins
"Vitamin C, total ascorbic acid",mg,--,--,0.0,0.0
"Vitamin A, IU",IU,--,--,0,0
Lipids
"Fatty acids, total saturated",g,--,--,2.500,8.930
"Fatty acids, total trans",g,--,--,0.000,0.000
"Cholesterol",mg,--,--,0,0
Amino Acids
Other
Ingredients
"CORN MASA FLOUR, VEGETABLE OIL (MAY CONTAIN ONE OR MORE OF THE FOLLOWING: CANOLA OIL AND/OR COTTONSEED OIL AND/OR SOYBEAN OIL), SALT, DEHYDRATED GARLIC, CORN SYRUP SOLIDS, PAPRIKA (COLOR), SPICES, MALTODEXTRIN, DEHYDRATED ONION, CHILI PEPPER, DISODIUM INOSINATE, AND DISODIUM GUANYLATE, EXTRACTIVES OF PAPRIKA (COLOR)." Date available: 07/14/2017 Date last updated by company: 07/14/2017
