Source: USDA Branded Food Products Database Release December 2017 Software v.3.8.6.4 2017-10-02
Report Run at: December 17, 2017 19:38 EST
"Nutrient data for: 45195238, SEASONED BEEF RANCH STEAKS, UPC: 027182024303"
Food Group:  Branded Food Products Database
Common Name:

Nutrient,Unit,Data points,Std. Error,"6.0 ONZ = 170.0g",1Value per 100 g,
Proximates
"Energy",kcal,--,--,190,112
"Protein",g,--,--,31.99,18.82
"Total lipid (fat)",g,--,--,7.00,4.12
"Carbohydrate, by difference",g,--,--,1.00,0.59
"Fiber, total dietary",g,--,--,0.0,0.0
"Sugars, total",g,--,--,0.00,0.00
Minerals
"Calcium, Ca",mg,--,--,0,0
"Iron, Fe",mg,--,--,1.80,1.06
"Sodium, Na",mg,--,--,660,388
Vitamins
"Vitamin C, total ascorbic acid",mg,--,--,0.0,0.0
"Vitamin A, IU",IU,--,--,0,0
Lipids
"Fatty acids, total saturated",g,--,--,2.992,1.760
"Cholesterol",mg,--,--,100,59
Amino Acids
Other
Ingredients
"BEEF, WATER, SEASONING (MALTODEXTRIN, SALT, FLAVORS, BEEF FAT, BEEF STOCK, CITRIC ACID), VINEGAR, AND SALT." Date available: 07/14/2017 Date last updated by company: 07/14/2017
