Source: USDA Branded Food Products Database Release December 2017 Software v.3.8.6.4 2017-10-02
Report Run at: December 17, 2017 19:40 EST
"Nutrient data for: 45202897, SEASONED & COOKED WHITE MEAT PULLED CHICKEN, UPC: 811663023011"
Food Group:  Branded Food Products Database
Common Name:

Nutrient,Unit,Data points,Std. Error,"5.0 ONZ = 140.0g",1Value per 100 g,
Proximates
"Energy",kcal,--,--,220,157
"Protein",g,--,--,19.00,13.57
"Total lipid (fat)",g,--,--,5.00,3.57
"Carbohydrate, by difference",g,--,--,23.00,16.43
"Fiber, total dietary",g,--,--,0.0,0.0
"Sugars, total",g,--,--,18.00,12.86
Minerals
"Calcium, Ca",mg,--,--,0,0
"Iron, Fe",mg,--,--,0.43,0.31
"Sodium, Na",mg,--,--,560,400
Vitamins
"Vitamin C, total ascorbic acid",mg,--,--,0.7,0.5
"Vitamin A, IU",IU,--,--,60,43
Lipids
"Fatty acids, total saturated",g,--,--,0.994,0.710
"Fatty acids, total trans",g,--,--,0.000,0.000
"Cholesterol",mg,--,--,60,43
Amino Acids
Other
Ingredients
"CHICKEN BREAST WITH RIB MEAT TUMBLED WITH WATER, SALT, PAPRIKA, SUGAR, CARAMEL COLOR, GRANULATED GARLIC, GRANULATED ONION, CAYENNE PEPPER, GREEN BELL PEPPER, CELERY SEED, MOLASSES POWDER (REFINERY SYRUP, CANE MOLASSES, CANE CARAMEL COLOR), BLACK PEPPER, BARBEQUE SAUCE (SUGAR, WATER, APPLE CIDER VINEGAR, ONION, MOLASSES, SOY SAUCE [WATER, WHEAT, SOYBEANS, SALT], TOMATO PASTE [FRESH TOMATOES], CORN STARCH, VINEGAR, VEGETABLE OIL, GARLIC, TENNESSEE WHISKEY, SALT, WORCESTERSHIRE POWDER [MALTODEXTRIN, WORCESTERSHIRE SAUCE (DISTILLED VINEGAR, MOLASSES, CORN SYRUP, SALT, CARAMEL COLOR, GARLIC POWDER, SUGAR, SPICES, TAMARIND, NATURAL FLAVOR AND SULFITING AGENTS), AND SILICON DIOXIDE]), LEMON JUICE, DARK CHILI PEPPER, PAPRIKA, CARAMEL COLOR, BLACK PEPPER, CAYENNE PEPPER)." Date available: 08/23/2017 Date last updated by company: 08/23/2017
