Source: USDA Branded Food Products Database Release December 2017 Software v.3.8.6.4 2017-10-02
Report Run at: December 17, 2017 19:39 EST
"Nutrient data for: 45200479, SEASONED CHICKEN BREAST FOR FAJITAS, UPC: 672724740540"
Food Group:  Branded Food Products Database
Common Name:

Nutrient,Unit,Data points,Std. Error,"4.0 ONZ = 113.0g",1Value per 100 g,
Proximates
"Energy",kcal,--,--,110,97
"Protein",g,--,--,21.00,18.58
"Total lipid (fat)",g,--,--,0.99,0.88
"Carbohydrate, by difference",g,--,--,0.99,0.88
"Fiber, total dietary",g,--,--,0.0,0.0
"Sugars, total",g,--,--,0.00,0.00
Minerals
"Calcium, Ca",mg,--,--,0,0
"Iron, Fe",mg,--,--,0.54,0.48
"Sodium, Na",mg,--,--,890,788
Vitamins
"Vitamin C, total ascorbic acid",mg,--,--,0.9,0.8
"Vitamin A, IU",IU,--,--,301,266
Lipids
"Fatty acids, total saturated",g,--,--,0.000,0.000
"Fatty acids, total trans",g,--,--,0.000,0.000
"Cholesterol",mg,--,--,50,44
Amino Acids
Other
Ingredients
"SOLUTION INGREDIENTS: WATER, SEASONING (SALT, SPICES, MONOSODIUM GLUTAMATE, SODIUM PHOSPHATES, SUGAR, DEHYDRATED GARLIC, MALTODEXTRIN, DEHYDRATED ONION, PINEAPPLE JUICE SOLIDS, BROWN SUGAR, SOYBEAN OIL (PROCESSING AID), YEAST EXTRACT, DISODIUM INOSINATE AND DISODIUM GUANYLATE, SPICE EXTRACTIVE, POLYSORBATE 80, NATURAL FLAVOR, MALIC ACID, GUM ARABIC PAPAIN, NOT MORE THAN 2% SILICON DIOXIDE TO PREVENT CAKING), VINEGAR." Date available: 07/14/2017 Date last updated by company: 07/14/2017
