Source: USDA Branded Food Products Database Release December 2017 Software v.3.8.6.4 2017-10-02
Report Run at: December 17, 2017 19:47 EST
"Nutrient data for: 45211833, SEASONED SNACK CRACKERS, UPC: 093215801418"
Food Group:  Branded Food Products Database
Common Name:

Nutrient,Unit,Data points,Std. Error,"28.0 CRACKERS | ABOUT = 30.0g",1Value per 100 g,
Proximates
"Energy",kcal,--,--,140,467
"Protein",g,--,--,2.00,6.67
"Total lipid (fat)",g,--,--,5.00,16.67
"Carbohydrate, by difference",g,--,--,20.00,66.67
"Fiber, total dietary",g,--,--,0.0,0.0
"Sugars, total",g,--,--,0.00,0.00
Minerals
"Calcium, Ca",mg,--,--,0,0
"Iron, Fe",mg,--,--,0.00,0.00
"Sodium, Na",mg,--,--,270,900
Vitamins
"Vitamin C, total ascorbic acid",mg,--,--,0.0,0.0
"Vitamin A, IU",IU,--,--,0,0
Lipids
"Fatty acids, total saturated",g,--,--,0.000,0.000
"Fatty acids, total trans",g,--,--,0.000,0.000
"Cholesterol",mg,--,--,0,0
Amino Acids
Other
Ingredients
"UNBLEACHED WHEAT FLOUR, WATER, CANOLA OIL, CHEDDAR ROMANO SEASONING (MALTODEXTRIN, SALT, WHEY, ROMANO CHEESE, CHEDDAR CHEESE, YEAST EXTRACT, ONION POWDER, GARLIC POWDER, BUTTERMILK, AND NATURAL FLAVOR), CANE SUGAR, SALT, YEAST, BAKING SODA." Date available: 07/14/2017 Date last updated by company: 07/14/2017
