Source: USDA Branded Food Products Database Release December 2017 Software v.3.8.6.4 2017-10-02
Report Run at: December 17, 2017 19:50 EST
"Nutrient data for: 45268055, SEASONING & MARINADE, UPC: 739263000013"
Food Group:  Branded Food Products Database
Common Name:

Nutrient,Unit,Data points,Std. Error,"0.25 tsp = 1.0g",1Value per 100 g,
Proximates
"Energy",kcal,--,--,2,200
"Protein",g,--,--,0.00,0.00
"Total lipid (fat)",g,--,--,0.00,0.00
"Carbohydrate, by difference",g,--,--,1.00,100.00
"Sugars, total",g,--,--,0.00,0.00
Minerals
"Sodium, Na",mg,--,--,116,11600
Vitamins
Lipids
Amino Acids
Other
Ingredients
"DEHYDRATED ONION, SALT, DEHYDRATED GARLIC, SPICES, SUGAR, WORCESTERSHIRE SAUCE POWDER {(DISTILLED VINEGAR, MOLASSES, CORN SYRUP, SALT, CARAMEL COLOR, GARLIC POWDER, SUGAR, SPICES, TAMARIND, NATURAL FLAVOR), MALTODEXTRIN}, CARAMEL COLORING, AND LESS THAN 2% SILICON DIOXIDE ADDED AS AN ANTI-CAKING AGENT." Date available: 07/14/2017 Date last updated by company: 07/14/2017
