Source: USDA Branded Food Products Database Release December 2017 Software v.3.8.6.4 2017-10-02
Report Run at: December 17, 2017 19:48 EST
"Nutrient data for: 45203025, SEASONED SQUASH ONION & DILL, UPC: 826766117147"
Food Group:  Branded Food Products Database
Common Name:

Nutrient,Unit,Data points,Std. Error,"1 cup = 85.0g",1Value per 100 g,
Proximates
"Energy",kcal,--,--,20,24
"Protein",g,--,--,8.00,9.41
"Total lipid (fat)",g,--,--,0.00,0.00
"Carbohydrate, by difference",g,--,--,4.00,4.71
"Fiber, total dietary",g,--,--,1.0,1.2
"Sugars, total",g,--,--,1.00,1.18
Minerals
"Calcium, Ca",mg,--,--,20,24
"Iron, Fe",mg,--,--,0.36,0.42
"Sodium, Na",mg,--,--,0,0
Vitamins
"Vitamin C, total ascorbic acid",mg,--,--,18.0,21.2
"Vitamin A, IU",IU,--,--,300,353
Lipids
"Fatty acids, total saturated",g,--,--,0.000,0.000
"Fatty acids, total trans",g,--,--,0.000,0.000
"Cholesterol",mg,--,--,0,0
Amino Acids
Other
Ingredients
"ZUCCHINI SQUASH, YELLOW SQUASH, YELLOW ONION, BLACK PEPPER, DILL" Date available: 10/11/2017 Date last updated by company: 10/11/2017
