Source: USDA Branded Food Products Database Release December 2017 Software v.3.8.6.4 2017-10-02
Report Run at: December 17, 2017 19:46 EST
"Nutrient data for: 45328711, SEASONED SALT, UPC: 024600017534"
Food Group:  Branded Food Products Database
Common Name:

Nutrient,Unit,Data points,Std. Error,"0.25 tsp = 1.0g",1Value per 100 g,
Proximates
"Energy",kcal,--,--,0,0
"Protein",g,--,--,0.00,0.00
"Total lipid (fat)",g,--,--,0.00,0.00
"Carbohydrate, by difference",g,--,--,0.00,0.00
Minerals
"Sodium, Na",mg,--,--,260,26000
Vitamins
Lipids
Amino Acids
Other
Ingredients
"SALT, GARLIC AND GARLIC EXTRACTIVES, SPICES (INCLUDING BLACK PEPPER, CHILI PEPPER, CELERY SEED, AND CORIANDER), ONION, PAPRIKA, CORN STARCH, SILICON DIOXIDE (ADDED TO MAKE FREE FLOWING), AND ANNATTO (COLOR)." Date available: 10/13/2017 Date last updated by company: 10/13/2017
