Source: USDA Branded Food Products Database Release December 2017 Software v.3.8.6.4 2017-10-02
Report Run at: December 17, 2017 19:51 EST
"Nutrient data for: 45065270, SEASONING RUB, UPC: 011110904898"
Food Group:  Branded Food Products Database
Common Name:

Nutrient,Unit,Data points,Std. Error,"0.25 tsp = 1.0g",1Value per 100 g,
Proximates
"Energy",kcal,--,--,0,0
"Protein",g,--,--,0.00,0.00
"Total lipid (fat)",g,--,--,0.00,0.00
"Carbohydrate, by difference",g,--,--,0.00,0.00
"Sugars, total",g,--,--,0.00,0.00
Minerals
"Sodium, Na",mg,--,--,160,16000
Vitamins
Lipids
Amino Acids
Other
Ingredients
"SEA SALT, TURBINADO SUGAR, GARLIC, SPICES, LEMON PEEL, ORANGE PEEL, LIME FLAVOR (SUGAR, MALTODEXTRIN, NATURAL FLAVOR, SOY LECITHIN, SILICON DIOXIDE), CHILI POWDER (CHILI PEPPER, SPICES, SALT, SILICON DIOXIDE), EXTRACTIVE OF PAPRIKA." Date available: 10/03/2017 Date last updated by company: 10/03/2017
