Source: USDA Branded Food Products Database Release December 2017 Software v.3.8.6.4 2017-10-02
Report Run at: December 17, 2017 19:39 EST
"Nutrient data for: 45003180, SEASONED BREAD CRUMBS, UPC: 051933356405"
Food Group:  Branded Food Products Database
Common Name:

Nutrient,Unit,Data points,Std. Error,"0.25 cup = 34.0g",1Value per 100 g,
Proximates
"Energy",kcal,--,--,130,382
"Protein",g,--,--,5.00,14.71
"Total lipid (fat)",g,--,--,1.50,4.41
"Carbohydrate, by difference",g,--,--,24.00,70.59
"Fiber, total dietary",g,--,--,2.0,5.9
"Sugars, total",g,--,--,2.00,5.88
Minerals
"Calcium, Ca",mg,--,--,40,118
"Iron, Fe",mg,--,--,3.97,11.68
"Sodium, Na",mg,--,--,380,1118
Vitamins
"Vitamin C, total ascorbic acid",mg,--,--,0.0,0.0
"Thiamin",mg,--,--,0.340,1.000
"Riboflavin",mg,--,--,0.170,0.500
"Niacin",mg,--,--,2.352,6.918
"Vitamin A, IU",IU,--,--,0,0
Lipids
"Fatty acids, total saturated",g,--,--,0.000,0.000
"Fatty acids, total trans",g,--,--,0.000,0.000
"Cholesterol",mg,--,--,0,0
Amino Acids
Other
Ingredients
"ENRICHED BREAD (ENRICHED WHEAT FLOUR, MALTED BARLEY, NIACIN, FERROUS SULFATE, THIAMINE MONONITRATE, RIBOFLAVIN, FOLIC ACID, WATER, HIGH FRUCTOSE CORN SYRUP, CORN SYRUP, PARTIALLY HYDROGENATED VEGETABLE OIL) (SOYBEAN AND/OR COTTONSEED OIL AND/OR CANOLA AND CORN OILS). MAY CONTAIN SALT, YEAST, SUGAR, HONEY, SESAME AND/OR POPPY SEEDS, MOLASSES, WHEAT GLUTEN, WHEY, (MILK) SOY FLOUR, WHOLE WHEAT FLOUR, RYE FLOUR, OAT BRAN, CORN FLOUR, CORN MEAL, RICE FLOUR, POTATO FLOUR, BUTTER, SKIM MILK, BUTTERMILK, LACTIC ACID, DISTILLED VINEGAR, SOY LECITHIN; DOUGH CONDITIONERS (MONO AND DIGLYCERIDES, SODIUM AND/OR CALCIUM STEAROYL LACTYLATE), YEAST NUTRIENTS (CONTAINS ONE OR MORE OF THE FOLLOWING: MONOCALCIUM PHOSPHATE, CALCIUM SULFATE, AMMONIUM SULFATE); CALCIUM PROPIONATE (PRESERVATIVE), POTASSIUM SORBATE (PRESERVATIVE). ROMANO CHEESE (COW'S MILK, CHEESE CULTURE, SALT, ENZYMES), SPICES." Date available: 07/14/2017 Date last updated by company: 07/14/2017
