Source: USDA Branded Food Products Database Release December 2017 Software v.3.8.6.4 2017-10-02
Report Run at: December 17, 2017 19:48 EST
"Nutrient data for: 45183105, SEASONED SQUASH & ONIONS, UPC: 070560976107"
Food Group:  Branded Food Products Database
Common Name:

Nutrient,Unit,Data points,Std. Error,"0.75 cup = 80.0g",1Value per 100 g,
Proximates
"Energy",kcal,--,--,20,25
"Protein",g,--,--,1.00,1.25
"Total lipid (fat)",g,--,--,0.00,0.00
"Carbohydrate, by difference",g,--,--,5.00,6.25
"Fiber, total dietary",g,--,--,1.0,1.2
"Sugars, total",g,--,--,2.00,2.50
Minerals
"Calcium, Ca",mg,--,--,0,0
"Iron, Fe",mg,--,--,0.00,0.00
"Sodium, Na",mg,--,--,105,131
Vitamins
"Vitamin C, total ascorbic acid",mg,--,--,2.6,3.2
"Vitamin A, IU",IU,--,--,106,132
Lipids
"Fatty acids, total saturated",g,--,--,0.000,0.000
"Fatty acids, total trans",g,--,--,0.000,0.000
"Cholesterol",mg,--,--,0,0
Amino Acids
Other
Ingredients
"SQUASH, ONIONS, RED PEPPER, MALTODEXTRIN, SALT, SPICES, CELERY, BLACK PEPPER, ONION POWDER." Date available: 07/14/2017 Date last updated by company: 07/14/2017
