Source: USDA Branded Food Products Database Release December 2017 Software v.3.8.6.4 2017-10-02
Report Run at: December 17, 2017 19:55 EST
"Nutrient data for: 45084054, SEATTLE, SORBET, CHAMPAGNE ORANGE, UPC: 799066620306"
Food Group:  Branded Food Products Database
Common Name:

Nutrient,Unit,Data points,Std. Error,"0.5 cup = 103.0g",1Value per 100 g,
Proximates
"Energy",kcal,--,--,130,126
"Protein",g,--,--,1.00,0.97
"Total lipid (fat)",g,--,--,0.00,0.00
"Carbohydrate, by difference",g,--,--,31.00,30.10
"Fiber, total dietary",g,--,--,0.0,0.0
"Sugars, total",g,--,--,22.00,21.36
Minerals
"Sodium, Na",mg,--,--,2,2
Vitamins
Lipids
"Fatty acids, total saturated",g,--,--,0.000,0.000
"Cholesterol",mg,--,--,0,0
Amino Acids
Other
Ingredients
"ORGANIC JUICE,WATER,SUGAR, CORN SYRUP, CHAMPAGNE, LEMON JUICE, ORGANGE PUREE, NATURAL GUMS, PECTIN, NATURAL FLAVOR, (LESS THAN 1% ALCOHOL)." Date available: 06/25/2017 Date last updated by company: 06/25/2017
