Source: USDA Branded Food Products Database Release December 2017 Software v.3.8.6.4 2017-10-02
Report Run at: December 17, 2017 19:56 EST
"Nutrient data for: 45254577, SEBASTOPOL LOAF, UPC: 646293768663"
Food Group:  Branded Food Products Database
Common Name:

Nutrient,Unit,Data points,Std. Error,"0.125 LOAF = 57.0g",1Value per 100 g,
Proximates
"Energy",kcal,--,--,140,246
"Protein",g,--,--,4.00,7.02
"Total lipid (fat)",g,--,--,0.50,0.88
"Carbohydrate, by difference",g,--,--,29.00,50.88
"Fiber, total dietary",g,--,--,1.0,1.8
"Sugars, total",g,--,--,1.00,1.75
Minerals
"Calcium, Ca",mg,--,--,0,0
"Iron, Fe",mg,--,--,1.27,2.22
"Sodium, Na",mg,--,--,320,561
Vitamins
"Vitamin C, total ascorbic acid",mg,--,--,0.0,0.0
"Vitamin A, IU",IU,--,--,0,0
Lipids
"Fatty acids, total saturated",g,--,--,0.000,0.000
"Fatty acids, total trans",g,--,--,0.000,0.000
"Cholesterol",mg,--,--,0,0
Amino Acids
Other
Ingredients
"SEBASTOPOL SOURDOUGH UNBLEACHED FLOUR, WATER, ORGANIC WHOLE FLOUR, SEA SALT." Date available: 07/14/2017 Date last updated by company: 07/14/2017
