Source: USDA Branded Food Products Database Release December 2017 Software v.3.8.6.4 2017-10-02
Report Run at: December 17, 2017 19:57 EST
"Nutrient data for: 45096213, SEED AND BEAN, ORGANIC CORNISH SEA SALT, EXTRA DARK CHOCOLATE, UPC: 5060137140166"
Food Group:  Branded Food Products Database
Common Name:

Nutrient,Unit,Data points,Std. Error,"6.0 PIECES = 42.0g",1Value per 100 g,
Proximates
"Energy",kcal,--,--,240,571
"Total lipid (fat)",g,--,--,18.00,42.86
"Carbohydrate, by difference",g,--,--,15.00,35.71
"Fiber, total dietary",g,--,--,4.0,9.5
"Sugars, total",g,--,--,13.00,30.95
Minerals
"Calcium, Ca",mg,--,--,20,48
"Iron, Fe",mg,--,--,3.21,7.65
Vitamins
"Vitamin C, total ascorbic acid",mg,--,--,0.0,0.0
"Vitamin A, IU",IU,--,--,0,0
Lipids
"Fatty acids, total saturated",g,--,--,11.000,26.190
"Fatty acids, total trans",g,--,--,0.000,0.000
"Cholesterol",mg,--,--,0,0
Amino Acids
Other
Ingredients
"DARK CHOCOLATE (CHOCOLATE LIQUOR, SUGAR, COCOA BUTTER, EMULSIFIER: SUNFLOWER LECITHIN, VANILLA EXTRACT), SMOKED SEA SALT." Date available: 08/17/2017 Date last updated by company: 08/17/2017
