Source: USDA Branded Food Products Database Release December 2017 Software v.3.8.6.4 2017-10-02
Report Run at: December 17, 2017 20:02 EST
"Nutrient data for: 45079901, SEITENBACHER, MUSLI #1, NATURAL BODY POWER, UPC: 039545099019"
Food Group:  Branded Food Products Database
Common Name:

Nutrient,Unit,Data points,Std. Error,"0.66 cup = 45.0g",1Value per 100 g,
Proximates
"Energy",kcal,--,--,170,378
"Protein",g,--,--,6.00,13.33
"Total lipid (fat)",g,--,--,6.00,13.33
"Carbohydrate, by difference",g,--,--,24.00,53.33
"Fiber, total dietary",g,--,--,4.0,8.9
"Sugars, total",g,--,--,10.00,22.22
Minerals
"Calcium, Ca",mg,--,--,40,89
"Iron, Fe",mg,--,--,2.20,4.89
"Magnesium, Mg",mg,--,--,73,163
"Sodium, Na",mg,--,--,0,0
Vitamins
"Vitamin C, total ascorbic acid",mg,--,--,0.0,0.0
"Vitamin A, IU",IU,--,--,0,0
Lipids
"Fatty acids, total saturated",g,--,--,0.999,2.220
"Fatty acids, total trans",g,--,--,0.000,0.000
"Cholesterol",mg,--,--,0,0
Amino Acids
Other
Ingredients
"WHOLE GRAIN SPELT, RAISINS UNSULPHURED, PEANUTS, WHOLE GRAIN OATS, SUNFLOWER SEEDS, BARLEY FLAKES, APPLES UNSULPHURED, HAZELNUTS, WHEAT GERMS." Date available: 07/14/2017 Date last updated by company: 07/14/2017
