Source: USDA Branded Food Products Database Release December 2017 Software v.3.8.6.4 2017-10-02
Report Run at: December 17, 2017 20:02 EST
"Nutrient data for: 45146171, SEITENBACHER, HAPPY-FRUITS VEGETARIAN GUMMY CANDY, BLACK CURRANT, UPC: 039545007083"
Food Group:  Branded Food Products Database
Common Name:

Nutrient,Unit,Data points,Std. Error,"1 PORTION = 42.5g",1Value per 100 g,
Proximates
"Energy",kcal,--,--,140,329
"Protein",g,--,--,0.00,0.00
"Total lipid (fat)",g,--,--,0.00,0.00
"Carbohydrate, by difference",g,--,--,33.00,77.65
"Fiber, total dietary",g,--,--,1.0,2.4
"Sugars, total",g,--,--,30.00,70.59
Minerals
"Sodium, Na",mg,--,--,0,0
Vitamins
Lipids
"Fatty acids, total saturated",g,--,--,0.000,0.000
"Fatty acids, total trans",g,--,--,0.000,0.000
"Cholesterol",mg,--,--,0,0
Amino Acids
Other
Ingredients
"APPLE JUICE THICKENED, APPLE PECTIN, BLACK CURRANT JUICE THICKENED, LEMON JUICE THICKENED, NATURAL FLAVOR, CARNAUBA WAX." Date available: 07/14/2017 Date last updated by company: 07/14/2017
