Source: USDA Branded Food Products Database Release December 2017 Software v.3.8.6.4 2017-10-02
Report Run at: December 17, 2017 20:08 EST
"Nutrient data for: 45037151, SELINA NATURALLY, FINE GROUND CELTIC SEA SALT, UPC: 728060105007"
Food Group:  Branded Food Products Database
Common Name:

Nutrient,Unit,Data points,Std. Error,"0.25 tsp = 1.3g",1Value per 100 g,
Proximates
"Energy",kcal,--,--,0,0
"Total lipid (fat)",g,--,--,0.00,0.00
Minerals
"Iron, Fe",mg,--,--,13.85,1065.05
"Potassium, K",mg,--,--,0,0
"Sodium, Na",mg,--,--,458,35231
Vitamins
Lipids
Amino Acids
Other
Ingredients
"SEA SALT" Date available: 08/09/2017 Date last updated by company: 08/09/2017
