Source: USDA Branded Food Products Database Release December 2017 Software v.3.8.6.4 2017-10-02
Report Run at: December 17, 2017 20:08 EST
"Nutrient data for: 45037135, SELINA NATURALLY, LIGHT GREY CELTIC SEA SALT, UPC: 728060104000"
Food Group:  Branded Food Products Database
Common Name:

Nutrient,Unit,Data points,Std. Error,"0.25 tsp = 1.5g",1Value per 100 g,
Proximates
"Energy",kcal,--,--,0,0
"Protein",g,--,--,0.00,0.00
"Total lipid (fat)",g,--,--,0.00,0.00
"Carbohydrate, by difference",g,--,--,0.00,0.00
Minerals
"Iron, Fe",mg,--,--,12.00,800.04
"Sodium, Na",mg,--,--,480,32000
Vitamins
Lipids
Amino Acids
Other
Ingredients
"SEA SALT." Date available: 06/24/2017 Date last updated by company: 06/24/2017
