Source: USDA Branded Food Products Database Release December 2017 Software v.3.8.6.4 2017-10-02
Report Run at: December 17, 2017 20:09 EST
"Nutrient data for: 45044157, SELTZER'S, SWEET LEBANON BOLOGNA, LEAN BEEF, UPC: 232044200003"
Food Group:  Branded Food Products Database
Common Name:

Nutrient,Unit,Data points,Std. Error,"2.0 ONZ = 56.0g",1Value per 100 g,
Proximates
"Energy",kcal,--,--,110,196
"Protein",g,--,--,9.00,16.07
"Total lipid (fat)",g,--,--,4.50,8.04
"Carbohydrate, by difference",g,--,--,7.00,12.50
"Sugars, total",g,--,--,7.00,12.50
Minerals
"Iron, Fe",mg,--,--,0.71,1.26
"Sodium, Na",mg,--,--,710,1268
Vitamins
Lipids
"Fatty acids, total saturated",g,--,--,1.999,3.570
"Fatty acids, total trans",g,--,--,0.000,0.000
"Cholesterol",mg,--,--,30,54
Amino Acids
Other
Ingredients
"BEEF, SUGAR, SALT, SPICES, PAPRIKA, LACTIC ACID STARTER CULTURE, SODIUM ERYTHORBATE, SODIUM NITRITE." Date available: 10/13/2017 Date last updated by company: 10/13/2017
