Source: USDA Branded Food Products Database Release December 2017 Software v.3.8.6.4 2017-10-02
Report Run at: December 17, 2017 20:14 EST
"Nutrient data for: 45142297, SEMI SWEET GUITTARD CHOCOLATE, UPC: 019646002408"
Food Group:  Branded Food Products Database
Common Name:

Nutrient,Unit,Data points,Std. Error,"40.0 GRM = 40.0g",1Value per 100 g,
Proximates
"Energy",kcal,--,--,221,552
"Protein",g,--,--,2.00,5.00
"Total lipid (fat)",g,--,--,13.00,32.50
"Carbohydrate, by difference",g,--,--,24.00,60.00
"Fiber, total dietary",g,--,--,3.0,7.5
"Sugars, total",g,--,--,18.00,45.00
Minerals
"Calcium, Ca",mg,--,--,10,25
"Iron, Fe",mg,--,--,1.80,4.50
"Sodium, Na",mg,--,--,15,38
Vitamins
Lipids
"Fatty acids, total saturated",g,--,--,8.000,20.000
"Fatty acids, total trans",g,--,--,0.000,0.000
"Cholesterol",mg,--,--,0,0
Amino Acids
Other
Ingredients
"SEMI SWEET CHOCOLATE (UNSWEETENED CHOCOLATE, SUGAR, COCOA BUTTER), SOYA LECITHIN, PURE VANILLA AND VANILLIN (AN ARTIFICIAL FLAVOR)." Date available: 10/13/2017 Date last updated by company: 10/13/2017
