Source: USDA Branded Food Products Database Release December 2017 Software v.3.8.6.4 2017-10-02
Report Run at: December 17, 2017 20:16 EST
"Nutrient data for: 45162293, SENECA, TRULY FRUIT, SOFT JELLS, FRUIT, UPC: 890194001231"
Food Group:  Branded Food Products Database
Common Name:

Nutrient,Unit,Data points,Std. Error,"4.0 PIECES = 40.0g",1Value per 100 g,
Proximates
"Energy",kcal,--,--,140,350
"Protein",g,--,--,0.00,0.00
"Total lipid (fat)",g,--,--,0.00,0.00
"Carbohydrate, by difference",g,--,--,34.00,85.00
"Fiber, total dietary",g,--,--,0.0,0.0
"Sugars, total",g,--,--,30.00,75.00
Minerals
"Calcium, Ca",mg,--,--,0,0
"Iron, Fe",mg,--,--,0.00,0.00
"Sodium, Na",mg,--,--,100,250
Vitamins
"Vitamin C, total ascorbic acid",mg,--,--,18.8,46.9
"Vitamin A, IU",IU,--,--,0,0
Lipids
"Fatty acids, total saturated",g,--,--,0.000,0.000
"Fatty acids, total trans",g,--,--,0.000,0.000
"Cholesterol",mg,--,--,0,0
Amino Acids
Other
Ingredients
"SUGAR, CORN SYRUP, WATER, JUICE FROM CONCENTRATE (GRAPE, PEAR), CITRIC ACID (ACIDULANT), SODIUM CITRATE, NATURAL AND ARTIFICIAL FLAVORS, VITAMIN C, COLORS (YELLOW 5, RED 40, BLUE 1)" Date available: 07/14/2017 Date last updated by company: 07/14/2017
