Source: USDA Branded Food Products Database Release December 2017 Software v.3.8.6.4 2017-10-02
Report Run at: December 17, 2017 20:17 EST
"Nutrient data for: 45166587, SENSIBLE PORTIONS, CHEDDAR PUFFS BAKED CORN PUFFS, UPC: 829515322250"
Food Group:  Branded Food Products Database
Common Name:

Nutrient,Unit,Data points,Std. Error,"1 ONZ = 28.0g",1Value per 100 g,
Proximates
"Energy",kcal,--,--,130,464
"Protein",g,--,--,2.00,7.14
"Total lipid (fat)",g,--,--,6.00,21.43
"Carbohydrate, by difference",g,--,--,17.00,60.71
"Fiber, total dietary",g,--,--,1.0,3.6
"Sugars, total",g,--,--,1.00,3.57
Minerals
"Calcium, Ca",mg,--,--,20,71
"Iron, Fe",mg,--,--,0.64,2.29
"Sodium, Na",mg,--,--,270,964
Vitamins
"Vitamin C, total ascorbic acid",mg,--,--,0.0,0.0
"Vitamin A, IU",IU,--,--,0,0
Lipids
"Fatty acids, total saturated",g,--,--,0.501,1.790
"Fatty acids, total monounsaturated",g,--,--,4.001,14.290
"Fatty acids, total polyunsaturated",g,--,--,1.999,7.140
"Fatty acids, total trans",g,--,--,0.000,0.000
"Cholesterol",mg,--,--,0,0
Amino Acids
Other
Ingredients
"ORGANIC CORN, EXPELLER PRESSED CANOLA OIL AND/OR SAFFLOWER OIL AND/OR SUNFLOWER OIL, CHEDDAR CHEESE POWDER (CHEDDAR CHEESE WITH ENZYMES, WHEY POWDER, LACTIC ACID, ORGANIC ANNATTO), SALT, WHEY, ORGANIC TOMATO POWDER, ORGANIC ONION POWDER, ORGANIC AUTOLYZED YEAST EXTRACT, CITRIC ACID, ORGANIC MUSTARD POWDER, ORGANIC GARLIC POWDER, ORGANIC CAYENNE PEPPER POWDER." Date available: 07/14/2017 Date last updated by company: 07/14/2017
