Source: USDA Branded Food Products Database Release December 2017 Software v.3.8.6.4 2017-10-02
Report Run at: December 17, 2017 20:17 EST
"Nutrient data for: 45092172, SEOUL, KIM CHI, SPICY, UPC: 026396908317"
Food Group:  Branded Food Products Database
Common Name:

Nutrient,Unit,Data points,Std. Error,"1 ONZ = 28.0g",1Value per 100 g,
Proximates
"Energy",kcal,--,--,10,36
"Protein",g,--,--,1.00,3.57
"Total lipid (fat)",g,--,--,0.00,0.00
"Carbohydrate, by difference",g,--,--,1.00,3.57
"Fiber, total dietary",g,--,--,0.0,0.0
"Sugars, total",g,--,--,1.00,3.57
Minerals
"Calcium, Ca",mg,--,--,20,71
"Iron, Fe",mg,--,--,0.64,2.29
"Sodium, Na",mg,--,--,270,964
Vitamins
"Vitamin C, total ascorbic acid",mg,--,--,53.6,191.3
"Vitamin A, IU",IU,--,--,715,2552
Lipids
"Fatty acids, total saturated",g,--,--,0.000,0.000
"Fatty acids, total trans",g,--,--,0.000,0.000
"Cholesterol",mg,--,--,0,0
Amino Acids
Other
Ingredients
"NAPA, CABBAGE, CHILI PEPPER, CARROTS, GARLIC, GREEN ONION, SUGAR, ONION, BABY SHRIMP, SALT, GINGER, ANCHOVY EXTRACT." Date available: 06/25/2017 Date last updated by company: 06/25/2017
