Source: USDA Branded Food Products Database Release December 2017 Software v.3.8.6.4 2017-10-02
Report Run at: December 17, 2017 20:21 EST
"Nutrient data for: 45199813, SESAME FLATBREAD, UPC: 619309000637"
Food Group:  Branded Food Products Database
Common Name:

Nutrient,Unit,Data points,Std. Error,"1 ONZ = 28.3g",1Value per 100 g,
Proximates
"Energy",kcal,--,--,130,459
"Protein",g,--,--,3.00,10.60
"Total lipid (fat)",g,--,--,3.00,10.60
"Carbohydrate, by difference",g,--,--,20.00,70.67
"Fiber, total dietary",g,--,--,1.0,3.5
"Sugars, total",g,--,--,1.00,3.53
Minerals
"Calcium, Ca",mg,--,--,40,141
"Iron, Fe",mg,--,--,2.10,7.42
"Sodium, Na",mg,--,--,200,707
Vitamins
"Vitamin C, total ascorbic acid",mg,--,--,0.0,0.0
"Vitamin A, IU",IU,--,--,0,0
Lipids
"Fatty acids, total saturated",g,--,--,0.000,0.000
"Fatty acids, total trans",g,--,--,0.000,0.000
"Cholesterol",mg,--,--,0,0
Amino Acids
Other
Ingredients
"ENRICHED WHEAT FLOUR (UNBLEACHED MALTED BARLEY FLOUR, NIACIN, IRON, THIAMINE MONONITRATE, RIBOFLAVIN, AND FOLIC ACID), MALT, SOYBEAN OIL, SALT, YEAST. TOPPINGS USED: SESAME SEEDS." Date available: 07/14/2017 Date last updated by company: 07/14/2017
