Source: USDA Branded Food Products Database Release December 2017 Software v.3.8.6.4 2017-10-02
Report Run at: December 17, 2017 20:22 EST
"Nutrient data for: 45284930, SESAME NOODLE PASTA SALAD, UPC: 825779010728"
Food Group:  Branded Food Products Database
Common Name:

Nutrient,Unit,Data points,Std. Error,"8.0 ONZ = 227.0g",1Value per 100 g,
Proximates
"Energy",kcal,--,--,270,119
"Protein",g,--,--,5.99,2.64
"Total lipid (fat)",g,--,--,23.00,10.13
"Carbohydrate, by difference",g,--,--,10.01,4.41
"Fiber, total dietary",g,--,--,3.0,1.3
"Sugars, total",g,--,--,2.00,0.88
Minerals
"Calcium, Ca",mg,--,--,150,66
"Iron, Fe",mg,--,--,2.22,0.98
"Sodium, Na",mg,--,--,640,282
Vitamins
"Vitamin C, total ascorbic acid",mg,--,--,18.6,8.2
"Vitamin A, IU",IU,--,--,463,204
Lipids
"Fatty acids, total saturated",g,--,--,3.995,1.760
"Fatty acids, total monounsaturated",g,--,--,11.009,4.850
"Fatty acids, total polyunsaturated",g,--,--,7.990,3.520
"Fatty acids, total trans",g,--,--,0.000,0.000
"Cholesterol",mg,--,--,0,0
Amino Acids
Other
Ingredients
"CAPELLINI PASTA (SEMOLINA [WHEAT] DURUM WHEAT FLOUR, NIACIN, IRON [FERROUS SULFATE], THIAMINE, MONONITRATE, RIBOFLAVIN, FOLIC ACID), SOY SAUCE (WATER, WHEAT, SOYBEANS, SALT, SODIUM BENZOATE: LESS THAN 1/10TH OF 1% AS A PRESERVATIVE), RICE VINEGAR MADE FROM REAL RICE (DILUTED WITH WATER TO 4.2% ACIDITY [42 GRAIN] GLUTEN FREE), RED BELL PEPPER, GREEN ONION, CILANTRO, SESAME OIL (SOYBEAN OIL, SESAME OIL), OLIVE OIL, SESAME SEEDS, BLACK SESAME SEEDS, FRESH GARLIC, FRESH GINGER." Date available: 07/14/2017 Date last updated by company: 07/14/2017
