Source: USDA Branded Food Products Database Release December 2017 Software v.3.8.6.4 2017-10-02
Report Run at: December 17, 2017 20:22 EST
"Nutrient data for: 45059471, SESAME GINGER WITH MANDARIN ORANGE JUICE, UPC: 011110736734"
Food Group:  Branded Food Products Database
Common Name:

Nutrient,Unit,Data points,Std. Error,"1 Tbsp = 17.0g",1Value per 100 g,
Proximates
"Energy",kcal,--,--,35,206
"Protein",g,--,--,0.00,0.00
"Total lipid (fat)",g,--,--,0.50,2.94
"Carbohydrate, by difference",g,--,--,7.00,41.18
"Sugars, total",g,--,--,6.00,35.29
Minerals
"Sodium, Na",mg,--,--,410,2412
Vitamins
Lipids
"Fatty acids, total saturated",g,--,--,0.000,0.000
"Fatty acids, total trans",g,--,--,0.000,0.000
Amino Acids
Other
Ingredients
"HIGH FRUCTOSE CORN SYRUP, MANDARIN ORANGE JUICE FROM CONCENTRATE, SOY SAUCE (WATER, SOYBEANS, WHEAT AND SALT), WATER, SALT, DISTILLED VINEGAR, MODIFIED CORN STARCH, SESAME OIL, CARAMEL COLOR, SESAME SEEDS, NATURAL SESAME FLAVOR, GINGER, DRIED GARLIC, AUTOLYZED YEAST EXTRACT, XANTHAN GUM, CITRIC ACID, CHILI PEPPER, POTASSIUM SORBATE AND SODIUM BENZOATE (PRESERVATIVES), NATURAL FLAVOR, AMMONIUM BISULFITE (FOR COLOR), CALCIUM DISODIUM EDTA (TO PROTECT FLAVOR)." Date available: 07/14/2017 Date last updated by company: 07/14/2017
