Source: USDA Branded Food Products Database Release December 2017 Software v.3.8.6.4 2017-10-02
Report Run at: December 17, 2017 20:29 EST
"Nutrient data for: 45187051, SEVERINO HOMEMADE PASTA, RIGATONI, UPC: 029737947112"
Food Group:  Branded Food Products Database
Common Name:

Nutrient,Unit,Data points,Std. Error,"1 cup = 227.0g",1Value per 100 g,
Proximates
"Energy",kcal,--,--,520,229
"Protein",g,--,--,20.00,8.81
"Total lipid (fat)",g,--,--,29.01,12.78
"Carbohydrate, by difference",g,--,--,43.99,19.38
"Fiber, total dietary",g,--,--,3.0,1.3
"Sugars, total",g,--,--,5.99,2.64
Minerals
"Calcium, Ca",mg,--,--,400,176
"Iron, Fe",mg,--,--,2.32,1.02
"Sodium, Na",mg,--,--,781,344
Vitamins
"Vitamin C, total ascorbic acid",mg,--,--,2.0,0.9
"Vitamin A, IU",IU,--,--,1074,473
Lipids
"Fatty acids, total saturated",g,--,--,14.006,6.170
"Cholesterol",mg,--,--,109,48
Amino Acids
Other
Ingredients
"CHEESE STUFFED RIGATONI PASTA (ENRICHED DURUM FOUR (DURUM FLOUR, NIACIN, FERROUS SULFATE, THIAMINE MONONITRATE, RIBOFLAVIN, FOLIC ACID), WATER), FILLING (WHEY, RICOTTA CHEESE (PASTEURIZED WHEY, MILK, VINEGAR, SALT), ROMANO CHEESE (SHEEPS MILK, ENZYMES, SALT), SALT, MODIFIED FOOD STARCH, BLACK PEPPER, PARSLEY), ALFREDO SAUCE (WHOLE MILK, HEAVY CREAM, PARMESAN CHEESE, WATER, CORNSTARCH, SUGAR, SALT, SPICES), BASIL PESTO (BASIL, CANOLA OIL/EXTRA VIRGIN OLIVE OIL BLEND, ROMANO CHEESE (SHEEP'S MILK, ENZYMES, SALT), WATER, GARLIC, SALT, LEMON JUICE CONCENTRATE, SPICES), TOPPING (PARMESAN CHEESE (PART SKIM MILK, CHEESE CULTURE, SALT, ENZYMES), PARSLEY)." Date available: 07/14/2017 Date last updated by company: 07/14/2017
