Source: USDA Branded Food Products Database Release December 2017 Software v.3.8.6.4 2017-10-02
Report Run at: December 17, 2017 20:28 EST
"Nutrient data for: 45187050, SEVERINO HOMEMADE PASTA, GORGONZOLA GNOCCHI, UPC: 029737002392"
Food Group:  Branded Food Products Database
Common Name:

Nutrient,Unit,Data points,Std. Error,"0.75 cup = 85.0g",1Value per 100 g,
Proximates
"Energy",kcal,--,--,190,224
"Protein",g,--,--,7.00,8.24
"Total lipid (fat)",g,--,--,3.50,4.12
"Carbohydrate, by difference",g,--,--,33.00,38.82
"Fiber, total dietary",g,--,--,2.0,2.4
"Sugars, total",g,--,--,0.00,0.00
Minerals
"Calcium, Ca",mg,--,--,60,71
"Iron, Fe",mg,--,--,1.19,1.40
"Sodium, Na",mg,--,--,380,447
Vitamins
"Vitamin C, total ascorbic acid",mg,--,--,24.7,29.1
"Vitamin A, IU",IU,--,--,0,0
Lipids
"Fatty acids, total saturated",g,--,--,1.998,2.350
"Fatty acids, total trans",g,--,--,0.000,0.000
"Cholesterol",mg,--,--,25,29
Amino Acids
Other
Ingredients
"WATER, SEMOLINA FLOUR (UNENRICHED), POTATO FLAKES (POTATO), GORGONZOLA (CULTURED PASTEURIZED MILK, ENZYMES, SALT, MOLD), EGGS (LIQUID, CAGE-FREE, PASTEURIZED), SALT." Date available: 07/14/2017 Date last updated by company: 07/14/2017
