Source: USDA Branded Food Products Database Release December 2017 Software v.3.8.6.4 2017-10-02
Report Run at: December 17, 2017 20:30 EST
"Nutrient data for: 45168966, SEVERINO, TORTELLINI, UPC: 729737947081"
Food Group:  Branded Food Products Database
Common Name:

Nutrient,Unit,Data points,Std. Error,"1 cup = 227.0g",1Value per 100 g,
Proximates
"Energy",kcal,--,--,311,137
"Protein",g,--,--,10.01,4.41
"Total lipid (fat)",g,--,--,5.99,2.64
"Carbohydrate, by difference",g,--,--,53.00,23.35
"Fiber, total dietary",g,--,--,4.1,1.8
"Sugars, total",g,--,--,4.00,1.76
Minerals
"Calcium, Ca",mg,--,--,79,35
"Iron, Fe",mg,--,--,2.77,1.22
"Sodium, Na",mg,--,--,670,295
Vitamins
"Vitamin C, total ascorbic acid",mg,--,--,3.6,1.6
"Vitamin A, IU",IU,--,--,309,136
Lipids
"Fatty acids, total saturated",g,--,--,0.999,0.440
"Cholesterol",mg,--,--,25,11
Amino Acids
Other
Ingredients
"CHEESE TORTELLINI(DOUGH:ENRICHED DURUM FLOUR(DURUM FLOUR, NIACIN, FERROUS SULFATE, THIAMINE MONONITRATE, RIBOFLAVIN, FOLIC ACID), WATER, FILLING:RBST FREE LOW FAT RICOTTA CHEESE(SKIM MILK, WHEY, VINEGAR, SALT), WATER, CRACKER MEAL(WHEAT FLOUR), PASTEURIZED CAGE FREE EGGS,SALT, SALT, SPICES)), MARINARA SAUCE(TOMATOES, PURE OLIVE OIL, GARLIC, SALT, FRESH BASIL, FRESH PARSLEY, SPICE), TOPPING (PARMESAN CHEESE(PARMESAN CHEESE(PART SKIM MILK, CHEESE CULTURE, SALT, ENZYMES), PARSLEY." Date available: 07/14/2017 Date last updated by company: 07/14/2017
