Source: USDA Branded Food Products Database Release December 2017 Software v.3.8.6.4 2017-10-02
Report Run at: December 17, 2017 20:30 EST
"Nutrient data for: 45158937, SEXY POP, GOURMET POPCORN, PINEAPPLE HABANERO, UPC: 859941005182"
Food Group:  Branded Food Products Database
Common Name:

Nutrient,Unit,Data points,Std. Error,"2.5 CUPS | ABOUT = 21.0g",1Value per 100 g,
Proximates
"Energy",kcal,--,--,100,476
"Protein",g,--,--,2.00,9.52
"Total lipid (fat)",g,--,--,5.00,23.81
"Carbohydrate, by difference",g,--,--,13.00,61.90
"Fiber, total dietary",g,--,--,2.0,9.5
"Sugars, total",g,--,--,3.00,14.29
Minerals
"Calcium, Ca",mg,--,--,0,0
"Iron, Fe",mg,--,--,0.00,0.00
"Sodium, Na",mg,--,--,45,214
Vitamins
"Vitamin C, total ascorbic acid",mg,--,--,0.0,0.0
"Vitamin A, IU",IU,--,--,0,0
Lipids
"Fatty acids, total saturated",g,--,--,0.500,2.380
"Fatty acids, total trans",g,--,--,0.000,0.000
"Cholesterol",mg,--,--,0,0
Amino Acids
Other
Ingredients
"NON GMO BUTTERFLY POPCORN, SUNFLOWER OIL, CANE SUGAR, PINEAPPLE, MALTODEXTRIN, SALT, CITRIC ACID, EXTRACTIVES OF HABANERO CHILI PEPPER." Date available: 07/14/2017 Date last updated by company: 07/14/2017
