Source: USDA Branded Food Products Database Release December 2017 Software v.3.8.6.4 2017-10-02
Report Run at: December 17, 2017 20:30 EST
"Nutrient data for: 45158696, SEXYPOP, GOURMET AIR POPPED POPCORN, BLACK PEPPER, UPC: 859941005090"
Food Group:  Branded Food Products Database
Common Name:

Nutrient,Unit,Data points,Std. Error,"2.5 CUPS | ABOUT = 18.0g",1Value per 100 g,
Proximates
"Energy",kcal,--,--,90,500
"Protein",g,--,--,2.00,11.11
"Total lipid (fat)",g,--,--,5.00,27.78
"Carbohydrate, by difference",g,--,--,11.00,61.11
"Fiber, total dietary",g,--,--,2.0,11.1
"Sugars, total",g,--,--,0.00,0.00
Minerals
"Calcium, Ca",mg,--,--,0,0
"Iron, Fe",mg,--,--,1.00,5.56
"Sodium, Na",mg,--,--,70,389
Vitamins
"Vitamin C, total ascorbic acid",mg,--,--,0.0,0.0
"Vitamin A, IU",IU,--,--,0,0
Lipids
"Fatty acids, total saturated",g,--,--,0.301,1.670
"Fatty acids, total trans",g,--,--,0.000,0.000
"Cholesterol",mg,--,--,0,0
Amino Acids
Other
Ingredients
"NON GMO BUTTERFLY POPCORN, SUNFLOWER OIL, BLACK PEPPER, SEA SALT." Date available: 07/14/2017 Date last updated by company: 07/14/2017
