Source: USDA Branded Food Products Database Release December 2017 Software v.3.8.6.4 2017-10-02
Report Run at: December 17, 2017 20:32 EST
"Nutrient data for: 45138603, SHAHIA, PREMIUM NECTAR, MANGO, UPC: 783963004512"
Food Group:  Branded Food Products Database
Common Name:

Nutrient,Unit,Data points,Std. Error,"8.0 OZA = 240.0g",1Value per 100 g,
Proximates
"Energy",kcal,--,--,139,58
"Protein",g,--,--,0.00,0.00
"Total lipid (fat)",g,--,--,0.00,0.00
"Carbohydrate, by difference",g,--,--,33.00,13.75
"Fiber, total dietary",g,--,--,0.0,0.0
"Sugars, total",g,--,--,33.00,13.75
Minerals
"Calcium, Ca",mg,--,--,12,5
"Iron, Fe",mg,--,--,0.29,0.12
"Sodium, Na",mg,--,--,12,5
Vitamins
"Vitamin C, total ascorbic acid",mg,--,--,21.1,8.8
"Vitamin A, IU",IU,--,--,1999,833
Lipids
Amino Acids
Other
Ingredients
"MANGO PULP (30%), WATER, SUCROSE, VITAMIN C, CITRIC ACID, NATURAL STABILIZER (PECTIN), NATURAL MANGO FLAVOUR, (ANNATTO), TOTAL SOLUBLE SOLIDS: 13% MIN." Date available: 06/25/2017 Date last updated by company: 06/25/2017
