Source: USDA Branded Food Products Database Release December 2017 Software v.3.8.6.4 2017-10-02
Report Run at: December 17, 2017 20:36 EST
"Nutrient data for: 45009781, SHARON'S, SORBET, MANGO, UPC: 009073102963"
Food Group:  Branded Food Products Database
Common Name:

Nutrient,Unit,Data points,Std. Error,"0.5 cup = 96.0g",1Value per 100 g,
Proximates
"Energy",kcal,--,--,100,104
"Protein",g,--,--,0.00,0.00
"Total lipid (fat)",g,--,--,0.00,0.00
"Carbohydrate, by difference",g,--,--,25.00,26.04
"Fiber, total dietary",g,--,--,1.0,1.0
"Sugars, total",g,--,--,24.00,25.00
Minerals
"Calcium, Ca",mg,--,--,0,0
"Iron, Fe",mg,--,--,0.00,0.00
"Potassium, K",mg,--,--,0,0
"Sodium, Na",mg,--,--,0,0
Vitamins
"Vitamin C, total ascorbic acid",mg,--,--,16.9,17.6
"Vitamin A, IU",IU,--,--,1687,1757
Lipids
"Fatty acids, total saturated",g,--,--,0.000,0.000
"Fatty acids, total trans",g,--,--,0.000,0.000
"Cholesterol",mg,--,--,0,0
Amino Acids
Other
Ingredients
"MANGO PUREE, WATER, CANE SUGAR, LEMON JUICE, PECTIN, GUAR." Date available: 06/24/2017 Date last updated by company: 06/24/2017
