Source: USDA Branded Food Products Database Release December 2017 Software v.3.8.6.4 2017-10-02
Report Run at: December 17, 2017 20:36 EST
"Nutrient data for: 45180371, SHARP CHEDDAR CHEESE BALL, UPC: 725439984799"
Food Group:  Branded Food Products Database
Common Name:

Nutrient,Unit,Data points,Std. Error,"1 ONZ = 28.0g",1Value per 100 g,
Proximates
"Energy",kcal,--,--,110,393
"Protein",g,--,--,5.00,17.86
"Total lipid (fat)",g,--,--,9.00,32.14
"Carbohydrate, by difference",g,--,--,8.00,28.57
"Fiber, total dietary",g,--,--,1.0,3.6
"Sugars, total",g,--,--,3.00,10.71
Minerals
"Calcium, Ca",mg,--,--,200,714
"Sodium, Na",mg,--,--,180,643
Vitamins
"Vitamin A, IU",IU,--,--,357,1275
Lipids
"Fatty acids, total saturated",g,--,--,5.001,17.860
"Cholesterol",mg,--,--,25,89
Amino Acids
Other
Ingredients
"CHEDDAR CHEESE (PASTEURIZED MILK, CHEESE CULTURES, SALT, ENZYMES), WHEY POWDER, CREAM, WATER, ALMONDS (TREE NUT), SALT, XANTHAN GUM, SORBIC ACID AS A PRESERVATIVE, AND ANNATTO COLOR." Date available: 10/19/2017 Date last updated by company: 10/19/2017
