Source: USDA Branded Food Products Database Release December 2017 Software v.3.8.6.4 2017-10-02
Report Run at: December 17, 2017 20:44 EST
"Nutrient data for: 45137530, SHASTA, CITRUS SODA, GRAPEFRUIT ZAZZ, UPC: 04264521"
Food Group:  Branded Food Products Database
Common Name:

Nutrient,Unit,Data points,Std. Error,"8.0 OZA = 240.0g",1Value per 100 g,
Proximates
"Energy",kcal,--,--,79,33
"Protein",g,--,--,0.00,0.00
"Total lipid (fat)",g,--,--,0.00,0.00
"Carbohydrate, by difference",g,--,--,19.01,7.92
"Sugars, total",g,--,--,19.01,7.92
Minerals
"Sodium, Na",mg,--,--,36,15
Vitamins
Lipids
Amino Acids
Other
Ingredients
"CARBONATED WATER, HIGH FRUCTOSE CORN SYRUP, CITRIC ACID, GUM ACACIA, POTASSIUM BENZOATE (PRESERVATIVE), NATURAL FLAVOR, GLYCERYL ABIETATE, SUCRALOSE." Date available: 06/25/2017 Date last updated by company: 06/25/2017
