Source: USDA Branded Food Products Database Release December 2017 Software v.3.8.6.4 2017-10-02
Report Run at: December 17, 2017 20:43 EST
"Nutrient data for: 45158160, SHASHA, ORGANIC CLUSTERS, BULEBERRY, ALMOND, UPC: 671372700401"
Food Group:  Branded Food Products Database
Common Name:

Nutrient,Unit,Data points,Std. Error,"0.333 cup = 55.0g",1Value per 100 g,
Proximates
"Energy",kcal,--,--,220,400
"Protein",g,--,--,7.00,12.73
"Total lipid (fat)",g,--,--,5.00,9.09
"Carbohydrate, by difference",g,--,--,37.00,67.27
"Fiber, total dietary",g,--,--,7.0,12.7
"Sugars, total",g,--,--,7.00,12.73
Minerals
"Calcium, Ca",mg,--,--,20,36
"Iron, Fe",mg,--,--,1.31,2.38
"Magnesium, Mg",mg,--,--,182,331
"Potassium, K",mg,--,--,150,273
"Sodium, Na",mg,--,--,20,36
"Zinc, Zn",mg,--,--,2.25,4.09
"Manganese, Mn",mg,--,--,0.550,1.000
Vitamins
"Vitamin C, total ascorbic acid",mg,--,--,4.3,7.9
"Thiamin",mg,--,--,0.000,0.000
"Riboflavin",mg,--,--,0.068,0.124
"Niacin",mg,--,--,2.728,4.960
"Vitamin B-6",mg,--,--,0.145,0.264
"Vitamin A, IU",IU,--,--,0,0
Lipids
"Fatty acids, total saturated",g,--,--,0.501,0.910
"Fatty acids, total trans",g,--,--,0.000,0.000
"Cholesterol",mg,--,--,0,0
Amino Acids
Other
Ingredients
"ORGANIC BUCKWHEAT GROATS, ORGANIC SUNFLOWER SEEDS, ORGANIC AGAVE SYRUP, ORGANIC DRIED BLUEBERRIES (ORGANIC SUGAR, ORGANIC SUNFLOWER OIL), ORGANIC DRIED APPLE, ORGANIC SULTANA RAISINS (ORGANIC SUNFLOWER OIL), ORGANIC ALMONDS, CHICORY ROOT INULIN, ORGANIC VANILLA EXTRACT, ORGANIC BLUEBERRY FLAVOR, SEA SALT, BACILLUS COAGULANS GBI-30 6086." Date available: 07/14/2017 Date last updated by company: 07/14/2017
