Source: USDA Branded Food Products Database Release December 2017 Software v.3.8.6.4 2017-10-02
Report Run at: December 17, 2017 20:43 EST
"Nutrient data for: 45148326, SHASTA, CAFFEINE FREE SODA, KIWI STRAWBERRY, UPC: 042200015460"
Food Group:  Branded Food Products Database
Common Name:

Nutrient,Unit,Data points,Std. Error,"1 CAN = 355.0g",1Value per 100 g,
Proximates
"Energy",kcal,--,--,138,39
"Protein",g,--,--,0.00,0.00
"Total lipid (fat)",g,--,--,0.00,0.00
"Carbohydrate, by difference",g,--,--,34.01,9.58
"Sugars, total",g,--,--,34.01,9.58
Minerals
"Sodium, Na",mg,--,--,39,11
Vitamins
Lipids
Amino Acids
Other
Ingredients
"CARBONATED WATER, HIGH FRUCTOSE CORN SYRUP, CITRIC ACID, NATURAL AND ARTIFICIAL FLAVORS, POTASSIUM BENZOATE (PRESERVATIVE), SUCRALOSE, LACTIC ACID, RED 40." Date available: 07/14/2017 Date last updated by company: 07/14/2017
