Source: USDA Branded Food Products Database Release December 2017 Software v.3.8.6.4 2017-10-02
Report Run at: December 17, 2017 20:43 EST
"Nutrient data for: 45144918, SHASHA CO, TRAVELER'S FRIEND, GINGER SNAPS SPELT, UPC: 671372602200"
Food Group:  Branded Food Products Database
Common Name:

Nutrient,Unit,Data points,Std. Error,"14.0 COOKIES = 30.0g",1Value per 100 g,
Proximates
"Energy",kcal,--,--,130,433
"Protein",g,--,--,3.00,10.00
"Total lipid (fat)",g,--,--,3.00,10.00
"Carbohydrate, by difference",g,--,--,23.00,76.67
"Fiber, total dietary",g,--,--,2.0,6.7
"Sugars, total",g,--,--,8.00,26.67
Minerals
"Calcium, Ca",mg,--,--,20,67
"Iron, Fe",mg,--,--,0.90,3.00
"Potassium, K",mg,--,--,90,300
"Sodium, Na",mg,--,--,30,100
Vitamins
"Vitamin C, total ascorbic acid",mg,--,--,0.0,0.0
"Vitamin A, IU",IU,--,--,0,0
Lipids
"Fatty acids, total saturated",g,--,--,0.999,3.330
"Fatty acids, total trans",g,--,--,0.000,0.000
"Cholesterol",mg,--,--,0,0
Amino Acids
Other
Ingredients
"ORGANIC WHOLE SPELT FLOUR, ORGANIC EVAPORATED CANE JUICE, FILTERED WATER, ORGANIC PALM FRUIT OIL, ORGANIC SUNFLOWER OIL, ORGANIC MALT SYRUP, ORGANIC HONEY, CHICORY ROOT INULIN, ORGANIC SPICES, ORGANIC GROUND GINGER, SEA SALT, BAKING POWDER, BACILLUS COAGULANS GBI-30 6086" Date available: 07/14/2017 Date last updated by company: 07/14/2017
