Source: USDA Branded Food Products Database Release December 2017 Software v.3.8.6.4 2017-10-02
Report Run at: December 17, 2017 20:46 EST
"Nutrient data for: 45141704, SHAW'S MARKET FRESH, SUGAR COOKIES, UPC: 041144996835"
Food Group:  Branded Food Products Database
Common Name:

Nutrient,Unit,Data points,Std. Error,"100.0 GRM = 100.0g",1Value per 100 g,
Proximates
"Energy",kcal,--,--,520,520
"Protein",g,--,--,6.00,6.00
"Total lipid (fat)",g,--,--,26.00,26.00
"Carbohydrate, by difference",g,--,--,68.00,68.00
"Fiber, total dietary",g,--,--,3.0,3.0
"Sugars, total",g,--,--,42.00,42.00
Minerals
"Calcium, Ca",mg,--,--,60,60
"Iron, Fe",mg,--,--,1.80,1.80
"Sodium, Na",mg,--,--,390,390
Vitamins
"Vitamin C, total ascorbic acid",mg,--,--,0.0,0.0
"Thiamin",mg,--,--,0.000,0.000
"Riboflavin",mg,--,--,0.000,0.000
"Niacin",mg,--,--,0.000,0.000
"Vitamin A, IU",IU,--,--,100,100
Lipids
"Fatty acids, total saturated",g,--,--,14.000,14.000
"Fatty acids, total trans",g,--,--,0.000,0.000
"Cholesterol",mg,--,--,35,35
Amino Acids
Other
Ingredients
"SUGAR, WHEAT FLOUR, BLEACHED ENRICHED FLOUR (WHEAT FLOUR, NIACIN, REDUCED IRON, THIAMINE MONONITRATE, RIBOFLAVIN, FOLIC ACID), BUTTER (CREAM MILK, SALT, VEGETABLE SHORTENING (PALM OIL), WHOLE EGGS, CONTAINS LESS THAN 2% OF THE FOLLOWING: HIGH FRUCTOSE CORN SYRUP, SALT, WATER, SODIUM BICARBONATE, SODIUM ACID PYROPHOSPHATE. ICING: SHORTENING (CANOLA OIL AND/OR SOYBEAN OIL, MONO & DIGLYCERIDES, POLYSORBATE 60, TBHQ, CORN SYRUP, CORN STARCH, GUAR GUM, PHOSPHORIC ACID, ARTIFICIAL COLOR, POTASSIUM SORBATE, SODIUM BENZOATE, DEXTROSE, SODIUM CASEINATE, SORBIC ACID, CELLULOSE GUM, SOY LECITHIN, POLYGLYCEROL ESTERS OF FATTY ACIDS, XANTHAN GUM COLORS: YELLOW 5 & 6 LAKE, BLUE 2 LAKE & 1, RED 40 LAKE & 3." Date available: 07/14/2017 Date last updated by company: 07/14/2017
