Source: USDA Branded Food Products Database Release December 2017 Software v.3.8.6.4 2017-10-02
Report Run at: December 17, 2017 20:47 EST
"Nutrient data for: 45188711, SHEEP'S MILK KASHKAVAL, UPC: 893994002125"
Food Group:  Branded Food Products Database
Common Name:

Nutrient,Unit,Data points,Std. Error,"1 ONZ = 28.0g",1Value per 100 g,
Proximates
"Energy",kcal,--,--,110,393
"Protein",g,--,--,7.00,25.00
"Total lipid (fat)",g,--,--,9.00,32.14
"Carbohydrate, by difference",g,--,--,1.00,3.57
"Fiber, total dietary",g,--,--,0.0,0.0
"Sugars, total",g,--,--,0.00,0.00
Minerals
"Calcium, Ca",mg,--,--,250,893
"Iron, Fe",mg,--,--,0.00,0.00
"Sodium, Na",mg,--,--,60,214
Vitamins
"Vitamin C, total ascorbic acid",mg,--,--,0.0,0.0
"Vitamin A, IU",IU,--,--,0,0
Lipids
"Fatty acids, total saturated",g,--,--,9.643,34.440
"Fatty acids, total trans",g,--,--,0.960,3.430
"Cholesterol",mg,--,--,25,89
Amino Acids
Other
Ingredients
"PASTEURIZED SHEEP'S MILK, STARTER CULTURE, RENNET, SALT." Date available: 10/13/2017 Date last updated by company: 10/13/2017
