Source: USDA Branded Food Products Database Release December 2017 Software v.3.8.6.4 2017-10-02
Report Run at: December 17, 2017 20:48 EST
"Nutrient data for: 45090352, SHELLED PISTACHIOS, UPC: 010300343646"
Food Group:  Branded Food Products Database
Common Name:

Nutrient,Unit,Data points,Std. Error,"0.25 cup = 30.0g",1Value per 100 g,
Proximates
"Energy",kcal,--,--,170,567
"Protein",g,--,--,6.00,20.00
"Total lipid (fat)",g,--,--,14.00,46.67
"Carbohydrate, by difference",g,--,--,8.00,26.67
"Fiber, total dietary",g,--,--,3.0,10.0
"Sugars, total",g,--,--,2.00,6.67
Minerals
"Calcium, Ca",mg,--,--,40,133
"Iron, Fe",mg,--,--,1.80,6.00
"Potassium, K",mg,--,--,310,1033
"Sodium, Na",mg,--,--,0,0
Vitamins
"Vitamin C, total ascorbic acid",mg,--,--,2.0,6.7
"Vitamin A, IU",IU,--,--,166,555
Lipids
"Fatty acids, total saturated",g,--,--,1.500,5.000
"Fatty acids, total monounsaturated",g,--,--,6.999,23.330
"Fatty acids, total polyunsaturated",g,--,--,3.999,13.330
"Fatty acids, total trans",g,--,--,0.000,0.000
"Cholesterol",mg,--,--,0,0
Amino Acids
Other
Ingredients
"PISTACHIOS" Date available: 07/14/2017 Date last updated by company: 07/14/2017
