Source: USDA Branded Food Products Database Release December 2017 Software v.3.8.6.4 2017-10-02
Report Run at: December 17, 2017 20:48 EST
"Nutrient data for: 45318710, SHELL CHOCOLATE TOPPINGS, UPC: 03460007"
Food Group:  Branded Food Products Database
Common Name:

Nutrient,Unit,Data points,Std. Error,"2.0 Tbsp = 35.0g",1Value per 100 g,
Proximates
"Energy",kcal,--,--,220,629
"Protein",g,--,--,1.00,2.86
"Total lipid (fat)",g,--,--,18.00,51.43
"Carbohydrate, by difference",g,--,--,16.00,45.71
"Fiber, total dietary",g,--,--,1.0,2.9
"Sugars, total",g,--,--,14.00,40.00
Minerals
"Iron, Fe",mg,--,--,0.36,1.03
"Sodium, Na",mg,--,--,15,43
Vitamins
Lipids
"Fatty acids, total saturated",g,--,--,12.001,34.290
Amino Acids
Other
Ingredients
"SUGAR; PALM OIL; COCONUT OIL; COCOA; CONTAINS 2% OR LESS OF: SOY LECITHIN; ARTIFICIAL FLAVORS; SALT; MILK." Date available: 06/25/2017 Date last updated by company: 06/25/2017
