Source: USDA Branded Food Products Database Release December 2017 Software v.3.8.6.4 2017-10-02
Report Run at: December 17, 2017 20:55 EST
"Nutrient data for: 45102170, SHIBOLIM, WHOLE WHEAT K'NOCKERS, UPC: 852686001266"
Food Group:  Branded Food Products Database
Common Name:

Nutrient,Unit,Data points,Std. Error,"7.0 CRACKERS = 14.0g",1Value per 100 g,
Proximates
"Energy",kcal,--,--,54,386
"Protein",g,--,--,2.00,14.29
"Total lipid (fat)",g,--,--,1.50,10.71
"Carbohydrate, by difference",g,--,--,10.00,71.43
"Fiber, total dietary",g,--,--,1.5,10.7
"Sugars, total",g,--,--,0.00,0.00
Minerals
"Sodium, Na",mg,--,--,45,321
Vitamins
Lipids
"Fatty acids, total saturated",g,--,--,0.000,0.000
"Fatty acids, total trans",g,--,--,0.000,0.000
"Cholesterol",mg,--,--,0,0
Amino Acids
Other
Ingredients
"WHOLE WHEAT FLOUR (CONTAINS GLUTEN), WATER, EXPELLER PRESSED PALM FRUIT OIL, HONEY, MALT NATURAL VINEGAR, POPPY SEEDS, GROUND ONION, SALT, GROUND GARLIC, NATURAL ROSEMARY EXTRACT." Date available: 10/13/2017 Date last updated by company: 10/13/2017
