Source: USDA Branded Food Products Database Release December 2017 Software v.3.8.6.4 2017-10-02
Report Run at: December 17, 2017 20:56 EST
"Nutrient data for: 45149815, SHIMMER COLOR SIXLETS CANDY, UPC: 800093948209"
Food Group:  Branded Food Products Database
Common Name:

Nutrient,Unit,Data points,Std. Error,"8.0 PIECES = 7.0g",1Value per 100 g,
Proximates
"Energy",kcal,--,--,30,429
"Protein",g,--,--,0.00,0.00
"Total lipid (fat)",g,--,--,1.50,21.43
"Carbohydrate, by difference",g,--,--,5.00,71.43
"Fiber, total dietary",g,--,--,0.0,0.0
"Sugars, total",g,--,--,5.00,71.43
Minerals
"Calcium, Ca",mg,--,--,0,0
"Iron, Fe",mg,--,--,0.00,0.00
"Sodium, Na",mg,--,--,15,214
Vitamins
"Vitamin C, total ascorbic acid",mg,--,--,0.0,0.0
"Vitamin A, IU",IU,--,--,0,0
Lipids
"Fatty acids, total saturated",g,--,--,1.000,14.290
"Fatty acids, total trans",g,--,--,0.000,0.000
"Cholesterol",mg,--,--,0,0
Amino Acids
Other
Ingredients
"SUGAR, DEXTROSE, HYDROGENATED PALM KERNEL OIL, REDUCED PROTEIN WHEY (MILK), COCOA, CORN SYRUP, CAROB, TAPIOCA DEXTRIN, LECITHIN (SOYA), NATURAL AND ARTIFICIAL FLAVORS, SALT, HPMC, CARNAUBA WAX, BEES WAX, MICA BASED PEARLESCENT PIGMENT, COLORS (BLUE 1, TITANIUM DIOXIDE)." Date available: 07/14/2017 Date last updated by company: 07/14/2017
