Source: USDA Branded Food Products Database Release December 2017 Software v.3.8.6.4 2017-10-02
Report Run at: December 17, 2017 20:57 EST
"Nutrient data for: 45090923, SHINY, JAM, APPLE, UPC: 4970180600054"
Food Group:  Branded Food Products Database
Common Name:

Nutrient,Unit,Data points,Std. Error,"0.7 ONZ = 20.0g",1Value per 100 g,
Proximates
"Energy",kcal,--,--,34,170
"Protein",g,--,--,0.00,0.00
"Total lipid (fat)",g,--,--,0.00,0.00
"Carbohydrate, by difference",g,--,--,8.00,40.00
"Fiber, total dietary",g,--,--,0.2,1.2
"Sugars, total",g,--,--,8.00,40.00
Minerals
"Calcium, Ca",mg,--,--,0,0
"Iron, Fe",mg,--,--,0.00,0.00
"Sodium, Na",mg,--,--,2,10
Vitamins
"Vitamin C, total ascorbic acid",mg,--,--,0.0,0.0
"Vitamin A, IU",IU,--,--,0,0
Lipids
"Fatty acids, total trans",g,--,--,0.000,0.000
"Cholesterol",mg,--,--,0,0
Amino Acids
Other
Ingredients
"APPLE, SUGAR, PECTIN, ASCORBIC ACID, CITRIC ACID, CALCIUM LACTATE." Date available: 06/25/2017 Date last updated by company: 06/25/2017
