Source: USDA Branded Food Products Database Release December 2017 Software v.3.8.6.4 2017-10-02
Report Run at: December 17, 2017 21:38 EST
"Nutrient data for: 45040691, SHOPRITE, SWIRL RYE BREAD, UPC: 041190571345"
Food Group:  Branded Food Products Database
Common Name:

Nutrient,Unit,Data points,Std. Error,"1 SLICE = 32.0g",1Value per 100 g,
Proximates
"Energy",kcal,--,--,90,281
"Protein",g,--,--,3.00,9.38
"Total lipid (fat)",g,--,--,1.00,3.12
"Carbohydrate, by difference",g,--,--,18.00,56.25
"Fiber, total dietary",g,--,--,2.0,6.2
"Sugars, total",g,--,--,1.00,3.12
Minerals
"Calcium, Ca",mg,--,--,40,125
"Iron, Fe",mg,--,--,1.69,5.28
"Potassium, K",mg,--,--,45,141
"Sodium, Na",mg,--,--,220,688
Vitamins
"Vitamin C, total ascorbic acid",mg,--,--,0.0,0.0
"Thiamin",mg,--,--,0.320,1.000
"Riboflavin",mg,--,--,0.068,0.212
"Niacin",mg,--,--,1.876,5.862
"Vitamin A, IU",IU,--,--,0,0
Lipids
"Fatty acids, total saturated",g,--,--,0.000,0.000
"Fatty acids, total monounsaturated",g,--,--,0.000,0.000
"Fatty acids, total polyunsaturated",g,--,--,0.499,1.560
"Fatty acids, total trans",g,--,--,0.000,0.000
"Cholesterol",mg,--,--,0,0
Amino Acids
Other
Ingredients
"ENRICHED FLOUR (WHEAT FLOUR, MALTED BARELY FLOUR, NIACIN, REDUCED IRON, THIAMIN MONONITRATE, RIBOFLAVIN, FOLIC ACID), WATER, WHITE RYE LOUR, RYE FLAKES, YEAST, CONTAINS 2% OR LESS OF EACH OF THE FOLLOWING: SALT, CARAMEL COLOR WITH SULFITES, SOYBEAN OIL, HIGH FRUCTOSE CORN SYRUP, WHEAT GLUTEN, GROUND CARAWAY SEEDS, WHEAT FLOUR, CARAWAY SEEDS, VINEGAR, RYE FLOUR, MONO AND DIGLYCERIDES, ONION POWDER, GARLIC POWDER, CALCIUM SULFATE, CORN STARCH, LACTIC ACID, ACETIC ACID, ENZYMES, CITRIC ACID, ASCORBIC ACID (DOUGH CONDITIONER), HIGH OLEIC CANOLA OIL, SPICES, POLYSORBATE 60, SILICON DIOXIDE." Date available: 06/24/2017 Date last updated by company: 06/24/2017
