Source: USDA Branded Food Products Database Release December 2017 Software v.3.8.6.4 2017-10-02
Report Run at: December 17, 2017 21:37 EST
"Nutrient data for: 45023615, SHOPRITE, STEAM & PIECES MUSHROOMS, UPC: 041190008278"
Food Group:  Branded Food Products Database
Common Name:

Nutrient,Unit,Data points,Std. Error,"0.5 cup = 120.0g",1Value per 100 g,
Proximates
"Energy",kcal,--,--,30,25
"Protein",g,--,--,3.00,2.50
"Total lipid (fat)",g,--,--,0.00,0.00
"Carbohydrate, by difference",g,--,--,4.00,3.33
"Fiber, total dietary",g,--,--,2.0,1.7
"Sugars, total",g,--,--,1.00,0.83
Minerals
"Calcium, Ca",mg,--,--,0,0
"Iron, Fe",mg,--,--,1.16,0.97
"Sodium, Na",mg,--,--,320,267
Vitamins
"Vitamin C, total ascorbic acid",mg,--,--,0.0,0.0
"Vitamin A, IU",IU,--,--,0,0
Lipids
"Fatty acids, total saturated",g,--,--,0.000,0.000
"Fatty acids, total trans",g,--,--,0.000,0.000
"Cholesterol",mg,--,--,0,0
Amino Acids
Other
Ingredients
"MUSHROOMS, WATER, SALT AND CITRIC ACID." Date available: 06/25/2017 Date last updated by company: 06/25/2017
