Source: USDA Branded Food Products Database Release December 2017 Software v.3.8.6.4 2017-10-02
Report Run at: December 17, 2017 21:33 EST
"Nutrient data for: 45047862, SHOP RITE, SHIITAKE MUSHROOMS, UPC: 041190049721"
Food Group:  Branded Food Products Database
Common Name:

Nutrient,Unit,Data points,Std. Error,"3.0 oz = 85.0g",1Value per 100 g,
Proximates
"Energy",kcal,--,--,30,35
"Protein",g,--,--,2.00,2.35
"Total lipid (fat)",g,--,--,0.00,0.00
"Carbohydrate, by difference",g,--,--,6.00,7.06
"Fiber, total dietary",g,--,--,2.0,2.4
"Sugars, total",g,--,--,2.00,2.35
Minerals
"Calcium, Ca",mg,--,--,0,0
"Iron, Fe",mg,--,--,0.36,0.42
"Sodium, Na",mg,--,--,10,12
Vitamins
"Vitamin C, total ascorbic acid",mg,--,--,0.0,0.0
"Vitamin A, IU",IU,--,--,0,0
Lipids
"Fatty acids, total saturated",g,--,--,0.000,0.000
"Fatty acids, total trans",g,--,--,0.000,0.000
"Cholesterol",mg,--,--,0,0
Amino Acids
Other
Ingredients
"SHIITAKE MUSHROOMS." Date last updated by company: 03/06/2014
