Source: USDA Branded Food Products Database Release December 2017 Software v.3.8.6.4 2017-10-02
Report Run at: December 17, 2017 21:13 EST
"Nutrient data for: 45028534, SHOPRITE, FRUIT COCKTAIL IN PEAR JUICE, UPC: 041190026753"
Food Group:  Branded Food Products Database
Common Name:

Nutrient,Unit,Data points,Std. Error,"0.5 cup = 124.0g",1Value per 100 g,
Proximates
"Energy",kcal,--,--,60,48
"Protein",g,--,--,1.00,0.81
"Total lipid (fat)",g,--,--,0.00,0.00
"Carbohydrate, by difference",g,--,--,14.00,11.29
"Fiber, total dietary",g,--,--,1.0,0.8
"Sugars, total",g,--,--,11.00,8.87
Minerals
"Calcium, Ca",mg,--,--,0,0
"Iron, Fe",mg,--,--,0.00,0.00
"Sodium, Na",mg,--,--,10,8
Vitamins
"Vitamin C, total ascorbic acid",mg,--,--,1.4,1.1
"Vitamin A, IU",IU,--,--,226,182
Lipids
"Fatty acids, total saturated",g,--,--,0.000,0.000
"Fatty acids, total trans",g,--,--,0.000,0.000
"Cholesterol",mg,--,--,0,0
Amino Acids
Other
Ingredients
"DICED PEACHES, DICED PEARS, WATER, GRAPES, PEAR JUICE CONCENTRATE, PINEAPPLE SEGMENTS, HALVED CHERRIES COLORED RED WITH CARMINE." Date available: 07/14/2017 Date last updated by company: 07/14/2017
