Source: USDA Branded Food Products Database Release December 2017 Software v.3.8.6.4 2017-10-02
Report Run at: December 17, 2017 21:27 EST
"Nutrient data for: 45028306, SHOPRITE, PECAN COOKIES, CHOCOLATE CHIP, UPC: 041190048175"
Food Group:  Branded Food Products Database
Common Name:

Nutrient,Unit,Data points,Std. Error,"1 COOKIE = 26.0g",1Value per 100 g,
Proximates
"Energy",kcal,--,--,140,538
"Protein",g,--,--,1.00,3.85
"Total lipid (fat)",g,--,--,8.00,30.77
"Carbohydrate, by difference",g,--,--,13.00,50.00
"Fiber, total dietary",g,--,--,1.0,3.8
"Sugars, total",g,--,--,9.00,34.62
Minerals
"Calcium, Ca",mg,--,--,0,0
"Iron, Fe",mg,--,--,0.69,2.67
"Sodium, Na",mg,--,--,120,462
Vitamins
"Vitamin C, total ascorbic acid",mg,--,--,0.0,0.0
"Vitamin A, IU",IU,--,--,385,1479
Lipids
"Fatty acids, total saturated",g,--,--,3.000,11.540
"Fatty acids, total trans",g,--,--,0.000,0.000
"Cholesterol",mg,--,--,10,38
Amino Acids
Other
Ingredients
"ENRICHED BLEACHED WHEAT FLOUR (CONTAINING NIACIN, REDUCED IRON, THIAMIN MONONITRATE, RIBOFLAVIN, FOLIC ACID), CHOCOLATE CHIPS, (SUGAR, CHOCOLATE LIQUOR, COCOA BUTTER, BUTTER FAT [MILK], SOY LECITHIN, VANILLA), PECANS, MARGARINE (PALM OIL, SOYBEAN OIL, SALT, DAIRY WHEY, MONOGLYCERIDES, SOY LECITHIN, NATURAL BUTTER FLAVOR (MILK), CITRIC ACID, BETA CAROTENE [COLOR], VITAMIN A PALMITATE), SUGAR, BROWN SUGAR, BUTTER (MILK), WHOLE EGGS, LEAVENING (SODIUM BICARBONATE), NATURAL FLAVOR, SALT." Date available: 07/14/2017 Date last updated by company: 07/14/2017
