Source: USDA Branded Food Products Database Release December 2017 Software v.3.8.6.4 2017-10-02
Report Run at: December 17, 2017 21:24 EST
"Nutrient data for: 45016432, SHOPRITE, NONFAT GREEK YOGURT, PINEAPPLE, UPC: 041190462407"
Food Group:  Branded Food Products Database
Common Name:

Nutrient,Unit,Data points,Std. Error,"1 CONTAINER = 170.0g",1Value per 100 g,
Proximates
"Energy",kcal,--,--,150,88
"Protein",g,--,--,14.01,8.24
"Total lipid (fat)",g,--,--,0.00,0.00
"Carbohydrate, by difference",g,--,--,24.00,14.12
"Fiber, total dietary",g,--,--,1.0,0.6
"Sugars, total",g,--,--,23.00,13.53
Minerals
"Calcium, Ca",mg,--,--,150,88
"Iron, Fe",mg,--,--,0.00,0.00
"Potassium, K",mg,--,--,291,171
"Sodium, Na",mg,--,--,75,44
Vitamins
"Vitamin C, total ascorbic acid",mg,--,--,2.4,1.4
"Vitamin A, IU",IU,--,--,0,0
Lipids
"Fatty acids, total saturated",g,--,--,0.000,0.000
"Fatty acids, total trans",g,--,--,0.000,0.000
"Cholesterol",mg,--,--,10,6
Amino Acids
Other
Ingredients
"CULTURED PASTEURIZED SKIM MILK, SUGAR, PINEAPPLE, PINEAPPLE JUICE, PECTIN, NATURAL FLAVOR, LOCUST BEAN GUM, TURMERIC (FOR COLOR). CONTAINS FIVE LIVE ACTIVE CULTURES INCLUDING S. THERMOPHILUS, L.BULGARICUS, L. ACIDOPHILUS, BIFIDUS, AND L. CASEI." Date available: 07/14/2017 Date last updated by company: 07/14/2017
