Source: USDA Branded Food Products Database Release December 2017 Software v.3.8.6.4 2017-10-02
Report Run at: December 17, 2017 21:36 EST
"Nutrient data for: 45024195, SHOPRITE, SPECIAL EDITION FLATBREADS, ROSEMARY, UPC: 041190049677"
Food Group:  Branded Food Products Database
Common Name:

Nutrient,Unit,Data points,Std. Error,"2.0 CRACKERS = 14.0g",1Value per 100 g,
Proximates
"Energy",kcal,--,--,60,429
"Protein",g,--,--,2.00,14.29
"Total lipid (fat)",g,--,--,2.00,14.29
"Carbohydrate, by difference",g,--,--,10.00,71.43
"Fiber, total dietary",g,--,--,1.0,7.1
"Sugars, total",g,--,--,1.00,7.14
Minerals
"Calcium, Ca",mg,--,--,0,0
"Iron, Fe",mg,--,--,2.83,20.20
"Sodium, Na",mg,--,--,65,464
Vitamins
"Vitamin C, total ascorbic acid",mg,--,--,0.0,0.0
"Vitamin A, IU",IU,--,--,0,0
Lipids
"Fatty acids, total saturated",g,--,--,0.000,0.000
"Fatty acids, total trans",g,--,--,0.000,0.000
"Cholesterol",mg,--,--,0,0
Amino Acids
Other
Ingredients
"ENRICHED WHEAT FLOUR (WHEAT FLOUR, MALTED BARLEY FLOUR, NIACIN, REDUCED IRON, THIAMINE MONONITRATE, RIBOFLAVIN, FOLIC ACID), SESAME SEEDS, EXPELLER PRESSED CANOLA OIL, SUGAR, MINCED ONION, ROSEMARY MINCED GARLIC, SEA SALT, CARAWAY SEEDS, POPPY SEEDS, AND YEAST." Date available: 06/25/2017 Date last updated by company: 06/25/2017
