Source: USDA Branded Food Products Database Release December 2017 Software v.3.8.6.4 2017-10-02
Report Run at: December 17, 2017 21:42 EST
"Nutrient data for: 45017234, SHOPRITE, WHOLE CASHEWS, SALTED, UPC: 041190059089"
Food Group:  Branded Food Products Database
Common Name:

Nutrient,Unit,Data points,Std. Error,"20.0 PIECES = 28.0g",1Value per 100 g,
Proximates
"Energy",kcal,--,--,160,571
"Protein",g,--,--,5.00,17.86
"Total lipid (fat)",g,--,--,13.00,46.43
"Carbohydrate, by difference",g,--,--,8.00,28.57
"Fiber, total dietary",g,--,--,1.0,3.6
"Sugars, total",g,--,--,2.00,7.14
Minerals
"Calcium, Ca",mg,--,--,0,0
"Iron, Fe",mg,--,--,2.57,9.19
"Sodium, Na",mg,--,--,110,393
Vitamins
"Vitamin C, total ascorbic acid",mg,--,--,0.0,0.0
"Vitamin A, IU",IU,--,--,0,0
Lipids
"Fatty acids, total saturated",g,--,--,2.500,8.930
"Fatty acids, total trans",g,--,--,0.000,0.000
"Cholesterol",mg,--,--,0,0
Amino Acids
Other
Ingredients
"CASHEWS, CANOLA AND/OR PEANUT AND/OR COTTONSEED OIL, SEA SALT." Date available: 06/25/2017 Date last updated by company: 06/25/2017
