Source: USDA Branded Food Products Database Release December 2017 Software v.3.8.6.4 2017-10-02
Report Run at: December 17, 2017 21:40 EST
"Nutrient data for: 45008935, SHOPRITE, TYSON SPLIT CHICKEN BREAST WITH RIBS, UPC: 2606857012234"
Food Group:  Branded Food Products Database
Common Name:

Nutrient,Unit,Data points,Std. Error,"4.0 ONZ = 112.0g",1Value per 100 g,
Proximates
"Energy",kcal,--,--,190,170
"Protein",g,--,--,21.00,18.75
"Total lipid (fat)",g,--,--,12.00,10.71
"Carbohydrate, by difference",g,--,--,0.00,0.00
"Fiber, total dietary",g,--,--,0.0,0.0
"Sugars, total",g,--,--,0.00,0.00
Minerals
"Calcium, Ca",mg,--,--,0,0
"Iron, Fe",mg,--,--,0.00,0.00
"Sodium, Na",mg,--,--,40,36
Vitamins
"Vitamin C, total ascorbic acid",mg,--,--,0.0,0.0
"Vitamin A, IU",IU,--,--,0,0
Lipids
"Fatty acids, total saturated",g,--,--,3.494,3.120
"Fatty acids, total monounsaturated",g,--,--,4.995,4.460
"Fatty acids, total polyunsaturated",g,--,--,2.498,2.230
"Fatty acids, total trans",g,--,--,0.000,0.000
"Cholesterol",mg,--,--,80,71
Amino Acids
Other
Ingredients
"SPLIT CHICKEN BREAST WITH RIBS." Date available: 06/24/2017 Date last updated by company: 06/24/2017
