Source: USDA Branded Food Products Database Release December 2017 Software v.3.8.6.4 2017-10-02
Report Run at: December 17, 2017 21:32 EST
"Nutrient data for: 45025724, SHOPRITE, SCRUNCHY DRINK MIX, FRUIT PUNCH, UPC: 041190020300"
Food Group:  Branded Food Products Database
Common Name:

Nutrient,Unit,Data points,Std. Error,"8.0 FL. OZ. | MAKES = 17.0g",1Value per 100 g,
Proximates
"Energy",kcal,--,--,60,353
"Protein",g,--,--,0.00,0.00
"Total lipid (fat)",g,--,--,0.00,0.00
"Carbohydrate, by difference",g,--,--,16.00,94.12
"Sugars, total",g,--,--,16.00,94.12
Minerals
"Sodium, Na",mg,--,--,0,0
Vitamins
"Vitamin C, total ascorbic acid",mg,--,--,17.6,103.8
Lipids
"Fatty acids, total trans",g,--,--,0.000,0.000
Amino Acids
Other
Ingredients
"SUGAR, FRUCTOSE, CITRIC ACID (PROVIDES TARTNESS), NATURAL AND ARTIFICIAL FLAVOR, CALCIUM PHOSPHATE (PREVENTS CAKING), CORNSTARCH-MODIFIED, RED 40, ASCORBIC ACID (VITAMIN C), BLUE 1." Date available: 06/25/2017 Date last updated by company: 06/25/2017
