Source: USDA Branded Food Products Database Release December 2017 Software v.3.8.6.4 2017-10-02
Report Run at: December 17, 2017 21:41 EST
"Nutrient data for: 45023621, SHOPRITE, WHOLE ARTICHOKE HEARTS, UPC: 041190044474"
Food Group:  Branded Food Products Database
Common Name:

Nutrient,Unit,Data points,Std. Error,"0.5 cup = 126.0g",1Value per 100 g,
Proximates
"Energy",kcal,--,--,35,28
"Protein",g,--,--,2.00,1.59
"Total lipid (fat)",g,--,--,0.00,0.00
"Carbohydrate, by difference",g,--,--,6.00,4.76
"Fiber, total dietary",g,--,--,2.0,1.6
"Sugars, total",g,--,--,1.00,0.79
Minerals
"Calcium, Ca",mg,--,--,40,32
"Iron, Fe",mg,--,--,0.00,0.00
"Sodium, Na",mg,--,--,420,333
Vitamins
"Vitamin C, total ascorbic acid",mg,--,--,2.5,2.0
"Vitamin A, IU",IU,--,--,207,164
Lipids
"Fatty acids, total saturated",g,--,--,0.000,0.000
"Fatty acids, total trans",g,--,--,0.000,0.000
"Cholesterol",mg,--,--,0,0
Amino Acids
Other
Ingredients
"ARTICHOKE HEARTS, WATER, SALT, CITRIC ACID." Date available: 06/25/2017 Date last updated by company: 06/25/2017
