Source: USDA Branded Food Products Database Release December 2017 Software v.3.8.6.4 2017-10-02
Report Run at: December 17, 2017 21:32 EST
"Nutrient data for: 45020510, SHOPRITE, SHELLED BRAZILS, UPC: 041190002672"
Food Group:  Branded Food Products Database
Common Name:

Nutrient,Unit,Data points,Std. Error,"1 ONZ = 28.0g",1Value per 100 g,
Proximates
"Energy",kcal,--,--,190,679
"Protein",g,--,--,4.00,14.29
"Total lipid (fat)",g,--,--,19.00,67.86
"Carbohydrate, by difference",g,--,--,3.00,10.71
"Fiber, total dietary",g,--,--,2.0,7.1
"Sugars, total",g,--,--,0.00,0.00
Minerals
"Calcium, Ca",mg,--,--,40,143
"Iron, Fe",mg,--,--,1.29,4.59
"Sodium, Na",mg,--,--,0,0
Vitamins
"Vitamin C, total ascorbic acid",mg,--,--,0.0,0.0
"Vitamin A, IU",IU,--,--,0,0
Lipids
"Fatty acids, total saturated",g,--,--,5.001,17.860
"Fatty acids, total trans",g,--,--,0.000,0.000
"Cholesterol",mg,--,--,0,0
Amino Acids
Other
Ingredients
"SHELLED BRAZILS." Date available: 07/14/2017 Date last updated by company: 07/14/2017
