Source: USDA Branded Food Products Database Release December 2017 Software v.3.8.6.4 2017-10-02
Report Run at: December 17, 2017 21:32 EST
"Nutrient data for: 45202093, SHOPRITE, SESAME GINGER MARINADE, UPC: 041190044252"
Food Group:  Branded Food Products Database
Common Name:

Nutrient,Unit,Data points,Std. Error,"1 Tbsp = 15.0g",1Value per 100 g,
Proximates
"Energy",kcal,--,--,30,200
"Protein",g,--,--,0.00,0.00
"Total lipid (fat)",g,--,--,0.00,0.00
"Carbohydrate, by difference",g,--,--,7.00,46.67
"Sugars, total",g,--,--,6.00,40.00
Minerals
"Sodium, Na",mg,--,--,580,3867
Vitamins
Lipids
Amino Acids
Other
Ingredients
"HIGH FRUCTOSE CORN SYRUP, MANDARIN ORANGE JUICE FROM CONCENTRATE, SOY SAUCE (WATER, SOYBEANS, SALT, WHEAT), WATER, SALT, DISTILLED VINEGAR, MODIFIED FOOD STARCH, CONTAINS LESS THAN 1% OF SESAME OIL, SESAME SEEDS, YEAST EXTRACT, GARLIC POWDER, CARAMEL COLOR, GINGER, XANTHAN GUM, CITRIC ACID, POTASSIUM SORBATE AND SODIUM BENZOATE (AS PRESERVATIVES), NATURAL FLAVOR." Date available: 06/25/2017 Date last updated by company: 06/25/2017
