Source: USDA Branded Food Products Database Release December 2017 Software v.3.8.6.4 2017-10-02
Report Run at: December 17, 2017 21:07 EST
"Nutrient data for: 45216771, SHOPRITE, CLEAR DELIGHT SPARKING BEVERAGE, KIWI STRAWBERRY, UPC: 041190041800"
Food Group:  Branded Food Products Database
Common Name:

Nutrient,Unit,Data points,Std. Error,"8.0 OZA = 240.0g",1Value per 100 g,
Proximates
"Energy",kcal,--,--,0,0
"Protein",g,--,--,0.00,0.00
"Total lipid (fat)",g,--,--,0.00,0.00
"Carbohydrate, by difference",g,--,--,0.00,0.00
"Sugars, total",g,--,--,0.00,0.00
Minerals
"Sodium, Na",mg,--,--,0,0
Vitamins
Lipids
Amino Acids
Other
Ingredients
"CARBONATED WATER, CITRIC ACID, POTASSIUM BENZOATE (PRESERVATIVE), ASPARTAME, NATURAL FLAVOR, ACESULFAME POTASSIUM, AND POTASSIUM CITRATE." Date available: 06/25/2017 Date last updated by company: 06/25/2017
