Source: USDA Branded Food Products Database Release December 2017 Software v.3.8.6.4 2017-10-02
Report Run at: December 17, 2017 21:20 EST
"Nutrient data for: 45040959, SHOPRITE, LIGHT FAT FREE YOGURT, BLUEBERRY, UPC: 041190461875"
Food Group:  Branded Food Products Database
Common Name:

Nutrient,Unit,Data points,Std. Error,"1 CONTAINER = 170.0g",1Value per 100 g,
Proximates
"Energy",kcal,--,--,90,53
"Protein",g,--,--,6.00,3.53
"Total lipid (fat)",g,--,--,0.00,0.00
"Carbohydrate, by difference",g,--,--,16.00,9.41
"Fiber, total dietary",g,--,--,0.0,0.0
"Sugars, total",g,--,--,11.00,6.47
Minerals
"Calcium, Ca",mg,--,--,201,118
"Iron, Fe",mg,--,--,0.00,0.00
"Potassium, K",mg,--,--,250,147
"Sodium, Na",mg,--,--,90,53
Vitamins
"Vitamin C, total ascorbic acid",mg,--,--,2.4,1.4
"Vitamin A, IU",IU,--,--,0,0
Lipids
"Fatty acids, total saturated",g,--,--,0.000,0.000
"Fatty acids, total trans",g,--,--,0.000,0.000
"Cholesterol",mg,--,--,5,3
Amino Acids
Other
Ingredients
"CULTURED PASTEURIZED GRADE A NONFAT MILK, BLUEBERRIES, FRUCTOSE, MODIFIED CORNSTARCH, KOSHER GELATIN, NATURAL FLAVORS, MALIC ACID, ASPARTAME*, POTASSIUM SORBATE (TO MAINTAIN FRESHNESS), RED 40 AND BLUE 1. CONTAINS ACTIVE YOGURT CULTURES INCLUDING L. BULGARICUS, S. THERMOPHILUS, BIFIDOBACTERIUM BB-12, L. ACIDOPHILUS AND L. CASEI." Date available: 07/14/2017 Date last updated by company: 07/14/2017
