Source: USDA Branded Food Products Database Release December 2017 Software v.3.8.6.4 2017-10-02
Report Run at: December 17, 2017 21:02 EST
"Nutrient data for: 45016941, SHOPRITE, APPLE SAUCE, UPC: 041190024810"
Food Group:  Branded Food Products Database
Common Name:

Nutrient,Unit,Data points,Std. Error,"1 UNIT = 113.0g",1Value per 100 g,
Proximates
"Energy",kcal,--,--,80,71
"Protein",g,--,--,0.00,0.00
"Total lipid (fat)",g,--,--,0.00,0.00
"Carbohydrate, by difference",g,--,--,20.00,17.70
"Fiber, total dietary",g,--,--,1.0,0.9
"Sugars, total",g,--,--,15.00,13.27
Minerals
"Calcium, Ca",mg,--,--,0,0
"Iron, Fe",mg,--,--,0.00,0.00
"Sodium, Na",mg,--,--,15,13
Vitamins
"Vitamin C, total ascorbic acid",mg,--,--,37.2,32.9
"Vitamin A, IU",IU,--,--,0,0
Lipids
"Fatty acids, total saturated",g,--,--,0.000,0.000
"Fatty acids, total trans",g,--,--,0.000,0.000
"Cholesterol",mg,--,--,0,0
Amino Acids
Other
Ingredients
"APPLES, SUGAR, WATER, ASCORBIC ACID (VITAMIN C), ERYTHORBIC ACID (TO MAINTAIN COLOR)." Date available: 06/25/2017 Date last updated by company: 06/25/2017
