Source: USDA Branded Food Products Database Release December 2017 Software v.3.8.6.4 2017-10-02
Report Run at: December 17, 2017 21:25 EST
"Nutrient data for: 45022149, SHOPRITE, ORGANIC GODDESS DRESSING, UPC: 041190043002"
Food Group:  Branded Food Products Database
Common Name:

Nutrient,Unit,Data points,Std. Error,"2.0 Tbsp = 30.0g",1Value per 100 g,
Proximates
"Energy",kcal,--,--,130,433
"Protein",g,--,--,1.00,3.33
"Total lipid (fat)",g,--,--,14.00,46.67
"Carbohydrate, by difference",g,--,--,1.00,3.33
"Fiber, total dietary",g,--,--,0.0,0.0
"Sugars, total",g,--,--,0.00,0.00
Minerals
"Calcium, Ca",mg,--,--,0,0
"Iron, Fe",mg,--,--,0.00,0.00
"Sodium, Na",mg,--,--,290,967
Vitamins
"Vitamin C, total ascorbic acid",mg,--,--,2.0,6.8
"Vitamin A, IU",IU,--,--,0,0
Lipids
"Fatty acids, total saturated",g,--,--,2.001,6.670
"Fatty acids, total trans",g,--,--,0.000,0.000
"Cholesterol",mg,--,--,0,0
Amino Acids
Other
Ingredients
"ORGANIC SOYBEAN OIL, FILTERED WATER, ORGANIC TAHINI, ORGANIC CIDER VINEGAR, ORGANIC SOY SAUCE, (WATER, ORGANIC SOYBEANS, SALT, ORGANIC WHEAT, ORGANIC ALCOHOL), ORGANIC LEMON JUICE CONCENTRATE, SALT, ORGANIC GARLIC POWDER, ORGANIC SESAME SEEDS, ORGANIC PARSLEY FLAKES, ORGANIC CHIVES, XANTHAN GUM (A NATURAL THICKENER)." Date available: 07/14/2017 Date last updated by company: 07/14/2017
