Source: USDA Branded Food Products Database Release December 2017 Software v.3.8.6.4 2017-10-02
Report Run at: December 17, 2017 21:11 EST
"Nutrient data for: 45021310, SHOPRITE, ENRICHED ALL PURPOSE BLEACHED FLOUR, UPC: 041190000715"
Food Group:  Branded Food Products Database
Common Name:

Nutrient,Unit,Data points,Std. Error,"0.25 cup = 30.0g",1Value per 100 g,
Proximates
"Energy",kcal,--,--,110,367
"Protein",g,--,--,3.00,10.00
"Total lipid (fat)",g,--,--,0.00,0.00
"Carbohydrate, by difference",g,--,--,23.00,76.67
"Fiber, total dietary",g,--,--,1.0,3.3
Minerals
"Iron, Fe",mg,--,--,2.40,8.00
"Sodium, Na",mg,--,--,0,0
Vitamins
"Thiamin",mg,--,--,0.300,1.000
"Riboflavin",mg,--,--,0.136,0.453
"Niacin",mg,--,--,2.666,8.887
Lipids
"Fatty acids, total trans",g,--,--,0.000,0.000
Amino Acids
Other
Ingredients
"BLEACHED WHEAT FLOUR, MALTED BARLEY FLOUR, NIACIN, IRON, THIAMINE MONONITRATE, RIBOFLAVIN, FOLIC ACID" Date available: 06/25/2017 Date last updated by company: 06/25/2017
