Source: USDA Branded Food Products Database Release December 2017 Software v.3.8.6.4 2017-10-02
Report Run at: December 17, 2017 21:15 EST
"Nutrient data for: 45023594, SHOPRITE, GRAVY, TURKEY, UPC: 041190039227"
Food Group:  Branded Food Products Database
Common Name:

Nutrient,Unit,Data points,Std. Error,"0.25 cup = 62.0g",1Value per 100 g,
Proximates
"Energy",kcal,--,--,25,40
"Protein",g,--,--,0.00,0.00
"Total lipid (fat)",g,--,--,1.00,1.61
"Carbohydrate, by difference",g,--,--,3.00,4.84
"Fiber, total dietary",g,--,--,0.0,0.0
"Sugars, total",g,--,--,0.00,0.00
Minerals
"Calcium, Ca",mg,--,--,0,0
"Iron, Fe",mg,--,--,0.00,0.00
"Sodium, Na",mg,--,--,310,500
Vitamins
"Vitamin C, total ascorbic acid",mg,--,--,0.0,0.0
"Vitamin A, IU",IU,--,--,0,0
Lipids
"Fatty acids, total saturated",g,--,--,0.000,0.000
"Fatty acids, total trans",g,--,--,0.000,0.000
"Cholesterol",mg,--,--,0,0
Amino Acids
Other
Ingredients
"TURKEY BROTH, WHEAT FLOUR, MODIFIED CORN STARCH, CHICKEN FAT, SALT, TURKEY FLAVOR (NATURAL FLAVOR, SALT, TURKEY FAT, MONO AND DIGLYCERIDES), YEAST EXTRACT, MONOSODIUM GLUTAMATE, ONION POWDER, SEASONING (NATURAL FLAVOR, SALT, SUGAR, MONO AND DIGLYCERIDES, XANTHAN GUM), CHICKEN FLAVOR (CHICKEN BROTH, CHICKEN, SALT, FLAVOR), NATURAL FLAVOR, SEASONING (HYDROLYZED CORN GLUTEN, THIAMINE HYDROCHLORIDE AND PARTIALLY HYDROGENATED SOYBEAN OIL), CARAMEL COLOR." Date available: 06/25/2017 Date last updated by company: 06/25/2017
