Source: USDA Branded Food Products Database Release December 2017 Software v.3.8.6.4 2017-10-02
Report Run at: December 17, 2017 21:02 EST
"Nutrient data for: 45023027, SHOPRITE, ALL NATURAL SPAGHETTI SAUCE, MEAT, UPC: 041190049400"
Food Group:  Branded Food Products Database
Common Name:

Nutrient,Unit,Data points,Std. Error,"0.5 cup = 125.0g",1Value per 100 g,
Proximates
"Energy",kcal,--,--,80,64
"Protein",g,--,--,2.00,1.60
"Total lipid (fat)",g,--,--,3.00,2.40
"Carbohydrate, by difference",g,--,--,10.00,8.00
"Fiber, total dietary",g,--,--,2.0,1.6
"Sugars, total",g,--,--,6.00,4.80
Minerals
"Calcium, Ca",mg,--,--,20,16
"Iron, Fe",mg,--,--,1.14,0.91
"Sodium, Na",mg,--,--,460,368
Vitamins
"Vitamin C, total ascorbic acid",mg,--,--,6.4,5.1
"Vitamin A, IU",IU,--,--,422,338
Lipids
"Fatty acids, total saturated",g,--,--,1.000,0.800
"Fatty acids, total trans",g,--,--,0.000,0.000
"Cholesterol",mg,--,--,0,0
Amino Acids
Other
Ingredients
"TOMATO PUREE (WATER, TOMATO PASTE), GROUND TOMATOES IN PUREE, BEEF, SUGAR, SOYBEAN OIL, SALT, DEHYDRATED ONIONS, SPICES AND GARLIC." Date available: 06/25/2017 Date last updated by company: 06/25/2017
