Source: USDA Branded Food Products Database Release December 2017 Software v.3.8.6.4 2017-10-02
Report Run at: December 17, 2017 21:41 EST
"Nutrient data for: 45016966, SHOPRITE, WHOLE BERRY CRANBERRY SAUCE, CRANBERRY, UPC: 041190027835"
Food Group:  Branded Food Products Database
Common Name:

Nutrient,Unit,Data points,Std. Error,"0.25 cup = 70.0g",1Value per 100 g,
Proximates
"Energy",kcal,--,--,100,143
"Protein",g,--,--,0.00,0.00
"Total lipid (fat)",g,--,--,0.00,0.00
"Carbohydrate, by difference",g,--,--,25.00,35.71
"Fiber, total dietary",g,--,--,1.0,1.4
"Sugars, total",g,--,--,21.00,30.00
Minerals
"Calcium, Ca",mg,--,--,0,0
"Iron, Fe",mg,--,--,0.00,0.00
"Sodium, Na",mg,--,--,10,14
Vitamins
"Vitamin C, total ascorbic acid",mg,--,--,0.0,0.0
"Vitamin A, IU",IU,--,--,0,0
Lipids
"Fatty acids, total saturated",g,--,--,0.000,0.000
"Fatty acids, total trans",g,--,--,0.000,0.000
"Cholesterol",mg,--,--,0,0
Amino Acids
Other
Ingredients
"CRANBERRIES, HIGH FRUCTOSE CORN SYRUP, WATER AND CORN SYRUP." Date available: 06/25/2017 Date last updated by company: 06/25/2017
