Source: USDA Branded Food Products Database Release December 2017 Software v.3.8.6.4 2017-10-02
Report Run at: December 17, 2017 21:17 EST
"Nutrient data for: 45021966, SHOPRITE, IMPORTED ROASTED RED PEPPERS, UPC: 041190041138"
Food Group:  Branded Food Products Database
Common Name:

Nutrient,Unit,Data points,Std. Error,"2.0 oz = 56.0g",1Value per 100 g,
Proximates
"Energy",kcal,--,--,10,18
"Protein",g,--,--,0.00,0.00
"Total lipid (fat)",g,--,--,0.00,0.00
"Carbohydrate, by difference",g,--,--,2.00,3.57
"Fiber, total dietary",g,--,--,1.0,1.8
Minerals
"Calcium, Ca",mg,--,--,0,0
"Iron, Fe",mg,--,--,0.36,0.64
"Sodium, Na",mg,--,--,60,107
Vitamins
"Vitamin C, total ascorbic acid",mg,--,--,21.0,37.5
"Vitamin A, IU",IU,--,--,750,1339
Lipids
"Fatty acids, total saturated",g,--,--,0.000,0.000
"Cholesterol",mg,--,--,0,0
Amino Acids
Other
Ingredients
"ROASTED RED PEPPERS" Date available: 09/23/2016 Date last updated by company: 09/23/2016
