Source: USDA Branded Food Products Database Release December 2017 Software v.3.8.6.4 2017-10-02
Report Run at: December 17, 2017 21:44 EST
"Nutrient data for: 45271147, SHORTBREAD COOKIES, UPC: 880252250718"
Food Group:  Branded Food Products Database
Common Name:

Nutrient,Unit,Data points,Std. Error,"1 COOKIE = 49.0g",1Value per 100 g,
Proximates
"Energy",kcal,--,--,230,469
"Protein",g,--,--,3.00,6.12
"Total lipid (fat)",g,--,--,11.00,22.45
"Carbohydrate, by difference",g,--,--,29.00,59.18
"Fiber, total dietary",g,--,--,0.0,0.0
"Sugars, total",g,--,--,13.00,26.53
Minerals
"Calcium, Ca",mg,--,--,0,0
"Iron, Fe",mg,--,--,1.10,2.25
"Sodium, Na",mg,--,--,90,184
Vitamins
"Vitamin C, total ascorbic acid",mg,--,--,0.0,0.0
"Vitamin A, IU",IU,--,--,0,0
Lipids
"Fatty acids, total saturated",g,--,--,7.002,14.290
"Fatty acids, total trans",g,--,--,0.000,0.000
"Cholesterol",mg,--,--,35,71
Amino Acids
Other
Ingredients
"ENRICHED WHEAT FLOUR (WHEAT FLOUR, MALTED BARLEY FLOUR, NIACIN, REDUCED IRON, THIAMINE MONONITRATE, RIBOFLAVIN, FOLIC ACID), BUTTER (CREAM SALT, ANNATTO), CRYSTAL SUGAR, CANE SUGAR, EGGS, POWDERED CANE SUGAR (SUGAR, CORN STARCH), WATER, EGG WHITES, PURE VANILLA EXTRACT (WATER, ETHYL ALCOHOL (35%), VANILLA BEANS), NATURAL RED COLOR (BEETS, CITRIC ACID), NATURAL BLUE COLOR (VEGETABLE, FRUIT JUICES), NATURAL YELLOW COLOR (TURMERIC, CARAMEL COLOR), NATURAL BLACK COLOR (CARAMEL COLOR, VEGETABLE JUICE)." Date available: 07/14/2017 Date last updated by company: 07/14/2017
