Source: USDA Branded Food Products Database Release December 2017 Software v.3.8.6.4 2017-10-02
Report Run at: December 17, 2017 21:45 EST
"Nutrient data for: 45274239, SHORTCAKE, UPC: 770118900027"
Food Group:  Branded Food Products Database
Common Name:

Nutrient,Unit,Data points,Std. Error,"0.1 OF CAKE = 77.0g",1Value per 100 g,
Proximates
"Energy",kcal,--,--,210,273
"Protein",g,--,--,2.00,2.60
"Total lipid (fat)",g,--,--,11.00,14.29
"Carbohydrate, by difference",g,--,--,23.00,29.87
"Fiber, total dietary",g,--,--,1.0,1.3
"Sugars, total",g,--,--,15.00,19.48
Minerals
"Calcium, Ca",mg,--,--,40,52
"Iron, Fe",mg,--,--,0.38,0.49
"Sodium, Na",mg,--,--,220,286
Vitamins
"Vitamin C, total ascorbic acid",mg,--,--,5.0,6.5
"Vitamin A, IU",IU,--,--,104,135
Lipids
"Fatty acids, total saturated",g,--,--,4.497,5.840
"Fatty acids, total trans",g,--,--,0.000,0.000
"Cholesterol",mg,--,--,55,71
Amino Acids
Other
Ingredients
"HEAVY CREAM (CREAM, MILK SOLIDS, CELLULOSE GEL, CARRAGEENAN, CELLULOSE GUM), SWEETENED STRAWBERRIES (STRAWBERRIES, SUGAR), WATER, SUGAR, ENRICHED WHEAT FLOUR (WHEAT FLOUR, NIACIN, IRON, THIAMINE MONONITRATE, RIBOFLAVIN, FOLIC ACID), EGGS, ICING SUGAR (SUGAR, CORN STARCH), CANOLA OIL, MODIFIED CORN STARCH, NONFAT DRY MILK, BAKING POWDER (SODIUM ACID PYROPHOSPHATE, SODIUM BICARBONATE, MODIFIED CORN STARCH, MONOCALCIUM PHOSPHATE, CALCIUM SULFATE), GLUCOSE, WHITE CHOCOLATEY COATING (SUGAR, FRACTIONATED PALM KERNEL OIL, WHEY, NONFAT MILK, SOY LECITHIN, NATURAL FLAVOR), MODIFIED TAPIOCA STARCH, ALGINATE BLEND (SODIUM ALGINATE, SUGAR, SODIUM POLYPHOSPHATE, DICALCIUM PHOSPHATE), SALT, LEMON JUICE CONCENTRATE, ALGINATE BLEND (TETRASODIUM DIPHOSPHATE, SODIUM ALGINATE), XANTHAN GUM, NATURAL FLAVOR." Date available: 10/11/2017 Date last updated by company: 10/11/2017
