Source: USDA Branded Food Products Database Release December 2017 Software v.3.8.6.4 2017-10-02
Report Run at: December 17, 2017 21:44 EST
"Nutrient data for: 45036526, SHORTBREAD COOKIE MIX, UPC: 039978004659"
Food Group:  Branded Food Products Database
Common Name:

Nutrient,Unit,Data points,Std. Error,"2.0 COOKIES, PER CONTAINER = 33.0g",1Value per 100 g,
Proximates
"Energy",kcal,--,--,120,364
"Protein",g,--,--,1.00,3.03
"Total lipid (fat)",g,--,--,0.00,0.00
"Carbohydrate, by difference",g,--,--,29.00,87.88
"Fiber, total dietary",g,--,--,0.5,1.5
"Sugars, total",g,--,--,8.00,24.24
Minerals
"Calcium, Ca",mg,--,--,0,0
"Iron, Fe",mg,--,--,0.87,2.65
"Sodium, Na",mg,--,--,80,242
Vitamins
"Vitamin C, total ascorbic acid",mg,--,--,0.0,0.0
"Vitamin A, IU",IU,--,--,0,0
Lipids
"Fatty acids, total saturated",g,--,--,0.000,0.000
"Fatty acids, total trans",g,--,--,0.000,0.000
"Cholesterol",mg,--,--,0,0
Amino Acids
Other
Ingredients
"POTATO STARCH, SUGAR, WHOLE GRAIN, SORGHUM FLOUR, CORNSTARCH, TAPIOCA STARCH, SEA SALT (MAGNESIUM CARBONATE), XANTHAN GUM, NATURAL VANILLA POWDER (SUGAR, CORNSTARCH, VANILLA EXTRACT)" Date available: 10/04/2017 Date last updated by company: 10/04/2017
