Source: USDA Branded Food Products Database Release December 2017 Software v.3.8.6.4 2017-10-02
Report Run at: December 17, 2017 22:47 EST
"Nutrient data for: 45283042, SHREDDED WHITE CHICKEN IN BUFFALO SAUCE, UPC: 019722086261"
Food Group:  Branded Food Products Database
Common Name:

Nutrient,Unit,Data points,Std. Error,"2.0 ONZ = 56.0g",1Value per 100 g,
Proximates
"Energy",kcal,--,--,60,107
"Protein",g,--,--,7.00,12.50
"Total lipid (fat)",g,--,--,1.50,2.68
"Carbohydrate, by difference",g,--,--,3.00,5.36
"Fiber, total dietary",g,--,--,0.0,0.0
"Sugars, total",g,--,--,0.00,0.00
Minerals
"Calcium, Ca",mg,--,--,0,0
"Iron, Fe",mg,--,--,0.00,0.00
"Sodium, Na",mg,--,--,300,536
Vitamins
"Vitamin C, total ascorbic acid",mg,--,--,0.0,0.0
"Vitamin A, IU",IU,--,--,0,0
Lipids
"Fatty acids, total saturated",g,--,--,0.000,0.000
"Fatty acids, total trans",g,--,--,0.000,0.000
"Cholesterol",mg,--,--,30,54
Amino Acids
Other
Ingredients
"WHITE CHICKEN (WHITE CHICKEN MEAT, WATER, SALT, MODIFIED FOOD STARCH, SODIUM PHOSPHATES), SAUCE (WATER, MODIFIED CORN STARCH, APPLE CIDER VINEGAR POWDER [MALTODEXTRIN, APPLE CIDER VINEGAR, MODIFIED CORN STARCH], DRY HOT SAUCE [{AGED CAYENNE RED PEPPERS, DISTILLED VINEGAR, SALT, GARLIC POWDER}, MALTODEXTRIN], WHITE VINEGAR [MALTODEXTRIN, WHITE VINEGAR], PAPRIKA [COLOR], SUGAR, CITRIC ACID, MALIC ACID, NATURAL FLAVORS, YEAST EXTRACT, SPICE, DISODIUM INOSINATE, DISODIUM GUANYLATE, EXTRACTIVES OF PAPRIKA, XANTHAN GUM)." Date available: 07/14/2017 Date last updated by company: 07/14/2017
