Source: USDA Branded Food Products Database Release December 2017 Software v.3.8.6.4 2017-10-02
Report Run at: December 17, 2017 22:45 EST
"Nutrient data for: 45037734, SHREDDED RED CABBAGE, UPC: 035971359284"
Food Group:  Branded Food Products Database
Common Name:

Nutrient,Unit,Data points,Std. Error,"0.667 CUP) | (ABOUT = 57.0g",1Value per 100 g,
Proximates
"Energy",kcal,--,--,16,28
"Protein",g,--,--,1.00,1.75
"Total lipid (fat)",g,--,--,0.00,0.00
"Carbohydrate, by difference",g,--,--,4.00,7.02
"Fiber, total dietary",g,--,--,1.0,1.8
"Sugars, total",g,--,--,3.00,5.26
Minerals
"Calcium, Ca",mg,--,--,20,35
"Iron, Fe",mg,--,--,0.27,0.47
"Sodium, Na",mg,--,--,17,30
Vitamins
"Vitamin C, total ascorbic acid",mg,--,--,46.5,81.6
"Vitamin A, IU",IU,--,--,0,0
Lipids
"Fatty acids, total saturated",g,--,--,0.000,0.000
"Fatty acids, total trans",g,--,--,0.000,0.000
"Cholesterol",mg,--,--,0,0
Amino Acids
Other
Ingredients
"RED CABBAGE" Date available: 10/12/2017 Date last updated by company: 10/12/2017
