Source: USDA Branded Food Products Database Release December 2017 Software v.3.8.6.4 2017-10-02
Report Run at: December 17, 2017 22:37 EST
"Nutrient data for: 45266211, SHREDDED GRANA PADANO & PROVOLONE CHEESE, UPC: 046567506500"
Food Group:  Branded Food Products Database
Common Name:

Nutrient,Unit,Data points,Std. Error,"1 Tbsp = 5.0g",1Value per 100 g,
Proximates
"Energy",kcal,--,--,20,400
"Protein",g,--,--,2.00,40.00
"Total lipid (fat)",g,--,--,1.00,20.00
"Carbohydrate, by difference",g,--,--,0.00,0.00
"Fiber, total dietary",g,--,--,0.0,0.0
"Sugars, total",g,--,--,0.00,0.00
Minerals
"Calcium, Ca",mg,--,--,60,1200
"Iron, Fe",mg,--,--,0.00,0.00
"Sodium, Na",mg,--,--,30,600
Vitamins
"Vitamin C, total ascorbic acid",mg,--,--,0.0,0.0
"Vitamin A, IU",IU,--,--,0,0
Lipids
"Fatty acids, total saturated",g,--,--,1.000,20.000
"Fatty acids, total trans",g,--,--,0.000,0.000
"Cholesterol",mg,--,--,5,100
Amino Acids
Other
Ingredients
"GRANA PADANO: RAW'S COW MILK, SALT, RENNET, EGG WHITE LYSOZYME, PROVOLONE: COW'S MILK, SALT, RENNET, POWDERED CELLULOSE ADDED TO PREVENT CAKING" Date available: 07/14/2017 Date last updated by company: 07/14/2017
