Source: USDA Branded Food Products Database Release December 2017 Software v.3.8.6.4 2017-10-02
Report Run at: December 17, 2017 22:54 EST
"Nutrient data for: 45257955, SHRIMP, UPC: 688267160202"
Food Group:  Branded Food Products Database
Common Name:

Nutrient,Unit,Data points,Std. Error,"4.0 SHRIMP = 112.0g",1Value per 100 g,
Proximates
"Energy",kcal,--,--,260,232
"Protein",g,--,--,11.00,9.82
"Total lipid (fat)",g,--,--,14.00,12.50
"Carbohydrate, by difference",g,--,--,22.00,19.64
"Fiber, total dietary",g,--,--,1.0,0.9
"Sugars, total",g,--,--,0.00,0.00
Minerals
"Calcium, Ca",mg,--,--,200,179
"Iron, Fe",mg,--,--,0.55,0.49
"Sodium, Na",mg,--,--,570,509
Vitamins
"Vitamin C, total ascorbic acid",mg,--,--,0.0,0.0
"Vitamin A, IU",IU,--,--,0,0
Lipids
"Fatty acids, total saturated",g,--,--,3.494,3.120
"Fatty acids, total trans",g,--,--,0.000,0.000
"Cholesterol",mg,--,--,69,62
Amino Acids
Other
Ingredients
"SHRIMP (FARM RAISED SHRIMP, SODIUM CITRATE, SODIUM ACID CARBONATE, CITRIC ACID, SODIUM CHLORIDE), TEMPURA BATTER (PREDUST [MODIFIED TAPIOCA STARCH, SALT, CALCIUM CARBONATE], WATER, PREMIXED TEMPURA [WHEAT FLOUR, RICE, CORNSTARCH, TAPIOCA STARCH, POTATO STARCH, SALT, SUGAR, GUAR GUM, BAKING POWDER])." Date available: 07/14/2017 Date last updated by company: 07/14/2017
