Source: USDA Branded Food Products Database Release December 2017 Software v.3.8.6.4 2017-10-02
Report Run at: December 17, 2017 22:53 EST
"Nutrient data for: 45196696, SHRIMP, UPC: 041220866595"
Food Group:  Branded Food Products Database
Common Name:

Nutrient,Unit,Data points,Std. Error,"7.0 SHRIMP = 113.0g",1Value per 100 g,
Proximates
"Energy",kcal,--,--,299,265
"Protein",g,--,--,10.99,9.73
"Total lipid (fat)",g,--,--,18.00,15.93
"Carbohydrate, by difference",g,--,--,24.00,21.24
"Fiber, total dietary",g,--,--,3.1,2.7
"Sugars, total",g,--,--,0.99,0.88
Minerals
"Calcium, Ca",mg,--,--,60,53
"Iron, Fe",mg,--,--,0.54,0.48
"Potassium, K",mg,--,--,240,212
"Sodium, Na",mg,--,--,1150,1018
Vitamins
"Vitamin C, total ascorbic acid",mg,--,--,0.0,0.0
"Vitamin A, IU",IU,--,--,0,0
Lipids
"Fatty acids, total saturated",g,--,--,2.497,2.210
"Fatty acids, total trans",g,--,--,0.000,0.000
"Cholesterol",mg,--,--,55,49
Amino Acids
Other
Ingredients
"SHRIMP, BLEACHED WHEAT FLOUR, MODIFIED CORN STARCH, WATER, POTATO GRANULES, CHEDDAR CHEESE (PASTEURIZED MILK, CULTURES, SALT, ENZYMES), YELLOW CORN FLOUR, BUTTER (CREAM, SALT), SALT, DEHYDRATED POTATO, DRY POTATO MIX (POTATOES, CORN STARCH, GUAR GUM, SALT, METHYLCELLULOSE), MALTODEXTRIN, DISODIUM INOSINATE AND DISODIUM GUANYLATE, WHEY, NONFAT MILK, GARLIC AND ONION POWDER, DEXTROSE, EGG WHITES, WHEAT GLUTEN, NATURAL FLAVORS, SOYBEAN OIL, PALM OIL, CORN SYRUP SOLIDS, UNSALTED BUTTER (PASTEURIZED CREAM, NATURAL FLAVOR), NATURAL BUTTER FLAVOR, LEAVENING (SODIUM BICARBONATE, SODIUM ALUMINUM PHOSPHATE, SODIUM ACID PYROPHOSPHATE), SODIUM TRIPOLYPHOSPHATE, SUGAR, GUM ARABIC, YEAST, VINEGAR SOLIDS, DEHYDRATED CHIVES, SPICES, CONCENTRATED LEMON JUICE, LACTIC ACID, ANNATTO AND TURMERIC EXTRACT, SOY LECITHIN, MONO AND DIGLYCERIDES, YELLOW 5 & 6, SILICON DIOXIDE (ANTI-CAKING AGENT). PARTIALLY FRIED IN CANOLA OIL." Date available: 07/14/2017 Date last updated by company: 07/14/2017
