Source: USDA Branded Food Products Database Release December 2017 Software v.3.8.6.4 2017-10-02
Report Run at: December 17, 2017 22:48 EST
"Nutrient data for: 45271675, SHRIMP & CORN CHOWDER, UPC: 077958764162"
Food Group:  Branded Food Products Database
Common Name:

Nutrient,Unit,Data points,Std. Error,"1 cup = 245.0g",1Value per 100 g,
Proximates
"Energy",kcal,--,--,279,114
"Protein",g,--,--,11.00,4.49
"Total lipid (fat)",g,--,--,16.00,6.53
"Carbohydrate, by difference",g,--,--,23.01,9.39
"Fiber, total dietary",g,--,--,1.0,0.4
"Sugars, total",g,--,--,8.01,3.27
Minerals
"Calcium, Ca",mg,--,--,81,33
"Iron, Fe",mg,--,--,1.45,0.59
"Sodium, Na",mg,--,--,529,216
Vitamins
"Vitamin C, total ascorbic acid",mg,--,--,14.9,6.1
"Vitamin A, IU",IU,--,--,750,306
Lipids
"Fatty acids, total saturated",g,--,--,8.992,3.670
"Fatty acids, total trans",g,--,--,0.000,0.000
"Cholesterol",mg,--,--,100,41
Amino Acids
Other
Ingredients
"WATER, LIGHT CREAM, SHRIMP, CORN, POTATOES, ONIONS, RED BELL PEPPERS, CONTAINS 2% OR LESS OF: ROASTED CORN, BUTTER (CREAM, SALT), SUGAR, CORNSTARCH, WHEAT FLOUR, SOYBEAN OIL, ROASTED FLAVOR (SUNFLOWER OIL, NATURAL FLAVOR, SOY LECITHIN), SALT, SHRIMP STOCK (SHRIMP, SALT), GARLIC, NISIN PREPARATION AND SPICES." Date available: 07/14/2017 Date last updated by company: 07/14/2017
