Source: USDA Branded Food Products Database Release December 2017 Software v.3.8.6.4 2017-10-02
Report Run at: December 17, 2017 22:50 EST
"Nutrient data for: 45186607, SHRIMP PLATTER INCLUDES COCKTAIL SAUCE, UPC: 850318005217"
Food Group:  Branded Food Products Database
Common Name:

Nutrient,Unit,Data points,Std. Error,"3.0 ONZ = 85.0g",1Value per 100 g,
Proximates
"Energy",kcal,--,--,70,82
"Protein",g,--,--,16.00,18.82
"Total lipid (fat)",g,--,--,0.50,0.59
"Carbohydrate, by difference",g,--,--,1.00,1.18
"Fiber, total dietary",g,--,--,0.0,0.0
"Sugars, total",g,--,--,0.00,0.00
Minerals
"Calcium, Ca",mg,--,--,40,47
"Iron, Fe",mg,--,--,0.00,0.00
"Sodium, Na",mg,--,--,280,329
Vitamins
"Vitamin C, total ascorbic acid",mg,--,--,0.0,0.0
"Vitamin A, IU",IU,--,--,0,0
Lipids
"Fatty acids, total saturated",g,--,--,0.000,0.000
"Fatty acids, total trans",g,--,--,0.000,0.000
"Cholesterol",mg,--,--,140,165
Amino Acids
Other
Ingredients
"COOKED SHRIMP, SALT, SAUCE, PREPARED HORSERADISH, DISTILLED VINEGAR, TOMATO PASTE, SUGAR, WATER, SALT, MODIFIED TAPIOCA STARCH, CITRIC ACID, XANTHAN GUM." Date available: 07/14/2017 Date last updated by company: 07/14/2017
