Source: USDA Branded Food Products Database Release December 2017 Software v.3.8.6.4 2017-10-02
Report Run at: December 17, 2017 22:51 EST
"Nutrient data for: 45270790, SHRIMP TOAST, UPC: 635398920243"
Food Group:  Branded Food Products Database
Common Name:

Nutrient,Unit,Data points,Std. Error,"3.0 PIECES) | ( = 90.0g",1Value per 100 g,
Proximates
"Energy",kcal,--,--,220,244
"Protein",g,--,--,11.00,12.22
"Total lipid (fat)",g,--,--,12.00,13.33
"Carbohydrate, by difference",g,--,--,18.00,20.00
"Fiber, total dietary",g,--,--,1.0,1.1
"Sugars, total",g,--,--,3.00,3.33
Minerals
"Calcium, Ca",mg,--,--,40,44
"Iron, Fe",mg,--,--,0.34,0.38
"Sodium, Na",mg,--,--,550,611
Vitamins
"Vitamin C, total ascorbic acid",mg,--,--,0.0,0.0
"Vitamin A, IU",IU,--,--,94,105
Lipids
"Fatty acids, total saturated",g,--,--,2.502,2.780
"Fatty acids, total trans",g,--,--,0.000,0.000
"Cholesterol",mg,--,--,70,78
Amino Acids
Other
Ingredients
"TOPPING: FARM RAISED SHRIMP, SALT, ONION, GREEN ONION, SUGAR, GARLIC, VINEGAR, TAPIOCA STARCH, DIJON MUSTARD, PEPPER, HYDROXYPROPYL METHYLCELLULOSE AND SOY BEAN OIL. BREAD: WHEAT FLOUR, CORN STARCH, PALM OIL, SUGAR, SALT, YEAST, BAKING POWDER (SODIUM BICARBONATE, SODIUM ACID PYROPHOSPHATE, MONOCALCIUM PHOSPHATE)." Date available: 07/14/2017 Date last updated by company: 07/14/2017
