Source: USDA Branded Food Products Database Release December 2017 Software v.3.8.6.4 2017-10-02
Report Run at: December 17, 2017 22:49 EST
"Nutrient data for: 45011624, SHRIMP PAD THAI, UPC: 695119110506"
Food Group:  Branded Food Products Database
Common Name:

Nutrient,Unit,Data points,Std. Error,"1 cup = 160.0g",1Value per 100 g,
Proximates
"Energy",kcal,--,--,221,138
"Protein",g,--,--,10.00,6.25
"Total lipid (fat)",g,--,--,6.00,3.75
"Carbohydrate, by difference",g,--,--,31.01,19.38
"Fiber, total dietary",g,--,--,1.9,1.2
"Sugars, total",g,--,--,12.00,7.50
Minerals
"Calcium, Ca",mg,--,--,40,25
"Iron, Fe",mg,--,--,0.34,0.21
"Sodium, Na",mg,--,--,950,594
Vitamins
"Vitamin C, total ascorbic acid",mg,--,--,3.7,2.3
"Vitamin A, IU",IU,--,--,390,244
Lipids
"Fatty acids, total saturated",g,--,--,0.992,0.620
"Fatty acids, total trans",g,--,--,0.000,0.000
"Cholesterol",mg,--,--,80,50
Amino Acids
Other
Ingredients
"WATER, RICE FLOUR, SOYBEAN OIL, PAD THAI SAUCE: KETCHUP (TOMATO CONCENTRATE, DISTILLED VINEGAR, HIGH FRUCTOSE CORN SYRUP, SALT, SPICE, ONION POWDER, NATURAL FLAVORING), SUGAR, FISH SAUCE (ANCHOVY EXTRACT, SALT, SUGAR), SOYBEAN OIL, ONIONS, WATER, BROWN SUGAR, VINEGAR, GARLIC, CONTAINS 2% OR LESS OF: TAMARIND (TAMARIND, TARTARIC ACID), CARAMEL COLOR, SALT, YEAST EXTRACT, MODIFIED FOOD STARCH, ROASTED GARLIC, SPICE, PAPRIKA (COLOR), SHRIMP, VEGETABLE AND EGG BLEND: SHRIMP, BROCCOLI, SCRAMBLED EGG (WHOLE EGGS, NON FAT MILK, SOYBEAN OIL, MODIFIED FOOD STARCH, SALT, XANTHAN GUM, CITRIC ACID, NATURAL BUTTER FLAVOR, PEPPER), YELLOW ONION, GREEN ONION, CARROT." Date available: 06/25/2017 Date last updated by company: 06/25/2017
