Source: USDA Branded Food Products Database Release December 2017 Software v.3.8.6.4 2017-10-02
Report Run at: December 17, 2017 22:53 EST
"Nutrient data for: 45225373, SHRIMP, UPC: 041497048779"
Food Group:  Branded Food Products Database
Common Name:

Nutrient,Unit,Data points,Std. Error,"4.0 ONZ = 110.0g",1Value per 100 g,
Proximates
"Energy",kcal,--,--,90,82
"Protein",g,--,--,20.00,18.18
"Total lipid (fat)",g,--,--,1.00,0.91
"Carbohydrate, by difference",g,--,--,1.00,0.91
"Fiber, total dietary",g,--,--,0.0,0.0
"Sugars, total",g,--,--,0.00,0.00
Minerals
"Calcium, Ca",mg,--,--,40,36
"Iron, Fe",mg,--,--,0.00,0.00
"Sodium, Na",mg,--,--,310,282
Vitamins
"Vitamin C, total ascorbic acid",mg,--,--,0.0,0.0
"Vitamin A, IU",IU,--,--,0,0
Lipids
"Fatty acids, total saturated",g,--,--,0.000,0.000
"Fatty acids, total trans",g,--,--,0.000,0.000
"Cholesterol",mg,--,--,155,141
Amino Acids
Other
Ingredients
"SHRIMP, SODIUM TRIPOLYPHOSPHATE (FOR MOISTURE RETENTION), SALT." Date available: 07/14/2017 Date last updated by company: 07/14/2017
