Source: USDA Branded Food Products Database Release December 2017 Software v.3.8.6.4 2017-10-02
Report Run at: December 17, 2017 22:56 EST
"Nutrient data for: 45171209, SHURFINE, CHEESECAKE, UPC: 011161034230"
Food Group:  Branded Food Products Database
Common Name:

Nutrient,Unit,Data points,Std. Error,"1 SLICE = 85.0g",1Value per 100 g,
Proximates
"Energy",kcal,--,--,320,376
"Protein",g,--,--,4.00,4.71
"Total lipid (fat)",g,--,--,18.00,21.18
"Carbohydrate, by difference",g,--,--,36.00,42.35
"Fiber, total dietary",g,--,--,1.0,1.2
"Sugars, total",g,--,--,25.00,29.41
Minerals
"Calcium, Ca",mg,--,--,40,47
"Iron, Fe",mg,--,--,2.12,2.49
"Sodium, Na",mg,--,--,200,235
Vitamins
"Vitamin C, total ascorbic acid",mg,--,--,0.0,0.0
"Vitamin A, IU",IU,--,--,588,692
Lipids
"Fatty acids, total saturated",g,--,--,7.998,9.410
"Fatty acids, total trans",g,--,--,0.000,0.000
"Cholesterol",mg,--,--,50,59
Amino Acids
Other
Ingredients
"PASTEURIZED MILK & CREAM, SUGAR, WHEAT FLOUR, EGG LIQUID & HYDROGENATED SOYBEAN &/OR COTTONSEED OIL, CHOCOLATE LIQUOR, CORN SYRUP, PECANS &/OR WALNUTS, BLEACHED WHEAT FLOUR, NONFAT DRY MILK, PALM OIL, MOLASSES, MODIFIED FOOD STARCH, COCOA (PROCESSED WITH ALKALI), COCOA BUTTER, SALT, NATURAL & ARTIFICIAL FLAVOR, MODIFIED TAPIOCA STARCH, GLYCEROL, SOY LECITHIN (EMULSIFIER), SODIUM PHOSPHATE (PRESERVATIVE), BROWN SUGAR, CHEESE CULTURE, GUAR GUM, SODIUM BICARBONATE, PECTIN, CARRAGEENAN, MALTODEXTRIN, DISODIUM PHOSPHATE, VEGETABLE MONO & DIGLYCERIDES, CAROB BEAN GUM, MALTED BARLEY FLOUR, XANTHAN GUM, SODIUM ALGINATE, POTASSIUM SORBATE (PRESERVATIVE), SODIUM BENZOATE (PRESERVATIVE), CITRIC ACID, PARTIALLY HYDROGENATED SOYBEAN &/OR COTTONSEED OIL, CALCIUM DISODIUM EDTA (PROTECTS FLAVOR), BETA CAROTENE (COLOR), VITAMIN A PALMITATE, RED 40, BLUE 1, NIACIN, IRON, ANNATTO (COLOR), YELLOW 6, THIAMINE MONONITRATE, TURMERIC (COLOR), RIBOFLAVIN, FOLIC ACID, ENZYME." Date available: 07/14/2017 Date last updated by company: 07/14/2017
