Source: USDA Branded Food Products Database Release December 2017 Software v.3.8.6.4 2017-10-02
Report Run at: December 17, 2017 22:59 EST
"Nutrient data for: 45145064, SHUR FINE, JUICE COCKTAIL BLEND, CRANBERRY, BLACK CHERRY, UPC: 015400871488"
Food Group:  Branded Food Products Database
Common Name:

Nutrient,Unit,Data points,Std. Error,"8.0 OZA = 240.0g",1Value per 100 g,
Proximates
"Energy",kcal,--,--,161,67
"Protein",g,--,--,0.00,0.00
"Total lipid (fat)",g,--,--,0.00,0.00
"Carbohydrate, by difference",g,--,--,39.00,16.25
"Sugars, total",g,--,--,37.99,15.83
Minerals
"Sodium, Na",mg,--,--,36,15
Vitamins
"Vitamin C, total ascorbic acid",mg,--,--,60.0,25.0
Lipids
Amino Acids
Other
Ingredients
"FILTERED WATER, HIGH FRUCTOSE CORN SYRUP, APPLE JUICE CONCENTRATE, CRANBERRY JUICE CONCENTRATE, WHITE GRAPE JUICE CONCENTRATE, BLACK CHERRY JUICE CONCENTRATE, PEAR JUICE CONCENTRATE, RED GRAPE JUICE CONCENTRATE, CITRIC ACID, NATURAL FLAVOR, ASCORBIC ACID (VITAMIN C)." Date available: 07/14/2017 Date last updated by company: 07/14/2017
