Source: USDA Branded Food Products Database Release December 2017 Software v.3.8.6.4 2017-10-02
Report Run at: December 17, 2017 23:03 EST
"Nutrient data for: 45181344, SHUR FINE, VEGETABLE OIL SPREAD, ORIGINAL, UPC: 015400872744"
Food Group:  Branded Food Products Database
Common Name:

Nutrient,Unit,Data points,Std. Error,"1 Tbsp = 14.0g",1Value per 100 g,
Proximates
"Energy",kcal,--,--,60,429
"Protein",g,--,--,0.00,0.00
"Total lipid (fat)",g,--,--,7.00,50.00
"Carbohydrate, by difference",g,--,--,0.00,0.00
"Fiber, total dietary",g,--,--,0.0,0.0
"Sugars, total",g,--,--,0.00,0.00
Minerals
"Calcium, Ca",mg,--,--,0,0
"Iron, Fe",mg,--,--,0.00,0.00
"Sodium, Na",mg,--,--,110,786
Vitamins
"Vitamin C, total ascorbic acid",mg,--,--,0.0,0.0
"Vitamin A, IU",IU,--,--,1690,12075
Lipids
"Fatty acids, total saturated",g,--,--,1.499,10.710
"Fatty acids, total monounsaturated",g,--,--,2.001,14.290
"Fatty acids, total polyunsaturated",g,--,--,3.500,25.000
"Fatty acids, total trans",g,--,--,0.000,0.000
"Cholesterol",mg,--,--,0,0
Amino Acids
Other
Ingredients
"WATER, LIQUID AND PARTIALLY HYDROGENATED SOYBEAN OIL, SALT,CONTAINS LESS THAN 2% OF VEGETABLE MONO & DIGLYCERIDES, SOY LECITHIN, PROPYLENE GLYCOL MONOSTEARATE, SODIUM BENZOATE (A PRESERVATIVE), CITRIC ACID, NATURAL AND ARTIFICIAL FLAVORS, BETA CAROTENE (COLOR), VITAMIN A PALMITATE, WHEY." Date available: 07/14/2017 Date last updated by company: 07/14/2017
