Source: USDA Branded Food Products Database Release December 2017 Software v.3.8.6.4 2017-10-02
Report Run at: December 17, 2017 23:03 EST
"Nutrient data for: 45171567, SHUR SAVING, LUNCHEON LOAF, UPC: 015400550901"
Food Group:  Branded Food Products Database
Common Name:

Nutrient,Unit,Data points,Std. Error,"2.0 ONZ = 56.0g",1Value per 100 g,
Proximates
"Energy",kcal,--,--,140,250
"Protein",g,--,--,6.00,10.71
"Total lipid (fat)",g,--,--,11.00,19.64
"Carbohydrate, by difference",g,--,--,4.00,7.14
"Fiber, total dietary",g,--,--,0.0,0.0
"Sugars, total",g,--,--,2.00,3.57
Minerals
"Calcium, Ca",mg,--,--,60,107
"Iron, Fe",mg,--,--,0.71,1.26
"Sodium, Na",mg,--,--,810,1446
Vitamins
"Vitamin C, total ascorbic acid",mg,--,--,0.0,0.0
"Vitamin A, IU",IU,--,--,0,0
Lipids
"Fatty acids, total saturated",g,--,--,3.500,6.250
"Fatty acids, total trans",g,--,--,0.000,0.000
"Cholesterol",mg,--,--,50,89
Amino Acids
Other
Ingredients
"MECHANICALLY SEPARATED CHICKEN, PORK, WATER, SALT, SUGAR, CORN SYRUP. CONTAINS 2% OR LESS OF: MODIFIED CORN STARCH, BROWN SUGAR, HYDROLYZED CORN, SOY AND WHEAT GLUTEN PROTEINS, PARTIALLY HYDROGENATED SOYBEAN OIL, SODIUM ERYTHORBATE, SMOKE FLAVORED BARLEY MALT FLOUR, NATURAL FLAVORS, SODIUM NITRITE, SODIUM TRIPOLYPHOSPHATE." Date available: 07/14/2017 Date last updated by company: 07/14/2017
