Source: USDA Branded Food Products Database Release December 2017 Software v.3.8.6.4 2017-10-02
Report Run at: December 17, 2017 23:02 EST
"Nutrient data for: 45171698, SHURFINE, THIN PIZZA CRUST, UPC: 011161034568"
Food Group:  Branded Food Products Database
Common Name:

Nutrient,Unit,Data points,Std. Error,"0.25 CRUST = 60.0g",1Value per 100 g,
Proximates
"Energy",kcal,--,--,170,283
"Protein",g,--,--,5.00,8.33
"Total lipid (fat)",g,--,--,2.50,4.17
"Carbohydrate, by difference",g,--,--,31.00,51.67
"Fiber, total dietary",g,--,--,1.0,1.7
"Sugars, total",g,--,--,1.00,1.67
Minerals
"Calcium, Ca",mg,--,--,60,100
"Iron, Fe",mg,--,--,1.65,2.75
"Sodium, Na",mg,--,--,45,75
Vitamins
"Vitamin C, total ascorbic acid",mg,--,--,0.0,0.0
"Vitamin A, IU",IU,--,--,0,0
Lipids
"Fatty acids, total saturated",g,--,--,0.000,0.000
"Fatty acids, total monounsaturated",g,--,--,0.498,0.830
"Fatty acids, total polyunsaturated",g,--,--,1.500,2.500
"Fatty acids, total trans",g,--,--,0.000,0.000
"Cholesterol",mg,--,--,0,0
Amino Acids
Other
Ingredients
"ENRICHED FLOUR (WHEAT FLOUR, NIACIN, REDUCED IRON, THIAMINE MONONITRATE, RIBOFLAVIN, ENZYME, FOLIC ACID), WATER, SOYBEAN OIL, YEAST, DEXTROSE, FUMARIC ACID, CALCIUM PROPIONATE (PRESERVATIVE), GUM (CELLULOSE GUM, MALTODEXTRIN, CARRAGEENAN), SORBIC ACID, SALT, POTASSIUM SORBATE (PRESERVATIVE), DOUGH CONDITIONER (SODIUM METABISULFITE) AND SOY LECITHIN." Date available: 07/14/2017 Date last updated by company: 07/14/2017
