Source: USDA Branded Food Products Database Release December 2017 Software v.3.8.6.4 2017-10-02
Report Run at: December 17, 2017 23:03 EST
"Nutrient data for: 45154577, SHUR FINE, WAVY POTATO CHIPS, UPC: 011161031369"
Food Group:  Branded Food Products Database
Common Name:

Nutrient,Unit,Data points,Std. Error,"13.0 CHIPS = 28.0g",1Value per 100 g,
Proximates
"Energy",kcal,--,--,160,571
"Protein",g,--,--,2.00,7.14
"Total lipid (fat)",g,--,--,10.00,35.71
"Carbohydrate, by difference",g,--,--,16.00,57.14
"Fiber, total dietary",g,--,--,1.0,3.6
"Sugars, total",g,--,--,0.00,0.00
Minerals
"Calcium, Ca",mg,--,--,20,71
"Iron, Fe",mg,--,--,0.64,2.29
"Potassium, K",mg,--,--,370,1321
"Sodium, Na",mg,--,--,180,643
Vitamins
"Vitamin C, total ascorbic acid",mg,--,--,10.7,38.3
"Vitamin A, IU",IU,--,--,0,0
Lipids
"Fatty acids, total saturated",g,--,--,1.000,3.570
"Fatty acids, total monounsaturated",g,--,--,6.000,21.430
"Fatty acids, total polyunsaturated",g,--,--,2.500,8.930
"Fatty acids, total trans",g,--,--,0.000,0.000
"Cholesterol",mg,--,--,0,0
Amino Acids
Other
Ingredients
"POTATOES, SUNFLOWER OIL AND/OR CORN OIL, SALT." Date available: 07/14/2017 Date last updated by company: 07/14/2017
