Source: USDA Branded Food Products Database Release December 2017 Software v.3.8.6.4 2017-10-02
Report Run at: December 17, 2017 23:04 EST
"Nutrient data for: 45189456, SICILIAN ORANGE MARMALADE, UPC: 8033509325208"
Food Group:  Branded Food Products Database
Common Name:

Nutrient,Unit,Data points,Std. Error,"1 Tbsp = 20.0g",1Value per 100 g,
Proximates
"Energy",kcal,--,--,37,185
"Protein",g,--,--,0.00,0.00
"Total lipid (fat)",g,--,--,1.30,6.50
"Carbohydrate, by difference",g,--,--,9.00,45.00
"Fiber, total dietary",g,--,--,1.0,5.0
"Sugars, total",g,--,--,8.00,40.00
Minerals
"Calcium, Ca",mg,--,--,0,0
"Iron, Fe",mg,--,--,0.00,0.00
"Sodium, Na",mg,--,--,48,240
Vitamins
"Vitamin C, total ascorbic acid",mg,--,--,0.0,0.0
"Vitamin A, IU",IU,--,--,0,0
Lipids
"Cholesterol",mg,--,--,0,0
Amino Acids
Other
Ingredients
"ORANGES (65%), SUGAR, GELLING AGENT (PECTIN), ACIDITY REGULATOR (CITRIC ACID)." Date available: 07/14/2017 Date last updated by company: 07/14/2017
