Source: USDA Branded Food Products Database Release December 2017 Software v.3.8.6.4 2017-10-02
Report Run at: December 17, 2017 23:05 EST
"Nutrient data for: 45083658, SICILIAN TRADITIONAL BREAD DIPPING SEASONING, UPC: 715483081537"
Food Group:  Branded Food Products Database
Common Name:

Nutrient,Unit,Data points,Std. Error,"1 tsp = 4.0g",1Value per 100 g,
Proximates
"Energy",kcal,--,--,10,250
"Protein",g,--,--,0.00,0.00
"Total lipid (fat)",g,--,--,0.00,0.00
"Carbohydrate, by difference",g,--,--,2.00,50.00
"Fiber, total dietary",g,--,--,1.0,25.0
"Sugars, total",g,--,--,0.00,0.00
Minerals
"Calcium, Ca",mg,--,--,10,250
"Iron, Fe",mg,--,--,4.50,112.50
"Sodium, Na",mg,--,--,550,13750
Vitamins
"Vitamin C, total ascorbic acid",mg,--,--,112.5,2812.5
"Vitamin A, IU",IU,--,--,3125,78125
Lipids
"Fatty acids, total saturated",g,--,--,0.000,0.000
"Fatty acids, total trans",g,--,--,0.000,0.000
"Cholesterol",mg,--,--,0,0
Amino Acids
Other
Ingredients
"SALT, SPICES, *GARLIC, ONION POWDER, *RED BELL PEPPERS, *TOMATO, CANOLA OIL, SILICON DIOXIDE (ANTICAKING)." Date available: 07/14/2017 Date last updated by company: 07/14/2017
