Source: USDA Branded Food Products Database Release December 2017 Software v.3.8.6.4 2017-10-02
Report Run at: December 17, 2017 23:04 EST
"Nutrient data for: 45051562, SICILIAN BLEND, UPC: 041497036745"
Food Group:  Branded Food Products Database
Common Name:

Nutrient,Unit,Data points,Std. Error,"0.75 cup = 75.0g",1Value per 100 g,
Proximates
"Energy",kcal,--,--,25,33
"Protein",g,--,--,1.00,1.33
"Total lipid (fat)",g,--,--,0.00,0.00
"Carbohydrate, by difference",g,--,--,5.00,6.67
"Fiber, total dietary",g,--,--,2.0,2.7
"Sugars, total",g,--,--,3.00,4.00
Minerals
"Calcium, Ca",mg,--,--,0,0
"Iron, Fe",mg,--,--,0.82,1.09
"Potassium, K",mg,--,--,130,173
"Sodium, Na",mg,--,--,15,20
Vitamins
"Vitamin C, total ascorbic acid",mg,--,--,6.8,9.1
"Vitamin A, IU",IU,--,--,3400,4533
Lipids
"Fatty acids, total saturated",g,--,--,0.000,0.000
"Fatty acids, total trans",g,--,--,0.000,0.000
"Cholesterol",mg,--,--,0,0
Amino Acids
Other
Ingredients
"CARROTS, ONIONS, CAULIFLOWER, ITALIAN GREEN BEANS, YELLOW SQUASH, ZUCCHINI, RED PEPPER." Date available: 08/08/2017 Date last updated by company: 08/08/2017
