Source: USDA Branded Food Products Database Release December 2017 Software v.3.8.6.4 2017-10-02
Report Run at: December 17, 2017 23:06 EST
"Nutrient data for: 45219749, SIERRA DRIED FRUIT WITH ALMOND CRUNCH, UPC: 071022308276"
Food Group:  Branded Food Products Database
Common Name:

Nutrient,Unit,Data points,Std. Error,"0.25 cup = 30.0g",1Value per 100 g,
Proximates
"Energy",kcal,--,--,120,400
"Protein",g,--,--,1.00,3.33
"Total lipid (fat)",g,--,--,3.50,11.67
"Carbohydrate, by difference",g,--,--,22.00,73.33
"Fiber, total dietary",g,--,--,1.0,3.3
"Sugars, total",g,--,--,19.00,63.33
Minerals
"Calcium, Ca",mg,--,--,20,67
"Iron, Fe",mg,--,--,0.60,2.00
"Sodium, Na",mg,--,--,10,33
"Manganese, Mn",mg,--,--,0.000,0.000
Vitamins
"Vitamin C, total ascorbic acid",mg,--,--,0.0,0.0
"Riboflavin",mg,--,--,0.068,0.227
"Vitamin A, IU",IU,--,--,0,0
Lipids
"Fatty acids, total saturated",g,--,--,0.999,3.330
"Fatty acids, total trans",g,--,--,0.000,0.000
"Cholesterol",mg,--,--,0,0
Amino Acids
Other
Ingredients
"DRIED CRANBERRIES (CRANBERRIES, SUGAR, SUNFLOWER OIL), DRIED PINEAPPLE(PINEAPPLE, SUGAR, CITRIC ACID, SODIUM BISULFITE [PRESERVATIVE]), ALMONDS, ARTIFICIALLY FLAVORED VANILLA YOGURT CHIPS (SUGAR, PARTIALLY HYDROGENATED PALM KERNEL OIL, WHEY, NONFAT YOGURT POWDER [CULTURED NONFAT MILK], ARTIFICIAL COLOR, SOY LECITHIN, VANILLIN (ARTIFICIAL FLAVOR), SALT), CHOCOLATE YOGURT CHIPS (SUGAR, PARTIALLY HYDROGENATED PALM KERNEL OIL, NONFAT MILK, COCOA, WHEY, NONFAT YOGURT POWDER [CULTURED NONFAT MILK], NATURAL AND ARTIFICIAL FLAVORS, SOY LECITHIN)." Date available: 09/27/2017 Date last updated by company: 09/27/2017
