Source: USDA Branded Food Products Database Release December 2017 Software v.3.8.6.4 2017-10-02
Report Run at: December 17, 2017 23:08 EST
"Nutrient data for: 45239814, SIGGI'S, 0% MILKFAT NON-FAT DRINKABLE YOGURT, RASPBERRY, UPC: 898248001367"
Food Group:  Branded Food Products Database
Common Name:

Nutrient,Unit,Data points,Std. Error,"8.0 OZA = 240.0g",1Value per 100 g,
Proximates
"Energy",kcal,--,--,120,50
"Protein",g,--,--,7.99,3.33
"Total lipid (fat)",g,--,--,0.00,0.00
"Carbohydrate, by difference",g,--,--,22.01,9.17
"Fiber, total dietary",g,--,--,0.0,0.0
"Sugars, total",g,--,--,16.99,7.08
Minerals
"Calcium, Ca",mg,--,--,350,146
"Iron, Fe",mg,--,--,0.00,0.00
"Sodium, Na",mg,--,--,110,46
Vitamins
"Vitamin C, total ascorbic acid",mg,--,--,0.0,0.0
"Vitamin A, IU",IU,--,--,0,0
Lipids
"Fatty acids, total saturated",g,--,--,0.000,0.000
"Fatty acids, total trans",g,--,--,0.000,0.000
"Cholesterol",mg,--,--,0,0
Amino Acids
Other
Ingredients
"PASTEURIZED SKIM MILK, CANE SUGAR, RASPBERRY, FRUIT PECTIN, LIVE ACTIVE CULTURES. LIVE ACTIVE CULTURES: L. LACTIS SUBSP. LACTIS, L. LACTIS SUBSP. CREMORIS, L. LACTIS SUBSP. LACTIS BIOVAR DIACETYLACTIS, LEUCONOSTOC SUBSP. CREMORIS, S. THERMOPHILUS, L. BULGARICUS, L. RHAMNOSUS, L. CASEI, L. ACIDOPHILUS, BIFIDOBACTERIUM SP." Date available: 07/14/2017 Date last updated by company: 07/14/2017
