Source: USDA Branded Food Products Database Release December 2017 Software v.3.8.6.4 2017-10-02
Report Run at: December 17, 2017 23:12 EST
"Nutrient data for: 45108206, SIGNATURE EDAMAME, UPC: 070560977715"
Food Group:  Branded Food Products Database
Common Name:

Nutrient,Unit,Data points,Std. Error,"0.5 cup = 74.0g",1Value per 100 g,
Proximates
"Energy",kcal,--,--,110,149
"Protein",g,--,--,9.00,12.16
"Total lipid (fat)",g,--,--,3.50,4.73
"Carbohydrate, by difference",g,--,--,12.00,16.22
"Fiber, total dietary",g,--,--,4.0,5.4
"Sugars, total",g,--,--,3.00,4.05
Minerals
"Calcium, Ca",mg,--,--,40,54
"Iron, Fe",mg,--,--,2.06,2.79
"Sodium, Na",mg,--,--,330,446
Vitamins
"Vitamin C, total ascorbic acid",mg,--,--,0.0,0.0
"Vitamin A, IU",IU,--,--,0,0
Lipids
"Fatty acids, total saturated",g,--,--,0.503,0.680
"Fatty acids, total trans",g,--,--,0.000,0.000
"Cholesterol",mg,--,--,0,0
Amino Acids
Other
Ingredients
"EDAMAME (SOYBEANS), PURIFIED SEA SALT, CONTAINS 1% OR LESS OF MALTODEXTRIN." Date available: 07/14/2017 Date last updated by company: 07/14/2017
