Source: USDA Branded Food Products Database Release December 2017 Software v.3.8.6.4 2017-10-02
Report Run at: December 17, 2017 23:33 EST
"Nutrient data for: 45181571, SIGNATURE SELECT, MINT MOOSE TRACKS, ICE CREAM WITH A MOOSE TRACKS FUDGE SWIRL & DARK CHOCOLATY MINT CUPS, UPC: 021130099016"
Food Group:  Branded Food Products Database
Common Name:

Nutrient,Unit,Data points,Std. Error,"0.5 cup = 62.0g",1Value per 100 g,
Proximates
"Energy",kcal,--,--,140,226
"Protein",g,--,--,3.00,4.84
"Total lipid (fat)",g,--,--,6.00,9.68
"Carbohydrate, by difference",g,--,--,20.00,32.26
"Fiber, total dietary",g,--,--,1.0,1.6
"Sugars, total",g,--,--,17.00,27.42
Minerals
"Calcium, Ca",mg,--,--,80,129
"Iron, Fe",mg,--,--,0.40,0.65
"Sodium, Na",mg,--,--,55,89
Vitamins
"Vitamin C, total ascorbic acid",mg,--,--,0.0,0.0
"Vitamin A, IU",IU,--,--,225,363
Lipids
"Fatty acids, total saturated",g,--,--,3.001,4.840
"Fatty acids, total trans",g,--,--,0.000,0.000
"Cholesterol",mg,--,--,10,16
Amino Acids
Other
Ingredients
"SKIM MILK, SUGAR, MOOSE TRACKS FUDGE SWIRL (POWDERED SUGAR [SUGAR, CORNSTARCH], VEGETABLE OIL [PEANUT AND/OR COTTONSEED AND/OR PALM OIL), COCOA PROCESSED WITH ALKALI, WHEY, SOY LECITHIN, SALT, NATURAL FLAVOR), CREAM, CORN SYRUP, DARK CHOCOLATY MINT CUPS (SUGAR, COCONUT OIL, COCOA PROCESSED WITH ALKALI, PALM OIL, NONFAT MILK, WHOLE MILK, COCOA, SOY LECITHIN, NATURAL FLAVORS, PROPYLENE GLYCOL, SUNFLOWER LECITHIN, OIL OF PEPPERMINT, RED CABBAGE COLOR, SALT, CURCUMIN COLOR), CONTAINS 2% OR LESS OF WHEY PROTEIN ISOLATE, GUAR GUM, MONO- AND DIGLYCERIDES, TARA GUM, CELLULOSE GUM, POLYSORBATE 80, XANTHAN GUM, VITAMIN A PALMITATE, CARRAGEENAN, DEXTROSE, TAPIOCA STARCH, NATURAL FLAVOR, YELLOW 5, BLUE 1." Date available: 07/14/2017 Date last updated by company: 07/14/2017
