Source: USDA Branded Food Products Database Release December 2017 Software v.3.8.6.4 2017-10-02
Report Run at: December 17, 2017 23:12 EST
"Nutrient data for: 45198254, SIGNATURE CIABATTA SANDWICH ROLLS, UPC: 076489170787"
Food Group:  Branded Food Products Database
Common Name:

Nutrient,Unit,Data points,Std. Error,"1 ROLL = 85.0g",1Value per 100 g,
Proximates
"Energy",kcal,--,--,190,224
"Protein",g,--,--,7.00,8.24
"Total lipid (fat)",g,--,--,1.00,1.18
"Carbohydrate, by difference",g,--,--,39.00,45.88
"Fiber, total dietary",g,--,--,2.0,2.4
"Sugars, total",g,--,--,1.00,1.18
Minerals
"Calcium, Ca",mg,--,--,20,24
"Iron, Fe",mg,--,--,1.59,1.87
"Sodium, Na",mg,--,--,490,576
Vitamins
"Vitamin C, total ascorbic acid",mg,--,--,2.8,3.3
"Vitamin A, IU",IU,--,--,0,0
Lipids
"Fatty acids, total saturated",g,--,--,0.000,0.000
"Fatty acids, total trans",g,--,--,0.000,0.000
"Cholesterol",mg,--,--,0,0
Amino Acids
Other
Ingredients
"ENRICHED WHEAT FLOUR (WHEAT FLOUR, NIACIN, REDUCED IRON, THIAMINE MONONITRATE, RIBOFLAVIN, ENZYMES, FOLIC ACID), WATER, SALT, YEAST, CULTURED SUGAR, SOYBEAN OIL, FAVA BEAN FLOUR, MALTED BARLEY FLOUR, DATEM, DEXTROSE, MONO- AND DIGLYCERIDES, ENZYMES, ASCORBIC ACID, L-CYSTEINE." Date available: 10/13/2017 Date last updated by company: 10/13/2017
