Source: USDA Branded Food Products Database Release December 2017 Software v.3.8.6.4 2017-10-02
Report Run at: December 17, 2017 23:21 EST
"Nutrient data for: 45091288, SIGNATURE KITCHENS, INSTANT WHITE RICE, UPC: 021130502486"
Food Group:  Branded Food Products Database
Common Name:

Nutrient,Unit,Data points,Std. Error,"0.5 cup = 44.0g",1Value per 100 g,
Proximates
"Energy",kcal,--,--,160,364
"Protein",g,--,--,4.00,9.09
"Total lipid (fat)",g,--,--,0.00,0.00
"Carbohydrate, by difference",g,--,--,36.00,81.82
"Fiber, total dietary",g,--,--,1.0,2.3
"Sugars, total",g,--,--,0.00,0.00
Minerals
"Calcium, Ca",mg,--,--,0,0
"Iron, Fe",mg,--,--,1.47,3.35
"Sodium, Na",mg,--,--,0,0
Vitamins
"Vitamin C, total ascorbic acid",mg,--,--,0.0,0.0
"Thiamin",mg,--,--,0.440,1.000
"Niacin",mg,--,--,1.636,3.718
"Vitamin A, IU",IU,--,--,0,0
Lipids
"Fatty acids, total saturated",g,--,--,0.000,0.000
"Fatty acids, total trans",g,--,--,0.000,0.000
"Cholesterol",mg,--,--,0,0
Amino Acids
Other
Ingredients
"PRE-COOKED LONG GRAIN RICE ENRICHED WITH NIACIN, FERRIC ORTHOPHOSPHATE (IRON), THIAMIN MONONITRATE (THIAMIN), AND FOLIC ACID." Date available: 06/25/2017 Date last updated by company: 06/25/2017
