Source: USDA Branded Food Products Database Release December 2017 Software v.3.8.6.4 2017-10-02
Report Run at: December 17, 2017 23:17 EST
"Nutrient data for: 45091340, SIGNATURE KITCHENS, DICED FIRE ROASTED TOMATOES WITH SEASONING, UPC: 021130338139"
Food Group:  Branded Food Products Database
Common Name:

Nutrient,Unit,Data points,Std. Error,"0.5 cup = 121.0g",1Value per 100 g,
Proximates
"Energy",kcal,--,--,30,25
"Protein",g,--,--,1.00,0.83
"Total lipid (fat)",g,--,--,0.00,0.00
"Carbohydrate, by difference",g,--,--,7.01,5.79
"Fiber, total dietary",g,--,--,1.0,0.8
"Sugars, total",g,--,--,5.00,4.13
Minerals
"Calcium, Ca",mg,--,--,40,33
"Iron, Fe",mg,--,--,0.77,0.64
"Potassium, K",mg,--,--,260,215
"Sodium, Na",mg,--,--,280,231
Vitamins
"Vitamin C, total ascorbic acid",mg,--,--,3.9,3.2
"Vitamin A, IU",IU,--,--,537,444
Lipids
"Fatty acids, total saturated",g,--,--,0.000,0.000
"Fatty acids, total trans",g,--,--,0.000,0.000
"Cholesterol",mg,--,--,0,0
Amino Acids
Other
Ingredients
"FIRE ROASTED DICED TOMATOES, TOMATO JUICE, SALT, NATURAL FLAVORING, GARLIC POWDER, ONION POWDER, ONION JUICE, YEAST EXTRACT, CALCIUM CHLORIDE AND CITRIC ACID." Date available: 06/25/2017 Date last updated by company: 06/25/2017
