Source: USDA Branded Food Products Database Release December 2017 Software v.3.8.6.4 2017-10-02
Report Run at: December 17, 2017 23:26 EST
"Nutrient data for: 45171901, SIGNATURE KITCHENS, WHITE BREAD, UPC: 021130120048"
Food Group:  Branded Food Products Database
Common Name:

Nutrient,Unit,Data points,Std. Error,"2.0 SLICES = 41.0g",1Value per 100 g,
Proximates
"Energy",kcal,--,--,110,268
"Protein",g,--,--,3.00,7.32
"Total lipid (fat)",g,--,--,1.00,2.44
"Carbohydrate, by difference",g,--,--,21.00,51.22
"Fiber, total dietary",g,--,--,1.0,2.4
"Sugars, total",g,--,--,2.00,4.88
Minerals
"Calcium, Ca",mg,--,--,40,98
"Iron, Fe",mg,--,--,1.32,3.21
"Sodium, Na",mg,--,--,190,463
Vitamins
"Vitamin C, total ascorbic acid",mg,--,--,0.0,0.0
"Thiamin",mg,--,--,0.000,0.000
"Riboflavin",mg,--,--,0.102,0.249
"Niacin",mg,--,--,1.464,3.571
"Vitamin A, IU",IU,--,--,0,0
Lipids
"Fatty acids, total saturated",g,--,--,0.000,0.000
"Fatty acids, total monounsaturated",g,--,--,0.000,0.000
"Fatty acids, total polyunsaturated",g,--,--,0.000,0.000
"Fatty acids, total trans",g,--,--,0.000,0.000
"Cholesterol",mg,--,--,0,0
Amino Acids
Other
Ingredients
"ENRICHED WHEAT FLOUR (FLOUR, MALTED BARLEY FLOUR, REDUCED IRON, NIACIN, THIAMIN MONONITRATE [VITAMIN B1], RIBOFLAVIN [VITAMIN B2], FOLIC ACID), WATER, HIGH FRUCTOSE CORN SYRUP, YEAST, SOYBEAN OIL, SALT, CALCIUM PROPIONATE (PRESERVATIVE), MONOGLYCERIDES, DATEM, CALCIUM SULFATE, SOY LECITHIN, CITRIC ACID, GRAIN VINEGAR, WHEAT GLUTEN, POTASSIUM IODATE, CORN STARCH, MONOCALCIUM PHOSPHATE." Date available: 07/14/2017 Date last updated by company: 07/14/2017
