Source: USDA Branded Food Products Database Release December 2017 Software v.3.8.6.4 2017-10-02
Report Run at: December 17, 2017 23:29 EST
"Nutrient data for: 45139994, SIGNATURE SEASONED SALMON, UPC: 044400128803"
Food Group:  Branded Food Products Database
Common Name:

Nutrient,Unit,Data points,Std. Error,"1 FILLET = 100.0g",1Value per 100 g,
Proximates
"Energy",kcal,--,--,90,90
"Protein",g,--,--,17.00,17.00
"Total lipid (fat)",g,--,--,2.00,2.00
"Carbohydrate, by difference",g,--,--,2.00,2.00
Minerals
"Calcium, Ca",mg,--,--,20,20
"Iron, Fe",mg,--,--,0.31,0.31
"Potassium, K",mg,--,--,330,330
"Sodium, Na",mg,--,--,380,380
Vitamins
Lipids
"Fatty acids, total saturated",g,--,--,0.000,0.000
"Fatty acids, total monounsaturated",g,--,--,1.000,1.000
"Fatty acids, total polyunsaturated",g,--,--,0.500,0.500
"Fatty acids, total trans",g,--,--,0.000,0.000
"Cholesterol",mg,--,--,10,10
Amino Acids
Other
Ingredients
"SALMON, SEASONING. SALMON SALMON, SODIUM TRIPOLYPHOSPHATE (TO RETAIN FISH MOISTURE). SEASONING: WATER, CANOLA OIL, CORN STARCH, SALT, DEHYDRATED GARLIC. SPICES, DEHYDRATED RED BELL PEPPER, PAPRIKA, DEHYDRATED ONION, PARSLEY, WHEY, NATURAL FLAVOR, MALTODEXTRIN, ROSEMARY EXTRACT (TO PROTECT FLAVOR)," Date available: 07/14/2017 Date last updated by company: 07/14/2017
