Source: USDA Branded Food Products Database Release December 2017 Software v.3.8.6.4 2017-10-02
Report Run at: December 17, 2017 23:33 EST
"Nutrient data for: 45181517, SIGNATURE SELECT, REDUCED FAT PREMIUM ICE CREAM, BUTTER PECAN, UPC: 021130088867"
Food Group:  Branded Food Products Database
Common Name:

Nutrient,Unit,Data points,Std. Error,"0.5 cup = 61.0g",1Value per 100 g,
Proximates
"Energy",kcal,--,--,130,213
"Protein",g,--,--,3.00,4.92
"Total lipid (fat)",g,--,--,6.00,9.84
"Carbohydrate, by difference",g,--,--,15.00,24.59
"Fiber, total dietary",g,--,--,0.0,0.0
"Sugars, total",g,--,--,12.00,19.67
Minerals
"Calcium, Ca",mg,--,--,80,131
"Iron, Fe",mg,--,--,0.00,0.00
"Sodium, Na",mg,--,--,95,156
Vitamins
"Vitamin C, total ascorbic acid",mg,--,--,1.3,2.2
"Vitamin A, IU",IU,--,--,225,369
Lipids
"Fatty acids, total saturated",g,--,--,2.501,4.100
"Fatty acids, total trans",g,--,--,0.000,0.000
"Cholesterol",mg,--,--,15,25
Amino Acids
Other
Ingredients
"NONFAT MILK, SUGAR, CREAM, ROASTED PECANS (PECANS, PARTIALLY HYDROGENATED SOYBEAN OIL, BUTTER [CREAM], SALT), CORN SYRUP, WHEY PROTEIN, STABILIZER (TAPIOCA STARCH, GUAR GUM, MONO AND DIGLYCERIDES, TARA GUM, CELLULOSE GUM, POLYSORBATE 80, XANTHAN GUM, CARRAGEENAN), PECAN FLAVOR (WATER, SALT, SUGAR, NATURAL FLAVORS, CARAMEL COLOR, ANNATTO COLOR, VITAMIN A PALMITATE." Date available: 07/14/2017 Date last updated by company: 07/14/2017
