Source: USDA Branded Food Products Database Release December 2017 Software v.3.8.6.4 2017-10-02
Report Run at: December 17, 2017 23:13 EST
"Nutrient data for: 45095377, SIGNATURE FARMS, OVEN ROASTED TURKEY BREAST, UPC: 021130153466"
Food Group:  Branded Food Products Database
Common Name:

Nutrient,Unit,Data points,Std. Error,"1 ONZ = 28.0g",1Value per 100 g,
Proximates
"Energy",kcal,--,--,30,107
"Protein",g,--,--,5.00,17.86
"Total lipid (fat)",g,--,--,0.50,1.79
"Carbohydrate, by difference",g,--,--,1.00,3.57
"Fiber, total dietary",g,--,--,0.0,0.0
"Sugars, total",g,--,--,1.00,3.57
Minerals
"Calcium, Ca",mg,--,--,0,0
"Iron, Fe",mg,--,--,1.09,3.90
"Sodium, Na",mg,--,--,210,750
Vitamins
"Vitamin C, total ascorbic acid",mg,--,--,0.0,0.0
"Vitamin A, IU",IU,--,--,0,0
Lipids
"Fatty acids, total saturated",g,--,--,0.000,0.000
"Fatty acids, total trans",g,--,--,0.000,0.000
"Cholesterol",mg,--,--,10,36
Amino Acids
Other
Ingredients
"TURKEY BREAST, TURKEY BROTH SALT, CONTAINS 2% OR LESS OF: VINEGAR, SUGAR, MODIFIED FOOD STARCH, SODIUM PHOSPHATE, SODIUM ERYTHORBATE, SODIUM NITRITE, FLAVORING." Date available: 06/25/2017 Date last updated by company: 06/25/2017
