Source: USDA Branded Food Products Database Release December 2017 Software v.3.8.6.4 2017-10-02
Report Run at: December 17, 2017 23:36 EST
"Nutrient data for: 45079268, SIGNATURE SPICY PICKLE RELISH, UPC: 780993911551"
Food Group:  Branded Food Products Database
Common Name:

Nutrient,Unit,Data points,Std. Error,"1 Tbsp = 15.0g",1Value per 100 g,
Proximates
"Energy",kcal,--,--,15,100
"Protein",g,--,--,0.00,0.00
"Total lipid (fat)",g,--,--,0.00,0.00
"Carbohydrate, by difference",g,--,--,4.00,26.67
"Sugars, total",g,--,--,4.00,26.67
Minerals
"Sodium, Na",mg,--,--,110,733
Vitamins
Lipids
Amino Acids
Other
Ingredients
"CUCUMBERS, SUGAR, VINEGAR, SALT, WATER, DEHYDRATED RED BELL PEPPERS, CALCIUM CHLORIDE, ALUM, XANTHAN GUM, DEHYDRATED ONIONS AND RED CHILI PEPPERS, POTASSIUM SORBATE (PRESERVATIVE), SPICES, POLYSORBATE 80, ARTIFICIAL AND NATURAL FLAVORS, YELLOW 5 AND BLUE 1." Date available: 07/14/2017 Date last updated by company: 07/14/2017
