Source: USDA Branded Food Products Database Release December 2017 Software v.3.8.6.4 2017-10-02
Report Run at: December 17, 2017 23:25 EST
"Nutrient data for: 45096735, SIGNATURE KITCHENS, STEWED ITALIAN STYLE TOMATOES WITH GARLIC & SPICES, UPC: 021130338252"
Food Group:  Branded Food Products Database
Common Name:

Nutrient,Unit,Data points,Std. Error,"0.5 cup = 123.0g",1Value per 100 g,
Proximates
"Energy",kcal,--,--,25,20
"Protein",g,--,--,0.00,0.00
"Total lipid (fat)",g,--,--,0.00,0.00
"Carbohydrate, by difference",g,--,--,6.00,4.88
"Fiber, total dietary",g,--,--,1.0,0.8
"Sugars, total",g,--,--,4.00,3.25
Minerals
"Calcium, Ca",mg,--,--,20,16
"Iron, Fe",mg,--,--,0.76,0.62
"Potassium, K",mg,--,--,200,163
"Sodium, Na",mg,--,--,250,203
Vitamins
"Vitamin C, total ascorbic acid",mg,--,--,1.2,1.0
"Vitamin A, IU",IU,--,--,1057,859
Lipids
"Fatty acids, total saturated",g,--,--,0.000,0.000
"Fatty acids, total trans",g,--,--,0.000,0.000
"Cholesterol",mg,--,--,0,0
Amino Acids
Other
Ingredients
"CUT TOMATOES, TOMATO JUICE, SUGAR, SALT, DEHYDRATED ONIONS, SPICED, DEHYDRATED CELERY, DEHYDRATED SWEET BELL PEPPERS, DEHYDRATED GARLIC, CALCIUM CHLORIDE, CITRIC ACID AND NATURAL FLAVORINGS." Date available: 06/25/2017 Date last updated by company: 06/25/2017
