Source: USDA Branded Food Products Database Release December 2017 Software v.3.8.6.4 2017-10-02
Report Run at: December 17, 2017 23:20 EST
"Nutrient data for: 45156447, SIGNATURE KITCHENS, FRUIT SLICES CANDY, UPC: 021130558001"
Food Group:  Branded Food Products Database
Common Name:

Nutrient,Unit,Data points,Std. Error,"3.0 PIECES = 43.0g",1Value per 100 g,
Proximates
"Energy",kcal,--,--,150,349
"Protein",g,--,--,0.00,0.00
"Total lipid (fat)",g,--,--,0.00,0.00
"Carbohydrate, by difference",g,--,--,37.00,86.05
"Fiber, total dietary",g,--,--,0.0,0.0
"Sugars, total",g,--,--,24.00,55.81
Minerals
"Calcium, Ca",mg,--,--,0,0
"Iron, Fe",mg,--,--,0.00,0.00
"Sodium, Na",mg,--,--,0,0
Vitamins
"Vitamin C, total ascorbic acid",mg,--,--,0.0,0.0
"Vitamin A, IU",IU,--,--,0,0
Lipids
"Fatty acids, total saturated",g,--,--,0.000,0.000
"Fatty acids, total trans",g,--,--,0.000,0.000
"Cholesterol",mg,--,--,0,0
Amino Acids
Other
Ingredients
"CORN SYRUP, SUGAR, MODIFIED FOOD STARCH (CORN), CORN STARCH, NATURAL AND ARTIFICIAL FLAVORS, YELLOW 5, RED 40, BLUE 1, SODIUM NITRATE." Date available: 08/15/2017 Date last updated by company: 08/15/2017
