Source: USDA Branded Food Products Database Release December 2017 Software v.3.8.6.4 2017-10-02
Report Run at: December 17, 2017 23:24 EST
"Nutrient data for: 45241513, SIGNATURE, KITCHENS, SOUTHWESTERN STYLE DICED TOMATOES & GREEN CHILIES, UPC: 021130338153"
Food Group:  Branded Food Products Database
Common Name:

Nutrient,Unit,Data points,Std. Error,"0.5 cup = 121.0g",1Value per 100 g,
Proximates
"Energy",kcal,--,--,21,17
"Protein",g,--,--,1.00,0.83
"Total lipid (fat)",g,--,--,0.00,0.00
"Carbohydrate, by difference",g,--,--,4.01,3.31
"Fiber, total dietary",g,--,--,1.0,0.8
"Sugars, total",g,--,--,3.00,2.48
Minerals
"Calcium, Ca",mg,--,--,40,33
"Iron, Fe",mg,--,--,0.30,0.25
"Potassium, K",mg,--,--,190,157
"Sodium, Na",mg,--,--,300,248
Vitamins
"Vitamin C, total ascorbic acid",mg,--,--,2.4,2.0
"Vitamin A, IU",IU,--,--,207,171
Lipids
"Fatty acids, total saturated",g,--,--,0.000,0.000
"Fatty acids, total trans",g,--,--,0.000,0.000
"Cholesterol",mg,--,--,0,0
Amino Acids
Other
Ingredients
"TOMATOES WITH JUICE, WATER, CHOPPED GREEN CHILI PEPPERS, LESS THAN 2% OF: SALT, CALCIUM CHLORIDE, CITRIC ACID, SPICE, NATURAL FLAVOR." Date available: 06/25/2017 Date last updated by company: 06/25/2017
