Source: USDA Branded Food Products Database Release December 2017 Software v.3.8.6.4 2017-10-02
Report Run at: December 17, 2017 23:21 EST
"Nutrient data for: 45332052, SIGNATURE KITCHENS, LOADED MASHED POTATOES, BLENDED WITH SOUR CREAM, CHEESES, CHIVES, IMITATION BACON BITS AND BUTTER FLAVOR, UPC: 021130502554"
Food Group:  Branded Food Products Database
Common Name:

Nutrient,Unit,Data points,Std. Error,"0.5 CUP = 27.0g",1Value per 100 g,
Proximates
"Energy",kcal,--,--,110,407
"Protein",g,--,--,3.00,11.11
"Total lipid (fat)",g,--,--,3.00,11.11
"Carbohydrate, by difference",g,--,--,18.00,66.67
"Fiber, total dietary",g,--,--,1.0,3.7
"Sugars, total",g,--,--,2.00,7.41
Minerals
"Calcium, Ca",mg,--,--,40,148
"Iron, Fe",mg,--,--,1.87,6.91
"Sodium, Na",mg,--,--,460,1704
Vitamins
"Vitamin C, total ascorbic acid",mg,--,--,18.7,69.1
"Vitamin A, IU",IU,--,--,0,0
Lipids
"Fatty acids, total saturated",g,--,--,2.500,9.260
"Fatty acids, total trans",g,--,--,0.000,0.000
"Cholesterol",mg,--,--,0,0
Amino Acids
Other
Ingredients
"IDAHO POTATOES WITH EMULSIFIER (MONO & DIGLYCERIDES) AND PRESERVATIVES (SODIUM ACID PYROPHOSPHATE, SODIUM BISULFITE, CITRIC ACID, MIXED TOCOPHEROLS), VEGETABLE OIL (CONTAINS ONE OR MORE OF THE FOLLOWING: COCONUT, PALM, SOYBEAN, COTTONSEED, SUNFLOWER, CANOLA), NONFAT DRY MILK, MALTODEXTRIN, CHEDDAR CHEESE BLEND (WHEY, CHEDDAR CHEESE [CULTURED MILK, SALT, ENZYMES], REDUCED LACTOSE WHEY, MALTODEXTRIN, CANOLA OIL, SALT, DISODIUM PHOSPHATE, BLUE CHEESE [CULTURED MILK, SALT, ENZYMES], NONFAT DRY MILK, CITRIC ACID, NATURAL FLAVOR), SALT, TEXTURED VEGETABLE PROTEIN (TEXTURED SOY FLOUR, SOYBEAN OIL, WATER, SALT, HYDROGENATED STARCH HYDROLYSATES, NATURAL FLAVOR, HYDROLYZED SOY PROTEIN, SUGAR, CARAMEL COLOR, CITRIC ACID, POTASSIUM SORBATE, YELLOW #6, RED #3), SUGAR, SOUR CREAM (CULTURED CREAM AND NONFAT DRY MILK), DEHYDRATED CHIVES, SODIUM CASEINATE, AUTOLYZED YEAST EXTRACT, HYDROLYZED SOY PROTEIN, CITRIC ACID, DIPOTASSIUM PHOSPHATE, MONO & DIGLYCERIDES, NATURAL FLAVORS, NATURAL & ARTIFICIAL FLAVOR (CONTAINS LIPOLYZED BUTTER OIL), SOY LECITHIN, TRICALCIUM PHOSPHATE, DISODIUM INOSINATE, DISODIUM GUANYLATE, YELLOW 5 LAKE, YELLOW 5 LAKE, AND LESS THAN 2% SILICON DIOXIDE ADDED AS AN ANTICAKING AGENT." Date available: 10/13/2017 Date last updated by company: 10/13/2017
