Source: USDA Branded Food Products Database Release December 2017 Software v.3.8.6.4 2017-10-02
Report Run at: December 17, 2017 23:33 EST
"Nutrient data for: 45181552, SIGNATURE SELECT, NEAPOLITAN ICE CREAM, STRAWBERRY, VANILLA, AND CHOCOLATE ICE CREAMS, UPC: 021130098798"
Food Group:  Branded Food Products Database
Common Name:

Nutrient,Unit,Data points,Std. Error,"0.5 cup = 67.0g",1Value per 100 g,
Proximates
"Energy",kcal,--,--,140,209
"Protein",g,--,--,2.00,2.99
"Total lipid (fat)",g,--,--,8.00,11.94
"Carbohydrate, by difference",g,--,--,16.00,23.88
"Fiber, total dietary",g,--,--,0.0,0.0
"Sugars, total",g,--,--,13.00,19.40
Minerals
"Calcium, Ca",mg,--,--,80,119
"Iron, Fe",mg,--,--,0.00,0.00
"Sodium, Na",mg,--,--,50,75
Vitamins
"Vitamin C, total ascorbic acid",mg,--,--,0.0,0.0
"Vitamin A, IU",IU,--,--,338,504
Lipids
"Fatty acids, total saturated",g,--,--,4.998,7.460
"Fatty acids, total trans",g,--,--,0.000,0.000
"Cholesterol",mg,--,--,30,45
Amino Acids
Other
Ingredients
"SKIM MILK, CREAM, SUGAR, CORN SYRUP, STRAWBERRIES (STRAWBERRIES, CORN SYRUP, WATER, HIGH FRUCTOSE CORN SYRUP, CORN STARCH-MODIFIED, SUGAR, NATURAL FLAVORS, CITRIC ACID, SODIUM BENZOATE AND POTASSIUM SORBATE [PRESERVATIVES], RED 40), STRAWBERRY PUREE (CORN SYRUP, STRAWBERRIES, WATER, SUGAR, CORN STARCH-MODIFIED, NATURAL FLAVOR, CITRIC ACID, RED 40), COCOA PROCESSED WITH ALKALI, CONTAINS 2% OR LESS OF MONO- AND DIGLYCERIDES, GUAR GUM, CALCIUM SULFATE, LOCUST BEAN GUM, CARRAGEENAN, VANILLA EXTRACT, NATURAL FLAVOR, ANNATTO (FOR COLOR)." Date available: 07/14/2017 Date last updated by company: 07/14/2017
