Source: USDA Branded Food Products Database Release December 2017 Software v.3.8.6.4 2017-10-02
Report Run at: December 17, 2017 23:32 EST
"Nutrient data for: 45095476, SIGNATURE SELECT, GINGER ZINGER TRAIL MIX, UPC: 021130480425"
Food Group:  Branded Food Products Database
Common Name:

Nutrient,Unit,Data points,Std. Error,"0.25 cup = 30.0g",1Value per 100 g,
Proximates
"Energy",kcal,--,--,150,500
"Protein",g,--,--,3.00,10.00
"Total lipid (fat)",g,--,--,10.00,33.33
"Carbohydrate, by difference",g,--,--,14.00,46.67
"Fiber, total dietary",g,--,--,2.0,6.7
"Sugars, total",g,--,--,10.00,33.33
Minerals
"Calcium, Ca",mg,--,--,40,133
"Iron, Fe",mg,--,--,1.20,4.00
"Potassium, K",mg,--,--,125,417
"Sodium, Na",mg,--,--,15,50
Vitamins
"Vitamin C, total ascorbic acid",mg,--,--,0.0,0.0
"Vitamin A, IU",IU,--,--,166,555
Lipids
"Fatty acids, total saturated",g,--,--,0.999,3.330
"Fatty acids, total monounsaturated",g,--,--,5.001,16.670
"Fatty acids, total polyunsaturated",g,--,--,3.501,11.670
"Fatty acids, total trans",g,--,--,0.000,0.000
"Cholesterol",mg,--,--,0,0
Amino Acids
Other
Ingredients
"ROASTED SALTED ALMONDS (ALMONDS, VEGETABLE OIL [PEANUT, COTTONSEED, SOYBEAN AND/OR SUNFLOWER SEED], SEA SALT), FILBERTS (HAZELNUTS), DRIED SWEETENED BLUEBERRIES (CULTIVATED BLUEBERRIES, SUGAR, SUNFLOWER OIL), DRIED SWEETENED CRANBERRIES (CRANBERRIES, SUGAR, SUNFLOWER OIL), WALNUTS, DRIED SWEETENED CHERRIES (RED TART PITTED CHERRIES, SUGAR AND SUNFLOWER OIL), DRIED SWEETENED GINGER (GINGER, SUGAR)." Date available: 06/25/2017 Date last updated by company: 06/25/2017
