Source: USDA Branded Food Products Database Release December 2017 Software v.3.8.6.4 2017-10-02
Report Run at: December 17, 2017 23:26 EST
"Nutrient data for: 45172447, SIGNATURE KITCHENS, WHEAT SALTINE CRACKERS, UPC: 021130309054"
Food Group:  Branded Food Products Database
Common Name:

Nutrient,Unit,Data points,Std. Error,"5.0 CRACKERS = 15.0g",1Value per 100 g,
Proximates
"Energy",kcal,--,--,60,400
"Protein",g,--,--,1.00,6.67
"Total lipid (fat)",g,--,--,1.00,6.67
"Carbohydrate, by difference",g,--,--,12.00,80.00
"Fiber, total dietary",g,--,--,1.0,6.7
"Sugars, total",g,--,--,0.00,0.00
Minerals
"Calcium, Ca",mg,--,--,0,0
"Iron, Fe",mg,--,--,2.40,16.00
"Sodium, Na",mg,--,--,140,933
Vitamins
"Vitamin C, total ascorbic acid",mg,--,--,0.0,0.0
"Vitamin A, IU",IU,--,--,0,0
Lipids
"Fatty acids, total saturated",g,--,--,0.000,0.000
"Fatty acids, total monounsaturated",g,--,--,0.000,0.000
"Fatty acids, total polyunsaturated",g,--,--,0.500,3.330
"Fatty acids, total trans",g,--,--,0.000,0.000
"Cholesterol",mg,--,--,0,0
Amino Acids
Other
Ingredients
"ENRICHED FLOUR (WHEAT FLOUR, NIACIN, REDUCED IRON, THIAMIN MONONITRATE [VITAMIN B1], RIBOFLAVIN [VITAMIN B2], FOLIC ACID), WHOLE WHEAT FLOUR, VEGETABLE OIL (CONTAINS ONE OR MORE OF THE FOLLOWING: PALM CANOLA, SOYBEAN WITH TBHQ FOR FRESHNESS) CONTAINS TWO PERCENT OR LESS OF: SALT, SUGAR, CARAMEL COLOR, YEAST, MALTED BARLEY FLOUR, SODIUM SULFITE, ENZYMES, LEAVENING (BAKING SODA)." Date available: 07/14/2017 Date last updated by company: 07/14/2017
