Source: USDA Branded Food Products Database Release December 2017 Software v.3.8.6.4 2017-10-02
Report Run at: December 17, 2017 23:21 EST
"Nutrient data for: 45162904, SIGNATURE KITCHENS, ICED TEA, LEMON, UPC: 021130455454"
Food Group:  Branded Food Products Database
Common Name:

Nutrient,Unit,Data points,Std. Error,"8.0 OZA = 240.0g",1Value per 100 g,
Proximates
"Energy",kcal,--,--,91,38
"Protein",g,--,--,0.00,0.00
"Total lipid (fat)",g,--,--,0.00,0.00
"Carbohydrate, by difference",g,--,--,21.00,8.75
"Sugars, total",g,--,--,19.99,8.33
Minerals
"Sodium, Na",mg,--,--,19,8
Vitamins
Lipids
Amino Acids
Other
Ingredients
"FILTERED WATER, HIGH FRUCTOSE CORN SYRUP, SUGAR, CITRIC ACID, TEA POWDER, MALTODEXTRIN, TEA FLAVOR, CORN SYRUP SOLIDS, POTASSIUM SORBATE & SODIUM BENZOATE (PRESERVATIVES), SODIUM CITRATE, CARAMEL COLOR, LEMON JUICE SOLIDS, NATURAL FLAVORS." Date available: 07/14/2017 Date last updated by company: 07/14/2017
