Source: USDA Branded Food Products Database Release December 2017 Software v.3.8.6.4 2017-10-02
Report Run at: December 17, 2017 23:39 EST
"Nutrient data for: 45179308, SILK, ALMONDMILK, ORIGINAL, UPC: 025293002166"
Food Group:  Branded Food Products Database
Common Name:

Nutrient,Unit,Data points,Std. Error,"1 cup = 240.0g",1Value per 100 g,
Proximates
"Energy",kcal,--,--,41,17
"Protein",g,--,--,1.01,0.42
"Total lipid (fat)",g,--,--,1.99,0.83
"Carbohydrate, by difference",g,--,--,4.99,2.08
"Fiber, total dietary",g,--,--,0.0,0.0
"Sugars, total",g,--,--,4.99,2.08
Minerals
"Calcium, Ca",mg,--,--,451,188
"Iron, Fe",mg,--,--,0.36,0.15
"Magnesium, Mg",mg,--,--,17,7
"Potassium, K",mg,--,--,24,10
"Sodium, Na",mg,--,--,161,67
Vitamins
"Vitamin C, total ascorbic acid",mg,--,--,0.0,0.0
"Riboflavin",mg,--,--,0.034,0.014
"Vitamin A, IU",IU,--,--,499,208
"Vitamin D",IU,--,--,101,42
Lipids
"Fatty acids, total saturated",g,--,--,0.000,0.000
"Fatty acids, total monounsaturated",g,--,--,1.008,0.420
"Fatty acids, total polyunsaturated",g,--,--,0.000,0.000
"Fatty acids, total trans",g,--,--,0.000,0.000
"Cholesterol",mg,--,--,0,0
Amino Acids
Other
Ingredients
"ALMONDMILK (FILTERED WATER, ALMONDS), CANE SUGAR, SEA SALT, LOCUST BEAN GUM, SUNFLOWER LECITHIN, GELLAN GUM, NATURAL FLAVOR. VITAMINS & MINERALS: CALCIUM CARBONATE, VITAMIN E ACETATE, VITAMIN A PALMITATE, VITAMIN D2." Date available: 06/25/2017 Date last updated by company: 06/25/2017
