Source: USDA Branded Food Products Database Release December 2017 Software v.3.8.6.4 2017-10-02
Report Run at: December 17, 2017 23:41 EST
"Nutrient data for: 45318282, SILKY SMOOTH PEANUT BUTTER CREME CHOCOLATES, UPC: 040000331520"
Food Group:  Branded Food Products Database
Common Name:

Nutrient,Unit,Data points,Std. Error,"5.0 PIECES = 40.0g",1Value per 100 g,
Proximates
"Energy",kcal,--,--,200,500
"Protein",g,--,--,4.00,10.00
"Total lipid (fat)",g,--,--,16.00,40.00
"Carbohydrate, by difference",g,--,--,19.00,47.50
"Fiber, total dietary",g,--,--,1.0,2.5
"Sugars, total",g,--,--,0.00,0.00
Minerals
"Calcium, Ca",mg,--,--,25,62
"Iron, Fe",mg,--,--,0.90,2.25
"Sodium, Na",mg,--,--,120,300
Vitamins
"Vitamin A, IU",IU,--,--,100,250
Lipids
"Fatty acids, total saturated",g,--,--,10.000,25.000
"Fatty acids, total trans",g,--,--,0.000,0.000
"Cholesterol",mg,--,--,5,12
Amino Acids
Other
Ingredients
"SUGAR FREE MILK CHOCOLATES COATING (MALTITOL, CHOCOLATE, COCOA BUTTER, SODIUM CASEINATE, MILKFAT, CHOCOLATE PROCESSED WITH ALKALI, SOY LECITHIN, PGPR, ARTIFICIAL AND NATURAL FLAVOR, ACESULFAME POTASSIUM), SUGAR FREE PEANUT BUTTER CREME [PEANUT BUTTER (PEANUTS, PARTIALLY HYDROGENATED SOYBEAN OIL), PARTIALLY HYDROGENATED PALM KERNEL OIL, MALTITOL, SALT, PEANUT OIL, TBHQ TO MAINTAIN FRESHNESS]." Date available: 10/04/2017 Date last updated by company: 10/04/2017
