Source: USDA Branded Food Products Database Release December 2017 Software v.3.8.6.4 2017-10-02
Report Run at: December 17, 2017 23:40 EST
"Nutrient data for: 45243960, SILK, SOY CREAMER, ORIGINAL, UPC: 025293600423"
Food Group:  Branded Food Products Database
Common Name:

Nutrient,Unit,Data points,Std. Error,"1 Tbsp = 15.0g",1Value per 100 g,
Proximates
"Energy",kcal,--,--,20,133
"Protein",g,--,--,0.00,0.00
"Total lipid (fat)",g,--,--,1.50,10.00
"Carbohydrate, by difference",g,--,--,2.00,13.33
"Fiber, total dietary",g,--,--,0.0,0.0
"Sugars, total",g,--,--,1.00,6.67
Minerals
"Calcium, Ca",mg,--,--,0,0
"Iron, Fe",mg,--,--,0.00,0.00
"Sodium, Na",mg,--,--,0,0
Vitamins
"Vitamin C, total ascorbic acid",mg,--,--,0.0,0.0
"Vitamin A, IU",IU,--,--,0,0
Lipids
"Fatty acids, total saturated",g,--,--,0.500,3.330
"Fatty acids, total monounsaturated",g,--,--,0.000,0.000
"Fatty acids, total polyunsaturated",g,--,--,0.000,0.000
"Fatty acids, total trans",g,--,--,0.000,0.000
"Cholesterol",mg,--,--,0,0
Amino Acids
Other
Ingredients
"SOYMILK (FILTERED WATER, WHOLE SOYBEANS), CANE SUGAR, PALM OIL, MALTODEXTRIN, SOY LECITHIN, DIPOTASSIUM PHOSPHATE, NATURAL FLAVORS, TAPIOCA STARCH, CARRAGEENAN." Date available: 07/14/2017 Date last updated by company: 07/14/2017
