Source: USDA Branded Food Products Database Release December 2017 Software v.3.8.6.4 2017-10-02
Report Run at: December 17, 2017 23:40 EST
"Nutrient data for: 45166950, SILK ROAD, CARBONATED BEVERAGE, POMEGRANATE WITH MINT, UPC: 856475004070"
Food Group:  Branded Food Products Database
Common Name:

Nutrient,Unit,Data points,Std. Error,"8.0 OZA = 240.0g",1Value per 100 g,
Proximates
"Energy",kcal,--,--,79,33
"Protein",g,--,--,0.00,0.00
"Total lipid (fat)",g,--,--,0.00,0.00
"Carbohydrate, by difference",g,--,--,19.99,8.33
"Fiber, total dietary",g,--,--,0.0,0.0
"Sugars, total",g,--,--,19.01,7.92
Minerals
"Calcium, Ca",mg,--,--,0,0
"Iron, Fe",mg,--,--,0.00,0.00
"Sodium, Na",mg,--,--,5,2
Vitamins
"Vitamin C, total ascorbic acid",mg,--,--,0.0,0.0
"Vitamin A, IU",IU,--,--,0,0
Lipids
"Fatty acids, total saturated",g,--,--,0.000,0.000
"Fatty acids, total trans",g,--,--,0.000,0.000
"Cholesterol",mg,--,--,0,0
Amino Acids
Other
Ingredients
"CARBONATED WATER, ORGANIC CANE SUGAR, ORGANIC VINEGAR (ORGANIC APPLE CIDER VINEGAR AND ORGANIC WHITE DISTILLED VINEGAR), ORGANIC LEMON JUICE, ORGANIC POMEGRANATE AND ORGANIC CRANBERRY FLAVOR, ORGANIC MINT ESSENCE, AND ORGANIC MINT EXTRACT." Date available: 07/14/2017 Date last updated by company: 07/14/2017
