Source: USDA Branded Food Products Database Release December 2017 Software v.3.8.6.4 2017-10-02
Report Run at: December 17, 2017 23:44 EST
"Nutrient data for: 45172818, SILVER LAKE, GIANT GINGERBREAD MEN KIT, UPC: 037695160993"
Food Group:  Branded Food Products Database
Common Name:

Nutrient,Unit,Data points,Std. Error,"0.05 KIT = 33.0g",1Value per 100 g,
Proximates
"Energy",kcal,--,--,140,424
"Protein",g,--,--,1.00,3.03
"Total lipid (fat)",g,--,--,2.50,7.58
"Carbohydrate, by difference",g,--,--,27.00,81.82
"Fiber, total dietary",g,--,--,1.0,3.0
"Sugars, total",g,--,--,16.00,48.48
Minerals
"Calcium, Ca",mg,--,--,0,0
"Iron, Fe",mg,--,--,1.09,3.31
"Sodium, Na",mg,--,--,70,212
Vitamins
"Vitamin C, total ascorbic acid",mg,--,--,0.0,0.0
"Vitamin A, IU",IU,--,--,0,0
Lipids
"Fatty acids, total saturated",g,--,--,1.502,4.550
"Fatty acids, total trans",g,--,--,0.000,0.000
"Cholesterol",mg,--,--,0,0
Amino Acids
Other
Ingredients
"GINGERBREAD: ENRICHED WHEAT FLOUR (WHEAT FLOUR, NIACIN, REDUCED IRON, THIAMINE MONONITRATE, RIBOFLAVIN, FOLIC ACID), INVERT SUGAR, SUGAR, PALM OIL SHORTENING, MOLASISES, CINNAMON, SALT, PROPYLENE GLYCOL, CORNSTARCH, COCOA POWDER PROCESSED WITH ALKALI, SOY LECITHIN, GINGER. EGGS, CLOVES, MILK. WHITE ICING: SUGAR, CORN SYRUP, WATER, FRUCTOSE, CANOLA OIL, MODIFIED PALM OIL, MALTODEXTRIN, CORNSTARCH, DEXTROSE MODIFIED CORNSTARCH, GLYCERIN, TITANIUM DIOXIDE (COLOR), SALT, PRESERVATIVES (SODIUM BENZOATE, POTASSIUM SORBATE), AGAR-AGAR, CARRAGEENAN, PHOSPHORIC ACID, MONO- AND DIGLYCENDES, ARTIFICIAL FLAVOR, BLUE 1, SORBITOL, SODIUM METABISULFITE. CANDY JEWELS: DEXTROSE, CORN SYRUP, CITRIC ACID, CALCIUM STEARATE, TAPIOCA DEXTRIN, TITANIUM DIOXIDE. (COLOR), SHELLAC, CARNAUBA WAX, ARTIFICIAL FLAVORS, RED 3, RED 40, YELLOW 5, YELLOW 6, BLUE 1. ARTIFICIALLY FLAVORED FRUITY GUMS: SUGAR, GLUCOSE, MODIFIED CORNSTARCH, CITRIC ACID, NA ORAL & ARTIFICIAL FLAVORS, ARTIFICIAL COLORS, YELLOW 5, YELLOW 6, RED 3, RED 40, BLUE 1, BLUE 2. CONTAINS TARTRAZINE." Date available: 07/14/2017 Date last updated by company: 07/14/2017
