Source: USDA Branded Food Products Database Release December 2017 Software v.3.8.6.4 2017-10-02
Report Run at: December 17, 2017 23:42 EST
"Nutrient data for: 45149259, SILVA, MARCONA SEA SALTED ALMONDS, UPC: 700900999809"
Food Group:  Branded Food Products Database
Common Name:

Nutrient,Unit,Data points,Std. Error,"20.0 GRM = 20.0g",1Value per 100 g,
Proximates
"Energy",kcal,--,--,133,665
"Protein",g,--,--,3.80,19.00
"Total lipid (fat)",g,--,--,11.40,57.00
"Fiber, total dietary",g,--,--,3.0,15.0
Minerals
"Sodium, Na",mg,--,--,40,200
Vitamins
Lipids
"Fatty acids, total saturated",g,--,--,0.900,4.500
"Fatty acids, total trans",g,--,--,0.000,0.000
Amino Acids
Other
Ingredients
"MARCONA ALMONDS, SUNFLOWER OIL AND SALT." Date available: 10/11/2017 Date last updated by company: 10/11/2017
