Source: USDA Branded Food Products Database Release December 2017 Software v.3.8.6.4 2017-10-02
Report Run at: December 17, 2017 23:45 EST
"Nutrient data for: 45121782, SILVER SPRING, DIJON MUSTARD, UPC: 041543150234"
Food Group:  Branded Food Products Database
Common Name:

Nutrient,Unit,Data points,Std. Error,"1 tsp = 5.0g",1Value per 100 g,
Proximates
"Energy",kcal,--,--,5,100
"Protein",g,--,--,0.00,0.00
"Total lipid (fat)",g,--,--,0.00,0.00
"Carbohydrate, by difference",g,--,--,0.00,0.00
Minerals
"Sodium, Na",mg,--,--,45,900
Vitamins
Lipids
Amino Acids
Other
Ingredients
"VINEGAR, WATER, MUSTARD SEED, SALT, WHITE WINE, CITRIC ACID, TARTARIC ACID, TURMERIC, SPICES." Date available: 06/25/2017 Date last updated by company: 06/25/2017
