Source: USDA Branded Food Products Database Release December 2017 Software v.3.8.6.4 2017-10-02
Report Run at: December 17, 2017 23:42 EST
"Nutrient data for: 45167417, SILVA, MEXICAN BRAND CHORIZO, UPC: 050754007114"
Food Group:  Branded Food Products Database
Common Name:

Nutrient,Unit,Data points,Std. Error,"2.0 ONZ = 56.0g",1Value per 100 g,
Proximates
"Energy",kcal,--,--,160,286
"Protein",g,--,--,9.00,16.07
"Total lipid (fat)",g,--,--,14.00,25.00
"Carbohydrate, by difference",g,--,--,1.00,1.79
Minerals
"Calcium, Ca",mg,--,--,20,36
"Iron, Fe",mg,--,--,0.71,1.26
"Sodium, Na",mg,--,--,340,607
Vitamins
"Vitamin A, IU",IU,--,--,295,526
Lipids
"Fatty acids, total saturated",g,--,--,5.001,8.930
"Cholesterol",mg,--,--,35,62
Amino Acids
Other
Ingredients
"PORK, WATER, VINEGAR, PAPRIKA, SALT, SPICES AND FLAVORINGS., CELERY JUICE POWDER" Date available: 10/18/2017 Date last updated by company: 10/18/2017
