Source: USDA Branded Food Products Database Release December 2017 Software v.3.8.6.4 2017-10-02
Report Run at: December 17, 2017 23:45 EST
"Nutrient data for: 45235291, SIMBAZON, SUPERFOOD JUICE BLEND, STRAWBERRY, LEMON, ACAI BERRY, UPC: 818411000959"
Food Group:  Branded Food Products Database
Common Name:

Nutrient,Unit,Data points,Std. Error,"10.5 OZA = 310.0g",1Value per 100 g,
Proximates
"Energy",kcal,--,--,71,23
"Protein",g,--,--,0.99,0.32
"Total lipid (fat)",g,--,--,2.51,0.81
"Carbohydrate, by difference",g,--,--,23.00,7.42
"Fiber, total dietary",g,--,--,0.9,0.3
"Sugars, total",g,--,--,4.99,1.61
Minerals
"Calcium, Ca",mg,--,--,19,6
"Iron, Fe",mg,--,--,0.56,0.18
"Potassium, K",mg,--,--,0,0
"Sodium, Na",mg,--,--,0,0
Vitamins
"Vitamin C, total ascorbic acid",mg,--,--,93.0,30.0
"Vitamin A, IU",IU,--,--,155,50
Lipids
"Fatty acids, total saturated",g,--,--,0.496,0.160
"Fatty acids, total trans",g,--,--,0.000,0.000
"Cholesterol",mg,--,--,0,0
Amino Acids
Other
Ingredients
"ORGANIC ACAI JUICE (FILTERED WATER, ORGANIC FAIR TRADE ACAI PUREE1), ORGANIC APPLE JUICE2, ORGANIC STRAWBERRY PUREE, ORGANIC SWEETENER BLEND (ORGANIC ERYTHRITOL, ORGANIC STEVIA EXTRACT), ORGANIC LEMON JUICE2, ORGANIC ACEROLA JUICE2, ORGANIC INULIN, CONTAINS LESS THAN 0.5% OF: ORGANIC FLAVORS, ORGANIC SUNFLOWER LECITHIN, CITRIC ACID." Date available: 08/10/2017 Date last updated by company: 08/10/2017
