Source: USDA Branded Food Products Database Release December 2017 Software v.3.8.6.4 2017-10-02
Report Run at: December 17, 2017 23:46 EST
"Nutrient data for: 45199108, SIMMER SAUCE, UPC: 088177228014"
Food Group:  Branded Food Products Database
Common Name:

Nutrient,Unit,Data points,Std. Error,"0.25 cup = 71.0g",1Value per 100 g,
Proximates
"Energy",kcal,--,--,130,183
"Protein",g,--,--,2.00,2.82
"Total lipid (fat)",g,--,--,2.00,2.82
"Carbohydrate, by difference",g,--,--,27.00,38.03
"Fiber, total dietary",g,--,--,1.0,1.4
"Sugars, total",g,--,--,22.00,30.99
Minerals
"Calcium, Ca",mg,--,--,40,56
"Iron, Fe",mg,--,--,1.09,1.54
"Sodium, Na",mg,--,--,970,1366
Vitamins
"Vitamin C, total ascorbic acid",mg,--,--,2.4,3.4
"Vitamin A, IU",IU,--,--,406,572
Lipids
"Fatty acids, total saturated",g,--,--,0.398,0.560
"Fatty acids, total trans",g,--,--,0.000,0.000
"Cholesterol",mg,--,--,0,0
Amino Acids
Other
Ingredients
"SOY SAUCE (WATER, WHEAT, SOYBEANS, SALT), WATER, SUGAR, PEAR JUICE CONCENTRATE, RICE VINEGAR, BROWN SUGAR, GREEN ONION, SESAME OIL, CORN STARCH, LESS THAN 2% OF: RED PEPPER, HONEY, GARLIC PUREE (GARLIC, VINEGAR), SPICES, DRIED GINGER, DRIED GARLIC, DRIED ONION, XANTHAN GUM." Date available: 07/14/2017 Date last updated by company: 07/14/2017
