Source: USDA Branded Food Products Database Release December 2017 Software v.3.8.6.4 2017-10-02
Report Run at: December 18, 2017 00:04 EST
"Nutrient data for: 45227040, SIMPLY BALANCED, NUT & FRUIT CLUSTERS, BLUEBERRY, UPC: 490710808698"
Food Group:  Branded Food Products Database
Common Name:

Nutrient,Unit,Data points,Std. Error,"0.25 cup = 28.0g",1Value per 100 g,
Proximates
"Energy",kcal,--,--,130,464
"Protein",g,--,--,4.00,14.29
"Total lipid (fat)",g,--,--,8.00,28.57
"Carbohydrate, by difference",g,--,--,15.00,53.57
"Fiber, total dietary",g,--,--,1.0,3.6
"Sugars, total",g,--,--,8.00,28.57
Minerals
"Calcium, Ca",mg,--,--,0,0
"Iron, Fe",mg,--,--,1.93,6.88
"Potassium, K",mg,--,--,105,375
"Sodium, Na",mg,--,--,140,500
Vitamins
"Vitamin C, total ascorbic acid",mg,--,--,0.0,0.0
"Vitamin A, IU",IU,--,--,0,0
Lipids
"Fatty acids, total saturated",g,--,--,1.501,5.360
"Fatty acids, total monounsaturated",g,--,--,4.500,16.070
"Fatty acids, total polyunsaturated",g,--,--,1.501,5.360
"Fatty acids, total trans",g,--,--,0.000,0.000
"Cholesterol",mg,--,--,0,0
Amino Acids
Other
Ingredients
"CASHEWS, ORGANIC RICE SYRUP, CANE SUGAR ALMONDS, PUMPKIN SEED KERNELS, CRISPED RICE (RICE FLOUR, SUGAR, SALT), CURRANTS (CURRANTS, SUNFLOWER OIL), PEA PROTEIN, DRIED SWEETENED BLUEBERRIES (BLUEBERRIES, SUGAR), CRISPED BROWN RICE (BROWN RICE FLOUR [RICE FLOUR, RICE BRAN]), SEA SALT, NATURAL FLAVOR." Date available: 07/14/2017 Date last updated by company: 07/14/2017
