Source: USDA Branded Food Products Database Release December 2017 Software v.3.8.6.4 2017-10-02
Report Run at: December 17, 2017 23:59 EST
"Nutrient data for: 45329958, SIMPLICITY ALL NATURAL* HAM SANDWICH, UPC: 826766192038"
Food Group:  Branded Food Products Database
Common Name:

Nutrient,Unit,Data points,Std. Error,"1 CONTAINER = 233.0g",1Value per 100 g,
Proximates
"Energy",kcal,--,--,471,202
"Protein",g,--,--,37.00,15.88
"Total lipid (fat)",g,--,--,18.01,7.73
"Carbohydrate, by difference",g,--,--,38.00,16.31
"Fiber, total dietary",g,--,--,3.0,1.3
"Sugars, total",g,--,--,6.01,2.58
Minerals
"Calcium, Ca",mg,--,--,249,107
"Iron, Fe",mg,--,--,1.63,0.70
"Sodium, Na",mg,--,--,1340,575
Vitamins
"Vitamin C, total ascorbic acid",mg,--,--,2.8,1.2
"Vitamin A, IU",IU,--,--,601,258
Lipids
"Fatty acids, total saturated",g,--,--,7.992,3.430
"Fatty acids, total trans",g,--,--,0.000,0.000
"Cholesterol",mg,--,--,91,39
Amino Acids
Other
Ingredients
"ALL NATURAL UNCURED HAM (FRESH HAM, WATER, ORGANIC SUGAR, SEA SALT, NATURAL FLAVOR), 9-GRAIN SLICED SANDWICH BREAD (ENRICHED WHEAT FLOUR [WHEAT FLOUR, MALTED BARLEY FLOUR, NIACIN, REDUCED IRON, THIAMIN MONONITRATE, RIBOFLAVIN, FOLIC ACID], WATER, WHOLE WHEAT FLOUR, SUGAR, FLAXSEEDS, SUNFLOWER SEEDS, OAT FLOUR, DEHYDRATED POTATOES [POTATOES, MONO AND DIGLYCERIDES, SODIUM ACID PYROPHOSPHATE, CITRIC ACID], WHEAT GLUTEN, CONTAINS 2% OR LESS OF EACH OF: VEGETABLE SHORTENING [PARTIALLY HYDROGENATED SOYBEAN AND COTTONSEED OILS], MILLET, CRACKED WHEAT, BARLEY FLAKES, SALT, CORNMEAL, VINEGAR, YEAST, CALCIUM PROPIONATE [PRESERVATIVE], RYE FLOUR, SESAME SEEDS, MALTED BARLEY EXTRACT, GUAR GUM, SPICES, CORN SYRUP SOLIDS, DOUGH CONDITIONERS [MONO AND DIGLYCERIDES, ASCORBIC ACID, ENZYMES]), VERMONT CHEDDAR CHEESE (PASTEURIZED MILK, CHEESE CULTURES, SALT, ENZYMES ANNATTO [VEGETABLE COLOR], IF COLORED), LETTUCE, RED ONION." Date available: 10/13/2017 Date last updated by company: 10/13/2017
