Source: USDA Branded Food Products Database Release December 2017 Software v.3.8.6.4 2017-10-02
Report Run at: December 18, 2017 00:21 EST
"Nutrient data for: 45171460, SIMPLY ROUNDY'S, ORGANIC GRANOLA, COCONUT ALMOND, UPC: 011150302241"
Food Group:  Branded Food Products Database
Common Name:

Nutrient,Unit,Data points,Std. Error,"0.5 cup = 55.0g",1Value per 100 g,
Proximates
"Energy",kcal,--,--,270,491
"Protein",g,--,--,6.00,10.91
"Total lipid (fat)",g,--,--,12.00,21.82
"Carbohydrate, by difference",g,--,--,35.00,63.64
"Fiber, total dietary",g,--,--,5.0,9.1
"Sugars, total",g,--,--,5.00,9.09
Minerals
"Calcium, Ca",mg,--,--,40,73
"Iron, Fe",mg,--,--,1.80,3.27
"Sodium, Na",mg,--,--,55,100
Vitamins
"Vitamin C, total ascorbic acid",mg,--,--,0.0,0.0
"Vitamin A, IU",IU,--,--,0,0
Lipids
"Fatty acids, total saturated",g,--,--,2.998,5.450
"Fatty acids, total trans",g,--,--,0.000,0.000
"Cholesterol",mg,--,--,0,0
Amino Acids
Other
Ingredients
"ORGANIC WHOLE ROLLED OATS, ORGANIC EXPELLER PRESSED CANOLA OIL, ORGANIC MILLED CANE SUGAR, ORGANIC COCONUT, ORGANIC ALMONDS, ORGANIC MOLASSES, ORGANIC HONEY, SALT, HERB BLEND (ORGANIC SUGAR, ORGANIC CARDAMOM, ORGANIC FENNEL SEED, ORGANIC FENUGREEK, ORGANIC NUTMEG), MIXED TOCOPHEROLS (NATURAL VITAMIN E TO MAINTAIN FRESHNESS)." Date available: 07/14/2017 Date last updated by company: 07/14/2017
