Source: USDA Branded Food Products Database Release December 2017 Software v.3.8.6.4 2017-10-02
Report Run at: December 17, 2017 23:55 EST
"Nutrient data for: 45092867, SIMPLE TRUTH ORGANIC, NATURAL BISON SIRLOIN STEAK, UPC: 011110604309"
Food Group:  Branded Food Products Database
Common Name:

Nutrient,Unit,Data points,Std. Error,"1 STEAK = 170.0g",1Value per 100 g,
Proximates
"Energy",kcal,--,--,190,112
"Protein",g,--,--,36.01,21.18
"Total lipid (fat)",g,--,--,4.00,2.35
"Carbohydrate, by difference",g,--,--,0.00,0.00
"Fiber, total dietary",g,--,--,0.0,0.0
"Sugars, total",g,--,--,0.00,0.00
Minerals
"Calcium, Ca",mg,--,--,0,0
"Iron, Fe",mg,--,--,2.70,1.59
"Sodium, Na",mg,--,--,85,50
Vitamins
"Vitamin C, total ascorbic acid",mg,--,--,0.0,0.0
"Vitamin A, IU",IU,--,--,0,0
Lipids
"Fatty acids, total saturated",g,--,--,1.496,0.880
"Fatty acids, total trans",g,--,--,0.000,0.000
"Cholesterol",mg,--,--,121,71
Amino Acids
Other
Ingredients
"BISON SIRLOIN." Date available: 08/10/2017 Date last updated by company: 08/10/2017
