Source: USDA Branded Food Products Database Release December 2017 Software v.3.8.6.4 2017-10-02
Report Run at: December 17, 2017 23:51 EST
"Nutrient data for: 45241303, SIMPLE TRUTH, 100% JUICE, POMEGRANATE, UPC: 011110836106"
Food Group:  Branded Food Products Database
Common Name:

Nutrient,Unit,Data points,Std. Error,"8.0 OZA = 240.0g",1Value per 100 g,
Proximates
"Energy",kcal,--,--,161,67
"Protein",g,--,--,0.00,0.00
"Total lipid (fat)",g,--,--,0.00,0.00
"Carbohydrate, by difference",g,--,--,40.01,16.67
"Sugars, total",g,--,--,40.01,16.67
Minerals
"Potassium, K",mg,--,--,430,179
"Sodium, Na",mg,--,--,36,15
Vitamins
Lipids
Amino Acids
Other
Ingredients
"POMEGRANATE JUICE FROM CONCENTRATE (FILTER WATER, POMEGRANATE JUICE CONCENTRATE), NATURAL FLAVORS." Date available: 06/25/2017 Date last updated by company: 06/25/2017
