Source: USDA Branded Food Products Database Release December 2017 Software v.3.8.6.4 2017-10-02
Report Run at: December 18, 2017 00:24 EST
"Nutrient data for: 45286155, SIMPLY VINAIGRETTE CAESAR, UPC: 041335363798"
Food Group:  Branded Food Products Database
Common Name:

Nutrient,Unit,Data points,Std. Error,"2.0 Tbsp = 30.0g",1Value per 100 g,
Proximates
"Energy",kcal,--,--,130,433
"Protein",g,--,--,0.00,0.00
"Total lipid (fat)",g,--,--,13.00,43.33
"Carbohydrate, by difference",g,--,--,2.00,6.67
"Fiber, total dietary",g,--,--,0.0,0.0
"Sugars, total",g,--,--,1.00,3.33
Minerals
"Calcium, Ca",mg,--,--,20,67
"Iron, Fe",mg,--,--,0.00,0.00
"Sodium, Na",mg,--,--,340,1133
Vitamins
"Vitamin C, total ascorbic acid",mg,--,--,0.0,0.0
"Vitamin A, IU",IU,--,--,0,0
Lipids
"Fatty acids, total saturated",g,--,--,0.999,3.330
"Fatty acids, total trans",g,--,--,0.000,0.000
"Cholesterol",mg,--,--,0,0
Amino Acids
Other
Ingredients
"CANOLA OIL, VINEGAR, WATER, CIDER VINEGAR, SUGAR, SALT, EXTRA VIRGIN OLIVE OIL, CONTAINS LESS THAN 2% OF ROMANO CHEESE (PASTEURIZED PART-SKIM MILK, CHEESE CULTURES, SALT, ENZYMES), PARMESAN CHEESE (PASTEURIZED PART-SKIM MILK, CHEESE CULTURES, SALT, ENZYMES), GARLIC, TABASCO (VINEGAR, RED PEPPER, SALT), GARLIC POWDER, SPICE, MUSTARD FLOUR, ANCHOVIES, LEMON JUICE CONCENTRATE, XANTHAN GUM." Date available: 07/14/2017 Date last updated by company: 07/14/2017
