Source: USDA Branded Food Products Database Release December 2017 Software v.3.8.6.4 2017-10-02
Report Run at: December 18, 2017 00:09 EST
"Nutrient data for: 45289330, SIMPLY CARAMEL CORN PUFFS, UPC: 714343995441"
Food Group:  Branded Food Products Database
Common Name:

Nutrient,Unit,Data points,Std. Error,"0.75 cup = 31.0g",1Value per 100 g,
Proximates
"Energy",kcal,--,--,140,452
"Protein",g,--,--,0.00,0.00
"Total lipid (fat)",g,--,--,5.00,16.13
"Carbohydrate, by difference",g,--,--,22.00,70.97
"Fiber, total dietary",g,--,--,0.0,0.0
"Sugars, total",g,--,--,13.00,41.94
Minerals
"Calcium, Ca",mg,--,--,0,0
"Iron, Fe",mg,--,--,0.00,0.00
"Sodium, Na",mg,--,--,105,339
Vitamins
"Vitamin C, total ascorbic acid",mg,--,--,0.0,0.0
"Vitamin A, IU",IU,--,--,162,521
Lipids
"Fatty acids, total saturated",g,--,--,1.500,4.840
"Fatty acids, total trans",g,--,--,0.000,0.000
"Cholesterol",mg,--,--,5,16
Amino Acids
Other
Ingredients
"BROWN SUGAR, CORN SYRUP, CORNMEAL, BUTTER (PASTEURIZED CREAM [DERIVED FROM MILK], SALT), CANOLA OIL, NATURAL FLAVORS, SOY LECITHIN, SEA SALT." Date available: 07/14/2017 Date last updated by company: 07/14/2017
