Source: USDA Branded Food Products Database Release December 2017 Software v.3.8.6.4 2017-10-02
Report Run at: December 18, 2017 00:22 EST
"Nutrient data for: 45313357, SIMPLY RUSTIC FRENCH BREAD, UPC: 01823103"
Food Group:  Branded Food Products Database
Common Name:

Nutrient,Unit,Data points,Std. Error,"0.12 PACKAGE = 47.0g",1Value per 100 g,
Proximates
"Energy",kcal,--,--,110,234
"Protein",g,--,--,4.00,8.51
"Total lipid (fat)",g,--,--,1.50,3.19
"Carbohydrate, by difference",g,--,--,21.00,44.68
"Fiber, total dietary",g,--,--,1.0,2.1
"Sugars, total",g,--,--,2.00,4.26
Minerals
"Calcium, Ca",mg,--,--,0,0
"Iron, Fe",mg,--,--,1.15,2.44
"Sodium, Na",mg,--,--,210,447
Vitamins
"Vitamin C, total ascorbic acid",mg,--,--,0.0,0.0
"Vitamin A, IU",IU,--,--,0,0
Lipids
"Fatty acids, total saturated",g,--,--,0.000,0.000
"Fatty acids, total trans",g,--,--,0.000,0.000
"Cholesterol",mg,--,--,0,0
Amino Acids
Other
Ingredients
"ENRICHED FLOUR BLEACHED (WHEAT FLOUR, NIACIN, FERROUS SULFATE. THIAMIN MONONITRATE, RIBOFLAVIN, FOLIC ACID), WATER, VITAL WHEAT GLUTEN, SUGAR. CONTAINS 2% OR LESS OF: LEAVENING (GLUCONO DELTA-LACTONE, BAKING SODA), SOYBEAN OIL, SALT, POTASSIUM CHLORIDE, HYDROGENATED VEGETABLE OIL (SOYBEAN, PALM, AND/OR COTTONSEED), NATURAL FLAVOR, YEAST, XANTHAN GUM, YEAST EXTRACT." Date available: 07/14/2017 Date last updated by company: 07/14/2017
