Source: USDA Branded Food Products Database Release December 2017 Software v.3.8.6.4 2017-10-02
Report Run at: December 17, 2017 23:49 EST
"Nutrient data for: 45265393, SIMPLE FRUIT & NUT BLEND TRAIL MIX, UPC: 038718709656"
Food Group:  Branded Food Products Database
Common Name:

Nutrient,Unit,Data points,Std. Error,"0.25 cup = 34.0g",1Value per 100 g,
Proximates
"Energy",kcal,--,--,160,471
"Protein",g,--,--,5.00,14.71
"Total lipid (fat)",g,--,--,11.00,32.35
"Carbohydrate, by difference",g,--,--,14.00,41.18
"Fiber, total dietary",g,--,--,2.0,5.9
"Sugars, total",g,--,--,8.00,23.53
Minerals
"Calcium, Ca",mg,--,--,20,59
"Iron, Fe",mg,--,--,1.59,4.67
"Sodium, Na",mg,--,--,5,15
Vitamins
"Vitamin C, total ascorbic acid",mg,--,--,0.0,0.0
"Vitamin A, IU",IU,--,--,0,0
Lipids
"Fatty acids, total saturated",g,--,--,1.000,2.940
"Fatty acids, total trans",g,--,--,0.000,0.000
"Cholesterol",mg,--,--,0,0
Amino Acids
Other
Ingredients
"SUNFLOWER KERNELS, RAISINS, ALMONDS, CASHEWS, PUMPKIN KERNELS." Date available: 07/14/2017 Date last updated by company: 07/14/2017
