Source: USDA Branded Food Products Database Release December 2017 Software v.3.8.6.4 2017-10-02
Report Run at: December 18, 2017 00:17 EST
"Nutrient data for: 45093730, SIMPLY ORGANIC, LEMON PEPPER, UPC: 089836185198"
Food Group:  Branded Food Products Database
Common Name:

Nutrient,Unit,Data points,Std. Error,"0.25 Tbsp = 0.8g",1Value per 100 g,
Proximates
"Energy",kcal,--,--,0,0
"Protein",g,--,--,0.00,0.00
"Total lipid (fat)",g,--,--,0.00,0.00
"Carbohydrate, by difference",g,--,--,0.00,0.00
Minerals
"Sodium, Na",mg,--,--,85,10625
Vitamins
"Vitamin C, total ascorbic acid",mg,--,--,75.0,9375.0
Lipids
Amino Acids
Other
Ingredients
"ORGANIC LEMON PEEL, ORGANIC BLACK PEPPER, SEA SALT, ORGANIC CANE SUGAR, ORGANIC GARLIC, ORGANIC ONION, ORGANIC THYME, ORGANIC RICE CONCENTRATE." Date available: 09/30/2017 Date last updated by company: 09/30/2017
