Source: USDA Branded Food Products Database Release December 2017 Software v.3.8.6.4 2017-10-02
Report Run at: December 18, 2017 00:10 EST
"Nutrient data for: 45231293, SIMPLY DELICIOUS HICKORY SMOKED HAM, UPC: 051900019593"
Food Group:  Branded Food Products Database
Common Name:

Nutrient,Unit,Data points,Std. Error,"6.0 SLICES = 57.0g",1Value per 100 g,
Proximates
"Energy",kcal,--,--,60,105
"Protein",g,--,--,10.00,17.54
"Total lipid (fat)",g,--,--,1.00,1.75
"Carbohydrate, by difference",g,--,--,1.00,1.75
"Sugars, total",g,--,--,1.00,1.75
Minerals
"Calcium, Ca",mg,--,--,0,0
"Iron, Fe",mg,--,--,0.35,0.61
"Sodium, Na",mg,--,--,380,667
Vitamins
"Vitamin C, total ascorbic acid",mg,--,--,20.2,35.5
"Vitamin A, IU",IU,--,--,0,0
Lipids
"Fatty acids, total saturated",g,--,--,0.000,0.000
"Fatty acids, total trans",g,--,--,0.000,0.000
"Cholesterol",mg,--,--,30,53
Amino Acids
Other
Ingredients
"HAM CURED WITH WATER, LESS THAN 2% OF SALT, SUGAR, SODIUM PHOSPHATES, SODIUM ASCORBATE, POTASSIUM LACTATE, MODIFIED CORN STARCH, SODIUM NITRITE, POTASSIUM CHLORIDE." Date available: 07/14/2017 Date last updated by company: 07/14/2017
