Source: USDA Branded Food Products Database Release December 2017 Software v.3.8.6.4 2017-10-02
Report Run at: December 18, 2017 00:25 EST
"Nutrient data for: 45324151, SINGLES AMERICAN CHEESE, UPC: 078742100159"
Food Group:  Branded Food Products Database
Common Name:

Nutrient,Unit,Data points,Std. Error,"1 SLICE = 19.0g",1Value per 100 g,
Proximates
"Energy",kcal,--,--,50,263
"Protein",g,--,--,3.00,15.79
"Total lipid (fat)",g,--,--,2.50,13.16
"Carbohydrate, by difference",g,--,--,2.00,10.53
"Fiber, total dietary",g,--,--,0.0,0.0
"Sugars, total",g,--,--,2.00,10.53
Minerals
"Calcium, Ca",mg,--,--,526,2770
"Iron, Fe",mg,--,--,0.00,0.00
"Potassium, K",mg,--,--,15,79
"Sodium, Na",mg,--,--,310,1632
Vitamins
"Vitamin C, total ascorbic acid",mg,--,--,0.0,0.0
"Vitamin A, IU",IU,--,--,789,4155
Lipids
"Fatty acids, total saturated",g,--,--,1.499,7.890
"Fatty acids, total monounsaturated",g,--,--,0.999,5.260
"Fatty acids, total polyunsaturated",g,--,--,0.000,0.000
"Fatty acids, total trans",g,--,--,0.000,0.000
"Cholesterol",mg,--,--,10,53
Amino Acids
Other
Ingredients
"CULTURED MILK AND REDUCED FAT MILK, WATER, WHEY, MILKFAT, MODIFIED FOOD STARCH*, SODIUM CITRATE, SALT, CALCIUM PHOSPHATE*, LACTIC ACID, SORBIC ACID (PRESERVATIVE), APO CAROTENAL AND BETA CAROTENE (COLOR), ENZYMES, VITAMIN A PALMITATE*." Date available: 08/11/2017 Date last updated by company: 08/11/2017
