Source: USDA Branded Food Products Database Release December 2017 Software v.3.8.6.4 2017-10-02
Report Run at: December 18, 2017 00:28 EST
"Nutrient data for: 45282518, SIPPER CUP WITH CANDY, UPC: 083933219336"
Food Group:  Branded Food Products Database
Common Name:

Nutrient,Unit,Data points,Std. Error,"1 PIECE = 5.0g",1Value per 100 g,
Proximates
"Energy",kcal,--,--,20,400
"Protein",g,--,--,0.00,0.00
"Total lipid (fat)",g,--,--,0.00,0.00
"Carbohydrate, by difference",g,--,--,5.00,100.00
"Fiber, total dietary",g,--,--,0.0,0.0
"Sugars, total",g,--,--,1.00,20.00
Minerals
"Calcium, Ca",mg,--,--,0,0
"Iron, Fe",mg,--,--,0.00,0.00
"Sodium, Na",mg,--,--,0,0
Vitamins
"Vitamin C, total ascorbic acid",mg,--,--,0.0,0.0
"Vitamin A, IU",IU,--,--,0,0
Lipids
"Fatty acids, total saturated",g,--,--,0.000,0.000
"Fatty acids, total trans",g,--,--,0.000,0.000
"Cholesterol",mg,--,--,0,0
Amino Acids
Other
Ingredients
"CORN SYRUP, SUGAR, WATER, PALM OIL, CITRIC ACID, BEEF GELATIN, MALIC ACID, SOY LECITHIN, GLYCEROL MONOSTEARATE, ARTIFICIAL STRAWBERRY FLAVOR, ARTIFICIAL COLORS: FD&C RED 40 (E 129 ALLURA RED AC)." Date available: 08/11/2017 Date last updated by company: 08/11/2017
