Source: USDA Branded Food Products Database Release December 2017 Software v.3.8.6.4 2017-10-02
Report Run at: December 18, 2017 00:30 EST
"Nutrient data for: 45099244, SIVA'S, NUTMEG POWDER, UPC: 846499002367"
Food Group:  Branded Food Products Database
Common Name:

Nutrient,Unit,Data points,Std. Error,"2.0 g = 2.0g",1Value per 100 g,
Proximates
"Energy",kcal,--,--,11,550
"Protein",g,--,--,0.00,0.00
"Total lipid (fat)",g,--,--,1.00,50.00
"Carbohydrate, by difference",g,--,--,1.00,50.00
"Fiber, total dietary",g,--,--,0.5,25.0
"Sugars, total",g,--,--,1.00,50.00
Minerals
"Calcium, Ca",mg,--,--,0,0
"Iron, Fe",mg,--,--,0.00,0.00
"Sodium, Na",mg,--,--,0,0
Vitamins
"Vitamin C, total ascorbic acid",mg,--,--,0.0,0.0
"Vitamin A, IU",IU,--,--,0,0
Lipids
"Fatty acids, total saturated",g,--,--,1.000,50.000
"Fatty acids, total trans",g,--,--,0.000,0.000
"Cholesterol",mg,--,--,0,0
Amino Acids
Other
Ingredients
"NUTMEG POWDER" Date available: 09/23/2016 Date last updated by company: 09/23/2016
