Source: USDA Branded Food Products Database Release December 2017 Software v.3.8.6.4 2017-10-02
Report Run at: December 18, 2017 00:30 EST
"Nutrient data for: 45126766, SIX CHEESE FLAVORFUL PASTAS, UPC: 075900006193"
Food Group:  Branded Food Products Database
Common Name:

Nutrient,Unit,Data points,Std. Error,"1 cup = 227.0g",1Value per 100 g,
Proximates
"Energy",kcal,--,--,390,172
"Protein",g,--,--,14.01,6.17
"Total lipid (fat)",g,--,--,21.00,9.25
"Carbohydrate, by difference",g,--,--,36.00,15.86
"Fiber, total dietary",g,--,--,0.9,0.4
"Sugars, total",g,--,--,4.99,2.20
Minerals
"Calcium, Ca",mg,--,--,300,132
"Iron, Fe",mg,--,--,0.54,0.24
"Sodium, Na",mg,--,--,1230,542
Vitamins
"Vitamin C, total ascorbic acid",mg,--,--,0.0,0.0
"Vitamin A, IU",IU,--,--,123,54
Lipids
"Fatty acids, total saturated",g,--,--,11.009,4.850
"Fatty acids, total trans",g,--,--,0.000,0.000
"Cholesterol",mg,--,--,59,26
Amino Acids
Other
Ingredients
"ENRICHED PASTA (SEMOLINA [WHEAT], NIACIN, IRON [FERROUS SULFATE], THIAMIN MONONITRATE, RIBOFLAVIN, FOLIC ACID), WATER, CHEESE BLEND (CHEESE [PEPPER JACK, CHEDDAR, MONTEREY JACK, PROVOLONE, MOZZARELLA, REDUCED FAT PEPPER JACK], CULTURED MILK, WATER, CREAM, WHEY, SODIUM PHOSPHATES, SKIM MILK, SALT, GREEN BELL PEPPERS, RED AND GREEN JALAPENO PEPPERS, WHEY PROTEIN CONCENTRATE, RENNET CASEIN, ENZYMES), MILK, BUTTER (CREAM, SALT), MARGARINE (SOYBEAN OIL, WATER, SALT, WHEY SOLIDS, HYDROGENATED COTTONSEED OIL, VEGETABLE MONO AND DIGLYCERIDES, SOY LECITHIN, SODIUM BENZOATE [PRESERVATIVE], CITRIC ACID, ARTIFICIAL FLAVOR, VITAMIN A PALMITATE ADDED), DIACETYL TARTARIC ACID OF ESTER OF MONO AND DIGLYCERIDES, CALCIUM SILICATE [ANTICAKING AGENT]), ROMANO CHEESE (PASTEURIZED MILK, CHEESE CULTURE, SALT, ENZYMES, POWDERED CELLULOSE [TO PREVENT CAKING]), SEASONING (CREAM, WHEY PROTEIN CONCENTRATE, NATURAL FLAVOR [MALTODEXTRIN, WHEY PROTEIN CONCENTRATE, CHEDDAR CHEESE (MILK, CHEESE CULTURE, SALT, ENZYMES), WHEY, SALT, NATURAL FLAVOR, NONFAT DRY MILK, CANOLA OIL, YEAST EXTRACT, MODIFIED FOOD STARCH, BUTTER FLAVOR], NONFAT DRY MILK, WHEY, SALT, SODIUM HEXAMETAPHOSPHATE, POTATO FLOUR, YEAST EXTRACT, COOKED CHICKEN [BHA, PROPYL GALLATE, CITRIC ACID (TO PROTECT FLAVOR)], CHICKEN BROTH, ONION POWDER, GARLIC POWDER, SOYBEAN OIL, XANTHAN GUM), MODIFIED FOOD STARCH, POTASSIUM SORBATE (TO PRESERVE FRESHNESS), ANNATTO EXTRACT." Date available: 09/29/2017 Date last updated by company: 09/29/2017
