Source: USDA Branded Food Products Database Release December 2017 Software v.3.8.6.4 2017-10-02
Report Run at: December 18, 2017 00:31 EST
"Nutrient data for: 45218627, SIZZLIN' STARTERS PORK BREAKFAST SANDWICH STEAKS, UPC: 072545080007"
Food Group:  Branded Food Products Database
Common Name:

Nutrient,Unit,Data points,Std. Error,"1.5 ONZ = 42.5g",1Value per 100 g,
Proximates
"Energy",kcal,--,--,125,294
"Protein",g,--,--,6.00,14.12
"Total lipid (fat)",g,--,--,11.00,25.88
"Carbohydrate, by difference",g,--,--,1.00,2.35
"Fiber, total dietary",g,--,--,0.0,0.0
"Sugars, total",g,--,--,1.00,2.35
Minerals
"Calcium, Ca",mg,--,--,0,0
"Iron, Fe",mg,--,--,1.44,3.39
"Sodium, Na",mg,--,--,260,612
Vitamins
"Vitamin C, total ascorbic acid",mg,--,--,0.0,0.0
"Vitamin A, IU",IU,--,--,0,0
Lipids
"Fatty acids, total saturated",g,--,--,4.501,10.590
"Fatty acids, total trans",g,--,--,0.000,0.000
"Cholesterol",mg,--,--,35,82
Amino Acids
Other
Ingredients
"PORK, MALTODEXTRIN, SALT, TORULA YEAST, HYDROLYZED SOY AND CORN PROTEIN, PORK FLAVOR (HYDROLYZED CORN GLUTEN, SOY PROTEIN, WHEAT GLUTEN, YEAST EXTRACT, DEXTROSE, PARTIALLY HYDROGENATED COTTONSEED AND SOYBEAN OILS, THIAMINE HYDROCHLORIDE, DISODIUM INOSINATE AND GUANYLATE, LACTIC ACID), AUTOLYZED YEAST, CORN STARCH, MODIFIED FOOD STARCH, NATURAL FLAVOR (INCLUDING SMOKE), GARLIC, ONION, CARAMEL COLOR, WITH LESS THAN 2% SILICON DIOXIDE ADDED TO PREVENT CAKING." Date available: 07/14/2017 Date last updated by company: 07/14/2017
