Source: USDA Branded Food Products Database Release December 2017 Software v.3.8.6.4 2017-10-02
Report Run at: December 18, 2017 00:35 EST
"Nutrient data for: 45231383, SKINLESS COARSE GROUND WIENERS, UPC: 075094001264"
Food Group:  Branded Food Products Database
Common Name:

Nutrient,Unit,Data points,Std. Error,"1 LINK = 47.0g",1Value per 100 g,
Proximates
"Energy",kcal,--,--,140,298
"Protein",g,--,--,7.00,14.89
"Total lipid (fat)",g,--,--,11.00,23.40
"Carbohydrate, by difference",g,--,--,3.00,6.38
"Fiber, total dietary",g,--,--,0.0,0.0
"Sugars, total",g,--,--,0.00,0.00
Minerals
"Calcium, Ca",mg,--,--,0,0
"Iron, Fe",mg,--,--,0.42,0.90
"Sodium, Na",mg,--,--,390,830
Vitamins
"Vitamin C, total ascorbic acid",mg,--,--,0.0,0.0
"Vitamin A, IU",IU,--,--,0,0
Lipids
"Fatty acids, total saturated",g,--,--,4.498,9.570
"Fatty acids, total trans",g,--,--,0.000,0.000
"Cholesterol",mg,--,--,25,53
Amino Acids
Other
Ingredients
"PORK, WATER, BEEF, CORN SYRUP, CONTAINS LESS THAN 2% OF THE FOLLOWING: SALT, POTASSIUM LACTATE, NATURAL SPICES, DEXTROSE, SODIUM PHOSPHATES, SODIUM DIACETATE, PAPRIKA, NATURAL FLAVORINGS, SODIUM ERYTHORBATE, SODIUM NITRITE." Date available: 07/14/2017 Date last updated by company: 07/14/2017
