Source: USDA Branded Food Products Database Release December 2017 Software v.3.8.6.4 2017-10-02
Report Run at: December 18, 2017 00:34 EST
"Nutrient data for: 45029293, SKINLESS & BONELESS FILLETS OF MACKERELS IN WATER, UPC: 070303022283"
Food Group:  Branded Food Products Database
Common Name:

Nutrient,Unit,Data points,Std. Error,"0.25 CUP | ABOUT = 55.0g",1Value per 100 g,
Proximates
"Energy",kcal,--,--,90,164
"Protein",g,--,--,14.00,25.45
"Total lipid (fat)",g,--,--,4.50,8.18
"Carbohydrate, by difference",g,--,--,0.00,0.00
"Fiber, total dietary",g,--,--,0.0,0.0
"Sugars, total",g,--,--,0.00,0.00
Minerals
"Calcium, Ca",mg,--,--,20,36
"Iron, Fe",mg,--,--,2.78,5.06
"Sodium, Na",mg,--,--,55,100
Vitamins
"Vitamin C, total ascorbic acid",mg,--,--,0.0,0.0
"Vitamin A, IU",IU,--,--,155,281
Lipids
"Fatty acids, total saturated",g,--,--,1.502,2.730
"Fatty acids, total trans",g,--,--,0.000,0.000
"Cholesterol",mg,--,--,25,45
Amino Acids
Other
Ingredients
"MACKEREL, WATER." Date available: 06/24/2017 Date last updated by company: 06/24/2017
