Source: USDA Branded Food Products Database Release December 2017 Software v.3.8.6.4 2017-10-02
Report Run at: December 18, 2017 00:34 EST
"Nutrient data for: 45278720, SKINLESS BUN-LENGTH CLASSIC FRANKS, UPC: 041130802034"
Food Group:  Branded Food Products Database
Common Name:

Nutrient,Unit,Data points,Std. Error,"1 FRANK = 57.0g",1Value per 100 g,
Proximates
"Energy",kcal,--,--,180,316
"Protein",g,--,--,5.00,8.77
"Total lipid (fat)",g,--,--,16.00,28.07
"Carbohydrate, by difference",g,--,--,5.00,8.77
"Fiber, total dietary",g,--,--,0.0,0.0
"Sugars, total",g,--,--,4.00,7.02
Minerals
"Calcium, Ca",mg,--,--,40,70
"Iron, Fe",mg,--,--,0.70,1.22
"Sodium, Na",mg,--,--,680,1193
Vitamins
"Vitamin C, total ascorbic acid",mg,--,--,0.0,0.0
"Vitamin A, IU",IU,--,--,96,169
Lipids
"Fatty acids, total saturated",g,--,--,6.002,10.530
"Fatty acids, total trans",g,--,--,0.000,0.000
"Cholesterol",mg,--,--,40,70
Amino Acids
Other
Ingredients
"MECHANICALLY SEPARATED CHICKEN, PORK, WATER, CORN SYRUP, FOOD STARCH-MODIFIED, CONTAINS 2% OR LESS OF SALT, FLAVORING, POTASSIUM LACTATE, SODIUM LACTATE, SODIUM PHOSPHATES, DEXTROSE, SODIUM DIACETATE, BEEF, SODIUM ERYTHORBATE, SUGAR, SODIUM NITRITE, EXTRACT OF PAPRIKA." Date available: 07/14/2017 Date last updated by company: 07/14/2017
