Source: USDA Branded Food Products Database Release December 2017 Software v.3.8.6.4 2017-10-02
Report Run at: December 18, 2017 00:35 EST
"Nutrient data for: 45273497, SKINLESS FRANKS, UPC: 026086260398"
Food Group:  Branded Food Products Database
Common Name:

Nutrient,Unit,Data points,Std. Error,"1 FRANK = 56.0g",1Value per 100 g,
Proximates
"Energy",kcal,--,--,150,268
"Protein",g,--,--,8.00,14.29
"Total lipid (fat)",g,--,--,13.00,23.21
"Carbohydrate, by difference",g,--,--,2.00,3.57
"Fiber, total dietary",g,--,--,0.0,0.0
"Sugars, total",g,--,--,2.00,3.57
Minerals
"Calcium, Ca",mg,--,--,20,36
"Iron, Fe",mg,--,--,0.35,0.63
"Sodium, Na",mg,--,--,440,786
Vitamins
"Vitamin C, total ascorbic acid",mg,--,--,0.0,0.0
"Vitamin A, IU",IU,--,--,0,0
Lipids
"Fatty acids, total saturated",g,--,--,5.001,8.930
"Cholesterol",mg,--,--,30,54
Amino Acids
Other
Ingredients
"PORK, WATER, BEEF, NONFAT DRY MILK, DEXTROSE, SALT, MONOSODIUM GLUTAMATE, PAPRIKA, FLAVORING, SODIUM ERYTHORBATE, SODIUM NITRITE," Date available: 07/14/2017 Date last updated by company: 07/14/2017
