Source: USDA Branded Food Products Database Release December 2017 Software v.3.8.6.4 2017-10-02
Report Run at: December 18, 2017 00:37 EST
"Nutrient data for: 45257711, SKIPJACK CHUNK LIGHT TUNA IN OIL, UPC: 092825110811"
Food Group:  Branded Food Products Database
Common Name:

Nutrient,Unit,Data points,Std. Error,"0.25 cup = 56.0g",1Value per 100 g,
Proximates
"Energy",kcal,--,--,80,143
"Protein",g,--,--,10.00,17.86
"Total lipid (fat)",g,--,--,4.50,8.04
"Carbohydrate, by difference",g,--,--,0.50,0.89
"Fiber, total dietary",g,--,--,0.0,0.0
"Sugars, total",g,--,--,0.00,0.00
Minerals
"Calcium, Ca",mg,--,--,0,0
"Iron, Fe",mg,--,--,0.55,0.98
"Sodium, Na",mg,--,--,250,446
Vitamins
"Vitamin C, total ascorbic acid",mg,--,--,0.0,0.0
"Vitamin A, IU",IU,--,--,0,0
Lipids
"Fatty acids, total saturated",g,--,--,1.002,1.790
"Fatty acids, total trans",g,--,--,0.000,0.000
"Cholesterol",mg,--,--,20,36
Amino Acids
Other
Ingredients
"SKIPJACK TUNA, SOYBEAN OIL, WATER, VEGETABLE BROTH, SALT." Date available: 07/14/2017 Date last updated by company: 07/14/2017
