Source: USDA Branded Food Products Database Release December 2017 Software v.3.8.6.4 2017-10-02
Report Run at: December 18, 2017 00:39 EST
"Nutrient data for: 45208309, SKULL MIX SPRINKLE, UPC: 070896720610"
Food Group:  Branded Food Products Database
Common Name:

Nutrient,Unit,Data points,Std. Error,"1 tsp = 4.0g",1Value per 100 g,
Proximates
"Energy",kcal,--,--,20,500
"Protein",g,--,--,0.00,0.00
"Total lipid (fat)",g,--,--,0.50,12.50
"Carbohydrate, by difference",g,--,--,3.00,75.00
"Sugars, total",g,--,--,2.00,50.00
Minerals
"Sodium, Na",mg,--,--,0,0
Vitamins
Lipids
"Fatty acids, total saturated",g,--,--,0.500,12.500
Amino Acids
Other
Ingredients
"SUGAR, CORN STARCH, DEXTROSE, PARTIALLY HYDROGENATED PALM OIL, DEXTRIN, SOY LECITHIN, CARNAUBA WAX, MAGNESIUM STEARATE, GUM ARABIC, CONFECTIONERS' GLAZE, ARTIFICIAL FLAVOR, FD&C YELLOW #5, FD&C RED #3, FD&C BLUE #1." Date available: 07/14/2017 Date last updated by company: 07/14/2017
