Source: USDA Branded Food Products Database Release December 2017 Software v.3.8.6.4 2017-10-02
Report Run at: December 18, 2017 00:40 EST
"Nutrient data for: 45121447, SKYLINE CHILI, ORIGINAL CHILI, UPC: 041729143906"
Food Group:  Branded Food Products Database
Common Name:

Nutrient,Unit,Data points,Std. Error,"2.0 Tbsp = 35.0g",1Value per 100 g,
Proximates
"Energy",kcal,--,--,40,114
"Protein",g,--,--,4.00,11.43
"Total lipid (fat)",g,--,--,3.00,8.57
"Carbohydrate, by difference",g,--,--,1.00,2.86
"Fiber, total dietary",g,--,--,0.0,0.0
"Sugars, total",g,--,--,1.00,2.86
Minerals
"Calcium, Ca",mg,--,--,10,29
"Iron, Fe",mg,--,--,4.56,13.04
"Sodium, Na",mg,--,--,170,486
Vitamins
"Vitamin C, total ascorbic acid",mg,--,--,10.2,29.0
"Vitamin A, IU",IU,--,--,1268,3623
Lipids
"Fatty acids, total saturated",g,--,--,1.001,2.860
"Fatty acids, total trans",g,--,--,0.000,0.000
"Cholesterol",mg,--,--,13,37
Amino Acids
Other
Ingredients
"BEEF, WATER, TOMATO SAUCE (WATER, TOMATO PASTE), DRIED YEAST, SPICES, SALT, DEHYDRATED ONION, GARLIC, PAPRIKA, AND NATURAL FLAVORS." Date available: 07/14/2017 Date last updated by company: 07/14/2017
