Source: USDA Branded Food Products Database Release December 2017 Software v.3.8.6.4 2017-10-02
Report Run at: December 18, 2017 00:51 EST
"Nutrient data for: 45195789, SLICED GALA APPLES, UPC: 030223082330"
Food Group:  Branded Food Products Database
Common Name:

Nutrient,Unit,Data points,Std. Error,"5.0 ONZ = 142.0g",1Value per 100 g,
Proximates
"Energy",kcal,--,--,70,49
"Protein",g,--,--,0.00,0.00
"Total lipid (fat)",g,--,--,0.00,0.00
"Carbohydrate, by difference",g,--,--,19.99,14.08
"Fiber, total dietary",g,--,--,3.0,2.1
"Sugars, total",g,--,--,15.00,10.56
Minerals
"Calcium, Ca",mg,--,--,0,0
"Iron, Fe",mg,--,--,0.00,0.00
"Sodium, Na",mg,--,--,0,0
Vitamins
"Vitamin C, total ascorbic acid",mg,--,--,6.0,4.2
"Vitamin A, IU",IU,--,--,98,69
Lipids
"Fatty acids, total saturated",g,--,--,0.000,0.000
"Fatty acids, total trans",g,--,--,0.000,0.000
"Cholesterol",mg,--,--,0,0
Amino Acids
Other
Ingredients
"GALA APPLES (APPLES AND CALCIUM ASCORBATE [VITAMIN C SALT])." Date available: 10/19/2017 Date last updated by company: 10/19/2017
