Source: USDA Branded Food Products Database Release December 2017 Software v.3.8.6.4 2017-10-02
Report Run at: December 18, 2017 00:54 EST
"Nutrient data for: 45079104, SLICED KOSHER DILL PICKLES, UPC: 87298277"
Food Group:  Branded Food Products Database
Common Name:

Nutrient,Unit,Data points,Std. Error,"3.0 SLICES = 28.0g",1Value per 100 g,
Proximates
"Energy",kcal,--,--,5,18
"Protein",g,--,--,0.00,0.00
"Total lipid (fat)",g,--,--,0.00,0.00
"Carbohydrate, by difference",g,--,--,1.00,3.57
"Sugars, total",g,--,--,0.00,0.00
Minerals
"Sodium, Na",mg,--,--,290,1036
Vitamins
Lipids
Amino Acids
Other
Ingredients
"ORGANIC CUCUMBERS, WATER, ORGANIC DISTILLED VINEGAR, SALT, CALCIUM CHLORIDE, ORGANIC GARLIC CHIPS, ORGANIC DILLWEED OIL, ORGANIC GUM ARABIC, ORGANIC NATURAL SPICE FLAVORS, XANTHAN GUM." Date available: 06/24/2017 Date last updated by company: 06/24/2017
