Source: USDA Branded Food Products Database Release December 2017 Software v.3.8.6.4 2017-10-02
Report Run at: December 18, 2017 01:05 EST
"Nutrient data for: 45058728, SLICED STONE GROUND WHEAT BREAD, UPC: 085239432402"
Food Group:  Branded Food Products Database
Common Name:

Nutrient,Unit,Data points,Std. Error,"1 SLICE = 40.0g",1Value per 100 g,
Proximates
"Energy",kcal,--,--,110,275
"Protein",g,--,--,4.00,10.00
"Total lipid (fat)",g,--,--,1.50,3.75
"Carbohydrate, by difference",g,--,--,19.00,47.50
"Fiber, total dietary",g,--,--,2.0,5.0
"Sugars, total",g,--,--,1.00,2.50
Minerals
"Calcium, Ca",mg,--,--,20,50
"Iron, Fe",mg,--,--,1.35,3.38
"Sodium, Na",mg,--,--,230,575
Vitamins
"Vitamin C, total ascorbic acid",mg,--,--,0.0,0.0
"Vitamin A, IU",IU,--,--,0,0
Lipids
"Fatty acids, total saturated",g,--,--,0.000,0.000
"Fatty acids, total trans",g,--,--,0.000,0.000
"Cholesterol",mg,--,--,0,0
Amino Acids
Other
Ingredients
"WATER, WHOLE WHEAT FLOUR, UNBLEACHED BREAD FLOUR (WHEAT FLOUR, MALTED BARLEY FLOUR,  NIACIN, IRON, THIAMIN MONONITRATE, RIBOFLAVIN, FOLIC ACID), NONFAT MILK, CONTAINS 2% OR LESS OF: WHEAT GLUTEN, CANOLA OIL, SUGAR, SALT, MALT (MALTED BARLEY, WHEAT FLOUR, DEXTROSE), YEAST, WHEAT FLOUR, ASCORBIC ACID ADDED AS DOUGH CONDITIONER, ENZYMES, CULTURED WHEAT STARCH, WHEAT FLOUR, CITRIC ACID, RYE FLOUR." Date available: 06/24/2017 Date last updated by company: 06/24/2017
