Source: USDA Branded Food Products Database Release December 2017 Software v.3.8.6.4 2017-10-02
Report Run at: December 18, 2017 01:03 EST
"Nutrient data for: 45021689, SLICED RIPE BLACK OLIVES, UPC: 011150056465"
Food Group:  Branded Food Products Database
Common Name:

Nutrient,Unit,Data points,Std. Error,"2.0 Tbsp = 16.0g",1Value per 100 g,
Proximates
"Energy",kcal,--,--,25,156
"Protein",g,--,--,0.00,0.00
"Total lipid (fat)",g,--,--,2.50,15.62
"Carbohydrate, by difference",g,--,--,1.00,6.25
Minerals
"Sodium, Na",mg,--,--,125,781
Vitamins
Lipids
"Fatty acids, total saturated",g,--,--,0.000,0.000
"Fatty acids, total monounsaturated",g,--,--,1.501,9.380
"Fatty acids, total polyunsaturated",g,--,--,0.000,0.000
"Fatty acids, total trans",g,--,--,0.000,0.000
"Cholesterol",mg,--,--,0,0
Amino Acids
Other
Ingredients
"RIPE BLACK OLIVES, WATER, SALT, FERROUS GLUCONATE (TO STABILIZE COLOR)." Date available: 06/25/2017 Date last updated by company: 06/25/2017
