Source: USDA Branded Food Products Database Release December 2017 Software v.3.8.6.4 2017-10-02
Report Run at: December 18, 2017 00:56 EST
"Nutrient data for: 45278970, SLICED NAVEL ORANGES, UPC: 030223082354"
Food Group:  Branded Food Products Database
Common Name:

Nutrient,Unit,Data points,Std. Error,"5.0 ONZ = 142.0g",1Value per 100 g,
Proximates
"Energy",kcal,--,--,70,49
"Protein",g,--,--,0.99,0.70
"Total lipid (fat)",g,--,--,0.00,0.00
"Carbohydrate, by difference",g,--,--,18.01,12.68
"Fiber, total dietary",g,--,--,3.0,2.1
"Sugars, total",g,--,--,12.00,8.45
Minerals
"Calcium, Ca",mg,--,--,60,42
"Iron, Fe",mg,--,--,0.35,0.25
"Sodium, Na",mg,--,--,0,0
Vitamins
"Vitamin C, total ascorbic acid",mg,--,--,82.8,58.3
"Vitamin A, IU",IU,--,--,395,278
Lipids
"Fatty acids, total saturated",g,--,--,0.000,0.000
"Fatty acids, total trans",g,--,--,0.000,0.000
"Cholesterol",mg,--,--,0,0
Amino Acids
Other
Ingredients
"NAVEL ORANGES." Date available: 10/13/2017 Date last updated by company: 10/13/2017
