Source: USDA Branded Food Products Database Release December 2017 Software v.3.8.6.4 2017-10-02
Report Run at: December 18, 2017 01:02 EST
"Nutrient data for: 45019326, SLICED POTATOES, UPC: 011150042666"
Food Group:  Branded Food Products Database
Common Name:

Nutrient,Unit,Data points,Std. Error,"0.67 cup = 165.0g",1Value per 100 g,
Proximates
"Energy",kcal,--,--,69,42
"Protein",g,--,--,1.01,0.61
"Total lipid (fat)",g,--,--,0.00,0.00
"Carbohydrate, by difference",g,--,--,15.00,9.09
"Fiber, total dietary",g,--,--,2.0,1.2
"Sugars, total",g,--,--,1.01,0.61
Minerals
"Calcium, Ca",mg,--,--,40,24
"Iron, Fe",mg,--,--,0.53,0.32
"Sodium, Na",mg,--,--,421,255
Vitamins
"Vitamin C, total ascorbic acid",mg,--,--,17.8,10.8
"Vitamin A, IU",IU,--,--,0,0
Lipids
"Fatty acids, total saturated",g,--,--,0.000,0.000
"Fatty acids, total trans",g,--,--,0.000,0.000
"Cholesterol",mg,--,--,0,0
Amino Acids
Other
Ingredients
"POTATOES, WATER. SALT, CALCIUM CHLORIDE, CALCIUM DISODIUM EDTA." Date available: 06/25/2017 Date last updated by company: 06/25/2017
