Source: USDA Branded Food Products Database Release December 2017 Software v.3.8.6.4 2017-10-02
Report Run at: December 18, 2017 01:09 EST
"Nutrient data for: 45333616, SLICES JALAPENO PEPPERS, UPC: 070163978720"
Food Group:  Branded Food Products Database
Common Name:

Nutrient,Unit,Data points,Std. Error,"9.0 RINGS | ABOUT = 28.0g",1Value per 100 g,
Proximates
"Energy",kcal,--,--,27,96
"Protein",g,--,--,1.20,4.29
"Total lipid (fat)",g,--,--,0.00,0.00
"Carbohydrate, by difference",g,--,--,6.00,21.43
"Fiber, total dietary",g,--,--,1.0,3.6
"Sugars, total",g,--,--,0.00,0.00
Minerals
"Calcium, Ca",mg,--,--,10,36
"Iron, Fe",mg,--,--,1.29,4.59
"Sodium, Na",mg,--,--,0,0
Vitamins
"Vitamin C, total ascorbic acid",mg,--,--,70.7,252.6
"Vitamin A, IU",IU,--,--,1250,4464
Lipids
"Fatty acids, total saturated",g,--,--,0.000,0.000
"Cholesterol",mg,--,--,0,0
Amino Acids
Other
Ingredients
"SLICED JALAPENO, WATER, VINEGAR, SALT, CALCIUM CHLORIDE" Date available: 10/19/2017 Date last updated by company: 10/19/2017
