Source: USDA Branded Food Products Database Release December 2017 Software v.3.8.6.4 2017-10-02
Report Run at: December 18, 2017 01:02 EST
"Nutrient data for: 45086175, SLICED REDUCED FAT SWISS NATURAL CHEESE, UPC: 046100001806"
Food Group:  Branded Food Products Database
Common Name:

Nutrient,Unit,Data points,Std. Error,"1 SLICE = 21.0g",1Value per 100 g,
Proximates
"Energy",kcal,--,--,60,286
"Protein",g,--,--,7.00,33.33
"Total lipid (fat)",g,--,--,4.00,19.05
"Carbohydrate, by difference",g,--,--,1.00,4.76
"Fiber, total dietary",g,--,--,0.0,0.0
"Sugars, total",g,--,--,0.00,0.00
Minerals
"Calcium, Ca",mg,--,--,250,1190
"Iron, Fe",mg,--,--,0.00,0.00
"Phosphorus, P",mg,--,--,357,1700
"Potassium, K",mg,--,--,20,95
"Sodium, Na",mg,--,--,30,143
Vitamins
"Vitamin C, total ascorbic acid",mg,--,--,0.0,0.0
"Vitamin A, IU",IU,--,--,714,3402
Lipids
"Fatty acids, total saturated",g,--,--,1.999,9.520
"Fatty acids, total trans",g,--,--,0.000,0.000
"Cholesterol",mg,--,--,15,71
Amino Acids
Other
Ingredients
"PASTEURIZED REDUCED FAT MILK, CHEESE CULTURE, SALT, ENZYMES, VITAMIN A PALMITATE." Date available: 07/14/2017 Date last updated by company: 07/14/2017
