Source: USDA Branded Food Products Database Release December 2017 Software v.3.8.6.4 2017-10-02
Report Run at: December 18, 2017 01:04 EST
"Nutrient data for: 45324702, SLICED SMOKED HAM, UPC: 786202796568"
Food Group:  Branded Food Products Database
Common Name:

Nutrient,Unit,Data points,Std. Error,"2.0 ONZ = 56.0g",1Value per 100 g,
Proximates
"Energy",kcal,--,--,60,107
"Protein",g,--,--,9.00,16.07
"Total lipid (fat)",g,--,--,1.50,2.68
"Carbohydrate, by difference",g,--,--,2.00,3.57
"Sugars, total",g,--,--,2.00,3.57
Minerals
"Iron, Fe",mg,--,--,0.35,0.63
"Sodium, Na",mg,--,--,600,1071
Vitamins
Lipids
"Fatty acids, total saturated",g,--,--,0.498,0.890
"Fatty acids, total trans",g,--,--,0.000,0.000
"Cholesterol",mg,--,--,25,45
Amino Acids
Other
Ingredients
"CURED WITH WATER, SALT, DEXTROSE, SUGAR, POTASSIUM LACTATE, MODIFIED POTATO STARCH, SODIUM PHOSPHATES, SODIUM DIACETATE, SODIUM ERYTHORBATE SODIUM NITRITE." Date available: 08/10/2017 Date last updated by company: 08/10/2017
