Source: USDA Branded Food Products Database Release December 2017 Software v.3.8.6.4 2017-10-02
Report Run at: December 18, 2017 01:04 EST
"Nutrient data for: 45199959, SLICED SMOKED SAUSAGE HICKORY SMOKED, UPC: 661506300140"
Food Group:  Branded Food Products Database
Common Name:

Nutrient,Unit,Data points,Std. Error,"2.0 ONZ = 56.0g",1Value per 100 g,
Proximates
"Energy",kcal,--,--,130,232
"Protein",g,--,--,8.00,14.29
"Total lipid (fat)",g,--,--,10.00,17.86
"Carbohydrate, by difference",g,--,--,0.00,0.00
"Fiber, total dietary",g,--,--,0.0,0.0
"Sugars, total",g,--,--,0.00,0.00
Minerals
"Calcium, Ca",mg,--,--,0,0
"Iron, Fe",mg,--,--,0.71,1.26
"Sodium, Na",mg,--,--,460,821
Vitamins
"Vitamin C, total ascorbic acid",mg,--,--,0.0,0.0
"Vitamin A, IU",IU,--,--,0,0
Lipids
"Fatty acids, total saturated",g,--,--,3.500,6.250
"Fatty acids, total trans",g,--,--,0.000,0.000
"Cholesterol",mg,--,--,35,62
Amino Acids
Other
Ingredients
"PORK, WATER, SALT, MUSTARD, DEXTROSE, SPICES, MONOSODIUM GLUTAMATE, DEHYDRATED GARLIC SODIUM ERTHORBATE, NATURAL SMOKE FLAVOR, SODIUM NITRITE" Date available: 07/14/2017 Date last updated by company: 07/14/2017
