Source: USDA Branded Food Products Database Release December 2017 Software v.3.8.6.4 2017-10-02
Report Run at: December 18, 2017 00:43 EST
"Nutrient data for: 45274626, SLICED APPLES, UPC: 085239023099"
Food Group:  Branded Food Products Database
Common Name:

Nutrient,Unit,Data points,Std. Error,"1 CONTAINER = 181.0g",1Value per 100 g,
Proximates
"Energy",kcal,--,--,380,210
"Protein",g,--,--,9.99,5.52
"Total lipid (fat)",g,--,--,24.00,13.26
"Carbohydrate, by difference",g,--,--,31.01,17.13
"Fiber, total dietary",g,--,--,5.1,2.8
"Sugars, total",g,--,--,13.99,7.73
Minerals
"Calcium, Ca",mg,--,--,40,22
"Iron, Fe",mg,--,--,0.09,0.05
"Sodium, Na",mg,--,--,210,116
Vitamins
"Vitamin C, total ascorbic acid",mg,--,--,86.2,47.6
"Vitamin A, IU",IU,--,--,27,15
Lipids
"Fatty acids, total saturated",g,--,--,4.000,2.210
"Fatty acids, total trans",g,--,--,0.000,0.000
"Cholesterol",mg,--,--,0,0
Amino Acids
Other
Ingredients
"APPLES (APPLES AND CALCIUM ASCORBATE [ VITAMIN C CALCIUM SALT]), PEANUT BUTTER (ROASTED PEANUTS AND SUGAR, CONTAINS 2% OR LESS OF: MOLASSES FULLY HYDROGENATED VEGETABLE OILS [RAPESEED AND SOYBEAN], MONO AND DIGLYCERIDES, SALT)." Date available: 09/16/2017 Date last updated by company: 09/16/2017
