Source: USDA Branded Food Products Database Release December 2017 Software v.3.8.6.4 2017-10-02
Report Run at: December 18, 2017 00:50 EST
"Nutrient data for: 45196513, SLICED COOKED CONCH SCUNGILLI, UPC: 046994584720"
Food Group:  Branded Food Products Database
Common Name:

Nutrient,Unit,Data points,Std. Error,"0.33 cup = 55.0g",1Value per 100 g,
Proximates
"Energy",kcal,--,--,45,82
"Protein",g,--,--,9.00,16.36
"Total lipid (fat)",g,--,--,0.00,0.00
"Carbohydrate, by difference",g,--,--,1.00,1.82
"Fiber, total dietary",g,--,--,0.0,0.0
"Sugars, total",g,--,--,0.00,0.00
Minerals
"Calcium, Ca",mg,--,--,40,73
"Iron, Fe",mg,--,--,1.67,3.03
"Sodium, Na",mg,--,--,170,309
Vitamins
"Vitamin C, total ascorbic acid",mg,--,--,0.0,0.0
"Vitamin A, IU",IU,--,--,0,0
Lipids
"Fatty acids, total saturated",g,--,--,0.000,0.000
"Fatty acids, total trans",g,--,--,0.000,0.000
"Cholesterol",mg,--,--,55,100
Amino Acids
Other
Ingredients
"CONCH, WATER, SALT, CITRIC ACID" Date available: 07/14/2017 Date last updated by company: 07/14/2017
