Source: USDA Branded Food Products Database Release December 2017 Software v.3.8.6.4 2017-10-02
Report Run at: December 18, 2017 00:51 EST
"Nutrient data for: 45195410, SLICED GOURMET SANDWICH ROLLS, UPC: 041280115633"
Food Group:  Branded Food Products Database
Common Name:

Nutrient,Unit,Data points,Std. Error,"1 ROLL = 71.0g",1Value per 100 g,
Proximates
"Energy",kcal,--,--,220,310
"Protein",g,--,--,7.00,9.86
"Total lipid (fat)",g,--,--,4.00,5.63
"Carbohydrate, by difference",g,--,--,39.00,54.93
"Fiber, total dietary",g,--,--,0.7,1.0
"Sugars, total",g,--,--,3.00,4.23
Minerals
"Calcium, Ca",mg,--,--,80,113
"Iron, Fe",mg,--,--,1.90,2.68
"Potassium, K",mg,--,--,10,14
"Sodium, Na",mg,--,--,410,577
Vitamins
"Vitamin C, total ascorbic acid",mg,--,--,0.9,1.2
"Thiamin",mg,--,--,0.000,0.000
"Riboflavin",mg,--,--,0.340,0.479
"Niacin",mg,--,--,2.112,2.975
"Vitamin A, IU",IU,--,--,0,0
Lipids
"Fatty acids, total saturated",g,--,--,0.497,0.700
"Fatty acids, total monounsaturated",g,--,--,0.497,0.700
"Fatty acids, total polyunsaturated",g,--,--,2.002,2.820
"Fatty acids, total trans",g,--,--,0.000,0.000
"Cholesterol",mg,--,--,0,0
Amino Acids
Other
Ingredients
"ENRICHED BLEACHED FLOUR (WHEAT FLOUR, MALTED BARLEY FLOUR, NIACIN, REDUCED IRON, THIAMIN MONONITRATE, RIBOFLAVIN, FOLIC ACID), WATER, HIGH FRUCTOSE CORN SYRUP, SOYBEAN OIL, CONTAINS LESS THAN 2% OF YEAST, SALT, MONO- AND DIGLYCERIDES, HYDROXYLATED SOY LECITHIN, CULTURED WHEAT FLOUR, VINEGAR, ENZYMES, FUMARIC ACID, ACETIC ACID, CITRIC ACID, LACTIC ACID, CALCIUM SULFATE, CALCIUM PEROXIDE, AZODICARBONAMIDE, SODIUM STEAROYL LACTYLATE, WHEAT GLUTEN, ASCORBIC ACID, CALCIUM PROPIONATE (PRESERVATIVE), SOY LECITHIN." Date available: 07/14/2017 Date last updated by company: 07/14/2017
