Source: USDA Branded Food Products Database Release December 2017 Software v.3.8.6.4 2017-10-02
Report Run at: December 18, 2017 01:03 EST
"Nutrient data for: 45183795, SLICED ROAST BEEF, UPC: 071014841873"
Food Group:  Branded Food Products Database
Common Name:

Nutrient,Unit,Data points,Std. Error,"2.0 ONZ = 56.0g",1Value per 100 g,
Proximates
"Energy",kcal,--,--,60,107
"Protein",g,--,--,11.00,19.64
"Total lipid (fat)",g,--,--,1.00,1.79
"Carbohydrate, by difference",g,--,--,1.00,1.79
"Sugars, total",g,--,--,0.00,0.00
Minerals
"Iron, Fe",mg,--,--,1.06,1.89
"Sodium, Na",mg,--,--,450,804
Vitamins
Lipids
"Fatty acids, total saturated",g,--,--,0.398,0.710
"Fatty acids, total trans",g,--,--,0.000,0.000
"Cholesterol",mg,--,--,25,45
Amino Acids
Other
Ingredients
"BEEF, WATER, VINEGAR, SALT, SODIUM PHOSPHATE, SUGAR, RUBBED WITH SALT, SPICES, GARLIC POWDER, ONION POWDER, CARAMEL POWDER." Date available: 07/14/2017 Date last updated by company: 07/14/2017
