Source: USDA Branded Food Products Database Release December 2017 Software v.3.8.6.4 2017-10-02
Report Run at: December 18, 2017 01:05 EST
"Nutrient data for: 45292772, SLICED SOUSE, UPC: 070505100086"
Food Group:  Branded Food Products Database
Common Name:

Nutrient,Unit,Data points,Std. Error,"2.0 ONZ = 56.0g",1Value per 100 g,
Proximates
"Energy",kcal,--,--,100,179
"Protein",g,--,--,9.00,16.07
"Total lipid (fat)",g,--,--,7.00,12.50
"Carbohydrate, by difference",g,--,--,0.00,0.00
Minerals
"Calcium, Ca",mg,--,--,0,0
"Iron, Fe",mg,--,--,0.71,1.26
"Sodium, Na",mg,--,--,580,1036
Vitamins
"Vitamin C, total ascorbic acid",mg,--,--,0.0,0.0
"Vitamin A, IU",IU,--,--,0,0
Lipids
"Fatty acids, total saturated",g,--,--,1.999,3.570
"Fatty acids, total trans",g,--,--,0.000,0.000
"Cholesterol",mg,--,--,25,45
Amino Acids
Other
Ingredients
"PORK SKINS, WATER, PORK TONGUES, PORK HEARTS, PORK, VINEGAR, SODIUM LACTATE, SALT, MUSTARD, CHILI PEPPER, DEXTROSE, SPICES, NATURAL FLAVORS, SODIUM NITRITE." Date available: 07/14/2017 Date last updated by company: 07/14/2017
