Source: USDA Branded Food Products Database Release December 2017 Software v.3.8.6.4 2017-10-02
Report Run at: December 18, 2017 01:12 EST
"Nutrient data for: 45134496, SLIM JIM Pepperoni Sticks, UNPREPARED, GTIN: 00026200162355"
Food Group:  Branded Food Products Database
Common Name:

Nutrient,Unit,Data points,Std. Error,"1 stick (8g) = 8.0g",1Value per 100 g,
Proximates
"Energy",kcal,--,--,40,500
"Protein",g,--,--,2.00,25.00
"Total lipid (fat)",g,--,--,3.00,37.50
"Carbohydrate, by difference",g,--,--,1.00,12.50
"Fiber, total dietary",g,--,--,0.0,0.0
"Sugars, total",g,--,--,0.00,0.00
Minerals
"Calcium, Ca",mg,--,--,0,0
"Iron, Fe",mg,--,--,0.00,0.00
"Potassium, K",mg,--,--,35,438
"Sodium, Na",mg,--,--,135,1688
Vitamins
"Vitamin C, total ascorbic acid",mg,--,--,0.0,0.0
"Vitamin A, IU",IU,--,--,0,0
Lipids
"Fatty acids, total saturated",g,--,--,1.000,12.500
"Fatty acids, total monounsaturated",g,--,--,1.500,18.750
"Fatty acids, total polyunsaturated",g,--,--,0.000,0.000
"Fatty acids, total trans",g,--,--,0.000,0.000
"Cholesterol",mg,--,--,5,62
Amino Acids
Other
Ingredients
"Beef, Pork, Mechanically Separated Chicken, Water, Textured Soy Flour, Corn Syrup, Salt, Natural Flavors, Contains less than 2% of: Dextrose, Sugar, Hydrolyzed Soy Protein, Extractives of Paprika, Yeast Extract, Lactic Acid Starter Culture, Caramel Color, Malt Extract, Natural Smoke Flavor, Paprika, Wheat Flour, Sodium Nitrite, Citric Acid, Soy Lecithin. CONTAINS: SOY, WHEAT." Date available: 10/12/2017 Date last updated by company: 10/07/2017
