Source: USDA Branded Food Products Database Release December 2017 Software v.3.8.6.4 2017-10-02
Report Run at: December 18, 2017 01:12 EST
"Nutrient data for: 45134114, SLIM JIM Pepperoni Giant Stick, UNPREPARED, GTIN: 00026200117706"
Food Group:  Branded Food Products Database
Common Name:

Nutrient,Unit,Data points,Std. Error,"1 stick (28g) = 28.0g",1Value per 100 g,
Proximates
"Energy",kcal,--,--,140,500
"Protein",g,--,--,6.00,21.43
"Total lipid (fat)",g,--,--,11.00,39.29
"Carbohydrate, by difference",g,--,--,4.00,14.29
"Fiber, total dietary",g,--,--,1.0,3.6
"Sugars, total",g,--,--,1.00,3.57
Minerals
"Calcium, Ca",mg,--,--,40,143
"Iron, Fe",mg,--,--,0.72,2.57
"Potassium, K",mg,--,--,130,464
"Sodium, Na",mg,--,--,480,1714
Vitamins
"Vitamin C, total ascorbic acid",mg,--,--,0.0,0.0
"Vitamin A, IU",IU,--,--,300,1071
Lipids
"Fatty acids, total saturated",g,--,--,4.001,14.290
"Fatty acids, total monounsaturated",g,--,--,4.500,16.070
"Fatty acids, total polyunsaturated",g,--,--,1.501,5.360
"Fatty acids, total trans",g,--,--,0.000,0.000
"Cholesterol",mg,--,--,25,89
Amino Acids
Other
Ingredients
"Beef, Pork, Mechanically Separated Chicken, Water, Textured Soy Flour, Corn Syrup, Salt, Natural Flavors, Contains less than 2% of: Dextrose, Sugar, Hydrolyzed Soy Protein, Extractives of Paprika, Yeast Extract, Lactic Acid Starter Culture, Caramel Color, Malt Extract, Natural Smoke Flavor, Paprika, Wheat Flour, Sodium Nitrite, Citric Acid, Soy Lecithin. CONTAINS: SOY, WHEAT." Date available: 10/12/2017 Date last updated by company: 10/12/2017
