Source: USDA Branded Food Products Database Release December 2017 Software v.3.8.6.4 2017-10-02
Report Run at: December 18, 2017 01:12 EST
"Nutrient data for: 45130447, SLIM JIM Original Stick, UNPREPARED, GTIN: 00026200162300"
Food Group:  Branded Food Products Database
Common Name:

Nutrient,Unit,Data points,Std. Error,"4.0 sticks (32g) = 32.0g",1Value per 100 g,
Proximates
"Energy",kcal,--,--,160,500
"Protein",g,--,--,7.00,21.88
"Total lipid (fat)",g,--,--,13.00,40.62
"Carbohydrate, by difference",g,--,--,5.00,15.62
"Fiber, total dietary",g,--,--,1.0,3.1
"Sugars, total",g,--,--,1.00,3.12
Minerals
"Calcium, Ca",mg,--,--,40,125
"Iron, Fe",mg,--,--,0.72,2.25
"Potassium, K",mg,--,--,150,469
"Sodium, Na",mg,--,--,550,1719
Vitamins
"Vitamin C, total ascorbic acid",mg,--,--,0.0,0.0
"Vitamin A, IU",IU,--,--,300,938
Lipids
"Fatty acids, total saturated",g,--,--,4.499,14.060
"Fatty acids, total monounsaturated",g,--,--,4.998,15.620
"Fatty acids, total polyunsaturated",g,--,--,1.501,4.690
"Fatty acids, total trans",g,--,--,0.000,0.000
"Cholesterol",mg,--,--,30,94
Amino Acids
Other
Ingredients
"Beef, Pork, Mechanically Separated Chicken, Water, Textured Soy Flour, Corn Syrup, Salt, Contains less than 2% of: Natural Flavors, Dextrose, Paprika, Hydrolyzed Soy Protein, Lactic Acid Starter Culture, Caramel Color, Malt Extract, Wheat Flour, Sodium Nitrite, Citric Acid, Soy Lecithin, Extractives of Paprika. CONTAINS: SOY, WHEAT." Date available: 03/22/2017 Date last updated by company: 03/22/2017
