Source: USDA Branded Food Products Database Release December 2017 Software v.3.8.6.4 2017-10-02
Report Run at: December 18, 2017 01:11 EST
"Nutrient data for: 45130183, SLIM JIM Original Stick, UNPREPARED, GTIN: 00026200115092"
Food Group:  Branded Food Products Database
Common Name:

Nutrient,Unit,Data points,Std. Error,"1 stick (12g) = 12.5g",1Value per 100 g,
Proximates
"Energy",kcal,--,--,60,480
"Total lipid (fat)",g,--,--,5.00,40.00
"Carbohydrate, by difference",g,--,--,2.00,16.00
"Fiber, total dietary",g,--,--,0.0,0.0
"Sugars, total",g,--,--,0.00,0.00
Minerals
"Calcium, Ca",mg,--,--,0,0
"Iron, Fe",mg,--,--,0.00,0.00
"Potassium, K",mg,--,--,60,480
"Sodium, Na",mg,--,--,210,1680
Vitamins
"Vitamin C, total ascorbic acid",mg,--,--,0.0,0.0
"Vitamin A, IU",IU,--,--,100,800
Lipids
"Fatty acids, total saturated",g,--,--,2.000,16.000
"Fatty acids, total monounsaturated",g,--,--,2.000,16.000
"Fatty acids, total polyunsaturated",g,--,--,0.500,4.000
"Fatty acids, total trans",g,--,--,0.000,0.000
"Cholesterol",mg,--,--,10,80
Amino Acids
Other
Ingredients
"Beef, Pork, Mechanically Separated Chicken, Water, Textured Soy Flour, Corn Syrup, Salt, Contains less than 2% of: Natural Flavors, Dextrose, Paprika, Hydrolyzed Soy Protein, Lactic Acid Starter Culture, Caramel Color, Malt Extract, Wheat Flour, Sodium Nitrite, Citric Acid, Soy Lecithin, Extractives of Paprika. CONTAINS: SOY, WHEAT." Date available: 03/30/2017 Date last updated by company: 03/30/2017
