Source: USDA Branded Food Products Database Release December 2017 Software v.3.8.6.4 2017-10-02
Report Run at: December 18, 2017 01:12 EST
"Nutrient data for: 45134524, SLIM JIM Teriyaki Jerky, UNPREPARED, GTIN: 00026200183237"
Food Group:  Branded Food Products Database
Common Name:

Nutrient,Unit,Data points,Std. Error,"1 oz (28g) = 28.0g",1Value per 100 g,
Proximates
"Energy",kcal,--,--,80,286
"Protein",g,--,--,13.00,46.43
"Total lipid (fat)",g,--,--,1.50,5.36
"Carbohydrate, by difference",g,--,--,3.00,10.71
"Fiber, total dietary",g,--,--,0.0,0.0
"Sugars, total",g,--,--,3.00,10.71
Minerals
"Calcium, Ca",mg,--,--,0,0
"Iron, Fe",mg,--,--,1.80,6.43
"Potassium, K",mg,--,--,210,750
"Sodium, Na",mg,--,--,420,1500
Vitamins
"Vitamin C, total ascorbic acid",mg,--,--,0.0,0.0
"Vitamin A, IU",IU,--,--,0,0
Lipids
"Fatty acids, total saturated",g,--,--,0.501,1.790
"Fatty acids, total monounsaturated",g,--,--,0.501,1.790
"Fatty acids, total polyunsaturated",g,--,--,0.000,0.000
"Fatty acids, total trans",g,--,--,0.000,0.000
"Cholesterol",mg,--,--,30,107
Amino Acids
Other
Ingredients
"Beef, Water, Sugar, Fructose, CONTAINS LESS THAN 2% OF: Dried Soy Sauce (Soybeans, Salt), Salt, Salted Wine (Sake Wine, Salt), Soy Sauce (Water, Salt, Hydrolyzed Soy Protein, Corn Syrup, Caramel Color, Potassium Sorbate), Maltodextrin, Flavorings, Hydrolyzed Corn Protein, Sodium Erythorbate, Paprika Extract, Sodium Nitrite. CONTAINS: SOY." Date available: 10/12/2017 Date last updated by company: 10/12/2017
