Source: USDA Branded Food Products Database Release December 2017 Software v.3.8.6.4 2017-10-02
Report Run at: December 18, 2017 01:15 EST
"Nutrient data for: 45289921, SLOPPY JOE SEASONING, UPC: 041149011205"
Food Group:  Branded Food Products Database
Common Name:

Nutrient,Unit,Data points,Std. Error,"1 tsp = 4.5g",1Value per 100 g,
Proximates
"Energy",kcal,--,--,10,222
"Protein",g,--,--,0.00,0.00
"Total lipid (fat)",g,--,--,0.00,0.00
"Carbohydrate, by difference",g,--,--,3.00,66.67
"Fiber, total dietary",g,--,--,0.0,0.0
"Sugars, total",g,--,--,1.00,22.22
Minerals
"Calcium, Ca",mg,--,--,0,0
"Iron, Fe",mg,--,--,0.00,0.00
"Sodium, Na",mg,--,--,410,9111
Vitamins
"Vitamin C, total ascorbic acid",mg,--,--,0.0,0.0
"Vitamin A, IU",IU,--,--,1111,24689
Lipids
"Fatty acids, total saturated",g,--,--,0.000,0.000
"Fatty acids, total trans",g,--,--,0.000,0.000
"Cholesterol",mg,--,--,0,0
Amino Acids
Other
Ingredients
"SUGAR, WHEAT FLOUR, SALT, DEHYDRATED ONION, SPICE AND COLORING, DEXTROSE, AUTOLYZED YEAST EXTRACT, CITRIC ACID, BEET POWDER, MALTODEXTRIN, NATURAL FLAVORS, DISODIUM INOSINATE, SILICON DIOXIDE (ANTI-CAKE)." Date available: 07/14/2017 Date last updated by company: 07/14/2017
