Source: USDA Branded Food Products Database Release December 2017 Software v.3.8.6.4 2017-10-02
Report Run at: December 18, 2017 01:14 EST
"Nutrient data for: 45063754, SLOPPY JOE SAUCE, UPC: 011213019949"
Food Group:  Branded Food Products Database
Common Name:

Nutrient,Unit,Data points,Std. Error,"0.25 cup = 64.0g",1Value per 100 g,
Proximates
"Energy",kcal,--,--,35,55
"Protein",g,--,--,1.00,1.56
"Total lipid (fat)",g,--,--,0.00,0.00
"Carbohydrate, by difference",g,--,--,7.00,10.94
"Fiber, total dietary",g,--,--,1.0,1.6
"Sugars, total",g,--,--,5.00,7.81
Minerals
"Calcium, Ca",mg,--,--,0,0
"Iron, Fe",mg,--,--,0.76,1.19
"Sodium, Na",mg,--,--,380,594
Vitamins
"Vitamin C, total ascorbic acid",mg,--,--,12.7,19.8
"Vitamin A, IU",IU,--,--,634,991
Lipids
"Fatty acids, total saturated",g,--,--,0.000,0.000
"Fatty acids, total trans",g,--,--,0.000,0.000
"Cholesterol",mg,--,--,0,0
Amino Acids
Other
Ingredients
"TOMATO PUREE (WATER, TOMATO PASTE), HIGH FRUCTOSE CORN SYRUP, DISTILLED VINEGAR, LESS THAN 2% OF: SALT, CHILI PEPPER, DEHYDRATED GREEN AND RED BELL PEPPERS, TOMATO FIBER, SPICES, XANTHAN GUM, DEHYDRATED GARLIC, DEHYDRATED ONION." Date available: 07/14/2017 Date last updated by company: 07/14/2017
