Source: USDA Branded Food Products Database Release December 2017 Software v.3.8.6.4 2017-10-02
Report Run at: December 18, 2017 01:14 EST
"Nutrient data for: 45118966, SLOPPY JOE SAUCE PEPPERED BACON, UPC: 863602000034"
Food Group:  Branded Food Products Database
Common Name:

Nutrient,Unit,Data points,Std. Error,"33.0 GRM = 33.0g",1Value per 100 g,
Proximates
"Energy",kcal,--,--,25,76
"Protein",g,--,--,0.00,0.00
"Total lipid (fat)",g,--,--,0.00,0.00
"Carbohydrate, by difference",g,--,--,5.00,15.15
"Fiber, total dietary",g,--,--,0.0,0.0
"Sugars, total",g,--,--,4.00,12.12
Minerals
"Calcium, Ca",mg,--,--,0,0
"Iron, Fe",mg,--,--,0.00,0.00
"Potassium, K",mg,--,--,60,182
"Sodium, Na",mg,--,--,650,1970
Vitamins
"Vitamin C, total ascorbic acid",mg,--,--,3.6,10.9
"Vitamin A, IU",IU,--,--,300,909
Lipids
"Fatty acids, total saturated",g,--,--,0.000,0.000
"Cholesterol",mg,--,--,0,0
Amino Acids
Other
Ingredients
"WATER, TOMATO PASTE, SUGAR, SALT, VINEGAR. CONTAINS 2% OR LESS OF EACH OF THE FOLLOWING: MODIFIED CORN STARCH, CITRIC ACID, GARLIC*, NATURAL FLAVOR (CONTAINS MALTODEXTRIN, CANOLA OIL**), SPICES, NATURAL SMOKE FLAVORS, POTASSIUM SORBATE AND SODIUM BENZOATE (PRESERVATIVES), XANTHAN GUM, EXTRACTIVE OF PAPRIKA, CARAMEL COLOR." Date available: 07/14/2017 Date last updated by company: 07/14/2017
