Source: USDA Branded Food Products Database Release December 2017 Software v.3.8.6.4 2017-10-02
Report Run at: December 18, 2017 01:16 EST
"Nutrient data for: 45198340, SLOW ROASTED BEEF WITH VEGETABLES, UPC: 072106454445"
Food Group:  Branded Food Products Database
Common Name:

Nutrient,Unit,Data points,Std. Error,"1 cup = 196.0g",1Value per 100 g,
Proximates
"Energy",kcal,--,--,190,97
"Protein",g,--,--,14.99,7.65
"Total lipid (fat)",g,--,--,7.00,3.57
"Carbohydrate, by difference",g,--,--,16.99,8.67
"Fiber, total dietary",g,--,--,2.0,1.0
"Sugars, total",g,--,--,3.00,1.53
Minerals
"Calcium, Ca",mg,--,--,151,77
"Iron, Fe",mg,--,--,0.76,0.39
"Sodium, Na",mg,--,--,629,321
Vitamins
"Vitamin C, total ascorbic acid",mg,--,--,10.8,5.5
"Vitamin A, IU",IU,--,--,894,456
Lipids
"Fatty acids, total saturated",g,--,--,1.999,1.020
"Fatty acids, total trans",g,--,--,0.000,0.000
"Cholesterol",mg,--,--,25,13
Amino Acids
Other
Ingredients
"BEEF, POTATOES, VEGETABLE BLEND (CELERY, CARROTS, ONIONS, BEEF AU JUS CONCENTRATE (BEEF STOCK, SALT, NATURAL FLAVORING, YEAST EXTRACT, BEEF FAT, CARAMEL COLOR, CORNSTARCH, SODIUM PHOSPHATE, ONION POWDER, SOY SAUCE [WATER, SOYBEANS, WHEAT, SALT], LACTIC ACID, MODIFIED FOOD STARCH, DISODIUM INOSINATE & DISODIUM GUANYLATE, POTATO STARCH, BEET POWDER, GARLIC POWDER AND CORN SYRUP SOLIDS), SEASONINGS [SALT, MODIFIED CORN STARCH, SPICE, GRANULATED GARLIC], GARLIC], CANOLA OIL AND EXTRA VIRGIN OLIVE OIL BLEND, GARLIC, PARSLEY, SAGE), WATER, AU JUS SEASONING (CORN STARCH, RENDERED BEEF FAT [BEEF BROTH, NATURAL FLAVORING], BEEF BROTH, SUGAR, SALT, CARAMEL COLOR [SULFITES], XANTHAN GUM, NATURAL FLAVOR, ONION POWDER, GARLIC POWDER, SPICE, EXTRACTIVE OF SPICE, LESS THAN 2% SILICON DIOXIDE [ADDED TO PREVENT CAKING]), SEASONING (SALT, DEXTROSE, SPICES [INCLUDING PARSLEY], CARAMEL COLOR, MALTODEXTRIN, GRANULATED GARLIC AND ONION), GRANULATED GARLIC, SPICE." Date available: 07/14/2017 Date last updated by company: 07/14/2017
