Source: USDA Branded Food Products Database Release December 2017 Software v.3.8.6.4 2017-10-02
Report Run at: December 18, 2017 01:18 EST
"Nutrient data for: 45228066, SMALL CHILI MAC PASTA, UPC: 841395110079"
Food Group:  Branded Food Products Database
Common Name:

Nutrient,Unit,Data points,Std. Error,"1 CONTAINER = 275.0g",1Value per 100 g,
Proximates
"Energy",kcal,--,--,371,135
"Protein",g,--,--,21.01,7.64
"Total lipid (fat)",g,--,--,8.00,2.91
"Carbohydrate, by difference",g,--,--,52.99,19.27
"Fiber, total dietary",g,--,--,4.1,1.5
"Sugars, total",g,--,--,3.99,1.45
Minerals
"Calcium, Ca",mg,--,--,80,29
"Iron, Fe",mg,--,--,1.26,0.46
"Sodium, Na",mg,--,--,690,251
Vitamins
"Vitamin C, total ascorbic acid",mg,--,--,14.8,5.4
"Vitamin A, IU",IU,--,--,710,258
Lipids
"Fatty acids, total saturated",g,--,--,2.502,0.910
"Fatty acids, total trans",g,--,--,0.000,0.000
"Cholesterol",mg,--,--,55,20
Amino Acids
Other
Ingredients
"COOKED GLUTEN FREE ELBOW PASTA (CORN FLOUR, RICE FLOUR, MONO AND DIGLYCERIDES), GROUND TURKEY MEAT, BLACK BEANS (PREPARED BLACK BEANS, WATER, SALT), PEELED TOMATOES (VINE RIPENED TOMATOES WITH ADDED TOMATO JUICE, SALT, CITRIC ACID, BASIL), TOMATO PUREE (TOMATOES, SALT), TOMATOES (TOMATOES WITH JUICE, WATER, CHOPPED GREEN CHILI PEPPERS, SALT, CALCIUM CHLORIDE, CITRIC ACID, FLAVORS, SPICES), CHEDDAR CHEESE (PASTEURIZED MILK, CHEESE CULTURE, SALT, ENZYMES, ANNATTO (VEGETABLE COLOR), POTATO STARCH, CORNSTARCH AND POWDERED CELLULOSE (ADDED TO PREVENT CAKING)), RED BELL PEPPERS, YELLOW BELL PEPPERS, YELLOW ONION, CELERY, SEASONING (SALT, RED PEPPER, BLACK PEPPER, CHILI POWDER [CHILI PEPPER, SPICES, SALT, GARLIC POWDER], GARLIC), SEASONING (SALT, DEHYDRATED GARLIC, DEHYDRATED RED AND GREEN PEPPERS, DEHYDRATED ONION, CHILI PEPPER AND OTHER SPICES, RED PEPPER, CITRIC ACID, SUGAR, FLAVORS), GARLIC, GARLIC PEPPER SEASONING (GARLIC, BLACK PEPPER, SALT, BROWN SUGAR, ONION, RED BELL PEPPERS, PARSLEY, AND GARLIC OIL), DEHYDRATED ONION, CHILI POWDER (CHILI PEPPER, SPICES, SALT, AND GARLIC), SEASONING (SPICES, SUGAR, RED AND GREEN BELL PEPPERS, TOMATO, ONION, GARLIC, CITRIC ACID, NATURAL FLAVOR), SEASONING (SPICES (INCLUDING BLACK PEPPER, WHITE PEPPER AND RED PEPPER), SALT, GARLIC, ONION, RED AND GREEN BELL PEPPERS, CHILI PEPPER, CITRIC ACID, NATURAL FLAVOR, EXTRACTIVES OF CAPSICUM, AND JALAPENO PEPPERS), CUMIN, RED PEPPER FLAKES." Date available: 07/14/2017 Date last updated by company: 07/14/2017
