Source: USDA Branded Food Products Database Release December 2017 Software v.3.8.6.4 2017-10-02
Report Run at: December 18, 2017 01:28 EST
"Nutrient data for: 45091966, SMART SENSE, CHOCOLATE CASHEW TRAIL MIX, UPC: 883967381586"
Food Group:  Branded Food Products Database
Common Name:

Nutrient,Unit,Data points,Std. Error,"0.25 cup = 30.0g",1Value per 100 g,
Proximates
"Energy",kcal,--,--,150,500
"Protein",g,--,--,3.00,10.00
"Total lipid (fat)",g,--,--,9.00,30.00
"Carbohydrate, by difference",g,--,--,16.00,53.33
"Fiber, total dietary",g,--,--,1.0,3.3
"Sugars, total",g,--,--,11.00,36.67
Minerals
"Calcium, Ca",mg,--,--,20,67
"Iron, Fe",mg,--,--,1.20,4.00
"Potassium, K",mg,--,--,110,367
"Sodium, Na",mg,--,--,25,83
Vitamins
"Vitamin C, total ascorbic acid",mg,--,--,0.0,0.0
"Vitamin A, IU",IU,--,--,0,0
Lipids
"Fatty acids, total saturated",g,--,--,3.000,10.000
"Fatty acids, total trans",g,--,--,0.000,0.000
"Cholesterol",mg,--,--,0,0
Amino Acids
Other
Ingredients
"MILK CHOCOLATE CARAMEL BITES (MILK CHOCOLATE [SUGAR, COCOA BUTTER, MILK CHOCOLATE LIQUOR, SOY LECITHIN, ARTIFICIAL FLAVOR, SALT], CORN SYRUP, SWEETENED CONDENSED MILK [MILK, SKIM MILK, SUGAR], SUGAR, HYDROGENATED VEGETABLE OIL [PALM KERNEL AND SOYBEANS EVAPORATED MILK, SALT, ARTIFICIAL FLAVOR, GUM ARABIC, MODIFIED CORNSTARCH. CONFECTIONER'S GLAZE, XANTHAN GUM), CASHEWS (CASHEWS, PEANUT OIL), M&M'S MILK CHOCOLATE CANDIES (MILK CHOCOLATE [SUGAR, CHOCOLATE, SKIM MILK, COCOA BUTTER, LACTOSE, MILK FAT, SOY LECITHIN, SALT, ARTIFICIAL FLAVORS], SUGAR, CORNSTARCH, LESS THAN 1% OF CORN SYRUP DEXTRINS, COLORING [INCLUDES BLUE 1 LAKE, RED 40 LAKE, YELLOW 6, YELLOW 5, RED 40. BLUE 1. BLUE 2 LAKE, YELLOW 6 LAKE, YELLOW 5 LAKE, BLUE 2], GUM ACACIA), PEANUTS (PEANUTS,PEANUT OIL)." Date available: 06/25/2017 Date last updated by company: 06/25/2017
