Source: USDA Branded Food Products Database Release December 2017 Software v.3.8.6.4 2017-10-02
Report Run at: December 18, 2017 01:32 EST
"Nutrient data for: 45160017, SMART SENSE, SPARKLING WATER BEVERAGE, STRAWBERRY, UPC: 883967380954"
Food Group:  Branded Food Products Database
Common Name:

Nutrient,Unit,Data points,Std. Error,"12.0 OZA = 355.0g",1Value per 100 g,
Proximates
"Energy",kcal,--,--,0,0
"Protein",g,--,--,0.00,0.00
"Total lipid (fat)",g,--,--,0.00,0.00
"Carbohydrate, by difference",g,--,--,0.00,0.00
"Sugars, total",g,--,--,0.00,0.00
Minerals
"Sodium, Na",mg,--,--,4,1
Vitamins
Lipids
Amino Acids
Other
Ingredients
"CARBONATED WATER, CITRIC ACID, POTASSIUM CITRATE, NATURAL FLAVOR, ASPARTAME POTASSIUM BENZOATE (PRESERVATIVE) ACESULFAME POTASSIUM, MALIC ACID." Date available: 07/14/2017 Date last updated by company: 07/14/2017
