Source: USDA Branded Food Products Database Release December 2017 Software v.3.8.6.4 2017-10-02
Report Run at: December 18, 2017 01:27 EST
"Nutrient data for: 45140357, SMART ONES, OATMEAL, APPLES & CINNAMON, UPC: 025800039326"
Food Group:  Branded Food Products Database
Common Name:

Nutrient,Unit,Data points,Std. Error,"1 cup = 164.0g",1Value per 100 g,
Proximates
"Energy",kcal,--,--,180,110
"Protein",g,--,--,5.00,3.05
"Total lipid (fat)",g,--,--,2.00,1.22
"Carbohydrate, by difference",g,--,--,35.00,21.34
"Fiber, total dietary",g,--,--,4.9,3.0
"Sugars, total",g,--,--,14.01,8.54
Minerals
"Calcium, Ca",mg,--,--,100,61
"Iron, Fe",mg,--,--,0.72,0.44
"Sodium, Na",mg,--,--,171,104
Vitamins
"Vitamin C, total ascorbic acid",mg,--,--,6.1,3.7
"Vitamin A, IU",IU,--,--,0,0
Lipids
"Fatty acids, total saturated",g,--,--,0.492,0.300
"Fatty acids, total monounsaturated",g,--,--,0.492,0.300
"Fatty acids, total polyunsaturated",g,--,--,0.492,0.300
"Fatty acids, total trans",g,--,--,0.000,0.000
"Cholesterol",mg,--,--,5,3
Amino Acids
Other
Ingredients
"WATER, STEEL CUT WHOLE GRAIN OATS, ROLLED OATS, GRANOLA (OATS, BROWN SUGAR, HONEY, SALT, SPICES, NATURAL FLAVOR), APPLES, NONFAT MILK, APPLE JUICE CONCENTRATE, BROWN SUGAR, OAT FIBER, SUGAR, CORN SYRUP, SALT, MODIFIED FOOD STARCH, GLYCERIN, CINNAMON, ACET" Date available: 10/17/2016 Date last updated by company: 10/17/2016
