Source: USDA Branded Food Products Database Release December 2017 Software v.3.8.6.4 2017-10-02
Report Run at: December 18, 2017 01:51 EST
"Nutrient data for: 45185194, SMOKED TURKEY BREAST AND WHITE TURKEY SLICES, UPC: 60788003709"
Food Group:  Branded Food Products Database
Common Name:

Nutrient,Unit,Data points,Std. Error,"1 SLICE = 28.0g",1Value per 100 g,
Proximates
"Energy",kcal,--,--,25,89
"Protein",g,--,--,4.00,14.29
"Total lipid (fat)",g,--,--,0.50,1.79
"Carbohydrate, by difference",g,--,--,2.00,7.14
"Fiber, total dietary",g,--,--,0.0,0.0
"Sugars, total",g,--,--,0.00,0.00
Minerals
"Calcium, Ca",mg,--,--,0,0
"Iron, Fe",mg,--,--,0.71,2.53
"Sodium, Na",mg,--,--,250,893
Vitamins
"Vitamin C, total ascorbic acid",mg,--,--,0.0,0.0
"Vitamin A, IU",IU,--,--,0,0
Lipids
"Fatty acids, total saturated",g,--,--,0.000,0.000
"Fatty acids, total trans",g,--,--,0.000,0.000
"Cholesterol",mg,--,--,10,36
Amino Acids
Other
Ingredients
"TURKEY (TURKEY BREAST AND WHITE TURKEY), WATER, MODIFIED FOOD STARCH, SALT, CONTAINS 2% OR LESS OF: DEXTROSE, POTASSIUM LACTATE, SODIUM PHOSPHATES, SODIUM DIACETATE, SODIUM ERYTHORBATE, SODIUM NITRITE" Date available: 07/14/2017 Date last updated by company: 07/14/2017
