Source: USDA Branded Food Products Database Release December 2017 Software v.3.8.6.4 2017-10-02
Report Run at: December 18, 2017 01:37 EST
"Nutrient data for: 45227535, SMOKED BLACK PEPPER WHITE CHEDDAR CHEESE, UPC: 072830000970"
Food Group:  Branded Food Products Database
Common Name:

Nutrient,Unit,Data points,Std. Error,"1 PIECE = 21.0g",1Value per 100 g,
Proximates
"Energy",kcal,--,--,90,429
"Protein",g,--,--,5.00,23.81
"Total lipid (fat)",g,--,--,7.00,33.33
"Carbohydrate, by difference",g,--,--,0.00,0.00
"Fiber, total dietary",g,--,--,0.0,0.0
"Sugars, total",g,--,--,0.00,0.00
Minerals
"Calcium, Ca",mg,--,--,150,714
"Iron, Fe",mg,--,--,0.00,0.00
"Sodium, Na",mg,--,--,125,595
Vitamins
"Vitamin C, total ascorbic acid",mg,--,--,0.0,0.0
"Vitamin A, IU",IU,--,--,476,2267
Lipids
"Fatty acids, total saturated",g,--,--,4.500,21.430
"Fatty acids, total trans",g,--,--,0.000,0.000
"Cholesterol",mg,--,--,20,95
Amino Acids
Other
Ingredients
"CULTURED PASTEURIZED MILK, BLACK PEPPER, SALT, ENZYMES, NATURAL HICKORY SMOKE FLAVORS." Date available: 07/14/2017 Date last updated by company: 07/14/2017
