Source: USDA Branded Food Products Database Release December 2017 Software v.3.8.6.4 2017-10-02
Report Run at: December 18, 2017 01:48 EST
"Nutrient data for: 45221141, SMOKED SAUSAGE, UPC: 74900223960"
Food Group:  Branded Food Products Database
Common Name:

Nutrient,Unit,Data points,Std. Error,"2.0 ONZ = 56.0g",1Value per 100 g,
Proximates
"Energy",kcal,--,--,68,121
"Protein",g,--,--,9.00,16.07
"Total lipid (fat)",g,--,--,8.00,14.29
"Carbohydrate, by difference",g,--,--,1.00,1.79
"Fiber, total dietary",g,--,--,0.0,0.0
"Sugars, total",g,--,--,0.00,0.00
Minerals
"Calcium, Ca",mg,--,--,0,0
"Iron, Fe",mg,--,--,0.35,0.63
"Sodium, Na",mg,--,--,250,446
Vitamins
"Vitamin C, total ascorbic acid",mg,--,--,1.2,2.1
"Vitamin A, IU",IU,--,--,0,0
Lipids
"Fatty acids, total saturated",g,--,--,1.999,3.570
"Fatty acids, total trans",g,--,--,0.000,0.000
"Cholesterol",mg,--,--,18,32
Amino Acids
Other
Ingredients
"PORK, MECHANICALLY SEPARATED CHICKEN, PORK HEARTS, WATER ISOLATED SOY PROTEIN, SPICES, SALT, SUGAR, DEXTROSE, SODIUM ERYTHORBATE, SODIUM NITRATE." Date available: 10/13/2017 Date last updated by company: 10/13/2017
