Source: USDA Branded Food Products Database Release December 2017 Software v.3.8.6.4 2017-10-02
Report Run at: December 18, 2017 01:46 EST
"Nutrient data for: 45193482, SMOKED SAUSAGE LINKS, UPC: 011110970787"
Food Group:  Branded Food Products Database
Common Name:

Nutrient,Unit,Data points,Std. Error,"1 LINK = 85.0g",1Value per 100 g,
Proximates
"Energy",kcal,--,--,230,271
"Protein",g,--,--,12.00,14.12
"Total lipid (fat)",g,--,--,24.00,28.24
"Carbohydrate, by difference",g,--,--,1.00,1.18
"Fiber, total dietary",g,--,--,0.0,0.0
"Sugars, total",g,--,--,1.00,1.18
Minerals
"Calcium, Ca",mg,--,--,80,94
"Iron, Fe",mg,--,--,0.23,0.27
"Sodium, Na",mg,--,--,690,812
Vitamins
"Vitamin C, total ascorbic acid",mg,--,--,0.0,0.0
"Vitamin A, IU",IU,--,--,65,76
Lipids
"Fatty acids, total saturated",g,--,--,9.002,10.590
"Fatty acids, total trans",g,--,--,0.000,0.000
"Cholesterol",mg,--,--,55,65
Amino Acids
Other
Ingredients
"PORK, WATER, CHEDDAR CHEESE (PASTEURIZED MILK, CHEESE CULTURE, SALT, ENZYMES, ANNATTO [VEGETABLE COLOR]), SEA SALT, EVAPORATED CANE SYRUP, CONTAINS 2% OR LESS DRIED VINEGAR POWDER, NATURAL FLAVORINGS, CELERY, JUICE POWDER, LACTIC ACID STARTER CULTURE (NOT FROM DAIRY)." Date available: 07/14/2017 Date last updated by company: 07/14/2017
