Source: USDA Branded Food Products Database Release December 2017 Software v.3.8.6.4 2017-10-02
Report Run at: December 18, 2017 01:45 EST
"Nutrient data for: 45217650, SMOKED SALMON TRIO, UPC: 048313061615"
Food Group:  Branded Food Products Database
Common Name:

Nutrient,Unit,Data points,Std. Error,"2.0 ONZ = 57.0g",1Value per 100 g,
Proximates
"Energy",kcal,--,--,120,211
"Protein",g,--,--,15.00,26.32
"Total lipid (fat)",g,--,--,6.00,10.53
"Carbohydrate, by difference",g,--,--,2.00,3.51
"Fiber, total dietary",g,--,--,0.0,0.0
"Sugars, total",g,--,--,2.00,3.51
Minerals
"Calcium, Ca",mg,--,--,0,0
"Iron, Fe",mg,--,--,0.35,0.61
"Sodium, Na",mg,--,--,640,1123
Vitamins
"Vitamin C, total ascorbic acid",mg,--,--,0.0,0.0
"Vitamin A, IU",IU,--,--,96,169
Lipids
"Fatty acids, total saturated",g,--,--,0.998,1.750
"Fatty acids, total trans",g,--,--,0.000,0.000
"Cholesterol",mg,--,--,45,79
Amino Acids
Other
Ingredients
"CRACKED PEPPER (COHO SALMON (COLOR ADDED), SALT, BROWN SUGAR, PEPPER, NATURAL HARDWOOD SMOKE), TRADITIONAL (COHO SALMON (COLOR ADDED), SALT, BROWN SUGAR, NATURAL HARDWOOD SMOKE), CAJUN SPICE (COHO SALMON (COLOR ADDED), SALT, BROWN SUGAR, CAJUN KING SPICE (SALT, SPICES, PAPRIKA, RED PEPPER) GARLIC POWDER, CAYENNE PEPPER, SPICES, NATURAL HARDWOOD SMOKE)." Date available: 10/12/2017 Date last updated by company: 10/12/2017
