Source: USDA Branded Food Products Database Release December 2017 Software v.3.8.6.4 2017-10-02
Report Run at: December 18, 2017 01:41 EST
"Nutrient data for: 45324192, SMOKED HAM & COTTO SALAMI, UPC: 044700031728"
Food Group:  Branded Food Products Database
Common Name:

Nutrient,Unit,Data points,Std. Error,"4.0 SLICES = 57.0g",1Value per 100 g,
Proximates
"Energy",kcal,--,--,80,140
"Protein",g,--,--,8.00,14.04
"Total lipid (fat)",g,--,--,4.00,7.02
"Carbohydrate, by difference",g,--,--,2.00,3.51
"Sugars, total",g,--,--,1.00,1.75
Minerals
"Calcium, Ca",mg,--,--,60,105
"Iron, Fe",mg,--,--,0.70,1.22
"Sodium, Na",mg,--,--,740,1298
Vitamins
"Vitamin C, total ascorbic acid",mg,--,--,5.8,10.2
Lipids
"Fatty acids, total saturated",g,--,--,1.499,2.630
"Fatty acids, total trans",g,--,--,0.000,0.000
"Cholesterol",mg,--,--,40,70
Amino Acids
Other
Ingredients
"HAM, WATER, MODIFIED CORNSTARCH, SALT, CONTAINS LESS THAN 2% OF DEXTROSE, SODIUM PHOSPHATES, SODIUM PROPIONATE, SODIUM DIACETATE, SODIUM BENZOATE, SODIUM ASCORBATE, SODIUM NITRITE. MECHANICALLY SEPARATED CHICKEN, PORK HEARTS, PORK, WATER, CORN SYRUP, CONTAINS LESS THAN 2% OF SALT, GROUND MUSTARD SEED, SODIUM PHOSPHATES, FLAVOR, SODIUM PROPIONATE, SODIUM DIACETATE, SODIUM BENZOATE, SODIUM NITRITE, DEXTROSE, SODIUM ASCORBATE, POTASSIUM CHLORIDE, BEEF, SUGAR, SOY LECITHIN." Date available: 08/11/2017 Date last updated by company: 08/11/2017
