Source: USDA Branded Food Products Database Release December 2017 Software v.3.8.6.4 2017-10-02
Report Run at: December 18, 2017 01:47 EST
"Nutrient data for: 45193755, SMOKED SAUSAGE, UPC: 013451427470"
Food Group:  Branded Food Products Database
Common Name:

Nutrient,Unit,Data points,Std. Error,"2.0 ONZ = 56.0g",1Value per 100 g,
Proximates
"Energy",kcal,--,--,120,214
"Protein",g,--,--,8.00,14.29
"Total lipid (fat)",g,--,--,9.00,16.07
"Carbohydrate, by difference",g,--,--,0.00,0.00
"Fiber, total dietary",g,--,--,0.0,0.0
"Sugars, total",g,--,--,0.00,0.00
Minerals
"Calcium, Ca",mg,--,--,0,0
"Iron, Fe",mg,--,--,0.35,0.63
"Sodium, Na",mg,--,--,390,696
Vitamins
"Vitamin C, total ascorbic acid",mg,--,--,0.0,0.0
"Vitamin A, IU",IU,--,--,0,0
Lipids
"Fatty acids, total saturated",g,--,--,3.002,5.360
"Fatty acids, total trans",g,--,--,0.000,0.000
"Cholesterol",mg,--,--,30,54
Amino Acids
Other
Ingredients
"PORK, BEEF, WATER, SALT, DEXTROSE, MUSTARD, SPICES, MONOSODIUM GLUTAMATE, NATURAL SMOKE FLAVORINGS, SODIUM ERYTHORBATE, SODIUM NITRITE." Date available: 07/14/2017 Date last updated by company: 07/14/2017
