Source: USDA Branded Food Products Database Release December 2017 Software v.3.8.6.4 2017-10-02
Report Run at: December 18, 2017 01:43 EST
"Nutrient data for: 45218378, SMOKED OYSTERS, UPC: 071140006078"
Food Group:  Branded Food Products Database
Common Name:

Nutrient,Unit,Data points,Std. Error,"0.33 cup = 47.0g",1Value per 100 g,
Proximates
"Energy",kcal,--,--,95,202
"Protein",g,--,--,8.00,17.02
"Total lipid (fat)",g,--,--,5.00,10.64
"Carbohydrate, by difference",g,--,--,4.00,8.51
"Fiber, total dietary",g,--,--,0.0,0.0
"Sugars, total",g,--,--,0.00,0.00
Minerals
"Calcium, Ca",mg,--,--,20,43
"Iron, Fe",mg,--,--,11.39,24.24
"Sodium, Na",mg,--,--,160,340
Vitamins
"Vitamin C, total ascorbic acid",mg,--,--,0.0,0.0
"Vitamin A, IU",IU,--,--,452,962
Lipids
"Fatty acids, total saturated",g,--,--,2.002,4.260
"Fatty acids, total trans",g,--,--,0.000,0.000
"Cholesterol",mg,--,--,10,21
Amino Acids
Other
Ingredients
"SMOKED OYSTETRS, COTTONSEED OIL, RED CHILI, SALT." Date available: 07/14/2017 Date last updated by company: 07/14/2017
