Source: USDA Branded Food Products Database Release December 2017 Software v.3.8.6.4 2017-10-02
Report Run at: December 18, 2017 01:39 EST
"Nutrient data for: 45259720, SMOKED GOUDA CHEESE SPREAD, UPC: 075446030119"
Food Group:  Branded Food Products Database
Common Name:

Nutrient,Unit,Data points,Std. Error,"2.0 Tbsp = 30.0g",1Value per 100 g,
Proximates
"Energy",kcal,--,--,120,400
"Protein",g,--,--,3.00,10.00
"Total lipid (fat)",g,--,--,9.00,30.00
"Carbohydrate, by difference",g,--,--,0.00,0.00
"Fiber, total dietary",g,--,--,0.0,0.0
"Sugars, total",g,--,--,0.00,0.00
Minerals
"Calcium, Ca",mg,--,--,60,200
"Iron, Fe",mg,--,--,7.50,25.00
"Potassium, K",mg,--,--,15,50
"Sodium, Na",mg,--,--,101,337
Vitamins
"Vitamin C, total ascorbic acid",mg,--,--,5.0,16.7
"Vitamin A, IU",IU,--,--,334,1112
Lipids
"Fatty acids, total saturated",g,--,--,3.000,10.000
"Fatty acids, total trans",g,--,--,0.000,0.000
"Cholesterol",mg,--,--,40,133
Amino Acids
Other
Ingredients
"SMOKED GOUDA (PASTEURIZED MILK, WATER, CHEESE CULTURES, SKIM MILK, ENZYMES, SODIUM PHOSPHATES, CALCIUM PROPIONATE (PRESERVATIVE), APO-CAROTENAL (FOR COLOR)), MAYONNAISE (VEGETABLE OIL (SOY OR CANOLA), WATER, EGGS, DISTILLED VINEGAR AND CIDER VINEGAR, SALT, PAPRIKA, NATURAL FLAVOR, CALCIUM DIOSODIUM EDTA (TO PROTECT FLAVOR)), FULLY COOKED BACON BITS (WATER, SALT, SODIUM ERYTHORBATE, SODIUM NITRITE, SMOKE FLAVORING, SUGAR DEXTROSE, BROWN SUGAR, SODIUM PHOSPHATE, POTASSIUM CHLORIDE, FLAVORING. GUM (XANTHAN GUM, GUAR GUM))." Date available: 07/14/2017 Date last updated by company: 07/14/2017
