Source: USDA Branded Food Products Database Release December 2017 Software v.3.8.6.4 2017-10-02
Report Run at: December 18, 2017 01:38 EST
"Nutrient data for: 45307960, SMOKED CHICKEN SAUSAGE, UPC: 764014333522"
Food Group:  Branded Food Products Database
Common Name:

Nutrient,Unit,Data points,Std. Error,"1 LINK = 85.0g",1Value per 100 g,
Proximates
"Energy",kcal,--,--,210,247
"Protein",g,--,--,12.00,14.12
"Total lipid (fat)",g,--,--,14.00,16.47
"Carbohydrate, by difference",g,--,--,8.00,9.41
"Fiber, total dietary",g,--,--,1.0,1.2
"Sugars, total",g,--,--,8.00,9.41
Minerals
"Calcium, Ca",mg,--,--,80,94
"Iron, Fe",mg,--,--,0.70,0.82
"Sodium, Na",mg,--,--,630,741
Vitamins
Lipids
"Fatty acids, total saturated",g,--,--,4.003,4.710
"Fatty acids, total trans",g,--,--,0.000,0.000
"Cholesterol",mg,--,--,80,94
Amino Acids
Other
Ingredients
"CHICKEN, BACON (PORK, WATER, SALT, SUGAR, SODIUM PHOSPHATE, SODIUM ERYTHORBATE AND SODIUM NITRITE), BROWN SUGAR, DRIED PINEAPPLE (PINEAPPLE, CANE SUGAR), SALT, APPLE CIDER VINEGAR (MALTODEXTRIN, APPLE CIDER VINEGAR, AND MODIFIED FOOD STARCH), SPICES, AND CELERY POWDER, IN A PORK CASING." Date available: 10/05/2017 Date last updated by company: 10/05/2017
