Source: USDA Branded Food Products Database Release December 2017 Software v.3.8.6.4 2017-10-02
Report Run at: December 18, 2017 01:44 EST
"Nutrient data for: 45194541, SMOKED PORK SAUSAGE, UPC: 029599002622"
Food Group:  Branded Food Products Database
Common Name:

Nutrient,Unit,Data points,Std. Error,"2.0 ONZ = 56.0g",1Value per 100 g,
Proximates
"Energy",kcal,--,--,150,268
"Protein",g,--,--,9.00,16.07
"Total lipid (fat)",g,--,--,12.00,21.43
"Carbohydrate, by difference",g,--,--,1.00,1.79
"Fiber, total dietary",g,--,--,0.0,0.0
"Sugars, total",g,--,--,1.00,1.79
Minerals
"Calcium, Ca",mg,--,--,20,36
"Iron, Fe",mg,--,--,0.35,0.63
"Sodium, Na",mg,--,--,470,839
Vitamins
"Vitamin C, total ascorbic acid",mg,--,--,0.0,0.0
"Vitamin A, IU",IU,--,--,98,175
Lipids
"Fatty acids, total saturated",g,--,--,4.502,8.040
"Fatty acids, total trans",g,--,--,0.000,0.000
"Cholesterol",mg,--,--,25,45
Amino Acids
Other
Ingredients
"PORK, PORK BROTH (WATER, PORK STOCK), WATER, AND 2% OR LESS OF SALT, CORN SYRUP SOLIDS, DEXTROSE, SUGAR, SODIUM PHOSPHATE, PAPRIKA, FLAVORINGS, SODIUM ERYTHORBATE, AUTOLYZED YEAST EXTRACT, SODIUM NITRITE." Date available: 07/14/2017 Date last updated by company: 07/14/2017
