Source: USDA Branded Food Products Database Release December 2017 Software v.3.8.6.4 2017-10-02
Report Run at: December 18, 2017 01:39 EST
"Nutrient data for: 45269736, SMOKED DICED UNCURED HAM, UPC: 891534001751"
Food Group:  Branded Food Products Database
Common Name:

Nutrient,Unit,Data points,Std. Error,"2.0 ONZ = 57.0g",1Value per 100 g,
Proximates
"Energy",kcal,--,--,120,211
"Protein",g,--,--,9.00,15.79
"Total lipid (fat)",g,--,--,9.00,15.79
"Carbohydrate, by difference",g,--,--,1.00,1.75
"Fiber, total dietary",g,--,--,0.0,0.0
"Sugars, total",g,--,--,0.00,0.00
Minerals
"Calcium, Ca",mg,--,--,0,0
"Iron, Fe",mg,--,--,0.35,0.61
"Sodium, Na",mg,--,--,560,982
Vitamins
"Vitamin C, total ascorbic acid",mg,--,--,14.5,25.4
"Vitamin A, IU",IU,--,--,0,0
Lipids
"Fatty acids, total saturated",g,--,--,2.998,5.260
"Fatty acids, total trans",g,--,--,0.000,0.000
"Cholesterol",mg,--,--,35,61
Amino Acids
Other
Ingredients
"UNCURED HAM PREPARED WITH: WATER, SEA SALT, TURBINADO SUGAR, CELERY POWDER, CHERRY POWDER SODIUM CARBONATE, NATURAL FLAVOR." Date available: 07/14/2017 Date last updated by company: 07/14/2017
