Source: USDA Branded Food Products Database Release December 2017 Software v.3.8.6.4 2017-10-02
Report Run at: December 18, 2017 01:44 EST
"Nutrient data for: 45210370, SMOKED PORK CHOPS, UPC: 044200753113"
Food Group:  Branded Food Products Database
Common Name:

Nutrient,Unit,Data points,Std. Error,"3.0 ONZ = 84.0g",1Value per 100 g,
Proximates
"Energy",kcal,--,--,130,155
"Protein",g,--,--,14.00,16.67
"Total lipid (fat)",g,--,--,6.00,7.14
"Carbohydrate, by difference",g,--,--,3.00,3.57
"Fiber, total dietary",g,--,--,0.0,0.0
"Sugars, total",g,--,--,2.00,2.38
Minerals
"Calcium, Ca",mg,--,--,20,24
"Iron, Fe",mg,--,--,0.24,0.28
"Sodium, Na",mg,--,--,860,1024
Vitamins
"Vitamin C, total ascorbic acid",mg,--,--,0.0,0.0
"Vitamin A, IU",IU,--,--,0,0
Lipids
"Fatty acids, total saturated",g,--,--,1.999,2.380
"Fatty acids, total trans",g,--,--,0.000,0.000
"Cholesterol",mg,--,--,40,48
Amino Acids
Other
Ingredients
"CURED WITH: WATER, DEXTROSE, CONTAINS 2% OR LESS OF SALT, POTASSIUM LACTATE, SODIUM PHOSPHATES, SODIUM DIACETATE, SODIUM ERYTHORBATE, SODIUM NITRITE." Date available: 07/14/2017 Date last updated by company: 07/14/2017
