Source: USDA Branded Food Products Database Release December 2017 Software v.3.8.6.4 2017-10-02
Report Run at: December 18, 2017 01:46 EST
"Nutrient data for: 45231354, SMOKED SAUSAGES, UPC: 075094002612"
Food Group:  Branded Food Products Database
Common Name:

Nutrient,Unit,Data points,Std. Error,"5.0 LINKS = 57.0g",1Value per 100 g,
Proximates
"Energy",kcal,--,--,200,351
"Protein",g,--,--,7.00,12.28
"Total lipid (fat)",g,--,--,19.00,33.33
"Carbohydrate, by difference",g,--,--,2.00,3.51
"Sugars, total",g,--,--,0.00,0.00
Minerals
"Calcium, Ca",mg,--,--,40,70
"Iron, Fe",mg,--,--,0.35,0.61
"Sodium, Na",mg,--,--,410,719
Vitamins
"Vitamin C, total ascorbic acid",mg,--,--,0.0,0.0
"Vitamin A, IU",IU,--,--,0,0
Lipids
"Fatty acids, total saturated",g,--,--,6.002,10.530
"Fatty acids, total trans",g,--,--,0.000,0.000
"Cholesterol",mg,--,--,30,53
Amino Acids
Other
Ingredients
"PORK, WATER, CHEDDAR CHEESE ((CULTURED MILK, SALT, ENZYMES), CREAM SODIUM PHOSPHATES, SALT, SORBIC ACID (A PRESERVATIVE), COLORED WITH APO CAROTENAL, POWDERED CELLULOSE (TO PREVENT CAKING), POTASSIUM SORBATE AND NATAMYCIN (PRESERVATIVES)), CONTAINS LESS THAN 2% OF THE FOLLOWING: SALT, POTASSIUM LACTATE, CORN SYRUP, SODIUM PHOSPHATES, NATURAL SPICES, NATURAL FLAVORINGS, SODIUM DIACETATE, SODIUM ERYTHORBATE, SODIUM NITRITE." Date available: 07/14/2017 Date last updated by company: 07/14/2017
