Source: USDA Branded Food Products Database Release December 2017 Software v.3.8.6.4 2017-10-02
Report Run at: December 18, 2017 01:50 EST
"Nutrient data for: 45271464, SMOKED SPRATS IN OIL, UPC: 4751001589945"
Food Group:  Branded Food Products Database
Common Name:

Nutrient,Unit,Data points,Std. Error,"0.25 JAR = 40.0g",1Value per 100 g,
Proximates
"Energy",kcal,--,--,145,362
"Protein",g,--,--,7.00,17.50
"Total lipid (fat)",g,--,--,13.00,32.50
"Carbohydrate, by difference",g,--,--,0.00,0.00
"Fiber, total dietary",g,--,--,0.0,0.0
"Sugars, total",g,--,--,0.00,0.00
Minerals
"Calcium, Ca",mg,--,--,0,0
"Iron, Fe",mg,--,--,0.00,0.00
"Sodium, Na",mg,--,--,185,462
Vitamins
"Vitamin C, total ascorbic acid",mg,--,--,2.5,6.2
"Vitamin A, IU",IU,--,--,0,0
Lipids
"Fatty acids, total saturated",g,--,--,2.000,5.000
"Fatty acids, total trans",g,--,--,0.000,0.000
"Cholesterol",mg,--,--,21,52
Amino Acids
Other
Ingredients
"SMOKED SPRATS, REFINED RAPESEED OIL, SALT." Date available: 07/14/2017 Date last updated by company: 07/14/2017
