Source: USDA Branded Food Products Database Release December 2017 Software v.3.8.6.4 2017-10-02
Report Run at: December 18, 2017 01:45 EST
"Nutrient data for: 45267869, SMOKED SALMON, UPC: 715166302027"
Food Group:  Branded Food Products Database
Common Name:

Nutrient,Unit,Data points,Std. Error,"2.0 ONZ = 57.0g",1Value per 100 g,
Proximates
"Energy",kcal,--,--,70,123
"Protein",g,--,--,14.00,24.56
"Total lipid (fat)",g,--,--,1.50,2.63
"Carbohydrate, by difference",g,--,--,0.00,0.00
"Fiber, total dietary",g,--,--,0.0,0.0
"Sugars, total",g,--,--,0.00,0.00
Minerals
"Calcium, Ca",mg,--,--,0,0
"Iron, Fe",mg,--,--,0.00,0.00
"Sodium, Na",mg,--,--,600,1053
Vitamins
"Vitamin C, total ascorbic acid",mg,--,--,0.0,0.0
"Vitamin A, IU",IU,--,--,0,0
Lipids
"Fatty acids, total saturated",g,--,--,0.502,0.880
"Fatty acids, total trans",g,--,--,0.000,0.000
"Cholesterol",mg,--,--,15,26
Amino Acids
Other
Ingredients
"SOCKEYE SALMON, SALT, NATURAL GREEN TEA EXTRACT, NATURAL CELERY EXTRACT NISIN, AND NATURAL HARDWOOD SMOKE." Date available: 10/10/2017 Date last updated by company: 10/10/2017
