Source: USDA Branded Food Products Database Release December 2017 Software v.3.8.6.4 2017-10-02
Report Run at: December 18, 2017 01:47 EST
"Nutrient data for: 45194607, SMOKED SAUSAGE, UPC: 029599002660"
Food Group:  Branded Food Products Database
Common Name:

Nutrient,Unit,Data points,Std. Error,"2.0 ONZ = 56.0g",1Value per 100 g,
Proximates
"Energy",kcal,--,--,140,250
"Protein",g,--,--,8.00,14.29
"Total lipid (fat)",g,--,--,11.00,19.64
"Carbohydrate, by difference",g,--,--,1.00,1.79
"Fiber, total dietary",g,--,--,0.0,0.0
"Sugars, total",g,--,--,1.00,1.79
Minerals
"Calcium, Ca",mg,--,--,0,0
"Iron, Fe",mg,--,--,0.71,1.26
"Sodium, Na",mg,--,--,480,857
Vitamins
"Vitamin C, total ascorbic acid",mg,--,--,0.0,0.0
"Vitamin A, IU",IU,--,--,0,0
Lipids
"Fatty acids, total saturated",g,--,--,4.502,8.040
"Fatty acids, total trans",g,--,--,0.000,0.000
"Cholesterol",mg,--,--,30,54
Amino Acids
Other
Ingredients
"BEEF, BEEF BROTH (WATER, BEEF STOCK), WATER, & 2% OR LESS OF SALT, CORN SYRUP SOLIDS, DEXTROSE, SODIUM PHOSPHATE, FLAVORINGS & COLORING, SUGAR, SODIUM ERYTHORBATE, AUTOLYZED YEAST EXTRACT, SODIUM NITRITE." Date available: 07/14/2017 Date last updated by company: 07/14/2017
