Source: USDA Branded Food Products Database Release December 2017 Software v.3.8.6.4 2017-10-02
Report Run at: December 18, 2017 01:47 EST
"Nutrient data for: 45200875, SMOKED SAUSAGE, UPC: 733784124043"
Food Group:  Branded Food Products Database
Common Name:

Nutrient,Unit,Data points,Std. Error,"0.5 LINK = 37.0g",1Value per 100 g,
Proximates
"Energy",kcal,--,--,110,297
"Protein",g,--,--,6.00,16.22
"Total lipid (fat)",g,--,--,9.00,24.32
"Carbohydrate, by difference",g,--,--,0.00,0.00
Minerals
"Sodium, Na",mg,--,--,200,541
Vitamins
Lipids
"Fatty acids, total saturated",g,--,--,3.001,8.110
"Cholesterol",mg,--,--,25,68
Amino Acids
Other
Ingredients
"PORK, WATER, SALT, SPICES, PAPRIKA, SODIUM ERYTHORBATE, DEXTROSE, SUCROSE, SODIUM CITRITE, SODIUM NITRITE." Date available: 10/19/2017 Date last updated by company: 10/19/2017
