Source: USDA Branded Food Products Database Release December 2017 Software v.3.8.6.4 2017-10-02
Report Run at: December 18, 2017 01:51 EST
"Nutrient data for: 45105102, SMOKED TROUT FILLET IN MAINE, UPC: 082674039050"
Food Group:  Branded Food Products Database
Common Name:

Nutrient,Unit,Data points,Std. Error,"2.0 ONZ = 57.0g",1Value per 100 g,
Proximates
"Energy",kcal,--,--,80,140
"Protein",g,--,--,12.00,21.05
"Total lipid (fat)",g,--,--,3.00,5.26
"Carbohydrate, by difference",g,--,--,0.00,0.00
"Fiber, total dietary",g,--,--,0.0,0.0
"Sugars, total",g,--,--,0.00,0.00
Minerals
"Calcium, Ca",mg,--,--,40,70
"Iron, Fe",mg,--,--,0.00,0.00
"Sodium, Na",mg,--,--,570,1000
Vitamins
"Vitamin C, total ascorbic acid",mg,--,--,1.1,2.0
"Vitamin A, IU",IU,--,--,193,339
Lipids
"Fatty acids, total saturated",g,--,--,0.998,1.750
"Fatty acids, total trans",g,--,--,0.000,0.000
"Cholesterol",mg,--,--,35,61
Amino Acids
Other
Ingredients
"TROUT, SALT, EVAPORATED CANE JUICE, FRUITWOOD & HARDWOOD SMOKE." Date available: 10/11/2017 Date last updated by company: 10/11/2017
