Source: USDA Branded Food Products Database Release December 2017 Software v.3.8.6.4 2017-10-02
Report Run at: December 18, 2017 01:48 EST
"Nutrient data for: 45236192, SMOKED SAUSAGE, UPC: 073183015819"
Food Group:  Branded Food Products Database
Common Name:

Nutrient,Unit,Data points,Std. Error,"1 CONTAINER = 56.0g",1Value per 100 g,
Proximates
"Energy",kcal,--,--,130,232
"Protein",g,--,--,8.00,14.29
"Total lipid (fat)",g,--,--,9.00,16.07
"Carbohydrate, by difference",g,--,--,3.00,5.36
"Fiber, total dietary",g,--,--,1.0,1.8
"Sugars, total",g,--,--,1.00,1.79
Minerals
"Calcium, Ca",mg,--,--,20,36
"Iron, Fe",mg,--,--,1.06,1.89
"Sodium, Na",mg,--,--,480,857
Vitamins
"Vitamin C, total ascorbic acid",mg,--,--,2.4,4.2
"Vitamin A, IU",IU,--,--,491,877
Lipids
"Fatty acids, total saturated",g,--,--,2.498,4.460
"Fatty acids, total trans",g,--,--,0.000,0.000
"Cholesterol",mg,--,--,35,62
Amino Acids
Other
Ingredients
"INGREDIENTS: MECHANICALLY SEPARATED CHICKEN WITH SKIN, BEEF HEARTS, PORK, WATER, MODIFIED CORN STARCH, CONTAINS 2% OR LESS SPICES, FLAVORINGS, CAYENNE PEPPER, CRUSHED CHILI, CHILI POWDER, PAPRIKA, EXTRACTIVES OF PAPRIKA, BEEF, DEXTROSE, SALT, WHEY PROTEIN CONCENTRATE, SOY PROTEIN CONCENTRATE, SODIUM NITRITE, SHEEP CASING, HYDROLYZED SOY PROTEIN, SODIUM ERYTHOORBATE, SOY SAUCE (WHEAT, SOYBEANS, MALTODEXTRIN), CORN SYRUP, CORN SYRUP SOLIDS, POTASSIUM CHLORIDE, BEEF FIBRIN, SODIUM PHOSPHATE, POTASSIUM LACTATE, SODIUM DIACETATE." Date available: 06/25/2017 Date last updated by company: 06/25/2017
