Source: USDA Branded Food Products Database Release December 2017 Software v.3.8.6.4 2017-10-02
Report Run at: December 18, 2017 01:59 EST
"Nutrient data for: 45145054, SMOOTH MILK CHOCOLATE WITH A CREAMY, CINNAMON RICE MILK CENTER, UPC: 691355896662"
Food Group:  Branded Food Products Database
Common Name:

Nutrient,Unit,Data points,Std. Error,"1 BAR = 64.0g",1Value per 100 g,
Proximates
"Energy",kcal,--,--,330,516
"Protein",g,--,--,4.00,6.25
"Total lipid (fat)",g,--,--,19.00,29.69
"Carbohydrate, by difference",g,--,--,35.00,54.69
"Fiber, total dietary",g,--,--,1.0,1.6
"Sugars, total",g,--,--,34.00,53.12
Minerals
"Calcium, Ca",mg,--,--,100,156
"Iron, Fe",mg,--,--,0.00,0.00
"Sodium, Na",mg,--,--,45,70
Vitamins
"Vitamin C, total ascorbic acid",mg,--,--,0.0,0.0
"Vitamin A, IU",IU,--,--,0,0
Lipids
"Fatty acids, total saturated",g,--,--,12.000,18.750
"Fatty acids, total trans",g,--,--,0.000,0.000
"Cholesterol",mg,--,--,15,23
Amino Acids
Other
Ingredients
"MILK CHOCOLATE (SUGAR, COCOA BUTTER, COCOA MASS, WHOLE MILK POWDER, SOY LECITHIN [EMULSIFIER], AND NATURAL VANILLA EXTRACT), WHITE CHOCOLATE (SUGAR, COCOA BUTTER, DRY WHOLE MILK, SOY LECITHIN [EMULSIFIER], NATURAL VANILLA FLAVOR), FILLING (EVAPORATED MILK [MILK, DIPOTASSIUM PHOSPHATE, CARRAGEENAN, VITAMIN D3], BUTTER FAT [ANHYDROUS BUTTER OIL (MADE OF MILKFAT)], CORN SYRUP, INVERT SUGAR, SORBITOL, NATURAL GLYCERIN, PURE VANILLA PASTE [SUGAR, MADAGASCAR BOURBON, VANILLA EXTRACT, VANILLA BEAN SPECKS AND GUM TRAGACANTH (VEGETABLE BASED THICKENER)], VANILLA BEAN POWDER, POTASSIUM SORBATE AND SORBIC ACID [PRESERVATIVE], AND CINNAMON BARK OIL)." Date available: 07/14/2017 Date last updated by company: 07/14/2017
