Source: USDA Branded Food Products Database Release December 2017 Software v.3.8.6.4 2017-10-02
Report Run at: December 18, 2017 01:59 EST
"Nutrient data for: 45202741, SMOOTH RED GRAVY AUTHENTIC ITALIAN PASTA SAUCE, UPC: 851819001050"
Food Group:  Branded Food Products Database
Common Name:

Nutrient,Unit,Data points,Std. Error,"0.5 cup = 120.0g",1Value per 100 g,
Proximates
"Energy",kcal,--,--,70,58
"Protein",g,--,--,2.00,1.67
"Total lipid (fat)",g,--,--,4.50,3.75
"Carbohydrate, by difference",g,--,--,8.00,6.67
"Fiber, total dietary",g,--,--,2.0,1.7
"Sugars, total",g,--,--,4.00,3.33
Minerals
"Calcium, Ca",mg,--,--,40,33
"Iron, Fe",mg,--,--,1.14,0.95
"Sodium, Na",mg,--,--,270,225
Vitamins
"Vitamin C, total ascorbic acid",mg,--,--,12.7,10.6
"Vitamin A, IU",IU,--,--,792,660
Lipids
"Fatty acids, total saturated",g,--,--,0.000,0.000
"Fatty acids, total trans",g,--,--,0.000,0.000
"Cholesterol",mg,--,--,0,0
Amino Acids
Other
Ingredients
"WATER, TOMATOES (CITRIC ACID), GARLIC, EXTRA VIRGIN OLIVE OIL, CANOLA OIL, SEA SALT, SPICES, DRIED CANE SYRUP, DRIED PARSLEY." Date available: 07/14/2017 Date last updated by company: 07/14/2017
