Source: USDA Branded Food Products Database Release December 2017 Software v.3.8.6.4 2017-10-02
Report Run at: December 18, 2017 02:00 EST
"Nutrient data for: 45320127, SMORES! FROSTED COOKIES, UPC: 708971922399"
Food Group:  Branded Food Products Database
Common Name:

Nutrient,Unit,Data points,Std. Error,"1 COOKIE = 38.0g",1Value per 100 g,
Proximates
"Energy",kcal,--,--,170,447
"Protein",g,--,--,1.00,2.63
"Total lipid (fat)",g,--,--,8.00,21.05
"Carbohydrate, by difference",g,--,--,25.00,65.79
"Fiber, total dietary",g,--,--,1.0,2.6
"Sugars, total",g,--,--,17.00,44.74
Minerals
"Calcium, Ca",mg,--,--,0,0
"Iron, Fe",mg,--,--,0.95,2.49
"Sodium, Na",mg,--,--,160,421
Vitamins
"Vitamin C, total ascorbic acid",mg,--,--,0.0,0.0
"Vitamin A, IU",IU,--,--,394,1038
Lipids
"Fatty acids, total saturated",g,--,--,3.500,9.210
"Fatty acids, total trans",g,--,--,0.000,0.000
"Cholesterol",mg,--,--,5,13
Amino Acids
Other
Ingredients
"SUGAR, ENRICHED BLEACHED WHEAT FLOUR (FLOUR, NIACIN, REDUCED IRON, THIAMINE MONONITRATE, RIBOFLAVIN, FOLIC ACID), MARGARINE (PALM OIL, WATER, SOYBEAN OIL, SALT, CONTAINS 2% OR LESS OF: MONO- & DIGLYCERIDES, CALCIUM DISODIUM EDTA [PRESERVATIVE], ARTIFICIAL FLAVOR, ANNATTO [COLOR], VITAMIN A PALMITATE), SEMI-SWEET CHOCOLATE CHIPS (SUGAR, CHOCOLATE LIQUOR, COCOA BUTTER, ANHYDROUS DEXTROSE, SOY LECITHIN [EMULSIFIER], VANILLA EXTRACT), BROWN SUGAR (SUGAR, INVERT SUGAR, CANE MOLASSES), EGGS, GRAHAM BITS (WHEAT FLOUR, SUGAR, WHOLE WHEAT FLOUR, PARTIALLY HYDROGENATED SOYBEAN AND COTTONSEED OIL, HONEY POWDER [MALTODEXTRIN, HONEY], BAKING SODA, SALT, ANNATTO COLOR, CARAMEL COLOR), CONTAINS 2% OR LESS OF: WATER, CORN STARCH, FOOD STARCH-MODIFIED, WHOLE WHEAT FLOUR, NATURAL & ARTIFICIAL FLAVORS, VEGETABLE OIL (PALM KERNEL OIL AND/OR PALM OIL AND/OR PARTIALLY HYDROGENATED VEGETABLE OIL [COTTONSEED AND/OR SOYBEAN OIL]), LEAVENING (BAKING SODA, SODIUM ACID PYROPHOSPHATE, MONOCALCIUM PHOSPHATE, CALCIUM SULFATE), COCOA (PROCESSED WITH ALKALI), INVERT SUGAR, MOLASSES, CARAMEL (COLOR), SALT, POLYSORBATE 60, WHEY, CONFECTIONER'S GLAZE (LAC RESIN), SOY LECITHIN (EMULSIFIER), CARNAUBA WAX." Date available: 09/26/2017 Date last updated by company: 09/26/2017
