Source: USDA Branded Food Products Database Release December 2017 Software v.3.8.6.4 2017-10-02
Report Run at: December 18, 2017 02:01 EST
"Nutrient data for: 45204639, SNACK BAR, UPC: 862074000030"
Food Group:  Branded Food Products Database
Common Name:

Nutrient,Unit,Data points,Std. Error,"1 BAR = 39.0g",1Value per 100 g,
Proximates
"Energy",kcal,--,--,190,487
"Protein",g,--,--,4.00,10.26
"Total lipid (fat)",g,--,--,8.00,20.51
"Carbohydrate, by difference",g,--,--,26.00,66.67
"Fiber, total dietary",g,--,--,2.0,5.1
"Sugars, total",g,--,--,13.00,33.33
Minerals
"Calcium, Ca",mg,--,--,30,77
"Iron, Fe",mg,--,--,0.92,2.37
"Sodium, Na",mg,--,--,10,26
Vitamins
Lipids
"Fatty acids, total saturated",g,--,--,0.998,2.560
"Fatty acids, total trans",g,--,--,0.000,0.000
"Cholesterol",mg,--,--,0,0
Amino Acids
Other
Ingredients
"ALMOND BUTTER, ORGANIC BROWN RICE SYRUP, TURBINADO SUGAR, DRIED CRANBERRIES (CRANBERRIES, APPLE JUICE CONCENTRATE, SUNFLOWER OIL), ORGANIC QUINOA CRISPS, GLUTEN-FREE OATS, ALMONDS, FLAX MEAL, CHIA SEEDS." Date available: 10/19/2017 Date last updated by company: 10/19/2017
