Source: USDA Branded Food Products Database Release December 2017 Software v.3.8.6.4 2017-10-02
Report Run at: December 18, 2017 02:03 EST
"Nutrient data for: 45049225, SNACK CRACKERS, UPC: 072320117812"
Food Group:  Branded Food Products Database
Common Name:

Nutrient,Unit,Data points,Std. Error,"32.0 CRACKERS, PER CONTAINER ABOUT = 30.0g",1Value per 100 g,
Proximates
"Energy",kcal,--,--,140,467
"Protein",g,--,--,3.00,10.00
"Total lipid (fat)",g,--,--,5.00,16.67
"Carbohydrate, by difference",g,--,--,20.00,66.67
"Fiber, total dietary",g,--,--,1.0,3.3
"Sugars, total",g,--,--,1.00,3.33
Minerals
"Calcium, Ca",mg,--,--,0,0
"Iron, Fe",mg,--,--,1.80,6.00
"Sodium, Na",mg,--,--,200,667
Vitamins
"Vitamin C, total ascorbic acid",mg,--,--,0.0,0.0
"Thiamin",mg,--,--,0.300,1.000
"Riboflavin",mg,--,--,0.136,0.453
"Niacin",mg,--,--,2.666,8.887
"Vitamin A, IU",IU,--,--,334,1112
Lipids
"Fatty acids, total saturated",g,--,--,0.999,3.330
"Fatty acids, total trans",g,--,--,0.000,0.000
"Cholesterol",mg,--,--,0,0
Amino Acids
Other
Ingredients
"ENRICHED FLOUR (WHEAT FLOUR, MALTED BARLEY FLOUR, NIACIN, REDUCED IRON, THIAMINE MONONITRATE [ VITAMIN B1], RIBOFLAVIN [ VITAMIN B2], FOLIC ACID), VEGETABLE OILS (SUNFLOWER, CANOLA AND/OR SOYBEAN), CHEDDAR CHEESE BLEND (CHEDDAR CHEESE [ PASTEURIZED MILK, CHEESE CULTURES, SALT, ENZYMES, CALCIUM CHLORIDE], MALTODEXTRIN, SALT, WHEY, CORN SYRUP SOLIDS, DISODIUM PHOSPHATE, SOUR CREAM POWDER [ CREAM, CULTURES, LACTIC ACID, CULTURED NONFAT DRY MILK, CITRIC ACID], NATURAL FLAVORS, YEAST EXTRACT, SOYBEAN OIL, LACTIC ACID, CITRIC ACID), YEAST EXTRACT, NATURAL COLOR (ANNATTO AND OLEORESIN PAPRIKA), SUGAR, SALT, CITRIC ACID, BAKING SODA (LEAVENING), PAPRIKA, TURMERIC, GARLIC POWDER, ONION POWDER, SPICE, TRICALCIUM PHOSPHATE, SODIUM METABISULFITE (DOUGH CONDITIONER)." Date available: 06/25/2017 Date last updated by company: 06/25/2017
