Source: USDA Branded Food Products Database Release December 2017 Software v.3.8.6.4 2017-10-02
Report Run at: December 18, 2017 02:13 EST
"Nutrient data for: 45210867, SNACKS, UPC: 070784474113"
Food Group:  Branded Food Products Database
Common Name:

Nutrient,Unit,Data points,Std. Error,"1 POUCH = 23.0g",1Value per 100 g,
Proximates
"Energy",kcal,--,--,90,391
"Protein",g,--,--,0.00,0.00
"Total lipid (fat)",g,--,--,0.50,2.17
"Carbohydrate, by difference",g,--,--,20.00,86.96
"Fiber, total dietary",g,--,--,0.0,0.0
"Sugars, total",g,--,--,9.00,39.13
Minerals
"Sodium, Na",mg,--,--,10,43
Vitamins
"Vitamin C, total ascorbic acid",mg,--,--,104.4,453.7
Lipids
"Fatty acids, total saturated",g,--,--,0.000,0.000
"Fatty acids, total monounsaturated",g,--,--,0.000,0.000
"Fatty acids, total polyunsaturated",g,--,--,0.000,0.000
"Fatty acids, total trans",g,--,--,0.000,0.000
"Cholesterol",mg,--,--,0,0
Amino Acids
Other
Ingredients
"CORN SYRUP, SUGAR, FRUIT JUICE CONCENTRATE (APPLE, GRAPE, STRAWBERRY, CHERRY), MODIFIED CORN STARCH, CORN STARCH, PARTIALLY HYDROGENATED VEGETABLE OIL (SOYBEAN AND COTTONSEED), CONTAINS LESS THAN 2% OF THE FOLLOWING: MALIC ACID, ASCORBIC ACID (VITAMIN C), NATURAL AND ARTIFICIAL FLAVORS, WHITE MINERAL OIL, BLUE 1, RED 40, CARNAUBA WAX." Date available: 07/14/2017 Date last updated by company: 07/14/2017
