Source: USDA Branded Food Products Database Release December 2017 Software v.3.8.6.4 2017-10-02
Report Run at: December 18, 2017 02:08 EST
"Nutrient data for: 45130594, SNACK PACK Naturals Pudding Chocolate Vanilla Swirl, UNPREPARED, GTIN: 00027000050187"
Food Group:  Branded Food Products Database
Common Name:

Nutrient,Unit,Data points,Std. Error,"1 Pudding Cup (107g) = 107.0g",1Value per 100 g,
Proximates
"Energy",kcal,--,--,129,121
"Protein",g,--,--,2.00,1.87
"Total lipid (fat)",g,--,--,2.50,2.34
"Carbohydrate, by difference",g,--,--,23.00,21.50
"Fiber, total dietary",g,--,--,1.0,0.9
"Sugars, total",g,--,--,18.00,16.82
Minerals
"Calcium, Ca",mg,--,--,40,37
"Iron, Fe",mg,--,--,0.72,0.67
"Potassium, K",mg,--,--,100,93
"Sodium, Na",mg,--,--,114,107
Vitamins
"Vitamin C, total ascorbic acid",mg,--,--,0.0,0.0
"Vitamin A, IU",IU,--,--,0,0
Lipids
"Fatty acids, total saturated",g,--,--,1.498,1.400
"Fatty acids, total monounsaturated",g,--,--,0.995,0.930
"Fatty acids, total polyunsaturated",g,--,--,0.000,0.000
"Fatty acids, total trans",g,--,--,0.000,0.000
"Cholesterol",mg,--,--,5,5
Amino Acids
Other
Ingredients
"Nonfat Milk, Water, Sugar, Corn Starch, Palm Oil, Less than 2% of: Cocoa Powder, Whey Protein Powder, Carob Bean Gum, Salt, Vanilla Extract. CONTAINS: MILK" Date available: 10/12/2017 Date last updated by company: 10/11/2017
