Source: USDA Branded Food Products Database Release December 2017 Software v.3.8.6.4 2017-10-02
Report Run at: December 18, 2017 02:05 EST
"Nutrient data for: 45248821, SNACK FARM, SOUR BELTS APPLE-STRAWBERRY, UPC: 012524005232"
Food Group:  Branded Food Products Database
Common Name:

Nutrient,Unit,Data points,Std. Error,"4.0 PIECES = 40.0g",1Value per 100 g,
Proximates
"Energy",kcal,--,--,153,382
"Protein",g,--,--,1.00,2.50
"Total lipid (fat)",g,--,--,1.00,2.50
"Carbohydrate, by difference",g,--,--,36.00,90.00
"Fiber, total dietary",g,--,--,3.0,7.5
"Sugars, total",g,--,--,26.00,65.00
Minerals
"Sodium, Na",mg,--,--,1,2
Vitamins
Lipids
"Fatty acids, total saturated",g,--,--,0.500,1.250
"Cholesterol",mg,--,--,0,0
Amino Acids
Other
Ingredients
"SUGAR, GLUCOSE-FRUCTOSE SYRUP, WHEAT FLOUR, MALIC ACID, PALM OIL, CITRIC ACID, ARTIFICIAL FLAVORS, ANTIOXIDANT (ASCORBIC ACID, D-TOCAPHAROL), ARTIFICIAL COLORS FD&C RED 40, FD&C GREEN 3." Date available: 07/14/2017 Date last updated by company: 07/14/2017
