Source: USDA Branded Food Products Database Release December 2017 Software v.3.8.6.4 2017-10-02
Report Run at: December 18, 2017 02:08 EST
"Nutrient data for: 45322533, SNACK MIX, UPC: 708820058958"
Food Group:  Branded Food Products Database
Common Name:

Nutrient,Unit,Data points,Std. Error,"0.25 CUP) | (ABOUT = 28.0g",1Value per 100 g,
Proximates
"Energy",kcal,--,--,140,500
"Protein",g,--,--,5.00,17.86
"Total lipid (fat)",g,--,--,9.00,32.14
"Carbohydrate, by difference",g,--,--,11.00,39.29
"Fiber, total dietary",g,--,--,2.0,7.1
"Sugars, total",g,--,--,2.00,7.14
Minerals
"Calcium, Ca",mg,--,--,36,128
"Iron, Fe",mg,--,--,2.57,9.19
"Sodium, Na",mg,--,--,260,929
Vitamins
"Vitamin C, total ascorbic acid",mg,--,--,0.0,0.0
"Vitamin A, IU",IU,--,--,0,0
Lipids
"Fatty acids, total saturated",g,--,--,1.501,5.360
"Fatty acids, total trans",g,--,--,0.000,0.000
"Cholesterol",mg,--,--,0,0
Amino Acids
Other
Ingredients
"PEANUTS, SESAME STICKS (UNBLEACHED WHEAT FLOUR [CONTAINS MALTED BARLEY FLOUR AS A NATURAL ENZYME ADDITIVE], SOYBEAN OIL, SESAME SEED, BULGAR WHEAT, SALT, BEET POWDER [COLOR], TURMERIC [COLOR]), WASABI PEAS (GREEN PEAS, RICE FLOUR, PALM OIL, SUGAR, SALT, WASABI POWDER, SEASONING), CASHEWS, ALMONDS, PEPITAS, WASABI SOYBEANS (RICE CRACKER POWDER, SOYBEANS, FLOUR, PALM OIL, WASABI [MUSTARD POWDER], SUGAR, SALT, ARTIFICIAL COLORING FD&C RED #3), CHILI BITS (RICE, SOY SAUCE, WATER, SOYBEAN WHEAT, SEA SALT, CHILI, SESAME SEED, SEAWEED, CHILI, ARTIFICIAL COLORING FD&C YELLOW #5, YELLOW #6), SEASONING (SUGAR, MODIFIED FOOD STARCH, SALT, SOY SAUCE POWDER [SOYBEANS, WHEAT, SALT], ONION POWDER, NATURAL FLAVORS, SPICE, GARLIC POWDER, MALTODEXTRIN, YEAST EXTRACT, CITRIC ACID, DISODIUM INOSINATE & DISODIUM GUANYLATE, LESS THAN 2% TRICALCIUM PHOSPHATE ADDED TO PREVENT CAKING), PEANUT OIL." Date available: 09/07/2017 Date last updated by company: 09/07/2017
