Source: USDA Branded Food Products Database Release December 2017 Software v.3.8.6.4 2017-10-02
Report Run at: December 18, 2017 02:04 EST
"Nutrient data for: 45292991, SNACK CRACKERS, UPC: 042187165035"
Food Group:  Branded Food Products Database
Common Name:

Nutrient,Unit,Data points,Std. Error,"5.0 CRACKERS = 16.0g",1Value per 100 g,
Proximates
"Energy",kcal,--,--,80,500
"Protein",g,--,--,1.00,6.25
"Total lipid (fat)",g,--,--,4.00,25.00
"Carbohydrate, by difference",g,--,--,10.00,62.50
"Fiber, total dietary",g,--,--,0.0,0.0
"Sugars, total",g,--,--,1.00,6.25
Minerals
"Iron, Fe",mg,--,--,1.12,7.03
"Potassium, K",mg,--,--,10,62
"Sodium, Na",mg,--,--,105,656
Vitamins
Lipids
"Fatty acids, total saturated",g,--,--,1.000,6.250
"Fatty acids, total monounsaturated",g,--,--,1.000,6.250
"Fatty acids, total polyunsaturated",g,--,--,2.000,12.500
"Fatty acids, total trans",g,--,--,0.000,0.000
"Cholesterol",mg,--,--,0,0
Amino Acids
Other
Ingredients
"ENRICHED FLOUR (WHEAT FLOUR, NIACIN, IRON, THIAMIN MONONITRATE, RIBOFLAVIN, FOLIC ACID), VEGETABLE OIL (CANOLA AND/OR SOYBEAN AND/OR PALM OIL WITH TBHQ AND CITRIC ACID ADDED FOR FRESHNESS), SUGAR, CONTAINS 2% OR LESS OF: SALT, LEAVENING (BAKING SODA AND/OR CALCIUM PHOSPHATE), HIGH FRUCTOSE CORN SYRUP, NATURAL FLAVOR, SODIUM SULFITE, SOY LECITHIN." Date available: 09/25/2017 Date last updated by company: 09/25/2017
