Source: USDA Branded Food Products Database Release December 2017 Software v.3.8.6.4 2017-10-02
Report Run at: December 18, 2017 02:08 EST
"Nutrient data for: 45331812, SNACK MIX, UPC: 078742237145"
Food Group:  Branded Food Products Database
Common Name:

Nutrient,Unit,Data points,Std. Error,"0.5 cup = 29.0g",1Value per 100 g,
Proximates
"Energy",kcal,--,--,130,448
"Protein",g,--,--,2.00,6.90
"Total lipid (fat)",g,--,--,4.00,13.79
"Carbohydrate, by difference",g,--,--,21.00,72.41
"Fiber, total dietary",g,--,--,1.0,3.4
"Sugars, total",g,--,--,2.00,6.90
Minerals
"Calcium, Ca",mg,--,--,20,69
"Iron, Fe",mg,--,--,4.65,16.05
"Potassium, K",mg,--,--,30,103
"Sodium, Na",mg,--,--,210,724
Vitamins
"Vitamin C, total ascorbic acid",mg,--,--,0.0,0.0
"Vitamin A, IU",IU,--,--,173,595
Lipids
"Fatty acids, total saturated",g,--,--,0.000,0.000
"Fatty acids, total monounsaturated",g,--,--,2.500,8.620
"Fatty acids, total polyunsaturated",g,--,--,1.001,3.450
"Fatty acids, total trans",g,--,--,0.000,0.000
"Cholesterol",mg,--,--,0,0
Amino Acids
Other
Ingredients
"ENRICHED WHEAT FLOUR (WHEAT FLOUR, NIACINAMIDE, REDUCED IRON, THIAMINE MONONITRATE, RIBOFLAVIN, FOLIC ACID), WHOLE WHEAT, DEGERMED YELLOW CORN MEAL, VEGETABLE OIL (CONTAINS ONE OR MORE OF THE FOLLOWING OILS: CANOLA, SUNFLOWER), SUGAR, CONTAINS 2% OR LESS OF: SALT, RYE FLOUR, MALTODEXTRIN, NATURAL FLAVOR (CONTAINS MILK), YEAST, HYDROLYZED CORN PROTEIN, MOLASSES, SODIUM BICARBONATE, GARLIC, ONION POWDER, CORN FLOUR, CARAMEL COLOR, MALTED BARLEY SYRUP, CALCIUM CARBONATE, SPICES, DEXTROSE, YEAST EXTRACT, TRISODIUM PHOSPHATE, DISODIUM INOSINATE AND DISODIUM GUANYLATE, SODIUM ASCORBATE, CITRIC ACID, BHT (A PRESERVATIVE), REDUCED IRON, CARAWAY SEED, FUMARIC ACID, SODIUM DIACETATE, VITAMIN A PALMITATE, ZINC OXIDE, NIACINAMIDE, VITAMIN D, FOLIC ACID, PYRIDOXINE HYDROCHLORIDE, RIBOFLAVIN, THIAMINE MONONITRATE, VITAMIN B12." Date available: 10/13/2017 Date last updated by company: 10/13/2017
