Source: USDA Branded Food Products Database Release December 2017 Software v.3.8.6.4 2017-10-02
Report Run at: December 18, 2017 02:07 EST
"Nutrient data for: 45265408, SNACK MIX, UPC: 038718720873"
Food Group:  Branded Food Products Database
Common Name:

Nutrient,Unit,Data points,Std. Error,"0.25 cup = 30.0g",1Value per 100 g,
Proximates
"Energy",kcal,--,--,150,500
"Protein",g,--,--,4.00,13.33
"Total lipid (fat)",g,--,--,10.00,33.33
"Carbohydrate, by difference",g,--,--,12.00,40.00
"Fiber, total dietary",g,--,--,2.0,6.7
"Sugars, total",g,--,--,5.00,16.67
Minerals
"Calcium, Ca",mg,--,--,20,67
"Iron, Fe",mg,--,--,1.20,4.00
"Sodium, Na",mg,--,--,115,383
Vitamins
"Vitamin C, total ascorbic acid",mg,--,--,0.0,0.0
"Vitamin A, IU",IU,--,--,0,0
Lipids
"Fatty acids, total saturated",g,--,--,1.500,5.000
"Fatty acids, total trans",g,--,--,0.000,0.000
"Cholesterol",mg,--,--,0,0
Amino Acids
Other
Ingredients
"SRIRACHA FLAVORED ALMONDS (ALMONDS, SEASONING [MALTODEXTRIN, SUGAR, CAYENNE PEPPER SAUCE {AGED RED PEPPERS, VINEGAR, SALT, GARLIC}, SALT, RED PEPPERS, DEHYDRATED GARLIC, XANTHAN GUM, VINEGAR, NATURAL FLAVOR, SOYBEAN OIL], PEANUT OIL), BUTTER TOFFEE PEANUTS (SUGAR, PEANUTS, BUTTER [CREAM, SALT], SALT), CASHEWS (CASHEWS, PEANUT OIL, SALT), CHILI LEMON ROASTED CORN (CORN, CANOLA OIL, SALT, SPICES, MALTODEXTRIN, DEXTROSE, CITRIC ACID, ARTIFICIAL COLORS [RED 40, YELLOW 6 LAKE, YELLOW 5 LAKE], DEHYDRATED GARLIC, EXTRACTIVES OF PAPRIKA, DISODIUM INOSINATE AND DISODIUM GUANYLATE, XANTHAN GUM, LEMON OIL, SPICE EXTRACTIVES), CHILI CRACKERS (GLUTINOUS RICE, SOY SAUCE [WATER, SOYBEANS, WHEAT, SALT], SUGAR, MODIFIED TAPIOCA STARCH, CHILI POWDER, YELLOW 6, YELLOW 5)." Date available: 07/14/2017 Date last updated by company: 07/14/2017
