Source: USDA Branded Food Products Database Release December 2017 Software v.3.8.6.4 2017-10-02
Report Run at: December 18, 2017 02:10 EST
"Nutrient data for: 45199947, SNACKS BARS, UPC: 638102646422"
Food Group:  Branded Food Products Database
Common Name:

Nutrient,Unit,Data points,Std. Error,"1 BAR = 45.0g",1Value per 100 g,
Proximates
"Energy",kcal,--,--,200,444
"Protein",g,--,--,7.00,15.56
"Total lipid (fat)",g,--,--,12.00,26.67
"Carbohydrate, by difference",g,--,--,19.00,42.22
"Fiber, total dietary",g,--,--,3.0,6.7
"Sugars, total",g,--,--,10.00,22.22
Minerals
"Potassium, K",mg,--,--,200,444
"Sodium, Na",mg,--,--,230,511
Vitamins
Lipids
"Fatty acids, total saturated",g,--,--,3.001,6.670
"Fatty acids, total trans",g,--,--,0.000,0.000
"Cholesterol",mg,--,--,0,0
Amino Acids
Other
Ingredients
"MARCONA ALMONDS, BROWN RICE SYRUP, CRISP SORGHUM, ORGANIC BLUE AGAVE NECTAR SYRUP, SUGAR, HEMP SEEDS, CHOCOLATE LIQUOR, TAPIOCA SYRUP, ALMOND BUTTER, PEA PROTEIN, COCOA BUTTER, QUINOA, COCOA NIBS, EXPELLER PRESSED GRAPESEED OIL; LESS THAN 2% OF THE FOLLOWING: CHICORY ROOT FIBER, COCONUT OIL, CALIFORNIA SEA SALT, WATER, COCOA EXTRACT, VANILLA EXTRACT, SALT, SOY LECITHIN, NATURAL FLAVOR, PECTIN, TAPIOCA STARCH." Date available: 10/19/2017 Date last updated by company: 10/19/2017
