Source: USDA Branded Food Products Database Release December 2017 Software v.3.8.6.4 2017-10-02
Report Run at: December 18, 2017 02:14 EST
"Nutrient data for: 45317452, SNACKWELL'S, MINI VANILLA CREME SANDWICH COOKIE, UPC: 819898019311"
Food Group:  Branded Food Products Database
Common Name:

Nutrient,Unit,Data points,Std. Error,"1 PACK = 35.0g",1Value per 100 g,
Proximates
"Energy",kcal,--,--,160,457
"Protein",g,--,--,1.00,2.86
"Total lipid (fat)",g,--,--,7.00,20.00
"Carbohydrate, by difference",g,--,--,24.00,68.57
"Fiber, total dietary",g,--,--,0.0,0.0
"Sugars, total",g,--,--,14.00,40.00
Minerals
"Calcium, Ca",mg,--,--,0,0
"Iron, Fe",mg,--,--,1.03,2.94
"Sodium, Na",mg,--,--,65,186
Vitamins
"Vitamin C, total ascorbic acid",mg,--,--,0.0,0.0
"Vitamin A, IU",IU,--,--,0,0
Lipids
"Fatty acids, total saturated",g,--,--,1.502,4.290
"Fatty acids, total trans",g,--,--,0.000,0.000
"Cholesterol",mg,--,--,0,0
Amino Acids
Other
Ingredients
"WHEAT FLOUR, SUGAR, CANOLA, PALM AND/OR PALM KERNEL OIL, WATER, CONTAINS 2% OR LESS OF THE FOLLOWING: CORN STARCH, SOY LECITHIN, SALT VANILLA EXTRACT, LEAVENING (SODIUM BICARBONATE, AMMONIUM BICARBONATE, MONOCALCIUM PHOSPHATE)." Date available: 06/24/2017 Date last updated by company: 06/24/2017
