Source: USDA Branded Food Products Database Release December 2017 Software v.3.8.6.4 2017-10-02
Report Run at: December 18, 2017 02:02 EST
"Nutrient data for: 45211761, SNACK BAR, UPC: 8594071650537"
Food Group:  Branded Food Products Database
Common Name:

Nutrient,Unit,Data points,Std. Error,"40.0 GRM = 40.0g",1Value per 100 g,
Proximates
"Energy",kcal,--,--,189,472
"Protein",g,--,--,2.00,5.00
"Total lipid (fat)",g,--,--,11.00,27.50
"Carbohydrate, by difference",g,--,--,20.00,50.00
"Fiber, total dietary",g,--,--,1.0,2.5
"Sugars, total",g,--,--,16.00,40.00
Minerals
"Calcium, Ca",mg,--,--,40,100
"Iron, Fe",mg,--,--,1.98,4.95
"Sodium, Na",mg,--,--,91,228
Vitamins
"Vitamin C, total ascorbic acid",mg,--,--,0.0,0.0
"Vitamin A, IU",IU,--,--,206,515
Lipids
"Fatty acids, total saturated",g,--,--,7.000,17.500
"Fatty acids, total trans",g,--,--,0.000,0.000
"Cholesterol",mg,--,--,9,22
Amino Acids
Other
Ingredients
"COATING (SUGAR, VEGETABLE FAT, COCOA, SOYA), CAKE (MILK, VEGETABLE FAT, WHEAT FLOUR, EGGS, SUGAR, HONEY COCOA, BAKING SODA, ETHYLVANILLIN)," Date available: 07/14/2017 Date last updated by company: 07/14/2017
