Source: USDA Branded Food Products Database Release December 2017 Software v.3.8.6.4 2017-10-02
Report Run at: December 18, 2017 02:09 EST
"Nutrient data for: 45130349, SNACK PACK Pudding Lemon, UNPREPARED, GTIN: 00027000419182"
Food Group:  Branded Food Products Database
Common Name:

Nutrient,Unit,Data points,Std. Error,"1 pudding cup (92g) = 92.0g",1Value per 100 g,
Proximates
"Energy",kcal,--,--,120,130
"Protein",g,--,--,0.00,0.00
"Total lipid (fat)",g,--,--,2.50,2.72
"Carbohydrate, by difference",g,--,--,24.00,26.09
"Fiber, total dietary",g,--,--,1.0,1.1
"Sugars, total",g,--,--,18.00,19.57
Minerals
"Calcium, Ca",mg,--,--,0,0
"Iron, Fe",mg,--,--,0.00,0.00
"Potassium, K",mg,--,--,45,49
"Sodium, Na",mg,--,--,60,65
Vitamins
"Vitamin C, total ascorbic acid",mg,--,--,0.0,0.0
"Vitamin A, IU",IU,--,--,0,0
Lipids
"Fatty acids, total saturated",g,--,--,1.500,1.630
"Fatty acids, total monounsaturated",g,--,--,1.003,1.090
"Fatty acids, total polyunsaturated",g,--,--,0.000,0.000
"Fatty acids, total trans",g,--,--,0.000,0.000
"Cholesterol",mg,--,--,0,0
Amino Acids
Other
Ingredients
"Water, Sugar, Modified Tapioca Starch, Palm Oil, Less than 2% of: Modified Corn Starch, Citric Acid, Carrageenan, Potassium Citrate, Sodium Citrate, Salt, Polysorbate 60, Malic Acid, Lemon Juice Concentrate, Natural Flavors, Yellow 5." Date available: 10/22/2017 Date last updated by company: 10/21/2017
