Source: USDA Branded Food Products Database Release December 2017 Software v.3.8.6.4 2017-10-02
Report Run at: December 18, 2017 02:13 EST
"Nutrient data for: 45317168, SNACKWELL'S, CHOCOLATE CREME SANDWICH COOKIES, UPC: 819898019304"
Food Group:  Branded Food Products Database
Common Name:

Nutrient,Unit,Data points,Std. Error,"1 PACK = 48.0g",1Value per 100 g,
Proximates
"Energy",kcal,--,--,210,438
"Protein",g,--,--,2.00,4.17
"Total lipid (fat)",g,--,--,6.00,12.50
"Carbohydrate, by difference",g,--,--,37.00,77.08
"Fiber, total dietary",g,--,--,1.0,2.1
"Sugars, total",g,--,--,19.00,39.58
Minerals
"Calcium, Ca",mg,--,--,20,42
"Iron, Fe",mg,--,--,2.81,5.86
"Potassium, K",mg,--,--,140,292
"Sodium, Na",mg,--,--,240,500
Vitamins
"Vitamin C, total ascorbic acid",mg,--,--,0.0,0.0
"Vitamin A, IU",IU,--,--,0,0
Lipids
"Fatty acids, total saturated",g,--,--,2.002,4.170
"Fatty acids, total monounsaturated",g,--,--,1.498,3.120
"Fatty acids, total polyunsaturated",g,--,--,2.002,4.170
"Fatty acids, total trans",g,--,--,0.000,0.000
"Cholesterol",mg,--,--,0,0
Amino Acids
Other
Ingredients
"UNBLEACHED ENRICHED FLOUR (WHEAT FLOUR, NIACIN, REDUCED IRON, THIAMINE MONONITRATE (VITAMIN B1), RIBOFLAVIN {VITAMIN B2}, FOLIC ACID), SUGAR, SOYBEAN AND/OR PALM OIL, HIGH FRUCTOSE CORN SYRUP, DEXTROSE, COCOA (PROCESSED WITH ALKALI), GLYCERIN, PARTIALLY HYDROGENATED COTTONSEED OIL, LEAVENING (BAKING SODA, SODIUM ACID PYROPHOSPHATE, CALCIUM PHOSPHATE), WHEAT STARCH, EMULSIFIERS (DATEM, SOY LECITHIN, SODIUM STEAROYL LACTYLATE), SALT, NATURAL AND ARTIFICIAL FLAVOR (CONTAINS MILK), CELLULOSE GUM AND GEL, CORNSTARCH, CARAMEL COLOR" Date available: 06/24/2017 Date last updated by company: 06/24/2017
