Source: USDA Branded Food Products Database Release December 2017 Software v.3.8.6.4 2017-10-02
Report Run at: December 18, 2017 02:09 EST
"Nutrient data for: 45134484, SNACK PACK Pudding Triples Chocolate Vanilla, UNPREPARED, GTIN: 00027000419120"
Food Group:  Branded Food Products Database
Common Name:

Nutrient,Unit,Data points,Std. Error,"1 pudding cup (92g) = 92.0g",1Value per 100 g,
Proximates
"Energy",kcal,--,--,110,120
"Protein",g,--,--,1.00,1.09
"Total lipid (fat)",g,--,--,3.00,3.26
"Carbohydrate, by difference",g,--,--,20.00,21.74
"Fiber, total dietary",g,--,--,1.0,1.1
"Sugars, total",g,--,--,13.00,14.13
Minerals
"Calcium, Ca",mg,--,--,300,326
"Iron, Fe",mg,--,--,1.08,1.17
"Potassium, K",mg,--,--,80,87
"Sodium, Na",mg,--,--,130,141
Vitamins
"Vitamin C, total ascorbic acid",mg,--,--,0.0,0.0
"Vitamin A, IU",IU,--,--,0,0
Lipids
"Fatty acids, total saturated",g,--,--,1.500,1.630
"Fatty acids, total monounsaturated",g,--,--,1.003,1.090
"Fatty acids, total polyunsaturated",g,--,--,0.000,0.000
"Fatty acids, total trans",g,--,--,0.000,0.000
"Cholesterol",mg,--,--,0,0
Amino Acids
Other
Ingredients
"Water, Nonfat Milk, Sugar, Modified Corn Starch, Palm Oil, Less than 2% of: Cocoa (Processed with Alkali), Calcium Carbonate, Salt, Sodium Stearoyl Lactylate, Natural and Artificial Flavors, Disodium Phosphate, Color Added (Including Caramel Color).   CONTAINS: MILK" Date available: 10/12/2017 Date last updated by company: 10/12/2017
