Source: USDA Branded Food Products Database Release December 2017 Software v.3.8.6.4 2017-10-02
Report Run at: December 18, 2017 02:03 EST
"Nutrient data for: 45021126, SNACK CHEESE, UPC: 011150000819"
Food Group:  Branded Food Products Database
Common Name:

Nutrient,Unit,Data points,Std. Error,"2.0 Tbsp = 30.0g",1Value per 100 g,
Proximates
"Energy",kcal,--,--,80,267
"Protein",g,--,--,3.00,10.00
"Total lipid (fat)",g,--,--,6.00,20.00
"Carbohydrate, by difference",g,--,--,4.00,13.33
"Fiber, total dietary",g,--,--,0.0,0.0
"Sugars, total",g,--,--,3.00,10.00
Minerals
"Calcium, Ca",mg,--,--,100,333
"Iron, Fe",mg,--,--,0.00,0.00
"Sodium, Na",mg,--,--,520,1733
Vitamins
"Vitamin C, total ascorbic acid",mg,--,--,0.0,0.0
"Vitamin A, IU",IU,--,--,166,555
Lipids
"Fatty acids, total saturated",g,--,--,2.499,8.330
"Fatty acids, total trans",g,--,--,0.000,0.000
"Cholesterol",mg,--,--,10,33
Amino Acids
Other
Ingredients
"WATER. CHEESE (PASTEURIZED MILK, CHEESE CULTURES, SALT, ENZYMES), WHEY SOYBEAN OIL, MODIFIED FOOD STARCH, SODIUM PHOSPHATE, LESS THAN 2% SALT, LACTIC ACID, NATURAL FLAVOR, SODIUM HEXAMETAPHOSPHATE, SODIUM ALGINATE, SORBIC ACID (AS A PRESERVATIVE), XANTHAN GUM, ANNATTO COLOR." Date available: 06/25/2017 Date last updated by company: 06/25/2017
