Source: USDA Branded Food Products Database Release December 2017 Software v.3.8.6.4 2017-10-02
Report Run at: December 18, 2017 02:14 EST
"Nutrient data for: 45317318, SNACKWELL'S, FUDGE PRETZELS, UPC: 819898019069"
Food Group:  Branded Food Products Database
Common Name:

Nutrient,Unit,Data points,Std. Error,"1 PACK = 22.0g",1Value per 100 g,
Proximates
"Energy",kcal,--,--,100,455
"Protein",g,--,--,1.00,4.55
"Total lipid (fat)",g,--,--,3.50,15.91
"Carbohydrate, by difference",g,--,--,16.00,72.73
"Fiber, total dietary",g,--,--,1.0,4.5
"Sugars, total",g,--,--,7.00,31.82
Minerals
"Calcium, Ca",mg,--,--,0,0
"Iron, Fe",mg,--,--,1.64,7.44
"Potassium, K",mg,--,--,35,159
"Sodium, Na",mg,--,--,160,727
Vitamins
"Vitamin C, total ascorbic acid",mg,--,--,0.0,0.0
"Vitamin A, IU",IU,--,--,0,0
Lipids
"Fatty acids, total saturated",g,--,--,3.001,13.640
"Fatty acids, total monounsaturated",g,--,--,0.000,0.000
"Fatty acids, total polyunsaturated",g,--,--,0.000,0.000
"Fatty acids, total trans",g,--,--,0.000,0.000
"Cholesterol",mg,--,--,0,0
Amino Acids
Other
Ingredients
"UNBLEACHED ENRICHED FLOUR (WHEAT FLOUR, NIACIN, REDUCED IRON, THIAMINE MONONITRATE [VITAMIN B1], RIBOFLAVIN [VITAMIN B2], FOLIC ACID), SUGAR, PALM AND/OR PALM KERNEL AND/OR COTTONSEED AND/OR SOYBEAN AND/OR CANOLA AND/OR CORN OIL, COCOA, WHEY (FROM MILK), SALT, CORN SYRUP, SKIM MILK, BAKING SODA,SOY LECITHIN,YEAST, ARTIFICIAL FLAVOR." Date available: 07/14/2017 Date last updated by company: 07/14/2017
