Source: USDA Branded Food Products Database Release December 2017 Software v.3.8.6.4 2017-10-02
Report Run at: December 18, 2017 02:11 EST
"Nutrient data for: 45307846, SNACK SIZE SANDWICHES, UPC: 077900363931"
Food Group:  Branded Food Products Database
Common Name:

Nutrient,Unit,Data points,Std. Error,"1 PACKAGE = 85.0g",1Value per 100 g,
Proximates
"Energy",kcal,--,--,310,365
"Protein",g,--,--,6.00,7.06
"Total lipid (fat)",g,--,--,22.00,25.88
"Carbohydrate, by difference",g,--,--,20.00,23.53
"Fiber, total dietary",g,--,--,0.0,0.0
"Sugars, total",g,--,--,8.00,9.41
Minerals
"Calcium, Ca",mg,--,--,60,71
"Iron, Fe",mg,--,--,1.08,1.27
"Sodium, Na",mg,--,--,490,576
Vitamins
"Vitamin C, total ascorbic acid",mg,--,--,0.0,0.0
"Vitamin A, IU",IU,--,--,0,0
Lipids
"Fatty acids, total saturated",g,--,--,7.004,8.240
"Fatty acids, total trans",g,--,--,0.000,0.000
"Cholesterol",mg,--,--,40,47
Amino Acids
Other
Ingredients
"MAPLE PANCAKES: WATER, ENRICHED FLOUR (WHEAT FLOUR, MALTED BARLEY FLOUR, FERROUS SULFATE, NIACIN, REDUCED IRON, THIAMINE MONONITRATE, RIBOFLAVIN, FOLIC ACID), SUGAR, MAPLE FLAVORED BITS (SUGAR, CORN CEREAL, MODIFIED CORN STARCH, CORN FLOUR, ARTIFICIAL FLAVOR, CARAMEL COLOR), SOYBEAN AND/OR CANOLA OIL, EGGS, BUTTERMILK SOLIDS, CULTURED WHEAT FLOUR, SALT, SODIUM BICARBONATE, SODIUM BICARBONATE, SODIUM ACID PYROPHOSPHATE, MONO AND DIGLYCERIDES, POTASSIUM SORBATE, CALCIUM PROPIONATE, NATURAL AND ARTIFICIAL FLAVORS. FULLY COOKED MAPLE PORK SAUSAGE PATTY, CARAMEL COLOR ADDED, NATURAL AND ARTIFICIAL MAPLE FLAVOR ADDED: PORK, SUGAR, WATER, CONTAINS 2% OR LESS OF: POTASSIUM LACTATE, SALT, SPICES, NATURAL AND ARTIFICIAL MAPLE FLAVOR (MALTODEXTRIN, MODIFIED FOOD STARCH, CARAMEL COLOR, DEXTROSE, MONOSODIUM GLUTAMATE, SODIUM DIACETATE, CARAMEL COLOR." Date available: 08/17/2017 Date last updated by company: 08/17/2017
