Source: USDA Branded Food Products Database Release December 2017 Software v.3.8.6.4 2017-10-02
Report Run at: December 18, 2017 02:09 EST
"Nutrient data for: 45134349, SNACK PACK Pudding Frosted Sugar Cookie, UNPREPARED, GTIN: 00027000419564"
Food Group:  Branded Food Products Database
Common Name:

Nutrient,Unit,Data points,Std. Error,"1 pudding cup (92g) = 92.0g",1Value per 100 g,
Proximates
"Energy",kcal,--,--,100,109
"Protein",g,--,--,0.00,0.00
"Total lipid (fat)",g,--,--,2.50,2.72
"Carbohydrate, by difference",g,--,--,18.00,19.57
"Fiber, total dietary",g,--,--,1.0,1.1
"Sugars, total",g,--,--,12.00,13.04
Minerals
"Calcium, Ca",mg,--,--,300,326
"Iron, Fe",mg,--,--,0.36,0.39
"Potassium, K",mg,--,--,35,38
"Sodium, Na",mg,--,--,135,147
Vitamins
"Vitamin C, total ascorbic acid",mg,--,--,0.0,0.0
"Vitamin A, IU",IU,--,--,0,0
Lipids
"Fatty acids, total saturated",g,--,--,1.500,1.630
"Fatty acids, total monounsaturated",g,--,--,1.003,1.090
"Fatty acids, total polyunsaturated",g,--,--,0.000,0.000
"Fatty acids, total trans",g,--,--,0.000,0.000
"Cholesterol",mg,--,--,0,0
Amino Acids
Other
Ingredients
"Water, Nonfat Milk, Sugar, Modified Corn Starch, Vegetable Oil (Contains One Or More Of The Following: Palm Oil, Partially Hydrogenated Palm Oil, Sunflower Oil, Partially Hydrogenated Soybean Oil), Less than 2% of: Calcium Carbonate, Salt, Sodium Stearoyl Lactylate, Color Added (Including Yellow 5 and Yellow 6),  Disodium Phosphate, Natural and Artificial Flavors.  CONTAINS: MILK" Date available: 10/12/2017 Date last updated by company: 10/12/2017
