Source: USDA Branded Food Products Database Release December 2017 Software v.3.8.6.4 2017-10-02
Report Run at: December 18, 2017 02:10 EST
"Nutrient data for: 45191209, SNACK PIE MINIS, UPC: 072030022390"
Food Group:  Branded Food Products Database
Common Name:

Nutrient,Unit,Data points,Std. Error,"1 PIE = 57.0g",1Value per 100 g,
Proximates
"Energy",kcal,--,--,210,368
"Protein",g,--,--,1.00,1.75
"Total lipid (fat)",g,--,--,9.00,15.79
"Carbohydrate, by difference",g,--,--,31.00,54.39
"Fiber, total dietary",g,--,--,1.0,1.8
"Sugars, total",g,--,--,15.00,26.32
Minerals
"Calcium, Ca",mg,--,--,0,0
"Iron, Fe",mg,--,--,1.58,2.77
"Sodium, Na",mg,--,--,250,439
Vitamins
"Vitamin C, total ascorbic acid",mg,--,--,0.0,0.0
"Vitamin A, IU",IU,--,--,0,0
Lipids
"Fatty acids, total saturated",g,--,--,4.497,7.890
"Fatty acids, total monounsaturated",g,--,--,2.998,5.260
"Fatty acids, total polyunsaturated",g,--,--,0.998,1.750
"Fatty acids, total trans",g,--,--,0.000,0.000
"Cholesterol",mg,--,--,0,0
Amino Acids
Other
Ingredients
"ENRICHED FLOUR (WHEAT FLOUR, NIACIN, REDUCED IRON, THIAMIN MONONITRATE, RIBOFLAVIN, FOLIC ACID), HIGH FRUCTOSE CORN SYRUP, REDUCED IRON, THIAMIN MONONITRATE WATER, PALM OIL & FRACTIONATED PALM OIL, SUGAR, EVAPORATED APPLES (CONTAINS SULFUR DIOXIDE), CONTAINS LESS THAN 2% OF EACH OF THE FOLLOWING: FOOD STARCH-MODIFIED, SALT, PRESERVATIVES (SODIUM PROPIONATE, SODIUM BENZOATE, CITRIC ACID), CORNSTARCH, XANTHAN GUM, WHEAT FLOUR, MALTED BARLEY FLOUR, MALTED BARLEY FLOUR, CINNAMON, DEXTROSE, PROPYLENE GLYCOL, CALCIUM CARBONATE, AGAR-AGAR, NATURAL FLAVORS, MONO- & DIGLYCERIDES, SORBITAN MONOSTEARATE, SOY LECITHIN." Date available: 07/14/2017 Date last updated by company: 07/14/2017
