Source: USDA Branded Food Products Database Release December 2017 Software v.3.8.6.4 2017-10-02
Report Run at: December 18, 2017 02:15 EST
"Nutrient data for: 45165303, SNAK CLUB, GRAG AND RUN, TOASTED CORN, BBQ, UPC: 087076457433"
Food Group:  Branded Food Products Database
Common Name:

Nutrient,Unit,Data points,Std. Error,"1 PACKAGE = 50.0g",1Value per 100 g,
Proximates
"Energy",kcal,--,--,230,460
"Protein",g,--,--,4.00,8.00
"Total lipid (fat)",g,--,--,6.00,12.00
"Carbohydrate, by difference",g,--,--,39.00,78.00
"Fiber, total dietary",g,--,--,4.0,8.0
"Sugars, total",g,--,--,2.00,4.00
Minerals
"Calcium, Ca",mg,--,--,40,80
"Iron, Fe",mg,--,--,0.72,1.44
"Sodium, Na",mg,--,--,389,778
Vitamins
"Vitamin C, total ascorbic acid",mg,--,--,0.0,0.0
"Vitamin A, IU",IU,--,--,0,0
Lipids
"Fatty acids, total saturated",g,--,--,2.000,4.000
"Fatty acids, total trans",g,--,--,0.000,0.000
"Cholesterol",mg,--,--,0,0
Amino Acids
Other
Ingredients
"CORN, VEGETABLE OIL (MAY CONTAIN ONE OR MORE OF THE FOLLOWING: CANOLA, SAFFLOWER, SUNFLOWER), SALT, SUGAR, DEXTROSE, DEHYDRATED VEGETABLES (ONION, TOMATO, GARLIC), SPICES, YEAST EXTRACT, PAPRIKA, FRUCTOSE, EXTRACTIVES OF PAPRIKA, NATURAL FLAVORS (INCLUDING SMOKE), TORUFA YEAST, MALTED BARLEY FLOUR, CARAMEL COLOR AND LESS THAN 2% SILICON DIOXIDE TO PREVENT CAKING." Date available: 07/14/2017 Date last updated by company: 07/14/2017
