Source: USDA Branded Food Products Database Release December 2017 Software v.3.8.6.4 2017-10-02
Report Run at: December 18, 2017 02:20 EST
"Nutrient data for: 45249096, SNICKERS, MINIS CANDY BARS, UPC: 040000498353"
Food Group:  Branded Food Products Database
Common Name:

Nutrient,Unit,Data points,Std. Error,"4.0 PIECES = 36.0g",1Value per 100 g,
Proximates
"Energy",kcal,--,--,170,472
"Protein",g,--,--,3.00,8.33
"Total lipid (fat)",g,--,--,8.00,22.22
"Carbohydrate, by difference",g,--,--,22.00,61.11
"Fiber, total dietary",g,--,--,1.0,2.8
"Sugars, total",g,--,--,19.00,52.78
Minerals
"Calcium, Ca",mg,--,--,20,56
"Iron, Fe",mg,--,--,0.00,0.00
"Sodium, Na",mg,--,--,85,236
Vitamins
"Vitamin C, total ascorbic acid",mg,--,--,0.0,0.0
"Vitamin A, IU",IU,--,--,0,0
Lipids
"Fatty acids, total saturated",g,--,--,2.999,8.330
"Fatty acids, total trans",g,--,--,0.000,0.000
"Cholesterol",mg,--,--,0,0
Amino Acids
Other
Ingredients
"MILK CHOCOLATE (SUGAR, COCOA BUTTER, CHOCOLATE, SKIM MILK, LACTOSE, MILKFAT, SOY LECITHIN, ARTIFICIAL FLAVOR), PEANUTS, CORN SYRUP, SUGAR, PALM OIL, SKIM MILK, LACTOSE, PARTIALLY HYDROGENATED SOYBEAN OIL, SALT, EGG WHITES, ARTIFICIAL FLAVOR." Date available: 07/14/2017 Date last updated by company: 07/14/2017
