Source: USDA Branded Food Products Database Release December 2017 Software v.3.8.6.4 2017-10-02
Report Run at: December 18, 2017 02:22 EST
"Nutrient data for: 45025053, SNOQUALMIE, CUSTARD, HONEY CINNAMON, UPC: 748386792682"
Food Group:  Branded Food Products Database
Common Name:

Nutrient,Unit,Data points,Std. Error,"0.5 cup = 113.0g",1Value per 100 g,
Proximates
"Energy",kcal,--,--,240,212
"Protein",g,--,--,4.00,3.54
"Total lipid (fat)",g,--,--,16.00,14.16
"Carbohydrate, by difference",g,--,--,28.00,24.78
"Fiber, total dietary",g,--,--,0.0,0.0
"Sugars, total",g,--,--,24.00,21.24
Minerals
"Calcium, Ca",mg,--,--,99,88
"Iron, Fe",mg,--,--,0.41,0.36
"Sodium, Na",mg,--,--,55,49
Vitamins
"Vitamin C, total ascorbic acid",mg,--,--,0.0,0.0
"Vitamin A, IU",IU,--,--,843,746
Lipids
"Fatty acids, total saturated",g,--,--,8.995,7.960
"Fatty acids, total trans",g,--,--,0.000,0.000
"Cholesterol",mg,--,--,75,66
Amino Acids
Other
Ingredients
"MILK, CREAM, SKIM MILK, SUGAR, HONEY, EGGS, GROUND CINNAMON, CINNAMON OIL, LESS THAN 0.4% OF: (LOCUST BEAN GUM, GUAR GUM)" Date available: 07/14/2017 Date last updated by company: 07/14/2017
