Source: USDA Branded Food Products Database Release December 2017 Software v.3.8.6.4 2017-10-02
Report Run at: December 18, 2017 02:22 EST
"Nutrient data for: 45257247, SNOW CONE SYRUP, UPC: 048894063527"
Food Group:  Branded Food Products Database
Common Name:

Nutrient,Unit,Data points,Std. Error,"2.0 OZA = 60.0g",1Value per 100 g,
Proximates
"Energy",kcal,--,--,70,117
"Protein",g,--,--,0.00,0.00
"Total lipid (fat)",g,--,--,0.00,0.00
"Carbohydrate, by difference",g,--,--,19.00,31.67
"Sugars, total",g,--,--,17.00,28.33
Minerals
"Sodium, Na",mg,--,--,15,25
Vitamins
Lipids
Amino Acids
Other
Ingredients
"WATER, HIGH FRUCTOSE CORN, SYRUP, CITRIC ACID, NATURAL AND ARTIFICIAL FLAVORS, PROPYLENE GLYCOL, XANTHAN GUM, SODIUM BENZOATE (PRESERVATIVE), ACESULFAME POTASSIUM, FD&C RED 40, FD&C BLUE." Date available: 07/14/2017 Date last updated by company: 07/14/2017
