Source: USDA Branded Food Products Database Release December 2017 Software v.3.8.6.4 2017-10-02
Report Run at: December 18, 2017 02:22 EST
"Nutrient data for: 45326480, SNOW CONE SYRUP, UPC: 041512061431"
Food Group:  Branded Food Products Database
Common Name:

Nutrient,Unit,Data points,Std. Error,"1 Tbsp = 15.0g",1Value per 100 g,
Proximates
"Energy",kcal,--,--,40,267
"Protein",g,--,--,0.00,0.00
"Total lipid (fat)",g,--,--,0.00,0.00
"Carbohydrate, by difference",g,--,--,9.00,60.00
"Sugars, total",g,--,--,8.00,53.33
Minerals
"Sodium, Na",mg,--,--,5,33
Vitamins
Lipids
Amino Acids
Other
Ingredients
"CORN SYRUP, WATER, CITRIC ACID, CELLULOSE GUM, ARTIFICIAL AND NATURAL FLAVORS, SODIUM BENZOATE (A PRESERVATIVE), RED 40 AND CARAMEL COLOR." Date available: 10/13/2017 Date last updated by company: 10/13/2017
