Source: USDA Branded Food Products Database Release December 2017 Software v.3.8.6.4 2017-10-02
Report Run at: December 18, 2017 02:23 EST
"Nutrient data for: 45318353, SNOWMEN MILK CHOCOLATE FILLED WITH CREAMY CARAMEL, UPC: 040000472797"
Food Group:  Branded Food Products Database
Common Name:

Nutrient,Unit,Data points,Std. Error,"1 SNOWMAN = 31.2g",1Value per 100 g,
Proximates
"Energy",kcal,--,--,150,481
"Protein",g,--,--,1.00,3.21
"Total lipid (fat)",g,--,--,7.00,22.44
"Carbohydrate, by difference",g,--,--,21.00,67.31
"Fiber, total dietary",g,--,--,0.0,0.0
"Sugars, total",g,--,--,19.00,60.90
Minerals
"Calcium, Ca",mg,--,--,20,64
"Iron, Fe",mg,--,--,0.46,1.48
"Sodium, Na",mg,--,--,65,208
Vitamins
"Vitamin A, IU",IU,--,--,100,321
Lipids
"Fatty acids, total saturated",g,--,--,4.499,14.420
"Fatty acids, total trans",g,--,--,0.000,0.000
"Cholesterol",mg,--,--,5,16
Amino Acids
Other
Ingredients
"MILK CHOCOLATE (SUGAR, COCOA BUTTER, CHOCOLATE, SKIM MILK, LACTOSE, MILKFAT, SOY LECITHIN, ARTIFICIAL FLAVOR), INVERT SUGAR, CORN SYRUP, PALM OIL, SUGAR, SKIM MILK, DEXTROSE, LESS THAN 1.5% - MILKFAT, SALT, SOY LECITHIN, ARTIFICIAL FLAVORS." Date available: 07/14/2017 Date last updated by company: 07/14/2017
