Source: USDA Branded Food Products Database Release December 2017 Software v.3.8.6.4 2017-10-02
Report Run at: December 18, 2017 02:24 EST
"Nutrient data for: 45113497, SNYDER'S OF HANOVER, CHUNKY SALSA, MILD, UPC: 077975036976"
Food Group:  Branded Food Products Database
Common Name:

Nutrient,Unit,Data points,Std. Error,"2.0 Tbsp = 30.0g",1Value per 100 g,
Proximates
"Energy",kcal,--,--,10,33
"Protein",g,--,--,0.00,0.00
"Total lipid (fat)",g,--,--,0.00,0.00
"Carbohydrate, by difference",g,--,--,2.00,6.67
"Fiber, total dietary",g,--,--,0.0,0.0
"Sugars, total",g,--,--,2.00,6.67
Minerals
"Calcium, Ca",mg,--,--,0,0
"Iron, Fe",mg,--,--,0.00,0.00
"Sodium, Na",mg,--,--,180,600
Vitamins
"Vitamin C, total ascorbic acid",mg,--,--,0.0,0.0
"Vitamin A, IU",IU,--,--,0,0
Lipids
"Fatty acids, total saturated",g,--,--,0.000,0.000
"Fatty acids, total trans",g,--,--,0.000,0.000
"Cholesterol",mg,--,--,0,0
Amino Acids
Other
Ingredients
"TOMATOES IN TOMATO JUICE (CONTAINS CITRIC ACID, CALCIUM CHLORIDE), WATER, JALAPENO PEPPERS (CONTAINS VINEGAR), CONCENTRATED CRUSHED TOMATOES, ONIONS, CONTAINS 2% OR LESS OF DEHYDRATED ONION, SALT, WHITE VINEGAR, CITRIC ACID, DEHYDRATED GARLIC." Date available: 07/14/2017 Date last updated by company: 07/14/2017
