Source: USDA Branded Food Products Database Release December 2017 Software v.3.8.6.4 2017-10-02
Report Run at: December 18, 2017 02:27 EST
"Nutrient data for: 45051752, SNYDER'S OF HANOVER, PRETZEL PIECES, BUTTERMILK RANCH, UPC: 077975088203"
Food Group:  Branded Food Products Database
Common Name:

Nutrient,Unit,Data points,Std. Error,"0.333 CUP | ABOUT = 28.0g",1Value per 100 g,
Proximates
"Energy",kcal,--,--,140,500
"Protein",g,--,--,2.00,7.14
"Total lipid (fat)",g,--,--,6.00,21.43
"Carbohydrate, by difference",g,--,--,19.00,67.86
"Fiber, total dietary",g,--,--,1.0,3.6
"Sugars, total",g,--,--,0.00,0.00
Minerals
"Calcium, Ca",mg,--,--,0,0
"Iron, Fe",mg,--,--,1.93,6.88
"Sodium, Na",mg,--,--,230,821
Vitamins
"Vitamin C, total ascorbic acid",mg,--,--,0.0,0.0
"Thiamin",mg,--,--,0.280,1.000
"Riboflavin",mg,--,--,0.136,0.486
"Niacin",mg,--,--,2.142,7.650
"Vitamin A, IU",IU,--,--,0,0
Lipids
"Fatty acids, total saturated",g,--,--,2.999,10.710
"Fatty acids, total trans",g,--,--,0.000,0.000
"Cholesterol",mg,--,--,0,0
Amino Acids
Other
Ingredients
"ENRICHED FLOUR (WHEAT FLOUR, NIACIN, REDUCED IRON, THIAMINE MONONITRATE, RIBOFLAVIN, FOLIC ACID), WATER, PALM OIL, WHEY POWDER, BUTTERMILK POWDER, SALT, ONION POWDER, GARLIC POWDER, MALTODEXTRIN, YEAST EXTRACT, CORN SYRUP SOLIDS, YEAST, MONOSODIUM GLUTAMATE, XANTHAN GUM, LACTOSE, DEXTROSE, MALIC ACID, PARSLEY, CITRIC ACID, VINEGAR, CELLULOSE POWDER, NONFAT MILK, SWEET CREAM, DISODIUM INOSINATE AND GUANYLATE, LACTIC ACID, SPICES, NATURAL AND ARTIFICIAL FLAVORS, MODIFIED CORN STARCH, SOY LECITHIN, MOLASSES, CARAMEL COLOR, SODA." Date available: 07/14/2017 Date last updated by company: 07/14/2017
