Source: USDA Branded Food Products Database Release December 2017 Software v.3.8.6.4 2017-10-02
Report Run at: December 18, 2017 02:28 EST
"Nutrient data for: 45014673, SNYDER'S OF HANOVER, PRETZEL POPPERS, PRETZEL SHELLS, THREE CHEESE, UPC: 077975091432"
Food Group:  Branded Food Products Database
Common Name:

Nutrient,Unit,Data points,Std. Error,"18.0 PRETZELS | ABOUT = 30.0g",1Value per 100 g,
Proximates
"Energy",kcal,--,--,130,433
"Protein",g,--,--,3.00,10.00
"Total lipid (fat)",g,--,--,3.00,10.00
"Carbohydrate, by difference",g,--,--,22.00,73.33
"Fiber, total dietary",g,--,--,1.0,3.3
"Sugars, total",g,--,--,1.00,3.33
Minerals
"Calcium, Ca",mg,--,--,60,200
"Iron, Fe",mg,--,--,1.80,6.00
"Sodium, Na",mg,--,--,500,1667
Vitamins
"Vitamin C, total ascorbic acid",mg,--,--,0.0,0.0
"Thiamin",mg,--,--,0.300,1.000
"Riboflavin",mg,--,--,0.102,0.340
"Niacin",mg,--,--,2.000,6.667
"Vitamin A, IU",IU,--,--,0,0
Lipids
"Fatty acids, total saturated",g,--,--,0.999,3.330
"Fatty acids, total monounsaturated",g,--,--,1.500,5.000
"Fatty acids, total polyunsaturated",g,--,--,0.501,1.670
"Fatty acids, total trans",g,--,--,0.000,0.000
"Cholesterol",mg,--,--,0,0
Amino Acids
Other
Ingredients
"ENRICHED FLOUR (WHEAT FLOUR, NIACIN, REDUCED IRON, THIAMINE MONONITRATE, RIBOFLAVIN, FOLIC ACID), PALM OIL, CANOLA OIL, WATER, SALT, MALTODEXTRIN, WHEY, CHEDDAR CHEESE (CULTURED MILK, SALT, ENZYMES), SUGAR, BUTTERFAT, YEAST, BUTTERMILK SOLIDS, NATURAL FLAVOR, NONFAT DRY MILK, MOZZARELLA CHEESE (PART SKIM MILK, SALT, CULTURES, ENZYMES), ANNATTO EXTRACT (COLOR), ONION POWDER, TURMERIC EXTRACT (COLOR), MONTEREY JACK CHEESE (CULTURED PASTEURIZED MILK, SALT, ENZYMES), CITRIC ACID, GARLIC POWDER, YEAST EXTRACT, LACTIC ACID, PAPRIKA EXTRACT (COLOR), SODA." Date available: 07/14/2017 Date last updated by company: 07/14/2017
