Source: USDA Branded Food Products Database Release December 2017 Software v.3.8.6.4 2017-10-02
Report Run at: December 18, 2017 02:28 EST
"Nutrient data for: 45152685, SNYDER'S OF HANOVER, PRETZEL SANDWICHES, CHEDDAR CHEESE, UPC: 077975081488"
Food Group:  Branded Food Products Database
Common Name:

Nutrient,Unit,Data points,Std. Error,"1 POUCH = 28.4g",1Value per 100 g,
Proximates
"Energy",kcal,--,--,150,528
"Protein",g,--,--,3.00,10.56
"Total lipid (fat)",g,--,--,8.00,28.17
"Carbohydrate, by difference",g,--,--,16.00,56.34
"Fiber, total dietary",g,--,--,1.0,3.5
"Sugars, total",g,--,--,2.00,7.04
Minerals
"Calcium, Ca",mg,--,--,40,141
"Iron, Fe",mg,--,--,1.27,4.46
"Sodium, Na",mg,--,--,200,704
Vitamins
"Vitamin C, total ascorbic acid",mg,--,--,0.0,0.0
"Thiamin",mg,--,--,0.000,0.000
"Riboflavin",mg,--,--,0.068,0.239
"Niacin",mg,--,--,3.522,12.401
"Vitamin A, IU",IU,--,--,0,0
Lipids
"Fatty acids, total saturated",g,--,--,3.999,14.080
"Fatty acids, total trans",g,--,--,0.000,0.000
"Cholesterol",mg,--,--,5,18
Amino Acids
Other
Ingredients
"ENRICHED FLOUR (WHEAT FLOUR, NIACIN, REDUCED IRON, THIAMINE MONONITRATE, RIBOFLAVIN, FOLIC ACID), WATER, PALM OIL, WHEY POWDER, CHEDDAR CHEESE (PASTEURIZED MILK, CHEESE CULTURES, SALT, ENZYMES), BUTTER, BUTTERMILK SOLIDS, MALT, CANOLA OIL, ANNATTO (COLOR), SALT, WHEAT GLUTEN, YEAST, SODA." Date available: 07/14/2017 Date last updated by company: 07/14/2017
