Source: USDA Branded Food Products Database Release December 2017 Software v.3.8.6.4 2017-10-02
Report Run at: December 18, 2017 02:32 EST
"Nutrient data for: 45271030, SOCKEYE SALMON PORTIONS, UPC: 829944092250"
Food Group:  Branded Food Products Database
Common Name:

Nutrient,Unit,Data points,Std. Error,"4.0 ONZ = 113.0g",1Value per 100 g,
Proximates
"Energy",kcal,--,--,102,90
"Protein",g,--,--,17.00,15.04
"Total lipid (fat)",g,--,--,2.99,2.65
"Carbohydrate, by difference",g,--,--,0.00,0.00
"Fiber, total dietary",g,--,--,0.0,0.0
"Sugars, total",g,--,--,0.00,0.00
Minerals
"Calcium, Ca",mg,--,--,10,9
"Iron, Fe",mg,--,--,0.53,0.47
"Sodium, Na",mg,--,--,42,37
Vitamins
"Vitamin C, total ascorbic acid",mg,--,--,0.0,0.0
"Vitamin A, IU",IU,--,--,97,86
Lipids
"Fatty acids, total saturated",g,--,--,0.994,0.880
"Fatty acids, total trans",g,--,--,0.000,0.000
"Cholesterol",mg,--,--,63,56
Amino Acids
Other
Ingredients
"SALMON SOCKEYE." Date available: 10/13/2017 Date last updated by company: 10/13/2017
