Source: USDA Branded Food Products Database Release December 2017 Software v.3.8.6.4 2017-10-02
Report Run at: December 18, 2017 02:35 EST
"Nutrient data for: 45137712, SODA, UPC: 061500013563"
Food Group:  Branded Food Products Database
Common Name:

Nutrient,Unit,Data points,Std. Error,"12.0 OZA = 355.0g",1Value per 100 g,
Proximates
"Energy",kcal,--,--,192,54
"Protein",g,--,--,0.00,0.00
"Total lipid (fat)",g,--,--,0.00,0.00
"Carbohydrate, by difference",g,--,--,51.01,14.37
"Sugars, total",g,--,--,49.98,14.08
Minerals
"Sodium, Na",mg,--,--,36,10
Vitamins
Lipids
Amino Acids
Other
Ingredients
"CARBONATED WATER, HIGH FRUCTOSE CORN SYRUP, CITRIC ACID, POTASSIUM BENZOATE (A PRESERVATIVE), NATURAL FLAVOR, GUM ACACIA, ESTER GUM, YELLOW 6, BROMINATED VEGETABLE OIL, RED 40." Date available: 07/14/2017 Date last updated by company: 07/14/2017
