Source: USDA Branded Food Products Database Release December 2017 Software v.3.8.6.4 2017-10-02
Report Run at: December 18, 2017 02:36 EST
"Nutrient data for: 45146189, SODA, UPC: 039771141049"
Food Group:  Branded Food Products Database
Common Name:

Nutrient,Unit,Data points,Std. Error,"1 BOTTLE = 12.0g",1Value per 100 g,
Proximates
"Energy",kcal,--,--,5,42
"Protein",g,--,--,0.00,0.00
"Total lipid (fat)",g,--,--,0.00,0.00
"Carbohydrate, by difference",g,--,--,1.63,13.61
"Sugars, total",g,--,--,1.63,13.61
Minerals
"Sodium, Na",mg,--,--,3,21
Vitamins
Lipids
Amino Acids
Other
Ingredients
"CARBONATED WATER, CANE SUGAR, CITRIC ACID, SODIUM BENZOATE (A PRESERVATIVE), PHOSPHORIC ACID, TARTARIC ACID, MODIFIED FOOD STARCH, RED #40, BLUE #1, AND ARTIFICIAL FLAVOR." Date available: 07/14/2017 Date last updated by company: 07/14/2017
