Source: USDA Branded Food Products Database Release December 2017 Software v.3.8.6.4 2017-10-02
Report Run at: December 18, 2017 02:33 EST
"Nutrient data for: 45149099, SODA ALTERNATIVE, UPC: 662425030736"
Food Group:  Branded Food Products Database
Common Name:

Nutrient,Unit,Data points,Std. Error,"8.0 OZA = 240.0g",1Value per 100 g,
Proximates
"Energy",kcal,--,--,29,12
"Protein",g,--,--,0.00,0.00
"Total lipid (fat)",g,--,--,0.00,0.00
"Carbohydrate, by difference",g,--,--,7.01,2.92
"Fiber, total dietary",g,--,--,0.0,0.0
"Sugars, total",g,--,--,7.01,2.92
Minerals
"Sodium, Na",mg,--,--,46,19
Vitamins
Lipids
"Fatty acids, total saturated",g,--,--,0.000,0.000
"Fatty acids, total trans",g,--,--,0.000,0.000
"Cholesterol",mg,--,--,0,0
Amino Acids
Other
Ingredients
"96% SHAKTEA ORGANIC RAW KOMBUCHA, ORGANIC STRAWBERRY PUREE, ORGANIC LEMON JUICE." Date available: 07/14/2017 Date last updated by company: 07/14/2017
