Source: USDA Branded Food Products Database Release December 2017 Software v.3.8.6.4 2017-10-02
Report Run at: December 18, 2017 02:35 EST
"Nutrient data for: 45241843, SODASTREAM, WATERS SPARKLING GOURMET, LIME BASIL, UPC: 811572024345"
Food Group:  Branded Food Products Database
Common Name:

Nutrient,Unit,Data points,Std. Error,"2.4 tsp = 12.0g",1Value per 100 g,
Proximates
"Energy",kcal,--,--,45,375
"Protein",g,--,--,0.00,0.00
"Total lipid (fat)",g,--,--,0.00,0.00
"Carbohydrate, by difference",g,--,--,10.00,83.33
"Sugars, total",g,--,--,10.00,83.33
Minerals
"Sodium, Na",mg,--,--,0,0
Vitamins
Lipids
Amino Acids
Other
Ingredients
"SUGAR, WATER, CITRIC ACID, NATURAL FLAVORS, STEVIA, BURNT SUGAR SYRUP, BETA CAROTENE." Date available: 06/25/2017 Date last updated by company: 06/25/2017
