Source: USDA Branded Food Products Database Release December 2017 Software v.3.8.6.4 2017-10-02
Report Run at: December 18, 2017 02:38 EST
"Nutrient data for: 45221704, SODA, UPC: 799137601050"
Food Group:  Branded Food Products Database
Common Name:

Nutrient,Unit,Data points,Std. Error,"8.0 OZA = 240.0g",1Value per 100 g,
Proximates
"Energy",kcal,--,--,70,29
"Protein",g,--,--,0.00,0.00
"Total lipid (fat)",g,--,--,0.00,0.00
"Carbohydrate, by difference",g,--,--,18.00,7.50
"Sugars, total",g,--,--,18.00,7.50
Minerals
"Sodium, Na",mg,--,--,19,8
Vitamins
Lipids
Amino Acids
Other
Ingredients
"CONTAINS: CARBONATED WATER, SUGAR, NATURAL FLAVOR, CITRIC ACID, SODIUM BENZOATE (A PRESERVATIVE), SODIUM CITRATE." Date available: 07/14/2017 Date last updated by company: 07/14/2017
