Source: USDA Branded Food Products Database Release December 2017 Software v.3.8.6.4 2017-10-02
Report Run at: December 18, 2017 02:42 EST
"Nutrient data for: 45326643, SODA, UPC: 021140032041"
Food Group:  Branded Food Products Database
Common Name:

Nutrient,Unit,Data points,Std. Error,"1 CAN = 355.0g",1Value per 100 g,
Proximates
"Energy",kcal,--,--,170,48
"Protein",g,--,--,0.00,0.00
"Total lipid (fat)",g,--,--,0.00,0.00
"Carbohydrate, by difference",g,--,--,43.98,12.39
"Sugars, total",g,--,--,43.98,12.39
Minerals
"Sodium, Na",mg,--,--,36,10
Vitamins
Lipids
Amino Acids
Other
Ingredients
"CARBONATED WATER, HIGH FRUCTOSE CORN SYRUP, CITRIC ACID, NATURAL AND ARTIFICIAL FLAVOR, SODIUM BENZOATE (PRESERVATIVE), RED 40." Date available: 10/13/2017 Date last updated by company: 10/13/2017
