Source: USDA Branded Food Products Database Release December 2017 Software v.3.8.6.4 2017-10-02
Report Run at: December 18, 2017 02:40 EST
"Nutrient data for: 45261760, SODA, UPC: 071817002433"
Food Group:  Branded Food Products Database
Common Name:

Nutrient,Unit,Data points,Std. Error,"1 BOTTLE = 500.0g",1Value per 100 g,
Proximates
"Energy",kcal,--,--,0,0
"Protein",g,--,--,0.00,0.00
"Total lipid (fat)",g,--,--,0.00,0.00
"Carbohydrate, by difference",g,--,--,0.00,0.00
"Sugars, total",g,--,--,0.00,0.00
Minerals
"Sodium, Na",mg,--,--,40,8
Vitamins
Lipids
Amino Acids
Other
Ingredients
"CARBONATED WATER, CITRIC ACID, NATURAL AND ARTIFICIAL FLAVORS, SUCRALOSE, SODIUM BENZOATE, CAFFEINE, MALIC ACID, RED 40, ACESULFAME POTASSIUM, ASPARTAME, PHOSPHORIC ACID AND ACACIA GUM." Date available: 08/28/2017 Date last updated by company: 08/28/2017
