Source: USDA Branded Food Products Database Release December 2017 Software v.3.8.6.4 2017-10-02
Report Run at: December 18, 2017 02:38 EST
"Nutrient data for: 45218560, SODA, UPC: 030034077679"
Food Group:  Branded Food Products Database
Common Name:

Nutrient,Unit,Data points,Std. Error,"1 CAN = 355.0g",1Value per 100 g,
Proximates
"Energy",kcal,--,--,192,54
"Protein",g,--,--,0.00,0.00
"Total lipid (fat)",g,--,--,0.00,0.00
"Carbohydrate, by difference",g,--,--,47.00,13.24
"Sugars, total",g,--,--,47.00,13.24
Minerals
"Sodium, Na",mg,--,--,36,10
Vitamins
Lipids
Amino Acids
Other
Ingredients
"CARBONATED WATER, HIGH FRUCTOSE CORN SYRUP, CITRIC ACID, CONCENTRATED GRAPE JUICE SODIUM BENZOATE (PRESERVATIVE), NATURAL AND ARTIFICIAL FLAVOR, GUM ACACIA, RED 40 AND BLUE 1." Date available: 07/14/2017 Date last updated by company: 07/14/2017
