Source: USDA Branded Food Products Database Release December 2017 Software v.3.8.6.4 2017-10-02
Report Run at: December 18, 2017 02:40 EST
"Nutrient data for: 45268723, SODA, UPC: 811572023850"
Food Group:  Branded Food Products Database
Common Name:

Nutrient,Unit,Data points,Std. Error,"2.5 tsp = 12.0g",1Value per 100 g,
Proximates
"Energy",kcal,--,--,40,333
"Protein",g,--,--,0.00,0.00
"Total lipid (fat)",g,--,--,0.00,0.00
"Carbohydrate, by difference",g,--,--,10.00,83.33
"Sugars, total",g,--,--,10.00,83.33
Minerals
"Sodium, Na",mg,--,--,65,542
Vitamins
Lipids
Amino Acids
Other
Ingredients
"SUGAR, WATER, CITRIC ACID, NATURAL FLAVOR, TRISODIUM CITRATE, ACESULFAME POTASSIUM, QUININE, SUCRALOSE, SODIUM BENZOATE (AS PRESERVATIVE)." Date available: 07/14/2017 Date last updated by company: 07/14/2017
