Source: USDA Branded Food Products Database Release December 2017 Software v.3.8.6.4 2017-10-02
Report Run at: December 18, 2017 02:34 EST
"Nutrient data for: 45241871, SODASTREAM, FOUNTAIN STYLE SPARKLING DRINK MIX, CREAM SODA, UPC: 811572024024"
Food Group:  Branded Food Products Database
Common Name:

Nutrient,Unit,Data points,Std. Error,"3.0 tsp = 15.0g",1Value per 100 g,
Proximates
"Energy",kcal,--,--,50,333
"Protein",g,--,--,0.00,0.00
"Total lipid (fat)",g,--,--,0.00,0.00
"Carbohydrate, by difference",g,--,--,13.00,86.67
"Sugars, total",g,--,--,13.00,86.67
Minerals
"Sodium, Na",mg,--,--,0,0
Vitamins
Lipids
Amino Acids
Other
Ingredients
"FRUCTOSE, WATER APPLE JUICE CONCENTRATE, NATURAL FLAVORS, BURNT SUGAR SYRUP, CITRIC ACID, POTASSIUM SORBATE (TO ENSURE FRESHNESS)." Date available: 06/25/2017 Date last updated by company: 06/25/2017
