Source: USDA Branded Food Products Database Release December 2017 Software v.3.8.6.4 2017-10-02
Report Run at: December 18, 2017 02:40 EST
"Nutrient data for: 45262035, SODA, UPC: 723062000336"
Food Group:  Branded Food Products Database
Common Name:

Nutrient,Unit,Data points,Std. Error,"1 BOTTLE = 12.0g",1Value per 100 g,
Proximates
"Energy",kcal,--,--,6,49
"Protein",g,--,--,0.00,0.00
"Total lipid (fat)",g,--,--,0.00,0.00
"Carbohydrate, by difference",g,--,--,1.47,12.22
"Sugars, total",g,--,--,1.47,12.22
Minerals
"Sodium, Na",mg,--,--,1,6
Vitamins
Lipids
Amino Acids
Other
Ingredients
"CARBONATED WATER, SUGAR, CITRIC ACID, SODIUM BENZOATE (TO PRESERVE TASTE), NATURAL & ARTIFICIAL FLAVORINGS (ETHYL ALCOHOL, PROPYLENE GLYCOL, TRIETHYL CITRATE), FD&C RED #40, FD&C BLUE # 1." Date available: 07/14/2017 Date last updated by company: 07/14/2017
