Source: USDA Branded Food Products Database Release December 2017 Software v.3.8.6.4 2017-10-02
Report Run at: December 18, 2017 02:33 EST
"Nutrient data for: 45158109, SODA MIX, UPC: 611247311370"
Food Group:  Branded Food Products Database
Common Name:

Nutrient,Unit,Data points,Std. Error,"1 KOLD POD = 40.0g",1Value per 100 g,
Proximates
"Energy",kcal,--,--,90,225
"Protein",g,--,--,0.00,0.00
"Total lipid (fat)",g,--,--,0.00,0.00
"Carbohydrate, by difference",g,--,--,24.00,60.00
"Sugars, total",g,--,--,24.00,60.00
Minerals
"Sodium, Na",mg,--,--,30,75
Vitamins
Lipids
Amino Acids
Other
Ingredients
"WATER, CANE SUGAR, NATURAL AND ARTIFICIAL FLAVORS, CITRIC ACID, SODIUM CITRATE, SODIUM BENZOATE (PRESERVATIVE), GUM ARABIC, CARBON DIOXIDE (FOR CARBONATION), POLYSORBATE 60, ESTER GUM, MEDIUM CHAIN TRIGLYCERIDES, YELLOW 6, GLYCERIN, MODIFIED TAPIOCA STARCH." Date available: 07/14/2017 Date last updated by company: 07/14/2017
