Source: USDA Branded Food Products Database Release December 2017 Software v.3.8.6.4 2017-10-02
Report Run at: December 18, 2017 02:37 EST
"Nutrient data for: 45150922, SODA, UPC: 021130252411"
Food Group:  Branded Food Products Database
Common Name:

Nutrient,Unit,Data points,Std. Error,"1 CAN = 355.0g",1Value per 100 g,
Proximates
"Energy",kcal,--,--,160,45
"Protein",g,--,--,0.00,0.00
"Total lipid (fat)",g,--,--,0.00,0.00
"Carbohydrate, by difference",g,--,--,40.01,11.27
"Sugars, total",g,--,--,40.01,11.27
Minerals
"Sodium, Na",mg,--,--,75,21
Vitamins
Lipids
Amino Acids
Other
Ingredients
"CARBONATED WATER, HIGH FRUCTOSE CORN SYRUP, CITRIC ACID, NATURAL FLAVORS, SODIUM CITRATE, SODIUM BENZOATE (A PRESERVATIVE)." Date available: 09/06/2017 Date last updated by company: 09/06/2017
