Source: USDA Branded Food Products Database Release December 2017 Software v.3.8.6.4 2017-10-02
Report Run at: December 18, 2017 02:45 EST
"Nutrient data for: 45038255, SODIUM-FREE SALT, UPC: 027443360034"
Food Group:  Branded Food Products Database
Common Name:

Nutrient,Unit,Data points,Std. Error,"0.25 tsp = 1.3g",1Value per 100 g,
Proximates
"Energy",kcal,--,--,0,0
"Protein",g,--,--,0.00,0.00
"Total lipid (fat)",g,--,--,0.00,0.00
"Carbohydrate, by difference",g,--,--,0.00,0.00
Minerals
"Potassium, K",mg,--,--,640,49231
"Sodium, Na",mg,--,--,0,0
Vitamins
Lipids
"Cholesterol",mg,--,--,0,0
Amino Acids
Other
Ingredients
"POTASSIUM CHLORIDE, POTASSIUM BITARTRATE, ADIPIC ACID, SILICON DIOXIDE, MINERAL OIL AND FUMARIC ACID." Date available: 07/14/2017 Date last updated by company: 07/14/2017
