Source: USDA Branded Food Products Database Release December 2017 Software v.3.8.6.4 2017-10-02
Report Run at: December 18, 2017 02:51 EST
"Nutrient data for: 45269181, SOFT DINNER ROLL, UPC: 832971000129"
Food Group:  Branded Food Products Database
Common Name:

Nutrient,Unit,Data points,Std. Error,"1.5 ONZ = 43.0g",1Value per 100 g,
Proximates
"Energy",kcal,--,--,120,279
"Protein",g,--,--,4.00,9.30
"Total lipid (fat)",g,--,--,3.00,6.98
"Carbohydrate, by difference",g,--,--,20.00,46.51
"Fiber, total dietary",g,--,--,1.0,2.3
"Sugars, total",g,--,--,3.00,6.98
Minerals
"Calcium, Ca",mg,--,--,0,0
"Iron, Fe",mg,--,--,1.26,2.92
"Sodium, Na",mg,--,--,230,535
Vitamins
"Vitamin C, total ascorbic acid",mg,--,--,0.0,0.0
"Vitamin A, IU",IU,--,--,0,0
Lipids
"Fatty acids, total saturated",g,--,--,0.000,0.000
"Fatty acids, total trans",g,--,--,0.000,0.000
"Cholesterol",mg,--,--,15,35
Amino Acids
Other
Ingredients
"ENRICHED UNBLEACHED WHEAT FLOUR, WATER, EGGS, SUGAR, CANOLA OIL, YEAST, SEA SALT." Date available: 07/14/2017 Date last updated by company: 07/14/2017
