Source: USDA Branded Food Products Database Release December 2017 Software v.3.8.6.4 2017-10-02
Report Run at: December 18, 2017 02:47 EST
"Nutrient data for: 45142219, SOFT BAKED COOKIES, UPC: 015400554435"
Food Group:  Branded Food Products Database
Common Name:

Nutrient,Unit,Data points,Std. Error,"1 COOKIE = 25.0g",1Value per 100 g,
Proximates
"Energy",kcal,--,--,110,440
"Protein",g,--,--,1.00,4.00
"Total lipid (fat)",g,--,--,3.50,14.00
"Carbohydrate, by difference",g,--,--,18.00,72.00
"Fiber, total dietary",g,--,--,0.0,0.0
"Sugars, total",g,--,--,9.00,36.00
Minerals
"Calcium, Ca",mg,--,--,0,0
"Iron, Fe",mg,--,--,1.44,5.76
"Sodium, Na",mg,--,--,90,360
Vitamins
"Vitamin C, total ascorbic acid",mg,--,--,0.0,0.0
"Vitamin A, IU",IU,--,--,0,0
Lipids
"Fatty acids, total saturated",g,--,--,1.500,6.000
"Fatty acids, total monounsaturated",g,--,--,1.500,6.000
"Fatty acids, total polyunsaturated",g,--,--,0.500,2.000
"Fatty acids, total trans",g,--,--,0.000,0.000
"Cholesterol",mg,--,--,6,24
Amino Acids
Other
Ingredients
"ENRICHED BLEACHED WHEAT FLOUR (WHEAT FLOUR, NIACIN, IRON, THIAMIN MONONITRATE, RIBOFLAVIN, FOLIC ACID), SUGAR, CANOLA AND/OR SOYBEAN AND/OR PALM OIL, HIGH FRUCTOSE CORN SYRUP, WHOLE GRAIN OATS, RAISIN PASTE, CORN SYRUP, CONTAINS 2% OR LESS OF: EGGS, SALT, BAKING SODA, WHEY, SPICE, NATURAL AND ARTIFICIAL FLAVORS, CARAMEL COLOR, SOY LECITHIN." Date available: 07/14/2017 Date last updated by company: 07/14/2017
