Source: USDA Branded Food Products Database Release December 2017 Software v.3.8.6.4 2017-10-02
Report Run at: December 18, 2017 02:49 EST
"Nutrient data for: 45120494, SOFT & CHEWY CANDY, UPC: 073390009045"
Food Group:  Branded Food Products Database
Common Name:

Nutrient,Unit,Data points,Std. Error,"3.0 BAG = 57.0g",1Value per 100 g,
Proximates
"Energy",kcal,--,--,140,246
"Protein",g,--,--,0.00,0.00
"Total lipid (fat)",g,--,--,0.00,0.00
"Carbohydrate, by difference",g,--,--,34.00,59.65
"Sugars, total",g,--,--,24.00,42.11
Minerals
"Sodium, Na",mg,--,--,0,0
Vitamins
Lipids
Amino Acids
Other
Ingredients
"SUGAR, HIGH FRUCTOSE CORN SYRUP, CORN SYRUP, CORN STARCH, FOOD STARCH MODIFIED (CORN) WHEAT STARCH, MODIFIED POTATO STARCH; CONTAINS LESS THAN 2% OF: CITRIC ACID, MALIC ACID, ARTIFICIAL FLAVORS, ARTIFICIAL COLOR, SALT, HYDROGENATED SOYBEAN OIL, BLUE 1, RED 40, YELLOW 5, YELLOW 6." Date available: 07/14/2017 Date last updated by company: 07/14/2017
