Source: USDA Branded Food Products Database Release December 2017 Software v.3.8.6.4 2017-10-02
Report Run at: December 18, 2017 02:58 EST
"Nutrient data for: 45104445, SOFT SUB ROLLS, UPC: 073711045455"
Food Group:  Branded Food Products Database
Common Name:

Nutrient,Unit,Data points,Std. Error,"1 BUN = 71.0g",1Value per 100 g,
Proximates
"Energy",kcal,--,--,180,254
"Protein",g,--,--,6.00,8.45
"Total lipid (fat)",g,--,--,3.00,4.23
"Carbohydrate, by difference",g,--,--,32.00,45.07
"Fiber, total dietary",g,--,--,1.0,1.4
"Sugars, total",g,--,--,3.00,4.23
Minerals
"Calcium, Ca",mg,--,--,60,85
"Iron, Fe",mg,--,--,1.26,1.78
"Sodium, Na",mg,--,--,310,437
Vitamins
"Vitamin C, total ascorbic acid",mg,--,--,0.0,0.0
"Vitamin A, IU",IU,--,--,0,0
Lipids
"Fatty acids, total saturated",g,--,--,0.000,0.000
"Fatty acids, total monounsaturated",g,--,--,0.000,0.000
"Fatty acids, total polyunsaturated",g,--,--,1.001,1.410
"Fatty acids, total trans",g,--,--,0.000,0.000
"Cholesterol",mg,--,--,0,0
Amino Acids
Other
Ingredients
"ENRICHED WHEAT FLOUR (WHEAT FLOUR, BARLEY MALT, NIACIN, IRON, THIAMIN MONONITRATE, RIBOFLAVIN, FOLIC ACID), WATER, YEAST, SUGAR, CONTAINS 2% OR LESS OF THE FOLLOWING: SOYBEAN OIL, SALT, WHEAT GLUTEN, DOUGH CONDITIONERS (MONOGLYCERIDES, DATEM, AZODICARBONAMIDE, ENZYMES), POTASSIUM SORBATE AND CALCIUM PROPIONATE (PRESERVATIVES), YEAST NUTRIENTS (MONOCALCIUM PHOSPHATE, CALCIUM SULFATE, AMMONIUM SULFATE)." Date available: 07/14/2017 Date last updated by company: 07/14/2017
