Source: USDA Branded Food Products Database Release December 2017 Software v.3.8.6.4 2017-10-02
Report Run at: December 18, 2017 02:57 EST
"Nutrient data for: 45211467, SOFT SNICKERDOODLE COOKIES, UPC: 078742050041"
Food Group:  Branded Food Products Database
Common Name:

Nutrient,Unit,Data points,Std. Error,"1 COOKIE = 25.0g",1Value per 100 g,
Proximates
"Energy",kcal,--,--,110,440
"Protein",g,--,--,1.00,4.00
"Total lipid (fat)",g,--,--,4.50,18.00
"Carbohydrate, by difference",g,--,--,16.00,64.00
"Fiber, total dietary",g,--,--,0.0,0.0
"Sugars, total",g,--,--,7.00,28.00
Minerals
"Calcium, Ca",mg,--,--,0,0
"Iron, Fe",mg,--,--,1.44,5.76
"Sodium, Na",mg,--,--,90,360
Vitamins
"Vitamin C, total ascorbic acid",mg,--,--,0.0,0.0
"Vitamin A, IU",IU,--,--,0,0
Lipids
"Fatty acids, total saturated",g,--,--,2.000,8.000
"Fatty acids, total trans",g,--,--,0.000,0.000
"Cholesterol",mg,--,--,5,20
Amino Acids
Other
Ingredients
"BLEACHED ENRICHED FLOUR (WHEAT FLOUR, NIACIN, REDUCED IRON, THIAMINE MONONITRATE, RIBOFLAVIN, FOLIC ACID), SUGAR, PALM OIL SHORTENING, HIGH FRUCTOSE CORN SYRUP, CORN SYRUP, EGGS. CONTAINS 2% OR LESS OF FOOD STARCH-MODIFIED, INULIN, SALT, SODIUM BICARBONATE, NATURAL AND ARTIFICIAL FLAVOR, SOY LECITHIN, CINNAMON, SODIUM ACID PYROPHOSPHATE, CORNSTARCH, MONOCALCIUM PHOSPHATE, YELLOW 5, YELLOW 6." Date available: 07/14/2017 Date last updated by company: 07/14/2017
