Source: USDA Branded Food Products Database Release December 2017 Software v.3.8.6.4 2017-10-02
Report Run at: December 18, 2017 02:53 EST
"Nutrient data for: 45104997, SOFT ITALIAN ROLLS, UPC: 078296106058"
Food Group:  Branded Food Products Database
Common Name:

Nutrient,Unit,Data points,Std. Error,"1 ROLL = 94.0g",1Value per 100 g,
Proximates
"Energy",kcal,--,--,310,330
"Protein",g,--,--,11.00,11.70
"Total lipid (fat)",g,--,--,3.00,3.19
"Carbohydrate, by difference",g,--,--,60.00,63.83
"Fiber, total dietary",g,--,--,2.0,2.1
"Sugars, total",g,--,--,0.00,0.00
Minerals
"Calcium, Ca",mg,--,--,80,85
"Iron, Fe",mg,--,--,5.99,6.37
"Sodium, Na",mg,--,--,640,681
Vitamins
"Vitamin C, total ascorbic acid",mg,--,--,11.9,12.7
"Vitamin A, IU",IU,--,--,0,0
Lipids
"Fatty acids, total saturated",g,--,--,0.000,0.000
"Fatty acids, total trans",g,--,--,0.000,0.000
"Cholesterol",mg,--,--,0,0
Amino Acids
Other
Ingredients
"ENRICHED BLEACHED FLOUR (WHEAT FLOUR, MALTED BARLEY FLOUR, NIACIN, REDUCED IRON, THIAMIN MONONITRATE, RIBOFLAVIN, FOLIC ACID), WATER, CONTAINS LESS THAN 2% OF YEAST, SALT, SOYBEAN OIL, DEXTROSE, SUGAR, CORN STARCH, DATEM, ASCORBIC ACID, AZODICARBONAMIDE, L-CYSTEINE, CALCIUM SULFATE, CALCIUM PEROXIDE, MONO- AND DIGLYCERIDES, WHEAT GLUTEN, ENZYMES, CALCIUM PROPIONATE (PRESERVATIVE), SOY LECITHIN." Date available: 07/14/2017 Date last updated by company: 07/14/2017
