Source: USDA Branded Food Products Database Release December 2017 Software v.3.8.6.4 2017-10-02
Report Run at: December 18, 2017 02:50 EST
"Nutrient data for: 45151210, SOFT COOKIES, UPC: 032251167775"
Food Group:  Branded Food Products Database
Common Name:

Nutrient,Unit,Data points,Std. Error,"1 COOKIE = 25.0g",1Value per 100 g,
Proximates
"Protein",g,--,--,1.00,4.00
"Total lipid (fat)",g,--,--,3.50,14.00
"Carbohydrate, by difference",g,--,--,17.00,68.00
"Fiber, total dietary",g,--,--,1.0,4.0
"Sugars, total",g,--,--,8.00,32.00
Minerals
"Calcium, Ca",mg,--,--,0,0
"Iron, Fe",mg,--,--,0.72,2.88
"Sodium, Na",mg,--,--,90,360
Vitamins
"Vitamin C, total ascorbic acid",mg,--,--,0.0,0.0
"Vitamin A, IU",IU,--,--,0,0
Lipids
"Fatty acids, total saturated",g,--,--,1.000,4.000
"Fatty acids, total trans",g,--,--,1.000,4.000
"Cholesterol",mg,--,--,0,0
Amino Acids
Other
Ingredients
"WHEAT FLOUR, SUGAR, HIGH FRUCTOSE CORN SYRUP, PARTIALLY HYDROGENATED SOYBEAN OIL, WATER, COCOA POWDER (PROCESSED WITH ALKALI), CONTAINS 2% OR LESS OF THE FOLLOWING: EGGS, SALT, SODIUM BICARBONATE, NATURAL & ARTIFICIAL FLAVORS." Date available: 08/23/2017 Date last updated by company: 08/23/2017
