Source: USDA Branded Food Products Database Release December 2017 Software v.3.8.6.4 2017-10-02
Report Run at: December 18, 2017 02:53 EST
"Nutrient data for: 45324691, SOFT GRANOLA APRICOT SHORTBREAD, UPC: 860459000187"
Food Group:  Branded Food Products Database
Common Name:

Nutrient,Unit,Data points,Std. Error,"0.25 cup = 28.0g",1Value per 100 g,
Proximates
"Energy",kcal,--,--,120,429
"Protein",g,--,--,3.00,10.71
"Total lipid (fat)",g,--,--,5.00,17.86
"Carbohydrate, by difference",g,--,--,17.00,60.71
"Fiber, total dietary",g,--,--,2.0,7.1
"Sugars, total",g,--,--,8.00,28.57
Minerals
"Calcium, Ca",mg,--,--,0,0
"Iron, Fe",mg,--,--,1.41,5.05
"Sodium, Na",mg,--,--,40,143
Vitamins
"Vitamin C, total ascorbic acid",mg,--,--,0.0,0.0
"Vitamin A, IU",IU,--,--,589,2105
Lipids
"Fatty acids, total saturated",g,--,--,1.999,7.140
"Fatty acids, total trans",g,--,--,0.000,0.000
"Cholesterol",mg,--,--,10,36
Amino Acids
Other
Ingredients
"GLUTEN FREE OATS, ORGANIC HONEY, BUTTER (CREAM), BROWN SUGAR (SUGAR, ORGANIC MOLASSES), CASHEWS (SALT), ORGANIC APRICOTS, GOLDEN FLAX SEED MEAL, VANILLA (WATER, ALCOHOL, SUGAR, VANILLA BEAN EXTRACTIVES), SAIGON CINNAMON, MACADAMIA NUTS, ALMONDS." Date available: 08/10/2017 Date last updated by company: 08/10/2017
