Source: USDA Branded Food Products Database Release December 2017 Software v.3.8.6.4 2017-10-02
Report Run at: December 18, 2017 03:00 EST
"Nutrient data for: 45188169, SOGO BAKERY, SWISS ROLL, VANILLA, UPC: 890476000747"
Food Group:  Branded Food Products Database
Common Name:

Nutrient,Unit,Data points,Std. Error,"0.167 CAKE = 75.0g",1Value per 100 g,
Proximates
"Energy",kcal,--,--,220,293
"Protein",g,--,--,4.00,5.33
"Total lipid (fat)",g,--,--,12.00,16.00
"Carbohydrate, by difference",g,--,--,24.00,32.00
"Fiber, total dietary",g,--,--,0.0,0.0
"Sugars, total",g,--,--,12.00,16.00
Minerals
"Calcium, Ca",mg,--,--,20,27
"Iron, Fe",mg,--,--,1.80,2.40
"Sodium, Na",mg,--,--,90,120
Vitamins
"Vitamin C, total ascorbic acid",mg,--,--,0.0,0.0
"Vitamin A, IU",IU,--,--,166,222
Lipids
"Fatty acids, total saturated",g,--,--,5.003,6.670
"Fatty acids, total trans",g,--,--,0.000,0.000
"Cholesterol",mg,--,--,90,120
Amino Acids
Other
Ingredients
"EGG WHITES, WHIPPED TOPPING (WATER, PARTIALLY HYDROGENATED PALM KERNEL OIL, HIGH FRUCTOSE CORN SYRUP, CORN SYRUP, SUGAR, ARTIFICIAL FLAVOR), SUGAR, ENRICHED FLOUR (BLEACHED WHEAT FLOUR ENRICHED, NIACIN, IRON, THIAMINE MONONITRATE, RIBOFLAVIN, FOLIC ACID), EGG YOLKS, WATER, SOYBEAN OIL, CORN STARCH, SALT, POTASSIUM SORBATE, MILK FLAVOR" Date available: 07/14/2017 Date last updated by company: 07/14/2017
