Source: USDA Branded Food Products Database Release December 2017 Software v.3.8.6.4 2017-10-02
Report Run at: December 18, 2017 03:00 EST
"Nutrient data for: 45171940, SOIGNON, GOAT CHEESE BUCHETTE, UPC: 013499900164"
Food Group:  Branded Food Products Database
Common Name:

Nutrient,Unit,Data points,Std. Error,"1 ONZ = 28.0g",1Value per 100 g,
Proximates
"Energy",kcal,--,--,70,250
"Protein",g,--,--,5.00,17.86
"Total lipid (fat)",g,--,--,5.00,17.86
"Carbohydrate, by difference",g,--,--,1.00,3.57
Minerals
"Calcium, Ca",mg,--,--,40,143
"Sodium, Na",mg,--,--,135,482
Vitamins
"Vitamin A, IU",IU,--,--,357,1275
Lipids
"Fatty acids, total saturated",g,--,--,4.001,14.290
"Fatty acids, total trans",g,--,--,0.000,0.000
"Cholesterol",mg,--,--,20,71
Amino Acids
Other
Ingredients
"PASTEURIZED GOAT MILK, SALT, GARLIC AND CHIVES, POTASSIUM SORBATE (PRESERVATIVE), CHEESE CULTURE, COAGULANT." Date available: 10/19/2017 Date last updated by company: 10/19/2017
