Source: USDA Branded Food Products Database Release December 2017 Software v.3.8.6.4 2017-10-02
Report Run at: December 18, 2017 03:00 EST
"Nutrient data for: 45146252, SOL BRANDS, PLANTAIN CHIPS, UPC: 040232325229"
Food Group:  Branded Food Products Database
Common Name:

Nutrient,Unit,Data points,Std. Error,"30.0 CHIPS | ABOUT = 28.0g",1Value per 100 g,
Proximates
"Energy",kcal,--,--,140,500
"Protein",g,--,--,1.00,3.57
"Total lipid (fat)",g,--,--,7.00,25.00
"Carbohydrate, by difference",g,--,--,19.00,67.86
"Fiber, total dietary",g,--,--,1.0,3.6
"Sugars, total",g,--,--,0.00,0.00
Minerals
"Calcium, Ca",mg,--,--,0,0
"Iron, Fe",mg,--,--,1.29,4.59
"Sodium, Na",mg,--,--,110,393
Vitamins
"Vitamin C, total ascorbic acid",mg,--,--,230.4,822.7
"Vitamin A, IU",IU,--,--,2678,9566
Lipids
"Fatty acids, total saturated",g,--,--,2.999,10.710
"Fatty acids, total trans",g,--,--,0.000,0.000
"Cholesterol",mg,--,--,0,0
Amino Acids
Other
Ingredients
"SELECTED GREEN PLANTAINS, NON HYDROGENATED PALM OIL, JALAPENOS, LIME, SEA SALT." Date available: 07/14/2017 Date last updated by company: 07/14/2017
