Source: USDA Branded Food Products Database Release December 2017 Software v.3.8.6.4 2017-10-02
Report Run at: December 18, 2017 03:00 EST
"Nutrient data for: 45033753, SOLGAR, 7 BELGIAN CHOCOLATE BARS, UPC: 810797020026"
Food Group:  Branded Food Products Database
Common Name:

Nutrient,Unit,Data points,Std. Error,"1 BAR = 14.0g",1Value per 100 g,
Proximates
"Energy",kcal,--,--,70,500
"Protein",g,--,--,1.00,7.14
"Total lipid (fat)",g,--,--,5.00,35.71
"Carbohydrate, by difference",g,--,--,6.00,42.86
"Fiber, total dietary",g,--,--,1.0,7.1
"Sugars, total",g,--,--,6.00,42.86
Minerals
"Calcium, Ca",mg,--,--,0,0
"Iron, Fe",mg,--,--,6.43,45.91
"Potassium, K",mg,--,--,85,607
"Sodium, Na",mg,--,--,0,0
Vitamins
"Vitamin C, total ascorbic acid",mg,--,--,0.0,0.0
"Vitamin A, IU",IU,--,--,0,0
Lipids
"Fatty acids, total saturated",g,--,--,3.000,21.430
"Fatty acids, total trans",g,--,--,0.000,0.000
"Cholesterol",mg,--,--,0,0
Amino Acids
Other
Ingredients
"COCOA (PROCESSED WITH ALKALI), SUGAR, COCOA BUTTER, SOY LECITHIN, LACTOBACILLUS HELVERICUS (VEGETABLE FATTY ACIDS, MALTODEXTRIN), BIFIDOBACTERIUM LONGUM (VEGETABLE FATTY ACIDS, MALTODEXTRIN), NATURAL VANILLA FLAVOR." Date available: 06/24/2017 Date last updated by company: 06/24/2017
