Source: USDA Branded Food Products Database Release December 2017 Software v.3.8.6.4 2017-10-02
Report Run at: December 18, 2017 03:07 EST
"Nutrient data for: 45240665, SONOMA SYRUP CO., MINT INFUSED SIMPLE SYRUP, UPC: 856891000021"
Food Group:  Branded Food Products Database
Common Name:

Nutrient,Unit,Data points,Std. Error,"2.0 Tbsp = 30.0g",1Value per 100 g,
Proximates
"Energy",kcal,--,--,95,317
"Protein",g,--,--,0.00,0.00
"Total lipid (fat)",g,--,--,0.00,0.00
"Carbohydrate, by difference",g,--,--,28.00,93.33
"Sugars, total",g,--,--,28.00,93.33
Minerals
"Iron, Fe",mg,--,--,1.20,4.00
"Sodium, Na",mg,--,--,10,33
Vitamins
"Vitamin C, total ascorbic acid",mg,--,--,50.0,166.7
Lipids
"Fatty acids, total trans",g,--,--,0.000,0.000
Amino Acids
Other
Ingredients
"CANE SUGAR, FILTERED WATER, SPEARMINT LEAVES, SPEARMINT EXTRACT AND VITAMIN C (ASCORBIC ACID)." Date available: 06/25/2017 Date last updated by company: 06/25/2017
