Source: USDA Branded Food Products Database Release December 2017 Software v.3.8.6.4 2017-10-02
Report Run at: December 18, 2017 03:09 EST
"Nutrient data for: 45217553, SOPRESSATA, UPC: 736436833157"
Food Group:  Branded Food Products Database
Common Name:

Nutrient,Unit,Data points,Std. Error,"1 ONZ = 28.0g",1Value per 100 g,
Proximates
"Energy",kcal,--,--,90,321
"Protein",g,--,--,7.00,25.00
"Total lipid (fat)",g,--,--,7.00,25.00
"Carbohydrate, by difference",g,--,--,1.00,3.57
Minerals
"Iron, Fe",mg,--,--,0.71,2.53
"Sodium, Na",mg,--,--,430,1536
Vitamins
Lipids
"Fatty acids, total saturated",g,--,--,2.500,8.930
"Cholesterol",mg,--,--,25,89
Amino Acids
Other
Ingredients
"PORK, SALT, LESS THAN 2% OF: DEXTROSE, SPICES, WHITE WINE, LACTIC ACID STARTER CULTURE, SODIUM ERYTHORBATE, SODIUM NITRATE, SODIUM NITRITE, NATURAL FLAVORING." Date available: 09/06/2017 Date last updated by company: 09/06/2017
