Source: USDA Branded Food Products Database Release December 2017 Software v.3.8.6.4 2017-10-02
Report Run at: December 18, 2017 03:10 EST
"Nutrient data for: 45218158, SORBETTO, UPC: 799512011580"
Food Group:  Branded Food Products Database
Common Name:

Nutrient,Unit,Data points,Std. Error,"0.5 cup = 102.0g",1Value per 100 g,
Proximates
"Energy",kcal,--,--,110,108
"Protein",g,--,--,0.00,0.00
"Total lipid (fat)",g,--,--,0.00,0.00
"Carbohydrate, by difference",g,--,--,27.00,26.47
"Fiber, total dietary",g,--,--,0.0,0.0
"Sugars, total",g,--,--,24.00,23.53
Minerals
"Calcium, Ca",mg,--,--,0,0
"Iron, Fe",mg,--,--,0.00,0.00
"Sodium, Na",mg,--,--,0,0
Vitamins
"Vitamin C, total ascorbic acid",mg,--,--,13.5,13.2
"Vitamin A, IU",IU,--,--,0,0
Lipids
"Fatty acids, total saturated",g,--,--,0.000,0.000
"Fatty acids, total trans",g,--,--,0.000,0.000
"Cholesterol",mg,--,--,0,0
Amino Acids
Other
Ingredients
"PINEAPPLE JUICE, MANDARIN JUICE, ORGANIC CANE SUGAR, CONTAINS LESS THAN 1% OF THE FOLLOWING: PECTIN." Date available: 07/14/2017 Date last updated by company: 07/14/2017
