Source: USDA Branded Food Products Database Release December 2017 Software v.3.8.6.4 2017-10-02
Report Run at: December 18, 2017 03:10 EST
"Nutrient data for: 45184795, SORBET, UPC: 079893093017"
Food Group:  Branded Food Products Database
Common Name:

Nutrient,Unit,Data points,Std. Error,"0.5 cup = 106.0g",1Value per 100 g,
Proximates
"Energy",kcal,--,--,130,123
"Protein",g,--,--,1.00,0.94
"Total lipid (fat)",g,--,--,0.00,0.00
"Carbohydrate, by difference",g,--,--,32.00,30.19
"Fiber, total dietary",g,--,--,4.0,3.8
"Sugars, total",g,--,--,27.00,25.47
Minerals
"Calcium, Ca",mg,--,--,20,19
"Iron, Fe",mg,--,--,0.40,0.38
"Sodium, Na",mg,--,--,10,9
Vitamins
"Vitamin C, total ascorbic acid",mg,--,--,16.9,15.9
"Vitamin A, IU",IU,--,--,0,0
Lipids
"Fatty acids, total saturated",g,--,--,0.000,0.000
"Fatty acids, total trans",g,--,--,0.000,0.000
"Cholesterol",mg,--,--,0,0
Amino Acids
Other
Ingredients
"WATER, RASPBERRY PUREE, CANE SUGAR, PECTIN, NATURAL FLAVOR." Date available: 07/14/2017 Date last updated by company: 07/14/2017
