Source: USDA Branded Food Products Database Release December 2017 Software v.3.8.6.4 2017-10-02
Report Run at: December 18, 2017 03:12 EST
"Nutrient data for: 45063798, SOULFUL SEASONED SALT, UPC: 608623000508"
Food Group:  Branded Food Products Database
Common Name:

Nutrient,Unit,Data points,Std. Error,"0.25 tsp = 1.2g",1Value per 100 g,
Proximates
"Energy",kcal,--,--,0,0
"Protein",g,--,--,0.00,0.00
"Total lipid (fat)",g,--,--,0.00,0.00
"Carbohydrate, by difference",g,--,--,0.00,0.00
Minerals
"Sodium, Na",mg,--,--,320,26667
Vitamins
Lipids
Amino Acids
Other
Ingredients
"SALT, SUGAR, PAPRIKA, GARLIC, ONION, BLACK AND RED PEPPER, AND SPECIALLY-SELECTED HERBS AND SPICES." Date available: 07/14/2017 Date last updated by company: 07/14/2017
