Source: USDA Branded Food Products Database Release December 2017 Software v.3.8.6.4 2017-10-02
Report Run at: December 18, 2017 03:12 EST
"Nutrient data for: 45170153, SOUL VEGAN, R-VEGAN TUAN, UPC: 878425000000"
Food Group:  Branded Food Products Database
Common Name:

Nutrient,Unit,Data points,Std. Error,"4.0 ONZ = 113.0g",1Value per 100 g,
Proximates
"Energy",kcal,--,--,71,63
"Protein",g,--,--,8.00,7.08
"Total lipid (fat)",g,--,--,4.00,3.54
"Carbohydrate, by difference",g,--,--,8.00,7.08
"Fiber, total dietary",g,--,--,2.0,1.8
"Sugars, total",g,--,--,4.00,3.54
Minerals
"Calcium, Ca",mg,--,--,20,18
"Iron, Fe",mg,--,--,0.17,0.15
"Sodium, Na",mg,--,--,151,134
Vitamins
"Vitamin C, total ascorbic acid",mg,--,--,2.6,2.3
"Vitamin A, IU",IU,--,--,7617,6741
Lipids
"Fatty acids, total saturated",g,--,--,0.994,0.880
"Fatty acids, total trans",g,--,--,0.000,0.000
Amino Acids
Other
Ingredients
"FRESH CARROT, SUGAR, KELP, OLIVE OIL, (RELISH), SEA SALT, NUTRITIONAL YEAST, CELERY, VEGETABLE OIL, ORGANIC SOY MILK, LEMON JUICE." Date available: 08/28/2017 Date last updated by company: 08/28/2017
