Source: USDA Branded Food Products Database Release December 2017 Software v.3.8.6.4 2017-10-02
Report Run at: December 18, 2017 03:14 EST
"Nutrient data for: 45039251, SOUP, UPC: 886926014204"
Food Group:  Branded Food Products Database
Common Name:

Nutrient,Unit,Data points,Std. Error,"1 cup = 245.0g",1Value per 100 g,
Proximates
"Energy",kcal,--,--,120,49
"Protein",g,--,--,6.00,2.45
"Total lipid (fat)",g,--,--,0.49,0.20
"Carbohydrate, by difference",g,--,--,24.01,9.80
"Fiber, total dietary",g,--,--,5.9,2.4
"Sugars, total",g,--,--,3.99,1.63
Minerals
"Calcium, Ca",mg,--,--,39,16
"Iron, Fe",mg,--,--,1.45,0.59
"Sodium, Na",mg,--,--,750,306
Vitamins
"Vitamin C, total ascorbic acid",mg,--,--,0.0,0.0
"Vitamin A, IU",IU,--,--,100,41
Lipids
"Fatty acids, total saturated",g,--,--,0.000,0.000
"Fatty acids, total trans",g,--,--,0.000,0.000
"Cholesterol",mg,--,--,0,0
Amino Acids
Other
Ingredients
"FILTERED WATER, BLACK BEANS, TOMATOES IN TOMATO JUICE, TOMATO PASTE, ONIONS, RED PEPPERS, CONTAINS LESS THAN 2% OF: CORNSTARCH, SEA SALT, CANE SUGAR, SPICES, CHILI PEPPER FLAKES." Date available: 06/24/2017 Date last updated by company: 06/24/2017
