Source: USDA Branded Food Products Database Release December 2017 Software v.3.8.6.4 2017-10-02
Report Run at: December 18, 2017 03:15 EST
"Nutrient data for: 45222501, SOUP, UPC: 5051379080402"
Food Group:  Branded Food Products Database
Common Name:

Nutrient,Unit,Data points,Std. Error,"1 cup = 245.0g",1Value per 100 g,
Proximates
"Energy",kcal,--,--,201,82
"Protein",g,--,--,2.99,1.22
"Total lipid (fat)",g,--,--,13.99,5.71
"Carbohydrate, by difference",g,--,--,13.01,5.31
"Fiber, total dietary",g,--,--,2.9,1.2
"Sugars, total",g,--,--,7.01,2.86
Minerals
"Calcium, Ca",mg,--,--,81,33
"Iron, Fe",mg,--,--,1.79,0.73
"Sodium, Na",mg,--,--,779,318
Vitamins
"Vitamin C, total ascorbic acid",mg,--,--,24.0,9.8
"Vitamin A, IU",IU,--,--,1250,510
Lipids
"Fatty acids, total saturated",g,--,--,6.003,2.450
"Fatty acids, total trans",g,--,--,0.000,0.000
"Cholesterol",mg,--,--,34,14
Amino Acids
Other
Ingredients
"TOMATO AND BASIL SOUP [DICED TOMATOES (TOMATO, TOMATO JUICE, SALT, CALCIUM CHLORIDE, CITRIC ACID), GROUND PEELED TOMATOES (TOMATO, TOMATO JUICE, CITRIC ACID, CALCIUM CHLORIDE), ONION, CREAM, CANOLA OIL, SALT, BASIL, GARLIC, OREGANO]." Date available: 07/14/2017 Date last updated by company: 07/14/2017
