Source: USDA Branded Food Products Database Release December 2017 Software v.3.8.6.4 2017-10-02
Report Run at: December 18, 2017 03:18 EST
"Nutrient data for: 45291912, SOUR CHERRY FILLED ORGANIC COOKIES, UPC: 815421012040"
Food Group:  Branded Food Products Database
Common Name:

Nutrient,Unit,Data points,Std. Error,"2.0 COOKIES = 33.0g",1Value per 100 g,
Proximates
"Energy",kcal,--,--,130,394
"Protein",g,--,--,1.00,3.03
"Total lipid (fat)",g,--,--,4.00,12.12
"Carbohydrate, by difference",g,--,--,22.00,66.67
"Fiber, total dietary",g,--,--,1.0,3.0
"Sugars, total",g,--,--,12.00,36.36
Minerals
"Calcium, Ca",mg,--,--,10,30
"Iron, Fe",mg,--,--,0.10,0.30
"Potassium, K",mg,--,--,50,152
"Sodium, Na",mg,--,--,70,212
Vitamins
"Vitamin D",IU,--,--,0,0
Lipids
"Fatty acids, total saturated",g,--,--,1.502,4.550
"Fatty acids, total trans",g,--,--,0.000,0.000
"Cholesterol",mg,--,--,5,15
Amino Acids
Other
Ingredients
"ORGANIC SOUR CHERRIES, ORGANIC RICE FLOUR, ORGANIC SUGAR, ORGANIC POTATO STARCH, ORGANIC PALM FRUIT OIL, ORGANIC RICE STARCH, ORGANIC RICE SYRUP, ORGANIC EGGS, ORGANIC CHICKPEA FLOUR, ORGANIC ARABIC GUM, LEAVENING (POTASSIUM ACID TARTRATE, BAKING SODA), SALT, PECTIN, CITRIC ACID, GUAR GUM." Date available: 09/23/2017 Date last updated by company: 09/23/2017
