Source: USDA Branded Food Products Database Release December 2017 Software v.3.8.6.4 2017-10-02
Report Run at: December 18, 2017 03:23 EST
"Nutrient data for: 45268485, SOURDOUGH BACHELOR LOAF, UPC: 783583895828"
Food Group:  Branded Food Products Database
Common Name:

Nutrient,Unit,Data points,Std. Error,"2.0 SLICES = 110.0g",1Value per 100 g,
Proximates
"Energy",kcal,--,--,280,255
"Protein",g,--,--,8.00,7.27
"Total lipid (fat)",g,--,--,1.00,0.91
"Carbohydrate, by difference",g,--,--,58.00,52.73
"Fiber, total dietary",g,--,--,2.0,1.8
"Sugars, total",g,--,--,0.00,0.00
Minerals
"Calcium, Ca",mg,--,--,20,18
"Iron, Fe",mg,--,--,1.64,1.49
"Sodium, Na",mg,--,--,500,455
Vitamins
"Vitamin C, total ascorbic acid",mg,--,--,0.0,0.0
"Vitamin A, IU",IU,--,--,0,0
Lipids
"Fatty acids, total saturated",g,--,--,0.000,0.000
"Fatty acids, total monounsaturated",g,--,--,0.000,0.000
"Fatty acids, total polyunsaturated",g,--,--,0.000,0.000
"Fatty acids, total trans",g,--,--,0.000,0.000
"Cholesterol",mg,--,--,0,0
Amino Acids
Other
Ingredients
"HIGH GLUTEN FLOUR (WHEAT FLOUR, MALTED BARLEY FLOUR, NIACIN, IRON, THIAMIN MONONITRATE, RIBOFLAVIN, FOLIC ACID ENZYME, ASCORBIC ACID), ALL PURPOSE FLOUR (WHEAT FLOUR, MALTED BARLEY FLOUR, NIACIN, IRON, THIAMIN MONONITRATE, RIBOFLAVIN, FOLIC ACID), STARTER, WATER, WHEAT BRAN, SALT." Date available: 07/14/2017 Date last updated by company: 07/14/2017
