Source: USDA Branded Food Products Database Release December 2017 Software v.3.8.6.4 2017-10-02
Report Run at: December 18, 2017 03:32 EST
"Nutrient data for: 45249116, SOUR TOWER, UPC: 793216050616"
Food Group:  Branded Food Products Database
Common Name:

Nutrient,Unit,Data points,Std. Error,"0.1 STICK = 5.0g",1Value per 100 g,
Proximates
"Energy",kcal,--,--,19,380
"Protein",g,--,--,0.00,0.00
"Total lipid (fat)",g,--,--,0.10,2.00
"Carbohydrate, by difference",g,--,--,4.30,86.00
"Sugars, total",g,--,--,2.80,56.00
Minerals
"Sodium, Na",mg,--,--,3,60
Vitamins
Lipids
"Fatty acids, total saturated",g,--,--,0.100,2.000
"Fatty acids, total trans",g,--,--,0.000,0.000
Amino Acids
Other
Ingredients
"GLUCOSE, SUGAR, DEXTROSE, MODIFIED FOOD STARCH, CITRIC ACID, HYDROGENATED SOYBEAN OIL, GLYCEROL MONOSTEARATE, ARTIFICIAL FLAVORS, HYDROLYZED SOY PROTEIN, TITANIUM DIOXIDE, FD & C: BLUE #1, SOYA LECITHIN AND FD & C RED #40, YELLOW #5, YELLOW #6." Date available: 07/14/2017 Date last updated by company: 07/14/2017
