Source: USDA Branded Food Products Database Release December 2017 Software v.3.8.6.4 2017-10-02
Report Run at: December 18, 2017 03:18 EST
"Nutrient data for: 45260496, SOUR CREAM CAKE DONUT HOLES, UPC: 709129005100"
Food Group:  Branded Food Products Database
Common Name:

Nutrient,Unit,Data points,Std. Error,"2.5 ONZ = 71.0g",1Value per 100 g,
Proximates
"Energy",kcal,--,--,360,507
"Protein",g,--,--,3.00,4.23
"Total lipid (fat)",g,--,--,22.00,30.99
"Carbohydrate, by difference",g,--,--,36.00,50.70
"Fiber, total dietary",g,--,--,1.0,1.4
"Sugars, total",g,--,--,22.00,30.99
Minerals
"Calcium, Ca",mg,--,--,20,28
"Iron, Fe",mg,--,--,0.56,0.79
"Phosphorus, P",mg,--,--,77,109
"Potassium, K",mg,--,--,75,106
"Sodium, Na",mg,--,--,270,380
Vitamins
"Vitamin C, total ascorbic acid",mg,--,--,0.0,0.0
"Vitamin A, IU",IU,--,--,0,0
Lipids
"Fatty acids, total saturated",g,--,--,9.997,14.080
"Fatty acids, total trans",g,--,--,0.000,0.000
"Cholesterol",mg,--,--,40,56
Amino Acids
Other
Ingredients
"ENRICHED FLOUR (WHEAT FLOUR, NIACIN, IRON, THIAMINE MONONITRATE, RIBOFLAVIN, FOLIC ACID), WATER, SUGAR, CAKE DONUT CONCENTRATE (SOY FLOUR, DEXTROSE, EGG YOLK, WHEY, SODIUM BICARBONATE, SALT, WHOLE EGG, SODIUM ACID PYROPHOSPHATE, NATURAL AND ARTIFICIAL FLAVORS, WHEAT STARCH, GLUCONA DELTA LACTONE, SOY LECITHIN, GUAR GUM, DISTILLED MONOGLYCERIDES, DISTILLED PROPYLENE GLYCOL MONOESTERS, SORBIC ACID AND SODIUM STEAROYL LACTYLATE), TALLOW WITH MIXED TOCOPHEROLS, SOY OIL, NATURAL AND ARTIFICIAL SOUR CREAM FLAVOR. GLAZE: WATER, POWDERED SUGAR, CORN STARCH" Date available: 07/14/2017 Date last updated by company: 07/14/2017
