Source: USDA Branded Food Products Database Release December 2017 Software v.3.8.6.4 2017-10-02
Report Run at: December 18, 2017 03:32 EST
"Nutrient data for: 45215264, SOUR WATERMELON, UPC: 075725730051"
Food Group:  Branded Food Products Database
Common Name:

Nutrient,Unit,Data points,Std. Error,"7.0 PIECES = 38.0g",1Value per 100 g,
Proximates
"Energy",kcal,--,--,130,342
"Protein",g,--,--,0.00,0.00
"Total lipid (fat)",g,--,--,0.00,0.00
"Carbohydrate, by difference",g,--,--,32.00,84.21
"Fiber, total dietary",g,--,--,0.0,0.0
"Sugars, total",g,--,--,23.00,60.53
Minerals
"Calcium, Ca",mg,--,--,0,0
"Iron, Fe",mg,--,--,0.00,0.00
"Sodium, Na",mg,--,--,25,66
Vitamins
"Vitamin C, total ascorbic acid",mg,--,--,0.0,0.0
"Vitamin A, IU",IU,--,--,0,0
Lipids
"Fatty acids, total saturated",g,--,--,0.000,0.000
"Fatty acids, total trans",g,--,--,0.000,0.000
"Cholesterol",mg,--,--,0,0
Amino Acids
Other
Ingredients
"SUGAR, CORN SYRUP, FOOD STARCH-MODIFIED, CITRIC ACID, TARTARIC ACID, SODIUM CITRATE, LACTIC ACID, ARTIFICIAL WATERMELON FLAVOR, TITANIUM DIOXIDE, RED 40, YELLOW 5, BLUE 1." Date available: 07/14/2017 Date last updated by company: 07/14/2017
