Source: USDA Branded Food Products Database Release December 2017 Software v.3.8.6.4 2017-10-02
Report Run at: December 18, 2017 03:27 EST
"Nutrient data for: 45147012, SOUR GUMMY WORMS, UPC: 819893022224"
Food Group:  Branded Food Products Database
Common Name:

Nutrient,Unit,Data points,Std. Error,"9.0 PIECES = 40.0g",1Value per 100 g,
Proximates
"Energy",kcal,--,--,120,300
"Protein",g,--,--,2.00,5.00
"Total lipid (fat)",g,--,--,0.00,0.00
"Carbohydrate, by difference",g,--,--,30.00,75.00
"Sugars, total",g,--,--,20.00,50.00
Minerals
"Sodium, Na",mg,--,--,10,25
Vitamins
Lipids
"Fatty acids, total trans",g,--,--,0.000,0.000
Amino Acids
Other
Ingredients
"CORN SYRUP, SUGAR, GELATIN, LACTIC ACID, CITRIC ACID, NATURAL AND ARTIFICIAL FLAVORS, PECTIN, SORBITOL, TITANIUM DIOXIDE, YELLOW 5, YELLOW 6, BLUE 1, RED 40." Date available: 07/14/2017 Date last updated by company: 07/14/2017
