Source: USDA Branded Food Products Database Release December 2017 Software v.3.8.6.4 2017-10-02
Report Run at: December 18, 2017 03:18 EST
"Nutrient data for: 45099300, SOUR CHERRY, UPC: 757645018555"
Food Group:  Branded Food Products Database
Common Name:

Nutrient,Unit,Data points,Std. Error,"4.0 PIECES = 40.0g",1Value per 100 g,
Proximates
"Energy",kcal,--,--,130,325
"Protein",g,--,--,1.00,2.50
"Total lipid (fat)",g,--,--,0.50,1.25
"Carbohydrate, by difference",g,--,--,29.00,72.50
"Fiber, total dietary",g,--,--,0.0,0.0
"Sugars, total",g,--,--,13.00,32.50
Minerals
"Calcium, Ca",mg,--,--,0,0
"Iron, Fe",mg,--,--,0.00,0.00
"Sodium, Na",mg,--,--,0,0
Vitamins
Lipids
Amino Acids
Other
Ingredients
"ORGANIC WHEAT FLOUR, ORGANIC SUGAR, CORN SYRUP, ORGANIC TAPIOCA SYRUP, VEGETABLE GLYCERIN, NATURAL CHERRY FLAVOR, CITRIC ACID, SUNFLOWER OIL, ELDERBERRY EXTRACT, MALIC ACID, LICORICE ROOT EXTRACT." Date available: 09/23/2017 Date last updated by company: 09/23/2017
