Source: USDA Branded Food Products Database Release December 2017 Software v.3.8.6.4 2017-10-02
Report Run at: December 18, 2017 03:25 EST
"Nutrient data for: 45051885, SOURDOUGH PRETZEL PIECES, UPC: 020633000178"
Food Group:  Branded Food Products Database
Common Name:

Nutrient,Unit,Data points,Std. Error,"0.25 cup = 28.0g",1Value per 100 g,
Proximates
"Energy",kcal,--,--,130,464
"Protein",g,--,--,3.00,10.71
"Total lipid (fat)",g,--,--,6.00,21.43
"Carbohydrate, by difference",g,--,--,18.00,64.29
"Fiber, total dietary",g,--,--,1.0,3.6
"Sugars, total",g,--,--,0.00,0.00
Minerals
"Calcium, Ca",mg,--,--,0,0
"Iron, Fe",mg,--,--,0.64,2.29
"Sodium, Na",mg,--,--,280,1000
Vitamins
"Vitamin C, total ascorbic acid",mg,--,--,0.0,0.0
"Vitamin A, IU",IU,--,--,0,0
Lipids
"Fatty acids, total saturated",g,--,--,0.501,1.790
"Fatty acids, total trans",g,--,--,0.000,0.000
"Cholesterol",mg,--,--,0,0
Amino Acids
Other
Ingredients
"PRETZELS (WHEAT FLOUR, VEGETABLE FIBER, SALT, CORN OIL, MALT, HONEY, YEAST AND SODA), CANOLA OIL, RANCH SEASONING (MALTODEXTRIN, SALT, WHEY, MONOSODIUM GLUTAMATE, BUTTERMILK, GARLIC, LACTIC ACID, ONION, NON FAT DRY MILK, CITRIC ACID, SPICES, PARSLEY, SOYBEAN OIL, MALIC ACID, ARTIFICIAL FLAVOR, GARLIC OIL & LESS THAN 2% SILICON DIOXIDE AS A FLOW AGENT), SEASONED SALT (SALT, SUGAR, SPICES (INCLUDING PAPRIKA AND TURMERIC), ONION, CORNSTARCH, GARLIC, TRICALCIUM PHOSPHATE (PREVENTS CAKING) PAPRIKA OLEORESIN (FOR COLOR), NATURAL FLAVOR, SOY LECITHIN), GARLIC POWDER." Date available: 07/14/2017 Date last updated by company: 07/14/2017
