Source: USDA Branded Food Products Database Release December 2017 Software v.3.8.6.4 2017-10-02
Report Run at: December 18, 2017 03:30 EST
"Nutrient data for: 45263471, SOUR PICKLES, UPC: 070152501021"
Food Group:  Branded Food Products Database
Common Name:

Nutrient,Unit,Data points,Std. Error,"1 PICKLE | ABOUT = 28.0g",1Value per 100 g,
Proximates
"Energy",kcal,--,--,5,18
"Protein",g,--,--,0.00,0.00
"Total lipid (fat)",g,--,--,0.00,0.00
"Carbohydrate, by difference",g,--,--,1.00,3.57
"Sugars, total",g,--,--,1.00,3.57
Minerals
"Sodium, Na",mg,--,--,370,1321
Vitamins
Lipids
Amino Acids
Other
Ingredients
"CUCUMBERS, WATER, VINEGAR, SALT, ALUM, CALCIUM CHLORIDE, NATURAL FLAVORING, SODIUM BENZOATE & POTASSIUM SORBATE (PRESERVATIVES), OLEORESIN TURMERIC & YELLOW #5 (COLORS), POLYSORBATE 80 (EMULSIFIER)" Date available: 07/14/2017 Date last updated by company: 07/14/2017
