Source: USDA Branded Food Products Database Release December 2017 Software v.3.8.6.4 2017-10-02
Report Run at: December 18, 2017 03:26 EST
"Nutrient data for: 45284760, SOURDOUGH, UPC: 701990000468"
Food Group:  Branded Food Products Database
Common Name:

Nutrient,Unit,Data points,Std. Error,"1 SLICE = 44.0g",1Value per 100 g,
Proximates
"Energy",kcal,--,--,93,211
"Protein",g,--,--,3.00,6.82
"Total lipid (fat)",g,--,--,0.00,0.00
"Carbohydrate, by difference",g,--,--,20.00,45.45
"Fiber, total dietary",g,--,--,1.0,2.3
"Sugars, total",g,--,--,1.00,2.27
Minerals
"Calcium, Ca",mg,--,--,30,68
"Iron, Fe",mg,--,--,1.23,2.79
"Sodium, Na",mg,--,--,291,661
Vitamins
"Vitamin C, total ascorbic acid",mg,--,--,0.0,0.0
"Vitamin A, IU",IU,--,--,0,0
Lipids
"Fatty acids, total saturated",g,--,--,0.000,0.000
"Cholesterol",mg,--,--,0,0
Amino Acids
Other
Ingredients
"UNBLEACHED-UNBROMATED FLOUR, WATER, SALT, WHEAT GERM." Date available: 07/20/2017 Date last updated by company: 07/20/2017
