Source: USDA Branded Food Products Database Release December 2017 Software v.3.8.6.4 2017-10-02
Report Run at: December 18, 2017 03:33 EST
"Nutrient data for: 45234643, SOUTH BEACH DIET, PROTEIN + HIGH FIBER SNACK BARS, FUDGY CHOCOLATE MINT, UPC: 855919005864"
Food Group:  Branded Food Products Database
Common Name:

Nutrient,Unit,Data points,Std. Error,"1 BAR = 28.0g",1Value per 100 g,
Proximates
"Energy",kcal,--,--,100,357
"Protein",g,--,--,6.00,21.43
"Total lipid (fat)",g,--,--,4.00,14.29
"Carbohydrate, by difference",g,--,--,14.00,50.00
"Fiber, total dietary",g,--,--,6.0,21.4
"Sugars, total",g,--,--,5.00,17.86
Minerals
"Calcium, Ca",mg,--,--,100,357
"Iron, Fe",mg,--,--,2.06,7.35
"Potassium, K",mg,--,--,95,339
"Sodium, Na",mg,--,--,85,304
Vitamins
"Vitamin C, total ascorbic acid",mg,--,--,0.0,0.0
"Vitamin A, IU",IU,--,--,0,0
Lipids
"Fatty acids, total saturated",g,--,--,1.999,7.140
"Fatty acids, total trans",g,--,--,0.000,0.000
"Cholesterol",mg,--,--,0,0
Amino Acids
Other
Ingredients
"CHICORY ROOT FIBER, PROTEIN BLEND (SOY PROTEIN ISOLATE, CALCIUM CASEINATE, WHEY PROTEIN ISOLATE, SOY PROTEIN NUGGETS [SOY PROTEIN ISOLATE, COCOA (PROCESSED WITH ALKALI), TAPIOCA STARCH], SUGAR, TAPIOCA SYRUP, COCOA (PROCESSED WITH ALKALI), FRACTIONATED PALM KERNEL OIL, HIGH OLEIC SUNFLOWER OIL, WATER, SOLUBLE CORN FIBER, ROLLED OATS, SOY LECITHIN, CALCIUM CARBONATE, OAT FIBER, NATURAL FLAVOR, ORGANIC AGAVE SYRUP, LACTOSE, MALTODEXTRIN, DEXTROSE, SALT, STEVIA EXTRACT, TOCOPHEROLS ADDED TO PROTECT FLAVOR, SOYBEAN OIL." Date available: 07/14/2017 Date last updated by company: 07/14/2017
