Source: USDA Branded Food Products Database Release December 2017 Software v.3.8.6.4 2017-10-02
Report Run at: December 18, 2017 03:33 EST
"Nutrient data for: 45316693, SOUTHERN CARAMEL CRUNCH PREMIUM ICE CREAM, UPC: 087932003422"
Food Group:  Branded Food Products Database
Common Name:

Nutrient,Unit,Data points,Std. Error,"0.5 cup = 67.0g",1Value per 100 g,
Proximates
"Energy",kcal,--,--,160,239
"Protein",g,--,--,2.00,2.99
"Total lipid (fat)",g,--,--,7.00,10.45
"Carbohydrate, by difference",g,--,--,23.00,34.33
"Fiber, total dietary",g,--,--,0.0,0.0
"Sugars, total",g,--,--,18.00,26.87
Minerals
"Calcium, Ca",mg,--,--,80,119
"Iron, Fe",mg,--,--,0.00,0.00
"Sodium, Na",mg,--,--,70,104
Vitamins
"Vitamin C, total ascorbic acid",mg,--,--,0.0,0.0
"Vitamin A, IU",IU,--,--,225,336
Lipids
"Fatty acids, total saturated",g,--,--,4.000,5.970
"Fatty acids, total trans",g,--,--,0.000,0.000
"Cholesterol",mg,--,--,25,37
Amino Acids
Other
Ingredients
"MILKFAT AND NONFAT MILK, SUGAR, CARAMEL VARIEGATE [CORN SYRUP, SUGAR, WATER, NONFAT MILK SOLIDS, BUTTER (CREAM, SALT), MOLASSES, SALT, PECTIN], CORN SYRUP, TOFFEE CHIPS [SUGAR, BUTTER (CREAM, SALT), MILK CHOCOLATE (SUGAR, COCOA BUTTER, MILK, CHOCOLATE LIQUOR, SOY LECITHIN, VANILLA), CORN SYRUP, ALMONDS, BROWN SUGAR, CREAM, SALT, VANILLA, SOY LECITHIN], WHEY, CONTAINS LESS THAN 2% OF GUAR GUM, MONO AND DIGLYCERIDES, XANTHAN GUM, POLYSORBATE 80, CELLULOSE GUM, CARRAGEENAN, NATURAL FLAVOR." Date available: 07/14/2017 Date last updated by company: 07/14/2017
