Source: USDA Branded Food Products Database Release December 2017 Software v.3.8.6.4 2017-10-02
Report Run at: December 18, 2017 03:34 EST
"Nutrient data for: 45222793, SOUTHERN COMFORT, EGG NOG, VANILLA SPICE, UPC: 852251000021"
Food Group:  Branded Food Products Database
Common Name:

Nutrient,Unit,Data points,Std. Error,"0.5 cup = 120.0g",1Value per 100 g,
Proximates
"Energy",kcal,--,--,210,175
"Protein",g,--,--,4.00,3.33
"Total lipid (fat)",g,--,--,9.00,7.50
"Carbohydrate, by difference",g,--,--,29.00,24.17
"Fiber, total dietary",g,--,--,0.0,0.0
"Sugars, total",g,--,--,23.00,19.17
Minerals
"Calcium, Ca",mg,--,--,150,125
"Iron, Fe",mg,--,--,0.00,0.00
"Sodium, Na",mg,--,--,100,83
Vitamins
"Vitamin C, total ascorbic acid",mg,--,--,0.0,0.0
"Vitamin A, IU",IU,--,--,300,250
Lipids
"Fatty acids, total saturated",g,--,--,5.004,4.170
"Fatty acids, total trans",g,--,--,0.000,0.000
"Cholesterol",mg,--,--,70,58
Amino Acids
Other
Ingredients
"MILK, CREAM, HIGH FRUCTOSE CORN SYRUP, CORN SYRUP, SUGAR, EGG YOLKS, FAT FREE MILK, NATURAL AND ARTIFICIAL FLAVORS, SPICE, GUAR GUM, CARRAGEENAN, MONO AND DIGLYCERIDES, SALT AND DISODIUM PHOSPHATE." Date available: 07/14/2017 Date last updated by company: 07/14/2017
