Source: USDA Branded Food Products Database Release December 2017 Software v.3.8.6.4 2017-10-02
Report Run at: December 18, 2017 03:33 EST
"Nutrient data for: 45231325, SOUTHERN CLASSICS BUTTER PEAS, UPC: 070560825320"
Food Group:  Branded Food Products Database
Common Name:

Nutrient,Unit,Data points,Std. Error,"0.5 cup = 80.0g",1Value per 100 g,
Proximates
"Energy",kcal,--,--,110,138
"Protein",g,--,--,7.00,8.75
"Total lipid (fat)",g,--,--,0.00,0.00
"Carbohydrate, by difference",g,--,--,20.00,25.00
"Fiber, total dietary",g,--,--,4.0,5.0
"Sugars, total",g,--,--,1.00,1.25
Minerals
"Calcium, Ca",mg,--,--,40,50
"Iron, Fe",mg,--,--,1.91,2.39
"Sodium, Na",mg,--,--,115,144
Vitamins
"Vitamin C, total ascorbic acid",mg,--,--,1.3,1.6
"Vitamin A, IU",IU,--,--,0,0
Lipids
"Fatty acids, total saturated",g,--,--,0.000,0.000
"Fatty acids, total trans",g,--,--,0.000,0.000
"Cholesterol",mg,--,--,0,0
Amino Acids
Other
Ingredients
"BUTTER PEAS, WATER." Date available: 07/14/2017 Date last updated by company: 07/14/2017
