Source: USDA Branded Food Products Database Release December 2017 Software v.3.8.6.4 2017-10-02
Report Run at: December 18, 2017 03:39 EST
"Nutrient data for: 45266925, SOUTHERN STYLE CHICKEN BISCUIT, UPC: 071421109306"
Food Group:  Branded Food Products Database
Common Name:

Nutrient,Unit,Data points,Std. Error,"1 SANDWICH = 167.0g",1Value per 100 g,
Proximates
"Energy",kcal,--,--,479,287
"Protein",g,--,--,19.00,11.38
"Total lipid (fat)",g,--,--,21.99,13.17
"Carbohydrate, by difference",g,--,--,51.00,30.54
"Fiber, total dietary",g,--,--,1.0,0.6
"Sugars, total",g,--,--,4.01,2.40
Minerals
"Calcium, Ca",mg,--,--,150,90
"Iron, Fe",mg,--,--,2.25,1.35
"Sodium, Na",mg,--,--,1091,653
Vitamins
"Vitamin C, total ascorbic acid",mg,--,--,0.0,0.0
"Vitamin A, IU",IU,--,--,0,0
Lipids
"Fatty acids, total saturated",g,--,--,5.995,3.590
"Fatty acids, total trans",g,--,--,4.492,2.690
"Cholesterol",mg,--,--,35,21
Amino Acids
Other
Ingredients
"BISCUIT: ENRICHED BLEACHED WHEAT FLOUR (WHEAT FLOUR, NIACIN, REDUCED IRON, THIAMINE MONONITRATE, RIBOFLAVIN, FOLIC ACID, ENZYMES), WATER, PARTIALLY HYDROGENATED SOYBEAN AND COTTONSEED OILS, DRY WHEY, CALCIUM SULFATE, BUTTERMILK SOLIDS, CONTAINS 2% OR LESS OF: DEXTROSE, SODIUM ALUMINUM PHOSPHATE, SALT, SODIUM BICARBONATE, CALCIUM PROPIONATE [PRESERVATIVE], METHYLCELLULOSE, ADIPIC ACID, SOY LECITHIN, ARTIFICIAL BUTTER FLAVOR, BETA CAROTENE [COLOR], FULLY COOKED BREADED CHICKEN BREAST FILLET (SHAPED - WITH RIB MEAT): CHICKEN BREAST WITH RIB MEAT, WATER, BLEACHED WHEAT FLOUR, WHEAT FLOUR , SALT, FLAVORINGS, SODIUM PHOSPHATES, LEAVENING (SODIUM ACID PYROPHOSPHATE, SODIUM BICARBONATE, MONOCALCIUM PHOSPHATE), AUTOLYZED YEAST, SUGAR." Date available: 07/14/2017 Date last updated by company: 07/14/2017
