Source: USDA Branded Food Products Database Release December 2017 Software v.3.8.6.4 2017-10-02
Report Run at: December 18, 2017 03:36 EST
"Nutrient data for: 45185227, SOUTHERN HOME, ICE CREAM, UPC: 607880040975"
Food Group:  Branded Food Products Database
Common Name:

Nutrient,Unit,Data points,Std. Error,"0.5 cup = 68.0g",1Value per 100 g,
Proximates
"Energy",kcal,--,--,150,221
"Protein",g,--,--,3.00,4.41
"Total lipid (fat)",g,--,--,7.00,10.29
"Carbohydrate, by difference",g,--,--,20.00,29.41
"Fiber, total dietary",g,--,--,0.0,0.0
"Sugars, total",g,--,--,15.00,22.06
Minerals
"Calcium, Ca",mg,--,--,80,118
"Iron, Fe",mg,--,--,0.00,0.00
"Sodium, Na",mg,--,--,90,132
Vitamins
"Vitamin C, total ascorbic acid",mg,--,--,0.0,0.0
"Vitamin A, IU",IU,--,--,225,331
Lipids
"Fatty acids, total saturated",g,--,--,4.502,6.620
"Fatty acids, total trans",g,--,--,0.000,0.000
"Cholesterol",mg,--,--,25,37
Amino Acids
Other
Ingredients
"SKIM MILK, CREAM, SUGAR, COOKIE PIECES (SUGAR, ENRICHED WHEAT FLOUR [WHEAT FLOUR, NIACIN, REDUCED IRON, THIAMIN MONONITRATE, RIBOFLAVIN, FOLIC ACID], VEGETABLE OILS (PALM AND SOYBEAN), COCOA PROCESSED WITH ALKALI, INVERT SUGAR, CONTAINS 2% OR LESS OF YELLOW CORN FLOUR, CHOCOLATE LIQUOR, CORNSTARCH, SALT, BAKING SODA, WHEY, NATURAL FLAVOR, SOY LECITHIN), CORN SYRUP, WHEY, CONTAINS 2% OR LESS OF MONO- AND DIGLYCERIDES, GUAR GUM, CALCIUM SULFATE, LOCUST BEAN GUM, CARRAGEENAN, VANILLA EXTRACT, ANNATTO COLOR." Date available: 07/14/2017 Date last updated by company: 07/14/2017
