Source: USDA Branded Food Products Database Release December 2017 Software v.3.8.6.4 2017-10-02
Report Run at: December 18, 2017 03:42 EST
"Nutrient data for: 45262059, SOUTHWEST CHICKEN FOR FAJITAS, UPC: 817095012319"
Food Group:  Branded Food Products Database
Common Name:

Nutrient,Unit,Data points,Std. Error,"4.0 ONZ = 112.0g",1Value per 100 g,
Proximates
"Energy",kcal,--,--,110,98
"Protein",g,--,--,20.00,17.86
"Total lipid (fat)",g,--,--,2.50,2.23
"Carbohydrate, by difference",g,--,--,1.00,0.89
"Fiber, total dietary",g,--,--,0.0,0.0
"Sugars, total",g,--,--,0.00,0.00
Minerals
"Calcium, Ca",mg,--,--,40,36
"Iron, Fe",mg,--,--,0.55,0.49
"Sodium, Na",mg,--,--,650,580
Vitamins
"Vitamin C, total ascorbic acid",mg,--,--,0.0,0.0
"Vitamin A, IU",IU,--,--,0,0
Lipids
"Fatty acids, total saturated",g,--,--,0.504,0.450
"Fatty acids, total trans",g,--,--,0.000,0.000
"Cholesterol",mg,--,--,60,54
Amino Acids
Other
Ingredients
"CHICKEN CONTAINS UP TO 22% OF THE FOLLOWING, WATER, SEASONING (SALT, MONOSODIUM GLUTAMATE, SODIUM PHOSPHATE, SPICES, DRY GARLIC DRY ONION, CHIPOTLE PEPPER, WITH NO MORE THAN 2% SILICON DIOXIDE AND/OR SOYBEAN OIL, ADDED TO PREVENT CAKING)., BOMBAL (SODIUM ACETATE, SODIUM DIACETATE, POTASSIUM CHLORIDE, SALT, SILICON DIOXIDE (ANTI-CAKING AGENT])." Date available: 07/14/2017 Date last updated by company: 07/14/2017
