Source: USDA Branded Food Products Database Release December 2017 Software v.3.8.6.4 2017-10-02
Report Run at: December 18, 2017 03:44 EST
"Nutrient data for: 45197424, SOUTHWESTERN STYLE SAUSAGE GRAVY & CORNBREAD, UPC: 050100142247"
Food Group:  Branded Food Products Database
Common Name:

Nutrient,Unit,Data points,Std. Error,"0.25 PACKAGE = 212.0g",1Value per 100 g,
Proximates
"Energy",kcal,--,--,430,203
"Protein",g,--,--,7.00,3.30
"Total lipid (fat)",g,--,--,18.00,8.49
"Carbohydrate, by difference",g,--,--,58.00,27.36
"Fiber, total dietary",g,--,--,1.9,0.9
"Sugars, total",g,--,--,24.99,11.79
Minerals
"Calcium, Ca",mg,--,--,81,38
"Iron, Fe",mg,--,--,1.44,0.68
"Potassium, K",mg,--,--,140,66
"Sodium, Na",mg,--,--,971,458
Vitamins
"Vitamin C, total ascorbic acid",mg,--,--,0.0,0.0
"Vitamin A, IU",IU,--,--,0,0
Lipids
"Fatty acids, total saturated",g,--,--,4.007,1.890
"Fatty acids, total trans",g,--,--,0.000,0.000
"Cholesterol",mg,--,--,45,21
Amino Acids
Other
Ingredients
"SOUTHWESTERN STYLE SAUSAGE GRAVY: WATER, SAUSAGE CRUMBLE (PORK, MECHANICALLY SEPARATED TURKEY, SOY PROTEIN CONCENTRATE, SALT, CONTAINS LESS THAN 2% OF: SUGAR, SPICES, DEXTROSE, NATURAL FLAVOR, CITRIC ACID, BHA, BHT), SOYBEAN OIL, RED BELL PEPPERS, GREEN B" Date available: 11/11/2016 Date last updated by company: 11/11/2016
