Source: USDA Branded Food Products Database Release December 2017 Software v.3.8.6.4 2017-10-02
Report Run at: December 18, 2017 03:41 EST
"Nutrient data for: 45215531, SOUTHERN STYLE THIN CRUST PIZZA, UPC: 077890355671"
Food Group:  Branded Food Products Database
Common Name:

Nutrient,Unit,Data points,Std. Error,"0.25 PIZZA = 141.0g",1Value per 100 g,
Proximates
"Energy",kcal,--,--,290,206
"Protein",g,--,--,14.00,9.93
"Total lipid (fat)",g,--,--,10.00,7.09
"Carbohydrate, by difference",g,--,--,37.00,26.24
"Fiber, total dietary",g,--,--,2.0,1.4
"Sugars, total",g,--,--,5.01,3.55
Minerals
"Calcium, Ca",mg,--,--,149,106
"Iron, Fe",mg,--,--,1.99,1.41
"Sodium, Na",mg,--,--,760,539
Vitamins
"Vitamin C, total ascorbic acid",mg,--,--,8.3,5.9
"Vitamin A, IU",IU,--,--,1036,735
Lipids
"Fatty acids, total saturated",g,--,--,4.004,2.840
"Fatty acids, total trans",g,--,--,0.000,0.000
"Cholesterol",mg,--,--,30,21
Amino Acids
Other
Ingredients
"CRUST (FLOUR [WHEAT FLOUR, ENZYME], WATER, SUGAR, SOYBEAN OIL, YEAST, BREAD CRUMBS [WHEAT FLOUR, YEAST, SUGAR, SALT], SALT, HONEY, SOY LECITHIN [PROCESSING AID], SOYBEAN OH), TACO SAUCE (WATER, TOMATO PASTE, VINEGAR, SUGAR, SALT, SPICES INCLUDING CHILI PEPPER, DEXTROSE, GARLIC AND ONION, NATURAL FLAVORS, EXTRACTIVE OF PAPRIKA), CHEESES (LOW MOISTURE PART SKIM MOZZARELLA CHEESE [PASTEURIZED PART SKIM MILK, CHEESE CULTURES, SALT, ENZYMES], YELLOW CHEDDAR CHEESE [PASTEURIZED MILK, CHEESE CULTURE, SALT ENZYMES, ANNATTO]), CHICKEN BLEND (WHITE CHICKEN [CHICKEN, WATER, MODIFIED POTATO STARCH, SALT, SEASONING [NATURAL FLAVOR {CONTAINS TORULA YEAST}, SODIUM PHOSPHATE], OLIVE OIL, SOUTHWEST SEASONING [CHILI POWDER {CHILI POWDER CUMIN, SALT, OREGANO, NATURAL FLAVORS, PEPPER}, SPICES INCLUDING PAPRIKA, SALT, DEHYDRATED ONION AND GARLIC], CILANTRO), RED PEPPERS, GREEN PEPPERS, YELLOW ONIONS." Date available: 07/14/2017 Date last updated by company: 07/14/2017
