Source: USDA Branded Food Products Database Release December 2017 Software v.3.8.6.4 2017-10-02
Report Run at: December 18, 2017 03:47 EST
"Nutrient data for: 45164649, SOUTHWEST TRAIL MIX, UPC: 071725750709"
Food Group:  Branded Food Products Database
Common Name:

Nutrient,Unit,Data points,Std. Error,"0.25 cup = 31.0g",1Value per 100 g,
Proximates
"Energy",kcal,--,--,160,516
"Protein",g,--,--,6.00,19.35
"Total lipid (fat)",g,--,--,11.00,35.48
"Carbohydrate, by difference",g,--,--,12.00,38.71
"Fiber, total dietary",g,--,--,2.0,6.5
"Sugars, total",g,--,--,1.00,3.23
Minerals
"Calcium, Ca",mg,--,--,0,0
"Iron, Fe",mg,--,--,1.16,3.75
"Sodium, Na",mg,--,--,270,871
Vitamins
"Vitamin C, total ascorbic acid",mg,--,--,0.0,0.0
"Vitamin A, IU",IU,--,--,0,0
Lipids
"Fatty acids, total saturated",g,--,--,2.000,6.450
"Fatty acids, total trans",g,--,--,0.000,0.000
"Cholesterol",mg,--,--,0,0
Amino Acids
Other
Ingredients
"PEANUTS (PEANUTS, PEANUT OIL, SALT), ROASTED CORN (CORN, SUNFLOWER OIL, SALT), SUNFLOWER KERNELS (SUNFLOWER KERNELS, PEANUTS OIL AND/OR COTTONSEED OIL, SALT). SESAME STICKS (ENRICHED WHEAT FLOUR [WHEAT FLOUR, MALTED BARLEY FLOUR, NIACIN, REDUCED IRON, THIAMINE MONONITRATE, RIBOFLAVIN, FOLIC ACID], SOYBEAN OIL, SESAME SEEDS, BULGUR WHEAT, SALT, BEET POWDER [COLOR], TURMERIC [COLOR]), CHILI CRACKERS (GLUTINOUS RICE, SOY SAUCE [WATER, SOYBEANS, WHEAT, SALT], SUGAR, MODIFIED TAPIOCA STARCH, CHILI POWDER, YELLOW 6, YELLOW 5), SEASONING (SALT, SPICES, DEXTROSE, YELLOW CORN FLOUR, ONION POWDER, MONOSODIUM GLUTAMATE, HYDROLYZED CORN PROTEIN, GARLIC POWDER, TOMATO POWDER, EXTRACTIVES OF PAPRIKA, NATURAL FLAVOR, CARAMEL COLOR)." Date available: 07/14/2017 Date last updated by company: 07/14/2017
