Source: USDA Branded Food Products Database Release December 2017 Software v.3.8.6.4 2017-10-02
Report Run at: December 18, 2017 03:44 EST
"Nutrient data for: 45288461, SOUTHWESTERN-STYLE TURKEY, UPC: 085239000656"
Food Group:  Branded Food Products Database
Common Name:

Nutrient,Unit,Data points,Std. Error,"2.0 ONZ = 56.0g",1Value per 100 g,
Proximates
"Energy",kcal,--,--,50,89
"Protein",g,--,--,9.00,16.07
"Total lipid (fat)",g,--,--,1.50,2.68
"Carbohydrate, by difference",g,--,--,1.00,1.79
"Fiber, total dietary",g,--,--,0.0,0.0
"Sugars, total",g,--,--,1.00,1.79
Minerals
"Calcium, Ca",mg,--,--,0,0
"Iron, Fe",mg,--,--,0.71,1.26
"Sodium, Na",mg,--,--,490,875
Vitamins
"Vitamin C, total ascorbic acid",mg,--,--,0.0,0.0
"Vitamin A, IU",IU,--,--,295,526
Lipids
"Fatty acids, total saturated",g,--,--,0.392,0.700
"Fatty acids, total trans",g,--,--,0.000,0.000
"Cholesterol",mg,--,--,30,54
Amino Acids
Other
Ingredients
"TURKEY BREAST, TURKEY BROTH, LESS THAN 2% SALT, DEXTROSE, SODIUM PHOSPHATE. COATED WITH: CORN MALTODEXTRIN, SPICES, SALT, ONION POWDER, GARLIC POWDER, SUGAR, PAPRIKA EXTRACT, NATURAL FLAVORS, ARTIFICIAL FLAVORS." Date available: 10/03/2017 Date last updated by company: 10/03/2017
