Source: USDA Branded Food Products Database Release December 2017 Software v.3.8.6.4 2017-10-02
Report Run at: December 18, 2017 03:32 EST
"Nutrient data for: 45048044, SOUT GUMMIES, UPC: 660973114243"
Food Group:  Branded Food Products Database
Common Name:

Nutrient,Unit,Data points,Std. Error,"5.0 GUMMIES PER CONTAINER ABOUT = 38.0g",1Value per 100 g,
Proximates
"Energy",kcal,--,--,130,342
"Protein",g,--,--,2.00,5.26
"Total lipid (fat)",g,--,--,0.50,1.32
"Carbohydrate, by difference",g,--,--,28.00,73.68
"Sugars, total",g,--,--,21.00,55.26
Minerals
"Sodium, Na",mg,--,--,30,79
Vitamins
Lipids
"Fatty acids, total saturated",g,--,--,0.000,0.000
"Fatty acids, total trans",g,--,--,0.000,0.000
Amino Acids
Other
Ingredients
"SUGAR, CORN SYRUP, WATER, GELATIN SORBITOL, CONTAINS 2% OR LESS OF: CITRIC ACID, LACTIC ACID, SODIUM, LACTATE), SODIUM CITRATE, ARTIFICIAL FLAVORS, POTASSIUM SORBATE (PRESERVATIVE), FD&C RED NO. 40, YELLOW NO. 5, YELLOW NO. 6, BLUE NO. 1, COLORED WITH TURMERIC." Date available: 06/25/2017 Date last updated by company: 06/25/2017
