Source: USDA Branded Food Products Database Release December 2017 Software v.3.8.6.4 2017-10-02
Report Run at: December 18, 2017 03:40 EST
"Nutrient data for: 45228588, SOUTHERN STYLE COUNTRY GRAVY MIX, UPC: 074826846111"
Food Group:  Branded Food Products Database
Common Name:

Nutrient,Unit,Data points,Std. Error,"0.25 CUP PREPARED | MAKES = 9.0g",1Value per 100 g,
Proximates
"Energy",kcal,--,--,40,444
"Protein",g,--,--,0.00,0.00
"Total lipid (fat)",g,--,--,2.00,22.22
"Carbohydrate, by difference",g,--,--,5.00,55.56
"Fiber, total dietary",g,--,--,0.0,0.0
"Sugars, total",g,--,--,1.00,11.11
Minerals
"Calcium, Ca",mg,--,--,0,0
"Iron, Fe",mg,--,--,0.00,0.00
"Sodium, Na",mg,--,--,230,2556
Vitamins
"Vitamin C, total ascorbic acid",mg,--,--,0.0,0.0
"Vitamin A, IU",IU,--,--,0,0
Lipids
"Fatty acids, total saturated",g,--,--,1.000,11.110
"Fatty acids, total monounsaturated",g,--,--,0.000,0.000
"Fatty acids, total polyunsaturated",g,--,--,0.000,0.000
"Fatty acids, total trans",g,--,--,0.000,0.000
"Cholesterol",mg,--,--,0,0
Amino Acids
Other
Ingredients
"MODIFIED CORNSTARCH, WHEAT FLOUR, WHEY, SOYBEAN OIL, COCONUT OIL, CORN SYRUP SOLIDS, SALT, MALTODEXTRIN, SUGAR, 2% OR LESS OF CHICKEN FAT, SPICE, XANTHAN GUM, DIPOTASSIUM PHOSPHATE, SODIUM CASEINATE, SOY LECITHIN, DISODIUM INOSINATE, DISODIUM GUANYLATE, YEAST EXTRACT, NATURAL FLAVORS, LACTIC ACID." Date available: 07/14/2017 Date last updated by company: 07/14/2017
