Source: USDA Branded Food Products Database Release December 2017 Software v.3.8.6.4 2017-10-02
Report Run at: December 18, 2017 03:44 EST
"Nutrient data for: 45268014, SOUTHWESTERN QUINOA GRAIN BOWL WITH CHICKEN, UPC: 688267173554"
Food Group:  Branded Food Products Database
Common Name:

Nutrient,Unit,Data points,Std. Error,"1 BOWL = 255.0g",1Value per 100 g,
Proximates
"Energy",kcal,--,--,291,114
"Protein",g,--,--,13.01,5.10
"Total lipid (fat)",g,--,--,3.49,1.37
"Carbohydrate, by difference",g,--,--,51.00,20.00
"Fiber, total dietary",g,--,--,7.9,3.1
"Sugars, total",g,--,--,1.99,0.78
Minerals
"Calcium, Ca",mg,--,--,61,24
"Iron, Fe",mg,--,--,2.07,0.81
"Sodium, Na",mg,--,--,370,145
Vitamins
"Vitamin C, total ascorbic acid",mg,--,--,6.9,2.7
"Vitamin A, IU",IU,--,--,574,225
Lipids
"Fatty acids, total saturated",g,--,--,0.000,0.000
"Fatty acids, total trans",g,--,--,0.000,0.000
"Cholesterol",mg,--,--,10,4
Amino Acids
Other
Ingredients
"COOKED BLACK BEANS (WATER, BLACK BEANS), COOKED BROWN RICE (WATER, BROWN RICE), TOMATOES, COOKED WHITE QUINOA (WATER, WHITE QUINOA), CHICKEN (CHICKEN BREAST WATER, RICE STARCH, CANOLA OIL, SALT, GARLIC, LEMON JUICE), SUPER SWEET YELLOW CORN, COOKED BARLEY (WATER, BARLEY), CILANTRO, CITRUS CHILI SAUCE (LEMON JUICE, WATER, CANOLA OIL, SPICES, SALT, ONION POWDER, SUGAR, XANTHAN GUM?), COOKED RED QUINOA (WATER, RED QUINOA)." Date available: 07/14/2017 Date last updated by company: 07/14/2017
