Source: USDA Branded Food Products Database Release December 2017 Software v.3.8.6.4 2017-10-02
Report Run at: December 18, 2017 03:46 EST
"Nutrient data for: 45195435, SOUTHWEST SOCKEYE SALMON BURGERS, UPC: 029714909331"
Food Group:  Branded Food Products Database
Common Name:

Nutrient,Unit,Data points,Std. Error,"4.0 ONZ = 113.0g",1Value per 100 g,
Proximates
"Energy",kcal,--,--,130,115
"Protein",g,--,--,15.00,13.27
"Total lipid (fat)",g,--,--,3.50,3.10
"Carbohydrate, by difference",g,--,--,8.99,7.96
"Fiber, total dietary",g,--,--,0.0,0.0
"Sugars, total",g,--,--,0.00,0.00
Minerals
"Calcium, Ca",mg,--,--,20,18
"Iron, Fe",mg,--,--,0.81,0.72
"Sodium, Na",mg,--,--,620,549
Vitamins
"Vitamin C, total ascorbic acid",mg,--,--,0.0,0.0
"Vitamin A, IU",IU,--,--,564,499
Lipids
"Fatty acids, total saturated",g,--,--,0.994,0.880
"Fatty acids, total trans",g,--,--,0.000,0.000
"Cholesterol",mg,--,--,31,27
Amino Acids
Other
Ingredients
"SOCKEYE SALMON (ONCORHYNCHUS NERKA), ROASTED RED ONION, NON-GMO CORN, BLACK BEANS (WATER, BLACK BEANS, SALT), RED BELL PEPPERS, VEGETABLE BASE (VEGETABLE PUREES [CARROT, CELERY, ONION], SALT, ONION POWDER, SUGAR, CORN OIL, POTATO STARCH, WATER, CARROT POWDER, EXTRACT OF CARROT, SPICE EXTRACTIVE), JALAPENO PEPPERS, GARLIC, CILANTRO, SEA SALT, POTATO FLAKES (DRIED POTATOES, MONO AND DIGLYCERIDES FROM VEGETABLE OIL [TO IMPROVE TEXTURE], CITRIC ACID), CUMIN, BLACK PEPPER, OREGANO, CAYENNE PEPPER." Date available: 07/14/2017 Date last updated by company: 07/14/2017
