Source: USDA Branded Food Products Database Release December 2017 Software v.3.8.6.4 2017-10-02
Report Run at: December 18, 2017 03:34 EST
"Nutrient data for: 45155546, SOUTHERN GROVE, INDULGENT TRAIL MIX, UPC: 041498181871"
Food Group:  Branded Food Products Database
Common Name:

Nutrient,Unit,Data points,Std. Error,"1 PACKAGE = 50.0g",1Value per 100 g,
Proximates
"Energy",kcal,--,--,250,500
"Protein",g,--,--,6.00,12.00
"Total lipid (fat)",g,--,--,16.00,32.00
"Carbohydrate, by difference",g,--,--,25.00,50.00
"Fiber, total dietary",g,--,--,3.0,6.0
"Sugars, total",g,--,--,18.00,36.00
Minerals
"Calcium, Ca",mg,--,--,40,80
"Iron, Fe",mg,--,--,1.08,2.16
"Sodium, Na",mg,--,--,85,170
Vitamins
"Vitamin C, total ascorbic acid",mg,--,--,0.0,0.0
"Vitamin A, IU",IU,--,--,0,0
Lipids
"Fatty acids, total saturated",g,--,--,5.000,10.000
"Fatty acids, total trans",g,--,--,0.000,0.000
"Cholesterol",mg,--,--,0,0
Amino Acids
Other
Ingredients
"CHOCOLATE CHIPS: SUGAR, CHOCOLATE LIQUOR, COCOA BUTTER, SOY LECITHIN, ARTIFICIAL FLAVORS. CASHEWS, ALMONDS, PEANUTS: ROASTED IN PEANUT AND/OR COTTONSEED OIL, SALT, PEANUT BUTTER CHIPS: SUGAR, PARTIALLY DEFATTED PEANUT FLOUR, PARTIALLY HYDROGENATED PALM KERNEL OIL, NONFAT DRY MILK, DEXTROSE, SOY LECITHIN, SALT, GOLDEN RAISINS: SUNFLOWER DIOXIDE. VANILLA DROPS: SUGAR, PARTIALLY HYDROGENATED PALM KERNEL OIL, REDUCED MINERAL WHEY POWDER, NONFAT DRY MILK SOLIDS, ANHYDROUS DEXTROSE, SOY LECITHIN, SALT, ARTIFICIAL FLAVOR. CRANBERRIES: SUGAR, SUNFLOWER OIL." Date available: 07/14/2017 Date last updated by company: 07/14/2017
