Source: USDA Branded Food Products Database Release December 2017 Software v.3.8.6.4 2017-10-02
Report Run at: December 18, 2017 03:53 EST
"Nutrient data for: 45157681, SOY VAY, GINGER 'N SESAME POPPED RICE CLUSTERS SNACK, UPC: 088177228113"
Food Group:  Branded Food Products Database
Common Name:

Nutrient,Unit,Data points,Std. Error,"11.0 CLUSTERS | ABOUT = 28.0g",1Value per 100 g,
Proximates
"Energy",kcal,--,--,110,393
"Protein",g,--,--,2.00,7.14
"Total lipid (fat)",g,--,--,2.50,8.93
"Carbohydrate, by difference",g,--,--,20.00,71.43
"Fiber, total dietary",g,--,--,1.0,3.6
"Sugars, total",g,--,--,3.00,10.71
Minerals
"Calcium, Ca",mg,--,--,20,71
"Iron, Fe",mg,--,--,0.64,2.29
"Sodium, Na",mg,--,--,220,786
Vitamins
"Vitamin C, total ascorbic acid",mg,--,--,0.0,0.0
"Vitamin A, IU",IU,--,--,0,0
Lipids
"Fatty acids, total saturated",g,--,--,0.000,0.000
"Fatty acids, total trans",g,--,--,0.000,0.000
"Cholesterol",mg,--,--,0,0
Amino Acids
Other
Ingredients
"WHOLE GRAIN BROWN RICE FLOUR, TAPIOCA SYRUP (TAPIOCA STARCH, WATER), CANE SUGAR, EXPELLER PRESSED CANOLA OIL, SESAME SEEDS, TAMARI SOY SAUCE (WATER, SOYBEANS, SALT, SUGAR), WILD RICE, DRIED GINGER, CHIA SEEDS, LESS THAN 1%: SEA SALT, NATURAL FLAVOR, MIXED TOCOPHEROLS ADDED TO PRESERVE FRESHNESS, SPICES." Date available: 07/14/2017 Date last updated by company: 07/14/2017
