Source: USDA Branded Food Products Database Release December 2017 Software v.3.8.6.4 2017-10-02
Report Run at: December 18, 2017 03:50 EST
"Nutrient data for: 45110579, SOY MILK DESSERT, UPC: 744473480623"
Food Group:  Branded Food Products Database
Common Name:

Nutrient,Unit,Data points,Std. Error,"0.5 cup = 97.0g",1Value per 100 g,
Proximates
"Energy",kcal,--,--,210,216
"Protein",g,--,--,3.00,3.09
"Total lipid (fat)",g,--,--,11.00,11.34
"Carbohydrate, by difference",g,--,--,28.00,28.87
"Fiber, total dietary",g,--,--,5.0,5.2
"Sugars, total",g,--,--,19.00,19.59
Minerals
"Calcium, Ca",mg,--,--,0,0
"Iron, Fe",mg,--,--,0.89,0.92
"Sodium, Na",mg,--,--,40,41
Vitamins
"Vitamin C, total ascorbic acid",mg,--,--,0.0,0.0
"Vitamin A, IU",IU,--,--,0,0
Lipids
"Fatty acids, total saturated",g,--,--,2.997,3.090
"Fatty acids, total trans",g,--,--,0.000,0.000
"Cholesterol",mg,--,--,0,0
Amino Acids
Other
Ingredients
"ORGANIC SOYMILK (FILTERED WATER, ORGANIC SOYBEANS), ORGANIC CANE SUGAR, PEANUT BUTTER (PEANUTS, PEANUT OIL, INVERT CANE SUGAR, SALT), ORGANIC TAPIOCA SYRUP, CHOCOLATE FLAKE (CANE SUGAR, COCONUT OIL, COCOA PROCESSED WITH ALKALI, CHOCOLATE LIQUOR, VANILLA), ORGANIC SOYBEAN OIL, CHICORY ROOT EXTRACT, COCOA PROCESSED WITH ALKALI, NATURAL FLAVOR, CAROB BEAN GUM, TAPIOCA DEXTROSE, GUAR GUM, ALGIN (KELP EXTRACT), GELLAN GUM." Date available: 07/14/2017 Date last updated by company: 07/14/2017
