Source: USDA Branded Food Products Database Release December 2017 Software v.3.8.6.4 2017-10-02
Report Run at: December 18, 2017 03:54 EST
"Nutrient data for: 45167364, SPAANS, DULCE DE LECHE MERINGUE COOKIES, UPC: 038749700134"
Food Group:  Branded Food Products Database
Common Name:

Nutrient,Unit,Data points,Std. Error,"14.0 COOKIES = 28.4g",1Value per 100 g,
Proximates
"Energy",kcal,--,--,110,387
"Protein",g,--,--,1.00,3.52
"Total lipid (fat)",g,--,--,0.00,0.00
"Carbohydrate, by difference",g,--,--,25.00,88.03
"Fiber, total dietary",g,--,--,0.0,0.0
"Sugars, total",g,--,--,25.00,88.03
Minerals
"Calcium, Ca",mg,--,--,0,0
"Iron, Fe",mg,--,--,0.00,0.00
"Sodium, Na",mg,--,--,20,70
Vitamins
"Vitamin C, total ascorbic acid",mg,--,--,0.0,0.0
"Thiamin",mg,--,--,0.000,0.000
"Riboflavin",mg,--,--,0.068,0.239
"Niacin",mg,--,--,0.000,0.000
"Vitamin A, IU",IU,--,--,0,0
Lipids
"Fatty acids, total saturated",g,--,--,0.000,0.000
"Fatty acids, total trans",g,--,--,0.000,0.000
"Cholesterol",mg,--,--,0,0
Amino Acids
Other
Ingredients
"SUGAR, EGG WHITES, NATURAL DULCE DE LECHE FLAVOR." Date available: 07/14/2017 Date last updated by company: 07/14/2017
