Source: USDA Branded Food Products Database Release December 2017 Software v.3.8.6.4 2017-10-02
Report Run at: December 18, 2017 04:28 EST
"Nutrient data for: 45002019, SPAGHETTI SAUCE, UPC: 024182001150"
Food Group:  Branded Food Products Database
Common Name:

Nutrient,Unit,Data points,Std. Error,"0.5 cup = 120.0g",1Value per 100 g,
Proximates
"Energy",kcal,--,--,70,58
"Protein",g,--,--,2.00,1.67
"Total lipid (fat)",g,--,--,2.50,2.08
"Carbohydrate, by difference",g,--,--,9.00,7.50
"Fiber, total dietary",g,--,--,5.0,4.2
"Sugars, total",g,--,--,4.00,3.33
Minerals
"Calcium, Ca",mg,--,--,40,33
"Iron, Fe",mg,--,--,1.91,1.59
"Magnesium, Mg",mg,--,--,34,28
"Phosphorus, P",mg,--,--,42,35
"Potassium, K",mg,--,--,330,275
"Sodium, Na",mg,--,--,10,8
"Zinc, Zn",mg,--,--,0.30,0.25
Vitamins
"Vitamin C, total ascorbic acid",mg,--,--,12.7,10.6
"Thiamin",mg,--,--,0.000,0.000
"Riboflavin",mg,--,--,0.102,0.085
"Niacin",mg,--,--,1.666,1.388
"Vitamin A, IU",IU,--,--,1056,880
Lipids
"Fatty acids, total saturated",g,--,--,0.000,0.000
"Fatty acids, total trans",g,--,--,0.000,0.000
"Cholesterol",mg,--,--,0,0
Amino Acids
Other
Ingredients
"ORGANIC ROMA TOMATOES, ORGANIC EXTRA VIRGIN OLIVE OIL, ORGANIC BASIL, ORGANIC OREGANO, ORGANIC BLACK PEPPER, ORGANIC ROASTED GARLIC, ORGANIC DRIED ONION, ORGANIC THYME." Date available: 06/24/2017 Date last updated by company: 06/24/2017
