Source: USDA Branded Food Products Database Release December 2017 Software v.3.8.6.4 2017-10-02
Report Run at: December 18, 2017 04:28 EST
"Nutrient data for: 45204315, SPAGHETTI SAUCE, UPC: 867535000109"
Food Group:  Branded Food Products Database
Common Name:

Nutrient,Unit,Data points,Std. Error,"3.5 ONZ = 100.0g",1Value per 100 g,
Proximates
"Energy",kcal,--,--,45,45
"Protein",g,--,--,1.00,1.00
"Total lipid (fat)",g,--,--,2.50,2.50
"Carbohydrate, by difference",g,--,--,6.00,6.00
"Fiber, total dietary",g,--,--,1.0,1.0
"Sugars, total",g,--,--,3.00,3.00
Minerals
"Calcium, Ca",mg,--,--,20,20
"Iron, Fe",mg,--,--,1.08,1.08
"Sodium, Na",mg,--,--,530,530
Vitamins
"Vitamin C, total ascorbic acid",mg,--,--,9.0,9.0
"Vitamin A, IU",IU,--,--,400,400
Lipids
"Fatty acids, total saturated",g,--,--,0.000,0.000
"Cholesterol",mg,--,--,0,0
Amino Acids
Other
Ingredients
"WATER, TOMATO PASTE (VINE-RIPENED FRESH TOMATOES AND NATURALLY DERIVED CITRIC ACID), TOMATO PUREE (VINE-RIPENED FRESH TOMATOES AND NATURALLY DERIVED CITRIC ACID), GREEN PEPPERS, VEGETABLE OIL (SOYBEAN OIL), SALT, FENNEL SEED, BLACK PEPPER AND SPICES." Date available: 07/14/2017 Date last updated by company: 07/14/2017
