Source: USDA Branded Food Products Database Release December 2017 Software v.3.8.6.4 2017-10-02
Report Run at: December 18, 2017 03:56 EST
"Nutrient data for: 45080503, SPAGHETTI & MEATBALLS IN TOMATO SAUCE, UPC: 011213037523"
Food Group:  Branded Food Products Database
Common Name:

Nutrient,Unit,Data points,Std. Error,"1 cup = 255.0g",1Value per 100 g,
Proximates
"Energy",kcal,--,--,250,98
"Protein",g,--,--,9.00,3.53
"Total lipid (fat)",g,--,--,10.00,3.92
"Carbohydrate, by difference",g,--,--,28.99,11.37
"Fiber, total dietary",g,--,--,6.1,2.4
"Sugars, total",g,--,--,7.01,2.75
Minerals
"Calcium, Ca",mg,--,--,41,16
"Iron, Fe",mg,--,--,2.86,1.12
"Sodium, Na",mg,--,--,750,294
Vitamins
"Vitamin C, total ascorbic acid",mg,--,--,2.5,1.0
"Vitamin A, IU",IU,--,--,212,83
Lipids
"Fatty acids, total saturated",g,--,--,3.494,1.370
"Fatty acids, total trans",g,--,--,0.000,0.000
"Cholesterol",mg,--,--,20,8
Amino Acids
Other
Ingredients
"INGREDIENTS: TOMATO PURE (WATER, TOMATO PASTE), MEATBALLS (BEEF AND PORK, WATER, BREAD CRUMBS [ENRICHED WHEAT FLOUR , DEXTROSE, SALT, YEAST, SOYBEAN OIL], TEXTURED VEGETABLE PROTEIN (SOY FLOUR, CARAMEL COLOR), SOY PROTEIN CONCENTRATE, SALT, SOY PROTEIN ISOLATE, CARAMEL COLOR, SPICE EXTRACT), ENRICHED SPAGHETTI ( SEMOLINA WHEAT FLOUR, GLYCERYL MONOSTEARATE, NIACIN, FERROUS SULFATE, THIMINE MONONITRATE, RIBOFLAVIN, FOLIC ACID), HIGH FRUCTOSE CORN SYRUP, CONTAINS LESS THAN 2%; SALT, DEHYDRATED ONION, POTASSIUM CHLORIDI NATURAL FLAVOR, FOOD STARCH-MODIFIED, CITRIC ACID, ENZYME MODIFIED CHEDDAR CHEESE (CHEDDAR CHEESE [PASTEURIZED MILK, CHEESE CULTURES, SALT, ENZYMES], WATER, SALT, DISODIUM PHOSPHATE, SODIUM CITRATE, NONFAT DRY MILK, NATURAL FLAVOR), SPICE, SPICE EXTRACT." Date available: 06/24/2017 Date last updated by company: 06/24/2017
