Source: USDA Branded Food Products Database Release December 2017 Software v.3.8.6.4 2017-10-02
Report Run at: December 18, 2017 04:26 EST
"Nutrient data for: 45213687, SPAGHETTI PESTO, UPC: 030034084592"
Food Group:  Branded Food Products Database
Common Name:

Nutrient,Unit,Data points,Std. Error,"0.5 PACKAGE = 80.0g",1Value per 100 g,
Proximates
"Energy",kcal,--,--,310,388
"Protein",g,--,--,12.00,15.00
"Total lipid (fat)",g,--,--,6.00,7.50
"Carbohydrate, by difference",g,--,--,52.00,65.00
"Fiber, total dietary",g,--,--,2.0,2.5
"Sugars, total",g,--,--,10.00,12.50
Minerals
"Calcium, Ca",mg,--,--,100,125
"Iron, Fe",mg,--,--,5.62,7.03
"Sodium, Na",mg,--,--,640,800
Vitamins
"Vitamin C, total ascorbic acid",mg,--,--,0.0,0.0
"Vitamin A, IU",IU,--,--,0,0
Lipids
"Fatty acids, total saturated",g,--,--,1.504,1.880
"Fatty acids, total trans",g,--,--,0.000,0.000
"Cholesterol",mg,--,--,5,6
Amino Acids
Other
Ingredients
"DURUM WHEAT PASTA, PROCESSED CHEESE POWDER (CHEESE [MILK, SALT, RENNET], WHEY POWDER SALT, SODIUM CITRATE), POWDERED WHEY, POWDERED OLIVE OIL PREPARATION (OLIVE OIL, GLUCOSE SYRUP, SODIUM CASEINATE), NATURAL FLAVOR, SPINACH POWDER, DEHYDRATED BASIL DEHYDRATED ONION, YEAST EXTRACT, SALT, GARLIC POWDER, TURMERIC POWDER." Date available: 07/14/2017 Date last updated by company: 07/14/2017
