Source: USDA Branded Food Products Database Release December 2017 Software v.3.8.6.4 2017-10-02
Report Run at: December 18, 2017 04:27 EST
"Nutrient data for: 45134546, Spaghetti Sauce Plain - #10 Can, UNPREPARED, GTIN: 00064144812608"
Food Group:  Branded Food Products Database
Common Name:

Nutrient,Unit,Data points,Std. Error,"0.5 Cup (126g) = 126.0g",1Value per 100 g,
Proximates
"Energy",kcal,--,--,60,48
"Protein",g,--,--,1.00,0.79
"Total lipid (fat)",g,--,--,2.00,1.59
"Carbohydrate, by difference",g,--,--,9.00,7.14
"Fiber, total dietary",g,--,--,1.0,0.8
"Sugars, total",g,--,--,3.99,3.17
Minerals
"Calcium, Ca",mg,--,--,0,0
"Iron, Fe",mg,--,--,0.37,0.29
"Sodium, Na",mg,--,--,950,754
Vitamins
"Vitamin C, total ascorbic acid",mg,--,--,0.0,0.0
"Vitamin A, IU",IU,--,--,200,159
Lipids
"Fatty acids, total saturated",g,--,--,0.504,0.400
"Fatty acids, total trans",g,--,--,0.000,0.000
"Cholesterol",mg,--,--,0,0
Amino Acids
Other
Ingredients
"WATER, TOMATO PUREE (WATER, TOMATO PASTE), MODIFIED CORN STARCH, HIGH FRUCTOSE CORN SYRUP, CONTAINS LESS THAN 2% OF: SOYBEAN OIL, SALT, ONIONS, CULTURED DAIRY SOLIDS (WHEY, MALTODEXTRIN AND YEAST EXTRACT), SMOKED TORULA YEAST, OREGANO AND NATURAL FLAVORINGS. CONTAINS: MILK" Date available: 10/12/2017 Date last updated by company: 10/12/2017
