Source: USDA Branded Food Products Database Release December 2017 Software v.3.8.6.4 2017-10-02
Report Run at: December 18, 2017 04:31 EST
"Nutrient data for: 45259324, SPAM, GARLIC, UPC: 376000892410"
Food Group:  Branded Food Products Database
Common Name:

Nutrient,Unit,Data points,Std. Error,"2.0 ONZ = 56.0g",1Value per 100 g,
Proximates
"Energy",kcal,--,--,180,321
"Protein",g,--,--,7.00,12.50
"Total lipid (fat)",g,--,--,16.00,28.57
"Carbohydrate, by difference",g,--,--,1.00,1.79
"Fiber, total dietary",g,--,--,0.0,0.0
"Sugars, total",g,--,--,1.00,1.79
Minerals
"Calcium, Ca",mg,--,--,0,0
"Iron, Fe",mg,--,--,0.00,0.00
"Sodium, Na",mg,--,--,430,768
Vitamins
"Vitamin C, total ascorbic acid",mg,--,--,0.0,0.0
"Vitamin A, IU",IU,--,--,0,0
Lipids
"Fatty acids, total saturated",g,--,--,5.998,10.710
"Fatty acids, total trans",g,--,--,0.000,0.000
"Cholesterol",mg,--,--,40,71
Amino Acids
Other
Ingredients
"PORK, WATER, GARLIC (CONTAINS CITRIC ACID), MODIFIED POTATO STARCH, SALT, SUGAR, SODIUM NITRITE." Date available: 07/14/2017 Date last updated by company: 07/14/2017
