Source: USDA Branded Food Products Database Release December 2017 Software v.3.8.6.4 2017-10-02
Report Run at: December 18, 2017 04:33 EST
"Nutrient data for: 45213440, SPANISH OLIVES, UPC: 018894134169"
Food Group:  Branded Food Products Database
Common Name:

Nutrient,Unit,Data points,Std. Error,"5.0 OLIVES = 15.0g",1Value per 100 g,
Proximates
"Energy",kcal,--,--,25,167
"Protein",g,--,--,0.00,0.00
"Total lipid (fat)",g,--,--,2.50,16.67
"Carbohydrate, by difference",g,--,--,1.00,6.67
Minerals
"Sodium, Na",mg,--,--,330,2200
Vitamins
Lipids
"Fatty acids, total saturated",g,--,--,0.000,0.000
"Fatty acids, total trans",g,--,--,0.000,0.000
Amino Acids
Other
Ingredients
"MANZANILLA OLIVES, WATER, MINCED PIMENTO, SALT, LACTIC ACID, SODIUM ALGINATE, GUAR GUM, CALCIUM CHLORIDE AND POTASSIUM SORBATE AS PRESERVATIVE." Date available: 07/14/2017 Date last updated by company: 07/14/2017
