Source: USDA Branded Food Products Database Release December 2017 Software v.3.8.6.4 2017-10-02
Report Run at: December 18, 2017 04:34 EST
"Nutrient data for: 45117468, SPANISH QUEEN OLIVES, UPC: 041250947479"
Food Group:  Branded Food Products Database
Common Name:

Nutrient,Unit,Data points,Std. Error,"2.0 OLIVES = 13.0g",1Value per 100 g,
Proximates
"Energy",kcal,--,--,20,154
"Protein",g,--,--,0.00,0.00
"Total lipid (fat)",g,--,--,2.00,15.38
"Carbohydrate, by difference",g,--,--,1.00,7.69
Minerals
"Sodium, Na",mg,--,--,330,2538
Vitamins
Lipids
"Fatty acids, total saturated",g,--,--,0.501,3.850
"Fatty acids, total monounsaturated",g,--,--,1.000,7.690
"Fatty acids, total polyunsaturated",g,--,--,0.000,0.000
"Fatty acids, total trans",g,--,--,0.000,0.000
Amino Acids
Other
Ingredients
"QUEEN OLIVES, WATER, SALT AND LACTIC ACID." Date available: 07/14/2017 Date last updated by company: 07/14/2017
