Source: USDA Branded Food Products Database Release December 2017 Software v.3.8.6.4 2017-10-02
Report Run at: December 18, 2017 04:34 EST
"Nutrient data for: 45215968, SPANISH RICE, UPC: 085239266816"
Food Group:  Branded Food Products Database
Common Name:

Nutrient,Unit,Data points,Std. Error,"1 CUP PREPARED (147 G) = 60.0g",1Value per 100 g,
Proximates
"Energy",kcal,--,--,250,417
"Protein",g,--,--,6.00,10.00
"Total lipid (fat)",g,--,--,1.50,2.50
"Carbohydrate, by difference",g,--,--,53.00,88.33
"Fiber, total dietary",g,--,--,2.0,3.3
"Sugars, total",g,--,--,2.00,3.33
Minerals
"Calcium, Ca",mg,--,--,60,100
"Iron, Fe",mg,--,--,2.70,4.50
"Sodium, Na",mg,--,--,550,917
Vitamins
"Vitamin C, total ascorbic acid",mg,--,--,4.5,7.5
"Vitamin A, IU",IU,--,--,563,938
Lipids
"Fatty acids, total saturated",g,--,--,0.402,0.670
"Fatty acids, total trans",g,--,--,0.000,0.000
"Cholesterol",mg,--,--,0,0
Amino Acids
Other
Ingredients
"PARBOILED LONG GRAIN RICE, TOMATO POWDER, SALT, ONION*, SPICES, TOMATO*, CHICKEN FAT* (CHICKEN FAT, CHICKEN BROTH, NATURAL FLAVOR [EXTRACT OF ROSEMARY]), GARLIC POWDER, GREEN BELL PEPPERS*, YEAST EXTRACT, RED BELL PEPPERS*." Date available: 07/14/2017 Date last updated by company: 07/14/2017
