Source: USDA Branded Food Products Database Release December 2017 Software v.3.8.6.4 2017-10-02
Report Run at: December 18, 2017 05:10 EST
"Nutrient data for: 45243038, SPARTAN, 100% JUICE, WHITE GRAPE, UPC: 011213045900"
Food Group:  Branded Food Products Database
Common Name:

Nutrient,Unit,Data points,Std. Error,"8.0 OZA = 240.0g",1Value per 100 g,
Proximates
"Energy",kcal,--,--,149,62
"Protein",g,--,--,0.00,0.00
"Total lipid (fat)",g,--,--,0.00,0.00
"Carbohydrate, by difference",g,--,--,37.99,15.83
"Sugars, total",g,--,--,37.99,15.83
Minerals
"Sodium, Na",mg,--,--,36,15
Vitamins
"Vitamin C, total ascorbic acid",mg,--,--,78.0,32.5
Lipids
Amino Acids
Other
Ingredients
"WHITE GRAPE JUICE FROM CONCENTRATE (WATER, WHITE GRAPE JUICE CONCENTRATE), WHITE GRAPE JUICE, CITRIC ACID, ASCORBIC ACID (VITAMIN C), POTASSIUM METABISULFITE ADDED TO MAINTAIN FLAVOR AND FRESHNESS. NO ARTIFICIAL FLAVORS OR COLORS ADDED." Date available: 06/25/2017 Date last updated by company: 06/25/2017
