Source: USDA Branded Food Products Database Release December 2017 Software v.3.8.6.4 2017-10-02
Report Run at: December 18, 2017 04:59 EST
"Nutrient data for: 45086587, SPARTAN, BBQ SAUCE, HICKORY & BROWN SUGAR, UPC: 011213186634"
Food Group:  Branded Food Products Database
Common Name:

Nutrient,Unit,Data points,Std. Error,"2.0 Tbsp = 37.0g",1Value per 100 g,
Proximates
"Energy",kcal,--,--,70,189
"Protein",g,--,--,0.00,0.00
"Total lipid (fat)",g,--,--,0.00,0.00
"Carbohydrate, by difference",g,--,--,18.00,48.65
"Fiber, total dietary",g,--,--,0.0,0.0
"Sugars, total",g,--,--,15.00,40.54
Minerals
"Calcium, Ca",mg,--,--,0,0
"Iron, Fe",mg,--,--,0.00,0.00
"Sodium, Na",mg,--,--,290,784
Vitamins
"Vitamin C, total ascorbic acid",mg,--,--,0.0,0.0
"Vitamin A, IU",IU,--,--,0,0
Lipids
"Fatty acids, total saturated",g,--,--,0.000,0.000
"Fatty acids, total trans",g,--,--,0.000,0.000
"Cholesterol",mg,--,--,0,0
Amino Acids
Other
Ingredients
"HIGH FRUCTOSE CORN SYRUP, DISTILLED VINEGAR, TOMATO PASTE, BROWN SUGAR, WATER, MODIFIED FOOD STARCH, CONTAINS LESS THAN 2% SALT, NATURAL SMOKE FLAVOR, PINEAPPLE JUICE CONCENTRATE, SPICES, CARAMEL COLOR, SODIUM BENZOATE (AS A PRESERVATIVE), MOLASSES, CORN SYRUP, GARLIC*, SUGAR, TAMARIND, NATURAL FLAVOR" Date available: 07/14/2017 Date last updated by company: 07/14/2017
