Source: USDA Branded Food Products Database Release December 2017 Software v.3.8.6.4 2017-10-02
Report Run at: December 18, 2017 05:05 EST
"Nutrient data for: 45092623, SPARTAN, DRINK MIX, SUGAR FREE, LOW CALORIE, GREEN TEA, PEACH MANGO, UPC: 011213088969"
Food Group:  Branded Food Products Database
Common Name:

Nutrient,Unit,Data points,Std. Error,"0.125 PACKET = 1.4g",1Value per 100 g,
Proximates
"Energy",kcal,--,--,5,357
"Protein",g,--,--,0.00,0.00
"Total lipid (fat)",g,--,--,0.00,0.00
"Carbohydrate, by difference",g,--,--,0.00,0.00
"Sugars, total",g,--,--,0.00,0.00
Minerals
"Sodium, Na",mg,--,--,15,1071
Vitamins
"Vitamin C, total ascorbic acid",mg,--,--,214.3,15306.0
"Vitamin A, IU",IU,--,--,17857,1275500
Lipids
Amino Acids
Other
Ingredients
"CITRIC ACID, MALTODEXTRIN, INSTANT GREEN TEA, ASPARTAME**, CONTAINS LESS THAN 2% OF: NATURAL FLAVOR, ACESULFAME POTASSIUM, ASCORBIC ACID (VITAMIN C), VITAMIN E ACETATE, SODIUM BICARBONATE, MAGNESIUM OXIDE, BETA-CAROTENE, CALCIUM CARBONATE, FOOD STARCH-MODIFIED." Date available: 09/01/2017 Date last updated by company: 09/01/2017
