Source: USDA Branded Food Products Database Release December 2017 Software v.3.8.6.4 2017-10-02
Report Run at: December 18, 2017 05:23 EST
"Nutrient data for: 45242261, SPARTAN, ULTRA-PASTEURIZED HEAVY WHIPPING CREAM, UPC: 011213397092"
Food Group:  Branded Food Products Database
Common Name:

Nutrient,Unit,Data points,Std. Error,"1 Tbsp = 15.0g",1Value per 100 g,
Proximates
"Energy",kcal,--,--,50,333
"Protein",g,--,--,0.00,0.00
"Total lipid (fat)",g,--,--,5.00,33.33
"Carbohydrate, by difference",g,--,--,0.00,0.00
"Fiber, total dietary",g,--,--,0.0,0.0
"Sugars, total",g,--,--,0.00,0.00
Minerals
"Calcium, Ca",mg,--,--,0,0
"Iron, Fe",mg,--,--,0.00,0.00
"Potassium, K",mg,--,--,10,67
"Sodium, Na",mg,--,--,5,33
Vitamins
"Vitamin C, total ascorbic acid",mg,--,--,0.0,0.0
"Vitamin A, IU",IU,--,--,200,1333
Lipids
"Fatty acids, total saturated",g,--,--,3.000,20.000
"Fatty acids, total trans",g,--,--,0.000,0.000
"Cholesterol",mg,--,--,15,100
Amino Acids
Other
Ingredients
"CREAM, AND LESS THAN 2% OF CARRAGEENAN, MONO-DIGLYCERIDES, CELLULOSE GUM, POLYSORBATE 80." Date available: 06/25/2017 Date last updated by company: 06/25/2017
