Source: USDA Branded Food Products Database Release December 2017 Software v.3.8.6.4 2017-10-02
Report Run at: December 18, 2017 05:21 EST
"Nutrient data for: 45114260, SPARTAN, TENDER WHITE POPCORN, UPC: 011213252049"
Food Group:  Branded Food Products Database
Common Name:

Nutrient,Unit,Data points,Std. Error,"4.5 CUPS POPPED | MAKES = 33.0g",1Value per 100 g,
Proximates
"Energy",kcal,--,--,110,333
"Protein",g,--,--,4.00,12.12
"Total lipid (fat)",g,--,--,1.50,4.55
"Carbohydrate, by difference",g,--,--,27.00,81.82
"Fiber, total dietary",g,--,--,7.0,21.2
"Sugars, total",g,--,--,1.00,3.03
Minerals
"Calcium, Ca",mg,--,--,0,0
"Iron, Fe",mg,--,--,1.09,3.31
"Sodium, Na",mg,--,--,10,30
Vitamins
"Vitamin C, total ascorbic acid",mg,--,--,0.0,0.0
"Vitamin A, IU",IU,--,--,151,459
Lipids
"Fatty acids, total saturated",g,--,--,0.000,0.000
"Fatty acids, total trans",g,--,--,0.000,0.000
"Cholesterol",mg,--,--,0,0
Amino Acids
Other
Ingredients
"WHITE POPCORN." Date available: 06/25/2017 Date last updated by company: 06/25/2017
