Source: USDA Branded Food Products Database Release December 2017 Software v.3.8.6.4 2017-10-02
Report Run at: December 18, 2017 04:54 EST
"Nutrient data for: 45220439, SPARKLING WATER, UPC: 078742056975"
Food Group:  Branded Food Products Database
Common Name:

Nutrient,Unit,Data points,Std. Error,"12.0 OZA = 355.0g",1Value per 100 g,
Proximates
"Energy",kcal,--,--,0,0
"Protein",g,--,--,0.00,0.00
"Total lipid (fat)",g,--,--,0.00,0.00
"Carbohydrate, by difference",g,--,--,7.99,2.25
Minerals
"Sodium, Na",mg,--,--,25,7
Vitamins
Lipids
Amino Acids
Other
Ingredients
"CARBONATED WATER, ERYTHRITOL, CITRIC ACID, POTASSIUM CITRATE, SODIUM BENZOATE (PRESERVATIVE), STEVIOL GLYCOSIDES, NATURAL FLAVOR." Date available: 07/14/2017 Date last updated by company: 07/14/2017
