Source: USDA Branded Food Products Database Release December 2017 Software v.3.8.6.4 2017-10-02
Report Run at: December 18, 2017 04:35 EST
"Nutrient data for: 45055915, SPARKLE GEL, UPC: 070896741080"
Food Group:  Branded Food Products Database
Common Name:

Nutrient,Unit,Data points,Std. Error,"1 tsp = 6.0g",1Value per 100 g,
Proximates
"Energy",kcal,--,--,15,250
"Protein",g,--,--,0.00,0.00
"Total lipid (fat)",g,--,--,0.00,0.00
"Carbohydrate, by difference",g,--,--,4.00,66.67
"Sugars, total",g,--,--,3.00,50.00
Minerals
"Sodium, Na",mg,--,--,0,0
Vitamins
Lipids
Amino Acids
Other
Ingredients
"INGREDIENTS: CORN SYRUP, SUGAR, WATER, MODIFIED FOOD STARCH, ARTIFICIAL COLOR, CARRAGEENAN, SALT,  SODIUM BENZOATE (PRESERVATIVES), CITRIC ACID, TITANIUM DIOXIDE, FD&C YELLOW #5, FD&C YELLOW #6" Date available: 06/24/2017 Date last updated by company: 06/24/2017
