Source: USDA Branded Food Products Database Release December 2017 Software v.3.8.6.4 2017-10-02
Report Run at: December 18, 2017 04:45 EST
"Nutrient data for: 45217454, SPARKLING SICILIAN LEMONADE, UPC: 725439981002"
Food Group:  Branded Food Products Database
Common Name:

Nutrient,Unit,Data points,Std. Error,"8.0 OZA = 240.0g",1Value per 100 g,
Proximates
"Energy",kcal,--,--,139,58
"Protein",g,--,--,0.00,0.00
"Total lipid (fat)",g,--,--,0.00,0.00
"Carbohydrate, by difference",g,--,--,34.01,14.17
"Sugars, total",g,--,--,34.01,14.17
Minerals
"Sodium, Na",mg,--,--,0,0
Vitamins
Lipids
"Fatty acids, total trans",g,--,--,0.000,0.000
Amino Acids
Other
Ingredients
"CARBONATED WATER, SUGAR, CONCENTRATED LEMON JUICE, NATURAL LEMON AND CITRUS FRUIT FLAVOR, POTASSIUM METABISULFITE, SODIUM BENZOATE (AS PRESERVATIVE), GLYCEROL ESTER OF WOOD ROSIN (AS STABILIZER)." Date available: 07/14/2017 Date last updated by company: 07/14/2017
