Source: USDA Branded Food Products Database Release December 2017 Software v.3.8.6.4 2017-10-02
Report Run at: December 18, 2017 05:09 EST
"Nutrient data for: 45085008, SPARTAN, ICE CREAM, PEANUT BUTTER, UPC: 011213011509"
Food Group:  Branded Food Products Database
Common Name:

Nutrient,Unit,Data points,Std. Error,"0.5 cup = 68.0g",1Value per 100 g,
Proximates
"Energy",kcal,--,--,180,265
"Protein",g,--,--,4.00,5.88
"Total lipid (fat)",g,--,--,11.00,16.18
"Carbohydrate, by difference",g,--,--,17.00,25.00
"Fiber, total dietary",g,--,--,1.0,1.5
"Sugars, total",g,--,--,12.00,17.65
Minerals
"Calcium, Ca",mg,--,--,60,88
"Iron, Fe",mg,--,--,0.81,1.19
"Sodium, Na",mg,--,--,80,118
Vitamins
"Vitamin C, total ascorbic acid",mg,--,--,0.0,0.0
"Vitamin A, IU",IU,--,--,337,496
Lipids
"Fatty acids, total saturated",g,--,--,4.998,7.350
"Fatty acids, total trans",g,--,--,0.000,0.000
"Cholesterol",mg,--,--,25,37
Amino Acids
Other
Ingredients
"MILKFAT AND NONFAT MILK, PEANUT BUTTER SYRUP (PEANUT BUTTER, SOYBEAN OIL, SUGAR, SALT), SUGAR, CORN SYRUP, SWEETCREAM BUTTERMILK, HIGH FRUCTOSE CORN SYRUP, COCOA (PROCESSED WITH ALKALI), CONTAINS LESS THAN 2% OF WHEY, GUAR GUM, MONO- AND DIGLYCERIDES, XANTHAN GUM, POLYSORBATE 80, CELLULOSE GUM, CARRAGEENAN." Date available: 07/14/2017 Date last updated by company: 07/14/2017
