Source: USDA Branded Food Products Database Release December 2017 Software v.3.8.6.4 2017-10-02
Report Run at: December 18, 2017 05:07 EST
"Nutrient data for: 45114003, SPARTAN, FRUIT & NUT TRAIL MIX, UPC: 011213146744"
Food Group:  Branded Food Products Database
Common Name:

Nutrient,Unit,Data points,Std. Error,"3.0 TBSP = 28.0g",1Value per 100 g,
Proximates
"Energy",kcal,--,--,120,429
"Protein",g,--,--,2.00,7.14
"Total lipid (fat)",g,--,--,4.50,16.07
"Carbohydrate, by difference",g,--,--,19.00,67.86
"Fiber, total dietary",g,--,--,2.0,7.1
"Sugars, total",g,--,--,14.00,50.00
Minerals
"Calcium, Ca",mg,--,--,20,71
"Iron, Fe",mg,--,--,1.29,4.59
"Sodium, Na",mg,--,--,10,36
Vitamins
"Vitamin C, total ascorbic acid",mg,--,--,0.0,0.0
"Vitamin A, IU",IU,--,--,357,1275
Lipids
"Fatty acids, total saturated",g,--,--,1.000,3.570
"Fatty acids, total trans",g,--,--,0.000,0.000
"Cholesterol",mg,--,--,0,0
Amino Acids
Other
Ingredients
"RAISINS, PEANUTS ROASTED IN PEANUT AND/OR COTTONSEED OIL, MANGO; MANGO, SUGAR, CITRIC ACID, SULFUR DIOXIDE USED AS A PRESERVATIVE, FD&C YELLOW NO 6, FD&C YELLOW NO 5, PINEAPPLE; PINEAPPLE, SUGAR, CITRIC ACID, SULFUR DIOXIDE USED AS A PRESERVATIVE. APRICOTS; APRICOTS, SULFUR DIOXIDE, BANANAS; BANANAS, COCONUT OIL, SUGAR, BANANA FLAVORING, ALMONDS ROASTED IN PEANUT AND/OR COTTONSEED OIL. CRANBERRIES; CRANBERRIES, SUGAR, SUNFLOWER OIL." Date available: 06/25/2017 Date last updated by company: 06/25/2017
