Source: USDA Branded Food Products Database Release December 2017 Software v.3.8.6.4 2017-10-02
Report Run at: December 18, 2017 04:52 EST
"Nutrient data for: 45147457, SPARKLING WATER, UPC: 051933350427"
Food Group:  Branded Food Products Database
Common Name:

Nutrient,Unit,Data points,Std. Error,"12.0 OZA = 355.0g",1Value per 100 g,
Proximates
"Energy",kcal,--,--,60,17
"Protein",g,--,--,0.00,0.00
"Total lipid (fat)",g,--,--,0.00,0.00
"Carbohydrate, by difference",g,--,--,15.02,4.23
"Sugars, total",g,--,--,13.99,3.94
Minerals
"Sodium, Na",mg,--,--,96,27
Vitamins
Lipids
Amino Acids
Other
Ingredients
"SPARKLING WATER, HIGH FRUCTOSE CORN SYRUP, NATURAL FLAVOR, CITRIC ACID, SODIUM CITRATE, GUM ARABIC, POTASSIUM SORBATE (PRESERVATIVE), SODIUM BENZOATE (PRESERVATIVE) GLYCEROL ESTER OF WOOD ROSIN, SUCRALOSE, ACESULFAME POTASSIUM, CALCIUM DISODIUM EDTA, AND YELLOW 5." Date available: 07/14/2017 Date last updated by company: 07/14/2017
