Source: USDA Branded Food Products Database Release December 2017 Software v.3.8.6.4 2017-10-02
Report Run at: December 18, 2017 05:23 EST
"Nutrient data for: 45093299, SPARTAN, WAFFLES, BUTTERMILK, UPC: 011213354422"
Food Group:  Branded Food Products Database
Common Name:

Nutrient,Unit,Data points,Std. Error,"2.0 WAFFLES = 70.0g",1Value per 100 g,
Proximates
"Energy",kcal,--,--,140,200
"Protein",g,--,--,3.00,4.29
"Total lipid (fat)",g,--,--,3.00,4.29
"Carbohydrate, by difference",g,--,--,25.00,35.71
"Fiber, total dietary",g,--,--,1.0,1.4
"Sugars, total",g,--,--,3.00,4.29
Minerals
"Calcium, Ca",mg,--,--,200,286
"Iron, Fe",mg,--,--,4.38,6.25
"Sodium, Na",mg,--,--,310,443
Vitamins
"Vitamin C, total ascorbic acid",mg,--,--,0.0,0.0
"Vitamin A, IU",IU,--,--,1214,1735
Lipids
"Fatty acids, total saturated",g,--,--,0.497,0.710
"Fatty acids, total monounsaturated",g,--,--,0.497,0.710
"Fatty acids, total polyunsaturated",g,--,--,1.498,2.140
"Fatty acids, total trans",g,--,--,0.000,0.000
"Cholesterol",mg,--,--,5,7
Amino Acids
Other
Ingredients
"ENRICHED FLOUR (WHEAT FLOUR, MALTED BARLEY FLOUR, NIACIN, IRON, THIAMIN MONONITRATE, RIBOFLAVIN, FOLIC ACID), WATER, BUTTERMILK, SOYBEAN OIL, WHEY SOLIDS, SUGAR, WHOLE EGGS, LEAVENING (SODIUM ACID PYROPHOSPHATE, SODIUM BICARBONATE, MONOCALCIUM PHOSPHATE), SOY LECITHIN, SALT, CALCIUM PHOSPHATE, CALCIUM CARBONATE, VITAMIN A PALMITATE, NIACIN, REDUCED IRON, PYRIDOXINE HYDROCHLORINE, RIBOFLAVIN, THIAMIN MONONITRATE, CYANOCOBALAMIN." Date available: 06/25/2017 Date last updated by company: 06/25/2017
