Source: USDA Branded Food Products Database Release December 2017 Software v.3.8.6.4 2017-10-02
Report Run at: December 18, 2017 04:45 EST
"Nutrient data for: 45327088, SPARKLING SODA, UPC: 647613011407"
Food Group:  Branded Food Products Database
Common Name:

Nutrient,Unit,Data points,Std. Error,"8.0 OZA = 240.0g",1Value per 100 g,
Proximates
"Energy",kcal,--,--,94,39
"Protein",g,--,--,0.50,0.21
"Total lipid (fat)",g,--,--,0.00,0.00
"Carbohydrate, by difference",g,--,--,22.99,9.58
"Sugars, total",g,--,--,22.99,9.58
Minerals
"Sodium, Na",mg,--,--,0,0
Vitamins
Lipids
Amino Acids
Other
Ingredients
"CARBONATED WATER, SUGAR, NATURAL BLACKCURRANT FLAVOR (INCLUDING BLACKCURRANT JUICE FROM CONCENTRATE), CITRIC ACID, SODIUM BENZOATE (AS PRESERVATIVE)." Date available: 10/13/2017 Date last updated by company: 10/13/2017
