Source: USDA Branded Food Products Database Release December 2017 Software v.3.8.6.4 2017-10-02
Report Run at: December 18, 2017 04:39 EST
"Nutrient data for: 45218326, SPARKLING DRINK MIX, UPC: 811369008077"
Food Group:  Branded Food Products Database
Common Name:

Nutrient,Unit,Data points,Std. Error,"2.0 tsp = 10.0g",1Value per 100 g,
Proximates
"Energy",kcal,--,--,25,250
"Protein",g,--,--,0.00,0.00
"Total lipid (fat)",g,--,--,0.00,0.00
"Carbohydrate, by difference",g,--,--,6.00,60.00
"Sugars, total",g,--,--,6.00,60.00
Minerals
"Sodium, Na",mg,--,--,0,0
Vitamins
"Vitamin C, total ascorbic acid",mg,--,--,288.0,2880.0
Lipids
Amino Acids
Other
Ingredients
"SUGAR, WATER, APPLE JUICE CONCENTRATE, CITRIC ACID, CARROT PUREE, NATURAL FLAVORS, MALIC ACID, VITAMIN C (ASCORBIC ACID), CHERRY JUICE CONCENTRATE, ACESULFAME POTASSIUM, STRAWBERRY JUICE CONCENTRATE, RASPBERRY JUICE CONCENTRATE, SUCRALOSE, GUM ARABIC, ESTER GUM, SODIUM BENZOATE AND POTASSIUM SORBATE (PRESERVATIVES), RED NO. 40, CALCIUM DISODIUM EDTA (TO PROTECT FLAVOR), XANTHAN GUM." Date available: 08/21/2017 Date last updated by company: 08/21/2017
