Source: USDA Branded Food Products Database Release December 2017 Software v.3.8.6.4 2017-10-02
Report Run at: December 18, 2017 05:02 EST
"Nutrient data for: 45098876, SPARTAN, CLASSIC THIN CRUST PEPPERONI PIZZA, UPC: 011213013855"
Food Group:  Branded Food Products Database
Common Name:

Nutrient,Unit,Data points,Std. Error,"0.2 PIZZA = 125.0g",1Value per 100 g,
Proximates
"Energy",kcal,--,--,300,240
"Protein",g,--,--,10.00,8.00
"Total lipid (fat)",g,--,--,13.00,10.40
"Carbohydrate, by difference",g,--,--,31.00,24.80
"Fiber, total dietary",g,--,--,2.0,1.6
"Sugars, total",g,--,--,2.00,1.60
Minerals
"Calcium, Ca",mg,--,--,150,120
"Iron, Fe",mg,--,--,2.81,2.25
"Sodium, Na",mg,--,--,750,600
Vitamins
"Vitamin C, total ascorbic acid",mg,--,--,5.6,4.5
"Vitamin A, IU",IU,--,--,468,374
Lipids
"Fatty acids, total saturated",g,--,--,6.000,4.800
"Fatty acids, total trans",g,--,--,0.000,0.000
"Cholesterol",mg,--,--,35,28
Amino Acids
Other
Ingredients
"(ENRICHED FLOUR [WHEAT FLOUR, MALTED BARLEY FLOUR, NIACIN, REDUCED IRON, THIAMIN MONONITRATE, RIBOFLAVIN, FOLIC ACID], WATER, TWO PERCENT OR LESS OF THE FOLLOWING: CANOLA OIL, SUGAR, SALT, YEAST VINEGAR, L-CYSTEINE [DOUGH CONDITIONER], SOY LECITHIN [PROCESSING AID]), SAUCE (WATER, TOMATO PASTE, SALT, SUGAR, SPICES, ONION POWDER, GARLIC POWDER), CHEESES (WHOLE MILK MOZZARELLA CHEESE [PASTEURIZED MILK, CHEESE [PASTEURIZED MILK, CHEESE CULTURES, SALT, ENZYMES], ASIAGO CHEESE [PASTEURIZED MILK, CHEESE CULTURES, SALT, ENZYMES], ROMANO CHEESE [PASTEURIZED COW'S MILK, CHEESE CULTURES, SALT, ENZYMES]), PEPPERONI (PORK, BEEF, SALT, SPICES, DEXTROSE, LACTIC ACID STARTER CULTURE, OLEORESIN OF PAPRIKA, FLAVORING, SODIUM NITRITE, BHA, BHT, CITRIC ACID)." Date available: 07/14/2017 Date last updated by company: 07/14/2017
