Source: USDA Branded Food Products Database Release December 2017 Software v.3.8.6.4 2017-10-02
Report Run at: December 18, 2017 05:05 EST
"Nutrient data for: 45093673, SPARTAN, DOUBLE FILLED MIDDLEO'S CHOCOLATE SANDWICH COOKIES, UPC: 011213020983"
Food Group:  Branded Food Products Database
Common Name:

Nutrient,Unit,Data points,Std. Error,"2.0 COOKIES = 29.0g",1Value per 100 g,
Proximates
"Energy",kcal,--,--,140,483
"Protein",g,--,--,1.00,3.45
"Total lipid (fat)",g,--,--,6.00,20.69
"Carbohydrate, by difference",g,--,--,22.00,75.86
"Fiber, total dietary",g,--,--,1.0,3.4
"Sugars, total",g,--,--,15.00,51.72
Minerals
"Calcium, Ca",mg,--,--,0,0
"Iron, Fe",mg,--,--,1.24,4.28
"Potassium, K",mg,--,--,45,155
"Sodium, Na",mg,--,--,115,397
Vitamins
"Vitamin C, total ascorbic acid",mg,--,--,0.0,0.0
"Thiamin",mg,--,--,0.000,0.000
"Riboflavin",mg,--,--,0.034,0.117
"Niacin",mg,--,--,0.690,2.379
"Vitamin A, IU",IU,--,--,0,0
Lipids
"Fatty acids, total saturated",g,--,--,2.001,6.900
"Fatty acids, total monounsaturated",g,--,--,2.001,6.900
"Fatty acids, total polyunsaturated",g,--,--,0.499,1.720
"Fatty acids, total trans",g,--,--,0.000,0.000
"Cholesterol",mg,--,--,0,0
Amino Acids
Other
Ingredients
"SUGAR, ENRICHED FLOUR (WHEAT FLOUR, NIACIN, REDUCED IRON, THIAMIN MONONITRATE, RIBOFLAVIN, FOLIC ACID), CANOLA AND/OR SOYBEAN (WITH TBHQ ADDED FOR FRESHNESS) AND/OR PALM OIL, DEXTROSE, COCOA (PROCESSED WITH ALKALI), CONTAINS 2% OR LESS OF: HIGH FRUCTOSE CORN SYRUP, SALT, LEAVENING (BAKING SODA, CALCIUM PHOSPHATE), CORNSTARCH, SOY LECITHIN, NATURAL AND ARTIFICIAL CHOCOLATE FLAVOR, NATURAL AND ARTIFICIAL VANILLA FLAVOR." Date available: 06/25/2017 Date last updated by company: 06/25/2017
