Source: USDA Branded Food Products Database Release December 2017 Software v.3.8.6.4 2017-10-02
Report Run at: December 18, 2017 04:40 EST
"Nutrient data for: 45278797, SPARKLING FLAVORED BEVERAGE, UPC: 739510130036"
Food Group:  Branded Food Products Database
Common Name:

Nutrient,Unit,Data points,Std. Error,"1 CAN = 473.0g",1Value per 100 g,
Proximates
"Energy",kcal,--,--,80,17
"Protein",g,--,--,0.00,0.00
"Total lipid (fat)",g,--,--,0.00,0.00
"Carbohydrate, by difference",g,--,--,21.00,4.44
"Sugars, total",g,--,--,20.01,4.23
Minerals
"Sodium, Na",mg,--,--,161,34
Vitamins
"Niacin",mg,--,--,2.029,0.429
"Pantothenic acid",mg,--,--,2.001,0.423
"Vitamin B-6",mg,--,--,0.203,0.043
Lipids
Amino Acids
Other
Ingredients
"CARBONATED WATER, SUGAR, CITRIC ACID, LEMON JUICE CONCENTRATE, NATURAL FLAVOR, SODIUM HEXAMETAPHOSPHATE (TO PROTECT FLAVOR), POTASSIUM SORBATE (PRESERVES FRESHNESS), PURIFIED STEVIA LEAF EXTRACT, GUM ARABIC, GLYCEROL ESTER OF ROSIN, CALCIUM PANTOTHENATE (VITAMIN B5), NIACINAMIDE (VITAMIN B3), CALCIUM DISODIUM EDTA (TO PROTECT FLAVOR), PANAX GINSENG ROOT EXTRACT, RED 40, PYRIDOXINE HYDROCHLORIDE (VITAMIN B6)." Date available: 09/08/2017 Date last updated by company: 09/08/2017
