Source: USDA Branded Food Products Database Release December 2017 Software v.3.8.6.4 2017-10-02
Report Run at: December 18, 2017 05:02 EST
"Nutrient data for: 45098717, SPARTAN, CLASSIC CORN DOGS, HONEY, UPC: 011213015675"
Food Group:  Branded Food Products Database
Common Name:

Nutrient,Unit,Data points,Std. Error,"1 CORN DOG = 76.0g",1Value per 100 g,
Proximates
"Energy",kcal,--,--,220,289
"Protein",g,--,--,6.00,7.89
"Total lipid (fat)",g,--,--,11.00,14.47
"Carbohydrate, by difference",g,--,--,24.00,31.58
"Fiber, total dietary",g,--,--,1.0,1.3
"Sugars, total",g,--,--,9.00,11.84
Minerals
"Calcium, Ca",mg,--,--,40,53
"Iron, Fe",mg,--,--,1.61,2.12
"Sodium, Na",mg,--,--,610,803
Vitamins
"Vitamin C, total ascorbic acid",mg,--,--,0.0,0.0
"Vitamin A, IU",IU,--,--,0,0
Lipids
"Fatty acids, total saturated",g,--,--,2.500,3.290
"Fatty acids, total trans",g,--,--,0.000,0.000
"Cholesterol",mg,--,--,30,39
Amino Acids
Other
Ingredients
"BATTER INGREDIENTS: WATER, ENRICHED FLOUR (WHEAT FLOUR, NIACIN, IRON, THIAMINE MONONITRATE, RIBOFLAVIN, FOLIC ACID), SUGAR, DEGERMED YELLOW CORN MEAL, SALT, LEAVING (SODIUM ACID PYROPHOSPHATE, SODIUM BICARBONATE), SOY FLOUR, SOYBEAN OIL, DRIED HONEY, ONION POWDER, SOY LECITHIN, NONFAT MILK, EGG, COOKED IN VEGETABLE OIL (CONTAINS ONE OR MORE OF: CORN OIL, COTTONSEED OIL, SOYBEAN OIL). FRANK INGREDIENTS: MECHANICALLY SEPARATED CHICKEN PORK, WATER, DEXTROSE, SALT, CORN SYRUP, CONTAINS 2% OR LESS OF FLAVORINGS, SODIUM PHOSPHATE, BEEF, PAPRIKA AND PAPRIKA OLEORESIN, SODIUM ERYTHORBATE, SODIUM NITRITE." Date available: 07/14/2017 Date last updated by company: 07/14/2017
