Source: USDA Branded Food Products Database Release December 2017 Software v.3.8.6.4 2017-10-02
Report Run at: December 18, 2017 04:38 EST
"Nutrient data for: 45264044, SPARKLING CIDER, UPC: 041244462568"
Food Group:  Branded Food Products Database
Common Name:

Nutrient,Unit,Data points,Std. Error,"8.4 OZA = 250.0g",1Value per 100 g,
Proximates
"Energy",kcal,--,--,150,60
"Protein",g,--,--,1.00,0.40
"Total lipid (fat)",g,--,--,0.00,0.00
"Carbohydrate, by difference",g,--,--,37.00,14.80
"Fiber, total dietary",g,--,--,0.0,0.0
"Sugars, total",g,--,--,33.00,13.20
Minerals
"Calcium, Ca",mg,--,--,0,0
"Iron, Fe",mg,--,--,0.00,0.00
"Potassium, K",mg,--,--,125,50
"Sodium, Na",mg,--,--,0,0
Vitamins
"Vitamin C, total ascorbic acid",mg,--,--,86.5,34.6
"Riboflavin",mg,--,--,0.135,0.054
"Niacin",mg,--,--,1.535,0.614
"Vitamin A, IU",IU,--,--,0,0
Lipids
"Fatty acids, total saturated",g,--,--,0.000,0.000
"Fatty acids, total trans",g,--,--,0.000,0.000
"Cholesterol",mg,--,--,0,0
Amino Acids
Other
Ingredients
"PASTEURIZED 100% PURE, CARBONATED APPLE JUICE FROM U.S. GROWN FRESH APPLES, VITAMIN C. NO CONCENTRATES, NO WATER, NO SWEETENERS, NO PRESERVATIVES." Date available: 07/14/2017 Date last updated by company: 07/14/2017
