Source: USDA Branded Food Products Database Release December 2017 Software v.3.8.6.4 2017-10-02
Report Run at: December 18, 2017 05:17 EST
"Nutrient data for: 45077178, SPARTAN, READY-TO-SERVE GRAVY, ROASTED TURKEY, UPC: 011213042534"
Food Group:  Branded Food Products Database
Common Name:

Nutrient,Unit,Data points,Std. Error,"0.25 cup = 60.0g",1Value per 100 g,
Proximates
"Energy",kcal,--,--,25,42
"Protein",g,--,--,1.00,1.67
"Total lipid (fat)",g,--,--,1.00,1.67
"Carbohydrate, by difference",g,--,--,3.00,5.00
Minerals
"Calcium, Ca",mg,--,--,0,0
"Iron, Fe",mg,--,--,0.00,0.00
"Sodium, Na",mg,--,--,290,483
Vitamins
"Vitamin C, total ascorbic acid",mg,--,--,0.0,0.0
"Vitamin A, IU",IU,--,--,0,0
Lipids
"Fatty acids, total saturated",g,--,--,0.000,0.000
"Fatty acids, total monounsaturated",g,--,--,0.000,0.000
"Fatty acids, total polyunsaturated",g,--,--,0.000,0.000
"Fatty acids, total trans",g,--,--,0.000,0.000
"Cholesterol",mg,--,--,0,0
Amino Acids
Other
Ingredients
"TURKEY BROTH, MODIFIED CORN STARCH, CONTAINS LESS THAN 2% OF COOKED TURKEY MEAT, CHICKEN FAT, WHEAT FLOUR, SALT, TURKEY FAT, AUTOLYZED YEAST EXTRACT, ONION POWDER, MALTODEXTRIN, SPICES, NATURAL FLAVOR, DEHYDRATED GARLIC, BLACK PEPPER, CARAMEL COLOR, NATURAL EXTRACTIVES OF PAPRIKA, MONO- AND DIGLYCERIDES, SOY LECITHIN, SOYBEAN OIL." Date available: 10/13/2017 Date last updated by company: 10/13/2017
