Source: USDA Branded Food Products Database Release December 2017 Software v.3.8.6.4 2017-10-02
Report Run at: December 18, 2017 04:54 EST
"Nutrient data for: 45228779, SPARKLING WATER, UPC: 856579002255"
Food Group:  Branded Food Products Database
Common Name:

Nutrient,Unit,Data points,Std. Error,"1 CAN = 355.0g",1Value per 100 g,
Proximates
"Energy",kcal,--,--,14,4
"Protein",g,--,--,0.00,0.00
"Total lipid (fat)",g,--,--,0.00,0.00
"Carbohydrate, by difference",g,--,--,3.02,0.85
"Sugars, total",g,--,--,0.99,0.28
Minerals
"Sodium, Na",mg,--,--,0,0
Vitamins
Lipids
Amino Acids
Other
Ingredients
"SPARKLING WATER, BLACKBERRY JUICE, FRESH LEMON JUICE, BLACKBERRY PUREE, NATURAL FLAVOR." Date available: 07/14/2017 Date last updated by company: 07/14/2017
