Source: USDA Branded Food Products Database Release December 2017 Software v.3.8.6.4 2017-10-02
Report Run at: December 18, 2017 05:19 EST
"Nutrient data for: 45137123, SPARTAN, SODA, LEMON LIME, UPC: 011213072395"
Food Group:  Branded Food Products Database
Common Name:

Nutrient,Unit,Data points,Std. Error,"8.0 OZA = 240.0g",1Value per 100 g,
Proximates
"Energy",kcal,--,--,101,42
"Protein",g,--,--,0.00,0.00
"Total lipid (fat)",g,--,--,0.00,0.00
"Carbohydrate, by difference",g,--,--,25.99,10.83
"Sugars, total",g,--,--,25.99,10.83
Minerals
"Sodium, Na",mg,--,--,5,2
Vitamins
Lipids
Amino Acids
Other
Ingredients
"CARBONATED WATER, HIGH FRUCTOSE CORN SYRUP, CITRIC ACID, POTASSIUM CITRATE, NATURAL FLAVOR, POTASSIUM BENZOATE (PRESERVATIVE)." Date available: 06/25/2017 Date last updated by company: 06/25/2017
