Source: USDA Branded Food Products Database Release December 2017 Software v.3.8.6.4 2017-10-02
Report Run at: December 18, 2017 05:09 EST
"Nutrient data for: 45085005, SPARTAN, INDULGENT CREATIONS PREMIUM ICE CREAM, DOUBLE VANILLA, UPC: 011213013374"
Food Group:  Branded Food Products Database
Common Name:

Nutrient,Unit,Data points,Std. Error,"0.5 cup = 77.0g",1Value per 100 g,
Proximates
"Energy",kcal,--,--,180,234
"Protein",g,--,--,3.00,3.90
"Total lipid (fat)",g,--,--,10.00,12.99
"Carbohydrate, by difference",g,--,--,18.00,23.38
"Fiber, total dietary",g,--,--,0.0,0.0
"Sugars, total",g,--,--,13.00,16.88
Minerals
"Calcium, Ca",mg,--,--,100,130
"Iron, Fe",mg,--,--,0.00,0.00
"Sodium, Na",mg,--,--,35,45
Vitamins
"Vitamin C, total ascorbic acid",mg,--,--,0.0,0.0
"Vitamin A, IU",IU,--,--,450,584
Lipids
"Fatty acids, total saturated",g,--,--,5.998,7.790
"Fatty acids, total trans",g,--,--,0.000,0.000
"Cholesterol",mg,--,--,40,52
Amino Acids
Other
Ingredients
"MILK, CREAM, SUGAR, CORN SYRUP, SKIM MILK, WHEY, VANILLA BEAN SEEDS, STABILIZER (MONO- AND DIGLYCERIDES, CELLULOSE GUM, POLYSORBATE 80, CARRAGEENAN, GUAR GUM), VANILLA." Date available: 07/14/2017 Date last updated by company: 07/14/2017
