Source: USDA Branded Food Products Database Release December 2017 Software v.3.8.6.4 2017-10-02
Report Run at: December 18, 2017 05:30 EST
"Nutrient data for: 45238073, SPECTACULAR CLUB SODA, UPC: 851694003057"
Food Group:  Branded Food Products Database
Common Name:

Nutrient,Unit,Data points,Std. Error,"6.0 OZA = 177.0g",1Value per 100 g,
Proximates
"Energy",kcal,--,--,0,0
"Protein",g,--,--,0.00,0.00
"Total lipid (fat)",g,--,--,0.00,0.00
"Carbohydrate, by difference",g,--,--,0.00,0.00
"Sugars, total",g,--,--,0.00,0.00
Minerals
"Sodium, Na",mg,--,--,44,25
Vitamins
Lipids
Amino Acids
Other
Ingredients
"CARBONATED WATER, HIMALAYAN SALT" Date available: 08/10/2017 Date last updated by company: 08/10/2017
