Source: USDA Branded Food Products Database Release December 2017 Software v.3.8.6.4 2017-10-02
Report Run at: December 18, 2017 05:31 EST
"Nutrient data for: 45286902, SPECTACULAR KOLA, UPC: 851694003859"
Food Group:  Branded Food Products Database
Common Name:

Nutrient,Unit,Data points,Std. Error,"1 CAN = 222.0g",1Value per 100 g,
Proximates
"Energy",kcal,--,--,71,32
"Protein",g,--,--,0.00,0.00
"Total lipid (fat)",g,--,--,0.00,0.00
"Carbohydrate, by difference",g,--,--,19.00,8.56
"Sugars, total",g,--,--,18.00,8.11
Minerals
"Sodium, Na",mg,--,--,16,7
Vitamins
Lipids
Amino Acids
Other
Ingredients
"CARBONATED WATER, ORGANIC AGAVE, PHOSPHORIC ACID, CARAMEL, EXTRACTS OF VANILLA, LEMON, LIME, ORANGE, CINNAMON, CLOVES, NUTMEG, CORIANDER, AND KOLA NUT. CITRIC ACID, CAFFEINE." Date available: 08/10/2017 Date last updated by company: 08/10/2017
