Source: USDA Branded Food Products Database Release December 2017 Software v.3.8.6.4 2017-10-02
Report Run at: December 18, 2017 05:26 EST
"Nutrient data for: 45211341, SPECIAL BLENDS GRILLED VEGETABLES, UPC: 077890349861"
Food Group:  Branded Food Products Database
Common Name:

Nutrient,Unit,Data points,Std. Error,"0.25 PACKAGE = 113.0g",1Value per 100 g,
Proximates
"Energy",kcal,--,--,31,27
"Protein",g,--,--,0.99,0.88
"Total lipid (fat)",g,--,--,0.00,0.00
"Carbohydrate, by difference",g,--,--,6.99,6.19
"Fiber, total dietary",g,--,--,2.0,1.8
"Sugars, total",g,--,--,2.00,1.77
Minerals
"Calcium, Ca",mg,--,--,0,0
"Iron, Fe",mg,--,--,0.16,0.14
"Potassium, K",mg,--,--,150,133
"Sodium, Na",mg,--,--,0,0
Vitamins
"Vitamin C, total ascorbic acid",mg,--,--,9.3,8.2
"Vitamin A, IU",IU,--,--,221,196
Lipids
"Fatty acids, total saturated",g,--,--,0.000,0.000
"Fatty acids, total trans",g,--,--,0.000,0.000
"Cholesterol",mg,--,--,0,0
Amino Acids
Other
Ingredients
"GRILLED VEGETABLES (EGGPLANT, ZUCCHINI, RED BELL PEPPERS, YELLOW BELL PEPPERS, YELLOW ONION, RED ONION)." Date available: 07/14/2017 Date last updated by company: 07/14/2017
