Source: USDA Branded Food Products Database Release December 2017 Software v.3.8.6.4 2017-10-02
Report Run at: December 18, 2017 05:30 EST
"Nutrient data for: 45214444, SPECKLED HIDE & SEEK MALTED MILK EGGS, UPC: 050428473498"
Food Group:  Branded Food Products Database
Common Name:

Nutrient,Unit,Data points,Std. Error,"9.0 PIECES = 40.0g",1Value per 100 g,
Proximates
"Energy",kcal,--,--,190,475
"Protein",g,--,--,1.00,2.50
"Total lipid (fat)",g,--,--,7.00,17.50
"Carbohydrate, by difference",g,--,--,32.00,80.00
"Fiber, total dietary",g,--,--,0.0,0.0
"Sugars, total",g,--,--,26.00,65.00
Minerals
"Calcium, Ca",mg,--,--,20,50
"Iron, Fe",mg,--,--,0.00,0.00
"Sodium, Na",mg,--,--,55,138
Vitamins
"Vitamin C, total ascorbic acid",mg,--,--,0.0,0.0
"Vitamin A, IU",IU,--,--,0,0
Lipids
"Fatty acids, total saturated",g,--,--,6.000,15.000
"Fatty acids, total trans",g,--,--,0.000,0.000
"Cholesterol",mg,--,--,0,0
Amino Acids
Other
Ingredients
"SUGAR, CORN SYRUP, PARTIALLY HYDROGENATED VEGETABLE OIL (PALM KERNEL, COCONUT OIL), WHEY (MILK), MALTED MILK (MALTED BARLEY, WHEAT FLOUR, MILK, SODIUM BICARBONATE, SALT), MALT EXTRACT, MONO- AND DIGLYCERIDES (VEGETABLE), SOY LECITHIN, SALT, TITANIUM DIOXIDE, ARTIFICIAL COLORS (YELLOW 5, YELLOW 5 LAKE, BLUE 1 LAKE, BLUE 1, RED 3, RED 40 LAKE), ARTIFICIAL FLAVORS, MODIFIED CORN STARCH, GUM ARABIC, CONFECTIONER'S GLAZE." Date available: 07/14/2017 Date last updated by company: 07/14/2017
