Source: USDA Branded Food Products Database Release December 2017 Software v.3.8.6.4 2017-10-02
Report Run at: December 18, 2017 05:31 EST
"Nutrient data for: 45324523, SPECTACULAR GINGER BEER, UPC: 851694003750"
Food Group:  Branded Food Products Database
Common Name:

Nutrient,Unit,Data points,Std. Error,"1 CAN = 222.0g",1Value per 100 g,
Proximates
"Energy",kcal,--,--,80,36
"Protein",g,--,--,0.00,0.00
"Total lipid (fat)",g,--,--,0.00,0.00
"Carbohydrate, by difference",g,--,--,21.00,9.46
"Sugars, total",g,--,--,20.00,9.01
Minerals
"Sodium, Na",mg,--,--,20,9
Vitamins
Lipids
Amino Acids
Other
Ingredients
"CARBONATED WATER, ORGANIC AGAVE, CITRIC ACID, GINGER EXTRACT, EXTRACTS OF CHILI PEPPER, CORIANDER, CARDAMOM, LIME, AND ORANGE." Date available: 08/10/2017 Date last updated by company: 08/10/2017
