Source: USDA Branded Food Products Database Release December 2017 Software v.3.8.6.4 2017-10-02
Report Run at: December 18, 2017 05:32 EST
"Nutrient data for: 45034298, SPECTRUM NATURALS, ORGANIC FILTERED APPLE CIDER VINEGAR, UPC: 022506280168"
Food Group:  Branded Food Products Database
Common Name:

Nutrient,Unit,Data points,Std. Error,"1 Tbsp = 15.0g",1Value per 100 g,
Proximates
"Energy",kcal,--,--,5,33
"Protein",g,--,--,0.00,0.00
"Total lipid (fat)",g,--,--,0.00,0.00
"Carbohydrate, by difference",g,--,--,1.00,6.67
"Sugars, total",g,--,--,1.00,6.67
Minerals
"Sodium, Na",mg,--,--,0,0
Vitamins
Lipids
Amino Acids
Other
Ingredients
"ORGANIC RAW UNPASTEURIZED APPLE CIDER VINEGAR WITH NATURALLY OCCURRING MOTHER OF VINEGAR. DILUTED WITH WATER TO 5% ACIDITY" Date available: 06/24/2017 Date last updated by company: 06/24/2017
