Source: USDA Branded Food Products Database Release December 2017 Software v.3.8.6.4 2017-10-02
Report Run at: December 18, 2017 05:33 EST
"Nutrient data for: 45157323, SPEEDY CHOICE, PREMIUM GUMMI WORMS CANDY, UPC: 052894122092"
Food Group:  Branded Food Products Database
Common Name:

Nutrient,Unit,Data points,Std. Error,"10.0 PIECES = 40.0g",1Value per 100 g,
Proximates
"Energy",kcal,--,--,120,300
"Protein",g,--,--,2.00,5.00
"Total lipid (fat)",g,--,--,0.00,0.00
"Carbohydrate, by difference",g,--,--,29.00,72.50
"Fiber, total dietary",g,--,--,0.0,0.0
"Sugars, total",g,--,--,19.00,47.50
Minerals
"Calcium, Ca",mg,--,--,0,0
"Iron, Fe",mg,--,--,0.00,0.00
"Sodium, Na",mg,--,--,10,25
Vitamins
"Vitamin C, total ascorbic acid",mg,--,--,0.0,0.0
"Vitamin A, IU",IU,--,--,0,0
Lipids
"Fatty acids, total saturated",g,--,--,0.000,0.000
"Fatty acids, total trans",g,--,--,0.000,0.000
"Cholesterol",mg,--,--,0,0
Amino Acids
Other
Ingredients
"CORN SYRUP, SUGAR, GELATIN, CITRIC ACID, SORBITOL, NATURAL AND ARTIFICIAL FLAVORS, FD&C YELLOW #5, YELLOW #6, BLUE #1, RED #40, VEGETABLE OIL (COCONUT), CARNAUBA WAX (FOR ANTI-STICKING)." Date available: 07/14/2017 Date last updated by company: 07/14/2017
