Source: USDA Branded Food Products Database Release December 2017 Software v.3.8.6.4 2017-10-02
Report Run at: December 18, 2017 05:39 EST
"Nutrient data for: 45064949, SPICE PASTE FOR CANTONESE SWEET AND SOUR STIR FRY, UPC: 015205000069"
Food Group:  Branded Food Products Database
Common Name:

Nutrient,Unit,Data points,Std. Error,"1 Tbsp = 13.0g",1Value per 100 g,
Proximates
"Energy",kcal,--,--,30,231
"Protein",g,--,--,0.00,0.00
"Total lipid (fat)",g,--,--,1.00,7.69
"Carbohydrate, by difference",g,--,--,5.00,38.46
"Fiber, total dietary",g,--,--,0.0,0.0
"Sugars, total",g,--,--,5.00,38.46
Minerals
"Calcium, Ca",mg,--,--,0,0
"Iron, Fe",mg,--,--,0.00,0.00
"Sodium, Na",mg,--,--,210,1615
Vitamins
"Vitamin C, total ascorbic acid",mg,--,--,0.0,0.0
"Vitamin A, IU",IU,--,--,0,0
Lipids
"Fatty acids, total saturated",g,--,--,0.000,0.000
"Fatty acids, total trans",g,--,--,0.000,0.000
"Cholesterol",mg,--,--,0,0
Amino Acids
Other
Ingredients
"TOMATO PASTE, SUGAR, GARLIC, SOY SAUCE (WATER, SOYBEAN, WHEAT, SALT), SOYBEAN OIL, DISTILLED VINEGAR, SALT, HERBS AND SPICES, PINEAPPLE FLAVOUR." Date available: 07/14/2017 Date last updated by company: 07/14/2017
