Source: USDA Branded Food Products Database Release December 2017 Software v.3.8.6.4 2017-10-02
Report Run at: December 18, 2017 05:48 EST
"Nutrient data for: 45223839, SPICY MARINARA SAUCE, UPC: 706010112947"
Food Group:  Branded Food Products Database
Common Name:

Nutrient,Unit,Data points,Std. Error,"0.5 cup = 125.0g",1Value per 100 g,
Proximates
"Energy",kcal,--,--,60,48
"Protein",g,--,--,2.00,1.60
"Total lipid (fat)",g,--,--,0.50,0.40
"Carbohydrate, by difference",g,--,--,13.00,10.40
"Fiber, total dietary",g,--,--,3.0,2.4
"Sugars, total",g,--,--,8.00,6.40
Minerals
"Calcium, Ca",mg,--,--,40,32
"Iron, Fe",mg,--,--,2.85,2.28
"Sodium, Na",mg,--,--,410,328
Vitamins
"Vitamin C, total ascorbic acid",mg,--,--,19.0,15.2
"Vitamin A, IU",IU,--,--,792,634
Lipids
"Fatty acids, total saturated",g,--,--,0.000,0.000
"Fatty acids, total trans",g,--,--,0.000,0.000
"Cholesterol",mg,--,--,0,0
Amino Acids
Other
Ingredients
"TOMATO PUREE (WATER, TOMATO PASTE), DICED TOMATOES (TOMATOES, CITRIC ACID), SUGAR, SALT, MINCED GARLIC, DRIED ONIONS, PARSLEY, EXTRA VIRGIN OLIVE OIL, CITRIC ACID, DEHYDRATED GARLIC, CHILI PEPPER, BLACK PEPPER." Date available: 07/14/2017 Date last updated by company: 07/14/2017
