Source: USDA Branded Food Products Database Release December 2017 Software v.3.8.6.4 2017-10-02
Report Run at: December 18, 2017 05:48 EST
"Nutrient data for: 45105648, SPICY MEXICAN CHOCOLATE SAUCE, UPC: 711381322109"
Food Group:  Branded Food Products Database
Common Name:

Nutrient,Unit,Data points,Std. Error,"2.0 Tbsp = 36.0g",1Value per 100 g,
Proximates
"Energy",kcal,--,--,150,417
"Protein",g,--,--,1.00,2.78
"Total lipid (fat)",g,--,--,8.00,22.22
"Carbohydrate, by difference",g,--,--,19.00,52.78
"Fiber, total dietary",g,--,--,1.0,2.8
"Sugars, total",g,--,--,13.00,36.11
Minerals
"Calcium, Ca",mg,--,--,0,0
"Iron, Fe",mg,--,--,2.92,8.12
"Sodium, Na",mg,--,--,60,167
Vitamins
"Vitamin C, total ascorbic acid",mg,--,--,0.0,0.0
"Vitamin A, IU",IU,--,--,406,1128
Lipids
"Fatty acids, total saturated",g,--,--,5.000,13.890
"Fatty acids, total trans",g,--,--,0.000,0.000
"Cholesterol",mg,--,--,20,56
Amino Acids
Other
Ingredients
"PURE CANE SUGAR, HEAVY CREAM (MILK), CORN SYRUP, CHOCOLATE LIQUOR, COCOA POWDER, GLYCERINE, UNSALTED BUTTER (MILK), COCOA BUTTER, SPICES, SALT, CAYENNE PEPPER, SOY LECITHIN, CARRAGEENAN (CARRAGEENAN, MALTODEXTRIN), VANILLA (WATER, ALCOHOL, SUGAR, VANILLA BEAN EXTRACTIVES)." Date available: 06/25/2017 Date last updated by company: 06/25/2017
