Source: USDA Branded Food Products Database Release December 2017 Software v.3.8.6.4 2017-10-02
Report Run at: December 18, 2017 05:46 EST
"Nutrient data for: 45178003, SPICY HOMMUS TOPPED WITH SLOW ROASTED ANCHO CHILI PEPPERS, UPC: 712462001043"
Food Group:  Branded Food Products Database
Common Name:

Nutrient,Unit,Data points,Std. Error,"2.0 Tbsp = 28.0g",1Value per 100 g,
Proximates
"Energy",kcal,--,--,60,214
"Protein",g,--,--,1.00,3.57
"Total lipid (fat)",g,--,--,4.00,14.29
"Carbohydrate, by difference",g,--,--,4.00,14.29
"Fiber, total dietary",g,--,--,1.0,3.6
"Sugars, total",g,--,--,1.00,3.57
Minerals
"Calcium, Ca",mg,--,--,20,71
"Iron, Fe",mg,--,--,0.64,2.29
"Sodium, Na",mg,--,--,105,375
Vitamins
"Vitamin C, total ascorbic acid",mg,--,--,2.2,7.7
"Vitamin A, IU",IU,--,--,357,1275
Lipids
"Fatty acids, total saturated",g,--,--,0.000,0.000
"Fatty acids, total trans",g,--,--,0.000,0.000
"Cholesterol",mg,--,--,0,0
Amino Acids
Other
Ingredients
"CHICKPEAS, SESAME TAHINI, ROASTED RED PEPPER, SUNFLOWER OIL, OLIVE OIL, WATER, ANCHO CHILE PEPPERS, CRUSHED RED PEPPER, GARLIC, CITRIC ACID, SEA SALT, GUAR GUM, CUMIN. TOPPING: ANCHO CHILI PEPPER, RED PEPPER, WATER, SALT, CITRIC ACID, OLIVE OIL, WHITE VINEGAR, GARLIC, SUGAR, GUAR GUM." Date available: 07/14/2017 Date last updated by company: 07/14/2017
