Source: USDA Branded Food Products Database Release December 2017 Software v.3.8.6.4 2017-10-02
Report Run at: December 18, 2017 05:49 EST
"Nutrient data for: 45063951, SPICY PICKLED MANGO, UPC: 069276012056"
Food Group:  Branded Food Products Database
Common Name:

Nutrient,Unit,Data points,Std. Error,"1 Tbsp = 15.0g",1Value per 100 g,
Proximates
"Energy",kcal,--,--,35,233
"Protein",g,--,--,0.00,0.00
"Total lipid (fat)",g,--,--,3.00,20.00
"Carbohydrate, by difference",g,--,--,2.00,13.33
"Fiber, total dietary",g,--,--,1.0,6.7
"Sugars, total",g,--,--,1.00,6.67
Minerals
"Calcium, Ca",mg,--,--,0,0
"Iron, Fe",mg,--,--,0.00,0.00
"Sodium, Na",mg,--,--,520,3467
Vitamins
"Vitamin C, total ascorbic acid",mg,--,--,0.0,0.0
"Vitamin A, IU",IU,--,--,0,0
Lipids
"Fatty acids, total saturated",g,--,--,0.000,0.000
"Fatty acids, total trans",g,--,--,0.000,0.000
"Cholesterol",mg,--,--,0,0
Amino Acids
Other
Ingredients
"MANGOES, CANOLA OIL, SALT, MUSTARD, CHILE PEPPER, ACETIC ACID, FENUGREEK, SPICES, TURMERIC (COLOR)." Date available: 07/14/2017 Date last updated by company: 07/14/2017
