Source: USDA Branded Food Products Database Release December 2017 Software v.3.8.6.4 2017-10-02
Report Run at: December 18, 2017 05:48 EST
"Nutrient data for: 45034336, SPICY PEANUT BAKE, UPC: 070650800152"
Food Group:  Branded Food Products Database
Common Name:

Nutrient,Unit,Data points,Std. Error,"2.0 Tbsp = 19.0g",1Value per 100 g,
Proximates
"Energy",kcal,--,--,80,421
"Protein",g,--,--,2.00,10.53
"Total lipid (fat)",g,--,--,2.50,13.16
"Carbohydrate, by difference",g,--,--,13.00,68.42
"Fiber, total dietary",g,--,--,1.0,5.3
Minerals
"Calcium, Ca",mg,--,--,63,332
"Iron, Fe",mg,--,--,0.30,1.58
"Potassium, K",mg,--,--,175,921
"Sodium, Na",mg,--,--,240,1263
Vitamins
"Vitamin D",IU,--,--,0,0
Lipids
"Fatty acids, total saturated",g,--,--,0.500,2.630
"Fatty acids, total trans",g,--,--,0.000,0.000
"Cholesterol",mg,--,--,0,0
Amino Acids
Other
Ingredients
"SUGAR, PEANUTS, DEXTROSE, SPICES (CHILI, LEMONGRASS, KAFFIR LIME LEAVES), SALT, HYDROLYZED VEGETABLE PROTEIN (SOYBEAN, CORN, MALTODEXTRIN), CORNSTARCH, TRICALCIUM PHOSPHATE (AN ANTI-CAKING AGENT), MALIC ACID, YEAST EXTRACT, ONION." Date available: 07/14/2017 Date last updated by company: 07/14/2017
