Source: USDA Branded Food Products Database Release December 2017 Software v.3.8.6.4 2017-10-02
Report Run at: December 18, 2017 05:36 EST
"Nutrient data for: 45201176, SPICED HONEY MUSTARD, UPC: 752978602730"
Food Group:  Branded Food Products Database
Common Name:

Nutrient,Unit,Data points,Std. Error,"2.0 Tbsp = 32.0g",1Value per 100 g,
Proximates
"Energy",kcal,--,--,30,94
"Protein",g,--,--,1.00,3.12
"Total lipid (fat)",g,--,--,1.50,4.69
"Carbohydrate, by difference",g,--,--,4.00,12.50
"Fiber, total dietary",g,--,--,1.0,3.1
"Sugars, total",g,--,--,2.00,6.25
Minerals
"Calcium, Ca",mg,--,--,20,62
"Iron, Fe",mg,--,--,1.22,3.80
"Sodium, Na",mg,--,--,560,1750
Vitamins
"Vitamin C, total ascorbic acid",mg,--,--,0.0,0.0
"Vitamin A, IU",IU,--,--,338,1056
Lipids
"Fatty acids, total saturated",g,--,--,0.000,0.000
"Cholesterol",mg,--,--,0,0
Amino Acids
Other
Ingredients
"MUSTARD (VINEGAR, SELECTED MUSTARD SEED, SALT, TURMERIC AND SPICES), HONEY, SPICES (PAPRIKA, GARLIC, ONION, PEPPER, THYME & OREGANO.)" Date available: 07/14/2017 Date last updated by company: 07/14/2017
