Source: USDA Branded Food Products Database Release December 2017 Software v.3.8.6.4 2017-10-02
Report Run at: December 18, 2017 05:46 EST
"Nutrient data for: 45273645, SPICY GUACAMOLE, UPC: 616112027059"
Food Group:  Branded Food Products Database
Common Name:

Nutrient,Unit,Data points,Std. Error,"2.0 Tbsp = 30.0g",1Value per 100 g,
Proximates
"Energy",kcal,--,--,60,200
"Protein",g,--,--,1.00,3.33
"Total lipid (fat)",g,--,--,5.00,16.67
"Carbohydrate, by difference",g,--,--,3.00,10.00
"Fiber, total dietary",g,--,--,2.0,6.7
"Sugars, total",g,--,--,0.00,0.00
Minerals
"Calcium, Ca",mg,--,--,0,0
"Iron, Fe",mg,--,--,0.60,2.00
"Sodium, Na",mg,--,--,105,350
Vitamins
"Vitamin C, total ascorbic acid",mg,--,--,4.0,13.3
"Vitamin A, IU",IU,--,--,166,555
Lipids
"Fatty acids, total saturated",g,--,--,0.999,3.330
"Fatty acids, total trans",g,--,--,0.000,0.000
"Cholesterol",mg,--,--,0,0
Amino Acids
Other
Ingredients
"HASS AVOCADO, VINEGAR, JALAPENO PEPPER, DEHYDRATED ONION, SALT, JALAPENO POWDER, DEHYDRATED RED BELL PEPPER, GRANULATED GARLIC." Date available: 07/14/2017 Date last updated by company: 07/14/2017
