Source: USDA Branded Food Products Database Release December 2017 Software v.3.8.6.4 2017-10-02
Report Run at: December 18, 2017 05:48 EST
"Nutrient data for: 45081368, SPICY OKRA PICKLED, UPC: 011210024007"
Food Group:  Branded Food Products Database
Common Name:

Nutrient,Unit,Data points,Std. Error,"2.0 OKRA = 28.0g",1Value per 100 g,
Proximates
"Energy",kcal,--,--,10,36
"Protein",g,--,--,0.00,0.00
"Total lipid (fat)",g,--,--,0.00,0.00
"Carbohydrate, by difference",g,--,--,2.00,7.14
"Fiber, total dietary",g,--,--,1.0,3.6
Minerals
"Calcium, Ca",mg,--,--,40,143
"Sodium, Na",mg,--,--,250,893
Vitamins
Lipids
Amino Acids
Other
Ingredients
"DISTILLED VINEGAR, OKRA, SALT, TABASCO BRAND PEPPER SAUCE (DISTILLED VINEGAR, RED PEPPER, SALT), CORN SUGAR, NATURAL FLAVOR, CALCIUM CHLORIDE ""A FIRMING AGENT,* TURMERIC." Date available: 06/25/2017 Date last updated by company: 06/25/2017
