Source: USDA Branded Food Products Database Release December 2017 Software v.3.8.6.4 2017-10-02
Report Run at: December 18, 2017 05:37 EST
"Nutrient data for: 45197879, SPICED PEACH HALVES, UPC: 073934152428"
Food Group:  Branded Food Products Database
Common Name:

Nutrient,Unit,Data points,Std. Error,"0.5 cup = 130.0g",1Value per 100 g,
Proximates
"Energy",kcal,--,--,150,115
"Protein",g,--,--,0.00,0.00
"Total lipid (fat)",g,--,--,0.00,0.00
"Carbohydrate, by difference",g,--,--,35.00,26.92
"Fiber, total dietary",g,--,--,0.0,0.0
"Sugars, total",g,--,--,26.00,20.00
Minerals
"Calcium, Ca",mg,--,--,0,0
"Iron, Fe",mg,--,--,0.39,0.30
"Sodium, Na",mg,--,--,10,8
Vitamins
"Vitamin C, total ascorbic acid",mg,--,--,5.2,4.0
"Vitamin A, IU",IU,--,--,322,248
Lipids
"Fatty acids, total saturated",g,--,--,0.000,0.000
"Fatty acids, total trans",g,--,--,0.000,0.000
"Cholesterol",mg,--,--,0,0
Amino Acids
Other
Ingredients
"PEACHES, SUGAR, VINEGAR, NATURAL FLAVORS." Date available: 07/14/2017 Date last updated by company: 07/14/2017
