Source: USDA Branded Food Products Database Release December 2017 Software v.3.8.6.4 2017-10-02
Report Run at: December 18, 2017 05:55 EST
"Nutrient data for: 45218014, SPINACH & CHEESE WRAPPED IN FILLO DOUGH, UPC: 061651610109"
Food Group:  Branded Food Products Database
Common Name:

Nutrient,Unit,Data points,Std. Error,"2.0 PIECES = 59.0g",1Value per 100 g,
Proximates
"Energy",kcal,--,--,120,203
"Protein",g,--,--,5.00,8.47
"Total lipid (fat)",g,--,--,5.00,8.47
"Carbohydrate, by difference",g,--,--,16.00,27.12
"Fiber, total dietary",g,--,--,2.0,3.4
"Sugars, total",g,--,--,2.00,3.39
Minerals
"Calcium, Ca",mg,--,--,150,254
"Iron, Fe",mg,--,--,7.78,13.19
"Sodium, Na",mg,--,--,250,424
Vitamins
"Vitamin C, total ascorbic acid",mg,--,--,30.3,51.3
"Vitamin A, IU",IU,--,--,2882,4884
Lipids
"Fatty acids, total saturated",g,--,--,1.499,2.540
"Fatty acids, total trans",g,--,--,0.000,0.000
"Cholesterol",mg,--,--,20,34
Amino Acids
Other
Ingredients
"SPINACH, FETA CHEESE (PASTEURIZED COW'S MILK, SKIM MILK POWDER, CULTURES, RENNET, SALT AND WATER), LIQUID FRESH EGGS, FILLO DOUGH (FLOUR, WATER, CORN STARCH, VEGETABLE OIL, SODIUM PROPIONATE AND POTASSIUM SORBATE), VEGETABLE CANOLA OIL, DEHYDRATED ONIONS, DILL, PARSLEY, BLACK PEPPER, SALT, SODIUM BENZOATE." Date available: 07/14/2017 Date last updated by company: 07/14/2017
