Source: USDA Branded Food Products Database Release December 2017 Software v.3.8.6.4 2017-10-02
Report Run at: December 18, 2017 05:59 EST
"Nutrient data for: 45270216, SPINACH & RICOTTA RAVIOLI, UPC: 877448003685"
Food Group:  Branded Food Products Database
Common Name:

Nutrient,Unit,Data points,Std. Error,"1 cup = 103.0g",1Value per 100 g,
Proximates
"Energy",kcal,--,--,250,243
"Protein",g,--,--,10.00,9.71
"Total lipid (fat)",g,--,--,7.00,6.80
"Carbohydrate, by difference",g,--,--,33.00,32.04
"Fiber, total dietary",g,--,--,4.0,3.9
"Sugars, total",g,--,--,1.00,0.97
Minerals
"Calcium, Ca",mg,--,--,150,146
"Iron, Fe",mg,--,--,0.98,0.95
"Sodium, Na",mg,--,--,540,524
Vitamins
"Vitamin C, total ascorbic acid",mg,--,--,1.6,1.6
"Vitamin A, IU",IU,--,--,3058,2969
Lipids
"Fatty acids, total saturated",g,--,--,4.501,4.370
"Fatty acids, total trans",g,--,--,0.000,0.000
"Cholesterol",mg,--,--,70,68
Amino Acids
Other
Ingredients
"FILLING (RICOTTA (WHEY, WHOLE MILK, CREAM, VINEGAR), SPINACH, WHEY, MOZZARELLA CHEESE (PASTEURIZED CULTURED MILK, SALT, ENZYMES), HEAVY CREAM (CREAM), BREAD CRUMBS (WHEAT FLOUR, YEAST, SALT), PARMESAN CHEESE (PASTEURIZED CULTURED MILK, SALT, ENZYMES), CORNSTARCH, CHICORY ROOT FIBER, VEGETABLE FIBER, 2% OR LESS OF NATURAL FLAVORS, SALT, GARLIC, BLACK PEPPER). PASTA (DURUM WHEAT FLOUR, EGGS, WATER)." Date available: 07/14/2017 Date last updated by company: 07/14/2017
