Source: USDA Branded Food Products Database Release December 2017 Software v.3.8.6.4 2017-10-02
Report Run at: December 18, 2017 05:58 EST
"Nutrient data for: 45284163, SPINACH ORGANIC CHICKEN SAUSAGE, UPC: 072745634048"
Food Group:  Branded Food Products Database
Common Name:

Nutrient,Unit,Data points,Std. Error,"1 LINK = 85.0g",1Value per 100 g,
Proximates
"Energy",kcal,--,--,150,176
"Protein",g,--,--,15.00,17.65
"Total lipid (fat)",g,--,--,9.00,10.59
"Carbohydrate, by difference",g,--,--,1.00,1.18
"Fiber, total dietary",g,--,--,0.0,0.0
"Sugars, total",g,--,--,0.00,0.00
Minerals
"Calcium, Ca",mg,--,--,20,24
"Iron, Fe",mg,--,--,0.70,0.82
"Sodium, Na",mg,--,--,540,635
Vitamins
"Vitamin C, total ascorbic acid",mg,--,--,3.9,4.6
"Vitamin A, IU",IU,--,--,809,952
Lipids
"Fatty acids, total saturated",g,--,--,2.499,2.940
"Fatty acids, total trans",g,--,--,0.000,0.000
"Cholesterol",mg,--,--,60,71
Amino Acids
Other
Ingredients
"CERTIFIED ORGANIC CHICKEN RAISED WITHOUT ANTIBIOTICS, ORGANIC SPINACH. CONTAINS 2% OR LESS OF SEA SALT, WATER, ORGANIC VINEGAR, ORGANIC PEPPER, ORGANIC PARSLEY, CELERY POWDER, ORGANIC GARLIC POWDER, EXTRACT OF OREGANO, IN A NATURAL PORK CASING." Date available: 07/14/2017 Date last updated by company: 07/14/2017
