Source: USDA Branded Food Products Database Release December 2017 Software v.3.8.6.4 2017-10-02
Report Run at: December 18, 2017 05:56 EST
"Nutrient data for: 45254557, SPINACH DIP WITH PRETZELS, UPC: 725439980951"
Food Group:  Branded Food Products Database
Common Name:

Nutrient,Unit,Data points,Std. Error,"1 PACKAGE = 85.0g",1Value per 100 g,
Proximates
"Energy",kcal,--,--,200,235
"Protein",g,--,--,5.00,5.88
"Total lipid (fat)",g,--,--,10.00,11.76
"Carbohydrate, by difference",g,--,--,23.00,27.06
"Fiber, total dietary",g,--,--,1.0,1.2
"Sugars, total",g,--,--,3.00,3.53
Minerals
"Calcium, Ca",mg,--,--,60,71
"Iron, Fe",mg,--,--,0.64,0.75
"Sodium, Na",mg,--,--,670,788
Vitamins
"Vitamin C, total ascorbic acid",mg,--,--,2.1,2.5
"Vitamin A, IU",IU,--,--,588,692
Lipids
"Fatty acids, total saturated",g,--,--,2.499,2.940
"Fatty acids, total trans",g,--,--,0.000,0.000
"Cholesterol",mg,--,--,15,18
Amino Acids
Other
Ingredients
"NATURAL SPINACH DIP: YOGURT (GRADE A PASTEURIZE) SKIM MILK, CREAM, MILK PROTEIN CONCENTRATE, FOOD STARCH, GELATIN, PECTIN, CULTURES (STREPTOCOCCUS THERMOPHILUS, LACTOBACILLUS DELBRUECKII SUB SP. BUEGARIOUS, LACTOBACILLUS PARACASEI, PROPIONIBACTERIUM FREUDENREICHII SHERMANII)), WATER CHESTNUTS, SPINACH, MAYONNAISE (SOYBEAN OIL, EGG YOLKS DISTILLED VINEGAR, WATER, SUGAR, SALT, CIDER VINEGAR, SPICES) SEASONING MIX (MALTODEXTRIN, POTATO SPINACH, SALT, YEAST EXTRACT, ONION POWDER, TOMATO POWDER, SOYBEAN OIL, SPICES), DEHYDRATED VEGETABLES (CARROTS, TOMATO, CELERY, CABBAGE, LEEKS, GARLIC, CELERY SALT, SEA SALE, NATAMYCIN (NATURAL PRESERVATIVE). PRETZELS: UNBLEACHED ENRICHED WHEAT FLOUR (FLOUR, NIACIN, REDUCED IRON, THIAMINE MONONITRATE-B1, RIBOFLAVIN-B2, FOLIC ACID), MALT, SALT, SOYBEAN OIL*, SODA." Date available: 07/14/2017 Date last updated by company: 07/14/2017
