Source: USDA Branded Food Products Database Release December 2017 Software v.3.8.6.4 2017-10-02
Report Run at: December 18, 2017 05:55 EST
"Nutrient data for: 45202694, SPINACH & CHEESE FILLO PIES, UPC: 785002010539"
Food Group:  Branded Food Products Database
Common Name:

Nutrient,Unit,Data points,Std. Error,"0.2 PIE = 136.0g",1Value per 100 g,
Proximates
"Energy",kcal,--,--,271,199
"Protein",g,--,--,9.00,6.62
"Total lipid (fat)",g,--,--,15.00,11.03
"Carbohydrate, by difference",g,--,--,26.00,19.12
"Fiber, total dietary",g,--,--,2.0,1.5
"Sugars, total",g,--,--,2.00,1.47
Minerals
"Calcium, Ca",mg,--,--,200,147
"Iron, Fe",mg,--,--,3.24,2.38
"Sodium, Na",mg,--,--,560,412
Vitamins
"Vitamin C, total ascorbic acid",mg,--,--,4.4,3.2
"Vitamin A, IU",IU,--,--,10809,7948
Lipids
"Fatty acids, total saturated",g,--,--,7.997,5.880
"Fatty acids, total trans",g,--,--,0.000,0.000
"Cholesterol",mg,--,--,39,29
Amino Acids
Other
Ingredients
"SPINACH, FILLO DOUGH (ENRICHED UNBLEACHED UNBROMATED WHEAT FLOUR [WHEAT FLOUR ENRICHED (NIACIN, IRON, THIAMINE MONONITRATE, RIBOFLAVIN, FOLIC ACID), MALTED BARLEY FLOUR], FILTERED WATER, WHEAT STARCH, TAPIOCA STARCH, MALTED BARLEY FLOUR, SUCROSE, EXPELLER PRESSED CANOLA OIL, SALT, NON-GMO SOY LECITHIN, TRICALCIUM PHOSPHATE), FETA CHEESE (CULTURED PASTEURIZED PART SKIM MILK, SALT, CULTURE AND ENZYMES), RICOTTA CHEESE (WHEY, SALT, VINEGAR), ONIONS, CREAM CHEESE (PASTEURIZED CULTURED CREAM AND MILK, NATURAL ACIDS, SALT, XANTHAN, CAROB BEAN AND GUAR GUMS), CLARIFIED SWEET BUTTER (CREAM, NATURAL FLAVOR), EXPELLER PRESSED CANOLA OIL, GARLIC, WHEAT FLOUR, RICE FLOUR, DILL WEED, PARSLEY, LEMON JUICE, SEA SALT, BLACK PEPPER." Date available: 07/14/2017 Date last updated by company: 07/14/2017
