Source: USDA Branded Food Products Database Release December 2017 Software v.3.8.6.4 2017-10-02
Report Run at: December 18, 2017 06:04 EST
"Nutrient data for: 45065277, SPLIT PEA & POTATO SOUP, UPC: 853434002436"
Food Group:  Branded Food Products Database
Common Name:

Nutrient,Unit,Data points,Std. Error,"1 cup = 245.0g",1Value per 100 g,
Proximates
"Energy",kcal,--,--,130,53
"Protein",g,--,--,7.01,2.86
"Total lipid (fat)",g,--,--,2.01,0.82
"Carbohydrate, by difference",g,--,--,22.00,8.98
"Fiber, total dietary",g,--,--,7.1,2.9
"Sugars, total",g,--,--,2.99,1.22
Minerals
"Calcium, Ca",mg,--,--,39,16
"Iron, Fe",mg,--,--,1.79,0.73
"Sodium, Na",mg,--,--,341,139
Vitamins
"Vitamin C, total ascorbic acid",mg,--,--,5.9,2.4
"Vitamin A, IU",IU,--,--,1250,510
Lipids
"Fatty acids, total saturated",g,--,--,0.000,0.000
"Fatty acids, total trans",g,--,--,0.000,0.000
"Cholesterol",mg,--,--,0,0
Amino Acids
Other
Ingredients
"WATER, SPLIT PEAS*, POTATOES*, GREEN PEAS*, ONIONS*, CARROTS*, CELERY*, EXTRA VIRGIN OLIVE OIL*, AGAVE SYRUP*, GARLIC*, POTATO STARCH*, SEA SALT, LEEKS*, SPICES*." Date available: 08/10/2017 Date last updated by company: 08/10/2017
