Source: USDA Branded Food Products Database Release December 2017 Software v.3.8.6.4 2017-10-02
Report Run at: December 18, 2017 06:08 EST
"Nutrient data for: 45164206, SPOOKY SWEETS, MELLOWCREME PUMPKINS, UPC: 049022847507"
Food Group:  Branded Food Products Database
Common Name:

Nutrient,Unit,Data points,Std. Error,"7.0 PIECES = 39.0g",1Value per 100 g,
Proximates
"Energy",kcal,--,--,150,385
"Protein",g,--,--,0.00,0.00
"Total lipid (fat)",g,--,--,0.00,0.00
"Carbohydrate, by difference",g,--,--,36.00,92.31
"Sugars, total",g,--,--,30.00,76.92
Minerals
"Sodium, Na",mg,--,--,40,103
Vitamins
Lipids
Amino Acids
Other
Ingredients
"SUGAR, CORN SYRUP, CONTAINS LESS THAN 2% OF THE FOLLOWING: SALT, HONEY, CONFECTIONER'S GLAZE, GLYCERINE, EGG WHITES, NATURAL AND ARTIFICIAL FLAVORINGS, MINERAL OIL, ARTIFICIAL COLORS (INCLUDING FD&C: YELLOW #6, RED #40, YELLOW #5, AND BLUE #1), COCONUT OIL, CARNAUBA WAX." Date available: 07/14/2017 Date last updated by company: 07/14/2017
