Source: USDA Branded Food Products Database Release December 2017 Software v.3.8.6.4 2017-10-02
Report Run at: December 18, 2017 06:08 EST
"Nutrient data for: 45141792, SPOOKY SWEETS, HARD CANDIES, FRUIT, UPC: 049022847347"
Food Group:  Branded Food Products Database
Common Name:

Nutrient,Unit,Data points,Std. Error,"14.0 PIECES = 40.0g",1Value per 100 g,
Proximates
"Energy",kcal,--,--,158,395
"Protein",g,--,--,0.00,0.00
"Total lipid (fat)",g,--,--,1.60,4.00
"Carbohydrate, by difference",g,--,--,36.00,90.00
"Fiber, total dietary",g,--,--,0.0,0.0
"Sugars, total",g,--,--,36.00,90.00
Minerals
"Calcium, Ca",mg,--,--,0,0
"Iron, Fe",mg,--,--,0.00,0.00
"Sodium, Na",mg,--,--,0,0
Vitamins
"Vitamin C, total ascorbic acid",mg,--,--,0.0,0.0
"Vitamin A, IU",IU,--,--,0,0
Lipids
"Fatty acids, total saturated",g,--,--,0.000,0.000
"Fatty acids, total trans",g,--,--,0.000,0.000
"Cholesterol",mg,--,--,0,0
Amino Acids
Other
Ingredients
"BLUE RASPBERIT CHAINS - ARTIFICIAL AND COLOR FRUIT CHEWS" Date available: 10/06/2017 Date last updated by company: 10/06/2017
