Source: USDA Branded Food Products Database Release December 2017 Software v.3.8.6.4 2017-10-02
Report Run at: December 18, 2017 06:07 EST
"Nutrient data for: 45321777, SPOOKY MONSTERS CUPCAKE KIT, UPC: 011225123092"
Food Group:  Branded Food Products Database
Common Name:

Nutrient,Unit,Data points,Std. Error,"0.083 OF PACKAGE = 32.0g",1Value per 100 g,
Proximates
"Energy",kcal,--,--,130,406
"Protein",g,--,--,1.00,3.12
"Total lipid (fat)",g,--,--,2.50,7.81
"Carbohydrate, by difference",g,--,--,26.00,81.25
"Fiber, total dietary",g,--,--,1.0,3.1
"Sugars, total",g,--,--,18.00,56.25
Minerals
"Calcium, Ca",mg,--,--,20,62
"Iron, Fe",mg,--,--,1.13,3.52
"Sodium, Na",mg,--,--,170,531
Vitamins
"Vitamin C, total ascorbic acid",mg,--,--,0.0,0.0
"Vitamin A, IU",IU,--,--,0,0
Lipids
"Fatty acids, total saturated",g,--,--,0.998,3.120
"Fatty acids, total trans",g,--,--,0.000,0.000
"Cholesterol",mg,--,--,0,0
Amino Acids
Other
Ingredients
"CUPCAKE MIX: SUGAR, ENRICHED CAKE FLOUR (WHEAT FLOUR, NIACIN, REDUCED IRON, THIAMINE MONONITRATE, RIBOFLAVIN, FOLIC ACID), COCOA (PROCESSED WITH ALKALI), SHORTENING (PALM OIL, MONO AND DIGLYCERIDES, POLYSORBATE 60), SKIM MILK SOLIDS, NATURAL AND ARTIFICIAL FLAVORS, BAKING SODA, SALT, BAKING POWDER (SODIUM ACID PYROPHOSPHATE, SODIUM BICARBONATE, CORN STARCH, MONOCALCIUM PHOSPHATE). FROSTING MIXES: CONFECTIONERS' SUGAR (SUGAR, CORN STARCH), NATURAL AND ARTIFICIAL FLAVORS, RED 3, YELLOW 5, BLUE 1, RED 40. CANDY CORN: SUGAR, CORN SYRUP, CONFECTIONER'S GLAZE, SODIUM CITRATE, CITRIC ACID, COCONUT OIL, NATURAL AND ARTIFICIAL FLAVOR, EGG WHITES, MINERAL OIL, GLYCERINE, CARNAUBA WAX, YELLOW 5, RED 40, RED 3, BLUE 1. ICING PEN: SUGAR, PARTIALLY HYDROGENATED SOYBEAN AND COTTONSEED OIL, WATER, CORN SYRUP, MONO AND DIGLYCERIDES, RED 40, SALT, FOOD STARCH-MODIFIED (CORN), BLUE 1, POTASSIUM SORBATE (PRESERVATIVE), POLYSORBATE 60, ARTIFICIAL FLAVOR, YELLOW 5, YELLOW 6, CITRIC ACID. CANDY EYES: DEXTROSE, CORN STARCH, DEXTRIN, SUGAR, MAGNESIUM STEARATE, RED 40, YELLOW 5, BLUE 1, SHELLAC, GUM ARABIC, GLYCERIN, ARTIFICIAL FLAVOR, CARNAUBA WAX, GELATIN." Date available: 10/13/2017 Date last updated by company: 10/13/2017
