Source: USDA Branded Food Products Database Release December 2017 Software v.3.8.6.4 2017-10-02
Report Run at: December 18, 2017 06:09 EST
"Nutrient data for: 45136057, SPORT PROTEIN BAR, UPC: 838766008318"
Food Group:  Branded Food Products Database
Common Name:

Nutrient,Unit,Data points,Std. Error,"1 BAR = 60.0g",1Value per 100 g,
Proximates
"Energy",kcal,--,--,230,383
"Protein",g,--,--,15.00,25.00
"Total lipid (fat)",g,--,--,7.00,11.67
"Carbohydrate, by difference",g,--,--,29.00,48.33
"Fiber, total dietary",g,--,--,6.0,10.0
"Sugars, total",g,--,--,14.00,23.33
Minerals
"Calcium, Ca",mg,--,--,20,33
"Iron, Fe",mg,--,--,0.72,1.20
"Sodium, Na",mg,--,--,65,108
Vitamins
"Vitamin C, total ascorbic acid",mg,--,--,0.8,1.3
"Vitamin A, IU",IU,--,--,0,0
Lipids
"Fatty acids, total saturated",g,--,--,3.000,5.000
"Fatty acids, total polyunsaturated",g,--,--,1.998,3.330
"Fatty acids, total trans",g,--,--,0.000,0.000
"Cholesterol",mg,--,--,0,0
Amino Acids
Other
Ingredients
"COMPLETE PROTEIN BLEND [SPROUTED WHOLE GRAIN BROWN RICE PROTEIN, PEA PROTEIN], DARK CHOCOLATE COATING (ORGANIC EVAPORATED CANE SUGAR, CHOCOLATE LIQUOR, COCOA BUTTER, SUNFLOWER LECITHIN, VANILLA), ENERGYSOURCE** (GRAPE JUICE, NATURAL RICE DEXTRINS), SORGHUM SYRUP, INULIN (FROM CHICORY ROOT), DATES, VEGA SAVISEED (SACHA INCHI SEEDS), PUMPKIN SEED BUTTER, SORGHUM CRISPS (SORGHUM, RICE, TAPIOCA, EVAPORATED CANE SUGAR, GUAR GUM, SALT), NATURAL FLAVOR." Date available: 07/14/2017 Date last updated by company: 07/14/2017
