Source: USDA Branded Food Products Database Release December 2017 Software v.3.8.6.4 2017-10-02
Report Run at: December 18, 2017 06:09 EST
"Nutrient data for: 45249295, SPORTS HYDRATION MIX DRINK, UPC: 611247310885"
Food Group:  Branded Food Products Database
Common Name:

Nutrient,Unit,Data points,Std. Error,"1 KOLD POD = 40.0g",1Value per 100 g,
Proximates
"Energy",kcal,--,--,50,125
"Protein",g,--,--,0.00,0.00
"Total lipid (fat)",g,--,--,0.00,0.00
"Carbohydrate, by difference",g,--,--,14.00,35.00
"Sugars, total",g,--,--,14.00,35.00
Minerals
"Potassium, K",mg,--,--,30,75
"Sodium, Na",mg,--,--,110,275
Vitamins
Lipids
Amino Acids
Other
Ingredients
"WATER, SUCROSE, CITRIC ACID, SALT, SODIUM CITRATE, MONOPOTASSIUM PHOSPHATE, SODIUM BENZOATE (PRESERVATIVE), MODIFIED CORN STARCH, NATURAL FLAVORS, ESTER GUM, MEDIUM CHAIN TRIGLYCERIDES, RED 40" Date available: 07/14/2017 Date last updated by company: 07/14/2017
