Source: USDA Branded Food Products Database Release December 2017 Software v.3.8.6.4 2017-10-02
Report Run at: December 18, 2017 06:12 EST
"Nutrient data for: 45045917, SPREAD & DRESSING, UPC: 859660004428"
Food Group:  Branded Food Products Database
Common Name:

Nutrient,Unit,Data points,Std. Error,"1 Tbsp = 14.0g",1Value per 100 g,
Proximates
"Energy",kcal,--,--,100,714
"Protein",g,--,--,0.00,0.00
"Total lipid (fat)",g,--,--,10.00,71.43
"Carbohydrate, by difference",g,--,--,1.00,7.14
"Fiber, total dietary",g,--,--,0.0,0.0
"Sugars, total",g,--,--,0.00,0.00
Minerals
"Calcium, Ca",mg,--,--,0,0
"Iron, Fe",mg,--,--,0.00,0.00
"Sodium, Na",mg,--,--,75,536
Vitamins
"Vitamin C, total ascorbic acid",mg,--,--,0.0,0.0
"Vitamin A, IU",IU,--,--,0,0
Lipids
"Fatty acids, total saturated",g,--,--,0.500,3.570
"Fatty acids, total trans",g,--,--,0.000,0.000
"Cholesterol",mg,--,--,0,0
Amino Acids
Other
Ingredients
"EXPELLER-PRESSED CANOLA OIL, WATER, GARLIC PUREE (GARLIC, WATER, CITRIC ACID), WHITE DISTILLED VINEGAR, CONTAINS LESS THAN 2% OF SUGAR, SALT, SPICE, MODIFIED FOOD STARCH, PEA PROTEIN, LEMON JUICE CONCENTRATE, DEHYDRATED GARLIC, FRUIT AND VEGETABLE JUICE (COLOR), CALCIUM DISODIUM EDTA (PRESERVATIVE)." Date available: 10/13/2017 Date last updated by company: 10/13/2017
