Source: USDA Branded Food Products Database Release December 2017 Software v.3.8.6.4 2017-10-02
Report Run at: December 18, 2017 06:15 EST
"Nutrient data for: 45171003, SPRECHER, GOURMET SODA, PUMA KOLA, UPC: 045243001438"
Food Group:  Branded Food Products Database
Common Name:

Nutrient,Unit,Data points,Std. Error,"8.0 OZA = 8.0g",1Value per 100 g,
Proximates
"Energy",kcal,--,--,4,54
"Protein",g,--,--,0.03,0.42
"Total lipid (fat)",g,--,--,0.00,0.00
"Carbohydrate, by difference",g,--,--,1.10,13.75
"Fiber, total dietary",g,--,--,0.0,0.4
"Sugars, total",g,--,--,0.90,11.25
Minerals
"Sodium, Na",mg,--,--,3,35
Vitamins
Lipids
Amino Acids
Other
Ingredients
"CARBONATED WATER, GLUCOSE SYRUP, MALTODEXTRIN, RAW WI HONEY, NATURAL & ARTIFICIAL FLAVORS, QUILLAIA/YUCCA EXTRACT, CITRIC ACID, SODIUM BENZOATE (AS A PRESERVATIVE), SODIUM CHLORIDE, AND CARAMEL COLOR." Date available: 08/28/2017 Date last updated by company: 08/28/2017
