Source: USDA Branded Food Products Database Release December 2017 Software v.3.8.6.4 2017-10-02
Report Run at: December 18, 2017 06:15 EST
"Nutrient data for: 45170999, SPRECHER, GOURMET SODA, GINGER ALE, UPC: 045243001414"
Food Group:  Branded Food Products Database
Common Name:

Nutrient,Unit,Data points,Std. Error,"8.0 OZA = 8.0g",1Value per 100 g,
Proximates
"Energy",kcal,--,--,3,33
"Protein",g,--,--,0.00,0.00
"Total lipid (fat)",g,--,--,0.00,0.00
"Carbohydrate, by difference",g,--,--,0.63,7.92
"Sugars, total",g,--,--,0.57,7.08
Minerals
"Iron, Fe",mg,--,--,0.05,0.68
"Sodium, Na",mg,--,--,1,8
Vitamins
Lipids
Amino Acids
Other
Ingredients
"CARBONATED WATER, GLUCOSE SYRUP, NATURAL GINGER FLAVOR, NATURAL FLAVORS, RAW WI HONEY, PHOSPHORIC ACID, SODIUM BENZOATE (AS A PRESERVATIVE), AND QUILLAIA/YUCCA EXTRACT." Date available: 07/14/2017 Date last updated by company: 07/14/2017
