Source: USDA Branded Food Products Database Release December 2017 Software v.3.8.6.4 2017-10-02
Report Run at: December 18, 2017 06:13 EST
"Nutrient data for: 45052384, SPREAD, UPC: 070990603338"
Food Group:  Branded Food Products Database
Common Name:

Nutrient,Unit,Data points,Std. Error,"1 Tbsp = 14.0g",1Value per 100 g,
Proximates
"Energy",kcal,--,--,50,357
"Protein",g,--,--,0.00,0.00
"Total lipid (fat)",g,--,--,6.00,42.86
"Carbohydrate, by difference",g,--,--,0.00,0.00
"Fiber, total dietary",g,--,--,0.0,0.0
"Sugars, total",g,--,--,0.00,0.00
Minerals
"Sodium, Na",mg,--,--,110,786
Vitamins
"Vitamin A, IU",IU,--,--,1690,12075
Lipids
"Fatty acids, total saturated",g,--,--,1.000,7.140
"Fatty acids, total monounsaturated",g,--,--,1.499,10.710
"Fatty acids, total polyunsaturated",g,--,--,3.000,21.430
"Fatty acids, total trans",g,--,--,0.000,0.000
"Cholesterol",mg,--,--,0,0
Amino Acids
Other
Ingredients
"WATER, LIQUID AND PARTIALLY HYDROGENATED SOYBEAN OIL, SALT, CONTAINS LESS THAN 2% OF VEGETABLE MONO & DIGLYCERIDES, SOY LECITHIN, PROPYLENE GLYCOL MONOSTEARATE, SODIUM BENZOATE (A PRESERVATIVE), CITRIC ACID, NATURAL AND ARTIFICIAL FLAVOR, BETA CAROTENE (COLOR), VITAMIN A PALMITATE ADDED, WHEY." Date available: 06/25/2017 Date last updated by company: 06/25/2017
