Source: USDA Branded Food Products Database Release December 2017 Software v.3.8.6.4 2017-10-02
Report Run at: December 18, 2017 06:28 EST
"Nutrient data for: 45211272, SPRINKLES, UPC: 872197632292"
Food Group:  Branded Food Products Database
Common Name:

Nutrient,Unit,Data points,Std. Error,"1 tsp = 4.0g",1Value per 100 g,
Proximates
"Energy",kcal,--,--,20,500
"Protein",g,--,--,0.00,0.00
"Total lipid (fat)",g,--,--,1.00,25.00
"Carbohydrate, by difference",g,--,--,3.00,75.00
"Sugars, total",g,--,--,2.00,50.00
Minerals
"Sodium, Na",mg,--,--,0,0
Vitamins
Lipids
"Fatty acids, total trans",g,--,--,0.400,10.000
"Cholesterol",mg,--,--,0,0
Amino Acids
Other
Ingredients
"SUGAR, CORN STARCH, PARTIALLY HYDROGENATED VEGETABLE OIL (SOYBEAN), SOYA LECITHIN, CONFECTIONER'S GLAZE, FD&C RED 40 LAKE, FD&C RED 3, NATURAL AND ARTIFICIAL FLAVOR AND CARNAUBA WAX." Date available: 07/14/2017 Date last updated by company: 07/14/2017
