Source: USDA Branded Food Products Database Release December 2017 Software v.3.8.6.4 2017-10-02
Report Run at: December 18, 2017 06:19 EST
"Nutrient data for: 45050280, SPRINGFIELD, MARASCHINO CHERRIES, UPC: 041380268079"
Food Group:  Branded Food Products Database
Common Name:

Nutrient,Unit,Data points,Std. Error,"1 CHERRY = 6.0g",1Value per 100 g,
Proximates
"Energy",kcal,--,--,10,167
"Protein",g,--,--,0.00,0.00
"Total lipid (fat)",g,--,--,0.00,0.00
"Carbohydrate, by difference",g,--,--,3.00,50.00
"Fiber, total dietary",g,--,--,0.0,0.0
"Sugars, total",g,--,--,2.00,33.33
Minerals
"Calcium, Ca",mg,--,--,0,0
"Iron, Fe",mg,--,--,0.00,0.00
"Sodium, Na",mg,--,--,0,0
Vitamins
"Vitamin C, total ascorbic acid",mg,--,--,0.0,0.0
"Vitamin A, IU",IU,--,--,0,0
Lipids
"Fatty acids, total saturated",g,--,--,0.000,0.000
"Fatty acids, total trans",g,--,--,0.000,0.000
"Cholesterol",mg,--,--,0,0
Amino Acids
Other
Ingredients
"CHERRIES, WATER, CORN SYRUP, HIGH FRUCTOSE CORN, CITRIC ACID, NATURAL AND ARTIFICIAL FLAVOR, POTASSIUM SORBATE AND SODIUM BENZOATE (PRESERVATIVES), FD & C RED 40, AND SULFUR DIOXIDE (PRESERVATIVE)." Date available: 06/25/2017 Date last updated by company: 06/25/2017
