Source: USDA Branded Food Products Database Release December 2017 Software v.3.8.6.4 2017-10-02
Report Run at: December 18, 2017 06:16 EST
"Nutrient data for: 45194053, SPRINGER MOUNTAIN FARMS, FULLY COOKED GRILLED CHICKEN BREAST SLICES WITH RIB MEAT, UPC: 013941032825"
Food Group:  Branded Food Products Database
Common Name:

Nutrient,Unit,Data points,Std. Error,"3.0 ONZ = 84.0g",1Value per 100 g,
Proximates
"Energy",kcal,--,--,130,155
"Protein",g,--,--,21.00,25.00
"Total lipid (fat)",g,--,--,2.50,2.98
"Carbohydrate, by difference",g,--,--,3.00,3.57
"Fiber, total dietary",g,--,--,1.0,1.2
"Sugars, total",g,--,--,0.00,0.00
Minerals
"Calcium, Ca",mg,--,--,0,0
"Iron, Fe",mg,--,--,0.36,0.43
"Potassium, K",mg,--,--,370,440
"Sodium, Na",mg,--,--,850,1012
Vitamins
"Vitamin C, total ascorbic acid",mg,--,--,1.2,1.4
"Vitamin A, IU",IU,--,--,202,241
Lipids
"Fatty acids, total saturated",g,--,--,0.504,0.600
"Fatty acids, total trans",g,--,--,0.000,0.000
"Cholesterol",mg,--,--,65,77
Amino Acids
Other
Ingredients
"BONELESS SKINLESS CHICKEN BREAST WITH RIB MEAT, WATER, SEASONING (SALT, ONION, GARLIC POWDER, YEAST EXTRACT, SPICE, PAPRIKA*, NATURAL FLAVOR, PAPRIKA EXTRACT*, NATURAL SMOKE FLAVOR), RICE STARCH, VINEGAR, SALT, ISOLATED POTATO PRODUCT." Date available: 07/14/2017 Date last updated by company: 07/14/2017
