Source: USDA Branded Food Products Database Release December 2017 Software v.3.8.6.4 2017-10-02
Report Run at: December 18, 2017 06:25 EST
"Nutrient data for: 45288386, SPRINGTIME DRIZZLS, UPC: 829364460844"
Food Group:  Branded Food Products Database
Common Name:

Nutrient,Unit,Data points,Std. Error,"7.0 PCS. = 40.0g",1Value per 100 g,
Proximates
"Energy",kcal,--,--,200,500
"Protein",g,--,--,2.00,5.00
"Total lipid (fat)",g,--,--,8.00,20.00
"Carbohydrate, by difference",g,--,--,28.00,70.00
"Fiber, total dietary",g,--,--,0.0,0.0
"Sugars, total",g,--,--,18.00,45.00
Minerals
"Calcium, Ca",mg,--,--,40,100
"Iron, Fe",mg,--,--,0.90,2.25
"Sodium, Na",mg,--,--,210,525
Vitamins
"Vitamin C, total ascorbic acid",mg,--,--,0.0,0.0
"Vitamin A, IU",IU,--,--,0,0
Lipids
"Fatty acids, total saturated",g,--,--,8.000,20.000
"Cholesterol",mg,--,--,0,0
Amino Acids
Other
Ingredients
"YOGURT COATING (SUGAR, PARTIALLY HYDROGENATED PALM KERNEL OIL, NONFAT MILK POWDER, YOGURT POWDER (CULTURED WHEY AND NONFAT MILK), ARTIFICIAL COLOR (TITANIUM DIOXIDE, LACTIC ACID, SOY LECITHIN (AN EMULSIFIER), AND VANILLIN (AN ARTIFICIAL FLAVOR), PRETZELS (ENRICHED FLOUR WHEAT FLOUR, NIACIN, REDUCED IRON, THIAMIN MONONITRATE, RIBOFLAVIN, FOLIC ACID), CORN SYRUP, SALT, CORN OIL, YEAST), WAFERS (SUGAR, PARTIALLY HYDROGENATED PALM KERNEL AND COTTONSEED OIL, NONFAT DRY MILK, MILK, GLYCERYL LACTO ESTERS OF FATTY ACIDS, SOY LECITHIN, SALT, ARTIFICIAL FLAVOR, ARTIFICIAL COLORS INCLUDING (YELLOW # 5 LAKE, RED # 3, BLUE # 1 LAKE, AND BLUE # 2 LAKE)." Date available: 07/14/2017 Date last updated by company: 07/14/2017
