Source: USDA Branded Food Products Database Release December 2017 Software v.3.8.6.4 2017-10-02
Report Run at: December 18, 2017 06:28 EST
"Nutrient data for: 45208310, SPRINKLES, UPC: 070896713414"
Food Group:  Branded Food Products Database
Common Name:

Nutrient,Unit,Data points,Std. Error,"1 tsp = 4.0g",1Value per 100 g,
Proximates
"Energy",kcal,--,--,15,375
"Protein",g,--,--,0.00,0.00
"Total lipid (fat)",g,--,--,0.00,0.00
"Carbohydrate, by difference",g,--,--,4.00,100.00
"Sugars, total",g,--,--,2.00,50.00
Minerals
"Sodium, Na",mg,--,--,0,0
Vitamins
Lipids
Amino Acids
Other
Ingredients
"DEXTROSE, CORN STARCH, DEXTRIN, MAGNESIUM STEARATE, GUM ARABIC, CONFECTIONER'S GLAZE, ARTIFICIAL FLAVOR, CARNAUBA WAX, FD&C RED #3, FD&C BLUE #1, FD&C YELLOW #5, FD&C YELLOW #6." Date available: 07/14/2017 Date last updated by company: 07/14/2017
