Source: USDA Branded Food Products Database Release December 2017 Software v.3.8.6.4 2017-10-02
Report Run at: December 18, 2017 06:23 EST
"Nutrient data for: 45194346, SPRING MIX, UPC: 018894903277"
Food Group:  Branded Food Products Database
Common Name:

Nutrient,Unit,Data points,Std. Error,"2.0 cup = 85.0g",1Value per 100 g,
Proximates
"Energy",kcal,--,--,10,12
"Protein",g,--,--,2.00,2.35
"Total lipid (fat)",g,--,--,0.00,0.00
"Carbohydrate, by difference",g,--,--,3.00,3.53
"Fiber, total dietary",g,--,--,2.0,2.4
"Sugars, total",g,--,--,0.00,0.00
Minerals
"Calcium, Ca",mg,--,--,60,71
"Iron, Fe",mg,--,--,3.60,4.24
"Sodium, Na",mg,--,--,60,71
Vitamins
"Vitamin C, total ascorbic acid",mg,--,--,30.0,35.3
"Vitamin A, IU",IU,--,--,5500,6471
Lipids
"Fatty acids, total saturated",g,--,--,0.000,0.000
"Fatty acids, total trans",g,--,--,0.000,0.000
"Cholesterol",mg,--,--,0,0
Amino Acids
Other
Ingredients
"GREEN ROMAINE, TANGO, LOLLA ROSA, RED CHARD, ARUGULA, SPINACH, RED LEAF LETTUCE, BEET TOPS, GREEN LEAF LETTUCE, GREEN OAK, MIZUNA, FRISEE, RADICCHIO, RED OAK, RED ROMAINE, COLLARD, GREEN CHARD, KALE, RED MUSTARD, TAT-SOI. INGREDIENTS IN EACH PACKAGE VARY." Date available: 08/17/2017 Date last updated by company: 08/17/2017
