Source: USDA Branded Food Products Database Release December 2017 Software v.3.8.6.4 2017-10-02
Report Run at: December 18, 2017 06:27 EST
"Nutrient data for: 45188067, SPRINKLES, UPC: 872197634968"
Food Group:  Branded Food Products Database
Common Name:

Nutrient,Unit,Data points,Std. Error,"1 tsp = 5.0g",1Value per 100 g,
Proximates
"Energy",kcal,--,--,18,360
"Protein",g,--,--,0.00,0.00
"Total lipid (fat)",g,--,--,0.00,0.00
"Carbohydrate, by difference",g,--,--,4.60,92.00
"Sugars, total",g,--,--,3.00,60.00
Minerals
"Sodium, Na",mg,--,--,0,2
Vitamins
Lipids
"Fatty acids, total trans",g,--,--,0.000,0.000
"Cholesterol",mg,--,--,0,0
Amino Acids
Other
Ingredients
"SUGAR, CORN STARCH, FD&C RED 3, CONFECTIONER'S GLAZE, CARNAUBA WAX, FD&C YELLOW 5, FD&C BLUE 1, FD&C YELLOW 6 AND FD&C RED 40." Date available: 07/14/2017 Date last updated by company: 07/14/2017
