Source: USDA Branded Food Products Database Release December 2017 Software v.3.8.6.4 2017-10-02
Report Run at: December 18, 2017 06:20 EST
"Nutrient data for: 45143061, SPRINGFIELD, SPLASH FLAVORED JUICE BEVERAGE, STRAWBERRY KIWI, UPC: 041380002505"
Food Group:  Branded Food Products Database
Common Name:

Nutrient,Unit,Data points,Std. Error,"8.0 OZA = 240.0g",1Value per 100 g,
Proximates
"Energy",kcal,--,--,110,46
"Protein",g,--,--,0.00,0.00
"Total lipid (fat)",g,--,--,0.00,0.00
"Carbohydrate, by difference",g,--,--,28.01,11.67
"Sugars, total",g,--,--,25.01,10.42
Minerals
"Sodium, Na",mg,--,--,50,21
Vitamins
"Vitamin C, total ascorbic acid",mg,--,--,60.0,25.0
"Vitamin A, IU",IU,--,--,4999,2083
Lipids
"Fatty acids, total saturated",g,--,--,0.000,0.000
"Fatty acids, total trans",g,--,--,0.000,0.000
"Cholesterol",mg,--,--,0,0
Amino Acids
Other
Ingredients
"WATER, CARROT JUICE FROM CONCENTRATE (WATER, CARROT JUICE CONCENTRATE), HIGH FRUCTOSE CORN SYRUP, FRUIT JUICES FROM CONCENTRATE (WATER, APPLE JUICE CONCENTRATE, KIWI JUICE CONCENTRATE, STRAWBERRY JUICE CONCENTRATE), NATURAL FLAVORS, MALIC ACID, ASCORBIC ACID (VITAMIN C), BETA CAROTENE, RED 40" Date available: 07/14/2017 Date last updated by company: 07/14/2017
