Source: USDA Branded Food Products Database Release December 2017 Software v.3.8.6.4 2017-10-02
Report Run at: December 18, 2017 06:34 EST
"Nutrient data for: 45012447, SPROUT, ORGANIC FRUIT & VEGGIE SQUEEZABLE SNACK, PEACH, PINEAPPLE & PUMPKIN, UPC: 818512017344"
Food Group:  Branded Food Products Database
Common Name:

Nutrient,Unit,Data points,Std. Error,"1 POUCH = 113.0g",1Value per 100 g,
Proximates
"Energy",kcal,--,--,50,44
"Protein",g,--,--,0.99,0.88
"Total lipid (fat)",g,--,--,0.00,0.00
"Carbohydrate, by difference",g,--,--,12.99,11.50
"Fiber, total dietary",g,--,--,2.0,1.8
"Sugars, total",g,--,--,8.00,7.08
Minerals
"Calcium, Ca",mg,--,--,20,18
"Iron, Fe",mg,--,--,0.16,0.14
"Potassium, K",mg,--,--,240,212
"Sodium, Na",mg,--,--,0,0
Vitamins
"Vitamin C, total ascorbic acid",mg,--,--,5.3,4.7
"Vitamin A, IU",IU,--,--,443,392
Lipids
"Fatty acids, total saturated",g,--,--,0.000,0.000
"Fatty acids, total trans",g,--,--,0.000,0.000
"Cholesterol",mg,--,--,0,0
Amino Acids
Other
Ingredients
"ORGANIC PUMPKIN, ORGANIC PEACHES, ORGANIC PINEAPPLE, ORGANIC BANANAS, ORGANIC APPLES, ORGANIC PEARS, ORGANIC APRICOTS, CITRIC ACID, ORGANIC NATURAL FLAVOR, ASCORBIC ACID (VITAMIN C)." Date available: 06/25/2017 Date last updated by company: 06/25/2017
