Source: USDA Branded Food Products Database Release December 2017 Software v.3.8.6.4 2017-10-02
Report Run at: December 18, 2017 06:31 EST
"Nutrient data for: 45103159, SPROUTED OAT GRANOLA HONEY HEMP, UPC: 675625360060"
Food Group:  Branded Food Products Database
Common Name:

Nutrient,Unit,Data points,Std. Error,"0.25 cup = 30.0g",1Value per 100 g,
Proximates
"Energy",kcal,--,--,120,400
"Protein",g,--,--,3.00,10.00
"Total lipid (fat)",g,--,--,3.50,11.67
"Carbohydrate, by difference",g,--,--,19.00,63.33
"Fiber, total dietary",g,--,--,2.0,6.7
"Sugars, total",g,--,--,5.00,16.67
Minerals
"Calcium, Ca",mg,--,--,20,67
"Iron, Fe",mg,--,--,1.98,6.60
"Sodium, Na",mg,--,--,45,150
Vitamins
"Vitamin C, total ascorbic acid",mg,--,--,0.0,0.0
"Vitamin A, IU",IU,--,--,0,0
Lipids
"Fatty acids, total saturated",g,--,--,0.000,0.000
"Fatty acids, total trans",g,--,--,0.000,0.000
"Cholesterol",mg,--,--,0,0
Amino Acids
Other
Ingredients
"SPROUTED GLUTEN-FREE ORGANIC OATS, ORGANIC HONEY, SPROUTED ORGANIC HEMP SEEDS, ORGANIC COCONUT PALM SUGAR, SPROUTED ORGANIC BROWN RICE, ORGANIC SUNFLOWER OIL, UNREFINED SALT, TOCOPHEROLS (VITAMIN E)." Date available: 07/14/2017 Date last updated by company: 07/14/2017
