Source: USDA Branded Food Products Database Release December 2017 Software v.3.8.6.4 2017-10-02
Report Run at: December 18, 2017 06:32 EST
"Nutrient data for: 45097417, SPROUTED SESAME SEED BAGELS, UPC: 028833041205"
Food Group:  Branded Food Products Database
Common Name:

Nutrient,Unit,Data points,Std. Error,"1 BAGEL = 95.0g",1Value per 100 g,
Proximates
"Energy",kcal,--,--,260,274
"Protein",g,--,--,10.00,10.53
"Total lipid (fat)",g,--,--,2.50,2.63
"Carbohydrate, by difference",g,--,--,50.00,52.63
"Fiber, total dietary",g,--,--,4.0,4.2
"Sugars, total",g,--,--,2.00,2.11
Minerals
"Calcium, Ca",mg,--,--,40,42
"Iron, Fe",mg,--,--,2.08,2.19
"Phosphorus, P",mg,--,--,174,183
"Potassium, K",mg,--,--,125,132
"Sodium, Na",mg,--,--,390,411
Vitamins
"Vitamin C, total ascorbic acid",mg,--,--,0.0,0.0
"Vitamin A, IU",IU,--,--,0,0
Lipids
"Fatty acids, total saturated",g,--,--,0.000,0.000
"Fatty acids, total trans",g,--,--,0.000,0.000
"Cholesterol",mg,--,--,0,0
Amino Acids
Other
Ingredients
"SPROUTED ORGANIC WHOLE WHEAT BERRIES, ORGANIC UNBLEACHED WHEAT FLOUR, FILTERED WATER, ORGANIC SESAME SEEDS, 100% PURE BARLEY MALT, FRESH YEAST, SEA SALT, CULTURED WHEAT." Date available: 09/07/2017 Date last updated by company: 09/07/2017
