Source: USDA Branded Food Products Database Release December 2017 Software v.3.8.6.4 2017-10-02
Report Run at: December 18, 2017 06:31 EST
"Nutrient data for: 45291646, SPROUTED NATIVE GRAINS CRACKERS, UPC: 853358000068"
Food Group:  Branded Food Products Database
Common Name:

Nutrient,Unit,Data points,Std. Error,"14.0 CRACKERS = 30.0g",1Value per 100 g,
Proximates
"Energy",kcal,--,--,130,433
"Protein",g,--,--,2.00,6.67
"Total lipid (fat)",g,--,--,3.50,11.67
"Carbohydrate, by difference",g,--,--,23.00,76.67
"Fiber, total dietary",g,--,--,1.0,3.3
"Sugars, total",g,--,--,0.00,0.00
Minerals
"Calcium, Ca",mg,--,--,20,67
"Iron, Fe",mg,--,--,1.20,4.00
"Sodium, Na",mg,--,--,240,800
Vitamins
"Vitamin C, total ascorbic acid",mg,--,--,0.0,0.0
"Vitamin A, IU",IU,--,--,0,0
Lipids
"Fatty acids, total saturated",g,--,--,0.000,0.000
"Fatty acids, total trans",g,--,--,0.000,0.000
"Cholesterol",mg,--,--,0,0
Amino Acids
Other
Ingredients
"ORGANIC BROWN RICE, ORGANIC WHITE RICE, ORGANIC OIL BLEND (ORGANIC SUNFLOWER OIL, ORGANIC EXTRA VIRGIN OLIVE OIL), ORGANIC TAPIOCA STARCH, ORGANIC SPROUTED AMARANTH, ORGANIC SPROUTED QUINOA, SALT, ORGANIC SPROUTED CHIA." Date available: 07/14/2017 Date last updated by company: 07/14/2017
