Source: USDA Branded Food Products Database Release December 2017 Software v.3.8.6.4 2017-10-02
Report Run at: December 18, 2017 06:36 EST
"Nutrient data for: 45210035, SQUARES PEPPERMINT BARK, UPC: 747599311963"
Food Group:  Branded Food Products Database
Common Name:

Nutrient,Unit,Data points,Std. Error,"3.0 SQUARES = 35.0g",1Value per 100 g,
Proximates
"Energy",kcal,--,--,200,571
"Protein",g,--,--,2.00,5.71
"Total lipid (fat)",g,--,--,13.00,37.14
"Carbohydrate, by difference",g,--,--,20.00,57.14
"Fiber, total dietary",g,--,--,0.0,0.0
"Sugars, total",g,--,--,19.00,54.29
Minerals
"Calcium, Ca",mg,--,--,60,171
"Iron, Fe",mg,--,--,0.51,1.47
"Sodium, Na",mg,--,--,20,57
Vitamins
"Vitamin C, total ascorbic acid",mg,--,--,0.0,0.0
"Vitamin A, IU",IU,--,--,0,0
Lipids
"Fatty acids, total saturated",g,--,--,8.001,22.860
"Fatty acids, total trans",g,--,--,0.000,0.000
"Cholesterol",mg,--,--,5,14
Amino Acids
Other
Ingredients
"SUGAR, COCOA BUTTER, WHOLE MILK POWDER, UNSWEETENED CHOCOLATE, NONFAT DRY MILK, SOY LECITHIN - AN EMULSIFIER, CORN FLAKES, YELLOW CORN FLOUR, PARTIALLY HYDROGENATED VEGETABLE OIL, (COTTONSEED, SOYBEAN), NATURAL AND ARTIFICIAL FLAVOR, CORN STARCH, VANILLA, RED #40 LAKE, CORN SYRUP SOLIDS." Date available: 07/14/2017 Date last updated by company: 07/14/2017
