Source: USDA Branded Food Products Database Release December 2017 Software v.3.8.6.4 2017-10-02
Report Run at: December 18, 2017 06:39 EST
"Nutrient data for: 45009094, SQUEEZABLE SMOOTHIE, UPC: 851146002096"
Food Group:  Branded Food Products Database
Common Name:

Nutrient,Unit,Data points,Std. Error,"1 POUCH = 90.0g",1Value per 100 g,
Proximates
"Energy",kcal,--,--,70,78
"Protein",g,--,--,1.00,1.11
"Total lipid (fat)",g,--,--,0.00,0.00
"Carbohydrate, by difference",g,--,--,17.00,18.89
"Fiber, total dietary",g,--,--,2.0,2.2
"Sugars, total",g,--,--,14.00,15.56
Minerals
"Calcium, Ca",mg,--,--,0,0
"Iron, Fe",mg,--,--,0.00,0.00
"Sodium, Na",mg,--,--,5,6
Vitamins
"Vitamin C, total ascorbic acid",mg,--,--,5.0,5.6
"Vitamin A, IU",IU,--,--,222,247
Lipids
"Fatty acids, total saturated",g,--,--,0.000,0.000
"Fatty acids, total trans",g,--,--,0.000,0.000
"Cholesterol",mg,--,--,0,0
Amino Acids
Other
Ingredients
"APPLE PUREE (APPLES, ASCORBIC ACID), PLAIN LOWFAT YOGURT (CULTURED PASTEURIZED LOWFAT MILK, NONFAT MILK SOLIDS), PEACH PUREE, SUGAR, MANGO PUREE CONCENTRATE, WATER, NATURAL FLAVOR." Date available: 07/14/2017 Date last updated by company: 07/14/2017
