Source: USDA Branded Food Products Database Release December 2017 Software v.3.8.6.4 2017-10-02
Report Run at: December 18, 2017 06:38 EST
"Nutrient data for: 45220729, SQUEEZABLE APPLE SAUCE, UPC: 688267003233"
Food Group:  Branded Food Products Database
Common Name:

Nutrient,Unit,Data points,Std. Error,"1 POUCH = 90.0g",1Value per 100 g,
Proximates
"Energy",kcal,--,--,60,67
"Protein",g,--,--,0.00,0.00
"Total lipid (fat)",g,--,--,0.00,0.00
"Carbohydrate, by difference",g,--,--,16.00,17.78
"Fiber, total dietary",g,--,--,1.0,1.1
"Sugars, total",g,--,--,15.00,16.67
Minerals
"Calcium, Ca",mg,--,--,0,0
"Iron, Fe",mg,--,--,0.28,0.31
"Sodium, Na",mg,--,--,10,11
Vitamins
"Vitamin C, total ascorbic acid",mg,--,--,1.9,2.1
"Vitamin A, IU",IU,--,--,0,0
Lipids
"Fatty acids, total saturated",g,--,--,0.000,0.000
"Fatty acids, total trans",g,--,--,0.000,0.000
"Cholesterol",mg,--,--,0,0
Amino Acids
Other
Ingredients
"APPLES, APPLE JUICE CONCENTRATE, STRAWBERRY PUREE, FRUIT AND VEGETABLE JUICE (FOR COLOR), NATURAL FLAVOR, ASCORBIC ACID (TO PROTECT COLOR)." Date available: 07/14/2017 Date last updated by company: 07/14/2017
