Source: USDA Branded Food Products Database Release December 2017 Software v.3.8.6.4 2017-10-02
Report Run at: December 18, 2017 06:38 EST
"Nutrient data for: 45100365, SQUEEZABLE FRUIT POUCH, UPC: 038900031831"
Food Group:  Branded Food Products Database
Common Name:

Nutrient,Unit,Data points,Std. Error,"1 POUCH = 90.0g",1Value per 100 g,
Proximates
"Energy",kcal,--,--,60,67
"Protein",g,--,--,1.00,1.11
"Total lipid (fat)",g,--,--,0.00,0.00
"Carbohydrate, by difference",g,--,--,14.00,15.56
"Fiber, total dietary",g,--,--,1.0,1.1
"Sugars, total",g,--,--,13.00,14.44
Minerals
"Calcium, Ca",mg,--,--,0,0
"Iron, Fe",mg,--,--,0.00,0.00
"Potassium, K",mg,--,--,115,128
"Sodium, Na",mg,--,--,0,0
Vitamins
"Vitamin C, total ascorbic acid",mg,--,--,6.7,7.4
"Vitamin A, IU",IU,--,--,0,0
Lipids
"Fatty acids, total saturated",g,--,--,0.000,0.000
"Fatty acids, total trans",g,--,--,0.000,0.000
"Cholesterol",mg,--,--,0,0
Amino Acids
Other
Ingredients
"APPLE PUREE, STRAWBERRY PUREE, BLACKBERRY PUREE, APPLE JUICE CONCENTRATE, NATURAL FLAVOR, RED RASPBERRY JUICE CONCENTRATE, AND ASCORBIC ACID (VITAMIN C)." Date available: 10/13/2017 Date last updated by company: 10/13/2017
