Source: USDA Branded Food Products Database Release December 2017 Software v.3.8.6.4 2017-10-02
Report Run at: December 18, 2017 06:39 EST
"Nutrient data for: 45271727, SQUEEZABLES APPLE SAUCE, UPC: 037323117801"
Food Group:  Branded Food Products Database
Common Name:

Nutrient,Unit,Data points,Std. Error,"1 POUCH = 90.0g",1Value per 100 g,
Proximates
"Energy",kcal,--,--,70,78
"Protein",g,--,--,0.00,0.00
"Total lipid (fat)",g,--,--,0.00,0.00
"Carbohydrate, by difference",g,--,--,17.00,18.89
"Fiber, total dietary",g,--,--,1.0,1.1
"Sugars, total",g,--,--,15.00,16.67
Minerals
"Sodium, Na",mg,--,--,0,0
Vitamins
Lipids
Amino Acids
Other
Ingredients
"APPLES, APPLE JUICE CONCENTRATE, HONEY, NATURAL FLAVOR, CINNAMON, ASCORBIC ACID (TO PROTECT COLOR)." Date available: 07/14/2017 Date last updated by company: 07/14/2017
