Source: USDA Branded Food Products Database Release December 2017 Software v.3.8.6.4 2017-10-02
Report Run at: December 18, 2017 06:41 EST
"Nutrient data for: 45106018, SQUIGGLE CUPCAKES, UPC: 094522076674"
Food Group:  Branded Food Products Database
Common Name:

Nutrient,Unit,Data points,Std. Error,"1 CUPCAKE = 56.0g",1Value per 100 g,
Proximates
"Energy",kcal,--,--,210,375
"Protein",g,--,--,2.00,3.57
"Total lipid (fat)",g,--,--,0.00,0.00
"Carbohydrate, by difference",g,--,--,51.00,91.07
"Fiber, total dietary",g,--,--,1.0,1.8
"Sugars, total",g,--,--,38.00,67.86
Minerals
"Calcium, Ca",mg,--,--,0,0
"Iron, Fe",mg,--,--,2.06,3.67
"Sodium, Na",mg,--,--,180,321
Vitamins
"Vitamin C, total ascorbic acid",mg,--,--,0.0,0.0
"Vitamin A, IU",IU,--,--,0,0
Lipids
"Fatty acids, total saturated",g,--,--,0.000,0.000
"Fatty acids, total trans",g,--,--,0.000,0.000
"Cholesterol",mg,--,--,0,0
Amino Acids
Other
Ingredients
"CUPCAKE MIX: ENRICHED WHEAT FLOUR (BLEACHED WHEAT FLOUR, ENZYME, NIACIN, IRON, THIAMIN MONONITRATE, RIBOFLAVIN, FOLIC ACID), SUGAR, ALKALIZED COCOA POWDER, BAKING POWDER )SODIUM ACID PYROPHOSPHATE, SODIUM BICARBONATE, CORN STARCH, MONOCALCIUM PHOSPHATE), NATURAL AND ARTIFICIAL CHOCOLATE FUDGE FLAVOR, NATURAL VANILLA FLAVOR, SALT, SODIUM BICARBONATE. VANILLA FILLING MIX: CONFECTIONER'S SUGAR (SUGAR, CORN STARCH), ALKALIZED COCOA POWDER, NATURAL VANILLA FLAVOR." Date available: 06/25/2017 Date last updated by company: 06/25/2017
