Source: USDA Branded Food Products Database Release December 2017 Software v.3.8.6.4 2017-10-02
Report Run at: December 18, 2017 06:41 EST
"Nutrient data for: 45264847, SQUIDS IN SAUCE, UPC: 025153124236"
Food Group:  Branded Food Products Database
Common Name:

Nutrient,Unit,Data points,Std. Error,"2.0 ONZ = 55.0g",1Value per 100 g,
Proximates
"Energy",kcal,--,--,120,218
"Protein",g,--,--,7.00,12.73
"Total lipid (fat)",g,--,--,7.00,12.73
"Carbohydrate, by difference",g,--,--,5.00,9.09
"Fiber, total dietary",g,--,--,0.0,0.0
"Sugars, total",g,--,--,0.00,0.00
Minerals
"Calcium, Ca",mg,--,--,40,73
"Iron, Fe",mg,--,--,1.67,3.03
"Sodium, Na",mg,--,--,270,491
Vitamins
"Vitamin C, total ascorbic acid",mg,--,--,0.0,0.0
"Vitamin A, IU",IU,--,--,155,281
Lipids
"Fatty acids, total saturated",g,--,--,1.502,2.730
"Fatty acids, total trans",g,--,--,0.000,0.000
"Cholesterol",mg,--,--,45,82
Amino Acids
Other
Ingredients
"SQUIDS, INK, SUNFLOWER OIL, TOMATO, ONION, SPICES AND SALT." Date available: 07/14/2017 Date last updated by company: 07/14/2017
