Source: USDA Branded Food Products Database Release December 2017 Software v.3.8.6.4 2017-10-02
Report Run at: December 18, 2017 06:44 EST
"Nutrient data for: 45079988, SRIRACHA MAYO SPREAD, UPC: 011110867100"
Food Group:  Branded Food Products Database
Common Name:

Nutrient,Unit,Data points,Std. Error,"1 Tbsp = 15.0g",1Value per 100 g,
Proximates
"Energy",kcal,--,--,80,533
"Protein",g,--,--,0.00,0.00
"Total lipid (fat)",g,--,--,8.00,53.33
"Carbohydrate, by difference",g,--,--,1.00,6.67
"Fiber, total dietary",g,--,--,0.0,0.0
"Sugars, total",g,--,--,1.00,6.67
Minerals
"Calcium, Ca",mg,--,--,0,0
"Iron, Fe",mg,--,--,0.00,0.00
"Sodium, Na",mg,--,--,150,1000
Vitamins
"Vitamin C, total ascorbic acid",mg,--,--,0.0,0.0
"Vitamin A, IU",IU,--,--,0,0
Lipids
"Fatty acids, total saturated",g,--,--,0.500,3.330
"Fatty acids, total trans",g,--,--,0.000,0.000
"Cholesterol",mg,--,--,10,67
Amino Acids
Other
Ingredients
"CANOLA OIL, WATER, SRIRACHA CHILI SAUCE (RED CHILI PEPPERS, SUGAR, SALT, GARLIC, ANCHOVY EXTRACT, LACTIC ACID, ACETIC ACID, ASCORBIC ACID), SUGAR, EGG YOLK, RICE VINEGAR (WATER, RICE), DISTILLED VINEGAR, SALT, MODIFIED CORN STARCH, GARLIC POWDER, POTASSIUM SORBATE (PRESERVATIVE), SPICE, XANTHAN GUM, RED PEPPER POWDER, MUSTARD FLOUR." Date available: 06/24/2017 Date last updated by company: 06/24/2017
