Source: USDA Branded Food Products Database Release December 2017 Software v.3.8.6.4 2017-10-02
Report Run at: December 18, 2017 06:44 EST
"Nutrient data for: 45126530, SRIRACHA RANCH, UPC: 070200550742"
Food Group:  Branded Food Products Database
Common Name:

Nutrient,Unit,Data points,Std. Error,"2.0 Tbsp = 30.0g",1Value per 100 g,
Proximates
"Energy",kcal,--,--,100,333
"Protein",g,--,--,0.00,0.00
"Total lipid (fat)",g,--,--,10.00,33.33
"Carbohydrate, by difference",g,--,--,2.00,6.67
"Fiber, total dietary",g,--,--,0.0,0.0
"Sugars, total",g,--,--,1.00,3.33
Minerals
"Calcium, Ca",mg,--,--,0,0
"Iron, Fe",mg,--,--,0.00,0.00
"Sodium, Na",mg,--,--,260,867
Vitamins
"Vitamin C, total ascorbic acid",mg,--,--,2.0,6.8
"Vitamin A, IU",IU,--,--,169,563
Lipids
"Fatty acids, total saturated",g,--,--,0.999,3.330
"Fatty acids, total trans",g,--,--,0.000,0.000
"Cholesterol",mg,--,--,10,33
Amino Acids
Other
Ingredients
"CANOLA OIL, FILTERED WATER, BUTTERMILK, SRIRACHA CHILI SAUCE ( CHILI PEPPERS, SUGAR, VINEGAR, SALT, GARLIC, XANTHAN GUM, BEET POWDER, NATURAL FLAVOR), WHITE WINE VINEGAR, EXTRA VIRGIN OLIVE OIL, SALTED EGG YOLK, SEA SALT, SUGAR, GARLIC*, XANTHAN GUM, NATURAL FLAVOR, ANCHO CHILI PEPPER*, ONION*, SPICE." Date available: 07/14/2017 Date last updated by company: 07/14/2017
