Source: USDA Branded Food Products Database Release December 2017 Software v.3.8.6.4 2017-10-02
Report Run at: December 18, 2017 06:46 EST
"Nutrient data for: 45045635, SRIRACHA, UPC: 856044003169"
Food Group:  Branded Food Products Database
Common Name:

Nutrient,Unit,Data points,Std. Error,"0.5 cup = 125.0g",1Value per 100 g,
Proximates
"Energy",kcal,--,--,70,56
"Protein",g,--,--,1.00,0.80
"Total lipid (fat)",g,--,--,3.50,2.80
"Carbohydrate, by difference",g,--,--,9.00,7.20
"Fiber, total dietary",g,--,--,1.0,0.8
"Sugars, total",g,--,--,5.00,4.00
Minerals
"Calcium, Ca",mg,--,--,60,48
"Iron, Fe",mg,--,--,0.76,0.61
"Sodium, Na",mg,--,--,430,344
Vitamins
"Vitamin C, total ascorbic acid",mg,--,--,25.4,20.3
"Vitamin A, IU",IU,--,--,1321,1057
Lipids
"Fatty acids, total saturated",g,--,--,0.500,0.400
"Fatty acids, total trans",g,--,--,0.000,0.000
"Cholesterol",mg,--,--,0,0
Amino Acids
Other
Ingredients
"CALIFORNIA TOMATOES, TOMATO PUREE (WATER, TOMATO PASTE), FRESH ONIONS, CHILE GARLIC SAUCE (CHILI PEPPERS, DISTILLED VINEGAR, GARLIC, SALT), EXTRA VIRGIN OLIVE OIL, FRESH CARROTS, FRESH GARLIC, CANE SUGAR, SEA SALT, CILANTRO, SPICES, CITRIC ACID." Date available: 07/14/2017 Date last updated by company: 07/14/2017
