Source: USDA Branded Food Products Database Release December 2017 Software v.3.8.6.4 2017-10-02
Report Run at: December 18, 2017 06:43 EST
"Nutrient data for: 45193413, SRIRACHA KETCHUP, UPC: 011110870056"
Food Group:  Branded Food Products Database
Common Name:

Nutrient,Unit,Data points,Std. Error,"1 Tbsp = 17.0g",1Value per 100 g,
Proximates
"Energy",kcal,--,--,15,88
"Protein",g,--,--,0.00,0.00
"Total lipid (fat)",g,--,--,0.00,0.00
"Carbohydrate, by difference",g,--,--,4.00,23.53
"Fiber, total dietary",g,--,--,1.0,5.9
"Sugars, total",g,--,--,3.00,17.65
Minerals
"Calcium, Ca",mg,--,--,0,0
"Iron, Fe",mg,--,--,0.00,0.00
"Sodium, Na",mg,--,--,230,1353
Vitamins
"Vitamin C, total ascorbic acid",mg,--,--,4.1,23.9
"Vitamin A, IU",IU,--,--,0,0
Lipids
"Fatty acids, total saturated",g,--,--,0.000,0.000
"Fatty acids, total trans",g,--,--,0.000,0.000
"Cholesterol",mg,--,--,0,0
Amino Acids
Other
Ingredients
"TOMATO PUREE (WATER, TOMATO PASTE), SUGAR, WHITE VINEGAR, RED JALAPENO PUREE (RED JALAPENO PEPPERS, SALT, CITRIC ACID), SALT, RED CHILI PUREE (RED CHILI PEPPERS, SALT, CITRIC ACID), GARLIC PUREE (GARLIC, WATER, CITRIC ACID), ONION POWDER, GARLIC, SPICES (CLOVE, ALLSPICE, RED PEPPER), HABANERO PEPPER POWDER," Date available: 09/27/2017 Date last updated by company: 09/27/2017
