Source: USDA Branded Food Products Database Release December 2017 Software v.3.8.6.4 2017-10-02
Report Run at: December 18, 2017 06:47 EST
"Nutrient data for: 45156060, SSIPS, BEVERAGE, BERRY PUNCH, UPC: 053600101424"
Food Group:  Branded Food Products Database
Common Name:

Nutrient,Unit,Data points,Std. Error,"8.0 OZA = 240.0g",1Value per 100 g,
Proximates
"Energy",kcal,--,--,101,42
"Protein",g,--,--,0.00,0.00
"Total lipid (fat)",g,--,--,0.00,0.00
"Carbohydrate, by difference",g,--,--,25.01,10.42
"Sugars, total",g,--,--,24.00,10.00
Minerals
"Potassium, K",mg,--,--,19,8
"Sodium, Na",mg,--,--,10,4
Vitamins
"Vitamin C, total ascorbic acid",mg,--,--,90.0,37.5
Lipids
Amino Acids
Other
Ingredients
"FILTERED WATER, HIGH FRUCTOSE CORN SYRUP, CONCENTRATED PEAR JUICE, CITRIC ACID, GUM ACACIA, NATURAL & ARTIFICIAL FLAVORS, CHERRY JUICE, GRAPE JUICE, ASCORBIC ACID (VITAMIN C), RASPBERRY JUICE, RED 40, STRAWBERRY JUICE AND BLUE 1." Date available: 07/14/2017 Date last updated by company: 07/14/2017
