Source: USDA Branded Food Products Database Release December 2017 Software v.3.8.6.4 2017-10-02
Report Run at: December 18, 2017 06:47 EST
"Nutrient data for: 45233704, SSIPS, GUAVA MANGO DRINK, GUAVA, MANGO, UPC: 053600101196"
Food Group:  Branded Food Products Database
Common Name:

Nutrient,Unit,Data points,Std. Error,"8.0 OZA = 240.0g",1Value per 100 g,
Proximates
"Energy",kcal,--,--,110,46
"Protein",g,--,--,0.00,0.00
"Total lipid (fat)",g,--,--,0.00,0.00
"Carbohydrate, by difference",g,--,--,25.99,10.83
"Sugars, total",g,--,--,25.01,10.42
Minerals
"Potassium, K",mg,--,--,14,6
"Sodium, Na",mg,--,--,5,2
Vitamins
"Vitamin C, total ascorbic acid",mg,--,--,60.0,25.0
Lipids
Amino Acids
Other
Ingredients
"FILTERED WATER, HIGH FRUCTOSE CORN SYRUP, CONCENTRATED PEAR JUICE, CITRIC ACID, GUAVA PUREE, MANGO PUREE, NATURAL FLAVORS, ASCORBIC ACID (VITAMIN C), CARAMEL COLOR AND CONCENTRATED FRUIT AND VEGETABLE JUICE (COLOR)." Date available: 06/24/2017 Date last updated by company: 06/24/2017
