Source: USDA Branded Food Products Database Release December 2017 Software v.3.8.6.4 2017-10-02
Report Run at: December 18, 2017 07:05 EST
"Nutrient data for: 45018436, ST. DALFOUR, 100% FRUIT SPREAD, RED RASPBERRY, POMEGRANATE, UPC: 084380958748"
Food Group:  Branded Food Products Database
Common Name:

Nutrient,Unit,Data points,Std. Error,"1 Tbsp = 17.0g",1Value per 100 g,
Proximates
"Energy",kcal,--,--,40,235
"Protein",g,--,--,0.00,0.00
"Total lipid (fat)",g,--,--,0.00,0.00
"Carbohydrate, by difference",g,--,--,10.00,58.82
"Sugars, total",g,--,--,9.00,52.94
Minerals
"Sodium, Na",mg,--,--,0,0
Vitamins
Lipids
"Fatty acids, total trans",g,--,--,0.000,0.000
Amino Acids
Other
Ingredients
"RED RASPBERRIES, POMEGRANATES, SWEETENED ONLY WITH FRUIT JUICE CONCENTRATES (GRAPE AND DATE), FRUIT PECTIN." Date available: 07/14/2017 Date last updated by company: 07/14/2017
