Source: USDA Branded Food Products Database Release December 2017 Software v.3.8.6.4 2017-10-02
Report Run at: December 18, 2017 07:06 EST
"Nutrient data for: 45167635, ST DALFOUR, GOURMET SPREAD, CHESTNUT, UPC: 084380959165"
Food Group:  Branded Food Products Database
Common Name:

Nutrient,Unit,Data points,Std. Error,"1 Tbsp = 23.0g",1Value per 100 g,
Proximates
"Energy",kcal,--,--,60,261
"Protein",g,--,--,0.00,0.00
"Total lipid (fat)",g,--,--,0.00,0.00
"Carbohydrate, by difference",g,--,--,14.00,60.87
"Fiber, total dietary",g,--,--,0.6,2.4
"Sugars, total",g,--,--,12.00,52.17
Minerals
"Sodium, Na",mg,--,--,0,0
Vitamins
Lipids
"Fatty acids, total trans",g,--,--,0.000,0.000
Amino Acids
Other
Ingredients
"CHESTNUTS, FRUIT JUICE CONCENTRATES (GRAPE AND DATE), NATURAL VANILLA EXTRACT." Date available: 10/13/2017 Date last updated by company: 10/13/2017
