Source: USDA Branded Food Products Database Release December 2017 Software v.3.8.6.4 2017-10-02
Report Run at: December 18, 2017 07:30 EST
"Nutrient data for: 45258359, ST. LOUIS STYLE PIZZA, UPC: 852642006090"
Food Group:  Branded Food Products Database
Common Name:

Nutrient,Unit,Data points,Std. Error,"1 SLICE = 151.0g",1Value per 100 g,
Proximates
"Energy",kcal,--,--,310,205
"Protein",g,--,--,18.00,11.92
"Total lipid (fat)",g,--,--,14.00,9.27
"Carbohydrate, by difference",g,--,--,29.01,19.21
"Fiber, total dietary",g,--,--,2.0,1.3
"Sugars, total",g,--,--,3.00,1.99
Minerals
"Calcium, Ca",mg,--,--,400,265
"Iron, Fe",mg,--,--,2.33,1.54
"Sodium, Na",mg,--,--,710,470
Vitamins
"Vitamin C, total ascorbic acid",mg,--,--,11.6,7.7
"Vitamin A, IU",IU,--,--,968,641
Lipids
"Fatty acids, total saturated",g,--,--,5.995,3.970
"Fatty acids, total trans",g,--,--,0.000,0.000
"Cholesterol",mg,--,--,26,17
Amino Acids
Other
Ingredients
"PIZZA CRUST (UNBLEACHED FLOUR (WHEAT FLOUR, MALTED BAREY FLOUR, NIACIN, REDUCED IRON, THIAMINE MONONITRATE, RIBOFLAVIN, FOLIC ACID), WATER, PURE SOYBEAN OIL, YEAST, SUGAR, SALT). PIZZA CHEESE ((PASTEURIZED PROCESS CHEDDAR, SWISS AND PROVOLONE CHEESE) CULTURED PASTEURIZED MILK AND PART SKIM MILK, WATER, SALT, SODIUM PHOSPHATE, MILKFAT, LACTIC ACID, CONTAINS LESS THAN 0.5% OF ENZYMES, SMOKE FLAVOR). MOZZARELLA CHEESE (PASTEURIZED PART SKIM MILK, CULTURES, SALT, ENZYMES). PIZZA SAUCE (CRUSHED TOMATOES (WATER, CONCENTRATED CRUSHED TOMATOES), SALT, SUGAR, DEHYDRATED ONION, SPICES, CITRIC ACID, GARLIC POWDER). FRESH TOMATOES, PAROMA BLEND (PARMESAN AND ROMANO CHEESE (COW'S MILK, CHEESE CULTURE, SALT, ENZYMES), WATER, MILK PROTEIN, MODIFIED FOOD STARCH, SALT, DISODIUM PHOSPHATE, CITRIC ACID, GUAR GUM.) OLIVE OIL, BASIL, GARLIC, SEA SALT, OREGANO." Date available: 07/14/2017 Date last updated by company: 07/14/2017
