Source: USDA Branded Food Products Database Release December 2017 Software v.3.8.6.4 2017-10-02
Report Run at: December 18, 2017 07:30 EST
"Nutrient data for: 45314923, ST. LOUIS STYLE RIBS TANGY BBQ, UPC: 021130157907"
Food Group:  Branded Food Products Database
Common Name:

Nutrient,Unit,Data points,Std. Error,"4.0 RIBS | ABOUT = 140.0g",1Value per 100 g,
Proximates
"Energy",kcal,--,--,360,257
"Protein",g,--,--,25.00,17.86
"Total lipid (fat)",g,--,--,23.00,16.43
"Carbohydrate, by difference",g,--,--,11.00,7.86
"Fiber, total dietary",g,--,--,0.0,0.0
"Sugars, total",g,--,--,10.00,7.14
Minerals
"Calcium, Ca",mg,--,--,41,29
"Iron, Fe",mg,--,--,1.44,1.03
"Sodium, Na",mg,--,--,650,464
Vitamins
"Vitamin C, total ascorbic acid",mg,--,--,0.0,0.0
"Vitamin A, IU",IU,--,--,0,0
Lipids
"Fatty acids, total saturated",g,--,--,7.994,5.710
"Fatty acids, total trans",g,--,--,0.000,0.000
"Cholesterol",mg,--,--,76,54
Amino Acids
Other
Ingredients
"PORK (MARINATED WITH WATER, SALT, SUGAR, SPICES, PAPRIKA, SODIUM PHOSPHATE), BBQ SAUCE (TOMATO PUREE [WATER, TOMATO PASTE], SUGAR, DISTILLED VINEGAR, BACON FAT, SALT, CONTAINS LESS THAN 2% OF CORN STARCH, NATURAL APPLEWOOD SMOKE FLAVOR, NATURAL FLAVORS, SPICES, BROWN SUGAR, DEHYDRATED GARLIC)." Date available: 07/14/2017 Date last updated by company: 07/14/2017
