Source: USDA Branded Food Products Database Release December 2017 Software v.3.8.6.4 2017-10-02
Report Run at: December 18, 2017 06:48 EST
"Nutrient data for: 45197164, STADIUM SLIDER BUNS, UPC: 071314042789"
Food Group:  Branded Food Products Database
Common Name:

Nutrient,Unit,Data points,Std. Error,"1 BUN = 38.0g",1Value per 100 g,
Proximates
"Energy",kcal,--,--,110,289
"Protein",g,--,--,3.00,7.89
"Total lipid (fat)",g,--,--,1.50,3.95
"Carbohydrate, by difference",g,--,--,20.00,52.63
"Fiber, total dietary",g,--,--,1.0,2.6
"Sugars, total",g,--,--,3.00,7.89
Minerals
"Calcium, Ca",mg,--,--,20,53
"Iron, Fe",mg,--,--,1.90,4.99
"Sodium, Na",mg,--,--,190,500
Vitamins
"Vitamin C, total ascorbic acid",mg,--,--,0.0,0.0
"Thiamin",mg,--,--,0.380,1.000
"Riboflavin",mg,--,--,0.102,0.268
"Niacin",mg,--,--,2.106,5.542
"Vitamin A, IU",IU,--,--,0,0
Lipids
"Fatty acids, total saturated",g,--,--,0.000,0.000
"Fatty acids, total monounsaturated",g,--,--,0.000,0.000
"Fatty acids, total polyunsaturated",g,--,--,0.000,0.000
"Fatty acids, total trans",g,--,--,0.000,0.000
"Cholesterol",mg,--,--,0,0
Amino Acids
Other
Ingredients
"ENRICHED UNBLEACHED FLOUR [WHEAT FLOUR, MALTED BARLEY FLOUR, REDUCED IRON, THIAMINE MONONITRATE (VITAMIN B1), RIBOFLAVIN (VITAMIN B2), NIACIN (VITAMIN B3), FOLIC ACID], WATER, HIGH FRUCTOSE CORN SYRUP, YEAST, NATURAL OIL BLEND (SOYBEAN, PALM FRUIT, CANOLA OIL), WHEAT GLUTEN, WHEAT PROTEIN ISOLATE, SALT, NATURAL AND ARTIFICIAL FLAVORS, YELLOW CORN FLOUR, MONOGLYCERIDES, SPICE OILS (TURMERIC AND ANNATTO), CALCIUM PROPIONATE AND POTASSIUM SORBATE (PRESERVATIVES), DEXTROSE, LACTIC ACID, SODIUM STEAROYL LACTYLATE, CALCIUM SULFATE, CITRIC ACID, ASCORBIC ACID, VITAMIN A PALMITATE AND BETA CAROTENE, CORN STARCH, DIGLYCERIDES." Date available: 07/14/2017 Date last updated by company: 07/14/2017
