Source: USDA Branded Food Products Database Release December 2017 Software v.3.8.6.4 2017-10-02
Report Run at: December 18, 2017 06:53 EST
"Nutrient data for: 45250618, STARBURST, SWEETS + SOURS FRUIT CHEWS CANDY, UPC: 022000073525"
Food Group:  Branded Food Products Database
Common Name:

Nutrient,Unit,Data points,Std. Error,"1 PACKAGE = 60.0g",1Value per 100 g,
Proximates
"Energy",kcal,--,--,240,400
"Protein",g,--,--,0.00,0.00
"Total lipid (fat)",g,--,--,5.00,8.33
"Carbohydrate, by difference",g,--,--,50.00,83.33
"Fiber, total dietary",g,--,--,0.0,0.0
"Sugars, total",g,--,--,33.00,55.00
Minerals
"Calcium, Ca",mg,--,--,0,0
"Iron, Fe",mg,--,--,0.00,0.00
"Sodium, Na",mg,--,--,33,55
Vitamins
"Vitamin C, total ascorbic acid",mg,--,--,15.0,25.0
"Vitamin A, IU",IU,--,--,0,0
Lipids
"Fatty acids, total saturated",g,--,--,4.500,7.500
"Fatty acids, total trans",g,--,--,0.000,0.000
"Cholesterol",mg,--,--,0,0
Amino Acids
Other
Ingredients
"MADE OF: CORN SYRUP, SUGAR, HYDROGENATED PALM KERNEL OIL; LESS THAN 2% OF: CITRIC ACID, TAPIOCA DEXTRIN, GELATIN, APPLE JUICE FROM CONCENTRATE, NATURAL AND ARTIFICIAL FLAVORS, MODIFIED CORN STARCH, SODIUM CITRATE, ASCORBIC ACID (VITAMIN C), COLORS (RED 40, BLUE 1, YELLOW 5, YELLOW 6)." Date available: 07/14/2017 Date last updated by company: 07/14/2017
