Source: USDA Branded Food Products Database Release December 2017 Software v.3.8.6.4 2017-10-02
Report Run at: December 18, 2017 06:51 EST
"Nutrient data for: 45136880, STARBUCKS, FRAPPUCCINO, CHILLED COFFEE DRINK, MOCHA COCONUT, UPC: 012000044786"
Food Group:  Branded Food Products Database
Common Name:

Nutrient,Unit,Data points,Std. Error,"1 BOTTLE = 411.0g",1Value per 100 g,
Proximates
"Energy",kcal,--,--,300,73
"Protein",g,--,--,9.99,2.43
"Total lipid (fat)",g,--,--,4.48,1.09
"Carbohydrate, by difference",g,--,--,54.01,13.14
"Fiber, total dietary",g,--,--,0.8,0.2
"Sugars, total",g,--,--,47.02,11.44
Minerals
"Calcium, Ca",mg,--,--,300,73
"Iron, Fe",mg,--,--,0.74,0.18
"Sodium, Na",mg,--,--,140,34
Vitamins
"Vitamin C, total ascorbic acid",mg,--,--,0.0,0.0
"Vitamin A, IU",IU,--,--,0,0
Lipids
"Fatty acids, total saturated",g,--,--,3.000,0.730
"Fatty acids, total trans",g,--,--,0.000,0.000
"Cholesterol",mg,--,--,21,5
Amino Acids
Other
Ingredients
"BREWED STARBUCKS COFFEE (WATER, COFFEE), REDUCED FAT MILK, SKIM MILK, SUGAR, MALTODEXTRIN, CREAM, NATURAL FLAVORS, COCOA, PECTIN" Date available: 06/25/2017 Date last updated by company: 06/25/2017
