Source: USDA Branded Food Products Database Release December 2017 Software v.3.8.6.4 2017-10-02
Report Run at: December 18, 2017 06:59 EST
"Nutrient data for: 45029993, STAR, MARASCHINO CHERRIES, UPC: 073210012064"
Food Group:  Branded Food Products Database
Common Name:

Nutrient,Unit,Data points,Std. Error,"1 CHERRY = 5.0g",1Value per 100 g,
Proximates
"Energy",kcal,--,--,10,200
"Protein",g,--,--,0.00,0.00
"Total lipid (fat)",g,--,--,0.00,0.00
"Carbohydrate, by difference",g,--,--,2.00,40.00
"Sugars, total",g,--,--,2.00,40.00
Minerals
"Sodium, Na",mg,--,--,0,0
Vitamins
Lipids
"Fatty acids, total trans",g,--,--,0.000,0.000
Amino Acids
Other
Ingredients
"CHERRIES, WATER, HIGH FRUCTOSE CORN SYRUP, CORN SYRUP, CITRIC ACID, ARTIFICIAL FLAVOR, SODIUM BENZOATE AND POTASSIUM SORBATE AS PRESERVATIVES, RED #40, SULPHUR DIOXIDE AS A PRESERVATIVE." Date available: 07/14/2017 Date last updated by company: 07/14/2017
