Source: USDA Branded Food Products Database Release December 2017 Software v.3.8.6.4 2017-10-02
Report Run at: December 18, 2017 06:50 EST
"Nutrient data for: 45149664, STARBUCKS, CLASSIC COFFEE,  HOT COCOA, UPC: 762111088062"
Food Group:  Branded Food Products Database
Common Name:

Nutrient,Unit,Data points,Std. Error,"1 K-CUP POD = 21.0g",1Value per 100 g,
Proximates
"Energy",kcal,--,--,90,429
"Protein",g,--,--,2.00,9.52
"Total lipid (fat)",g,--,--,3.00,14.29
"Carbohydrate, by difference",g,--,--,13.00,61.90
"Fiber, total dietary",g,--,--,1.0,4.8
"Sugars, total",g,--,--,13.00,61.90
Minerals
"Calcium, Ca",mg,--,--,40,190
"Iron, Fe",mg,--,--,4.29,20.41
"Sodium, Na",mg,--,--,190,905
Vitamins
"Vitamin C, total ascorbic acid",mg,--,--,0.0,0.0
"Vitamin A, IU",IU,--,--,0,0
Lipids
"Fatty acids, total saturated",g,--,--,2.499,11.900
"Fatty acids, total trans",g,--,--,0.000,0.000
"Cholesterol",mg,--,--,0,0
Amino Acids
Other
Ingredients
"SUGAR, ALKALIZED COCOA POWDER, COCONUT OIL, NONFAT DRY MILK, WHEY SOLIDS, SEA SALT, COCOA EXTRACT, SODIUM CASEINATE, NATURAL FLAVOR, DIPOTASSIUM PHOSPHATE, MONO- AND DIGLYCERIDES, STEVIOL GLYCOSIDES." Date available: 07/14/2017 Date last updated by company: 07/14/2017
