Source: USDA Branded Food Products Database Release December 2017 Software v.3.8.6.4 2017-10-02
Report Run at: December 18, 2017 07:00 EST
"Nutrient data for: 45137705, STARS & STRIPES, RED SODA, UPC: 061500005353"
Food Group:  Branded Food Products Database
Common Name:

Nutrient,Unit,Data points,Std. Error,"1 CAN = 355.0g",1Value per 100 g,
Proximates
"Energy",kcal,--,--,121,34
"Protein",g,--,--,0.00,0.00
"Total lipid (fat)",g,--,--,0.00,0.00
"Carbohydrate, by difference",g,--,--,31.99,9.01
"Sugars, total",g,--,--,31.99,9.01
Minerals
"Sodium, Na",mg,--,--,39,11
Vitamins
Lipids
Amino Acids
Other
Ingredients
"CARBONATED WATER, HIGH FRUCTOSE CORN SYRUP, NATURAL AND ARTIFICIAL FLAVOR, CITRIC ACID, GUM ACACIA, POTASSIUM BENZOATE (A PRESERVATIVE), CAFFEINE, ACESULFAME POTASSIUM, RED 40." Date available: 07/14/2017 Date last updated by company: 07/14/2017
