Source: USDA Branded Food Products Database Release December 2017 Software v.3.8.6.4 2017-10-02
Report Run at: December 18, 2017 06:50 EST
"Nutrient data for: 45110038, STAR BAR ICE CREAM, UPC: 070640300273"
Food Group:  Branded Food Products Database
Common Name:

Nutrient,Unit,Data points,Std. Error,"1 BAR = 42.0g",1Value per 100 g,
Proximates
"Energy",kcal,--,--,110,262
"Protein",g,--,--,1.00,2.38
"Total lipid (fat)",g,--,--,7.00,16.67
"Carbohydrate, by difference",g,--,--,12.00,28.57
"Fiber, total dietary",g,--,--,0.0,0.0
"Sugars, total",g,--,--,9.00,21.43
Minerals
"Calcium, Ca",mg,--,--,60,143
"Iron, Fe",mg,--,--,0.00,0.00
"Potassium, K",mg,--,--,80,190
"Sodium, Na",mg,--,--,25,60
Vitamins
"Vitamin C, total ascorbic acid",mg,--,--,0.0,0.0
"Vitamin A, IU",IU,--,--,100,238
Lipids
"Fatty acids, total saturated",g,--,--,6.002,14.290
"Fatty acids, total trans",g,--,--,0.000,0.000
"Cholesterol",mg,--,--,5,12
Amino Acids
Other
Ingredients
"REDUCED FAT ICE CREAM (MILK, BUTTERMILK, WHEY, SUGAR, CORN SYRUP, CREAM, SKIM MILK, CONTAINS 2% OR LESS OF VANILLA EXTRACT, ARTIFICIAL FLAVOR, MONO AND DIGLYCERIDES, CAROB BEAN GUM, GUAR GUM, CARRAGEENAN, POLYSORBATE 80, ANNATTO FOR COLOR, VITAMIN A PALMITATE). COATING (COCONUT OIL, SUGAR, COCOA, COCOA PROCESSED WITH ALKALI, SOY LECITHIN, SALT, ARTIFICIAL FLAVOR)." Date available: 07/14/2017 Date last updated by company: 07/14/2017
