Source: USDA Branded Food Products Database Release December 2017 Software v.3.8.6.4 2017-10-02
Report Run at: December 18, 2017 06:56 EST
"Nutrient data for: 45239273, STARKIST, ORIGINAL DELI STYLE TUNA SALAD, UPC: 080000514882"
Food Group:  Branded Food Products Database
Common Name:

Nutrient,Unit,Data points,Std. Error,"5.0 CRACKERS = 15.0g",1Value per 100 g,
Proximates
"Energy",kcal,--,--,70,467
"Protein",g,--,--,1.00,6.67
"Total lipid (fat)",g,--,--,3.00,20.00
"Carbohydrate, by difference",g,--,--,10.00,66.67
"Fiber, total dietary",g,--,--,0.5,3.3
"Sugars, total",g,--,--,2.00,13.33
Minerals
"Calcium, Ca",mg,--,--,20,133
"Iron, Fe",mg,--,--,6.72,44.80
"Sodium, Na",mg,--,--,90,600
Vitamins
"Vitamin C, total ascorbic acid",mg,--,--,0.0,0.0
"Vitamin A, IU",IU,--,--,0,0
Lipids
"Fatty acids, total saturated",g,--,--,1.500,10.000
"Fatty acids, total monounsaturated",g,--,--,1.500,10.000
"Fatty acids, total polyunsaturated",g,--,--,0.500,3.330
"Fatty acids, total trans",g,--,--,0.000,0.000
"Cholesterol",mg,--,--,0,0
Amino Acids
Other
Ingredients
"ENRICHED WHEAT FLOUR (WHEAT FLOUR, FERROUS FUMARATE, THIAMIN, RIBOFLAVIN, FOLIC ACID, NIACIN), VEGETABLE OIL, SUGAR, MALT EXTRACT, CONTAINS 2% OR LESS OF LEAVENING (SODIUM BICARBONATE, SODIUM ACID PYROPHOSPHATE, MONOCALCIUM PHOSPHATE),SALT." Date available: 06/24/2017 Date last updated by company: 06/24/2017
