Source: USDA Branded Food Products Database Release December 2017 Software v.3.8.6.4 2017-10-02
Report Run at: December 18, 2017 07:02 EST
"Nutrient data for: 45306145, STATE FAIR, FUNNEL CAKE CORN DOGS, UPC: 071068461560"
Food Group:  Branded Food Products Database
Common Name:

Nutrient,Unit,Data points,Std. Error,"1 CORN DOG = 76.0g",1Value per 100 g,
Proximates
"Energy",kcal,--,--,230,303
"Protein",g,--,--,6.00,7.89
"Total lipid (fat)",g,--,--,11.00,14.47
"Carbohydrate, by difference",g,--,--,26.00,34.21
"Fiber, total dietary",g,--,--,0.0,0.0
"Sugars, total",g,--,--,12.00,15.79
Minerals
"Calcium, Ca",mg,--,--,60,79
"Iron, Fe",mg,--,--,1.61,2.12
"Sodium, Na",mg,--,--,480,632
Vitamins
"Vitamin C, total ascorbic acid",mg,--,--,13.5,17.7
"Vitamin A, IU",IU,--,--,0,0
Lipids
"Fatty acids, total saturated",g,--,--,2.500,3.290
"Fatty acids, total trans",g,--,--,0.000,0.000
"Cholesterol",mg,--,--,35,46
Amino Acids
Other
Ingredients
"BATTER: WATER, ENRICHED BLEACHED FLOUR, SUGAR, CONTAINS 2% OR LESS: NONFAT DRY MILK, WHOLE EGG, LEAVENING AGENTS (SODIUM ALUMINUM PHOSPHATE, SODIUM BICARBONATE), RICE FLOUR,MODIFIED FOOD STARCH, NATURAL AND ARTIFICIAL FLAVOR, SODIUM CASEINATE, SALT, MONO- AND DIGLYCERIDES). COOKED INH VEGETABLE OIL. HOT DOG MADE WITH TURKEY AND CHICKEN, PORK ADDED: MECHANICALLY SEPARATED TURKEY, MECHANICALLY SEPARATED CHICKEN, WATER, CORN SYRUP, DEXTROSE, MODIFIED CORN STARCH, PORK, CONTAINS 2% OR LESS: SALT, BEEF, FLAVORINGS, PAPRIKA, POTASSIUM LACTATE, ASCORBIC ACID (VITAMIN C), SODIUM NITRITE, SODIUM DIACETATE." Date available: 07/14/2017 Date last updated by company: 07/14/2017
