Source: USDA Branded Food Products Database Release December 2017 Software v.3.8.6.4 2017-10-02
Report Run at: December 18, 2017 07:02 EST
"Nutrient data for: 45164831, STATER BROS., FLAVORED ALMONDS, WASABI & SOY SAUCE, UPC: 074175302115"
Food Group:  Branded Food Products Database
Common Name:

Nutrient,Unit,Data points,Std. Error,"0.25 cup = 34.0g",1Value per 100 g,
Proximates
"Energy",kcal,--,--,200,588
"Protein",g,--,--,7.00,20.59
"Total lipid (fat)",g,--,--,18.00,52.94
"Carbohydrate, by difference",g,--,--,6.00,17.65
"Fiber, total dietary",g,--,--,3.0,8.8
"Sugars, total",g,--,--,2.00,5.88
Minerals
"Calcium, Ca",mg,--,--,100,294
"Iron, Fe",mg,--,--,1.59,4.67
"Sodium, Na",mg,--,--,160,471
Vitamins
"Vitamin C, total ascorbic acid",mg,--,--,0.0,0.0
"Vitamin A, IU",IU,--,--,0,0
Lipids
"Fatty acids, total saturated",g,--,--,1.499,4.410
"Fatty acids, total monounsaturated",g,--,--,11.999,35.290
"Fatty acids, total polyunsaturated",g,--,--,4.502,13.240
"Fatty acids, total trans",g,--,--,0.000,0.000
"Cholesterol",mg,--,--,0,0
Amino Acids
Other
Ingredients
"ALMONDS, VEGETABLE OIL (PEANUT, COTTONSEED, SOYBEAN AND/OR SUNFLOWER SEED), CONTAINS LESS THAN 2% OF THE FOLLOWING: SUGAR, SALT, DEHYDRATED SOY SAUCE (WHEAT, SOYBEANS, SALT), MALTODEXTRIN, ONION POWDER, GARLIC POWDER, NATURAL FLAVORS (INCLUDING MUSTARD), YEAST EXTRACT, CITRIC ACID, DISODIUM INOSINATE, DISODIUM GUANYLATE, SILICON DIOXIDE (ANTI-CAKING AGENT), WASABI POWDER, NATURAL SMOKE FLAVOR, TOCOPHEROLS (PRESERVATIVE)." Date available: 07/14/2017 Date last updated by company: 07/14/2017
