Source: USDA Branded Food Products Database Release December 2017 Software v.3.8.6.4 2017-10-02
Report Run at: December 18, 2017 07:05 EST
"Nutrient data for: 45164703, STAUFFER'S, MINI CANDY CANE COOKIES, UPC: 072320171821"
Food Group:  Branded Food Products Database
Common Name:

Nutrient,Unit,Data points,Std. Error,"6.0 COOKIES = 30.0g",1Value per 100 g,
Proximates
"Energy",kcal,--,--,140,467
"Protein",g,--,--,1.00,3.33
"Total lipid (fat)",g,--,--,6.00,20.00
"Carbohydrate, by difference",g,--,--,22.00,73.33
"Fiber, total dietary",g,--,--,0.0,0.0
"Sugars, total",g,--,--,14.00,46.67
Minerals
"Calcium, Ca",mg,--,--,20,67
"Iron, Fe",mg,--,--,0.60,2.00
"Sodium, Na",mg,--,--,50,167
Vitamins
"Vitamin C, total ascorbic acid",mg,--,--,0.0,0.0
"Vitamin A, IU",IU,--,--,0,0
Lipids
"Fatty acids, total saturated",g,--,--,3.999,13.330
"Fatty acids, total trans",g,--,--,0.000,0.000
"Cholesterol",mg,--,--,0,0
Amino Acids
Other
Ingredients
"WHITE FUDGE COATING (SUGAR, PALM KERNEL AND PALM OILS, WHEY [FROM MILK], NONFAT DRY MILK, SOY LECITHIN [AN EMULSIFIER], VANILLA), ENRICHED FLOUR (WHEAT FLOUR, NIACIN, REDUCED IRON, THIAMINE MONONITRATE [VITAMIN B1], RIBOFLAVIN [VITAMIN B2], FOLIC ACID), SUGAR, PALM OIL, CORN STARCH, WHEY POWDER (FROM MILK), SALT, LEAVENING (BAKING SODA, MONOCALCIUM PHOSPHATE), NATURAL FLAVORS, SOY LECITHIN (AN EMULSIFIER), PEPPERMINT TOPPING (SUGAR, CORN SYRUP, NATURAL PEPPERMINT OIL, FD&C RED 40, FD&C RED 3, FD&C BLUE 1)." Date available: 07/14/2017 Date last updated by company: 07/14/2017
