Source: USDA Branded Food Products Database Release December 2017 Software v.3.8.6.4 2017-10-02
Report Run at: December 18, 2017 07:11 EST
"Nutrient data for: 45181472, STEAMABLE CALIFORNIA BLEND WITH CHEESE SAUCE, UPC: 02114002532"
Food Group:  Branded Food Products Database
Common Name:

Nutrient,Unit,Data points,Std. Error,"1 cup = 105.0g",1Value per 100 g,
Proximates
"Energy",kcal,--,--,50,48
"Protein",g,--,--,2.00,1.90
"Total lipid (fat)",g,--,--,1.50,1.43
"Carbohydrate, by difference",g,--,--,7.00,6.67
"Fiber, total dietary",g,--,--,2.0,1.9
"Sugars, total",g,--,--,4.00,3.81
Minerals
"Calcium, Ca",mg,--,--,40,38
"Iron, Fe",mg,--,--,0.38,0.36
"Sodium, Na",mg,--,--,330,314
Vitamins
"Vitamin C, total ascorbic acid",mg,--,--,18.9,18.0
"Vitamin A, IU",IU,--,--,1309,1247
Lipids
"Fatty acids, total saturated",g,--,--,0.504,0.480
"Fatty acids, total trans",g,--,--,0.000,0.000
"Cholesterol",mg,--,--,0,0
Amino Acids
Other
Ingredients
"BROCCOLI, CAULIFLOWER, CARROTS, WATER, CONTAINS LESS THAN 2% OF: ANNATTO (VEGETABLE COLOR), BUTTER OIL, CANOLA OIL, CHEDDAR CHEESE (PASTEURIZED MILK, CHEESE CULTURE, SALT, ENZYMES), CORNSTARCH, CREAM, GELATIN, LACTIC ACID, MALTODEXTRIN, MONTEREY JACK CHEESE (PASTEURIZED MILK, CHEESE CULTURE, SALT, ENZYMES), NATURAL FLAVOR, PALM OIL, PAPRIKA (COLOR), ROMANO CHEESE (PASTEURIZED COW'S MILK, CHEESE CULTURE, SALT, ENZYMES), SALT, SODIUM ALGINATE, SODIUM PHOSPHATE, SOY LECITHIN, SOYBEAN OIL, STARTER DISTILLATE, SUGAR, WHEY, WHEY PROTEIN CONCENTRATE, XANTHAN GUM, YEAST EXTRACT." Date available: 07/14/2017 Date last updated by company: 07/14/2017
