Source: USDA Branded Food Products Database Release December 2017 Software v.3.8.6.4 2017-10-02
Report Run at: December 18, 2017 07:07 EST
"Nutrient data for: 45221076, STEAK CHILI WITH RED BEANS, UPC: 612669931085"
Food Group:  Branded Food Products Database
Common Name:

Nutrient,Unit,Data points,Std. Error,"1 cup = 254.0g",1Value per 100 g,
Proximates
"Energy",kcal,--,--,231,91
"Protein",g,--,--,19.99,7.87
"Total lipid (fat)",g,--,--,7.01,2.76
"Carbohydrate, by difference",g,--,--,23.01,9.06
"Fiber, total dietary",g,--,--,7.1,2.8
"Sugars, total",g,--,--,7.01,2.76
Minerals
"Calcium, Ca",mg,--,--,79,31
"Iron, Fe",mg,--,--,3.81,1.50
"Sodium, Na",mg,--,--,711,280
Vitamins
"Vitamin C, total ascorbic acid",mg,--,--,1.3,0.5
"Vitamin A, IU",IU,--,--,792,312
Lipids
"Fatty acids, total saturated",g,--,--,2.489,0.980
"Fatty acids, total trans",g,--,--,0.000,0.000
"Cholesterol",mg,--,--,46,18
Amino Acids
Other
Ingredients
"TOMATOES (TOMATOES, SALT, NATURALLY DERIVED CITRIC ACID), ANGUS BEEF, ONIONS, RED CHILI BEANS, GREEN PEPPERS, DICED GREEN CHILIES (GREEN CHILE PEPPERS, WATER, SALT, NATURALLY DERIVED CITRIC ACID), CONTAINS 2% OR LESS OF: GARLIC, PAPRIKA SAUCE (DISTILLED VINEGAR, RED PEPPER, SALT), PORK FAT, SEA SALT, SPICES, ORGANIC CULTURED DEXTROSE, TOMATO PASTE (TOMATOES, NATURALLY DERIVED CITRIC ACID)." Date available: 07/14/2017 Date last updated by company: 07/14/2017
