Source: USDA Branded Food Products Database Release December 2017 Software v.3.8.6.4 2017-10-02
Report Run at: December 18, 2017 07:06 EST
"Nutrient data for: 45044295, STEAK BURRITO BOWL, UPC: 850416004013"
Food Group:  Branded Food Products Database
Common Name:

Nutrient,Unit,Data points,Std. Error,"1 BOWL = 241.0g",1Value per 100 g,
Proximates
"Energy",kcal,--,--,289,120
"Protein",g,--,--,16.99,7.05
"Total lipid (fat)",g,--,--,6.99,2.90
"Carbohydrate, by difference",g,--,--,38.99,16.18
"Fiber, total dietary",g,--,--,5.1,2.1
"Sugars, total",g,--,--,2.00,0.83
Minerals
"Calcium, Ca",mg,--,--,99,41
"Iron, Fe",mg,--,--,1.04,0.43
"Sodium, Na",mg,--,--,581,241
Vitamins
"Vitamin C, total ascorbic acid",mg,--,--,10.4,4.3
"Vitamin A, IU",IU,--,--,581,241
Lipids
"Fatty acids, total saturated",g,--,--,2.506,1.040
"Fatty acids, total trans",g,--,--,0.000,0.000
"Cholesterol",mg,--,--,29,12
Amino Acids
Other
Ingredients
"BROWN RICE, STEAK (BEEF, BEEF STOCK, LESS THAN 2% OF RICE STARCH, SEA SALT, LEMON JUICE CONCENTRATE, VINEGAR, SPICES), PINTO BEANS, WATER, LIME JUICE, PEPPER JACK CHEESE (PASTEURIZED MILK, CHEESE CULTURES, SALT, RED & GREEN JALAPENO PEPPERS, ENZYMES), ROASTED CORN, ROASTED TOMATOES, CILANTRO, TOMATOES, RED BELL PEPPERS, CHILI PEPPER, BLACK BEANS, CANOLA OIL, CORN STARCH, ONIONS, CHEDDAR CHEESE (PASTEURIZED MILK, CHEESE CULTURES, SALT, ENZYMES & ANNATTO), RED ONIONS, APPLE CIDER VINEGAR, CHIPOTLE ADOBO PUREE (WATER, ONION, DRIED CHIPOTLE PEPPER, TOMATO PASTE, CANOLA OIL, SUGAR, VINEGAR, SALT, GARLIC PUREE, NATURAL SMOKE FLAVORING, WHITE PEPPER, OREGANO, BAY LEAVES), TOMATO PASTE (TOMATOES), SEA SALT, CHILI PEPPER, SEASONING BLEND (SPICES, GARLIC POWDER), GARLIC (GARLIC, WATER), GROUND CHILI PEPPER, SUGAR, GARLIC POWDER, GROUND BAY LEAF, ALLSPICE, CUMIN, GROUND OREGANO." Date available: 07/14/2017 Date last updated by company: 07/14/2017
