Source: USDA Branded Food Products Database Release December 2017 Software v.3.8.6.4 2017-10-02
Report Run at: December 18, 2017 07:09 EST
"Nutrient data for: 45078655, STEAK SAUCE, UPC: 852549003161"
Food Group:  Branded Food Products Database
Common Name:

Nutrient,Unit,Data points,Std. Error,"1 Tbsp = 17.0g",1Value per 100 g,
Proximates
"Energy",kcal,--,--,10,59
"Protein",g,--,--,0.00,0.00
"Total lipid (fat)",g,--,--,0.00,0.00
"Carbohydrate, by difference",g,--,--,2.00,11.76
"Fiber, total dietary",g,--,--,0.0,0.0
"Sugars, total",g,--,--,1.00,5.88
Minerals
"Calcium, Ca",mg,--,--,0,0
"Iron, Fe",mg,--,--,1.22,7.16
"Sodium, Na",mg,--,--,50,294
Vitamins
"Vitamin C, total ascorbic acid",mg,--,--,0.0,0.0
"Vitamin A, IU",IU,--,--,0,0
Lipids
"Fatty acids, total saturated",g,--,--,0.000,0.000
"Cholesterol",mg,--,--,0,0
Amino Acids
Other
Ingredients
"WATER, TOMATO PASTE, APPLE CIDER VINEGAR, BROWN SUGAR, POMEGRANATE MOLASSES, RED WINE EXTRACT (SULPHITES), SALT, BEEF FLAVOR (NATURAL FLAVORS INCLUDING AUTOLYZED YEAST & BEEF EXTRACT, SALT), MOLASSES, TAMARIND EXTRACT, SPICES, ONION, NATURAL FLAVORS, ROASTED GARLIC, SUMAC POWDER, GREEN PEPPERCORNS, GARLIC, XANTHAN GUM." Date available: 07/14/2017 Date last updated by company: 07/14/2017
