Source: USDA Branded Food Products Database Release December 2017 Software v.3.8.6.4 2017-10-02
Report Run at: December 18, 2017 07:14 EST
"Nutrient data for: 45331781, STEAM MEAL, UPC: 078742249056"
Food Group:  Branded Food Products Database
Common Name:

Nutrient,Unit,Data points,Std. Error,"0.5 PACKAGE = 340.0g",1Value per 100 g,
Proximates
"Energy",kcal,--,--,360,106
"Protein",g,--,--,22.00,6.47
"Total lipid (fat)",g,--,--,7.99,2.35
"Carbohydrate, by difference",g,--,--,50.01,14.71
"Fiber, total dietary",g,--,--,7.1,2.1
"Sugars, total",g,--,--,2.99,0.88
Minerals
"Calcium, Ca",mg,--,--,61,18
"Iron, Fe",mg,--,--,2.58,0.76
"Potassium, K",mg,--,--,534,157
"Sodium, Na",mg,--,--,1180,347
Vitamins
"Vitamin D",IU,--,--,0,0
Lipids
"Fatty acids, total saturated",g,--,--,1.496,0.440
"Fatty acids, total trans",g,--,--,0.000,0.000
"Cholesterol",mg,--,--,44,13
Amino Acids
Other
Ingredients
"COOKED BROWN RICE, FULLY COOKED GRILLED SEASONED CHICKEN STRIPS (CHICKEN BREAST WITH RIB MEAT, WATER, SEASONING [MODIFIED TAPIOCA STARCH, SODIUM CITRATE, SALT, SODIUM PHOSPHATES, SODIUM DIACETATE, WHEY PROTEIN CONCENTRATE, CHICKEN BROTH POWDER, CARRAGEENAN]), COOKED RED QUINOA, SAUCE (WATER, MILK, SOUR CREAM [CULTURED CREAM, ENZYMES], FOOD STARCH-MODIFIED, CILANTRO, LIME JUICE, SALT, NATURAL FLAVOR, CHIPOTLE PEPPER), CORN, RED BELL PEPPER, COOKED BLACK BEANS (BLACK BEANS, WATER), ONION, GREEN BELL PEPPER, CONTAINS LESS THAN 2% OF CANOLA OIL, SEASONING (SALT, SPICES, RICE FLOUR, LIME JUICE POWDER [LIME JUICE CONCENTRATE, MALTODEXTRIN], ONION POWDER, GARLIC POWDER, CANE SUGAR, AUTOLYZED YEAST EXTRACT, RED BELL PEPPER POWDER, GREEN BELL PEPPER POWDER, TOMATO POWDER, MUSHROOM POWDER)." Date available: 10/13/2017 Date last updated by company: 10/13/2017
