Source: USDA Branded Food Products Database Release December 2017 Software v.3.8.6.4 2017-10-02
Report Run at: December 18, 2017 07:16 EST
"Nutrient data for: 45269490, STEEL CUT OATMEAL, UPC: 857199006029"
Food Group:  Branded Food Products Database
Common Name:

Nutrient,Unit,Data points,Std. Error,"1 POUCH = 227.0g",1Value per 100 g,
Proximates
"Energy",kcal,--,--,191,84
"Protein",g,--,--,4.00,1.76
"Total lipid (fat)",g,--,--,2.00,0.88
"Carbohydrate, by difference",g,--,--,40.00,17.62
"Fiber, total dietary",g,--,--,3.0,1.3
"Sugars, total",g,--,--,18.00,7.93
Minerals
"Calcium, Ca",mg,--,--,41,18
"Iron, Fe",mg,--,--,0.34,0.15
"Sodium, Na",mg,--,--,54,24
Vitamins
"Vitamin C, total ascorbic acid",mg,--,--,0.0,0.0
"Vitamin A, IU",IU,--,--,0,0
Lipids
"Fatty acids, total saturated",g,--,--,0.091,0.040
"Fatty acids, total trans",g,--,--,0.000,0.000
"Cholesterol",mg,--,--,0,0
Amino Acids
Other
Ingredients
"WATER, STEEL CUT OATS, APPLE JUICE CONCENTRATE, POTATO STARCH SUGAR, CINNAMON, SALT." Date available: 07/14/2017 Date last updated by company: 07/14/2017
