Source: USDA Branded Food Products Database Release December 2017 Software v.3.8.6.4 2017-10-02
Report Run at: December 18, 2017 07:18 EST
"Nutrient data for: 45224150, STELLA D'ORO, STELLA TRINKETS COOKIES, UPC: 073510002512"
Food Group:  Branded Food Products Database
Common Name:

Nutrient,Unit,Data points,Std. Error,"4.0 COOKIES = 30.0g",1Value per 100 g,
Proximates
"Energy",kcal,--,--,150,500
"Protein",g,--,--,2.00,6.67
"Total lipid (fat)",g,--,--,11.00,36.67
"Carbohydrate, by difference",g,--,--,19.00,63.33
"Fiber, total dietary",g,--,--,1.0,3.3
"Sugars, total",g,--,--,8.00,26.67
Minerals
"Calcium, Ca",mg,--,--,0,0
"Iron, Fe",mg,--,--,1.20,4.00
"Sodium, Na",mg,--,--,75,250
Vitamins
"Vitamin C, total ascorbic acid",mg,--,--,0.0,0.0
"Vitamin A, IU",IU,--,--,0,0
Lipids
"Fatty acids, total saturated",g,--,--,3.501,11.670
"Fatty acids, total trans",g,--,--,0.000,0.000
"Cholesterol",mg,--,--,5,17
Amino Acids
Other
Ingredients
"ENRICHED FLOUR (BLEACHED AND UNBLEACHED WHEAT FLOUR, MALTED BARLEY, FLOUR, NIACIN, REDUCED IRON, THIAMINE MONONITRATE, RIBOFLAVIN, FOLIC ACID), VEGETABLE OIL (CONTAINS ONE OR MORE OF THE FOLLOWING: CANOLA OIL, CORN OIL, PALM OIL, SOYBEAN OIL), SUGAR, SPRINKLES (SUGAR, ARTIFICIAL COLORS [RED 3, YELLOW 6, RED 40, YELLOW 5, YELLOW 5 LAKE, BLUE 1 LAKE, BLUE 1] CARNAUBA WAX), WHOLE EGGS, INVERT SYRUP, SALT, NATURAL AND ARTIFICIAL FLAVORS, ARTIFICIAL COLORS (YELLOW 5,YELLOW 6), BAKING SODA, SOY LECITHIN." Date available: 07/14/2017 Date last updated by company: 07/14/2017
