Source: USDA Branded Food Products Database Release December 2017 Software v.3.8.6.4 2017-10-02
Report Run at: December 18, 2017 07:20 EST
"Nutrient data for: 45100846, STEPHEN'S, GOURMET HOT COCOA, PUMPKIN, UPC: 729776413530"
Food Group:  Branded Food Products Database
Common Name:

Nutrient,Unit,Data points,Std. Error,"3.0 Tbsp = 36.0g",1Value per 100 g,
Proximates
"Energy",kcal,--,--,150,417
"Protein",g,--,--,1.00,2.78
"Total lipid (fat)",g,--,--,2.50,6.94
"Carbohydrate, by difference",g,--,--,31.00,86.11
"Fiber, total dietary",g,--,--,0.0,0.0
"Sugars, total",g,--,--,22.00,61.11
Minerals
"Calcium, Ca",mg,--,--,20,56
"Iron, Fe",mg,--,--,0.00,0.00
"Sodium, Na",mg,--,--,150,417
Vitamins
"Vitamin C, total ascorbic acid",mg,--,--,1.7,4.6
"Vitamin A, IU",IU,--,--,0,0
Lipids
"Fatty acids, total saturated",g,--,--,2.002,5.560
"Fatty acids, total trans",g,--,--,0.000,0.000
"Cholesterol",mg,--,--,0,0
Amino Acids
Other
Ingredients
"SUGAR, DAIRY PRODUCTS SOLIDS, MALTODEXTRIN, COCONUT OIL, CORN SYRUP SOLIDS, NATURAL AND ARTIFICIAL FLAVORS, SODIUM CASEINATE (A MILK DERIVATIVE), GUAR GUM, CARAMEL COLOR, MONO AND DIGLYCERIDES, DIPOTASSIUM PHOSPHATE, COCOA PROCESSED WITH ALKALI, CELLULOSE GUM, FD&C YELLOW #6, FD&C YELLOW #5, SOY LECITHIN." Date available: 07/14/2017 Date last updated by company: 07/14/2017
