Source: USDA Branded Food Products Database Release December 2017 Software v.3.8.6.4 2017-10-02
Report Run at: December 18, 2017 07:21 EST
"Nutrient data for: 45186539, STEVE'S, ICE CREAM, WHOOPIE PIES & SWEET CREAM, UPC: 815116010856"
Food Group:  Branded Food Products Database
Common Name:

Nutrient,Unit,Data points,Std. Error,"0.5 cup = 106.0g",1Value per 100 g,
Proximates
"Energy",kcal,--,--,260,245
"Protein",g,--,--,4.00,3.77
"Total lipid (fat)",g,--,--,17.00,16.04
"Carbohydrate, by difference",g,--,--,27.00,25.47
"Fiber, total dietary",g,--,--,0.0,0.0
"Sugars, total",g,--,--,18.00,16.98
Minerals
"Calcium, Ca",mg,--,--,100,94
"Iron, Fe",mg,--,--,0.81,0.76
"Sodium, Na",mg,--,--,90,85
Vitamins
"Vitamin C, total ascorbic acid",mg,--,--,0.0,0.0
"Vitamin A, IU",IU,--,--,562,530
Lipids
"Fatty acids, total saturated",g,--,--,11.003,10.380
"Fatty acids, total trans",g,--,--,0.000,0.000
"Cholesterol",mg,--,--,55,52
Amino Acids
Other
Ingredients
"WHOLE MILK, CREAM, SUGAR, SKIM MILK, WHOOPIE PIE PIECES [FLOUR, COCOA POWDER, BAKING SODA, SALT. BUTTER, BROWN SUGAR, BOURBON VANILLA EXTRACT], GUAR GUM." Date available: 07/14/2017 Date last updated by company: 07/14/2017
