Source: USDA Branded Food Products Database Release December 2017 Software v.3.8.6.4 2017-10-02
Report Run at: December 18, 2017 07:23 EST
"Nutrient data for: 45250109, STEWART'S, FOUNTAIN CLASSICS, SODA, ORANGE AND CREAM, UPC: 098794000276"
Food Group:  Branded Food Products Database
Common Name:

Nutrient,Unit,Data points,Std. Error,"1 BOTTLE = 355.0g",1Value per 100 g,
Proximates
"Energy",kcal,--,--,181,51
"Protein",g,--,--,0.00,0.00
"Total lipid (fat)",g,--,--,0.00,0.00
"Carbohydrate, by difference",g,--,--,45.01,12.68
"Sugars, total",g,--,--,45.01,12.68
Minerals
"Sodium, Na",mg,--,--,75,21
Vitamins
Lipids
Amino Acids
Other
Ingredients
"CARBONATED WATER, SUGAR ORANGE JUICE CONCENTRATE, SODIUM BENZOATE (PRESERVATIVE), CITRIC ACID, NATURAL AND ARTIFICIAL FLAVORS, MODIFIED CORN STARCH, YELLOW 6, BROMINATED VEGETABLE OIL." Date available: 07/14/2017 Date last updated by company: 07/14/2017
