Source: USDA Branded Food Products Database Release December 2017 Software v.3.8.6.4 2017-10-02
Report Run at: December 18, 2017 07:24 EST
"Nutrient data for: 45194090, STEWED TOMATOES, UPC: 018894775362"
Food Group:  Branded Food Products Database
Common Name:

Nutrient,Unit,Data points,Std. Error,"0.5 cup = 123.0g",1Value per 100 g,
Proximates
"Energy",kcal,--,--,34,28
"Protein",g,--,--,1.00,0.81
"Total lipid (fat)",g,--,--,0.00,0.00
"Carbohydrate, by difference",g,--,--,8.00,6.50
"Fiber, total dietary",g,--,--,1.0,0.8
"Sugars, total",g,--,--,6.00,4.88
Minerals
"Calcium, Ca",mg,--,--,41,33
"Iron, Fe",mg,--,--,0.76,0.62
"Sodium, Na",mg,--,--,15,12
Vitamins
"Vitamin C, total ascorbic acid",mg,--,--,9.5,7.7
"Vitamin A, IU",IU,--,--,529,430
Lipids
"Fatty acids, total saturated",g,--,--,0.000,0.000
"Fatty acids, total trans",g,--,--,0.000,0.000
"Cholesterol",mg,--,--,0,0
Amino Acids
Other
Ingredients
"TOMATOES, TOMATO JUICE SUGAR, DRIED ONION, DRIED CELERY, DRIED BELL PEPPER, CITRIC ACID, CALCIUM CHLORIDE, NATURAL FLAVORS." Date available: 07/14/2017 Date last updated by company: 07/14/2017
