Source: USDA Branded Food Products Database Release December 2017 Software v.3.8.6.4 2017-10-02
Report Run at: December 18, 2017 07:28 EST
"Nutrient data for: 45064920, STIR - FRY SEASONING MIX, UPC: 074880070040"
Food Group:  Branded Food Products Database
Common Name:

Nutrient,Unit,Data points,Std. Error,"2.0 tsp = 4.5g",1Value per 100 g,
Proximates
"Energy",kcal,--,--,15,333
"Protein",g,--,--,0.00,0.00
"Total lipid (fat)",g,--,--,0.00,0.00
"Carbohydrate, by difference",g,--,--,3.00,66.67
"Fiber, total dietary",g,--,--,0.0,0.0
"Sugars, total",g,--,--,0.00,0.00
Minerals
"Calcium, Ca",mg,--,--,0,0
"Iron, Fe",mg,--,--,0.00,0.00
"Sodium, Na",mg,--,--,260,5778
Vitamins
"Vitamin C, total ascorbic acid",mg,--,--,0.0,0.0
"Vitamin A, IU",IU,--,--,0,0
Lipids
"Fatty acids, total saturated",g,--,--,0.000,0.000
"Fatty acids, total trans",g,--,--,0.000,0.000
"Cholesterol",mg,--,--,0,0
Amino Acids
Other
Ingredients
"CORN STARCH, MALTODEXTRIN, SALT, GARLIC, SPICE, COCOA PROCESSED WITH ALKALI, SESAME SEED OIL, CONTAINS LESS THAN 2%: NATURAL FLAVORS, WINE SOLIDS, WHEY (MILK), INVERT SUCROSE, CARAMEL COLOR, CITRIC ACID, GUM ARABIC" Date available: 07/14/2017 Date last updated by company: 07/14/2017
