Source: USDA Branded Food Products Database Release December 2017 Software v.3.8.6.4 2017-10-02
Report Run at: December 18, 2017 07:28 EST
"Nutrient data for: 45080006, STIR-FRY VEGETABLES, UPC: 011110825896"
Food Group:  Branded Food Products Database
Common Name:

Nutrient,Unit,Data points,Std. Error,"0.5 cup = 116.0g",1Value per 100 g,
Proximates
"Energy",kcal,--,--,15,13
"Protein",g,--,--,1.00,0.86
"Total lipid (fat)",g,--,--,0.00,0.00
"Carbohydrate, by difference",g,--,--,4.00,3.45
"Fiber, total dietary",g,--,--,2.0,1.7
"Sugars, total",g,--,--,1.00,0.86
Minerals
"Calcium, Ca",mg,--,--,0,0
"Iron, Fe",mg,--,--,1.21,1.04
"Sodium, Na",mg,--,--,180,155
Vitamins
"Vitamin C, total ascorbic acid",mg,--,--,23.5,20.3
"Vitamin A, IU",IU,--,--,1962,1691
Lipids
"Fatty acids, total saturated",g,--,--,0.000,0.000
"Fatty acids, total trans",g,--,--,0.000,0.000
"Cholesterol",mg,--,--,0,0
Amino Acids
Other
Ingredients
"WATER, BEAN SPROUTS, CELERY, CARROTS, WATER CHESTNUTS, BAMBOO SHOOTS, MUSHROOMS, BABY COB CORN, RED PEPPERS, CONTAINS 2% OR LESS OF: SALT, SUGAR, DEHYDRATED GARLIC, ASCORBIC AND CITRIC ACID (TO PROTECT COLOR AND FLAVOR)." Date available: 06/24/2017 Date last updated by company: 06/24/2017
