Source: USDA Branded Food Products Database Release December 2017 Software v.3.8.6.4 2017-10-02
Report Run at: December 18, 2017 07:29 EST
"Nutrient data for: 45090081, STIRS THE SOUL, MACA CHOCOLATE, UPC: 837654123485"
Food Group:  Branded Food Products Database
Common Name:

Nutrient,Unit,Data points,Std. Error,"1 BAR = 28.0g",1Value per 100 g,
Proximates
"Energy",kcal,--,--,160,571
"Protein",g,--,--,3.00,10.71
"Total lipid (fat)",g,--,--,13.00,46.43
"Carbohydrate, by difference",g,--,--,9.00,32.14
"Fiber, total dietary",g,--,--,5.0,17.9
"Sugars, total",g,--,--,5.00,17.86
Minerals
"Iron, Fe",mg,--,--,1.29,4.59
"Sodium, Na",mg,--,--,0,0
Vitamins
Lipids
"Fatty acids, total saturated",g,--,--,8.000,28.570
Amino Acids
Other
Ingredients
"STONE-GROUND CACAO*, CACAO BUTTER*, COCONUT PALM SUGAR, MACA*, MESQUITE*" Date available: 10/11/2017 Date last updated by company: 10/11/2017
