Source: USDA Branded Food Products Database Release December 2017 Software v.3.8.6.4 2017-10-02
Report Run at: December 18, 2017 07:28 EST
"Nutrient data for: 45284943, STIR FRY, UPC: 045009853677"
Food Group:  Branded Food Products Database
Common Name:

Nutrient,Unit,Data points,Std. Error,"0.5 PACKAGE = 142.0g",1Value per 100 g,
Proximates
"Energy",kcal,--,--,45,32
"Protein",g,--,--,2.00,1.41
"Total lipid (fat)",g,--,--,0.00,0.00
"Carbohydrate, by difference",g,--,--,9.00,6.34
"Fiber, total dietary",g,--,--,3.0,2.1
"Sugars, total",g,--,--,5.00,3.52
Minerals
"Calcium, Ca",mg,--,--,40,28
"Iron, Fe",mg,--,--,0.65,0.46
"Sodium, Na",mg,--,--,36,25
Vitamins
"Vitamin C, total ascorbic acid",mg,--,--,46.7,32.9
"Vitamin A, IU",IU,--,--,3891,2740
Lipids
"Fatty acids, total saturated",g,--,--,0.000,0.000
"Fatty acids, total trans",g,--,--,0.000,0.000
"Cholesterol",mg,--,--,0,0
Amino Acids
Other
Ingredients
"GREEN PEPPERS, CARROTS, RED PEPPERS, BROCCOLI, RED ONIONS, SNAP PEAS." Date available: 07/14/2017 Date last updated by company: 07/14/2017
