Source: USDA Branded Food Products Database Release December 2017 Software v.3.8.6.4 2017-10-02
Report Run at: December 18, 2017 07:28 EST
"Nutrient data for: 45243679, STIR-FRY SAUCE, UPC: 854285010724"
Food Group:  Branded Food Products Database
Common Name:

Nutrient,Unit,Data points,Std. Error,"2.0 Tbsp = 30.0g",1Value per 100 g,
Proximates
"Energy",kcal,--,--,70,233
"Protein",g,--,--,1.00,3.33
"Total lipid (fat)",g,--,--,0.00,0.00
"Carbohydrate, by difference",g,--,--,17.00,56.67
"Sugars, total",g,--,--,14.00,46.67
Minerals
"Sodium, Na",mg,--,--,400,1333
Vitamins
Lipids
Amino Acids
Other
Ingredients
"SUGAR, SOY SAUCE (WATER, SALT, SOYBEAN, WHEAT), WATER, ACETIC ACID, TOMATO, ORANGE JUICE CONCENTRATE, MODIFIED CORN STARCH, GINGER, CITRIC ACID." Date available: 07/14/2017 Date last updated by company: 07/14/2017
