Source: USDA Branded Food Products Database Release December 2017 Software v.3.8.6.4 2017-10-02
Report Run at: December 18, 2017 07:37 EST
"Nutrient data for: 45101616, STONEWALL KITCHEN, CASSIATORE SIMMERING SAUCE, UPC: 711381312384"
Food Group:  Branded Food Products Database
Common Name:

Nutrient,Unit,Data points,Std. Error,"0.5 cup = 134.0g",1Value per 100 g,
Proximates
"Energy",kcal,--,--,90,67
"Protein",g,--,--,2.00,1.49
"Total lipid (fat)",g,--,--,3.00,2.24
"Carbohydrate, by difference",g,--,--,13.00,9.70
"Fiber, total dietary",g,--,--,0.9,0.7
"Sugars, total",g,--,--,9.00,6.72
Minerals
"Calcium, Ca",mg,--,--,60,45
"Iron, Fe",mg,--,--,1.53,1.14
"Sodium, Na",mg,--,--,419,313
Vitamins
"Vitamin C, total ascorbic acid",mg,--,--,9.5,7.1
"Vitamin A, IU",IU,--,--,792,591
Lipids
"Fatty acids, total saturated",g,--,--,0.000,0.000
"Fatty acids, total trans",g,--,--,0.000,0.000
"Cholesterol",mg,--,--,0,0
Amino Acids
Other
Ingredients
"TOMATOES (DICED TOMATOES, TOMATO JUICE, CITRIC ACID, CALCIUM CHLORIDE), WATER, ONION, RED BELL PEPPER, TOMATO PASTE, WHITE WINE, PURE CANE SUGAR, CHICKEN STOCK (CHICKEN STOCK, NATURAL FLAVOR, SALT, SUGAR, YEAST EXTRACT), CAPERS (CAPERS, WATER, SALT, VINEGAR), ROASTED MUSHROOMS (PORTABELLA MUSHROOM, OIL [CANOLA OIL, OLIVE OIL], SALT, PEPPER), BALSAMIC VINEGAR (NATURALLY OCCURRING SULFUR DIOXIDE), WORCESTERSHIRE SAUCE (DISTILLED VINEGAR, MOLASSES, WATER, SUGAR, ONIONS, ANCHOVIES [FISH], SALT, GARLIC, CLOVES, TAMARIND EXTRACT, NATURAL FLAVORS, CHILI PEPPER EXTRACT), CANOLA OIL, GARLIC, SPICES, DRIED GARLIC" Date available: 09/26/2017 Date last updated by company: 09/26/2017
