Source: USDA Branded Food Products Database Release December 2017 Software v.3.8.6.4 2017-10-02
Report Run at: December 18, 2017 07:33 EST
"Nutrient data for: 45258284, STONE FRUIT NECTAR, UPC: 854110004003"
Food Group:  Branded Food Products Database
Common Name:

Nutrient,Unit,Data points,Std. Error,"1 OZ = 28.0g",1Value per 100 g,
Proximates
"Energy",kcal,--,--,60,214
"Protein",g,--,--,0.00,0.00
"Total lipid (fat)",g,--,--,2.00,7.14
"Carbohydrate, by difference",g,--,--,9.00,32.14
"Fiber, total dietary",g,--,--,0.0,0.0
"Sugars, total",g,--,--,8.00,28.57
Minerals
"Calcium, Ca",mg,--,--,0,0
"Iron, Fe",mg,--,--,0.00,0.00
"Sodium, Na",mg,--,--,30,107
Vitamins
"Vitamin C, total ascorbic acid",mg,--,--,0.0,0.0
"Vitamin A, IU",IU,--,--,0,0
Lipids
"Fatty acids, total saturated",g,--,--,0.000,0.000
"Fatty acids, total trans",g,--,--,0.000,0.000
"Cholesterol",mg,--,--,0,0
Amino Acids
Other
Ingredients
"WHITE BALSAMIC VINEGAR, SUGAR, WATER, CANOLA OIL, EXTRA VIRGIN OLIVE OIL, PEACH FLAVOR WONF, SOVEREIGEN FLAVORS SF 0160, LEMON JUICE, APRICOT JAM (APRICOT, SUGAR, PECTIN, CITRIC ACID), APRICOT, DIJON MUSTARD (WINE VINEGAR, MUSTARD FLOUR, SALT), SALT, ONION, XANTHAN GUM, GRANULATED ONION, BLACK PEPPER, PARSLEY" Date available: 07/14/2017 Date last updated by company: 07/14/2017
