Source: USDA Branded Food Products Database Release December 2017 Software v.3.8.6.4 2017-10-02
Report Run at: December 18, 2017 07:38 EST
"Nutrient data for: 45101698, STONEWALL KITCHEN, SEA SALT CARAMEL SAUCE, UPC: 711381320938"
Food Group:  Branded Food Products Database
Common Name:

Nutrient,Unit,Data points,Std. Error,"2.0 Tbsp = 38.0g",1Value per 100 g,
Proximates
"Energy",kcal,--,--,140,368
"Protein",g,--,--,0.00,0.00
"Total lipid (fat)",g,--,--,5.00,13.16
"Carbohydrate, by difference",g,--,--,22.00,57.89
"Fiber, total dietary",g,--,--,0.0,0.0
"Sugars, total",g,--,--,17.00,44.74
Minerals
"Calcium, Ca",mg,--,--,0,0
"Iron, Fe",mg,--,--,0.00,0.00
"Sodium, Na",mg,--,--,120,316
Vitamins
"Vitamin C, total ascorbic acid",mg,--,--,0.0,0.0
"Vitamin A, IU",IU,--,--,263,692
Lipids
"Fatty acids, total saturated",g,--,--,3.500,9.210
"Fatty acids, total trans",g,--,--,0.000,0.000
"Cholesterol",mg,--,--,20,53
Amino Acids
Other
Ingredients
"PURE CANE SUGAR, HEAVY CREAM (MILK), CORN SYRUP, CARAMELIZED SUGAR SYRUP, UNREFINED SEA SALT, VANILLA EXTRACT, LECITHIN (SOY), CARRAGEENAN (CARRAGEENAN, MALTODEXTRIN)." Date available: 06/25/2017 Date last updated by company: 06/25/2017
