Source: USDA Branded Food Products Database Release December 2017 Software v.3.8.6.4 2017-10-02
Report Run at: December 18, 2017 07:36 EST
"Nutrient data for: 45093141, STONEWALL KITCHEN, APPLE CIDER DOUGHNUT MIX, UPC: 711381312087"
Food Group:  Branded Food Products Database
Common Name:

Nutrient,Unit,Data points,Std. Error,"43.0 g = 43.0g",1Value per 100 g,
Proximates
"Energy",kcal,--,--,150,349
"Protein",g,--,--,2.00,4.65
"Total lipid (fat)",g,--,--,1.00,2.33
"Carbohydrate, by difference",g,--,--,36.00,83.72
"Fiber, total dietary",g,--,--,1.0,2.3
"Sugars, total",g,--,--,21.00,48.84
Minerals
"Calcium, Ca",mg,--,--,40,93
"Iron, Fe",mg,--,--,0.84,1.95
"Sodium, Na",mg,--,--,110,256
Vitamins
"Vitamin C, total ascorbic acid",mg,--,--,0.0,0.0
"Vitamin A, IU",IU,--,--,0,0
Lipids
"Fatty acids, total saturated",g,--,--,0.000,0.000
"Fatty acids, total trans",g,--,--,0.000,0.000
"Cholesterol",mg,--,--,0,0
Amino Acids
Other
Ingredients
"SUGAR, MALTED WHEAT FLOUR, SOUR CREAM, BAKING POWDER (SODIUM ACID PYROPHASPHATE, BAKING SODA, CORNSTARCH, MONOCALCIUM PHOSPHATE), SPICES, NATURAL FLAVORS, SEA SALT, MALIC ACID." Date available: 06/25/2017 Date last updated by company: 06/25/2017
