Source: USDA Branded Food Products Database Release December 2017 Software v.3.8.6.4 2017-10-02
Report Run at: December 18, 2017 07:37 EST
"Nutrient data for: 45108805, STONEWALL KITCHEN, CREATORS OF SPECIALTY FOODS, FRA DIAVOLO SAUCE, UPC: 711381321034"
Food Group:  Branded Food Products Database
Common Name:

Nutrient,Unit,Data points,Std. Error,"0.5 cup = 140.0g",1Value per 100 g,
Proximates
"Energy",kcal,--,--,90,64
"Protein",g,--,--,2.00,1.43
"Total lipid (fat)",g,--,--,5.00,3.57
"Carbohydrate, by difference",g,--,--,12.00,8.57
"Fiber, total dietary",g,--,--,2.0,1.4
"Sugars, total",g,--,--,7.00,5.00
Minerals
"Calcium, Ca",mg,--,--,20,14
"Iron, Fe",mg,--,--,1.15,0.82
"Sodium, Na",mg,--,--,620,443
Vitamins
"Vitamin C, total ascorbic acid",mg,--,--,28.6,20.4
"Vitamin A, IU",IU,--,--,1057,755
Lipids
"Fatty acids, total saturated",g,--,--,0.504,0.360
"Fatty acids, total trans",g,--,--,0.000,0.000
"Cholesterol",mg,--,--,0,0
Amino Acids
Other
Ingredients
"TOMATOES (FRESH VINE-RIPENED CALIFORNIA TOMATOES, TOMATO PUREE, SALT, CITRIC ACID), WATER, TOMATO PASTE, GARLIC, EXTRA VIRGIN OLIVE OIL, ONION, BASIL, SALT, PURE CANE SUGAR, PARSLEY, LEMON JUICE, DRIED GARLIC, SPICES, RED CHILI PEPPER FLAKES." Date available: 06/25/2017 Date last updated by company: 06/25/2017
