Source: USDA Branded Food Products Database Release December 2017 Software v.3.8.6.4 2017-10-02
Report Run at: December 18, 2017 07:34 EST
"Nutrient data for: 45314649, STONE GROUND WHEAT CRACKERS, UPC: 817974021180"
Food Group:  Branded Food Products Database
Common Name:

Nutrient,Unit,Data points,Std. Error,"4.0 CRACKERS = 28.0g",1Value per 100 g,
Proximates
"Energy",kcal,--,--,120,429
"Protein",g,--,--,2.00,7.14
"Total lipid (fat)",g,--,--,3.50,12.50
"Carbohydrate, by difference",g,--,--,20.00,71.43
"Fiber, total dietary",g,--,--,2.0,7.1
"Sugars, total",g,--,--,0.00,0.00
Minerals
"Calcium, Ca",mg,--,--,11,39
"Iron, Fe",mg,--,--,0.40,1.43
"Potassium, K",mg,--,--,38,136
"Sodium, Na",mg,--,--,260,929
Vitamins
"Vitamin D",IU,--,--,0,0
Lipids
"Fatty acids, total saturated",g,--,--,0.501,1.790
"Fatty acids, total trans",g,--,--,0.000,0.000
"Cholesterol",mg,--,--,0,0
Amino Acids
Other
Ingredients
"ORGANIC WHEAT FLOUR, ORGANIC CRACKED WHEAT, ORGANIC HIGH OLEIC SAFFLOWER OIL AND/OR ORGANIC HIGH OLEIC SUNFLOWER OIL AND/OR ORGANIC PALM OIL, SEA SALT, CONTAINS LESS THAN 2% OF EACH OF THE FOLLOWING: BAKING SODA, ORGANIC MALT EXTRACT, ORGANIC DRIED YEAST, TOCOPHEROLS PRESERVATIVE." Date available: 09/23/2017 Date last updated by company: 09/23/2017
