Source: USDA Branded Food Products Database Release December 2017 Software v.3.8.6.4 2017-10-02
Report Run at: December 18, 2017 07:40 EST
"Nutrient data for: 45085026, STONYFIELD, O'SOY, ORGANIC SOY YOGURT, RASPBERRY, UPC: 052159006051"
Food Group:  Branded Food Products Database
Common Name:

Nutrient,Unit,Data points,Std. Error,"1 CONTAINER = 170.0g",1Value per 100 g,
Proximates
"Energy",kcal,--,--,170,100
"Protein",g,--,--,7.00,4.12
"Total lipid (fat)",g,--,--,2.50,1.47
"Carbohydrate, by difference",g,--,--,29.00,17.06
"Fiber, total dietary",g,--,--,2.0,1.2
"Sugars, total",g,--,--,27.00,15.88
Minerals
"Calcium, Ca",mg,--,--,100,59
"Iron, Fe",mg,--,--,1.45,0.85
"Potassium, K",mg,--,--,291,171
"Sodium, Na",mg,--,--,70,41
Vitamins
"Vitamin C, total ascorbic acid",mg,--,--,0.0,0.0
"Vitamin A, IU",IU,--,--,100,59
Lipids
"Fatty acids, total saturated",g,--,--,0.000,0.000
"Fatty acids, total trans",g,--,--,0.000,0.000
"Cholesterol",mg,--,--,0,0
Amino Acids
Other
Ingredients
"OUR FAMILY RECIPE: CULTURED PASTEURIZED ORGANIC SOY MILK, ORGANIC SUGAR, ORGANIC RASPBERRY PUREE, PECTIN, NATURAL FLAVOR, CALCIUM CARBONATE, ORGANIC BLACK CURRANT AND ORGANIC BEET JUICE CONCENTRATES (FOR COLOR), ORGANIC CAROB BEAN GUM. CONTAINS LIVE ACTIVE CULTURES: S. THERMOPHILUS, L. BULGARICUS, L. ACIDOPHILUS AND BIFIDUS." Date available: 07/14/2017 Date last updated by company: 07/14/2017
