Source: USDA Branded Food Products Database Release December 2017 Software v.3.8.6.4 2017-10-02
Report Run at: December 18, 2017 07:37 EST
"Nutrient data for: 45108860, STONEWALL KITCHEN, CLASSIC MINT JELLY, UPC: 711381326572"
Food Group:  Branded Food Products Database
Common Name:

Nutrient,Unit,Data points,Std. Error,"1 Tbsp = 23.0g",1Value per 100 g,
Proximates
"Energy",kcal,--,--,50,217
"Protein",g,--,--,0.00,0.00
"Total lipid (fat)",g,--,--,0.00,0.00
"Carbohydrate, by difference",g,--,--,13.00,56.52
"Fiber, total dietary",g,--,--,0.0,0.0
"Sugars, total",g,--,--,10.00,43.48
Minerals
"Calcium, Ca",mg,--,--,0,0
"Iron, Fe",mg,--,--,0.00,0.00
"Sodium, Na",mg,--,--,0,0
Vitamins
"Vitamin C, total ascorbic acid",mg,--,--,0.0,0.0
"Vitamin A, IU",IU,--,--,0,0
Lipids
"Fatty acids, total saturated",g,--,--,0.000,0.000
"Fatty acids, total trans",g,--,--,0.000,0.000
"Cholesterol",mg,--,--,0,0
Amino Acids
Other
Ingredients
"PURE CANE SUGAR, WATER, WHITE GRAPE JUICE CONCENTRATE, FRUIT PECTIN, NATURAL GREEN COLOR (SPIRULINA EXTRACT AND TURMERIC ROOT EXTRACT), MALIC ACID, CITRIC ACID, SPEARMINT OIL" Date available: 06/25/2017 Date last updated by company: 06/25/2017
