Source: USDA Branded Food Products Database Release December 2017 Software v.3.8.6.4 2017-10-02
Report Run at: December 18, 2017 07:41 EST
"Nutrient data for: 45159218, STORZ CHOCOLADE, EDELVOLLMILCH- CHOCOLADE FINEST MILK CHOCOLATE, UPC: 003006012749"
Food Group:  Branded Food Products Database
Common Name:

Nutrient,Unit,Data points,Std. Error,"1 PACKAGE = 50.0g",1Value per 100 g,
Proximates
"Energy",kcal,--,--,270,540
"Protein",g,--,--,4.00,8.00
"Total lipid (fat)",g,--,--,17.00,34.00
"Carbohydrate, by difference",g,--,--,25.00,50.00
"Fiber, total dietary",g,--,--,1.0,2.0
"Sugars, total",g,--,--,24.00,48.00
Minerals
"Calcium, Ca",mg,--,--,150,300
"Iron, Fe",mg,--,--,1.44,2.88
"Sodium, Na",mg,--,--,30,60
Vitamins
"Vitamin C, total ascorbic acid",mg,--,--,1.2,2.4
"Vitamin A, IU",IU,--,--,100,200
Lipids
"Fatty acids, total saturated",g,--,--,12.000,24.000
"Fatty acids, total trans",g,--,--,0.000,0.000
"Cholesterol",mg,--,--,15,30
Amino Acids
Other
Ingredients
"SUGAR, WHOLE MILK POWDER,COCOA BUTTER, COCOA LIQUOR, EMULSIFIER: SOY LECITHIN, BOURBON VANILLA EXTRACT." Date available: 07/14/2017 Date last updated by company: 07/14/2017
