Source: USDA Branded Food Products Database Release December 2017 Software v.3.8.6.4 2017-10-02
Report Run at: December 18, 2017 07:59 EST
"Nutrient data for: 45256425, STRAWBERRY RHUBARB PIE, UPC: 092825108962"
Food Group:  Branded Food Products Database
Common Name:

Nutrient,Unit,Data points,Std. Error,"0.2 PIE = 136.0g",1Value per 100 g,
Proximates
"Energy",kcal,--,--,350,257
"Protein",g,--,--,4.00,2.94
"Total lipid (fat)",g,--,--,18.01,13.24
"Carbohydrate, by difference",g,--,--,40.00,29.41
"Fiber, total dietary",g,--,--,3.0,2.2
"Sugars, total",g,--,--,13.99,10.29
Minerals
"Calcium, Ca",mg,--,--,101,74
"Iron, Fe",mg,--,--,0.99,0.73
"Sodium, Na",mg,--,--,209,154
Vitamins
"Vitamin C, total ascorbic acid",mg,--,--,5.6,4.1
"Vitamin A, IU",IU,--,--,0,0
Lipids
"Fatty acids, total saturated",g,--,--,9.003,6.620
"Fatty acids, total trans",g,--,--,0.000,0.000
"Cholesterol",mg,--,--,0,0
Amino Acids
Other
Ingredients
"WATER, RHUBARB, ENRICHED FLOUR (FLOUR, NIACIN, REDUCED IRON, THIAMIN MONONITRATE, RIBOFLAVIN, FOLIC ACID), PALM OIL, STRAWBERRIES, SUGAR, FOOD STARCH-MODIFIED, CORN SYRUP, CONTAINS LESS THAN 2% OF: SALT, DEXTROSE, CAROB BEAN GUM, AGAR, SORBIC ACID, APPLE CIDER VINEGAR, CALCIUM PROPIONATE." Date available: 07/14/2017 Date last updated by company: 07/14/2017
