Source: USDA Branded Food Products Database Release December 2017 Software v.3.8.6.4 2017-10-02
Report Run at: December 18, 2017 08:01 EST
"Nutrient data for: 45214244, STRAWBERRY TWIST CANDY, UPC: 043427400183"
Food Group:  Branded Food Products Database
Common Name:

Nutrient,Unit,Data points,Std. Error,"3.0 PCS = 37.0g",1Value per 100 g,
Proximates
"Energy",kcal,--,--,120,324
"Protein",g,--,--,1.00,2.70
"Total lipid (fat)",g,--,--,0.50,1.35
"Carbohydrate, by difference",g,--,--,29.00,78.38
"Fiber, total dietary",g,--,--,0.0,0.0
"Sugars, total",g,--,--,15.00,40.54
Minerals
"Calcium, Ca",mg,--,--,0,0
"Iron, Fe",mg,--,--,0.00,0.00
"Sodium, Na",mg,--,--,80,216
Vitamins
"Vitamin C, total ascorbic acid",mg,--,--,0.0,0.0
"Vitamin A, IU",IU,--,--,0,0
Lipids
"Fatty acids, total saturated",g,--,--,0.000,0.000
"Fatty acids, total trans",g,--,--,0.000,0.000
"Cholesterol",mg,--,--,0,0
Amino Acids
Other
Ingredients
"CORN SYRUP, ENRICHED WHEAT FLOUR (FLOUR, NIACIN, FERROUS SULFATE, THIAMIN, MONONITRATE, RIBOFLAVIN & FOLIC ACID): SUGAR; CORNSTARCH; CONTAINS 2% OR LESS OF: PALM OIL; SALT; ARTIFICIAL FLAVOR; MONO & DIGLYCERIDES; CITRIC ACID; POTASSIUM SORBATE (PRESERVATIVE); ARTIFICIAL COLOR (RED 40); SULFUR DIOXIDE TO MAINTAIN FRESHNESS; MINERAL OIL; SOY LECITHIN; GLYCERIN." Date available: 07/14/2017 Date last updated by company: 07/14/2017
