Source: USDA Branded Food Products Database Release December 2017 Software v.3.8.6.4 2017-10-02
Report Run at: December 18, 2017 07:56 EST
"Nutrient data for: 45203487, STRAWBERRY + MELON, UPC: 5051379101862"
Food Group:  Branded Food Products Database
Common Name:

Nutrient,Unit,Data points,Std. Error,"1 PACK = 142.0g",1Value per 100 g,
Proximates
"Energy",kcal,--,--,45,32
"Protein",g,--,--,0.99,0.70
"Total lipid (fat)",g,--,--,0.00,0.00
"Carbohydrate, by difference",g,--,--,12.00,8.45
"Fiber, total dietary",g,--,--,2.0,1.4
"Sugars, total",g,--,--,10.00,7.04
Minerals
"Calcium, Ca",mg,--,--,0,0
"Iron, Fe",mg,--,--,0.35,0.25
"Sodium, Na",mg,--,--,16,11
Vitamins
"Vitamin C, total ascorbic acid",mg,--,--,59.2,41.7
"Vitamin A, IU",IU,--,--,1480,1042
Lipids
"Fatty acids, total saturated",g,--,--,0.000,0.000
"Fatty acids, total trans",g,--,--,0.000,0.000
"Cholesterol",mg,--,--,0,0
Amino Acids
Other
Ingredients
"MELON (MAY CONTAIN: HONEYDEW OR CANTALOUPE), STRAWBERRIES." Date available: 07/14/2017 Date last updated by company: 07/14/2017
