Source: USDA Branded Food Products Database Release December 2017 Software v.3.8.6.4 2017-10-02
Report Run at: December 18, 2017 07:44 EST
"Nutrient data for: 45149925, STRAUB'S, GOURMET POPCORN, TRIPLE CHOCOLATE CARAMEL CRUNCH, UPC: 813117021963"
Food Group:  Branded Food Products Database
Common Name:

Nutrient,Unit,Data points,Std. Error,"1 ONZ = 28.0g",1Value per 100 g,
Proximates
"Energy",kcal,--,--,110,393
"Protein",g,--,--,1.00,3.57
"Total lipid (fat)",g,--,--,3.00,10.71
"Carbohydrate, by difference",g,--,--,22.00,78.57
"Fiber, total dietary",g,--,--,1.0,3.6
"Sugars, total",g,--,--,16.00,57.14
Minerals
"Calcium, Ca",mg,--,--,20,71
"Iron, Fe",mg,--,--,0.64,2.29
"Sodium, Na",mg,--,--,45,161
Vitamins
"Vitamin C, total ascorbic acid",mg,--,--,0.0,0.0
"Vitamin A, IU",IU,--,--,0,0
Lipids
"Fatty acids, total saturated",g,--,--,1.501,5.360
"Fatty acids, total trans",g,--,--,0.000,0.000
"Cholesterol",mg,--,--,0,0
Amino Acids
Other
Ingredients
"BROWN SUGAR, POPCORN, CORN SYRUP, CANE SUGAR, WHITE CHOCOLATE FLAVORED COATING (SUGAR, PALM KERNEL OIL, NONFAT DRY MILK, WHOLE MILK POWDER, COCOA BUTTER, SOY LECITHIN (AN EMULSIFIER), NATURAL FLAVOR AND SALT), MILK CHOCOLATE FLAVORED COATING (SUGAR, PALM KERNEL OIL, NONFAT DRY MILK, COCOA POWDER, WHOLE MILK POWDER, COCOA POWDER (PROCESSED WITH ALKALI), SOY LECITHIN (AN EMULSIFIER), NATURAL FLAVOR, AND SALT, DARK CHOCOLATE FLAVORED COATING (SUGAR, PALM KERNEL OIL, COCOA POWDER (PROCESSED WITH ALKALI), SOY LECITHIN (AN EMULSIFIER), NATURAL FLAVOR, WHOLE MILK POWDER, AND SALT), CANOLA OIL, SOY LECITHIN (AN EMULSIFIER), NATURAL FLAVOR, SALT, BAKING SODA." Date available: 07/14/2017 Date last updated by company: 07/14/2017
