Source: USDA Branded Food Products Database Release December 2017 Software v.3.8.6.4 2017-10-02
Report Run at: December 18, 2017 07:43 EST
"Nutrient data for: 45275948, STRAINED TOMATOES CHUNKY, UPC: 813973020025"
Food Group:  Branded Food Products Database
Common Name:

Nutrient,Unit,Data points,Std. Error,"0.5 cup = 130.0g",1Value per 100 g,
Proximates
"Energy",kcal,--,--,46,35
"Protein",g,--,--,2.00,1.54
"Total lipid (fat)",g,--,--,0.49,0.38
"Carbohydrate, by difference",g,--,--,6.99,5.38
"Fiber, total dietary",g,--,--,1.0,0.8
"Sugars, total",g,--,--,5.00,3.85
Minerals
"Calcium, Ca",mg,--,--,20,15
"Iron, Fe",mg,--,--,0.66,0.51
"Sodium, Na",mg,--,--,150,115
Vitamins
"Vitamin C, total ascorbic acid",mg,--,--,11.1,8.5
"Vitamin A, IU",IU,--,--,346,266
Lipids
"Fatty acids, total saturated",g,--,--,0.000,0.000
"Fatty acids, total trans",g,--,--,0.000,0.000
"Cholesterol",mg,--,--,0,0
Amino Acids
Other
Ingredients
"TOMATOES, SALT" Date available: 07/14/2017 Date last updated by company: 07/14/2017
