Source: USDA Branded Food Products Database Release December 2017 Software v.3.8.6.4 2017-10-02
Report Run at: December 18, 2017 07:51 EST
"Nutrient data for: 45293311, STRAWBERRY CARAMEL & PEANUT CHOCOLATIER, UPC: 846107017714"
Food Group:  Branded Food Products Database
Common Name:

Nutrient,Unit,Data points,Std. Error,"0.333 BAR = 30.0g",1Value per 100 g,
Proximates
"Energy",kcal,--,--,150,500
"Protein",g,--,--,2.00,6.67
"Total lipid (fat)",g,--,--,9.00,30.00
"Carbohydrate, by difference",g,--,--,13.00,43.33
"Fiber, total dietary",g,--,--,1.0,3.3
"Sugars, total",g,--,--,11.00,36.67
Minerals
"Calcium, Ca",mg,--,--,2,7
"Iron, Fe",mg,--,--,0.00,0.00
"Sodium, Na",mg,--,--,0,0
Vitamins
"Vitamin D",IU,--,--,0,0
Lipids
"Fatty acids, total saturated",g,--,--,5.001,16.670
"Fatty acids, total trans",g,--,--,0.000,0.000
"Cholesterol",mg,--,--,0,0
Amino Acids
Other
Ingredients
"DARK CHOCOLATE [UNSWEETENED CHOCOLATE*, SUGAR, COCOA BUTTER*, SOY LECITHIN (AN EMULSIFIER), VANILLA], PEANUTS, INVERT SUGAR, STRAWBERRY, RICE SYRUP, MILK, HEAVY CREAM, SUGAR, BUTTER, NATURAL FLAVOR, SEA SALT, VANILLA, CITRIC ACID, MALIC ACID." Date available: 09/25/2017 Date last updated by company: 09/25/2017
