Source: USDA Branded Food Products Database Release December 2017 Software v.3.8.6.4 2017-10-02
Report Run at: December 18, 2017 07:42 EST
"Nutrient data for: 45082275, STRACCIATELLA GELATO, UPC: 797043181062"
Food Group:  Branded Food Products Database
Common Name:

Nutrient,Unit,Data points,Std. Error,"4.0 ONZ = 104.0g",1Value per 100 g,
Proximates
"Energy",kcal,--,--,170,163
"Protein",g,--,--,3.00,2.88
"Total lipid (fat)",g,--,--,10.00,9.62
"Carbohydrate, by difference",g,--,--,18.00,17.31
"Fiber, total dietary",g,--,--,0.0,0.0
"Sugars, total",g,--,--,17.00,16.35
Minerals
"Calcium, Ca",mg,--,--,100,96
"Iron, Fe",mg,--,--,0.00,0.00
"Sodium, Na",mg,--,--,50,48
Vitamins
"Vitamin C, total ascorbic acid",mg,--,--,0.0,0.0
"Vitamin A, IU",IU,--,--,300,288
Lipids
"Fatty acids, total saturated",g,--,--,6.001,5.770
"Fatty acids, total trans",g,--,--,0.000,0.000
"Cholesterol",mg,--,--,35,34
Amino Acids
Other
Ingredients
"MILK, CREAM, SUGAR, CORN SYRUP, CHOCOLATE (SUGAR, CHOCOLATE LIQUOR, COCOA BUTTER, SOY LECITHIN, VANILLA EXTRACT), NONFAT DRY MILK, VEGETABLE STABILIZER." Date available: 06/25/2017 Date last updated by company: 06/25/2017
