Source: USDA Branded Food Products Database Release December 2017 Software v.3.8.6.4 2017-10-02
Report Run at: December 18, 2017 07:53 EST
"Nutrient data for: 45323010, STRAWBERRY FRUIT SPREAD, UPC: 817974020718"
Food Group:  Branded Food Products Database
Common Name:

Nutrient,Unit,Data points,Std. Error,"1 Tbsp = 18.0g",1Value per 100 g,
Proximates
"Energy",kcal,--,--,30,167
"Protein",g,--,--,0.00,0.00
"Total lipid (fat)",g,--,--,0.00,0.00
"Carbohydrate, by difference",g,--,--,8.00,44.44
"Sugars, total",g,--,--,7.00,38.89
Minerals
"Sodium, Na",mg,--,--,5,28
Vitamins
"Vitamin C, total ascorbic acid",mg,--,--,14.0,77.8
Lipids
Amino Acids
Other
Ingredients
"ORGANIC STRAWBERRIES, ORGANIC CANE SUGAR, PECTIN SOLUTION (WATER, APPLE PECTIN), ASCORBIC ACID (VITAMIN C), CITRIC ACID." Date available: 08/31/2017 Date last updated by company: 08/31/2017
