Source: USDA Branded Food Products Database Release December 2017 Software v.3.8.6.4 2017-10-02
Report Run at: December 18, 2017 08:01 EST
"Nutrient data for: 45171265, STRAWBERRY SWIRL CHEESECAKE, UPC: 011225128929"
Food Group:  Branded Food Products Database
Common Name:

Nutrient,Unit,Data points,Std. Error,"1 SLICE = 112.0g",1Value per 100 g,
Proximates
"Energy",kcal,--,--,349,312
"Protein",g,--,--,5.00,4.46
"Total lipid (fat)",g,--,--,18.00,16.07
"Carbohydrate, by difference",g,--,--,40.00,35.71
"Fiber, total dietary",g,--,--,1.0,0.9
"Sugars, total",g,--,--,28.00,25.00
Minerals
"Calcium, Ca",mg,--,--,80,71
"Iron, Fe",mg,--,--,0.81,0.72
"Sodium, Na",mg,--,--,140,125
Vitamins
"Vitamin C, total ascorbic acid",mg,--,--,1.3,1.2
"Vitamin A, IU",IU,--,--,558,498
Lipids
"Fatty acids, total saturated",g,--,--,4.995,4.460
"Fatty acids, total trans",g,--,--,0.000,0.000
"Cholesterol",mg,--,--,69,62
Amino Acids
Other
Ingredients
"PASTEURIZED MILK & CREAM, SUGAR, WHEAT FLOUR, PASTEURIZED EGG, SOYBEAN OIL, WHOLE WHEAT FLOUR, STRAWBERRY PUREE, FOOD STARCH-MODIFIED, NONFAT DRY MILK, CORN SYRUP, MOLASSES, CORNSTARCH, SALT, NATURAL FLAVOR, CHEESE CULTURE, VEGETABLE MONO & DIGLYCERIDES, MALTED BARLEY FLOUR, VEGETABLE JUICE (COLOR), SODIUM BICARBONATE, HONEY, GUAR CUM, SODIUM PHOSPHATE, CAROB BEAN GUM, CITRIC ACID, CARRAGEENAN, SODIUM ALGINATE, GLYCEROL, XANTHAN GUM, MALTODEXTRIN, NIACIN, IRON, THIAMINE MONONITRATE, RIBOFLAVIN, VITAMIN A PALMITATE, FOLIC ACID, ENZYME, VITAMIN D3." Date available: 07/14/2017 Date last updated by company: 07/14/2017
