Source: USDA Branded Food Products Database Release December 2017 Software v.3.8.6.4 2017-10-02
Report Run at: December 18, 2017 07:48 EST
"Nutrient data for: 45209144, STRAWBERRIES SLICED, UPC: 015400171793"
Food Group:  Branded Food Products Database
Common Name:

Nutrient,Unit,Data points,Std. Error,"0.75 cup = 140.0g",1Value per 100 g,
Proximates
"Energy",kcal,--,--,50,36
"Protein",g,--,--,0.99,0.71
"Total lipid (fat)",g,--,--,0.00,0.00
"Carbohydrate, by difference",g,--,--,13.01,9.29
"Fiber, total dietary",g,--,--,2.9,2.1
"Sugars, total",g,--,--,9.00,6.43
Minerals
"Calcium, Ca",mg,--,--,20,14
"Iron, Fe",mg,--,--,1.08,0.77
"Sodium, Na",mg,--,--,0,0
Vitamins
"Vitamin C, total ascorbic acid",mg,--,--,30.0,21.4
"Vitamin A, IU",IU,--,--,0,0
Lipids
"Fatty acids, total saturated",g,--,--,0.000,0.000
"Fatty acids, total trans",g,--,--,0.000,0.000
"Cholesterol",mg,--,--,0,0
Amino Acids
Other
Ingredients
"SLICED STRAWBERRIES" Date available: 07/14/2017 Date last updated by company: 07/14/2017
