Source: USDA Branded Food Products Database Release December 2017 Software v.3.8.6.4 2017-10-02
Report Run at: December 18, 2017 07:55 EST
"Nutrient data for: 45232936, STRAWBERRY KIWI JUICE DRINK, UPC: 041800453009"
Food Group:  Branded Food Products Database
Common Name:

Nutrient,Unit,Data points,Std. Error,"8.0 OZA = 240.0g",1Value per 100 g,
Proximates
"Energy",kcal,--,--,120,50
"Protein",g,--,--,0.00,0.00
"Total lipid (fat)",g,--,--,0.00,0.00
"Carbohydrate, by difference",g,--,--,28.99,12.08
"Sugars, total",g,--,--,28.01,11.67
Minerals
"Sodium, Na",mg,--,--,24,10
Vitamins
Lipids
Amino Acids
Other
Ingredients
"FILTERED WATER, HIGH FRUCTOSE CORN SYRUP, APPLE JUICE CONCENTRATE, NATURAL AND ARTIFICIAL FLAVOR, CITRIC ACID (FOR TARTNESS), KIWI AND STRAWBERRY JUICE CONCENTRATES, GUM ACACIA, ESTER GUM, SODIUM CITRATE, RED 40 (COLOR)." Date available: 09/22/2017 Date last updated by company: 09/22/2017
