Source: USDA Branded Food Products Database Release December 2017 Software v.3.8.6.4 2017-10-02
Report Run at: December 18, 2017 07:56 EST
"Nutrient data for: 45051596, STRAWBERRY MUFFIN MIX, UPC: 035826044402"
Food Group:  Branded Food Products Database
Common Name:

Nutrient,Unit,Data points,Std. Error,"1 MUFFIN | MAKES ABOUT = 39.0g",1Value per 100 g,
Proximates
"Energy",kcal,--,--,150,385
"Protein",g,--,--,2.00,5.13
"Total lipid (fat)",g,--,--,3.00,7.69
"Carbohydrate, by difference",g,--,--,29.00,74.36
"Fiber, total dietary",g,--,--,1.0,2.6
"Sugars, total",g,--,--,13.00,33.33
Minerals
"Calcium, Ca",mg,--,--,0,0
"Iron, Fe",mg,--,--,1.11,2.84
"Sodium, Na",mg,--,--,270,692
Vitamins
"Vitamin C, total ascorbic acid",mg,--,--,0.0,0.0
"Vitamin A, IU",IU,--,--,0,0
Lipids
"Fatty acids, total saturated",g,--,--,1.502,3.850
"Fatty acids, total trans",g,--,--,0.000,0.000
"Cholesterol",mg,--,--,0,0
Amino Acids
Other
Ingredients
"ENRICHED BLEACHED FLOUR (BLEACHED WHEAT FLOUR, NIACIN, IRON, THIAMINE MONONITRATE, RIBOFLAVIN, FOLIC ACID), SUGAR, DEXTROSE, ANIMAL SHORTENING AND VEGETABLE OIL (CONTAINS ONE OR MORE OF THE FOLLOWING: TALLOW, SOYBEAN OIL) WITH PRESERVATIVE (BHT, CITRIC ACID), PARTIALLY HYDROGENATED VEGETABLE SHORTENING (CONTAINS SOYBEAN AND COTTONSEED OIL), LEAVENING (BAKING SODA, SODIUM ALUMINUM PHOSPHATE), DEGERMED YELLOW CORN MEAL, GELATINIZED YELLOW CORN FLOUR, WHEY, SALT, CELLULOSE GUM, CITRIC ACID, SOY LECITHIN, NATURAL AND ARTIFICIAL FLAVOR, NONFAT MILK, MALTODEXTRIN, BARLEY MALT EXTRACT, COLOR (RED 40 LAKE, YELLOW 6 LAKE, BLUE 1 LAKE), VITAMIN C (SODIUM ASCORBATE, ASCORBIC ACID), IRON (FERROUS FUMARATE), VITAMIN A (PALMITATE), NIACIN (NIACINAMIDE), VITAMIN B2 (RIBOFLAVIN), VITAMIN B1 (THIAMINE MONONITRATE), VITAMIN B6 (PYRIDOXINE HYDROCHOLORIDE), VITAMIN D (CHOLECALCIFEROL), VITAMIN B12." Date available: 06/25/2017 Date last updated by company: 06/25/2017
