Source: USDA Branded Food Products Database Release December 2017 Software v.3.8.6.4 2017-10-02
Report Run at: December 18, 2017 07:59 EST
"Nutrient data for: 45207812, STRAWBERRY RHUBARB CRISP, UPC: 041268194322"
Food Group:  Branded Food Products Database
Common Name:

Nutrient,Unit,Data points,Std. Error,"0.5 cup = 85.0g",1Value per 100 g,
Proximates
"Energy",kcal,--,--,150,176
"Protein",g,--,--,2.00,2.35
"Total lipid (fat)",g,--,--,3.50,4.12
"Carbohydrate, by difference",g,--,--,29.00,34.12
"Fiber, total dietary",g,--,--,1.0,1.2
"Sugars, total",g,--,--,18.00,21.18
Minerals
"Calcium, Ca",mg,--,--,80,94
"Iron, Fe",mg,--,--,0.00,0.00
"Sodium, Na",mg,--,--,30,35
Vitamins
"Vitamin C, total ascorbic acid",mg,--,--,5.9,6.9
"Vitamin A, IU",IU,--,--,129,152
Lipids
"Fatty acids, total saturated",g,--,--,1.998,2.350
"Fatty acids, total trans",g,--,--,0.000,0.000
"Cholesterol",mg,--,--,10,12
Amino Acids
Other
Ingredients
"RHUBARB, STRAWBERRIES, SUGAR, BROWN SUGAR (SUGAR, MOLASSES), FLOUR (WHEAT FLOUR, MALTED BARLEY FLOUR, NIACIN, IRON, THIAMIN MONONITRATE, RIBOFLAVIN, FOLIC ACID), WATER, BUTTER (CREAM [COW'S MILK], WATER, SALT), OATS, MODIFIED FOOD STARCH, POTASSIUM SORBATE, NISIN." Date available: 10/13/2017 Date last updated by company: 10/13/2017
