Source: USDA Branded Food Products Database Release December 2017 Software v.3.8.6.4 2017-10-02
Report Run at: December 18, 2017 08:04 EST
"Nutrient data for: 45040558, STREIT'S, WHOLE WHEAT MATZO BALL MIX, UPC: 070227500485"
Food Group:  Branded Food Products Database
Common Name:

Nutrient,Unit,Data points,Std. Error,"2.0 PREPARED BALLS = 14.0g",1Value per 100 g,
Proximates
"Energy",kcal,--,--,50,357
"Protein",g,--,--,1.00,7.14
"Total lipid (fat)",g,--,--,0.00,0.00
"Carbohydrate, by difference",g,--,--,12.00,85.71
"Fiber, total dietary",g,--,--,0.0,0.0
"Sugars, total",g,--,--,0.00,0.00
Minerals
"Calcium, Ca",mg,--,--,20,143
"Iron, Fe",mg,--,--,1.29,9.18
"Sodium, Na",mg,--,--,170,1214
Vitamins
"Vitamin C, total ascorbic acid",mg,--,--,0.0,0.0
"Vitamin A, IU",IU,--,--,0,0
Lipids
"Fatty acids, total saturated",g,--,--,0.000,0.000
"Fatty acids, total trans",g,--,--,0.000,0.000
"Cholesterol",mg,--,--,0,0
Amino Acids
Other
Ingredients
"WHOLE WHEAT MATZO MEAL (PASSOVER WHOLE WHEAT FLOUR & WATER), SALT, ONIONS, MONOCALCIUM PHOSPHATE, SODIUM BICARBONATE, GARLIC, WHITE PEPPER." Date available: 06/24/2017 Date last updated by company: 06/24/2017
