Source: USDA Branded Food Products Database Release December 2017 Software v.3.8.6.4 2017-10-02
Report Run at: December 18, 2017 08:09 EST
"Nutrient data for: 45204039, STROZZAPRETI PASTA, UPC: 8058368500344"
Food Group:  Branded Food Products Database
Common Name:

Nutrient,Unit,Data points,Std. Error,"0.75 cup = 56.0g",1Value per 100 g,
Proximates
"Energy",kcal,--,--,200,357
"Protein",g,--,--,7.00,12.50
"Total lipid (fat)",g,--,--,1.00,1.79
"Carbohydrate, by difference",g,--,--,41.00,73.21
"Fiber, total dietary",g,--,--,2.0,3.6
"Sugars, total",g,--,--,4.00,7.14
Minerals
"Calcium, Ca",mg,--,--,20,36
"Iron, Fe",mg,--,--,2.70,4.82
"Sodium, Na",mg,--,--,5,9
Vitamins
"Vitamin C, total ascorbic acid",mg,--,--,0.0,0.0
"Vitamin A, IU",IU,--,--,0,0
Lipids
"Fatty acids, total saturated",g,--,--,0.000,0.000
"Cholesterol",mg,--,--,0,0
Amino Acids
Other
Ingredients
"DURUM WHEAT SEMOLINA, WATER." Date available: 08/11/2017 Date last updated by company: 08/11/2017
