Source: USDA Branded Food Products Database Release December 2017 Software v.3.8.6.4 2017-10-02
Report Run at: December 18, 2017 08:09 EST
"Nutrient data for: 45009454, STUBB'S, ALL-NATURAL BAR-B-Q SAUCE, ORIGINAL, UPC: 734356444040"
Food Group:  Branded Food Products Database
Common Name:

Nutrient,Unit,Data points,Std. Error,"2.0 Tbsp = 32.0g",1Value per 100 g,
Proximates
"Energy",kcal,--,--,30,94
"Protein",g,--,--,0.00,0.00
"Total lipid (fat)",g,--,--,0.00,0.00
"Carbohydrate, by difference",g,--,--,6.00,18.75
"Sugars, total",g,--,--,4.00,12.50
Minerals
"Calcium, Ca",mg,--,--,20,62
"Iron, Fe",mg,--,--,0.61,1.90
"Sodium, Na",mg,--,--,220,688
Vitamins
"Vitamin C, total ascorbic acid",mg,--,--,4.1,12.7
"Vitamin A, IU",IU,--,--,338,1056
Lipids
Amino Acids
Other
Ingredients
"WATER, TOMATO PASTE, SUGAR, DISTILLED VINEGAR, MOLASSES, TAPIOCA DEXTRIN, SALT, BROWN SUGAR, SPICES, CORN STARCH, CONTAINS LESS THAN 0.5% OF: ONION, PAPRIKA, GARLIC, CHILE POWDER, NATURAL SMOKE FLAVOR. XANTHAN GUM, GUAR GUM, CITRIC ACID, CORN SYRUP, SMOKE NATURAL FLAVORS." Date available: 06/24/2017 Date last updated by company: 06/24/2017
