Source: USDA Branded Food Products Database Release December 2017 Software v.3.8.6.4 2017-10-02
Report Run at: December 18, 2017 08:17 EST
"Nutrient data for: 45194939, STUFFED SANDWICH, UPC: 0368000413740"
Food Group:  Branded Food Products Database
Common Name:

Nutrient,Unit,Data points,Std. Error,"1 STUFFED SANDWICH = 127.0g",1Value per 100 g,
Proximates
"Energy",kcal,--,--,340,268
"Protein",g,--,--,11.00,8.66
"Total lipid (fat)",g,--,--,15.00,11.81
"Carbohydrate, by difference",g,--,--,40.01,31.50
"Fiber, total dietary",g,--,--,2.0,1.6
"Sugars, total",g,--,--,3.00,2.36
Minerals
"Calcium, Ca",mg,--,--,150,118
"Iron, Fe",mg,--,--,1.80,1.42
"Sodium, Na",mg,--,--,570,449
Vitamins
"Vitamin C, total ascorbic acid",mg,--,--,3.2,2.5
"Vitamin A, IU",IU,--,--,135,106
Lipids
"Fatty acids, total saturated",g,--,--,8.001,6.300
"Fatty acids, total trans",g,--,--,0.000,0.000
"Cholesterol",mg,--,--,25,20
Amino Acids
Other
Ingredients
"UNBLEACHED ENRICHED FLOUR [WHEAT FLOUR, MALTED BARLEY FLOUR, NIACIN, REDUCED IRON, THIAMINE MONONITRATE, RIBOFLAVIN, FOLIC ACID), WATER, MOZZARELLA CHEESE ([PASTEURIZED MILK, CHEESE CULTURES, SALT, & ENZYMES], POWDERED CORN & POTATO STARCH [ADDED TO PREVENT CAKING], NATAMYCIN [NATURAL MOLD INHIBITOR]), PEPPERONI (PORK AND BEEF, SALT, SPICES, DEXTROSE, LACTIC ACID STARTER CULTURE, OLEORESIN OF PAPRIKA, FLAVORING, SODIUM NITRITE, BHA, BHT, CITRIC ACID), TOMATO PASTE, CONTAINS LESS THAN 2% OF: FULLY HYDROGENATED SOYBEAN OIL, PALM OIL (WITH SOY LECITHIN, NATURAL FLAVOR, BETA CAROTENE), SUGAR, FULLY HYDROGENATED PALM KERNEL OIL (WITH SOY LECITHIN), SEASONED BREAD CRUMBS (ENRICHED FLOUR [WHEAT FLOUR, NIACIN, REDUCED IRON, THIAMINE MONONITRATE, RIBOFLAVIN, FOLIC ACID], DEHYDRATED GARLIC, TOMATO POWDER, SALT, DEXTROSE, ONION POWDER, MALTODEXTRIN, DEHYDRATED PARSLEY, CORN SYRUP, SUGAR, CITRIC ACID, YEAST, SODIUM STEAROYL LACTYLATE, CALCIUM PROPIONATE [PRESERVATIVE]), DOUGH CONDITIONERS (CALCIUM SULFATE, SALT, L-CYSTEINE HYDROCHLORIDE, DEODORIZED GARLIC POWDER, TRICALCIUM PHOSPHATE, FUNGAL ENZYMES, MONO-AND DIGLYCERIDES, WHEY, ETHOXYLATED MONO- AND DIGLYCERIDES, WHEAT FLOUR), SEASONING (GARLIC POWDER, SALT, SUGAR, ONION POWDER, SPICE, CITRIC ACID), MODIFIED CORN STARCH, DRIED EGG YOLKS, SALT, YEAST, DRIED WHEY, SOY FLOUR, DRIED EGG WHITES, POWDERED CELLULOSE." Date available: 07/14/2017 Date last updated by company: 07/14/2017
