Source: USDA Branded Food Products Database Release December 2017 Software v.3.8.6.4 2017-10-02
Report Run at: December 18, 2017 08:11 EST
"Nutrient data for: 45270152, STUFF'D FROZEN DAIRY DESSERT, UPC: 020735420256"
Food Group:  Branded Food Products Database
Common Name:

Nutrient,Unit,Data points,Std. Error,"0.5 cup = 61.0g",1Value per 100 g,
Proximates
"Energy",kcal,--,--,140,230
"Protein",g,--,--,2.00,3.28
"Total lipid (fat)",g,--,--,6.00,9.84
"Carbohydrate, by difference",g,--,--,21.00,34.43
"Fiber, total dietary",g,--,--,1.0,1.6
"Sugars, total",g,--,--,15.00,24.59
Minerals
"Calcium, Ca",mg,--,--,60,98
"Iron, Fe",mg,--,--,0.71,1.16
"Sodium, Na",mg,--,--,70,115
Vitamins
"Vitamin C, total ascorbic acid",mg,--,--,0.0,0.0
"Vitamin A, IU",IU,--,--,983,1612
"Vitamin D",IU,--,--,100,164
Lipids
"Fatty acids, total saturated",g,--,--,3.001,4.920
"Fatty acids, total trans",g,--,--,0.000,0.000
"Cholesterol",mg,--,--,5,8
Amino Acids
Other
Ingredients
"MILK, MOOSE TRACKS FUDGE (SUGAR, PEANUT/COTTONSEED AND/OR PALM OIL, COCOA PROCESSED WITH ALKALI, WHEY, CORN STARCH, SOY LECITHIN, SALT, NATURAL FLAVOR), CORN SYRUP, SUGAR, PEANUT BUTTER CUPS [SUGAR, PEANUT BUTTER (PEANUTS, SALT), COCONUT OIL, NONFAT MILK, MILK, COCOA PROCESSED WITH ALKALI, SOY LECITHIN, NATURAL FLAVORS], MALTODEXTRIN, WHEY, CREAM, CELLULOSE GEL, PROPYLENE GLYCOL MONOESTERS, CELLULOSE GUM, VANILLA, MONO & DIGLYCERIDES, LOCUST BEAN GUM, CARRAGEENAN, VITAMIN A, VITAMIN D3." Date available: 07/14/2017 Date last updated by company: 07/14/2017
