Source: USDA Branded Food Products Database Release December 2017 Software v.3.8.6.4 2017-10-02
Report Run at: December 18, 2017 08:18 EST
"Nutrient data for: 45257593, STUFFED TILAPIA WITH CRABMEAT, UPC: 074947968143"
Food Group:  Branded Food Products Database
Common Name:

Nutrient,Unit,Data points,Std. Error,"0.5 PORTION = 85.0g",1Value per 100 g,
Proximates
"Energy",kcal,--,--,160,188
"Protein",g,--,--,15.00,17.65
"Total lipid (fat)",g,--,--,10.00,11.76
"Carbohydrate, by difference",g,--,--,4.00,4.71
"Fiber, total dietary",g,--,--,0.0,0.0
"Sugars, total",g,--,--,0.00,0.00
Minerals
"Calcium, Ca",mg,--,--,100,118
"Iron, Fe",mg,--,--,0.36,0.42
"Sodium, Na",mg,--,--,260,306
Vitamins
"Vitamin C, total ascorbic acid",mg,--,--,2.4,2.8
"Vitamin A, IU",IU,--,--,200,235
Lipids
"Fatty acids, total saturated",g,--,--,3.502,4.120
"Fatty acids, total trans",g,--,--,0.000,0.000
"Cholesterol",mg,--,--,65,76
Amino Acids
Other
Ingredients
"TILAPIA, MONTERY JACK CHEESE (PASTEURIZED MILK, CHEESE CULTURE, SALT, ENZYMES), MOZZARELLA CHEESE (PASTEURIZED PART SKIM MILK, CHEESE CULTURES, SALT, ENZYMES), MAYONNAISE [SOYBEAN OIL, EGG YOLKS, DISTILLED VINEGAR, WATER, SUGAR, SPICE, LEMON JUICE CONCENTRATE, NATURAL FLAVOR, CALCIUM DISODIUM EDTA (ADDED TO PRODUCT FLAVOR), PAPRIKA], EGGS, CRAB MEAT, BREAD CRUMBS (WHEAT FLOUR, SUGAR, YEAST, SOYBEAN OIL, SALT), GREEN PEPPERS, RED PEPPERS,. ONIONS, SCALLIONS, EXTRA STRONG MUSTARD [WATER, MUSTARD SEED, VINEGAR, SALT, CITRIC ACID, POTASSIUM METABISULFITE (AS PRESERVATIVE)], LEMON JUICE, SALT, SPICES, CORNSTARCH, OLIVE OIL." Date available: 07/14/2017 Date last updated by company: 07/14/2017
