Source: USDA Branded Food Products Database Release December 2017 Software v.3.8.6.4 2017-10-02
Report Run at: December 18, 2017 08:15 EST
"Nutrient data for: 45203857, STUFFED OLIVES, UPC: 876941006933"
Food Group:  Branded Food Products Database
Common Name:

Nutrient,Unit,Data points,Std. Error,"5.0 OLIVES = 15.0g",1Value per 100 g,
Proximates
"Energy",kcal,--,--,25,167
"Protein",g,--,--,0.00,0.00
"Total lipid (fat)",g,--,--,2.50,16.67
"Carbohydrate, by difference",g,--,--,0.00,0.00
Minerals
"Calcium, Ca",mg,--,--,20,133
"Sodium, Na",mg,--,--,210,1400
Vitamins
"Vitamin A, IU",IU,--,--,333,2223
Lipids
"Fatty acids, total saturated",g,--,--,0.500,3.330
Amino Acids
Other
Ingredients
"MANZANILLA OLIVES, WATER, MINCED PIMIENTO (PIMIENTO, SODIUM ALGINATE, GUAR GUM, CALCIUM CHLORIDE), SALT, LACTIC ACID, CITRIC ACID, ASCORBIC ACID." Date available: 07/14/2017 Date last updated by company: 07/14/2017
