Source: USDA Branded Food Products Database Release December 2017 Software v.3.8.6.4 2017-10-02
Report Run at: December 18, 2017 08:36 EST
"Nutrient data for: 45275368, SUGAR FREE SYRUP, UPC: 071258073726"
Food Group:  Branded Food Products Database
Common Name:

Nutrient,Unit,Data points,Std. Error,"0.25 cup = 60.0g",1Value per 100 g,
Proximates
"Energy",kcal,--,--,35,58
"Protein",g,--,--,0.00,0.00
"Total lipid (fat)",g,--,--,0.00,0.00
"Carbohydrate, by difference",g,--,--,13.00,21.67
Minerals
"Sodium, Na",mg,--,--,110,183
Vitamins
Lipids
"Fatty acids, total trans",g,--,--,0.000,0.000
Amino Acids
Other
Ingredients
"WATER, SORBITOL, CELLULOSE GUM, NATURAL AND ARTIFICIAL FLAVOR, SUCRALOSE, SALT, PHOSPHORIC ACID, SODIUM HEXAMETAPHOSPHATE, AND POTASSIUM SORBATE AND SODIUM BENZOATE (PRESERVATIVES)." Date available: 07/14/2017 Date last updated by company: 07/14/2017
