Source: USDA Branded Food Products Database Release December 2017 Software v.3.8.6.4 2017-10-02
Report Run at: December 18, 2017 08:34 EST
"Nutrient data for: 45312690, SUGAR FREE LOW CALORIE DRINK MIX, UPC: 072392319510"
Food Group:  Branded Food Products Database
Common Name:

Nutrient,Unit,Data points,Std. Error,"0.5 PACKET = 1.3g",1Value per 100 g,
Proximates
"Energy",kcal,--,--,5,385
"Protein",g,--,--,0.00,0.00
"Total lipid (fat)",g,--,--,0.00,0.00
"Carbohydrate, by difference",g,--,--,0.00,0.00
Minerals
"Sodium, Na",mg,--,--,15,1154
Vitamins
"Vitamin C, total ascorbic acid",mg,--,--,461.5,35502.9
Lipids
Amino Acids
Other
Ingredients
"CITRIC ACID, MALTODEXTRIN, NATURAL AND ARTIFICIAL FLAVORS, ASPARTAME+, SALT, CONTAINS 2% OR LESS OF THE FOLLOWING: ACESULFAME POTASSIUM, MAGNESIUM OXIDE, ASCORBIC ACID (VITAMIN C), ARTIFICIAL COLOR, DISODIUM PHOSPHATE, BLUE 1, YELLOW 5." Date available: 10/13/2017 Date last updated by company: 10/13/2017
