Source: USDA Branded Food Products Database Release December 2017 Software v.3.8.6.4 2017-10-02
Report Run at: December 18, 2017 08:28 EST
"Nutrient data for: 45329092, SUGAR-FREE COOKIES, UPC: 079879508559"
Food Group:  Branded Food Products Database
Common Name:

Nutrient,Unit,Data points,Std. Error,"1 COOKIE = 23.0g",1Value per 100 g,
Proximates
"Energy",kcal,--,--,80,348
"Protein",g,--,--,1.00,4.35
"Total lipid (fat)",g,--,--,4.00,17.39
"Carbohydrate, by difference",g,--,--,11.00,47.83
"Fiber, total dietary",g,--,--,0.0,0.0
"Sugars, total",g,--,--,0.00,0.00
Minerals
"Calcium, Ca",mg,--,--,0,0
"Iron, Fe",mg,--,--,0.78,3.40
"Sodium, Na",mg,--,--,90,391
Vitamins
"Vitamin C, total ascorbic acid",mg,--,--,0.0,0.0
"Vitamin A, IU",IU,--,--,0,0
Lipids
"Fatty acids, total saturated",g,--,--,2.001,8.700
"Fatty acids, total trans",g,--,--,0.000,0.000
"Cholesterol",mg,--,--,5,22
Amino Acids
Other
Ingredients
"BLEACHED WHEAT FLOUR (ENRICHED WITH NIACIN, REDUCED IRON, THIAMIN MONONITRATE, RIBOFLAVIN AND FOLIC ACID), MALTITOL, ASCORBIC ACID (DOUGH CONDITIONER), WHOLE EGGS, PALM OIL, CHOCOLATE FLAVORED CHIPS (MALTITOL, CHOCOLATE LIQUOR, COCOA BUTTER, WHOLE MILK POWDER, SOY LECITHIN), CORN STARCH MODIFIED, WHEY(MILK), LEAVENING (SODIUM ALUMINUM SULFATE, SODIUM BICARBONATE), SALT, ACESULFAME POTASSIUM, NATURAL FLAVOR, SUCRALOSE, XANTHAN GUM." Date available: 10/13/2017 Date last updated by company: 10/13/2017
