Source: USDA Branded Food Products Database Release December 2017 Software v.3.8.6.4 2017-10-02
Report Run at: December 18, 2017 08:30 EST
"Nutrient data for: 45239268, SUGAR FREE GELATIN DESSERT, UPC: 041497571048"
Food Group:  Branded Food Products Database
Common Name:

Nutrient,Unit,Data points,Std. Error,"1 PACKAGE, PER CONTAINER = 3.0g",1Value per 100 g,
Proximates
"Energy",kcal,--,--,10,333
"Protein",g,--,--,0.00,0.00
"Total lipid (fat)",g,--,--,0.00,0.00
"Carbohydrate, by difference",g,--,--,1.00,33.33
"Fiber, total dietary",g,--,--,0.0,0.0
"Sugars, total",g,--,--,0.00,0.00
Minerals
"Sodium, Na",mg,--,--,20,667
Vitamins
Lipids
"Fatty acids, total saturated",g,--,--,0.000,0.000
"Fatty acids, total trans",g,--,--,0.000,0.000
"Cholesterol",mg,--,--,0,0
Amino Acids
Other
Ingredients
"GELATIN, MALTODEXTRIN, ADIPIC ACID (FOR TARTNESS), POTASSIUM CITRATE (CONTROLS ACIDITY), CONTAINS 2% OR LESS OF SODIUM CITRATE (CONTROLS ACIDITY), ASPARATAME* (SWEETENER), ACESULFAME POTASSIUM (SWEETENER), YELLOW 6, NATURAL AND ARTIFICIAL FLAVORING, SALT, DIMETHYLPOLYSILOXANE (PREVENTS FOAM), BHA (PRESERVATIVE)." Date available: 06/24/2017 Date last updated by company: 06/24/2017
