Source: USDA Branded Food Products Database Release December 2017 Software v.3.8.6.4 2017-10-02
Report Run at: December 18, 2017 08:39 EST
"Nutrient data for: 45250277, SUGAR SWEETENED ICED TEA MIX MADE FROM REAL TEA LEAVES, UPC: 021130501809"
Food Group:  Branded Food Products Database
Common Name:

Nutrient,Unit,Data points,Std. Error,"8.0 FL OZ PREPARED) | (MAKES = 18.0g",1Value per 100 g,
Proximates
"Energy",kcal,--,--,70,389
"Protein",g,--,--,0.00,0.00
"Total lipid (fat)",g,--,--,0.00,0.00
"Carbohydrate, by difference",g,--,--,18.00,100.00
"Fiber, total dietary",g,--,--,0.0,0.0
"Sugars, total",g,--,--,16.00,88.89
Minerals
"Sodium, Na",mg,--,--,0,0
Vitamins
Lipids
"Fatty acids, total saturated",g,--,--,0.000,0.000
"Fatty acids, total trans",g,--,--,0.000,0.000
"Cholesterol",mg,--,--,0,0
Amino Acids
Other
Ingredients
"SUGAR, CITRIC ACID, INSTANT TEA, CARAMEL COLOR, NATURAL LEMON FLAVOR WITH OTHER NATURAL FLAVORS, RED 40." Date available: 07/14/2017 Date last updated by company: 07/14/2017
