Source: USDA Branded Food Products Database Release December 2017 Software v.3.8.6.4 2017-10-02
Report Run at: December 18, 2017 08:25 EST
"Nutrient data for: 45212075, SUGAR COOKIES, UPC: 683639921672"
Food Group:  Branded Food Products Database
Common Name:

Nutrient,Unit,Data points,Std. Error,"1 ONZ = 28.0g",1Value per 100 g,
Proximates
"Energy",kcal,--,--,180,643
"Protein",g,--,--,1.00,3.57
"Total lipid (fat)",g,--,--,18.00,64.29
"Carbohydrate, by difference",g,--,--,4.00,14.29
"Fiber, total dietary",g,--,--,0.0,0.0
"Sugars, total",g,--,--,2.00,7.14
Minerals
"Calcium, Ca",mg,--,--,0,0
"Iron, Fe",mg,--,--,0.64,2.29
"Sodium, Na",mg,--,--,15,54
Vitamins
"Vitamin C, total ascorbic acid",mg,--,--,0.0,0.0
"Vitamin A, IU",IU,--,--,1340,4784
Lipids
"Fatty acids, total saturated",g,--,--,11.001,39.290
"Cholesterol",mg,--,--,50,179
Amino Acids
Other
Ingredients
"UNBLEACHED HIGH GLUTEN FLOUR (WHEAT FLOUR, MALTED BARLEY FLOUR, NIACIN, IRON,THIAMINE, RIBOFLAVIN, FOLIC ACID), UNSALTED BUTTER, SUGAR, NATURAL FLAVOR , DRIED WHOLE EGGS, SALT, WATER, CORN STARCH, FROSTING: SUGAR, CORN STARCH, WATER, NATURAL VANILLA NATURAL FOOD COLORING, CHOCOLATE (SUGAR, PALM KERNEL AND PALM OILS, COCOA (PROCESSED WITH POTASSIUM CARBONATE), NONFAT MILK, SORBITAN MONOSTEARATE AND SOYA LECTHIN EMULSIFIERS, PURE VANILLA MADE WITH NON-HYDROGENATED OILS)" Date available: 08/21/2017 Date last updated by company: 08/21/2017
