Source: USDA Branded Food Products Database Release December 2017 Software v.3.8.6.4 2017-10-02
Report Run at: December 18, 2017 08:32 EST
"Nutrient data for: 45319167, SUGARFREE GUM, UPC: 022000013316"
Food Group:  Branded Food Products Database
Common Name:

Nutrient,Unit,Data points,Std. Error,"2.0 PIECES = 3.0g",1Value per 100 g,
Proximates
"Energy",kcal,--,--,5,167
"Protein",g,--,--,0.00,0.00
"Total lipid (fat)",g,--,--,0.00,0.00
"Carbohydrate, by difference",g,--,--,2.00,66.67
"Sugars, total",g,--,--,0.00,0.00
Minerals
"Sodium, Na",mg,--,--,0,0
Vitamins
Lipids
Amino Acids
Other
Ingredients
"MADE OF: SORBITOL, GUM BASE, MALTITOL, GLYCEROL, NATURAL AND ARTIFICIAL FLAVORS, ACACIA; LESS THAN 2% OF: SOY LECITHIN, ASPARTAME, COLOR (TITANIUM DIOXIDE), ACESULFAME K, CARNAUBA WAX, BHT (TO MAINTAIN FRESHNESS)." Date available: 07/14/2017 Date last updated by company: 07/14/2017
