Source: USDA Branded Food Products Database Release December 2017 Software v.3.8.6.4 2017-10-02
Report Run at: December 18, 2017 08:22 EST
"Nutrient data for: 45214971, SUGAR BREAD & BUTTER, CUCUMBER, UPC: 073405102969"
Food Group:  Branded Food Products Database
Common Name:

Nutrient,Unit,Data points,Std. Error,"12.0 SLICES | ABOUT = 28.0g",1Value per 100 g,
Proximates
"Energy",kcal,--,--,30,107
"Protein",g,--,--,0.00,0.00
"Total lipid (fat)",g,--,--,0.00,0.00
"Carbohydrate, by difference",g,--,--,8.00,28.57
"Sugars, total",g,--,--,7.00,25.00
Minerals
"Sodium, Na",mg,--,--,70,250
Vitamins
Lipids
Amino Acids
Other
Ingredients
"FRESH CUCUMBERS, CIDER VINEGAR, SUGAR, RED BELL PEPPERS, ONIONS, SALT, OLEORESIN TURMERIC, NATURAL FLAVORS AND SPICES." Date available: 07/14/2017 Date last updated by company: 07/14/2017
