Source: USDA Branded Food Products Database Release December 2017 Software v.3.8.6.4 2017-10-02
Report Run at: December 18, 2017 08:34 EST
"Nutrient data for: 45259430, SUGAR FREE MINI CUPCAKES, UPC: 014821089106"
Food Group:  Branded Food Products Database
Common Name:

Nutrient,Unit,Data points,Std. Error,"2.0 CUPCAKES = 56.0g",1Value per 100 g,
Proximates
"Energy",kcal,--,--,230,411
"Protein",g,--,--,2.00,3.57
"Total lipid (fat)",g,--,--,15.00,26.79
"Carbohydrate, by difference",g,--,--,29.00,51.79
"Fiber, total dietary",g,--,--,1.0,1.8
"Sugars, total",g,--,--,0.00,0.00
Minerals
"Calcium, Ca",mg,--,--,20,36
"Iron, Fe",mg,--,--,1.44,2.57
"Sodium, Na",mg,--,--,120,214
Vitamins
"Vitamin C, total ascorbic acid",mg,--,--,0.0,0.0
"Vitamin A, IU",IU,--,--,0,0
Lipids
"Fatty acids, total saturated",g,--,--,7.000,12.500
"Fatty acids, total trans",g,--,--,0.000,0.000
"Cholesterol",mg,--,--,10,18
Amino Acids
Other
Ingredients
"MALTITOL* AND SORBITOL* SYRUP, MALTITOL*, PALM OIL, WATER, BLEACHED ENRICHED FLOUR (BLEACHED WHEAT FLOUR, NIACIN, REDUCED IRON, THIAMINE MONONITRATE, RIBOFLAVIN, FOLIC ACID), COCOA (PROCESSED WITH ALKALI), EGGS, EGG WHITES, SOYBEAN OIL AND SOYBEAN OIL SHORTENING (SOYBEAN OIL, MONO-AND DIGLYCERIDES, PROPYLENE GLYCOL MONO- AND DIESTERS OF FATTY ACIDS, GLYCERYL-LACTO ESTERS OF FATTY ACIDS), MALTODEXTRIN, NATURAL FLAVOR, MILK, EMULSIFIER MIX [PROPYLENE GLYCOL MONO- AND DIESTERS OF FATS AND FATTY ACIDS, MONO-N AND DIGLYCERIDES, SOYBEAN LECITHIN, WITH BHT AND CITRIC ACID (PRESERVATIVE) TO HELP PROTECT FLAVOR], SALT, LEAVENING (SODIUM ACID PYROPHOSPHATE, BAKING SODA, MONOCALCIUM PHOSPHATE), FOOD STARCH-MODIFIED, EMULSIFIER PRODUCT [PROPYLENE GLYCOL MONOSTEARATE, MONOGLYCERIDES, SODIUM STEAROYL LACTYLATE, CALCIUM SILICATE, ASCORBIC ACID (PRESERVATIVE), CITRIC ACID (PRESERVATIVE)], XANTHAN GUM, GUAR GUM, ACESULFAME POTASSIUM, SORBIC ACID (PRESERVATIVE), SUCRALOSE, VANILLIN (AN ARTIFICIAL FLAVOR)." Date available: 03/01/2017 Date last updated by company: 03/01/2017
