Source: USDA Branded Food Products Database Release December 2017 Software v.3.8.6.4 2017-10-02
Report Run at: December 18, 2017 08:25 EST
"Nutrient data for: 45162440, SUGAR COVER ALMONDS, UPC: 8006167032306"
Food Group:  Branded Food Products Database
Common Name:

Nutrient,Unit,Data points,Std. Error,"0.2 cup = 40.0g",1Value per 100 g,
Proximates
"Energy",kcal,--,--,210,525
"Protein",g,--,--,6.00,15.00
"Total lipid (fat)",g,--,--,12.00,30.00
"Carbohydrate, by difference",g,--,--,18.00,45.00
"Fiber, total dietary",g,--,--,2.0,5.0
"Sugars, total",g,--,--,16.00,40.00
Minerals
"Calcium, Ca",mg,--,--,60,150
"Iron, Fe",mg,--,--,0.90,2.25
"Sodium, Na",mg,--,--,0,0
Vitamins
Lipids
"Fatty acids, total saturated",g,--,--,1.000,2.500
Amino Acids
Other
Ingredients
"ALMONDS 50%, SUGAR." Date available: 10/13/2017 Date last updated by company: 10/13/2017
