Source: USDA Branded Food Products Database Release December 2017 Software v.3.8.6.4 2017-10-02
Report Run at: December 18, 2017 08:24 EST
"Nutrient data for: 45212427, SUGAR COOKIES SPRING, UPC: 770981097985"
Food Group:  Branded Food Products Database
Common Name:

Nutrient,Unit,Data points,Std. Error,"3.0 ASSORTED COOKIES = 33.0g",1Value per 100 g,
Proximates
"Energy",kcal,--,--,150,455
"Protein",g,--,--,1.00,3.03
"Total lipid (fat)",g,--,--,8.00,24.24
"Carbohydrate, by difference",g,--,--,19.00,57.58
"Fiber, total dietary",g,--,--,0.0,0.0
"Sugars, total",g,--,--,10.00,30.30
Minerals
"Calcium, Ca",mg,--,--,0,0
"Iron, Fe",mg,--,--,1.09,3.31
"Sodium, Na",mg,--,--,80,242
Vitamins
"Vitamin C, total ascorbic acid",mg,--,--,0.0,0.0
"Vitamin A, IU",IU,--,--,0,0
Lipids
"Fatty acids, total saturated",g,--,--,4.000,12.120
"Fatty acids, total trans",g,--,--,0.000,0.000
"Cholesterol",mg,--,--,5,15
Amino Acids
Other
Ingredients
"ENRICHED WHEAT FLOUR (WHEAT FLOUR, NIACIN, REDUCED IRON, THIAMINE MONONITRATE, RIBOFLAVIN, FOLIC ACID), SUGAR, MARGARINE (PALM, CANOLA AND MODIFIED PALM OIL, WATER, SALT, WHEY POWDER, SOYBEAN LECITHIN, MONOGLYCERIDES, NATURAL FLAVOR, VITAMIN A PALMITATE, VITAMIN D3), ICING SUGAR, SHORTENING (PALM, SOYBEAN AND MODIFIED PALM OIL), CORN STARCH, EGG, WATER, PARTIALLY HYDROGENATED PALM KERNEL COCONUT AND PALM OIL, REDUCED MINERAL WHEY POWDER, SPRINKLES [SUGAR, MODIFIED CORN STARCH, CORN STARCH, HYDROGENATED PALM KERNEL OIL, ARTIFICIAL FLAVOR, SOYBEAN LECITHIN, COLOR (FD&C YELLOW #6, FD&C YELLOW #5, FD&C BLUE #1, FD&C RED #3, FD&C RED #40), GUM ARABIC, POLYSORBATE 60], NATURAL AND ARTIFICIAL FLAVOR, SOYBEAN LECITHIN, PARTLY SKIMMED MILK, SALT, GLUCOSE, COLOR (FD&C RED #3, FD&C BLUE #1, FD&C YELLOW #5 LAKE), GUAR GUM, MODIFIED POTATO STARCH, SODIUM BICARBONATE, LEAVENING (SODIUM ACID PYROPHOSPHATE, SODIUM BICARBONATE, CORN STARCH, MONOCALCIUM PHOSPHATE, CALCIUM SULFATE), LEMON JUICE CONCENTRATE, XANTHAN GUM." Date available: 07/14/2017 Date last updated by company: 07/14/2017
