Source: USDA Branded Food Products Database Release December 2017 Software v.3.8.6.4 2017-10-02
Report Run at: December 18, 2017 08:27 EST
"Nutrient data for: 45161661, SUGARFINA, ROBIN'S EGG CARAMEL, UPC: 840278113671"
Food Group:  Branded Food Products Database
Common Name:

Nutrient,Unit,Data points,Std. Error,"8.0 PIECES = 40.0g",1Value per 100 g,
Proximates
"Energy",kcal,--,--,170,425
"Protein",g,--,--,1.00,2.50
"Total lipid (fat)",g,--,--,7.00,17.50
"Carbohydrate, by difference",g,--,--,29.00,72.50
"Fiber, total dietary",g,--,--,1.0,2.5
"Sugars, total",g,--,--,24.00,60.00
Minerals
"Calcium, Ca",mg,--,--,20,50
"Iron, Fe",mg,--,--,0.45,1.12
"Sodium, Na",mg,--,--,20,50
Vitamins
"Vitamin C, total ascorbic acid",mg,--,--,0.0,0.0
"Vitamin A, IU",IU,--,--,0,0
Lipids
"Fatty acids, total saturated",g,--,--,4.500,11.250
"Fatty acids, total trans",g,--,--,0.000,0.000
"Cholesterol",mg,--,--,5,12
Amino Acids
Other
Ingredients
"SUGAR, DARK CHOCOLATE (SUGAR, COCOA MASS [PROCESSED WITH ALKALI], COCOA BUTTER, BUTTER OIL, SOY LECITHIN, VANILLA), CORN SYRUP, CREAM (MILK), PALM KERNEL OIL, COLOR ADDED (BLUE 1, BLUE 1 LAKE, TITANIUM DIOXIDE), TAPIOCA DEXTRIN, NATURAL FLAVOR, SALT, SOY LECITHIN." Date available: 07/14/2017 Date last updated by company: 07/14/2017
