Source: USDA Branded Food Products Database Release December 2017 Software v.3.8.6.4 2017-10-02
Report Run at: December 18, 2017 08:35 EST
"Nutrient data for: 45142645, SUGAR FREE OATMEAL COOKIES, UPC: 032825003706"
Food Group:  Branded Food Products Database
Common Name:

Nutrient,Unit,Data points,Std. Error,"7.0 COOKIES = 28.0g",1Value per 100 g,
Proximates
"Energy",kcal,--,--,120,429
"Protein",g,--,--,2.00,7.14
"Total lipid (fat)",g,--,--,6.00,21.43
"Carbohydrate, by difference",g,--,--,18.00,64.29
"Fiber, total dietary",g,--,--,1.0,3.6
"Sugars, total",g,--,--,0.00,0.00
Minerals
"Calcium, Ca",mg,--,--,0,0
"Iron, Fe",mg,--,--,1.29,4.59
"Sodium, Na",mg,--,--,85,304
Vitamins
"Vitamin C, total ascorbic acid",mg,--,--,0.0,0.0
"Vitamin A, IU",IU,--,--,0,0
Lipids
"Fatty acids, total saturated",g,--,--,2.999,10.710
"Fatty acids, total trans",g,--,--,0.000,0.000
"Cholesterol",mg,--,--,0,0
Amino Acids
Other
Ingredients
"BLEACHED ENRICHED FLOUR (BLEACHED WHEAT FLOUR, NIACIN, REDUCED IRON, THIAMINE MONONITRATE [VITAMIN B1], RIBOFLAVIN [VITAMIN B2], FOLIC ACID), VEGETABLE SHORTENING (PALM OIL, SOYBEAN OIL, CANOLA OIL, TOCOPHEROLS [ADDED AS AN ANTIOXIDANT]), MALTITOL, ROLLED OATS, MALTITOL SYRUP, MILK REPLACER (CONTAINS: SOYA PROTEIN, MALTO DEXTRINE, CERELOSE, GUAR GUM, BETA CAROTENE AND SOY LECITHIN), LEAVENING (SODIUM BICARBONATE, AMMONIUM BICARBONATE, BAKING POWDER), WHOLE EGG SOLIDS, SALT, ARTIFICIAL FLAVOR, CORN SYRUP SOLIDS, SOY LECITHIN." Date available: 09/01/2017 Date last updated by company: 09/01/2017
