Source: USDA Branded Food Products Database Release December 2017 Software v.3.8.6.4 2017-10-02
Report Run at: December 18, 2017 08:43 EST
"Nutrient data for: 45003880, SUKHI'S, GOBI ALOO COMPLETE SPICE MIX, UPC: 767226002248"
Food Group:  Branded Food Products Database
Common Name:

Nutrient,Unit,Data points,Std. Error,"3.0 GRM = 3.0g",1Value per 100 g,
Proximates
"Energy",kcal,--,--,5,167
"Protein",g,--,--,0.00,0.00
"Total lipid (fat)",g,--,--,0.00,0.00
"Carbohydrate, by difference",g,--,--,1.00,33.33
"Fiber, total dietary",g,--,--,1.0,33.3
"Sugars, total",g,--,--,0.00,0.00
Minerals
"Calcium, Ca",mg,--,--,20,667
"Iron, Fe",mg,--,--,18.00,600.00
"Sodium, Na",mg,--,--,135,4500
Vitamins
"Vitamin C, total ascorbic acid",mg,--,--,20.0,666.6
"Vitamin A, IU",IU,--,--,3334,111117
Lipids
"Fatty acids, total saturated",g,--,--,0.000,0.000
"Fatty acids, total trans",g,--,--,0.000,0.000
"Cholesterol",mg,--,--,0,0
Amino Acids
Other
Ingredients
"GROUND CORIANDER, GROUND POMEGRANATE SEEDS, CUMIN, SALT, ASAFOETIDA, CAYENNE PEPPER, PAPRIKA, TURMERIC, GARAM MASALA." Date available: 10/13/2017 Date last updated by company: 10/13/2017
