Source: USDA Branded Food Products Database Release December 2017 Software v.3.8.6.4 2017-10-02
Report Run at: December 18, 2017 08:43 EST
"Nutrient data for: 45044725, SUKI SUSHI, CALIFORNIA ROLL WITH VEGETABLES, UPC: 099465600054"
Food Group:  Branded Food Products Database
Common Name:

Nutrient,Unit,Data points,Std. Error,"3.0 PIECES = 102.0g",1Value per 100 g,
Proximates
"Energy",kcal,--,--,80,78
"Protein",g,--,--,3.00,2.94
"Total lipid (fat)",g,--,--,1.00,0.98
"Carbohydrate, by difference",g,--,--,15.00,14.71
"Fiber, total dietary",g,--,--,0.0,0.0
"Sugars, total",g,--,--,6.00,5.88
Minerals
"Calcium, Ca",mg,--,--,20,20
"Iron, Fe",mg,--,--,0.99,0.97
"Sodium, Na",mg,--,--,250,245
Vitamins
"Vitamin C, total ascorbic acid",mg,--,--,1.6,1.6
"Vitamin A, IU",IU,--,--,1716,1682
Lipids
"Fatty acids, total saturated",g,--,--,0.000,0.000
"Fatty acids, total trans",g,--,--,0.000,0.000
"Cholesterol",mg,--,--,0,0
Amino Acids
Other
Ingredients
"ROLLS: WHITE SUSHI RICE (WATER, WHITE RICE, SEASONED VINEGAR [CANE SUGAR, APPLE CIDER VINEGAR, SALT, CREAM BASE {SKIM MILK, CREAM, GELATIN}], CANOLA OIL), SURIMI (FISH PROTEIN [POLLOCK], WATER, WHEAT STARCH, SUGAR, CONTAINS 2% OR LESS OF: SALT, MIRIN WINE, NATURAL CRAB FLAVOR [CRAB EXTRACT, WATER, SALT, WHITE COGNAC OIL], CARRAGEENAN, EGG WHITES, PAPRIKA, [COLOR]), CARROT, SPINACH, NORI (SEAWEED). SIDES: ORGANIC SOY SAUCE (WATER, ORGANIC SOYBEANS, ORGANIC WHEAT, SALT), GINGER (GINGER, WATER, SALT, SUGAR, ACETIC ACID, CITRIC ACID, MALIC ACID), WASABI (WATER, HORSERADISH, MUSTARD, CANOLA OIL, CITRIC ACID, HORSERADISH EXTRACT, SPIRULINA)." Date available: 06/24/2017 Date last updated by company: 06/24/2017
