Source: USDA Branded Food Products Database Release December 2017 Software v.3.8.6.4 2017-10-02
Report Run at: December 18, 2017 08:46 EST
"Nutrient data for: 45327173, SUMMER SAUSAGE, UPC: 024557861136"
Food Group:  Branded Food Products Database
Common Name:

Nutrient,Unit,Data points,Std. Error,"2.0 ONZ = 56.0g",1Value per 100 g,
Proximates
"Energy",kcal,--,--,160,286
"Protein",g,--,--,10.00,17.86
"Total lipid (fat)",g,--,--,12.00,21.43
"Carbohydrate, by difference",g,--,--,2.00,3.57
"Sugars, total",g,--,--,2.00,3.57
Minerals
"Iron, Fe",mg,--,--,0.71,1.26
"Sodium, Na",mg,--,--,600,1071
Vitamins
Lipids
"Fatty acids, total saturated",g,--,--,5.001,8.930
"Fatty acids, total trans",g,--,--,0.000,0.000
"Cholesterol",mg,--,--,30,54
Amino Acids
Other
Ingredients
"PORK, BEEF HEARTS, BEEF, WATER, SALT AND LESS THAN 2% OF: CORN SYRUP, SPICES, DEXTROSE, LACTIC ACID STARTER CULTURE, SODIUM ERYTHORBATE, SODIUM NITRITE." Date available: 10/13/2017 Date last updated by company: 10/13/2017
