Source: USDA Branded Food Products Database Release December 2017 Software v.3.8.6.4 2017-10-02
Report Run at: December 18, 2017 08:46 EST
"Nutrient data for: 45263167, SUMMER SAUSAGE WITH PEPPER JACK CHEESE, UPC: 075094002902"
Food Group:  Branded Food Products Database
Common Name:

Nutrient,Unit,Data points,Std. Error,"2.0 ONZ = 56.0g",1Value per 100 g,
Proximates
"Energy",kcal,--,--,190,339
"Protein",g,--,--,9.00,16.07
"Total lipid (fat)",g,--,--,17.00,30.36
"Carbohydrate, by difference",g,--,--,1.00,1.79
"Fiber, total dietary",g,--,--,0.0,0.0
"Sugars, total",g,--,--,0.00,0.00
Minerals
"Calcium, Ca",mg,--,--,40,71
"Iron, Fe",mg,--,--,0.71,1.26
"Sodium, Na",mg,--,--,610,1089
Vitamins
"Vitamin C, total ascorbic acid",mg,--,--,0.0,0.0
"Vitamin A, IU",IU,--,--,0,0
Lipids
"Fatty acids, total saturated",g,--,--,5.998,10.710
"Fatty acids, total trans",g,--,--,0.000,0.000
"Cholesterol",mg,--,--,25,45
Amino Acids
Other
Ingredients
"PORK, BEEF, PEPPER JACK CHEESE [CULTURED MILK, WATER, SKIM MILK, WHEY, SODIUM PHOSPHATE, JALAPENO PEPPERS, CREAM, SALT, SORBIC ACID (A PRESERVATIVE), NATURAL FLAVORING, ENZYMES, POWDERED CELLULOSE (TO PREVENT CAKING), POTASSIUM SORBATE AND NATAMYCIN (PRESERVATIVES)], SALT, CONTAINS LESS THAN 2% OF THE FOLLOWING: DEXTROSE, NATURAL SPICES, WATER, LACTIC ACID STARTER CULTURE, SODIUM ERYTHORBATE, NATURAL FLAVORING, SODIUM NITRITE." Date available: 07/14/2017 Date last updated by company: 07/14/2017
