Source: USDA Branded Food Products Database Release December 2017 Software v.3.8.6.4 2017-10-02
Report Run at: December 18, 2017 08:54 EST
"Nutrient data for: 45047349, SUN-DRIED TOMATOES IN OLIVE OIL, UPC: 20001742"
Food Group:  Branded Food Products Database
Common Name:

Nutrient,Unit,Data points,Std. Error,"1 Tbsp = 19.0g",1Value per 100 g,
Proximates
"Energy",kcal,--,--,60,316
"Protein",g,--,--,1.00,5.26
"Total lipid (fat)",g,--,--,4.00,21.05
"Carbohydrate, by difference",g,--,--,5.00,26.32
"Fiber, total dietary",g,--,--,1.0,5.3
"Sugars, total",g,--,--,2.00,10.53
Minerals
"Calcium, Ca",mg,--,--,0,0
"Iron, Fe",mg,--,--,0.00,0.00
"Sodium, Na",mg,--,--,10,53
Vitamins
"Vitamin C, total ascorbic acid",mg,--,--,22.1,116.3
"Vitamin A, IU",IU,--,--,184,968
Lipids
"Fatty acids, total saturated",g,--,--,0.000,0.000
"Fatty acids, total trans",g,--,--,0.000,0.000
"Cholesterol",mg,--,--,0,0
Amino Acids
Other
Ingredients
"SUN-DRIED TOMATOES, OLIVE OIL, GARLIC, SPICE, SULFUR DIOXIDE (TO RETAIN COLOR)." Date available: 06/24/2017 Date last updated by company: 06/24/2017
