Source: USDA Branded Food Products Database Release December 2017 Software v.3.8.6.4 2017-10-02
Report Run at: December 18, 2017 08:52 EST
"Nutrient data for: 45177896, SUN-DRIED RAISINS, UPC: 70882094792"
Food Group:  Branded Food Products Database
Common Name:

Nutrient,Unit,Data points,Std. Error,"1 BOX = 14.0g",1Value per 100 g,
Proximates
"Energy",kcal,--,--,40,286
"Protein",g,--,--,0.00,0.00
"Total lipid (fat)",g,--,--,0.00,0.00
"Carbohydrate, by difference",g,--,--,11.00,78.57
"Fiber, total dietary",g,--,--,1.0,7.1
"Sugars, total",g,--,--,8.00,57.14
Minerals
"Calcium, Ca",mg,--,--,0,0
"Iron, Fe",mg,--,--,1.03,7.34
"Potassium, K",mg,--,--,105,750
"Sodium, Na",mg,--,--,0,0
Vitamins
"Vitamin C, total ascorbic acid",mg,--,--,0.0,0.0
"Vitamin A, IU",IU,--,--,0,0
Lipids
"Fatty acids, total saturated",g,--,--,0.000,0.000
"Fatty acids, total trans",g,--,--,0.000,0.000
"Cholesterol",mg,--,--,0,0
Amino Acids
Other
Ingredients
"RAISINS." Date available: 10/13/2017 Date last updated by company: 10/13/2017
