Source: USDA Branded Food Products Database Release December 2017 Software v.3.8.6.4 2017-10-02
Report Run at: December 18, 2017 08:56 EST
"Nutrient data for: 45047885, SUN FLOUR MILLS, WHOLE PUMPKIN CAKE, UPC: 850683004013"
Food Group:  Branded Food Products Database
Common Name:

Nutrient,Unit,Data points,Std. Error,"20.0 oz = 573.0g",1Value per 100 g,
Proximates
"Energy",kcal,--,--,103,18
"Protein",g,--,--,0.97,0.17
"Total lipid (fat)",g,--,--,0.00,0.00
"Carbohydrate, by difference",g,--,--,24.98,4.36
"Fiber, total dietary",g,--,--,1.1,0.2
"Sugars, total",g,--,--,15.99,2.79
Minerals
"Calcium, Ca",mg,--,--,29,5
"Iron, Fe",mg,--,--,0.34,0.06
"Sodium, Na",mg,--,--,149,26
Vitamins
"Vitamin C, total ascorbic acid",mg,--,--,0.0,0.0
"Vitamin A, IU",IU,--,--,0,0
Lipids
"Fatty acids, total saturated",g,--,--,0.00,0.00
"Fatty acids, total trans",g,--,--,0.00,0.00
"Cholesterol",mg,--,--,0,0
Amino Acids
Other
Ingredients
"CANE SUGAR, SORGHUM FLOUR, CORNSTARCH, WHITE RICE FLOUR, BAKING SODA, BAKING POWDER, PUMPKIN PIE SPICE, XANTHAN GUM, SALT" Date last updated by company: 03/18/2014
