Source: USDA Branded Food Products Database Release December 2017 Software v.3.8.6.4 2017-10-02
Report Run at: December 18, 2017 08:55 EST
"Nutrient data for: 45277071, SUN-DRIED TOMATO, KALAMATA OLIVES & OREGANO, UPC: 053702048344"
Food Group:  Branded Food Products Database
Common Name:

Nutrient,Unit,Data points,Std. Error,"1 Tbsp = 14.0g",1Value per 100 g,
Proximates
"Energy",kcal,--,--,50,357
"Protein",g,--,--,1.00,7.14
"Total lipid (fat)",g,--,--,3.00,21.43
"Carbohydrate, by difference",g,--,--,5.00,35.71
"Fiber, total dietary",g,--,--,1.0,7.1
"Sugars, total",g,--,--,2.00,14.29
Minerals
"Calcium, Ca",mg,--,--,20,143
"Iron, Fe",mg,--,--,2.57,18.37
"Sodium, Na",mg,--,--,150,1071
Vitamins
"Vitamin C, total ascorbic acid",mg,--,--,8.6,61.2
"Vitamin A, IU",IU,--,--,357,2550
Lipids
"Fatty acids, total saturated",g,--,--,0.000,0.000
"Fatty acids, total trans",g,--,--,0.000,0.000
"Cholesterol",mg,--,--,0,0
Amino Acids
Other
Ingredients
"SUN DRIED TOMATOES (TOMATOES, SALT, GLUCOSE, CITRIC ACID, ASCORBIC ACID, SULPHUR DIOXIDE, POTASSIUM SORBATE), KALAMATA OLIVES (KALAMATA OLIVES, WATER, SALT, LACTIC ACID, CITRIC ACID, OLIVE OIL), ROASTED GARLIC (GARLIC, PALM OIL), CANOLA OIL, EXTRA VIRGIN OLIVE OIL, OREGANO." Date available: 10/13/2017 Date last updated by company: 10/13/2017
