Source: USDA Branded Food Products Database Release December 2017 Software v.3.8.6.4 2017-10-02
Report Run at: December 18, 2017 09:12 EST
"Nutrient data for: 45032444, SUN OF ITALY, QUARTERED & MARINATED ARTICHOKE HEARTS, UPC: 033698815212"
Food Group:  Branded Food Products Database
Common Name:

Nutrient,Unit,Data points,Std. Error,"3.0 PIECES = 28.0g",1Value per 100 g,
Proximates
"Energy",kcal,--,--,25,89
"Protein",g,--,--,0.00,0.00
"Total lipid (fat)",g,--,--,3.00,10.71
"Carbohydrate, by difference",g,--,--,2.00,7.14
"Fiber, total dietary",g,--,--,1.0,3.6
"Sugars, total",g,--,--,0.00,0.00
Minerals
"Sodium, Na",mg,--,--,95,339
Vitamins
"Vitamin C, total ascorbic acid",mg,--,--,41.8,149.2
Lipids
"Fatty acids, total saturated",g,--,--,0.000,0.000
"Fatty acids, total trans",g,--,--,0.000,0.000
"Cholesterol",mg,--,--,0,0
Amino Acids
Other
Ingredients
"QUARTERED ARTICHOKE HEARTS, WATER, VEGETABLE OIL (SOYA AND/OR SUNFLOWER OIL), VINEGAR, SPICES, SALT, CITRIC AND ASCORBIC ACID TO PRESERVE COLOR" Date available: 10/13/2017 Date last updated by company: 10/13/2017
