Source: USDA Branded Food Products Database Release December 2017 Software v.3.8.6.4 2017-10-02
Report Run at: December 18, 2017 08:48 EST
"Nutrient data for: 45173016, SUNBELT BAKERY, SIMPLE GRANOLA, UPC: 024300771187"
Food Group:  Branded Food Products Database
Common Name:

Nutrient,Unit,Data points,Std. Error,"1 PACKAGE = 85.0g",1Value per 100 g,
Proximates
"Energy",kcal,--,--,370,435
"Protein",g,--,--,9.00,10.59
"Total lipid (fat)",g,--,--,10.00,11.76
"Carbohydrate, by difference",g,--,--,62.00,72.94
"Fiber, total dietary",g,--,--,9.0,10.6
"Sugars, total",g,--,--,15.00,17.65
Minerals
"Calcium, Ca",mg,--,--,40,47
"Iron, Fe",mg,--,--,13.55,15.94
"Sodium, Na",mg,--,--,220,259
Vitamins
"Vitamin C, total ascorbic acid",mg,--,--,0.0,0.0
"Vitamin A, IU",IU,--,--,0,0
Lipids
"Fatty acids, total saturated",g,--,--,1.003,1.180
"Fatty acids, total trans",g,--,--,0.000,0.000
"Cholesterol",mg,--,--,0,0
Amino Acids
Other
Ingredients
"WHOLE GRAIN ROLLED OATS, BROWN SUGAR, SOLUBLE CORN FIBER, CANOLA OIL, DEFATTED WHEAT GERM, WHOLE OAT FLOUR, FRUCTOSE, SALT, NATURAL FLAVOR, BAKING SODA, IRON SOURCE (FERRIC ORTHOPHOSPHATE), SOY LECITHIN." Date available: 07/14/2017 Date last updated by company: 07/14/2017
