Source: USDA Branded Food Products Database Release December 2017 Software v.3.8.6.4 2017-10-02
Report Run at: December 18, 2017 08:48 EST
"Nutrient data for: 45058008, SUNBELT BAKERY, WHOLE GRAIN GRANOLA CEREAL, FRUIT & NUT, UPC: 024300031908"
Food Group:  Branded Food Products Database
Common Name:

Nutrient,Unit,Data points,Std. Error,"0.66 cup = 55.0g",1Value per 100 g,
Proximates
"Energy",kcal,--,--,240,436
"Protein",g,--,--,4.00,7.27
"Total lipid (fat)",g,--,--,7.00,12.73
"Carbohydrate, by difference",g,--,--,40.00,72.73
"Fiber, total dietary",g,--,--,3.0,5.5
"Sugars, total",g,--,--,16.00,29.09
Minerals
"Calcium, Ca",mg,--,--,20,36
"Iron, Fe",mg,--,--,1.08,1.96
"Sodium, Na",mg,--,--,50,91
Vitamins
"Vitamin C, total ascorbic acid",mg,--,--,0.0,0.0
"Vitamin A, IU",IU,--,--,0,0
Lipids
"Fatty acids, total saturated",g,--,--,2.502,4.550
"Fatty acids, total trans",g,--,--,0.000,0.000
"Cholesterol",mg,--,--,0,0
Amino Acids
Other
Ingredients
"WHOLE GRAIN ROLLED OATS, WHOLE GRAIN ROLLED WHEAT, BROWN SUGAR, RAISINS (RAISINS, GLYCERIN, SUNFLOWER OIL), OAT FLOUR, CANOLA OIL, COCONUT, RICE FLOUR, DATES, ALMONDS, WHEY (MILK), SUGAR, HONEY, BAKING SODA, MALTED BARLEY FLOUR, SALT, CORN STARCH." Date available: 07/14/2017 Date last updated by company: 07/14/2017
