Source: USDA Branded Food Products Database Release December 2017 Software v.3.8.6.4 2017-10-02
Report Run at: December 18, 2017 08:51 EST
"Nutrient data for: 45009232, SUNDAE ICE CREAM CONE, UPC: 029839100101"
Food Group:  Branded Food Products Database
Common Name:

Nutrient,Unit,Data points,Std. Error,"1 CONE = 95.0g",1Value per 100 g,
Proximates
"Energy",kcal,--,--,290,305
"Protein",g,--,--,4.00,4.21
"Total lipid (fat)",g,--,--,13.00,13.68
"Carbohydrate, by difference",g,--,--,41.00,43.16
"Fiber, total dietary",g,--,--,2.0,2.1
"Sugars, total",g,--,--,28.00,29.47
Minerals
"Calcium, Ca",mg,--,--,80,84
"Iron, Fe",mg,--,--,0.76,0.80
"Sodium, Na",mg,--,--,130,137
Vitamins
"Vitamin C, total ascorbic acid",mg,--,--,0.0,0.0
"Vitamin A, IU",IU,--,--,105,111
Lipids
"Fatty acids, total saturated",g,--,--,8.997,9.470
"Fatty acids, total trans",g,--,--,0.000,0.000
"Cholesterol",mg,--,--,20,21
Amino Acids
Other
Ingredients
"FORBIDDEN CHOCOLATE ICE CREAM INGREDIENTS: MILK, CREAM, SUGAR, CORN SYRUP, SKIM MILK SOLIDS, WATER, COCOA (PROCESSED WITH ALKALI), WHEY, MONO AND DIGLYCERIDES, GUAR GUM, CELLULOSE GUM, CARRAGEENAN. SALT. CHOCOLATE FLAVORED CONE INGREDIENTS: BLEACHED WHEAT FLOUR, SUGAR, COCOA (PROCESSED WITH ALKALI), SOYBEAN OIL, PALM OIL, SOY LECITHIN, ARTIFICIAL FLAVOR, SALT. CHOCOLATE FLAVORED COATING INGREDIENTS: SUGAR, COCONUT OIL, COCOA, WHEY, MILK, SKIM MILK, COCOA (PROCESSED WITH ALKALI), SOYBEAN OIL, HYDROGENATED PALM OIL, SOY LECITHIN, NATURAL AND ARTIFICIAL FLAVOR. FUDGE CORE INGREDIENTS: HIGH FRUCTOSE CORN SYRUP, WATER, CORN SYRUP, COCOA (PROCESSED WITH ALKALI), SUGAR, MODIFIED CORNSTARCH, SKIM MILK, NATURAL AND ARTIFICIAL FLAVOR. CHOCOLATE FLAVORED CRUNCH INGREDIENTS: BLEACHED WHEAT FLOUR, COCOA (PROCESSED WITH ALKALI), PALM OIL, CORN SYRUP, CORN FLOUR, SOY LECITHIN, BAKING SODA, SALT, NATURAL AND ARTIFICIAL FLAVOR." Date available: 07/14/2017 Date last updated by company: 07/14/2017
