Source: USDA Branded Food Products Database Release December 2017 Software v.3.8.6.4 2017-10-02
Report Run at: December 18, 2017 08:56 EST
"Nutrient data for: 45282605, SUNDRIED TOMATO WRAPS, UPC: 810395023023"
Food Group:  Branded Food Products Database
Common Name:

Nutrient,Unit,Data points,Std. Error,"1 TORTILLA) | ( = 70.0g",1Value per 100 g,
Proximates
"Energy",kcal,--,--,200,286
"Protein",g,--,--,4.00,5.71
"Total lipid (fat)",g,--,--,6.00,8.57
"Carbohydrate, by difference",g,--,--,33.00,47.14
"Fiber, total dietary",g,--,--,2.0,2.9
"Sugars, total",g,--,--,0.00,0.00
Minerals
"Calcium, Ca",mg,--,--,100,143
"Iron, Fe",mg,--,--,1.69,2.42
"Sodium, Na",mg,--,--,360,514
Vitamins
"Vitamin C, total ascorbic acid",mg,--,--,0.0,0.0
"Vitamin A, IU",IU,--,--,0,0
Lipids
"Fatty acids, total saturated",g,--,--,4.998,7.140
"Fatty acids, total trans",g,--,--,0.000,0.000
"Cholesterol",mg,--,--,0,0
Amino Acids
Other
Ingredients
"ENRICHED FLOUR (WHEAT FLOUR, NIACIN, REDUCED IRON, THIAMINE MONONITRATE, RIBOFLAVIN, FOLIC ACID), WATER, COCONUT OIL AND/OR CANOLA OIL, SALT, VEGETABLE PUREES AND EXTRACTS (TOMATO, BASIL), CANOLA OIL, SPICE EXTRACTIVES, NATURAL FLAVORS, ARTIFICIAL COLOR (YELLOW #5, #6), CALCIUM PROPIONATE, SODIUM ALUMINUM SULFATE, SODIUM BICARBONATE, MONO- AND DIGLYCERIDES, SUGAR, CORN STARCH, POTASSIUM SORBATE, FUMARIC ACID, YEAST, ENZYMES, L-CYSTEINE." Date available: 07/14/2017 Date last updated by company: 07/14/2017
