Source: USDA Branded Food Products Database Release December 2017 Software v.3.8.6.4 2017-10-02
Report Run at: December 18, 2017 08:54 EST
"Nutrient data for: 45037820, SUNDRIED TOMATO FLORENTINE, UPC: 897034002328"
Food Group:  Branded Food Products Database
Common Name:

Nutrient,Unit,Data points,Std. Error,"0.25 cup = 43.0g",1Value per 100 g,
Proximates
"Energy",kcal,--,--,170,395
"Protein",g,--,--,7.00,16.28
"Total lipid (fat)",g,--,--,2.50,5.81
"Carbohydrate, by difference",g,--,--,24.00,55.81
"Fiber, total dietary",g,--,--,3.0,7.0
"Sugars, total",g,--,--,1.00,2.33
Minerals
"Calcium, Ca",mg,--,--,0,0
"Iron, Fe",mg,--,--,3.77,8.76
"Sodium, Na",mg,--,--,170,395
Vitamins
"Vitamin C, total ascorbic acid",mg,--,--,3.8,8.8
"Vitamin A, IU",IU,--,--,314,730
Lipids
"Fatty acids, total saturated",g,--,--,0.000,0.000
"Fatty acids, total trans",g,--,--,0.000,0.000
"Cholesterol",mg,--,--,0,0
Amino Acids
Other
Ingredients
"QUINOA, DEHYDRATED VEGETABLES (TOMATO, SUN DRIED TOMATO, SPINACH, CELERY), DEHYDRATED ONION, SALT, YEAST EXTRACT, CANE SUGAR, GARLIC POWDER, POTATO STARCH, PARSLEY, SPICE, PAPRIKA, TURMERIC, VINEGAR POWDER, AND LESS THAN 2% SUNFLOWER OIL AND RICE CONCENTRATE ADDED TO PREVENT CAKING." Date available: 07/14/2017 Date last updated by company: 07/14/2017
