Source: USDA Branded Food Products Database Release December 2017 Software v.3.8.6.4 2017-10-02
Report Run at: December 18, 2017 08:59 EST
"Nutrient data for: 45141131, SUNFLOWER SEEDS, UPC: 026200461878"
Food Group:  Branded Food Products Database
Common Name:

Nutrient,Unit,Data points,Std. Error,"0.25 cup = 30.0g",1Value per 100 g,
Proximates
"Energy",kcal,--,--,190,633
"Protein",g,--,--,8.00,26.67
"Total lipid (fat)",g,--,--,16.00,53.33
"Carbohydrate, by difference",g,--,--,5.00,16.67
"Fiber, total dietary",g,--,--,2.0,6.7
"Sugars, total",g,--,--,1.00,3.33
Minerals
"Calcium, Ca",mg,--,--,20,67
"Iron, Fe",mg,--,--,1.44,4.80
"Magnesium, Mg",mg,--,--,120,400
"Phosphorus, P",mg,--,--,300,1000
"Sodium, Na",mg,--,--,150,500
"Zinc, Zn",mg,--,--,1.50,5.00
Vitamins
Lipids
"Fatty acids, total saturated",g,--,--,2.001,6.670
"Fatty acids, total monounsaturated",g,--,--,5.001,16.670
"Fatty acids, total polyunsaturated",g,--,--,8.001,26.670
"Fatty acids, total trans",g,--,--,0.000,0.000
"Cholesterol",mg,--,--,0,0
Amino Acids
Other
Ingredients
"SUNFLOWER SEEDS, SALT, PARTIALLY HYDROGENATED SOYBEAN OIL, CONTAINS LESS THAN 2% OF THE FOLLOWING: MIXED TRIGLYCERIDES, BUTTERMILK POWDER, CORN SYRUP SOLIDS, NATURAL AND ARTIFICIAL FLAVORS, ACETIC ACID, WHEY POWDER, ONION POWDER, TOMATO POWDER, GARLIC POW" Date available: 11/06/2016 Date last updated by company: 11/06/2016
