Source: USDA Branded Food Products Database Release December 2017 Software v.3.8.6.4 2017-10-02
Report Run at: December 18, 2017 08:57 EST
"Nutrient data for: 45333511, SUNFLOWER KERNELS, UPC: 075450079296"
Food Group:  Branded Food Products Database
Common Name:

Nutrient,Unit,Data points,Std. Error,"1 PACKAGE = 50.0g",1Value per 100 g,
Proximates
"Energy",kcal,--,--,290,580
"Protein",g,--,--,9.00,18.00
"Total lipid (fat)",g,--,--,27.00,54.00
"Carbohydrate, by difference",g,--,--,9.00,18.00
"Fiber, total dietary",g,--,--,4.0,8.0
"Sugars, total",g,--,--,1.00,2.00
Minerals
"Calcium, Ca",mg,--,--,35,70
"Iron, Fe",mg,--,--,2.00,4.00
"Sodium, Na",mg,--,--,370,740
Vitamins
"Vitamin D",IU,--,--,0,0
Lipids
"Fatty acids, total saturated",g,--,--,2.500,5.000
"Fatty acids, total trans",g,--,--,0.000,0.000
"Cholesterol",mg,--,--,0,0
Amino Acids
Other
Ingredients
"SUNFLOWER KERNELS, SUNFLOWER OIL, SALT." Date available: 10/14/2017 Date last updated by company: 10/14/2017
