Source: USDA Branded Food Products Database Release December 2017 Software v.3.8.6.4 2017-10-02
Report Run at: December 18, 2017 08:59 EST
"Nutrient data for: 45141130, SUNFLOWER SEEDS, UPC: 026200423883"
Food Group:  Branded Food Products Database
Common Name:

Nutrient,Unit,Data points,Std. Error,"0.25 cup = 30.0g",1Value per 100 g,
Proximates
"Energy",kcal,--,--,190,633
"Protein",g,--,--,9.00,30.00
"Total lipid (fat)",g,--,--,15.00,50.00
"Carbohydrate, by difference",g,--,--,5.00,16.67
"Fiber, total dietary",g,--,--,3.0,10.0
"Sugars, total",g,--,--,1.00,3.33
Minerals
"Calcium, Ca",mg,--,--,20,67
"Iron, Fe",mg,--,--,1.08,3.60
"Magnesium, Mg",mg,--,--,120,400
"Phosphorus, P",mg,--,--,250,833
"Sodium, Na",mg,--,--,140,467
"Zinc, Zn",mg,--,--,1.50,5.00
Vitamins
Lipids
"Fatty acids, total saturated",g,--,--,1.500,5.000
"Fatty acids, total monounsaturated",g,--,--,6.000,20.000
"Fatty acids, total polyunsaturated",g,--,--,6.999,23.330
"Fatty acids, total trans",g,--,--,0.000,0.000
"Cholesterol",mg,--,--,0,0
Amino Acids
Other
Ingredients
"SUNFLOWER SEEDS, SALT, PARTIALLY HYDROGENATED SOYBEAN OIL, LESS THAN 2% OF: SUGAR ONION POWDER, BLACK PEPPER, YEAST EXTRACT, GARLIC POWDER, CITRIC ACID, NATURAL FLAVOR." Date available: 11/28/2016 Date last updated by company: 11/28/2016
