Source: USDA Branded Food Products Database Release December 2017 Software v.3.8.6.4 2017-10-02
Report Run at: December 18, 2017 08:59 EST
"Nutrient data for: 45151072, SUNFLOWER SEEDS, UPC: 028400332712"
Food Group:  Branded Food Products Database
Common Name:

Nutrient,Unit,Data points,Std. Error,"1 ONZ = 28.0g",1Value per 100 g,
Proximates
"Energy",kcal,--,--,150,536
"Protein",g,--,--,5.00,17.86
"Total lipid (fat)",g,--,--,12.00,42.86
"Carbohydrate, by difference",g,--,--,7.00,25.00
"Fiber, total dietary",g,--,--,3.0,10.7
"Sugars, total",g,--,--,2.00,7.14
Minerals
"Calcium, Ca",mg,--,--,0,0
"Iron, Fe",mg,--,--,0.72,2.57
"Potassium, K",mg,--,--,200,714
"Sodium, Na",mg,--,--,880,3143
Vitamins
"Vitamin C, total ascorbic acid",mg,--,--,0.0,0.0
"Vitamin A, IU",IU,--,--,0,0
Lipids
"Fatty acids, total saturated",g,--,--,1.501,5.360
"Fatty acids, total monounsaturated",g,--,--,2.500,8.930
"Fatty acids, total polyunsaturated",g,--,--,8.000,28.570
"Fatty acids, total trans",g,--,--,0.000,0.000
"Cholesterol",mg,--,--,0,0
Amino Acids
Other
Ingredients
"SUNFLOWER SEEDS, SALT, SUGAR, VEGETABLE OIL (OLIVE, CANOLA AND/OR SUNFLOWER OIL), SEA SALT, MEDIUM CHAIN TRIGLYCERIDES, NATURAL AND ARTIFICIAL FLAVORS (NATURAL AND ARTIFICIAL CARAMEL FLAVOR), AND SUCRALOSE." Date available: 11/05/2016 Date last updated by company: 11/05/2016
