Source: USDA Branded Food Products Database Release December 2017 Software v.3.8.6.4 2017-10-02
Report Run at: December 18, 2017 09:01 EST
"Nutrient data for: 45321457, SUNKIST FRT FLVRD SNCKS MIXED FRUIT VALUE PK, UNPREPARED, GTIN: 00016000494336"
Food Group:  Branded Food Products Database
Common Name:

Nutrient,Unit,Data points,Std. Error,"1 pouch (23g) = 23.0g",1Value per 100 g,
Proximates
"Energy",kcal,--,--,80,348
"Protein",g,--,--,0.00,0.00
"Total lipid (fat)",g,--,--,0.00,0.00
"Carbohydrate, by difference",g,--,--,19.00,82.61
"Fiber, total dietary",g,--,--,0.0,0.0
"Sugars, total",g,--,--,9.00,39.13
Minerals
"Calcium, Ca",mg,--,--,0,0
"Iron, Fe",mg,--,--,0.00,0.00
"Sodium, Na",mg,--,--,30,130
Vitamins
"Vitamin C, total ascorbic acid",mg,--,--,60.0,260.9
"Vitamin A, IU",IU,--,--,0,0
Lipids
"Fatty acids, total saturated",g,--,--,0.000,0.000
"Fatty acids, total trans",g,--,--,0.000,0.000
"Cholesterol",mg,--,--,0,0
Amino Acids
Other
Ingredients
"CORN SYRUP, SUGAR, MODIFIED CORN STARCH, PEAR JUICE CONCENTRATE, APPLE JUICE CONCENTRATE. CONTAINS 2% OR LESS OF: CITRIC ACID, VITAMIN C (ASCORBIC ACID), FRUIT PECTIN, SODIUM CITRATE, MALIC ACID, DEXTROSE, SUNFLOWER OIL?, COLOR (VEGETABLE JUICE, SPIRULINA EXTRACT, FRUIT JUICE, ANNATTO EXTRACT, AND TURMERIC EXTRACT), NATURAL FLAVOR, CARNAUBA WAX.?ADDS A TRIVIAL AMOUNT OF FAT" Date available: 10/13/2017 Date last updated by company: 10/12/2017
