Source: USDA Branded Food Products Database Release December 2017 Software v.3.8.6.4 2017-10-02
Report Run at: December 18, 2017 09:04 EST
"Nutrient data for: 45138434, SUNNY D, CITRUS PUNCH, GRAPE, UPC: 050200593000"
Food Group:  Branded Food Products Database
Common Name:

Nutrient,Unit,Data points,Std. Error,"1 BOTTLE = 200.0g",1Value per 100 g,
Proximates
"Energy",kcal,--,--,50,25
"Protein",g,--,--,0.00,0.00
"Total lipid (fat)",g,--,--,0.00,0.00
"Carbohydrate, by difference",g,--,--,12.00,6.00
"Sugars, total",g,--,--,12.00,6.00
Minerals
"Sodium, Na",mg,--,--,116,58
Vitamins
"Vitamin C, total ascorbic acid",mg,--,--,86.4,43.2
"Thiamin",mg,--,--,0.000,0.000
Lipids
Amino Acids
Other
Ingredients
"CONTAINS: WATER, CORN SYRUP AND 2% OR LESS OF EACH OF THE FOLLOWING: CONCENTRATED JUICES (ORANGE, APPLE, GRAPEFRUIT, TANGERINE, LIME), CITRIC ACID, MALIC ACID, ASCORBIC ACID (VITAMIN C), THIAMIN HYDROCHLORIDE (VITAMIN B1), NATURAL AND ARTIFICIAL FLAVORS, MODIFIED CORNSTARCH, CANOLA OIL, CELLULOSE GUM, SUCRALOSE, SODIUM HEXAMETAPHOSPHATE, POTASSIUM SORBATE TO PROTECT FLAVOR, RED #40 AND BLUE #1." Date available: 07/14/2017 Date last updated by company: 07/14/2017
