Source: USDA Branded Food Products Database Release December 2017 Software v.3.8.6.4 2017-10-02
Report Run at: December 18, 2017 09:07 EST
"Nutrient data for: 45138394, SUNNY D, TANGY ORIGINAL CITRUS PUNCH, ORANGE, UPC: 050200012204"
Food Group:  Branded Food Products Database
Common Name:

Nutrient,Unit,Data points,Std. Error,"1 BOTTLE = 200.0g",1Value per 100 g,
Proximates
"Energy",kcal,--,--,50,25
"Protein",g,--,--,0.00,0.00
"Total lipid (fat)",g,--,--,0.00,0.00
"Carbohydrate, by difference",g,--,--,12.00,6.00
"Sugars, total",g,--,--,11.00,5.50
Minerals
"Sodium, Na",mg,--,--,136,68
Vitamins
"Vitamin C, total ascorbic acid",mg,--,--,57.6,28.8
"Thiamin",mg,--,--,0.000,0.000
Lipids
Amino Acids
Other
Ingredients
"WATER, HIGH FRUCTOSE CORN SYRUP AND 2% OR LESS OF EACH OF THE FOLLOWING: CONCENTRATED JUICES (ORANGE, TANGERINE, APPLE, LIME, GRAPEFRUIT, PEAR), CITRIC ACID, ASCORBIC ACID (VITAMIN C), THIAMIN HYDROCHLORIDE (VITAMIN B1), NATURAL FLAVORS, MODIFIED CORNSTARCH, CANOLA OIL, SODIUM CITRATE, CELLULOSE GUM, SUCRALOSE, ACESULFAME POTASSIUM, NEOTAME, SODIUM HEXAMETAPHOSPHATE, POTASSIUM SORBATE TO PROTECT FLAVOR, YELLOW #5, YELLOW #6." Date available: 08/29/2017 Date last updated by company: 08/29/2017
