Source: USDA Branded Food Products Database Release December 2017 Software v.3.8.6.4 2017-10-02
Report Run at: December 18, 2017 09:17 EST
"Nutrient data for: 45005433, SUNRISE GROWERS, PURE FRUIT SMOOTHIES, STRAWBERRY BANANA SPLASH, UPC: 787810000160"
Food Group:  Branded Food Products Database
Common Name:

Nutrient,Unit,Data points,Std. Error,"0.5 POUCH = 120.0g",1Value per 100 g,
Proximates
"Energy",kcal,--,--,130,108
"Protein",g,--,--,1.00,0.83
"Total lipid (fat)",g,--,--,0.00,0.00
"Carbohydrate, by difference",g,--,--,30.00,25.00
"Fiber, total dietary",g,--,--,2.0,1.7
"Sugars, total",g,--,--,28.00,23.33
Minerals
"Calcium, Ca",mg,--,--,20,17
"Iron, Fe",mg,--,--,0.42,0.35
"Potassium, K",mg,--,--,200,167
"Sodium, Na",mg,--,--,0,0
Vitamins
"Vitamin C, total ascorbic acid",mg,--,--,42.0,35.0
"Vitamin A, IU",IU,--,--,0,0
Lipids
"Fatty acids, total saturated",g,--,--,0.000,0.000
"Fatty acids, total trans",g,--,--,0.000,0.000
"Cholesterol",mg,--,--,0,0
Amino Acids
Other
Ingredients
"STRAWBERRIES, INVERT SUGAR SYRUP, BANANAS, ASCORBIC AND CITRIC ACIDS (TO RETAIN COLOR)." Date available: 06/25/2017 Date last updated by company: 06/25/2017
