Source: USDA Branded Food Products Database Release December 2017 Software v.3.8.6.4 2017-10-02
Report Run at: December 18, 2017 09:18 EST
"Nutrient data for: 45166247, SUNRISE NATURAL FOODS, GUMMI BEARS, WILD FRUIT, UPC: 780562870364"
Food Group:  Branded Food Products Database
Common Name:

Nutrient,Unit,Data points,Std. Error,"12.0 PCS = 40.0g",1Value per 100 g,
Proximates
"Energy",kcal,--,--,120,300
"Protein",g,--,--,2.00,5.00
"Total lipid (fat)",g,--,--,0.00,0.00
"Carbohydrate, by difference",g,--,--,30.00,75.00
"Fiber, total dietary",g,--,--,0.0,0.0
"Sugars, total",g,--,--,19.00,47.50
Minerals
"Sodium, Na",mg,--,--,10,25
Vitamins
Lipids
"Fatty acids, total saturated",g,--,--,0.000,0.000
"Fatty acids, total trans",g,--,--,0.000,0.000
"Cholesterol",mg,--,--,0,0
Amino Acids
Other
Ingredients
"CORN SYRUP, SUGAR, GELATIN. CITRIC ACID, SORBITOL, NATURAL AND ARTIFICIAL FLAVORS, PECTIN, FD&C YELLOW #5, YELLOW #6, BLUE #1, RED #40, VEGETABLE OIL (COCONUT), CARNAUBA WAX (USED FOR ANTI-STICKING)." Date available: 07/14/2017 Date last updated by company: 07/14/2017
