Source: USDA Branded Food Products Database Release December 2017 Software v.3.8.6.4 2017-10-02
Report Run at: December 18, 2017 09:14 EST
"Nutrient data for: 45024966, SUNRIDGE, DARK CHOCOLATE COCONUT CHEWS, UPC: 000000018500"
Food Group:  Branded Food Products Database
Common Name:

Nutrient,Unit,Data points,Std. Error,"4.0 | ABOUT = 40.0g",1Value per 100 g,
Proximates
"Energy",kcal,--,--,200,500
"Protein",g,--,--,2.00,5.00
"Total lipid (fat)",g,--,--,14.00,35.00
"Carbohydrate, by difference",g,--,--,21.00,52.50
"Fiber, total dietary",g,--,--,3.0,7.5
"Sugars, total",g,--,--,15.00,37.50
Minerals
"Iron, Fe",mg,--,--,0.72,1.80
"Sodium, Na",mg,--,--,20,50
Vitamins
Lipids
"Fatty acids, total saturated",g,--,--,10.000,25.000
Amino Acids
Other
Ingredients
"COCONUT BAR (COCONUT, BROWN RICE SYRUP), DARK CHOCOLATE COATING (UNSWEETENED CHOCOLATE, DEHYDRATED CANE JUICE, COCOA BUTTER, SOY LECITHIN [AS AN EMULSIFIER], NATURAL VANILLA)." Date available: 07/14/2017 Date last updated by company: 07/14/2017
