Source: USDA Branded Food Products Database Release December 2017 Software v.3.8.6.4 2017-10-02
Report Run at: December 18, 2017 09:15 EST
"Nutrient data for: 45164489, SUNRIPE, CALIFORNIA ALMONDS, UPC: 070533000075"
Food Group:  Branded Food Products Database
Common Name:

Nutrient,Unit,Data points,Std. Error,"1 ONZ = 28.35g",1Value per 100 g,
Proximates
"Energy",kcal,--,--,150,529
"Protein",g,--,--,7.00,24.69
"Total lipid (fat)",g,--,--,13.00,45.86
"Carbohydrate, by difference",g,--,--,5.00,17.64
"Fiber, total dietary",g,--,--,4.0,14.1
"Sugars, total",g,--,--,1.00,3.53
Minerals
"Calcium, Ca",mg,--,--,100,353
"Iron, Fe",mg,--,--,2.54,8.96
"Sodium, Na",mg,--,--,0,0
Vitamins
"Vitamin C, total ascorbic acid",mg,--,--,0.0,0.0
"Vitamin A, IU",IU,--,--,0,0
Lipids
"Fatty acids, total saturated",g,--,--,1.001,3.530
"Fatty acids, total trans",g,--,--,0.000,0.000
"Cholesterol",mg,--,--,0,0
Amino Acids
Other
Ingredients
"CONTENTS: ALMONDS." Date available: 07/14/2017 Date last updated by company: 07/14/2017
