Source: USDA Branded Food Products Database Release December 2017 Software v.3.8.6.4 2017-10-02
Report Run at: December 18, 2017 09:20 EST
"Nutrient data for: 45164952, SUNRISE, SOUR NEON WORMS, UPC: 076500077200"
Food Group:  Branded Food Products Database
Common Name:

Nutrient,Unit,Data points,Std. Error,"9.0 PIECES = 42.0g",1Value per 100 g,
Proximates
"Energy",kcal,--,--,140,333
"Protein",g,--,--,2.00,4.76
"Total lipid (fat)",g,--,--,0.00,0.00
"Carbohydrate, by difference",g,--,--,32.00,76.19
"Fiber, total dietary",g,--,--,0.0,0.0
"Sugars, total",g,--,--,24.00,57.14
Minerals
"Calcium, Ca",mg,--,--,0,0
"Iron, Fe",mg,--,--,0.00,0.00
"Sodium, Na",mg,--,--,10,24
Vitamins
"Vitamin C, total ascorbic acid",mg,--,--,0.0,0.0
"Vitamin A, IU",IU,--,--,0,0
Lipids
"Fatty acids, total saturated",g,--,--,0.000,0.000
"Fatty acids, total trans",g,--,--,0.000,0.000
"Cholesterol",mg,--,--,0,0
Amino Acids
Other
Ingredients
"SUGAR, CORN SYRUP, GELATIN, FUMARIC ACID, WHITE GRAPE JUICE FROM CONCENTRATE, CITRIC ACID, LACTIC ACID, CALCIUM LACTATE, TITANIUM DIOXIDE (FOR COLOR), SILICON DIOXIDE (ANTICAKING AGENT), NATURAL AND ARTIFICIAL FLAVORS, ARTIFICIAL COLORS INCLUDING (RED 40, YELLOW 6, YELLOW 5, BLUE 1)." Date available: 07/14/2017 Date last updated by company: 07/14/2017
