Source: USDA Branded Food Products Database Release December 2017 Software v.3.8.6.4 2017-10-02
Report Run at: December 18, 2017 09:16 EST
"Nutrient data for: 45144056, SUNRISE, BLACK JELLY EGGS CANDIES, UPC: 076500162845"
Food Group:  Branded Food Products Database
Common Name:

Nutrient,Unit,Data points,Std. Error,"14.0 PIECES = 42.0g",1Value per 100 g,
Proximates
"Energy",kcal,--,--,150,357
"Protein",g,--,--,0.00,0.00
"Total lipid (fat)",g,--,--,0.00,0.00
"Carbohydrate, by difference",g,--,--,38.00,90.48
"Sugars, total",g,--,--,34.00,80.95
Minerals
"Sodium, Na",mg,--,--,0,0
Vitamins
Lipids
Amino Acids
Other
Ingredients
"SUGAR, CORN SYRUP, CORN STARCH, MODIFIED CORN STARCH, MALTODEXTRIN, ARTIFICIAL FLAVOR, CONFECTIONER'S GLAZE, CARNAUBA WAX, BEESWAX, ARTIFICIAL COLORS INCLUDING (RED 40, BLUE 1, YELLOW 6, YELLOW 5)." Date available: 07/14/2017 Date last updated by company: 07/14/2017
