Source: USDA Branded Food Products Database Release December 2017 Software v.3.8.6.4 2017-10-02
Report Run at: December 18, 2017 09:34 EST
"Nutrient data for: 45025116, SUNSTART QUALITY BAKERS, GINGER GOLEN CRUNCH COOKIE, UPC: 877099000149"
Food Group:  Branded Food Products Database
Common Name:

Nutrient,Unit,Data points,Std. Error,"1 COOKIE = 16.6g",1Value per 100 g,
Proximates
"Energy",kcal,--,--,85,512
"Protein",g,--,--,1.00,6.02
"Total lipid (fat)",g,--,--,4.00,24.10
"Carbohydrate, by difference",g,--,--,9.00,54.22
"Fiber, total dietary",g,--,--,1.0,6.0
"Sugars, total",g,--,--,4.00,24.10
Minerals
"Calcium, Ca",mg,--,--,0,0
"Iron, Fe",mg,--,--,0.00,0.00
"Sodium, Na",mg,--,--,10,60
Vitamins
"Vitamin C, total ascorbic acid",mg,--,--,1.8,10.9
"Vitamin A, IU",IU,--,--,0,0
Lipids
"Fatty acids, total saturated",g,--,--,3.000,18.070
"Fatty acids, total trans",g,--,--,0.000,0.000
"Cholesterol",mg,--,--,0,0
Amino Acids
Other
Ingredients
"FLOUR BASE (BROWN RICE FLAKES, MILLET FLAKES, CORN STARCH, POTATO STARCH, XANTHAN GUM), DESICCATED COCONUT, NATURALLY EVAPORATED CANE SUGAR, STEM GINGER, MOLASSES, NON HYDROGENATED PALM OIL, RICE SYRUP, GOLDEN SYRUP." Date available: 07/14/2017 Date last updated by company: 07/14/2017
