Source: USDA Branded Food Products Database Release December 2017 Software v.3.8.6.4 2017-10-02
Report Run at: December 18, 2017 10:09 EST
"Nutrient data for: 45086350, SUPER PREMIUM FOUNTAIN ICE CREAM, UPC: 035900286797"
Food Group:  Branded Food Products Database
Common Name:

Nutrient,Unit,Data points,Std. Error,"0.5 cup = 70.0g",1Value per 100 g,
Proximates
"Energy",kcal,--,--,170,243
"Protein",g,--,--,3.00,4.29
"Total lipid (fat)",g,--,--,11.00,15.71
"Carbohydrate, by difference",g,--,--,17.00,24.29
"Fiber, total dietary",g,--,--,0.0,0.0
"Sugars, total",g,--,--,15.00,21.43
Minerals
"Calcium, Ca",mg,--,--,100,143
"Iron, Fe",mg,--,--,0.00,0.00
"Sodium, Na",mg,--,--,45,64
Vitamins
"Vitamin C, total ascorbic acid",mg,--,--,1.3,1.9
"Vitamin A, IU",IU,--,--,562,803
Lipids
"Fatty acids, total saturated",g,--,--,7.000,10.000
"Fatty acids, total trans",g,--,--,0.000,0.000
"Cholesterol",mg,--,--,30,43
Amino Acids
Other
Ingredients
"FRESH MILK, FRESH CREAM, SUGAR, CORN SYRUP SOLIDS, NONFAT MILK, CHOCOLATE COATING FLAKES (SUGAR, COCONUT OIL, COCOA {PROCESSED WITH ALKALI}, PARTIALLY HYDROGENATED COCONUT OIL, COCOA, SALT, SOY LECITHIN, NATURAL FLAVOR), CORN SYRUP, MONO AND DIGLYCERIDES, CELLULOSE GEL, CELLULOSE GUM, LOCUST BEAN GUM, CARRAGEENAN, SUGAR, CREAM, WATER, MILK, SALT, BUTTER, FOOD STARCH-MODIFIED, BROWN SUGAR, VANILLA (WATER, VANILLA BEAN EXTRACTIVES), SEA SALT, WHEY (MILK), NON-FAT MILK POWDER, GUM ACACIA, XANTHAN GUM, RAISIN JUICE CONCENTRATE, SOY LECITHIN-AN EMULSIFIER." Date available: 07/14/2017 Date last updated by company: 07/14/2017
