Source: USDA Branded Food Products Database Release December 2017 Software v.3.8.6.4 2017-10-02
Report Run at: December 18, 2017 10:14 EST
"Nutrient data for: 45278360, SUPER SIZED 12-INCH FLOUR TORTILLAS, UPC: 07078400808"
Food Group:  Branded Food Products Database
Common Name:

Nutrient,Unit,Data points,Std. Error,"1 TORTILLA = 100.0g",1Value per 100 g,
Proximates
"Energy",kcal,--,--,280,280
"Protein",g,--,--,7.00,7.00
"Total lipid (fat)",g,--,--,6.00,6.00
"Carbohydrate, by difference",g,--,--,48.00,48.00
"Fiber, total dietary",g,--,--,2.0,2.0
"Sugars, total",g,--,--,1.00,1.00
Minerals
"Calcium, Ca",mg,--,--,100,100
"Iron, Fe",mg,--,--,1.49,1.49
"Sodium, Na",mg,--,--,530,530
Vitamins
"Vitamin C, total ascorbic acid",mg,--,--,0.0,0.0
"Vitamin A, IU",IU,--,--,0,0
Lipids
"Fatty acids, total saturated",g,--,--,1.500,1.500
"Fatty acids, total monounsaturated",g,--,--,1.500,1.500
"Fatty acids, total polyunsaturated",g,--,--,1.500,1.500
"Fatty acids, total trans",g,--,--,0.000,0.000
"Cholesterol",mg,--,--,0,0
Amino Acids
Other
Ingredients
"UNBLEACHED ENRICHED FLOUR (WHEAT FLOUR, MALTED BARLEY FLOUR, NIACIN, REDUCED IRON, THIAMIN MONONITRATE [VITAMIN B1], RIBOFLAVIN [VITAMIN B2]FOLIC ACID), WATER, PALM OIL, SALT, MONO- AND DIGLYCERIDES, WHEAT FLOUR, SODIUM BICARBONATE, CALCIUM PROPIONATE, SODIUM ALUMINUM SULFATE, DEXTROSE, FUMARIC ACID, SODIUM ALUMINUM PHOSPHATE, POTASSIUM SORBATE, CORN STARCH, MONOCALCIUM PHOSPHATE, CALCIUM SULFATE, CONTAINS LESS THAN 2% OF THE FOLLOWING: CELLULOSE, CMC GUM, SODIUM METABISULFITE, WHEAT STARCH, SOYBEAN OIL, HYDROGENATED SOYBEAN OIL, MONOCALCIUM PHOSPHATE, XANTHAN GUM, ENZYMES." Date available: 07/14/2017 Date last updated by company: 07/14/2017
