Source: USDA Branded Food Products Database Release December 2017 Software v.3.8.6.4 2017-10-02
Report Run at: December 18, 2017 09:49 EST
"Nutrient data for: 45104807, SUPERFOOD CEREAL, UPC: 813700020014"
Food Group:  Branded Food Products Database
Common Name:

Nutrient,Unit,Data points,Std. Error,"50.0 GRM = 50.0g",1Value per 100 g,
Proximates
"Energy",kcal,--,--,202,404
"Protein",g,--,--,5.00,10.00
"Total lipid (fat)",g,--,--,9.00,18.00
"Carbohydrate, by difference",g,--,--,30.00,60.00
"Fiber, total dietary",g,--,--,5.0,10.0
"Sugars, total",g,--,--,13.00,26.00
Minerals
"Calcium, Ca",mg,--,--,30,60
"Iron, Fe",mg,--,--,2.58,5.15
"Sodium, Na",mg,--,--,37,74
Vitamins
"Vitamin C, total ascorbic acid",mg,--,--,0.7,1.3
"Vitamin A, IU",IU,--,--,0,0
Lipids
"Fatty acids, total saturated",g,--,--,6.000,12.000
"Fatty acids, total trans",g,--,--,0.000,0.000
"Cholesterol",mg,--,--,0,0
Amino Acids
Other
Ingredients
"ORGANIC BUCKWHEAT SPROUTS, ORGANIC COCONUT, ORGANIC COCONUT PALM SUGAR, ORGANIC SUNFLOWER SPROUTS, CACAO SUPERFOOD BLEND (ORGANIC CACAO POWDER, ORGANIC MACA ROOT, ORGANIC MESQUITE POD POWDER, ORGANIC ASTRAGALUS, AND ORGANIC FREEZE DRIED REISHI MYCELIUM),ORGANIC DATES, ORGANIC RAISINS, RAW BROWN RICE BRAN & GERM (GRAIN FREE), ORGANIC GOLDEN FLAX MEAL, ORGANIC CACAO BUTTER, ORGANIC VANILLA EXTRACT, AND HIMALAYAN CRYSTAL SALT." Date available: 06/25/2017 Date last updated by company: 06/25/2017
