Source: USDA Branded Food Products Database Release December 2017 Software v.3.8.6.4 2017-10-02
Report Run at: December 18, 2017 10:04 EST
"Nutrient data for: 45029523, SUPERIOR NUT & CANDY, SURVIVAL TRAIL MIX, UPC: 722648715602"
Food Group:  Branded Food Products Database
Common Name:

Nutrient,Unit,Data points,Std. Error,"0.25 cup = 34.0g",1Value per 100 g,
Proximates
"Energy",kcal,--,--,120,353
"Protein",g,--,--,2.00,5.88
"Total lipid (fat)",g,--,--,6.00,17.65
"Carbohydrate, by difference",g,--,--,15.00,44.12
"Fiber, total dietary",g,--,--,1.0,2.9
"Sugars, total",g,--,--,10.00,29.41
Minerals
"Calcium, Ca",mg,--,--,40,118
"Iron, Fe",mg,--,--,0.00,0.00
"Sodium, Na",mg,--,--,10,29
Vitamins
"Vitamin C, total ascorbic acid",mg,--,--,0.0,0.0
"Vitamin A, IU",IU,--,--,0,0
Lipids
"Fatty acids, total saturated",g,--,--,1.999,5.880
"Fatty acids, total trans",g,--,--,0.000,0.000
"Cholesterol",mg,--,--,0,0
Amino Acids
Other
Ingredients
"ALMONDS (NATURAL, BLANCHED), DRIED CRANBERRIES (CRANBERRIES, SUGAR, CITRIC ACID, ELDERBERRY JUICE CONCENTRATE, SUNFLOWER OIL), DARK RAISINS, GOLDEN RAISINS (RAISINS, SULFUR DIOXIDE ADDED AS A PRESERVATIVE), DRIED CHERRIES (CHERRIES, SUGAR, SUNFLOWER OIL), DRIED CURRANTS." Date available: 10/13/2017 Date last updated by company: 10/13/2017
