Source: USDA Branded Food Products Database Release December 2017 Software v.3.8.6.4 2017-10-02
Report Run at: December 18, 2017 10:01 EST
"Nutrient data for: 45029515, SUPERIOR NUT & CANDY, CRANBERRY HEALTH MIX, UPC: 722648715633"
Food Group:  Branded Food Products Database
Common Name:

Nutrient,Unit,Data points,Std. Error,"0.25 cup = 32.0g",1Value per 100 g,
Proximates
"Energy",kcal,--,--,180,562
"Protein",g,--,--,4.00,12.50
"Total lipid (fat)",g,--,--,11.00,34.38
"Carbohydrate, by difference",g,--,--,17.00,53.12
"Fiber, total dietary",g,--,--,2.0,6.2
"Sugars, total",g,--,--,13.00,40.62
Minerals
"Calcium, Ca",mg,--,--,60,188
"Iron, Fe",mg,--,--,0.00,0.00
"Sodium, Na",mg,--,--,10,31
Vitamins
"Vitamin C, total ascorbic acid",mg,--,--,0.0,0.0
"Vitamin A, IU",IU,--,--,0,0
Lipids
"Fatty acids, total saturated",g,--,--,2.000,6.250
"Fatty acids, total trans",g,--,--,0.000,0.000
"Cholesterol",mg,--,--,0,0
Amino Acids
Other
Ingredients
"PEANUTS, DRIED CRANBERRIES (CRANBERRIES, SUGAR, SUNFLOWER OIL), SUNFLOWER KERNELS, DARK RAISINS, PUMPKIN KERNELS, COTTONSEED AND PEANUT AND COCONUT OILS." Date available: 06/24/2017 Date last updated by company: 06/24/2017
