Source: USDA Branded Food Products Database Release December 2017 Software v.3.8.6.4 2017-10-02
Report Run at: December 18, 2017 10:10 EST
"Nutrient data for: 45216585, SUPER PREMIUM ICE CREAM, UPC: 643130820133"
Food Group:  Branded Food Products Database
Common Name:

Nutrient,Unit,Data points,Std. Error,"0.5 cup = 87.0g",1Value per 100 g,
Proximates
"Energy",kcal,--,--,270,310
"Protein",g,--,--,4.00,4.60
"Total lipid (fat)",g,--,--,18.00,20.69
"Carbohydrate, by difference",g,--,--,24.00,27.59
"Fiber, total dietary",g,--,--,2.0,2.3
"Sugars, total",g,--,--,20.00,22.99
Minerals
"Calcium, Ca",mg,--,--,80,92
"Iron, Fe",mg,--,--,0.00,0.00
"Sodium, Na",mg,--,--,45,52
Vitamins
"Vitamin C, total ascorbic acid",mg,--,--,0.0,0.0
"Vitamin A, IU",IU,--,--,450,517
Lipids
"Fatty acids, total saturated",g,--,--,9.996,11.490
"Fatty acids, total trans",g,--,--,0.000,0.000
"Cholesterol",mg,--,--,50,57
Amino Acids
Other
Ingredients
"CREAM, SKIM MILK, SUGAR, CHOCOLATE SYRUP (SOYBEAN OIL, COCOA, CONFECTIONERS SUGAR, COCOA PROCESSED WITH ALKALI), CHOCOLATE FLAVORED CHIPS (SUGAR, CHOCOLATE LIQUOR, COCONUT OIL, SOY LECITHIN, SALT, NATURAL FLAVOR, MILK), CONTAINS 2% OR LESS OF LOCUST BEAN GUM, GUAR GUM, CARRAGEENAN." Date available: 07/14/2017 Date last updated by company: 07/14/2017
