Source: USDA Branded Food Products Database Release December 2017 Software v.3.8.6.4 2017-10-02
Report Run at: December 18, 2017 09:56 EST
"Nutrient data for: 45239036, SUPER FRUIT DRESSING, UPC: 728028009637"
Food Group:  Branded Food Products Database
Common Name:

Nutrient,Unit,Data points,Std. Error,"2.0 Tbsp = 30.0g",1Value per 100 g,
Proximates
"Energy",kcal,--,--,10,33
"Protein",g,--,--,0.00,0.00
"Total lipid (fat)",g,--,--,0.00,0.00
"Carbohydrate, by difference",g,--,--,3.00,10.00
"Fiber, total dietary",g,--,--,0.0,0.0
"Sugars, total",g,--,--,2.00,6.67
Minerals
"Calcium, Ca",mg,--,--,0,0
"Iron, Fe",mg,--,--,0.00,0.00
"Sodium, Na",mg,--,--,45,150
Vitamins
"Vitamin C, total ascorbic acid",mg,--,--,0.0,0.0
"Vitamin A, IU",IU,--,--,0,0
Lipids
"Fatty acids, total saturated",g,--,--,0.000,0.000
"Fatty acids, total trans",g,--,--,0.000,0.000
"Cholesterol",mg,--,--,0,0
Amino Acids
Other
Ingredients
"WATER, ORGANIC CIDER VINEGAR, ORGANIC POMEGRANATE JUICE CONCENTRATE, ORGANIC HONEY, ORGANIC RASPBERRIES, ORGANIC BLUE AGAVE NECTAR, ORGANIC TAPIOCA STARCH, ORGANIC RED GRAPE JUICE CONCENTRATE, ORGANIC MAQUI CONCENTRATE, ORGANIC HIBISCUS FLOWER, SEA SALT, XANTHAN GUM, ORGANIC SPICE EXTRACT." Date available: 07/14/2017 Date last updated by company: 07/14/2017
