Source: USDA Branded Food Products Database Release December 2017 Software v.3.8.6.4 2017-10-02
Report Run at: December 18, 2017 09:47 EST
"Nutrient data for: 45049946, SUPER DIETER'S TEA HERBAL DIETARY SUPPLEMENT, UPC: 080987010681"
Food Group:  Branded Food Products Database
Common Name:

Nutrient,Unit,Data points,Std. Error,"1.32 oz = 38.0g",1Value per 100 g,
Proximates
Minerals
Vitamins
"Vitamin C, total ascorbic acid",mg,--,--,30.0,78.9
Lipids
Amino Acids
Other
Ingredients
"OTHER INGREDIENTS - HIBISCUS FLOWER (HIBISCUS SABDARIFFA), CRANBERRY TWIST WITH OTHER NATURAL FLAVORS, ORANGE PEEL (CITRUS SINENSIS), CITRIC ACID, LICORICE ROOT (GLYCYRRHIZA GLABRA), MARSHMALLOW ROOT (ALTHAEA OFFICINALIS), CHRYSANTHEMUM FLOWER (CHRYSANTHEMUM MORIFOLIUM), ELEUTHERO ROOT (ELEUTHEROCCUS SENTICOAUA), JAPANESE HONEYSUCKLE FLOWER (LONICERA JAPONICA), PAPAYA LEAF (CARICA PAPAYA)." Date last updated by company: 06/09/2014
