Source: USDA Branded Food Products Database Release December 2017 Software v.3.8.6.4 2017-10-02
Report Run at: December 18, 2017 09:56 EST
"Nutrient data for: 45221683, SUPER FRITA CUBANA, CARIBBEAN BRAND PATTIES WITH CARIBBEAN BRAND SAUCE, UPC: 833911002173"
Food Group:  Branded Food Products Database
Common Name:

Nutrient,Unit,Data points,Std. Error,"1 PATTY = 113.0g",1Value per 100 g,
Proximates
"Energy",kcal,--,--,350,310
"Protein",g,--,--,16.00,14.16
"Total lipid (fat)",g,--,--,25.00,22.12
"Carbohydrate, by difference",g,--,--,18.00,15.93
"Fiber, total dietary",g,--,--,0.0,0.0
"Sugars, total",g,--,--,0.00,0.00
Minerals
"Calcium, Ca",mg,--,--,20,18
"Iron, Fe",mg,--,--,2.63,2.33
"Sodium, Na",mg,--,--,720,637
Vitamins
Lipids
"Fatty acids, total saturated",g,--,--,6.995,6.190
"Fatty acids, total trans",g,--,--,0.000,0.000
"Cholesterol",mg,--,--,50,44
Amino Acids
Other
Ingredients
"PORK, BEEF, WATER, POTASSIUM LACTATE, PAPRIKA, ONION POWDER, SALT, BELL PEPPER, GARLIC POWDER, VINEGAR, BLACK PEPPER, CUMIN, LIQUID SMOKE, OLEORESIN PAPRIKA, MONOSODIUM GLUTAMATE, OREGANO, NUTMEG, CURE MIX, SODIUM ERYTHORBATE, CITRIC ACID, BHA, BHT." Date available: 10/19/2017 Date last updated by company: 10/19/2017
