Source: USDA Branded Food Products Database Release December 2017 Software v.3.8.6.4 2017-10-02
Report Run at: December 18, 2017 09:42 EST
"Nutrient data for: 45155283, SUPER CHILL, FLAVORED COLA, CHERRY, UPC: 041130209512"
Food Group:  Branded Food Products Database
Common Name:

Nutrient,Unit,Data points,Std. Error,"1 CAN = 355.0g",1Value per 100 g,
Proximates
"Energy",kcal,--,--,170,48
"Protein",g,--,--,0.00,0.00
"Total lipid (fat)",g,--,--,0.00,0.00
"Carbohydrate, by difference",g,--,--,45.01,12.68
"Sugars, total",g,--,--,45.01,12.68
Minerals
"Sodium, Na",mg,--,--,4,1
Vitamins
Lipids
Amino Acids
Other
Ingredients
"CARBONATED WATER, HIGH FRUCTOSE CORN SYRUP, CARAMEL COLOR, NATURAL FLAVOR, PHOSPHORIC ACID, CITRIC ACID, CAFFEINE." Date available: 07/14/2017 Date last updated by company: 07/14/2017
