Source: USDA Branded Food Products Database Release December 2017 Software v.3.8.6.4 2017-10-02
Report Run at: December 18, 2017 10:18 EST
"Nutrient data for: 45183101, SUPER SWEET YELLOW CORN, UPC: 070560923385"
Food Group:  Branded Food Products Database
Common Name:

Nutrient,Unit,Data points,Std. Error,"0.66 cup = 90.0g",1Value per 100 g,
Proximates
"Energy",kcal,--,--,100,111
"Protein",g,--,--,3.00,3.33
"Total lipid (fat)",g,--,--,1.00,1.11
"Carbohydrate, by difference",g,--,--,21.00,23.33
"Fiber, total dietary",g,--,--,1.0,1.1
"Sugars, total",g,--,--,7.00,7.78
Minerals
"Calcium, Ca",mg,--,--,0,0
"Iron, Fe",mg,--,--,0.00,0.00
"Sodium, Na",mg,--,--,0,0
Vitamins
"Vitamin C, total ascorbic acid",mg,--,--,3.4,3.8
"Vitamin A, IU",IU,--,--,0,0
Lipids
"Fatty acids, total saturated",g,--,--,0.000,0.000
"Fatty acids, total trans",g,--,--,0.000,0.000
"Cholesterol",mg,--,--,0,0
Amino Acids
Other
Ingredients
"CORN." Date available: 07/14/2017 Date last updated by company: 07/14/2017
