Source: USDA Branded Food Products Database Release December 2017 Software v.3.8.6.4 2017-10-02
Report Run at: December 18, 2017 09:50 EST
"Nutrient data for: 45008630, SUPERFOOD CEREAL, UPC: 804879452560"
Food Group:  Branded Food Products Database
Common Name:

Nutrient,Unit,Data points,Std. Error,"1 CONTAINER = 77.0g",1Value per 100 g,
Proximates
"Energy",kcal,--,--,250,325
"Protein",g,--,--,8.00,10.39
"Total lipid (fat)",g,--,--,6.00,7.79
"Carbohydrate, by difference",g,--,--,45.00,58.44
"Fiber, total dietary",g,--,--,7.0,9.1
"Sugars, total",g,--,--,10.00,12.99
Minerals
"Calcium, Ca",mg,--,--,40,52
"Iron, Fe",mg,--,--,1.76,2.28
"Sodium, Na",mg,--,--,20,26
Vitamins
"Vitamin C, total ascorbic acid",mg,--,--,3.1,4.0
Lipids
"Fatty acids, total saturated",g,--,--,2.002,2.600
Amino Acids
Other
Ingredients
"ROLLED OATS*, OAT FLOUR*, DRIED MULBERRIES*, COCONUT PALM SUGAR*, CACAO NIBS*, DRIED MAPLE SYRUP POWDER*, MESQUITE POWDER*, ROASTED GROUND ESPRESSO BEANS*, MACA ROOT POWDER*, LUCUMA POWDER*, HEMP PROTEIN POWDER*, CINNAMON*, VANILLA EXTRACT*" Date available: 10/04/2017 Date last updated by company: 10/04/2017
