Source: USDA Branded Food Products Database Release December 2017 Software v.3.8.6.4 2017-10-02
Report Run at: December 18, 2017 10:08 EST
"Nutrient data for: 45150394, SUPER LIGHTS STRAWBERRY LEMON-ADE, UPC: 854351005326"
Food Group:  Branded Food Products Database
Common Name:

Nutrient,Unit,Data points,Std. Error,"1 BOTTLE = 355.0g",1Value per 100 g,
Proximates
"Energy",kcal,--,--,39,11
"Protein",g,--,--,0.00,0.00
"Total lipid (fat)",g,--,--,0.00,0.00
"Carbohydrate, by difference",g,--,--,10.01,2.82
"Fiber, total dietary",g,--,--,1.1,0.3
"Sugars, total",g,--,--,10.01,2.82
Minerals
"Potassium, K",mg,--,--,199,56
"Sodium, Na",mg,--,--,14,4
Vitamins
Lipids
Amino Acids
Other
Ingredients
"ULTRA-PURIFIED WATER, ORGANIC STRAWBERRY PUREE, ORGANIC AGAVE, ORGANIC HAWAIIAN OANA TURMERIC, ORGANIC LEMON JUICE, ORGANIC GINGER, ORGANIC LEMON EXTRACT, SEA SALT, ORGANIC STEVIA REBIANA." Date available: 10/13/2017 Date last updated by company: 10/13/2017
