Source: USDA Branded Food Products Database Release December 2017 Software v.3.8.6.4 2017-10-02
Report Run at: December 18, 2017 09:59 EST
"Nutrient data for: 45325013, SUPER HYDRATION SPORTS DRINK, UPC: 786560663069"
Food Group:  Branded Food Products Database
Common Name:

Nutrient,Unit,Data points,Std. Error,"1 BOTTLE = 591.0g",1Value per 100 g,
Proximates
"Energy",kcal,--,--,118,20
"Protein",g,--,--,0.00,0.00
"Total lipid (fat)",g,--,--,0.00,0.00
"Carbohydrate, by difference",g,--,--,28.01,4.74
"Fiber, total dietary",g,--,--,1.2,0.2
"Sugars, total",g,--,--,22.99,3.89
Minerals
"Calcium, Ca",mg,--,--,18,3
"Iron, Fe",mg,--,--,0.00,0.00
"Magnesium, Mg",mg,--,--,12,2
"Phosphorus, P",mg,--,--,12,2
"Potassium, K",mg,--,--,230,39
"Sodium, Na",mg,--,--,112,19
Vitamins
"Vitamin C, total ascorbic acid",mg,--,--,36.6,6.2
"Vitamin A, IU",IU,--,--,0,0
Lipids
"Fatty acids, total saturated",g,--,--,0.000,0.000
"Fatty acids, total trans",g,--,--,0.000,0.000
"Cholesterol",mg,--,--,0,0
Amino Acids
Other
Ingredients
"WATER, SUGAR, COCONUT WATER CONCENTRATE, DEXTROSE, NATURAL FLAVORS, CITRIC ACID, GUM ARABIC, ASCORBIC ACID, SODIUM CITRATE, GREEN TEA CAFFEINE, BETA-CAROTENE (COLOR), STEVIA LEAF EXTRACT." Date available: 10/13/2017 Date last updated by company: 10/13/2017
