Source: USDA Branded Food Products Database Release December 2017 Software v.3.8.6.4 2017-10-02
Report Run at: December 18, 2017 10:17 EST
"Nutrient data for: 45293358, SUPER SWEET WHOLE KERNEL GOLD CORN, UPC: 07078404422"
Food Group:  Branded Food Products Database
Common Name:

Nutrient,Unit,Data points,Std. Error,"0.66 cup = 90.0g",1Value per 100 g,
Proximates
"Energy",kcal,--,--,80,89
"Protein",g,--,--,2.00,2.22
"Total lipid (fat)",g,--,--,1.00,1.11
"Carbohydrate, by difference",g,--,--,16.00,17.78
"Fiber, total dietary",g,--,--,2.0,2.2
"Sugars, total",g,--,--,6.00,6.67
Minerals
"Calcium, Ca",mg,--,--,0,0
"Iron, Fe",mg,--,--,0.00,0.00
"Potassium, K",mg,--,--,110,122
"Sodium, Na",mg,--,--,0,0
Vitamins
"Vitamin D",IU,--,--,0,0
Lipids
"Fatty acids, total saturated",g,--,--,0.000,0.000
"Fatty acids, total trans",g,--,--,0.000,0.000
"Cholesterol",mg,--,--,0,0
Amino Acids
Other
Ingredients
"CORN." Date available: 08/22/2017 Date last updated by company: 08/22/2017
