Source: USDA Branded Food Products Database Release December 2017 Software v.3.8.6.4 2017-10-02
Report Run at: December 18, 2017 10:15 EST
"Nutrient data for: 45279552, SUPER SQUEEZE CREAMY BLEND OF MILK & REAL FRUIT, UPC: 742365004841"
Food Group:  Branded Food Products Database
Common Name:

Nutrient,Unit,Data points,Std. Error,"1 POUCH = 99.0g",1Value per 100 g,
Proximates
"Energy",kcal,--,--,100,101
"Protein",g,--,--,5.00,5.05
"Total lipid (fat)",g,--,--,0.00,0.00
"Carbohydrate, by difference",g,--,--,17.00,17.17
"Fiber, total dietary",g,--,--,2.0,2.0
"Sugars, total",g,--,--,15.00,15.15
Minerals
"Calcium, Ca",mg,--,--,200,202
"Iron, Fe",mg,--,--,0.00,0.00
"Sodium, Na",mg,--,--,180,182
Vitamins
"Vitamin C, total ascorbic acid",mg,--,--,0.6,0.6
"Vitamin A, IU",IU,--,--,0,0
Lipids
"Fatty acids, total saturated",g,--,--,0.000,0.000
"Fatty acids, total trans",g,--,--,0.000,0.000
"Cholesterol",mg,--,--,5,5
Amino Acids
Other
Ingredients
"ORGANIC SKIM MILK, ORGANIC STRAWBERRY PUREE, ORGANIC CANE SUGAR, PECTIN, ORGANIC BLUEBERRY PUREE, CITRIC ACID, NATURAL FLAVOR." Date available: 09/08/2017 Date last updated by company: 09/08/2017
