Source: USDA Branded Food Products Database Release December 2017 Software v.3.8.6.4 2017-10-02
Report Run at: December 18, 2017 09:54 EST
"Nutrient data for: 45192397, SUPERFOOD SPINACH & KALE RAVIOLI, UPC: 742753366124"
Food Group:  Branded Food Products Database
Common Name:

Nutrient,Unit,Data points,Std. Error,"1 cup = 100.0g",1Value per 100 g,
Proximates
"Energy",kcal,--,--,220,220
"Protein",g,--,--,11.00,11.00
"Total lipid (fat)",g,--,--,7.00,7.00
"Carbohydrate, by difference",g,--,--,29.00,29.00
"Fiber, total dietary",g,--,--,2.0,2.0
"Sugars, total",g,--,--,2.00,2.00
Minerals
"Calcium, Ca",mg,--,--,200,200
"Iron, Fe",mg,--,--,2.02,2.02
"Sodium, Na",mg,--,--,220,220
Vitamins
"Vitamin C, total ascorbic acid",mg,--,--,16.8,16.8
"Vitamin A, IU",IU,--,--,4200,4200
Lipids
"Fatty acids, total saturated",g,--,--,3.500,3.500
"Fatty acids, total trans",g,--,--,0.000,0.000
"Cholesterol",mg,--,--,40,40
Amino Acids
Other
Ingredients
"FILLING INGREDIENTS: RICOTTA CHEESE (MILK, CREAM, DAIRY SOLIDS, VINEGAR, SALT), KALE, WATER, ROMANO CHEESE (SHEEP'S MILK, CHEESE CULTURE, SALT, ENZYMES), SPINACH, PARMESAN CHEESE (PASTEURIZED COW'S MILK, CHEESE CULTURE, SALT, ENZYMES), MOZZARELLA CHEESE (PASTEURIZED PART SKIM MILK, CHEESE CULTURES, SALT, ENZYMES), PANKO (WHEAT FLOUR, ORGANIC CANE SYRUP, SEA SALT, YEAST), CANOLA OIL GRANULATED GARLIC, SALT, SPICES. DOUGH INGREDIENTS: EXTRA FANCY DURUM FLOUR, WATER, EGG, SPINACH POWDER." Date available: 07/14/2017 Date last updated by company: 07/14/2017
