Source: USDA Branded Food Products Database Release December 2017 Software v.3.8.6.4 2017-10-02
Report Run at: December 18, 2017 10:24 EST
"Nutrient data for: 45139319, SUPREME'S, JUMBO CORN ROLLS, UPC: 072859582044"
Food Group:  Branded Food Products Database
Common Name:

Nutrient,Unit,Data points,Std. Error,"1 SERVING = 113.0g",1Value per 100 g,
Proximates
"Energy",kcal,--,--,160,142
"Protein",g,--,--,2.99,2.65
"Total lipid (fat)",g,--,--,4.00,3.54
"Carbohydrate, by difference",g,--,--,28.00,24.78
"Fiber, total dietary",g,--,--,2.9,2.6
"Sugars, total",g,--,--,0.00,0.00
Minerals
"Calcium, Ca",mg,--,--,0,0
"Iron, Fe",mg,--,--,0.72,0.64
"Sodium, Na",mg,--,--,670,593
Vitamins
"Vitamin C, total ascorbic acid",mg,--,--,0.0,0.0
"Vitamin A, IU",IU,--,--,299,265
Lipids
"Fatty acids, total saturated",g,--,--,1.503,1.330
"Cholesterol",mg,--,--,0,0
Amino Acids
Other
Ingredients
"JUMBO CORN ROLLS" Date available: 09/23/2016 Date last updated by company: 09/23/2016
