Source: USDA Branded Food Products Database Release December 2017 Software v.3.8.6.4 2017-10-02
Report Run at: December 18, 2017 10:22 EST
"Nutrient data for: 45274429, SUPREME PIZZA SAUCE, UPC: 085239406571"
Food Group:  Branded Food Products Database
Common Name:

Nutrient,Unit,Data points,Std. Error,"0.25 cup = 62.0g",1Value per 100 g,
Proximates
"Energy",kcal,--,--,25,40
"Protein",g,--,--,1.00,1.61
"Total lipid (fat)",g,--,--,0.00,0.00
"Carbohydrate, by difference",g,--,--,6.00,9.68
"Fiber, total dietary",g,--,--,1.0,1.6
"Sugars, total",g,--,--,4.00,6.45
Minerals
"Calcium, Ca",mg,--,--,20,32
"Iron, Fe",mg,--,--,0.76,1.23
"Sodium, Na",mg,--,--,250,403
Vitamins
"Vitamin C, total ascorbic acid",mg,--,--,0.0,0.0
"Vitamin A, IU",IU,--,--,634,1023
Lipids
"Fatty acids, total saturated",g,--,--,0.000,0.000
"Fatty acids, total trans",g,--,--,0.000,0.000
"Cholesterol",mg,--,--,0,0
Amino Acids
Other
Ingredients
"TOMATO PUREE (WATER, TOMATO PASTE, CITRIC ACID), DICED TOMATOES IN TOMATO JUICE, GREEN BELL PEPPERS, ONIONS, MUSHROOMS, SUGAR, SALT, CITRIC ACID, SOYBEAN OIL, DRIED GARLIC, SPICES, DRIED ONION." Date available: 07/14/2017 Date last updated by company: 07/14/2017
