Source: USDA Branded Food Products Database Release December 2017 Software v.3.8.6.4 2017-10-02
Report Run at: December 18, 2017 10:24 EST
"Nutrient data for: 45033420, SUPREME TRADITION, PAPRIKA, UPC: 639277990075"
Food Group:  Branded Food Products Database
Common Name:

Nutrient,Unit,Data points,Std. Error,"0.25 tsp = 0.5g",1Value per 100 g,
Proximates
"Energy",kcal,--,--,0,0
"Protein",g,--,--,0.00,0.00
"Total lipid (fat)",g,--,--,0.00,0.00
"Carbohydrate, by difference",g,--,--,0.00,0.00
Minerals
"Sodium, Na",mg,--,--,0,0
Vitamins
"Vitamin A, IU",IU,--,--,30000,6000000
Lipids
Amino Acids
Other
Ingredients
"PAPRIKA." Date available: 06/24/2017 Date last updated by company: 06/24/2017
