Source: USDA Branded Food Products Database Release December 2017 Software v.3.8.6.4 2017-10-02
Report Run at: December 18, 2017 10:29 EST
"Nutrient data for: 45218073, SUZIE SOUR LEGS CANDY POWDER, UPC: 793216070607"
Food Group:  Branded Food Products Database
Common Name:

Nutrient,Unit,Data points,Std. Error,"1 LEG = 23.5g",1Value per 100 g,
Proximates
"Energy",kcal,--,--,90,383
"Protein",g,--,--,0.00,0.00
"Total lipid (fat)",g,--,--,0.00,0.00
"Carbohydrate, by difference",g,--,--,22.00,93.62
"Sugars, total",g,--,--,22.00,93.62
Minerals
"Sodium, Na",mg,--,--,0,0
Vitamins
Lipids
"Fatty acids, total saturated",g,--,--,0.000,0.000
"Fatty acids, total trans",g,--,--,0.000,0.000
Amino Acids
Other
Ingredients
"SUGAR, CITRIC ACID, CALCIUM STEARATE, SILICON DIOXIDE, ARTIFICIAL FLAVORS, ARTIFICIAL COLORS FD&C: YELLOW 5, RED 3, BLUE 1." Date available: 08/10/2017 Date last updated by company: 08/10/2017
