Source: USDA Branded Food Products Database Release December 2017 Software v.3.8.6.4 2017-10-02
Report Run at: December 18, 2017 10:31 EST
"Nutrient data for: 45241953, SWAMP POP, PRALINE CREAM SODA, UPC: 851299005029"
Food Group:  Branded Food Products Database
Common Name:

Nutrient,Unit,Data points,Std. Error,"12.0 OZA = 355.0g",1Value per 100 g,
Proximates
"Energy",kcal,--,--,181,51
"Protein",g,--,--,0.00,0.00
"Total lipid (fat)",g,--,--,0.00,0.00
"Carbohydrate, by difference",g,--,--,46.01,12.96
"Sugars, total",g,--,--,46.01,12.96
Minerals
"Sodium, Na",mg,--,--,85,24
Vitamins
Lipids
Amino Acids
Other
Ingredients
"CARBONATED WATER, CANE SUGAR, NATURAL FLAVORS, CARAMEL COLOR, SALT, PHOSPHORIC ACID, SODIUM BENZOATE (PRESERVATIVE), POTASSIUM SORBATE (PRESERVATIVE), QUILLAJA EXTRACT." Date available: 06/25/2017 Date last updated by company: 06/25/2017
