Source: USDA Branded Food Products Database Release December 2017 Software v.3.8.6.4 2017-10-02
Report Run at: December 18, 2017 10:32 EST
"Nutrient data for: 45135322, SWANSON MEAT TURKEY, UNPREPARED, GTIN: 00051000222565"
Food Group:  Branded Food Products Database
Common Name:

Nutrient,Unit,Data points,Std. Error,"2.0 oz. drained = 56.0g",1Value per 100 g,
Proximates
"Energy",kcal,--,--,50,89
"Protein",g,--,--,9.00,16.07
"Total lipid (fat)",g,--,--,1.00,1.79
"Carbohydrate, by difference",g,--,--,1.00,1.79
"Fiber, total dietary",g,--,--,0.0,0.0
"Sugars, total",g,--,--,0.00,0.00
Minerals
"Calcium, Ca",mg,--,--,3,5
"Iron, Fe",mg,--,--,0.00,0.00
"Sodium, Na",mg,--,--,210,375
Vitamins
"Vitamin C, total ascorbic acid",mg,--,--,0.0,0.0
"Vitamin A, IU",IU,--,--,0,0
Lipids
"Fatty acids, total saturated",g,--,--,0.00,0.00
"Fatty acids, total trans",g,--,--,0.00,0.00
"Cholesterol",mg,--,--,20,36
Amino Acids
Other
Ingredients
"WHITE TURKEY MEAT, WATER, CONTAINS LESS THAN 2% OF: SALT, MALTODEXTRIN, MODIFIED FOOD STARCH, RICE STARCH, SODIUM PHOSPHATE, GUM ACACIA, FLAVORING, YEAST EXTRACT, SUGAR, CHICKEN FAT." Date last updated by company: 10/21/2016
