Source: USDA Branded Food Products Database Release December 2017 Software v.3.8.6.4 2017-10-02
Report Run at: December 18, 2017 10:33 EST
"Nutrient data for: 45039621, SWEDISH MEATBALLS, UPC: 637480091473"
Food Group:  Branded Food Products Database
Common Name:

Nutrient,Unit,Data points,Std. Error,"1 TRAY = 255.0g",1Value per 100 g,
Proximates
"Energy",kcal,--,--,370,145
"Protein",g,--,--,33.00,12.94
"Total lipid (fat)",g,--,--,21.01,8.24
"Carbohydrate, by difference",g,--,--,24.00,9.41
"Fiber, total dietary",g,--,--,14.0,5.5
"Sugars, total",g,--,--,1.99,0.78
Minerals
"Calcium, Ca",mg,--,--,61,24
"Iron, Fe",mg,--,--,2.75,1.08
"Sodium, Na",mg,--,--,1280,502
Vitamins
"Vitamin C, total ascorbic acid",mg,--,--,0.0,0.0
"Vitamin A, IU",IU,--,--,76,30
Lipids
"Fatty acids, total saturated",g,--,--,8.007,3.140
"Fatty acids, total trans",g,--,--,0.995,0.390
"Cholesterol",mg,--,--,69,27
Amino Acids
Other
Ingredients
"COOKED SWEDISH MEATBALLS (BEEF, PORK, WATER, TEXTURED VEGETABLE PROTEIN [SOY FLOUR, CARAMEL COLOR], SOY PROTEIN CONCENTRATE, SALT, ONION, NONFAT MILK, ROSEMARY EXTRACT, EGGS, BLACK PEPPER, NUTMEG, PARSLEY, WHEAT FLOUR, SAGE), PASTA (WATER, MODIFIED POTATO STARCH, SOY PROTEIN ISOLATE, VITAL WHEAT GLUTEN, WHEAT FLOUR [WHEAT FLOUR, NIACIN, IRON, THIAMINE MONONITRATE, RIBOFLAVIN, FOLIC ACID], WHEAT PROTEIN ISOLATE [WHEAT GLUTEN, PHOSPHATE], MODIFIED WHEAT STARCH, SALT), WATER, SOUR CREAM (CULTURED CREAM, ENZYME), ONIONS, MERLOT WINE, CONTAINS LESS THAN 2% OF THE FOLLOWING: BEEF BASE (BEEF BROTH [BEEF STOCK, WATER], YEAST EXTRACT, BEEF FLAVOR, CARAMEL COLOR, POTATO FLOUR, ONION POWDER, GARLIC POWDER, FLAVOR, BEEF FAT), ROASTED ONIONS, TOMATO PASTE, MODIFIED FOOD STARCH, SOLUBLE CORN FIBER, GARLIC, SOY LECITHIN, XANTHAN GUM, CARAMEL COLOR, ALLSPICE, NUTMEG, BLACK PEPPER, WHITE PEPPER." Date available: 08/07/2017 Date last updated by company: 08/07/2017
