Source: USDA Branded Food Products Database Release December 2017 Software v.3.8.6.4 2017-10-02
Report Run at: December 18, 2017 10:33 EST
"Nutrient data for: 45203200, SWEDISH MEATBALLS, UPC: 852629004293"
Food Group:  Branded Food Products Database
Common Name:

Nutrient,Unit,Data points,Std. Error,"6.0 BALLS | ABOUT = 85.0g",1Value per 100 g,
Proximates
"Energy",kcal,--,--,210,247
"Protein",g,--,--,17.00,20.00
"Total lipid (fat)",g,--,--,13.00,15.29
"Carbohydrate, by difference",g,--,--,6.00,7.06
"Fiber, total dietary",g,--,--,2.0,2.4
"Sugars, total",g,--,--,0.00,0.00
Minerals
"Calcium, Ca",mg,--,--,100,118
"Iron, Fe",mg,--,--,0.47,0.55
"Sodium, Na",mg,--,--,350,412
Vitamins
"Vitamin C, total ascorbic acid",mg,--,--,0.0,0.0
"Vitamin A, IU",IU,--,--,0,0
Lipids
"Fatty acids, total saturated",g,--,--,1.998,2.350
"Fatty acids, total trans",g,--,--,0.000,0.000
"Cholesterol",mg,--,--,0,0
Amino Acids
Other
Ingredients
"WATER, PEA PROTEIN ISOLATE, EXPELLER-PRESSED CANOLA OIL*, PALM OIL+, CARRAGEENAN, YEAST EXTRACT, METHYLCELLULOSE, MALTODEXTRIN, ONION POWDER, POTASSIUM BICARBONATE, POTASSIUM CHLORIDE, SORBITOL, CALCIUM CHLORIDE, SUGAR++, CARAMEL COLOR, SPICES, TAPIOCA STARCH, NATURAL FLAVORING, SALT, CALCIUM SULFATE, SUNFLOWER OIL." Date available: 09/06/2017 Date last updated by company: 09/06/2017
