Source: USDA Branded Food Products Database Release December 2017 Software v.3.8.6.4 2017-10-02
Report Run at: December 18, 2017 11:40 EST
"Nutrient data for: 45150799, SWEET SHOP USA, HANDMADE TRUFFLES, UPC: 017109310152"
Food Group:  Branded Food Products Database
Common Name:

Nutrient,Unit,Data points,Std. Error,"1 PIECES = 21.0g",1Value per 100 g,
Proximates
"Energy",kcal,--,--,100,476
"Protein",g,--,--,2.00,9.52
"Total lipid (fat)",g,--,--,7.00,33.33
"Carbohydrate, by difference",g,--,--,10.00,47.62
"Fiber, total dietary",g,--,--,1.0,4.8
"Sugars, total",g,--,--,7.00,33.33
Minerals
"Calcium, Ca",mg,--,--,0,0
"Iron, Fe",mg,--,--,0.86,4.08
"Sodium, Na",mg,--,--,5,24
Vitamins
"Vitamin C, total ascorbic acid",mg,--,--,0.0,0.0
"Vitamin A, IU",IU,--,--,0,0
Lipids
"Fatty acids, total saturated",g,--,--,4.500,21.430
"Fatty acids, total trans",g,--,--,0.000,0.000
"Cholesterol",mg,--,--,5,24
Amino Acids
Other
Ingredients
"DARK CHOCOLATE (UNSWEETENED CHOCOLATE, SUGAR, COCOA FAT, SOY LECITHIN-AN EMULSIFIER, NATURAL VANILLA FLAVOR), MILK CHOCOLATE (SUGAR, COCOA BUTTER, WHOLE MILK POWDER, CHOCOLATE LIQUOR, SKIM MILK POWDER, MILKFAT, SOY LECITHIN-AN EMULSIFIER, VANILLA EXTRACT), HEAVY CREAM (CREAM, DEXTROSE, CARRAGEEN, MONO-DIGLYCERIDES, CELLULOSE GUM, POLYSORBATE 80), SUGAR, WHITE COATING (SUGAR, PALM KERNEL AND PALM OIL, WHOLE MILK POWDER, WHEY POWDER (MILK), BUTTERMILK POWDER, LACTOSE (MILK), SOY LECITHIN-AN EMULSIFIER, VANILLA EXTRACT), WATER, INVERT SUGAR (FRUCTOSE, DEXTROSE), CHERRY AND RASPBERRY PUREE (CHERRIES, RASPBERRIES, CORN SYRUP, WATER, FOOD GRADE STARCH, CITRIC ACID, SODIUM BENZOATE AND POTASSIUM SORBATE [PRESERVATIVES], AND ARTIFICIAL COLOR RED #40), CHOCOLATE LIQUOR, CORN SYRUP, BUTTER (CREAM, NATURAL FLAVORING), PURE VANILLA, NATURAL AND ARTIFICIAL FLAVORS, INVERTASE (GLYCERINE, AQUEOUS EXTRACT OF INVERTASE FROM YEAST, SODIUM CITRATE), SALT, CITRIC ACID, RED #40." Date available: 07/14/2017 Date last updated by company: 07/14/2017
