Source: USDA Branded Food Products Database Release December 2017 Software v.3.8.6.4 2017-10-02
Report Run at: December 18, 2017 11:18 EST
"Nutrient data for: 45206044, SWEET MAGNOLIA GELATO CO, ARTISAN GELATO, FRENCH VANILLA, UPC: 855769005106"
Food Group:  Branded Food Products Database
Common Name:

Nutrient,Unit,Data points,Std. Error,"0.5 cup = 118.0g",1Value per 100 g,
Proximates
"Energy",kcal,--,--,100,85
"Protein",g,--,--,1.99,1.69
"Total lipid (fat)",g,--,--,4.50,3.81
"Carbohydrate, by difference",g,--,--,15.00,12.71
"Fiber, total dietary",g,--,--,0.0,0.0
"Sugars, total",g,--,--,15.00,12.71
Minerals
"Calcium, Ca",mg,--,--,80,68
"Iron, Fe",mg,--,--,0.00,0.00
"Sodium, Na",mg,--,--,40,34
Vitamins
"Vitamin C, total ascorbic acid",mg,--,--,0.0,0.0
"Vitamin A, IU",IU,--,--,225,191
Lipids
"Fatty acids, total saturated",g,--,--,2.997,2.540
"Cholesterol",mg,--,--,15,13
Amino Acids
Other
Ingredients
"BROWN FAMILY FARM ORGANIC WHOLE MILK & HEAVY WHIPPING CREAM, PURE CANE SUGAR, ORGANIC EGG YOLKS, VANILLA PASTE, DEXTROSE, NON FAT DRY MILK, LESS THAN 1% LOCUST BEAN GUM AND GUAR GUM." Date available: 07/14/2017 Date last updated by company: 07/14/2017
