Source: USDA Branded Food Products Database Release December 2017 Software v.3.8.6.4 2017-10-02
Report Run at: December 18, 2017 11:26 EST
"Nutrient data for: 45191824, SWEET PICKLES, UPC: 092825111320"
Food Group:  Branded Food Products Database
Common Name:

Nutrient,Unit,Data points,Std. Error,"1 PICKLE | ABOUT = 28.0g",1Value per 100 g,
Proximates
"Energy",kcal,--,--,35,125
"Protein",g,--,--,0.00,0.00
"Total lipid (fat)",g,--,--,0.00,0.00
"Carbohydrate, by difference",g,--,--,8.00,28.57
"Sugars, total",g,--,--,8.00,28.57
Minerals
"Sodium, Na",mg,--,--,220,786
Vitamins
Lipids
Amino Acids
Other
Ingredients
"CUCUMBERS, HIGH FRUCTOSE CORN SWEETENER, WATER, VINEGAR, SUGAR, SALT, ALUM, NATURAL FLAVORING, OLEORESIN TURMERIC AND YELLOW 5 (COLORS), POLYSORBATE 80 (EMULSIFIER)." Date available: 07/14/2017 Date last updated by company: 07/14/2017
