Source: USDA Branded Food Products Database Release December 2017 Software v.3.8.6.4 2017-10-02
Report Run at: December 18, 2017 11:09 EST
"Nutrient data for: 45159738, SWEET GARDEN, BLACK GRAINS SOYBEAN DRINK, UPC: 710960912182"
Food Group:  Branded Food Products Database
Common Name:

Nutrient,Unit,Data points,Std. Error,"25.0 GRM = 25.0g",1Value per 100 g,
Proximates
"Energy",kcal,--,--,100,400
"Protein",g,--,--,4.00,16.00
"Total lipid (fat)",g,--,--,2.00,8.00
"Carbohydrate, by difference",g,--,--,17.00,68.00
"Fiber, total dietary",g,--,--,2.0,8.0
"Sugars, total",g,--,--,9.00,36.00
Minerals
"Calcium, Ca",mg,--,--,80,320
"Iron, Fe",mg,--,--,2.88,11.52
"Sodium, Na",mg,--,--,25,100
Vitamins
"Vitamin C, total ascorbic acid",mg,--,--,0.0,0.0
"Vitamin A, IU",IU,--,--,0,0
Lipids
"Fatty acids, total saturated",g,--,--,1.000,4.000
"Fatty acids, total trans",g,--,--,0.000,0.000
"Cholesterol",mg,--,--,0,0
Amino Acids
Other
Ingredients
"NON-GMO SOYBEAN, MALTOSE, BLACK SOYBEAN, SUGAR, BLACK SESAME, PURPLE RICE, BLACK CORM, BLACK DATE, TRITICALE, PURPLE POTATO, BROWN SUGAR, BROWN RICE, LOTUS ROOT POWDER." Date available: 07/14/2017 Date last updated by company: 07/14/2017
