Source: USDA Branded Food Products Database Release December 2017 Software v.3.8.6.4 2017-10-02
Report Run at: December 18, 2017 11:12 EST
"Nutrient data for: 45190645, SWEET & HOT BEEF JERKY, UPC: 041415200807"
Food Group:  Branded Food Products Database
Common Name:

Nutrient,Unit,Data points,Std. Error,"1 ONZ = 28.0g",1Value per 100 g,
Proximates
"Energy",kcal,--,--,80,286
"Protein",g,--,--,11.00,39.29
"Total lipid (fat)",g,--,--,1.00,3.57
"Carbohydrate, by difference",g,--,--,6.00,21.43
"Fiber, total dietary",g,--,--,0.0,0.0
"Sugars, total",g,--,--,5.00,17.86
Minerals
"Calcium, Ca",mg,--,--,0,0
"Iron, Fe",mg,--,--,1.93,6.88
"Sodium, Na",mg,--,--,430,1536
Vitamins
"Vitamin C, total ascorbic acid",mg,--,--,0.0,0.0
"Vitamin A, IU",IU,--,--,0,0
Lipids
"Fatty acids, total saturated",g,--,--,0.000,0.000
"Fatty acids, total trans",g,--,--,0.000,0.000
"Cholesterol",mg,--,--,15,54
Amino Acids
Other
Ingredients
"BEEF, WATER, SUGAR, CORN SYRUP, CONTAINS 2% OR LESS OF SALT, DISODIUM INOSINATE & GUANYLATE, FLAVORINGS, HYDROLYZED SOY PROTEIN, SODIUM ERYTHORBATE, SODIUM NITRATE." Date available: 07/14/2017 Date last updated by company: 07/14/2017
