Source: USDA Branded Food Products Database Release December 2017 Software v.3.8.6.4 2017-10-02
Report Run at: December 18, 2017 11:13 EST
"Nutrient data for: 45197089, SWEET ITALIAN GROUND SAUSAGE, UPC: 070919030665"
Food Group:  Branded Food Products Database
Common Name:

Nutrient,Unit,Data points,Std. Error,"2.0 ONZ = 56.0g",1Value per 100 g,
Proximates
"Energy",kcal,--,--,160,286
"Protein",g,--,--,10.00,17.86
"Total lipid (fat)",g,--,--,13.00,23.21
"Carbohydrate, by difference",g,--,--,2.00,3.57
"Fiber, total dietary",g,--,--,0.0,0.0
"Sugars, total",g,--,--,2.00,3.57
Minerals
"Calcium, Ca",mg,--,--,20,36
"Iron, Fe",mg,--,--,0.35,0.63
"Sodium, Na",mg,--,--,500,893
Vitamins
"Vitamin C, total ascorbic acid",mg,--,--,0.0,0.0
"Vitamin A, IU",IU,--,--,0,0
Lipids
"Fatty acids, total saturated",g,--,--,5.998,10.710
"Fatty acids, total trans",g,--,--,0.000,0.000
"Cholesterol",mg,--,--,40,71
Amino Acids
Other
Ingredients
"PORK, WATER, CONTAINS LESS THAN 2% OF SALT, DEXTROSE, TURBINADO SUGAR, SPICES, FLAVORING, PAPRIKA, OLEORESIN OF PAPRIKA." Date available: 07/14/2017 Date last updated by company: 07/14/2017
