Source: USDA Branded Food Products Database Release December 2017 Software v.3.8.6.4 2017-10-02
Report Run at: December 18, 2017 10:42 EST
"Nutrient data for: 45330201, SWEET BARBECUE SAUCE, UPC: 041512120954"
Food Group:  Branded Food Products Database
Common Name:

Nutrient,Unit,Data points,Std. Error,"2.0 Tbsp = 37.0g",1Value per 100 g,
Proximates
"Energy",kcal,--,--,70,189
"Protein",g,--,--,0.00,0.00
"Total lipid (fat)",g,--,--,0.00,0.00
"Carbohydrate, by difference",g,--,--,18.00,48.65
"Sugars, total",g,--,--,16.00,43.24
Minerals
"Sodium, Na",mg,--,--,290,784
Vitamins
Lipids
Amino Acids
Other
Ingredients
"HIGH FRUCTOSE CORN SYRUP, TOMATO PUREE, (WATER, TOMATO PASTE), DISTILLED VINEGAR, MODIFIED CORN STARCH, LESS THAN 2% OF: SALT, PINEAPPLE JUICE CONCENTRATE, MOLASSES, CARAMEL COLOR, SPICES, XANTHAN GUM, SMOKE FLAVOR, SODIUM BENZOATE (PRESERVATIVE), GARLIC POWDER, CORN SYRUP, SUGAR, TAMARIND, NATURAL FLAVOR." Date available: 10/13/2017 Date last updated by company: 10/13/2017
