Source: USDA Branded Food Products Database Release December 2017 Software v.3.8.6.4 2017-10-02
Report Run at: December 18, 2017 11:31 EST
"Nutrient data for: 45212642, SWEET POTATO STRAIGHT CUT FRIES, UPC: 840055100054"
Food Group:  Branded Food Products Database
Common Name:

Nutrient,Unit,Data points,Std. Error,"3.0 ONZ = 85.0g",1Value per 100 g,
Proximates
"Energy",kcal,--,--,120,141
"Protein",g,--,--,1.00,1.18
"Total lipid (fat)",g,--,--,4.50,5.29
"Carbohydrate, by difference",g,--,--,18.00,21.18
"Fiber, total dietary",g,--,--,6.0,7.1
"Sugars, total",g,--,--,8.00,9.41
Minerals
"Calcium, Ca",mg,--,--,20,24
"Iron, Fe",mg,--,--,0.36,0.42
"Potassium, K",mg,--,--,270,318
"Sodium, Na",mg,--,--,100,118
Vitamins
"Vitamin C, total ascorbic acid",mg,--,--,21.0,24.7
"Vitamin A, IU",IU,--,--,3000,3529
Lipids
"Fatty acids, total saturated",g,--,--,0.501,0.590
"Fatty acids, total monounsaturated",g,--,--,1.097,1.290
"Fatty acids, total polyunsaturated",g,--,--,2.499,2.940
"Fatty acids, total trans",g,--,--,0.000,0.000
"Cholesterol",mg,--,--,0,0
Amino Acids
Other
Ingredients
"SWEET POTATOES, VEGETABLE OIL (SOYBEAN OIL AND/OR CANOLA OIL AND/ORE SAFFLOWER OIL AND/OR SUNFLOWER OIL), FOOD STARCH MODIFIED, RICE FLOUR, CORN STARCH, SALT, DEXTRIN, LEAVENING (SODIUM ACID PYROPHOSPHATE, SODIUM BICARBONATE), XANTHAN GUM, OLEORESIN PAPRIKA (COLOR)." Date available: 08/28/2017 Date last updated by company: 08/28/2017
