Source: USDA Branded Food Products Database Release December 2017 Software v.3.8.6.4 2017-10-02
Report Run at: December 18, 2017 11:27 EST
"Nutrient data for: 45255385, SWEET POTATO CASSEROLE, UPC: 617037958480"
Food Group:  Branded Food Products Database
Common Name:

Nutrient,Unit,Data points,Std. Error,"4.0 ONZ = 113.0g",1Value per 100 g,
Proximates
"Energy",kcal,--,--,130,115
"Protein",g,--,--,0.99,0.88
"Total lipid (fat)",g,--,--,6.00,5.31
"Carbohydrate, by difference",g,--,--,20.00,17.70
"Fiber, total dietary",g,--,--,2.0,1.8
"Sugars, total",g,--,--,10.99,9.73
Minerals
"Calcium, Ca",mg,--,--,20,18
"Iron, Fe",mg,--,--,0.32,0.28
"Sodium, Na",mg,--,--,231,204
Vitamins
"Vitamin C, total ascorbic acid",mg,--,--,4.0,3.5
"Vitamin A, IU",IU,--,--,5088,4503
Lipids
"Fatty acids, total saturated",g,--,--,3.503,3.100
"Fatty acids, total trans",g,--,--,0.000,0.000
"Cholesterol",mg,--,--,15,13
Amino Acids
Other
Ingredients
"SWEET POTATOES, WATER, BROWN SUGAR, SALTED BUTTER (PASTEURIZED CREAM, SALT), FOOD STARCH MODIFIED, SALT, MARSHMALLOWS [(CORN SYRUP, SUGAR, MODIFIED CORNSTARCH, DEXTROSE, WATER, GELATIN, CONTAINS LESS THAN 2% OF TETRASODIUM PYROPHOSPHATE (WHIP-PING AID), NATURAL AND ARTIFICIAL FLAVOR, ARTIFICIAL COLOR (INCLUDES BLUE 1)], HONEY ROASTED PECANS [SUGAR, PECANS, HONEY, BUTTER (PASTEURIZED CREAM, SALT), SALT, SOY LECITHIN]." Date available: 07/14/2017 Date last updated by company: 07/14/2017
