Source: USDA Branded Food Products Database Release December 2017 Software v.3.8.6.4 2017-10-02
Report Run at: December 18, 2017 11:27 EST
"Nutrient data for: 45214548, SWEET POTATO CHERRY LEMONADE JUICE BEVERAGE, UPC: 053600103190"
Food Group:  Branded Food Products Database
Common Name:

Nutrient,Unit,Data points,Std. Error,"8.0 OZA = 240.0g",1Value per 100 g,
Proximates
"Energy",kcal,--,--,101,42
"Protein",g,--,--,0.00,0.00
"Total lipid (fat)",g,--,--,0.00,0.00
"Carbohydrate, by difference",g,--,--,25.99,10.83
"Fiber, total dietary",g,--,--,0.0,0.0
"Sugars, total",g,--,--,24.00,10.00
Minerals
"Calcium, Ca",mg,--,--,19,8
"Iron, Fe",mg,--,--,0.00,0.00
"Sodium, Na",mg,--,--,10,4
Vitamins
"Vitamin C, total ascorbic acid",mg,--,--,1.9,0.8
"Vitamin A, IU",IU,--,--,0,0
Lipids
"Fatty acids, total saturated",g,--,--,0.000,0.000
"Fatty acids, total trans",g,--,--,0.000,0.000
"Cholesterol",mg,--,--,0,0
Amino Acids
Other
Ingredients
"FILTERED WATER, LEMON JUICE FROM CONCENTRATE (WATER, CONCENTRATED LEMON JUICE), SUGAR, SWEET POTATO JUICE FROM CONCENTRATE (WATER, CONCENTRATED SWEET POTATO JUICE), WHITE GRAPE JUICE FROM CONCENTRATE (WATER, CONCENTRATED WHITE GRAPE JUICE), CHERRY JUICE FROM CONCENTRATE (WATER, CONCENTRATED CHERRY JUICE)." Date available: 08/19/2017 Date last updated by company: 08/19/2017
