Source: USDA Branded Food Products Database Release December 2017 Software v.3.8.6.4 2017-10-02
Report Run at: December 18, 2017 11:11 EST
"Nutrient data for: 45024558, SWEET HAWAIIAN ROLLS, UPC: 073711170607"
Food Group:  Branded Food Products Database
Common Name:

Nutrient,Unit,Data points,Std. Error,"1 ROLL = 28.0g",1Value per 100 g,
Proximates
"Energy",kcal,--,--,80,286
"Protein",g,--,--,3.00,10.71
"Total lipid (fat)",g,--,--,1.50,5.36
"Carbohydrate, by difference",g,--,--,15.00,53.57
"Fiber, total dietary",g,--,--,0.0,0.0
"Sugars, total",g,--,--,5.00,17.86
Minerals
"Calcium, Ca",mg,--,--,0,0
"Iron, Fe",mg,--,--,1.29,4.59
"Sodium, Na",mg,--,--,70,250
Vitamins
"Vitamin C, total ascorbic acid",mg,--,--,0.0,0.0
"Vitamin A, IU",IU,--,--,0,0
Lipids
"Fatty acids, total saturated",g,--,--,1.000,3.570
"Fatty acids, total trans",g,--,--,0.000,0.000
"Cholesterol",mg,--,--,5,18
Amino Acids
Other
Ingredients
"ENRICHED WHEAT FLOUR (WHEAT FLOUR, BARLEY MALT, NIACIN, IRON, THIAMINE MONONITRATE, RIBOFLAVIN, FOLIC ACID), WATER, SUGAR, WHEAT GLUTEN, YEAST, PALM OIL, CONTAINS 2% OR LESS OF THE FOLLOWING: POTATO FLOUR, EGGS AND/OR EGG SUBSTITUTE (WHEAT PROTEIN ISOLATE, WHEAT STARCH, SODIUM ALGINATE, SUNFLOWER LECITHIN, CANOLA OIL), CORN SUGAR, CORN STARCH, SALT, DOUGH CONDITIONERS (MONO AND DIGLYCERIDES, SODIUM STEAROYL LACTYLATE, DATEM, ASCORBIC ACID, CALCIUM PEROXIDE, ENZYMES), YEAST NUTRIENTS (MONOCALCIUM PHOSPHATE, TRICALCIUM PHOSPHATE, CALCIUM SULFATE, AMMONIUM SULFATE), CALCIUM PROPIONATE(PRESERVATIVE), NATURAL AND ARTIFICIAL FLAVORS, XANTHAN GUM, YELLOW CORN FLOUR, SPICES FOR COLOR (TURMERIC, PAPRIKA, ANNATTO)." Date available: 07/14/2017 Date last updated by company: 07/14/2017
