Source: USDA Branded Food Products Database Release December 2017 Software v.3.8.6.4 2017-10-02
Report Run at: December 18, 2017 11:37 EST
"Nutrient data for: 45280248, SWEET & SALTY NUT GRANOLA BARS, UPC: 041303001394"
Food Group:  Branded Food Products Database
Common Name:

Nutrient,Unit,Data points,Std. Error,"1 BAR = 35.0g",1Value per 100 g,
Proximates
"Energy",kcal,--,--,170,486
"Protein",g,--,--,3.00,8.57
"Total lipid (fat)",g,--,--,8.00,22.86
"Carbohydrate, by difference",g,--,--,20.00,57.14
"Fiber, total dietary",g,--,--,1.0,2.9
"Sugars, total",g,--,--,10.00,28.57
Minerals
"Calcium, Ca",mg,--,--,40,114
"Iron, Fe",mg,--,--,0.41,1.18
"Potassium, K",mg,--,--,105,300
"Sodium, Na",mg,--,--,140,400
Vitamins
"Vitamin C, total ascorbic acid",mg,--,--,0.0,0.0
"Vitamin A, IU",IU,--,--,0,0
Lipids
"Fatty acids, total saturated",g,--,--,2.499,7.140
"Fatty acids, total monounsaturated",g,--,--,3.500,10.000
"Fatty acids, total polyunsaturated",g,--,--,1.502,4.290
"Fatty acids, total trans",g,--,--,0.000,0.000
"Cholesterol",mg,--,--,0,0
Amino Acids
Other
Ingredients
"ALMONDS, TOASTED OATS (WHOLE GRAIN ROLLED OATS, BROWN SUGAR, CANOLA OIL, BARLEY MALT EXTRACT, SOY LECITHIN), SUGAR, HIGH MALTOSE CORN SYRUP, CRISP RICE (RICE FLOUR, SUGAR, MALT, SALT), WHEAT FLAKES (WHOLE WHEAT, SUGAR, SALT, MALT), FRACTIONATED PALM KERNEL OIL, HIGH FRUCTOSE CORN SYRUP, NONFAT DRY MILK, CANOLA OIL, GLYCERIN, CORN SYRUP SOLIDS, SALT, WATER, SOY LECITHIN, NONFAT YOGURT POWDER, HONEY, NATURAL FLAVOR, GELATIN, VANILLA EXTRACT, CARAMEL COLOR, HYDROGENATED COTTONSEED OIL, MIXED TOCOPHEROLS ADDED TO RETAIN FRESHNESS, PEANUT FLOUR." Date available: 07/14/2017 Date last updated by company: 07/14/2017
