Source: USDA Branded Food Products Database Release December 2017 Software v.3.8.6.4 2017-10-02
Report Run at: December 18, 2017 10:53 EST
"Nutrient data for: 45162189, SWEET ELEGANEE, CARAMELINO COOKIES, SALTED CARAMEL & MILK CHOCOLATE, UPC: 876012010173"
Food Group:  Branded Food Products Database
Common Name:

Nutrient,Unit,Data points,Std. Error,"1 PACKET = 24.0g",1Value per 100 g,
Proximates
"Energy",kcal,--,--,130,542
"Protein",g,--,--,1.00,4.17
"Total lipid (fat)",g,--,--,8.00,33.33
"Carbohydrate, by difference",g,--,--,14.00,58.33
"Fiber, total dietary",g,--,--,0.0,0.0
"Sugars, total",g,--,--,11.00,45.83
Minerals
"Calcium, Ca",mg,--,--,20,83
"Iron, Fe",mg,--,--,0.75,3.13
"Sodium, Na",mg,--,--,55,229
Vitamins
"Vitamin C, total ascorbic acid",mg,--,--,0.0,0.0
"Vitamin A, IU",IU,--,--,0,0
Lipids
"Fatty acids, total saturated",g,--,--,4.500,18.750
"Fatty acids, total trans",g,--,--,0.000,0.000
"Cholesterol",mg,--,--,5,21
Amino Acids
Other
Ingredients
"MILK CHOCOLATE (SUGAR, COCOA BUTTER, MILK, UNSWEETENED CHOCOLATE, SOY LECITHIN AS AN EMULSIFIER, VANILLA FLAVOR), PALM OIL, SUGAR, ENRICHED WHEAT FLOUR (WHEAT FLOUR, NIACINAMIDE, REDUCED IRON, THIAMIN MONONITRATE, RIBOFLAVIN, FOLIC ACID), DEXTROSE, NONFAT MILK, EMULSIFIERS (SOY LECITHIN, RAPESEED LECITHIN, MAGNESIUM STEARATE), SALT, FLAVOR, COCONUT OIL, REDUCED FAT COCOA POWDER, FREE RANGE EGG YOLK (EGG YOLK, SALT)." Date available: 07/14/2017 Date last updated by company: 07/14/2017
