Source: USDA Branded Food Products Database Release December 2017 Software v.3.8.6.4 2017-10-02
Report Run at: December 18, 2017 11:12 EST
"Nutrient data for: 45078829, SWEET HOT MUSTARD, UPC: 071828001630"
Food Group:  Branded Food Products Database
Common Name:

Nutrient,Unit,Data points,Std. Error,"1 tsp = 5.0g",1Value per 100 g,
Proximates
"Energy",kcal,--,--,10,200
"Protein",g,--,--,0.00,0.00
"Total lipid (fat)",g,--,--,0.00,0.00
"Carbohydrate, by difference",g,--,--,2.00,40.00
"Sugars, total",g,--,--,2.00,40.00
Minerals
"Sodium, Na",mg,--,--,45,900
Vitamins
Lipids
"Fatty acids, total saturated",g,--,--,0.000,0.000
"Fatty acids, total trans",g,--,--,0.000,0.000
"Cholesterol",mg,--,--,0,0
Amino Acids
Other
Ingredients
"INGREDIENTS: WATER, SUGAR, MUSTARD SEED, WHITE DISTILLED AND BALSAMIC VINEGARS, HONEY, WHEAT FLOUR, SALT, LEMON JUICE, XANTHAN GUM, CITRIC ACID, ONIONS, ARTIFICIAL AND NATURAL FLAVORS, SOYBEAN OIL, GARLIC, TURMERIC, PAPRIKA, SPICES, CALCIUM DISODIUM EDTA (RETAINS PRODUCT OF FRESHNESS), ANNATTO." Date available: 06/24/2017 Date last updated by company: 06/24/2017
