Source: USDA Branded Food Products Database Release December 2017 Software v.3.8.6.4 2017-10-02
Report Run at: December 18, 2017 11:34 EST
"Nutrient data for: 45314211, SWEET RELISH, UPC: 021908286099"
Food Group:  Branded Food Products Database
Common Name:

Nutrient,Unit,Data points,Std. Error,"1 Tbsp = 16.0g",1Value per 100 g,
Proximates
"Energy",kcal,--,--,15,94
"Protein",g,--,--,0.00,0.00
"Total lipid (fat)",g,--,--,0.00,0.00
"Carbohydrate, by difference",g,--,--,4.00,25.00
"Sugars, total",g,--,--,4.00,25.00
Minerals
"Sodium, Na",mg,--,--,65,406
Vitamins
Lipids
Amino Acids
Other
Ingredients
"CURED CUCUMBERS*, SUGAR*, WHITE DISTILLED VINEGAR*, WATER, SALT, CALCIUM CHLORIDE, DRIED RED BELL PEPPERS*, XANTHAN GUM, NATURAL FLAVOR, SPICE*." Date available: 10/04/2017 Date last updated by company: 10/04/2017
