Source: USDA Branded Food Products Database Release December 2017 Software v.3.8.6.4 2017-10-02
Report Run at: December 18, 2017 11:05 EST
"Nutrient data for: 45314636, SWEETENED WHIPPED LIGHT CREAM, UPC: 070852991375"
Food Group:  Branded Food Products Database
Common Name:

Nutrient,Unit,Data points,Std. Error,"2.0 Tbsp = 6.0g",1Value per 100 g,
Proximates
"Energy",kcal,--,--,20,333
"Protein",g,--,--,0.00,0.00
"Total lipid (fat)",g,--,--,1.50,25.00
"Carbohydrate, by difference",g,--,--,1.00,16.67
"Fiber, total dietary",g,--,--,0.0,0.0
"Sugars, total",g,--,--,1.00,16.67
Minerals
"Calcium, Ca",mg,--,--,8,133
"Iron, Fe",mg,--,--,0.00,0.00
"Sodium, Na",mg,--,--,0,0
Vitamins
"Vitamin D",IU,--,--,0,0
Lipids
"Fatty acids, total saturated",g,--,--,1.000,16.670
"Fatty acids, total trans",g,--,--,0.000,0.000
"Cholesterol",mg,--,--,5,83
Amino Acids
Other
Ingredients
"ORGANIC CREAM, ORGANIC NONFAT MILK, ORGANIC CANE SUGAR, ORGANIC NATURAL FLAVOR, SORBITAN MONOSTEARATE, CARRAGEENAN, AND NITROUS OXIDE AS WHIPPING PROPELLANT." Date available: 07/14/2017 Date last updated by company: 07/14/2017
