Source: USDA Branded Food Products Database Release December 2017 Software v.3.8.6.4 2017-10-02
Report Run at: December 18, 2017 10:41 EST
"Nutrient data for: 45061937, SWEET BABY RAY'S, BARBECUE SAUCE, SWEET 'N SPICY, UPC: 013409515518"
Food Group:  Branded Food Products Database
Common Name:

Nutrient,Unit,Data points,Std. Error,"2.0 Tbsp = 37.0g",1Value per 100 g,
Proximates
"Energy",kcal,--,--,70,189
"Protein",g,--,--,0.00,0.00
"Total lipid (fat)",g,--,--,0.00,0.00
"Carbohydrate, by difference",g,--,--,16.00,43.24
"Fiber, total dietary",g,--,--,0.0,0.0
"Sugars, total",g,--,--,14.00,37.84
Minerals
"Calcium, Ca",mg,--,--,0,0
"Iron, Fe",mg,--,--,0.61,1.64
"Sodium, Na",mg,--,--,290,784
Vitamins
"Vitamin C, total ascorbic acid",mg,--,--,6.1,16.4
"Vitamin A, IU",IU,--,--,0,0
Lipids
"Fatty acids, total saturated",g,--,--,0.000,0.000
"Fatty acids, total trans",g,--,--,0.000,0.000
"Cholesterol",mg,--,--,0,0
Amino Acids
Other
Ingredients
"HIGH FRUCTOSE CORN SYRUP, DISTILLED VINEGAR, TOMATO PASTE, MODIFIED FOOD STARCH, WATER, CONTAINS LESS THAN 2% OF: SALT, PINEAPPLE JUICE CONCENTRATE, NATURAL SMOKE FLAVOR, SPICES, CARAMEL COLOR, JALAPENO PEPPER, SODIUM BENZOATE AS A PRESERVATIVE, MOLASSES, CORN SYRUP, GARLIC,* SUGAR, TAMARIND, NATURAL FLAVOR." Date available: 07/14/2017 Date last updated by company: 07/14/2017
