Source: USDA Branded Food Products Database Release December 2017 Software v.3.8.6.4 2017-10-02
Report Run at: December 18, 2017 10:46 EST
"Nutrient data for: 45279001, SWEET & CHEWY ROPES, UPC: 079200292676"
Food Group:  Branded Food Products Database
Common Name:

Nutrient,Unit,Data points,Std. Error,"2.0 ROPES = 34.0g",1Value per 100 g,
Proximates
"Energy",kcal,--,--,120,353
"Protein",g,--,--,0.00,0.00
"Total lipid (fat)",g,--,--,0.00,0.00
"Carbohydrate, by difference",g,--,--,29.00,85.29
"Sugars, total",g,--,--,18.00,52.94
Minerals
"Sodium, Na",mg,--,--,75,221
Vitamins
Lipids
Amino Acids
Other
Ingredients
"SUGAR, WHEAT FLOUR, CORN SYRUP, AND LESS THAN 2% OF WATER, CITRIC ACID, SORBITOL, MALTODEXTRIN, SODIUM CITRATE, GLYCERIN, MALIC ACID, NATURAL FLAVORS, GELATIN, SALT, BETA-CAROTENE COLOR, VEGETABLE JUICE COLOR, CONFECTIONER'S GLAZE (LAC-RESIN)." Date available: 07/14/2017 Date last updated by company: 07/14/2017
