Source: USDA Branded Food Products Database Release December 2017 Software v.3.8.6.4 2017-10-02
Report Run at: December 18, 2017 10:36 EST
"Nutrient data for: 45320325, SWEETARTS, CHEWY SOURS TANGY CANDY, UPC: 079200335953"
Food Group:  Branded Food Products Database
Common Name:

Nutrient,Unit,Data points,Std. Error,"8.0 PIECES = 15.0g",1Value per 100 g,
Proximates
"Energy",kcal,--,--,60,400
"Protein",g,--,--,0.00,0.00
"Total lipid (fat)",g,--,--,0.50,3.33
"Carbohydrate, by difference",g,--,--,13.00,86.67
"Sugars, total",g,--,--,11.00,73.33
Minerals
"Sodium, Na",mg,--,--,10,67
Vitamins
Lipids
"Fatty acids, total saturated",g,--,--,0.000,0.000
"Fatty acids, total trans",g,--,--,0.000,0.000
Amino Acids
Other
Ingredients
"DEXTROSE, CORN SYRUP, MALIC ACID, HYDROGENATED COCONUT OIL, AND LESS THAN 2% OF MALTODEXTRIN, CALCIUM STEARATE, EGG ALBUMEN, NATURAL FLAVORS, MONO- AND DIGLYCERIDES, CARNAUBA WAX, BLUE 1 LAKE, BLUE 2 LAKE, RED 40 LAKE, YELLOW 5 LAKE, YELLOW 6 LAKE." Date available: 07/14/2017 Date last updated by company: 07/14/2017
