Source: USDA Branded Food Products Database Release December 2017 Software v.3.8.6.4 2017-10-02
Report Run at: December 18, 2017 11:15 EST
"Nutrient data for: 45049994, SWEET JALAPENOS, UPC: 070152300471"
Food Group:  Branded Food Products Database
Common Name:

Nutrient,Unit,Data points,Std. Error,"9.0 SLICES | ABOUT = 28.0g",1Value per 100 g,
Proximates
"Energy",kcal,--,--,60,214
"Protein",g,--,--,0.00,0.00
"Total lipid (fat)",g,--,--,0.00,0.00
"Carbohydrate, by difference",g,--,--,14.00,50.00
"Sugars, total",g,--,--,11.00,39.29
Minerals
"Sodium, Na",mg,--,--,150,536
Vitamins
Lipids
Amino Acids
Other
Ingredients
"SLICED JALAPENO PEPPERS, HIGH FRUCTOSE CORN SWEETENER, VINEGAR, SUGAR, BROWN SUGAR, ACETIC ACID, CHOPPED ONION, GARLIC, SALT, SPICES, XANTHAN GUM, NATURAL FLAVORING, YELLOW #5" Date available: 07/14/2017 Date last updated by company: 07/14/2017
