Source: USDA Branded Food Products Database Release December 2017 Software v.3.8.6.4 2017-10-02
Report Run at: December 18, 2017 11:50 EST
"Nutrient data for: 45288979, SWEET TEA, UPC: 070242301395"
Food Group:  Branded Food Products Database
Common Name:

Nutrient,Unit,Data points,Std. Error,"12.0 OZA = 360.0g",1Value per 100 g,
Proximates
"Energy",kcal,--,--,104,29
"Protein",g,--,--,0.00,0.00
"Total lipid (fat)",g,--,--,0.00,0.00
"Carbohydrate, by difference",g,--,--,27.00,7.50
"Sugars, total",g,--,--,25.99,7.22
Minerals
"Sodium, Na",mg,--,--,7,2
Vitamins
Lipids
Amino Acids
Other
Ingredients
"WATER, PURE CANE SUGAR, ORANGE PEKOE AND PEKOE CUT BLACK TEA." Date available: 07/14/2017 Date last updated by company: 07/14/2017
