Source: USDA Branded Food Products Database Release December 2017 Software v.3.8.6.4 2017-10-02
Report Run at: December 18, 2017 11:33 EST
"Nutrient data for: 45081585, SWEET RELISH, UPC: 021130473007"
Food Group:  Branded Food Products Database
Common Name:

Nutrient,Unit,Data points,Std. Error,"1 Tbsp = 15.0g",1Value per 100 g,
Proximates
"Energy",kcal,--,--,15,100
"Protein",g,--,--,0.00,0.00
"Total lipid (fat)",g,--,--,0.00,0.00
"Carbohydrate, by difference",g,--,--,3.00,20.00
"Fiber, total dietary",g,--,--,0.0,0.0
"Sugars, total",g,--,--,3.00,20.00
Minerals
"Calcium, Ca",mg,--,--,0,0
"Iron, Fe",mg,--,--,0.00,0.00
"Sodium, Na",mg,--,--,100,667
Vitamins
"Vitamin C, total ascorbic acid",mg,--,--,0.0,0.0
"Vitamin A, IU",IU,--,--,0,0
Lipids
"Fatty acids, total saturated",g,--,--,0.000,0.000
"Fatty acids, total trans",g,--,--,0.000,0.000
"Cholesterol",mg,--,--,0,0
Amino Acids
Other
Ingredients
"CUCUMBERS, SUGAR, WATER, VINEGAR, CONTAINS LESS THAN 2% OF SALT, LACTIC ACID, SPICES (CONTAINS MUSTARD), XANTHAN GUM, CALCIUM CHLORIDE, DEHYDRATED RED BELL PEPPER, SODIUM BENZOATE AND POTASSIUM SORBATE (AS PRESERVATIVES), NATURAL AND ARTIFICIAL FLAVOR, ALUM, YELLOW 5." Date available: 06/25/2017 Date last updated by company: 06/25/2017
