Source: USDA Branded Food Products Database Release December 2017 Software v.3.8.6.4 2017-10-02
Report Run at: December 18, 2017 11:14 EST
"Nutrient data for: 45261208, SWEET ITALIAN SAUSAGE, UPC: 034671144688"
Food Group:  Branded Food Products Database
Common Name:

Nutrient,Unit,Data points,Std. Error,"1 LINK = 75.0g",1Value per 100 g,
Proximates
"Energy",kcal,--,--,111,148
"Protein",g,--,--,12.00,16.00
"Total lipid (fat)",g,--,--,12.00,16.00
"Carbohydrate, by difference",g,--,--,1.00,1.33
"Fiber, total dietary",g,--,--,0.0,0.0
"Sugars, total",g,--,--,2.00,2.67
Minerals
"Calcium, Ca",mg,--,--,40,53
"Iron, Fe",mg,--,--,1.08,1.44
"Sodium, Na",mg,--,--,650,867
Vitamins
"Vitamin C, total ascorbic acid",mg,--,--,1.2,1.6
"Vitamin A, IU",IU,--,--,100,133
Lipids
"Fatty acids, total saturated",g,--,--,2.002,2.670
"Fatty acids, total trans",g,--,--,0.000,0.000
"Cholesterol",mg,--,--,50,67
Amino Acids
Other
Ingredients
"PORK, WATER, DEXTROSE, SLAT, FLAVORINGS, GARLIC POWDER, PAPRIKA EXTRACT." Date available: 12/31/2016 Date last updated by company: 12/31/2016
