Source: USDA Branded Food Products Database Release December 2017 Software v.3.8.6.4 2017-10-02
Report Run at: December 18, 2017 11:31 EST
"Nutrient data for: 45201707, SWEET POTATO SNACKERS, UPC: 744548112213"
Food Group:  Branded Food Products Database
Common Name:

Nutrient,Unit,Data points,Std. Error,"1 KNISH = 57.0g",1Value per 100 g,
Proximates
"Energy",kcal,--,--,115,202
"Protein",g,--,--,2.00,3.51
"Total lipid (fat)",g,--,--,2.00,3.51
"Carbohydrate, by difference",g,--,--,15.00,26.32
"Fiber, total dietary",g,--,--,3.0,5.3
"Sugars, total",g,--,--,8.00,14.04
Minerals
"Calcium, Ca",mg,--,--,60,105
"Iron, Fe",mg,--,--,2.37,4.16
"Sodium, Na",mg,--,--,240,421
Vitamins
"Vitamin C, total ascorbic acid",mg,--,--,7.9,13.9
"Vitamin A, IU",IU,--,--,5702,10004
Lipids
"Fatty acids, total saturated",g,--,--,0.524,0.920
"Fatty acids, total trans",g,--,--,0.000,0.000
"Cholesterol",mg,--,--,0,0
Amino Acids
Other
Ingredients
"SWEET POTATO FILLING (SWEET POTATOES, POTATOES, SUGAR, CINNAMON, VANILLA), DOUGH (ENRICHED WHEAT FLOUR [WHEAT FLOUR, NIACIN, REDUCED IRON, THIAMIN MONONITRATE, RIBOFLAVIN, FOLIC ACID], WATER, CANOLA OIL, SUGAR, SALT, YEAST, CALCIUM PROPIONATE, TURMERIC)." Date available: 07/14/2017 Date last updated by company: 07/14/2017
