Source: USDA Branded Food Products Database Release December 2017 Software v.3.8.6.4 2017-10-02
Report Run at: December 18, 2017 11:20 EST
"Nutrient data for: 45329703, SWEET 'N SALTY MIX, UPC: 077034018455"
Food Group:  Branded Food Products Database
Common Name:

Nutrient,Unit,Data points,Std. Error,"0.25 CUP | ABOUT = 28.0g",1Value per 100 g,
Proximates
"Energy",kcal,--,--,140,500
"Protein",g,--,--,4.00,14.29
"Total lipid (fat)",g,--,--,9.00,32.14
"Carbohydrate, by difference",g,--,--,14.00,50.00
"Fiber, total dietary",g,--,--,1.0,3.6
"Sugars, total",g,--,--,10.00,35.71
Minerals
"Calcium, Ca",mg,--,--,20,71
"Iron, Fe",mg,--,--,1.29,4.59
"Potassium, K",mg,--,--,150,536
"Sodium, Na",mg,--,--,55,196
Vitamins
"Vitamin C, total ascorbic acid",mg,--,--,0.0,0.0
"Vitamin A, IU",IU,--,--,0,0
Lipids
"Fatty acids, total saturated",g,--,--,2.500,8.930
"Fatty acids, total trans",g,--,--,0.000,0.000
"Cholesterol",mg,--,--,0,0
Amino Acids
Other
Ingredients
"PEANUTS (PEANUTS, PEANUT AND/OR SUNFLOWER OIL, SALT). RAISINS. CHOCOLATE CANDIES (CONFECTIONARY COATING [SUGAR, HYDROGENATED PALM KERNEL OIL, COCOA POWDER, WHEY POWDER, NONFAT MILK POWDER, SOY LECITHIN {AN EMULSIFIER}, VANILLA], SUGAR, ARTIFICIAL COLORING [INCLUDES YELLOW 6 LAKE, YELLOW 6, YELLOW 5 LAKE, BLUE 1 LAKE, RED 40 LAKE, BLUE 2 LAKE], GUM ARABIC, CORN SYRUP, CONFECTIONER'S GLAZE). SUNFLOWER KERNELS (SUNFLOWER KERNELS, PEANUT AND/OR SUNFLOWER OIL, SALT)." Date available: 10/13/2017 Date last updated by company: 10/13/2017
