Source: USDA Branded Food Products Database Release December 2017 Software v.3.8.6.4 2017-10-02
Report Run at: December 18, 2017 10:52 EST
"Nutrient data for: 45084496, SWEET CREEK FOODS, ORGANIC BREAD & BUTTER PICKLES, UPC: 882511107030"
Food Group:  Branded Food Products Database
Common Name:

Nutrient,Unit,Data points,Std. Error,"4.0 SLICES) | (ABOUT = 15.0g",1Value per 100 g,
Proximates
"Energy",kcal,--,--,15,100
"Total lipid (fat)",g,--,--,0.00,0.00
"Carbohydrate, by difference",g,--,--,4.00,26.67
"Fiber, total dietary",g,--,--,0.0,0.0
"Sugars, total",g,--,--,2.00,13.33
Minerals
"Sodium, Na",mg,--,--,39,260
Vitamins
Lipids
Amino Acids
Other
Ingredients
"ORGANIC CUCUMBERS, ORGANIC APPLE CIDER VINEGAR, ORGANIC EVAPORATED CANE JUICE, FILTERED WATER, ORGANIC ONIONS, ORGANIC SPICES, SEA SALT" Date available: 06/25/2017 Date last updated by company: 06/25/2017
