Source: USDA Branded Food Products Database Release December 2017 Software v.3.8.6.4 2017-10-02
Report Run at: December 18, 2017 11:52 EST
"Nutrient data for: 45170182, SWEETWATER GROWERS, GOURMET INFUSED EXTRA VIRGIN OLIVE OIL, FRESH GARLIC BASIL, UPC: 887295004957"
Food Group:  Branded Food Products Database
Common Name:

Nutrient,Unit,Data points,Std. Error,"1 Tbsp = 15.0g",1Value per 100 g,
Proximates
"Energy",kcal,--,--,110,733
"Protein",g,--,--,0.00,0.00
"Total lipid (fat)",g,--,--,12.00,80.00
"Carbohydrate, by difference",g,--,--,1.00,6.67
"Fiber, total dietary",g,--,--,0.0,0.0
"Sugars, total",g,--,--,0.00,0.00
Minerals
"Calcium, Ca",mg,--,--,0,0
"Iron, Fe",mg,--,--,0.00,0.00
"Sodium, Na",mg,--,--,0,0
Vitamins
"Vitamin C, total ascorbic acid",mg,--,--,4.0,26.7
"Vitamin A, IU",IU,--,--,0,0
Lipids
"Fatty acids, total saturated",g,--,--,1.500,10.000
"Fatty acids, total trans",g,--,--,0.000,0.000
"Cholesterol",mg,--,--,0,0
Amino Acids
Other
Ingredients
"EXTRA VIRGIN OLIVE OIL, FRESH GARLIC, FRESH BASIL AND LEMON JUICE." Date available: 07/14/2017 Date last updated by company: 07/14/2017
