Source: USDA Branded Food Products Database Release December 2017 Software v.3.8.6.4 2017-10-02
Report Run at: December 18, 2017 11:51 EST
"Nutrient data for: 45193632, SWEET THAI CHILI WRAPPED WHITE MEAT CHICKEN EGG ROLLS, UPC: 011251022529"
Food Group:  Branded Food Products Database
Common Name:

Nutrient,Unit,Data points,Std. Error,"2.0 EGG ROLLS W/SAUCE = 156.0g",1Value per 100 g,
Proximates
"Energy",kcal,--,--,279,179
"Protein",g,--,--,11.00,7.05
"Total lipid (fat)",g,--,--,7.00,4.49
"Carbohydrate, by difference",g,--,--,45.01,28.85
"Fiber, total dietary",g,--,--,3.0,1.9
"Sugars, total",g,--,--,12.00,7.69
Minerals
"Calcium, Ca",mg,--,--,59,38
"Iron, Fe",mg,--,--,0.59,0.38
"Sodium, Na",mg,--,--,739,474
Vitamins
"Vitamin C, total ascorbic acid",mg,--,--,4.8,3.1
"Vitamin A, IU",IU,--,--,1226,786
Lipids
"Fatty acids, total saturated",g,--,--,0.998,0.640
"Fatty acids, total trans",g,--,--,0.000,0.000
"Cholesterol",mg,--,--,9,6
Amino Acids
Other
Ingredients
"FILLING: WHITE MEAT CHICKEN, CABBAGE, CELERY, CARROTS, SOYBEAN OIL, SUGAR, ONIONS, TEXTURED VEGETABLE PROTEIN, SALT, SESAME OIL, GARLIC POWDER, WHITE PEPPER, DISODIUM GUANYLATE, THAI CHILI FLAVOR (RED PEPPER FLAKES, SPICES, NATURAL FLAVORING). CRUST: WHEAT FLOUR, WATER, SOYBEAN OIL, CORN FLOUR (CORN FLOUR, NIACIN, REDUCED IRON, THIAMINE MONONITRATE, RIBOFLAVIN, AND FOLIC ACID), SUGAR, CORNSTARCH, THAI CHILI FLAVOR (RED PEPPER FLAKES, SPICES, NATURAL FLAVORING), SALT, VEGETABLE SHORTENING (PARTIALLY HYDROGENATED SOYBEAN OIL), SOY LECITHIN, EGGS, CALCIUM PROPIONATE, BAKING POWDER (MONOCALCIUM PHOSPHATE, SODIUM BICARBONATE, AND CORNSTARCH), EXTRACTIVE OF PAPRIKA. SAUCE: WATER, SUGAR, APPLE CIDER VINEGAR, TOMATO PASTE, CORNSTARCH, DISTILLED WHITE VINEGAR, PINEAPPLE JUICE CONCENTRATE, SALT, LEMON JUICE CONCENTRATE, CITRIC ACID." Date available: 07/14/2017 Date last updated by company: 07/14/2017
