Source: USDA Branded Food Products Database Release December 2017 Software v.3.8.6.4 2017-10-02
Report Run at: December 18, 2017 10:39 EST
"Nutrient data for: 45320292, SWEETARTS, SOFT & CHEWY ROPES TANGY CANDY, CHERRY PUNCH, UPC: 079200555412"
Food Group:  Branded Food Products Database
Common Name:

Nutrient,Unit,Data points,Std. Error,"3.0 ROPES = 37.0g",1Value per 100 g,
Proximates
"Energy",kcal,--,--,140,378
"Protein",g,--,--,0.00,0.00
"Total lipid (fat)",g,--,--,0.00,0.00
"Carbohydrate, by difference",g,--,--,34.00,91.89
"Sugars, total",g,--,--,23.00,62.16
Minerals
"Sodium, Na",mg,--,--,85,230
Vitamins
Lipids
Amino Acids
Other
Ingredients
"SUGAR, WHEAT FLOUR, CORN SYRUP, AND LESS THAN 2% OF WATER, CITRIC ACID, SORBITOL, MALTODEXTRIN, SODIUM CITRATE, GLYCERIN, MALIC ACID, NATURAL FLAVORS, GELATIN, SALT, VEGETABLE JUICE COLOR, BETA CAROTENE (COLOR), CONFECTIONER'S GLAZE (LAC-RESIN)." Date available: 07/14/2017 Date last updated by company: 07/14/2017
