Source: USDA Branded Food Products Database Release December 2017 Software v.3.8.6.4 2017-10-02
Report Run at: December 18, 2017 11:30 EST
"Nutrient data for: 45099089, SWEET POTATO PIE FILLING, UPC: 017600043771"
Food Group:  Branded Food Products Database
Common Name:

Nutrient,Unit,Data points,Std. Error,"0.5 cup = 90.0g",1Value per 100 g,
Proximates
"Energy",kcal,--,--,140,156
"Protein",g,--,--,1.00,1.11
"Total lipid (fat)",g,--,--,0.00,0.00
"Carbohydrate, by difference",g,--,--,33.00,36.67
"Fiber, total dietary",g,--,--,1.0,1.1
"Sugars, total",g,--,--,27.00,30.00
Minerals
"Calcium, Ca",mg,--,--,20,22
"Iron, Fe",mg,--,--,0.68,0.76
"Sodium, Na",mg,--,--,100,111
Vitamins
"Vitamin C, total ascorbic acid",mg,--,--,2.2,2.5
"Vitamin A, IU",IU,--,--,6139,6821
Lipids
"Fatty acids, total saturated",g,--,--,0.000,0.000
"Fatty acids, total trans",g,--,--,0.000,0.000
"Cholesterol",mg,--,--,0,0
Amino Acids
Other
Ingredients
"SWEET POTATOES, SUGAR, WATER, SALT AND SPICES." Date available: 07/14/2017 Date last updated by company: 07/14/2017
