Source: USDA Branded Food Products Database Release December 2017 Software v.3.8.6.4 2017-10-02
Report Run at: December 18, 2017 11:42 EST
"Nutrient data for: 45270033, SWEET & SMOOTH DRESSING, UPC: 041321301209"
Food Group:  Branded Food Products Database
Common Name:

Nutrient,Unit,Data points,Std. Error,"2.0 Tbsp = 30.0g",1Value per 100 g,
Proximates
"Energy",kcal,--,--,170,567
"Protein",g,--,--,0.00,0.00
"Total lipid (fat)",g,--,--,12.00,40.00
"Carbohydrate, by difference",g,--,--,13.00,43.33
"Fiber, total dietary",g,--,--,0.0,0.0
"Sugars, total",g,--,--,12.00,40.00
Minerals
"Calcium, Ca",mg,--,--,0,0
"Iron, Fe",mg,--,--,0.00,0.00
"Sodium, Na",mg,--,--,250,833
Vitamins
"Vitamin C, total ascorbic acid",mg,--,--,0.0,0.0
"Vitamin A, IU",IU,--,--,334,1112
Lipids
"Fatty acids, total saturated",g,--,--,2.001,6.670
"Fatty acids, total trans",g,--,--,0.000,0.000
"Cholesterol",mg,--,--,0,0
Amino Acids
Other
Ingredients
"HIGH FRUCTOSE CORN SYRUP, SOYBEAN OIL, DISTILLED VINEGAR, TOMATO PASTE. CONTAINS 2% OR LESS OF: SALT, PAPRIKA, WATER, SPICES, NATURAL FLAVORS, XANTHAN GUM, BEET JUICE CONCENTRATE (COLOR), MODIFIED GUM ACACIA, ONION*, APPLE JUICE CONCENTRATE, APPLE CIDER VINEGAR, PROPYLENE GLYCOL, CITRIC ACID, CALCIUM DISODIUM EDTA (TO PROTECT QUALITY)." Date available: 07/14/2017 Date last updated by company: 07/14/2017
