Source: USDA Branded Food Products Database Release December 2017 Software v.3.8.6.4 2017-10-02
Report Run at: December 18, 2017 10:53 EST
"Nutrient data for: 45171611, SWEET EARTH NATURAL FOODS, BENEVOLENT BACON, VEGAN BACON, HICKORY & SAGE, UPC: 016741431119"
Food Group:  Branded Food Products Database
Common Name:

Nutrient,Unit,Data points,Std. Error,"2.0 SLICES = 38.0g",1Value per 100 g,
Proximates
"Energy",kcal,--,--,90,237
"Protein",g,--,--,10.00,26.32
"Total lipid (fat)",g,--,--,3.50,9.21
"Carbohydrate, by difference",g,--,--,6.00,15.79
"Fiber, total dietary",g,--,--,1.0,2.6
"Sugars, total",g,--,--,1.00,2.63
Minerals
"Calcium, Ca",mg,--,--,20,53
"Iron, Fe",mg,--,--,0.72,1.89
"Sodium, Na",mg,--,--,160,421
Vitamins
"Vitamin C, total ascorbic acid",mg,--,--,1.2,3.2
"Thiamin",mg,--,--,0.380,1.000
"Riboflavin",mg,--,--,1.020,2.684
"Niacin",mg,--,--,23.158,60.942
"Vitamin B-6",mg,--,--,0.868,2.285
"Vitamin A, IU",IU,--,--,400,1053
Lipids
"Fatty acids, total saturated",g,--,--,0.502,1.320
"Fatty acids, total trans",g,--,--,0.000,0.000
"Cholesterol",mg,--,--,0,0
Amino Acids
Other
Ingredients
"FILTERED WATER, VITAL WHEAT GLUTEN, EXTRA VIRGIN OLIVE OIL, RED BEANS*, BUCKWHEAT GROATS*, VEGAN BACON NATURAL FLAVORS, NATURAL HICKORY SMOKE, EVAPORATED CANE JUICE*, MAPLE SYRUP*, NATURAL SOY SAUCE, GARLIC, SEA SALT, TOMATO PASTE, NUTRITIONAL YEAST, COCONUT OIL, APPLE CIDER VINEGAR, CUMIN, SAGE, ROSEMARY, CARAMELIZED SUGAR, AND SPICES." Date available: 10/08/2016 Date last updated by company: 10/08/2016
