Source: USDA Branded Food Products Database Release December 2017 Software v.3.8.6.4 2017-10-02
Report Run at: December 18, 2017 10:46 EST
"Nutrient data for: 45223352, SWEET CAYENNE BBQ ALMOND BAR, UPC: 602652171482"
Food Group:  Branded Food Products Database
Common Name:

Nutrient,Unit,Data points,Std. Error,"1 BAR = 45.0g",1Value per 100 g,
Proximates
"Energy",kcal,--,--,230,511
"Protein",g,--,--,10.00,22.22
"Total lipid (fat)",g,--,--,16.00,35.56
"Carbohydrate, by difference",g,--,--,15.00,33.33
"Fiber, total dietary",g,--,--,3.0,6.7
"Sugars, total",g,--,--,6.00,13.33
Minerals
"Calcium, Ca",mg,--,--,107,238
"Iron, Fe",mg,--,--,2.00,4.44
"Magnesium, Mg",mg,--,--,99,220
"Phosphorus, P",mg,--,--,183,407
"Sodium, Na",mg,--,--,140,311
"Zinc, Zn",mg,--,--,1.00,2.22
"Copper, Cu",mg,--,--,0.300,0.667
"Manganese, Mn",mg,--,--,0.900,2.000
Vitamins
"Riboflavin",mg,--,--,0.300,0.667
"Niacin",mg,--,--,2.000,4.444
"Vitamin E (alpha-tocopherol)",mg,--,--,5.85,13.00
"Vitamin D",IU,--,--,0,0
Lipids
"Fatty acids, total saturated",g,--,--,1.498,3.330
"Fatty acids, total monounsaturated",g,--,--,9.000,20.000
"Fatty acids, total polyunsaturated",g,--,--,4.500,10.000
"Fatty acids, total trans",g,--,--,0.000,0.000
"Cholesterol",mg,--,--,0,0
Amino Acids
Other
Ingredients
"ALMONDS, PUMPKIN SEEDS, GLUCOSE SYRUP, HONEY, PEA PROTEIN ISOLATE, BBQ SEASONING (TOMATO POWDER, DISTILLED VINEGAR, GARLIC POWDER, MOLASSES, CAYENNE PEPPER, BLACK PEPPER, NATURAL FLAVOR, MUSTARD SEED, CITRIC ACID, JALAPENO CHILI, GINGER, CINNAMON, CLOVE), PEA STARCH, RICE FLOUR, SEA SALT, SUNFLOWER LECITHIN." Date available: 07/14/2017 Date last updated by company: 07/14/2017
