Source: USDA Branded Food Products Database Release December 2017 Software v.3.8.6.4 2017-10-02
Report Run at: December 18, 2017 11:25 EST
"Nutrient data for: 45156236, SWEET PECAN CRUNCH, UPC: 012265003160"
Food Group:  Branded Food Products Database
Common Name:

Nutrient,Unit,Data points,Std. Error,"2.333 COOKIES = 30.0g",1Value per 100 g,
Proximates
"Energy",kcal,--,--,160,533
"Protein",g,--,--,1.00,3.33
"Total lipid (fat)",g,--,--,10.00,33.33
"Carbohydrate, by difference",g,--,--,16.00,53.33
"Fiber, total dietary",g,--,--,1.0,3.3
"Sugars, total",g,--,--,11.00,36.67
Minerals
"Calcium, Ca",mg,--,--,0,0
"Iron, Fe",mg,--,--,1.20,4.00
"Sodium, Na",mg,--,--,95,317
Vitamins
"Vitamin C, total ascorbic acid",mg,--,--,0.0,0.0
"Vitamin A, IU",IU,--,--,0,0
Lipids
"Fatty acids, total saturated",g,--,--,6.000,20.000
"Fatty acids, total trans",g,--,--,0.999,3.330
"Cholesterol",mg,--,--,0,0
Amino Acids
Other
Ingredients
"WHITE CONFECTIONERY COATING (SUGAR, PALM KERNEL OIL, WHOLE MILK POWDER, REDUCED MINERAL WHEY POWDER, NONFAT MILK POWDER, SOY LECITHIN [EMULSIFIER], SALT, VANILLA), BLEACHED WHEAT FLOUR, BROWN SUGAR, VEGETABLE SHORTENING (PARTIALLY HYDROGENATED SOYBEAN AND COTTONSEED OIL), DRIED COCONUT (SODIUM METABISULFATE), WATER, PECANS, SALT, SODIUM BICARBONATE, NATURAL AND ARTIFICIAL FLAVOR." Date available: 07/14/2017 Date last updated by company: 07/14/2017
