Source: USDA Branded Food Products Database Release December 2017 Software v.3.8.6.4 2017-10-02
Report Run at: December 18, 2017 11:22 EST
"Nutrient data for: 45201631, SWEET PEANUT SAUCE, UPC: 804879525042"
Food Group:  Branded Food Products Database
Common Name:

Nutrient,Unit,Data points,Std. Error,"2.0 Tbsp = 30.0g",1Value per 100 g,
Proximates
"Energy",kcal,--,--,100,333
"Protein",g,--,--,3.00,10.00
"Total lipid (fat)",g,--,--,6.00,20.00
"Carbohydrate, by difference",g,--,--,8.00,26.67
"Fiber, total dietary",g,--,--,1.0,3.3
"Sugars, total",g,--,--,5.00,16.67
Minerals
"Calcium, Ca",mg,--,--,0,0
"Iron, Fe",mg,--,--,0.61,2.03
"Sodium, Na",mg,--,--,200,667
Vitamins
"Vitamin C, total ascorbic acid",mg,--,--,0.0,0.0
"Vitamin A, IU",IU,--,--,0,0
Lipids
"Fatty acids, total saturated",g,--,--,0.999,3.330
"Fatty acids, total trans",g,--,--,0.000,0.000
"Cholesterol",mg,--,--,0,0
Amino Acids
Other
Ingredients
"WATER, PEANUTS, DEXTROSE, HYDROGENATED VEGETABLE OIL {RAPESEED AND/OR COTTONSEED AND/OR SOYBEAN}, SALT, SUGAR, SWEET POTATO, MODIFIED CORN STARCH, SESAME SEEDS, GARLIC, WHEAT FLOUR, CHILI PEPPERS, SPICES, CARAMEL COLOR, ACETIC ACID, VINEGAR, XANTHAN GUM, PAPRIKA CITRIC ACID." Date available: 07/14/2017 Date last updated by company: 07/14/2017
