Source: USDA Branded Food Products Database Release December 2017 Software v.3.8.6.4 2017-10-02
Report Run at: December 18, 2017 10:42 EST
"Nutrient data for: 45226732, SWEET BABY RAY'S, SAUCE & MARINADE, SWEET RED CHILI, UPC: 013409515846"
Food Group:  Branded Food Products Database
Common Name:

Nutrient,Unit,Data points,Std. Error,"1 Tbsp = 15.0g",1Value per 100 g,
Proximates
"Energy",kcal,--,--,40,267
"Protein",g,--,--,0.00,0.00
"Total lipid (fat)",g,--,--,0.00,0.00
"Carbohydrate, by difference",g,--,--,10.00,66.67
"Fiber, total dietary",g,--,--,0.0,0.0
"Sugars, total",g,--,--,9.00,60.00
Minerals
"Calcium, Ca",mg,--,--,0,0
"Iron, Fe",mg,--,--,0.00,0.00
"Sodium, Na",mg,--,--,200,1333
Vitamins
"Vitamin C, total ascorbic acid",mg,--,--,8.0,53.3
"Vitamin A, IU",IU,--,--,333,2223
Lipids
"Fatty acids, total saturated",g,--,--,0.000,0.000
"Fatty acids, total trans",g,--,--,0.000,0.000
"Cholesterol",mg,--,--,0,0
Amino Acids
Other
Ingredients
"HIGH FRUCTOSE CORN SYRUP, VINEGAR, AGED CAYENNE PEPPER, SOY SAUCE (WATER, WHEAT, SOYBEANS, SALT, SODIUM BENZOATE [PRESERVATIVE]), MODIFIED FOOD STARCH, WATER, SUGAR, CONTAINS LESS THAN 2% OF SALT, SRIRACHA CHILI SAUCE (RED CHILI, VINEGAR, SUGAR, SALT, GARLIC, ACETIC ACID, LACTIC ACID, RED CHILI POWDER, XANTHAN GUM, POTASSIUM SORBATE AND SODIUM BISULFITE [PRESERVATIVES]), RED BELL PEPPER, GARLIC,* VEGETABLE OIL (SOYBEAN AND/OR CANOLA), RED BELL PEPPER,* CHICKEN BASE (CHICKEN MEAT INCLUDING NATURAL CHICKEN JUICES, SALT, SUGAR, CHICKEN FAT, HYDROLYZED [CORN, WHEAT AND SOY] PROTEIN, WHEY,* MALTODEXTRIN, NATURAL FLAVORS, COTTONSEED OIL, CORN OIL, DISODIUM INOSINATE AND DISODIUM GUANYLATE, AUTOLYZED YEAST EXTRACT, DEXTROSE, TURMERIC AND ANNATTO EXTRACTS), SPICE, CHILI DE ARBOL PEPPER,* XANTHAN GUM, SODIUM BENZOATE, POTASSIUM SORBATE AND SODIUM METABISULFITE (PRESERVATIVES), GARLIC POWDER, PAPRIKA." Date available: 09/29/2017 Date last updated by company: 09/29/2017
