Source: USDA Branded Food Products Database Release December 2017 Software v.3.8.6.4 2017-10-02
Report Run at: December 18, 2017 10:36 EST
"Nutrient data for: 45278377, SWEET APPLE CHICKEN SAUSAGE, UPC: 688267147661"
Food Group:  Branded Food Products Database
Common Name:

Nutrient,Unit,Data points,Std. Error,"1 LINK = 68.0g",1Value per 100 g,
Proximates
"Energy",kcal,--,--,100,147
"Protein",g,--,--,14.00,20.59
"Total lipid (fat)",g,--,--,3.00,4.41
"Carbohydrate, by difference",g,--,--,3.00,4.41
"Fiber, total dietary",g,--,--,0.0,0.0
"Sugars, total",g,--,--,3.00,4.41
Minerals
"Calcium, Ca",mg,--,--,20,29
"Iron, Fe",mg,--,--,0.58,0.86
"Sodium, Na",mg,--,--,500,735
Vitamins
"Vitamin C, total ascorbic acid",mg,--,--,2.0,2.9
"Vitamin A, IU",IU,--,--,81,119
Lipids
"Fatty acids, total saturated",g,--,--,1.000,1.470
"Fatty acids, total trans",g,--,--,0.000,0.000
"Cholesterol",mg,--,--,55,81
Amino Acids
Other
Ingredients
"ORGANIC SKINLESS CHICKEN, ORGANIC DRIED APPLES, SEA SALT, ORGANIC SUGAR, ORGANIC CINNAMON, ORGANIC NUTMEG, ORGANIC BLACK PEPPER." Date available: 07/14/2017 Date last updated by company: 07/14/2017
