Source: USDA Branded Food Products Database Release December 2017 Software v.3.8.6.4 2017-10-02
Report Run at: December 18, 2017 10:33 EST
"Nutrient data for: 45096216, SWEEPY, DULCE DE LECHE SNACK DIP, BREADSTICKS, UPC: 852880005039"
Food Group:  Branded Food Products Database
Common Name:

Nutrient,Unit,Data points,Std. Error,"1 CONTAINER = 60.0g",1Value per 100 g,
Proximates
"Energy",kcal,--,--,200,333
"Protein",g,--,--,3.00,5.00
"Total lipid (fat)",g,--,--,6.00,10.00
"Carbohydrate, by difference",g,--,--,34.00,56.67
"Fiber, total dietary",g,--,--,1.0,1.7
"Sugars, total",g,--,--,12.00,20.00
Minerals
"Calcium, Ca",mg,--,--,120,200
"Iron, Fe",mg,--,--,0.30,0.50
"Sodium, Na",mg,--,--,110,183
Vitamins
"Vitamin C, total ascorbic acid",mg,--,--,0.0,0.0
"Vitamin A, IU",IU,--,--,250,417
Lipids
"Fatty acids, total saturated",g,--,--,1.002,1.670
"Fatty acids, total trans",g,--,--,0.000,0.000
"Cholesterol",mg,--,--,10,17
Amino Acids
Other
Ingredients
"DIP: MILK, SUGAR, GLUCOSE, VANILLA (NATURAL FLAVOR), BAKING SODA (SODIUM BICARBONATE) BREADSTICKS: WHEAT FLOUR, PALM OIL, YEAST, SALT, NATURAL FLAVOR." Date available: 06/25/2017 Date last updated by company: 06/25/2017
