Source: USDA Branded Food Products Database Release December 2017 Software v.3.8.6.4 2017-10-02
Report Run at: December 18, 2017 11:43 EST
"Nutrient data for: 45282669, SWEET & SOUR SAUCE, UPC: 041268190430"
Food Group:  Branded Food Products Database
Common Name:

Nutrient,Unit,Data points,Std. Error,"2.0 Tbsp = 34.0g",1Value per 100 g,
Proximates
"Energy",kcal,--,--,40,118
"Protein",g,--,--,0.00,0.00
"Total lipid (fat)",g,--,--,0.00,0.00
"Carbohydrate, by difference",g,--,--,9.00,26.47
"Fiber, total dietary",g,--,--,0.0,0.0
"Sugars, total",g,--,--,8.00,23.53
Minerals
"Calcium, Ca",mg,--,--,0,0
"Iron, Fe",mg,--,--,0.00,0.00
"Sodium, Na",mg,--,--,190,559
Vitamins
"Vitamin C, total ascorbic acid",mg,--,--,0.0,0.0
"Vitamin A, IU",IU,--,--,0,0
Lipids
"Fatty acids, total saturated",g,--,--,0.000,0.000
"Fatty acids, total trans",g,--,--,0.000,0.000
"Cholesterol",mg,--,--,0,0
Amino Acids
Other
Ingredients
"WATER, SUGAR, SOY SAUCE (WATER, WHEAT, SOYBEANS, SALT AND LESS THAN 0.10% SODIUM BENZOATE AS A PRESERVATIVE), VINEGAR, MODIFIED CORN STARCH, PINEAPPLE JUICE CONCENTRATE, TOMATO PASTE, ONION POWDER, DEHYDRATED GREEN BELL PEPPERS, XANTHAN GUM, CARAMEL COLOR, NATURAL EXTRACTIVES OF PAPRIKA, GARLIC POWDER, CITRIC ACID, NATURAL FLAVORS, DISODIUM INOSINATE, DISODIUM GUANYLATE, SPICE." Date available: 07/14/2017 Date last updated by company: 07/14/2017
