Source: USDA Branded Food Products Database Release December 2017 Software v.3.8.6.4 2017-10-02
Report Run at: December 18, 2017 10:46 EST
"Nutrient data for: 45157431, SWEET CANDY COMPANY, TAFFY, SEA SALT, UPC: 071443011502"
Food Group:  Branded Food Products Database
Common Name:

Nutrient,Unit,Data points,Std. Error,"7.0 PIECES = 42.0g",1Value per 100 g,
Proximates
"Energy",kcal,--,--,160,381
"Protein",g,--,--,0.00,0.00
"Total lipid (fat)",g,--,--,2.00,4.76
"Carbohydrate, by difference",g,--,--,38.00,90.48
"Fiber, total dietary",g,--,--,0.0,0.0
"Sugars, total",g,--,--,23.00,54.76
Minerals
"Calcium, Ca",mg,--,--,0,0
"Iron, Fe",mg,--,--,0.00,0.00
"Sodium, Na",mg,--,--,60,143
Vitamins
"Vitamin C, total ascorbic acid",mg,--,--,0.0,0.0
"Vitamin A, IU",IU,--,--,0,0
Lipids
"Fatty acids, total saturated",g,--,--,1.499,3.570
"Fatty acids, total trans",g,--,--,0.000,0.000
"Cholesterol",mg,--,--,0,0
Amino Acids
Other
Ingredients
"CORN SYRUP, SUGAR, COCONUT OIL, CONTAINS 1% OR LESS OF: EGG WHITES, NATURAL AND ARTIFICIAL FLAVORS, SALT, MALIC ACID, YELLOW #5, RED #40, BLUE #1, RED #3, YELLOW #6, CARAMEL COLOR, BLUE #2 LAKE, YELLOW #6 LAKE, RED #40 LAKE, TITANIUM DIOXIDE, SOY LECITHIN (ADDED AS AN EMULSIFIER)." Date available: 07/14/2017 Date last updated by company: 07/14/2017
