Source: USDA Branded Food Products Database Release December 2017 Software v.3.8.6.4 2017-10-02
Report Run at: December 18, 2017 10:35 EST
"Nutrient data for: 45200283, SWEET AND SPICY KETCHUP, UPC: 700580825405"
Food Group:  Branded Food Products Database
Common Name:

Nutrient,Unit,Data points,Std. Error,"1 Tbsp = 15.0g",1Value per 100 g,
Proximates
"Energy",kcal,--,--,10,67
"Protein",g,--,--,0.00,0.00
"Total lipid (fat)",g,--,--,0.00,0.00
"Carbohydrate, by difference",g,--,--,3.00,20.00
"Sugars, total",g,--,--,2.00,13.33
Minerals
"Sodium, Na",mg,--,--,140,933
Vitamins
"Vitamin C, total ascorbic acid",mg,--,--,20.0,133.3
"Vitamin A, IU",IU,--,--,1666,11110
Lipids
"Fatty acids, total trans",g,--,--,0.000,0.000
Amino Acids
Other
Ingredients
"CALIFORNIA TOMATOES, CHILI PEPPERS, APPLE CIDER VINEGAR, BROWN SUGAR, SEA SALT, AND GARLIC." Date available: 07/14/2017 Date last updated by company: 07/14/2017
