Source: USDA Branded Food Products Database Release December 2017 Software v.3.8.6.4 2017-10-02
Report Run at: December 18, 2017 11:37 EST
"Nutrient data for: 45152992, SWEET & SALTY TRAIL MIX, UPC: 098437240373"
Food Group:  Branded Food Products Database
Common Name:

Nutrient,Unit,Data points,Std. Error,"0.25 cup = 30.0g",1Value per 100 g,
Proximates
"Energy",kcal,--,--,160,533
"Protein",g,--,--,2.00,6.67
"Total lipid (fat)",g,--,--,9.00,30.00
"Carbohydrate, by difference",g,--,--,16.00,53.33
"Fiber, total dietary",g,--,--,2.0,6.7
"Sugars, total",g,--,--,14.00,46.67
Minerals
"Calcium, Ca",mg,--,--,0,0
"Iron, Fe",mg,--,--,0.60,2.00
"Sodium, Na",mg,--,--,35,117
Vitamins
"Vitamin C, total ascorbic acid",mg,--,--,0.0,0.0
"Vitamin A, IU",IU,--,--,0,0
Lipids
"Fatty acids, total saturated",g,--,--,3.000,10.000
"Fatty acids, total trans",g,--,--,0.000,0.000
"Cholesterol",mg,--,--,0,0
Amino Acids
Other
Ingredients
"PEANUTS (PEANUTS, PEANUT OIL, SALT), RAISINS (RAISINS, SUNFLOWER OIL), COCOA GEMS (CONFECTIONERY COATING [SUGAR, HYDROGENATED PALM KERNEL OIL, COCOA POWDER, WHEY POWDER, NONFAT MILK POWDER, SOY LECITHIN, VANILLA]), SUGAR, ARTIFICIAL COLORING (INCLUDES RED #40 LAKE, YELLOW #6 LAKE, YELLOW #6, YELLOW #5 LAKE, BLUE #2 LAKE, BLUE #1 LAKE), GUM ARABIC, CORN SYRUP, CONFECTIONER'S GLAZE), ALMONDS (ALMONDS, PEANUT OIL, SALT)," Date available: 07/14/2017 Date last updated by company: 07/14/2017
