Source: USDA Branded Food Products Database Release December 2017 Software v.3.8.6.4 2017-10-02
Report Run at: December 18, 2017 11:11 EST
"Nutrient data for: 45162658, SWEETHEARTS, CANDIES, UPC: 011215329350"
Food Group:  Branded Food Products Database
Common Name:

Nutrient,Unit,Data points,Std. Error,"1 BOX = 25.5g",1Value per 100 g,
Proximates
"Energy",kcal,--,--,100,392
"Protein",g,--,--,0.00,0.00
"Total lipid (fat)",g,--,--,0.00,0.00
"Carbohydrate, by difference",g,--,--,25.00,98.04
"Fiber, total dietary",g,--,--,0.0,0.0
"Sugars, total",g,--,--,24.00,94.12
Minerals
"Calcium, Ca",mg,--,--,0,0
"Iron, Fe",mg,--,--,0.00,0.00
"Sodium, Na",mg,--,--,0,0
Vitamins
"Vitamin C, total ascorbic acid",mg,--,--,0.0,0.0
"Vitamin A, IU",IU,--,--,0,0
Lipids
"Fatty acids, total saturated",g,--,--,0.000,0.000
"Fatty acids, total trans",g,--,--,0.000,0.000
"Cholesterol",mg,--,--,0,0
Amino Acids
Other
Ingredients
"SUGAR, CORN SYRUP, DEXTROSE, GLYCERIN, ARTIFICIAL AND NATURAL FLAVORS, GELATIN, VEGETABLE GUMS [TRAGACANTH, XANTHAN AND ARABIC], CITRIC ACID, ARTIFICIAL COLORS [RED 3, YELLOW 5, YELLOW 6, RED 40, BLUE 1]." Date available: 07/14/2017 Date last updated by company: 07/14/2017
