Source: USDA Branded Food Products Database Release December 2017 Software v.3.8.6.4 2017-10-02
Report Run at: December 18, 2017 11:17 EST
"Nutrient data for: 45324492, SWEET, LIGHT & CRUNCHY CRISPS, UPC: 859085006205"
Food Group:  Branded Food Products Database
Common Name:

Nutrient,Unit,Data points,Std. Error,"7.0 CRISPS = 15.0g",1Value per 100 g,
Proximates
"Energy",kcal,--,--,60,400
"Protein",g,--,--,1.00,6.67
"Total lipid (fat)",g,--,--,0.50,3.33
"Carbohydrate, by difference",g,--,--,12.00,80.00
"Fiber, total dietary",g,--,--,1.0,6.7
"Sugars, total",g,--,--,6.00,40.00
Minerals
"Calcium, Ca",mg,--,--,0,0
"Iron, Fe",mg,--,--,1.20,8.00
"Sodium, Na",mg,--,--,110,733
Vitamins
"Vitamin C, total ascorbic acid",mg,--,--,0.0,0.0
"Vitamin A, IU",IU,--,--,0,0
Lipids
"Fatty acids, total saturated",g,--,--,0.500,3.330
"Fatty acids, total trans",g,--,--,0.000,0.000
"Cholesterol",mg,--,--,0,0
Amino Acids
Other
Ingredients
"UNBLEACHED, ENRICHED WHEAT FLOUR [WHEAT FLOUR, MALTED BARLEY FLOUR, NIACIN, IRON, THIAMIN MONONITRATE (VITAMIN B1), RIBOFLAVIN (VITAMIN B2), FOLIC ACID], BROWN SUGAR, CINNAMON, COCONUT OIL, HONEY POWDER (CANE SUGAR, HONEY), NATURAL BUTTER FLAVORS, SALT, WHEAT FIBER, VANILLA EXTRACT, NATURAL ANTIOXIDANT BLEND [MIXED TOCOPHEROLS, ROSEMARY EXTRACT (TO MAINTAIN FLAVOR)]." Date available: 08/10/2017 Date last updated by company: 08/10/2017
