Source: USDA Branded Food Products Database Release December 2017 Software v.3.8.6.4 2017-10-02
Report Run at: December 18, 2017 11:14 EST
"Nutrient data for: 45193555, SWEET ITALIAN ROPE STYLE SAUSAGE, UPC: 011150538077"
Food Group:  Branded Food Products Database
Common Name:

Nutrient,Unit,Data points,Std. Error,"2.0 ONZ = 56.0g",1Value per 100 g,
Proximates
"Energy",kcal,--,--,180,321
"Protein",g,--,--,11.00,19.64
"Total lipid (fat)",g,--,--,14.00,25.00
"Carbohydrate, by difference",g,--,--,2.00,3.57
"Fiber, total dietary",g,--,--,0.0,0.0
"Sugars, total",g,--,--,2.00,3.57
Minerals
"Calcium, Ca",mg,--,--,20,36
"Iron, Fe",mg,--,--,0.35,0.63
"Potassium, K",mg,--,--,180,321
"Sodium, Na",mg,--,--,490,875
Vitamins
"Vitamin C, total ascorbic acid",mg,--,--,0.0,0.0
"Vitamin A, IU",IU,--,--,0,0
Lipids
"Fatty acids, total saturated",g,--,--,5.001,8.930
"Fatty acids, total monounsaturated",g,--,--,5.998,10.710
"Fatty acids, total polyunsaturated",g,--,--,1.501,2.680
"Fatty acids, total trans",g,--,--,0.000,0.000
"Cholesterol",mg,--,--,50,89
Amino Acids
Other
Ingredients
"PORK, WATER, CORN SYRUP, LESS THAN 2% OF THE FOLLOWING: SALT, DEXTROSE, NATURAL SPICES (INCLUDING FENNEL AND BLACK PEPPER), NATURAL FLAVORING, BHA, PROPYL GALLATE, CITRIC ACID, EXTRACTIVES OF PAPRIKA." Date available: 07/14/2017 Date last updated by company: 07/14/2017
