Source: USDA Branded Food Products Database Release December 2017 Software v.3.8.6.4 2017-10-02
Report Run at: December 18, 2017 11:14 EST
"Nutrient data for: 45287218, SWEET ITALIAN SAUSAGE, UPC: 884722000360"
Food Group:  Branded Food Products Database
Common Name:

Nutrient,Unit,Data points,Std. Error,"2.0 ONZ = 56.0g",1Value per 100 g,
Proximates
"Energy",kcal,--,--,140,250
"Protein",g,--,--,9.00,16.07
"Total lipid (fat)",g,--,--,11.00,19.64
"Carbohydrate, by difference",g,--,--,0.00,0.00
"Fiber, total dietary",g,--,--,0.0,0.0
"Sugars, total",g,--,--,0.00,0.00
Minerals
"Calcium, Ca",mg,--,--,0,0
"Iron, Fe",mg,--,--,0.71,1.26
"Sodium, Na",mg,--,--,450,804
Vitamins
"Vitamin C, total ascorbic acid",mg,--,--,0.0,0.0
"Vitamin A, IU",IU,--,--,98,175
Lipids
"Fatty acids, total saturated",g,--,--,3.998,7.140
"Fatty acids, total trans",g,--,--,0.000,0.000
"Cholesterol",mg,--,--,40,71
Amino Acids
Other
Ingredients
"PORK, WATER, SALT, DEXTROSE, MONOSODIUM GLUTAMATE, FENNEL, NATURAL FLAVORS, BLACK PEPPER, EXTRACTIVES OF PAPRIKA, BHA, BHT, CITRIC ACID" Date available: 10/06/2017 Date last updated by company: 10/06/2017
