Source: USDA Branded Food Products Database Release December 2017 Software v.3.8.6.4 2017-10-02
Report Run at: December 18, 2017 10:55 EST
"Nutrient data for: 45065528, SWEETENED CONDENSED MILK, UPC: 652729101140"
Food Group:  Branded Food Products Database
Common Name:

Nutrient,Unit,Data points,Std. Error,"2.0 Tbsp = 39.0g",1Value per 100 g,
Proximates
"Energy",kcal,--,--,130,333
"Protein",g,--,--,3.00,7.69
"Total lipid (fat)",g,--,--,3.00,7.69
"Carbohydrate, by difference",g,--,--,22.00,56.41
"Fiber, total dietary",g,--,--,0.0,0.0
"Sugars, total",g,--,--,22.00,56.41
Minerals
"Calcium, Ca",mg,--,--,100,256
"Iron, Fe",mg,--,--,0.00,0.00
"Sodium, Na",mg,--,--,35,90
Vitamins
"Vitamin C, total ascorbic acid",mg,--,--,0.0,0.0
"Vitamin A, IU",IU,--,--,169,433
Lipids
"Fatty acids, total saturated",g,--,--,2.001,5.130
"Fatty acids, total trans",g,--,--,0.000,0.000
"Cholesterol",mg,--,--,10,26
Amino Acids
Other
Ingredients
"MILK, SUGAR." Date available: 07/14/2017 Date last updated by company: 07/14/2017
