Source: USDA Branded Food Products Database Release December 2017 Software v.3.8.6.4 2017-10-02
Report Run at: December 18, 2017 11:55 EST
"Nutrient data for: 45226107, SWIRL CHEESECAKE, UPC: 078742040387"
Food Group:  Branded Food Products Database
Common Name:

Nutrient,Unit,Data points,Std. Error,"2.0 SLICES = 113.0g",1Value per 100 g,
Proximates
"Energy",kcal,--,--,420,372
"Protein",g,--,--,6.99,6.19
"Total lipid (fat)",g,--,--,24.00,21.24
"Carbohydrate, by difference",g,--,--,45.00,39.82
"Fiber, total dietary",g,--,--,1.0,0.9
"Sugars, total",g,--,--,28.00,24.78
Minerals
"Calcium, Ca",mg,--,--,80,71
"Iron, Fe",mg,--,--,1.20,1.06
"Sodium, Na",mg,--,--,340,301
Vitamins
"Vitamin C, total ascorbic acid",mg,--,--,0.0,0.0
"Vitamin A, IU",IU,--,--,443,392
Lipids
"Fatty acids, total saturated",g,--,--,12.001,10.620
"Fatty acids, total trans",g,--,--,0.000,0.000
"Cholesterol",mg,--,--,40,35
Amino Acids
Other
Ingredients
"SUGAR, ENRICHED BLEACHED WHEAT FLOUR (FLOUR, NIACIN, REDUCED IRON, THIAMINE MONONITRATE, RIBOFLAVIN, FOLIC ACID), MILK, CREAM CHEESE (MILK, CREAM, BACTERIAL CULTURES, SALT, CAROB BEAN GUM), PALM OIL, SKIM MILK, MARGARINE (SOYBEAN OIL, PALM OIL, WATER, SALT, MONO- AND DIGLYCERIDES, NONFAT DRY MILK, SOY LECITHIN, PRESERVATIVE [SODIUM BENZOATE], ARTIFICIAL FLAVOR, VITAMIN A PALMITATE, BETA- CAROTENE COLOR), EGGS, GRAHAM FLOUR, STRAWBERRIES, CONTAINS LESS THAN 2% OF THE FOLLOWING: BROWN SUGAR, HONEY, HYDROGENATED COCONUT OIL, WHEY, RICE FLOUR, MODIFIED CORNSTARCH, BACTERIAL CULTURES, SOYBEAN OIL, PALM KERNEL OIL, GELATIN, SALT, MONO- AND DIGLYCERIDES, CAROB BEAN GUM, COCONUT OIL, NATURAL AND ARTIFICIAL FLAVOR, DATEM, SOY LECITHIN, BAKING SODA, CITRIC ACID, PRESERVATIVES (POTASSIUM SORBATE, SODIUM BENZOATE), DISODIUM PHOSPHATE, MODIFIED TAPIOCA STARCH, SODIUM CASEINATE, SODIUM CITRATE, SOY PROTEIN ISOLATE, XANTHAN GUM, NATURAL FLAVOR, RED 40, B-APO-8'-CAROTENAL COLOR." Date available: 07/14/2017 Date last updated by company: 07/14/2017
