Source: USDA Branded Food Products Database Release December 2017 Software v.3.8.6.4 2017-10-02
Report Run at: December 18, 2017 12:04 EST
"Nutrient data for: 45133900, SWISS MISS Creamy Vanilla Pudding, UNPREPARED, GTIN: 00015700057599"
Food Group:  Branded Food Products Database
Common Name:

Nutrient,Unit,Data points,Std. Error,"1 pudding cup (113g) = 113.0g",1Value per 100 g,
Proximates
"Energy",kcal,--,--,140,124
"Protein",g,--,--,2.99,2.65
"Total lipid (fat)",g,--,--,3.50,3.10
"Carbohydrate, by difference",g,--,--,24.00,21.24
"Fiber, total dietary",g,--,--,0.0,0.0
"Sugars, total",g,--,--,19.00,16.81
Minerals
"Calcium, Ca",mg,--,--,99,88
"Iron, Fe",mg,--,--,0.00,0.00
"Potassium, K",mg,--,--,99,88
"Sodium, Na",mg,--,--,180,159
Vitamins
"Vitamin C, total ascorbic acid",mg,--,--,0.0,0.0
"Vitamin A, IU",IU,--,--,0,0
Lipids
"Fatty acids, total saturated",g,--,--,2.994,2.650
"Fatty acids, total monounsaturated",g,--,--,0.000,0.000
"Fatty acids, total polyunsaturated",g,--,--,0.000,0.000
"Fatty acids, total trans",g,--,--,0.000,0.000
"Cholesterol",mg,--,--,0,0
Amino Acids
Other
Ingredients
"Nonfat Milk, Sugar, Water, Modified Corn Starch, Hydrogenated Coconut Oil, Less than 2% of: Salt, Sodium Stearoyl Lactylate, Calcium Carbonate, Natural and Artificial Flavor, Color Added (Including Yellow 5, Yellow 6). CONTAINS: MILK" Date available: 10/12/2017 Date last updated by company: 10/10/2017
