Source: USDA Branded Food Products Database Release December 2017 Software v.3.8.6.4 2017-10-02
Report Run at: December 18, 2017 11:58 EST
"Nutrient data for: 45139180, SWISS CHEESE, UPC: 713733188586"
Food Group:  Branded Food Products Database
Common Name:

Nutrient,Unit,Data points,Std. Error,"1 SLICE = 20.0g",1Value per 100 g,
Proximates
"Energy",kcal,--,--,80,400
"Protein",g,--,--,5.00,25.00
"Total lipid (fat)",g,--,--,6.00,30.00
"Carbohydrate, by difference",g,--,--,1.00,5.00
"Fiber, total dietary",g,--,--,0.0,0.0
"Sugars, total",g,--,--,0.00,0.00
Minerals
"Calcium, Ca",mg,--,--,157,785
"Iron, Fe",mg,--,--,0.04,0.20
"Potassium, K",mg,--,--,15,75
"Sodium, Na",mg,--,--,15,75
Vitamins
"Vitamin A, IU",IU,--,--,164,820
Lipids
"Fatty acids, total saturated",g,--,--,3.500,17.500
"Fatty acids, total trans",g,--,--,0.000,0.000
"Cholesterol",mg,--,--,20,100
Amino Acids
Other
Ingredients
"CULTURED PASTEURIZED MILK, SALT, ENZYMES." Date available: 10/06/2017 Date last updated by company: 10/06/2017
