Source: USDA Branded Food Products Database Release December 2017 Software v.3.8.6.4 2017-10-02
Report Run at: December 18, 2017 11:58 EST
"Nutrient data for: 45122966, SWISS CHEESE, UPC: 031506710117"
Food Group:  Branded Food Products Database
Common Name:

Nutrient,Unit,Data points,Std. Error,"0.75 ONZ = 21.0g",1Value per 100 g,
Proximates
"Energy",kcal,--,--,83,395
"Protein",g,--,--,6.00,28.57
"Total lipid (fat)",g,--,--,6.00,28.57
"Carbohydrate, by difference",g,--,--,0.00,0.00
"Fiber, total dietary",g,--,--,0.0,0.0
"Sugars, total",g,--,--,0.00,0.00
Minerals
"Calcium, Ca",mg,--,--,190,905
"Iron, Fe",mg,--,--,0.00,0.00
"Sodium, Na",mg,--,--,56,267
Vitamins
"Vitamin C, total ascorbic acid",mg,--,--,0.0,0.0
"Vitamin A, IU",IU,--,--,357,1700
Lipids
"Fatty acids, total saturated",g,--,--,5.000,23.810
"Fatty acids, total trans",g,--,--,0.000,0.000
"Cholesterol",mg,--,--,19,90
Amino Acids
Other
Ingredients
"CULTURED PART SKIM MILK, SALT, ENZYMES." Date available: 07/14/2017 Date last updated by company: 07/14/2017
