Source: USDA Branded Food Products Database Release December 2017 Software v.3.8.6.4 2017-10-02
Report Run at: December 18, 2017 12:08 EST
"Nutrient data for: 45094434, SWISS PRESERVES, UPC: 180286000137"
Food Group:  Branded Food Products Database
Common Name:

Nutrient,Unit,Data points,Std. Error,"1 Tbsp = 23.0g",1Value per 100 g,
Proximates
"Energy",kcal,--,--,48,209
"Protein",g,--,--,0.00,0.00
"Total lipid (fat)",g,--,--,0.00,0.00
"Carbohydrate, by difference",g,--,--,12.00,52.17
"Sugars, total",g,--,--,12.00,52.17
Minerals
"Sodium, Na",mg,--,--,0,0
Vitamins
Lipids
"Fatty acids, total saturated",g,--,--,0.000,0.000
"Fatty acids, total trans",g,--,--,0.000,0.000
Amino Acids
Other
Ingredients
"SUGAR, RASPBERRIES, CONCENTRATED RASPBERRY JUICE, CITRIC ACID FRUIT PECTIN." Date available: 09/23/2017 Date last updated by company: 09/23/2017
