Source: USDA Branded Food Products Database Release December 2017 Software v.3.8.6.4 2017-10-02
Report Run at: December 18, 2017 12:10 EST
"Nutrient data for: 45323864, SWISS YOGURT, UPC: 853579005064"
Food Group:  Branded Food Products Database
Common Name:

Nutrient,Unit,Data points,Std. Error,"1 CONTAINER = 170.0g",1Value per 100 g,
Proximates
"Energy",kcal,--,--,139,82
"Protein",g,--,--,5.00,2.94
"Total lipid (fat)",g,--,--,2.50,1.47
"Carbohydrate, by difference",g,--,--,25.99,15.29
"Fiber, total dietary",g,--,--,0.0,0.0
"Sugars, total",g,--,--,25.01,14.71
Minerals
"Calcium, Ca",mg,--,--,150,88
"Iron, Fe",mg,--,--,0.00,0.00
"Sodium, Na",mg,--,--,65,38
Vitamins
"Vitamin C, total ascorbic acid",mg,--,--,9.0,5.3
"Vitamin A, IU",IU,--,--,100,59
Lipids
"Fatty acids, total saturated",g,--,--,1.496,0.880
"Fatty acids, total trans",g,--,--,0.000,0.000
"Cholesterol",mg,--,--,10,6
Amino Acids
Other
Ingredients
"PASTEURIZED REDUCED FAT MILK, RHUBARB, SUGAR, CORN STARCH, NATURAL FLAVORS, LIVE ACTIVE CULTURES" Date available: 07/14/2017 Date last updated by company: 07/14/2017
