Source: USDA Branded Food Products Database Release December 2017 Software v.3.8.6.4 2017-10-02
Report Run at: December 18, 2017 12:05 EST
"Nutrient data for: 45134280, SWISS MISS Hot Cocoa Mix Tins, UNPREPARED, GTIN: 00070920475363"
Food Group:  Branded Food Products Database
Common Name:

Nutrient,Unit,Data points,Std. Error,"1 envelope (28g) = 28.0g",1Value per 100 g,
Proximates
"Energy",kcal,--,--,110,393
"Protein",g,--,--,1.00,3.57
"Total lipid (fat)",g,--,--,2.00,7.14
"Carbohydrate, by difference",g,--,--,23.00,82.14
"Fiber, total dietary",g,--,--,1.0,3.6
"Sugars, total",g,--,--,18.00,64.29
Minerals
"Calcium, Ca",mg,--,--,40,143
"Iron, Fe",mg,--,--,1.44,5.14
"Potassium, K",mg,--,--,270,964
"Sodium, Na",mg,--,--,170,607
Vitamins
"Vitamin C, total ascorbic acid",mg,--,--,0.0,0.0
"Vitamin A, IU",IU,--,--,0,0
Lipids
"Fatty acids, total saturated",g,--,--,1.999,7.140
"Fatty acids, total monounsaturated",g,--,--,0.000,0.000
"Fatty acids, total polyunsaturated",g,--,--,0.000,0.000
"Fatty acids, total trans",g,--,--,0.000,0.000
"Cholesterol",mg,--,--,0,0
Amino Acids
Other
Ingredients
"Sugar, Corn Syrup, Modified Whey, Cocoa (Processed With Alkali), Hydrogenated Coconut Oil, Nonfat Milk, Less Than 2% Of: Salt, Dipotassium Phosphate, Mono- and Diglycerides, Carrageenan, Cream, Natural and Artificial Flavor. Contains: Milk." Date available: 10/12/2017 Date last updated by company: 10/12/2017
