Source: USDA Branded Food Products Database Release December 2017 Software v.3.8.6.4 2017-10-02
Report Run at: December 18, 2017 12:15 EST
"Nutrient data for: 45194176, SYRUP, UPC: 019962198830"
Food Group:  Branded Food Products Database
Common Name:

Nutrient,Unit,Data points,Std. Error,"1.5 ONZ = 43.0g",1Value per 100 g,
Proximates
"Energy",kcal,--,--,90,209
"Protein",g,--,--,0.00,0.00
"Total lipid (fat)",g,--,--,0.00,0.00
"Carbohydrate, by difference",g,--,--,24.00,55.81
"Sugars, total",g,--,--,24.00,55.81
Minerals
"Sodium, Na",mg,--,--,20,47
Vitamins
Lipids
"Fatty acids, total trans",g,--,--,0.000,0.000
Amino Acids
Other
Ingredients
"FILTERED WATER, PURE CANE SUGAR, POMEGRANATE JUICE, ORANGE BLOSSOM WATER, CITRIC ACID, SALT." Date available: 07/14/2017 Date last updated by company: 07/14/2017
