Source: USDA Branded Food Products Database Release December 2017 Software v.3.8.6.4 2017-10-02
Report Run at: December 18, 2017 12:15 EST
"Nutrient data for: 45198473, SYRUP, UPC: 733426026070"
Food Group:  Branded Food Products Database
Common Name:

Nutrient,Unit,Data points,Std. Error,"2.0 Tbsp = 30.0g",1Value per 100 g,
Proximates
"Energy",kcal,--,--,110,367
"Protein",g,--,--,0.00,0.00
"Total lipid (fat)",g,--,--,0.00,0.00
"Carbohydrate, by difference",g,--,--,26.00,86.67
"Sugars, total",g,--,--,25.00,83.33
Minerals
"Sodium, Na",mg,--,--,0,0
Vitamins
"Vitamin C, total ascorbic acid",mg,--,--,50.0,166.7
"Vitamin A, IU",IU,--,--,833,2778
Lipids
Amino Acids
Other
Ingredients
"SUGAR, LEMON JUICE, CITRIC ACID." Date available: 07/14/2017 Date last updated by company: 07/14/2017
