Source: USDA Branded Food Products Database Release December 2017 Software v.3.8.6.4 2017-10-02
Report Run at: December 18, 2017 12:15 EST
"Nutrient data for: 45199945, SYRUP, UPC: 850472005108"
Food Group:  Branded Food Products Database
Common Name:

Nutrient,Unit,Data points,Std. Error,"0.25 cup = 60.0g",1Value per 100 g,
Proximates
"Energy",kcal,--,--,210,350
"Protein",g,--,--,0.00,0.00
"Total lipid (fat)",g,--,--,0.00,0.00
"Carbohydrate, by difference",g,--,--,53.00,88.33
"Sugars, total",g,--,--,53.00,88.33
Minerals
"Calcium, Ca",mg,--,--,0,0
"Iron, Fe",mg,--,--,0.00,0.00
"Sodium, Na",mg,--,--,10,17
Vitamins
"Vitamin C, total ascorbic acid",mg,--,--,30.0,50.0
Lipids
Amino Acids
Other
Ingredients
"CANE SUGAR, WATER, ARTIFICIAL AND NATURAL FLAVOURS, CITRIC ACID (ACIDULANT), ASCORBIC ACID (VITAMIN C), FOOD COLOUR FD&C YELLOW #5, SODIUM BENZOATE (AS PRESERVATIVE)." Date available: 07/14/2017 Date last updated by company: 07/14/2017
