Source: USDA Branded Food Products Database Release December 2017 Software v.3.8.6.4 2017-10-02
Report Run at: December 18, 2017 12:18 EST
"Nutrient data for: 45275180, SZECHUAN BREADED SHRIMP, UPC: 731149350380"
Food Group:  Branded Food Products Database
Common Name:

Nutrient,Unit,Data points,Std. Error,"6.0 SHRIMP | ABOUT = 85.0g",1Value per 100 g,
Proximates
"Energy",kcal,--,--,210,247
"Protein",g,--,--,7.00,8.24
"Total lipid (fat)",g,--,--,12.00,14.12
"Carbohydrate, by difference",g,--,--,19.00,22.35
"Fiber, total dietary",g,--,--,1.0,1.2
"Sugars, total",g,--,--,1.00,1.18
Minerals
"Calcium, Ca",mg,--,--,20,24
"Iron, Fe",mg,--,--,0.36,0.42
"Sodium, Na",mg,--,--,400,471
Vitamins
"Vitamin C, total ascorbic acid",mg,--,--,0.0,0.0
"Vitamin A, IU",IU,--,--,0,0
Lipids
"Fatty acids, total saturated",g,--,--,1.003,1.180
"Fatty acids, total trans",g,--,--,0.000,0.000
"Cholesterol",mg,--,--,40,47
Amino Acids
Other
Ingredients
"SHRIMP, ENRICHED WHEAT FLOUR [ENRICHED WITH NIACIN, REDUCED IRON, THIAMINE MONONITRATE, RIBOFLAVIN, FOLIC ACID), WATER, MODIFIED CORN STARCH, SOYBEAN OIL, SUGAR, CORN STARCH, GARLIC POWDER, SPICES, ONION POWDER, SALT, EGG WHITES, WHEAT GLUTEN, SODIUM ACID PYROPHOSPHATE, SODIUM BICARBONATE, SOY SAUCE (WHEAT, SOYBEANS, SALT), YEAST, SUNFLOWER OIL, MALTODEXTRIN, PAPRIKA, SPICE, EXTRACTIVE, NATURAL FLAVORS, SODIUM METABISULFITE, SODIUM TRIPOLYPHOSPHATE." Date available: 07/14/2017 Date last updated by company: 07/14/2017
