Source: USDA Branded Food Products Database Release December 2017 Software v.3.8.6.4 2017-10-02
Report Run at: December 18, 2017 16:24 EST
"Nutrient data for: 45174355, T&L BAKING CO, HOMESTYLE DELICIOUS GLAZED POUND CAKE, SOUR CREAM, UPC: 050914043358"
Food Group:  Branded Food Products Database
Common Name:

Nutrient,Unit,Data points,Std. Error,"0.083 OF CAKE = 61.0g",1Value per 100 g,
Proximates
"Energy",kcal,--,--,205,336
"Protein",g,--,--,3.00,4.92
"Total lipid (fat)",g,--,--,7.00,11.48
"Carbohydrate, by difference",g,--,--,34.00,55.74
"Fiber, total dietary",g,--,--,1.0,1.6
"Sugars, total",g,--,--,20.00,32.79
Minerals
"Calcium, Ca",mg,--,--,30,49
"Iron, Fe",mg,--,--,1.89,3.10
"Sodium, Na",mg,--,--,283,464
Vitamins
"Vitamin C, total ascorbic acid",mg,--,--,0.0,0.0
"Vitamin A, IU",IU,--,--,0,0
Lipids
"Fatty acids, total saturated",g,--,--,2.001,3.280
"Fatty acids, total polyunsaturated",g,--,--,3.001,4.920
"Fatty acids, total trans",g,--,--,2.001,3.280
"Cholesterol",mg,--,--,16,26
Amino Acids
Other
Ingredients
"SUGAR, ENRICHED BLEACHED WHEAT FLOUR (BLEACHED WHEAT FLOUR, NIACIN, IRON, THIAMINE MONONITRATE, RIBOFLAVIN, FOLIC ACID), PARTIALLY HYDROGENATED SOYBEAN OIL, NONFAT MILK, EGG WHITES, EGG YOLKS, WHEY, MODIFIED CORN STARCH, PROPYLENE GLYCOL, MONO- AND DIESTERS OF FATTY ACIDS, MONO- AND DIGLYCERIDES, SALT, SODIUM SILICOALUMINATE, LEAVENING (BAKING SODA, SODIUM BICARBONATE, SODIUM ACID PYROPHOSPHATE, MONOCALCIUM PHOSPHATE, SODIUM ALUMINUM PHOSPHATE), SOY FLOUR, VITAL WHEAT GLUTEN, SOY LECITHIN, MALTODEXTRIN, CORN SYRUP, AGAR, CARAGEENAN, CELLULOSE GUM, GUAR GUM, LOCUST BEAN GUM, XANTHAN GUM, SODIUM STEAROYL LACTYLATE, SORBITAN MONOSTEARATE, CALCIUM ACETATE, TRICALCIUM PHOSPHATE, POLYSORBATE 60, SORBIC ACID (PRESERVATIVE), TITANIUM DIOXIDE, NATURAL AND ARTIFICIAL FLAVOR, HIGH FRUCTOSE CORN SYRUP, DEXTROSE, CITRIC ACID, SODIUM BENZOATE, SODIUM CITRATE, FD&C YELLOW 5 AND RED 40, POTASSIUM SORBATE, SODIUM PROPIONATE." Date available: 07/14/2017 Date last updated by company: 07/14/2017
