Source: USDA Branded Food Products Database Release December 2017 Software v.3.8.6.4 2017-10-02
Report Run at: December 18, 2017 12:19 EST
"Nutrient data for: 45111900, TABATCHNICK, FRENCHMAN'S ONION SOUP, UPC: 071262290027"
Food Group:  Branded Food Products Database
Common Name:

Nutrient,Unit,Data points,Std. Error,"1 POUCH = 213.0g",1Value per 100 g,
Proximates
"Energy",kcal,--,--,60,28
"Protein",g,--,--,1.00,0.47
"Total lipid (fat)",g,--,--,1.49,0.70
"Carbohydrate, by difference",g,--,--,10.99,5.16
"Fiber, total dietary",g,--,--,1.1,0.5
"Sugars, total",g,--,--,3.00,1.41
Minerals
"Calcium, Ca",mg,--,--,19,9
"Iron, Fe",mg,--,--,0.40,0.19
"Potassium, K",mg,--,--,111,52
"Sodium, Na",mg,--,--,501,235
Vitamins
"Vitamin C, total ascorbic acid",mg,--,--,5.5,2.6
"Vitamin A, IU",IU,--,--,0,0
Lipids
"Fatty acids, total saturated",g,--,--,0.000,0.000
"Fatty acids, total trans",g,--,--,0.000,0.000
"Cholesterol",mg,--,--,0,0
Amino Acids
Other
Ingredients
"WATER, ONIONS, BEEF FLAVOR BASE (SALT, NATURAL BEEF FLAVOR, ONION POWDER, SUGAR, GARLIC POWDER), NATURAL FLAVORINGS (NATURAL FLAVORS, DEHYDRATED ONIONS, SALT, DEXTROSE, HYDROLYZED SOY, CORN AND WHEAT PROTEIN, CANOLA OIL), SHERRY WINE, CANOLA/SOYBEAN OIL, MIREPOIX (VEGETABLES [CARROTS, CELERY, ONIONS], SOYBEAN OIL, SUGAR, SALT, CORN STARCH, NATURAL FLAVOR), PARSLEY AND XANTHAN GUM." Date available: 07/14/2017 Date last updated by company: 07/14/2017
