Source: USDA Branded Food Products Database Release December 2017 Software v.3.8.6.4 2017-10-02
Report Run at: December 18, 2017 12:20 EST
"Nutrient data for: 45326252, TABBOULEH SALAD, UPC: 826766847358"
Food Group:  Branded Food Products Database
Common Name:

Nutrient,Unit,Data points,Std. Error,"1 CONTAINER = 170.0g",1Value per 100 g,
Proximates
"Energy",kcal,--,--,299,176
"Protein",g,--,--,2.99,1.76
"Total lipid (fat)",g,--,--,27.00,15.88
"Carbohydrate, by difference",g,--,--,16.00,9.41
"Fiber, total dietary",g,--,--,4.9,2.9
"Sugars, total",g,--,--,2.01,1.18
Minerals
"Calcium, Ca",mg,--,--,80,47
"Iron, Fe",mg,--,--,2.96,1.74
"Sodium, Na",mg,--,--,105,62
Vitamins
"Vitamin C, total ascorbic acid",mg,--,--,34.5,20.3
"Vitamin A, IU",IU,--,--,2059,1211
Lipids
"Fatty acids, total saturated",g,--,--,2.006,1.180
"Fatty acids, total trans",g,--,--,0.000,0.000
"Cholesterol",mg,--,--,0,0
Amino Acids
Other
Ingredients
"WHEAT BULGUR (WHEAT BULGUR [WHEAT], OIL BLEND [CANOLA OIL, OLIVE OIL], WHITE VINEGAR), TOMATOES, PARSLEY, OIL BLEND (CANOLA OIL, EXTRA VIRGIN OLIVE OIL), MINT, GREEN ONION, LEMON JUICE, SALT, BLACK PEPPER." Date available: 08/11/2017 Date last updated by company: 08/11/2017
