Source: USDA Branded Food Products Database Release December 2017 Software v.3.8.6.4 2017-10-02
Report Run at: December 18, 2017 12:22 EST
"Nutrient data for: 45187717, TABLE 5, VICOLA CORNMEAL CRUST MUSHROOM PIZZA, UPC: 851614006328"
Food Group:  Branded Food Products Database
Common Name:

Nutrient,Unit,Data points,Std. Error,"0.333 PIZZA = 118.0g",1Value per 100 g,
Proximates
"Energy",kcal,--,--,330,280
"Protein",g,--,--,9.99,8.47
"Total lipid (fat)",g,--,--,16.00,13.56
"Carbohydrate, by difference",g,--,--,37.00,31.36
"Fiber, total dietary",g,--,--,2.0,1.7
"Sugars, total",g,--,--,1.99,1.69
Minerals
"Calcium, Ca",mg,--,--,150,127
"Iron, Fe",mg,--,--,1.49,1.26
"Sodium, Na",mg,--,--,470,398
Vitamins
"Vitamin C, total ascorbic acid",mg,--,--,0.0,0.0
"Vitamin A, IU",IU,--,--,496,420
Lipids
"Fatty acids, total saturated",g,--,--,4.496,3.810
"Fatty acids, total trans",g,--,--,0.000,0.000
"Cholesterol",mg,--,--,15,13
Amino Acids
Other
Ingredients
"CORNMEAL CRUST (UNBLEACHED ENRICHED WHEAT FLOUR [WHEAT FLOUR, WHEAT STARCH, NIACIN, REDUCED IRON, THIAMINE MONONITRATE, RIBOFLAVIN, FOLIC ACID, ENZYMES], WATER, CORNMEAL, ORGANIC SOYBEAN OIL, YEAST (SORBITAN MONOSTEARATE, ASCORBIC ACID) AND SALT. TOPPINGS: WHOLE MILK MOZZARELLA (CULTURED PASTEURIZED WHOLE MILK, SALT & ENZYMES), SMOKED MOZZARELLA (PASTEURIZED WHOLE MILK, CHEESE CULTURES, SEA SALT, VEGETABLE ENZYMES, & NATURAL HICKORY SMOKE), MUSHROOM (CREMINI, PORTOBELLO, AND BUTTON), PIZZA SAUCE (TOMATOES, [VINE RIPENED TOMATOES, TOMATO JUICE, SEA SALT, CALCIUM CHLORIDE, NATURALLY DERIVED CITRIC ACID], CANE SUGAR AND GARLIC)." Date available: 07/14/2017 Date last updated by company: 07/14/2017
