Source: USDA Branded Food Products Database Release December 2017 Software v.3.8.6.4 2017-10-02
Report Run at: December 18, 2017 12:21 EST
"Nutrient data for: 45201907, TABLE SAUCE, UPC: 857505003001"
Food Group:  Branded Food Products Database
Common Name:

Nutrient,Unit,Data points,Std. Error,"1 Tbsp = 15.0g",1Value per 100 g,
Proximates
"Energy",kcal,--,--,40,267
"Protein",g,--,--,0.00,0.00
"Total lipid (fat)",g,--,--,0.00,0.00
"Carbohydrate, by difference",g,--,--,9.00,60.00
"Fiber, total dietary",g,--,--,0.0,0.0
"Sugars, total",g,--,--,9.00,60.00
Minerals
"Calcium, Ca",mg,--,--,0,0
"Iron, Fe",mg,--,--,0.36,2.40
"Sodium, Na",mg,--,--,270,1800
Vitamins
"Vitamin C, total ascorbic acid",mg,--,--,2.4,16.0
"Vitamin A, IU",IU,--,--,300,2000
Lipids
"Fatty acids, total saturated",g,--,--,0.000,0.000
"Fatty acids, total trans",g,--,--,0.000,0.000
"Cholesterol",mg,--,--,0,0
Amino Acids
Other
Ingredients
"GRANULATED SUGAR, HOT SAUCE (PEPPERS, VINEGAR, SALT, XANTHAN GUM), VINEGAR, TOMATO PASTE, SPICES, GARLIC, SALT." Date available: 07/14/2017 Date last updated by company: 07/14/2017
