Source: USDA Branded Food Products Database Release December 2017 Software v.3.8.6.4 2017-10-02
Report Run at: December 18, 2017 12:22 EST
"Nutrient data for: 45326656, TABOULI, UPC: 021001100124"
Food Group:  Branded Food Products Database
Common Name:

Nutrient,Unit,Data points,Std. Error,"3.0 ONZ = 85.0g",1Value per 100 g,
Proximates
"Energy",kcal,--,--,80,94
"Protein",g,--,--,2.00,2.35
"Total lipid (fat)",g,--,--,6.00,7.06
"Carbohydrate, by difference",g,--,--,7.00,8.24
"Fiber, total dietary",g,--,--,2.0,2.4
"Sugars, total",g,--,--,0.00,0.00
Minerals
"Calcium, Ca",mg,--,--,40,47
"Iron, Fe",mg,--,--,1.06,1.25
"Sodium, Na",mg,--,--,328,386
Vitamins
"Vitamin C, total ascorbic acid",mg,--,--,28.2,33.2
"Vitamin A, IU",IU,--,--,1029,1211
Lipids
"Fatty acids, total saturated",g,--,--,1.003,1.180
"Fatty acids, total trans",g,--,--,0.000,0.000
"Cholesterol",mg,--,--,0,0
Amino Acids
Other
Ingredients
"FRESH TOMATOES, FRESH PARSLEY, BULGUR, CANOLA/OLIVE OIL BLEND, LEMON JUICE FROM CONCENTRATE (WATER, CONCENTRATED LEMON JUICE [LESS THAN 2% OF SODIUM BENZOATE, SODIUM META-BISULFITE AND SODIUM SULFITE AS PRESERVATIVES], LEMON OIL), FRESH ONIONS, WHITE PEPPER, SALT, CITRIC ACID." Date available: 10/13/2017 Date last updated by company: 10/13/2017
