Source: USDA Branded Food Products Database Release December 2017 Software v.3.8.6.4 2017-10-02
Report Run at: December 18, 2017 12:22 EST
"Nutrient data for: 45080081, TABOULI MIX, UPC: 052851954551"
Food Group:  Branded Food Products Database
Common Name:

Nutrient,Unit,Data points,Std. Error,"0.75 cup = 47.0g",1Value per 100 g,
Proximates
"Energy",kcal,--,--,150,319
"Protein",g,--,--,6.00,12.77
"Total lipid (fat)",g,--,--,1.00,2.13
"Carbohydrate, by difference",g,--,--,33.00,70.21
"Fiber, total dietary",g,--,--,9.0,19.1
"Sugars, total",g,--,--,2.00,4.26
Minerals
"Calcium, Ca",mg,--,--,100,213
"Iron, Fe",mg,--,--,6.03,12.83
"Sodium, Na",mg,--,--,210,447
Vitamins
"Vitamin C, total ascorbic acid",mg,--,--,5.7,12.2
"Vitamin A, IU",IU,--,--,1197,2547
Lipids
"Fatty acids, total saturated",g,--,--,0.000,0.000
"Fatty acids, total monounsaturated",g,--,--,0.498,1.060
"Fatty acids, total polyunsaturated",g,--,--,0.498,1.060
"Fatty acids, total trans",g,--,--,0.000,0.000
"Cholesterol",mg,--,--,0,0
Amino Acids
Other
Ingredients
"BULGUR, PARSLEY FLAKES, MINCED ONIONS, CITRIC ACID, MINT CUT, GRANULATED GARLIC, SPICES, SALT, PEPPER." Date available: 10/13/2017 Date last updated by company: 10/13/2017
