Source: USDA Branded Food Products Database Release December 2017 Software v.3.8.6.4 2017-10-02
Report Run at: December 18, 2017 12:28 EST
"Nutrient data for: 45220442, TACO MEAT, UPC: 098911701208"
Food Group:  Branded Food Products Database
Common Name:

Nutrient,Unit,Data points,Std. Error,"0.666 CUP = 151.0g",1Value per 100 g,
Proximates
"Energy",kcal,--,--,220,146
"Protein",g,--,--,20.01,13.25
"Total lipid (fat)",g,--,--,13.00,8.61
"Carbohydrate, by difference",g,--,--,5.99,3.97
"Fiber, total dietary",g,--,--,2.0,1.3
"Sugars, total",g,--,--,4.00,2.65
Minerals
"Calcium, Ca",mg,--,--,20,13
"Iron, Fe",mg,--,--,1.19,0.79
"Sodium, Na",mg,--,--,920,609
Vitamins
"Vitamin C, total ascorbic acid",mg,--,--,1.7,1.1
"Vitamin A, IU",IU,--,--,331,219
Lipids
"Fatty acids, total saturated",g,--,--,4.500,2.980
"Cholesterol",mg,--,--,60,40
Amino Acids
Other
Ingredients
"COOKED GROUND BEEF, TOMATO SAUCE (TOMATO PUREE, {WATER, TOMATO PASTE}, WATER, SALT, CITRIC ACID, SPICE, NATURAL FLAVORS), FRUCTOSE, CITRIC ACID, SILICON DIOXIDE [TO PREVENT CAKING]), CARAMEL COLORING, DEHYDRATED ONION, CHILI POWDER (CHILI PEPPER, CUMIN, PAPRIKA, SALT, OREGANO & OTHER SPICES, EXTRACTIVES OF GARLIC , SILICON DIOXIDE [TO PREVENT CAKING], CUMIN." Date available: 07/14/2017 Date last updated by company: 07/14/2017
