Source: USDA Branded Food Products Database Release December 2017 Software v.3.8.6.4 2017-10-02
Report Run at: December 18, 2017 12:24 EST
"Nutrient data for: 45256378, TACO FILLING MIX, UPC: 073825600274"
Food Group:  Branded Food Products Database
Common Name:

Nutrient,Unit,Data points,Std. Error,"0.5 cup = 34.0g",1Value per 100 g,
Proximates
"Energy",kcal,--,--,130,382
"Protein",g,--,--,11.00,32.35
"Total lipid (fat)",g,--,--,4.00,11.76
"Carbohydrate, by difference",g,--,--,15.00,44.12
"Fiber, total dietary",g,--,--,4.0,11.8
"Sugars, total",g,--,--,2.00,5.88
Minerals
"Calcium, Ca",mg,--,--,60,176
"Iron, Fe",mg,--,--,2.65,7.79
"Sodium, Na",mg,--,--,430,1265
Vitamins
"Vitamin C, total ascorbic acid",mg,--,--,3.5,10.4
"Vitamin A, IU",IU,--,--,441,1297
Lipids
"Fatty acids, total saturated",g,--,--,0.000,0.000
"Fatty acids, total monounsaturated",g,--,--,1.499,4.410
"Fatty acids, total polyunsaturated",g,--,--,0.500,1.470
"Fatty acids, total trans",g,--,--,0.000,0.000
"Cholesterol",mg,--,--,0,0
Amino Acids
Other
Ingredients
"INGREDIENTS (VEGAN): TEXTURED SOY CRUMBLES (LOW FAT SOY FLOUR,CARAMEL COLOR, DICALCIUM PHOSPAHTE), DEHYDRATED ONION, YELLOW CORN MEAL, ORGANIC EXPELLER PRESSED CANOLA OIL, SOY SAUCE POWDER [SOY SAUCE (WHEAT,SOYBEANS, SALT), MALTODEXTRIN, SALT], DEHYDRATED GARLIC, TOMATO POWDER, CUMIN, SEA SALT, LESS THAN 2% OF BROWN RICE SYRUP SOLIDS, MALTODEXTRIN, CHILI PEPPER, ONION POWDER, YEAST EXTARCT, NATURAL FLAVORS, TORULA YEAST, DISTILLED WHITE VINEGAR, OREGANO, CELERY POWDER, RED PEPPER, BLACK PEPPER, BLACK PEPPER, BAY, JALAPENO PEPPER POWDER, SILICON DIOXIDE (ANTI-CAKING)." Date available: 07/14/2017 Date last updated by company: 07/14/2017
