Source: USDA Branded Food Products Database Release December 2017 Software v.3.8.6.4 2017-10-02
Report Run at: December 18, 2017 12:24 EST
"Nutrient data for: 45311391, TACO BELL, TACO SEASONING MIX, UPC: 021000049561"
Food Group:  Branded Food Products Database
Common Name:

Nutrient,Unit,Data points,Std. Error,"2.0 tsp = 4.5g",1Value per 100 g,
Proximates
"Energy",kcal,--,--,15,333
"Protein",g,--,--,0.00,0.00
"Total lipid (fat)",g,--,--,0.00,0.00
"Carbohydrate, by difference",g,--,--,3.00,66.67
"Fiber, total dietary",g,--,--,0.0,0.0
"Sugars, total",g,--,--,0.00,0.00
Minerals
"Iron, Fe",mg,--,--,4.00,88.88
"Sodium, Na",mg,--,--,220,4889
Vitamins
"Vitamin A, IU",IU,--,--,3334,74078
Lipids
"Fatty acids, total saturated",g,--,--,0.000,0.000
"Fatty acids, total trans",g,--,--,0.000,0.000
"Cholesterol",mg,--,--,0,0
Amino Acids
Other
Ingredients
"WHEAT FLOUR, SPICE, DRIED GARLIC, SALT, DRIED ONIONS, SUGAR, PAPRIKA, MALTODEXTRIN, CONTAINS LESS THAN 2% OF POTASSIUM CHLORIDE, SILICON DIOXIDE AS AN ANTICAKING AGENT, SOYBEAN OIL, MALIC ACID" Date available: 07/14/2017 Date last updated by company: 07/14/2017
