Source: USDA Branded Food Products Database Release December 2017 Software v.3.8.6.4 2017-10-02
Report Run at: December 18, 2017 12:24 EST
"Nutrient data for: 45194114, TACO FILLING, UPC: 014777013217"
Food Group:  Branded Food Products Database
Common Name:

Nutrient,Unit,Data points,Std. Error,"0.5 cup = 56.0g",1Value per 100 g,
Proximates
"Energy",kcal,--,--,130,232
"Protein",g,--,--,9.00,16.07
"Total lipid (fat)",g,--,--,8.00,14.29
"Carbohydrate, by difference",g,--,--,3.00,5.36
"Fiber, total dietary",g,--,--,1.0,1.8
"Sugars, total",g,--,--,1.00,1.79
Minerals
"Calcium, Ca",mg,--,--,20,36
"Iron, Fe",mg,--,--,2.18,3.90
"Sodium, Na",mg,--,--,450,804
Vitamins
"Vitamin C, total ascorbic acid",mg,--,--,1.8,3.3
"Vitamin A, IU",IU,--,--,1138,2033
Lipids
"Fatty acids, total saturated",g,--,--,3.002,5.360
"Fatty acids, total trans",g,--,--,0.000,0.000
"Cholesterol",mg,--,--,30,54
Amino Acids
Other
Ingredients
"BEEF, PORK, WATER, TEXTURED VEGETABLE PROTEIN (SOY FLOUR, ISOLATED SOY PROTEIN, CARAMEL COLOR), SEASONING (SPICES, SALT, PAPRIKA, GARLIC POWDER, ARTIFICIAL VINEGAR [MALIC ACID, SODIUM ACETATES, LACTOSE, FUMARIC ACID, ARTIFICIAL FLAVORINGS], DEXTROSE), SALT, MONOSODIUM GLUTAMATE." Date available: 07/14/2017 Date last updated by company: 07/14/2017
