Source: USDA Branded Food Products Database Release December 2017 Software v.3.8.6.4 2017-10-02
Report Run at: December 18, 2017 12:32 EST
"Nutrient data for: 45184448, TACO SEASONING, UPC: 076114305317"
Food Group:  Branded Food Products Database
Common Name:

Nutrient,Unit,Data points,Std. Error,"2.0 tsp = 6.0g",1Value per 100 g,
Proximates
"Energy",kcal,--,--,20,333
"Protein",g,--,--,0.00,0.00
"Total lipid (fat)",g,--,--,0.00,0.00
"Carbohydrate, by difference",g,--,--,3.00,50.00
"Fiber, total dietary",g,--,--,1.0,16.7
"Sugars, total",g,--,--,1.00,16.67
Minerals
"Calcium, Ca",mg,--,--,0,0
"Iron, Fe",mg,--,--,0.00,0.00
"Sodium, Na",mg,--,--,390,6500
Vitamins
"Vitamin C, total ascorbic acid",mg,--,--,0.0,0.0
"Vitamin A, IU",IU,--,--,3333,55558
Lipids
"Fatty acids, total saturated",g,--,--,0.000,0.000
"Fatty acids, total trans",g,--,--,0.000,0.000
"Cholesterol",mg,--,--,0,0
Amino Acids
Other
Ingredients
"CHILI POWDER (ROASTED CAYENNE PEPPER, GARLIC, OREGANO, CUMIN, CHILI PEPPERS, SALT, AND SILICON DIOXIDE), SPICES INCLUDING PAPRIKA (COLOR), SALT, DEXTROSE, CORN FLOUR, ONION, GARLIC, NATURAL FLAVOR, CITRIC ACID AND TRICALCIUM PHOSPHATE (TO MAKE FREE-FLOWING)." Date available: 07/14/2017 Date last updated by company: 07/14/2017
