Source: USDA Branded Food Products Database Release December 2017 Software v.3.8.6.4 2017-10-02
Report Run at: December 18, 2017 12:33 EST
"Nutrient data for: 45193358, TACO SHELLS, UPC: 011110849090"
Food Group:  Branded Food Products Database
Common Name:

Nutrient,Unit,Data points,Std. Error,"2.0 TACO SHELLS = 22.0g",1Value per 100 g,
Proximates
"Energy",kcal,--,--,100,455
"Protein",g,--,--,2.00,9.09
"Total lipid (fat)",g,--,--,5.00,22.73
"Carbohydrate, by difference",g,--,--,12.00,54.55
"Fiber, total dietary",g,--,--,2.0,9.1
"Sugars, total",g,--,--,1.00,4.55
Minerals
"Calcium, Ca",mg,--,--,40,182
"Iron, Fe",mg,--,--,0.82,3.72
"Sodium, Na",mg,--,--,310,1409
Vitamins
"Vitamin C, total ascorbic acid",mg,--,--,0.0,0.0
"Vitamin A, IU",IU,--,--,227,1034
Lipids
"Fatty acids, total saturated",g,--,--,0.400,1.820
"Fatty acids, total monounsaturated",g,--,--,3.500,15.910
"Fatty acids, total polyunsaturated",g,--,--,1.001,4.550
"Fatty acids, total trans",g,--,--,0.000,0.000
"Cholesterol",mg,--,--,0,0
Amino Acids
Other
Ingredients
"CORN MASA FLOUR, CANOLA OIL, SPICE BLEND (BUTTERMILK SOLIDS, DEHYDRATED VEGETABLES [ONION, GARLIC, TOMATO, PARSLEY], SALT, DEXTROSE, CORN SYRUP SOLIDS, WHEY, MONOSODIUM GLUTAMATE, CHEDDAR CHEESE [{PASTEURIZED MILK, CHEESE CULTURES, SLAT, ENZYMES}, WHEY, SALT, DISODIUM PHOSPHATE, LACTIC ACID], LACTIC ACID, ARTIFICIAL FLAVOR, CITRIC ACID, MALIC ACID, SPICES, EXTRACTIVES OF PAPRIKA, EXTRACTIVES OF TURMERIC, DISODIUM INOSINATE, DISODIUM GUANYLATE, SILICON DIOXIDE), TRACE OF LIME." Date available: 07/14/2017 Date last updated by company: 07/14/2017
