Source: USDA Branded Food Products Database Release December 2017 Software v.3.8.6.4 2017-10-02
Report Run at: December 18, 2017 12:27 EST
"Nutrient data for: 45243782, TACOMA BOYS, TOMATO ONION POPPYSEED DRESSING, UPC: 037677023506"
Food Group:  Branded Food Products Database
Common Name:

Nutrient,Unit,Data points,Std. Error,"2.0 Tbsp = 30.0g",1Value per 100 g,
Proximates
"Energy",kcal,--,--,40,133
"Protein",g,--,--,0.00,0.00
"Total lipid (fat)",g,--,--,0.00,0.00
"Carbohydrate, by difference",g,--,--,10.00,33.33
"Fiber, total dietary",g,--,--,0.0,0.0
"Sugars, total",g,--,--,9.00,30.00
Minerals
"Calcium, Ca",mg,--,--,0,0
"Iron, Fe",mg,--,--,1.80,6.00
"Sodium, Na",mg,--,--,190,633
Vitamins
"Vitamin C, total ascorbic acid",mg,--,--,0.0,0.0
"Vitamin A, IU",IU,--,--,0,0
Lipids
"Fatty acids, total saturated",g,--,--,0.000,0.000
"Fatty acids, total trans",g,--,--,0.000,0.000
"Cholesterol",mg,--,--,0,0
Amino Acids
Other
Ingredients
"TOMATO PUREE (TOMATO PASTE, WATER), SUGAR, APAINGREDIENTS: TOMATO PUREE (TOMATO PASTE, WATER), SUGAR, APPLE CIDER VINEGAR, ONIONS, WATER, BROWN SUGAR, SALT, SPICES, POPPY SEEDS, XANTHAN GUMPLE CIDER VINEGAR, ONIONS, WATER, BROWN SUGAR, SALT, SPICES, POPPY SEEDS, XANTHAN GUM." Date available: 06/25/2017 Date last updated by company: 06/25/2017
