Source: USDA Branded Food Products Database Release December 2017 Software v.3.8.6.4 2017-10-02
Report Run at: December 18, 2017 12:39 EST
"Nutrient data for: 45120509, TAI PEI, SWEET TERIYAKI CHICKEN, UPC: 070077001194"
Food Group:  Branded Food Products Database
Common Name:

Nutrient,Unit,Data points,Std. Error,"1 PACKAGE = 397.0g",1Value per 100 g,
Proximates
"Energy",kcal,--,--,449,113
"Protein",g,--,--,19.02,4.79
"Total lipid (fat)",g,--,--,5.00,1.26
"Carbohydrate, by difference",g,--,--,84.01,21.16
"Fiber, total dietary",g,--,--,4.0,1.0
"Sugars, total",g,--,--,30.01,7.56
Minerals
"Calcium, Ca",mg,--,--,60,15
"Iron, Fe",mg,--,--,0.87,0.22
"Sodium, Na",mg,--,--,1120,282
Vitamins
"Vitamin C, total ascorbic acid",mg,--,--,23.4,5.9
"Vitamin A, IU",IU,--,--,2457,619
Lipids
"Fatty acids, total saturated",g,--,--,0.993,0.250
"Fatty acids, total monounsaturated",g,--,--,1.509,0.380
"Fatty acids, total polyunsaturated",g,--,--,1.509,0.380
"Fatty acids, total trans",g,--,--,0.000,0.000
"Cholesterol",mg,--,--,36,9
Amino Acids
Other
Ingredients
"COOKED RICE: WATER RICE. VEGETABLES: BROCCOLI, CARROTS, RED BELL PEPPERS, PINEAPPLE. SAUCE: WATER, SOY SAUCE (WATER, SOYBEANS, WHEAT, SALT, ALCOHOL, VINEGAR), SUGAR, ORANGE JUICE CONCENTRATE, MODIFIED FOOD STARCH, WHITE DISTILLED VINEGAR, CONTAINS 2% OR LESS OF THE FOLLOWING: EXPELLER PRESSED SESAME SEED OIL, GARLIC, XANTHAN GUM, SPICE. GRILLED SEASONED CHICKEN DARK MEAT: CHICKEN DARK MEAT, WATER, SOY SAUCE [WATER, WHEAT, SOYBEANS, SALT, ALCOHOL (TO RETAIN FRESHNESS)], UNSWEETENED ORANGE JUICE CONCENTRATE (FILTERED WATER, ORANGE JUICE CONCENTRATE), POTATO STARCH, TOMATO PASTE, SUGAR, FLAVORINGS, SALT, SPICES." Date available: 08/30/2017 Date last updated by company: 08/30/2017
