Source: USDA Branded Food Products Database Release December 2017 Software v.3.8.6.4 2017-10-02
Report Run at: December 18, 2017 12:38 EST
"Nutrient data for: 45287311, TAILGATERS CRUSTINI BUNS, UPC: 050400740327"
Food Group:  Branded Food Products Database
Common Name:

Nutrient,Unit,Data points,Std. Error,"1 BUN = 76.0g",1Value per 100 g,
Proximates
"Energy",kcal,--,--,210,276
"Protein",g,--,--,7.00,9.21
"Total lipid (fat)",g,--,--,2.50,3.29
"Carbohydrate, by difference",g,--,--,39.00,51.32
"Fiber, total dietary",g,--,--,1.0,1.3
"Sugars, total",g,--,--,3.00,3.95
Minerals
"Calcium, Ca",mg,--,--,100,132
"Iron, Fe",mg,--,--,1.19,1.56
"Sodium, Na",mg,--,--,510,671
Vitamins
"Vitamin C, total ascorbic acid",mg,--,--,0.0,0.0
"Thiamin",mg,--,--,0.000,0.000
"Riboflavin",mg,--,--,0.168,0.221
"Niacin",mg,--,--,1.974,2.597
"Vitamin A, IU",IU,--,--,0,0
Lipids
"Fatty acids, total saturated",g,--,--,0.502,0.660
"Fatty acids, total monounsaturated",g,--,--,0.000,0.000
"Fatty acids, total polyunsaturated",g,--,--,1.003,1.320
"Fatty acids, total trans",g,--,--,0.000,0.000
"Cholesterol",mg,--,--,0,0
Amino Acids
Other
Ingredients
"ENRICHED WHEAT FLOUR [FLOUR, MALTED BARLEY FLOUR, REDUCED IRON, NIACIN, THIAMIN MONONITRATE (VITAMIN B1), RIBOFLAVIN (VITAMIN B2), FOLIC ACID], WATER, HIGH FRUCTOSE CORN SYRUP, YEAST, SOYBEAN OIL, SALT, WHEAT GLUTEN, CALCIUM PROPIONATE (PRESERVATIVE), MONOGLYCERIDES, DATEM, CALCIUM SULFATE, CORN FLOUR, MONOCALCIUM PHOSPHATE, SPICE & COLORING, CITRIC ACID, GRAIN VINEGAR, POTASSIUM IODATE, SOY LECITHIN." Date available: 10/04/2017 Date last updated by company: 10/04/2017
