Source: USDA Branded Food Products Database Release December 2017 Software v.3.8.6.4 2017-10-02
Report Run at: December 18, 2017 12:39 EST
"Nutrient data for: 45030086, TAIT FARM FOODS, CRANBERRY ORANGE CONSERVE, CRANBERRY ORANGE, UPC: 768920613099"
Food Group:  Branded Food Products Database
Common Name:

Nutrient,Unit,Data points,Std. Error,"1 Tbsp = 14.0g",1Value per 100 g,
Proximates
"Energy",kcal,--,--,20,143
"Protein",g,--,--,0.00,0.00
"Total lipid (fat)",g,--,--,0.00,0.00
"Carbohydrate, by difference",g,--,--,5.00,35.71
"Fiber, total dietary",g,--,--,0.0,0.0
"Sugars, total",g,--,--,4.00,28.57
Minerals
"Calcium, Ca",mg,--,--,0,0
"Iron, Fe",mg,--,--,0.00,0.00
"Sodium, Na",mg,--,--,0,0
Vitamins
"Vitamin C, total ascorbic acid",mg,--,--,4.1,29.0
"Vitamin A, IU",IU,--,--,0,0
Lipids
"Fatty acids, total saturated",g,--,--,0.000,0.000
"Cholesterol",mg,--,--,0,0
Amino Acids
Other
Ingredients
"FRESH CRANBERRIES, ORGANIC ORANGES, ORGANIC CANE SUGAR, ORGANIC SPICES (CINNAMON, CLOVE, GINGER, NUTMEG)." Date available: 06/24/2017 Date last updated by company: 06/24/2017
