Source: USDA Branded Food Products Database Release December 2017 Software v.3.8.6.4 2017-10-02
Report Run at: December 18, 2017 12:41 EST
"Nutrient data for: 45030108, TAIT FARM FOODS, THE ORIGINAL SHRUB, ARTISAN DRINK MIXER, SOUR CHERRY, UPC: 768920107123"
Food Group:  Branded Food Products Database
Common Name:

Nutrient,Unit,Data points,Std. Error,"1 ONZ = 28.0g",1Value per 100 g,
Proximates
"Energy",kcal,--,--,45,161
"Protein",g,--,--,0.00,0.00
"Total lipid (fat)",g,--,--,0.00,0.00
"Carbohydrate, by difference",g,--,--,11.00,39.29
"Fiber, total dietary",g,--,--,0.0,0.0
"Sugars, total",g,--,--,11.00,39.29
Minerals
"Calcium, Ca",mg,--,--,20,71
"Iron, Fe",mg,--,--,0.64,2.29
"Sodium, Na",mg,--,--,5,18
Vitamins
"Vitamin C, total ascorbic acid",mg,--,--,0.0,0.0
"Vitamin A, IU",IU,--,--,0,0
Lipids
"Fatty acids, total saturated",g,--,--,0.000,0.000
"Cholesterol",mg,--,--,0,0
Amino Acids
Other
Ingredients
"TAIT FARM SOUR CHERRY VINEGAR (SOUR CHERRIES, DISTILLED WHITE VINEGAR), ORGANIC CANE SUGAR." Date available: 06/24/2017 Date last updated by company: 06/24/2017
