Source: USDA Branded Food Products Database Release December 2017 Software v.3.8.6.4 2017-10-02
Report Run at: December 18, 2017 12:42 EST
"Nutrient data for: 45208869, TAKE & BAKE ROSEMARY OLIVE OIL, UPC: 085239630624"
Food Group:  Branded Food Products Database
Common Name:

Nutrient,Unit,Data points,Std. Error,"2.25 """" SLICE = 57.0g",1Value per 100 g,
Proximates
"Energy",kcal,--,--,150,263
"Protein",g,--,--,4.00,7.02
"Total lipid (fat)",g,--,--,2.50,4.39
"Carbohydrate, by difference",g,--,--,28.00,49.12
"Fiber, total dietary",g,--,--,1.0,1.8
"Sugars, total",g,--,--,1.00,1.75
Minerals
"Calcium, Ca",mg,--,--,0,0
"Iron, Fe",mg,--,--,1.58,2.77
"Sodium, Na",mg,--,--,280,491
Vitamins
"Vitamin C, total ascorbic acid",mg,--,--,0.0,0.0
"Vitamin A, IU",IU,--,--,0,0
Lipids
"Fatty acids, total saturated",g,--,--,0.000,0.000
"Fatty acids, total trans",g,--,--,0.000,0.000
"Cholesterol",mg,--,--,0,0
Amino Acids
Other
Ingredients
"UNBLEACHED BREAD FLOUR (WHEAT FLOUR, MALTED BARLEY FLOUR, NIACIN, IRON, THIAMIN MONONITRATE, RIBOFLAVIN, FOLIC ACID), WATER, EXTRA VIRGIN OLIVE OIL, CONTAINS 2% OR LESS OF: SALT, RYE FLOUR, SUGAR, ROSEMARY, VINEGAR, CULTURED WHEAT STARCH, WHEAT FLOUR, CITRIC ACID, ASCORBIC ACID ADDED AS A DOUGH CONDITIONER, ENZYMES, MALT (MALTED BARLEY, WHEAT FLOUR, DEXTROSE), YEAST." Date available: 07/14/2017 Date last updated by company: 07/14/2017
