Source: USDA Branded Food Products Database Release December 2017 Software v.3.8.6.4 2017-10-02
Report Run at: December 18, 2017 12:42 EST
"Nutrient data for: 45018716, TAKOVO, EUROCREAM SPREAD, UPC: 8601900503411"
Food Group:  Branded Food Products Database
Common Name:

Nutrient,Unit,Data points,Std. Error,"2.0 Tbsp = 40.0g",1Value per 100 g,
Proximates
"Energy",kcal,--,--,220,550
"Protein",g,--,--,2.40,6.00
"Total lipid (fat)",g,--,--,12.80,32.00
"Carbohydrate, by difference",g,--,--,23.60,59.00
"Fiber, total dietary",g,--,--,0.0,0.0
"Sugars, total",g,--,--,20.40,51.00
Minerals
"Sodium, Na",mg,--,--,0,0
Vitamins
Lipids
"Fatty acids, total saturated",g,--,--,4.500,11.250
"Fatty acids, total trans",g,--,--,0.100,0.250
Amino Acids
Other
Ingredients
"SUGAR, VEGETABLE FAT, VEGETABLE OIL, SKIMMED AND WHOLE MILK POWDER, FAT-REDUCED COCOA POWDER, SOYA FLOUR, HAZELNUTS, WHEY POWDER, EMULSIFER SOYA LECITHIN AND FLAVOURS." Date available: 07/28/2017 Date last updated by company: 07/28/2017
