Source: USDA Branded Food Products Database Release December 2017 Software v.3.8.6.4 2017-10-02
Report Run at: December 18, 2017 12:44 EST
"Nutrient data for: 45123305, TALENTI, GELATO, WILD BLACKBERRY, UPC: 816680010327"
Food Group:  Branded Food Products Database
Common Name:

Nutrient,Unit,Data points,Std. Error,"1 cup = 101.0g",1Value per 100 g,
Proximates
"Energy",kcal,--,--,210,208
"Protein",g,--,--,3.00,2.97
"Total lipid (fat)",g,--,--,8.00,7.92
"Carbohydrate, by difference",g,--,--,32.00,31.68
"Fiber, total dietary",g,--,--,0.0,0.0
"Sugars, total",g,--,--,32.00,31.68
Minerals
"Calcium, Ca",mg,--,--,60,59
"Iron, Fe",mg,--,--,0.00,0.00
"Sodium, Na",mg,--,--,45,45
Vitamins
"Vitamin C, total ascorbic acid",mg,--,--,0.0,0.0
"Vitamin A, IU",IU,--,--,0,0
Lipids
"Fatty acids, total saturated",g,--,--,5.000,4.950
"Fatty acids, total trans",g,--,--,0.000,0.000
"Cholesterol",mg,--,--,30,30
Amino Acids
Other
Ingredients
"MILK, SUGAR, CREAM, BLACKBERRIES, DEXTROSE, CAROB GUM, VANILLA EXTRACT, PECTIN, LEMON JUICE CONCENTRATE, CARROT JUICE (FOR COLOR), NATURAL FLAVOR." Date available: 07/14/2017 Date last updated by company: 07/14/2017
