Source: USDA Branded Food Products Database Release December 2017 Software v.3.8.6.4 2017-10-02
Report Run at: December 18, 2017 12:45 EST
"Nutrient data for: 45016670, TALLARICO'S, SWEET & SASSY PEPPER STRIPS, UPC: 078911025283"
Food Group:  Branded Food Products Database
Common Name:

Nutrient,Unit,Data points,Std. Error,"8.0 PIECES | ABOUT = 28.0g",1Value per 100 g,
Proximates
"Energy",kcal,--,--,20,71
"Protein",g,--,--,0.00,0.00
"Total lipid (fat)",g,--,--,0.00,0.00
"Carbohydrate, by difference",g,--,--,5.00,17.86
"Sugars, total",g,--,--,3.00,10.71
Minerals
"Sodium, Na",mg,--,--,75,268
Vitamins
Lipids
"Fatty acids, total trans",g,--,--,0.000,0.000
Amino Acids
Other
Ingredients
"PEPPERS, WATER, HIGH FRUCTOSE CORN SYRUP, DISTILLED VINEGAR, SALT, CALCIUM CHLORIDE, SODIUM BENZOATE AND SODIUM METABISULFITE (TO PRESERVE FRESHNESS)." Date available: 07/14/2017 Date last updated by company: 07/14/2017
