Source: USDA Branded Food Products Database Release December 2017 Software v.3.8.6.4 2017-10-02
Report Run at: December 18, 2017 12:45 EST
"Nutrient data for: 45017822, TALLARICO'S, STEAK SANDWICH SAUCE, UPC: 078911704003"
Food Group:  Branded Food Products Database
Common Name:

Nutrient,Unit,Data points,Std. Error,"1 Tbsp = 16.0g",1Value per 100 g,
Proximates
"Energy",kcal,--,--,5,31
"Protein",g,--,--,0.00,0.00
"Total lipid (fat)",g,--,--,0.00,0.00
"Carbohydrate, by difference",g,--,--,1.00,6.25
"Fiber, total dietary",g,--,--,0.0,0.0
"Sugars, total",g,--,--,1.00,6.25
Minerals
"Calcium, Ca",mg,--,--,0,0
"Iron, Fe",mg,--,--,0.00,0.00
"Sodium, Na",mg,--,--,55,344
Vitamins
"Vitamin C, total ascorbic acid",mg,--,--,8.1,50.7
"Vitamin A, IU",IU,--,--,338,2112
Lipids
"Fatty acids, total saturated",g,--,--,0.000,0.000
"Fatty acids, total trans",g,--,--,0.000,0.000
"Cholesterol",mg,--,--,0,0
Amino Acids
Other
Ingredients
"TOMATO PUREE (WATER, TOMATO PASTE), GROUND TOMATOES (TOMATOES, SALT, CITRIC ACID, CALCIUM CHLORIDE), STEAK SAUCE SEASONING (SUGAR, SALT, ROMANO CHEESE (COW'S MILK, RENNET, ENZYMES, SALT), DEHYDRATED ONIONS, SPICES, SPICE EXTRACTIVES, GARLIC POWDER), SOY BEAN OIL, APPLE CIDER VINEGAR, SHERRY WINE." Date available: 06/25/2017 Date last updated by company: 06/25/2017
