Source: USDA Branded Food Products Database Release December 2017 Software v.3.8.6.4 2017-10-02
Report Run at: December 18, 2017 12:47 EST
"Nutrient data for: 45065871, TAMARIND SAUCE, UPC: 726670307507"
Food Group:  Branded Food Products Database
Common Name:

Nutrient,Unit,Data points,Std. Error,"1 Tbsp = 15.0g",1Value per 100 g,
Proximates
"Energy",kcal,--,--,40,267
"Protein",g,--,--,0.00,0.00
"Total lipid (fat)",g,--,--,0.00,0.00
"Carbohydrate, by difference",g,--,--,9.00,60.00
"Sugars, total",g,--,--,8.00,53.33
Minerals
"Sodium, Na",mg,--,--,180,1200
Vitamins
Lipids
Amino Acids
Other
Ingredients
"SUGAR, WATER, TAMARIND, CUMIN, DRIED GINGER, RED CHILI, SALT, CITRIC ACID." Date available: 07/14/2017 Date last updated by company: 07/14/2017
