Source: USDA Branded Food Products Database Release December 2017 Software v.3.8.6.4 2017-10-02
Report Run at: December 18, 2017 12:45 EST
"Nutrient data for: 45221967, TAMALE DINNER, UPC: 854294005773"
Food Group:  Branded Food Products Database
Common Name:

Nutrient,Unit,Data points,Std. Error,"3.0 ONZ = 85.0g",1Value per 100 g,
Proximates
"Energy",kcal,--,--,110,129
"Protein",g,--,--,4.00,4.71
"Total lipid (fat)",g,--,--,8.00,9.41
"Carbohydrate, by difference",g,--,--,6.00,7.06
"Fiber, total dietary",g,--,--,1.0,1.2
"Sugars, total",g,--,--,1.00,1.18
Minerals
"Calcium, Ca",mg,--,--,20,24
"Iron, Fe",mg,--,--,0.36,0.42
"Sodium, Na",mg,--,--,520,612
Vitamins
"Vitamin C, total ascorbic acid",mg,--,--,0.0,0.0
"Vitamin A, IU",IU,--,--,200,235
Lipids
"Fatty acids, total saturated",g,--,--,1.496,1.760
"Fatty acids, total trans",g,--,--,0.000,0.000
"Cholesterol",mg,--,--,10,12
Amino Acids
Other
Ingredients
"DOUGH: WATER, CORN FLOUR (WHITE CORN COOKED IN LIME-WATER), SOYBEAN OIL, SALT, PAPRIKA, XANTHAN GUM, MEAT MIXTURE: COOKED CHICKEN, GREEN TOMATILLOS, CHICKEN BROTH, SOYBEAN OIL, JALAPENO PEPPERS, SERRANO PEPPERS, STARCH, CILANTRO, CHICKEN FLAVOR BASE, SALT, GARLIC POWDER, CUMIN, ONION POWDER. SAUCE: WATER, TOMATO PASTE, CHIPOTLE PEPPERS, SALT, STARCH, LEMON JUICE, PAPRIKA, BLACK PEPPER, TOPPING: MOZZARELLA (LOW MOISTURE PART SKIM MOZZARELLA CHEESE [PASTEURIZED PART SKIM MILK, CULTURES, SALT, ENZYMES], POWDERED CELLULOSE TO PREVENT CAKING, NATAMYCIN [A NATURAL MOLD INHIBITOR])." Date available: 10/18/2017 Date last updated by company: 10/18/2017
