Source: USDA Branded Food Products Database Release December 2017 Software v.3.8.6.4 2017-10-02
Report Run at: December 18, 2017 12:46 EST
"Nutrient data for: 45155622, TAMARIND BEVERAGE CONCENTRATE, UPC: 041512335754"
Food Group:  Branded Food Products Database
Common Name:

Nutrient,Unit,Data points,Std. Error,"2.667 Tbsp = 49.0g",1Value per 100 g,
Proximates
"Energy",kcal,--,--,100,204
"Protein",g,--,--,0.00,0.00
"Total lipid (fat)",g,--,--,0.00,0.00
"Carbohydrate, by difference",g,--,--,27.00,55.10
"Fiber, total dietary",g,--,--,0.0,0.0
"Sugars, total",g,--,--,25.00,51.02
Minerals
"Calcium, Ca",mg,--,--,0,0
"Iron, Fe",mg,--,--,0.00,0.00
"Sodium, Na",mg,--,--,60,122
Vitamins
"Vitamin C, total ascorbic acid",mg,--,--,0.0,0.0
"Vitamin A, IU",IU,--,--,0,0
Lipids
"Fatty acids, total saturated",g,--,--,0.000,0.000
"Fatty acids, total trans",g,--,--,0.000,0.000
"Cholesterol",mg,--,--,0,0
Amino Acids
Other
Ingredients
"HIGH FRUCTOSE CORN SYRUP, WATER, TAMARIND CONCENTRATE, CITRIC ACID, NATURAL AND ARTIFICIAL TAMARIND FLAVORS, PECTIN, SODIUM BENZOATE (PRESERVATIVE), CARAMEL COLOR, SODIUM ALGINATE AND XANTHAN GUM." Date available: 10/19/2017 Date last updated by company: 10/19/2017
