Source: USDA Branded Food Products Database Release December 2017 Software v.3.8.6.4 2017-10-02
Report Run at: December 18, 2017 12:48 EST
"Nutrient data for: 45165378, TAMPICO, LIMONADA, LEMON LIME, UPC: 095188006678"
Food Group:  Branded Food Products Database
Common Name:

Nutrient,Unit,Data points,Std. Error,"8.0 OZA = 240.0g",1Value per 100 g,
Proximates
"Energy",kcal,--,--,50,21
"Protein",g,--,--,0.00,0.00
"Total lipid (fat)",g,--,--,0.00,0.00
"Carbohydrate, by difference",g,--,--,13.99,5.83
"Sugars, total",g,--,--,12.00,5.00
Minerals
"Sodium, Na",mg,--,--,36,15
Vitamins
"Vitamin C, total ascorbic acid",mg,--,--,90.0,37.5
Lipids
Amino Acids
Other
Ingredients
"WATER, HIGH FRUCTOSE CORN SYRUP, CITRIC ACID, SODIUM CITRATE, XANTHAN GUM, LIME JUICE FROM COCENTRATE, ASCORBIC ACID (VITAMIN C), POTASSIUM SORBATE (PRESERVATIVE), MALIC ACID, NATURAL AND ARTIFICIAL FLAVORS, FOOD STARCH-MODIFIED, CORN OIL, SUCRALOSE (ARTIFICIAL SWEETENER), ACESULFAME POTASSIUM (ARTIFICIAL SWEETENER),EDTA (TO PRESERVE FRESHNES), FD&C YELLOW 5, NEOTAME (ARTIFICIAL SWEETENER), FD&C BLUE 1." Date available: 07/14/2017 Date last updated by company: 07/14/2017
