Source: USDA Branded Food Products Database Release December 2017 Software v.3.8.6.4 2017-10-02
Report Run at: December 18, 2017 12:49 EST
"Nutrient data for: 45148309, TAMPICO, PINEAPPLE COCONUT PUNCH, UPC: 095188005015"
Food Group:  Branded Food Products Database
Common Name:

Nutrient,Unit,Data points,Std. Error,"8.0 OZA = 240.0g",1Value per 100 g,
Proximates
"Energy",kcal,--,--,70,29
"Protein",g,--,--,0.00,0.00
"Total lipid (fat)",g,--,--,0.00,0.00
"Carbohydrate, by difference",g,--,--,16.99,7.08
"Sugars, total",g,--,--,15.00,6.25
Minerals
"Sodium, Na",mg,--,--,50,21
Vitamins
"Vitamin C, total ascorbic acid",mg,--,--,60.0,25.0
Lipids
Amino Acids
Other
Ingredients
"WATER, HIGH FRUCTOSE CORN SYRUP, CITRIC ACID, FOOD STARCH-MODIFIED, CORN OIL, SODIUM CITRATE, XANTHAN GUM, ASCORBIC ACID (VITAMIN C), POTASSIUM SORBATE (PRESERVATIVE), NATURAL AND ARTIFICIAL FLAVORS, MALIC ACID, SUCRALOSE (ARTIFFICIAL SWEETENER), ACESULFAME POTASSIUM(ARTIFICIAL SWEETENER), EDTA (TO PRESERVE FRESHNESS), CARMEL COLOR, FD&C YELLOW 5, NEOTAME(ARTIFICIAL SWEETENER)." Date available: 06/25/2017 Date last updated by company: 06/25/2017
