Source: USDA Branded Food Products Database Release December 2017 Software v.3.8.6.4 2017-10-02
Report Run at: December 18, 2017 12:57 EST
"Nutrient data for: 45162432, TARAGUI, HERBAL MIX HERBAL TEAS, UPC: 790387712015"
Food Group:  Branded Food Products Database
Common Name:

Nutrient,Unit,Data points,Std. Error,"1 TEA BAG, IN 8.3 FL.OZ = 1.5g",1Value per 100 g,
Proximates
"Energy",kcal,--,--,0,0
"Protein",g,--,--,0.00,0.00
"Total lipid (fat)",g,--,--,0.00,0.00
"Carbohydrate, by difference",g,--,--,0.00,0.00
Minerals
"Sodium, Na",mg,--,--,0,0
Vitamins
Lipids
Amino Acids
Other
Ingredients
"BOLDO, PEPPERMINT, CHAMOMILE, LEMON VERBENA, CARQUEJA (BACHARIS TRIMERA)." Date available: 08/11/2017 Date last updated by company: 08/11/2017
