Source: USDA Branded Food Products Database Release December 2017 Software v.3.8.6.4 2017-10-02
Report Run at: December 18, 2017 13:03 EST
"Nutrient data for: 45161168, TARGET CORPORATION, MARSHMALLOWS CANDY, VANILLA, UPC: 768395483524"
Food Group:  Branded Food Products Database
Common Name:

Nutrient,Unit,Data points,Std. Error,"5.0 PIECES = 28.0g",1Value per 100 g,
Proximates
"Energy",kcal,--,--,90,321
"Protein",g,--,--,1.00,3.57
"Total lipid (fat)",g,--,--,0.00,0.00
"Carbohydrate, by difference",g,--,--,22.00,78.57
"Sugars, total",g,--,--,19.00,67.86
Minerals
"Sodium, Na",mg,--,--,0,0
Vitamins
Lipids
Amino Acids
Other
Ingredients
"HIGH FRUCTOSE CORN SYRUP, SUGAR, WATER, GELATIN, CORNSTARCH, NATURAL FLAVOR, YELLOW 5, RED 40, BLUE 1." Date available: 07/14/2017 Date last updated by company: 07/14/2017
