Source: USDA Branded Food Products Database Release December 2017 Software v.3.8.6.4 2017-10-02
Report Run at: December 18, 2017 13:04 EST
"Nutrient data for: 45158546, TARGET CORPORATION, WHITE CHOCOLATE SWIRL WITH SPRINKLES MINI BARK, UPC: 845777010254"
Food Group:  Branded Food Products Database
Common Name:

Nutrient,Unit,Data points,Std. Error,"1 PACKAGE = 34.0g",1Value per 100 g,
Proximates
"Energy",kcal,--,--,180,529
"Protein",g,--,--,2.00,5.88
"Total lipid (fat)",g,--,--,11.00,32.35
"Carbohydrate, by difference",g,--,--,21.00,61.76
"Fiber, total dietary",g,--,--,0.0,0.0
"Sugars, total",g,--,--,20.00,58.82
Minerals
"Calcium, Ca",mg,--,--,60,176
"Iron, Fe",mg,--,--,0.00,0.00
"Sodium, Na",mg,--,--,25,74
Vitamins
"Vitamin C, total ascorbic acid",mg,--,--,1.8,5.2
"Vitamin A, IU",IU,--,--,147,432
Lipids
"Fatty acids, total saturated",g,--,--,6.001,17.650
"Fatty acids, total trans",g,--,--,0.000,0.000
"Cholesterol",mg,--,--,5,15
Amino Acids
Other
Ingredients
"WHITE CHOCOLATE (SUGAR, COCOA BUTTER, WHOLE MILK POWDER, SOY LECITHIN [EMULSIFIER], VANILLA), CANDY SPRINKLES (SUGAR, CORN STARCH, PARTIALLY HYDROGENATED VEGETABLE OIL [COTTONSEED AND/OR SOYBEAN], SOY LECITHIN, DEXTRIN, CONFECTIONER'S GLAZE, NATURAL AND ARTIFICIAL FLAVOR, CARNAUBA WAX, RED 3, RED 40, BLUE 1, YELLOW 5 LAKE), COLOR ADDED (WATER, HIGH FRUCTOSE CORN SYRUP, GLYCERINE, SUGAR, MODIFIED CORN STARCH, FD&C BLUE 2, FD&C BLUE 1, FD&C YELLOW 5, SODIUM BENZOATE AND POTASSIUM SORBATE [PRESERVATIVES], CARRAGEENAN GUM, CITRIC ACID, XANTHAN GUM)." Date available: 07/14/2017 Date last updated by company: 07/14/2017
