Source: USDA Branded Food Products Database Release December 2017 Software v.3.8.6.4 2017-10-02
Report Run at: December 18, 2017 13:03 EST
"Nutrient data for: 45147243, TARGET CORPORATION, SANTA MILK CHOCOLATE, UPC: 845777008763"
Food Group:  Branded Food Products Database
Common Name:

Nutrient,Unit,Data points,Std. Error,"1 PACKAGE = 52.0g",1Value per 100 g,
Proximates
"Energy",kcal,--,--,270,519
"Protein",g,--,--,2.00,3.85
"Total lipid (fat)",g,--,--,18.00,34.62
"Carbohydrate, by difference",g,--,--,30.00,57.69
"Fiber, total dietary",g,--,--,2.0,3.8
"Sugars, total",g,--,--,27.00,51.92
Minerals
"Calcium, Ca",mg,--,--,40,77
"Iron, Fe",mg,--,--,0.69,1.33
"Sodium, Na",mg,--,--,25,48
Vitamins
"Vitamin C, total ascorbic acid",mg,--,--,0.0,0.0
"Vitamin A, IU",IU,--,--,96,185
Lipids
"Fatty acids, total saturated",g,--,--,10.998,21.150
"Fatty acids, total trans",g,--,--,0.000,0.000
"Cholesterol",mg,--,--,5,10
Amino Acids
Other
Ingredients
"MILK CHOCOLATE (SUGAR, COCOA BUTTER, CHOCOLATE LIQUOR, MILK POWDER, SOY LECITHIN [EMULSIFIER], VANILLA), NATURAL FLAVOR)." Date available: 07/14/2017 Date last updated by company: 07/14/2017
