Source: USDA Branded Food Products Database Release December 2017 Software v.3.8.6.4 2017-10-02
Report Run at: December 18, 2017 13:00 EST
"Nutrient data for: 45179840, TARGET CORPORATION, COCOA CONE, UPC: 819893021388"
Food Group:  Branded Food Products Database
Common Name:

Nutrient,Unit,Data points,Std. Error,"3.0 Tbsp = 39.0g",1Value per 100 g,
Proximates
"Energy",kcal,--,--,150,385
"Protein",g,--,--,0.00,0.00
"Total lipid (fat)",g,--,--,1.50,3.85
"Carbohydrate, by difference",g,--,--,33.00,84.62
"Sugars, total",g,--,--,26.00,66.67
Minerals
"Iron, Fe",mg,--,--,0.46,1.18
"Sodium, Na",mg,--,--,170,436
Vitamins
Lipids
"Fatty acids, total saturated",g,--,--,1.502,3.850
Amino Acids
Other
Ingredients
"CHOCOLATE MIX (SUGAR, MALTODEXTRIN, CREAMER (PARTIALLY HYDROGENATED COCONUT OIL, CORN SYRUP SOLIDS, SODIUM CASEINATE (MILK), DIPOTASSIUM PHOSPHATE, SUGAR, MONO AND DIGLYCERIDES, SODIUM SILICOALUMINATE, SODIUM STEAROYL LACTYLATE, SOY LECITHIN, ANNATTO, TURMERIC, ARTIFICIAL FLAVOR), DEXTROSE, DUTCH COCOA (PROCESSED WITH ALKALI), SALT, ARTIFICIAL FLAVORS, GUM, SODIUM CITRATE), MARSHMALLOWS (CORN SYRUP, SUGAR, MODIFIED CORNSTARCH, GELATIN)." Date available: 07/14/2017 Date last updated by company: 07/14/2017
