Source: USDA Branded Food Products Database Release December 2017 Software v.3.8.6.4 2017-10-02
Report Run at: December 18, 2017 13:04 EST
"Nutrient data for: 45154168, TARGET, MINI CHOCOLATE CHIP COOKIES, UPC: 845777010568"
Food Group:  Branded Food Products Database
Common Name:

Nutrient,Unit,Data points,Std. Error,"4.0 COOKIES = 31.0g",1Value per 100 g,
Proximates
"Energy",kcal,--,--,160,516
"Protein",g,--,--,2.00,6.45
"Total lipid (fat)",g,--,--,9.00,29.03
"Carbohydrate, by difference",g,--,--,19.00,61.29
"Fiber, total dietary",g,--,--,1.0,3.2
"Sugars, total",g,--,--,14.00,45.16
Minerals
"Calcium, Ca",mg,--,--,20,65
"Iron, Fe",mg,--,--,1.16,3.75
"Sodium, Na",mg,--,--,10,32
Vitamins
"Vitamin C, total ascorbic acid",mg,--,--,0.0,0.0
"Vitamin A, IU",IU,--,--,162,521
Lipids
"Fatty acids, total saturated",g,--,--,5.998,19.350
"Fatty acids, total trans",g,--,--,0.000,0.000
"Cholesterol",mg,--,--,5,16
Amino Acids
Other
Ingredients
"CHOCOLATE CHIP COOKIE (ENRICHED FLOUR [WHEAT FLOUR, MALTED BARLEY FLOUR, NIACIN, REDUCED IRON, THIAMINE MONONITRATE, RIBOFLAVIN, FOLIC ACID], SUGAR, CHOCOLATE CHIPS [SUGAR, UNSWEETENED CHOCOLATE, COCOA BUTTER, SOY LECITHIN {EMULSIFIER}, SALT, VANILLIN {ARTIFICIAL FLAVOR}], BUTTER, PALM OIL, MOLASSES, EGGS, COCONUT [CONTAINS SODIUM METABISULPHITE], WHEY, NATURAL AND ARTIFICIAL FLAVORS, SALT, BAKING SODA), CONFECTIONER'S COATING (SUGAR, PARTIALLY HYDROGENATED PALM KERNEL OIL, WHEY, NONFAT MILK, MONO AND DIGLYCERIDE AND SOY LECITHIN EMUSLIFIERS, ARTIFICIAL COLOR [TITANIUM DIOXIDE], NATURAL AND ARTIFICIAL FLAVOR), DARK CHOCOLATE (SUGAR, CHOCOLATE LIQUOR PROCESSED WITH ALKALI, COCOA BUTTER, MILK FAT, SOY LECITHIN [EMULSIFIER], NATURAL FLAVOR), MILK CHOCOLATE (SUGAR, COCOA BUTTER, CHOCOLATE LIQUOR, MILK POWDER, SOY LECITHIN [EMULSIFIER], VANILLA), COLOR ADDED (YELLOW #5, YELLOW #6)." Date available: 07/14/2017 Date last updated by company: 07/14/2017
