Source: USDA Branded Food Products Database Release December 2017 Software v.3.8.6.4 2017-10-02
Report Run at: December 18, 2017 13:08 EST
"Nutrient data for: 45243029, TART CHERRY CONCENTRATE, UPC: 823332131552"
Food Group:  Branded Food Products Database
Common Name:

Nutrient,Unit,Data points,Std. Error,"1 OZA = 1.0g",1Value per 100 g,
Proximates
"Energy",kcal,--,--,4,367
"Protein",g,--,--,0.03,3.33
"Total lipid (fat)",g,--,--,0.00,0.00
"Carbohydrate, by difference",g,--,--,0.90,90.00
"Fiber, total dietary",g,--,--,0.0,0.0
"Sugars, total",g,--,--,0.73,73.33
Minerals
"Calcium, Ca",mg,--,--,1,67
"Iron, Fe",mg,--,--,0.00,0.00
"Potassium, K",mg,--,--,9,933
"Sodium, Na",mg,--,--,1,67
Vitamins
"Vitamin C, total ascorbic acid",mg,--,--,0.0,0.0
"Vitamin A, IU",IU,--,--,0,0
Lipids
"Fatty acids, total saturated",g,--,--,0.000,0.000
"Fatty acids, total trans",g,--,--,0.000,0.000
"Cholesterol",mg,--,--,0,0
Amino Acids
Other
Ingredients
"FULL STRENGTH MONTMORENCY TART CHERRY CONCENTRATE" Date available: 08/17/2017 Date last updated by company: 08/17/2017
