Source: USDA Branded Food Products Database Release December 2017 Software v.3.8.6.4 2017-10-02
Report Run at: December 18, 2017 13:07 EST
"Nutrient data for: 45316114, TARTAR SAUCE WITH CAPERS AND DILL, UPC: 070670600114"
Food Group:  Branded Food Products Database
Common Name:

Nutrient,Unit,Data points,Std. Error,"2.0 Tbsp = 28.0g",1Value per 100 g,
Proximates
"Energy",kcal,--,--,150,536
"Protein",g,--,--,0.00,0.00
"Total lipid (fat)",g,--,--,16.00,57.14
"Carbohydrate, by difference",g,--,--,1.00,3.57
Minerals
"Sodium, Na",mg,--,--,160,571
Vitamins
Lipids
"Fatty acids, total saturated",g,--,--,2.500,8.930
"Cholesterol",mg,--,--,15,54
Amino Acids
Other
Ingredients
"SOYBEAN OIL, WATER, CUCUMBERS, WHITE DISTILLED VINEGAR, EGGS, SALT, HIGH FRUCTOSE CORN SYRUP, LEMON JUICE, ONIONS, SPICES, MUSTARD SEED, SUGAR, XANTHAN GUM, NATURAL FLAVORS, MODIFIED CORN STARCH, PRESERVATIVES (SODIUM BENZOATE, SORBIC ACID), GARLIC, DILL WEED, CITRIC ACID, CELERY, TURMERIC, CAPERS, PEPPERS (GREEN BELL, RED CHILI), PARSLEY, CALCIUM DISODIUM EDTA (RETAINS PRODUCT FRESHNESS), POTASSIUM SORBATE (PRESERVATIVE), PIMENTO, PAPRIKA." Date available: 07/14/2017 Date last updated by company: 07/14/2017
