Source: USDA Branded Food Products Database Release December 2017 Software v.3.8.6.4 2017-10-02
Report Run at: December 18, 2017 13:06 EST
"Nutrient data for: 45105109, TARTAR SAUCE, UPC: 072325135170"
Food Group:  Branded Food Products Database
Common Name:

Nutrient,Unit,Data points,Std. Error,"1 Tbsp = 12.0g",1Value per 100 g,
Proximates
"Energy",kcal,--,--,80,667
"Protein",g,--,--,0.00,0.00
"Total lipid (fat)",g,--,--,9.00,75.00
"Carbohydrate, by difference",g,--,--,1.00,8.33
Minerals
"Sodium, Na",mg,--,--,65,542
Vitamins
Lipids
"Fatty acids, total saturated",g,--,--,1.500,12.500
"Fatty acids, total trans",g,--,--,0.000,0.000
Amino Acids
Other
Ingredients
"MAYONNAISE (SOYBEAN OIL, EGG YOLKS, WATER, HIGH FRUCTOSE CORN SYRUP, DISTILLED VINEGAR, SALT, CIDER VINEGAR, SPICE, LEMON JUICE CONCENTRATE), CHOPPED PICKLES, CAPERS CHOPPED GARLIC, DIJON MUSTARD, DILL WEED." Date available: 08/11/2017 Date last updated by company: 08/11/2017
