Source: USDA Branded Food Products Database Release December 2017 Software v.3.8.6.4 2017-10-02
Report Run at: December 18, 2017 13:11 EST
"Nutrient data for: 45021678, TASSOS, KALAMATA GREEK OLIVES, UPC: 652878003418"
Food Group:  Branded Food Products Database
Common Name:

Nutrient,Unit,Data points,Std. Error,"14.0 GRM = 14.0g",1Value per 100 g,
Proximates
"Energy",kcal,--,--,22,157
"Protein",g,--,--,0.10,0.71
"Total lipid (fat)",g,--,--,2.00,14.29
"Carbohydrate, by difference",g,--,--,0.80,5.71
"Fiber, total dietary",g,--,--,0.3,2.1
Minerals
"Calcium, Ca",mg,--,--,10,71
"Iron, Fe",mg,--,--,1.93,13.77
"Sodium, Na",mg,--,--,115,821
Vitamins
"Vitamin C, total ascorbic acid",mg,--,--,0.0,0.0
"Vitamin A, IU",IU,--,--,178,1275
Lipids
"Fatty acids, total saturated",g,--,--,0.300,2.140
"Fatty acids, total monounsaturated",g,--,--,1.700,12.140
"Fatty acids, total trans",g,--,--,0.000,0.000
"Cholesterol",mg,--,--,0,0
Amino Acids
Other
Ingredients
"FERMENTED AND PASTEURIZED WHOLE KALAMATA OLIVES, WATER, SEA SALT 5%, RED WINE VINEGAR, TASSOS EXTRA VIRGIN OLIVE OIL, HERBS. GLUTEN FREE." Date available: 06/25/2017 Date last updated by company: 06/25/2017
