Source: USDA Branded Food Products Database Release December 2017 Software v.3.8.6.4 2017-10-02
Report Run at: December 18, 2017 13:11 EST
"Nutrient data for: 45140597, TASSIMO, TIM HORTONS, CAFE & BAKE SHOP LATTE, UPC: 043000054048"
Food Group:  Branded Food Products Database
Common Name:

Nutrient,Unit,Data points,Std. Error,"1 COFFEE T DISC & 1 MILK CREAMER T DISC = 8.0g",1Value per 100 g,
Proximates
"Energy",kcal,--,--,80,1000
"Protein",g,--,--,4.00,50.00
"Total lipid (fat)",g,--,--,6.00,75.00
"Carbohydrate, by difference",g,--,--,4.00,50.00
"Fiber, total dietary",g,--,--,0.0,0.0
"Sugars, total",g,--,--,3.00,37.50
Minerals
"Calcium, Ca",mg,--,--,100,1250
"Iron, Fe",mg,--,--,0.00,0.00
"Sodium, Na",mg,--,--,150,1875
Vitamins
"Vitamin C, total ascorbic acid",mg,--,--,0.0,0.0
"Vitamin A, IU",IU,--,--,0,0
Lipids
"Fatty acids, total saturated",g,--,--,3.500,43.750
"Fatty acids, total trans",g,--,--,0.000,0.000
"Cholesterol",mg,--,--,20,250
Amino Acids
Other
Ingredients
"MILK, WATER, ARABICA COFFEE, CREAM, SUGAR, SALT, SODIUM PHOSPHATE, NATURAL FLAVOR." Date available: 12/12/2016 Date last updated by company: 12/12/2016
