Source: USDA Branded Food Products Database Release December 2017 Software v.3.8.6.4 2017-10-02
Report Run at: December 18, 2017 13:23 EST
"Nutrient data for: 45012023, TASTYKAKE, KANDY KAKES, CHOCOLATE, UPC: 025600002254"
Food Group:  Branded Food Products Database
Common Name:

Nutrient,Unit,Data points,Std. Error,"2.0 CAKES = 38.0g",1Value per 100 g,
Proximates
"Energy",kcal,--,--,180,474
"Protein",g,--,--,1.00,2.63
"Total lipid (fat)",g,--,--,9.00,23.68
"Carbohydrate, by difference",g,--,--,24.00,63.16
"Fiber, total dietary",g,--,--,1.0,2.6
"Sugars, total",g,--,--,18.00,47.37
Minerals
"Calcium, Ca",mg,--,--,0,0
"Iron, Fe",mg,--,--,2.27,5.98
"Sodium, Na",mg,--,--,105,276
Vitamins
"Vitamin C, total ascorbic acid",mg,--,--,0.0,0.0
"Vitamin A, IU",IU,--,--,0,0
Lipids
"Fatty acids, total saturated",g,--,--,6.000,15.790
"Fatty acids, total trans",g,--,--,0.000,0.000
"Cholesterol",mg,--,--,5,13
Amino Acids
Other
Ingredients
"CONFECTIONERY COATING (SUGAR, HYDROGENATED PALM KERNEL OIL, COCOA PROCESSED WITH ALKALI, COCOA POWDER, WHEY POWDER [MILK], SOY LECITHIN, SALT, ARTIFICIAL FLAVOR), SUGAR, ENRICHED BLEACHED FLOUR (WHEAT FLOUR, NIACIN, REDUCED IRON, THIAMINE MONONITRATE, RIBOFLAVIN, FOLIC ACID), HIGH FRUCTOSE CORN SYRUP, VEGETABLE SHORTENING (SOYBEAN OIL, PALM OIL, AND HYDROGENATED COTTONSEED OIL), NONFAT MILK, EGG WHITES, CONTAINS 2% OR LESS OF EACH OF THE FOLLOWING: EGGS, COCOA, CORN SYRUP, CORN STARCH, WHEY (MILK), LEAVENING (SODIUM BICARBONATE, SODIUM ACID PYROPHOSPHATE, MONOCALCIUM PHOSPHATE), MODIFIED CORN STARCH, BUTTER (MADE FROM MILK), MONO-AND DIGLYCERIDES, SOY LECITHIN, SALT, DISTILLED MONOGLYCERIDES, SOY PROTEIN, NATURAL AND ARTIFICIAL FLAVORS (CONTAINS MILK INGREDIENTS), CALCIUM SULFATE, XANTHAN GUM, SPICES, LACTIC ACID, SORBIC ACID (TO RETARD SPOILAGE)." Date available: 07/14/2017 Date last updated by company: 07/14/2017
