Source: USDA Branded Food Products Database Release December 2017 Software v.3.8.6.4 2017-10-02
Report Run at: December 18, 2017 13:19 EST
"Nutrient data for: 45078653, TASTY & CLASSIC COCKTAIL SAUCE, UPC: 031215923433"
Food Group:  Branded Food Products Database
Common Name:

Nutrient,Unit,Data points,Std. Error,"0.25 cup = 71.0g",1Value per 100 g,
Proximates
"Energy",kcal,--,--,70,99
"Protein",g,--,--,1.00,1.41
"Total lipid (fat)",g,--,--,0.00,0.00
"Carbohydrate, by difference",g,--,--,15.00,21.13
"Fiber, total dietary",g,--,--,1.0,1.4
"Sugars, total",g,--,--,13.00,18.31
Minerals
"Calcium, Ca",mg,--,--,20,28
"Iron, Fe",mg,--,--,0.61,0.86
"Sodium, Na",mg,--,--,660,930
Vitamins
"Vitamin C, total ascorbic acid",mg,--,--,7.6,10.7
"Vitamin A, IU",IU,--,--,169,238
Lipids
"Fatty acids, total saturated",g,--,--,0.000,0.000
"Fatty acids, total trans",g,--,--,0.000,0.000
"Cholesterol",mg,--,--,0,0
Amino Acids
Other
Ingredients
"WATER, TOMATO PASTE, WHITE WINE AND WHITE DISTILLED VINEGARS, SUGAR, NATURAL FRUIT CONCENTRATES (PINEAPPLE, PEAR, APPLE, PEACH), GRATED HORSERADISH ROOTS, SALT, LEMON JUICE, CITRIC ACID, MUSTARD SEED, SKIM MILK SOLIDS, ONIONS, MOLASSES, CORN SYRUP, PAPRIKA, SPICES, RED CHILI PEPPERS, XANTHAN GUM, CARAMEL COLOR, NATURAL FLAVOR, GARLIC, SOYBEAN OIL, TAMARIND, ANCHOVIES." Date available: 07/14/2017 Date last updated by company: 07/14/2017
