Source: USDA Branded Food Products Database Release December 2017 Software v.3.8.6.4 2017-10-02
Report Run at: December 18, 2017 13:19 EST
"Nutrient data for: 45018055, TASTY JOY, WHOLE PEELED STRAW MUSHROOMS, UPC: 738055017420"
Food Group:  Branded Food Products Database
Common Name:

Nutrient,Unit,Data points,Std. Error,"110.0 g = 110.0g",1Value per 100 g,
Proximates
"Energy",kcal,--,--,16,15
"Protein",g,--,--,2.00,1.82
"Total lipid (fat)",g,--,--,0.00,0.00
"Carbohydrate, by difference",g,--,--,2.00,1.82
"Fiber, total dietary",g,--,--,2.0,1.8
"Sugars, total",g,--,--,0.00,0.00
Minerals
"Calcium, Ca",mg,--,--,10,9
"Iron, Fe",mg,--,--,1.08,0.98
"Sodium, Na",mg,--,--,231,210
Vitamins
"Vitamin C, total ascorbic acid",mg,--,--,0.0,0.0
"Vitamin A, IU",IU,--,--,0,0
Lipids
"Fatty acids, total saturated",g,--,--,0.000,0.000
"Fatty acids, total trans",g,--,--,0.000,0.000
"Cholesterol",mg,--,--,0,0
Amino Acids
Other
Ingredients
"STRAW MUSHROOMS" Date available: 09/23/2016 Date last updated by company: 09/23/2016
