Source: USDA Branded Food Products Database Release December 2017 Software v.3.8.6.4 2017-10-02
Report Run at: December 18, 2017 13:21 EST
"Nutrient data for: 45222739, TASTYKAKE, DANISH, ICED CINNAMON, UPC: 025600088777"
Food Group:  Branded Food Products Database
Common Name:

Nutrient,Unit,Data points,Std. Error,"1 DANISH = 149.0g",1Value per 100 g,
Proximates
"Energy",kcal,--,--,571,383
"Protein",g,--,--,9.00,6.04
"Total lipid (fat)",g,--,--,25.00,16.78
"Carbohydrate, by difference",g,--,--,79.00,53.02
"Fiber, total dietary",g,--,--,4.0,2.7
"Sugars, total",g,--,--,36.00,24.16
Minerals
"Calcium, Ca",mg,--,--,250,168
"Iron, Fe",mg,--,--,1.33,0.89
"Sodium, Na",mg,--,--,450,302
Vitamins
"Vitamin C, total ascorbic acid",mg,--,--,0.0,0.0
"Vitamin A, IU",IU,--,--,462,310
Lipids
"Fatty acids, total saturated",g,--,--,10.996,7.380
"Fatty acids, total monounsaturated",g,--,--,8.001,5.370
"Fatty acids, total polyunsaturated",g,--,--,4.500,3.020
"Fatty acids, total trans",g,--,--,0.000,0.000
"Cholesterol",mg,--,--,10,7
Amino Acids
Other
Ingredients
"ENRICHED BLEACHED FLOUR (WHEAT FLOUR, MALTED BARLEY FLOUR, NIACIN, REDUCED IRON, THIAMINE MONONITRATE, RIBOFLAVIN, FOLIC ACID), SUGAR, WATER, PALM OIL AND SOYBEAN OIL, EGG WHITES, YEAST, CONTAINS 2% OR LESS OF: EGGS, CINNAMON, COCOA POWDER PROCESSED WITH ALKALI, CALCIUM SULFATE, SALT, NATURAL AND ARTIFICIAL FLAVORS, ASCORBIC ACID, AGAR, DEXTROSE, CORN STARCH, AMMONIUM SULFATE, CALCIUM CARBONATE, SODIUM PHOSPHATE, CARRAGEENAN, FUMARIC ACID, NONFAT MILK, WHEY, CASEIN, MOLASSES, MONOCALCIUM PHOSPHATE, LEAVENING (SODIUM ACID PYROPHOSPHATE, BAKING SODA), XANTHAN GUM, MONO- AND DIGLYCERIDES, ENZYME ACTIVE DEFATTED SOY FLOUR, SODIUM STEAROYL LACTYLATE, WHEAT GLUTEN, GUAR GUM, SOY LECITHIN, ENZYMES, SODIUM PROPIONATE AND POTASSIUM SORBATE AND CALCIUM PROPIONATE AND SODIUM BENZOATE AND TOCOPHEROLS AND CALCIUM ACETATE AND CITRIC ACID (PRESERVATIVES), TITANIUM DIOXIDE AND TURMERIC AND PAPRIKA AND BETA CAROTENE (COLORS) SODIUM HEXAMETAPHOSPHATE, VITAMIN A PAMITATE." Date available: 09/05/2017 Date last updated by company: 09/05/2017
