Source: USDA Branded Food Products Database Release December 2017 Software v.3.8.6.4 2017-10-02
Report Run at: December 18, 2017 13:20 EST
"Nutrient data for: 45223384, TASTYKAKE, CINNAMON ROLLS, UPC: 025600005613"
Food Group:  Branded Food Products Database
Common Name:

Nutrient,Unit,Data points,Std. Error,"1 ROLL = 68.0g",1Value per 100 g,
Proximates
"Energy",kcal,--,--,220,324
"Protein",g,--,--,4.00,5.88
"Total lipid (fat)",g,--,--,4.50,6.62
"Carbohydrate, by difference",g,--,--,41.00,60.29
"Fiber, total dietary",g,--,--,2.0,2.9
"Sugars, total",g,--,--,18.00,26.47
Minerals
"Calcium, Ca",mg,--,--,80,118
"Iron, Fe",mg,--,--,1.99,2.92
"Sodium, Na",mg,--,--,140,206
Vitamins
"Vitamin C, total ascorbic acid",mg,--,--,0.0,0.0
"Vitamin A, IU",IU,--,--,0,0
Lipids
"Fatty acids, total saturated",g,--,--,1.999,2.940
"Fatty acids, total monounsaturated",g,--,--,1.503,2.210
"Fatty acids, total polyunsaturated",g,--,--,1.000,1.470
"Fatty acids, total trans",g,--,--,0.000,0.000
"Cholesterol",mg,--,--,5,7
Amino Acids
Other
Ingredients
"UNBLEACHED ENRICHED FLOUR (WHEAT FLOUR, MALTED BARLEY FLOUR, NIACIN REDUCED IRON, THIAMIN MONONITRATE, RIBOFLAVIN, FOLIC ACID), SUGAR, WATER, WHEY (MILK), VEGETABLE OIL (PALM OIL AND SOYBEAN OIL), YEAST, CORN SYRUP, HIGH FRUCTOSE CORN SYRUP, NONFAT MILK, CONTAINS 2% OR LESS OF EACH OF THE FOLLOWING: GLYCERINE, CINNAMON, SALT, DEXTROSE, YELLOW CORN MEAL, WHEAT GLUTEN, CALCIUM CARBONATE, MOLASSES, SOY FLOUR, MONOGLYCERIDES, MODIFIED CORN STARCH, AGAR, BLEACHED WHEAT FLOUR, CORN STARCH, POLYSORBATE 80, SODIUM STEAROYL LACTYLATE, XANTHAN GUM, SODIUM ALGINATE, WHEAT STARCH, NATURAL AND ARTIFICIAL FLAVORS, CALCIUM SULFATE, SODIUM PHOSPHATE, ENZYMES, SOY LECITHIN, COLORED WITH EXTRACTIVES OF TURMERIC AND ANNATTO SEED, WHEAT FLOUR, EGG YOLKS, CINNAMIC ALDEHYDE, EGGS, CARAMEL COLOR, CELLULOSE GUM, SODIUM BICARBONATE, CALCIUM PROPIONATE AND POTASSIUM SORBATE (TO RETARD SPOILAGE)." Date available: 07/14/2017 Date last updated by company: 07/14/2017
