Source: USDA Branded Food Products Database Release December 2017 Software v.3.8.6.4 2017-10-02
Report Run at: December 18, 2017 13:17 EST
"Nutrient data for: 45142748, TASTE WORKS, KETTLE COOKED POTATO CHIPS, HOLLA JALAPENO, UPC: 037578617606"
Food Group:  Branded Food Products Database
Common Name:

Nutrient,Unit,Data points,Std. Error,"1 PACKAGE = 56.7g",1Value per 100 g,
Proximates
"Energy",kcal,--,--,290,511
"Protein",g,--,--,3.00,5.29
"Total lipid (fat)",g,--,--,17.00,29.98
"Carbohydrate, by difference",g,--,--,33.00,58.20
"Fiber, total dietary",g,--,--,2.0,3.5
"Sugars, total",g,--,--,3.00,5.29
Minerals
"Calcium, Ca",mg,--,--,0,0
"Iron, Fe",mg,--,--,0.64,1.12
"Potassium, K",mg,--,--,590,1041
"Sodium, Na",mg,--,--,300,529
Vitamins
"Vitamin C, total ascorbic acid",mg,--,--,18.5,32.7
"Vitamin A, IU",IU,--,--,88,155
Lipids
"Fatty acids, total saturated",g,--,--,2.002,3.530
"Fatty acids, total monounsaturated",g,--,--,3.997,7.050
"Fatty acids, total polyunsaturated",g,--,--,10.002,17.640
"Fatty acids, total trans",g,--,--,0.000,0.000
"Cholesterol",mg,--,--,0,0
Amino Acids
Other
Ingredients
"POTATOES, VEGETABLE OIL (CONTAINS ONE OR MORE OF THE FOLLOWING: CORN, SUNFLOWER, OR CANOLA OIL), SALT, MALTODEXTRIN, DEXTROSE, DEHYDRATED JALAPENO, ONION & GARLIC POWDER, TORULA YEAST, NATURAL AND ARTIFICIAL FLAVORS, CITRIC ACID, AND EXTRACTIVES OF PAPRIKA." Date available: 07/14/2017 Date last updated by company: 07/14/2017
