Source: USDA Branded Food Products Database Release December 2017 Software v.3.8.6.4 2017-10-02
Report Run at: December 18, 2017 13:18 EST
"Nutrient data for: 45032329, TASTY BITE, SZECHUAN NOODLES, UPC: 782733015086"
Food Group:  Branded Food Products Database
Common Name:

Nutrient,Unit,Data points,Std. Error,"0.5 PACK = 125.0g",1Value per 100 g,
Proximates
"Energy",kcal,--,--,198,158
"Protein",g,--,--,5.00,4.00
"Total lipid (fat)",g,--,--,5.00,4.00
"Carbohydrate, by difference",g,--,--,33.00,26.40
"Fiber, total dietary",g,--,--,4.0,3.2
"Sugars, total",g,--,--,3.00,2.40
Minerals
"Calcium, Ca",mg,--,--,10,8
"Iron, Fe",mg,--,--,0.57,0.46
"Sodium, Na",mg,--,--,460,368
Vitamins
"Vitamin C, total ascorbic acid",mg,--,--,0.0,0.0
"Vitamin A, IU",IU,--,--,20,16
Lipids
"Fatty acids, total saturated",g,--,--,0.500,0.400
"Fatty acids, total trans",g,--,--,0.000,0.000
"Cholesterol",mg,--,--,0,0
Amino Acids
Other
Ingredients
"WHEAT NOODLES, WATER, ONION, BABY CORN, TOMATO, RAW SUGAR, SCALLIONS, WATER CHESTNUTS, CELERY, GARLIC, SUNFLOWER OIL, VINEGAR, NATURAL FLAVORING, GINGER, BAMBOO SHOOTS, TOASTED SESAME OIL, SALT, RED CHILIES, SPICES." Date available: 07/14/2017 Date last updated by company: 07/14/2017
