Source: USDA Branded Food Products Database Release December 2017 Software v.3.8.6.4 2017-10-02
Report Run at: December 18, 2017 13:15 EST
"Nutrient data for: 45034056, TASTE OF INSPIRATIONS, MEDITERRANEAN PITTED OLIVE MEDLEY, UPC: 725439978439"
Food Group:  Branded Food Products Database
Common Name:

Nutrient,Unit,Data points,Std. Error,"3.0 OLIVES = 14.0g",1Value per 100 g,
Proximates
"Energy",kcal,--,--,25,179
"Protein",g,--,--,0.00,0.00
"Total lipid (fat)",g,--,--,2.00,14.29
"Carbohydrate, by difference",g,--,--,1.00,7.14
"Fiber, total dietary",g,--,--,1.0,7.1
"Sugars, total",g,--,--,0.00,0.00
Minerals
"Calcium, Ca",mg,--,--,0,0
"Iron, Fe",mg,--,--,0.00,0.00
"Sodium, Na",mg,--,--,240,1714
Vitamins
"Vitamin C, total ascorbic acid",mg,--,--,0.0,0.0
"Vitamin A, IU",IU,--,--,0,0
Lipids
"Fatty acids, total saturated",g,--,--,0.000,0.000
"Fatty acids, total trans",g,--,--,0.000,0.000
"Cholesterol",mg,--,--,0,0
Amino Acids
Other
Ingredients
"OLIVES (PIMENTO PASTE, SODIUM ALGINATE), WATER, SALT AND VINEGAR." Date available: 06/24/2017 Date last updated by company: 06/24/2017
