Source: USDA Branded Food Products Database Release December 2017 Software v.3.8.6.4 2017-10-02
Report Run at: December 18, 2017 13:17 EST
"Nutrient data for: 45183721, TASTES LIKE BUTTER SWEET CREAM BUTTERMILK, UPC: 070784006437"
Food Group:  Branded Food Products Database
Common Name:

Nutrient,Unit,Data points,Std. Error,"1 Tbsp = 14.0g",1Value per 100 g,
Proximates
"Energy",kcal,--,--,70,500
"Protein",g,--,--,0.00,0.00
"Total lipid (fat)",g,--,--,8.00,57.14
"Carbohydrate, by difference",g,--,--,0.00,0.00
"Fiber, total dietary",g,--,--,0.0,0.0
"Sugars, total",g,--,--,0.00,0.00
Minerals
"Calcium, Ca",mg,--,--,0,0
"Iron, Fe",mg,--,--,0.00,0.00
"Sodium, Na",mg,--,--,90,643
Vitamins
"Vitamin C, total ascorbic acid",mg,--,--,0.0,0.0
"Vitamin A, IU",IU,--,--,1690,12075
Lipids
"Fatty acids, total saturated",g,--,--,2.001,14.290
"Fatty acids, total trans",g,--,--,0.000,0.000
"Cholesterol",mg,--,--,0,0
Amino Acids
Other
Ingredients
"VEGETABLE OIL BLEND (SOYBEAN OIL, PALM OIL, PALM KERNEL OIL), WATER, SWEET CREAM BUTTERMILK (MILK), SALT, VEGETABLE MONO AND DIGLYCERIDES, SOY LECITHIN (SOY), NATURAL AND ARTIFICIAL FLAVOR, POTASSIUM SORBATE AND CITRIC ACID (TO PROTECT QUALITY), VITAMIN A PALMITATE, BETA CAROTENE (FOR COLOR)." Date available: 07/14/2017 Date last updated by company: 07/14/2017
