Source: USDA Branded Food Products Database Release December 2017 Software v.3.8.6.4 2017-10-02
Report Run at: December 18, 2017 13:13 EST
"Nutrient data for: 45160915, TASTE OF INSPIRATIONS, CAPPUCCINO DRINK MIX, PUMPKIN SPICE, UPC: 725439988117"
Food Group:  Branded Food Products Database
Common Name:

Nutrient,Unit,Data points,Std. Error,"1 SINGLE SERVE CUP = 15.0g",1Value per 100 g,
Proximates
"Energy",kcal,--,--,80,533
"Protein",g,--,--,0.00,0.00
"Total lipid (fat)",g,--,--,4.50,30.00
"Carbohydrate, by difference",g,--,--,9.00,60.00
"Fiber, total dietary",g,--,--,0.0,0.0
"Sugars, total",g,--,--,5.00,33.33
Minerals
"Calcium, Ca",mg,--,--,0,0
"Iron, Fe",mg,--,--,0.00,0.00
"Sodium, Na",mg,--,--,160,1067
Vitamins
"Vitamin C, total ascorbic acid",mg,--,--,0.0,0.0
"Vitamin A, IU",IU,--,--,0,0
Lipids
"Fatty acids, total saturated",g,--,--,4.000,26.670
"Fatty acids, total monounsaturated",g,--,--,0.000,0.000
"Fatty acids, total polyunsaturated",g,--,--,0.000,0.000
"Fatty acids, total trans",g,--,--,0.000,0.000
"Cholesterol",mg,--,--,0,0
Amino Acids
Other
Ingredients
"SUGAR, COCONUT OIL, CORN SYRUP SOLIDS, INSTANT COFFEE, SALT, SODIUM CASEINATE, NATURAL FLAVORS, COCOA (PROCESSED WITH ALKALI), MONO-AND DIGLYCERIDES, DIPOTASSIUM PHOSPHATE, SILICON DIOXIDE, SUCRALOSE, ACESULFAME POTASSIUM." Date available: 07/14/2017 Date last updated by company: 07/14/2017
