Source: USDA Branded Food Products Database Release December 2017 Software v.3.8.6.4 2017-10-02
Report Run at: December 18, 2017 13:15 EST
"Nutrient data for: 45153514, TASTE OF INSPIRATIONS, SUMMERS SWEET ICED TEA DRINK MIX, UPC: 725439983518"
Food Group:  Branded Food Products Database
Common Name:

Nutrient,Unit,Data points,Std. Error,"1 cup = 22.0g",1Value per 100 g,
Proximates
"Energy",kcal,--,--,70,318
"Protein",g,--,--,0.00,0.00
"Total lipid (fat)",g,--,--,0.00,0.00
"Carbohydrate, by difference",g,--,--,18.00,81.82
"Fiber, total dietary",g,--,--,0.0,0.0
"Sugars, total",g,--,--,18.00,81.82
Minerals
"Calcium, Ca",mg,--,--,0,0
"Iron, Fe",mg,--,--,0.00,0.00
"Sodium, Na",mg,--,--,0,0
Vitamins
"Vitamin C, total ascorbic acid",mg,--,--,0.0,0.0
"Vitamin A, IU",IU,--,--,0,0
Lipids
"Fatty acids, total saturated",g,--,--,0.000,0.000
"Fatty acids, total monounsaturated",g,--,--,0.000,0.000
"Fatty acids, total polyunsaturated",g,--,--,0.000,0.000
"Fatty acids, total trans",g,--,--,0.000,0.000
"Cholesterol",mg,--,--,0,0
Amino Acids
Other
Ingredients
"CANE SUGAR, BLACK TEA, TRICALCIUM PHOSPHATE, STEVIA EXTRACT (REBAUDIOSIDE A)." Date available: 07/14/2017 Date last updated by company: 07/14/2017
