Source: USDA Branded Food Products Database Release December 2017 Software v.3.8.6.4 2017-10-02
Report Run at: December 18, 2017 13:25 EST
"Nutrient data for: 45325765, TATER BITES, FROZEN FRIED POTATOES, UPC: 070784064260"
Food Group:  Branded Food Products Database
Common Name:

Nutrient,Unit,Data points,Std. Error,"10.0 PIECES | ABOUT = 85.0g",1Value per 100 g,
Proximates
"Energy",kcal,--,--,140,165
"Protein",g,--,--,2.00,2.35
"Total lipid (fat)",g,--,--,5.00,5.88
"Carbohydrate, by difference",g,--,--,21.00,24.71
"Fiber, total dietary",g,--,--,1.0,1.2
"Sugars, total",g,--,--,0.00,0.00
Minerals
"Calcium, Ca",mg,--,--,4,5
"Iron, Fe",mg,--,--,0.50,0.59
"Potassium, K",mg,--,--,236,278
"Sodium, Na",mg,--,--,200,235
Vitamins
"Vitamin D",IU,--,--,0,0
Lipids
"Fatty acids, total saturated",g,--,--,1.003,1.180
"Fatty acids, total trans",g,--,--,0.000,0.000
"Cholesterol",mg,--,--,0,0
Amino Acids
Other
Ingredients
"POTATOES, VEGETABLE OIL (CONTAINS SOYBEAN AND/OR CANOLA OIL), MODIFIED CORN STARCH, POTATO STARCH, SALT, DEHYDRATED ONION, SODIUM ACID PYROPHOSPHATE, DEXTROSE." Date available: 09/25/2017 Date last updated by company: 09/25/2017
