Source: USDA Branded Food Products Database Release December 2017 Software v.3.8.6.4 2017-10-02
Report Run at: December 18, 2017 13:27 EST
"Nutrient data for: 45257072, TAYLOR FARMS, BAKED MACARONI & CHEESE, UPC: 030223008965"
Food Group:  Branded Food Products Database
Common Name:

Nutrient,Unit,Data points,Std. Error,"1 cup = 232.0g",1Value per 100 g,
Proximates
"Energy",kcal,--,--,441,190
"Protein",g,--,--,18.00,7.76
"Total lipid (fat)",g,--,--,25.01,10.78
"Carbohydrate, by difference",g,--,--,34.01,14.66
"Fiber, total dietary",g,--,--,0.9,0.4
"Sugars, total",g,--,--,3.99,1.72
Minerals
"Calcium, Ca",mg,--,--,450,194
"Iron, Fe",mg,--,--,0.86,0.37
"Sodium, Na",mg,--,--,761,328
Vitamins
"Vitamin C, total ascorbic acid",mg,--,--,0.0,0.0
"Vitamin A, IU",IU,--,--,603,260
Lipids
"Fatty acids, total saturated",g,--,--,16.008,6.900
"Fatty acids, total trans",g,--,--,0.000,0.000
"Cholesterol",mg,--,--,70,30
Amino Acids
Other
Ingredients
"MACARONI (SEMOLINA, DURUM FLOUR, NIACIN, IRON [FERROUS SULFATE], THIAMIN MONONITRATE, RIBOFLAVIN, FOLIC ACID), MILK, WHOLE, 3.5%, HOMOGENIZED, W/ADD VIT D, CHEDDAR CHEESE (CULTURED MILK, SALT, ENZYMES, ANNATTO [COLOR]), CHEESE PRODUCT (NONFAT MILK AND MILKFAT, WHEY, MILK PROTEIN CONCENTRATE, MILK, SODIUM PHOSPHATE, MALTODEXTRIN, CONTAINS LESS THAN 2% OF SALT, WHEY PROTEIN CONCENTRATE, CALCIUM PHOSPHATE, LACTIC ACID, SORBIC ACID AS A PRESERVATIVE, SODIUM ALGINATE, CITRIC ACID, SODIUM CITRATE, CHEESE CULTURE, ENZYMES, APOCAROTENAL AND ANNATTO [COLOR]), WATER, UNSALTED BUTTER (CREAM, NATURAL FLAVORING), BREAD CRUMBS (BLEACHED WHEAT FLOUR, DEXTROSE, YEAST, SALT), FOOD STARCH-MODIFIED, CANOLA OIL, EXTRA VIRGIN OLIVE OIL, SALT, ONION POWDER, BLACK PEPPER, GARLIC POWDER, CAYENNE PEPPER, PAPRIKA." Date available: 10/13/2017 Date last updated by company: 10/13/2017
