Source: USDA Branded Food Products Database Release December 2017 Software v.3.8.6.4 2017-10-02
Report Run at: December 18, 2017 13:31 EST
"Nutrient data for: 45178299, TAZAH, CHICK PEAS DIP(HOMMOS TAHINA), UPC: 738960270194"
Food Group:  Branded Food Products Database
Common Name:

Nutrient,Unit,Data points,Std. Error,"1 cup = 150.0g",1Value per 100 g,
Proximates
"Energy",kcal,--,--,154,103
"Protein",g,--,--,8.40,5.60
"Total lipid (fat)",g,--,--,5.17,3.45
"Carbohydrate, by difference",g,--,--,18.60,12.40
"Fiber, total dietary",g,--,--,5.4,3.6
"Sugars, total",g,--,--,1.50,1.00
Minerals
"Calcium, Ca",mg,--,--,8,5
"Iron, Fe",mg,--,--,0.90,0.60
"Sodium, Na",mg,--,--,404,269
Vitamins
"Vitamin C, total ascorbic acid",mg,--,--,1.1,0.7
"Vitamin A, IU",IU,--,--,0,0
Lipids
"Fatty acids, total saturated",g,--,--,0.720,0.480
"Fatty acids, total trans",g,--,--,0.000,0.000
"Cholesterol",mg,--,--,0,0
Amino Acids
Other
Ingredients
"CHICK PEAS, SESAME PASTE, SALT, WATER, LEMON JUICE, GARLIC" Date available: 07/14/2017 Date last updated by company: 07/14/2017
