Source: USDA Branded Food Products Database Release December 2017 Software v.3.8.6.4 2017-10-02
Report Run at: December 18, 2017 13:36 EST
"Nutrient data for: 45161776, TEA MOUNTAIN, UNSWEETENED BLACK TEA, UPC: 851042003500"
Food Group:  Branded Food Products Database
Common Name:

Nutrient,Unit,Data points,Std. Error,"8.0 OZA = 240.0g",1Value per 100 g,
Proximates
"Energy",kcal,--,--,0,0
"Protein",g,--,--,0.00,0.00
"Total lipid (fat)",g,--,--,0.00,0.00
"Carbohydrate, by difference",g,--,--,0.00,0.00
"Sugars, total",g,--,--,0.00,0.00
Minerals
"Sodium, Na",mg,--,--,14,6
Vitamins
Lipids
Amino Acids
Other
Ingredients
"FILTERED WATER, NATURAL FLAVORS, BLACK TEA, CITRIC ACID, PHOSPHORIC ACID, CARAMEL COLOR, LESS THEN 0.1% SODIUM BENZOATE AND POTASSIUM SORBATE ADDED TO PRESERVE FRESHNESS." Date available: 07/14/2017 Date last updated by company: 07/14/2017
