Source: USDA Branded Food Products Database Release December 2017 Software v.3.8.6.4 2017-10-02
Report Run at: December 18, 2017 13:39 EST
"Nutrient data for: 45163255, TECAMPANA, GREEN MOLE SAUCE, UPC: 7503004515059"
Food Group:  Branded Food Products Database
Common Name:

Nutrient,Unit,Data points,Std. Error,"2.0 Tbsp = 28.0g",1Value per 100 g,
Proximates
"Energy",kcal,--,--,180,643
"Protein",g,--,--,3.00,10.71
"Total lipid (fat)",g,--,--,10.00,35.71
"Carbohydrate, by difference",g,--,--,18.00,64.29
"Fiber, total dietary",g,--,--,0.0,0.0
"Sugars, total",g,--,--,6.00,21.43
Minerals
"Calcium, Ca",mg,--,--,30,107
"Iron, Fe",mg,--,--,2.56,9.13
"Sodium, Na",mg,--,--,308,1100
Vitamins
"Vitamin C, total ascorbic acid",mg,--,--,4.9,17.4
"Vitamin A, IU",IU,--,--,811,2898
Lipids
"Fatty acids, total saturated",g,--,--,1.999,7.140
"Cholesterol",mg,--,--,0,0
Amino Acids
Other
Ingredients
"PUMPKIN SEEDS, TOASTED CORN ARBOL, CHILI, SALT, CANOLA OIL, AND SPICES." Date available: 06/25/2017 Date last updated by company: 06/25/2017
