Source: USDA Branded Food Products Database Release December 2017 Software v.3.8.6.4 2017-10-02
Report Run at: December 18, 2017 13:40 EST
"Nutrient data for: 45159110, TEENEE BEANEE, JELLY BEANS CANDY, CARIBBEAN PUNCH, UPC: 886786031038"
Food Group:  Branded Food Products Database
Common Name:

Nutrient,Unit,Data points,Std. Error,"36.0 PIECES = 40.0g",1Value per 100 g,
Proximates
"Energy",kcal,--,--,140,350
"Protein",g,--,--,0.00,0.00
"Total lipid (fat)",g,--,--,0.00,0.00
"Carbohydrate, by difference",g,--,--,36.00,90.00
"Fiber, total dietary",g,--,--,0.0,0.0
"Sugars, total",g,--,--,28.00,70.00
Minerals
"Calcium, Ca",mg,--,--,0,0
"Iron, Fe",mg,--,--,0.00,0.00
"Sodium, Na",mg,--,--,40,100
Vitamins
"Vitamin C, total ascorbic acid",mg,--,--,0.0,0.0
"Vitamin A, IU",IU,--,--,0,0
Lipids
"Fatty acids, total saturated",g,--,--,0.000,0.000
"Fatty acids, total trans",g,--,--,0.000,0.000
"Cholesterol",mg,--,--,0,0
Amino Acids
Other
Ingredients
"SUGAR, CORN SYRUP, MODIFIED FOOD STARCH, CONTAINS LESS THAN 0.5% OF THE FOLLOWING INGREDIENTS: ARTIFICIAL FLAVORS, DEXTRIN, CITRIC ACID, MALIC ACID, SODIUM CITRATE, PECTIN, CONFECTIONERS GLAZE, CARNAUBA ARTIFICIAL COLOR, YELLOW #5 (TARTRAZINE), BLUE#1." Date available: 07/14/2017 Date last updated by company: 07/14/2017
