Source: USDA Branded Food Products Database Release December 2017 Software v.3.8.6.4 2017-10-02
Report Run at: December 18, 2017 13:40 EST
"Nutrient data for: 45231287, TEENAGE MUTANT NINJA TURTLES POWER MUFFINS, UPC: 704863032030"
Food Group:  Branded Food Products Database
Common Name:

Nutrient,Unit,Data points,Std. Error,"1 MUFFIN = 28.0g",1Value per 100 g,
Proximates
"Energy",kcal,--,--,80,286
"Protein",g,--,--,2.00,7.14
"Total lipid (fat)",g,--,--,2.00,7.14
"Carbohydrate, by difference",g,--,--,14.00,50.00
"Fiber, total dietary",g,--,--,2.0,7.1
"Sugars, total",g,--,--,6.00,21.43
Minerals
"Calcium, Ca",mg,--,--,20,71
"Iron, Fe",mg,--,--,2.83,10.10
"Sodium, Na",mg,--,--,70,250
Vitamins
"Vitamin C, total ascorbic acid",mg,--,--,4.7,16.8
"Vitamin A, IU",IU,--,--,785,2805
Lipids
"Fatty acids, total saturated",g,--,--,0.501,1.790
"Fatty acids, total trans",g,--,--,0.000,0.000
"Cholesterol",mg,--,--,20,71
Amino Acids
Other
Ingredients
"ZUCCHINI, GLUTEN FREE FLOUR BLEND (BROWN RICE FLOUR, SORGHUM FLOUR, CORN STARCH, FLAXSEED MEAL), SUGAR, EGG WHITES, WHOLE EGGS, CERTIFIED GLUTEN FREE OATS, SEMI-SWEET CHOCOLATE CHIPS (SUGAR, UNSWEETENED CHOCOLATE, DEXTROSE, COCOA BUTTER, SOY LECITHIN [AN EMULSIFIER], VANILLA EXTRACT), SPINACH, SOLUBLE CORN FIBER, CANOLA OIL, BAKING POWDER (SODIUM ACID PYROPHOSPHATE, SODIUM BICARBONATE, CORN STARCH, MONOCALCIUM PHOSPHATE), NATURAL CARAMEL FLAVOR, SALT." Date available: 07/14/2017 Date last updated by company: 07/14/2017
