Source: USDA Branded Food Products Database Release December 2017 Software v.3.8.6.4 2017-10-02
Report Run at: December 18, 2017 13:40 EST
"Nutrient data for: 45156079, TEISSEIRE, GOURMET DROPS BEVERAGE ENHANCER, CARAMEL, UPC: 50413232"
Food Group:  Branded Food Products Database
Common Name:

Nutrient,Unit,Data points,Std. Error,"0.5 TSP). | (ABOUT = 1.6g",1Value per 100 g,
Proximates
"Energy",kcal,--,--,0,0
"Protein",g,--,--,0.00,0.00
"Total lipid (fat)",g,--,--,0.00,0.00
"Carbohydrate, by difference",g,--,--,0.00,0.00
"Sugars, total",g,--,--,0.00,0.00
Minerals
"Sodium, Na",mg,--,--,0,0
Vitamins
Lipids
Amino Acids
Other
Ingredients
"WATER, NATURAL FLAVORS, CONTAINS 2% OR LESS OF: ACESULFAME K, SUCRALOSE, CARAMEL (COLOR), CITRIC ACID, POTASSIUM SORBATE (PRESERVATIVE)." Date available: 08/12/2017 Date last updated by company: 08/12/2017
