Source: USDA Branded Food Products Database Release December 2017 Software v.3.8.6.4 2017-10-02
Report Run at: December 18, 2017 13:43 EST
"Nutrient data for: 45311446, TEMP TEE, WHIPPED CREAM CHEESE, UPC: 021000300280"
Food Group:  Branded Food Products Database
Common Name:

Nutrient,Unit,Data points,Std. Error,"2.0 Tbsp = 23.0g",1Value per 100 g,
Proximates
"Energy",kcal,--,--,80,348
"Protein",g,--,--,1.00,4.35
"Total lipid (fat)",g,--,--,8.00,34.78
"Carbohydrate, by difference",g,--,--,1.00,4.35
"Fiber, total dietary",g,--,--,0.0,0.0
"Sugars, total",g,--,--,1.00,4.35
Minerals
"Calcium, Ca",mg,--,--,0,0
"Iron, Fe",mg,--,--,0.00,0.00
"Sodium, Na",mg,--,--,75,326
Vitamins
"Vitamin C, total ascorbic acid",mg,--,--,0.0,0.0
"Vitamin A, IU",IU,--,--,652,2835
Lipids
"Fatty acids, total saturated",g,--,--,5.000,21.740
"Fatty acids, total trans",g,--,--,0.000,0.000
"Cholesterol",mg,--,--,25,109
Amino Acids
Other
Ingredients
"PASTEURIZED MILK AND CREAM, SALT, CAROB BEAN GUM, CHEESE CULTURE" Date available: 07/14/2017 Date last updated by company: 07/14/2017
