Source: USDA Branded Food Products Database Release December 2017 Software v.3.8.6.4 2017-10-02
Report Run at: December 18, 2017 13:42 EST
"Nutrient data for: 45137822, TEMPLE TURMERIC, MINERAL GREENS TURMERIC BEVERAGE, UPC: 794504730050"
Food Group:  Branded Food Products Database
Common Name:

Nutrient,Unit,Data points,Std. Error,"1 BOTTLE = 355.0g",1Value per 100 g,
Proximates
"Energy",kcal,--,--,46,13
"Protein",g,--,--,0.99,0.28
"Total lipid (fat)",g,--,--,0.00,0.00
"Carbohydrate, by difference",g,--,--,11.01,3.10
"Fiber, total dietary",g,--,--,0.0,0.0
"Sugars, total",g,--,--,9.02,2.54
Minerals
"Calcium, Ca",mg,--,--,39,11
"Iron, Fe",mg,--,--,0.75,0.21
"Potassium, K",mg,--,--,259,73
"Sodium, Na",mg,--,--,231,65
Vitamins
"Vitamin C, total ascorbic acid",mg,--,--,2.5,0.7
"Vitamin A, IU",IU,--,--,405,114
Lipids
"Fatty acids, total saturated",g,--,--,0.000,0.000
"Fatty acids, total trans",g,--,--,0.000,0.000
"Cholesterol",mg,--,--,0,0
Amino Acids
Other
Ingredients
"ULTRA-PURIFIED WATER, ORGANIC COCONUT NECTAR, ORGANIC TURMERIC (HAWAIIAN OANA TURMERIC), ORGANIC GINGER, ORGANIC LEMON JUICE, SEA SALT, ORGANIC SPIRULINA, ORGANIC CHLORELLA, ORGANIC BARLEY GRASS, ORGANIC SPEARMINT, ORGANIC CINNAMON, ORGANIC CARDAMOM, ORGANIC CAYENNE" Date available: 07/14/2017 Date last updated by company: 07/14/2017
