Source: USDA Branded Food Products Database Release December 2017 Software v.3.8.6.4 2017-10-02
Report Run at: December 18, 2017 13:46 EST
"Nutrient data for: 45228951, TENDER RUBY REDS SALAD, UPC: 071279275024"
Food Group:  Branded Food Products Database
Common Name:

Nutrient,Unit,Data points,Std. Error,"3.0 cup = 85.0g",1Value per 100 g,
Proximates
"Energy",kcal,--,--,15,18
"Protein",g,--,--,2.00,2.35
"Total lipid (fat)",g,--,--,0.00,0.00
"Carbohydrate, by difference",g,--,--,2.00,2.35
"Fiber, total dietary",g,--,--,1.0,1.2
"Sugars, total",g,--,--,0.00,0.00
Minerals
"Calcium, Ca",mg,--,--,60,71
"Iron, Fe",mg,--,--,1.44,1.69
"Sodium, Na",mg,--,--,35,41
Vitamins
"Vitamin C, total ascorbic acid",mg,--,--,12.0,14.1
"Vitamin A, IU",IU,--,--,3000,3529
Lipids
"Fatty acids, total saturated",g,--,--,0.000,0.000
"Fatty acids, total trans",g,--,--,0.000,0.000
"Cholesterol",mg,--,--,0,0
Amino Acids
Other
Ingredients
"RED BUTTER LETTUCE, SPINACH." Date available: 07/14/2017 Date last updated by company: 07/14/2017
