Source: USDA Branded Food Products Database Release December 2017 Software v.3.8.6.4 2017-10-02
Report Run at: December 18, 2017 13:53 EST
"Nutrient data for: 45238240, TERIYAKI SAUCE, MARINADE & SAUCE, UPC: 035826068323"
Food Group:  Branded Food Products Database
Common Name:

Nutrient,Unit,Data points,Std. Error,"1 Tbsp = 15.0g",1Value per 100 g,
Proximates
"Energy",kcal,--,--,30,200
"Protein",g,--,--,0.00,0.00
"Total lipid (fat)",g,--,--,0.00,0.00
"Carbohydrate, by difference",g,--,--,7.00,46.67
"Fiber, total dietary",g,--,--,0.0,0.0
"Sugars, total",g,--,--,5.00,33.33
Minerals
"Calcium, Ca",mg,--,--,0,0
"Iron, Fe",mg,--,--,0.00,0.00
"Sodium, Na",mg,--,--,620,4133
Vitamins
"Vitamin C, total ascorbic acid",mg,--,--,4.0,26.7
"Vitamin A, IU",IU,--,--,0,0
Lipids
"Fatty acids, total saturated",g,--,--,0.000,0.000
"Fatty acids, total trans",g,--,--,0.000,0.000
"Cholesterol",mg,--,--,0,0
Amino Acids
Other
Ingredients
"WATER, SUGAR, CORN SYRUP, SALT, PINEAPPLE JUICE CONCENTRATE, SHERRY COOKING WINE, HYDROLYZED CORN AND SOY PROTEIN, CONTAINS 2% OR LESS OF RED WINE VINEGAR, GARLIC POWDER, SPICE, FOOD STARCH-MODIFIED, CARAMEL COLOR, LACTIC ACID, POTASSIUM SORBATE AND SODIUM BENZOATE AS PRESERVATIVES." Date available: 07/14/2017 Date last updated by company: 07/14/2017
