Source: USDA Branded Food Products Database Release December 2017 Software v.3.8.6.4 2017-10-02
Report Run at: December 18, 2017 13:52 EST
"Nutrient data for: 45064979, TERIYAKI MARINADE SEASONING MIX, UPC: 074880070095"
Food Group:  Branded Food Products Database
Common Name:

Nutrient,Unit,Data points,Std. Error,"2.0 tsp = 4.5g",1Value per 100 g,
Proximates
"Energy",kcal,--,--,10,222
"Protein",g,--,--,0.00,0.00
"Total lipid (fat)",g,--,--,0.00,0.00
"Carbohydrate, by difference",g,--,--,3.00,66.67
"Fiber, total dietary",g,--,--,0.0,0.0
"Sugars, total",g,--,--,2.00,44.44
Minerals
"Calcium, Ca",mg,--,--,0,0
"Iron, Fe",mg,--,--,0.00,0.00
"Sodium, Na",mg,--,--,540,12000
Vitamins
"Vitamin C, total ascorbic acid",mg,--,--,0.0,0.0
"Vitamin A, IU",IU,--,--,0,0
Lipids
"Fatty acids, total saturated",g,--,--,0.000,0.000
"Fatty acids, total trans",g,--,--,0.000,0.000
"Cholesterol",mg,--,--,0,0
Amino Acids
Other
Ingredients
"SUGAR, SALT, SOY SAUCE SOLIDS [(SOYBEANS, WHEAT AND SALT), DEXTRIN], BROWN SUGAR, DEHYDRATED GARLIC, SPICE, CARAMEL COLOR, PARTIALLY HYDROGENATED COTTONSEED/SOYBEAN OIL, XANTHAN GUM, CITRIC ACID. NOT MORE THAN 2% SILICON DIOXIDE ADDED TO PREVENT CAKING." Date available: 07/14/2017 Date last updated by company: 07/14/2017
