Source: USDA Branded Food Products Database Release December 2017 Software v.3.8.6.4 2017-10-02
Report Run at: December 18, 2017 13:53 EST
"Nutrient data for: 45220024, TERIYAKI MEATLESS CHICKEN, UPC: 085239200049"
Food Group:  Branded Food Products Database
Common Name:

Nutrient,Unit,Data points,Std. Error,"0.75 cup = 85.0g",1Value per 100 g,
Proximates
"Energy",kcal,--,--,130,153
"Protein",g,--,--,15.00,17.65
"Total lipid (fat)",g,--,--,3.00,3.53
"Carbohydrate, by difference",g,--,--,11.00,12.94
"Fiber, total dietary",g,--,--,3.0,3.5
"Sugars, total",g,--,--,6.00,7.06
Minerals
"Calcium, Ca",mg,--,--,40,47
"Iron, Fe",mg,--,--,0.00,0.00
"Potassium, K",mg,--,--,230,271
"Sodium, Na",mg,--,--,360,424
Vitamins
"Vitamin C, total ascorbic acid",mg,--,--,0.8,0.9
"Vitamin A, IU",IU,--,--,0,0
Lipids
"Fatty acids, total saturated",g,--,--,0.000,0.000
"Fatty acids, total trans",g,--,--,0.000,0.000
"Cholesterol",mg,--,--,0,0
Amino Acids
Other
Ingredients
"STRIPS: FILTERED WATER, SOY PROTEIN ISOLATE & CONCENTRATE, ORGANIC OKARA (ORGANIC SOY), SUNFLOWER OIL, YEAST EXTRACT, TAPIOCA STARCH, SEA SALT, SPICES, SAUCE: FILTERED WATER, ORGANIC TAMARI SAUCE (WATER, ORGANIC SOYBEANS, SALT, VINEGAR, ORGANIC CANE SYRUP, RICE VINEGAR, SPICES, ORGANIC BLACKSTRAP MOLASSES, TAPIOCA STARCH, LIME JUICE CONCENTRATE, GARLIC, DEHYDRATED ONION, ACETIC ACID, ASCORBIC ACID (VITAMIN C), XANTHAN GUM." Date available: 09/06/2017 Date last updated by company: 09/06/2017
