Source: USDA Branded Food Products Database Release December 2017 Software v.3.8.6.4 2017-10-02
Report Run at: December 18, 2017 13:55 EST
"Nutrient data for: 45027325, TERIYAKI WRAP, UPC: 042272008124"
Food Group:  Branded Food Products Database
Common Name:

Nutrient,Unit,Data points,Std. Error,"1 WRAP = 156.0g",1Value per 100 g,
Proximates
"Energy",kcal,--,--,250,160
"Protein",g,--,--,9.00,5.77
"Total lipid (fat)",g,--,--,6.01,3.85
"Carbohydrate, by difference",g,--,--,38.00,24.36
"Fiber, total dietary",g,--,--,3.0,1.9
"Sugars, total",g,--,--,7.00,4.49
Minerals
"Calcium, Ca",mg,--,--,41,26
"Iron, Fe",mg,--,--,1.29,0.83
"Sodium, Na",mg,--,--,540,346
Vitamins
"Vitamin C, total ascorbic acid",mg,--,--,13.4,8.6
"Vitamin A, IU",IU,--,--,672,431
Lipids
"Fatty acids, total saturated",g,--,--,0.499,0.320
"Fatty acids, total trans",g,--,--,0.000,0.000
"Cholesterol",mg,--,--,0,0
Amino Acids
Other
Ingredients
"ORGANIC BROWN RICE, FILTERED WATER, ORGANIC TOFU (FILTERED WATER, ORGANIC SOYBEANS, NIGARI [MAGNESIUM CHLORIDE, A NATURAL FIRMING AGENT]), ORGANIC TAMARI (WATER, ORGANIC SOYBEANS, SALT), ORGANIC BROCCOLI, ORGANIC GARBANZO FLOUR, PINEAPPLE JUICE, ORGANIC GREEN BEANS, ORGANIC POTATO STARCH, ORGANIC TAPIOCA STARCH, ORGANIC CABBAGE, ORGANIC MUSHROOMS, ORGANIC EVAPORATED CANE SYRUP, ORGANIC CARROTS, WATER CHESTNUTS, ORGANIC SORGHUM FLOUR, EXPELLER PRESSED HIGH OLEIC SAFFLOWER AND/OR SUNFLOWER OIL, ORGANIC BELL PEPPERS, ORGANIC LEMON JUICE, ORGANIC CANE SUGAR, ORGANIC SWEET RICE FLOUR, ORGANIC GINGER, ORGANIC SESAME SEED OIL, ORGANIC CORNSTARCH, SEA SALT, ORGANIC GARLIC, SPICES, BLACK PEPPER." Date available: 07/14/2017 Date last updated by company: 07/14/2017
