Source: USDA Branded Food Products Database Release December 2017 Software v.3.8.6.4 2017-10-02
Report Run at: December 18, 2017 13:56 EST
"Nutrient data for: 45185541, TERRA DOLCE, ORGANIC WILD FOREST MUSHROOM, UPC: 700360006192"
Food Group:  Branded Food Products Database
Common Name:

Nutrient,Unit,Data points,Std. Error,"7.0 GRM = 7.0g",1Value per 100 g,
Proximates
"Energy",kcal,--,--,20,286
"Protein",g,--,--,2.00,28.57
"Total lipid (fat)",g,--,--,0.00,0.00
"Carbohydrate, by difference",g,--,--,3.00,42.86
"Fiber, total dietary",g,--,--,1.0,14.3
Minerals
"Iron, Fe",mg,--,--,7.71,110.21
"Sodium, Na",mg,--,--,0,0
Vitamins
Lipids
"Fatty acids, total saturated",g,--,--,0.000,0.000
"Fatty acids, total trans",g,--,--,0.000,0.000
Amino Acids
Other
Ingredients
"CONTENTS: ORGANIC BLACK TRUMPET, ORGANIC CHANTERELLE, ORGANIC MOREL, ORGANIC PORCINI AND/OR ORGANIC BOLETE MUSHROOMS." Date available: 10/19/2017 Date last updated by company: 10/19/2017
