Source: USDA Branded Food Products Database Release December 2017 Software v.3.8.6.4 2017-10-02
Report Run at: December 18, 2017 13:58 EST
"Nutrient data for: 45120050, TERRY'S, MILK CHOCOLATE CONFECTION, ORANGE, UPC: 070221007263"
Food Group:  Branded Food Products Database
Common Name:

Nutrient,Unit,Data points,Std. Error,"5.0 PIECES = 39.0g",1Value per 100 g,
Proximates
"Energy",kcal,--,--,200,513
"Protein",g,--,--,2.00,5.13
"Total lipid (fat)",g,--,--,11.00,28.21
"Carbohydrate, by difference",g,--,--,24.00,61.54
"Fiber, total dietary",g,--,--,1.0,2.6
"Sugars, total",g,--,--,23.00,58.97
Minerals
"Calcium, Ca",mg,--,--,60,154
"Iron, Fe",mg,--,--,2.31,5.92
"Sodium, Na",mg,--,--,60,154
Vitamins
"Vitamin C, total ascorbic acid",mg,--,--,0.0,0.0
"Vitamin A, IU",IU,--,--,0,0
Lipids
"Fatty acids, total saturated",g,--,--,7.000,17.950
"Fatty acids, total trans",g,--,--,0.000,0.000
"Cholesterol",mg,--,--,5,13
Amino Acids
Other
Ingredients
"SUGAR, CHOCOLATE, COCOA BUTTER, NONFAT MILK, WHEY, PALM AND SHEA OIL, MILKFAT, SOY LECITHIN, ORANGE OIL, POLYGLYCEROL POLYRICINOLEATE, VANILLIN-AN ARTIFICIAL FLAVOR." Date available: 06/25/2017 Date last updated by company: 06/25/2017
