Source: USDA Branded Food Products Database Release December 2017 Software v.3.8.6.4 2017-10-02
Report Run at: December 18, 2017 13:56 EST
"Nutrient data for: 45158560, TERRAFINA, NATURAL RAW BRAZIL NUTS, UPC: 847938003099"
Food Group:  Branded Food Products Database
Common Name:

Nutrient,Unit,Data points,Std. Error,"6.0 PCS = 34.0g",1Value per 100 g,
Proximates
"Energy",kcal,--,--,210,618
"Protein",g,--,--,4.00,11.76
"Total lipid (fat)",g,--,--,21.00,61.76
"Carbohydrate, by difference",g,--,--,3.00,8.82
"Fiber, total dietary",g,--,--,2.0,5.9
"Sugars, total",g,--,--,0.00,0.00
Minerals
"Calcium, Ca",mg,--,--,60,176
"Iron, Fe",mg,--,--,1.59,4.67
"Sodium, Na",mg,--,--,0,0
Vitamins
"Vitamin C, total ascorbic acid",mg,--,--,0.0,0.0
"Vitamin A, IU",IU,--,--,0,0
Lipids
"Fatty acids, total saturated",g,--,--,2.999,8.820
"Fatty acids, total trans",g,--,--,0.000,0.000
"Cholesterol",mg,--,--,0,0
Amino Acids
Other
Ingredients
"BRAZIL NUTS." Date available: 07/14/2017 Date last updated by company: 07/14/2017
