Source: USDA Branded Food Products Database Release December 2017 Software v.3.8.6.4 2017-10-02
Report Run at: December 18, 2017 14:00 EST
"Nutrient data for: 45040919, TETA FOODS, SHAWARMA MEDITERRANEAN MARINADE & COOKING SAUCE, UPC: 856152002023"
Food Group:  Branded Food Products Database
Common Name:

Nutrient,Unit,Data points,Std. Error,"2.0 Tbsp = 28.0g",1Value per 100 g,
Proximates
"Energy",kcal,--,--,58,207
"Protein",g,--,--,0.00,0.00
"Total lipid (fat)",g,--,--,5.00,17.86
"Carbohydrate, by difference",g,--,--,3.00,10.71
"Fiber, total dietary",g,--,--,1.0,3.6
"Sugars, total",g,--,--,1.00,3.57
Minerals
"Calcium, Ca",mg,--,--,10,36
"Iron, Fe",mg,--,--,0.73,2.61
"Sodium, Na",mg,--,--,387,1382
Vitamins
"Vitamin C, total ascorbic acid",mg,--,--,1.2,4.3
"Vitamin A, IU",IU,--,--,0,0
Lipids
"Fatty acids, total saturated",g,--,--,0.501,1.790
"Fatty acids, total trans",g,--,--,0.000,0.000
"Cholesterol",mg,--,--,0,0
Amino Acids
Other
Ingredients
"LEMON JUICE (FROM CONCENTRATE), CIDER VINEGAR, EXTRA VIRGIN OLIVE OIL, CANOLA OIL (NON-GMO, EXPELLER PRESSED), GARLIC, SALT, SPICES, XANTHAN (A NATURAL GUM)." Date available: 06/24/2017 Date last updated by company: 06/24/2017
