Source: USDA Branded Food Products Database Release December 2017 Software v.3.8.6.4 2017-10-02
Report Run at: December 18, 2017 14:07 EST
"Nutrient data for: 45197344, TEX MEX TAQUERIA SAUCE, UPC: 07203671702"
Food Group:  Branded Food Products Database
Common Name:

Nutrient,Unit,Data points,Std. Error,"2.0 Tbsp = 32.0g",1Value per 100 g,
Proximates
"Energy",kcal,--,--,10,31
"Protein",g,--,--,0.00,0.00
"Total lipid (fat)",g,--,--,0.00,0.00
"Carbohydrate, by difference",g,--,--,2.00,6.25
"Sugars, total",g,--,--,1.00,3.12
Minerals
"Calcium, Ca",mg,--,--,20,62
"Iron, Fe",mg,--,--,0.00,0.00
"Sodium, Na",mg,--,--,160,500
Vitamins
"Vitamin C, total ascorbic acid",mg,--,--,6.1,19.0
"Vitamin A, IU",IU,--,--,169,528
Lipids
Amino Acids
Other
Ingredients
"TOMATO, ROASTED TOMATO, TOMATO JUICE, JALAPENO PEPPER, WATER, ONION, SALT, VINEGAR, DEHYDRATED GARLIC, CHIPOTLE PEPPERS IN ADOBO SAUCE (CHIPOTLE PEPPERS, WATER, TOMATO PASTE, SALT, SUGAR, ONION, VINEGAR), TOMATO PASTE, CRUSHED RED PEPPER FLAKES, SUGAR, DEHYDRATED CILANTRO, CITRIC ACID, CALCIUM CHLORIDE." Date available: 07/14/2017 Date last updated by company: 07/14/2017
