Source: USDA Branded Food Products Database Release December 2017 Software v.3.8.6.4 2017-10-02
Report Run at: December 18, 2017 14:05 EST
"Nutrient data for: 45209003, TEXAS TOAST, UPC: 092825104759"
Food Group:  Branded Food Products Database
Common Name:

Nutrient,Unit,Data points,Std. Error,"1 SLICE = 40.0g",1Value per 100 g,
Proximates
"Energy",kcal,--,--,140,350
"Protein",g,--,--,3.00,7.50
"Total lipid (fat)",g,--,--,8.00,20.00
"Carbohydrate, by difference",g,--,--,15.00,37.50
"Fiber, total dietary",g,--,--,1.0,2.5
"Sugars, total",g,--,--,1.00,2.50
Minerals
"Calcium, Ca",mg,--,--,0,0
"Iron, Fe",mg,--,--,1.35,3.38
"Sodium, Na",mg,--,--,190,475
Vitamins
"Vitamin C, total ascorbic acid",mg,--,--,0.0,0.0
"Vitamin A, IU",IU,--,--,375,938
Lipids
"Fatty acids, total saturated",g,--,--,2.000,5.000
"Fatty acids, total monounsaturated",g,--,--,2.000,5.000
"Fatty acids, total polyunsaturated",g,--,--,4.000,10.000
"Fatty acids, total trans",g,--,--,0.000,0.000
"Cholesterol",mg,--,--,0,0
Amino Acids
Other
Ingredients
"BREAD: ENRICHED FLOUR (BLEACHED WHEAT FLOUR, NIACIN, REDUCED IRON, THIAMINE MONONITRATE, RIBOFLAVIN, FOLIC ACID), WATER, CONTAINS 2% OR LESS OF: PALM OIL, SALT, SUGAR, YEAST, SOY FLOUR, WHEAT GLUTEN, MALTED BARELY FLOUR, DEXTROSE, ENZYMES, ASCORBIC ACID, CORN MEAL, SPREAD: VEGETABLE OIL BLEND (SOYBEAN, PALM AND/OR EXTRA VIRGIN OLIVE AND/OR CANOLA), WATER, GARLIC, CONTAINS 2% OR LESS OF: ONION POWDER, SALT, SWEET CREAM, BUTTERMILK, NATURAL FLAVOR, MONO AND DIGLYCERIDES, SPICE, SOY LECITHIN, SODIUM BENZOATE (TO PROTECT QUALITY), CITRIC ACID, LACTIC ACID, VITAMIN A PALMITATE, BETA CAROTENE (FOR COLOR)." Date available: 09/07/2017 Date last updated by company: 09/07/2017
