Source: USDA Branded Food Products Database Release December 2017 Software v.3.8.6.4 2017-10-02
Report Run at: December 18, 2017 14:05 EST
"Nutrient data for: 45053254, TEXAS TOAST, UPC: 041497000579"
Food Group:  Branded Food Products Database
Common Name:

Nutrient,Unit,Data points,Std. Error,"1 SLICE = 36.0g",1Value per 100 g,
Proximates
"Energy",kcal,--,--,90,250
"Protein",g,--,--,3.00,8.33
"Total lipid (fat)",g,--,--,1.00,2.78
"Carbohydrate, by difference",g,--,--,18.00,50.00
"Fiber, total dietary",g,--,--,1.0,2.8
"Sugars, total",g,--,--,2.00,5.56
Minerals
"Calcium, Ca",mg,--,--,40,111
"Iron, Fe",mg,--,--,1.50,4.17
"Sodium, Na",mg,--,--,170,472
Vitamins
"Vitamin C, total ascorbic acid",mg,--,--,0.0,0.0
"Thiamin",mg,--,--,0.360,1.000
"Riboflavin",mg,--,--,0.102,0.283
"Niacin",mg,--,--,1.666,4.628
"Vitamin A, IU",IU,--,--,0,0
Lipids
"Fatty acids, total saturated",g,--,--,0.000,0.000
"Fatty acids, total monounsaturated",g,--,--,0.000,0.000
"Fatty acids, total polyunsaturated",g,--,--,0.000,0.000
"Fatty acids, total trans",g,--,--,0.000,0.000
"Cholesterol",mg,--,--,0,0
Amino Acids
Other
Ingredients
"ENRICHED WHEAT FLOUR [FLAVOR, MALTED BERLEY FLOUR, REDUCED IRON, THIAMIN MONONITRATE (VITAMIN B1), RIBOFLAVIN (VITAMIN B2), FOLIC ACID], WATER, HIGH FRUCTOSE CORN SYRUP, YEAST, SALT, SOYBEAN OIL, MONO- AND DIGLYCERIDES, CALCIUM PROPIONATE (PRESERVATIVE), CALCIUM SULFATE, DATEM, SOY LECTHIN, CITRIC ACID, GRAIN VINEGAR, WHEAT GLUTEN POTASSIUM IODATE, SOY FLOUR." Date available: 06/25/2017 Date last updated by company: 06/25/2017
