Source: USDA Branded Food Products Database Release December 2017 Software v.3.8.6.4 2017-10-02
Report Run at: December 18, 2017 14:02 EST
"Nutrient data for: 45188973, TEXAS RAISED SHRIMP, UPC: 876144002374"
Food Group:  Branded Food Products Database
Common Name:

Nutrient,Unit,Data points,Std. Error,"4.0 ONZ = 113.0g",1Value per 100 g,
Proximates
"Energy",kcal,--,--,120,106
"Protein",g,--,--,23.00,20.35
"Total lipid (fat)",g,--,--,2.00,1.77
"Carbohydrate, by difference",g,--,--,0.99,0.88
"Fiber, total dietary",g,--,--,0.0,0.0
"Sugars, total",g,--,--,0.00,0.00
Minerals
"Calcium, Ca",mg,--,--,60,53
"Iron, Fe",mg,--,--,1.36,1.20
"Sodium, Na",mg,--,--,170,150
Vitamins
"Vitamin C, total ascorbic acid",mg,--,--,0.0,0.0
"Vitamin A, IU",IU,--,--,0,0
Lipids
"Fatty acids, total saturated",g,--,--,0.000,0.000
"Cholesterol",mg,--,--,170,150
Amino Acids
Other
Ingredients
"SHRIMP, SODIUM METABISULFITE." Date available: 07/14/2017 Date last updated by company: 07/14/2017
