Source: USDA Branded Food Products Database Release December 2017 Software v.3.8.6.4 2017-10-02
Report Run at: December 18, 2017 14:01 EST
"Nutrient data for: 45017372, TEXAS BEST ORGANIC, LONG GRAIN WHITE RICE, UPC: 855772001003"
Food Group:  Branded Food Products Database
Common Name:

Nutrient,Unit,Data points,Std. Error,"0.25 cup = 48.0g",1Value per 100 g,
Proximates
"Energy",kcal,--,--,170,354
"Protein",g,--,--,3.00,6.25
"Total lipid (fat)",g,--,--,0.65,1.35
"Carbohydrate, by difference",g,--,--,33.00,68.75
Minerals
"Sodium, Na",mg,--,--,0,0
Vitamins
Lipids
Amino Acids
Other
Ingredients
"100% ORGANIC LONG GRAIN WHITE RICE." Date available: 06/25/2017 Date last updated by company: 06/25/2017
