Source: USDA Branded Food Products Database Release December 2017 Software v.3.8.6.4 2017-10-02
Report Run at: December 18, 2017 14:17 EST
"Nutrient data for: 45274639, THAI-STYLE SALAD WITH CHICKEN, UPC: 085239023228"
Food Group:  Branded Food Products Database
Common Name:

Nutrient,Unit,Data points,Std. Error,"1 CONTAINER = 335.0g",1Value per 100 g,
Proximates
"Energy",kcal,--,--,368,110
"Protein",g,--,--,21.00,6.27
"Total lipid (fat)",g,--,--,17.99,5.37
"Carbohydrate, by difference",g,--,--,31.99,9.55
"Fiber, total dietary",g,--,--,6.0,1.8
"Sugars, total",g,--,--,14.00,4.18
Minerals
"Calcium, Ca",mg,--,--,100,30
"Iron, Fe",mg,--,--,1.88,0.56
"Sodium, Na",mg,--,--,951,284
Vitamins
"Vitamin C, total ascorbic acid",mg,--,--,25.1,7.5
"Vitamin A, IU",IU,--,--,2925,873
Lipids
"Fatty acids, total saturated",g,--,--,3.015,0.900
"Fatty acids, total trans",g,--,--,0.000,0.000
"Cholesterol",mg,--,--,34,10
Amino Acids
Other
Ingredients
"ROMAINE LETTUCE, CHICKEN BREAST MEAT (CHICKEN BREAST WITH RIB MEAT, WATER, CULTURED SUGAR AND VINEGAR, POTATO STARCH, SEA SALT, NATURAL FLAVORINGS), THAI STYLE DRESSING (WATER, SUGAR, SUNFLOWER SEED BUTTER [SUNFLOWER SEEDS, SUGAR, SALT, MONO-DIGLYCERIDES, MIXED TOCOPHEROLS], RICE VINEGAR, SOY SAUCE [WATER, WHEAT, SOYBEANS, SALT, LACTIC ACID], DISTILLED VINEGAR, SESAME OIL, MODIFIED CORN STARCH, SALT, CANOLA OIL, SPICE, XANTHAN GUM, DRIED RED PEPPER, NATURAL FLAVOR, DRIED GINGER), CUCUMBER, GREEN CABBAGE, NAPA CABBAGE, CARROT, RED BELL PEPPER, WONTON STRIPS (ENRICHED FLOUR [WHEAT FLOUR, ENZYME, NIACIN, REDUCED IRON, THIAMIN MONONITRATE, RIBOFLAVIN, FOLIC ACID], VEGETABLE OIL [SOYBEAN AND/OR COTTONSEED OIL], WATER, CORN STARCH, SALT, SODIUM BENZOATE [PRESERVATIVE]), PEANUTS, CELERY, RED CABBAGE, GREEN ONION." Date available: 07/14/2017 Date last updated by company: 07/14/2017
