Source: USDA Branded Food Products Database Release December 2017 Software v.3.8.6.4 2017-10-02
Report Run at: December 18, 2017 14:11 EST
"Nutrient data for: 45054555, THAI CHICKEN SOUP WITH RED CURRY, UPC: 667978027288"
Food Group:  Branded Food Products Database
Common Name:

Nutrient,Unit,Data points,Std. Error,"1 cup = 250.0g",1Value per 100 g,
Proximates
"Energy",kcal,--,--,200,80
"Protein",g,--,--,11.00,4.40
"Total lipid (fat)",g,--,--,7.00,2.80
"Carbohydrate, by difference",g,--,--,23.00,9.20
"Fiber, total dietary",g,--,--,2.0,0.8
"Sugars, total",g,--,--,3.00,1.20
Minerals
"Calcium, Ca",mg,--,--,20,8
"Iron, Fe",mg,--,--,1.77,0.71
"Sodium, Na",mg,--,--,820,328
Vitamins
"Vitamin C, total ascorbic acid",mg,--,--,1.2,0.5
"Vitamin A, IU",IU,--,--,735,294
Lipids
"Fatty acids, total saturated",g,--,--,4.000,1.600
"Fatty acids, total trans",g,--,--,0.000,0.000
"Cholesterol",mg,--,--,20,8
Amino Acids
Other
Ingredients
"INGREDIENTS: CHICKEN STOCK, CHICKEN MEAT, ONIONS, RED PEPPERS, GREEN PEPPERS, WATER, BROWN RICE, COCONUT MILK (COCONUT MILK WATER), BAMBOO SHOOTS (BAMBOO SHOOTS, WATER), RICE FLOUR, LEMON GRASS, RICE STARCH, GINGER, SEA SALT, GARLIC, CHICKEN FAT, RED CURRY PASTE (RED CHILI, SALT, LEMONGRASS, ONION, GARLIC, GALANGAL, DEXTROSE, KAFFIR LIME PEEL, CUMIN POWDER, PAPRIKA OLEORESIN, CORIANDER), SCALLIONS, SPICES, GARLIC CHILI PEPPER SAUCE (RED CHILI, WATER, SUGAR, GARLIC, VINEGAR, SALT), SESAME OIL, PAPRIKA, SUGAR LIME OIL" Date available: 06/25/2017 Date last updated by company: 06/25/2017
