Source: USDA Branded Food Products Database Release December 2017 Software v.3.8.6.4 2017-10-02
Report Run at: December 18, 2017 14:14 EST
"Nutrient data for: 45020247, THAI PAVILION, SINGLE SERVE PAD THAI, INSTANT RICE NOODLES & SAUCE, UPC: 734492823006"
Food Group:  Branded Food Products Database
Common Name:

Nutrient,Unit,Data points,Std. Error,"1 PACKAGE = 79.0g",1Value per 100 g,
Proximates
"Energy",kcal,--,--,300,380
"Protein",g,--,--,5.00,6.33
"Total lipid (fat)",g,--,--,5.00,6.33
"Carbohydrate, by difference",g,--,--,57.00,72.15
"Fiber, total dietary",g,--,--,0.0,0.0
"Sugars, total",g,--,--,10.00,12.66
Minerals
"Calcium, Ca",mg,--,--,0,0
"Iron, Fe",mg,--,--,0.00,0.00
"Sodium, Na",mg,--,--,810,1025
Vitamins
"Vitamin C, total ascorbic acid",mg,--,--,0.8,1.0
"Vitamin A, IU",IU,--,--,0,0
Lipids
"Fatty acids, total saturated",g,--,--,0.498,0.630
"Fatty acids, total trans",g,--,--,0.000,0.000
"Cholesterol",mg,--,--,0,0
Amino Acids
Other
Ingredients
"RICE NOODLE PACKET: RICE NOODLES (RICE FLOUR) SEASONING PACKET: SUGAR, PEANUTS, SPICE MIX (ONIONS, PEPPER, GARLIC, TAMARIND, CHILI, CINNAMON, STAR ANISE, CLOVE, CARDAMOM, NUTMEG), HYDROLYZED SOY PROTEIN, PURIFIED ROCK SALT, DEHYDRATED SHALLOTS AND DEHYDRATED SPRING ONIONS, AND PAPRIKA OLEORESIN. OIL PACKET: SHALLOT OIL (SOYBEAN OIL, SHALLOTS)." Date available: 07/14/2017 Date last updated by company: 07/14/2017
