Source: USDA Branded Food Products Database Release December 2017 Software v.3.8.6.4 2017-10-02
Report Run at: December 18, 2017 14:15 EST
"Nutrient data for: 45033863, THAI SMILE, SPRING ONION RICE NOODLE, UPC: 8850578954029"
Food Group:  Branded Food Products Database
Common Name:

Nutrient,Unit,Data points,Std. Error,"0.5 PACKAGE (MAKES 1 CUP PREPARED) = 35.5g",1Value per 100 g,
Proximates
"Energy",kcal,--,--,130,366
"Protein",g,--,--,2.00,5.63
"Total lipid (fat)",g,--,--,2.00,5.63
"Carbohydrate, by difference",g,--,--,26.00,73.24
"Fiber, total dietary",g,--,--,0.0,0.0
"Sugars, total",g,--,--,3.00,8.45
Minerals
"Calcium, Ca",mg,--,--,0,0
"Iron, Fe",mg,--,--,0.51,1.43
"Sodium, Na",mg,--,--,630,1775
Vitamins
"Vitamin C, total ascorbic acid",mg,--,--,3.4,9.5
"Vitamin A, IU",IU,--,--,0,0
Lipids
"Fatty acids, total saturated",g,--,--,1.001,2.820
"Fatty acids, total trans",g,--,--,0.000,0.000
"Cholesterol",mg,--,--,0,0
Amino Acids
Other
Ingredients
"RICE NOODLES (RICE, WATER), SEASONING MIX (SUGAR, SALT, GARLIC POWDER, ONION POWDER, AUTOLYZED YEAST EXTRACT, SPRING ONION POWDER, DRIED GARLIC FLAKES, CITRIC ACID [TAPIOCA], ONION OIL), DRIED VEGETABLE PACKET (DRIED SPRING ONION FLAKES), OIL SACHET (RICE BRAN OIL, SHALLOT, PAPRIKA EXTRACT [FOR COLOR])." Date available: 08/11/2017 Date last updated by company: 08/11/2017
