Source: USDA Branded Food Products Database Release December 2017 Software v.3.8.6.4 2017-10-02
Report Run at: December 18, 2017 14:14 EST
"Nutrient data for: 45179118, THAI MEAL KIT, UPC: 856660005066"
Food Group:  Branded Food Products Database
Common Name:

Nutrient,Unit,Data points,Std. Error,"0.25 PACKAGE = 89.0g",1Value per 100 g,
Proximates
"Energy",kcal,--,--,240,270
"Protein",g,--,--,7.00,7.87
"Total lipid (fat)",g,--,--,19.00,21.35
"Carbohydrate, by difference",g,--,--,10.00,11.24
"Fiber, total dietary",g,--,--,3.0,3.4
"Sugars, total",g,--,--,6.00,6.74
Minerals
"Calcium, Ca",mg,--,--,52,58
"Iron, Fe",mg,--,--,1.80,2.02
"Potassium, K",mg,--,--,188,211
"Sodium, Na",mg,--,--,633,711
Vitamins
"Vitamin D",IU,--,--,0,0
Lipids
"Fatty acids, total saturated",g,--,--,8.001,8.990
"Fatty acids, total trans",g,--,--,0.000,0.000
"Cholesterol",mg,--,--,0,0
Amino Acids
Other
Ingredients
"COCONUT MILK: COCONUT MILK, WATER, GUAR GUM. MASSAMAN CURRY PASTE: FISH SAUCE (ANCHOVY FISH, SALT, SUGAR), SUGAR, SHALLOTS, GARLIC, WATER, OIL (SOY), GALANGAL, CORIANDER SEEDS, LEMONGRASS, CARDAMOM, CINNAMON, CUMIN SEEDS, NUTMEG, SALT, RED CHILI PEPPER. ROASTED PEANUTS. DRIED HERBS & CHILIES: BASIL, DRIED WHOLE RED CHILI PEPPER, KAFFIR LIME LEAVES." Date available: 07/14/2017 Date last updated by company: 07/14/2017
