Source: USDA Branded Food Products Database Release December 2017 Software v.3.8.6.4 2017-10-02
Report Run at: December 18, 2017 14:21 EST
"Nutrient data for: 45176411, THAT'S SMART!, WHITE ENRICHED BREAD, UPC: 075450172966"
Food Group:  Branded Food Products Database
Common Name:

Nutrient,Unit,Data points,Std. Error,"2.0 SLICES = 45.0g",1Value per 100 g,
Proximates
"Energy",kcal,--,--,120,267
"Protein",g,--,--,3.00,6.67
"Total lipid (fat)",g,--,--,1.00,2.22
"Carbohydrate, by difference",g,--,--,23.00,51.11
"Fiber, total dietary",g,--,--,1.0,2.2
"Sugars, total",g,--,--,2.00,4.44
Minerals
"Calcium, Ca",mg,--,--,40,89
"Iron, Fe",mg,--,--,1.60,3.56
"Sodium, Na",mg,--,--,210,467
Vitamins
"Vitamin C, total ascorbic acid",mg,--,--,0.0,0.0
"Thiamin",mg,--,--,0.000,0.000
"Riboflavin",mg,--,--,0.102,0.227
"Niacin",mg,--,--,1.334,2.964
"Vitamin A, IU",IU,--,--,0,0
Lipids
"Fatty acids, total saturated",g,--,--,0.000,0.000
"Fatty acids, total monounsaturated",g,--,--,0.000,0.000
"Fatty acids, total polyunsaturated",g,--,--,0.500,1.110
"Fatty acids, total trans",g,--,--,0.000,0.000
"Cholesterol",mg,--,--,0,0
Amino Acids
Other
Ingredients
"ENRICHED WHEAT FLOUR (FLOUR, MALTED BARLEY FLOUR, REDUCED IRON, NIACIN, THIAMIN MONONITRATE [VITAMIN B1], RIBOFLAVIN [VITAMIN B2], FOLIC ACID), WATER, HIGH FRUCTOSE CORN SYRUP, YEAST, SOYBEAN OIL, SALT, WHEAT GLUTEN, CALCIUM PROPIONATE (PRESERVATIVE), MONO-AND DIGLYCERIDES, DATEM, CALCIUM SULFATE, SOY LECITHIN, CITRIC ACID, POTASSIUM IODATE, MONOCALCIUM PHOSPHATE, CORNSTARCH, CALCIUM PHOSPHATE." Date available: 07/14/2017 Date last updated by company: 07/14/2017
