Source: USDA Branded Food Products Database Release December 2017 Software v.3.8.6.4 2017-10-02
Report Run at: December 18, 2017 14:44 EST
"Nutrient data for: 45145581, THE FRESH MARKET, HEART HERO BLEND, UPC: 737094218140"
Food Group:  Branded Food Products Database
Common Name:

Nutrient,Unit,Data points,Std. Error,"0.25 cup = 30.0g",1Value per 100 g,
Proximates
"Energy",kcal,--,--,150,500
"Protein",g,--,--,4.00,13.33
"Total lipid (fat)",g,--,--,10.00,33.33
"Carbohydrate, by difference",g,--,--,13.00,43.33
"Fiber, total dietary",g,--,--,2.0,6.7
"Sugars, total",g,--,--,7.00,23.33
Minerals
"Calcium, Ca",mg,--,--,0,0
"Iron, Fe",mg,--,--,1.20,4.00
"Sodium, Na",mg,--,--,0,0
Vitamins
"Vitamin C, total ascorbic acid",mg,--,--,0.0,0.0
"Vitamin A, IU",IU,--,--,0,0
Lipids
"Fatty acids, total saturated",g,--,--,0.999,3.330
"Fatty acids, total trans",g,--,--,0.000,0.000
"Cholesterol",mg,--,--,0,0
Amino Acids
Other
Ingredients
"DRIED CRANBERRIES (CRANBERRIES, SUGAR, SUNFLOWER OIL), ROASTED, NO SALT CASHEWS (CASHEWS, CANOLA OIL), ROASTED, NO SALT PUMPKIN SEEDS (PUMPKIN SEEDS, CANOLA OIL), WALNUTS, ALMONDS, DRIED BLUEBERRIES (BLUEBERRIES SUGAR, SUNFLOWER OIL)." Date available: 07/14/2017 Date last updated by company: 07/14/2017
