Source: USDA Branded Food Products Database Release December 2017 Software v.3.8.6.4 2017-10-02
Report Run at: December 18, 2017 15:06 EST
"Nutrient data for: 45208412, THE ORIGINAL MARSHMALLOW SANDWICH, UPC: 072108010281"
Food Group:  Branded Food Products Database
Common Name:

Nutrient,Unit,Data points,Std. Error,"1 WRAP = 78.0g",1Value per 100 g,
Proximates
"Energy",kcal,--,--,300,385
"Protein",g,--,--,4.00,5.13
"Total lipid (fat)",g,--,--,7.00,8.97
"Carbohydrate, by difference",g,--,--,47.00,60.26
"Fiber, total dietary",g,--,--,1.0,1.3
"Sugars, total",g,--,--,20.00,25.64
Minerals
"Calcium, Ca",mg,--,--,0,0
"Iron, Fe",mg,--,--,2.31,2.96
"Sodium, Na",mg,--,--,230,295
Vitamins
"Vitamin C, total ascorbic acid",mg,--,--,0.0,0.0
"Vitamin A, IU",IU,--,--,0,0
Lipids
"Fatty acids, total saturated",g,--,--,4.001,5.130
"Fatty acids, total trans",g,--,--,0.000,0.000
"Cholesterol",mg,--,--,0,0
Amino Acids
Other
Ingredients
"ENRICHED WHEAT FLOUR (NIACIN, REDUCED IRON, THIAMINE MONONITRATE, RIBOFLAVIN, FOLIC ACID), HIGH FRUCTOSE CORN SYRUP, CORN SYRUP, SUGAR, PALM AND PALM KERNEL OIL, SOYBEAN OIL, DEFATTED SOY FLOUR, GELATIN, SALT, BAKING SODA, NATURAL AND ARTIFICIAL FLAVORS, SOY LECITHIN, COCOA, SODIUM ACID PYROPHOSPHATE, FD&C YELLOW #5 LAKE, YELLOW #6 LAKE, BLUE #1 LAKE, POTASSIUM SORBATE (TO RETAIN FRESHNESS), SODIUM SULFITE." Date available: 07/14/2017 Date last updated by company: 07/14/2017
