Source: USDA Branded Food Products Database Release December 2017 Software v.3.8.6.4 2017-10-02
Report Run at: December 18, 2017 14:45 EST
"Nutrient data for: 45160972, THE FRESH MARKET, SALTY BUT SWEET DELIGHT, UPC: 737094218164"
Food Group:  Branded Food Products Database
Common Name:

Nutrient,Unit,Data points,Std. Error,"0.25 cup = 30.0g",1Value per 100 g,
Proximates
"Energy",kcal,--,--,160,533
"Protein",g,--,--,4.00,13.33
"Total lipid (fat)",g,--,--,12.00,40.00
"Carbohydrate, by difference",g,--,--,12.00,40.00
"Fiber, total dietary",g,--,--,2.0,6.7
"Sugars, total",g,--,--,6.00,20.00
Minerals
"Calcium, Ca",mg,--,--,40,133
"Iron, Fe",mg,--,--,1.80,6.00
"Sodium, Na",mg,--,--,170,567
Vitamins
"Vitamin C, total ascorbic acid",mg,--,--,0.0,0.0
"Vitamin A, IU",IU,--,--,0,0
Lipids
"Fatty acids, total saturated",g,--,--,2.499,8.330
"Fatty acids, total trans",g,--,--,0.000,0.000
"Cholesterol",mg,--,--,0,0
Amino Acids
Other
Ingredients
"HONEY ROASTED SESAME STICKS (UNBLEACHED WHEAT FLOUR [CONTAINS MALTED BARLEY FLOUR AS A NATURAL ENZYME ADDITIVE], SOYBEAN OIL, SESAME SEEDS, HONEY COATING [SUCROSE, WHEAT STARCH, HONEY], BULGUR WHEAT, TACK BLEND [MALTODEXTRIN, XANTHAN GUM], SALT, TURMERIC [COLOR], BEET POWDER (COLOR]), ALE NUTS (PEANUTS, SUGAR, SALTED BUTTER [PASTEURIZED CREAM, SALT], SALT), HONEY ROASTED ALMONDS (ALMONDS, EVAPORATED SUGAR CANE, LIGHT AMBER HONEY, PEANUT OIL, SUGAR, POTATO STARCH, SALT, XANTHAN GUM), HONEY ROASTED PEANUTS (PEANUTS, EVAPORATED SUGAR CANE, LIGHT AMBER HONEY, PEANUT OIL, SUGAR, POTATO STARCH, SALT, XANTHAN GUM), DRIED BANANAS BANANAS, SUGAR, COCONUT OIL, BANANA FLAVOR)." Date available: 09/19/2017 Date last updated by company: 09/19/2017
