Source: USDA Branded Food Products Database Release December 2017 Software v.3.8.6.4 2017-10-02
Report Run at: December 18, 2017 14:31 EST
"Nutrient data for: 45097403, THE BEST BAR EVER, BAR, APPLE PIE, UPC: 855246005025"
Food Group:  Branded Food Products Database
Common Name:

Nutrient,Unit,Data points,Std. Error,"1 BAR = 65.0g",1Value per 100 g,
Proximates
"Energy",kcal,--,--,240,369
"Protein",g,--,--,15.00,23.08
"Total lipid (fat)",g,--,--,12.00,18.46
"Carbohydrate, by difference",g,--,--,23.00,35.38
"Fiber, total dietary",g,--,--,5.0,7.7
"Sugars, total",g,--,--,12.00,18.46
Minerals
"Calcium, Ca",mg,--,--,150,231
"Iron, Fe",mg,--,--,1.38,2.13
"Sodium, Na",mg,--,--,107,165
Vitamins
"Vitamin C, total ascorbic acid",mg,--,--,0.5,0.7
"Vitamin A, IU",IU,--,--,77,118
Lipids
"Fatty acids, total saturated",g,--,--,1.001,1.540
"Fatty acids, total trans",g,--,--,0.000,0.000
"Cholesterol",mg,--,--,1,2
Amino Acids
Other
Ingredients
"ALMONDS, CASHEWS, APPLE BLEND (DRIED APPLES, APPLES, APPLE JUICE CONCENTRATE, APPLE CIDER, SPICES), PROTEIN POWDER BLEND (WHEY PROTEIN ISOLATE, CELLAR CASEIN, SUNFLOWER LECITHIN), WATER, ORGANIC EVAPORATED COCONUT PALM NECTAR, DRIED CRANBERRIES (CRANBERRIES, SUGAR, SUNFLOWER OIL), WHOLE GRAIN ROLLED OATS, BAKED RIGHT (CHICORY ROOT DIETARY FIBER, CALCIUM, VITAMIN C, NATURAL FLAVORS, GROUND CINNAMON, GROUND VANILLA BEAN), RICE CONCENTRATE, NATURAL FLAVORS, STEVIA, SALT." Date available: 09/13/2017 Date last updated by company: 09/13/2017
