Source: USDA Branded Food Products Database Release December 2017 Software v.3.8.6.4 2017-10-02
Report Run at: December 18, 2017 14:41 EST
"Nutrient data for: 45327277, THE FLAME GRILLED PORK JERKY, UPC: 054500194653"
Food Group:  Branded Food Products Database
Common Name:

Nutrient,Unit,Data points,Std. Error,"1 ONZ = 28.0g",1Value per 100 g,
Proximates
"Energy",kcal,--,--,90,321
"Protein",g,--,--,10.00,35.71
"Total lipid (fat)",g,--,--,2.50,8.93
"Carbohydrate, by difference",g,--,--,7.00,25.00
"Fiber, total dietary",g,--,--,0.0,0.0
"Sugars, total",g,--,--,7.00,25.00
Minerals
"Calcium, Ca",mg,--,--,0,0
"Iron, Fe",mg,--,--,0.64,2.29
"Sodium, Na",mg,--,--,270,964
Vitamins
"Vitamin C, total ascorbic acid",mg,--,--,0.0,0.0
"Vitamin A, IU",IU,--,--,0,0
Lipids
"Fatty acids, total saturated",g,--,--,1.000,3.570
"Fatty acids, total trans",g,--,--,0.000,0.000
"Cholesterol",mg,--,--,25,89
Amino Acids
Other
Ingredients
"PORK, WATER, SUGAR, BROWN SUGAR, CONTAINS 2% OR LESS: SOY SAUCE (WATER, SOYBEANS, SALT, SUGAR), DEHYDRATED TAMARI SOY SAUCE (SOYBEANS, SALT), NATURAL FLAVOR, SALT, SPICES, SESAME SEEDS, AUTOLYZED YEAST EXTRACT, MODIFIED FOOD STARCH, DEXTROSE, WHITE DISTILLED VINEGAR POWDER, TOASTED SESAME OIL, DEXTRIN." Date available: 10/13/2017 Date last updated by company: 10/13/2017
