Source: USDA Branded Food Products Database Release December 2017 Software v.3.8.6.4 2017-10-02
Report Run at: December 18, 2017 14:36 EST
"Nutrient data for: 45014875, THE CRAVINGS PLACE, ALL PURPOSE, PANCAKE MIX, WAFFLE MIX, UPC: 833330001177"
Food Group:  Branded Food Products Database
Common Name:

Nutrient,Unit,Data points,Std. Error,"22.0 GRM = 22.0g",1Value per 100 g,
Proximates
"Energy",kcal,--,--,70,318
"Protein",g,--,--,2.00,9.09
"Total lipid (fat)",g,--,--,0.50,2.27
"Carbohydrate, by difference",g,--,--,17.00,77.27
"Fiber, total dietary",g,--,--,1.0,4.5
"Sugars, total",g,--,--,0.00,0.00
Minerals
"Calcium, Ca",mg,--,--,0,0
"Iron, Fe",mg,--,--,0.66,2.98
"Sodium, Na",mg,--,--,90,409
Vitamins
"Vitamin C, total ascorbic acid",mg,--,--,0.0,0.0
"Vitamin A, IU",IU,--,--,182,827
Lipids
"Fatty acids, total saturated",g,--,--,0.000,0.000
"Fatty acids, total trans",g,--,--,0.000,0.000
"Cholesterol",mg,--,--,0,0
Amino Acids
Other
Ingredients
"WHOLE GRAIN BROWN RICE FLOUR, VANILLA POWDER (VANILLA BEANS, CORN-BASED DEXTROSE), NON-ALUMINIUM BAKING POWDER (SODIUM ACID PYROPHOSPHATE, BICARBONATE OF SODA, CORNSTARCH (NON GMO CORN), MONOCALCIUM PHOSPHATE), XANTHAN GUM, BAKING SODA, SEA SALT." Date available: 06/25/2017 Date last updated by company: 06/25/2017
