Source: USDA Branded Food Products Database Release December 2017 Software v.3.8.6.4 2017-10-02
Report Run at: December 18, 2017 14:33 EST
"Nutrient data for: 45170002, THE BRONX GREENMARKET, HOT SAUCE, UPC: 861342000109"
Food Group:  Branded Food Products Database
Common Name:

Nutrient,Unit,Data points,Std. Error,"1 tsp = 5.0g",1Value per 100 g,
Proximates
"Energy",kcal,--,--,0,0
"Protein",g,--,--,0.00,0.00
"Total lipid (fat)",g,--,--,0.00,0.00
"Carbohydrate, by difference",g,--,--,1.00,20.00
"Sugars, total",g,--,--,1.00,20.00
Minerals
"Sodium, Na",mg,--,--,75,1500
Vitamins
"Vitamin C, total ascorbic acid",mg,--,--,12.2,243.5
Lipids
Amino Acids
Other
Ingredients
"APPLE CIDER VINEGAR, SERRANO PEPPERS, GARLIC, ONION, SUGAR, SALT" Date available: 07/14/2017 Date last updated by company: 07/14/2017
