Source: USDA Branded Food Products Database Release December 2017 Software v.3.8.6.4 2017-10-02
Report Run at: December 18, 2017 14:45 EST
"Nutrient data for: 45166004, THE FRESH MARKET, ST PATTY'S DAY CHOCOLATE MINT PRETZELS, UPC: 737094218027"
Food Group:  Branded Food Products Database
Common Name:

Nutrient,Unit,Data points,Std. Error,"9.0 PRETZELS = 40.0g",1Value per 100 g,
Proximates
"Energy",kcal,--,--,190,475
"Protein",g,--,--,3.00,7.50
"Total lipid (fat)",g,--,--,8.00,20.00
"Carbohydrate, by difference",g,--,--,28.00,70.00
"Fiber, total dietary",g,--,--,1.0,2.5
"Sugars, total",g,--,--,14.00,35.00
Minerals
"Calcium, Ca",mg,--,--,40,100
"Iron, Fe",mg,--,--,2.25,5.62
"Sodium, Na",mg,--,--,150,375
Vitamins
"Vitamin C, total ascorbic acid",mg,--,--,0.0,0.0
"Vitamin A, IU",IU,--,--,0,0
Lipids
"Fatty acids, total saturated",g,--,--,6.000,15.000
"Fatty acids, total trans",g,--,--,0.000,0.000
"Cholesterol",mg,--,--,0,0
Amino Acids
Other
Ingredients
"CONFECTIONERY COATING (SUGAR, PALM KERNEL AND/OR PALM OIL, COCOA POWDER, WHEY POWDER, NONFAT DRY MILK, SOY LECITHIN, NATURAL VANILLA EXTRACT), PRETZELS (UNBLEACHED ENRICHED WHEAT FLOUR [FLOUR, NIACIN, REDUCED IRON, THIAMINE MONONITRATE-B1, RIBOFLAVIN-B2, FOLIC ACID], MALT, SALT, SOYBEAN AND/OR CANOLA OIL, AND YEAST), GREEN COATING (SUGAR, PARTIALLY HYDROGENATED PALM KERNEL OIL, WHOLE MILK SOLIDS, REDUCED MINERAL WHEY POWDER, NONFAT DRY MILK SOLIDS, ARTIFICIAL COLOR [YELLOW LAKE #5, BLUE LAKE #1], SOY LECITHIN [AN EMULSIFIER], SALT, AND ARTIFICIAL FLAVOR), PALM KERNEL OIL, NATURAL CREME DE MENTHE FLAVOR." Date available: 07/14/2017 Date last updated by company: 07/14/2017
