Source: USDA Branded Food Products Database Release December 2017 Software v.3.8.6.4 2017-10-02
Report Run at: December 18, 2017 15:15 EST
"Nutrient data for: 45161897, THE SMART GOURMET SNACK CO., ORIGINAL POP RINGS, MAUI ONION, UPC: 853762002610"
Food Group:  Branded Food Products Database
Common Name:

Nutrient,Unit,Data points,Std. Error,"32.0 FINGS | ABOUT = 28.0g",1Value per 100 g,
Proximates
"Energy",kcal,--,--,110,393
"Protein",g,--,--,2.00,7.14
"Total lipid (fat)",g,--,--,1.50,5.36
"Carbohydrate, by difference",g,--,--,22.00,78.57
"Fiber, total dietary",g,--,--,0.0,0.0
"Sugars, total",g,--,--,1.00,3.57
Minerals
"Calcium, Ca",mg,--,--,20,71
"Iron, Fe",mg,--,--,1.29,4.59
"Potassium, K",mg,--,--,0,0
"Sodium, Na",mg,--,--,270,964
Vitamins
"Vitamin C, total ascorbic acid",mg,--,--,0.0,0.0
"Vitamin A, IU",IU,--,--,0,0
Lipids
"Fatty acids, total saturated",g,--,--,0.000,0.000
"Fatty acids, total trans",g,--,--,0.000,0.000
"Cholesterol",mg,--,--,0,0
Amino Acids
Other
Ingredients
"CORN, POTATO, WHEAT, SEA SALT, ONION POWDER, POTASSIUM CHLORIDE, GARLIC POWDER, SEASONING (MALTODEXTRIN, DEXTROSE, SUGAR, ONION POWDER, SALT, YEAST EXTRACT, NATURAL FLAVORS, CITRIC ACID, SPICE), EXPELLER PRESSED CANOLA OR SUNFLOWER OIL." Date available: 07/14/2017 Date last updated by company: 07/14/2017
