Source: USDA Branded Food Products Database Release December 2017 Software v.3.8.6.4 2017-10-02
Report Run at: December 18, 2017 15:09 EST
"Nutrient data for: 45126454, THE ORIGINAL SLAW DRESSING, UPC: 070200310018"
Food Group:  Branded Food Products Database
Common Name:

Nutrient,Unit,Data points,Std. Error,"2.0 Tbsp = 33.0g",1Value per 100 g,
Proximates
"Energy",kcal,--,--,90,273
"Protein",g,--,--,0.00,0.00
"Total lipid (fat)",g,--,--,7.00,21.21
"Carbohydrate, by difference",g,--,--,7.00,21.21
"Fiber, total dietary",g,--,--,0.0,0.0
"Sugars, total",g,--,--,7.00,21.21
Minerals
"Calcium, Ca",mg,--,--,0,0
"Iron, Fe",mg,--,--,0.00,0.00
"Sodium, Na",mg,--,--,360,1091
Vitamins
"Vitamin C, total ascorbic acid",mg,--,--,0.0,0.0
"Vitamin A, IU",IU,--,--,0,0
Lipids
"Fatty acids, total saturated",g,--,--,1.000,3.030
"Fatty acids, total trans",g,--,--,0.000,0.000
"Cholesterol",mg,--,--,20,61
Amino Acids
Other
Ingredients
"WATER, SUGAR, SOYBEAN OIL, CORN-CIDER VINEGAR, EGG YOLK, SALT, DISTILLED VINEGAR, MODIFIED CORN STARCH, MUSTARD SEED, XANTHAN GUM, ROSEMARY EXTRACT." Date available: 07/14/2017 Date last updated by company: 07/14/2017
