Source: USDA Branded Food Products Database Release December 2017 Software v.3.8.6.4 2017-10-02
Report Run at: December 18, 2017 15:12 EST
"Nutrient data for: 45209203, THE REPUBLIC OF TEA, LONGVITY TEA, GINGER PEACH BLACK TEA, UPC: 742676234029"
Food Group:  Branded Food Products Database
Common Name:

Nutrient,Unit,Data points,Std. Error,"500.0 MLT = 500.0g",1Value per 100 g,
Proximates
"Energy",kcal,--,--,0,0
"Protein",g,--,--,0.00,0.00
"Total lipid (fat)",g,--,--,0.00,0.00
"Carbohydrate, by difference",g,--,--,0.00,0.00
Minerals
"Sodium, Na",mg,--,--,0,0
Vitamins
Lipids
Amino Acids
Other
Ingredients
"FINEST BLACK TEA LEAVES BREWED IN PURE WATER, CITRIC ACID AND NATURAL FLAVORS." Date available: 06/25/2017 Date last updated by company: 06/25/2017
