Source: USDA Branded Food Products Database Release December 2017 Software v.3.8.6.4 2017-10-02
Report Run at: December 18, 2017 14:22 EST
"Nutrient data for: 45187973, THE AUTHENTIC BELGIAN WAFFLES WITH PEARL SUAGR, UPC: 857290005211"
Food Group:  Branded Food Products Database
Common Name:

Nutrient,Unit,Data points,Std. Error,"1 WAFFLE = 60.0g",1Value per 100 g,
Proximates
"Energy",kcal,--,--,270,450
"Protein",g,--,--,5.00,8.33
"Total lipid (fat)",g,--,--,15.00,25.00
"Carbohydrate, by difference",g,--,--,32.00,53.33
"Fiber, total dietary",g,--,--,1.0,1.7
"Sugars, total",g,--,--,16.00,26.67
Minerals
"Sodium, Na",mg,--,--,230,383
Vitamins
Lipids
"Fatty acids, total saturated",g,--,--,7.998,13.330
"Fatty acids, total trans",g,--,--,0.000,0.000
"Cholesterol",mg,--,--,10,17
Amino Acids
Other
Ingredients
"WHEAT FLOUR, SUGAR (21%), VEGETABLE OILS AND FATS (PALM, RAPE), CHOCOLATE COATING (9.5%) [SUGAR, VEGETABLE FAT (COCONUT, PALMKERNEL, PALM, SUNFLOWER, SHEA, RAPESEED), FAT-REDUCED COCOA POWDER, WHEY SOLIDS (MILK), SKIMMED MILK POWDER, STABILIZER: SORBITAN TRISTEARATE, EMULSIFIER: SOY LECITHIN, NATURAL AROMA], WATER, INVERT SUGAR SYRUP, EGGS, YEAST, SOY FLOUR, EMULSIFIER: LECITHIN (SOY), NATURAL AROMA." Date available: 07/14/2017 Date last updated by company: 07/14/2017
