Source: USDA Branded Food Products Database Release December 2017 Software v.3.8.6.4 2017-10-02
Report Run at: December 18, 2017 14:47 EST
"Nutrient data for: 45138256, THE GOOD TABLE, FREEZER TO PLATE MARSALA ORECCHIETTE PASTA AND SAUCE, UPC: 016000473379"
Food Group:  Branded Food Products Database
Common Name:

Nutrient,Unit,Data points,Std. Error,"1 CUP PREPARED = 57.0g",1Value per 100 g,
Proximates
"Energy",kcal,--,--,140,246
"Protein",g,--,--,4.00,7.02
"Total lipid (fat)",g,--,--,2.00,3.51
"Carbohydrate, by difference",g,--,--,27.00,47.37
"Fiber, total dietary",g,--,--,1.0,1.8
"Sugars, total",g,--,--,4.00,7.02
Minerals
"Calcium, Ca",mg,--,--,0,0
"Iron, Fe",mg,--,--,1.08,1.89
"Sodium, Na",mg,--,--,200,351
Vitamins
Lipids
"Fatty acids, total saturated",g,--,--,0.998,1.750
"Fatty acids, total monounsaturated",g,--,--,0.502,0.880
"Fatty acids, total polyunsaturated",g,--,--,0.000,0.000
"Fatty acids, total trans",g,--,--,0.000,0.000
"Cholesterol",mg,--,--,5,9
Amino Acids
Other
Ingredients
"ENRICHED ORECCHIETTE MACARONI (SEMOLINA [WHEAT], NIACIN, FERROUS SULFATE, THIAMIN MONONITRATE, RIBOFLAVIN, FOLIC ACID), MARSALA SAUCE (WATER, MARSALA WINE [WINE, SALT, POTASSIUM SORBATE (PRESERVATIVE), SULFITING AGENTS], TOMATO PASTE, SOY SAUCE [WATER, WH" Date available: 11/09/2016 Date last updated by company: 11/09/2016
