Source: USDA Branded Food Products Database Release December 2017 Software v.3.8.6.4 2017-10-02
Report Run at: December 18, 2017 14:22 EST
"Nutrient data for: 45019230, THE ALLENS, SUNSHINE, DICED RUTABAGAS, UPC: 070522294102"
Food Group:  Branded Food Products Database
Common Name:

Nutrient,Unit,Data points,Std. Error,"0.5 cup = 120.0g",1Value per 100 g,
Proximates
"Energy",kcal,--,--,30,25
"Protein",g,--,--,0.00,0.00
"Total lipid (fat)",g,--,--,0.00,0.00
"Carbohydrate, by difference",g,--,--,6.00,5.00
"Fiber, total dietary",g,--,--,3.0,2.5
"Sugars, total",g,--,--,3.00,2.50
Minerals
"Calcium, Ca",mg,--,--,40,33
"Iron, Fe",mg,--,--,0.40,0.33
"Potassium, K",mg,--,--,120,100
"Sodium, Na",mg,--,--,170,142
Vitamins
"Vitamin C, total ascorbic acid",mg,--,--,2.6,2.2
"Vitamin A, IU",IU,--,--,0,0
Lipids
"Fatty acids, total saturated",g,--,--,0.000,0.000
"Fatty acids, total monounsaturated",g,--,--,0.000,0.000
"Fatty acids, total polyunsaturated",g,--,--,0.000,0.000
"Fatty acids, total trans",g,--,--,0.000,0.000
"Cholesterol",mg,--,--,0,0
Amino Acids
Other
Ingredients
"RUTABAGAS, WATER, SALT, CALCIUM CHLORIDE ADDED TO HELP MAINTAIN FIRMNESS." Date available: 06/25/2017 Date last updated by company: 06/25/2017
