Source: USDA Branded Food Products Database Release December 2017 Software v.3.8.6.4 2017-10-02
Report Run at: December 18, 2017 15:06 EST
"Nutrient data for: 45161923, THE ORIGINAL LONG ISLAND, ICED TEA, GREEN & HONEY TEA, UPC: 854548003456"
Food Group:  Branded Food Products Database
Common Name:

Nutrient,Unit,Data points,Std. Error,"8.0 OZA = 240.0g",1Value per 100 g,
Proximates
"Energy",kcal,--,--,79,33
"Protein",g,--,--,0.00,0.00
"Total lipid (fat)",g,--,--,0.00,0.00
"Carbohydrate, by difference",g,--,--,21.00,8.75
"Fiber, total dietary",g,--,--,0.0,0.0
"Sugars, total",g,--,--,19.99,8.33
Minerals
"Calcium, Ca",mg,--,--,0,0
"Iron, Fe",mg,--,--,0.00,0.00
"Sodium, Na",mg,--,--,0,0
Vitamins
"Vitamin C, total ascorbic acid",mg,--,--,0.0,0.0
"Vitamin A, IU",IU,--,--,0,0
Lipids
"Fatty acids, total saturated",g,--,--,0.000,0.000
"Fatty acids, total trans",g,--,--,0.000,0.000
"Cholesterol",mg,--,--,0,0
Amino Acids
Other
Ingredients
"BREWED GREEN TEA USING FILTERED WATER, CANE SUGAR, HONEY POWDER, CITRIC ACID, NATURAL FLAVOR, GINSENG ROOT EXTRACT." Date available: 07/14/2017 Date last updated by company: 07/14/2017
