Source: USDA Branded Food Products Database Release December 2017 Software v.3.8.6.4 2017-10-02
Report Run at: December 18, 2017 15:18 EST
"Nutrient data for: 45255789, THE TOASTED OAT, GRANOLA, NO. 4 CASHEW + APRICOT, UPC: 860459000132"
Food Group:  Branded Food Products Database
Common Name:

Nutrient,Unit,Data points,Std. Error,"0.25 cup = 28.0g",1Value per 100 g,
Proximates
"Energy",kcal,--,--,120,429
"Protein",g,--,--,3.00,10.71
"Total lipid (fat)",g,--,--,4.50,16.07
"Carbohydrate, by difference",g,--,--,17.00,60.71
"Fiber, total dietary",g,--,--,2.0,7.1
"Sugars, total",g,--,--,8.00,28.57
Minerals
"Calcium, Ca",mg,--,--,0,0
"Iron, Fe",mg,--,--,1.29,4.59
"Sodium, Na",mg,--,--,15,54
Vitamins
"Vitamin C, total ascorbic acid",mg,--,--,0.0,0.0
"Vitamin A, IU",IU,--,--,179,638
Lipids
"Fatty acids, total saturated",g,--,--,1.999,7.140
"Fatty acids, total trans",g,--,--,0.000,0.000
"Cholesterol",mg,--,--,5,18
Amino Acids
Other
Ingredients
"CERTIFIED GLUTEN FREE OATS, HONEY, BUTTER (CREAM), BROWN SUGAR (SUGAR, MOLASSES), CASHEWS (SALT), APRICOTS, FLAX SEED MEAL, VANILLA (WATER, ALCOHOL, SUGAR, VANILLA BEAN EXTRACTIVES), CINNAMON." Date available: 07/14/2017 Date last updated by company: 07/14/2017
