Source: USDA Branded Food Products Database Release December 2017 Software v.3.8.6.4 2017-10-02
Report Run at: December 18, 2017 14:27 EST
"Nutrient data for: 45176940, THE BAKERY, GRAIN BREAD, UPC: 078742105123"
Food Group:  Branded Food Products Database
Common Name:

Nutrient,Unit,Data points,Std. Error,"1 SLICE = 38.0g",1Value per 100 g,
Proximates
"Energy",kcal,--,--,110,289
"Protein",g,--,--,4.00,10.53
"Total lipid (fat)",g,--,--,2.50,6.58
"Carbohydrate, by difference",g,--,--,19.00,50.00
"Fiber, total dietary",g,--,--,2.0,5.3
"Sugars, total",g,--,--,3.00,7.89
Minerals
"Calcium, Ca",mg,--,--,20,53
"Iron, Fe",mg,--,--,1.90,4.99
"Sodium, Na",mg,--,--,170,447
Vitamins
"Vitamin C, total ascorbic acid",mg,--,--,0.0,0.0
"Thiamin",mg,--,--,0.380,1.000
"Riboflavin",mg,--,--,0.102,0.268
"Niacin",mg,--,--,2.106,5.542
"Vitamin A, IU",IU,--,--,0,0
Lipids
"Fatty acids, total saturated",g,--,--,0.000,0.000
"Fatty acids, total trans",g,--,--,0.000,0.000
"Cholesterol",mg,--,--,0,0
Amino Acids
Other
Ingredients
"ENRICHED UNBLEACHED FLOUR [WHEAT FLOUR, MALTED BARLEY FLOUR, REDUCED IRON, THIAMINE MONONITRATE (VITAMIN B1), RIBOFLAVIN (VITAMIN B2), NIACIN (VITAMIN B3), FOLIC ACID], WATER, WHOLE GRAIN WHEAT FLOUR, SUNFLOWER KERNELS, YELLOW CORN MEAL, HIGH FRUCTOSE CORN SYRUP, YEAST, WHEAT GLUTEN, SOYBEAN OIL, FLAX SEEDS, SPELT FLOUR, TRITICALE, OATMEAL, SALT, MONOGLYCERIDES, RYE MEAL, BARLEY FLAKES, CALCIUM PROPIONATE (A PRESERVATIVE), SODIUM STEAROYL LACTYLATE, MILLET, BUCKWHEAT FLOUR, RICE FLOUR, CARAMEL COLOR, VINEGAR, CALCIUM SULFATE, CITRIC ACID, ASCORBIC ACID, SOY LECITHIN; TOPPED WITH OAT BRAN AND SUNFLOWER KERNELS." Date available: 07/14/2017 Date last updated by company: 07/14/2017
