Source: USDA Branded Food Products Database Release December 2017 Software v.3.8.6.4 2017-10-02
Report Run at: December 18, 2017 14:58 EST
"Nutrient data for: 45101834, THE ORIGINAL AUTHENTIC JERSEY STYLE PIZZERIA SAUCE, UPC: 619159397581"
Food Group:  Branded Food Products Database
Common Name:

Nutrient,Unit,Data points,Std. Error,"0.5 cup = 118.0g",1Value per 100 g,
Proximates
"Energy",kcal,--,--,80,68
"Protein",g,--,--,1.99,1.69
"Total lipid (fat)",g,--,--,3.00,2.54
"Carbohydrate, by difference",g,--,--,12.00,10.17
"Fiber, total dietary",g,--,--,2.0,1.7
"Sugars, total",g,--,--,8.00,6.78
Minerals
"Calcium, Ca",mg,--,--,0,0
"Iron, Fe",mg,--,--,0.38,0.32
"Sodium, Na",mg,--,--,380,322
Vitamins
"Vitamin C, total ascorbic acid",mg,--,--,9.6,8.1
"Vitamin A, IU",IU,--,--,529,448
Lipids
"Fatty acids, total saturated",g,--,--,0.000,0.000
"Fatty acids, total trans",g,--,--,0.000,0.000
"Cholesterol",mg,--,--,0,0
Amino Acids
Other
Ingredients
"VINE-RIPENED FRESH GROUND TOMATOES, FRESH GARLIC, FRESH BASIL, CANOLA OIL, EXTRA-VIRGIN OLIVE OIL, SALT, SUGAR, BLACK PEPPER, PECORINO ROMANO CHEESE." Date available: 10/13/2017 Date last updated by company: 10/13/2017
