Source: USDA Branded Food Products Database Release December 2017 Software v.3.8.6.4 2017-10-02
Report Run at: December 18, 2017 14:37 EST
"Nutrient data for: 45146870, THE DECORATED COOKIE COMPANY, GOURMET DECORATED SHORTBREAD COOKIE, UPC: 817169012580"
Food Group:  Branded Food Products Database
Common Name:

Nutrient,Unit,Data points,Std. Error,"0.5 COOKIE = 43.0g",1Value per 100 g,
Proximates
"Energy",kcal,--,--,160,372
"Protein",g,--,--,2.00,4.65
"Total lipid (fat)",g,--,--,6.00,13.95
"Carbohydrate, by difference",g,--,--,25.00,58.14
"Fiber, total dietary",g,--,--,0.0,0.0
"Sugars, total",g,--,--,13.00,30.23
Minerals
"Calcium, Ca",mg,--,--,40,93
"Iron, Fe",mg,--,--,0.42,0.98
"Sodium, Na",mg,--,--,100,233
Vitamins
"Vitamin C, total ascorbic acid",mg,--,--,0.0,0.0
"Vitamin A, IU",IU,--,--,349,812
Lipids
"Fatty acids, total saturated",g,--,--,3.001,6.980
"Fatty acids, total trans",g,--,--,0.000,0.000
"Cholesterol",mg,--,--,5,12
Amino Acids
Other
Ingredients
"ENRICHED FLOUR BLEACHED (WHEAT FLOUR, MALTED BARLEY FLOUR, NIACIN, REDUCED IRON, THIAMINE MONONITRATE, RIBOFLAVIN, FOLIC ACID), SUGAR, MARGARINE BUTTER BLEND (PALM OIL, BUTTER [CREAM, SALT], WATER, SALT, MONO- AND DIGLYCERIDES, SODIUM BENZOATE PRESERVATIVE, CITRIC ACID PRESERVATIVE, NATURAL FLAVOR, VITAMIN A PALMITATE, BETA-CAROTENE COLOR), WATER, CONTAINS LESS THAN 2% OF EACH OF THE FOLLOWING: PROPYLENE GLYCOL, WHEAT FLOUR, GLYCERIN, ETHYL ALCOHOL, SALT, CORN STARCH, BAKING POWDER (SODIUM ACID PYROPHOSPHATE, BAKING SODA, CORN STARCH, MONOCALCIUM PHOSPHATE), SOY PROTEIN CONCENTRATE, MALTODEXTRIN, NATURAL AND ARTIFICIAL FLAVORS, DEXTROSE, EGG WHITES, EGG YOLKS WITH WHOLE EGG SOLIDS, SOYBEAN OIL, CELLULOSE GUM, AMMONIUM ALUMINUM SULFATE, SOY LECITHIN, FOOD STARCH MODIFIED, PHOSPHORIC ACID PRESERVATIVE, LACTIC ACID, ENZYMES, BAKING SODA, CARRAGEENAN, ACACIA (GUM ARABIC), BLUE 1, SODIUM ALGINATE, LOCUST BEAN GUM, YELLOW 6, ANNATTO EXTRACT COLOR, YELLOW 5, RED 3, RED 40, TITANIUM DIOXIDE COLOR, TURMERIC OLEORESIN COLOR, AGAR-AGAR, DEXTRIN, CITRIC ACID PRESERVATIVE, BLUE 2, SODIUM BENZOATE PRESERVATIVE, POTASSIUM SORBATE PRESERVATIVE." Date available: 07/14/2017 Date last updated by company: 07/14/2017
