Source: USDA Branded Food Products Database Release December 2017 Software v.3.8.6.4 2017-10-02
Report Run at: December 18, 2017 14:22 EST
"Nutrient data for: 45206177, THE BACKYARD FOOD COMPANY, CZECH SWEET & SOUR HEIRLOOM PICKLE, UPC: 858782005153"
Food Group:  Branded Food Products Database
Common Name:

Nutrient,Unit,Data points,Std. Error,"1 ONZ = 29.0g",1Value per 100 g,
Proximates
"Energy",kcal,--,--,25,86
"Protein",g,--,--,0.00,0.00
"Total lipid (fat)",g,--,--,0.00,0.00
"Carbohydrate, by difference",g,--,--,6.00,20.69
"Fiber, total dietary",g,--,--,0.0,0.0
"Sugars, total",g,--,--,6.00,20.69
Minerals
"Calcium, Ca",mg,--,--,0,0
"Iron, Fe",mg,--,--,0.00,0.00
"Sodium, Na",mg,--,--,240,828
Vitamins
"Vitamin C, total ascorbic acid",mg,--,--,2.1,7.1
"Vitamin A, IU",IU,--,--,345,1190
Lipids
"Fatty acids, total saturated",g,--,--,0.000,0.000
"Fatty acids, total trans",g,--,--,0.000,0.000
"Cholesterol",mg,--,--,0,0
Amino Acids
Other
Ingredients
"CUCUMBER. VINEGAR. WATER. PURE CANE SUGAR. CARROT. ONION. SALT. GARLIC. MUSTARD SEED. BLACK PEPPERCORN. ALLSPICE. BAYLEAF" Date available: 07/14/2017 Date last updated by company: 07/14/2017
