Source: USDA Branded Food Products Database Release December 2017 Software v.3.8.6.4 2017-10-02
Report Run at: December 18, 2017 14:55 EST
"Nutrient data for: 45287763, THE NEW YORK WATER BAGEL PLAIN, UPC: 734791291056"
Food Group:  Branded Food Products Database
Common Name:

Nutrient,Unit,Data points,Std. Error,"1 BAGEL = 113.0g",1Value per 100 g,
Proximates
"Energy",kcal,--,--,270,239
"Protein",g,--,--,10.00,8.85
"Total lipid (fat)",g,--,--,0.99,0.88
"Carbohydrate, by difference",g,--,--,59.00,52.21
"Fiber, total dietary",g,--,--,2.0,1.8
"Sugars, total",g,--,--,4.00,3.54
Minerals
"Calcium, Ca",mg,--,--,99,88
"Iron, Fe",mg,--,--,3.50,3.10
"Sodium, Na",mg,--,--,510,451
Vitamins
"Vitamin C, total ascorbic acid",mg,--,--,1.1,1.0
"Vitamin A, IU",IU,--,--,0,0
Lipids
"Fatty acids, total saturated",g,--,--,0.000,0.000
"Fatty acids, total trans",g,--,--,0.000,0.000
"Cholesterol",mg,--,--,0,0
Amino Acids
Other
Ingredients
"ENRICHED WHEAT FLOUR (WHEAT FLOUR, MALTED BARLEY FLOUR, NIACIN, FERROUS SULFATE, THIAMIN MONONITRATE, RIBOFLAVIN, FOLIC ACID), WATER, SUGAR, MALT SYRUP, WHEAT GLUTEN, SALT, YEAST, CALCIUM PROPIONATE, CORN MEAL, DOUGH IMPROVER (WHEAT FLOUR, DATEM, SALT, CALCIUM SULFATE, SOYBEAN OIL, CONTAINS 2% OR LESS OF: (ASCORBIC ACID, L-CYSTEINE HYDROCHLORIDE, ENZYMES, AZODICARBONAMIDE))." Date available: 07/14/2017 Date last updated by company: 07/14/2017
