Source: USDA Branded Food Products Database Release December 2017 Software v.3.8.6.4 2017-10-02
Report Run at: December 18, 2017 14:36 EST
"Nutrient data for: 45161075, THE CYNTSATIONAL POPCORN CO., ORIGINAL CYNT - SATION POPCORN, UPC: 751354222074"
Food Group:  Branded Food Products Database
Common Name:

Nutrient,Unit,Data points,Std. Error,"1 OUNCE = 28.0g",1Value per 100 g,
Proximates
"Energy",kcal,--,--,130,464
"Protein",g,--,--,2.00,7.14
"Total lipid (fat)",g,--,--,5.00,17.86
"Carbohydrate, by difference",g,--,--,20.00,71.43
"Fiber, total dietary",g,--,--,3.0,10.7
"Sugars, total",g,--,--,9.00,32.14
Minerals
"Calcium, Ca",mg,--,--,10,36
"Iron, Fe",mg,--,--,1.61,5.74
"Sodium, Na",mg,--,--,1,4
Vitamins
"Vitamin C, total ascorbic acid",mg,--,--,0.0,0.0
"Vitamin A, IU",IU,--,--,90,320
Lipids
"Fatty acids, total saturated",g,--,--,2.999,10.710
"Fatty acids, total trans",g,--,--,0.000,0.000
"Cholesterol",mg,--,--,1,4
Amino Acids
Other
Ingredients
"NON GMO POPCORN, OLIVE OIL, ORGANIC & NATURAL SPICES." Date available: 07/14/2017 Date last updated by company: 07/14/2017
