Source: USDA Branded Food Products Database Release December 2017 Software v.3.8.6.4 2017-10-02
Report Run at: December 18, 2017 15:12 EST
"Nutrient data for: 45275110, THE REAL DAIRY POWER SHAKE, UPC: 070801103484"
Food Group:  Branded Food Products Database
Common Name:

Nutrient,Unit,Data points,Std. Error,"1 CAN = 237.0g",1Value per 100 g,
Proximates
"Energy",kcal,--,--,261,110
"Protein",g,--,--,9.01,3.80
"Total lipid (fat)",g,--,--,6.99,2.95
"Carbohydrate, by difference",g,--,--,42.99,18.14
"Fiber, total dietary",g,--,--,1.9,0.8
"Sugars, total",g,--,--,40.01,16.88
Minerals
"Calcium, Ca",mg,--,--,301,127
"Iron, Fe",mg,--,--,0.00,0.00
"Potassium, K",mg,--,--,469,198
"Sodium, Na",mg,--,--,261,110
Vitamins
"Vitamin C, total ascorbic acid",mg,--,--,0.0,0.0
"Vitamin A, IU",IU,--,--,102,43
Lipids
"Fatty acids, total saturated",g,--,--,4.005,1.690
"Fatty acids, total trans",g,--,--,0.000,0.000
"Cholesterol",mg,--,--,26,11
Amino Acids
Other
Ingredients
"SKIM MILK, SUGAR, CREAM, DEXTROSE, COCOA, CELLULOSE GEL, MONO-AND DIGLYCERIDES, SODIUM TRIPOLYPHOSPHATE, NATURAL AND ARTIFICIAL FLAVOR, CELLULOSE GUM AND CARRAGEENAN." Date available: 07/14/2017 Date last updated by company: 07/14/2017
