Source: USDA Branded Food Products Database Release December 2017 Software v.3.8.6.4 2017-10-02
Report Run at: December 18, 2017 14:25 EST
"Nutrient data for: 45162024, THE BAKERY BARON, MINI PASTRIES KOLACKY, RASPBERRY, APRICOT, UPC: 857484001142"
Food Group:  Branded Food Products Database
Common Name:

Nutrient,Unit,Data points,Std. Error,"1 MINI PASTRY = 21.0g",1Value per 100 g,
Proximates
"Energy",kcal,--,--,96,457
"Protein",g,--,--,2.00,9.52
"Total lipid (fat)",g,--,--,7.00,33.33
"Carbohydrate, by difference",g,--,--,8.00,38.10
"Fiber, total dietary",g,--,--,0.0,0.0
"Sugars, total",g,--,--,2.00,9.52
Minerals
"Calcium, Ca",mg,--,--,10,48
"Iron, Fe",mg,--,--,0.94,4.49
"Sodium, Na",mg,--,--,29,138
Vitamins
"Vitamin C, total ascorbic acid",mg,--,--,0.0,0.0
"Vitamin A, IU",IU,--,--,262,1248
Lipids
"Fatty acids, total saturated",g,--,--,3.001,14.290
"Fatty acids, total trans",g,--,--,0.000,0.000
"Cholesterol",mg,--,--,12,57
Amino Acids
Other
Ingredients
"BLEACHED WHEAT AND MALTED BARLEY (NIACIN, REDUCED IRON, THIAMIN MONONITRATE, RIBOFLAVIN, FOLIC ACID, POTASSIUM BROMATE), PARTIALLY HYDROGENATED VEGETABLE SHORTENING (SOYBEAN AND/OR COTTONSEED OILS), BUTTER, MARGARINE (WATER, PROPYLENE GLYCOL, BUTTER DERIVATIVES, BUTTERMILK POWDER, DRY EGG YOLKS, ESSENTIAL OILS, XANTHAN GUM), CREAM CHEESE, APRICOT (CONTAINING SULFUR DIOXIDE), RASPBERRY (CORN SYRUP, WATER, SUGAR, MODIFIED CORN STARCH, CITRIC ACID, POTASSIUM SORBATE AND SODIUM BENZOATE), GELLAN GUM, MALIC ACID, SODIUM CITRATE (RED 40, CARAMEL AND ANNATTO COLOR), WHOLE EGGS, SUGAR, CORN SYRUP, EGG WHITES, CREAM OF TARTAR, SALT, BAKING POWDER, NATURAL AND ARTIFICIAL FLAVOR." Date available: 07/14/2017 Date last updated by company: 07/14/2017
