Source: USDA Branded Food Products Database Release December 2017 Software v.3.8.6.4 2017-10-02
Report Run at: December 18, 2017 14:58 EST
"Nutrient data for: 45167483, THE ORGANIC MEAT CO, 100% ORGANIC BEEF BURGERS, UPC: 070804990425"
Food Group:  Branded Food Products Database
Common Name:

Nutrient,Unit,Data points,Std. Error,"1 COOKED BURGER = 85.0g",1Value per 100 g,
Proximates
"Energy",kcal,--,--,220,259
"Protein",g,--,--,15.00,17.65
"Total lipid (fat)",g,--,--,17.00,20.00
"Carbohydrate, by difference",g,--,--,0.00,0.00
"Fiber, total dietary",g,--,--,0.0,0.0
"Sugars, total",g,--,--,0.00,0.00
Minerals
"Calcium, Ca",mg,--,--,0,0
"Iron, Fe",mg,--,--,1.44,1.69
"Sodium, Na",mg,--,--,45,53
Vitamins
"Vitamin C, total ascorbic acid",mg,--,--,0.0,0.0
"Vitamin A, IU",IU,--,--,0,0
Lipids
"Fatty acids, total saturated",g,--,--,7.004,8.240
"Fatty acids, total trans",g,--,--,1.003,1.180
"Cholesterol",mg,--,--,55,65
Amino Acids
Other
Ingredients
"ORGANIC BEEF." Date available: 07/14/2017 Date last updated by company: 07/14/2017
