Source: USDA Branded Food Products Database Release December 2017 Software v.3.8.6.4 2017-10-02
Report Run at: December 18, 2017 14:55 EST
"Nutrient data for: 45285090, THE NITRO COCONUT COLD BREW COFFEE, UPC: 865816000176"
Food Group:  Branded Food Products Database
Common Name:

Nutrient,Unit,Data points,Std. Error,"355.0 MLT = 355.0g",1Value per 100 g,
Proximates
"Energy",kcal,--,--,25,7
"Protein",g,--,--,0.00,0.00
"Total lipid (fat)",g,--,--,0.99,0.28
"Carbohydrate, by difference",g,--,--,4.01,1.13
"Fiber, total dietary",g,--,--,0.0,0.0
"Sugars, total",g,--,--,3.02,0.85
Minerals
"Calcium, Ca",mg,--,--,0,0
"Iron, Fe",mg,--,--,0.00,0.00
"Sodium, Na",mg,--,--,11,3
Vitamins
"Vitamin C, total ascorbic acid",mg,--,--,0.0,0.0
"Vitamin A, IU",IU,--,--,0,0
Lipids
"Fatty acids, total saturated",g,--,--,0.994,0.280
"Fatty acids, total trans",g,--,--,0.000,0.000
"Cholesterol",mg,--,--,0,0
Amino Acids
Other
Ingredients
"FILTERED WATER, ORGANIC COFFEE, ORGANIC MAPLE TOASTED COCONUT CHIPS." Date available: 07/14/2017 Date last updated by company: 07/14/2017
