Source: USDA Branded Food Products Database Release December 2017 Software v.3.8.6.4 2017-10-02
Report Run at: December 18, 2017 14:46 EST
"Nutrient data for: 45152151, THE GODFATHER BLACK TEA LATTE, UPC: 070734533433"
Food Group:  Branded Food Products Database
Common Name:

Nutrient,Unit,Data points,Std. Error,"1 BOTTLE = 9.5g",1Value per 100 g,
Proximates
"Energy",kcal,--,--,5,53
"Protein",g,--,--,0.17,1.75
"Total lipid (fat)",g,--,--,0.10,1.05
"Carbohydrate, by difference",g,--,--,0.90,9.47
"Fiber, total dietary",g,--,--,0.0,0.4
"Sugars, total",g,--,--,0.80,8.42
Minerals
"Calcium, Ca",mg,--,--,7,70
"Iron, Fe",mg,--,--,0.00,0.00
"Sodium, Na",mg,--,--,3,35
Vitamins
"Vitamin C, total ascorbic acid",mg,--,--,0.0,0.5
"Vitamin A, IU",IU,--,--,13,135
Lipids
"Fatty acids, total saturated",g,--,--,0.066,0.700
"Fatty acids, total trans",g,--,--,0.000,0.000
"Cholesterol",mg,--,--,0,4
Amino Acids
Other
Ingredients
"REDUCED FAT MILK, FILTERED WATER, CANE SUGAR, BREWED CHAI TEA (BLACK TEA BLEND, CARAMEL COLOR, CANE SUGAR, FILTERED WATER, NATURAL FLAVOR, HONEY, CITRIC ACID, CINNAMON, CLOVE, GINGER, CARDAMOM), POTASSIUM CITRATE, COCOA EXTRACT, PECTIN AND ESPRESSO." Date available: 07/14/2017 Date last updated by company: 07/14/2017
