Source: USDA Branded Food Products Database Release December 2017 Software v.3.8.6.4 2017-10-02
Report Run at: December 18, 2017 14:41 EST
"Nutrient data for: 45162050, THE FLAME, SWEET & SPICY LEMONADE FLAVORED BEVERAGE, UPC: 858171005030"
Food Group:  Branded Food Products Database
Common Name:

Nutrient,Unit,Data points,Std. Error,"12.0 OZA = 355.0g",1Value per 100 g,
Proximates
"Energy",kcal,--,--,170,48
"Protein",g,--,--,0.00,0.00
"Total lipid (fat)",g,--,--,0.00,0.00
"Carbohydrate, by difference",g,--,--,41.00,11.55
"Sugars, total",g,--,--,41.00,11.55
Minerals
"Sodium, Na",mg,--,--,25,7
Vitamins
Lipids
Amino Acids
Other
Ingredients
"WATER, SUGAR, NATURAL FLAVOR, CITRIC ACID, SODIUM BENZOATE AS PRESERVATIVE, GUM ARABIC, ESTER GUM, YELLOW 5." Date available: 07/14/2017 Date last updated by company: 07/14/2017
