Source: USDA Branded Food Products Database Release December 2017 Software v.3.8.6.4 2017-10-02
Report Run at: December 18, 2017 14:46 EST
"Nutrient data for: 45032582, THE GOOD BEAN, BEAN CHIPS, SWEET CHILI, UPC: 856651007055"
Food Group:  Branded Food Products Database
Common Name:

Nutrient,Unit,Data points,Std. Error,"1 ONZ = 28.0g",1Value per 100 g,
Proximates
"Energy",kcal,--,--,130,464
"Protein",g,--,--,4.00,14.29
"Total lipid (fat)",g,--,--,6.00,21.43
"Carbohydrate, by difference",g,--,--,15.00,53.57
"Fiber, total dietary",g,--,--,2.0,7.1
"Sugars, total",g,--,--,2.00,7.14
Minerals
"Calcium, Ca",mg,--,--,20,71
"Iron, Fe",mg,--,--,0.64,2.29
"Sodium, Na",mg,--,--,150,536
Vitamins
"Vitamin C, total ascorbic acid",mg,--,--,0.0,0.0
"Vitamin A, IU",IU,--,--,893,3189
Lipids
"Fatty acids, total saturated",g,--,--,0.501,1.790
"Fatty acids, total trans",g,--,--,0.000,0.000
"Cholesterol",mg,--,--,0,0
Amino Acids
Other
Ingredients
"THE GOOD BEAN PROTEIN BLEND (CHICKPEAS, NAVY BEANS, RED LENTILS, PEA PROTEIN ISOLATE), BROWN RICE, TAPIOCA STARCH, EXPELLER-PRESSED SAFFLOWER OIL, SWEET POTATOES, QUINOA, CANE SUGAR, SEA SALT, ONION POWDER, GARLIC POWDER, TOMATO POWDER, NATURAL FLAVORS, EXTRACTIVE OF PAPRIKA" Date available: 07/14/2017 Date last updated by company: 07/14/2017
