Source: USDA Branded Food Products Database Release December 2017 Software v.3.8.6.4 2017-10-02
Report Run at: December 18, 2017 14:58 EST
"Nutrient data for: 45203782, THE ORIGINAL ARTISAN ICE CREAM SANDWICH, UPC: 858719004051"
Food Group:  Branded Food Products Database
Common Name:

Nutrient,Unit,Data points,Std. Error,"0.5 SANDWICH = 91.0g",1Value per 100 g,
Proximates
"Energy",kcal,--,--,330,363
"Protein",g,--,--,3.00,3.30
"Total lipid (fat)",g,--,--,18.00,19.78
"Carbohydrate, by difference",g,--,--,40.00,43.96
"Fiber, total dietary",g,--,--,2.0,2.2
"Sugars, total",g,--,--,30.00,32.97
Minerals
"Calcium, Ca",mg,--,--,60,66
"Iron, Fe",mg,--,--,2.70,2.97
"Sodium, Na",mg,--,--,170,187
Vitamins
"Vitamin C, total ascorbic acid",mg,--,--,0.0,0.0
"Vitamin A, IU",IU,--,--,500,549
Lipids
"Fatty acids, total saturated",g,--,--,11.002,12.090
"Fatty acids, total trans",g,--,--,0.000,0.000
"Cholesterol",mg,--,--,25,27
Amino Acids
Other
Ingredients
"CHOCOLATE CHIP COOKIES (SEMI-SWEET CHOCOLATE CHIPS [SUGAR, CHOCOLATE, COCOA BUTTER, MILKFAT, SOY LECITHIN, NATURAL FLAVORS], ENRICHED WHEAT FLOUR [FLOUR, NIACIN, IRON, THIAMIN MONONITRATE, RIBOFLAVIN, FOLIC ACID], BUTTER [PASTEURIZED CREAM, NATURAL FLAVORING], BROWN SUGAR, SUGAR, EGGS, INVERT SUGAR, SOY LECITHIN, VANILLA EXTRACT, SALT, BAKING SODA), ICE CREAM (MILK, CREAM, SUGAR, SKIM MILK, WHEY, VANILLA EXTRACT, STABILIZER AND EMULSIFIER [LOCUST BEAN GUM, GUAR GUM, CARRAGEENAN], LECITHIN), DARK CHOCOLATE (CHOCOLATE LIQUOR, SUGAR, COCOA BUTTER, SOY LECITHIN, NATURAL VANILLA FLAVORING), CARAMEL PASTE (CARAMEL SUGAR, WATER, CARAMEL COLOR, FLAVORINGS, CITRIC ACID), VANILLA EXTRACT, BROWN SUGAR, SEA SALT." Date available: 07/14/2017 Date last updated by company: 07/14/2017
