Source: USDA Branded Food Products Database Release December 2017 Software v.3.8.6.4 2017-10-02
Report Run at: December 18, 2017 15:07 EST
"Nutrient data for: 45144417, THE ORIGINAL PEANUT BUTTER MELTAWAY NOVELTIES CANDY, UPC: 088671150385"
Food Group:  Branded Food Products Database
Common Name:

Nutrient,Unit,Data points,Std. Error,"2.0 PCS. = 28.0g",1Value per 100 g,
Proximates
"Energy",kcal,--,--,160,571
"Protein",g,--,--,3.00,10.71
"Total lipid (fat)",g,--,--,10.00,35.71
"Carbohydrate, by difference",g,--,--,15.00,53.57
"Fiber, total dietary",g,--,--,1.0,3.6
"Sugars, total",g,--,--,13.00,46.43
Minerals
"Calcium, Ca",mg,--,--,40,143
"Iron, Fe",mg,--,--,0.64,2.29
"Sodium, Na",mg,--,--,45,161
Vitamins
"Vitamin C, total ascorbic acid",mg,--,--,0.0,0.0
"Vitamin A, IU",IU,--,--,0,0
Lipids
"Fatty acids, total saturated",g,--,--,5.001,17.860
"Fatty acids, total trans",g,--,--,0.000,0.000
"Cholesterol",mg,--,--,5,18
Amino Acids
Other
Ingredients
"MILK CHOCOLATE (SUGAR, MILK, COCOA BUTTER, CHOCOLATE LIQUOR, SOY LECITHIN - AN EMULSIFIER, VANILLIN - AN ARTIFICIAL FLAVOR), PEANUT BUTTER (DRY ROASTED PEANUTS, HYDROGENATED COTTONSEED AND RAPESEED OIL, SALT), SUGAR, PALM KERNEL OIL, SWEET DAIRY WHEY (MILK), LACTOSE, BUTTERMILK, SODIUM CASEINATE, SOY LECITHIN - AN EMULSIFIER HYDROGENATED PALM OIL." Date available: 07/14/2017 Date last updated by company: 07/14/2017
