Source: USDA Branded Food Products Database Release December 2017 Software v.3.8.6.4 2017-10-02
Report Run at: December 18, 2017 14:30 EST
"Nutrient data for: 45201129, THE BEEF PASTY, UPC: 748252550040"
Food Group:  Branded Food Products Database
Common Name:

Nutrient,Unit,Data points,Std. Error,"5.0 ONZ = 140.0g",1Value per 100 g,
Proximates
"Energy",kcal,--,--,350,250
"Protein",g,--,--,14.99,10.71
"Total lipid (fat)",g,--,--,19.00,13.57
"Carbohydrate, by difference",g,--,--,30.00,21.43
"Fiber, total dietary",g,--,--,2.0,1.4
"Sugars, total",g,--,--,0.99,0.71
Minerals
"Calcium, Ca",mg,--,--,41,29
"Iron, Fe",mg,--,--,1.64,1.17
"Sodium, Na",mg,--,--,930,664
Vitamins
"Vitamin C, total ascorbic acid",mg,--,--,2.2,1.6
"Vitamin A, IU",IU,--,--,60,43
Lipids
"Fatty acids, total saturated",g,--,--,7.994,5.710
"Fatty acids, total trans",g,--,--,0.000,0.000
"Cholesterol",mg,--,--,55,39
Amino Acids
Other
Ingredients
"FILLING: POTATOES, BEEF, ONION, BUTTER (CREAM, SALT), SEA SALT, BLACK PEPPER, CRUST: FLOUR (WHEAT FLOUR, MALTED BARLEY FLOUR, ASCORBIC ACID, NIACIN, IRON, THIAMINE, RIBOFLAVIN), HYDROGENATED LARD (BHT & BHA), EGG, MILK, BAKING POWDER (MONOCALCIUM PHOSPHATE, SODIUM BICARBONATE, NON-GENETICALLY MODIFIED CORNSTARCH)." Date available: 07/14/2017 Date last updated by company: 07/14/2017
