Source: USDA Branded Food Products Database Release December 2017 Software v.3.8.6.4 2017-10-02
Report Run at: December 18, 2017 15:06 EST
"Nutrient data for: 45188116, THE ORIGINAL LOAF, UPC: 883426040269"
Food Group:  Branded Food Products Database
Common Name:

Nutrient,Unit,Data points,Std. Error,"1 PACKAGE = 113.0g",1Value per 100 g,
Proximates
"Energy",kcal,--,--,490,434
"Protein",g,--,--,6.00,5.31
"Total lipid (fat)",g,--,--,27.00,23.89
"Carbohydrate, by difference",g,--,--,56.00,49.56
"Fiber, total dietary",g,--,--,2.0,1.8
"Sugars, total",g,--,--,32.00,28.32
Minerals
"Calcium, Ca",mg,--,--,20,18
"Iron, Fe",mg,--,--,1.80,1.59
"Sodium, Na",mg,--,--,260,230
Vitamins
"Vitamin C, total ascorbic acid",mg,--,--,3.6,3.2
"Vitamin A, IU",IU,--,--,99,88
Lipids
"Fatty acids, total saturated",g,--,--,4.000,3.540
"Fatty acids, total trans",g,--,--,0.000,0.000
"Cholesterol",mg,--,--,45,40
Amino Acids
Other
Ingredients
"ENRICHED FLOUR (WHEAT FLOUR, NIACIN, REDUCED IRON, THIAMINE MONONITRATE, RIBOFLAVIN, FOLIC ACID), SUGAR, BANANAS, SOYBEAN OIL, PINEAPPLE (PINEAPPLE, PINEAPPLE JUICE, ASCORBIC ACID), EGG, WALNUTS, NATURAL FLAVOR, POTASSIUM SORBATE PRESERVATIVE, SALT, BAKIN" Date available: 10/14/2016 Date last updated by company: 10/14/2016
