Source: USDA Branded Food Products Database Release December 2017 Software v.3.8.6.4 2017-10-02
Report Run at: December 18, 2017 14:57 EST
"Nutrient data for: 45093803, THEO, PURE 70% DARK CHOCOLATE, UPC: 874492000790"
Food Group:  Branded Food Products Database
Common Name:

Nutrient,Unit,Data points,Std. Error,"0.5 BAR = 42.0g",1Value per 100 g,
Proximates
"Energy",kcal,--,--,210,500
"Protein",g,--,--,3.00,7.14
"Total lipid (fat)",g,--,--,16.00,38.10
"Carbohydrate, by difference",g,--,--,20.00,47.62
"Fiber, total dietary",g,--,--,4.0,9.5
"Sugars, total",g,--,--,13.00,30.95
Minerals
"Calcium, Ca",mg,--,--,0,0
"Iron, Fe",mg,--,--,2.14,5.10
"Sodium, Na",mg,--,--,0,0
Vitamins
"Vitamin C, total ascorbic acid",mg,--,--,0.0,0.0
"Vitamin A, IU",IU,--,--,0,0
Lipids
"Fatty acids, total saturated",g,--,--,10.000,23.810
"Fatty acids, total trans",g,--,--,0.000,0.000
"Cholesterol",mg,--,--,0,0
Amino Acids
Other
Ingredients
"COCOA BEANS*+, CANE SUGAR*+, COCOA BUTTER*+, GROUND BEAN*+,." Date available: 06/25/2017 Date last updated by company: 06/25/2017
