Source: USDA Branded Food Products Database Release December 2017 Software v.3.8.6.4 2017-10-02
Report Run at: December 18, 2017 15:21 EST
"Nutrient data for: 45017521, THICK & CHUNKY SALSA, UPC: 041497004553"
Food Group:  Branded Food Products Database
Common Name:

Nutrient,Unit,Data points,Std. Error,"2.0 Tbsp = 31.0g",1Value per 100 g,
Proximates
"Energy",kcal,--,--,15,48
"Protein",g,--,--,0.00,0.00
"Total lipid (fat)",g,--,--,0.00,0.00
"Carbohydrate, by difference",g,--,--,3.00,9.68
"Fiber, total dietary",g,--,--,1.0,3.2
"Sugars, total",g,--,--,1.00,3.23
Minerals
"Sodium, Na",mg,--,--,170,548
Vitamins
"Vitamin A, IU",IU,--,--,338,1090
Lipids
Amino Acids
Other
Ingredients
"TOMATO PUREE (WATER, TOMATO PASTE, CITRIC ACID), DICED TOMATOES, GREEN BELL PEPPERS, JALAPENO PEPPERS, DRIED ONION, VINEGAR, SALT, SUGAR, DRIED GARLIC, NATURAL FLAVOR, SPICE." Date available: 10/04/2017 Date last updated by company: 10/04/2017
