Source: USDA Branded Food Products Database Release December 2017 Software v.3.8.6.4 2017-10-02
Report Run at: December 18, 2017 15:31 EST
"Nutrient data for: 45286181, THIN CRUST CHEESE PIZZA, UPC: 075706127559"
Food Group:  Branded Food Products Database
Common Name:

Nutrient,Unit,Data points,Std. Error,"0.333 PIZZA = 137.0g",1Value per 100 g,
Proximates
"Energy",kcal,--,--,300,219
"Protein",g,--,--,13.00,9.49
"Total lipid (fat)",g,--,--,12.00,8.76
"Carbohydrate, by difference",g,--,--,34.00,24.82
"Fiber, total dietary",g,--,--,2.1,1.5
"Sugars, total",g,--,--,5.00,3.65
Minerals
"Calcium, Ca",mg,--,--,300,219
"Iron, Fe",mg,--,--,3.85,2.81
"Sodium, Na",mg,--,--,721,526
Vitamins
"Vitamin C, total ascorbic acid",mg,--,--,12.9,9.4
"Vitamin A, IU",IU,--,--,711,519
Lipids
"Fatty acids, total saturated",g,--,--,6.001,4.380
"Fatty acids, total trans",g,--,--,0.000,0.000
"Cholesterol",mg,--,--,30,22
Amino Acids
Other
Ingredients
"CRUST (WHEAT FLOUR [ENRICHED WHEAT FLOUR (WHEAT FLOUR, NIACIN, REDUCED IRON, THIAMINE MONONITRATE, RIBOFLAVIN, FOLIC ACID), ENZYME], WATER, SOYBEAN OIL, YEAST, CONTAINS 2% OR LESS OF: SALT, BAKING POWDER [SODIUM ACID PYROPHOSPHATE, SODIUM BICARBONATE, CORN STARCH, MONOCALCIUM PHOSPHATE], CULTURED WHEY, WHEY, SUGAR, VINEGAR, LECITHIN, DOUGH CONDITIONER [WHEAT FLOUR, ASCORBIC ACID, ENZYMES], SOY LECITHIN [PROCESSING AID]), CHEESES (LOW MOISTURE PART SKIM MOZZARELLA CHEESE [PASTEURIZED PART SKIM MILK, CHEESE CULTURES, SALT, ENZYMES], PROVOLONE CHEESE [PASTEURIZED MILK, CHEESE CULTURE, SALT, ENZYMES]), SAUCE (WATER, TOMATOES, SPICE [SUGAR, SALT, MODIFIED FOOD STARCH, SPICES, DEHYDRATED GARLIC, CITRIC ACID], SUGAR)." Date available: 07/14/2017 Date last updated by company: 07/14/2017
