Source: USDA Branded Food Products Database Release December 2017 Software v.3.8.6.4 2017-10-02
Report Run at: December 18, 2017 15:35 EST
"Nutrient data for: 45192842, THINK JERKY, BEEF JERKY, GINGER, ORANGE, UPC: 850941006001"
Food Group:  Branded Food Products Database
Common Name:

Nutrient,Unit,Data points,Std. Error,"1 PACKAGE = 42.5g",1Value per 100 g,
Proximates
"Energy",kcal,--,--,100,235
"Protein",g,--,--,16.00,37.65
"Total lipid (fat)",g,--,--,2.00,4.71
"Carbohydrate, by difference",g,--,--,5.00,11.76
"Fiber, total dietary",g,--,--,0.0,0.0
"Sugars, total",g,--,--,4.00,9.41
Minerals
"Calcium, Ca",mg,--,--,20,47
"Iron, Fe",mg,--,--,0.85,1.99
"Sodium, Na",mg,--,--,390,918
Vitamins
"Vitamin C, total ascorbic acid",mg,--,--,1.4,3.3
"Vitamin A, IU",IU,--,--,0,0
Lipids
"Fatty acids, total saturated",g,--,--,0.501,1.180
"Fatty acids, total trans",g,--,--,0.000,0.000
"Cholesterol",mg,--,--,35,82
Amino Acids
Other
Ingredients
"GRASS FED BEEF, TAMARI SAUCE (WATER, ORGANIC SOYBEANS, SALT, ORGANIC ALCOHOL), CANE SUGAR, GINGER, GRANULATED GARLIC, ORANGE PEEL, GRANULATED ONION, SESAME SEEDS, CAYENNE PEPPER." Date available: 07/14/2017 Date last updated by company: 07/14/2017
