Source: USDA Branded Food Products Database Release December 2017 Software v.3.8.6.4 2017-10-02
Report Run at: December 18, 2017 15:39 EST
"Nutrient data for: 45141315, THIN SLICED SWISS CHEESE, UPC: 70882072970"
Food Group:  Branded Food Products Database
Common Name:

Nutrient,Unit,Data points,Std. Error,"3.0 SLICES = 32.0g",1Value per 100 g,
Proximates
"Energy",kcal,--,--,120,375
"Total lipid (fat)",g,--,--,9.00,28.12
"Carbohydrate, by difference",g,--,--,0.00,0.00
"Fiber, total dietary",g,--,--,0.0,0.0
"Sugars, total",g,--,--,0.00,0.00
Minerals
"Calcium, Ca",mg,--,--,285,891
"Iron, Fe",mg,--,--,0.04,0.12
"Potassium, K",mg,--,--,25,78
"Sodium, Na",mg,--,--,60,188
Vitamins
"Vitamin A, IU",IU,--,--,335,1047
Lipids
"Fatty acids, total saturated",g,--,--,4.998,15.620
"Fatty acids, total trans",g,--,--,0.000,0.000
"Cholesterol",mg,--,--,30,94
Amino Acids
Other
Ingredients
"CULTURED PASTEURIZED MILK, SALT, ENZYMES." Date available: 07/14/2017 Date last updated by company: 07/14/2017
