Source: USDA Branded Food Products Database Release December 2017 Software v.3.8.6.4 2017-10-02
Report Run at: December 18, 2017 15:29 EST
"Nutrient data for: 45190121, THIN & CRISPY CRUST SUPREME PIZZA, UPC: 021130098286"
Food Group:  Branded Food Products Database
Common Name:

Nutrient,Unit,Data points,Std. Error,"0.25 PIZZA = 137.0g",1Value per 100 g,
Proximates
"Energy",kcal,--,--,321,234
"Protein",g,--,--,14.00,10.22
"Total lipid (fat)",g,--,--,18.00,13.14
"Carbohydrate, by difference",g,--,--,28.00,20.44
"Fiber, total dietary",g,--,--,2.1,1.5
"Sugars, total",g,--,--,3.00,2.19
Minerals
"Calcium, Ca",mg,--,--,249,182
"Iron, Fe",mg,--,--,1.53,1.12
"Sodium, Na",mg,--,--,740,540
Vitamins
"Vitamin C, total ascorbic acid",mg,--,--,12.9,9.4
"Vitamin A, IU",IU,--,--,1067,779
Lipids
"Fatty acids, total saturated",g,--,--,8.001,5.840
"Fatty acids, total trans",g,--,--,0.000,0.000
"Cholesterol",mg,--,--,45,33
Amino Acids
Other
Ingredients
"TOPPINGS: SAUCE (WATER, TOMATO PASTE, SOYBEAN OIL, SEASONING [SALT, PAPRIKA, SPICES, ONION POWDER, GARLIC POWDER, PARMESAN CHEESE (PASTEURIZED CULTURED PART-SKIM MILK, SALT, ENZYMES)), SALT, SPICE), LOW MOISTURE MOZZARELLA CHEESE (PASTEURIZED MILK, CHEESE CULTURES, SALT, ENZYMES), COOKED ITALIAN SAUSAGE (PORK, WATER, SALT, SPICES AND SPICE EXTRACTIVE, FLAVORINGS, DEXTROSE, OLEORESIN OF PAPRIKA, LEMON JUICE POWDER [CORN SYRUP SOLIDS, LEMON JUICE SOLIDS, NATURAL FLAVOR). BHA, BHT, CITRIC ACID), PEPPERONI (PORK, BEEF, SALT. SPICES, DEXTROSE, LACTIC ACID STARTER CULTURE, OLEORESIN OF PAPRIKA, FLAVORING, SODIUM NITRITE, BHA, BHT, CITRIC ACID), PEPPERS, ONIONS, BLACK OLIVES (RIPE OLIVES, SALT, FERROUS GLUCONATE [TO STABILIZE COLOR]). CRUST: FLOUR (WHEAT, MALTED BARLEY), WATER, SOYBEAN OIL, YEAST, SALT, DEXTROSE." Date available: 07/14/2017 Date last updated by company: 07/14/2017
