Source: USDA Branded Food Products Database Release December 2017 Software v.3.8.6.4 2017-10-02
Report Run at: December 18, 2017 15:45 EST
"Nutrient data for: 45158613, THIRSTY BUDDHA, NATURAL COCONUT WATER WITH ALOE WATER, UPC: 852953001708"
Food Group:  Branded Food Products Database
Common Name:

Nutrient,Unit,Data points,Std. Error,"1 CAN = 520.0g",1Value per 100 g,
Proximates
"Energy",kcal,--,--,99,19
"Protein",g,--,--,0.00,0.00
"Total lipid (fat)",g,--,--,0.00,0.00
"Carbohydrate, by difference",g,--,--,24.02,4.62
"Fiber, total dietary",g,--,--,0.0,0.0
"Sugars, total",g,--,--,21.01,4.04
Minerals
"Calcium, Ca",mg,--,--,62,12
"Iron, Fe",mg,--,--,0.52,0.10
"Magnesium, Mg",mg,--,--,21,4
"Phosphorus, P",mg,--,--,16,3
"Potassium, K",mg,--,--,728,140
"Sodium, Na",mg,--,--,140,27
Vitamins
"Vitamin C, total ascorbic acid",mg,--,--,0.0,0.0
"Vitamin A, IU",IU,--,--,0,0
Lipids
"Fatty acids, total saturated",g,--,--,0.000,0.000
"Fatty acids, total trans",g,--,--,0.000,0.000
"Cholesterol",mg,--,--,0,0
Amino Acids
Other
Ingredients
"COCONUT WATER, ALOE VERA GEL." Date available: 07/14/2017 Date last updated by company: 07/14/2017
