Source: USDA Branded Food Products Database Release December 2017 Software v.3.8.6.4 2017-10-02
Report Run at: December 18, 2017 15:45 EST
"Nutrient data for: 45259237, THIS BAR SAVES LIVES, BAR, WILD BLUEBERRY, PISTACHIO, UPC: 858497004014"
Food Group:  Branded Food Products Database
Common Name:

Nutrient,Unit,Data points,Std. Error,"1 BAR = 43.0g",1Value per 100 g,
Proximates
"Energy",kcal,--,--,180,419
"Protein",g,--,--,5.00,11.63
"Total lipid (fat)",g,--,--,7.00,16.28
"Carbohydrate, by difference",g,--,--,25.00,58.14
"Fiber, total dietary",g,--,--,3.0,7.0
"Sugars, total",g,--,--,13.00,30.23
Minerals
"Calcium, Ca",mg,--,--,20,47
"Iron, Fe",mg,--,--,1.01,2.34
"Sodium, Na",mg,--,--,60,140
Vitamins
"Vitamin C, total ascorbic acid",mg,--,--,0.0,0.0
"Vitamin A, IU",IU,--,--,0,0
Lipids
"Fatty acids, total saturated",g,--,--,1.002,2.330
"Fatty acids, total trans",g,--,--,0.000,0.000
"Cholesterol",mg,--,--,0,0
Amino Acids
Other
Ingredients
"NUT AND SEED MIX (ALMONDS, PISTACHIOS, FLAX SEEDS, PUMPKIN SEEDS) BROWN RICE SYRUP, RICE FLOUR, CRANBERRIES, AGAVE SYRUP, TOASTED OATS, EVAPORATED CANE JUICE, SUNFLOWER OIL, WILD BLUEBERRIES, RICE BRAN, BLUEBERRY JUICE CONCENTRATE, RAISIN JUICE CONCENTRATE, NATURAL BLUEBERRY EXTRACT, SEA SALT, HONEY, NON-GMO SUNFLOWER LECITHIN, NATURAL FLAVORS, CITRIC ACID." Date available: 07/14/2017 Date last updated by company: 07/14/2017
