Source: USDA Branded Food Products Database Release December 2017 Software v.3.8.6.4 2017-10-02
Report Run at: December 18, 2017 15:48 EST
"Nutrient data for: 45158821, THORNTONS, MILK CHOCOLATE CREAMY & INDULGENT, UPC: 016346132619"
Food Group:  Branded Food Products Database
Common Name:

Nutrient,Unit,Data points,Std. Error,"100.0 GRM = 100.0g",1Value per 100 g,
Proximates
"Energy",kcal,--,--,542,542
"Protein",g,--,--,6.90,6.90
"Total lipid (fat)",g,--,--,32.00,32.00
"Carbohydrate, by difference",g,--,--,55.00,55.00
"Sugars, total",g,--,--,54.00,54.00
Minerals
Vitamins
Lipids
"Fatty acids, total saturated",g,--,--,20.000,20.000
Amino Acids
Other
Ingredients
"SUGAR, DRIED WHOLE MILK, COCOA BUTTER, COCOA MASS, MILK FAT, EMULSIFIER (SOYA LECITHIN), FLAVOURING." Date available: 10/13/2017 Date last updated by company: 10/13/2017
