Source: USDA Branded Food Products Database Release December 2017 Software v.3.8.6.4 2017-10-02
Report Run at: December 18, 2017 15:48 EST
"Nutrient data for: 45330160, THOUSAND ISLAND DRESSING & DIP, UPC: 041512084300"
Food Group:  Branded Food Products Database
Common Name:

Nutrient,Unit,Data points,Std. Error,"2.0 Tbsp = 29.0g",1Value per 100 g,
Proximates
"Energy",kcal,--,--,100,345
"Protein",g,--,--,0.00,0.00
"Total lipid (fat)",g,--,--,9.00,31.03
"Carbohydrate, by difference",g,--,--,5.00,17.24
"Fiber, total dietary",g,--,--,0.0,0.0
"Sugars, total",g,--,--,2.00,6.90
Minerals
"Calcium, Ca",mg,--,--,0,0
"Iron, Fe",mg,--,--,0.00,0.00
"Sodium, Na",mg,--,--,200,690
Vitamins
"Vitamin C, total ascorbic acid",mg,--,--,0.0,0.0
"Vitamin A, IU",IU,--,--,0,0
Lipids
"Fatty acids, total saturated",g,--,--,1.499,5.170
"Fatty acids, total monounsaturated",g,--,--,2.001,6.900
"Fatty acids, total polyunsaturated",g,--,--,5.000,17.240
"Fatty acids, total trans",g,--,--,0.000,0.000
"Cholesterol",mg,--,--,15,52
Amino Acids
Other
Ingredients
"SOYBEAN OIL, SWEET RELISH (CURED CUCUMBERS, HIGH FRUCTOSE CORN SYRUP, VINEGAR, ONION*, SALT, RED BELL PEPPERS*, XANTHAN GUM, SODIUM BENZOATE & POTASSIUM SORBATE AS PRESERVATIVES, NATURAL FLAVORINGS, POLYSORBATE 80, EXTRACTIVES OF TURMERIC), WATER, TOMATO PASTE, SUGAR, EGG YOLKS, DISTILLED VINEGAR, CONTAINS LESS THAN 2% OF SALT, ONION*, XANTHAN GUM, SODIUM BENZOATE AND POTASSIUM SORBATE (AS PRESERVATIVES), SPICE, NATURAL & ARTIFICIAL FLAVORS, CALCIUM DISODIUM EDTA ADDED TO PROTECT FLAVOR." Date available: 10/13/2017 Date last updated by company: 10/13/2017
