Source: USDA Branded Food Products Database Release December 2017 Software v.3.8.6.4 2017-10-02
Report Run at: December 18, 2017 15:49 EST
"Nutrient data for: 45295882, THOUSAND ISLAND DRESSING, UPC: 041190035540"
Food Group:  Branded Food Products Database
Common Name:

Nutrient,Unit,Data points,Std. Error,"2.0 Tbsp = 30.0g",1Value per 100 g,
Proximates
"Energy",kcal,--,--,120,400
"Protein",g,--,--,0.00,0.00
"Total lipid (fat)",g,--,--,12.00,40.00
"Carbohydrate, by difference",g,--,--,4.00,13.33
"Fiber, total dietary",g,--,--,0.0,0.0
"Sugars, total",g,--,--,4.00,13.33
Minerals
"Calcium, Ca",mg,--,--,0,0
"Iron, Fe",mg,--,--,0.00,0.00
"Sodium, Na",mg,--,--,270,900
Vitamins
"Vitamin C, total ascorbic acid",mg,--,--,2.0,6.7
"Vitamin A, IU",IU,--,--,166,555
Lipids
"Fatty acids, total saturated",g,--,--,2.001,6.670
"Fatty acids, total trans",g,--,--,0.000,0.000
"Cholesterol",mg,--,--,10,33
Amino Acids
Other
Ingredients
"INGREDIENTS: SOYBEAN OIL, TOMATO PUREE (WATER, TOMATO PASTE), DISTILLED VINEGAR, SUGAR, WATER, CUCUMBERS, EGG YOLK, SALT, CONTAINS LESS THAN 2% OF MUSTARD FLOUR, ONION*, RED BELL PEPPER*, XANTHAN GUM, POTASSIUM SORBATE AND SODIUM BENZOATE (AS PRESERVATIVES), NATURAL FLAVOR, PAPRIKA, CITRIC ACID, SPICES, CALCIUM DISODIUM EDTA TO PROTECT FLAVOR, TURMERIC OLEORESIN (COLOR), ALUM, CALCIUM CHLORIDE, POLYSORBATE 80. *DRIED" Date available: 06/24/2017 Date last updated by company: 06/24/2017
