Source: USDA Branded Food Products Database Release December 2017 Software v.3.8.6.4 2017-10-02
Report Run at: December 18, 2017 15:48 EST
"Nutrient data for: 45126460, THOUSAND ISLAND DRESSING, UPC: 070200500228"
Food Group:  Branded Food Products Database
Common Name:

Nutrient,Unit,Data points,Std. Error,"2.0 Tbsp = 30.0g",1Value per 100 g,
Proximates
"Energy",kcal,--,--,150,500
"Protein",g,--,--,0.00,0.00
"Total lipid (fat)",g,--,--,15.00,50.00
"Carbohydrate, by difference",g,--,--,5.00,16.67
"Fiber, total dietary",g,--,--,0.0,0.0
"Sugars, total",g,--,--,4.00,13.33
Minerals
"Calcium, Ca",mg,--,--,0,0
"Iron, Fe",mg,--,--,0.00,0.00
"Sodium, Na",mg,--,--,250,833
Vitamins
"Vitamin C, total ascorbic acid",mg,--,--,0.0,0.0
"Vitamin A, IU",IU,--,--,0,0
Lipids
"Fatty acids, total saturated",g,--,--,2.499,8.330
"Fatty acids, total trans",g,--,--,0.000,0.000
"Cholesterol",mg,--,--,15,50
Amino Acids
Other
Ingredients
"SOYBEAN OIL, SWEET RELISH (CUCUMBERS, SUGAR, VINEGAR, SALT, XANTHAN GUM, NATURAL FLAVOR), WATER, SUGAR, EGG YOLK, TOMATO PASTE, DISTILLED VINEGAR, SALT, ONION*, CELERY SEED, NATURAL FLAVORS, XANTHAN GUM, VEGETABLE JUICES ADDED FOR COLOR, GARLIC*." Date available: 07/14/2017 Date last updated by company: 07/14/2017
