Source: USDA Branded Food Products Database Release December 2017 Software v.3.8.6.4 2017-10-02
Report Run at: December 18, 2017 15:52 EST
"Nutrient data for: 45078877, THREE CHEESE RANCH, UPC: 011110738127"
Food Group:  Branded Food Products Database
Common Name:

Nutrient,Unit,Data points,Std. Error,"2.0 Tbsp = 29.0g",1Value per 100 g,
Proximates
"Energy",kcal,--,--,130,448
"Protein",g,--,--,1.00,3.45
"Total lipid (fat)",g,--,--,14.00,48.28
"Carbohydrate, by difference",g,--,--,2.00,6.90
"Fiber, total dietary",g,--,--,0.0,0.0
"Sugars, total",g,--,--,1.00,3.45
Minerals
"Calcium, Ca",mg,--,--,40,138
"Iron, Fe",mg,--,--,0.00,0.00
"Sodium, Na",mg,--,--,250,862
Vitamins
"Vitamin C, total ascorbic acid",mg,--,--,0.0,0.0
"Vitamin A, IU",IU,--,--,0,0
Lipids
"Fatty acids, total saturated",g,--,--,2.500,8.620
"Fatty acids, total trans",g,--,--,0.000,0.000
"Cholesterol",mg,--,--,10,34
Amino Acids
Other
Ingredients
"INGREDIENTS: SOYBEAN OIL, WATER, LOWFAT BUTTERMILK (ENRICHED LOWFAT AND SKIM MILK, SALT, TAPIOCA STARCH, LOCUST BEAN GUM, CARRAGEENAN), EGG YOLK, SUGAR, SOUR CREAM POWDER (CREAM, NONFAT MILK, CULTURES), ROMANO, PARMESAN AND CHEDDAR CHEESE (MILK, CHEESE CULTURES, SALT, ENZYMES, CALCIUM CHLORIDE), CHEDDAR AND BLUE CHEESE (MILK, SALT, CHEESE CULTURES, ENZYMES), TAPIOCA DEXTRIN, SODIUM CITRATE, AUTOLIZED YEAST, MONO & DIGLYCERIDES, SOYBEAN OIL, CULTURED WHEY, NATURAL AND ARTIFICIAL FLAVOR, LACTIC ACID, YELLOW 5 & 6, SPICE, DRIED GARLIC ACID, DRIED ONION, PARSLEY, PHOSPHORIC ACID, XANTHAN GUM, MODIFIED CORN STARCH, MONOSODIUM GLUTAMATE, NATURAL FLAVORS, SODIUM BANZOATE AND POTASSIUM SORBATE (PRESERVATIVES), CALCIUM DISODIUM EDTA (TO PROTECT FLAVOR)." Date available: 06/24/2017 Date last updated by company: 06/24/2017
