Source: USDA Branded Food Products Database Release December 2017 Software v.3.8.6.4 2017-10-02
Report Run at: December 18, 2017 16:07 EST
"Nutrient data for: 45012563, THREE TWINS ICE CREAM, ORGANIC ICE CREAM, VANILLA, UPC: 689076367448"
Food Group:  Branded Food Products Database
Common Name:

Nutrient,Unit,Data points,Std. Error,"0.5 cup = 85.0g",1Value per 100 g,
Proximates
"Energy",kcal,--,--,180,212
"Protein",g,--,--,2.00,2.35
"Total lipid (fat)",g,--,--,12.00,14.12
"Carbohydrate, by difference",g,--,--,16.00,18.82
"Fiber, total dietary",g,--,--,0.0,0.0
"Sugars, total",g,--,--,15.00,17.65
Minerals
"Calcium, Ca",mg,--,--,80,94
"Iron, Fe",mg,--,--,0.00,0.00
"Sodium, Na",mg,--,--,30,35
Vitamins
"Vitamin C, total ascorbic acid",mg,--,--,0.0,0.0
"Vitamin A, IU",IU,--,--,562,661
Lipids
"Fatty acids, total saturated",g,--,--,7.004,8.240
"Fatty acids, total trans",g,--,--,0.000,0.000
"Cholesterol",mg,--,--,65,76
Amino Acids
Other
Ingredients
"ORGANIC MILK, ORGANIC CREAM, ORGANIC EVAPORATED CANE JUICE, ORGANIC EGG YOLKS, ORGANIC NONFAT MILK, ORGANIC VANILLA EXTRACT." Date available: 07/14/2017 Date last updated by company: 07/14/2017
