Source: USDA Branded Food Products Database Release December 2017 Software v.3.8.6.4 2017-10-02
Report Run at: December 18, 2017 16:09 EST
"Nutrient data for: 45141229, TIC TAC, FLAVORED MINTS, BERRY CHERRY, UPC: 009800056354"
Food Group:  Branded Food Products Database
Common Name:

Nutrient,Unit,Data points,Std. Error,"1 PIECE = 0.49g",1Value per 100 g,
Proximates
"Energy",kcal,--,--,2,388
"Protein",g,--,--,0.00,0.00
"Total lipid (fat)",g,--,--,0.00,0.00
"Carbohydrate, by difference",g,--,--,0.00,0.00
"Sugars, total",g,--,--,0.00,0.00
Minerals
"Sodium, Na",mg,--,--,0,0
Vitamins
Lipids
Amino Acids
Other
Ingredients
"SUGAR, MALTODEXTRIN, TARTARIC ACID, GUM ARABIC, RICE STARCH, MALIC ACID, NATURAL AND ARTIFICIAL FLAVORS, MAGNESIUM STEARATE, FRUCTOSE, CITRIC ACID, BEET POWDER, DRIED STRAWBERRY, DRIED LEMON JUICE, CARNAUBA WAX, RED 40." Date available: 07/14/2017 Date last updated by company: 07/14/2017
