Source: USDA Branded Food Products Database Release December 2017 Software v.3.8.6.4 2017-10-02
Report Run at: December 18, 2017 16:11 EST
"Nutrient data for: 45314912, TIGER SPICE CHAI, UPC: 658564257288"
Food Group:  Branded Food Products Database
Common Name:

Nutrient,Unit,Data points,Std. Error,"28.0 GRM = 28.0g",1Value per 100 g,
Proximates
"Energy",kcal,--,--,120,429
"Protein",g,--,--,1.00,3.57
"Total lipid (fat)",g,--,--,3.00,10.71
"Carbohydrate, by difference",g,--,--,21.00,75.00
"Fiber, total dietary",g,--,--,0.0,0.0
"Sugars, total",g,--,--,18.00,64.29
Minerals
"Calcium, Ca",mg,--,--,50,179
"Iron, Fe",mg,--,--,0.00,0.00
"Potassium, K",mg,--,--,117,418
"Sodium, Na",mg,--,--,25,89
Vitamins
"Vitamin C, total ascorbic acid",mg,--,--,0.0,0.0
"Vitamin A, IU",IU,--,--,0,0
Lipids
"Fatty acids, total saturated",g,--,--,1.999,7.140
"Fatty acids, total trans",g,--,--,0.000,0.000
"Cholesterol",mg,--,--,0,0
Amino Acids
Other
Ingredients
"CANE SUGAR, COCONUT OIL, CORN SYRUP SOLIDS, HONEY GRANULES, BLACK TEA POWDER (4%), SODIUM CASEINATE (A MILK DERIVATIVE), NATURAL FLAVORS, GROUND CINNAMON, NATURAL SPICE BLEND, EMULSIFIER (MONO- AND DIGLYCERIDES), STABILIZER (DIPOTASSIUM PHOSPHATE), EMULSIFIER (SOY LECITHIN)." Date available: 07/14/2017 Date last updated by company: 07/14/2017
