Source: USDA Branded Food Products Database Release December 2017 Software v.3.8.6.4 2017-10-02
Report Run at: December 18, 2017 16:13 EST
"Nutrient data for: 45194202, TILAPIA SAVORY FUSION, UPC: 15292219436"
Food Group:  Branded Food Products Database
Common Name:

Nutrient,Unit,Data points,Std. Error,"1 FILLET = 142.0g",1Value per 100 g,
Proximates
"Energy",kcal,--,--,180,127
"Protein",g,--,--,23.00,16.20
"Total lipid (fat)",g,--,--,7.00,4.93
"Carbohydrate, by difference",g,--,--,5.00,3.52
"Fiber, total dietary",g,--,--,1.0,0.7
"Sugars, total",g,--,--,0.99,0.70
Minerals
"Calcium, Ca",mg,--,--,20,14
"Iron, Fe",mg,--,--,0.65,0.46
"Sodium, Na",mg,--,--,371,261
Vitamins
"Vitamin C, total ascorbic acid",mg,--,--,2.8,2.0
"Vitamin A, IU",IU,--,--,60,42
Lipids
"Fatty acids, total saturated",g,--,--,1.505,1.060
"Fatty acids, total trans",g,--,--,0.000,0.000
"Cholesterol",mg,--,--,55,39
Amino Acids
Other
Ingredients
"TILAPIA, WATER, OLIVE OIL BLEND (CANOLA OIL AND OLIVE OIL), LIME JUICE (CONCENTRATE LIME JUICE, WATER, SODIUM BENZOATE (PRESERVATIVE), LIME OIL, SODIUM METABISULFITE (PRESERVATIVE)), DEHYDRATED TOMATO, SODIUM DIACETATE, DEHYDRATED GARLIC, BALSAMIC VINEGAR POWDER (BALSAMIC VINEGAR, MALTODEXTRIN), SALT, DEHYDRATED SHALLOTS, MODIFIED FOOD STARCH, MALTODEXTRIN, DEHYDRATED GREEN ONION, SPICES, NATURAL FLAVORS, DEHYDRATED RED AND GREEN BELL PEPPER, SUGAR (INCLUDING HONEY), DEHYDRATED SUN DRIED TOMATO, SESAME SEED OIL, SESAME SEEDS, DEHYDRATED PARSLEY, DEHYDRATED LEMON PEEL." Date available: 07/14/2017 Date last updated by company: 07/14/2017
