Source: USDA Branded Food Products Database Release December 2017 Software v.3.8.6.4 2017-10-02
Report Run at: December 18, 2017 16:13 EST
"Nutrient data for: 45194158, TILAPIA FILLET, UPC: 015292219221"
Food Group:  Branded Food Products Database
Common Name:

Nutrient,Unit,Data points,Std. Error,"1 FILLET = 142.0g",1Value per 100 g,
Proximates
"Energy",kcal,--,--,250,176
"Protein",g,--,--,23.00,16.20
"Total lipid (fat)",g,--,--,17.00,11.97
"Carbohydrate, by difference",g,--,--,2.00,1.41
"Fiber, total dietary",g,--,--,0.0,0.0
"Sugars, total",g,--,--,0.99,0.70
Minerals
"Calcium, Ca",mg,--,--,20,14
"Iron, Fe",mg,--,--,0.65,0.46
"Sodium, Na",mg,--,--,339,239
Vitamins
"Vitamin C, total ascorbic acid",mg,--,--,1.4,1.0
"Vitamin A, IU",IU,--,--,0,0
Lipids
"Fatty acids, total saturated",g,--,--,2.002,1.410
"Fatty acids, total trans",g,--,--,0.000,0.000
"Cholesterol",mg,--,--,55,39
Amino Acids
Other
Ingredients
"TILAPIA, OLIVE OIL BLEND (CANOLA OIL AND OLIVE OIL), WATER, BLACK PEPPER, SALT, SUGAR, DEHYDRATED LEMON PEEL, DEHYDRATED GARLIC, DEHYDRATED ONION, HERBS, SPICES, CITRIC ACID, MODIFIED FOOD STARCH AND NATURAL LEMON FLAVOR." Date available: 07/14/2017 Date last updated by company: 07/14/2017
