Source: USDA Branded Food Products Database Release December 2017 Software v.3.8.6.4 2017-10-02
Report Run at: December 18, 2017 16:13 EST
"Nutrient data for: 45165772, TILIKO, ZUMBA PICA CANDY BITES, TAMARIND & MANGO, UPC: 703885065422"
Food Group:  Branded Food Products Database
Common Name:

Nutrient,Unit,Data points,Std. Error,"1 PIECE = 12.0g",1Value per 100 g,
Proximates
"Energy",kcal,--,--,45,375
"Protein",g,--,--,0.00,0.00
"Total lipid (fat)",g,--,--,0.00,0.00
"Carbohydrate, by difference",g,--,--,11.00,91.67
"Sugars, total",g,--,--,10.00,83.33
Minerals
"Sodium, Na",mg,--,--,60,500
Vitamins
Lipids
Amino Acids
Other
Ingredients
"SUGAR, TEJOCOTE, CORN SYRUP, DEXTROSE, WATER, MALTODEXTRIN, IODIZED SALT, CITRIC ACID, CHILI POWDER, ARABIC GUM, XANTHAN GUM, SODIUM TRIPOLYPHOSPHATE, SODIUM ACID PYROPHOSPHATE, PRESERVATIVES (SODIUM BENZOATE AND POTASSIUM SORBATE), ARTIFICIAL FLAVORING, RED 40, YELLOW 6, YELLOW 5, CARAMEL COLOR, TITANIUM DIOXIDE, CARNAUBA WAX AND SHELLAC." Date available: 07/14/2017 Date last updated by company: 07/14/2017
