Source: USDA Branded Food Products Database Release December 2017 Software v.3.8.6.4 2017-10-02
Report Run at: December 18, 2017 16:16 EST
"Nutrient data for: 45227685, TILLAMOOK, ICE CREAM, STUMPTOWN COLD BREW COFFEE, UPC: 072830075084"
Food Group:  Branded Food Products Database
Common Name:

Nutrient,Unit,Data points,Std. Error,"0.5 cup = 98.0g",1Value per 100 g,
Proximates
"Energy",kcal,--,--,210,214
"Protein",g,--,--,3.00,3.06
"Total lipid (fat)",g,--,--,14.00,14.29
"Carbohydrate, by difference",g,--,--,19.00,19.39
"Fiber, total dietary",g,--,--,0.0,0.0
"Sugars, total",g,--,--,19.00,19.39
Minerals
"Calcium, Ca",mg,--,--,100,102
"Iron, Fe",mg,--,--,0.00,0.00
"Sodium, Na",mg,--,--,45,46
Vitamins
"Vitamin C, total ascorbic acid",mg,--,--,0.0,0.0
"Vitamin A, IU",IU,--,--,450,459
Lipids
"Fatty acids, total saturated",g,--,--,8.996,9.180
"Fatty acids, total trans",g,--,--,0.000,0.000
"Cholesterol",mg,--,--,40,41
Amino Acids
Other
Ingredients
"CREAM, SKIM MILK, SUGAR, COFFEE, LOCUST BEAN GUM, GUAR GUM." Date available: 07/14/2017 Date last updated by company: 07/14/2017
