Source: USDA Branded Food Products Database Release December 2017 Software v.3.8.6.4 2017-10-02
Report Run at: December 18, 2017 16:23 EST
"Nutrient data for: 45143457, TIPTON GROVE, JUICE COCKTAIL, GRAPE, CRANBERRY, UPC: 051933052208"
Food Group:  Branded Food Products Database
Common Name:

Nutrient,Unit,Data points,Std. Error,"8.0 OZA = 240.0g",1Value per 100 g,
Proximates
"Energy",kcal,--,--,120,50
"Protein",g,--,--,0.00,0.00
"Total lipid (fat)",g,--,--,0.00,0.00
"Carbohydrate, by difference",g,--,--,31.01,12.92
"Sugars, total",g,--,--,31.01,12.92
Minerals
"Sodium, Na",mg,--,--,79,33
Vitamins
"Vitamin C, total ascorbic acid",mg,--,--,60.0,25.0
Lipids
Amino Acids
Other
Ingredients
"FILTERED WATER, GRAPE JUICE CONCENTRATE, CANE OR BEET SUGAR, CRANBERRY JUICE (CRANBERRY JUICE FROM CONCENTRATE AND CRANBERRY JUICE), CARROT JUICE CONCENTRATE, FUMARIC ACID, NATURAL FLAVORS, SODIUM CITRATE, ASCORBIC ACID (VITAMIN C), CITRIC ACID." Date available: 07/14/2017 Date last updated by company: 07/14/2017
