Source: USDA Branded Food Products Database Release December 2017 Software v.3.8.6.4 2017-10-02
Report Run at: December 18, 2017 16:24 EST
"Nutrient data for: 45268764, TIRAMISU, UPC: 813377025176"
Food Group:  Branded Food Products Database
Common Name:

Nutrient,Unit,Data points,Std. Error,"0.5 SLICE = 67.0g",1Value per 100 g,
Proximates
"Energy",kcal,--,--,210,313
"Protein",g,--,--,3.00,4.48
"Total lipid (fat)",g,--,--,15.00,22.39
"Carbohydrate, by difference",g,--,--,17.00,25.37
"Fiber, total dietary",g,--,--,2.0,3.0
"Sugars, total",g,--,--,12.00,17.91
Minerals
"Calcium, Ca",mg,--,--,40,60
"Iron, Fe",mg,--,--,0.59,0.88
"Sodium, Na",mg,--,--,55,82
Vitamins
"Vitamin C, total ascorbic acid",mg,--,--,0.0,0.0
"Vitamin A, IU",IU,--,--,0,0
Lipids
"Fatty acids, total saturated",g,--,--,8.000,11.940
"Fatty acids, total trans",g,--,--,0.000,0.000
"Cholesterol",mg,--,--,0,0
Amino Acids
Other
Ingredients
"ALMOND MILK* (WATER, ALMONDS*), COCONUT MILK* (WATER, SHREDDED COCONUT*,), ALMONDS FLOUR*, DATES*, COCONUT OIL*, CASHEWS*, COCONUT NECTAR*, DATE SYRUP*, VANILLA EXTRACT*, CACAO POWDER*, SUNFLOWER LECITHIN, IRISH MOSS, ESPRESSO, HIMALAYAN PINK SALT." Date available: 07/14/2017 Date last updated by company: 07/14/2017
