Source: USDA Branded Food Products Database Release December 2017 Software v.3.8.6.4 2017-10-02
Report Run at: December 18, 2017 16:23 EST
"Nutrient data for: 45260240, TIRAMISU COOKIE SANDWICH MIX, UPC: 085239144787"
Food Group:  Branded Food Products Database
Common Name:

Nutrient,Unit,Data points,Std. Error,"0.083 DRY MIX = 46.0g",1Value per 100 g,
Proximates
"Energy",kcal,--,--,170,370
"Protein",g,--,--,2.00,4.35
"Total lipid (fat)",g,--,--,0.00,0.00
"Carbohydrate, by difference",g,--,--,40.00,86.96
"Fiber, total dietary",g,--,--,0.0,0.0
"Sugars, total",g,--,--,27.00,58.70
Minerals
"Calcium, Ca",mg,--,--,20,43
"Iron, Fe",mg,--,--,0.63,1.36
"Sodium, Na",mg,--,--,115,250
Vitamins
"Vitamin C, total ascorbic acid",mg,--,--,0.0,0.0
"Vitamin A, IU",IU,--,--,0,0
Lipids
"Fatty acids, total saturated",g,--,--,0.000,0.000
"Fatty acids, total trans",g,--,--,0.000,0.000
"Cholesterol",mg,--,--,0,0
Amino Acids
Other
Ingredients
"COOKIE MIX: ENRICHED WHEAT FLOUR (BLEACHED WHEAT FLOUR, ENZYME, NIACIN, IRON, THIAMIN MONONITRATE, RIBOFLAVIN, FOLIC ACID), SUGAR, NATURAL VANILLA FLAVOR, SALT, BAKING POWDER (SODIUM ACID PYROPHOSPHATE, SODIUM BICARBONATE, CORN STARCH, MONOCALCIUM PHOSPHATE). COCOA DUSTING MIX: SUGAR, WHEY POWDER,NON FAT DRY MILK, ALKALIZED COCOA POWDER, SALT, NATURAL VANILLA FLAVOR WITH OTHER NATURAL FLAVORS, TRICALCIUM PHOSPHATE. TIRAMISU FILLING: POWDERED SUGAR (SUGAR, CORN STARCH), NONFAT DRY MILK, MOCHA ICED COFFEE FLAVOR, TIRAMISU FLAVOR, TRES LECHES FLAVOR." Date available: 07/14/2017 Date last updated by company: 07/14/2017
