Source: USDA Branded Food Products Database Release December 2017 Software v.3.8.6.4 2017-10-02
Report Run at: December 18, 2017 16:24 EST
"Nutrient data for: 45154397, TNYU, CHAI TEA, UPC: 856476005915"
Food Group:  Branded Food Products Database
Common Name:

Nutrient,Unit,Data points,Std. Error,"1 GRM = 1.0g",1Value per 100 g,
Proximates
"Total lipid (fat)",g,--,--,0.00,0.00
"Carbohydrate, by difference",g,--,--,0.00,0.00
Minerals
"Sodium, Na",mg,--,--,0,0
Vitamins
Lipids
Amino Acids
Other
Ingredients
"SPICY FLAVORED BLACK TEA" Date available: 07/14/2017 Date last updated by company: 07/14/2017
