Source: USDA Branded Food Products Database Release December 2017 Software v.3.8.6.4 2017-10-02
Report Run at: December 18, 2017 17:39 EST
"Nutrient data for: 45217839, TO GO CLAM CHOWDER, UPC: 20043001"
Food Group:  Branded Food Products Database
Common Name:

Nutrient,Unit,Data points,Std. Error,"1 CONTAINER = 312.0g",1Value per 100 g,
Proximates
"Energy",kcal,--,--,409,131
"Protein",g,--,--,12.01,3.85
"Total lipid (fat)",g,--,--,31.01,9.94
"Carbohydrate, by difference",g,--,--,22.00,7.05
"Fiber, total dietary",g,--,--,0.9,0.3
"Sugars, total",g,--,--,5.99,1.92
Minerals
"Calcium, Ca",mg,--,--,150,48
"Iron, Fe",mg,--,--,2.12,0.68
"Sodium, Na",mg,--,--,811,260
Vitamins
"Vitamin C, total ascorbic acid",mg,--,--,4.7,1.5
"Vitamin A, IU",IU,--,--,1179,378
Lipids
"Fatty acids, total saturated",g,--,--,19.001,6.090
"Fatty acids, total trans",g,--,--,0.998,0.320
"Cholesterol",mg,--,--,144,46
Amino Acids
Other
Ingredients
"WATER, CREAM, MILK, POTATO, CLAM, CELERY, ONION, CLAM JUICE (CLAM JUICE, SALT), CORN STARCH, UNSALTED BUTTER (CREAM, NATURAL FLAVOR), BACON TOPPING (PORK, CURED WITH WATER, SALT, SUGAR, SODIUM PHOSPHATE, SODIUM DIACETATE, DEXTROSE, SODIUM ERYTHORBATE, SODIUM NITRITE, SMOKE FLAVORING), SALT, THYME, BLACK PEPPER, CAYENNE PEPPER, BAY LEAF." Date available: 07/14/2017 Date last updated by company: 07/14/2017
