Source: USDA Branded Food Products Database Release December 2017 Software v.3.8.6.4 2017-10-02
Report Run at: December 18, 2017 16:33 EST
"Nutrient data for: 45323180, TOASTED COCONUT MILK CHOCOLATE, UPC: 052548599928"
Food Group:  Branded Food Products Database
Common Name:

Nutrient,Unit,Data points,Std. Error,"1 BAR = 50.0g",1Value per 100 g,
Proximates
"Energy",kcal,--,--,270,540
"Protein",g,--,--,3.00,6.00
"Total lipid (fat)",g,--,--,16.00,32.00
"Carbohydrate, by difference",g,--,--,28.00,56.00
"Fiber, total dietary",g,--,--,2.0,4.0
"Sugars, total",g,--,--,27.00,54.00
Minerals
"Calcium, Ca",mg,--,--,80,160
"Iron, Fe",mg,--,--,1.08,2.16
"Sodium, Na",mg,--,--,35,70
Vitamins
"Vitamin C, total ascorbic acid",mg,--,--,0.0,0.0
"Vitamin A, IU",IU,--,--,0,0
Lipids
"Fatty acids, total saturated",g,--,--,10.000,20.000
"Fatty acids, total trans",g,--,--,0.000,0.000
"Cholesterol",mg,--,--,10,20
Amino Acids
Other
Ingredients
"MILK CHOCOLATE (SUGAR, COCOA BUTTER, COCOA MASS, WHOLE MILK POWDER, SOY LECITHIN [EMULSIFIER], NATURAL VANILLA EXTRACT), TOASTED COCONUT (COCONUT, SUGAR, SALT)." Date available: 07/14/2017 Date last updated by company: 07/14/2017
