Source: USDA Branded Food Products Database Release December 2017 Software v.3.8.6.4 2017-10-02
Report Run at: December 18, 2017 17:29 EST
"Nutrient data for: 45193820, TOASTER PASTRIES, UPC: 021130501717"
Food Group:  Branded Food Products Database
Common Name:

Nutrient,Unit,Data points,Std. Error,"1 PASTRY = 52.0g",1Value per 100 g,
Proximates
"Energy",kcal,--,--,210,404
"Protein",g,--,--,3.00,5.77
"Total lipid (fat)",g,--,--,5.00,9.62
"Carbohydrate, by difference",g,--,--,38.00,73.08
"Fiber, total dietary",g,--,--,1.0,1.9
"Sugars, total",g,--,--,18.00,34.62
Minerals
"Calcium, Ca",mg,--,--,0,0
"Iron, Fe",mg,--,--,3.81,7.32
"Sodium, Na",mg,--,--,180,346
Vitamins
"Vitamin C, total ascorbic acid",mg,--,--,0.0,0.0
"Thiamin",mg,--,--,0.000,0.000
"Riboflavin",mg,--,--,0.170,0.327
"Niacin",mg,--,--,2.116,4.069
"Vitamin B-6",mg,--,--,0.212,0.407
"Vitamin A, IU",IU,--,--,1058,2034
Lipids
"Fatty acids, total saturated",g,--,--,2.002,3.850
"Fatty acids, total monounsaturated",g,--,--,2.002,3.850
"Fatty acids, total polyunsaturated",g,--,--,0.499,0.960
"Fatty acids, total trans",g,--,--,0.000,0.000
"Cholesterol",mg,--,--,0,0
Amino Acids
Other
Ingredients
"ENRICHED WHEAT FLOUR (WHEAT FLOUR, NIACIN, REDUCED IRON, THIAMINE MONONITRATE [VITAMIN B1], RIBOFLAVIN, [VITAMIN B2], FOLIC ACID), HIGH FRUCTOSE CORN SYRUP, CORN SYRUP, SUGAR, PALM OIL, WHOLE WHEAT FLOUR, BROWN SUGAR, WHEY PERMEATE, DEXTROSE MODIFIED CORN STARCH, COCOA PROCESSED WITH ALKALI, COLOR ADDED (INCLUDES RED 40), SALT, PRECOOKED YELLOW CORN MEAL, LEAVENING (BAKING SODA, SODIUM ALUMINUM PHOSPHATE), SOY LECITHIN, WHEAT GLUTEN, SORBITOL, NATURAL AND ARTIFICIAL FLAVORS, POTASSIUM SORBATE (A PRESERVATIVE), GELATIN, MODIFIED SOY PROTEIN, VITAMIN A PALMITATE, REDUCED IRON, NIACINAMIDE, PYRIDOXINE HYDROCHLORIDE (VITAMIN B6), RIBOFLAVIN (VITAMIN B2), THIAMINE MONONITRATE (VITAMIN B1)." Date available: 07/14/2017 Date last updated by company: 07/14/2017
