Source: USDA Branded Food Products Database Release December 2017 Software v.3.8.6.4 2017-10-02
Report Run at: December 18, 2017 17:26 EST
"Nutrient data for: 45180506, TOASTED SESAME BROWN RICE & CHICKPEA CRACKERS, UPC: 853358000969"
Food Group:  Branded Food Products Database
Common Name:

Nutrient,Unit,Data points,Std. Error,"15.0 CRACKERS = 30.0g",1Value per 100 g,
Proximates
"Energy",kcal,--,--,130,433
"Protein",g,--,--,3.00,10.00
"Total lipid (fat)",g,--,--,3.50,11.67
"Carbohydrate, by difference",g,--,--,22.00,73.33
"Fiber, total dietary",g,--,--,2.0,6.7
"Sugars, total",g,--,--,0.00,0.00
Minerals
"Calcium, Ca",mg,--,--,40,133
"Iron, Fe",mg,--,--,1.80,6.00
"Sodium, Na",mg,--,--,115,383
Vitamins
"Vitamin C, total ascorbic acid",mg,--,--,0.0,0.0
"Vitamin A, IU",IU,--,--,0,0
Lipids
"Fatty acids, total saturated",g,--,--,0.000,0.000
"Fatty acids, total trans",g,--,--,0.000,0.000
"Cholesterol",mg,--,--,0,0
Amino Acids
Other
Ingredients
"ORGANIC BROWN RICE FLOUR, ORGANIC CHICKPEA FLOUR, ORGANIC WHITE RICE FLOUR, ORGANIC SESAME SEED, ORGANIC TAPIOCA STARCH, ORGANIC SUNFLOWER OIL, SALT, ORGANIC TOASTED SESAME OIL." Date available: 07/14/2017 Date last updated by company: 07/14/2017
