Source: USDA Branded Food Products Database Release December 2017 Software v.3.8.6.4 2017-10-02
Report Run at: December 18, 2017 17:25 EST
"Nutrient data for: 45151490, TOASTED PECAN SOFT CARAMELS CANDY, UPC: 041260376405"
Food Group:  Branded Food Products Database
Common Name:

Nutrient,Unit,Data points,Std. Error,"3.0 CARAMELS = 36.0g",1Value per 100 g,
Proximates
"Energy",kcal,--,--,130,361
"Protein",g,--,--,0.00,0.00
"Total lipid (fat)",g,--,--,6.00,16.67
"Carbohydrate, by difference",g,--,--,21.00,58.33
"Fiber, total dietary",g,--,--,0.0,0.0
"Sugars, total",g,--,--,15.00,41.67
Minerals
"Calcium, Ca",mg,--,--,20,56
"Iron, Fe",mg,--,--,0.00,0.00
"Sodium, Na",mg,--,--,45,125
Vitamins
"Vitamin C, total ascorbic acid",mg,--,--,0.0,0.0
"Vitamin A, IU",IU,--,--,278,772
Lipids
"Fatty acids, total saturated",g,--,--,3.499,9.720
"Fatty acids, total trans",g,--,--,0.000,0.000
"Cholesterol",mg,--,--,15,42
Amino Acids
Other
Ingredients
"SUGAR, BROWN SUGAR, CORN SYRUP, SWEETENED CONDENSED MILK, CREAM, BUTTER, PECANS, VANILLA EXTRACT, SALT, SOY LECITHIN, NATURAL FLAVORING." Date available: 07/14/2017 Date last updated by company: 07/14/2017
