Source: USDA Branded Food Products Database Release December 2017 Software v.3.8.6.4 2017-10-02
Report Run at: December 18, 2017 17:26 EST
"Nutrient data for: 45204828, TOASTED ROLLS, UPC: 8410087232515"
Food Group:  Branded Food Products Database
Common Name:

Nutrient,Unit,Data points,Std. Error,"11.0 PIECES = 14.5g",1Value per 100 g,
Proximates
"Energy",kcal,--,--,73,503
"Protein",g,--,--,1.30,8.97
"Total lipid (fat)",g,--,--,3.60,24.83
"Carbohydrate, by difference",g,--,--,8.60,59.31
"Fiber, total dietary",g,--,--,0.5,3.4
"Sugars, total",g,--,--,0.60,4.14
Minerals
"Calcium, Ca",mg,--,--,0,0
"Iron, Fe",mg,--,--,0.00,0.00
"Sodium, Na",mg,--,--,160,1103
Vitamins
"Vitamin C, total ascorbic acid",mg,--,--,0.0,0.0
"Vitamin A, IU",IU,--,--,0,0
Lipids
"Fatty acids, total saturated",g,--,--,1.401,9.660
"Cholesterol",mg,--,--,0,0
Amino Acids
Other
Ingredients
"WHEAT FLOUR, PALM OIL, EXTRA VIRGIN OLIVE OIL (5%) SUGAR, YEAST, MALT EXTRACT, SALT, GARLIC (0.5%), PARSLEY (0.2%) AND FLOUR TREATMENT AGENT: ASCORBIC ACID." Date available: 07/14/2017 Date last updated by company: 07/14/2017
