Source: USDA Branded Food Products Database Release December 2017 Software v.3.8.6.4 2017-10-02
Report Run at: December 18, 2017 16:35 EST
"Nutrient data for: 45218726, TOASTED CRUMB BREADED TILAPIA, UPC: 073129972725"
Food Group:  Branded Food Products Database
Common Name:

Nutrient,Unit,Data points,Std. Error,"1 PORTION = 113.0g",1Value per 100 g,
Proximates
"Energy",kcal,--,--,280,248
"Protein",g,--,--,18.00,15.93
"Total lipid (fat)",g,--,--,17.00,15.04
"Carbohydrate, by difference",g,--,--,12.00,10.62
"Fiber, total dietary",g,--,--,0.0,0.0
"Sugars, total",g,--,--,0.00,0.00
Minerals
"Calcium, Ca",mg,--,--,20,18
"Iron, Fe",mg,--,--,0.81,0.72
"Sodium, Na",mg,--,--,560,496
Vitamins
"Vitamin C, total ascorbic acid",mg,--,--,0.0,0.0
"Vitamin A, IU",IU,--,--,0,0
Lipids
"Fatty acids, total saturated",g,--,--,1.503,1.330
"Fatty acids, total trans",g,--,--,0.000,0.000
"Cholesterol",mg,--,--,40,35
Amino Acids
Other
Ingredients
"TILAPIA (CO-TREATED), BREADING (WHEAT FLOUR, CANOLA OIL, SUGAR, YEAST, SALT), CANOLA OIL, PREDUST {ENRICHED WHEAT FLOUR (ENRICHED WITH NIACIN, REDUCED IRON, THIAMINE MONONITRATE, RIBOFLAVIN, FOLIC ACID), SALT, EGG WHITES, CORN STARCH, YEAST EXTRACT, LEMON FLAVOR (SUGAR, MALTODEXTRIN, NATURAL FLAVOR, SOY LECITHIN), SPICES, CORN SYRUP SOLIDS, GARLIC POWDER, CANOLA OIL, MALTODEXTRIN, CITRIC ACID, GUM ARABIC, NATURAL FLAVOR, SUGAR, FLAVOR [SOY SAUCE SOLIDS (WHEAT AND SOYBEAN, SALT, MALTODEXTRIN, CARAMEL COLOR), TAMARIND AND NATURAL FLAVOR]}." Date available: 07/14/2017 Date last updated by company: 07/14/2017
