Source: USDA Branded Food Products Database Release December 2017 Software v.3.8.6.4 2017-10-02
Report Run at: December 18, 2017 16:25 EST
"Nutrient data for: 45269573, TOASTED COCONUT CHIPS, PREMIUM SNACK, UPC: 859614003163"
Food Group:  Branded Food Products Database
Common Name:

Nutrient,Unit,Data points,Std. Error,"0.5 BAG = 20.0g",1Value per 100 g,
Proximates
"Energy",kcal,--,--,120,600
"Protein",g,--,--,1.00,5.00
"Total lipid (fat)",g,--,--,8.00,40.00
"Carbohydrate, by difference",g,--,--,10.00,50.00
"Fiber, total dietary",g,--,--,3.0,15.0
"Sugars, total",g,--,--,5.00,25.00
Minerals
"Calcium, Ca",mg,--,--,0,0
"Iron, Fe",mg,--,--,1.44,7.20
"Sodium, Na",mg,--,--,40,200
Vitamins
"Vitamin C, total ascorbic acid",mg,--,--,0.0,0.0
"Vitamin A, IU",IU,--,--,0,0
Lipids
"Fatty acids, total saturated",g,--,--,7.000,35.000
"Fatty acids, total trans",g,--,--,0.000,0.000
"Cholesterol",mg,--,--,0,0
Amino Acids
Other
Ingredients
"COCONUT MEAT, COCONUT SUGAR, COCOA POWDER, SALT" Date available: 07/14/2017 Date last updated by company: 07/14/2017
