Source: USDA Branded Food Products Database Release December 2017 Software v.3.8.6.4 2017-10-02
Report Run at: December 18, 2017 17:27 EST
"Nutrient data for: 45035315, TOASTED SOY SPREAD, UPC: 773948201012"
Food Group:  Branded Food Products Database
Common Name:

Nutrient,Unit,Data points,Std. Error,"2.0 Tbsp = 32.0g",1Value per 100 g,
Proximates
"Energy",kcal,--,--,200,625
"Protein",g,--,--,7.00,21.88
"Total lipid (fat)",g,--,--,15.00,46.88
"Carbohydrate, by difference",g,--,--,8.00,25.00
"Fiber, total dietary",g,--,--,4.0,12.5
"Sugars, total",g,--,--,4.00,12.50
Minerals
"Calcium, Ca",mg,--,--,20,62
"Iron, Fe",mg,--,--,1.82,5.70
"Sodium, Na",mg,--,--,100,312
Vitamins
"Vitamin C, total ascorbic acid",mg,--,--,0.0,0.0
"Vitamin A, IU",IU,--,--,0,0
Lipids
"Fatty acids, total saturated",g,--,--,3.002,9.380
"Fatty acids, total monounsaturated",g,--,--,3.002,9.380
"Fatty acids, total polyunsaturated",g,--,--,8.998,28.120
"Fatty acids, total trans",g,--,--,0.000,0.000
"Cholesterol",mg,--,--,0,0
Amino Acids
Other
Ingredients
"WHOLE TOASTED SOY, SOY OIL, GRANULATED CANE SUGAR, MONOGLYCERIDE (FROM SUSTAINABLE PALM OIL), SEA SALT" Date available: 07/14/2017 Date last updated by company: 07/14/2017
