Source: USDA Branded Food Products Database Release December 2017 Software v.3.8.6.4 2017-10-02
Report Run at: December 18, 2017 17:29 EST
"Nutrient data for: 45077749, TOASTER PASTRIES, UPC: 741643021075"
Food Group:  Branded Food Products Database
Common Name:

Nutrient,Unit,Data points,Std. Error,"1 PASTRY = 52.0g",1Value per 100 g,
Proximates
"Energy",kcal,--,--,200,385
"Protein",g,--,--,2.00,3.85
"Total lipid (fat)",g,--,--,5.00,9.62
"Carbohydrate, by difference",g,--,--,37.00,71.15
"Fiber, total dietary",g,--,--,1.0,1.9
"Sugars, total",g,--,--,16.00,30.77
Minerals
"Calcium, Ca",mg,--,--,0,0
"Iron, Fe",mg,--,--,3.81,7.32
"Sodium, Na",mg,--,--,180,346
Vitamins
"Vitamin C, total ascorbic acid",mg,--,--,0.0,0.0
"Thiamin",mg,--,--,0.000,0.000
"Riboflavin",mg,--,--,0.170,0.327
"Niacin",mg,--,--,2.116,4.069
"Vitamin B-6",mg,--,--,0.212,0.407
"Vitamin A, IU",IU,--,--,1058,2034
Lipids
"Fatty acids, total saturated",g,--,--,2.002,3.850
"Fatty acids, total trans",g,--,--,0.000,0.000
"Cholesterol",mg,--,--,0,0
Amino Acids
Other
Ingredients
"WATER, HIGH FRUCTOSE CORN SYRUP, PHOSPHORIC ACID, ROOBOS TEA POWDER, NATURAL FLAVORS, POTASSIUM SORBATE (PRESERVE FRESHNESS), SODIUM BENZOATE (PRESERVE FRESHNESS), CITRIC ACID, SUCRALOSE, TEA POWDER, CALCIUM EDTA." Date available: 06/24/2017 Date last updated by company: 06/24/2017
