Source: USDA Branded Food Products Database Release December 2017 Software v.3.8.6.4 2017-10-02
Report Run at: December 18, 2017 17:34 EST
"Nutrient data for: 45221027, TOFFEE CRUNCH, UPC: 602348668005"
Food Group:  Branded Food Products Database
Common Name:

Nutrient,Unit,Data points,Std. Error,"0.5 CUP | ABOUT = 28.0g",1Value per 100 g,
Proximates
"Energy",kcal,--,--,150,536
"Protein",g,--,--,3.00,10.71
"Total lipid (fat)",g,--,--,8.00,28.57
"Carbohydrate, by difference",g,--,--,21.00,75.00
"Fiber, total dietary",g,--,--,2.0,7.1
"Sugars, total",g,--,--,13.00,46.43
Minerals
"Calcium, Ca",mg,--,--,40,143
"Iron, Fe",mg,--,--,0.64,2.29
"Sodium, Na",mg,--,--,50,179
Vitamins
"Vitamin C, total ascorbic acid",mg,--,--,0.0,0.0
"Vitamin A, IU",IU,--,--,0,0
Lipids
"Fatty acids, total saturated",g,--,--,6.000,21.430
"Fatty acids, total trans",g,--,--,0.000,0.000
"Cholesterol",mg,--,--,10,36
Amino Acids
Other
Ingredients
"POPCORN: CORN, BUTTER, CORN SYRUP, SOY LECITHIN, CORN OIL, POPCORN SALT, SODIUM BICARBONATE, SUGAR, FUDGE COATING: SUGAR, PARTIALLY HYDROGENATED VEGETABLE OIL [PALM KERNEL AND PALM OIL], WHEY POWDER, MILK POWDER, SOY LECITHIN (AN EMULISIFER) AND ARTIFICIAL FLAVOR. WHITE COMPOUND COATING: SUGAR, PARTIALLY HYDROGENATED PALM KERNEL OIL, NONFAT MILK POWDER, SOY LECITHIN [EMULISIFER], MONOGLYCERIDES, ARTIFICIAL COLOR [TITANIUM DIOXIDE], ARTIFICIAL FLAVOR, GRAHAM CRACKERS; ENRICHED FLOUR, WHEAT FLOUR, NIACIN, REDUCED IRON, THIAMINE MONONITRATE, RIBOFALVIN, FOLIC ACID, SUGAR, SOYBEAN OIL, GRAHAM FLOUR, HONEY, CINNAMON, SALT, SOY LECITHIN, LEAVENING (BAKING SODA) AND VANILLA, MARSHMALLOW, CORN SYRUP, SUGAR, DEXTROSE, MODIFIED CORN STARCH, WATER, GELATIN, NATURAL AND ARTIFICIAL FLAVOR, TETRASODIUM PYROPHOSPHATE, BLUE 1. ARTIFICIAL FLAVOR." Date available: 07/14/2017 Date last updated by company: 07/14/2017
