Source: USDA Branded Food Products Database Release December 2017 Software v.3.8.6.4 2017-10-02
Report Run at: December 18, 2017 17:36 EST
"Nutrient data for: 45144021, TOFFE, TOFFEE KRUNCH, UPC: 075450222326"
Food Group:  Branded Food Products Database
Common Name:

Nutrient,Unit,Data points,Std. Error,"1 ONZ = 30.0g",1Value per 100 g,
Proximates
"Energy",kcal,--,--,300,1000
"Protein",g,--,--,2.00,6.67
"Total lipid (fat)",g,--,--,22.00,73.33
"Carbohydrate, by difference",g,--,--,24.00,80.00
"Fiber, total dietary",g,--,--,1.0,3.3
"Sugars, total",g,--,--,20.00,66.67
Minerals
"Calcium, Ca",mg,--,--,20,67
"Iron, Fe",mg,--,--,0.60,2.00
"Sodium, Na",mg,--,--,190,633
Vitamins
"Vitamin C, total ascorbic acid",mg,--,--,0.0,0.0
"Vitamin A, IU",IU,--,--,833,2778
Lipids
"Fatty acids, total saturated",g,--,--,12.999,43.330
"Fatty acids, total trans",g,--,--,0.999,3.330
"Cholesterol",mg,--,--,45,150
Amino Acids
Other
Ingredients
"BUTTER (CREAM, SALT), SUGAR, ALMONDS, POPCORN, COCONUT OIL, WHITE CHEDDAR SEASONING (MILK, CHEESE CULTURES, SALT, ENZYMES), ONION AND GARLIC POWDER, WHEY, SOYBEAN OIL, LECITHIN." Date available: 07/14/2017 Date last updated by company: 07/14/2017
