Source: USDA Branded Food Products Database Release December 2017 Software v.3.8.6.4 2017-10-02
Report Run at: December 18, 2017 17:36 EST
"Nutrient data for: 45006619, TOFU BAKED MARINATED BAKED TOFU, UPC: 025484006928"
Food Group:  Branded Food Products Database
Common Name:

Nutrient,Unit,Data points,Std. Error,"1 PIECE = 57.0g",1Value per 100 g,
Proximates
"Energy",kcal,--,--,80,140
"Protein",g,--,--,8.00,14.04
"Total lipid (fat)",g,--,--,4.50,7.89
"Carbohydrate, by difference",g,--,--,2.00,3.51
"Fiber, total dietary",g,--,--,1.0,1.8
"Sugars, total",g,--,--,1.00,1.75
Minerals
"Calcium, Ca",mg,--,--,100,175
"Iron, Fe",mg,--,--,2.15,3.77
"Sodium, Na",mg,--,--,240,421
Vitamins
"Vitamin C, total ascorbic acid",mg,--,--,0.0,0.0
"Vitamin A, IU",IU,--,--,0,0
Lipids
"Fatty acids, total saturated",g,--,--,0.998,1.750
"Fatty acids, total trans",g,--,--,0.000,0.000
"Cholesterol",mg,--,--,0,0
Amino Acids
Other
Ingredients
"WATER, ORGANIC WHOLE SOYBEANS, ORGANIC SOY SAUCE (WATER, ORGANIC SOYBEANS, ORGANIC WHEAT, SALT), ORGANIC CANE SUGAR, NATURAL FLAVORS, NIGARI (SEA WATER EXTRACT), CALCIUM SULFATE, ORGANIC GARLIC POWDER, SALT, ORGANIC VINEGAR, ORGANIC ONION POWDER, ORGANIC CARAMEL COLOR, ORGANIC GINGER POWDER." Date available: 07/14/2017 Date last updated by company: 07/14/2017
