Source: USDA Branded Food Products Database Release December 2017 Software v.3.8.6.4 2017-10-02
Report Run at: December 18, 2017 17:38 EST
"Nutrient data for: 45318198, TOFU SCRAMBLER, UPC: 073825122707"
Food Group:  Branded Food Products Database
Common Name:

Nutrient,Unit,Data points,Std. Error,"1.333 Tbsp = 10.0g",1Value per 100 g,
Proximates
"Energy",kcal,--,--,35,350
"Protein",g,--,--,1.00,10.00
"Total lipid (fat)",g,--,--,0.00,0.00
"Carbohydrate, by difference",g,--,--,7.00,70.00
"Fiber, total dietary",g,--,--,1.0,10.0
"Sugars, total",g,--,--,0.00,0.00
Minerals
"Calcium, Ca",mg,--,--,0,0
"Iron, Fe",mg,--,--,1.80,18.00
"Sodium, Na",mg,--,--,250,2500
Vitamins
"Vitamin C, total ascorbic acid",mg,--,--,18.0,180.0
"Vitamin A, IU",IU,--,--,500,5000
Lipids
"Fatty acids, total saturated",g,--,--,0.000,0.000
"Fatty acids, total monounsaturated",g,--,--,0.000,0.000
"Fatty acids, total polyunsaturated",g,--,--,0.000,0.000
"Fatty acids, total trans",g,--,--,0.000,0.000
"Cholesterol",mg,--,--,0,0
Amino Acids
Other
Ingredients
"PREPARED BARLEY FLAKES, DEHYDRATED POTATO FLAKES, ONION POWDER, SOY SAUCE POWDER (SOY SAUCE [WHEAT, SOYBEANS, SALT], MALTODEXTRIN, SALT), SEA SALT, RICE FLOUR, DEHYDRATED GARLIC, CHILI PEPPER, YEAST EXTRACT, LESS THAN 2% OF ORGANIC EXPELLER PRESSED CANOLA OIL, CELERY POWDER, RED BELL PEPPER POWDER, CUMIN, CELERY SEED, TURMERIC, CHIVES, DEHYDRATED GREEN ONION, BLACK PEPPER, JALAPENO PEPPER POWDER, CORIANDER, GINGER, FENUGREEK, CINNAMON, NUTMEG, RED PEPPER." Date available: 06/25/2017 Date last updated by company: 06/25/2017
