Source: USDA Branded Food Products Database Release December 2017 Software v.3.8.6.4 2017-10-02
Report Run at: December 18, 2017 17:38 EST
"Nutrient data for: 45034750, TOFUTTI, BETTER THAN CREAM CHEESE, FRENCH ONION, UPC: 020188050116"
Food Group:  Branded Food Products Database
Common Name:

Nutrient,Unit,Data points,Std. Error,"2.0 Tbsp = 30.0g",1Value per 100 g,
Proximates
"Energy",kcal,--,--,60,200
"Protein",g,--,--,1.00,3.33
"Total lipid (fat)",g,--,--,5.00,16.67
"Carbohydrate, by difference",g,--,--,2.00,6.67
"Fiber, total dietary",g,--,--,0.0,0.0
"Sugars, total",g,--,--,0.00,0.00
"Lactose",g,--,--,0.00,0.00
Minerals
"Sodium, Na",mg,--,--,120,400
Vitamins
Lipids
"Fatty acids, total saturated",g,--,--,2.001,6.670
"Fatty acids, total trans",g,--,--,0.000,0.000
"Cholesterol",mg,--,--,0,0
Amino Acids
Other
Ingredients
"WATER, EXPELLER PROCESSED NATURAL OIL BLEND (SOYBEAN, PALM FRUIT AND OLIVE), MALTODEXTRIN, SOY PROTEIN, TOFU, NON DAIRY LACTIC ACID, BLEND OF NATURAL GUMS (LOCUST BEAN, GUAR, CELLULOSE, XANTHAN AND CARRAGEENAN), ORGANIC SUGAR, DRIED ONION, GARLIC, PARSLEY, SPICES, SALT, WHITE PEPPER, VEGETABLE MONO AND DIGLYCERIDES, SALT." Date available: 10/04/2017 Date last updated by company: 10/04/2017
