Source: USDA Branded Food Products Database Release December 2017 Software v.3.8.6.4 2017-10-02
Report Run at: December 18, 2017 18:05 EST
"Nutrient data for: 45150990, TOM'S, BUGELS, FLAVORED CORN SNACKS, NACHO CHEESE, UPC: 021900982234"
Food Group:  Branded Food Products Database
Common Name:

Nutrient,Unit,Data points,Std. Error,"39.0 BUGLES | ABOUT = 28.0g",1Value per 100 g,
Proximates
"Energy",kcal,--,--,160,571
"Protein",g,--,--,1.00,3.57
"Total lipid (fat)",g,--,--,11.00,39.29
"Carbohydrate, by difference",g,--,--,14.00,50.00
"Fiber, total dietary",g,--,--,0.0,0.0
"Sugars, total",g,--,--,1.00,3.57
Minerals
"Calcium, Ca",mg,--,--,20,71
"Iron, Fe",mg,--,--,0.00,0.00
"Sodium, Na",mg,--,--,210,750
Vitamins
"Vitamin C, total ascorbic acid",mg,--,--,0.0,0.0
"Vitamin A, IU",IU,--,--,0,0
Lipids
"Fatty acids, total saturated",g,--,--,1.000,3.570
"Fatty acids, total trans",g,--,--,0.000,0.000
"Cholesterol",mg,--,--,0,0
Amino Acids
Other
Ingredients
"DEGERMED YELLOW CORN MEAL, VEGETABLE OIL (CONTAINS ONE OR MORE OF THE FOLLOWING: CANOLA OIL, CORN OIL, SUNFLOWER OIL), SUGAR, SALT, SODIUM BICARBONATE, WHEY, CHEDDAR CHEESE (CULTURED MILK, SALT, ENZYMES), CORNSTARCH, MALTODEXTRIN, BUTTERMILK, WHEY PROTEIN CONCENTRATE, MONOSODIUM GLUTAMATE, TOMATO POWDER, ONION POWDER, GARLIC POWDER, LACTIC ACID, ROMANO CHEESE (COW'S MILK, SALT, CHEESE CULTURES, ENZYMES), SODIUM CASEINATE, CITRIC ACID, PARMESAN CHEESE (CULTURED MILK, SALT, ENZYMES), NATURAL FLAVORS, DISODIUM PHOSPHATE, SPICES, DISODIUM INOSINATE AND DISODIUM GUANYLATE, ARTIFICIAL COLORS (YELLOW 6, RED 40), ACETIC ACID." Date available: 07/14/2017 Date last updated by company: 07/14/2017
