Source: USDA Branded Food Products Database Release December 2017 Software v.3.8.6.4 2017-10-02
Report Run at: December 18, 2017 18:05 EST
"Nutrient data for: 45156413, TOM'S, BUGLES, CORN SNACKS, RANCH, UPC: 021900982227"
Food Group:  Branded Food Products Database
Common Name:

Nutrient,Unit,Data points,Std. Error,"39.0 BUGLES = 28.0g",1Value per 100 g,
Proximates
"Energy",kcal,--,--,170,607
"Protein",g,--,--,2.00,7.14
"Total lipid (fat)",g,--,--,12.00,42.86
"Carbohydrate, by difference",g,--,--,15.00,53.57
"Fiber, total dietary",g,--,--,0.0,0.0
"Sugars, total",g,--,--,2.00,7.14
Minerals
"Calcium, Ca",mg,--,--,40,143
"Iron, Fe",mg,--,--,0.64,2.29
"Sodium, Na",mg,--,--,410,1464
Vitamins
"Vitamin C, total ascorbic acid",mg,--,--,0.0,0.0
"Vitamin A, IU",IU,--,--,179,638
Lipids
"Fatty acids, total saturated",g,--,--,1.000,3.570
"Fatty acids, total trans",g,--,--,0.000,0.000
"Cholesterol",mg,--,--,0,0
Amino Acids
Other
Ingredients
"DEGERMED YELLOW CORN MEAL, VEGETABLE OIL (CONTAINS ONE OR MORE OF THE FOLLOWING: CANOLA OIL, CORN OIL, SUNFLOWER OIL), SUGAR, SALT, SODIUM BICARBONATE, BUTTERMILK, TOMATO POWDER, ONION POWDER, WHEY PROTEIN CONCENTRATE, MONOSODIUM GLUTAMATE, CORNSTARCH, DEXTROSE, SOUR CREAM POWDER (CULTURED CREAM, NONFAT MILK), SPICES, GARLIC POWDER, SODIUM ACETATE, NATURAL AND ARTIFICIAL FLAVORS, CITRIC ACID, ACETIC ACID, COLORS (EXTRACTIVES OF TURMERIC AND ANNATTO, TITANIUM DIOXIDE), ARTIFICIAL COLORS (BLUE 1, RED 40, YELLOW 5), LACTIC ACID, DISODIUM INOSINATE AND DISODIUM GUANYLATE." Date available: 07/14/2017 Date last updated by company: 07/14/2017
