Source: USDA Branded Food Products Database Release December 2017 Software v.3.8.6.4 2017-10-02
Report Run at: December 18, 2017 18:04 EST
"Nutrient data for: 45204624, TOMATO SOUP, UPC: 859792002446"
Food Group:  Branded Food Products Database
Common Name:

Nutrient,Unit,Data points,Std. Error,"8.0 ONZ = 227.0g",1Value per 100 g,
Proximates
"Energy",kcal,--,--,59,26
"Protein",g,--,--,3.00,1.32
"Total lipid (fat)",g,--,--,2.00,0.88
"Carbohydrate, by difference",g,--,--,11.01,4.85
"Fiber, total dietary",g,--,--,0.9,0.4
"Sugars, total",g,--,--,4.99,2.20
Minerals
"Calcium, Ca",mg,--,--,59,26
"Iron, Fe",mg,--,--,1.95,0.86
"Potassium, K",mg,--,--,250,110
"Sodium, Na",mg,--,--,270,119
Vitamins
"Vitamin C, total ascorbic acid",mg,--,--,19.5,8.6
"Vitamin A, IU",IU,--,--,1348,594
Lipids
"Fatty acids, total saturated",g,--,--,0.204,0.090
"Fatty acids, total trans",g,--,--,0.000,0.000
"Cholesterol",mg,--,--,0,0
Amino Acids
Other
Ingredients
"VEGETABLE BROTH (WATER, CARROTS, ONIONS, OLIVE OIL, CELERY, GARLIC, THYME, PARSLEY), DICED TOMATOES (TOMATOES AND TOMATO JUICE, SEA SALT), ONION, GARLIC, GINGER, JALAPENO, ORGANIC CANE SUGAR, CUMIN, KOSHER SALT" Date available: 07/14/2017 Date last updated by company: 07/14/2017
