Source: USDA Branded Food Products Database Release December 2017 Software v.3.8.6.4 2017-10-02
Report Run at: December 18, 2017 17:56 EST
"Nutrient data for: 45290661, TOMATO PASTE, UPC: 070038644309"
Food Group:  Branded Food Products Database
Common Name:

Nutrient,Unit,Data points,Std. Error,"2.0 Tbsp = 33.0g",1Value per 100 g,
Proximates
"Energy",kcal,--,--,30,91
"Protein",g,--,--,2.00,6.06
"Total lipid (fat)",g,--,--,0.00,0.00
"Carbohydrate, by difference",g,--,--,7.00,21.21
"Fiber, total dietary",g,--,--,2.0,6.1
"Sugars, total",g,--,--,4.00,12.12
Minerals
"Calcium, Ca",mg,--,--,20,61
"Iron, Fe",mg,--,--,1.09,3.31
"Potassium, K",mg,--,--,270,818
"Sodium, Na",mg,--,--,15,45
Vitamins
"Vitamin C, total ascorbic acid",mg,--,--,7.3,22.0
"Vitamin A, IU",IU,--,--,606,1836
Lipids
"Fatty acids, total saturated",g,--,--,0.000,0.000
"Fatty acids, total trans",g,--,--,0.000,0.000
"Cholesterol",mg,--,--,0,0
Amino Acids
Other
Ingredients
"TOMATO PASTE, CITRIC ACID." Date available: 07/14/2017 Date last updated by company: 07/14/2017
