Source: USDA Branded Food Products Database Release December 2017 Software v.3.8.6.4 2017-10-02
Report Run at: December 18, 2017 17:58 EST
"Nutrient data for: 45088039, TOMATO PUREE, UPC: 070900501273"
Food Group:  Branded Food Products Database
Common Name:

Nutrient,Unit,Data points,Std. Error,"0.25 cup = 63.0g",1Value per 100 g,
Proximates
"Energy",kcal,--,--,30,48
"Protein",g,--,--,1.00,1.59
"Total lipid (fat)",g,--,--,0.00,0.00
"Carbohydrate, by difference",g,--,--,6.00,9.52
"Fiber, total dietary",g,--,--,1.0,1.6
"Sugars, total",g,--,--,5.00,7.94
Minerals
"Calcium, Ca",mg,--,--,20,32
"Iron, Fe",mg,--,--,0.69,1.09
"Potassium, K",mg,--,--,260,413
"Sodium, Na",mg,--,--,15,24
Vitamins
"Vitamin C, total ascorbic acid",mg,--,--,8.6,13.6
"Vitamin A, IU",IU,--,--,476,756
Lipids
"Fatty acids, total saturated",g,--,--,0.000,0.000
"Fatty acids, total trans",g,--,--,0.000,0.000
"Cholesterol",mg,--,--,0,0
Amino Acids
Other
Ingredients
"TOMATOES, CITRIC ACID." Date available: 07/14/2017 Date last updated by company: 07/14/2017
