Source: USDA Branded Food Products Database Release December 2017 Software v.3.8.6.4 2017-10-02
Report Run at: December 18, 2017 17:59 EST
"Nutrient data for: 45108344, TOMATO SAUCE SPANISH STYLE, UPC: 041331039482"
Food Group:  Branded Food Products Database
Common Name:

Nutrient,Unit,Data points,Std. Error,"0.25 TAZA = 61.0g",1Value per 100 g,
Proximates
"Energy",kcal,--,--,15,25
"Protein",g,--,--,1.00,1.64
"Total lipid (fat)",g,--,--,0.00,0.00
"Carbohydrate, by difference",g,--,--,4.00,6.56
"Fiber, total dietary",g,--,--,0.0,0.0
"Sugars, total",g,--,--,1.00,1.64
Minerals
"Calcium, Ca",mg,--,--,0,0
"Iron, Fe",mg,--,--,0.35,0.58
"Sodium, Na",mg,--,--,115,189
Vitamins
"Vitamin C, total ascorbic acid",mg,--,--,2.4,3.9
"Vitamin A, IU",IU,--,--,196,322
Lipids
"Fatty acids, total saturated",g,--,--,0.000,0.000
"Fatty acids, total trans",g,--,--,0.000,0.000
"Cholesterol",mg,--,--,0,0
Amino Acids
Other
Ingredients
"WATER, TOMATO PASTE, STARCH, SALT, POTASSIUM CHLORIDE, SPICES." Date available: 07/14/2017 Date last updated by company: 07/14/2017
