Source: USDA Branded Food Products Database Release December 2017 Software v.3.8.6.4 2017-10-02
Report Run at: December 18, 2017 17:53 EST
"Nutrient data for: 45204077, TOMATO KETCHUP, UPC: 856232005005"
Food Group:  Branded Food Products Database
Common Name:

Nutrient,Unit,Data points,Std. Error,"1 Tbsp = 15.0g",1Value per 100 g,
Proximates
"Energy",kcal,--,--,25,167
"Protein",g,--,--,0.00,0.00
"Total lipid (fat)",g,--,--,0.00,0.00
"Carbohydrate, by difference",g,--,--,4.00,26.67
"Sugars, total",g,--,--,2.00,13.33
Minerals
"Sodium, Na",mg,--,--,170,1133
Vitamins
Lipids
Amino Acids
Other
Ingredients
"WATER, TOMATO PASTE, CANE SUGAR, ONION, VINEGAR, SUNFLOWER OIL, SALT, GARLIC, CAPSICUM, CUMIN, SPICES, PAPRIKA OLEORESIN." Date available: 07/14/2017 Date last updated by company: 07/14/2017
