Source: USDA Branded Food Products Database Release December 2017 Software v.3.8.6.4 2017-10-02
Report Run at: December 18, 2017 18:03 EST
"Nutrient data for: 45289386, TOMATO SAUCE, UPC: 8055349378374"
Food Group:  Branded Food Products Database
Common Name:

Nutrient,Unit,Data points,Std. Error,"100.0 GRM = 100.0g",1Value per 100 g,
Proximates
"Energy",kcal,--,--,139,139
"Protein",g,--,--,1.10,1.10
"Total lipid (fat)",g,--,--,11.00,11.00
"Carbohydrate, by difference",g,--,--,9.00,9.00
"Fiber, total dietary",g,--,--,1.4,1.4
"Sugars, total",g,--,--,7.50,7.50
Minerals
"Sodium, Na",mg,--,--,340,340
Vitamins
"Vitamin C, total ascorbic acid",mg,--,--,12.6,12.6
"Vitamin A, IU",IU,--,--,180,180
Lipids
"Fatty acids, total saturated",g,--,--,1.700,1.700
Amino Acids
Other
Ingredients
"CHERRY TOMATO* 41%, TOMATO* 35%, SUNDRIED TOMATO*, EXTRA VIRGIN OLIVE OIL*, CAPERS*, BASIL*, ORGANIC GRAPE WINE VINEGAR, SALT, OREGANO*, CHILI PEPPER*, ROSEMARY*." Date available: 09/22/2017 Date last updated by company: 09/22/2017
