Source: USDA Branded Food Products Database Release December 2017 Software v.3.8.6.4 2017-10-02
Report Run at: December 18, 2017 17:44 EST
"Nutrient data for: 45231028, TOMATO BISQUE, UPC: 898134002751"
Food Group:  Branded Food Products Database
Common Name:

Nutrient,Unit,Data points,Std. Error,"8.0 ONZ = 227.0g",1Value per 100 g,
Proximates
"Energy",kcal,--,--,120,53
"Protein",g,--,--,2.00,0.88
"Total lipid (fat)",g,--,--,7.99,3.52
"Carbohydrate, by difference",g,--,--,10.01,4.41
"Fiber, total dietary",g,--,--,0.9,0.4
"Sugars, total",g,--,--,4.99,2.20
Minerals
"Calcium, Ca",mg,--,--,41,18
"Iron, Fe",mg,--,--,0.77,0.34
"Sodium, Na",mg,--,--,511,225
Vitamins
"Vitamin C, total ascorbic acid",mg,--,--,22.7,10.0
"Vitamin A, IU",IU,--,--,1081,476
Lipids
"Fatty acids, total saturated",g,--,--,3.995,1.760
"Fatty acids, total trans",g,--,--,0.000,0.000
"Cholesterol",mg,--,--,25,11
Amino Acids
Other
Ingredients
"TOMATOES* (TOMATOES*, WATER, CITRIC ACID, CALCIUM CHLORIDE), FILTERED WATER, ONIONS*, HEAVY CREAM* (MILK), GARLIC*, CHICKEN BASE* (COOKED CHICKEN*, SALT, CANE SUGAR*, NATURAL FLAVOR*, WAXY CORN STARCH*, SPICES*, TURMERIC*), EXTRA VIRGIN OLIVE OIL*, SEA SALT." Date available: 07/14/2017 Date last updated by company: 07/14/2017
