Source: USDA Branded Food Products Database Release December 2017 Software v.3.8.6.4 2017-10-02
Report Run at: December 18, 2017 18:04 EST
"Nutrient data for: 45290570, TOMATO WITH BASIL PASTA SAUCE, UPC: 817050020205"
Food Group:  Branded Food Products Database
Common Name:

Nutrient,Unit,Data points,Std. Error,"1 cup = 100.0g",1Value per 100 g,
Proximates
"Energy",kcal,--,--,90,90
"Protein",g,--,--,1.00,1.00
"Total lipid (fat)",g,--,--,2.50,2.50
"Carbohydrate, by difference",g,--,--,10.00,10.00
"Fiber, total dietary",g,--,--,1.0,1.0
"Sugars, total",g,--,--,6.00,6.00
Minerals
"Calcium, Ca",mg,--,--,20,20
"Iron, Fe",mg,--,--,0.19,0.19
"Sodium, Na",mg,--,--,145,145
Vitamins
"Vitamin C, total ascorbic acid",mg,--,--,5.4,5.4
"Vitamin A, IU",IU,--,--,422,422
Lipids
"Fatty acids, total saturated",g,--,--,0.500,0.500
"Fatty acids, total trans",g,--,--,0.000,0.000
"Cholesterol",mg,--,--,0,0
Amino Acids
Other
Ingredients
"TOMATOES, BASIL, EXTRA VIRGIN OLIVE OIL, ONION, CARROTS, CELERY, SUGAR, SALT." Date available: 07/14/2017 Date last updated by company: 07/14/2017
