Source: USDA Branded Food Products Database Release December 2017 Software v.3.8.6.4 2017-10-02
Report Run at: December 18, 2017 17:52 EST
"Nutrient data for: 45201939, TOMATO KETCHUP, UPC: 741643010468"
Food Group:  Branded Food Products Database
Common Name:

Nutrient,Unit,Data points,Std. Error,"1 Tbsp = 17.0g",1Value per 100 g,
Proximates
"Energy",kcal,--,--,15,88
"Protein",g,--,--,0.00,0.00
"Total lipid (fat)",g,--,--,0.00,0.00
"Carbohydrate, by difference",g,--,--,4.00,23.53
"Fiber, total dietary",g,--,--,0.0,0.0
"Sugars, total",g,--,--,4.00,23.53
Minerals
"Calcium, Ca",mg,--,--,0,0
"Iron, Fe",mg,--,--,0.00,0.00
"Sodium, Na",mg,--,--,160,941
Vitamins
"Vitamin C, total ascorbic acid",mg,--,--,0.0,0.0
"Vitamin A, IU",IU,--,--,1015,5968
Lipids
"Fatty acids, total saturated",g,--,--,0.000,0.000
"Fatty acids, total trans",g,--,--,0.000,0.000
"Cholesterol",mg,--,--,0,0
Amino Acids
Other
Ingredients
"TOMATO CONCENTRATE, HIGH FRUCTOSE CORN SYRUP, VINEGAR, CORN SYRUP, SALT, ONION POWDER, SPICE, NATURAL FLAVORS." Date available: 07/14/2017 Date last updated by company: 07/14/2017
