Source: USDA Branded Food Products Database Release December 2017 Software v.3.8.6.4 2017-10-02
Report Run at: December 18, 2017 18:04 EST
"Nutrient data for: 45130385, Tomato Strips, #10 can, UNPREPARED, GTIN: 00027000387207"
Food Group:  Branded Food Products Database
Common Name:

Nutrient,Unit,Data points,Std. Error,"0.5 cup (122g) = 122.0g",1Value per 100 g,
Proximates
"Energy",kcal,--,--,35,29
"Protein",g,--,--,1.00,0.82
"Total lipid (fat)",g,--,--,0.00,0.00
"Carbohydrate, by difference",g,--,--,7.00,5.74
"Fiber, total dietary",g,--,--,3.0,2.5
"Sugars, total",g,--,--,3.00,2.46
Minerals
"Calcium, Ca",mg,--,--,20,16
"Iron, Fe",mg,--,--,0.00,0.00
"Potassium, K",mg,--,--,240,197
"Sodium, Na",mg,--,--,350,287
Vitamins
"Vitamin C, total ascorbic acid",mg,--,--,3.7,3.0
"Vitamin A, IU",IU,--,--,500,410
Lipids
"Fatty acids, total saturated",g,--,--,0.000,0.000
"Fatty acids, total monounsaturated",g,--,--,0.000,0.000
"Fatty acids, total polyunsaturated",g,--,--,0.000,0.000
"Fatty acids, total trans",g,--,--,0.000,0.000
"Cholesterol",mg,--,--,0,0
Amino Acids
Other
Ingredients
"Peeled Tomatoes , Tomato Juice, Less than 2% of: Calcium Chloride, Salt, Citric Acid." Date available: 10/12/2017 Date last updated by company: 10/12/2017
