Source: USDA Branded Food Products Database Release December 2017 Software v.3.8.6.4 2017-10-02
Report Run at: December 18, 2017 17:54 EST
"Nutrient data for: 45203497, TOMATO MOZZARELLA PASTA, UPC: 5051379107246"
Food Group:  Branded Food Products Database
Common Name:

Nutrient,Unit,Data points,Std. Error,"1.25 cup = 140.0g",1Value per 100 g,
Proximates
"Energy",kcal,--,--,321,229
"Protein",g,--,--,7.99,5.71
"Total lipid (fat)",g,--,--,19.00,13.57
"Carbohydrate, by difference",g,--,--,28.99,20.71
"Fiber, total dietary",g,--,--,2.0,1.4
"Sugars, total",g,--,--,2.00,1.43
Minerals
"Calcium, Ca",mg,--,--,150,107
"Iron, Fe",mg,--,--,3.22,2.30
"Sodium, Na",mg,--,--,181,129
Vitamins
"Vitamin C, total ascorbic acid",mg,--,--,8.5,6.1
"Vitamin A, IU",IU,--,--,2232,1594
Lipids
"Fatty acids, total saturated",g,--,--,3.500,2.500
"Fatty acids, total trans",g,--,--,0.000,0.000
"Cholesterol",mg,--,--,10,7
Amino Acids
Other
Ingredients
"PASTA (DURUM WHEAT SEMOLINA, NIACIN, FERROUS SULFATE, THIAMIN MONONITRATE, RIBOFLAVIN, FOLIC ACID), TOMATO, CANOLA OIL, MOZZARELLA PEARLS (CULTURED PASTEURIZED MILK, ENZYMES, SALT), BASIL, SPINACH, OLIVE OIL, PARMESAN CHEESE [PASTEURIZED COW'S MILK, CHEESE CULTURES, SALT, ENZYMES, POWDERED CELLULOSE (ANTI-CAKING AGENT)), ROMANO CHEESE MADE WITH COW'S MILK [PASTEURIZED COW'S MILK, CHEESE CULTURES, SALT, ENZYMES, POWDERED CELLULOSE (ANTI-CAKING AGENT)], LEMON JUICE CONCENTRATE, GARLIC, SALT, WHITE PEPPER." Date available: 07/14/2017 Date last updated by company: 07/14/2017
