Source: USDA Branded Food Products Database Release December 2017 Software v.3.8.6.4 2017-10-02
Report Run at: December 18, 2017 18:00 EST
"Nutrient data for: 45082140, TOMATO SAUCE, UPC: 024000343462"
Food Group:  Branded Food Products Database
Common Name:

Nutrient,Unit,Data points,Std. Error,"0.25 cup = 61.0g",1Value per 100 g,
Proximates
"Energy",kcal,--,--,20,33
"Protein",g,--,--,1.00,1.64
"Total lipid (fat)",g,--,--,0.00,0.00
"Carbohydrate, by difference",g,--,--,4.00,6.56
"Fiber, total dietary",g,--,--,1.0,1.6
"Sugars, total",g,--,--,2.00,3.28
Minerals
"Calcium, Ca",mg,--,--,20,33
"Iron, Fe",mg,--,--,0.76,1.25
"Potassium, K",mg,--,--,170,279
"Sodium, Na",mg,--,--,280,459
Vitamins
"Vitamin C, total ascorbic acid",mg,--,--,12.7,20.8
"Vitamin A, IU",IU,--,--,634,1039
Lipids
"Fatty acids, total saturated",g,--,--,0.000,0.000
"Fatty acids, total trans",g,--,--,0.000,0.000
"Cholesterol",mg,--,--,0,0
Amino Acids
Other
Ingredients
"TOMATO PUREE (WATER, TOMATO PASTE), WATER, SEA SALT, SUGAR, CITRIC ACID, ONION POWDER, GARLIC POWDER, SPICES." Date available: 07/14/2017 Date last updated by company: 07/14/2017
