Source: USDA Branded Food Products Database Release December 2017 Software v.3.8.6.4 2017-10-02
Report Run at: December 18, 2017 18:06 EST
"Nutrient data for: 45151288, TONIC WATER CONTAINS QUININE, UPC: 035826080639"
Food Group:  Branded Food Products Database
Common Name:

Nutrient,Unit,Data points,Std. Error,"1 BOTTLE = 296.0g",1Value per 100 g,
Proximates
"Energy",kcal,--,--,110,37
"Protein",g,--,--,0.00,0.00
"Total lipid (fat)",g,--,--,0.00,0.00
"Carbohydrate, by difference",g,--,--,27.00,9.12
"Fiber, total dietary",g,--,--,0.0,0.0
"Sugars, total",g,--,--,25.99,8.78
Minerals
"Calcium, Ca",mg,--,--,0,0
"Iron, Fe",mg,--,--,0.00,0.00
"Sodium, Na",mg,--,--,36,12
Vitamins
"Vitamin C, total ascorbic acid",mg,--,--,0.0,0.0
"Vitamin A, IU",IU,--,--,0,0
Lipids
"Fatty acids, total saturated",g,--,--,0.000,0.000
"Fatty acids, total trans",g,--,--,0.000,0.000
"Cholesterol",mg,--,--,0,0
Amino Acids
Other
Ingredients
"CARBONATED WATER, INVERT SUGAR, CITRIC ACID, NATURAL FLAVOR, QUININE HYDROCHLORIDE." Date available: 07/14/2017 Date last updated by company: 07/14/2017
