Source: USDA Branded Food Products Database Release December 2017 Software v.3.8.6.4 2017-10-02
Report Run at: December 18, 2017 18:07 EST
"Nutrient data for: 45160351, TONI'S OWN, HOMEMADE ANISETTE COOKIES, UPC: 181302004009"
Food Group:  Branded Food Products Database
Common Name:

Nutrient,Unit,Data points,Std. Error,"1 COOKIE = 397.0g",1Value per 100 g,
Proximates
"Energy",kcal,--,--,83,21
"Protein",g,--,--,1.51,0.38
"Total lipid (fat)",g,--,--,1.51,0.38
"Carbohydrate, by difference",g,--,--,16.00,4.03
"Fiber, total dietary",g,--,--,0.0,0.0
"Sugars, total",g,--,--,5.00,1.26
Minerals
"Calcium, Ca",mg,--,--,20,5
"Iron, Fe",mg,--,--,0.04,0.01
"Sodium, Na",mg,--,--,60,15
Vitamins
"Vitamin C, total ascorbic acid",mg,--,--,0.0,0.0
"Vitamin A, IU",IU,--,--,8,2
Lipids
"Fatty acids, total saturated",g,--,--,0.516,0.130
"Fatty acids, total trans",g,--,--,0.000,0.000
"Cholesterol",mg,--,--,12,3
Amino Acids
Other
Ingredients
"FLOUR (WHEAT FLOUR, MALTED BARLEY FLOUR, NIACIN, REDUCE IRON, THIAMINE MONONITRATE, RIBOFLAVIN, FOLIC ACID), SUGAR, EGGS, CONFECTIONARY SUGAR (SUGAR, CORN STARCH), SHORTENING (PALM OIL, SOYBEAN OIL), BAKING POWDER, BAKING SODA, SOUR CREAM (CULTURED MILK, CREAM, NONFAT MILK SOLIDS, MODIFIED FOOD STARCH, GUAR GUM, CARRAGEENAN, LOCUST BEAN GUM), ANISE FLAVORING, WHITE NONPAREILS (SUCROSE, CORN STARCH, WAX), CARNIVAL MIX SPRINKLES (SUGAR, CORN STARCH, PALM OIL & PALM KERNEL OIL, DEXTRIN, SOY LECITHIN, COLORED WITH TURMERIC, ANNATTO & VEGETABLE JUICES, CONFECTIONARY GLAZE, CARNAUBA WAX)." Date available: 08/28/2017 Date last updated by company: 08/28/2017
