Source: USDA Branded Food Products Database Release December 2017 Software v.3.8.6.4 2017-10-02
Report Run at: December 18, 2017 18:08 EST
"Nutrient data for: 45224064, TONY PACKO'S, HUNGARIAN BANANA PEPPERS, HOT, UPC: 032063110013"
Food Group:  Branded Food Products Database
Common Name:

Nutrient,Unit,Data points,Std. Error,"1 PEPPER | ABOUT = 28.0g",1Value per 100 g,
Proximates
"Energy",kcal,--,--,5,18
"Protein",g,--,--,0.00,0.00
"Total lipid (fat)",g,--,--,0.00,0.00
"Carbohydrate, by difference",g,--,--,1.00,3.57
"Sugars, total",g,--,--,0.00,0.00
Minerals
"Sodium, Na",mg,--,--,220,786
Vitamins
Lipids
Amino Acids
Other
Ingredients
"BANANA PEPPERS, WATER, SALT, VINEGAR, TURMERIC, POLYSORBATE 80." Date available: 07/14/2017 Date last updated by company: 07/14/2017
