Source: USDA Branded Food Products Database Release December 2017 Software v.3.8.6.4 2017-10-02
Report Run at: December 18, 2017 18:09 EST
"Nutrient data for: 45165618, TOO GOOD GOURMET, DARK CHOCOLATE PRETZELS, UPC: 659422312545"
Food Group:  Branded Food Products Database
Common Name:

Nutrient,Unit,Data points,Std. Error,"1 ONZ = 28.0g",1Value per 100 g,
Proximates
"Energy",kcal,--,--,120,429
"Protein",g,--,--,2.00,7.14
"Total lipid (fat)",g,--,--,3.00,10.71
"Carbohydrate, by difference",g,--,--,21.00,75.00
"Fiber, total dietary",g,--,--,1.0,3.6
"Sugars, total",g,--,--,4.00,14.29
Minerals
"Calcium, Ca",mg,--,--,0,0
"Iron, Fe",mg,--,--,1.93,6.88
"Sodium, Na",mg,--,--,360,1286
Vitamins
"Vitamin C, total ascorbic acid",mg,--,--,0.0,0.0
"Vitamin A, IU",IU,--,--,0,0
Lipids
"Fatty acids, total saturated",g,--,--,2.500,8.930
"Fatty acids, total trans",g,--,--,0.000,0.000
"Cholesterol",mg,--,--,0,0
Amino Acids
Other
Ingredients
"PRETZELS (ENRICHED FLOUR [WHEAT FLOUR, NIACIN, REDUCED IRON, THIAMINE MONONITRATE, RIBOFLAVIN, FOLIC ACID], SALT, CORN SYRUP, VEGETABLE OIL (CORN, CANOLA AND/OR SOYBEAN), YEAST AMMONIUM BICARBONATE, SODIUM BICARBONATE), DARK COATING (SUGAR, FRACTIONATED PALM KERNEL OIL, COCOA POWDER [PROCESSED WITH ALKALI], SOY LECITHIN NONFAT MILK POWDER, VANILLA)." Date available: 07/14/2017 Date last updated by company: 07/14/2017
