Source: USDA Branded Food Products Database Release December 2017 Software v.3.8.6.4 2017-10-02
Report Run at: December 18, 2017 18:10 EST
"Nutrient data for: 45145940, TOOLBOX WITH LOLLIPOPS, UPC: 768395482510"
Food Group:  Branded Food Products Database
Common Name:

Nutrient,Unit,Data points,Std. Error,"2.0 LOLLIPOPS = 14.0g",1Value per 100 g,
Proximates
"Energy",kcal,--,--,60,429
"Protein",g,--,--,0.00,0.00
"Total lipid (fat)",g,--,--,0.00,0.00
"Carbohydrate, by difference",g,--,--,13.00,92.86
"Sugars, total",g,--,--,8.00,57.14
Minerals
"Sodium, Na",mg,--,--,0,0
Vitamins
Lipids
Amino Acids
Other
Ingredients
"SUGAR, CORN SYRUP, MALTODEXTRIN, WATER, ARTIFICIAL FLAVOR, TITANIUM DIOXIDE (FOR COLOR), RED 40." Date available: 07/14/2017 Date last updated by company: 07/14/2017
