Source: USDA Branded Food Products Database Release December 2017 Software v.3.8.6.4 2017-10-02
Report Run at: December 18, 2017 18:12 EST
"Nutrient data for: 45094524, TOOTSIE, TOOTSIE POPS, MINIATURES, ASSORTED KID FLAVORS, UPC: 071720047248"
Food Group:  Branded Food Products Database
Common Name:

Nutrient,Unit,Data points,Std. Error,"3.0 POPS = 15.0g",1Value per 100 g,
Proximates
"Energy",kcal,--,--,60,400
"Protein",g,--,--,0.00,0.00
"Total lipid (fat)",g,--,--,0.00,0.00
"Carbohydrate, by difference",g,--,--,14.00,93.33
"Sugars, total",g,--,--,9.00,60.00
Minerals
"Sodium, Na",mg,--,--,0,0
Vitamins
Lipids
Amino Acids
Other
Ingredients
"SUGAR, CORN SYRUP, PARTIALLY HYDROGENATED SOYBEAN OIL*, CITRIC ACID, CONDENSED SKIM MILK, COCOA, WHEY, ARTIFICIAL AND NATURAL FLAVORS, SOY LECITHIN, ARTIFICIAL COLORS (INCLUDING FD&C RED 40, BLUE 1), TURMERIC COLORING." Date available: 07/14/2017 Date last updated by company: 07/14/2017
