Source: USDA Branded Food Products Database Release December 2017 Software v.3.8.6.4 2017-10-02
Report Run at: December 18, 2017 18:11 EST
"Nutrient data for: 45147803, TOOTSIE, FRUIT CHEWS, ARTIFICIALLY FLAVOR, UPC: 071720087114"
Food Group:  Branded Food Products Database
Common Name:

Nutrient,Unit,Data points,Std. Error,"6.0 PIECES = 40.0g",1Value per 100 g,
Proximates
"Energy",kcal,--,--,140,350
"Protein",g,--,--,0.00,0.00
"Total lipid (fat)",g,--,--,3.00,7.50
"Carbohydrate, by difference",g,--,--,29.00,72.50
"Fiber, total dietary",g,--,--,0.0,0.0
"Sugars, total",g,--,--,20.00,50.00
Minerals
"Calcium, Ca",mg,--,--,20,50
"Iron, Fe",mg,--,--,0.45,1.12
"Sodium, Na",mg,--,--,15,38
Vitamins
"Vitamin C, total ascorbic acid",mg,--,--,0.0,0.0
"Vitamin A, IU",IU,--,--,0,0
Lipids
"Fatty acids, total saturated",g,--,--,1.500,3.750
"Fatty acids, total trans",g,--,--,0.000,0.000
"Cholesterol",mg,--,--,0,0
Amino Acids
Other
Ingredients
"SUGAR, CORN SYRUP, PALM OIL, CONDENSED SKIM MILK, WHEY, MALIC ACID, ARTIFICIAL AND NATURAL FLAVORS, SOY LECITHIN, ARTIFICIAL COLORS (INCLUDING FD&C YELLOW 5, RED 40, BLUE 1)." Date available: 07/14/2017 Date last updated by company: 07/14/2017
