Source: USDA Branded Food Products Database Release December 2017 Software v.3.8.6.4 2017-10-02
Report Run at: December 18, 2017 18:11 EST
"Nutrient data for: 45094517, TOOTSIE, POPS, PEPPERMINT POPS FILLED WITH TOOTSIE ROLL CANDY CANE, UPC: 071720047507"
Food Group:  Branded Food Products Database
Common Name:

Nutrient,Unit,Data points,Std. Error,"1 POP = 17.0g",1Value per 100 g,
Proximates
"Energy",kcal,--,--,60,353
"Protein",g,--,--,0.00,0.00
"Total lipid (fat)",g,--,--,0.00,0.00
"Carbohydrate, by difference",g,--,--,15.00,88.24
"Sugars, total",g,--,--,11.00,64.71
Minerals
"Sodium, Na",mg,--,--,5,29
Vitamins
Lipids
Amino Acids
Other
Ingredients
"SUGAR, CORN SYRUP, PALM OIL, CONDENSED SKIM MILK, COCOA, WHEY, TITANIUM DIOXIDE, PEPPERMINT OIL, GLYCERIN, SOY LECITHIN, ARTIFICIAL AND NATURAL FLAVORS, ARTIFICIAL COLORS (INCLUDING FD&C RED 40, BLUE 1, YELLOW 5), TURMERIC COLORING." Date available: 07/14/2017 Date last updated by company: 07/14/2017
