Source: USDA Branded Food Products Database Release December 2017 Software v.3.8.6.4 2017-10-02
Report Run at: December 18, 2017 18:13 EST
"Nutrient data for: 45016645, TOP CARE, TIPPY TOES, TURKEY WITH GRAVY, UPC: 036800381452"
Food Group:  Branded Food Products Database
Common Name:

Nutrient,Unit,Data points,Std. Error,"71.0 g = 71.0g",1Value per 100 g,
Proximates
"Energy",kcal,--,--,80,113
"Protein",g,--,--,9.00,12.68
"Total lipid (fat)",g,--,--,4.00,5.63
"Carbohydrate, by difference",g,--,--,2.00,2.82
"Fiber, total dietary",g,--,--,0.0,0.0
"Sugars, total",g,--,--,0.00,0.00
Minerals
"Calcium, Ca",mg,--,--,20,28
"Iron, Fe",mg,--,--,0.72,1.01
"Sodium, Na",mg,--,--,30,42
Vitamins
"Vitamin C, total ascorbic acid",mg,--,--,0.0,0.0
"Vitamin A, IU",IU,--,--,0,0
Lipids
"Fatty acids, total trans",g,--,--,0.00,0.00
Amino Acids
Other
Ingredients
"TURKEY BREAST MEAT, WATER, CORN STARCH." Date last updated by company: 04/22/2015
