Source: USDA Branded Food Products Database Release December 2017 Software v.3.8.6.4 2017-10-02
Report Run at: December 18, 2017 18:17 EST
"Nutrient data for: 45174944, TOPS, GLUTEN FREE HOMESTYLE WAFFLES, UPC: 070784056272"
Food Group:  Branded Food Products Database
Common Name:

Nutrient,Unit,Data points,Std. Error,"2.0 WAGGLES = 70.0g",1Value per 100 g,
Proximates
"Energy",kcal,--,--,200,286
"Protein",g,--,--,1.00,1.43
"Total lipid (fat)",g,--,--,7.00,10.00
"Carbohydrate, by difference",g,--,--,35.00,50.00
"Fiber, total dietary",g,--,--,2.0,2.9
"Sugars, total",g,--,--,4.00,5.71
Minerals
"Calcium, Ca",mg,--,--,0,0
"Iron, Fe",mg,--,--,0.43,0.62
"Potassium, K",mg,--,--,65,93
"Sodium, Na",mg,--,--,370,529
Vitamins
"Vitamin C, total ascorbic acid",mg,--,--,0.0,0.0
"Vitamin A, IU",IU,--,--,0,0
Lipids
"Fatty acids, total saturated",g,--,--,1.001,1.430
"Fatty acids, total trans",g,--,--,0.000,0.000
"Cholesterol",mg,--,--,0,0
Amino Acids
Other
Ingredients
"WATER, BROWN RICE FLOUR, POTATO STARCH, CORN FLOUR, VEGETABLE OIL (CANOLA AND/OR SOYBEAN OIL), TAPIOCA STARCH, SUGAR, INULIN, POTATO FLOUR, CONTAINS 2% OR LESS OF : LEAVENING (SODIUM ACID PYROPHOSPHATE, SODIUM BICARBONATE, MONOCALCIUM PHOSPHATE), SOY LECITHIN (EMULSIFIER), FRUIT JUICE CONCENTRATE BLEND (PEAR JUICE CONCENTRATE, PINEAPPLE SYRUP, CLARIFIED PINEAPPLE AND PEACH JUICE CONCENTRATE), NATURAL FLAVORS, SALT." Date available: 07/14/2017 Date last updated by company: 07/14/2017
