Source: USDA Branded Food Products Database Release December 2017 Software v.3.8.6.4 2017-10-02
Report Run at: December 18, 2017 18:18 EST
"Nutrient data for: 45183732, TOPS, LEMON PEPPER WITH LEMON JUICE FROM CONCENTRATE, UPC: 070784269269"
Food Group:  Branded Food Products Database
Common Name:

Nutrient,Unit,Data points,Std. Error,"1 Tbsp = 15.0g",1Value per 100 g,
Proximates
"Energy",kcal,--,--,10,67
"Protein",g,--,--,0.00,0.00
"Total lipid (fat)",g,--,--,0.00,0.00
"Carbohydrate, by difference",g,--,--,2.00,13.33
"Sugars, total",g,--,--,1.00,6.67
Minerals
"Sodium, Na",mg,--,--,390,2600
Vitamins
Lipids
Amino Acids
Other
Ingredients
"WATER, LEMON JUICE FROM CONCENTRATE (WATER, LEMON JUICE CONCENTRATE), HIGH FRUCTOSE CORN SYRUP, SALT, DISTILLED VINEGAR, VEGETABLE OIL (CANOLA AND/OR SOYBEAN), MODIFIED FOOD STARCH, BLACK PEPPER, XANTHAN GUM, NATURAL FLAVORS, DILL SEED, DRIED ONION, SODIUM BENZOATE AND POTASSIUM SORBATE (PRESERVATIVES), BETA-CAROTENE (FOR COLOR)." Date available: 07/14/2017 Date last updated by company: 07/14/2017
