Source: USDA Branded Food Products Database Release December 2017 Software v.3.8.6.4 2017-10-02
Report Run at: December 18, 2017 18:14 EST
"Nutrient data for: 45176454, TOPS, AMERICAN CHEESE, UPC: 070784011141"
Food Group:  Branded Food Products Database
Common Name:

Nutrient,Unit,Data points,Std. Error,"1 SLICE = 19.0g",1Value per 100 g,
Proximates
"Protein",g,--,--,4.00,21.05
"Total lipid (fat)",g,--,--,6.00,31.58
"Carbohydrate, by difference",g,--,--,1.00,5.26
"Fiber, total dietary",g,--,--,0.0,0.0
"Sugars, total",g,--,--,0.00,0.00
Minerals
"Calcium, Ca",mg,--,--,200,1053
"Iron, Fe",mg,--,--,0.00,0.00
"Sodium, Na",mg,--,--,240,1263
Vitamins
"Vitamin C, total ascorbic acid",mg,--,--,0.0,0.0
"Vitamin A, IU",IU,--,--,526,2771
Lipids
"Fatty acids, total saturated",g,--,--,3.500,18.420
"Fatty acids, total trans",g,--,--,0.000,0.000
"Cholesterol",mg,--,--,15,79
Amino Acids
Other
Ingredients
"AMERICAN CHEESE (MILK, CHEESE CULTURE, SALT, ENZYMES), WATER, DRY CREAM, MILKFAT, SODIUM CITRATE, CALCIUM PHOSPHATE, SALT, SORBIC ACID AS A PRESERVATIVE, ANNATTO AND OLEORESIN PAPRIKA COLOR, SOY LECITHIN (RELEASE AGENT)." Date available: 07/14/2017 Date last updated by company: 07/14/2017
