Source: USDA Branded Food Products Database Release December 2017 Software v.3.8.6.4 2017-10-02
Report Run at: December 18, 2017 18:24 EST
"Nutrient data for: 45242191, TORANI, FLAVORING SYRUP, VANILLA, UPC: 089036512800"
Food Group:  Branded Food Products Database
Common Name:

Nutrient,Unit,Data points,Std. Error,"2.0 Tbsp = 30.0g",1Value per 100 g,
Proximates
"Energy",kcal,--,--,80,267
"Protein",g,--,--,0.00,0.00
"Total lipid (fat)",g,--,--,0.00,0.00
"Carbohydrate, by difference",g,--,--,20.00,66.67
"Sugars, total",g,--,--,19.00,63.33
Minerals
"Sodium, Na",mg,--,--,0,0
Vitamins
Lipids
Amino Acids
Other
Ingredients
"PURE CANE SUGAR, WATER, VANILLA EXTRACT WITH OTHER NATURAL FLAVORS, SODIUM BENZOATE (TO PRESERVE FRESHNESS), POTASSIUM SORBATE (TO PRESERVE FRESHNESS), CITRIC ACID." Date available: 06/25/2017 Date last updated by company: 06/25/2017
