Source: USDA Branded Food Products Database Release December 2017 Software v.3.8.6.4 2017-10-02
Report Run at: December 18, 2017 18:24 EST
"Nutrient data for: 45086053, TORIE & HOWARD, CHEWIE FRUITIES, CANDY CHEWS, UPC: 853715003244"
Food Group:  Branded Food Products Database
Common Name:

Nutrient,Unit,Data points,Std. Error,"7.0 PIECES = 42.0g",1Value per 100 g,
Proximates
"Energy",kcal,--,--,160,381
"Protein",g,--,--,0.00,0.00
"Total lipid (fat)",g,--,--,2.50,5.95
"Carbohydrate, by difference",g,--,--,35.00,83.33
"Fiber, total dietary",g,--,--,0.0,0.0
"Sugars, total",g,--,--,23.00,54.76
Minerals
"Calcium, Ca",mg,--,--,0,0
"Iron, Fe",mg,--,--,0.00,0.00
"Sodium, Na",mg,--,--,0,0
Vitamins
"Vitamin C, total ascorbic acid",mg,--,--,71.4,170.1
"Vitamin A, IU",IU,--,--,0,0
Lipids
"Fatty acids, total saturated",g,--,--,1.000,2.380
"Fatty acids, total trans",g,--,--,0.000,0.000
"Cholesterol",mg,--,--,0,0
Amino Acids
Other
Ingredients
"ORGANIC BROWN RICE SYRUP, ORGANIC DRIED CANE SYRUP, ORGANIC PALM SHORTENING*, ASCORBIC ACID, CITRIC ACID, NATURAL FLAVORS, ORGANIC RICE EXTRACT, COLORED WITH: BEETROOT JUICE AND ORGANIC CURCUMIN (TURMERIC)." Date available: 06/25/2017 Date last updated by company: 06/25/2017
