Source: USDA Branded Food Products Database Release December 2017 Software v.3.8.6.4 2017-10-02
Report Run at: December 18, 2017 18:26 EST
"Nutrient data for: 45164726, TORN & GLASSER, RAISIN & NUT TRAIL MIX, UPC: 072488987494"
Food Group:  Branded Food Products Database
Common Name:

Nutrient,Unit,Data points,Std. Error,"0.25 cup = 42.0g",1Value per 100 g,
Proximates
"Energy",kcal,--,--,230,548
"Protein",g,--,--,9.00,21.43
"Total lipid (fat)",g,--,--,17.00,40.48
"Carbohydrate, by difference",g,--,--,12.00,28.57
"Fiber, total dietary",g,--,--,3.0,7.1
"Sugars, total",g,--,--,8.00,19.05
Minerals
"Calcium, Ca",mg,--,--,20,48
"Iron, Fe",mg,--,--,1.71,4.08
"Sodium, Na",mg,--,--,140,333
Vitamins
"Vitamin C, total ascorbic acid",mg,--,--,1.4,3.4
"Vitamin A, IU",IU,--,--,0,0
Lipids
"Fatty acids, total saturated",g,--,--,2.499,5.950
"Fatty acids, total trans",g,--,--,0.000,0.000
"Cholesterol",mg,--,--,0,0
Amino Acids
Other
Ingredients
"PEANUTS (PEANUTS, PEANUT OIL, NON GMO CANOLA OIL, SALT), RAISINS (RAISINS, CANOLA OIL), HULLED SUNFLOWER SEEDS (SUNFLOWER SEEDS, NON GMO CANOLA OIL, SALT), ALMONDS, NON GMO CANOLA OIL, SALT), CASHEWS (CASHEWS, NON GMO CANOLA OIL, SALT), PEPITAS (PEPITAS, NON GMO CANOLA OIL, SALT)." Date available: 07/14/2017 Date last updated by company: 07/14/2017
