Source: USDA Branded Food Products Database Release December 2017 Software v.3.8.6.4 2017-10-02
Report Run at: December 18, 2017 18:26 EST
"Nutrient data for: 45157497, TORN & GLASSER, RAW TRAIL MIX, UPC: 072488987289"
Food Group:  Branded Food Products Database
Common Name:

Nutrient,Unit,Data points,Std. Error,"0.25 cup = 32.0g",1Value per 100 g,
Proximates
"Energy",kcal,--,--,150,469
"Protein",g,--,--,5.00,15.62
"Total lipid (fat)",g,--,--,13.00,40.62
"Carbohydrate, by difference",g,--,--,13.00,40.62
"Fiber, total dietary",g,--,--,2.0,6.2
"Sugars, total",g,--,--,9.00,28.12
Minerals
"Calcium, Ca",mg,--,--,20,62
"Iron, Fe",mg,--,--,1.69,5.28
"Sodium, Na",mg,--,--,0,0
Vitamins
"Vitamin C, total ascorbic acid",mg,--,--,0.0,0.0
"Vitamin A, IU",IU,--,--,0,0
Lipids
"Fatty acids, total saturated",g,--,--,2.000,6.250
"Fatty acids, total trans",g,--,--,0.000,0.000
"Cholesterol",mg,--,--,0,0
Amino Acids
Other
Ingredients
"PEANUTS, RAISINS (RAISINS, CANOLA OIL), SUNFLOWER SEEDS, DATES (DATES, OAT FLOUR), ALMONDS, CASHEWS, WALNUTS, COCONUT (COCONUT, SODIUM METABISULFITE [AS A PRESERVATIVE])." Date available: 07/14/2017 Date last updated by company: 07/14/2017
