Source: USDA Branded Food Products Database Release December 2017 Software v.3.8.6.4 2017-10-02
Report Run at: December 18, 2017 18:34 EST
"Nutrient data for: 45275835, TORTILLA CHIPS, UPC: 781138731102"
Food Group:  Branded Food Products Database
Common Name:

Nutrient,Unit,Data points,Std. Error,"11.0 CHIPS | ABOUT = 28.0g",1Value per 100 g,
Proximates
"Energy",kcal,--,--,150,536
"Protein",g,--,--,2.00,7.14
"Total lipid (fat)",g,--,--,9.00,32.14
"Carbohydrate, by difference",g,--,--,15.00,53.57
"Fiber, total dietary",g,--,--,1.0,3.6
"Sugars, total",g,--,--,0.00,0.00
Minerals
"Calcium, Ca",mg,--,--,20,71
"Iron, Fe",mg,--,--,0.64,2.29
"Sodium, Na",mg,--,--,230,821
Vitamins
"Vitamin C, total ascorbic acid",mg,--,--,0.0,0.0
"Vitamin A, IU",IU,--,--,179,638
Lipids
"Fatty acids, total saturated",g,--,--,1.999,7.140
"Fatty acids, total trans",g,--,--,0.000,0.000
"Cholesterol",mg,--,--,0,0
Amino Acids
Other
Ingredients
"CORN, VEGETABLE OIL (CONTAINS ONE OR MORE OF THE FOLLOWING: CANOLA, CORN, COTTONSEED, SAFFLOWER AND/OR SOYBEAN OIL), CORN MALTODEXTRIN, SALT, MONOSODIUM GLUTAMATE, NATURAL AND ARTIFICIAL FLAVORS, CHEDDAR AND ROMANO CHEESES (CULTURED MILK, SALT, ENZYMES), ONION POWDER, GARLIC POWDER, SPICES, WHEY PROTEIN CONCENTRATE, DEXTROSE, TOMATO POWDER, WHEY, BUTTERMILK, CORN FLOUR, LACTIC ACID, ARTIFICIAL COLORS (YELLOW 6 LAKE, YELLOW 5 LAKE, YELLOW 6, AND YELLOW 5), YEAST EXTRACT, DISODIUM PHOSPHATE, CITRIC ACID, SUGAR, BELL PEPPER POWDER, DISODIUM INOSINATE, AND DISODIUM GUANYLATE." Date available: 07/14/2017 Date last updated by company: 07/14/2017
