Source: USDA Branded Food Products Database Release December 2017 Software v.3.8.6.4 2017-10-02
Report Run at: December 18, 2017 18:32 EST
"Nutrient data for: 45231980, TORTILLA CHIPS, UPC: 028400641913"
Food Group:  Branded Food Products Database
Common Name:

Nutrient,Unit,Data points,Std. Error,"10.0 CHIPS | ABOUT = 28.0g",1Value per 100 g,
Proximates
"Energy",kcal,--,--,140,500
"Protein",g,--,--,2.00,7.14
"Total lipid (fat)",g,--,--,8.00,28.57
"Carbohydrate, by difference",g,--,--,16.00,57.14
"Fiber, total dietary",g,--,--,1.0,3.6
"Sugars, total",g,--,--,0.00,0.00
Minerals
"Calcium, Ca",mg,--,--,0,0
"Iron, Fe",mg,--,--,0.00,0.00
"Sodium, Na",mg,--,--,170,607
Vitamins
"Vitamin C, total ascorbic acid",mg,--,--,0.0,0.0
"Vitamin A, IU",IU,--,--,100,357
Lipids
"Fatty acids, total saturated",g,--,--,1.000,3.570
"Fatty acids, total trans",g,--,--,0.000,0.000
"Cholesterol",mg,--,--,0,0
Amino Acids
Other
Ingredients
"CORN VEGETABLE OIL (CORN, CANOLA, AND/OR SUNFLOWER OIL), SALT, YELLOW CORN FLOUR, SPICES, MALTODEXTRIN (MADE FROM CORN), WHEY PROTEIN CONCENTRATE, MONOSODIUM GLUTAMATE, WHEY, CHEDDAR CHEESE (MILK, CHEESE CULTURES, SALT, ENZYMES), ONION POWDER, GARLIC POWDER, HYDROLYZED CORN PROTEIN, CITRIC ACID, NATURAL AND ARTIFICIAL FLAVORS, BUTTERMILK, ARTIFICIAL COLOR (INCLUDING YELLOW 6 LAKE, YELLOW 5 LAKE, BLUE 2 LAKE, YELLOW 6, YELLOW 5), SOUR CREAM (CULTURED CREAM, SKIM MILK), BUTTER (CREAM, SALT), MODIFIED CORN STARCH, BLUE CHEESE (MILK, CHEESE CULTURES, SALT, ENZYMES), AND LACTIC ACID." Date available: 03/22/2017 Date last updated by company: 03/22/2017
