Source: USDA Branded Food Products Database Release December 2017 Software v.3.8.6.4 2017-10-02
Report Run at: December 18, 2017 18:35 EST
"Nutrient data for: 45331500, TORTILLA CHIPS, UPC: 781138790246"
Food Group:  Branded Food Products Database
Common Name:

Nutrient,Unit,Data points,Std. Error,"1 ONZ = 28.0g",1Value per 100 g,
Proximates
"Energy",kcal,--,--,140,500
"Protein",g,--,--,2.00,7.14
"Total lipid (fat)",g,--,--,7.00,25.00
"Carbohydrate, by difference",g,--,--,18.00,64.29
"Fiber, total dietary",g,--,--,2.0,7.1
"Sugars, total",g,--,--,0.00,0.00
Minerals
"Calcium, Ca",mg,--,--,27,96
"Iron, Fe",mg,--,--,0.00,0.00
"Potassium, K",mg,--,--,93,332
"Sodium, Na",mg,--,--,100,357
Vitamins
"Vitamin D",IU,--,--,0,0
Lipids
"Fatty acids, total saturated",g,--,--,0.501,1.790
"Fatty acids, total monounsaturated",g,--,--,5.001,17.860
"Fatty acids, total polyunsaturated",g,--,--,1.000,3.570
"Fatty acids, total trans",g,--,--,0.000,0.000
"Cholesterol",mg,--,--,0,0
Amino Acids
Other
Ingredients
"ORGANIC BLUE CORN, ORGANIC EXPELLER-PRESSED SUNFLOWER OIL AND/OR ORGANIC EXPELLER-PRESSED SAFFLOWER OIL, AND SEA SALT." Date available: 10/13/2017 Date last updated by company: 10/13/2017
