Source: USDA Branded Food Products Database Release December 2017 Software v.3.8.6.4 2017-10-02
Report Run at: December 18, 2017 18:37 EST
"Nutrient data for: 45202603, TORTILLA SOUP STARTER, UPC: 782796022687"
Food Group:  Branded Food Products Database
Common Name:

Nutrient,Unit,Data points,Std. Error,"3.0 ONZ = 85.0g",1Value per 100 g,
Proximates
"Energy",kcal,--,--,70,82
"Protein",g,--,--,2.00,2.35
"Total lipid (fat)",g,--,--,1.50,1.76
"Carbohydrate, by difference",g,--,--,14.00,16.47
"Fiber, total dietary",g,--,--,2.0,2.4
"Sugars, total",g,--,--,2.00,2.35
Minerals
"Calcium, Ca",mg,--,--,20,24
"Iron, Fe",mg,--,--,0.21,0.25
"Sodium, Na",mg,--,--,30,35
Vitamins
"Vitamin C, total ascorbic acid",mg,--,--,5.3,6.2
"Vitamin A, IU",IU,--,--,735,865
Lipids
"Fatty acids, total saturated",g,--,--,0.000,0.000
"Fatty acids, total trans",g,--,--,0.000,0.000
"Cholesterol",mg,--,--,0,0
Amino Acids
Other
Ingredients
"RED POTATO, ROMA TOMATO, GREEN CABBAGE, YELLOW ONION, CARROT, ZUCCHINI, YELLOW CORN, TORTILLA STRIPS (CORN MASA FLOUR, SUNFLOWER, SAFFLOWER, CANOLA AND/OR CORN OIL, SALT, RED 40, BLUE 1, BLUE 2), CILANTRO." Date available: 07/14/2017 Date last updated by company: 07/14/2017
