Source: USDA Branded Food Products Database Release December 2017 Software v.3.8.6.4 2017-10-02
Report Run at: December 18, 2017 18:39 EST
"Nutrient data for: 45198608, TOSTADAS CASERAS, UPC: 748252399229"
Food Group:  Branded Food Products Database
Common Name:

Nutrient,Unit,Data points,Std. Error,"2.0 PIECES = 33.0g",1Value per 100 g,
Proximates
"Energy",kcal,--,--,160,485
"Protein",g,--,--,2.00,6.06
"Total lipid (fat)",g,--,--,6.00,18.18
"Carbohydrate, by difference",g,--,--,24.00,72.73
"Fiber, total dietary",g,--,--,2.0,6.1
"Sugars, total",g,--,--,0.00,0.00
Minerals
"Calcium, Ca",mg,--,--,100,303
"Iron, Fe",mg,--,--,1.09,3.31
"Sodium, Na",mg,--,--,15,45
Vitamins
"Vitamin C, total ascorbic acid",mg,--,--,0.0,0.0
"Vitamin A, IU",IU,--,--,0,0
Lipids
"Fatty acids, total saturated",g,--,--,1.000,3.030
"Fatty acids, total trans",g,--,--,0.000,0.000
"Cholesterol",mg,--,--,0,0
Amino Acids
Other
Ingredients
"STONE GROUND CORN, CORN OIL, SEA SALT, CALCIUM, HYDROXIDE." Date available: 07/14/2017 Date last updated by company: 07/14/2017
