Source: USDA Branded Food Products Database Release December 2017 Software v.3.8.6.4 2017-10-02
Report Run at: December 18, 2017 18:41 EST
"Nutrient data for: 45039496, TOTAL 0% NONFAT GREEK STRAINED YOGURT, UPC: 689544080008"
Food Group:  Branded Food Products Database
Common Name:

Nutrient,Unit,Data points,Std. Error,"1 CONTAINER = 170.0g",1Value per 100 g,
Proximates
"Energy",kcal,--,--,100,59
"Protein",g,--,--,18.00,10.59
"Total lipid (fat)",g,--,--,0.00,0.00
"Carbohydrate, by difference",g,--,--,7.00,4.12
"Fiber, total dietary",g,--,--,0.0,0.0
"Sugars, total",g,--,--,7.00,4.12
Minerals
"Calcium, Ca",mg,--,--,201,118
"Iron, Fe",mg,--,--,0.00,0.00
"Sodium, Na",mg,--,--,65,38
Vitamins
"Vitamin C, total ascorbic acid",mg,--,--,0.0,0.0
"Vitamin A, IU",IU,--,--,0,0
Lipids
"Fatty acids, total saturated",g,--,--,0.000,0.000
"Fatty acids, total trans",g,--,--,0.000,0.000
"Cholesterol",mg,--,--,10,6
Amino Acids
Other
Ingredients
"GRADE A PASTEURIZED SKIMMED MILK, LIVE ACTIVE YOGURT CULTURES (L. BULGARICUS, S. THERMOPHILUS, L. ACIDOPHILUS, BIFIDUS, L. CASEI)." Date available: 07/14/2017 Date last updated by company: 07/14/2017
