Source: USDA Branded Food Products Database Release December 2017 Software v.3.8.6.4 2017-10-02
Report Run at: December 18, 2017 18:41 EST
"Nutrient data for: 45274974, TOTE BAG GIFT SET, UPC: 013253564069"
Food Group:  Branded Food Products Database
Common Name:

Nutrient,Unit,Data points,Std. Error,"1 PIECE = 6.0g",1Value per 100 g,
Proximates
"Energy",kcal,--,--,20,333
"Protein",g,--,--,0.00,0.00
"Total lipid (fat)",g,--,--,0.00,0.00
"Carbohydrate, by difference",g,--,--,5.00,83.33
"Fiber, total dietary",g,--,--,0.0,0.0
"Sugars, total",g,--,--,4.00,66.67
Minerals
"Sodium, Na",mg,--,--,0,0
Vitamins
Lipids
"Fatty acids, total saturated",g,--,--,0.000,0.000
"Fatty acids, total trans",g,--,--,0.000,0.000
"Cholesterol",mg,--,--,0,0
Amino Acids
Other
Ingredients
"SUGAR, CORN SYRUP, CITRIC ACID, COLOR ADDED, NATURAL & ARTIFICIAL FLAVOR AND RED 40." Date available: 07/14/2017 Date last updated by company: 07/14/2017
