Source: USDA Branded Food Products Database Release December 2017 Software v.3.8.6.4 2017-10-02
Report Run at: December 18, 2017 18:41 EST
"Nutrient data for: 45144479, TOWER, CREAM SODA, UPC: 094922056269"
Food Group:  Branded Food Products Database
Common Name:

Nutrient,Unit,Data points,Std. Error,"1 BOTTLE = 355.0g",1Value per 100 g,
Proximates
"Energy",kcal,--,--,181,51
"Protein",g,--,--,0.00,0.00
"Total lipid (fat)",g,--,--,0.00,0.00
"Carbohydrate, by difference",g,--,--,45.01,12.68
"Sugars, total",g,--,--,46.01,12.96
Minerals
"Sodium, Na",mg,--,--,36,10
Vitamins
Lipids
Amino Acids
Other
Ingredients
"PURE CARBONATED WATER, 100% CANE SUGAR, NATURAL AND/OR ARTIFICIAL FLAVOR EXTRACTS, CARAMEL COLOR, SODIUM BENZOATE (PRESERVATIVE)" Date available: 07/14/2017 Date last updated by company: 07/14/2017
