Source: USDA Branded Food Products Database Release December 2017 Software v.3.8.6.4 2017-10-02
Report Run at: December 18, 2017 18:42 EST
"Nutrient data for: 45217782, TOY TRUCK WITH CANDY, UPC: 761359840920"
Food Group:  Branded Food Products Database
Common Name:

Nutrient,Unit,Data points,Std. Error,"1 PACKET = 20.0g",1Value per 100 g,
Proximates
"Energy",kcal,--,--,80,400
"Protein",g,--,--,0.00,0.00
"Total lipid (fat)",g,--,--,0.00,0.00
"Carbohydrate, by difference",g,--,--,19.00,95.00
"Fiber, total dietary",g,--,--,0.0,0.0
"Sugars, total",g,--,--,16.00,80.00
Minerals
"Calcium, Ca",mg,--,--,0,0
"Iron, Fe",mg,--,--,0.00,0.00
"Sodium, Na",mg,--,--,15,75
Vitamins
"Vitamin C, total ascorbic acid",mg,--,--,0.0,0.0
"Vitamin A, IU",IU,--,--,0,0
Lipids
"Fatty acids, total saturated",g,--,--,0.000,0.000
"Fatty acids, total trans",g,--,--,0.000,0.000
"Cholesterol",mg,--,--,0,0
Amino Acids
Other
Ingredients
"SUGAR, MODIFIED CORN STARCH, GLUCOSE SYRUP, PECTIN, MALIC ACID, ARTIFICIAL FLAVORS, CARNAUBA WAX, BLUE #1, YELLOW #5, YELLOW #6." Date available: 07/14/2017 Date last updated by company: 07/14/2017
