Source: USDA Branded Food Products Database Release December 2017 Software v.3.8.6.4 2017-10-02
Report Run at: December 18, 2017 18:42 EST
"Nutrient data for: 45164695, TOY SOLDIERS COOKIES, UPC: 072220802436"
Food Group:  Branded Food Products Database
Common Name:

Nutrient,Unit,Data points,Std. Error,"7.0 COOKIES = 44.0g",1Value per 100 g,
Proximates
"Energy",kcal,--,--,200,455
"Protein",g,--,--,2.00,4.55
"Total lipid (fat)",g,--,--,9.00,20.45
"Carbohydrate, by difference",g,--,--,29.00,65.91
"Fiber, total dietary",g,--,--,0.0,0.0
"Sugars, total",g,--,--,14.00,31.82
Minerals
"Calcium, Ca",mg,--,--,20,45
"Iron, Fe",mg,--,--,1.64,3.72
"Sodium, Na",mg,--,--,130,295
Vitamins
"Vitamin C, total ascorbic acid",mg,--,--,0.0,0.0
"Vitamin A, IU",IU,--,--,0,0
Lipids
"Fatty acids, total saturated",g,--,--,4.998,11.360
"Fatty acids, total trans",g,--,--,0.000,0.000
"Cholesterol",mg,--,--,0,0
Amino Acids
Other
Ingredients
"BLEACHED, ENRICHED WHEAT FLOUR (WHEAT FLOUR, NIACIN, REDUCED IRON, THIAMIN MONONITRATE, RIBOFLAVIN, AND FOLIC ACID), COATING (SUGAR, HYDROGENATED PALM KERNEL OIL, POWDERED WHEY PROTEIN CONCENTRATE, WHOLE MILK POWDER, SOYA LECITHIN, TITANIUM DIOXIDE, NATURAL FLAVOR), SUGAR, PALM OIL, MOLASSES, WATER, BAKING SODA, CINNAMON, SALT, ALLSPICE, SOY LECITHIN, GINGER, GROUND CLOVES, TRACE AMOUNTS OF ALMONDS AND COCONUT." Date available: 07/14/2017 Date last updated by company: 07/14/2017
