Source: USDA Branded Food Products Database Release December 2017 Software v.3.8.6.4 2017-10-02
Report Run at: December 18, 2017 19:02 EST
"Nutrient data for: 45064163, TRADITIONAL PASTA SAUCE, UPC: 041318191554"
Food Group:  Branded Food Products Database
Common Name:

Nutrient,Unit,Data points,Std. Error,"0.5 cup = 128.0g",1Value per 100 g,
Proximates
"Energy",kcal,--,--,70,55
"Protein",g,--,--,2.00,1.56
"Total lipid (fat)",g,--,--,1.50,1.17
"Carbohydrate, by difference",g,--,--,13.00,10.16
"Fiber, total dietary",g,--,--,2.9,2.3
"Sugars, total",g,--,--,9.00,7.03
Minerals
"Calcium, Ca",mg,--,--,20,16
"Iron, Fe",mg,--,--,0.76,0.59
"Potassium, K",mg,--,--,380,297
"Sodium, Na",mg,--,--,480,375
Vitamins
"Vitamin C, total ascorbic acid",mg,--,--,2.6,2.0
"Vitamin A, IU",IU,--,--,529,413
Lipids
"Fatty acids, total saturated",g,--,--,0.000,0.000
"Fatty acids, total trans",g,--,--,0.000,0.000
"Cholesterol",mg,--,--,0,0
Amino Acids
Other
Ingredients
"TOMATO PUREE (WATER, TOMATO PASTE), DICED TOMATOES IN TOMATO JUICE, SUGAR, VEGETABLE OIL (COTTONSEED AND/OR CANOLA AND/OR SOYBEAN), SALT, DEHYDRATED GARLIC, ONION POWDER, SPICES (BASIL, OREGANO, SPICE), CITRIC ACID, DEHYDRATED PARSLEY." Date available: 07/14/2017 Date last updated by company: 07/14/2017
