Source: USDA Branded Food Products Database Release December 2017 Software v.3.8.6.4 2017-10-02
Report Run at: December 18, 2017 18:54 EST
"Nutrient data for: 45057174, TRADITIONAL ALABAMA STYLE BARBEQUE SAUCE, UPC: 858183005059"
Food Group:  Branded Food Products Database
Common Name:

Nutrient,Unit,Data points,Std. Error,"2.0 Tbsp = 28.0g",1Value per 100 g,
Proximates
"Energy",kcal,--,--,140,500
"Protein",g,--,--,0.00,0.00
"Total lipid (fat)",g,--,--,15.00,53.57
"Carbohydrate, by difference",g,--,--,2.00,7.14
"Fiber, total dietary",g,--,--,0.0,0.0
"Sugars, total",g,--,--,1.00,3.57
Minerals
"Calcium, Ca",mg,--,--,0,0
"Iron, Fe",mg,--,--,0.61,2.17
"Sodium, Na",mg,--,--,210,750
Vitamins
"Vitamin C, total ascorbic acid",mg,--,--,2.0,7.2
"Vitamin A, IU",IU,--,--,0,0
Lipids
"Fatty acids, total saturated",g,--,--,2.500,8.930
"Fatty acids, total trans",g,--,--,0.000,0.000
"Cholesterol",mg,--,--,10,36
Amino Acids
Other
Ingredients
"SOYBEAN OIL, FILTERED WATER, CIDER VINEGAR, DISTILLED VINEGAR, EGG YOLK, SUGAR, CONTAINS LESS THAN 2% OF SPICES, SALT, CORN STARCH, CORN SYRUP, CULTURED DEXTROSE, ROSEMARY EXTRACT, LEMON JUICE LIME JUICE CONCENTRATE, NATURAL EGG FLAVOR (NATURAL FLAVOR, EGG YOLK POWDER, SOY LECITHIN)." Date available: 06/24/2017 Date last updated by company: 06/24/2017
