Source: USDA Branded Food Products Database Release December 2017 Software v.3.8.6.4 2017-10-02
Report Run at: December 18, 2017 19:06 EST
"Nutrient data for: 45237631, TRADITIONAL TOMATO & BASIL SAUCE, UPC: 036200222843"
Food Group:  Branded Food Products Database
Common Name:

Nutrient,Unit,Data points,Std. Error,"0.5 cup = 125.0g",1Value per 100 g,
Proximates
"Energy",kcal,--,--,90,72
"Protein",g,--,--,2.00,1.60
"Total lipid (fat)",g,--,--,4.50,3.60
"Carbohydrate, by difference",g,--,--,11.00,8.80
"Fiber, total dietary",g,--,--,2.0,1.6
"Sugars, total",g,--,--,7.00,5.60
Minerals
"Calcium, Ca",mg,--,--,20,16
"Iron, Fe",mg,--,--,1.80,1.44
"Sodium, Na",mg,--,--,510,408
Vitamins
"Vitamin C, total ascorbic acid",mg,--,--,9.0,7.2
"Vitamin A, IU",IU,--,--,500,400
Lipids
"Fatty acids, total saturated",g,--,--,0.500,0.400
"Fatty acids, total trans",g,--,--,0.000,0.000
"Cholesterol",mg,--,--,0,0
Amino Acids
Other
Ingredients
"ORGANIC TOMATO PUREE (WATER, ORGANIC TOMATO PASTE), ORGANIC DICED TOMATOES IN JUICE, ORGANIC SOYBEAN OIL, ORGANIC SUGAR, ORGANIC EXTRA VIRGIN OLIVE OIL, ORGANIC ONIONS, SEA SALT, ORGANIC EXTRA VIRGIN OLIVE OIL, ORGANIC ONIONS, SEA SALT, ORGANIC GARLIC, OR" Date available: 09/23/2016 Date last updated by company: 09/23/2016
