Source: USDA Branded Food Products Database Release December 2017 Software v.3.8.6.4 2017-10-02
Report Run at: December 18, 2017 18:54 EST
"Nutrient data for: 45102075, TRADICIONES ANDINAS, TRI-COLOR QUINOA, UPC: 853014006274"
Food Group:  Branded Food Products Database
Common Name:

Nutrient,Unit,Data points,Std. Error,"2.5 ONZ = 70.0g",1Value per 100 g,
Proximates
"Energy",kcal,--,--,71,101
"Protein",g,--,--,2.00,2.86
"Total lipid (fat)",g,--,--,0.90,1.29
"Carbohydrate, by difference",g,--,--,11.00,15.71
"Fiber, total dietary",g,--,--,0.5,0.7
"Sugars, total",g,--,--,0.00,0.00
Minerals
"Calcium, Ca",mg,--,--,0,0
"Iron, Fe",mg,--,--,0.00,0.00
"Sodium, Na",mg,--,--,0,0
Vitamins
"Vitamin C, total ascorbic acid",mg,--,--,0.0,0.0
"Vitamin A, IU",IU,--,--,0,0
Lipids
"Fatty acids, total saturated",g,--,--,0.000,0.000
"Fatty acids, total trans",g,--,--,0.000,0.000
"Cholesterol",mg,--,--,0,0
Amino Acids
Other
Ingredients
"WHITE ORGANIC QUINOA, BLACK ORGANIC QUINOA, RED ORGANIC QUINOA." Date available: 06/25/2017 Date last updated by company: 06/25/2017
