Source: USDA Branded Food Products Database Release December 2017 Software v.3.8.6.4 2017-10-02
Report Run at: December 18, 2017 18:53 EST
"Nutrient data for: 45240293, TRADER JOE'S, UNSWEETENED GREEN TEA, UPC: 00467698"
Food Group:  Branded Food Products Database
Common Name:

Nutrient,Unit,Data points,Std. Error,"8.0 OZA = 240.0g",1Value per 100 g,
Proximates
"Energy",kcal,--,--,0,0
"Protein",g,--,--,0.00,0.00
"Total lipid (fat)",g,--,--,0.00,0.00
"Carbohydrate, by difference",g,--,--,0.00,0.00
"Sugars, total",g,--,--,0.00,0.00
Minerals
"Sodium, Na",mg,--,--,10,4
Vitamins
"Vitamin C, total ascorbic acid",mg,--,--,26.9,11.2
Lipids
Amino Acids
Other
Ingredients
"PURE GREEN TEA BREWED FROM WATER AND GREEN TEA LEAVES, VITAMIN C ASCORBATE, MALIC ACID." Date available: 07/14/2017 Date last updated by company: 07/14/2017
