Source: USDA Branded Food Products Database Release December 2017 Software v.3.8.6.4 2017-10-02
Report Run at: December 18, 2017 19:00 EST
"Nutrient data for: 45181301, TRADITIONAL MASHED POTATOES, UPC: 020169222174"
Food Group:  Branded Food Products Database
Common Name:

Nutrient,Unit,Data points,Std. Error,"0.5 cup = 124.0g",1Value per 100 g,
Proximates
"Energy",kcal,--,--,140,113
"Protein",g,--,--,3.00,2.42
"Total lipid (fat)",g,--,--,7.01,5.65
"Carbohydrate, by difference",g,--,--,15.00,12.10
"Fiber, total dietary",g,--,--,1.0,0.8
"Sugars, total",g,--,--,2.00,1.61
Minerals
"Calcium, Ca",mg,--,--,60,48
"Iron, Fe",mg,--,--,0.41,0.33
"Sodium, Na",mg,--,--,470,379
Vitamins
"Vitamin C, total ascorbic acid",mg,--,--,0.0,0.0
"Vitamin A, IU",IU,--,--,113,91
Lipids
"Fatty acids, total saturated",g,--,--,4.005,3.230
"Fatty acids, total trans",g,--,--,0.000,0.000
"Cholesterol",mg,--,--,20,16
Amino Acids
Other
Ingredients
"POTATOES, HALF AND HALF, WHOLE MILK, BUTTER (CREAM, SALT), SALT, CONTAINS LESS THAN 0.5% OF DISODIUM PYROPHOSPHATE (ADDED TO MAINTAIN COLOR), POTASSIUM SORBATE AND SODIUM BISULFITE (ADDED TO MAINTAIN FRESHNESS)." Date available: 07/14/2017 Date last updated by company: 07/14/2017
