Source: USDA Branded Food Products Database Release December 2017 Software v.3.8.6.4 2017-10-02
Report Run at: December 18, 2017 18:57 EST
"Nutrient data for: 45195569, TRADITIONAL GOURMET PORTABELLA MUSHROOMS, UPC: 030223006985"
Food Group:  Branded Food Products Database
Common Name:

Nutrient,Unit,Data points,Std. Error,"1 MUSHROOM | ABOUT = 113.0g",1Value per 100 g,
Proximates
"Energy",kcal,--,--,80,71
"Protein",g,--,--,8.00,7.08
"Total lipid (fat)",g,--,--,2.50,2.21
"Carbohydrate, by difference",g,--,--,8.99,7.96
"Fiber, total dietary",g,--,--,4.0,3.5
"Sugars, total",g,--,--,2.99,2.65
Minerals
"Calcium, Ca",mg,--,--,99,88
"Iron, Fe",mg,--,--,0.63,0.56
"Sodium, Na",mg,--,--,160,142
Vitamins
"Vitamin C, total ascorbic acid",mg,--,--,10.6,9.4
"Vitamin A, IU",IU,--,--,663,587
Lipids
"Fatty acids, total saturated",g,--,--,2.000,1.770
"Fatty acids, total trans",g,--,--,0.000,0.000
"Cholesterol",mg,--,--,10,9
Amino Acids
Other
Ingredients
"PORTABELLA MUSHROOMS, PART SKIM MOZZARELLA CHEESE (PASTEURIZED PART SKIM MILK, CHEESE CULTURES, SALT ENZYMES, [POWDERED CELLULOSE TO PREVENT CAKING, NATAMYCIN TO PROTECT FLAVOR]), ARTICHOKE HEARTS, RED PEPPER, PARMESAN CHEESE (PART SKIMMED PASTEURIZED COW'S MILK, CHEESE CULTURES, SALT, RENNET), SPINACH, PANKO BREAD CRUMBS, (ENRICHED FLOUR[WHEAT FLOUR, NIACIN, IRON, THIAMINE MONONITRATE, RIBOFLAVIN, FOLIC ACID, SALT, YEAST, MALTED BARLEY FLOUR, ASCORBIC ACID [ADDED AS A DOUGH CONDITIONER]), ONION, GARLIC, PEPPER JACK CHEESE (CULTURED PASTEURIZED MILK, JALAPENO PEPPERS, SALT, AND ENZYMES) WORCESTERSHIRE SAUCE (DISTILLED WHITE VINEGAR, MOLASSES, SUGAR, WATER, SALT, ONIONS, ANCHOVIES, GARLIC, CLOVES, TAMARIND EXTRACT, NATURAL FLAVORING, CHILI PEPPER EXTRACT). DRY SHERRY WINE (SHERRY WINE, SALT, POTASSIUM SORBATE[ A PRESERVATIVE]), POTASSIUM METABISULFATE [A PRESERVATIVE]), PARSLEY, BASIL, SAGE, BLACK PEPPER." Date available: 09/06/2017 Date last updated by company: 09/06/2017
