Source: USDA Branded Food Products Database Release December 2017 Software v.3.8.6.4 2017-10-02
Report Run at: December 18, 2017 19:01 EST
"Nutrient data for: 45017528, TRADITIONAL MEXICAN STYLE REFRAIN BEANS, UPC: 041497755738"
Food Group:  Branded Food Products Database
Common Name:

Nutrient,Unit,Data points,Std. Error,"0.5 cup = 120.0g",1Value per 100 g,
Proximates
"Energy",kcal,--,--,100,83
"Protein",g,--,--,6.00,5.00
"Total lipid (fat)",g,--,--,0.50,0.42
"Carbohydrate, by difference",g,--,--,19.00,15.83
"Fiber, total dietary",g,--,--,5.0,4.2
"Sugars, total",g,--,--,1.00,0.83
Minerals
"Calcium, Ca",mg,--,--,40,33
"Iron, Fe",mg,--,--,1.94,1.62
"Sodium, Na",mg,--,--,480,400
Vitamins
"Vitamin C, total ascorbic acid",mg,--,--,0.0,0.0
"Vitamin A, IU",IU,--,--,0,0
Lipids
"Fatty acids, total saturated",g,--,--,0.000,0.000
"Fatty acids, total trans",g,--,--,0.000,0.000
"Cholesterol",mg,--,--,0,0
Amino Acids
Other
Ingredients
"PREPARED DRY BEANS, WATER, CONTAINS LESS THAN 2% OF: SALT, LARD (PARTIALLY HYDROGENATED LARD WITH BHA AND BHT ADDED TO HELP PROTECT FLAVOR), ONION POWDER, CHILI PEPPER, GARLIC POWDER, SPICE." Date available: 07/25/2017 Date last updated by company: 07/25/2017
