Source: USDA Branded Food Products Database Release December 2017 Software v.3.8.6.4 2017-10-02
Report Run at: December 18, 2017 19:01 EST
"Nutrient data for: 45267848, TRADITIONAL MATE BAGS, UPC: 632432000503"
Food Group:  Branded Food Products Database
Common Name:

Nutrient,Unit,Data points,Std. Error,"1 MATE BAG = 3.0g",1Value per 100 g,
Proximates
"Energy",kcal,--,--,5,167
"Protein",g,--,--,0.00,0.00
"Total lipid (fat)",g,--,--,0.00,0.00
"Carbohydrate, by difference",g,--,--,1.00,33.33
Minerals
"Sodium, Na",mg,--,--,0,0
Vitamins
Lipids
Amino Acids
Other
Ingredients
"ORGANIC YERBA MATE." Date available: 07/14/2017 Date last updated by company: 07/14/2017
