Source: USDA Branded Food Products Database Release December 2017 Software v.3.8.6.4 2017-10-02
Report Run at: December 18, 2017 19:00 EST
"Nutrient data for: 45142756, TRADITIONALLY ITALIAN!, BISCOTTI ITALIAN COOKIES, `, UPC: 037695802060"
Food Group:  Branded Food Products Database
Common Name:

Nutrient,Unit,Data points,Std. Error,"1 AVG. COOKIE = 25.0g",1Value per 100 g,
Proximates
"Energy",kcal,--,--,130,520
"Protein",g,--,--,2.00,8.00
"Total lipid (fat)",g,--,--,7.00,28.00
"Carbohydrate, by difference",g,--,--,15.00,60.00
"Fiber, total dietary",g,--,--,0.0,0.0
"Sugars, total",g,--,--,6.00,24.00
Minerals
"Calcium, Ca",mg,--,--,0,0
"Iron, Fe",mg,--,--,0.72,2.88
"Sodium, Na",mg,--,--,50,200
Vitamins
"Vitamin C, total ascorbic acid",mg,--,--,0.0,0.0
"Vitamin A, IU",IU,--,--,0,0
Lipids
"Fatty acids, total saturated",g,--,--,5.000,20.000
"Fatty acids, total trans",g,--,--,0.000,0.000
"Cholesterol",mg,--,--,5,20
Amino Acids
Other
Ingredients
"WHEAT FLOUR (NIACIN REDUCED IRON, THIAMINE MONONITRATE, RIBOFLAVIN, FOLIC ACID), PALM & SOYBEAN OILS, SUGAR, WHOLE EGGS, EGG WHITES, CORN SYRUP, NATURAL COCOA, COCOA PROCESSED WITH ALKALI, CHERRIES, ORANGE PEEL, INVERT SUGAR, CORN SWEETENERS, APPLE JUICE CONCENTRATE, SESAME SEEDS, ALMONDS, CASHEWS, HONEY, SOY LECITHIN AS AN EMULSIFIER, SALT, WHEY POWDER (MILK), DEXTROSE, PECTIN, CITRIC ACID, GLYCERINE, CINNAMON, NATURAL & ARTIFICIAL FLAVORS (CONTAINS MILK), LEAVENING (SODIUM ACID PYROPHOSPHATE, SODIUM BICARBONATE, CORN STARCH AND MONOCALCIUM PHOSPHATE), CONFECTIONERS GLAZE, FD&C YELLOW #5 & #6, RED #3 & #40, BLUE #1, RED LAKE #40, YELLOW LAKE #5, BLUE LAKE #1, ANHYDROUS MILKFAT, AMMONIUM BICARBONATE, SODIUM BENZOATE AS A PRESERVATIVE." Date available: 07/14/2017 Date last updated by company: 07/14/2017
