Source: USDA Branded Food Products Database Release December 2017 Software v.3.8.6.4 2017-10-02
Report Run at: December 18, 2017 18:54 EST
"Nutrient data for: 45011388, TRADER'S CHOICE, CHILI POWDER, UPC: 047600000580"
Food Group:  Branded Food Products Database
Common Name:

Nutrient,Unit,Data points,Std. Error,"0.25 tsp = 0.8g",1Value per 100 g,
Proximates
"Energy",kcal,--,--,0,0
"Protein",g,--,--,0.00,0.00
"Total lipid (fat)",g,--,--,0.00,0.00
"Carbohydrate, by difference",g,--,--,0.00,0.00
Minerals
"Sodium, Na",mg,--,--,25,3125
Vitamins
"Vitamin A, IU",IU,--,--,6250,781250
Lipids
Amino Acids
Other
Ingredients
"CHILI PEPPER AND OTHER SPICES, SALT, GARLIC POWDER AND LESS THAN 2% TRICALCIUM PHOSPHATE ADDED TO PREVENT CAKING." Date available: 07/14/2017 Date last updated by company: 07/14/2017
