Source: USDA Branded Food Products Database Release December 2017 Software v.3.8.6.4 2017-10-02
Report Run at: December 18, 2017 19:04 EST
"Nutrient data for: 45108229, TRADITIONAL REFRIED PINTO BEANS, UPC: 041331029766"
Food Group:  Branded Food Products Database
Common Name:

Nutrient,Unit,Data points,Std. Error,"0.5 cup = 128.0g",1Value per 100 g,
Proximates
"Energy",kcal,--,--,110,86
"Protein",g,--,--,5.00,3.91
"Total lipid (fat)",g,--,--,3.00,2.34
"Carbohydrate, by difference",g,--,--,15.00,11.72
"Fiber, total dietary",g,--,--,4.0,3.1
"Sugars, total",g,--,--,0.00,0.00
Minerals
"Calcium, Ca",mg,--,--,40,31
"Iron, Fe",mg,--,--,1.10,0.86
"Sodium, Na",mg,--,--,580,453
Vitamins
"Vitamin C, total ascorbic acid",mg,--,--,0.0,0.0
"Vitamin A, IU",IU,--,--,0,0
Lipids
"Fatty acids, total saturated",g,--,--,0.000,0.000
"Fatty acids, total trans",g,--,--,0.000,0.000
"Cholesterol",mg,--,--,0,0
Amino Acids
Other
Ingredients
"PINTO BEANS, WATER ,ONIONS, CANOLA OIL, SALT, GARLIC POWDER, ONION POWDER AND PAPRIKA." Date available: 07/14/2017 Date last updated by company: 07/14/2017
