Source: USDA Branded Food Products Database Release December 2017 Software v.3.8.6.4 2017-10-02
Report Run at: December 18, 2017 19:10 EST
"Nutrient data for: 45142381, TRAIL MIX, UPC: 021130295654"
Food Group:  Branded Food Products Database
Common Name:

Nutrient,Unit,Data points,Std. Error,"0.25 cup = 30.0g",1Value per 100 g,
Proximates
"Energy",kcal,--,--,150,500
"Protein",g,--,--,4.00,13.33
"Total lipid (fat)",g,--,--,8.00,26.67
"Carbohydrate, by difference",g,--,--,13.00,43.33
"Fiber, total dietary",g,--,--,2.0,6.7
"Sugars, total",g,--,--,2.00,6.67
Minerals
"Calcium, Ca",mg,--,--,20,67
"Iron, Fe",mg,--,--,0.60,2.00
"Sodium, Na",mg,--,--,210,700
Vitamins
"Vitamin C, total ascorbic acid",mg,--,--,0.0,0.0
"Vitamin A, IU",IU,--,--,166,555
Lipids
"Fatty acids, total saturated",g,--,--,1.500,5.000
"Fatty acids, total trans",g,--,--,0.000,0.000
"Cholesterol",mg,--,--,0,0
Amino Acids
Other
Ingredients
"CHILI CRACKERS (GLUTINOUS RICE, SOY SAUCE [WATER, SOYBEANS, WHEAT, SALT], SUGAR, CHILI POWDER, YELLOW 5, YELLOW 6), CHILI LEMON ROASTED CORN (CORN, CANOLA OIL, SALT, SPICES, MALTODEXTRIN, DEXTROSE, CITRIC ACID, ARTIFICIAL COLORS [RED 40, YELLOW 6 LAKE, YELLOW LAKE], DEHYDRATED GARLIC, EXTRACTIVES OF PAPRIKA, DISODIUM INOSINATE AND DISODIUM GUANYLATE, XANTHAN GUM, LEMON OIL, SPICE EXTRACTIVES), SRIRACHA SEASONED PEANUTS (PEANUTS, SEASONING [MALTODEXTRIN, SUGAR, CAYENNE PEPPER SAUCE {AGED RED PEPPERS, VINEGAR, SALT, GARLIC}, SALT, RED PEPPER, DEHYDRATED GARLIC, XANTHAN GUM, VINEGAR, NATURAL FLAVOR, SOYBEAN OIL], PEANUT OIL, SALT), SRIRACHA SEASONED ALMONDS (ALMONDS, SEASONING [MALTODEXTRIN, SUGAR, CAYENNE PEPPER SAUCE {AGED RED PEPPERS, VINEGAR, SALT, GARLIC}, SALT, RED PEPPER, DEHYDRATED GARLIC, XANTHAN GUM, VINEGAR, NATURAL FLAVOR, SOYBEAN OIL], PEANUT OIL), CASHEWS (CASHEWS, PEANUT OIL, SALT), HONEY ROASTED PEANUTS (PEANUTS, SUGAR HONEY, PEANUT OIL, SEA SALT, TAPIOCA STARCH), RICE CRACKERS (GLUTINOUS RICE, SOY SAUCE [WATER, SOYBEANS, WHEAT, SALT], SUGAR, CHILI POWDER, SEAWEED, SESAME SEEDS, YELLOW 5, YELLOW 6), SRIRACHA SEASONING (MALTODEXTRIN, SUGAR, CAYENNE PEPPER SAUCE [AGED RED PEPPERS, VINEGAR, SALT, GARLIC], SALT, RED PEPPER, DEHYDRATED GARLIC, XANTHAN GUM, VINEGAR, NATURAL FLAVOR, SOYBEAN OIL)." Date available: 07/14/2017 Date last updated by company: 07/14/2017
