Source: USDA Branded Food Products Database Release December 2017 Software v.3.8.6.4 2017-10-02
Report Run at: December 18, 2017 19:13 EST
"Nutrient data for: 45280517, TRAIL MIX, UPC: 07078400136"
Food Group:  Branded Food Products Database
Common Name:

Nutrient,Unit,Data points,Std. Error,"0.333 cup = 46.0g",1Value per 100 g,
Proximates
"Energy",kcal,--,--,190,413
"Protein",g,--,--,3.00,6.52
"Total lipid (fat)",g,--,--,8.00,17.39
"Carbohydrate, by difference",g,--,--,30.00,65.22
"Fiber, total dietary",g,--,--,3.0,6.5
"Sugars, total",g,--,--,21.00,45.65
Minerals
"Calcium, Ca",mg,--,--,40,87
"Iron, Fe",mg,--,--,0.78,1.70
"Sodium, Na",mg,--,--,40,87
Vitamins
"Vitamin C, total ascorbic acid",mg,--,--,1.3,2.8
"Vitamin A, IU",IU,--,--,109,236
Lipids
"Fatty acids, total saturated",g,--,--,2.999,6.520
"Fatty acids, total trans",g,--,--,0.000,0.000
"Cholesterol",mg,--,--,0,0
Amino Acids
Other
Ingredients
"RAISINS COATED WITH LESS THAN 1% SUNFLOWER AND/OR CANOLA OIL, SWEETENED BANANA CHIPS (BANANAS, EXPELLER PRESSED COCONUT OIL, SUGAR AND NATURAL FLAVOR), PEANUTS, DRIED SWEETENED PINEAPPLE (SUGAR, PINEAPPLE, CONTAINS 2% OR LESS OF THE FOLLOWING: CITRIC ACID, CALCIUM CHLORIDE [IMPROVES TEXTURE], SODIUM METABISULFITE [AS PRESERVATIVE]), MANGO FLAVORED PINEAPPLE COIN (SUGAR, PINEAPPLE, CONTAINS 2% OR LESS OF THE FOLLOWING: CITRIC ACID, SODIUM METABISULFITE [AS PRESERVATIVE], ARTIFICIAL MANGO FLAVOR, YELLOW 5, YELLOW 6), ALMONDS, DRIED SWEETENED STRAWBERRIES (STRAWBERRIES, SUGAR, RICE FLOUR, CITRIC ACID, RED 40, SULFUR DIOXIDE [COLOR RETENTION]), DRIED SWEETENED CRANBERRIES (CRANBERRIES, SUGAR, SUNFLOWER OIL), DRIED SWEETENED CHERRIES (RED TART PITTED CHERRIES, SUGAR AND SUNFLOWER OIL), VEGETABLE OIL (PEANUT, COTTONSEED, SOYBEAN AND/OR SUNFLOWER SEED), SEA SALT." Date available: 07/14/2017 Date last updated by company: 07/14/2017
