Source: USDA Branded Food Products Database Release December 2017 Software v.3.8.6.4 2017-10-02
Report Run at: December 18, 2017 19:12 EST
"Nutrient data for: 45263830, TRAIL MIX, UPC: 092825014072"
Food Group:  Branded Food Products Database
Common Name:

Nutrient,Unit,Data points,Std. Error,"0.25 cup = 30.0g",1Value per 100 g,
Proximates
"Energy",kcal,--,--,170,567
"Protein",g,--,--,5.00,16.67
"Total lipid (fat)",g,--,--,12.00,40.00
"Carbohydrate, by difference",g,--,--,11.00,36.67
"Fiber, total dietary",g,--,--,2.0,6.7
"Sugars, total",g,--,--,8.00,26.67
Minerals
"Calcium, Ca",mg,--,--,20,67
"Iron, Fe",mg,--,--,1.20,4.00
"Sodium, Na",mg,--,--,65,217
Vitamins
"Vitamin C, total ascorbic acid",mg,--,--,0.0,0.0
"Vitamin A, IU",IU,--,--,0,0
Lipids
"Fatty acids, total saturated",g,--,--,2.001,6.670
"Fatty acids, total trans",g,--,--,0.000,0.000
"Cholesterol",mg,--,--,0,0
Amino Acids
Other
Ingredients
"PEANUTS, THOMPSON RAISINS, CANDY COATED CHOCOLATE BUTTONS (SUGAR, COCOA BUTTER, POWDERED MILK, CHOCOLATE LIQUOR, CORN MALTODEXTRIN, SOY LECITHIN [EMULSIFIER], TITANIUM DIOXIDE COLOR, ARTIFICIAL FLAVORS, CARNAUBA WAX ARTIFICIAL COLORS [CONTAINS FD&C YELLOW NO. 5, FD&C YELLOW NO. 5 LAKE, FD&C YELLOW NO. 6, FD&C YELLOW NO. 6 LAKE, FD&C BLUE NO. 1, FD&C BLUE NO. 1 LAKE, FD&C RED NO. 3, FD&C RED NO. 40, FD&C RED NO. 40 LAKE]), ALMONDS, CASHEWS, SOYBEAN AND/OR PEANUT OIL, PALM OIL, SEA SALT." Date available: 07/14/2017 Date last updated by company: 07/14/2017
