Source: USDA Branded Food Products Database Release December 2017 Software v.3.8.6.4 2017-10-02
Report Run at: December 18, 2017 19:09 EST
"Nutrient data for: 45105203, TRAIL MIX PEANUT BUTTER MONSTER, UPC: 085239086858"
Food Group:  Branded Food Products Database
Common Name:

Nutrient,Unit,Data points,Std. Error,"0.25 cup = 35.0g",1Value per 100 g,
Proximates
"Energy",kcal,--,--,180,514
"Protein",g,--,--,5.00,14.29
"Total lipid (fat)",g,--,--,11.00,31.43
"Carbohydrate, by difference",g,--,--,17.00,48.57
"Fiber, total dietary",g,--,--,2.0,5.7
"Sugars, total",g,--,--,13.00,37.14
Minerals
"Calcium, Ca",mg,--,--,20,57
"Iron, Fe",mg,--,--,0.51,1.47
"Sodium, Na",mg,--,--,65,186
Vitamins
"Vitamin C, total ascorbic acid",mg,--,--,0.0,0.0
"Vitamin A, IU",IU,--,--,0,0
Lipids
"Fatty acids, total saturated",g,--,--,4.501,12.860
"Fatty acids, total trans",g,--,--,0.000,0.000
"Cholesterol",mg,--,--,0,0
Amino Acids
Other
Ingredients
"PEANUTS, PEANUT BUTTER CHIPS (SUGAR, HYDROGENATED PALM KERNEL OIL, PARTIALLY DEFATTED PEANUT FLOUR, NONFAT DRY MILK, WHEY POWDER, PEANUT BUTTER [PEANUTS, HYDROGENATED RAPESEED AND COTTONSEED OIL], DEXTROSE, SALT AND SOY LECITHIN), RAISINS COATED WITH LESS THAN 1% SUNFLOWER OIL, M&M'S PEANUT BUTTER CHOCOLATE CANDIES (MILK CHOCOLATE [SUGAR, COCOA BUTTER, CHOCOLATE, SKIM MILK, MILKFAT, LACTOSE, PEANUTS, SOY LECITHIN, SALT, ARTIFICIAL FLAVORS], PEANUT BUTTER [PARTIALLY DEFATTED PEANUTS], SUGAR, HYDROGENATED PALM KERNEL OIL, PARTIALLY DEFATTED PEANUT FLOUR, CORNSTARCH, DEXTROSE, LESS THAN 1% OF THE FOLLOWING: CORN SYRUP, NATURAL FLAVORS, SALT, DEXTRIN, COLORING [INCLUDES BLUE 1 LAKE, RED 40, YELLOW 6, YELLOW 5, BLUE 1, RED 40 LAKE, YELLOW 6 LAKE, YELLOW 5 LAKE, BLUE 2, BLUE 2 LAKE], PROPYL GALLATE TO MAINTAIN FRESHNESS, GUM ACACIA), PEANUT BUTTER COATED PRETZEL BALLS (PEANUT BUTTER COATING [SUGAR, HYDROGENATED PALM KERNEL OIL, PARTIALLY DEFATTED PEANUT FLOUR, NONFAT DRY MILK, DRY WHEY {MILK}, PEANUT BUTTER {PEANUTS, HYDROGENATED COTTONSEED AND RAPESEED OIL}, SALT, SOY LECITHIN], PRETZEL BALLS [ENRICHED WHEAT FLOUR {WHEAT FLOUR, NIACIN, REDUCED IRON, THIAMINE MONONITRATE, RIBOFLAVIN, FOLIC ACID}, VEGETABLE OIL {MAY CONTAIN ONE OR MORE OF THE FOLLOWING: CORN, CANOLA, SOYBEAN}, SALT, MALT, CORN SYRUP, BAKING SODA, YEAST]), MINI PEANUT BUTTER CUPS (MILK CHOCOLATE [SUGAR, COCOA BUTTER, CHOCOLATE, WHOLE MILK, SOY LECITHIN, NATURAL FLAVORS], SUGAR, PALM KERNEL OIL, PARTIALLY DEFATTED PEANUT FLOUR, NONFAT MILK, PEANUT BUTTER [PEANUTS, SALT], SALT, SOY LECITHIN), VEGETABLE OIL (PEANUT, COTTONSEED, SOYBEAN AND/OR SUNFLOWER SEED)." Date available: 09/29/2017 Date last updated by company: 09/29/2017
