Source: USDA Branded Food Products Database Release December 2017 Software v.3.8.6.4 2017-10-02
Report Run at: December 18, 2017 19:13 EST
"Nutrient data for: 45316482, TRAIL MIX, UPC: 046567023328"
Food Group:  Branded Food Products Database
Common Name:

Nutrient,Unit,Data points,Std. Error,"0.25 cup = 30.0g",1Value per 100 g,
Proximates
"Energy",kcal,--,--,130,433
"Protein",g,--,--,4.00,13.33
"Total lipid (fat)",g,--,--,7.00,23.33
"Carbohydrate, by difference",g,--,--,16.00,53.33
"Fiber, total dietary",g,--,--,2.0,6.7
"Sugars, total",g,--,--,9.00,30.00
Minerals
"Calcium, Ca",mg,--,--,0,0
"Iron, Fe",mg,--,--,1.20,4.00
"Sodium, Na",mg,--,--,90,300
Vitamins
"Vitamin C, total ascorbic acid",mg,--,--,4.0,13.3
"Vitamin A, IU",IU,--,--,0,0
Lipids
"Fatty acids, total saturated",g,--,--,0.501,1.670
"Fatty acids, total trans",g,--,--,0.000,0.000
"Cholesterol",mg,--,--,0,0
Amino Acids
Other
Ingredients
"CRANBERRIES (CRANBERRIES, SUGAR, SUNFLOWER OIL), WASABI PEAS (GREEN PEAS, CORN STARCH, WHEAT & RICE FLOUR, SUGAR, PALM OIL, SEA SALT, WASABI), GOLDEN RAISINS (RAISINS, SUNFLOWER OIL, SULFUR DIOXIDE ADDED FOR COLOR RETENTION), ALMONDS, PEANUTS, VEGETABLE OIL (MAY CONTAIN ONE OR MORE OF THE FOLLOWING: PEANUT, CANOLA, SUNFLOWER AND/OR SOYBEAN OIL), SALT." Date available: 07/14/2017 Date last updated by company: 07/14/2017
