Source: USDA Branded Food Products Database Release December 2017 Software v.3.8.6.4 2017-10-02
Report Run at: December 18, 2017 19:11 EST
"Nutrient data for: 45232021, {TRAIL MIX}, UPC: 049022943278"
Food Group:  Branded Food Products Database
Common Name:

Nutrient,Unit,Data points,Std. Error,"0.25 cup = 30.0g",1Value per 100 g,
Proximates
"Energy",kcal,--,--,140,467
"Protein",g,--,--,2.00,6.67
"Total lipid (fat)",g,--,--,8.00,26.67
"Carbohydrate, by difference",g,--,--,19.00,63.33
"Fiber, total dietary",g,--,--,2.0,6.7
"Sugars, total",g,--,--,14.00,46.67
Minerals
"Calcium, Ca",mg,--,--,0,0
"Iron, Fe",mg,--,--,1.80,6.00
"Sodium, Na",mg,--,--,75,250
Vitamins
"Vitamin C, total ascorbic acid",mg,--,--,0.0,0.0
"Vitamin A, IU",IU,--,--,0,0
Lipids
"Fatty acids, total saturated",g,--,--,3.000,10.000
"Fatty acids, total monounsaturated",g,--,--,0.999,3.330
"Fatty acids, total polyunsaturated",g,--,--,2.499,8.330
"Fatty acids, total trans",g,--,--,0.000,0.000
"Cholesterol",mg,--,--,0,0
Amino Acids
Other
Ingredients
"DRIED PINEAPPLE, (PINE APPLE, SUGAR, CITRIC ACID), DRIED PAPAYA (PAPAYA, SUGAR, CITRIC ACID, YELLOW 5, YELLOW 6), SWEETENED COCONUT FLAKES (COCONUT, CANE SUGAR, SEA SALT), WALNUTS, DRIED CRANBERRIES (CRANBERRIES, SUGAR, SUNFLOWER OIL), BANANA CHIPS (BANANAS, COCONUT OIL, SUGAR, NATURAL FLAVOR), CASHEWS, PEANUTS OIL AND/OR SOY OIL, SALT. DRIED FRUIT TREATED WITH SULFUR DIOXIDE TO PROMOTE COLOR RETENTION." Date available: 07/14/2017 Date last updated by company: 07/14/2017
