Source: USDA Branded Food Products Database Release December 2017 Software v.3.8.6.4 2017-10-02
Report Run at: December 18, 2017 19:15 EST
"Nutrient data for: 45166764, TRANSATLANTIC, ASSORTED BELGIAN CHOCOLATES, UPC: 851789005430"
Food Group:  Branded Food Products Database
Common Name:

Nutrient,Unit,Data points,Std. Error,"2.0 PCS = 25.0g",1Value per 100 g,
Proximates
"Energy",kcal,--,--,140,560
"Protein",g,--,--,1.00,4.00
"Total lipid (fat)",g,--,--,9.00,36.00
"Carbohydrate, by difference",g,--,--,13.00,52.00
"Fiber, total dietary",g,--,--,1.0,4.0
"Sugars, total",g,--,--,13.00,52.00
Minerals
"Calcium, Ca",mg,--,--,30,120
"Iron, Fe",mg,--,--,1.80,7.20
"Sodium, Na",mg,--,--,15,60
Vitamins
"Vitamin C, total ascorbic acid",mg,--,--,0.0,0.0
"Vitamin A, IU",IU,--,--,100,400
Lipids
"Fatty acids, total saturated",g,--,--,6.000,24.000
"Fatty acids, total trans",g,--,--,0.000,0.000
"Cholesterol",mg,--,--,5,20
Amino Acids
Other
Ingredients
"SUGAR, VEGETABLE FAT (COCONUT, PALM KERNEL, PALM, SUNFLOWER, CANOLA, SHEA), COCOA BUTTER, COCOA MASS, WHOLE MILK POWDER, SKIMMED MILK POWDER, HAZELNUTS, LACTOSE, LOW FAT COCOA POWDER, ANHYDROUS BUTTER, DEXTROSE, SOY LECITHIN (AS EMULSIFIER), RICE FLOUR, NATURAL FLAVORS, WHEAT GLUTEN, NATURAL COLOR, WHEAT MALT, SALT" Date available: 07/14/2017 Date last updated by company: 07/14/2017
