Source: USDA Branded Food Products Database Release December 2017 Software v.3.8.6.4 2017-10-02
Report Run at: December 18, 2017 19:15 EST
"Nutrient data for: 45205158, TRAPPEY'S, FIELD PEAS WITH SNAPS, UPC: 070320801182"
Food Group:  Branded Food Products Database
Common Name:

Nutrient,Unit,Data points,Std. Error,"0.5 cup = 129.0g",1Value per 100 g,
Proximates
"Energy",kcal,--,--,141,109
"Protein",g,--,--,9.00,6.98
"Total lipid (fat)",g,--,--,1.50,1.16
"Carbohydrate, by difference",g,--,--,23.00,17.83
"Fiber, total dietary",g,--,--,5.0,3.9
"Sugars, total",g,--,--,0.00,0.00
Minerals
"Calcium, Ca",mg,--,--,21,16
"Iron, Fe",mg,--,--,1.82,1.41
"Potassium, K",mg,--,--,104,81
"Sodium, Na",mg,--,--,301,233
Vitamins
"Vitamin C, total ascorbic acid",mg,--,--,0.0,0.0
"Vitamin A, IU",IU,--,--,0,0
Lipids
"Fatty acids, total saturated",g,--,--,0.000,0.000
"Fatty acids, total trans",g,--,--,0.000,0.000
"Cholesterol",mg,--,--,0,0
Amino Acids
Other
Ingredients
"FIELD PEAS, WATER, GREEN BEANS, BACON (CURED WITH SALT, BROWN SUGAR, BLACK PEPPER, SODIUM NITRITE), SALT, ONION POWDER." Date available: 07/14/2017 Date last updated by company: 07/14/2017
