Source: USDA Branded Food Products Database Release December 2017 Software v.3.8.6.4 2017-10-02
Report Run at: December 18, 2017 19:17 EST
"Nutrient data for: 45153851, TREASURED HARVEST, MIXED NUTS, UPC: 797565001039"
Food Group:  Branded Food Products Database
Common Name:

Nutrient,Unit,Data points,Std. Error,"0.5 CUP W/SHELLS) | (SHELLED = 28.0g",1Value per 100 g,
Proximates
"Energy",kcal,--,--,210,750
"Protein",g,--,--,6.00,21.43
"Total lipid (fat)",g,--,--,18.00,64.29
"Carbohydrate, by difference",g,--,--,5.00,17.86
"Fiber, total dietary",g,--,--,2.0,7.1
"Sugars, total",g,--,--,1.00,3.57
Minerals
"Calcium, Ca",mg,--,--,40,143
"Iron, Fe",mg,--,--,1.29,4.59
"Sodium, Na",mg,--,--,0,0
Vitamins
"Vitamin C, total ascorbic acid",mg,--,--,0.0,0.0
"Vitamin A, IU",IU,--,--,0,0
Lipids
"Fatty acids, total saturated",g,--,--,2.500,8.930
"Fatty acids, total trans",g,--,--,0.000,0.000
"Cholesterol",mg,--,--,0,0
Amino Acids
Other
Ingredients
"ALMONDS, BRAZIL NUTS, HAZELNUTS, PECANS, WALNUTS." Date available: 07/14/2017 Date last updated by company: 07/14/2017
