Source: USDA Branded Food Products Database Release December 2017 Software v.3.8.6.4 2017-10-02
Report Run at: December 18, 2017 19:21 EST
"Nutrient data for: 45174322, TRES LECHES STYLE CAKE, UPC: 049800157163"
Food Group:  Branded Food Products Database
Common Name:

Nutrient,Unit,Data points,Std. Error,"1 CAKE = 113.0g",1Value per 100 g,
Proximates
"Energy",kcal,--,--,280,248
"Protein",g,--,--,4.99,4.42
"Total lipid (fat)",g,--,--,10.00,8.85
"Carbohydrate, by difference",g,--,--,43.00,38.05
"Fiber, total dietary",g,--,--,1.0,0.9
"Sugars, total",g,--,--,28.00,24.78
Minerals
"Calcium, Ca",mg,--,--,99,88
"Iron, Fe",mg,--,--,0.77,0.68
"Sodium, Na",mg,--,--,231,204
"Zinc, Zn",mg,--,--,0.90,0.80
Vitamins
"Vitamin C, total ascorbic acid",mg,--,--,0.0,0.0
"Vitamin A, IU",IU,--,--,71,63
Lipids
"Fatty acids, total saturated",g,--,--,6.995,6.190
"Fatty acids, total trans",g,--,--,0.000,0.000
"Cholesterol",mg,--,--,115,102
Amino Acids
Other
Ingredients
"SKIM MILK, WATER, SUGAR, ENRICHED BLEACHED WHEAT FLOUR WITH ADDED ZINC (WHEAT FLOUR, NIACIN, IRON AS FERROUS SULFATE, ZINC OXIDE, THIAMINE MONONITRATE, RIBOFLAVIN, FOLIC ACID, ENZYME, ASCORBIC ACID, ADDED AS A DOUGH CONDITIONERS), EGGS, HIGH FRUCTOSE CORN SYRUP, EGG YOLKS, HYDROGENATED PALM KERNEL OIL, CORN SYRUP, CONTAINS LESS THAN 2% OF THE FOLLOWING: PALM KERNEL OIL, PALM OIL, COCOA ALKALI PROCESSED, MONO AND DIGLYCERIDES, LEAVENING (CALCIUM CARBONATE, BAKING SODA, ALUMINUM SODIUM SULFATE, MONOCALCIUM PHOSPHATE, SODIUM ACID PYROPHOSPHATE), SALT, SODIUM CASEINATE (A MILK DERIVATIVE, MODIFIED CORNSTARCH, DIPOTASSIUM PHOSPHATE, POLYSORBATE 60, ARTIFICIAL FLAVOR, TO PRESERVE FRESHNESS (POTASSIUM SORBATE, SODIUM PROPIONATE, TBHQ, CITRIC ACID), FUMARIC ACID, CARBOHYDRATE GUM, XANTHAN GUM, CELLULOSE GUM, POLYGLYCEROL ESTERS OF FATTY ACIDS, CARRAGEENAN, ARTIFICIAL COLORS (YELLOW 5, YELLOW 6, RED 40), COLORED WITH BETA CAROTENE." Date available: 07/14/2017 Date last updated by company: 07/14/2017
