Source: USDA Branded Food Products Database Release December 2017 Software v.3.8.6.4 2017-10-02
Report Run at: December 18, 2017 19:21 EST
"Nutrient data for: 45146249, TRETAP, PRISTINE CARBONATED WATER, WILD BLUEBERRY, UPC: 040232112928"
Food Group:  Branded Food Products Database
Common Name:

Nutrient,Unit,Data points,Std. Error,"12.0 OZA = 355.0g",1Value per 100 g,
Proximates
"Energy",kcal,--,--,4,1
"Protein",g,--,--,0.00,0.00
"Total lipid (fat)",g,--,--,0.00,0.00
"Carbohydrate, by difference",g,--,--,1.99,0.56
"Fiber, total dietary",g,--,--,0.0,0.0
"Sugars, total",g,--,--,1.99,0.56
Minerals
"Calcium, Ca",mg,--,--,0,0
"Iron, Fe",mg,--,--,0.00,0.00
"Sodium, Na",mg,--,--,0,0
Vitamins
"Vitamin C, total ascorbic acid",mg,--,--,0.0,0.0
"Vitamin A, IU",IU,--,--,0,0
Lipids
"Fatty acids, total saturated",g,--,--,0.000,0.000
"Fatty acids, total trans",g,--,--,0.000,0.000
"Cholesterol",mg,--,--,0,0
Amino Acids
Other
Ingredients
"MAPLE WATER, ORGANIC SUGAR, ORGANIC BLUEBERRY JUICE FROM CONCENTRATE, ORGANIC MAPLE SYRUP, CITRIC ACID, BLUEBERRY FLAVOR, MONK FRUIT EXTRACT AND CARBON DIOXIDE." Date available: 07/14/2017 Date last updated by company: 07/14/2017
