Source: USDA Branded Food Products Database Release December 2017 Software v.3.8.6.4 2017-10-02
Report Run at: December 18, 2017 19:23 EST
"Nutrient data for: 45103225, TRIBE, SWIRL, GARLIC & HERB HUMMUS, UPC: 078902411170"
Food Group:  Branded Food Products Database
Common Name:

Nutrient,Unit,Data points,Std. Error,"2.0 Tbsp = 28.0g",1Value per 100 g,
Proximates
"Energy",kcal,--,--,60,214
"Protein",g,--,--,2.00,7.14
"Total lipid (fat)",g,--,--,4.00,14.29
"Carbohydrate, by difference",g,--,--,5.00,17.86
"Fiber, total dietary",g,--,--,1.0,3.6
"Sugars, total",g,--,--,0.00,0.00
Minerals
"Calcium, Ca",mg,--,--,0,0
"Iron, Fe",mg,--,--,0.64,2.29
"Sodium, Na",mg,--,--,115,411
Vitamins
"Vitamin C, total ascorbic acid",mg,--,--,0.0,0.0
"Vitamin A, IU",IU,--,--,0,0
Lipids
"Fatty acids, total saturated",g,--,--,0.000,0.000
"Fatty acids, total trans",g,--,--,0.000,0.000
"Cholesterol",mg,--,--,0,0
Amino Acids
Other
Ingredients
"COOKED CHICKPEAS (CHICKPEAS, WATER), CANOLA OIL, GARLIC, WATER, TAHINI (GROUND SESAME), DRIED GARLIC FIRE ROASTED GARLIC, PARSLEY, SEA SALT, CITRIC ACID, LEMON JUICE CONCENTRATE, POTASSIUM SORBATE ADDED TO MAINTAIN FRESHNESS), XANTHAN GUM, GUAR GUM, TURMERIC." Date available: 06/25/2017 Date last updated by company: 06/25/2017
