Source: USDA Branded Food Products Database Release December 2017 Software v.3.8.6.4 2017-10-02
Report Run at: December 18, 2017 19:25 EST
"Nutrient data for: 45175295, TRIM ICING DECORATIONS, UPC: 070896360045"
Food Group:  Branded Food Products Database
Common Name:

Nutrient,Unit,Data points,Std. Error,"1 PIECE = 2.0g",1Value per 100 g,
Proximates
"Energy",kcal,--,--,10,500
"Protein",g,--,--,0.00,0.00
"Total lipid (fat)",g,--,--,0.00,0.00
"Carbohydrate, by difference",g,--,--,2.00,100.00
"Sugars, total",g,--,--,1.00,50.00
Minerals
"Sodium, Na",mg,--,--,0,0
Vitamins
Lipids
Amino Acids
Other
Ingredients
"CONFECTIONERS' SUGAR (SUGAR, CORN STARCH), TAPIOCA FLOUR, VEGETABLE SHORTENING (HYDROGENATED PALM OIL), POTASSIUM SORBATE (PRESERVATIVE), ARTIFICIAL FLAVOR, GUM ARABIC, CELLULOSE GUM, TARTARIC ACID, TITANIUM DIOXIDE (COLOR), FD&C RED #40, FD&C RED #3, FD&C YELLOW #5." Date available: 07/14/2017 Date last updated by company: 07/14/2017
