Source: USDA Branded Food Products Database Release December 2017 Software v.3.8.6.4 2017-10-02
Report Run at: December 18, 2017 19:25 EST
"Nutrient data for: 45217020, TRINGLE CIBATTA ROLLS, UPC: 041144809630"
Food Group:  Branded Food Products Database
Common Name:

Nutrient,Unit,Data points,Std. Error,"1 ROLL = 100.0g",1Value per 100 g,
Proximates
"Energy",kcal,--,--,250,250
"Protein",g,--,--,7.00,7.00
"Total lipid (fat)",g,--,--,5.00,5.00
"Carbohydrate, by difference",g,--,--,44.00,44.00
"Fiber, total dietary",g,--,--,2.0,2.0
"Sugars, total",g,--,--,1.00,1.00
Minerals
"Calcium, Ca",mg,--,--,20,20
"Iron, Fe",mg,--,--,0.90,0.90
"Sodium, Na",mg,--,--,470,470
Vitamins
"Vitamin C, total ascorbic acid",mg,--,--,0.0,0.0
"Vitamin A, IU",IU,--,--,0,0
Lipids
"Fatty acids, total saturated",g,--,--,1.000,1.000
"Fatty acids, total trans",g,--,--,0.000,0.000
"Cholesterol",mg,--,--,0,0
Amino Acids
Other
Ingredients
"ENRICHED WHEAT FLOUR (WHEAT FLOUR, NIACIN, REDUCED IRON, THIAMINE, RIBOFLAVIN, FOLIC ACID), ENRICHED DURUM WHEAT FLOUR (DURUM WHEAT FLOUR, NIACIN, FERROUS SULFATE, THIAMINE, RIBOFLAVIN, FOLIC ACID), VEGETABLE OIL (CANOLA OIL OR SOYBEAN OIL), SALT, YEAST, ENZYMES (DOUGH CONDITIONER)." Date available: 07/14/2017 Date last updated by company: 07/14/2017
