Source: USDA Branded Food Products Database Release December 2017 Software v.3.8.6.4 2017-10-02
Report Run at: December 18, 2017 19:29 EST
"Nutrient data for: 45265154, TRIPLE LAYER CAKE, UPC: 029519245115"
Food Group:  Branded Food Products Database
Common Name:

Nutrient,Unit,Data points,Std. Error,"0.06 OF CAKE = 76.0g",1Value per 100 g,
Proximates
"Energy",kcal,--,--,340,447
"Protein",g,--,--,2.00,2.63
"Total lipid (fat)",g,--,--,17.00,22.37
"Carbohydrate, by difference",g,--,--,45.00,59.21
"Fiber, total dietary",g,--,--,1.0,1.3
"Sugars, total",g,--,--,36.00,47.37
Minerals
"Calcium, Ca",mg,--,--,20,26
"Iron, Fe",mg,--,--,0.38,0.50
"Sodium, Na",mg,--,--,250,329
Vitamins
"Vitamin C, total ascorbic acid",mg,--,--,1.3,1.7
"Vitamin A, IU",IU,--,--,421,554
Lipids
"Fatty acids, total saturated",g,--,--,5.001,6.580
"Fatty acids, total trans",g,--,--,0.000,0.000
"Cholesterol",mg,--,--,30,39
Amino Acids
Other
Ingredients
"SUGAR, ENRICHED WHEAT FLOUR BLEACHED (FLOUR, NIACIN, IRON, THIAMINE MONONITRATE, RIBOFLAVIN, FOLIC ACID), SOYBEAN OIL, CREAM CHEESE (PASTEURIZED MILK AND CREAM, CHEESE CULTURE, SALT, CAROB BEAN GUM), WATER, PALM OIL, EGGS, CANOLA OIL, MARGARINE (PALM OIL, WATER, SOYBEAN OIL, SALT, MONO- AND DIGLYCERIDES, ANNATTO [COLOR], PRESERVATIVE [CALCIUM DISODIUM EDTA], ARTIFICIAL FLAVOR, VITAMIN A PALMITATE), CONTAINS 2% OR LESS OF: BETA-CAROTENE (COLOR), BLUE 1, CARAMEL COLOR, CARROTS, CINNAMON, CITRIC ACID, CORN SYRUP, CORNSTARCH, DEFATTED SOY FLOUR, DEXTROSE, DRIED CARROTS, EGG WHITES, EGG YOLKS, FOOD STARCH-MODIFIED, GUAR GUM, LEAVENING (BAKING SODA, SODIUM ACID PYROPHOSPHATE, SODIUM ALUMINUM PHOSPHATE), MONO- AND DIGLYCERIDES, NATURAL AND ARTIFICIAL FLAVOR, NONFAT MILK, POLYSORBATE 60, POLYSORBATE 80, PRESERVATIVES (POTASSIUM SORBATE, SODIUM PROPIONATE, SORBIC ACID), SALT, SOY LECITHIN, XANTHAN GUM, YELLOW 5, YELLOW 6, YELLOW CORN FLOUR." Date available: 07/14/2017 Date last updated by company: 07/14/2017
