Source: USDA Branded Food Products Database Release December 2017 Software v.3.8.6.4 2017-10-02
Report Run at: December 18, 2017 19:29 EST
"Nutrient data for: 45265165, TRIPLE LAYER CAKE, UPC: 029519245153"
Food Group:  Branded Food Products Database
Common Name:

Nutrient,Unit,Data points,Std. Error,"0.066 OF CAKE = 77.0g",1Value per 100 g,
Proximates
"Energy",kcal,--,--,360,468
"Protein",g,--,--,2.00,2.60
"Total lipid (fat)",g,--,--,19.00,24.68
"Carbohydrate, by difference",g,--,--,45.00,58.44
"Fiber, total dietary",g,--,--,1.0,1.3
"Sugars, total",g,--,--,37.00,48.05
Minerals
"Calcium, Ca",mg,--,--,20,26
"Iron, Fe",mg,--,--,0.38,0.49
"Sodium, Na",mg,--,--,240,312
Vitamins
"Vitamin C, total ascorbic acid",mg,--,--,0.0,0.0
"Vitamin A, IU",IU,--,--,0,0
Lipids
"Fatty acids, total saturated",g,--,--,6.999,9.090
"Fatty acids, total trans",g,--,--,0.000,0.000
"Cholesterol",mg,--,--,25,32
Amino Acids
Other
Ingredients
"SUGAR, ENRICHED WHEAT FLOUR BLEACHED, (FLOUR, NIACIN, IRON, THIAMINE MONONITRATE, RIBOFLAVIN FOLIC ACID), PALM OIL, WATER, EGGS, CANOLA OIL, SOYBEAN OIL, CONTAINS 2% OR LESS OF: BETA-CAROTENE (COLOR), CARRAGEENAN, CELLULOSE GEL, CELLULOSE GUM, CITRIC ACID, CORN SYRUP, CORNSTARCH, DEFATTED SOY FLOUR, DEXTROSE, ,EGG WHITES, FOOD STARCH-MODIFIED, GUAR GUM, HIGH OLEIC SUNFLOWER AND/OR CANOLA OIL, HYDROGENATED COTTONSEED OIL, INVERT SUGAR, LEAVENING (BAKING SODA, MONOCALCIUM PHOSPHATE, SODIUM ACID PYROPHOSPHATE, SODIUM ALUMINUM PHOSPHATE), MONO- AND DIGLYCERIDES, NATURAL AND ARTIFICIAL FLAVOR, NONFAT MILK, POLYSORBATE 60, POLYSORBATE 80, PRESERVATIVES (POTASSIUM SORBATE, SODIUM PROPIONATE, SORBIC ACID), PROPYLENE GLYCOL MONO-AND DIESTERS OF FATTY ACIDS, SALT, SODIUM STEAROYL LACTYLATE, SOY LECITHIN, WHEY, XANTHAN GUM, YELLOW CORN FLOUR." Date available: 07/14/2017 Date last updated by company: 07/14/2017
