Source: USDA Branded Food Products Database Release December 2017 Software v.3.8.6.4 2017-10-02
Report Run at: December 18, 2017 19:28 EST
"Nutrient data for: 45210896, TRIPLE CLEANED PINTO BEANS, UPC: 071187221618"
Food Group:  Branded Food Products Database
Common Name:

Nutrient,Unit,Data points,Std. Error,"0.25 cup = 36.0g",1Value per 100 g,
Proximates
"Energy",kcal,--,--,60,167
"Protein",g,--,--,7.00,19.44
"Total lipid (fat)",g,--,--,0.00,0.00
"Carbohydrate, by difference",g,--,--,22.00,61.11
"Fiber, total dietary",g,--,--,14.0,38.9
"Sugars, total",g,--,--,1.00,2.78
Minerals
"Calcium, Ca",mg,--,--,40,111
"Iron, Fe",mg,--,--,2.70,7.50
"Sodium, Na",mg,--,--,15,42
Vitamins
"Vitamin C, total ascorbic acid",mg,--,--,0.0,0.0
"Vitamin A, IU",IU,--,--,0,0
Lipids
"Fatty acids, total saturated",g,--,--,0.000,0.000
"Fatty acids, total trans",g,--,--,0.000,0.000
"Cholesterol",mg,--,--,0,0
Amino Acids
Other
Ingredients
"PINTO BEANS" Date available: 12/06/2016 Date last updated by company: 12/06/2016
