Source: USDA Branded Food Products Database Release December 2017 Software v.3.8.6.4 2017-10-02
Report Run at: December 18, 2017 19:29 EST
"Nutrient data for: 45193854, TRIPLE D SMOKE SAUCE, UPC: 018959003119"
Food Group:  Branded Food Products Database
Common Name:

Nutrient,Unit,Data points,Std. Error,"2.0 Tbsp = 30.0g",1Value per 100 g,
Proximates
"Energy",kcal,--,--,190,633
"Protein",g,--,--,0.00,0.00
"Total lipid (fat)",g,--,--,19.00,63.33
"Carbohydrate, by difference",g,--,--,7.00,23.33
"Sugars, total",g,--,--,5.00,16.67
Minerals
"Calcium, Ca",mg,--,--,0,0
"Iron, Fe",mg,--,--,0.00,0.00
"Sodium, Na",mg,--,--,125,417
Vitamins
"Vitamin C, total ascorbic acid",mg,--,--,0.0,0.0
"Vitamin A, IU",IU,--,--,0,0
Lipids
"Fatty acids, total saturated",g,--,--,0.000,0.000
"Fatty acids, total trans",g,--,--,0.000,0.000
"Cholesterol",mg,--,--,15,50
Amino Acids
Other
Ingredients
"SALAD DRESSING (SOYBEAN OIL, WATER, CORN SYRUP, EGG YOLKS, DISTILLED VINEGAR, CONTAINS LESS THAN 2% OF SALT, SPICE, CALCIUM DISODIUM EDTA ADDED TO PROTECT FLAVOR), SUGAR, CONTAINS LESS THAN 2% OF NATURAL SMOKE FLAVOR, WORCESTERSHIRE SAUCE (DISTILLED VINEGAR, MOLASSES, CORN SYRUP, WATER, SALT, CARAMEL COLOR, GARLIC POWDER, SUGAR, SPICES, TAMARIND, AND NATURAL FLAVOR, SULFITE AGENT), POTASSIUM SORBATE AND SODIUM BENZOATE (TO PRESERVE FRESHNESS)." Date available: 07/14/2017 Date last updated by company: 07/14/2017
