Source: USDA Branded Food Products Database Release December 2017 Software v.3.8.6.4 2017-10-02
Report Run at: December 18, 2017 19:27 EST
"Nutrient data for: 45202876, TRIPLE CHEESE PIZZA, UPC: 810882010130"
Food Group:  Branded Food Products Database
Common Name:

Nutrient,Unit,Data points,Std. Error,"7.0 PIECES = 89.0g",1Value per 100 g,
Proximates
"Energy",kcal,--,--,200,225
"Protein",g,--,--,8.00,8.99
"Total lipid (fat)",g,--,--,5.00,5.62
"Carbohydrate, by difference",g,--,--,30.00,33.71
"Fiber, total dietary",g,--,--,2.0,2.2
"Sugars, total",g,--,--,2.00,2.25
Minerals
"Calcium, Ca",mg,--,--,20,22
"Iron, Fe",mg,--,--,1.08,1.21
"Sodium, Na",mg,--,--,210,236
Vitamins
"Vitamin C, total ascorbic acid",mg,--,--,9.0,10.1
"Vitamin A, IU",IU,--,--,400,449
Lipids
"Fatty acids, total saturated",g,--,--,2.002,2.250
"Fatty acids, total trans",g,--,--,0.000,0.000
"Cholesterol",mg,--,--,10,11
Amino Acids
Other
Ingredients
"WRAPPER (WHEAT FLOUR, WATER, WHOLE WHEAT FLOUR), FILLING (WATER, LOW MOISTURE PART SKIM MOZZARELLA CHEESE [PASTEURIZED PART SKIM MILK, CHEESE CULTURES, SEA SALT, VEGETABLE ENZYMES], TOMATO PASTE [TOMATOES], VEGETABLES (CARROTS, SPINACH), ROMANO AND PARMESAN CHEESES [MILK, CELLULOSE (TO PREVENT CAKING), SALT, CHEESE CULTURES, ENZYMES], CORN STARCH, SEASONINGS [DRIED CANE SYRUP, SALT, ONION POWDER, SPICES], SEA SALT, SOYBEAN OIL), CANOLA OIL." Date available: 11/30/2016 Date last updated by company: 11/30/2016
