Source: USDA Branded Food Products Database Release December 2017 Software v.3.8.6.4 2017-10-02
Report Run at: December 18, 2017 19:29 EST
"Nutrient data for: 45180051, TRIPLE CREME BRIE SOFT-RIPENED CHEESE, UPC: 708820499171"
Food Group:  Branded Food Products Database
Common Name:

Nutrient,Unit,Data points,Std. Error,"1 ONZ = 28.0g",1Value per 100 g,
Proximates
"Energy",kcal,--,--,130,464
"Protein",g,--,--,5.00,17.86
"Total lipid (fat)",g,--,--,12.00,42.86
"Carbohydrate, by difference",g,--,--,0.00,0.00
"Fiber, total dietary",g,--,--,0.0,0.0
"Sugars, total",g,--,--,0.00,0.00
Minerals
"Calcium, Ca",mg,--,--,50,179
"Iron, Fe",mg,--,--,0.10,0.36
"Potassium, K",mg,--,--,40,143
"Sodium, Na",mg,--,--,170,607
Vitamins
"Vitamin D",IU,--,--,0,0
Lipids
"Fatty acids, total saturated",g,--,--,8.000,28.570
"Fatty acids, total trans",g,--,--,0.000,0.000
"Cholesterol",mg,--,--,40,143
Amino Acids
Other
Ingredients
"PASTEURIZED MILK, PASTEURIZED CREAM, CULTURES, SALT, ENZYMES." Date available: 10/18/2017 Date last updated by company: 10/18/2017
