Source: USDA Branded Food Products Database Release December 2017 Software v.3.8.6.4 2017-10-02
Report Run at: December 18, 2017 19:30 EST
"Nutrient data for: 45206520, TRIPLE ZERO BLENDED GREEK NONFAT YOGURT, UPC: 036632019875"
Food Group:  Branded Food Products Database
Common Name:

Nutrient,Unit,Data points,Std. Error,"1 CONTAINER = 150.0g",1Value per 100 g,
Proximates
"Energy",kcal,--,--,120,80
"Protein",g,--,--,15.00,10.00
"Total lipid (fat)",g,--,--,0.00,0.00
"Carbohydrate, by difference",g,--,--,13.99,9.33
"Fiber, total dietary",g,--,--,6.0,4.0
"Sugars, total",g,--,--,6.00,4.00
Minerals
"Calcium, Ca",mg,--,--,150,100
"Iron, Fe",mg,--,--,0.00,0.00
"Potassium, K",mg,--,--,210,140
"Sodium, Na",mg,--,--,64,43
Vitamins
"Vitamin C, total ascorbic acid",mg,--,--,0.0,0.0
"Vitamin A, IU",IU,--,--,114,76
"Vitamin D",IU,--,--,60,40
Lipids
"Fatty acids, total saturated",g,--,--,0.000,0.000
"Fatty acids, total trans",g,--,--,0.000,0.000
"Cholesterol",mg,--,--,4,3
Amino Acids
Other
Ingredients
"CULTURED GRADE A NON FAT MILK, CHICORY ROOT FIBER, WATER, CONTAINS LESS THAN 1% OF NATURAL FLAVOR, BETA CAROTENE AND ANNATTO EXTRACT (FOR COLOR), STEVIA LEAF EXTRACT, CARRAGEENAN, MALIC ACID, SEA SALT, SODIUM CITRATE, VITAMIN D3." Date available: 07/14/2017 Date last updated by company: 07/14/2017
