Source: USDA Branded Food Products Database Release December 2017 Software v.3.8.6.4 2017-10-02
Report Run at: December 18, 2017 19:31 EST
"Nutrient data for: 45155480, TROLLI, GUMMY CANDY, UPC: 041420110528"
Food Group:  Branded Food Products Database
Common Name:

Nutrient,Unit,Data points,Std. Error,"20.0 PIECES = 48.0g",1Value per 100 g,
Proximates
"Energy",kcal,--,--,130,271
"Protein",g,--,--,2.00,4.17
"Total lipid (fat)",g,--,--,0.00,0.00
"Carbohydrate, by difference",g,--,--,31.00,64.58
"Sugars, total",g,--,--,18.00,37.50
Minerals
"Sodium, Na",mg,--,--,65,135
Vitamins
Lipids
Amino Acids
Other
Ingredients
"CORN SYRUP, SUGAR, GELATIN, MODIFIED FOOD STARCH (CORN), FUMARIC ACID, LACTIC ACID, CITRIC ACID, SODIUM CITRATE, CALCIUM LACTATE, SODIUM LACTATE, NATURAL AND ARTIFICIAL FLAVORS, TITANIUM DIOXIDE (COLOR), RED 40, YELLOW 5, YELLOW 6, BLUE 1." Date available: 07/14/2017 Date last updated by company: 07/14/2017
