Source: USDA Branded Food Products Database Release December 2017 Software v.3.8.6.4 2017-10-02
Report Run at: December 18, 2017 19:33 EST
"Nutrient data for: 45028411, TROLLI, SOUR WATERMELON SHARKS, UPC: 041420100826"
Food Group:  Branded Food Products Database
Common Name:

Nutrient,Unit,Data points,Std. Error,"4.0 PIECES = 39.0g",1Value per 100 g,
Proximates
"Energy",kcal,--,--,130,333
"Protein",g,--,--,0.00,0.00
"Total lipid (fat)",g,--,--,0.00,0.00
"Carbohydrate, by difference",g,--,--,32.00,82.05
"Sugars, total",g,--,--,19.00,48.72
Minerals
"Sodium, Na",mg,--,--,30,77
Vitamins
Lipids
Amino Acids
Other
Ingredients
"SUGAR, CORN SYRUP, MODIFIED FOOD STARCH (CORN), TARTARIC ACID, MALIC ACID, CITRIC ACID, NATURAL AND ARTIFICIAL FLAVOR, SODIUM CITRATE, TITANIUM DIOXIDE (COLOR), RED 40, YELLOW 5, BLUE 1." Date available: 07/14/2017 Date last updated by company: 07/14/2017
