Source: USDA Branded Food Products Database Release December 2017 Software v.3.8.6.4 2017-10-02
Report Run at: December 18, 2017 19:32 EST
"Nutrient data for: 45163867, TROLLI, SOUR BRITE BLASTS GUMMY CANDY, UPC: 041420102660"
Food Group:  Branded Food Products Database
Common Name:

Nutrient,Unit,Data points,Std. Error,"11.0 PIECES = 41.0g",1Value per 100 g,
Proximates
"Energy",kcal,--,--,130,317
"Protein",g,--,--,1.00,2.44
"Total lipid (fat)",g,--,--,0.00,0.00
"Carbohydrate, by difference",g,--,--,31.00,75.61
"Sugars, total",g,--,--,22.00,53.66
Minerals
"Sodium, Na",mg,--,--,25,61
Vitamins
Lipids
Amino Acids
Other
Ingredients
"CORN SYRUP, SUGAR, GELATIN, MODIFIED FOOD STARCH (POTATO), CITRIC ACID, FUMARIC ACID, PECTIN, TITANIUM DIOXIDE (COLOR), LACTIC ACID, MODIFIED FOOD STARCH (CORN), CALCIUM LACTATE, SODIUM CITRATE, NATURAL AND ARTIFICIAL FLAVORS, RED 40, YELLOW 6, BLUE 1, YELLOW 5." Date available: 07/14/2017 Date last updated by company: 07/14/2017
