Source: USDA Branded Food Products Database Release December 2017 Software v.3.8.6.4 2017-10-02
Report Run at: December 18, 2017 19:31 EST
"Nutrient data for: 45018599, TROLLI, EVILTWINS, CANDIES, UPC: 020709100160"
Food Group:  Branded Food Products Database
Common Name:

Nutrient,Unit,Data points,Std. Error,"7.0 PIECES = 42.0g",1Value per 100 g,
Proximates
"Energy",kcal,--,--,130,310
"Protein",g,--,--,3.00,7.14
"Total lipid (fat)",g,--,--,0.00,0.00
"Carbohydrate, by difference",g,--,--,31.00,73.81
"Sugars, total",g,--,--,18.00,42.86
Minerals
"Sodium, Na",mg,--,--,95,226
Vitamins
Lipids
Amino Acids
Other
Ingredients
"CORN SYRUP, SUGAR, GELATIN, CITRIC ACID, MALIC ACID, SODIUM CITRATE, LACTIC ACID, NATURAL AND ARTIFICIAL FLAVORS, COCONUT OIL*, SODIUM LACTATE, TITANIUM DIOXIDE (COLOR), CARNAUBA WAX*, YELLOW 5, RED 40, BLUE 1, YELLOW 6." Date available: 07/14/2017 Date last updated by company: 07/14/2017
