Source: USDA Branded Food Products Database Release December 2017 Software v.3.8.6.4 2017-10-02
Report Run at: December 18, 2017 19:32 EST
"Nutrient data for: 45146642, TROLLI, SOUR BRITE CRAWLERS, GUMMI CANDY, UPC: 041420076909"
Food Group:  Branded Food Products Database
Common Name:

Nutrient,Unit,Data points,Std. Error,"12.0 PIECES = 40.0g",1Value per 100 g,
Proximates
"Energy",kcal,--,--,130,325
"Protein",g,--,--,2.00,5.00
"Total lipid (fat)",g,--,--,0.00,0.00
"Carbohydrate, by difference",g,--,--,30.00,75.00
"Sugars, total",g,--,--,24.00,60.00
Minerals
"Sodium, Na",mg,--,--,35,88
Vitamins
Lipids
Amino Acids
Other
Ingredients
"CORN SYRUP, SUGAR, GELATIN, FUMARIC ACID, LACTIC ACID, CITRIC ACID, TITANIUM DIOXIDE (COLOR), SODIUM LACTATE, NATURAL AND ARTIFICIAL FLAVORS, CALCIUM LACTATE, RED 40, YELLOW 5, BLUE 1." Date available: 07/14/2017 Date last updated by company: 07/14/2017
