Source: USDA Branded Food Products Database Release December 2017 Software v.3.8.6.4 2017-10-02
Report Run at: December 18, 2017 19:31 EST
"Nutrient data for: 45146675, TROLLI, GUMMIES, UPC: 041420114571"
Food Group:  Branded Food Products Database
Common Name:

Nutrient,Unit,Data points,Std. Error,"1 POUCH = 17.0g",1Value per 100 g,
Proximates
"Energy",kcal,--,--,50,294
"Protein",g,--,--,1.00,5.88
"Total lipid (fat)",g,--,--,0.00,0.00
"Carbohydrate, by difference",g,--,--,13.00,76.47
"Fiber, total dietary",g,--,--,0.0,0.0
"Sugars, total",g,--,--,11.00,64.71
Minerals
"Calcium, Ca",mg,--,--,0,0
"Iron, Fe",mg,--,--,0.00,0.00
"Sodium, Na",mg,--,--,10,59
Vitamins
"Vitamin C, total ascorbic acid",mg,--,--,0.0,0.0
"Vitamin A, IU",IU,--,--,0,0
Lipids
"Fatty acids, total saturated",g,--,--,0.000,0.000
"Fatty acids, total trans",g,--,--,0.000,0.000
"Cholesterol",mg,--,--,0,0
Amino Acids
Other
Ingredients
"SOUR BRITE CRAWLERS: CORN SYRUP, SUGAR, GELATIN, FUMARIC ACID, LACTIC ACID, CITRIC ACID, SODIUM LACTATE, CALCIUM LACTATE, TITANIUM DIOXIDE (COLOR), NATURAL AND ARTIFICIAL FLAVORS, YELLOW 5, RED 40, YELLOW 6, BLUE 1.EVIL TWINS: CORN SYRUP, SUGAR, GELATIN, CITRIC ACID, MALIC ACID, SODIUM CITRATE, LACTIC ACID, NATURAL AND ARTIFICIAL FLAVORS, COCONUT OIL, SODIUM LACTATE, TITANIUM DIOXIDE (COLOR), CARNAUBA WAX, YELLOW 5, RED 40, BLUE 1, YELLOW 6., SOUR BRITE EGGS: SUGAR, CORN SYRUP, GELATIN, CITRIC ACID, LACTIC ACID, FUMARIC ACID, MALTODEXTRIN, CONFECTIONER'S GLAZE, ACACIA (GUM ARABIC), NATURAL AND ARTIFICIAL FLAVORS, CALCIUM LACTATE, SODIUM LACTATE, TITANIUM DIOXIDE (COLOR), CARNAUBA WAX, BEESWAX, RED 40, YELLOW 5, YELLOW 6, BLUE 1, SODIUM CITRATE." Date available: 07/14/2017 Date last updated by company: 07/14/2017
