Source: USDA Branded Food Products Database Release December 2017 Software v.3.8.6.4 2017-10-02
Report Run at: December 18, 2017 19:45 EST
"Nutrient data for: 45330122, TROPIC TWIN POPS, UPC: 074534901942"
Food Group:  Branded Food Products Database
Common Name:

Nutrient,Unit,Data points,Std. Error,"1 TWIN POP = 63.0g",1Value per 100 g,
Proximates
"Energy",kcal,--,--,40,63
"Protein",g,--,--,0.00,0.00
"Total lipid (fat)",g,--,--,0.00,0.00
"Carbohydrate, by difference",g,--,--,11.00,17.46
"Fiber, total dietary",g,--,--,0.0,0.0
"Sugars, total",g,--,--,11.00,17.46
Minerals
"Calcium, Ca",mg,--,--,3,5
"Iron, Fe",mg,--,--,0.00,0.00
"Potassium, K",mg,--,--,0,0
"Sodium, Na",mg,--,--,0,0
Vitamins
"Vitamin D",IU,--,--,0,0
Lipids
"Fatty acids, total saturated",g,--,--,0.000,0.000
"Fatty acids, total trans",g,--,--,0.000,0.000
"Cholesterol",mg,--,--,0,0
Amino Acids
Other
Ingredients
"WATER, SUGAR, HIGH FRUCTOSE CORN SYRUP, CORN SYRUP, CONTAINS LESS THAN 2% OF CITRIC ACID, GUAR GUM, CELLULOSE GUM, XANTHAN GUM, NATURAL AND ARTIFICIAL FLAVORS, YELLOW 5, YELLOW 6, RED 40, BLUE 1." Date available: 10/13/2017 Date last updated by company: 10/13/2017
