Source: USDA Branded Food Products Database Release December 2017 Software v.3.8.6.4 2017-10-02
Report Run at: December 18, 2017 19:39 EST
"Nutrient data for: 45237025, TROPICAL MILK CHOCOLATE, UPC: 011215319825"
Food Group:  Branded Food Products Database
Common Name:

Nutrient,Unit,Data points,Std. Error,"1 BAR = 42.0g",1Value per 100 g,
Proximates
"Energy",kcal,--,--,180,429
"Protein",g,--,--,1.00,2.38
"Total lipid (fat)",g,--,--,7.00,16.67
"Carbohydrate, by difference",g,--,--,29.00,69.05
"Fiber, total dietary",g,--,--,0.0,0.0
"Sugars, total",g,--,--,25.00,59.52
Minerals
"Calcium, Ca",mg,--,--,40,95
"Iron, Fe",mg,--,--,0.43,1.02
"Sodium, Na",mg,--,--,30,71
Vitamins
"Vitamin C, total ascorbic acid",mg,--,--,1.4,3.4
"Vitamin A, IU",IU,--,--,0,0
Lipids
"Fatty acids, total saturated",g,--,--,4.498,10.710
"Fatty acids, total trans",g,--,--,0.000,0.000
"Cholesterol",mg,--,--,5,12
Amino Acids
Other
Ingredients
"MILK CHOCOLATE [SUGAR, COCOA BUTTER, WHOLE MILK POWDER, CHOCOLATE LIQUOR, SOY LECITHIN, VANILLIN], SUGAR, CORN SYRUP, BANANA PUREE, STRAWBERRY PUREE, DRIED COCONUT, FREEZE DRIED ORANGE POWDER, EGG WHITES, ARTIFICIAL AND NATURAL FLAVORS, SALT, INVERTASE." Date available: 06/25/2017 Date last updated by company: 06/25/2017
