Source: USDA Branded Food Products Database Release December 2017 Software v.3.8.6.4 2017-10-02
Report Run at: December 18, 2017 19:37 EST
"Nutrient data for: 45290129, TROPICAL FRUIT MEDLEY, UPC: 021130286959"
Food Group:  Branded Food Products Database
Common Name:

Nutrient,Unit,Data points,Std. Error,"1 CONTAINER = 198.0g",1Value per 100 g,
Proximates
"Energy",kcal,--,--,111,56
"Protein",g,--,--,0.00,0.00
"Total lipid (fat)",g,--,--,0.00,0.00
"Carbohydrate, by difference",g,--,--,27.01,13.64
"Fiber, total dietary",g,--,--,2.0,1.0
"Sugars, total",g,--,--,25.01,12.63
Minerals
"Calcium, Ca",mg,--,--,40,20
"Iron, Fe",mg,--,--,0.51,0.26
"Sodium, Na",mg,--,--,20,10
Vitamins
"Vitamin C, total ascorbic acid",mg,--,--,42.4,21.4
"Vitamin A, IU",IU,--,--,212,107
Lipids
"Fatty acids, total saturated",g,--,--,0.000,0.000
"Fatty acids, total trans",g,--,--,0.000,0.000
"Cholesterol",mg,--,--,0,0
Amino Acids
Other
Ingredients
"FRUIT (PINEAPPLE, RED AND/OR YELLOW PAPAYA), WATER, CANE SUGAR, CITRIC ACID, ASCORBIC ACID (VITAMIN C)." Date available: 09/15/2017 Date last updated by company: 09/15/2017
