Source: USDA Branded Food Products Database Release December 2017 Software v.3.8.6.4 2017-10-02
Report Run at: December 18, 2017 19:39 EST
"Nutrient data for: 45214567, TROPICAL MANGO BEVERAGE, UPC: 057961027904"
Food Group:  Branded Food Products Database
Common Name:

Nutrient,Unit,Data points,Std. Error,"1 CUP = 240.0g",1Value per 100 g,
Proximates
"Energy",kcal,--,--,10,4
"Protein",g,--,--,0.00,0.00
"Total lipid (fat)",g,--,--,0.00,0.00
"Carbohydrate, by difference",g,--,--,7.99,3.33
"Fiber, total dietary",g,--,--,0.0,0.0
"Sugars, total",g,--,--,1.01,0.42
Minerals
"Calcium, Ca",mg,--,--,0,0
"Iron, Fe",mg,--,--,0.00,0.00
"Potassium, K",mg,--,--,14,6
"Sodium, Na",mg,--,--,19,8
Vitamins
"Vitamin C, total ascorbic acid",mg,--,--,9.1,3.8
"Vitamin A, IU",IU,--,--,199,83
Lipids
"Fatty acids, total saturated",g,--,--,0.000,0.000
"Fatty acids, total trans",g,--,--,0.000,0.000
"Cholesterol",mg,--,--,0,0
Amino Acids
Other
Ingredients
"FILTERED WATER, PINEAPPLE JUICE FROM CONCENTRATE (FILTERED WATER, CONCENTRATED PINEAPPLE JUICE), MANGO PUREE FROM CONCENTRATE (FILTERED WATER, CONCENTRATED MANGO PUREE), ERYTHRITOL, CITRIC ACID, NATURAL FLAVOR, PECTIN, MODIFIED CORN STARCH, SUCRALOSE, ACESULFAME-POTASSIUM, ANNATTO (FOR COLOR), VITAMIN C." Date available: 08/20/2017 Date last updated by company: 08/20/2017
