Source: USDA Branded Food Products Database Release December 2017 Software v.3.8.6.4 2017-10-02
Report Run at: December 18, 2017 19:42 EST
"Nutrient data for: 45153311, TROPICAL TRAIL MIX, UPC: 690166106076"
Food Group:  Branded Food Products Database
Common Name:

Nutrient,Unit,Data points,Std. Error,"0.25 cup = 30.0g",1Value per 100 g,
Proximates
"Energy",kcal,--,--,130,433
"Protein",g,--,--,2.00,6.67
"Total lipid (fat)",g,--,--,5.00,16.67
"Carbohydrate, by difference",g,--,--,19.00,63.33
"Fiber, total dietary",g,--,--,1.0,3.3
"Sugars, total",g,--,--,13.00,43.33
Minerals
"Calcium, Ca",mg,--,--,40,133
"Iron, Fe",mg,--,--,1.20,4.00
"Sodium, Na",mg,--,--,50,167
Vitamins
"Vitamin C, total ascorbic acid",mg,--,--,2.0,6.7
"Vitamin A, IU",IU,--,--,0,0
Lipids
"Fatty acids, total saturated",g,--,--,2.001,6.670
"Fatty acids, total trans",g,--,--,0.000,0.000
"Cholesterol",mg,--,--,0,0
Amino Acids
Other
Ingredients
"PINEAPPLES (PINEAPPLE, SUGAR, CITRIC ACID, SULFUR DIOXIDE ADDED FOR COLOR RETENTION), PAPAYAS (PAPAYA, SUGAR, SULFUR DIOXIDE ADDED FOR COLOR RETENTION, FD&C YELLOW #5, FD&C YELLOW #6), BANANA CHIPS (BANANA, SUGAR, COCONUT OIL, NATURAL BANANA FLAVORING), GOLDEN RAISINS (RAISINS, SUNFLOWER OIL, SULFUR DIOXIDE ADDED FOR COLOR RETENTION), PEANUTS, MANGO SLICES (MANGO, SUGAR, SULFUR DIOXIDE ADDED FOR COLOR RETENTION, COLOR [YELLOW 5, YELLOW 6], CITRIC ACID), KIWI (KIWI, SUGAR, SULFUR DIOXIDE ADDED FOR COLOR RETENTION, CITRIC ACID), ALMONDS, CASHEWS, COCONUT (COCONUT, SUGAR, PROPYLENE GLYCOL, STARCH, SALT, SODIUM METABISULFITE), VEGETABLE OIL (MAY CONTAIN ONE OR MORE OF THE FOLLOWING: PEANUT AND/OR CANOLA OIL), SALT." Date available: 07/14/2017 Date last updated by company: 07/14/2017
