Source: USDA Branded Food Products Database Release December 2017 Software v.3.8.6.4 2017-10-02
Report Run at: December 18, 2017 19:42 EST
"Nutrient data for: 45317154, TROPICANA, FARMSTAND, 100% APPLE BLEND FRUIT & VEGETABLE JUICE, UPC: 048500022009"
Food Group:  Branded Food Products Database
Common Name:

Nutrient,Unit,Data points,Std. Error,"8.0 OZA = 240.0g",1Value per 100 g,
Proximates
"Energy",kcal,--,--,120,50
"Protein",g,--,--,0.00,0.00
"Total lipid (fat)",g,--,--,0.00,0.00
"Carbohydrate, by difference",g,--,--,31.01,12.92
"Sugars, total",g,--,--,25.01,10.42
Minerals
"Magnesium, Mg",mg,--,--,17,7
"Potassium, K",mg,--,--,300,125
"Sodium, Na",mg,--,--,60,25
Vitamins
"Vitamin C, total ascorbic acid",mg,--,--,60.0,25.0
"Vitamin B-6",mg,--,--,0.079,0.033
"Vitamin A, IU",IU,--,--,2501,1042
Lipids
"Fatty acids, total saturated",g,--,--,0.000,0.000
"Fatty acids, total trans",g,--,--,0.000,0.000
"Cholesterol",mg,--,--,0,0
Amino Acids
Other
Ingredients
"RECONSTITUTED CLARIFIED SWEET POTATO JUICE, GRAPE JUICE, APPLE JUICE, BANANA PUREE, YELLOW CARROT JUICE, MANGO PUREE (FILTERED WATER, CLARIFIED SWEET POTATO JUICE, GRAPE JUICE, APPLE JUICE, BANANA PUREE, YELLOW CARROT JUICE AND MANGO PUREE CONCENTRATES), NATURAL FLAVOR, FRUIT JUICE FOR COLOR, ASCORBIC ACID (VITAMIN C), CITRIC ACID AND BETA-CAROTENE." Date available: 06/24/2017 Date last updated by company: 06/24/2017
