Source: USDA Branded Food Products Database Release December 2017 Software v.3.8.6.4 2017-10-02
Report Run at: December 18, 2017 19:40 EST
"Nutrient data for: 45170780, TROPICAL PEPPER CO., SPECIAL EDITION XXXXTRA HOT HABANERO PEPPER SAUCE, UPC: 076606541162"
Food Group:  Branded Food Products Database
Common Name:

Nutrient,Unit,Data points,Std. Error,"1 tsp = 5.0g",1Value per 100 g,
Proximates
"Energy",kcal,--,--,0,0
"Protein",g,--,--,0.00,0.00
"Total lipid (fat)",g,--,--,0.00,0.00
"Carbohydrate, by difference",g,--,--,0.00,0.00
Minerals
"Sodium, Na",mg,--,--,150,3000
Vitamins
"Vitamin C, total ascorbic acid",mg,--,--,57.6,1152.0
"Vitamin A, IU",IU,--,--,4800,96000
Lipids
Amino Acids
Other
Ingredients
"CRUSHED, HABANERO PEPPERS, SALT, PINEAPPLES, ACETIC ACID, STARCH, ONION POWDER," Date available: 06/25/2017 Date last updated by company: 06/25/2017
