Source: USDA Branded Food Products Database Release December 2017 Software v.3.8.6.4 2017-10-02
Report Run at: December 18, 2017 19:35 EST
"Nutrient data for: 45291438, TROPICAL CELEBRATION, UPC: 072036883537"
Food Group:  Branded Food Products Database
Common Name:

Nutrient,Unit,Data points,Std. Error,"5.0 ONZ = 142.0g",1Value per 100 g,
Proximates
"Energy",kcal,--,--,60,42
"Protein",g,--,--,0.99,0.70
"Total lipid (fat)",g,--,--,0.00,0.00
"Carbohydrate, by difference",g,--,--,14.00,9.86
"Fiber, total dietary",g,--,--,2.0,1.4
"Sugars, total",g,--,--,11.01,7.75
Minerals
"Calcium, Ca",mg,--,--,16,11
"Iron, Fe",mg,--,--,0.30,0.21
"Potassium, K",mg,--,--,200,141
"Sodium, Na",mg,--,--,10,7
Vitamins
"Vitamin D",IU,--,--,0,0
Lipids
"Fatty acids, total saturated",g,--,--,0.000,0.000
"Fatty acids, total trans",g,--,--,0.000,0.000
"Cholesterol",mg,--,--,0,0
Amino Acids
Other
Ingredients
"PINEAPPLE, PAPAYA, HONEYDEW, KIWI, GRAPE, BLUEBERRY." Date available: 09/22/2017 Date last updated by company: 09/22/2017
