Source: USDA Branded Food Products Database Release December 2017 Software v.3.8.6.4 2017-10-02
Report Run at: December 18, 2017 19:35 EST
"Nutrient data for: 45118120, TROPICAL, COOKED SALAMI, UPC: 027568060666"
Food Group:  Branded Food Products Database
Common Name:

Nutrient,Unit,Data points,Std. Error,"1 SLICE. = 28.0g",1Value per 100 g,
Proximates
"Energy",kcal,--,--,70,250
"Protein",g,--,--,4.00,14.29
"Total lipid (fat)",g,--,--,4.50,16.07
"Carbohydrate, by difference",g,--,--,3.00,10.71
"Fiber, total dietary",g,--,--,0.0,0.0
"Sugars, total",g,--,--,1.00,3.57
Minerals
"Calcium, Ca",mg,--,--,0,0
"Iron, Fe",mg,--,--,0.71,2.53
"Sodium, Na",mg,--,--,430,1536
Vitamins
"Vitamin C, total ascorbic acid",mg,--,--,0.0,0.0
"Vitamin A, IU",IU,--,--,0,0
Lipids
"Fatty acids, total saturated",g,--,--,1.501,5.360
"Fatty acids, total trans",g,--,--,0.000,0.000
"Cholesterol",mg,--,--,20,71
Amino Acids
Other
Ingredients
"MECHANICALLY SEPARATED CHICKEN, PORK HEARTS, PORK, CORN SYRUP, WATER, SALT, CONTAINS LESS THAN 2% OF: HYDROLYZED CORN PROTEIN, BEEF, DEXTROSE, POTASSIUM LACTATE, SODIUM PHOSPHATES, FLAVORINGS, WHOLE BLACK PEPPER, SODIUM DIACETATE, SODIUM ERYTHORBATE SODIUM NITRITE." Date available: 06/25/2017 Date last updated by company: 06/25/2017
