Source: USDA Branded Food Products Database Release December 2017 Software v.3.8.6.4 2017-10-02
Report Run at: December 18, 2017 19:34 EST
"Nutrient data for: 45143519, TROPICAL CANDY, UPC: 059642108292"
Food Group:  Branded Food Products Database
Common Name:

Nutrient,Unit,Data points,Std. Error,"2.0 PIECES = 3.5g",1Value per 100 g,
Proximates
"Energy",kcal,--,--,15,429
"Protein",g,--,--,0.00,0.00
"Total lipid (fat)",g,--,--,0.00,0.00
"Carbohydrate, by difference",g,--,--,3.00,85.71
"Sugars, total",g,--,--,3.00,85.71
Minerals
"Sodium, Na",mg,--,--,0,0
Vitamins
Lipids
Amino Acids
Other
Ingredients
"SUGAR, GUM, BASE, CITRIC ACID, CALCIUM STEARATE, ARTIFICIAL FLAVORS, ARTIFICIAL COLORS (FD&C RED 40 LAKE, BLUE 1 LAKE, YELLOW 5 LAKE, YELLOW 6 LAKE), BHT (TO MAINTAIN FRESHNESS)." Date available: 10/13/2017 Date last updated by company: 10/13/2017
