Source: USDA Branded Food Products Database Release December 2017 Software v.3.8.6.4 2017-10-02
Report Run at: December 18, 2017 19:37 EST
"Nutrient data for: 45281559, TROPICAL FRUIT MEDLEY, UPC: 041303066140"
Food Group:  Branded Food Products Database
Common Name:

Nutrient,Unit,Data points,Std. Error,"0.75 CUP = 124.0g",1Value per 100 g,
Proximates
"Energy",kcal,--,--,81,65
"Protein",g,--,--,1.00,0.81
"Total lipid (fat)",g,--,--,0.50,0.40
"Carbohydrate, by difference",g,--,--,19.00,15.32
"Fiber, total dietary",g,--,--,2.0,1.6
"Sugars, total",g,--,--,14.00,11.29
Minerals
"Calcium, Ca",mg,--,--,11,9
"Iron, Fe",mg,--,--,0.30,0.24
"Potassium, K",mg,--,--,255,206
"Sodium, Na",mg,--,--,0,0
Vitamins
"Vitamin C, total ascorbic acid",mg,--,--,31.0,25.0
"Vitamin D",IU,--,--,0,0
Lipids
"Fatty acids, total saturated",g,--,--,0.000,0.000
"Fatty acids, total trans",g,--,--,0.000,0.000
"Cholesterol",mg,--,--,0,0
Amino Acids
Other
Ingredients
"BANANAS, MANGOS, PEACHES, PINEAPPLES, ASCORBIC ACID, CITRIC ACID AND MALIC ACID TO PROMOTE COLOR RETENTION." Date available: 10/13/2017 Date last updated by company: 10/13/2017
