Source: USDA Branded Food Products Database Release December 2017 Software v.3.8.6.4 2017-10-02
Report Run at: December 18, 2017 19:46 EST
"Nutrient data for: 45175719, TROYER, AGED ASIAGO, UPC: 049646996902"
Food Group:  Branded Food Products Database
Common Name:

Nutrient,Unit,Data points,Std. Error,"2.0 Tbsp = 28.0g",1Value per 100 g,
Proximates
"Energy",kcal,--,--,90,321
"Protein",g,--,--,5.00,17.86
"Total lipid (fat)",g,--,--,7.00,25.00
"Carbohydrate, by difference",g,--,--,3.00,10.71
"Fiber, total dietary",g,--,--,0.0,0.0
"Sugars, total",g,--,--,2.00,7.14
Minerals
"Calcium, Ca",mg,--,--,150,536
"Iron, Fe",mg,--,--,0.00,0.00
"Sodium, Na",mg,--,--,240,857
Vitamins
"Vitamin C, total ascorbic acid",mg,--,--,0.0,0.0
"Vitamin A, IU",IU,--,--,357,1275
Lipids
"Fatty acids, total saturated",g,--,--,4.001,14.290
"Fatty acids, total trans",g,--,--,0.000,0.000
"Cholesterol",mg,--,--,20,71
Amino Acids
Other
Ingredients
"SHARP CHEDDAR AND ASIAGO CHEESE AGED 9 MONTHS (MADE FROM PASTEURIZED CULTURED MILK, SALT, AND ENZYMES),W ATER, REDUCED LACTOSE WHEY, CREAM, WHEY, SORBIC ACID (A PRESERVATIVE), SEA SALT, LACTIC ACID, GUAR GUM." Date available: 07/14/2017 Date last updated by company: 07/14/2017
