Source: USDA Branded Food Products Database Release December 2017 Software v.3.8.6.4 2017-10-02
Report Run at: December 18, 2017 19:47 EST
"Nutrient data for: 45166393, TRUE LEMON, DRINK MIX, PEACH LAMONADE, UPC: 810979001997"
Food Group:  Branded Food Products Database
Common Name:

Nutrient,Unit,Data points,Std. Error,"0.125 PACKET = 1.5g",1Value per 100 g,
Proximates
"Energy",kcal,--,--,5,333
"Protein",g,--,--,0.00,0.00
"Total lipid (fat)",g,--,--,0.00,0.00
"Carbohydrate, by difference",g,--,--,1.00,66.67
"Sugars, total",g,--,--,1.00,66.67
Minerals
"Sodium, Na",mg,--,--,0,0
Vitamins
Lipids
Amino Acids
Other
Ingredients
"CRYSTALLIZED LEMON [CITRIC ACID*, LEMON OIL, LEMON JUICE], CANE SUGAR*, STEVIA LEAF EXTRACT, NATURAL FLAVOR, BEET JUICE AND BETA CAROTENE [FOR COLOR]." Date available: 07/14/2017 Date last updated by company: 07/14/2017
