Source: USDA Branded Food Products Database Release December 2017 Software v.3.8.6.4 2017-10-02
Report Run at: December 18, 2017 19:47 EST
"Nutrient data for: 45180561, TRUE NATURAL ARTISAN CRACKER, UPC: 855607004292"
Food Group:  Branded Food Products Database
Common Name:

Nutrient,Unit,Data points,Std. Error,"1 ONZ = 28.0g",1Value per 100 g,
Proximates
"Energy",kcal,--,--,110,393
"Protein",g,--,--,5.00,17.86
"Total lipid (fat)",g,--,--,3.50,12.50
"Carbohydrate, by difference",g,--,--,17.00,60.71
"Fiber, total dietary",g,--,--,2.0,7.1
"Sugars, total",g,--,--,5.00,17.86
Minerals
"Calcium, Ca",mg,--,--,100,357
"Iron, Fe",mg,--,--,1.93,6.88
"Sodium, Na",mg,--,--,190,679
Vitamins
"Vitamin C, total ascorbic acid",mg,--,--,2.2,7.7
"Vitamin A, IU",IU,--,--,0,0
Lipids
"Fatty acids, total saturated",g,--,--,0.501,1.790
"Fatty acids, total trans",g,--,--,0.000,0.000
"Cholesterol",mg,--,--,5,18
Amino Acids
Other
Ingredients
"BUTTERMILK, WHOLE WHEAT FLOUR, ENRICHED FLOUR (WHEAT FLOUR, MALTED BARLEY FLOUR, NIACIN, REDUCED IRON, THIAMIN MONONITRATE, RIBOFLAVIN, FOLIC ACID), WATER, BROWN SUGAR, PECANS, RAISINS, PUMPKIN SEEDS, DRIED CRANBERRIES, FLAX SEEDS, HONEY, SESAME SEEDS, BAKING SODA, SEA SALT, BLACK PEPPER, ROSEMARY." Date available: 07/14/2017 Date last updated by company: 07/14/2017
