Source: USDA Branded Food Products Database Release December 2017 Software v.3.8.6.4 2017-10-02
Report Run at: December 18, 2017 19:47 EST
"Nutrient data for: 45234079, TRUE GRIMMWAY FARMS, ORGANIC 100% JUICE SMOOTHIE, TROPICAL MANGO, UPC: 078783920044"
Food Group:  Branded Food Products Database
Common Name:

Nutrient,Unit,Data points,Std. Error,"8.0 OZA = 240.0g",1Value per 100 g,
Proximates
"Energy",kcal,--,--,139,58
"Protein",g,--,--,1.01,0.42
"Total lipid (fat)",g,--,--,0.00,0.00
"Carbohydrate, by difference",g,--,--,33.00,13.75
"Fiber, total dietary",g,--,--,2.9,1.2
"Sugars, total",g,--,--,27.00,11.25
Minerals
"Calcium, Ca",mg,--,--,19,8
"Iron, Fe",mg,--,--,0.72,0.30
"Potassium, K",mg,--,--,430,179
"Sodium, Na",mg,--,--,22,9
Vitamins
"Vitamin C, total ascorbic acid",mg,--,--,42.0,17.5
"Vitamin A, IU",IU,--,--,3499,1458
Lipids
"Fatty acids, total saturated",g,--,--,0.000,0.000
"Fatty acids, total trans",g,--,--,0.000,0.000
"Cholesterol",mg,--,--,0,0
Amino Acids
Other
Ingredients
"ORGANIC APPLE JUICE FROM CONCENTRATE (WATER, ORGANIC APPLE JUICE CONCENTRATE), ORGANIC MANGO PUREE, ORGANIC ORANGE JUICE FROM CONCENTRATE (WATER, ORGANIC ORANGE JUICE CONCENTRATE), ORGANIC BANANA PUREE, ORGANIC CARROT PUREE, ORGANIC LEMON JUICE FROM CONCENTRATE (WATER, ORGANIC LEMON JUICE CONCENTRATE, NATURAL FLAVORS, FRUIT AND VEGETABLE JUICE FOR COLOR, CITRIC ACID, ASCORBIC ACID (VITAMIN C)." Date available: 06/24/2017 Date last updated by company: 06/24/2017
