Source: USDA Branded Food Products Database Release December 2017 Software v.3.8.6.4 2017-10-02
Report Run at: December 18, 2017 19:51 EST
"Nutrient data for: 45152949, TRULY GOOD FOODS, SNACK MIX, MANGO TANGO, UPC: 094184599719"
Food Group:  Branded Food Products Database
Common Name:

Nutrient,Unit,Data points,Std. Error,"0.25 cup = 30.0g",1Value per 100 g,
Proximates
"Energy",kcal,--,--,160,533
"Protein",g,--,--,4.00,13.33
"Total lipid (fat)",g,--,--,9.00,30.00
"Carbohydrate, by difference",g,--,--,16.00,53.33
"Fiber, total dietary",g,--,--,1.0,3.3
"Sugars, total",g,--,--,9.00,30.00
Minerals
"Calcium, Ca",mg,--,--,20,67
"Iron, Fe",mg,--,--,6.00,20.00
"Sodium, Na",mg,--,--,65,217
Vitamins
"Vitamin C, total ascorbic acid",mg,--,--,0.0,0.0
"Vitamin A, IU",IU,--,--,0,0
Lipids
"Fatty acids, total saturated",g,--,--,2.001,6.670
"Fatty acids, total trans",g,--,--,0.000,0.000
"Cholesterol",mg,--,--,0,0
Amino Acids
Other
Ingredients
"MANGO, DICED (MANGO, SUGAR, SULFUR DIOXIDE), COCONUT TOFFEE PEANUTS (SUGAR, PEANUTS, COCONUT, SALT), CHILI & LIME NOODLES (WHEAT STARCH, SUNFLOWER OIL, SOYBEAN SOLIDS, FLAVORINGS [SUGAR, SALT, PAPRIKA, CHILI, VEGETABLE POWDER, HYDROLYZED VEGETABLE PROTEIN, RICE FLOUR, SOY SAUCE POWDER, LIME JUICE POWDER, NATURAL FLAVOR, FOOD ACID, YEAST EXTRACT], PUMPKIN SEEDS, CASHEWS, PEANUT OIL." Date available: 07/14/2017 Date last updated by company: 07/14/2017
