Source: USDA Branded Food Products Database Release December 2017 Software v.3.8.6.4 2017-10-02
Report Run at: December 18, 2017 19:51 EST
"Nutrient data for: 45165353, TRULY GOOD FOODS, HEALTHY TRAIL MIX, UPC: 094184598972"
Food Group:  Branded Food Products Database
Common Name:

Nutrient,Unit,Data points,Std. Error,"0.25 cup = 30.0g",1Value per 100 g,
Proximates
"Energy",kcal,--,--,160,533
"Protein",g,--,--,4.00,13.33
"Total lipid (fat)",g,--,--,10.00,33.33
"Carbohydrate, by difference",g,--,--,12.00,40.00
"Fiber, total dietary",g,--,--,3.0,10.0
"Sugars, total",g,--,--,8.00,26.67
Minerals
"Calcium, Ca",mg,--,--,40,133
"Iron, Fe",mg,--,--,1.80,6.00
"Sodium, Na",mg,--,--,10,33
Vitamins
"Vitamin C, total ascorbic acid",mg,--,--,2.0,6.7
"Vitamin A, IU",IU,--,--,0,0
Lipids
"Fatty acids, total saturated",g,--,--,1.500,5.000
"Fatty acids, total trans",g,--,--,0.000,0.000
"Cholesterol",mg,--,--,0,0
Amino Acids
Other
Ingredients
"RAISING, SUNFLOWER SEEDS, CASHEWS, ALMONDS, PUMPKIN SEEDS, PEANUT OIL." Date available: 07/14/2017 Date last updated by company: 07/14/2017
