Source: USDA Branded Food Products Database Release December 2017 Software v.3.8.6.4 2017-10-02
Report Run at: December 18, 2017 19:50 EST
"Nutrient data for: 45157843, TRULY GOOD FOODS, CAJUN HARVEST MIX, UPC: 094184599757"
Food Group:  Branded Food Products Database
Common Name:

Nutrient,Unit,Data points,Std. Error,"0.25 cup = 30.0g",1Value per 100 g,
Proximates
"Energy",kcal,--,--,160,533
"Protein",g,--,--,6.00,20.00
"Total lipid (fat)",g,--,--,12.00,40.00
"Carbohydrate, by difference",g,--,--,9.00,30.00
"Fiber, total dietary",g,--,--,3.0,10.0
"Sugars, total",g,--,--,1.00,3.33
Minerals
"Calcium, Ca",mg,--,--,20,67
"Iron, Fe",mg,--,--,1.20,4.00
"Sodium, Na",mg,--,--,230,767
Vitamins
"Vitamin C, total ascorbic acid",mg,--,--,0.0,0.0
"Vitamin A, IU",IU,--,--,166,555
Lipids
"Fatty acids, total saturated",g,--,--,2.001,6.670
"Fatty acids, total trans",g,--,--,0.000,0.000
"Cholesterol",mg,--,--,0,0
Amino Acids
Other
Ingredients
"BLANCHED PEANUTS, ALMONDS, CHURRITO STICK (YELLOW CORN MASA, SOYBEAN OIL, HOT SAUCE SEASONING (DEXTROSE, SALT, WHEY POWDER, SPICE AND COLORING [CONTAINS PAPRIKA]), MALTODEXTRIN, MONOSODIUM GLUTAMATE, CITRIC ACID, ONION POWDER, HYDROLYZED CORN, WHEAT, AND SOY PROTEIN, FD&C RED #40 LAKE, SUGAR, GARLIC POWDER, HOT SAUCE (AGED CAYENNE RED PEPPERS, SALT, VINEGAR, GARLIC), NATURAL FLAVORING, LACTIC ACID, SOYBEAN OIL, SPICE AND HERB, CARAMEL COLOR), PUMPKIN SEEDS, PEANUT OIL, SALT, CAJUN BLACKENING SEASONING (SPICES, SALT, AND ONION POWDER)." Date available: 07/14/2017 Date last updated by company: 07/14/2017
