Source: USDA Branded Food Products Database Release December 2017 Software v.3.8.6.4 2017-10-02
Report Run at: December 18, 2017 19:54 EST
"Nutrient data for: 45206919, TUMARO'S, HONEY WHEAT WRAPS, UPC: 849455000025"
Food Group:  Branded Food Products Database
Common Name:

Nutrient,Unit,Data points,Std. Error,"1 WRAP = 40.0g",1Value per 100 g,
Proximates
"Energy",kcal,--,--,70,175
"Protein",g,--,--,4.00,10.00
"Total lipid (fat)",g,--,--,2.00,5.00
"Carbohydrate, by difference",g,--,--,15.00,37.50
"Fiber, total dietary",g,--,--,7.0,17.5
"Sugars, total",g,--,--,2.00,5.00
Minerals
"Calcium, Ca",mg,--,--,100,250
"Iron, Fe",mg,--,--,1.48,3.71
"Sodium, Na",mg,--,--,80,200
Vitamins
"Vitamin C, total ascorbic acid",mg,--,--,0.0,0.0
"Vitamin A, IU",IU,--,--,0,0
Lipids
"Fatty acids, total saturated",g,--,--,0.500,1.250
"Fatty acids, total monounsaturated",g,--,--,1.000,2.500
"Fatty acids, total polyunsaturated",g,--,--,0.500,1.250
"Fatty acids, total trans",g,--,--,0.000,0.000
"Cholesterol",mg,--,--,0,0
Amino Acids
Other
Ingredients
"WATER, OAT FIBER, UNBLEACHED ENRICHED FLOUR (WHEAT FLOUR, MALTED BARLEY FLOUR, NIACIN, REDUCED IRON, THIAMINE MONONITRATE, RIBOFLAVIN, FOLIC ACID), WHEAT GLUTEN, WHOLE WHEAT FLOUR, SOY FLOUR, CANOLA OIL, HONEY GRANULES (SUGAR, HONEY), SUGAR, MONO & DIGLYCERIDES, CALCIUM PROPIONATE*, SALT, FUMARIC ACID*, GUAR GUM, SOY LECITHIN, POTASSIUM SORBATE*, XANTHAN GUM, ALUMINUM FREE BAKING POWDER (CORN STARCH, SODIUM ACID PYROPHOSPHATE, SODIUM BICARBONATE, MONOCALCIUM PHOSPHATE), ENZYME SODIUM METABISULFITE*." Date available: 07/14/2017 Date last updated by company: 07/14/2017
