Source: USDA Branded Food Products Database Release December 2017 Software v.3.8.6.4 2017-10-02
Report Run at: December 18, 2017 19:56 EST
"Nutrient data for: 45196880, TUNA SALAD, UPC: 041415485624"
Food Group:  Branded Food Products Database
Common Name:

Nutrient,Unit,Data points,Std. Error,"0.5 cup = 100.0g",1Value per 100 g,
Proximates
"Energy",kcal,--,--,180,180
"Protein",g,--,--,12.00,12.00
"Total lipid (fat)",g,--,--,11.00,11.00
"Carbohydrate, by difference",g,--,--,7.00,7.00
"Fiber, total dietary",g,--,--,0.0,0.0
"Sugars, total",g,--,--,5.00,5.00
Minerals
"Calcium, Ca",mg,--,--,0,0
"Iron, Fe",mg,--,--,0.00,0.00
"Sodium, Na",mg,--,--,400,400
Vitamins
"Vitamin C, total ascorbic acid",mg,--,--,3.4,3.4
"Vitamin A, IU",IU,--,--,140,140
Lipids
"Fatty acids, total saturated",g,--,--,1.500,1.500
"Fatty acids, total trans",g,--,--,0.000,0.000
"Cholesterol",mg,--,--,35,35
Amino Acids
Other
Ingredients
"TUNA (TUNA, WATER, SALT), CELERY, PICKLE RELISH (CUCUMBER, SUGAR, DISTILLED VINEGAR, WATER, SALT, XANTHAN GUM, NATURAL FLAVORS, CALCIUM CHLORIDE, POLYSORBATE SO AND SODIUM BENZOATE [PRESERVATIVES]), MAYONNAISE (SOYBEAN OIL, EGG YOLKS WITH SALT, WATER, VINEGAR, SUGAR, CORN SYRUP, SALT, SPICE, ONION POWDER, GARLIC POWDER, CALCIUM DISODIUM EDTA [PRESERVATIVE]), SALAD DRESSING (SOYBEAN OIL, WATER, SUGAR, VINEGAR, CORN SYRUP, MODIFIED FOOD STARCH, EGG YOLKS WITH SALT, SALT, SPICE, ONION POWDER, CALCIUM DISODIUM EDTA [PRESERVATIVE]), RED PEPPERS (RED BELL (PEPPERS, WATER, CITRIC ACID), ONION, SEASONING MIX (SALT, POTASSIUM SORBATE [PRESERVATIVE], XANTHAN AND GUAR GUM, SPICE." Date available: 07/14/2017 Date last updated by company: 07/14/2017
