Source: USDA Branded Food Products Database Release December 2017 Software v.3.8.6.4 2017-10-02
Report Run at: December 18, 2017 19:55 EST
"Nutrient data for: 45201177, TUNA IN OIL, UPC: 760488742624"
Food Group:  Branded Food Products Database
Common Name:

Nutrient,Unit,Data points,Std. Error,"0.25 CUP) | (ABOUT = 56.0g",1Value per 100 g,
Proximates
"Energy",kcal,--,--,83,148
"Protein",g,--,--,16.30,29.11
"Total lipid (fat)",g,--,--,3.20,5.71
"Carbohydrate, by difference",g,--,--,0.00,0.00
"Fiber, total dietary",g,--,--,0.0,0.0
"Sugars, total",g,--,--,0.00,0.00
Minerals
"Calcium, Ca",mg,--,--,10,18
"Iron, Fe",mg,--,--,1.91,3.41
"Sodium, Na",mg,--,--,235,420
Vitamins
"Vitamin C, total ascorbic acid",mg,--,--,0.0,0.0
"Vitamin A, IU",IU,--,--,76,136
Lipids
"Fatty acids, total saturated",g,--,--,0.398,0.710
"Fatty acids, total trans",g,--,--,0.000,0.000
"Cholesterol",mg,--,--,14,25
Amino Acids
Other
Ingredients
"TUNA, SOY, VEGETABLE OIL AND SALT." Date available: 09/23/2017 Date last updated by company: 09/23/2017
