Source: USDA Branded Food Products Database Release December 2017 Software v.3.8.6.4 2017-10-02
Report Run at: December 18, 2017 19:57 EST
"Nutrient data for: 45064535, TUONG OT SRIRACHA, SRIRACHA CHILI SAUCE, UPC: 00024463061163"
Food Group:  Branded Food Products Database
Common Name:

Nutrient,Unit,Data points,Std. Error,"1 tsp = 5.0g",1Value per 100 g,
Proximates
"Energy",kcal,--,--,5,100
"Protein",g,--,--,0.00,0.00
"Total lipid (fat)",g,--,--,0.00,0.00
"Carbohydrate, by difference",g,--,--,1.00,20.00
"Sugars, total",g,--,--,1.00,20.00
Minerals
"Sodium, Na",mg,--,--,80,1600
Vitamins
Lipids
Amino Acids
Other
Ingredients
"CHILI, SUGAR, SALT, GARLIC, DISTILLED VINEGAR, POTASSIUM SORBATE, CONTAINS SODIUM BISULFITE AS PRESERVATIVES, AND XANTHAN GUM." Date available: 07/14/2017 Date last updated by company: 07/14/2017
