Source: USDA Branded Food Products Database Release December 2017 Software v.3.8.6.4 2017-10-02
Report Run at: December 18, 2017 20:15 EST
"Nutrient data for: 45203814, TURKEY, SWEET POTATO, CRANBERRY AND PUMPKIN SEED BAR, UPC: 864484000013"
Food Group:  Branded Food Products Database
Common Name:

Nutrient,Unit,Data points,Std. Error,"1 BAR = 43.0g",1Value per 100 g,
Proximates
"Energy",kcal,--,--,130,302
"Protein",g,--,--,10.00,23.26
"Total lipid (fat)",g,--,--,5.00,11.63
"Carbohydrate, by difference",g,--,--,11.00,25.58
"Fiber, total dietary",g,--,--,2.0,4.7
"Sugars, total",g,--,--,6.00,13.95
Minerals
"Calcium, Ca",mg,--,--,0,0
"Iron, Fe",mg,--,--,1.01,2.34
"Sodium, Na",mg,--,--,105,244
Vitamins
"Vitamin C, total ascorbic acid",mg,--,--,0.0,0.0
"Vitamin A, IU",IU,--,--,0,0
Lipids
"Fatty acids, total saturated",g,--,--,3.001,6.980
"Fatty acids, total trans",g,--,--,0.000,0.000
"Cholesterol",mg,--,--,18,42
Amino Acids
Other
Ingredients
"TURKEY, ORGANIC DRIED CRANBERRIES (DRIED ORGANIC CRANBERRIES, ORGANIC APPLE JUICE CONCENTRATE, ORGANIC SUNFLOWER OIL), ORGANIC RAW PUMPKIN SEEDS, ORGANIC VIRGIN COCONUT OIL, SWEET POTATOES, WATER, ORGANIC BLACK PEPPER, ORGANIC THYME, ORGANIC COCONUT, SUGAR, ORGANIC RUBBED SAGE, CELERY POWDER, SEA SALT, ORGANIC GARLIC POWDER, ORGANIC ONION POWDER, ORGANIC CINNAMON, LACTIC ACID NOT FROM MILK) NO NITRITES OR NITRATES ADDED EXCEPT THOSE NATURALLY OCCURRING IN CELERY JUICE POWDER AND SEA SALT." Date available: 07/14/2017 Date last updated by company: 07/14/2017
