Source: USDA Branded Food Products Database Release December 2017 Software v.3.8.6.4 2017-10-02
Report Run at: December 18, 2017 20:15 EST
"Nutrient data for: 45237876, TURKEY SNACK STICK & CHEESE, UPC: 017082874269"
Food Group:  Branded Food Products Database
Common Name:

Nutrient,Unit,Data points,Std. Error,"1 PACK = 34.0g",1Value per 100 g,
Proximates
"Energy",kcal,--,--,100,294
"Protein",g,--,--,8.00,23.53
"Total lipid (fat)",g,--,--,8.00,23.53
"Carbohydrate, by difference",g,--,--,1.00,2.94
"Fiber, total dietary",g,--,--,0.0,0.0
"Sugars, total",g,--,--,1.00,2.94
Minerals
"Calcium, Ca",mg,--,--,100,294
"Iron, Fe",mg,--,--,1.06,3.11
"Sodium, Na",mg,--,--,410,1206
Vitamins
"Vitamin C, total ascorbic acid",mg,--,--,0.0,0.0
"Vitamin A, IU",IU,--,--,147,432
Lipids
"Fatty acids, total saturated",g,--,--,4.502,13.240
"Fatty acids, total trans",g,--,--,0.000,0.000
"Cholesterol",mg,--,--,35,103
Amino Acids
Other
Ingredients
"TURKEY SNACK STICK: TURKEY THIGH, MECHANICALLY SEPARATED TURKEY, WATER, CONTAINS 2% OR LESS OF BROWN SUGAR, SUGAR, TURKEY BROTH, DEXTROSE, FLAVORING, MONOSODIUM GLUTAMATE, DRY SOY SAUCE [(WHEAT, SOYBEANS, SALT), MALTODEXTRIN], HYDROLYZED CORN PROTEIN, AUTOLYZED YEAST EXTRACT, SALT, SODIUM ERYTHORBATE, GLYCERIN, SODIUM LACTATE, SODIUM DIACETATE, PAPRIKA, SODIUM NITRITE, BEEF COLLAGEN CASING, POTASSIUM SORBATE TO ENSURE FRESHNESS. PASTEURIZED PROCESS CHEDDAR CHEESE FOOD: CHEDDAR CHEESE (CULTURED MILK, SALT, ENZYMES), WATER, SODIUM PHOSPHATE, SALT, NATURAL SMOKE FLAVORING, SORBIC ACID (PRESERVATIVE), COLOR (PAPRIKA AND TURMERIC EXTRACT)." Date available: 07/14/2017 Date last updated by company: 07/14/2017
