Source: USDA Branded Food Products Database Release December 2017 Software v.3.8.6.4 2017-10-02
Report Run at: December 18, 2017 20:02 EST
"Nutrient data for: 45240265, TURKEY BRINE KIT, UPC: 040100000449"
Food Group:  Branded Food Products Database
Common Name:

Nutrient,Unit,Data points,Std. Error,"0.25 tsp = 1.0g",1Value per 100 g,
Proximates
"Energy",kcal,--,--,0,0
"Protein",g,--,--,0.00,0.00
"Total lipid (fat)",g,--,--,0.00,0.00
"Carbohydrate, by difference",g,--,--,0.00,0.00
"Sugars, total",g,--,--,1.00,100.00
Minerals
"Sodium, Na",mg,--,--,280,28000
Vitamins
Lipids
Amino Acids
Other
Ingredients
"SALT, HERBS AND SPICES (BLACK PEPPER, CORIANDER, RED PEPPER, MUSTARD, ROSEMARY, BAY LEAF, THYME), ONION, GARLIC, SUGAR, ORANGE PEEL." Date available: 07/14/2017 Date last updated by company: 07/14/2017
