Source: USDA Branded Food Products Database Release December 2017 Software v.3.8.6.4 2017-10-02
Report Run at: December 18, 2017 20:01 EST
"Nutrient data for: 45262881, TURKEY BREAST, UPC: 042421500240"
Food Group:  Branded Food Products Database
Common Name:

Nutrient,Unit,Data points,Std. Error,"2.0 ONZ = 56.0g",1Value per 100 g,
Proximates
"Energy",kcal,--,--,60,107
"Protein",g,--,--,12.00,21.43
"Total lipid (fat)",g,--,--,1.00,1.79
"Carbohydrate, by difference",g,--,--,1.00,1.79
Minerals
"Iron, Fe",mg,--,--,0.35,0.63
"Potassium, K",mg,--,--,170,304
"Sodium, Na",mg,--,--,420,750
Vitamins
Lipids
"Fatty acids, total saturated",g,--,--,0.000,0.000
"Fatty acids, total monounsaturated",g,--,--,0.000,0.000
"Fatty acids, total polyunsaturated",g,--,--,0.000,0.000
"Fatty acids, total trans",g,--,--,0.000,0.000
"Cholesterol",mg,--,--,25,45
Amino Acids
Other
Ingredients
"TURKEY BREAST, WATER, HONEY, LESS THAN 1.5% OF SALT, SUGAR, SODIUM PHOSPHATE, SODIUM CITRATE." Date available: 07/14/2017 Date last updated by company: 07/14/2017
