Source: USDA Branded Food Products Database Release December 2017 Software v.3.8.6.4 2017-10-02
Report Run at: December 18, 2017 20:15 EST
"Nutrient data for: 45313163, TURKEY STRIP, UPC: 854660006588"
Food Group:  Branded Food Products Database
Common Name:

Nutrient,Unit,Data points,Std. Error,"1 PACKAGE = 23.0g",1Value per 100 g,
Proximates
"Energy",kcal,--,--,110,478
"Protein",g,--,--,6.00,26.09
"Total lipid (fat)",g,--,--,7.00,30.43
"Carbohydrate, by difference",g,--,--,3.00,13.04
"Fiber, total dietary",g,--,--,0.0,0.0
"Sugars, total",g,--,--,3.00,13.04
Minerals
"Calcium, Ca",mg,--,--,0,0
"Iron, Fe",mg,--,--,1.57,6.81
"Sodium, Na",mg,--,--,300,1304
Vitamins
"Vitamin C, total ascorbic acid",mg,--,--,0.0,0.0
"Vitamin A, IU",IU,--,--,0,0
Lipids
"Fatty acids, total saturated",g,--,--,3.501,15.220
"Fatty acids, total trans",g,--,--,0.499,2.170
"Cholesterol",mg,--,--,25,109
Amino Acids
Other
Ingredients
"TURKEY, CRANBERRIES (CRANBERRIES, APPLE JUICE), SEA SALT, ONION, ORANGE PEEL, PAPRIKA, BELL PEPPER, GARLIC, SAGE, ROSEMARY, THYME" Date available: 01/06/2017 Date last updated by company: 01/06/2017
