Source: USDA Branded Food Products Database Release December 2017 Software v.3.8.6.4 2017-10-02
Report Run at: December 18, 2017 20:06 EST
"Nutrient data for: 45014623, TURKEY HILL, ALL NATURAL ICE CREAM, HOMEMADE VANILLA, UPC: 020735112304"
Food Group:  Branded Food Products Database
Common Name:

Nutrient,Unit,Data points,Std. Error,"0.5 cup = 70.0g",1Value per 100 g,
Proximates
"Energy",kcal,--,--,150,214
"Protein",g,--,--,3.00,4.29
"Total lipid (fat)",g,--,--,9.00,12.86
"Carbohydrate, by difference",g,--,--,16.00,22.86
"Fiber, total dietary",g,--,--,0.0,0.0
"Sugars, total",g,--,--,16.00,22.86
Minerals
"Calcium, Ca",mg,--,--,100,143
"Iron, Fe",mg,--,--,0.00,0.00
"Sodium, Na",mg,--,--,50,71
Vitamins
"Vitamin C, total ascorbic acid",mg,--,--,0.0,0.0
"Vitamin A, IU",IU,--,--,337,482
Lipids
"Fatty acids, total saturated",g,--,--,5.999,8.570
"Fatty acids, total trans",g,--,--,0.000,0.000
"Cholesterol",mg,--,--,35,50
Amino Acids
Other
Ingredients
"NONFAT MILK, CREAM, SUGAR, VANILLA." Date available: 07/14/2017 Date last updated by company: 07/14/2017
