Source: USDA Branded Food Products Database Release December 2017 Software v.3.8.6.4 2017-10-02
Report Run at: December 18, 2017 20:10 EST
"Nutrient data for: 45213426, TURKEY JERKY, UPC: 017082875686"
Food Group:  Branded Food Products Database
Common Name:

Nutrient,Unit,Data points,Std. Error,"1 PACKAGE = 24.0g",1Value per 100 g,
Proximates
"Energy",kcal,--,--,70,292
"Protein",g,--,--,12.00,50.00
"Total lipid (fat)",g,--,--,0.00,0.00
"Carbohydrate, by difference",g,--,--,4.00,16.67
"Fiber, total dietary",g,--,--,0.0,0.0
"Sugars, total",g,--,--,3.00,12.50
Minerals
"Calcium, Ca",mg,--,--,0,0
"Iron, Fe",mg,--,--,1.50,6.25
"Sodium, Na",mg,--,--,420,1750
Vitamins
"Vitamin C, total ascorbic acid",mg,--,--,0.0,0.0
"Vitamin A, IU",IU,--,--,0,0
Lipids
"Fatty acids, total saturated",g,--,--,0.000,0.000
"Fatty acids, total trans",g,--,--,0.000,0.000
"Cholesterol",mg,--,--,20,83
Amino Acids
Other
Ingredients
"TURKEY BREAST, WATER, SUGAR, SEA SALT, LESS THAN 2% MOLASSES POWDER (REFINERY SYRUP, CANE MOLASSES), BROWN SUGAR, HYDROLYZED CORN PROTEIN, SOY SAUCE POWDER [SOY SAUCE (WHEAT, SOYBEANS, SALT), MALTODEXTRIN], FLAVORINGS, TURKEY FLAVOR (AUTOLYZED YEAST EXTRACT, TURKEY BROTH POWDER, NATURAL FLAVOR), CITRIC ACID." Date available: 07/14/2017 Date last updated by company: 07/14/2017
