Source: USDA Branded Food Products Database Release December 2017 Software v.3.8.6.4 2017-10-02
Report Run at: December 18, 2017 20:02 EST
"Nutrient data for: 45202253, TURKEY & CHEDDAR HOAGIE, UPC: 813141021373"
Food Group:  Branded Food Products Database
Common Name:

Nutrient,Unit,Data points,Std. Error,"1 HOAGIE = 206.0g",1Value per 100 g,
Proximates
"Energy",kcal,--,--,400,194
"Protein",g,--,--,26.00,12.62
"Total lipid (fat)",g,--,--,11.00,5.34
"Carbohydrate, by difference",g,--,--,49.01,23.79
"Fiber, total dietary",g,--,--,1.4,0.7
"Sugars, total",g,--,--,3.01,1.46
Minerals
"Calcium, Ca",mg,--,--,169,82
"Iron, Fe",mg,--,--,2.45,1.19
"Sodium, Na",mg,--,--,1180,573
Vitamins
"Vitamin A, IU",IU,--,--,501,243
Lipids
"Fatty acids, total saturated",g,--,--,5.006,2.430
"Fatty acids, total trans",g,--,--,0.000,0.000
"Cholesterol",mg,--,--,49,24
Amino Acids
Other
Ingredients
"HOAGIE (ENNCHED FLOUR, WATER, SALT, VEGETABLES SHORTENING, MALT, YEAST, DOUGH CONDITIONER, CALCIUM PROPIONATE, SEEDED - SESAME OR POPPY SEEDS ADDED AS A TOPPING); TURKEY(TURKEY BREAST, TURKEY BROTH LESS THAN 2% SALT, DEXTROSE, TAPIOCA STARCH, MODIFIED FOOD STARCH, CARRAGEENAN, SODIUM PHOSPHATE VEGETABLES OIL); CHEDDAR CHEESE (PASTEURIZED MILK, CHEESE, CULTURES SALT, ENZYMES, ANNATTO[COLOR]); LETTUCE" Date available: 07/14/2017 Date last updated by company: 07/14/2017
