Source: USDA Branded Food Products Database Release December 2017 Software v.3.8.6.4 2017-10-02
Report Run at: December 18, 2017 20:04 EST
"Nutrient data for: 45004227, TURKEY FRANKS, UPC: 022841894242"
Food Group:  Branded Food Products Database
Common Name:

Nutrient,Unit,Data points,Std. Error,"1 FRANK = 56.0g",1Value per 100 g,
Proximates
"Energy",kcal,--,--,110,196
"Protein",g,--,--,6.00,10.71
"Total lipid (fat)",g,--,--,10.00,17.86
"Carbohydrate, by difference",g,--,--,3.00,5.36
"Fiber, total dietary",g,--,--,0.0,0.0
"Sugars, total",g,--,--,1.00,1.79
Minerals
"Calcium, Ca",mg,--,--,60,107
"Iron, Fe",mg,--,--,0.71,1.26
"Sodium, Na",mg,--,--,500,893
Vitamins
"Vitamin C, total ascorbic acid",mg,--,--,0.0,0.0
"Vitamin A, IU",IU,--,--,0,0
Lipids
"Fatty acids, total saturated",g,--,--,2.498,4.460
"Fatty acids, total trans",g,--,--,0.000,0.000
"Cholesterol",mg,--,--,40,71
Amino Acids
Other
Ingredients
"MECHANICALLY SEPARATED TURKEY, WATER, CONTAINS 2% OR LESS OF: MODIFIED FOOD STARCH, SALT, CORN SYRUP, SALT, CORN SYRUP BOILDS, DEXTROSE, POTASSIUM, LACTATE, FLAVORINGS, SODIUM PHOSPHATE, SODIUM DIACETATE, SODIUM ERYHOACETATE, SODIUM NITRATE, EXTRACTIVES OF PAPRIKA." Date available: 06/25/2017 Date last updated by company: 06/25/2017
