Source: USDA Branded Food Products Database Release December 2017 Software v.3.8.6.4 2017-10-02
Report Run at: December 18, 2017 20:07 EST
"Nutrient data for: 45233693, TURKEY HILL, GREEN TEA WITH GINSENG AND HONEY, UPC: 020735093047"
Food Group:  Branded Food Products Database
Common Name:

Nutrient,Unit,Data points,Std. Error,"1 cup = 240.0g",1Value per 100 g,
Proximates
"Energy",kcal,--,--,70,29
"Protein",g,--,--,0.00,0.00
"Total lipid (fat)",g,--,--,0.00,0.00
"Carbohydrate, by difference",g,--,--,16.01,6.67
"Sugars, total",g,--,--,15.00,6.25
Minerals
"Sodium, Na",mg,--,--,14,6
Vitamins
Lipids
Amino Acids
Other
Ingredients
"WATER, CORN SYRUP, SUGAR, HONEY, GREEN TEA, CITRIC ACID, BLACK TEA, NATURAL FLAVORS, GINSENG EXTRACT, POTASSIUM SORBATE & SODIUM BENZOATE (PRESERVE FRESHNESS)." Date available: 06/24/2017 Date last updated by company: 06/24/2017
