Source: USDA Branded Food Products Database Release December 2017 Software v.3.8.6.4 2017-10-02
Report Run at: December 18, 2017 20:09 EST
"Nutrient data for: 45123703, TURKEY HILL, PREMIUM ICE CREAM, BUTTER PECAN, UPC: 020735110140"
Food Group:  Branded Food Products Database
Common Name:

Nutrient,Unit,Data points,Std. Error,"0.5 cup = 66.0g",1Value per 100 g,
Proximates
"Energy",kcal,--,--,160,242
"Protein",g,--,--,2.00,3.03
"Total lipid (fat)",g,--,--,10.00,15.15
"Carbohydrate, by difference",g,--,--,15.00,22.73
"Fiber, total dietary",g,--,--,0.0,0.0
"Sugars, total",g,--,--,11.00,16.67
Minerals
"Calcium, Ca",mg,--,--,60,91
"Iron, Fe",mg,--,--,0.00,0.00
"Sodium, Na",mg,--,--,100,152
Vitamins
"Vitamin C, total ascorbic acid",mg,--,--,0.0,0.0
"Vitamin A, IU",IU,--,--,337,511
Lipids
"Fatty acids, total saturated",g,--,--,4.501,6.820
"Fatty acids, total trans",g,--,--,0.000,0.000
"Cholesterol",mg,--,--,25,38
Amino Acids
Other
Ingredients
"MILK, CREAM, CORN SYRUP, SUGAR, ROASTED PECANS (PECANS, COTTONSEED OIL, BUTTER, SALT), WHEY, NONFAT MILK, NATURAL FLAVORS, CELLULOSE GEL, CELLULOSE GUM, MONO AND DIGLYCERIDES, CARRAGEENAN, ANNATTO COLOR." Date available: 07/14/2017 Date last updated by company: 07/14/2017
