Source: USDA Branded Food Products Database Release December 2017 Software v.3.8.6.4 2017-10-02
Report Run at: December 18, 2017 20:02 EST
"Nutrient data for: 45206365, TURKEY & BUFFALO WITH CRANBERRIES, UPC: 897737001703"
Food Group:  Branded Food Products Database
Common Name:

Nutrient,Unit,Data points,Std. Error,"1 BAR = 28.0g",1Value per 100 g,
Proximates
"Energy",kcal,--,--,90,321
"Protein",g,--,--,7.00,25.00
"Total lipid (fat)",g,--,--,1.50,5.36
"Carbohydrate, by difference",g,--,--,11.00,39.29
"Fiber, total dietary",g,--,--,1.0,3.6
"Sugars, total",g,--,--,7.00,25.00
Minerals
"Calcium, Ca",mg,--,--,0,0
"Iron, Fe",mg,--,--,0.72,2.57
"Sodium, Na",mg,--,--,310,1107
Vitamins
"Vitamin C, total ascorbic acid",mg,--,--,0.0,0.0
"Vitamin A, IU",IU,--,--,100,357
Lipids
"Fatty acids, total saturated",g,--,--,0.000,0.000
"Fatty acids, total trans",g,--,--,0.000,0.000
"Cholesterol",mg,--,--,25,89
Amino Acids
Other
Ingredients
"TURKEY, CRANBERRIES (CRANBERRIES, SUGAR), BUFFALO, COFFEE, SEA SALT, HATCH CHILE PEPPER, ENCAPSULATED LACTIC ACID, CELERY JUICE POWDER, BLACK PEPPER, GRANULATED GARLIC, NUTMEG, SPICES, GINGER, CINNAMON, CLOVE." Date available: 01/13/2017 Date last updated by company: 01/13/2017
