Source: USDA Branded Food Products Database Release December 2017 Software v.3.8.6.4 2017-10-02
Report Run at: December 18, 2017 20:07 EST
"Nutrient data for: 45227301, TURKEY HILL, DIET DECAF ICED TEA, LEMON, UPC: 020735096581"
Food Group:  Branded Food Products Database
Common Name:

Nutrient,Unit,Data points,Std. Error,"1 cup = 240.0g",1Value per 100 g,
Proximates
"Energy",kcal,--,--,0,0
"Protein",g,--,--,0.00,0.00
"Total lipid (fat)",g,--,--,0.00,0.00
"Carbohydrate, by difference",g,--,--,1.99,0.83
"Sugars, total",g,--,--,0.00,0.00
Minerals
"Sodium, Na",mg,--,--,10,4
Vitamins
Lipids
Amino Acids
Other
Ingredients
"WATER, DECAFFEINATED TEA, CITRIC ACID, CARAMEL COLOR, ASPARTAME*, NATURAL FLAVORS, POTASSIUM SORBATE & SODIUM BENZOATE (PRESERVE FRESHNESS)." Date available: 07/14/2017 Date last updated by company: 07/14/2017
