Source: USDA Branded Food Products Database Release December 2017 Software v.3.8.6.4 2017-10-02
Report Run at: December 18, 2017 20:04 EST
"Nutrient data for: 45184675, TURKEY FRANKS, UPC: 645230055682"
Food Group:  Branded Food Products Database
Common Name:

Nutrient,Unit,Data points,Std. Error,"1 LINK = 45.0g",1Value per 100 g,
Proximates
"Energy",kcal,--,--,100,222
"Protein",g,--,--,7.00,15.56
"Total lipid (fat)",g,--,--,7.00,15.56
"Carbohydrate, by difference",g,--,--,1.00,2.22
"Fiber, total dietary",g,--,--,0.0,0.0
"Sugars, total",g,--,--,0.00,0.00
Minerals
"Calcium, Ca",mg,--,--,0,0
"Iron, Fe",mg,--,--,0.44,0.98
"Sodium, Na",mg,--,--,160,356
Vitamins
"Vitamin C, total ascorbic acid",mg,--,--,0.0,0.0
"Vitamin A, IU",IU,--,--,0,0
Lipids
"Fatty acids, total saturated",g,--,--,1.998,4.440
"Fatty acids, total trans",g,--,--,0.000,0.000
"Cholesterol",mg,--,--,25,56
Amino Acids
Other
Ingredients
"MECHANICALLY SEPARATED TURKEY, WATER, MODIFIED CORN STARCH, CONTAINS 2% OR LESS OF THE FOLLOWING: SALT, FLAVORINGS, POTASSIUM CHLORIDE, SODIUM PHOSPHATES, POTASSIUM ACETATE, POTASSIUM DIACETATE, SMOKE FLAVOR, SODIUM ERYTHORBATE, SODIUM NITRITE, EXTRACTIVES OF PAPRIKA." Date available: 07/27/2017 Date last updated by company: 07/27/2017
