Source: USDA Branded Food Products Database Release December 2017 Software v.3.8.6.4 2017-10-02
Report Run at: December 18, 2017 20:11 EST
"Nutrient data for: 45215762, TURKEY MEATLOAF ENTREE, UPC: 021130063307"
Food Group:  Branded Food Products Database
Common Name:

Nutrient,Unit,Data points,Std. Error,"5.0 ONZ = 142.0g",1Value per 100 g,
Proximates
"Energy",kcal,--,--,170,120
"Protein",g,--,--,25.01,17.61
"Total lipid (fat)",g,--,--,7.00,4.93
"Carbohydrate, by difference",g,--,--,10.00,7.04
"Fiber, total dietary",g,--,--,2.0,1.4
"Sugars, total",g,--,--,3.00,2.11
Minerals
"Calcium, Ca",mg,--,--,40,28
"Iron, Fe",mg,--,--,3.71,2.61
"Sodium, Na",mg,--,--,500,352
Vitamins
"Vitamin C, total ascorbic acid",mg,--,--,3.3,2.3
"Vitamin A, IU",IU,--,--,138,97
Lipids
"Fatty acids, total saturated",g,--,--,2.002,1.410
"Fatty acids, total trans",g,--,--,0.000,0.000
"Cholesterol",mg,--,--,70,49
Amino Acids
Other
Ingredients
"TURKEY, WATER, KETCHUP (TOMATO CONCENTRATE, DISTILLED VINEGAR, HIGH FRUCTOSE CORN SYRUP, CORN SYRUP, SALT, SPICE, ONION POWDER, NATURAL FLAVORING), TEXTURED SOY FLOUR, ROLLED OATS, WHOLE EGGS, FLAVORING, ONIONS, NONFAT MILK, VINEGAR, SALT, PARSLEY, CARAMEL COLOR. SAGE MUSHROOM GRAVY INGREDIENTS: WATER, PORTOBELLO MUSHROOMS, BUTTER (CREAM, NATURAL FLAVOR), MARSALA COOKING WINE (MARSALA WINE, SALT, POTASSIUM METABISULFITE [PRESERVATIVE]), ONIONS, NATURAL BEEF FLAVOR (BEEF STOCK AND BEEF FLAVOR, ONION JUICE CONCENTRATE, CELERIAC JUICE CONCENTRATE, CARROT JUICE CONCENTRATE, SALT, FLAVORING, TOMATO CONCENTRATE, YEAST EXTRACT, POTATO FLOUR, CARAMEL COLOR, CITRIC ACID, CORN OIL), EXTRA VIRGIN OLIVE OIL, MODIFIED CORN STARCH, SUGAR, GARLIC, SPICES." Date available: 07/14/2017 Date last updated by company: 07/14/2017
