Source: USDA Branded Food Products Database Release December 2017 Software v.3.8.6.4 2017-10-02
Report Run at: December 18, 2017 20:05 EST
"Nutrient data for: 45106664, TURKEY GRAVY MIX, UPC: 041270044240"
Food Group:  Branded Food Products Database
Common Name:

Nutrient,Unit,Data points,Std. Error,"2.0 Tbsp = 5.0g",1Value per 100 g,
Proximates
"Energy",kcal,--,--,15,300
"Protein",g,--,--,0.00,0.00
"Total lipid (fat)",g,--,--,0.00,0.00
"Carbohydrate, by difference",g,--,--,3.00,60.00
"Fiber, total dietary",g,--,--,0.0,0.0
"Sugars, total",g,--,--,0.00,0.00
Minerals
"Calcium, Ca",mg,--,--,0,0
"Iron, Fe",mg,--,--,0.00,0.00
"Sodium, Na",mg,--,--,280,5600
Vitamins
"Vitamin C, total ascorbic acid",mg,--,--,0.0,0.0
"Vitamin A, IU",IU,--,--,0,0
Lipids
"Fatty acids, total saturated",g,--,--,0.000,0.000
"Fatty acids, total trans",g,--,--,0.000,0.000
"Cholesterol",mg,--,--,0,0
Amino Acids
Other
Ingredients
"FOOD STARCH-MODIFIED, WHEAT FLOUR, SALT, HYDROLYZED SOY PROTEIN, SUGAR, DEHYDRATED ONION AND GARLIC, AUTOLYZED YEAST EXTRACT, CREAMER (PARTIALLY HYDROGENATED SOYBEAN OIL, CORN SYRUP SOLIDS, SODIUM CASEINATE [MILK], MONO AND DIGLYCERIDES, DIPOTASSIUM PHOSPHATE, SOY LECITHIN), NATURAL FLAVORS (MALT EXTRACT [BARLEY]), POWDERED COOKED TURKEY, DEXTROSE, CARAMEL COLOR, SILICON DIOXIDE (ANTICAKING AGENT), SPICE AND COLORING, MALTODEXTRIN, DISODIUM INSONIATE" Date available: 06/25/2017 Date last updated by company: 06/25/2017
