Source: USDA Branded Food Products Database Release December 2017 Software v.3.8.6.4 2017-10-02
Report Run at: December 18, 2017 20:13 EST
"Nutrient data for: 45256900, TURKEY SAUSAGE, EGG WHITE & CHEESE BREAKFAST SANDWICHES, UPC: 036800415461"
Food Group:  Branded Food Products Database
Common Name:

Nutrient,Unit,Data points,Std. Error,"1 SANDWICH = 133.0g",1Value per 100 g,
Proximates
"Energy",kcal,--,--,281,211
"Protein",g,--,--,14.00,10.53
"Total lipid (fat)",g,--,--,12.99,9.77
"Carbohydrate, by difference",g,--,--,30.00,22.56
"Fiber, total dietary",g,--,--,4.0,3.0
"Sugars, total",g,--,--,3.01,2.26
Minerals
"Calcium, Ca",mg,--,--,100,75
"Iron, Fe",mg,--,--,1.14,0.86
"Sodium, Na",mg,--,--,710,534
Vitamins
"Vitamin C, total ascorbic acid",mg,--,--,0.0,0.0
"Vitamin A, IU",IU,--,--,255,192
Lipids
"Fatty acids, total saturated",g,--,--,5.998,4.510
"Fatty acids, total trans",g,--,--,0.000,0.000
"Cholesterol",mg,--,--,25,19
Amino Acids
Other
Ingredients
"CROISSANT: ENRICHED FLOUR (WHEAT FLOUR, MALTED BARLEY FLOUR, NIACIN, REDUCED IRON, THIAMINE MONONITRATE, RIBOFLAVIN, FOLIC ACID), WATER, MARGARINE (PALM OIL, WATER, SOYBEAN OIL, SUGAR, SOY LECITHIN, MONO- AND DIGLYCERIDES, POTASSIUM SORBATE [PRESERVATIVE], CITRIC ACID [PRESERVATIVE], NATURAL AND ARTIFICIAL, BETA-CAROTENE [COLOR], VITAMIN A PALMITATE), HIGH FRUCTOSE CORN SYRUP, OAT FIBER, CONTAINS LESS THAN 2% OF THE FOLLOWING: YEAST, SOYBEAN OIL, SALT, EGGS, CALCIUM PROPIONATE (PRESERVATIVE), POTASSIUM SORBATE (PRESERVATIVE), HYDROXYPROPYL METHYLCELLULOSE, DEXTROSE, SUGAR, MALTODEXTRIN, NATURAL AND ARTIFICIAL FLAVORSM ACACIA (GUM ARABICA), CAPRIC AND CAPRYLIC ACID TRIGLYCERIDE BLEND. EGG WHITE PATTY: EGG WHITES, MODIFIED FOOD STARCH, SOYBEAN OIL, SALT, CARRAGEENAN, EGG FLAVOR (MEDIUM CHAIN TRIGLYCERIDES, NATURAL AND ARTIFICIAL FLAVORS), SOY LECITHIN (RELEASE AGENT), TURKEY SAUSAGE: TURKEY, WATER, SOY PROTEIN CONCENTRATE, SEASONING (SALT, CORN SYRUP SOLIDS, SPICES, HYDROLYZED SOY PROTEIN, LEMON JUICE SOLIDS, NATURAL FLAVOR). PROCESS AMERICAN SHARP YELLOW CHEESE: CULTURED MILK AND SKIM MILK, CREAM, SODIUM CITRATE, SALT, ARTIFICIAL COLOR, SODIUM PHOSPHATE, SORBIC ACID (PRESERVATIVE), ACETIC ACID, ENZYMES, SOY LECITHIN (NON-STICKING AGENT)." Date available: 07/14/2017 Date last updated by company: 07/14/2017
