Source: USDA Branded Food Products Database Release December 2017 Software v.3.8.6.4 2017-10-02
Report Run at: December 18, 2017 19:59 EST
"Nutrient data for: 45003840, TURKEY BACON, UPC: 015900051007"
Food Group:  Branded Food Products Database
Common Name:

Nutrient,Unit,Data points,Std. Error,"1 SLICE = 14.0g",1Value per 100 g,
Proximates
"Energy",kcal,--,--,25,179
"Protein",g,--,--,2.00,14.29
"Total lipid (fat)",g,--,--,2.00,14.29
"Carbohydrate, by difference",g,--,--,1.00,7.14
"Fiber, total dietary",g,--,--,0.0,0.0
"Sugars, total",g,--,--,0.00,0.00
Minerals
"Sodium, Na",mg,--,--,160,1143
Vitamins
Lipids
"Fatty acids, total saturated",g,--,--,0.500,3.570
"Fatty acids, total trans",g,--,--,0.000,0.000
"Cholesterol",mg,--,--,10,71
Amino Acids
Other
Ingredients
"POULTRY INGREDIENTS (MECHANICALLY SEPARATED TURKEY, TURKEY), WATER, SALT, SUGAR, FLAVORING (SALT, SUGAR, MALTODEXTRIN, NATURAL SMOKE FLAVOR, SPICE), SODIUM PHOSPHATE, SODIUM ERYTHORBATE, SODIUM NITRITE." Date available: 07/14/2017 Date last updated by company: 07/14/2017
