Source: USDA Branded Food Products Database Release December 2017 Software v.3.8.6.4 2017-10-02
Report Run at: December 18, 2017 20:04 EST
"Nutrient data for: 45148623, TURKEY CREEK SNACKS, PORK SKINS, BARBEQUE, UPC: 078516201754"
Food Group:  Branded Food Products Database
Common Name:

Nutrient,Unit,Data points,Std. Error,"0.5 ONZ = 14.0g",1Value per 100 g,
Proximates
"Energy",kcal,--,--,80,571
"Protein",g,--,--,9.00,64.29
"Total lipid (fat)",g,--,--,5.00,35.71
"Carbohydrate, by difference",g,--,--,0.00,0.00
"Fiber, total dietary",g,--,--,0.0,0.0
"Sugars, total",g,--,--,0.00,0.00
Minerals
"Calcium, Ca",mg,--,--,0,0
"Iron, Fe",mg,--,--,0.00,0.00
"Sodium, Na",mg,--,--,230,1643
Vitamins
"Vitamin C, total ascorbic acid",mg,--,--,0.0,0.0
"Vitamin A, IU",IU,--,--,0,0
Lipids
"Fatty acids, total saturated",g,--,--,1.499,10.710
"Fatty acids, total trans",g,--,--,0.000,0.000
"Cholesterol",mg,--,--,20,143
Amino Acids
Other
Ingredients
"PORK SKINS, SUGAR, SALT, WHEAT FLOUR, MONOSODIUM GLUTAMATE, DRIED TORULA YEAST, SOY FLOUR, PAPRIKA, TOMATO POWDER, SPICES, ONION & GARLIC, EXTRACT OF PAPRIKA, TRICALCIUM PHOSPHATE, GREEN BELL PEPPER." Date available: 07/14/2017 Date last updated by company: 07/14/2017
