Source: USDA Branded Food Products Database Release December 2017 Software v.3.8.6.4 2017-10-02
Report Run at: December 18, 2017 20:14 EST
"Nutrient data for: 45021264, TURKEY SAUSAGE, UPC: 042222134057"
Food Group:  Branded Food Products Database
Common Name:

Nutrient,Unit,Data points,Std. Error,"2.0 ONZ = 56.0g",1Value per 100 g,
Proximates
"Energy",kcal,--,--,110,196
"Protein",g,--,--,13.00,23.21
"Total lipid (fat)",g,--,--,5.00,8.93
"Carbohydrate, by difference",g,--,--,0.00,0.00
"Fiber, total dietary",g,--,--,0.0,0.0
"Sugars, total",g,--,--,0.00,0.00
Minerals
"Calcium, Ca",mg,--,--,40,71
"Iron, Fe",mg,--,--,1.77,3.16
"Sodium, Na",mg,--,--,440,786
Vitamins
"Vitamin C, total ascorbic acid",mg,--,--,1.2,2.1
"Vitamin A, IU",IU,--,--,0,0
Lipids
"Fatty acids, total saturated",g,--,--,1.002,1.790
"Fatty acids, total trans",g,--,--,0.000,0.000
"Cholesterol",mg,--,--,50,89
Amino Acids
Other
Ingredients
"TURKEY, SALT, SPICES, SUGAR, ROSEMARY EXTRACT." Date available: 07/14/2017 Date last updated by company: 07/14/2017
