Source: USDA Branded Food Products Database Release December 2017 Software v.3.8.6.4 2017-10-02
Report Run at: December 18, 2017 20:02 EST
"Nutrient data for: 45326621, TURKEY & CHEDDAR ON WHITE SANDWICH, UPC: 826766143306"
Food Group:  Branded Food Products Database
Common Name:

Nutrient,Unit,Data points,Std. Error,"1 CONTAINER = 149.0g",1Value per 100 g,
Proximates
"Energy",kcal,--,--,280,188
"Protein",g,--,--,23.01,15.44
"Total lipid (fat)",g,--,--,8.00,5.37
"Carbohydrate, by difference",g,--,--,27.00,18.12
"Fiber, total dietary",g,--,--,1.0,0.7
"Sugars, total",g,--,--,5.01,3.36
Minerals
"Calcium, Ca",mg,--,--,200,134
"Iron, Fe",mg,--,--,1.70,1.14
"Sodium, Na",mg,--,--,1100,738
Vitamins
"Vitamin C, total ascorbic acid",mg,--,--,0.0,0.0
"Vitamin A, IU",IU,--,--,0,0
Lipids
"Fatty acids, total saturated",g,--,--,4.500,3.020
"Fatty acids, total trans",g,--,--,0.000,0.000
"Cholesterol",mg,--,--,60,40
Amino Acids
Other
Ingredients
"FULLY COOKED TURKEY BREAST (TURKEY BREAST, TURKEY BROTH, LESS THAN 2% OF SALT, DEXTROSE, CARRAGEENAN, SODIUM PHOSPHATE), WHITE BREAD (ENRICHED WHEAT FLOUR [FLOUR, MALTED BARLEY FLOUR, NIACIN, REDUCED IRON, THIAMIN MONONITRATE, RIBOFLAVIN, FOLIC ACID], WATER, HIGH FRUCTOSE CORN SYRUP, CONTAINS 2% OR LESS OF EACH OF THE FOLLOWING: YEAST, WHEAT GLUTEN, SOYBEAN OIL, SALT, SODIUM STEAROYL LACTYLATE, MONOGLYCERIDES, CALCIUM SULFATE, CALCIUM PEROXIDE, SOY LECITHIN, ENZYMES, CALCIUM CARBONATE, AMMONIUM SULFATE, CALCIUM PROPIONATE [TO PRESERVE FRESHNESS]), MILD CHEDDAR CHEESE (PASTEURIZED MILK, CHEESE CULTURE, SALT, ENZYMES, ANNATTO [COLOR])." Date available: 10/13/2017 Date last updated by company: 10/13/2017
