Source: USDA Branded Food Products Database Release December 2017 Software v.3.8.6.4 2017-10-02
Report Run at: December 18, 2017 20:23 EST
"Nutrient data for: 45243985, Tuttorosso 24oz. Pasta Sauce Meat, PREPARED, GTIN: 00072940758044"
Food Group:  Branded Food Products Database
Common Name:

Nutrient,Unit,Data points,Std. Error,"0.5 Cup = 128.0g",1Value per 100 g,
Proximates
"Energy",kcal,--,--,79,62
"Protein",g,--,--,2.00,1.56
"Total lipid (fat)",g,--,--,2.50,1.95
"Carbohydrate, by difference",g,--,--,13.00,10.16
"Fiber, total dietary",g,--,--,2.9,2.3
"Sugars, total",g,--,--,9.00,7.03
Minerals
"Calcium, Ca",mg,--,--,20,16
"Iron, Fe",mg,--,--,1.08,0.84
"Potassium, K",mg,--,--,380,297
"Sodium, Na",mg,--,--,480,375
Vitamins
"Vitamin C, total ascorbic acid",mg,--,--,2.4,1.9
"Vitamin A, IU",IU,--,--,500,391
Lipids
"Fatty acids, total saturated",g,--,--,0.499,0.390
"Fatty acids, total trans",g,--,--,0.000,0.000
"Cholesterol",mg,--,--,0,0
Amino Acids
Other
Ingredients
"Tomato Puree (Water, Tomato Paste), Diced Tomatoes in Tomato Juice, Sugar, Vegetable Oil (Cottonseed and/or Canola and/or Soybean), Contains Less Than 1% Of: Salt, Beef, Dehydrated Garlic, Onion Powder, Spices (Basil, Oregano, Spice), Citric Acid, Dehydrated Parsley and Flavoring." Date available: 10/05/2017 Date last updated by company: 08/30/2017
