Source: USDA Branded Food Products Database Release December 2017 Software v.3.8.6.4 2017-10-02
Report Run at: December 18, 2017 20:23 EST
"Nutrient data for: 45116642, TUV TAAM, HUMMUS WITH ROASTED RED PEPPERS, UPC: 716184112216"
Food Group:  Branded Food Products Database
Common Name:

Nutrient,Unit,Data points,Std. Error,"2.0 TBS. = 28.0g",1Value per 100 g,
Proximates
"Energy",kcal,--,--,70,250
"Protein",g,--,--,2.00,7.14
"Total lipid (fat)",g,--,--,6.00,21.43
"Carbohydrate, by difference",g,--,--,4.00,14.29
"Fiber, total dietary",g,--,--,1.0,3.6
"Sugars, total",g,--,--,0.00,0.00
Minerals
"Calcium, Ca",mg,--,--,20,71
"Iron, Fe",mg,--,--,0.64,2.29
"Sodium, Na",mg,--,--,95,339
Vitamins
"Vitamin C, total ascorbic acid",mg,--,--,4.3,15.3
"Vitamin A, IU",IU,--,--,179,638
Lipids
"Fatty acids, total saturated",g,--,--,1.000,3.570
"Fatty acids, total trans",g,--,--,0.000,0.000
"Cholesterol",mg,--,--,0,0
Amino Acids
Other
Ingredients
"CHICK PEAS, WATER, SESAME TAHINI, CANOLA &/OR SOYBEAN OIL, RED PEPPERS, (RED PEPPER, WATER, ACETIC ACID, SALT, SUGAR, SPICES,) GARLIC, MODIFIED FOOD STARCH, SALT, CITRIC ACID &/OR LEMON CONCENTRATE, SPICES, LESS THAN 0.1% OF 1% POTASSIUM SORBATE & SODIUM BENZOATE AS PRESERVATIVES." Date available: 06/25/2017 Date last updated by company: 06/25/2017
