Source: USDA Branded Food Products Database Release December 2017 Software v.3.8.6.4 2017-10-02
Report Run at: December 18, 2017 20:25 EST
"Nutrient data for: 45010840, TWIN DRAGON, ALMOND COOKIES WITH DICED ALMONDS, UPC: 074699030082"
Food Group:  Branded Food Products Database
Common Name:

Nutrient,Unit,Data points,Std. Error,"2.0 COOKIES = 29.0g",1Value per 100 g,
Proximates
"Energy",kcal,--,--,150,517
"Protein",g,--,--,2.00,6.90
"Total lipid (fat)",g,--,--,9.00,31.03
"Carbohydrate, by difference",g,--,--,17.00,58.62
"Fiber, total dietary",g,--,--,0.0,0.0
"Sugars, total",g,--,--,6.00,20.69
Minerals
"Calcium, Ca",mg,--,--,0,0
"Iron, Fe",mg,--,--,1.24,4.28
"Sodium, Na",mg,--,--,65,224
Vitamins
"Vitamin C, total ascorbic acid",mg,--,--,0.0,0.0
"Vitamin A, IU",IU,--,--,0,0
Lipids
"Fatty acids, total saturated",g,--,--,2.001,6.900
"Fatty acids, total trans",g,--,--,2.500,8.620
"Cholesterol",mg,--,--,0,0
Amino Acids
Other
Ingredients
"ENRICHED WHEAT FLOUR (WHEAT FLOUR, NIACIN, REDUCED IRON, THIAMINE MONONITRATE, RIBOFLAVIN, FOLIC ACID), PARTIALLY HYDROGENATED SOYBEAN OIL, SUGAR, EGG WHITES, ROASTED ALMONDS, BROWN SUGAR, WATER, BAKING SODA, DEXTROSE, CORNSTARCH, SOY LECITHIN, SALT, NATURAL & ARTIFICIAL FLAVORS, NON-FAT DRIED MILK, COLORED WITH FD& C YELLOW #5 AND RED # 40." Date available: 10/13/2017 Date last updated by company: 10/13/2017
