Source: USDA Branded Food Products Database Release December 2017 Software v.3.8.6.4 2017-10-02
Report Run at: December 18, 2017 20:26 EST
"Nutrient data for: 45217940, TWIRL LOLLIPOP, UPC: 768395478599"
Food Group:  Branded Food Products Database
Common Name:

Nutrient,Unit,Data points,Std. Error,"1 LOLLOPOP = 60.0g",1Value per 100 g,
Proximates
"Energy",kcal,--,--,230,383
"Protein",g,--,--,0.00,0.00
"Total lipid (fat)",g,--,--,0.00,0.00
"Carbohydrate, by difference",g,--,--,58.00,96.67
"Sugars, total",g,--,--,47.00,78.33
Minerals
"Sodium, Na",mg,--,--,0,0
Vitamins
Lipids
Amino Acids
Other
Ingredients
"SUGAR, CORN SYRUP, WATER, CITRIC ACID, LACTIC ACID, SODIUM LACTATE, TITANIUM DIOXIDE (COLOR), ARTIFICIAL FLAVORS, ARTIFICIAL COLOR (RED 3, RED 40, BLUE 1, YELLOW 5, YELLOW 6)." Date available: 07/14/2017 Date last updated by company: 07/14/2017
