Source: USDA Branded Food Products Database Release December 2017 Software v.3.8.6.4 2017-10-02
Report Run at: December 18, 2017 20:28 EST
"Nutrient data for: 45265670, TWISTS PRETZELS, UPC: 041497004348"
Food Group:  Branded Food Products Database
Common Name:

Nutrient,Unit,Data points,Std. Error,"7.0 PRETZELS) | (ABOUT = 28.0g",1Value per 100 g,
Proximates
"Energy",kcal,--,--,120,429
"Protein",g,--,--,2.00,7.14
"Total lipid (fat)",g,--,--,2.00,7.14
"Carbohydrate, by difference",g,--,--,23.00,82.14
"Fiber, total dietary",g,--,--,1.0,3.6
"Sugars, total",g,--,--,5.00,17.86
Minerals
"Calcium, Ca",mg,--,--,0,0
"Iron, Fe",mg,--,--,1.29,4.59
"Sodium, Na",mg,--,--,170,607
Vitamins
"Vitamin C, total ascorbic acid",mg,--,--,0.0,0.0
"Vitamin A, IU",IU,--,--,0,0
Lipids
"Fatty acids, total saturated",g,--,--,0.000,0.000
"Fatty acids, total trans",g,--,--,0.000,0.000
"Cholesterol",mg,--,--,0,0
Amino Acids
Other
Ingredients
"WHEAT FLOUR, WHOLE WHEAT FLOUR, SUGAR, BROWN SUGAR, HONEY, VEGETABLE OIL (CORN OIL, SUNFLOWER OIL, OR CANOLA OIL) SALT, YEAST, BAKING SODA." Date available: 07/14/2017 Date last updated by company: 07/14/2017
