Source: USDA Branded Food Products Database Release December 2017 Software v.3.8.6.4 2017-10-02
Report Run at: December 18, 2017 20:29 EST
"Nutrient data for: 45273242, TWO-BITE BROWNIES WITH CREAM CHEESE FROSTING, UPC: 770981098791"
Food Group:  Branded Food Products Database
Common Name:

Nutrient,Unit,Data points,Std. Error,"2.0 BROWNIES = 50.0g",1Value per 100 g,
Proximates
"Energy",kcal,--,--,220,440
"Protein",g,--,--,2.00,4.00
"Total lipid (fat)",g,--,--,12.00,24.00
"Carbohydrate, by difference",g,--,--,29.00,58.00
"Fiber, total dietary",g,--,--,1.0,2.0
"Sugars, total",g,--,--,20.00,40.00
Minerals
"Calcium, Ca",mg,--,--,0,0
"Iron, Fe",mg,--,--,0.86,1.73
"Sodium, Na",mg,--,--,95,190
Vitamins
"Vitamin C, total ascorbic acid",mg,--,--,0.0,0.0
"Vitamin A, IU",IU,--,--,0,0
Lipids
"Fatty acids, total saturated",g,--,--,3.500,7.000
"Fatty acids, total trans",g,--,--,0.000,0.000
"Cholesterol",mg,--,--,5,10
Amino Acids
Other
Ingredients
"SUGAR, ENRICHED WHEAT FLOUR (WHEAT FLOUR, NIACIN, REDUCED IRON, THIAMINE MONONITRATE, RIBOFLAVIN, FOLIC ACID), ICING SUGAR, SOYBEAN OIL, SHORTENING (CANOLA, PALM, MODIFIED PALM AND PALM KERNEL OIL), CREAM CHEESE (CREAM, SKIM MILK, BACTERIAL CULTURE, SALT, CAROB BEAN GUM), EGG WHITE, CORN SYRUP, WATER, CHOCOLATE (SUGAR, CHOCOLATE LIQUOR, COCOA BUTTER, SOYBEAN LECITHIN, VANILLA EXTRACT), COCOA POWDER (PROCESSED WITH ALKALI), NATURAL AND ARTIFICIAL FLAVOR, SALT, MODIFIED CORN STARCH, WHEY POWDER, LEAVENING (SODIUM ACID PYROPHOSPHATE, SODIUM BICARBONATE, CORN STARCH, MONOCALCIUM PHOSPHATE, CALCIUM SULFATE), SOYBEAN LECITHIN, POTASSIUM SORBATE (PRESERVATIVE), COLOR (BETA CAROTENE), POLYSORBATE 60." Date available: 07/14/2017 Date last updated by company: 07/14/2017
