Source: USDA Branded Food Products Database Release December 2017 Software v.3.8.6.4 2017-10-02
Report Run at: December 18, 2017 20:30 EST
"Nutrient data for: 45170196, TWO HOT MAMAS, SALSA VERDE, UPC: 891210000153"
Food Group:  Branded Food Products Database
Common Name:

Nutrient,Unit,Data points,Std. Error,"2.0 Tbsp = 28.35g",1Value per 100 g,
Proximates
"Energy",kcal,--,--,9,32
"Protein",g,--,--,0.00,0.00
"Total lipid (fat)",g,--,--,0.00,0.00
"Carbohydrate, by difference",g,--,--,2.00,7.05
"Fiber, total dietary",g,--,--,1.0,3.5
"Sugars, total",g,--,--,1.00,3.53
Minerals
"Calcium, Ca",mg,--,--,0,0
"Iron, Fe",mg,--,--,0.32,1.12
"Sodium, Na",mg,--,--,66,233
Vitamins
"Vitamin C, total ascorbic acid",mg,--,--,6.4,22.4
"Vitamin A, IU",IU,--,--,265,933
Lipids
"Fatty acids, total saturated",g,--,--,0.000,0.000
"Fatty acids, total trans",g,--,--,0.000,0.000
"Cholesterol",mg,--,--,0,0
Amino Acids
Other
Ingredients
"TOMATILLOS (TOMATILLOS, WATER, CITRIC ACID), RAW ONIONS, RAW CILANTRO, TOMATO PASTE, RAW SERRANO PEPPERS, FILTERED WATER, SALT, CUMIN, GARLIC POWDER." Date available: 07/14/2017 Date last updated by company: 07/14/2017
