Source: USDA Branded Food Products Database Release December 2017 Software v.3.8.6.4 2017-10-02
Report Run at: December 18, 2017 20:31 EST
"Nutrient data for: 45187673, TWO SPOONS, CINNAMON OAT RAISIN COOKIE, UPC: 850009001436"
Food Group:  Branded Food Products Database
Common Name:

Nutrient,Unit,Data points,Std. Error,"0.5 cup = 100.0g",1Value per 100 g,
Proximates
"Energy",kcal,--,--,179,179
"Protein",g,--,--,4.00,4.00
"Total lipid (fat)",g,--,--,9.00,9.00
"Carbohydrate, by difference",g,--,--,25.00,25.00
"Fiber, total dietary",g,--,--,1.0,1.0
"Sugars, total",g,--,--,16.00,16.00
Minerals
"Calcium, Ca",mg,--,--,80,80
"Iron, Fe",mg,--,--,0.14,0.14
"Sodium, Na",mg,--,--,99,99
Vitamins
"Vitamin A, IU",IU,--,--,240,240
"Vitamin D",IU,--,--,20,20
Lipids
"Fatty acids, total saturated",g,--,--,6.000,6.000
"Fatty acids, total trans",g,--,--,0.000,0.000
"Cholesterol",mg,--,--,37,37
Amino Acids
Other
Ingredients
"MORNING FRESH DAIRY MILK & CREAM, SPRUCE CONFECTIONS OAT RAISIN COOKIES (OATS, WHEAT FLOUR, BROWN CANE SUGAR, EVAPORATED CANE SUGAR, BUTTER, EGGS, RAISINS, CRANBERRIES, VANILLA, BAKING SODA, CINNAMON, NUTMEG, SALT), ORGANIC SUGAR, MADHAVA ORGANIC AGAVE NECTAR, ORGANIC NONFAT DRY MILK, SEA SALT, GUAR GUM" Date available: 10/19/2017 Date last updated by company: 10/19/2017
