Source: USDA Branded Food Products Database Release December 2017 Software v.3.8.6.4 2017-10-02
Report Run at: December 18, 2017 20:30 EST
"Nutrient data for: 45233780, TWO LAYER BRISLING SARDINES IN EXTRA VIRGIN OLIVE OIL, UPC: 073230000096"
Food Group:  Branded Food Products Database
Common Name:

Nutrient,Unit,Data points,Std. Error,"1 CAN = 82.0g",1Value per 100 g,
Proximates
"Energy",kcal,--,--,210,256
"Protein",g,--,--,16.00,19.51
"Total lipid (fat)",g,--,--,16.00,19.51
"Carbohydrate, by difference",g,--,--,0.00,0.00
"Fiber, total dietary",g,--,--,1.0,1.2
"Sugars, total",g,--,--,0.00,0.00
Minerals
"Calcium, Ca",mg,--,--,250,305
"Iron, Fe",mg,--,--,1.49,1.82
"Sodium, Na",mg,--,--,420,512
Vitamins
"Vitamin C, total ascorbic acid",mg,--,--,0.0,0.0
"Vitamin A, IU",IU,--,--,103,126
Lipids
"Fatty acids, total saturated",g,--,--,6.002,7.320
"Fatty acids, total trans",g,--,--,0.000,0.000
"Cholesterol",mg,--,--,70,85
Amino Acids
Other
Ingredients
"BRISLING SARDINES, EXTRA VIRGIN OLIVE OIL, SALT" Date available: 07/14/2017 Date last updated by company: 07/14/2017
