Source: USDA Branded Food Products Database Release December 2017 Software v.3.8.6.4 2017-10-02
Report Run at: December 18, 2017 20:30 EST
"Nutrient data for: 45045269, TWO-LAYER CAKE WITH BALLOONS AND CANDY SEQUINS, UPC: 029519219093"
Food Group:  Branded Food Products Database
Common Name:

Nutrient,Unit,Data points,Std. Error,"0.067 OF CAKE = 81.0g",1Value per 100 g,
Proximates
"Energy",kcal,--,--,320,395
"Protein",g,--,--,2.00,2.47
"Total lipid (fat)",g,--,--,15.00,18.52
"Carbohydrate, by difference",g,--,--,44.00,54.32
"Fiber, total dietary",g,--,--,0.0,0.0
"Sugars, total",g,--,--,35.00,43.21
Minerals
"Calcium, Ca",mg,--,--,20,25
"Iron, Fe",mg,--,--,0.89,1.10
"Sodium, Na",mg,--,--,220,272
Vitamins
"Vitamin C, total ascorbic acid",mg,--,--,0.0,0.0
"Vitamin A, IU",IU,--,--,0,0
Lipids
"Fatty acids, total saturated",g,--,--,4.998,6.170
"Fatty acids, total trans",g,--,--,0.000,0.000
"Cholesterol",mg,--,--,25,31
Amino Acids
Other
Ingredients
"POWDERED SUGAR, SUGAR, ENRICHED WHEAT FLOUR BLEACHED (FLOUR, NIACIN, IRON, THIAMINE MONONITRATE, RIBOFLAVIN, FOLIC ACID), EGGS, PALM OIL, CANOLA OIL, WATER, EGG WHITES, SOYBEAN OIL, INVERT SUGAR, CONTAINS 2% OR LESS OF ARABIC GUM, ARTIFICIAL FLAVOR, BETA CAROTENE (COLOR), BLUE 1, BLUE 1 LAKE, BLUE 2 LAKE, CARRAGEENAN, CELLULOSE GUM, CITRIC ACID, CONFECTIONER'S GLAZE, CORN FLOUR, CORN SYRUP, CORN STARCH, DEXTROSE, FOOD STARCH - MODIFIED, GLYCERIN, GUAR GUM, LEAVENING (BAKING SODA, MONOCALCIUM PHOSPHATE, SODIUM ACID PYROPHOSPHATE, SODIUM ALUMINUM PHOSPHATE), MEDIUM CHAIN TRIGLYCERIDES, MONO- AND DIGLYCERIDES, NONFAT MILK, PARTIALLY HYDROGENATED SOYBEAN AND/OR COTTONSEED OIL, POLYSORBATE 60, POLYSORBATE 80, POTASSIUM SORBATE AND SODIUM PROPIONATE AND SORBIC ACID (PRESERVATIVES), PROPYLENE GLYCOL MONO- AND DIESTERS OF FATTY ACIDS, RED 40, RED LAKE 40, RICE FLOUR, SALT, SODIUM STEAROYL LACTYLATE, SORBITOL, SOY FLOUR, SOY LECITHIN. TARTARIC ACID, TRAGACANTH GUM, WHEY, XANTHAN GUM, YELLOW 5, YELLOW 5 LAKE. YELLOW 6." Date available: 07/14/2017 Date last updated by company: 07/14/2017
