Source: USDA Branded Food Products Database Release December 2017 Software v.3.8.6.4 2017-10-02
Report Run at: December 18, 2017 20:34 EST
"Nutrient data for: 45293459, TYSON, GRILLED & READY, FULLY COOKED PULLED PORK LOIN, UPC: 023700040046"
Food Group:  Branded Food Products Database
Common Name:

Nutrient,Unit,Data points,Std. Error,"2.0 ONZ = 56.0g",1Value per 100 g,
Proximates
"Energy",kcal,--,--,110,196
"Protein",g,--,--,15.00,26.79
"Total lipid (fat)",g,--,--,5.00,8.93
"Carbohydrate, by difference",g,--,--,0.00,0.00
"Fiber, total dietary",g,--,--,0.0,0.0
"Sugars, total",g,--,--,0.00,0.00
Minerals
"Calcium, Ca",mg,--,--,0,0
"Iron, Fe",mg,--,--,1.09,1.95
"Sodium, Na",mg,--,--,400,714
Vitamins
"Vitamin C, total ascorbic acid",mg,--,--,0.0,0.0
"Vitamin A, IU",IU,--,--,0,0
Lipids
"Fatty acids, total saturated",g,--,--,1.501,2.680
"Fatty acids, total monounsaturated",g,--,--,1.999,3.570
"Fatty acids, total polyunsaturated",g,--,--,1.002,1.790
"Fatty acids, total trans",g,--,--,0.000,0.000
"Cholesterol",mg,--,--,45,80
Amino Acids
Other
Ingredients
"PORK LOIN, WATER CONTAIN 2% OR LESS OF THE FOLLOWING: AUTOLYZED YEAST EXTRACT, CARAMELIZED SUGAR, DEHYDRATED PARSLEY, DISODIUM GUANYLATE AND DISODIUM INOSINATE, FLAVORS, GARLIC POWDER, GUM ARABIC, MALTODEXTRIN, NATURAL FLAVORS, NATURAL SMOKE FLAVOR, ONION POWDER, PORK FAT, PORK STOCK, PROPYL GALLATE, SALT, SMOKED SUGAR (WATER AND NATURAL SMOKED SUGAR), SODIUM PHOSPHATE, SPICES, SUGAR, THIAMINE HYDROCHLORIDE, YEAST EXTRACT." Date available: 09/08/2017 Date last updated by company: 09/08/2017
