Source: USDA Branded Food Products Database Release December 2017 Software v.3.8.6.4 2017-10-02
Report Run at: December 18, 2017 20:33 EST
"Nutrient data for: 45293469, TYSON, CHICKEN NUGGETS, UPC: 023700033680"
Food Group:  Branded Food Products Database
Common Name:

Nutrient,Unit,Data points,Std. Error,"4.0 PIECES = 79.0g",1Value per 100 g,
Proximates
"Energy",kcal,--,--,200,253
"Protein",g,--,--,12.00,15.19
"Total lipid (fat)",g,--,--,11.00,13.92
"Carbohydrate, by difference",g,--,--,14.00,17.72
"Fiber, total dietary",g,--,--,0.0,0.0
"Sugars, total",g,--,--,0.00,0.00
Minerals
"Calcium, Ca",mg,--,--,0,0
"Iron, Fe",mg,--,--,0.77,0.98
"Sodium, Na",mg,--,--,360,456
Vitamins
"Vitamin C, total ascorbic acid",mg,--,--,0.0,0.0
"Vitamin A, IU",IU,--,--,0,0
Lipids
"Fatty acids, total saturated",g,--,--,2.496,3.160
"Fatty acids, total monounsaturated",g,--,--,4.503,5.700
"Fatty acids, total polyunsaturated",g,--,--,3.997,5.060
"Fatty acids, total trans",g,--,--,0.000,0.000
"Cholesterol",mg,--,--,35,44
Amino Acids
Other
Ingredients
"CHICKEN BREAST WITH RIB MEAT, RICE FLOUR, WATER, YELLOW CORN FLOUR, CONTAINS 2% OR LESS OF THE FOLLOWING: ANNATTO EXTRACT, CORN STARCH, DRIED GARLIC, DRIED ONION, GARLIC POWDER, NATURAL FLAVOR, NATURAL SEA SALT, OIL OF GARLIC, ONION POWDER, PAPRIKA EXTRACT, SALT, SPICES, TORULA YEAST, WHITE PEPPER, XANTHAN GUM, BREADING SET IN VEGETABLE OIL." Date available: 07/14/2017 Date last updated by company: 07/14/2017
