Source: USDA Branded Food Products Database Release December 2017 Software v.3.8.6.4 2017-10-02
Report Run at: December 18, 2017 20:34 EST
"Nutrient data for: 45253710, TYSON, MEXICAN ORIGINAL, FLOUR TORTILLAS, UPC: 023700497673"
Food Group:  Branded Food Products Database
Common Name:

Nutrient,Unit,Data points,Std. Error,"1 PIECE = 50.0g",1Value per 100 g,
Proximates
"Energy",kcal,--,--,150,300
"Protein",g,--,--,4.00,8.00
"Total lipid (fat)",g,--,--,4.50,9.00
"Carbohydrate, by difference",g,--,--,25.00,50.00
"Fiber, total dietary",g,--,--,1.0,2.0
"Sugars, total",g,--,--,1.00,2.00
Minerals
"Calcium, Ca",mg,--,--,20,40
"Iron, Fe",mg,--,--,0.79,1.58
"Sodium, Na",mg,--,--,290,580
Vitamins
"Vitamin C, total ascorbic acid",mg,--,--,0.0,0.0
"Vitamin A, IU",IU,--,--,0,0
Lipids
"Fatty acids, total saturated",g,--,--,1.000,2.000
"Fatty acids, total monounsaturated",g,--,--,1.000,2.000
"Fatty acids, total polyunsaturated",g,--,--,2.500,5.000
"Fatty acids, total trans",g,--,--,0.000,0.000
"Cholesterol",mg,--,--,0,0
Amino Acids
Other
Ingredients
"BLEACHED ENRICHED WHEAT FLOUR (FLOUR, MALTED BARLEY FLOUR, NIACIN, REDUCED IRON, THIAMINE MONONITRATE, RIBOFLAVIN, FOLIC ACID), WATER, SOYBEAN OIL, HYDROGENATED VEGETABLE OIL (CONTAINS ONE OR MORE OF THE FOLLOWING: COTTONSEED, SOYBEAN OIL), MONOGLYCERIDES, CONTAINS 2% OR LESS OF THE FOLLOWING : BAKING POWDER (SODIUM ACID PYROPHOSPHATE, SODIUM BICARBONATE, CORN STARCH, MONOCALCIUM PHOSPHATE), SALT, SUGAR, PRESERVATIVES (SODIUM PROPIONATE AND POTASSIUM SORBATE), DOUGH CONDITIONER (WHEAT FLOUR, CALCIUM SULFATE AND SORBIC ACID), FUMARIC ACID" Date available: 07/14/2017 Date last updated by company: 07/14/2017
