Source: USDA Branded Food Products Database Release December 2017 Software v.3.8.6.4 2017-10-02
Report Run at: December 18, 2017 20:34 EST
"Nutrient data for: 45307897, TYSON, GRILLED & READY, FULLY COOKED CHICKEN BREAST STRIPS, UPC: 023700029348"
Food Group:  Branded Food Products Database
Common Name:

Nutrient,Unit,Data points,Std. Error,"3.0 ONZ = 84.0g",1Value per 100 g,
Proximates
"Energy",kcal,--,--,100,119
"Protein",g,--,--,21.00,25.00
"Total lipid (fat)",g,--,--,2.00,2.38
"Carbohydrate, by difference",g,--,--,1.00,1.19
"Fiber, total dietary",g,--,--,0.0,0.0
"Sugars, total",g,--,--,0.00,0.00
Minerals
"Calcium, Ca",mg,--,--,0,0
"Iron, Fe",mg,--,--,0.73,0.87
"Sodium, Na",mg,--,--,470,560
Vitamins
"Vitamin C, total ascorbic acid",mg,--,--,0.0,0.0
"Vitamin A, IU",IU,--,--,0,0
Lipids
"Fatty acids, total saturated",g,--,--,0.504,0.600
"Fatty acids, total monounsaturated",g,--,--,1.000,1.190
"Fatty acids, total polyunsaturated",g,--,--,0.000,0.000
"Fatty acids, total trans",g,--,--,0.000,0.000
"Cholesterol",mg,--,--,50,60
Amino Acids
Other
Ingredients
"CHICKEN BREAST WITH RIB MEAT, WATER, SEASONING (MALTODEXTRIN, SALT, GARLIC POWDER, YEAST EXTRACT, SUGAR, ONION POWDER, CHICKEN STOCK, PAPRIKA, SPICE, DEXTROSE, FLAVORS, DISODIUM INOSINATE, DISODIUM GUANYLATE AND MOLASSES), CONTAINS 2% OR LESS OF MODIFIED FOOD STARCH, VINEGAR, SALT, SODIUM PHOSPHATES." Date available: 07/14/2017 Date last updated by company: 07/14/2017
