Source: USDA Branded Food Products Database Release December 2017 Software v.3.8.6.4 2017-10-02
Report Run at: December 18, 2017 20:35 EST
"Nutrient data for: 45193546, TZATZIKI SAUCE, UPC: 011150940290"
Food Group:  Branded Food Products Database
Common Name:

Nutrient,Unit,Data points,Std. Error,"28.0 GRM = 28.0g",1Value per 100 g,
Proximates
"Energy",kcal,--,--,30,107
"Protein",g,--,--,1.00,3.57
"Total lipid (fat)",g,--,--,0.50,1.79
"Carbohydrate, by difference",g,--,--,2.00,7.14
"Fiber, total dietary",g,--,--,0.0,0.0
"Sugars, total",g,--,--,0.00,0.00
Minerals
"Calcium, Ca",mg,--,--,40,143
"Iron, Fe",mg,--,--,0.00,0.00
"Sodium, Na",mg,--,--,115,411
Vitamins
"Vitamin C, total ascorbic acid",mg,--,--,2.2,7.7
"Vitamin A, IU",IU,--,--,179,638
Lipids
"Fatty acids, total saturated",g,--,--,1.501,5.360
"Fatty acids, total trans",g,--,--,0.000,0.000
"Cholesterol",mg,--,--,5,18
Amino Acids
Other
Ingredients
"YOGURT (GRADE A PASTEURIZED SKIM MILK, CREAM, MILK), CUCUMBER, SOUR CREAM [CULTURED SKIM MILK, CREAM, STABILIZER (GRADE A WHEY, MODIFIED FOOD STARCH, SODIUM PHOSPHATE, GUAR GUM, CARRAGEENAN, CALCIUM SULFATE, AND LOCUST BEAN GUM), POTASSIUM SORBATE], GARLIC BLEND (GARLIC, CANOLA OIL, EXTRA VIRGIN OLIVE OIL), WHITE ONION, LEMON JUICE (WATER, LEMON JUICE CONCENTRATE, CITRIC ACID, SODIUM BENZOATE AND BISULFITE AS A PRESERVATIVE, LEMON OIL), DILL SALT, BLACK PEPPER, CITRIC ACID, POTASSIUM SORBATE AND SODIUM BENZOATE (PRESERVATIVES), XANTHAN GUM." Date available: 07/14/2017 Date last updated by company: 07/14/2017
