Source: USDA Branded Food Products Database Release December 2017 Software v.3.8.6.4 2017-10-02
Report Run at: December 18, 2017 20:36 EST
"Nutrient data for: 45015062, UDI'S, DOUBLE MUFFINS, VANILLA, UPC: 698997807124"
Food Group:  Branded Food Products Database
Common Name:

Nutrient,Unit,Data points,Std. Error,"1 MUFFIN = 85.0g",1Value per 100 g,
Proximates
"Energy",kcal,--,--,250,294
"Protein",g,--,--,3.00,3.53
"Total lipid (fat)",g,--,--,9.00,10.59
"Carbohydrate, by difference",g,--,--,39.00,45.88
"Fiber, total dietary",g,--,--,2.0,2.4
"Sugars, total",g,--,--,21.00,24.71
Minerals
"Calcium, Ca",mg,--,--,20,24
"Iron, Fe",mg,--,--,0.47,0.55
"Sodium, Na",mg,--,--,310,365
Vitamins
"Vitamin C, total ascorbic acid",mg,--,--,0.0,0.0
"Vitamin A, IU",IU,--,--,129,152
Lipids
"Fatty acids, total saturated",g,--,--,4.497,5.290
"Fatty acids, total trans",g,--,--,0.000,0.000
"Cholesterol",mg,--,--,45,53
Amino Acids
Other
Ingredients
"WATER, DRIED CANE SYRUP, RICE FLOUR, WHOLE EGGS, PALM OIL, POTATO STARCH, CANE SYRUP, MODIFIED FOOD STARCH, EGG WHITES, METHYCELLULOSE, VANILLA BEAN PASTE (SUGAR, WATER, VANILLA EXTRACT, VANILLA BEAN SPECKS, TRAGACANTH GUM), GLYCERINE, BAKING SODA, SALT, CULTURED CORN SYRUP SOLIDS AND CITRIC ACID (MOLD INHIBITOR)." Date available: 06/25/2017 Date last updated by company: 06/25/2017
