Source: USDA Branded Food Products Database Release December 2017 Software v.3.8.6.4 2017-10-02
Report Run at: December 18, 2017 20:36 EST
"Nutrient data for: 45024413, UDI'S, ANCIENT GRAIN OMEGA FLAX & FIBER BREAD, UPC: 698997809968"
Food Group:  Branded Food Products Database
Common Name:

Nutrient,Unit,Data points,Std. Error,"2.0 SLICES = 58.0g",1Value per 100 g,
Proximates
"Energy",kcal,--,--,150,259
"Protein",g,--,--,6.00,10.34
"Total lipid (fat)",g,--,--,6.00,10.34
"Carbohydrate, by difference",g,--,--,23.00,39.66
"Fiber, total dietary",g,--,--,6.0,10.3
"Sugars, total",g,--,--,3.00,5.17
Minerals
"Calcium, Ca",mg,--,--,60,103
"Iron, Fe",mg,--,--,0.93,1.60
"Sodium, Na",mg,--,--,290,500
Vitamins
"Vitamin C, total ascorbic acid",mg,--,--,5.2,8.9
"Vitamin A, IU",IU,--,--,0,0
Lipids
"Fatty acids, total saturated",g,--,--,0.000,0.000
"Fatty acids, total trans",g,--,--,0.000,0.000
"Cholesterol",mg,--,--,0,0
Amino Acids
Other
Ingredients
"WATER, TAPIOCA STARCH, BROWN RICE FLOUR, EGG WHITES, RESISTANT CORN STARCH, CANOLA OIL, FLAX SEED, CANE SUGAR SYRUP, CHIA SEED, FLAXSEED, YEAST, CITRUS FIBER, DRIED CANE SYRUP, INULIN, RICE BRAN, SALT, DRY MOLASSES, PEA PROTEIN, GUM (XANTHAN GUM, SODIUM ALGINATE, GUAR GUM), SODIUM CARBOXYMETHYL CELLULOSE, CULTURED BROWN RICE, BROWN RICE AND ENZYMES." Date available: 07/14/2017 Date last updated by company: 07/14/2017
