Source: USDA Branded Food Products Database Release December 2017 Software v.3.8.6.4 2017-10-02
Report Run at: December 18, 2017 20:43 EST
"Nutrient data for: 45192239, ULTRA-PASTEURIZED VITAMIN D MILK, UPC: 717544205029"
Food Group:  Branded Food Products Database
Common Name:

Nutrient,Unit,Data points,Std. Error,"1 cup = 240.0g",1Value per 100 g,
Proximates
"Energy",kcal,--,--,161,67
"Protein",g,--,--,7.99,3.33
"Total lipid (fat)",g,--,--,9.00,3.75
"Carbohydrate, by difference",g,--,--,13.01,5.42
"Fiber, total dietary",g,--,--,0.0,0.0
"Sugars, total",g,--,--,12.00,5.00
Minerals
"Calcium, Ca",mg,--,--,305,127
"Iron, Fe",mg,--,--,0.00,0.00
"Potassium, K",mg,--,--,410,171
"Sodium, Na",mg,--,--,125,52
Vitamins
Lipids
"Fatty acids, total saturated",g,--,--,4.992,2.080
"Fatty acids, total monounsaturated",g,--,--,2.496,1.040
"Fatty acids, total polyunsaturated",g,--,--,0.000,0.000
"Fatty acids, total trans",g,--,--,0.000,0.000
"Cholesterol",mg,--,--,36,15
Amino Acids
Other
Ingredients
"MILK, CONTAINS LESS THAN 1% OF: LACTASE ENZYME*, VITAMIN D3." Date available: 09/22/2017 Date last updated by company: 09/22/2017
