Source: USDA Branded Food Products Database Release December 2017 Software v.3.8.6.4 2017-10-02
Report Run at: December 18, 2017 20:43 EST
"Nutrient data for: 45138730, ULTRA PASTEURIZED HIGH PROTEIN, UPC: 041900075354"
Food Group:  Branded Food Products Database
Common Name:

Nutrient,Unit,Data points,Std. Error,"1 cup = 240.0g",1Value per 100 g,
Proximates
"Energy",kcal,--,--,199,83
"Protein",g,--,--,13.99,5.83
"Total lipid (fat)",g,--,--,2.50,1.04
"Carbohydrate, by difference",g,--,--,31.01,12.92
"Fiber, total dietary",g,--,--,0.0,0.0
"Sugars, total",g,--,--,28.99,12.08
Minerals
"Calcium, Ca",mg,--,--,499,208
"Iron, Fe",mg,--,--,0.00,0.00
"Potassium, K",mg,--,--,701,292
"Sodium, Na",mg,--,--,250,104
Vitamins
"Vitamin C, total ascorbic acid",mg,--,--,0.0,0.0
"Vitamin A, IU",IU,--,--,499,208
"Vitamin D",IU,--,--,101,42
Lipids
"Fatty acids, total saturated",g,--,--,1.488,0.620
"Fatty acids, total trans",g,--,--,0.000,0.000
"Cholesterol",mg,--,--,14,6
Amino Acids
Other
Ingredients
"LOWFAT MILK, NONFAT MILK, LIQUID SUGAR (SUGAR, WATER), LESS THAN 1% OF COCOA (PROCESSED WITH ALKALI), NATURAL FLAVORS, CARRAGEENAN, GUAR GUM, SALT, VITAMIN A PALMITATE, VITAMIN D3." Date available: 08/02/2017 Date last updated by company: 08/02/2017
