Source: USDA Branded Food Products Database Release December 2017 Software v.3.8.6.4 2017-10-02
Report Run at: December 18, 2017 20:46 EST
"Nutrient data for: 45319542, ULTRA THIN ROAST BEEF, UPC: 044500201659"
Food Group:  Branded Food Products Database
Common Name:

Nutrient,Unit,Data points,Std. Error,"2.0 ONZ = 56.0g",1Value per 100 g,
Proximates
"Energy",kcal,--,--,70,125
"Protein",g,--,--,10.00,17.86
"Total lipid (fat)",g,--,--,3.00,5.36
"Carbohydrate, by difference",g,--,--,1.00,1.79
"Fiber, total dietary",g,--,--,0.0,0.0
"Sugars, total",g,--,--,1.00,1.79
Minerals
"Calcium, Ca",mg,--,--,0,0
"Iron, Fe",mg,--,--,1.06,1.89
"Sodium, Na",mg,--,--,550,982
Vitamins
"Vitamin C, total ascorbic acid",mg,--,--,0.0,0.0
"Vitamin A, IU",IU,--,--,0,0
Lipids
"Fatty acids, total saturated",g,--,--,1.002,1.790
"Fatty acids, total trans",g,--,--,0.000,0.000
"Cholesterol",mg,--,--,30,54
Amino Acids
Other
Ingredients
"BEEF, WATER, CONTAINS 2% OR LESS: SALT, SODIUM LACTATE, POTASSIUM LACTATE, DEXTROSE, BEEF FLAVOR (BEEF STOCK, MALTODEXTRIN, SALT), NATURAL FLAVORS, SODIUM PHOSPHATE, SODIUM DIACETATE, CARAMEL COLOR." Date available: 07/14/2017 Date last updated by company: 07/14/2017
