Source: USDA Branded Food Products Database Release December 2017 Software v.3.8.6.4 2017-10-02
Report Run at: December 18, 2017 20:50 EST
"Nutrient data for: 45029014, UNCLE STEVE'S, TOMATO BASIL SAUCE, UPC: 852015005019"
Food Group:  Branded Food Products Database
Common Name:

Nutrient,Unit,Data points,Std. Error,"0.5 cup = 125.0g",1Value per 100 g,
Proximates
"Energy",kcal,--,--,60,48
"Protein",g,--,--,1.00,0.80
"Total lipid (fat)",g,--,--,4.00,3.20
"Carbohydrate, by difference",g,--,--,6.00,4.80
"Fiber, total dietary",g,--,--,1.0,0.8
"Sugars, total",g,--,--,3.00,2.40
Minerals
"Calcium, Ca",mg,--,--,40,32
"Iron, Fe",mg,--,--,0.51,0.41
"Sodium, Na",mg,--,--,400,320
Vitamins
"Vitamin C, total ascorbic acid",mg,--,--,5.8,4.6
"Vitamin A, IU",IU,--,--,96,77
Lipids
"Fatty acids, total saturated",g,--,--,0.500,0.400
"Fatty acids, total trans",g,--,--,0.000,0.000
"Cholesterol",mg,--,--,0,0
Amino Acids
Other
Ingredients
"ORGANIC IMPORTED ITALIAN WHOLE PEELED TOMATOES, ORGANIC FRESH ONIONS, ORGANIC EXTRA VIRGIN OLIVE OIL, ORGANIC FRESH GARLIC, ORGANIC FRESH BASIL, SEA SALT, ORGANIC BLACK PEPPER." Date available: 07/14/2017 Date last updated by company: 07/14/2017
