Source: USDA Branded Food Products Database Release December 2017 Software v.3.8.6.4 2017-10-02
Report Run at: December 18, 2017 20:50 EST
"Nutrient data for: 45159343, UNCOMMON COFFEE ROASTERS, MILK CANDY, UPC: 503014598087"
Food Group:  Branded Food Products Database
Common Name:

Nutrient,Unit,Data points,Std. Error,"1 ONZ = 28.0g",1Value per 100 g,
Proximates
"Energy",kcal,--,--,100,357
"Protein",g,--,--,0.74,2.64
"Total lipid (fat)",g,--,--,0.97,3.46
"Carbohydrate, by difference",g,--,--,22.10,78.93
"Fiber, total dietary",g,--,--,0.0,0.0
"Sugars, total",g,--,--,10.00,35.71
Minerals
"Calcium, Ca",mg,--,--,15,54
"Iron, Fe",mg,--,--,0.71,2.53
"Sodium, Na",mg,--,--,14,50
Vitamins
"Vitamin C, total ascorbic acid",mg,--,--,0.0,0.0
"Vitamin A, IU",IU,--,--,0,0
Lipids
"Fatty acids, total saturated",g,--,--,0.000,0.000
"Fatty acids, total trans",g,--,--,0.000,0.000
"Cholesterol",mg,--,--,0,0
Amino Acids
Other
Ingredients
"MILK, SUGAR, POTASSIUM SORBATE (PRESERVATIVE) AND MAY CONTAIN GLUCOSYL." Date available: 07/14/2017 Date last updated by company: 07/14/2017
