Source: USDA Branded Food Products Database Release December 2017 Software v.3.8.6.4 2017-10-02
Report Run at: December 18, 2017 20:56 EST
"Nutrient data for: 45277644, UNCURED PEPPERONI PIZZA, UPC: 711535508069"
Food Group:  Branded Food Products Database
Common Name:

Nutrient,Unit,Data points,Std. Error,"0.333 PIZZA = 123.0g",1Value per 100 g,
Proximates
"Energy",kcal,--,--,310,252
"Protein",g,--,--,12.00,9.76
"Total lipid (fat)",g,--,--,13.00,10.57
"Carbohydrate, by difference",g,--,--,37.99,30.89
"Fiber, total dietary",g,--,--,1.0,0.8
"Sugars, total",g,--,--,3.00,2.44
Minerals
"Calcium, Ca",mg,--,--,240,195
"Iron, Fe",mg,--,--,1.30,1.06
"Potassium, K",mg,--,--,260,211
"Sodium, Na",mg,--,--,770,626
Vitamins
"Vitamin C, total ascorbic acid",mg,--,--,0.0,0.0
"Vitamin A, IU",IU,--,--,159,129
"Vitamin D",IU,--,--,0,0
Lipids
"Fatty acids, total saturated",g,--,--,6.002,4.880
"Fatty acids, total monounsaturated",g,--,--,6.002,4.880
"Fatty acids, total polyunsaturated",g,--,--,2.005,1.630
"Fatty acids, total trans",g,--,--,0.000,0.000
"Cholesterol",mg,--,--,25,20
Amino Acids
Other
Ingredients
"CRUST: WATER, TAPIOCA FLOUR, RICE FLOUR, MODIFIED RICE STARCH, FRESH YEAST, WHEY POWDER, BUTTER FLAKES (SOYBEAN OIL, BUTTER FLAVOR, SOY LECITHIN), OLIVE OIL, EVAPORATED CANE SUGAR, SALT, XANTHAN GUM. SAUCE: CRUSHED TOMATOES (WATER, CONCENTRATED CRUSHED TOMATOES), TOMATO PUREE (WATER, TOMATO PASTE), SUGAR, SALT, SPICES, SOYBEAN OIL, CITRIC ACID, GARLIC, DEHYDRATED ONION, ROMANO CHEESE (MILK, CHEESE CULTURES, SALT, ENZYMES), TOASTED ONION POWDER. MOZZARELLA CHEESE: PASTEURIZED PART SKIM MILK, CHEESE CULTURES, SALT, ENZYMES. UNCURED PEPPERONI (NO NITRATES OR NITRITES ADDED OTHER THAN THOSE NATURALLY OCCURRING IN CELERY JUICE POWDER): PORK, BEEF, SALT, CONTAINS 2% OR LESS OF WATER, SPICE, SEASONING (CANE SUGAR, CELERY JUICE POWDER), SEASONING (EXTRACTIVES OF PAPRIKA, NATURAL SPICE EXTRACTIVES), LACTIC ACID STARTER CULTURE." Date available: 10/13/2017 Date last updated by company: 10/13/2017
