Source: USDA Branded Food Products Database Release December 2017 Software v.3.8.6.4 2017-10-02
Report Run at: December 18, 2017 20:51 EST
"Nutrient data for: 45229450, UNCURED BACON MAC & CHEESE, BITES WITH BREADING, REAL CHEDDAR, SWISS AND PARMESAN CHEESES, UPC: 03003410449"
Food Group:  Branded Food Products Database
Common Name:

Nutrient,Unit,Data points,Std. Error,"4.0 PIECES = 82.0g",1Value per 100 g,
Proximates
"Energy",kcal,--,--,200,244
"Protein",g,--,--,10.00,12.20
"Total lipid (fat)",g,--,--,11.00,13.41
"Carbohydrate, by difference",g,--,--,15.00,18.29
"Fiber, total dietary",g,--,--,0.0,0.0
"Sugars, total",g,--,--,1.00,1.22
Minerals
"Calcium, Ca",mg,--,--,150,183
"Iron, Fe",mg,--,--,0.52,0.64
"Sodium, Na",mg,--,--,250,305
Vitamins
"Vitamin C, total ascorbic acid",mg,--,--,0.0,0.0
"Vitamin A, IU",IU,--,--,147,179
Lipids
"Fatty acids, total saturated",g,--,--,4.502,5.490
"Fatty acids, total trans",g,--,--,0.000,0.000
"Cholesterol",mg,--,--,35,43
Amino Acids
Other
Ingredients
"DITALINI PASTA (WATER, ENRICHED DURUM SEMOLINA [DURUM SEMOLINA WHEAT FLOUR, NIACIN, FERRIUS SULFATE, THIAMINE MONONITRATE, RIBOFLAVIN, FOLIC ACID]), CHEDDAR CHEESE (PASTEURIZED MILK, CHEESE CULTURES, ENZYMES, SALT, ANNATTO [COLOR]), WATER, UNCURED BACON NO NITRITES OR NITRATES ADDED EXCEPT AS NATURALLY OCCURRING IN SEA SALT AND CELERY JUICE POWDER (CURED WITH: WATER, SEA SALT, CANE SUGAR, NATURAL FLAVORS) WHOLE MILK (MILK, VITAMIN D), PARMESAN CHEESE (PASTEURIZED MILK, CHEESE CULTURES, ENZYMES, SALT) PANKO BREADCRUMBS (UNBLEACHED WHEAT FLOUR, SUGAR, YEAST, SALT), MODIFIED RICE STARCH, ENRICHED UNBLEACHED WHEAT FLOUR (WHEAT FLOUR, MALTED BARLEY FLOUR, NIACIN, REDUCED IRON, THIAMINE MONONITRATE, RIBOFLAVIN, FOLIC ACID), EGGS, SWISS CHEESE (MILK, CHEESE CULTURES, SALT, ENZYMES), CORNSTARCH, BUTTER (PASTEURIZED CREAM), CANOLA OIL, SOY BEAN OIL, SEA SALT." Date available: 07/14/2017 Date last updated by company: 07/14/2017
