Source: USDA Branded Food Products Database Release December 2017 Software v.3.8.6.4 2017-10-02
Report Run at: December 18, 2017 20:51 EST
"Nutrient data for: 45202705, UNCURED ANDOUILLE BEEF SAUSAGE, UPC: 850074005162"
Food Group:  Branded Food Products Database
Common Name:

Nutrient,Unit,Data points,Std. Error,"1 SAUSAGE = 85.0g",1Value per 100 g,
Proximates
"Energy",kcal,--,--,220,259
"Protein",g,--,--,12.00,14.12
"Total lipid (fat)",g,--,--,19.00,22.35
"Carbohydrate, by difference",g,--,--,1.00,1.18
"Fiber, total dietary",g,--,--,0.0,0.0
"Sugars, total",g,--,--,0.00,0.00
Minerals
"Calcium, Ca",mg,--,--,20,24
"Iron, Fe",mg,--,--,0.70,0.82
"Sodium, Na",mg,--,--,650,765
Vitamins
"Vitamin C, total ascorbic acid",mg,--,--,0.0,0.0
"Vitamin A, IU",IU,--,--,65,76
Lipids
"Fatty acids, total saturated",g,--,--,7.998,9.410
"Cholesterol",mg,--,--,45,53
Amino Acids
Other
Ingredients
"GRASS-FED BEEF, WATER, SALT (INCLUDING SEA SALT), SPICES INCLUDING WHITE AND RED PEPPER, CELERY POWDER, NATURAL SPICE EXTRACTIVES INCLUDING SAGE." Date available: 07/14/2017 Date last updated by company: 07/14/2017
