Source: USDA Branded Food Products Database Release December 2017 Software v.3.8.6.4 2017-10-02
Report Run at: December 18, 2017 20:52 EST
"Nutrient data for: 45183963, UNCURED BEEF FRANKS, UPC: 079893114552"
Food Group:  Branded Food Products Database
Common Name:

Nutrient,Unit,Data points,Std. Error,"1 LINK = 68.0g",1Value per 100 g,
Proximates
"Energy",kcal,--,--,200,294
"Protein",g,--,--,10.00,14.71
"Total lipid (fat)",g,--,--,17.00,25.00
"Carbohydrate, by difference",g,--,--,1.00,1.47
"Fiber, total dietary",g,--,--,0.0,0.0
"Sugars, total",g,--,--,0.00,0.00
Minerals
"Calcium, Ca",mg,--,--,400,588
"Iron, Fe",mg,--,--,5.82,8.56
"Sodium, Na",mg,--,--,680,1000
Vitamins
"Vitamin C, total ascorbic acid",mg,--,--,9.7,14.3
"Vitamin A, IU",IU,--,--,81,119
Lipids
"Fatty acids, total saturated",g,--,--,6.997,10.290
"Fatty acids, total trans",g,--,--,0.503,0.740
"Cholesterol",mg,--,--,45,66
Amino Acids
Other
Ingredients
"BEEF, WATER, SEA SALT, NATURAL FLAVORINGS, CELERY POWDER, CHERRY POWDER, PAPRIKA." Date available: 07/14/2017 Date last updated by company: 07/14/2017
