Source: USDA Branded Food Products Database Release December 2017 Software v.3.8.6.4 2017-10-02
Report Run at: December 18, 2017 20:53 EST
"Nutrient data for: 45182958, UNCURED BLACK FOREST HAM, UPC: 04350001101"
Food Group:  Branded Food Products Database
Common Name:

Nutrient,Unit,Data points,Std. Error,"2.0 ONZ = 56.0g",1Value per 100 g,
Proximates
"Energy",kcal,--,--,50,89
"Protein",g,--,--,10.00,17.86
"Total lipid (fat)",g,--,--,1.50,2.68
"Carbohydrate, by difference",g,--,--,1.00,1.79
"Fiber, total dietary",g,--,--,0.0,0.0
"Sugars, total",g,--,--,0.00,0.00
Minerals
"Calcium, Ca",mg,--,--,0,0
"Iron, Fe",mg,--,--,0.35,0.63
"Sodium, Na",mg,--,--,470,839
Vitamins
"Vitamin C, total ascorbic acid",mg,--,--,3.5,6.3
"Vitamin A, IU",IU,--,--,0,0
Lipids
"Fatty acids, total saturated",g,--,--,0.498,0.890
"Fatty acids, total trans",g,--,--,0.000,0.000
"Cholesterol",mg,--,--,20,36
Amino Acids
Other
Ingredients
"PORK, WATER, CONTAINS 2% OR LESS OF: VINEGAR, SEA SALT, EVAPORATED CANE SYRUP, CARRAGEENAN, CHERRY POWDER, TURBINADO SUGAR, NATURAL FLAVORING. COATED WITH CARAMEL COLOR" Date available: 07/14/2017 Date last updated by company: 07/14/2017
