Source: USDA Branded Food Products Database Release December 2017 Software v.3.8.6.4 2017-10-02
Report Run at: December 18, 2017 20:58 EST
"Nutrient data for: 45139599, UNDERWOOD, CORNED BEEF SPREAD, UPC: 047800000304"
Food Group:  Branded Food Products Database
Common Name:

Nutrient,Unit,Data points,Std. Error,"0.25 cup = 60.0g",1Value per 100 g,
Proximates
"Energy",kcal,--,--,140,233
"Protein",g,--,--,10.00,16.67
"Total lipid (fat)",g,--,--,10.00,16.67
"Carbohydrate, by difference",g,--,--,1.00,1.67
"Fiber, total dietary",g,--,--,0.0,0.0
"Sugars, total",g,--,--,0.00,0.00
Minerals
"Calcium, Ca",mg,--,--,20,33
"Iron, Fe",mg,--,--,2.47,4.12
"Sodium, Na",mg,--,--,450,750
Vitamins
"Vitamin C, total ascorbic acid",mg,--,--,0.0,0.0
"Vitamin A, IU",IU,--,--,0,0
Lipids
"Fatty acids, total saturated",g,--,--,4.002,6.670
"Fatty acids, total trans",g,--,--,0.498,0.830
"Cholesterol",mg,--,--,40,67
Amino Acids
Other
Ingredients
"BEEF, WATER, SEASONING BLEND (POTATO FLOUR, MUSTARD, SPICES, GARLIC POWDER, SUGAR), SALT, SODIUM NITRITE." Date available: 07/14/2017 Date last updated by company: 07/14/2017
