Source: USDA Branded Food Products Database Release December 2017 Software v.3.8.6.4 2017-10-02
Report Run at: December 18, 2017 20:59 EST
"Nutrient data for: 45024951, UNFI, ORGANIC ZANTE CURRANTS, UPC: 000000058223"
Food Group:  Branded Food Products Database
Common Name:

Nutrient,Unit,Data points,Std. Error,"0.25 cup = 40.0g",1Value per 100 g,
Proximates
"Energy",kcal,--,--,100,250
"Protein",g,--,--,1.50,3.75
"Carbohydrate, by difference",g,--,--,26.00,65.00
"Fiber, total dietary",g,--,--,2.0,5.0
"Sugars, total",g,--,--,25.00,62.50
Minerals
"Calcium, Ca",mg,--,--,30,75
"Iron, Fe",mg,--,--,1.08,2.70
Vitamins
"Vitamin C, total ascorbic acid",mg,--,--,1.8,4.5
Lipids
Amino Acids
Other
Ingredients
"ORGANIC ZANTE CURRANTS" Date available: 01/12/2017 Date last updated by company: 01/12/2017
