Source: USDA Branded Food Products Database Release December 2017 Software v.3.8.6.4 2017-10-02
Report Run at: December 18, 2017 20:59 EST
"Nutrient data for: 45024985, UNFI, ORGANIC ROLLED RYE FLAKES, UPC: 000000038706"
Food Group:  Branded Food Products Database
Common Name:

Nutrient,Unit,Data points,Std. Error,"0.25 cup = 25.0g",1Value per 100 g,
Proximates
"Energy",kcal,--,--,100,400
"Protein",g,--,--,4.00,16.00
"Total lipid (fat)",g,--,--,0.50,2.00
"Carbohydrate, by difference",g,--,--,21.00,84.00
"Fiber, total dietary",g,--,--,4.0,16.0
Minerals
"Iron, Fe",mg,--,--,0.72,2.88
Vitamins
Lipids
Amino Acids
Other
Ingredients
"ORGANIC ROLLED RYE FLAKES" Date available: 09/23/2016 Date last updated by company: 09/23/2016
