Source: USDA Branded Food Products Database Release December 2017 Software v.3.8.6.4 2017-10-02
Report Run at: December 18, 2017 20:58 EST
"Nutrient data for: 45291847, UNFILTERED ORGANIC APPLE JUICE, UPC: 697068120155"
Food Group:  Branded Food Products Database
Common Name:

Nutrient,Unit,Data points,Std. Error,"12.0 OZA = 355.0g",1Value per 100 g,
Proximates
"Energy",kcal,--,--,160,45
"Protein",g,--,--,1.99,0.56
"Total lipid (fat)",g,--,--,0.00,0.00
"Carbohydrate, by difference",g,--,--,45.01,12.68
"Sugars, total",g,--,--,42.00,11.83
Minerals
"Calcium, Ca",mg,--,--,0,0
"Iron, Fe",mg,--,--,0.35,0.10
"Potassium, K",mg,--,--,451,127
"Sodium, Na",mg,--,--,89,25
Vitamins
"Vitamin C, total ascorbic acid",mg,--,--,2.5,0.7
Lipids
Amino Acids
Other
Ingredients
"ORGANIC UNFILTERED APPLE JUICE." Date available: 07/14/2017 Date last updated by company: 07/14/2017
