Source: USDA Branded Food Products Database Release December 2017 Software v.3.8.6.4 2017-10-02
Report Run at: December 18, 2017 20:59 EST
"Nutrient data for: 45025681, UNFI, ORGANIC SALTED PISTACHIOS, UPC: 000000058001"
Food Group:  Branded Food Products Database
Common Name:

Nutrient,Unit,Data points,Std. Error,"28.0 GRM = 28.0g",1Value per 100 g,
Proximates
"Energy",kcal,--,--,170,607
"Protein",g,--,--,6.00,21.43
"Total lipid (fat)",g,--,--,13.00,46.43
"Carbohydrate, by difference",g,--,--,9.00,32.14
"Fiber, total dietary",g,--,--,3.0,10.7
"Sugars, total",g,--,--,3.00,10.71
Minerals
"Calcium, Ca",mg,--,--,40,143
"Iron, Fe",mg,--,--,1.93,6.88
"Sodium, Na",mg,--,--,160,571
Vitamins
Lipids
"Fatty acids, total saturated",g,--,--,1.501,5.360
Amino Acids
Other
Ingredients
"ORGANIC PISTACHIOS, SEA SALT." Date available: 06/25/2017 Date last updated by company: 06/25/2017
