Source: USDA Branded Food Products Database Release December 2017 Software v.3.8.6.4 2017-10-02
Report Run at: December 18, 2017 21:01 EST
"Nutrient data for: 45157488, UNIVERSAL BAKERY, DATE ROLL, UPC: 084368020139"
Food Group:  Branded Food Products Database
Common Name:

Nutrient,Unit,Data points,Std. Error,"2.0 COOKIES = 38.0g",1Value per 100 g,
Proximates
"Energy",kcal,--,--,160,421
"Protein",g,--,--,2.00,5.26
"Total lipid (fat)",g,--,--,9.00,23.68
"Carbohydrate, by difference",g,--,--,17.00,44.74
"Fiber, total dietary",g,--,--,1.0,2.6
"Sugars, total",g,--,--,5.00,13.16
Minerals
"Calcium, Ca",mg,--,--,60,158
"Iron, Fe",mg,--,--,1.04,2.74
"Sodium, Na",mg,--,--,30,79
Vitamins
"Vitamin C, total ascorbic acid",mg,--,--,0.0,0.0
"Vitamin A, IU",IU,--,--,0,0
Lipids
"Fatty acids, total saturated",g,--,--,1.501,3.950
"Fatty acids, total trans",g,--,--,0.000,0.000
"Cholesterol",mg,--,--,0,0
Amino Acids
Other
Ingredients
"WHEAT FLOUR, MARGARINE UNSALTED, DATE FILLING, WATER, SUGAR, POWDERED SUGAR, LEAVENING AGENTS (YEAST), DOUBLE ACTING BAKING POWDER, VANILLA EXTRACT, ORANGE FLAVOR." Date available: 08/18/2017 Date last updated by company: 08/18/2017
