Source: USDA Branded Food Products Database Release December 2017 Software v.3.8.6.4 2017-10-02
Report Run at: December 18, 2017 21:02 EST
"Nutrient data for: 45157486, UNIVERSAL, CHOCOLATE STICKS, UPC: 084368020047"
Food Group:  Branded Food Products Database
Common Name:

Nutrient,Unit,Data points,Std. Error,"4.0 COOKIES = 31.0g",1Value per 100 g,
Proximates
"Energy",kcal,--,--,50,161
"Protein",g,--,--,0.00,0.00
"Total lipid (fat)",g,--,--,2.50,8.06
"Carbohydrate, by difference",g,--,--,7.00,22.58
"Fiber, total dietary",g,--,--,0.0,0.0
"Sugars, total",g,--,--,4.00,12.90
Minerals
"Calcium, Ca",mg,--,--,0,0
"Iron, Fe",mg,--,--,0.64,2.06
"Sodium, Na",mg,--,--,15,48
Vitamins
"Vitamin C, total ascorbic acid",mg,--,--,0.0,0.0
"Vitamin A, IU",IU,--,--,0,0
Lipids
"Fatty acids, total saturated",g,--,--,0.000,0.000
"Fatty acids, total trans",g,--,--,1.001,3.230
"Cholesterol",mg,--,--,0,0
Amino Acids
Other
Ingredients
"UNBLEACHED WHEAT FLOUR, SHORTENING, SUGAR, WATER, ARTIFICIAL COLOR, EGGS, COCOA POWDER, WHEAT FLOUR, VANILLA EXTRACT, LEMON FLAVOR, IMITATION BUTTE, FLAVOR, SOYBEAN OIL, VINEGAR" Date available: 07/14/2017 Date last updated by company: 07/14/2017
