Source: USDA Branded Food Products Database Release December 2017 Software v.3.8.6.4 2017-10-02
Report Run at: December 18, 2017 21:03 EST
"Nutrient data for: 45154373, UNREAL, CANDY COATED MILK CHOCOLATE, UPC: 855571005073"
Food Group:  Branded Food Products Database
Common Name:

Nutrient,Unit,Data points,Std. Error,"40.0 PIECES | ABOUT = 34.0g",1Value per 100 g,
Proximates
"Energy",kcal,--,--,170,500
"Protein",g,--,--,3.00,8.82
"Total lipid (fat)",g,--,--,7.00,20.59
"Carbohydrate, by difference",g,--,--,19.00,55.88
"Fiber, total dietary",g,--,--,2.0,5.9
"Sugars, total",g,--,--,15.00,44.12
Minerals
"Calcium, Ca",mg,--,--,450,1324
"Iron, Fe",mg,--,--,2.12,6.23
"Sodium, Na",mg,--,--,27,79
Vitamins
"Vitamin C, total ascorbic acid",mg,--,--,0.0,0.0
"Vitamin A, IU",IU,--,--,0,0
Lipids
"Fatty acids, total saturated",g,--,--,3.998,11.760
"Fatty acids, total trans",g,--,--,0.000,0.000
"Cholesterol",mg,--,--,3,9
Amino Acids
Other
Ingredients
"MILK CHOCOLATE (CACAO*, ORGANIC MILK POWDER, CANE SUGAR*, COCOA BUTTER*, ORGANIC BLUE AGAVE INULIN, ORGANIC SUNFLOWER LECITHIN, VANILLA), CANE SUGAR, CALCIUM CARBONATE, COLORED WITH (PURPLE CABBAGE JUICE, BEETROOT JUICE, ANNATTO EXTRACT, TURMERIC EXTRACT), GUM ARABIC, VANILLA EXTRACT, CARNAUBA WAX & BEESWAX." Date available: 07/14/2017 Date last updated by company: 07/14/2017
