Source: USDA Branded Food Products Database Release December 2017 Software v.3.8.6.4 2017-10-02
Report Run at: December 18, 2017 21:05 EST
"Nutrient data for: 45280603, UNSALTED DELUXE MIXED NUTS, UPC: 050428264690"
Food Group:  Branded Food Products Database
Common Name:

Nutrient,Unit,Data points,Std. Error,"0.25 cup = 30.0g",1Value per 100 g,
Proximates
"Energy",kcal,--,--,180,600
"Protein",g,--,--,5.00,16.67
"Total lipid (fat)",g,--,--,17.00,56.67
"Carbohydrate, by difference",g,--,--,7.00,23.33
"Fiber, total dietary",g,--,--,2.0,6.7
"Sugars, total",g,--,--,1.00,3.33
Minerals
"Calcium, Ca",mg,--,--,40,133
"Iron, Fe",mg,--,--,2.40,8.00
"Magnesium, Mg",mg,--,--,133,444
"Phosphorus, P",mg,--,--,250,833
"Sodium, Na",mg,--,--,0,0
"Copper, Cu",mg,--,--,0.500,1.667
Vitamins
"Vitamin C, total ascorbic acid",mg,--,--,0.0,0.0
"Vitamin A, IU",IU,--,--,0,0
Lipids
"Fatty acids, total saturated",g,--,--,2.499,8.330
"Fatty acids, total monounsaturated",g,--,--,9.000,30.000
"Fatty acids, total polyunsaturated",g,--,--,3.999,13.330
"Fatty acids, total trans",g,--,--,0.000,0.000
"Cholesterol",mg,--,--,0,0
Amino Acids
Other
Ingredients
"CASHEWS, ALMONDS, BRAZIL NUTS, PECANS, BLANCHED ALMONDS, PEANUT AND/OR SOYBEAN OIL." Date available: 07/14/2017 Date last updated by company: 07/14/2017
