Source: USDA Branded Food Products Database Release December 2017 Software v.3.8.6.4 2017-10-02
Report Run at: December 18, 2017 21:12 EST
"Nutrient data for: 45287605, UNSWEETENED APPLE SAUCE, UPC: 075450174281"
Food Group:  Branded Food Products Database
Common Name:

Nutrient,Unit,Data points,Std. Error,"0.666 cup = 140.0g",1Value per 100 g,
Proximates
"Energy",kcal,--,--,60,43
"Protein",g,--,--,0.00,0.00
"Total lipid (fat)",g,--,--,0.00,0.00
"Carbohydrate, by difference",g,--,--,14.99,10.71
"Fiber, total dietary",g,--,--,2.0,1.4
"Sugars, total",g,--,--,12.00,8.57
Minerals
"Calcium, Ca",mg,--,--,0,0
"Iron, Fe",mg,--,--,0.00,0.00
"Potassium, K",mg,--,--,115,82
"Sodium, Na",mg,--,--,0,0
Vitamins
"Vitamin C, total ascorbic acid",mg,--,--,12.0,8.6
"Vitamin A, IU",IU,--,--,0,0
Lipids
"Fatty acids, total saturated",g,--,--,0.000,0.000
"Fatty acids, total trans",g,--,--,0.000,0.000
"Cholesterol",mg,--,--,0,0
Amino Acids
Other
Ingredients
"APPLES, WATER, ASCORBIC ACID." Date available: 07/14/2017 Date last updated by company: 07/14/2017
