Source: USDA Branded Food Products Database Release December 2017 Software v.3.8.6.4 2017-10-02
Report Run at: December 18, 2017 21:16 EST
"Nutrient data for: 45275300, UNSWEETENED TEA, UPC: 861626000061"
Food Group:  Branded Food Products Database
Common Name:

Nutrient,Unit,Data points,Std. Error,"8.0 OZA = 8.0g",1Value per 100 g,
Proximates
"Energy",kcal,--,--,0,0
"Total lipid (fat)",g,--,--,0.00,0.00
"Carbohydrate, by difference",g,--,--,0.00,0.00
"Sugars, total",g,--,--,0.00,0.00
Minerals
Vitamins
Lipids
"Fatty acids, total saturated",g,--,--,0.000,0.000
"Fatty acids, total trans",g,--,--,0.000,0.000
Amino Acids
Other
Ingredients
"A TASTEFULLY GATHERED BLEND OF PURIFIED WATER, BREWED HIBISCUS HERBAL TEA, NATURAL FLAVORS AND FRUIT JUICE CONCENTRATE." Date available: 10/13/2017 Date last updated by company: 10/13/2017
