Source: USDA Branded Food Products Database Release December 2017 Software v.3.8.6.4 2017-10-02
Report Run at: December 18, 2017 21:10 EST
"Nutrient data for: 45136688, UNSWEETENED ALMONDMILK, UPC: 025293002494"
Food Group:  Branded Food Products Database
Common Name:

Nutrient,Unit,Data points,Std. Error,"1 cup = 240.0g",1Value per 100 g,
Proximates
"Energy",kcal,--,--,29,12
"Protein",g,--,--,1.01,0.42
"Total lipid (fat)",g,--,--,2.50,1.04
"Carbohydrate, by difference",g,--,--,1.01,0.42
"Fiber, total dietary",g,--,--,1.0,0.4
"Sugars, total",g,--,--,0.00,0.00
Minerals
"Calcium, Ca",mg,--,--,451,188
"Iron, Fe",mg,--,--,0.36,0.15
"Magnesium, Mg",mg,--,--,17,7
"Potassium, K",mg,--,--,36,15
"Sodium, Na",mg,--,--,161,67
Vitamins
"Vitamin C, total ascorbic acid",mg,--,--,0.0,0.0
"Riboflavin",mg,--,--,0.067,0.028
"Vitamin A, IU",IU,--,--,499,208
"Vitamin D",IU,--,--,101,42
Lipids
"Fatty acids, total saturated",g,--,--,0.000,0.000
"Fatty acids, total monounsaturated",g,--,--,1.488,0.620
"Fatty acids, total polyunsaturated",g,--,--,0.504,0.210
"Fatty acids, total trans",g,--,--,0.000,0.000
"Cholesterol",mg,--,--,0,0
Amino Acids
Other
Ingredients
"ALMONDMILK (FILTERED WATER, ALMONDS), SEA SALT, NATURAL FLAVOR, LOCUST BEAN GUM, SUNFLOWER LECITHIN, GELLAN GUM. VITAMINS & MINERALS: CALCIUM CARBONATE, VITAMIN E ACETATE, VITAMIN A PALMITATE, VITAMIN D2." Date available: 10/19/2017 Date last updated by company: 10/19/2017
