Source: USDA Branded Food Products Database Release December 2017 Software v.3.8.6.4 2017-10-02
Report Run at: December 18, 2017 21:15 EST
"Nutrient data for: 45311560, UNSWEETENED REAL BREWED TEA, UPC: 048500201404"
Food Group:  Branded Food Products Database
Common Name:

Nutrient,Unit,Data points,Std. Error,"12.0 OZA = 355.0g",1Value per 100 g,
Proximates
"Energy",kcal,--,--,0,0
"Protein",g,--,--,0.00,0.00
"Total lipid (fat)",g,--,--,0.00,0.00
"Carbohydrate, by difference",g,--,--,0.00,0.00
"Sugars, total",g,--,--,0.00,0.00
Minerals
"Sodium, Na",mg,--,--,11,3
Vitamins
Lipids
Amino Acids
Other
Ingredients
"BREWED TEA, CITRIC ACID, NATURAL FLAVOR." Date available: 08/14/2017 Date last updated by company: 08/14/2017
