Source: USDA Branded Food Products Database Release December 2017 Software v.3.8.6.4 2017-10-02
Report Run at: December 18, 2017 21:16 EST
"Nutrient data for: 45323806, UNSWEETENED SPARKLING WATER, UPC: 856579002446"
Food Group:  Branded Food Products Database
Common Name:

Nutrient,Unit,Data points,Std. Error,"1 CAN = 355.0g",1Value per 100 g,
Proximates
"Energy",kcal,--,--,11,3
"Protein",g,--,--,0.00,0.00
"Total lipid (fat)",g,--,--,0.00,0.00
"Carbohydrate, by difference",g,--,--,1.99,0.56
"Sugars, total",g,--,--,0.99,0.28
Minerals
"Sodium, Na",mg,--,--,0,0
Vitamins
Lipids
Amino Acids
Other
Ingredients
"SPARKLING WATER, STRAWBERRY PUREE, FRESH LIME JUICE." Date available: 07/14/2017 Date last updated by company: 07/14/2017
