Source: USDA Branded Food Products Database Release December 2017 Software v.3.8.6.4 2017-10-02
Report Run at: December 18, 2017 21:11 EST
"Nutrient data for: 45195886, UNSWEETENED APPLESAUCE, UPC: 041268109340"
Food Group:  Branded Food Products Database
Common Name:

Nutrient,Unit,Data points,Std. Error,"1 UNIT = 113.0g",1Value per 100 g,
Proximates
"Energy",kcal,--,--,50,44
"Protein",g,--,--,0.00,0.00
"Total lipid (fat)",g,--,--,0.00,0.00
"Carbohydrate, by difference",g,--,--,12.00,10.62
"Fiber, total dietary",g,--,--,2.0,1.8
"Sugars, total",g,--,--,10.00,8.85
Minerals
"Calcium, Ca",mg,--,--,0,0
"Iron, Fe",mg,--,--,0.00,0.00
"Potassium, K",mg,--,--,70,62
"Sodium, Na",mg,--,--,14,12
Vitamins
"Vitamin C, total ascorbic acid",mg,--,--,37.2,32.9
"Vitamin A, IU",IU,--,--,0,0
Lipids
"Fatty acids, total saturated",g,--,--,0.000,0.000
"Fatty acids, total trans",g,--,--,0.000,0.000
"Cholesterol",mg,--,--,0,0
Amino Acids
Other
Ingredients
"APPLES, WATER, ASCORBIC ACID (VITAMIN C), ERYTHORBIC ACID (TO MAINTAIN COLOR)." Date available: 07/14/2017 Date last updated by company: 07/14/2017
