Source: USDA Branded Food Products Database Release December 2017 Software v.3.8.6.4 2017-10-02
Report Run at: December 18, 2017 21:19 EST
"Nutrient data for: 45169420, UPTON'S NATURALS, JACKFRUIT, BAR-B-QUE, UPC: 851070006016"
Food Group:  Branded Food Products Database
Common Name:

Nutrient,Unit,Data points,Std. Error,"2.65 ONZ = 75.0g",1Value per 100 g,
Proximates
"Energy",kcal,--,--,45,60
"Protein",g,--,--,1.00,1.33
"Total lipid (fat)",g,--,--,0.00,0.00
"Carbohydrate, by difference",g,--,--,10.00,13.33
"Fiber, total dietary",g,--,--,4.0,5.3
"Sugars, total",g,--,--,4.00,5.33
Minerals
"Calcium, Ca",mg,--,--,40,53
"Iron, Fe",mg,--,--,0.36,0.48
"Potassium, K",mg,--,--,195,260
"Sodium, Na",mg,--,--,250,333
Vitamins
"Vitamin C, total ascorbic acid",mg,--,--,0.0,0.0
"Vitamin A, IU",IU,--,--,200,267
Lipids
"Fatty acids, total saturated",g,--,--,0.000,0.000
"Fatty acids, total trans",g,--,--,0.000,0.000
"Cholesterol",mg,--,--,0,0
Amino Acids
Other
Ingredients
"JACKFRUIT, TOMATO PASTE, VINEGAR, MOLASSES, FILTERED WATER, ONION, EVAPORATED CANE JUICE, SEA SALT, GARLIC, BLACK PEPPER, CHILI POWDER, PAPRIKA, LIQUID SMOKE." Date available: 09/23/2016 Date last updated by company: 09/23/2016
