Source: USDA Branded Food Products Database Release December 2017 Software v.3.8.6.4 2017-10-02
Report Run at: December 18, 2017 21:20 EST
"Nutrient data for: 45095016, URBAN ACCENTS, BRAZILIAN STYLE CHURRASCO SEASONING BLEND, UPC: 635519181447"
Food Group:  Branded Food Products Database
Common Name:

Nutrient,Unit,Data points,Std. Error,"0.25 tsp = 0.9g",1Value per 100 g,
Proximates
"Energy",kcal,--,--,0,0
"Protein",g,--,--,0.00,0.00
"Total lipid (fat)",g,--,--,0.00,0.00
"Carbohydrate, by difference",g,--,--,0.00,0.00
Minerals
"Sodium, Na",mg,--,--,160,17778
Vitamins
"Vitamin A, IU",IU,--,--,5556,617278
Lipids
Amino Acids
Other
Ingredients
"SALT, GRANULATED GARLIC, GROUND BLACK PEPPERCORNS, GROUND OREGANO. GARLIC POWDER, GROUND TURMERIC, GROUND CUMIN, AJI AMARILLO CHILES." Date available: 06/25/2017 Date last updated by company: 06/25/2017
