Source: USDA Branded Food Products Database Release December 2017 Software v.3.8.6.4 2017-10-02
Report Run at: December 18, 2017 21:21 EST
"Nutrient data for: 45307049, US, ULTRA SLIM HERBAL TEA, UPC: 023991681065"
Food Group:  Branded Food Products Database
Common Name:

Nutrient,Unit,Data points,Std. Error,"1 TEA BAG = 8.0g",1Value per 100 g,
Proximates
Minerals
Vitamins
Lipids
Amino Acids
Other
Ingredients
"SENNA LEAF, DANDETLON ROOT, HERB, HERBE, LOQUAT LEAF, PERSIMMON LEAF." Date available: 06/25/2017 Date last updated by company: 06/25/2017
