Source: USDA Branded Food Products Database Release December 2017 Software v.3.8.6.4 2017-10-02
Report Run at: December 18, 2017 21:50 EST
"Nutrient data for: 45135243, V8 BEVERAGE LOW SODIUM VEGETABLE, UNPREPARED, GTIN: 00051000211118"
Food Group:  Branded Food Products Database
Common Name:

Nutrient,Unit,Data points,Std. Error,"1 can = 5.5g",1Value per 100 g,
Proximates
"Protein",g,--,--,0.03,0.61
"Total lipid (fat)",g,--,--,0.00,0.00
"Carbohydrate, by difference",g,--,--,0.23,4.24
"Fiber, total dietary",g,--,--,0.0,0.6
"Sugars, total",g,--,--,0.17,3.03
Minerals
"Calcium, Ca",mg,--,--,1,12
"Iron, Fe",mg,--,--,0.03,0.61
"Sodium, Na",mg,--,--,3,58
Vitamins
"Vitamin C, total ascorbic acid",mg,--,--,1.6,29.1
"Vitamin A, IU",IU,--,--,42,758
Lipids
"Fatty acids, total saturated",g,--,--,0.000,0.000
"Fatty acids, total trans",g,--,--,0.000,0.000
"Cholesterol",mg,--,--,0,0
Amino Acids
Other
Ingredients
"RECONSTITUTED VEGETABLE JUICE BLEND (WATER AND CONCENTRATED JUICES OF TOMATOES, CARROTS, CELERY, BEETS, PARSLEY, LETTUCE, WATERCRESS, SPINACH), CONTAINS LESS THAN 2% OF: POTASSIUM CHLORIDE, MAGNESIUM, SALT, NATURAL FLAVORING, VITAMIN C (ASCORBIC ACID), CITRIC ACID." Date available: 10/05/2017 Date last updated by company: 06/28/2017
