Source: USDA Branded Food Products Database Release December 2017 Software v.3.8.6.4 2017-10-02
Report Run at: December 18, 2017 21:51 EST
"Nutrient data for: 45135269, V8 BEVERAGE VEGETABLE, UNPREPARED, GTIN: 00051000217387"
Food Group:  Branded Food Products Database
Common Name:

Nutrient,Unit,Data points,Std. Error,"8.0 FL. OZ (240 mL) = 8.0g",1Value per 100 g,
Proximates
"Protein",g,--,--,0.03,0.42
"Total lipid (fat)",g,--,--,0.00,0.00
"Carbohydrate, by difference",g,--,--,0.47,5.83
"Fiber, total dietary",g,--,--,0.0,0.0
"Sugars, total",g,--,--,0.37,4.58
Minerals
"Calcium, Ca",mg,--,--,1,12
"Iron, Fe",mg,--,--,0.03,0.33
"Potassium, K",mg,--,--,11,138
"Sodium, Na",mg,--,--,7,83
Vitamins
"Vitamin C, total ascorbic acid",mg,--,--,0.7,8.3
"Vitamin A, IU",IU,--,--,50,625
"Vitamin D",IU,--,--,0,0
Lipids
"Fatty acids, total saturated",g,--,--,0.000,0.000
"Fatty acids, total trans",g,--,--,0.000,0.000
"Cholesterol",mg,--,--,0,0
Amino Acids
Other
Ingredients
"FILTERED WATER, CONCENTRATED VEGETABLE JUICE BLEND (YELLOW CARROTS, SPINACH), CONCENTRATED FRUIT JUICE BLEND (APPLES, PINEAPPLES), DEHYDRATED SPINACH, CITRIC ACID, NATURAL FLAVORING, BETA CAROTENE, CUCUMBER JUICE CONCENTRATE , CELERY JUICE CONCENTRATE , KALE JUICE, ROMAINE LETTUCE JUICE, GREEN PEPPER JUICE, VITAMIN C (ASCORBIC ACID), SPINACH PUREE (SPINACH, WATER), HUITO JUICE CONCENTRATE FOR COLOR, WATERMELON JUICE CONCENTRATE FOR COLOR." Date available: 10/16/2017 Date last updated by company: 10/13/2017
