Source: USDA Branded Food Products Database Release December 2017 Software v.3.8.6.4 2017-10-02
Report Run at: December 18, 2017 23:00 EST
"Nutrient data for: 45135391, V8 SPLASH BEVERAGE BERRY, UNPREPARED, GTIN: 00051000127112"
Food Group:  Branded Food Products Database
Common Name:

Nutrient,Unit,Data points,Std. Error,"8.0 FL. OZ. ( 240mL) = 8.0g",1Value per 100 g,
Proximates
"Protein",g,--,--,0.00,0.00
"Total lipid (fat)",g,--,--,0.00,0.00
"Carbohydrate, by difference",g,--,--,0.60,7.50
"Fiber, total dietary",g,--,--,0.0,0.0
"Sugars, total",g,--,--,0.53,6.67
Minerals
"Calcium, Ca",mg,--,--,0,0
"Iron, Fe",mg,--,--,0.00,0.00
"Potassium, K",mg,--,--,1,8
"Sodium, Na",mg,--,--,0,6
Vitamins
"Vitamin C, total ascorbic acid",mg,--,--,2.0,25.0
"Vitamin A, IU",IU,--,--,33,417
Lipids
"Fatty acids, total saturated",g,--,--,0.000,0.000
"Fatty acids, total trans",g,--,--,0.000,0.000
"Cholesterol",mg,--,--,0,0
Amino Acids
Other
Ingredients
"WATER, HIGH FRUCTOSE CORN SYRUP, RECONSTITUTED VEGETABLE JUICE (WATER AND CONCENTRATED JUICE OF (CARROTS), CONTAINS LESS THAN 2% OF: RECONSTITUTED FRUIT JUICE BLEND (WATER AND CONCENTRATED JUICES OF (APPLES, CHERRIES, STRAWBERRIES, RED RASPBERRIES, BLACKBERRIES), NATURAL FLAVORING, CITRIC ACID, MALIC ACID, VITAMIN C (ASCORBIC ACID), RED 40, SUCRALOSE." Date available: 10/05/2017 Date last updated by company: 08/21/2017
