Source: USDA Branded Food Products Database Release December 2017 Software v.3.8.6.4 2017-10-02
Report Run at: December 18, 2017 23:00 EST
"Nutrient data for: 45135278, V8 SPLASH BEVERAGE STRAWBERRY, UNPREPARED, GTIN: 00051000216977"
Food Group:  Branded Food Products Database
Common Name:

Nutrient,Unit,Data points,Std. Error,"8.0 FL. OZ. (240 mL) = 8.0g",1Value per 100 g,
Proximates
"Protein",g,--,--,0.00,0.00
"Total lipid (fat)",g,--,--,0.00,0.00
"Carbohydrate, by difference",g,--,--,0.67,8.33
"Fiber, total dietary",g,--,--,0.0,0.0
"Sugars, total",g,--,--,0.60,7.50
Minerals
"Calcium, Ca",mg,--,--,0,0
"Iron, Fe",mg,--,--,0.00,0.00
"Sodium, Na",mg,--,--,0,6
Vitamins
"Vitamin C, total ascorbic acid",mg,--,--,0.4,5.0
"Vitamin A, IU",IU,--,--,17,208
Lipids
"Fatty acids, total saturated",g,--,--,0.000,0.000
"Fatty acids, total trans",g,--,--,0.000,0.000
"Cholesterol",mg,--,--,0,0
Amino Acids
Other
Ingredients
"WATER, HIGH FRUCTOSE CORN SYRUP, RECONSTITUTED VEGETABLE JUICE (WATER AND CONCENTRATED JUICE OF CARROTS), CONTAINS LESS THAN 2% OF: RECONSTITUTED FRUIT JUICE BLEND (WATER AND CONCENTRATED JUICES OF APPLES, STRAWBERRIES, PINEAPPLES, KIWI, LIMES), CITRIC ACID, NATURAL FLAVORING, RED 40, VITAMIN C (ASCORBIC ACID), SUCRALOSE, MANGO PUREE." Date available: 10/05/2017 Date last updated by company: 08/31/2017
