Source: USDA Branded Food Products Database Release December 2017 Software v.3.8.6.4 2017-10-02
Report Run at: December 18, 2017 23:00 EST
"Nutrient data for: 45135340, V8 SPLASH BEVERAGE BERRY, UNPREPARED, GTIN: 00051000232984"
Food Group:  Branded Food Products Database
Common Name:

Nutrient,Unit,Data points,Std. Error,"5.5 FO (163 mL) = 5.5g",1Value per 100 g,
Proximates
"Protein",g,--,--,0.00,0.00
"Total lipid (fat)",g,--,--,0.00,0.00
"Carbohydrate, by difference",g,--,--,0.43,7.88
"Fiber, total dietary",g,--,--,0.0,0.0
"Sugars, total",g,--,--,0.40,7.27
Minerals
"Calcium, Ca",mg,--,--,0,0
"Iron, Fe",mg,--,--,0.00,0.00
"Potassium, K",mg,--,--,0,9
"Sodium, Na",mg,--,--,0,6
Vitamins
"Vitamin C, total ascorbic acid",mg,--,--,1.2,21.8
"Vitamin A, IU",IU,--,--,25,455
Lipids
"Fatty acids, total saturated",g,--,--,0.000,0.000
"Fatty acids, total trans",g,--,--,0.000,0.000
"Cholesterol",mg,--,--,0,0
Amino Acids
Other
Ingredients
"WATER, HIGH FRUCTOSE CORN SYRUP, CARROT JUICE CONCENTRATE, NATURAL FLAVORING, CITRIC ACID, MALIC ACID, VITAMIN C (ASCORBIC ACID), SUCRALOSE." Date available: 10/06/2017 Date last updated by company: 10/05/2017
