Source: USDA Branded Food Products Database Release December 2017 Software v.3.8.6.4 2017-10-02
Report Run at: December 18, 2017 21:27 EST
"Nutrient data for: 45213761, VALENTINE'S DAY CINNAMON JU JU HEARTS, UPC: 034952581935"
Food Group:  Branded Food Products Database
Common Name:

Nutrient,Unit,Data points,Std. Error,"4.0 PIECES = 39.0g",1Value per 100 g,
Proximates
"Energy",kcal,--,--,130,333
"Protein",g,--,--,0.00,0.00
"Total lipid (fat)",g,--,--,0.00,0.00
"Carbohydrate, by difference",g,--,--,32.00,82.05
"Fiber, total dietary",g,--,--,0.0,0.0
"Sugars, total",g,--,--,19.00,48.72
Minerals
"Calcium, Ca",mg,--,--,0,0
"Iron, Fe",mg,--,--,0.00,0.00
"Sodium, Na",mg,--,--,5,13
Vitamins
"Vitamin C, total ascorbic acid",mg,--,--,0.0,0.0
"Vitamin A, IU",IU,--,--,0,0
Lipids
"Fatty acids, total saturated",g,--,--,0.000,0.000
"Fatty acids, total trans",g,--,--,0.000,0.000
"Cholesterol",mg,--,--,0,0
Amino Acids
Other
Ingredients
"CORN SYRUP, SUGAR, MODIFIED FOOD STARCH, NATURAL AND ARTIFICIAL FLAVORS, MINERAL OIL, CARNAUBA WAX, ARTIFICIAL COLORS (INCLUDING FD&C: RED 40, YELLOW 6 LAKE, RED 40 LAKE, YELLOW 5, YELLOW 6, BLUE 1 LAKE, BLUE 1 AND YELLOW 5 LAKE)." Date available: 07/14/2017 Date last updated by company: 07/14/2017
