Source: USDA Branded Food Products Database Release December 2017 Software v.3.8.6.4 2017-10-02
Report Run at: December 18, 2017 21:27 EST
"Nutrient data for: 45227929, VALENTINE'S COOKIE MIX, UPC: 850709005499"
Food Group:  Branded Food Products Database
Common Name:

Nutrient,Unit,Data points,Std. Error,"1 COOKIE | MIX FOR = 29.0g",1Value per 100 g,
Proximates
"Energy",kcal,--,--,120,414
"Protein",g,--,--,1.00,3.45
"Total lipid (fat)",g,--,--,2.00,6.90
"Carbohydrate, by difference",g,--,--,24.00,82.76
"Fiber, total dietary",g,--,--,1.0,3.4
"Sugars, total",g,--,--,14.00,48.28
Minerals
"Calcium, Ca",mg,--,--,0,0
"Iron, Fe",mg,--,--,0.99,3.43
"Sodium, Na",mg,--,--,55,190
Vitamins
"Vitamin C, total ascorbic acid",mg,--,--,0.0,0.0
"Vitamin A, IU",IU,--,--,0,0
Lipids
"Fatty acids, total saturated",g,--,--,1.001,3.450
"Fatty acids, total trans",g,--,--,0.000,0.000
"Cholesterol",mg,--,--,0,0
Amino Acids
Other
Ingredients
"TRADITIONAL BASE: ENRICHED FLOUR (WHEAT FLOUR, MALTED BARLEY FLOUR, NIACIN, IRON, THIAMIN MONONITRATE, RIBOFLAVIN, FOLIC ACID), PURE CANE SUGAR, BROWN SUGAR (SUGAR, MOLASSES), BAKING SODA (SODIUM BICARBONATE), SALT; SEMISWEET CHOCOLATE: SUGAR, CHOCOLATE LIQUOR, COCOA BUTTER, SOY LECITHIN (AN EMULSIFIER); HEART SPRINKLES: SUGAR, RICE FLOUR, PARTIALLY HYDROGENATED VEGETABLE OIL (COTTONSEED AND/OR SOYBEAN), CORN STARCH, GUM ARABIC, CELLULOSE GUM, CONFECTIONER'S GLAZE, CARRAGEENAN, SOY LECITHIN, TITANIUM DIOXIDE (COLOR), RED 40, YELLOW 6, RED 3, ARTIFICIAL FLAVOR." Date available: 07/14/2017 Date last updated by company: 07/14/2017
