Source: USDA Branded Food Products Database Release December 2017 Software v.3.8.6.4 2017-10-02
Report Run at: December 18, 2017 21:28 EST
"Nutrient data for: 45261213, VALENTINE YOGURT PRETZELS WITH RED SPRINKLES, UPC: 036232051565"
Food Group:  Branded Food Products Database
Common Name:

Nutrient,Unit,Data points,Std. Error,"1 ONZ = 28.0g",1Value per 100 g,
Proximates
"Energy",kcal,--,--,140,500
"Protein",g,--,--,1.00,3.57
"Total lipid (fat)",g,--,--,5.00,17.86
"Carbohydrate, by difference",g,--,--,21.00,75.00
"Fiber, total dietary",g,--,--,0.9,3.2
"Sugars, total",g,--,--,13.00,46.43
Minerals
"Calcium, Ca",mg,--,--,20,71
"Iron, Fe",mg,--,--,0.00,0.00
"Sodium, Na",mg,--,--,190,679
Vitamins
"Vitamin C, total ascorbic acid",mg,--,--,0.0,0.0
"Vitamin A, IU",IU,--,--,0,0
Lipids
"Fatty acids, total saturated",g,--,--,4.001,14.290
"Fatty acids, total trans",g,--,--,0.000,0.000
"Cholesterol",mg,--,--,1,4
Amino Acids
Other
Ingredients
"YOGURT COATING (SUGAR, PALM KERNEL OIL, REDUCED MINERAL WHEY POWDER, WHOLE MILK SOLIDS, YOGURT POWDER, SOY LECITHIN (AN EMULSIFIER), ARTIFICIAL COLOR (TITANIUM DIOXIDE), SALT, LACTIC ACID, AND NATURAL FLAVOR), PRETZELS (UNBLEACHED ENRICHED WHEAT FLOUR (FLOUR, NIACIN, REDUCED IRON, THIAMINE MONONITRATE-B1, RIBOFLAVIN-B2, FOLIC ACID), MALT, SALT, SOYBEAN OIL, AND YEAST), SUGAR CRYSTALS (SUGAR, CONFECTIONER'S GLAZE, RED 3, RED 40, YELLOW 6, BLUE 2, AND CARNAUBA WAX." Date available: 10/13/2017 Date last updated by company: 10/13/2017
