Source: USDA Branded Food Products Database Release December 2017 Software v.3.8.6.4 2017-10-02
Report Run at: December 18, 2017 21:27 EST
"Nutrient data for: 45268533, VALENTINE MILK CHOCOLATE, UPC: 768395508395"
Food Group:  Branded Food Products Database
Common Name:

Nutrient,Unit,Data points,Std. Error,"3.0 CHOCOLATE ROSES = 60.0g",1Value per 100 g,
Proximates
"Energy",kcal,--,--,310,517
"Protein",g,--,--,3.00,5.00
"Total lipid (fat)",g,--,--,17.00,28.33
"Carbohydrate, by difference",g,--,--,37.00,61.67
"Fiber, total dietary",g,--,--,1.0,1.7
"Sugars, total",g,--,--,36.00,60.00
Minerals
"Calcium, Ca",mg,--,--,80,133
"Iron, Fe",mg,--,--,0.90,1.50
"Sodium, Na",mg,--,--,35,58
Vitamins
"Vitamin C, total ascorbic acid",mg,--,--,0.0,0.0
"Vitamin A, IU",IU,--,--,0,0
Lipids
"Fatty acids, total saturated",g,--,--,10.002,16.670
"Fatty acids, total trans",g,--,--,0.000,0.000
"Cholesterol",mg,--,--,10,17
Amino Acids
Other
Ingredients
"SUGAR, COCOA BUTTER, DRY WHOLE MILK, CHOCOLATE LIQUOR, SOY LECITHIN AND PGPR (EMULSIFIERS), NATURAL VANILLA FLAVOR." Date available: 07/14/2017 Date last updated by company: 07/14/2017
