Source: USDA Branded Food Products Database Release December 2017 Software v.3.8.6.4 2017-10-02
Report Run at: December 18, 2017 21:29 EST
"Nutrient data for: 45147798, VALLEY POPCORN, YELLOW POPCORN TENDER MEDIUM KERNELS, UPC: 856256002684"
Food Group:  Branded Food Products Database
Common Name:

Nutrient,Unit,Data points,Std. Error,"1 cup = 8.0g",1Value per 100 g,
Proximates
"Energy",kcal,--,--,35,438
"Protein",g,--,--,1.00,12.50
"Total lipid (fat)",g,--,--,2.00,25.00
"Carbohydrate, by difference",g,--,--,4.00,50.00
"Fiber, total dietary",g,--,--,1.0,12.5
"Sugars, total",g,--,--,1.00,12.50
Minerals
"Calcium, Ca",mg,--,--,0,0
"Iron, Fe",mg,--,--,0.00,0.00
"Sodium, Na",mg,--,--,55,688
Vitamins
"Vitamin C, total ascorbic acid",mg,--,--,0.0,0.0
"Vitamin A, IU",IU,--,--,3125,39062
Lipids
"Fatty acids, total saturated",g,--,--,1.500,18.750
"Fatty acids, total trans",g,--,--,0.000,0.000
"Cholesterol",mg,--,--,0,0
Amino Acids
Other
Ingredients
"GOURMET YELLOW POPCORN, COCONUT OIL, BETA CAROTENE (FOR COLOR), SALT, ARTIFICIAL BUTTER FLAVOR AND ANNATTO." Date available: 07/14/2017 Date last updated by company: 07/14/2017
