Source: USDA Branded Food Products Database Release December 2017 Software v.3.8.6.4 2017-10-02
Report Run at: December 18, 2017 21:33 EST
"Nutrient data for: 45221958, VALUE SNACKS, ALMOND FRUIT DELIGHT, UPC: 835144004788"
Food Group:  Branded Food Products Database
Common Name:

Nutrient,Unit,Data points,Std. Error,"1 ONZ = 28.0g",1Value per 100 g,
Proximates
"Energy",kcal,--,--,140,500
"Protein",g,--,--,3.00,10.71
"Total lipid (fat)",g,--,--,6.00,21.43
"Carbohydrate, by difference",g,--,--,17.00,60.71
"Fiber, total dietary",g,--,--,1.0,3.6
"Sugars, total",g,--,--,10.00,35.71
Minerals
"Calcium, Ca",mg,--,--,20,71
"Iron, Fe",mg,--,--,1.29,4.59
"Sodium, Na",mg,--,--,65,232
Vitamins
"Vitamin C, total ascorbic acid",mg,--,--,0.0,0.0
"Vitamin A, IU",IU,--,--,0,0
Lipids
"Fatty acids, total saturated",g,--,--,1.999,7.140
"Fatty acids, total trans",g,--,--,0.000,0.000
"Cholesterol",mg,--,--,5,18
Amino Acids
Other
Ingredients
"COCOA BUTTONS(SUGAR, PARTIALLY HYDROGENATED PALM KERNEL OIL, COCOA, COCOA PROCESSED WITH ALKALI, CALCIUM SULFATE, CORN SYRUP, DEXTRIN, BEESWAX, CARNAUBA WAX, SOY LECITHIN-AN EMULSIFIER, ARTIFICIAL FLAVOR, ARTIFICIAL COLORS (INCLUDES YELLOW#5, YELLOW#5 LAKE, YELLOW#6, YELLOW#6 LAKE, BLUE#1, BLUE#1 LAKE, BLUE#2 LAKE, RED#40 LAKE)), RAISINS, PEANUTS (PEANUTS, PEANUT OIL, SALT), PINEAPPLE (SUGAR, SULFUR DIOXIDE), ROASTED ALMONDS (ALMONDS, PARTIALLY HYDROGENATED SOYBEAN OIL, SALT)." Date available: 07/14/2017 Date last updated by company: 07/14/2017
