Source: USDA Branded Food Products Database Release December 2017 Software v.3.8.6.4 2017-10-02
Report Run at: December 18, 2017 21:37 EST
"Nutrient data for: 45162663, VALU TIME, SANDWICH CREME COOKIES, CHOCOLATE, UPC: 011225094859"
Food Group:  Branded Food Products Database
Common Name:

Nutrient,Unit,Data points,Std. Error,"2.0 COOKIES = 26.0g",1Value per 100 g,
Proximates
"Energy",kcal,--,--,120,462
"Protein",g,--,--,1.00,3.85
"Total lipid (fat)",g,--,--,4.50,17.31
"Carbohydrate, by difference",g,--,--,19.00,73.08
"Fiber, total dietary",g,--,--,1.0,3.8
"Sugars, total",g,--,--,9.00,34.62
Minerals
"Calcium, Ca",mg,--,--,0,0
"Iron, Fe",mg,--,--,1.38,5.32
"Sodium, Na",mg,--,--,125,481
Vitamins
"Vitamin C, total ascorbic acid",mg,--,--,0.0,0.0
"Vitamin A, IU",IU,--,--,0,0
Lipids
"Fatty acids, total saturated",g,--,--,1.999,7.690
"Fatty acids, total monounsaturated",g,--,--,1.999,7.690
"Fatty acids, total polyunsaturated",g,--,--,0.499,1.920
"Fatty acids, total trans",g,--,--,0.000,0.000
"Cholesterol",mg,--,--,0,0
Amino Acids
Other
Ingredients
"ENRICHED FLOUR (BLEACHED WHEAT FLOUR, NIACIN, IRON, THIAMINE MONONITRATE, RIBOFLAVIN, FOLIC ACID), SUGAR, CANOLA AND/OR SOYBEAN AND/OR PALM OIL WITH TBHQ ADDED TO PRESERVE FRESHNESS, HIGH FRUCTOSE CORN SYRUP, DEXTROSE, COCOA (PROCESSED WITH ALKALI), CONTAINS 2% OR LESS OF: CORNSTARCH, COCOA, SALT, SOY LECITHIN, BAKING SODA AND/OR CALCIUM PHOSPHATE (LEAVENING), NATURAL AND ARTIFICIAL FLAVORS, MALTODEXTRIN, GUM ACACIA." Date available: 07/14/2017 Date last updated by company: 07/14/2017
