Source: USDA Branded Food Products Database Release December 2017 Software v.3.8.6.4 2017-10-02
Report Run at: December 18, 2017 21:36 EST
"Nutrient data for: 45171771, VALU TIME, LOWFAT COTTAGE CHEESE, UPC: 011225030178"
Food Group:  Branded Food Products Database
Common Name:

Nutrient,Unit,Data points,Std. Error,"0.5 cup = 115.0g",1Value per 100 g,
Proximates
"Energy",kcal,--,--,90,78
"Protein",g,--,--,14.00,12.17
"Total lipid (fat)",g,--,--,1.50,1.30
"Carbohydrate, by difference",g,--,--,6.00,5.22
"Fiber, total dietary",g,--,--,0.0,0.0
"Sugars, total",g,--,--,4.00,3.48
Minerals
"Calcium, Ca",mg,--,--,80,70
"Iron, Fe",mg,--,--,0.00,0.00
"Sodium, Na",mg,--,--,480,417
Vitamins
"Vitamin C, total ascorbic acid",mg,--,--,0.0,0.0
"Vitamin A, IU",IU,--,--,288,250
Lipids
"Fatty acids, total saturated",g,--,--,1.000,0.870
"Fatty acids, total trans",g,--,--,0.000,0.000
"Cholesterol",mg,--,--,15,13
Amino Acids
Other
Ingredients
"CULTURED PASTEURIZED SKIM MILK, WHEY PROTEIN CONCENTRATE, WHEY, CREAM, SALT, MODIFIED CORN STARCH, COLOR ADDED, GUAR GUM, CARRAGEENAN, LOCUST BEAN GUM, POTASSIUM SORBATE AND CARBON DIOXIDE (TO PRESERVE FRESHNESS), VITAMIN A PALMITATE, AND ENZYME." Date available: 07/14/2017 Date last updated by company: 07/14/2017
