Source: USDA Branded Food Products Database Release December 2017 Software v.3.8.6.4 2017-10-02
Report Run at: December 18, 2017 21:32 EST
"Nutrient data for: 45240239, VALUED NATURALS, SALAD FIXIN'S, UPC: 790429232877"
Food Group:  Branded Food Products Database
Common Name:

Nutrient,Unit,Data points,Std. Error,"0.25 cup = 30.0g",1Value per 100 g,
Proximates
"Energy",kcal,--,--,160,533
"Protein",g,--,--,5.00,16.67
"Total lipid (fat)",g,--,--,11.00,36.67
"Carbohydrate, by difference",g,--,--,12.00,40.00
"Sugars, total",g,--,--,7.00,23.33
Minerals
"Calcium, Ca",mg,--,--,20,67
"Iron, Fe",mg,--,--,1.50,5.00
"Sodium, Na",mg,--,--,65,217
Vitamins
"Vitamin C, total ascorbic acid",mg,--,--,0.0,0.0
"Vitamin A, IU",IU,--,--,0,0
Lipids
"Fatty acids, total saturated",g,--,--,0.999,3.330
"Fatty acids, total trans",g,--,--,0.000,0.000
"Cholesterol",mg,--,--,0,0
Amino Acids
Other
Ingredients
"DRIED CRANBERRIES (WITH SUGAR, CITRIC ACID, SUNFLOWER OIL, COLOR ADDED), HONEY ROASTED SESAME STICKS (UNBLEACHED WHEAT FLOUR, MALTED BARLEY FLOUR, SOYBEAN OIL, SESAME SEEDS, HONEY COATING (SUCROSE, WHEAT STARCH, HONEY), BULGUR WHEAT, MALTODEXTRIN, XANTHAN GUM, SALT, BEET POWDER (COLOR), TURMERIC (COLOR), SUNFLOWER SEEDS, ALMONDS, PUMPKIN SEEDS." Date available: 06/25/2017 Date last updated by company: 06/25/2017
