Source: USDA Branded Food Products Database Release December 2017 Software v.3.8.6.4 2017-10-02
Report Run at: December 18, 2017 21:35 EST
"Nutrient data for: 45142134, VALU TIME, LEMON COOKIES, UPC: 011225094873"
Food Group:  Branded Food Products Database
Common Name:

Nutrient,Unit,Data points,Std. Error,"2.0 COOKIES = 26.0g",1Value per 100 g,
Proximates
"Energy",kcal,--,--,120,462
"Protein",g,--,--,1.00,3.85
"Total lipid (fat)",g,--,--,4.50,17.31
"Carbohydrate, by difference",g,--,--,19.00,73.08
"Fiber, total dietary",g,--,--,0.0,0.0
"Sugars, total",g,--,--,8.00,30.77
Minerals
"Calcium, Ca",mg,--,--,0,0
"Iron, Fe",mg,--,--,1.38,5.32
"Sodium, Na",mg,--,--,75,288
Vitamins
"Vitamin C, total ascorbic acid",mg,--,--,0.0,0.0
"Vitamin A, IU",IU,--,--,0,0
Lipids
"Fatty acids, total saturated",g,--,--,1.500,5.770
"Fatty acids, total monounsaturated",g,--,--,1.500,5.770
"Fatty acids, total polyunsaturated",g,--,--,1.500,5.770
"Fatty acids, total trans",g,--,--,0.000,0.000
"Cholesterol",mg,--,--,0,0
Amino Acids
Other
Ingredients
"ENRICHED FLOUR (BLEACHED WHEAT FLOUR, NIACIN, REDUCED IRON, THIAMIN MONONITRATE [VITAMIN B1], RIBOFLAVIN [VITAMIN B2], FOLIC ACID), SUGAR, VEGETABLE OIL (CONTAINS ONE OR MORE OF THE FOLLOWING: PALM, CANOLA, SOYBEAN WITH TBHQ FOR FRESHNESS), CORN SYRUP, DEXTROSE, CORN FLOUR, CONTAINS TWO PERCENT OR LESS OF: CORNSTARCH, SALT, BAKING SODA, SOY LECITHIN (EMULSIFIER), ARTIFICIAL COLOR (FD&C YELLOW #5, YELLOW #6), CITRIC ACID, NATURAL AND ARTIFICIAL FLAVORS." Date available: 07/14/2017 Date last updated by company: 07/14/2017
