Source: USDA Branded Food Products Database Release December 2017 Software v.3.8.6.4 2017-10-02
Report Run at: December 18, 2017 21:38 EST
"Nutrient data for: 45133817, VAN CAMPS Beanee Weenee Baked, UNPREPARED, GTIN: 00052000312508"
Food Group:  Branded Food Products Database
Common Name:

Nutrient,Unit,Data points,Std. Error,"1 can (220g) = 220.0g",1Value per 100 g,
Proximates
"Energy",kcal,--,--,310,141
"Protein",g,--,--,11.99,5.45
"Total lipid (fat)",g,--,--,8.01,3.64
"Carbohydrate, by difference",g,--,--,46.99,21.36
"Fiber, total dietary",g,--,--,9.0,4.1
"Sugars, total",g,--,--,20.00,9.09
Minerals
"Calcium, Ca",mg,--,--,99,45
"Iron, Fe",mg,--,--,2.71,1.23
"Potassium, K",mg,--,--,471,214
"Sodium, Na",mg,--,--,849,386
Vitamins
"Vitamin C, total ascorbic acid",mg,--,--,2.4,1.1
"Vitamin A, IU",IU,--,--,0,0
Lipids
"Fatty acids, total saturated",g,--,--,2.508,1.140
"Fatty acids, total monounsaturated",g,--,--,2.992,1.360
"Fatty acids, total polyunsaturated",g,--,--,2.002,0.910
"Fatty acids, total trans",g,--,--,0.000,0.000
"Cholesterol",mg,--,--,35,16
Amino Acids
Other
Ingredients
"Prepared White Beans (Water, White Beans), Water, Chicken Franks (Mechanically Separated Chicken, Water, Salt, Corn Syrup, Dextrose, Sodium Phosphate, Natural Flavorings, Paprika, Sodium Erythorbate, Sodium Nitrite, Extractives of Paprika), Sugar, Less than 2% of: Molasses, Modified Corn Starch, Salt, Distilled Vinegar, Caramel Color, Onion Powder, Baking Soda, Natural Smoke Flavor, Spice, Natural and Artificial Flavors. MAY CONTAIN: SOY." Date available: 10/12/2017 Date last updated by company: 10/10/2017
