Source: USDA Branded Food Products Database Release December 2017 Software v.3.8.6.4 2017-10-02
Report Run at: December 18, 2017 21:39 EST
"Nutrient data for: 45122405, VAN DE KAMP'S, CRACKED BLACK SALMON WITH LIGHT COATING SEASONED, PEPPER & SEA SALT, UPC: 019600921516"
Food Group:  Branded Food Products Database
Common Name:

Nutrient,Unit,Data points,Std. Error,"1 FILLET = 127.0g",1Value per 100 g,
Proximates
"Energy",kcal,--,--,230,181
"Protein",g,--,--,18.00,14.17
"Total lipid (fat)",g,--,--,8.00,6.30
"Carbohydrate, by difference",g,--,--,20.00,15.75
"Fiber, total dietary",g,--,--,1.0,0.8
"Sugars, total",g,--,--,1.00,0.79
Minerals
"Calcium, Ca",mg,--,--,0,0
"Iron, Fe",mg,--,--,0.72,0.57
"Sodium, Na",mg,--,--,671,528
Vitamins
"Vitamin C, total ascorbic acid",mg,--,--,0.0,0.0
"Vitamin A, IU",IU,--,--,67,53
Lipids
"Fatty acids, total saturated",g,--,--,0.495,0.390
"Fatty acids, total monounsaturated",g,--,--,1.003,0.790
"Fatty acids, total polyunsaturated",g,--,--,1.499,1.180
"Fatty acids, total trans",g,--,--,0.000,0.000
"Cholesterol",mg,--,--,44,35
Amino Acids
Other
Ingredients
"SALMON (FISH, WATER, SODIUM TRIPOLYPHOSPHATE TO RETAIN MOISTURE), WATER, BREADING (BLEACHED WHEAT FLOUR, DEXTROSE, SEA SALT, CRACKED BLACK PEPPER, SOYBEAN OIL, YEAST, SALT), FLOUR PREDUST (BLEACHED WHEAT FLOUR, MODIFIED POTATO STARCH, SALT, GARLIC POWDER, ONION POWDER), SOYBEAN OIL, BATTER MIX (WHEAT FLOUR, MODIFIED CORN STARCH, SUGAR, SEA SALT, LEAVENING [SODIUM ACID PYROPHOSPHATE, SODIUM BICARBONATE], SPICES, CORN SYRUP SOLIDS, CITRIC ACID, CONCENTRATED LEMON JUICE, NATURAL FLAVOR), BATTER MIX (WHITE CORN FLOUR, MODIFIED FOOD STARCH, SALT, LEAVENING [SODIUM ACID PYROPHOSPHATE, SODIUM BICARBONATE], SPICE)." Date available: 07/14/2017 Date last updated by company: 07/14/2017
