Source: USDA Branded Food Products Database Release December 2017 Software v.3.8.6.4 2017-10-02
Report Run at: December 18, 2017 21:39 EST
"Nutrient data for: 45158078, VANDE WALLE'S, DARK CHOCOLATE, UPC: 093808003007"
Food Group:  Branded Food Products Database
Common Name:

Nutrient,Unit,Data points,Std. Error,"1 BAR = 47.0g",1Value per 100 g,
Proximates
"Energy",kcal,--,--,230,489
"Protein",g,--,--,2.00,4.26
"Total lipid (fat)",g,--,--,16.00,34.04
"Carbohydrate, by difference",g,--,--,27.00,57.45
"Fiber, total dietary",g,--,--,3.0,6.4
"Sugars, total",g,--,--,22.00,46.81
Minerals
"Calcium, Ca",mg,--,--,20,43
"Iron, Fe",mg,--,--,1.53,3.26
"Sodium, Na",mg,--,--,35,74
Vitamins
"Vitamin C, total ascorbic acid",mg,--,--,0.0,0.0
"Vitamin A, IU",IU,--,--,107,227
Lipids
"Fatty acids, total saturated",g,--,--,9.000,19.150
"Fatty acids, total trans",g,--,--,0.000,0.000
"Cholesterol",mg,--,--,5,11
Amino Acids
Other
Ingredients
"SUGAR, CHOCOLATE LIQUOR, CHOCOLATE LIQUOR PROCESSED WITH ALKALI, COCOA BUTTER, BUTTERFAT (MILK), SOY LECITHIN (ADDED AS AN EMULSIFIER), VANILLA." Date available: 07/14/2017 Date last updated by company: 07/14/2017
