Source: USDA Branded Food Products Database Release December 2017 Software v.3.8.6.4 2017-10-02
Report Run at: December 18, 2017 21:40 EST
"Nutrient data for: 45189204, VANILLA...AHHH FROZEN DAIRY-FREE DESSERT, UPC: 854758001037"
Food Group:  Branded Food Products Database
Common Name:

Nutrient,Unit,Data points,Std. Error,"0.5 cup = 73.0g",1Value per 100 g,
Proximates
"Energy",kcal,--,--,120,164
"Protein",g,--,--,0.00,0.00
"Total lipid (fat)",g,--,--,7.00,9.59
"Carbohydrate, by difference",g,--,--,19.00,26.03
"Fiber, total dietary",g,--,--,5.0,6.8
"Sugars, total",g,--,--,8.00,10.96
Minerals
"Calcium, Ca",mg,--,--,0,0
"Iron, Fe",mg,--,--,0.59,0.81
"Potassium, K",mg,--,--,0,0
"Sodium, Na",mg,--,--,35,48
Vitamins
"Vitamin C, total ascorbic acid",mg,--,--,2.0,2.7
"Vitamin A, IU",IU,--,--,0,0
Lipids
"Fatty acids, total saturated",g,--,--,6.001,8.220
"Fatty acids, total trans",g,--,--,0.000,0.000
"Cholesterol",mg,--,--,0,0
Amino Acids
Other
Ingredients
"ORGANIC COCONUT MILK, WATER, ORGANIC AGAVE NECTAR, ORGANIC INULIN, ORGANIC TAPIOCA SYRUP SOLIDS, ORGANIC GUAR GUM, SEA SALT, ORGANIC LOCUST BEAN GUM, VANILLA BEAN SPECKS, NATURAL FLAVOR." Date available: 07/14/2017 Date last updated by company: 07/14/2017
