Source: USDA Branded Food Products Database Release December 2017 Software v.3.8.6.4 2017-10-02
Report Run at: December 18, 2017 21:40 EST
"Nutrient data for: 45235088, VANILLA ALMOND, UPC: 722252257307"
Food Group:  Branded Food Products Database
Common Name:

Nutrient,Unit,Data points,Std. Error,"1 BAR = 48.0g",1Value per 100 g,
Proximates
"Energy",kcal,--,--,190,396
"Protein",g,--,--,10.00,20.83
"Total lipid (fat)",g,--,--,6.00,12.50
"Carbohydrate, by difference",g,--,--,25.00,52.08
"Fiber, total dietary",g,--,--,3.0,6.2
"Sugars, total",g,--,--,11.00,22.92
Minerals
"Potassium, K",mg,--,--,140,292
"Sodium, Na",mg,--,--,210,438
Vitamins
Lipids
"Fatty acids, total saturated",g,--,--,2.002,4.170
"Fatty acids, total trans",g,--,--,0.000,0.000
"Cholesterol",mg,--,--,0,0
Amino Acids
Other
Ingredients
"LUNAPRO (SOY RICE CRISPS [SOY PROTEIN ISOLATE, ORGANIC RICE FLOUR], ORGANIC TOASTED OATS [ORGANIC ROLLED OATS, ORGANIC DRIED CANE SYRUP], ORGANIC ROASTED SOYBEANS, ORGANIC SOY FLOUR, ORGANIC FLAXMEAL), ORGANIC BROWN RICE SYRUP, COATING (ORGANIC DRIED CANE SYRUP, PALM KERNEL OIL, ORGANIC PALM KERNEL OIL, ORGANIC SOY FLOUR, ORGANIC SOY LECITHIN, ORGANIC VANILLA), ORGANIC ALMONDS, INULIN (CHICORY EXTRACT), ALMOND BUTTER, ALMONDS, ORGANIC OAT SYRUP SOLIDS, VEGETABLE GLYCERIN, ORGANIC SUNFLOWER OIL, SEA SALT, ORGANIC NATURAL FLAVORS., VITAMINS & MINERALS: DICALCIUM PHOSPHATE, CALCIUM CARBONATE, MAGNESIUM OXIDE, FERROUS FUMARATE (IRON), NIACINAMIDE (VIT. B3), ASCORBIC ACID (VIT. C), TOCOPHERYL ACETATE (VIT. E), ZINC OXIDE, MOLYBDENUM GLYCINATE, PYRIDOXINE (VIT. B6), CALCIUM PANTOTHENATE, BETA CAROTENE (VIT. A), MANGANESE SULFATE, SELENIUM AAC, RIBOFLAVIN (VIT. B2), CHROMIUM AAC, ERGOCALCIFEROL (VIT. D2), THIAMIN (VIT. B1), CYANOCOBALAMIN (VIT. B12), FOLIC ACID, CUPRIC OXIDE, PHYTONADIONE (VIT. K), BIOTIN, POTASSIUM IODIDE." Date available: 07/14/2017 Date last updated by company: 07/14/2017
