Source: USDA Branded Food Products Database Release December 2017 Software v.3.8.6.4 2017-10-02
Report Run at: December 18, 2017 21:41 EST
"Nutrient data for: 45230495, VANILLA BLUEBERRY CRUMBLE GELATO, UPC: 816680010440"
Food Group:  Branded Food Products Database
Common Name:

Nutrient,Unit,Data points,Std. Error,"0.5 cup = 99.0g",1Value per 100 g,
Proximates
"Energy",kcal,--,--,210,212
"Protein",g,--,--,4.00,4.04
"Total lipid (fat)",g,--,--,9.00,9.09
"Carbohydrate, by difference",g,--,--,27.00,27.27
"Fiber, total dietary",g,--,--,0.0,0.0
"Sugars, total",g,--,--,25.00,25.25
Minerals
"Calcium, Ca",mg,--,--,100,101
"Iron, Fe",mg,--,--,0.00,0.00
"Sodium, Na",mg,--,--,50,51
Vitamins
"Vitamin C, total ascorbic acid",mg,--,--,0.0,0.0
"Vitamin A, IU",IU,--,--,0,0
Lipids
"Fatty acids, total saturated",g,--,--,5.999,6.060
"Fatty acids, total trans",g,--,--,0.000,0.000
"Cholesterol",mg,--,--,30,30
Amino Acids
Other
Ingredients
"MILK, SUGAR, CREAM, DEXTROSE, TAPIOCA SYRUP, VANILLA EXTRACT, ROLLED OATS, COCONUT OIL, WHEAT FLOUR, BLUEBERRIES, BROWN SUGAR, NATURAL FLAVOR, CAROB GUM, PECTIN, LEMON PEEL, SALT, COLOR ADDED, CITRIC ACID, VANILLA BEAN SEEDS." Date available: 07/14/2017 Date last updated by company: 07/14/2017
