Source: USDA Branded Food Products Database Release December 2017 Software v.3.8.6.4 2017-10-02
Report Run at: December 18, 2017 21:43 EST
"Nutrient data for: 45316648, VANILLA ESPRESSO ALMOND BUTTER, UPC: 853547003696"
Food Group:  Branded Food Products Database
Common Name:

Nutrient,Unit,Data points,Std. Error,"2.0 Tbsp = 32.0g",1Value per 100 g,
Proximates
"Energy",kcal,--,--,180,562
"Protein",g,--,--,6.00,18.75
"Total lipid (fat)",g,--,--,0.02,0.05
"Carbohydrate, by difference",g,--,--,8.00,25.00
"Fiber, total dietary",g,--,--,3.0,9.4
"Sugars, total",g,--,--,2.00,6.25
Minerals
"Calcium, Ca",mg,--,--,80,250
"Iron, Fe",mg,--,--,1.69,5.28
"Sodium, Na",mg,--,--,40,125
Vitamins
"Vitamin C, total ascorbic acid",mg,--,--,0.0,0.0
"Vitamin A, IU",IU,--,--,0,0
Lipids
"Fatty acids, total saturated",g,--,--,0.003,0.010
"Fatty acids, total trans",g,--,--,0.000,0.000
"Cholesterol",mg,--,--,0,0
Amino Acids
Other
Ingredients
"ROASTED ALMONDS, ORGANIC AGAVE, ORGANIC VANILLA, ESPRESSO*, SEA SALT." Date available: 09/13/2017 Date last updated by company: 09/13/2017
