Source: USDA Branded Food Products Database Release December 2017 Software v.3.8.6.4 2017-10-02
Report Run at: December 18, 2017 21:43 EST
"Nutrient data for: 45330775, VANILLA FLAVORED ICE CREAM WITH A FUDGE RIBBON IN A SUGAR CONE DIPPED IN CHOCOLATE FLAVORED COATING TOPPED WITH PEANUTS, UPC: 052548558147"
Food Group:  Branded Food Products Database
Common Name:

Nutrient,Unit,Data points,Std. Error,"1 CONE = 150.0g",1Value per 100 g,
Proximates
"Energy",kcal,--,--,400,267
"Protein",g,--,--,7.00,4.67
"Total lipid (fat)",g,--,--,21.00,14.00
"Carbohydrate, by difference",g,--,--,48.00,32.00
"Fiber, total dietary",g,--,--,1.1,0.7
"Sugars, total",g,--,--,34.01,22.67
Minerals
"Calcium, Ca",mg,--,--,200,133
"Iron, Fe",mg,--,--,0.72,0.48
"Sodium, Na",mg,--,--,124,83
Vitamins
"Vitamin C, total ascorbic acid",mg,--,--,0.0,0.0
"Vitamin A, IU",IU,--,--,400,267
Lipids
"Fatty acids, total saturated",g,--,--,12.000,8.000
"Fatty acids, total trans",g,--,--,0.495,0.330
"Cholesterol",mg,--,--,45,30
Amino Acids
Other
Ingredients
"MILK, CREAM, SUGAR, BUTTERMILK, WHEY, CORN SYRUP, SKIM MILK, BLEACHED WHEAT FLOUR, HIGH FRUCTOSE CORN SYRUP, PEANUTS, COCONUT OIL, CONTAINS 2% OR LESS OF UNSWEETENED CHOCOLATE, COCOA BUTTER, COCOA, NATURAL FLAVORS, FOOD STARCH-MODIFIED, COCOA PROCESSED WITH ALKALI, WATER, ARTIFICIAL FLAVOR, MOLASSES, SALT, SOY LECITHIN, SOYBEAN OIL, PEANUT OIL, CANOLA OIL, MONO AND DIGLYCERIDES, CAROB BEAN GUM, CELLULOSE GUM, CARRAGEENAN, XANTHAN GUM, CARAMEL COLOR." Date available: 10/13/2017 Date last updated by company: 10/13/2017
