Source: USDA Branded Food Products Database Release December 2017 Software v.3.8.6.4 2017-10-02
Report Run at: December 18, 2017 21:48 EST
"Nutrient data for: 45153133, VANINI, MILK CHOCOLATE, UPC: 639689072802"
Food Group:  Branded Food Products Database
Common Name:

Nutrient,Unit,Data points,Std. Error,"0.333 BAR = 33.0g",1Value per 100 g,
Proximates
"Energy",kcal,--,--,200,606
"Protein",g,--,--,3.00,9.09
"Total lipid (fat)",g,--,--,14.00,42.42
"Carbohydrate, by difference",g,--,--,13.00,39.39
"Fiber, total dietary",g,--,--,1.0,3.0
"Sugars, total",g,--,--,13.00,39.39
Minerals
"Calcium, Ca",mg,--,--,80,242
"Iron, Fe",mg,--,--,0.54,1.65
"Sodium, Na",mg,--,--,0,0
Vitamins
"Vitamin C, total ascorbic acid",mg,--,--,0.0,0.0
"Vitamin A, IU",IU,--,--,0,0
Lipids
"Fatty acids, total saturated",g,--,--,8.999,27.270
"Fatty acids, total trans",g,--,--,0.000,0.000
"Cholesterol",mg,--,--,5,15
Amino Acids
Other
Ingredients
"MILK CHOCOLATE (COCOA BUTTER, SUGAR, DRY WHOLE MILK POWDER, CHOCOLATE LIQUOR, BUTTER OIL, VANILLA EXTRACT), ORANGE PEEL (ICING SUGAR, SUGAR, GLUCOSE SYRUP, ORANGE PEEL), ORANGE OIL." Date available: 07/14/2017 Date last updated by company: 07/14/2017
