Source: USDA Branded Food Products Database Release December 2017 Software v.3.8.6.4 2017-10-02
Report Run at: December 18, 2017 21:47 EST
"Nutrient data for: 45269593, VANILLA WHITE TEA, UPC: 860201000236"
Food Group:  Branded Food Products Database
Common Name:

Nutrient,Unit,Data points,Std. Error,"1 TEA DROP = 7.0g",1Value per 100 g,
Proximates
"Energy",kcal,--,--,30,429
"Protein",g,--,--,0.00,0.00
"Total lipid (fat)",g,--,--,0.00,0.00
"Carbohydrate, by difference",g,--,--,6.00,85.71
"Sugars, total",g,--,--,6.00,85.71
Minerals
"Sodium, Na",mg,--,--,0,0
Vitamins
Lipids
Amino Acids
Other
Ingredients
"ORGANIC CANE SUGAR, ORGANIC RAW CANE SUGAR, ORGANIC WHITE PEONY TEA, ORGANIC VANILLA EXTRACT" Date available: 07/14/2017 Date last updated by company: 07/14/2017
