Source: USDA Branded Food Products Database Release December 2017 Software v.3.8.6.4 2017-10-02
Report Run at: December 18, 2017 21:45 EST
"Nutrient data for: 45192063, VANILLA PEANUT BUTTER, UPC: 671896030077"
Food Group:  Branded Food Products Database
Common Name:

Nutrient,Unit,Data points,Std. Error,"2.0 Tbsp = 32.0g",1Value per 100 g,
Proximates
"Energy",kcal,--,--,180,562
"Protein",g,--,--,7.00,21.88
"Total lipid (fat)",g,--,--,14.00,43.75
"Carbohydrate, by difference",g,--,--,10.00,31.25
"Fiber, total dietary",g,--,--,2.0,6.2
"Sugars, total",g,--,--,5.00,15.62
Minerals
"Calcium, Ca",mg,--,--,20,62
"Iron, Fe",mg,--,--,1.13,3.52
"Potassium, K",mg,--,--,180,562
"Sodium, Na",mg,--,--,0,0
Vitamins
"Vitamin C, total ascorbic acid",mg,--,--,0.0,0.0
"Vitamin A, IU",IU,--,--,0,0
Lipids
"Fatty acids, total saturated",g,--,--,2.000,6.250
"Fatty acids, total trans",g,--,--,0.000,0.000
"Cholesterol",mg,--,--,0,0
Amino Acids
Other
Ingredients
"USA ORGANIC PEANUTS,ORGANIC VANILLA POWDER (ORGANIC VANILLA BEAN, ORGANIC SUCROSE), ORGANIC FLAX SEED, ORGANIC HEMP SEED, ORGANIC PALM FRUIT OIL," Date available: 07/14/2017 Date last updated by company: 07/14/2017
