Source: USDA Branded Food Products Database Release December 2017 Software v.3.8.6.4 2017-10-02
Report Run at: December 18, 2017 21:41 EST
"Nutrient data for: 45085681, VANILLA BLUEBERRY CLUSTERS WITH FLAX SEEDS, UPC: 602652171857"
Food Group:  Branded Food Products Database
Common Name:

Nutrient,Unit,Data points,Std. Error,"0.33 cup = 29.0g",1Value per 100 g,
Proximates
"Energy",kcal,--,--,120,414
"Protein",g,--,--,3.00,10.34
"Total lipid (fat)",g,--,--,3.00,10.34
"Carbohydrate, by difference",g,--,--,21.00,72.41
"Fiber, total dietary",g,--,--,4.0,13.8
"Sugars, total",g,--,--,5.00,17.24
Minerals
"Calcium, Ca",mg,--,--,38,131
"Iron, Fe",mg,--,--,1.37,4.71
"Sodium, Na",mg,--,--,20,69
Vitamins
"Vitamin C, total ascorbic acid",mg,--,--,0.0,0.0
"Vitamin A, IU",IU,--,--,0,0
Lipids
"Fatty acids, total saturated",g,--,--,0.000,0.000
"Fatty acids, total trans",g,--,--,0.000,0.000
"Cholesterol",mg,--,--,0,0
Amino Acids
Other
Ingredients
"WHOLE GRAIN BLEND (OATS, BROWN RICE, BUCKWHEAT, MILLET, AMARANTH, QUINOA), DRIED CANE SYRUP, FLAX SEEDS, CHICORY ROOT FIBER, CANOLA OIL, VANILLA EXTRACT, MOLASSES, APPLE PUREE, PLUM PUREE, APPLE JUICE, BLUEBERRY PUREE, BROWN RICE SYRUP, GLYCERINE, SEA SALT, VITAMIN E (TO MAINTAIN FRESHNESS), CITRUS FIBER, CITRUS PECTIN, NATURAL FLAVOR." Date available: 08/02/2017 Date last updated by company: 08/02/2017
