Source: USDA Branded Food Products Database Release December 2017 Software v.3.8.6.4 2017-10-02
Report Run at: December 18, 2017 21:44 EST
"Nutrient data for: 45278623, VANILLA ICE CREAM WITH MARASCHINO CHERRIES, UPC: 688267112447"
Food Group:  Branded Food Products Database
Common Name:

Nutrient,Unit,Data points,Std. Error,"0.5 cup = 68.0g",1Value per 100 g,
Proximates
"Energy",kcal,--,--,130,191
"Protein",g,--,--,2.00,2.94
"Total lipid (fat)",g,--,--,6.00,8.82
"Carbohydrate, by difference",g,--,--,18.00,26.47
"Fiber, total dietary",g,--,--,0.0,0.0
"Sugars, total",g,--,--,14.00,20.59
Minerals
"Calcium, Ca",mg,--,--,80,118
"Iron, Fe",mg,--,--,0.00,0.00
"Sodium, Na",mg,--,--,45,66
Vitamins
"Vitamin C, total ascorbic acid",mg,--,--,0.0,0.0
"Vitamin A, IU",IU,--,--,337,496
Lipids
"Fatty acids, total saturated",g,--,--,3.998,5.880
"Fatty acids, total trans",g,--,--,0.000,0.000
"Cholesterol",mg,--,--,25,37
Amino Acids
Other
Ingredients
"SKIM MILK, CREAM, CORN SYRUP, RED CHERRIES (CHERRIES, WATER, CORN SYRUP, SUGAR, CITRIC ACID, SODIUM BENZOATE AND POTASSIUM SORBATE [PRESERVATIVES], NATURAL FLAVORS, RED 40, SULFITES), HIGH FRUCTOSE CORN SYRUP, SUGAR, WHEY, CONTAINS 2% OR LESS OF: MONO- AND DIGLYCERIDES, GUAR GUM, CALCIUM SULFATE, LOCUST BEAN GUM, CARRAGEENAN, NATURAL VANILLA FLAVOR." Date available: 07/14/2017 Date last updated by company: 07/14/2017
