Source: USDA Branded Food Products Database Release December 2017 Software v.3.8.6.4 2017-10-02
Report Run at: December 18, 2017 21:56 EST
"Nutrient data for: 45111055, VEGA, SPORT PERFORMANCE PROTEIN DRINK MIX, MOCHA, UPC: 838766008578"
Food Group:  Branded Food Products Database
Common Name:

Nutrient,Unit,Data points,Std. Error,"43.0 g = 43.0g",1Value per 100 g,
Proximates
"Energy",kcal,--,--,150,349
"Protein",g,--,--,30.00,69.77
"Total lipid (fat)",g,--,--,3.00,6.98
"Carbohydrate, by difference",g,--,--,5.00,11.63
"Fiber, total dietary",g,--,--,3.0,7.0
"Sugars, total",g,--,--,1.00,2.33
Minerals
"Calcium, Ca",mg,--,--,150,349
"Iron, Fe",mg,--,--,3.60,8.37
"Sodium, Na",mg,--,--,370,860
Vitamins
"Vitamin C, total ascorbic acid",mg,--,--,0.0,0.0
"Vitamin A, IU",IU,--,--,0,0
Lipids
"Fatty acids, total saturated",g,--,--,0.00,0.00
"Fatty acids, total trans",g,--,--,0.00,0.00
"Cholesterol",mg,--,--,0,0
Amino Acids
"Tryptophan",g,--,--,0.423,0.984
"Threonine",g,--,--,1.431,3.328
"Isoleucine",g,--,--,1.710,3.977
"Leucine",g,--,--,2.943,6.844
"Lysine",g,--,--,2.439,5.672
"Methionine",g,--,--,0.414,0.963
"Cystine",g,--,--,0.315,0.733
"Phenylalanine",g,--,--,1.953,4.542
"Tyrosine",g,--,--,1.269,2.951
"Valine",g,--,--,1.836,4.270
"Arginine",g,--,--,3.105,7.221
"Histidine",g,--,--,0.909,2.114
"Alanine",g,--,--,1.503,3.495
"Aspartic acid",g,--,--,4.113,9.565
"Glutamic acid",g,--,--,6.354,14.777
"Glycine",g,--,--,1.539,3.579
"Proline",g,--,--,1.656,3.851
"Serine",g,--,--,1.881,4.374
Other
Ingredients
"PEA PROTEIN, COCOA POWDER, ORGANIC PUMPKIN SEED PROTEIN, ORGANIC SUNFLOWER SEED PROTEIN, ALFALFA PROTEIN, TART CHERRY, PROBIOTICS (BACILLUS COAGULANS [PROVIDES 1 BILLION CFU/SERVING]), BROMELAIN, TURMERIC EXTRACT, BLACK PEPPER EXTRACT, CONTAINS LESS THAN 2% OF: BEETROOT POWDER (FOR COLOR), SEA SALT, NATURAL MOCHA FLAVORS, NATURAL VANILLA FLAVOR, NATURAL CHOCOLATE FLAVOR, STEVIA EXTRACT, XANTHAN GUM." Date last updated by company: 05/18/2016
