Source: USDA Branded Food Products Database Release December 2017 Software v.3.8.6.4 2017-10-02
Report Run at: December 18, 2017 21:56 EST
"Nutrient data for: 45111371, VEGA, SPORT, ENERGIZER DIETARY SUPPLEMENT, LEMON LIME, UPC: 838766007175"
Food Group:  Branded Food Products Database
Common Name:

Nutrient,Unit,Data points,Std. Error,"3.4 g = 3.4g",1Value per 100 g,
Proximates
"Energy",kcal,--,--,5,147
Minerals
"Potassium, K",mg,--,--,50,1471
"Sodium, Na",mg,--,--,60,1765
Vitamins
Lipids
Amino Acids
Other
Ingredients
"NATURAL LEMON AND LIME FLAVORS, CITRIC ACID, MALIC ACID, ORGANIC SPINACH LEAF POWDER, STEVIA EXTRACT, BETA CAROTENE, SILICON DIOXIDE." Date last updated by company: 05/19/2016
