Source: USDA Branded Food Products Database Release December 2017 Software v.3.8.6.4 2017-10-02
Report Run at: December 18, 2017 21:55 EST
"Nutrient data for: 45110989, VEGA, PROTEIN & GREENS DRINK MIX, VANILLA, UPC: 838766006512"
Food Group:  Branded Food Products Database
Common Name:

Nutrient,Unit,Data points,Std. Error,"1 SCOOP = 30.0g",1Value per 100 g,
Proximates
"Energy",kcal,--,--,110,367
"Protein",g,--,--,20.00,66.67
"Total lipid (fat)",g,--,--,0.50,1.67
"Carbohydrate, by difference",g,--,--,6.00,20.00
"Fiber, total dietary",g,--,--,1.0,3.3
"Sugars, total",g,--,--,2.00,6.67
Minerals
"Calcium, Ca",mg,--,--,200,667
"Iron, Fe",mg,--,--,7.20,24.00
"Sodium, Na",mg,--,--,190,633
Vitamins
"Vitamin C, total ascorbic acid",mg,--,--,0.0,0.0
"Vitamin A, IU",IU,--,--,0,0
Lipids
"Fatty acids, total saturated",g,--,--,0.501,1.670
"Fatty acids, total trans",g,--,--,0.000,0.000
"Cholesterol",mg,--,--,0,0
Amino Acids
Other
Ingredients
"VEGA PROTEIN BLEND (PEA PROTEIN, VEGA SAVISEED [SACHA INCHI] PROTEIN, HEMP SEED PROTEIN, SPROUTED WHOLE GRAIN BROWN RICE PROTEIN). NATURAL FRENCH VANILLA FLAVORS, VEGA GREEN BLEND (ORGANIC ALFALFA GRASS POWDER, SPINACH POWDER, BROCCOLI POWDER, ORGANIC KALE POWDER), PAPAYA CONCENTRATE POWDER (CONTAINS NATURALLY OCCURRING ENZYMES), STEVIA LEAF EXTRACT, XANTHAN GUM." Date available: 07/14/2017 Date last updated by company: 07/14/2017
