Source: USDA Branded Food Products Database Release December 2017 Software v.3.8.6.4 2017-10-02
Report Run at: December 18, 2017 21:54 EST
"Nutrient data for: 45220691, VEGAN SHANGHAI DUMPLING, UPC: 680314888848"
Food Group:  Branded Food Products Database
Common Name:

Nutrient,Unit,Data points,Std. Error,"7.0 ONZ = 198.0g",1Value per 100 g,
Proximates
"Energy",kcal,--,--,301,152
"Protein",g,--,--,14.00,7.07
"Total lipid (fat)",g,--,--,9.01,4.55
"Carbohydrate, by difference",g,--,--,44.00,22.22
"Fiber, total dietary",g,--,--,3.0,1.5
"Sugars, total",g,--,--,4.00,2.02
Minerals
"Calcium, Ca",mg,--,--,400,202
"Iron, Fe",mg,--,--,2.49,1.26
"Sodium, Na",mg,--,--,321,162
Vitamins
"Vitamin C, total ascorbic acid",mg,--,--,16.6,8.4
"Vitamin A, IU",IU,--,--,1944,982
Lipids
"Fatty acids, total saturated",g,--,--,1.505,0.760
"Fatty acids, total trans",g,--,--,0.000,0.000
"Cholesterol",mg,--,--,0,0
Amino Acids
Other
Ingredients
"ORGANIC WHOLE WHEAT FLOUR, ORGANIC UNBLEACHED WHEAT FLOUR, ORGANIC CABBAGE, ORGANIC SHIITAKE MUSHROOM, ORGANIC CRIMINI MUSHROOM, ORGANIC SCALLIONS, ORGANIC PARSLEY, ORGANIC SUNDRIED TOMATOES, FILTERED WATER, ORGANIC GINGER, SESAME TAHINI, PAPRIKA, SEA SALT, SPICES, SESAME OIL." Date available: 07/14/2017 Date last updated by company: 07/14/2017
