Source: USDA Branded Food Products Database Release December 2017 Software v.3.8.6.4 2017-10-02
Report Run at: December 18, 2017 21:53 EST
"Nutrient data for: 45273849, VEGANIC SPROUTED SPELT FLAKES, UPC: 675625367038"
Food Group:  Branded Food Products Database
Common Name:

Nutrient,Unit,Data points,Std. Error,"0.667 cup = 30.0g",1Value per 100 g,
Proximates
"Energy",kcal,--,--,110,367
"Protein",g,--,--,4.00,13.33
"Total lipid (fat)",g,--,--,1.00,3.33
"Carbohydrate, by difference",g,--,--,23.00,76.67
"Fiber, total dietary",g,--,--,3.0,10.0
"Sugars, total",g,--,--,5.00,16.67
Minerals
"Calcium, Ca",mg,--,--,20,67
"Iron, Fe",mg,--,--,2.64,8.80
"Magnesium, Mg",mg,--,--,73,244
"Phosphorus, P",mg,--,--,183,611
"Potassium, K",mg,--,--,140,467
"Sodium, Na",mg,--,--,25,83
"Zinc, Zn",mg,--,--,0.90,3.00
"Manganese, Mn",mg,--,--,0.900,3.000
Vitamins
"Vitamin C, total ascorbic acid",mg,--,--,0.0,0.0
"Thiamin",mg,--,--,0.300,1.000
"Riboflavin",mg,--,--,0.062,0.208
"Niacin",mg,--,--,3.666,12.220
"Pantothenic acid",mg,--,--,0.400,1.333
"Vitamin B-6",mg,--,--,0.147,0.489
"Vitamin A, IU",IU,--,--,0,0
Lipids
"Fatty acids, total saturated",g,--,--,0.000,0.000
"Fatty acids, total monounsaturated",g,--,--,0.000,0.000
"Fatty acids, total polyunsaturated",g,--,--,0.000,0.000
"Fatty acids, total trans",g,--,--,0.000,0.000
"Cholesterol",mg,--,--,0,0
Amino Acids
Other
Ingredients
"ORGANIC SPROUTED SPELT, ORGANIC COCONUT PALM SUGAR, ORGANIC OATS, UNREFINED SALT, TOCOPHEROLS (VITAMIN E)." Date available: 07/14/2017 Date last updated by company: 07/14/2017
