Source: USDA Branded Food Products Database Release December 2017 Software v.3.8.6.4 2017-10-02
Report Run at: December 18, 2017 21:54 EST
"Nutrient data for: 45262177, VEGAN STUFFED MUSHROOM BURGER, UPC: 886844014621"
Food Group:  Branded Food Products Database
Common Name:

Nutrient,Unit,Data points,Std. Error,"5.0 ONZ = 142.0g",1Value per 100 g,
Proximates
"Energy",kcal,--,--,210,148
"Protein",g,--,--,22.00,15.49
"Total lipid (fat)",g,--,--,10.00,7.04
"Carbohydrate, by difference",g,--,--,11.01,7.75
"Fiber, total dietary",g,--,--,7.0,4.9
"Sugars, total",g,--,--,0.99,0.70
Minerals
"Calcium, Ca",mg,--,--,99,70
"Iron, Fe",mg,--,--,2.09,1.47
"Sodium, Na",mg,--,--,400,282
Vitamins
"Vitamin C, total ascorbic acid",mg,--,--,5.8,4.1
"Vitamin A, IU",IU,--,--,116,82
Lipids
"Fatty acids, total saturated",g,--,--,0.994,0.700
"Fatty acids, total trans",g,--,--,0.000,0.000
"Cholesterol",mg,--,--,0,0
Amino Acids
Other
Ingredients
"MATCH BEEF (WATER,TEXTURED VEGETABLE PROTEIN (SOY PROTEIN CONCENTRATE, CARAMEL COLOR), SOY PROTEIN CONCENTRATE, CANOLA OIL, WHEATGLUTEN, NATURAL FLAVORS, MODIFIED VEGETABLE GUM, ISOLATED SOY PROTEIN, DEXTROSE, CARAMEL COLOR, CARRAGEENAN, LOCUST BEAN GUM, BEET POWDER), MUSHROOMS, DRIED PORCINI MUSHROOMS, TOFUTTI VEGAN CREAM CHEESE (WATER, EXPELLER PROCESSED NATURAL OIL BLEND (SOYBEAN, PALM FRUIT AND OLIVE OILS), MALTODEXTRIN, SOY PROTEIN, TOFU, NON-DAIRY LACTIC ACID, BLEND OF NATURAL GUMS (LOCUST BEAN, GUAR, CELLULOSE, XANTHAN AND CARRAGEENAN), ORGANIC SUGAR, VEGETABLE MONO AND DIGLYCERIDES, SALT), SHERRY, RED WINE VINEGAR, TABASCO SAUCE (TABASCO PEPPERS, VINEGAR, SALT), ONION, GRANULATED GARLIC, PARSLEY, THYME, SALT & PEPPER." Date available: 08/30/2017 Date last updated by company: 08/30/2017
