Source: USDA Branded Food Products Database Release December 2017 Software v.3.8.6.4 2017-10-02
Report Run at: December 18, 2017 21:53 EST
"Nutrient data for: 45264632, VEGAN MUSHROOM GRAVY, UPC: 018053720615"
Food Group:  Branded Food Products Database
Common Name:

Nutrient,Unit,Data points,Std. Error,"0.25 cup = 60.0g",1Value per 100 g,
Proximates
"Energy",kcal,--,--,25,42
"Protein",g,--,--,1.00,1.67
"Total lipid (fat)",g,--,--,0.00,0.00
"Carbohydrate, by difference",g,--,--,3.00,5.00
"Fiber, total dietary",g,--,--,1.0,1.7
"Sugars, total",g,--,--,1.00,1.67
Minerals
"Calcium, Ca",mg,--,--,0,0
"Iron, Fe",mg,--,--,0.37,0.61
"Sodium, Na",mg,--,--,260,433
Vitamins
"Vitamin C, total ascorbic acid",mg,--,--,1.2,2.0
"Vitamin A, IU",IU,--,--,0,0
Lipids
"Fatty acids, total saturated",g,--,--,0.000,0.000
"Fatty acids, total trans",g,--,--,0.000,0.000
"Cholesterol",mg,--,--,0,0
Amino Acids
Other
Ingredients
"MUSHROOM STOCK (WATER, MUSHROOM BASE [MUSHROOMS SAUTEED IN CANOLA OIL, SALT, MALTODEXTRIN, DRIED POTATO, YEAST EXTRACT, NATURAL FLAVOR, MUSHROOM EXTRACTS, DRIED MUSHROOM, ONION POWDER, SPICE]), VEGETABLE STOCK (WATER, VEGETABLE BASE [VEGETABLES AND CONCENTRATED VEGETABLES {CARROTS, CELERY, ONION & TOMATO}, SALT, YEAST PASTE, CANE SUGAR, SOY SAUCE {WATER, SOYBEANS, SALT}, MALTODEXTRIN, NATURAL TOMATO FLAVOR, POTATO STARCH, NATURAL FLAVOR, DRIED ONION, DRIED GARLIC & SPICE]), MUSHROOMS (WHITE, PORTOBELLO, AND CRIMINI), ONIONS, MODIFIED CORNSTARCH, BURGUNDY WINE (CONTAINS POTASSIUM METABISULFITE), INACTIVE NUTRITIONAL YEAST, TAMARI SOY SAUCE (WATER, SOYBEANS, SALT, ALCOHOL), TOMATO PASTE, GARLIC, EXPELLER PRESSED CANOLA OIL, CULTURED DEXTROSE, SPICES, GUAR GUM, XANTHAN GUM." Date available: 07/14/2017 Date last updated by company: 07/14/2017
