Source: USDA Branded Food Products Database Release December 2017 Software v.3.8.6.4 2017-10-02
Report Run at: December 18, 2017 22:09 EST
"Nutrient data for: 45272093, VEGETABLE STEW BLEND, UPC: 078716002236"
Food Group:  Branded Food Products Database
Common Name:

Nutrient,Unit,Data points,Std. Error,"0.25 cup = 23.0g",1Value per 100 g,
Proximates
"Energy",kcal,--,--,80,348
"Protein",g,--,--,2.00,8.70
"Total lipid (fat)",g,--,--,0.00,0.00
"Carbohydrate, by difference",g,--,--,18.00,78.26
"Fiber, total dietary",g,--,--,2.0,8.7
"Sugars, total",g,--,--,4.00,17.39
Minerals
"Calcium, Ca",mg,--,--,60,261
"Iron, Fe",mg,--,--,1.57,6.81
"Sodium, Na",mg,--,--,50,217
Vitamins
"Vitamin C, total ascorbic acid",mg,--,--,104.4,453.7
"Vitamin A, IU",IU,--,--,3804,16541
Lipids
"Fatty acids, total saturated",g,--,--,0.000,0.000
"Fatty acids, total trans",g,--,--,0.000,0.000
"Cholesterol",mg,--,--,0,0
Amino Acids
Other
Ingredients
"DICED DEHYDRATED POTATOES, CABBAGE FLAKES, ONIONS, CARROT DICES, CELERY SLICES, RED AND GREEN BELL PEPPERS." Date available: 07/14/2017 Date last updated by company: 07/14/2017
