Source: USDA Branded Food Products Database Release December 2017 Software v.3.8.6.4 2017-10-02
Report Run at: December 18, 2017 22:00 EST
"Nutrient data for: 45279016, VEGETABLE & GRAIN PROTEIN PATTIES, UPC: 845561000539"
Food Group:  Branded Food Products Database
Common Name:

Nutrient,Unit,Data points,Std. Error,"2.0 SLICES = 92.0g",1Value per 100 g,
Proximates
"Energy",kcal,--,--,90,98
"Protein",g,--,--,18.00,19.57
"Total lipid (fat)",g,--,--,1.00,1.09
"Carbohydrate, by difference",g,--,--,4.00,4.35
"Fiber, total dietary",g,--,--,2.0,2.2
"Sugars, total",g,--,--,0.00,0.00
Minerals
"Calcium, Ca",mg,--,--,0,0
"Iron, Fe",mg,--,--,0.21,0.23
"Potassium, K",mg,--,--,40,43
"Sodium, Na",mg,--,--,500,543
Vitamins
"Vitamin C, total ascorbic acid",mg,--,--,0.0,0.0
"Vitamin A, IU",IU,--,--,0,0
Lipids
"Fatty acids, total saturated",g,--,--,0.000,0.000
"Fatty acids, total monounsaturated",g,--,--,0.000,0.000
"Fatty acids, total polyunsaturated",g,--,--,0.497,0.540
"Fatty acids, total trans",g,--,--,0.000,0.000
"Cholesterol",mg,--,--,0,0
Amino Acids
Other
Ingredients
"CHOPLETS: TEXTURIZED VEGETABLE PROTEIN (WHEAT GLUTEN, SOY PROTEIN CONCENTRATE, WATER FOR HYDRATION), CARAMEL COLOR. BROTH: WATER, HYDROLYZED SOY, CORN AND WHEAT PROTEIN, AUTOLYZED YEAST EXTRACT, SALT, DEXTROSE, CORN OIL, CARAMEL COLOR, DISODIUM INOSINATE, DISODIUM GUANYLATE, SOYBEAN OIL." Date available: 07/14/2017 Date last updated by company: 07/14/2017
