Source: USDA Branded Food Products Database Release December 2017 Software v.3.8.6.4 2017-10-02
Report Run at: December 18, 2017 22:07 EST
"Nutrient data for: 45050598, VEGETABLE SAMOSAS, UPC: 00710985"
Food Group:  Branded Food Products Database
Common Name:

Nutrient,Unit,Data points,Std. Error,"2.0 SAMOSAS = 84.0g",1Value per 100 g,
Proximates
"Energy",kcal,--,--,170,202
"Protein",g,--,--,5.00,5.95
"Total lipid (fat)",g,--,--,6.00,7.14
"Carbohydrate, by difference",g,--,--,22.00,26.19
"Fiber, total dietary",g,--,--,3.0,3.6
"Sugars, total",g,--,--,2.00,2.38
Minerals
"Calcium, Ca",mg,--,--,20,24
"Iron, Fe",mg,--,--,1.46,1.74
"Sodium, Na",mg,--,--,350,417
Vitamins
"Vitamin C, total ascorbic acid",mg,--,--,0.0,0.0
"Vitamin A, IU",IU,--,--,506,602
Lipids
"Fatty acids, total saturated",g,--,--,0.504,0.600
"Fatty acids, total trans",g,--,--,0.000,0.000
"Cholesterol",mg,--,--,0,0
Amino Acids
Other
Ingredients
"ENRICHED ALL PURPOSE WHEAT FLOUR (FLOUR, THIAMINE MONONITRATE, RIBOFLAVIN, NIACIN, FOLIC ACID, IRON [MAY CONTAINS AMYLASE], ASCORBIC ACID [VITAMIN C (DOUGH CONDITIONER)], WATER, DICED POTATOES, CARROTS, GREEN PEAS, CANOLA OIL, LENTILS, ONIONS, CILANTRO, SALT, PLAIN NONFAT YOGURT (SKIM MILK POWDER, WHEY PROTEIN, MODIFIED CORN STARCH, CARRAGEENAN, PECTIN, ACTIVE BACTERIAL CULTURE*), GARLIC, VINEGAR, SPICES, CITRIC ACID. *ACTIVE BACTERIAL CULTURE MAY CONTAINS NON HARMFUL BACTERIA SUCH AS LACTOBACILLUS ACIDOPHILUS OR BIFODBACTERIUM BIFIDUM, BIFIDOBACTERIUM LONGUM, BIFIDOBACTERIUM INFANTIS AND BIFIDOBACTERIUM BREVE BACTERIA." Date available: 06/25/2017 Date last updated by company: 06/25/2017
