Source: USDA Branded Food Products Database Release December 2017 Software v.3.8.6.4 2017-10-02
Report Run at: December 18, 2017 22:12 EST
"Nutrient data for: 45238645, VEGETARIAN SOY PASTE, UPC: 072869310545"
Food Group:  Branded Food Products Database
Common Name:

Nutrient,Unit,Data points,Std. Error,"1 Tbsp = 15.0g",1Value per 100 g,
Proximates
"Energy",kcal,--,--,15,100
"Protein",g,--,--,1.00,6.67
"Total lipid (fat)",g,--,--,0.00,0.00
"Carbohydrate, by difference",g,--,--,3.00,20.00
"Fiber, total dietary",g,--,--,0.0,0.0
"Sugars, total",g,--,--,2.00,13.33
Minerals
"Sodium, Na",mg,--,--,550,3667
Vitamins
Lipids
"Fatty acids, total saturated",g,--,--,0.000,0.000
"Fatty acids, total trans",g,--,--,0.000,0.000
"Cholesterol",mg,--,--,0,0
Amino Acids
Other
Ingredients
"SOYBEAN, WHEAT, SUGAR - GLYCINE, DISODIUM SUCCINATE, DISODIUM, SALT, CORN STARCH, MUSHROOM EXTRACT, STEVIOSIDE (SWEETENER), BUTYLP-HYDROXY BENZOATE (LESS THAN 0.1% AS FOOD PRESERVATIVE)" Date available: 07/14/2017 Date last updated by company: 07/14/2017
