Source: USDA Branded Food Products Database Release December 2017 Software v.3.8.6.4 2017-10-02
Report Run at: December 18, 2017 22:06 EST
"Nutrient data for: 45218499, VEGETABLE PASTA BAKE, UPC: 072036601094"
Food Group:  Branded Food Products Database
Common Name:

Nutrient,Unit,Data points,Std. Error,"4.0 ONZ = 114.0g",1Value per 100 g,
Proximates
"Energy",kcal,--,--,160,140
"Protein",g,--,--,5.00,4.39
"Total lipid (fat)",g,--,--,10.00,8.77
"Carbohydrate, by difference",g,--,--,13.00,11.40
"Fiber, total dietary",g,--,--,2.1,1.8
"Sugars, total",g,--,--,3.00,2.63
Minerals
"Calcium, Ca",mg,--,--,100,88
"Iron, Fe",mg,--,--,1.57,1.38
"Sodium, Na",mg,--,--,580,509
Vitamins
"Vitamin C, total ascorbic acid",mg,--,--,32.9,28.9
"Vitamin A, IU",IU,--,--,5482,4809
Lipids
"Fatty acids, total saturated",g,--,--,2.497,2.190
"Fatty acids, total trans",g,--,--,0.000,0.000
"Cholesterol",mg,--,--,10,9
Amino Acids
Other
Ingredients
"MARINARA SAUCE ([TOMATO JUICE OR PUREE, SALT, CITRIC ACID, CALCIUM CHLORIDE], WATER, ONION, TOMATO PASTE[TOMATO PASTE, WATER, SALT, CITRIC ACID], OLIVE OIL, GARLIC[GARLIC, WATER], MODIFIED FOOD STARCH[CORN], SUGAR, SALT, BASIL PARSLEY, BLACK PEPPER, HERB BLEND[OREGANO, MARJORAM, THYME, ROSEMARY, BASIL, SAGE]), PENNE PASTA (WATER, DURUM SEMOLINA, FERROUS SULFATE OR LACTATE, THIAMINE MONONITRATE, RIBOFLAVIN, FOLIC ACID),SPINACH, WATER, MOZZARELLA CHEESE(PASTEURIZED MILK, CHEESE CULTURES, SALT, ENZYMES, POWDERED CELLULOSE AND OR POTATO STARCH [ADDED TO PREVENT CAKING], NATAMYCIN [A NATURAL MOLD INHIBITOR], CARROTS, GREEN PEPPER, CELERY, OIL BLEND(CANOLA OIL AND EXTRA OLIVE OILS), PARMESAN CHEESE (PART-SKIMMED PASTEURIZED COW'S MILK, CHEESE CULTURES, SALT, ENZYMES, RICE FLOUR AND POWDERED CELLULOSE ADDED TO PREVENT CAKING), GREEN PEAS, KALAMATA OLIVES(OLIVES, WATER, SALT, RED WINE, EXTRA VIRGIN OLIVE OIL, SUNFLOWER OIL), GARLIC, SALT, ALMOND, BASIL, MODIFIED FOOD STARCH (CORN), SUGAR, BLACK PEPPER, PARSLEY, HERB BLEND (OREGANO, MARJORAM, THYME, ROSEMARY, BASIL, SAGE)." Date available: 07/14/2017 Date last updated by company: 07/14/2017
