Source: USDA Branded Food Products Database Release December 2017 Software v.3.8.6.4 2017-10-02
Report Run at: December 18, 2017 22:12 EST
"Nutrient data for: 45201316, VEGETARIAN RICE, BEANS & CHEESE BURRITO, UPC: 762089260125"
Food Group:  Branded Food Products Database
Common Name:

Nutrient,Unit,Data points,Std. Error,"1 CONTAINER = 170.0g",1Value per 100 g,
Proximates
"Energy",kcal,--,--,340,200
"Protein",g,--,--,12.00,7.06
"Total lipid (fat)",g,--,--,8.99,5.29
"Carbohydrate, by difference",g,--,--,51.00,30.00
"Fiber, total dietary",g,--,--,4.1,2.4
"Sugars, total",g,--,--,1.00,0.59
Minerals
"Calcium, Ca",mg,--,--,100,59
"Iron, Fe",mg,--,--,2.23,1.31
"Sodium, Na",mg,--,--,500,294
Vitamins
"Vitamin C, total ascorbic acid",mg,--,--,14.8,8.7
"Vitamin A, IU",IU,--,--,411,242
Lipids
"Fatty acids, total saturated",g,--,--,3.502,2.060
"Fatty acids, total trans",g,--,--,0.000,0.000
"Cholesterol",mg,--,--,15,9
Amino Acids
Other
Ingredients
"TORTILLA (ENRICHED FLOUR [WHEAT FLOUR, MALTED BARLEY, IRON, THIAMINE MONONITRATE, RIBOFLAVIN], WATER, SOYBEAN OIL, BAKING POWDER [CORN STARCH, BAKING SODA, SODIUM ALUMINUM SULFATE, MONOCALCIUM, PHOSPHATE], SALT, CALCIUM PROPIONATE), RICE MIX (WATER, LONG GRAIN RICE [ENRICHED LONG GRAIN PARBOILED RICE, IRON (FERRIC ORTHOPHOSPHATE), NIACIN, THIAMINE (THIAMINE MONONITRATE), FOLIC ACID], CELERY, PEAS, CARROT, ONION, CANOLA OIL, CORN, VEGETARIAN BASE [VEGETABLES (CELERY, CARROTS, ONIONS), SALT, SUGAR, HYDROLYZED CORN GLUTEN WITH YEAST EXTRACT, DEHYDRATED POTATO, ONION POWDER, CARROT POWDER, NATURAL FLAVORING, DISODIUM INOSINATE, DISODIUM GUANYLATE, BEET POWDER]), BLACK BEANS (BLACK BEANS, WATER, SEA SALT), GREEN CHILI (GREEN CHILI, WATER, DICED TOMATOES [VINE-RIPENED FRESH TOMATOES, TOMATO JUICE, SALT, CALCIUM CHLORIDE AND NATURALLY DERIVED CITRIC ACID], TOMATILLO [TOMATILLO, CITRIC ACID], MODIFIED STARCH, VEGETARIAN BASE [VEGETABLES (CELERY, CARROTS, ONIONS), SALT, SUGAR, HYDROLYZED CORN GLUTEN WITH YEAST EXTRACT, DEHYDRATED POTATO, ONION POWDER, CARROT POWDER, NATURAL FLAVORING, DISODIUM INOSINATE, DISODIUM GUANYLATE, BEET POWDER] SEA SALT, CUMIN, OREGANO, BAY LEAF), CULTURES, SALT, ENZYMES]), JALAPENO GARLIC SALSA (JALAPENO PEPPER, WATER, SEA SALT, GARLIC), CILANTRO." Date available: 07/14/2017 Date last updated by company: 07/14/2017
