Source: USDA Branded Food Products Database Release December 2017 Software v.3.8.6.4 2017-10-02
Report Run at: December 18, 2017 22:13 EST
"Nutrient data for: 45323889, VEGETARIAN VEGETABLE RAMEN SOUP, UPC: 081567702163"
Food Group:  Branded Food Products Database
Common Name:

Nutrient,Unit,Data points,Std. Error,"54.0 GRM = 54.0g",1Value per 100 g,
Proximates
"Energy",kcal,--,--,200,370
"Protein",g,--,--,8.00,14.81
"Total lipid (fat)",g,--,--,2.50,4.63
"Carbohydrate, by difference",g,--,--,37.00,68.52
"Fiber, total dietary",g,--,--,0.0,0.0
"Sugars, total",g,--,--,3.00,5.56
Minerals
"Calcium, Ca",mg,--,--,32,59
"Iron, Fe",mg,--,--,1.00,1.85
"Potassium, K",mg,--,--,247,457
"Sodium, Na",mg,--,--,790,1463
Vitamins
Lipids
"Fatty acids, total saturated",g,--,--,0.000,0.000
"Fatty acids, total trans",g,--,--,0.000,0.000
"Cholesterol",mg,--,--,0,0
Amino Acids
Other
Ingredients
"ORGANIC RAMEN (ORGANIC WHEAT FLOUR, ORGANIC POTATO STARCH, SEA SALT), VEGETABLES* (CABBAGE, CHILI PEPPER, GARLIC, MUSHROOM, KOMBU SEAWEED, ONION), NATURAL FLAVORS, YEAST EXTRACTS, ORGANIC OILS (ORGANIC SUNFLOWER OIL, ORGANIC SESAME OIL), ORGANIC POTATO STARCH, MISO (SOYBEANS, RICE)*, ORGANIC CANE SUGAR, SESAME FLOUR, PEA PROTEIN." Date available: 07/14/2017 Date last updated by company: 07/14/2017
