Source: USDA Branded Food Products Database Release December 2017 Software v.3.8.6.4 2017-10-02
Report Run at: December 18, 2017 22:08 EST
"Nutrient data for: 45212410, VEGETABLE SNACK TRAY WITH CHEESE & DIP, UPC: 766375027355"
Food Group:  Branded Food Products Database
Common Name:

Nutrient,Unit,Data points,Std. Error,"1 CONTAINER = 198.0g",1Value per 100 g,
Proximates
"Energy",kcal,--,--,190,96
"Protein",g,--,--,13.01,6.57
"Total lipid (fat)",g,--,--,14.00,7.07
"Carbohydrate, by difference",g,--,--,4.00,2.02
"Fiber, total dietary",g,--,--,1.0,0.5
Minerals
"Sodium, Na",mg,--,--,226,114
Vitamins
Lipids
"Fatty acids, total saturated",g,--,--,9.009,4.550
"Cholesterol",mg,--,--,46,23
Amino Acids
Other
Ingredients
"CELERY, BABY CARROTS, GRAPE TOMATOES. CHEDDAR CHEESE: PASTEURIZED MILK, CHEESE CULTURES, SALT, ENZYMES, ANNATTO VEGETABLE COLOR (IF COLORED). SWISS CHEESE: PASTEURIZED PART-SKIM MILK, SALT, CHEESE CULTURES, ENZYMES. RANCH DIP: WATER, CULTURED BUTTERMILK, CANOLA OIL, SOUR CREAM (CULTURED MILK & CREAM, WHEY, SKIM MILK POWDER, MODIFIED CORN STARCH, MALTODEXTRIN, SODIUM PHOSPHATE, SODIUM CITRATE, GUAR GUM, CARRAGEENAN GUM, CALCIUM SULFATE, LOCUST BEAN GUM, ENZYMES), MALTODEXTRIN, SUGAR, DISTILLED VINEGAR, MODIFIED CORN STARCH, EGG YOLK, SALT, DRIED ONION, CIDER VINEGAR, DRIED CARROTS, GARLIC, YEAST EXTRACT, ARTIFICIAL COLOR, DRIED GARLIC, SOY SAUCE (WATER, WHEAT, SOYBEANS, SALT, LACTIC ACID), NATURAL FLAVOR, SPICE, XANTHAN GUM, CARRAGEENAN GUM, DRIED GREEN ONION." Date available: 10/13/2017 Date last updated by company: 10/13/2017
