Source: USDA Branded Food Products Database Release December 2017 Software v.3.8.6.4 2017-10-02
Report Run at: December 18, 2017 22:12 EST
"Nutrient data for: 45133872, Vegetarian Refried Beans - #10 Can, UNPREPARED, GTIN: 00044300106215"
Food Group:  Branded Food Products Database
Common Name:

Nutrient,Unit,Data points,Std. Error,"0.5 cup (128g) = 128.0g",1Value per 100 g,
Proximates
"Energy",kcal,--,--,120,94
"Protein",g,--,--,6.00,4.69
"Total lipid (fat)",g,--,--,2.00,1.56
"Carbohydrate, by difference",g,--,--,19.00,14.84
"Fiber, total dietary",g,--,--,6.0,4.7
"Sugars, total",g,--,--,1.00,0.78
Minerals
"Calcium, Ca",mg,--,--,20,16
"Iron, Fe",mg,--,--,1.80,1.41
"Potassium, K",mg,--,--,390,305
"Sodium, Na",mg,--,--,540,422
Vitamins
"Vitamin C, total ascorbic acid",mg,--,--,0.0,0.0
"Vitamin A, IU",IU,--,--,0,0
Lipids
"Fatty acids, total saturated",g,--,--,0.000,0.000
"Fatty acids, total monounsaturated",g,--,--,0.998,0.780
"Fatty acids, total polyunsaturated",g,--,--,0.998,0.780
"Fatty acids, total trans",g,--,--,0.000,0.000
"Cholesterol",mg,--,--,0,0
Amino Acids
Other
Ingredients
"Cooked Beans, Water, Less than 2% of: Canola Oil, Salt, Distilled Vinegar, Chile Pepper, Onion Powder, Spices, Garlic Powder, Natural Flavor. MAY CONTAIN: SOY." Date available: 10/23/2017 Date last updated by company: 10/11/2017
