Source: USDA Branded Food Products Database Release December 2017 Software v.3.8.6.4 2017-10-02
Report Run at: December 18, 2017 22:07 EST
"Nutrient data for: 45256125, VEGETABLE ROTINI, ENRICHED VEGETABLE MACARONI PRODUCT, UPC: 011110849311"
Food Group:  Branded Food Products Database
Common Name:

Nutrient,Unit,Data points,Std. Error,"0.167 BOX = 56.0g",1Value per 100 g,
Proximates
"Energy",kcal,--,--,200,357
"Protein",g,--,--,7.00,12.50
"Total lipid (fat)",g,--,--,1.00,1.79
"Carbohydrate, by difference",g,--,--,41.00,73.21
"Fiber, total dietary",g,--,--,2.0,3.6
"Sugars, total",g,--,--,2.00,3.57
Minerals
"Calcium, Ca",mg,--,--,0,0
"Iron, Fe",mg,--,--,4.50,8.04
"Sodium, Na",mg,--,--,0,0
Vitamins
"Vitamin C, total ascorbic acid",mg,--,--,37.5,67.0
"Vitamin A, IU",IU,--,--,2500,4464
Lipids
"Fatty acids, total saturated",g,--,--,0.000,0.000
"Fatty acids, total monounsaturated",g,--,--,0.000,0.000
"Fatty acids, total polyunsaturated",g,--,--,0.498,0.890
"Fatty acids, total trans",g,--,--,0.000,0.000
"Cholesterol",mg,--,--,0,0
Amino Acids
Other
Ingredients
"ENRICHED DURUM WHEAT SEMOLINA (WHEAT, IRON [FERROUS SULFATE], NIACIN, THIAMINE MONONITRATE, RIBOFLAVIN, FOLIC ACID), VEGETABLE POWDER (SPINACH, BROCCOLI, CARROT, TOMATO, BEET, SHIITAKE MUSHROOMS [FUNGI]), PAPRIKA OLEORESIN (FOR COLOR), WATERMELON AND HUITO FRUIT JUICE CONCENTRATE (FOR COLOR), TURMERIC OLEORESIN (FOR COLOR), MALTODEXTRIN, GUM ARABIC, ASCORBIC ACID." Date available: 07/14/2017 Date last updated by company: 07/14/2017
