Source: USDA Branded Food Products Database Release December 2017 Software v.3.8.6.4 2017-10-02
Report Run at: December 18, 2017 22:07 EST
"Nutrient data for: 45220344, VEGETABLE SEASONING MIX, UPC: 089836157317"
Food Group:  Branded Food Products Database
Common Name:

Nutrient,Unit,Data points,Std. Error,"2.0 tsp = 5.0g",1Value per 100 g,
Proximates
"Energy",kcal,--,--,15,300
"Protein",g,--,--,0.00,0.00
"Total lipid (fat)",g,--,--,0.00,0.00
"Carbohydrate, by difference",g,--,--,3.00,60.00
"Fiber, total dietary",g,--,--,1.0,20.0
"Sugars, total",g,--,--,1.00,20.00
Minerals
"Calcium, Ca",mg,--,--,20,400
"Iron, Fe",mg,--,--,3.60,72.00
"Sodium, Na",mg,--,--,240,4800
Vitamins
"Vitamin C, total ascorbic acid",mg,--,--,12.0,240.0
"Vitamin A, IU",IU,--,--,5000,100000
Lipids
"Fatty acids, total saturated",g,--,--,0.000,0.000
"Fatty acids, total trans",g,--,--,0.000,0.000
"Cholesterol",mg,--,--,0,0
Amino Acids
Other
Ingredients
"ORGANIC CHILI PEPPER, ORGANIC CANE SUGAR, ORGANIC CINNAMON, SEA SALT, ORGANIC ONION, ORGANIC GARLIC, ORGANIC CUMIN, ORGANIC PARSLEY, ORGANIC BLACK PEPPER, ORGANIC RICE CONCENTRATE." Date available: 07/14/2017 Date last updated by company: 07/14/2017
