Source: USDA Branded Food Products Database Release December 2017 Software v.3.8.6.4 2017-10-02
Report Run at: December 18, 2017 22:09 EST
"Nutrient data for: 45272095, VEGETABLE STEW BLEND, UPC: 078716001611"
Food Group:  Branded Food Products Database
Common Name:

Nutrient,Unit,Data points,Std. Error,"0.25 cup = 21.0g",1Value per 100 g,
Proximates
"Energy",kcal,--,--,60,286
"Protein",g,--,--,2.00,9.52
"Total lipid (fat)",g,--,--,0.00,0.00
"Carbohydrate, by difference",g,--,--,17.00,80.95
"Fiber, total dietary",g,--,--,2.0,9.5
"Sugars, total",g,--,--,4.00,19.05
Minerals
"Calcium, Ca",mg,--,--,40,190
"Iron, Fe",mg,--,--,1.71,8.16
"Sodium, Na",mg,--,--,45,214
Vitamins
"Vitamin C, total ascorbic acid",mg,--,--,100.0,476.2
"Vitamin A, IU",IU,--,--,5357,25510
Lipids
"Fatty acids, total saturated",g,--,--,0.000,0.000
"Fatty acids, total trans",g,--,--,0.000,0.000
"Cholesterol",mg,--,--,0,0
Amino Acids
Other
Ingredients
"POTATO DICES, CABBAGE FLAKES, CHOPPED ONION, CARROT DICED, CELERY SLICES, RED AND GREEN BELL PEPPERS." Date available: 07/14/2017 Date last updated by company: 07/14/2017
