Source: USDA Branded Food Products Database Release December 2017 Software v.3.8.6.4 2017-10-02
Report Run at: December 18, 2017 21:58 EST
"Nutrient data for: 45136403, VEGETABLE BROTH, UPC: 052603054379"
Food Group:  Branded Food Products Database
Common Name:

Nutrient,Unit,Data points,Std. Error,"1 cup = 250.0g",1Value per 100 g,
Proximates
"Energy",kcal,--,--,15,6
"Protein",g,--,--,0.40,0.16
"Total lipid (fat)",g,--,--,0.10,0.04
"Carbohydrate, by difference",g,--,--,4.00,1.60
"Fiber, total dietary",g,--,--,1.0,0.4
"Sugars, total",g,--,--,2.00,0.80
Minerals
"Calcium, Ca",mg,--,--,20,8
"Iron, Fe",mg,--,--,0.35,0.14
"Sodium, Na",mg,--,--,140,56
Vitamins
"Vitamin C, total ascorbic acid",mg,--,--,0.0,0.0
"Vitamin A, IU",IU,--,--,1500,600
Lipids
"Fatty acids, total saturated",g,--,--,0.000,0.000
"Fatty acids, total trans",g,--,--,0.000,0.000
"Cholesterol",mg,--,--,0,0
Amino Acids
Other
Ingredients
"WATER, CARROTS*, ONION*, CELERY*, TOMATOES*, LEEKS*, MUSHROOMS*, GARLIC*, SEA SALT, SAVORY LEAF*, GROUND BAY LEAF*." Date available: 06/25/2017 Date last updated by company: 06/25/2017
