Source: USDA Branded Food Products Database Release December 2017 Software v.3.8.6.4 2017-10-02
Report Run at: December 18, 2017 22:10 EST
"Nutrient data for: 45227989, VEGETABLE TAGINE, UPC: 857938005887"
Food Group:  Branded Food Products Database
Common Name:

Nutrient,Unit,Data points,Std. Error,"1 MEAL = 262.0g",1Value per 100 g,
Proximates
"Energy",kcal,--,--,241,92
"Protein",g,--,--,9.01,3.44
"Total lipid (fat)",g,--,--,7.00,2.67
"Carbohydrate, by difference",g,--,--,43.99,16.79
"Fiber, total dietary",g,--,--,5.0,1.9
"Sugars, total",g,--,--,6.00,2.29
Minerals
"Calcium, Ca",mg,--,--,60,23
"Iron, Fe",mg,--,--,1.34,0.51
"Sodium, Na",mg,--,--,380,145
Vitamins
"Vitamin C, total ascorbic acid",mg,--,--,44.5,17.0
"Vitamin A, IU",IU,--,--,372,142
Lipids
"Fatty acids, total saturated",g,--,--,1.991,0.760
"Fatty acids, total trans",g,--,--,0.000,0.000
"Cholesterol",mg,--,--,0,0
Amino Acids
Other
Ingredients
"MIXED GRILLED VEGETABLES (ZUCCHINI, EGGPLANT, YELLOW PEPPERS, RED PEPPERS), WATER, JADE RICE BLEND (BAMBOO RICE [SHORT GRAIN WHITE RICE, BAMBOO EXTRACT], WHEAT BERRIES, BASMATI RICE, GREEN LENTILS, SPLIT BABY GARBANZO BEANS, DAIKON RADISH SEED), COCONUT MILK (COCONUT MILK, WATER),PINEAPPLE TIDBITS IN JUICE (PINEAPPLE, PINEAPPLE JUICE), ALMONDS, SWEET POTATOES, ONION, RAISINS, SPICES, CLOVER HONEY, CILANTRO, TOMATO PASTE, VEGETABLE BASE (VEGETABLES [ONIONS, TOMATOES, POTATOES, CARROTS, CELERY], SALT, YEAST EXTRACT, CORN STARCH, VEGETABLE OIL [CORN, SOY, CANOLA], ONION POWDER, SUGAR, NATURAL FLAVORING), BLEND OF CANOLA AND EXTRA VIRGIN OLIVE OIL, SALT, GARLIC (GARLIC, WATER), LEMON JUICE, LIME JUICE, SUGAR, CORN STARCH, TURMERIC." Date available: 07/14/2017 Date last updated by company: 07/14/2017
