Source: USDA Branded Food Products Database Release December 2017 Software v.3.8.6.4 2017-10-02
Report Run at: December 18, 2017 22:19 EST
"Nutrient data for: 45151761, VEGGIE STRAWS, UPC: 041780001528"
Food Group:  Branded Food Products Database
Common Name:

Nutrient,Unit,Data points,Std. Error,"1 BAG = 56.7g",1Value per 100 g,
Proximates
"Energy",kcal,--,--,260,459
"Protein",g,--,--,2.00,3.53
"Total lipid (fat)",g,--,--,12.00,21.16
"Carbohydrate, by difference",g,--,--,36.00,63.49
"Fiber, total dietary",g,--,--,0.0,0.0
"Sugars, total",g,--,--,0.00,0.00
Minerals
"Calcium, Ca",mg,--,--,0,0
"Iron, Fe",mg,--,--,0.00,0.00
"Potassium, K",mg,--,--,340,600
"Sodium, Na",mg,--,--,400,705
Vitamins
"Vitamin C, total ascorbic acid",mg,--,--,0.0,0.0
"Vitamin A, IU",IU,--,--,0,0
Lipids
"Fatty acids, total saturated",g,--,--,0.998,1.760
"Fatty acids, total monounsaturated",g,--,--,7.002,12.350
"Fatty acids, total polyunsaturated",g,--,--,3.997,7.050
"Fatty acids, total trans",g,--,--,0.000,0.000
"Cholesterol",mg,--,--,0,0
Amino Acids
Other
Ingredients
"POTATO STARCH, DEHYDRATED POTATO. HIGH OLEIC EXPELLER PRESSED SUNFLOWER OIL OR SAFFLOWER OIL, CORN STARCH, SALT, DEHYDRATED VEGETABLES (TOMATO, PARSLEY POWDER, GREEN PEPPER POWDER, SPINACH POWDER, CELERY POWDER, GARLIC POWDER), VEGETABLE EXTRACTS FOR COLORING (TURMERIC, RADISH, APPLE, BLACKCURRANT, PAPRIKA), POTASSIUM CHLORIDE, SEA SALT." Date available: 07/14/2017 Date last updated by company: 07/14/2017
