Source: USDA Branded Food Products Database Release December 2017 Software v.3.8.6.4 2017-10-02
Report Run at: December 18, 2017 22:16 EST
"Nutrient data for: 45173641, VEGGIE FUSIONS GUACAMOLE + VEGGIES, UPC: 040822343664"
Food Group:  Branded Food Products Database
Common Name:

Nutrient,Unit,Data points,Std. Error,"2.0 Tbsp = 31.0g",1Value per 100 g,
Proximates
"Energy",kcal,--,--,35,113
"Protein",g,--,--,1.00,3.23
"Total lipid (fat)",g,--,--,3.00,9.68
"Carbohydrate, by difference",g,--,--,3.00,9.68
"Fiber, total dietary",g,--,--,2.0,6.5
"Sugars, total",g,--,--,1.00,3.23
Minerals
"Calcium, Ca",mg,--,--,0,0
"Iron, Fe",mg,--,--,0.00,0.00
"Sodium, Na",mg,--,--,125,403
Vitamins
"Vitamin C, total ascorbic acid",mg,--,--,33.9,109.3
"Vitamin A, IU",IU,--,--,645,2081
Lipids
"Fatty acids, total saturated",g,--,--,0.000,0.000
"Fatty acids, total trans",g,--,--,0.000,0.000
"Cholesterol",mg,--,--,0,0
Amino Acids
Other
Ingredients
"HASS AVOCADO, ONION, CARROT, TOMATO, RED BELL PEPPER, YELLOW SQUASH, JALAPENO PEPPER, BASIL, SALT, PARSLEY, LIME JUICE POWDER, ASCORBIC ACID (ADDED TO MAINTAIN FRESHNESS), LIME JUICE CONCENTRATE." Date available: 07/14/2017 Date last updated by company: 07/14/2017
