Source: USDA Branded Food Products Database Release December 2017 Software v.3.8.6.4 2017-10-02
Report Run at: December 18, 2017 22:16 EST
"Nutrient data for: 45024464, VEGGIE-GO'S, ORGANIC CINNAMON SPICED BEET SNACKS, BEETS APPLES, UPC: 094723500039"
Food Group:  Branded Food Products Database
Common Name:

Nutrient,Unit,Data points,Std. Error,"15.0 PACKAGE = 12.0g",1Value per 100 g,
Proximates
"Energy",kcal,--,--,15,125
"Protein",g,--,--,0.00,0.00
"Total lipid (fat)",g,--,--,0.00,0.00
"Carbohydrate, by difference",g,--,--,5.00,41.67
"Fiber, total dietary",g,--,--,1.0,8.3
"Sugars, total",g,--,--,2.00,16.67
Minerals
"Calcium, Ca",mg,--,--,0,0
"Iron, Fe",mg,--,--,0.75,6.25
"Sodium, Na",mg,--,--,15,125
Vitamins
"Vitamin C, total ascorbic acid",mg,--,--,10.0,83.3
"Vitamin A, IU",IU,--,--,2083,17362
Lipids
"Fatty acids, total saturated",g,--,--,0.000,0.000
"Fatty acids, total trans",g,--,--,0.000,0.000
"Cholesterol",mg,--,--,0,0
Amino Acids
Other
Ingredients
"ORGANIC CINNAMON SPICED BEET PUREE (ORGANIC APPLES, ORGANIC BEETS, ORGANIC SWEET POTATOES, ORGANIC LEMON JUICE CONCENTRATE, ORGANIC CINNAMON), ORGANIC FLAX SEEDS" Date available: 07/06/2017 Date last updated by company: 07/06/2017
