Source: USDA Branded Food Products Database Release December 2017 Software v.3.8.6.4 2017-10-02
Report Run at: December 18, 2017 22:18 EST
"Nutrient data for: 45262607, VEGGIE SPRING MIX SALAD, UPC: 071279281049"
Food Group:  Branded Food Products Database
Common Name:

Nutrient,Unit,Data points,Std. Error,"2.5 cup = 85.0g",1Value per 100 g,
Proximates
"Energy",kcal,--,--,20,24
"Protein",g,--,--,1.00,1.18
"Total lipid (fat)",g,--,--,0.00,0.00
"Carbohydrate, by difference",g,--,--,4.00,4.71
"Fiber, total dietary",g,--,--,1.0,1.2
"Sugars, total",g,--,--,2.00,2.35
Minerals
"Calcium, Ca",mg,--,--,60,71
"Iron, Fe",mg,--,--,1.08,1.27
"Potassium, K",mg,--,--,240,282
"Sodium, Na",mg,--,--,50,59
Vitamins
"Vitamin C, total ascorbic acid",mg,--,--,12.0,14.1
"Vitamin A, IU",IU,--,--,4000,4706
Lipids
"Fatty acids, total saturated",g,--,--,0.000,0.000
"Fatty acids, total trans",g,--,--,0.000,0.000
"Cholesterol",mg,--,--,0,0
Amino Acids
Other
Ingredients
"CARROTS, RED CABBAGE, RADISHES, GREEN ROMAINE LETTUCE, GREEN LEAF LETTUCE, GREEN OAK LETTUCE, RED ROMAINE LETTUCE, RED LEAF LETTUCE, RED OAK LETTUCE, TANGO LETTUCE, LOLLA ROSSA LETTUCA, SPINACH, RED BOK CHOY, ARUGULA, AND MIZUNA." Date available: 07/14/2017 Date last updated by company: 07/14/2017
