Source: USDA Branded Food Products Database Release December 2017 Software v.3.8.6.4 2017-10-02
Report Run at: December 18, 2017 22:16 EST
"Nutrient data for: 45017312, VEGGIE-GO'S, ORGANIC CHEWY FRUIT & VEGGIE SNACKS, CARROTS APPLES GINGER PERIOD, UPC: 094723500077"
Food Group:  Branded Food Products Database
Common Name:

Nutrient,Unit,Data points,Std. Error,"1 PACKAGE = 12.0g",1Value per 100 g,
Proximates
"Energy",kcal,--,--,20,167
"Protein",g,--,--,0.00,0.00
"Total lipid (fat)",g,--,--,0.00,0.00
"Carbohydrate, by difference",g,--,--,5.00,41.67
"Fiber, total dietary",g,--,--,1.0,8.3
"Sugars, total",g,--,--,4.00,33.33
Minerals
"Calcium, Ca",mg,--,--,0,0
"Iron, Fe",mg,--,--,0.00,0.00
"Sodium, Na",mg,--,--,10,83
Vitamins
"Vitamin C, total ascorbic acid",mg,--,--,12.0,100.0
"Vitamin A, IU",IU,--,--,10000,83333
Lipids
"Fatty acids, total saturated",g,--,--,0.000,0.000
"Fatty acids, total trans",g,--,--,0.000,0.000
"Cholesterol",mg,--,--,0,0
Amino Acids
Other
Ingredients
"ORGANIC CARROT GINGER PUREE (ORGANIC APPLES, ORGANIC CARROTS, ORGANIC GINGER)." Date available: 06/25/2017 Date last updated by company: 06/25/2017
