Source: USDA Branded Food Products Database Release December 2017 Software v.3.8.6.4 2017-10-02
Report Run at: December 18, 2017 22:14 EST
"Nutrient data for: 45151265, VEGGIE CHIPS, UPC: 034952586138"
Food Group:  Branded Food Products Database
Common Name:

Nutrient,Unit,Data points,Std. Error,"0.666 cup = 30.0g",1Value per 100 g,
Proximates
"Energy",kcal,--,--,160,533
"Protein",g,--,--,1.00,3.33
"Total lipid (fat)",g,--,--,9.00,30.00
"Carbohydrate, by difference",g,--,--,19.00,63.33
"Fiber, total dietary",g,--,--,3.0,10.0
"Sugars, total",g,--,--,1.00,3.33
Minerals
"Calcium, Ca",mg,--,--,40,133
"Iron, Fe",mg,--,--,0.60,2.00
"Sodium, Na",mg,--,--,150,500
Vitamins
"Vitamin C, total ascorbic acid",mg,--,--,0.0,0.0
"Vitamin A, IU",IU,--,--,3750,12500
Lipids
"Fatty acids, total saturated",g,--,--,0.501,1.670
"Fatty acids, total trans",g,--,--,0.000,0.000
"Cholesterol",mg,--,--,0,0
Amino Acids
Other
Ingredients
"CARROTS, TARO, PUMPKIN, STRING BEANS, SWEET POTATO, CANOLA OIL, SALT, DEXTRIN, VITAMIN E." Date available: 07/14/2017 Date last updated by company: 07/14/2017
