Source: USDA Branded Food Products Database Release December 2017 Software v.3.8.6.4 2017-10-02
Report Run at: December 18, 2017 22:13 EST
"Nutrient data for: 45222302, VEGGE SKINNIEZ, UPC: 858641003160"
Food Group:  Branded Food Products Database
Common Name:

Nutrient,Unit,Data points,Std. Error,"22.0 CHIPS | ABOUT = 28.0g",1Value per 100 g,
Proximates
"Energy",kcal,--,--,130,464
"Protein",g,--,--,1.00,3.57
"Total lipid (fat)",g,--,--,4.50,16.07
"Carbohydrate, by difference",g,--,--,21.00,75.00
"Fiber, total dietary",g,--,--,1.0,3.6
"Sugars, total",g,--,--,1.00,3.57
Minerals
"Calcium, Ca",mg,--,--,0,0
"Iron, Fe",mg,--,--,0.64,2.29
"Sodium, Na",mg,--,--,320,1143
Vitamins
"Vitamin C, total ascorbic acid",mg,--,--,0.0,0.0
"Vitamin A, IU",IU,--,--,0,0
Lipids
"Fatty acids, total saturated",g,--,--,0.000,0.000
"Fatty acids, total trans",g,--,--,0.000,0.000
"Cholesterol",mg,--,--,0,0
Amino Acids
Other
Ingredients
"POTATO GRANULES, EXPELLER PRESSED SAFFLOWER OIL, POTATO STARCH, POTATO FLAKES, EVAPORATED CANE JUICE POWDER, SALT, SUGAR, RICE FLOUR, SPINACH POWDER, TOMATO POWDER, BEETROOT POWDER, YEAST EXTRACT, ONION POWDER, TOMATO POWDER, SPICES, PAPRIKA, NATURAL FLAVORS, GARLIC POWDER, EXTRACT OF PAPRIKA, CITRIC ACID" Date available: 07/14/2017 Date last updated by company: 07/14/2017
