Source: USDA Branded Food Products Database Release December 2017 Software v.3.8.6.4 2017-10-02
Report Run at: December 18, 2017 22:20 EST
"Nutrient data for: 45231601, VELVEETA, SHREDS, CHEDDAR, UPC: 021000045006"
Food Group:  Branded Food Products Database
Common Name:

Nutrient,Unit,Data points,Std. Error,"0.25 cup = 28.0g",1Value per 100 g,
Proximates
"Energy",kcal,--,--,60,214
"Protein",g,--,--,5.00,17.86
"Total lipid (fat)",g,--,--,3.00,10.71
"Carbohydrate, by difference",g,--,--,3.00,10.71
"Fiber, total dietary",g,--,--,0.0,0.0
"Sugars, total",g,--,--,1.00,3.57
Minerals
"Calcium, Ca",mg,--,--,150,536
"Iron, Fe",mg,--,--,0.00,0.00
"Sodium, Na",mg,--,--,460,1643
Vitamins
"Vitamin C, total ascorbic acid",mg,--,--,0.0,0.0
"Vitamin A, IU",IU,--,--,500,1786
Lipids
"Fatty acids, total saturated",g,--,--,1.999,7.140
"Fatty acids, total trans",g,--,--,0.000,0.000
"Cholesterol",mg,--,--,15,54
Amino Acids
Other
Ingredients
"MILK, WATER, WHEY, MILK PROTEIN CONCENTRATE, MODIFIED FOOD STARCH, GELATIN, MILKFAT, SODIUM PHOSPHATE, SALT, MALTODEXTRIN, LACTIC ACID, SODIUM ALGINATE, SORBIC ACID AS A PRESERVATIVE, CHEESE CULTURE, ENZYMES, APOCAROTENAL (COLOR), WITH POTATO STARCH, CELL" Date available: 09/23/2016 Date last updated by company: 09/23/2016
