Source: USDA Branded Food Products Database Release December 2017 Software v.3.8.6.4 2017-10-02
Report Run at: December 18, 2017 22:24 EST
"Nutrient data for: 45316308, VERMONT SHARP WHITE CHEDDAR CHEESE, UPC: 078354716496"
Food Group:  Branded Food Products Database
Common Name:

Nutrient,Unit,Data points,Std. Error,"4.0 SLICES = 31.0g",1Value per 100 g,
Proximates
"Energy",kcal,--,--,120,387
"Protein",g,--,--,8.00,25.81
"Total lipid (fat)",g,--,--,10.00,32.26
"Carbohydrate, by difference",g,--,--,1.00,3.23
Minerals
"Calcium, Ca",mg,--,--,212,684
"Sodium, Na",mg,--,--,220,710
Vitamins
Lipids
"Fatty acids, total saturated",g,--,--,5.998,19.350
"Cholesterol",mg,--,--,30,97
Amino Acids
Other
Ingredients
"FRESH PASTEURIZED MILK, CHEESE CULTURES, SALT, ENZYMES." Date available: 09/25/2017 Date last updated by company: 09/25/2017
