Source: USDA Branded Food Products Database Release December 2017 Software v.3.8.6.4 2017-10-02
Report Run at: December 18, 2017 22:24 EST
"Nutrient data for: 45232702, VERMONT VILLAGE APPLESAUCE, ORGANIC UNSWEETENED APPLESAUCE, UPC: 084648311285"
Food Group:  Branded Food Products Database
Common Name:

Nutrient,Unit,Data points,Std. Error,"4.0 ONZ = 113.0g",1Value per 100 g,
Proximates
"Energy",kcal,--,--,50,44
"Protein",g,--,--,0.99,0.88
"Total lipid (fat)",g,--,--,0.00,0.00
"Carbohydrate, by difference",g,--,--,12.00,10.62
"Fiber, total dietary",g,--,--,2.0,1.8
"Sugars, total",g,--,--,12.99,11.50
Minerals
"Sodium, Na",mg,--,--,0,0
Vitamins
Lipids
Amino Acids
Other
Ingredients
"ORGANIC APPLES, VITAMIN C." Date available: 07/14/2017 Date last updated by company: 07/14/2017
