Source: USDA Branded Food Products Database Release December 2017 Software v.3.8.6.4 2017-10-02
Report Run at: December 18, 2017 22:22 EST
"Nutrient data for: 45093124, VERMENT CREAMERY, EUROPEAN STYLE SEA SALT CRYSTALS CULTURED BUTTER, UPC: 011826800071"
Food Group:  Branded Food Products Database
Common Name:

Nutrient,Unit,Data points,Std. Error,"1 Tbsp = 14.0g",1Value per 100 g,
Proximates
"Energy",kcal,--,--,110,786
"Protein",g,--,--,0.00,0.00
"Total lipid (fat)",g,--,--,12.00,85.71
"Carbohydrate, by difference",g,--,--,0.00,0.00
"Fiber, total dietary",g,--,--,0.0,0.0
"Sugars, total",g,--,--,0.00,0.00
Minerals
"Calcium, Ca",mg,--,--,0,0
"Iron, Fe",mg,--,--,0.00,0.00
"Sodium, Na",mg,--,--,55,393
Vitamins
"Vitamin C, total ascorbic acid",mg,--,--,0.0,0.0
"Vitamin A, IU",IU,--,--,1353,9661
Lipids
"Fatty acids, total saturated",g,--,--,7.000,50.000
"Fatty acids, total trans",g,--,--,0.000,0.000
"Cholesterol",mg,--,--,30,214
Amino Acids
Other
Ingredients
"PASTEURIZED COWS CREAM (MILK), SEA SALT, SALT, CULTURES." Date available: 06/25/2017 Date last updated by company: 06/25/2017
