Source: USDA Branded Food Products Database Release December 2017 Software v.3.8.6.4 2017-10-02
Report Run at: December 18, 2017 22:26 EST
"Nutrient data for: 45138435, VERYFINE, JUICE DRINK BLEND, MIXED BERRY, UPC: 070590947009"
Food Group:  Branded Food Products Database
Common Name:

Nutrient,Unit,Data points,Std. Error,"8.0 OZA = 240.0g",1Value per 100 g,
Proximates
"Energy",kcal,--,--,60,25
"Protein",g,--,--,0.00,0.00
"Total lipid (fat)",g,--,--,0.00,0.00
"Carbohydrate, by difference",g,--,--,16.01,6.67
"Sugars, total",g,--,--,15.00,6.25
Minerals
"Sodium, Na",mg,--,--,29,12
Vitamins
"Vitamin C, total ascorbic acid",mg,--,--,60.0,25.0
Lipids
Amino Acids
Other
Ingredients
"FILTERED WATER, CORN SYRUP, CONTAINS LESS THAN 2% OF PEAR AND APPLE JUICE CONCENTRATES, NATURAL AND ARTIFICIAL FLAVOR, ASCORBIC ACID (VITAMIN C), CITRIC ACID, MALIC ACID, SUCRALOSE, CITRUS PECTIN, SODIUM CITRATE, GUM ARABIC, GLYCEROL ESTER OF WOOD ROSIN, BLUE 1 AND CALCIUM DISODIUM EDTA TO PROTECT COLOR." Date available: 07/14/2017 Date last updated by company: 07/14/2017
