Source: USDA Branded Food Products Database Release December 2017 Software v.3.8.6.4 2017-10-02
Report Run at: December 18, 2017 22:31 EST
"Nutrient data for: 45015906, VICTORIA, SWEETY PEPPERS FOR SNADWICHES & SALADS, SWEET 'N SPICY, UPC: 070234001609"
Food Group:  Branded Food Products Database
Common Name:

Nutrient,Unit,Data points,Std. Error,"4.0 PIECES) | ( = 30.0g",1Value per 100 g,
Proximates
"Energy",kcal,--,--,35,117
"Protein",g,--,--,0.00,0.00
"Total lipid (fat)",g,--,--,0.00,0.00
"Carbohydrate, by difference",g,--,--,9.00,30.00
"Fiber, total dietary",g,--,--,0.0,0.0
"Sugars, total",g,--,--,8.00,26.67
Minerals
"Calcium, Ca",mg,--,--,0,0
"Iron, Fe",mg,--,--,0.60,2.00
"Sodium, Na",mg,--,--,85,283
Vitamins
"Vitamin C, total ascorbic acid",mg,--,--,50.0,166.7
"Vitamin A, IU",IU,--,--,166,555
Lipids
"Fatty acids, total saturated",g,--,--,0.000,0.000
"Fatty acids, total trans",g,--,--,0.000,0.000
"Cholesterol",mg,--,--,0,0
Amino Acids
Other
Ingredients
"RED CHERRY PEPPER, WATER, SUGAR, VINEGAR, SALT, ASCORBIC ACID, CALCIUM CHLORIDE." Date available: 06/25/2017 Date last updated by company: 06/25/2017
