Source: USDA Branded Food Products Database Release December 2017 Software v.3.8.6.4 2017-10-02
Report Run at: December 18, 2017 22:30 EST
"Nutrient data for: 45015909, VICTORIA, MARINATED MUSHROOMS WITH OLIVE OIL AND VINEGAR MARINADE, UPC: 070234000787"
Food Group:  Branded Food Products Database
Common Name:

Nutrient,Unit,Data points,Std. Error,"0.25 cup = 30.0g",1Value per 100 g,
Proximates
"Energy",kcal,--,--,30,100
"Protein",g,--,--,1.00,3.33
"Total lipid (fat)",g,--,--,2.00,6.67
"Carbohydrate, by difference",g,--,--,1.00,3.33
Minerals
"Sodium, Na",mg,--,--,350,1167
Vitamins
Lipids
"Fatty acids, total saturated",g,--,--,0.000,0.000
"Fatty acids, total trans",g,--,--,0.000,0.000
"Cholesterol",mg,--,--,0,0
Amino Acids
Other
Ingredients
"MUSHROOMS, FILTERED WATER, VINEGAR, ITALIAN OLIVE OIL / CANOLA OIL, SEA SALT, GARLIC, SPICES, 1/10 OF 1% BENZOATE OF SODA, POTASSIUM SORBATE (AS A PRESERVATIVE), SODIUM BISULFITE (TO RETAIN COLOR), AND FD&C YELLOW #5." Date available: 09/01/2017 Date last updated by company: 09/01/2017
