Source: USDA Branded Food Products Database Release December 2017 Software v.3.8.6.4 2017-10-02
Report Run at: December 18, 2017 22:31 EST
"Nutrient data for: 45140222, VICTORIA TRADING COMPANY, SLOW COOKED CHOPPED TOMATO BASIL SAUCE, UPC: 070234224701"
Food Group:  Branded Food Products Database
Common Name:

Nutrient,Unit,Data points,Std. Error,"0.5 cup = 113.0g",1Value per 100 g,
Proximates
"Energy",kcal,--,--,70,62
"Protein",g,--,--,2.00,1.77
"Total lipid (fat)",g,--,--,4.00,3.54
"Carbohydrate, by difference",g,--,--,6.00,5.31
"Fiber, total dietary",g,--,--,1.0,0.9
"Sugars, total",g,--,--,4.00,3.54
Minerals
"Calcium, Ca",mg,--,--,20,18
"Iron, Fe",mg,--,--,0.32,0.28
"Sodium, Na",mg,--,--,420,372
Vitamins
"Vitamin C, total ascorbic acid",mg,--,--,2.1,1.9
"Vitamin A, IU",IU,--,--,332,294
Lipids
"Fatty acids, total saturated",g,--,--,0.000,0.000
"Fatty acids, total trans",g,--,--,0.000,0.000
"Cholesterol",mg,--,--,0,0
Amino Acids
Other
Ingredients
"TOMATOES, ONIONS, OLIVE OIL, BASIL, SALT, GARLIC, SPICES, CALCIUM CHLORIDE." Date available: 07/14/2017 Date last updated by company: 07/14/2017
