Source: USDA Branded Food Products Database Release December 2017 Software v.3.8.6.4 2017-10-02
Report Run at: December 18, 2017 22:29 EST
"Nutrient data for: 45021447, VICTORIA, CHICAGO STYLE HOT GIARDENIERA, UPC: 070234005539"
Food Group:  Branded Food Products Database
Common Name:

Nutrient,Unit,Data points,Std. Error,"1 ONZ = 28.0g",1Value per 100 g,
Proximates
"Energy",kcal,--,--,90,321
"Protein",g,--,--,1.00,3.57
"Total lipid (fat)",g,--,--,9.00,32.14
"Carbohydrate, by difference",g,--,--,1.00,3.57
Minerals
"Sodium, Na",mg,--,--,170,607
Vitamins
Lipids
"Fatty acids, total saturated",g,--,--,0.000,0.000
"Fatty acids, total trans",g,--,--,0.000,0.000
"Cholesterol",mg,--,--,0,0
Amino Acids
Other
Ingredients
"SERRANO PEPPERS, CANOLA OIL, OLIVE OIL, CELERY, RED PEPPERS, CARROTS, WATER, CAULIFLOWER, OLIVES, SALT, VINEGAR, SPICES, ONIONS, CALCIUM CHLORIDE, SODIUM BENZOATE, AND SODIUM BISULFITE (USED TO RETAIN COLOR)." Date available: 06/25/2017 Date last updated by company: 06/25/2017
