Source: USDA Branded Food Products Database Release December 2017 Software v.3.8.6.4 2017-10-02
Report Run at: December 18, 2017 22:31 EST
"Nutrient data for: 45161749, VICTORIA'S KITCHEN, ALMOND WATER BEVERAGE, ORIGINAL, VANILLA & ROSE, UPC: 850056005005"
Food Group:  Branded Food Products Database
Common Name:

Nutrient,Unit,Data points,Std. Error,"8.0 OZA = 237.0g",1Value per 100 g,
Proximates
"Energy",kcal,--,--,55,23
"Protein",g,--,--,0.00,0.00
"Total lipid (fat)",g,--,--,0.00,0.00
"Carbohydrate, by difference",g,--,--,15.00,6.33
"Sugars, total",g,--,--,15.00,6.33
Minerals
"Sodium, Na",mg,--,--,0,0
Vitamins
Lipids
Amino Acids
Other
Ingredients
"PURIFIED WATER, CANE SUGAR, NATURAL FLAVORS, NATURAL EXTRACTS (ALMOND, VANILLA, AND ROSE), CITRIC ACID." Date available: 07/14/2017 Date last updated by company: 07/14/2017
