Source: USDA Branded Food Products Database Release December 2017 Software v.3.8.6.4 2017-10-02
Report Run at: December 18, 2017 22:33 EST
"Nutrient data for: 45241948, VIEIRA, MARIE BISCUIT, UPC: 5601008100362"
Food Group:  Branded Food Products Database
Common Name:

Nutrient,Unit,Data points,Std. Error,"5.0 COOKIES = 31.0g",1Value per 100 g,
Proximates
"Energy",kcal,--,--,130,419
"Protein",g,--,--,3.00,9.68
"Total lipid (fat)",g,--,--,3.00,9.68
"Carbohydrate, by difference",g,--,--,24.00,77.42
"Fiber, total dietary",g,--,--,1.0,3.2
"Sugars, total",g,--,--,6.00,19.35
Minerals
"Calcium, Ca",mg,--,--,0,0
"Iron, Fe",mg,--,--,1.16,3.75
"Sodium, Na",mg,--,--,140,452
Vitamins
"Vitamin C, total ascorbic acid",mg,--,--,0.0,0.0
"Vitamin A, IU",IU,--,--,0,0
Lipids
"Fatty acids, total saturated",g,--,--,1.500,4.840
"Fatty acids, total trans",g,--,--,0.000,0.000
"Cholesterol",mg,--,--,0,0
Amino Acids
Other
Ingredients
"WHEAT FLOUR, SUGAR, VEGETABLE FAT (PALM FAT), GLUCOSE, FRUCTOSE SYRUP (FROM MAIZE STARCH), MAIZE STARCH, CHEMICAL RAISING AGENTS (AMMONIUM BICARBONATE AND SODIUM BICARBONATE), POWDERED FULL CREAM MILK, MALT EXTRACT, SALT, EMULSIFIER (SOYA LECITHIN), ARTIFICIAL FLAVORS, (BUTTER, CANE SUGAR, VANILLA), ANTIOXIDANT (SODIUM METABISULPHITE)." Date available: 06/25/2017 Date last updated by company: 06/25/2017
