Source: USDA Branded Food Products Database Release December 2017 Software v.3.8.6.4 2017-10-02
Report Run at: December 18, 2017 22:34 EST
"Nutrient data for: 45291135, VIETNAMESE INSPIRED PHO BEEF BROTH, UPC: 854285000121"
Food Group:  Branded Food Products Database
Common Name:

Nutrient,Unit,Data points,Std. Error,"1 cup = 244.0g",1Value per 100 g,
Proximates
"Energy",kcal,--,--,44,18
"Protein",g,--,--,5.00,2.05
"Total lipid (fat)",g,--,--,1.00,0.41
"Carbohydrate, by difference",g,--,--,1.00,0.41
"Fiber, total dietary",g,--,--,0.0,0.0
"Sugars, total",g,--,--,2.00,0.82
Minerals
"Calcium, Ca",mg,--,--,0,0
"Iron, Fe",mg,--,--,0.00,0.00
"Potassium, K",mg,--,--,49,20
"Sodium, Na",mg,--,--,639,262
Vitamins
"Vitamin C, total ascorbic acid",mg,--,--,0.0,0.0
"Vitamin A, IU",IU,--,--,0,0
Lipids
"Fatty acids, total saturated",g,--,--,1.000,0.410
"Fatty acids, total trans",g,--,--,0.000,0.000
"Cholesterol",mg,--,--,0,0
Amino Acids
Other
Ingredients
"BEEF STOCK, ORGANIC CANE SUGAR, SALT, FISH SAUCE [ANCHOVY (FISH), SALT, WATER, SUGAR)], GINGER JUICE, YEAST EXTRACT, NATURAL FLAVOR, SPICES (INCLUDING CINNAMON, GINGER, STAR ANISE), ONION POWDER, CARAMEL COLOR & GARLIC POWDER." Date available: 07/14/2017 Date last updated by company: 07/14/2017
