Source: USDA Branded Food Products Database Release December 2017 Software v.3.8.6.4 2017-10-02
Report Run at: December 18, 2017 22:35 EST
"Nutrient data for: 45081595, VIGO, SANTA FE BEANS & RICE WITH CORN, UPC: 071072012987"
Food Group:  Branded Food Products Database
Common Name:

Nutrient,Unit,Data points,Std. Error,"1 CUP PREPARED | ABOUT = 58.0g",1Value per 100 g,
Proximates
"Energy",kcal,--,--,200,345
"Protein",g,--,--,8.00,13.79
"Total lipid (fat)",g,--,--,2.00,3.45
"Carbohydrate, by difference",g,--,--,38.00,65.52
"Fiber, total dietary",g,--,--,3.0,5.2
"Sugars, total",g,--,--,4.00,6.90
Minerals
"Calcium, Ca",mg,--,--,100,172
"Iron, Fe",mg,--,--,2.33,4.01
"Sodium, Na",mg,--,--,950,1638
Vitamins
"Vitamin C, total ascorbic acid",mg,--,--,0.0,0.0
"Thiamin",mg,--,--,0.000,0.000
"Niacin",mg,--,--,1.380,2.379
"Vitamin A, IU",IU,--,--,0,0
Lipids
"Fatty acids, total saturated",g,--,--,0.499,0.860
"Fatty acids, total trans",g,--,--,0.000,0.000
"Cholesterol",mg,--,--,0,0
Amino Acids
Other
Ingredients
"ENRICHED RICE (NIACIN, IRON (FERRIC ORTHOPHOSPHATE), THIAMIN MONONITRATE, FOLIC ACID), PINTO BEANS, DEHYDRATED VEGETABLES (CORN, ONION, GARLIC, BELL PEPPER, TOMATO, CILANTRO, PARSLEY), SALT. CONTAINS 2% OR LESS OF: CORN MEAL, HYDROLYZED CORN PROTEIN, SPICES, MONOSODIUM GLUTAMATE, SUGAR, MALTODEXTRIN (FROM CORN), DEHYDRATED CHICKEN, TORULA YEAST, GROUND CHILI, TURMERIC, DISODIUM INOSINATE, DISODIUM GUANYLATE, SODIUM ALUMINOSILICATE (ANTI-CAKING AGENT), CELERY EXTRACT." Date available: 07/14/2017 Date last updated by company: 07/14/2017
