Source: USDA Branded Food Products Database Release December 2017 Software v.3.8.6.4 2017-10-02
Report Run at: December 18, 2017 22:38 EST
"Nutrient data for: 45238996, VINAIGRETTE, UPC: 021130480739"
Food Group:  Branded Food Products Database
Common Name:

Nutrient,Unit,Data points,Std. Error,"2.0 Tbsp = 30.0g",1Value per 100 g,
Proximates
"Energy",kcal,--,--,100,333
"Protein",g,--,--,0.00,0.00
"Total lipid (fat)",g,--,--,9.00,30.00
"Carbohydrate, by difference",g,--,--,3.00,10.00
"Fiber, total dietary",g,--,--,0.0,0.0
"Sugars, total",g,--,--,2.00,6.67
Minerals
"Calcium, Ca",mg,--,--,0,0
"Iron, Fe",mg,--,--,0.60,2.00
"Sodium, Na",mg,--,--,80,267
Vitamins
"Vitamin C, total ascorbic acid",mg,--,--,0.0,0.0
"Vitamin A, IU",IU,--,--,0,0
Lipids
"Fatty acids, total saturated",g,--,--,1.500,5.000
"Fatty acids, total trans",g,--,--,0.000,0.000
"Cholesterol",mg,--,--,0,0
Amino Acids
Other
Ingredients
"RED WINE VINEGAR, SOYBEAN OIL, CABERNET WINE (CONTAINS SULFITES), WATER, EXTRA VIRGIN OLIVE OIL, SUGAR, ONIONS, LESS THAN 2% : CANE SYRUP*, SPICES, SALT, GARLIC*, FRUIT JUICE COLOR, XANTHAN GUM, POTASSIUM SORBATE (PRESERVATIVE), NATURAL FLAVOR. *DRIED" Date available: 07/14/2017 Date last updated by company: 07/14/2017
