Source: USDA Branded Food Products Database Release December 2017 Software v.3.8.6.4 2017-10-02
Report Run at: December 18, 2017 22:38 EST
"Nutrient data for: 45169690, VINDALOO, HANDCRAFTED COOKING SAUCE, UPC: 855280005029"
Food Group:  Branded Food Products Database
Common Name:

Nutrient,Unit,Data points,Std. Error,"0.5 cup = 112.0g",1Value per 100 g,
Proximates
"Energy",kcal,--,--,80,71
"Protein",g,--,--,2.00,1.79
"Total lipid (fat)",g,--,--,2.00,1.79
"Carbohydrate, by difference",g,--,--,15.00,13.39
"Fiber, total dietary",g,--,--,2.0,1.8
"Sugars, total",g,--,--,9.00,8.04
Minerals
"Sodium, Na",mg,--,--,491,438
Vitamins
Lipids
"Cholesterol",mg,--,--,0,0
Amino Acids
Other
Ingredients
"CARAMELIZED ONION, ORGANIC WHITE DISTILLED VINEGAR, WATER, ORGANIC CANE SUGAR, FRESH GARLIC, VINDALOO SPICE BLEND (CUMIN, CORIANDER, CINNAMON, FENUGREEK, CARDAMOM, MUSTARD), FRESH GINGER, ORGANIC SUNFLOWER OIL, FRESH SERRANO CHILE, ANAHEIM CHILE POWDER, SPANISH PAPRIKA, SEA SALT, RED CHILE FLAKE, TURMERIC." Date available: 07/14/2017 Date last updated by company: 07/14/2017
