Source: USDA Branded Food Products Database Release December 2017 Software v.3.8.6.4 2017-10-02
Report Run at: December 18, 2017 22:40 EST
"Nutrient data for: 45196897, VINEYARD DRESSING, UPC: 070200540866"
Food Group:  Branded Food Products Database
Common Name:

Nutrient,Unit,Data points,Std. Error,"2.0 Tbsp = 31.0g",1Value per 100 g,
Proximates
"Energy",kcal,--,--,80,258
"Protein",g,--,--,0.00,0.00
"Total lipid (fat)",g,--,--,6.00,19.35
"Carbohydrate, by difference",g,--,--,4.00,12.90
"Fiber, total dietary",g,--,--,0.0,0.0
"Sugars, total",g,--,--,3.00,9.68
Minerals
"Calcium, Ca",mg,--,--,0,0
"Iron, Fe",mg,--,--,0.00,0.00
"Sodium, Na",mg,--,--,200,645
Vitamins
"Vitamin C, total ascorbic acid",mg,--,--,0.0,0.0
"Vitamin A, IU",IU,--,--,0,0
Lipids
"Fatty acids, total saturated",g,--,--,1.001,3.230
"Fatty acids, total trans",g,--,--,0.000,0.000
"Cholesterol",mg,--,--,0,0
Amino Acids
Other
Ingredients
"FILTERED WATER, SOYBEAN OIL, CHARDONNAY WINE (CONTAINS SULFITES), CHAMPAGNE VINEGAR, SUGAR, DIJON MUSTARD (WATER, VINEGAR, MUSTARD SEED, SALT, WHITE WINE, FRUIT PECTIN, TARTARIC ACID, CITRIC ACID, SUGAR, SPICE), NATURAL FLAVOR, MUSTARD SEED SALT, GARLIC*, ONION*, XANTHAN GUM, YEAST EXTRACT, ROSEMARY EXTRACT." Date available: 07/14/2017 Date last updated by company: 07/14/2017
