Source: USDA Branded Food Products Database Release December 2017 Software v.3.8.6.4 2017-10-02
Report Run at: December 18, 2017 22:41 EST
"Nutrient data for: 45137711, VINTAGE, MOCKTAIL, NON-ALCOHOLIC CARBONATED BEVERAGE, LIME MARGARITA, UPC: 061500011583"
Food Group:  Branded Food Products Database
Common Name:

Nutrient,Unit,Data points,Std. Error,"1 CAN = 250.0g",1Value per 100 g,
Proximates
"Energy",kcal,--,--,100,40
"Protein",g,--,--,0.00,0.00
"Total lipid (fat)",g,--,--,0.00,0.00
"Carbohydrate, by difference",g,--,--,27.00,10.80
"Sugars, total",g,--,--,26.00,10.40
Minerals
"Sodium, Na",mg,--,--,25,10
Vitamins
Lipids
Amino Acids
Other
Ingredients
"CARBONATED WATER, HIGH FRUCTOSE CORN SYRUP, CITRIC ACID, NATURAL FLAVOR, POTASSIUM CITRATE, POTASSIUM BENZOATE (A PRESERVATIVE), GUM ACACIA, ESTER GUM, CALCIUM DISODIUM EDTA (TO PROTECT FLAVOR), YELLOW 5, BLUE 1." Date available: 07/14/2017 Date last updated by company: 07/14/2017
