Source: USDA Branded Food Products Database Release December 2017 Software v.3.8.6.4 2017-10-02
Report Run at: December 18, 2017 22:45 EST
"Nutrient data for: 45159537, VISCONTI, WAFER, STRAWBERRY, UPC: 875754003092"
Food Group:  Branded Food Products Database
Common Name:

Nutrient,Unit,Data points,Std. Error,"4.0 PIECES = 30.0g",1Value per 100 g,
Proximates
"Energy",kcal,--,--,150,500
"Protein",g,--,--,1.00,3.33
"Total lipid (fat)",g,--,--,7.00,23.33
"Carbohydrate, by difference",g,--,--,20.00,66.67
"Fiber, total dietary",g,--,--,0.0,0.0
"Sugars, total",g,--,--,13.00,43.33
Minerals
"Calcium, Ca",mg,--,--,20,67
"Iron, Fe",mg,--,--,1.50,5.00
"Sodium, Na",mg,--,--,40,133
Vitamins
"Vitamin C, total ascorbic acid",mg,--,--,0.0,0.0
"Vitamin A, IU",IU,--,--,0,0
Lipids
"Fatty acids, total saturated",g,--,--,2.001,6.670
"Fatty acids, total trans",g,--,--,2.001,6.670
"Cholesterol",mg,--,--,0,0
Amino Acids
Other
Ingredients
"STRAWBERRY NATURALLY FLAVORED FILLING (71%) [SUGAR, VEGETABLE OIL SHORTENING (PALM), STRAWBERRY FLAKES, EMULSIFIER, SOY LECITHIN (INS 322), NATURAL FLAVOR, NATURAL COLOR ADDITIVE: COCHINEAL (INS 120) AND ACIDULANT: CITRIC ACID (INS 330)], WHEAT FLOUR, STARCH, CORN OIL, SALT, EMULSIFIER: SOY LECITHIN (INS 322) AND CHEMICAL BAKING POWDER: SODIUM BICARBONATE (INS 500II)." Date available: 07/14/2017 Date last updated by company: 07/14/2017
