Source: USDA Branded Food Products Database Release December 2017 Software v.3.8.6.4 2017-10-02
Report Run at: December 18, 2017 22:45 EST
"Nutrient data for: 45166765, VISVITA, ALOE VERA DRINK, MANGO, UPC: 851802004020"
Food Group:  Branded Food Products Database
Common Name:

Nutrient,Unit,Data points,Std. Error,"1 cup = 240.0g",1Value per 100 g,
Proximates
"Energy",kcal,--,--,98,41
"Protein",g,--,--,0.00,0.00
"Total lipid (fat)",g,--,--,0.00,0.00
"Carbohydrate, by difference",g,--,--,26.50,11.04
"Sugars, total",g,--,--,22.99,9.58
Minerals
"Calcium, Ca",mg,--,--,79,33
"Iron, Fe",mg,--,--,0.72,0.30
"Sodium, Na",mg,--,--,29,12
Vitamins
"Vitamin C, total ascorbic acid",mg,--,--,50.9,21.2
"Vitamin A, IU",IU,--,--,0,0
Lipids
"Fatty acids, total saturated",g,--,--,0.000,0.000
"Fatty acids, total trans",g,--,--,0.000,0.000
"Cholesterol",mg,--,--,0,0
Amino Acids
Other
Ingredients
"PURIFIED WATER, ALOE VERA PULP, WHITE CANE SUGAR, CITRIC ACID, CALCIUM LACTATE, MANGO FLAVOR, CITRUMIX FLAVOR, SODIUM CITRATE, BETA-CAROTENE, VITAMIN C, GELLAN GUM, STEVIA" Date available: 07/14/2017 Date last updated by company: 07/14/2017
