Source: USDA Branded Food Products Database Release December 2017 Software v.3.8.6.4 2017-10-02
Report Run at: December 18, 2017 22:47 EST
"Nutrient data for: 45031710, VITALITY SQUEEZE SNACK, UPC: 856516002102"
Food Group:  Branded Food Products Database
Common Name:

Nutrient,Unit,Data points,Std. Error,"1 POUCH = 99.0g",1Value per 100 g,
Proximates
"Energy",kcal,--,--,70,71
"Protein",g,--,--,2.00,2.02
"Total lipid (fat)",g,--,--,2.00,2.02
"Carbohydrate, by difference",g,--,--,10.00,10.10
"Fiber, total dietary",g,--,--,4.0,4.0
"Sugars, total",g,--,--,7.00,7.07
Minerals
"Calcium, Ca",mg,--,--,40,40
"Iron, Fe",mg,--,--,0.18,0.18
"Potassium, K",mg,--,--,70,71
"Sodium, Na",mg,--,--,8,8
Vitamins
Lipids
Amino Acids
Other
Ingredients
"HYDRATED ORGANIC CHIA SEEDS (WATER, ORGANIC CHIA SEEDS), ORGANIC APPLE JUICE CONCENTRATE, ORGANIC APPLE PUREE, ORGANIC BUTTERNUT SQUASH PUREE, ORGANIC NATURAL APPLE FLAVORS, CITRIC ACID, ORGANIC CINNAMON, ORGANIC NATURAL VANILLA FLAVOR." Date available: 06/25/2017 Date last updated by company: 06/25/2017
