Source: USDA Branded Food Products Database Release December 2017 Software v.3.8.6.4 2017-10-02
Report Run at: December 18, 2017 22:46 EST
"Nutrient data for: 45009675, VITA-CRUNCH, ALMOND GRANOLA, UPC: 071988003284"
Food Group:  Branded Food Products Database
Common Name:

Nutrient,Unit,Data points,Std. Error,"0.75 cup = 55.0g",1Value per 100 g,
Proximates
"Energy",kcal,--,--,220,400
"Protein",g,--,--,7.00,12.73
"Total lipid (fat)",g,--,--,6.00,10.91
"Carbohydrate, by difference",g,--,--,34.00,61.82
"Fiber, total dietary",g,--,--,4.0,7.3
"Sugars, total",g,--,--,7.00,12.73
Minerals
"Calcium, Ca",mg,--,--,40,73
"Iron, Fe",mg,--,--,1.80,3.27
"Sodium, Na",mg,--,--,0,0
Vitamins
"Vitamin C, total ascorbic acid",mg,--,--,0.0,0.0
"Vitamin A, IU",IU,--,--,0,0
Lipids
"Fatty acids, total saturated",g,--,--,0.501,0.910
"Fatty acids, total trans",g,--,--,0.000,0.000
"Cholesterol",mg,--,--,0,0
Amino Acids
Other
Ingredients
"WHOLE ROLLED OATS, DRIED CANE SYRUP, TAPIOCA SYRUP, ALMONDS, WHITE WHEAT FLAKES, CANOLA OIL MOLASSES, WHEY (MILK), MIXED TOCOPHEROLS (USED TO MAINTAIN FRESHNESS), NATURAL FLAVOR." Date available: 06/24/2017 Date last updated by company: 06/24/2017
