Source: USDA Branded Food Products Database Release December 2017 Software v.3.8.6.4 2017-10-02
Report Run at: December 18, 2017 22:51 EST
"Nutrient data for: 45026474, VITARROZ, SARDINAS, UPC: 072670320344"
Food Group:  Branded Food Products Database
Common Name:

Nutrient,Unit,Data points,Std. Error,"1 CAN = 155.0g",1Value per 100 g,
Proximates
"Energy",kcal,--,--,119,77
"Protein",g,--,--,21.00,13.55
"Total lipid (fat)",g,--,--,2.00,1.29
"Carbohydrate, by difference",g,--,--,5.01,3.23
"Fiber, total dietary",g,--,--,0.9,0.6
"Sugars, total",g,--,--,3.01,1.94
Minerals
"Calcium, Ca",mg,--,--,501,323
"Iron, Fe",mg,--,--,1.49,0.96
"Sodium, Na",mg,--,--,739,477
Vitamins
"Vitamin C, total ascorbic acid",mg,--,--,0.0,0.0
"Vitamin A, IU",IU,--,--,0,0
Lipids
"Fatty acids, total saturated",g,--,--,1.008,0.650
"Fatty acids, total trans",g,--,--,0.000,0.000
"Cholesterol",mg,--,--,85,55
Amino Acids
Other
Ingredients
"SARDINES, WATER, TOMATO PASTE, SUGAR, MODIFIED STARCH, SALT, CHILI POWDER, SODIUM CARBOXYMETHYL CELLULOSE (CELLULOSE GUM), PAPRIKA." Date available: 07/14/2017 Date last updated by company: 07/14/2017
