Source: USDA Branded Food Products Database Release December 2017 Software v.3.8.6.4 2017-10-02
Report Run at: December 18, 2017 22:51 EST
"Nutrient data for: 45030436, VITARROZ, PINK BEANS, UPC: 072670018203"
Food Group:  Branded Food Products Database
Common Name:

Nutrient,Unit,Data points,Std. Error,"0.5 cup = 130.0g",1Value per 100 g,
Proximates
"Energy",kcal,--,--,81,62
"Protein",g,--,--,5.00,3.85
"Total lipid (fat)",g,--,--,0.00,0.00
"Carbohydrate, by difference",g,--,--,14.00,10.77
"Fiber, total dietary",g,--,--,6.0,4.6
"Sugars, total",g,--,--,0.00,0.00
Minerals
"Calcium, Ca",mg,--,--,20,15
"Iron, Fe",mg,--,--,1.08,0.83
"Sodium, Na",mg,--,--,300,231
Vitamins
"Vitamin C, total ascorbic acid",mg,--,--,0.0,0.0
"Vitamin A, IU",IU,--,--,0,0
Lipids
"Fatty acids, total saturated",g,--,--,0.000,0.000
"Fatty acids, total trans",g,--,--,0.000,0.000
"Cholesterol",mg,--,--,0,0
Amino Acids
Other
Ingredients
"PINK BEANS, WATER, SALT, CALCIUM CHLORIDE (ADDED TO HELP MANTAIN FIRMNESS), DISODIUM EDTA (ADDED TO PROMOTE COLOR RETENTION)." Date available: 07/14/2017 Date last updated by company: 07/14/2017
