Source: USDA Branded Food Products Database Release December 2017 Software v.3.8.6.4 2017-10-02
Report Run at: December 18, 2017 22:49 EST
"Nutrient data for: 45326009, VITAMIN D MILK, UPC: 072730232211"
Food Group:  Branded Food Products Database
Common Name:

Nutrient,Unit,Data points,Std. Error,"1 cup = 240.0g",1Value per 100 g,
Proximates
"Energy",kcal,--,--,149,62
"Protein",g,--,--,7.99,3.33
"Total lipid (fat)",g,--,--,7.99,3.33
"Carbohydrate, by difference",g,--,--,10.99,4.58
"Fiber, total dietary",g,--,--,0.0,0.0
"Sugars, total",g,--,--,10.99,4.58
Minerals
"Calcium, Ca",mg,--,--,300,125
"Iron, Fe",mg,--,--,0.00,0.00
"Sodium, Na",mg,--,--,120,50
Vitamins
"Vitamin C, total ascorbic acid",mg,--,--,1.2,0.5
"Vitamin A, IU",IU,--,--,300,125
"Vitamin D",IU,--,--,101,42
Lipids
"Fatty acids, total saturated",g,--,--,4.992,2.080
"Fatty acids, total trans",g,--,--,0.000,0.000
"Cholesterol",mg,--,--,36,15
Amino Acids
Other
Ingredients
"GRADE A MILK, LACTASE ENZYME**, AND VITAMIN D3." Date available: 10/13/2017 Date last updated by company: 10/13/2017
