Source: USDA Branded Food Products Database Release December 2017 Software v.3.8.6.4 2017-10-02
Report Run at: December 18, 2017 22:53 EST
"Nutrient data for: 45176680, VIVE BAGUETTE, UPC: 077890403952"
Food Group:  Branded Food Products Database
Common Name:

Nutrient,Unit,Data points,Std. Error,"0.17 OF LOAF = 47.0g",1Value per 100 g,
Proximates
"Energy",kcal,--,--,120,255
"Protein",g,--,--,4.00,8.51
"Total lipid (fat)",g,--,--,0.00,0.00
"Carbohydrate, by difference",g,--,--,25.00,53.19
"Fiber, total dietary",g,--,--,1.0,2.1
"Sugars, total",g,--,--,0.00,0.00
Minerals
"Calcium, Ca",mg,--,--,0,0
"Iron, Fe",mg,--,--,1.53,3.26
"Sodium, Na",mg,--,--,240,511
Vitamins
"Vitamin C, total ascorbic acid",mg,--,--,0.0,0.0
"Vitamin A, IU",IU,--,--,0,0
Lipids
"Fatty acids, total saturated",g,--,--,0.000,0.000
"Fatty acids, total trans",g,--,--,0.000,0.000
"Cholesterol",mg,--,--,0,0
Amino Acids
Other
Ingredients
"ENRICHED WHEAT FLOUR*, WATER, ENRICHED DURUM WHEAT FLOUR*, SALT, YEAST, MALT, ASCORBIC ACID, ENZYMES, SOY LECITHIN." Date available: 07/14/2017 Date last updated by company: 07/14/2017
