Source: USDA Branded Food Products Database Release December 2017 Software v.3.8.6.4 2017-10-02
Report Run at: December 18, 2017 22:53 EST
"Nutrient data for: 45160256, VIVELI, TWIST, WAFER ROLLS, VANILLA, UPC: 434001501127"
Food Group:  Branded Food Products Database
Common Name:

Nutrient,Unit,Data points,Std. Error,"4.0 PIECES = 18.0g",1Value per 100 g,
Proximates
"Energy",kcal,--,--,88,489
"Protein",g,--,--,1.00,5.56
"Total lipid (fat)",g,--,--,4.00,22.22
"Carbohydrate, by difference",g,--,--,13.00,72.22
"Fiber, total dietary",g,--,--,0.0,0.0
"Sugars, total",g,--,--,6.00,33.33
Minerals
"Calcium, Ca",mg,--,--,10,56
"Iron, Fe",mg,--,--,0.50,2.78
"Sodium, Na",mg,--,--,15,83
Vitamins
"Vitamin C, total ascorbic acid",mg,--,--,0.0,0.0
"Vitamin A, IU",IU,--,--,0,0
Lipids
"Fatty acids, total saturated",g,--,--,1.001,5.560
"Fatty acids, total trans",g,--,--,0.000,0.000
"Cholesterol",mg,--,--,0,0
Amino Acids
Other
Ingredients
"SUGAR, ENRICHED WHEAT FLOUR (CONTAINS GLUTEN, NIACIN, THIAMINE (VITAMIN B1), RIBOFLAVIN (VITAMIN B2), FERROUS FUMARATE, FOLIC ACID), PALM SHORTENING, CORN STARCH, WHOLE DRY MILK AND/OR WHEY POWDER, VEGETABLE OIL, SALT, SOY LECITHIN (EMULSIFIER), ARTIFICIAL VANILLA FLAVOR, ARTIFICIAL COLOR FD&C YELLOW TARTRAZINE #5, CARAMEL NATURAL COLOR, ANTIOXIDANT BHT, WATER." Date available: 07/14/2017 Date last updated by company: 07/14/2017
