Source: USDA Branded Food Products Database Release December 2017 Software v.3.8.6.4 2017-10-02
Report Run at: December 18, 2017 22:53 EST
"Nutrient data for: 45206180, VIVIDO, AIR DRIED SLICED SHIITAKE, UPC: 859031003241"
Food Group:  Branded Food Products Database
Common Name:

Nutrient,Unit,Data points,Std. Error,"5.0 OUNCE = 14.0g",1Value per 100 g,
Proximates
"Energy",kcal,--,--,44,314
"Protein",g,--,--,1.00,7.14
"Total lipid (fat)",g,--,--,0.00,0.00
"Carbohydrate, by difference",g,--,--,11.00,78.57
"Fiber, total dietary",g,--,--,2.0,14.3
"Sugars, total",g,--,--,0.00,0.00
Minerals
"Calcium, Ca",mg,--,--,0,0
"Iron, Fe",mg,--,--,0.18,1.29
"Sodium, Na",mg,--,--,2,14
Vitamins
"Vitamin C, total ascorbic acid",mg,--,--,0.6,4.3
"Vitamin A, IU",IU,--,--,0,0
Lipids
"Fatty acids, total saturated",g,--,--,0.000,0.000
"Cholesterol",mg,--,--,0,0
Amino Acids
Other
Ingredients
"SLICED SHIITAKE" Date available: 10/12/2016 Date last updated by company: 10/12/2016
