Source: USDA Branded Food Products Database Release December 2017 Software v.3.8.6.4 2017-10-02
Report Run at: December 18, 2017 22:53 EST
"Nutrient data for: 45205975, VIVRA CHOCOLATE, HONEY ROASTED THREE NUT BAR, UPC: 854564005052"
Food Group:  Branded Food Products Database
Common Name:

Nutrient,Unit,Data points,Std. Error,"1.5 ONZ = 43.0g",1Value per 100 g,
Proximates
"Energy",kcal,--,--,240,558
"Protein",g,--,--,3.00,6.98
"Total lipid (fat)",g,--,--,17.00,39.53
"Carbohydrate, by difference",g,--,--,20.00,46.51
"Fiber, total dietary",g,--,--,4.0,9.3
"Sugars, total",g,--,--,14.00,32.56
Minerals
"Calcium, Ca",mg,--,--,40,93
"Iron, Fe",mg,--,--,3.14,7.30
"Sodium, Na",mg,--,--,80,186
Vitamins
"Vitamin C, total ascorbic acid",mg,--,--,0.0,0.0
"Vitamin A, IU",IU,--,--,0,0
Lipids
"Fatty acids, total saturated",g,--,--,7.998,18.600
"Fatty acids, total trans",g,--,--,0.000,0.000
"Cholesterol",mg,--,--,0,0
Amino Acids
Other
Ingredients
"PREMIUM DARK CHOCOLATE (65% CACAO MASS, SUGAR, COCOA BUTTER, SOY LECITHIN-AN EMULSIFIER, NATURAL VANILLA), ALMONDS, HAZELNUTS, CASHEWS, HONEY, SEA SALT." Date available: 07/14/2017 Date last updated by company: 07/14/2017
