Source: USDA Branded Food Products Database Release December 2017 Software v.3.8.6.4 2017-10-02
Report Run at: December 18, 2017 22:54 EST
"Nutrient data for: 45205670, VIXEN KITCHEN, COFFEE CREAM DREAM, PALEO VEGAN GELATO, UPC: 748252539403"
Food Group:  Branded Food Products Database
Common Name:

Nutrient,Unit,Data points,Std. Error,"0.5 cup = 109.0g",1Value per 100 g,
Proximates
"Energy",kcal,--,--,240,220
"Protein",g,--,--,5.00,4.59
"Total lipid (fat)",g,--,--,13.00,11.93
"Carbohydrate, by difference",g,--,--,29.00,26.61
"Fiber, total dietary",g,--,--,1.0,0.9
"Sugars, total",g,--,--,22.00,20.18
Minerals
"Calcium, Ca",mg,--,--,40,37
"Iron, Fe",mg,--,--,2.03,1.86
"Sodium, Na",mg,--,--,270,248
Vitamins
"Vitamin C, total ascorbic acid",mg,--,--,0.0,0.0
"Vitamin A, IU",IU,--,--,0,0
Lipids
"Fatty acids, total saturated",g,--,--,2.496,2.290
"Fatty acids, total monounsaturated",g,--,--,6.998,6.420
"Fatty acids, total polyunsaturated",g,--,--,2.496,2.290
"Fatty acids, total trans",g,--,--,0.000,0.000
"Cholesterol",mg,--,--,0,0
Amino Acids
Other
Ingredients
"ORGANIC FAIR TRADE COLD BREW COFFEE, ORGANIC RAW CASHEWS, ORGANIC MAPLE SYRUP, ORGANIC FAIR TRADE VANILLA EXTRACT, CELTIC SEA SALT." Date available: 07/14/2017 Date last updated by company: 07/14/2017
