Source: USDA Branded Food Products Database Release December 2017 Software v.3.8.6.4 2017-10-02
Report Run at: December 18, 2017 22:54 EST
"Nutrient data for: 45112624, VLASIC, DILL CHIPS, UPC: 054100011602"
Food Group:  Branded Food Products Database
Common Name:

Nutrient,Unit,Data points,Std. Error,"0.25 SLICES = 28.0g",1Value per 100 g,
Proximates
"Energy",kcal,--,--,0,0
"Protein",g,--,--,0.00,0.00
"Total lipid (fat)",g,--,--,0.00,0.00
"Carbohydrate, by difference",g,--,--,1.00,3.57
Minerals
"Calcium, Ca",mg,--,--,40,143
"Sodium, Na",mg,--,--,390,1393
Vitamins
Lipids
Amino Acids
Other
Ingredients
"CUCUMBERS, WATER, DISTILLED VINEGAR, SALT, HIGH FRUCTOSE CORN SYRUP, CALCIUM CHLORIDE, NATURAL FLAVOR, POLYSORBATE 80, YELLOW 5." Date available: 06/25/2017 Date last updated by company: 06/25/2017
