Source: USDA Branded Food Products Database Release December 2017 Software v.3.8.6.4 2017-10-02
Report Run at: December 18, 2017 22:55 EST
"Nutrient data for: 45112655, VLASIC, SWEET GHERKINS, UPC: 054100011107"
Food Group:  Branded Food Products Database
Common Name:

Nutrient,Unit,Data points,Std. Error,"3.0 PICKLES = 28.0g",1Value per 100 g,
Proximates
"Energy",kcal,--,--,30,107
"Protein",g,--,--,0.00,0.00
"Total lipid (fat)",g,--,--,0.00,0.00
"Carbohydrate, by difference",g,--,--,7.00,25.00
"Sugars, total",g,--,--,7.00,25.00
Minerals
"Sodium, Na",mg,--,--,170,607
Vitamins
Lipids
Amino Acids
Other
Ingredients
"CUCUMBERS, HIGH FRUCTOSE CORN SYRUP, WATER, DISTILLED VINEGAR, SALT, CALCIUM CHLORIDE, NATURAL FLAVOR, ALUM, POLYSORBATE 80, YELLOW 5." Date available: 06/25/2017 Date last updated by company: 06/25/2017
