Source: USDA Branded Food Products Database Release December 2017 Software v.3.8.6.4 2017-10-02
Report Run at: December 18, 2017 22:56 EST
"Nutrient data for: 45121838, VLASIC, SWEET RELISH, UPC: 054100335005"
Food Group:  Branded Food Products Database
Common Name:

Nutrient,Unit,Data points,Std. Error,"1 Tbsp = 15.0g",1Value per 100 g,
Proximates
"Energy",kcal,--,--,10,67
"Protein",g,--,--,0.00,0.00
"Total lipid (fat)",g,--,--,0.00,0.00
"Carbohydrate, by difference",g,--,--,3.00,20.00
"Sugars, total",g,--,--,3.00,20.00
Minerals
"Sodium, Na",mg,--,--,140,933
Vitamins
Lipids
Amino Acids
Other
Ingredients
"CUCUMBERS, HIGH FRUCTOSE CORN SYRUP, DISTILLED VINEGAR, SALT, CALCIUM CHLORIDE, XANTHAN GUM, ALUM, PRESERVATIVES (POTASSIUM SORBATE), SODIUM BENZOATE (PRESERVATIVES), NATURAL FLAVOR, POLYSORBATE 80, YELLOW 5." Date available: 07/14/2017 Date last updated by company: 07/14/2017
