Source: USDA Branded Food Products Database Release December 2017 Software v.3.8.6.4 2017-10-02
Report Run at: December 18, 2017 22:57 EST
"Nutrient data for: 45143570, VOORTMAN, COCONUT COOKIES, UPC: 067312007028"
Food Group:  Branded Food Products Database
Common Name:

Nutrient,Unit,Data points,Std. Error,"2.0 COOKIES = 35.0g",1Value per 100 g,
Proximates
"Energy",kcal,--,--,180,514
"Protein",g,--,--,1.00,2.86
"Total lipid (fat)",g,--,--,10.00,28.57
"Carbohydrate, by difference",g,--,--,20.00,57.14
"Fiber, total dietary",g,--,--,1.0,2.9
"Sugars, total",g,--,--,10.00,28.57
Minerals
"Calcium, Ca",mg,--,--,0,0
"Iron, Fe",mg,--,--,0.41,1.18
"Sodium, Na",mg,--,--,50,143
Vitamins
"Vitamin C, total ascorbic acid",mg,--,--,0.0,0.0
"Vitamin A, IU",IU,--,--,0,0
Lipids
"Fatty acids, total saturated",g,--,--,5.999,17.140
"Fatty acids, total monounsaturated",g,--,--,2.499,7.140
"Fatty acids, total polyunsaturated",g,--,--,1.001,2.860
"Fatty acids, total trans",g,--,--,0.000,0.000
"Cholesterol",mg,--,--,0,0
Amino Acids
Other
Ingredients
"ENRICHED WHEAT FLOUR (FLOUR, NIACIN, REDUCED IRON, THIAMINE MONOITRATE, RIBOFLAVIN, FOLIC ACID), DRIED COCONUT, SUGAR, VEGETABLE OIL (CANOLA, SOYBEAN, PALM AND PALM KERNEL, SUNFLOWER), HIGH FRUCTOSE CORN SYRUP, SALT, EGGS." Date available: 07/14/2017 Date last updated by company: 07/14/2017
