Source: USDA Branded Food Products Database Release December 2017 Software v.3.8.6.4 2017-10-02
Report Run at: December 18, 2017 22:59 EST
"Nutrient data for: 45005340, VOSKOS, GREEK NON FAT YOGURT, VANILLA BEAN, UPC: 758543405003"
Food Group:  Branded Food Products Database
Common Name:

Nutrient,Unit,Data points,Std. Error,"5.3 ONZ = 150.0g",1Value per 100 g,
Proximates
"Energy",kcal,--,--,130,87
"Protein",g,--,--,10.99,7.33
"Total lipid (fat)",g,--,--,0.00,0.00
"Carbohydrate, by difference",g,--,--,21.00,14.00
"Fiber, total dietary",g,--,--,0.0,0.0
"Sugars, total",g,--,--,16.00,10.67
Minerals
"Calcium, Ca",mg,--,--,100,67
"Iron, Fe",mg,--,--,0.00,0.00
"Potassium, K",mg,--,--,176,117
"Sodium, Na",mg,--,--,45,30
Vitamins
"Vitamin C, total ascorbic acid",mg,--,--,0.0,0.0
"Vitamin A, IU",IU,--,--,0,0
Lipids
"Fatty acids, total saturated",g,--,--,0.000,0.000
"Fatty acids, total trans",g,--,--,0.000,0.000
"Cholesterol",mg,--,--,0,0
Amino Acids
Other
Ingredients
"GRADE A PASTEURIZED SKIM MILK, NATURAL MILLED CANE SUGAR, VANILLA FLAVOR, CORN STARCH, PECTIN, LOCUST BEAN GUM, VANILLA BEANS, CITRIC ACID AND LIVE AND ACTIVE PROBIOTIC CULTURES." Date available: 06/25/2017 Date last updated by company: 06/25/2017
