Source: USDA Branded Food Products Database Release December 2017 Software v.3.8.6.4 2017-10-02
Report Run at: December 18, 2017 22:59 EST
"Nutrient data for: 45176048, VSC, CARAMEL FILLED TRUFFLE, UPC: 055415148052"
Food Group:  Branded Food Products Database
Common Name:

Nutrient,Unit,Data points,Std. Error,"3.0 PIECES = 37.5g",1Value per 100 g,
Proximates
"Energy",kcal,--,--,160,427
"Protein",g,--,--,2.00,5.33
"Total lipid (fat)",g,--,--,8.00,21.33
"Carbohydrate, by difference",g,--,--,21.00,56.00
"Fiber, total dietary",g,--,--,0.0,0.0
"Sugars, total",g,--,--,19.00,50.67
Minerals
"Calcium, Ca",mg,--,--,40,107
"Iron, Fe",mg,--,--,0.96,2.56
"Sodium, Na",mg,--,--,40,107
Vitamins
"Vitamin C, total ascorbic acid",mg,--,--,0.0,0.0
"Vitamin A, IU",IU,--,--,0,0
Lipids
"Fatty acids, total saturated",g,--,--,6.000,16.000
"Fatty acids, total trans",g,--,--,0.000,0.000
"Cholesterol",mg,--,--,5,13
Amino Acids
Other
Ingredients
"MILK CHOCOLATE [SUGAR, COCOA BUTTER, WHOLE MILK POWDER, COCOA LIQUOR, SOY LECITHIN (EMULSIFIER), VANILLA (NATURAL FLAVOR)], CORN SYRUP, SWEETENED CONDENSED SKIM MILK, SUGAR, COCONUT OIL, HIGH FRUCTOSE CORN SYRUP, BUTTER, NATURAL BUTTER FLAVOR, MONO & DIGLYCERIDES, SALT, SOY LECITHIN, AND NATURAL VANILLA FLAVOR." Date available: 07/14/2017 Date last updated by company: 07/14/2017
