Source: USDA Branded Food Products Database Release December 2017 Software v.3.8.6.4 2017-10-02
Report Run at: December 18, 2017 23:00 EST
"Nutrient data for: 45189656, VUKOO, ORGANIC COCONUT & TOASTED CAROB, UPC: 858645005016"
Food Group:  Branded Food Products Database
Common Name:

Nutrient,Unit,Data points,Std. Error,"1 BAR = 85.0g",1Value per 100 g,
Proximates
"Energy",kcal,--,--,290,341
"Protein",g,--,--,19.00,22.35
"Total lipid (fat)",g,--,--,5.00,5.88
"Carbohydrate, by difference",g,--,--,40.00,47.06
"Fiber, total dietary",g,--,--,14.0,16.5
"Sugars, total",g,--,--,2.00,2.35
Minerals
"Calcium, Ca",mg,--,--,150,176
"Iron, Fe",mg,--,--,1.06,1.25
"Potassium, K",mg,--,--,390,459
"Sodium, Na",mg,--,--,95,112
Vitamins
"Vitamin C, total ascorbic acid",mg,--,--,0.0,0.0
"Vitamin A, IU",IU,--,--,0,0
Lipids
"Fatty acids, total saturated",g,--,--,1.496,1.760
"Fatty acids, total monounsaturated",g,--,--,3.001,3.530
"Fatty acids, total polyunsaturated",g,--,--,1.003,1.180
"Fatty acids, total trans",g,--,--,0.000,0.000
"Cholesterol",mg,--,--,0,0
Amino Acids
Other
Ingredients
"ORGANIC OATS (WHOLE GRAIN), ALMONDS (BUTTER), WHEY (ION EXCHANGED WHEY (MILK) PROTEIN ISOLATE, MICROFILTERED WHEY (MILK) PROTEIN ISOLATE, EVAPORATED CANE JUICE CRYSTALS, COCOA POWDER, POTASSIUM CHLORIDE, DICALCIUM PHOSPHATE, CALCIUM CITRATE, MAGNESIUM OXIDE, ACEROLA, LUO HAN GUA, CITRIC ACID, ALFALFA, GARLIC POWDER ENRICHED WITH SELENIUM, SALT, ZINC SULPHATE MONOHYDRATE, DRIED KELP POWDER, INOSITOL, VITAMIN E, BETA CAROTENE, CALCIUM PANTOTHENATE, VITAMIN K2, COPPER OXIDE, VITAMIN B6, VITAMIN B2, VITAMIN B1, VITAMIN B12), ORGANIC COCONUT (SHREDDED), CAROB (TOASTED GROUND), *ORGANIC COCOA (POWDER), HONEY (COLORADO WILDFLOWER), WATER (KANGEN)." Date available: 07/14/2017 Date last updated by company: 07/14/2017
