Source: USDA Branded Food Products Database Release December 2017 Software v.3.8.6.4 2017-10-02
Report Run at: December 18, 2017 23:03 EST
"Nutrient data for: 45213006, WAFERS, UPC: 7707353200394"
Food Group:  Branded Food Products Database
Common Name:

Nutrient,Unit,Data points,Std. Error,"6.53 ONZ = 185.0g",1Value per 100 g,
Proximates
"Energy",kcal,--,--,157,85
"Protein",g,--,--,3.77,2.04
"Total lipid (fat)",g,--,--,2.37,1.28
"Carbohydrate, by difference",g,--,--,30.19,16.32
"Fiber, total dietary",g,--,--,0.0,0.0
"Sugars, total",g,--,--,17.00,9.19
Minerals
"Calcium, Ca",mg,--,--,0,0
"Iron, Fe",mg,--,--,0.00,0.00
"Sodium, Na",mg,--,--,26,14
Vitamins
"Vitamin C, total ascorbic acid",mg,--,--,0.0,0.0
"Vitamin A, IU",IU,--,--,0,0
Lipids
"Fatty acids, total saturated",g,--,--,1.128,0.610
"Fatty acids, total trans",g,--,--,0.000,0.000
"Cholesterol",mg,--,--,7,4
Amino Acids
Other
Ingredients
"WAFERS: WHEAT FLOUR, VEGETABLE OIL, SUGAR. CARAMEL SPREAD: MILK, SODIUM BICARBONATE, SUGAR AND POTASSIUM SORBATE AS PRESERVATIVE." Date available: 12/01/2016 Date last updated by company: 12/01/2016
