Source: USDA Branded Food Products Database Release December 2017 Software v.3.8.6.4 2017-10-02
Report Run at: December 18, 2017 23:03 EST
"Nutrient data for: 45213018, WAFERS, UPC: 093707051017"
Food Group:  Branded Food Products Database
Common Name:

Nutrient,Unit,Data points,Std. Error,"3.0 WAFERS = 26.0g",1Value per 100 g,
Proximates
"Energy",kcal,--,--,140,538
"Protein",g,--,--,1.00,3.85
"Total lipid (fat)",g,--,--,7.00,26.92
"Carbohydrate, by difference",g,--,--,17.00,65.38
"Fiber, total dietary",g,--,--,1.0,3.8
"Sugars, total",g,--,--,6.00,23.08
Minerals
"Calcium, Ca",mg,--,--,20,77
"Iron, Fe",mg,--,--,0.00,0.00
"Sodium, Na",mg,--,--,35,135
Vitamins
"Vitamin C, total ascorbic acid",mg,--,--,0.0,0.0
"Vitamin A, IU",IU,--,--,0,0
Lipids
"Fatty acids, total saturated",g,--,--,6.001,23.080
"Fatty acids, total trans",g,--,--,0.000,0.000
"Cholesterol",mg,--,--,0,0
Amino Acids
Other
Ingredients
"WHEAT FLOUR, NON HYDROGENATED VEGETABLE OIL (COCONUT), WHEAT STARCH, SUGAR, DEXTROSE, SKIMMED MILK POWDER, HAZELNUTS (7% IN THE CREAM), SOYBEAN FLOUR, FAT REDUCED COCOA, EMULSIFIERS: SOY LECITHIN, SALT, RAISING AGENTS: SODIUM BICARBONATE." Date available: 07/14/2017 Date last updated by company: 07/14/2017
