Source: USDA Branded Food Products Database Release December 2017 Software v.3.8.6.4 2017-10-02
Report Run at: December 18, 2017 23:05 EST
"Nutrient data for: 45283749, WAFFLE SANDWICH SNACKS, UPC: 072600092228"
Food Group:  Branded Food Products Database
Common Name:

Nutrient,Unit,Data points,Std. Error,"5.0 PIECES | ABOUT = 28.0g",1Value per 100 g,
Proximates
"Energy",kcal,--,--,130,464
"Protein",g,--,--,2.00,7.14
"Total lipid (fat)",g,--,--,5.00,17.86
"Carbohydrate, by difference",g,--,--,18.00,64.29
"Fiber, total dietary",g,--,--,0.0,0.0
"Sugars, total",g,--,--,5.00,17.86
Minerals
"Calcium, Ca",mg,--,--,0,0
"Iron, Fe",mg,--,--,2.18,7.80
"Sodium, Na",mg,--,--,180,643
Vitamins
"Vitamin C, total ascorbic acid",mg,--,--,0.0,0.0
"Vitamin A, IU",IU,--,--,0,0
Lipids
"Fatty acids, total saturated",g,--,--,5.001,17.860
"Fatty acids, total trans",g,--,--,0.000,0.000
"Cholesterol",mg,--,--,0,0
Amino Acids
Other
Ingredients
"WAFFLE (ENRICHED WHEAT FLOUR [(WHEAT FLOUR, NIACIN, REDUCED IRON, THIAMIN MONONITRATE, RIBOFLAVIN, FOLIC ACID), MALTED BARLEY FLOUR], PALM OIL, WHEY, CORN STARCH, DEXTROSE, SUNFLOWER LECITHIN, SALT, SODIUM BICARBONATE), FILLING (COCONUT OIL), CONFECTIONER'S SUGAR [SUGAR, CORN STARCH], MALTODEXTRIN, CULTURED BUTTERMILK [BUTTERMILK, CULTURES], WHEY, CARAMEL SEASONING [SUGAR, DEXTROSE, BROWN SUGAR, FRUCTOSE, NATURAL FLAVORS, CORN STARCH, SALT, SUNFLOWER OIL], SEA SALT, PALM OIL, COCOA POWDER, VANILLA EXTRACT, SUNFLOWER LECITHIN, SODIUM BICARBONATE)." Date available: 08/23/2017 Date last updated by company: 08/23/2017
