Source: USDA Branded Food Products Database Release December 2017 Software v.3.8.6.4 2017-10-02
Report Run at: December 18, 2017 23:04 EST
"Nutrient data for: 45077738, WAFFLE CONES, UPC: 719283993960"
Food Group:  Branded Food Products Database
Common Name:

Nutrient,Unit,Data points,Std. Error,"1 CONE = 22.0g",1Value per 100 g,
Proximates
"Energy",kcal,--,--,90,409
"Protein",g,--,--,1.00,4.55
"Total lipid (fat)",g,--,--,0.50,2.27
"Carbohydrate, by difference",g,--,--,19.00,86.36
"Fiber, total dietary",g,--,--,0.0,0.0
"Sugars, total",g,--,--,5.00,22.73
Minerals
"Calcium, Ca",mg,--,--,20,91
"Iron, Fe",mg,--,--,1.64,7.44
"Sodium, Na",mg,--,--,35,159
Vitamins
"Vitamin C, total ascorbic acid",mg,--,--,0.0,0.0
"Vitamin A, IU",IU,--,--,0,0
Lipids
"Fatty acids, total saturated",g,--,--,0.000,0.000
"Fatty acids, total trans",g,--,--,0.000,0.000
"Cholesterol",mg,--,--,0,0
Amino Acids
Other
Ingredients
"BLEACHED ENRICHED WHEAT FLOUR (CONTAINS NIACIN, REDUCED IRON, THIAMINE MONONITRATE, RIBOFLAVIN, FOLIC ACID), BROWN SUGAR, VEGETABLE OIL SHORTENING (SOYBEAN OIL OR CANOLA OIL, MODIFIED PALM OIL, SOY LECITHIN), SOY LECITHIN, OAT FIBER, SALT, ARTIFICIAL FLAVOR." Date available: 07/14/2017 Date last updated by company: 07/14/2017
