Source: USDA Branded Food Products Database Release December 2017 Software v.3.8.6.4 2017-10-02
Report Run at: December 18, 2017 23:08 EST
"Nutrient data for: 45032103, WAKIMS FOODS, HOMMUS WITH TOMATO & BASIL, UPC: 084842102122"
Food Group:  Branded Food Products Database
Common Name:

Nutrient,Unit,Data points,Std. Error,"2.0 Tbsp = 30.0g",1Value per 100 g,
Proximates
"Energy",kcal,--,--,35,117
"Protein",g,--,--,1.00,3.33
"Total lipid (fat)",g,--,--,1.00,3.33
"Carbohydrate, by difference",g,--,--,5.00,16.67
"Fiber, total dietary",g,--,--,1.0,3.3
"Sugars, total",g,--,--,0.00,0.00
Minerals
"Calcium, Ca",mg,--,--,10,33
"Iron, Fe",mg,--,--,0.30,1.00
"Sodium, Na",mg,--,--,74,247
Vitamins
"Vitamin C, total ascorbic acid",mg,--,--,0.0,0.0
"Vitamin A, IU",IU,--,--,0,0
Lipids
"Fatty acids, total saturated",g,--,--,0.000,0.000
"Cholesterol",mg,--,--,0,0
Amino Acids
Other
Ingredients
"CHICK PEAS, SUN DRIED TOMATOES, SESAME TAHINI, BLEND OF ONE OR MORE OILS (CANOLA, SOYA, OLIVE), FRESH BASIL, LEMON JUICE, LEMON SALT, SALT, FRESH GARLIC, SPICES." Date available: 06/24/2017 Date last updated by company: 06/24/2017
