Source: USDA Branded Food Products Database Release December 2017 Software v.3.8.6.4 2017-10-02
Report Run at: December 18, 2017 23:16 EST
"Nutrient data for: 45009111, WAL-MART STORES, NO SUGAR ADDED BLUEBERRY PIE, UPC: 077317534122"
Food Group:  Branded Food Products Database
Common Name:

Nutrient,Unit,Data points,Std. Error,"1 PIE = 113.0g",1Value per 100 g,
Proximates
"Energy",kcal,--,--,330,292
"Protein",g,--,--,2.99,2.65
"Total lipid (fat)",g,--,--,17.00,15.04
"Carbohydrate, by difference",g,--,--,48.00,42.48
"Fiber, total dietary",g,--,--,2.0,1.8
"Sugars, total",g,--,--,2.00,1.77
Minerals
"Calcium, Ca",mg,--,--,20,18
"Iron, Fe",mg,--,--,0.79,0.70
"Sodium, Na",mg,--,--,340,301
Vitamins
"Vitamin C, total ascorbic acid",mg,--,--,0.0,0.0
"Vitamin A, IU",IU,--,--,0,0
Lipids
"Fatty acids, total saturated",g,--,--,8.995,7.960
"Fatty acids, total trans",g,--,--,0.000,0.000
"Cholesterol",mg,--,--,10,9
Amino Acids
Other
Ingredients
"WATER, UNBLEACHED WHEAT FLOUR, MALTITOL SYRUP, BLUEBERRIES, VEGETABLE SHORTENING (PALM OIL, SOYBEAN OIL, HYDROGENATED SOYBEAN OIL), WHOLE WHEAT FLOUR, FOOD STARCH-MODIFIED, MODIFIED TAPIOCA STARCH, CONTAINS LESS THAN 2% OF EACH OF THE FOLLOWING: ARABIC GUM, CITRIC ACID, EGG YOLK, LOCUST BEAN GUM, MALTITOL, NATURAL AND ARTIFICIAL FLAVORS, PECTIN, POTASSIUM SORBATE (PRESERVATIVE), SALT, SOY LECITHIN, WHOLE EGGS." Date available: 07/14/2017 Date last updated by company: 07/14/2017
