Source: USDA Branded Food Products Database Release December 2017 Software v.3.8.6.4 2017-10-02
Report Run at: December 18, 2017 23:09 EST
"Nutrient data for: 45243811, WALDEN FARMS, CALORIE FREE DRESSING, CHIPOTLE RANCH, UPC: 072457331198"
Food Group:  Branded Food Products Database
Common Name:

Nutrient,Unit,Data points,Std. Error,"2.0 Tbsp = 30.0g",1Value per 100 g,
Proximates
"Energy",kcal,--,--,0,0
"Protein",g,--,--,0.00,0.00
"Total lipid (fat)",g,--,--,0.00,0.00
"Carbohydrate, by difference",g,--,--,0.00,0.00
"Fiber, total dietary",g,--,--,0.0,0.0
"Sugars, total",g,--,--,0.00,0.00
Minerals
"Calcium, Ca",mg,--,--,0,0
"Iron, Fe",mg,--,--,0.00,0.00
"Sodium, Na",mg,--,--,260,867
Vitamins
"Vitamin C, total ascorbic acid",mg,--,--,0.0,0.0
"Vitamin A, IU",IU,--,--,0,0
Lipids
"Fatty acids, total saturated",g,--,--,0.000,0.000
"Fatty acids, total trans",g,--,--,0.000,0.000
"Cholesterol",mg,--,--,0,0
Amino Acids
Other
Ingredients
"* PURIFIED WATER, WHITE DISTILLED VINEGAR, APPLE CIDER VINEGAR, VEGATABLE FIBER, SALT, TOMATO PASTE, TOMATO PASTE, TOMATO FLAVOR, CELLULOSE GEL, FOOD COLOR, CHILI POWDER, GARLIC POWDER, ONION POWDER, CHIPOTLE PEPPER, NATURAL FLAVOR, SODIUM BENZOATE, POTASSIUM SORBATE )TO PRESERVE FRESHNESS), LEMON JUICE, SUCRALOSE,BLACK PEPPER, WHITE PEPPER, CUMIN, CITRIC ACID." Date available: 06/25/2017 Date last updated by company: 06/25/2017
