Source: USDA Branded Food Products Database Release December 2017 Software v.3.8.6.4 2017-10-02
Report Run at: December 18, 2017 23:10 EST
"Nutrient data for: 45243792, WALDEN FARMS, PANCAKE SYRUP, UPC: 072457880665"
Food Group:  Branded Food Products Database
Common Name:

Nutrient,Unit,Data points,Std. Error,"2.0 Tbsp = 30.0g",1Value per 100 g,
Proximates
"Energy",kcal,--,--,0,0
"Protein",g,--,--,0.00,0.00
"Total lipid (fat)",g,--,--,0.00,0.00
"Carbohydrate, by difference",g,--,--,0.00,0.00
"Fiber, total dietary",g,--,--,0.0,0.0
"Sugars, total",g,--,--,0.00,0.00
Minerals
"Calcium, Ca",mg,--,--,0,0
"Iron, Fe",mg,--,--,0.00,0.00
"Sodium, Na",mg,--,--,95,317
Vitamins
"Vitamin C, total ascorbic acid",mg,--,--,0.0,0.0
"Vitamin A, IU",IU,--,--,0,0
Lipids
"Fatty acids, total saturated",g,--,--,0.000,0.000
"Fatty acids, total trans",g,--,--,0.000,0.000
"Cholesterol",mg,--,--,0,0
Amino Acids
Other
Ingredients
"TRIPLE FILTERED PURIFIED WATER, CELLULOSE GEL, MAPLE FLAVOR, SUCRALOSE, SALT, SODIUM ACID SULFATE, XANTHAN GUM, SODIUM BENZOATE, POTASSIUM SORBATE (TO PRESERVE FRESHNESS), CARAMEL COLOR, NATURAL FLAVORS, BETA CAROTENE *CONTAINS TRACE CALORIES." Date available: 06/25/2017 Date last updated by company: 06/25/2017
