Source: USDA Branded Food Products Database Release December 2017 Software v.3.8.6.4 2017-10-02
Report Run at: December 18, 2017 23:11 EST
"Nutrient data for: 45250546, WALGREEN CO., HAPPY SPRING EASTER JELLY BEANS, UPC: 049022818132"
Food Group:  Branded Food Products Database
Common Name:

Nutrient,Unit,Data points,Std. Error,"17.0 PIECES = 50.0g",1Value per 100 g,
Proximates
"Energy",kcal,--,--,180,360
"Protein",g,--,--,0.00,0.00
"Total lipid (fat)",g,--,--,0.00,0.00
"Carbohydrate, by difference",g,--,--,46.00,92.00
"Fiber, total dietary",g,--,--,0.0,0.0
"Sugars, total",g,--,--,34.00,68.00
Minerals
"Calcium, Ca",mg,--,--,0,0
"Iron, Fe",mg,--,--,0.00,0.00
"Sodium, Na",mg,--,--,10,20
Vitamins
"Vitamin C, total ascorbic acid",mg,--,--,0.0,0.0
"Vitamin A, IU",IU,--,--,0,0
Lipids
"Fatty acids, total saturated",g,--,--,0.000,0.000
"Fatty acids, total trans",g,--,--,0.000,0.000
"Cholesterol",mg,--,--,0,0
Amino Acids
Other
Ingredients
"SUGAR, CORN SYRUP, WATER, MODIFIED CORN STARCH, GUM ARABIC, ARTIFICIAL FLAVOR, CARNUABA WAX, SHELLAC, OCTYL AND DECYL GLYCERATE, CITRIC ACID, MALIC ACID, TITANIUM DIOXIDE, FD&C RED NO. 40, FD&C YELLOW NO. 5, FD&C YELLOW NO. 6 FD&C BLUE NO. 1." Date available: 07/14/2017 Date last updated by company: 07/14/2017
