Source: USDA Branded Food Products Database Release December 2017 Software v.3.8.6.4 2017-10-02
Report Run at: December 18, 2017 23:14 EST
"Nutrient data for: 45169086, WALLABY, ORGANIC PURELY UNSWEETENED WHOLE MILK GREEK YOGURT, BLUEBERRIES, UPC: 795709089011"
Food Group:  Branded Food Products Database
Common Name:

Nutrient,Unit,Data points,Std. Error,"1 CONTAINER = 150.0g",1Value per 100 g,
Proximates
"Energy",kcal,--,--,120,80
"Protein",g,--,--,10.01,6.67
"Total lipid (fat)",g,--,--,5.00,3.33
"Carbohydrate, by difference",g,--,--,8.00,5.33
"Fiber, total dietary",g,--,--,1.1,0.7
"Sugars, total",g,--,--,5.00,3.33
Minerals
"Calcium, Ca",mg,--,--,150,100
"Iron, Fe",mg,--,--,0.00,0.00
"Sodium, Na",mg,--,--,56,37
Vitamins
"Vitamin C, total ascorbic acid",mg,--,--,0.0,0.0
"Vitamin A, IU",IU,--,--,340,227
Lipids
"Fatty acids, total saturated",g,--,--,3.495,2.330
"Fatty acids, total trans",g,--,--,0.000,0.000
"Cholesterol",mg,--,--,20,13
Amino Acids
Other
Ingredients
"STRAINED YOGURT: CULTURED PASTEURIZED ORGANIC MILK & CREAM, BLUEBERRY FRUIT PREPARATION: ORGANIC BLUEBERRIES, NATURAL FLAVORS, ORGANIC LOCUST BEAN GUM, PECTIN, FRUIT AND VEGETABLE JUICE FOR COLOR." Date available: 07/14/2017 Date last updated by company: 07/14/2017
