Source: USDA Branded Food Products Database Release December 2017 Software v.3.8.6.4 2017-10-02
Report Run at: December 18, 2017 23:17 EST
"Nutrient data for: 45153140, WALNUT LADIES FINGER, UPC: 644744698767"
Food Group:  Branded Food Products Database
Common Name:

Nutrient,Unit,Data points,Std. Error,"1 ONZ = 28.0g",1Value per 100 g,
Proximates
"Energy",kcal,--,--,42,150
"Protein",g,--,--,1.00,3.57
"Total lipid (fat)",g,--,--,2.00,7.14
"Carbohydrate, by difference",g,--,--,3.00,10.71
"Fiber, total dietary",g,--,--,0.0,0.0
"Sugars, total",g,--,--,3.00,10.71
Minerals
"Calcium, Ca",mg,--,--,0,0
"Iron, Fe",mg,--,--,0.18,0.64
"Sodium, Na",mg,--,--,21,75
"Zinc, Zn",mg,--,--,0.00,0.00
Vitamins
"Vitamin C, total ascorbic acid",mg,--,--,0.0,0.0
"Vitamin A, IU",IU,--,--,100,357
Lipids
"Fatty acids, total monounsaturated",g,--,--,1.000,3.570
"Cholesterol",mg,--,--,0,0
Amino Acids
Other
Ingredients
"SUGAR, MARGARINE, WATER, FLOUR, ALL PURPOSE, WALNUTS" Date available: 03/09/2017 Date last updated by company: 03/09/2017
