Source: USDA Branded Food Products Database Release December 2017 Software v.3.8.6.4 2017-10-02
Report Run at: December 18, 2017 23:16 EST
"Nutrient data for: 45172802, WALNUT CREEK FOODS, PIZZA CRUST, UPC: 025555300474"
Food Group:  Branded Food Products Database
Common Name:

Nutrient,Unit,Data points,Std. Error,"0.125 CRUST = 43.0g",1Value per 100 g,
Proximates
"Energy",kcal,--,--,110,256
"Protein",g,--,--,3.00,6.98
"Total lipid (fat)",g,--,--,1.50,3.49
"Carbohydrate, by difference",g,--,--,21.00,48.84
"Fiber, total dietary",g,--,--,0.0,0.0
"Sugars, total",g,--,--,1.00,2.33
Minerals
"Calcium, Ca",mg,--,--,30,70
"Iron, Fe",mg,--,--,6.91,16.06
"Sodium, Na",mg,--,--,125,291
Vitamins
"Vitamin C, total ascorbic acid",mg,--,--,0.0,0.0
"Vitamin A, IU",IU,--,--,0,0
Lipids
"Fatty acids, total saturated",g,--,--,0.000,0.000
"Fatty acids, total trans",g,--,--,0.000,0.000
"Cholesterol",mg,--,--,0,0
Amino Acids
Other
Ingredients
"ENRICHED WHEAT FLOUR (MALTED BARLEY, NIACIN, REDUCED IRON, POTASSIUM BROMATE, THIAMINE MONONITRATE, RIBOFLAVIN, FOLIC ACID), WATER, SUGAR, CANOLA OIL, YEAST, CONTAINS LESS THAN 2% SALT, L-CYSTEINE HYDROCHLORIDE, CALCIUM PROPIONATE." Date available: 07/14/2017 Date last updated by company: 07/14/2017
