Source: USDA Branded Food Products Database Release December 2017 Software v.3.8.6.4 2017-10-02
Report Run at: December 19, 2017 00:06 EST
"Nutrient data for: 45203961, WARRIOR BUFFALO MEAT BAR, UPC: 897737001086"
Food Group:  Branded Food Products Database
Common Name:

Nutrient,Unit,Data points,Std. Error,"1 BAR = 56.0g",1Value per 100 g,
Proximates
"Energy",kcal,--,--,140,250
"Protein",g,--,--,14.00,25.00
"Total lipid (fat)",g,--,--,4.00,7.14
"Carbohydrate, by difference",g,--,--,14.00,25.00
"Fiber, total dietary",g,--,--,2.0,3.6
"Sugars, total",g,--,--,12.00,21.43
Minerals
"Calcium, Ca",mg,--,--,40,71
"Iron, Fe",mg,--,--,1.03,1.84
"Sodium, Na",mg,--,--,520,929
Vitamins
"Vitamin C, total ascorbic acid",mg,--,--,0.0,0.0
"Vitamin A, IU",IU,--,--,0,0
Lipids
"Fatty acids, total saturated",g,--,--,1.999,3.570
"Fatty acids, total trans",g,--,--,0.000,0.000
"Cholesterol",mg,--,--,40,71
Amino Acids
Other
Ingredients
"BUFFALO, DRIED CRANBERRIES (CRANBERRIES, SUGAR), SEA SALT, ENCAPSULATED LACTIC ACID, CELERY JUICE, BLACK PEPPER, HABENERO PEPPER, JALAPENO PEPPER, SPICES, GARLIC, ONION POWDER, RED PEPPER." Date available: 07/14/2017 Date last updated by company: 07/14/2017
