Source: USDA Branded Food Products Database Release December 2017 Software v.3.8.6.4 2017-10-02
Report Run at: December 19, 2017 00:06 EST
"Nutrient data for: 45331116, WARWICK ICE CREAM, UPC: 745767008011"
Food Group:  Branded Food Products Database
Common Name:

Nutrient,Unit,Data points,Std. Error,"0.5 cup = 102.0g",1Value per 100 g,
Proximates
"Energy",kcal,--,--,250,245
"Protein",g,--,--,5.00,4.90
"Total lipid (fat)",g,--,--,15.00,14.71
"Carbohydrate, by difference",g,--,--,25.00,24.51
"Fiber, total dietary",g,--,--,0.0,0.0
"Sugars, total",g,--,--,22.00,21.57
Minerals
"Calcium, Ca",mg,--,--,150,147
"Iron, Fe",mg,--,--,0.00,0.00
"Sodium, Na",mg,--,--,90,88
Vitamins
"Vitamin C, total ascorbic acid",mg,--,--,0.0,0.0
"Vitamin A, IU",IU,--,--,500,490
Lipids
"Fatty acids, total saturated",g,--,--,8.996,8.820
"Fatty acids, total trans",g,--,--,0.000,0.000
"Cholesterol",mg,--,--,55,54
Amino Acids
Other
Ingredients
"MILK, CREAM, ORGANIC SUGAR, CHOCOLATE SANDWICH CREME COOKIES (ORGANIC UNBLEACHED WHEAT FLOUR, ORGANIC POWDERED SUGAR WITH ORGANIC CORN STARCH, ORGANIC SUNFLOWER OIL, ORGANIC SUGAR, ORGANIC COCOA PROCESSED WITH ALKALI, ORGANIC CANE SYRUP, ORGANIC CHOCOLATE LIQUOR, BAKING SODA, ORGANIC VANILLA EXTRACT, NATURAL FLAVORS, SEA SALT, SOY LECITHIN)., SKIM MILK, NATURAL COFFEE EXTRACT, GUAR GUM, LOCUST BEAN GUM" Date available: 10/13/2017 Date last updated by company: 10/13/2017
