Source: USDA Branded Food Products Database Release December 2017 Software v.3.8.6.4 2017-10-02
Report Run at: December 19, 2017 00:08 EST
"Nutrient data for: 45178648, WASATCH, PEACH COBBLER GRANOLA, UPC: 095248443245"
Food Group:  Branded Food Products Database
Common Name:

Nutrient,Unit,Data points,Std. Error,"1 ONZ = 28.0g",1Value per 100 g,
Proximates
"Energy",kcal,--,--,120,429
"Protein",g,--,--,3.00,10.71
"Total lipid (fat)",g,--,--,5.00,17.86
"Carbohydrate, by difference",g,--,--,17.00,60.71
"Fiber, total dietary",g,--,--,2.0,7.1
"Sugars, total",g,--,--,7.00,25.00
Minerals
"Calcium, Ca",mg,--,--,20,71
"Iron, Fe",mg,--,--,1.41,5.05
"Sodium, Na",mg,--,--,30,107
Vitamins
"Vitamin C, total ascorbic acid",mg,--,--,0.0,0.0
"Vitamin A, IU",IU,--,--,0,0
Lipids
"Fatty acids, total saturated",g,--,--,1.000,3.570
"Fatty acids, total trans",g,--,--,0.000,0.000
"Cholesterol",mg,--,--,0,0
Amino Acids
Other
Ingredients
"OATS, HONEY, PEACHES (PEACHES, SULFUR DIOXIDE [A PRESERVATIVE]), OAT BRAN, CANOLA OIL, CASHEWS, PINEAPPLE (PINEAPPLE, SUGAR, HONEY, AND SULFUR DIOXIDE [A PRESERVATIVE]), FLAX SEED, ALMOND, COCONUT, NATURAL FLAVORS, SPICES, SALT." Date available: 07/14/2017 Date last updated by company: 07/14/2017
