Source: USDA Branded Food Products Database Release December 2017 Software v.3.8.6.4 2017-10-02
Report Run at: December 19, 2017 00:07 EST
"Nutrient data for: 45108906, WASABI PEAS, UPC: 014500015761"
Food Group:  Branded Food Products Database
Common Name:

Nutrient,Unit,Data points,Std. Error,"0.67 cup = 85.0g",1Value per 100 g,
Proximates
"Energy",kcal,--,--,80,94
"Protein",g,--,--,4.00,4.71
"Total lipid (fat)",g,--,--,2.00,2.35
"Carbohydrate, by difference",g,--,--,12.00,14.12
"Fiber, total dietary",g,--,--,4.0,4.7
"Sugars, total",g,--,--,4.00,4.71
Minerals
"Calcium, Ca",mg,--,--,0,0
"Iron, Fe",mg,--,--,1.08,1.27
"Sodium, Na",mg,--,--,300,353
Vitamins
"Vitamin C, total ascorbic acid",mg,--,--,6.0,7.1
"Vitamin A, IU",IU,--,--,400,471
Lipids
"Fatty acids, total saturated",g,--,--,0.000,0.000
"Fatty acids, total trans",g,--,--,0.000,0.000
"Cholesterol",mg,--,--,0,0
Amino Acids
Other
Ingredients
"PEAS, WASABI SEASONING (SALT, MALTODEXTRIN, MUSTARD, MODIFIED FOOD STARCH, SUGAR, YEAST EXTRACT, ONION POWDER, DEHYDRATED PARSLEY, WHITE DISTILLED VINEGAR POWDER, NATURAL FLAVORS, CITRIC ACID, WASABI POWDER), EXTRA VIRGIN OLIVE OIL." Date available: 07/14/2017 Date last updated by company: 07/14/2017
