Source: USDA Branded Food Products Database Release December 2017 Software v.3.8.6.4 2017-10-02
Report Run at: December 19, 2017 00:06 EST
"Nutrient data for: 45141599, WASABI MIX, UPC: 019061090813"
Food Group:  Branded Food Products Database
Common Name:

Nutrient,Unit,Data points,Std. Error,"0.33 cup = 30.0g",1Value per 100 g,
Proximates
"Energy",kcal,--,--,150,500
"Protein",g,--,--,6.00,20.00
"Total lipid (fat)",g,--,--,6.00,20.00
"Carbohydrate, by difference",g,--,--,12.00,40.00
"Fiber, total dietary",g,--,--,1.0,3.3
"Sugars, total",g,--,--,2.00,6.67
Minerals
"Calcium, Ca",mg,--,--,20,67
"Iron, Fe",mg,--,--,1.20,4.00
"Sodium, Na",mg,--,--,160,533
Vitamins
"Vitamin C, total ascorbic acid",mg,--,--,0.0,0.0
"Vitamin A, IU",IU,--,--,0,0
Lipids
"Fatty acids, total saturated",g,--,--,0.999,3.330
"Fatty acids, total trans",g,--,--,0.000,0.000
"Cholesterol",mg,--,--,0,0
Amino Acids
Other
Ingredients
"DRY ROAST PEANUTS, WHEAT FLOUR, RICE FLOUR, SALT, SOY SAUCE (WATER, SOYBEANS, SALT, ALCOHOL, WHEAT), SUGAR, AMMONIUM BICARBONATE, BAKING SODA, SALT, GLUTINOUS RICE, MODIFIED STARCH, CHILI, RICE, CORN STARCH, MODIFIED TAPIOCA STARCH, DEXTRIN, CARAMEL COLOR, COOKING WINE (RICE, WATER, ALCOHOL, GLUCOSE), CHILI & ONION POWDER, GARLIC POWDER, MONOSODIUM GLUTAMATE, POTATO STARCH, GREEN PEAS (PRODUCT OF MALAYSIA), ALMONDS, SOYBEANS, PALM OIL, SOYBEAN OIL, LIQUID SUGAR, WASABI FLAVOR, SPICES, YEAST EXTRACT, RED PEPPER EXTRACT, FD&C COLORS YELLOW #5 & #6, BLUE #1, TURMERIC." Date available: 07/14/2017 Date last updated by company: 07/14/2017
