Source: USDA Branded Food Products Database Release December 2017 Software v.3.8.6.4 2017-10-02
Report Run at: December 19, 2017 00:08 EST
"Nutrient data for: 45205377, WATCHAREE'S, THAI PEANUT SAUCE, UPC: 094368999977"
Food Group:  Branded Food Products Database
Common Name:

Nutrient,Unit,Data points,Std. Error,"2.0 Tbsp = 35.0g",1Value per 100 g,
Proximates
"Energy",kcal,--,--,100,286
"Protein",g,--,--,1.00,2.86
"Total lipid (fat)",g,--,--,6.00,17.14
"Carbohydrate, by difference",g,--,--,10.00,28.57
"Fiber, total dietary",g,--,--,1.0,2.9
"Sugars, total",g,--,--,8.00,22.86
Minerals
"Sodium, Na",mg,--,--,240,686
Vitamins
"Vitamin C, total ascorbic acid",mg,--,--,4.1,11.6
Lipids
"Fatty acids, total saturated",g,--,--,2.499,7.140
Amino Acids
Other
Ingredients
"COCONUT MILK (COCONUT EXTRACT 60%, WATER), COCONUT SUGAR, PEANUT BUTTER (PEANUTS, SALT), SUGAR, KEY LIME PUREE, MASSAMAN CURRY PASTE (GARLIC, SUGAR, SOYBEAN OIL, DRIED RED CHILIS, TAMARIND JUICE, SHALLOT, SALT, LEMON GRASS, SPICES (CORIANDER SEEDS, CUMIN, CARDAMOM, BAY LEAVES, LESSER GALANGAL, CLOVES), KAFFIR LIME LEAVES, GALANGAL), RED CURRY PASTE (DRIED RED CHILIS, GARLIC, SHALLOT, SALT, LEMON GRASS, SUGAR, KAFFIR LIME, GALANGAL, SPICES (CORIANDER SEEDS, CUMIN, CARDAMOM), CITRIC), CANOLA OIL, TAMARIND CONCENTRATE (TAMARIND, WATER), KOSHER SALT" Date available: 10/19/2017 Date last updated by company: 10/19/2017
