Source: USDA Branded Food Products Database Release December 2017 Software v.3.8.6.4 2017-10-02
Report Run at: December 19, 2017 00:10 EST
"Nutrient data for: 45143470, WATERHILL NATURALS, COCONUT WATER, UPC: 052294700081"
Food Group:  Branded Food Products Database
Common Name:

Nutrient,Unit,Data points,Std. Error,"1 BOOTLE = 235.0g",1Value per 100 g,
Proximates
"Energy",kcal,--,--,45,19
"Protein",g,--,--,0.00,0.00
"Total lipid (fat)",g,--,--,0.00,0.00
"Carbohydrate, by difference",g,--,--,11.00,4.68
"Fiber, total dietary",g,--,--,0.0,0.0
"Sugars, total",g,--,--,10.01,4.26
Minerals
"Calcium, Ca",mg,--,--,80,34
"Iron, Fe",mg,--,--,0.00,0.00
"Potassium, K",mg,--,--,475,202
"Sodium, Na",mg,--,--,0,0
Vitamins
"Vitamin C, total ascorbic acid",mg,--,--,0.0,0.0
"Vitamin A, IU",IU,--,--,0,0
Lipids
"Fatty acids, total saturated",g,--,--,0.000,0.000
"Fatty acids, total trans",g,--,--,0.000,0.000
"Cholesterol",mg,--,--,0,0
Amino Acids
Other
Ingredients
"100% RAW ORGANIC COCONUT WATER." Date available: 07/14/2017 Date last updated by company: 07/14/2017
