Source: USDA Branded Food Products Database Release December 2017 Software v.3.8.6.4 2017-10-02
Report Run at: December 19, 2017 00:12 EST
"Nutrient data for: 45289271, WATERMELON LEMONADE, UPC: 793674830294"
Food Group:  Branded Food Products Database
Common Name:

Nutrient,Unit,Data points,Std. Error,"8.0 OZA = 240.0g",1Value per 100 g,
Proximates
"Energy",kcal,--,--,110,46
"Protein",g,--,--,0.00,0.00
"Total lipid (fat)",g,--,--,0.00,0.00
"Carbohydrate, by difference",g,--,--,30.00,12.50
"Sugars, total",g,--,--,28.99,12.08
Minerals
"Sodium, Na",mg,--,--,19,8
Vitamins
Lipids
"Fatty acids, total trans",g,--,--,0.000,0.000
Amino Acids
Other
Ingredients
"CARBONATED WATER, SUGAR, CITRIC ACID, SODIUM BENZOATE (AS PRESERVATIVE), POTASSIUM CITRATE, NATURAL AND ARTIFICIAL FLAVORS, FOOD STARCH-MODIFIED, FD&C RED #40, ESTER GUM, BROMINATED VEGETABLE OIL AND POTASSIUM SORBATE (AS PRESERVATIVE)." Date available: 07/14/2017 Date last updated by company: 07/14/2017
