Source: USDA Branded Food Products Database Release December 2017 Software v.3.8.6.4 2017-10-02
Report Run at: December 19, 2017 00:11 EST
"Nutrient data for: 45225976, WATERMELON CHUNKS, UPC: 077890246610"
Food Group:  Branded Food Products Database
Common Name:

Nutrient,Unit,Data points,Std. Error,"9.88 ONZ = 280.0g",1Value per 100 g,
Proximates
"Energy",kcal,--,--,81,29
"Protein",g,--,--,1.01,0.36
"Carbohydrate, by difference",g,--,--,21.00,7.50
"Sugars, total",g,--,--,19.99,7.14
Minerals
"Calcium, Ca",mg,--,--,20,7
"Iron, Fe",mg,--,--,0.73,0.26
"Sodium, Na",mg,--,--,0,0
Vitamins
"Vitamin C, total ascorbic acid",mg,--,--,15.1,5.4
"Vitamin A, IU",IU,--,--,1501,536
Lipids
Amino Acids
Other
Ingredients
"WATERMELON" Date available: 12/31/2016 Date last updated by company: 12/31/2016
