Source: USDA Branded Food Products Database Release December 2017 Software v.3.8.6.4 2017-10-02
Report Run at: December 19, 2017 00:15 EST
"Nutrient data for: 45186595, WATKINS, GOURMET HERB SEASONING, GARLIC, UPC: 818570008728"
Food Group:  Branded Food Products Database
Common Name:

Nutrient,Unit,Data points,Std. Error,"0.25 tsp = 1.0g",1Value per 100 g,
Proximates
"Energy",kcal,--,--,5,500
"Protein",g,--,--,0.00,0.00
"Total lipid (fat)",g,--,--,0.00,0.00
"Carbohydrate, by difference",g,--,--,1.00,100.00
Minerals
"Sodium, Na",mg,--,--,80,8000
Vitamins
Lipids
Amino Acids
Other
Ingredients
"SPICES, SALT, GARLIC POWDER, DEHYDRATED ONION, SORBITOL (10.9%), MODIFIED FOOD STARCH, NATURAL FLAVOR, NOT MORE THAN 2% SILICON DIOXIDE (ANTI-CAKING AGENT)." Date available: 07/14/2017 Date last updated by company: 07/14/2017
