Source: USDA Branded Food Products Database Release December 2017 Software v.3.8.6.4 2017-10-02
Report Run at: December 19, 2017 00:18 EST
"Nutrient data for: 45098962, WAY BETTER SNACKS, SIMPLY SPICY CORN TORTILLA CHIPS, SRIRACHA, UPC: 855564003215"
Food Group:  Branded Food Products Database
Common Name:

Nutrient,Unit,Data points,Std. Error,"9.0 CHIPS | ABOUT = 28.0g",1Value per 100 g,
Proximates
"Energy",kcal,--,--,130,464
"Protein",g,--,--,2.00,7.14
"Total lipid (fat)",g,--,--,7.00,25.00
"Carbohydrate, by difference",g,--,--,14.00,50.00
"Fiber, total dietary",g,--,--,3.0,10.7
"Sugars, total",g,--,--,0.00,0.00
Minerals
"Calcium, Ca",mg,--,--,40,143
"Iron, Fe",mg,--,--,1.29,4.59
"Sodium, Na",mg,--,--,120,429
Vitamins
"Vitamin C, total ascorbic acid",mg,--,--,0.0,0.0
"Vitamin A, IU",IU,--,--,179,638
Lipids
"Fatty acids, total saturated",g,--,--,0.501,1.790
"Fatty acids, total monounsaturated",g,--,--,4.500,16.070
"Fatty acids, total polyunsaturated",g,--,--,1.501,5.360
"Fatty acids, total trans",g,--,--,0.000,0.000
"Cholesterol",mg,--,--,0,0
Amino Acids
Other
Ingredients
"STONE GROUND NON-GMO CORN, SUNFLOWER AND/OR SAFFLOWER OIL, SPROUTED SEED AND GRAIN BLEND (SPROUTED FLAX SEED, SPROUTED QUINOA, SPROUTED KALE SEED), SRIRACHA BLEND (PURE CANE SUGAR, SEA SALT, APPLE CIDER VINEGAR, PAPRIKA, NATURAL FLAVORING, GARLIC, SPICES, ONION)." Date available: 07/14/2017 Date last updated by company: 07/14/2017
