Source: USDA Branded Food Products Database Release December 2017 Software v.3.8.6.4 2017-10-02
Report Run at: December 19, 2017 00:20 EST
"Nutrient data for: 45027564, WEBER, GARLIC SRIRACHA SEASONING, UPC: 047600003673"
Food Group:  Branded Food Products Database
Common Name:

Nutrient,Unit,Data points,Std. Error,"0.25 tsp = 0.9g",1Value per 100 g,
Proximates
"Energy",kcal,--,--,0,0
"Protein",g,--,--,0.00,0.00
"Total lipid (fat)",g,--,--,0.00,0.00
"Carbohydrate, by difference",g,--,--,0.00,0.00
Minerals
"Sodium, Na",mg,--,--,90,10000
Vitamins
Lipids
Amino Acids
Other
Ingredients
"SALT, SUGAR, GARLIC, MALTODEXTRIN, CHILI PEPPER, RED PEPPER, CITRIC ACID, RICE CONCENTRATE, PAPRIKA EXTRACTIVES (COLOR), VINEGAR, NATURAL FLAVORS." Date available: 07/14/2017 Date last updated by company: 07/14/2017
