Source: USDA Branded Food Products Database Release December 2017 Software v.3.8.6.4 2017-10-02
Report Run at: December 19, 2017 00:29 EST
"Nutrient data for: 45157156, WEGMANS, MILK CHOCOLATE JUMBO PRETZELS WITH SPRINKLES, UPC: 077890366127"
Food Group:  Branded Food Products Database
Common Name:

Nutrient,Unit,Data points,Std. Error,"1 ONZ = 28.0g",1Value per 100 g,
Proximates
"Energy",kcal,--,--,135,482
"Protein",g,--,--,2.00,7.14
"Total lipid (fat)",g,--,--,6.00,21.43
"Carbohydrate, by difference",g,--,--,19.00,67.86
"Fiber, total dietary",g,--,--,0.0,0.0
"Sugars, total",g,--,--,11.00,39.29
Minerals
"Calcium, Ca",mg,--,--,40,143
"Iron, Fe",mg,--,--,0.00,0.00
"Sodium, Na",mg,--,--,72,257
Vitamins
"Vitamin C, total ascorbic acid",mg,--,--,0.0,0.0
"Vitamin A, IU",IU,--,--,0,0
Lipids
"Fatty acids, total saturated",g,--,--,5.001,17.860
"Fatty acids, total trans",g,--,--,0.000,0.000
"Cholesterol",mg,--,--,5,18
Amino Acids
Other
Ingredients
"SUGAR, MILK, COCOA BUTTER, CHOCOLATE LIQUOR, SOY LECITHIN, VANILLIN, (AN ARTIFICIAL FLAVOR), UNBLEACHED WHEAT FLOUR, WATER, CANOLA OIL, SALT, MALT, YEAST, SODA, SUGAR, CORN STARCH, PARTIALLY HYDROGENATED VEGETABLE OIL (COTTONSEED AND OR SOYBEAN) SOY LECITHIN, DEXTRIN, CONFECTIONERS GLAZE NATURAL & ARTIFICIAL FLAVOR, RED 40 LAKE, CARNAUBA WAX, YELLOW 6 BLUE 1 LAKE, YELLOW 5 LAKE, RED 3, BLUE 1, RED 40." Date available: 10/13/2017 Date last updated by company: 10/13/2017
