Source: USDA Branded Food Products Database Release December 2017 Software v.3.8.6.4 2017-10-02
Report Run at: December 19, 2017 00:25 EST
"Nutrient data for: 45176587, WEGMANS FOOD MARKETS, CHEESE BREAD WITH HATCH CHILE PEPPERS, UPC: 077890373651"
Food Group:  Branded Food Products Database
Common Name:

Nutrient,Unit,Data points,Std. Error,"1 } 1"""" SLICE) | ({ = 57.0g",1Value per 100 g,
Proximates
"Energy",kcal,--,--,140,246
"Protein",g,--,--,7.00,12.28
"Total lipid (fat)",g,--,--,5.00,8.77
"Carbohydrate, by difference",g,--,--,17.00,29.82
"Fiber, total dietary",g,--,--,1.0,1.8
"Sugars, total",g,--,--,1.00,1.75
Minerals
"Calcium, Ca",mg,--,--,100,175
"Iron, Fe",mg,--,--,0.95,1.66
"Sodium, Na",mg,--,--,290,509
Vitamins
"Vitamin C, total ascorbic acid",mg,--,--,1.0,1.8
"Vitamin A, IU",IU,--,--,176,308
Lipids
"Fatty acids, total saturated",g,--,--,2.502,4.390
"Fatty acids, total trans",g,--,--,0.000,0.000
"Cholesterol",mg,--,--,30,53
Amino Acids
Other
Ingredients
"ENRICHED WHEAT FLOUR*, WATER, CHEDDAR CHEESE (PASTEURIZED CULTURED WHOLE MILK SALT, ENZYMES, NATURAL ANNATTO COLOR), WHOLE EGGS, PARMESAN CHEESE (PASTEURIZED MILK, CHEESE CULTURE, SALT, ENZYMES) HATCH CHILE PEPPERS, YEAST, SEA SALT, OLIVE OIL, MALT, NIACIN, REDUCED IRON, THIAMIN MONONITRATE, RIBOFLAVIN, FOLIC ACID." Date available: 07/14/2017 Date last updated by company: 07/14/2017
