Source: USDA Branded Food Products Database Release December 2017 Software v.3.8.6.4 2017-10-02
Report Run at: December 19, 2017 00:25 EST
"Nutrient data for: 45176574, WEGMANS FOOD MARKETS, HARVEST BREAD HALF LOAF, UPC: 077890371275"
Food Group:  Branded Food Products Database
Common Name:

Nutrient,Unit,Data points,Std. Error,"1 - 0.75"""" SLICE = 50.0g",1Value per 100 g,
Proximates
"Energy",kcal,--,--,130,260
"Protein",g,--,--,6.00,12.00
"Total lipid (fat)",g,--,--,2.00,4.00
"Carbohydrate, by difference",g,--,--,23.00,46.00
"Fiber, total dietary",g,--,--,4.0,8.0
"Sugars, total",g,--,--,3.00,6.00
Minerals
"Calcium, Ca",mg,--,--,0,0
"Iron, Fe",mg,--,--,1.19,2.38
"Sodium, Na",mg,--,--,170,340
Vitamins
"Vitamin C, total ascorbic acid",mg,--,--,0.0,0.0
"Vitamin A, IU",IU,--,--,1100,2200
Lipids
"Fatty acids, total saturated",g,--,--,0.000,0.000
"Fatty acids, total trans",g,--,--,0.000,0.000
"Cholesterol",mg,--,--,0,0
Amino Acids
Other
Ingredients
"ORGANIC WHOLE WHEAT FLOUR, WATER, PUMPKIN PUREE, HONEY, WHEAT GLUTEN CONTAINS 2% ORE LESS OF THE FOLLOWING: YEAST, CARROTS, PUMPKIN SEEDS, WHEAT , MOLASSES, SOYBEAN OIL,OATS, SEA SALT, RYE, SPICES, SUNFLOWER SEEDS, CRACKED WHEAT, RYE FLAKES, SESAME SEEDS, BARLEY, CORN, TRITICALE, MILLET, RICE BRAN, WHEAT GERM, FLAXSEEDS." Date available: 07/14/2017 Date last updated by company: 07/14/2017
