Source: USDA Branded Food Products Database Release December 2017 Software v.3.8.6.4 2017-10-02
Report Run at: December 19, 2017 00:29 EST
"Nutrient data for: 45152662, WEGMANS, MILK CHOCOLATE HAZEL NUTTIN CUPS, UPC: 077890392201"
Food Group:  Branded Food Products Database
Common Name:

Nutrient,Unit,Data points,Std. Error,"4.0 BUTTER CUPS = 42.0g",1Value per 100 g,
Proximates
"Energy",kcal,--,--,230,548
"Protein",g,--,--,3.00,7.14
"Total lipid (fat)",g,--,--,13.00,30.95
"Carbohydrate, by difference",g,--,--,25.00,59.52
"Fiber, total dietary",g,--,--,1.0,2.4
"Sugars, total",g,--,--,24.00,57.14
Minerals
"Calcium, Ca",mg,--,--,100,238
"Iron, Fe",mg,--,--,0.86,2.04
"Sodium, Na",mg,--,--,30,71
Vitamins
"Vitamin C, total ascorbic acid",mg,--,--,0.0,0.0
"Vitamin A, IU",IU,--,--,0,0
Lipids
"Fatty acids, total saturated",g,--,--,7.001,16.670
"Fatty acids, total trans",g,--,--,0.000,0.000
"Cholesterol",mg,--,--,5,12
Amino Acids
Other
Ingredients
"MILK CHOCOLATE: SUGAR, MILK, COCOA BUTTER, CHOCOLATE LIQUOR, SOY LECITHIN (AN EMULSIFIER) VANILLIN (AN ARTIFICIAL FLAVOR). HAZEL NUTTIN FILLING: SUGAR. VEGETABLE OILS (PALM RAPSEED), HAZELNUTS, COCOA POWDER, SKIMMED MILK POWDER. WHEY POWDER, LACTOSE, SUNFLOWER LECITHIN (EMULSIFIER), VANILLA FLAVOR." Date available: 07/14/2017 Date last updated by company: 07/14/2017
