Source: USDA Branded Food Products Database Release December 2017 Software v.3.8.6.4 2017-10-02
Report Run at: December 19, 2017 00:25 EST
"Nutrient data for: 45176183, WEGMANS, FAT FREE RICOTTA, UPC: 077890900956"
Food Group:  Branded Food Products Database
Common Name:

Nutrient,Unit,Data points,Std. Error,"0.25 cup = 62.0g",1Value per 100 g,
Proximates
"Energy",kcal,--,--,45,73
"Protein",g,--,--,6.00,9.68
"Total lipid (fat)",g,--,--,0.00,0.00
"Carbohydrate, by difference",g,--,--,4.00,6.45
"Fiber, total dietary",g,--,--,1.0,1.6
"Sugars, total",g,--,--,4.00,6.45
Minerals
"Calcium, Ca",mg,--,--,200,323
"Iron, Fe",mg,--,--,0.00,0.00
"Sodium, Na",mg,--,--,75,121
Vitamins
"Vitamin C, total ascorbic acid",mg,--,--,1.1,1.7
"Vitamin A, IU",IU,--,--,177,286
Lipids
"Fatty acids, total saturated",g,--,--,0.000,0.000
"Fatty acids, total trans",g,--,--,0.000,0.000
"Cholesterol",mg,--,--,15,24
Amino Acids
Other
Ingredients
"SKIM MILK, WHEY*, SALT, VINEGAR, XANTHAN GUM, LOCUST BEAN GUM, GUAR GUM (STABILIZERS), AND VITAMIN A PALMITATE." Date available: 07/14/2017 Date last updated by company: 07/14/2017
