Source: USDA Branded Food Products Database Release December 2017 Software v.3.8.6.4 2017-10-02
Report Run at: December 19, 2017 00:31 EST
"Nutrient data for: 45176578, WEGMANS, ORGANIC WHITE PITA BREAD, UPC: 077890373170"
Food Group:  Branded Food Products Database
Common Name:

Nutrient,Unit,Data points,Std. Error,"1 PITA = 90.0g",1Value per 100 g,
Proximates
"Energy",kcal,--,--,220,244
"Protein",g,--,--,8.00,8.89
"Total lipid (fat)",g,--,--,3.00,3.33
"Carbohydrate, by difference",g,--,--,42.00,46.67
"Fiber, total dietary",g,--,--,1.0,1.1
"Sugars, total",g,--,--,3.00,3.33
Minerals
"Calcium, Ca",mg,--,--,20,22
"Iron, Fe",mg,--,--,1.50,1.67
"Potassium, K",mg,--,--,65,72
"Sodium, Na",mg,--,--,310,344
Vitamins
"Vitamin C, total ascorbic acid",mg,--,--,0.0,0.0
"Vitamin A, IU",IU,--,--,0,0
Lipids
"Fatty acids, total saturated",g,--,--,0.000,0.000
"Fatty acids, total trans",g,--,--,0.000,0.000
"Cholesterol",mg,--,--,0,0
Amino Acids
Other
Ingredients
"ORGANIC WHEAT FLOUR, WATER, ORGANIC VITAL WHEAT GLUTEN, ORGANIC CANE SYRUP, ORGANIC SUNFLOWER OIL, YEAST, ORGANIC DOUGH CONDITIONER (ORGANIC OAT FLOUR, ASCORBIC ACID, ENZYMES), ORGANIC RAISIN JUICE CONCENTRATE, ORGANIC VINEGAR, CULTURED WHEAT STARCH WITH LACTIC ACID, SEA SALT." Date available: 07/14/2017 Date last updated by company: 07/14/2017
