Source: USDA Branded Food Products Database Release December 2017 Software v.3.8.6.4 2017-10-02
Report Run at: December 19, 2017 00:24 EST
"Nutrient data for: 45157159, WEGMANS, CUT OUT PUMPKIN COOKIES, UPC: 077890373866"
Food Group:  Branded Food Products Database
Common Name:

Nutrient,Unit,Data points,Std. Error,"1 COOKIE = 32.0g",1Value per 100 g,
Proximates
"Energy",kcal,--,--,150,469
"Protein",g,--,--,2.00,6.25
"Total lipid (fat)",g,--,--,6.00,18.75
"Carbohydrate, by difference",g,--,--,22.00,68.75
"Fiber, total dietary",g,--,--,0.0,0.0
"Sugars, total",g,--,--,11.00,34.38
Minerals
"Calcium, Ca",mg,--,--,0,0
"Iron, Fe",mg,--,--,1.13,3.52
"Potassium, K",mg,--,--,20,62
"Sodium, Na",mg,--,--,65,203
Vitamins
"Vitamin C, total ascorbic acid",mg,--,--,0.0,0.0
"Vitamin A, IU",IU,--,--,156,488
Lipids
"Fatty acids, total saturated",g,--,--,2.499,7.810
"Fatty acids, total trans",g,--,--,0.000,0.000
"Cholesterol",mg,--,--,20,62
Amino Acids
Other
Ingredients
"ENRICHED WHEAT FLOUR (WHEAT FLOUR, MALTED BARLEY, NIACIN, REDUCED IRON, THIAMINE MONONITRATE, RIBOFLAVIN, FOLIC ACID), SUGAR, VEGETABLE OILS (CANOLA, PALM, PALM KERNEL), EGGS, BUTTER, WHOLE MILK, 2% OR LESS OF EACH: INVERT SUGAR, SOY LECITHIN, NATURAL FLAVOR, ANNATTO & TURMERIC (FOR COLOR). COLORED SUGAR ALSO CONTAINS: CONFECTIONER'S GLAZE, CARNAUBA WAX, ARTIFICIAL COLOR (FD&C LAKES &/OR DYES: RED 3, BLUE 1, RED 40)." Date available: 07/14/2017 Date last updated by company: 07/14/2017
