Source: USDA Branded Food Products Database Release December 2017 Software v.3.8.6.4 2017-10-02
Report Run at: December 19, 2017 00:31 EST
"Nutrient data for: 45157738, WEGMANS, ORGANIC TRAIL MIX, CHOCOLATE, FRUIT & NUT, UPC: 077890365939"
Food Group:  Branded Food Products Database
Common Name:

Nutrient,Unit,Data points,Std. Error,"0.25 cup = 30.0g",1Value per 100 g,
Proximates
"Energy",kcal,--,--,140,467
"Protein",g,--,--,4.00,13.33
"Total lipid (fat)",g,--,--,8.00,26.67
"Carbohydrate, by difference",g,--,--,15.00,50.00
"Fiber, total dietary",g,--,--,2.0,6.7
"Sugars, total",g,--,--,10.00,33.33
Minerals
"Calcium, Ca",mg,--,--,20,67
"Iron, Fe",mg,--,--,1.80,6.00
"Sodium, Na",mg,--,--,0,0
Vitamins
"Vitamin C, total ascorbic acid",mg,--,--,0.0,0.0
"Vitamin A, IU",IU,--,--,0,0
Lipids
"Fatty acids, total saturated",g,--,--,2.499,8.330
"Fatty acids, total trans",g,--,--,0.000,0.000
"Cholesterol",mg,--,--,0,0
Amino Acids
Other
Ingredients
"ORGANIC DARK CHOCOLATE CHIPS (ORGANIC CANE SUGAR, ORGANIC CHOCOLATE LIQUOR, ORGANIC COCOA BUTTER, SOY LECITHIN, ORGANIC VANILLA EXTRACT), ORGANIC DRY ROASTED PEANUTS, ORGANIC DARK CHOCOLATE RAISINS (ORGANIC RAISINS, ORGANIC SUGAR, ORGANIC DRIED CANE SYRUP, ORGANIC CHOCOLATE LIQUOR, ORGANIC COCOA BUTTER, ORGANIC SOY LECITHIN [AN EMULSIFIER], ORGANIC VANILLA, ORGANIC CONFECTIONER'S GLAZE), ORGANIC PUMPKIN SEEDS, ORGANIC RAISINS (TREATED WITH ORGANIC SUNFLOWER AND/OR ORGANIC CANOLA OIL), ORGANIC ALMONDS, ORGANIC CRANBERRIES (ORGANIC CRANBERRIES, ORGANIC DRIED CANE SYRUP, ORGANIC SUNFLOWER OIL), ORGANIC HULLED SUNFLOWER SEEDS, ORGANIC DICED APPLES." Date available: 07/14/2017 Date last updated by company: 07/14/2017
