Source: USDA Branded Food Products Database Release December 2017 Software v.3.8.6.4 2017-10-02
Report Run at: December 19, 2017 00:36 EST
"Nutrient data for: 45167147, WEI KITCHEN, AMBER VINEGAR, UPC: 019962035357"
Food Group:  Branded Food Products Database
Common Name:

Nutrient,Unit,Data points,Std. Error,"1 Tbsp = 15.0g",1Value per 100 g,
Proximates
"Energy",kcal,--,--,5,33
"Protein",g,--,--,0.00,0.00
"Total lipid (fat)",g,--,--,0.00,0.00
"Carbohydrate, by difference",g,--,--,1.00,6.67
"Sugars, total",g,--,--,1.00,6.67
Minerals
"Sodium, Na",mg,--,--,30,200
Vitamins
Lipids
"Fatty acids, total trans",g,--,--,0.000,0.000
Amino Acids
Other
Ingredients
"ORGANIC RICE VINEGAR, BROWN SUGAR, FISH SAUCE (ANCHOVIES, SEA SALT)." Date available: 07/14/2017 Date last updated by company: 07/14/2017
