Source: USDA Branded Food Products Database Release December 2017 Software v.3.8.6.4 2017-10-02
Report Run at: December 19, 2017 00:35 EST
"Nutrient data for: 45316919, WEIGHT WATCHERS, FROZEN YOGURT BARS, CHOCOLATE SMOOTHIE, UPC: 070640007844"
Food Group:  Branded Food Products Database
Common Name:

Nutrient,Unit,Data points,Std. Error,"2.0 BAR = 76.0g",1Value per 100 g,
Proximates
"Energy",kcal,--,--,120,158
"Protein",g,--,--,4.00,5.26
"Total lipid (fat)",g,--,--,3.00,3.95
"Carbohydrate, by difference",g,--,--,21.00,27.63
"Fiber, total dietary",g,--,--,3.0,3.9
"Sugars, total",g,--,--,18.00,23.68
Minerals
"Calcium, Ca",mg,--,--,150,197
"Iron, Fe",mg,--,--,0.72,0.95
"Potassium, K",mg,--,--,190,250
"Sodium, Na",mg,--,--,60,79
Vitamins
"Vitamin C, total ascorbic acid",mg,--,--,0.0,0.0
"Vitamin A, IU",IU,--,--,100,132
Lipids
"Fatty acids, total saturated",g,--,--,1.999,2.630
"Fatty acids, total trans",g,--,--,0.000,0.000
"Cholesterol",mg,--,--,25,33
Amino Acids
Other
Ingredients
"SKIM MILK, MILK, SUGAR, CREAM, INULIN, COCOA, EGG YOLKS, CHOCOLATE LIQUOR, CAROB BEAN GUM, CULTURES" Date available: 06/24/2017 Date last updated by company: 06/24/2017
