Source: USDA Branded Food Products Database Release December 2017 Software v.3.8.6.4 2017-10-02
Report Run at: December 19, 2017 00:35 EST
"Nutrient data for: 45319645, WEIGHT WATCHERS, GIANT CHOCOLATE COOKIES & CREAM ICE CREAM BAR, CHOCOLATE COOKIES, CREAM, UPC: 070640500345"
Food Group:  Branded Food Products Database
Common Name:

Nutrient,Unit,Data points,Std. Error,"1 BAR = 70.0g",1Value per 100 g,
Proximates
"Energy",kcal,--,--,130,186
"Protein",g,--,--,3.00,4.29
"Total lipid (fat)",g,--,--,5.00,7.14
"Carbohydrate, by difference",g,--,--,23.00,32.86
"Fiber, total dietary",g,--,--,4.0,5.7
"Sugars, total",g,--,--,16.00,22.86
Minerals
"Calcium, Ca",mg,--,--,80,114
"Iron, Fe",mg,--,--,0.72,1.03
"Potassium, K",mg,--,--,190,271
"Sodium, Na",mg,--,--,80,114
Vitamins
"Vitamin A, IU",IU,--,--,200,286
Lipids
"Fatty acids, total saturated",g,--,--,1.001,1.430
"Fatty acids, total trans",g,--,--,0.000,0.000
"Cholesterol",mg,--,--,5,7
Amino Acids
Other
Ingredients
"MILK, SKIM MILK, COOKIES {BLEACHED WHEAT FLOUR, SUGAR VEGETABLE SHORTENING (PARTIALLY HYDROGENATED SOYBEAN OIL), COCOA PROCESSED WITH ALKALI, CORN SYRUP, CARAMEL COLOR, ARTIFICIAL FLAVOR, SOY LECITHIN, SALT, BAKING SODA}, SUGAR, POLYDEXTROSE, PRE-DIP (SOYBEAN OIL), COCOA PROCESSED WITH ALKALI, CELLULOSE GEL, MONO & DIGLYCERIDES, CELLULOSE GUM, CARRAGEENAN, MALTODEXTRIN, POLYSORBATE 80, VITAMIN A PALMITATE." Date available: 06/24/2017 Date last updated by company: 06/24/2017
