Source: USDA Branded Food Products Database Release December 2017 Software v.3.8.6.4 2017-10-02
Report Run at: December 19, 2017 00:36 EST
"Nutrient data for: 45319472, WEIGHT WATCHERS, ICE CREAM CONES, VANILLA FUDGE SWIRL, UPC: 070640005642"
Food Group:  Branded Food Products Database
Common Name:

Nutrient,Unit,Data points,Std. Error,"1 CONE = 41.0g",1Value per 100 g,
Proximates
"Energy",kcal,--,--,90,220
"Protein",g,--,--,2.00,4.88
"Total lipid (fat)",g,--,--,2.00,4.88
"Carbohydrate, by difference",g,--,--,16.00,39.02
"Fiber, total dietary",g,--,--,1.0,2.4
"Sugars, total",g,--,--,10.00,24.39
Minerals
"Calcium, Ca",mg,--,--,60,146
"Iron, Fe",mg,--,--,0.00,0.00
"Potassium, K",mg,--,--,75,183
"Sodium, Na",mg,--,--,40,98
Vitamins
"Vitamin C, total ascorbic acid",mg,--,--,0.0,0.0
"Vitamin A, IU",IU,--,--,122,298
Lipids
"Fatty acids, total saturated",g,--,--,1.501,3.660
"Fatty acids, total trans",g,--,--,0.000,0.000
"Cholesterol",mg,--,--,0,0
Amino Acids
Other
Ingredients
"LOW FAT ICE CREAM [SKIM MILK, MILK, SUGAR, FUDGE SWIRL {WATER, SWEETENED CONDENSED MILK (CONDENSED MILK, SUGAR), SUGAR, CORN SYRUP, COCOA PROCESSED WITH ALKALI, CORN STARCH, SALT, CARRAGEENAN, NATURAL FLAVOR}, CORN SYRUP, POLYDEXTROSE, CONTAINS 1% OR LESS OF VANILLA EXTRACT, NATURAL FLAVORS, ARTIFICIAL FLAVORS, PROPYLENE GLYCOL MONOESTERS, MONO AND DIGLYCERIDES, GUAR GUM, CAROB BEAN GUM, MODIFIED CELLULOSE, CELLULOSE GUM, CARRAGEENAN, VITAMIN A PALMITATE, CARAMEL COLOR]. CONE (BLEACHED WHEAT FLOUR, SUGAR, MOLASSES, CANOLA OIL, SALT, SOY LECITHIN, CARAMEL COLOR). CONE COATING (COCONUT OIL, SUGAR, COCOA, CHOCOLATE LIQUOR, WHEY, DRY WHOLE MILK, COCOA BUTTER, SOYBEAN OIL, COCOA PROCESSED WITH ALKALI, SOY LECITHIN, SALT, VANILLIN). CHOCOLATE CURLS (SUGAR, UNSWEETENED CHOCOLATE, COCOA BUTTER, UNSWEETENED CHOCOLATE PROCESSED WITH ALKALI, SOY LECITHIN, VANILLA EXTRACT)." Date available: 07/14/2017 Date last updated by company: 07/14/2017
