Source: USDA Branded Food Products Database Release December 2017 Software v.3.8.6.4 2017-10-02
Report Run at: December 19, 2017 01:02 EST
"Nutrient data for: 45043423, WEIS QUALITY, ORIGINAL BEEF JERKY, SMOKE, UPC: 041497549214"
Food Group:  Branded Food Products Database
Common Name:

Nutrient,Unit,Data points,Std. Error,"1 ONZ = 28.0g",1Value per 100 g,
Proximates
"Energy",kcal,--,--,80,286
"Protein",g,--,--,12.00,42.86
"Total lipid (fat)",g,--,--,1.00,3.57
"Carbohydrate, by difference",g,--,--,6.00,21.43
"Fiber, total dietary",g,--,--,1.0,3.6
"Sugars, total",g,--,--,6.00,21.43
Minerals
"Calcium, Ca",mg,--,--,0,0
"Iron, Fe",mg,--,--,2.57,9.19
"Sodium, Na",mg,--,--,520,1857
Vitamins
"Vitamin C, total ascorbic acid",mg,--,--,0.0,0.0
"Vitamin A, IU",IU,--,--,0,0
Lipids
"Fatty acids, total saturated",g,--,--,0.400,1.430
"Fatty acids, total trans",g,--,--,0.000,0.000
"Cholesterol",mg,--,--,30,107
Amino Acids
Other
Ingredients
"BEEF, WATER, SUGAR, SALT, MALTODEXTRIN, VINEGAR, MONOSODIUM GLUTAMATE, BLACK PEPPER POWDER, PAPAYA JUICE, SODIUM TRIPOLYPHOSPHATE, GARLIC POWDER, SODIUM ERYTHORBATE, CITRIC ACID, SMOKE FLAVOR, DISODIUM INOSINATE, SODIUM NITRITE." Date available: 07/14/2017 Date last updated by company: 07/14/2017
