Source: USDA Branded Food Products Database Release December 2017 Software v.3.8.6.4 2017-10-02
Report Run at: December 19, 2017 00:44 EST
"Nutrient data for: 45008745, WEIS, GELATIN DESSERT, SUGAR FREE, LIME, UPC: 041497569403"
Food Group:  Branded Food Products Database
Common Name:

Nutrient,Unit,Data points,Std. Error,"0.25 OF PACKAGE, MAKES 0.5 CUP = 3.0g",1Value per 100 g,
Proximates
"Energy",kcal,--,--,10,333
"Protein",g,--,--,1.00,33.33
"Total lipid (fat)",g,--,--,0.00,0.00
"Carbohydrate, by difference",g,--,--,1.00,33.33
"Fiber, total dietary",g,--,--,0.0,0.0
"Sugars, total",g,--,--,0.00,0.00
Minerals
"Calcium, Ca",mg,--,--,0,0
"Iron, Fe",mg,--,--,0.00,0.00
"Sodium, Na",mg,--,--,20,667
Vitamins
"Vitamin C, total ascorbic acid",mg,--,--,0.0,0.0
"Vitamin A, IU",IU,--,--,0,0
Lipids
"Fatty acids, total saturated",g,--,--,0.000,0.000
"Fatty acids, total trans",g,--,--,0.000,0.000
"Cholesterol",mg,--,--,0,0
Amino Acids
Other
Ingredients
"GELATIN, MALTODEXTRIN, ADIPIC ACID (FOR TARTNESS), POTASSIUM CITRATE (CONTROLS ACIDITY), CONTAINS 2% OR LESS OF SODIUM CITRATE (CONTROLS ACIDITY), ASPARTAME* (SWEETENER), NATURAL FLAVORS, ACESULFAME POTASSIUM (SWEETENER), SALT, YELLOW #5, BLUE #1, DIMETHYLPOLYSILOXANE (PREVENTS FOAM)." Date available: 07/14/2017 Date last updated by company: 07/14/2017
