Source: USDA Branded Food Products Database Release December 2017 Software v.3.8.6.4 2017-10-02
Report Run at: December 19, 2017 00:45 EST
"Nutrient data for: 45005001, WEIS, HOMESTYLE GRAVY, CHICKEN, UPC: 041497273997"
Food Group:  Branded Food Products Database
Common Name:

Nutrient,Unit,Data points,Std. Error,"0.25 cup = 62.0g",1Value per 100 g,
Proximates
"Energy",kcal,--,--,45,73
"Protein",g,--,--,1.00,1.61
"Total lipid (fat)",g,--,--,2.50,4.03
"Carbohydrate, by difference",g,--,--,4.00,6.45
"Fiber, total dietary",g,--,--,0.0,0.0
"Sugars, total",g,--,--,1.00,1.61
Minerals
"Calcium, Ca",mg,--,--,0,0
"Iron, Fe",mg,--,--,0.00,0.00
"Sodium, Na",mg,--,--,290,468
Vitamins
"Vitamin C, total ascorbic acid",mg,--,--,0.0,0.0
"Vitamin A, IU",IU,--,--,102,164
Lipids
"Fatty acids, total saturated",g,--,--,0.998,1.610
"Fatty acids, total trans",g,--,--,0.000,0.000
"Cholesterol",mg,--,--,0,0
Amino Acids
Other
Ingredients
"CHICKEN BROTH, CHICKEN FAT, MODIFIED CORN STARCH, WHEAT FLOUR, SWEET DAIRY WHEY, MECHANICALLY SEPERATED CHICKEN, SALT, YEAST EXTRACT, MONOSODIUM GLUTAMATE, CHICKEN FLAVOR (CONTAINS CHICKEN BROTH, CHICKEN, SALT AND FLAVOR), HYDROLYZED VEGETABLE PROTEIN (HYDROLYZED CORN GLUTEN, THIAMINE HYDROCHLORIDE AND PARTIALLY HYDROGENATED SOYBEAN OIL), SUGAR, SPICES, NATURAL FLAVOR, CITRIC ACID, BETA CAROTENE." Date available: 07/14/2017 Date last updated by company: 07/14/2017
