Source: USDA Branded Food Products Database Release December 2017 Software v.3.8.6.4 2017-10-02
Report Run at: December 19, 2017 00:38 EST
"Nutrient data for: 45017515, WEIS, BROWN GRAVY MIX, TRADITIONAL, UPC: 041497273430"
Food Group:  Branded Food Products Database
Common Name:

Nutrient,Unit,Data points,Std. Error,"1 Tbsp = 6.0g",1Value per 100 g,
Proximates
"Energy",kcal,--,--,25,417
"Protein",g,--,--,1.00,16.67
"Total lipid (fat)",g,--,--,0.50,8.33
"Carbohydrate, by difference",g,--,--,3.00,50.00
"Fiber, total dietary",g,--,--,0.0,0.0
"Sugars, total",g,--,--,0.00,0.00
Minerals
"Calcium, Ca",mg,--,--,0,0
"Iron, Fe",mg,--,--,0.00,0.00
"Sodium, Na",mg,--,--,340,5667
Vitamins
"Vitamin C, total ascorbic acid",mg,--,--,0.0,0.0
"Vitamin A, IU",IU,--,--,0,0
Lipids
"Fatty acids, total saturated",g,--,--,0.000,0.000
"Fatty acids, total trans",g,--,--,0.000,0.000
"Cholesterol",mg,--,--,0,0
Amino Acids
Other
Ingredients
"ENRICHED WHEAT FLOUR (FLOUR, NIACIN, IRON, THIAMINE MONONITRATE, RIBOFLAVIN, FOLIC ACID), WHEAT STARCH, SALT, BEEF FAT, HYDROLYZED SOY, WHEAT AND CORN PROTEIN, ONION, CARAMEL COLOR, CORN SYRUP SOLIDS, SPICES, SODIUM CASEINATE (MILK), GARLIC, NATURAL FLAVOR, DISODIUM INOSINATE AND GUANYLATE (FLAVOR ENHANCERS), EXTRACTIVES OF PAPRIKA, AND YEAST EXTARCT" Date available: 06/25/2017 Date last updated by company: 06/25/2017
