Source: USDA Branded Food Products Database Release December 2017 Software v.3.8.6.4 2017-10-02
Report Run at: December 19, 2017 01:09 EST
"Nutrient data for: 45236982, WEIS, SKINNY TURKEY CUTLETS, UPC: 2027528007012"
Food Group:  Branded Food Products Database
Common Name:

Nutrient,Unit,Data points,Std. Error,"4.0 ONZ = 113.0g",1Value per 100 g,
Proximates
"Energy",kcal,--,--,120,106
"Protein",g,--,--,28.00,24.78
"Total lipid (fat)",g,--,--,0.50,0.44
"Carbohydrate, by difference",g,--,--,0.00,0.00
Minerals
"Iron, Fe",mg,--,--,1.08,0.96
"Sodium, Na",mg,--,--,55,49
Vitamins
Lipids
"Fatty acids, total saturated",g,--,--,2.000,1.770
"Fatty acids, total trans",g,--,--,0.000,0.000
"Cholesterol",mg,--,--,70,62
Amino Acids
Other
Ingredients
"SKINNY TURKEY BONELESS SKINLESS THIN SLICED BREAST" Date available: 10/13/2017 Date last updated by company: 10/13/2017
