Source: USDA Branded Food Products Database Release December 2017 Software v.3.8.6.4 2017-10-02
Report Run at: December 19, 2017 01:11 EST
"Nutrient data for: 45005028, WEIS, SQUEEZABLE MAYO, UPC: 041497111404"
Food Group:  Branded Food Products Database
Common Name:

Nutrient,Unit,Data points,Std. Error,"1 Tbsp = 13.0g",1Value per 100 g,
Proximates
"Energy",kcal,--,--,100,769
"Protein",g,--,--,0.00,0.00
"Total lipid (fat)",g,--,--,11.00,84.62
"Carbohydrate, by difference",g,--,--,0.00,0.00
Minerals
"Sodium, Na",mg,--,--,75,577
Vitamins
Lipids
"Fatty acids, total saturated",g,--,--,1.500,11.540
"Cholesterol",mg,--,--,10,77
Amino Acids
Other
Ingredients
"SOYBEAN OIL, WHOLE EGGS AND EGG YOLKS, WATER, CONTAINS 2% OR LESS OF: VINEGAR, SALT, SUGAR, LEMON JUICE CONCENTRATE, NATURAL FLAVOR, CALCIUM DISODIUM EDTA (TO PROTECT FLAVOR), OLEORESIN PAPRIKA" Date available: 06/25/2017 Date last updated by company: 06/25/2017
