Source: USDA Branded Food Products Database Release December 2017 Software v.3.8.6.4 2017-10-02
Report Run at: December 19, 2017 00:58 EST
"Nutrient data for: 45236663, WEIS QUALITY, GINGER ALE, UPC: 041497441198"
Food Group:  Branded Food Products Database
Common Name:

Nutrient,Unit,Data points,Std. Error,"1 CAN = 355.0g",1Value per 100 g,
Proximates
"Energy",kcal,--,--,138,39
"Protein",g,--,--,0.00,0.00
"Total lipid (fat)",g,--,--,0.00,0.00
"Carbohydrate, by difference",g,--,--,36.99,10.42
"Sugars, total",g,--,--,36.99,10.42
Minerals
"Sodium, Na",mg,--,--,36,10
Vitamins
Lipids
Amino Acids
Other
Ingredients
"CARBONATED WATER, HIGH FRUCTOSE CORN SYRUP, CITRIC ACID, NATURAL FLAVOR, POTASSIUM BENZOATE (A PRESERVATIVE), CARAMEL COLOR." Date available: 06/25/2017 Date last updated by company: 06/25/2017
