Source: USDA Branded Food Products Database Release December 2017 Software v.3.8.6.4 2017-10-02
Report Run at: December 19, 2017 00:53 EST
"Nutrient data for: 45017384, WEIS QUALITY, BROWN WHOLE GRAIN INSTANT RICE, UPC: 041497208098"
Food Group:  Branded Food Products Database
Common Name:

Nutrient,Unit,Data points,Std. Error,"1 CUP COOKED = 43.0g",1Value per 100 g,
Proximates
"Energy",kcal,--,--,150,349
"Protein",g,--,--,4.00,9.30
"Total lipid (fat)",g,--,--,1.00,2.33
"Carbohydrate, by difference",g,--,--,33.00,76.74
"Fiber, total dietary",g,--,--,2.0,4.7
"Sugars, total",g,--,--,0.00,0.00
Minerals
"Calcium, Ca",mg,--,--,0,0
"Iron, Fe",mg,--,--,0.37,0.87
"Sodium, Na",mg,--,--,0,0
Vitamins
"Vitamin C, total ascorbic acid",mg,--,--,0.0,0.0
"Vitamin A, IU",IU,--,--,0,0
Lipids
"Fatty acids, total saturated",g,--,--,0.000,0.000
"Fatty acids, total trans",g,--,--,0.000,0.000
"Cholesterol",mg,--,--,0,0
Amino Acids
Other
Ingredients
"PRECOOKED PARBOILED WHOLE GRAIN BROWN RICE." Date available: 06/25/2017 Date last updated by company: 06/25/2017
