Source: USDA Branded Food Products Database Release December 2017 Software v.3.8.6.4 2017-10-02
Report Run at: December 19, 2017 00:41 EST
"Nutrient data for: 45045547, WEIS, CRUNCHY CHEESE CURLS, UPC: 041497004799"
Food Group:  Branded Food Products Database
Common Name:

Nutrient,Unit,Data points,Std. Error,"12.0 | ABOUT = 28.0g",1Value per 100 g,
Proximates
"Energy",kcal,--,--,160,571
"Protein",g,--,--,2.00,7.14
"Total lipid (fat)",g,--,--,10.00,35.71
"Carbohydrate, by difference",g,--,--,16.00,57.14
"Fiber, total dietary",g,--,--,0.0,0.0
"Sugars, total",g,--,--,1.00,3.57
Minerals
"Calcium, Ca",mg,--,--,0,0
"Iron, Fe",mg,--,--,0.00,0.00
"Sodium, Na",mg,--,--,220,786
Vitamins
"Vitamin C, total ascorbic acid",mg,--,--,0.0,0.0
"Vitamin A, IU",IU,--,--,893,3189
Lipids
"Fatty acids, total saturated",g,--,--,1.999,7.140
"Fatty acids, total monounsaturated",g,--,--,1.999,7.140
"Fatty acids, total polyunsaturated",g,--,--,5.499,19.640
"Fatty acids, total trans",g,--,--,0.000,0.000
"Cholesterol",mg,--,--,0,0
Amino Acids
Other
Ingredients
"CORN MEAL, VEGETABLE OIL, (CONTAINS ONE OR MORE OF THE FOLLOWING: COTTONSEED, CORN, CANOLA, SUNFLOWER, SAFFLOWER), MALTODEXTRIN, WHEY, CHEDDAR CHEESE [(PASTEURIZED MILK, CHEESE CULTURES, SALT, ENZYMES), WHEY, SALT, DISODIUM PHOSPHATE, LACTIC ACID, ARTIFICIAL COLOR (INCLUDING YELLOW #5, YELLOW#6)], SALT, DEHYDRATED SHORTENING (SOYBEAN AND/OR COCONUT OIL, CORN SYRUP SOLIDS, SODIUM CASEINATE, MONO AND DIGLYCERIDES, TOCOPHEROLS), NATURAL AND ARTIFICIAL FLAVORS, SOUR CREAM (CULTURED CREAM, NONFAT MILK), FD & C YELLOW LAKE #5, FD&C YELLOW LAKE #6, LACTIC ACID, AUTOLYZED YEAST EXTRACT, CITRIC ACID, DISODIUM INOSINATE AND DISODIUM GUARYLATE, VITAMIN A PALMITATE." Date available: 09/25/2017 Date last updated by company: 09/25/2017
