Source: USDA Branded Food Products Database Release December 2017 Software v.3.8.6.4 2017-10-02
Report Run at: December 19, 2017 00:51 EST
"Nutrient data for: 45004889, WEIS, POPPED CHIPS, BARBECUE, UPC: 041497005710"
Food Group:  Branded Food Products Database
Common Name:

Nutrient,Unit,Data points,Std. Error,"18.0 CHIPS = 28.0g",1Value per 100 g,
Proximates
"Energy",kcal,--,--,120,429
"Protein",g,--,--,2.00,7.14
"Total lipid (fat)",g,--,--,4.00,14.29
"Carbohydrate, by difference",g,--,--,20.00,71.43
"Fiber, total dietary",g,--,--,1.0,3.6
"Sugars, total",g,--,--,2.00,7.14
Minerals
"Calcium, Ca",mg,--,--,0,0
"Iron, Fe",mg,--,--,0.00,0.00
"Potassium, K",mg,--,--,120,429
"Sodium, Na",mg,--,--,190,679
Vitamins
"Vitamin C, total ascorbic acid",mg,--,--,0.0,0.0
"Vitamin A, IU",IU,--,--,0,0
Lipids
"Fatty acids, total saturated",g,--,--,0.000,0.000
"Fatty acids, total monounsaturated",g,--,--,1.999,7.140
"Fatty acids, total polyunsaturated",g,--,--,1.000,3.570
"Fatty acids, total trans",g,--,--,0.000,0.000
"Cholesterol",mg,--,--,0,0
Amino Acids
Other
Ingredients
"POTATO PIECES (POTATO FLAKES, RICE FLOUR, POTATO STARCH, SALT), SEASONING BLEND (SUGAR, WHEY POWDER, MODIFIED WHEY, SALT, BROWN SUGAR, YEAST EXTRACT, ONION POWDER, TOMATO POWDER, SPICE, GARLIC POWDER, NONFAT DRY MILK, CITRIC ACID, EXTRACTIVES OF PAPRIKA, NATURAL SMOKE FLAVOR AND NATURAL FLAVOR), SUNFLOWER OIL" Date available: 06/25/2017 Date last updated by company: 06/25/2017
