Source: USDA Branded Food Products Database Release December 2017 Software v.3.8.6.4 2017-10-02
Report Run at: December 19, 2017 01:03 EST
"Nutrient data for: 45143126, WEIS QUALITY, PATRIOT STAR PRETZELS, UPC: 041497132539"
Food Group:  Branded Food Products Database
Common Name:

Nutrient,Unit,Data points,Std. Error,"1.4 ONZ = 40.0g",1Value per 100 g,
Proximates
"Energy",kcal,--,--,193,482
"Protein",g,--,--,2.00,5.00
"Total lipid (fat)",g,--,--,7.00,17.50
"Carbohydrate, by difference",g,--,--,30.00,75.00
"Fiber, total dietary",g,--,--,0.6,1.6
"Sugars, total",g,--,--,19.00,47.50
Minerals
"Calcium, Ca",mg,--,--,20,50
"Iron, Fe",mg,--,--,0.68,1.69
"Sodium, Na",mg,--,--,258,645
Vitamins
"Vitamin C, total ascorbic acid",mg,--,--,0.0,0.0
"Vitamin A, IU",IU,--,--,0,0
Lipids
"Fatty acids, total saturated",g,--,--,7.000,17.500
"Fatty acids, total trans",g,--,--,0.000,0.000
"Cholesterol",mg,--,--,1,2
Amino Acids
Other
Ingredients
"YOGURT COATING (SUGAR PALM KERNEL OIL, REDUCED MINERAL WHEY POWDER, WHOLE MILK SOLIDS, YOGURT POWDER [ CULTURED WHEY PROTEIN CONCENTRATE AND CULTURED SKIM MILK], SOY LECITHIN [EMULSIFIED], ARTIFICIAL COLOR [TITANINUM DIOXIDE], SALT, LACTIC ACID, NATURAL FLAVORS), PRETZELS (WHEAT FLOUR, SALT, SUNFLOWER/CANOLA/OR RICE OIL, CORN SYRUP, MALT SYRUP, YEAST), RED SUGAR (SUGAR, CONFECTIONER'S GLAZE, RED NO. 3, CARNUABA WAX, YELLOW NO. 6, RED NO. 40, BLUE NO. 2), BLUE SUGAR (SUGAR CONFECTIONER'S GLAZE CARNUABA WAX, BLUE #1)" Date available: 07/14/2017 Date last updated by company: 07/14/2017
