Source: USDA Branded Food Products Database Release December 2017 Software v.3.8.6.4 2017-10-02
Report Run at: December 19, 2017 01:11 EST
"Nutrient data for: 45233452, WEIS, TARTAR SAUCE, UPC: 041497111541"
Food Group:  Branded Food Products Database
Common Name:

Nutrient,Unit,Data points,Std. Error,"2.0 Tbsp = 30.0g",1Value per 100 g,
Proximates
"Energy",kcal,--,--,60,200
"Protein",g,--,--,0.00,0.00
"Total lipid (fat)",g,--,--,5.00,16.67
"Carbohydrate, by difference",g,--,--,4.00,13.33
"Sugars, total",g,--,--,3.00,10.00
Minerals
"Sodium, Na",mg,--,--,170,567
Vitamins
Lipids
"Fatty acids, total saturated",g,--,--,0.999,3.330
"Fatty acids, total trans",g,--,--,0.000,0.000
"Cholesterol",mg,--,--,5,17
Amino Acids
Other
Ingredients
"WATER, VINEGAR, SOYBEAN OIL, CHOPPED PICKLES, SUGAR, MODIFIED FOOD STARCH, EGGS, CONTAINS 2% OR LESS OF ONION*, SALT, ENZYME MODIFIED EGG YOLKS, MUSTARD FLOUR, XANTHAN GUM, PARSLEY*, POTASSIUM SORBATE AND CALCIUM DISODIUM EDTA AS PRESERVATIVES, NATURAL FLAVOR, ARTIFICIAL COLOR, PAPRIKA, SPICE, GARLIC*" Date available: 06/25/2017 Date last updated by company: 06/25/2017
