Source: USDA Branded Food Products Database Release December 2017 Software v.3.8.6.4 2017-10-02
Report Run at: December 19, 2017 00:57 EST
"Nutrient data for: 45155518, WEIS QUALITY, FRUIT SLICE JELLS, UPC: 041497131754"
Food Group:  Branded Food Products Database
Common Name:

Nutrient,Unit,Data points,Std. Error,"1.4 ONZ = 40.0g",1Value per 100 g,
Proximates
"Energy",kcal,--,--,140,350
"Protein",g,--,--,0.00,0.00
"Total lipid (fat)",g,--,--,0.00,0.00
"Carbohydrate, by difference",g,--,--,33.00,82.50
"Fiber, total dietary",g,--,--,0.0,0.0
"Sugars, total",g,--,--,25.00,62.50
Minerals
"Calcium, Ca",mg,--,--,0,0
"Iron, Fe",mg,--,--,0.00,0.00
"Sodium, Na",mg,--,--,13,32
Vitamins
"Vitamin C, total ascorbic acid",mg,--,--,0.0,0.0
"Vitamin A, IU",IU,--,--,0,0
Lipids
"Fatty acids, total saturated",g,--,--,0.000,0.000
"Fatty acids, total trans",g,--,--,0.000,0.000
"Cholesterol",mg,--,--,0,0
Amino Acids
Other
Ingredients
"SUGAR, CORN SYRUP, CORN STARCH, MODIFIED CORN STARCH, NATURAL & ARTIFICIAL FLAVOR, ARTIFICIAL COLORING (RED 40, YELLOW 6, YELLOW 5, BLUE 1)." Date available: 07/14/2017 Date last updated by company: 07/14/2017
