Source: USDA Branded Food Products Database Release December 2017 Software v.3.8.6.4 2017-10-02
Report Run at: December 19, 2017 00:59 EST
"Nutrient data for: 45163934, WEIS QUALITY, HOLIDAY YOGURT PRETZELS, UPC: 041497133048"
Food Group:  Branded Food Products Database
Common Name:

Nutrient,Unit,Data points,Std. Error,"1 ONZ = 28.0g",1Value per 100 g,
Proximates
"Energy",kcal,--,--,136,486
"Protein",g,--,--,1.00,3.57
"Total lipid (fat)",g,--,--,5.00,17.86
"Carbohydrate, by difference",g,--,--,21.00,75.00
"Fiber, total dietary",g,--,--,0.0,0.0
"Sugars, total",g,--,--,13.00,46.43
Minerals
"Calcium, Ca",mg,--,--,0,0
"Iron, Fe",mg,--,--,0.64,2.29
"Sodium, Na",mg,--,--,189,675
Vitamins
"Vitamin C, total ascorbic acid",mg,--,--,0.0,0.0
"Vitamin A, IU",IU,--,--,0,0
Lipids
"Fatty acids, total saturated",g,--,--,4.001,14.290
"Fatty acids, total trans",g,--,--,0.000,0.000
"Cholesterol",mg,--,--,1,4
Amino Acids
Other
Ingredients
"YOGURT FLAVORED COATING (SUGAR, PALM KERNEL OIL AND/OR PALM OIL, NONFAT DRY MILK, WHEY POWDER, NONFAT YOGURT POWDER (CULTURED WHEY, NONFAT MILK), TITANIUM DIOXIDE (COLOR), SOY LECITHIN (EMULSIFIER), LACTIC ACID, VANILLA), PRETZELS (ENRICHED WHEAT FLOUR (WHEAT FLOUR, NIACIN, REDUCED IRON, THIAMINE MONONITRATE, RIBOFLAVIN, FOLIC ACID), SALT, CORN SYRUP, SODIUM BICARBONATE, YEAST), ARTIFICIAL COLORING (INCLUDES YELLOW 5 LAKE, BLUE 1 LAKE, RED 40 LAKE, BLUE 2 LAKE)." Date available: 07/14/2017 Date last updated by company: 07/14/2017
