Source: USDA Branded Food Products Database Release December 2017 Software v.3.8.6.4 2017-10-02
Report Run at: December 19, 2017 00:53 EST
"Nutrient data for: 45151608, WEIS QUALITY, BUTTER TOASTED PEANUTS, UPC: 041497131914"
Food Group:  Branded Food Products Database
Common Name:

Nutrient,Unit,Data points,Std. Error,"1 ONZ = 28.0g",1Value per 100 g,
Proximates
"Energy",kcal,--,--,200,714
"Protein",g,--,--,4.00,14.29
"Total lipid (fat)",g,--,--,9.00,32.14
"Carbohydrate, by difference",g,--,--,28.00,100.00
"Fiber, total dietary",g,--,--,1.0,3.6
"Sugars, total",g,--,--,26.00,92.86
Minerals
"Calcium, Ca",mg,--,--,20,71
"Iron, Fe",mg,--,--,1.29,4.59
"Sodium, Na",mg,--,--,110,393
Vitamins
"Vitamin C, total ascorbic acid",mg,--,--,0.0,0.0
"Vitamin A, IU",IU,--,--,0,0
Lipids
"Fatty acids, total saturated",g,--,--,1.999,7.140
"Fatty acids, total trans",g,--,--,0.000,0.000
"Cholesterol",mg,--,--,0,0
Amino Acids
Other
Ingredients
"PEANUT, SUGAR, SALTED BUTTER (PASTEURIZED CREAM, SALT), SALT." Date available: 07/14/2017 Date last updated by company: 07/14/2017
