Source: USDA Branded Food Products Database Release December 2017 Software v.3.8.6.4 2017-10-02
Report Run at: December 19, 2017 00:58 EST
"Nutrient data for: 45174129, WEIS QUALITY, GUACAMOLE DIP, ZESTY, UPC: 041497088140"
Food Group:  Branded Food Products Database
Common Name:

Nutrient,Unit,Data points,Std. Error,"2.0 Tbsp = 28.0g",1Value per 100 g,
Proximates
"Energy",kcal,--,--,50,179
"Protein",g,--,--,1.00,3.57
"Total lipid (fat)",g,--,--,4.50,16.07
"Carbohydrate, by difference",g,--,--,2.00,7.14
"Fiber, total dietary",g,--,--,0.5,1.8
"Sugars, total",g,--,--,1.00,3.57
Minerals
"Calcium, Ca",mg,--,--,20,71
"Iron, Fe",mg,--,--,0.00,0.00
"Sodium, Na",mg,--,--,170,607
Vitamins
"Vitamin C, total ascorbic acid",mg,--,--,37.5,133.9
"Vitamin A, IU",IU,--,--,357,1275
Lipids
"Fatty acids, total saturated",g,--,--,2.500,8.930
"Fatty acids, total trans",g,--,--,0.000,0.000
"Cholesterol",mg,--,--,15,54
Amino Acids
Other
Ingredients
"CULTURED CREAM, AVOCADO, SKIM MILK, WATER, CORN SYRUP SOLIDS, SALT, MODIFIED CORN STARCH, DEHYDRATED ONION & GARLIC, LACTIC & CITRIC ACID, CILANTRO, GELATIN, CITRUS FIBER, SUGAR, GROUND RED PEPPER, ASCORBIC ACID (VITAMIN C), POTASSIUM SORBATE (PRESERVATIVE), SPICE, MONO & DIGLYCERIDES, XANTHAN GUM, DISODIUM PHOSPHATE, NATURAL FLAVOR, CONCENTRATED LEMON JUICE, LOCUST BEAN GUM, YELLOW 6, YELLOW 5, BLUE 1, CARAMEL (COLOR)." Date available: 07/14/2017 Date last updated by company: 07/14/2017
