Source: USDA Branded Food Products Database Release December 2017 Software v.3.8.6.4 2017-10-02
Report Run at: December 19, 2017 00:41 EST
"Nutrient data for: 45020951, WEIS, CREAM OF CHICKEN CONDENSED SOUP, UPC: 041497328154"
Food Group:  Branded Food Products Database
Common Name:

Nutrient,Unit,Data points,Std. Error,"0.5 cup = 125.0g",1Value per 100 g,
Proximates
"Energy",kcal,--,--,80,64
"Protein",g,--,--,2.00,1.60
"Total lipid (fat)",g,--,--,2.50,2.00
"Carbohydrate, by difference",g,--,--,12.00,9.60
"Fiber, total dietary",g,--,--,1.0,0.8
"Sugars, total",g,--,--,1.00,0.80
Minerals
"Calcium, Ca",mg,--,--,20,16
"Iron, Fe",mg,--,--,1.41,1.13
"Sodium, Na",mg,--,--,800,640
Vitamins
"Vitamin C, total ascorbic acid",mg,--,--,0.0,0.0
"Vitamin A, IU",IU,--,--,588,470
Lipids
"Fatty acids, total saturated",g,--,--,1.000,0.800
"Fatty acids, total monounsaturated",g,--,--,0.500,0.400
"Fatty acids, total polyunsaturated",g,--,--,1.000,0.800
"Fatty acids, total trans",g,--,--,0.000,0.000
"Cholesterol",mg,--,--,5,4
Amino Acids
Other
Ingredients
"CHICKEN BROTH, CHICKEN MEAT (COOKED CHICKEN MEAT, WATER, MODIFIED FOOD STARCH, SALT, SODIUM PHOSPHATE), WHEAT FLOUR, MODIFIED CORN STARCH, UNMODIFIED FOOD STARCH, SOYBEAN OIL, SALT, CONTAINS LESS THAN 1% OF: CREAM, WHEY PROTEIN CONCENTRATE, CHICKEN FLAVORING (YEAST EXTRACT, NATURAL FLAVOR, CHICKEN MEAT, SALT, MALTODEXTRIN, GELATIN WHEY POWDER, EGG YOLK POWDER, MILK POWDER), MALTODEXTRIN, WHEY, BUTTERMILK SOLIDS, (BUTTERMILK, WHEY PROTEINS), CHICKEN FAT, CHICKEN FLAVOR (NATURAL FLAVORS, CHICKEN FAT, AUTOLYZED YEAST EXTRACT), MONOSODIUM GLUTAMATE, ONION POWDER, SEASONING (HYDROLYZED SOY, CORN AND WHEAT GLUTEN PROTEINS, AUTOLYZED YEAST, TORULA DEXTROSE, THIAMINE HYDROCHLORIDE, TARTARIC ACID, GUM ARABIC), POTASSIUM CHLORIDE, DISODIUM INOSINATE, DISODIUM GUANYLATE, GARLIC POWDER, BETA CAROTENE, TITANIUM DIOXIDE, NATURAL FLAVOR, OLEORESIN CARROT." Date available: 06/25/2017 Date last updated by company: 06/25/2017
