Source: USDA Branded Food Products Database Release December 2017 Software v.3.8.6.4 2017-10-02
Report Run at: December 19, 2017 00:38 EST
"Nutrient data for: 45021807, WEIS, BUTTERNUT SQUASH PASTA SAUCE, UPC: 041497277834"
Food Group:  Branded Food Products Database
Common Name:

Nutrient,Unit,Data points,Std. Error,"0.5 cup = 125.0g",1Value per 100 g,
Proximates
"Energy",kcal,--,--,120,96
"Protein",g,--,--,1.00,0.80
"Total lipid (fat)",g,--,--,5.00,4.00
"Carbohydrate, by difference",g,--,--,17.00,13.60
"Fiber, total dietary",g,--,--,2.0,1.6
"Sugars, total",g,--,--,9.00,7.20
Minerals
"Calcium, Ca",mg,--,--,40,32
"Iron, Fe",mg,--,--,0.76,0.61
"Sodium, Na",mg,--,--,370,296
Vitamins
"Vitamin C, total ascorbic acid",mg,--,--,9.5,7.6
"Vitamin A, IU",IU,--,--,5284,4227
Lipids
"Fatty acids, total saturated",g,--,--,3.000,2.400
"Fatty acids, total trans",g,--,--,0.000,0.000
"Cholesterol",mg,--,--,15,12
Amino Acids
Other
Ingredients
"BUTTERNUT SQUASH, WATER, TOMATO PASTE, ORGANIC SUGAR, BUTTER, RED PEPPERS, FRESH CELERY,FRESH ONIONS, GARLIC, SEA SALT, CITRIC ACID, BLACK PEPPER, RED PEPPER." Date available: 06/25/2017 Date last updated by company: 06/25/2017
