Source: USDA Branded Food Products Database Release December 2017 Software v.3.8.6.4 2017-10-02
Report Run at: December 19, 2017 00:38 EST
"Nutrient data for: 45020991, WEIS, BREAD CRUMBS, PLAIN, UPC: 041497566402"
Food Group:  Branded Food Products Database
Common Name:

Nutrient,Unit,Data points,Std. Error,"0.33 cup = 30.0g",1Value per 100 g,
Proximates
"Energy",kcal,--,--,110,367
"Protein",g,--,--,4.00,13.33
"Total lipid (fat)",g,--,--,1.00,3.33
"Carbohydrate, by difference",g,--,--,22.00,73.33
"Fiber, total dietary",g,--,--,2.0,6.7
"Sugars, total",g,--,--,2.00,6.67
Minerals
"Calcium, Ca",mg,--,--,80,267
"Iron, Fe",mg,--,--,1.80,6.00
"Sodium, Na",mg,--,--,230,767
Vitamins
"Vitamin C, total ascorbic acid",mg,--,--,0.0,0.0
"Vitamin A, IU",IU,--,--,0,0
Lipids
"Fatty acids, total saturated",g,--,--,0.000,0.000
"Fatty acids, total trans",g,--,--,0.000,0.000
"Cholesterol",mg,--,--,0,0
Amino Acids
Other
Ingredients
"TOASTED BREAD CRUMBS MADE FROM ENRICHED BREAD [ENRICHED FLOUR (CONTAINS WHEAT FLOUR, NIACIN, REDUCED IRON, THIAMIN MONONITRATE, RIBOFLAVIN, FOLIC ACID), CORN SYRUP, PARTIALLY HYDROGENATED VEGETABLE OIL SHORTENING (SOYBEAN AND/OR COTTONSEED OIL), SALT, YEAST, WHEY, SOY FLOUR, MALTED BARLEY FLOUR, WHEAT GLUTEN, WHOLE WHEAT FLOUR, RYE FLOUR, CORN FLOUR, OAT BRAN, CORN MEAL, RICE FLOUR, POTATO FLOUR, NONFAT DRY MILK, SOY LECITHIN, CALCIUM PROPIONATE (PRESERVATIVE), SESAME SEEDS, CARAWAY SEEDS]." Date available: 06/25/2017 Date last updated by company: 06/25/2017
