Source: USDA Branded Food Products Database Release December 2017 Software v.3.8.6.4 2017-10-02
Report Run at: December 19, 2017 01:05 EST
"Nutrient data for: 45156966, WEIS QUALITY, SESAME STIX MIX, UPC: 041497132300"
Food Group:  Branded Food Products Database
Common Name:

Nutrient,Unit,Data points,Std. Error,"1 ONZ = 28.0g",1Value per 100 g,
Proximates
"Energy",kcal,--,--,170,607
"Protein",g,--,--,6.00,21.43
"Total lipid (fat)",g,--,--,14.00,50.00
"Carbohydrate, by difference",g,--,--,7.00,25.00
"Fiber, total dietary",g,--,--,2.0,7.1
"Sugars, total",g,--,--,0.00,0.00
Minerals
"Calcium, Ca",mg,--,--,20,71
"Iron, Fe",mg,--,--,1.93,6.88
"Sodium, Na",mg,--,--,250,893
Vitamins
"Vitamin C, total ascorbic acid",mg,--,--,0.0,0.0
"Vitamin A, IU",IU,--,--,0,0
Lipids
"Fatty acids, total saturated",g,--,--,1.999,7.140
"Fatty acids, total trans",g,--,--,0.000,0.000
"Cholesterol",mg,--,--,0,0
Amino Acids
Other
Ingredients
"ROASTED SALTED (SUNFLOWER SEEDS, PUMPKIN SEEDS SHELLED, SPANISH PEANUTS), SESAME STICKS: SALT, UNBLEACHED WHEAT FLOUR (CONTAINS: MALTED BARLEY FLOUR AS AN ENZYME ADDITIVE), SOYBEAN OIL, SESAME SEEDS, BULGUR WHEAT, BEET POWDER (COLOR), TURMERIC (COLOR), SUNFLOWER OIL." Date available: 07/14/2017 Date last updated by company: 07/14/2017
