Source: USDA Branded Food Products Database Release December 2017 Software v.3.8.6.4 2017-10-02
Report Run at: December 19, 2017 00:40 EST
"Nutrient data for: 45021474, WEIS, CLASSIC MARINARA SAUCES, UPC: 041497276899"
Food Group:  Branded Food Products Database
Common Name:

Nutrient,Unit,Data points,Std. Error,"0.5 cup = 123.0g",1Value per 100 g,
Proximates
"Energy",kcal,--,--,70,57
"Protein",g,--,--,2.00,1.63
"Total lipid (fat)",g,--,--,1.50,1.22
"Carbohydrate, by difference",g,--,--,11.00,8.94
"Fiber, total dietary",g,--,--,3.0,2.4
"Sugars, total",g,--,--,6.00,4.88
Minerals
"Calcium, Ca",mg,--,--,20,16
"Iron, Fe",mg,--,--,1.14,0.93
"Sodium, Na",mg,--,--,460,374
Vitamins
"Vitamin C, total ascorbic acid",mg,--,--,6.4,5.2
"Vitamin A, IU",IU,--,--,422,343
Lipids
"Fatty acids, total saturated",g,--,--,0.000,0.000
"Fatty acids, total trans",g,--,--,0.000,0.000
"Cholesterol",mg,--,--,0,0
Amino Acids
Other
Ingredients
"TOMATO PUREE (WATER, TOMATO PASTE), SUGAR, SOYBEAN OIL, SALT, DEHYDRATED ONIONS, GARLIC, EXTRA VIRGIN OLIVE OIL, LEMON JUICE.TOMATO PUREE (WATER, TOMATO PASTE), SUGAR, SOYBEAN OIL, SALT, DEHYDRATED ONIONS, GARLIC, EXTRA VIRGIN OLIVE OIL, LEMON JUICE." Date available: 06/25/2017 Date last updated by company: 06/25/2017
