Source: USDA Branded Food Products Database Release December 2017 Software v.3.8.6.4 2017-10-02
Report Run at: December 19, 2017 01:09 EST
"Nutrient data for: 45170754, WEIS, SAVORY STEAK MARINADE, UPC: 041497118120"
Food Group:  Branded Food Products Database
Common Name:

Nutrient,Unit,Data points,Std. Error,"1 Tbsp = 15.0g",1Value per 100 g,
Proximates
"Energy",kcal,--,--,5,33
"Protein",g,--,--,0.00,0.00
"Total lipid (fat)",g,--,--,0.00,0.00
"Carbohydrate, by difference",g,--,--,1.00,6.67
"Fiber, total dietary",g,--,--,0.0,0.0
"Sugars, total",g,--,--,1.00,6.67
Minerals
"Calcium, Ca",mg,--,--,0,0
"Iron, Fe",mg,--,--,0.00,0.00
"Sodium, Na",mg,--,--,410,2733
Vitamins
"Vitamin C, total ascorbic acid",mg,--,--,0.0,0.0
"Vitamin A, IU",IU,--,--,0,0
Lipids
"Fatty acids, total saturated",g,--,--,0.000,0.000
"Fatty acids, total trans",g,--,--,0.000,0.000
"Cholesterol",mg,--,--,0,0
Amino Acids
Other
Ingredients
"WATER, SOY SAUCE (WATER, SALT, HYDROLYZED SOY PROTEIN, CORN SYRUP, CARAMEL COLOR), HIGH FRUCTOSE CORN SYRUP, LIME JUICE CONCENTRATE, SALT, DISTILLED VINEGAR, CONTAINS LESS THAN 1% GARLIC*, MODIFIED FOOD STARCH, SPICE, ONION*, XANTHAN FUM, LEMON PEEL*, NATURAL FLAVOR, NATURAL MESQUITE SMOKE FLAVOR, MONOSODIUM GLUTAMATE, POTASSIUM SORBATE AND SODIUM BENZOATE (AS PRESERVATIVES), CITRIC ACID.*DEHYDRATED" Date available: 06/25/2017 Date last updated by company: 06/25/2017
