Source: USDA Branded Food Products Database Release December 2017 Software v.3.8.6.4 2017-10-02
Report Run at: December 19, 2017 01:02 EST
"Nutrient data for: 45005128, WEIS QUALITY, ORIGINAL PORK & BEANS IN TOMATO SAUCE, UPC: 041497207022"
Food Group:  Branded Food Products Database
Common Name:

Nutrient,Unit,Data points,Std. Error,"0.5 cup = 130.0g",1Value per 100 g,
Proximates
"Energy",kcal,--,--,130,100
"Protein",g,--,--,6.99,5.38
"Total lipid (fat)",g,--,--,1.50,1.15
"Carbohydrate, by difference",g,--,--,23.00,17.69
"Fiber, total dietary",g,--,--,7.0,5.4
"Sugars, total",g,--,--,6.01,4.62
Minerals
"Calcium, Ca",mg,--,--,60,46
"Iron, Fe",mg,--,--,3.81,2.93
"Sodium, Na",mg,--,--,460,354
Vitamins
"Vitamin C, total ascorbic acid",mg,--,--,0.0,0.0
"Vitamin A, IU",IU,--,--,422,325
Lipids
"Fatty acids, total saturated",g,--,--,0.494,0.380
"Fatty acids, total trans",g,--,--,0.000,0.000
"Cholesterol",mg,--,--,0,0
Amino Acids
Other
Ingredients
"PREPARED BEANS, WATER, SUGAR, TOMATO PASTE, CORN SYRUP, PORK, SALT, PAPRIKA, SPICE, CARAMEL COLORING, NATURAL FLAVORINGS, AND GARLIC POWDER." Date available: 07/14/2017 Date last updated by company: 07/14/2017
