Source: USDA Branded Food Products Database Release December 2017 Software v.3.8.6.4 2017-10-02
Report Run at: December 19, 2017 00:56 EST
"Nutrient data for: 45005860, WEIS QUALITY, CUT SWEET POTATOES IN LIGHT SYRUP, UPC: 041497188741"
Food Group:  Branded Food Products Database
Common Name:

Nutrient,Unit,Data points,Std. Error,"0.5 cup = 160.0g",1Value per 100 g,
Proximates
"Energy",kcal,--,--,120,75
"Protein",g,--,--,0.00,0.00
"Total lipid (fat)",g,--,--,0.00,0.00
"Carbohydrate, by difference",g,--,--,30.00,18.75
"Fiber, total dietary",g,--,--,1.9,1.2
"Sugars, total",g,--,--,23.01,14.38
Minerals
"Calcium, Ca",mg,--,--,0,0
"Iron, Fe",mg,--,--,0.00,0.00
"Sodium, Na",mg,--,--,30,19
Vitamins
"Vitamin C, total ascorbic acid",mg,--,--,4.8,3.0
"Vitamin A, IU",IU,--,--,11000,6875
Lipids
"Fatty acids, total saturated",g,--,--,0.000,0.000
"Cholesterol",mg,--,--,0,0
Amino Acids
Other
Ingredients
"SWEET POTATOES, WATER, CORN SYRUP AND SUGAR." Date available: 06/25/2017 Date last updated by company: 06/25/2017
