Source: USDA Branded Food Products Database Release December 2017 Software v.3.8.6.4 2017-10-02
Report Run at: December 19, 2017 01:15 EST
"Nutrient data for: 45233078, WELCH'S, FRUIT JUICE COCKTAIL, GRAPE, UPC: 04180132"
Food Group:  Branded Food Products Database
Common Name:

Nutrient,Unit,Data points,Std. Error,"2.0 OZA = 60.0g",1Value per 100 g,
Proximates
"Energy",kcal,--,--,150,250
"Protein",g,--,--,0.00,0.00
"Total lipid (fat)",g,--,--,0.00,0.00
"Carbohydrate, by difference",g,--,--,38.00,63.33
"Sugars, total",g,--,--,37.00,61.67
Minerals
"Calcium, Ca",mg,--,--,0,0
"Iron, Fe",mg,--,--,0.00,0.00
"Sodium, Na",mg,--,--,0,0
Vitamins
"Vitamin C, total ascorbic acid",mg,--,--,60.0,100.0
"Vitamin A, IU",IU,--,--,0,0
Lipids
Amino Acids
Other
Ingredients
"HIGH FRUCTOSE CORN SYRUP, FILTERED WATER, SUGAR, CONCORD GRAPE JUICE CONCENTRATE, CITRIC ACID (FOR TARTNESS), NATURAL FLAVOR, ASCORBIC ACID (VITAMIN C), RED 40, BLUE 1." Date available: 06/24/2017 Date last updated by company: 06/24/2017
