Source: USDA Branded Food Products Database Release December 2017 Software v.3.8.6.4 2017-10-02
Report Run at: December 19, 2017 01:15 EST
"Nutrient data for: 45139751, WELCH'S, FRUIT JUICE, PASSION FRUIT CHERRY, UPC: 041800401345"
Food Group:  Branded Food Products Database
Common Name:

Nutrient,Unit,Data points,Std. Error,"8.0 OZA = 240.0g",1Value per 100 g,
Proximates
"Energy",kcal,--,--,110,46
"Protein",g,--,--,0.00,0.00
"Total lipid (fat)",g,--,--,0.00,0.00
"Carbohydrate, by difference",g,--,--,27.00,11.25
"Sugars, total",g,--,--,25.99,10.83
Minerals
"Sodium, Na",mg,--,--,19,8
Vitamins
"Vitamin C, total ascorbic acid",mg,--,--,12.0,5.0
Lipids
Amino Acids
Other
Ingredients
"FILTERED WATER, HIGH FRUCTOSE CORN SYRUP, APPLE JUICE CONCENTRATE, PASSION FRUIT JUICE CONCENTRATE, GRAPE JUICE CONCENTRATE, CHERRY JUICE CONCENTRATE, CITRIC ACID (FOR TARTNESS), PINEAPPLE JUICE CONCENTRATE, PECTIN, NATURAL FLAVOR, ASCORBIC ACID (VITAMIN C), SUCRALOSE." Date available: 07/14/2017 Date last updated by company: 07/14/2017
