Source: USDA Branded Food Products Database Release December 2017 Software v.3.8.6.4 2017-10-02
Report Run at: December 19, 2017 01:14 EST
"Nutrient data for: 45139884, WELCH'S, ESSENCE, WATER BEVERAGE, SPARKLING GRAPE, UPC: 041800704712"
Food Group:  Branded Food Products Database
Common Name:

Nutrient,Unit,Data points,Std. Error,"17.0 OZA = 503.0g",1Value per 100 g,
Proximates
"Energy",kcal,--,--,10,2
"Protein",g,--,--,0.00,0.00
"Total lipid (fat)",g,--,--,0.00,0.00
"Carbohydrate, by difference",g,--,--,3.02,0.60
"Sugars, total",g,--,--,1.01,0.20
Minerals
"Sodium, Na",mg,--,--,10,2
Vitamins
Lipids
Amino Acids
Other
Ingredients
"CARBONATED WATER, NATURAL FLAVOR, GRAPE JUICE CONCENTRATE, CITRIC ACID, APPLE JUICE CONCENTRATE, MALIC ACID, POTASSIUM BENZOATE AND POTASSIUM SORBATE (PRESERVATIVES), SUCRALOSE, GRAPE SEED EXTRACT, RED 40, CALCIUM DISODIUM EDTA (TO PROTECT FLAVOR), BLUE 1." Date available: 07/14/2017 Date last updated by company: 07/14/2017
