Source: USDA Branded Food Products Database Release December 2017 Software v.3.8.6.4 2017-10-02
Report Run at: December 19, 2017 01:13 EST
"Nutrient data for: 45170858, WELCH'S, CHILLERS JUICE DRINK, STRAWBERRY KIWI, UPC: 041800201044"
Food Group:  Branded Food Products Database
Common Name:

Nutrient,Unit,Data points,Std. Error,"8.0 OZA = 240.0g",1Value per 100 g,
Proximates
"Energy",kcal,--,--,120,50
"Protein",g,--,--,0.00,0.00
"Total lipid (fat)",g,--,--,0.00,0.00
"Carbohydrate, by difference",g,--,--,28.99,12.08
"Sugars, total",g,--,--,28.01,11.67
Minerals
"Sodium, Na",mg,--,--,24,10
Vitamins
"Vitamin C, total ascorbic acid",mg,--,--,6.0,2.5
Lipids
Amino Acids
Other
Ingredients
"FILTERED WATER, HIGH FRUCTOSE CORN SYRUP, APPLE JUICE CONCENTRATE, CITRIC ACID (FOR TARTNESS), NATURAL AND ARTIFICIAL FLAVOR, KIWI JUICE CONCENTRATE, STRAWBERRY JUICE CONCENTRATE, ASCORBIC ACID (VITAMIN C), SODIUM CITATE, GUM ACACIA, ESTER GUM, RED 40 (COLOR)." Date available: 07/14/2017 Date last updated by company: 07/14/2017
