Source: USDA Branded Food Products Database Release December 2017 Software v.3.8.6.4 2017-10-02
Report Run at: December 19, 2017 01:18 EST
"Nutrient data for: 45144653, WELCH'S, PB&J TRAIL MIX, GRAPE, UPC: 000790430070"
Food Group:  Branded Food Products Database
Common Name:

Nutrient,Unit,Data points,Std. Error,"1 BAG = 42.5g",1Value per 100 g,
Proximates
"Energy",kcal,--,--,200,471
"Protein",g,--,--,4.00,9.41
"Total lipid (fat)",g,--,--,11.00,25.88
"Carbohydrate, by difference",g,--,--,22.00,51.76
"Fiber, total dietary",g,--,--,2.0,4.7
"Sugars, total",g,--,--,19.00,44.71
Minerals
"Calcium, Ca",mg,--,--,20,47
"Iron, Fe",mg,--,--,0.85,1.99
"Sodium, Na",mg,--,--,80,188
Vitamins
"Vitamin C, total ascorbic acid",mg,--,--,0.0,0.0
"Vitamin A, IU",IU,--,--,0,0
Lipids
"Fatty acids, total saturated",g,--,--,3.502,8.240
"Fatty acids, total trans",g,--,--,0.000,0.000
"Cholesterol",mg,--,--,0,0
Amino Acids
Other
Ingredients
"PEANUTS, FLAVORED DRIED CRANBERRIES (CRANBERRIES, SUGAR, SUNFLOWER OIL, NATURAL FLAVOR). PEANUT FLAVORED COATING (DRIED CANE SYRUP, PALM KERNEL OIL, PARTIALLY DEFATTED PEANUT FLOUR, WHEY POWDER [MILK], SALT, SOY LECITHIN [AN EMULSIFIER], YOGURT FLAVORED COATING (SUGAR, PALM KERNEL OIL AND/OR PALM OIL, NONFAT DRY MILK, WHEY POWDER, NONFAT YOGURT POWDER [CULTURED WHEY, NONFAT MILK], TITANIUM DIOXIDE [COLOR], SOY LECITHIN [AN EMULSIFIER], LACTIC ACID, VANILLA), SUGAR, CORN OIL, SALT, COLORING (INCLUDES VEGETABLE JUICE), TAPIOCA DEXTRIN, HONEY, GUM ARABIC, NATURAL FLAVORS, CORN SYRUP, CONFECTIONER'S GLAZE." Date available: 07/14/2017 Date last updated by company: 07/14/2017
