Source: USDA Branded Food Products Database Release December 2017 Software v.3.8.6.4 2017-10-02
Report Run at: December 19, 2017 01:17 EST
"Nutrient data for: 45239440, WELCH'S, MIXED BERRY JUICE, UPC: 041800201570"
Food Group:  Branded Food Products Database
Common Name:

Nutrient,Unit,Data points,Std. Error,"8.0 OZA = 240.0g",1Value per 100 g,
Proximates
"Energy",kcal,--,--,130,54
"Protein",g,--,--,1.01,0.42
"Total lipid (fat)",g,--,--,0.00,0.00
"Carbohydrate, by difference",g,--,--,30.00,12.50
Minerals
"Potassium, K",mg,--,--,300,125
"Sodium, Na",mg,--,--,50,21
Vitamins
Lipids
Amino Acids
Other
Ingredients
"GRAPE JUICE FROM CONCENTRATE (FILTERED WATER, GRAPE JUICE CONCENTRATE), PEAR JUICE.FROM CONCENTRATE (FILTERED WATER, PEAR JUICE CONCENTRATE), APPLE JUICE FROM CONCENTRATE (FILTERED WATER, APPLE JUICE CONCENTRATE), RASPBERRY PUREE, BLUEBERRY PUREE, ELDERBERRY JUICE FROM CONCENTRATE (FILTERED WATER, ELDERBERRY JUICE CONCENTRATE), BLACK BERRY JUICE FROM CONCENTRATE (FILTERED WATER, BLACKBERRY JUICE CONCENTRATE), NATURAL FLAVOR, CITRIC ACID (FOR TARTNESS). WLA31954" Date available: 08/22/2017 Date last updated by company: 08/22/2017
