Source: USDA Branded Food Products Database Release December 2017 Software v.3.8.6.4 2017-10-02
Report Run at: December 19, 2017 01:21 EST
"Nutrient data for: 45159647, WELLSLEY FARMS, CRANBERRY CHERRY JUICE COCKTAIL BLEND FROM CONCENTRATE, DARK CHOCOLATE, UPC: 888670026120"
Food Group:  Branded Food Products Database
Common Name:

Nutrient,Unit,Data points,Std. Error,"8.0 OZA = 240.0g",1Value per 100 g,
Proximates
"Energy",kcal,--,--,120,50
"Protein",g,--,--,0.00,0.00
"Total lipid (fat)",g,--,--,0.00,0.00
"Carbohydrate, by difference",g,--,--,30.00,12.50
"Fiber, total dietary",g,--,--,0.0,0.0
"Sugars, total",g,--,--,30.00,12.50
Minerals
"Calcium, Ca",mg,--,--,0,0
"Iron, Fe",mg,--,--,0.00,0.00
"Sodium, Na",mg,--,--,36,15
Vitamins
"Vitamin C, total ascorbic acid",mg,--,--,60.0,25.0
"Vitamin A, IU",IU,--,--,0,0
Lipids
"Fatty acids, total saturated",g,--,--,0.000,0.000
"Fatty acids, total trans",g,--,--,0.000,0.000
"Cholesterol",mg,--,--,0,0
Amino Acids
Other
Ingredients
"FILTERED WATER, CANE OR BEET SUGAR, CRANBERRY JUICE CONCENTRATE, CHERRY JUICE CONCENTRATE, GRAPE JUICE CONCENTRATE, VEGETABLE JUICE CONCENTRATE (COLOR), FUMARIC ACID, NATURAL FLAVORS, ASCORBIC ACID (VITAMIN C), CITRIC ACID." Date available: 08/18/2017 Date last updated by company: 08/18/2017
