Source: USDA Branded Food Products Database Release December 2017 Software v.3.8.6.4 2017-10-02
Report Run at: December 19, 2017 01:23 EST
"Nutrient data for: 45159640, WELLSLEY FARMS, PEANUT BUTTER FILLED PRETZELS, UPC: 888670013120"
Food Group:  Branded Food Products Database
Common Name:

Nutrient,Unit,Data points,Std. Error,"10.0 PRETZELS = 30.0g",1Value per 100 g,
Proximates
"Energy",kcal,--,--,150,500
"Protein",g,--,--,5.00,16.67
"Total lipid (fat)",g,--,--,7.00,23.33
"Carbohydrate, by difference",g,--,--,15.00,50.00
"Fiber, total dietary",g,--,--,2.0,6.7
"Sugars, total",g,--,--,2.00,6.67
Minerals
"Calcium, Ca",mg,--,--,0,0
"Iron, Fe",mg,--,--,1.20,4.00
"Sodium, Na",mg,--,--,330,1100
Vitamins
"Vitamin C, total ascorbic acid",mg,--,--,0.0,0.0
"Vitamin A, IU",IU,--,--,0,0
Lipids
"Fatty acids, total saturated",g,--,--,1.500,5.000
"Fatty acids, total trans",g,--,--,0.000,0.000
"Cholesterol",mg,--,--,0,0
Amino Acids
Other
Ingredients
"ENRICHED WHEAT FLOUR (WHEAT FLOUR, NIACIN, REDUCED IRON, THIAMIN MONONITRATE, RIBOFLAVIN, FOLIC ACID), PEANUT BUTTER (ROASTED PEANUTS, SUGAR, SALT), SALT, LESS THAN 2% OF: HIGH OLEIC CANOLA OIL AND/OR SOYBEAN OIL, CORN SYRUP, BARLEY MALT EXTRACT, LEAVENING (YEAST, SODIUM BICARBONATE, AND/OR AMMONIUM BICARBONATE)." Date available: 07/14/2017 Date last updated by company: 07/14/2017
