Source: USDA Branded Food Products Database Release December 2017 Software v.3.8.6.4 2017-10-02
Report Run at: December 19, 2017 01:23 EST
"Nutrient data for: 45160059, WELLSLEY FARMS, SIGNATURE JORDAN ALMONDS CANDY, UPC: 888670017821"
Food Group:  Branded Food Products Database
Common Name:

Nutrient,Unit,Data points,Std. Error,"3.0 Tbsp = 40.0g",1Value per 100 g,
Proximates
"Energy",kcal,--,--,180,450
"Protein",g,--,--,3.00,7.50
"Total lipid (fat)",g,--,--,8.00,20.00
"Carbohydrate, by difference",g,--,--,28.00,70.00
"Fiber, total dietary",g,--,--,2.0,5.0
"Sugars, total",g,--,--,24.00,60.00
Minerals
"Calcium, Ca",mg,--,--,40,100
"Iron, Fe",mg,--,--,0.90,2.25
"Sodium, Na",mg,--,--,0,0
Vitamins
"Vitamin C, total ascorbic acid",mg,--,--,0.0,0.0
"Vitamin A, IU",IU,--,--,0,0
Lipids
"Fatty acids, total saturated",g,--,--,0.500,1.250
"Fatty acids, total trans",g,--,--,0.000,0.000
"Cholesterol",mg,--,--,0,0
Amino Acids
Other
Ingredients
"SUGAR, ALMONDS, CORN SYRUP, TAPIOCA DEXTRIN, NATURAL AND ARTIFICIAL FLAVORS, ARTIFICIAL COLOR (TITANIUM DIOXIDE, YELLOW 5 LAKE, RED 3, BLUE 1 LAKE, BLUE 2 LAKE), MODIFIED CORN STARCH, CONFECTIONERS GLAZE (WITH BEESWAX AND CARNAUBA WAX)." Date available: 07/14/2017 Date last updated by company: 07/14/2017
