Source: USDA Branded Food Products Database Release December 2017 Software v.3.8.6.4 2017-10-02
Report Run at: December 19, 2017 01:22 EST
"Nutrient data for: 45159642, WELLSLEY FARMS, ORGANIC TRAIL MIX, UPC: 888670020043"
Food Group:  Branded Food Products Database
Common Name:

Nutrient,Unit,Data points,Std. Error,"0.25 cup = 30.0g",1Value per 100 g,
Proximates
"Energy",kcal,--,--,140,467
"Protein",g,--,--,5.00,16.67
"Total lipid (fat)",g,--,--,8.00,26.67
"Carbohydrate, by difference",g,--,--,13.00,43.33
"Fiber, total dietary",g,--,--,3.0,10.0
"Sugars, total",g,--,--,8.00,26.67
Minerals
"Calcium, Ca",mg,--,--,20,67
"Iron, Fe",mg,--,--,1.92,6.40
"Sodium, Na",mg,--,--,10,33
Vitamins
"Vitamin C, total ascorbic acid",mg,--,--,1.6,5.3
"Vitamin A, IU",IU,--,--,0,0
Lipids
"Fatty acids, total saturated",g,--,--,0.999,3.330
"Fatty acids, total trans",g,--,--,0.000,0.000
"Cholesterol",mg,--,--,0,0
Amino Acids
Other
Ingredients
"ORGANIC PEPITAS, ORGANIC SOY NUTS (ORGANIC SOYBEANS, ORGANIC SUNFLOWER OIL, SALT), ORGANIC SUNFLOWER SEED KERNELS, ORGANIC DRIED CRANBERRIES (ORGANIC CRANBERRIES, ORGANIC DRIED CANE SYRUP, ORGANIC SUNFLOWER OIL), ORGANIC RAISINS (ORGANIC RAISINS, ORGANIC SUNFLOWER OIL), ORGANIC DATES (ORGANIC DATES, ORGANIC OAT FLOUR, ORGANIC SUNFLOWER OIL)." Date available: 07/14/2017 Date last updated by company: 07/14/2017
