Source: USDA Branded Food Products Database Release December 2017 Software v.3.8.6.4 2017-10-02
Report Run at: December 19, 2017 01:20 EST
"Nutrient data for: 45261627, WELLNESS TEA HERBAL SUPPLEMENT, UPC: 070734519529"
Food Group:  Branded Food Products Database
Common Name:

Nutrient,Unit,Data points,Std. Error,"1 TEA BAG = 35.0g",1Value per 100 g,
Proximates
Minerals
Vitamins
Lipids
Amino Acids
Other
Ingredients
"OTHER INGREDIENTS: CHAMOMILE, LEMONGRASS, NATURAL MENTHOL FLAVOR (CONTAINS SOY LECITHIN) AND TILIA FLOWERS. SPEARMINT (MENTHA SPICATA) (LEAF), LICORICE (GLYCYRRHIZA GLABRA) PROPRIETARY BLEND: SPEARMINT (MENTHA SPICATA) (LEAF), LICORICE (GLYCYRRHIZA GLABRA) (ROOT), PEPPERMINT (MENTHA PIPERITA) (LEAF), TULSI (OCIMUM TENUIFLORUM) (LEAF) STINGING NETTLE (URTICA DIOICA) (LEAF), LINDEN (TILIA CORDATA) (FLOWER & LEAF), LINDEN (TILIA CORDATA) (FLOWER & LEAF), FENNEL (FOENICULUM VULGARE) (SEED)." Date available: 05/16/2017 Date last updated by company: 05/16/2017
