Source: USDA Branded Food Products Database Release December 2017 Software v.3.8.6.4 2017-10-02
Report Run at: December 19, 2017 01:21 EST
"Nutrient data for: 45162287, WELLSLEY FARMS, ALL NATURAL CHOPPED WALNUTS, UPC: 888670032145"
Food Group:  Branded Food Products Database
Common Name:

Nutrient,Unit,Data points,Std. Error,"0.25 cup = 30.0g",1Value per 100 g,
Proximates
"Energy",kcal,--,--,200,667
"Protein",g,--,--,5.00,16.67
"Total lipid (fat)",g,--,--,20.00,66.67
"Carbohydrate, by difference",g,--,--,4.00,13.33
"Fiber, total dietary",g,--,--,2.0,6.7
"Sugars, total",g,--,--,1.00,3.33
Minerals
"Calcium, Ca",mg,--,--,20,67
"Iron, Fe",mg,--,--,0.72,2.40
"Magnesium, Mg",mg,--,--,40,133
"Phosphorus, P",mg,--,--,100,333
"Potassium, K",mg,--,--,130,433
"Sodium, Na",mg,--,--,0,0
"Copper, Cu",mg,--,--,0.500,1.667
"Manganese, Mn",mg,--,--,0.900,3.000
Vitamins
"Vitamin C, total ascorbic acid",mg,--,--,0.0,0.0
"Vitamin A, IU",IU,--,--,0,0
Lipids
"Fatty acids, total saturated",g,--,--,2.001,6.670
"Fatty acids, total monounsaturated",g,--,--,2.499,8.330
"Fatty acids, total polyunsaturated",g,--,--,14.001,46.670
"Fatty acids, total trans",g,--,--,0.000,0.000
"Cholesterol",mg,--,--,0,0
Amino Acids
Other
Ingredients
"WALNUTS" Date available: 09/28/2016 Date last updated by company: 09/28/2016
