Source: USDA Branded Food Products Database Release December 2017 Software v.3.8.6.4 2017-10-02
Report Run at: December 19, 2017 01:24 EST
"Nutrient data for: 45090422, WELPAC, ORGANIC SEASONED SEAWEED SNACK, UPC: 011152292496"
Food Group:  Branded Food Products Database
Common Name:

Nutrient,Unit,Data points,Std. Error,"8.0 PIECES = 2.8g",1Value per 100 g,
Proximates
"Energy",kcal,--,--,10,357
"Protein",g,--,--,1.00,35.71
"Total lipid (fat)",g,--,--,0.00,0.00
"Carbohydrate, by difference",g,--,--,1.00,35.71
"Fiber, total dietary",g,--,--,1.0,35.7
"Sugars, total",g,--,--,0.00,0.00
Minerals
"Calcium, Ca",mg,--,--,0,0
"Iron, Fe",mg,--,--,0.00,0.00
"Sodium, Na",mg,--,--,45,1607
Vitamins
"Vitamin C, total ascorbic acid",mg,--,--,21.4,765.2
"Vitamin A, IU",IU,--,--,0,0
Lipids
"Fatty acids, total saturated",g,--,--,0.000,0.000
"Fatty acids, total trans",g,--,--,0.000,0.000
"Cholesterol",mg,--,--,0,0
Amino Acids
Other
Ingredients
"ORGANIC DRIED SEAWEED, ORGANIC SOY SAUCE (WATER, ORGANIC SOYBEAN, ORGANIC WHEAT, SALT), ORGANIC SWEET RICE WINE (ORGANIC SHOCHU [ORGANIC RICE, WATER, KOJI CULTURE], ORGANIC SWEET RICE, ORGANIC RICE)." Date available: 06/25/2017 Date last updated by company: 06/25/2017
