Source: USDA Branded Food Products Database Release December 2017 Software v.3.8.6.4 2017-10-02
Report Run at: December 19, 2017 01:25 EST
"Nutrient data for: 45176478, WENNER BREAD PRODUCTS, INC, TEA BREAD, UPC: 076489170695"
Food Group:  Branded Food Products Database
Common Name:

Nutrient,Unit,Data points,Std. Error,"0.125 TH OF BREAD = 57.0g",1Value per 100 g,
Proximates
"Energy",kcal,--,--,170,298
"Protein",g,--,--,4.00,7.02
"Total lipid (fat)",g,--,--,3.00,5.26
"Carbohydrate, by difference",g,--,--,29.00,50.88
"Fiber, total dietary",g,--,--,2.0,3.5
"Sugars, total",g,--,--,9.00,15.79
Minerals
"Calcium, Ca",mg,--,--,40,70
"Iron, Fe",mg,--,--,1.58,2.77
"Sodium, Na",mg,--,--,360,632
Vitamins
"Vitamin C, total ascorbic acid",mg,--,--,0.0,0.0
"Vitamin A, IU",IU,--,--,0,0
Lipids
"Fatty acids, total saturated",g,--,--,2.001,3.510
"Fatty acids, total trans",g,--,--,0.000,0.000
"Cholesterol",mg,--,--,0,0
Amino Acids
Other
Ingredients
"ENRICHED WHEAT FLOUR (WHEAT FLOUR, NIACIN, REDUCED IRON, THIAMIN MONONITRATE, RIBOFLAVIN, ENZYMES, FOLIC ACID), WATER, SUGAR, CHOCOLATE CHIPS (SUGAR, UNSWEETENED CHOCOLATE, COCOA BUTTER, SOYBEAN LECITHIN, VANILLIN), PALM OIL, LEAVENING (SODIUM ALUMINUM PHOSPHATE, SODIUM BICARBONATE), DEXTROSE, WHEY, NATURAL AND ARTIFICIAL FLAVORS, NON-FAT DRY MILK, SALT, COCOA (PROCESSED WITH ALKALI), SODIUM STEAROYL LACTY LATE, EMULSIFIER (SOYBEAN OIL WITH GLYCEROL-LACTO ESTERS OF FATTY ESTERS, MONO- AND DIGLYCERIDES), SODIUM CASEINATE, FRUCTOSE, WHEAT STARCH, CARBOXYMETHYL CELLULOSE, RYE FLOUR." Date available: 07/14/2017 Date last updated by company: 07/14/2017
