Source: USDA Branded Food Products Database Release December 2017 Software v.3.8.6.4 2017-10-02
Report Run at: December 19, 2017 01:33 EST
"Nutrient data for: 45101184, WESTERN FAMILY, LIGHTLY SMOKED SARDINES IN SOYBEAN OIL, UPC: 015400035880"
Food Group:  Branded Food Products Database
Common Name:

Nutrient,Unit,Data points,Std. Error,"1 CAN = 119.0g",1Value per 100 g,
Proximates
"Energy",kcal,--,--,190,160
"Protein",g,--,--,26.00,21.85
"Total lipid (fat)",g,--,--,9.00,7.56
"Carbohydrate, by difference",g,--,--,1.00,0.84
"Fiber, total dietary",g,--,--,0.0,0.0
"Sugars, total",g,--,--,0.00,0.00
Minerals
"Calcium, Ca",mg,--,--,1000,840
"Iron, Fe",mg,--,--,1.29,1.08
"Sodium, Na",mg,--,--,250,210
Vitamins
"Vitamin C, total ascorbic acid",mg,--,--,0.0,0.0
"Vitamin A, IU",IU,--,--,0,0
Lipids
"Fatty acids, total saturated",g,--,--,1.999,1.680
"Fatty acids, total trans",g,--,--,0.000,0.000
"Cholesterol",mg,--,--,90,76
Amino Acids
Other
Ingredients
"SARDINES, VEGETABLE OIL (SOYBEAN OIL), SALT, SMOKED FLAVOR." Date available: 06/25/2017 Date last updated by company: 06/25/2017
