Source: USDA Branded Food Products Database Release December 2017 Software v.3.8.6.4 2017-10-02
Report Run at: December 19, 2017 01:32 EST
"Nutrient data for: 45084463, WESTERN FAMILY, FRENCH STYLE CALIFORNIA SPICY & SWEET DRESSING, UPC: 015400049382"
Food Group:  Branded Food Products Database
Common Name:

Nutrient,Unit,Data points,Std. Error,"2.0 Tbsp = 34.0g",1Value per 100 g,
Proximates
"Energy",kcal,--,--,100,294
"Protein",g,--,--,0.00,0.00
"Total lipid (fat)",g,--,--,6.00,17.65
"Carbohydrate, by difference",g,--,--,10.00,29.41
"Fiber, total dietary",g,--,--,0.0,0.0
"Sugars, total",g,--,--,8.00,23.53
Minerals
"Calcium, Ca",mg,--,--,0,0
"Iron, Fe",mg,--,--,0.00,0.00
"Sodium, Na",mg,--,--,420,1235
Vitamins
"Vitamin C, total ascorbic acid",mg,--,--,0.0,0.0
"Vitamin A, IU",IU,--,--,0,0
Lipids
"Fatty acids, total saturated",g,--,--,1.00,2.94
"Fatty acids, total trans",g,--,--,0.00,0.00
"Cholesterol",mg,--,--,0,0
Amino Acids
Other
Ingredients
"HIGH FRUCTOSE CORN SYRUP, TOMATO PUREE (WATER, TOMATO PASTE), SOYBEAN OIL, DISTILLED VINEGAR, WATER SALT, LESS THAN 2% MODIFIED FOOD STARCH, DRIED ONIONS, PHOSPHORIC ACID, XANTHAN GUM, NATURAL FLAVORS, GARLIC POWER,POTASSIUM SORBATE AND CALCIUM DISODIUM EDTA AS PRESERVATIVES, CITRIC ACID, GUAR GUM, RED 40, YELLOW 6, BLUE 1." Date last updated by company: 03/13/2016
