Source: USDA Branded Food Products Database Release December 2017 Software v.3.8.6.4 2017-10-02
Report Run at: December 19, 2017 01:36 EST
"Nutrient data for: 45101296, WESTERN FAMILY, PRESERVES, STRAWBERRY, UPC: 015400017480"
Food Group:  Branded Food Products Database
Common Name:

Nutrient,Unit,Data points,Std. Error,"1 Tbsp = 20.0g",1Value per 100 g,
Proximates
"Energy",kcal,--,--,50,250
"Protein",g,--,--,0.00,0.00
"Total lipid (fat)",g,--,--,0.00,0.00
"Carbohydrate, by difference",g,--,--,13.00,65.00
"Sugars, total",g,--,--,9.00,45.00
Minerals
"Sodium, Na",mg,--,--,5,25
Vitamins
Lipids
Amino Acids
Other
Ingredients
"STRAWBERRIES, CORN SYRUP, SUGAR, HIGH FRUCTOSE CORN SYRUP, PECTIN, CITRIC ACID, SODIUM CITRATE AS NEEDED." Date available: 06/25/2017 Date last updated by company: 06/25/2017
