Source: USDA Branded Food Products Database Release December 2017 Software v.3.8.6.4 2017-10-02
Report Run at: December 19, 2017 01:27 EST
"Nutrient data for: 45101167, WESTERN FAMILY, ALASKA PINK SALMON, UPC: 015400018203"
Food Group:  Branded Food Products Database
Common Name:

Nutrient,Unit,Data points,Std. Error,"0.25 cup = 63.0g",1Value per 100 g,
Proximates
"Energy",kcal,--,--,90,143
"Protein",g,--,--,12.00,19.05
"Total lipid (fat)",g,--,--,5.00,7.94
"Carbohydrate, by difference",g,--,--,0.00,0.00
"Fiber, total dietary",g,--,--,0.0,0.0
"Sugars, total",g,--,--,0.00,0.00
Minerals
"Calcium, Ca",mg,--,--,100,159
"Iron, Fe",mg,--,--,0.49,0.77
"Sodium, Na",mg,--,--,270,429
Vitamins
"Vitamin C, total ascorbic acid",mg,--,--,0.0,0.0
"Vitamin A, IU",IU,--,--,0,0
Lipids
"Fatty acids, total saturated",g,--,--,1.002,1.590
"Fatty acids, total trans",g,--,--,0.000,0.000
"Cholesterol",mg,--,--,40,63
Amino Acids
Other
Ingredients
"PINK SALMON, SALT." Date available: 06/25/2017 Date last updated by company: 06/25/2017
