Source: USDA Branded Food Products Database Release December 2017 Software v.3.8.6.4 2017-10-02
Report Run at: December 19, 2017 01:33 EST
"Nutrient data for: 45243021, WESTERN FAMILY, LOUISIANA HOT SAUCE WITH CAYENNE PEPPERS, UPC: 015400011754"
Food Group:  Branded Food Products Database
Common Name:

Nutrient,Unit,Data points,Std. Error,"1 tsp = 5.0g",1Value per 100 g,
Proximates
"Energy",kcal,--,--,0,0
"Protein",g,--,--,0.00,0.00
"Total lipid (fat)",g,--,--,0.00,0.00
"Carbohydrate, by difference",g,--,--,0.00,0.00
Minerals
"Sodium, Na",mg,--,--,130,2600
Vitamins
Lipids
Amino Acids
Other
Ingredients
"AGED RED CAYENNE PEPPERS, DISTILLED VINEGAR, SALT, AND XANTHAN GUM." Date available: 10/13/2017 Date last updated by company: 10/13/2017
