Source: USDA Branded Food Products Database Release December 2017 Software v.3.8.6.4 2017-10-02
Report Run at: December 19, 2017 01:33 EST
"Nutrient data for: 45101104, WESTERN FAMILY, LOW-FAT YOGURT, MIXED BERRY, UPC: 015400112635"
Food Group:  Branded Food Products Database
Common Name:

Nutrient,Unit,Data points,Std. Error,"6.0 ONZ = 170.0g",1Value per 100 g,
Proximates
"Energy",kcal,--,--,160,94
"Protein",g,--,--,7.00,4.12
"Total lipid (fat)",g,--,--,1.50,0.88
"Carbohydrate, by difference",g,--,--,29.00,17.06
"Fiber, total dietary",g,--,--,0.0,0.0
"Sugars, total",g,--,--,25.99,15.29
Minerals
"Calcium, Ca",mg,--,--,201,118
"Iron, Fe",mg,--,--,0.00,0.00
"Sodium, Na",mg,--,--,105,62
Vitamins
"Vitamin C, total ascorbic acid",mg,--,--,2.4,1.4
"Vitamin A, IU",IU,--,--,0,0
Lipids
"Fatty acids, total saturated",g,--,--,1.003,0.590
"Fatty acids, total trans",g,--,--,0.000,0.000
"Cholesterol",mg,--,--,10,6
Amino Acids
Other
Ingredients
"CULTURED GRADE A PASTEURIZED LOWFAT MILK, SUGAR, NONFAT DRY MILK, MODIFIED CORN STARCH, RASPBERRIES, BLUEBERRIES, STRAWBERRIES, GELATIN, BLACK CURRENT JUICE CONCENTRATE, NATURAL FLAVORS, POTASSIUM SORBATE, YOGURT CULTURES (L. BULGARICUS, S. THERMOPHILUS, L. ACIDOPHILUS, B. BIFIDUS)." Date available: 06/25/2017 Date last updated by company: 06/25/2017
