Source: USDA Branded Food Products Database Release December 2017 Software v.3.8.6.4 2017-10-02
Report Run at: December 19, 2017 01:43 EST
"Nutrient data for: 45217570, WHEAT DINNER ROLLS, UPC: 045674521116"
Food Group:  Branded Food Products Database
Common Name:

Nutrient,Unit,Data points,Std. Error,"1 ROLL = 38.0g",1Value per 100 g,
Proximates
"Energy",kcal,--,--,90,237
"Protein",g,--,--,3.00,7.89
"Total lipid (fat)",g,--,--,1.50,3.95
"Carbohydrate, by difference",g,--,--,17.00,44.74
"Fiber, total dietary",g,--,--,1.0,2.6
"Sugars, total",g,--,--,1.00,2.63
Minerals
"Calcium, Ca",mg,--,--,60,158
"Iron, Fe",mg,--,--,1.42,3.74
"Sodium, Na",mg,--,--,180,474
Vitamins
"Vitamin C, total ascorbic acid",mg,--,--,0.0,0.0
"Thiamin",mg,--,--,0.380,1.000
"Riboflavin",mg,--,--,0.179,0.471
"Niacin",mg,--,--,2.632,6.926
"Vitamin A, IU",IU,--,--,0,0
Lipids
"Fatty acids, total saturated",g,--,--,0.000,0.000
"Fatty acids, total trans",g,--,--,0.000,0.000
"Cholesterol",mg,--,--,0,0
Amino Acids
Other
Ingredients
"ENRICHED WHEAT FLOUR (WHEAT FLOUR., BARLEY MALT, NIACIN, IRON, THIAMIN MONONITRATE, RIBOFLAVIN, FOLIC ACID), WATER, YEAST, CRACKED WHEAT BRAN, HIGH FRUCTOSE CORN SYRUP, SOYBEAN OIL, CONTAINS 2% OR LESS OF THE FOLLOWING: WHEAT GLUTEN, SALT, CALCIUM PROPIONATE (PRESERVATIVE), YEAST NUTRIENTS (MONOCALCIUM PHOSPHATE, CALCIUM SULFATE, DICALCIUM PHOSPHATE, DIAMMONIUM PHOSPHATE, AMMONIUM SULFATE), DOUGH CONDITIONERS (SODIUM STEAROYL LACTYLATE, MONOGLYCERIDES, CALCIUM PEROXIDE), CORN FLOUR, MALT, FUMARIC ACID, SODIUM DIACETATE, LACTIC ACID, CARAMEL COLOR, VINEGAR, SOY LECITHIN." Date available: 07/14/2017 Date last updated by company: 07/14/2017
