Source: USDA Branded Food Products Database Release December 2017 Software v.3.8.6.4 2017-10-02
Report Run at: December 19, 2017 01:48 EST
"Nutrient data for: 45292075, WHEY PROTEIN BARS, UPC: 733913010476"
Food Group:  Branded Food Products Database
Common Name:

Nutrient,Unit,Data points,Std. Error,"1 BAR = 30.0g",1Value per 100 g,
Proximates
"Energy",kcal,--,--,110,367
"Protein",g,--,--,10.00,33.33
"Total lipid (fat)",g,--,--,4.00,13.33
"Carbohydrate, by difference",g,--,--,11.00,36.67
"Fiber, total dietary",g,--,--,4.0,13.3
"Sugars, total",g,--,--,2.00,6.67
Minerals
"Calcium, Ca",mg,--,--,20,67
"Iron, Fe",mg,--,--,0.48,1.60
"Magnesium, Mg",mg,--,--,11,36
"Phosphorus, P",mg,--,--,53,178
"Potassium, K",mg,--,--,90,300
"Sodium, Na",mg,--,--,180,600
"Manganese, Mn",mg,--,--,0.000,0.000
Vitamins
"Vitamin C, total ascorbic acid",mg,--,--,0.0,0.0
"Riboflavin",mg,--,--,0.091,0.302
"Vitamin B-6",mg,--,--,0.267,0.889
"Vitamin A, IU",IU,--,--,0,0
Lipids
"Fatty acids, total saturated",g,--,--,2.001,6.670
"Fatty acids, total trans",g,--,--,0.000,0.000
"Cholesterol",mg,--,--,5,17
Amino Acids
Other
Ingredients
"DETOUR WHEY PROTEIN BLEND [WHEY PROTEIN CONCENTRATE, CALCIUM CASEINATE, HYDROLYZED WHEY PROTEIN], GLYCERIN, DARK CHOCOLATE FLAVORED COATING [INULIN, SUGAR, PALM KERNEL OIL, COCOA PROCESSED WITH ALKALI, NON-GMO SOY LECITHIN (AN EMULSIFIER), VANILLA, WHOLE MILK POWDER, SALT], NON-GMO SOY PROTEIN ISOLATE, CARAMEL [SOLUBLE FIBER, INULIN, WATER, FRACTIONATED PALM KERNEL OIL, BUTTER, NON FAT DRY MILK, SUNFLOWER LECITHIN, SALT, NATURAL FLAVOR, STEVIA], ALMONDS, GELATIN, WATER, NON-GMO SOY PROTEIN CRISPS [SOY PROTEIN ISOLATE, RICE FLOUR], NATURAL FLAVORS, COCOA POWDER (PROCESSED WITH ALKALI), SEA SALT, SUNFLOWER OIL, STEVIA." Date available: 07/14/2017 Date last updated by company: 07/14/2017
