Source: USDA Branded Food Products Database Release December 2017 Software v.3.8.6.4 2017-10-02
Report Run at: December 19, 2017 01:54 EST
"Nutrient data for: 45220165, WHIPPED TOPPING, UPC: 075450139525"
Food Group:  Branded Food Products Database
Common Name:

Nutrient,Unit,Data points,Std. Error,"2.0 Tbsp = 9.0g",1Value per 100 g,
Proximates
"Energy",kcal,--,--,20,222
"Protein",g,--,--,0.00,0.00
"Total lipid (fat)",g,--,--,0.00,0.00
"Carbohydrate, by difference",g,--,--,4.00,44.44
"Fiber, total dietary",g,--,--,0.0,0.0
"Sugars, total",g,--,--,2.00,22.22
Minerals
"Calcium, Ca",mg,--,--,0,0
"Iron, Fe",mg,--,--,0.00,0.00
"Sodium, Na",mg,--,--,10,111
Vitamins
"Vitamin C, total ascorbic acid",mg,--,--,0.0,0.0
"Vitamin A, IU",IU,--,--,0,0
Lipids
"Fatty acids, total saturated",g,--,--,0.000,0.000
"Fatty acids, total trans",g,--,--,0.000,0.000
"Cholesterol",mg,--,--,0,0
Amino Acids
Other
Ingredients
"WATER, CORN SYRUP, DEXTROSE, SKIM MILK, HIGH FRUCTOSE CORN SYRUP, PARTIALLY HYDROGENATED PALM KERNEL OIL**, MALTODEXTRIN, CONTAINS LESS THAN 2% OF THE FOLLOWING: SUGAR, MODIFIED POTATO STARCH, ARTIFICIAL FLAVOR, SODIUM CASEINATE (A MILK DERIVATIVE), CELLULOSE GUM, HYDROGENATED COCONUT OIL**, CELLULOSE GEL, XANTHAN GUM, SODIUM HEXAMETAPHOSPHATE, DISODIUM PHOSPHATE, SODIUM STEAROYL LACTYLATE, GUAR GUM, CARBOHYDRATE GUM, POLYSORBATE 60, NATURAL FLAVOR, SOYBEAN OIL, TO PRESERVE FRESHNESS (SULFITING AGENTS), SOY LECITHIN, GLYCERINE, COLORED WITH (BETA CAROTENE)." Date available: 07/14/2017 Date last updated by company: 07/14/2017
