Source: USDA Branded Food Products Database Release December 2017 Software v.3.8.6.4 2017-10-02
Report Run at: December 19, 2017 01:53 EST
"Nutrient data for: 45319330, WHIPPED TOPPING MIX, UPC: 043000259085"
Food Group:  Branded Food Products Database
Common Name:

Nutrient,Unit,Data points,Std. Error,"0.062 ENVELOPE = 2.5g",1Value per 100 g,
Proximates
"Energy",kcal,--,--,10,400
"Protein",g,--,--,0.00,0.00
"Total lipid (fat)",g,--,--,0.50,20.00
"Carbohydrate, by difference",g,--,--,2.00,80.00
Minerals
"Sodium, Na",mg,--,--,0,0
Vitamins
Lipids
"Fatty acids, total saturated",g,--,--,0.500,20.000
"Fatty acids, total trans",g,--,--,0.000,0.000
Amino Acids
Other
Ingredients
"SUGAR, DEXTROSE, PARTIALLY HYDROGENATED VEGETABLE OIL (COCONUT AND PALM KERNEL OILS), MODIFIED CORNSTARCH, PROPYLENE GLYCOL MONOSTEARATE (EMULSIFIER), SODIUM CASEINATE (FROM MILK), CONTAINS LESS THAN 2% OF CELLULOSE GEL, CELLULOSE GUM, HYDROXYPROPYL METHYLCELLULOSE, NATURAL AND ARTIFICIAL FLAVOR, ACETYLATED MONOGLYCERIDES AND MONO-AND DIGLYCERIDES (EMULSIFIERS), SODIUM SILICOALUMINATE (ANTICAKING AGENT), YELLOW 5, YELLOW 6." Date available: 10/11/2017 Date last updated by company: 10/11/2017
