Source: USDA Branded Food Products Database Release December 2017 Software v.3.8.6.4 2017-10-02
Report Run at: December 19, 2017 01:52 EST
"Nutrient data for: 45189180, WHIPPED HONEY, UPC: 853804003001"
Food Group:  Branded Food Products Database
Common Name:

Nutrient,Unit,Data points,Std. Error,"1 Tbsp = 20.0g",1Value per 100 g,
Proximates
"Energy",kcal,--,--,60,300
"Protein",g,--,--,0.00,0.00
"Total lipid (fat)",g,--,--,0.00,0.00
"Carbohydrate, by difference",g,--,--,16.00,80.00
"Sugars, total",g,--,--,16.00,80.00
Minerals
"Sodium, Na",mg,--,--,81,406
Vitamins
Lipids
Amino Acids
Other
Ingredients
"HONEY, CINNAMON" Date available: 10/13/2017 Date last updated by company: 10/13/2017
