Source: USDA Branded Food Products Database Release December 2017 Software v.3.8.6.4 2017-10-02
Report Run at: December 19, 2017 01:51 EST
"Nutrient data for: 45027318, WHIPPED CREAMY CENTER WITH CARAMEL COVERED IN CHOCOLATE, UPC: 042272003914"
Food Group:  Branded Food Products Database
Common Name:

Nutrient,Unit,Data points,Std. Error,"1 PIECES = 28.0g",1Value per 100 g,
Proximates
"Energy",kcal,--,--,120,429
"Protein",g,--,--,1.00,3.57
"Total lipid (fat)",g,--,--,4.00,14.29
"Carbohydrate, by difference",g,--,--,19.00,67.86
"Fiber, total dietary",g,--,--,1.0,3.6
"Sugars, total",g,--,--,15.00,53.57
Minerals
"Calcium, Ca",mg,--,--,20,71
"Iron, Fe",mg,--,--,1.93,6.88
"Sodium, Na",mg,--,--,60,214
Vitamins
"Vitamin C, total ascorbic acid",mg,--,--,0.0,0.0
"Vitamin A, IU",IU,--,--,0,0
Lipids
"Fatty acids, total saturated",g,--,--,2.500,8.930
"Fatty acids, total trans",g,--,--,0.000,0.000
"Cholesterol",mg,--,--,0,0
Amino Acids
Other
Ingredients
"NOUGAT (ORGANIC CANE SUGAR, ORGANIC TAPIOCA SYRUP, ORGANIC BARLEY MALT EXTRACT, FILTERED WATER, ORGANIC PALM OIL, SOY PROTEIN, SEA SALT, ORGANIC VANILLA EXTRACT, ORGANIC SOY LECITHIN), ORGANIC DARK CHOCOLATE (ORGANIC CACAO BEANS, ORGANIC CANE SUGAR, ORGANIC COCOA BUTTER, ORGANIC SOY LECITHIN), ORGANIC CARAMEL (ORGANIC CANE SUGAR, ORGANIC TAPIOCA SYRUP, FILTERED WATER, ORGANIC PALM OIL, ORGANIC NONFAT DRY MILK, ORGANIC BUTTER [ORGANIC CREAM, SALT], SEA SALT, ORGANIC VANILLA EXTRACT, ORGANIC SOY LECITHIN), ORGANIC HIGH OLEIC SAFFLOWER AND/OR SUNFLOWER OIL." Date available: 07/14/2017 Date last updated by company: 07/14/2017
