Source: USDA Branded Food Products Database Release December 2017 Software v.3.8.6.4 2017-10-02
Report Run at: December 19, 2017 02:07 EST
"Nutrient data for: 45252678, WHITE CHOCOLATE RASPBERRY GOURMET COOKIES, UPC: 855949006374"
Food Group:  Branded Food Products Database
Common Name:

Nutrient,Unit,Data points,Std. Error,"1 COOKIE = 47.0g",1Value per 100 g,
Proximates
"Energy",kcal,--,--,230,489
"Protein",g,--,--,2.00,4.26
"Total lipid (fat)",g,--,--,15.00,31.91
"Carbohydrate, by difference",g,--,--,23.00,48.94
"Fiber, total dietary",g,--,--,1.0,2.1
"Sugars, total",g,--,--,11.00,23.40
Minerals
"Calcium, Ca",mg,--,--,20,43
"Iron, Fe",mg,--,--,1.15,2.44
"Sodium, Na",mg,--,--,95,202
Vitamins
"Vitamin C, total ascorbic acid",mg,--,--,0.0,0.0
"Vitamin A, IU",IU,--,--,213,453
Lipids
"Fatty acids, total saturated",g,--,--,9.000,19.150
"Fatty acids, total trans",g,--,--,0.000,0.000
"Cholesterol",mg,--,--,20,43
Amino Acids
Other
Ingredients
"FLOUR (UNBLEACHED HARD WHEAT FLOUR, MALTED BARLEY FLOUR, NIACIN, REDUCED IRON, THIAMIN MONONITRATE, RIBOFLAVIN, FOLIC ACID), BUTTER (CREAM, SALT), WHITE CHOCOLATE (SUGAR, VEGETABLE FAT(PALM KERNEL), WHOLE MILK POWDER, WHEY POWDER, DRY BUTTERMILK, LACTOSE, SOY LECITHIN, NATURAL VANILLA EXTRACT), DARK CHOCOLATE (SUGAR, VEGETABLE FAT (PALM KERNEL), COCOA POWDER PROCESSED WITH ALKALI, COCOA POWDER, SKIMMED MILK POWDER, WHEY POWDER, LACTOSE, SOY LECITHIN, NATURAL VANILLA EXTRACT), RASPBERRY FILLING (SUGAR, RASPBERRY PUREE, WATER, CORN SYRUP, MODIFIED FOOD STARCH (CORN), CONTAINS 2% OR LESS OF THE FOLLOWING: GELLAN GUM CITRIC ACID, POTASSIUM SORBATE (PRESERVATIVE), CALCIUM LACTATE3, RED 40, BLUE 1), CONFECTIONERS SUGAR (SUGAR, CORNSTARCH), SHORTENING (PALM OIL, MONO-AND DIGLYCERIDES, POLYSORBATE 60). ALMOND EXTRACT (ETHYL ALCOHOL, ARTIFICIAL ALMOND FLAVOR (BENZALDEHYDE)), BAKING POWDER (SODIUM ACID PYROPHOSPHATE, BAKING SODA, CORN STARCH, MONOCALCIUM PHOSPHATE)." Date available: 10/13/2017 Date last updated by company: 10/13/2017
