Source: USDA Branded Food Products Database Release December 2017 Software v.3.8.6.4 2017-10-02
Report Run at: December 19, 2017 02:02 EST
"Nutrient data for: 45035704, WHITE CASTLE, DUSSELDORF MUSTARD, UPC: 082988021000"
Food Group:  Branded Food Products Database
Common Name:

Nutrient,Unit,Data points,Std. Error,"1 tsp = 5.0g",1Value per 100 g,
Proximates
"Energy",kcal,--,--,5,100
"Protein",g,--,--,0.00,0.00
"Total lipid (fat)",g,--,--,0.00,0.00
"Carbohydrate, by difference",g,--,--,0.00,0.00
Minerals
"Iron, Fe",mg,--,--,3.65,73.04
"Sodium, Na",mg,--,--,60,1200
Vitamins
Lipids
Amino Acids
Other
Ingredients
"WATER, VINEGAR, MUSTARD SEED, SALT, SPICES, CARAMEL COLOR, TURMERIC." Date available: 06/24/2017 Date last updated by company: 06/24/2017
