Source: USDA Branded Food Products Database Release December 2017 Software v.3.8.6.4 2017-10-02
Report Run at: December 19, 2017 02:18 EST
"Nutrient data for: 45292283, WHITE ICED WHITE CUPCAKES, UPC: 079879807300"
Food Group:  Branded Food Products Database
Common Name:

Nutrient,Unit,Data points,Std. Error,"1 CUPCAKE = 57.0g",1Value per 100 g,
Proximates
"Energy",kcal,--,--,150,263
"Protein",g,--,--,2.00,3.51
"Total lipid (fat)",g,--,--,7.00,12.28
"Carbohydrate, by difference",g,--,--,24.00,42.11
"Fiber, total dietary",g,--,--,3.0,5.3
"Sugars, total",g,--,--,0.00,0.00
Minerals
"Calcium, Ca",mg,--,--,20,35
"Iron, Fe",mg,--,--,1.01,1.77
"Sodium, Na",mg,--,--,230,404
Vitamins
"Vitamin C, total ascorbic acid",mg,--,--,0.0,0.0
"Vitamin A, IU",IU,--,--,0,0
Lipids
"Fatty acids, total saturated",g,--,--,2.001,3.510
"Fatty acids, total trans",g,--,--,0.000,0.000
"Cholesterol",mg,--,--,15,26
Amino Acids
Other
Ingredients
"ENRICHED WHEAT FLOUR BLEACHED (FLOUR, NIACIN, REDUCED IRON, THIAMINE MONONITRATE, RIBOFLAVIN, FOLIC ACID), MALTITOL, POLYDEXTROSE, WATER, SOYBEAN OIL, WHOLE EGGS, PALM OIL, LEAVENING (BAKING SODA, SODIUM ACID PYROPHOSPHATE, SODIUM ALUMINUM PHOSPHATE, ALUMINUM SULFATE, MONOCALCIUM PHOSPHATE), FOOD STARCH-MODIFIED, PROPYLENE GLYCOL MONO & DIESTERS WITH BHT AND CITRIC ACID AS PRESERVATIVES, MONO & DIGLYCERIDES, SALT, SORBITAN MONOSTEARATE, SOY LECITHIN. PROPYLENE GLYCOL, XANTHAN GUM, POLYSORBATE 60, CELLULOSE GUM, ACESULFAME POTASSIUM, NATURAL AND ARTIFICIAL FLAVOR, CORN SYRUP, POLYSORBATE 80, GLYCERINE. CARAMEL COLOR, WHEAT STARCH, SILICON DIOXIDE, CITRIC ACID, NONFAT MILK SOLIDS, SUCRALOSE, SODIUM CITRATE, POLYGLYCEROL ESTERS OF FATTY ACIDS, POTASSIUM SORBATE AND SODIUM PROPIONATE (PRESERVATIVES)." Date available: 07/14/2017 Date last updated by company: 07/14/2017
