Source: USDA Branded Food Products Database Release December 2017 Software v.3.8.6.4 2017-10-02
Report Run at: December 19, 2017 01:57 EST
"Nutrient data for: 45172340, WHITE AMERICAN SINGLES, UPC: 018894306320"
Food Group:  Branded Food Products Database
Common Name:

Nutrient,Unit,Data points,Std. Error,"1 SLICE = 19.0g",1Value per 100 g,
Proximates
"Energy",kcal,--,--,60,316
"Protein",g,--,--,3.00,15.79
"Total lipid (fat)",g,--,--,4.50,23.68
"Carbohydrate, by difference",g,--,--,2.00,10.53
"Fiber, total dietary",g,--,--,0.0,0.0
"Sugars, total",g,--,--,1.00,5.26
Minerals
"Calcium, Ca",mg,--,--,200,1053
"Iron, Fe",mg,--,--,0.00,0.00
"Sodium, Na",mg,--,--,250,1316
Vitamins
"Vitamin C, total ascorbic acid",mg,--,--,0.0,0.0
"Vitamin A, IU",IU,--,--,263,1384
"Vitamin D",IU,--,--,40,211
Lipids
"Fatty acids, total saturated",g,--,--,2.500,13.160
"Fatty acids, total trans",g,--,--,0.000,0.000
"Cholesterol",mg,--,--,15,79
Amino Acids
Other
Ingredients
"CULTURED MILK, WATER, CREAM, WHEY, SODIUM CITRATE, MILK PROTEIN CONCENTRATE, FOOD STARCH-MODIFIED, WHEY PROTEIN CONCENTRATE, CALCIUM PHOSPHATE, SALT, SORBIC ACID (PRESERVATIVE), SODIUM PHOSPHATE, CITRIC ACID, LACTIC ACID, ENZYMES, VITAMIN D3." Date available: 07/14/2017 Date last updated by company: 07/14/2017
