Source: USDA Branded Food Products Database Release December 2017 Software v.3.8.6.4 2017-10-02
Report Run at: December 19, 2017 02:31 EST
"Nutrient data for: 45276529, WHITEWATER CHOMP BAR, UPC: 851653004859"
Food Group:  Branded Food Products Database
Common Name:

Nutrient,Unit,Data points,Std. Error,"1 BAR = 45.0g",1Value per 100 g,
Proximates
"Energy",kcal,--,--,190,422
"Protein",g,--,--,2.00,4.44
"Total lipid (fat)",g,--,--,5.00,11.11
"Carbohydrate, by difference",g,--,--,33.00,73.33
"Fiber, total dietary",g,--,--,1.0,2.2
"Sugars, total",g,--,--,16.00,35.56
Minerals
"Calcium, Ca",mg,--,--,20,44
"Iron, Fe",mg,--,--,0.32,0.71
"Sodium, Na",mg,--,--,85,189
Vitamins
"Vitamin C, total ascorbic acid",mg,--,--,0.0,0.0
"Vitamin A, IU",IU,--,--,0,0
Lipids
"Fatty acids, total saturated",g,--,--,2.502,5.560
"Fatty acids, total trans",g,--,--,0.000,0.000
"Cholesterol",mg,--,--,0,0
Amino Acids
Other
Ingredients
"ORGANIC BROWN RICE SYRUP (ORGANIC BROWN RICE PURE FILTERED WATER), ORGANIC OATS, ORGANIC WHITE CHOCOLATE (ORGANIC SUGAR, ORGANIC COCOA BUTTER, ORGANIC WHOLE MILK POWDER, ORGANIC SOY LECITHIN, ORGANIC VANILLA), RICE CEREAL (RICE FLOUR, RICE BRAN, RAISIN JUICE CONCENTRATE, HONEY, SALT), ORGANIC SUGAR, WHITE DRIZZLE (SUGAR, FRACTIONATED PALM* KERNEL OIL, NON FAT MILK, WHOLE MILK, WHEY POWDER, PALM* OIL, SOY LECITHIN, NATURAL VANILLA FLAVOR), ORGANIC TAPIOCA SYRUP, WATER, ORGANIC SOY LECITHIN, ORGANIC VANILLA EXTRACT (WATER, ORGANIC ALCOHOL, ORGANIC VANILLA BEAN EXTRACTIVES), SEA SALT, ORGANIC FLAVOR (ORGANIC ETHYL ALCOHOL, WATER, NATURAL AROMATIC FLAVOR)." Date available: 07/14/2017 Date last updated by company: 07/14/2017
