Source: USDA Branded Food Products Database Release December 2017 Software v.3.8.6.4 2017-10-02
Report Run at: December 19, 2017 01:58 EST
"Nutrient data for: 45211549, WHITE BEAN & CHICKEN CHILI ORGANIC SEASONING MIX, UPC: 081057053324"
Food Group:  Branded Food Products Database
Common Name:

Nutrient,Unit,Data points,Std. Error,"2.0 tsp = 5.6g",1Value per 100 g,
Proximates
"Energy",kcal,--,--,20,357
"Protein",g,--,--,1.00,17.86
"Total lipid (fat)",g,--,--,0.00,0.00
"Carbohydrate, by difference",g,--,--,5.00,89.29
"Fiber, total dietary",g,--,--,1.0,17.9
Minerals
"Iron, Fe",mg,--,--,3.21,57.41
"Sodium, Na",mg,--,--,170,3036
Vitamins
"Vitamin C, total ascorbic acid",mg,--,--,80.4,1435.0
Lipids
Amino Acids
Other
Ingredients
"ORGANIC RICE STARCH, ORGANIC GARLIC, ORGANIC ONION, ORGANIC CUMIN, ORGANIC CANE SUGAR, SEA SALT, ORGANIC RED BELL PEPPER, ORGANIC OREGANO, ORGANIC PARSLEY, ORGANIC RED PEPPER." Date available: 07/14/2017 Date last updated by company: 07/14/2017
