Source: USDA Branded Food Products Database Release December 2017 Software v.3.8.6.4 2017-10-02
Report Run at: December 19, 2017 02:13 EST
"Nutrient data for: 45207762, WHITE ENRICHED BREAD, UPC: 041163970595"
Food Group:  Branded Food Products Database
Common Name:

Nutrient,Unit,Data points,Std. Error,"1 SLICE = 30.0g",1Value per 100 g,
Proximates
"Energy",kcal,--,--,80,267
"Protein",g,--,--,2.00,6.67
"Total lipid (fat)",g,--,--,1.00,3.33
"Carbohydrate, by difference",g,--,--,15.00,50.00
"Fiber, total dietary",g,--,--,1.0,3.3
"Sugars, total",g,--,--,2.00,6.67
Minerals
"Calcium, Ca",mg,--,--,100,333
"Iron, Fe",mg,--,--,1.20,4.00
"Sodium, Na",mg,--,--,140,467
Vitamins
"Vitamin C, total ascorbic acid",mg,--,--,0.0,0.0
"Vitamin A, IU",IU,--,--,0,0
Lipids
"Fatty acids, total saturated",g,--,--,0.000,0.000
"Fatty acids, total monounsaturated",g,--,--,0.000,0.000
"Fatty acids, total polyunsaturated",g,--,--,0.000,0.000
"Fatty acids, total trans",g,--,--,0.000,0.000
"Cholesterol",mg,--,--,0,0
Amino Acids
Other
Ingredients
"ENRICHED UNBLEACHED WHEAT FLOUR (WHEAT FLOUR, MALTED BARLEY FLOUR, NIACIN, REDUCED IRON, THIAMIN MONONITRATE, RIBOFLAVIN AND FOLIC ACID), WATER, HIGH FRUCTOSE CORN SYRUP, YEAST CONTAINS 2% OR LESS OF EACH OF THE FOLLOWING: SALT, VEGETABLE OIL (CANOLA AND/OR SOY), DISTILLED VINEGAR, YEAST NUTRIENT (AMMONIUM SULPHATE), DOUGH CONDITIONERS (MONO-DIGLYCERIDES, SODIUM STEAROYL LACTYLATE, ASCORBIC ACID, MONOCALCIUM PHOSPHATE), DEFATTED SOY FLOUR, EXTRACT OF MALTED BARLEY, DEXTROSE, CALCIUM PROPIONATE (MOLD INHIBITOR), CALCIUM SULFATE (SOURCE OF CALCIUM), ENZYMES, NONFAT DRY MILK." Date available: 07/14/2017 Date last updated by company: 07/14/2017
