Source: USDA Branded Food Products Database Release December 2017 Software v.3.8.6.4 2017-10-02
Report Run at: December 19, 2017 02:13 EST
"Nutrient data for: 45248824, WHITE ELEPHANT KOMBUCHA, UPC: 680474025732"
Food Group:  Branded Food Products Database
Common Name:

Nutrient,Unit,Data points,Std. Error,"1 BOTTLE = 355.0g",1Value per 100 g,
Proximates
"Energy",kcal,--,--,36,10
"Protein",g,--,--,0.00,0.00
"Total lipid (fat)",g,--,--,0.00,0.00
"Carbohydrate, by difference",g,--,--,9.02,2.54
"Sugars, total",g,--,--,9.02,2.54
Minerals
"Sodium, Na",mg,--,--,0,0
Vitamins
Lipids
Amino Acids
Other
Ingredients
"YUNNAN BLACK KOMBUCHA (WATER, SUGAR, BLACK TEA, KOMBUCHA CULTURES), LYCHEE JUICE (LYCHEE PUREE, WATER, SUGAR, CITRIC ACID), JASMINE FLOWER" Date available: 07/14/2017 Date last updated by company: 07/14/2017
