Source: USDA Branded Food Products Database Release December 2017 Software v.3.8.6.4 2017-10-02
Report Run at: December 19, 2017 02:00 EST
"Nutrient data for: 45178788, WHITE BREAD, UPC: 713733106948"
Food Group:  Branded Food Products Database
Common Name:

Nutrient,Unit,Data points,Std. Error,"2.0 SLICES = 45.0g",1Value per 100 g,
Proximates
"Energy",kcal,--,--,120,267
"Protein",g,--,--,3.00,6.67
"Total lipid (fat)",g,--,--,1.50,3.33
"Carbohydrate, by difference",g,--,--,24.00,53.33
"Fiber, total dietary",g,--,--,1.0,2.2
"Sugars, total",g,--,--,3.00,6.67
Minerals
"Calcium, Ca",mg,--,--,60,133
"Iron, Fe",mg,--,--,2.00,4.44
"Sodium, Na",mg,--,--,200,444
Vitamins
"Vitamin C, total ascorbic acid",mg,--,--,0.0,0.0
"Thiamin",mg,--,--,0.450,1.000
"Riboflavin",mg,--,--,0.136,0.302
"Niacin",mg,--,--,2.222,4.938
"Vitamin A, IU",IU,--,--,0,0
Lipids
"Fatty acids, total saturated",g,--,--,0.000,0.000
"Fatty acids, total monounsaturated",g,--,--,0.000,0.000
"Fatty acids, total polyunsaturated",g,--,--,0.500,1.110
"Fatty acids, total trans",g,--,--,0.000,0.000
"Cholesterol",mg,--,--,0,0
Amino Acids
Other
Ingredients
"ENRICHED UNBLEACHED FLOUR [WHEAT FLOUR, MALTED BARLEY FLOUR, REDUCED IRON, THIAMINE MONONITRATE (VITAMIN B1), RIBOFLAVIN (VITAMIN B2), NIACIN (VITAMIN B3), FOLIC ACID], WATER, YEAST, HIGH FRUCTOSE CORN SYRUP, SOYBEAN OIL, SALT, WHEAT GLUTEN, WHEAT PROTEIN ISOLATE, MONOGLYCERIDES, CALCIUM PROPIONATE (A PRESERVATIVE), SODIUM STEAROYL LACTYLATE, VINEGAR, CALCIUM SULFATE, LACTIC ACID, NATURAL FLAVORS, CITRIC ACID, ASCORBIC ACID, SOY LECITHIN" Date available: 07/14/2017 Date last updated by company: 07/14/2017
