Source: USDA Branded Food Products Database Release December 2017 Software v.3.8.6.4 2017-10-02
Report Run at: December 19, 2017 02:29 EST
"Nutrient data for: 45150685, WHITE STRIPED CHOCOLATE SHORTBREAD COOKIES, UPC: 011225111808"
Food Group:  Branded Food Products Database
Common Name:

Nutrient,Unit,Data points,Std. Error,"2.0 COOKIES = 23.0g",1Value per 100 g,
Proximates
"Energy",kcal,--,--,110,478
"Protein",g,--,--,1.00,4.35
"Total lipid (fat)",g,--,--,4.50,19.57
"Carbohydrate, by difference",g,--,--,17.00,73.91
"Fiber, total dietary",g,--,--,0.0,0.0
"Sugars, total",g,--,--,7.00,30.43
Minerals
"Calcium, Ca",mg,--,--,0,0
"Iron, Fe",mg,--,--,1.57,6.81
"Sodium, Na",mg,--,--,80,348
Vitamins
"Vitamin C, total ascorbic acid",mg,--,--,0.0,0.0
"Vitamin A, IU",IU,--,--,0,0
Lipids
"Fatty acids, total saturated",g,--,--,2.500,10.870
"Fatty acids, total trans",g,--,--,0.000,0.000
"Cholesterol",mg,--,--,0,0
Amino Acids
Other
Ingredients
"ENRICHED FLOUR (WHEAT FLOUR, NIACIN, REDUCED IRON, THIAMINE MONONITRATE, RIBOFLAVIN, FOLIC ACID), SUGAR, VEGETABLE OIL (PALM KERNEL AND PALM OILS), CARAMEL COLOR, CORNSTARCH, COCOA (PROCESSED WITH ALKALI), CORN FLOUR, HIGH FRUCTOSE CORN SYRUP, MOLASSES, SALT, BAKING SODA, AMMONIUM BICARBONATE, ARTIFICIAL FLAVOR, SOY LECITHIN." Date available: 07/14/2017 Date last updated by company: 07/14/2017
