Source: USDA Branded Food Products Database Release December 2017 Software v.3.8.6.4 2017-10-02
Report Run at: December 19, 2017 02:24 EST
"Nutrient data for: 45137925, WHITE ROSE, CITRUS PUNCH, UPC: 074807132554"
Food Group:  Branded Food Products Database
Common Name:

Nutrient,Unit,Data points,Std. Error,"8.0 OZA = 240.0g",1Value per 100 g,
Proximates
"Energy",kcal,--,--,110,46
"Protein",g,--,--,0.00,0.00
"Total lipid (fat)",g,--,--,0.00,0.00
"Carbohydrate, by difference",g,--,--,28.01,11.67
"Fiber, total dietary",g,--,--,0.0,0.0
"Sugars, total",g,--,--,25.99,10.83
Minerals
"Calcium, Ca",mg,--,--,0,0
"Iron, Fe",mg,--,--,0.00,0.00
"Potassium, K",mg,--,--,0,0
"Sodium, Na",mg,--,--,10,4
Vitamins
"Vitamin C, total ascorbic acid",mg,--,--,60.0,25.0
"Vitamin A, IU",IU,--,--,0,0
Lipids
"Fatty acids, total saturated",g,--,--,0.000,0.000
"Fatty acids, total trans",g,--,--,0.000,0.000
"Cholesterol",mg,--,--,0,0
Amino Acids
Other
Ingredients
"FILTERED WATER, HIGH FRUCTOSE CORN SYRUP, CONCENTRATED PEAR JUICE, CITRIC ACID, CONCENTRATED PEAR JUICE, CITRIC ACID, CONCENTRATED PINEAPPLE JUICE, CONCENTRATED ORANGE JUICE, CONCENTRATED LIME JUICE, ASCORBIC ACID (VITAMIN C), GUM ACACIA, NATURAL FLAVORS, ESTER GUM, YELLOW 5 AND YELLOW 6." Date available: 06/25/2017 Date last updated by company: 06/25/2017
