Source: USDA Branded Food Products Database Release December 2017 Software v.3.8.6.4 2017-10-02
Report Run at: December 19, 2017 02:10 EST
"Nutrient data for: 45056394, WHITE CORN, UPC: 041183005109"
Food Group:  Branded Food Products Database
Common Name:

Nutrient,Unit,Data points,Std. Error,"0.5 cup = 130.0g",1Value per 100 g,
Proximates
"Energy",kcal,--,--,120,92
"Protein",g,--,--,4.00,3.08
"Total lipid (fat)",g,--,--,3.00,2.31
"Carbohydrate, by difference",g,--,--,19.99,15.38
"Fiber, total dietary",g,--,--,1.0,0.8
"Sugars, total",g,--,--,4.00,3.08
Minerals
"Calcium, Ca",mg,--,--,40,31
"Iron, Fe",mg,--,--,0.00,0.00
"Sodium, Na",mg,--,--,140,108
Vitamins
"Vitamin C, total ascorbic acid",mg,--,--,0.0,0.0
"Vitamin A, IU",IU,--,--,0,0
Lipids
"Fatty acids, total saturated",g,--,--,2.00,1.54
"Fatty acids, total trans",g,--,--,0.00,0.00
"Cholesterol",mg,--,--,5,4
Amino Acids
Other
Ingredients
"WHITE CORN, WATER, MILK, NONFAT MILK, BUTTER (CREAM, SALT), CORN POWDER, SALT, SUGAR, RICE FLOUR, ENRICHED WHEAT FLOUR (WHEAT FLOUR, NIACIN, IRON, THIAMINE MONONITRATE, RIBOFLAVIN AND FOLIC ACID), MODIFIED CORN STARCH." Date last updated by company: 01/08/2016
