Source: USDA Branded Food Products Database Release December 2017 Software v.3.8.6.4 2017-10-02
Report Run at: December 19, 2017 02:10 EST
"Nutrient data for: 45230856, WHITE CORN TORTILLAS, UPC: 073731060001"
Food Group:  Branded Food Products Database
Common Name:

Nutrient,Unit,Data points,Std. Error,"2.0 TORTILLAS = 47.0g",1Value per 100 g,
Proximates
"Energy",kcal,--,--,100,213
"Protein",g,--,--,2.00,4.26
"Total lipid (fat)",g,--,--,1.50,3.19
"Carbohydrate, by difference",g,--,--,20.00,42.55
"Fiber, total dietary",g,--,--,3.0,6.4
"Sugars, total",g,--,--,2.00,4.26
Minerals
"Calcium, Ca",mg,--,--,20,43
"Iron, Fe",mg,--,--,0.84,1.79
"Sodium, Na",mg,--,--,10,21
Vitamins
"Vitamin C, total ascorbic acid",mg,--,--,0.0,0.0
"Vitamin A, IU",IU,--,--,0,0
Lipids
"Fatty acids, total saturated",g,--,--,0.000,0.000
"Fatty acids, total monounsaturated",g,--,--,0.000,0.000
"Fatty acids, total polyunsaturated",g,--,--,0.498,1.060
"Fatty acids, total trans",g,--,--,0.000,0.000
"Cholesterol",mg,--,--,0,0
Amino Acids
Other
Ingredients
"GROUND CORN TREATED WITH LIVE WATER, CELLULOSE GUM, PROPIONIC ACID (TO PRESERVE FRESHNESS), BENZOIC ACID (TO PRESERVE FRESHNESS), PHOSPHORIC ACID (PRESERVATIVE), GUAR GUM, AMYLASE." Date available: 07/14/2017 Date last updated by company: 07/14/2017
