Source: USDA Branded Food Products Database Release December 2017 Software v.3.8.6.4 2017-10-02
Report Run at: December 19, 2017 02:17 EST
"Nutrient data for: 45196065, WHITE HOMINY, UPC: 04131802071"
Food Group:  Branded Food Products Database
Common Name:

Nutrient,Unit,Data points,Std. Error,"0.5 cup = 128.0g",1Value per 100 g,
Proximates
"Energy",kcal,--,--,70,55
"Protein",g,--,--,1.00,0.78
"Total lipid (fat)",g,--,--,0.50,0.39
"Carbohydrate, by difference",g,--,--,15.00,11.72
"Fiber, total dietary",g,--,--,1.0,0.8
"Sugars, total",g,--,--,1.00,0.78
Minerals
"Calcium, Ca",mg,--,--,0,0
"Iron, Fe",mg,--,--,0.37,0.29
"Potassium, K",mg,--,--,15,12
"Sodium, Na",mg,--,--,451,352
Vitamins
"Vitamin C, total ascorbic acid",mg,--,--,0.0,0.0
"Vitamin A, IU",IU,--,--,0,0
Lipids
"Fatty acids, total saturated",g,--,--,0.000,0.000
"Fatty acids, total trans",g,--,--,0.000,0.000
"Cholesterol",mg,--,--,0,0
Amino Acids
Other
Ingredients
"PREPARED WHITE CORN, WATER, SALT, SODIUM BISULFITE ADDED TO HELP PROMOTE COLOR." Date available: 07/14/2017 Date last updated by company: 07/14/2017
