Source: USDA Branded Food Products Database Release December 2017 Software v.3.8.6.4 2017-10-02
Report Run at: December 19, 2017 02:16 EST
"Nutrient data for: 45329221, WHITE HAMBURGER BUNS BAKED, UPC: 233589902698"
Food Group:  Branded Food Products Database
Common Name:

Nutrient,Unit,Data points,Std. Error,"1 ROLL = 62.0g",1Value per 100 g,
Proximates
"Energy",kcal,--,--,180,290
"Protein",g,--,--,6.00,9.68
"Total lipid (fat)",g,--,--,3.50,5.65
"Carbohydrate, by difference",g,--,--,32.00,51.61
"Fiber, total dietary",g,--,--,1.0,1.6
"Sugars, total",g,--,--,3.00,4.84
Minerals
"Calcium, Ca",mg,--,--,20,32
"Iron, Fe",mg,--,--,1.45,2.34
"Sodium, Na",mg,--,--,290,468
Vitamins
"Vitamin C, total ascorbic acid",mg,--,--,0.0,0.0
"Vitamin A, IU",IU,--,--,0,0
Lipids
"Fatty acids, total saturated",g,--,--,0.502,0.810
"Fatty acids, total trans",g,--,--,0.000,0.000
"Cholesterol",mg,--,--,10,16
Amino Acids
Other
Ingredients
"ENRICHED FLOUR (WHEAT FLOUR, MALTED BARLEY FLOUR, NIACIN, REDUCED IRON, THIAMIN MONONITRATE, RIBOFLAVIN, FOLIC ACID), WATER, YEAST, SUGAR, EGGS, SOYBEAN OIL, CONTAINS LESS THAN 2% OF SALT, SOY FLOUR, MALTODEXTRIN, DEXTROSE, PROPYLENE GLYCOL, SODIUM ALGINATE, SOY LECITHIN, BETA CAROTENE, YELLOW CORN FLOUR, MONO- AND DIGLYCERIDES, TURMERIC, PAPRIKA, NATURAL AND ARTIFICIAL FLAVORS, SODIUM STEAROYL LACTYLATE, ASCORBIC ACID, WHEAT GLUTEN, ENZYMES, CALCIUM PROPIONATE (PRESERVATIVE)." Date available: 10/13/2017 Date last updated by company: 10/13/2017
