Source: USDA Branded Food Products Database Release December 2017 Software v.3.8.6.4 2017-10-02
Report Run at: December 19, 2017 02:16 EST
"Nutrient data for: 45145344, WHITE GRAPEFRUIT JUICE FROM CONCENTRATE, UPC: 021130314119"
Food Group:  Branded Food Products Database
Common Name:

Nutrient,Unit,Data points,Std. Error,"8.0 OZA = 240.0g",1Value per 100 g,
Proximates
"Energy",kcal,--,--,101,42
"Protein",g,--,--,0.00,0.00
"Total lipid (fat)",g,--,--,0.00,0.00
"Carbohydrate, by difference",g,--,--,25.01,10.42
"Sugars, total",g,--,--,24.00,10.00
Minerals
"Sodium, Na",mg,--,--,36,15
Vitamins
"Vitamin C, total ascorbic acid",mg,--,--,60.0,25.0
Lipids
Amino Acids
Other
Ingredients
"FILTERED WATER, GRAPEFRUIT JUICE CONCENTRATE." Date available: 07/14/2017 Date last updated by company: 07/14/2017
