Source: USDA Branded Food Products Database Release December 2017 Software v.3.8.6.4 2017-10-02
Report Run at: December 19, 2017 02:08 EST
"Nutrient data for: 45260217, WHITE CHOCOLATE, UPC: 898596001064"
Food Group:  Branded Food Products Database
Common Name:

Nutrient,Unit,Data points,Std. Error,"10.0 BLOCKS = 42.0g",1Value per 100 g,
Proximates
"Energy",kcal,--,--,230,548
"Protein",g,--,--,3.00,7.14
"Total lipid (fat)",g,--,--,13.00,30.95
"Carbohydrate, by difference",g,--,--,25.00,59.52
"Fiber, total dietary",g,--,--,0.0,0.0
"Sugars, total",g,--,--,25.00,59.52
Minerals
"Calcium, Ca",mg,--,--,120,286
"Iron, Fe",mg,--,--,0.00,0.00
"Sodium, Na",mg,--,--,55,131
Vitamins
"Vitamin C, total ascorbic acid",mg,--,--,1.4,3.4
"Vitamin A, IU",IU,--,--,0,0
Lipids
"Fatty acids, total saturated",g,--,--,8.001,19.050
"Fatty acids, total trans",g,--,--,0.000,0.000
"Cholesterol",mg,--,--,5,12
Amino Acids
Other
Ingredients
"SUGAR, COCOA BUTTER, SKIMMED MILK POWDER, BUTTERFAT, EMULSIFIER: SOY LECITHIN (NON GM), VANILLA. CHOCOLATE CONTAINS: COCOA SOLIDS 25% MINIMUM. MILK SOLIDS 26% MINIMUM. COCOA, SUGAR, VANILLA: TRADED IN COMPLIANCE WITH FAIRTRADE STANDARDS, 74% OF TOTAL INGREDIENTS." Date available: 07/14/2017 Date last updated by company: 07/14/2017
