Source: USDA Branded Food Products Database Release December 2017 Software v.3.8.6.4 2017-10-02
Report Run at: December 19, 2017 02:05 EST
"Nutrient data for: 45267665, WHITE CHOCOLATE CHIP COOKIES, UPC: 688267140877"
Food Group:  Branded Food Products Database
Common Name:

Nutrient,Unit,Data points,Std. Error,"2.0 COOKIES = 24.0g",1Value per 100 g,
Proximates
"Energy",kcal,--,--,120,500
"Protein",g,--,--,1.00,4.17
"Total lipid (fat)",g,--,--,5.00,20.83
"Carbohydrate, by difference",g,--,--,17.00,70.83
"Fiber, total dietary",g,--,--,0.0,0.0
"Sugars, total",g,--,--,10.00,41.67
Minerals
"Calcium, Ca",mg,--,--,20,83
"Iron, Fe",mg,--,--,2.25,9.38
"Sodium, Na",mg,--,--,115,479
Vitamins
"Vitamin C, total ascorbic acid",mg,--,--,0.0,0.0
"Vitamin A, IU",IU,--,--,209,869
Lipids
"Fatty acids, total saturated",g,--,--,3.000,12.500
"Fatty acids, total monounsaturated",g,--,--,1.001,4.170
"Fatty acids, total polyunsaturated",g,--,--,0.000,0.000
"Fatty acids, total trans",g,--,--,0.000,0.000
"Cholesterol",mg,--,--,15,62
Amino Acids
Other
Ingredients
"UNBLEACHED ENRICHED FLOUR (WHEAT FLOUR, MALTED BARLEY FLOUR, NIACIN, IRON, THIAMINE MONONITRATE, RIBOFLAVIN, FOLIC ACID), ORGANIC CANE SUGAR, WHITE CHOCOLATE CHIPS (SUGAR, COCOA BUTTER, MILK, NONFAT DRY MILK, SOY LECITHIN, VANILLA FLAVOR), BUTTER (SWEET CREAM, SALT), CRANBERRIES (ORGANIC CRANBERRIES, ORGANIC CANE SUGAR, ORGANIC SUNFLOWER OIL), ORGANIC MOLASSES, WHOLE EGGS, LEAVENING (SODIUM BICARBONATE, AMMONIUM BICARBONATE, CREAM OF TARTAR), NATURAL FLAVORS, SALT." Date available: 07/14/2017 Date last updated by company: 07/14/2017
