Source: USDA Branded Food Products Database Release December 2017 Software v.3.8.6.4 2017-10-02
Report Run at: December 19, 2017 02:21 EST
"Nutrient data for: 45233913, WHITE MOUNTAIN, ORGANIC BULGARIAN YOGURT, UPC: 086479200219"
Food Group:  Branded Food Products Database
Common Name:

Nutrient,Unit,Data points,Std. Error,"1 cup = 236.0g",1Value per 100 g,
Proximates
"Energy",kcal,--,--,139,59
"Protein",g,--,--,8.00,3.39
"Total lipid (fat)",g,--,--,8.99,3.81
"Carbohydrate, by difference",g,--,--,8.00,3.39
"Fiber, total dietary",g,--,--,0.0,0.0
"Sugars, total",g,--,--,5.99,2.54
Minerals
"Calcium, Ca",mg,--,--,250,106
"Iron, Fe",mg,--,--,0.00,0.00
"Sodium, Na",mg,--,--,104,44
Vitamins
"Vitamin C, total ascorbic acid",mg,--,--,0.0,0.0
"Vitamin A, IU",IU,--,--,201,85
"Vitamin D",IU,--,--,99,42
Lipids
"Fatty acids, total saturated",g,--,--,5.994,2.540
"Fatty acids, total trans",g,--,--,0.000,0.000
"Cholesterol",mg,--,--,40,17
Amino Acids
Other
Ingredients
"GRADE A PASTEURIZED ORGANIC WHOLE MILK AND LIVE CULTURES (L. ACIDOPHILUS, L. BULGARICUS, S. THERMOPHILUS, B. BIFIDUM)." Date available: 06/24/2017 Date last updated by company: 06/24/2017
