Source: USDA Branded Food Products Database Release December 2017 Software v.3.8.6.4 2017-10-02
Report Run at: December 19, 2017 02:01 EST
"Nutrient data for: 45279122, WHITE 12 BURGER BUNS, UPC: 075450098600"
Food Group:  Branded Food Products Database
Common Name:

Nutrient,Unit,Data points,Std. Error,"1 BUN = 43.0g",1Value per 100 g,
Proximates
"Energy",kcal,--,--,120,279
"Protein",g,--,--,4.00,9.30
"Total lipid (fat)",g,--,--,1.00,2.33
"Carbohydrate, by difference",g,--,--,22.00,51.16
"Fiber, total dietary",g,--,--,1.0,2.3
"Sugars, total",g,--,--,3.00,6.98
Minerals
"Calcium, Ca",mg,--,--,40,93
"Iron, Fe",mg,--,--,1.67,3.89
"Sodium, Na",mg,--,--,200,465
Vitamins
"Vitamin C, total ascorbic acid",mg,--,--,0.0,0.0
"Thiamin",mg,--,--,0.000,0.000
"Riboflavin",mg,--,--,0.119,0.276
"Niacin",mg,--,--,1.396,3.247
"Vitamin A, IU",IU,--,--,0,0
Lipids
"Fatty acids, total saturated",g,--,--,0.000,0.000
"Fatty acids, total monounsaturated",g,--,--,0.000,0.000
"Fatty acids, total polyunsaturated",g,--,--,0.000,0.000
"Fatty acids, total trans",g,--,--,0.000,0.000
"Cholesterol",mg,--,--,0,0
Amino Acids
Other
Ingredients
"ENRICHED WHEAT FLOUR (FLOUR, MALTED BARLEY FLOUR, REDUCED IRON, NIACIN, THIAMIN MONONITRATE [VITAMIN B1], RIBOFLAVIN [VITAMIN B2], FOLIC ACID), WATER, HIGH FRUCTOSE CORN SYRUP, YEAST, SOYBEAN OIL, WHEAT GLUTEN, SALT, MONOGLYCERIDES, CALCIUM PROPIONATE (PRESERVATIVE), DATEM, GRAIN VINEGAR, CALCIUM SULFATE, CITRIC ACID, CORNSTARCH, POTASSIUM IODATE, SOY LECITHIN, MONOCALCIUM PHOSPHATE." Date available: 07/14/2017 Date last updated by company: 07/14/2017
