Source: USDA Branded Food Products Database Release December 2017 Software v.3.8.6.4 2017-10-02
Report Run at: December 19, 2017 02:21 EST
"Nutrient data for: 45169147, WHITE OAK FARM & TABLE, TUSCAN BLACK OLIVE TAPENADE, UPC: 805426510009"
Food Group:  Branded Food Products Database
Common Name:

Nutrient,Unit,Data points,Std. Error,"0.25 cup = 57.0g",1Value per 100 g,
Proximates
"Energy",kcal,--,--,170,298
"Protein",g,--,--,1.00,1.75
"Total lipid (fat)",g,--,--,17.00,29.82
"Carbohydrate, by difference",g,--,--,7.00,12.28
"Fiber, total dietary",g,--,--,1.0,1.8
"Sugars, total",g,--,--,1.00,1.75
Minerals
"Calcium, Ca",mg,--,--,20,35
"Iron, Fe",mg,--,--,0.63,1.11
"Sodium, Na",mg,--,--,570,1000
Vitamins
"Vitamin C, total ascorbic acid",mg,--,--,4.2,7.4
"Vitamin A, IU",IU,--,--,88,154
Lipids
"Fatty acids, total saturated",g,--,--,1.499,2.630
"Fatty acids, total trans",g,--,--,0.000,0.000
"Cholesterol",mg,--,--,0,0
Amino Acids
Other
Ingredients
"BLACK OLIVES, OLIVE OIL, FRESH LEMON JUICE, SUN-DRIED TOMATOES, FRESH GARLIC, CAPERS, GREEN OLIVES, PINE NUTS, SPICES, BASIL." Date available: 07/14/2017 Date last updated by company: 07/14/2017
