Source: USDA Branded Food Products Database Release December 2017 Software v.3.8.6.4 2017-10-02
Report Run at: December 19, 2017 02:10 EST
"Nutrient data for: 45051551, WHITE CORN, UPC: 041497033096"
Food Group:  Branded Food Products Database
Common Name:

Nutrient,Unit,Data points,Std. Error,"0.666 cup = 93.0g",1Value per 100 g,
Proximates
"Energy",kcal,--,--,90,97
"Protein",g,--,--,3.00,3.23
"Total lipid (fat)",g,--,--,0.50,0.54
"Carbohydrate, by difference",g,--,--,20.00,21.51
"Fiber, total dietary",g,--,--,3.0,3.2
"Sugars, total",g,--,--,2.00,2.15
Minerals
"Calcium, Ca",mg,--,--,0,0
"Iron, Fe",mg,--,--,1.31,1.41
"Potassium, K",mg,--,--,210,226
"Sodium, Na",mg,--,--,45,48
Vitamins
"Vitamin C, total ascorbic acid",mg,--,--,4.4,4.7
"Vitamin A, IU",IU,--,--,0,0
Lipids
"Fatty acids, total saturated",g,--,--,0.000,0.000
"Fatty acids, total trans",g,--,--,0.000,0.000
"Cholesterol",mg,--,--,0,0
Amino Acids
Other
Ingredients
"CUT CORN." Date available: 06/25/2017 Date last updated by company: 06/25/2017
