Source: USDA Branded Food Products Database Release December 2017 Software v.3.8.6.4 2017-10-02
Report Run at: December 19, 2017 02:04 EST
"Nutrient data for: 45106027, WHITE CHICKEN CHILI MIX, UPC: 085239189733"
Food Group:  Branded Food Products Database
Common Name:

Nutrient,Unit,Data points,Std. Error,"0.125 PKG. (ABOUT DRY MIX) = 37.0g",1Value per 100 g,
Proximates
"Energy",kcal,--,--,120,324
"Protein",g,--,--,7.00,18.92
"Total lipid (fat)",g,--,--,0.50,1.35
"Carbohydrate, by difference",g,--,--,23.00,62.16
"Fiber, total dietary",g,--,--,6.0,16.2
"Sugars, total",g,--,--,3.00,8.11
Minerals
"Calcium, Ca",mg,--,--,108,292
"Iron, Fe",mg,--,--,3.65,9.86
"Sodium, Na",mg,--,--,290,784
Vitamins
"Vitamin C, total ascorbic acid",mg,--,--,1.2,3.2
"Vitamin A, IU",IU,--,--,3378,9131
Lipids
"Fatty acids, total saturated",g,--,--,0.000,0.000
"Fatty acids, total trans",g,--,--,0.000,0.000
"Cholesterol",mg,--,--,0,0
Amino Acids
Other
Ingredients
"WHITE BEANS, PINTO BEANS, CARROTS, ONION, PARSLEY, SOUP BASE (SEA SALT, CANE SUGAR, GARLIC, CORNSTARCH, SMOKED PAPRIKA, CILANTRO, ONION POWDER, NATURAL FLAVOR, CELERY SEED, TURMERIC, CUMIN, OREGANO, RED PEPPER, WHITE PEPPER, GROUND CHIPOTLE PEPPERS, RICE FLOUR)." Date available: 07/31/2017 Date last updated by company: 07/31/2017
