Source: USDA Branded Food Products Database Release December 2017 Software v.3.8.6.4 2017-10-02
Report Run at: December 19, 2017 02:33 EST
"Nutrient data for: 45178885, WHLL BROTHER'S ORCHARDS, BAKED APPLE SLICES, UPC: 788679009400"
Food Group:  Branded Food Products Database
Common Name:

Nutrient,Unit,Data points,Std. Error,"8.0 PIECES = 30.0g",1Value per 100 g,
Proximates
"Energy",kcal,--,--,100,333
"Protein",g,--,--,0.00,0.00
"Total lipid (fat)",g,--,--,0.00,0.00
"Carbohydrate, by difference",g,--,--,26.00,86.67
"Fiber, total dietary",g,--,--,4.0,13.3
"Sugars, total",g,--,--,19.00,63.33
Minerals
"Calcium, Ca",mg,--,--,20,67
"Iron, Fe",mg,--,--,0.48,1.60
"Sodium, Na",mg,--,--,0,0
Vitamins
"Vitamin C, total ascorbic acid",mg,--,--,1.6,5.3
"Vitamin A, IU",IU,--,--,0,0
Lipids
"Fatty acids, total saturated",g,--,--,0.000,0.000
"Fatty acids, total trans",g,--,--,0.000,0.000
"Cholesterol",mg,--,--,0,0
Amino Acids
Other
Ingredients
"APPLES, SUGAR, CITRIC ACID" Date available: 07/14/2017 Date last updated by company: 07/14/2017
