Source: USDA Branded Food Products Database Release December 2017 Software v.3.8.6.4 2017-10-02
Report Run at: December 19, 2017 03:03 EST
"Nutrient data for: 45168251, WHOLE FOODS MARKET, 2% PLAIN ORGANIC LOWFAT YOGURT, UPC: 099482454951"
Food Group:  Branded Food Products Database
Common Name:

Nutrient,Unit,Data points,Std. Error,"1 CONTAINER = 170.0g",1Value per 100 g,
Proximates
"Energy",kcal,--,--,121,71
"Protein",g,--,--,17.00,10.00
"Total lipid (fat)",g,--,--,3.50,2.06
"Carbohydrate, by difference",g,--,--,5.00,2.94
"Fiber, total dietary",g,--,--,0.0,0.0
"Sugars, total",g,--,--,5.00,2.94
Minerals
"Calcium, Ca",mg,--,--,201,118
"Iron, Fe",mg,--,--,0.00,0.00
"Potassium, K",mg,--,--,240,141
"Sodium, Na",mg,--,--,105,62
Vitamins
"Vitamin C, total ascorbic acid",mg,--,--,0.0,0.0
"Vitamin A, IU",IU,--,--,100,59
Lipids
"Fatty acids, total saturated",g,--,--,2.006,1.180
"Fatty acids, total trans",g,--,--,0.000,0.000
"Cholesterol",mg,--,--,20,12
Amino Acids
Other
Ingredients
"CULTURED PASTEURIZED ORGANIC REDUCED FAT MILK, LIVE AND ACTIVE CULTURES (S. THERMOPHILUS, L. BULGARICUS, L. ACIDOPHILUS, BIFIDUS, L. CASEI)." Date available: 07/14/2017 Date last updated by company: 07/14/2017
