Source: USDA Branded Food Products Database Release December 2017 Software v.3.8.6.4 2017-10-02
Report Run at: December 19, 2017 03:43 EST
"Nutrient data for: 45064716, WHOLE PEELED STRAW MUSHROOMS, UPC: 011152161679"
Food Group:  Branded Food Products Database
Common Name:

Nutrient,Unit,Data points,Std. Error,"3.0 ONZ = 85.0g",1Value per 100 g,
Proximates
"Energy",kcal,--,--,30,35
"Protein",g,--,--,2.00,2.35
"Total lipid (fat)",g,--,--,0.00,0.00
"Carbohydrate, by difference",g,--,--,4.00,4.71
"Fiber, total dietary",g,--,--,2.0,2.4
Minerals
"Iron, Fe",mg,--,--,0.55,0.65
"Sodium, Na",mg,--,--,270,318
Vitamins
Lipids
Amino Acids
Other
Ingredients
"STRAW MUSHROOM, WATER, SALT AND CITRIC ACID." Date available: 09/25/2017 Date last updated by company: 09/25/2017
