Source: USDA Branded Food Products Database Release December 2017 Software v.3.8.6.4 2017-10-02
Report Run at: December 19, 2017 02:50 EST
"Nutrient data for: 45168026, WHOLE FOODS MARKET, FETTUCCINE ALFREDO ITALIAN CUISINE, UPC: 099482443122"
Food Group:  Branded Food Products Database
Common Name:

Nutrient,Unit,Data points,Std. Error,"1 cup = 151.0g",1Value per 100 g,
Proximates
"Energy",kcal,--,--,210,139
"Protein",g,--,--,8.00,5.30
"Total lipid (fat)",g,--,--,8.00,5.30
"Carbohydrate, by difference",g,--,--,28.00,18.54
"Fiber, total dietary",g,--,--,1.1,0.7
"Sugars, total",g,--,--,1.00,0.66
Minerals
"Calcium, Ca",mg,--,--,80,53
"Iron, Fe",mg,--,--,0.00,0.00
"Sodium, Na",mg,--,--,350,232
Vitamins
"Vitamin C, total ascorbic acid",mg,--,--,0.0,0.0
"Vitamin A, IU",IU,--,--,388,257
Lipids
"Fatty acids, total saturated",g,--,--,4.500,2.980
"Fatty acids, total trans",g,--,--,0.000,0.000
"Cholesterol",mg,--,--,26,17
Amino Acids
Other
Ingredients
"COOKED EGG PASTA (DURUM WHEAT SEMOLINA, WATER, EGGS, SALT), WATER, PASTEURIZED CREAM, GRANA PADANO CHEESE (MILK, SALT, ANIMAL RENNET, LYSOZYME FROM EGG WHITE), BUTTER, UNBLEACHED WHEAT FLOUR, SALT, NUTMEG, WHITE PEPPER." Date available: 10/13/2017 Date last updated by company: 10/13/2017
