Source: USDA Branded Food Products Database Release December 2017 Software v.3.8.6.4 2017-10-02
Report Run at: December 19, 2017 03:15 EST
"Nutrient data for: 45323603, WHOLE GRAIN CORN TORTILLA CHIPS, UPC: 855564003796"
Food Group:  Branded Food Products Database
Common Name:

Nutrient,Unit,Data points,Std. Error,"9.0 CHIPS | ABOUT = 28.0g",1Value per 100 g,
Proximates
"Energy",kcal,--,--,140,500
"Protein",g,--,--,2.00,7.14
"Total lipid (fat)",g,--,--,8.00,28.57
"Carbohydrate, by difference",g,--,--,15.00,53.57
"Fiber, total dietary",g,--,--,2.0,7.1
"Sugars, total",g,--,--,1.00,3.57
Minerals
"Calcium, Ca",mg,--,--,40,143
"Iron, Fe",mg,--,--,0.64,2.29
"Sodium, Na",mg,--,--,160,571
Vitamins
"Vitamin C, total ascorbic acid",mg,--,--,0.0,0.0
"Vitamin A, IU",IU,--,--,179,638
Lipids
"Fatty acids, total saturated",g,--,--,1.000,3.570
"Fatty acids, total monounsaturated",g,--,--,5.001,17.860
"Fatty acids, total polyunsaturated",g,--,--,1.000,3.570
"Fatty acids, total trans",g,--,--,0.000,0.000
"Cholesterol",mg,--,--,0,0
Amino Acids
Other
Ingredients
"NON-GMO STONE GROUND WHOLE CORN, SUNFLOWER OIL, SPROUTED SEED AND GRAIN BLEND (SPROUTED FLAX SEED, SPROUTED QUINOA, SPROUTED CHIA SEED), NACHO CHEESE (ORGANIC CHEDDAR CHEESE [(ORGANIC CULTURED PASTEURIZED MILK, SALT, ENZYMES), ORGANIC NON FAT MILK, SALT, DISODIUM PHOSPHATE], PURE SEA SALT, PURE CANE SUGAR, ONION, ORGANIC DISTILLED VINEGAR, GARLIC, YEAST EXTRACT, CITRIC ACID, PAPRIKA, BLACK PEPPER, RED PEPPER." Date available: 07/14/2017 Date last updated by company: 07/14/2017
