Source: USDA Branded Food Products Database Release December 2017 Software v.3.8.6.4 2017-10-02
Report Run at: December 19, 2017 02:57 EST
"Nutrient data for: 45168896, WHOLE FOODS MARKET, MRS. QUINNS DIP, UPC: 723055851181"
Food Group:  Branded Food Products Database
Common Name:

Nutrient,Unit,Data points,Std. Error,"2.0 Tbsp = 28.0g",1Value per 100 g,
Proximates
"Energy",kcal,--,--,90,321
"Protein",g,--,--,3.00,10.71
"Total lipid (fat)",g,--,--,8.00,28.57
"Carbohydrate, by difference",g,--,--,2.00,7.14
"Fiber, total dietary",g,--,--,0.0,0.0
"Sugars, total",g,--,--,1.00,3.57
Minerals
"Calcium, Ca",mg,--,--,100,357
"Iron, Fe",mg,--,--,0.00,0.00
"Sodium, Na",mg,--,--,160,571
Vitamins
"Vitamin C, total ascorbic acid",mg,--,--,0.0,0.0
"Vitamin A, IU",IU,--,--,535,1912
Lipids
"Fatty acids, total saturated",g,--,--,2.999,10.710
"Fatty acids, total trans",g,--,--,0.000,0.000
"Cholesterol",mg,--,--,15,54
Amino Acids
Other
Ingredients
"SHARP CHEDDAR CHEESE (PASTEURIZED MILK, CULTURES, ENZYMES, SALT), ANNATTO (NATURAL COLOR), WHITE CHEDDAR CHEESE, PEPPERS (WATER, SALT, CITRIC ACID), MAYONNAISE (EXPELLER PRESSED CANOLA OIL, EGGS, FILTERED WATER, HONEY DISTILLED, WHITE VINEGAR, SEA SALT, DRY MUSTARD, LEMON JUICE CONCENTRATE), ONIONS, DILL, GARLIC CLOVES." Date available: 07/14/2017 Date last updated by company: 07/14/2017
