Source: USDA Branded Food Products Database Release December 2017 Software v.3.8.6.4 2017-10-02
Report Run at: December 19, 2017 03:41 EST
"Nutrient data for: 45058280, WHOLE MUSHRROMS, UPC: 041318020878"
Food Group:  Branded Food Products Database
Common Name:

Nutrient,Unit,Data points,Std. Error,"0.5 CUP W/LIQUID = 130.0g",1Value per 100 g,
Proximates
"Energy",kcal,--,--,25,19
"Protein",g,--,--,3.00,2.31
"Total lipid (fat)",g,--,--,0.00,0.00
"Carbohydrate, by difference",g,--,--,3.00,2.31
"Fiber, total dietary",g,--,--,1.9,1.5
"Sugars, total",g,--,--,0.00,0.00
Minerals
"Calcium, Ca",mg,--,--,0,0
"Iron, Fe",mg,--,--,0.71,0.55
"Sodium, Na",mg,--,--,360,277
Vitamins
"Vitamin C, total ascorbic acid",mg,--,--,1.2,0.9
"Vitamin A, IU",IU,--,--,0,0
Lipids
"Fatty acids, total saturated",g,--,--,0.000,0.000
"Fatty acids, total trans",g,--,--,0.000,0.000
"Cholesterol",mg,--,--,0,0
Amino Acids
Other
Ingredients
"MUSHROOMS, WATER, SALT, CITRIC ACID AND ASCORBIC ACID." Date available: 06/24/2017 Date last updated by company: 06/24/2017
