Source: USDA Branded Food Products Database Release December 2017 Software v.3.8.6.4 2017-10-02
Report Run at: December 19, 2017 02:48 EST
"Nutrient data for: 45167302, WHOLE FOODS MARKET, CREAMY ZUCCHINI BASIL SOUP, UPC: 036406303902"
Food Group:  Branded Food Products Database
Common Name:

Nutrient,Unit,Data points,Std. Error,"1 cup = 245.0g",1Value per 100 g,
Proximates
"Energy",kcal,--,--,71,29
"Protein",g,--,--,2.99,1.22
"Total lipid (fat)",g,--,--,2.50,1.02
"Carbohydrate, by difference",g,--,--,10.00,4.08
"Fiber, total dietary",g,--,--,2.0,0.8
"Sugars, total",g,--,--,5.00,2.04
Minerals
"Calcium, Ca",mg,--,--,39,16
"Iron, Fe",mg,--,--,1.08,0.44
"Sodium, Na",mg,--,--,279,114
Vitamins
"Vitamin C, total ascorbic acid",mg,--,--,21.1,8.6
"Vitamin A, IU",IU,--,--,299,122
Lipids
"Fatty acids, total saturated",g,--,--,0.490,0.200
"Fatty acids, total trans",g,--,--,0.000,0.000
"Cholesterol",mg,--,--,0,0
Amino Acids
Other
Ingredients
"VEGETABLE STOCK, (WATER, ONION, CARROT, CABBAGE, CELERY LEEK, MUSHROOMS, SUGARS, PARSLEY, THYME, PEPPER, BAY), ZUCCHINI, ONION, CASHEWS, CHAMPAGNE VINEGAR, NATURAL SEA SALT, GARLIC, PARSLEY, BASIL, PEPPER." Date available: 07/14/2017 Date last updated by company: 07/14/2017
