Source: USDA Branded Food Products Database Release December 2017 Software v.3.8.6.4 2017-10-02
Report Run at: December 19, 2017 03:52 EST
"Nutrient data for: 45198436, WHOLESUM ALMOND & COCONUT BAR, UPC: 077890371374"
Food Group:  Branded Food Products Database
Common Name:

Nutrient,Unit,Data points,Std. Error,"1 BAR = 40.0g",1Value per 100 g,
Proximates
"Energy",kcal,--,--,200,500
"Protein",g,--,--,3.00,7.50
"Total lipid (fat)",g,--,--,12.00,30.00
"Carbohydrate, by difference",g,--,--,20.00,50.00
"Fiber, total dietary",g,--,--,4.0,10.0
"Sugars, total",g,--,--,7.00,17.50
Minerals
"Calcium, Ca",mg,--,--,40,100
"Iron, Fe",mg,--,--,0.72,1.80
"Potassium, K",mg,--,--,140,350
"Sodium, Na",mg,--,--,40,100
Vitamins
"Vitamin C, total ascorbic acid",mg,--,--,0.0,0.0
"Vitamin A, IU",IU,--,--,0,0
Lipids
"Fatty acids, total saturated",g,--,--,6.000,15.000
"Fatty acids, total trans",g,--,--,0.000,0.000
"Cholesterol",mg,--,--,0,0
Amino Acids
Other
Ingredients
"ALMONDS, TAPIOCA SYRUP, COCONUT, HONEY, CRISP RICE (RICE FLOUR, SUGAR, SALT, CALCIUM CARBONATE), CHICORY ROOT FIBER, NATURAL FLAVORS, SOY LECITHIN." Date available: 07/14/2017 Date last updated by company: 07/14/2017
