Source: USDA Branded Food Products Database Release December 2017 Software v.3.8.6.4 2017-10-02
Report Run at: December 19, 2017 04:02 EST
"Nutrient data for: 45213310, WHOLE WHEAT KHARI PUFFED PASTRY, UPC: 011433155748"
Food Group:  Branded Food Products Database
Common Name:

Nutrient,Unit,Data points,Std. Error,"3.0 PIECES | ABOUT = 40.0g",1Value per 100 g,
Proximates
"Energy",kcal,--,--,210,525
"Protein",g,--,--,3.00,7.50
"Total lipid (fat)",g,--,--,14.00,35.00
"Carbohydrate, by difference",g,--,--,19.00,47.50
"Fiber, total dietary",g,--,--,2.0,5.0
"Sugars, total",g,--,--,0.00,0.00
Minerals
"Calcium, Ca",mg,--,--,20,50
"Iron, Fe",mg,--,--,1.35,3.38
"Sodium, Na",mg,--,--,160,400
Vitamins
"Vitamin C, total ascorbic acid",mg,--,--,0.0,0.0
"Vitamin A, IU",IU,--,--,0,0
Lipids
"Fatty acids, total saturated",g,--,--,6.000,15.000
"Fatty acids, total trans",g,--,--,0.000,0.000
"Cholesterol",mg,--,--,0,0
Amino Acids
Other
Ingredients
"WHEAT FLOUR (60%), HYDROGENATED VEGETABLE OIL(CONTAINS ONE OR MORE OF THE FOLLOWING: SESAME OIL, SOYBEAN OIL PALM OIL), SALT." Date available: 07/14/2017 Date last updated by company: 07/14/2017
