Source: USDA Branded Food Products Database Release December 2017 Software v.3.8.6.4 2017-10-02
Report Run at: December 19, 2017 03:52 EST
"Nutrient data for: 45257530, WHOLESUM CRANBERRY ALMOND BAR, UPC: 077890371381"
Food Group:  Branded Food Products Database
Common Name:

Nutrient,Unit,Data points,Std. Error,"1 BAR = 40.0g",1Value per 100 g,
Proximates
"Energy",kcal,--,--,190,475
"Protein",g,--,--,4.00,10.00
"Total lipid (fat)",g,--,--,11.00,27.50
"Carbohydrate, by difference",g,--,--,22.00,55.00
"Fiber, total dietary",g,--,--,4.0,10.0
"Sugars, total",g,--,--,10.00,25.00
Minerals
"Calcium, Ca",mg,--,--,40,100
"Iron, Fe",mg,--,--,9.00,22.50
"Potassium, K",mg,--,--,125,312
"Sodium, Na",mg,--,--,30,75
Vitamins
"Vitamin C, total ascorbic acid",mg,--,--,30.0,75.0
"Vitamin A, IU",IU,--,--,2500,6250
Lipids
"Fatty acids, total saturated",g,--,--,1.000,2.500
"Fatty acids, total trans",g,--,--,0.000,0.000
"Cholesterol",mg,--,--,0,0
Amino Acids
Other
Ingredients
"ALMONDS, DRIED CRANBERRIES (CRANBERRIES, SUGAR, SUNFLOWER OIL), TAPIOCA SYRUP, MACADAMIA NUTS, HONEY, CRISP RICE (RICE FLOUR, SUGAR, SALT, CALCIUM CARBONATE), CHICORY ROOT FIBER, TAPIOCA MALTODEXTRIN, ASCORBIC ACID, VITAMIN E ACETATE, VITAMIN A PALMITATE, SOY LECITHIN." Date available: 07/14/2017 Date last updated by company: 07/14/2017
