Source: USDA Branded Food Products Database Release December 2017 Software v.3.8.6.4 2017-10-02
Report Run at: December 19, 2017 03:35 EST
"Nutrient data for: 45325874, WHOLE MILK ORGANIC GREEK YOGURT, UPC: 070852993744"
Food Group:  Branded Food Products Database
Common Name:

Nutrient,Unit,Data points,Std. Error,"1 CONTAINER = 150.0g",1Value per 100 g,
Proximates
"Energy",kcal,--,--,130,87
"Protein",g,--,--,13.01,8.67
"Total lipid (fat)",g,--,--,5.00,3.33
"Carbohydrate, by difference",g,--,--,7.00,4.67
"Fiber, total dietary",g,--,--,0.0,0.0
"Sugars, total",g,--,--,4.00,2.67
Minerals
"Calcium, Ca",mg,--,--,160,107
"Iron, Fe",mg,--,--,0.00,0.00
"Potassium, K",mg,--,--,180,120
"Sodium, Na",mg,--,--,40,27
Vitamins
"Vitamin D",IU,--,--,0,0
Lipids
"Fatty acids, total saturated",g,--,--,3.495,2.330
"Fatty acids, total trans",g,--,--,0.000,0.000
"Cholesterol",mg,--,--,26,17
Amino Acids
Other
Ingredients
"CULTURED PASTEURIZED ORGANIC WHOLE MILK. CONTAINS THE FOLLOWING LIVE CULTURES: LACTOBACILLUS BULGARICUS, STREPTOCOCCUS THERMOPHILUS, LACTOBACILLUS ACIDOPHILUS, BIFIDUS, LACTOBACILLUS CASEI." Date available: 10/18/2017 Date last updated by company: 10/18/2017
