Source: USDA Branded Food Products Database Release December 2017 Software v.3.8.6.4 2017-10-02
Report Run at: December 19, 2017 03:46 EST
"Nutrient data for: 45038465, WHOLE PIQUANTE PEPPERS, UPC: 654287000026"
Food Group:  Branded Food Products Database
Common Name:

Nutrient,Unit,Data points,Std. Error,"0.333 cup = 30.0g",1Value per 100 g,
Proximates
"Energy",kcal,--,--,25,83
"Protein",g,--,--,1.00,3.33
"Total lipid (fat)",g,--,--,0.00,0.00
"Carbohydrate, by difference",g,--,--,6.00,20.00
"Fiber, total dietary",g,--,--,0.0,0.0
"Sugars, total",g,--,--,6.00,20.00
Minerals
"Calcium, Ca",mg,--,--,9,30
"Iron, Fe",mg,--,--,0.00,0.00
"Potassium, K",mg,--,--,50,167
"Sodium, Na",mg,--,--,75,250
Vitamins
"Vitamin C, total ascorbic acid",mg,--,--,30.0,100.0
"Vitamin A, IU",IU,--,--,0,0
Lipids
"Fatty acids, total saturated",g,--,--,0.000,0.000
"Fatty acids, total trans",g,--,--,0.000,0.000
"Cholesterol",mg,--,--,0,0
Amino Acids
Other
Ingredients
"PEPPADEW PIQUANTE PEPPERS, WATER, SUGAR, VINEGAR, SALT, CITRIC ACID, ASCORBIC ACID AND CALCIUM CHLORIDE." Date available: 07/14/2017 Date last updated by company: 07/14/2017
