Source: USDA Branded Food Products Database Release December 2017 Software v.3.8.6.4 2017-10-02
Report Run at: December 19, 2017 02:47 EST
"Nutrient data for: 45167291, WHOLE FOODS MARKET, CLASSIC DELI, PASTA SALAD, UPC: 036406302646"
Food Group:  Branded Food Products Database
Common Name:

Nutrient,Unit,Data points,Std. Error,"0.5 cup = 140.0g",1Value per 100 g,
Proximates
"Energy",kcal,--,--,270,193
"Protein",g,--,--,5.00,3.57
"Total lipid (fat)",g,--,--,19.00,13.57
"Carbohydrate, by difference",g,--,--,24.00,17.14
"Fiber, total dietary",g,--,--,2.0,1.4
"Sugars, total",g,--,--,2.00,1.43
Minerals
"Calcium, Ca",mg,--,--,20,14
"Iron, Fe",mg,--,--,1.02,0.73
"Sodium, Na",mg,--,--,440,314
Vitamins
"Vitamin C, total ascorbic acid",mg,--,--,10.8,7.7
"Vitamin A, IU",IU,--,--,1607,1148
Lipids
"Fatty acids, total saturated",g,--,--,1.498,1.070
"Fatty acids, total trans",g,--,--,0.000,0.000
"Cholesterol",mg,--,--,6,4
Amino Acids
Other
Ingredients
"PASTA [WHEAT SEMOLINA, DURUM FLOUR, NIACIN, IRON (FERROUS SULFATE), THIAMINE MONONITRATE, RIBOFLAVIN, FOLIC ACID], MAYONNAISE [CANOLA OIL, EGG YOLK, WATER, HONEY, VINEGAR, EGG, CONTAINS LESS THAN 2% OF SALT, SPICE, LEMON JUICE CONCENTRATE, TOCOPHEROLS (VITAMIN E)], CARROT, CELERY, RED ONION, PEAS, ROASTED RED PEPPER (PEPPER, WATER, SALT, CITRIC ACID), PICKLE RELISH (CUCUMBER, WHITE VINEGAR, WATER, SEA SALT, SUGAR), PARSLEY, SEA SALT, BLACK PEPPER." Date available: 10/18/2017 Date last updated by company: 10/18/2017
