Source: USDA Branded Food Products Database Release December 2017 Software v.3.8.6.4 2017-10-02
Report Run at: December 19, 2017 02:46 EST
"Nutrient data for: 45205262, WHOLE FOODS MARKET, CHINESE BLACK PEPPER SAUCE, UPC: 034683349897"
Food Group:  Branded Food Products Database
Common Name:

Nutrient,Unit,Data points,Std. Error,"1 Tbsp = 14.0g",1Value per 100 g,
Proximates
"Energy",kcal,--,--,20,143
"Protein",g,--,--,1.00,7.14
"Total lipid (fat)",g,--,--,0.00,0.00
"Carbohydrate, by difference",g,--,--,5.00,35.71
"Fiber, total dietary",g,--,--,0.0,0.0
"Sugars, total",g,--,--,3.00,21.43
Minerals
"Calcium, Ca",mg,--,--,0,0
"Iron, Fe",mg,--,--,0.00,0.00
"Sodium, Na",mg,--,--,220,1571
Vitamins
"Vitamin C, total ascorbic acid",mg,--,--,0.0,0.0
"Vitamin A, IU",IU,--,--,0,0
Lipids
"Fatty acids, total saturated",g,--,--,0.000,0.000
"Fatty acids, total trans",g,--,--,0.000,0.000
"Cholesterol",mg,--,--,0,0
Amino Acids
Other
Ingredients
"ORGANIC TAMARI SOY SAUCE (WATER, ORGANIC SOYBEANS, SALT, ORGANIC ALCOHOL), TAPIOCA SYRUP, SUGAR, WHITE VINEGAR, NON-GMO CORN STARCH, BLACK PEPPER, GARLIC, CULTURED DEXTROSE, NATURAL FLAVOR, XANTHAN GUM, DRIED ONION, DRIED YEAST, BLACK PEPPER EXTRACT, CITRIC ACID." Date available: 07/14/2017 Date last updated by company: 07/14/2017
