Source: USDA Branded Food Products Database Release December 2017 Software v.3.8.6.4 2017-10-02
Report Run at: December 19, 2017 03:40 EST
"Nutrient data for: 45257443, WHOLE MILK YOGURT, UPC: 687652600620"
Food Group:  Branded Food Products Database
Common Name:

Nutrient,Unit,Data points,Std. Error,"6.0 ONZ = 170.0g",1Value per 100 g,
Proximates
"Energy",kcal,--,--,139,82
"Protein",g,--,--,6.00,3.53
"Total lipid (fat)",g,--,--,6.00,3.53
"Carbohydrate, by difference",g,--,--,17.00,10.00
"Fiber, total dietary",g,--,--,1.0,0.6
"Sugars, total",g,--,--,16.00,9.41
Minerals
"Calcium, Ca",mg,--,--,201,118
"Iron, Fe",mg,--,--,0.00,0.00
"Sodium, Na",mg,--,--,70,41
Vitamins
"Vitamin C, total ascorbic acid",mg,--,--,0.0,0.0
"Vitamin A, IU",IU,--,--,299,176
Lipids
"Fatty acids, total saturated",g,--,--,3.502,2.060
"Fatty acids, total monounsaturated",g,--,--,0.000,0.000
"Fatty acids, total polyunsaturated",g,--,--,0.000,0.000
"Fatty acids, total trans",g,--,--,0.000,0.000
"Cholesterol",mg,--,--,20,12
Amino Acids
Other
Ingredients
"GRADE A PASTURIZED GRAZIERS WHOLE MILK, CREAM, NON-AT MILK, ORGANIC BLUEBERRIES, (ORGANIC CANE SUGAR, ORGANIC BLUEBERRIES, NATURAL FLAVOR, PECTIN, ORGANIC LOCUST BEAN GUM, CITRIC ACID, FRUIT & VEGETABLE JUICE), AND LIVE ACTIVE CULTURES; L. BULGARICUS, S. THERMOPHILUS, ACIDOPHILUS, L. CASEI, BIFIDOBACTERIUM." Date available: 07/14/2017 Date last updated by company: 07/14/2017
