Source: USDA Branded Food Products Database Release December 2017 Software v.3.8.6.4 2017-10-02
Report Run at: December 19, 2017 03:46 EST
"Nutrient data for: 45169282, WHOLE PLANET, CAFE SPICE, SAAG PANEER WITH SAFFRON RICE, UPC: 825120000750"
Food Group:  Branded Food Products Database
Common Name:

Nutrient,Unit,Data points,Std. Error,"8.0 ONZ = 227.0g",1Value per 100 g,
Proximates
"Energy",kcal,--,--,170,75
"Protein",g,--,--,4.99,2.20
"Total lipid (fat)",g,--,--,4.00,1.76
"Carbohydrate, by difference",g,--,--,30.01,13.22
"Fiber, total dietary",g,--,--,3.0,1.3
"Sugars, total",g,--,--,1.00,0.44
Minerals
"Calcium, Ca",mg,--,--,79,35
"Iron, Fe",mg,--,--,1.66,0.73
"Sodium, Na",mg,--,--,529,233
Vitamins
"Vitamin C, total ascorbic acid",mg,--,--,11.1,4.9
"Vitamin A, IU",IU,--,--,3391,1494
Lipids
"Fatty acids, total saturated",g,--,--,0.000,0.000
"Fatty acids, total trans",g,--,--,0.000,0.000
"Cholesterol",mg,--,--,0,0
Amino Acids
Other
Ingredients
"SAAG PANEER: SPINACH, WATER, PANEER (2% MILK, VINEGAR, SALT), ONIONS, TOMATOES, TOMATO PUREE (TOMATOES, WATER, CITRIC ACID), NON-GMO EXPELLER PRESSED CANOLA OIL, SALT, GARLIC, CUMIN, CORIANDER, GINGER, GARAM MASALA (SPICE BLEND), TURMERIC, RED CHILIES. SAFFRON RICE: BASMATI RICE, WATER, SAFFRON, NON-GMO EXPELLER PRESSED CANOLA OIL, SALT, CARDAMOM, BAY LEAVES." Date available: 07/14/2017 Date last updated by company: 07/14/2017
