Source: USDA Branded Food Products Database Release December 2017 Software v.3.8.6.4 2017-10-02
Report Run at: December 19, 2017 03:03 EST
"Nutrient data for: 45169796, WHOLE FOODS MARKET, PR PROTECT GREEN AID COLD - PRESSED JUICE, CELERY, GRANNY SMITH APPLES, KALE, LEMON, SPINACH, UPC: 856819005480"
Food Group:  Branded Food Products Database
Common Name:

Nutrient,Unit,Data points,Std. Error,"16.0 OZA = 473.0g",1Value per 100 g,
Proximates
"Energy",kcal,--,--,199,42
"Protein",g,--,--,0.99,0.21
"Total lipid (fat)",g,--,--,0.52,0.11
"Carbohydrate, by difference",g,--,--,49.00,10.36
"Fiber, total dietary",g,--,--,0.9,0.2
"Sugars, total",g,--,--,40.02,8.46
Minerals
"Calcium, Ca",mg,--,--,61,13
"Iron, Fe",mg,--,--,0.38,0.08
"Sodium, Na",mg,--,--,52,11
Vitamins
"Vitamin C, total ascorbic acid",mg,--,--,18.4,3.9
"Vitamin A, IU",IU,--,--,255,54
Lipids
Amino Acids
Other
Ingredients
"APPLE JUICE, CELERY JUICE, LEMON JUICE, SPINACH JUICE, KALE JUICE" Date available: 07/14/2017 Date last updated by company: 07/14/2017
