Source: USDA Branded Food Products Database Release December 2017 Software v.3.8.6.4 2017-10-02
Report Run at: December 19, 2017 03:43 EST
"Nutrient data for: 45231173, WHOLE PARSNIPS, UPC: 851953003057"
Food Group:  Branded Food Products Database
Common Name:

Nutrient,Unit,Data points,Std. Error,"100.0 GRM = 100.0g",1Value per 100 g,
Proximates
"Energy",kcal,--,--,75,75
"Protein",g,--,--,1.00,1.00
"Total lipid (fat)",g,--,--,0.00,0.00
"Carbohydrate, by difference",g,--,--,18.00,18.00
"Fiber, total dietary",g,--,--,5.0,5.0
"Sugars, total",g,--,--,5.00,5.00
Minerals
"Calcium, Ca",mg,--,--,40,40
"Iron, Fe",mg,--,--,0.54,0.54
"Sodium, Na",mg,--,--,10,10
Vitamins
"Vitamin C, total ascorbic acid",mg,--,--,16.8,16.8
"Vitamin A, IU",IU,--,--,0,0
Lipids
"Cholesterol",mg,--,--,0,0
Amino Acids
Other
Ingredients
"WHOLE PARSNIPS" Date available: 12/31/2016 Date last updated by company: 12/31/2016
