Source: USDA Branded Food Products Database Release December 2017 Software v.3.8.6.4 2017-10-02
Report Run at: December 19, 2017 03:12 EST
"Nutrient data for: 45104852, WHOLE GRAHAMS CRACKER, UPC: 041318240092"
Food Group:  Branded Food Products Database
Common Name:

Nutrient,Unit,Data points,Std. Error,"2.0 WHOLE CRACKERS = 31.0g",1Value per 100 g,
Proximates
"Energy",kcal,--,--,130,419
"Protein",g,--,--,2.00,6.45
"Total lipid (fat)",g,--,--,3.50,11.29
"Carbohydrate, by difference",g,--,--,24.00,77.42
"Fiber, total dietary",g,--,--,1.0,3.2
"Sugars, total",g,--,--,8.00,25.81
Minerals
"Calcium, Ca",mg,--,--,0,0
"Iron, Fe",mg,--,--,2.32,7.49
"Sodium, Na",mg,--,--,115,371
Vitamins
"Vitamin C, total ascorbic acid",mg,--,--,0.0,0.0
"Vitamin A, IU",IU,--,--,0,0
Lipids
"Fatty acids, total saturated",g,--,--,0.499,1.610
"Fatty acids, total monounsaturated",g,--,--,0.499,1.610
"Fatty acids, total polyunsaturated",g,--,--,1.500,4.840
"Fatty acids, total trans",g,--,--,0.000,0.000
"Cholesterol",mg,--,--,0,0
Amino Acids
Other
Ingredients
"ENRICHED FLOUR (WHEAT FLOUR, NIACIN, REDUCED IRON, THIAMIN MONONITRATE [VITAMIN B1], RIBOLFLAVIN [VITAMIN B2], FOLIC ACID), WHOLE GRAIN WHEAT FLOUR, SUGAR, CANOLA AND/OR SOYBEAN OIL, CITRIC ACID AND TBHQ ADDED TO PRESERVE FRESHNESS, CONTIANS 2% OR LESS OF: MOLASSES, HONEY, BAKING SODA AND/ OR CALCIUM PHOSPHATE (LEAVENING). SALT, DEXTROSE, CINNAMON, SOY LECITHIN NATURAL CINNAMON FLAVOR, SODIUM SULFITE." Date available: 06/25/2017 Date last updated by company: 06/25/2017
