Source: USDA Branded Food Products Database Release December 2017 Software v.3.8.6.4 2017-10-02
Report Run at: December 19, 2017 03:45 EST
"Nutrient data for: 45054962, WHOLE PEPPERONCINI, UPC: 076963716609"
Food Group:  Branded Food Products Database
Common Name:

Nutrient,Unit,Data points,Std. Error,"3.0 PIECES = 30.0g",1Value per 100 g,
Proximates
"Energy",kcal,--,--,5,17
"Protein",g,--,--,0.00,0.00
"Total lipid (fat)",g,--,--,0.00,0.00
"Carbohydrate, by difference",g,--,--,2.00,6.67
"Sugars, total",g,--,--,0.00,0.00
Minerals
"Sodium, Na",mg,--,--,700,2333
Vitamins
Lipids
Amino Acids
Other
Ingredients
"PEPPERONCINI PEPPER, WATER, SALT, ACETIC ACID, CITRIC ACID, SODIUM BENZOATE (AS A PRESERVATIVE), SODIUM METABISULFITE (AS A COLOR STABILIZER)" Date available: 06/25/2017 Date last updated by company: 06/25/2017
