Source: USDA Branded Food Products Database Release December 2017 Software v.3.8.6.4 2017-10-02
Report Run at: December 19, 2017 02:39 EST
"Nutrient data for: 45136293, WHOLE CATCH, WILD ALASKAN SOCKEYE SALMON FILLETS, UPC: 099482411060"
Food Group:  Branded Food Products Database
Common Name:

Nutrient,Unit,Data points,Std. Error,"4.0 ONZ = 113.0g",1Value per 100 g,
Proximates
"Energy",kcal,--,--,160,142
"Protein",g,--,--,24.00,21.24
"Total lipid (fat)",g,--,--,6.00,5.31
"Carbohydrate, by difference",g,--,--,0.00,0.00
"Fiber, total dietary",g,--,--,0.0,0.0
"Sugars, total",g,--,--,0.00,0.00
Minerals
"Calcium, Ca",mg,--,--,20,18
"Iron, Fe",mg,--,--,0.27,0.24
"Sodium, Na",mg,--,--,125,111
Vitamins
"Vitamin C, total ascorbic acid",mg,--,--,0.0,0.0
"Vitamin A, IU",IU,--,--,150,133
Lipids
"Fatty acids, total saturated",g,--,--,0.994,0.880
"Fatty acids, total monounsaturated",g,--,--,1.503,1.330
"Fatty acids, total polyunsaturated",g,--,--,1.503,1.330
"Fatty acids, total trans",g,--,--,0.000,0.000
"Cholesterol",mg,--,--,60,53
Amino Acids
Other
Ingredients
"SOCKEYE SALMON." Date available: 07/14/2017 Date last updated by company: 07/14/2017
