Source: USDA Branded Food Products Database Release December 2017 Software v.3.8.6.4 2017-10-02
Report Run at: December 19, 2017 03:05 EST
"Nutrient data for: 45168924, WHOLE FOODS MARKET, SALMON CAESAR SALAD, UPC: 723055880327"
Food Group:  Branded Food Products Database
Common Name:

Nutrient,Unit,Data points,Std. Error,"309.0 GRM = 309.0g",1Value per 100 g,
Proximates
"Energy",kcal,--,--,531,172
"Protein",g,--,--,22.00,7.12
"Total lipid (fat)",g,--,--,43.01,13.92
"Carbohydrate, by difference",g,--,--,19.99,6.47
"Fiber, total dietary",g,--,--,5.9,1.9
"Sugars, total",g,--,--,3.99,1.29
Minerals
"Calcium, Ca",mg,--,--,250,81
"Iron, Fe",mg,--,--,1.24,0.40
"Sodium, Na",mg,--,--,859,278
Vitamins
"Vitamin C, total ascorbic acid",mg,--,--,27.2,8.8
"Vitamin A, IU",IU,--,--,5438,1760
Lipids
"Fatty acids, total saturated",g,--,--,7.014,2.270
"Fatty acids, total trans",g,--,--,0.000,0.000
"Cholesterol",mg,--,--,46,15
Amino Acids
Other
Ingredients
"ROMAINE LETTUCE, SALMON (FISH), KALE, TOMATOES, CUCUMBERS, CROUTONS (UNBLEACHED WHEAT FLOUR (WHEAT, MALTED BARLEY FLOUR, NIACIN, REDUCED IRON, THIAMIN MONONITRATE, RIBOFLAVIN, FOLIC), EXTRA VIRGIN OLIVE OIL, GARLIC POWDER, SALT, BLACK PEPPER, YEAST), EXTRA VIRGIN OLIVE OIL, CANOLA OIL, PARMESAN CHEESE (PASTEURIZED COW'S MILK, STARTERS, RENNET, ENZYMES, SALT), RED WINE VINEGAR, LEMONS, WHOLE GRAIN MUSTARD (BLACK MUSTARD SEEDS, VINEGAR, SALT), ANCHOVIES (FISH, SOYBEAN OIL, SALT), GARLIC CLOVES, SALT, SUGAR, WHITE PEPPER, KOSHER SALT, CAJUN SPICE (DEXTROSE, SALT, RED PEPPER, BLACK PEPPER, WHITE PEPPER, PAPRIKA, ONION AND GARLIC POWDER)." Date available: 07/14/2017 Date last updated by company: 07/14/2017
