Source: USDA Branded Food Products Database Release December 2017 Software v.3.8.6.4 2017-10-02
Report Run at: December 19, 2017 04:08 EST
"Nutrient data for: 45220521, WHOLE WHITE POTATOES, UPC: 607880010664"
Food Group:  Branded Food Products Database
Common Name:

Nutrient,Unit,Data points,Std. Error,"3.0 POTATOES PLUS LIQUID | ABOUT = 155.0g",1Value per 100 g,
Proximates
"Energy",kcal,--,--,70,45
"Protein",g,--,--,1.01,0.65
"Total lipid (fat)",g,--,--,0.00,0.00
"Carbohydrate, by difference",g,--,--,16.00,10.32
"Fiber, total dietary",g,--,--,2.0,1.3
"Sugars, total",g,--,--,0.00,0.00
Minerals
"Calcium, Ca",mg,--,--,40,26
"Iron, Fe",mg,--,--,0.37,0.24
"Sodium, Na",mg,--,--,281,181
Vitamins
"Vitamin C, total ascorbic acid",mg,--,--,6.2,4.0
"Vitamin A, IU",IU,--,--,0,0
Lipids
"Fatty acids, total saturated",g,--,--,0.000,0.000
"Fatty acids, total trans",g,--,--,0.000,0.000
"Cholesterol",mg,--,--,0,0
Amino Acids
Other
Ingredients
"POTATOES, WATER, SALT, CALCIUM CHLORIDE, CALCIUM DISODIUM EDTA (TO MAINTAIN COLOR)." Date available: 07/14/2017 Date last updated by company: 07/14/2017
