Source: USDA Branded Food Products Database Release December 2017 Software v.3.8.6.4 2017-10-02
Report Run at: December 19, 2017 03:27 EST
"Nutrient data for: 45063875, WHOLE JALAPENO PEPPERS, UPC: 071524163731"
Food Group:  Branded Food Products Database
Common Name:

Nutrient,Unit,Data points,Std. Error,"2.0 PEPPERS = 30.0g",1Value per 100 g,
Proximates
"Energy",kcal,--,--,10,33
"Protein",g,--,--,0.00,0.00
"Total lipid (fat)",g,--,--,0.00,0.00
"Carbohydrate, by difference",g,--,--,2.00,6.67
"Fiber, total dietary",g,--,--,1.0,3.3
"Sugars, total",g,--,--,1.00,3.33
Minerals
"Calcium, Ca",mg,--,--,0,0
"Iron, Fe",mg,--,--,0.00,0.00
"Sodium, Na",mg,--,--,360,1200
Vitamins
"Vitamin C, total ascorbic acid",mg,--,--,26.0,86.7
"Vitamin A, IU",IU,--,--,2167,7222
Lipids
"Fatty acids, total saturated",g,--,--,0.000,0.000
"Fatty acids, total trans",g,--,--,0.000,0.000
"Cholesterol",mg,--,--,0,0
Amino Acids
Other
Ingredients
"JALAPENO PEPPERS, WATER, VINEGAR, CARROTS, SALT, ONIONS, CANOLA OIL, SUGAR, SPICES AND GARLIC." Date available: 07/14/2017 Date last updated by company: 07/14/2017
