Source: USDA Branded Food Products Database Release December 2017 Software v.3.8.6.4 2017-10-02
Report Run at: December 19, 2017 03:18 EST
"Nutrient data for: 45201613, WHOLE GRAIN MUSTARD, UPC: 801693018149"
Food Group:  Branded Food Products Database
Common Name:

Nutrient,Unit,Data points,Std. Error,"1 tsp = 5.0g",1Value per 100 g,
Proximates
"Energy",kcal,--,--,10,200
"Protein",g,--,--,0.00,0.00
"Total lipid (fat)",g,--,--,0.50,10.00
"Carbohydrate, by difference",g,--,--,1.00,20.00
Minerals
"Sodium, Na",mg,--,--,95,1900
Vitamins
Lipids
Amino Acids
Other
Ingredients
"SPIRIT VINEGAR, MUSTARD SEED, WHITE WINE (7%), SUGAR, SALT, SPICES." Date available: 07/14/2017 Date last updated by company: 07/14/2017
