Source: USDA Branded Food Products Database Release December 2017 Software v.3.8.6.4 2017-10-02
Report Run at: December 19, 2017 03:48 EST
"Nutrient data for: 45044640, WHOLESOME GLUTEN FREE FLOUR, UPC: 859216003080"
Food Group:  Branded Food Products Database
Common Name:

Nutrient,Unit,Data points,Std. Error,"0.25 cup = 35.0g",1Value per 100 g,
Proximates
"Energy",kcal,--,--,130,371
"Protein",g,--,--,3.00,8.57
"Total lipid (fat)",g,--,--,3.50,10.00
"Carbohydrate, by difference",g,--,--,24.00,68.57
"Fiber, total dietary",g,--,--,4.0,11.4
"Sugars, total",g,--,--,1.00,2.86
Minerals
"Calcium, Ca",mg,--,--,0,0
"Iron, Fe",mg,--,--,1.54,4.41
"Sodium, Na",mg,--,--,5,14
Vitamins
"Vitamin C, total ascorbic acid",mg,--,--,0.0,0.0
"Vitamin A, IU",IU,--,--,0,0
Lipids
"Fatty acids, total saturated",g,--,--,0.000,0.000
"Fatty acids, total trans",g,--,--,0.000,0.000
"Cholesterol",mg,--,--,0,0
Amino Acids
Other
Ingredients
"BROWN RICE FLOUR, WHITE RICE FLOUR, GROUND GOLDEN FLAXSEED, RICE BRAN, XANTHAN GUM." Date available: 07/14/2017 Date last updated by company: 07/14/2017
