Source: USDA Branded Food Products Database Release December 2017 Software v.3.8.6.4 2017-10-02
Report Run at: December 19, 2017 04:00 EST
"Nutrient data for: 45150949, WHOLE WHEAT FIG BARS, UPC: 021130306992"
Food Group:  Branded Food Products Database
Common Name:

Nutrient,Unit,Data points,Std. Error,"2.0 BARS = 35.0g",1Value per 100 g,
Proximates
"Energy",kcal,--,--,120,343
"Protein",g,--,--,1.00,2.86
"Total lipid (fat)",g,--,--,3.00,8.57
"Carbohydrate, by difference",g,--,--,21.00,60.00
"Fiber, total dietary",g,--,--,1.0,2.9
"Sugars, total",g,--,--,13.00,37.14
Minerals
"Calcium, Ca",mg,--,--,20,57
"Iron, Fe",mg,--,--,1.03,2.94
"Sodium, Na",mg,--,--,140,400
Vitamins
"Vitamin C, total ascorbic acid",mg,--,--,0.0,0.0
"Vitamin A, IU",IU,--,--,0,0
Lipids
"Fatty acids, total saturated",g,--,--,0.000,0.000
"Fatty acids, total trans",g,--,--,0.000,0.000
"Cholesterol",mg,--,--,0,0
Amino Acids
Other
Ingredients
"FIGS (SULFUR DIOXIDE ADDED TO MAINTAIN FRESHNESS), WHOLE WHEAT FLOUR, SUGAR, HIGH FRUCTOSE CORN SYRUP, VEGETABLE OIL (CONTAINS ONE OR MORE OF THE FOLLOWING: SUNFLOWER, SAFFLOWER, SOYBEAN, CANOLA, PALM, COTTONSEED, COCONUT), CORNSTARCH, SALT, GLYCERIN, CULTURED WHEY, NATURAL FLAVOR, CITRIC ACID, BAKING SODA, CARAMEL COLOR." Date available: 07/14/2017 Date last updated by company: 07/14/2017
