Source: USDA Branded Food Products Database Release December 2017 Software v.3.8.6.4 2017-10-02
Report Run at: December 19, 2017 04:07 EST
"Nutrient data for: 45207925, WHOLE WHEAT, UPC: 041497000531"
Food Group:  Branded Food Products Database
Common Name:

Nutrient,Unit,Data points,Std. Error,"2.0 SLICES = 45.0g",1Value per 100 g,
Proximates
"Energy",kcal,--,--,110,244
"Protein",g,--,--,5.00,11.11
"Total lipid (fat)",g,--,--,1.50,3.33
"Carbohydrate, by difference",g,--,--,18.00,40.00
"Fiber, total dietary",g,--,--,3.0,6.7
"Sugars, total",g,--,--,3.00,6.67
Minerals
"Calcium, Ca",mg,--,--,40,89
"Iron, Fe",mg,--,--,1.20,2.67
"Sodium, Na",mg,--,--,240,533
Vitamins
"Vitamin C, total ascorbic acid",mg,--,--,0.0,0.0
"Thiamin",mg,--,--,0.000,0.000
"Riboflavin",mg,--,--,0.034,0.076
"Niacin",mg,--,--,1.334,2.964
"Vitamin A, IU",IU,--,--,0,0
Lipids
"Fatty acids, total saturated",g,--,--,0.000,0.000
"Fatty acids, total monounsaturated",g,--,--,0.000,0.000
"Fatty acids, total polyunsaturated",g,--,--,0.500,1.110
"Fatty acids, total trans",g,--,--,0.000,0.000
"Cholesterol",mg,--,--,0,0
Amino Acids
Other
Ingredients
"WHOLE WHEAT FLOUR, WATER, HIGH FRUCTOSE CORN SYRUP, WHEAT GLUTEN, SOYBEAN OIL, YEAST, MOLASSES, SALT, CALCIUM PROPIONATE (PRESERVATIVE), HONEY, DATEM, MONOGLYCERIDES, ETHOXYLATED MONO- AND DIGLYCERIDES, CALCIUM SULFATE, SOY LECITHIN, CALCIUM CARBONATE, POTASSIUM IODATE." Date available: 07/14/2017 Date last updated by company: 07/14/2017
