Source: USDA Branded Food Products Database Release December 2017 Software v.3.8.6.4 2017-10-02
Report Run at: December 19, 2017 02:36 EST
"Nutrient data for: 45256449, WHOLE BLACK OLIVES, UPC: 643700170347"
Food Group:  Branded Food Products Database
Common Name:

Nutrient,Unit,Data points,Std. Error,"8.0 GRM = 8.0g",1Value per 100 g,
Proximates
"Energy",kcal,--,--,9,112
"Total lipid (fat)",g,--,--,1.00,12.50
"Carbohydrate, by difference",g,--,--,1.00,12.50
"Fiber, total dietary",g,--,--,1.6,19.5
"Sugars, total",g,--,--,0.00,0.00
Minerals
"Calcium, Ca",mg,--,--,10,125
"Iron, Fe",mg,--,--,2.25,28.12
"Potassium, K",mg,--,--,6000,75000
"Sodium, Na",mg,--,--,73,912
Vitamins
"Vitamin C, total ascorbic acid",mg,--,--,0.0,0.0
"Vitamin A, IU",IU,--,--,312,3906
Lipids
"Fatty acids, total saturated",g,--,--,1.250,15.620
"Cholesterol",mg,--,--,0,0
Amino Acids
Other
Ingredients
"BLACK OLIVES, WATER, SALT, FERRO GLUCONATE (E 579)." Date available: 10/13/2017 Date last updated by company: 10/13/2017
