Source: USDA Branded Food Products Database Release December 2017 Software v.3.8.6.4 2017-10-02
Report Run at: December 19, 2017 02:56 EST
"Nutrient data for: 45167271, WHOLE FOODS MARKET, MARINADE, CITRUS MOJO, UPC: 034683350602"
Food Group:  Branded Food Products Database
Common Name:

Nutrient,Unit,Data points,Std. Error,"1 Tbsp = 14.0g",1Value per 100 g,
Proximates
"Energy",kcal,--,--,10,71
"Protein",g,--,--,0.00,0.00
"Total lipid (fat)",g,--,--,0.00,0.00
"Carbohydrate, by difference",g,--,--,3.00,21.43
"Fiber, total dietary",g,--,--,0.0,0.0
"Sugars, total",g,--,--,2.00,14.29
Minerals
"Calcium, Ca",mg,--,--,0,0
"Iron, Fe",mg,--,--,0.00,0.00
"Sodium, Na",mg,--,--,50,357
Vitamins
"Vitamin C, total ascorbic acid",mg,--,--,12.2,87.0
"Vitamin A, IU",IU,--,--,0,0
Lipids
"Fatty acids, total saturated",g,--,--,0.000,0.000
"Fatty acids, total trans",g,--,--,0.000,0.000
"Cholesterol",mg,--,--,0,0
Amino Acids
Other
Ingredients
"FILTERED WATER, PEAR JUICE CONCENTRATE, ORANGE JUICE CONCENTRATE, WHITE VINEGAR, GRAPEFRUIT JUICE CONCENTRATE, DRIED GARLIC, GARLIC, DRIED ONION, ONION PUREE, NON-GMO CORN STARCH, SEA SALT, LEMON JUICE CONCENTRATE, LIME JUICE CONCENTRATE, CULTURED DEXTROSE, CITRIC ACID, BLACK PEPPER, DRIED CILANTRO, XANTHAN GUM, CAYENNE PEPPER, CUMIN, ALLSPICE, CLOVES." Date available: 07/14/2017 Date last updated by company: 07/14/2017
