Source: USDA Branded Food Products Database Release December 2017 Software v.3.8.6.4 2017-10-02
Report Run at: December 19, 2017 02:52 EST
"Nutrient data for: 45168838, WHOLE FOODS MARKET, GLUTENFREE LIGHT WHITE SANDWICH BREAD, UPC: 723055034065"
Food Group:  Branded Food Products Database
Common Name:

Nutrient,Unit,Data points,Std. Error,"1 SLICE (APPROX.) = 50.0g",1Value per 100 g,
Proximates
"Energy",kcal,--,--,170,340
"Protein",g,--,--,1.00,2.00
"Total lipid (fat)",g,--,--,6.00,12.00
"Carbohydrate, by difference",g,--,--,28.00,56.00
"Fiber, total dietary",g,--,--,2.0,4.0
"Sugars, total",g,--,--,2.00,4.00
Minerals
"Calcium, Ca",mg,--,--,20,40
"Sodium, Na",mg,--,--,450,900
Vitamins
"Vitamin C, total ascorbic acid",mg,--,--,6.0,12.0
"Vitamin A, IU",IU,--,--,50,99
Lipids
"Fatty acids, total saturated",g,--,--,0.000,0.000
"Fatty acids, total trans",g,--,--,0.000,0.000
"Cholesterol",mg,--,--,0,0
Amino Acids
Other
Ingredients
"WATER, TAPIOCA STARCH, CANOLA OIL, BROWN RICE FLOUR, POTATO STARCH, MALTEDEXTRIA(NON-ALLERGEN DERIVED), CAGE-FREE EGG WHITES(EGG WHITES, TRIETHYL CITRATE), CORNSTARCH, SUGAR, YEAST, SALT, OAT FIBER, DIETARY FIBER, CONTAINS LESS THAN 2% OF: CALCIUM SULFATE, CITRIC ACID, BAKING POWDER(SODIUM ACID PYROPHOSPHATE, SODIUM BICARBONATE, CORNSTARCH, MONOCALCIUM PHOSPHATE), CELLULOSE GUM, ENZYMES, GUAR GUM, MICROCRYSTALLINE CELLULOSE(NON-ALLERGEN DERIVED), ASCORBIC ACID, XANTHAN GUM." Date available: 09/05/2017 Date last updated by company: 09/05/2017
