Source: USDA Branded Food Products Database Release December 2017 Software v.3.8.6.4 2017-10-02
Report Run at: December 19, 2017 03:13 EST
"Nutrient data for: 45259811, WHOLE GRAIN BREAD, UPC: 614074001742"
Food Group:  Branded Food Products Database
Common Name:

Nutrient,Unit,Data points,Std. Error,"1 SLICE = 28.0g",1Value per 100 g,
Proximates
"Energy",kcal,--,--,60,214
"Protein",g,--,--,3.00,10.71
"Total lipid (fat)",g,--,--,0.00,0.00
"Carbohydrate, by difference",g,--,--,14.00,50.00
"Fiber, total dietary",g,--,--,0.0,0.0
"Sugars, total",g,--,--,3.00,10.71
Minerals
"Calcium, Ca",mg,--,--,0,0
"Iron, Fe",mg,--,--,0.64,2.29
"Sodium, Na",mg,--,--,75,268
Vitamins
"Vitamin C, total ascorbic acid",mg,--,--,0.0,0.0
"Vitamin A, IU",IU,--,--,0,0
Lipids
"Fatty acids, total saturated",g,--,--,0.000,0.000
"Fatty acids, total trans",g,--,--,0.000,0.000
"Cholesterol",mg,--,--,0,0
Amino Acids
Other
Ingredients
"ORGANIC WHEAT FLOUR, WATER, ORGANIC CRANBERRIES (ORGANIC EVAPORATED CANE JUICE, ORGANIC SUNFLOWER OIL), ORGANIC EVAPORATED CANE SYRUP, ORGANIC HONEY, ORGANIC CINNAMON, ORGANIC CRANBERRY FLAV-R-BITES (ORGANIC SUGAR, ORGANIC WHEAT FLOUR, ORGANIC SUNFLOWER OIL, ORGANIC POTATO STARCH, DRIED ORGANIC CRANBERRIES, ELDERBERRY JUICE CONCENTRATE, NATURAL FLAVOR (WONF), ORGANIC SOY LECITHIN), ORGANIC CULTURED WHEAT FLOUR, ORGANIC VINEGAR, SEA SALT, YEAST, WHEAT ENZYMES." Date available: 07/14/2017 Date last updated by company: 07/14/2017
