Source: USDA Branded Food Products Database Release December 2017 Software v.3.8.6.4 2017-10-02
Report Run at: December 19, 2017 02:53 EST
"Nutrient data for: 45187170, WHOLE FOODS MARKET, HAZELNUT TRUFFLES, UPC: 099482442262"
Food Group:  Branded Food Products Database
Common Name:

Nutrient,Unit,Data points,Std. Error,"3.0 TRUFFLES = 24.0g",1Value per 100 g,
Proximates
"Energy",kcal,--,--,150,625
"Protein",g,--,--,2.00,8.33
"Total lipid (fat)",g,--,--,11.00,45.83
"Carbohydrate, by difference",g,--,--,11.00,45.83
"Fiber, total dietary",g,--,--,2.0,8.3
"Sugars, total",g,--,--,7.00,29.17
Minerals
"Calcium, Ca",mg,--,--,20,83
"Iron, Fe",mg,--,--,3.00,12.50
"Sodium, Na",mg,--,--,15,62
Vitamins
"Vitamin C, total ascorbic acid",mg,--,--,0.0,0.0
"Vitamin A, IU",IU,--,--,0,0
Lipids
"Fatty acids, total saturated",g,--,--,6.000,25.000
"Fatty acids, total trans",g,--,--,0.000,0.000
"Cholesterol",mg,--,--,0,0
Amino Acids
Other
Ingredients
"DARK CHOCOLATE COATING (SUGAR, COCOA MASS, COCOA BUTTER, SOY LECITHIN [EMULSIFIER]), VEGETABLE OIL (EXPELLER PRESSED PALM AND PALM KERNEL OIL), HAZELNUTS, SUGAR, LOW FAT COCOA POWDER (PROCESSED WITH ALKALI), WHEY POWDER (MILK), NATURAL HAZELNUT FLAVOR, SOY LECITHIN (EMULSIFIER), NATURAL VANILLA FLAVOR." Date available: 07/14/2017 Date last updated by company: 07/14/2017
