Source: USDA Branded Food Products Database Release December 2017 Software v.3.8.6.4 2017-10-02
Report Run at: December 19, 2017 03:39 EST
"Nutrient data for: 45287419, WHOLE MILK, UPC: 072830403238"
Food Group:  Branded Food Products Database
Common Name:

Nutrient,Unit,Data points,Std. Error,"5.3 ONZ = 150.0g",1Value per 100 g,
Proximates
"Energy",kcal,--,--,150,100
"Protein",g,--,--,12.00,8.00
"Total lipid (fat)",g,--,--,5.00,3.33
"Carbohydrate, by difference",g,--,--,16.00,10.67
"Fiber, total dietary",g,--,--,0.0,0.0
"Sugars, total",g,--,--,13.01,8.67
Minerals
"Calcium, Ca",mg,--,--,100,67
"Iron, Fe",mg,--,--,0.00,0.00
"Sodium, Na",mg,--,--,50,33
Vitamins
"Vitamin C, total ascorbic acid",mg,--,--,4.0,2.7
"Vitamin A, IU",IU,--,--,226,151
Lipids
"Fatty acids, total saturated",g,--,--,3.495,2.330
"Fatty acids, total trans",g,--,--,0.000,0.000
"Cholesterol",mg,--,--,15,10
Amino Acids
Other
Ingredients
"PASTEURIZED GRADE A MILK AND CREAM, FRUIT BLEND (WATER, SUGAR, PEARS, CORN STARCH, MEYER LEMON JUICE, NATURAL FLAVOR, GUAR GUM), LIVE AND ACTIVE CULTURES (S. THERMOPHILUS, BIFIDUS, L. ACIDOPHILUS, LB. LACTIS, L. CASEI, L. RHAMNOSUS, L. BULGARICUS, L. LACTIS)." Date available: 07/14/2017 Date last updated by company: 07/14/2017
