Source: USDA Branded Food Products Database Release December 2017 Software v.3.8.6.4 2017-10-02
Report Run at: December 19, 2017 03:33 EST
"Nutrient data for: 45052834, WHOLE LEAF SPINACH, UPC: 041497189380"
Food Group:  Branded Food Products Database
Common Name:

Nutrient,Unit,Data points,Std. Error,"0.5 cup = 121.0g",1Value per 100 g,
Proximates
"Energy",kcal,--,--,25,21
"Protein",g,--,--,2.00,1.65
"Total lipid (fat)",g,--,--,0.00,0.00
"Carbohydrate, by difference",g,--,--,3.00,2.48
"Fiber, total dietary",g,--,--,3.0,2.5
"Sugars, total",g,--,--,0.00,0.00
Minerals
"Calcium, Ca",mg,--,--,100,83
"Iron, Fe",mg,--,--,1.16,0.96
"Potassium, K",mg,--,--,150,124
"Sodium, Na",mg,--,--,220,182
Vitamins
"Vitamin C, total ascorbic acid",mg,--,--,5.2,4.3
"Vitamin A, IU",IU,--,--,6447,5328
Lipids
"Fatty acids, total saturated",g,--,--,0.000,0.000
"Fatty acids, total trans",g,--,--,0.000,0.000
"Cholesterol",mg,--,--,0,0
Amino Acids
Other
Ingredients
"SPINACH, WATER, SALT." Date available: 06/25/2017 Date last updated by company: 06/25/2017
