Source: USDA Branded Food Products Database Release December 2017 Software v.3.8.6.4 2017-10-02
Report Run at: December 19, 2017 03:35 EST
"Nutrient data for: 45328519, WHOLE MILK GREEK YOGURT, UPC: 018894303268"
Food Group:  Branded Food Products Database
Common Name:

Nutrient,Unit,Data points,Std. Error,"1 cup = 227.0g",1Value per 100 g,
Proximates
"Energy",kcal,--,--,220,97
"Protein",g,--,--,21.00,9.25
"Total lipid (fat)",g,--,--,11.01,4.85
"Carbohydrate, by difference",g,--,--,8.99,3.96
"Fiber, total dietary",g,--,--,0.9,0.4
"Sugars, total",g,--,--,7.99,3.52
Minerals
"Calcium, Ca",mg,--,--,250,110
"Iron, Fe",mg,--,--,0.00,0.00
"Potassium, K",mg,--,--,311,137
"Sodium, Na",mg,--,--,79,35
Vitamins
"Vitamin C, total ascorbic acid",mg,--,--,0.0,0.0
"Vitamin A, IU",IU,--,--,300,132
Lipids
"Fatty acids, total saturated",g,--,--,6.992,3.080
"Fatty acids, total trans",g,--,--,0.000,0.000
"Cholesterol",mg,--,--,54,24
Amino Acids
Other
Ingredients
"CULTURED PASTEURIZED NONFAT MILK, CREAM." Date available: 07/14/2017 Date last updated by company: 07/14/2017
