Source: USDA Branded Food Products Database Release December 2017 Software v.3.8.6.4 2017-10-02
Report Run at: December 19, 2017 03:10 EST
"Nutrient data for: 45089711, WHOLE FOODS MARKET, UNSWEETENED CRANBERRIES, UPC: 999482001639"
Food Group:  Branded Food Products Database
Common Name:

Nutrient,Unit,Data points,Std. Error,"0.25 cup = 6.0g",1Value per 100 g,
Proximates
"Energy",kcal,--,--,25,417
"Protein",g,--,--,0.00,0.00
"Total lipid (fat)",g,--,--,0.00,0.00
"Carbohydrate, by difference",g,--,--,6.00,100.00
"Fiber, total dietary",g,--,--,1.0,16.7
"Sugars, total",g,--,--,3.00,50.00
Minerals
"Calcium, Ca",mg,--,--,0,0
"Iron, Fe",mg,--,--,0.00,0.00
"Sodium, Na",mg,--,--,0,0
Vitamins
"Vitamin C, total ascorbic acid",mg,--,--,8.0,133.3
"Vitamin A, IU",IU,--,--,0,0
Lipids
"Fatty acids, total saturated",g,--,--,0.000,0.000
"Fatty acids, total trans",g,--,--,0.000,0.000
"Cholesterol",mg,--,--,0,0
Amino Acids
Other
Ingredients
"DRIED CRANBERRIES." Date available: 07/14/2017 Date last updated by company: 07/14/2017
