Source: USDA Branded Food Products Database Release December 2017 Software v.3.8.6.4 2017-10-02
Report Run at: December 19, 2017 02:52 EST
"Nutrient data for: 45168247, WHOLE FOODS MARKET, GREEK YOGURT, STRAWBERRY, UPC: 099482454913"
Food Group:  Branded Food Products Database
Common Name:

Nutrient,Unit,Data points,Std. Error,"1 CONTAINER = 150.0g",1Value per 100 g,
Proximates
"Energy",kcal,--,--,130,87
"Protein",g,--,--,13.01,8.67
"Total lipid (fat)",g,--,--,0.00,0.00
"Carbohydrate, by difference",g,--,--,20.00,13.33
"Fiber, total dietary",g,--,--,0.0,0.0
"Sugars, total",g,--,--,19.00,12.67
Minerals
"Calcium, Ca",mg,--,--,150,100
"Iron, Fe",mg,--,--,0.00,0.00
"Potassium, K",mg,--,--,190,127
"Sodium, Na",mg,--,--,90,60
Vitamins
"Vitamin C, total ascorbic acid",mg,--,--,54.5,36.3
"Vitamin A, IU",IU,--,--,0,0
Lipids
"Fatty acids, total saturated",g,--,--,0.000,0.000
"Fatty acids, total trans",g,--,--,0.000,0.000
"Cholesterol",mg,--,--,4,3
Amino Acids
Other
Ingredients
"ORGANIC YOGURT (CULTURED PASTEURIZED ORGANIC NONFAT MILK, LIVE & ACTIVE YOGURT CULTURES [S. THERMOPHILUS, L. BULGARICUS, L. ACIDOPHILUS, BIFIDUS, L. CASEI]), ORGANIC STRAWBERRY FRUIT PREPARATION (ORGANIC STRAWBERRIES, ORGANIC CANE SUGAR, PECTIN, ASCORBIC ACID [VITAMIN C], CITRIC ACID)." Date available: 07/14/2017 Date last updated by company: 07/14/2017
