Source: USDA Branded Food Products Database Release December 2017 Software v.3.8.6.4 2017-10-02
Report Run at: December 19, 2017 03:00 EST
"Nutrient data for: 45168929, WHOLE FOODS MARKET, ORGANIC PECAN FETA SALAD, UPC: 723055886282"
Food Group:  Branded Food Products Database
Common Name:

Nutrient,Unit,Data points,Std. Error,"1 SALAD = 249.0g",1Value per 100 g,
Proximates
"Energy",kcal,--,--,640,257
"Protein",g,--,--,6.00,2.41
"Total lipid (fat)",g,--,--,51.99,20.88
"Carbohydrate, by difference",g,--,--,43.00,17.27
"Fiber, total dietary",g,--,--,5.0,2.0
"Sugars, total",g,--,--,32.99,13.25
Minerals
"Calcium, Ca",mg,--,--,199,80
"Iron, Fe",mg,--,--,1.02,0.41
"Sodium, Na",mg,--,--,401,161
Vitamins
"Vitamin C, total ascorbic acid",mg,--,--,11.7,4.7
"Vitamin A, IU",IU,--,--,3374,1355
Lipids
"Fatty acids, total saturated",g,--,--,7.993,3.210
"Fatty acids, total trans",g,--,--,0.000,0.000
"Cholesterol",mg,--,--,20,8
Amino Acids
Other
Ingredients
"SALAD MIX* (BABY GREEN & RED ROMAINE LETTUCE*, TANGO* BABY SPINACH*, BABY RED & GREEN OAKLEAF LETTUCE*, BABY RED AND GREEN CHARD*, LOLLA ROSA*, ARUGULA*, MIZUNA*, TATSOI*, BABY GREENLEAF AND REDLEAF LETTUCE*), CRANBERRIES* (CRANBERRIES*, EVAPORATED CANE JUICE*, SUNFLOWER OIL*), FETA CHEESE* (PASTEURIZED COW'S MILK*, SALT, CHEESE CULTURES, ENZYMES, POTATO STARCH*), OLIVE OIL*, BALSAMIC VINEGAR*, RED ONIONS*, PECANS* (TREE NUTS*), SUGAR*, WATER, BLACK PEPPER*, SEA SALT, GARLIC*, XANTHAN GUM." Date available: 07/14/2017 Date last updated by company: 07/14/2017
