Source: USDA Branded Food Products Database Release December 2017 Software v.3.8.6.4 2017-10-02
Report Run at: December 19, 2017 03:46 EST
"Nutrient data for: 45265406, WHOLE PITTED DATES, UPC: 038718720828"
Food Group:  Branded Food Products Database
Common Name:

Nutrient,Unit,Data points,Std. Error,"6.0 PIECES = 40.0g",1Value per 100 g,
Proximates
"Energy",kcal,--,--,110,275
"Protein",g,--,--,1.00,2.50
"Total lipid (fat)",g,--,--,0.00,0.00
"Carbohydrate, by difference",g,--,--,30.00,75.00
"Fiber, total dietary",g,--,--,3.0,7.5
"Sugars, total",g,--,--,25.00,62.50
Minerals
"Calcium, Ca",mg,--,--,0,0
"Iron, Fe",mg,--,--,0.36,0.90
"Potassium, K",mg,--,--,260,650
"Sodium, Na",mg,--,--,0,0
Vitamins
"Vitamin C, total ascorbic acid",mg,--,--,0.0,0.0
"Vitamin A, IU",IU,--,--,0,0
Lipids
"Fatty acids, total saturated",g,--,--,0.000,0.000
"Fatty acids, total trans",g,--,--,0.000,0.000
"Cholesterol",mg,--,--,0,0
Amino Acids
Other
Ingredients
"DATES." Date available: 07/14/2017 Date last updated by company: 07/14/2017
