Source: USDA Branded Food Products Database Release December 2017 Software v.3.8.6.4 2017-10-02
Report Run at: December 19, 2017 03:53 EST
"Nutrient data for: 45276370, WHOLE TILAPIA, UPC: 857536005128"
Food Group:  Branded Food Products Database
Common Name:

Nutrient,Unit,Data points,Std. Error,"4.0 ONZ = 100.0g",1Value per 100 g,
Proximates
"Energy",kcal,--,--,96,96
"Protein",g,--,--,20.00,20.00
"Total lipid (fat)",g,--,--,2.00,2.00
"Carbohydrate, by difference",g,--,--,0.00,0.00
"Fiber, total dietary",g,--,--,0.0,0.0
"Sugars, total",g,--,--,0.00,0.00
Minerals
"Calcium, Ca",mg,--,--,10,10
"Iron, Fe",mg,--,--,0.46,0.46
"Sodium, Na",mg,--,--,52,52
Vitamins
"Vitamin C, total ascorbic acid",mg,--,--,0.0,0.0
"Vitamin A, IU",IU,--,--,0,0
Lipids
"Fatty acids, total saturated",g,--,--,1.000,1.000
"Fatty acids, total trans",g,--,--,0.000,0.000
"Cholesterol",mg,--,--,50,50
Amino Acids
Other
Ingredients
"TILAPIA" Date available: 07/17/2017 Date last updated by company: 07/17/2017
