Source: USDA Branded Food Products Database Release December 2017 Software v.3.8.6.4 2017-10-02
Report Run at: December 19, 2017 03:21 EST
"Nutrient data for: 45292811, WHOLE GRAIN SNACKS, UPC: 028400021531"
Food Group:  Branded Food Products Database
Common Name:

Nutrient,Unit,Data points,Std. Error,"1 PACKAGE = 28.3g",1Value per 100 g,
Proximates
"Energy",kcal,--,--,140,495
"Protein",g,--,--,2.00,7.07
"Total lipid (fat)",g,--,--,6.00,21.20
"Carbohydrate, by difference",g,--,--,19.00,67.14
"Fiber, total dietary",g,--,--,2.0,7.1
"Sugars, total",g,--,--,2.00,7.07
Minerals
"Calcium, Ca",mg,--,--,20,71
"Iron, Fe",mg,--,--,0.70,2.47
"Potassium, K",mg,--,--,80,283
"Sodium, Na",mg,--,--,200,707
Vitamins
Lipids
"Fatty acids, total saturated",g,--,--,0.501,1.770
"Fatty acids, total trans",g,--,--,0.000,0.000
"Cholesterol",mg,--,--,0,0
Amino Acids
Other
Ingredients
"WHOLE CORN, SUNFLOWER AND/OR CANOLA OIL, WHOLE WHEAT, BROWN RICE FLOUR, WHOLE OAT FLOUR, SUGAR, MALTODEXTRIN (MADE FROM CORN), SALT, CHEDDAR CHEESE (MILK, CHEESE CULTURES, SALT, ENZYMES), NATURAL FLAVORS, WHEY, WHEY PROTEIN CONCENTRATE, ONION POWDER, ROMANO CHEESE (COW'S MILK, CHEESE CULTURES, SALT, ENZYMES), BUTTERMILK, YEAST EXTRACT, CITRIC ACID, PAPRIKA EXTRACTS, LACTIC ACID, GARLIC POWDER, PARMESAN CHEESE (MILK, CHEESE CULTURES, SALT, ENZYMES), AND SKIM MILK." Date available: 05/31/2017 Date last updated by company: 05/31/2017
