Source: USDA Branded Food Products Database Release December 2017 Software v.3.8.6.4 2017-10-02
Report Run at: December 19, 2017 03:09 EST
"Nutrient data for: 45168732, WHOLE FOODS MARKET, TRUFFLED RICOTTA ASIAGO DIP, UPC: 688672898943"
Food Group:  Branded Food Products Database
Common Name:

Nutrient,Unit,Data points,Std. Error,"2.0 Tbsp = 28.0g",1Value per 100 g,
Proximates
"Energy",kcal,--,--,70,250
"Protein",g,--,--,4.00,14.29
"Total lipid (fat)",g,--,--,6.00,21.43
"Carbohydrate, by difference",g,--,--,1.00,3.57
Minerals
"Calcium, Ca",mg,--,--,150,536
"Sodium, Na",mg,--,--,50,179
Vitamins
"Vitamin A, IU",IU,--,--,357,1275
Lipids
"Fatty acids, total saturated",g,--,--,3.500,12.500
"Cholesterol",mg,--,--,20,71
Amino Acids
Other
Ingredients
"RICOTTA CHEESE (PASTEURIZED WHEY, CREAM, MILK), SOUR CREAM [CULTURED MILK, CREAM (MILK), SKIM MILK, MODIFIED CORN STARCH, GUAR GUM, CARRAGEENAN, LOCUST BEAN GUM], ASIAGO CHEESE (PART SKIM COW'S MILK, CHEESE CULTURES, SALT, ENZYMES, CELLULOSE), CREAM BASE [SKIM MILK, CREAM (MILK), GELATIN], TRUFFLE OIL (OLIVE OIL, BLACK TRUFFLE), MICROGARD (CULTURED GRADE A NON FAT DRY MILK POWDER), CITRIC ACID, LACTIC ACID, GUAR GUM, SALT, BLACK PEPPER" Date available: 10/13/2017 Date last updated by company: 10/13/2017
