Source: USDA Branded Food Products Database Release December 2017 Software v.3.8.6.4 2017-10-02
Report Run at: December 19, 2017 02:40 EST
"Nutrient data for: 45186346, WHOLE COOKED ROCK CRAB, UPC: 829944090423"
Food Group:  Branded Food Products Database
Common Name:

Nutrient,Unit,Data points,Std. Error,"4.0 ONZ = 113.0g",1Value per 100 g,
Proximates
"Energy",kcal,--,--,98,87
"Protein",g,--,--,86.00,76.11
"Total lipid (fat)",g,--,--,12.00,10.62
"Carbohydrate, by difference",g,--,--,0.00,0.00
"Fiber, total dietary",g,--,--,0.0,0.0
"Sugars, total",g,--,--,0.00,0.00
Minerals
"Calcium, Ca",mg,--,--,23,20
"Iron, Fe",mg,--,--,2.03,1.80
"Sodium, Na",mg,--,--,586,519
Vitamins
"Vitamin C, total ascorbic acid",mg,--,--,6.0,5.3
"Vitamin A, IU",IU,--,--,113,100
Lipids
"Fatty acids, total saturated",g,--,--,0.203,0.180
"Fatty acids, total trans",g,--,--,0.000,0.000
"Cholesterol",mg,--,--,60,53
Amino Acids
Other
Ingredients
"ROCK CRAB" Date available: 10/13/2017 Date last updated by company: 10/13/2017
