Source: USDA Branded Food Products Database Release December 2017 Software v.3.8.6.4 2017-10-02
Report Run at: December 19, 2017 02:44 EST
"Nutrient data for: 45205838, WHOLE FOODS MARKET, CALIFORNIA QUINOA SALAD SHAKER, UPC: 826766846542"
Food Group:  Branded Food Products Database
Common Name:

Nutrient,Unit,Data points,Std. Error,"1 CONT = 340.0g",1Value per 100 g,
Proximates
"Energy",kcal,--,--,510,150
"Protein",g,--,--,14.99,4.41
"Total lipid (fat)",g,--,--,14.01,4.12
"Carbohydrate, by difference",g,--,--,77.01,22.65
"Fiber, total dietary",g,--,--,10.9,3.2
"Sugars, total",g,--,--,29.00,8.53
Minerals
"Calcium, Ca",mg,--,--,99,29
"Iron, Fe",mg,--,--,7.21,2.12
"Sodium, Na",mg,--,--,51,15
Vitamins
"Vitamin C, total ascorbic acid",mg,--,--,77.9,22.9
"Vitamin A, IU",IU,--,--,3499,1029
Lipids
"Fatty acids, total saturated",g,--,--,3.502,1.030
"Fatty acids, total trans",g,--,--,0.000,0.000
"Cholesterol",mg,--,--,0,0
Amino Acids
Other
Ingredients
"CALIFORNIA QUINOA (COOKED WHITE QUINOA [WHITE QUINOA , WATER], EDAMAME [SHELLED SOYBEANS], MANGO, RED BELL PEPPER, CILANTRO, RAISINS [DRIED THOMPSON SEEDLESS GRAPES SUNFLOWER OIL], ALMONDS, RED ONION, SHREDDED COCONUT [UNSULFURED COCONUT]), BALSAMIC LIME DRESSING (LIME JUICE, BALSAMIC VINEGAR [BALSAMIC VINEGAR OF MODENA (WINE VINEGAR, COOKED GRAPE MUST, CONCENTRATE GRAPE MUST, CARAMEL COLOR), CONTAINS SULFITES])." Date available: 07/14/2017 Date last updated by company: 07/14/2017
