Source: USDA Branded Food Products Database Release December 2017 Software v.3.8.6.4 2017-10-02
Report Run at: December 19, 2017 03:06 EST
"Nutrient data for: 45168930, WHOLE FOODS MARKET, SOUP, TOMATO ZUCCHINI, UPC: 723055871387"
Food Group:  Branded Food Products Database
Common Name:

Nutrient,Unit,Data points,Std. Error,"1 cup = 232.0g",1Value per 100 g,
Proximates
"Energy",kcal,--,--,211,91
"Protein",g,--,--,6.01,2.59
"Total lipid (fat)",g,--,--,12.99,5.60
"Carbohydrate, by difference",g,--,--,17.01,7.33
"Fiber, total dietary",g,--,--,3.0,1.3
"Sugars, total",g,--,--,10.00,4.31
Minerals
"Calcium, Ca",mg,--,--,151,65
"Iron, Fe",mg,--,--,1.51,0.65
"Sodium, Na",mg,--,--,529,228
Vitamins
"Vitamin C, total ascorbic acid",mg,--,--,13.5,5.8
"Vitamin A, IU",IU,--,--,981,423
Lipids
"Fatty acids, total saturated",g,--,--,8.004,3.450
"Fatty acids, total trans",g,--,--,0.000,0.000
"Cholesterol",mg,--,--,44,19
Amino Acids
Other
Ingredients
"TOMATOES, TOMATOES, TOMATOES PUREE, SALT, CITRIC ACID, HEAVY CREAM, ( PASTEURIZED CREAM), ZUCCHINI, ONIONS PARMESAN CHEESE ( PASTEURIZED COWS MILK, STARTERS, RENNET, ENZYMES), UNSALTED BUTTER HONEY, KOSHER SALT, GARLIC CLOVES, BASIL, PARSLEY THYME OREGANO, BAY LEAVES, NUTMEG , WHITE PEPPER" Date available: 07/14/2017 Date last updated by company: 07/14/2017
