Source: USDA Branded Food Products Database Release December 2017 Software v.3.8.6.4 2017-10-02
Report Run at: December 19, 2017 03:16 EST
"Nutrient data for: 45201689, WHOLE GRAIN DIJON MUSTARD, UPC: 811804020312"
Food Group:  Branded Food Products Database
Common Name:

Nutrient,Unit,Data points,Std. Error,"1 Tbsp = 5.0g",1Value per 100 g,
Proximates
"Energy",kcal,--,--,7,148
"Protein",g,--,--,0.00,0.00
"Total lipid (fat)",g,--,--,0.38,7.60
"Carbohydrate, by difference",g,--,--,1.00,20.00
Minerals
"Sodium, Na",mg,--,--,71,1420
Vitamins
Lipids
Amino Acids
Other
Ingredients
"WATER, BLACK MUSTARD SEEDS, VINEGAR, SALT, CITRIC ACID." Date available: 07/14/2017 Date last updated by company: 07/14/2017
