Source: USDA Branded Food Products Database Release December 2017 Software v.3.8.6.4 2017-10-02
Report Run at: December 19, 2017 03:26 EST
"Nutrient data for: 45262962, WHOLE HAZELNUT IN MILK CHOCOLATE AND NUT CROQUANTE, UPC: 8000500170823"
Food Group:  Branded Food Products Database
Common Name:

Nutrient,Unit,Data points,Std. Error,"100.0 GRM = 100.0g",1Value per 100 g,
Proximates
"Energy",kcal,--,--,603,603
"Protein",g,--,--,8.20,8.20
"Total lipid (fat)",g,--,--,42.70,42.70
"Carbohydrate, by difference",g,--,--,44.40,44.40
"Sugars, total",g,--,--,39.90,39.90
Minerals
Vitamins
Lipids
Amino Acids
Other
Ingredients
"MILK CHOCOLATE 30% (SUGAR, COCOA BUTTER, COCOA MASS, SKIMMED MILK POWDER, CONCENTRATED BUTTER, EMULSIFIER: LECITHINS (SOYA), VANILLIN), HAZELNUTS (28.5%), SUGAR, PALM OIL, WHEAT FLOUR, WHEY POWDER (MILK), FAT-REDUCED COCOA, EMULSIFIER: LECITHINS (SOYA), RAISING AGENT (SODIUM BICARBONATE), SALT, VANILLIN." Date available: 10/17/2017 Date last updated by company: 10/17/2017
