Source: USDA Branded Food Products Database Release December 2017 Software v.3.8.6.4 2017-10-02
Report Run at: December 19, 2017 03:48 EST
"Nutrient data for: 45274798, WHOL-E-SMOKES SMOKED SAUSAGE LINKS, UPC: 076819000562"
Food Group:  Branded Food Products Database
Common Name:

Nutrient,Unit,Data points,Std. Error,"2.0 LINKS = 47.0g",1Value per 100 g,
Proximates
"Energy",kcal,--,--,120,255
"Protein",g,--,--,6.00,12.77
"Total lipid (fat)",g,--,--,10.00,21.28
"Carbohydrate, by difference",g,--,--,1.00,2.13
Minerals
"Calcium, Ca",mg,--,--,40,85
"Iron, Fe",mg,--,--,0.42,0.90
"Sodium, Na",mg,--,--,550,1170
Vitamins
Lipids
"Fatty acids, total saturated",g,--,--,3.502,7.450
"Fatty acids, total trans",g,--,--,0.000,0.000
"Cholesterol",mg,--,--,25,53
Amino Acids
Other
Ingredients
"BEEF AND PORK, WATER, NONFAT DRY MILK, SALT, CORN SYRUP, SPICES, SODIUM CITRATE, DEXTROSE, MONOSODIUM GLUTAMATE, SODIUM DIACETATE, SUGAR, PAPRIKA, SODIUM ERYTHORBATE, SODIUM NITRITE, SPICE EXTRACTIVES." Date available: 09/21/2017 Date last updated by company: 09/21/2017
