Source: USDA Branded Food Products Database Release December 2017 Software v.3.8.6.4 2017-10-02
Report Run at: December 19, 2017 02:56 EST
"Nutrient data for: 45167279, WHOLE FOODS MARKET, MESCLUN GOAT CHEESE SALAD, UPC: 036406300338"
Food Group:  Branded Food Products Database
Common Name:

Nutrient,Unit,Data points,Std. Error,"0.5 cup = 100.0g",1Value per 100 g,
Proximates
"Energy",kcal,--,--,180,180
"Protein",g,--,--,4.00,4.00
"Total lipid (fat)",g,--,--,11.00,11.00
"Carbohydrate, by difference",g,--,--,19.00,19.00
"Fiber, total dietary",g,--,--,2.0,2.0
"Sugars, total",g,--,--,14.00,14.00
Minerals
"Calcium, Ca",mg,--,--,0,0
"Iron, Fe",mg,--,--,0.50,0.50
"Sodium, Na",mg,--,--,240,240
Vitamins
"Vitamin C, total ascorbic acid",mg,--,--,84.0,84.0
"Vitamin A, IU",IU,--,--,1750,1750
Lipids
"Fatty acids, total saturated",g,--,--,3.500,3.500
"Cholesterol",mg,--,--,15,15
Amino Acids
Other
Ingredients
"MESCLUN LETTUCE MIX (BABY LETTUCES, BABY SPINACH, ARUGULA, MACHE, MIZUNA), GOAT CHEESE (PASTEURIZED GOAT MILK, CULTURES, ENZYMES, SALT), CINDY'S FAT FREE BALSAMIC VINAIGRETTE [BALSAMIC VINEGAR, RED WINE VINEGAR (MAY CONTAIN SULFITES), WATER, SOY SAUCE (WATER, WHEAT, SOYBEAN, SALT), DIJON MUSTARD (MUSTARD SEED, VINEGAR, WHITE WINE, WHITE, WATER, SALT SPICES), HONEY GARLIC, SEA SALT, CANE SUGAR, BLACK PEPPER, XANTHAN GUM], CRANBERRIES (CRANBERRY, SUGAR, SUNFLOWER OIL), ONION, PECANS, MAPLE SYRUP, ORANGE PEEL." Date available: 07/14/2017 Date last updated by company: 07/14/2017
