Source: USDA Branded Food Products Database Release December 2017 Software v.3.8.6.4 2017-10-02
Report Run at: December 19, 2017 02:37 EST
"Nutrient data for: 45278021, WHOLE CASHEWS SOUTH WESTERN PICANTE, UPC: 021130982943"
Food Group:  Branded Food Products Database
Common Name:

Nutrient,Unit,Data points,Std. Error,"0.25 cup = 31.0g",1Value per 100 g,
Proximates
"Energy",kcal,--,--,180,581
"Protein",g,--,--,5.00,16.13
"Total lipid (fat)",g,--,--,14.00,45.16
"Carbohydrate, by difference",g,--,--,9.00,29.03
"Fiber, total dietary",g,--,--,1.0,3.2
"Sugars, total",g,--,--,2.00,6.45
Minerals
"Calcium, Ca",mg,--,--,20,65
"Iron, Fe",mg,--,--,2.90,9.37
"Potassium, K",mg,--,--,190,613
"Sodium, Na",mg,--,--,115,371
Vitamins
"Vitamin C, total ascorbic acid",mg,--,--,0.0,0.0
"Vitamin A, IU",IU,--,--,0,0
Lipids
"Fatty acids, total saturated",g,--,--,2.499,8.060
"Fatty acids, total monounsaturated",g,--,--,8.001,25.810
"Fatty acids, total polyunsaturated",g,--,--,2.499,8.060
"Fatty acids, total trans",g,--,--,0.000,0.000
"Cholesterol",mg,--,--,0,0
Amino Acids
Other
Ingredients
"CASHEWS, VEGETABLE OIL (PEANUT, COTTONSEED, SOYBEAN AND/OR SUNFLOWER SEED), CONTAINS LESS THAN 2% OF: DEXTROSE, SALT, TORULA YEAST, TOMATO POWDER, SUGAR, SPICE, ONION POWDER, SODIUM DIACETATE, FRUCTOSE SOLIDS, HYDROLYZED PLANT PROTEIN (SOY, CORN), GARLIC POWDER, SILICON DIOXIDE (ANTI-CAKING AGENT), DISODIUM INOSINATE AND DISODIUM GUANYLATE, OLEORESIN PAPRIKA (COLOR), VINEGAR POWDER, MALTODEXTRIN, MONOSODIUM GLUTAMATE, NATURAL FLAVOR, GLUCOSE SOLIDS, CARAMEL COLOR, NATURAL SMOKE FLAVOR, YEAST EXTRACT." Date available: 09/21/2017 Date last updated by company: 09/21/2017
