Source: USDA Branded Food Products Database Release December 2017 Software v.3.8.6.4 2017-10-02
Report Run at: December 19, 2017 03:12 EST
"Nutrient data for: 45167579, WHOLE FOODS MARKET, YOGURT PRETZELS, UPC: 076958621079"
Food Group:  Branded Food Products Database
Common Name:

Nutrient,Unit,Data points,Std. Error,"0.33 cup = 40.0g",1Value per 100 g,
Proximates
"Energy",kcal,--,--,200,500
"Protein",g,--,--,2.00,5.00
"Total lipid (fat)",g,--,--,8.00,20.00
"Carbohydrate, by difference",g,--,--,29.00,72.50
"Fiber, total dietary",g,--,--,0.0,0.0
"Sugars, total",g,--,--,19.00,47.50
Minerals
"Calcium, Ca",mg,--,--,40,100
"Iron, Fe",mg,--,--,0.90,2.25
"Sodium, Na",mg,--,--,180,450
Vitamins
"Vitamin C, total ascorbic acid",mg,--,--,0.0,0.0
"Vitamin A, IU",IU,--,--,125,312
Lipids
"Fatty acids, total saturated",g,--,--,7.000,17.500
"Fatty acids, total trans",g,--,--,0.000,0.000
"Cholesterol",mg,--,--,0,0
Amino Acids
Other
Ingredients
"(YOGURT COATING [EVAPORATED CANE SYRUP, FRACTIONATED PALM KERNEL OIL, YOGURT POWDER (MILK), SOY LECITHIN, LACTIC ACID, VANILLA, SALT], PRETZELS [ENRICHED WHEAT FLOUR {WHEAT FLOUR, NIACIN, REDUCED IRON, THIAMINE MONONITRATE, RIBOFLAVIN, FOLIC ACID}, SALT, MALT, VEGETABLE OIL (CONTAINS ONE OR MORE OF THE FOLLOWING: CANOLA OIL, CORN OIL, SOYBEAN OIL), LEAVENING (CONTAINS ONE OR MORE OF THE FOLLOWING: YEAST, SODIUM BICARBONATE, AMMONIUM BICARBONATE])" Date available: 07/14/2017 Date last updated by company: 07/14/2017
