Source: USDA Branded Food Products Database Release December 2017 Software v.3.8.6.4 2017-10-02
Report Run at: December 19, 2017 04:01 EST
"Nutrient data for: 45195389, WHOLE WHEAT FLOUR TORTILLAS, UPC: 007781502693"
Food Group:  Branded Food Products Database
Common Name:

Nutrient,Unit,Data points,Std. Error,"1 TORTILLA = 45.0g",1Value per 100 g,
Proximates
"Energy",kcal,--,--,110,244
"Protein",g,--,--,4.00,8.89
"Total lipid (fat)",g,--,--,3.50,7.78
"Carbohydrate, by difference",g,--,--,19.00,42.22
"Fiber, total dietary",g,--,--,3.0,6.7
"Sugars, total",g,--,--,1.00,2.22
Minerals
"Calcium, Ca",mg,--,--,60,133
"Iron, Fe",mg,--,--,1.32,2.93
"Sodium, Na",mg,--,--,280,622
Vitamins
"Vitamin C, total ascorbic acid",mg,--,--,0.0,0.0
"Vitamin A, IU",IU,--,--,0,0
Lipids
"Fatty acids, total saturated",g,--,--,1.498,3.330
"Fatty acids, total trans",g,--,--,0.000,0.000
"Cholesterol",mg,--,--,0,0
Amino Acids
Other
Ingredients
"WHOLE WHEAT FLOUR, WATER, SHORTENING (SOYBEAN OIL, HYDROGENATED SOYBEAN OIL), BAKING BLEND (SALT, MONO- AND DIGLYCERIDES, SODIUM BICARBONATE, DEXTROSE, CALCIUM PROPIONATE, SODIUM ALUMINUM PHOSPHATE, SODIUM ALUMINUM SULFATE, FUMARIC ACID, CORN STARCH, YEAST, POTASSIUM SORBATE, CELLULOSE GUM, ENZYMES, RICE FLOUR, SODIUM METABISULFITE, XANTHAN GUM)." Date available: 07/14/2017 Date last updated by company: 07/14/2017
