Source: USDA Branded Food Products Database Release December 2017 Software v.3.8.6.4 2017-10-02
Report Run at: December 19, 2017 03:14 EST
"Nutrient data for: 45275207, WHOLE GRAIN BREAD, UPC: 853584002249"
Food Group:  Branded Food Products Database
Common Name:

Nutrient,Unit,Data points,Std. Error,"1 SLICE = 42.0g",1Value per 100 g,
Proximates
"Energy",kcal,--,--,100,238
"Protein",g,--,--,2.00,4.76
"Total lipid (fat)",g,--,--,2.00,4.76
"Carbohydrate, by difference",g,--,--,18.00,42.86
"Fiber, total dietary",g,--,--,1.0,2.4
"Sugars, total",g,--,--,3.00,7.14
Minerals
"Calcium, Ca",mg,--,--,11,26
"Iron, Fe",mg,--,--,0.00,0.00
"Potassium, K",mg,--,--,47,112
"Sodium, Na",mg,--,--,140,333
Vitamins
"Vitamin D",IU,--,--,0,0
Lipids
"Fatty acids, total saturated",g,--,--,0.000,0.000
"Fatty acids, total trans",g,--,--,0.000,0.000
"Cholesterol",mg,--,--,5,12
Amino Acids
Other
Ingredients
"WATER, TAPIOCA FLOUR, POTATO STARCH, BROWN RICE FLOUR, WHOLE GRAIN SORGHUM FLOUR, HONEY, SUNFLOWER SEEDS, ORGANIC CANE SUGAR, EXPELLER PRESSED CANOLA OIL, XANTHAN GUM, EGG WHITES, YEAST, WHOLE GRAIN MILLET, GROUND FLAX, CULTURED BROWN RICE FLOUR, SEA SALT, MOLASSES, EGGS, WHOLE GRAIN TEFF, WHOLE GRAIN QUINOA, WHOLE GRAIN AMARANTH, ORGANIC CANE SUGAR VINEGAR, WHOLE GRAIN BUCKWHEAT FLOUR, ENZYMES." Date available: 10/13/2017 Date last updated by company: 10/13/2017
