Source: USDA Branded Food Products Database Release December 2017 Software v.3.8.6.4 2017-10-02
Report Run at: December 19, 2017 02:37 EST
"Nutrient data for: 45269894, WHOLE CARROTS, UPC: 884853630320"
Food Group:  Branded Food Products Database
Common Name:

Nutrient,Unit,Data points,Std. Error,"7.0 \"" LONG, 1.25\"" DIAMETER = 78.0g",1Value per 100 g,
Proximates
"Energy",kcal,--,--,30,38
"Protein",g,--,--,1.00,1.28
"Total lipid (fat)",g,--,--,0.00,0.00
"Carbohydrate, by difference",g,--,--,7.00,8.97
"Fiber, total dietary",g,--,--,2.0,2.6
"Sugars, total",g,--,--,5.00,6.41
Minerals
"Calcium, Ca",mg,--,--,20,26
"Iron, Fe",mg,--,--,0.36,0.46
"Sodium, Na",mg,--,--,60,77
Vitamins
"Vitamin C, total ascorbic acid",mg,--,--,6.0,7.7
"Vitamin A, IU",IU,--,--,5500,7051
Lipids
"Fatty acids, total saturated",g,--,--,0.000,0.000
"Fatty acids, total trans",g,--,--,0.000,0.000
"Cholesterol",mg,--,--,0,0
Amino Acids
Other
Ingredients
"CARROTS" Date available: 01/13/2017 Date last updated by company: 01/13/2017
