Source: USDA Branded Food Products Database Release December 2017 Software v.3.8.6.4 2017-10-02
Report Run at: December 19, 2017 04:10 EST
"Nutrient data for: 45241680, WHOPPERS, THE ORIGINAL MALTED MILK BALLS, UPC: 010700024404"
Food Group:  Branded Food Products Database
Common Name:

Nutrient,Unit,Data points,Std. Error,"18.0 PIECES = 41.0g",1Value per 100 g,
Proximates
"Energy",kcal,--,--,190,463
"Protein",g,--,--,1.00,2.44
"Total lipid (fat)",g,--,--,7.00,17.07
"Carbohydrate, by difference",g,--,--,31.00,75.61
"Fiber, total dietary",g,--,--,0.0,0.0
"Sugars, total",g,--,--,24.00,58.54
Minerals
"Calcium, Ca",mg,--,--,60,146
"Iron, Fe",mg,--,--,0.36,0.88
"Sodium, Na",mg,--,--,95,232
Vitamins
"Vitamin C, total ascorbic acid",mg,--,--,0.0,0.0
"Vitamin A, IU",IU,--,--,0,0
Lipids
"Fatty acids, total saturated",g,--,--,6.999,17.070
"Fatty acids, total trans",g,--,--,0.000,0.000
"Cholesterol",mg,--,--,0,0
Amino Acids
Other
Ingredients
"SUGAR; CORN SYRUP; PARTIALLY HYDROGENATED PALM KERNEL OIL; WHEY (MILK); COCOA; CONTAINS 2% OR LESS OF: MALTED MILK (BARLEY MALT; WHEAT FLOUR; MILK; SALT; SODIUM BICARBONATE); RESINOUS GLAZE; SORBITAN TRISTEARATE; SOY LECITHIN; SALT; NATURAL AND ARTIFICIAL" Date available: 10/17/2016 Date last updated by company: 10/17/2016
