Source: USDA Branded Food Products Database Release December 2017 Software v.3.8.6.4 2017-10-02
Report Run at: December 19, 2017 04:10 EST
"Nutrient data for: 45134162, WICKED KITCHEN Chicken And Shiitake Soy Yaki, UNPREPARED, GTIN: 00024812500022"
Food Group:  Branded Food Products Database
Common Name:

Nutrient,Unit,Data points,Std. Error,"1 meal (290g) = 290.0g",1Value per 100 g,
Proximates
"Energy",kcal,--,--,339,117
"Protein",g,--,--,19.00,6.55
"Total lipid (fat)",g,--,--,6.99,2.41
"Carbohydrate, by difference",g,--,--,50.00,17.24
"Fiber, total dietary",g,--,--,2.0,0.7
"Sugars, total",g,--,--,10.01,3.45
Minerals
"Calcium, Ca",mg,--,--,20,7
"Iron, Fe",mg,--,--,0.72,0.25
"Potassium, K",mg,--,--,319,110
"Sodium, Na",mg,--,--,829,286
Vitamins
"Vitamin C, total ascorbic acid",mg,--,--,0.0,0.0
"Vitamin A, IU",IU,--,--,0,0
Lipids
"Fatty acids, total saturated",g,--,--,1.508,0.520
"Fatty acids, total monounsaturated",g,--,--,2.987,1.030
"Fatty acids, total polyunsaturated",g,--,--,1.508,0.520
"Fatty acids, total trans",g,--,--,0.000,0.000
"Cholesterol",mg,--,--,61,21
Amino Acids
Other
Ingredients
"COOKED JASMINE RICE: Water, White Rice >>> SEASONED COOKED ROASTED CHICKEN: Chicken, Water, Less than 2% of: Modified Corn Starch, Lard and/or Sunflower Oil, Corn Syrup, Salt, Sodium Phosphates, Chicken Fat, Chicken Broth, Flavoring, Paprika >>> SAUCE: Water, Soy Sauce (Water, Wheat, Soybeans, Salt, Alcohol, Vinegar, Lactic Acid), Sugar, Sake Wine, Modified Corn Starch, Canola Oil, Garlic, Distilled Vinegar, White Wine, Ginger, Salt, Chicken Meat and Natural Chicken Juices, Chili Paste (Red Chili Peppers, Distilled Vinegar, Salt, Xanthan Gum), Chicken Fat, Hydrolyzed Corn And Wheat Gluten and Soy Protein, Dried Whey, Maltodextrin, Flavorings, Yeast Extract, Disodium Inosinate & Disodium Guanylate, Turmeric And Annatto Extracts (Color) >>> SHIITAKE MUSHROOMS >>> SCALLIONS >>> CONTAINS: MILK, SOY, WHEAT" Date available: 10/12/2017 Date last updated by company: 10/11/2017
