Source: USDA Branded Food Products Database Release December 2017 Software v.3.8.6.4 2017-10-02
Report Run at: December 19, 2017 04:10 EST
"Nutrient data for: 45134160, WICKED KITCHEN Moroccan Chicken and Couscous, UNPREPARED, GTIN: 00024812500015"
Food Group:  Branded Food Products Database
Common Name:

Nutrient,Unit,Data points,Std. Error,"1 meal (354g) = 354.0g",1Value per 100 g,
Proximates
"Energy",kcal,--,--,329,93
"Protein",g,--,--,23.01,6.50
"Total lipid (fat)",g,--,--,8.99,2.54
"Carbohydrate, by difference",g,--,--,40.00,11.30
"Fiber, total dietary",g,--,--,6.0,1.7
"Sugars, total",g,--,--,4.99,1.41
Minerals
"Calcium, Ca",mg,--,--,39,11
"Iron, Fe",mg,--,--,1.10,0.31
"Potassium, K",mg,--,--,520,147
"Sodium, Na",mg,--,--,1228,347
Vitamins
"Vitamin C, total ascorbic acid",mg,--,--,5.0,1.4
"Vitamin A, IU",IU,--,--,4000,1130
Lipids
"Fatty acids, total saturated",g,--,--,2.513,0.710
"Fatty acids, total monounsaturated",g,--,--,4.991,1.410
"Fatty acids, total polyunsaturated",g,--,--,1.982,0.560
"Fatty acids, total trans",g,--,--,0.000,0.000
"Cholesterol",mg,--,--,64,18
Amino Acids
Other
Ingredients
"SAUCE: Water, Tomato Paste, Roasted Red Pepper Puree (Red Bell Pepper, Dried Cane Syrup, Sea Salt), Diced Tomatoes, Olive Oil, Chili Paste (Red Chili Peppers, Distilled Vinegar, Salt, Xanthan Gum), Modified Corn Starch, Onions, Tomato Puree, Salt, Distilled Vinegar, Chardonnay Wine, Garlic, Chicken Meat and Natural Chicken Juices, Flavorings, Chicken Fat, Sugar, Hydrolyzed Corn And Wheat Gluten and Soy Protein, Canola Oil, Butter (Cream, Salt), Dried Whey, Maltodextrin, Yeast Extract, Disodium Inosinate & Disodium Guanylate, Turmeric And Annatto Extracts (Color), Citric Acid. >>> COOKED COUSCOUS: Water, Durum Wheat Semolina>>> SEASONED COOKED ROASTED CHICKEN: Chicken, Water, Less than 2% of: Modified Corn Starch, Lard and/or Sunflower Oil, Corn Syrup, Salt, Sodium Phosphates, Chicken Fat, Chicken Broth, Flavoring, Paprika>>> CARROTS>>> CILANTRO>>> CONTAINS: MILK, SOY, WHEAT" Date available: 10/12/2017 Date last updated by company: 10/12/2017
