Source: USDA Branded Food Products Database Release December 2017 Software v.3.8.6.4 2017-10-02
Report Run at: December 19, 2017 04:13 EST
"Nutrient data for: 45187592, WILBUR'S OF MAINE, MILK CHOCOLATE RAISINS, UPC: 813213006604"
Food Group:  Branded Food Products Database
Common Name:

Nutrient,Unit,Data points,Std. Error,"1.5 ONZ = 42.0g",1Value per 100 g,
Proximates
"Energy",kcal,--,--,200,476
"Protein",g,--,--,2.00,4.76
"Total lipid (fat)",g,--,--,10.00,23.81
"Carbohydrate, by difference",g,--,--,27.00,64.29
"Fiber, total dietary",g,--,--,1.0,2.4
"Sugars, total",g,--,--,26.00,61.90
Minerals
"Calcium, Ca",mg,--,--,60,143
"Iron, Fe",mg,--,--,0.43,1.02
"Sodium, Na",mg,--,--,25,60
Vitamins
"Vitamin C, total ascorbic acid",mg,--,--,1.4,3.4
"Vitamin A, IU",IU,--,--,119,283
Lipids
"Fatty acids, total saturated",g,--,--,6.002,14.290
"Fatty acids, total trans",g,--,--,0.000,0.000
"Cholesterol",mg,--,--,5,12
Amino Acids
Other
Ingredients
"MILK CHOCOLATE: SUGAR, MILK, COCOA BUTTER, CHOCOLATE LIQUOR, SOYA LECITHIN (AN EMULSIFIER), VANILLA RAISINS, RAISINS, SUNFLOWER OIL, CONFECTIONER'S GLAZE" Date available: 07/14/2017 Date last updated by company: 07/14/2017
