Source: USDA Branded Food Products Database Release December 2017 Software v.3.8.6.4 2017-10-02
Report Run at: December 19, 2017 04:35 EST
"Nutrient data for: 45193565, WILD PACIFIC SALMON FILLETS, UPC: 011150571043"
Food Group:  Branded Food Products Database
Common Name:

Nutrient,Unit,Data points,Std. Error,"1 FILLET = 142.0g",1Value per 100 g,
Proximates
"Energy",kcal,--,--,280,197
"Protein",g,--,--,23.00,16.20
"Total lipid (fat)",g,--,--,19.99,14.08
"Carbohydrate, by difference",g,--,--,0.99,0.70
"Fiber, total dietary",g,--,--,0.0,0.0
"Sugars, total",g,--,--,0.00,0.00
Minerals
"Calcium, Ca",mg,--,--,20,14
"Iron, Fe",mg,--,--,0.43,0.30
"Sodium, Na",mg,--,--,760,535
Vitamins
"Vitamin C, total ascorbic acid",mg,--,--,0.0,0.0
"Vitamin A, IU",IU,--,--,119,84
Lipids
"Fatty acids, total saturated",g,--,--,2.002,1.410
"Fatty acids, total trans",g,--,--,0.000,0.000
"Cholesterol",mg,--,--,50,35
Amino Acids
Other
Ingredients
"PINK SALMON, OLIVE OIL BLEND (CANOLA OIL AND OLIVE OIL), WATER, SALT, SUGAR, SPICES, ONION POWDER, GARLIC POWDER, MALTODEXTRIN, PAPRIKA, NATURAL HICKORY SMOKE FLAVOR." Date available: 07/14/2017 Date last updated by company: 07/14/2017
