Source: USDA Branded Food Products Database Release December 2017 Software v.3.8.6.4 2017-10-02
Report Run at: December 19, 2017 04:23 EST
"Nutrient data for: 45216282, WILD CAUGHT SWORDFISH, UPC: 030034085940"
Food Group:  Branded Food Products Database
Common Name:

Nutrient,Unit,Data points,Std. Error,"4.0 ONZ = 113.0g",1Value per 100 g,
Proximates
"Energy",kcal,--,--,170,150
"Protein",g,--,--,17.00,15.04
"Total lipid (fat)",g,--,--,4.99,4.42
"Carbohydrate, by difference",g,--,--,10.99,9.73
"Fiber, total dietary",g,--,--,0.0,0.0
"Sugars, total",g,--,--,8.00,7.08
Minerals
"Calcium, Ca",mg,--,--,0,0
"Iron, Fe",mg,--,--,0.72,0.64
"Sodium, Na",mg,--,--,880,779
Vitamins
"Vitamin C, total ascorbic acid",mg,--,--,0.0,0.0
"Vitamin A, IU",IU,--,--,99,88
Lipids
"Fatty acids, total saturated",g,--,--,0.994,0.880
"Fatty acids, total trans",g,--,--,0.000,0.000
"Cholesterol",mg,--,--,50,44
Amino Acids
Other
Ingredients
"SWORDFISH, BLACK PEPPER SAUCE (WATER, SOY SAUCE (WATER, WHEAT, SOYBEANS, SALT), SUGAR, SPICES, DISTILLED VINEGAR, GARLIC PUREE, MODIFIED FOOD STARCH, MINCED GARLIC, ANNATTO [COLOR])." Date available: 12/01/2016 Date last updated by company: 12/01/2016
