Source: USDA Branded Food Products Database Release December 2017 Software v.3.8.6.4 2017-10-02
Report Run at: December 19, 2017 04:14 EST
"Nutrient data for: 45201440, WILD ALASKA CRISPY PANKO BREADED POLLOCK, UPC: 728575999634"
Food Group:  Branded Food Products Database
Common Name:

Nutrient,Unit,Data points,Std. Error,"3.0 ONZ = 85.0g",1Value per 100 g,
Proximates
"Energy",kcal,--,--,190,224
"Protein",g,--,--,12.00,14.12
"Total lipid (fat)",g,--,--,8.00,9.41
"Carbohydrate, by difference",g,--,--,17.00,20.00
"Fiber, total dietary",g,--,--,1.5,1.8
"Sugars, total",g,--,--,1.50,1.76
Minerals
"Calcium, Ca",mg,--,--,0,0
"Iron, Fe",mg,--,--,0.36,0.42
"Sodium, Na",mg,--,--,370,435
Vitamins
"Vitamin C, total ascorbic acid",mg,--,--,0.0,0.0
"Vitamin A, IU",IU,--,--,0,0
Lipids
"Fatty acids, total saturated",g,--,--,1.003,1.180
"Fatty acids, total trans",g,--,--,0.000,0.000
"Cholesterol",mg,--,--,41,48
Amino Acids
Other
Ingredients
"POLLOCK, BLEACHED WHEAT FLOUR, WHEAT FLOUR, MODIFIED CORN STARCH, YELLOW CORN FLOUR, SALT, DEXTROSE, YEAST, GARLIC POWDER, CANOLA OIL, ONION POWDER, SUGAR, LEAVENING (SODIUM BICARBONATE, SODIUM ACID PYROPHOSPHATE, SODIUM ALUMINIUM PHOSPHATE, EGGS, CANOLA OIL (AS A PROCESSING AID), SOY FLOUR. PARTIALLY FIRED IN CANOLA OIL." Date available: 07/14/2017 Date last updated by company: 07/14/2017
