Source: USDA Branded Food Products Database Release December 2017 Software v.3.8.6.4 2017-10-02
Report Run at: December 19, 2017 04:28 EST
"Nutrient data for: 45180085, WILD HARVEST, OATMEAL WITH SPROUTED GRAINS, MAPLE, CANE SUGAR, UPC: 711535509462"
Food Group:  Branded Food Products Database
Common Name:

Nutrient,Unit,Data points,Std. Error,"1 CONTAINER = 50.0g",1Value per 100 g,
Proximates
"Energy",kcal,--,--,190,380
"Protein",g,--,--,6.00,12.00
"Total lipid (fat)",g,--,--,3.00,6.00
"Carbohydrate, by difference",g,--,--,37.00,74.00
"Fiber, total dietary",g,--,--,4.0,8.0
"Sugars, total",g,--,--,13.00,26.00
Minerals
"Calcium, Ca",mg,--,--,20,40
"Iron, Fe",mg,--,--,1.58,3.17
"Sodium, Na",mg,--,--,0,0
Vitamins
"Vitamin C, total ascorbic acid",mg,--,--,0.0,0.0
"Vitamin A, IU",IU,--,--,0,0
Lipids
"Fatty acids, total saturated",g,--,--,0.000,0.000
"Fatty acids, total trans",g,--,--,0.000,0.000
"Cholesterol",mg,--,--,0,0
Amino Acids
Other
Ingredients
"ROLLED OATS.ORGANIC CANE SUGAR, RAISINS, SPROUTED GRAINS AND SEEDS AND FRUIT BLEND (SPROUTED BUCKWHEAT, CHIA, GOLDEN FLAX, SPROUTED MLLET, ORGANIC QUINOA, POWDERED FOOD CONCENTRATES OF ORANGES, CRANBERRIES, APPLES, CHERRIES, BLUEBERRIES, STRAWBERRIES AND SHAKE MUSHROOMS) ALMONDS, DRIED SWEETENED CRANBERRIES (CRANBERRIES, CANE SUGAR, SUNFLOWER OIL), NATURAL MAPLE FLAVOR, CINNAMON." Date available: 07/14/2017 Date last updated by company: 07/14/2017
