Source: USDA Branded Food Products Database Release December 2017 Software v.3.8.6.4 2017-10-02
Report Run at: December 19, 2017 04:25 EST
"Nutrient data for: 45192944, WILD FRIENDS, ALMOND BUTTER, UPC: 853547003863"
Food Group:  Branded Food Products Database
Common Name:

Nutrient,Unit,Data points,Std. Error,"2.0 Tbsp = 32.0g",1Value per 100 g,
Proximates
"Energy",kcal,--,--,180,562
"Protein",g,--,--,6.00,18.75
"Total lipid (fat)",g,--,--,14.00,43.75
"Carbohydrate, by difference",g,--,--,10.00,31.25
"Fiber, total dietary",g,--,--,2.0,6.2
"Sugars, total",g,--,--,5.00,15.62
Minerals
"Sodium, Na",mg,--,--,55,172
Vitamins
Lipids
"Fatty acids, total saturated",g,--,--,2.000,6.250
"Fatty acids, total trans",g,--,--,0.000,0.000
"Cholesterol",mg,--,--,0,0
Amino Acids
Other
Ingredients
"ROASTED ALMONDS, SEA SALT." Date available: 10/19/2017 Date last updated by company: 10/19/2017
