Source: USDA Branded Food Products Database Release December 2017 Software v.3.8.6.4 2017-10-02
Report Run at: December 19, 2017 04:38 EST
"Nutrient data for: 45314490, WILD SMOKED SALMON, UPC: 081294010579"
Food Group:  Branded Food Products Database
Common Name:

Nutrient,Unit,Data points,Std. Error,"2.0 ONZ = 55.0g",1Value per 100 g,
Proximates
"Energy",kcal,--,--,90,164
"Protein",g,--,--,15.00,27.27
"Total lipid (fat)",g,--,--,3.00,5.45
"Carbohydrate, by difference",g,--,--,0.00,0.00
"Fiber, total dietary",g,--,--,0.0,0.0
"Sugars, total",g,--,--,0.00,0.00
Minerals
"Calcium, Ca",mg,--,--,20,36
"Iron, Fe",mg,--,--,0.36,0.65
"Sodium, Na",mg,--,--,340,618
Vitamins
"Vitamin C, total ascorbic acid",mg,--,--,0.0,0.0
"Vitamin A, IU",IU,--,--,100,182
Lipids
"Fatty acids, total saturated",g,--,--,0.501,0.910
"Fatty acids, total trans",g,--,--,0.000,0.000
"Cholesterol",mg,--,--,45,82
Amino Acids
Other
Ingredients
"PINK SALMON, SALT, BROWN SUGAR, NATURAL WOOD SMOKE." Date available: 07/14/2017 Date last updated by company: 07/14/2017
