Source: USDA Branded Food Products Database Release December 2017 Software v.3.8.6.4 2017-10-02
Report Run at: December 19, 2017 04:14 EST
"Nutrient data for: 45280292, WILD ALASKAN COD FILLETS, UPC: 021130125470"
Food Group:  Branded Food Products Database
Common Name:

Nutrient,Unit,Data points,Std. Error,"4.0 ONZ = 113.0g",1Value per 100 g,
Proximates
"Energy",kcal,--,--,80,71
"Protein",g,--,--,17.00,15.04
"Total lipid (fat)",g,--,--,0.00,0.00
"Carbohydrate, by difference",g,--,--,2.00,1.77
"Fiber, total dietary",g,--,--,0.0,0.0
"Sugars, total",g,--,--,0.00,0.00
Minerals
"Calcium, Ca",mg,--,--,20,18
"Iron, Fe",mg,--,--,0.54,0.48
"Sodium, Na",mg,--,--,190,168
Vitamins
"Vitamin C, total ascorbic acid",mg,--,--,0.0,0.0
"Vitamin A, IU",IU,--,--,0,0
Lipids
"Fatty acids, total saturated",g,--,--,0.000,0.000
"Fatty acids, total trans",g,--,--,0.000,0.000
"Cholesterol",mg,--,--,80,71
Amino Acids
Other
Ingredients
"ALASKA COD (GADUS MACROCEPHALUS), SODIUM TRIPOLYPHOSPHATE (TO RETAIN MOISTURE)." Date available: 07/14/2017 Date last updated by company: 07/14/2017
