Source: USDA Branded Food Products Database Release December 2017 Software v.3.8.6.4 2017-10-02
Report Run at: December 19, 2017 04:27 EST
"Nutrient data for: 45180078, WILD HARVEST, GRANOLA CEREAL, CHOCOLATE CHERRY NUT, UPC: 711535507703"
Food Group:  Branded Food Products Database
Common Name:

Nutrient,Unit,Data points,Std. Error,"0.5 cup = 55.0g",1Value per 100 g,
Proximates
"Energy",kcal,--,--,250,455
"Protein",g,--,--,7.00,12.73
"Total lipid (fat)",g,--,--,11.00,20.00
"Carbohydrate, by difference",g,--,--,34.00,61.82
"Fiber, total dietary",g,--,--,5.0,9.1
"Sugars, total",g,--,--,10.00,18.18
Minerals
"Calcium, Ca",mg,--,--,20,36
"Iron, Fe",mg,--,--,1.80,3.27
"Sodium, Na",mg,--,--,0,0
Vitamins
"Vitamin C, total ascorbic acid",mg,--,--,0.0,0.0
"Vitamin A, IU",IU,--,--,100,182
Lipids
"Fatty acids, total saturated",g,--,--,2.502,4.550
"Fatty acids, total trans",g,--,--,0.000,0.000
"Cholesterol",mg,--,--,0,0
Amino Acids
Other
Ingredients
"WHOLE ROLLED OATS, MILLED SUGAR, EXPELLER PRESSED CANOLA OIL, COCONUT, OAT BRAN, CHERRIES WITH SUGAR & SUNFLOWER OIL, SLICED ALMONDS, SUNFLOWER SEED MEAL, PECANS, COCOA POWDER, NATURAL CHOCOLATE FLAVOR." Date available: 07/14/2017 Date last updated by company: 07/14/2017
