Source: USDA Branded Food Products Database Release December 2017 Software v.3.8.6.4 2017-10-02
Report Run at: December 19, 2017 04:17 EST
"Nutrient data for: 45185188, WILD BLUEBERRIES, UPC: 728607814621"
Food Group:  Branded Food Products Database
Common Name:

Nutrient,Unit,Data points,Std. Error,"1 cup = 127.0g",1Value per 100 g,
Proximates
"Energy",kcal,--,--,60,47
"Protein",g,--,--,0.00,0.00
"Total lipid (fat)",g,--,--,0.00,0.00
"Carbohydrate, by difference",g,--,--,18.00,14.17
"Fiber, total dietary",g,--,--,6.0,4.7
"Sugars, total",g,--,--,9.99,7.87
Minerals
"Calcium, Ca",mg,--,--,20,16
"Iron, Fe",mg,--,--,0.72,0.57
"Potassium, K",mg,--,--,95,75
"Sodium, Na",mg,--,--,0,0
Vitamins
"Vitamin C, total ascorbic acid",mg,--,--,2.4,1.9
"Vitamin A, IU",IU,--,--,100,79
Lipids
"Fatty acids, total saturated",g,--,--,0.000,0.000
"Fatty acids, total trans",g,--,--,0.000,0.000
"Cholesterol",mg,--,--,0,0
Amino Acids
Other
Ingredients
"WILD BLUEBERRIES" Date available: 11/11/2016 Date last updated by company: 11/11/2016
