Source: USDA Branded Food Products Database Release December 2017 Software v.3.8.6.4 2017-10-02
Report Run at: December 19, 2017 04:15 EST
"Nutrient data for: 45276817, WILD ALASKAN SALMON BAKE, UPC: 851981003029"
Food Group:  Branded Food Products Database
Common Name:

Nutrient,Unit,Data points,Std. Error,"1 BAKE = 227.0g",1Value per 100 g,
Proximates
"Energy",kcal,--,--,241,106
"Protein",g,--,--,16.00,7.05
"Total lipid (fat)",g,--,--,6.99,3.08
"Carbohydrate, by difference",g,--,--,30.01,13.22
"Fiber, total dietary",g,--,--,0.9,0.4
"Sugars, total",g,--,--,1.00,0.44
Minerals
"Calcium, Ca",mg,--,--,100,44
"Iron, Fe",mg,--,--,0.61,0.27
"Sodium, Na",mg,--,--,279,123
Vitamins
"Vitamin C, total ascorbic acid",mg,--,--,4.1,1.8
"Vitamin A, IU",IU,--,--,257,113
Lipids
"Fatty acids, total saturated",g,--,--,1.998,0.880
"Fatty acids, total trans",g,--,--,0.000,0.000
"Cholesterol",mg,--,--,34,15
Amino Acids
Other
Ingredients
"WILD CAUGHT** ALASKAN SALMON, WATER, *ARBORIO RICE, *ASPARAGUS, *MILK, *PARMESAN CHEESE [PASTEURIZED PART SKIM *COW'S MILK, CULTURE, SALT, FLOW AGENT (LESS THAN 2% MICROCELLULOSE CRYSTALINE)], *ONION, *BASIL, *LEMON JUICE CONCENTRATE, *GARLIC PUREE, *EXPELLER PRESSED CANOLA OIL, SEA SALT, *TURMERIC (FOR COLOR)." Date available: 07/14/2017 Date last updated by company: 07/14/2017
