Source: USDA Branded Food Products Database Release December 2017 Software v.3.8.6.4 2017-10-02
Report Run at: December 19, 2017 04:40 EST
"Nutrient data for: 45084507, WILDWOOD, GLUTEN FREE BAKED TOFU, UPC: 030871701775"
Food Group:  Branded Food Products Database
Common Name:

Nutrient,Unit,Data points,Std. Error,"3.0 ONZ = 85.0g",1Value per 100 g,
Proximates
"Energy",kcal,--,--,130,153
"Protein",g,--,--,13.00,15.29
"Total lipid (fat)",g,--,--,6.00,7.06
"Carbohydrate, by difference",g,--,--,5.00,5.88
"Fiber, total dietary",g,--,--,0.0,0.0
"Sugars, total",g,--,--,2.00,2.35
Minerals
"Calcium, Ca",mg,--,--,60,71
"Iron, Fe",mg,--,--,2.70,3.18
"Sodium, Na",mg,--,--,65,76
Vitamins
"Vitamin C, total ascorbic acid",mg,--,--,1.2,1.4
"Vitamin A, IU",IU,--,--,0,0
Lipids
"Fatty acids, total saturated",g,--,--,1.003,1.180
"Fatty acids, total trans",g,--,--,0.000,0.000
"Cholesterol",mg,--,--,0,0
Amino Acids
Other
Ingredients
"ORGANIC SPROUTED TOFU (FILTERED WATER, SPROUTED ORGANIC SOYBEANS, NIGARI [MAGNESIUM CHLORIDE, A NATURAL FIRMING AGENCY], CALCIUM SULFATE), WATER, ORGANIC CANE SUGAR, ORGANIC COCONUT CREAM (ORGANIC COCONUT MILK, WATER), ORGANIC TOMATO PASTE (ORGANIC TOMATO PASTE, CITRIC ACID), ORGANIC GARLIC, ORGANIC GINGER, SEA SALT, ORGANIC GARLIC POWDER, ORGANIC ONION POWDER, ORGANIC RICE VINEGAR, ORGANIC GINGER POWDER, ORGANIC CURRY POWDER, ORGANIC CAYENNE PEPPER, ORGANIC TAMARI SOY SAUCE (WATER, ORGANIC SOYBEANS, SALT, ORGANIC ALCOHOL [TO PRESERVE FRESHNESS])" Date available: 06/25/2017 Date last updated by company: 06/25/2017
