Source: USDA Branded Food Products Database Release December 2017 Software v.3.8.6.4 2017-10-02
Report Run at: December 19, 2017 04:26 EST
"Nutrient data for: 45185344, WILD GAME MARINADE AND SEASONING, UPC: 637159100307"
Food Group:  Branded Food Products Database
Common Name:

Nutrient,Unit,Data points,Std. Error,"1 WSERVING = 2.0g",1Value per 100 g,
Proximates
"Energy",kcal,--,--,5,250
"Protein",g,--,--,0.00,0.00
"Total lipid (fat)",g,--,--,0.00,0.00
"Carbohydrate, by difference",g,--,--,1.00,50.00
"Fiber, total dietary",g,--,--,0.0,0.0
"Sugars, total",g,--,--,1.00,50.00
Minerals
"Calcium, Ca",mg,--,--,0,0
"Iron, Fe",mg,--,--,0.00,0.00
"Sodium, Na",mg,--,--,190,9500
Vitamins
"Vitamin C, total ascorbic acid",mg,--,--,0.0,0.0
"Vitamin A, IU",IU,--,--,5000,250000
Lipids
"Fatty acids, total saturated",g,--,--,0.000,0.000
"Cholesterol",mg,--,--,0,0
Amino Acids
Other
Ingredients
"SALT, SPICES, MONOSODIUM GLUTAMATE, SUGAR, BROWN SUGAR, HYDROLYZED SOY PROTEIN WITH PARTIALLY HYDROGENATED COTTONSEED AND SOYBEAN OIL ADDED, DEHYDRATED GARLIC, MODIFIED CORN STARCH, DEHYDRATED ONION, PAPRIKA, DIJON MUSTARD POWDER, REFINED SOYBEAN OIL, NATURAL FLAVOR, CARAMEL COLOR AND LESS THAN 2% TRICALCIUM PHOSPHATE ADDED TO PREVENT CAKING." Date available: 07/14/2017 Date last updated by company: 07/14/2017
