Source: USDA Branded Food Products Database Release December 2017 Software v.3.8.6.4 2017-10-02
Report Run at: December 19, 2017 04:33 EST
"Nutrient data for: 45058052, WILD OATS MARKETPLACE, DICED TOMATOES IN TOMATO JUICE, UPC: 848737001996"
Food Group:  Branded Food Products Database
Common Name:

Nutrient,Unit,Data points,Std. Error,"0.5 cup = 120.0g",1Value per 100 g,
Proximates
"Energy",kcal,--,--,25,21
"Protein",g,--,--,0.00,0.00
"Total lipid (fat)",g,--,--,0.00,0.00
"Carbohydrate, by difference",g,--,--,5.00,4.17
"Fiber, total dietary",g,--,--,1.0,0.8
"Sugars, total",g,--,--,3.00,2.50
Minerals
"Calcium, Ca",mg,--,--,20,17
"Iron, Fe",mg,--,--,0.00,0.00
"Sodium, Na",mg,--,--,14,12
Vitamins
"Vitamin C, total ascorbic acid",mg,--,--,1.3,1.1
"Vitamin A, IU",IU,--,--,1084,903
Lipids
"Fatty acids, total saturated",g,--,--,0.000,0.000
"Fatty acids, total trans",g,--,--,0.000,0.000
"Cholesterol",mg,--,--,0,0
Amino Acids
Other
Ingredients
"ORGANIC TOMATOES, ORGANIC TOMATO JUICE, CALCIUM CHLORIDE, CITRIC ACID." Date available: 07/14/2017 Date last updated by company: 07/14/2017
