Source: USDA Branded Food Products Database Release December 2017 Software v.3.8.6.4 2017-10-02
Report Run at: December 19, 2017 04:15 EST
"Nutrient data for: 45183819, WILD ALASKAN SOCKEYE SALMON, UPC: 078742046341"
Food Group:  Branded Food Products Database
Common Name:

Nutrient,Unit,Data points,Std. Error,"1 PORTION = 170.0g",1Value per 100 g,
Proximates
"Energy",kcal,--,--,260,153
"Protein",g,--,--,36.99,21.76
"Total lipid (fat)",g,--,--,12.00,7.06
"Carbohydrate, by difference",g,--,--,0.00,0.00
"Fiber, total dietary",g,--,--,0.0,0.0
"Sugars, total",g,--,--,0.00,0.00
Minerals
"Calcium, Ca",mg,--,--,20,12
"Iron, Fe",mg,--,--,0.46,0.27
"Sodium, Na",mg,--,--,100,59
Vitamins
"Vitamin C, total ascorbic acid",mg,--,--,0.0,0.0
"Vitamin A, IU",IU,--,--,194,114
Lipids
"Fatty acids, total saturated",g,--,--,2.499,1.470
"Fatty acids, total trans",g,--,--,0.000,0.000
"Cholesterol",mg,--,--,110,65
Amino Acids
Other
Ingredients
"SOCKEYE SALMON." Date available: 10/13/2017 Date last updated by company: 10/13/2017
