Source: USDA Branded Food Products Database Release December 2017 Software v.3.8.6.4 2017-10-02
Report Run at: December 19, 2017 04:16 EST
"Nutrient data for: 45255550, WILD ALASKA SNOW CRAB LEGS & CLAWS FULLY COOKED, UPC: 826504824689"
Food Group:  Branded Food Products Database
Common Name:

Nutrient,Unit,Data points,Std. Error,"6.0 ONZ = 170.0g",1Value per 100 g,
Proximates
"Energy",kcal,--,--,100,59
"Protein",g,--,--,19.99,11.76
"Total lipid (fat)",g,--,--,1.50,0.88
"Carbohydrate, by difference",g,--,--,0.00,0.00
"Fiber, total dietary",g,--,--,0.0,0.0
"Sugars, total",g,--,--,0.00,0.00
Minerals
"Calcium, Ca",mg,--,--,20,12
"Iron, Fe",mg,--,--,1.34,0.79
"Sodium, Na",mg,--,--,590,347
Vitamins
"Vitamin C, total ascorbic acid",mg,--,--,3.1,1.8
"Vitamin A, IU",IU,--,--,49,29
Lipids
"Fatty acids, total saturated",g,--,--,0.000,0.000
"Fatty acids, total trans",g,--,--,0.000,0.000
"Cholesterol",mg,--,--,60,35
Amino Acids
Other
Ingredients
"SNOW CRAB, SALT." Date available: 07/14/2017 Date last updated by company: 07/14/2017
