Source: USDA Branded Food Products Database Release December 2017 Software v.3.8.6.4 2017-10-02
Report Run at: December 19, 2017 04:42 EST
"Nutrient data for: 45156319, WILTON, CANDY NECKLACE KIT, UPC: 070896060709"
Food Group:  Branded Food Products Database
Common Name:

Nutrient,Unit,Data points,Std. Error,"1 NECKLACE = 29.0g",1Value per 100 g,
Proximates
"Energy",kcal,--,--,110,379
"Protein",g,--,--,0.00,0.00
"Total lipid (fat)",g,--,--,0.00,0.00
"Carbohydrate, by difference",g,--,--,28.00,96.55
"Sugars, total",g,--,--,24.00,82.76
Minerals
"Sodium, Na",mg,--,--,0,0
Vitamins
Lipids
Amino Acids
Other
Ingredients
"DEXTROSE, WATER, CORN SYRUP, MALTODEXTRIN, MAGNESIUM STEARATE, GUM ARABIC, GLYCEROL MONOSTEARATE, ARTIFICIAL FLAVOR, FD&C YELLOW #5, FD&C BLUE #1, FD&C RED #40, FD&C RED #3." Date available: 07/14/2017 Date last updated by company: 07/14/2017
