Source: USDA Branded Food Products Database Release December 2017 Software v.3.8.6.4 2017-10-02
Report Run at: December 19, 2017 04:46 EST
"Nutrient data for: 45175162, WILTON, ICING DECORATION, UPC: 070896160188"
Food Group:  Branded Food Products Database
Common Name:

Nutrient,Unit,Data points,Std. Error,"1 PIECE = 2.0g",1Value per 100 g,
Proximates
"Energy",kcal,--,--,10,500
"Protein",g,--,--,0.00,0.00
"Total lipid (fat)",g,--,--,0.00,0.00
"Carbohydrate, by difference",g,--,--,2.00,100.00
"Sugars, total",g,--,--,2.00,100.00
Minerals
"Sodium, Na",mg,--,--,0,0
Vitamins
Lipids
Amino Acids
Other
Ingredients
"SUGAR, CORN SYRUP, CORN STARCH, XANTHAN GUM, WATER, GUM ARABIC, MALTODEXTRIN, CREAM OF TARTAR, GELATIN, FD&C RED #40, FD&C RED #3, FD&C YELLOW #5, FD&C YELLOW #6, FD&C BLUE #1, TITANIUM DIOXIDE (COLOR)." Date available: 07/14/2017 Date last updated by company: 07/14/2017
