Source: USDA Branded Food Products Database Release December 2017 Software v.3.8.6.4 2017-10-02
Report Run at: December 19, 2017 04:43 EST
"Nutrient data for: 45175331, WILTON, DECORATING ICING, UPC: 070896375568"
Food Group:  Branded Food Products Database
Common Name:

Nutrient,Unit,Data points,Std. Error,"1 tsp = 6.0g",1Value per 100 g,
Proximates
"Energy",kcal,--,--,25,417
"Protein",g,--,--,0.00,0.00
"Total lipid (fat)",g,--,--,1.00,16.67
"Carbohydrate, by difference",g,--,--,4.00,66.67
"Sugars, total",g,--,--,4.00,66.67
Minerals
"Sodium, Na",mg,--,--,0,0
Vitamins
Lipids
Amino Acids
Other
Ingredients
"SUGAR, PARTIALLY HYDROGENATED VEGETABLE OIL (SOYBEAN AND COTTONSEED), WATER, CORN SYRUP, WHEAT STARCH, MONO AND DIGLYCERIDES, POTASSIUM SORBATE (PRESERVATIVE), POLYSORBATE 60, SALT, TITANIUM DIOXIDE (COLOR), CITRIC ACID, GLUCONO DELTA LACTONE, NATURAL AND ARTIFICIAL FLAVOR." Date available: 07/14/2017 Date last updated by company: 07/14/2017
