Source: USDA Branded Food Products Database Release December 2017 Software v.3.8.6.4 2017-10-02
Report Run at: December 19, 2017 04:46 EST
"Nutrient data for: 45011775, WILTON, ICING, UPC: 070896714046"
Food Group:  Branded Food Products Database
Common Name:

Nutrient,Unit,Data points,Std. Error,"1 tsp = 6.0g",1Value per 100 g,
Proximates
"Energy",kcal,--,--,25,417
"Protein",g,--,--,0.00,0.00
"Total lipid (fat)",g,--,--,1.00,16.67
"Carbohydrate, by difference",g,--,--,4.00,66.67
"Sugars, total",g,--,--,4.00,66.67
Minerals
"Sodium, Na",mg,--,--,5,83
Vitamins
Lipids
Amino Acids
Other
Ingredients
"CONFECTIONERS' SUGAR (SUGAR, CORN STARCH), PARTIALLY HYDROGENATED VEGETABLE OIL (SOYBEAN AND/OR COTTONSEED), WATER, CORN SYRUP, CONTAINS LESS THAN 2% OF WHEAT STARCH, MONO AND DIGLYCERIDES, SALT, SALT, SOY LECITHIN, TITANIUM DIOXIDE (COLOR), NATURAL AND ARTIFICIAL FLAVOR, CITRIC ACID, GLUCONO DELTA LACTONE, POTASSIUM SORBATE (PRESERVATIVE), PROPYLENE GLYCOL, FD&C BLUE #1, FD&C RED #3, FD&C YELLOW #5, FD&C YELLOW #6." Date available: 06/24/2017 Date last updated by company: 06/24/2017
