Source: USDA Branded Food Products Database Release December 2017 Software v.3.8.6.4 2017-10-02
Report Run at: December 19, 2017 04:49 EST
"Nutrient data for: 45097746, WINCO FOODS, CHILI SEASONING MIX, UPC: 070552901162"
Food Group:  Branded Food Products Database
Common Name:

Nutrient,Unit,Data points,Std. Error,"1 Tbsp = 7.0g",1Value per 100 g,
Proximates
"Energy",kcal,--,--,20,286
"Protein",g,--,--,1.00,14.29
"Total lipid (fat)",g,--,--,0.50,7.14
"Carbohydrate, by difference",g,--,--,4.00,57.14
"Fiber, total dietary",g,--,--,1.0,14.3
"Sugars, total",g,--,--,0.00,0.00
Minerals
"Calcium, Ca",mg,--,--,20,286
"Iron, Fe",mg,--,--,5.14,73.47
"Sodium, Na",mg,--,--,340,4857
Vitamins
"Vitamin C, total ascorbic acid",mg,--,--,8.6,122.5
"Vitamin A, IU",IU,--,--,8928,127550
Lipids
"Fatty acids, total saturated",g,--,--,0.000,0.000
"Fatty acids, total trans",g,--,--,0.000,0.000
"Cholesterol",mg,--,--,0,0
Amino Acids
Other
Ingredients
"CHILI PEPPERS AND OTHER SPICES AND COLOR , WHOLE WHEAT FLOUR , SALT, MODIFIED CORN STARCH , DEHYDRATED GARLIC." Date available: 06/25/2017 Date last updated by company: 06/25/2017
