Source: USDA Branded Food Products Database Release December 2017 Software v.3.8.6.4 2017-10-02
Report Run at: December 19, 2017 04:56 EST
"Nutrient data for: 45031460, WIND & WILLOW, WARM APPLE CRISP DESSERT MIX, UPC: 609019240027"
Food Group:  Branded Food Products Database
Common Name:

Nutrient,Unit,Data points,Std. Error,"0.25 cup = 36.0g",1Value per 100 g,
Proximates
"Energy",kcal,--,--,140,389
"Protein",g,--,--,1.00,2.78
"Total lipid (fat)",g,--,--,1.00,2.78
"Carbohydrate, by difference",g,--,--,30.00,83.33
"Fiber, total dietary",g,--,--,1.0,2.8
"Sugars, total",g,--,--,20.00,55.56
Minerals
"Calcium, Ca",mg,--,--,0,0
"Iron, Fe",mg,--,--,0.40,1.11
"Sodium, Na",mg,--,--,30,83
Vitamins
"Vitamin C, total ascorbic acid",mg,--,--,0.0,0.0
"Vitamin A, IU",IU,--,--,0,0
Lipids
"Fatty acids, total saturated",g,--,--,0.202,0.560
"Fatty acids, total trans",g,--,--,0.000,0.000
"Cholesterol",mg,--,--,0,0
Amino Acids
Other
Ingredients
"APPLE MIX: SUGAR, MODIFIED CORN STARCH, RICE FLOUR, SALT, SPICES. APPLE CRISP TOPPING: BROWN SUGAR, ROLLED OATS, RICE FLOUR, SPICES" Date available: 06/24/2017 Date last updated by company: 06/24/2017
