Source: USDA Branded Food Products Database Release December 2017 Software v.3.8.6.4 2017-10-02
Report Run at: December 19, 2017 04:58 EST
"Nutrient data for: 45219942, WING SAUCE, UPC: 085239046609"
Food Group:  Branded Food Products Database
Common Name:

Nutrient,Unit,Data points,Std. Error,"2.0 Tbsp = 26.0g",1Value per 100 g,
Proximates
"Energy",kcal,--,--,10,38
"Protein",g,--,--,0.00,0.00
"Total lipid (fat)",g,--,--,0.00,0.00
"Carbohydrate, by difference",g,--,--,2.00,7.69
"Fiber, total dietary",g,--,--,0.0,0.0
"Sugars, total",g,--,--,2.00,7.69
Minerals
"Calcium, Ca",mg,--,--,0,0
"Iron, Fe",mg,--,--,0.00,0.00
"Sodium, Na",mg,--,--,115,442
Vitamins
"Vitamin C, total ascorbic acid",mg,--,--,8.1,31.2
"Vitamin A, IU",IU,--,--,507,1950
Lipids
"Fatty acids, total saturated",g,--,--,0.000,0.000
"Fatty acids, total trans",g,--,--,0.000,0.000
"Cholesterol",mg,--,--,0,0
Amino Acids
Other
Ingredients
"WATER, MANGOS, CHAMPAGNE VINEGAR, CHILE GARLIC SAUCE (CHILE PEPPERS, DISTILLED VINEGAR, GARLIC), SUGAR, SALT, JALAPENO PEPPERS, XANTHAN GUM, CHIPOTLE PEPPERS, SPICES, CITRIC ACID." Date available: 07/14/2017 Date last updated by company: 07/14/2017
