Source: USDA Branded Food Products Database Release December 2017 Software v.3.8.6.4 2017-10-02
Report Run at: December 19, 2017 04:58 EST
"Nutrient data for: 45230446, WING SAUCE, UPC: 725439990417"
Food Group:  Branded Food Products Database
Common Name:

Nutrient,Unit,Data points,Std. Error,"2.0 Tbsp = 35.0g",1Value per 100 g,
Proximates
"Energy",kcal,--,--,70,200
"Protein",g,--,--,0.00,0.00
"Total lipid (fat)",g,--,--,0.00,0.00
"Carbohydrate, by difference",g,--,--,16.00,45.71
"Fiber, total dietary",g,--,--,0.2,0.7
"Sugars, total",g,--,--,14.00,40.00
Minerals
"Calcium, Ca",mg,--,--,0,0
"Iron, Fe",mg,--,--,0.00,0.00
"Sodium, Na",mg,--,--,180,514
Vitamins
"Vitamin C, total ascorbic acid",mg,--,--,4.1,11.6
"Vitamin A, IU",IU,--,--,338,966
Lipids
"Fatty acids, total saturated",g,--,--,0.000,0.000
"Cholesterol",mg,--,--,0,0
Amino Acids
Other
Ingredients
"CANE SUGAR, WATER, CAYENNE PEPPER SAUCE (AGED CAYENNE PEPPER, DISTILLED VINEGAR, SALT, GARLIC), VINEGAR (DISTILLED, APPLE CIDER), MANGO PUREE, CORN STARCH, MOLASSES, HABANERO CHILI POWDER, CANOLA OR SOYBEAN OIL, ANCHO CHILI POWDER, GARLIC." Date available: 07/14/2017 Date last updated by company: 07/14/2017
