Source: USDA Branded Food Products Database Release December 2017 Software v.3.8.6.4 2017-10-02
Report Run at: December 19, 2017 04:57 EST
"Nutrient data for: 45043734, WING SAUCE, UPC: 075500041037"
Food Group:  Branded Food Products Database
Common Name:

Nutrient,Unit,Data points,Std. Error,"2.0 Tbsp = 35.0g",1Value per 100 g,
Proximates
"Energy",kcal,--,--,90,257
"Protein",g,--,--,1.00,2.86
"Total lipid (fat)",g,--,--,8.00,22.86
"Carbohydrate, by difference",g,--,--,4.00,11.43
"Fiber, total dietary",g,--,--,2.0,5.7
"Sugars, total",g,--,--,0.00,0.00
Minerals
"Calcium, Ca",mg,--,--,20,57
"Iron, Fe",mg,--,--,1.22,3.48
"Sodium, Na",mg,--,--,590,1686
Vitamins
"Vitamin C, total ascorbic acid",mg,--,--,10.2,29.0
"Vitamin A, IU",IU,--,--,5917,16907
Lipids
"Fatty acids, total saturated",g,--,--,1.502,4.290
"Fatty acids, total trans",g,--,--,0.000,0.000
Amino Acids
Other
Ingredients
"PEPPERS, VINEGAR, SALT, XANTHAN GUM AND BENZOATE OF SODA (TO PRESERVE FRESHNESS AND FLAVOR), MARGARINE (LIQUID AND PARTIALLY HYDROGENATED SOYBEAN OIL, WATER, SALT, VEGETABLE MONO AND DIGLYCERIDES, WHEY, SOY LECITHIN, BENZOATE OF SODA [A PRESERVATIVE], CITRIC ACID {TO PROTECT FLAVOR}, ARTIFICIAL FLAVOR, BETA CAROTENE [COLOR], VITAMIN A PALMITATE ADDED)." Date available: 06/24/2017 Date last updated by company: 06/24/2017
