Source: USDA Branded Food Products Database Release December 2017 Software v.3.8.6.4 2017-10-02
Report Run at: December 19, 2017 04:59 EST
"Nutrient data for: 45181646, WINN DIXIE, BLACK FOREST HAM, UPC: 02114002613"
Food Group:  Branded Food Products Database
Common Name:

Nutrient,Unit,Data points,Std. Error,"2.0 ONZ = 56.0g",1Value per 100 g,
Proximates
"Energy",kcal,--,--,60,107
"Protein",g,--,--,9.00,16.07
"Total lipid (fat)",g,--,--,1.50,2.68
"Carbohydrate, by difference",g,--,--,2.00,3.57
"Fiber, total dietary",g,--,--,0.0,0.0
"Sugars, total",g,--,--,1.00,1.79
Minerals
"Calcium, Ca",mg,--,--,0,0
"Iron, Fe",mg,--,--,0.35,0.63
"Sodium, Na",mg,--,--,590,1054
Vitamins
"Vitamin C, total ascorbic acid",mg,--,--,0.0,0.0
"Vitamin A, IU",IU,--,--,0,0
Lipids
"Fatty acids, total saturated",g,--,--,0.498,0.890
"Fatty acids, total trans",g,--,--,0.000,0.000
"Cholesterol",mg,--,--,20,36
Amino Acids
Other
Ingredients
"CURED WITH: WATER, DEXTROSE, SALT, CONTAINS 2% OR LESS OF: POTASSIUM LACTATE, SODIUM DIACETATE, SODIUM PHOSPHATES, SODIUM ERYTHORBATE, SODIUM NITRITE, COATED WITH CARAMEL COLOR." Date available: 07/14/2017 Date last updated by company: 07/14/2017
