Source: USDA Branded Food Products Database Release December 2017 Software v.3.8.6.4 2017-10-02
Report Run at: December 19, 2017 05:06 EST
"Nutrient data for: 45002257, WINTER BLEND BROCCOLI AND CAULIFLOWER, UPC: 011150548953"
Food Group:  Branded Food Products Database
Common Name:

Nutrient,Unit,Data points,Std. Error,"1 cup = 90.0g",1Value per 100 g,
Proximates
"Energy",kcal,--,--,25,28
"Protein",g,--,--,1.00,1.11
"Total lipid (fat)",g,--,--,0.00,0.00
"Carbohydrate, by difference",g,--,--,4.00,4.44
"Fiber, total dietary",g,--,--,2.0,2.2
"Sugars, total",g,--,--,2.00,2.22
Minerals
"Calcium, Ca",mg,--,--,20,22
"Iron, Fe",mg,--,--,0.00,0.00
"Sodium, Na",mg,--,--,20,22
Vitamins
"Vitamin C, total ascorbic acid",mg,--,--,25.5,28.3
"Vitamin A, IU",IU,--,--,189,210
Lipids
"Fatty acids, total saturated",g,--,--,0.000,0.000
"Fatty acids, total trans",g,--,--,0.000,0.000
"Cholesterol",mg,--,--,0,0
Amino Acids
Other
Ingredients
"BROCCOLI, CAULIFLOWER." Date available: 06/25/2017 Date last updated by company: 06/25/2017
