Source: USDA Branded Food Products Database Release December 2017 Software v.3.8.6.4 2017-10-02
Report Run at: December 19, 2017 05:07 EST
"Nutrient data for: 45171054, WINTER WONDERLAND, CUP CAKES, BUTTERCREME ICING, UPC: 010995300047"
Food Group:  Branded Food Products Database
Common Name:

Nutrient,Unit,Data points,Std. Error,"3.0 CUPCAKES = 71.0g",1Value per 100 g,
Proximates
"Energy",kcal,--,--,270,380
"Protein",g,--,--,2.00,2.82
"Total lipid (fat)",g,--,--,11.00,15.49
"Carbohydrate, by difference",g,--,--,42.00,59.15
"Fiber, total dietary",g,--,--,0.0,0.0
"Sugars, total",g,--,--,30.00,42.25
Minerals
"Calcium, Ca",mg,--,--,0,0
"Iron, Fe",mg,--,--,0.81,1.14
"Sodium, Na",mg,--,--,220,310
Vitamins
"Vitamin C, total ascorbic acid",mg,--,--,0.0,0.0
"Vitamin A, IU",IU,--,--,0,0
Lipids
"Fatty acids, total saturated",g,--,--,3.997,5.630
"Fatty acids, total trans",g,--,--,0.000,0.000
"Cholesterol",mg,--,--,20,28
Amino Acids
Other
Ingredients
"SUGAR, WATER, BLEACHED ENRICHED WHEAT FLOUR (FLOUR, NIACIN, REDUCED IRON, THIAMINE MONONITRATE, RIBOFLAVIN, FOLIC ACID), VEGETABLE OIL (PALM, SOYBEAN, PALM KERNEL, CANOLA), CORNSTARCH, EGGS, FOOD STARCH-MODIFIED, LEAVENING (SODIUM ACID PYROPHOSPHATE, BAKING SODA, MONOCALCIUM PHOSPHATE, SODIUM ALUMINUM PHOSPHATE, ALUMINUM SULFATE), CORN SYRUP, NONFAT MILK, EGG WHITES, MONO- AND DIGLYCERIDES, SALT, WHEY (MILK), WHEAT STARCH, SOY LECITHIN, HYDROGENATED PALM KERNEL OIL, GUAR GUM, POLYGLYCEROL ESTERS OF FATTY ACIDS, POLYSORBATE 60, POTASSIUM SORBATE (PRESERVATIVE), GLYCERIN, SODIUM STEAROYL LACTYLATE, WHEAT PROTEIN, NATURAL & ARTIFICIAL FLAVORS, DATEM, CALCIUM STEAROYL-2-LACTYLATE, XANTHAN GUM, SODIUM CARBOXYMETHYLCELLULOSE, METHYLCELLULOSE, YELLOW 5, BLUE 1, GUM ARABIC, CONFECTIONER'S GLAZE, DEXTRIN, BLUE 1 LAKE, CARNAUBA WAX." Date available: 07/14/2017 Date last updated by company: 07/14/2017
