Source: USDA Branded Food Products Database Release December 2017 Software v.3.8.6.4 2017-10-02
Report Run at: December 19, 2017 05:10 EST
"Nutrient data for: 45044945, WISE, RIDGIES POTATO CHIPS, DILI PICKLE, UPC: 041262278318"
Food Group:  Branded Food Products Database
Common Name:

Nutrient,Unit,Data points,Std. Error,"13.0 CHIPS = 28.0g",1Value per 100 g,
Proximates
"Energy",kcal,--,--,150,536
"Protein",g,--,--,1.00,3.57
"Total lipid (fat)",g,--,--,9.00,32.14
"Carbohydrate, by difference",g,--,--,17.00,60.71
"Fiber, total dietary",g,--,--,1.0,3.6
"Sugars, total",g,--,--,1.00,3.57
Minerals
"Calcium, Ca",mg,--,--,0,0
"Iron, Fe",mg,--,--,0.64,2.29
"Sodium, Na",mg,--,--,220,786
Vitamins
"Vitamin C, total ascorbic acid",mg,--,--,10.7,38.3
"Vitamin A, IU",IU,--,--,0,0
Lipids
"Fatty acids, total saturated",g,--,--,2.500,8.930
"Fatty acids, total trans",g,--,--,0.000,0.000
"Cholesterol",mg,--,--,0,0
Amino Acids
Other
Ingredients
"POTATOES, VEGETABLE OIL (CONTAINS ONE OR MORE OF THE FOLLOWING: CORN, COTTONSEED, SUNFLOWER, SOYBEAN OR CANOLA OIL), SUGAR, SALT, SODIUM DIACETATE, MALTODEXTRIN, VINEGAR POWDER (MALTODEXTRIN, MODIFIED CORN STARCH, VINEGAR), WHEY POWDER, GARLIC POWDER, ONION POWDER, DEHYDRATED DILL, NATURAL FLAVOR, DISODIUM INOSINATE AND DISODIUM GUANYLATE." Date available: 07/14/2017 Date last updated by company: 07/14/2017
