Source: USDA Branded Food Products Database Release December 2017 Software v.3.8.6.4 2017-10-02
Report Run at: December 19, 2017 05:10 EST
"Nutrient data for: 45138545, WISH-BONE, BRUSCHETTA ITALIAN DRESSING, UPC: 041321130489"
Food Group:  Branded Food Products Database
Common Name:

Nutrient,Unit,Data points,Std. Error,"2.0 Tbsp = 30.0g",1Value per 100 g,
Proximates
"Energy",kcal,--,--,60,200
"Protein",g,--,--,0.00,0.00
"Total lipid (fat)",g,--,--,5.00,16.67
"Carbohydrate, by difference",g,--,--,4.00,13.33
"Fiber, total dietary",g,--,--,0.0,0.0
"Sugars, total",g,--,--,3.00,10.00
Minerals
"Calcium, Ca",mg,--,--,0,0
"Iron, Fe",mg,--,--,0.00,0.00
"Sodium, Na",mg,--,--,340,1133
Vitamins
"Vitamin C, total ascorbic acid",mg,--,--,0.0,0.0
"Vitamin A, IU",IU,--,--,0,0
Lipids
"Fatty acids, total saturated",g,--,--,0.999,3.330
"Fatty acids, total monounsaturated",g,--,--,1.500,5.000
"Fatty acids, total polyunsaturated",g,--,--,3.000,10.000
"Fatty acids, total trans",g,--,--,0.000,0.000
"Cholesterol",mg,--,--,0,0
Amino Acids
Other
Ingredients
"WATER, SOYBEAN OIL, SUGAR, DISTILLED VINEGAR, SALT, ONION*, TOMATO*, CONTAINS 2% OR LESS OF EACH OF THE FOLLOWING: EXTRA VIRGIN OLIVE OIL, LEMON JUICE CONCENTRATE, XANTHAN GUM, YEAST EXTRACT, PHOSPHORIC ACID, GARLIC*, MALTODEXTRIN (CORN), SORBIC ACID AND CALCIUM DISODIUM EDTA (USED TO PROTECT QUALITY), BASIL, NATURAL FLAVOR, PARSLEY*, SOYBEAN LECITHIN, RED 40 AND ANNATTO EXTRACT (FOR COLOR)." Date available: 06/25/2017 Date last updated by company: 06/25/2017
