Source: USDA Branded Food Products Database Release December 2017 Software v.3.8.6.4 2017-10-02
Report Run at: December 19, 2017 05:13 EST
"Nutrient data for: 45235137, WISH-BONE, LIGHT DRESSING, ITALIAN, UPC: 041000006821"
Food Group:  Branded Food Products Database
Common Name:

Nutrient,Unit,Data points,Std. Error,"2.0 Tbsp = 30.0g",1Value per 100 g,
Proximates
"Energy",kcal,--,--,35,117
"Protein",g,--,--,0.00,0.00
"Total lipid (fat)",g,--,--,2.50,8.33
"Carbohydrate, by difference",g,--,--,3.00,10.00
"Fiber, total dietary",g,--,--,0.0,0.0
"Sugars, total",g,--,--,2.00,6.67
Minerals
"Calcium, Ca",mg,--,--,0,0
"Iron, Fe",mg,--,--,0.00,0.00
"Sodium, Na",mg,--,--,340,1133
Vitamins
"Vitamin C, total ascorbic acid",mg,--,--,0.0,0.0
"Vitamin A, IU",IU,--,--,0,0
Lipids
"Fatty acids, total saturated",g,--,--,0.000,0.000
"Fatty acids, total monounsaturated",g,--,--,0.501,1.670
"Fatty acids, total polyunsaturated",g,--,--,1.500,5.000
"Fatty acids, total trans",g,--,--,0.000,0.000
"Cholesterol",mg,--,--,0,0
Amino Acids
Other
Ingredients
"WATER, DISTILLED VINEGAR, SOYBEAN OIL, SUGAR, SALT, CONTAINS 2% OR LESS OF EACH OF THE FOLLOWING: GARLIC*, ONION*, RED BELL PEPPERS*, XANTHAN GUM, SPICES, SORBIC ACID AND CALCIUM DISODIUM EDTA (USED TO PROTECT QUALITY), DL ALPHA TOCOPHERYL ACETATE (VITAMIN E), REB A (PURIFIED STEVIA EXTRACT), LEMON JUICE CONCENTRATE, CARAMEL COLOR, MALTODEXTRIN (CORN), MODIFIED CORN STARCH." Date available: 07/14/2017 Date last updated by company: 07/14/2017
