Source: USDA Branded Food Products Database Release December 2017 Software v.3.8.6.4 2017-10-02
Report Run at: December 19, 2017 05:15 EST
"Nutrient data for: 45232515, WISH BONE, VINAIGRETTE DRESSING, GREEK, UPC: 041000130519"
Food Group:  Branded Food Products Database
Common Name:

Nutrient,Unit,Data points,Std. Error,"2.0 Tbsp = 30.0g",1Value per 100 g,
Proximates
"Energy",kcal,--,--,60,200
"Protein",g,--,--,0.00,0.00
"Total lipid (fat)",g,--,--,5.00,16.67
"Carbohydrate, by difference",g,--,--,3.00,10.00
"Fiber, total dietary",g,--,--,0.0,0.0
"Sugars, total",g,--,--,2.00,6.67
Minerals
"Calcium, Ca",mg,--,--,0,0
"Iron, Fe",mg,--,--,0.00,0.00
"Sodium, Na",mg,--,--,290,967
Vitamins
"Vitamin C, total ascorbic acid",mg,--,--,0.0,0.0
"Vitamin A, IU",IU,--,--,0,0
Lipids
"Fatty acids, total saturated",g,--,--,0.999,3.330
"Fatty acids, total monounsaturated",g,--,--,1.500,5.000
"Fatty acids, total polyunsaturated",g,--,--,3.000,10.000
"Fatty acids, total trans",g,--,--,0.000,0.000
"Cholesterol",mg,--,--,0,0
Amino Acids
Other
Ingredients
"WATER, SOYBEAN OIL, RED WINE VINEGAR, SUGAR, FETA CHEESE (MILK AND SKIM MILK, CHEESE CULTURES, SALT, ENZYMES), SALT. CONTAINS 2% OR LESS OF EACH OF THE FOLLOWING: BLACK OLIVES (OLIVES, FERROUS GLUCONATE), EXTRA VIRGIN OLIVE OIL, MALTODEXTRIN (CORN), ONION*, GARLIC*, XANTHAN GUM, GARLIC POWDER, SPICES, PHOSPHORIC ACID, LEMON JUICE FROM CONCENTRATE, POTASSIUM SORBATE, SODIUM BENZOATE AND CALCIUM DISODIUM EDTA (USED TO PROTECT QUALITY), NATURAL FLAVORS, ANNATTO EXTRACT (COLOR)." Date available: 06/25/2017 Date last updated by company: 06/25/2017
