Source: USDA Branded Food Products Database Release December 2017 Software v.3.8.6.4 2017-10-02
Report Run at: December 19, 2017 05:12 EST
"Nutrient data for: 45138398, WISH-BONE, ITALIAN DRESSING, UPC: 041321006104"
Food Group:  Branded Food Products Database
Common Name:

Nutrient,Unit,Data points,Std. Error,"2.0 Tbsp = 30.0g",1Value per 100 g,
Proximates
"Energy",kcal,--,--,80,267
"Protein",g,--,--,0.00,0.00
"Total lipid (fat)",g,--,--,7.00,23.33
"Carbohydrate, by difference",g,--,--,4.00,13.33
"Fiber, total dietary",g,--,--,0.0,0.0
"Sugars, total",g,--,--,3.00,10.00
Minerals
"Calcium, Ca",mg,--,--,0,0
"Iron, Fe",mg,--,--,0.00,0.00
"Sodium, Na",mg,--,--,320,1067
Vitamins
"Vitamin C, total ascorbic acid",mg,--,--,6.0,20.0
"Vitamin A, IU",IU,--,--,0,0
Lipids
"Fatty acids, total saturated",g,--,--,0.999,3.330
"Fatty acids, total monounsaturated",g,--,--,1.500,5.000
"Fatty acids, total polyunsaturated",g,--,--,3.999,13.330
"Fatty acids, total trans",g,--,--,0.000,0.000
"Cholesterol",mg,--,--,0,0
Amino Acids
Other
Ingredients
"WATER, SOYBEAN OIL, DISTILLED VINEGAR, SUGAR, SALT, CONTAINS 2% OR LESS OF: GARLIC*, ONION*, RED BELL PEPPERS*, XANTHAN GUM, MALTODEXTRIN (CORN), SPICES, AUTOLYZED YEAST EXTRACT, CALCIUM DISODIUM EDATA (USED TO PROTECT QUALITY), NATURAL FLAVOR, LEMON JUICE CONCENTRATE, CARAMEL COLOR, ANNATTO EXTRACT (COLOR)." Date available: 07/14/2017 Date last updated by company: 07/14/2017
