Source: USDA Branded Food Products Database Release December 2017 Software v.3.8.6.4 2017-10-02
Report Run at: December 19, 2017 05:10 EST
"Nutrient data for: 45206217, WISHAM JELLIES, JELLY, PINEAPPLE, PEPPER, UPC: 861454000127"
Food Group:  Branded Food Products Database
Common Name:

Nutrient,Unit,Data points,Std. Error,"1 Tbsp = 15.0g",1Value per 100 g,
Proximates
"Energy",kcal,--,--,40,267
"Protein",g,--,--,0.00,0.00
"Total lipid (fat)",g,--,--,0.00,0.00
"Carbohydrate, by difference",g,--,--,10.00,66.67
"Sugars, total",g,--,--,9.00,60.00
Minerals
"Sodium, Na",mg,--,--,5,33
Vitamins
"Vitamin C, total ascorbic acid",mg,--,--,4.0,27.0
Lipids
Amino Acids
Other
Ingredients
"SUGAR, PINEAPPLE (PINEAPPLE, PINEAPPLE JUICE), APPLE CIDER VINEGAR, JALAPENO PEPPERS, PECTIN (DEXTROSE, PECTIN, AND FUMARIC ACID), HABANERO PEPPERS." Date available: 07/14/2017 Date last updated by company: 07/14/2017
