Source: USDA Branded Food Products Database Release December 2017 Software v.3.8.6.4 2017-10-02
Report Run at: December 19, 2017 05:15 EST
"Nutrient data for: 45138473, WISH-BONE, SPICY CAESAR DRESSING, UPC: 041321360039"
Food Group:  Branded Food Products Database
Common Name:

Nutrient,Unit,Data points,Std. Error,"2.0 Tbsp = 30.0g",1Value per 100 g,
Proximates
"Energy",kcal,--,--,100,333
"Protein",g,--,--,1.00,3.33
"Total lipid (fat)",g,--,--,9.00,30.00
"Carbohydrate, by difference",g,--,--,2.00,6.67
"Fiber, total dietary",g,--,--,0.0,0.0
"Sugars, total",g,--,--,2.00,6.67
Minerals
"Calcium, Ca",mg,--,--,0,0
"Iron, Fe",mg,--,--,0.00,0.00
"Sodium, Na",mg,--,--,230,767
Vitamins
"Vitamin C, total ascorbic acid",mg,--,--,0.0,0.0
"Vitamin A, IU",IU,--,--,0,0
Lipids
"Fatty acids, total saturated",g,--,--,1.500,5.000
"Fatty acids, total monounsaturated",g,--,--,2.001,6.670
"Fatty acids, total polyunsaturated",g,--,--,5.001,16.670
"Fatty acids, total trans",g,--,--,0.000,0.000
"Cholesterol",mg,--,--,5,17
Amino Acids
Other
Ingredients
"WATER, SOYBEAN OIL, DISTILLED VINEGAR, SUGAR, ROMANO CHEESE (PASTEURIZED MILK, CHEESE CULTURES, SALT, ENZYMES), CONTAINS 2% OR LESS OF EACH OF THE FOLLOWING: SALT, CHEDDAR AND ROMANO CHEESE (MILK, STARTER CULTURE, SALT, ENZYMES), MODIFIED CORN STARCH, DRIED EGG YOLK, GARLIC POWDER, SPICES, XANTHAN GUM, MONOSODIUM GLUTAMATE, SORBIC ACID AND CALCIUM DISODIUM EDTA (USED TO PROTECT QUALITY), MUSTARD FLOUR, PHOSPHORIC ACID, LEMON JUICE CONCENTRATE. WHEY (MILK), AUTOLYZED YEAST EXTRACT, NATURAL FLAVOR, CARAMEL COLOR, DISODIUM GUANYLATE, DISODIUM INOSINATE." Date available: 07/14/2017 Date last updated by company: 07/14/2017
