Source: USDA Branded Food Products Database Release December 2017 Software v.3.8.6.4 2017-10-02
Report Run at: December 19, 2017 05:16 EST
"Nutrient data for: 45209764, WITHE SOURDOUGH BREADS, UPC: 709275481605"
Food Group:  Branded Food Products Database
Common Name:

Nutrient,Unit,Data points,Std. Error,"1 SLICE = 38.0g",1Value per 100 g,
Proximates
"Energy",kcal,--,--,90,237
"Protein",g,--,--,4.00,10.53
"Total lipid (fat)",g,--,--,0.00,0.00
"Carbohydrate, by difference",g,--,--,18.00,47.37
"Fiber, total dietary",g,--,--,1.0,2.6
"Sugars, total",g,--,--,0.00,0.00
Minerals
"Calcium, Ca",mg,--,--,20,53
"Iron, Fe",mg,--,--,0.95,2.49
"Sodium, Na",mg,--,--,170,447
Vitamins
"Vitamin C, total ascorbic acid",mg,--,--,0.0,0.0
"Vitamin A, IU",IU,--,--,0,0
Lipids
"Fatty acids, total saturated",g,--,--,0.000,0.000
"Fatty acids, total monounsaturated",g,--,--,0.000,0.000
"Fatty acids, total polyunsaturated",g,--,--,0.000,0.000
"Fatty acids, total trans",g,--,--,0.000,0.000
"Cholesterol",mg,--,--,0,0
Amino Acids
Other
Ingredients
"ENRICHED FLOUR (WHEAT FLOUR, MALTED BARLEY FLOUR, NIACIN, REDUCED IRON, THIAMIN MONONITRATE, RIBOFLAVIN, FOLIC ACID), WATER, YEAST, WHEAT GLUTEN, CONTAINS 2% OR LESS OF: WHEAT FLOUR, SALT, FERMENTED RYE FLOUR, FERMENTED WHEAT FLOUR, SUGAR, CULTURED WHEAT STARCH, ENZYMES, ASCORBIC ACID, SOY LECITHIN (EMULSIFIER)." Date available: 07/14/2017 Date last updated by company: 07/14/2017
