Source: USDA Branded Food Products Database Release December 2017 Software v.3.8.6.4 2017-10-02
Report Run at: December 19, 2017 05:16 EST
"Nutrient data for: 45104037, WL, CORN BITS, CORN SNACKS, CHICKEN, UPC: 4806511010042"
Food Group:  Branded Food Products Database
Common Name:

Nutrient,Unit,Data points,Std. Error,"0.33 cup = 29.0g",1Value per 100 g,
Proximates
"Energy",kcal,--,--,130,448
"Protein",g,--,--,3.00,10.34
"Total lipid (fat)",g,--,--,5.00,17.24
"Carbohydrate, by difference",g,--,--,19.00,65.52
"Sugars, total",g,--,--,2.00,6.90
Minerals
"Iron, Fe",mg,--,--,0.62,2.14
"Sodium, Na",mg,--,--,130,448
Vitamins
"Vitamin C, total ascorbic acid",mg,--,--,2.1,7.1
"Vitamin A, IU",IU,--,--,345,1190
Lipids
"Fatty acids, total saturated",g,--,--,2.500,8.620
Amino Acids
Other
Ingredients
"CORN, COCONUT OIL, CHICKEN FLAVOR, IODIZED SALT, MSG, BLACK PEPPER, SOY POWDER & HYDROLYZED VEGETABLE PROTEIN." Date available: 06/25/2017 Date last updated by company: 06/25/2017
