Source: USDA Branded Food Products Database Release December 2017 Software v.3.8.6.4 2017-10-02
Report Run at: December 19, 2017 05:18 EST
"Nutrient data for: 45234898, WOEBER'S, SUPREME DIPS, SWEET & TANGY, UPC: 074680003866"
Food Group:  Branded Food Products Database
Common Name:

Nutrient,Unit,Data points,Std. Error,"2.0 Tbsp = 30.0g",1Value per 100 g,
Proximates
"Energy",kcal,--,--,120,400
"Protein",g,--,--,1.00,3.33
"Total lipid (fat)",g,--,--,10.00,33.33
"Carbohydrate, by difference",g,--,--,7.00,23.33
"Fiber, total dietary",g,--,--,0.0,0.0
"Sugars, total",g,--,--,5.00,16.67
Minerals
"Calcium, Ca",mg,--,--,0,0
"Iron, Fe",mg,--,--,0.00,0.00
"Sodium, Na",mg,--,--,240,800
Vitamins
"Vitamin C, total ascorbic acid",mg,--,--,3.6,12.0
"Vitamin A, IU",IU,--,--,200,667
Lipids
"Fatty acids, total saturated",g,--,--,2.001,6.670
"Fatty acids, total trans",g,--,--,0.000,0.000
"Cholesterol",mg,--,--,10,33
Amino Acids
Other
Ingredients
"SOYBEAN OIL, WATER, HIGH FRUCTOSE CORN SYRUP, DISTILLED VINEGAR, CORN SYRUP, EGG YOLKS, MODIFIED CORN STARCH, SALT, HORSERADISH, SUGAR, MALTODEXTRIN, SPICES AND FLAVORINGS, CITRIC ACID, ARTIFICIAL FLAVORINGS, XANTHAN GUM, SODIUM DIACETATE, MALT VINEGAR POWDER, APPLE CIDER VINEGAR POWDER, POTASSIUM SORBATE AND SODIUM BENZOATE (AS PRESERVATIVES), EXTRACTIVES OF PAPRIKA, ASCORBIC ACID, LACTIC ACID, AND CALCIUM DISODIUM EDTA ADDED TO PROTECT FLAVOR." Date available: 06/24/2017 Date last updated by company: 06/24/2017
