Source: USDA Branded Food Products Database Release December 2017 Software v.3.8.6.4 2017-10-02
Report Run at: December 19, 2017 05:19 EST
"Nutrient data for: 45312019, WOLF, CHILI WITH BEANS, UPC: 014900022703"
Food Group:  Branded Food Products Database
Common Name:

Nutrient,Unit,Data points,Std. Error,"1 cup = 254.0g",1Value per 100 g,
Proximates
"Energy",kcal,--,--,351,138
"Protein",g,--,--,16.99,6.69
"Total lipid (fat)",g,--,--,18.01,7.09
"Carbohydrate, by difference",g,--,--,27.99,11.02
"Fiber, total dietary",g,--,--,7.9,3.1
"Sugars, total",g,--,--,3.00,1.18
Minerals
"Calcium, Ca",mg,--,--,79,31
"Iron, Fe",mg,--,--,3.81,1.50
"Magnesium, Mg",mg,--,--,84,33
"Phosphorus, P",mg,--,--,264,104
"Potassium, K",mg,--,--,701,276
"Sodium, Na",mg,--,--,919,362
"Zinc, Zn",mg,--,--,2.26,0.89
"Manganese, Mn",mg,--,--,0.000,0.000
Vitamins
"Vitamin C, total ascorbic acid",mg,--,--,3.8,1.5
"Vitamin A, IU",IU,--,--,1321,520
Lipids
"Fatty acids, total saturated",g,--,--,7.010,2.760
"Fatty acids, total trans",g,--,--,0.508,0.200
"Cholesterol",mg,--,--,41,16
Amino Acids
Other
Ingredients
"MEAT INGREDIENTS (BEEF AND PORK), WATER, PREPARED PINTO BEANS, BEEF BROTH, TOMATO PUREE (WATER, TOMATO PASTE), ROLLED OATS, CHILI PEPPER, CONTAINS LESS THAN 2% OF: MODIFIED CORN STARCH, TEXTURED SOY FLOUR, CORN STARCH, SALT, SUGAR, SPICES, GARLIC POWDER, SOY LECITHIN, CARAMEL COLOR, SODIUM PHOSPHATE." Date available: 06/25/2017 Date last updated by company: 06/25/2017
