Source: USDA Branded Food Products Database Release December 2017 Software v.3.8.6.4 2017-10-02
Report Run at: December 19, 2017 05:19 EST
"Nutrient data for: 45040579, WOLFF'S, KASHA PURE ROASTED WHOLE GRAIN BUCKWHEAT, UPC: 070577000390"
Food Group:  Branded Food Products Database
Common Name:

Nutrient,Unit,Data points,Std. Error,"0.25 cup = 45.0g",1Value per 100 g,
Proximates
"Energy",kcal,--,--,170,378
"Protein",g,--,--,6.00,13.33
"Total lipid (fat)",g,--,--,1.00,2.22
"Carbohydrate, by difference",g,--,--,35.00,77.78
"Fiber, total dietary",g,--,--,2.0,4.4
"Sugars, total",g,--,--,0.00,0.00
Minerals
"Calcium, Ca",mg,--,--,0,0
"Iron, Fe",mg,--,--,1.44,3.20
"Phosphorus, P",mg,--,--,200,444
"Potassium, K",mg,--,--,220,489
"Sodium, Na",mg,--,--,10,22
Vitamins
"Vitamin C, total ascorbic acid",mg,--,--,0.0,0.0
"Vitamin A, IU",IU,--,--,0,0
Lipids
"Fatty acids, total saturated",g,--,--,0.000,0.000
"Fatty acids, total trans",g,--,--,0.000,0.000
"Cholesterol",mg,--,--,0,0
Amino Acids
Other
Ingredients
"100% PURE BUCKWHEAT - CONTAINS NO ADDITIVES, FROM FORTIFIERS, OR PRESERVATIVES." Date available: 07/14/2017 Date last updated by company: 07/14/2017
