Source: USDA Branded Food Products Database Release December 2017 Software v.3.8.6.4 2017-10-02
Report Run at: December 19, 2017 05:23 EST
"Nutrient data for: 45169920, WOOBO, VAGAN KORREAN NORI ONION SEA TANGLE CRUNCH, UPC: 859115003440"
Food Group:  Branded Food Products Database
Common Name:

Nutrient,Unit,Data points,Std. Error,"25.0 GRM = 25.0g",1Value per 100 g,
Proximates
"Energy",kcal,--,--,120,480
"Protein",g,--,--,3.00,12.00
"Total lipid (fat)",g,--,--,5.00,20.00
"Carbohydrate, by difference",g,--,--,17.00,68.00
"Fiber, total dietary",g,--,--,2.0,8.0
"Sugars, total",g,--,--,1.00,4.00
Minerals
"Calcium, Ca",mg,--,--,30,120
"Iron, Fe",mg,--,--,2.88,11.52
"Sodium, Na",mg,--,--,230,920
Vitamins
"Vitamin C, total ascorbic acid",mg,--,--,0.0,0.0
"Vitamin A, IU",IU,--,--,1000,4000
Lipids
"Fatty acids, total saturated",g,--,--,1.000,4.000
"Fatty acids, total trans",g,--,--,0.000,0.000
"Cholesterol",mg,--,--,0,0
Amino Acids
Other
Ingredients
"GLUTINOUS RICE FLOUR, SEAWEED, RICE BRAN OIL, ONION, SEA SALT, TURMERIC POWDER." Date available: 07/14/2017 Date last updated by company: 07/14/2017
