Source: USDA Branded Food Products Database Release December 2017 Software v.3.8.6.4 2017-10-02
Report Run at: December 19, 2017 05:27 EST
"Nutrient data for: 45084534, WOODSTOCK, SAUERKRAUT, UPC: 042563015046"
Food Group:  Branded Food Products Database
Common Name:

Nutrient,Unit,Data points,Std. Error,"2.0 Tbsp = 30.0g",1Value per 100 g,
Proximates
"Energy",kcal,--,--,5,17
"Protein",g,--,--,0.00,0.00
"Total lipid (fat)",g,--,--,0.00,0.00
"Carbohydrate, by difference",g,--,--,1.00,3.33
"Fiber, total dietary",g,--,--,1.0,3.3
"Sugars, total",g,--,--,0.00,0.00
Minerals
"Sodium, Na",mg,--,--,160,533
Vitamins
Lipids
Amino Acids
Other
Ingredients
"ORGANIC CABBAGE, WATER, SEA SALT." Date available: 06/25/2017 Date last updated by company: 06/25/2017
