Source: USDA Branded Food Products Database Release December 2017 Software v.3.8.6.4 2017-10-02
Report Run at: December 19, 2017 05:32 EST
"Nutrient data for: 45240422, WORLDFOODS, THAI PAD THAI NOODLE SAUCE, MILD, UPC: 182503000272"
Food Group:  Branded Food Products Database
Common Name:

Nutrient,Unit,Data points,Std. Error,"0.5 BOTTLE = 75.0g",1Value per 100 g,
Proximates
"Energy",kcal,--,--,70,93
"Protein",g,--,--,0.00,0.00
"Total lipid (fat)",g,--,--,0.00,0.00
"Carbohydrate, by difference",g,--,--,16.00,21.33
"Fiber, total dietary",g,--,--,1.0,1.3
"Sugars, total",g,--,--,12.00,16.00
Minerals
"Calcium, Ca",mg,--,--,0,0
"Iron, Fe",mg,--,--,0.28,0.38
"Sodium, Na",mg,--,--,420,560
Vitamins
"Vitamin C, total ascorbic acid",mg,--,--,0.0,0.0
"Vitamin A, IU",IU,--,--,0,0
Lipids
"Fatty acids, total saturated",g,--,--,0.000,0.000
"Fatty acids, total trans",g,--,--,0.000,0.000
"Cholesterol",mg,--,--,0,0
Amino Acids
Other
Ingredients
"WATER, SUGAR, TAMARIND PUREE (5%), SHALLOT, MODIFIED TAPIOCA STARCH, ONION, DRIED CHILLI (2%), SALT, GARLIC, CITRIC ACID" Date available: 06/25/2017 Date last updated by company: 06/25/2017
