Source: USDA Branded Food Products Database Release December 2017 Software v.3.8.6.4 2017-10-02
Report Run at: December 19, 2017 05:34 EST
"Nutrient data for: 45032254, WORLD PEAS, GREEN PEA SNACK, GRALIC, UPC: 804879326809"
Food Group:  Branded Food Products Database
Common Name:

Nutrient,Unit,Data points,Std. Error,"45.0 PEAS. | ABOUT = 28.0g",1Value per 100 g,
Proximates
"Energy",kcal,--,--,105,375
"Protein",g,--,--,4.00,14.29
"Total lipid (fat)",g,--,--,2.00,7.14
"Carbohydrate, by difference",g,--,--,15.00,53.57
"Fiber, total dietary",g,--,--,1.0,3.6
"Sugars, total",g,--,--,1.00,3.57
Minerals
"Calcium, Ca",mg,--,--,0,0
"Iron, Fe",mg,--,--,0.64,2.29
"Sodium, Na",mg,--,--,154,550
Vitamins
"Vitamin C, total ascorbic acid",mg,--,--,0.0,0.0
"Vitamin A, IU",IU,--,--,0,0
Lipids
"Fatty acids, total saturated",g,--,--,1.000,3.570
"Fatty acids, total trans",g,--,--,0.000,0.000
"Cholesterol",mg,--,--,0,0
Amino Acids
Other
Ingredients
"GREEN PEAS (SOURCED FROM THE UNITED KINGDOM), MODIFIED CORN STARCH, CORN STARCH, CANE SUGAR, REFINED SOY BEAN OIL, SALT, NATURAL GARLIC POWDER." Date available: 06/24/2017 Date last updated by company: 06/24/2017
