Source: USDA Branded Food Products Database Release December 2017 Software v.3.8.6.4 2017-10-02
Report Run at: December 19, 2017 05:29 EST
"Nutrient data for: 45242920, WORLD CLASSICS TRADING COMPANY, EUROPEAN SPARKLING SODA, BLOOD ORANGE, UPC: 011225064999"
Food Group:  Branded Food Products Database
Common Name:

Nutrient,Unit,Data points,Std. Error,"8.0 OZA = 240.0g",1Value per 100 g,
Proximates
"Energy",kcal,--,--,110,46
"Protein",g,--,--,0.00,0.00
"Total lipid (fat)",g,--,--,0.00,0.00
"Sugars, total",g,--,--,27.00,11.25
Minerals
Vitamins
Lipids
Amino Acids
Other
Ingredients
"CARBONATED WATER, SUGAR, NATURAL BLOOD ORANGE FLAVOR (INCLUDING BLOOD ORANGE JUICE). CITRIC ACID, ARABIC GUM, SODIUM BENZOATE (PRESERVATIVE), GLYCEROL ESTER OF WOOD ROSIN, XANTHAN GUM, ARTIFICIAL COLOR (RED 40, BLUE 1) AND BETA CAROTENE FOR COLOR." Date available: 08/10/2017 Date last updated by company: 08/10/2017
