Source: USDA Branded Food Products Database Release December 2017 Software v.3.8.6.4 2017-10-02
Report Run at: December 19, 2017 05:30 EST
"Nutrient data for: 45010886, WORLD CLASSIC TRADING COMPANY, GOURMET STONE GROUND WHEAT THIN CRACKERS, UPC: 011225051494"
Food Group:  Branded Food Products Database
Common Name:

Nutrient,Unit,Data points,Std. Error,"3.0 CRACKERS = 15.0g",1Value per 100 g,
Proximates
"Energy",kcal,--,--,60,400
"Protein",g,--,--,2.00,13.33
"Total lipid (fat)",g,--,--,1.00,6.67
"Carbohydrate, by difference",g,--,--,10.00,66.67
"Fiber, total dietary",g,--,--,1.0,6.7
"Sugars, total",g,--,--,0.00,0.00
Minerals
"Calcium, Ca",mg,--,--,0,0
"Iron, Fe",mg,--,--,2.40,16.00
"Sodium, Na",mg,--,--,150,1000
Vitamins
"Vitamin C, total ascorbic acid",mg,--,--,0.0,0.0
"Vitamin A, IU",IU,--,--,0,0
Lipids
"Fatty acids, total saturated",g,--,--,0.000,0.000
"Fatty acids, total trans",g,--,--,0.000,0.000
"Cholesterol",mg,--,--,0,0
Amino Acids
Other
Ingredients
"ENRICHED FLOUR (WHEAT FLOUR, NIACIN, REDUCED IRON, THIAMIN MONONITRATE, RIBOFLAVIN, FOLIC ACID), CRACKED WHEAT, SUNFLOWER OIL AND/OR CANOLA OIL (CONTAINS ASCORBIC ACID AND ROSEMARY), SALT, YEAST, WHEY POWDER, AMMONIUM BICARBONATE, MALT FLOUR, SODIUM BICARBONATE, MONOCALCIUM PHOSPHATE, SOY LECITHIN, SODIUM METABISULPHITE, PROTEASE." Date available: 07/14/2017 Date last updated by company: 07/14/2017
