Source: USDA Branded Food Products Database Release December 2017 Software v.3.8.6.4 2017-10-02
Report Run at: December 19, 2017 05:31 EST
"Nutrient data for: 45150099, WORLD FOOD PRODUCTS, ROASTED SALTED PISTACHIOS, UPC: 835144004719"
Food Group:  Branded Food Products Database
Common Name:

Nutrient,Unit,Data points,Std. Error,"1 ONZ = 28.0g",1Value per 100 g,
Proximates
"Energy",kcal,--,--,190,679
"Protein",g,--,--,6.00,21.43
"Total lipid (fat)",g,--,--,14.00,50.00
"Carbohydrate, by difference",g,--,--,2.00,7.14
"Fiber, total dietary",g,--,--,9.0,32.1
"Sugars, total",g,--,--,3.00,10.71
Minerals
"Calcium, Ca",mg,--,--,40,143
"Iron, Fe",mg,--,--,1.08,3.86
"Sodium, Na",mg,--,--,220,786
Vitamins
"Vitamin C, total ascorbic acid",mg,--,--,0.0,0.0
"Vitamin A, IU",IU,--,--,0,0
Lipids
"Fatty acids, total saturated",g,--,--,1.999,7.140
"Fatty acids, total trans",g,--,--,0.000,0.000
"Cholesterol",mg,--,--,0,0
Amino Acids
Other
Ingredients
"PISTACHIOS, SALT" Date available: 03/09/2017 Date last updated by company: 03/09/2017
