Source: USDA Branded Food Products Database Release December 2017 Software v.3.8.6.4 2017-10-02
Report Run at: December 19, 2017 05:38 EST
"Nutrient data for: 45317240, WRIGLEY'S, SUGAR FREE GUM, TEMPO FRUIT PUNCH, UPC: 022000107893"
Food Group:  Branded Food Products Database
Common Name:

Nutrient,Unit,Data points,Std. Error,"1 STICK = 2.7g",1Value per 100 g,
Proximates
"Energy",kcal,--,--,5,185
"Protein",g,--,--,0.00,0.00
"Total lipid (fat)",g,--,--,0.00,0.00
"Carbohydrate, by difference",g,--,--,2.00,74.07
"Sugars, total",g,--,--,0.00,0.00
Minerals
"Sodium, Na",mg,--,--,0,0
Vitamins
Lipids
Amino Acids
Other
Ingredients
"SORBITOL, GUM BASE, GLYCEROL; LESS THAN 2% OF: HYDROGENATED STARCH HYDROLYSATE, NATURAL AND ARTIFICIAL FALVORS, CITRIC ACID, MALIC ACID, SOY LECITHIN, MANNITOL, SUCRALOSE, FUMARIC ACID, ACESULFAME K, COLORS (RED 40, RED 40 LAKE), ASPARTAME, BHT (TO MAINTAIN FRESHNESS)." Date available: 07/14/2017 Date last updated by company: 07/14/2017
