Source: USDA Branded Food Products Database Release December 2017 Software v.3.8.6.4 2017-10-02
Report Run at: December 19, 2017 05:40 EST
"Nutrient data for: 45147924, WYLER'S, SWEETENED ICED TEA MIX WYLER'S SWEETENED WITH STEVIA, LEMON TEA NATURALLY FLAVORED WITH OTHER NATURAL FLAVORS, UPC: 072392368624"
Food Group:  Branded Food Products Database
Common Name:

Nutrient,Unit,Data points,Std. Error,"0.5 STICK = 1.5g",1Value per 100 g,
Proximates
"Energy",kcal,--,--,5,333
"Protein",g,--,--,0.00,0.00
"Total lipid (fat)",g,--,--,0.00,0.00
"Carbohydrate, by difference",g,--,--,1.00,66.67
Minerals
"Sodium, Na",mg,--,--,10,667
Vitamins
Lipids
Amino Acids
Other
Ingredients
"INSTANT TEA, CITRIC ACID, MALTODEXTRIN, NATURAL FLAVORS, STEVIA EXTRACT, CONTAINS 2% OR LESS OF THE FOLLOWING: CALCIUM SILICATE." Date available: 07/14/2017 Date last updated by company: 07/14/2017
