Source: USDA Branded Food Products Database Release December 2017 Software v.3.8.6.4 2017-10-02
Report Run at: December 19, 2017 05:42 EST
"Nutrient data for: 45035549, WYMAN'S OF MAINE, WILD BLUEBERRIES IN LIGHT SYRUP, UPC: 079900001004"
Food Group:  Branded Food Products Database
Common Name:

Nutrient,Unit,Data points,Std. Error,"0.5 cup = 120.0g",1Value per 100 g,
Proximates
"Energy",kcal,--,--,90,75
"Protein",g,--,--,0.00,0.00
"Total lipid (fat)",g,--,--,0.00,0.00
"Carbohydrate, by difference",g,--,--,23.00,19.17
"Fiber, total dietary",g,--,--,4.0,3.3
"Sugars, total",g,--,--,17.00,14.17
Minerals
"Calcium, Ca",mg,--,--,0,0
"Iron, Fe",mg,--,--,0.42,0.35
"Sodium, Na",mg,--,--,0,0
Vitamins
"Vitamin C, total ascorbic acid",mg,--,--,1.4,1.2
"Vitamin A, IU",IU,--,--,0,0
Lipids
"Fatty acids, total saturated",g,--,--,0.000,0.000
"Fatty acids, total trans",g,--,--,0.000,0.000
"Cholesterol",mg,--,--,0,0
Amino Acids
Other
Ingredients
"WILD BLUEBERRIES, HIGH FRUCTOSE CORN SYRUP, WATER." Date available: 07/14/2017 Date last updated by company: 07/14/2017
