Source: USDA Branded Food Products Database Release December 2017 Software v.3.8.6.4 2017-10-02
Report Run at: December 19, 2017 05:44 EST
"Nutrient data for: 45166482, XYTOPOK, GINGERBREAD COOKIES WITH CONDENSED MILK FILLING, UPC: 813745002587"
Food Group:  Branded Food Products Database
Common Name:

Nutrient,Unit,Data points,Std. Error,"2.0 COOKIES = 32.0g",1Value per 100 g,
Proximates
"Energy",kcal,--,--,110,344
"Protein",g,--,--,1.00,3.12
"Total lipid (fat)",g,--,--,1.00,3.12
"Carbohydrate, by difference",g,--,--,23.00,71.88
"Fiber, total dietary",g,--,--,1.0,3.1
"Sugars, total",g,--,--,15.00,46.88
Minerals
"Calcium, Ca",mg,--,--,20,62
"Iron, Fe",mg,--,--,0.56,1.75
"Sodium, Na",mg,--,--,40,125
Vitamins
"Vitamin C, total ascorbic acid",mg,--,--,0.0,0.0
"Vitamin A, IU",IU,--,--,156,488
Lipids
"Fatty acids, total saturated",g,--,--,0.602,1.880
"Fatty acids, total trans",g,--,--,0.000,0.000
"Cholesterol",mg,--,--,0,0
Amino Acids
Other
Ingredients
"SUGAR, FLOUR (BLEACHED WHEAT FLOUR, MALTED BARLEY FLOUR, NIACIN, IRON, THIAMINE MONONITRATE, RIBOFLAVIN, FOLIC ACID), CONDENSED MILK (SUGAR, DRY MILK, VEGETABLE OIL (SOYBEAN OIL AND OR CANOLA OIL), PECTIN, SOIDUM CITRATE, POTASSIUM SORBATE (PRESERVATIVE),, ARTIFICIAL FLAVOR), RYE FLOUR; MARGARINE (HYDROGENATED VEGETABLE OIL (PALM AND/OR SUNFLOWER), WATER, SALT, SOY LECITHIN (EMULSIFIER), BETA-CAROTENE, NATURAL AND ARTIFICIAL FLAVORS, LACTIC ACID, MALT EXTRACT, BAKING POWDER, SODIUM BICARBONATE, ARTIFICIAL FLAVOR, CITRIC ACID" Date available: 07/14/2017 Date last updated by company: 07/14/2017
