Source: USDA Branded Food Products Database Release December 2017 Software v.3.8.6.4 2017-10-02
Report Run at: December 19, 2017 05:44 EST
"Nutrient data for: 45161476, XYTOPOK, CRISPY RINGS MALUTKA, UPC: 813745002501"
Food Group:  Branded Food Products Database
Common Name:

Nutrient,Unit,Data points,Std. Error,"6.0 PIECES = 29.0g",1Value per 100 g,
Proximates
"Energy",kcal,--,--,110,379
"Protein",g,--,--,3.00,10.34
"Total lipid (fat)",g,--,--,3.00,10.34
"Carbohydrate, by difference",g,--,--,19.00,65.52
"Fiber, total dietary",g,--,--,1.0,3.4
"Sugars, total",g,--,--,3.00,10.34
Minerals
"Calcium, Ca",mg,--,--,0,0
"Iron, Fe",mg,--,--,1.86,6.42
"Sodium, Na",mg,--,--,110,379
Vitamins
"Vitamin C, total ascorbic acid",mg,--,--,0.0,0.0
"Vitamin A, IU",IU,--,--,173,595
Lipids
"Fatty acids, total saturated",g,--,--,0.000,0.000
"Fatty acids, total trans",g,--,--,0.000,0.000
"Cholesterol",mg,--,--,0,0
Amino Acids
Other
Ingredients
"FLOUR (BLEACHED WHEAT FLOUR, MALTED BARLEY FLOUR, NIACIN, IRON, THIAMINE MONONITRATE, RIBOFLAVIN, FOLIC ACID), SUGAR, MARGARINE (HYDROGENATED VEGETABLE OIL (PALM AND/OR SUNFLOWER), WATER, SALT, SOY LECITHIN (EMULSIFIER), BETA-CAROTENE, NATURAL AND ARTIFICIAL FLAVORS, LACTIC ACID), SALT, YEAST." Date available: 07/14/2017 Date last updated by company: 07/14/2017
