Source: USDA Branded Food Products Database Release December 2017 Software v.3.8.6.4 2017-10-02
Report Run at: December 19, 2017 05:44 EST
"Nutrient data for: 45154149, YACO, COCONUT WATER, CHOCOLATE, UPC: 840447100082"
Food Group:  Branded Food Products Database
Common Name:

Nutrient,Unit,Data points,Std. Error,"1 BOX = 330.0g",1Value per 100 g,
Proximates
"Energy",kcal,--,--,109,33
"Protein",g,--,--,2.01,0.61
"Total lipid (fat)",g,--,--,0.99,0.30
"Carbohydrate, by difference",g,--,--,23.99,7.27
"Fiber, total dietary",g,--,--,0.0,0.0
"Sugars, total",g,--,--,20.00,6.06
Minerals
"Calcium, Ca",mg,--,--,59,18
"Iron, Fe",mg,--,--,0.79,0.24
"Magnesium, Mg",mg,--,--,36,11
"Phosphorus, P",mg,--,--,86,26
"Potassium, K",mg,--,--,551,167
"Sodium, Na",mg,--,--,139,42
Vitamins
"Vitamin C, total ascorbic acid",mg,--,--,0.0,0.0
"Vitamin A, IU",IU,--,--,0,0
Lipids
"Fatty acids, total saturated",g,--,--,0.990,0.300
"Fatty acids, total trans",g,--,--,0.000,0.000
"Cholesterol",mg,--,--,0,0
Amino Acids
Other
Ingredients
"COCONUT WATER, SUGAR, MILK POWDER, COCOA POWDER" Date available: 07/14/2017 Date last updated by company: 07/14/2017
