Source: USDA Branded Food Products Database Release December 2017 Software v.3.8.6.4 2017-10-02
Report Run at: December 19, 2017 05:47 EST
"Nutrient data for: 45198354, YAMS, UPC: 076700002095"
Food Group:  Branded Food Products Database
Common Name:

Nutrient,Unit,Data points,Std. Error,"0.667 cup = 166.0g",1Value per 100 g,
Proximates
"Energy",kcal,--,--,149,90
"Protein",g,--,--,1.00,0.60
"Total lipid (fat)",g,--,--,0.00,0.00
"Carbohydrate, by difference",g,--,--,36.01,21.69
"Fiber, total dietary",g,--,--,3.0,1.8
"Sugars, total",g,--,--,20.00,12.05
Minerals
"Calcium, Ca",mg,--,--,20,12
"Iron, Fe",mg,--,--,1.39,0.84
"Sodium, Na",mg,--,--,45,27
Vitamins
"Vitamin C, total ascorbic acid",mg,--,--,17.4,10.5
"Vitamin A, IU",IU,--,--,11084,6677
Lipids
"Fatty acids, total saturated",g,--,--,0.000,0.000
"Fatty acids, total trans",g,--,--,0.000,0.000
"Cholesterol",mg,--,--,0,0
Amino Acids
Other
Ingredients
"SWEET POTATOES, WATER, CORN SYRUP, SUGAR." Date available: 07/14/2017 Date last updated by company: 07/14/2017
