Source: USDA Branded Food Products Database Release December 2017 Software v.3.8.6.4 2017-10-02
Report Run at: December 19, 2017 06:03 EST
"Nutrient data for: 45288796, YELLOW RICE SPANISH STYLE, UPC: 041331126625"
Food Group:  Branded Food Products Database
Common Name:

Nutrient,Unit,Data points,Std. Error,"0.25 cup = 45.0g",1Value per 100 g,
Proximates
"Energy",kcal,--,--,160,356
"Protein",g,--,--,3.00,6.67
"Total lipid (fat)",g,--,--,0.00,0.00
"Carbohydrate, by difference",g,--,--,35.00,77.78
"Fiber, total dietary",g,--,--,1.0,2.2
"Sugars, total",g,--,--,1.00,2.22
Minerals
"Calcium, Ca",mg,--,--,28,62
"Iron, Fe",mg,--,--,2.00,4.44
"Potassium, K",mg,--,--,68,151
"Sodium, Na",mg,--,--,500,1111
Vitamins
"Vitamin D",IU,--,--,0,0
Lipids
"Fatty acids, total saturated",g,--,--,0.000,0.000
"Fatty acids, total trans",g,--,--,0.000,0.000
"Cholesterol",mg,--,--,0,0
Amino Acids
Other
Ingredients
"LONG GRAIN ENRICHED PARBOILED WHITE RICE (RICE ENRICHED WITH IRON [FERRIC ORTHOPHOSPHATE], NIACIN, THIAMINE [THIAMINE MONONITRATE] AND FOLIC ACID), CHICKEN FLAVOR (SALT, MONOSODIUM GLUTAMATE, SUGAR, YEAST EXTRACT, MALTODEXTRIN, GRANULATED ONION, CHICKEN FAT, NATURAL FLAVOR, SILICON DIOXIDE AS ANTICAKING AGENT, GRANULATED GARLIC, SPICES, PARSLEY), DEHYDRATED ONION, SALT, GRANULATED GARLIC, DEHYDRATED RED BELL PEPPER, DEHYDRATED GREEN BELL PEPPER, CORIANDER, YELLOW 5, SILICON DIOXIDE (AS ANTICAKING AGENT) AND ANNATTO." Date available: 10/04/2017 Date last updated by company: 10/04/2017
