Source: USDA Branded Food Products Database Release December 2017 Software v.3.8.6.4 2017-10-02
Report Run at: December 19, 2017 05:51 EST
"Nutrient data for: 45080316, YELLOW CLING HALVED PEACHES IN HEAVY SYRUP, UPC: 035826009913"
Food Group:  Branded Food Products Database
Common Name:

Nutrient,Unit,Data points,Std. Error,"0.5 cup = 128.0g",1Value per 100 g,
Proximates
"Energy",kcal,--,--,100,78
"Protein",g,--,--,0.00,0.00
"Total lipid (fat)",g,--,--,0.00,0.00
"Carbohydrate, by difference",g,--,--,22.00,17.19
"Fiber, total dietary",g,--,--,0.0,0.0
"Sugars, total",g,--,--,19.00,14.84
Minerals
"Calcium, Ca",mg,--,--,0,0
"Iron, Fe",mg,--,--,0.00,0.00
"Potassium, K",mg,--,--,131,102
"Sodium, Na",mg,--,--,10,8
Vitamins
"Vitamin C, total ascorbic acid",mg,--,--,1.3,1.0
"Vitamin A, IU",IU,--,--,328,256
Lipids
"Fatty acids, total saturated",g,--,--,0.000,0.000
"Fatty acids, total trans",g,--,--,0.000,0.000
"Cholesterol",mg,--,--,0,0
Amino Acids
Other
Ingredients
"PEACHES, WATER, CORN SYRUP AND SUGAR." Date available: 06/24/2017 Date last updated by company: 06/24/2017
