Source: USDA Branded Food Products Database Release December 2017 Software v.3.8.6.4 2017-10-02
Report Run at: December 19, 2017 05:49 EST
"Nutrient data for: 45084220, YELLOW BARN, TOMATO CONCENTRATE, UPC: 816979010304"
Food Group:  Branded Food Products Database
Common Name:

Nutrient,Unit,Data points,Std. Error,"2.0 Tbsp = 33.0g",1Value per 100 g,
Proximates
"Energy",kcal,--,--,20,61
"Protein",g,--,--,1.00,3.03
"Total lipid (fat)",g,--,--,0.00,0.00
"Carbohydrate, by difference",g,--,--,5.00,15.15
"Fiber, total dietary",g,--,--,1.0,3.0
"Sugars, total",g,--,--,3.00,9.09
Minerals
"Calcium, Ca",mg,--,--,20,61
"Iron, Fe",mg,--,--,0.54,1.65
"Sodium, Na",mg,--,--,10,30
Vitamins
"Vitamin C, total ascorbic acid",mg,--,--,18.2,55.1
"Vitamin A, IU",IU,--,--,757,2295
Lipids
Amino Acids
Other
Ingredients
"ORGANIC BIODYNAMIC TOMATOES" Date available: 06/25/2017 Date last updated by company: 06/25/2017
