Source: USDA Branded Food Products Database Release December 2017 Software v.3.8.6.4 2017-10-02
Report Run at: December 19, 2017 06:00 EST
"Nutrient data for: 45197356, YELLOW MUSTARD, UPC: 07203671724"
Food Group:  Branded Food Products Database
Common Name:

Nutrient,Unit,Data points,Std. Error,"1 tsp = 5.0g",1Value per 100 g,
Proximates
"Energy",kcal,--,--,0,0
"Protein",g,--,--,0.00,0.00
"Total lipid (fat)",g,--,--,0.00,0.00
"Carbohydrate, by difference",g,--,--,0.00,0.00
Minerals
"Sodium, Na",mg,--,--,80,1600
Vitamins
Lipids
"Fatty acids, total saturated",g,--,--,0.000,0.000
"Fatty acids, total trans",g,--,--,0.000,0.000
Amino Acids
Other
Ingredients
"ORGANIC DISTILLED WHITE VINEGAR, FILTERED WATER, ORGANIC YELLOW MUSTARD SEED, SEA SALT, ORGANIC TURMERIC, ORGANIC PAPRIKA." Date available: 07/14/2017 Date last updated by company: 07/14/2017
