Source: USDA Branded Food Products Database Release December 2017 Software v.3.8.6.4 2017-10-02
Report Run at: December 19, 2017 05:51 EST
"Nutrient data for: 45195931, YELLOW CLING DICED PEACHES IN LIGHT SYRUP, UPC: 041268137008"
Food Group:  Branded Food Products Database
Common Name:

Nutrient,Unit,Data points,Std. Error,"1 BOWL = 113.0g",1Value per 100 g,
Proximates
"Energy",kcal,--,--,80,71
"Protein",g,--,--,0.00,0.00
"Total lipid (fat)",g,--,--,0.00,0.00
"Carbohydrate, by difference",g,--,--,19.00,16.81
"Fiber, total dietary",g,--,--,1.0,0.9
"Sugars, total",g,--,--,18.00,15.93
Minerals
"Calcium, Ca",mg,--,--,0,0
"Iron, Fe",mg,--,--,0.00,0.00
"Sodium, Na",mg,--,--,15,13
Vitamins
"Vitamin C, total ascorbic acid",mg,--,--,21.2,18.8
"Vitamin A, IU",IU,--,--,71,63
Lipids
"Fatty acids, total saturated",g,--,--,0.000,0.000
"Fatty acids, total trans",g,--,--,0.000,0.000
"Cholesterol",mg,--,--,0,0
Amino Acids
Other
Ingredients
"DICED PEACHES, WATER, SUGAR, NATURAL FLAVORS, ASCORBIC ACID (VITAMIN C) TO PROTECT COLOR, CITRIC ACID" Date available: 07/14/2017 Date last updated by company: 07/14/2017
