Source: USDA Branded Food Products Database Release December 2017 Software v.3.8.6.4 2017-10-02
Report Run at: December 19, 2017 06:06 EST
"Nutrient data for: 45005564, YOCRUNCH, CEREAL BOWL, 1% MILKFAT YOGURT WITH KELLOGG'S FROSTED FLAKES, VANILLA, UPC: 046675027850"
Food Group:  Branded Food Products Database
Common Name:

Nutrient,Unit,Data points,Std. Error,"1 CONTAINER = 133.0g",1Value per 100 g,
Proximates
"Energy",kcal,--,--,80,60
"Protein",g,--,--,3.01,2.26
"Total lipid (fat)",g,--,--,1.00,0.75
"Carbohydrate, by difference",g,--,--,15.00,11.28
"Fiber, total dietary",g,--,--,0.0,0.0
"Sugars, total",g,--,--,12.99,9.77
Minerals
"Calcium, Ca",mg,--,--,100,75
"Iron, Fe",mg,--,--,0.00,0.00
"Sodium, Na",mg,--,--,51,38
Vitamins
"Vitamin C, total ascorbic acid",mg,--,--,0.0,0.0
"Vitamin A, IU",IU,--,--,0,0
Lipids
"Fatty acids, total saturated",g,--,--,0.505,0.380
"Fatty acids, total trans",g,--,--,0.000,0.000
"Cholesterol",mg,--,--,5,4
Amino Acids
Other
Ingredients
"LOWFAT YOGURT: CULTURED PASTEURIZED GRADE A LOWFAT MILK, SUGAR, FOOD STARCH MODIFIED, NATURAL FLAVORS. KELLOGG'S FROSTED FLAKES CEREAL: MILLED CORN, SUGAR, MALT FLAVOR, SALT, IRON, VITAMIN C (ASCORBIC ACID AND SODIUM ASCORBATE), NIACINAMIDE, VITAMIN B6 (PYRIDOXINE HYDROCHLORIDE), VITAMIN B2 (RIBOFLAVIN), VITAMIN B1 (THIAMIN HYDROCHLORIDE), VITAMIN A PALMITATE, FOLIC ACID, BHT FOR FRESHNESS, VITAMIN D, VITAMIN B12." Date available: 06/25/2017 Date last updated by company: 06/25/2017
