Source: USDA Branded Food Products Database Release December 2017 Software v.3.8.6.4 2017-10-02
Report Run at: December 19, 2017 06:08 EST
"Nutrient data for: 45166835, YOGA VEDA, KAMA BEVERAGE, GUAVA & PASSION FRUIT, UPC: 853081003015"
Food Group:  Branded Food Products Database
Common Name:

Nutrient,Unit,Data points,Std. Error,"1 BOTTLE = 355.0g",1Value per 100 g,
Proximates
"Energy",kcal,--,--,71,20
"Protein",g,--,--,0.00,0.00
"Total lipid (fat)",g,--,--,0.00,0.00
"Carbohydrate, by difference",g,--,--,18.99,5.35
"Sugars, total",g,--,--,18.99,5.35
Minerals
"Iron, Fe",mg,--,--,0.75,0.21
"Magnesium, Mg",mg,--,--,18,5
"Sodium, Na",mg,--,--,25,7
Vitamins
"Vitamin C, total ascorbic acid",mg,--,--,20.2,5.7
"Vitamin A, IU",IU,--,--,135,38
Lipids
Amino Acids
Other
Ingredients
"FILTERED WATER, GUAVA JUICE (FROM PUREE), ORGANIC EVAPORATED CANE JUICE, PASSION FRUIT JUICE (FROM CONCENTRATE), NATURAL FLAVORS, CLOVER HONEY, CITRIC ACID, PECTIN, FRUIT & VEGETABLE JUICE (FOR COLOR), HIMALAYAN ROCK SALT, ASHWAGANDHA ROOT, PANAX GINSENG ROOT, GREEN TEA LEAF (POWDERED), YERBA MATE LEAF (POWDERED), SASPIRILLA BARK, ALMOND POWDER (FRUIT), SAFFRON FLOWER, PYRIDOXINE HYDROCHLORIDE (VITAMIN B6), CYANOCOBALAMIN (VITAMIN B12), COLLOIDAL GOLD & COLLOIDAL ZINC." Date available: 10/13/2017 Date last updated by company: 10/13/2017
