Source: USDA Branded Food Products Database Release December 2017 Software v.3.8.6.4 2017-10-02
Report Run at: December 19, 2017 06:12 EST
"Nutrient data for: 45147149, YOGURT PRETZELS, UPC: 835144009097"
Food Group:  Branded Food Products Database
Common Name:

Nutrient,Unit,Data points,Std. Error,"13.0 PIECES = 40.0g",1Value per 100 g,
Proximates
"Energy",kcal,--,--,200,500
"Protein",g,--,--,2.00,5.00
"Total lipid (fat)",g,--,--,8.00,20.00
"Carbohydrate, by difference",g,--,--,29.00,72.50
"Fiber, total dietary",g,--,--,1.0,2.5
"Sugars, total",g,--,--,18.00,45.00
Minerals
"Calcium, Ca",mg,--,--,20,50
"Iron, Fe",mg,--,--,0.90,2.25
"Sodium, Na",mg,--,--,220,550
Vitamins
"Vitamin C, total ascorbic acid",mg,--,--,0.0,0.0
"Vitamin A, IU",IU,--,--,0,0
Lipids
"Fatty acids, total saturated",g,--,--,7.000,17.500
"Fatty acids, total trans",g,--,--,0.000,0.000
"Cholesterol",mg,--,--,5,12
Amino Acids
Other
Ingredients
"YOGURT COATING (SUGAR, VEGETABLE OILS [PALM KERNEL, PALM], WHEY, YOGURT POWDER [NONFAT MILK, LACTIC ACID], SOY LECITHIN [AN EMULSIFIER], SALT AND VANILLA), PRETZELS (UNBLEACHED ENRICHED WHEAT FLOUR [FLOUR, NIACIN, REDUCED IRON, THIAMINE MONONITRATE-B1, RIBOFLAVIN-B2, FOLIC ACID], MALT, SALT, SOYBEAN OIL OR CANOLA OIL AND YEAST)." Date available: 07/14/2017 Date last updated by company: 07/14/2017
