Source: USDA Branded Food Products Database Release December 2017 Software v.3.8.6.4 2017-10-02
Report Run at: December 19, 2017 06:11 EST
"Nutrient data for: 45285588, YOGURT PARFAIT BLUEBERRY, UPC: 049022854864"
Food Group:  Branded Food Products Database
Common Name:

Nutrient,Unit,Data points,Std. Error,"1 SERVING = 283.5g",1Value per 100 g,
Proximates
"Energy",kcal,--,--,329,116
"Protein",g,--,--,14.00,4.94
"Total lipid (fat)",g,--,--,4.99,1.76
"Carbohydrate, by difference",g,--,--,61.01,21.52
"Fiber, total dietary",g,--,--,4.0,1.4
"Sugars, total",g,--,--,36.00,12.70
Minerals
"Sodium, Na",mg,--,--,241,85
Vitamins
Lipids
"Fatty acids, total saturated",g,--,--,2.495,0.880
"Fatty acids, total trans",g,--,--,0.000,0.000
"Cholesterol",mg,--,--,11,4
Amino Acids
Other
Ingredients
"LOW-FAT VANILLA YOGURT (CULTURED PASTEURIZED GRADE A LOW FAT MILK, SUGAR, WATER, HIGH FRUCTOSE CORN SYRUP, MODIFIED FOOD STARCH, GELATIN, NATURAL FLAVOR, CALCIUM PHOSPHATE, CITRIC ACID, VITAMIN A PALMITATE, VITAMIN D3); GRANOLA (ROLLED OATS, HONEY, LIGHT BROWN SUGAR (SUGAR, INVERT SUGAR, CANE MOLASSES), MARGARINE (LIQUID AND PARTIALLY HYDROGENATED SOYBEAN OIL, WATER, SALT, SOY LECITHIN, VEGETABLE MONO AND DIGLYCERIDES, SODIUM BENZOATE, CITRIC ACID, NATURAL AND ARTIFICIAL FLAVOR, BETA CAROTENE, VITAMIN A PALMITATE, WHEY), VANILLA EXTRACT (WATER, PROPYLENE GLYCOL, ARTIFICIAL FLAVORS, CARAMEL COLOR), CINNAMON, SALT.); BLUEBERRY." Date available: 10/13/2017 Date last updated by company: 10/13/2017
