Source: USDA Branded Food Products Database Release December 2017 Software v.3.8.6.4 2017-10-02
Report Run at: December 19, 2017 06:18 EST
"Nutrient data for: 45231700, YOGURT, UPC: 855088005078"
Food Group:  Branded Food Products Database
Common Name:

Nutrient,Unit,Data points,Std. Error,"1 cup = 227.0g",1Value per 100 g,
Proximates
"Energy",kcal,--,--,200,88
"Protein",g,--,--,7.99,3.52
"Total lipid (fat)",g,--,--,10.01,4.41
"Carbohydrate, by difference",g,--,--,19.00,8.37
"Fiber, total dietary",g,--,--,0.0,0.0
"Sugars, total",g,--,--,19.00,8.37
Minerals
"Calcium, Ca",mg,--,--,250,110
"Iron, Fe",mg,--,--,0.27,0.12
"Sodium, Na",mg,--,--,104,46
Vitamins
"Vitamin C, total ascorbic acid",mg,--,--,2.7,1.2
"Vitamin A, IU",IU,--,--,225,99
Lipids
"Fatty acids, total saturated",g,--,--,5.993,2.640
"Fatty acids, total trans",g,--,--,0.000,0.000
"Cholesterol",mg,--,--,41,18
Amino Acids
Other
Ingredients
"100% GRASS-FED PASTEURIZED NON-HOMOGENIZED WHOLE MILK*, CANE SUGAR*, VANILLA EXTRACT*, LIVE YOGURT CULTURES (B. LACTIS, L. ACIDOPHILUS, L. DELBRUECKI SUBSP. BULGARICUS, S. THERMOPHILUS)." Date available: 07/14/2017 Date last updated by company: 07/14/2017
