Source: USDA Branded Food Products Database Release December 2017 Software v.3.8.6.4 2017-10-02
Report Run at: December 19, 2017 06:19 EST
"Nutrient data for: 45325653, YOGURT WITH MIXED BERRIES, UPC: 782796020713"
Food Group:  Branded Food Products Database
Common Name:

Nutrient,Unit,Data points,Std. Error,"1 CONTAINER = 283.0g",1Value per 100 g,
Proximates
"Energy",kcal,--,--,300,106
"Protein",g,--,--,8.01,2.83
"Total lipid (fat)",g,--,--,2.01,0.71
"Carbohydrate, by difference",g,--,--,60.99,21.55
"Fiber, total dietary",g,--,--,3.1,1.1
"Sugars, total",g,--,--,38.01,13.43
Minerals
"Calcium, Ca",mg,--,--,600,212
"Iron, Fe",mg,--,--,0.65,0.23
"Sodium, Na",mg,--,--,125,44
Vitamins
"Vitamin C, total ascorbic acid",mg,--,--,14.4,5.1
"Vitamin A, IU",IU,--,--,0,0
Lipids
"Fatty acids, total saturated",g,--,--,0.000,0.000
"Fatty acids, total trans",g,--,--,0.000,0.000
"Cholesterol",mg,--,--,6,2
Amino Acids
Other
Ingredients
"STRAWBERRY YOGURT (CULTURED PASTEURIZED GRADE A NONFAT MILK, SUGAR, WATER, STRAWBERRIES, MODIFIED CORN STARCH, WHEY, NATURAL FLAVORS, TRICALCIUM PHOSPHATE, GELLAN GUM, POTASSIUM SORBATE (FOR FRESHNESS), CITRIC ACID, PURPLE CARROT JUICE CONCENTRATE, CAROB BEAN GUM, VITAMIN D3), STRAWBERRIES, BLUEBERRIES, GRANOLA (WHOLE GRAIN ROLLED OATS, SUGAR, CRISP RICE [RICE FLOUR, SUGAR, MALT EXTRACT, SALT], OAT FLOUR, CORN SYRUP, CANOLA OIL, MOLASSES, HONEY, CINNAMON. BHT (TO PRESERVE FRESHNESS))." Date available: 08/11/2017 Date last updated by company: 08/11/2017
