Source: USDA Branded Food Products Database Release December 2017 Software v.3.8.6.4 2017-10-02
Report Run at: December 19, 2017 06:18 EST
"Nutrient data for: 45135973, YOGURT, UPC: 857468003032"
Food Group:  Branded Food Products Database
Common Name:

Nutrient,Unit,Data points,Std. Error,"6.0 fl oz = 177.0g",1Value per 100 g,
Proximates
"Energy",kcal,--,--,150,85
"Protein",g,--,--,6.00,3.39
"Total lipid (fat)",g,--,--,2.50,1.41
"Carbohydrate, by difference",g,--,--,26.99,15.25
"Fiber, total dietary",g,--,--,1.9,1.1
"Sugars, total",g,--,--,20.00,11.30
Minerals
"Calcium, Ca",mg,--,--,250,141
"Iron, Fe",mg,--,--,0.00,0.00
"Potassium, K",mg,--,--,250,141
"Sodium, Na",mg,--,--,90,51
Vitamins
"Vitamin C, total ascorbic acid",mg,--,--,9.0,5.1
"Vitamin A, IU",IU,--,--,200,113
Lipids
"Fatty acids, total saturated",g,--,--,1.504,0.850
"Fatty acids, total trans",g,--,--,0.000,0.000
"Cholesterol",mg,--,--,11,6
Amino Acids
Other
Ingredients
"CULTURED PASTEURIZED GRADE A MILK AND NONFAT MILK, TROPICAL FRUIT, BASE (WATER, NATURALLY MILLED CANE SUGAR, INULIN, NATURAL FLAVOR, PINEAPPLE JUICE CONCENTRATE, MODIFIED FOOD STARCH, GUAVA, PASSION FRUIT JUICE CONCENTRATE, PAPAYA, VEGETABLE PROTEIN, TRICALCIUM PHOSPHATE, ANNATTO EXTRACT AND FOR COLOR, SODIUM, CITRATE, SODIUM BENZOATE AND POTASSIUM SORBATE TO MAINTAIN FRESHNESS, ASCORBIC ACID [VIT. C]) SUGAR, MODIFIED FOOD STARCH, KOSHER GELATIN, LIVE ACTIVE YOGURT CULTURES (S. THERMOPHILUS, L/ BULGARICUS, L. LACTIS, L. ACIDOPHILUS)." Date available: 09/23/2016 Date last updated by company: 09/23/2016
