Source: USDA Branded Food Products Database Release December 2017 Software v.3.8.6.4 2017-10-02
Report Run at: December 19, 2017 06:09 EST
"Nutrient data for: 45135689, YOGURT ALMONDS, UPC: 071725728425"
Food Group:  Branded Food Products Database
Common Name:

Nutrient,Unit,Data points,Std. Error,"0.25 cup = 30.0g",1Value per 100 g,
Proximates
"Energy",kcal,--,--,170,567
"Protein",g,--,--,2.00,6.67
"Total lipid (fat)",g,--,--,12.00,40.00
"Carbohydrate, by difference",g,--,--,14.00,46.67
"Fiber, total dietary",g,--,--,1.0,3.3
"Sugars, total",g,--,--,13.00,43.33
Minerals
"Calcium, Ca",mg,--,--,60,200
"Iron, Fe",mg,--,--,0.00,0.00
"Sodium, Na",mg,--,--,10,33
Vitamins
"Vitamin C, total ascorbic acid",mg,--,--,0.0,0.0
"Vitamin A, IU",IU,--,--,0,0
Lipids
"Fatty acids, total saturated",g,--,--,6.999,23.330
"Fatty acids, total trans",g,--,--,0.000,0.000
"Cholesterol",mg,--,--,0,0
Amino Acids
Other
Ingredients
"YOGURT COATING (SUGAR, PARTIALLY HYDROGENATED VEGETABLE OIL (PALM KERNEL, COCONUT, PALM), WHEY POWDER, NONFAT MILK, POWDER, YOGURT POWDER (CULTURED WHEY, NONFAT MILK), TITANIUM DIOXIDE (ARTIFICIAL COLOR), LACTIC ACID, SOY LECITHIN (AN EMULSIFIER), VANILLIN [ARTIFICIAL FLAVOR)), ALMONDS, COTTONSEED OIL, SUGAR, CORN SYRUP, GUM ARABIC, CONFECTIONER'S GLAZE." Date available: 06/24/2017 Date last updated by company: 06/24/2017
