Source: USDA Branded Food Products Database Release December 2017 Software v.3.8.6.4 2017-10-02
Report Run at: December 19, 2017 06:12 EST
"Nutrient data for: 45142291, YOGURT PRETZELS, UPC: 019061091209"
Food Group:  Branded Food Products Database
Common Name:

Nutrient,Unit,Data points,Std. Error,"5.0 PIECES = 30.0g",1Value per 100 g,
Proximates
"Energy",kcal,--,--,140,467
"Protein",g,--,--,1.00,3.33
"Total lipid (fat)",g,--,--,6.00,20.00
"Carbohydrate, by difference",g,--,--,22.00,73.33
"Fiber, total dietary",g,--,--,1.0,3.3
"Sugars, total",g,--,--,13.00,43.33
Minerals
"Calcium, Ca",mg,--,--,20,67
"Iron, Fe",mg,--,--,0.60,2.00
"Sodium, Na",mg,--,--,110,367
Vitamins
"Vitamin C, total ascorbic acid",mg,--,--,0.0,0.0
"Vitamin A, IU",IU,--,--,0,0
Lipids
"Fatty acids, total saturated",g,--,--,3.999,13.330
"Fatty acids, total trans",g,--,--,0.000,0.000
"Cholesterol",mg,--,--,0,0
Amino Acids
Other
Ingredients
"YOGURT COATING [SUGAR, PARTIALLY HYDROGENATED PALM KERNEL OIL, WHEY TITANIUM DIOXIDE, WHOLE MILK, YOGURT POWDER, PALM OIL, SOY LECITHIN (EMULSIFIER), SALT, NATURAL VANILLA], PRETZELS [ENRICHED WHEAT FLOUR (WHEAT, NIACIN, REDUCED IRON, THIAMINE MONONITRATE, RIBOFLAVIN, FOLIC ACID), SALT, CORN SYRUP, VEGETABLE OIL (CANOLA, CORN AND/OR SOYBEAN), SODIUM BICARBONATE, YEAST, AMMONIUM BICARBONATE]." Date available: 07/14/2017 Date last updated by company: 07/14/2017
