Source: USDA Branded Food Products Database Release December 2017 Software v.3.8.6.4 2017-10-02
Report Run at: December 19, 2017 06:19 EST
"Nutrient data for: 45197692, YOGURT WITH FRESH BLUEBERRY, UPC: 681131122849"
Food Group:  Branded Food Products Database
Common Name:

Nutrient,Unit,Data points,Std. Error,"1 PACKAGE = 241.0g",1Value per 100 g,
Proximates
"Energy",kcal,--,--,330,137
"Protein",g,--,--,8.00,3.32
"Total lipid (fat)",g,--,--,6.00,2.49
"Carbohydrate, by difference",g,--,--,60.01,24.90
"Fiber, total dietary",g,--,--,2.9,1.2
"Sugars, total",g,--,--,38.99,16.18
Minerals
"Calcium, Ca",mg,--,--,149,62
"Iron, Fe",mg,--,--,0.77,0.32
"Sodium, Na",mg,--,--,116,48
Vitamins
"Vitamin C, total ascorbic acid",mg,--,--,4.3,1.8
"Vitamin A, IU",IU,--,--,530,220
Lipids
"Fatty acids, total saturated",g,--,--,2.000,0.830
"Fatty acids, total trans",g,--,--,0.000,0.000
"Cholesterol",mg,--,--,10,4
Amino Acids
Other
Ingredients
"VANILLA YOGURT (CULTURED PASTEURIZED GRADE A LOWFAT MILK, SUGAR, MODIFIED CORN STARCH, NATURAL FLAVOR, KOSHER GELATIN, GELLAN GUM, POTASSIUM SORBATE [FOR FRESHNESS], VITAMIN A PALMITATE, VITAMIN D3), BLUEBERRIES, GRANOLA (WHOLE ROLLED OATS, MILLED CANE SUGAR, VEGETABLE OIL [CANOLA AND/OR SAFFLOWER AND/OR SUNFLOWER OIL], RICE FLOUR, CORNSTARCH, ALMONDS, HONEY, SALT, NATURAL FLAVOR, BARLEY MALT SYRUP, CARDAMOM SEED, FENNEL SEED, FENUGREEK SEED, NUTMEG)." Date available: 07/14/2017 Date last updated by company: 07/14/2017
