Source: USDA Branded Food Products Database Release December 2017 Software v.3.8.6.4 2017-10-02
Report Run at: December 19, 2017 06:19 EST
"Nutrient data for: 45111984, YOKIDS ORGANIC SQUEEZERS, LOWFAT YOGURT, UPC: 052159702892"
Food Group:  Branded Food Products Database
Common Name:

Nutrient,Unit,Data points,Std. Error,"1 TUBE = 56.0g",1Value per 100 g,
Proximates
"Energy",kcal,--,--,60,107
"Protein",g,--,--,2.00,3.57
"Total lipid (fat)",g,--,--,1.00,1.79
"Carbohydrate, by difference",g,--,--,11.00,19.64
"Fiber, total dietary",g,--,--,0.0,0.0
"Sugars, total",g,--,--,8.00,14.29
Minerals
"Calcium, Ca",mg,--,--,80,143
"Iron, Fe",mg,--,--,0.00,0.00
"Potassium, K",mg,--,--,120,214
"Sodium, Na",mg,--,--,35,62
Vitamins
"Vitamin C, total ascorbic acid",mg,--,--,0.0,0.0
"Vitamin A, IU",IU,--,--,0,0
"Vitamin D",IU,--,--,40,71
Lipids
"Fatty acids, total saturated",g,--,--,0.498,0.890
"Fatty acids, total trans",g,--,--,0.000,0.000
"Cholesterol",mg,--,--,5,9
Amino Acids
Other
Ingredients
"OUR RECIPE: CULTURED PASTEURIZED ORGANIC REDUCED FAT MILK, ORGANIC CANE SUGAR, ORGANIC CORN STARCH, ORGANIC CAROB BEAN GUM, GELLAN GUM, PECTIN, NATURAL FLAVOR, ORGANIC ANNATTO EXTRACT (FOR COLOR), VITAMIN D3., 6 LIVE ACTIVE CULTURES: S. THERMOPHILUS, L. BULGARICUS, L. ACIDOPHILUS, BIFIDUS, L. CASEI AND L. RHAMNOSUS." Date available: 07/14/2017 Date last updated by company: 07/14/2017
