Source: USDA Branded Food Products Database Release December 2017 Software v.3.8.6.4 2017-10-02
Report Run at: December 19, 2017 06:22 EST
"Nutrient data for: 45293996, YOPLAIT, NONFAT YOGURT & JUICE BEVERAGE, PINEAPPLE, MANGO, UPC: 041483040107"
Food Group:  Branded Food Products Database
Common Name:

Nutrient,Unit,Data points,Std. Error,"1 cup = 236.0g",1Value per 100 g,
Proximates
"Energy",kcal,--,--,111,47
"Protein",g,--,--,5.99,2.54
"Total lipid (fat)",g,--,--,0.00,0.00
"Carbohydrate, by difference",g,--,--,19.99,8.47
"Fiber, total dietary",g,--,--,0.0,0.0
"Sugars, total",g,--,--,19.00,8.05
Minerals
"Calcium, Ca",mg,--,--,300,127
"Iron, Fe",mg,--,--,0.00,0.00
"Potassium, K",mg,--,--,250,106
"Sodium, Na",mg,--,--,80,34
Vitamins
"Vitamin C, total ascorbic acid",mg,--,--,61.1,25.9
"Vitamin A, IU",IU,--,--,2287,969
"Vitamin D",IU,--,--,99,42
Lipids
"Fatty acids, total saturated",g,--,--,0.000,0.000
"Fatty acids, total trans",g,--,--,0.000,0.000
"Cholesterol",mg,--,--,5,2
Amino Acids
Other
Ingredients
"CULTURED PASTEURIZED GRADE A NONFAT MILK, WATER, FRUCTOSE, SUGAR, JUICE CONCENTRATES (APPLE, PEAR, PINEAPPLE, MANGO), MILK PROTEIN CONCENTRATE, CONTAINS LESS THAN 1% OF: VEGETABLE JUICE AND BETA CAROTENE (COLOR), NATURAL FLAVOR, MONK FRUIT JUICE CONCENTRATE AND REBIANA (SWEETENERS), PECTIN, CITRIC ACID, SODIUM POLYPHOSPHATE, TRICALCIUM PHOSPHATE, ASCORBIC ACID (VITAMIN C), NATAMYCIN (A NATURAL MOLD INHIBITOR), VITAMIN A PALMITATE AND VITAMIN D3." Date available: 08/16/2017 Date last updated by company: 08/16/2017
