Source: USDA Branded Food Products Database Release December 2017 Software v.3.8.6.4 2017-10-02
Report Run at: December 19, 2017 06:28 EST
"Nutrient data for: 45167162, YU YEE, CHINESE RICE COOKING WINE, UPC: 023452080024"
Food Group:  Branded Food Products Database
Common Name:

Nutrient,Unit,Data points,Std. Error,"0.25 cup = 2.0g",1Value per 100 g,
Proximates
"Energy",kcal,--,--,2,117
"Protein",g,--,--,0.03,1.67
"Total lipid (fat)",g,--,--,0.00,0.00
"Carbohydrate, by difference",g,--,--,0.00,0.00
Minerals
"Sodium, Na",mg,--,--,30,1500
Vitamins
Lipids
"Fatty acids, total saturated",g,--,--,0.000,0.000
"Cholesterol",mg,--,--,0,0
Amino Acids
Other
Ingredients
"RICE, WATER, SALT, YEAST." Date available: 08/10/2017 Date last updated by company: 08/10/2017
