Source: USDA Branded Food Products Database Release December 2017 Software v.3.8.6.4 2017-10-02
Report Run at: December 19, 2017 06:25 EST
"Nutrient data for: 45150249, YUCA TORTILLA CHIPS, UPC: 851526005044"
Food Group:  Branded Food Products Database
Common Name:

Nutrient,Unit,Data points,Std. Error,"1 ONZ = 28.0g",1Value per 100 g,
Proximates
"Energy",kcal,--,--,150,536
"Protein",g,--,--,2.00,7.14
"Total lipid (fat)",g,--,--,7.00,25.00
"Carbohydrate, by difference",g,--,--,20.00,71.43
"Fiber, total dietary",g,--,--,2.0,7.1
"Sugars, total",g,--,--,2.00,7.14
Minerals
"Calcium, Ca",mg,--,--,20,71
"Iron, Fe",mg,--,--,1.29,4.59
"Sodium, Na",mg,--,--,160,571
Vitamins
"Vitamin C, total ascorbic acid",mg,--,--,0.0,0.0
"Vitamin A, IU",IU,--,--,0,0
Lipids
"Fatty acids, total saturated",g,--,--,1.000,3.570
"Fatty acids, total trans",g,--,--,0.000,0.000
"Cholesterol",mg,--,--,0,0
Amino Acids
Other
Ingredients
"WHOLE GRAIN CORN FLOUR, CASSAVA FLOUR, VEGETABLE OIL (CORN, COTTONSEED, CANOLA), CANE SUGAR, SEA SALT, MALTODEXTRIN (FROM CORN), CHILI POWDER, CITRIC ACID, ONION POWDER, YEAST EXTRACT, TOMATO POWDER, SODIUM ACETATE, LIME JUICE POWDER, DEXTROSE, CANOLA OIL, GARLIC POWDER, <2% SILICON DIOXIDE (ANTI-CAKING), NATURAL COLOR (ANNATTO, PAPRIKA), SPICES." Date available: 07/14/2017 Date last updated by company: 07/14/2017
