Source: USDA Branded Food Products Database Release December 2017 Software v.3.8.6.4 2017-10-02
Report Run at: December 19, 2017 06:25 EST
"Nutrient data for: 45316507, YUCATAN NUT MIX TRAIL MIX, UPC: 046567023304"
Food Group:  Branded Food Products Database
Common Name:

Nutrient,Unit,Data points,Std. Error,"0.333 cup = 30.0g",1Value per 100 g,
Proximates
"Energy",kcal,--,--,150,500
"Protein",g,--,--,5.00,16.67
"Total lipid (fat)",g,--,--,12.00,40.00
"Carbohydrate, by difference",g,--,--,11.00,36.67
"Fiber, total dietary",g,--,--,2.0,6.7
"Sugars, total",g,--,--,1.00,3.33
Minerals
"Calcium, Ca",mg,--,--,20,67
"Iron, Fe",mg,--,--,1.80,6.00
"Sodium, Na",mg,--,--,240,800
Vitamins
"Vitamin C, total ascorbic acid",mg,--,--,2.0,6.7
"Vitamin A, IU",IU,--,--,334,1112
Lipids
"Fatty acids, total saturated",g,--,--,1.500,5.000
"Fatty acids, total trans",g,--,--,0.000,0.000
"Cholesterol",mg,--,--,0,0
Amino Acids
Other
Ingredients
"PEANUTS, PUMPKIN SEEDS, TOASTED CORN (CORN, HIGH OLEIC CANOLA OIL, CORN OIL, SALT), ALMONDS, HOT CAJUN CORN STICKS (YELLOW CORN MASA, SOYBEAN OIL, CAJUN SEASONING [SPICES, CORN FLOUR, SALT, ONION POWDER, POTATO FLOUR, TOMATO POWDER, NATURAL FLAVORINGS, GARLIC POWDER, GREEN BELL PEPPER POWDER, EXTRACTIVES OF PAPRIKA {COLOR} AND OTHER SPICES, CITRIC ACID], SALT), CAJUN SESAME STICKS (UNBLEACHED WHEAT FLOUR [CONTAINS MALTED BARLEY FLOUR AS A NATURAL ENZYME ADDITIVE], SOYBEAN OIL, SESAME SEEDS, GROUND BULGUR WHEAT, CAJUN SEASONING [SALT, SPICES {INCLUDES PAPRIKA}, DEHYDRATED ONION, TORULA YEAST, GREEN BELL PEPPER, DEHYDRATED GARLIC, COCOA POWDER {PROCESSED WITH ALKALI}, OLEORESIN PAPRIKA {COLOR}], SALT, BEET POWDER [COLOR], TURMERIC [COLOR]), CRUNCHY PEANUT (PEANUTS, WHEAT FLOUR, RICE FLOUR, SUGAR, LEAVENING [AMMONIUM BICARBONATE, BAKING SODA], SALT, SOY SAUCE [WATER CONTAIN ONE OR MORE OF THE FOLLOWING: PEANUT, CANOLA, SUNFLOWER AND/OR SOYBEAN OIL), CHILI LEMON SEASONING (SALT, CHILI POWDER, CITRIC ACID, NATURAL FLAVORS, LEMON JUICE POWDER [CORN SYRUP, NATURAL FLAVORING], SOYBEAN OIL [PROCESSING AID] WITH NO MORE THAN 2% SILICON DIOXIDE AS ANTICAKING AGENT), CHIPOTLE LIME SEASONING (SALT, CHIPOTLE PEPPER, SPICES, TOMATO POWDER, JALAPENO POWDER, ONION POWDER, GARLIC POWDER, CITRIC ACID, SPICE EXTRACTIVES [INCLUDING PAPRIKA], LIME OIL, NATURAL SMOKE FLAVOR [BARLEY MALT FLOUR], CILANTRO, LESS THAN 2% SILICON DIOXIDE ADDED TO PREVENT CAKING), SPICY SEASONING (SALT, GROUND CHILI PEPPERS, GROUND CAYENNE PEPPERS, SPICE EXTRACTIVES, TORULA YEAST, NATURAL FLAVORS, SILICON DIOXIDE [LESS THAN 2% TO PREVENT CAKING]), SALT." Date available: 07/14/2017 Date last updated by company: 07/14/2017
