Source: USDA Branded Food Products Database Release December 2017 Software v.3.8.6.4 2017-10-02
Report Run at: December 19, 2017 06:26 EST
"Nutrient data for: 45179878, YUMBANA SHOPPE, CHOCOLATE DRIZZLE CAKE, UPC: 811257020952"
Food Group:  Branded Food Products Database
Common Name:

Nutrient,Unit,Data points,Std. Error,"1 SERVING = 57.0g",1Value per 100 g,
Proximates
"Energy",kcal,--,--,190,333
"Protein",g,--,--,1.00,1.75
"Total lipid (fat)",g,--,--,8.00,14.04
"Carbohydrate, by difference",g,--,--,26.00,45.61
"Fiber, total dietary",g,--,--,1.0,1.8
"Sugars, total",g,--,--,18.00,31.58
Minerals
"Calcium, Ca",mg,--,--,40,70
"Iron, Fe",mg,--,--,0.51,0.89
"Potassium, K",mg,--,--,15,26
"Sodium, Na",mg,--,--,85,149
Vitamins
"Vitamin C, total ascorbic acid",mg,--,--,0.0,0.0
"Vitamin A, IU",IU,--,--,0,0
Lipids
"Fatty acids, total saturated",g,--,--,2.502,4.390
"Fatty acids, total monounsaturated",g,--,--,3.500,6.140
"Fatty acids, total polyunsaturated",g,--,--,1.499,2.630
"Fatty acids, total trans",g,--,--,0.000,0.000
"Cholesterol",mg,--,--,15,26
Amino Acids
Other
Ingredients
"CANE SUGAR, COCONUT MILK )WATER, ORGANIC COCONUT CREAM, CALCIUM PHOSPHATE, MAGNESIUM PHOSPHATE, CARRAGEENAN, GUAR GUM, VITAMIN A PALMITATE, VITAMIN D-2, SELENIUM, ZINC DIOXIDE, FOLIC ACID, VITAMIN B-12) DECAFFEINATED COFFEE, WHITE RICE FLOUR, CONFECTIONERS SUGAR ( CANE SUGAR, CORNSTARCH), PALM OIL, CANOLA OIL, EGGS, POTATO STARCH, COCOA CHOCOLATE CHIPS (CANE SUGAR, UNSWEETENED CHOCOLATE BUTTER), TAPIOCA STARCH, SORGHUM FLOUR, APPLE CIDER VINEGAR, AL-FREE BAKING POWDER (MONOCALCIUM PHOSPHATE, BICARBONATE OF SODA, NON-GMO CORNSTARCH), VANILLA EXTRACT, BAKING SODA, XANTHAN GUM, ENZYMES (CALCIUM SULFATE, ENZYMES), SALT." Date available: 07/14/2017 Date last updated by company: 07/14/2017
