Source: USDA Branded Food Products Database Release December 2017 Software v.3.8.6.4 2017-10-02
Report Run at: December 19, 2017 06:27 EST
"Nutrient data for: 45014554, YUMBUTTER, SUPERFOOD ALMOND BUTTER, UPC: 736211708083"
Food Group:  Branded Food Products Database
Common Name:

Nutrient,Unit,Data points,Std. Error,"2.0 Tbsp = 32.0g",1Value per 100 g,
Proximates
"Energy",kcal,--,--,180,562
"Protein",g,--,--,6.00,18.75
"Total lipid (fat)",g,--,--,15.00,46.88
"Carbohydrate, by difference",g,--,--,8.00,25.00
"Fiber, total dietary",g,--,--,3.0,9.4
"Sugars, total",g,--,--,3.00,9.38
Minerals
"Calcium, Ca",mg,--,--,90,281
"Iron, Fe",mg,--,--,4.22,13.19
"Sodium, Na",mg,--,--,8,25
Vitamins
"Vitamin C, total ascorbic acid",mg,--,--,215.6,673.8
"Vitamin A, IU",IU,--,--,0,0
Lipids
"Fatty acids, total saturated",g,--,--,0.998,3.120
"Fatty acids, total trans",g,--,--,0.000,0.000
"Cholesterol",mg,--,--,0,0
Amino Acids
Other
Ingredients
"OUR WHOLE FOOD RECIPE: CALIFORNIA ALMONDS, ORGANIC SUNFLOWER SEEDS, ORGANIC GROUND CHIA SEEDS, ORGANIC HEMP SEEDS, ORGANIC COCONUT SUGAR, ORGANIC COCONUT OIL, ORGANIC GOJI BERRY POWDER, ORGANIC LUCUMA, LOVE." Date available: 07/14/2017 Date last updated by company: 07/14/2017
