Source: USDA Branded Food Products Database Release December 2017 Software v.3.8.6.4 2017-10-02
Report Run at: December 19, 2017 06:28 EST
"Nutrient data for: 45045813, YUMMY, TENDER-SHAPED CHICKEN BREAST PATTY FRITTERS WITH RIB MEAT, UPC: 064563221838"
Food Group:  Branded Food Products Database
Common Name:

Nutrient,Unit,Data points,Std. Error,"2.0 PIECES = 78.0g",1Value per 100 g,
Proximates
"Energy",kcal,--,--,180,231
"Protein",g,--,--,10.00,12.82
"Total lipid (fat)",g,--,--,9.00,11.54
"Carbohydrate, by difference",g,--,--,15.00,19.23
"Fiber, total dietary",g,--,--,1.0,1.3
"Sugars, total",g,--,--,0.00,0.00
Minerals
"Calcium, Ca",mg,--,--,20,26
"Iron, Fe",mg,--,--,0.79,1.01
"Sodium, Na",mg,--,--,350,449
Vitamins
"Vitamin C, total ascorbic acid",mg,--,--,0.0,0.0
"Vitamin A, IU",IU,--,--,0,0
Lipids
"Fatty acids, total saturated",g,--,--,1.498,1.920
"Fatty acids, total trans",g,--,--,0.000,0.000
"Cholesterol",mg,--,--,20,26
Amino Acids
Other
Ingredients
"BONELESS SKINLESS CHICKEN BREAST WITH RIB MEAT, WATER, WHEAT FLOUR, YELLOW CORN FLOUR. CONTAINS 2% OR LESS OF THE FOLLOWING: ISOLATED SOY PROTEIN, SEA SALT, CORN STARCH, DISTILLED VINEGAR, NATURAL CHICKEN FLAVOR, SUGAR, LEAVENING (SODIUM BICARBONATE), YEAST, SPICES, CANOLA OIL, SALT, NATURAL FLAVOR, GARLIC POWDER, ONION POWDER, GUAR GUM, EXTRACTIVE OF PAPRIKA, FLAX MEAL" Date available: 06/24/2017 Date last updated by company: 06/24/2017
