Source: USDA Branded Food Products Database Release December 2017 Software v.3.8.6.4 2017-10-02
Report Run at: December 19, 2017 06:28 EST
"Nutrient data for: 45164442, YVES THURIES, ASSORTMENT OF COATED CHOCOLATE EGGS, UPC: 066909100913"
Food Group:  Branded Food Products Database
Common Name:

Nutrient,Unit,Data points,Std. Error,"3.0 PIECES = 35.0g",1Value per 100 g,
Proximates
"Energy",kcal,--,--,190,543
"Protein",g,--,--,1.00,2.86
"Total lipid (fat)",g,--,--,12.00,34.29
"Carbohydrate, by difference",g,--,--,21.00,60.00
"Fiber, total dietary",g,--,--,1.0,2.9
"Sugars, total",g,--,--,19.00,54.29
Minerals
"Calcium, Ca",mg,--,--,40,114
"Iron, Fe",mg,--,--,0.00,0.00
"Sodium, Na",mg,--,--,30,86
Vitamins
"Vitamin C, total ascorbic acid",mg,--,--,3.4,9.8
"Vitamin A, IU",IU,--,--,71,204
Lipids
"Fatty acids, total saturated",g,--,--,7.000,20.000
"Fatty acids, total trans",g,--,--,0.000,0.000
"Cholesterol",mg,--,--,10,29
Amino Acids
Other
Ingredients
"SUGAR, COCOA BUTTER, DRY WHOLE MILK, COCOA MASS, CLARIFIED BUTTER, ALMONDS, COOKIES (WHEAT FLOUR, SUGAR, CLARIFIED BUTTER, SKIM MILK POWDER, BARLEY MALT, SALT), LACTOSE, DEXTROSE, GLUCOSE SYRUP, HAZELNUTS, COATING (SHELLAC AND GUM ARABIC), SOY LECITHIN, NATURAL COLORS (TITANIUM DIOXIDE, CAROTENE, VEGETABLE JUICE, SPIRULINA), FLOWER SALT, NATURAL AND ARTIFICIAL FLAVORS, SALT, CITRIC ACID." Date available: 07/14/2017 Date last updated by company: 07/14/2017
