Source: USDA Branded Food Products Database Release December 2017 Software v.3.8.6.4 2017-10-02
Report Run at: December 19, 2017 06:36 EST
"Nutrient data for: 45101425, Z CRACKERS, HANDCUT RUSTIC CRUNCH CRACKERS, UPC: 754877000341"
Food Group:  Branded Food Products Database
Common Name:

Nutrient,Unit,Data points,Std. Error,"1.1 ONZ = 31.0g",1Value per 100 g,
Proximates
"Energy",kcal,--,--,100,323
"Protein",g,--,--,3.00,9.68
"Total lipid (fat)",g,--,--,2.50,8.06
"Carbohydrate, by difference",g,--,--,16.00,51.61
"Fiber, total dietary",g,--,--,1.0,3.2
"Sugars, total",g,--,--,0.00,0.00
Minerals
"Calcium, Ca",mg,--,--,0,0
"Iron, Fe",mg,--,--,1.74,5.62
"Sodium, Na",mg,--,--,290,935
Vitamins
"Vitamin C, total ascorbic acid",mg,--,--,0.0,0.0
"Vitamin A, IU",IU,--,--,0,0
Lipids
"Fatty acids, total saturated",g,--,--,0.000,0.000
"Fatty acids, total trans",g,--,--,0.000,0.000
"Cholesterol",mg,--,--,0,0
Amino Acids
Other
Ingredients
"UNBLEACHED ENRICHED WHEAT FLOUR [WHEAT FOUR, MALTED BARLEY FLOUR, NIACIN, IRON, THIAMIN MONONITRATE, (VITAMIN B1), RIBOFLAVIN (VITAMIN B2), FOLIC ACID], WATER, CORNMEAL, CANOLA OIL, WHEAT BRAN, SALT, OLIVE OIL, SEA SALT, VITAMIN E (TOCOPHEROL, SOYBEAN OIL)." Date available: 06/25/2017 Date last updated by company: 06/25/2017
