Source: USDA Branded Food Products Database Release December 2017 Software v.3.8.6.4 2017-10-02
Report Run at: December 19, 2017 06:29 EST
"Nutrient data for: 45289252, ZA' ATAR SEASONING, UPC: 041313045340"
Food Group:  Branded Food Products Database
Common Name:

Nutrient,Unit,Data points,Std. Error,"0.7 GRM = 0.7g",1Value per 100 g,
Proximates
"Energy",kcal,--,--,0,0
"Protein",g,--,--,0.00,0.00
"Total lipid (fat)",g,--,--,0.00,0.00
"Carbohydrate, by difference",g,--,--,0.00,0.00
"Fiber, total dietary",g,--,--,0.0,0.0
"Sugars, total",g,--,--,0.00,0.00
Minerals
"Calcium, Ca",mg,--,--,3,429
"Iron, Fe",mg,--,--,0.00,0.00
"Potassium, K",mg,--,--,1,143
"Sodium, Na",mg,--,--,45,6429
Vitamins
"Vitamin D",IU,--,--,0,0
Lipids
"Fatty acids, total saturated",g,--,--,0.000,0.000
"Fatty acids, total trans",g,--,--,0.000,0.000
"Cholesterol",mg,--,--,0,0
Amino Acids
Other
Ingredients
"A BLEND OF SUMAC, SESAME SEEDS, SEA SALT AND SPICES." Date available: 07/14/2017 Date last updated by company: 07/14/2017
