Source: USDA Branded Food Products Database Release December 2017 Software v.3.8.6.4 2017-10-02
Report Run at: December 19, 2017 06:30 EST
"Nutrient data for: 45250066, ZALATIMO SWEETS, SESAME BRITTLE, UPC: 074265023432"
Food Group:  Branded Food Products Database
Common Name:

Nutrient,Unit,Data points,Std. Error,"32.0 GRM = 32.0g",1Value per 100 g,
Proximates
"Energy",kcal,--,--,150,469
"Protein",g,--,--,2.00,6.25
"Total lipid (fat)",g,--,--,6.00,18.75
"Carbohydrate, by difference",g,--,--,23.00,71.88
"Fiber, total dietary",g,--,--,1.0,3.1
"Sugars, total",g,--,--,8.00,25.00
Minerals
"Calcium, Ca",mg,--,--,5500,17188
"Iron, Fe",mg,--,--,1.00,3.12
"Sodium, Na",mg,--,--,12,38
Vitamins
"Vitamin C, total ascorbic acid",mg,--,--,0.0,0.0
"Vitamin A, IU",IU,--,--,17,53
Lipids
"Fatty acids, total saturated",g,--,--,4.000,12.500
"Cholesterol",mg,--,--,16,50
Amino Acids
Other
Ingredients
"INGREDIENTS: FLOUR, BUTTER GHEE, BUTTER, SUGAR, SESAME." Date available: 07/14/2017 Date last updated by company: 07/14/2017
