Source: USDA Branded Food Products Database Release December 2017 Software v.3.8.6.4 2017-10-02
Report Run at: December 19, 2017 06:30 EST
"Nutrient data for: 45142985, ZAPATA, LITE COCONUT MILK, UPC: 041277006166"
Food Group:  Branded Food Products Database
Common Name:

Nutrient,Unit,Data points,Std. Error,"7.0 | ABOUT = 60.0g",1Value per 100 g,
Proximates
"Energy",kcal,--,--,40,67
"Protein",g,--,--,0.00,0.00
"Total lipid (fat)",g,--,--,4.00,6.67
"Carbohydrate, by difference",g,--,--,1.00,1.67
"Sugars, total",g,--,--,0.00,0.00
Minerals
"Sodium, Na",mg,--,--,10,17
Vitamins
Lipids
"Fatty acids, total saturated",g,--,--,3.498,5.830
"Fatty acids, total trans",g,--,--,0.000,0.000
"Cholesterol",mg,--,--,0,0
Amino Acids
Other
Ingredients
"COCONUT MILK, WATER, GUAR GUM." Date available: 07/14/2017 Date last updated by company: 07/14/2017
