Source: USDA Branded Food Products Database Release December 2017 Software v.3.8.6.4 2017-10-02
Report Run at: December 19, 2017 06:30 EST
"Nutrient data for: 45157449, ZAPP'S, KETTLE STYLE POTATO CHIPS, SIZZLING STEAK, UPC: 083791020228"
Food Group:  Branded Food Products Database
Common Name:

Nutrient,Unit,Data points,Std. Error,"1 BAG = 56.7g",1Value per 100 g,
Proximates
"Energy",kcal,--,--,300,529
"Protein",g,--,--,4.00,7.05
"Total lipid (fat)",g,--,--,16.00,28.22
"Carbohydrate, by difference",g,--,--,34.00,59.96
"Fiber, total dietary",g,--,--,2.0,3.5
"Sugars, total",g,--,--,1.00,1.76
Minerals
"Calcium, Ca",mg,--,--,0,0
"Iron, Fe",mg,--,--,0.64,1.12
"Sodium, Na",mg,--,--,440,776
Vitamins
"Vitamin C, total ascorbic acid",mg,--,--,10.6,18.7
"Vitamin A, IU",IU,--,--,0,0
Lipids
"Fatty acids, total saturated",g,--,--,2.999,5.290
"Fatty acids, total trans",g,--,--,0.000,0.000
"Cholesterol",mg,--,--,0,0
Amino Acids
Other
Ingredients
"POTATOES, PEANUT OIL OR A BLEND OF PEANUT OIL AND CANOLA, CORN, OR SUNFLOWER OIL, SALT, MALTODEXTRIN (DERIVED FROM CORN), SUGAR, WORCESTERSHIRE SAUCE (MOLASSES, VINEGAR, CORN SYRUP, CARAMEL COLOR, GARLIC, SUCROSE, SPICES, TAMARIND, NATURAL FLAVOR), ONION POWDER, TORULA YEAST EXTRACT, GARLIC POWDER, BROWN SUGAR, NATURAL FLAVOR, CITRIC ACID, NATURAL SMOKE FLAVOR, SPICE, VINEGAR, MALIC ACID." Date available: 07/14/2017 Date last updated by company: 07/14/2017
