Source: USDA Branded Food Products Database Release December 2017 Software v.3.8.6.4 2017-10-02
Report Run at: December 19, 2017 06:32 EST
"Nutrient data for: 45106983, ZATARAIN'S, BLACK-EYED PEAS AND RICE, UPC: 071429094956"
Food Group:  Branded Food Products Database
Common Name:

Nutrient,Unit,Data points,Std. Error,"1 CUP PREPARED) | ( = 66.0g",1Value per 100 g,
Proximates
"Energy",kcal,--,--,230,348
"Protein",g,--,--,9.00,13.64
"Total lipid (fat)",g,--,--,0.50,0.76
"Carbohydrate, by difference",g,--,--,46.00,69.70
"Fiber, total dietary",g,--,--,4.0,6.1
"Sugars, total",g,--,--,1.00,1.52
Minerals
"Calcium, Ca",mg,--,--,40,61
"Iron, Fe",mg,--,--,1.84,2.79
"Sodium, Na",mg,--,--,1030,1561
Vitamins
"Vitamin C, total ascorbic acid",mg,--,--,8.2,12.4
"Vitamin A, IU",IU,--,--,137,207
Lipids
"Fatty acids, total saturated",g,--,--,0.000,0.000
"Fatty acids, total trans",g,--,--,0.000,0.000
"Cholesterol",mg,--,--,0,0
Amino Acids
Other
Ingredients
"ENRICHED LONG GRAIN PARBOILED RICE (RICE, IRON, NIACIN, THIAMINE MONONITRATE, FOLIC ACID), BLACK-EYED PEAS, SALT, ONION, SOY SAUCE (HYDROLYZED SOY PROTEIN, CORN SYRUP SOLIDS, SALT), RED & GREEN BELL PEPPER, YEAST EXTRACT, GARLIC, SPICES (INCLUDING RED PEPPER), TORULA YEAST, DEXTROSE, AND NATURAL & ARTIFICIAL FLAVOR." Date available: 07/14/2017 Date last updated by company: 07/14/2017
