Source: USDA Branded Food Products Database Release December 2017 Software v.3.8.6.4 2017-10-02
Report Run at: December 19, 2017 06:34 EST
"Nutrient data for: 45107904, ZATARAIN'S, JAMBALAYA MIX, UPC: 071429099807"
Food Group:  Branded Food Products Database
Common Name:

Nutrient,Unit,Data points,Std. Error,"1 CUP PREPARED) | ( = 45.0g",1Value per 100 g,
Proximates
"Energy",kcal,--,--,160,356
"Protein",g,--,--,4.00,8.89
"Total lipid (fat)",g,--,--,0.50,1.11
"Carbohydrate, by difference",g,--,--,34.00,75.56
"Fiber, total dietary",g,--,--,1.0,2.2
"Sugars, total",g,--,--,0.00,0.00
Minerals
"Calcium, Ca",mg,--,--,20,44
"Iron, Fe",mg,--,--,1.80,4.00
"Sodium, Na",mg,--,--,300,667
Vitamins
"Vitamin C, total ascorbic acid",mg,--,--,9.0,20.0
"Vitamin A, IU",IU,--,--,400,889
Lipids
"Fatty acids, total saturated",g,--,--,0.000,0.000
"Fatty acids, total trans",g,--,--,0.000,0.000
"Cholesterol",mg,--,--,0,0
Amino Acids
Other
Ingredients
"ENRICHED LONG GRAIN PARBOILED RICE (RICE, IRON, NIACIN, THIAMINE MONONITRATE, FOLIC ACID), ONION, SEA SALT, SPICES (INCLUDING PAPRIKA, RED PEPPER, CHILI PEPPER), RED AND GREEN BELL PEPPER, YEAST EXTRACT, GARLIC, SALT, AND CARAMEL COLOR." Date available: 07/14/2017 Date last updated by company: 07/14/2017
