Source: USDA Branded Food Products Database Release December 2017 Software v.3.8.6.4 2017-10-02
Report Run at: December 19, 2017 06:32 EST
"Nutrient data for: 45107123, ZATARAIN'S, BROWN RICE JAMBALAYA MIX, UPC: 071429012257"
Food Group:  Branded Food Products Database
Common Name:

Nutrient,Unit,Data points,Std. Error,"1 CUP PREPARED) | ( = 40.0g",1Value per 100 g,
Proximates
"Energy",kcal,--,--,140,350
"Protein",g,--,--,3.00,7.50
"Total lipid (fat)",g,--,--,1.00,2.50
"Carbohydrate, by difference",g,--,--,29.00,72.50
"Fiber, total dietary",g,--,--,2.0,5.0
"Sugars, total",g,--,--,1.00,2.50
Minerals
"Calcium, Ca",mg,--,--,0,0
"Iron, Fe",mg,--,--,0.81,2.02
"Sodium, Na",mg,--,--,470,1175
Vitamins
"Vitamin C, total ascorbic acid",mg,--,--,13.5,33.8
"Vitamin A, IU",IU,--,--,338,844
Lipids
"Fatty acids, total saturated",g,--,--,0.000,0.000
"Fatty acids, total trans",g,--,--,0.000,0.000
"Cholesterol",mg,--,--,0,0
Amino Acids
Other
Ingredients
"LONG GRAIN PARBOILED BROWN RICE, ONION, SALT, RED & GREEN BELL PEPPER, PAPRIKA, GARLIC, SPICES (INCLUDING RED PEPPER), YEAST EXTRACT, SOY SAUCE (HYDROLYZED SOY PROTEIN, CORN SYRUP SOLIDS, SALT), MONOSODIUM GLUTAMATE (FLAVOR ENHANCER), AND CARAMEL COLOR." Date available: 07/14/2017 Date last updated by company: 07/14/2017
