Source: USDA Branded Food Products Database Release December 2017 Software v.3.8.6.4 2017-10-02
Report Run at: December 19, 2017 06:34 EST
"Nutrient data for: 45107710, ZATARAIN'S, GUMBO MIX WITH RICE, UPC: 071429091016"
Food Group:  Branded Food Products Database
Common Name:

Nutrient,Unit,Data points,Std. Error,"1 CUP PREPARED) | ( = 25.0g",1Value per 100 g,
Proximates
"Energy",kcal,--,--,90,360
"Protein",g,--,--,2.00,8.00
"Total lipid (fat)",g,--,--,0.00,0.00
"Carbohydrate, by difference",g,--,--,18.00,72.00
"Fiber, total dietary",g,--,--,1.0,4.0
"Sugars, total",g,--,--,0.00,0.00
Minerals
"Calcium, Ca",mg,--,--,0,0
"Iron, Fe",mg,--,--,1.95,7.78
"Sodium, Na",mg,--,--,740,2960
Vitamins
"Vitamin C, total ascorbic acid",mg,--,--,32.4,129.6
"Vitamin A, IU",IU,--,--,360,1440
Lipids
"Fatty acids, total saturated",g,--,--,0.000,0.000
"Fatty acids, total trans",g,--,--,0.000,0.000
"Cholesterol",mg,--,--,0,0
Amino Acids
Other
Ingredients
"ENRICHED LONG GRAIN PARBOILED RICE (RICE, IRON, NIACIN, THIAMINE MONONITRATE, FOLIC ACID), ENRICHED BLEACHED WHEAT FLOUR (FLOUR, MALTED BARLEY FLOUR, NIACIN, IRON, THIAMINE MONONITRATE, RIBOFLAVIN, FOLIC ACID), SALT, RED AND GREEN BELL PEPPER, MODIFIED CORN STARCH, WHEAT FLOUR, ONION, SPICES (INCLUDING RED PEPPER, CHILI PEPPER), GARLIC, YEAST EXTRACT, SOY SAUCE (HYDROLYZED SOY PROTEIN, CORN SYRUP SOLIDS, SALT), MONOSODIUM GLUTAMATE (FLAVOR ENHANCER), AND CARAMEL COLOR." Date available: 07/14/2017 Date last updated by company: 07/14/2017
