Source: USDA Branded Food Products Database Release December 2017 Software v.3.8.6.4 2017-10-02
Report Run at: December 19, 2017 06:32 EST
"Nutrient data for: 45107166, ZATARAIN'S, CHEDDAR BROCCOLI RICE, UPC: 071429010000"
Food Group:  Branded Food Products Database
Common Name:

Nutrient,Unit,Data points,Std. Error,"1 CUP PREPARED) | ( = 64.0g",1Value per 100 g,
Proximates
"Energy",kcal,--,--,240,375
"Protein",g,--,--,7.00,10.94
"Total lipid (fat)",g,--,--,2.50,3.91
"Carbohydrate, by difference",g,--,--,46.00,71.88
"Fiber, total dietary",g,--,--,2.0,3.1
"Sugars, total",g,--,--,3.00,4.69
Minerals
"Calcium, Ca",mg,--,--,100,156
"Iron, Fe",mg,--,--,1.90,2.97
"Sodium, Na",mg,--,--,520,812
Vitamins
"Vitamin C, total ascorbic acid",mg,--,--,2.6,4.0
"Vitamin A, IU",IU,--,--,351,549
Lipids
"Fatty acids, total saturated",g,--,--,1.498,2.340
"Fatty acids, total trans",g,--,--,0.000,0.000
"Cholesterol",mg,--,--,5,8
Amino Acids
Other
Ingredients
"ENRICHED LONG PARBOILED RICE (RICE, IRON, NIACIN, THIAMINE MONONITRATE, FOLIC ACID), WHEY (MILK), WHITE CHEDDAR CHEESE (MILK, CHEESE CULTURES, SALT, ENZYMES), BROCCOLI, SEA SALT, ONION, CORN MALTODEXTRIN, ROMANO CHEESE (PART-SKIM COW'S MILK, CHEESE CULTURES, SALT, ENZYMES, MODIFIED CORN STARCH, YEAST EXTRACT, PARMESAN, SALT, ENZYMES), SUGAR, NATURAL FLAVOR SALT, SPICES (INCLUDING CHILI PEPPER, RED PEPPER TURMERIC), DISODIUM PHOSPHATE, ANNATTO (FOR COLOR), BUTTERMILK, XANTHAN GUM, EXTRACTIVES OF PAPRIKA AND EXTRACTIVES OF ANNATTO, AND GARLIC." Date available: 07/14/2017 Date last updated by company: 07/14/2017
