Source: USDA Branded Food Products Database Release December 2017 Software v.3.8.6.4 2017-10-02
Report Run at: December 19, 2017 06:31 EST
"Nutrient data for: 45107175, ZATARAIN'S, BAKE & CRISP CHICKEN BREADING MIX, UPC: 071429028500"
Food Group:  Branded Food Products Database
Common Name:

Nutrient,Unit,Data points,Std. Error,"1.5 Tbsp = 11.0g",1Value per 100 g,
Proximates
"Energy",kcal,--,--,40,364
"Protein",g,--,--,1.00,9.09
"Total lipid (fat)",g,--,--,0.50,4.55
"Carbohydrate, by difference",g,--,--,7.00,63.64
Minerals
"Sodium, Na",mg,--,--,410,3727
Vitamins
Lipids
Amino Acids
Other
Ingredients
"PANKO BREAD CRUMBS (BLEACHED WHEAT FLOUR, SUGAR, SALT, YEAST, CARAMEL COLOR, YELLOW CORN FLOUR, EXTRACTIVES OF PAPRIKA, EXTRACTIVES OF ANNATTO), SALT, ENRICHED CORN FLOUR (FLOUR, NIACIN, IRON, THIAMINE MONONITRATE, RIBOFLAVIN, FOLIC ACID), GARLIC, POTATO, ENRICHED BLEACHED WHEAT FLOUR (WHEAT & MALT BARLEY FLOUR, NIACIN, IRON, THIAMINE MONONITRATE, RIBOFLAVIN, FOLIC ACID), ONION, SUNFLOWER OIL, MODIFIED CORN STARCH, SPICES (INCLUDING RED PEPPER, CHILI PEPPER, PAPRIKA), YEAST EXTRACT, SUGAR, EXTRACTIVES OF PAPRIKA, NATURAL FLAVOR, AND ASCORBIC ACID." Date available: 08/30/2017 Date last updated by company: 08/30/2017
