Source: USDA Branded Food Products Database Release December 2017 Software v.3.8.6.4 2017-10-02
Report Run at: December 19, 2017 06:32 EST
"Nutrient data for: 45107449, ZATARAIN'S, CHICKEN FRYING MIX, CHICKEN BREADING MIX, CRISPY SOUTHERN, UPC: 071429026681"
Food Group:  Branded Food Products Database
Common Name:

Nutrient,Unit,Data points,Std. Error,"2.0 Tbsp = 17.0g",1Value per 100 g,
Proximates
"Energy",kcal,--,--,60,353
"Protein",g,--,--,2.00,11.76
"Total lipid (fat)",g,--,--,0.00,0.00
"Carbohydrate, by difference",g,--,--,11.00,64.71
Minerals
"Iron, Fe",mg,--,--,2.12,12.45
"Sodium, Na",mg,--,--,690,4059
Vitamins
Lipids
Amino Acids
Other
Ingredients
"ENRICHED BLEACHED WHEAT FLOUR (WHEAT & MALT BARLEY FLOUR, NIACIN, IRON, THIAMINE MONONITRATE, RIBOFLAVIN, FOLIC ACID), SALT, SPICE, LEAVENING (SODIUM ALUMINIUM PHOSPHATE, SODIUM ACID PYROPHOSPHATE, SODIUM BICARBONATE, MONOCALCIUM PHOSPHATE), MONOSODIUM GLUTAMATE (FLAVOR ENHANCER), GARLIC, NATURAL FLAVOR, AND LEMON JUICE CONCENTRATE." Date available: 10/05/2017 Date last updated by company: 10/05/2017
