Source: USDA Branded Food Products Database Release December 2017 Software v.3.8.6.4 2017-10-02
Report Run at: December 19, 2017 06:36 EST
"Nutrient data for: 45107516, ZATARAIN'S, STUFFED OLIVES, UPC: 071429039179"
Food Group:  Branded Food Products Database
Common Name:

Nutrient,Unit,Data points,Std. Error,"6.0 | ABOUT = 15.0g",1Value per 100 g,
Proximates
"Energy",kcal,--,--,25,167
"Protein",g,--,--,0.00,0.00
"Total lipid (fat)",g,--,--,2.50,16.67
"Carbohydrate, by difference",g,--,--,0.00,0.00
Minerals
"Sodium, Na",mg,--,--,290,1933
Vitamins
Lipids
"Fatty acids, total saturated",g,--,--,0.500,3.330
"Fatty acids, total trans",g,--,--,0.000,0.000
Amino Acids
Other
Ingredients
"MANZANILLA OLIVES, WATER, SALT, MINCED PIMIENTOS, LACTIC ACID, SODIUM ALGINATE, GUAR GUM, CALCIUM CHLORIDE AND POTASSIUM SORBATE." Date available: 07/14/2017 Date last updated by company: 07/14/2017
