Source: USDA Branded Food Products Database Release December 2017 Software v.3.8.6.4 2017-10-02
Report Run at: December 19, 2017 06:34 EST
"Nutrient data for: 45107965, ZATARAIN'S, FISH FRI, SEAFOOD BREADING, UPC: 071429024311"
Food Group:  Branded Food Products Database
Common Name:

Nutrient,Unit,Data points,Std. Error,"2.0 Tbsp = 16.0g",1Value per 100 g,
Proximates
"Energy",kcal,--,--,60,375
"Protein",g,--,--,1.00,6.25
"Total lipid (fat)",g,--,--,0.00,0.00
"Carbohydrate, by difference",g,--,--,14.00,87.50
Minerals
"Iron, Fe",mg,--,--,5.63,35.16
"Sodium, Na",mg,--,--,0,0
Vitamins
Lipids
Amino Acids
Other
Ingredients
"ENRICHED CORN FLOUR (FLOUR, NIACIN, IRON, THIAMINE MONOCALCIUM, RIBOFLAVIN, FOLIC ACID)." Date available: 10/05/2017 Date last updated by company: 10/05/2017
