Source: USDA Branded Food Products Database Release December 2017 Software v.3.8.6.4 2017-10-02
Report Run at: December 19, 2017 06:37 EST
"Nutrient data for: 45040481, ZELDA'S SWEET SHOPPE, CLASSIC CARAMEL CORN, UPC: 898547001730"
Food Group:  Branded Food Products Database
Common Name:

Nutrient,Unit,Data points,Std. Error,"0.75 cup = 27.0g",1Value per 100 g,
Proximates
"Energy",kcal,--,--,130,481
"Protein",g,--,--,1.00,3.70
"Total lipid (fat)",g,--,--,6.00,22.22
"Carbohydrate, by difference",g,--,--,20.00,74.07
"Fiber, total dietary",g,--,--,1.0,3.7
"Sugars, total",g,--,--,12.00,44.44
Minerals
"Calcium, Ca",mg,--,--,0,0
"Iron, Fe",mg,--,--,1.33,4.94
"Sodium, Na",mg,--,--,350,1296
Vitamins
"Vitamin C, total ascorbic acid",mg,--,--,0.0,0.0
"Vitamin A, IU",IU,--,--,0,0
Lipids
"Fatty acids, total saturated",g,--,--,2.001,7.410
"Fatty acids, total trans",g,--,--,0.000,0.000
"Cholesterol",mg,--,--,0,0
Amino Acids
Other
Ingredients
"BROWN SUGAR, POPPING CORN, TAPIOCA SYRUP, PALM OIL, SUGAR, CANOLA OIL, SALT, NATURAL FLAVORS, SOY LECITHIN, BAKING SODA." Date available: 06/24/2017 Date last updated by company: 06/24/2017
