Source: USDA Branded Food Products Database Release December 2017 Software v.3.8.6.4 2017-10-02
Report Run at: December 19, 2017 06:38 EST
"Nutrient data for: 45273676, ZERO CALORIE GOURMET SYRUP, UPC: 049200903735"
Food Group:  Branded Food Products Database
Common Name:

Nutrient,Unit,Data points,Std. Error,"1 OZA = 30.0g",1Value per 100 g,
Proximates
"Energy",kcal,--,--,0,0
"Protein",g,--,--,0.00,0.00
"Total lipid (fat)",g,--,--,0.00,0.00
"Carbohydrate, by difference",g,--,--,0.00,0.00
Minerals
"Sodium, Na",mg,--,--,0,0
Vitamins
Lipids
Amino Acids
Other
Ingredients
"WATER, CELLULOSE GUM, SUCRALOSE, NATURAL AND ARTIFICIAL FLAVORS, POTASSIUM SORBATE (TO PRESERVE FRESHNESS), CITRIC ACID, CARAMEL COLOR." Date available: 07/14/2017 Date last updated by company: 07/14/2017
