Source: USDA Branded Food Products Database Release December 2017 Software v.3.8.6.4 2017-10-02
Report Run at: December 19, 2017 06:42 EST
"Nutrient data for: 45189902, ZESTY BREAD & BUTTER CHIPS WITH JALAPENO JUICE, UPC: 015400172752"
Food Group:  Branded Food Products Database
Common Name:

Nutrient,Unit,Data points,Std. Error,"5.0 SLICES | ABOUT = 28.0g",1Value per 100 g,
Proximates
"Energy",kcal,--,--,30,107
"Protein",g,--,--,0.00,0.00
"Total lipid (fat)",g,--,--,0.00,0.00
"Carbohydrate, by difference",g,--,--,7.00,25.00
"Sugars, total",g,--,--,7.00,25.00
Minerals
"Sodium, Na",mg,--,--,170,607
Vitamins
Lipids
Amino Acids
Other
Ingredients
"FRESH CUCUMBERS, WATER, SUGAR, VINEGAR, SALT, MUSTARD SEED, CELERY SEED, JALAPENO SEED, CALCIUM CHLORIDE, SODIUM BENZOATE, POLYSORBATE 80, NATURAL FLAVORS, YELLOW 5." Date available: 07/14/2017 Date last updated by company: 07/14/2017
