Source: USDA Branded Food Products Database Release December 2017 Software v.3.8.6.4 2017-10-02
Report Run at: December 19, 2017 06:45 EST
"Nutrient data for: 45328509, ZESTY ITALIAN, UPC: 075450034981"
Food Group:  Branded Food Products Database
Common Name:

Nutrient,Unit,Data points,Std. Error,"2.0 Tbsp = 31.0g",1Value per 100 g,
Proximates
"Energy",kcal,--,--,60,194
"Protein",g,--,--,0.00,0.00
"Total lipid (fat)",g,--,--,6.00,19.35
"Carbohydrate, by difference",g,--,--,2.00,6.45
"Fiber, total dietary",g,--,--,0.0,0.0
"Sugars, total",g,--,--,2.00,6.45
Minerals
"Calcium, Ca",mg,--,--,0,0
"Iron, Fe",mg,--,--,0.00,0.00
"Sodium, Na",mg,--,--,310,1000
Vitamins
"Vitamin C, total ascorbic acid",mg,--,--,0.0,0.0
"Vitamin A, IU",IU,--,--,0,0
Lipids
"Fatty acids, total saturated",g,--,--,1.001,3.230
"Fatty acids, total trans",g,--,--,0.000,0.000
"Cholesterol",mg,--,--,0,0
Amino Acids
Other
Ingredients
"WATER, SOYBEAN OIL, VINEGAR, SUGAR, SALT, CONTAINS LESS THAN 2% OF: GARLIC*, GARLIC, RED BELL PEPPERS*, ONION*, XANTHAN GUM, POTASSIUM SORBATE AND CALCIUM DISODIUM EDTA AS PRESERVATIVES, SPICES, PHOSPHORIC ACID, OLEORESIN PAPRIKA." Date available: 07/14/2017 Date last updated by company: 07/14/2017
