Source: USDA Branded Food Products Database Release December 2017 Software v.3.8.6.4 2017-10-02
Report Run at: December 19, 2017 06:42 EST
"Nutrient data for: 45086602, ZESTY ASPARAGUS GUACAMOLE, UPC: 851461004010"
Food Group:  Branded Food Products Database
Common Name:

Nutrient,Unit,Data points,Std. Error,"2.0 Tbsp = 33.0g",1Value per 100 g,
Proximates
"Energy",kcal,--,--,10,30
"Protein",g,--,--,1.00,3.03
"Total lipid (fat)",g,--,--,0.00,0.00
"Carbohydrate, by difference",g,--,--,2.00,6.06
"Fiber, total dietary",g,--,--,1.0,3.0
"Sugars, total",g,--,--,1.00,3.03
Minerals
"Calcium, Ca",mg,--,--,0,0
"Iron, Fe",mg,--,--,0.54,1.65
"Sodium, Na",mg,--,--,95,288
Vitamins
"Vitamin C, total ascorbic acid",mg,--,--,9.1,27.5
"Vitamin A, IU",IU,--,--,303,918
Lipids
"Fatty acids, total saturated",g,--,--,0.000,0.000
"Fatty acids, total trans",g,--,--,0.000,0.000
"Cholesterol",mg,--,--,0,0
Amino Acids
Other
Ingredients
"ASPARAGUS PUREE, GREEN CHILIS, DICED TOMATO (TOMATOES, TOMATO JUICE, LESS THAN 2% OF: SALT, CITRIC ACID, CALCIUM CHLORIDE), JALAPENO PUREE, VINEGAR, TOMATO PASTE (TOMATO PASTE, LESS THAN 2% OF: SPICES, NATURAL FLAVORS, CITRIC ACID), ONION, GROUND CUMIN, GARLIC POWDER, STARCH, SALT, PEPPER SALT (SALT, SPICE EXTRACTIVES, AND NOT MORE THAN 2% SILICON DIOXIDE ADDED TO PREVENT CAKING), CITRIC ACID, XANTHAN GUM, GROUND CAYENNE RED PEPPER." Date available: 07/14/2017 Date last updated by company: 07/14/2017
