Source: USDA Branded Food Products Database Release December 2017 Software v.3.8.6.4 2017-10-02
Report Run at: December 19, 2017 06:50 EST
"Nutrient data for: 45327105, ZITI MADE FROM CHICKPEAS PASTA, UPC: 857183005441"
Food Group:  Branded Food Products Database
Common Name:

Nutrient,Unit,Data points,Std. Error,"2.0 ONZ = 57.0g",1Value per 100 g,
Proximates
"Energy",kcal,--,--,190,333
"Protein",g,--,--,14.00,24.56
"Total lipid (fat)",g,--,--,3.50,6.14
"Carbohydrate, by difference",g,--,--,32.00,56.14
"Fiber, total dietary",g,--,--,8.0,14.0
"Sugars, total",g,--,--,5.00,8.77
Minerals
"Calcium, Ca",mg,--,--,40,70
"Iron, Fe",mg,--,--,5.21,9.14
"Sodium, Na",mg,--,--,60,105
Vitamins
"Vitamin C, total ascorbic acid",mg,--,--,0.0,0.0
"Vitamin A, IU",IU,--,--,0,0
Lipids
"Fatty acids, total saturated",g,--,--,0.000,0.000
"Fatty acids, total trans",g,--,--,0.000,0.000
"Cholesterol",mg,--,--,0,0
Amino Acids
Other
Ingredients
"CHICKPEAS, TAPIOCA, PEA PROTEIN, XANTHAN GUM." Date available: 10/13/2017 Date last updated by company: 10/13/2017
