Source: USDA Branded Food Products Database Release December 2017 Software v.3.8.6.4 2017-10-02
Report Run at: December 19, 2017 06:57 EST
"Nutrient data for: 45192060, ZPASTA, RAINBOW ANGEL HAIR, UPC: 660550122081"
Food Group:  Branded Food Products Database
Common Name:

Nutrient,Unit,Data points,Std. Error,"0.167 PACKAGE = 57.0g",1Value per 100 g,
Proximates
"Energy",kcal,--,--,205,360
"Protein",g,--,--,7.00,12.28
"Total lipid (fat)",g,--,--,1.00,1.75
"Carbohydrate, by difference",g,--,--,41.00,71.93
"Fiber, total dietary",g,--,--,2.0,3.5
"Sugars, total",g,--,--,0.00,0.00
Minerals
"Calcium, Ca",mg,--,--,0,0
"Iron, Fe",mg,--,--,0.00,0.00
"Sodium, Na",mg,--,--,0,0
Vitamins
"Vitamin C, total ascorbic acid",mg,--,--,0.0,0.0
"Vitamin A, IU",IU,--,--,0,0
Lipids
"Fatty acids, total saturated",g,--,--,0.000,0.000
"Fatty acids, total trans",g,--,--,0.000,0.000
"Cholesterol",mg,--,--,0,0
Amino Acids
Other
Ingredients
"ENRICHED DURUM SEMOLINA FLOUR (DURUM WHEAT, REDUCED IRON, NIACIN, THIAMIN MONONITRATE, RIBOFLAVIN, FOLIC ACID), SPINACH, GARLIC, SUN-DRIED TOMATO POWDER." Date available: 07/14/2017 Date last updated by company: 07/14/2017
