Source: USDA Branded Food Products Database Release December 2017 Software v.3.8.6.4 2017-10-02
Report Run at: December 19, 2017 06:57 EST
"Nutrient data for: 45197395, ZUCCHINI GRILLED, UPC: 070670005711"
Food Group:  Branded Food Products Database
Common Name:

Nutrient,Unit,Data points,Std. Error,"0.5 JAR = 110.0g",1Value per 100 g,
Proximates
"Energy",kcal,--,--,100,91
"Protein",g,--,--,1.00,0.91
"Total lipid (fat)",g,--,--,9.00,8.18
"Carbohydrate, by difference",g,--,--,5.00,4.55
"Fiber, total dietary",g,--,--,0.0,0.0
"Sugars, total",g,--,--,0.00,0.00
Minerals
"Calcium, Ca",mg,--,--,20,18
"Iron, Fe",mg,--,--,0.33,0.30
"Sodium, Na",mg,--,--,370,336
Vitamins
"Vitamin C, total ascorbic acid",mg,--,--,1.1,1.0
"Vitamin A, IU",IU,--,--,182,165
Lipids
"Fatty acids, total saturated",g,--,--,1.001,0.910
"Fatty acids, total trans",g,--,--,0.000,0.000
"Cholesterol",mg,--,--,0,0
Amino Acids
Other
Ingredients
"ZUCCHINI, WATER, SUNFLOWER OIL, GARLIC, VINEGAR, SALT, OLIVE OIL AND SPICES." Date available: 10/11/2017 Date last updated by company: 10/11/2017
