Source: USDA Branded Food Products Database Release December 2017 Software v.3.8.6.4 2017-10-02
Report Run at: December 19, 2017 06:59 EST
"Nutrient data for: 45022733, ZUKO, JAMAICA DRINK MIX, HIBISCUS, UPC: 830108000417"
Food Group:  Branded Food Products Database
Common Name:

Nutrient,Unit,Data points,Std. Error,"1 CUCH = 11.0g",1Value per 100 g,
Proximates
"Energy",kcal,--,--,43,391
"Protein",g,--,--,0.00,0.00
"Total lipid (fat)",g,--,--,0.00,0.00
"Carbohydrate, by difference",g,--,--,11.00,100.00
"Sugars, total",g,--,--,10.00,90.91
Minerals
"Sodium, Na",mg,--,--,5,45
Vitamins
"Vitamin C, total ascorbic acid",mg,--,--,27.3,247.9
Lipids
"Fatty acids, total saturated",g,--,--,0.000,0.000
"Fatty acids, total trans",g,--,--,0.000,0.000
"Cholesterol",mg,--,--,0,0
Amino Acids
Other
Ingredients
"SUGAR, CITRIC ACID (PROVIDES TARTNESS), ARABIC GUM, (PROVIDES BODY), TRICALCIUM PHOSPHATE (PREVENTS CAKING),ASPARTAME* (SWEETENER), ARTIFICIAL HIBISCUS TEA FLAVOR, ACESULFAME POTASSIUM (SWEETENER), FD&C RED.40 (ARTIFICIAL FLAVOR) ASCORBIC ACID (VITAMIN C), FD&C BLUE NO.1 (ARTIFICIAL COLOR)." Date available: 06/25/2017 Date last updated by company: 06/25/2017
